0,2,760594,266927,1387606,78892,9130,693717,0
0,-1,691968,237477,1264839,70866,7556,632412,0
0,-1,689183,237568,1308886,70876,7498,654305,2
0,2,711224,249390,1404870,74407,8485,702444,0
0,-1,692247,237194,1510170,70658,8751,755139,0
0,2,706650,247500,1371953,73485,8376,685964,0
0,2,705892,249960,1430810,74452,8517,715410,0
0,2,706653,247851,1536145,73675,9657,768064,0
0,-1,649687,223709,1298815,67298,7012,649409,0
0,2,709656,248485,1486611,73796,9533,743244,0
0,2,707834,247664,1587233,73691,9672,794051,0
0,2,711849,249033,1402169,74086,9719,701113,0
0,-1,635864,218481,1273804,65484,7475,636896,0
0,2,712618,249289,1326454,74059,9796,662981,0
0,2,710980,248474,1414436,73880,9448,707443,0
0,-1,642579,219522,1261456,65910,8244,630694,0
0,2,706479,247423,1419678,73664,8549,709819,0
0,2,711223,247601,1381582,73701,8589,690793,0
0,-1,635150,218197,1272554,65540,7356,636262,0
0,2,710052,250138,1401742,74752,9377,700924,0
0,-1,636738,219049,1241836,65870,6951,620890,0
0,2,709223,249455,1427013,74508,9450,713572,0
0,2,706946,248050,1420052,73802,8341,710040,0
0,2,708334,248201,1421575,73790,8879,710845,0
0,-1,638547,218745,1288021,65578,7795,644019,0
0,2,709527,249047,1332973,74083,8124,666529,0
0,2,707704,249469,1434440,74181,8750,717273,0
0,-1,642444,220346,1401394,66567,8248,701515,0
0,2,709847,249671,1329632,74297,8460,664868,0
0,2,714274,250381,1340853,74745,9094,670522,0
0,-1,637501,218503,1209594,65682,7059,604676,0
0,2,705119,248535,1363232,73845,7835,681646,0
0,-1,641620,219240,1199612,65824,7134,599869,0
0,2,710673,248444,1350880,73842,9156,675486,0
0,-1,642125,220607,1414154,66427,8413,706852,0
0,2,709216,248876,1621101,74090,10040,810316,0
0,-1,638586,219838,1245809,66059,7655,622850,0
0,2,708608,249560,1451085,74400,8712,725416,0
0,-1,644880,221271,1227474,66832,8035,613591,0
0,2,708790,248705,1262576,73776,8825,631338,0
0,-1,638041,218719,1200343,65822,6905,600186,0
0,2,713677,249343,1274119,74057,8718,637028,0
0,2,714235,249080,1598521,74107,10562,798110,0
0,-1,664450,223740,1359540,69303,7842,679672,0
0,2,711132,250544,1450536,74396,10048,725304,0
0,-1,644444,220352,1404642,66533,7891,702364,0
0,2,716064,249724,1340759,74174,9229,670087,0
0,-1,632310,218584,1201806,65734,7908,600873,0
0,2,709778,249140,1307465,73967,8633,653693,0
0,2,708903,248786,1356961,74010,9446,678516,0
0,-1,638141,219099,1141532,65973,7433,570769,0
0,2,715044,251735,1405737,75162,9992,702944,0
0,-1,639702,220067,1208664,66308,7468,604153,0
0,2,709260,247921,1414339,73603,8967,707223,0
0,2,714406,248963,1451440,73911,9879,725591,0
0,-1,638478,220221,1326708,66483,7925,663376,0
0,2,708975,249386,1337472,73911,9887,668787,0
0,-1,639122,219160,1160769,65916,7381,580420,0
0,2,706946,247583,1426403,73394,8569,713197,0
0,-1,639630,219600,1541225,66043,8631,770699,0
0,2,733527,253516,1439901,77190,10044,719999,0
0,2,715144,250265,1344186,74523,8604,672132,0
0,-1,641444,220607,1209411,66360,7041,604738,0
0,2,712502,248389,1355592,73758,9260,677728,0
0,-1,634588,218419,1143594,65653,7489,571823,0
0,2,718326,251130,1326005,74880,8617,663025,0
0,2,711322,247747,1383869,73471,8869,691922,0
0,-1,640303,219169,1320894,65869,7605,660591,0
0,2,713211,248064,1432257,73573,8741,716119,0
0,2,705590,248246,1458644,73177,8891,729300,0
0,-1,638199,219598,1272825,65945,7652,636409,0
0,2,712526,250486,1314319,74447,8660,657350,0
0,2,704793,247986,1460608,73184,8871,730286,0
0,-1,636296,218968,1194009,65795,7230,597062,0
0,2,712412,249212,1310039,74739,8978,655028,0
0,-1,642447,220766,1264558,66678,6905,632390,0
0,2,706635,247881,1397171,74131,8915,698600,0
0,2,713073,249087,1418130,74463,9733,709134,0
0,-1,637063,219463,1200500,65967,7166,600296,0
0,2,713146,250057,1430595,75056,9436,715234,0
0,2,710321,247588,1417234,73896,9191,708610,0
0,-1,638419,219472,1190062,66011,6732,595105,0
0,2,729934,253262,1352597,77645,10949,676121,0
0,2,706526,247466,1410878,73886,9437,705419,0
0,-1,643701,220970,1461577,66757,8687,730944,0
0,2,709642,248136,1320560,74114,8216,660282,0
0,2,711322,248236,1403069,74108,8812,701552,0
0,-1,638610,219755,1435343,66107,8896,717335,0
0,2,709245,248693,1327273,74313,9061,663683,0
0,-1,641212,219515,1187202,65927,7035,593658,0
0,2,732447,253117,1387921,77358,10342,694457,0
0,-1,641460,219470,1320096,65797,7153,660142,0
0,2,710915,248078,1408652,73977,9502,704357,0
0,2,713270,248132,1457464,73931,9317,728781,0
0,-1,640906,220871,1234430,66513,7049,617278,0
0,2,707854,248636,1467765,74156,9565,733836,0
0,2,709459,248901,1359527,74381,9837,679728,0
0,-1,640469,220035,1239679,66069,7322,619901,0
0,2,715965,249860,1357317,74785,9380,678330,0
0,2,740681,258681,1643868,77317,10217,821866,0
0,2,710168,249792,1302878,74700,8682,651435,0
0,-1,667154,225323,1264028,70097,8450,631998,0
0,2,720541,251912,1424511,75607,10337,712190,0
0,-1,642042,219636,1294639,65950,7308,647370,0
0,2,712954,248518,1502530,74108,8867,751238,0
0,2,736027,254354,1545446,77875,10565,772803,0
0,-1,647919,220818,1225649,66483,7935,612632,0
0,2,708914,248289,1388780,74024,8881,694343,0
0,2,718479,250615,1489511,74864,9584,744579,0
0,2,714171,249315,1420667,74555,9291,710330,0
0,-1,650596,221825,1337879,66750,8509,668462,0
0,2,716414,249196,1349892,74352,9097,674890,0
0,-1,647494,221600,1272571,66494,9822,636146,0
0,2,711193,248133,1331851,73963,8538,665933,0
0,2,716675,249301,1595107,74368,10122,797309,0
0,-1,645382,220944,1284336,66315,7771,642256,0
0,2,711548,248213,1410001,74093,9539,704989,0
0,2,735375,253017,1483115,77663,10433,741507,0
0,-1,640708,220051,1313755,66062,8324,656846,0
0,2,706323,247848,1343406,74218,9672,671653,0
0,-1,651092,221461,1302211,66622,8420,651097,0
0,2,705291,247607,1323118,74140,8917,661549,0
1,2,707220,247996,1376697,73789,8193,688343,0
1,-1,698529,240159,1579744,72042,9085,788231,0
1,2,709174,248348,1499350,73780,9365,749664,0
1,-1,692048,237301,1303102,70812,7967,651315,2
1,2,711741,248361,1391134,73733,8605,695534,0
1,2,708297,248838,1396303,74027,9339,698133,0
1,-1,689954,237598,1289731,70789,7307,644850,0
1,2,710114,249710,1469399,74495,9157,734609,0
1,2,708558,248249,1547031,73887,10298,773910,0
1,-1,638554,219632,1276215,66127,7699,638080,0
1,2,708993,248141,1460475,73753,10072,730264,0
1,2,712342,249364,1392253,74006,9606,696051,0
1,2,710450,248635,1349531,73886,9064,674719,0
1,-1,638940,218565,1182872,65514,7506,591413,0
1,2,715639,249933,1395288,74687,9807,697399,0
1,2,712907,248650,1289316,74047,9501,644651,0
1,-1,637686,219129,1196168,65885,7118,598103,0
1,2,703331,248022,1328699,73770,8718,664389,0
1,-1,635032,218537,1210861,65616,6546,605409,0
1,2,704455,247953,1479782,73745,9782,739887,0
1,2,708104,248788,1399274,74082,8679,699546,0
1,2,709335,248324,1588644,73801,10525,794052,0
1,-1,637472,218545,1250072,65532,8109,625009,0
1,2,710062,249993,1419934,74625,8559,709765,0
1,2,710354,249129,1436222,74072,8905,718194,0
1,-1,660741,223824,1328930,69187,8742,664354,0
1,2,710346,250278,1410365,74646,8933,705201,0
1,2,711853,250170,1469757,74694,8937,734829,0
1,-1,638796,219041,1255303,65904,7909,627496,0
1,2,737955,258813,1441519,77022,8781,720814,0
1,-1,639458,218691,1290195,65694,7929,645107,0
1,2,713604,249815,1371895,74352,8733,685984,0
1,-1,665386,228814,1364975,68631,8167,682469,0
1,2,713159,250636,1426785,74901,8575,713463,0
1,-1,662988,223557,1389998,69064,9689,695556,0
1,2,706867,249199,1321117,74148,8426,660566,0
1,-1,639329,219360,1257894,65981,7299,628929,0
1,2,716842,251520,1569349,75081,9856,784743,0
1,-1,638977,218437,1285744,65707,7437,642797,0
1,2,714077,249402,1488931,74033,9576,744495,0
1,2,719755,251919,1440064,75396,9753,720271,0
1,-1,642636,219371,1353297,66089,7602,676582,0
1,2,707884,249567,1473903,74089,9795,737056,0
1,-1,642367,218821,1286239,65907,8169,643095,0
1,2,717131,250977,1493317,74864,10076,746699,0
1,-1,638797,219979,1147140,66268,7299,573568,0
1,2,717855,250460,1332832,74679,10063,666134,0
1,2,709549,249086,1410558,74046,9710,705327,0
1,-1,637907,219356,1343826,66044,8044,671727,0
1,2,710858,248279,1598608,73724,10995,799349,0
1,2,709823,248197,1337122,73749,8998,668516,0
1,-1,636630,219622,1213078,66109,7216,606528,0
1,2,739506,257792,1392477,76379,9761,696271,0
1,-1,633601,218728,1289453,65800,7741,644746,0
1,2,709887,249891,1316648,74226,9355,658130,0
1,-1,644588,221632,1218569,66964,7412,609305,0
1,2,710750,248664,1297413,73862,8683,648759,0
1,-1,639946,219918,1193822,66181,6471,596970,0
1,2,711632,248891,1379397,73931,8740,689845,0
1,2,709899,248610,1336009,73814,8436,668051,0
1,-1,637952,219288,1277067,65943,7449,638577,0
1,2,710735,247853,1331429,73520,9387,665729,0
1,-1,640218,219512,1382948,65950,7747,691512,0
1,2,713045,249212,1389300,73999,8825,694630,0
1,2,711655,248200,1393354,73668,8255,696649,0
1,-1,646831,222383,1280930,67210,7323,640514,0
1,2,718552,250484,1332139,74534,8204,666115,0
1,2,703107,247959,1653374,73055,9561,826621,0
1,-1,659788,223830,1171714,69219,7731,585963,0
1,2,710364,249605,1408820,73832,8714,704476,0
1,2,703300,248276,1425764,73286,9355,712860,0
1,-1,640992,219066,1271062,65893,7542,635414,0
1,2,706914,247321,1385957,73855,8977,693078,0
1,-1,660507,224180,1258502,69372,7493,629317,0
1,2,706574,248506,1425938,74284,8907,712881,0
1,2,710782,248221,1446796,74111,9419,723433,0
1,-1,637272,219939,1170788,66098,7416,585423,0
1,2,730490,253156,1501090,77561,10854,750371,0
1,2,713116,249046,1326820,74457,9027,663349,0
1,-1,641211,220487,1287048,66484,7045,643588,0
1,2,706388,248059,1304469,74094,9100,652152,0
1,2,710175,248901,1279354,74390,9017,639685,0
1,-1,660383,223898,1246897,69214,7729,623410,0
1,2,708424,247982,1334400,74139,8563,667121,0
1,-1,636350,219262,1291580,65856,7413,645852,0
1,2,711766,248759,1482130,74339,8845,740978,0
1,2,728877,253052,1462605,77512,10567,731249,0
1,-1,639781,219311,1149416,65990,6875,574736,0
1,2,711997,249351,1291441,74389,9373,645776,0
1,-1,645277,221191,1390465,66607,7013,695279,0
1,2,712566,248572,1400293,74109,10333,700195,0
1,2,713666,248304,1493001,74042,9923,746551,0
1,-1,643029,220444,1175647,66163,6934,587860,0
1,2,707633,248441,1460301,74042,10449,730233,0
1,2,711670,248359,1376715,74190,9817,688333,0
1,-1,638905,219513,1172237,65900,7038,586162,0
1,2,709413,248827,1512139,74387,10054,755988,0
1,2,718083,251376,1416049,75469,10145,707997,0
1,2,714731,249186,1481559,74422,9422,740763,0
1,-1,642082,219460,1262485,65921,6355,631313,0
1,2,762049,263224,1517523,80445,11009,758697,0
1,-1,662471,223987,1220695,69269,7949,610318,0
1,2,733165,253824,1465076,77661,10165,732485,0
1,-1,644833,219984,1361322,66199,8318,680708,0
1,2,711968,248779,1402907,74221,9845,701481,0
1,2,711260,248813,1440480,74268,9320,720241,0
1,2,714578,249514,1567245,74516,10710,783574,0
1,-1,647792,220583,1392523,66100,9030,696230,0
1,2,714588,249355,1312195,74499,8964,656124,0
1,2,721025,251030,1327739,75227,10626,663909,0
1,-1,642756,220250,1155146,65958,8411,577407,0
1,2,718681,250477,1374449,74994,9241,687318,0
1,2,713967,248558,1348872,74090,9623,674399,0
1,-1,643468,219848,1371330,65836,8581,685577,0
1,2,718064,250301,1402916,75045,9545,701302,0
1,2,711777,248112,1453951,74281,10054,726866,0
1,-1,662739,223586,1274567,69017,8584,637288,0
1,2,706080,247591,1347520,74078,9266,673790,0
1,-1,645004,219778,1196708,65965,7559,598271,0
1,2,706259,248058,1441504,74269,9796,721029,0
1,-1,648591,221865,1337998,66987,8287,668813,0
2,2,762754,264878,1476445,80135,10541,738159,0
2,-1,694493,237536,1398764,70794,8822,699318,0
2,2,712347,250600,1417796,74790,8857,708925,0
2,2,711525,248502,1415017,73771,8805,707489,0
2,2,704649,247837,1392225,73736,8359,696148,0
2,-1,692239,238469,1424710,71282,7765,712114,0
2,2,705918,248039,1463290,73687,8568,731620,0
2,-1,635863,219247,1299504,65838,8017,649666,2
2,2,708286,248254,1510120,73880,9145,754187,0
2,-1,635602,218707,1277172,65622,7994,638633,0
2,2,710514,248693,1332619,73935,9538,666309,0
2,2,707273,248385,1362561,73765,8882,681085,0
2,2,711341,248927,1381586,74010,9615,690764,0
2,-1,660526,223251,1359514,68924,8622,679788,0
2,2,711732,249164,1304650,74261,9258,652226,0
2,2,731359,252901,1339234,77278,10106,669534,0
2,-1,637273,219278,1233579,65938,7135,616832,0
2,2,729788,256867,1334106,76463,9031,667004,0
2,-1,640087,220594,1213421,66564,7722,606714,0
2,2,705258,248632,1463934,74056,8820,731915,0
2,2,709004,248433,1614475,73913,10575,807337,0
2,2,730281,253286,1342548,77321,8640,671305,0
2,-1,639518,218579,1138418,65543,7670,569178,0
2,2,705826,249150,1314088,74137,8448,657121,0
2,2,710181,248882,1300118,74075,8800,649640,0
2,-1,639190,219500,1189708,65982,7292,594844,0
2,2,706142,248485,1359171,73892,8866,679644,0
2,2,707690,249148,1417748,74091,9037,708923,0
2,-1,641700,219198,1269023,65941,7887,634400,0
2,2,708000,248454,1396718,73869,8258,698403,0
2,-1,640799,219172,1237403,65850,7163,618597,0
2,2,708693,248761,1376736,73989,8314,688413,0
2,-1,638401,219143,1263168,65824,8512,631616,0
2,2,708705,249490,1418822,74229,8757,709477,0
2,-1,642954,220194,1285972,66161,8125,642812,0
2,2,705416,247942,1436614,73680,8490,718347,0
2,-1,638892,219196,1247857,65843,7487,623903,0
2,2,706248,247944,1313919,73511,8477,657013,0
2,-1,638326,218603,1219443,65798,7175,609419,0
2,2,713218,249565,1334569,74089,9145,667327,0
2,2,715527,249904,1430253,74427,9770,715155,0
2,-1,641392,219305,1305311,66017,7413,652703,0
2,2,707376,250074,1742577,74236,11714,871252,0
2,-1,646961,221641,1326519,67148,8364,663333,0
2,2,717232,251254,1442543,75056,9714,721298,0
2,-1,635562,219106,1213734,65940,7367,606804,0
2,2,710290,248929,1413772,74003,9288,706709,0
2,2,709801,250206,1369843,74725,9352,684967,0
2,-1,642097,220954,1417294,66801,8703,708587,0
2,2,717361,251793,1312158,75150,8976,656156,0
2,2,706876,247776,1367082,73596,8417,683521,0
2,-1,645186,221298,1367790,67013,8070,683973,0
2,2,712510,249165,1394677,74004,9709,697356,0
2,-1,641400,219732,1307458,66182,7909,653869,0
2,2,721327,251292,1423103,74887,10573,711640,0
2,-1,637288,219158,1173866,65845,7048,586931,0
2,2,709364,248370,1424690,73674,8801,712384,0
2,-1,636651,219335,1164872,65981,7258,582476,0
2,2,710394,248442,1458302,73717,9247,729073,0
2,2,710133,248165,1309243,73659,8651,654679,0
2,-1,639267,219392,1294001,65878,7418,647011,0
2,2,717323,250826,1333975,74732,9758,666900,0
2,-1,636477,219479,1295242,65952,7262,647642,0
2,2,717360,250808,1329084,74736,8846,664488,0
2,2,714918,250012,1285722,74556,8384,642766,0
2,-1,658481,223815,1242744,69191,7731,621309,0
2,2,711980,247824,1428124,73441,8431,714057,0
2,2,703960,248520,1377002,73297,9161,688500,0
2,-1,638374,219426,1182038,65990,7054,591075,0
2,2,704838,248014,1479525,73131,8663,739034,0
2,2,727806,252537,1501326,76550,9735,750694,0
2,-1,647788,221749,1291099,66981,7298,645629,0
2,2,708809,248008,1425748,74081,9224,712841,0
2,-1,643969,219740,1242954,66056,7452,621521,0
2,2,709315,247846,1234566,74041,9491,617269,0
2,2,710597,248843,1574216,74363,9632,787293,0
2,-1,636070,219460,1150516,65943,7483,575297,0
2,2,710007,249260,1404575,74524,9802,702641,0
2,2,710479,248158,1398694,74164,9255,699353,0
2,-1,637912,219661,1341117,66002,6865,670550,0
2,2,709318,248347,1431445,74215,10333,715713,0
2,2,706989,248025,1417373,74044,9209,708531,0
2,-1,638348,219196,1343047,65826,6900,671575,0
2,2,707466,248007,1435784,74076,8728,717870,0
2,-1,637039,219048,1185245,65794,6933,592682,0
2,2,713060,249999,1297830,74998,8125,648577,0
2,2,705043,247859,1313236,74003,9254,656633,0
2,-1,639604,219083,1186791,65880,6612,593451,0
2,2,736022,257705,1659045,76860,9890,828674,0
2,-1,640031,219429,1393785,65902,8047,696947,0
2,2,715589,250285,1330338,74977,8638,665232,0
2,-1,638880,219643,1252717,65930,6549,626563,0
2,2,711481,247842,1482066,73849,9691,741084,0
2,2,705646,247978,1510929,73832,9081,755493,0
2,2,712586,249562,1473471,74638,9230,736706,0
2,-1,638748,219533,1187823,65919,6838,593965,0
2,2,715680,250444,1319260,75180,8866,659432,0
2,2,712384,249435,1441423,74556,10238,720719,0
2,2,737449,254077,1515515,77866,10789,757729,0
2,-1,645124,220877,1336089,66560,7108,668106,0
2,2,712137,249046,1380785,74272,9510,690281,0
2,-1,640782,219505,1275322,65957,7383,637697,0
2,2,711443,249309,1341184,74280,9687,670501,0
2,2,717377,250623,1503831,75025,10598,751902,0
2,-1,642226,219887,1339677,66190,7365,670054,0
2,2,711925,249048,1310584,74370,9533,655336,0
2,2,741071,255461,1520113,78188,10758,760121,0
2,-1,644793,220400,1370591,66032,9809,685284,0
2,2,715735,249061,1390821,74383,9340,695446,0
2,2,716569,249289,1530623,74399,9665,764959,0
2,-1,640874,220158,1197487,66020,8028,598828,0
2,2,712693,249125,1444770,74353,8777,722294,0
2,2,720922,251784,1465373,75460,10443,732709,0
2,-1,644044,220465,1306744,66188,9721,653143,0
2,2,711874,248292,1267489,74151,8933,633996,0
2,2,714625,248048,1462104,74194,9541,730922,0
2,-1,644210,220545,1204090,66208,7511,601079,0
2,2,707081,247889,1472954,74152,9579,736482,0
2,-1,645759,220389,1309585,66102,8425,654737,0
2,2,707346,247433,1412150,74009,8868,705943,0
2,2,712958,249409,1539006,74731,9946,769345,0
2,-1,664909,224727,1359143,69432,7957,679675,0
3,2,742861,260886,1513028,76948,9547,756474,0
3,-1,697890,239478,1473882,71584,8207,736951,0
3,2,707792,248213,1284667,73736,8525,642328,0
3,2,710759,248365,1325622,73677,8908,662782,0
3,2,706800,247574,1373799,73593,8340,686884,0
3,-1,689182,236307,1334640,70439,8124,667319,0
3,2,705128,247074,1363480,73332,8951,681769,0
3,2,707137,247939,1450326,73693,10327,725123,0
3,-1,636687,218510,1268716,65519,7600,634273,2
3,-1,642487,219382,1325197,65836,8645,662532,0
3,2,713465,248135,1392646,73865,9264,696369,0
3,2,715735,250891,1574327,74816,10614,787165,0
3,2,707043,247761,1404209,73530,8673,702100,0
3,-1,639042,218583,1325548,65588,7215,662809,0
3,2,731811,253219,1405995,77356,10061,702933,0
3,2,711286,248560,1387192,74051,9287,693594,0
3,-1,636098,219267,1136123,65874,6406,567965,0
3,2,711584,251150,1364006,75174,9800,681871,0
3,-1,636725,219330,1186020,65848,6916,592962,0
3,2,730283,253215,1473892,77354,10613,736812,0
3,2,709241,248991,1629932,74172,10476,815005,0
3,2,710833,249148,1453305,74187,10080,726065,0
3,-1,638007,218608,1279538,65525,7382,639834,0
3,2,708826,249914,1418332,74570,8839,709313,0
3,2,713581,250847,1492085,74950,9394,746119,0
3,-1,638202,219135,1193249,65867,7898,596587,0
3,2,710758,248595,1683923,73969,10494,841988,0
3,2,711709,248499,1300465,73864,8487,650294,0
3,-1,642222,219789,1325009,66311,8447,662424,0
3,2,707124,248931,1432347,74017,8611,716232,0
3,-1,647362,221967,1399223,67138,8361,699550,0
3,2,712117,250103,1411870,74603,8526,705840,0
3,-1,636917,218793,1383176,65717,8509,691534,0
3,2,710296,248665,1339296,73931,8442,669681,0
3,-1,644796,220808,1347273,66541,8296,673652,0
3,2,712907,248703,1397717,73778,8958,698911,0
3,-1,646683,220734,1210683,66570,8435,605343,0
3,2,711909,249779,1390200,74395,8769,695181,0
3,-1,644052,221263,1310604,66949,7555,655292,0
3,2,710539,248629,1378001,73986,9224,689045,0
3,2,712735,249082,1363978,74132,8795,681987,0
3,-1,641091,218607,1199938,65780,7047,599966,0
3,2,715755,250273,1457063,74281,9376,728517,0
3,-1,640785,218697,1232543,65823,8056,616242,0
3,2,713054,249262,1401390,74097,10042,700657,0
3,-1,640366,221394,1322233,66992,7702,661091,0
3,2,713893,249984,1326047,74340,9063,663030,0
3,2,711072,249466,1388317,74218,9394,694064,0
3,-1,634395,218730,1250693,65807,7383,625339,0
3,2,710295,248687,1599617,73913,10483,799975,0
3,-1,639368,220474,1263320,66618,7837,631674,0
3,2,704221,246648,1282623,73240,8042,640912,0
3,2,711577,248685,1312255,73889,9059,656187,0
3,-1,644312,220513,1355342,66626,8590,677887,0
3,2,741476,254897,1435523,77469,10426,717748,0
3,-1,637069,219477,1119871,66010,6798,559928,0
3,2,714301,250626,1401892,74721,9849,701018,0
3,-1,640306,220128,1452902,66164,7813,726438,0
3,2,709947,248669,1374270,73844,8724,687098,0
3,-1,638414,219554,1281947,65979,7387,641019,0
3,2,709288,248256,1408208,73636,8830,704236,0
3,2,713892,248376,1336640,73757,9159,668178,0
3,-1,639452,220223,1299851,66448,7230,649989,0
3,2,730426,252684,1410841,76934,9063,705519,0
3,2,714436,248932,1301481,73924,9081,650711,0
3,-1,641260,219519,1410640,65975,7871,705356,0
3,2,710493,248167,1325952,73550,8457,662883,0
3,2,705364,247979,1388793,73076,8819,694198,0
3,-1,637487,219104,1187790,65852,7168,593956,0
3,2,704476,248168,1402654,73142,8778,701332,0
3,2,705665,248287,1291058,73345,9114,645482,0
3,-1,641888,219820,1317817,66105,7835,658961,0
3,2,711354,248455,1518076,74270,9976,758933,0
3,-1,641890,219281,1170843,65972,7115,585466,0
3,2,705810,248194,1240863,74176,9221,620410,0
3,2,709108,248447,1482105,74242,9753,741108,0
3,-1,640973,221581,1201995,66959,7317,601083,0
3,2,707627,248392,1577370,74231,9219,788751,0
3,-1,643033,221225,1278652,66842,7592,639407,0
3,2,710118,248153,1392498,74101,9222,696254,0
3,2,708346,248389,1550176,74208,10221,775095,0
3,2,706419,248216,1405449,74083,8945,702805,0
3,-1,639128,220053,1248554,66164,6583,624345,0
3,2,713553,250182,1402412,75029,9738,701243,0
3,-1,636548,219540,1269773,65979,8017,634903,0
3,2,730035,253218,1471221,77603,9477,735561,0
3,2,734436,252964,1474199,77538,10133,737079,0
3,-1,660155,224078,1407140,69303,7359,703554,0
3,2,711422,249840,1425711,74783,9968,713008,0
3,-1,641071,219794,1298937,66024,7142,649513,0
3,2,708618,248671,1472919,74175,9484,736623,0
3,-1,638468,219667,1196816,65944,6361,598453,0
3,2,710197,247671,1389355,73797,8728,694732,0
3,2,708402,249172,1530582,74336,10197,765124,0
3,2,712757,249450,1516953,74678,9178,758490,0
3,-1,666720,224655,1426336,69388,8417,713234,0
3,2,711683,249710,1348845,74757,8934,674478,0
3,2,717579,250718,1416073,75183,9871,708143,0
3,-1,640185,219326,1270679,65763,6855,635392,0
3,2,718733,249833,1345133,74715,9390,672576,0
3,2,714124,249784,1421777,74523,9587,710812,0
3,-1,642929,220847,1289386,66638,7316,644732,0
3,2,734667,254893,1423947,77953,10046,711862,0
3,2,717378,251025,1456429,75330,9710,728285,0
3,-1,643472,220061,1189770,66226,7459,594884,0
3,2,711160,249001,1380769,74389,9324,690169,0
3,2,735764,254954,1609019,77974,10179,804423,0
3,-1,646645,220598,1242830,66101,8646,621629,0
3,2,718980,250535,1360523,75116,9115,680278,0
3,2,722402,251394,1449472,75347,9887,724471,0
3,-1,643551,221813,1321493,66789,8606,660546,0
3,2,711770,248725,1464355,74213,9257,731945,0
3,2,732877,252532,1477175,77167,10776,738508,0
3,-1,644226,220460,1323861,66067,8376,661933,0
3,2,712115,248310,1336037,74093,9411,668000,0
3,2,715271,248546,1331696,74400,10540,665777,0
3,-1,642845,219894,1262305,66056,7855,631160,0
3,2,706421,247812,1468223,74123,8960,734138,0
3,-1,645172,220092,1384091,66006,8339,691960,0
3,2,716044,250279,1374798,75305,10082,687173,0
3,2,707359,248357,1387018,74205,9384,693407,0
3,-1,641127,219385,1352098,65917,8009,676039,0
4,2,760846,266974,1625257,78842,9869,812130,0
4,-1,691197,237034,1208799,70644,7136,604430,0
4,2,707468,248292,1344743,73755,8822,672395,0
4,2,713591,249688,1438036,74347,9336,718906,0
4,-1,723210,248012,1356588,73915,8133,678152,0
4,2,729397,253074,1396743,77269,9235,698388,0
4,2,706739,247632,1472324,73565,9304,736202,0
4,2,706758,247940,1298513,73791,8454,649241,0
4,-1,660877,223383,1330377,68933,8974,665115,0
4,2,718852,251150,1415508,75101,8845,707791,0
4,2,711149,249005,1461820,73980,9295,731310,0
4,2,714401,250590,1463268,74802,9151,731614,0
4,-1,638279,218680,1270095,65647,6785,635002,0
4,-1,639012,219155,1330870,65774,8089,665407,2
4,2,713305,250722,1477871,74929,9190,738769,0
4,2,710156,248451,1385359,73955,9237,692561,0
4,-1,640062,220811,1204544,66705,7025,602219,0
4,2,701711,248116,1328720,73831,8603,664331,0
4,-1,635043,219032,1210028,65750,7369,604924,0
4,2,709487,248832,1433218,74065,8964,716457,0
4,2,708313,249079,1442249,74131,9406,721161,0
4,2,707587,248861,1299976,74012,7927,649998,0
4,-1,647667,222280,1310700,67076,8304,655300,0
4,2,704768,248434,1508841,73787,9207,754415,0
4,-1,637708,219025,1291587,65875,7646,645797,0
4,2,707499,248282,1321472,73806,8494,660635,0
4,2,711544,248692,1381338,74021,8382,690714,0
4,2,711870,249359,1676089,74237,10115,837627,0
4,-1,639290,218489,1267433,65704,7431,633211,0
4,2,711828,251252,1347511,75155,8557,673831,0
4,-1,663297,224011,1290139,69260,8750,645010,0
4,2,710111,248791,1362161,73973,8708,681127,0
4,-1,637418,219249,1323542,65775,8456,661695,0
4,2,714478,249926,1361185,74330,9380,680634,0
4,-1,641232,219107,1377520,65759,7774,688716,0
4,2,716681,249640,1354076,74099,8723,677084,0
4,-1,640487,218780,1142069,65695,7416,571022,0
4,2,706266,248366,1394239,73660,8768,697078,0
4,-1,659605,223694,1249385,69282,7746,624644,0
4,2,708708,249044,1282544,74112,8414,641331,0
4,-1,644936,220817,1315129,66824,7791,657510,0
4,2,715950,250743,1451955,74820,9889,725209,0
4,2,720578,250431,1386306,74360,9492,693155,0
4,-1,639790,218510,1211847,65767,7788,605834,0
4,2,715423,250386,1433321,74724,10364,716676,0
4,-1,633876,219372,1356674,66098,7093,678312,0
4,2,710852,248675,1313377,73901,9106,656687,0
4,2,716691,250206,1370727,74747,9692,685313,0
4,-1,633794,218798,1272322,65845,7703,636136,0
4,2,708772,248512,1342680,73776,9158,671351,0
4,-1,636343,218773,1325405,65818,7829,662711,0
4,2,707843,248266,1383088,73782,8611,691607,0
4,2,731581,253396,1410085,77226,9910,705018,0
4,-1,639502,219094,1239810,66000,7421,619901,0
4,2,713939,248708,1313109,73635,8879,656557,0
4,-1,642145,221217,1483496,66920,8247,741853,0
4,2,715311,250557,1416036,74657,9256,707999,0
4,-1,636846,218845,1263383,65718,7147,631737,0
4,2,708497,248208,1397463,73619,9312,698790,0
4,-1,635050,219220,1292621,65884,6673,646353,0
4,2,706567,247765,1594097,73570,9426,796726,0
4,2,712003,248120,1404683,73586,10308,702385,0
4,-1,636387,219319,1164697,65959,6661,582394,0
4,2,706917,247688,1296424,73550,8584,648221,0
4,2,710587,247889,1360718,73559,9545,680212,0
4,-1,639780,219372,1491335,66004,8958,745219,0
4,2,710364,248020,1297817,73516,8386,648862,0
4,2,723140,252630,1360879,76426,9507,680373,0
4,-1,639527,220248,1163273,66280,7021,581661,0
4,2,707645,249966,1339417,74047,9025,669703,0
4,2,706328,247898,1406902,73123,9226,703483,0
4,-1,639563,218990,1385416,65708,7009,692762,0
4,2,711452,248995,1343855,74645,9453,671896,0
4,-1,643643,220383,1282571,66496,7456,641350,0
4,2,703838,247497,1334598,73921,9358,666922,0
4,2,708547,248079,1439153,74073,10119,719675,0
4,-1,657102,223848,1171266,69209,7862,585603,0
4,2,710018,250320,1409650,75147,9845,704953,0
4,-1,638004,219940,1304791,66105,7571,652448,0
4,2,712145,249319,1329986,74727,9301,664991,0
4,2,704851,247593,1330973,73929,9686,665452,0
4,2,709175,248939,1462540,74355,10239,731317,0
4,-1,636761,219487,1186330,65931,6343,593227,0
4,2,707764,248781,1518331,74368,10379,759122,0
4,-1,639257,219814,1176533,66069,7077,588324,0
4,2,736346,257830,1391135,77049,9084,695535,0
4,2,713814,249544,1319264,74739,7948,659632,0
4,-1,641355,220668,1292397,66600,7416,646274,0
4,2,714674,249536,1399896,74664,10224,699481,0
4,-1,645476,221719,1298512,66999,7747,649347,0
4,2,708187,248232,1359518,73996,9635,679790,0
4,-1,637338,219487,1207498,66000,6368,603856,0
4,2,714533,248960,1341749,74246,9169,670936,0
4,2,705762,249363,1454389,74394,9013,727011,0
4,2,713235,250038,1445237,74860,8819,722582,0
4,-1,645581,220595,1436615,66247,8716,718397,0
4,2,708650,248807,1447492,74461,10253,723851,0
4,2,714701,248877,1540445,74350,9726,770311,0
4,-1,660857,224042,1209761,69129,7454,604854,0
4,2,714753,249466,1429365,74532,9544,714688,0
4,2,715765,249446,1343487,74456,9516,671713,0
4,-1,647059,222053,1254802,67176,7673,627473,0
4,2,714044,249248,1272092,74280,8954,635966,0
4,2,716149,250346,1392964,74990,9100,696561,0
4,-1,647812,220320,1304105,66209,8246,652024,0
4,2,710275,248634,1398295,74164,10034,698856,0
4,2,715528,250146,1649322,74598,12149,824253,0
4,-1,645954,220593,1219319,66171,8512,609493,0
4,2,712752,248731,1429055,74394,9509,714475,0
4,2,714648,248979,1390552,74386,8665,695440,0
4,-1,661326,225097,1237488,69406,8490,618553,0
4,2,731816,252912,1514755,77369,10431,757171,0
4,2,712582,248324,1495115,74022,9781,747357,0
4,-1,648773,222622,1294757,67088,8695,647236,0
4,2,713586,248907,1441150,74600,9320,720453,0
4,2,709936,247474,1338516,73998,10032,669255,0
4,-1,642573,219615,1261805,65867,8697,630692,0
4,2,729074,252696,1450650,77555,10097,725381,0
4,-1,648321,222018,1365185,66920,8248,682452,0
4,2,731631,252717,1358222,77565,9685,678933,0
4,2,707385,248334,1305059,74183,9351,652575,0
4,-1,640445,219148,1191179,65798,7175,595555,0
5,2,761503,266723,1477937,78808,9904,738558,0
5,-1,712417,241700,1450418,73940,8646,725221,0
5,2,709045,248060,1358514,73601,8849,679243,0
5,2,711048,247713,1435655,73506,8819,717690,0
5,-1,711045,242400,1404981,74164,8605,702524,0
5,2,706274,248386,1275714,73895,7644,637906,0
5,2,710915,249871,1495108,74489,9133,747547,0
5,2,710758,249142,1403734,74308,9091,701784,0
5,-1,639946,219057,1228204,65729,8136,614197,0
5,2,709486,248429,1450087,73823,8729,725074,0
5,2,708748,248529,1569026,73798,9556,784705,0
5,2,705189,247352,1488278,73504,9174,744146,0
5,-1,639920,218993,1256522,65744,7204,628128,0
5,2,711314,248734,1366932,74102,8660,683421,0
5,2,712454,249086,1439131,74176,9057,719513,0
5,-1,655592,223430,1192084,69045,7838,595934,0
5,2,724234,252832,1495730,77216,9235,747845,0
5,-1,640588,220682,1258971,66753,7018,629451,2
5,-1,638466,218510,1240639,65691,7161,620296,0
5,2,708622,249175,1342166,74189,8578,671061,0
5,2,739275,259388,1514255,77459,10084,757206,0
5,-1,658830,223355,1293274,68915,8656,646618,0
5,2,709996,249153,1385640,74078,8152,692871,0
5,2,704389,248718,1297616,73942,8615,648846,0
5,-1,636573,219080,1177782,65765,6924,588892,0
5,2,711066,249761,1496681,74509,9257,748439,0
5,2,710319,248555,1354363,73965,8045,677155,0
5,-1,637355,217983,1266315,65470,8756,633008,0
5,2,715088,250319,1431523,74694,8782,715838,0
5,2,706513,248728,1248233,74023,8379,624140,0
5,-1,644076,219521,1302917,66105,7809,651581,0
5,2,708016,248560,1291151,73924,8211,645616,0
5,-1,637591,219410,1266712,65944,8156,633259,0
5,2,709824,248555,1253074,73896,8659,626686,0
5,-1,646227,221390,1572162,66741,8576,786099,0
5,2,713481,248893,1330682,73902,8883,665418,0
5,-1,639788,218739,1198860,65694,7486,599313,0
5,2,712186,248995,1364240,73977,8456,682173,0
5,-1,639921,219508,1275556,66124,7666,637404,0
5,2,707794,248628,1304963,73819,8594,652547,0
5,-1,663462,223688,1262992,69206,8095,631164,0
5,2,713362,250119,1321102,74502,8563,660417,0
5,2,723390,251945,1465036,75108,10539,731750,0
5,-1,646714,221113,1241082,66891,8764,620530,0
5,2,712394,249506,1400822,74161,10335,700483,0
5,-1,633363,219727,1277635,66375,6886,638831,0
5,2,711439,249227,1697349,74097,10493,848670,0
5,2,735633,254300,1384419,77577,9961,692252,0
5,-1,639920,220043,1248824,66289,7683,624424,0
5,2,732133,253754,1350164,77289,9563,675043,0
5,-1,634672,218524,1238967,65747,7535,619257,0
5,2,713749,248917,1315248,74001,9221,657666,0
5,2,710906,248780,1333676,73931,9620,666888,0
5,-1,639857,219129,1321426,65936,8223,660649,0
5,2,716276,249115,1421084,73739,9547,710566,0
5,-1,656225,223339,1240441,69168,7791,620130,0
5,2,706423,248038,1295854,73559,8246,647931,0
5,-1,637374,219419,1188734,65988,6818,594406,0
5,2,710571,249551,1393242,74318,9096,696699,0
5,-1,657910,224281,1262706,69343,7457,631391,0
5,2,706785,248189,1450056,73628,9039,725042,0
5,2,712682,248565,1358599,73803,10331,679135,0
5,-1,638065,219907,1314622,66126,7103,657369,0
5,2,710399,249025,1426254,73883,8881,713217,0
5,2,710957,248304,1301246,73671,8782,650609,0
5,-1,645427,221482,1336735,66832,7812,668435,0
5,2,712727,248667,1320305,73664,8284,660110,0
5,2,704181,248363,1449719,73238,8205,724831,0
5,-1,639610,219700,1306575,66059,8210,653228,0
5,2,708349,249040,1440146,73400,9063,719877,0
5,-1,641000,219614,1230428,66107,6703,615309,0
5,2,709076,250004,1402746,73998,9879,701493,0
5,2,704801,248500,1405188,73446,9018,702594,0
5,-1,640982,219106,1196694,65927,7432,598385,0
5,2,704975,247715,1386757,73956,9203,693288,0
5,2,713419,249953,1299970,74994,9413,649843,0
5,-1,636082,219580,1244585,66043,7396,622350,0
5,2,736706,253325,1563830,77642,10651,781850,0
5,-1,636705,219478,1257128,65946,6842,628669,0
5,2,729992,252565,1462502,77422,10295,731187,0
5,2,708350,249376,1308065,74722,9403,653819,0
5,-1,640338,219562,1536428,65958,8635,768260,0
5,2,708837,248047,1408292,74054,9445,704176,0
5,2,710397,247843,1317356,73964,9011,658646,0
5,-1,645961,220583,1355406,66540,8069,677761,0
5,2,711014,247955,1364676,74071,8983,682282,0
5,2,711568,248300,1411836,74229,9229,705914,0
5,-1,636949,219224,1282961,65924,7036,641540,0
5,2,708624,247406,1304193,73719,9025,652147,0
5,-1,661061,223468,1225941,69015,7567,612957,0
5,2,709286,248486,1404112,74034,10153,702077,0
5,-1,638911,219580,1230325,66005,7356,615223,0
5,2,713562,248630,1401349,74216,8795,700709,0
5,2,736425,253059,1514872,77384,10873,757478,0
5,2,711978,249348,1449704,74561,9837,724841,0
5,-1,640768,219119,1193492,65742,6839,596778,0
5,2,712129,249332,1630371,74618,10153,815126,0
5,2,714829,249265,1485613,74463,10269,742731,0
5,-1,641667,220011,1279975,66026,7011,640034,0
5,2,718126,250660,1437773,75213,9469,719190,0
5,2,715162,249543,1436282,74478,11067,718153,0
5,-1,661031,224113,1230923,69163,7898,615413,0
5,2,717566,249800,1310093,74513,9858,655047,0
5,2,716059,249309,1640080,74438,10640,819668,0
5,-1,667013,225041,1282223,69513,7935,641045,0
5,2,711735,249258,1305439,74461,9946,652603,0
5,2,717388,250713,1350584,75021,9705,675275,0
5,-1,649297,221885,1217953,66775,8683,608982,0
5,2,712208,248798,1440962,74274,9508,720450,0
5,2,718211,250286,1589203,74993,9766,792661,0
5,-1,640725,220934,1331358,66291,8640,665392,0
5,2,712065,248911,1318062,74298,8875,658885,0
5,2,715167,249203,1301717,74285,9751,650782,0
5,-1,665011,225393,1268428,69517,8867,634207,0
5,2,710694,248071,1496636,74064,9374,747948,0
5,2,713718,248211,1342625,74298,9544,671309,0
5,-1,640691,219852,1271026,65983,7824,635275,0
5,2,707528,248287,1347615,74280,9627,673832,0
5,-1,665994,224844,1242631,69328,8798,620954,0
5,2,710046,248231,1292543,74338,8699,646283,0
5,2,715505,249681,1416975,74617,9262,708482,0
5,-1,640894,219446,1291417,65880,8095,645717,0
6,2,767637,267664,1617000,79318,10927,808657,0
6,-1,689576,237184,1399912,70724,7767,698842,0
6,2,709673,247787,1394809,73442,8970,697405,0
6,2,716310,250463,1439648,74756,9778,719803,0
6,-1,691593,237674,1402633,70805,7822,701270,0
6,2,704476,248077,1382670,73706,7977,691279,0
6,2,708302,248076,1447303,73755,9578,723595,0
6,2,705384,247750,1347371,73643,8499,673784,0
6,-1,637466,218171,1194290,65507,7257,597138,0
6,2,708933,248658,1450940,73959,9004,725332,0
6,2,706681,248279,1372868,73783,8911,686104,0
6,-1,638880,218966,1293341,65702,7496,646669,0
6,2,707778,248467,1445623,73807,9598,722502,0
6,2,708187,247908,1500767,73869,9566,750382,0
6,2,709696,248136,1403684,73953,9531,701857,0
6,-1,632652,218545,1119696,65666,6756,559837,0
6,2,719598,250579,1397174,74981,9208,698593,0
6,-1,636112,217974,1246457,65496,6889,623240,0
6,2,726168,253393,1303224,77416,9739,651481,0
6,-1,635246,219793,1145620,66090,6815,572815,2
6,2,725810,252517,1461410,77106,10220,730657,0
6,-1,638323,218457,1284230,65600,7206,642083,0
6,2,710370,250004,1386414,74414,8453,693257,0
6,2,708526,250695,1421782,74883,9183,710852,0
6,-1,636830,218534,1219176,65713,6866,609720,0
6,2,705924,248493,1302506,73877,8584,651300,0
6,2,709273,248665,1307298,73970,8152,653719,0
6,-1,638063,218594,1311741,65811,7892,654915,0
6,2,707365,248023,1325033,73716,8537,662556,0
6,2,704772,248560,1617592,73887,10233,808520,0
6,-1,661216,223356,1296162,69074,7501,647851,0
6,2,728359,253319,1368082,77253,8722,683998,0
6,-1,640595,221291,1320788,66815,8861,660295,0
6,2,715533,251382,1475994,75155,7867,738001,0
6,-1,645395,220654,1171906,66240,7602,585705,0
6,2,713462,249223,1295406,74047,8463,647746,0
6,-1,663977,224098,1285803,69233,8589,642854,0
6,2,711351,249039,1328136,73987,8487,664105,0
6,-1,637598,218448,1289874,65734,7610,644946,0
6,2,708674,248828,1456258,73826,8733,728176,0
6,-1,641916,219364,1302637,66068,7946,651192,0
6,2,711833,249399,1443630,74197,9555,721794,0
6,2,739186,254550,1401741,77474,10178,700859,0
6,-1,645264,219844,1323363,66366,8468,661663,0
6,2,712307,250295,1351320,74402,9406,675615,0
6,-1,636700,218754,1160581,65858,6083,580349,0
6,2,709753,248877,1295501,73969,8670,647732,0
6,2,714904,249586,1426078,74463,9985,713096,0
6,-1,658396,223987,1323411,69380,9036,661096,0
6,2,710336,249232,1410852,74042,9261,705479,0
6,-1,639404,220728,1323455,66700,8208,661606,0
6,2,714068,249300,1468823,74089,9642,734461,0
6,2,710952,248189,1285570,73680,9069,642790,0
6,-1,639130,219142,1251773,65990,7117,625913,0
6,2,713525,248532,1423657,73559,9643,711870,0
6,-1,637681,219388,1269528,66006,6928,634825,0
6,2,707107,248085,1338715,73604,9561,669408,0
6,-1,637135,219109,1300665,65844,6753,650356,0
6,2,709241,248436,1431662,73734,9425,715881,0
6,-1,637238,219731,1269652,65978,7714,634864,0
6,2,711001,248322,1267766,73712,8533,633930,0
6,2,711751,248356,1299837,73664,9781,649958,0
6,-1,642718,221519,1455259,66932,8591,727679,0
6,2,711879,248657,1460730,73841,9492,730357,0
6,2,711585,247993,1334860,73590,8966,667376,0
6,-1,639489,219716,1289546,66031,6850,644826,0
6,2,712218,248315,1294492,73645,8684,647207,0
6,2,705146,248899,1368547,73387,8178,684075,0
6,-1,637938,219387,1384784,65923,7124,692438,0
6,2,707587,248952,1406362,73418,9408,703160,0
6,-1,641772,220204,1278401,66187,6875,639266,0
6,2,706068,248673,1494288,73474,9806,747199,0
6,2,704041,248152,1428147,73299,8638,713975,0
6,-1,646697,221699,1299869,67081,8511,649895,0
6,2,709206,249067,1614851,74466,9366,806674,0
6,2,729848,252610,1461784,77436,10556,730703,0
6,-1,637496,220674,1271017,66567,7323,635613,0
6,2,713141,248441,1375106,74259,9414,687017,0
6,-1,657710,223641,1241636,69143,7755,620791,0
6,2,708789,248199,1385985,74183,9539,693005,0
6,2,712002,247943,1347355,74076,9131,673607,0
6,2,712567,249157,1497664,74490,9007,748789,0
6,-1,640497,219885,1216575,66117,6575,608351,0
6,2,712756,249455,1428653,74762,9618,714349,0
6,-1,641277,219157,1158118,65825,7031,578984,0
6,2,711794,248027,1321502,74201,9061,660720,0
6,2,716563,250072,1410819,75049,8976,705330,0
6,-1,642010,219209,1190172,65886,7358,595138,0
6,2,715721,250232,1392142,74987,9017,696261,0
6,-1,641431,219818,1312811,66126,7619,656188,0
6,2,707959,248073,1413113,73919,10608,706593,0
6,-1,637603,219380,1287390,65895,7179,643746,0
6,2,712518,248308,1468237,73985,8694,734153,0
6,2,716694,248831,1381463,74194,9746,690714,0
6,2,713748,250465,1408401,75071,10350,704201,0
6,-1,640123,219405,1164773,65806,7114,582444,0
6,2,714835,249630,1402129,74708,9501,700985,0
6,-1,639113,219642,1231383,65914,6540,615759,0
6,2,719060,251369,1431682,75417,9215,715659,0
6,2,734300,253613,1571293,77746,10545,785639,0
6,2,718261,251165,1437889,75291,10430,718918,0
6,-1,640501,220223,1233230,66092,7162,616654,0
6,2,715238,249101,1332232,74173,10070,666097,0
6,2,718165,250572,1416374,75066,10036,708424,0
6,-1,645344,220324,1191507,66226,7804,595671,0
6,2,711250,249128,1311599,74414,9394,655765,0
6,2,713987,248842,1381531,74255,10167,690711,0
6,-1,646500,220449,1256682,66067,8816,628447,0
6,2,713497,248808,1440628,74340,9101,720172,0
6,2,715659,248993,1429886,74341,9669,714936,0
6,-1,639960,220667,1331667,66158,8992,665811,0
6,2,714056,249658,1401442,74515,10078,700906,0
6,2,712869,248800,1349527,74161,9788,674824,0
6,-1,641396,219593,1206169,65759,7555,603083,0
6,2,711567,248451,1444427,74115,9357,722348,0
6,2,712293,247657,1285978,74083,9504,642996,0
6,-1,647399,222272,1226202,67089,7695,613121,0
6,2,703081,247730,1394142,74116,9086,696886,0
6,-1,646817,220961,1333172,66333,8616,666242,0
6,2,705587,247524,1355142,74045,8526,677583,0
6,-1,647740,221992,1278855,67021,7739,639400,0
6,2,709998,247760,1416065,73965,8712,707958,0
7,2,764148,266814,1438366,78847,10932,719581,0
7,-1,687051,236537,1397198,70483,8194,698590,0
7,2,716152,250607,1525779,74742,10081,762880,0
7,2,714261,250017,1446371,74499,9348,723125,0
7,-1,690261,237628,1282804,70845,7196,641322,0
7,2,708140,248880,1295357,74000,7986,647638,0
7,2,707751,248309,1379445,73770,8885,689738,0
7,2,754961,261357,1495260,79643,9751,747543,0
7,-1,637160,218567,1280895,65687,8142,640459,0
7,2,708814,248410,1311147,73833,8729,654995,0
7,2,715466,251131,1460534,74911,9666,729574,0
7,-1,637031,218310,1197819,65438,7142,598907,0
7,2,707114,248512,1370970,73865,9483,685481,0
7,2,707313,248145,1323075,73898,8443,661532,0
7,-1,636069,218750,1130988,65694,7401,565423,0
7,2,714365,248645,1309341,74057,8035,654593,0
7,2,736085,253617,1364794,77468,9725,682314,0
7,-1,638018,218583,1269875,65709,7206,634965,0
7,2,704150,248367,1391768,73996,8481,695681,0
7,-1,636412,218933,1254650,65825,7190,627346,2
7,2,705494,248706,1305223,74110,8409,652704,0
7,-1,637420,218931,1233653,65790,7277,616803,0
7,2,705024,248256,1309664,73811,8262,654874,0
7,2,714778,249794,1425422,74540,9757,712784,0
7,-1,634673,218148,1316488,65539,7466,658277,0
7,2,711701,250229,1434993,74707,8836,717527,0
7,2,712619,250382,1405115,74819,8632,702999,0
7,-1,639496,219668,1495927,66124,8336,748085,0
7,2,708775,248365,1372933,73868,8607,686507,0
7,2,704823,249571,1297829,74293,7803,648949,0
7,-1,641298,219015,1321232,65819,7929,660453,0
7,2,709229,249374,1425868,74350,8848,713032,0
7,-1,662100,223865,1192058,69157,8191,595469,0
7,2,708430,248325,1324383,73783,8211,662236,0
7,-1,640779,219864,1313079,65981,7908,656538,0
7,2,716065,250384,1479701,74803,8485,739657,0
7,-1,642251,220059,1275885,66121,7344,637895,0
7,2,710894,248856,1414989,73872,9146,707532,0
7,-1,639388,219381,1191590,66079,7435,595795,0
7,2,715504,249991,1422066,74278,9299,711084,0
7,-1,640172,218510,1273676,65703,7308,636619,0
7,2,717469,250183,1341957,74460,8723,670983,0
7,2,715998,249906,1517310,74176,11542,758147,0
7,-1,643393,219538,1177273,66127,7793,588191,0
7,2,711079,249052,1290465,73952,8930,645266,0
7,-1,644494,218586,1283848,65774,7093,641936,0
7,2,710098,248531,1443443,73767,9894,721965,0
7,2,713981,249061,1364230,74098,9054,682143,0
7,-1,635594,219209,1325275,65905,7946,662582,0
7,2,707460,249094,1366044,74038,8776,683087,0
7,-1,635823,219162,1213012,65990,7760,606123,0
7,2,730972,253507,1733723,77284,11132,866897,0
7,2,713040,248850,1355750,74036,8907,677920,0
7,-1,644544,221540,1297214,67037,8008,648707,0
7,2,713336,248766,1287960,73719,8941,644023,0
7,-1,635332,219215,1193129,65996,6414,596750,0
7,2,733127,253716,1472196,77185,9284,736089,0
7,-1,639356,220328,1279589,66276,6859,639843,0
7,2,710206,248903,1308868,73918,7996,654269,0
7,-1,636573,219664,1184701,66076,7083,592396,0
7,2,733813,253185,1419164,77096,9818,709604,0
7,2,714900,250006,1334674,74372,10270,667053,0
7,-1,662906,224236,1247696,69275,8929,623831,0
7,2,713340,248897,1316086,73902,9037,657979,0
7,2,707503,248141,1312016,73656,8633,655943,0
7,-1,658720,223958,1276729,69251,7987,638296,0
7,2,713076,248627,1267473,73695,8505,633723,0
7,2,700715,248215,1390774,73218,8825,695378,0
7,-1,643586,221436,1338593,66921,8584,669323,0
7,2,709241,249581,1291178,73845,8311,645416,0
7,-1,640172,219351,1261221,65985,7240,630518,0
7,2,702561,247586,1513661,73065,9806,756900,0
7,2,708700,248216,1408665,73276,8848,704292,0
7,-1,638182,218606,1183241,65769,7381,591669,0
7,2,711211,250434,1409636,75164,10229,704515,0
7,-1,646569,220414,1255982,66320,7594,628030,0
7,2,709164,249183,1506846,74623,10287,753430,0
7,2,713668,248845,1309736,74393,9703,655016,0
7,-1,639844,220082,1193626,66206,7105,596873,0
7,2,711383,249652,1479539,74690,8362,739879,0
7,2,712769,248918,1413878,74422,9462,706935,0
7,-1,637733,219298,1436562,65825,8441,717830,0
7,2,712415,249537,1333354,74811,8903,666708,0
7,2,710895,248450,1584752,74231,9627,792347,0
7,-1,643454,219987,1210389,66147,7106,605062,0
7,2,714131,249867,1317733,75002,8891,658854,0
7,2,739021,254689,1462734,78598,10719,731241,0
7,-1,644030,220756,1288942,66645,7538,644539,0
7,2,710435,248393,1347341,74115,8917,673637,0
7,-1,638249,218915,1194865,65765,6557,597485,0
7,2,711750,248227,1337796,74030,8431,668906,0
7,-1,641769,221682,1492200,66867,8407,746036,0
7,2,716397,250077,1432120,74893,9017,716174,0
7,2,715637,248634,1429213,74142,9565,714616,0
7,2,708969,249187,1438447,74488,9925,719200,0
7,-1,660737,223960,1346311,69166,7365,672801,0
7,2,715224,249986,1467404,74807,9014,733687,0
7,-1,641726,219169,1269730,65759,7675,634931,0
7,2,715979,249633,1365984,74652,9608,683023,0
7,2,713126,248930,1403954,74373,9396,701985,0
7,2,715577,250878,1358590,75302,9458,679163,0
7,-1,638794,219042,1128496,65684,7689,564367,0
7,2,713645,249135,1517892,74305,10281,758969,0
7,2,715420,249508,1508006,74528,9675,754025,0
7,-1,649199,221314,1271747,66773,7878,635358,0
7,2,710784,249286,1428663,74418,9464,714315,0
7,2,736052,257594,1631114,76768,10041,815307,0
7,-1,643405,219864,1355753,65843,8749,677847,0
7,2,718235,250660,1399804,75185,8877,699844,0
7,2,719949,251278,1405226,75393,9827,702587,0
7,-1,641134,220936,1542751,66296,10767,771365,0
7,2,714784,249306,1338105,74405,9238,669109,0
7,2,715382,249109,1289449,74254,9798,644740,0
7,-1,644698,221264,1213819,66372,7878,607271,0
7,2,712285,249052,1359951,74362,9139,679914,0
7,-1,663563,225327,1201052,69582,8384,600568,0
7,2,712904,248692,1421290,74486,8989,710665,0
7,2,710358,249681,1429905,75062,9485,714834,0
7,-1,643059,219567,1183466,65876,7831,591567,0
7,2,727271,252564,1438056,77518,9696,719075,0
7,2,712645,249583,1301721,74814,8890,650915,0
7,-1,661458,224172,1233628,69256,8465,616743,0
8,2,761475,266716,1518891,78756,9681,759153,0
8,-1,698353,239008,1462048,71494,8666,730651,0
8,2,708288,248056,1430401,73575,10081,715150,0
8,2,708214,247736,1328198,73457,8681,664089,0
8,-1,690388,238007,1366367,71007,7818,683120,0
8,2,704847,248051,1414235,73755,8089,707129,0
8,2,706578,247884,1495275,73647,8966,747606,0
8,2,709794,249663,1425466,74505,9212,712678,0
8,-1,637592,218478,1180333,65686,6606,590028,0
8,2,708149,248492,1417338,73984,9050,708675,0
8,2,728914,252952,1436092,77044,10191,717342,0
8,-1,659732,223666,1318477,69014,8624,659207,0
8,2,707000,248532,1572464,73872,9447,786161,0
8,2,707116,248935,1436645,74161,9208,718324,0
8,-1,664860,228918,1292871,68996,8789,646390,0
8,2,716725,250350,1438495,74811,9228,719230,0
8,2,713946,248127,1500119,73873,9081,750074,0
8,-1,638791,219163,1222776,65820,7135,611397,0
8,2,707397,247973,1417391,73836,9209,708735,0
8,2,706793,248592,1407348,74053,9719,703666,0
8,-1,635807,218936,1352277,65813,7451,676080,0
8,-1,635044,218388,1191981,65592,7442,596012,2
8,2,712541,249905,1502999,74668,9747,751136,0
8,2,710876,248835,1349768,74066,8659,674929,0
8,-1,635496,218737,1259241,65735,7348,629621,0
8,2,728916,253621,1437791,77385,9371,718852,0
8,2,705867,248677,1312012,74024,8431,655876,0
8,-1,639190,218772,1279919,65836,8815,640175,0
8,2,708978,248478,1363203,73933,8491,681608,0
8,-1,643911,220225,1262754,66273,7480,631341,0
8,2,715420,248715,1432639,73944,8842,716355,0
8,2,709130,249422,1415548,74181,8996,707818,0
8,-1,642182,219196,1198067,65845,7900,599066,0
8,2,710799,249312,1455054,74139,8569,727752,0
8,-1,641279,219607,1339948,65853,7911,669856,0
8,2,711493,249047,1357473,74029,8038,678767,0
8,-1,642736,220564,1442910,66492,8145,721422,0
8,2,710854,249499,1295896,74163,8166,647970,0
8,-1,637751,219207,1275620,65932,7934,637788,0
8,2,713100,248528,1375966,73771,8441,687992,0
8,-1,645687,221485,1296455,67076,7683,648178,0
8,2,714717,249626,1537367,74239,10304,768730,0
8,2,722007,251684,1381377,75024,10517,690763,0
8,-1,641088,218989,1270901,65919,8104,635442,0
8,2,711543,250353,1449582,74351,10239,724857,0
8,-1,647338,219915,1279541,66266,7431,639743,0
8,2,712063,249188,1443533,74082,9820,721713,0
8,2,713332,248683,1345844,73942,8994,673314,0
8,-1,634852,218987,1273864,65943,7922,636957,0
8,2,715834,249927,1566336,74199,10391,783195,0
8,-1,639931,219942,1199806,66227,7408,599949,0
8,2,709658,248958,1293126,74022,8597,646610,0
8,2,709736,248621,1366509,73778,8861,683290,0
8,-1,661046,223939,1243023,69334,8267,621571,0
8,2,707917,247054,1445357,73181,9864,722717,0
8,-1,635116,218949,1314235,65880,7982,657153,0
8,2,709940,248739,1357620,73719,9346,678802,0
8,-1,633913,218613,1206216,65628,6891,603089,0
8,2,705671,247541,1423472,73345,9034,711788,0
8,-1,634831,219325,1397309,66004,8051,698570,0
8,2,710943,248390,1396598,73730,8993,698228,0
8,2,709627,248277,1354605,73709,9071,677358,0
8,-1,641185,219661,1292701,66077,7714,646404,0
8,2,713296,249259,1290775,73993,8398,645317,0
8,2,735971,252935,1472377,76946,10138,736196,0
8,-1,639152,219593,1344918,66051,7406,672516,0
8,2,712612,247903,1397763,73567,8838,698830,0
8,2,714196,248488,1378251,73638,7109,689094,0
8,-1,657793,223827,1258028,69227,8215,628821,0
8,2,704296,247849,1372165,73005,8921,685923,0
8,-1,642643,220146,1273634,66225,6929,636883,0
8,2,710385,250701,1381683,74397,9658,690577,0
8,2,708378,248277,1406699,73285,8607,703354,0
8,-1,639625,219501,1195193,65924,7649,597643,0
8,2,703798,248171,1411363,74165,9883,705334,0
8,-1,647881,221153,1335344,66841,8446,667713,0
8,2,706757,247965,1425274,74062,9021,712629,0
8,2,711110,248046,1427803,74086,9380,713884,0
8,-1,639842,220271,1310553,66409,6973,655193,0
8,2,710882,248258,1406121,74227,8390,703048,0
8,2,716988,249384,1348134,74737,9506,674001,0
8,-1,644645,221869,1296646,67121,7233,648386,0
8,2,708216,247871,1440522,74036,9573,720302,0
8,2,710683,249309,1444112,74541,9277,721997,0
8,-1,639601,218972,1132773,65819,6581,566435,0
8,2,710916,248253,1330380,74146,8555,665105,0
8,2,709214,248215,1248608,74140,8872,624244,0
8,-1,660187,223773,1273179,69203,8125,636580,0
8,2,707606,247579,1358801,73764,8877,679401,0
8,-1,640094,219424,1235302,66013,6737,617696,0
8,2,711565,247880,1388703,73893,9738,694317,0
8,-1,644412,220325,1233117,66173,7311,616607,0
8,2,711290,248601,1303473,74141,8731,651777,0
8,2,718264,249764,1405279,74694,10287,702866,0
8,2,710572,248515,1444944,74203,9363,722532,0
8,-1,638061,219242,1389470,65762,7361,694859,0
8,2,715708,249483,1482029,74548,9692,740963,0
8,-1,644333,220443,1176076,66162,7961,588055,0
8,2,715511,249797,1500118,74661,9936,750077,0
8,2,713089,249142,1415081,74501,8869,707565,0
8,2,713522,250241,1440474,74957,10112,720018,0
8,-1,640278,219787,1243733,65962,7427,621915,0
8,2,714649,249337,1403672,74339,9132,701921,0
8,-1,645718,220418,1211484,66307,7252,605774,0
8,2,719892,251467,1348894,75402,10402,674206,0
8,2,730752,253629,1462499,77659,10862,731248,0
8,2,715675,250438,1346251,74985,9154,673145,0
8,-1,644699,220001,1322899,66147,8284,661541,0
8,2,713364,249117,1490876,74493,9301,745517,0
8,2,717289,249177,1538599,74401,10703,768993,0
8,-1,638632,219755,1207076,65848,8088,603566,0
8,2,711840,248895,1353197,74250,9595,676567,0
8,2,714406,249252,1368327,74321,9925,684297,0
8,-1,640048,219905,1295547,65900,8350,647673,0
8,2,710567,248120,1364954,73967,9383,682441,0
8,2,714503,248180,1367575,74235,9607,683735,0
8,-1,645137,221297,1383643,66675,7554,691880,0
8,2,706004,247865,1444395,74210,9459,722094,0
8,-1,643445,219989,1335652,66130,8591,667822,0
8,2,709759,248081,1436950,74234,8429,718498,0
8,-1,641452,219207,1403456,65735,9012,701671,0
8,2,707114,247699,1249457,73985,8381,624711,0
9,2,763827,267015,1561790,78913,10353,780934,0
9,-1,692461,237054,1350156,70615,8476,675092,0
9,2,713127,249336,1295799,74039,8845,647879,0
9,2,714737,251057,1417758,74889,9135,708978,0
9,-1,688557,237333,1340439,70739,8236,670182,0
9,2,703694,248019,1310737,73694,8712,655436,0
9,2,727573,253383,1435750,77265,9504,717855,0
9,2,703098,247452,1476716,73384,8572,738356,0
9,-1,637434,218360,1225780,65638,7647,612861,0
9,2,707609,248089,1316982,73852,9056,658349,0
9,2,708824,248686,1427369,73832,9437,713616,0
9,-1,641010,218525,1173110,65582,7498,586599,0
9,2,716075,250218,1574795,74699,10920,787387,0
9,2,709829,247690,1431166,73680,8966,715628,0
9,-1,634034,218407,1123084,65616,6708,561358,0
9,2,711265,248547,1301983,74037,8861,650925,0
9,2,715727,249414,1353540,74314,8759,676722,0
9,-1,657365,222791,1291318,68816,8512,645514,0
9,2,709595,249084,1391886,74229,9336,695909,0
9,2,706905,249070,1335186,74156,9219,667464,0
9,-1,644663,220904,1299482,66676,7930,649618,0
9,2,729801,253147,1366171,77252,9686,683082,0
9,2,709126,248551,1412536,73911,8845,706318,0
9,-1,634744,218369,1293035,65623,7500,646457,0
9,2,708627,248834,1265523,74042,8432,632785,0
9,-1,640168,220982,1336899,66819,8085,668406,2
9,2,709556,248773,1326174,73950,9480,663106,0
9,-1,644129,221514,1343533,66967,8347,671728,0
9,2,713167,250374,1609506,74715,9717,804720,0
9,-1,644636,220574,1332151,66604,8263,665931,0
9,2,712557,248744,1308909,73936,8581,654501,0
9,2,728163,253301,1316253,77287,9826,658121,0
9,-1,643660,219382,1367690,65868,7549,683763,0
9,2,710327,249537,1368711,74211,8928,684403,0
9,-1,645526,221517,1363783,66836,8662,681212,0
9,2,712497,249101,1257072,73996,8237,628579,0
9,-1,639291,218802,1245686,65688,7663,622826,0
9,2,707591,248463,1428299,73765,10336,714017,0
9,-1,644076,218585,1267559,65760,7224,633731,0
9,2,713059,249503,1443566,74143,8965,721837,0
9,-1,639047,219455,1187507,66110,7193,593705,0
9,2,715959,250199,1489767,74436,9020,744046,0
9,2,738413,254386,1336498,77440,10671,668035,0
9,-1,644195,220792,1413764,66827,8559,706762,0
9,2,711901,249515,1417270,74072,9566,708573,0
9,-1,646328,219658,1232216,66156,7098,616090,0
9,2,710158,248631,1340737,73849,8992,670333,0
9,2,733580,253382,1391766,77191,9471,695836,0
9,-1,636176,219464,1282550,66096,8423,640962,0
9,2,728488,252529,1375510,76879,9662,687571,0
9,-1,632531,217586,1139073,65533,6566,569597,0
9,2,705951,247626,1413918,73572,9185,706713,0
9,-1,638708,219203,1311657,66014,7715,655840,0
9,2,710793,248837,1407813,73963,9533,703954,0
9,2,718551,251082,1456007,74734,9829,727924,0
9,-1,656961,223092,1404575,69012,8057,702329,0
9,2,709301,248854,1440386,73805,9544,720274,0
9,-1,656986,224010,1230277,69264,8115,615186,0
9,2,713619,249586,1371705,74302,8726,686097,0
9,-1,656654,224093,1220807,69301,7213,610359,0
9,2,712084,248985,1342981,73870,9172,671238,0
9,2,708150,247746,1472693,73489,9602,736352,0
9,-1,642610,220791,1333347,66617,7798,666738,0
9,2,709601,248080,1333291,73618,9039,666644,0
9,2,714902,248544,1507329,73675,9188,753704,0
9,-1,638544,219716,1307840,66041,7266,653528,0
9,2,714288,248908,1280781,73962,7898,640404,0
9,2,721838,250791,1411462,74724,8055,705881,0
9,-1,637281,219612,1269341,66005,7847,634725,0
9,2,704858,248394,1281301,73289,9019,640603,0
9,-1,640828,219922,1284731,66097,7071,642422,0
9,2,707100,247559,1427004,73052,9767,713531,0
9,2,710807,250316,1318826,74319,8620,659027,0
9,-1,642171,219972,1133856,66149,6300,567022,0
9,2,708068,247577,1380503,73934,9654,689908,0
9,-1,662120,223417,1273228,69025,8372,636561,0
9,2,710619,250107,1348268,75073,8631,674108,0
9,2,710582,248083,1374522,74147,9924,687188,0
9,-1,635348,218863,1178011,65805,6301,589069,0
9,2,714007,249861,1305403,74911,8480,652859,0
9,2,712267,248675,1453143,74300,9847,726604,0
9,-1,640940,219581,1305266,65944,7095,652505,0
9,2,708209,248459,1329853,74268,8814,664936,0
9,2,713789,249508,1375861,74808,9098,687961,0
9,-1,641420,219745,1176206,66122,6873,588157,0
9,2,709442,248350,1316917,74171,9417,658417,0
9,2,714093,248802,1279393,74365,8922,639626,0
9,-1,639857,219301,1307814,65973,7773,653925,0
9,2,708084,247776,1296430,73974,8745,648320,0
9,-1,636947,218986,1238065,65835,6751,619125,0
9,2,713313,249139,1465254,74479,9465,733037,0
9,-1,643346,219448,1212163,65922,7235,606125,0
9,2,740763,258235,1458672,77024,8606,729366,0
9,2,713800,248127,1484174,73949,10781,742106,0
9,2,706873,248771,1487131,74290,10058,743816,0
9,-1,639083,219538,1315783,65848,6957,657934,0
9,2,712402,248992,1426991,74468,9450,713484,0
9,-1,640258,219303,1127860,65764,7523,563963,0
9,2,712761,249496,1402839,74593,9420,701416,0
9,2,712324,249246,1303120,74421,9060,651568,0
9,2,732506,253526,1567263,77613,11063,783485,0
9,-1,640070,219987,1257584,65911,7798,628837,0
9,2,742761,255629,1489686,78687,11124,744845,0
9,-1,643782,219965,1308800,66142,8298,654370,0
9,2,712899,248606,1517412,74128,9651,758695,0
9,2,709082,249424,1312825,74464,9386,656397,0
9,2,709942,248705,1492659,74211,9220,746342,0
9,-1,646105,220280,1203710,66073,7387,601870,0
9,2,713485,249775,1432183,74540,9616,715965,0
9,2,713843,249137,1586636,74407,9615,792614,0
9,-1,639876,220404,1302158,66065,8587,651160,0
9,2,710840,248344,1501722,74042,9205,751026,0
9,-1,648006,222352,1424159,66951,8559,712125,0
9,2,712796,248925,1469912,74209,9385,735002,0
9,2,711702,249175,1485707,74374,9972,742867,0
9,2,714577,248881,1527104,74430,9684,763352,0
9,-1,643987,221034,1287594,66401,7594,643843,0
9,2,707548,249066,1419731,74782,9910,709911,0
9,-1,642740,220256,1340665,66155,8447,670343,0
9,2,707621,247753,1320595,74108,9044,660051,0
9,-1,639818,219779,1330803,65972,8498,665389,0
9,2,710896,247887,1298773,74020,10126,649186,0
10,2,765010,268740,1556480,79771,9495,778599,0
10,-1,690661,236858,1329259,70556,7748,664328,0
10,2,712401,249551,1403626,74284,8822,701789,0
10,2,709709,247771,1393320,73453,9035,696695,0
10,-1,698990,238838,1327777,71532,9274,663371,0
10,2,705955,247661,1289750,73542,8415,644842,0
10,2,706388,247691,1484844,73572,9492,742435,0
10,2,711502,248166,1448179,73734,8587,724085,0
10,-1,640358,219932,1251403,66370,8128,625171,0
10,2,708605,249078,1516773,74402,9669,758227,0
10,2,706462,248164,1386045,73663,8974,693187,0
10,-1,647441,221401,1236098,66672,8327,618128,0
10,2,710352,248150,1422197,73706,9738,711099,0
10,2,712246,248962,1375316,74161,8518,687717,0
10,-1,633242,218526,1179840,65676,7749,589894,0
10,2,711424,249007,1395803,74181,8442,697859,0
10,2,718065,250318,1458041,74922,9643,728949,0
10,-1,634679,218473,1195646,65659,6798,597788,0
10,2,710524,249979,1388526,74727,9968,694061,0
10,2,708949,250560,1356872,74986,9925,678405,0
10,-1,659784,223236,1271118,69010,8109,635433,0
10,2,709567,249151,1423152,74040,8666,711633,0
10,2,711986,248873,1453942,74082,9273,727011,0
10,-1,634981,218285,1212213,65595,7228,606128,0
10,2,710112,249433,1393797,74240,8620,696957,0
10,2,713443,250861,1326635,75023,9228,663381,0
10,-1,658801,223704,1317586,69162,9047,659053,0
10,2,710563,248445,1301906,73899,8656,650995,0
10,-1,640083,219159,1307528,65948,7908,653725,0
10,2,715308,250028,1596788,74627,10329,798444,0
10,2,707297,249150,1337870,74087,8491,668968,0
10,-1,648666,222257,1312550,67070,7968,656384,2
10,-1,640865,218695,1192548,65615,7323,596210,0
10,2,710267,248834,1426607,73994,8978,713345,0
10,-1,661745,224107,1410745,69158,8837,705117,0
10,2,712625,249883,1387195,74419,9002,693606,0
10,-1,640940,219366,1270712,65906,7337,635359,0
10,2,714582,250599,1400050,74735,9284,699869,0
10,-1,650151,221665,1369270,66996,8295,684595,0
10,2,711473,248317,1310598,73727,8115,655333,0
10,-1,641503,218942,1205048,65889,7362,602485,0
10,2,714838,249406,1526675,74225,10070,763339,0
10,2,716299,249658,1276047,74004,9509,637779,0
10,-1,639544,218786,1275966,65870,7983,638155,0
10,2,713432,249399,1533733,73976,9566,766736,0
10,-1,646447,220657,1333715,66683,8441,666911,0
10,2,731226,254237,1409293,77445,9775,704663,0
10,2,711475,248819,1430595,73918,9640,715360,0
10,-1,635277,219327,1461214,66008,8809,730595,0
10,2,708066,248642,1277475,73857,8549,638776,0
10,-1,640193,220743,1196030,66702,7798,598075,0
10,2,710109,248157,1444845,73711,9746,722578,0
10,2,708758,247859,1431878,73534,9270,715979,0
10,-1,638234,219261,1271194,65968,7622,635646,0
10,2,714615,250109,1537249,74151,9581,768563,0
10,-1,635525,219006,1319468,65905,7468,659598,0
10,2,711118,249777,1437678,74230,9538,718758,0
10,-1,643118,219812,1278855,66062,7663,639480,0
10,2,711208,247971,1302911,73629,9054,651319,0
10,-1,642866,219244,1281671,65941,7650,640828,0
10,2,710782,249418,1252807,74055,8581,626444,0
10,2,709543,247950,1352485,73584,9485,676286,0
10,-1,638929,218790,1298150,65693,7128,649151,0
10,2,732839,253506,1383343,77189,9067,691604,0
10,2,720637,251577,1329180,75098,9442,664533,0
10,-1,644445,220335,1284801,66411,8620,642198,0
10,2,716837,250187,1416587,74577,8563,708285,0
10,-1,637584,220273,1260551,66297,7466,630338,0
10,2,736775,252967,1438049,76965,9243,718917,0
10,2,704130,248644,1299449,73264,8699,649741,0
10,-1,639075,219404,1238816,65997,6615,619455,0
10,2,708967,248741,1324178,73460,9771,662010,0
10,2,705193,247888,1366688,73131,8428,683339,0
10,-1,640059,219258,1210090,65905,6577,605100,0
10,2,711548,248692,1419671,74287,9908,709835,0
10,-1,642355,219289,1255070,65923,7966,627565,0
10,2,710973,248448,1402673,74270,9168,701053,0
10,2,711211,248754,1589756,74626,10020,793352,0
10,-1,640718,220346,1239849,66279,6972,619979,0
10,2,712058,248378,1417068,74237,9066,708521,0
10,2,716205,250599,1335731,75199,9048,667835,0
10,-1,640015,219761,1412185,66086,8571,706041,0
10,2,706818,247647,1312673,73959,8382,656404,0
10,2,731383,253005,1473434,77544,10082,736643,0
10,-1,639196,219290,1171143,65854,6624,585616,0
10,2,711712,248620,1337148,74278,9113,668565,0
10,2,711166,248279,1278944,74212,8616,639435,0
10,-1,638498,219382,1372933,65986,8135,686837,0
10,2,706272,247891,1323468,73940,9675,661716,0
10,-1,658098,223815,1265057,69225,7163,632479,0
10,2,709759,247843,1500236,73999,9159,750123,0
10,-1,662002,223822,1380787,69213,7319,690308,0
10,2,714943,249990,1376580,74786,8242,688180,0
10,2,715810,248693,1414665,74181,9889,707204,0
10,-1,644931,220922,1308897,66585,7836,654511,0
10,2,709890,248254,1438107,74080,9977,719136,0
10,2,714078,249387,1486654,74528,10080,743294,0
10,-1,644606,220934,1182565,66519,7824,591353,0
10,2,717675,250458,1562084,74898,10367,780914,0
10,2,720341,250924,1359598,75336,9353,679765,0
10,2,710959,248952,1515433,74368,9685,757528,0
10,-1,638910,219940,1270558,65995,7709,635340,0
10,2,715264,250011,1360840,74527,8929,680377,0
10,-1,668555,225563,1467914,69735,10278,734007,0
10,2,710278,248419,1528296,74067,10103,764171,0
10,2,707243,247460,1448329,73854,9845,724154,0
10,2,710852,249581,1428190,74565,9354,714090,0
10,-1,645906,220525,1371000,66194,8754,685380,0
10,2,713755,250582,1433634,75044,9514,716797,0
10,2,713265,248787,1449904,74313,10092,724702,0
10,-1,638283,220090,1393724,65955,9618,696675,0
10,2,716517,250988,1381233,75161,9958,690454,0
10,-1,643128,220767,1283229,66240,8214,641655,0
10,2,714111,249016,1371319,74305,9576,685573,0
10,2,716307,250899,1473135,75234,10128,736480,0
10,2,717369,250115,1428156,75147,9970,714089,0
10,-1,641608,220154,1302180,66078,7926,651072,0
10,2,706114,248185,1280465,74250,8905,640039,0
10,-1,644036,219628,1192291,65967,7583,596135,0
10,2,712811,249901,1430333,75150,9919,715126,0
10,-1,664034,224381,1303394,69344,9180,651567,0
10,2,711867,249404,1422569,74886,9406,711282,0
11,2,763645,266671,1465048,78791,10183,731873,0
11,-1,698596,240087,1402083,71932,8048,700823,0
11,2,715247,250467,1407266,74854,9412,703750,0
11,2,709945,248516,1260441,73828,8919,630005,0
11,-1,717126,242484,1330229,74234,9714,665078,0
11,2,705989,248317,1308879,73807,8759,654358,0
11,2,708089,248698,1400777,73933,9097,700355,0
11,2,709431,248157,1366624,73752,9154,683313,0
11,-1,637493,218842,1211001,65823,7737,605336,0
11,2,707906,248247,1468394,73894,10321,734206,0
11,2,713309,248374,1278949,73814,9424,639500,0
11,-1,636980,218295,1173447,65570,7252,586752,0
11,2,712518,249221,1389398,74017,9726,694672,0
11,2,715155,250577,1427694,74926,8856,713692,0
11,-1,633399,219008,1189261,65747,7084,594688,0
11,2,710216,248443,1332469,73963,8107,666211,0
11,2,735251,253295,1342290,77365,10038,671119,0
11,-1,637596,218786,1266995,65753,7207,633488,0
11,2,727249,253065,1527463,77309,10909,763672,0
11,2,726318,253018,1346973,77239,11344,673440,0
11,-1,638269,218789,1169993,65782,7622,584966,0
11,2,712101,250640,1589444,74823,10410,794789,0
11,2,734808,254143,1407875,78060,9446,703869,0
11,-1,656134,223426,1278738,69044,8509,639278,0
11,2,707267,248389,1591874,73875,10147,795503,0
11,2,708836,248833,1319650,74018,8309,659999,0
11,-1,638173,218608,1311482,65747,8083,655747,0
11,2,736307,258285,1341770,76866,8522,671003,0
11,-1,638744,219284,1209332,65878,7423,604640,0
11,2,709172,248041,1417879,73721,8726,708975,0
11,2,708803,248763,1355152,73999,8276,677615,0
11,-1,664270,223991,1278605,69085,8712,639458,0
11,-1,637934,219799,1221075,66003,7561,610572,2
11,2,711436,249806,1701170,74505,10489,850197,0
11,-1,640579,219861,1492722,65918,7971,746612,0
11,2,713944,249158,1352386,73932,9334,676240,0
11,-1,640250,219192,1198280,65740,6878,598980,0
11,2,711343,249064,1356980,73903,8472,678535,0
11,-1,665151,224242,1256759,69446,8632,628286,0
11,2,714273,249796,1540858,74278,10543,770482,0
11,-1,641725,219305,1166908,66063,7741,583378,0
11,2,718309,251149,1561371,74929,10533,780166,0
11,2,714604,249659,1264581,74082,9593,632212,0
11,-1,640761,219575,1217320,66148,7700,608637,0
11,2,739787,259640,1397898,77078,9491,698883,0
11,-1,643518,219199,1195226,66024,7833,597572,0
11,2,711120,249328,1309808,74084,9112,654787,0
11,2,716529,250469,1450244,74625,9335,725139,0
11,-1,638849,219625,1275282,66155,7439,637591,0
11,2,707322,248524,1626048,73876,9625,813057,0
11,-1,634087,218652,1218071,65732,7724,609081,0
11,2,714429,250252,1436830,74716,9505,718844,0
11,-1,638419,219323,1212944,65990,7691,606368,0
11,2,732934,254027,1361261,77407,9093,680577,0
11,2,711730,248338,1350767,73566,9002,675424,0
11,-1,634734,218604,1286521,65745,7529,643353,0
11,2,713207,249796,1359391,74139,9151,679684,0
11,-1,639542,219014,1182478,65864,7092,591340,0
11,2,711556,248138,1423494,73605,9894,711785,0
11,-1,642018,219631,1310385,66050,6897,655242,0
11,2,714146,249886,1307728,74499,9321,653910,0
11,2,711652,248817,1413203,73828,9194,706643,0
11,-1,642383,220615,1265523,66379,7199,632811,0
11,2,708451,248399,1292761,73763,8465,646255,0
11,2,711232,248489,1402816,73789,9192,701363,0
11,-1,640662,219664,1189102,66073,7571,594306,0
11,2,710343,247328,1294847,73402,8176,647430,0
11,2,719915,250269,1318177,74482,8245,659101,0
11,-1,638318,218757,1186438,65675,6810,593231,0
11,2,704566,248635,1395861,73264,9627,697846,0
11,-1,643122,221429,1313522,66930,7413,656831,0
11,2,713801,250774,1371236,74481,9498,685497,0
11,2,708172,248543,1310822,73447,8576,655431,0
11,-1,640588,219799,1238312,66127,7184,619213,0
11,2,733101,253112,1463233,77572,10303,731728,0
11,-1,641013,219338,1197434,65950,7396,598759,0
11,2,714316,249909,1334854,74907,8208,667420,0
11,2,707997,247977,1443693,74054,9214,721689,0
11,-1,656850,223472,1243783,69074,7687,621864,0
11,2,714657,250359,1275867,75094,9272,637990,0
11,2,713702,249095,1315629,74671,8708,657736,0
11,-1,637062,219621,1242044,66012,7162,621003,0
11,2,707951,248481,1486374,74286,9305,743205,0
11,2,711296,249329,1418993,74490,9602,709477,0
11,-1,640065,219397,1194356,65989,6785,597199,0
11,2,707015,247786,1246227,74020,8772,623107,0
11,-1,642400,220586,1303550,66522,7835,651849,0
11,2,712941,249459,1234521,74767,9046,617233,0
11,2,710549,248074,1415642,74036,8944,707811,0
11,-1,642663,219929,1117659,66183,7126,558884,0
11,2,710059,248061,1413960,74134,9808,707059,0
11,-1,641893,219786,1292648,65910,7303,646119,0
11,2,714935,249124,1420563,74314,9458,710064,0
11,2,715918,249303,1496185,74362,10447,747980,0
11,-1,637659,219160,1256330,65735,6211,628210,0
11,2,709454,248455,1472275,74293,10114,736165,0
11,2,714972,250158,1488115,74782,9978,744038,0
11,-1,639642,219954,1228450,65975,7417,614246,0
11,2,714010,249861,1413813,74693,9427,706862,0
11,2,714732,248979,1465552,74338,9140,732799,0
11,2,714928,250386,1368673,74888,8324,684327,0
11,-1,649831,221383,1294785,66755,7613,647459,0
11,2,713544,249485,1418539,74385,9439,709378,0
11,-1,644925,219972,1256398,66126,8302,628453,0
11,2,713416,250020,1424182,74633,9969,712103,0
11,2,738722,253795,1485925,77689,10804,742911,0
11,-1,645051,220505,1255162,66263,7209,627398,0
11,2,714294,248916,1436934,74259,9995,718459,0
11,2,716146,249343,1474026,74402,9789,737059,0
11,2,718958,251215,1485406,75469,10111,742668,0
11,-1,661512,224863,1230407,69347,8663,615058,0
11,2,708605,247832,1397337,73980,10249,698581,0
11,-1,642234,220675,1212460,66117,7132,606208,0
11,2,712934,248705,1453414,74143,10313,726665,0
11,2,717274,249009,1453642,74287,10047,726861,0
11,-1,640801,220227,1180641,66150,6994,590373,0
11,2,733455,252828,1459965,77552,9996,730075,0
11,2,727660,253174,1389792,77722,10483,694733,0
11,-1,643524,219756,1309576,65993,7872,654785,0
11,2,707512,248237,1366509,74256,8862,683017,0
11,-1,641390,219976,1374539,66118,8075,687266,0
11,2,708692,248198,1341691,74284,9091,670808,0
12,2,760556,266287,1537275,78592,9772,768670,0
12,-1,715100,242460,1391855,74224,8507,695752,0
12,2,707653,248319,1301801,73892,9148,650444,0
12,2,709209,248181,1389370,73758,9727,694934,0
12,-1,694449,237242,1247293,70696,8287,623529,0
12,2,704531,248239,1350195,73825,8525,674974,0
12,2,704739,247925,1393189,73635,8682,696596,0
12,2,710738,248172,1282603,73665,8172,641297,0
12,-1,637535,218454,1187152,65643,7413,593398,0
12,2,715825,250763,1482712,74963,9630,741272,0
12,2,710926,247652,1364633,73612,10003,682359,0
12,-1,645491,221607,1320760,66778,7767,660399,0
12,2,710806,248990,1497182,73848,9557,748606,0
12,2,731630,253302,1569895,77312,9466,784859,0
12,-1,640621,218019,1187834,65279,7152,593988,0
12,2,710636,248183,1467978,73953,9481,733960,0
12,2,711646,248172,1435116,73892,9482,717353,0
12,-1,639460,220126,1324853,66387,7123,662430,0
12,2,706510,248884,1454131,74135,9910,726834,0
12,2,704381,248609,1337766,74058,10241,668796,0
12,-1,637124,218777,1218718,65758,6627,609357,0
12,2,707638,248951,1538025,74119,10406,768717,0
12,2,709942,249118,1395408,74137,8248,697747,0
12,-1,634432,218856,1278450,65707,7401,639209,0
12,2,740475,260598,1466770,77947,9210,733403,0
12,2,705968,248424,1432741,73840,9070,716411,0
12,-1,640749,219987,1320479,66362,8833,660190,0
12,2,716576,251469,1320711,75207,9044,660445,0
12,2,711355,248783,1289671,74031,7993,644889,0
12,-1,646674,221080,1270339,66765,8582,635126,0
12,2,709597,249381,1444631,74237,9020,722358,0
12,-1,640315,219027,1217182,65769,7025,608629,0
12,2,711005,249831,1375402,74315,9175,687747,0
12,-1,641934,220764,1326942,66441,8249,663238,0
12,2,705757,247243,1338935,73341,8536,669480,0
12,-1,662014,224298,1251619,69300,8104,625709,0
12,2,706596,248453,1489364,73711,8235,744728,0
12,-1,643726,219404,1233239,66052,7196,616615,0
12,2,716574,251035,1398623,74876,8581,699385,0
12,-1,639137,219255,1279551,66066,6840,639806,2
12,-1,641677,219301,1200194,66005,7940,600106,0
12,2,716346,250708,1465257,74575,9383,732337,0
12,2,716434,249943,1319992,74260,9558,659993,0
12,-1,641937,220136,1321644,66529,8205,660335,0
12,2,711102,249772,1439115,74034,9611,719596,0
12,-1,643063,219231,1312606,65997,8093,656323,0
12,2,715416,250852,1387925,74751,10065,693843,0
12,2,712427,250519,1492278,74782,9501,745903,0
12,-1,635168,218871,1264102,65867,7442,632060,0
12,2,715353,250718,1490070,74897,9513,745071,0
12,-1,635755,218648,1112166,65803,7592,556050,0
12,2,707386,248504,1406833,73840,9504,703324,0
12,-1,639766,219526,1401880,66120,7797,700861,0
12,2,710298,248892,1411576,73897,9562,705799,0
12,2,712202,248319,1341125,73476,9698,670594,0
12,-1,638201,220107,1223628,66243,6755,611879,0
12,2,712392,249380,1548363,73953,10261,773965,0
12,-1,641812,220331,1309168,66401,7049,654642,0
12,2,733118,253499,1414686,77169,10327,707408,0
12,-1,643189,220713,1450761,66666,8417,725449,0
12,2,731802,253387,1323957,77124,9025,661854,0
12,2,714199,250471,1410163,74679,8903,705047,0
12,-1,637512,219062,1187881,65867,6940,593982,0
12,2,706782,248303,1401845,73657,9116,700914,0
12,2,713341,250281,1241075,74527,8561,620427,0
12,-1,639379,219423,1389274,65966,9336,694474,0
12,2,713225,249119,1443375,73978,8211,721699,0
12,2,713019,248155,1397890,73542,7808,698887,0
12,-1,647139,221269,1378279,66873,8074,689244,0
12,2,706791,248116,1287852,73166,8245,643910,0
12,-1,659818,224304,1225611,69349,7112,612836,0
12,2,708496,248365,1425764,73402,9342,712897,0
12,2,705799,247723,1460030,73070,9207,730050,0
12,-1,657878,223516,1373195,69131,7671,686440,0
12,2,710365,248520,1389690,74318,9621,694881,0
12,2,710364,248437,1421898,74190,8695,710941,0
12,-1,647468,221092,1280163,66816,7669,640060,0
12,2,710159,248550,1464063,74311,9512,731995,0
12,-1,636801,219788,1351530,66119,9012,675573,0
12,2,710386,248384,1367095,74223,9602,683256,0
12,2,711875,248605,1433112,74277,8919,716480,0
12,-1,636758,219760,1231865,66108,7372,615986,0
12,2,707098,248160,1300642,74183,8521,650447,0
12,2,712366,248368,1430922,74204,9721,715426,0
12,-1,645207,221435,1306230,66844,7897,653170,0
12,2,706936,247620,1373408,73935,9094,686708,0
12,-1,639102,219353,1202318,65933,7610,601210,0
12,2,711614,248102,1477957,74066,9408,739015,0
12,2,731222,252860,1411965,77475,10614,705885,0
12,-1,640785,219551,1180112,66043,7360,590035,0
12,2,709367,247963,1523675,73985,9148,760913,0
12,-1,640635,219973,1310929,65956,7576,655585,0
12,2,712720,248331,1383463,74055,9324,691655,0
12,2,713337,248295,1492488,73986,10550,746142,0
12,-1,644537,221391,1280282,66794,7352,640042,0
12,2,705967,247652,1642540,74033,10708,820967,0
12,2,713196,249747,1412931,74543,9531,706515,0
12,-1,642198,219814,1200850,65962,7123,600480,0
12,2,712579,249427,1457431,74565,10410,728697,0
12,2,715297,250162,1419034,75021,9902,709511,0
12,2,710691,249179,1355354,74448,8790,677764,0
12,-1,667042,224772,1246405,69349,8324,623185,0
12,2,713765,249057,1266845,74207,9038,633403,0
12,-1,645706,220663,1417012,66313,8793,708161,0
12,2,713305,249346,1496514,74370,9780,748022,0
12,2,718615,249673,1675732,74569,11015,838023,0
12,-1,644678,219995,1321798,66047,8089,660867,0
12,2,717496,250545,1340540,75106,9257,670338,0
12,2,740619,255289,1594251,78201,10811,797114,0
12,-1,635883,219590,1238859,65748,7918,619361,0
12,2,736675,254264,1581469,77923,10996,790738,0
12,2,722819,250512,1418927,74996,9657,709361,0
12,-1,641237,220532,1342190,66158,8377,670945,0
12,2,710845,249072,1480116,74304,9766,739856,0
12,2,715870,248210,1489567,73991,10249,744501,0
12,-1,640024,220128,1371699,66045,8030,685880,0
12,2,714379,248151,1340742,74186,9261,670375,0
12,2,704223,247964,1310844,74242,9463,655352,0
12,-1,664342,224298,1295056,69312,8047,647464,0
12,2,706199,248005,1420927,74203,9344,710509,0
12,-1,643926,220513,1275359,66163,8174,637000,0
12,2,708325,248530,1383668,74377,9418,691809,0
13,2,762012,267043,1628511,78923,11654,812006,0
13,-1,691005,237157,1256235,70740,7088,628358,0
13,2,711360,249937,1535157,74645,10172,767527,0
13,-1,693850,237309,1353527,70735,8480,676633,0
13,2,710225,248361,1393931,73752,9159,696927,0
13,2,723610,252196,1457986,76714,9804,728697,0
13,2,707877,248536,1315206,73944,8864,657504,0
13,2,715938,250559,1432666,74736,9739,716277,0
13,-1,636763,218867,1202774,65742,7472,601403,0
13,2,728894,252697,1425997,77136,9692,712883,0
13,2,714340,249513,1422395,74373,9574,711145,0
13,-1,660543,223788,1311924,69048,8232,655917,0
13,2,733096,253937,1450263,77316,10551,725085,0
13,2,710503,248092,1426053,73653,8964,713024,0
13,-1,643313,219307,1325497,65801,8332,662592,0
13,2,711602,248866,1566880,74075,9070,783450,0
13,2,712545,248905,1430624,74149,9384,715232,0
13,-1,633165,218016,1239680,65470,6830,619890,0
13,2,706409,249053,1496501,74239,10327,748285,0
13,2,710496,249923,1475083,74686,9683,737510,0
13,-1,640832,220874,1350795,66685,7216,675229,0
13,2,729250,253180,1322654,77288,9338,661363,0
13,2,713962,249917,1339844,74583,8964,669979,0
13,-1,646421,221017,1290369,66562,8013,645229,0
13,2,706528,248731,1314417,73944,8785,657017,0
13,2,709518,248923,1308452,74028,8265,654272,0
13,-1,633792,218023,1176846,65532,8115,588412,0
13,2,710887,250224,1312460,74672,8942,656294,0
13,2,710313,248620,1448763,73949,7959,724416,0
13,-1,661903,223847,1238240,69216,8894,618940,0
13,2,707450,248850,1376674,73979,8427,688363,0
13,-1,639466,219044,1313809,65720,7704,656838,0
13,2,709456,249874,1445580,74567,9235,722398,0
13,-1,643075,219444,1225296,65836,8344,612707,0
13,2,709990,249090,1337968,74080,8313,669025,0
13,-1,640387,219506,1306740,65954,8053,653369,0
13,2,708279,249463,1583514,74113,9885,791704,0
13,-1,640236,218473,1225546,65659,6905,612820,0
13,2,709076,248718,1278131,73756,7876,639153,0
13,-1,639657,218965,1181412,65926,7494,590705,0
13,2,714713,249535,1448209,74244,8980,724144,0
13,2,717977,249520,1388024,74034,8889,693652,0
13,-1,646926,221158,1435875,66944,7247,717917,2
13,-1,638955,219115,1203190,66018,7848,601493,0
13,2,731287,254549,1389869,77478,10476,694881,0
13,-1,642823,219570,1301124,66141,7881,650486,0
13,2,709632,249154,1426044,73936,9033,712909,0
13,2,735151,253858,1370566,77343,10028,685296,0
13,-1,637120,219676,1285485,66189,7458,642639,0
13,2,730225,253237,1438921,77229,10229,719431,0
13,-1,633857,219147,1353335,65913,7237,676601,0
13,2,713877,249882,1460059,74452,9569,730097,0
13,-1,638246,219342,1154193,66021,7000,577349,0
13,2,718513,250713,1427160,74931,9228,713613,0
13,2,712295,249212,1431441,73844,10110,715950,0
13,-1,641571,221723,1375222,67065,8421,687676,0
13,2,715610,251222,1410812,74829,9299,705553,0
13,-1,640319,219432,1256848,65997,7496,628396,0
13,2,713276,248658,1344599,73814,9748,672338,0
13,-1,639253,219000,1123836,65816,6943,561935,0
13,2,708912,248072,1436669,73624,9301,718368,0
13,2,731096,252622,1377021,76933,9922,688528,0
13,-1,658062,223872,1413330,69247,8236,706690,0
13,2,715173,250383,1341848,74663,9067,670746,0
13,2,712971,248306,1308641,73738,8847,654085,0
13,-1,658169,223212,1182438,68958,8182,590991,0
13,2,710946,248701,1446399,73803,8285,723122,0
13,2,711582,247887,1457264,73402,7993,728637,0
13,-1,662353,223583,1366968,69152,8214,683538,0
13,2,727568,253111,1509996,76592,9185,754878,0
13,-1,638489,220067,1264004,66157,6516,632060,0
13,2,705379,247415,1544017,73053,8980,771609,0
13,2,714497,251418,1259424,74647,9509,629677,0
13,-1,642411,220295,1606101,66306,9148,802985,0
13,2,709438,247567,1313770,73931,9009,656765,0
13,-1,642556,219479,1245535,65968,7179,622859,0
13,2,715254,250696,1335950,75252,8349,667828,0
13,2,710437,248620,1381396,74308,9520,690423,0
13,-1,636235,220034,1174921,66144,6767,587512,0
13,2,711925,248546,1471359,74283,9996,735607,0
13,2,716713,251076,1337820,75455,8874,668883,0
13,-1,639834,220878,1468395,66643,8124,734253,0
13,2,705504,248566,1379497,74333,9267,689734,0
13,2,709375,248257,1481334,74160,9796,740658,0
13,-1,637299,218978,1192660,65876,6733,596336,0
13,2,706907,248007,1405962,74135,8765,702962,0
13,-1,642694,221525,1308683,66966,7840,654450,0
13,2,734113,252893,1537457,77507,10269,768723,0
13,2,708254,248059,1411301,74121,8769,705587,0
13,-1,645028,220723,1310208,66621,9277,654878,0
13,2,714996,249660,1320696,74871,8698,660435,0
13,-1,642114,219289,1211447,65756,7400,605774,0
13,2,712181,248227,1386994,74037,9340,693539,0
13,2,717192,250317,1391684,74958,9622,695784,0
13,-1,661756,224559,1234526,69346,8001,617239,0
13,2,708653,249095,1349297,74530,10471,674660,0
13,2,713233,249570,1490185,74590,9861,745038,0
13,-1,640767,219355,1321346,65773,7417,660703,0
13,2,712422,249393,1466453,74568,10032,733226,0
13,2,714061,249199,1421216,74446,9296,710615,0
13,2,713605,250455,1338385,75112,8297,669126,0
13,-1,644528,220107,1268772,66046,7081,634436,0
13,2,712554,249148,1345324,74298,9117,672525,0
13,-1,643021,220275,1338684,66135,8161,669378,0
13,2,710699,249007,1373230,74313,8836,686517,0
13,2,713371,248902,1714558,74251,11393,857003,0
13,-1,666730,224983,1338016,69572,9320,669066,0
13,2,709642,248047,1408290,73938,9605,704150,0
13,2,717740,250370,1440287,74823,9502,720100,0
13,-1,646448,219531,1310012,65717,8398,654821,0
13,2,712638,249390,1405042,74538,9768,702135,0
13,2,719417,249576,1483592,74420,10660,741796,0
13,-1,643264,221242,1232990,66426,8373,616322,0
13,2,713978,248804,1474938,74203,9890,737349,0
13,2,715962,249050,1405641,74297,10173,702793,0
13,-1,646903,222215,1316227,67044,7935,658193,0
13,2,716414,249334,1405497,74703,9814,702944,0
13,2,704132,247886,1422818,74152,8277,711256,0
13,-1,641198,219875,1187905,66092,7007,593959,0
13,2,710239,249527,1436488,75013,9475,718226,0
13,-1,641264,219458,1137563,65829,7290,568668,0
13,2,710927,249929,1452888,75146,9709,726552,0
14,2,761472,266501,1456312,78773,9325,728155,0
14,-1,689759,236996,1361144,70637,7753,679876,0
14,2,727227,252825,1593940,77083,10315,796812,0
14,-1,691815,237019,1307790,70655,7786,653835,0
14,2,708357,247857,1321447,73528,8173,660711,0
14,2,704536,248782,1285429,73946,8764,642758,0
14,2,722660,251603,1408910,76661,9522,704320,0
14,2,736674,254371,1482791,77999,9871,741304,0
14,-1,640947,218860,1407976,65637,8025,703927,0
14,2,706077,247539,1501584,73584,9406,750614,0
14,2,710923,248214,1395584,73675,9180,697871,0
14,-1,644298,220598,1329765,66406,7959,664778,0
14,2,713705,248918,1373626,73862,9773,686777,0
14,2,713710,249863,1328896,74341,8685,664364,0
14,-1,647840,221512,1344691,66777,8185,672307,0
14,2,711233,248974,1454149,74384,9091,727040,0
14,2,729206,252592,1346433,77156,9882,673193,0
14,-1,639386,220380,1292025,66580,7686,645961,0
14,2,706750,248679,1450573,74042,9199,725297,0
14,-1,638160,218925,1269635,65740,7380,634798,0
14,2,708750,247974,1473671,73816,9053,736878,0
14,2,709579,249357,1337951,74132,9080,669045,0
14,2,709971,248815,1306267,73983,8963,653175,0
14,-1,639141,218740,1259548,65662,7369,629684,0
14,2,706917,248888,1591005,74082,10678,794986,0
14,2,729370,253257,1465533,77267,9491,732795,0
14,-1,639302,218734,1251681,65784,8570,625631,0
14,2,709002,248450,1408532,73869,10065,704340,0
14,2,710339,248657,1432911,73891,9031,716503,0
14,-1,639352,219328,1351592,65797,6935,675943,0
14,2,712497,250250,1436944,74694,9083,718543,0
14,-1,642083,218963,1208992,65734,7544,604504,0
14,2,727565,253207,1378166,77203,9674,689056,0
14,-1,642075,219430,1334063,65773,8052,667051,0
14,2,712406,250165,1440414,74662,9084,720257,0
14,-1,642065,220530,1429446,66472,8540,714636,0
14,2,708124,248543,1659890,73720,10161,829194,0
14,-1,642187,219596,1132921,66053,6533,566415,0
14,2,714336,249867,1500118,74219,10437,750111,0
14,-1,644444,220402,1300039,66606,7883,650045,0
14,2,715221,249639,1430322,74259,10333,715218,0
14,2,717625,250001,1463097,74216,8708,731528,0
14,-1,639092,219063,1292318,65931,7925,646117,0
14,2,712848,250314,1306624,74333,9650,653287,0
14,-1,640883,219899,1169906,66269,7487,584987,2
14,-1,643741,219260,1228770,65937,7351,614362,0
14,2,716972,251954,1438770,75226,9822,719039,0
14,2,708588,248132,1309790,73675,8474,654812,0
14,-1,655180,223623,1163010,69236,8154,581367,0
14,2,710043,249581,1433526,74269,9091,716815,0
14,-1,639075,219887,1290282,66441,8151,645134,0
14,2,706281,247888,1446756,73552,9586,723422,0
14,-1,657781,223529,1224371,69163,7644,611846,0
14,2,712845,248874,1456404,74004,9056,728253,0
14,2,715060,250556,1641497,74498,10880,820786,0
14,-1,637630,219333,1313457,66041,7761,656069,0
14,2,713422,249657,1511297,74172,9896,755713,0
14,-1,637088,218579,1322967,65688,7530,661564,0
14,2,710674,248094,1263491,73614,9319,631794,0
14,-1,637536,218808,1161455,65721,7137,580778,0
14,2,709081,248808,1339705,73882,8540,669907,0
14,2,711835,248610,1325387,73747,8946,662605,0
14,-1,639239,220217,1470479,66247,9553,735385,0
14,2,711750,249834,1403326,74414,9008,701631,0
14,2,712957,248591,1247773,73815,8882,623790,0
14,-1,638874,219385,1189337,65979,7196,594675,0
14,2,720359,250609,1350586,74728,8982,675352,0
14,-1,642498,219809,1266188,66070,7427,633132,0
14,2,711933,247343,1470241,73390,8752,735117,0
14,2,706121,248644,1592935,73318,9210,796347,0
14,-1,640523,219373,1238028,65937,6928,619056,0
14,2,711855,250255,1424077,74126,9189,711989,0
14,2,704972,248152,1261028,73257,9022,630314,0
14,-1,638319,219064,1254494,65846,7032,627468,0
14,2,713966,249448,1319260,74811,9640,659483,0
14,-1,643842,220968,1288924,66662,7300,644510,0
14,2,710683,248663,1424653,74322,9458,712328,0
14,2,715574,250431,1319100,75231,8715,659532,0
14,-1,637752,219358,1129329,65974,7042,564711,0
14,2,709977,248041,1434067,74102,9562,716271,0
14,2,730670,252421,1448773,77266,9953,724384,0
14,-1,644340,220283,1521200,66268,9271,760087,0
14,2,713127,249589,1383618,74624,10146,691807,0
14,2,707570,247957,1437663,73998,9334,718828,0
14,-1,638584,218716,1285718,65665,7340,642902,0
14,2,707982,248355,1447736,74181,9727,723828,0
14,-1,657961,223789,1265514,69173,8247,632748,0
14,2,711733,248170,1435626,74186,8722,717782,0
14,2,731475,252574,1461969,77374,10313,730976,0
14,-1,662437,224242,1222925,69356,8412,611437,0
14,2,711061,248612,1298573,74288,8680,649332,0
14,-1,663749,224254,1244658,69184,7893,622386,0
14,2,731786,252828,1511418,77307,10061,755726,0
14,2,733572,253022,1602191,77385,11278,800956,0
14,-1,641997,220689,1294305,66307,6871,647199,0
14,2,708871,248624,1426534,74268,10486,713124,0
14,2,711275,249177,1505422,74402,9728,752594,0
14,-1,661032,224049,1274603,69118,7806,637253,0
14,2,714501,250197,1454471,74793,10512,727181,0
14,2,716859,250728,1313383,74982,9891,656690,0
14,2,711096,249839,1302107,74682,8802,651030,0
14,-1,641174,219183,1264854,65778,7556,632484,0
14,2,713836,249552,1413486,74365,9275,706828,0
14,-1,644374,220587,1357066,66222,8262,678257,0
14,2,714391,249128,1330754,74236,8604,664300,0
14,2,715332,249231,1475574,74371,9671,737799,0
14,-1,642989,219751,1199652,66061,7558,600000,0
14,2,711530,248733,1377677,74300,9639,688800,0
14,2,717639,249849,1510742,74566,10269,755152,0
14,-1,650419,221667,1338310,66498,8775,669153,0
14,2,719248,249559,1501252,74597,10477,750990,0
14,2,717193,249193,1378955,74315,9419,689476,0
14,-1,640753,220455,1320910,66099,8521,660407,0
14,2,714920,249017,1433433,74290,9569,716611,0
14,2,714688,248493,1414372,74065,10258,707188,0
14,-1,664084,225734,1254849,69655,8292,627354,0
14,2,709104,247549,1368035,73824,9483,683950,0
14,2,712011,247229,1358697,73953,9340,679343,0
14,-1,640755,219739,1302608,65972,8076,651066,0
14,2,707540,248920,1466517,74648,9222,733250,0
14,-1,641205,220262,1387916,66046,8031,693743,0
14,2,728438,253023,1480120,77676,10685,740055,0
15,2,768254,269372,1484378,79935,9774,742155,0
15,-1,691193,236277,1177325,70448,7034,588598,0
15,2,709454,248353,1353062,73879,8489,676504,0
15,-1,692603,237124,1364475,70647,8669,682269,0
15,2,708450,248453,1290119,73778,8384,645036,0
15,2,704886,248391,1464840,73715,9020,732468,0
15,2,712196,248979,1411901,74224,9095,705807,0
15,-1,637862,218470,1273535,65795,7499,636702,0
15,2,708559,248486,1316162,73776,9404,658109,0
15,2,711062,249055,1472694,74355,10188,736125,0
15,2,711485,248481,1331292,73775,8921,665702,0
15,-1,639303,218890,1285809,65674,7903,642925,0
15,2,714726,250243,1383212,74473,10545,691463,0
15,2,710136,248755,1335411,73978,9012,667617,0
15,-1,640802,218539,1263422,65521,8305,631705,0
15,2,711762,249132,1398871,74225,8377,699458,0
15,2,713424,248459,1425047,73982,9223,712533,0
15,-1,634689,217829,1167675,65519,6594,583788,0
15,2,707148,248790,1303828,74123,8708,651858,0
15,-1,640601,220245,1317881,66421,7836,658897,0
15,2,708513,248905,1391343,74064,9308,695694,0
15,2,710328,249986,1346238,74667,9258,673138,0
15,2,710902,250162,1386134,74657,8313,693137,0
15,-1,638519,218826,1222408,65667,6982,611230,0
15,2,704413,248870,1357985,74067,8577,679011,0
15,2,707975,249627,1422962,74282,8526,711531,0
15,-1,640751,219291,1268239,65891,8028,634207,0
15,2,708805,248651,1400852,73907,9006,700467,0
15,2,730984,253454,1317184,77325,9631,658647,0
15,-1,641127,220428,1351171,66422,7795,675528,0
15,2,708504,249219,1330501,74154,8296,665284,0
15,-1,647259,221048,1297212,66576,7756,648694,0
15,2,706652,248963,1358192,74003,9027,679145,0
15,-1,642241,219505,1292985,65815,7882,646429,0
15,2,710218,248690,1679757,73897,9897,839886,0
15,-1,637787,218861,1502265,65683,8049,750973,0
15,2,714694,251022,1435658,74945,8949,717892,0
15,-1,645835,220692,1346554,66565,8427,673343,0
15,2,731348,253568,1308698,77215,9661,654281,0
15,-1,667361,228382,1337618,68693,8247,668791,0
15,2,716825,250291,1460823,74632,10646,729438,0
15,2,713390,249610,1456857,74291,9210,728476,0
15,-1,645809,219584,1272227,66110,7572,636145,0
15,2,715182,251221,1440567,74807,10140,720125,0
15,-1,640809,219154,1258974,66019,8512,629492,2
15,-1,642458,219053,1293560,65993,7505,646704,0
15,2,709373,249377,1298728,74023,9235,649304,0
15,-1,641894,219011,1299117,65933,7321,649580,2
15,-1,634853,219455,1142217,66132,7370,571008,2
15,-1,634817,219534,1195152,66147,8313,597501,0
15,2,710840,248725,1448584,73921,9342,724315,0
15,-1,639637,222011,1347950,67262,8136,673936,2
15,2,710323,250126,1469378,74620,9310,734730,0
15,-1,637276,219754,1475988,66233,8339,737736,2
15,-1,639604,219269,1180089,66070,7900,589996,0
15,2,707838,248420,1295312,73749,8811,647697,0
15,-1,635623,218894,1316417,65948,7683,658211,0
15,2,714600,249576,1496281,74440,9346,748165,0
15,-1,636922,219668,1256951,66181,7692,628464,2
15,2,713846,247957,1469453,73549,9773,734761,0
15,-1,636127,218837,1309472,65855,7281,654767,0
15,-1,636356,219497,1221495,66114,7353,610831,2
15,2,708017,248626,1276848,73589,9492,638457,0
15,-1,638384,219728,1272320,66128,7704,636220,2
15,-1,640624,220191,1259173,66251,7504,629630,0
15,-1,636744,220188,1311294,66267,8223,655701,2
15,2,709751,248543,1310177,73782,8539,655134,0
15,-1,661813,224012,1370259,69272,8116,685166,0
15,-1,643234,221564,1228738,66977,7738,614438,2
15,2,717335,250412,1388984,74648,9555,694564,0
15,2,709900,248229,1383509,73617,9007,691793,0
15,-1,637593,220247,1296684,66267,7250,648294,2
15,2,713303,248137,1347229,73678,8978,673653,0
15,-1,638314,219111,1267953,65835,7811,634018,0
15,-1,643622,221875,1324250,67083,8036,662168,2
15,-1,638474,219578,1153161,66042,7029,576621,0
15,2,710949,247897,1339525,73521,9648,669750,0
15,2,715133,249577,1361170,74257,8839,680592,0
15,-1,642243,220517,1258436,66380,7568,629256,2
15,-1,641270,219771,1189058,66110,6639,594539,0
15,2,713193,248208,1298529,73568,7939,649254,0
15,-1,637564,219944,1290391,66134,7643,645235,2
15,2,705935,248358,1426386,73252,9433,713233,0
15,-1,639162,219521,1218475,66007,7006,609275,0
15,2,704048,247370,1267216,73132,8543,633595,0
15,-1,642581,221363,1293463,66909,7806,646777,2
15,2,704142,248290,1456440,73318,9353,728226,0
15,-1,644164,221327,1308877,66789,7667,654406,0
15,-1,639051,220024,1198430,66196,6891,599270,2
15,2,729609,252245,1388751,77281,10436,694246,0
15,-1,642602,220579,1329028,66426,8164,663913,2
15,-1,642293,220268,1383823,66278,7064,691955,0
15,2,713900,251005,1453735,75423,9389,726824,0
15,2,708935,248981,1409309,74547,9194,704656,0
15,-1,641111,220672,1192349,66582,7537,596240,0
15,2,707470,248453,1393449,74207,9599,696819,0
15,-1,636229,219606,1182432,66073,6563,591271,2
15,2,715466,249259,1317237,74677,9403,658441,0
15,-1,641485,219663,1338795,66012,7217,669482,0
15,-1,639489,220696,1329422,66371,7021,664766,2
15,2,708743,248164,1338451,74192,9659,669155,0
15,2,730500,252987,1471640,77515,10918,735823,0
15,-1,638573,219790,1181722,66066,6861,590959,2
15,-1,639939,219027,1291121,65785,6922,645602,0
15,-1,643327,221079,1195651,66835,7468,597772,2
15,2,714003,250410,1398521,75227,9265,699215,0
15,-1,639187,219453,1245192,65848,7462,622653,0
15,2,713042,249779,1287268,74954,8317,643634,0
15,2,707569,247976,1345063,74035,9513,672561,0
15,-1,664052,229101,1271145,68904,7261,635597,2
15,-1,638233,219113,1144949,65904,6635,572540,0
15,2,711389,248180,1381870,74088,9112,690985,0
15,-1,643284,220341,1275628,66140,7432,637847,0
15,-1,645169,221125,1292668,66696,8208,646464,2
15,-1,640323,219743,1201990,66148,6835,600955,2
15,2,710935,248168,1349691,73960,8606,674964,0
15,-1,637567,219478,1295953,65839,6998,648005,2
15,2,711074,248289,1353521,73984,9953,676681,0
15,-1,666451,229546,1316179,68881,7017,658146,0
15,2,708218,248237,1503750,74154,9993,751852,0
15,2,708980,248979,1416414,74459,10185,708182,0
15,-1,640775,221285,1332524,66772,7632,666330,2
15,-1,640313,219936,1289272,65995,7593,644735,0
15,2,736773,253767,1501107,77850,11482,750410,0
15,2,715175,250238,1526391,75003,9418,763308,0
15,-1,640882,219842,1186857,66099,6420,593459,2
15,2,728918,252926,1455909,77456,10042,727831,0
15,-1,645380,221212,1280762,66671,7653,640358,0
15,2,710038,248964,1489293,74261,9709,744156,0
15,-1,641575,220070,1321496,66170,8590,660748,0
15,-1,674019,231598,1336242,69866,8686,668165,2
15,2,712392,249164,1371681,74371,8695,685941,0
15,2,718132,250882,1422586,75211,9517,711127,0
15,-1,642424,219703,1233931,66093,7741,617335,2
15,-1,646793,221710,1302787,66945,8004,651562,0
15,2,711608,249026,1538286,74376,9158,769102,0
15,-1,645114,221314,1334670,66412,9008,667410,2
15,2,716968,249795,1459346,74576,10180,729608,0
15,2,718546,250040,1323460,74777,9126,661701,0
15,-1,648550,220678,1322920,66206,8435,661139,0
15,-1,644722,223140,1300562,67343,8927,650085,2
15,2,714273,248546,1453950,74085,10295,727067,0
15,-1,642917,220880,1276501,66284,9244,638318,2
15,-1,644210,222394,1286178,67028,8352,643003,0
15,2,715754,249222,1356687,74300,8988,678133,0
15,-1,639295,220307,1240956,66092,8005,620315,2
15,2,715571,248882,1524154,74189,10230,762044,0
15,-1,640659,220091,1189617,65986,8367,594833,0
15,2,718697,250572,1420936,75188,9521,710429,0
15,2,717656,250066,1485058,75102,9936,742618,0
15,-1,641816,220367,1189616,66257,7158,594801,0
15,2,707115,247603,1429643,74040,9651,714695,0
15,-1,637862,220110,1325671,66069,7920,662883,2
15,-1,641328,219932,1374092,65960,7735,687028,0
15,-1,639754,219743,1206171,65999,7731,603070,2
15,2,707540,247247,1455362,73906,9579,727682,0
15,-1,667156,229291,1384937,68807,8885,692468,2
