0,2,763167,266355,1320790,78650,9231,659840,0
0,-1,688781,237349,1265309,70783,7748,632099,2
0,-1,689548,236769,1338114,70526,9156,668503,0
0,2,704606,248387,1426437,73843,9010,712683,0
0,2,712944,249715,1419891,74672,8677,709049,0
0,2,711387,248372,1331268,73957,7878,665202,0
0,2,710265,249722,1509924,74634,9643,754233,0
0,2,708327,248590,1333132,73921,8635,666105,0
0,2,712482,250134,1376461,74667,8827,687317,0
0,2,709946,249421,1418136,74195,8509,708596,0
0,2,709235,249327,1432296,74029,8958,715745,0
0,2,711192,251136,1376573,74761,9500,687570,0
0,-1,646366,221050,1263848,66639,8023,631205,0
0,2,715254,250541,1396305,74784,9077,697380,0
0,2,710887,248209,1487821,73754,10004,743338,0
0,2,708536,249622,1362871,73974,8562,681087,0
0,2,718251,251198,1487506,74968,10661,743113,0
0,2,710259,247624,1412517,73524,8876,705819,0
0,2,705295,247943,1404884,73051,8782,701932,0
0,2,706490,247723,1436777,73963,9640,717422,0
0,2,709227,247603,1420892,73927,8901,709984,0
0,-1,637873,218855,1360247,65827,7540,679695,0
0,2,730195,252897,1512302,77496,10555,755517,0
0,2,728455,252880,1361344,77491,10885,680190,0
0,2,712108,247808,1272944,73831,9192,635964,0
0,2,713823,249633,1278561,74634,8660,638793,0
0,2,714820,249157,1600993,74419,9956,799888,0
0,2,712805,249239,1479581,74368,10520,739035,0
0,2,714116,249714,1397396,74458,8325,698343,0
0,2,715532,248975,1438872,74236,9658,719151,0
0,2,732897,252449,1527111,77487,10579,762995,0
0,2,707522,248269,1431616,74321,9922,714658,0
0,-1,643829,220094,1245672,66077,8117,622201,0
1,2,703977,248060,1393238,73641,8804,696154,0
1,-1,695732,239519,1354222,71735,7681,676377,2
1,2,708395,248741,1312538,74076,8311,655537,0
1,2,712503,249165,1382618,74193,8644,690814,0
1,2,704220,248053,1417103,73827,9156,707955,0
1,2,714301,250012,1448005,74613,9216,723274,0
1,2,706316,248062,1260083,73759,8383,629322,0
1,2,709642,248672,1339042,74006,8751,668971,0
1,2,708297,248825,1347534,73915,8617,673235,0
1,-1,659535,222846,1245712,68762,8337,622240,0
1,2,718144,249552,1341967,74083,8951,670509,0
1,2,730894,253313,1397924,77227,9890,698560,0
1,2,710552,248446,1310802,73874,9335,654930,0
1,2,707406,248514,1439306,73582,8149,719199,0
1,2,732830,252812,1513900,76974,11057,756482,0
1,2,710720,248760,1398570,73884,8878,698812,0
1,2,709340,250119,1470538,73999,8759,734514,0
1,2,706287,248314,1501011,74210,9383,749758,0
1,2,710816,249021,1417245,74456,8844,708146,0
1,-1,641712,220106,1354440,66403,7942,676226,0
1,2,706089,247628,1370023,73974,8860,684485,0
1,2,706999,248209,1276921,74169,8802,638061,0
1,2,712687,247851,1319076,73884,9288,659084,0
1,2,715725,250993,1414905,75385,11842,706356,0
1,2,719491,251076,1554962,75364,10299,776239,0
1,2,710210,248308,1471908,74043,10204,735569,0
1,2,712928,249861,1371842,74817,8252,685179,0
1,2,716660,249280,1334146,74379,8743,666619,0
1,2,712108,248302,1444087,74304,9681,721559,0
1,2,706506,248182,1342546,74300,9480,670738,0
1,-1,646588,221433,1258789,66765,7964,628490,0
2,2,724359,252476,1422404,76844,9597,710671,0
2,2,711787,249332,1416388,74437,9494,707479,0
2,2,712539,249172,1309316,74148,8127,654160,0
2,-1,690133,237257,1256223,70702,7072,627498,2
2,2,727324,252982,1355935,77311,9972,677505,0
2,2,709997,248661,1324853,73926,8675,661693,0
2,2,710300,249071,1374907,74082,9470,686847,0
2,2,710732,249560,1450919,74474,9215,725346,0
2,2,709799,248214,1268233,73649,8492,633602,0
2,-1,640167,218825,1168509,65665,6557,583766,0
2,2,718278,250299,1429854,74318,9936,714496,0
2,2,736013,258261,1526563,76712,9593,762860,0
2,2,709653,247826,1429504,73619,10229,714327,0
2,2,717015,249023,1467342,73708,9079,733185,0
2,2,711965,248756,1407630,73854,9414,703314,0
2,2,712065,249773,1318153,74388,8250,658287,0
2,2,702481,247719,1463164,72973,9055,731234,0
2,2,715047,249780,1596790,74885,9930,797293,0
2,2,709692,249296,1522033,74524,8649,760560,0
2,-1,636980,218709,1278974,65769,8440,638904,0
2,2,707372,247900,1378657,74084,9592,688859,0
2,2,716199,249075,1298274,74643,8927,648465,0
2,2,716462,249822,1268942,74737,8818,633661,0
2,2,730585,253396,1385300,77626,11661,691964,0
2,2,714759,249418,1500346,74536,9966,749748,0
2,2,732159,253138,1583069,77425,11067,791086,0
2,2,733501,254094,1592756,77762,9361,795873,0
2,2,718302,250310,1352154,74940,8450,675626,0
2,2,738085,252726,1542577,77531,10880,770894,0
2,2,709748,249858,1464054,75020,10173,731450,0
2,-1,644235,220261,1151523,66147,6971,575315,0
3,2,702623,248138,1302227,73731,8288,650512,0
3,2,707846,248018,1634643,73789,10325,816109,0
3,2,713970,248970,1352664,74039,8928,675803,0
3,2,704305,248180,1402904,73811,9056,700987,0
3,2,711045,249047,1434468,74048,9271,716804,0
3,2,708221,248569,1319514,73975,8474,659196,0
3,2,707817,248951,1422491,74072,9089,710572,0
3,2,712604,249167,1304833,73986,8756,651950,0
3,-1,640068,218995,1245131,65658,7189,622162,0
3,2,720709,251102,1433914,74835,9469,715948,0
3,2,711269,248632,1421738,73850,9164,710440,0
3,2,714568,250307,1380009,74720,9624,688977,0
3,2,720961,251202,1399042,74858,9304,698583,0
3,-1,633361,218498,1239342,65680,6629,619145,2
3,2,739743,258958,1441779,77081,8925,720189,0
3,2,712627,248207,1402462,73690,9046,700688,0
3,2,702011,248395,1399748,73287,9259,699137,0
3,2,731812,252928,1520715,77501,10961,759817,0
3,2,712685,248731,1445705,74281,9405,722414,0
3,-1,635361,218327,1325120,65622,7577,662046,0
3,2,708384,248146,1404374,74092,8634,701666,0
3,2,713230,248383,1463796,74257,9305,731348,0
3,2,712631,248286,1319487,74058,9421,659129,0
3,2,715097,249580,1273976,74667,9544,636398,0
3,2,714271,249253,1399203,74439,9214,699071,0
3,2,713251,249237,1494346,74350,9286,746481,0
3,2,733457,254001,1475779,77724,9519,737460,0
3,2,716553,249902,1383238,74567,8549,691159,0
3,2,716244,248656,1330535,74402,8822,664776,0
3,2,710035,248403,1587732,74298,10564,793246,0
3,-1,641884,219635,1205564,65917,7737,602277,0
4,2,704603,248212,1454350,73675,8842,726759,0
4,2,727201,252437,1475707,76994,10432,737642,0
4,2,710962,248772,1256940,73981,9188,627955,0
4,2,707101,249171,1317456,74251,8776,658205,0
4,2,712697,249767,1412328,74340,9112,705725,0
4,2,729818,253714,1297134,77425,8748,648018,0
4,2,710305,248924,1629187,74011,9403,813219,0
4,2,711238,249237,1243201,73966,8643,620964,0
4,-1,645368,221010,1291868,66530,7366,645444,0
4,2,718232,250497,1435118,74318,9646,716987,0
4,2,710847,249060,1476486,74056,8906,737622,0
4,2,710535,248361,1308146,73833,9528,653508,0
4,2,739971,254343,1390971,77303,9746,695073,0
4,2,708898,247950,1409968,73522,9168,704549,0
4,2,732451,253049,1414574,77074,9296,706691,0
4,2,704462,248466,1420404,73294,8488,709683,0
4,-1,635942,218746,1235758,65776,7330,617288,2
4,2,707881,247667,1371559,73952,9562,685268,0
4,2,729300,252603,1471039,77415,9949,735176,0
4,-1,638168,218996,1315873,65872,7775,657357,0
4,2,711521,249322,1336087,74526,8593,667606,0
4,2,718638,250286,1312728,75113,8737,655506,0
4,2,710260,248507,1317071,74176,9149,658013,0
4,2,712717,249191,1313756,74432,8984,656455,0
4,2,713553,249749,1463987,74659,10470,731579,0
4,2,714340,250734,1421075,75047,9543,709735,0
4,2,710996,248789,1277744,74286,8510,638199,0
4,2,717539,249337,1304591,74376,8821,651817,0
4,2,713644,247900,1340654,74172,8981,669824,0
4,2,716933,250564,1590047,75395,10419,793979,0
4,-1,641663,219715,1273197,65876,7335,636153,0
5,2,711005,247583,1372087,73414,8344,685628,0
5,2,708921,248266,1450676,73819,9616,725008,0
5,2,714166,250454,1402514,74795,8767,700362,0
5,2,708714,249454,1435082,74569,9175,716862,0
5,2,707068,248464,1417680,73826,8932,708377,0
5,2,712478,249047,1258416,74131,9024,628569,0
5,2,708453,248158,1423125,73827,8991,711498,0
5,2,732195,253850,1309776,77336,9205,654442,0
5,-1,640871,219337,1261723,65814,7101,630300,0
5,2,716555,250142,1429035,74263,9629,714076,0
5,2,712433,250064,1429102,74569,9229,713640,0
5,2,708475,248229,1345399,73809,9019,672134,0
5,2,715888,249191,1390588,73828,9017,694799,0
5,2,714505,249991,1417518,74528,9119,707772,0
5,2,710316,248213,1359268,73683,9237,678941,0
5,2,703846,248155,1468899,73140,8274,734017,0
5,2,728784,252884,1743658,77496,10959,871246,0
5,2,708690,248615,1445325,74303,9157,722133,0
5,-1,636628,218824,1364389,65704,8003,681758,0
5,-1,640286,221091,1274498,66859,8339,635780,2
5,2,707253,248113,1406155,74123,8498,702684,0
5,2,734540,252987,1487991,77497,10357,743519,0
5,2,714246,249358,1312522,74534,8819,655528,0
5,2,711766,248904,1456961,74352,10046,727913,0
5,2,719325,250000,1331379,74754,9671,665123,0
5,2,714522,249082,1463575,74221,9611,731329,0
5,2,736689,257864,1388735,76889,8706,693878,0
5,2,717716,249312,1395023,74414,9033,696914,0
5,2,717159,249489,1365415,74857,9356,682036,0
5,2,711298,248281,1363252,74335,9046,681099,0
5,-1,643724,220872,1274659,66309,7483,636911,0
6,2,712042,248251,1394409,73724,9270,696664,0
6,2,707960,247712,1510516,73689,9943,754215,0
6,2,709320,248776,1447377,74013,8411,723133,0
6,2,703818,248261,1422219,73912,9452,710483,0
6,2,708709,248904,1335861,74089,8398,667369,0
6,2,714255,250225,1349842,74677,9330,673911,0
6,2,707384,248293,1303170,73891,8260,651140,0
6,2,710983,249651,1300130,74170,8048,649563,0
6,-1,637863,218659,1268610,65603,6944,633826,0
6,2,715024,249743,1348630,74133,9607,673849,0
6,2,709887,248952,1329599,74011,8852,664289,0
6,2,709052,248754,1306611,73960,9062,652832,0
6,2,713245,248380,1403195,73569,9136,701119,0
6,2,731944,253340,1421852,77102,9761,710317,0
6,2,711282,248455,1313366,73788,9000,656112,0
6,2,705082,248905,1398203,73432,7907,698483,0
6,2,706754,247201,1388257,73761,10098,693347,0
6,2,707133,248097,1495736,74052,9384,747319,0
6,-1,633632,218554,1377561,65696,8144,688284,0
6,2,710246,249986,1361930,75039,8722,680283,0
6,-1,639409,220058,1282979,66162,8274,640634,2
6,2,713045,248590,1342191,74250,8839,670640,0
6,2,712810,248559,1424446,74137,9653,711711,0
6,2,718922,251855,1612305,75639,9973,805060,0
6,2,714885,249448,1472222,74514,10142,735754,0
6,2,713727,249056,1517665,74314,10030,757973,0
6,2,714792,250167,1269179,74927,8973,633912,0
6,2,715914,248757,1349336,74113,8867,674219,0
6,2,714279,248683,1363693,74382,9723,681294,0
6,2,713988,249743,1427101,74930,9149,712861,0
6,-1,647724,222262,1333226,67083,7931,665684,0
7,2,710653,247761,1413722,73545,8965,706410,0
7,2,710490,248583,1585309,73854,9432,791769,0
7,2,708578,248488,1441906,73852,8833,720384,0
7,2,706508,249041,1491201,74234,10321,744981,0
7,2,708818,248398,1449016,73869,9896,724053,0
7,2,710067,248616,1476275,73962,8559,737574,0
7,2,727650,253047,1315813,77242,9143,657448,0
7,2,709740,249036,1315592,73988,8238,656365,0
7,-1,636953,218315,1221246,65466,6856,610154,0
7,2,717198,250035,1454273,74174,10052,726695,0
7,2,710372,249400,1419687,74103,9047,709505,0
7,2,716006,250730,1492911,74791,10171,745193,0
7,2,742723,255087,1414128,78034,9773,706672,0
7,2,709179,248414,1401154,73754,9400,699863,0
7,2,715281,250410,1239399,74581,8823,618826,0
7,2,702850,248240,1402772,73165,8609,700647,0
7,2,704355,248418,1444650,73341,9424,721890,0
7,2,705963,247917,1382387,74068,9322,690771,0
7,-1,642077,218831,1348334,65802,7745,673322,0
7,2,707234,248153,1429664,74093,9091,714337,0
7,2,713072,249319,1325029,74611,8107,661807,0
7,-1,637523,218690,1291591,65847,8000,645211,2
7,2,711402,248740,1378076,74192,9257,688563,0
7,2,733256,253915,1517949,77803,11121,758561,0
7,2,718748,250945,1447796,75305,9805,722999,0
7,2,712066,248474,1451628,74088,10004,725254,0
7,2,712685,249119,1317063,74389,9212,658057,0
7,2,714674,248981,1367022,74295,9432,683018,0
7,2,712686,247680,1259377,74064,9126,629266,0
7,2,708496,247549,1368035,74044,9278,683422,0
7,-1,643028,221095,1320938,66578,8032,659660,0
8,2,709619,247900,1309526,73602,8613,654166,0
8,2,712911,249912,1658039,74637,10222,826962,0
8,2,712265,249486,1404050,74207,8727,701361,0
8,2,705506,248139,1325346,73929,9627,662093,0
8,2,715573,251129,1428344,75108,8708,713276,0
8,2,706772,248486,1379467,73829,8265,689239,0
8,2,709892,249643,1302495,74444,8705,650461,0
8,2,712386,249577,1308923,74124,8590,654013,0
8,-1,658370,223087,1313492,68902,8327,656296,0
8,2,712597,249015,1438776,73794,9593,718847,0
8,2,707555,248535,1364875,73936,8578,681901,0
8,2,710029,248532,1530812,73812,10535,763429,0
8,2,714800,248934,1409046,73791,9178,704048,0
8,2,709565,248183,1270213,73611,9180,634512,0
8,2,711333,248573,1292463,73819,9156,645640,0
8,2,722192,252650,1473107,76474,9859,735869,0
8,2,704743,248481,1552244,73336,9388,774740,0
8,2,709577,248947,1288452,74447,8682,643671,0
8,-1,646133,220849,1370450,66618,8532,684020,0
8,2,707157,248243,1386580,74210,9387,692812,0
8,2,711114,248163,1413717,74169,9423,706397,0
8,2,715128,249913,1324214,74863,9241,661397,0
8,2,715087,250248,1436888,74808,10743,718036,0
8,2,714927,249809,1385295,74688,9293,692088,0
8,2,717341,250931,1428763,75207,10121,713445,0
8,-1,646715,221521,1218633,66850,7891,608388,2
8,2,713585,249761,1328662,74587,9091,663858,0
8,2,714159,248958,1499423,74223,9709,749269,0
8,2,714804,248632,1346998,74391,9530,672669,0
8,2,707622,248107,1286963,74239,8781,643026,0
8,-1,642659,219600,1295683,65856,7269,647443,0
9,2,711309,248573,1416045,73898,9388,707522,0
9,2,728849,252419,1455487,76977,10156,727287,0
9,2,715386,249707,1406495,74466,9598,702520,0
9,2,706290,248731,1490134,74107,9721,744532,0
9,2,710244,249276,1517224,74171,9333,758128,0
9,2,715686,251202,1437173,75133,9392,717548,0
9,2,705539,248418,1346620,73924,7782,672865,0
9,-1,642579,219069,1194476,65773,7403,596784,0
9,2,714839,250684,1404483,74755,9589,701529,0
9,2,719582,251581,1590577,74993,10523,794434,0
9,2,716687,250739,1399779,74852,9490,699124,0
9,2,714548,250050,1424074,74503,9996,711283,0
9,2,717123,250319,1406999,74433,9232,702887,0
9,2,709983,248436,1324046,73749,9620,661421,0
9,2,710485,249053,1320383,74033,8671,659703,0
9,2,704398,248707,1383394,73367,8133,691142,0
9,2,707924,248004,1458000,73191,9359,728537,0
9,-1,638676,218022,1220291,65476,7351,609575,0
9,2,706044,248188,1306724,74071,9619,652983,0
9,2,732957,257732,1422520,77039,9996,710725,0
9,2,715442,249692,1574203,74933,10058,786157,0
9,2,731506,252664,1496021,77260,10132,747511,0
9,2,717335,250515,1362698,75084,9630,680661,0
9,2,712661,249312,1452887,74555,9516,725826,0
9,2,732883,253423,1503448,77526,10359,751112,0
9,2,714843,250928,1279471,75271,8894,638909,0
9,2,716963,249464,1339617,74449,8649,669213,0
9,2,711624,248132,1264332,74078,9244,631678,0
9,-1,644821,221207,1308910,66738,8341,653563,0
9,2,729643,251987,1376300,77365,9725,687692,0
9,-1,643305,220476,1274870,66163,7250,636902,2
10,2,708066,247677,1331645,73460,8810,665369,0
10,2,704954,247191,1498282,73435,10045,748605,0
10,2,711308,248670,1370371,73920,8743,684605,0
10,2,731517,257452,1511355,76621,9410,755094,0
10,2,709381,249220,1483609,74105,9243,741377,0
10,2,731892,253803,1391963,77468,9345,695326,0
10,2,728528,253368,1366941,77327,9630,683119,0
10,-1,644548,220317,1338527,66357,7949,668609,0
10,2,705816,248243,1431244,73658,8484,715044,0
10,2,714337,250362,1496409,74479,10528,747642,0
10,2,734611,253860,1387983,77364,10517,693565,0
10,2,707398,248229,1432290,73672,10044,715619,0
10,2,714071,249778,1317096,74064,8655,657795,0
10,2,707192,247667,1468200,73454,9806,733726,0
10,2,711120,248609,1541577,73771,9334,770338,0
10,2,700585,248264,1293878,73235,8780,646425,0
10,2,710615,249069,1397173,73572,9136,698083,0
10,-1,640273,219139,1326596,65860,7717,662761,0
10,2,712063,250994,1273261,75385,9293,635786,0
10,2,712278,248569,1296628,74318,8942,647874,0
10,2,737030,253951,1506843,78353,10219,752925,0
10,2,709564,248173,1313881,73947,8782,656446,0
10,2,743141,260710,1450846,78262,9433,724459,0
10,2,712967,249666,1484555,74649,10584,741751,0
10,2,714308,249828,1380332,74576,9610,689491,0
10,2,713104,249510,1260684,74527,8747,629817,0
10,2,717569,250137,1364134,74807,8546,681065,0
10,2,711233,247934,1321605,74029,9540,660350,0
10,-1,639255,219007,1308790,65729,7570,653915,0
10,2,706284,246911,1290904,73878,8766,645018,0
11,2,707173,247963,1437701,73622,9226,718289,0
11,2,708687,248740,1437436,74000,9546,717838,0
11,2,733117,253184,1363205,77179,10027,681137,0
11,2,710993,250934,1527852,75083,10286,762854,0
11,2,713327,250469,1450671,74773,9118,724502,0
11,2,707289,248451,1400367,73874,8933,699622,0
11,2,710611,248449,1413423,73891,8713,706157,0
11,-1,640470,219008,1265950,65758,7203,632556,0
11,2,710868,248946,1355428,73869,8470,677266,0
11,2,716598,249655,1453096,74238,9133,726094,0
11,2,710743,248725,1351600,73806,8805,675401,0
11,2,707892,248447,1331256,73757,9708,665123,0
11,2,715901,249069,1411591,73710,9309,705353,0
11,2,713054,250427,1398366,74607,8848,698481,0
11,2,708826,247979,1482654,73546,9174,740859,0
11,2,705844,249807,1260330,73927,7871,629299,0
11,2,730808,256382,1469508,75624,9116,734317,0
11,-1,645042,220809,1344090,66681,8352,670829,0
11,2,710620,247891,1363556,74020,8632,681207,0
11,2,731549,253102,1442753,77510,10124,720838,0
11,2,711025,247932,1513287,74016,9818,756228,0
11,2,710607,248783,1505203,74194,9714,752122,0
11,2,732031,253576,1562376,77663,10597,780724,0
11,2,712022,249158,1410484,74433,9963,704757,0
11,2,712537,248799,1510662,74134,9512,754832,0
11,2,710589,248970,1299818,74285,8755,649456,0
11,2,714464,249364,1411423,74488,8654,705191,0
11,-1,641805,220170,1277877,66134,7331,638427,0
11,2,716017,249234,1499285,74674,9759,748123,0
11,2,707506,248248,1260670,74259,8329,629966,0
12,2,711543,247867,1441073,73536,8462,720273,0
12,2,706253,247912,1431277,73758,9728,714510,0
12,2,706552,247605,1435451,73483,8644,717281,0
12,2,708534,249254,1305021,74265,8731,651961,0
12,2,706074,248329,1285036,73857,8085,641930,0
12,2,709810,249140,1492472,74122,9613,745531,0
12,2,708892,248736,1338831,73978,8257,668830,0
12,-1,637518,218167,1157650,65429,6505,578429,0
12,2,709754,249274,1419515,74166,8339,709221,0
12,2,716151,249809,1483547,74486,10443,740944,0
12,2,713036,249886,1435937,74229,9309,717499,0
12,2,706711,248088,1505802,73622,9898,752394,0
12,2,715068,249278,1295865,73848,9064,647440,0
12,2,710098,248285,1375910,73658,9804,687338,0
12,2,707805,247981,1307237,73635,8491,653166,0
12,2,698951,248102,1320670,73125,8105,659740,0
12,2,712636,250965,1436111,74462,9441,717071,0
12,-1,666640,224970,1300185,70072,8123,649528,0
12,2,714139,249041,1453782,74423,9061,726339,0
12,2,708766,248204,1378926,74135,8901,688952,0
12,2,712386,248539,1621444,74272,10698,810084,0
12,2,712528,248151,1303522,73973,8875,651268,0
12,2,712063,249527,1454750,74597,8732,726829,0
12,2,722316,251422,1338279,75490,9803,667930,0
12,2,713653,249586,1450132,74505,9308,724187,0
12,2,708903,248889,1449127,74242,9540,724139,0
12,2,715157,249612,1434480,74538,8917,716820,0
12,-1,637683,219130,1205560,65799,6939,602331,0
12,2,714263,249074,1515499,74418,9630,757179,0
12,2,728293,252814,1419208,77614,9660,709194,0
13,2,707913,247993,1383637,73616,8078,691310,0
13,2,705483,248077,1334437,73699,9227,666632,0
13,2,714380,250602,1416100,74813,8978,707197,0
13,2,704626,248770,1295922,74137,8578,647479,0
13,2,707833,248326,1406239,73844,8559,702742,0
13,2,703968,248057,1384149,73777,9077,691632,0
13,2,709800,248572,1331703,73869,8236,665377,0
13,-1,644847,221307,1316374,66702,7623,657296,0
13,2,707441,249138,1584714,74171,10300,791783,0
13,2,715623,249335,1421782,74205,9653,710477,0
13,2,712911,249974,1495586,74407,9826,747048,0
13,2,714488,251475,1440094,75083,10442,719123,0
13,2,708647,247344,1397950,73262,9195,698561,0
13,2,709141,248266,1466806,73702,9534,732962,0
13,2,708774,248423,1372323,73708,8810,685717,0
13,2,722903,251201,1404761,74839,7986,701376,0
13,2,729395,252707,1539806,76555,10591,769271,0
13,-1,638637,218828,1241935,65783,7653,620485,0
13,2,710977,248157,1458687,74114,9133,728972,0
13,2,707160,247731,1381950,73962,8335,690515,0
13,2,713196,248809,1320726,74285,7936,660016,0
13,2,712977,249335,1280676,74521,8893,639633,0
13,2,712409,250247,1597387,74827,9701,798202,0
13,2,712948,248266,1509654,74109,9518,754257,0
13,2,714236,250230,1382883,74895,9380,690690,0
13,2,709205,249378,1535341,74424,10710,766521,0
13,2,720446,250628,1323332,75198,8897,660981,0
13,-1,664641,228522,1302879,68527,7523,650866,0
13,2,711568,248138,1815981,74109,11111,907493,0
13,2,711094,248532,1352536,74361,8012,675746,0
14,2,707836,247630,1337259,73392,8466,668226,0
14,2,758557,262542,1454053,80034,10267,726480,0
14,2,708833,248818,1418924,73925,9082,708987,0
14,2,705139,248315,1410775,73930,9001,704899,0
14,2,707711,248569,1412955,73901,8952,705939,0
14,2,708410,248524,1407952,73883,9139,703564,0
14,2,714352,250879,1504209,74928,9509,751278,0
14,-1,638603,219040,1264873,65715,6862,632013,0
14,2,713734,250619,1397031,74954,9047,697641,0
14,2,718954,251140,1488032,75065,10236,742975,0
14,2,711296,249640,1364188,74197,9121,681586,0
14,2,714962,249493,1480130,74119,10143,739579,0
14,2,717568,250714,1435992,74650,9476,717210,0
14,2,710793,249050,1334996,73955,8603,666938,0
14,2,730257,253306,1458575,77125,9172,728821,0
14,2,712602,247684,1299678,73340,7630,649364,0
14,2,710979,250251,1350536,74169,8671,674507,0
14,-1,637256,218251,1315970,65535,7905,657198,0
14,2,711274,248818,1404914,74651,9147,701467,0
14,2,712082,248980,1489278,74379,9114,744161,0
14,2,711006,248382,1382483,74196,9134,690748,0
14,2,710067,248507,1436002,74125,9119,717473,0
14,2,735005,253544,1578203,77795,10652,788588,0
14,2,716267,250424,1480539,75106,10598,739453,0
14,2,712037,249112,1476436,74313,10283,737235,0
14,2,714931,249413,1639284,74444,11491,819179,0
14,2,738357,253823,1434752,77768,9350,716845,0
14,-1,645736,221833,1297649,66925,7882,647938,0
14,2,708458,247344,1462679,73753,9682,730708,0
14,2,712939,249712,1396289,74917,8473,697447,0
15,2,713062,250502,1416224,74751,8893,707445,0
15,2,705285,247617,1383803,73604,9468,691067,0
15,2,706755,248414,1299765,73816,8316,649284,0
15,2,703212,248676,1344122,73983,8998,671555,0
15,2,709796,249644,1378622,74306,8493,688782,0
15,2,708270,249178,1327498,74177,8309,663307,0
15,2,730072,253604,1566808,77365,10516,782677,0
15,-1,637865,218709,1192033,65662,7266,595600,0
15,2,730384,253426,1463835,77319,9948,731281,0
15,2,735476,253893,1486154,77507,10997,742319,0
15,2,731718,254314,1380974,77432,9499,689892,0
15,2,713104,248879,1452372,73884,9499,725691,0
15,2,712581,249332,1523021,73931,9371,760999,0
15,2,707187,248680,1314360,73830,8755,656548,0
15,2,711966,247895,1321110,73482,8888,660163,0
15,2,720204,250350,1348647,74498,8341,673627,0
15,2,705237,247542,1439355,73004,8952,719169,0
15,-1,636311,218239,1272107,65598,7795,635569,0
15,2,730139,252497,1453111,77375,10035,726059,0
15,2,711626,249277,1346833,74705,8682,672802,0
15,2,711457,248915,1301512,74513,8421,650095,0
15,2,712585,249269,1422740,74359,9307,710669,0
15,2,712967,249005,1512688,74463,9333,755789,0
15,2,714999,249399,1450036,74563,10196,724450,0
15,2,714609,249152,1535957,74291,10117,767589,0
15,2,719193,251235,1537683,75300,11261,767685,0
15,2,716426,249182,1314988,74389,8657,657023,0
15,-1,661110,224218,1314019,69223,8453,656536,0
15,2,712394,248590,1262988,74283,9339,631081,0
15,2,711696,249468,1395234,75006,9494,696780,0
16,2,708930,248100,1477256,73696,9448,738167,0
16,2,704151,247774,1379196,73623,9220,689633,0
16,2,707384,248078,1464237,73689,8370,731609,0
16,2,702533,248234,1440226,73960,8537,719625,0
16,2,710979,250279,1469045,74707,9354,733691,0
16,2,707629,249037,1305180,74087,8911,652112,0
16,2,712621,249924,1468250,74353,9438,733537,0
16,-1,639627,218935,1292457,65627,7445,645708,0
16,2,708568,249047,1435074,74136,8913,717081,0
16,2,717476,250018,1404216,74451,9572,701577,0
16,2,713992,249940,1423679,74153,9417,711369,0
16,2,708375,247461,1444916,73464,9728,721924,0
16,2,713195,248489,1355855,73601,9315,677477,0
16,2,707076,248198,1448718,73687,9728,723797,0
16,2,715107,249246,1338769,74205,9033,668694,0
16,2,715573,248895,1297162,73837,7778,647950,0
16,2,712798,250778,1351619,74470,8857,674954,0
16,-1,643978,221079,1486800,66583,8889,742454,0
16,2,708662,248119,1383956,74057,9175,691580,0
16,2,709627,248335,1281453,74167,9252,640372,0
16,2,711089,247953,1409595,74079,8239,704286,0
16,2,711550,248285,1395985,74002,8482,697577,0
16,2,712986,249572,1644648,74644,10820,821823,0
16,2,713333,249192,1467158,74495,10238,733025,0
16,2,716929,250835,1472752,75162,9686,735169,0
16,2,711512,248647,1612229,74128,10967,805594,0
16,2,715435,249239,1343054,74464,8034,671095,0
16,-1,637313,219037,1304848,65731,7252,651906,0
16,2,711004,248071,1375145,74039,9348,687129,0
16,2,729527,252849,1430213,77601,9497,714583,0
17,2,707256,247827,1296117,73567,8697,647587,0
17,2,705711,247987,1488704,73691,9480,743169,0
17,2,707532,248861,1336332,73998,8848,667674,0
17,2,705659,249937,1406367,74698,8688,702407,0
17,2,707632,248696,1414939,73954,8417,706962,0
17,2,706921,249460,1384127,74251,9116,691672,0
17,2,707845,249043,1440928,74095,8760,719374,0
17,-1,639905,219149,1360412,65753,7629,679778,0
17,2,709430,249856,1409674,74497,8976,703672,0
17,2,714125,249018,1554833,74078,10641,776881,0
17,2,712133,249153,1338646,73926,8275,668877,0
17,2,716792,250755,1411534,74742,9170,704892,0
17,2,713949,248800,1420310,73704,9116,709777,0
17,2,713975,248797,1349504,73885,8900,674000,0
17,2,710935,248208,1468715,73583,8909,733964,0
17,2,711266,247741,1499703,73355,8344,749434,0
17,2,727032,252699,1449236,76549,9470,724314,0
17,-1,636615,218196,1310911,65408,8377,655061,0
17,2,713895,249003,1433716,74443,9323,716360,0
17,2,707678,248241,1229666,74193,8820,614369,0
17,2,710696,248161,1344806,74094,8206,671831,0
17,2,715921,250438,1356304,75033,8632,677403,0
17,2,712424,249803,1457875,74710,9548,728429,0
17,2,714460,249595,1492851,74552,9692,745979,0
17,2,732603,253546,1533119,77568,10993,765734,0
17,2,712682,249103,1527071,74370,11129,762753,0
17,2,717017,249836,1468860,74651,9144,733713,0
17,-1,643810,220940,1361538,66608,8464,679976,0
17,2,713775,247993,1311967,74061,7874,655611,0
17,2,709369,248200,1433826,74308,8787,716437,0
18,2,708189,248352,1308899,73767,8174,653767,0
18,2,705972,248210,1462164,73792,9740,730572,0
18,2,715408,250007,1423315,74638,9929,710697,0
18,2,715536,248331,1391454,73936,8680,695319,0
18,2,711628,250653,1422234,74906,9543,710258,0
18,2,717098,250664,1446413,74900,9362,722467,0
18,2,707823,249015,1598087,74013,9233,798650,0
18,-1,637820,218796,1185578,65641,6960,592315,0
18,2,706789,248171,1243050,73850,8661,621006,0
18,2,713162,249297,1468339,74176,9782,733419,0
18,2,710503,249284,1423678,74039,8933,711267,0
18,2,711363,248454,1353455,73795,9550,676274,0
18,2,719954,251154,1408536,74701,9722,703519,0
18,2,711537,248000,1540791,73616,10093,769794,0
18,2,717769,251208,1396564,74974,8498,697413,0
18,2,712509,247529,1493739,73447,8711,746192,0
18,2,710812,250342,1290410,74196,8481,644529,0
18,-1,639435,218900,1312373,65704,8046,655440,0
18,2,707976,247802,1312420,74054,8255,655657,0
18,2,706723,248320,1319687,74163,8971,659444,0
18,2,714758,250378,1247701,75115,8357,622977,0
18,2,730204,252584,1451406,77209,9758,725183,0
18,2,710505,248981,1413515,74377,10444,706294,0
18,2,717091,251102,1336393,75335,9231,667150,0
18,2,710867,248772,1456791,74102,10262,727964,0
18,2,714217,249922,1291319,74614,8958,645268,0
18,2,716119,249979,1319366,74894,8467,659004,0
18,-1,637886,219148,1267178,65896,7679,633067,0
18,2,713834,248389,1427614,74171,8661,713146,0
18,2,708481,248537,1352593,74395,8746,675748,0
19,2,714251,249848,1445050,74405,9113,721771,0
19,2,705789,247964,1341378,73744,8656,670190,0
19,2,734366,253452,1380953,77258,10489,689872,0
19,2,714776,248537,1340358,74042,8438,669777,0
19,2,725653,252761,1296341,77210,10183,647617,0
19,2,712925,249989,1433224,74547,8860,715859,0
19,2,707949,248791,1506379,74082,9121,752778,0
19,-1,634653,218018,1317539,65297,7594,658337,0
19,2,707040,248559,1393183,73852,9035,696103,0
19,2,715632,249926,1525040,74396,10677,761931,0
19,2,731655,254263,1435370,77411,10507,717155,0
19,2,714501,250820,1428909,74829,9529,713754,0
19,2,733126,253087,1376461,76908,10259,687815,0
19,2,711680,248368,1365967,73704,9895,682361,0
19,2,708230,247815,1310392,73490,8795,654766,0
19,2,710732,247862,1402158,73439,8061,700523,0
19,2,703622,248057,1329015,73219,9096,663988,0
19,-1,636725,218171,1274063,65389,7081,636550,0
19,2,708814,248496,1424177,74154,8826,711619,0
19,2,706714,247666,1272060,73951,8609,635447,0
19,2,711194,248269,1243036,74165,8578,621016,0
19,2,715146,249860,1327192,74752,8663,662564,0
19,2,732355,253293,1411601,77551,10824,705388,0
19,2,714383,249805,1362983,74699,9555,680965,0
19,2,712731,249753,1517599,74477,10711,758015,0
19,2,711004,249007,1473016,74283,9806,736069,0
19,2,715324,249326,1367144,74549,9078,683074,0
19,-1,635518,218648,1280556,65676,7987,639751,0
19,2,734636,253575,1485807,77621,9617,742520,0
19,2,708677,249288,1417691,74791,8142,708079,0
20,2,708333,248051,1393616,73612,8595,696349,0
20,2,711711,250730,1492960,74873,9792,745436,0
20,2,710312,248212,1380122,73717,9124,689568,0
20,2,715575,248653,1467437,74051,9149,733123,0
20,2,710553,248598,1272167,74061,8748,635466,0
20,2,710113,248559,1406345,73892,9130,702750,0
20,2,709342,249171,1517400,74154,9675,758283,0
20,-1,637463,218907,1206409,65682,7292,602706,0
20,2,708038,249592,1402250,74250,9173,700648,0
20,2,712403,248935,1446310,74040,9852,722523,0
20,2,710173,249686,1328194,74095,9149,663634,0
20,2,731495,253068,1368071,77036,9825,683541,0
20,2,711302,248703,1336278,73729,9653,667635,0
20,2,712201,249174,1454471,73984,9731,726499,0
20,2,710677,248490,1458342,73767,9189,728694,0
20,2,715236,249124,1326765,73900,7936,662843,0
20,2,704735,248579,1274846,73414,8494,636965,0
20,-1,645437,221457,1309385,66796,8385,653665,0
20,2,709343,248559,1462109,74270,9132,730580,0
20,2,706908,247669,1249367,73972,8700,624266,0
20,2,710815,248053,1338523,74037,8437,668761,0
20,2,707498,247967,1290335,73946,8890,644686,0
20,2,711292,248934,1327739,74441,9465,663369,0
20,2,711422,249022,1277170,74337,9320,638094,0
20,2,715647,250505,1380499,74899,10147,689514,0
20,2,715241,251072,1472934,75277,10078,735637,0
20,2,713942,249152,1295029,74428,8630,647128,0
20,-1,636127,218917,1216878,65828,7801,607920,0
20,2,708453,247848,1394326,73941,8547,696648,0
20,2,710894,248084,1412701,74217,9249,705914,0
21,2,711467,250285,1437932,74645,8828,718144,0
21,2,725331,252572,1440860,76993,10423,719436,0
21,2,713018,249260,1346835,74029,8665,672840,0
21,2,713436,248612,1335065,74071,9186,666951,0
21,2,712283,249734,1337983,74531,8877,668303,0
21,2,712169,249841,1413486,74386,9079,706286,0
21,2,705549,248834,1407307,74063,8824,702683,0
21,-1,637742,219322,1277879,66029,7339,638159,0
21,2,711371,248501,1455694,73922,9233,726637,0
21,2,713966,249969,1883199,74350,11150,941154,0
21,2,716689,249737,1340896,74176,9285,669803,0
21,2,710513,248480,1535852,73800,9489,767384,0
21,2,712078,248960,1379895,73790,9247,689389,0
21,2,709911,248687,1423754,73783,9778,711373,0
21,2,713959,249491,1457919,74040,8336,728442,0
21,2,719677,251316,1312094,74872,8243,655157,0
21,2,728150,252597,1351479,76516,9260,675393,0
21,-1,637664,218932,1202812,65704,6699,600884,0
21,2,707378,247772,1329413,73957,8807,664291,0
21,2,707964,248164,1389088,74119,8564,694124,0
21,2,710623,248683,1410779,74292,8834,704849,0
21,2,708262,248237,1357845,74016,9874,678548,0
21,2,711643,249679,1526726,74853,10190,762975,0
21,2,712268,249856,1363348,74733,10029,681113,0
21,2,712489,249708,1434063,74458,10672,716472,0
21,2,711898,250117,1392085,74631,9673,695595,0
21,2,714205,249564,1351991,74612,8988,675610,0
21,-1,641695,221690,1300180,66937,7911,649224,0
21,2,715476,249488,1444280,74742,9092,721398,0
21,2,731166,252966,1408355,77634,10003,703731,0
22,2,731581,253247,1432063,77134,9751,715534,0
22,2,711578,248905,1415617,74039,9486,707240,0
22,2,711177,248974,1323834,73832,8900,661390,0
22,2,711130,247928,1416483,73807,9129,707679,0
22,2,708667,248122,1308090,73922,8620,653463,0
22,2,728147,253040,1340551,77184,9132,669695,0
22,-1,640604,218752,1342553,65526,9083,670713,0
22,2,711894,249992,1467604,74645,9819,732949,0
22,2,712669,248793,1489982,73986,9830,743690,0
22,2,712156,249614,1640010,74144,11784,819598,0
22,2,716599,249877,1353367,74209,9759,676276,0
22,2,736169,257563,1472125,76470,9406,735637,0
22,2,711813,248150,1326978,73425,9663,663086,0
22,2,710717,248009,1404934,73557,9464,702051,0
22,2,709638,248116,1554345,73595,9121,776726,0
22,2,709992,247979,1396638,73497,8261,697797,0
22,2,705693,247973,1308154,73188,8434,653584,0
22,-1,636480,218608,1183821,65642,7296,591265,0
22,2,710065,249157,1382872,74416,9313,690943,0
22,2,728541,253392,1436529,77619,9315,717716,0
22,2,710238,248567,1351758,74196,8919,675447,0
22,2,716273,249529,1251724,74675,8851,625274,0
22,2,709932,249537,1532426,74611,10069,765563,0
22,2,716812,250925,1358810,75319,11063,678488,0
22,2,734358,254658,1421460,77888,10361,709349,0
22,2,714781,249393,1486060,74460,10326,742130,0
22,2,714005,249008,1296525,74398,9218,647847,0
22,-1,661141,223541,1244883,69028,7917,621989,0
22,2,710658,248847,1444334,74284,8854,721759,0
22,2,710222,248432,1287120,74379,8447,643043,0
23,2,704925,247884,1396400,73582,9176,697586,0
23,2,706061,247261,1390556,73407,9338,694554,0
23,2,732374,253691,1344327,77257,10359,671540,0
23,2,711891,248293,1402310,73988,9309,700570,0
23,2,712643,250170,1407698,74815,9038,702969,0
23,2,711481,249394,1368069,74210,8890,683238,0
23,-1,645075,220884,1263169,66572,8936,630547,0
23,2,706587,248879,1571026,74012,9660,784276,0
23,2,713031,249258,1335011,74162,8191,667072,0
23,2,717822,249767,1653302,74217,11658,825907,0
23,2,717631,251149,1424163,74968,10244,710870,0
23,2,708425,248332,1306701,73719,8618,652950,0
23,2,712496,248706,1262742,73712,9541,630857,0
23,2,717740,251152,1367645,74902,9295,683012,0
23,2,709277,247951,1406152,73599,8499,702660,0
23,2,710919,248220,1422007,73596,8238,710514,0
23,-1,636186,217991,1131829,65461,7242,565378,0
23,2,705258,248153,1357986,73319,8907,678514,0
23,2,709162,248431,1393396,74200,9191,696074,0
23,2,706799,249053,1426500,74429,9325,712741,0
23,2,707974,247534,1388419,73872,8538,693786,0
23,2,711794,248211,1251930,74047,8407,625498,0
23,2,711005,248789,1492568,74173,9475,745496,0
23,2,733148,253931,1418141,77831,11542,708534,0
23,2,719744,250032,1323642,74585,9122,661300,0
23,2,711342,249099,1504526,74395,10307,751625,0
23,-1,643225,218871,1294469,65641,8079,646711,0
23,2,713741,249472,1254082,74533,9105,626541,0
23,2,716365,250955,1328386,75250,9414,663120,0
23,2,707618,247772,1446062,74119,8869,722613,0
24,2,709117,248071,1292173,73580,8817,645679,0
24,2,708543,247636,1408129,73455,9770,703069,0
24,2,710357,249306,1325902,74079,9166,662495,0
24,2,712624,248584,1321635,74036,9427,660174,0
24,2,728826,252854,1413189,77270,8843,706130,0
24,2,708305,248565,1322374,73939,9289,660809,0
24,-1,637695,218422,1296622,65562,8185,647884,0
24,2,704965,248257,1390670,73807,8621,694848,0
24,2,712740,249414,1460796,74201,8893,730047,0
24,2,737402,254378,1451192,77553,10348,725078,0
24,2,734906,253667,1339979,77273,11026,669084,0
24,2,708826,248550,1444491,73803,8463,721782,0
24,2,718315,251363,1337484,74827,9996,667924,0
24,2,708903,248064,1373321,73530,9417,686112,0
24,2,710324,248638,1447224,73755,8907,723110,0
24,2,717621,249555,1326426,74238,8869,662566,0
24,-1,637792,218537,1177479,65679,7549,588254,0
24,2,703229,248436,1425755,73438,8869,712415,0
24,2,710997,248015,1393976,74047,9402,696572,0
24,2,710305,248614,1387036,74322,9737,692940,0
24,2,713273,250038,1304765,74999,8079,651626,0
24,2,710223,248001,1412543,74089,8192,705751,0
24,2,706405,248607,1382770,74389,8813,690774,0
24,2,717479,250614,1375056,75162,9937,686512,0
24,2,718349,250122,1357404,74601,9999,678100,0
24,2,712258,249788,1312537,74616,9142,655639,0
24,-1,648188,221201,1273278,66614,8317,635812,0
24,2,711681,248732,1314648,74300,8746,656892,0
24,2,731349,253633,1381840,77536,9982,690518,0
24,2,708681,248249,1354895,74331,8924,677005,0
25,2,712240,248595,1495558,73833,10829,747156,0
25,2,729394,252868,1410976,77039,10221,705104,0
25,2,713475,248778,1337863,73836,9141,668502,0
25,2,717153,251089,1333302,75219,9786,665621,0
25,2,710805,248924,1283913,74153,8754,641409,0
25,2,713642,250858,1300865,74938,9018,649693,0
25,-1,641717,219379,1192495,65940,7280,595787,0
25,2,709240,248879,1316538,73999,8796,657728,0
25,2,709971,248830,1375160,74008,8150,686925,0
25,2,714182,249157,1353110,74112,8573,676113,0
25,2,716494,250200,1354552,74397,10346,676797,0
25,2,708868,248902,1339154,73905,8093,669176,0
25,2,712552,249152,1329472,73966,10148,664240,0
25,2,710151,248678,1447913,73818,9433,723467,0
25,2,712508,250160,1329375,74601,8294,664000,0
25,2,712881,247824,1404155,73520,8739,701569,0
25,-1,638969,219734,1192784,66229,7177,595674,0
25,2,707143,248731,1445932,73507,9678,722470,0
25,2,711141,248714,1391660,74269,9291,695431,0
25,2,709984,248926,1308902,74531,9125,653715,0
25,2,735511,257493,1391423,76905,9083,695288,0
25,2,714791,248823,1408513,74371,9024,703879,0
25,2,709298,248438,1485887,74315,9995,742215,0
25,2,714173,248686,1647370,74278,10395,822972,0
25,2,739076,254985,1382118,77971,10824,690414,0
25,2,709983,248814,1325110,74247,9296,662057,0
25,-1,643846,219759,1197785,66001,7837,598316,0
25,2,711806,249028,1293524,74424,9165,646289,0
25,2,716784,248847,1291997,74248,9066,645551,0
25,2,706557,247821,1242815,74121,8588,620964,0
26,2,731136,252860,1354710,76939,10542,676761,0
26,2,705017,247803,1300736,73560,8828,649779,0
26,2,713503,249818,1344771,74348,9796,671606,0
26,2,731194,253279,1282383,77375,9889,640703,0
26,2,707140,248092,1371633,73813,8028,685439,0
26,2,729159,253530,1257916,77340,8944,628469,0
26,-1,642107,220011,1288190,66349,7597,643435,0
26,2,710388,249589,1329644,74283,9354,664037,0
26,2,712235,249829,1460374,74509,8777,729642,0
26,2,721780,251493,1518369,75078,9512,758318,0
26,2,712163,248964,1348554,74027,10615,673668,0
26,2,710357,249807,1345826,74433,9232,672315,0
26,2,711860,248981,1414651,73920,9539,706768,0
26,2,712511,249292,1402718,74247,9095,700665,0
26,2,710544,248705,1469810,73836,8836,734422,0
26,2,735088,253223,1434919,77115,9233,717057,0
26,-1,639302,218991,1156077,65880,7691,577452,0
26,2,710267,250435,1466955,74161,9984,732281,0
26,2,730321,252762,1455748,77453,10132,727341,0
26,2,708374,248085,1424017,74139,9383,711427,0
26,2,716510,249334,1403108,74555,9268,700804,0
26,2,715103,249193,1331636,74696,8738,665053,0
26,2,707446,247875,1459298,74082,9219,729242,0
26,2,716374,249820,1520791,74686,9540,760441,0
26,2,721134,251296,1486471,75191,10570,742516,0
26,2,712053,250050,1305243,74822,9705,651782,0
26,-1,663215,223653,1203223,69001,8536,601029,0
26,2,718461,251322,1324240,75355,8928,661365,0
26,2,717099,248604,1491279,74112,11562,745195,0
26,2,708098,248226,1346165,74266,9038,672589,0
27,2,709335,248275,1322660,73790,9469,660841,0
27,2,708133,247820,1462148,73547,8780,730548,0
27,2,711565,249032,1435343,73927,8875,717199,0
27,2,713090,248267,1314757,73919,8915,656897,0
27,2,726123,252684,1347171,77195,9371,673065,0
27,2,708367,248463,1398762,73877,8308,698839,0
27,-1,639853,218942,1182988,65808,7147,591036,0
27,2,710824,250003,1367332,74582,9514,682782,0
27,2,708724,248611,1404443,73901,8988,701794,0
27,2,715001,249359,1456800,74267,9385,727681,0
27,2,734802,253932,1512817,77383,10272,755895,0
27,2,714000,249195,1368218,73985,8869,683661,0
27,2,711060,248737,1439812,73833,9516,719379,0
27,2,708737,248229,1349252,73685,9594,674036,0
27,2,706992,247802,1349694,73466,8479,674288,0
27,2,713637,249231,1420458,74029,8537,709748,0
27,-1,638270,219018,1234297,65810,6925,616570,0
27,2,705343,248382,1544082,73406,9853,771567,0
27,2,710261,248051,1379708,74076,8479,689449,0
27,2,708532,249377,1391696,74541,8883,695365,0
27,2,710904,247947,1378097,74061,9027,688638,0
27,2,710451,248127,1380379,74058,8340,689824,0
27,2,709498,248958,1531146,74412,9752,764897,0
27,2,716415,250408,1369876,75154,9533,684074,0
27,2,714745,249211,1494234,74265,9842,746539,0
27,2,715485,250993,1295568,75327,9688,646915,0
27,-1,641379,219434,1154596,65919,6986,576836,0
27,2,720138,249886,1406121,74710,8929,702557,0
27,2,719519,250509,1320568,75045,9508,659630,0
27,2,706245,247735,1295840,74103,8385,647484,0
28,2,706106,247723,1388230,73603,8779,693559,0
28,2,712191,250481,1410581,74656,8832,704365,0
28,2,708996,248629,1460062,73768,8649,729504,0
28,2,715498,249470,1296593,74378,9448,647658,0
28,2,707599,248564,1414201,74029,8942,706626,0
28,2,713998,251120,1406279,75111,8767,702384,0
28,-1,636415,218279,1261173,65642,7818,630036,0
28,2,709045,249584,1324582,74270,8773,661526,0
28,2,704992,246987,1310618,73362,8455,654933,0
28,2,714786,249610,1464680,74262,9584,731867,0
28,2,713799,250099,1494018,74327,9170,746451,0
28,2,709982,248648,1419656,73809,9010,709390,0
28,2,708981,248262,1416788,73639,10023,708088,0
28,2,706723,247841,1455795,73452,9682,727242,0
28,2,711156,248688,1332183,73758,9062,665587,0
28,2,712920,247978,1299227,73590,9015,649071,0
28,-1,655267,223105,1273295,68979,7055,636138,0
28,2,703828,248036,1401997,73216,9521,700203,0
28,2,711692,249657,1304857,74839,8108,651783,0
28,2,708357,249329,1317938,74726,8944,658285,0
28,2,710646,248008,1432507,74062,9282,715889,0
28,2,715117,249899,1333292,74900,9433,665801,0
28,2,712912,249971,1312950,74988,9402,655686,0
28,2,734494,253790,1498470,77801,10691,748799,0
28,2,716481,251117,1534549,75208,10309,765684,0
28,2,730189,253402,1419194,77582,10622,709113,0
28,-1,639955,219217,1251346,65887,7410,625101,0
28,2,717935,249371,1418273,74503,9286,708642,0
28,2,712607,248879,1338970,74206,8678,669003,0
28,2,707347,248495,1296120,74399,9033,647546,0
29,2,708368,248834,1354913,73988,8920,676881,0
29,2,704599,247567,1275662,73595,8081,637225,0
29,2,711545,249476,1457239,74015,9126,728178,0
29,2,711442,248371,1313076,73996,8960,656019,0
29,2,708126,249206,1324673,74238,8083,661964,0
29,2,728473,252675,1351653,77025,9341,675282,0
29,-1,639039,219520,1285926,66205,7440,642271,0
29,2,727561,253080,1600790,77166,10197,799900,0
29,2,715950,251258,1426830,75154,8998,712482,0
29,2,712844,249362,1450962,74110,9628,725018,0
29,2,712386,249177,1422433,73982,10078,710694,0
29,2,714078,250223,1415697,74655,9505,707027,0
29,2,709153,248880,1313076,73918,9465,656061,0
29,2,735420,253406,1449478,77160,10787,724221,0
29,2,708662,248549,1277086,73834,8323,638070,0
29,2,712156,248470,1310755,73691,8676,654898,0
29,-1,636587,218266,1210604,65543,7019,604620,0
29,2,702976,248023,1482643,73324,9284,741386,0
29,2,708112,248636,1297213,74248,8955,647929,0
29,2,706185,248205,1493730,74111,9995,746363,0
29,2,731937,252757,1487548,77396,9818,743294,0
29,2,709441,247993,1501787,73894,8796,750437,0
29,2,707392,248652,1287011,74175,9307,643030,0
29,2,714272,249290,1462312,74499,9750,730711,0
29,2,715974,250673,1682148,74949,10236,840456,0
29,-1,642872,219224,1217980,65937,7436,608348,0
29,2,706176,247109,1458677,73727,9976,728932,0
29,2,716991,249504,1320411,74594,9070,659754,0
29,2,718450,249867,1595713,74560,9860,797083,0
29,2,705129,247447,1247151,74021,9185,623092,0
30,2,715268,250396,1426024,74867,9278,711638,0
30,2,706699,248663,1340300,73985,8930,669456,0
30,2,707559,248468,1320844,73818,8354,659879,0
30,2,732751,253308,1358445,77433,10244,678618,0
30,2,709129,249625,1442513,74514,9207,720622,0
30,2,708381,248604,1367244,73969,8539,683102,0
30,-1,636606,218142,1176261,65507,6719,587597,0
30,2,710313,249807,1481233,74540,9864,739973,0
30,2,708656,248433,1333881,73861,7897,666563,0
30,2,712369,249808,1403001,74204,9271,700931,0
30,2,713918,250270,1401480,74387,9885,700171,0
30,2,709395,248600,1301215,73892,8497,650147,0
30,2,720032,250815,1431644,74828,9752,714746,0
30,2,711682,248466,1479719,73752,9898,739318,0
30,2,706865,248308,1408006,73657,9047,703554,0
30,2,716869,250271,1332024,74637,8437,665099,0
30,-1,638122,219250,1192535,65906,7099,595756,0
30,2,703506,247951,1495810,73179,9514,747399,0
30,2,709500,248672,1264454,74266,8055,631782,0
30,2,706645,248080,1405028,74108,9799,701947,0
30,2,710880,248214,1356638,74169,8863,677787,0
30,2,713073,249765,1339477,74737,8969,669089,0
30,2,710508,249231,1419448,74347,9684,709298,0
30,2,713808,249696,1412880,74664,9513,705731,0
30,2,714302,250304,1569466,74641,10356,784267,0
30,-1,647181,220964,1298063,66683,7351,648389,0
30,2,708872,248995,1469535,74362,9821,734164,0
30,2,713741,248893,1381985,74388,8321,690519,0
30,2,713997,248574,1363149,74098,9027,681121,0
30,2,709311,249734,1371021,75094,9461,684766,0
31,2,729663,252460,1507770,77018,9587,753434,0
31,2,714653,250305,1349617,74772,9488,674022,0
31,2,712543,248719,1313719,73854,8725,656369,0
31,2,710249,248106,1387507,73870,9451,693260,0
31,2,706806,248654,1411308,74066,9226,705140,0
31,-1,638725,219524,1223054,65884,6790,611149,0
31,2,710871,249581,1359861,74229,7702,679502,0
31,2,706766,248764,1389074,74036,9235,694352,0
31,2,709954,248766,1360510,74034,8369,679776,0
31,2,710483,249482,1398503,74080,9332,698777,0
31,2,710998,249248,1463491,74026,9681,731179,0
31,2,708959,248520,1421483,73909,8741,710269,0
31,2,711583,248140,1340250,73594,9311,669658,0
31,2,709152,247884,1320376,73532,9281,659684,0
31,2,714195,249994,1344509,74532,9010,671443,0
31,2,713801,249761,1325524,74388,8078,662033,0
31,-1,639690,219874,1277564,66311,7900,637922,0
31,2,703296,248410,1419116,73225,9398,708903,0
31,2,707601,248376,1353329,74254,8723,676100,0
31,2,705381,248470,1371528,74231,9718,685184,0
31,2,711751,248815,1402450,74376,9449,700652,0
31,2,708477,248453,1405366,74125,9750,702089,0
31,2,708676,248408,1398782,74133,9017,698852,0
31,2,712284,249226,1460443,74444,9480,729712,0
31,2,714247,249241,1406394,74269,9898,702531,0
31,-1,641975,219345,1197122,65952,6725,598069,0
31,2,712710,248577,1369493,74178,8640,684228,0
31,2,713114,248941,1374211,74422,8845,686616,0
31,2,714876,248788,1436956,74209,9735,718021,0
31,2,728915,253019,1550177,77634,10591,774552,0
32,2,707120,247679,1387265,73638,8452,693057,0
32,2,729686,252526,1314350,77061,9448,656698,0
32,2,711222,248537,1316006,73739,8781,657568,0
32,2,710005,247793,1437207,73872,9366,718123,0
32,2,714193,250860,1482036,75124,9038,740068,0
32,-1,641791,220693,1277488,66650,7398,638043,0
32,2,708837,249168,1293176,74138,8424,646178,0
32,2,708033,249667,1400448,74248,9303,699758,0
32,2,708064,249085,1270367,74141,7645,634681,0
32,2,717049,251132,1539501,75030,9972,768909,0
32,2,711080,249621,1464236,74139,9910,731743,0
32,2,711403,250522,1401690,74739,8862,699903,0
32,2,719389,251076,1448998,74760,9535,723775,0
32,2,708810,248281,1440829,73646,9096,719409,0
32,2,732582,253465,1530524,77188,9484,764819,0
32,2,714044,248775,1397467,73822,8582,698296,0
32,-1,638963,219444,1233136,65941,6860,616098,0
32,2,703391,248766,1452847,73389,9814,726394,0
32,2,710456,249769,1258791,74723,8763,628855,0
32,2,704884,248255,1409972,74129,9591,704629,0
32,2,706831,247710,1294548,73962,8638,646859,0
32,2,712959,248737,1418865,74125,8771,708963,0
32,2,707452,248329,1438799,74059,9852,719019,0
32,2,716399,249960,1501100,74734,10691,750011,0
32,2,714335,248977,1410335,74126,9841,704745,0
32,-1,641469,219099,1216112,65846,7351,607631,0
32,2,738100,253378,1521586,77584,10539,760168,0
32,2,714974,249499,1301170,74537,8687,650144,0
32,2,720459,251630,1449214,75401,9937,723827,0
32,2,703524,247919,1378427,74168,8711,688641,0
33,2,709113,248868,1297164,74003,7942,648089,0
33,2,709052,248394,1253565,73945,8865,626210,0
33,2,731565,253872,1419071,77355,9606,709005,0
33,2,710801,248968,1297426,74177,8976,648170,0
33,2,708253,249033,1388655,74144,8602,693873,0
33,-1,640351,218627,1335071,65678,7408,667153,0
33,2,710669,249902,1395217,74570,8345,696928,0
33,2,705909,248814,1350418,73982,9130,674230,0
33,2,710719,248881,1346247,73952,8628,672546,0
33,2,734103,253901,1392056,77471,10485,695352,0
33,2,716973,251512,1471649,75082,9989,734791,0
33,2,706817,247993,1299431,73745,8822,649288,0
33,2,713132,249140,1468474,73950,8918,733720,0
33,2,709502,248078,1425995,73607,9845,712470,0
33,2,708626,248329,1500180,73654,8638,749504,0
33,2,714385,249042,1460718,73931,9444,729856,0
33,-1,640732,220799,1344720,66592,7866,671292,0
33,2,708070,247930,1439302,73037,9654,718888,0
33,2,725412,252548,1372209,77324,9934,685761,0
33,2,709231,248534,1303835,74300,8334,651448,0
33,2,707941,247934,1382930,74045,9218,690996,0
33,2,710144,247800,1404455,73853,9225,701769,0
33,2,707188,248804,1397857,74252,8839,698440,0
33,2,714756,249290,1478603,74494,9821,738809,0
33,2,711747,248858,1421645,74220,9434,710354,0
33,-1,640139,218951,1317781,65799,7983,658340,0
33,2,715813,249193,1426372,74404,9210,712653,0
33,2,717026,249447,1395972,74522,9003,697611,0
33,2,733731,252787,1441405,77260,9981,720256,0
33,2,707838,248459,1408007,74397,8800,703582,0
34,2,706646,247956,1376353,73719,8588,687780,0
34,2,706035,247809,1240738,73715,7965,619845,0
34,2,710720,248877,1440972,73969,8652,720011,0
34,2,709215,248586,1329238,74075,9280,664137,0
34,2,704220,248064,1273106,73918,8335,636064,0
34,-1,674634,231674,1220553,68984,6930,609820,0
34,2,703699,247504,1332502,73630,8319,665743,0
34,2,709675,250473,1502243,74845,9622,749923,0
34,2,707406,248229,1323170,73851,8188,661133,0
34,2,710673,248748,1438928,74006,9644,718979,0
34,2,713307,249304,1474638,74075,9481,736894,0
34,2,710472,249463,1430062,74177,9068,714597,0
34,2,710866,248240,1413895,73639,9109,706546,0
34,2,731413,253569,1417982,77173,10182,708472,0
34,2,710075,249230,1355750,74206,8781,677203,0
34,2,714112,249172,1337669,74125,8841,668084,0
34,-1,635759,218927,1266424,65725,6786,632816,0
34,2,709974,248644,1506488,73282,9042,752781,0
34,2,711736,248420,1329074,74200,8393,664174,0
34,2,733260,252527,1475609,77311,10338,737202,0
34,2,732716,252796,1344836,77388,9292,671896,0
34,2,713818,249401,1316388,74620,7994,656899,0
34,2,705199,247815,1390729,73847,8464,694930,0
34,2,717794,251044,1496543,75368,10242,747335,0
34,2,715948,249893,1405145,74574,9004,702086,0
34,-1,648410,222115,1401618,67261,8277,699877,0
34,2,718215,249605,1526627,74524,10012,762714,0
34,2,735053,253462,1497946,77614,9707,748517,0
34,2,712406,248596,1321608,74160,8905,660393,0
34,2,705704,247710,1302069,74119,8193,650742,0
35,2,707253,248237,1415083,73813,8523,707072,0
35,2,707527,248235,1237967,73756,8125,618577,0
35,2,710330,249385,1449469,74266,9006,723986,0
35,2,715406,248833,1399741,74099,8696,699348,0
35,2,738340,259088,1452290,77362,9261,725534,0
35,-1,684884,235306,1324104,70106,7153,661601,0
35,2,710778,249072,1478455,74054,8868,738804,0
35,2,716107,249588,1403617,74286,9682,700984,0
35,2,729749,253730,1317559,77434,8981,658283,0
35,2,707917,248854,1333838,74045,8727,666380,0
35,2,716977,251289,1425588,74898,9599,712114,0
35,2,707256,248721,1294475,73980,8890,646756,0
35,2,737948,257343,1354099,76340,9264,676616,0
35,2,707424,248317,1456827,73647,9311,727559,0
35,2,708761,248722,1337923,73861,8672,668402,0
35,-1,640143,219122,1233324,65772,7212,616097,0
35,2,714761,248668,1402200,73845,9102,700596,0
35,2,714105,250981,1399604,74355,9082,698946,0
35,2,735764,256861,1434015,76721,9168,716472,0
35,2,713488,248201,1341872,74198,9610,670256,0
35,2,709956,247999,1265431,74074,8124,632225,0
35,2,711539,248852,1536244,74223,9391,767599,0
35,2,705658,248183,1374813,74048,9531,686980,0
35,2,712257,249217,1441599,74504,9920,719972,0
35,2,713209,249224,1411151,74317,8803,704464,0
35,-1,644224,220035,1204745,66162,6976,601853,0
35,2,714917,249255,1462632,74447,9714,730581,0
35,2,712653,249310,1356633,74551,8490,677805,0
35,2,714535,248423,1360813,74054,8759,680055,0
35,2,731187,253732,1511802,77879,9878,755462,0
36,2,725648,252247,1388468,76909,9032,693730,0
36,2,711872,250597,1466362,74827,8463,732329,0
36,2,708614,248591,1399505,73874,9698,699331,0
36,2,717526,250696,1473798,75042,8633,735971,0
36,2,707265,248588,1321831,74050,8607,660471,0
36,-1,689271,236323,1246545,70375,6915,622834,0
36,2,711746,250597,1435872,74906,9144,717185,0
36,2,712316,248530,1415495,73893,9877,707230,0
36,2,709038,249607,1322175,74285,8665,660618,0
36,2,712586,249501,1328959,74146,8745,663973,0
36,2,711833,249970,1326907,74320,8821,662841,0
36,2,705478,248031,1437370,73703,8975,718237,0
36,2,711197,248714,1322397,73903,9045,660748,0
36,2,708753,248806,1351057,73807,9182,675061,0
36,2,728600,253278,1411781,77132,9707,705371,0
36,-1,639060,219008,1188866,65727,6930,593960,0
36,2,739301,257475,1500342,76369,8972,749675,0
36,2,708072,248303,1461520,73209,9419,730557,0
36,2,714535,249909,1330780,74932,8416,664569,0
36,2,713057,248190,1258472,74052,9028,628787,0
36,2,710625,248497,1305003,74227,8273,651972,0
36,2,708210,248003,1389218,73989,8755,694117,0
36,2,708439,249674,1341155,74708,8893,669618,0
36,2,717957,251101,1487701,75287,10220,742867,0
36,2,712090,249387,1578714,74439,9792,788878,0
36,-1,649153,221850,1349263,67105,7056,673749,0
36,2,734242,253517,1466365,77570,10597,732394,0
36,2,712644,249161,1364309,74438,8457,681739,0
36,2,712301,248213,1333451,74043,8371,666277,0
36,2,704790,247741,1479551,74101,8880,739398,0
37,2,712148,249277,1517672,74192,10176,758294,0
37,2,706251,247560,1390994,73563,8893,695062,0
37,2,709078,248294,1329002,73710,8671,664018,0
37,2,711508,248338,1425361,73995,9375,712188,0
37,2,707747,249834,1412168,74717,8880,705308,0
37,-1,695048,238633,1329064,71419,7525,663741,0
37,2,707143,248790,1367551,74017,8416,683318,0
37,2,719549,251129,1514216,75083,11080,755551,0
37,2,715495,250172,1330353,74646,9586,664526,0
37,2,709991,248929,1399798,73871,9528,699446,0
37,2,712690,249625,1328236,74182,8980,663630,0
37,2,710975,250549,1459653,74839,9181,729055,0
37,2,710816,248468,1495785,73771,9259,747464,0
37,2,711980,248833,1457770,73871,10146,728306,0
37,2,713839,248144,1523371,73646,9544,761127,0
37,-1,659272,223467,1322273,69032,8724,660667,0
37,2,711487,247842,1553372,73522,9105,776121,0
37,2,707883,248800,1463346,73420,8747,731217,0
37,2,710436,248586,1480831,74324,8928,739921,0
37,2,712854,248875,1327374,74421,9565,663293,0
37,2,712260,249485,1272274,74740,8461,635444,0
37,2,708905,248232,1415035,73985,9600,707090,0
37,2,703744,248057,1305755,73960,8542,652408,0
37,2,713646,249791,1499375,74708,9843,749070,0
37,-1,662369,223767,1356412,69218,7366,677689,0
37,2,720658,252057,1339682,75651,9385,668924,0
37,2,715167,248572,1435702,74184,9532,717445,0
37,2,735456,253692,1470507,77748,9750,734700,0
37,2,712184,248458,1389591,74129,9067,694315,0
37,2,704632,247650,1411334,74085,8875,705192,0
38,2,712060,250108,1452975,74322,8771,725876,0
38,2,706824,248436,1347058,73917,8535,673103,0
38,2,708580,248566,1350497,73805,8537,674618,0
38,2,711226,248549,1409982,73996,8974,704577,0
38,-1,712792,241824,1364225,73968,8635,681584,0
38,2,708065,248952,1396636,74153,8559,697814,0
38,2,709002,249751,1390225,74280,8350,694710,0
38,2,712467,249116,1475399,74138,9961,737229,0
38,2,711376,248899,1318547,73997,9121,658879,0
38,2,710896,249339,1592608,74053,10032,795705,0
38,2,711401,249201,1329855,74013,9332,664497,0
38,2,714003,248865,1335201,73990,9383,667081,0
38,2,711304,248875,1428051,73964,9176,713531,0
38,2,714260,250215,1408418,74520,9460,703480,0
38,2,716778,249667,1374579,74293,9119,686672,0
38,-1,637568,218752,1264262,65805,7026,631595,0
38,2,716986,250680,1437424,74798,8317,717894,0
38,2,702960,247065,1298520,72901,8792,648731,0
38,2,708258,247936,1396990,74046,8044,698069,0
38,2,717509,249525,1267759,74807,9421,633324,0
38,2,707644,248170,1326157,74086,8640,662631,0
38,2,716902,250342,1340483,74964,8998,669537,0
38,2,706695,249719,1387947,74554,8083,693377,0
38,2,711518,249108,1405916,74477,9570,702425,0
38,-1,640295,219155,1304308,65946,6634,651569,0
38,2,762310,263256,1539172,80473,10800,769135,0
38,2,718192,250155,1365054,74921,9319,681759,0
38,2,715313,249087,1419273,74408,8912,709238,0
38,2,711773,248335,1311101,74028,8740,655176,0
38,2,702572,247795,1398710,74241,8856,698851,0
39,2,726574,254929,1417048,75315,9318,707968,0
39,2,705136,247965,1299989,73674,7752,649537,0
39,2,705348,248294,1449429,73812,9092,724191,0
39,2,710507,247824,1314159,73773,8726,656644,0
39,-1,692523,238468,1355700,71303,7397,677100,0
39,2,706487,248994,1304464,74330,8712,651375,0
39,2,707299,249433,1403356,74218,8404,701271,0
39,2,714528,249448,1476573,74180,10206,737762,0
39,2,709562,248565,1370496,73912,9099,684851,0
39,2,712537,250094,1421964,74511,9320,710192,0
39,2,711162,249053,1503293,73980,9369,750991,0
39,2,710421,248374,1309938,73898,8924,654449,0
39,2,713139,248886,1335944,74039,8861,667420,0
39,2,708937,248108,1558402,73591,9648,778771,0
39,2,714200,248491,1358818,73766,9004,678923,0
39,-1,637432,219107,1235654,65897,7470,617340,0
39,2,733932,253970,1482138,77368,9028,740683,0
39,2,709866,249048,1441903,73434,8446,720550,0
39,2,709092,248389,1377533,74216,9042,688235,0
39,2,710940,247534,1389248,73980,9419,694144,0
39,2,707386,248353,1418321,74187,9621,708682,0
39,2,710892,248851,1395099,74245,8757,697124,0
39,2,737814,253468,1433200,77560,9823,716076,0
39,2,713185,249595,1454536,74693,10334,726803,0
39,-1,640537,218916,1338014,65803,7694,668564,0
39,2,713094,249738,1479145,74546,9008,739048,0
39,2,713697,248626,1440276,74238,8866,719535,0
39,2,714649,249198,1412284,74443,8481,705680,0
39,2,713023,249020,1449061,74295,9772,723983,0
39,2,704317,247606,1329860,74078,8422,664482,0
40,2,756868,265322,1366562,78328,8811,682824,0
40,2,704956,248021,1435769,73698,8347,717290,0
40,2,704853,248007,1344804,73714,9398,671832,0
40,2,710756,248334,1324914,73974,8901,661961,0
40,-1,720294,246941,1251013,73566,7238,625023,0
40,2,705635,248673,1253471,74034,8932,626305,0
40,2,712460,250839,1538735,74948,9156,768647,0
40,2,711534,248908,1537229,73978,9738,767494,0
40,2,731325,253240,1363531,77233,9487,680994,0
40,2,709196,249076,1315732,73983,9242,657390,0
40,2,715015,250871,1441055,74520,9758,719990,0
40,2,709209,247973,1345952,73628,8384,672546,0
40,2,714772,250742,1417985,74842,9319,708242,0
40,2,713855,250555,1382475,74702,9190,690213,0
40,2,712590,248159,1418022,73608,9565,708589,0
40,-1,639429,219939,1311832,66339,7097,655109,0
40,2,711814,247878,1408726,73533,8911,703857,0
40,2,709943,249385,1381896,73775,9492,689780,0
40,2,710196,248513,1403464,74289,9089,701185,0
40,2,711112,247932,1312293,74028,9012,655557,0
40,2,708273,247962,1312692,74048,8943,655883,0
40,2,711350,249509,1322941,74616,8734,660716,0
40,2,716633,249012,1379845,74251,9402,689416,0
40,2,736293,253549,1549365,77768,10885,773755,0
40,-1,642353,219807,1226659,66136,6974,612827,0
40,2,710336,249027,1487054,74238,9649,743043,0
40,2,715122,249122,1403695,74330,8755,701319,0
40,2,713686,249193,1385331,74313,9253,692275,0
40,2,711949,248665,1447688,74120,9135,723110,0
40,2,711316,250125,1428866,75133,8861,713730,0
41,2,759584,266235,1503430,78613,9438,751283,0
41,2,723777,252019,1442390,76802,9199,720748,0
41,2,713115,248291,1345944,73756,8832,672513,0
41,2,712650,249408,1424674,74333,8344,711801,0
41,-1,694761,239125,1280527,71615,7627,639447,0
41,2,703190,248543,1332660,73988,9671,665885,0
41,2,710073,248669,1400246,73980,9009,699700,0
41,2,713615,250121,1357762,74462,9266,678312,0
41,2,709922,248528,1337685,73916,8874,668453,0
41,2,708704,248988,1422950,73825,9919,711018,0
41,2,711935,249699,1460367,74096,10102,729529,0
41,2,709457,248257,1497320,73764,9331,748158,0
41,2,733710,253233,1368073,77196,10077,683575,0
41,2,729480,253028,1437729,77024,9915,718216,0
41,-1,635392,218797,1226874,65732,6755,612886,0
41,2,712286,248248,1320142,73714,9123,659895,0
41,2,714364,249351,1351662,74255,8842,675034,0
41,2,705499,248207,1442771,73207,9141,720805,0
41,2,707706,248060,1433791,74068,9185,716466,0
41,2,712477,248727,1439955,74300,9272,719516,0
41,2,711558,249102,1411375,74357,9025,705210,0
41,2,712984,249468,1440436,74429,8924,719752,0
41,2,716714,249192,1274477,74534,9524,636610,0
41,2,714721,249779,1474735,74724,9471,736610,0
41,-1,640064,219230,1182690,65939,6946,590760,0
41,2,710495,249886,1275578,74625,9372,637303,0
41,2,719396,249898,1340163,74817,9674,669328,0
41,2,716581,251047,1325354,75240,8702,661880,0
41,2,716615,249937,1297122,74582,8811,648047,0
41,2,704887,248056,1332209,74243,8111,665804,0
42,2,761021,267274,1386557,78995,7971,692762,0
42,2,705465,248639,1398439,73815,9103,698725,0
42,2,713686,248700,1292121,73877,8883,645446,0
42,2,731751,252464,1388583,77077,10044,693691,0
42,-1,711010,242361,1284897,74138,8342,641886,0
42,2,710318,248706,1396215,74042,8839,697636,0
42,2,711677,249898,1434204,74576,9002,716425,0
42,2,711919,249951,1332112,74665,9004,665081,0
42,2,710802,248785,1398494,73889,9008,698830,0
42,2,707926,248962,1331408,73930,9438,665250,0
42,2,711655,250023,1361821,74255,9505,680356,0
42,2,716135,250018,1420758,74506,10037,709760,0
42,2,712886,249395,1361019,74123,9237,680054,0
42,2,708294,248679,1468949,73827,10039,733852,0
42,-1,638425,218765,1259743,65690,7316,629330,0
42,2,713008,248234,1508308,73625,9789,753674,0
42,2,710309,247990,1440133,73574,8758,719566,0
42,2,704538,248110,1352402,73128,9308,675533,0
42,2,714890,251293,1494800,75523,9501,746409,0
42,2,714714,250045,1318049,75036,8881,658159,0
42,2,711999,249430,1307251,74722,8465,652918,0
42,2,734502,257188,1379511,76661,9119,689199,0
42,2,714357,248334,1326261,74021,9439,662434,0
42,2,715647,250385,1385106,75139,9169,692027,0
42,-1,639355,219444,1272421,65917,7089,635588,0
42,2,718971,251460,1416047,75414,8920,707327,0
42,2,714014,248631,1371052,74189,9104,685105,0
42,2,712820,249620,1372246,74471,8776,685761,0
42,2,711685,248366,1413040,74016,9291,706128,0
42,2,702519,247540,1326994,73990,7758,662998,0
43,2,760995,266209,1308419,78591,8898,653842,0
43,2,712005,248907,1456852,74081,9426,727867,0
43,2,712149,248587,1339115,73784,9332,669063,0
43,2,711638,248550,1447322,74053,9800,723142,0
43,-1,692331,237734,1190976,70880,7246,595064,0
43,2,730554,253209,1356185,77335,9233,677588,0
43,2,707432,248718,1287036,74051,8652,643010,0
43,2,710410,248821,1330074,74077,9615,664421,0
43,2,711101,249144,1341200,74135,8644,670134,0
43,2,707837,248572,1391249,73752,9203,695169,0
43,2,709136,249287,1499620,73959,9944,749248,0
43,2,713785,248884,1273123,73910,8884,636041,0
43,2,707577,247806,1247335,73518,8394,623187,0
43,2,712245,250687,1415738,74605,9728,707095,0
43,-1,639876,219615,1237768,65969,7439,618374,0
43,2,719068,250811,1360865,74847,9416,679607,0
43,2,711922,248413,1373563,73699,8511,686332,0
43,2,727941,253055,1495551,76555,10097,747333,0
43,2,706752,247908,1310114,74033,8360,654517,0
43,2,711703,247911,1359934,74031,8700,679584,0
43,2,706650,247699,1363166,73967,8437,681121,0
43,2,710032,248828,1296733,74165,9056,647949,0
43,2,715638,249108,1322072,74309,9587,660465,0
43,2,711465,249036,1431150,74452,9838,714960,0
43,-1,639611,219569,1232285,65901,6858,615745,0
43,2,714038,249067,1432797,74472,9233,715966,0
43,2,715443,249099,1492615,74394,9965,745814,0
43,2,718585,251039,1344316,75203,8841,671467,0
43,2,714990,249389,1364953,74407,9157,681851,0
43,2,703947,248397,1434510,74374,8232,716739,0
44,2,760866,266822,1365740,78773,8928,682421,0
44,2,709878,248660,1405414,73968,8776,702208,0
44,2,713699,248778,1363437,73911,8977,681054,0
44,2,711891,248974,1372541,74139,9440,685721,0
44,-1,692053,238305,1267817,71162,8009,633169,0
44,2,707973,248376,1528950,73977,9001,763974,0
44,2,708797,248171,1397145,73715,8180,698168,0
44,2,711798,248661,1275861,74017,9064,637432,0
44,2,711185,249672,1462992,74300,8821,731007,0
44,2,720218,250931,1421322,74844,10170,709852,0
44,2,734747,255286,1419236,77762,10109,709102,0
44,2,712583,248894,1253832,73980,9071,626485,0
44,2,710364,248614,1324439,73887,9306,661507,0
44,2,707234,247941,1365669,73630,9330,682267,0
44,-1,658273,223211,1280438,69067,8138,639751,0
44,2,734465,253056,1417266,77062,10332,708169,0
44,2,733636,253804,1527048,77295,9286,763036,0
44,2,706113,247856,1415464,73013,9060,707342,0
44,2,706574,248224,1397930,74173,9655,698479,0
44,2,730808,252408,1438728,77252,9796,718877,0
44,2,713517,250183,1297497,75047,8917,647951,0
44,2,710514,249461,1257588,74650,9108,628064,0
44,2,717644,249671,1425271,74701,9348,711902,0
44,2,711827,248776,1270301,74380,9348,634592,0
44,-1,660807,223364,1254408,69086,8151,626622,0
44,2,712782,248939,1322515,74399,8487,660820,0
44,2,713939,248804,1450318,74232,9948,724766,0
44,2,712555,249410,1287689,74512,8419,643374,0
44,2,713801,249309,1422462,74379,9028,710821,0
44,2,723764,250657,1445324,75447,9241,721782,0
44,2,710676,248423,1410765,74215,8697,704909,0
45,2,759658,266815,1308147,78813,8025,653562,0
45,2,708008,248334,1325123,73825,8646,662043,0
45,2,712027,248438,1295798,73755,8789,647434,0
45,2,707962,248280,1271222,74015,8809,634924,0
45,-1,691876,237413,1433491,70767,8415,716223,0
45,2,707328,248309,1415143,73905,8867,707185,0
45,2,729654,253783,1387242,77459,9500,693184,0
45,2,714778,250133,1345645,74681,9631,672120,0
45,2,711852,248543,1346762,73899,9115,673183,0
45,2,714712,249689,1485326,74192,9822,742121,0
45,2,711732,250944,1446793,74707,10697,722257,0
45,2,714739,250154,1315130,74598,9534,656773,0
45,2,713721,250235,1344981,74596,9035,671765,0
45,2,711804,248221,1440576,73633,9509,719915,0
45,-1,636703,219069,1268464,65889,7148,633439,0
45,2,712387,248381,1337266,73695,9295,668248,0
45,2,710712,248464,1541088,73761,8702,769556,0
45,2,710427,249911,1415752,73918,9248,706504,0
45,2,705849,248012,1388389,74082,9669,693748,0
45,2,709263,248622,1328141,74260,8058,663559,0
45,2,728057,252475,1477408,77382,10221,738148,0
45,2,715181,249696,1325895,74682,9295,662352,0
45,2,713114,248869,1322883,74184,8936,660974,0
45,2,713420,249487,1345279,74677,9342,671994,0
45,-1,639910,218781,1371351,65823,7159,685299,0
45,2,716421,251173,1332134,75406,8583,665327,0
45,2,717259,250490,1343578,75115,9898,671022,0
45,2,709711,248303,1316931,74112,8683,658064,0
45,2,713413,248640,1316556,74151,9505,657872,0
45,2,736776,252319,1509624,77466,10065,754226,0
45,2,707627,248193,1290982,74166,7779,645010,0
46,2,761457,267702,1391544,79068,9375,695311,0
46,2,712694,250341,1469579,74811,9349,733859,0
46,2,710991,248502,1428830,73916,8686,713993,0
46,2,729547,252966,1360553,77300,9072,679583,0
46,-1,715863,242011,1352055,74083,9124,675468,0
46,2,710871,250010,1408518,74710,9048,703578,0
46,2,709367,249705,1363382,74318,9012,681259,0
46,2,732300,253839,1366983,77502,9853,682939,0
46,2,710052,249016,1455040,74058,8907,725874,0
46,2,711650,248587,1422366,73761,9255,710677,0
46,2,715214,250365,1544838,74322,9830,771340,0
46,2,734663,253815,1392861,77313,9688,695914,0
46,2,711612,249864,1242801,74267,8194,620804,0
46,2,710165,248243,1420445,73640,10470,709774,0
46,-1,639394,220110,1207372,66397,7472,602980,0
46,2,711229,248360,1491409,73718,10239,745246,0
46,2,708709,248587,1408827,73824,8533,703839,0
46,2,704320,247967,1622257,73072,9796,809846,0
46,2,708995,247763,1297784,73974,9447,648471,0
46,2,716240,250402,1313666,75158,9170,656011,0
46,2,707827,248848,1378284,74389,8943,688541,0
46,2,711919,248223,1440437,74005,9860,719712,0
46,2,714672,248686,1475195,74140,10060,737108,0
46,-1,638070,218799,1280016,65826,6712,639598,0
46,2,711781,248893,1334762,74434,9321,666884,0
46,2,731996,253987,1509649,77845,10277,754337,0
46,2,714384,248995,1451586,74312,10666,725219,0
46,2,718213,251826,1334673,75601,8448,666587,0
46,2,713931,248347,1276334,74056,8823,637603,0
46,2,714733,248119,1309672,74301,8147,654282,0
46,2,709018,247761,1322584,73989,8693,660869,0
47,2,758179,266570,1449604,78701,8347,724395,0
47,2,707571,248171,1444991,73766,9279,722022,0
47,2,733636,253266,1401389,77365,9904,700054,0
47,-1,695956,238140,1326878,70978,8255,662959,0
47,2,713229,249284,1408461,74255,9537,703701,0
47,2,710360,248477,1556983,73962,8972,778068,0
47,2,707461,249021,1306463,74117,8846,652764,0
47,2,708977,248271,1418202,73905,9152,708576,0
47,2,705921,247699,1566620,73585,9350,782756,0
47,2,716190,250688,1339099,74681,9380,668821,0
47,2,712976,249726,1426798,74152,10424,712781,0
47,2,711662,248870,1403426,73956,8968,701182,0
47,2,710565,248482,1323528,73721,9234,661322,0
47,2,709962,247928,1277040,73520,9251,638085,0
47,-1,633640,218674,1191342,65746,6820,595144,0
47,2,715617,250271,1496344,74549,9808,747399,0
47,2,710230,247858,1420496,73525,8727,709708,0
47,2,708291,248840,1646219,73419,9665,822480,0
47,2,704547,247462,1297971,73895,8942,648536,0
47,2,733617,253014,1463511,77533,9957,731218,0
47,2,708642,248413,1371032,74198,9429,685137,0
47,2,709285,247656,1341189,73747,9057,670135,0
47,2,717269,250329,1317053,75003,9314,657750,0
47,-1,639898,219832,1276653,66402,7133,637419,0
47,2,716393,251068,1280314,75548,9457,639209,0
47,2,710588,249194,1474014,74478,8955,736365,0
47,2,716661,250393,1433498,74971,9950,715933,0
47,2,710895,249296,1382771,74379,8319,690984,0
47,2,712876,248773,1486850,74263,9497,742329,0
47,2,713838,247230,1411331,73892,9277,705269,0
47,2,708616,248088,1301155,74108,8037,650180,0
48,2,766225,266622,1385472,78728,9198,692334,0
48,2,703993,247625,1326699,73588,8719,662792,0
48,2,711188,248493,1368668,74035,9054,683822,0
48,-1,698295,240059,1459025,71962,9166,728612,0
48,2,711021,248163,1328474,73877,8220,663965,0
48,2,707084,248857,1407543,74172,8181,703258,0
48,2,728607,253524,1384153,77353,8720,691668,0
48,2,713897,250223,1456993,74711,8990,727731,0
48,2,709707,249268,1419528,74191,9302,709205,0
48,2,714647,249385,1293221,74080,9159,646008,0
48,2,715408,250910,1314031,74496,9323,656582,0
48,2,709424,248066,1316596,73566,8569,657904,0
48,2,709666,249022,1387654,74265,9083,693133,0
48,2,708639,248243,1355109,73584,9869,676961,0
48,-1,634181,218772,1127923,65737,7418,563533,0
48,2,710430,248111,1298144,73612,8500,648534,0
48,2,711891,248567,1361063,73842,8764,679858,0
48,2,707853,249072,1461817,73433,9874,730470,0
48,2,705191,247880,1303058,74073,9414,651024,0
48,2,710689,248273,1412881,74202,8761,705982,0
48,2,713404,248343,1381754,74158,8788,690488,0
48,2,711347,248834,1532685,74278,10065,765904,0
48,2,714787,249808,1291869,74528,8803,645409,0
48,-1,636784,218271,1194848,65623,6584,596983,0
48,2,734083,254247,1470180,78019,9939,734589,0
48,2,713299,250043,1440807,74795,9264,719830,0
48,2,736754,257346,1424837,76765,9780,711994,0
48,2,711008,249131,1362116,74323,8846,680522,0
48,2,711754,248324,1415759,74029,9561,706973,0
48,2,713684,247711,1293502,74141,8498,646323,0
48,2,707957,248163,1443541,74185,8630,721353,0
49,2,768948,268234,1508302,79566,9919,753216,0
49,2,710239,250011,1518922,74752,9614,757566,0
49,2,711001,248627,1424047,73987,9185,711561,0
49,-1,714467,241749,1392418,74017,9631,695759,0
49,2,715784,249959,1480350,74691,9839,739389,0
49,2,706512,248691,1314408,74078,8555,656642,0
49,2,707173,249444,1419112,74256,8324,709090,0
49,2,711056,248950,1420397,74044,8736,709749,0
49,2,728342,253265,1492737,77319,10937,745187,0
49,2,713689,249289,1327225,73969,8867,663137,0
49,2,710556,250144,1330471,74268,9199,664784,0
49,2,710213,248369,1385771,73780,8957,692397,0
49,2,706710,248494,1282930,73882,8065,640991,0
49,2,708796,248782,1301150,73743,9485,649697,0
49,-1,658819,223185,1207068,68979,7739,603153,0
49,2,712012,248050,1427252,73579,9517,713111,0
49,2,713889,249893,1257329,74417,8401,627793,0
49,2,710225,250656,1488985,74274,10019,743548,0
49,2,727778,252245,1436767,77246,9923,717826,0
49,2,710189,248174,1421556,74090,8955,710165,0
49,2,731273,252611,1449034,77415,9695,724003,0
49,2,731559,253133,1477566,77406,10258,738329,0
49,2,710969,248182,1406325,73977,9399,702739,0
49,-1,656890,223247,1179080,69064,7965,588844,0
49,2,709970,248954,1341426,74456,8486,670060,0
49,2,717527,251024,1315160,75323,8451,656746,0
49,2,716592,249598,1463655,74504,10075,731351,0
49,2,714008,250567,1310322,75071,8534,654391,0
49,2,731788,252814,1606179,77345,10675,802225,0
49,2,718343,249884,1467865,75020,9289,733222,0
49,2,713634,249934,1534768,74940,8878,766587,0
50,2,763695,266373,1341073,78645,9077,670097,0
50,2,703881,247811,1395364,73644,8793,697139,0
50,2,711526,248952,1315911,74048,8733,657406,0
50,-1,695005,237646,1282137,70844,8596,640683,0
50,2,711342,248547,1365931,74049,8648,682558,0
50,2,715375,250915,1524606,75125,9275,761503,0
50,2,706002,248352,1471286,73824,8320,735215,0
50,2,709205,248673,1352709,73921,8070,675823,0
50,2,711213,249717,1627879,74513,10180,813176,0
50,2,713520,249970,1355631,74480,9668,676900,0
50,2,709736,249180,1414459,73864,9540,706738,0
50,2,714394,249741,1495210,74407,9029,746870,0
50,2,708227,248243,1497941,73771,9550,748526,0
50,2,737972,258117,1503628,76522,10905,751155,0
50,-1,635482,218065,1109330,65570,6658,554165,0
50,2,712116,249051,1308184,73949,9377,653639,0
50,2,708912,248223,1286540,73716,8552,642565,0
50,2,726260,252758,1468949,76382,9925,734035,0
50,2,704636,247593,1293119,73874,9453,646146,0
50,2,712834,249505,1343788,74778,9211,671260,0
50,2,707487,246895,1363744,73786,8852,681432,0
50,2,710363,248353,1332682,74042,8687,665973,0
50,-1,640553,218331,1207084,65628,7906,602977,0
50,2,718455,249620,1377360,74666,8753,687887,0
50,2,715412,249675,1506009,74752,9984,752526,0
50,2,732720,253662,1456169,77680,9642,727594,0
50,2,713158,248698,1571350,74203,9547,785060,0
50,2,719282,249452,1407090,74504,8870,703071,0
50,2,713089,249304,1435685,74405,9411,717042,0
50,2,714998,248333,1380294,74348,9767,689741,0
50,2,706418,247998,1310783,74121,8982,654952,0
51,2,762358,266189,1472390,78599,9245,735809,0
51,2,707686,248757,1360341,73974,8725,679626,0
51,2,715640,250729,1443866,74897,9312,721240,0
51,-1,693826,237260,1357224,70689,8482,678123,0
51,2,710893,248822,1390686,74143,8933,694886,0
51,2,729939,253150,1331706,77332,9092,665395,0
51,2,705893,248884,1447719,74049,8456,723384,0
51,2,712259,250317,1480371,74717,9155,739257,0
51,2,707538,248787,1450809,74034,9651,724247,0
51,2,713259,249604,1356409,74132,9748,677655,0
51,2,710548,249800,1512132,74135,10449,755596,0
51,2,713156,249505,1408209,74133,8462,703726,0
51,2,705232,248232,1463133,73770,9046,731040,0
51,-1,634521,219184,1251977,65832,6874,625502,0
51,2,715941,250610,1513415,74661,10425,755203,0
51,2,709907,248346,1367198,73674,9392,683095,0
51,2,707578,248005,1393615,73569,8305,696280,0
51,2,708259,249160,1511584,73514,9446,755288,0
51,2,708920,248966,1348143,74388,9373,673489,0
51,2,708356,248467,1433621,74274,9318,716331,0
51,2,710082,247693,1312595,73904,8517,655868,0
51,2,710372,248543,1324123,74024,8479,661644,0
51,-1,643144,219719,1160886,66113,7545,579932,0
51,2,712267,247735,1461731,73822,9347,730453,0
51,2,713475,249469,1325588,74653,8898,662383,0
51,2,714061,249750,1313796,74679,8479,656431,0
51,2,735464,253701,1680769,77673,10248,839764,0
51,2,718860,249844,1474661,74628,9310,736847,0
51,2,710914,248158,1470022,73910,9370,734408,0
51,2,711909,247263,1291831,73955,9089,645427,0
51,2,710406,247981,1421549,74046,8253,710344,0
52,2,767649,267559,1496000,79254,10307,747322,0
52,2,704166,247820,1323901,73732,8591,661346,0
52,-1,697243,239190,1352754,71493,7721,675566,0
52,2,709755,249055,1334583,74188,9040,666800,0
52,2,716872,250655,1441578,74933,9453,719933,0
52,2,707698,249320,1432434,74465,9378,715468,0
52,2,708267,248625,1315103,73989,8486,656820,0
52,2,712767,249738,1466272,74371,8969,732481,0
52,2,707667,249100,1386814,74088,9869,692831,0
52,2,710103,249017,1397082,74065,9060,698009,0
52,2,713692,251563,1564303,74985,10148,781268,0
52,2,710252,248605,1426623,73849,8545,712815,0
52,2,717784,250452,1423394,74855,9142,710889,0
52,-1,634757,218496,1268966,65615,7289,634095,0
52,2,731378,253020,1638340,76968,11243,818141,0
52,2,720398,251355,1275375,74954,9515,636903,0
52,2,710146,248280,1439998,73652,9078,719509,0
52,2,708830,249491,1391497,73818,8799,695020,0
52,2,709047,249579,1264152,74824,9013,631471,0
52,2,708529,248181,1364162,74168,9092,681525,0
52,2,709276,247879,1564133,74037,10170,781566,0
52,2,712541,249090,1355021,74524,9335,676745,0
52,-1,638850,218559,1228747,65635,7664,614038,0
52,2,713637,248432,1396456,74056,8993,697614,0
52,2,711032,249191,1418696,74614,9425,708803,0
52,2,712438,249402,1461599,74484,9045,730418,0
52,2,712024,248894,1493183,74312,9304,745906,0
52,2,717726,249774,1392964,74539,8978,696045,0
52,2,713209,249324,1571368,74395,9669,784462,0
52,2,734498,252630,1372202,77549,9967,685267,0
52,2,733400,253503,1565252,77710,10194,782154,0
53,2,760011,265795,1389512,78461,8802,694346,0
53,2,703971,247735,1264815,73638,8389,631999,0
53,-1,692030,237464,1231802,70781,7373,615528,0
53,2,713868,249023,1402791,74137,8540,700804,0
53,2,730640,252752,1345216,77203,9769,672149,0
53,2,707619,248473,1406338,74049,9296,702376,0
53,2,707881,248614,1390783,73966,8392,694995,0
53,2,707840,248930,1343988,74118,8398,671478,0
53,2,708030,248783,1314724,73991,9269,656902,0
53,2,712400,248725,1521853,73847,10049,760430,0
53,2,731196,254615,1664760,77493,11152,832697,0
53,2,711376,248947,1387207,73979,8808,693152,0
53,2,711008,247847,1438996,73636,9359,719039,0
53,-1,638611,219631,1163663,65954,7174,581338,0
53,2,708916,248350,1564230,73597,10471,781489,0
53,2,732324,252659,1310113,76864,10364,654599,0
53,2,709685,248646,1516688,73857,8301,757744,0
53,2,708704,250205,1359782,74126,9276,679141,0
53,2,705173,247294,1290448,73810,9470,644780,0
53,2,710602,248529,1262131,74213,8848,630724,0
53,2,711817,248070,1451857,74041,8953,725518,0
53,2,712732,248852,1451664,74361,9376,725330,0
53,-1,641629,219153,1230909,65933,7126,614944,0
53,2,714686,248730,1521579,74205,9443,760303,0
53,2,709762,249082,1386194,74450,8937,692626,0
53,2,710866,249425,1429501,74594,9384,714278,0
53,2,712527,248751,1496994,74211,9788,747950,0
53,2,716993,249935,1320143,74675,8343,659626,0
53,2,714223,248344,1360958,74046,9313,680009,0
53,2,715037,247858,1336166,74137,10062,667719,0
53,2,710058,247962,1421830,73999,9095,710521,0
54,2,763353,266736,1485153,78716,9855,742114,0
54,2,710452,250192,1349506,74752,9208,673972,0
54,-1,695053,237995,1379800,71021,8031,689404,0
54,2,713617,249808,1425061,74537,9403,711739,0
54,2,739023,258410,1500546,76914,10017,749783,0
54,2,707536,248609,1516576,74011,9597,757853,0
54,2,706542,248099,1415942,73761,8154,707518,0
54,2,715224,249914,1401174,74349,9246,700078,0
54,2,729366,253751,1414122,77421,11148,706600,0
54,2,712879,249005,1407720,73936,8780,703373,0
54,2,711278,249362,1322236,73891,9545,660708,0
54,2,709389,248389,1450291,73746,9448,724762,0
54,-1,635487,218924,1263602,65807,7469,631415,0
54,2,711664,248023,1326537,73714,8883,662897,0
54,2,712755,249700,1248431,74101,8451,623587,0
54,2,711826,248275,1300569,73697,8663,649744,0
54,2,708473,248077,1418402,73601,9187,708817,0
54,2,709248,248490,1390259,73249,8878,694670,0
54,2,710813,250244,1299186,75127,9437,648682,0
54,2,711172,249110,1248969,74675,9095,623667,0
54,2,715636,250175,1345646,74991,8284,672003,0
54,2,710472,248464,1281357,74224,8663,640192,0
54,-1,658601,223130,1287561,69054,7929,643414,0
54,2,716599,250451,1319672,75105,8982,658858,0
54,2,731704,253497,1497069,77804,10250,748005,0
54,2,711161,249470,1319493,74531,8129,659343,0
54,2,712331,249229,1551894,74413,9958,775394,0
54,2,716299,249210,1404377,74397,9090,701842,0
54,2,713047,248723,1330388,74226,9161,664668,0
54,2,713465,247863,1309274,74151,9473,654051,0
54,2,706040,247863,1373637,74104,9117,686189,0
55,2,763000,266833,1451237,78787,9355,725361,0
55,2,706576,248101,1317373,73732,9243,658196,0
55,-1,692151,237352,1283096,70739,7238,641152,0
55,2,708214,248051,1350432,73619,8229,674764,0
55,2,712613,250431,1424818,74833,9288,711734,0
55,2,708236,249280,1445408,74275,8804,722189,0
55,2,729214,253708,1398667,77406,9252,698983,0
55,2,711622,248450,1345439,73859,8858,672225,0
55,2,706900,249033,1369352,74088,9954,684126,0
55,2,712523,248959,1551585,73866,9632,775418,0
55,2,712184,249998,1388561,74217,9496,693862,0
55,2,710405,248912,1326970,73981,8877,663014,0
55,-1,636388,219243,1215287,65867,6744,607256,0
55,2,714444,249492,1497554,74423,9673,747944,0
55,2,709087,248621,1476860,73683,10264,738014,0
55,2,710932,248740,1353195,73885,9018,675988,0
55,2,707282,248048,1409372,73569,9272,704133,0
55,2,707566,248364,1326423,73260,8486,662722,0
55,2,716445,249661,1374098,74857,9700,686356,0
55,2,708846,248449,1314755,74238,8778,656936,0
55,2,710323,248265,1364190,74144,8355,681629,0
55,2,709911,248183,1405077,74074,9318,702154,0
55,-1,639578,219038,1232448,65972,7468,615647,0
55,2,736458,253278,1450435,77461,10081,724848,0
55,2,713700,250408,1351359,74996,8954,675191,0
55,2,714529,251309,1350630,75509,8891,674078,0
55,2,713486,249909,1529891,74631,10422,764130,0
55,2,717490,249810,1367201,74639,9220,683165,0
55,2,712416,249128,1377144,74350,9240,688037,0
55,2,711647,247335,1248762,74010,8993,623913,0
55,2,714532,249982,1410670,74993,10209,704485,0
56,2,763808,267043,1408175,78898,9267,703321,0
56,2,708456,248774,1238637,73977,8691,618823,0
56,-1,690370,237416,1439218,70782,8564,719039,0
56,2,717417,250665,1413775,74841,9305,706165,0
56,2,711708,248827,1337653,74139,8814,668279,0
56,2,705231,248159,1423575,73857,8578,711354,0
56,2,707735,248890,1399703,74064,9030,699288,0
56,2,733833,253760,1434347,77437,9129,716673,0
56,2,707572,248603,1380158,73984,9078,689644,0
56,2,715530,250824,1449345,74764,9378,723907,0
56,2,710773,249626,1417719,74045,9923,708416,0
56,2,715836,249722,1398321,74447,9605,698410,0
56,-1,640547,220832,1413628,66600,8172,706022,0
56,2,713121,249074,1417819,74099,8931,708312,0
56,2,708691,249050,1491782,73857,10250,745378,0
56,2,732724,253162,1377255,77116,9787,688099,0
56,2,715293,250371,1337752,74663,8315,667840,0
56,2,732226,257467,1394032,75877,9356,697280,0
56,2,710871,248156,1421662,74175,10144,709912,0
56,2,711567,247804,1258179,74020,8848,628703,0
56,2,709749,248364,1324256,74146,8048,661682,0
56,-1,640213,219086,1223250,65931,8017,611072,0
56,2,713748,250190,1400872,74990,9153,699635,0
56,2,713999,249362,1362629,74621,8737,680692,0
56,2,710141,249295,1427071,74649,9663,712934,0
56,2,714732,250322,1317593,74858,8216,658189,0
56,2,711478,249115,1486249,74317,9820,742747,0
56,2,720421,250998,1327949,75233,8956,663290,0
56,2,713974,249327,1450336,74379,9051,724412,0
56,2,719139,250504,1522258,75311,9368,760269,0
56,2,730846,253014,1448358,77532,10167,723651,0
57,2,760918,266496,1473244,78743,9631,736114,0
57,-1,689062,237203,1331192,70661,7576,665158,0
57,2,708485,249217,1347723,74308,9031,673098,0
57,2,704613,246527,1296346,73399,8194,647602,0
57,2,708689,247804,1427569,73710,8822,713259,0
57,2,708974,249735,1483531,74603,9825,740764,0
57,2,711433,250683,1557611,74809,9252,778074,0
57,2,713591,249854,1478126,74330,9698,738591,0
57,2,711475,248557,1461722,73887,9475,729786,0
57,2,713787,249635,1411774,74141,9786,705455,0
57,2,713291,251112,1442997,74794,9981,720373,0
57,2,714359,249759,1350315,74279,8621,674615,0
57,-1,632501,218615,1187215,65625,6975,593137,0
57,2,711008,247891,1418931,73671,9591,708943,0
57,2,714419,251279,1531373,74811,10262,764999,0
57,2,711656,248498,1386289,73764,9147,692747,0
57,2,715456,248785,1410209,73862,9410,704485,0
57,2,708512,249527,1274719,73802,8926,636971,0
57,2,711276,248470,1505743,74188,10195,752493,0
57,2,711361,248311,1289441,74120,9379,644231,0
57,2,713130,249531,1320035,74753,8933,659264,0
57,-1,637539,218151,1409681,65596,8247,704774,0
57,2,710620,249333,1382634,74580,9507,690784,0
57,2,714270,248863,1371082,74214,9143,685006,0
57,2,710815,249643,1407497,74943,8941,703046,0
57,2,710891,248968,1398915,74368,8514,699036,0
57,2,715275,249175,1587509,74370,9774,793210,0
57,2,714948,249748,1438768,74512,9000,718815,0
57,2,712108,248640,1394017,74167,8739,696574,0
57,2,714579,247922,1470714,74243,9513,734850,0
57,2,708552,247889,1519715,74062,10295,759337,0
58,2,780668,270357,1544109,81732,10302,771658,0
58,-1,693920,237319,1278621,70765,8028,638859,0
58,2,705140,247335,1373637,73418,8128,686412,0
58,2,706067,247797,1365896,73761,8480,682438,0
58,2,708650,248478,1380937,74026,9140,689984,0
58,2,703465,247845,1597820,73727,9291,798454,0
58,2,705223,248670,1407238,73923,8329,703177,0
58,2,710161,248766,1349862,73980,8338,674436,0
58,2,711483,248711,1568266,73961,10019,783806,0
58,2,709205,249209,1404583,73996,9369,701807,0
58,2,731643,254582,1448801,77486,10389,723777,0
58,2,709772,247911,1318485,73710,9201,658767,0
58,-1,643338,219527,1259823,65897,7073,629410,0
58,2,712040,248639,1276292,73948,8523,637700,0
58,2,712773,249899,1399318,74124,8942,699060,0
58,2,709349,248058,1423677,73551,9198,711292,0
58,2,714750,248748,1336955,73833,9086,667969,0
58,2,707642,249352,1374032,73580,9268,686364,0
58,2,710653,249159,1485213,74667,9807,741987,0
58,2,712692,248591,1368047,74303,9059,683508,0
58,2,708348,247922,1331808,73997,9559,665499,0
58,-1,638532,218958,1313441,65814,7620,655895,0
58,2,711004,248974,1323242,74598,8760,660825,0
58,2,716195,250105,1374739,74892,9175,686427,0
58,2,716436,249273,1427830,74670,9602,713312,0
58,2,715722,251241,1324226,75343,8302,661555,0
58,2,712996,248021,1424564,73913,9101,711683,0
58,2,716003,250094,1458580,74626,9162,728860,0
58,2,713616,248754,1471905,74264,9810,735090,0
58,2,714728,248364,1430947,74327,10353,715002,0
58,2,711813,249359,1501451,74761,10315,749819,0
59,2,761944,266314,1365042,78635,9170,682111,0
59,-1,698092,238977,1372039,71494,8163,685316,0
59,2,705202,248009,1505514,73746,8785,752206,0
59,2,708606,248591,1292451,74006,8321,645751,0
59,2,709062,248376,1427577,73946,9200,713369,0
59,2,706775,249663,1454903,74406,9335,726637,0
59,2,708745,248788,1315887,73980,8022,657567,0
59,2,712248,249508,1337143,74266,8467,667922,0
59,2,712918,249292,1538129,74202,9010,767338,0
59,2,711597,249065,1343820,73984,8794,671434,0
59,2,710709,250074,1464731,74193,10215,731860,0
59,-1,646863,221184,1357745,66706,8089,678040,0
59,2,734273,253795,1383138,77371,9876,691148,0
59,2,709389,247899,1425313,73624,9203,712197,0
59,2,712278,249441,1525645,73923,9138,762318,0
59,2,714992,250174,1334664,74443,8732,666595,0
59,2,713921,248445,1427474,73768,9861,713199,0
59,2,704623,247965,1330572,73088,8359,664761,0
59,2,710824,247961,1568468,74089,10366,783851,0
59,2,709238,247808,1439965,73996,9458,719568,0
59,2,709625,248820,1383952,74353,10500,691368,0
59,-1,642939,221107,1432194,66819,8592,714300,0
59,2,710695,248859,1398466,74393,8691,698755,0
59,2,710246,248262,1397565,73987,8934,698323,0
59,2,718523,250987,1349794,75409,9287,674183,0
59,2,710636,249506,1592142,74591,9918,795615,0
59,2,716657,250355,1408593,75021,9521,703455,0
59,2,738717,254603,1458711,77959,9590,728805,0
59,2,712168,248583,1486374,74081,10147,743003,0
59,2,712589,247677,1312866,74029,9425,656058,0
59,2,709517,248540,1327086,74280,9879,662886,0
60,2,760386,266243,1437470,78609,9280,718238,0
60,-1,692265,237093,1311453,70714,7810,655087,0
60,2,705147,248352,1337164,73798,7491,668209,0
60,2,709434,249620,1411000,74534,8608,704602,0
60,2,707813,248379,1286226,73960,8264,642608,0
60,2,724836,252865,1417528,77241,10054,708236,0
60,2,707395,249000,1438128,74087,8910,718637,0
60,2,710689,249253,1416862,74127,8718,707947,0
60,2,733887,253538,1465133,77367,10155,731934,0
60,2,710806,248749,1447233,73845,8735,723141,0
60,2,709345,249493,1387936,74064,9939,693413,0
60,-1,663730,223950,1381257,69206,8725,690205,0
60,2,709543,248215,1265951,73729,8893,632522,0
60,2,711247,248598,1411077,73908,8454,705061,0
60,2,708865,248824,1496998,73756,9534,747952,0
60,2,711772,248753,1324145,73846,8769,661644,0
60,2,718015,250343,1318580,74556,9481,658649,0
60,2,707160,249944,1459818,73958,9636,729076,0
60,2,710071,248066,1552756,74125,9990,775247,0
60,2,715436,250684,1342580,75179,9163,670476,0
60,2,708343,248279,1351265,74117,9026,675214,0
60,-1,637092,218509,1346332,65601,8693,672655,0
60,2,710869,249091,1341454,74493,8602,670247,0
60,2,709359,248401,1404624,74067,8772,701815,0
60,2,714766,249241,1441604,74616,9505,720332,0
60,2,709646,248969,1277013,74396,9145,638038,0
60,2,713038,248682,1454610,74141,9758,726816,0
60,2,717911,250671,1326493,74927,8452,662782,0
60,2,718034,251608,1451976,75496,11842,724962,0
60,2,719621,250721,1511980,75401,9756,755401,0
60,2,729685,253373,1405042,77785,10513,701622,0
61,2,761911,266737,1352176,78761,8530,675672,0
61,-1,696476,239273,1350014,71666,8010,674252,0
61,2,709027,249816,1423784,74584,8400,711163,0
61,2,708170,248325,1291013,73898,8875,644957,0
61,2,712515,250358,1407993,74801,9223,703220,0
61,2,710912,249098,1315308,74248,9104,657128,0
61,2,705087,248718,1476069,74048,8938,737552,0
61,2,711256,249175,1426267,74168,8844,711642,0
61,2,709289,248327,1537533,73809,9853,768609,0
61,2,710368,249375,1420097,74080,9305,709515,0
61,2,708451,249498,1445249,74010,9625,722242,0
61,-1,640375,218630,1249091,65691,7282,624032,0
61,2,712571,249774,1324221,74405,9529,661386,0
61,2,713641,249918,1400147,74636,9193,699225,0
61,2,714803,250064,1504899,74252,10285,751716,0
61,2,714343,250942,1348801,74856,8731,673677,0
61,2,711628,248404,1426417,73761,9248,712743,0
61,2,703684,248437,1388504,73250,9255,693750,0
61,2,730560,252762,1606419,77434,11467,802802,0
61,2,710176,248305,1500933,74207,8944,749670,0
61,2,710254,247965,1319892,73984,8833,659494,0
61,-1,640251,219850,1336949,66294,8592,667790,0
61,2,711323,249619,1297973,74783,9230,648302,0
61,2,712884,248981,1337233,74246,8648,668190,0
61,2,720412,251447,1368768,75630,8998,683467,0
61,2,712447,250763,1277794,75291,9572,638061,0
61,2,718993,250895,1410364,75083,9724,704414,0
61,2,715131,249828,1376914,74569,8369,688005,0
61,2,719976,249810,1414540,74493,10266,706803,0
61,2,715948,249187,1398624,74851,9785,698564,0
61,2,705781,247379,1396874,74033,9164,698151,0
62,2,762076,266892,1467645,78858,8873,733210,0
62,-1,713285,241663,1281677,73963,8239,640427,0
62,2,725300,252662,1412874,77048,9203,705968,0
62,2,713794,249707,1405880,74534,9787,702014,0
62,2,712779,248481,1359401,73990,8578,679199,0
62,2,710728,249484,1414143,74349,9137,706542,0
62,2,705284,248974,1328379,74051,8579,663830,0
62,2,708840,248556,1348286,73884,8979,673655,0
62,2,712585,249440,1388604,74270,8980,693429,0
62,2,708749,248704,1328667,73752,8624,663937,0
62,2,710564,250400,1409458,74328,9489,704076,0
62,-1,641769,218840,1279945,65728,8041,639545,0
62,2,711753,249258,1273569,74112,9244,636299,0
62,2,708880,248728,1415359,73955,8667,707202,0
62,2,708483,248612,1314535,73615,9126,656818,0
62,2,717885,250264,1413596,74511,9641,706162,0
62,2,719557,251145,1361019,74990,9412,679733,0
62,2,708376,250640,1378797,74199,9384,688628,0
62,2,709454,248290,1480563,74146,10400,739487,0
62,2,714581,250116,1356722,74980,8741,677676,0
62,2,707055,247808,1373025,73998,8693,685982,0
62,-1,636187,218823,1261899,65728,8027,630634,0
62,2,710786,249270,1284189,74492,9246,641608,0
62,2,709336,248220,1404236,74083,9080,701634,0
62,2,712821,248967,1411602,74487,8599,705307,0
62,2,707487,249166,1325693,74432,9259,662380,0
62,2,714821,249572,1476453,74526,10564,737677,0
62,2,716802,250860,1331084,75094,8491,664858,0
62,2,741642,254425,1567099,77857,10044,782941,0
62,2,710784,248186,1339729,74257,8899,669425,0
62,2,710661,248689,1466170,74450,10278,732658,0
62,-1,644458,220446,1326390,66358,7707,662458,0
63,2,764551,268465,1388112,79545,9084,693432,0
63,-1,688358,236492,1327731,70440,7395,663523,0
63,2,734875,258356,1452904,77010,9869,725752,0
63,2,710587,248352,1397759,73914,8631,698309,0
63,2,715527,249837,1422320,74616,8812,710476,0
63,2,709664,249076,1392575,74200,8602,695802,0
63,2,716340,250356,1401084,74705,9353,699824,0
63,2,710825,249097,1294924,74156,8723,646814,0
63,2,708793,248044,1524286,73755,9382,761447,0
63,2,710019,249273,1330514,74049,8629,664775,0
63,2,708887,249974,1354130,74194,9727,676408,0
63,-1,643300,220148,1313027,66366,7530,655839,0
63,2,713663,249147,1333095,74022,9839,666168,0
63,2,710476,249382,1412054,74367,9031,705403,0
63,2,710140,249366,1314173,73890,9178,656495,0
63,2,713497,248827,1349024,73866,9332,674013,0
63,2,733206,253033,1432232,77072,10237,715616,0
63,2,704331,248636,1494737,73307,9832,746842,0
63,2,711134,249354,1419796,74702,10217,708816,0
63,2,706887,247419,1406348,73819,8655,702736,0
63,-1,634486,218426,1292611,65586,8332,645796,0
63,2,709937,248312,1372579,74223,8998,685824,0
63,2,707584,248067,1293246,74060,9817,646268,0
63,2,709900,248761,1430922,74176,9832,715069,0
63,2,714642,249460,1452300,74635,9898,725610,0
63,2,717114,249592,1354630,74517,9809,676751,0
63,2,714012,249319,1330767,74399,9603,664919,0
63,2,716248,250095,1391481,74645,8225,695294,0
63,2,717486,249317,1384574,74336,9273,691774,0
63,2,711903,247539,1348987,74039,9227,674040,0
63,2,703481,246991,1320135,73924,9209,659579,0
63,-1,642824,219452,1276077,65838,7441,637566,0
