0,-1,688781,237349,1265309,70783,7748,632099,2
0,-1,689548,236769,1338114,70526,9156,668503,0
0,-1,692265,237093,1311453,70714,7810,655087,0
0,2,763000,266833,1451237,78787,9355,725361,0
0,-1,690370,237416,1439218,70782,8564,719039,0
0,-1,697243,239190,1352754,71493,7721,675566,0
0,-1,698295,240059,1459025,71962,9166,728612,0
0,-1,692053,238305,1267817,71162,8009,633169,0
0,-1,720294,246941,1251013,73566,7238,625023,0
0,2,709113,248868,1297164,74003,7942,648089,0
0,-1,689271,236323,1246545,70375,6915,622834,0
0,-1,641791,220693,1277488,66650,7398,638043,0
0,-1,636415,218279,1261173,65642,7818,630036,0
0,-1,637695,218422,1296622,65562,8185,647884,0
0,-1,637463,218907,1206409,65682,7292,602706,0
0,-1,639627,218935,1292457,65627,7445,645708,0
0,-1,637518,218167,1157650,65429,6505,578429,0
0,-1,658370,223087,1313492,68902,8327,656296,0
0,2,704603,248212,1454350,73675,8842,726759,0
0,-1,645368,221010,1291868,66530,7366,645444,0
0,-1,646366,221050,1263848,66639,8023,631205,0
0,2,706576,248101,1317373,73732,9243,658196,0
0,-1,663730,223950,1381257,69206,8725,690205,0
0,-1,640547,220832,1413628,66600,8172,706022,0
0,-1,634757,218496,1268966,65615,7289,634095,0
0,-1,634181,218772,1127923,65737,7418,563533,0
0,-1,658273,223211,1280438,69067,8138,639751,0
0,-1,639429,219939,1311832,66339,7097,655109,0
0,-1,639060,219008,1188866,65727,6930,593960,0
0,-1,638963,219444,1233136,65941,6860,616098,0
0,-1,655267,223105,1273295,68979,7055,636138,0
0,-1,637792,218537,1177479,65679,7549,588254,0
0,-1,645437,221457,1309385,66796,8385,653665,0
0,-1,643978,221079,1486800,66583,8889,742454,0
0,-1,666640,224970,1300185,70072,8123,649528,0
0,-1,646133,220849,1370450,66618,8532,684020,0
0,-1,638168,218996,1315873,65872,7775,657357,0
0,2,717417,250665,1413775,74841,9305,706165,0
0,-1,637873,218855,1360247,65827,7540,679695,0
0,-1,637092,218509,1346332,65601,8693,672655,0
0,-1,640213,219086,1223250,65931,8017,611072,0
0,-1,638850,218559,1228747,65635,7664,614038,0
0,-1,636784,218271,1194848,65623,6584,596983,0
0,-1,660807,223364,1254408,69086,8151,626622,0
0,-1,642353,219807,1226659,66136,6974,612827,0
0,-1,649153,221850,1349263,67105,7056,673749,0
0,-1,641469,219099,1216112,65846,7351,607631,0
0,-1,639955,219217,1251346,65887,7410,625101,0
0,-1,648188,221201,1273278,66614,8317,635812,0
0,-1,636127,218917,1216878,65828,7801,607920,0
0,2,714166,250454,1402514,74795,8767,700362,0
0,-1,637313,219037,1304848,65731,7252,651906,0
0,-1,637683,219130,1205560,65799,6939,602331,0
0,-1,642659,219600,1295683,65856,7269,647443,0
0,-1,641663,219715,1273197,65876,7335,636153,0
0,-1,643829,220094,1245672,66077,8117,622201,0
0,-1,642805,219526,1286938,65916,7734,642995,0
0,-1,637707,218886,1244218,65750,7167,621598,0
0,-1,639223,218808,1254971,65702,7651,626975,0
0,-1,642359,219851,1203944,66038,7422,601527,0
0,-1,643363,220116,1273625,66122,6893,636307,0
0,-1,640617,218663,1197927,65625,7359,598456,0
0,2,713090,248267,1314757,73919,8915,656897,0
0,-1,662957,223418,1242246,69193,8639,620601,0
0,-1,638450,219084,1178374,65963,7308,588662,0
0,-1,639268,219225,1202249,66041,7160,600551,0
0,-1,645614,221502,1228016,67096,7674,613055,0
0,-1,643977,220507,1231660,66635,8166,615105,0
0,-1,641425,219070,1296446,65938,7542,647721,0
0,-1,642874,220435,1283020,66632,7815,640840,0
0,-1,641362,218775,1161514,65912,7915,580260,0
0,-1,645838,220820,1321545,66822,8381,659798,0
0,-1,643722,219118,1185268,65961,7759,592071,0
0,-1,641814,218843,1232075,65877,8284,615447,0
0,-1,641580,219167,1249960,66018,7614,624387,0
0,2,705635,248673,1253471,74034,8932,626305,0
0,-1,650146,221344,1303692,66999,7887,651021,0
0,-1,633350,219160,1304057,65963,7331,651624,0
0,-1,631616,218345,1308590,65647,7888,653805,0
0,-1,633988,218805,1160015,65803,7758,579453,0
0,-1,633024,218744,1191893,65782,7498,595417,0
0,-1,637193,218938,1184117,65900,6980,591589,0
0,-1,640405,220501,1283310,66660,8117,640764,0
0,-1,633744,219311,1278832,66052,7422,638778,0
0,-1,636352,218852,1237910,65864,8236,618577,0
0,-1,635853,219148,1310382,66017,7885,654658,0
0,2,707279,250207,1422569,74765,8943,710412,0
0,-1,637536,218728,1284106,65818,6825,641596,0
0,-1,637853,219434,1174014,66089,6921,586597,0
0,-1,639079,219624,1206838,66101,6756,602939,0
0,-1,639550,219317,1182497,66035,6560,590753,0
0,-1,639957,219202,1187717,66028,7291,593201,0
0,-1,634206,218876,1195274,65868,7048,597221,0
0,-1,658441,223941,1250470,69338,8064,624927,0
0,2,710871,249581,1359861,74229,7702,679502,0
0,-1,638245,219178,1341267,66006,6709,670141,0
0,-1,635643,219256,1168908,66043,6394,583965,0
0,-1,639799,220399,1296669,66549,8108,647407,0
0,-1,638892,219026,1200645,65954,7527,599840,0
0,-1,633653,218495,1209210,65603,7117,604177,0
0,-1,642401,220491,1302053,66626,8351,650114,0
0,-1,660219,223801,1257714,69253,7732,628417,0
0,2,710825,249097,1294924,74156,8723,646814,0
0,-1,640128,220406,1320851,66515,7450,659694,0
0,-1,641162,220007,1169135,66178,7448,583997,0
0,-1,641876,219522,1172857,66013,6746,586015,0
0,-1,656598,223996,1236546,69295,7254,617767,0
0,-1,636364,219476,1274404,65948,7549,636765,0
0,-1,637661,219294,1331728,65905,7092,665470,0
0,-1,642485,221121,1297827,66768,7182,648127,0
0,-1,639032,219451,1134893,65933,6833,566874,0
0,2,710388,249589,1329644,74283,9354,664037,0
0,-1,641974,220423,1261828,66327,7073,630544,0
0,-1,634176,218831,1314908,65760,6778,657048,0
0,-1,636886,219034,1188638,65794,6475,593871,0
0,-1,642466,220280,1266721,66278,7210,632919,0
0,2,706636,249092,1393828,74083,9048,696513,0
0,-1,638538,219794,1189920,66058,7221,594594,0
0,-1,638343,219170,1239636,65845,8003,619248,0
0,-1,643208,219875,1227017,66163,7185,612935,0
0,2,733887,253538,1465133,77367,10155,731934,0
0,-1,638032,218619,1169232,65643,6743,584141,0
0,-1,643025,221195,1338552,66823,7730,668403,0
0,-1,640761,220763,1287326,66620,7746,642849,0
0,-1,636934,219302,1182596,65902,7147,590800,0
0,-1,637638,218542,1255961,65717,7084,627471,0
0,-1,638740,218687,1328147,65621,6949,663683,0
0,-1,643049,220952,1293407,66654,7726,645955,0
0,-1,640264,219245,1169396,65973,6341,584165,0
0,-1,640907,218830,1281030,65778,7295,639969,0
0,2,709971,248830,1375160,74008,8150,686925,0
0,-1,639363,219066,1145664,65867,7406,572361,0
0,-1,662298,223529,1271306,69148,8308,635291,0
0,-1,642577,219787,1387262,66150,8114,692709,0
0,-1,637634,220703,1352952,66627,8064,675751,0
0,-1,659413,224571,1311220,69463,8374,655109,0
0,-1,635419,219302,1461435,65962,7959,729416,0
0,-1,658555,223952,1342233,69267,8903,670780,0
0,-1,657800,223551,1375487,69095,8320,686971,0
0,2,710103,249017,1397082,74065,9060,698009,0
0,-1,639823,219959,1278907,66123,7352,638888,0
0,-1,634856,218796,1249849,65761,6909,624456,0
0,-1,639582,220144,1216652,66211,7331,607805,0
0,-1,643480,221448,1217846,67038,7494,607914,0
0,-1,639473,219548,1237199,66040,7220,617895,0
0,-1,638575,219881,1248495,66170,6838,623903,0
0,-1,640032,219935,1349480,66178,7876,674236,0
0,-1,641872,219881,1329427,66181,7527,664293,0
0,-1,640256,220123,1173269,66258,7432,586052,0
0,-1,638665,219557,1367577,65987,7501,683229,0
0,-1,644562,220969,1324079,66716,7664,661339,0
0,-1,638761,219025,1204645,65776,6729,601920,0
0,-1,638770,219268,1232439,65903,6741,615712,0
0,2,708451,249498,1445249,74010,9625,722242,0
0,-1,639653,218949,1152208,65802,6986,575632,0
0,-1,644112,220729,1317082,66432,7737,658039,0
0,-1,639734,219302,1248683,65931,6765,623738,0
0,-1,642872,219502,1270677,65948,7722,634884,0
0,-1,660812,223546,1278005,69041,7834,638456,0
0,-1,642608,219473,1197845,65983,7008,598436,0
0,-1,662598,223928,1448118,69263,8104,723557,0
0,-1,647544,221022,1314904,66683,8764,656715,0
0,-1,656449,224145,1236591,69323,7901,618062,0
0,-1,636732,218647,1465278,65651,8000,732240,0
0,-1,659529,223817,1234824,69052,7944,616921,0
0,-1,640993,220852,1453511,66533,8013,725538,0
0,2,712911,249974,1495586,74407,9826,747048,0
0,-1,661841,224561,1291804,69321,8498,645569,0
0,-1,642890,219825,1350349,65960,7549,674700,0
0,-1,639991,219143,1247977,65732,8366,623544,0
0,-1,644935,220348,1263458,66148,7600,631072,0
0,-1,640742,220075,1249473,66103,7407,624204,0
0,-1,643141,220382,1317519,66375,8330,658080,0
0,-1,645815,221115,1339662,66574,8123,668900,0
0,-1,661362,224263,1259764,69215,8135,629326,0
0,-1,643330,219916,1320301,65999,6928,659623,0
0,-1,641452,219393,1161371,65833,7813,580231,0
0,-1,660170,223763,1404590,69010,8355,701812,0
0,-1,642238,220629,1304259,66545,7844,651313,0
0,-1,641378,219570,1220421,65968,7720,609870,0
0,-1,663621,224601,1299825,69244,8557,649415,0
0,-1,648424,221947,1374194,66908,9020,686422,0
0,2,713104,248879,1452372,73884,9499,725691,0
0,-1,647580,222065,1288316,67087,7484,643312,0
0,-1,652854,222760,1326986,67281,8427,662416,0
0,-1,665843,225392,1274953,69755,8409,636938,0
0,-1,644145,220127,1171546,66213,7119,585171,0
0,-1,647515,219928,1221079,66032,7218,610069,0
0,-1,646552,220373,1247135,66059,8147,623140,0
0,-1,651068,221942,1332126,66796,8235,665347,0
0,2,713721,250235,1344981,74596,9035,671765,0
0,-1,653347,222554,1288249,67071,8120,643220,0
0,-1,636292,219680,1176282,65798,8039,587657,0
0,-1,640643,220766,1389254,66229,8395,694212,0
0,-1,645810,221753,1336983,66727,8825,667763,0
0,-1,668386,229787,1304009,68876,8042,651367,0
0,-1,664929,225645,1332838,69604,9126,665918,0
0,2,719954,251154,1408536,74701,9722,703519,0
0,-1,641954,220229,1318733,66065,8088,658847,0
0,-1,644377,220436,1301975,66076,8159,650606,0
0,-1,639853,219840,1253731,65900,8554,626432,0
0,-1,663177,225185,1246268,69540,8465,622640,0
0,-1,644527,220501,1462417,66238,8279,730680,0
0,-1,647208,221736,1306539,66828,8286,652259,0
0,-1,642979,220322,1166182,66249,8182,582391,0
0,-1,642367,220864,1267940,66293,8379,633559,0
0,-1,642664,220692,1426052,66184,7810,712583,0
0,-1,642743,220246,1339721,66057,7834,669438,0
0,2,713855,250555,1382475,74702,9190,690213,0
0,-1,641704,219698,1214564,65957,7800,606924,0
0,-1,648060,221617,1288265,66919,8451,643289,0
0,-1,639115,219457,1199885,65909,7223,599463,0
0,-1,638760,218853,1343303,65714,7664,671169,0
0,-1,664672,224254,1267900,69234,8535,633478,0
0,-1,642641,219005,1314826,65700,7605,657055,0
0,-1,644114,220352,1339393,66428,7808,669027,0
0,-1,640139,218597,1191774,65587,7747,595484,0
0,-1,644020,219081,1320873,65834,8064,660050,0
0,-1,644673,219114,1212840,65826,7200,606004,0
0,-1,637812,218706,1176566,65706,6788,587842,0
0,2,714992,250174,1334664,74443,8732,666595,0
0,-1,638567,219341,1283951,65836,7558,641434,0
0,-1,659361,223410,1239746,68929,7527,619502,0
0,-1,661838,224113,1274199,69213,7962,636574,0
0,-1,637941,219065,1163674,65711,6874,581231,0
0,-1,663038,224090,1253068,69186,8823,626035,0
0,-1,642345,219435,1367857,65821,9249,683423,0
0,2,708626,248329,1500180,73654,8638,749504,0
0,-1,637801,218209,1202907,65490,7802,600985,0
0,-1,637958,218645,1304754,65662,6994,651712,0
0,-1,640135,218952,1378071,65735,7490,688380,0
0,-1,663000,224144,1232781,69261,8252,615949,0
0,-1,637364,219161,1220014,65904,7268,609563,0
0,-1,662933,224602,1199484,69376,7715,599173,0
0,-1,640737,219180,1351294,65774,7682,675264,0
0,-1,638295,218898,1214501,65707,7316,606877,0
0,-1,641826,219932,1332613,66009,7931,665932,0
0,-1,643625,219638,1261990,65835,6636,630505,0
0,-1,645680,219127,1372584,65685,8018,685880,0
0,2,708912,248223,1286540,73716,8552,642565,0
0,-1,642301,219154,1215023,65580,8588,607139,0
0,-1,641735,219173,1272000,65610,7247,635537,0
0,-1,646502,219965,1290279,65835,8014,644660,0
0,-1,648416,221264,1317192,66583,8069,657807,0
0,-1,649420,221153,1273390,66444,7803,636045,0
0,-1,641146,220870,1199268,66332,7663,598904,0
0,-1,639630,219421,1128266,65676,7259,563640,0
0,2,710732,247862,1402158,73439,8061,700523,0
0,-1,662253,224896,1312970,69301,8078,656111,0
0,-1,646419,221463,1308410,66606,7829,653562,0
0,-1,659713,224510,1488742,69139,10042,743993,0
0,-1,643468,220531,1515068,66137,8731,756353,0
0,-1,649418,222253,1231649,67076,8084,614881,0
0,-1,637083,218951,1323604,65573,7924,661398,0
0,-1,639524,219285,1357126,65761,8559,678144,0
0,2,703371,248283,1307193,73120,8745,653151,0
0,-1,641953,219005,1229960,65693,8193,614423,0
0,-1,645759,220941,1252414,66593,7904,625262,0
0,-1,638061,219740,1352157,65896,8097,675618,0
0,-1,639756,218985,1373046,65670,7966,685740,0
0,-1,660554,224099,1242630,69151,8570,620788,0
0,-1,639369,218834,1234406,65613,7573,616471,0
0,-1,637656,218721,1214361,65571,7927,606755,0
0,-1,640454,219217,1273608,65759,8241,636226,0
0,-1,641411,219361,1295080,65737,7288,647129,0
0,-1,642139,218973,1277427,65684,7714,638283,0
0,2,704255,247933,1285245,73154,8578,642228,0
0,-1,637090,218293,1306466,65426,7083,652892,0
0,-1,638814,218564,1308742,65513,7659,653920,0
0,-1,641719,219119,1193318,65670,7583,596220,0
0,-1,640084,218641,1199331,65582,8400,599179,0
0,-1,643990,220093,1239635,66316,7914,618978,0
0,-1,644505,218353,1299482,65445,6954,649335,0
0,-1,638028,218599,1327567,65511,7806,663395,0
0,-1,644062,220718,1196280,66459,6987,597367,0
0,-1,664390,224636,1229547,69319,7985,614291,0
0,-1,639545,219785,1190895,65939,7297,594969,0
0,-1,644644,220015,1223146,66212,7428,610817,0
0,2,710196,248513,1403464,74289,9089,701185,0
0,-1,641777,219088,1314040,65720,7469,656548,0
0,-1,638834,218692,1262570,65554,6718,630848,0
0,-1,647181,221318,1216154,66665,7792,607165,0
0,-1,648572,221810,1200108,66877,7196,599122,0
0,-1,639651,218453,1236968,65498,6916,618026,0
0,-1,642285,219468,1289729,65856,7353,644350,0
0,2,730139,252497,1453111,77375,10035,726059,0
0,-1,642611,219625,1294161,65902,7795,646522,0
0,-1,664885,223114,1332437,68770,8543,665774,0
0,-1,640697,218756,1182804,65605,7483,590929,0
0,-1,640270,218558,1177955,65531,6927,588424,0
0,-1,644957,219698,1280479,65934,7714,639596,0
0,-1,641526,219063,1200049,65695,6845,599477,0
0,-1,643777,218962,1298659,65697,8123,648714,0
0,-1,639366,218748,1394114,65574,7297,696612,0
0,-1,643374,219116,1136961,65798,6697,567871,0
0,-1,642641,219082,1302992,65734,7120,651120,0
0,-1,662886,223404,1317317,68862,7591,657991,0
0,-1,644112,218972,1260059,65627,7201,629314,0
0,-1,644057,218842,1262535,65590,6618,630685,0
0,2,708374,248085,1424017,74139,9383,711427,0
0,-1,632992,219715,1172969,65411,6839,585887,0
0,-1,630835,218174,1146688,64847,7090,572868,0
0,-1,635664,218897,1301353,65122,7394,650199,0
0,-1,633182,218385,1319800,64964,7558,659416,0
0,-1,644462,221942,1153245,66509,6922,575554,0
0,-1,636095,218992,1250783,65230,8079,624737,0
0,-1,639502,220036,1256720,65509,6627,627803,0
0,-1,633903,218749,1318932,65113,7826,658918,0
0,2,713130,249531,1320035,74753,8933,659264,0
0,-1,633942,219094,1279083,65191,7977,639166,0
0,-1,638871,219412,1312260,65334,7641,655622,0
0,-1,636404,219144,1179120,65227,7833,588870,0
0,-1,637173,219372,1280452,65374,7160,639719,0
0,-1,637434,220699,1223655,65970,7645,610669,0
0,-1,655908,223692,1309341,68675,8134,654229,0
0,-1,640270,220656,1148348,66083,7130,573420,0
0,-1,634482,218459,1232692,65096,7243,615825,0
0,-1,637725,219058,1269558,65340,7631,634382,0
0,-1,636123,218198,1255393,65012,7363,627469,0
0,-1,641492,220547,1264723,66881,9099,630762,0
0,-1,638362,218988,1331907,66163,8900,665561,0
0,-1,638171,218704,1195116,66099,8273,597059,0
0,2,713230,248383,1463796,74257,9305,731348,0
0,-1,639860,218847,1273748,66116,8376,636362,0
0,-1,641637,219673,1362335,66358,8484,680654,0
0,-1,639680,218171,1322895,65830,8287,661147,0
0,-1,641229,218496,1281509,66003,8752,640330,0
0,-1,633477,218668,1253675,66092,7908,626316,0
0,-1,635461,218562,1290998,66004,7373,645130,0
0,-1,660743,223450,1431462,69453,9172,715241,0
0,-1,637640,218675,1350331,66040,8156,674657,0
0,2,713818,249401,1316388,74620,7994,656899,0
0,-1,659943,223666,1310197,69518,8204,654645,0
0,-1,641028,219043,1248680,66211,7189,623898,0
0,-1,639656,219047,1248891,66208,8100,623875,0
0,-1,644087,220766,1198733,67044,6616,598617,0
0,-1,640105,219219,1390581,66262,7313,694814,0
0,-1,640721,218831,1275841,66088,7029,637466,0
0,-1,640917,218738,1255932,66112,7426,627742,0
0,-1,666616,223903,1245399,69579,8066,622360,0
0,-1,659649,223396,1306884,69435,8539,653001,0
0,-1,637447,219042,1274613,66112,7760,636898,0
0,-1,642701,220365,1189615,66853,7502,594046,0
0,-1,642014,219625,1177343,66597,7634,587998,0
0,-1,640030,218670,1278236,66093,7028,638637,0
0,-1,644716,220765,1134148,66936,6960,566270,0
0,-1,639721,219679,1144031,66445,6858,571499,0
0,2,707188,248804,1397857,74252,8839,698440,0
0,-1,644666,220555,1192963,66921,7307,595709,0
0,-1,640641,219047,1196273,66160,7375,597732,0
0,-1,646058,220047,1256556,66719,7732,627707,0
0,-1,642901,219181,1173123,66224,7045,586039,0
0,2,712986,249572,1644648,74644,10820,821823,0
0,-1,643387,219081,1275859,66231,7612,637456,0
0,-1,645574,219080,1272745,66175,7615,635896,0
0,-1,655341,223103,1352867,69303,8916,675886,0
0,-1,636694,218754,1171190,66071,7414,585290,0
0,-1,639214,219176,1286143,66201,8143,642582,0
0,-1,642165,220999,1166125,67141,6817,582351,0
0,-1,661339,223669,1255278,69496,8236,627211,0
0,-1,639012,219861,1200518,66669,7837,599424,0
0,-1,637214,218790,1246791,66147,7313,622872,0
0,-1,643906,220104,1189409,66753,7267,593983,0
0,-1,638509,218804,1282710,66085,7377,640728,0
0,-1,641272,218976,1353280,66188,7579,676171,0
0,-1,638723,220236,1200440,66766,7788,599526,0
0,-1,638238,218832,1261457,66134,7592,630283,0
0,-1,640388,218941,1136780,66081,6880,568008,0
0,2,714999,249399,1450036,74563,10196,724450,0
0,-1,638840,218916,1256082,66176,7185,627581,0
0,-1,662558,223690,1326321,69514,7496,662701,0
0,-1,637772,218432,1347587,66017,7407,673343,0
0,-1,644230,219379,1563106,66292,9530,781064,0
0,2,709646,248969,1277013,74396,9145,638038,0
0,-1,644747,220508,1203226,66844,7211,600914,0
0,-1,664181,223461,1528677,69412,9147,763962,0
0,-1,640730,218984,1266564,66212,6803,632783,0
0,-1,641896,218292,1214274,65922,7129,606686,0
0,-1,644820,219506,1313181,66417,7766,656099,0
0,-1,638400,218812,1140920,66044,8144,570010,0
0,-1,640728,219253,1156157,66240,7559,577657,0
0,-1,643527,220206,1177152,66783,7203,588018,0
0,-1,661930,223636,1315958,69493,7808,657440,0
0,-1,636119,218256,1293629,65871,7790,646400,0
0,2,734358,254658,1421460,77888,10361,709349,0
0,-1,639560,218283,1211028,65899,7545,604977,0
0,-1,642668,218552,1171957,65932,8065,585613,0
0,-1,661448,223258,1347146,69228,7943,673114,0
0,-1,662775,223618,1341324,69353,7916,670258,0
0,-1,640394,218751,1178668,66051,7310,588895,0
0,-1,642506,219003,1313126,66207,7015,656100,0
0,-1,644780,219219,1174457,66188,7328,586719,0
0,2,712024,248894,1493183,74312,9304,745906,0
0,-1,643498,218569,1141484,65957,7607,570297,0
0,-1,639780,219013,1238999,66082,7781,619153,0
0,-1,642684,219403,1295436,66146,7053,647321,0
0,-1,641925,218587,1351389,65859,7891,675300,0
0,-1,639611,218232,1222118,65742,7238,610607,0
0,-1,642287,219098,1308868,65966,8028,654035,0
0,-1,648906,220712,1179430,66898,7911,589006,0
0,-1,663492,223739,1363058,69359,8281,681078,0
0,-1,643847,219605,1288748,66291,7730,643813,0
0,2,734834,253577,1701376,77603,12340,850370,0
0,-1,641796,218752,1259962,65965,8071,629459,0
0,-1,643748,218672,1232711,65852,8321,615940,0
0,-1,642908,218687,1217964,65895,8290,608636,0
0,-1,649924,220496,1142582,66784,7389,570474,0
0,-1,642365,221194,1283898,67073,8223,641248,0
0,2,717911,250671,1326493,74927,8452,662782,0
0,-1,660857,224028,1339116,69553,9392,668980,0
0,-1,659048,223887,1427173,69641,9131,713089,0
0,-1,640302,219406,1330246,66350,8652,664369,0
0,-1,647739,221619,1277371,67292,7215,638062,0
0,-1,646189,220202,1352183,66590,7665,675575,0
0,-1,639309,219334,1363963,66326,7240,681412,0
0,-1,642794,219771,1293682,66449,7869,646364,0
0,-1,645399,220323,1243169,66646,8439,620890,0
0,-1,642740,219838,1283490,66591,8009,641386,0
0,2,715435,249239,1343054,74464,8034,671095,0
0,-1,646141,220625,1258946,66871,7158,628885,0
0,-1,650225,221497,1249743,67429,7517,624117,0
0,-1,639588,219401,1277863,66389,7646,638479,0
0,-1,643699,219885,1341274,66532,8020,669981,0
0,-1,642261,219887,1235115,66485,8198,617040,0
0,-1,646872,220200,1391671,66566,9557,695400,0
0,-1,643956,219723,1243742,66379,9309,621187,0
0,-1,643313,219278,1308729,66243,8515,653693,0
0,-1,644734,220599,1285982,66636,8374,642456,0
0,-1,665519,224653,1485895,69820,9465,742536,0
0,-1,667701,224629,1346987,69822,9478,672924,0
0,2,712301,248213,1333451,74043,8371,666277,0
0,-1,640940,220753,1166689,66738,7984,582901,0
0,-1,664067,224898,1338086,69889,8597,668601,0
0,-1,643905,219730,1285714,66372,7583,642437,0
0,2,715476,249488,1444280,74742,9092,721398,0
0,-1,642036,219719,1192773,66426,7215,596047,0
0,-1,643886,220359,1289483,66601,7496,644283,0
0,-1,644857,220684,1245771,66645,7844,622394,0
0,-1,649447,220821,1270895,66623,8765,635043,0
0,-1,642269,219806,1181193,66300,7143,590054,0
0,-1,641619,219487,1192527,66190,7324,595790,0
0,-1,650356,222240,1221668,67318,7598,610028,0
0,-1,645033,220543,1285698,66440,7993,642543,0
0,-1,645245,220556,1172462,66497,7548,585742,0
0,-1,645707,220036,1242726,66336,8494,620720,0
0,2,703947,248397,1434510,74374,8232,716739,0
0,-1,642318,220186,1282580,66345,8338,640768,0
0,-1,646344,220896,1177579,66897,7494,587881,0
0,-1,645643,220536,1284616,66513,7807,641841,0
0,-1,645215,219499,1185775,66300,7981,592347,0
0,-1,646702,221138,1207524,67033,7316,602878,0
0,-1,644642,219773,1139264,66368,7417,568995,0
0,-1,665355,224693,1374127,69751,8281,686567,0
0,2,709673,248492,1508612,74381,10261,753841,0
0,-1,645211,219601,1268701,66308,8190,633881,0
0,-1,646416,219760,1237758,66314,8571,618309,0
0,-1,653370,221844,1229049,67301,7965,613562,0
0,-1,639086,219434,1302533,66259,7887,650821,0
0,-1,638839,219299,1188917,66215,8249,594036,0
0,-1,641471,219870,1328565,66388,7950,663840,0
0,-1,661130,224264,1396159,69612,9021,697658,0
0,2,713634,249934,1534768,74940,8878,766587,0
0,-1,641888,219596,1268391,66294,7704,633660,0
1,-1,696476,239273,1350014,71666,8010,674252,0
1,-1,689062,237203,1331192,70661,7576,665158,0
1,-1,695732,239519,1354222,71735,7681,676377,2
1,-1,692030,237464,1231802,70781,7373,615528,0
1,-1,714467,241749,1392418,74017,9631,695759,0
1,-1,691876,237413,1433491,70767,8415,716223,0
1,-1,694761,239125,1280527,71615,7627,639447,0
1,2,707253,248237,1415083,73813,8523,707072,0
1,-1,695048,238633,1329064,71419,7525,663741,0
1,-1,640351,218627,1335071,65678,7408,667153,0
1,-1,639039,219520,1285926,66205,7440,642271,0
1,-1,641717,219379,1192495,65940,7280,595787,0
1,-1,637742,219322,1277879,66029,7339,638159,0
1,2,713062,250502,1416224,74751,8893,707445,0
1,-1,639905,219149,1360412,65753,7629,679778,0
1,-1,644847,221307,1316374,66702,7623,657296,0
1,-1,642579,219069,1194476,65773,7403,596784,0
1,-1,640871,219337,1261723,65814,7101,630300,0
1,-1,659535,222846,1245712,68762,8337,622240,0
1,2,705140,247335,1373637,73418,8128,686412,0
1,-1,640375,218630,1249091,65691,7282,624032,0
1,-1,632501,218615,1187215,65625,6975,593137,0
1,-1,638611,219631,1163663,65954,7174,581338,0
1,-1,658819,223185,1207068,68979,7739,603153,0
1,-1,636703,219069,1268464,65889,7148,633439,0
1,-1,635392,218797,1226874,65732,6755,612886,0
1,-1,659272,223467,1322273,69032,8724,660667,0
1,-1,640732,220799,1344720,66592,7866,671292,0
1,-1,636587,218266,1210604,65543,7019,604620,0
1,-1,638969,219734,1192784,66229,7177,595674,0
1,-1,637664,218932,1202812,65704,6699,600884,0
1,-1,636615,218196,1310911,65408,8377,655061,0
1,-1,638637,218828,1241935,65783,7653,620485,0
1,-1,638676,218022,1220291,65476,7351,609575,0
1,2,706084,247505,1378114,73561,8773,688526,0
1,-1,636628,218824,1364389,65704,8003,681758,0
1,-1,641712,220106,1354440,66403,7942,676226,0
1,-1,640251,219850,1336949,66294,8592,667790,0
1,-1,637539,218151,1409681,65596,8247,704774,0
1,-1,641629,219153,1230909,65933,7126,614944,0
1,-1,656890,223247,1179080,69064,7965,588844,0
1,-1,639910,218781,1371351,65823,7159,685299,0
1,-1,640064,219230,1182690,65939,6946,590760,0
1,-1,662369,223767,1356412,69218,7366,677689,0
1,-1,640139,218951,1317781,65799,7983,658340,0
1,-1,642872,219224,1217980,65937,7436,608348,0
1,-1,643846,219759,1197785,66001,7837,598316,0
1,-1,641695,221690,1300180,66937,7911,649224,0
1,2,709320,248776,1447377,74013,8411,723133,0
1,-1,643810,220940,1361538,66608,8464,679976,0
1,-1,664641,228522,1302879,68527,7523,650866,0
1,-1,644821,221207,1308910,66738,8341,653563,0
1,-1,643724,220872,1274659,66309,7483,636911,0
1,-1,646588,221433,1258789,66765,7964,628490,0
1,-1,644920,220727,1186452,66286,7027,592778,0
1,-1,643276,220475,1202604,66270,6838,600805,0
1,-1,640619,219290,1269492,65899,7405,634261,0
1,-1,640050,219059,1251698,65818,7827,625340,0
1,2,709215,248586,1329238,74075,9280,664137,0
1,-1,660840,223760,1250335,69175,7887,624635,0
1,-1,646284,220858,1207004,66639,8480,602657,0
1,-1,641863,218936,1242157,65851,7228,620658,0
1,-1,636783,218849,1264397,65816,7631,631786,0
1,-1,639030,218816,1206548,65851,7560,602716,0
1,-1,638729,219373,1281533,66080,7190,640245,0
1,-1,641270,218883,1212109,65843,7610,605542,0
1,-1,640122,219052,1201142,65955,6596,600114,0
1,-1,644348,219213,1255462,66012,6574,627228,0
1,-1,642002,219504,1268360,66084,7707,633642,0
1,-1,641931,219322,1277268,66104,7741,638103,0
1,-1,646621,220517,1240463,66647,8075,619357,0
1,-1,644471,220182,1207363,66361,7667,603085,0
1,-1,642804,218953,1171095,65838,7441,585066,0
1,2,707973,248376,1528950,73977,9001,763974,0
1,-1,666122,224198,1245842,69428,8246,622210,0
1,-1,634508,219966,1171910,66274,6754,585470,0
1,-1,638749,220401,1292420,66597,7697,645473,0
1,-1,634489,218604,1246209,65784,7872,622550,0
1,-1,638447,219493,1195692,66135,7685,597113,0
1,-1,641845,221168,1284125,66944,7837,641282,0
1,-1,638599,219603,1321566,66114,7969,660395,0
1,-1,641607,220821,1323487,66741,8156,661005,0
1,2,711045,249047,1434468,74048,9271,716804,0
1,-1,640278,220991,1348136,66876,8885,673024,0
1,-1,639481,219760,1278348,66182,7581,638659,0
1,-1,637811,219488,1174901,66052,6529,586957,0
1,-1,640054,220339,1286888,66568,7513,642739,0
1,-1,643280,221203,1289500,66926,7226,643928,0
1,-1,641581,220504,1333944,66707,7545,666473,0
1,2,708797,248171,1397145,73715,8180,698168,0
1,-1,644454,220554,1279488,66649,8252,639052,0
1,-1,637447,219472,1235624,66084,8215,617283,0
1,-1,635351,218547,1227523,65748,7270,613415,0
1,-1,634906,218724,1261464,65835,7051,630258,0
1,-1,634207,218650,1271678,65783,7731,635325,0
1,-1,637124,218555,1288595,65735,7332,643827,0
1,-1,637206,219060,1276596,65892,7149,637772,0
1,-1,643218,219668,1216254,66107,7830,607652,0
1,-1,660254,223887,1259419,69268,8533,629086,0
1,2,714255,250225,1349842,74677,9330,673911,0
1,-1,639945,219426,1272947,65993,6701,635857,0
1,-1,638302,219842,1219972,66137,7325,609527,0
1,-1,638813,219294,1184494,65874,7143,591785,0
1,-1,645036,221387,1248594,66850,7102,623501,0
1,-1,642646,219163,1251440,65923,7424,625364,0
1,-1,636212,219859,1194055,66124,6743,596542,0
1,-1,636493,219233,1262405,65885,7217,630774,0
1,-1,639579,221202,1300168,66766,7671,649360,0
1,-1,638965,219714,1161470,66077,7205,580283,0
1,2,709045,249584,1324582,74270,8773,661526,0
1,-1,638403,219377,1180731,65971,6831,589913,0
1,-1,662415,223974,1276814,69214,8133,637857,0
1,-1,640854,220716,1280332,66599,6513,639431,0
1,-1,637668,219685,1285976,66039,7166,642532,0
1,2,709800,248572,1331703,73869,8236,665377,0
1,-1,644214,220232,1336760,66387,7757,667773,0
1,-1,640477,220192,1213295,66149,7459,605954,0
1,-1,641566,219587,1177484,66039,6568,588316,0
1,2,712585,249440,1388604,74270,8980,693429,0
1,-1,663809,224043,1359291,69291,8289,679217,0
1,-1,658849,224127,1231101,69319,7801,615003,0
1,-1,637934,219367,1159791,65922,7229,579409,0
1,-1,639552,219554,1361109,66040,7114,680083,0
1,-1,638063,219047,1135559,65834,6751,567250,0
1,-1,644616,220696,1322840,66565,7333,660636,0
1,-1,636134,218892,1185402,65747,6873,592198,0
1,-1,641528,220125,1263593,66207,7423,631247,0
1,-1,647108,221793,1376463,67118,7886,687308,0
1,2,708920,248716,1427391,73933,8023,713675,0
1,-1,661927,224594,1199210,69531,7952,599044,0
1,-1,644129,219973,1256517,66147,7371,627883,0
1,-1,642966,220264,1260990,66298,7961,630270,0
1,-1,644508,219014,1447998,65826,8322,723210,0
1,-1,636022,219575,1313836,66040,8035,656598,0
1,-1,634997,219612,1261223,66015,7138,630172,0
1,-1,636373,219221,1229964,65892,7610,614180,0
1,-1,636628,219097,1256849,65847,7020,627863,0
1,2,712071,249072,1458331,73958,9403,728640,0
1,-1,641937,220738,1342379,66534,7538,669758,0
1,-1,639576,220801,1356146,66640,7211,677340,0
1,-1,637955,219414,1197223,65949,6506,598085,0
1,-1,640189,219299,1202093,65917,7046,600546,0
1,2,707917,248854,1333838,74045,8727,666380,0
1,-1,641588,220486,1302661,66545,7678,651145,0
1,-1,635817,219137,1247963,65869,7066,623511,0
1,-1,659431,223551,1269167,69141,8404,634072,0
1,-1,640028,219551,1277569,65946,6833,638342,0
1,-1,640304,220796,1247732,66675,8054,622503,0
1,-1,643093,221647,1364324,67059,8263,680528,0
1,-1,659881,223675,1219962,69169,7977,609496,0
1,-1,639810,219831,1234279,66125,6801,616703,0
1,-1,639904,220028,1286183,66393,7188,642355,0
1,-1,643850,219870,1156040,66129,7462,577559,0
1,-1,640656,220109,1242368,66421,7777,620388,0
1,-1,641714,219959,1282677,66074,7008,640932,0
1,-1,663584,224095,1232787,69274,7757,615946,0
1,-1,640113,219145,1274460,65825,7346,636830,0
1,-1,641416,219457,1284255,65929,7711,641698,0
1,-1,643883,220184,1341450,66245,7828,669648,0
1,-1,643296,219911,1254602,66088,7742,626824,0
1,2,713799,250099,1494018,74327,9170,746451,0
1,-1,641340,218771,1254994,65713,8027,627054,0
1,-1,639333,219961,1258750,66113,6916,629006,0
1,-1,640226,219837,1225596,65978,6737,612270,0
1,-1,637542,219002,1497671,65713,9686,747372,0
1,-1,639296,219767,1330148,66013,7984,664422,0
1,-1,644435,220803,1313387,66528,8168,655899,0
1,-1,646713,222063,1254023,66953,8360,626292,0
1,-1,644936,221034,1214793,66564,7468,606753,0
1,-1,642540,220566,1302782,66445,7364,650521,0
1,-1,638141,219061,1207655,65706,7198,603339,0
1,-1,638486,218393,1311498,65468,7039,655363,0
1,-1,642337,220245,1338489,66102,7682,668502,0
1,-1,644211,220547,1448695,66445,7593,723334,0
1,-1,642266,219611,1183418,65860,7928,591111,0
1,-1,639239,219728,1418207,65927,8214,708504,0
1,-1,642684,219458,1312347,65854,8299,655831,0
1,2,714078,250223,1415697,74655,9505,707027,0
1,-1,640650,219105,1360841,65851,7859,680103,0
1,-1,646511,220801,1294784,66564,8091,646770,0
1,-1,644943,220824,1380071,66393,9296,689391,0
1,-1,668012,225498,1236055,69695,8403,617451,0
1,-1,645593,220024,1292269,66184,7477,645676,0
1,-1,647166,221908,1376779,66864,8305,687339,0
1,-1,644191,220488,1207186,66366,7574,602959,0
1,-1,645166,220125,1295935,66164,8109,647536,0
1,-1,649561,221955,1313876,66810,8254,656176,0
1,-1,647641,220429,1453952,66070,8856,726457,0
1,2,709666,249022,1387654,74265,9083,693133,0
1,-1,668568,224857,1297113,69345,8889,648023,0
1,-1,637435,220684,1279144,66207,7489,638992,0
1,-1,644558,221604,1330897,66699,8694,664801,0
1,-1,641840,220655,1193211,66225,7970,595789,0
1,2,709153,248880,1313076,73918,9465,656061,0
1,-1,641691,220556,1381823,66047,8779,690512,0
1,-1,642665,220614,1393291,66201,9001,695990,0
1,-1,645882,221965,1205344,66829,7941,601943,0
1,-1,647783,222203,1265926,66977,8885,632020,0
1,-1,641260,220898,1383672,66258,9435,691436,0
1,-1,640437,220202,1306147,66138,8318,652523,0
1,-1,642740,219715,1306050,65887,8237,652575,0
1,-1,641987,220420,1260599,66254,7671,629663,0
1,-1,642718,220222,1212708,66147,8381,605869,0
1,2,731378,253020,1638340,76968,11243,818141,0
1,-1,650320,221183,1297891,66536,8160,648111,0
1,-1,639523,219691,1266479,65866,7301,632697,0
1,-1,640868,219561,1291733,65862,7688,645444,0
1,-1,638887,218729,1274621,65606,7861,636903,0
1,-1,641062,219395,1231146,65909,7895,615024,0
1,-1,646000,219897,1295227,66076,7780,647023,0
1,-1,646763,222211,1376771,67177,8199,687498,0
1,-1,641559,219397,1262497,65870,7644,630740,0
1,-1,647132,221183,1277149,66724,7809,637789,0
1,-1,640491,219603,1219165,65883,7471,609184,0
1,-1,662949,224306,1256461,69287,8121,627736,0
1,2,708009,248480,1278675,73787,9323,638693,0
1,-1,664509,224422,1241861,69409,8371,620338,0
1,-1,644804,219535,1295871,66043,7840,647426,0
1,-1,636624,218877,1279709,65746,7346,639437,0
1,-1,638099,219549,1201802,66022,6734,600292,0
1,-1,640003,219794,1283243,66040,6945,641142,0
1,-1,639860,219675,1275317,65990,7642,637014,0
1,-1,646514,221259,1341230,66675,7697,669868,0
1,-1,640440,219146,1209218,65798,7936,603909,0
1,2,728600,253278,1411781,77132,9707,705371,0
1,-1,661238,224024,1497428,69117,9567,748115,0
1,-1,641561,219992,1216915,66260,7809,607889,0
1,-1,633828,217086,1248987,65145,6798,623903,0
1,-1,638796,218821,1310820,65763,7174,654831,0
1,-1,643235,219014,1221489,65821,8425,610266,0
1,2,708774,248423,1372323,73708,8810,685717,0
1,-1,668659,224933,1263411,69544,8313,631346,0
1,-1,640232,219698,1307441,66013,7391,653136,0
1,-1,640183,219078,1205081,65745,7657,602090,0
1,-1,646642,220558,1306280,66468,7907,652210,0
1,-1,644438,220265,1197948,66150,7704,598536,0
1,-1,663357,224357,1256544,69297,7879,627786,0
1,-1,665595,224171,1241198,69159,8467,620091,0
1,-1,661727,223591,1220723,68947,9020,609904,0
1,-1,642942,219326,1169961,65630,7358,584575,0
1,-1,648162,220742,1242097,66338,7275,620369,0
1,-1,643640,219380,1176105,65644,6848,587644,0
1,-1,645739,220011,1198713,65901,7630,598808,0
1,-1,647776,219602,1262631,65668,7233,630846,0
1,2,713637,249231,1420458,74029,8537,709748,0
1,-1,643775,221688,1183701,66678,7945,591048,0
1,-1,638847,219563,1309267,65715,7889,654273,0
1,-1,640380,219518,1263140,65740,7783,631090,0
1,-1,641117,219341,1411625,65633,9009,705228,0
1,-1,640626,219922,1411536,65916,8630,704978,0
1,-1,661773,223772,1232510,69039,9075,615856,0
1,2,705295,247943,1404884,73051,8782,701932,0
1,-1,635469,218237,1233289,65408,7543,616232,0
1,-1,640868,218911,1365308,65704,8444,682221,0
1,-1,661291,223316,1219267,68881,8601,608876,0
1,-1,663819,224305,1459909,69217,9675,729348,0
1,-1,644991,219628,1286446,65832,8108,642609,0
1,-1,642856,220933,1306372,66587,7347,652387,0
1,-1,638458,218979,1303783,65689,7953,651321,0
1,2,706181,247780,1680934,73007,9187,840294,0
1,-1,641998,220314,1244683,66326,7085,621547,0
1,-1,647384,220966,1198337,66608,7858,598278,0
1,-1,642085,219937,1208457,66193,7889,603425,0
1,-1,642480,219656,1390027,65849,8278,695005,0
1,-1,641026,218517,1278951,65458,7821,639059,0
1,-1,641321,219466,1300775,65787,7426,650015,0
1,-1,644720,221228,1274152,66689,7314,636294,0
1,-1,646501,220511,1163592,66377,8001,581047,0
1,-1,645548,220756,1198055,66374,7896,598411,0
1,-1,660541,223222,1291746,68870,8302,645431,0
1,-1,641247,218733,1266790,65557,7988,632929,0
1,-1,639228,219427,1186223,65837,7279,592634,0
1,-1,641015,219364,1273060,65802,7056,636142,0
1,-1,639349,218916,1195389,65672,7704,597169,0
1,-1,640309,218589,1217541,65575,7446,608326,0
1,-1,663768,224047,1291145,69134,8536,645088,0
1,2,727473,252214,1469212,77244,10316,734096,0
1,-1,640075,218862,1302576,65613,7351,650895,0
1,-1,639498,218923,1271532,65634,6997,635397,0
1,-1,662263,223874,1463448,69040,8899,731051,0
1,-1,639996,218316,1152442,65411,7538,575551,0
1,-1,640985,218225,1304281,65372,7931,651720,0
1,-1,639756,218724,1371644,65554,7399,685177,0
1,2,707976,247802,1312420,74054,8255,655657,0
1,-1,642266,218696,1258450,65560,8167,628667,0
1,-1,643255,218514,1407088,65450,7805,703016,0
1,-1,640508,219318,1286686,65822,7177,642866,0
1,-1,641069,219187,1235289,65795,7382,617064,0
1,-1,641574,218798,1314225,65603,7596,656586,0
1,-1,645236,220677,1197726,66542,6993,597958,0
1,-1,643305,218880,1282925,65620,7225,641032,0
1,-1,638972,218919,1335251,65626,7046,667127,0
1,-1,661849,223380,1249410,68937,8176,624215,0
1,-1,642188,218939,1184982,65657,6682,591925,0
1,-1,647568,219685,1406522,65846,7502,702757,0
1,-1,647324,220587,1223429,66336,6795,610964,0
1,2,705381,248470,1371528,74231,9718,685184,0
1,-1,642572,218537,1259571,65454,6578,629373,0
1,-1,646296,218898,1331378,65531,6526,665198,0
1,-1,639517,221147,1182862,66085,7005,590680,0
1,-1,641965,221991,1231427,66446,7081,614923,0
1,-1,633148,218805,1308214,65086,7941,653680,0
1,-1,656701,223439,1262014,68467,7780,630358,0
1,-1,632809,218236,1176091,64871,7244,587778,0
1,-1,639530,220149,1181366,65785,6629,589614,0
1,-1,655435,223225,1344410,68375,8621,671634,0
1,2,709625,248820,1383952,74353,10500,691368,0
1,-1,635318,218988,1322683,65208,7751,660802,0
1,-1,638075,219502,1349920,65318,8087,674330,0
1,-1,635064,218959,1190613,65155,7512,594650,0
1,-1,635301,218740,1272116,65135,7611,635737,0
1,-1,640370,219053,1325919,65263,7714,662490,0
1,-1,637880,218988,1210608,65310,7369,604846,0
1,-1,636041,219089,1178985,65396,7139,589059,0
1,-1,643306,221186,1138409,66311,7100,568316,0
1,-1,637900,219009,1172959,65389,7015,585916,0
1,-1,638195,219151,1327378,65397,7637,663058,0
1,-1,655718,223364,1442040,68494,9158,720504,0
1,-1,636949,218756,1328450,66049,8646,663785,0
1,-1,641324,219873,1333088,66415,8372,666099,0
1,2,718638,250286,1312728,75113,8737,655506,0
1,-1,640827,219520,1360465,66365,8952,679708,0
1,-1,640541,219407,1372631,66295,8870,685796,0
1,-1,640933,218940,1372900,66157,8570,685927,0
1,-1,644311,219772,1286028,66665,8384,642064,0
1,-1,639088,218485,1196230,65990,7614,597637,0
1,-1,637467,218902,1233261,66144,7625,616041,0
1,-1,638326,218973,1325316,66202,8521,662157,0
1,2,708905,248232,1415035,73985,9600,707090,0
1,-1,638847,219210,1283147,66294,8061,641087,0
1,-1,637800,218872,1162431,66127,7385,580816,0
1,-1,639431,218843,1345606,66085,7536,672383,0
1,-1,636645,218316,1214553,65951,7828,606896,0
1,-1,658669,222704,1322941,69248,7901,660989,0
1,-1,639806,219286,1271318,66279,7272,635185,0
1,2,710607,248783,1505203,74194,9714,752122,0
1,-1,661085,223490,1452686,69482,8534,725830,0
1,-1,640494,218659,1422832,66039,7791,710947,0
1,-1,641667,218473,1215968,66034,7757,607450,0
1,-1,639376,219422,1301301,66312,8071,650119,0
1,-1,639795,218863,1180641,66123,7352,589795,0
1,-1,640309,218864,1245146,66166,7564,622074,0
1,-1,639900,218415,1263707,66007,7914,631357,0
1,-1,640376,218921,1275145,66184,7674,637174,0
1,-1,640825,218672,1274150,66036,6836,636614,0
1,-1,639123,219164,1214867,66203,7800,607103,0
1,-1,661788,223699,1345816,69532,8629,672382,0
1,-1,640968,218139,1283016,65910,7743,641050,0
1,-1,643037,219130,1333980,66245,7626,666433,0
1,-1,641168,218905,1366222,66067,7901,682595,0
1,2,710505,248981,1413515,74377,10444,706294,0
1,-1,642454,219103,1315152,66165,7677,656984,0
1,-1,648476,220621,1270900,66994,7307,634776,0
1,-1,638064,219328,1205954,66218,8014,602584,0
1,-1,638850,218792,1263256,66146,8708,631086,0
1,-1,642517,220724,1199304,67030,7751,598882,0
1,-1,640845,218739,1191273,66078,7991,595171,0
1,-1,639613,219554,1234272,66379,7662,616607,0
1,-1,639236,218276,1355562,65832,7587,677351,0
1,-1,642307,219806,1210479,66653,7092,604510,0
1,-1,640327,219186,1276760,66266,8067,637999,0
1,-1,638553,218559,1263709,65957,7497,631264,0
1,-1,642824,220024,1258189,66678,7452,628358,0
1,-1,644154,219472,1210723,66396,7547,604885,0
1,2,714173,248686,1647370,74278,10395,822972,0
1,-1,637533,218964,1170243,66184,7015,584671,0
1,-1,639446,218314,1153103,65835,7081,576102,0
1,-1,639012,219337,1253317,66272,6988,626215,0
1,-1,639698,219048,1240597,66249,6551,619807,0
1,-1,637602,218282,1281592,65920,7643,640281,0
1,-1,645127,220754,1233198,67036,7558,615848,0
1,2,719314,250256,1314541,75020,9840,656628,0
1,-1,639989,219241,1218792,66193,7365,608993,0
1,-1,638813,217969,1238421,65817,6482,618810,0
1,-1,637729,218199,1201286,65904,6272,600295,0
1,-1,645061,219811,1275466,66477,7454,637223,0
1,-1,641807,218920,1307336,66074,7778,653129,0
1,-1,641128,220467,1120997,66931,8090,559652,0
1,2,712090,249387,1578714,74439,9792,788878,0
1,-1,639218,219213,1140718,66180,6771,569829,0
1,-1,638375,218949,1192355,66100,7006,595720,0
1,-1,639428,218969,1197811,66180,6592,598470,0
1,-1,635344,218156,1233371,65848,8126,616221,0
1,-1,658437,222910,1492031,69252,8731,745582,0
1,-1,644273,219591,1221305,66253,8413,610120,0
1,-1,642085,219838,1164683,66246,6511,581842,0
1,-1,641263,219294,1177683,66152,6979,588365,0
1,2,714340,250734,1421075,75047,9543,709735,0
1,-1,639851,218872,1297838,65959,7685,648497,0
1,-1,640145,218176,1172865,65847,7108,586015,0
1,-1,642646,218827,1279037,65967,8394,639066,0
1,-1,642764,218219,1176656,65807,7947,587903,0
1,-1,640130,219344,1225699,66147,8173,612401,0
1,-1,641336,219214,1274283,66109,7583,636675,0
1,-1,647134,221294,1203056,67121,7586,600695,0
1,-1,642727,219320,1285565,66100,7911,642099,0
1,-1,662413,223644,1349397,69328,8525,674156,0
1,-1,666437,223560,1302423,69301,9266,650642,0
1,-1,642821,219716,1179666,66269,7243,589393,0
1,-1,642584,219666,1292271,66293,7784,645661,0
1,2,712208,249246,1458923,74425,9160,728849,0
1,-1,643856,219241,1355847,66073,7875,677483,0
1,-1,641569,218546,1399538,65921,8165,699416,0
1,-1,646473,220627,1169333,66830,7418,583993,0
1,2,710996,248789,1277744,74286,8510,638199,0
1,-1,646370,219240,1173834,66123,7687,586255,0
1,-1,657810,223657,1423508,69416,9092,711206,0
1,-1,638827,220415,1191631,66748,7477,595093,0
1,-1,639482,219059,1357094,66250,8376,678085,0
1,-1,642393,220459,1511826,66592,8461,755507,0
1,-1,642519,219922,1232642,66545,7548,616239,0
1,-1,642954,219279,1318461,66333,7513,658849,0
1,2,712653,249310,1356633,74551,8490,677805,0
1,-1,642630,221014,1233735,67062,7756,616175,0
1,-1,643560,220510,1227027,66562,7473,613052,0
1,-1,647428,221175,1243195,67122,7932,620843,0
1,-1,643406,220471,1280610,66915,7644,639525,0
1,-1,644089,220333,1535869,66740,9641,767428,0
1,-1,666681,224624,1338501,69987,8545,668722,0
1,-1,643730,220345,1569967,66781,9093,784430,0
1,-1,642381,220485,1334236,66697,8059,666593,0
1,-1,666140,225036,1395459,69921,9869,697150,0
1,-1,646064,220220,1356928,66537,8693,677913,0
1,-1,642907,220157,1306436,66571,8359,652020,0
1,-1,644135,219983,1250027,66511,8048,624428,0
1,-1,667699,224738,1361116,69852,9247,679933,0
1,-1,646541,221113,1383808,66895,8549,691495,0
1,2,716615,249937,1297122,74582,8811,648047,0
1,-1,647885,220919,1254699,66815,8303,626691,0
1,-1,647832,220451,1201488,66615,7771,600287,0
1,-1,639119,219208,1275455,66214,7439,637209,0
1,-1,642743,220239,1362518,66607,7549,680805,0
1,2,731349,253633,1381840,77536,9982,690518,0
1,-1,643323,220765,1205989,66907,7594,602379,0
1,-1,641720,219872,1313333,66496,8106,656194,0
1,-1,643802,219905,1296773,66366,7753,647971,0
1,-1,646257,220808,1171041,66822,7472,584871,0
1,-1,644815,221113,1373592,66760,7857,686403,0
1,2,712108,248302,1444087,74304,9681,721559,0
1,-1,644394,220479,1308811,66516,8119,653946,0
1,-1,668152,225598,1359873,69997,8716,679430,0
1,-1,642339,219800,1331948,66208,8046,665523,0
1,-1,648604,221304,1271822,66718,8445,635487,0
1,-1,645813,220517,1144558,66443,6930,571743,0
1,-1,645492,221891,1238102,67221,8289,618332,0
1,-1,642900,220358,1325109,66512,7329,662041,0
1,-1,664671,224404,1364284,69637,8596,681780,0
1,-1,644556,219265,1381367,66171,8281,690134,0
1,-1,640675,219134,1206516,66113,8089,602763,0
1,2,708481,248537,1352593,74395,8746,675748,0
1,-1,644083,219843,1266056,66370,8518,632583,0
1,-1,640922,219007,1291892,66073,7292,645530,0
1,-1,644877,219845,1383152,66418,8456,691002,0
1,-1,644003,219019,1248965,66091,7842,624066,0
1,-1,649482,220676,1190000,66651,7728,594452,0
1,-1,641100,220624,1249390,66844,8608,623819,0
1,-1,642729,219888,1152980,66359,8446,576017,0
1,-1,637235,218687,1233749,65893,7584,616443,0
1,-1,640678,220029,1319591,66399,8620,659337,0
1,2,730420,253200,1425676,77635,9043,712434,0
1,-1,644345,220884,1231948,66905,7337,615325,0
2,-1,713285,241663,1281677,73963,8239,640427,0
2,-1,693920,237319,1278621,70765,8028,638859,0
2,-1,695053,237995,1379800,71021,8031,689404,0
2,-1,695005,237646,1282137,70844,8596,640683,0
2,-1,715863,242011,1352055,74083,9124,675468,0
2,2,761021,267274,1386557,78995,7971,692762,0
2,-1,711010,242361,1284897,74138,8342,641886,0
2,-1,690133,237257,1256223,70702,7072,627498,2
2,-1,712792,241824,1364225,73968,8635,681584,0
2,-1,674634,231674,1220553,68984,6930,609820,0
2,-1,636606,218142,1176261,65507,6719,587597,0
2,-1,642107,220011,1288190,66349,7597,643435,0
2,2,708189,248352,1308899,73767,8174,653767,0
2,-1,640604,218752,1342553,65526,9083,670713,0
2,-1,637820,218796,1185578,65641,6960,592315,0
2,-1,638603,219040,1264873,65715,6862,632013,0
2,-1,644548,220317,1338527,66357,7949,668609,0
2,-1,637863,218659,1268610,65603,6944,633826,0
2,2,703977,248060,1393238,73641,8804,696154,0
2,-1,640167,218825,1168509,65665,6557,583766,0
2,-1,641769,218840,1279945,65728,8041,639545,0
2,-1,643338,219527,1259823,65897,7073,629410,0
2,-1,635487,218924,1263602,65807,7469,631415,0
2,-1,635482,218065,1109330,65570,6658,554165,0
2,-1,639394,220110,1207372,66397,7472,602980,0
2,-1,638425,218765,1259743,65690,7316,629330,0
2,-1,637568,218752,1264262,65805,7026,631595,0
2,-1,635759,218927,1266424,65725,6786,632816,0
2,-1,638122,219250,1192535,65906,7099,595756,0
2,-1,639302,218991,1156077,65880,7691,577452,0
2,-1,636480,218608,1183821,65642,7296,591265,0
2,2,705483,248077,1334437,73699,9227,666632,0
2,-1,639435,218900,1312373,65704,8046,655440,0
2,-1,637256,218251,1315970,65535,7905,657198,0
2,-1,640273,219139,1326596,65860,7717,662761,0
2,-1,633632,218554,1377561,65696,8144,688284,0
2,-1,636980,218709,1278974,65769,8440,638904,0
2,-1,636187,218823,1261899,65728,8027,630634,0
2,-1,638532,218958,1313441,65814,7620,655895,0
2,-1,658601,223130,1287561,69054,7929,643414,0
2,-1,640553,218331,1207084,65628,7906,602977,0
2,-1,638070,218799,1280016,65826,6712,639598,0
2,-1,639355,219444,1272421,65917,7089,635588,0
2,2,732727,253789,1447183,77328,9669,723077,0
2,-1,640295,219155,1304308,65946,6634,651569,0
2,-1,648410,222115,1401618,67261,8277,699877,0
2,-1,647181,220964,1298063,66683,7351,648389,0
2,-1,663215,223653,1203223,69001,8536,601029,0
2,-1,661141,223541,1244883,69028,7917,621989,0
2,-1,637886,219148,1267178,65896,7679,633067,0
2,-1,645736,221833,1297649,66925,7882,647938,0
2,-1,639255,219007,1308790,65729,7570,653915,0
2,-1,647724,222262,1333226,67083,7931,665684,0
2,-1,644235,220261,1151523,66147,6971,575315,0
2,-1,644458,220446,1326390,66358,7707,662458,0
2,-1,643558,221077,1293512,66649,7823,645970,0
2,2,711638,248550,1447322,74053,9800,723142,0
2,-1,640189,219184,1204932,65740,6897,601980,0
2,-1,643018,220618,1403924,66503,8118,701068,0
2,-1,640354,218685,1169274,65676,7022,584110,0
2,-1,639162,219024,1184800,65800,7144,591850,0
2,-1,640749,218678,1212716,65708,6823,605990,0
2,-1,645391,219015,1327272,65903,7306,663063,0
2,-1,644264,221332,1312636,66992,7701,655599,0
2,-1,641195,219083,1263400,65950,7813,631212,0
2,-1,642066,219797,1217539,66224,7519,608200,0
2,-1,644975,220834,1314347,66819,7705,656298,0
2,-1,663986,223533,1214357,69249,7771,606859,0
2,-1,642562,219775,1264293,66206,7841,631575,0
2,-1,639680,218882,1264444,65861,7669,631742,0
2,-1,642320,219211,1336401,65986,7454,667695,0
2,-1,644570,220331,1239616,66530,8180,618971,0
2,2,706512,248691,1314408,74078,8555,656642,0
2,-1,647736,220749,1322234,66814,8130,660091,0
2,-1,643679,219238,1263470,66034,7367,631240,0
2,-1,637539,219062,1187531,65966,6308,593207,0
2,-1,638471,220674,1315808,66778,7873,657048,0
2,-1,656370,223961,1256105,69361,8211,627627,0
2,-1,636580,219177,1187244,65984,7939,593149,0
2,-1,635193,218996,1308592,65980,7872,653739,0
2,-1,634208,218961,1305665,65906,7635,652372,0
2,-1,638405,218899,1268979,65902,7572,633828,0
2,2,708818,248398,1449016,73869,9896,724053,0
2,-1,633573,218717,1427240,65880,7747,712840,0
2,-1,633717,217998,1227347,65669,6854,613085,0
2,-1,638163,220299,1414153,66597,8002,706172,0
2,-1,633926,218424,1270519,65657,7247,634698,0
2,-1,657766,223542,1231971,69161,7306,615499,0
2,2,706002,248352,1471286,73824,8320,735215,0
2,-1,637903,219112,1175944,65932,7025,587484,0
2,-1,639789,219160,1246328,66026,7398,622535,0
2,-1,656613,223654,1190062,69228,9001,594491,0
2,-1,637019,219515,1190185,66130,6885,594553,0
2,-1,637332,219395,1236684,66001,7142,617880,0
2,-1,638914,218945,1261730,65886,6456,630494,0
2,-1,640792,220738,1335495,66768,7215,666835,0
2,2,717098,250664,1446413,74900,9362,722467,0
2,-1,637767,219168,1329643,65921,7673,664397,0
2,-1,639365,219228,1300099,65970,7246,649639,0
2,-1,640171,220007,1302082,66132,7378,650584,0
2,-1,640501,220535,1302006,66371,6795,650435,0
2,-1,642130,219926,1266464,66156,7045,632747,0
2,-1,662291,224142,1370309,69317,7958,684867,0
2,-1,666991,225509,1204231,70254,8157,601439,0
2,-1,641842,219766,1154253,66122,7327,576646,0
2,-1,638980,220553,1307275,66544,7322,652983,0
2,-1,642122,221224,1334143,66797,7142,666177,0
2,-1,639616,219524,1303340,65911,7190,651216,0
2,-1,637987,219293,1213713,65945,7428,606471,0
2,2,706766,248764,1389074,74036,9235,694352,0
2,-1,642620,221160,1299546,66843,7625,648972,0
2,-1,639729,219496,1270472,65971,7178,634824,0
2,-1,638940,220184,1176014,66227,6445,587565,0
2,2,712621,249924,1468250,74353,9438,733537,0
2,-1,638439,219177,1180365,65866,6933,589816,0
2,-1,640554,219361,1234127,65993,7089,616541,0
2,-1,638211,218875,1158378,65799,7223,578424,0
2,2,710305,248924,1629187,74011,9403,813219,0
2,-1,641226,219448,1225919,65951,8020,612505,0
2,-1,641430,219438,1308491,65992,7645,653668,0
2,-1,639684,220684,1293137,66582,7690,645796,0
2,-1,639687,219272,1271358,65896,8476,635300,0
2,-1,639061,219673,1288985,66071,7340,643845,0
2,-1,642365,221129,1212680,66844,7464,605445,0
2,-1,663051,223894,1241393,69249,8312,620065,0
2,-1,638855,220133,1323963,66160,7961,661484,0
2,-1,660849,224494,1410170,69435,7954,704553,0
2,2,707406,248229,1323170,73851,8188,661133,0
2,-1,639320,219382,1259958,65882,7745,629395,0
2,-1,644078,219748,1186089,66083,7850,592584,0
2,-1,640179,219144,1201616,65908,6928,600146,0
2,-1,640939,219287,1189505,65926,7430,594255,0
2,-1,662966,223622,1360320,69126,9016,679717,0
2,-1,637485,220265,1394657,66241,7759,696861,0
2,-1,638218,219520,1218739,66030,7354,608821,0
2,2,709235,249327,1432296,74029,8958,715745,0
2,-1,641587,220610,1217722,66390,7068,608352,0
2,-1,637020,219295,1301649,65980,7616,650148,0
2,-1,638019,218585,1251775,65754,6974,625396,0
2,-1,642232,219956,1258108,66085,7298,628626,0
2,-1,641476,220971,1278350,66786,7405,638319,0
2,-1,639309,219506,1154333,66034,7084,576635,0
2,2,709196,249076,1315732,73983,9242,657390,0
2,-1,641561,220029,1259112,66151,7856,629083,0
2,-1,644914,221047,1353941,66798,8361,675891,0
2,-1,639127,219529,1418255,66041,7447,708646,0
2,-1,639684,219192,1264993,65945,7698,631847,0
2,-1,636144,219388,1205284,65914,7618,602176,0
2,-1,641854,219994,1338581,66190,7822,668577,0
2,-1,640645,219508,1287444,66024,8245,643204,0
2,-1,640651,220418,1284474,66519,7748,641498,0
2,-1,640079,219273,1203566,65946,6563,601331,0
2,-1,640457,219447,1149910,66011,7373,574420,0
2,-1,638319,219462,1181888,65988,6924,590486,0
2,-1,639498,219479,1214852,65973,6804,606970,0
2,-1,642428,220023,1313946,66162,7405,656510,0
2,-1,638630,219249,1179153,65919,6855,589103,0
2,-1,641918,219545,1215379,65991,6828,607184,0
2,2,711935,249699,1460367,74096,10102,729529,0
2,-1,639739,218967,1215425,65783,6678,607249,0
2,-1,641030,218691,1303813,65725,7877,651385,0
2,-1,645364,219756,1206615,66047,7991,602492,0
2,-1,636047,219090,1285774,65914,6999,642460,0
2,-1,641016,220692,1370589,66438,7122,684587,0
2,-1,641232,219392,1275896,65773,7929,637466,0
2,-1,637403,219104,1289185,65719,7109,644112,0
2,-1,637679,219103,1292625,65728,6786,645869,0
2,-1,638446,219329,1226055,65766,7024,612645,0
2,-1,640796,219215,1199957,65725,7852,599518,0
2,-1,636316,218970,1288935,65634,7393,644057,0
2,-1,646013,221762,1361635,66963,7948,679871,0
2,-1,661135,224125,1284806,69158,8394,641929,0
2,-1,637700,218809,1225186,65570,7108,612000,0
2,-1,642527,219709,1302552,65995,7948,650681,0
2,2,716135,250018,1420758,74506,10037,709760,0
2,-1,666848,225131,1264481,70008,9205,631643,0
2,-1,665172,224013,1275063,69132,8871,636907,0
2,-1,639960,219348,1351154,65775,7921,675125,0
2,-1,640696,219662,1201965,65982,7490,600453,0
2,-1,642416,219568,1226491,66004,7309,612550,0
2,-1,642435,219992,1296198,66108,8417,647505,0
2,-1,644127,219919,1345644,66007,8372,672063,0
2,-1,645258,220357,1207711,66254,7362,603348,0
2,-1,644967,221353,1303362,66563,8278,650897,0
2,-1,644744,219908,1380069,66148,8094,689753,0
2,-1,646778,220551,1294179,66307,7763,646614,0
2,2,713641,249918,1400147,74636,9193,699225,0
2,-1,647203,220776,1236993,66305,8303,617718,0
2,-1,645177,220509,1291814,66094,8431,645346,0
2,-1,647112,220477,1207359,66103,7719,603232,0
2,-1,645666,220850,1298191,66212,7749,648588,0
2,-1,638498,219664,1258663,65830,8076,628674,0
2,-1,640912,221023,1412712,66304,8604,705864,0
2,2,719389,251076,1448998,74760,9535,723775,0
2,-1,643633,221333,1431557,66467,9614,715119,0
2,-1,641209,220562,1355004,66161,8518,676567,0
2,-1,640172,219905,1365585,65895,8784,682273,0
2,-1,666122,225704,1221222,69635,9004,610249,0
2,-1,644384,220169,1323292,65915,8054,661247,0
2,2,713245,248380,1403195,73569,9136,701119,0
2,-1,645843,221541,1357711,66747,7866,678054,0
2,-1,640826,219882,1299736,65999,7592,649396,0
2,-1,664590,224215,1300601,69200,8902,649580,0
2,-1,643822,219841,1254618,66030,8286,626938,0
2,-1,645330,220180,1290996,66030,8418,644855,0
2,-1,639863,219443,1479143,65797,7993,738986,0
2,-1,646486,222304,1306467,67040,7635,652475,0
2,-1,646677,221316,1296577,66453,8087,647788,0
2,-1,640477,219570,1208631,65965,7442,603862,0
2,-1,643234,219203,1305907,65802,8051,652558,0
2,-1,662337,224722,1239915,69445,8121,619449,0
2,-1,640082,219228,1188635,65771,6893,593930,0
2,2,710717,248009,1404934,73557,9464,702051,0
2,-1,639167,218913,1375440,65668,7686,687359,0
2,-1,635614,218016,1264412,65396,7619,631873,0
2,-1,641521,219076,1278372,65818,7285,638682,0
2,-1,644003,219945,1318937,66138,7402,659058,0
2,-1,646662,220553,1270125,66537,7777,634332,0
2,-1,657788,223996,1368852,69251,7739,683861,0
2,-1,637089,219020,1323645,65816,7599,661393,0
2,-1,642016,220390,1346062,66513,8073,672293,0
2,2,709907,248346,1367198,73674,9392,683095,0
2,-1,640209,219779,1199901,65939,7648,599336,0
2,-1,639850,219075,1287853,65781,7094,643268,0
2,-1,640804,219117,1294323,65726,8108,646576,0
2,-1,637648,218580,1194161,65556,7708,596542,0
2,-1,637929,218900,1295918,65713,8330,647565,0
2,-1,642668,219101,1210024,65848,8032,604591,0
2,-1,639898,218829,1281644,65695,7444,640368,0
2,2,708230,247815,1310392,73490,8795,654766,0
2,-1,640441,218603,1315850,65691,8185,657474,0
2,-1,643480,219585,1333300,66025,7532,666147,0
2,-1,638540,219145,1258044,65798,6861,628595,0
2,-1,641500,219375,1141906,65893,7618,570396,0
2,-1,641399,218958,1200332,65705,7356,599698,0
2,-1,643811,220729,1356687,66537,7880,677549,0
2,-1,646411,220161,1297806,66129,8542,648415,0
2,-1,644717,219624,1296773,65890,7823,647873,0
2,-1,642008,219201,1144265,65663,7904,571654,0
2,-1,646114,221567,1233980,66591,7794,616285,0
2,-1,645057,219879,1198245,65850,7380,598578,0
2,-1,645093,219715,1292697,65819,7825,645880,0
2,-1,644741,219850,1170683,65872,7646,584836,0
2,2,714385,249042,1460718,73931,9444,729856,0
2,-1,645254,219826,1178246,65739,7197,588656,0
2,-1,637738,219177,1123456,65556,7361,561293,0
2,-1,642870,220405,1181516,65994,7769,590347,0
2,-1,640102,219570,1207460,65774,7108,603281,0
2,-1,641536,219351,1370436,65670,8483,684611,0
2,-1,641880,220567,1393944,66284,8533,696282,0
2,-1,643127,220753,1214127,66462,7806,606230,0
2,2,702011,248395,1399748,73287,9259,699137,0
2,-1,639490,220093,1372986,66034,8417,685972,0
2,-1,640015,218966,1279315,65727,8113,638942,0
2,-1,640652,219305,1267739,65796,8119,633212,0
2,-1,643653,220045,1246274,66231,7738,622515,0
2,-1,641416,218702,1175404,65625,7720,587247,0
2,-1,659082,223976,1312020,69111,8588,655428,0
2,-1,641466,220072,1260907,66247,7419,629676,0
2,2,709866,249048,1441903,73434,8446,720550,0
2,-1,641014,219266,1296121,65797,7808,647616,0
2,-1,663987,224046,1252807,69116,9387,625481,0
2,-1,639375,219152,1207600,65744,7817,603206,0
2,-1,641839,218568,1315637,65518,8768,657389,0
2,-1,641240,218935,1165187,65689,7091,582112,0
2,-1,637988,218848,1370526,65677,7401,684620,0
2,-1,639814,218438,1216129,65483,7665,607616,0
2,-1,642045,219207,1226515,65790,7879,612732,0
2,-1,641359,219127,1177522,65740,7829,588328,0
2,-1,643999,219623,1281121,65906,8439,639896,0
2,-1,644737,219266,1285393,65802,7336,642212,0
2,-1,637293,218924,1275315,65571,7898,637240,0
2,-1,638620,218782,1176681,65599,6865,587899,0
2,-1,636950,218163,1132642,65384,6938,565932,0
2,-1,639188,218118,1275271,65357,7828,637171,0
2,-1,639515,219154,1289228,65735,7272,644090,0
2,2,705849,248012,1388389,74082,9669,693748,0
2,-1,688526,232812,1371218,71699,8335,685240,0
2,-1,642561,220878,1215054,66576,7416,606739,0
2,-1,640444,219530,1357304,65855,7477,677875,0
2,-1,639611,218762,1234053,65620,7871,616530,0
2,-1,642828,219134,1191923,65753,7070,595475,0
2,2,710997,248015,1393976,74047,9402,696572,0
2,-1,647325,220987,1294807,66581,7568,646552,0
2,-1,646867,220553,1235206,66400,7066,616559,0
2,-1,642599,218916,1281345,65694,7268,640244,0
2,-1,644867,220870,1307269,66512,6862,652879,0
2,-1,638375,218473,1177941,65511,7311,588467,0
2,-1,641557,218671,1208380,65600,7183,603621,0
2,-1,641124,219469,1243507,65816,6675,621213,0
2,-1,642752,218764,1172804,65598,7039,585721,0
2,-1,649106,220765,1201027,66551,7431,599766,0
2,-1,640998,218189,1195985,65422,7126,597550,0
2,-1,643899,220057,1201333,66187,6748,599684,0
2,-1,643226,219480,1272227,65748,6852,635713,0
2,-1,643447,218957,1269814,65548,6983,634348,0
2,2,704884,248255,1409972,74129,9591,704629,0
2,-1,667467,223512,1419930,68900,8338,709437,0
2,-1,644280,218819,1225264,65590,6253,612082,0
2,-1,637731,221199,1212208,66148,6874,605243,0
2,-1,654281,223533,1318535,68476,8040,658853,0
2,-1,651966,222923,1303590,68298,8969,651310,0
2,-1,633894,218808,1358881,65103,7708,678966,0
2,-1,632906,218598,1118962,65112,7183,559004,0
2,-1,657378,223611,1375863,68503,7501,687498,0
2,2,709937,248312,1372579,74223,8998,685824,0
2,-1,634415,219255,1270717,65255,7936,634809,0
2,-1,637157,219440,1344936,65261,7855,672199,0
2,-1,636326,219217,1351443,65279,7826,675143,0
2,-1,635464,219325,1277608,65266,8588,638195,0
2,2,728057,252475,1477408,77382,10221,738148,0
2,-1,642740,221147,1225404,66304,7342,611728,0
2,-1,656719,223280,1432885,68376,8732,715923,0
2,-1,654649,223470,1459866,68488,8494,729433,0
2,-1,635987,218621,1192143,65202,7410,595625,0
2,-1,636623,218877,1132632,65247,6508,565898,0
2,-1,635360,218763,1278465,65235,7481,638735,0
2,-1,634665,218292,1213880,65021,7645,606350,0
2,-1,638026,219689,1484571,65546,8037,741162,0
2,-1,641041,219675,1280114,66394,8536,639601,0
2,-1,642159,220700,1277651,67035,8648,637939,0
2,-1,644010,220389,1221176,66862,8314,609560,0
2,-1,643838,219296,1516634,66229,9063,757829,0
2,2,711323,249619,1297973,74783,9230,648302,0
2,-1,645176,221043,1295347,67173,8726,647046,0
2,-1,640385,218477,1216863,65976,8022,607962,0
2,-1,644248,219374,1334470,66252,8290,666737,0
2,-1,638251,219448,1152824,66411,8232,575865,0
2,-1,637419,218453,1249134,65981,8304,624026,0
2,-1,641262,220591,1185329,66923,7710,591999,0
2,-1,644649,220322,1209073,66759,7724,603875,0
2,-1,638986,218473,1277721,65985,6883,638511,0
2,-1,638091,219056,1185847,66173,6983,592447,0
2,2,716273,249529,1251724,74675,8851,625274,0
2,-1,638952,219062,1202564,66257,7045,600812,0
2,-1,639174,219176,1267206,66209,7738,633054,0
2,-1,640739,220162,1213105,66668,6784,605783,0
2,-1,637482,218358,1199356,65931,6760,599300,0
2,-1,645250,220402,1229677,66840,6996,614113,0
2,-1,639546,219563,1258787,66395,7618,628895,0
2,-1,642533,219887,1297172,66399,8016,648107,0
2,-1,637597,218231,1167341,65905,6938,583212,0
2,-1,641475,219309,1200426,66297,7703,599706,0
2,-1,646272,221689,1182249,67403,6745,590490,0
2,-1,641665,219367,1214953,66332,6876,607031,0
2,-1,675027,229814,1232183,69739,7911,615440,0
2,-1,640153,219030,1180375,66250,7733,589690,0
2,2,706502,248382,1402677,74114,9735,700898,0
2,-1,641542,219011,1212110,66193,7158,605518,0
2,-1,641530,218584,1283289,65964,7380,641118,0
2,-1,640324,219244,1276683,66234,7052,637797,0
2,-1,644718,220063,1215003,66731,7029,606825,0
2,-1,641299,218651,1270519,66036,7632,634802,0
2,-1,636694,219257,1275305,66276,8539,637220,0
2,-1,637496,218608,1269782,66000,8647,634392,0
2,-1,659258,223467,1357617,69489,9239,678376,0
2,-1,636734,218274,1309985,65883,7944,654583,0
2,-1,637783,218998,1155339,66171,7084,577155,0
2,-1,646624,221418,1248988,67226,7536,623772,0
2,-1,660533,223496,1446236,69462,8691,722554,0
2,-1,638082,218266,1560633,65853,8947,779908,0
2,2,709436,248629,1453590,74260,9849,726349,0
2,-1,658964,223391,1366707,69428,9134,682848,0
2,-1,639324,218841,1241163,66060,7313,620246,0
2,-1,640477,218234,1301780,65921,7526,650541,0
2,-1,636460,218739,1312160,66076,7881,655679,0
2,-1,644410,221030,1145046,67090,7829,571729,0
2,-1,640504,219766,1293150,66369,8198,646114,0
2,-1,639748,218809,1248538,66080,7329,623835,0
2,-1,640748,218446,1274602,65984,8365,636748,0
2,-1,640018,218530,1181111,66007,6930,590164,0
2,2,714820,249157,1600993,74419,9956,799888,0
2,-1,659545,223508,1320800,69455,7867,659907,0
2,-1,659067,223219,1226597,69289,7936,612849,0
2,2,714061,249750,1313796,74679,8479,656431,0
2,-1,639419,219152,1242012,66231,7186,620567,0
2,-1,642234,218921,1366936,66094,7804,682803,0
2,-1,643335,219281,1225110,66236,7054,612129,0
2,-1,645416,218911,1197569,66165,7589,598323,0
2,-1,639357,219019,1226587,66154,7811,612764,0
2,-1,637991,218947,1290327,66054,7153,644669,0
2,-1,636564,217886,1284406,65719,6610,641855,0
2,-1,642420,219242,1353860,66180,7256,676468,0
2,-1,641141,219089,1337195,66228,7995,668051,0
2,-1,645657,219971,1390562,66303,8686,695135,0
2,-1,658772,223332,1251874,69294,9332,625398,0
2,-1,642728,219538,1259784,66194,7786,629381,0
2,2,712066,248474,1451628,74088,10004,725254,0
2,-1,643227,218564,1207972,65861,7099,603616,0
2,-1,643537,219828,1281932,66472,7481,640480,0
2,-1,663204,223268,1446140,69338,8338,722516,0
2,-1,643152,218827,1182287,65977,7269,590728,0
2,-1,642405,220794,1164549,66941,7931,581491,0
2,-1,636944,218066,1210199,65713,7027,604720,0
2,-1,661244,223499,1376658,69300,8782,687881,0
2,-1,643543,220338,1282017,66656,8011,640376,0
2,-1,643468,218523,1331573,65844,7708,665411,0
2,-1,645796,220080,1195019,66392,7805,596973,0
2,-1,672618,229503,1354312,69180,6793,676698,0
2,2,715241,251072,1472934,75277,10078,735637,0
2,-1,643987,219371,1339636,66180,7344,669325,0
2,-1,644585,219627,1223741,66215,7110,611426,0
2,-1,643826,219120,1266731,65934,8193,632832,0
2,-1,663406,223558,1260863,69315,9260,630003,0
2,2,736689,257864,1388735,76889,8706,693878,0
2,-1,644463,219208,1219008,66103,7763,609072,0
2,-1,637969,219767,1288757,66323,7551,643927,0
2,-1,636164,218211,1161578,65724,7170,580372,0
2,-1,643648,220346,1387117,66895,8884,692680,0
2,-1,637815,219139,1326284,66134,8043,662750,0
2,-1,646125,221850,1187682,67373,8055,592928,0
2,2,712820,249620,1372246,74471,8776,685761,0
2,-1,642144,219525,1255523,66453,7532,627169,0
2,-1,640245,220256,1315296,66609,8431,657175,0
2,-1,643206,220160,1278473,66550,7819,638621,0
2,-1,641106,219065,1294462,66253,8200,646798,0
2,-1,641325,219245,1238989,66255,8126,618963,0
2,-1,666364,224618,1376512,69967,8478,687711,0
2,-1,646163,219654,1306309,66522,7936,652638,0
2,-1,648290,220250,1223264,66709,7670,611150,0
2,2,716553,249902,1383238,74567,8549,691159,0
2,-1,645811,221012,1212566,67147,7384,605599,0
2,-1,643537,220340,1314505,66613,8866,656731,0
2,-1,646520,220407,1264741,66661,8487,631595,0
2,-1,640954,219717,1309175,66337,8760,654086,0
2,-1,647681,221681,1254747,67242,8090,626428,0
2,-1,646083,220584,1442186,66727,8633,720422,0
2,-1,644530,219975,1325067,66462,8591,662087,0
2,-1,646211,220982,1257572,67016,8208,627960,0
2,-1,648516,220708,1252798,66734,9122,625928,0
2,-1,641762,219954,1264048,66514,7979,631156,0
2,-1,641098,219759,1292585,66383,7886,645816,0
2,2,717133,249014,1405425,74331,10807,702002,0
2,-1,641701,220362,1320760,66632,8120,659861,0
2,-1,647135,221888,1229809,67303,7762,614183,0
2,-1,664661,224356,1474301,69703,8969,736602,0
2,-1,644602,219903,1215699,66398,8126,607377,0
2,2,714279,248683,1363693,74382,9723,681294,0
2,-1,646998,222124,1231124,67402,7571,614191,0
2,-1,645067,221204,1256566,66998,7889,627509,0
2,-1,643789,220200,1219518,66463,7486,609247,0
2,-1,643960,220253,1259433,66396,8210,629287,0
2,-1,645192,220158,1373602,66368,8222,686685,0
2,-1,645630,219847,1219605,66159,8519,609231,0
2,-1,645140,219236,1220396,65987,8282,609843,0
2,-1,644931,220650,1177078,66596,7448,588172,0
2,-1,643337,220086,1238613,66413,7904,618712,0
2,-1,647503,220924,1253007,66978,7967,625800,0
2,-1,648282,221685,1241198,67256,7773,619963,0
2,2,731166,252966,1408355,77634,10003,703731,0
2,-1,643591,220125,1282697,66462,8091,640933,0
2,-1,648682,220590,1311416,66613,8115,655271,0
2,-1,642424,219085,1386606,66087,8196,692823,0
2,-1,649687,221776,1231205,67302,8205,614799,0
2,-1,645912,219352,1334074,66199,9050,666515,0
2,-1,638668,219865,1209330,66342,7632,604287,0
2,-1,640248,219344,1208247,66231,8520,603659,0
2,-1,661855,224013,1393314,69529,9429,696141,0
2,2,710058,247962,1421830,73999,9095,710521,0
2,-1,645464,220738,1194223,66873,7991,596440,0
2,-1,641268,219956,1287740,66390,7938,643425,0
2,-1,643381,219928,1173695,66431,7137,586392,0
3,-1,688358,236492,1327731,70440,7395,663523,0
3,-1,698092,238977,1372039,71494,8163,685316,0
3,-1,692151,237352,1283096,70739,7238,641152,0
3,2,768948,268234,1508302,79566,9919,753216,0
3,-1,693826,237260,1357224,70689,8482,678123,0
3,-1,695956,238140,1326878,70978,8255,662959,0
3,-1,692331,237734,1190976,70880,7246,595064,0
3,-1,692523,238468,1355700,71303,7397,677100,0
3,-1,684884,235306,1324104,70106,7153,661601,0
3,-1,638725,219524,1223054,65884,6790,611149,0
3,2,731136,252860,1354710,76939,10542,676761,0
3,-1,639853,218942,1182988,65808,7147,591036,0
3,-1,645075,220884,1263169,66572,8936,630547,0
3,-1,634653,218018,1317539,65297,7594,658337,0
3,-1,637865,218709,1192033,65662,7266,595600,0
3,-1,640470,219008,1265950,65758,7203,632556,0
3,-1,636953,218315,1221246,65466,6856,610154,0
3,2,724359,252476,1422404,76844,9597,710671,0
3,-1,640068,218995,1245131,65658,7189,622162,0
3,-1,643300,220148,1313027,66366,7530,655839,0
3,-1,646863,221184,1357745,66706,8089,678040,0
3,-1,636388,219243,1215287,65867,6744,607256,0
3,-1,634521,219184,1251977,65832,6874,625502,0
3,-1,633361,218498,1239342,65680,6629,619145,2
3,-1,633640,218674,1191342,65746,6820,595144,0
3,-1,639876,219615,1237768,65969,7439,618374,0
3,-1,637432,219107,1235654,65897,7470,617340,0
3,-1,640143,219122,1233324,65772,7212,616097,0
3,-1,639690,219874,1277564,66311,7900,637922,0
3,-1,638270,219018,1234297,65810,6925,616570,0
3,-1,635942,218746,1235758,65776,7330,617288,2
3,-1,636186,217991,1131829,65461,7242,565378,0
3,2,705285,247617,1383803,73604,9468,691067,0
3,-1,636725,218171,1274063,65389,7081,636550,0
3,-1,636311,218239,1272107,65598,7795,635569,0
3,-1,645042,220809,1344090,66681,8352,670829,0
3,-1,642077,218831,1348334,65802,7745,673322,0
3,-1,640286,221091,1274498,66859,8339,635780,2
3,-1,635361,218327,1325120,65622,7577,662046,0
3,-1,634486,218426,1292611,65586,8332,645796,0
3,-1,639409,220058,1282979,66162,8274,640634,2
3,-1,642939,221107,1432194,66819,8592,714300,0
3,-1,639578,219038,1232448,65972,7468,615647,0
3,-1,637523,218690,1291591,65847,8000,645211,2
3,-1,643144,219719,1160886,66113,7545,579932,0
3,2,708580,248566,1350497,73805,8537,674618,0
3,-1,639898,219832,1276653,66402,7133,637419,0
3,-1,639611,219569,1232285,65901,6858,615745,0
3,-1,640537,218916,1338014,65803,7694,668564,0
3,-1,644224,220035,1204745,66162,6976,601853,0
3,-1,641975,219345,1197122,65952,6725,598069,0
3,-1,641379,219434,1154596,65919,6986,576836,0
3,-1,646715,221521,1218633,66850,7891,608388,2
3,-1,643225,218871,1294469,65641,8079,646711,0
3,-1,635518,218648,1280556,65676,7987,639751,0
3,-1,661110,224218,1314019,69223,8453,656536,0
3,-1,641805,220170,1277877,66134,7331,638427,0
3,2,712515,250358,1407993,74801,9223,703220,0
3,-1,643305,220476,1274870,66163,7250,636902,2
3,-1,643028,221095,1320938,66578,8032,659660,0
3,-1,641884,219635,1205564,65917,7737,602277,0
3,-1,642824,219452,1276077,65838,7441,637566,0
3,-1,636715,218958,1347285,65787,7670,673129,0
3,-1,660568,223722,1227458,69112,8127,613168,0
3,-1,639436,219607,1293071,66002,7415,646041,0
3,-1,643812,221133,1277870,66769,7949,638177,2
3,-1,641637,219276,1302596,65886,7804,650797,0
3,-1,641808,219390,1255537,65943,7826,627176,0
3,-1,641818,219717,1139554,66066,6874,569201,2
3,-1,645143,221187,1224637,66805,7429,611356,0
3,-1,648361,221038,1410340,66785,8333,704433,0
3,-1,637546,219593,1263158,66147,7692,631017,2
3,-1,660071,223767,1267983,69313,7927,633351,0
3,-1,640074,219568,1283207,66158,7193,641118,2
3,-1,638388,218523,1180741,65761,7214,589970,0
3,2,704626,248770,1295922,74137,8578,647479,0
3,-1,638032,218510,1203660,65784,7349,601332,0
3,-1,640509,218840,1230265,65914,8338,614497,0
3,-1,645762,220572,1328477,66654,7807,663652,0
3,-1,640251,218985,1273160,65893,7640,636071,0
3,-1,646409,220167,1287390,66489,8236,642895,0
3,-1,640089,218607,1334850,65777,7667,666929,0
3,-1,640578,219056,1216774,66018,7988,607790,2
3,-1,644517,219579,1201434,66146,7969,600125,0
3,-1,665422,223985,1260155,69358,8741,629572,0
3,-1,646293,220566,1305221,66655,8247,651854,0
3,-1,641220,218767,1313950,65866,7629,656459,2
3,-1,645477,219255,1286060,66067,7565,642444,0
3,2,714193,250860,1482036,75124,9038,740068,0
3,-1,655450,223727,1297144,69288,7758,647833,0
3,-1,634852,219521,1282604,66154,8040,640699,0
3,-1,640724,220950,1260232,66796,8317,629308,0
3,-1,638941,221738,1233454,67198,8618,615842,2
3,-1,636008,219377,1220408,66089,7564,609643,0
3,-1,639397,219880,1274347,66238,7765,636558,0
3,-1,636047,219328,1314738,66096,7241,656806,2
3,-1,639471,219440,1209998,66048,7295,604592,0
3,-1,634294,219314,1357540,65940,7174,677508,0
3,-1,637326,219471,1330134,66106,7612,664549,0
3,-1,657370,223977,1311987,69402,8568,655466,0
3,-1,636694,218972,1264396,65956,6872,631729,2
3,-1,636578,219658,1352857,66106,7098,675943,0
3,2,707065,248936,1415516,74070,8461,707231,0
3,-1,635020,218302,1307731,65635,7696,653282,0
3,-1,639624,219489,1359251,66108,7141,679134,0
3,-1,635834,219234,1215426,66045,7244,607148,2
3,-1,638869,219114,1269410,65965,7229,634266,0
3,-1,634485,219265,1183108,66033,8333,591067,0
3,-1,637312,220549,1219233,66742,7760,608890,2
3,-1,634742,219085,1112128,65978,6411,555617,0
3,-1,637397,219813,1174853,66146,6748,586981,0
3,2,713998,251120,1406279,75111,8767,702384,0
3,-1,656975,223072,1319949,69021,7688,659519,0
3,-1,638913,219800,1299034,66178,7098,649010,0
3,-1,638153,219635,1291857,66079,7351,645426,2
3,-1,637646,219550,1320176,66086,7722,659690,0
3,-1,639214,219509,1352978,66139,7312,676024,0
3,-1,635666,219712,1191525,66205,8095,595248,2
3,-1,636970,219336,1246409,65974,7638,622678,0
3,-1,635789,219163,1190803,65885,6988,594971,0
3,-1,639336,218907,1251960,65711,7099,625571,0
3,-1,639609,219551,1423617,66045,7739,711316,0
3,-1,642962,221517,1350605,66972,7669,674568,2
3,-1,640598,219963,1181596,66159,7202,590260,0
3,-1,641399,219982,1193441,66121,7099,596323,0
3,-1,643224,220311,1200040,66303,7381,599519,2
3,-1,635684,219364,1190293,65998,7096,594637,0
3,2,714778,250133,1345645,74681,9631,672120,0
3,-1,657644,224044,1305843,69290,7352,652539,0
3,-1,634872,219622,1263850,66078,7323,631422,2
3,-1,670947,231390,1350228,69999,7489,674301,0
3,-1,636222,219186,1199819,65871,7198,599456,0
3,-1,637014,218684,1180924,65712,7375,590072,0
3,-1,639531,219220,1184698,65943,7139,591891,0
3,-1,637039,219438,1271093,65986,6986,635109,0
3,2,707823,249015,1598087,74013,9233,798650,0
3,-1,660561,224174,1239431,69354,7446,619249,0
3,-1,639615,219273,1247518,65913,7373,623348,0
3,-1,636650,219586,1214355,66058,7087,606687,2
3,2,704839,247688,1299644,73596,8532,649444,0
3,-1,639916,219877,1176249,66120,6814,587697,0
3,-1,643711,220872,1226067,66644,7798,612343,0
3,-1,642713,219853,1290303,66085,7658,644765,0
3,-1,635617,219063,1239535,65836,7590,619311,0
3,-1,638042,219395,1197526,65935,6795,598208,0
3,-1,639431,220206,1202057,66278,6998,600446,0
3,2,709351,248837,1491230,74069,9895,744276,0
3,-1,667068,229139,1271840,68920,7030,635261,2
3,-1,637543,219700,1201332,66037,6846,600117,0
3,-1,643204,220311,1304553,66284,7154,651776,0
3,-1,642092,221168,1293034,66884,8098,645696,2
3,-1,646095,221158,1302999,66812,7752,650503,0
3,-1,638689,219181,1314774,65891,7318,656978,0
3,-1,640643,220159,1210184,66240,7162,604504,0
3,-1,642786,220668,1301212,66432,7696,650018,2
3,-1,642007,219423,1166167,66052,7858,582448,0
3,-1,641576,219428,1142849,66029,6657,570773,0
3,-1,641935,219722,1343366,66144,7694,671107,2
3,-1,648225,221328,1305337,66868,7858,651764,0
3,2,709430,249856,1409674,74497,8976,703672,0
3,-1,642771,219545,1251793,66035,8712,625089,0
3,-1,633571,219695,1229147,66103,7205,613952,2
3,-1,634856,219293,1332984,65909,7620,665759,0
3,-1,635841,219006,1410350,65834,8232,704490,0
3,-1,642042,221899,1253979,67159,7763,625519,2
3,-1,637192,219362,1218215,65955,7494,608199,0
3,-1,639689,221180,1474431,66839,8211,736059,0
3,-1,643375,221257,1363614,66866,7850,680740,0
3,-1,638660,219166,1271073,65827,7147,635012,0
3,-1,636710,219539,1267831,65994,6914,633298,0
3,-1,638831,219581,1130522,66067,6742,564655,0
3,2,708704,248988,1422950,73825,9919,711018,0
3,-1,638834,220490,1266263,66370,7446,632502,2
3,-1,635573,218094,1211469,65627,7305,605209,0
3,-1,662407,224158,1530218,69315,8661,764626,0
3,-1,639917,219688,1332399,66035,7378,665402,0
3,-1,644758,221242,1358560,66796,8317,678198,0
3,-1,644655,221520,1362531,66958,8269,680267,2
3,-1,646295,220651,1345277,66584,8452,671558,0
3,-1,637646,219403,1231195,66005,7136,614903,2
3,-1,640366,219865,1267245,66035,7454,633148,0
3,-1,638451,219399,1242629,66024,7170,620875,0
3,-1,662769,228659,1295307,68748,7489,647211,2
3,-1,636458,219050,1306674,65837,7389,652842,0
3,-1,660290,224135,1290636,69345,7333,644855,0
3,-1,641059,219523,1198456,65964,7050,598807,0
3,-1,640308,219937,1340970,66141,7425,669991,2
3,-1,643454,221316,1206765,66894,7219,602655,0
3,2,710773,249626,1417719,74045,9923,708416,0
3,-1,661088,223408,1264229,69051,7531,631636,0
3,-1,639925,218849,1253643,65739,6915,626366,0
3,-1,644890,220971,1303951,66767,8382,651204,2
3,-1,643098,219312,1204401,65896,7522,601736,0
3,-1,644995,221285,1277292,66833,7281,637737,0
3,-1,645808,220165,1293235,66364,7713,645850,0
3,-1,641565,220126,1215320,66275,6733,607094,2
3,-1,646435,221248,1414964,66846,7535,706635,0
3,-1,642934,219263,1214459,65945,8323,607074,0
3,-1,637016,219114,1229057,65867,6839,614078,0
3,-1,636773,219030,1327638,65816,7215,663347,0
3,-1,641142,219827,1220979,65945,7714,610090,0
3,-1,665704,229257,1367007,68820,7736,683018,0
3,-1,644592,221389,1349218,66776,8097,673935,0
3,2,734611,253860,1387983,77364,10517,693565,0
3,-1,637028,218798,1210645,65595,7119,604850,0
3,-1,642003,219900,1170825,66006,7710,584928,0
3,-1,663845,223572,1238841,69022,8502,618985,0
3,-1,640850,221331,1281986,66780,7720,640124,2
3,-1,662044,224224,1283154,69256,8205,641192,0
3,-1,639855,219720,1261863,65988,7343,630457,2
3,-1,639986,219149,1210994,65750,7779,605040,0
3,-1,639984,219974,1262832,66014,7101,630817,0
3,-1,645652,221311,1324836,66759,7794,661399,0
3,-1,642280,219142,1201325,65709,7087,600077,0
3,-1,644187,219515,1270705,65833,7231,634801,0
3,-1,648194,222441,1353195,67171,8424,675486,0
3,-1,639096,218998,1269370,65772,7503,634153,0
3,-1,641374,219115,1299890,65838,7668,649558,0
3,-1,671852,230819,1351843,69668,7791,675037,2
3,-1,644091,219943,1228727,66155,7481,613755,0
3,-1,644283,220334,1432263,66142,9370,715508,0
3,-1,643471,219962,1302199,66095,7011,650635,0
3,2,706711,248088,1505802,73622,9898,752394,0
3,-1,644763,220493,1404289,66379,7497,701709,2
3,-1,645233,220792,1279525,66373,8357,639386,0
3,-1,649056,222211,1367844,67253,8172,682944,0
3,-1,646362,220952,1311370,66483,8317,655186,0
3,-1,665095,224929,1253765,69423,8859,626502,0
3,-1,669603,225284,1309075,69504,9253,653956,0
3,-1,644813,220154,1268174,65996,7826,633511,2
3,-1,648838,220689,1341929,66225,8407,670331,0
3,-1,649682,220706,1332702,66089,7996,665983,0
3,2,713139,248886,1335944,74039,8861,667420,0
3,-1,661135,224646,1307020,69285,9017,653152,0
3,-1,644023,222892,1276620,67278,8572,637445,2
3,-1,639070,220290,1250820,66034,8102,624985,0
3,-1,641203,220479,1313168,66158,8641,655995,2
3,-1,646519,221461,1405819,66440,9118,701737,0
3,-1,646040,222123,1337420,66860,8114,667671,0
3,-1,648088,222352,1466543,66970,8468,732544,0
3,-1,643279,220264,1185041,65967,7599,591956,0
3,2,715068,249278,1295865,73848,9064,647440,0
3,-1,643479,220222,1245810,66094,7621,622290,0
3,-1,640311,220648,1373334,66241,8544,685985,2
3,-1,647291,222422,1302917,67045,8385,650520,0
3,-1,647305,222308,1323312,67071,7725,660830,0
3,-1,641638,219596,1268369,65909,7454,633501,0
3,-1,642144,220376,1127767,66183,6759,563538,0
3,-1,647414,221836,1231942,67044,8451,614937,2
3,-1,644800,220677,1240747,66522,9056,619624,0
3,-1,638364,220218,1299310,66113,8059,649033,2
3,-1,645784,222124,1310459,67037,8526,654348,0
3,-1,645480,221438,1357368,66677,8082,678019,0
3,-1,642733,219818,1237420,66003,7612,618281,0
3,-1,640758,219177,1137522,65855,7326,568271,0
3,-1,639358,218814,1404576,65626,7497,701751,0
3,2,709502,248078,1425995,73607,9845,712470,0
3,-1,637790,219206,1286427,65804,8091,642729,0
3,-1,639606,219622,1200955,65900,7248,600002,0
3,-1,642402,221084,1278729,66710,7032,638519,2
3,-1,637317,218483,1285593,65505,7099,642398,0
3,-1,644601,219620,1189129,66003,7542,594102,0
3,-1,639282,219204,1369872,65867,7776,684350,2
3,-1,641787,219466,1241398,65871,7189,620279,0
3,-1,641722,218759,1194552,65652,8154,596921,0
3,-1,642229,219072,1283536,65755,7725,641357,0
3,-1,641621,220261,1376029,66234,6929,687418,0
3,-1,644679,221046,1335732,66796,7625,667008,0
3,-1,639219,219586,1201209,66028,7015,600151,0
3,2,711826,248275,1300569,73697,8663,649744,0
3,-1,641570,219263,1293680,65883,7352,646384,0
3,-1,638559,220061,1184430,66108,7545,591661,2
3,-1,643931,221116,1274473,66713,7774,636409,0
3,-1,638819,219097,1380254,65812,8388,689627,0
3,-1,641078,219894,1201612,66023,7705,599866,0
3,-1,639181,219682,1310223,65969,8587,654322,2
3,-1,639102,219043,1233881,65782,8322,616482,0
3,-1,661708,224301,1281861,69310,8451,640509,0
3,-1,663052,224321,1272081,69344,7941,635572,0
3,2,709277,247951,1406152,73599,8499,702660,0
3,-1,641465,219359,1318308,66029,8057,658508,0
3,-1,638229,218829,1295748,65811,7842,647066,2
3,-1,646568,221090,1334491,66781,8748,666526,0
3,-1,638822,218770,1390939,65757,7839,694879,0
3,-1,645428,221410,1214389,66816,7710,606406,0
3,-1,643322,219766,1307525,65959,8169,653290,0
3,-1,642114,220313,1318368,66198,7855,658791,0
3,-1,647088,220986,1315265,66585,8644,656934,0
3,-1,643465,219994,1330331,66107,7831,664575,2
3,-1,644262,219887,1309106,65972,8219,654057,0
3,-1,646277,221528,1385195,66682,8682,691805,0
3,-1,644476,219697,1165077,65803,8337,582045,0
3,-1,644486,219745,1195435,65878,7338,597179,0
3,2,710309,247990,1440133,73574,8758,719566,0
3,-1,666338,225165,1329028,69350,8369,664031,0
3,-1,642684,219126,1350215,65561,8050,674714,0
3,-1,646058,219613,1303496,65665,8158,651249,0
3,-1,638280,219703,1195748,65778,7823,597380,0
3,-1,638492,219160,1241384,65567,7664,620262,0
3,-1,636172,219264,1317219,65627,7556,658074,2
3,-1,644873,221574,1288548,66723,7646,643518,0
3,-1,641794,219669,1417990,65837,8373,707907,0
3,-1,640697,219812,1415525,65798,8395,707317,0
3,2,722192,252650,1473107,76474,9859,735869,0
3,-1,640745,219405,1193703,65743,8533,596079,0
3,-1,637987,218992,1227006,65674,8673,612731,2
3,-1,640863,218888,1241763,65661,8515,620025,0
3,-1,645661,221663,1286184,66826,7973,642159,0
3,-1,642715,221404,1253968,66742,7965,626231,2
3,-1,639413,218997,1210127,65698,7736,604635,0
3,2,708704,250205,1359782,74126,9276,679141,0
3,-1,640608,219348,1244559,65778,8043,621756,0
3,-1,640883,218500,1393987,65488,8883,696504,0
3,-1,634847,218161,1242977,65323,7822,621196,0
3,-1,636051,218215,1328499,65355,8341,663834,0
3,-1,639524,218735,1407131,65581,8011,702944,0
3,-1,639186,218182,1196901,65388,8215,598023,0
3,-1,636578,218191,1208384,65337,8091,603729,0
3,-1,640469,218662,1265478,65596,8415,632262,0
3,-1,639714,219656,1189986,65931,6914,594446,2
3,-1,640929,218757,1402033,65563,8238,699320,0
3,-1,637312,218976,1215258,65630,7221,607159,0
3,-1,639815,219136,1224763,65751,6826,611926,0
3,-1,640361,218782,1202349,65587,7218,600604,0
3,-1,645211,219533,1203918,65831,8111,601554,0
3,-1,641669,218894,1138830,65620,7965,568915,0
3,-1,642097,218583,1267326,65528,8176,633158,0
3,2,706490,247723,1436777,73963,9640,717422,0
3,-1,637302,219777,1330731,65958,7190,664860,2
3,-1,642608,221058,1240836,66587,7724,619727,0
3,-1,638880,219271,1289917,65807,7234,644388,0
3,-1,637809,218929,1214339,65646,6897,606721,2
3,-1,641402,219188,1218119,65781,7452,608555,0
3,-1,643952,220500,1231715,66475,7907,615120,0
3,-1,641814,220343,1219316,66336,7220,609004,0
3,-1,639454,218932,1286574,65666,7200,642807,0
3,-1,645740,219604,1284705,65909,7479,641879,0
3,-1,644065,220525,1201741,66396,7307,600217,0
3,2,725412,252548,1372209,77324,9934,685761,0
3,-1,642121,218741,1326652,65575,7451,662888,0
3,-1,641980,218794,1234201,65620,8247,616650,0
3,-1,640838,219396,1319161,65862,7109,658872,2
3,-1,663164,223799,1304070,69065,8107,651506,0
3,-1,641871,218966,1326371,65657,7639,662721,0
3,-1,642550,219194,1382023,65702,8245,690579,0
3,-1,639180,219287,1226479,65808,7585,612616,0
3,-1,646739,221714,1193936,66876,7158,595843,2
3,-1,641461,218590,1130476,65582,7161,564683,0
3,-1,663387,223751,1321216,69017,8128,660235,0
3,-1,648600,220524,1205889,66387,7439,602135,0
3,-1,641956,218904,1267956,65666,7111,633396,0
3,-1,642611,219474,1297147,65869,6968,647954,2
3,-1,666003,223717,1412491,69020,8823,705896,0
3,-1,642561,219686,1281038,65915,6850,640005,0
3,-1,640101,219174,1207183,65736,7107,602990,2
3,-1,642398,219228,1224550,65786,7165,611708,0
3,2,710268,248114,1415009,74171,8984,706975,0
3,-1,648942,221039,1195826,66640,7437,596952,0
3,-1,645276,219746,1293681,65961,7677,646315,2
3,-1,642585,218812,1258572,65537,6940,628900,0
3,-1,642006,218404,1175524,65398,6430,587336,0
3,-1,643624,218693,1298399,65539,7228,648716,0
3,-1,632846,219053,1160623,65195,6537,579982,0
3,2,728541,253392,1436529,77619,9315,717716,0
3,-1,633432,218931,1262616,65213,6849,630772,0
3,-1,633260,219179,1204372,65277,7175,601689,2
3,-1,636152,219312,1347478,65327,7033,673150,0
3,-1,634644,218854,1316294,65177,7205,657617,0
3,-1,635776,219482,1259143,65372,7117,628976,2
3,-1,632933,218519,1232939,65013,7855,616279,0
3,-1,635673,219090,1301521,65260,7120,650281,0
3,-1,630691,218829,1260327,65199,7481,629635,2
3,-1,636185,220320,1175020,65850,7699,586797,0
3,-1,636486,219555,1329656,65408,8068,664359,0
3,-1,636474,219670,1241691,65423,7884,620214,0
3,-1,638891,221001,1315608,66125,8366,656866,0
3,2,711416,248032,1384422,74122,8782,691772,0
3,-1,662591,224731,1324509,69347,8710,661800,0
3,-1,639085,219839,1238679,65652,7224,618624,0
3,-1,636059,218431,1256309,64998,7638,627620,2
3,-1,632457,218717,1421418,65085,8068,709611,0
3,-1,641121,221283,1267102,66376,7129,632857,0
3,-1,637270,219405,1200980,65452,7197,599976,0
3,-1,636357,218768,1251799,65249,6921,625429,0
3,-1,635273,218368,1312690,65166,7447,655894,0
3,-1,642415,219956,1268288,65836,7844,633074,0
3,-1,638069,218781,1318490,65976,8746,658684,0
3,-1,640399,219204,1254714,66438,8635,626130,0
3,-1,640424,219719,1343640,66410,8635,670951,2
3,-1,640323,219130,1241810,66172,8265,620349,0
3,2,716199,249075,1298274,74643,8927,648465,0
3,-1,639804,218624,1297547,66063,8011,648260,0
3,-1,639600,218576,1237741,65910,8160,618425,0
3,-1,638646,218454,1381882,66024,8828,690097,0
3,-1,640066,218922,1295596,66191,8206,647216,2
3,-1,641099,218480,1332584,66048,8787,665752,0
3,-1,635848,219165,1233559,66193,7880,616124,0
3,-1,634788,218989,1202324,66233,7560,600719,2
3,-1,642159,220435,1182295,66838,7759,590436,0
3,-1,644911,221543,1213416,67304,8262,605977,2
3,-1,637816,218175,1278880,65886,8295,638973,0
3,-1,637597,218447,1253216,66030,7332,625768,0
3,2,715947,250026,1313374,74890,8576,655858,0
3,-1,637407,219307,1253503,66313,7314,626294,2
3,-1,645442,221454,1194187,67266,6624,596288,0
3,-1,640467,220629,1138738,66999,7459,568489,0
3,-1,641741,220660,1199210,66864,7959,598953,0
3,-1,638315,218501,1320444,65997,7653,659757,0
3,-1,644212,220420,1195971,66927,7355,597231,0
3,-1,638732,218618,1283713,66111,7377,641361,2
3,-1,643382,219835,1200148,66651,7179,599534,0
3,-1,640172,218789,1263368,66060,7238,631233,0
3,-1,640292,219935,1219500,66504,7146,609282,0
3,-1,644804,221232,1179855,67200,7202,589139,0
3,-1,644227,220677,1272600,66881,7753,635566,0
3,-1,640122,218948,1264822,66142,7857,631988,0
3,-1,636616,218314,1272551,65857,7078,635880,0
3,-1,637825,218806,1197092,66194,7017,598045,2
3,-1,661641,223837,1397515,69570,8754,698228,0
3,-1,641407,219037,1168285,66224,7006,583578,2
3,-1,664255,223612,1222761,69487,8177,610861,0
3,-1,635988,217921,1209969,65743,6688,604519,0
3,2,708676,248408,1398782,74133,9017,698852,0
3,-1,640390,218897,1285372,66119,7610,642257,0
3,-1,642581,219448,1225689,66349,7482,612434,0
3,-1,643704,219077,1319577,66227,8044,659395,0
3,-1,645671,221312,1223936,67243,7372,611056,2
3,-1,639853,218671,1262549,66040,7760,630846,0
3,-1,661841,222851,1325949,69251,8637,662460,0
3,-1,637697,219763,1196973,66554,7769,597632,0
3,2,733256,253915,1517949,77803,11121,758561,0
3,-1,638859,219157,1364683,66157,8557,681894,0
3,-1,636306,218677,1244959,66035,7934,622071,0
3,-1,635939,218420,1181589,65992,7726,590412,0
3,-1,638711,219565,1295865,66221,7742,647493,0
3,-1,644917,220925,1143849,67098,7491,571054,0
3,-1,636075,218266,1256828,65942,7480,627881,2
3,-1,638864,219647,1224412,66333,7009,611738,0
3,-1,643702,220804,1545771,67104,9478,771039,0
3,-1,640844,219373,1306696,66330,8018,652792,2
3,-1,641705,218667,1296425,66126,7724,647666,0
3,-1,661492,223599,1303865,69463,8449,651433,0
3,-1,639457,219449,1156374,66323,7141,577738,2
3,-1,645442,220559,1188596,66998,6835,593578,0
3,-1,637999,219472,1476251,66340,9359,737790,0
3,-1,659193,223454,1361413,69380,8612,680188,0
3,-1,638531,219128,1205058,66242,7507,602012,2
3,-1,644781,221230,1259096,67220,9147,628436,0
3,-1,642400,219926,1174370,66689,7110,586518,0
3,-1,643040,220398,1195657,66946,7315,597133,2
3,2,718748,250945,1447796,75305,9805,722999,0
3,-1,640691,218870,1268380,66122,7304,633740,0
3,-1,642309,219847,1215906,66687,7607,607289,0
3,-1,640412,220275,1314657,66516,7727,656838,2
3,-1,637400,218686,1155075,65948,7469,577145,0
3,2,714732,250322,1317593,74858,8216,658189,0
3,-1,640341,218846,1387800,66121,8172,693411,0
3,-1,641053,219490,1246157,66336,7517,622677,2
3,-1,649300,221523,1242360,67350,7604,620322,0
3,-1,643007,220037,1200872,66718,7377,599754,0
3,-1,639596,218892,1197087,66117,7538,598039,2
3,-1,641265,218878,1363286,66129,7844,681228,0
3,-1,641509,217651,1307434,65734,7832,653254,0
3,-1,637039,218835,1254945,66048,7947,627062,0
3,-1,662555,223502,1304646,69429,9181,651816,0
3,-1,641299,220845,1185394,67056,7449,591909,2
3,-1,640305,219397,1339341,66326,7123,668950,0
3,-1,645145,220823,1189087,67092,7150,593741,0
3,-1,641581,219550,1211675,66319,7388,605365,0
3,-1,639868,219363,1281433,66174,7805,640268,0
3,2,732603,253546,1533119,77568,10993,765734,0
3,-1,640894,219212,1146044,66141,7594,572455,0
3,-1,642056,219915,1173478,66354,6897,586177,2
3,-1,639558,218724,1181706,65866,6937,590414,0
3,-1,644660,219647,1259389,66251,7383,629242,0
3,-1,664338,223987,1335865,69562,8741,667540,0
3,-1,640846,219136,1248609,66159,6978,623873,0
3,-1,646347,220925,1327109,67080,8085,662829,2
3,-1,642474,218886,1170285,66056,7078,584645,0
3,-1,662892,223341,1242276,69307,8518,620656,0
3,-1,638807,219270,1263149,66149,7429,631062,2
3,-1,640056,219222,1304978,66063,7358,652104,0
3,-1,640947,218574,1184994,65913,7266,592051,0
3,-1,643152,219694,1268144,66245,7344,633626,2
3,-1,645370,219472,1402812,66220,8121,700844,0
3,2,718215,249605,1526627,74524,10012,762714,0
3,-1,643657,219269,1397683,66129,7673,698349,0
3,-1,642386,218853,1205695,66014,7897,602337,0
3,-1,643549,220055,1219386,66573,6849,609090,0
3,-1,639876,217929,1340554,65593,7372,669893,0
3,-1,641167,218632,1277775,65916,7266,638450,0
3,-1,662785,223376,1341553,69254,8476,670278,0
3,-1,643629,219286,1319827,66152,8199,659464,2
3,2,714843,250928,1279471,75271,8894,638909,0
3,-1,647733,219816,1144395,66301,7798,571602,0
3,-1,644228,218713,1137927,65948,7700,568492,0
3,-1,644684,217797,1236675,65696,7236,617839,0
3,-1,639543,219804,1340608,66342,7607,669879,0
3,2,717490,249810,1367201,74639,9220,683165,0
3,-1,636732,218618,1327394,65979,8438,663237,0
3,-1,643294,221066,1270760,67157,8188,634683,0
3,-1,641772,219821,1239973,66481,7880,619608,0
3,-1,643251,220225,1280645,66647,7605,639867,0
3,-1,648509,222005,1232338,67575,7370,615324,2
3,-1,639238,219526,1223841,66387,7819,611343,0
3,-1,642101,220017,1269122,66441,7918,634078,0
3,-1,639759,219899,1279614,66432,8302,639299,2
3,-1,643600,219765,1381974,66411,8796,690425,0
3,-1,644472,219661,1247265,66421,8447,623476,0
3,-1,641883,220126,1244180,66611,7966,621660,2
3,-1,645073,220270,1233739,66766,7178,616196,0
3,-1,646985,220531,1317675,66832,8031,658373,0
3,-1,644974,220441,1193147,66766,7282,596082,2
3,-1,644179,219340,1313103,66407,8243,655970,0
3,-1,645115,221149,1243000,67281,7623,620680,0
3,2,717539,249337,1304591,74376,8821,651817,0
3,-1,643755,220682,1279453,66842,8084,639115,2
3,-1,645279,220210,1288230,66653,7726,643537,0
3,-1,643305,221254,1289094,67293,8647,643158,2
3,-1,647184,221087,1224772,67076,7971,612056,0
3,-1,640887,219987,1293970,66517,8947,646463,0
3,-1,671061,229400,1318178,69323,8877,658570,0
3,-1,664444,224627,1411006,69825,10100,704866,0
3,-1,644806,220045,1256739,66576,8107,627831,2
3,-1,647456,221467,1256550,67160,8408,627374,0
3,-1,646135,220174,1333132,66566,8652,665976,0
3,-1,647157,220490,1400770,66672,9127,699728,0
3,-1,657784,223104,1273759,69275,8307,636361,0
3,-1,640456,219724,1305130,66370,7817,652192,0
3,2,712607,248879,1338970,74206,8678,669003,0
3,-1,640795,220011,1222818,66475,7458,610996,0
3,-1,642262,219443,1341549,66293,7605,670066,0
3,-1,642007,219726,1242068,66367,7188,620593,0
3,2,711568,248138,1815981,74109,11111,907493,0
3,-1,645055,220253,1192292,66462,8004,595667,0
3,-1,662719,224845,1288467,69800,10010,643822,0
3,-1,641783,219806,1307327,66356,8057,653172,0
3,-1,640339,219659,1327766,66239,7612,662980,0
3,-1,644808,221055,1336650,66735,7368,667808,2
3,-1,646682,220315,1273664,66455,7952,635694,0
3,-1,644144,220065,1378783,66277,8447,688670,0
3,-1,650855,222213,1192375,67325,8596,595273,0
3,-1,649888,221100,1161206,66871,7966,579723,0
3,-1,646403,220266,1216046,66436,8288,607502,2
3,-1,642785,220106,1260996,66307,8586,629875,0
3,-1,640378,219987,1308028,66409,7685,653395,2
3,-1,642951,220466,1172782,66543,7458,585889,2
3,-1,644530,219750,1270466,66286,8242,634759,0
3,2,728915,253019,1550177,77634,10591,774552,0
3,-1,645243,220096,1300822,66433,7579,649977,0
3,-1,643061,219762,1287999,66382,8159,643499,2
3,-1,669281,224793,1390852,69728,9735,694969,0
3,-1,642407,220040,1292261,66409,7455,645644,0
3,-1,647813,221758,1210062,67353,7462,604030,2
3,-1,666383,224432,1281230,69632,9149,640161,0
3,-1,639056,218789,1243882,66081,7578,621348,2
3,-1,647723,221269,1209667,67134,6950,603942,0
3,-1,646380,219588,1262824,66320,7853,630902,0
3,-1,647048,220446,1297775,66715,8055,648063,0
3,2,707247,248136,1476815,74231,8602,737808,0
3,-1,636983,219548,1346096,66245,8083,672538,0
3,-1,640212,220407,1227354,66532,8526,613074,2
3,-1,640099,219597,1198351,66274,7982,598722,0
3,-1,639624,219667,1200702,66340,7752,599791,0
3,-1,643011,219800,1228987,66307,7868,614108,0
3,-1,642467,220144,1293771,66518,7600,646152,0
3,-1,640187,219019,1314330,66089,7859,656761,0
3,2,710676,248423,1410765,74215,8697,704909,0
