0,3,758494,265108,1432467,78276,9382,715746,0
0,3,708406,247977,1460277,73591,9466,729548,0
0,3,714211,250529,1529230,74783,9951,763886,0
0,3,715616,249075,1397230,74029,9073,698306,0
0,3,709020,248578,1423453,74100,9306,711285,0
0,3,703565,248475,1537095,73894,8519,768132,0
0,3,706241,248542,1362294,73959,9159,680728,0
0,3,729790,253886,1343843,77473,9702,671455,0
0,3,711784,250154,1454461,74699,9410,726573,0
0,3,708657,248595,1450138,73793,9070,724602,0
0,3,715480,250411,1575802,74641,9391,787057,0
0,3,713151,249225,1442832,73941,9614,720854,0
0,3,715209,250935,1414801,74873,10078,706761,0
0,3,706340,248661,1728387,73889,10162,862599,0
0,3,713810,249143,1471238,73866,10017,735143,0
0,3,706912,247343,1430594,73305,8806,714924,0
0,3,711444,249213,1465129,73990,9369,731852,0
0,3,713215,248183,1471101,73675,9843,734992,0
0,3,705844,248581,1477755,73283,9262,738299,0
0,3,706701,247828,1411670,73977,9606,705374,0
0,3,712186,248405,1346925,74242,9334,672957,0
0,3,713382,250143,1609535,75078,10123,804326,0
0,3,717941,250086,1407334,75044,9694,702701,0
0,3,712180,247422,1467658,73768,9720,733443,0
0,3,711149,248841,1411416,74497,9400,705214,0
0,3,713842,249407,1535350,74577,9427,767131,0
0,3,715918,249410,1443445,74262,9991,721301,0
0,3,713900,248751,1622423,74200,10592,810883,0
0,3,714720,249521,1498559,74527,8559,748737,0
0,3,710230,247953,1396755,73970,9334,697846,0
0,3,730088,253065,1502612,77684,10531,751000,0
1,3,707569,247979,1352869,73657,9181,675856,0
1,3,708683,247717,1363491,73620,8722,681384,0
1,3,713303,248565,1386641,73864,9236,692905,0
1,3,712493,249339,1545843,74294,9208,772381,0
1,3,703259,248560,1490462,74052,8968,744549,0
1,3,708624,248053,1438412,73677,9123,718550,0
1,3,705779,248671,1333834,73945,9041,666489,0
1,3,706764,248575,1445888,73899,8713,722403,0
1,3,714566,250725,1581610,74840,10772,789885,0
1,3,710955,248923,1534987,73854,9395,766964,0
1,3,737852,254202,1405458,77390,9878,702271,0
1,3,711486,249753,1498300,74162,9591,748739,0
1,3,715259,249708,1702396,74111,9937,851254,0
1,3,712965,248733,1488834,73795,8178,743911,0
1,3,710252,248683,1647292,73837,9622,823177,0
1,3,710998,249461,1375573,74280,8935,687052,0
1,3,713829,248828,1474002,73856,10098,736588,0
1,3,705314,248353,1337580,73217,8807,668369,0
1,3,707772,248736,1394568,74395,9357,696742,0
1,3,714591,250309,1393614,75079,9484,695848,0
1,3,730687,253045,1557943,77528,11679,778589,0
1,3,733503,252648,1501539,77427,10681,750309,0
1,3,711911,247875,1486416,73896,9560,742568,0
1,3,713815,250246,1324307,75104,9451,661350,0
1,3,715563,250419,1391421,75078,9356,695083,0
1,3,714907,249884,1330943,74530,8579,664855,0
1,3,711491,248700,1501266,74273,10082,750123,0
1,3,713776,248412,1387100,74114,9366,692975,0
1,3,711369,248293,1329548,74149,9009,664337,0
1,3,705853,247573,1410736,74044,9948,704630,0
2,3,708519,248470,1402035,73810,9334,700500,0
2,3,708805,248134,1436332,73828,9640,717577,0
2,3,716347,250034,1438056,74498,9512,718511,0
2,3,708042,247896,1479086,73809,9300,739179,0
2,3,710500,249808,1508255,74636,9830,753503,0
2,3,715245,251023,1534229,75073,9609,766235,0
2,3,709966,249023,1325439,74051,9054,662270,0
2,3,708280,249693,1442166,74326,8616,720448,0
2,3,731057,252936,1516875,76975,10916,757935,0
2,3,712691,248889,1483115,73859,9182,740811,0
2,3,716757,250057,1473877,74157,9476,736369,0
2,3,710381,249027,1513494,73943,9048,756290,0
2,3,712438,249034,1416079,74043,8847,706916,0
2,3,711785,248330,1563930,73682,9308,781489,0
2,3,713135,250960,1441291,74853,9309,719784,0
2,3,710070,248245,1561189,73648,9482,780237,0
2,3,741121,258085,1514996,76562,9579,756882,0
2,3,707360,248274,1401952,73251,8692,700473,0
2,3,706174,248669,1422259,74269,9321,710680,0
2,3,711105,248041,1354737,74078,8708,676922,0
2,3,707508,248237,1382861,74208,8800,690799,0
2,3,712886,249211,1400068,74596,9177,699329,0
2,3,717178,249838,1450978,74741,9834,724568,0
2,3,709954,249390,1493237,74621,9694,746177,0
2,3,714582,249869,1456502,74710,9259,727805,0
2,3,714501,249418,1372210,74352,9839,685505,0
2,3,712582,249046,1513112,74358,10007,756114,0
2,3,740250,254525,1494419,77883,10015,746576,0
2,3,710327,248197,1303556,74043,8953,651285,0
2,3,710746,249434,1533776,74922,10856,766009,0
3,3,705783,247844,1467022,73500,9515,733037,0
3,3,706370,247817,1344779,73715,8130,671929,0
3,3,710491,247943,1449546,73646,8891,723943,0
3,3,715401,250815,1496287,75093,9547,747496,0
3,3,709604,248694,1344508,74104,9255,671799,0
3,3,706036,248312,1403151,73846,8678,700769,0
3,3,707246,249527,1377003,74290,8543,688061,0
3,3,712506,250183,1498820,74680,9646,748602,0
3,3,713097,249787,1552661,74241,10643,775785,0
3,3,731654,253735,1515277,77263,9694,757128,0
3,3,716616,249849,1365284,74115,8675,682101,0
3,3,710393,249613,1425355,74170,10021,712189,0
3,3,710580,248832,1461358,73868,9658,730202,0
3,3,712338,248809,1477751,73874,8895,738411,0
3,3,710796,248486,1372001,73713,8920,685617,0
3,3,710727,248152,1543936,73663,9752,771877,0
3,3,713159,248458,1379337,73693,9136,688948,0
3,3,707822,249012,1449924,73429,9552,724498,0
3,3,726120,252876,1481254,77488,10591,740044,0
3,3,713840,249830,1371438,74916,9122,684821,0
3,3,713688,249692,1391680,74843,9556,695030,0
3,3,713018,248768,1487411,74342,10195,743157,0
3,3,717150,250653,1678456,75152,10371,837729,0
3,3,711095,248676,1486973,74254,8792,743103,0
3,3,735339,254461,1552779,78026,10814,775886,0
3,3,715486,249400,1367145,74329,9771,683009,0
3,3,735663,253672,1630104,77687,10538,814494,0
3,3,716141,249140,1363344,74291,8854,681285,0
3,3,715968,248561,1422877,74165,9855,711012,0
3,3,708485,248806,1488363,74494,9481,743697,0
4,3,706997,248111,1375757,73684,9168,687411,0
4,3,706490,247929,1395574,73743,8482,697305,0
4,3,718315,251473,1480837,75082,9463,739588,0
4,3,711909,248830,1556173,74090,9944,777590,0
4,3,709305,248949,1412310,74185,9327,705600,0
4,3,707676,248374,1522420,73852,9096,760775,0
4,3,710406,248423,1415249,73879,8950,707073,0
4,3,729442,253605,1430389,77362,10054,714763,0
4,3,708545,248693,1368053,73997,8330,683505,0
4,3,711780,249386,1590508,74077,9342,794704,0
4,3,716584,250279,1331674,74299,9040,665368,0
4,3,708080,249545,1477863,74168,9509,738326,0
4,3,714850,250501,1419519,74724,9335,708980,0
4,3,716716,251008,1463611,74804,9022,730940,0
4,3,714577,250258,1518475,74532,9042,758572,0
4,3,709234,247563,1483892,73403,9544,741440,0
4,3,733340,253778,1461712,77292,10199,730193,0
4,3,726045,252713,1502189,76377,10048,750632,0
4,3,703890,248220,1402414,74187,9378,700748,0
4,3,708580,248188,1448784,74201,9103,723853,0
4,3,707594,248216,1514385,74124,9684,756975,0
4,3,714403,248552,1362861,74191,8830,680903,0
4,3,733050,252673,1539032,77279,10435,768944,0
4,3,711526,249581,1499513,74655,9177,749234,0
4,3,716315,250625,1378535,75143,9511,688650,0
4,3,715192,249493,1348934,74394,9535,673971,0
4,3,712467,249021,1308432,74358,8545,653754,0
4,3,717577,250045,1370006,74622,8147,684480,0
4,3,718592,249633,1450131,74718,9876,724275,0
4,3,705918,247748,1325531,74120,9929,662305,0
5,3,710159,249610,1493823,74403,9744,746161,0
5,3,707207,248424,1456626,73821,8237,727958,0
5,3,732994,252915,1398603,76996,9816,698896,0
5,3,710917,248119,1461860,73845,8543,730279,0
5,3,705362,248564,1452569,74078,8317,725732,0
5,3,704177,247985,1342256,73720,8789,670575,0
5,3,711448,249248,1386851,74180,8429,692953,0
5,3,708829,248773,1484568,73968,8682,741876,0
5,3,707409,248580,1536493,73934,9233,767837,0
5,3,708106,248315,1370519,73644,8433,684882,0
5,3,712545,248983,1583809,73801,9326,791413,0
5,3,715391,249332,1371442,74082,9115,685189,0
5,3,730368,253172,1356875,77075,9038,677892,0
5,3,731781,253225,1490875,77103,9823,745031,0
5,3,710150,248262,1466229,73689,9449,732656,0
5,3,732983,253599,1353244,77218,9456,676208,0
5,3,712114,247992,1449923,73542,9587,724366,0
5,3,702373,247943,1319095,73055,8823,659213,0
5,3,709061,247879,1345436,74036,8755,672147,0
5,3,708865,249045,1510845,74452,8804,755023,0
5,3,706349,248225,1467015,74112,9266,732847,0
5,3,710412,247803,1572261,73841,10303,785637,0
5,3,710858,248217,1573601,74075,9343,786135,0
5,3,707236,248910,1363581,74448,8241,681176,0
5,3,741087,258802,1434094,77381,9944,716562,0
5,3,716400,251127,1306281,75222,9495,652360,0
5,3,711969,249127,1348159,74385,9029,673623,0
5,3,740579,258086,1442372,77059,9356,720775,0
5,3,716193,249161,1414731,74336,10013,706940,0
5,3,705383,248160,1659427,74369,11888,828900,0
6,3,706511,248505,1417444,73774,9649,708287,0
6,3,706062,248431,1607433,73883,9500,803162,0
6,3,709874,248528,1445574,73781,9054,722364,0
6,3,711105,248395,1519919,73951,9499,759470,0
6,3,711084,250009,1529988,74715,9986,764430,0
6,3,731307,253705,1571445,77398,11287,785119,0
6,3,712696,249091,1377237,74141,8513,688105,0
6,3,706722,248715,1441273,73963,8253,720178,0
6,3,713012,250597,1424723,74893,9312,711555,0
6,3,715299,250324,1531692,74545,10284,765114,0
6,3,721655,252331,1577993,75233,10102,788300,0
6,3,714593,249351,1468123,74021,9608,733653,0
6,3,707909,248065,1333266,73656,8564,666153,0
6,3,739172,257712,1414317,76378,9615,706670,0
6,3,709671,248208,1342104,73735,8631,670615,0
6,3,712915,249195,1447708,74006,9088,723317,0
6,3,712296,248031,1355900,73561,9021,677502,0
6,3,709998,249887,1309447,73928,8892,653839,0
6,3,713263,248447,1456597,74200,9866,727804,0
6,3,713308,249466,1374605,74796,9529,686564,0
6,3,710613,249812,1420173,74878,10199,708997,0
6,3,709042,248080,1381667,74063,9451,690233,0
6,3,714089,248648,1495194,74226,9656,746870,0
6,3,710186,248381,1444042,74211,9358,721422,0
6,3,713505,250305,1352056,74881,9168,675537,0
6,3,741446,255210,1499308,78550,11072,749131,0
6,3,711134,249134,1515207,74410,9004,756957,0
6,3,734619,253686,1544314,77707,10198,771537,0
6,3,713628,248151,1394309,73980,9102,696799,0
6,3,703393,247785,1361398,74132,10157,680293,0
7,3,711152,248231,1522836,73692,10663,761047,0
7,3,715289,250494,1481824,74758,9911,740161,0
7,3,710919,248417,1348655,73846,8244,673797,0
7,3,709626,248347,1463856,73921,9192,731489,0
7,3,703695,248155,1493437,73876,9539,746291,0
7,3,708127,248727,1558013,73951,9483,778466,0
7,3,712959,250139,1503403,74488,8968,751156,0
7,3,710095,249491,1531882,74210,9018,765523,0
7,3,730451,254029,1460278,77513,9471,728855,0
7,3,712539,248873,1462222,73913,9447,730560,0
7,3,736088,254705,1445851,77528,9974,722445,0
7,3,716385,249799,1415254,74207,9535,707143,0
7,3,710337,249385,1338518,74103,8553,668942,0
7,3,711390,248731,1481806,73873,9400,740411,0
7,3,708388,247987,1466806,73547,8937,732912,0
7,3,707674,248135,1399697,73702,8792,699001,0
7,3,713005,249051,1611478,73941,9811,805059,0
7,3,705944,248577,1334649,73319,9174,666579,0
7,3,710488,247660,1437706,73965,10367,718438,0
7,3,710498,248062,1451778,74138,9643,725257,0
7,3,732382,257492,1518501,76967,11288,758841,0
7,3,714056,248835,1389004,74301,9038,693598,0
7,3,710178,247682,1438633,73793,9432,719218,0
7,3,713588,249715,1281453,74882,9422,639986,0
7,3,733401,254131,1468220,77896,11488,733559,0
7,3,711326,248872,1467163,74154,8913,733139,0
7,3,713114,250248,1438273,74980,9574,718170,0
7,3,713701,249743,1427827,74646,9029,713351,0
7,3,714524,248492,1439213,74071,9738,719009,0
7,3,711590,249255,1363483,74823,9819,680804,0
8,3,707650,247107,1397339,73233,9506,698242,0
8,3,708641,248220,1390948,73858,9825,694853,0
8,3,708193,247685,1493790,73584,9649,746165,0
8,3,715569,250191,1575694,74780,10106,787035,0
8,3,708346,248896,1457972,74158,9245,728507,0
8,3,708265,248787,1461689,73971,9296,730447,0
8,3,710218,248499,1334665,73933,7934,666938,0
8,3,727127,252977,1665085,77095,9598,831911,0
8,3,709111,248202,1428432,73784,9167,713738,0
8,3,714559,249613,1614427,74074,10505,806833,0
8,3,719069,249887,1298505,74146,8131,648874,0
8,3,717375,251063,1548235,74848,10014,773316,0
8,3,707492,248410,1423322,73677,9035,711254,0
8,3,717796,250597,1433666,74611,10204,716216,0
8,3,706208,247847,1425493,73503,8932,712212,0
8,3,713545,249824,1366184,74474,9434,682213,0
8,3,711206,248272,1459660,73647,9443,729493,0
8,3,704146,248235,1629008,73165,9601,814184,0
8,3,716459,249990,1355254,74964,9082,676737,0
8,3,708659,247338,1428113,73865,9774,713113,0
8,3,707741,247643,1474045,73972,9626,736569,0
8,3,710935,248589,1501094,74131,9514,750081,0
8,3,710217,248026,1465343,73942,9465,731969,0
8,3,710495,248921,1513973,74288,9634,757061,0
8,3,719254,251457,1446420,75443,9187,722342,0
8,3,715172,250415,1512026,74881,9428,755281,0
8,3,715273,250052,1338364,74901,9338,668269,0
8,3,715960,248691,1463643,74249,9881,731435,0
8,3,720620,250880,1507679,75193,9705,753045,0
8,3,707391,248321,1382077,74344,9515,690420,0
8,3,711088,248236,1351706,74213,8955,675305,0
9,3,715928,250569,1658744,74698,11179,828023,0
9,3,706918,247690,1405264,73625,9814,702076,0
9,3,718936,251937,1521248,75327,10179,759671,0
9,3,732123,253284,1468175,77367,10322,733562,0
9,3,711682,250567,1494702,74944,9843,746582,0
9,3,707465,248877,1446685,74048,9109,722812,0
9,3,713741,250252,1593852,74680,10106,796153,0
9,3,705048,248459,1436195,73869,9384,717473,0
9,3,711192,248340,1354737,73878,9294,676892,0
9,3,713682,249557,1491176,74133,9819,744821,0
9,3,715022,249450,1478940,74239,9007,738762,0
9,3,735205,253888,1416777,77249,10622,707248,0
9,3,709380,249333,1448402,74102,8560,723718,0
9,3,712021,248931,1324874,73905,8765,661942,0
9,3,706641,248010,1369307,73579,8497,684237,0
9,3,707734,248357,1341577,73730,8936,670200,0
9,3,710898,248303,1261110,73671,8412,630071,0
9,3,708993,250311,1438280,74150,9403,717944,0
9,3,710840,248643,1444240,74365,9355,721713,0
9,3,711594,248830,1440277,74354,9183,719599,0
9,3,711835,248438,1364585,74299,9469,681748,0
9,3,708938,248123,1414168,73943,8424,706641,0
9,3,734531,253476,1564437,77562,12085,781479,0
9,3,714579,250370,1292262,75243,9829,645164,0
9,3,735305,254110,1582713,77879,10491,790602,0
9,3,714573,250386,1609983,74676,9788,804490,0
9,3,709481,248520,1371343,74207,8871,685211,0
9,3,719197,251337,1416459,75451,9100,707436,0
9,3,735704,253543,1476697,77561,10144,737961,0
9,3,706692,248025,1301281,74216,9356,650006,0
9,3,715722,250471,1558585,75258,9737,778201,0
10,3,732184,253267,1561642,77098,11208,780517,0
10,3,707717,248338,1410445,73887,9150,704511,0
10,3,731202,252718,1381333,77035,9947,690248,0
10,3,708856,248480,1444232,74007,9089,721674,0
10,3,728351,253429,1422613,77420,10119,710729,0
10,3,706841,248432,1471775,73855,9045,735383,0
10,3,708114,248437,1282360,73920,8457,640694,0
10,3,705126,248578,1563786,73914,9547,781392,0
10,3,715389,250042,1435544,74635,9284,716857,0
10,3,708609,247730,1459062,73513,8863,729066,0
10,3,718877,250679,1400863,74419,8788,699975,0
10,3,718962,251105,1481369,74613,10683,740126,0
10,3,706795,247739,1383822,73540,8782,691395,0
10,3,711908,248662,1341210,73825,9193,670164,0
10,3,711280,248539,1505489,73781,9710,752379,0
10,3,714652,248439,1576656,73757,9824,787906,0
10,3,712686,248634,1429981,73768,9075,714597,0
10,3,701578,248576,1405244,73312,9208,702110,0
10,3,709046,248043,1451939,74130,9521,725472,0
10,3,712670,249824,1357050,74911,8832,677553,0
10,3,708285,247305,1462605,73796,9603,730766,0
10,3,709854,248687,1408150,74149,9043,703493,0
10,3,711490,248553,1363124,74187,9748,681145,0
10,3,710249,249809,1369811,74963,9702,683658,0
10,3,715944,250117,1371506,74980,8776,685271,0
10,3,715955,249847,1370393,74450,9171,684958,0
10,3,711633,249558,1370529,74552,8932,684782,0
10,3,734921,253704,1538830,77737,10621,768795,0
10,3,719907,249975,1539373,74790,9867,768914,0
10,3,702618,247747,1428972,74229,9447,713845,0
10,3,732984,253440,1630965,77691,10053,814813,0
11,3,713929,250048,1538869,74466,10178,768546,0
11,3,710469,249630,1536040,74434,9766,766892,0
11,3,706920,247620,1333414,73614,8902,666218,0
11,3,712909,250515,1480847,74850,9631,739822,0
11,3,705200,248486,1423345,74003,8867,711170,0
11,3,705071,248369,1402420,73773,8624,700533,0
11,3,708777,248501,1385294,73918,8552,692266,0
11,3,705450,248962,1588094,74014,9387,793640,0
11,3,710974,249606,1399189,74279,9080,699039,0
11,3,732273,253830,1446766,77287,10800,722810,0
11,3,716543,250133,1420738,74206,8691,709930,0
11,3,713703,249539,1577929,74108,10664,787843,0
11,3,710075,250054,1422612,74500,9108,710635,0
11,3,732808,253765,1346550,77279,9758,672869,0
11,3,714454,250277,1454990,74559,9366,726837,0
11,3,720050,251194,1508785,74977,10020,753616,0
11,3,712623,248441,1362546,73773,8840,680670,0
11,3,709802,249193,1353721,73510,8835,676341,0
11,3,711839,249612,1359371,74820,9047,679057,0
11,3,710062,248202,1455554,74187,9308,726944,0
11,3,731514,253052,1558224,77532,10938,778688,0
11,3,718909,250860,1465152,75262,9156,731650,0
11,3,713235,249782,1455064,74779,9980,726728,0
11,3,727358,252916,1530127,77471,10657,764472,0
11,3,712809,249460,1344351,74597,9061,671840,0
11,3,714977,249107,1455385,74316,9216,727229,0
11,3,712522,250333,1291460,74892,9637,645038,0
11,3,712323,249208,1392061,74495,9517,695543,0
11,3,713937,248568,1362452,74108,9051,680808,0
11,3,704880,247774,1338057,74133,8472,668469,0
11,3,710258,248306,1663318,74262,11095,830707,0
12,3,709635,248236,1479587,73621,9977,739176,0
12,3,706618,247838,1434326,73680,9093,716208,0
12,3,730319,252614,1510186,76905,8597,753853,0
12,3,710434,248390,1557949,73910,9296,778543,0
12,3,706678,248725,1538867,74315,9456,768778,0
12,3,705597,249182,1449709,74181,9762,724339,0
12,3,712907,250535,1419121,74884,8448,708812,0
12,3,703768,248309,1494267,73811,8919,746586,0
12,3,709375,248933,1402819,74054,8420,700900,0
12,3,713378,249470,1414781,74075,10652,706868,0
12,3,716151,249890,1451688,74143,8598,725379,0
12,3,712859,249685,1280093,74183,9051,639512,0
12,3,708348,248599,1315147,73911,8858,657039,0
12,3,709761,248764,1270248,73799,8850,634706,0
12,3,709388,248934,1358916,73926,8793,678845,0
12,3,733279,252689,1468594,76951,10373,733737,0
12,3,716249,250642,1361729,74740,8929,679984,0
12,3,707512,248765,1504211,73337,8932,751658,0
12,3,709764,247941,1410453,74066,8822,704788,0
12,3,707981,247788,1352064,73999,8506,675503,0
12,3,710991,248942,1427882,74417,9600,713362,0
12,3,711173,248171,1500590,74019,8855,749734,0
12,3,713783,248216,1328123,74012,9127,663574,0
12,3,705711,248204,1519802,74088,9824,759390,0
12,3,711809,249143,1465305,74492,9731,731974,0
12,3,714648,249120,1443077,74172,9335,721096,0
12,3,710787,249325,1337112,74465,9577,668051,0
12,3,718848,249405,1494362,74552,9906,746727,0
12,3,714418,248666,1435204,74179,9546,717121,0
12,3,726955,252913,1542841,77644,10718,771082,0
12,3,713594,249973,1440511,74916,8593,719388,0
13,3,708839,248607,1494848,73788,10378,746721,0
13,3,712525,250757,1692669,74926,9719,845506,0
13,3,709597,248414,1729095,73825,9781,863711,0
13,3,709834,248505,1474379,74025,9533,736665,0
13,3,704826,248429,1343764,74004,8721,671355,0
13,3,714113,250811,1358139,74948,9456,678263,0
13,3,709656,249228,1405402,74172,8189,702225,0
13,3,704246,249382,1457348,74223,8138,728128,0
13,3,712259,249341,1351881,74171,8404,675434,0
13,3,711497,249687,1565004,74180,9439,781979,0
13,3,720039,251626,1506016,75016,9549,752368,0
13,3,713623,249953,1488689,74202,10454,743830,0
13,3,708743,248895,1473531,73999,9337,736309,0
13,3,713910,249135,1279881,74118,9407,639443,0
13,3,729340,253014,1313595,77015,9252,656281,0
13,3,711957,248620,1523218,73806,10392,761194,0
13,3,712049,248644,1496786,73841,8942,747983,0
13,3,727574,253115,1615853,76556,9944,807410,0
13,3,713287,249217,1448938,74432,9759,723958,0
13,3,708650,248591,1542763,74266,9772,770825,0
13,3,708144,248018,1643876,74100,9942,821443,0
13,3,713131,248874,1399182,74185,8729,699208,0
13,3,715348,249321,1479386,74425,9498,739053,0
13,3,708179,249582,1391108,74699,9171,694961,0
13,3,716447,250646,1437349,75153,9076,718304,0
13,3,718800,251156,1357211,75190,9244,677795,0
13,3,710197,249055,1358484,74344,9629,678780,0
13,3,717898,249466,1324587,74544,8478,661887,0
13,3,712689,248349,1416976,74041,9278,708054,0
13,3,704529,248135,1362716,74288,9451,680797,0
13,3,706902,247636,1420218,73922,9208,709528,0
14,3,716160,250716,1574620,74814,10558,786042,0
14,3,724457,252245,1463044,76954,9578,730861,0
14,3,710679,248417,1464746,73759,8960,731889,0
14,3,714437,250768,1352885,75012,9314,675463,0
14,3,702234,247645,1486423,73713,9275,742626,0
14,3,708825,249082,1317120,74056,8907,657976,0
14,3,712128,249556,1409917,74272,8889,704371,0
14,3,714384,248363,1516854,73836,9332,757995,0
14,3,710601,249019,1384789,74083,8286,692088,0
14,3,715550,250689,1585009,74665,10453,791644,0
14,3,736148,254309,1615269,77404,10073,807156,0
14,3,713107,249048,1474161,73934,9354,737161,0
14,3,708696,249154,1341209,74120,8964,670088,0
14,3,715810,251103,1404279,74947,9312,701131,0
14,3,706689,248057,1257514,73577,8199,628183,0
14,3,712863,248256,1480318,73614,10104,739776,0
14,3,710739,248162,1439132,73609,8387,718874,0
14,3,707434,249106,1502365,73468,8767,750655,0
14,3,714222,250095,1275359,75072,9610,636941,0
14,3,709922,248275,1362254,74203,9458,680518,0
14,3,711428,248752,1685710,74352,9900,842248,0
14,3,712351,248476,1502944,74101,9551,750861,0
14,3,715520,249920,1444107,74877,9699,721793,0
14,3,714396,248515,1599205,74276,10007,798976,0
14,3,712129,249326,1549141,74569,9194,774101,0
14,3,737843,254825,1516338,77904,10251,757649,0
14,3,708959,249439,1359304,74473,9365,679152,0
14,3,719206,250700,1464041,75250,8712,731325,0
14,3,717822,250645,1444245,75006,9351,721457,0
14,3,707655,249221,1595595,74833,9430,796672,0
14,3,707898,248543,1454478,74272,9564,726697,0
15,3,708656,248262,1623196,73651,9167,810810,0
15,3,706761,247759,1512071,73618,9849,755623,0
15,3,712300,249238,1368615,74089,8522,683785,0
15,3,709068,248636,1363686,74072,8920,681372,0
15,3,701998,247819,1417701,73705,8983,708384,0
15,3,708254,248377,1388398,73856,9671,693747,0
15,3,713779,250992,1458538,75079,9104,728480,0
15,3,712996,248779,1453651,73968,9264,726456,0
15,3,728530,252870,1491488,77169,8820,745297,0
15,3,710997,249441,1455821,74021,9734,727392,0
15,3,716085,250416,1526647,74290,9581,762818,0
15,3,716044,250753,1536950,74508,9546,767901,0
15,3,705689,248082,1514524,73724,9077,756813,0
15,3,735812,253967,1571075,77435,10015,785021,0
15,3,718048,251167,1496754,74959,9460,747499,0
15,3,710156,247995,1421855,73582,9431,710331,0
15,3,708756,248177,1438418,73672,8783,718694,0
15,3,707954,249469,1451780,73621,9220,725336,0
15,3,709514,248311,1332830,74169,9899,665884,0
15,3,711399,248909,1501351,74358,9977,750307,0
15,3,712275,249492,1364711,74749,9333,681621,0
15,3,711546,248475,1391652,74064,8951,695145,0
15,3,712444,249013,1541564,74494,8985,769414,0
15,3,717238,249342,1415832,74758,9991,707137,0
15,3,711990,249398,1319457,74512,8660,659322,0
15,3,711687,248830,1443502,74137,9446,721281,0
15,3,707368,247538,1502467,73893,9426,750886,0
15,3,716331,249281,1364255,74529,9771,681516,0
15,3,712067,248734,1471604,74263,9273,735256,0
15,3,703996,247767,1656434,74140,10025,827599,0
15,3,731046,253177,1525844,77538,10659,762388,0
16,3,711095,249635,1444152,74330,10568,721500,0
16,3,703327,247339,1239309,73484,7645,619280,0
16,3,709991,248656,1388021,73776,8111,693567,0
16,3,707564,247889,1330370,73783,8953,664766,0
16,3,707320,250577,1516655,75043,9618,757608,0
16,3,708881,248818,1646938,73977,9247,822274,0
16,3,705708,248330,1390264,73849,8882,694637,0
16,3,731752,252646,1484710,77034,10279,741946,0
16,3,711739,249858,1536060,74373,8762,767585,0
16,3,730904,253369,1401737,77150,9890,700253,0
16,3,713979,249638,1382711,74048,8540,690009,0
16,3,710865,249260,1439983,74007,8834,718596,0
16,3,710662,249331,1347139,74168,8771,673057,0
16,3,711529,248957,1526467,74013,9201,762752,0
16,3,708264,248465,1446102,73743,9499,722517,0
16,3,712069,248078,1442342,73584,10148,720591,0
16,3,712605,248344,1388003,73694,9177,693314,0
16,3,704056,248094,1390602,73027,8826,694747,0
16,3,707094,247084,1298248,73681,8863,648693,0
16,3,714136,250386,1350945,75156,8892,674761,0
16,3,707657,248222,1409528,74148,9337,704182,0
16,3,709330,247618,1454566,73860,8788,726850,0
16,3,708958,248290,1427255,74062,9297,712979,0
16,3,713566,247952,1491135,74068,10489,744991,0
16,3,714513,250250,1634122,74813,10801,816588,0
16,3,713707,249063,1446133,74253,8698,722504,0
16,3,711785,249921,1461776,74655,9664,730408,0
16,3,714117,249016,1379297,74421,9262,689098,0
16,3,714445,248365,1391214,74046,9116,695194,0
16,3,724519,250819,1567695,75505,10452,782967,0
16,3,709820,248283,1472427,74196,9701,735463,0
17,3,708038,247975,1369526,73611,9599,684205,0
17,3,703271,247371,1409952,73494,8818,704471,0
17,3,708277,248404,1404936,73869,8544,701994,0
17,3,712882,250511,1483010,74849,9333,740775,0
17,3,707096,248782,1428786,74059,9574,713937,0
17,3,712751,250949,1580993,75005,9390,787833,0
17,3,711814,249521,1409614,74195,9067,704313,0
17,3,714089,249270,1586604,74126,9980,792895,0
17,3,707446,247946,1361137,73669,8338,680308,0
17,3,712728,250040,1579083,74495,9952,788774,0
17,3,718131,251658,1496987,74926,9294,747779,0
17,3,714874,249966,1519946,74216,10699,759550,0
17,3,716581,249944,1346454,74557,9423,672540,0
17,3,708367,248093,1332327,73605,8114,665768,0
17,3,711118,248255,1318634,73662,8380,658878,0
17,3,730466,252698,1352654,76929,9950,675935,0
17,3,711483,248430,1478778,73714,9293,738852,0
17,3,704497,248578,1338441,73308,9077,668755,0
17,3,709038,248291,1429118,74229,9398,714040,0
17,3,708103,248396,1429047,74263,9750,714044,0
17,3,713205,249704,1372297,74923,9248,685043,0
17,3,711873,248558,1425242,74159,9292,712016,0
17,3,708887,248227,1450721,74003,9709,724875,0
17,3,714846,248241,1429310,74207,9431,714156,0
17,3,710244,248971,1499236,74313,9869,749104,0
17,3,715556,250192,1351541,74774,8229,675127,0
17,3,707923,248950,1395027,74309,8760,697145,0
17,3,717757,250411,1283868,75018,8721,640770,0
17,3,718558,250740,1419417,75151,9048,708862,0
17,3,736591,252328,1479277,77447,10565,739149,0
17,3,707377,247670,1621672,73977,10213,810153,0
18,3,706272,248126,1413551,73581,10143,706204,0
18,3,706859,248116,1297348,73827,8590,648350,0
18,3,715415,250054,1460225,74697,9186,729240,0
18,3,710006,249000,1354107,74205,8900,676478,0
18,3,709745,250040,1479678,74718,9625,739153,0
18,3,707744,248731,1446935,74032,8555,722902,0
18,3,707702,248954,1425202,74072,8735,712088,0
18,3,711981,248661,1451017,73979,9722,725013,0
18,3,709957,249222,1426955,74188,8430,712985,0
18,3,709335,249307,1435875,74017,9619,717470,0
18,3,718788,250585,1474603,74402,9349,736847,0
18,3,715313,250340,1432721,74680,9884,715534,0
18,3,711104,248608,1276717,73971,9025,637828,0
18,3,714096,250337,1432399,74713,9220,715168,0
18,3,715238,250936,1397637,74729,8542,698160,0
18,3,708881,248011,1558803,73562,9904,779106,0
18,3,714836,250407,1445948,74683,9586,722131,0
18,3,714064,251193,1396864,74470,8678,697389,0
18,3,705919,248126,1459118,74158,8732,729088,0
18,3,705146,247365,1280514,73849,9072,639629,0
18,3,710236,249255,1417658,74479,9909,708117,0
18,3,712146,248545,1353560,74122,9324,676047,0
18,3,713863,250014,1361012,74615,8531,679806,0
18,3,713220,248231,1486876,74188,9748,742920,0
18,3,715624,251590,1568028,75556,10512,782753,0
18,3,713038,249174,1620309,74218,9346,809654,0
18,3,706413,248781,1433187,74229,9049,716134,0
18,3,714471,249364,1390038,74552,9483,694507,0
18,3,713510,248933,1418995,74247,9191,709151,0
18,3,713749,247122,1486322,73860,9885,742800,0
18,3,712319,248606,1321142,74330,8933,660162,0
19,3,727894,253123,1507774,77063,9628,753363,0
19,3,710435,250025,1403927,74694,9951,700880,0
19,3,731775,253231,1431005,77256,9572,714965,0
19,3,718295,250448,1545904,74869,9957,772140,0
19,3,703069,247855,1379652,73737,9027,689286,0
19,3,705790,248435,1357475,73992,8062,678161,0
19,3,706085,248693,1435729,73947,8837,717504,0
19,3,709333,248147,1432096,73713,9563,715500,0
19,3,712064,248614,1462350,73934,8779,730736,0
19,3,707521,248499,1322173,73815,8743,660730,0
19,3,734402,254449,1436340,77651,9359,717603,0
19,3,713139,249846,1348358,74325,9229,673327,0
19,3,734291,253804,1330559,77427,10108,664903,0
19,3,707211,248044,1478136,73652,8600,738695,0
19,3,707662,248087,1413387,73591,8967,706267,0
19,3,712035,248766,1451172,73865,9609,725070,0
19,3,731913,252832,1539986,76975,9779,769308,0
19,3,704157,248340,1560215,73174,9038,779714,0
19,3,714358,248890,1538461,74343,9569,768924,0
19,3,708941,248847,1373941,74401,9408,686423,0
19,3,711479,249736,1405626,74827,10041,702007,0
19,3,710515,248794,1488094,74329,9936,743511,0
19,3,709627,248410,1476939,74083,9518,737930,0
19,3,713088,248119,1452253,74102,9905,725655,0
19,3,713822,249198,1430994,74500,8928,714916,0
19,3,710663,249195,1507145,74249,9150,753172,0
19,3,713409,248851,1396373,74256,8445,697777,0
19,3,713583,249018,1340800,74397,9050,669661,0
19,3,713597,248932,1433914,74272,9340,716448,0
19,3,713973,247775,1449711,74195,9068,724240,0
19,3,709363,248456,1354698,74314,9298,676666,0
20,3,704913,248394,1480668,73770,8756,739690,0
20,3,721751,251265,1373673,76674,9083,686284,0
20,3,709244,248688,1788201,73944,10204,893621,0
20,3,732527,252692,1456384,77236,10351,727588,0
20,3,704845,248205,1490762,73863,9257,744986,0
20,3,710027,249965,1427496,74616,8961,712853,0
20,3,708369,248943,1343825,74012,7961,671365,0
20,3,713463,249823,1501159,74330,9666,750059,0
20,3,714495,250254,1476167,74719,9235,737237,0
20,3,711091,248639,1412359,73773,8865,705831,0
20,3,714034,249615,1368480,74241,8516,683751,0
20,3,710361,249206,1489098,74061,10059,744092,0
20,3,713740,249320,1478030,74170,9710,738515,0
20,3,711348,249008,1557359,73988,9266,778188,0
20,3,712510,249545,1520625,74380,9257,759531,0
20,3,709472,248235,1423056,73719,9187,710979,0
20,3,711439,249047,1457993,73950,8900,728475,0
20,3,702842,248113,1507072,73111,9863,753110,0
20,3,711812,248696,1407299,74326,9368,703201,0
20,3,706163,248216,1373455,74098,10145,686189,0
20,3,707625,248371,1445408,74187,9727,722196,0
20,3,708634,247705,1508108,73957,9540,753424,0
20,3,711043,249368,1369448,74605,8792,683890,0
20,3,716099,249789,1369573,74978,9350,683858,0
20,3,713549,249454,1474947,74559,9712,736490,0
20,3,715363,250701,1348379,75057,9377,673360,0
20,3,715453,248591,1427994,74203,9666,713527,0
20,3,718148,250490,1432860,75185,9059,715598,0
20,3,733795,252808,1585004,77270,10293,791934,0
20,3,716204,248351,1573666,74356,10310,786406,0
20,3,709486,248557,1566517,74342,9242,782521,0
21,3,711022,248875,1468724,73910,8634,733857,0
21,3,713215,249312,1350075,74313,9325,674205,0
21,3,712352,250011,1472875,74679,8882,735680,0
21,3,713133,248583,1393126,74064,8391,695836,0
21,3,708301,249541,1499191,74350,9718,748967,0
21,3,708322,249205,1432146,74237,9635,715544,0
21,3,706217,248643,1363101,73973,8450,681028,0
21,3,710963,248737,1392868,73957,9381,695938,0
21,3,731750,253673,1430804,77373,9417,714811,0
21,3,711407,248815,1444320,73899,9090,721376,0
21,3,711938,249218,1408616,74173,8890,703703,0
21,3,717156,251402,1465023,75103,10351,731574,0
21,3,713512,249261,1327186,74184,9515,663032,0
21,3,708508,248873,1329520,73960,8754,664301,0
21,3,731330,253204,1484381,77109,9117,741675,0
21,3,711551,248517,1396843,73786,9690,697829,0
21,3,707533,247965,1327794,73547,8650,663488,0
21,3,708436,250641,1407620,74195,9579,702929,0
21,3,709047,248012,1334816,74073,9026,666834,0
21,3,712429,248161,1454448,74172,9734,726751,0
21,3,707343,248002,1359084,74031,9042,679162,0
21,3,714404,250391,1424520,75155,9066,711207,0
21,3,710370,248542,1546279,74148,9349,772159,0
21,3,716487,248768,1385212,74361,9349,691919,0
21,3,714042,249553,1439691,74577,9000,719389,0
21,3,712240,249163,1376361,74334,8618,687756,0
21,3,714223,248366,1342038,74119,9296,670620,0
21,3,712924,248868,1435731,74352,8719,717302,0
21,3,712167,248411,1486486,74102,9850,742171,0
21,3,713656,247540,1446144,74062,9204,722361,0
21,3,708653,247851,1428228,74188,9620,713483,0
22,3,711458,249475,1470471,74247,9478,734476,0
22,3,710817,248656,1314751,73965,8859,656804,0
22,3,708552,247714,1361644,73777,8642,680304,0
22,3,711735,248783,1345569,74111,8760,672347,0
22,3,728483,256430,1336788,76286,8649,667915,0
22,3,708735,248235,1472103,73886,9011,735544,0
22,3,707563,249488,1459192,74259,8600,729154,0
22,3,718618,250881,1537986,74927,9987,768269,0
22,3,710148,248768,1487453,73984,9659,743250,0
22,3,711134,249118,1386758,73937,9135,692847,0
22,3,714764,250409,1348821,74691,9222,673740,0
22,3,711629,249022,1365433,73963,9415,682145,0
22,3,712089,248690,1436044,73944,9488,717556,0
22,3,706177,248412,1535773,73788,9034,767176,0
22,3,710158,248914,1512355,73900,9135,755696,0
22,3,709399,247801,1418581,73539,8892,708661,0
22,3,708537,248457,1283591,73773,9196,641229,0
22,3,724302,253189,1535192,76614,11258,766922,0
22,3,710696,248918,1404524,74409,9593,701634,0
22,3,711998,248664,1566142,74245,9398,782527,0
22,3,708985,248941,1310675,74360,9286,654788,0
22,3,728626,252636,1565262,77420,10915,782086,0
22,3,711037,248910,1460637,74185,8030,729869,0
22,3,714418,248244,1503322,74119,10114,751095,0
22,3,715168,250356,1343755,75076,8547,671381,0
22,3,713819,250146,1566969,74685,8976,783049,0
22,3,714897,249185,1426924,74445,9404,712931,0
22,3,712128,249112,1378460,74480,8710,688831,0
22,3,715926,250276,1513640,74900,10169,755698,0
22,3,714501,248130,1414232,74250,9254,706531,0
22,3,728370,252594,1467491,77552,10031,733101,0
23,3,708336,248272,1361962,73720,8175,680485,0
23,3,710031,248712,1301211,73984,9014,650049,0
23,3,710472,248625,1405902,74010,8570,702482,0
23,3,715830,249911,1458131,74662,8979,728451,0
23,3,703714,248474,1491918,74011,10145,745238,0
23,3,713639,250715,1559125,75090,9692,777543,0
23,3,704872,248467,1486409,73868,8494,742776,0
23,3,733012,253251,1493080,77206,10297,746049,0
23,3,711625,249568,1460379,74196,8722,729837,0
23,3,711081,248675,1445114,73790,9998,722108,0
23,3,717114,249388,1389234,74211,9497,694082,0
23,3,714502,249919,1495331,74311,9993,747003,0
23,3,711084,248667,1373711,73928,9357,686383,0
23,3,737024,253746,1438373,77333,10202,718621,0
23,3,708360,248619,1439750,73810,8976,719232,0
23,3,714553,250586,1444773,74718,9025,721766,0
23,3,714650,248485,1434724,73770,9880,716836,0
23,3,704453,248705,1442780,73345,9065,720973,0
23,3,708531,248234,1307020,74193,8946,652941,0
23,3,709368,248453,1365464,74208,8680,682005,0
23,3,707423,248551,1366629,74145,9148,682781,0
23,3,737187,258111,1461065,77130,9462,729970,0
23,3,709026,248473,1499826,74088,9391,749347,0
23,3,714722,248954,1542408,74424,10294,770775,0
23,3,711859,248810,1462132,74382,9483,730620,0
23,3,731303,253870,1499234,77687,10687,748999,0
23,3,720205,251373,1390371,75416,9015,694348,0
23,3,715022,249506,1429124,74599,9904,714036,0
23,3,713971,248913,1422437,74154,9343,710102,0
23,3,718139,250268,1471098,75172,9416,734746,0
23,3,705804,247668,1406722,74138,9387,702889,0
24,3,707173,248244,1494604,73736,9085,746327,0
24,3,712024,250102,1446720,74725,10113,722340,0
24,3,709360,248570,1498256,74071,8839,748541,0
24,3,712512,248758,1377996,74113,8435,688491,0
24,3,702991,248221,1543810,73830,10180,771420,0
24,3,727661,252841,1477033,77172,9107,738107,0
24,3,730843,252898,1407730,77102,10123,703358,0
24,3,710647,248805,1528000,74019,9402,763477,0
24,3,706818,248054,1416547,73667,8658,707802,0
24,3,710753,248821,1482440,73828,10038,740772,0
24,3,720191,251147,1467687,75082,9734,733046,0
24,3,713917,249502,1443274,74056,10033,721107,0
24,3,711207,249271,1686103,74195,10110,841358,0
24,3,712817,248350,1425458,73746,9299,712212,0
24,3,710722,249649,1426384,74218,9075,712403,0
24,3,710317,248019,1488155,73616,9860,743587,0
24,3,712444,247908,1456492,73553,9832,727695,0
24,3,706327,248311,1299723,73177,8118,649388,0
24,3,727736,252603,1650801,77401,10250,824920,0
24,3,713773,248888,1462430,74430,9551,730648,0
24,3,725888,252484,1539252,77327,10104,769202,0
24,3,712716,248254,1562577,74190,9945,780888,0
24,3,710524,249480,1402821,74671,9148,700642,0
24,3,716975,249412,1539686,74770,9761,769155,0
24,3,714332,249868,1454593,74776,8552,726889,0
24,3,717497,250091,1503921,74646,9823,751399,0
24,3,714232,248932,1423688,74320,8513,711419,0
24,3,711970,248762,1421863,74269,9055,710234,0
24,3,709807,248282,1640806,74014,9939,819920,0
24,3,713063,247790,1374468,74177,9653,686725,0
24,3,714706,250406,1517505,75179,9897,758068,0
25,3,707073,247860,1412266,73591,8380,705777,0
25,3,726530,251849,1453656,76746,9952,726227,0
25,3,712637,249687,1381973,74329,8202,690521,0
25,3,709823,247756,1446402,73692,9097,722591,0
25,3,707817,249023,1444902,74169,9228,721985,0
25,3,707846,248548,1462380,74024,8260,730707,0
25,3,709583,248828,1446563,74004,9031,722821,0
25,3,710564,248837,1399111,73989,8803,699044,0
25,3,707149,248465,1426123,73859,8446,712669,0
25,3,713043,250161,1484032,74595,9654,741194,0
25,3,716357,249682,1477359,74350,8598,738076,0
25,3,734046,254892,1443804,77673,10417,721433,0
25,3,709507,248729,1467946,73964,9003,733420,0
25,3,714468,249312,1422921,74074,9515,711010,0
25,3,708245,248394,1468190,73620,9027,733622,0
25,3,709125,247957,1511550,73550,9894,755308,0
25,3,715143,248827,1475494,73870,9997,737093,0
25,3,704697,247906,1372397,73042,9101,685784,0
25,3,708274,247716,1354371,73921,9278,676674,0
25,3,710558,248625,1454886,74356,9199,726970,0
25,3,708341,248137,1586931,74113,10828,792838,0
25,3,710985,247941,1435853,74067,9301,717101,0
25,3,728498,252785,1504629,77332,11124,751643,0
25,3,712464,248094,1580041,74161,10218,789409,0
25,3,710537,248505,1466284,74305,9045,732544,0
25,3,714859,249772,1372832,74701,9036,685413,0
25,3,713081,248394,1420580,74134,8649,709726,0
25,3,716555,251130,1326881,75400,8747,662508,0
25,3,716305,250676,1629280,75155,10646,813882,0
25,3,715636,248514,1422426,74415,10587,710667,0
25,3,708410,248299,1510803,74270,8921,754799,0
26,3,711323,249675,1428965,74491,8731,713668,0
26,3,707766,248260,1465427,73843,9098,732165,0
26,3,714032,250906,1496029,74927,8835,747211,0
26,3,710389,248551,1332122,74039,8909,665783,0
26,3,703970,248949,1450320,74085,10004,724651,0
26,3,706621,248406,1404803,73956,8766,701985,0
26,3,710095,248792,1359578,74043,9071,679357,0
26,3,711051,248878,1548520,73981,8882,773816,0
26,3,709906,248703,1414190,74006,8866,706610,0
26,3,710095,249280,1473961,73976,8886,736444,0
26,3,714094,249158,1370636,74160,8074,684893,0
26,3,711551,249230,1492585,74030,9760,745516,0
26,3,704830,247175,1492263,73469,9608,745713,0
26,3,717204,250366,1549051,74640,10075,774276,0
26,3,707908,248826,1320899,73825,8469,659832,0
26,3,715305,250356,1414109,74550,8900,706266,0
26,3,713565,248085,1511376,73518,9161,755077,0
26,3,710336,250830,1327399,74300,8720,663000,0
26,3,710289,249087,1454411,74495,9416,726783,0
26,3,711033,248889,1344724,74394,8916,671802,0
26,3,707829,248108,1496211,74070,9998,747654,0
26,3,713332,248560,1354373,74346,9590,676562,0
26,3,712294,247874,1393319,73921,9612,696142,0
26,3,713688,248992,1403663,74381,9374,701369,0
26,3,731361,253409,1583487,77739,9177,791121,0
26,3,713313,249108,1364618,74353,9415,681745,0
26,3,713552,249059,1433619,74366,9012,716092,0
26,3,713755,248521,1401123,74219,9153,700095,0
26,3,731761,253251,1740768,77477,10652,869886,0
26,3,717914,249704,1445669,74972,9999,722055,0
26,3,707606,248290,1452716,74282,8208,725673,0
27,3,705467,247735,1350982,73552,8634,674935,0
27,3,706235,247678,1562069,73610,9610,780499,0
27,3,709745,248548,1408893,74022,8928,703998,0
27,3,708401,248159,1441363,73866,8974,720323,0
27,3,723742,252628,1582485,77158,9774,790547,0
27,3,739841,259526,1496862,77529,9465,747645,0
27,3,712374,250146,1445782,74650,9363,722239,0
27,3,710149,248961,1560066,74076,9129,779489,0
27,3,710775,249542,1538383,74462,9308,768514,0
27,3,712441,249086,1474654,73961,9173,736816,0
27,3,715183,249529,1421657,74319,8745,710317,0
27,3,710574,249642,1766867,74097,10454,882696,0
27,3,713229,248611,1412656,74029,9075,705846,0
27,3,713347,248680,1497451,73852,9833,748271,0
27,3,710713,248604,1435213,73676,8965,717110,0
27,3,710564,248841,1428170,73872,9377,713689,0
27,3,713672,248659,1520963,73829,9741,759824,0
27,3,703598,248946,1474005,73457,9980,736491,0
27,3,711910,249129,1341907,74690,9133,670218,0
27,3,713913,249885,1390820,75066,9283,694548,0
27,3,707127,248395,1478763,74169,9871,738676,0
27,3,709501,248343,1497266,74132,9536,747981,0
27,3,714333,249083,1493009,74320,10199,745809,0
27,3,709946,247721,1455824,73999,9908,727439,0
27,3,709653,248911,1451884,74444,8920,725546,0
27,3,719385,251611,1375814,75453,9076,687023,0
27,3,709615,248482,1500105,74203,9765,749522,0
27,3,713357,249116,1450893,74480,8760,724908,0
27,3,715437,248887,1510823,74220,9659,755286,0
27,3,711514,247294,1312793,74015,9822,655877,0
27,3,704603,247431,1293489,74032,8660,646176,0
28,3,706214,248057,1447632,73671,8959,723334,0
28,3,704461,247778,1388240,73712,8073,693757,0
28,3,714486,249667,1584421,74567,9823,791006,0
28,3,710968,248623,1468207,73980,8398,733754,0
28,3,703717,248677,1431309,74039,9145,715102,0
28,3,706724,248408,1332572,73979,8510,665746,0
28,3,708683,248104,1443519,73673,8497,721199,0
28,3,708430,248256,1447660,73796,8802,723340,0
28,3,705813,248206,1451661,73873,8325,725437,0
28,3,715338,250460,1487399,74637,10051,742699,0
28,3,714097,249460,1357552,74217,8530,678240,0
28,3,716719,251546,1520905,75077,10027,759640,0
28,3,712108,248305,1465856,73792,9260,732410,0
28,3,712214,248612,1371624,73896,9093,685219,0
28,3,710057,248597,1552459,73737,9192,775695,0
28,3,708705,248287,1506913,73645,9261,752827,0
28,3,710064,247701,1451698,73474,9822,725395,0
28,3,708235,250084,1383673,73979,9144,691581,0
28,3,709211,248667,1441776,74307,10042,720409,0
28,3,707588,247777,1436087,74022,9492,717602,0
28,3,709241,248330,1457142,74230,10892,727736,0
28,3,713965,250132,1371384,75080,9147,684723,0
28,3,708484,247401,1413541,73707,9500,706270,0
28,3,714702,248596,1476065,74107,9503,737459,0
28,3,716716,250803,1291292,75287,8759,644690,0
28,3,711624,249068,1278327,74305,8704,638695,0
28,3,718161,249833,1454377,74615,9951,725911,0
28,3,734359,253509,1563103,77606,10369,781062,0
28,3,713905,249048,1421765,74318,8168,710377,0
28,3,714441,247992,1340793,74186,9256,669797,0
28,3,710963,250540,1409596,75358,9110,703878,0
29,3,706142,248284,1406177,73796,8682,702567,0
29,3,710972,250211,1517213,74833,9857,757445,0
29,3,709237,248521,1474177,73961,9888,736454,0
29,3,710849,249283,1445021,74252,8210,721862,0
29,3,715387,248613,1481394,74044,9338,740098,0
29,3,705467,248369,1446516,73950,8803,722670,0
29,3,707057,248323,1323714,73863,8205,661376,0
29,3,711657,249934,1567966,74621,9268,783214,0
29,3,708290,248857,1344371,74000,8344,671790,0
29,3,711547,249750,1385663,74203,8665,692043,0
29,3,713888,249277,1367282,74093,8698,683370,0
29,3,733535,254821,1495911,77682,10593,747387,0
29,3,718705,251121,1429549,74957,9995,713878,0
29,3,710245,248140,1461074,73629,9020,730138,0
29,3,709182,248396,1446081,73610,8578,722616,0
29,3,712456,248990,1343166,73921,9401,670971,0
29,3,731958,252611,1532064,76901,11151,765368,0
29,3,704334,248422,1505071,73268,8711,751981,0
29,3,706506,247948,1455114,74084,9986,727178,0
29,3,709662,249252,1344748,74638,8284,671676,0
29,3,706884,248353,1472468,74209,10485,735453,0
29,3,709799,248502,1394137,74295,8369,696609,0
29,3,711554,248844,1483784,74300,9796,741288,0
29,3,714942,248741,1440298,74211,10061,719609,0
29,3,711715,248894,1417793,74433,10060,708402,0
29,3,714683,250054,1343771,74643,8928,671540,0
29,3,714257,248672,1546759,74257,10598,772824,0
29,3,709618,248513,1431134,74240,9558,715148,0
29,3,734224,253209,1505453,77480,9600,752173,0
29,3,737673,253680,1563959,78424,10855,781452,0
29,3,728628,252449,1407089,77494,11118,703017,0
30,3,726376,253066,1458139,77201,9452,728427,0
30,3,728228,252748,1451258,77113,9730,725181,0
30,3,715538,250495,1504538,74837,9249,751534,0
30,3,709846,248910,1551832,74042,9073,775487,0
30,3,715802,248850,1381302,74125,8749,690173,0
30,3,706347,248581,1424315,73973,9023,711403,0
30,3,708170,248517,1467512,73891,9272,733262,0
30,3,730059,253399,1568589,77325,9523,783862,0
30,3,711114,250498,1449779,74811,8939,724192,0
30,3,711595,249150,1456514,73941,9636,727838,0
30,3,718679,251290,1478424,74956,9308,738495,0
30,3,711391,250715,1540989,74729,10816,769495,0
30,3,733931,253549,1414351,77271,9697,706559,0
30,3,732982,253608,1414112,77271,9792,706609,0
30,3,713928,250707,1410360,74683,9158,704427,0
30,3,710062,248463,1423506,73714,9161,711687,0
30,3,710247,248229,1446452,73684,9762,722645,0
30,3,703567,248431,1668203,73287,9540,833531,0
30,3,710568,249703,1328792,74880,9624,663570,0
30,3,710395,247783,1418556,73996,9341,708717,0
30,3,708118,248354,1558031,74164,11076,778416,0
30,3,709610,248669,1509107,74213,9938,753923,0
30,3,714759,249078,1510400,74282,9988,754362,0
30,3,712910,248701,1378572,74216,9938,688551,0
30,3,715092,250650,1396547,75048,9794,697484,0
30,3,713234,249894,1324362,74645,9405,661806,0
30,3,713335,248696,1332200,74203,9639,665615,0
30,3,714560,249252,1389187,74549,8905,694058,0
30,3,714488,250034,1416293,74837,9111,707412,0
30,3,711722,248008,1486434,74138,9982,742684,0
30,3,704535,247692,1399344,74095,9306,699297,0
31,3,706799,248381,1527969,73765,9160,763457,0
31,3,706940,248416,1435777,73831,8952,717268,0
31,3,710315,248592,1429364,73913,8943,714241,0
31,3,712812,249685,1470926,74334,8864,734989,0
31,3,719174,250406,1456967,74928,9660,727703,0
31,3,706230,248816,1392204,74067,8611,695590,0
31,3,708822,248751,1375479,73962,8348,687013,0
31,3,710296,248795,1530001,74030,9699,764389,0
31,3,705658,248604,1343139,73990,9477,671042,0
31,3,708925,248784,1294688,73904,8648,646818,0
31,3,714485,250123,1438242,74439,8854,718670,0
31,3,713824,249551,1650936,74116,10644,824480,0
31,3,710954,248642,1450485,73913,8970,724683,0
31,3,710374,248851,1445605,73979,10180,722288,0
31,3,731877,254199,1408975,77313,9463,703953,0
31,3,718171,250326,1391535,74549,9502,694966,0
31,3,712213,248159,1398400,73616,9931,698638,0
31,3,703354,248383,1448935,73194,9184,724002,0
31,3,711419,249043,1352587,73821,8621,675577,0
31,3,707893,248383,1408287,74188,9318,703554,0
31,3,709527,249578,1515052,74901,10315,756183,0
31,3,707830,247930,1427686,73932,9584,713472,0
31,3,731001,252864,1456698,77366,11550,727759,0
31,3,714912,249659,1289296,74710,8979,644039,0
31,3,731268,253419,1374957,77798,9831,686852,0
31,3,714915,249646,1375497,74534,8490,687296,0
31,3,717117,249749,1368421,74564,9880,683226,0
31,3,714506,249746,1463906,74682,8686,731449,0
31,3,713761,248669,1444051,74192,9348,721514,0
31,3,712321,248511,1388539,74409,9536,693208,0
31,3,710189,250001,1433063,75095,9835,715782,0
32,3,703930,247728,1365032,73683,8061,681913,0
32,3,710614,249976,1496580,74539,9260,747528,0
32,3,707254,247861,1459946,73512,9138,729597,0
32,3,715799,249783,1483272,74582,9841,740892,0
32,3,715035,248409,1544625,73983,9690,771157,0
32,3,726717,252847,1394727,77204,9617,696866,0
32,3,712951,250396,1465961,74716,9111,732145,0
32,3,712508,248677,1530430,73934,9610,764712,0
32,3,706283,248842,1307495,74016,8829,653406,0
32,3,713863,250514,1378162,74713,9568,688180,0
32,3,713390,249717,1439772,74258,8997,719410,0
32,3,716892,251280,1483711,74953,10281,740147,0
32,3,711758,249055,1490707,74018,9251,744778,0
32,3,711544,247769,1317015,73634,9401,658113,0
32,3,708864,248788,1331761,73775,8807,665373,0
32,3,710832,247848,1448620,73475,10099,723722,0
32,3,711325,247832,1408493,73491,9926,703787,0
32,3,723701,253136,1503527,76572,10637,751583,0
32,3,708679,248291,1391779,73314,8853,695499,0
32,3,711206,249427,1408455,74797,8780,703542,0
32,3,707808,249137,1394685,74634,10266,696528,0
32,3,708458,248591,1519424,74189,9649,759179,0
32,3,711464,248750,1307667,74208,9280,653311,0
32,3,713998,248732,1382682,74225,9148,690783,0
32,3,710217,249288,1520379,74643,10385,759051,0
32,3,714846,250407,1465396,74759,8741,732179,0
32,3,712992,248649,1448841,74196,9548,724055,0
32,3,737007,255125,1535248,78047,9698,767093,0
32,3,713292,248526,1357440,74053,8251,678302,0
32,3,717640,249592,1523252,74932,10543,760754,0
32,3,707132,247322,1359192,73976,8595,679066,0
33,3,717041,252903,1447788,75041,9452,723128,0
33,3,703810,247666,1392656,73565,8673,695882,0
33,3,710628,249410,1399108,74103,8633,698979,0
33,3,712319,248836,1343756,74023,8582,671418,0
33,3,714547,249381,1495375,74509,10392,746950,0
33,3,704674,248509,1416513,73985,8973,707759,0
33,3,708260,249262,1475627,74197,9203,737297,0
33,3,715029,250212,1529778,74678,9704,764189,0
33,3,707806,248683,1272950,74009,8354,636034,0
33,3,731336,253760,1339796,77297,10067,669337,0
33,3,713866,249610,1446900,74264,8526,722970,0
33,3,712223,249538,1539993,74111,10178,769473,0
33,3,709950,248593,1581379,73845,9367,790206,0
33,3,714103,249821,1473974,74452,9452,736225,0
33,3,714785,250113,1467140,74314,10463,732728,0
33,3,710621,248084,1492205,73584,10043,745579,0
33,3,708482,247000,1451880,73308,9098,725436,0
33,3,704311,248706,1388030,73352,8250,693553,0
33,3,707993,248323,1424290,73321,8506,711698,0
33,3,706553,248167,1328602,74115,9588,663597,0
33,3,705563,248562,1429967,74281,9969,714423,0
33,3,711029,249428,1573342,74367,10389,786178,0
33,3,709926,248759,1413395,74235,9187,706209,0
33,3,712664,249121,1377136,74332,8796,687875,0
33,3,709370,249178,1421827,74750,9038,710252,0
33,3,712053,248812,1456798,74239,9101,727948,0
33,3,734475,253395,1555370,77571,9769,777131,0
33,3,713286,249859,1404753,74545,8139,701901,0
33,3,713312,248943,1462154,74298,8415,730552,0
33,3,715795,248387,1462898,74379,9973,730868,0
33,3,710394,247766,1459931,74050,8643,729564,0
34,3,754552,264545,1698213,78131,9587,848382,0
34,3,703837,248172,1465190,73757,8950,731958,0
34,3,709131,248087,1333460,73779,9647,666253,0
34,3,711474,248605,1417195,74014,9327,708132,0
34,3,714129,248876,1354962,74158,9399,676997,0
34,3,707865,249001,1481007,74210,9721,740039,0
34,3,705957,248545,1348477,73902,8625,673836,0
34,3,712107,248641,1561356,73958,9245,780257,0
34,3,716925,250348,1373606,74728,9520,686085,0
34,3,707032,248378,1383682,73705,8308,691537,0
34,3,734845,254191,1410138,77544,8954,704502,0
34,3,713567,250118,1638311,74274,10187,818394,0
34,3,708977,248183,1473356,73762,8759,735945,0
34,3,712585,249028,1441661,74078,8365,720401,0
34,3,709573,249088,1354743,73825,9437,676921,0
34,3,733154,252982,1421472,77016,10499,710248,0
34,3,711367,248542,1515965,73795,9735,757265,0
34,3,702317,248853,1427152,73405,9306,713256,0
34,3,707251,248464,1336570,73422,8579,667739,0
34,3,707408,247596,1355460,73940,9816,677199,0
34,3,714687,248159,1495012,74111,9902,747124,0
34,3,711788,248671,1393920,74177,8824,696329,0
34,3,713474,249412,1367599,74640,9919,682989,0
34,3,708260,247545,1466999,73771,9267,733048,0
34,3,711919,249217,1540226,74596,8937,769471,0
34,3,716297,251165,1350224,75317,8280,674303,0
34,3,711501,248767,1310924,74279,8377,654904,0
34,3,710619,249178,1430681,74323,8828,714962,0
34,3,711874,248377,1362995,74042,8742,681104,0
34,3,714499,248272,1447351,74309,10474,723208,0
34,3,707489,247426,1435858,74031,9501,717456,0
35,3,787511,271991,1588373,82365,11268,793618,0
35,3,705855,248743,1430351,73916,9427,714378,0
35,3,710012,248348,1367894,73882,9028,683454,0
35,3,712135,249381,1381615,74173,9380,690377,0
35,3,711105,247965,1451377,73807,9312,725130,0
35,3,705577,248613,1347153,74012,9007,673158,0
35,3,708491,249918,1508116,74393,8767,753555,0
35,3,706899,247541,1580948,73627,9719,790008,0
35,3,711318,248598,1323842,73908,8288,661424,0
35,3,735967,258749,1605164,76834,8967,801974,0
35,3,711302,249667,1343648,74290,8075,671443,0
35,3,714522,250841,1500829,74709,9765,749939,0
35,3,708235,248239,1501470,73697,8909,750240,0
35,3,709186,247922,1375675,73673,9351,687420,0
35,3,712127,250638,1335890,74647,9718,667215,0
35,3,708258,247580,1337935,73429,9285,668550,0
35,3,710000,248229,1584174,73630,9410,791665,0
35,3,699660,247946,1433933,73052,8545,716356,0
35,3,711325,250363,1322589,74218,8876,660655,0
35,3,713651,249964,1275772,75043,8776,636852,0
35,3,717385,249663,1396095,74936,9745,697260,0
35,3,709527,248134,1316152,73955,8942,657474,0
35,3,711603,248470,1485389,74176,9828,742139,0
35,3,740572,258211,1504477,77006,8872,751711,0
35,3,717633,249788,1460551,74780,9033,729852,0
35,3,712894,249532,1455514,74553,9114,727251,0
35,3,712978,249011,1443640,74284,9260,721086,0
35,3,717178,249337,1402294,74483,9777,700673,0
35,3,716451,250584,1391201,75083,8693,694849,0
35,3,760901,261861,1688029,80318,11846,843351,0
35,3,713206,249493,1423113,74845,8965,710524,0
36,3,764855,266749,1404013,78835,9285,701420,0
36,3,709397,249797,1496741,74568,10088,747437,0
36,3,708747,248123,1594895,73894,11295,796881,0
36,3,710502,248694,1397386,73926,9274,698259,0
36,3,711906,248721,1441234,74105,9154,720005,0
36,3,709651,250802,1496028,75057,9411,746750,0
36,3,705748,248825,1519381,74042,8256,758997,0
36,3,709394,248834,1449253,73899,9591,724239,0
36,3,712744,249294,1435955,74186,8301,717472,0
36,3,712049,249505,1384797,74056,9153,691757,0
36,3,716777,250010,1407587,74402,9452,703337,0
36,3,711147,249608,1480882,74049,10072,739753,0
36,3,712827,250639,1497077,74830,8956,747641,0
36,3,716250,250813,1345872,74947,9237,672093,0
36,3,707281,248445,1396713,73628,8731,697912,0
36,3,737090,257938,1355360,76725,9223,677035,0
36,3,717803,250588,1510559,74648,9832,754374,0
36,3,700232,248548,1389768,73230,8133,694402,0
36,3,706279,248730,1424090,73508,8831,711384,0
36,3,710237,248916,1455616,74428,9516,727050,0
36,3,710282,247286,1349616,73923,10168,674095,0
36,3,712334,249127,1320986,74323,9046,659993,0
36,3,710349,247999,1390171,73972,9206,694433,0
36,3,713521,249469,1370675,74622,8427,684461,0
36,3,715574,249412,1502970,74700,9297,750992,0
36,3,709392,248891,1359005,74351,8859,678994,0
36,3,712127,249075,1440760,74396,9196,719929,0
36,3,715456,249042,1360661,74345,9680,679940,0
36,3,710509,248352,1378185,74067,8616,688659,0
36,3,710103,247546,1483921,74039,10143,741441,0
36,3,710135,248080,1387288,74211,9075,693207,0
37,3,763284,266517,1529604,78705,9563,764333,0
37,3,706385,248023,1527727,73714,9750,763403,0
37,3,713792,250616,1531272,74994,9863,764849,0
37,3,714883,250751,1437597,74885,9239,718043,0
37,3,734873,253218,1387558,77361,10155,693260,0
37,3,702382,248302,1476975,73912,9558,738004,0
37,3,707456,249846,1463021,74593,9133,730656,0
37,3,710869,249255,1425827,74169,9040,712489,0
37,3,709900,248490,1324707,73900,7999,661964,0
37,3,731599,253964,1511086,77325,10272,754921,0
37,3,719750,251201,1429164,74925,9291,713873,0
37,3,709795,249913,1301041,74217,8671,650021,0
37,3,709550,248575,1339423,73894,9042,669089,0
37,3,707334,247859,1366238,73650,8947,682499,0
37,3,708292,249587,1357234,74054,8683,678128,0
37,3,714094,248771,1371826,73804,10329,685436,0
37,3,732780,253155,1611231,77065,10152,805185,0
37,3,722385,251049,1516638,74788,8309,757504,0
37,3,708467,248622,1326614,73485,8631,662596,0
37,3,706731,248075,1524842,74156,9446,761712,0
37,3,711791,248156,1309910,74112,9906,654207,0
37,3,709508,248976,1356199,74338,9608,677648,0
37,3,711129,248571,1417225,74163,9499,708130,0
37,3,710280,248640,1464018,74124,9036,731508,0
37,3,715816,249955,1404243,75085,9258,701392,0
37,3,713968,250294,1476064,74865,9490,737487,0
37,3,711439,248804,1397871,74238,8756,698442,0
37,3,721041,251163,1300563,75263,9283,649467,0
37,3,710560,249277,1326586,74387,9094,662751,0
37,3,715004,248648,1490497,74438,9835,744646,0
37,3,710223,248687,1470942,74459,9745,734950,0
38,3,764534,267602,1496143,79129,9080,747509,0
38,3,708096,248606,1379127,73952,8835,689151,0
38,3,728813,252967,1408028,77239,9530,703458,0
38,3,729917,252960,1382994,77127,9548,691001,0
38,3,711126,248003,1472927,73834,9815,735991,0
38,3,711946,249334,1366580,74314,8918,682701,0
38,3,709718,248959,1333719,73956,8804,666450,0
38,3,712887,250497,1396796,74808,9064,697438,0
38,3,709952,248739,1405505,74013,9442,702235,0
38,3,707170,248719,1444705,73902,8889,721809,0
38,3,715243,249834,1328483,74316,8589,663694,0
38,3,716728,251313,1508586,74855,9472,753268,0
38,3,715283,251277,1433711,75068,10073,715810,0
38,3,713088,250225,1344662,74666,9286,671623,0
38,3,707961,248795,1494789,73752,8619,746938,0
38,3,732447,253578,1385014,77189,10095,691920,0
38,3,710411,248713,1469452,73838,8986,734230,0
38,3,735894,252678,1526830,76839,9758,762907,0
38,3,705357,248123,1594942,73212,9570,796865,0
38,3,706777,248013,1441739,74071,8658,720360,0
38,3,711420,248399,1366959,74189,9947,682810,0
38,3,708999,248574,1470702,74198,9059,734979,0
38,3,711289,248747,1445051,74181,9552,721948,0
38,3,709891,248438,1419427,74114,9291,709170,0
38,3,715376,249674,1506142,74776,9437,752584,0
38,3,713810,249128,1429064,74437,8644,714214,0
38,3,711178,248971,1464253,74284,9454,731648,0
38,3,716181,249478,1380748,74438,9333,689864,0
38,3,716096,249778,1308584,74783,9377,653531,0
38,3,712822,247831,1415861,74133,9453,707419,0
38,3,707318,248019,1422832,74229,9701,710947,0
39,3,764767,267039,1417667,78911,10109,708253,0
39,3,704175,248207,1437985,73830,8676,718097,0
39,3,705205,247896,1360978,73726,8439,679987,0
39,3,708788,249244,1379909,74129,8770,689528,0
39,3,713200,249338,1499170,74435,9826,749048,0
39,3,709929,248531,1368365,74029,9385,683574,0
39,3,708831,248958,1356809,74065,9227,677934,0
39,3,712789,249783,1402851,74346,9124,700868,0
39,3,713828,250349,1470632,74745,9743,734612,0
39,3,708387,248756,1484632,74017,8289,741638,0
39,3,715385,249796,1468091,74251,8484,733508,0
39,3,735949,255452,1345766,77772,9648,672399,0
39,3,730450,253596,1348150,77292,9582,673594,0
39,3,714635,249197,1433589,74116,10213,716823,0
39,3,721894,251476,1439778,74965,9445,718955,0
39,3,710335,248832,1423584,73875,9476,711311,0
39,3,710854,248251,1359608,73629,8633,679390,0
39,3,721544,250809,1481539,74635,9219,740000,0
39,3,704908,248586,1560446,73457,9553,779732,0
39,3,710024,249826,1361560,74991,8677,680091,0
39,3,714790,248930,1409100,74397,9908,704113,0
39,3,713014,250003,1443554,74980,10258,720470,0
39,3,711224,249336,1436249,74665,9417,717252,0
39,3,735609,252866,1656719,77330,11068,827704,0
39,3,714483,249522,1431799,74739,8116,715241,0
39,3,711241,249039,1458380,74404,8742,728740,0
39,3,717663,250915,1391105,75228,9006,694800,0
39,3,715420,249291,1425259,74439,9381,712074,0
39,3,711008,248189,1397731,73990,9311,698497,0
39,3,716517,249727,1519940,75087,10364,759087,0
39,3,716092,250513,1617570,75329,10121,807950,0
40,3,762178,266496,1369183,78731,9212,684007,0
40,3,705072,247238,1495593,73427,9280,747262,0
40,3,707627,247554,1501764,73710,9252,750408,0
40,3,734387,253451,1407435,77244,10541,703197,0
40,3,712584,249182,1378666,74284,9927,688647,0
40,3,709705,248733,1325610,74099,8186,662460,0
40,3,708166,248735,1304178,73953,8223,651547,0
40,3,708718,249230,1296753,74192,8787,647879,0
40,3,710642,248839,1485126,73971,9621,742397,0
40,3,707325,248225,1481777,73723,8872,739957,0
40,3,714848,250123,1355734,74312,9031,677333,0
40,3,710074,249308,1294404,73912,8756,646904,0
40,3,706663,248253,1360903,73717,9358,679835,0
40,3,733440,254283,1471132,77520,9796,734784,0
40,3,714957,248603,1430663,73605,9537,714876,0
40,3,712126,249392,1521632,74262,9787,760041,0
40,3,711325,247951,1508756,73551,10481,753983,0
40,3,715086,248610,1469055,73729,8809,733999,0
40,3,713977,250824,1436948,74457,9577,717630,0
40,3,711017,248435,1394719,74258,8671,696883,0
40,3,714269,249361,1417235,74739,9598,707838,0
40,3,729941,253238,1646370,77534,10918,822460,0
40,3,710218,249273,1479703,74400,10036,739277,0
40,3,712898,247914,1482931,73920,9370,740970,0
40,3,720244,251354,1385342,75578,8784,691761,0
40,3,710469,249242,1462025,74526,9457,730565,0
40,3,736109,253131,1536703,77434,10420,768034,0
40,3,720987,251378,1363966,75355,9085,681391,0
40,3,715364,249829,1393778,74771,9451,695924,0
40,3,733738,252747,1511077,77566,10513,755072,0
40,3,729798,252165,1534833,77419,9871,766725,0
41,3,762796,266488,1461121,78687,9913,730009,0
41,3,705757,248192,1566774,73858,9075,782817,0
41,3,728898,252547,1462197,77081,9586,730661,0
41,3,712024,249132,1478545,74073,9837,738811,0
41,3,714070,248664,1377370,74037,9305,688270,0
41,3,730023,252982,1451777,77279,9591,725408,0
41,3,740998,260826,1467096,78021,9676,732353,0
41,3,708231,249331,1334010,74157,9334,666490,0
41,3,712758,249511,1377555,74291,8593,688304,0
41,3,714698,250952,1434735,75016,9433,716547,0
41,3,719740,252016,1534688,75236,9246,766580,0
41,3,712027,250303,1370464,74301,9734,684578,0
41,3,706326,247994,1260202,73632,8671,629575,0
41,3,709866,248136,1542523,73753,10316,770796,0
41,3,719074,250427,1437150,74439,9345,717918,0
41,3,710981,249097,1474982,73965,10047,736770,0
41,3,718942,251372,1380461,74968,9048,689176,0
41,3,720133,251681,1451243,75067,9128,724804,0
41,3,706847,248241,1577795,73290,10119,788384,0
41,3,736010,257033,1500855,76785,9362,750016,0
41,3,710769,248289,1470180,74213,9846,734280,0
41,3,707798,248364,1521182,74212,9706,760027,0
41,3,712612,249650,1405088,74662,9679,701543,0
41,3,714081,248844,1456775,74241,9390,727821,0
41,3,736371,254009,1536575,78003,9857,767952,0
41,3,716844,250666,1563572,75164,8650,780759,0
41,3,715422,249221,1560045,74369,9320,779633,0
41,3,715634,249999,1500246,74675,9262,749903,0
41,3,712650,248975,1478231,74243,8858,738617,0
41,3,713523,248979,1476108,74581,9488,736896,0
41,3,707569,247895,1328015,74209,8739,663352,0
42,3,764136,266749,1452076,78815,10391,725527,0
42,3,707426,248620,1383081,73925,9200,690998,0
42,3,705146,247263,1586782,73488,10257,792461,0
42,3,708927,248377,1412779,73706,8826,705486,0
42,3,712357,248040,1423151,73827,9138,710976,0
42,3,709679,248940,1607706,74175,9117,803391,0
42,3,727010,252954,1326895,77188,9470,662850,0
42,3,731399,252921,1386601,77186,9443,692879,0
42,3,709414,248203,1356918,73804,8191,677924,0
42,3,731096,253752,1406171,77323,9316,702502,0
42,3,734521,253924,1437237,77476,9700,718117,0
42,3,715161,251272,1445168,74842,9335,721774,0
42,3,712108,249059,1399757,74041,8480,699247,0
42,3,707991,247691,1425813,73597,9283,712514,0
42,3,714263,248806,1454606,73657,9512,726800,0
42,3,706695,247649,1497438,73399,9675,748273,0
42,3,712342,248828,1460905,73894,9126,729883,0
42,3,736856,252801,1661333,76899,10247,830160,0
42,3,705384,247719,1536476,73149,9281,767779,0
42,3,709464,248241,1564363,74119,9145,781729,0
42,3,708587,247608,1493964,73917,9667,746619,0
42,3,708648,248017,1438636,74089,9801,718527,0
42,3,706429,247843,1442073,73850,9941,720530,0
42,3,715946,249641,1390531,74695,9190,694360,0
42,3,717785,250640,1352730,75100,8652,675930,0
42,3,711169,249472,1383568,74532,8178,691293,0
42,3,712890,249133,1462415,74416,9461,730762,0
42,3,717990,250012,1448326,74600,8811,723625,0
42,3,710952,248306,1430716,74045,8337,714923,0
42,3,708222,246922,1537958,73793,9531,768443,0
42,3,707280,247921,1452925,74164,8738,725775,0
43,3,762838,266282,1645335,78635,10564,822088,0
43,3,733594,257839,1576433,76894,10480,787484,0
43,3,709704,249041,1898879,74154,11714,949272,0
43,3,730636,253356,1432793,77229,10195,715851,0
43,3,712368,248754,1360929,74110,9378,679993,0
43,3,711072,250172,1467227,74777,9326,732709,0
43,3,707601,249024,1481247,74055,9814,740098,0
43,3,713554,249766,1502658,74541,9054,750547,0
43,3,730190,253208,1371668,77267,9200,685308,0
43,3,708932,249722,1444187,74308,9293,721432,0
43,3,713280,249524,1447026,74258,9330,723042,0
43,3,739596,259593,1410787,77061,8714,704861,0
43,3,712117,248329,1471030,73734,8987,735004,0
43,3,709916,248988,1329556,74047,8750,664263,0
43,3,715040,249366,1377866,73910,9207,688411,0
43,3,716765,250213,1443694,74587,9649,721022,0
43,3,707513,247467,1461446,73412,9551,730233,0
43,3,713871,248469,1357517,73622,8211,678182,0
43,3,705570,248164,1512060,73328,9947,755493,0
43,3,706687,247386,1448619,73869,8247,723847,0
43,3,709640,247677,1537726,73958,9803,768217,0
43,3,709640,248415,1445403,74189,9728,722040,0
43,3,710674,248134,1462893,73959,9242,731019,0
43,3,711747,248020,1424440,73974,9460,711489,0
43,3,714924,249440,1474490,74740,9508,736743,0
43,3,710198,248860,1447097,74329,9326,723032,0
43,3,711673,248497,1449620,74174,9173,724415,0
43,3,719047,251492,1374287,75352,8559,686516,0
43,3,708892,247986,1376924,73951,8847,688052,0
43,3,715079,249161,1537995,74816,11108,767964,0
43,3,707475,248151,1344080,74266,8552,671701,0
44,3,762364,266577,1401391,78762,9357,700153,0
44,3,707150,248891,1371409,74060,8983,685015,0
44,3,710922,249277,1468680,74384,9279,733467,0
44,3,711937,248530,1464643,73818,9312,731996,0
44,3,711149,248405,1499347,73944,9428,748588,0
44,3,706326,248886,1325241,74149,8232,662105,0
44,3,709911,250188,1525651,74663,10269,762091,0
44,3,711713,249255,1386390,74226,8457,692574,0
44,3,710445,248970,1401160,74106,8864,700077,0
44,3,708199,248694,1371773,73846,9243,685435,0
44,3,711532,249309,1339238,74080,8443,669204,0
44,3,709286,249127,1438720,73833,9266,718882,0
44,3,710109,248098,1333161,73757,8924,666082,0
44,3,708137,248183,1310107,73788,8530,654564,0
44,3,712730,248554,1529932,73584,9504,764529,0
44,3,710427,248593,1455645,73815,9552,727379,0
44,3,709942,248954,1326894,73978,9253,662871,0
44,3,713036,248199,1393453,73546,9322,696189,0
44,3,705843,248379,1635911,73389,9633,817438,0
44,3,714977,250661,1330844,75208,8266,664822,0
44,3,714309,250225,1440786,75173,9813,719330,0
44,3,709934,248771,1477930,74368,9846,738456,0
44,3,732656,253406,1595912,77533,10303,797440,0
44,3,713529,248698,1408633,74189,9396,703833,0
44,3,714668,249811,1391182,74778,8577,695152,0
44,3,715648,251651,1401802,75633,8959,699912,0
44,3,734151,253699,1577341,77671,9905,788225,0
44,3,717763,250399,1439870,74818,8693,719250,0
44,3,711066,248298,1481152,74055,9143,740146,0
44,3,712235,248400,1489263,74358,9932,744103,0
44,3,727187,252487,1430590,77504,9768,714829,0
45,3,767438,268646,1537564,79556,9744,768042,0
45,3,723986,252279,1512715,76899,10069,755524,0
45,3,706547,247971,1395848,73752,9291,697447,0
45,3,714617,250047,1343137,74360,8903,670957,0
45,3,714846,249906,1496092,74757,10376,747055,0
45,3,708538,248539,1532009,74027,8880,765399,0
45,3,704140,248256,1570789,73816,9271,784830,0
45,3,709083,248617,1442489,73940,8559,720898,0
45,3,708640,248663,1507535,73938,8959,752831,0
45,3,708634,249155,1502969,73920,9556,750604,0
45,3,712163,249343,1427181,74091,8826,713111,0
45,3,713057,250532,1356315,74442,9130,677653,0
45,3,707358,247563,1535776,73402,9861,767451,0
45,3,709826,248050,1433387,73688,9434,716295,0
45,3,742061,254939,1464342,77947,9953,731573,0
45,3,712705,250032,1419523,74464,8976,708694,0
45,3,712011,248038,1360360,73550,9384,679753,0
45,3,713169,248383,1299198,73662,8443,648946,0
45,3,706714,248259,1591427,73314,9874,795210,0
45,3,709150,248777,1326855,74280,9038,663130,0
45,3,732014,252900,1544522,77413,10471,771803,0
45,3,707728,248044,1418150,74108,8387,708686,0
45,3,708362,248019,1375195,73971,8302,687124,0
45,3,717252,250342,1367054,74996,9569,682758,0
45,3,712336,248917,1580062,74489,9305,789672,0
45,3,733220,254056,1504450,77858,10456,751629,0
45,3,714160,249821,1352797,74633,9048,675883,0
45,3,716390,250937,1449199,75178,8447,723854,0
45,3,709067,248153,1345093,74134,8891,672030,0
45,3,709920,248014,1705334,74197,12138,851885,0
45,3,710402,247740,1569467,74124,9181,783921,0
46,3,760608,266312,1573968,78661,9727,786302,0
46,3,702654,248160,1314247,73854,8292,656282,0
46,3,705748,247868,1463831,73674,9163,731480,0
46,3,712806,249790,1490948,74407,10019,744685,0
46,3,731950,253114,1424335,77350,9828,711553,0
46,3,708717,248925,1355622,74129,8445,677388,0
46,3,705967,249471,1631537,74252,10477,814720,0
46,3,711267,249201,1447939,74177,8850,723454,0
46,3,711754,249440,1762113,74126,9502,880547,0
46,3,708097,249704,1354509,74196,8628,676586,0
46,3,712696,250077,1437532,74573,8749,718115,0
46,3,709845,249556,1487665,74065,9344,743367,0
46,3,716559,250540,1558048,74769,10206,777460,0
46,3,714263,250187,1453946,74689,9664,726258,0
46,3,714679,248872,1434737,73741,9582,716971,0
46,3,711914,249013,1449021,73933,9244,723889,0
46,3,717770,250948,1366547,74759,9986,682140,0
46,3,710591,248235,1449260,73554,8828,724139,0
46,3,725489,253078,1482670,76696,10482,740835,0
46,3,717355,250725,1396570,75071,9257,697550,0
46,3,712823,249481,1427893,74556,9286,713137,0
46,3,709352,248940,1413218,74420,9387,706172,0
46,3,708927,248154,1481310,73945,8684,740094,0
46,3,710048,248452,1376345,74220,9172,687559,0
46,3,716685,251215,1490230,75533,9842,744206,0
46,3,710994,249513,1473721,74615,9631,736346,0
46,3,714341,248996,1448646,74339,9414,723792,0
46,3,736285,254953,1666037,78073,9684,832548,0
46,3,713727,249846,1428957,74620,9046,713934,0
46,3,738704,253044,1537847,77675,10888,768310,0
46,3,709590,247985,1651398,74219,10692,825058,0
47,3,760323,266259,1420393,78609,8926,709750,0
47,3,706160,249962,1492917,74604,8926,745785,0
47,3,708251,248616,1510966,73969,9787,755046,0
47,3,710357,248718,1335991,73943,9113,667446,0
47,3,710823,249294,1361432,74295,9012,680286,0
47,3,727368,252786,1417234,77163,9041,708177,0
47,3,709089,248878,1380885,74030,8601,689915,0
47,3,708663,248462,1338101,73856,8591,668667,0
47,3,713388,250496,1453509,74720,8730,726061,0
47,3,725951,253482,1449630,77174,9500,724241,0
47,3,711675,250070,1323532,74301,8500,661273,0
47,3,711515,249226,1495964,73865,10036,747510,0
47,3,733380,253664,1649918,77268,10071,824371,0
47,3,730552,253317,1530892,77180,9808,764968,0
47,3,717807,250601,1420746,74504,9257,709603,0
47,3,712811,250326,1394183,74562,9171,696253,0
47,3,731139,252898,1364629,76972,9563,681619,0
47,3,710194,247952,1695550,73490,9677,846788,0
47,3,702869,248348,1406914,73422,9160,702932,0
47,3,709594,248239,1552028,74162,9441,775472,0
47,3,709580,248735,1423652,74274,8774,711285,0
47,3,708115,248704,1421982,74268,9640,710684,0
47,3,709979,248689,1519850,74285,9111,759161,0
47,3,712286,248344,1450233,74121,9559,724620,0
47,3,716119,249502,1460822,74673,9506,729960,0
47,3,711267,249216,1801483,74510,12219,900241,0
47,3,717341,250349,1367589,74975,8532,682905,0
47,3,715824,249543,1398585,74427,9061,698680,0
47,3,711010,249063,1381467,74305,8940,690339,0
47,3,715014,248180,1363836,74302,9245,681288,0
47,3,708696,247861,1404682,74215,9338,701746,0
48,3,763379,266810,1481786,78849,9794,740374,0
48,3,711518,247752,1386375,73605,8571,692948,0
48,3,705156,247930,1376117,73647,8352,687578,0
48,3,708695,248319,1427943,73749,8917,713544,0
48,3,714290,250208,1638290,74834,10353,818347,0
48,3,711206,250139,1449438,74757,9215,723875,0
48,3,727053,253279,1452129,77270,9595,725798,0
48,3,732962,253332,1478840,77300,9542,738944,0
48,3,708582,248751,1366379,74007,8254,682680,0
48,3,711915,248426,1447169,73699,9298,722901,0
48,3,714883,249412,1470591,74043,9358,734855,0
48,3,712452,250126,1568765,74271,10483,783908,0
48,3,712764,249886,1561407,74441,10084,779373,0
48,3,706779,248439,1436799,73869,9499,717866,0
48,3,713907,248453,1387461,73488,9309,693375,0
48,3,730397,253384,1427632,77167,10447,713213,0
48,3,709651,248282,1505034,73659,9188,751968,0
48,3,717461,249045,1550391,73865,9825,774446,0
48,3,706726,248552,1427364,73487,9730,713160,0
48,3,708134,248156,1502976,74077,9276,751093,0
48,3,714336,248765,1517759,74308,10606,758230,0
48,3,712072,249539,1331419,74808,9500,664802,0
48,3,712237,249187,1371024,74656,9323,684766,0
48,3,713139,249284,1400417,74416,9314,699636,0
48,3,716541,250238,1362198,75082,9030,680330,0
48,3,710978,249383,1494254,74541,9702,746715,0
48,3,715211,249759,1511723,74618,9652,755350,0
48,3,716845,250101,1450890,74599,9437,724936,0
48,3,714416,249655,1513658,74525,9684,756361,0
48,3,714278,248112,1479160,74283,9986,738711,0
48,3,707126,247939,1461663,74232,9324,730302,0
49,3,759416,266518,1381059,78778,8455,690128,0
49,3,715605,250172,1520276,74733,9964,759277,0
49,3,706986,247983,1696282,73792,10222,845990,0
49,3,710317,249301,1466511,74123,9496,732796,0
49,3,712309,249526,1427763,74333,9739,713360,0
49,3,729767,253154,1414795,77363,9666,706872,0
49,3,705182,248978,1386232,74113,8548,692334,0
49,3,712300,249447,1478482,74239,8688,738767,0
49,3,706807,248357,1444126,73788,8328,721866,0
49,3,716909,250258,1476927,74539,10243,737611,0
49,3,715961,250432,1323055,74483,8484,660980,0
49,3,717235,251399,1565955,74842,10544,782153,0
49,3,712594,249540,1526248,74205,10081,762123,0
49,3,709536,249101,1518328,74010,9826,758152,0
49,3,710214,247903,1462380,73396,9757,730741,0
49,3,708902,248606,1472087,73823,9708,735524,0
49,3,708866,248488,1535475,73699,9533,767166,0
49,3,717499,249540,1384895,74221,9546,691512,0
49,3,708652,249807,1406326,74011,9103,702591,0
49,3,708986,248334,1439457,74186,9256,719231,0
49,3,716808,249724,1525395,74823,10097,761840,0
49,3,708444,249039,1473864,74440,10242,736221,0
49,3,733327,253286,1564708,77565,11108,781861,0
49,3,709495,248455,1513334,74148,9720,756136,0
49,3,711215,248570,1447758,74334,9174,723439,0
49,3,714659,251523,1428206,75542,10530,713074,0
49,3,714168,249357,1418581,74418,9351,709501,0
49,3,713550,249274,1307575,74252,8308,653478,0
49,3,710125,248250,1490627,73984,9714,744851,0
49,3,717691,249687,1459206,74922,10815,728753,0
49,3,712940,249937,1381328,75158,10462,689741,0
50,3,764318,267199,1529029,78971,9471,763477,0
50,3,731671,252642,1530854,77062,10353,764801,0
50,3,704417,247412,1513275,73541,9262,756275,0
50,3,709768,248760,1556634,73898,10558,777425,0
50,3,708909,248470,1549368,73951,9967,774242,0
50,3,707048,248527,1419975,74070,8776,709344,0
50,3,705350,248629,1387449,74001,8605,693096,0
50,3,707888,248025,1462741,73794,8375,730981,0
50,3,728313,253407,1523162,77314,8706,761146,0
50,3,732415,253393,1431411,77153,9750,715227,0
50,3,717962,251699,1382475,75279,9208,690283,0
50,3,711048,249635,1467241,74144,10123,733104,0
50,3,712750,248777,1618430,73921,10780,808585,0
50,3,706218,247917,1288528,73668,9068,643377,0
50,3,717192,250553,1475804,74558,9582,737267,0
50,3,707692,248252,1433613,73576,9761,716318,0
50,3,713265,250546,1416278,74697,9767,707093,0
50,3,713469,247993,1451646,73491,9165,725287,0
50,3,704835,248242,1444532,73400,9256,721726,0
50,3,715613,251591,1448796,75564,9579,723579,0
50,3,712008,248128,1502728,74024,9954,750888,0
50,3,712715,248463,1429709,74260,9071,714283,0
50,3,709896,248408,1399605,74226,9357,699184,0
50,3,715020,248701,1504479,74372,9974,751661,0
50,3,712963,249513,1305971,74608,9267,652576,0
50,3,716526,249550,1359358,74610,9968,679232,0
50,3,712618,249696,1355047,74556,8455,677020,0
50,3,714586,249027,1411733,74185,9072,705411,0
50,3,715944,250923,1552483,75260,9970,775453,0
50,3,714632,248875,1468968,74438,10404,733723,0
50,3,727881,252233,1365231,77427,10355,682200,0
51,3,763112,267165,1478060,78915,8891,738420,0
51,3,711205,248064,1477179,73702,10234,738209,0
51,3,707107,248233,1361544,73856,8923,680141,0
51,3,731085,253538,1474287,77294,10000,736729,0
51,3,714799,248605,1549785,73995,9422,774290,0
51,3,707708,248887,1340050,74082,7993,669587,0
51,3,704027,248148,1503315,73750,9420,751126,0
51,3,712370,250581,1451906,74903,9114,725028,0
51,3,710395,248769,1338979,73981,8567,669112,0
51,3,710591,249251,1320115,74054,9335,659604,0
51,3,708974,248950,1261177,74064,8817,630098,0
51,3,711395,249535,1442983,74069,9778,720927,0
51,3,711548,248851,1367531,73988,9346,683169,0
51,3,705624,247807,1493281,73600,9923,746237,0
51,3,713718,248738,1383266,73672,9203,691163,0
51,3,709706,248348,1529251,73684,9967,764159,0
51,3,729830,253184,1533560,77072,10309,766257,0
51,3,714006,248689,1361798,73767,8530,680357,0
51,3,703633,247940,1454731,73157,9351,726968,0
51,3,712562,250499,1377652,75089,9565,688175,0
51,3,711967,248567,1376448,74276,9827,687645,0
51,3,712298,248297,1485153,74155,9539,741714,0
51,3,708588,248407,1423839,74149,9251,711484,0
51,3,711956,248606,1298142,74311,8730,648554,0
51,3,717810,250570,1295603,75152,9605,647165,0
51,3,720416,250652,1280109,75133,9262,639334,0
51,3,713184,249435,1224608,74457,8869,611696,0
51,3,718149,251151,1370923,75223,9034,684724,0
51,3,734489,254389,1563127,77848,10650,780974,0
51,3,735641,253578,1484932,77781,10304,741850,0
51,3,707753,248755,1491562,74691,9005,745055,0
52,3,767553,269087,1511115,79820,9572,754582,0
52,3,714569,250003,1506529,74553,10075,752608,0
52,3,703609,247577,1407738,73601,8705,703337,0
52,3,708073,248600,1553245,73863,10581,775843,0
52,3,713998,248566,1397212,74027,8295,698130,0
52,3,709106,249810,1415511,74628,8867,707128,0
52,3,706052,249114,1541149,74176,9766,769510,0
52,3,728871,253379,1402487,77303,8746,700745,0
52,3,710311,249779,1341618,74480,8768,670164,0
52,3,716478,249833,1357530,74375,9816,678032,0
52,3,707129,248260,1402222,73790,8672,700691,0
52,3,711257,250345,1641915,74312,10525,820453,0
52,3,710710,248741,1403008,73898,9445,701049,0
52,3,712551,250917,1461158,74973,9948,729821,0
52,3,718345,250181,1427258,74402,9045,712884,0
52,3,713328,250541,1493234,74690,9302,745714,0
52,3,713382,248149,1422987,73687,9652,710870,0
52,3,718465,250243,1342094,74530,9070,670234,0
52,3,710090,250610,1350782,74291,9201,674389,0
52,3,707185,248438,1427984,74200,9437,713578,0
52,3,716237,250405,1427280,75179,9711,712888,0
52,3,711476,248165,1339487,74067,8752,669240,0
52,3,709376,248418,1522508,74200,9509,760654,0
52,3,716657,250514,1322342,75142,9547,660215,0
52,3,712578,249508,1275917,74538,9008,637552,0
52,3,715974,249466,1528615,74593,9934,763835,0
52,3,710635,248144,1470030,73919,9073,733579,0
52,3,734890,254394,1531668,77841,9674,765401,0
52,3,710731,249168,1336941,74379,8957,667959,0
52,3,714378,249051,1477302,74498,9992,738109,0
52,3,706324,247983,1468027,74189,9417,733286,0
53,3,783037,271104,1550091,82021,9973,774096,0
53,3,710600,248267,1424121,73832,9671,711542,0
53,3,705955,248097,1387017,73773,8485,693001,0
53,3,711610,249289,1355474,74011,9002,677160,0
53,3,734021,252972,1583348,77275,9737,791078,0
53,3,705565,247845,1485301,73784,8781,742091,0
53,3,711370,248431,1444083,73834,9542,721570,0
53,3,712816,249139,1374454,74145,8939,686698,0
53,3,709991,249642,1558288,74271,9485,778736,0
53,3,714997,249782,1290785,74184,9236,644708,0
53,3,735049,253414,1360441,77204,10049,679634,0
53,3,710577,250077,1412875,74200,9792,705526,0
53,3,710755,248379,1520577,73788,9906,759760,0
53,3,731687,253244,1421994,77188,9257,710577,0
53,3,734542,253571,1543552,77061,11716,771588,0
53,3,706968,248187,1498135,73667,9801,748555,0
53,3,714119,249444,1581772,74073,10318,790410,0
53,3,714423,249439,1499664,74017,8984,749320,0
53,3,725056,252935,1441093,76576,9898,719922,0
53,3,708603,247584,1284808,73932,9522,641780,0
53,3,731695,252420,1492019,77347,10397,745587,0
53,3,710788,248405,1576268,74211,9552,787460,0
53,3,710502,249270,1441808,74695,9545,720160,0
53,3,731851,253108,1400698,77475,10655,699719,0
53,3,711174,249248,1512857,74484,8594,755905,0
53,3,720160,251295,1499759,75443,9612,748996,0
53,3,712180,249043,1519290,74342,9079,758826,0
53,3,713440,249425,1377372,74506,8621,688191,0
53,3,722451,250503,1403855,75001,9254,701119,0
53,3,713026,247914,1514665,74123,9601,756765,0
53,3,706248,247279,1346663,73956,9339,673012,0
54,3,761368,266695,1401889,78839,8235,700449,0
54,3,711168,247734,1476290,73606,8830,737310,0
54,3,706396,248382,1411314,73885,9131,705165,0
54,3,710328,248266,1349928,73666,8815,674609,0
54,3,711576,248719,1579937,74046,9448,789429,0
54,3,704904,247968,1359078,73816,7892,679145,0
54,3,711860,249259,1371753,74205,9071,685309,0
54,3,713556,250020,1467392,74618,8977,732994,0
54,3,706654,248780,1438673,74041,8493,718684,0
54,3,713168,249648,1384165,74167,9601,691701,0
54,3,715765,250037,1480221,74329,9721,739481,0
54,3,710372,249829,1485943,74182,9947,742481,0
54,3,711876,249398,1513552,74174,9607,756165,0
54,3,711813,248377,1448545,73789,9017,723889,0
54,3,712569,249069,1471468,73850,10342,734647,0
54,3,705363,247773,1407946,73419,9014,703528,0
54,3,716518,249677,1558609,74334,10317,777962,0
54,3,714133,249487,1503948,74152,8822,750949,0
54,3,702069,247922,1279018,73141,9321,638717,0
54,3,708502,247820,1376217,74004,10171,687538,0
54,3,712057,248727,1406908,74347,9061,702973,0
54,3,709391,248808,1378955,74344,9450,688834,0
54,3,708626,248358,1413003,74131,9971,705928,0
54,3,711175,248556,1315970,74139,9433,657406,0
54,3,715956,249526,1469639,74505,9111,734402,0
54,3,715633,249712,1447696,74641,9259,723461,0
54,3,715041,250511,1364666,74989,8690,681650,0
54,3,738479,258281,1528799,77063,9054,763956,0
54,3,719230,249550,1491285,74434,9951,745228,0
54,3,710433,248002,1411219,74115,9186,705121,0
54,3,708541,248562,1382944,74398,9470,691180,0
55,3,763698,268134,1601082,79435,10177,799925,0
55,3,729467,252321,1487070,76926,10193,743012,0
55,3,706249,248078,1338348,73804,8355,668499,0
55,3,716880,251292,1433529,74946,9570,716029,0
55,3,709883,247641,1448360,73677,9138,723728,0
55,3,708378,249795,1456137,74675,8922,727475,0
55,3,709814,248833,1463236,73996,9430,730684,0
55,3,736408,258294,1369258,76867,8708,684118,0
55,3,711850,250458,1520773,74874,9634,759720,0
55,3,710322,248572,1647492,73801,10257,823587,0
55,3,713148,248572,1470155,73804,8963,734861,0
55,3,713360,250385,1515284,74545,10885,756966,0
55,3,708271,248362,1325007,73837,8461,661968,0
55,3,711299,248902,1327081,73944,8978,663060,0
55,3,713256,248861,1633856,73716,9577,816539,0
55,3,706395,248604,1501678,73782,9325,750329,0
55,3,711306,248312,1591045,73720,9468,795170,0
55,3,711677,248316,1652713,73658,9526,825979,0
55,3,702428,248355,1328719,73292,9763,663596,0
55,3,707853,248228,1498633,74175,9936,748887,0
55,3,713150,249631,1411987,74839,9387,705335,0
55,3,711499,247864,1473269,73981,9250,736051,0
55,3,709833,248935,1378191,74384,9436,688588,0
55,3,708873,248142,1416100,73955,8860,707396,0
55,3,712993,248657,1432401,74260,9016,715494,0
55,3,719029,249868,1308224,74722,9307,653630,0
55,3,717077,250858,1442087,75181,9018,720201,0
55,3,715904,250431,1485692,74995,9741,741343,0
55,3,716928,248935,1335698,74248,8782,667298,0
55,3,711765,248872,1473881,74499,9324,736214,0
55,3,706045,247817,1460788,74121,9662,729848,0
56,3,768137,269335,1606958,79884,11242,802834,0
56,3,709402,248144,1597991,73739,9094,797747,0
56,3,702635,247615,1409085,73622,8839,704082,0
56,3,711724,249092,1477510,73960,8579,738277,0
56,3,714966,249690,1531448,74621,9682,765058,0
56,3,705820,248537,1558350,74036,9172,778776,0
56,3,711979,249744,1400387,74313,9640,699596,0
56,3,710271,248646,1469259,73946,8316,734209,0
56,3,714315,250858,1543497,74945,9698,770949,0
56,3,712452,249881,1483571,74471,9758,740884,0
56,3,711895,248658,1567568,73820,8946,783208,0
56,3,709014,249178,1329981,73905,9047,664486,0
56,3,709734,249242,1360574,74173,8738,679820,0
56,3,710248,248378,1425919,73721,9211,712570,0
56,3,716776,251243,1485785,74688,10016,741805,0
56,3,716030,250441,1426620,74580,8907,712620,0
56,3,709082,247874,1467641,73525,9783,733383,0
56,3,713825,248245,1421698,73612,9268,710202,0
56,3,709218,248336,1373803,73198,9421,686396,0
56,3,705608,247812,1384677,73984,9053,692047,0
56,3,708094,248309,1541000,74227,9679,769947,0
56,3,713701,249455,1352834,74778,8895,675524,0
56,3,711824,250082,1391625,75033,10651,694928,0
56,3,711815,248354,1493567,74048,8575,746244,0
56,3,737322,254325,1511708,77973,10113,755343,0
56,3,713456,248934,1461217,74368,9440,730322,0
56,3,709690,248502,1416516,74076,9382,707840,0
56,3,713433,249322,1580685,74413,10007,789833,0
56,3,720645,251172,1515641,75343,9385,756794,0
56,3,713936,248415,1430926,74201,9164,714841,0
56,3,705765,248094,1348902,74287,9060,674019,0
57,3,759505,266636,1296292,78772,9190,647690,0
57,3,708126,248150,1475592,73654,9208,737320,0
57,3,712464,248385,1599704,73903,10528,799843,0
57,3,711845,249571,1679119,74117,10571,838951,0
57,3,711376,248529,1349199,74040,9365,674055,0
57,3,708701,248854,1470041,74114,8609,734582,0
57,3,715052,250251,1528399,74671,10002,763264,0
57,3,706583,248389,1426313,73800,7705,712713,0
57,3,730796,253953,1553679,77511,9601,776480,0
57,3,710436,249275,1377985,74080,8964,688404,0
57,3,714627,250076,1554005,74521,10033,776147,0
57,3,706190,249095,1398502,73836,8931,698826,0
57,3,716509,250616,1461552,74842,10147,729890,0
57,3,711353,249386,1344979,74110,9122,671916,0
57,3,715520,249444,1334444,73967,9238,666710,0
57,3,711730,247882,1379468,73551,9950,689201,0
57,3,711518,248212,1355485,73669,9302,676995,0
57,3,711763,248324,1482111,73660,8874,740472,0
57,3,706501,247975,1306111,73122,8773,652540,0
57,3,707881,247974,1436916,74022,10031,717916,0
57,3,710093,248171,1502323,74113,9965,750585,0
57,3,709444,248237,1378158,74104,9000,688503,0
57,3,727854,252717,1403516,77407,11634,701354,0
57,3,715332,250212,1336942,74992,8283,667498,0
57,3,715550,250028,1359182,74750,8762,679152,0
57,3,718779,250948,1476174,75300,9049,737229,0
57,3,710858,249287,1439673,74407,9427,719334,0
57,3,712065,248799,1465294,74220,9078,732215,0
57,3,742212,254700,1600537,77928,10045,799834,0
57,3,711220,247860,1514473,73987,9137,756755,0
57,3,704263,247833,1484457,74148,9007,741813,0
58,3,760301,266431,1390449,78654,9801,694844,0
58,3,728966,252782,1473046,76972,10385,736083,0
58,3,710102,247941,1295369,73706,8528,646904,0
58,3,712232,249887,1474264,74379,9297,736260,0
58,3,711678,249108,1390533,74224,8946,694489,0
58,3,708382,249508,1449680,74544,9125,724121,0
58,3,709563,248541,1351888,73887,8725,675471,0
58,3,708640,248931,1450633,74067,8614,724894,0
58,3,710553,249236,1559210,74146,9796,778996,0
58,3,713093,248760,1393485,73857,9468,696137,0
58,3,713624,249028,1464136,74014,9230,731496,0
58,3,710072,250341,1504070,74333,9231,751562,0
58,3,733871,253738,1411971,77373,10347,705725,0
58,3,709773,248499,1458234,73815,8661,728286,0
58,3,710245,247948,1371117,73411,9268,685088,0
58,3,710502,247781,1380039,73482,10259,689415,0
58,3,758117,262159,1564833,79716,10159,781782,0
58,3,710203,248635,1466182,73763,8885,732556,0
58,3,708505,248985,1549722,73448,9158,774325,0
58,3,705555,247661,1447555,73938,9553,723092,0
58,3,710419,248478,1357355,74219,8442,678242,0
58,3,708752,248236,1411791,74157,9375,705387,0
58,3,705888,248182,1286826,74096,9582,642826,0
58,3,709848,248191,1331622,74047,8161,665236,0
58,3,712885,249169,1504376,74415,9254,751696,0
58,3,715601,250249,1486447,74842,9582,742780,0
58,3,710079,248944,1447320,74247,9190,723256,0
58,3,713510,249710,1523636,74545,9572,761305,0
58,3,717629,249346,1453260,74360,9543,726195,0
58,3,716453,249734,1705996,74937,11054,851974,0
58,3,714967,250163,1469161,75270,9527,733860,0
59,3,757712,266505,1565489,78733,10368,782131,0
59,3,710967,247971,1321759,73586,9305,660253,0
59,3,708755,248019,1403250,73795,9239,700977,0
59,3,709379,248237,1351377,73642,8570,675271,0
59,3,714659,250111,1537892,74824,9776,768206,0
59,3,706786,248644,1307999,74079,8936,653661,0
59,3,711200,249301,1393748,74187,9435,696322,0
59,3,707068,248350,1397670,73848,8370,698420,0
59,3,709248,248744,1503587,73925,9022,751386,0
59,3,712067,248679,1331743,73827,9120,665545,0
59,3,713925,249303,1602433,74015,9436,800782,0
59,3,711243,251195,1545400,74813,9317,771838,0
59,3,709068,248546,1468769,73905,9250,733888,0
59,3,736506,257761,1485013,76493,9635,742100,0
59,3,716700,251109,1595401,74662,10504,797071,0
59,3,714023,249735,1372457,74466,9308,685430,0
59,3,715406,249754,1429550,74369,9629,713834,0
59,3,710063,247236,1397548,73354,8706,698035,0
59,3,705639,248215,1420603,73217,8966,709686,0
59,3,708378,248982,1331165,74432,9202,665050,0
59,3,710324,248474,1500177,74313,9305,749609,0
59,3,712898,249478,1315870,74732,9819,657202,0
59,3,707426,248311,1351898,74154,9878,675411,0
59,3,710679,248839,1435442,74194,8558,717171,0
59,3,716862,250773,1468574,75214,8517,733607,0
59,3,714162,249252,1451963,74465,9421,725520,0
59,3,713198,250627,1425867,75103,9302,712123,0
59,3,714786,250845,1381755,75185,9826,689905,0
59,3,716862,249318,1380062,74422,8601,689467,0
59,3,713874,249507,1470780,74746,9448,734711,0
59,3,709029,248215,1454003,74257,9308,726633,0
60,3,755640,265475,1526946,78370,9676,762844,0
60,3,710070,248268,1330273,73744,9277,664704,0
60,3,707454,247791,1301885,73605,8723,650493,0
60,3,718513,252074,1442117,75183,9305,720269,0
60,3,732315,252635,1513462,77118,9846,756195,0
60,3,704249,248733,1357841,74108,9398,678336,0
60,3,732619,253706,1449249,77417,10392,724002,0
60,3,709627,249761,1357377,74342,8273,678307,0
60,3,708344,248834,1387819,74002,8690,693423,0
60,3,715630,250658,1541280,74805,10926,769336,0
60,3,712649,249196,1574928,74039,9654,786872,0
60,3,718218,249602,1444704,73989,9165,721870,0
60,3,712289,250393,1453922,74767,9206,726164,0
60,3,708408,248364,1354396,73728,8806,676666,0
60,3,711279,248824,1450239,73748,9479,724704,0
60,3,713496,248681,1501029,73832,9572,750109,0
60,3,709925,248171,1579090,73610,9244,789024,0
60,3,713653,249234,1453632,74004,8876,726151,0
60,3,712789,250610,1350386,74322,8999,674123,0
60,3,706923,248121,1472438,74152,9088,735746,0
60,3,707797,248020,1415129,74126,9080,707103,0
60,3,708150,247828,1383250,73958,9349,691121,0
60,3,716443,248727,1359093,74214,9408,678989,0
60,3,707787,248368,1434353,74113,9151,716602,0
60,3,711425,249021,1341221,74515,8691,670185,0
60,3,712459,249265,1433937,74529,8741,716501,0
60,3,730643,253567,1593226,77603,9700,796006,0
60,3,712593,249357,1357379,74439,9817,678146,0
60,3,715662,248760,1379933,74179,8827,689576,0
60,3,713384,249045,1483245,74408,9262,741167,0
60,3,712845,249236,1478287,74828,9881,738420,0
61,3,770609,268905,1535527,79778,10909,766967,0
61,3,708429,247893,1290094,73554,8327,644503,0
61,3,716713,250790,1404646,74963,10293,701318,0
61,3,711993,249802,1662757,74201,11411,830949,0
61,3,711556,248484,1530446,74022,9777,764639,0
61,3,707116,248520,1301881,73979,9561,650489,0
61,3,708057,248860,1485032,73942,9411,741986,0
61,3,708610,248354,1442388,73830,9186,720687,0
61,3,707710,248996,1564859,74011,9034,782033,0
61,3,733797,253589,1434907,77257,10118,716839,0
61,3,714497,250271,1639328,74607,10632,818881,0
61,3,715920,249493,1297909,74034,8937,648576,0
61,3,727636,253097,1419651,77176,9718,709242,0
61,3,708842,248542,1434113,73786,8779,716593,0
61,3,710330,248736,1455975,73686,9862,727432,0
61,3,711121,248771,1476626,73875,9573,737779,0
61,3,711382,248651,1463262,73808,9078,731037,0
61,3,714453,248947,1475377,73865,9243,737308,0
61,3,706216,248388,1334482,73231,8828,666884,0
61,3,708524,248867,1523029,74393,9024,760995,0
61,3,707879,248032,1379429,74004,8706,689164,0
61,3,713669,248832,1326273,74351,9346,662565,0
61,3,717951,249754,1363425,74728,9736,680972,0
61,3,713534,249376,1341999,74598,8910,670281,0
61,3,712518,249818,1469520,74776,8688,734276,0
61,3,712355,249488,1410627,74588,9689,704863,0
61,3,720482,250737,1367650,74983,9253,683120,0
61,3,710232,249424,1443566,74482,9696,721173,0
61,3,717801,249381,1475878,74423,9338,737459,0
61,3,711863,248280,1382729,74088,9025,691013,0
61,3,712394,249520,1466429,74737,9731,732686,0
62,3,785249,271369,1577963,82133,10695,788636,0
62,3,712536,249931,1349737,74490,9551,673753,0
62,3,709344,248538,1323772,73938,8609,661292,0
62,3,713632,251624,1471881,75066,9653,735275,0
62,3,712175,248975,1631336,74118,9955,815127,0
62,3,711749,250907,1387819,75099,9905,693095,0
62,3,710261,249515,1418783,74258,9138,708644,0
62,3,709120,248880,1503110,74068,8916,750995,0
62,3,708792,249074,1577025,74112,9448,787900,0
62,3,710869,248672,1490265,73829,8804,744707,0
62,3,736239,254339,1567545,78030,10742,783137,0
62,3,719304,250234,1443038,74328,9360,721031,0
62,3,711194,249086,1371469,74002,9515,685184,0
62,3,714489,250738,1460090,74817,9694,729150,0
62,3,719035,250518,1509147,74610,9769,753580,0
62,3,707589,247875,1453171,73530,9336,726121,0
62,3,708260,247943,1447070,73547,9402,723122,0
62,3,718948,250110,1439222,74558,9965,718292,0
62,3,706551,249187,1424737,73578,9269,711823,0
62,3,708968,249500,1423377,74779,8671,711000,0
62,3,706243,247575,1517768,73933,10793,758274,0
62,3,706918,247710,1413935,73981,9128,706427,0
62,3,710309,246715,1460698,73564,9335,729903,0
62,3,708213,248213,1341504,74003,8772,670162,0
62,3,734590,253788,1524420,77821,10546,761651,0
62,3,736301,253873,1515382,77808,10188,757211,0
62,3,716481,249716,1411127,74478,9528,705088,0
62,3,708327,248680,1659007,74184,10071,829057,0
62,3,720228,250776,1423463,75173,10174,710902,0
62,3,735785,253875,1687097,77730,11177,843012,0
62,3,706779,247883,1358479,74165,8522,678698,0
63,3,762968,267048,1420257,78917,9251,709599,0
63,3,708361,248428,1342806,73729,9079,670924,0
63,3,706959,247527,1381205,73577,9185,689966,0
63,3,731499,252989,1416803,77070,9296,707915,0
63,3,712288,248862,1556305,74123,9625,778064,0
63,3,725981,253285,1423142,77370,9735,710883,0
63,3,710665,250062,1562855,74633,9890,780370,0
63,3,708574,248924,1297682,74035,8158,648366,0
63,3,707567,247789,1470844,73713,8662,734985,0
63,3,710685,249093,1378165,74004,8629,688399,0
63,3,712640,249089,1493466,74002,8643,746112,0
63,3,718349,250157,1581162,74215,9900,790099,0
63,3,710892,248843,1261461,73934,8538,630219,0
63,3,706772,248146,1410392,73642,8928,704632,0
63,3,736500,253944,1407727,77187,9933,703467,0
63,3,731354,252771,1441069,76946,9815,720102,0
63,3,734306,253698,1463223,77247,10840,731116,0
63,3,735512,252873,1547872,76946,10806,773327,0
63,3,707467,248909,1478150,73456,9111,738197,0
63,3,704772,248399,1456917,74257,8684,727833,0
63,3,716375,250669,1402799,75155,9832,700729,0
63,3,710742,248612,1465562,74296,9529,732181,0
63,3,715700,249299,1550231,74450,9914,774568,0
63,3,713176,250459,1378839,74977,9461,688302,0
63,3,714126,249926,1501981,74780,9484,750461,0
63,3,714753,249157,1520889,74378,9186,760028,0
63,3,716562,249456,1451729,74412,9836,725302,0
63,3,709596,249515,1495674,74492,9094,747454,0
63,3,715025,249231,1401914,74313,9961,700583,0
63,3,711328,248316,1341592,74145,8776,670169,0
63,3,711125,250053,1999603,75194,12787,999080,0
