0,2,763567,266260,1462287,78604,9235,730616,0
0,2,761332,266604,1446224,78732,8813,722617,0
0,2,705865,247719,1395888,73544,8839,697398,0
0,2,705718,247877,1520401,73551,9569,759836,0
0,2,710662,248445,1445325,73891,9886,722095,0
0,2,709666,248355,1532507,73863,9816,765900,0
0,2,705572,248006,1302633,73671,8764,650853,0
0,2,707819,248233,1454160,73801,10395,726818,0
0,2,707898,248648,1390297,73926,9129,693968,0
0,2,708255,247839,1403278,73740,8796,701088,0
0,2,710070,249063,1274890,74112,9177,636797,0
0,2,709565,248605,1407051,73890,9644,702950,0
0,2,716269,250587,1394709,74649,9129,696392,0
0,2,705512,248071,1312739,73688,9663,655745,0
0,2,708371,248010,1324367,73851,9063,661566,0
0,2,706951,248147,1425890,73894,9020,712405,0
0,2,709793,247736,1371232,73705,8302,685061,0
0,2,711780,248676,1576761,74150,10996,787490,0
0,2,710066,248335,1482908,73972,9860,740938,0
0,2,735627,253482,1422872,77402,10613,710977,0
0,2,708534,248923,1632731,74106,11475,815902,0
0,2,725060,253005,1337869,77282,9381,668535,0
0,2,708659,249242,1319148,74225,8599,659172,0
0,2,705075,248740,1361945,73958,8231,680549,0
0,2,706382,249517,1601029,74251,11085,799730,0
0,2,708242,248507,1315849,73847,8638,657462,0
0,2,706548,248761,1365451,73975,8673,682240,0
0,2,708650,248678,1306942,73923,8528,653009,0
0,2,707974,248797,1245757,74038,8519,622355,0
0,2,707705,248881,1350997,74065,8572,675210,0
0,2,711793,249891,1555350,74574,9290,777314,0
0,2,711906,249738,1490962,74358,9431,744984,0
0,2,715107,248628,1302248,73888,8619,650692,0
0,2,712081,250081,1397237,74644,8934,698003,0
0,2,711611,250412,1386568,74791,8758,692579,0
0,2,712951,249289,1405137,73993,8944,702144,0
0,2,712402,250386,1501197,74666,10023,749941,0
0,2,708492,248657,1443729,73805,8853,721389,0
0,2,711548,248304,1443219,73705,9335,721146,0
0,2,731010,253677,1371286,77251,9371,685164,0
0,2,715994,251032,1489134,75009,9096,743832,0
0,2,717902,251325,1413813,75011,9101,706112,0
0,2,712538,249540,1285437,74008,8801,642290,0
0,2,716272,250084,1509403,74260,9529,754279,0
0,2,716458,249739,1322895,74229,9421,660910,0
0,2,710944,250171,1410075,74364,9382,704590,0
0,2,712146,249980,1336260,74402,9538,667643,0
0,2,709775,248682,1323480,73871,9220,661262,0
0,2,714186,250220,1516197,74621,10378,756890,0
0,2,710605,249084,1546685,74055,9590,772191,0
0,2,733962,253674,1413706,77250,10069,706424,0
0,2,709669,249959,1305382,74540,9017,651959,0
0,2,717093,251725,1404681,75144,8844,701552,0
0,2,732375,253807,1581846,77333,9991,790608,0
0,2,711164,249427,1545903,73878,9019,772380,0
0,2,715379,249770,1358100,74196,10269,678330,0
0,2,711756,248939,1446138,73824,9915,722599,0
0,2,713231,248975,1337580,73931,9111,668288,0
0,2,710454,248867,1486768,73879,9419,742938,0
0,2,708478,248565,1416249,73775,9429,707498,0
0,2,731939,252935,1382597,76999,9429,690836,0
0,2,709803,248794,1344091,73870,8526,671541,0
0,2,708174,248150,1458899,73586,8903,728977,0
0,2,714492,249673,1341838,74398,9828,670084,0
0,2,713589,249946,1358635,74411,8972,678572,0
0,2,709673,248762,1415523,73787,8546,707316,0
0,2,707880,246838,1363859,73262,8858,681518,0
0,2,715641,250705,1302526,74767,8472,650446,0
0,2,712251,247948,1298468,73472,8618,648789,0
0,2,719228,250516,1319761,74612,8694,659184,0
0,2,714091,248490,1312847,73646,7109,655858,0
0,2,702372,247922,1319643,73074,9111,659372,0
0,2,706316,248983,1502249,73518,9045,750639,0
0,2,705085,248009,1322585,73191,8148,660889,0
0,2,705063,248140,1355859,73316,8827,677389,0
0,2,705291,247937,1315575,73130,8304,657373,0
0,2,708537,247598,1314541,73889,9007,656795,0
0,2,704625,248074,1323598,74079,9440,661495,0
0,2,707537,248485,1385657,74271,9276,692351,0
0,2,710539,249779,1239277,74685,8749,619119,0
0,2,709899,248638,1528285,74311,9521,763638,0
0,2,709517,248208,1392647,74151,8982,695915,0
0,2,711138,248247,1301959,74124,8963,650553,0
0,2,714557,250285,1318858,75150,8759,658603,0
0,2,705656,247793,1315714,73994,8737,657435,0
0,2,712807,248734,1299283,74388,9051,649181,0
0,2,712573,250369,1299910,75087,8970,649144,0
0,2,709551,248731,1377067,74345,8511,688086,0
0,2,710260,248733,1386998,74278,9133,692484,0
0,2,713114,248201,1339307,73993,8598,669186,0
0,2,708664,248050,1358406,74024,8291,678801,0
0,2,710501,248513,1435534,74231,9782,716893,0
0,2,713646,249350,1378138,74395,8791,688556,0
0,2,716150,250518,1245589,75055,8342,622018,0
0,2,709630,248671,1437576,74115,9240,718402,0
0,2,720702,249955,1409625,74824,10671,704362,0
0,2,709276,248425,1256196,74158,9122,627552,0
0,2,713098,249311,1362273,74684,8895,680496,0
0,2,713683,249665,1362232,74611,9587,680569,0
0,2,732023,253772,1479210,77799,10364,739092,0
0,2,717115,251047,1390166,75377,9237,694293,0
0,2,714269,249306,1406276,74462,9255,702800,0
0,2,714408,249333,1503322,74419,10017,751280,0
0,2,718601,251357,1231769,75238,8450,615159,0
0,2,715855,249517,1400983,74389,9545,700042,0
0,2,712794,248799,1307705,74247,8884,653339,0
0,2,711056,248934,1467586,74271,9748,732720,0
0,2,714695,248690,1440746,74142,8663,719881,0
0,2,713264,248856,1374031,74258,8530,686457,0
0,2,715598,251059,1379716,75300,9783,688997,0
0,2,713132,249519,1465057,74398,9167,732117,0
0,2,716163,249582,1390789,74578,9565,694948,0
0,2,719881,249705,1428012,74591,8920,713573,0
0,2,714793,249546,1307279,74410,8915,653267,0
0,2,714091,248591,1265301,74100,8792,632174,0
0,2,710270,248114,1425286,73900,9095,712215,0
0,2,713457,248873,1422803,74255,8039,711010,0
0,2,715856,248663,1375679,74281,9885,687358,0
0,2,714366,249305,1411130,74663,8833,705057,0
0,2,711985,247618,1387971,74068,8548,693554,0
0,2,714663,248331,1450363,74326,10308,724698,0
0,2,736911,252390,1386387,77459,9799,692313,0
0,2,710358,249327,1443437,74891,9691,720981,0
0,2,708713,249088,1306308,74562,8232,652632,0
0,2,707559,247619,1407387,73947,8406,703170,0
1,2,760814,266568,1490840,78765,9262,744760,0
1,2,711885,250553,1455339,74761,8848,726835,0
1,2,709204,249695,1659618,74390,9279,828391,0
1,2,706438,247817,1410986,73611,9250,704881,0
1,2,710989,248598,1390761,73942,8507,694876,0
1,2,724075,252306,1426275,76880,9641,712488,0
1,2,711452,250377,1389723,74874,8848,693889,0
1,2,710041,249408,1523101,74387,10111,760538,0
1,2,708381,247533,1317407,73623,8828,658217,0
1,2,706541,248006,1274046,73741,8503,636542,0
1,2,717590,251183,1446344,74952,8720,722334,0
1,2,711977,249271,1329827,74029,8330,664427,0
1,2,711106,250925,1333808,74917,9471,665865,0
1,2,710616,249415,1500394,74266,9647,749726,0
1,2,712301,249948,1333746,74712,9241,666143,0
1,2,711246,248644,1405886,74100,8835,702640,0
1,2,715867,250286,1426972,74832,9374,712557,0
1,2,713279,250028,1506870,74704,10112,752675,0
1,2,711059,248032,1476902,73872,9899,737913,0
1,2,707195,248812,1387751,74106,9677,693680,0
1,2,704271,248392,1320368,73981,8535,659780,0
1,2,704768,248077,1351886,73765,8545,675481,0
1,2,705525,248761,1333927,73967,8795,666532,0
1,2,712481,249047,1580541,74019,10415,789704,0
1,2,711615,250418,1344238,74833,9350,671309,0
1,2,706884,249585,1296821,74234,8336,647939,0
1,2,712498,250222,1458381,74676,9050,728565,0
1,2,710250,249749,1316741,74519,9010,657757,0
1,2,709763,250134,1479821,74607,9417,738973,0
1,2,708470,248835,1545486,73985,9280,771800,0
1,2,731471,253587,1358581,77387,9296,678846,0
1,2,714212,248965,1297183,74040,8907,648150,0
1,2,706506,248462,1316681,73936,8384,657887,0
1,2,707100,249024,1376278,74017,8168,687674,0
1,2,712133,249079,1411192,73972,8181,705171,0
1,2,732683,258125,1485694,76770,9939,742168,0
1,2,709903,249122,1484635,73913,8601,741952,0
1,2,714195,248830,1432586,73859,9650,715811,0
1,2,708893,249013,1401073,73956,8735,700015,0
1,2,732469,253730,1363690,77396,9424,681445,0
1,2,740763,255832,1427334,78569,9865,713174,0
1,2,714451,250731,1341227,74634,8910,669913,0
1,2,714086,249624,1380995,74038,9141,690026,0
1,2,715043,249677,1475229,74023,9641,737251,0
1,2,709777,249958,1476510,74275,9219,737733,0
1,2,712691,251004,1462119,74958,9294,730230,0
1,2,712193,249742,1450654,74160,9327,724939,0
1,2,715180,249986,1370100,74290,10247,684643,0
1,2,713054,250043,1404693,74528,9392,701617,0
1,2,711933,249066,1458481,73995,9428,728704,0
1,2,704660,247919,1250493,73686,9232,624768,0
1,2,731888,253188,1379152,77121,9280,689120,0
1,2,710771,248527,1391789,73791,9436,695363,0
1,2,710234,249611,1305174,73957,8412,652174,0
1,2,712545,249202,1297593,73821,9149,648566,0
1,2,713630,248948,1341057,73835,9371,670147,0
1,2,711090,248230,1450673,73628,9592,724404,0
1,2,712781,249815,1408431,74401,9322,703583,0
1,2,710948,248268,1303612,73641,8397,651355,0
1,2,709577,248330,1422443,73730,8929,710762,0
1,2,705066,247357,1413545,73280,8936,705927,0
1,2,710557,248312,1372097,73693,9313,685602,0
1,2,730738,252715,1405805,76933,10192,702325,0
1,2,708736,248763,1330777,73807,8576,664915,0
1,2,711794,250063,1327708,74539,8568,663180,0
1,2,710952,248035,1430326,73593,9043,714756,0
1,2,732463,253006,1412930,77028,8939,705969,0
1,2,712719,248488,1384316,73690,8459,691655,0
1,2,734622,253064,1458256,76964,9176,728550,0
1,2,717824,248818,1510369,73737,7865,754672,0
1,2,725286,253493,1339594,76726,10221,669284,0
1,2,701723,247747,1303087,73109,8690,650973,0
1,2,705970,248971,1470526,73588,9123,734733,0
1,2,706102,248680,1407712,73386,9921,703368,0
1,2,707235,248463,1434858,73401,8904,717025,0
1,2,710620,249182,1324943,74679,9237,661814,0
1,2,702589,247782,1277631,74031,9270,638358,0
1,2,706024,248303,1407270,74188,9004,703161,0
1,2,707191,248133,1299595,74072,8326,649332,0
1,2,709148,248758,1404226,74350,8567,701622,0
1,2,712367,249770,1309948,74952,8736,654120,0
1,2,712837,248695,1291603,74320,8574,645288,0
1,2,708570,248380,1293238,74158,7998,646260,0
1,2,708893,249543,1317435,74792,8870,658131,0
1,2,709527,247786,1469464,73946,8982,734377,0
1,2,731633,253824,1509713,77700,10444,754347,0
1,2,730416,253375,1454449,77652,10018,726591,0
1,2,708225,247566,1422682,73913,9352,710649,0
1,2,738113,254413,1467160,78376,10449,733136,0
1,2,710480,248970,1265809,74398,8717,632392,0
1,2,729113,252956,1602128,77336,11579,800932,0
1,2,710783,248294,1370105,73984,8604,684645,0
1,2,730769,252840,1370607,77280,9745,684879,0
1,2,718496,250091,1432849,74915,9332,715511,0
1,2,718135,249258,1458635,74524,10513,728835,0
1,2,709780,248857,1330207,74337,9923,664674,0
1,2,716702,251102,1369783,75517,10153,683771,0
1,2,714107,249665,1458689,74643,10199,728810,0
1,2,717649,249734,1290881,74630,9212,644877,0
1,2,712407,249484,1455912,74474,9527,727493,0
1,2,710530,248895,1306275,74287,8563,652678,0
1,2,717089,250792,1363884,75078,9412,680675,0
1,2,732612,253592,1350437,77471,9710,674769,0
1,2,717581,250712,1324241,74918,8453,661353,0
1,2,713049,249149,1332198,74291,9482,665685,0
1,2,715557,250670,1405869,75056,9546,701910,0
1,2,713818,249298,1478084,74401,9222,738645,0
1,2,713043,249124,1481243,74338,9043,740171,0
1,2,731195,253754,1505096,77662,10736,752122,0
1,2,739192,254630,1459160,77995,9818,729051,0
1,2,716942,249908,1413520,74685,9370,706350,0
1,2,718172,249550,1534228,74617,9671,766627,0
1,2,716720,249389,1420958,74377,9260,710089,0
1,2,712685,248024,1380104,73923,8852,689609,0
1,2,711366,249165,1397649,74367,9031,698337,0
1,2,734543,253275,1548036,77490,9819,773561,0
1,2,717979,250572,1324817,75189,8854,661634,0
1,2,707211,247154,1300617,73920,7957,649835,0
1,2,711608,248145,1497883,74276,8889,748426,0
1,2,719697,250738,1432595,75399,9846,715557,0
1,2,718687,250029,1423332,75068,8974,710971,0
1,2,706643,248233,1395139,74311,9311,697113,0
1,2,706149,247421,1332794,74021,8675,665963,0
1,2,709328,247950,1415192,74086,9382,707169,0
2,2,766011,268953,1578984,79771,10154,788649,0
2,2,707054,248639,1380418,73905,8519,689707,0
2,2,706527,248189,1297652,73790,7866,648299,0
2,2,710362,248626,1474526,73855,9517,736532,0
2,2,707438,247524,1292223,73572,7865,645698,0
2,2,702457,248034,1288721,73806,8239,643880,0
2,2,727129,252237,1369238,76959,9520,684118,0
2,2,704482,247730,1411389,73612,8419,705246,0
2,2,710955,248874,1397403,74077,9291,698214,0
2,2,708673,248961,1263082,74002,8513,631134,0
2,2,707673,247897,1399874,73510,8866,699473,0
2,2,709372,248290,1324911,73564,7855,661906,0
2,2,714276,248779,1281956,73969,9160,640419,0
2,2,714698,250826,1454845,75056,9187,726480,0
2,2,707797,248698,1274826,74102,8522,636777,0
2,2,730941,253049,1516471,77310,9434,757746,0
2,2,731527,253072,1391119,77313,9804,695007,0
2,2,709351,248711,1406357,74105,9896,702730,0
2,2,714127,249062,1502603,74149,10013,750835,0
2,2,711169,250538,1552644,74851,10474,775563,0
2,2,703743,248533,1326207,73921,7935,662775,0
2,2,706697,249145,1430557,74205,8268,714681,0
2,2,725648,252933,1359271,77131,10239,679058,0
2,2,711126,249112,1493292,74114,9946,746170,0
2,2,732480,253625,1351653,77373,9245,675288,0
2,2,709759,251076,1412223,75028,8888,705362,0
2,2,707565,248654,1330667,73986,8655,664926,0
2,2,704729,247866,1294970,73726,8448,647022,0
2,2,718575,251223,1536986,75033,10094,767591,0
2,2,710390,249154,1502695,74065,9523,750584,0
2,2,708164,247973,1378135,73777,8931,688575,0
2,2,712643,248792,1455973,73937,9091,727556,0
2,2,706063,248669,1405041,73909,8175,702089,0
2,2,705546,248742,1384874,73992,8525,691987,0
2,2,734244,253793,1339897,77284,9149,669492,0
2,2,711211,248319,1397080,73790,9566,698069,0
2,2,715757,251277,1485433,74994,9555,741849,0
2,2,713566,249265,1410049,74008,8962,704550,0
2,2,708874,248937,1282662,73866,8317,640762,0
2,2,706940,248024,1295156,73662,8267,647193,0
2,2,716805,250739,1420267,74609,9112,709664,0
2,2,715040,250226,1301705,74466,8425,650404,0
2,2,717537,251545,1541975,74997,9359,770199,0
2,2,716107,250807,1428755,74479,9795,713872,0
2,2,711553,250942,1616613,74779,10126,807677,0
2,2,716772,250684,1611579,74497,10999,805609,0
2,2,708351,248879,1621303,73873,11011,810144,0
2,2,714611,250226,1345523,74594,9963,672029,0
2,2,711573,249022,1309704,74066,8854,654331,0
2,2,713548,249567,1406464,74333,9650,702370,0
2,2,708829,249911,1387952,74605,9414,692916,0
2,2,710721,249203,1412625,74132,9225,705794,0
2,2,711267,249141,1459398,74167,9582,728930,0
2,2,719148,250696,1448927,74637,9178,723625,0
2,2,714010,249430,1295272,73899,8980,647147,0
2,2,732508,253386,1382241,77044,10392,690692,0
2,2,740785,254635,1335484,77990,10095,667294,0
2,2,708211,248468,1309314,73767,8489,654149,0
2,2,710862,248783,1415164,73849,9055,707024,0
2,2,707051,247490,1373212,73329,8162,686475,0
2,2,708230,249050,1324628,73953,8656,661834,0
2,2,707838,248186,1558030,73689,9930,778410,0
2,2,712463,248924,1476257,73879,10100,737515,0
2,2,709691,248904,1388553,73936,8865,693879,0
2,2,715734,249026,1396175,73953,9007,697525,0
2,2,712042,248966,1616680,73852,9950,807887,0
2,2,711602,249109,1372008,73947,8014,685671,0
2,2,714262,249260,1395440,74134,8999,697004,0
2,2,712294,248727,1457833,73795,8170,728372,0
2,2,713234,248302,1373992,73580,7788,686615,0
2,2,708415,249345,1456347,73568,8459,727595,0
2,2,703196,248239,1373572,73257,9363,686278,0
2,2,711799,250004,1372202,74056,8632,685469,0
2,2,710977,250642,1447767,74455,10760,721590,0
2,2,710358,250073,1409675,74098,8580,704123,0
2,2,712681,248359,1521970,74165,9494,760581,0
2,2,707836,247540,1278604,73933,8879,638867,0
2,2,707183,248493,1416975,74234,9332,708005,0
2,2,709489,249756,1247787,74898,8673,623105,0
2,2,711719,248614,1322267,74321,8955,660642,0
2,2,730385,253097,1428144,77562,9537,713525,0
2,2,709215,247825,1337544,73995,9090,668366,0
2,2,713489,248763,1478094,74298,8999,738644,0
2,2,709538,248408,1365443,74234,9753,682190,0
2,2,709027,248368,1382063,74183,8230,690643,0
2,2,711961,248273,1363576,74117,9066,681307,0
2,2,707620,248743,1434688,74345,9567,716883,0
2,2,712568,249821,1374933,74962,8714,687128,0
2,2,708519,247950,1319056,73939,9040,658875,0
2,2,732956,253060,1426619,77525,10789,712830,0
2,2,710015,248365,1409076,74050,9783,704045,0
2,2,733481,253144,1487462,77398,10365,743216,0
2,2,709859,248591,1284227,74084,8413,641664,0
2,2,715627,249383,1366011,74393,8783,682596,0
2,2,716973,249460,1413995,74682,10301,706359,0
2,2,715853,251518,1368193,75521,10587,682963,0
2,2,734458,253666,1494674,77809,10901,746711,0
2,2,712848,248979,1504494,74444,9795,751763,0
2,2,719813,251079,1284048,75376,8981,641292,0
2,2,711871,249398,1416573,74552,9516,707846,0
2,2,717910,251530,1349647,75515,9422,674184,0
2,2,717530,250638,1360837,75171,9972,680452,0
2,2,714629,250018,1251853,74579,8165,625429,0
2,2,714635,249327,1408667,74339,9271,703899,0
2,2,740583,254981,1367849,78542,10510,683370,0
2,2,709728,248861,1420381,74233,9654,709788,0
2,2,713167,248689,1474963,74218,9836,737080,0
2,2,716652,249316,1472003,74439,9640,735584,0
2,2,707467,247549,1501547,73856,9823,750289,0
2,2,717226,250308,1407264,74796,9175,703175,0
2,2,717602,250709,1326371,75232,8936,662015,0
2,2,716262,249252,1402433,74440,9381,700811,0
2,2,719315,250962,1421607,75198,9098,710077,0
2,2,712806,248634,1423733,74138,9419,711366,0
2,2,711223,248717,1519444,74183,10746,759281,0
2,2,712330,248912,1427524,74257,8747,713382,0
2,2,712503,248266,1250067,74105,9217,624461,0
2,2,708734,248253,1418881,74368,8624,708913,0
2,2,710294,247989,1331990,74125,8691,665559,0
2,2,759656,261420,1616872,80165,11083,807902,0
2,2,713404,247499,1424050,74040,8909,711541,0
2,2,704522,247608,1293201,74071,8426,646215,0
2,2,706513,248076,1421750,74192,8796,710393,0
2,2,713146,250080,1432572,74978,8678,715717,0
3,2,760729,267085,1391646,78914,8892,695180,0
3,2,707844,247711,1317623,73630,8834,658259,0
3,2,706968,248987,1401818,74186,8587,700162,0
3,2,706807,247917,1467993,73693,9817,733969,0
3,2,711190,249458,1407034,74450,8688,702765,0
3,2,713021,248810,1412724,74017,8513,705716,0
3,2,708445,249103,1237346,74106,8038,618149,0
3,2,704181,247690,1479299,73596,8979,739169,0
3,2,706745,247600,1607486,73609,10832,803115,0
3,2,711225,250458,1407765,74927,9421,702892,0
3,2,711004,249488,1306446,74176,8669,652754,0
3,2,711890,249518,1397806,74116,8286,698420,0
3,2,712893,248300,1352597,73758,9517,675712,0
3,2,709141,248948,1405528,74076,8842,702261,0
3,2,708493,248473,1333919,74001,8340,666350,0
3,2,712850,248549,1553594,74070,10171,776345,0
3,2,709155,248691,1394338,74114,8346,696624,0
3,2,712971,248172,1400014,73895,8734,699593,0
3,2,712008,248937,1386610,74179,10099,692759,0
3,2,705332,248680,1349147,73980,9167,674083,0
3,2,709728,249569,1315712,74572,9167,657191,0
3,2,705660,248767,1418752,74053,8774,708874,0
3,2,702381,248471,1384858,73862,9391,692032,0
3,2,709087,248690,1345689,73942,9318,672385,0
3,2,713337,249753,1401336,74320,8278,700208,0
3,2,725657,253182,1326388,77243,8433,662678,0
3,2,706123,248543,1370170,73866,8684,684625,0
3,2,712277,250770,1404970,74950,9130,701974,0
3,2,710032,248767,1434816,73986,9454,715519,0
3,2,708263,248544,1296155,73898,8231,647769,0
3,2,708427,248499,1366859,73821,8894,682988,0
3,2,708810,247982,1386501,73640,8636,692799,0
3,2,728647,253355,1350050,77267,9304,674405,0
3,2,710685,248834,1385528,73952,8424,692334,0
3,2,710545,248821,1390325,73943,8258,694749,0
3,2,714887,250458,1487061,74736,9802,742745,0
3,2,711968,249525,1398525,74134,8455,698888,0
3,2,711597,248758,1414777,73792,9056,706882,0
3,2,731531,253963,1436984,77316,10076,717909,0
3,2,711230,249598,1325455,74275,8422,662270,0
3,2,715603,249653,1348498,74207,8070,673776,0
3,2,710939,249003,1408792,73976,8660,703961,0
3,2,714155,249378,1463933,73958,9504,731219,0
3,2,721299,251883,1466452,75076,9567,732439,0
3,2,707517,249788,1487169,74263,9801,742785,0
3,2,712462,249440,1342418,74009,9495,670760,0
3,2,710022,250189,1345944,74519,10379,672203,0
3,2,709499,248698,1245143,73955,8636,622041,0
3,2,716133,250961,1300656,74967,8942,649640,0
3,2,709942,248698,1461187,73803,9716,730160,0
3,2,726927,253214,1456345,77209,9114,727650,0
3,2,706661,248120,1309644,73746,8131,654426,0
3,2,713070,250014,1409172,74313,9227,703940,0
3,2,738437,254182,1368817,77266,10136,683995,0
3,2,711324,248609,1473449,73596,9081,736302,0
3,2,711447,248492,1327797,73580,9421,663412,0
3,2,714260,249006,1319271,73912,9644,659145,0
3,2,706176,247745,1293503,73516,8359,646043,0
3,2,713455,250319,1396257,74535,8496,697228,0
3,2,711724,248964,1375053,74143,9002,686783,0
3,2,704356,247451,1375867,73313,9007,687482,0
3,2,708336,248768,1328502,73795,8961,663823,0
3,2,712002,249102,1414831,73950,9723,706995,0
3,2,708539,248193,1363621,73623,8468,681376,0
3,2,714418,249569,1451484,74113,9481,725227,0
3,2,717362,250475,1541152,74631,10627,769202,0
3,2,715240,250450,1424937,74579,8554,711570,0
3,2,712561,248819,1367276,73804,8295,683187,0
3,2,713864,248637,1289980,73773,7990,644470,0
3,2,712355,248176,1445199,73475,8370,722158,0
3,2,712135,251145,1386828,74315,8377,692641,0
3,2,701673,248593,1383646,73429,8860,691264,0
3,2,702096,247247,1438335,72965,8589,718796,0
3,2,706358,247875,1248099,73183,8620,623585,0
3,2,705414,248366,1644704,73365,10486,821724,0
3,2,715851,250065,1643381,75012,11017,820539,0
3,2,713400,248504,1442844,74211,9489,720933,0
3,2,710225,248085,1294564,74051,9504,646805,0
3,2,710534,248321,1280051,74161,8386,639536,0
3,2,711137,248688,1414862,74287,9007,706988,0
3,2,706242,247726,1305765,73943,8780,652443,0
3,2,714997,250437,1323086,75109,9233,660704,0
3,2,712678,248829,1303651,74329,9030,651305,0
3,2,707867,248159,1377817,74097,9456,688509,0
3,2,707559,248236,1237544,74146,8561,618288,0
3,2,711510,248419,1322903,74076,8832,661068,0
3,2,712107,248271,1387423,74171,8364,693256,0
3,2,730263,253249,1512791,77588,10231,755695,0
3,2,713188,249037,1365793,74346,8575,682451,0
3,2,707931,247701,1347766,73977,8690,673343,0
3,2,713699,248329,1430121,74045,10398,714269,0
3,2,711119,248471,1323764,74091,8764,661427,0
3,2,711254,248963,1420456,74262,9170,709773,0
3,2,713795,248569,1409317,74124,9230,704088,0
3,2,720685,250468,1532601,75159,10422,765592,0
3,2,733099,254666,1506513,78036,11437,752812,0
3,2,713255,249345,1314909,74678,9277,657116,0
3,2,733914,254065,1660635,77950,11424,829897,0
3,2,714725,248860,1357256,74359,9496,678095,0
3,2,715079,250404,1383683,75062,8872,691259,0
3,2,732201,253876,1492134,77819,10729,745659,0
3,2,735579,254088,1486281,77866,10917,742051,0
3,2,710708,248903,1324241,74148,8693,661647,0
3,2,714069,249342,1411710,74335,8721,705254,0
3,2,712665,248810,1250399,74188,8925,624822,0
3,2,712574,250429,1321243,75072,9314,659915,0
3,2,714366,249113,1447471,74312,9329,723098,0
3,2,713467,248445,1403898,74116,9025,701557,0
3,2,711170,250097,1392479,74895,9607,695645,0
3,2,715683,249933,1431432,74677,9376,715277,0
3,2,735973,254574,1436854,78009,9929,717932,0
3,2,720057,250642,1330524,75184,9181,664585,0
3,2,715671,249779,1435948,74566,9568,717262,0
3,2,714882,248611,1463796,74089,10165,731453,0
3,2,717939,249300,1450149,74363,10554,726386,0
3,2,713102,249603,1339812,74698,8914,669268,0
3,2,741864,258595,1363656,77447,9482,681268,0
3,2,707643,247155,1388459,73916,8852,693840,0
3,2,716980,249935,1380250,75164,8704,689202,0
3,2,712416,247795,1451915,74121,9749,725406,0
3,2,713524,247810,1596310,74174,9691,797702,0
3,2,727813,252774,1565372,77522,10608,782227,0
3,2,707763,247809,1339195,74093,8991,669226,0
3,2,707546,248117,1399216,74052,8587,699105,0
4,2,757722,266612,1399431,78783,9572,699187,0
4,2,706901,248015,1397738,73692,8415,698337,0
4,2,706902,249091,1390055,74104,8790,694581,0
4,2,710361,249399,1524997,74348,9931,761949,0
4,2,729034,252633,1425706,77075,9486,712299,0
4,2,711485,247720,1290598,73577,8511,644785,0
4,2,705559,247924,1247461,73732,8161,623270,0
4,2,707806,248421,1389521,73889,8750,694234,0
4,2,715460,250862,1446997,75052,9822,723566,0
4,2,709299,248664,1419602,74036,8940,709360,0
4,2,713465,249767,1417118,74461,9677,707737,0
4,2,711139,249371,1322572,74006,8160,660764,0
4,2,713074,248703,1334892,73915,8980,666967,0
4,2,711635,248619,1319032,74028,8899,658920,0
4,2,716754,250498,1340313,74954,10304,669206,0
4,2,712341,249302,1293768,74323,8450,646419,0
4,2,711750,250089,1429826,74745,9085,714180,0
4,2,712163,248563,1533719,74104,11174,766266,0
4,2,712604,248725,1474776,74030,9655,736940,0
4,2,705148,249097,1391723,74202,9952,695363,0
4,2,708816,248463,1398997,73979,8891,699062,0
4,2,715541,250943,1550425,75104,9165,773965,0
4,2,711235,249257,1277638,74167,8787,638285,0
4,2,709873,248862,1265190,74077,9140,632062,0
4,2,708566,248091,1352662,73684,8587,675907,0
4,2,713046,248750,1388719,73999,8979,693829,0
4,2,711273,250085,1448306,74659,8795,723525,0
4,2,730633,253588,1384392,77407,8885,691806,0
4,2,712772,249167,1471303,74185,9621,734588,0
4,2,709025,249654,1378113,74260,7915,688820,0
4,2,709760,249239,1280784,74173,8306,639913,0
4,2,713127,249694,1361059,74290,8788,680046,0
4,2,706869,248835,1297749,73992,7431,648344,0
4,2,708873,248679,1273864,73949,8179,636388,0
4,2,710550,248819,1353796,73840,8784,676490,0
4,2,730021,253123,1356938,77187,9866,678133,0
4,2,712750,250247,1463680,74558,9745,731119,0
4,2,719207,251642,1422221,75044,9150,710193,0
4,2,711989,249341,1419763,74029,8993,709442,0
4,2,708098,248838,1382043,73970,8697,690618,0
4,2,718487,251358,1404072,75154,8785,701245,0
4,2,719394,252114,1437209,75408,9374,717666,0
4,2,713172,249396,1541036,73951,9757,770015,0
4,2,737822,254682,1360942,77517,9926,679853,0
4,2,716642,250270,1424561,74357,8825,711819,0
4,2,710956,249487,1419331,74162,10028,709186,0
4,2,715206,250062,1287869,74274,8850,643406,0
4,2,710856,249192,1405173,74032,9507,702196,0
4,2,731522,253677,1314404,77368,9665,656753,0
4,2,709696,248479,1531399,73799,10866,765171,0
4,2,713109,248023,1316751,73612,8485,657952,0
4,2,707903,248272,1346583,73780,8930,672826,0
4,2,707980,248214,1480145,73685,9447,739648,0
4,2,713557,248949,1351930,73775,9252,675382,0
4,2,711500,249489,1455394,73922,9407,727251,0
4,2,715113,250652,1555698,74569,9861,777131,0
4,2,711084,248181,1254932,73610,8436,626973,0
4,2,707831,248068,1421110,73574,8621,709967,0
4,2,707340,247955,1423710,73537,9087,711424,0
4,2,709198,248399,1329741,73720,8541,664396,0
4,2,706916,248775,1400963,73814,9090,700021,0
4,2,718073,250266,1348250,74507,9860,673465,0
4,2,711861,248735,1650923,73839,12035,825037,0
4,2,710435,249372,1409678,74220,9121,704154,0
4,2,715813,249514,1374518,74269,9215,686565,0
4,2,712938,250109,1287608,74474,8071,643143,0
4,2,715194,250375,1253082,74648,8509,625820,0
4,2,712286,248458,1371411,73645,8637,685201,0
4,2,713244,248824,1384416,73733,8478,691793,0
4,2,718464,251116,1347637,74891,8182,673008,0
4,2,703706,248228,1426228,73092,8431,712388,0
4,2,708668,248798,1305092,73358,8501,652046,0
4,2,704206,248268,1385968,73279,9216,692548,0
4,2,705077,248004,1317390,73282,9277,658197,0
4,2,705286,247593,1517049,72999,9758,758195,0
4,2,732418,253140,1465671,77581,10143,732279,0
4,2,710685,247744,1372629,73977,9749,685841,0
4,2,709391,248146,1410847,74082,9684,705059,0
4,2,713523,249637,1331688,74810,8211,665127,0
4,2,712441,248823,1401202,74319,8419,700157,0
4,2,710099,249238,1375068,74543,8912,687062,0
4,2,709935,248243,1502786,74151,8985,750838,0
4,2,710006,247832,1411956,73992,9082,705537,0
4,2,704631,248251,1364875,74186,9231,682021,0
4,2,706525,248264,1293997,74106,8909,646610,0
4,2,714115,249558,1324483,74811,8704,661701,0
4,2,712865,248517,1398045,74173,8612,698636,0
4,2,717015,249444,1557928,74671,9995,777583,0
4,2,714163,249971,1308887,74793,9130,653757,0
4,2,708965,248321,1434099,74171,9606,716587,0
4,2,710768,248190,1409271,73923,9868,704179,0
4,2,708982,248682,1450701,74289,9727,724882,0
4,2,711400,249180,1410805,74288,9472,704882,0
4,2,732041,252912,1442970,77322,9713,720998,0
4,2,716741,249223,1463549,74526,10398,731306,0
4,2,711086,249569,1339754,74496,9439,669354,0
4,2,714752,250060,1400641,74898,9895,699702,0
4,2,714510,249762,1455661,74745,10241,727114,0
4,2,714540,249649,1505651,74626,9960,752241,0
4,2,714244,250322,1423928,74858,9123,711476,0
4,2,711024,249122,1313561,74479,9297,656366,0
4,2,715171,250099,1360560,74792,9387,679788,0
4,2,710753,249075,1389205,74219,9326,694162,0
4,2,734327,253805,1566305,77579,10292,782643,0
4,2,713595,248784,1315612,74291,8935,657325,0
4,2,731248,253729,1585453,77705,10322,792258,0
4,2,717244,250313,1446049,74962,8834,722325,0
4,2,736792,254042,1545673,77721,10570,772409,0
4,2,706093,248734,1668334,74198,10909,833666,0
4,2,717132,250855,1404781,75151,9541,701630,0
4,2,712818,249123,1307632,74485,8889,653340,0
4,2,715747,249257,1399570,74508,9332,699307,0
4,2,735982,253924,1466241,77661,10294,732592,0
4,2,714280,249611,1452446,74603,9217,725519,0
4,2,714190,248380,1315622,74034,9856,657328,0
4,2,713464,248562,1392436,74175,9343,695683,0
4,2,712369,248648,1321131,74282,8931,660073,0
4,2,714131,250320,1408599,75314,9186,703453,0
4,2,712637,249160,1396361,74754,8719,697558,0
4,2,711262,247921,1391004,74164,9488,695086,0
4,2,716303,248840,1329111,74458,8519,664187,0
4,2,704495,247898,1375356,74241,8915,687175,0
4,2,711784,250088,1397770,75173,9189,698212,0
4,2,707457,248249,1335081,74093,8333,667109,0
5,2,766304,268710,1605594,79616,10576,801587,0
5,2,706016,247643,1306199,73598,7952,652692,0
5,2,702496,247529,1351613,73551,8145,675264,0
5,2,709111,248820,1449687,73910,9333,723980,0
5,2,705101,247264,1375486,73467,8255,687249,0
5,2,711324,247998,1402362,73777,9176,700503,0
5,2,706202,248531,1442331,73943,8447,720632,0
5,2,711101,250308,1482410,74745,9798,740131,0
5,2,729487,253014,1407887,77197,9990,703450,0
5,2,707602,248533,1368365,73970,8757,683578,0
5,2,709566,248679,1562127,73971,10173,780574,0
5,2,718801,251061,1406428,74866,9231,702392,0
5,2,711325,248341,1293546,73769,8579,646331,0
5,2,710419,248437,1366384,73922,8825,682785,0
5,2,732080,252638,1310526,77201,10825,654726,0
5,2,715360,249879,1437114,74690,9814,717688,0
5,2,710134,248283,1318999,73990,8778,658826,0
5,2,712319,248478,1254739,73971,8639,626711,0
5,2,729695,252714,1405884,77186,10310,702389,0
5,2,708121,249167,1392629,74207,9294,695816,0
5,2,711235,249663,1401690,74423,8847,700372,0
5,2,707395,248650,1388274,74073,8709,693691,0
5,2,713914,249960,1343666,74592,9763,671169,0
5,2,714014,250727,1351034,74942,9442,674634,0
5,2,714544,250810,1412231,75007,8844,705307,0
5,2,711032,248347,1412192,73785,9482,705644,0
5,2,729600,253867,1340736,77465,8800,669943,0
5,2,706785,248636,1433303,73992,8446,716187,0
5,2,710210,248540,1468360,73904,9693,733791,0
5,2,714190,250282,1403045,74677,9041,700944,0
5,2,713727,250214,1389800,74658,9029,694259,0
5,2,711966,249068,1282512,74047,8885,640785,0
5,2,711428,251050,1426468,75064,8350,712377,0
5,2,708765,248147,1262592,73739,8251,630926,0
5,2,714884,250270,1341279,74379,9109,670128,0
5,2,710491,249208,1330606,74058,8733,664849,0
5,2,711544,249234,1379490,73941,9238,689324,0
5,2,715507,249493,1446902,74251,9721,722767,0
5,2,710364,249318,1394235,74065,8823,696695,0
5,2,735581,253576,1439409,77285,10088,719182,0
5,2,736015,254897,1342980,77787,9055,670927,0
5,2,731576,253502,1443988,77299,9447,721569,0
5,2,714429,250156,1619348,74250,9967,809161,0
5,2,715511,249947,1262799,74136,8316,630897,0
5,2,719492,249694,1336031,74221,8946,667455,0
5,2,716896,251187,1465040,74872,9849,731711,0
5,2,712411,248715,1469009,73726,10733,733879,0
5,2,712097,248500,1323202,73791,9270,661134,0
5,2,709366,248033,1288426,73729,8811,643797,0
5,2,710298,248983,1520262,73877,9521,759739,0
5,2,717647,250324,1429452,74581,9331,714056,0
5,2,706514,247812,1399506,73664,8738,699271,0
5,2,715243,250384,1547936,74711,10130,773013,0
5,2,717161,250297,1366138,74433,9490,682181,0
5,2,710990,248729,1409599,73682,9488,704315,0
5,2,711410,249007,1400600,73842,9085,699923,0
5,2,710661,247901,1385194,73578,9675,692139,0
5,2,708929,248957,1371348,73896,8756,685278,0
5,2,706416,248137,1314356,73570,8467,656702,0
5,2,708933,248282,1326442,73695,8788,662574,0
5,2,714812,250024,1391887,74442,8738,695023,0
5,2,711323,248085,1435923,73647,9866,717438,0
5,2,713322,248324,1502902,73695,10096,750854,0
5,2,707987,247981,1487624,73557,9502,743314,0
5,2,712387,248746,1579695,73835,9856,789314,0
5,2,712521,248175,1356914,73678,8648,677988,0
5,2,736263,252971,1324157,76952,9707,661528,0
5,2,732329,253222,1491022,77035,9050,744950,0
5,2,716606,250108,1470590,74519,9650,734459,0
5,2,711606,247255,1396823,73352,9207,697883,0
5,2,703491,248663,1310946,73343,8350,654984,0
5,2,709406,249526,1334001,73806,8168,666185,0
5,2,727720,252882,1450287,76671,9408,724571,0
5,2,702784,248019,1272445,73320,8610,635678,0
5,2,713443,251072,1342614,74559,9119,670444,0
5,2,707600,247500,1345760,73918,9004,672410,0
5,2,711076,248263,1290095,74184,9492,644667,0
5,2,708712,248573,1533403,74288,10233,766278,0
5,2,708119,247812,1441202,74068,8541,720125,0
5,2,712706,249624,1537546,74586,9588,768367,0
5,2,710141,249075,1307683,74661,8160,653160,0
5,2,711786,248301,1315704,74121,8076,657407,0
5,2,714819,249883,1331266,75007,8967,664794,0
5,2,705546,248500,1371341,74231,9121,685285,0
5,2,715602,250535,1243847,75187,8902,621214,0
5,2,707408,247911,1364022,74030,8480,681607,0
5,2,710753,247941,1308960,73946,8453,654112,0
5,2,713798,248727,1317067,74367,9286,658046,0
5,2,710707,248498,1381600,74151,8591,690279,0
5,2,712554,250069,1421173,74936,8869,709914,0
5,2,713401,248612,1493304,74082,9610,746179,0
5,2,714868,249058,1370292,74452,8669,684614,0
5,2,707560,247943,1432421,73882,9907,715748,0
5,2,714603,249042,1485997,74317,8935,742529,0
5,2,734163,253175,1505359,77569,10935,752165,0
5,2,708802,248994,1332151,74407,10389,665534,0
5,2,714759,250405,1386422,75210,10602,692340,0
5,2,712946,249484,1456479,74659,10211,727779,0
5,2,715154,250017,1410038,74753,8783,704703,0
5,2,709258,248880,1413018,74275,9642,706081,0
5,2,710194,249415,1408322,74540,10246,703653,0
5,2,714232,249298,1420586,74476,9419,709867,0
5,2,715131,250482,1335299,74786,8588,667178,0
5,2,711027,248753,1384208,74106,8682,691679,0
5,2,717915,250921,1256574,75201,8861,627488,0
5,2,719826,250121,1458508,74740,11199,728025,0
5,2,713825,249207,1578649,74428,10411,788714,0
5,2,715351,249920,1443420,74848,9313,721082,0
5,2,712208,248370,1545138,74114,9427,772160,0
5,2,716455,250477,1455073,74730,9578,727076,0
5,2,714920,250023,1502196,74639,9445,750625,0
5,2,715436,249516,1430717,74613,8918,714911,0
5,2,715267,249103,1439442,74272,9391,719233,0
5,2,713470,248884,1500512,74255,10230,749773,0
5,2,739090,253719,1395917,77615,10357,697466,0
5,2,711689,248325,1397112,74006,9270,698105,0
5,2,709096,247735,1427647,73900,9091,713374,0
5,2,714642,247823,1519159,74119,10244,759147,0
5,2,714792,248314,1325148,74357,7666,662059,0
5,2,711893,247485,1253662,74018,8832,626413,0
5,2,715617,248076,1417891,74205,9959,708546,0
5,2,706356,247952,1385722,74225,8791,692471,0
5,2,727362,253118,1444660,77687,9625,721810,0
5,2,715209,251048,1496236,75341,9512,747176,0
6,2,763431,267568,1475332,79030,9605,737111,0
6,2,708049,248548,1378216,73938,7519,688503,0
6,2,706565,248059,1431407,73757,8478,715101,0
6,2,707826,247998,1442757,73564,9205,720708,0
6,2,713096,249550,1430254,74447,9127,714427,0
6,2,710956,247850,1308583,73705,8987,653736,0
6,2,703182,247865,1411627,73740,8215,705242,0
6,2,722533,251545,1411591,76744,9162,704972,0
6,2,707416,247500,1387062,73596,8689,693027,0
6,2,708006,248431,1361090,73951,8677,679991,0
6,2,728984,253124,1385281,77172,9524,692080,0
6,2,733573,253676,1369342,77271,9346,684050,0
6,2,733081,253113,1383914,77089,9993,691585,0
6,2,709295,248112,1346271,73731,8701,672676,0
6,2,711955,249131,1347477,74232,8640,673180,0
6,2,709823,248964,1397857,74181,8310,698385,0
6,2,710783,248862,1574410,74155,9883,786392,0
6,2,715319,249836,1342149,74645,9083,670234,0
6,2,713165,248283,1488002,73895,9801,743467,0
6,2,705671,249146,1435690,74215,9072,717285,0
6,2,707728,248302,1338249,73943,8538,668565,0
6,2,708495,248496,1414993,73943,8282,707121,0
6,2,710636,248989,1306897,74024,8638,652981,0
6,2,707131,248494,1317731,73901,9134,658189,0
6,2,730037,253182,1340331,77272,8742,669819,0
6,2,713499,249839,1391089,74375,9164,695071,0
6,2,705953,248312,1457392,73807,8542,728226,0
6,2,709818,250038,1407461,74368,8483,703309,0
6,2,709341,248650,1314813,73965,8027,657035,0
6,2,737088,258535,1341087,76939,8618,670086,0
6,2,710509,248793,1295851,74024,7666,647390,0
6,2,716704,250240,1412207,74725,8806,705368,0
6,2,705568,249195,1382010,74079,8006,690541,0
6,2,713990,250760,1313538,74893,8238,656024,0
6,2,730831,253507,1390361,77214,10085,694373,0
6,2,709563,249188,1444232,74116,9010,721436,0
6,2,714098,250990,1514290,74863,9427,756336,0
6,2,713101,249161,1413640,73977,9204,706261,0
6,2,711237,250104,1504537,74506,9156,751651,0
6,2,715588,250026,1608526,74244,9446,803559,0
6,2,711770,249305,1314921,74120,8101,657050,0
6,2,713817,250483,1489455,74555,9528,744274,0
6,2,716693,250339,1397051,74398,10369,698030,0
6,2,715833,250362,1337435,74347,8893,668256,0
6,2,717744,249064,1430500,73905,9238,714769,0
6,2,714648,250562,1351965,74489,9294,675564,0
6,2,710669,248837,1463270,73910,9429,731163,0
6,2,712133,248896,1403235,73937,8820,701239,0
6,2,709065,249040,1383370,74024,8882,691226,0
6,2,733416,253344,1405619,77152,10121,702374,0
6,2,714527,248664,1437095,73818,9851,718084,0
6,2,711954,249913,1398876,74631,9171,698652,0
6,2,709016,249020,1524351,74031,10197,761492,0
6,2,712607,248369,1378827,73684,10398,688920,0
6,2,717444,250197,1419668,74359,9332,709108,0
6,2,715291,248447,1485304,73557,9342,742273,0
6,2,714491,249653,1407973,74336,9459,703253,0
6,2,705835,248119,1311309,73593,8601,655238,0
6,2,736387,257756,1462663,76474,9469,730857,0
6,2,734565,253214,1375267,77079,9563,686611,0
6,2,713387,248572,1311851,73815,8566,655427,0
6,2,711409,248417,1431332,73738,9114,715175,0
6,2,732127,252670,1416419,76851,10580,707817,0
6,2,708480,248590,1372257,73797,9002,685775,0
6,2,710046,248205,1390000,73621,8753,694560,0
6,2,711005,247827,1416830,73524,9355,708024,0
6,2,715363,248776,1301788,73853,9238,650414,0
6,2,712247,248946,1531020,73841,9056,765019,0
6,2,711021,248433,1440087,73701,8366,719586,0
6,2,712363,247949,1265215,73464,7900,632192,0
6,2,704016,247726,1424104,72984,8389,711578,0
6,2,727276,253040,1521525,76534,9223,760270,0
6,2,707659,248729,1357918,73446,9085,678431,0
6,2,709591,250477,1325560,74339,8848,662219,0
6,2,728579,253274,1475701,76735,9512,737372,0
6,2,708222,247843,1380806,73996,9046,689983,0
6,2,711041,248492,1431685,74215,9527,715402,0
6,2,706144,247999,1319339,74062,8978,659273,0
6,2,709454,248288,1496384,74129,9130,747752,0
6,2,712258,249882,1335292,74873,8195,666869,0
6,2,706325,247933,1374391,74084,8083,686741,0
6,2,707417,247622,1368432,73842,8469,683821,0
6,2,711331,248472,1402449,74262,8915,700794,0
6,2,708967,248413,1263711,74266,8589,631398,0
6,2,729738,252549,1345172,77352,9528,672106,0
6,2,706735,247258,1436530,73768,8920,717794,0
6,2,710208,248090,1411470,74133,8613,705262,0
6,2,711549,248383,1418372,74142,9522,708816,0
6,2,711033,247989,1325040,73962,9470,662107,0
6,2,708284,248659,1550213,74219,9464,774656,0
6,2,711060,248614,1325159,74167,8753,662053,0
6,2,716776,250272,1320647,75101,9032,659528,0
6,2,733453,253053,1496717,77381,10006,747773,0
6,2,712732,248822,1344187,74390,9028,671354,0
6,2,715623,249906,1346205,74744,9256,672549,0
6,2,708383,249028,1325264,74411,9781,662081,0
6,2,711790,249878,1445119,74860,9716,721856,0
6,2,710532,248848,1416994,74416,9621,707999,0
6,2,712790,248746,1443955,74301,9555,721600,0
6,2,713735,251175,1359973,75427,9398,679272,0
6,2,717094,250741,1326034,75193,9410,662398,0
6,2,712872,249084,1388411,74452,9070,693721,0
6,2,710342,249457,1450779,74463,9508,725211,0
6,2,712890,249713,1427148,74487,9265,713108,0
6,2,711982,249059,1246286,74331,8279,622575,0
6,2,714081,248399,1410821,74048,9687,705026,0
6,2,713995,249272,1406886,74417,9161,703063,0
6,2,715303,249192,1504428,74364,9543,751786,0
6,2,737237,253077,1518749,77485,10420,759035,0
6,2,717958,251842,1580156,75476,12403,789146,0
6,2,733197,254094,1553521,77717,10652,776219,0
6,2,712204,248393,1334712,74141,8290,666935,0
6,2,714352,249097,1424664,74255,8633,711910,0
6,2,713138,249270,1670414,74378,10336,834225,0
6,2,715335,248834,1266919,74154,9663,632997,0
6,2,717596,251014,1412481,75199,9064,705462,0
6,2,715989,250164,1483649,75043,9581,741158,0
6,2,714130,247988,1373052,74242,9518,686070,0
6,2,713660,248311,1409878,74341,8609,704504,0
6,2,717454,250121,1312396,75195,9185,655381,0
6,2,714803,248236,1322808,74336,9343,660948,0
6,2,705517,247670,1305960,74106,8285,652611,0
6,2,707312,248222,1405380,74260,9564,702340,0
6,2,727047,252504,1438951,77377,9462,718994,0
7,2,762943,267925,1596952,79462,10078,797389,0
7,2,704985,247607,1380263,73461,7715,689602,0
7,2,709144,247355,1313063,73410,9039,656106,0
7,2,707076,248134,1480409,73689,9563,739470,0
7,2,708396,247986,1461176,73697,9492,730129,0
7,2,716348,250420,1437133,74834,9494,717759,0
7,2,709898,249953,1421523,74695,9341,709956,0
7,2,703607,247538,1730426,73674,11332,863552,0
7,2,705551,247516,1292038,73684,8074,645420,0
7,2,714047,251222,1413451,75158,9146,705972,0
7,2,708033,248087,1397606,73619,9535,698297,0
7,2,712226,248937,1452634,73874,9780,725830,0
7,2,709658,248086,1314250,73728,8088,656525,0
7,2,709997,248768,1364366,73982,8883,681678,0
7,2,712240,249284,1460240,74468,9399,729357,0
7,2,708598,248463,1628090,73961,9749,813497,0
7,2,730186,253243,1380949,77367,9318,689875,0
7,2,715361,250373,1428856,74923,8989,713555,0
7,2,716347,249874,1475583,74644,10262,737118,0
7,2,709404,250424,1513572,74897,9685,755957,0
7,2,707979,248410,1395171,73983,8670,697102,0
7,2,708240,249490,1406382,74524,8874,702515,0
7,2,708736,248622,1312157,73957,8459,655551,0
7,2,706382,248628,1278874,73988,8175,638900,0
7,2,709225,249208,1432379,74093,8712,715719,0
7,2,715171,249961,1410263,74588,9427,704550,0
7,2,709537,249165,1270443,74123,8741,634799,0
7,2,710822,250090,1409918,74651,8616,704258,0
7,2,713843,250337,1416724,74734,8987,707707,0
7,2,708050,248559,1495012,73936,8582,747060,0
7,2,712211,250317,1338889,74711,9034,668696,0
7,2,733780,253543,1350271,77313,9603,674657,0
7,2,711434,250181,1384499,74618,8779,691561,0
7,2,729116,253367,1300683,77289,9419,649832,0
7,2,708071,249031,1380900,74070,9065,689557,0
7,2,708498,248547,1386078,73910,9415,692557,0
7,2,709153,249652,1524700,74161,9635,761915,0
7,2,712851,249379,1517332,73997,9967,758285,0
7,2,707925,248881,1456598,73867,8408,727859,0
7,2,713096,249358,1456471,74048,9325,727753,0
7,2,717895,251008,1455967,74875,9354,727234,0
7,2,711663,249722,1297711,74359,8959,648338,0
7,2,733530,254020,1351321,77244,9283,675307,0
7,2,719265,250663,1267615,74420,8729,633424,0
7,2,722888,251531,1426466,75027,9742,712331,0
7,2,709745,248982,1421844,73922,9465,710516,0
7,2,711964,248998,1350131,73817,8509,674606,0
7,2,716550,251163,1426185,75010,9650,712056,0
7,2,732624,253386,1372547,77233,10279,685659,0
7,2,711914,249068,1459440,73975,9548,729168,0
7,2,716552,250205,1446164,74638,9650,722405,0
7,2,707712,248535,1324107,73863,8145,661595,0
7,2,711440,249460,1331748,74113,9940,665343,0
7,2,716630,250352,1390284,74621,10408,694174,0
7,2,711949,248519,1308389,73560,9142,653754,0
7,2,734867,253320,1404853,76971,10069,701848,0
7,2,711154,249000,1273940,73951,8408,636477,0
7,2,712019,249242,1533939,74146,9825,766332,0
7,2,731203,253106,1519319,77066,9273,759098,0
7,2,707884,247961,1291884,73562,8509,645426,0
7,2,711885,248248,1467404,73623,9871,733254,0
7,2,733192,252955,1520478,77022,10904,759666,0
7,2,712453,248472,1466998,73765,9222,732964,0
7,2,713302,250665,1402549,74703,9387,700438,0
7,2,712239,248518,1297678,73763,8711,648411,0
7,2,715927,250310,1309109,74634,8502,653839,0
7,2,713599,248320,1243329,73676,9021,621154,0
7,2,709000,248573,1375727,73752,8308,687347,0
7,2,709755,248236,1490007,73571,8342,744585,0
7,2,713350,248140,1316132,73571,8341,657591,0
7,2,710801,251020,1339947,74362,8380,669101,0
7,2,706642,249007,1421046,73475,8700,710163,0
7,2,705242,248213,1331170,73358,8715,665150,0
7,2,703671,248443,1308109,73402,8771,653628,0
7,2,705584,248361,1401817,73334,9040,700478,0
7,2,712200,248786,1390141,74348,10526,694587,0
7,2,716347,249917,1362083,74941,9153,680417,0
7,2,708511,248240,1389525,74142,9556,694221,0
7,2,710076,248353,1418959,74159,8566,709025,0
7,2,708656,248297,1386003,74162,8699,692515,0
7,2,708942,248790,1439965,74455,10827,719068,0
7,2,708281,248445,1317185,74250,8655,658096,0
7,2,709198,247833,1403392,73991,8696,701132,0
7,2,714861,248220,1314674,74131,8504,656931,0
7,2,707297,247825,1350596,73966,8574,674853,0
7,2,729821,252789,1427900,77428,9998,713520,0
7,2,711593,248633,1472132,74260,8854,735639,0
7,2,708630,248092,1413875,73940,9236,706581,0
7,2,717934,250475,1328252,75236,9112,663226,0
7,2,707413,247888,1332384,73986,9384,665759,0
7,2,711681,248516,1473406,74178,9110,736193,0
7,2,731063,252401,1450943,77343,9603,725051,0
7,2,714740,248483,1307984,74107,8561,653553,0
7,2,712158,248910,1387442,74257,9300,693229,0
7,2,716294,249127,1563292,74406,9665,780908,0
7,2,708076,249879,1322305,74678,9084,660507,0
7,2,712062,248836,1460239,74400,9805,729635,0
7,2,740525,259915,1336332,78091,9094,667346,0
7,2,734304,253564,1476328,77726,9937,737631,0
7,2,715281,250333,1420059,74816,8959,709511,0
7,2,716341,249657,1487933,74594,9745,743444,0
7,2,716582,250576,1314900,75134,8836,656684,0
7,2,711875,249494,1604644,74460,9394,801594,0
7,2,713673,250012,1426747,74531,9017,712843,0
7,2,708125,248440,1441417,74069,8773,720279,0
7,2,714672,249208,1448654,74443,9519,723793,0
7,2,711092,248694,1482138,74181,9981,740633,0
7,2,714513,249213,1575321,74363,9450,786949,0
7,2,717964,249592,1375797,74524,9268,687380,0
7,2,717459,250714,1397604,75048,9819,698173,0
7,2,715097,250081,1401166,74596,9683,700096,0
7,2,714728,249608,1557436,74606,9710,778196,0
7,2,713594,249442,1329976,74413,8448,664517,0
7,2,735079,253759,1461180,77644,11177,730084,0
7,2,715613,249156,1448573,74320,9237,723631,0
7,2,713871,249592,1434180,74468,9736,716564,0
7,2,733535,252859,1449194,77345,9448,724010,0
7,2,716418,249000,1391962,74782,9465,695272,0
7,2,712354,248239,1417378,74254,8182,707956,0
7,2,733401,252647,1358582,77531,10152,678828,0
7,2,713499,247859,1450063,74130,9645,724591,0
7,2,711959,250190,1408409,75235,9221,703472,0
7,2,706570,248412,1257030,74384,8800,628058,0
7,2,706808,248746,1398020,74391,8410,698566,0
8,2,761076,266497,1434112,78768,10570,716537,0
8,2,713409,250728,1401406,74775,9099,699873,0
8,2,715740,250262,1435808,74624,9739,717065,0
8,2,707082,248404,1562389,73679,9519,780454,0
8,2,707409,247810,1495055,73648,10574,747085,0
8,2,714541,249995,1433496,74593,9331,715995,0
8,2,706258,247731,1322440,73732,7964,660627,0
8,2,703494,247896,1556307,73711,9517,777156,0
8,2,710677,249881,1439098,74655,8739,718680,0
8,2,727238,252916,1408267,77214,10053,703529,0
8,2,709568,249316,1310748,74085,8887,654779,0
8,2,708629,247848,1313743,73585,8480,656369,0
8,2,710563,248260,1370523,73757,8969,684811,0
8,2,711568,249395,1466405,74112,9513,732746,0
8,2,712081,249223,1329231,74234,8752,664157,0
8,2,710754,248380,1399430,74005,9248,699161,0
8,2,709480,248806,1393081,74129,8856,695988,0
8,2,711131,248385,1429515,74005,9230,714212,0
8,2,712255,248653,1388657,74070,9522,693929,0
8,2,703206,248479,1460621,73970,9313,729825,0
8,2,707094,249138,1337599,74238,8358,668232,0
8,2,708679,248842,1316832,74136,8644,657999,0
8,2,714063,250898,1317135,74988,9019,657848,0
8,2,709367,248977,1422818,74057,8822,711049,0
8,2,709786,248799,1334888,73999,7895,666971,0
8,2,711409,249057,1267588,74117,8684,633366,0
8,2,709065,248774,1294345,73882,8196,646727,0
8,2,706119,248629,1299070,73977,8048,649132,0
8,2,708760,248721,1296217,74030,8099,647664,0
8,2,707067,248582,1382211,73855,8536,690353,0
8,2,711758,249461,1348751,74242,9044,673842,0
8,2,711743,249126,1359320,74107,8654,679260,0
8,2,707196,248934,1377163,74033,8512,688114,0
8,2,708930,249040,1228830,74103,8113,613957,0
8,2,705820,248559,1408275,73903,8750,703776,0
8,2,707626,248677,1449935,73788,8986,724461,0
8,2,712424,248800,1446948,73901,9833,723008,0
8,2,710914,248838,1509840,73828,9266,754408,0
8,2,714959,251050,1461702,74968,9602,730028,0
8,2,713208,250221,1477244,74658,9452,737809,0
8,2,715375,249624,1275477,74235,8965,637087,0
8,2,711163,249618,1395738,74211,9445,697443,0
8,2,713209,250159,1394112,74245,8955,696601,0
8,2,715471,249724,1350774,74062,9548,674857,0
8,2,740841,254825,1375133,77589,9785,687159,0
8,2,731755,254276,1395812,77475,10139,697349,0
8,2,711536,249276,1446316,74017,8807,722774,0
8,2,732443,253275,1491893,77179,9626,745519,0
8,2,709607,248577,1319578,73786,8714,659367,0
8,2,709321,248491,1382002,73753,8538,690550,0
8,2,709912,248243,1359336,73626,8373,679220,0
8,2,709367,249450,1460074,74410,9367,729362,0
8,2,708755,248704,1319096,73851,9326,658968,0
8,2,736097,254571,1499591,77504,10532,748517,0
8,2,714229,249507,1445917,73887,9712,722511,0
8,2,715661,249447,1401768,73899,9626,700452,0
8,2,713386,248507,1447302,73649,10003,723314,0
8,2,707895,248651,1418334,73759,9377,708733,0
8,2,712684,249848,1527227,74185,9374,763131,0
8,2,709376,248053,1370746,73604,9520,684929,0
8,2,715360,250194,1406472,74589,9161,702344,0
8,2,711812,248822,1712685,73844,11008,855838,0
8,2,709698,248313,1506224,73749,9094,752635,0
8,2,705241,248429,1396635,73767,8550,697783,0
8,2,711717,248461,1493284,73680,10048,746172,0
8,2,710618,248299,1464916,73707,9274,731987,0
8,2,713553,248261,1335014,73692,9443,666976,0
8,2,716786,249212,1315402,74115,8614,657098,0
8,2,714369,248841,1399732,73750,8621,699318,0
8,2,710585,247761,1316741,73391,7852,657843,0
8,2,703501,248385,1363921,73221,8507,681528,0
8,2,703314,248139,1511582,73101,9770,755420,0
8,2,706660,248205,1511206,73387,9687,754942,0
8,2,703305,248646,1394025,73471,9441,696539,0
8,2,706407,248190,1361112,73292,8359,680088,0
8,2,707831,248209,1306468,74188,9676,652762,0
8,2,709980,248348,1384873,74254,9002,691912,0
8,2,711623,249688,1360850,74829,9310,679708,0
8,2,713973,250340,1301804,75140,8284,650045,0
8,2,709678,248421,1425715,74142,8718,712449,0
8,2,709170,249946,1271114,75044,8932,634743,0
8,2,708081,248088,1453128,74111,8787,726053,0
8,2,714878,250271,1338168,75012,8919,668405,0
8,2,732229,252160,1384136,77207,9679,691551,0
8,2,706751,248068,1299526,74137,8424,649368,0
8,2,708583,248640,1359452,74302,8488,679227,0
8,2,713244,249376,1322259,74719,8334,660402,0
8,2,712007,249057,1383524,74213,8684,691264,0
8,2,711688,248938,1234535,74510,8625,616602,0
8,2,710232,249082,1349234,74394,9050,674093,0
8,2,711013,248687,1345826,74216,8748,672524,0
8,2,712241,249000,1245868,74445,8866,622481,0
8,2,711889,248306,1299961,74025,8305,649682,0
8,2,710319,248695,1403601,74176,9374,701358,0
8,2,713640,248414,1471069,74146,9730,735082,0
8,2,720268,249619,1318482,74641,10264,658491,0
8,2,715413,251023,1378212,75501,10055,688140,0
8,2,710861,249124,1292331,74562,9162,645601,0
8,2,712917,249213,1424181,74434,9399,711577,0
8,2,713531,249605,1414604,74584,8922,706745,0
8,2,713610,248701,1431452,74280,9052,715318,0
8,2,712891,249432,1323140,74475,9130,661132,0
8,2,714411,251478,1409916,75368,10226,703733,0
8,2,713192,249148,1416460,74252,9046,707835,0
8,2,717846,251190,1318243,75369,9240,658383,0
8,2,719238,250437,1333304,74997,9220,666032,0
8,2,710406,248315,1485207,74100,8481,742204,0
8,2,718527,251407,1421625,75460,9390,709960,0
8,2,715789,249191,1428859,74400,9365,713912,0
8,2,712122,249324,1488791,74314,9456,743946,0
8,2,712149,249346,1489452,74335,9888,744356,0
8,2,713279,249069,1512645,74418,9376,755162,0
8,2,715115,249315,1407452,74391,9221,703239,0
8,2,713672,249466,1330919,74424,10303,664671,0
8,2,714246,249252,1466337,74356,8892,732681,0
8,2,710079,247864,1577680,73820,9855,788819,0
8,2,712213,248520,1305999,74188,8875,652567,0
8,2,715308,248874,1371405,74509,9542,685293,0
8,2,708738,247669,1242431,74126,8434,620767,0
8,2,708655,247139,1389590,73861,9212,694342,0
8,2,711526,248052,1464264,74279,9477,731513,0
8,2,730407,253501,1463144,77794,9656,731092,0
8,2,710509,248579,1239901,74417,8539,619401,0
8,2,710789,247947,1468699,74066,8900,733875,0
8,2,712137,248301,1333633,74204,9118,666282,0
9,2,760710,266814,1487117,78791,10096,743010,0
9,2,706232,248525,1287538,73843,8470,643298,0
9,2,732568,253381,1413588,77132,10272,706390,0
9,2,726683,252637,1464916,76911,10699,731951,0
9,2,730130,252729,1450806,77120,9663,724893,0
9,2,730565,252656,1419217,77087,9848,709166,0
9,2,708489,248786,1333104,74012,8703,666024,0
9,2,712620,249076,1470714,74266,9711,734606,0
9,2,715396,250585,1339756,74903,9589,669110,0
9,2,707690,249182,1361038,74185,8942,679899,0
9,2,711836,249646,1450885,74365,9370,724603,0
9,2,710199,249058,1392276,73972,8283,695632,0
9,2,709311,248225,1393201,73703,8688,695950,0
9,2,711007,249729,1392865,74443,8927,695656,0
9,2,710485,248302,1379978,73947,8862,689485,0
9,2,711285,248927,1336703,74119,9035,667907,0
9,2,712640,250401,1431739,74843,9014,715151,0
9,2,712015,248968,1481583,74127,9106,740347,0
9,2,734268,253877,1425497,77568,10556,712256,0
9,2,704569,249496,1372260,74301,8798,685664,0
9,2,709870,249628,1478256,74588,9526,738416,0
9,2,709325,249723,1432408,74380,8275,715745,0
9,2,730307,253259,1306283,77250,9487,652785,0
9,2,711692,250559,1524358,74865,9348,761016,0
9,2,709636,249019,1350238,74045,8016,674725,0
9,2,708497,248390,1417324,73840,8720,708236,0
9,2,708876,248949,1313267,74088,8523,656169,0
9,2,705639,248425,1389271,73883,8355,694263,0
9,2,714790,249838,1343443,74498,9437,670975,0
9,2,716913,251583,1409544,75260,9797,703330,0
9,2,716132,250623,1430729,74886,9120,714649,0
9,2,713153,249054,1362764,74019,8584,680994,0
9,2,707590,249485,1352701,74197,8601,675878,0
9,2,710146,249523,1414710,74414,8923,706588,0
9,2,709580,248994,1413459,74066,8751,705958,0
9,2,729492,253687,1450834,77280,10403,724904,0
9,2,711629,248871,1386257,73970,9183,692721,0
9,2,713380,250166,1465339,74504,9391,732006,0
9,2,730662,253555,1447460,77246,9979,723253,0
9,2,708282,248701,1419785,73819,8523,709363,0
9,2,716231,250034,1351726,74302,9447,675352,0
9,2,709470,249236,1287085,74212,9402,643066,0
9,2,716093,250002,1385166,74225,9599,692118,0
9,2,715845,250170,1355375,74257,9730,677122,0
9,2,715470,249059,1323766,73899,9183,661507,0
9,2,710281,249741,1692492,74222,11073,845740,0
9,2,709017,249409,1293442,74091,8638,646315,0
9,2,710138,248434,1438115,73795,9966,718611,0
9,2,711839,249849,1441194,74447,9875,719908,0
9,2,711854,249696,1472909,74361,9737,735828,0
9,2,710171,248618,1599530,73867,10190,799276,0
9,2,706121,248706,1412866,74011,8681,705981,0
9,2,707940,248512,1454999,73775,10148,727002,0
9,2,714049,249560,1486998,74232,9889,743090,0
9,2,710262,248336,1436480,73553,9151,717777,0
9,2,713770,248925,1249168,73706,9325,624075,0
9,2,708652,247488,1453112,73358,9626,726097,0
9,2,728855,253372,1394851,77075,10102,696932,0
9,2,706384,247628,1284379,73452,8204,641726,0
9,2,708599,248054,1438807,73586,8952,718912,0
9,2,734696,254031,1411541,77368,10023,705285,0
9,2,709791,248262,1505278,73622,9559,752215,0
9,2,717686,250354,1493400,74542,10224,745912,0
9,2,712786,248014,1407919,73637,9363,703407,0
9,2,710951,248574,1502275,73782,9699,750676,0
9,2,709797,248867,1295246,73945,8645,647072,0
9,2,716340,249787,1334883,74371,9231,666790,0
9,2,715104,249126,1365724,73909,8686,682372,0
9,2,720255,250491,1352169,74609,9096,675333,0
9,2,713139,248378,1241682,73658,7845,620208,0
9,2,701932,247924,1284186,72992,8317,641677,0
9,2,712909,250812,1366192,74348,8594,682135,0
9,2,705516,248151,1418254,73310,8933,708699,0
9,2,711196,248650,1381865,73447,9025,690447,0
9,2,703039,247868,1425003,73153,9233,712010,0
9,2,711430,249964,1262260,74979,9865,630381,0
9,2,712848,248768,1328879,74263,8958,663995,0
9,2,706565,248408,1282963,74248,9046,640925,0
9,2,728937,252704,1441436,77422,9354,720276,0
9,2,713158,249844,1301424,74927,8543,649966,0
9,2,711294,247800,1276985,74053,9050,637967,0
9,2,707456,248505,1542506,74277,9412,770801,0
9,2,711686,247765,1474566,74039,8995,736761,0
9,2,711929,247919,1248527,74022,8857,623854,0
9,2,707460,248602,1417823,74191,8263,708434,0
9,2,708272,248289,1396505,74163,9446,697816,0
9,2,731405,252978,1436897,77505,9400,718057,0
9,2,712240,249417,1310707,74602,8525,654799,0
9,2,711795,248204,1338492,74137,9184,668673,0
9,2,714701,248127,1401583,73986,8874,700324,0
9,2,710905,248613,1373584,74142,9415,686353,0
9,2,712067,248677,1319968,74287,9060,659482,0
9,2,716173,250299,1451115,74976,9393,724747,0
9,2,713735,249799,1383691,74715,9394,691219,0
9,2,717306,250439,1449757,75307,10408,724028,0
9,2,718949,249583,1545076,74573,10243,772007,0
9,2,732339,254220,1507281,78056,10486,753090,0
9,2,709960,248863,1380970,74441,9169,689880,0
9,2,711643,249080,1405499,74456,9555,702353,0
9,2,711040,248882,1334410,74330,8489,666778,0
9,2,713888,249229,1316406,74431,9632,657752,0
9,2,714312,250174,1416496,74785,9615,707794,0
9,2,710682,250070,1381297,74628,9298,690070,0
9,2,717587,251584,1271675,75339,8644,635052,0
9,2,762283,263340,1526257,80501,10280,762610,0
9,2,714047,249003,1404207,74338,9418,701674,0
9,2,714910,249535,1417217,74524,9937,708122,0
9,2,735133,253614,1620936,77639,10524,809875,0
9,2,717220,249944,1396283,74769,9483,697484,0
9,2,709885,248793,1413442,74048,9000,706306,0
9,2,710398,249659,1389266,74540,9373,694193,0
9,2,714006,249302,1405638,74509,8775,702343,0
9,2,713029,248869,1398209,74279,9487,698571,0
9,2,712495,249051,1395961,74276,10107,697435,0
9,2,714754,248605,1483454,74114,10016,741479,0
9,2,714594,250290,1441100,74876,10690,719831,0
9,2,713337,249486,1347497,74715,9211,673082,0
9,2,711945,247630,1298982,74073,9014,648985,0
9,2,712944,247996,1298177,74186,8907,648668,0
9,2,711008,248096,1433610,74257,9115,716331,0
9,2,712968,247451,1448487,74021,8963,723818,0
9,2,706432,248096,1355657,74258,8996,677315,0
9,2,706218,247244,1305684,73956,9274,652330,0
9,2,709706,248081,1383943,74108,8646,691469,0
9,2,709499,247487,1318454,73859,8573,658788,0
10,2,758559,266699,1486544,78752,9807,742730,0
10,2,727436,256477,1364154,75831,9241,681467,0
10,2,708345,247913,1420659,73540,8869,709859,0
10,2,705483,248545,1381231,73834,9184,690030,0
10,2,707573,248125,1285534,73816,8135,642273,0
10,2,708669,247731,1312495,73705,8205,655760,0
10,2,708595,249252,1421041,74380,8745,709760,0
10,2,708590,247946,1394837,73753,8974,696963,0
10,2,730402,252725,1307409,77181,9677,653060,0
10,2,704951,247895,1470450,73620,9023,734722,0
10,2,715564,250736,1609084,74823,10146,803623,0
10,2,711313,249321,1350545,74074,8448,674788,0
10,2,710867,248710,1322204,73919,8920,660613,0
10,2,733292,257626,1391520,76521,8831,695314,0
10,2,710617,248660,1441189,74063,9970,720094,0
10,2,710763,248910,1429712,74184,8805,714238,0
10,2,708758,248629,1325089,74090,9085,662050,0
10,2,708438,248394,1292174,74032,8670,645543,0
10,2,710865,248376,1473170,73982,9530,736011,0
10,2,711427,248245,1460521,73898,9357,729752,0
10,2,707256,248369,1317793,73931,8989,658486,0
10,2,705278,248148,1331795,73854,8087,665466,0
10,2,709447,249030,1345637,74105,8917,672388,0
10,2,708192,248849,1395019,74071,8865,696966,0
10,2,705300,248410,1287391,73842,8143,643305,0
10,2,711454,248835,1389845,74026,8435,694620,0
10,2,706534,248197,1285154,73781,8140,642156,0
10,2,712123,250657,1483340,74900,9140,740999,0
10,2,710681,248786,1296383,74036,8893,647700,0
10,2,708562,248898,1368023,74058,9220,683482,0
10,2,731815,253145,1361234,77209,9177,680237,0
10,2,709009,248206,1286255,73776,8335,642690,0
10,2,704021,248122,1278591,73760,8754,638919,0
10,2,707435,248911,1305366,74055,7629,652343,0
10,2,709265,248996,1380492,74056,9050,689806,0
10,2,710124,248858,1529626,73868,9546,764324,0
10,2,709706,248685,1560222,73799,10720,779520,0
10,2,709613,249019,1538244,73885,9977,768613,0
10,2,707528,249006,1417608,73977,8382,708358,0
10,2,707766,248503,1368977,73760,8152,683955,0
10,2,715130,249993,1346748,74322,9858,672949,0
10,2,709819,248945,1395066,74069,8744,697055,0
10,2,718709,250950,1433159,74701,9604,715903,0
10,2,713405,249880,1701220,74157,9996,849368,0
10,2,715643,249637,1415018,74095,9287,706911,0
10,2,710866,249576,1363872,74122,9399,681409,0
10,2,714370,249530,1475210,74047,8993,737158,0
10,2,707989,248238,1426693,73734,9265,712912,0
10,2,707954,248684,1408924,73854,9679,704040,0
10,2,731981,254122,1426798,77506,9958,712804,0
10,2,713080,248787,1305412,73923,8850,652267,0
10,2,709702,248642,1443664,73850,9138,721481,0
10,2,731516,252962,1479059,77072,10119,739015,0
10,2,711561,248636,1491679,73740,9895,745429,0
10,2,715552,250929,1454671,74710,9186,726500,0
10,2,713696,249121,1386042,73805,10128,692471,0
10,2,717286,250708,1442315,74682,9670,720414,0
10,2,706532,248368,1436850,73728,9407,717977,0
10,2,708594,248728,1393698,73830,8673,696334,0
10,2,706490,247986,1299965,73560,8562,649563,0
10,2,713282,248611,1469486,73796,9790,734418,0
10,2,712072,249371,1529833,74242,9896,763898,0
10,2,709940,248032,1381587,73579,9359,690217,0
10,2,713204,248647,1360954,73814,9431,679908,0
10,2,710342,248621,1402572,73811,8728,700873,0
10,2,712473,248255,1419068,73644,8872,709064,0
10,2,712963,247793,1447087,73444,8708,722949,0
10,2,710276,247675,1397579,73383,8627,698394,0
10,2,714002,248386,1414456,73656,9055,706751,0
10,2,731364,252329,1479245,76736,8757,739063,0
10,2,709334,250511,1311396,74119,8352,655052,0
10,2,728682,253555,1433104,76709,9257,716051,0
10,2,725118,252361,1451181,76393,9197,725203,0
10,2,706825,247760,1444050,73181,8915,721528,0
10,2,705600,248818,1561417,73527,10553,779790,0
10,2,709140,249441,1560001,73764,9936,779498,0
10,2,712222,249778,1353565,74841,8944,676101,0
10,2,704907,247892,1423848,74034,8930,711442,0
10,2,708100,248415,1321304,74201,8931,660217,0
10,2,728853,252311,1428536,77296,9001,713747,0
10,2,710285,247782,1240214,73998,8534,619668,0
10,2,710456,247899,1388811,74049,9364,694032,0
10,2,709767,248070,1404781,74079,9330,702011,0
10,2,716790,249309,1283033,74696,9430,640812,0
10,2,711691,250257,1287250,75172,7967,642967,0
10,2,706487,247599,1380624,73905,8694,689914,0
10,2,710182,248290,1356137,74115,7894,677528,0
10,2,708621,248572,1333371,74142,9348,666178,0
10,2,710610,248783,1346764,74363,9838,672825,0
10,2,716984,249452,1300818,74597,8938,649708,0
10,2,729702,252847,1634570,77351,10658,816759,0
10,2,710488,248360,1360642,74197,9232,679808,0
10,2,732925,252710,1585831,77247,9989,792406,0
10,2,716895,249422,1461235,74415,10026,730140,0
10,2,714873,248974,1509163,74399,9767,754045,0
10,2,721386,250673,1370220,75155,10387,684325,0
10,2,712072,248842,1390935,74417,9542,695011,0
10,2,712544,250239,1284713,75111,9354,641671,0
10,2,714424,250435,1333449,75043,9084,665994,0
10,2,717599,251840,1320732,75684,8792,659373,0
10,2,717124,250924,1284907,75268,8763,641559,0
10,2,710424,248728,1455261,74281,9418,727299,0
10,2,707212,249110,1449960,74289,9324,723964,0
10,2,732684,254220,1359139,77725,9378,679028,0
10,2,711773,249429,1374859,74431,8588,687046,0
10,2,714953,249696,1308816,74517,8365,653977,0
10,2,716937,250779,1442373,75214,9712,720658,0
10,2,711731,249211,1407562,74362,8862,703283,0
10,2,719776,251290,1394491,75359,9353,696484,0
10,2,715632,250548,1372415,75044,9110,685445,0
10,2,715578,249419,1486691,74488,10162,742805,0
10,2,715948,250425,1356097,75066,8525,677416,0
10,2,733480,253325,1454674,77534,10130,726899,0
10,2,716335,250721,1494011,75040,9962,746701,0
10,2,714929,249258,1543834,74372,9932,772193,0
10,2,713949,249680,1609897,74500,10563,804287,0
10,2,711989,248344,1358209,74040,8946,678664,0
10,2,712683,247935,1385022,74136,9415,692012,0
10,2,711701,248234,1246565,74348,8325,622809,0
10,2,712662,247625,1394675,74067,8554,696891,0
10,2,718996,250449,1505757,75291,9291,752209,0
10,2,709341,249727,1403305,74980,9420,701032,0
10,2,706890,248047,1254757,74268,9432,626891,0
10,2,710880,249017,1402701,74660,8885,700803,0
10,2,710387,248446,1265544,74277,8139,632351,0
11,2,758504,267029,1442127,78882,10068,720350,0
11,2,762679,266298,1495982,78696,9825,747553,0
11,2,707986,248301,1304589,73785,8536,651640,0
11,2,710558,248739,1588556,73894,11264,793434,0
11,2,706080,248353,1372595,73879,9053,685885,0
11,2,708692,247914,1449526,73709,8949,724285,0
11,2,705022,247325,1396035,73469,8196,697537,0
11,2,708323,248415,1296061,73830,8529,647504,0
11,2,708101,248004,1259554,73830,8987,629234,0
11,2,713281,248573,1422562,73970,9973,709654,0
11,2,730344,252879,1430199,77053,9366,714595,0
11,2,728359,253025,1365069,77107,9291,681945,0
11,2,712041,249162,1400979,73925,9338,700012,0
11,2,714932,250986,1412662,74967,9689,705413,0
11,2,708629,248318,1365556,73867,9008,682345,0
11,2,713800,250319,1712538,74765,11379,855339,0
11,2,706443,248676,1316707,74137,9036,657833,0
11,2,709214,247585,1413325,73657,8909,706249,0
11,2,714946,249127,1471498,74354,10393,735045,0
11,2,715984,248801,1575701,74076,9672,787464,0
11,2,705877,248684,1380059,74091,8961,689620,0
11,2,710087,250388,1469504,74822,8673,733839,0
11,2,711775,250477,1396025,74761,9271,697339,0
11,2,708464,249382,1408237,74213,9377,703700,0
11,2,711611,249631,1367386,74549,10144,682862,0
11,2,735937,254552,1381340,78177,9518,690160,0
11,2,728356,253390,1269627,77323,9191,634397,0
11,2,710491,248828,1418071,74031,8977,708578,0
11,2,708164,248221,1312588,73805,9065,655811,0
11,2,709415,249652,1299172,74302,9076,649291,0
11,2,711564,249232,1517926,74146,9256,759125,0
11,2,710888,249257,1448479,74147,8308,723776,0
11,2,726580,253002,1353381,77195,8943,676159,0
11,2,708879,249075,1417231,74148,9054,707826,0
11,2,708586,249833,1412898,74349,8431,705940,0
11,2,711285,249667,1466829,74031,9347,732510,0
11,2,716426,250741,1675168,74740,11400,836247,0
11,2,733745,253584,1404271,77210,9747,701673,0
11,2,709131,249758,1494109,74365,8910,746384,0
11,2,713300,249353,1439119,74076,8773,719026,0
11,2,710923,248469,1344954,73785,8487,672099,0
11,2,716671,250161,1435826,74529,9513,717432,0
11,2,714326,249627,1311354,74095,8388,655215,0
11,2,714933,250721,1403816,74470,8850,701287,0
11,2,719294,250252,1682955,74246,11183,841027,0
11,2,710079,249551,1352713,74107,10077,675848,0
11,2,716413,250964,1522346,74799,10021,760438,0
11,2,712593,249088,1485750,74056,9478,742385,0
11,2,712923,250821,1481924,74876,9965,739463,0
11,2,705482,247914,1457025,73670,9997,727941,0
11,2,713067,249124,1388281,74012,9026,693626,0
11,2,715396,250787,1424481,74866,9643,711352,0
11,2,713060,248793,1566834,73929,10084,783557,0
11,2,716144,250618,1483650,74727,9763,740444,0
11,2,735455,253802,1468739,77187,9864,734013,0
11,2,714330,249242,1386688,73804,9642,692947,0
11,2,716630,249717,1435205,74305,9079,716945,0
11,2,705914,248506,1445737,73784,9455,722177,0
11,2,710165,248856,1240310,73906,8570,619602,0
11,2,704761,247567,1397807,73355,8775,698419,0
11,2,710407,247946,1346315,73578,9255,672765,0
11,2,706247,247525,1500419,73343,9746,749761,0
11,2,716634,251390,1699574,74944,11383,848798,0
11,2,719989,251182,1428483,74952,9821,713394,0
11,2,706249,247649,1285161,73401,8070,642169,0
11,2,709411,248058,1390208,73629,8230,694568,0
11,2,720243,251462,1350304,75054,9538,674510,0
11,2,711117,248146,1407868,73576,8379,703504,0
11,2,715599,249389,1396192,73960,9268,697620,0
11,2,710647,248183,1411722,73546,8012,705412,0
11,2,705383,248786,1413516,73374,8197,706396,0
11,2,704953,248046,1377987,73115,8302,688600,0
11,2,703976,248171,1405418,73276,9178,702249,0
11,2,708488,248962,1520196,73550,9628,759637,0
11,2,712477,250326,1303872,74267,8377,651321,0
11,2,708344,248181,1374964,73277,8583,687090,0
11,2,714098,249086,1444184,74430,9815,721644,0
11,2,711203,250221,1315827,75104,9023,657120,0
11,2,707174,248643,1354461,74319,8464,676685,0
11,2,709683,248792,1285130,74267,8025,642147,0
11,2,712795,248555,1293040,74284,8738,646051,0
11,2,712660,249816,1335369,74896,8741,666901,0
11,2,730933,252881,1443363,77493,9635,721284,0
11,2,711449,248153,1313278,74077,9153,656210,0
11,2,705701,248640,1387154,74305,9035,693094,0
11,2,707852,248358,1405575,74144,8207,702320,0
11,2,710691,248771,1298714,74181,8110,648966,0
11,2,714377,250515,1291444,75136,9086,644797,0
11,2,714409,250272,1325584,75112,9208,661921,0
11,2,710317,247859,1378133,73822,9310,688689,0
11,2,711182,248485,1435032,74151,9540,716975,0
11,2,709487,248106,1247984,73993,8545,623562,0
11,2,711885,248657,1445416,74165,8299,722204,0
11,2,732905,253493,1472825,77530,10226,735940,0
11,2,710451,247494,1524217,73801,9828,761455,0
11,2,717575,249178,1431707,74478,10516,715287,0
11,2,712046,249212,1409647,74546,9813,704353,0
11,2,714426,249178,1374870,74523,9133,686889,0
11,2,713700,249768,1362722,74629,9195,680885,0
11,2,732924,254062,1440526,77885,9207,719754,0
11,2,733796,253777,1370350,77772,10328,684665,0
11,2,736790,254056,1465458,77854,10006,732279,0
11,2,717752,249981,1449800,74594,9731,724444,0
11,2,714147,249845,1271458,74506,8666,635373,0
11,2,712878,249990,1320388,74807,9388,659642,0
11,2,715377,249177,1420052,74419,9477,709557,0
11,2,734017,253843,1522149,77726,10177,760543,0
11,2,711323,248355,1461728,74073,9286,730394,0
11,2,716201,249054,1393234,74360,9138,696184,0
11,2,731828,253303,1610173,77509,10084,804581,0
11,2,715298,249114,1471283,74321,10587,735224,0
11,2,716027,249862,1407257,74702,8608,703103,0
11,2,710700,248914,1390308,74312,9539,694674,0
11,2,718035,249285,1503556,74405,10103,751274,0
11,2,713826,248576,1407515,74170,8420,703226,0
11,2,709766,248418,1449246,74075,10069,724129,0
11,2,712219,248847,1451743,74307,8907,725423,0
11,2,712035,247464,1277054,73960,8404,638148,0
11,2,715080,249892,1309408,75034,8331,654108,0
11,2,713372,247951,1306667,74163,9055,652888,0
11,2,738714,254143,1472283,78552,10383,735628,0
11,2,706554,248306,1326058,74256,8201,662597,0
11,2,712248,249014,1314443,74769,9299,656430,0
11,2,708801,248218,1337168,74255,8254,668188,0
11,2,709929,248781,1305023,74394,8262,651964,0
12,2,762875,267314,1459772,79006,9995,729531,0
12,2,761062,266272,1356263,78612,8707,677595,0
12,2,708528,248175,1416403,73659,9200,707770,0
12,2,707823,248545,1496748,73819,9183,747847,0
12,2,708706,247960,1282020,73728,8651,640566,0
12,2,714307,250059,1466669,74620,8935,732827,0
12,2,706115,248334,1658882,73899,10129,828869,0
12,2,711834,250017,1397924,74686,9365,698113,0
12,2,705880,247606,1264596,73574,8736,631724,0
12,2,717489,250589,1430910,74799,9366,714644,0
12,2,709444,248725,1306696,73920,8519,652788,0
12,2,708954,248436,1340386,73848,8540,669714,0
12,2,713373,250029,1419508,74466,9415,709006,0
12,2,729186,253211,1317074,77206,9639,657983,0
12,2,714907,250476,1616296,74933,10433,807162,0
12,2,710234,249242,1587915,74348,10667,792319,0
12,2,714959,248279,1331945,73968,9249,665506,0
12,2,707963,247915,1577134,73862,10301,787730,0
12,2,711837,248364,1332580,73978,9876,665887,0
12,2,716909,250203,1463036,74762,9851,730780,0
12,2,705025,248450,1379564,73883,9164,689349,0
12,2,706187,248695,1469334,74061,8552,734180,0
12,2,710173,248641,1404504,73911,8819,701846,0
12,2,727420,252785,1349566,77079,8851,674385,0
12,2,730611,253411,1527830,77303,11292,763362,0
12,2,709882,249051,1427439,74115,8590,713181,0
12,2,707145,248512,1406992,73880,8505,703192,0
12,2,709127,248520,1320498,73953,8801,659793,0
12,2,713241,250782,1318046,75004,9059,658077,0
12,2,706354,248228,1332071,73756,9176,665593,0
12,2,714149,249959,1492466,74576,9231,745114,0
12,2,710150,248749,1425393,73977,8689,712294,0
12,2,705418,248707,1404624,74019,8401,701868,0
12,2,726054,252347,1341509,76938,8865,670268,0
12,2,709775,248518,1416313,73852,8534,707826,0
12,2,707595,248894,1330934,73915,9126,664901,0
12,2,709924,249145,1428887,74012,8858,713963,0
12,2,713203,249790,1474005,74175,9712,736524,0
12,2,708849,248938,1380899,73960,9142,690006,0
12,2,714128,250074,1445869,74545,9453,722207,0
12,2,717395,251379,1324524,75007,8918,661417,0
12,2,715986,249293,1357390,74153,8473,678235,0
12,2,713608,249741,1277469,74068,9037,638268,0
12,2,713715,249701,1356481,74124,9437,677737,0
12,2,714531,249423,1417744,73987,9507,708454,0
12,2,710509,249674,1264467,74180,9100,631774,0
12,2,734591,254816,1376237,77604,9553,687620,0
12,2,713067,249955,1438858,74529,9089,718687,0
12,2,708824,249264,1464231,74063,10088,731117,0
12,2,708245,248667,1424218,73933,9376,711635,0
12,2,708955,247996,1389355,73589,9157,694281,0
12,2,707417,248046,1324490,73681,8682,661783,0
12,2,717638,250974,1406773,74833,9279,702610,0
12,2,733620,253776,1506325,77240,10186,752656,0
12,2,714922,250623,1478225,74537,9599,738509,0
12,2,713657,249388,1309898,73875,8832,654407,0
12,2,715805,249636,1323843,74072,8974,661449,0
12,2,706087,248240,1498728,73644,8660,748857,0
12,2,706645,247933,1319722,73526,9002,659407,0
12,2,715678,251199,1408724,74909,9215,703701,0
12,2,709249,248102,1433163,73662,9525,715864,0
12,2,707653,248116,1459981,73576,9967,729552,0
12,2,732711,253231,1458696,77104,10450,728979,0
12,2,711581,248153,1416368,73604,9751,707741,0
12,2,709317,248474,1406046,73764,8657,702550,0
12,2,714601,250181,1240412,74508,8432,619582,0
12,2,709841,248061,1365834,73634,9135,682373,0
12,2,712450,248834,1441924,73881,8218,720227,0
12,2,715048,248748,1585397,73781,10191,792251,0
12,2,719853,249914,1556077,74132,9863,777547,0
12,2,704074,248247,1396938,73165,8254,698033,0
12,2,704291,248451,1515553,73247,9465,757235,0
12,2,702638,247987,1299259,73175,8688,649162,0
12,2,706526,248524,1374636,73403,8595,686813,0
12,2,729087,252906,1439152,76638,9248,718974,0
12,2,706332,247708,1359939,73128,8373,679595,0
12,2,711669,248316,1459163,74044,9159,729122,0
12,2,704949,247719,1265118,73931,8414,632062,0
12,2,709901,248407,1389306,74235,9068,694141,0
12,2,707959,248513,1415366,74245,8582,707142,0
12,2,714189,249409,1246092,74742,8542,622308,0
12,2,707338,247533,1342003,73915,8620,670578,0
12,2,710263,248455,1286433,74199,8508,642826,0
12,2,715380,250301,1328324,75092,9015,663413,0
12,2,710206,247963,1301484,74011,9366,650353,0
12,2,709272,249655,1318321,74918,8771,658339,0
12,2,708828,248357,1413036,74108,8344,706049,0
12,2,708569,248608,1286712,74236,8869,642879,0
12,2,728729,252517,1410791,77327,10398,704922,0
12,2,718609,250347,1301604,74974,8777,650034,0
12,2,708450,247947,1342222,73942,8789,670678,0
12,2,710076,248618,1294064,74265,9138,646559,0
12,2,711660,248889,1397698,74182,8624,698446,0
12,2,711485,248202,1336060,74028,8906,667543,0
12,2,712501,249061,1252245,74274,8709,625658,0
12,2,717540,249048,1349636,74502,9693,674385,0
12,2,712489,249363,1378344,74505,9536,688775,0
12,2,712220,248940,1345237,74516,9138,672057,0
12,2,710552,249259,1461096,74525,9027,729971,0
12,2,714022,249457,1448083,74575,9059,723524,0
12,2,714662,249400,1279391,74579,8965,639191,0
12,2,713840,249376,1307999,74598,8610,653469,0
12,2,719548,250363,1386587,74919,9670,692866,0
12,2,713763,249867,1354717,74466,9091,676925,0
12,2,711573,249035,1335276,74257,8264,667236,0
12,2,734544,253622,1486232,77636,10429,742595,0
12,2,713710,250056,1403063,74877,9387,700671,0
12,2,709121,248333,1464767,74079,9700,731878,0
12,2,716952,250002,1459195,74674,10041,729097,0
12,2,710351,248761,1479901,74249,9157,739340,0
12,2,715331,249852,1380168,74591,9588,689564,0
12,2,712910,248722,1291719,74321,7700,645442,0
12,2,734827,254095,1372090,77916,9770,685580,0
12,2,717907,249452,1502520,74421,9608,751463,0
12,2,714659,249670,1406669,74554,8538,702878,0
12,2,711158,249525,1716950,74439,11025,858549,0
12,2,713326,248580,1404632,74131,9071,701756,0
12,2,716659,249615,1363191,74983,9268,680483,0
12,2,710619,248049,1407004,74255,8514,703037,0
12,2,711612,248154,1314990,74234,8593,656935,0
12,2,712350,247967,1315437,74259,9152,657198,0
12,2,709378,249444,1392184,74929,8666,695698,0
12,2,710325,248852,1341599,74512,9475,670236,0
12,2,713272,250056,1435040,75177,9538,716711,0
12,2,709661,247927,1254567,74023,8854,626803,0
13,2,764282,268551,1476584,79692,9730,737461,0
13,2,765131,268241,1491413,79495,9812,744830,0
13,2,709287,248629,1287923,73835,8924,643429,0
13,2,708836,248545,1418841,73753,8921,708767,0
13,2,711240,248239,1390443,73879,9806,694743,0
13,2,706889,247673,1379503,73674,8598,689267,0
13,2,709670,250055,1406813,74692,9124,702191,0
13,2,728275,252453,1398455,76915,10010,698632,0
13,2,705408,247994,1359769,73775,8670,679357,0
13,2,711012,248194,1324798,73716,8129,662006,0
13,2,708199,248207,1305724,73714,9235,652301,0
13,2,712676,248378,1392436,73783,9539,695791,0
13,2,715184,249445,1394509,74088,8428,696762,0
13,2,706301,248225,1367130,73760,9376,683043,0
13,2,706949,248281,1389731,74000,9236,693891,0
13,2,712321,249775,1438617,74734,9068,718302,0
13,2,712438,248309,1286267,73989,8701,642670,0
13,2,729136,252836,1375954,77250,9065,687540,0
13,2,710107,248133,1467270,73845,9892,733209,0
13,2,712481,248431,1476971,73928,9789,737992,0
13,2,705838,248790,1457497,74094,10227,727967,0
13,2,709361,249121,1406739,74181,8263,702991,0
13,2,712474,250493,1464578,74842,9449,731272,0
13,2,738996,259405,1456395,77405,9148,727509,0
13,2,708575,248850,1606327,73968,10020,802636,0
13,2,706978,248110,1389017,73762,8036,694068,0
13,2,708900,249807,1487212,74536,9342,743003,0
13,2,730544,254088,1432985,77557,9363,715885,0
13,2,729575,253104,1307817,77164,9374,653361,0
13,2,708634,248378,1355604,73794,9655,677457,0
13,2,712397,249579,1398041,74295,9444,698222,0
13,2,714816,250223,1372291,74615,8669,685494,0
13,2,706095,249209,1408111,74094,8429,703606,0
13,2,710174,249519,1408475,74253,9087,703795,0
13,2,711731,250308,1402841,74602,8548,700793,0
13,2,712342,250152,1368328,74498,9518,683472,0
13,2,714250,250984,1479234,74962,8825,738700,0
13,2,707376,247878,1417650,73513,9139,708439,0
13,2,706806,248454,1447423,73753,8929,723255,0
13,2,709967,248536,1453089,73788,9116,726168,0
13,2,710770,248599,1247855,73811,8818,623506,0
13,2,718646,251284,1421531,75042,8999,710080,0
13,2,718749,251715,1388491,75031,10037,693479,0
13,2,716844,249378,1504115,73971,9810,751606,0
13,2,722107,251420,1421179,74958,9451,709791,0
13,2,709096,249407,1437312,74075,11110,718196,0
13,2,713434,250102,1421172,74297,9495,710057,0
13,2,709934,249373,1369413,74176,8672,684193,0
13,2,708572,249990,1477837,74296,9824,738308,0
13,2,712398,249207,1411859,74149,9083,705225,0
13,2,712455,249777,1491423,74208,9607,745266,0
13,2,711347,249683,1429829,74483,9336,714171,0
13,2,708737,248035,1403866,73646,9390,701494,0
13,2,709296,248396,1476920,73664,9238,738001,0
13,2,712622,250086,1375691,74150,8933,687450,0
13,2,711921,248662,1329260,73609,9101,664163,0
13,2,712681,248514,1434448,73649,9784,716740,0
13,2,714351,248068,1435584,73572,8761,717288,0
13,2,706472,248420,1264026,73748,8619,631576,0
13,2,709218,248990,1441468,73926,9404,720101,0
13,2,710110,248662,1320867,73772,8961,660015,0
13,2,716899,250241,1466932,74585,9905,732732,0
13,2,711716,248501,1487859,73765,9658,743455,0
13,2,710178,247995,1574608,73598,10669,786807,0
13,2,709997,249117,1341307,74171,8452,670082,0
13,2,707837,247770,1280482,73486,8323,639770,0
13,2,714287,248865,1344486,73845,9243,671813,0
13,2,710518,248828,1353985,73879,8447,676531,0
13,2,712073,248685,1273963,73759,8288,636340,0
13,2,718222,249770,1337906,74301,8900,668235,0
13,2,723335,253122,1513406,76569,9634,756211,0
13,2,705120,248420,1311604,73305,8873,655238,0
13,2,709256,249577,1324997,73941,8162,661787,0
13,2,705901,248294,1378302,73291,8922,688733,0
13,2,705343,247762,1365609,73154,8033,682384,0
13,2,709231,248634,1310620,73475,8354,654847,0
13,2,710706,248297,1489524,74183,10404,744230,0
13,2,709138,249097,1398490,74459,9819,698979,0
13,2,707532,247934,1373674,74047,9026,686460,0
13,2,709041,249155,1420778,74558,9189,709683,0
13,2,711472,248428,1416798,74199,8890,707906,0
13,2,708510,248574,1468336,74304,9170,733902,0
13,2,709417,248210,1395643,74223,8753,697343,0
13,2,711300,247813,1387876,73958,8591,693474,0
13,2,711006,248836,1390351,74347,9369,694639,0
13,2,706537,248237,1332747,74109,8234,665980,0
13,2,709451,248345,1312978,74042,9291,656046,0
13,2,709675,247819,1267555,73829,8301,633347,0
13,2,711015,248490,1517095,74270,9568,758120,0
13,2,734182,252965,1482087,77356,10032,740613,0
13,2,712204,248725,1375821,74336,9079,687402,0
13,2,708459,248024,1333650,74043,9630,666393,0
13,2,712966,248300,1391959,74043,9066,695506,0
13,2,711846,248548,1392747,74098,8652,695955,0
13,2,709953,248130,1326833,73961,9203,662943,0
13,2,718445,249875,1474920,74772,10418,736997,0
13,2,712132,249697,1530370,74689,10172,764568,0
13,2,714317,249387,1435216,74629,9213,717098,0
13,2,716545,251368,1487892,75460,10189,743004,0
13,2,712691,250002,1452431,74773,9811,725805,0
13,2,714987,249807,1316531,74646,8909,657845,0
13,2,713518,249225,1315566,74463,8817,657409,0
13,2,718215,249929,1479636,74552,10757,739342,0
13,2,715581,250984,1265367,75002,8823,632043,0
13,2,712866,249943,1459772,74598,8593,729450,0
13,2,714233,249777,1289398,74594,8578,644283,0
13,2,713466,250045,1461110,74650,8951,730521,0
13,2,718239,251062,1419107,75275,9180,708822,0
13,2,715303,249305,1492397,74438,8988,745672,0
13,2,714319,249837,1383513,74524,10211,691334,0
13,2,714901,249725,1497784,74428,9498,748470,0
13,2,735143,254502,1545345,77990,9777,772141,0
13,2,710534,248945,1322553,74358,8879,660640,0
13,2,735293,253629,1502949,77591,10103,750848,0
13,2,712980,248332,1307294,74070,8680,653245,0
13,2,712092,248639,1569197,74095,11020,783465,0
13,2,716367,249172,1373148,74308,9203,686098,0
13,2,711289,247701,1333595,74041,8883,666352,0
13,2,708293,247512,1293737,74036,7903,646425,0
13,2,714651,248265,1359710,74331,8740,679442,0
13,2,710558,247546,1414498,73994,9088,706759,0
13,2,704839,248037,1281365,74265,8109,640254,0
13,2,709914,249722,1506986,75085,9516,752615,0
13,2,728960,252641,1526598,77537,10147,762818,0
13,2,709335,248409,1337566,74243,9254,667987,0
14,2,780001,271135,1454009,82020,10246,726476,0
14,2,760876,266147,1394728,78608,9149,696904,0
14,2,731291,253187,1351504,77164,10521,675186,0
14,2,730037,253419,1577612,77170,10568,788473,0
14,2,708134,247847,1301421,73719,9220,650203,0
14,2,708832,247472,1485745,73478,9222,742618,0
14,2,725755,252863,1376846,77132,9267,687956,0
14,2,708425,248442,1367670,73919,8430,683276,0
14,2,726003,252839,1411296,77097,9467,705029,0
14,2,711331,248790,1405490,73921,8526,702202,0
14,2,711597,249611,1254939,74290,8880,626800,0
14,2,715457,249785,1390471,74275,8961,694752,0
14,2,731793,252976,1430305,76987,8805,714673,0
14,2,715090,250915,1444462,74852,11125,721431,0
14,2,710170,247832,1367391,73735,8945,683271,0
14,2,730581,253207,1373893,77355,9624,686273,0
14,2,715210,249966,1257805,74496,8636,628307,0
14,2,708672,248701,1381629,74113,8522,690287,0
14,2,710685,248508,1505539,73952,10742,752226,0
14,2,712800,248357,1370209,73860,9430,684734,0
14,2,705509,248681,1421091,74060,9894,709809,0
14,2,708885,249731,1400278,74614,8896,699450,0
14,2,708115,249250,1496214,74245,9061,747688,0
14,2,705148,248402,1390214,73860,8531,694698,0
14,2,707658,248964,1635592,74058,10213,817296,0
14,2,708891,248336,1285399,73807,8650,642239,0
14,2,706458,248708,1336791,73958,8624,667906,0
14,2,710276,250042,1475937,74400,9360,737519,0
14,2,709262,248867,1298371,74056,8748,648640,0
14,2,705443,248569,1471688,73872,9918,735369,0
14,2,711566,250362,1485858,74816,9864,741142,0
14,2,711469,248697,1300347,73965,8864,649708,0
14,2,704999,248801,1251801,73938,8439,625425,0
14,2,705587,248149,1401089,73759,8474,700132,0
14,2,708347,248778,1308698,73996,8000,653858,0
14,2,708413,249669,1383425,74083,8776,691261,0
14,2,711075,249645,1559822,74261,9152,779426,0
14,2,714711,250374,1564913,74585,9187,781907,0
14,2,711648,251046,1542844,74920,9867,770557,0
14,2,709043,248790,1327603,73926,8004,663389,0
14,2,711114,249386,1308563,74014,8630,653848,0
14,2,715055,249290,1318338,74205,8594,658690,0
14,2,734676,254080,1317123,77350,9888,658023,0
14,2,737830,254625,1462137,77464,9925,730486,0
14,2,719426,250656,1335406,74365,8870,667069,0
14,2,713758,251873,1364207,75288,10277,681228,0
14,2,714282,250669,1400562,74759,9121,699646,0
14,2,712104,249352,1331703,74097,8612,665399,0
14,2,713525,249252,1538845,73989,9954,769010,0
14,2,715893,250432,1527097,74820,10314,762740,0
14,2,714028,249803,1628580,74459,10536,813625,0
14,2,713387,250133,1399224,74679,9716,698813,0
14,2,711653,248556,1316646,73866,8788,657896,0
14,2,713344,250116,1430501,74491,9429,714719,0
14,2,732241,253769,1458079,77114,9832,728545,0
14,2,733418,253805,1332721,77137,9950,665841,0
14,2,713554,249008,1316325,73933,8779,657572,0
14,2,713112,248760,1313965,73847,8945,656434,0
14,2,710480,250066,1359245,74532,9264,678884,0
14,2,707599,248430,1325503,73677,8548,662379,0
14,2,712844,248724,1326543,73829,8977,662831,0
14,2,734064,253700,1474924,77215,10396,736930,0
14,2,713637,249801,1434746,74375,9067,716727,0
14,2,714529,248639,1560330,73832,11344,779692,0
14,2,717109,251037,1592247,74891,10711,794556,0
14,2,708668,248102,1342501,73586,8681,670725,0
14,2,711651,247897,1403174,73544,9399,701135,0
14,2,709904,248439,1393619,73702,8539,696328,0
14,2,713580,248565,1482040,73644,10235,740539,0
14,2,713002,247745,1403802,73416,8610,701432,0
14,2,704342,248726,1352318,73340,8442,675702,0
14,2,703857,248061,1313244,73122,8713,656215,0
14,2,703353,247481,1404399,72997,8768,701742,0
14,2,702284,246848,1281540,72913,8428,640343,0
14,2,706500,248546,1385958,73479,8719,692512,0
14,2,711256,250432,1322509,74358,8691,660471,0
14,2,716135,250773,1316315,75336,9381,657287,0
14,2,708644,249382,1258801,74766,8702,628795,0
14,2,714569,251196,1531131,75519,10715,764046,0
14,2,708688,248215,1498652,74126,10186,748840,0
14,2,708239,248040,1335645,74070,8194,667384,0
14,2,711875,249260,1400850,74731,9210,699788,0
14,2,707579,248046,1340036,74066,8830,669624,0
14,2,711717,248318,1491004,74119,8733,744975,0
14,2,709070,248520,1399088,74225,9353,699106,0
14,2,707608,248434,1418008,74271,9244,708548,0
14,2,709770,248859,1263591,74286,9150,631332,0
14,2,728055,252489,1466483,77362,9689,732821,0
14,2,714090,249660,1417972,74833,9635,708818,0
14,2,712380,248429,1350105,74068,8548,674637,0
14,2,712478,248714,1480788,74291,8770,739977,0
14,2,709278,247694,1419748,73856,9242,709293,0
14,2,712980,248694,1423489,74187,8599,711266,0
14,2,712172,249026,1299050,74406,9051,648804,0
14,2,709903,248568,1337532,74083,9120,668264,0
14,2,716167,249002,1488189,74457,10200,743656,0
14,2,708544,248415,1525494,74210,10119,762241,0
14,2,716432,250449,1476175,75228,9201,737149,0
14,2,731198,253771,1534874,77713,12000,767055,0
14,2,707366,248420,1421445,74140,9168,710267,0
14,2,717793,250972,1270866,75270,8893,634667,0
14,2,717228,251505,1330304,75513,8730,664364,0
14,2,718135,250029,1411692,74523,10398,705389,0
14,2,713286,250052,1313214,74607,9010,655850,0
14,2,713135,250328,1392993,75015,8481,695800,0
14,2,713395,249159,1385528,74402,9979,692270,0
14,2,709290,249030,1519572,74382,9670,759113,0
14,2,715403,249233,1483808,74387,9220,741487,0
14,2,715131,249112,1458664,74329,9118,728833,0
14,2,710366,248787,1423645,74245,9793,711235,0
14,2,715593,249976,1460950,74670,9910,729980,0
14,2,712871,249069,1466225,74460,9518,731226,0
14,2,711710,249211,1364566,74429,8910,681772,0
14,2,717507,249772,1333347,74537,8797,666130,0
14,2,711866,248643,1408376,74157,8961,703561,0
14,2,711986,248805,1563850,74119,10353,780925,0
14,2,717492,249712,1345861,74714,8369,672261,0
14,2,712045,248132,1332898,74228,8880,665928,0
14,2,712734,248571,1463351,74719,8777,731174,0
14,2,715925,249186,1377489,74818,9008,688071,0
14,2,711644,248322,1321631,74350,9271,660321,0
14,2,705875,248766,1370503,74477,8928,684762,0
14,2,708280,248033,1328526,74248,8624,663844,0
14,2,706970,248052,1298658,74202,8271,648836,0
14,2,706605,247802,1342859,74030,8701,670961,0
15,2,761714,267663,1457111,79364,9380,727882,0
15,2,761135,266668,1587365,78802,9347,793221,0
15,2,708311,247954,1415308,73581,9296,707216,0
15,2,707457,248500,1336863,73741,9421,667931,0
15,2,707313,247783,1398459,73654,9333,698775,0
15,2,715492,250158,1576506,74604,10247,787576,0
15,2,704304,248479,1297785,73855,8447,648266,0
15,2,708406,248963,1405729,74294,8862,702123,0
15,2,706192,247563,1413840,73547,9485,706027,0
15,2,708530,248148,1350096,73609,8466,674571,0
15,2,712469,249605,1341938,74491,9210,670121,0
15,2,709048,247888,1344730,73509,9335,671789,0
15,2,714796,250017,1301424,74270,8228,650185,0
15,2,705819,248291,1287804,73768,9303,643447,0
15,2,711844,249017,1330919,74171,8604,664915,0
15,2,705163,247341,1390270,73677,8477,694617,0
15,2,716060,249968,1406294,74710,8762,702233,0
15,2,715054,249703,1624803,74601,10008,811447,0
15,2,714572,250320,1662188,74859,11149,829967,0
15,2,717909,250275,1491866,74869,10230,745149,0
15,2,729159,252854,1522541,77203,11511,760620,0
15,2,706457,248271,1328613,73908,8882,663816,0
15,2,706845,248359,1421589,73845,9651,710230,0
15,2,710279,250860,1445049,74959,8999,721767,0
15,2,726683,253332,1577436,77263,11894,788273,0
15,2,709348,248572,1424264,73923,9215,711682,0
15,2,705306,248716,1415882,73920,8200,707489,0
15,2,707082,248180,1386101,73773,8980,692618,0
15,2,710460,249421,1304388,74201,8189,651805,0
15,2,709331,248797,1484690,73941,9654,741795,0
15,2,712444,249703,1419839,74310,9170,709487,0
15,2,709897,248505,1353103,73820,9258,676178,0
15,2,704088,249275,1246863,74164,7768,623008,0
15,2,705395,248746,1296084,74015,7888,647564,0
15,2,707384,248657,1277537,73906,8110,638320,0
15,2,710033,249474,1344072,74078,8483,671589,0
15,2,707947,248133,1379862,73680,8785,689472,0
15,2,710914,249182,1469266,73988,8984,734125,0
15,2,726388,253539,1402523,77237,9315,700719,0
15,2,707637,248583,1385658,73766,7837,692459,0
15,2,710932,249658,1393977,74128,8869,696533,0
15,2,714559,249604,1366938,74329,8608,683059,0
15,2,714128,249947,1301314,74179,9380,650149,0
15,2,719130,250743,1551416,74652,9725,775143,0
15,2,717571,250414,1331244,74349,9199,665131,0
15,2,731814,254061,1384867,77416,10075,691899,0
15,2,736956,258399,1349037,76813,8734,674062,0
15,2,730670,253843,1356175,77367,9818,677623,0
15,2,712210,248661,1397481,73868,9993,698252,0
15,2,708577,248013,1372734,73705,8814,685889,0
15,2,717460,250777,1501605,74809,10270,749971,0
15,2,708692,249232,1337384,74126,8895,668202,0
15,2,711452,248806,1418479,73864,9073,708895,0
15,2,715923,249470,1392550,74064,10320,695587,0
15,2,710071,249048,1551709,73824,9373,775323,0
15,2,739778,258004,1283016,76307,9549,641116,0
15,2,710854,248437,1447513,73650,9478,723348,0
15,2,711689,248119,1416732,73587,9569,707890,0
15,2,709135,248038,1497312,73575,9092,748288,0
15,2,711593,248565,1332232,73778,9275,665635,0
15,2,716491,250742,1377234,74781,8741,687801,0
15,2,712704,249257,1447346,74003,9335,723220,0
15,2,709764,248572,1365249,73798,8698,682032,0
15,2,710643,248211,1387638,73621,9234,693377,0
15,2,708563,248148,1292266,73617,8118,645725,0
15,2,708236,248135,1321881,73686,8316,660548,0
15,2,716228,249810,1362470,74398,8356,680610,0
15,2,710253,247578,1283789,73447,8396,641410,0
15,2,732089,253291,1352311,77064,8815,675492,0
15,2,712052,248065,1317614,73560,8245,658310,0
15,2,700965,247808,1281940,73022,7608,640510,0
15,2,706821,249476,1231887,73619,8604,615515,0
15,2,706940,249068,1318533,73600,9026,658781,0
15,2,732262,254026,1449568,77441,10131,724194,0
15,2,709071,249633,1326901,73994,8650,662867,0
15,2,708841,248729,1410397,73502,8972,704736,0
15,2,729834,252534,1463172,77386,10444,731067,0
15,2,706739,247807,1290361,73952,9196,644799,0
15,2,705767,247595,1304629,73919,8060,651896,0
15,2,707606,248094,1303346,74069,8997,651248,0
15,2,708410,248429,1535229,74119,9425,767181,0
15,2,705639,247838,1392844,74010,9091,695971,0
15,2,711213,247660,1258003,73946,8734,628552,0
15,2,710039,247861,1457002,73972,8530,728073,0
15,2,729629,253005,1440366,77555,10329,719800,0
15,2,709312,249373,1331833,74746,9345,665234,0
15,2,708626,248388,1306664,74053,8233,652875,0
15,2,708786,248124,1299622,74112,8642,649358,0
15,2,708334,247904,1437499,74007,9983,718304,0
15,2,712873,249291,1312960,74529,8164,655775,0
15,2,709003,248223,1319054,74174,8124,659085,0
15,2,709513,248339,1361050,74168,9490,679865,0
15,2,708927,247267,1356820,73617,8382,677954,0
15,2,709066,248153,1302539,73994,8675,650839,0
15,2,712532,248887,1266052,74161,8630,632644,0
15,2,736185,253600,1501791,77790,11332,750344,0
15,2,711991,249302,1424607,74524,10267,711733,0
15,2,711721,249007,1608100,74565,9893,803593,0
15,2,715749,250012,1325374,74763,9527,661945,0
15,2,716379,251115,1375152,75398,9613,686855,0
15,2,714019,249293,1512317,74500,9703,755671,0
15,2,714296,250054,1347835,74763,9370,673420,0
15,2,717746,250398,1388292,74737,9640,693523,0
15,2,713782,249069,1296465,74216,8711,647874,0
15,2,728808,253034,1486155,77408,10224,742524,0
15,2,714067,249077,1304026,74330,9027,651525,0
15,2,712931,248468,1679791,74140,11849,839273,0
15,2,715590,249185,1613683,74404,10536,806338,0
15,2,734664,253882,1490363,77730,9924,744578,0
15,2,710501,249189,1491752,74317,9776,745344,0
15,2,714962,249651,1569380,74592,9709,784242,0
15,2,715452,248874,1454771,74332,9146,726970,0
15,2,712962,250119,1324294,74993,8839,661857,0
15,2,715748,249660,1392110,74504,8609,695594,0
15,2,737549,253767,1484511,77643,9981,741578,0
15,2,712183,249112,1608580,74299,10386,803565,0
15,2,716211,249397,1429157,74431,8848,714069,0
15,2,710154,247983,1270804,74006,8971,635078,0
15,2,710572,248450,1300040,74379,8425,649562,0
15,2,712861,248571,1421099,74441,8933,710027,0
15,2,714805,247939,1346328,74207,9584,672717,0
15,2,701976,247371,1227378,73938,7834,613272,0
15,2,706942,247960,1301133,74185,8928,650148,0
15,2,705422,247492,1415267,74016,8891,707210,0
15,2,715787,250436,1494480,75182,9244,746317,0
