0,0,50,673526.420000,232855.500000,1331166.040000,69777.640000,8429.420000,664958.480000,15030.073328,4892.057969,71263.830054,1612.052490,587.167952,35539.702035
0,1,72,715059.388889,249669.916667,1413236.875000,74553.555556,9392.777778,706033.638889,13211.799155,4030.310154,93806.105893,1516.088405,858.352738,46845.117631
1,0,49,672057.204082,232230.244898,1321762.612245,69761.795918,8421.163265,660301.489796,10672.795001,3084.540753,72639.943521,1325.929908,656.279848,36296.309943
1,1,71,712542.000000,249095.661972,1396721.690141,74283.563380,9136.887324,697775.070423,10937.118890,3312.404348,72462.919870,1240.009777,679.835845,36223.874211
2,0,49,671519.448980,231965.673469,1330598.326531,69599.224490,8513.346939,664746.836735,9734.550705,2866.834821,83894.753387,1178.394381,686.426581,41936.077301
2,1,71,713615.000000,249296.929577,1410472.887324,74494.535211,9284.070423,704639.718310,10534.448864,2733.377781,91674.540416,1306.980811,746.289551,45810.465508
3,0,49,671160.489796,232021.204082,1331410.530612,69557.428571,8448.632653,665075.040816,9611.518475,3030.183190,76391.444437,1108.583358,617.544337,38076.262585
3,1,71,712386.169014,248823.211268,1400338.647887,74209.225352,9282.450704,699595.535211,8668.460987,2551.671846,93476.851644,1076.706575,846.471646,46705.194312
4,0,49,671085.142857,231967.653061,1343058.163265,69553.530612,8371.673469,670969.163265,10304.799609,3304.687108,83736.478271,1261.853093,812.681763,41856.013419
4,1,72,712280.680556,248950.347222,1390811.291667,74243.986111,9243.277778,694797.305556,9215.778559,2772.498633,69844.152410,1124.570801,628.203838,34887.846742
5,0,49,671609.816327,232187.142857,1325262.020408,69673.326531,8395.163265,662012.061224,13016.413170,3916.945598,63582.798407,1560.402400,702.668916,31733.450643
5,1,72,713926.041667,249266.000000,1399013.319444,74468.319444,9273.972222,698922.763889,9515.623734,2990.935375,78152.196433,1319.460483,754.249811,39063.021506
6,0,49,671992.755102,232297.653061,1326622.183673,69631.061224,8360.183673,662716.653061,11587.560715,3749.972591,88650.317992,1270.429180,663.379310,44263.385060
6,1,72,712787.111111,249022.930556,1396349.236111,74298.000000,9255.069444,697570.833333,9451.323266,2755.115940,74435.345560,1150.858786,695.555859,37184.176705
7,0,49,671377.020408,232198.387755,1329039.142857,69595.040816,8377.387755,663887.448980,11818.880728,3946.059010,94795.673519,1317.555962,771.049955,47295.660345
7,1,72,713054.972222,249149.333333,1392355.625000,74354.833333,9206.708333,695545.375000,10191.339818,2850.219485,61833.585444,1248.000512,634.749632,30834.449539
8,0,49,671120.897959,232169.244898,1326750.816327,69545.102041,8299.448980,662766.306122,10890.271752,3506.120314,60346.496597,1102.905388,645.171360,30120.646336
8,1,72,712405.152778,248889.722222,1380627.041667,74245.152778,9127.597222,689750.319444,9274.145336,2549.378972,63897.996771,1117.469608,701.056359,31916.979235
9,0,49,672011.673469,232209.591837,1337663.693878,69656.224490,8596.693878,668242.632653,12200.167479,3816.342468,84074.722393,1347.702811,678.803636,42042.335155
9,1,72,713300.000000,249153.152778,1404549.972222,74364.694444,9321.375000,701686.375000,10937.104120,3061.526402,122652.441394,1359.903547,986.717333,61286.795042
10,0,49,672356.163265,232349.959184,1339014.510204,69710.551020,8519.571429,668892.183673,12423.103367,3790.221828,72610.382301,1358.661046,670.942103,36216.803053
10,1,72,712776.263889,249140.083333,1381193.347222,74329.513889,9179.583333,689958.805556,9941.550776,2902.828677,74424.752945,1215.335287,704.109638,37145.729544
11,0,49,672638.591837,232343.387755,1361749.918367,69738.836735,8518.653061,680274.306122,11882.401228,3711.374578,94330.283229,1368.336758,687.031668,47142.582775
11,1,72,712447.972222,248928.319444,1383183.305556,74261.527778,9078.916667,691027.361111,8600.272444,2512.079074,83286.609577,1126.152089,606.668126,41605.094617
12,0,49,672941.551020,232387.714286,1330272.775510,69823.367347,8520.448980,664529.448980,15016.238080,4481.216722,84714.871689,1739.185015,830.543173,42315.098445
12,1,72,712929.902778,249022.013889,1398190.291667,74314.597222,9177.472222,698577.527778,10031.317188,2994.202099,85518.734909,1247.539374,678.446448,42751.700254
13,0,50,671638.760000,232177.180000,1306377.100000,69579.800000,8342.460000,652613.500000,11557.814180,3676.555087,61810.772192,1213.750205,641.501246,30854.860564
13,1,72,713465.333333,249289.625000,1409946.375000,74367.430556,9223.611111,704389.375000,11777.838760,3449.814796,94724.974840,1359.941480,754.106490,47341.946626
14,0,50,672768.960000,232456.200000,1324433.180000,69715.060000,8405.760000,661639.860000,11481.157644,3685.669074,65482.046563,1289.649323,596.736544,32689.593120
14,1,72,714546.000000,249531.250000,1401473.902778,74572.694444,9310.875000,700151.666667,12390.426573,3661.610767,85124.970765,1528.024729,665.347819,42531.593082
15,0,83,671433.819277,232293.590361,1324449.542169,69655.180723,8332.445783,661677.301205,10577.301974,3322.280586,86055.828778,1195.916437,718.224874,42998.404217
15,1,134,712526.925373,249266.529851,1395773.223881,74359.977612,9236.201493,697284.649254,12019.695657,3433.505894,85274.048175,1414.458925,746.877448,42641.411042
