0,3,783477,270544,1429522,81837,10654,714109,0
0,-1,690338,236449,1232260,70528,8017,615486,2
0,-1,700699,239507,1316410,71722,9174,656975,0
0,-1,645606,221528,1316267,66948,8312,657486,0
0,-1,662633,223861,1297099,69366,8937,647942,0
0,-1,642221,220632,1352055,66537,8140,675414,0
0,3,711863,248882,1506405,73951,9654,752746,0
0,-1,635507,219167,1339279,65942,8005,669169,0
0,-1,648158,220474,1340844,66166,8198,669945,0
0,-1,644361,220721,1296886,66676,8276,647795,0
0,-1,638306,218386,1475963,65439,9061,737643,0
0,3,709611,249287,1518532,74644,9816,758719,0
0,-1,634986,219367,1145165,65300,7327,572202,0
0,-1,641002,219126,1216545,66235,8800,607837,0
0,-1,646523,220675,1318245,66957,7659,658500,0
0,3,716794,249822,1361714,74711,8897,680235,0
0,-1,640215,219560,1368044,66300,8048,683697,0
1,-1,690229,237852,1375379,70948,7872,687220,2
1,-1,659516,223541,1327451,69085,9609,663385,0
1,-1,642489,219556,1329880,66120,8225,664111,0
1,-1,641722,220839,1271367,66654,8068,634946,0
1,3,708742,248764,1402975,73874,8442,701161,0
1,-1,641648,219258,1236623,65893,7214,617919,0
1,-1,648424,220764,1589714,66189,10241,794863,0
1,-1,662256,224037,1283156,69258,8423,641202,0
1,-1,661969,223193,1329723,68785,8617,664490,0
1,3,708074,248903,1481850,74365,9735,740582,0
1,-1,634745,219168,1575115,65191,8744,787159,0
1,-1,659310,223212,1258318,69374,9001,628780,0
1,-1,645394,219824,1317426,66386,7585,658332,0
1,3,716234,249299,1269617,74379,8865,634448,0
1,-1,639271,219386,1246425,66319,9038,622805,0
2,-1,691444,237106,1274798,70748,7305,636857,2
2,-1,638052,219005,1199792,65811,6586,599416,0
2,-1,640607,219231,1302811,65957,8277,651042,0
2,-1,640021,221367,1322160,66814,8137,660507,0
2,3,707952,248556,1408455,73778,8150,703904,0
2,-1,641221,219186,1381650,65883,7825,690452,0
2,-1,644231,220177,1285361,65985,8215,642233,0
2,-1,638983,219042,1331770,65764,7677,665483,0
2,-1,640348,218673,1260746,65514,7279,630025,0
2,3,709729,249911,1362189,74952,9666,680213,0
2,-1,635861,219302,1313031,65277,7161,656114,0
2,-1,640411,218857,1232187,66147,7621,615694,0
2,-1,643242,220189,1249953,66697,7783,623787,0
2,3,741449,254782,1416273,77982,10628,707788,0
2,-1,643113,219451,1272109,66299,8936,635746,0
3,-1,636051,218831,1305583,65775,7294,652155,2
3,-1,636099,218408,1281287,65639,7516,640357,0
3,-1,643361,219488,1245814,66114,8464,622328,0
3,-1,640307,219938,1184262,66168,7314,591791,0
3,3,707831,248619,1294755,73945,8285,646873,0
3,-1,638832,218629,1234329,65710,7023,616780,0
3,-1,647524,220884,1360191,66213,8526,679529,0
3,-1,639859,219603,1330514,65965,7539,664870,0
3,-1,641657,219149,1251257,65733,7885,625317,0
3,3,710980,247833,1449770,74006,11172,724550,0
3,-1,631820,218290,1286104,64939,7469,642740,0
3,-1,638034,218381,1147372,65941,7362,573229,0
3,-1,637702,218240,1247072,65846,6903,623205,0
3,3,718960,250853,1384154,75275,9195,691484,0
3,-1,665535,224354,1314744,69752,9388,656924,0
3,-1,643604,220267,1556689,66524,9343,778085,0
4,-1,639507,219396,1350938,65820,8258,674782,2
4,-1,636457,218064,1293059,65417,7557,645995,0
4,-1,639072,218091,1325649,65709,8708,662331,0
4,-1,638597,219159,1515722,65781,8895,757662,0
4,3,712584,249645,1368403,74270,8699,683773,0
4,-1,641238,219538,1347105,66060,7730,673206,0
4,-1,647304,221002,1308081,66316,8470,653425,0
4,-1,641180,220144,1308032,66356,7529,653437,0
4,-1,640252,218775,1268179,65570,7378,633675,0
4,3,710169,248972,1477739,74294,11086,738331,0
4,-1,638807,221395,1206241,66210,7480,602453,0
4,-1,637288,218704,1295026,66053,8208,647075,0
4,-1,641127,218592,1328569,65967,8357,663847,0
4,3,719013,251191,1363083,75456,9450,680952,0
4,-1,642417,219711,1268972,66498,8025,634044,0
4,-1,642576,220225,1332917,66482,8353,666377,0
5,-1,633255,218972,1151317,65841,7199,575018,2
5,-1,660620,223431,1286677,69061,8208,642987,0
5,-1,643439,220522,1409853,66711,8863,703832,0
5,-1,637184,218974,1410027,65794,7957,703776,0
5,3,711952,251108,1598606,75066,10266,798528,0
5,-1,642624,220543,1403917,66582,8379,701084,0
5,-1,649588,221959,1351821,66819,8422,675287,0
5,-1,644584,219773,1233004,66020,8045,616167,0
5,-1,638873,218663,1419472,65514,8061,709229,0
5,3,706125,247842,1477287,73096,9330,738300,0
5,-1,654725,223873,1369585,68593,8580,684308,0
5,-1,636588,218727,1303136,66051,8183,651047,0
5,-1,648353,221216,1234443,67134,7916,616591,0
5,3,715482,250295,1363009,75004,9589,681000,0
5,-1,640960,219534,1333426,66403,8040,666522,0
5,-1,645114,219791,1376055,66306,7522,687664,0
6,-1,635070,219717,1224512,66080,7341,611935,2
6,-1,637852,218568,1211159,65702,7328,605164,0
6,-1,643982,220838,1333092,66755,8601,665831,0
6,-1,671845,231666,1480405,70053,8854,739553,0
6,3,712823,249118,1336931,74072,9080,668062,0
6,-1,640359,219353,1346983,65898,8072,673105,0
6,-1,647293,220698,1374126,66166,8889,686650,0
6,-1,639647,218867,1157474,65690,7650,578415,0
6,-1,641604,219068,1309742,65702,8015,654532,0
6,3,727396,252858,1596176,76632,10009,797717,0
6,-1,639998,220935,1334923,66005,6826,666981,0
6,-1,640216,219010,1206667,66181,7721,602912,0
6,-1,665131,223857,1372975,69437,9132,686215,0
6,3,718388,249251,1448430,74493,9495,723849,0
6,-1,643358,219785,1322809,66473,8251,661174,0
6,-1,645417,219747,1385806,66340,8372,692538,0
7,-1,636245,218895,1350126,65796,7359,674703,2
7,-1,638930,218848,1279127,65786,7800,639265,0
7,-1,638355,218859,1283886,65949,8262,641556,0
7,-1,660183,224543,1389138,69449,8803,693893,0
7,3,710379,249130,1336980,74185,8473,668049,0
7,-1,639892,218980,1356113,65823,7157,677653,0
7,-1,664958,224887,1199702,69363,9031,599414,0
7,-1,638540,218800,1220149,65746,7513,609563,0
7,3,707665,247762,1425007,73004,9134,712140,0
7,-1,640805,219522,1280910,65853,7344,640026,0
7,-1,641657,221924,1189670,66401,6902,594311,0
7,-1,640124,219022,1320402,66136,8266,659853,0
7,-1,642484,219201,1217643,66105,7690,608492,0
7,3,717152,249066,1496831,74427,9593,748048,0
7,-1,645710,220850,1417646,67067,8206,708129,0
7,-1,649099,221439,1275232,67053,7851,637091,0
8,-1,637099,218639,1192771,65643,6719,595712,0
8,-1,634942,218383,1330594,65595,7774,664889,2
8,-1,646010,219670,1325831,66112,7887,662517,0
8,-1,640099,220802,1382286,66618,8473,689769,0
8,3,717608,250160,1444899,74635,9761,721841,0
8,-1,662130,224441,1355397,69438,8374,677341,0
8,-1,646925,220349,1314120,66116,7075,656613,0
8,-1,643990,220727,1337408,66628,8238,668169,0
8,3,707310,248849,1561625,73374,10120,780359,0
8,-1,639284,218810,1214563,65583,7691,606940,0
8,-1,655754,224042,1353195,68636,7934,676246,0
8,-1,658924,223123,1362936,69348,8662,681104,0
8,-1,643863,219728,1182529,66224,6764,590994,0
8,3,713498,249088,1421739,74458,9347,710448,0
8,-1,642211,219673,1304692,66536,8220,651880,0
8,-1,644836,219333,1245259,66117,7194,622256,0
9,-1,636297,218370,1297913,65573,6764,648638,0
9,-1,639992,220948,1464916,66737,8956,731823,2
9,-1,643769,218973,1241367,65918,7032,619762,0
9,-1,636350,219218,1360321,65948,7787,679879,0
9,3,712577,249901,1461776,74587,9488,730285,0
9,-1,644164,221360,1312320,66816,7490,655551,0
9,-1,646415,220523,1367822,66343,8087,683283,0
9,-1,660859,223996,1418978,69177,8612,709008,0
9,3,704865,248213,1259134,73132,8709,629153,0
9,-1,642725,219076,1242771,65736,8137,621000,0
9,-1,634375,219234,1259400,65280,6890,629277,0
9,-1,637473,218683,1273818,66094,8177,636599,0
9,-1,641470,219164,1215952,66102,8059,607587,0
9,3,719392,250900,1366960,75318,9465,681793,0
9,-1,646977,221873,1141856,67464,8294,570314,0
9,-1,644635,220255,1295964,66460,7635,647674,0
10,-1,644502,222055,1453533,67100,7696,726230,0
10,-1,647214,221773,1375895,66956,8166,687203,2
10,-1,642215,219187,1290296,66048,8080,644559,0
10,-1,656128,223535,1330154,69115,8432,664806,0
10,3,713680,248911,1384415,74040,9486,691708,0
10,-1,644912,221001,1320740,66760,8141,659641,0
10,-1,646664,220429,1280373,66140,7733,639816,0
10,-1,639632,219099,1453029,65830,8749,726116,0
10,3,705926,248483,1437147,73158,8866,718252,0
10,-1,641377,218909,1701779,65620,9902,850490,0
10,-1,634171,219713,1248114,65471,7624,623654,0
10,-1,636787,218583,1214622,65968,7493,606959,0
10,-1,642168,219741,1179672,66412,7538,589286,0
10,3,734519,253295,1425774,77561,10811,713105,0
10,-1,642261,220025,1449286,66485,9132,724306,0
10,-1,665001,224542,1327189,69696,8423,663197,0
11,-1,655607,223182,1355979,68945,8379,677484,0
11,-1,637219,219590,1310401,65948,7503,654526,2
11,-1,641894,218896,1161828,65853,7765,580365,0
11,-1,636969,219788,1210429,66134,7583,604877,0
11,3,714659,250830,1488718,75028,9555,743487,0
11,-1,661459,223772,1288228,69207,8229,643577,0
11,-1,646145,220518,1403694,66111,8589,701549,0
11,-1,643381,220336,1308187,66418,8297,653654,0
11,3,702560,247808,1506182,73029,8699,752776,0
11,-1,664441,223930,1319071,69097,8657,659214,0
11,-1,637723,220592,1217399,65868,6984,608136,0
11,-1,639428,219529,1302925,66382,8250,651087,0
11,-1,642912,219232,1240261,66100,7646,619715,0
11,3,714803,249546,1399029,74532,9507,699145,0
11,-1,642395,220037,1334565,66560,8740,667106,0
11,-1,642547,219942,1252025,66367,7408,625592,0
12,-1,638782,219475,1205219,65880,7173,602354,0
12,-1,639080,219685,1328453,66024,8153,663732,2
12,-1,645335,220410,1268056,66594,8219,633349,0
12,-1,633337,218459,1376275,65581,8839,687668,0
12,3,712032,250230,1388896,74805,9504,693748,0
12,-1,638408,219253,1155734,65969,7499,577320,0
12,-1,650238,222265,1412539,66990,8818,705567,0
12,-1,640306,219712,1199947,66017,7532,599566,0
12,3,702651,248075,1383663,73089,8867,691506,0
12,-1,641530,219305,1594346,65750,8959,796723,0
12,-1,654776,224150,1382085,68683,8123,690758,0
12,-1,642337,220437,1216514,66838,7216,607495,0
12,-1,644701,221052,1189121,66970,7397,593995,0
12,3,711846,248881,1388732,74347,9010,694027,0
12,-1,643996,221122,1307234,67029,9445,653054,0
12,-1,645181,219978,1327483,66332,7789,663450,0
13,-1,639734,219949,1313229,66215,7963,656052,0
13,-1,643646,221066,1410393,66778,8836,704336,2
13,-1,642229,219850,1230404,66231,7514,614603,0
13,-1,636682,220072,1417746,66134,8631,708554,0
13,3,729556,253631,1370075,77439,9517,684573,0
13,-1,640499,219596,1247196,66005,8562,623177,0
13,-1,665950,224763,1393634,69359,8772,696375,0
13,-1,638425,219116,1353416,65728,8321,676348,0
13,3,704622,248794,1403356,73300,9302,701290,0
13,-1,668317,229070,1342021,68875,7601,670453,0
13,-1,631207,218521,1198828,64993,6238,599249,0
13,-1,644151,219644,1310761,66398,7732,654970,0
13,-1,640643,218683,1230384,65950,7355,614723,0
13,3,710398,248845,1441938,74234,9563,720694,0
13,-1,639719,218698,1422598,66041,8943,710207,0
13,-1,646620,220700,1185472,66790,7179,592216,0
14,-1,637504,219237,1252675,65846,7209,626022,0
14,-1,639856,219447,1290595,66109,7528,644899,2
14,-1,662558,223280,1225416,69090,8752,612354,0
14,-1,643264,219330,1360256,65960,8607,679557,0
14,3,715662,250436,1581385,74788,11293,789927,0
14,-1,636304,218764,1427058,65727,10031,713012,0
14,-1,646229,220974,1546452,66388,8857,772738,0
14,-1,648449,221848,1330647,66858,8011,664855,0
14,3,703002,248545,1369561,73297,8457,684375,0
14,-1,642630,218905,1313385,65623,8419,656339,0
14,-1,638950,221534,1210231,66178,6556,604526,0
14,-1,643937,219966,1230535,66679,7504,614738,0
14,-1,642242,219194,1338344,66076,7459,668824,0
14,3,714895,249491,1442427,74464,9376,720832,0
14,-1,641079,219930,1370056,66572,8639,684659,0
14,-1,644662,220151,1148300,66418,7241,573746,0
15,-1,635978,218865,1245534,65650,6453,622430,0
15,-1,640324,219648,1308436,66183,7821,654078,2
15,-1,643182,219630,1249435,66158,8402,624377,0
15,-1,645837,220677,1346226,66584,9103,672483,0
15,3,708845,248804,1405152,74054,8773,702076,0
15,-1,643624,221533,1267893,67060,8105,633071,0
15,-1,642771,219753,1265690,65997,7117,632443,0
15,-1,639990,219482,1338539,65912,8047,668840,0
15,3,701301,247691,1300989,72928,8233,650181,0
15,-1,641209,219320,1289164,65729,7533,644414,0
15,-1,628437,218503,1224535,65009,6704,611934,0
15,-1,642851,219924,1248356,66718,7810,623351,0
15,-1,644072,220350,1261406,66654,7693,630184,0
15,3,717577,250203,1304847,74777,8871,652093,0
15,-1,641933,220729,1236675,67053,8099,617719,0
15,-1,643536,220111,1234205,66409,8270,616775,0
16,-1,637984,219098,1436177,65897,7519,717819,0
16,-1,641427,219344,1375852,66026,8414,687523,0
16,-1,643859,219619,1444015,66092,8393,721634,2
16,-1,641164,219509,1175853,66054,8238,587493,0
16,3,734497,258653,1459328,76990,9282,729102,0
16,-1,657972,223742,1213635,69221,7994,606370,0
16,-1,643301,220312,1420100,66207,7710,709320,0
16,-1,640943,219198,1369794,65799,7967,684551,0
16,3,715678,248766,1417520,73763,8273,708293,0
16,-1,643848,220371,1265250,66402,7983,632105,0
16,-1,643772,218947,1216330,65558,6289,607768,0
16,-1,638741,218715,1325297,66014,7863,662375,0
16,-1,639955,219142,1321220,66079,7878,660278,0
16,3,718031,250624,1520362,74857,9037,759808,0
16,-1,658233,223702,1368525,69556,9276,683965,0
16,-1,647740,221444,1243694,67049,7427,621211,0
17,-1,653023,222212,1283298,68737,8066,641210,0
17,-1,644999,220856,1390355,66734,8440,695161,0
17,-1,635532,219715,1190204,66190,7482,594746,2
17,-1,639593,219332,1262916,65936,8031,630976,0
17,3,731207,253521,1427704,77328,9722,713449,0
17,-1,640308,219313,1322102,65902,7592,660497,0
17,-1,650276,222645,1409850,67407,8601,704113,0
17,-1,668268,228904,1415460,68629,8468,707428,0
17,3,714149,248345,1526201,73627,9216,762651,0
17,-1,638946,218948,1313992,65685,7692,656585,0
17,-1,652863,221797,1481376,66801,8284,740211,0
17,-1,645106,219964,1330578,66517,7834,664807,0
17,-1,640830,219107,1344550,66063,7801,671920,0
17,3,736233,254960,1673342,78016,10485,836189,0
17,-1,637397,219614,1268149,66309,7234,633735,0
17,-1,642844,219706,1290536,66269,6951,644878,0
18,-1,642621,219663,1215095,66177,7809,607097,0
18,-1,641105,218807,1478560,65748,8761,738714,0
18,-1,636006,219292,1245777,66085,7653,622478,2
18,-1,643608,220320,1340454,66475,8118,669787,0
18,3,707219,248654,1428875,73993,8645,714013,0
18,-1,639148,219382,1716352,66018,9485,857503,0
18,-1,643578,220752,1223682,66484,6933,611335,0
18,-1,639070,219213,1328057,65759,7615,663714,0
18,3,715010,248604,1501903,73714,8885,750789,0
18,-1,641879,220023,1603260,66039,8968,800252,0
18,-1,666644,223603,1418470,68890,8075,708949,0
18,-1,662257,223868,1453954,69601,8640,726624,0
18,-1,644126,221026,1224955,66995,7056,611691,0
18,3,716365,250295,1400166,74891,9059,699573,0
18,-1,640263,218887,1322742,66071,8351,660977,0
18,-1,641223,219750,1299864,66320,7237,649609,0
19,-1,641164,219416,1193049,65973,7448,596220,0
19,-1,644989,221317,1459078,67014,8547,728959,0
19,-1,637341,219800,1196293,66145,7037,597918,2
19,-1,639591,219102,1243360,65846,7407,621365,0
19,3,707993,249457,1413698,74195,9239,706454,0
19,-1,639204,220013,1333835,66153,7720,666514,0
19,-1,641651,219890,1301165,66130,8054,650209,0
19,-1,662186,224166,1242075,69184,9106,620601,0
19,3,713503,248375,1427028,73586,8616,713155,0
19,-1,641307,220219,1211537,66093,7554,605398,0
19,-1,643741,219021,1375392,65564,7278,687181,0
19,-1,639899,219287,1351027,66283,7866,675139,0
19,-1,659422,223484,1388505,69356,8567,693858,0
19,3,714649,249317,1457925,74369,9827,728407,0
19,-1,639927,219231,1418566,66296,8859,708879,0
19,-1,643144,219986,1249017,66397,7431,624121,0
20,-1,637635,218507,1178161,65621,6832,588604,0
20,-1,638344,219227,1324298,66007,7557,661827,0
20,-1,640479,221675,1314732,67080,7888,656626,2
20,-1,639324,219116,1373890,65869,8282,686806,0
20,3,709234,249172,1351492,74155,8762,675296,0
20,-1,637514,219668,1249296,66089,7059,624308,0
20,-1,642676,219799,1217469,66168,7630,608200,0
20,-1,637902,218916,1338261,65651,8160,668796,0
20,3,718327,250210,1367327,74496,8845,682800,0
20,-1,639643,218713,1384930,65585,8676,692068,0
20,-1,667504,223595,1497210,68891,8628,748251,0
20,-1,637755,218455,1164093,65970,7862,581788,0
20,-1,642906,218933,1410279,66053,8316,704720,0
20,3,715376,250330,1400729,74939,9590,699783,0
20,-1,639209,219344,1316669,66428,8501,657901,0
20,-1,641668,219536,1277472,66243,7244,638445,0
21,-1,638465,219057,1165049,65781,7213,582151,0
21,-1,643286,219836,1369528,66175,8497,684507,0
21,-1,636259,219410,1275831,66080,7604,637571,2
21,-1,662835,224368,1241823,69385,8423,620404,0
21,3,733248,253279,1424146,77292,10255,711562,0
21,-1,636874,219096,1254366,65853,7185,626797,0
21,-1,646783,219879,1331228,66120,8285,665205,0
21,-1,643079,219795,1305434,66044,7445,652275,0
21,3,712776,249188,1444707,73966,8390,721921,0
21,-1,640299,219337,1525138,65875,9455,761807,0
21,-1,642467,218102,1395667,65378,8323,698079,0
21,-1,640423,220060,1139471,66659,6953,569461,0
21,-1,644543,219654,1254171,66337,7696,626756,0
21,3,709318,249373,1285969,74479,9597,642488,0
21,-1,644099,220854,1660099,67155,9372,828147,0
21,-1,663779,224492,1331016,69628,8555,665176,0
22,-1,641718,220572,1244160,66612,8350,621251,0
22,-1,641543,218891,1311521,65862,8271,656225,0
22,-1,636305,220027,1205584,66206,8629,602310,2
22,-1,639948,219609,1376021,66063,7978,687508,0
22,3,712039,249412,1342123,74229,8719,670673,0
22,-1,636436,219327,1267514,65924,7538,633309,0
22,-1,666143,224465,1340494,69425,8709,669874,0
22,-1,660790,223873,1296758,69063,8480,648105,0
22,3,713876,248870,1421789,73887,9144,710416,0
22,-1,636342,218406,1285746,65388,7828,642462,0
22,-1,642103,218373,1179272,65388,6599,589284,0
22,-1,639053,218984,1219001,66204,7892,609529,0
22,-1,661736,223207,1353505,69191,8791,676523,0
22,3,715885,250123,1398254,74736,9927,698654,0
22,-1,639315,220545,1174174,66852,7664,586441,0
22,-1,645266,221215,1267374,66969,7755,633189,0
23,-1,659619,223553,1257049,69001,9384,628161,0
23,-1,641256,219131,1624121,65964,8933,811680,0
23,-1,638016,219617,1173184,66017,6722,586166,2
23,-1,636806,219328,1170729,65973,7164,584979,0
23,3,708922,248968,1382614,74105,8724,690948,0
23,-1,637724,220069,1323228,66262,7704,660762,0
23,-1,645980,220556,1209853,66347,7553,604335,0
23,-1,640204,219382,1253205,65803,7823,626245,0
23,3,713496,248726,1280545,73834,9129,639959,0
23,-1,641330,220354,1362416,66403,7474,680668,0
23,-1,644403,219069,1303086,65631,7397,651132,0
23,-1,642089,219287,1200412,66297,7672,599935,0
23,-1,641615,219069,1257341,66106,7295,628251,0
23,3,712937,249239,1524265,74455,9967,761610,0
23,-1,656986,223383,1417670,69269,9608,708409,0
23,-1,639493,219088,1187935,66033,7139,593599,0
24,-1,636986,218580,1257680,65683,6799,628358,0
24,-1,643479,220373,1272824,66379,7955,635771,0
24,-1,638860,219020,1310219,65817,7846,654638,0
24,-1,643265,220353,1263579,66321,8067,631366,2
24,3,709184,249164,1404239,74100,8677,701749,0
24,-1,640985,219521,1345925,65985,7697,672596,0
24,-1,669579,226018,1245649,69883,8730,622080,0
24,-1,641629,220263,1342204,66372,8209,670419,0
24,3,731722,252522,1394760,76816,9909,696856,0
24,-1,659317,224090,1285241,69138,8114,642314,0
24,-1,647687,220684,1240426,66344,6969,619638,0
24,-1,642845,219852,1310164,66410,8361,654707,0
24,-1,638835,218100,1267569,65845,7312,633438,0
24,3,713830,249728,1496115,74544,9349,747462,0
24,-1,636458,218860,1363897,65878,7624,681492,0
24,-1,640443,219658,1297594,66189,7867,648478,0
25,-1,637068,218996,1283615,65795,7669,641401,0
25,-1,638554,218623,1319427,65771,8138,659466,0
25,-1,640652,219414,1256568,65989,7187,627927,0
25,-1,637447,220098,1350503,66228,7184,674925,2
25,3,708501,249213,1384743,74167,8771,691949,0
25,-1,639479,219034,1332602,65841,7548,665899,0
25,-1,645093,220146,1311767,66153,7893,655521,0
25,-1,638887,219499,1322633,65785,8096,660827,0
25,3,715401,250400,1388848,74573,8858,693953,0
25,-1,638662,219351,1369747,65802,8103,684482,0
25,-1,642859,219134,1318383,65604,6754,658802,0
25,-1,645988,221044,1217213,67106,7451,607966,0
25,-1,643576,220260,1273478,66804,7758,636429,0
25,3,711809,249984,1314451,74819,10393,656565,0
25,-1,635319,218650,1283553,65932,8708,640956,0
25,-1,645534,221889,1373381,67211,7949,686387,0
26,-1,634343,218388,1247564,65608,6866,623452,0
26,-1,639657,219386,1237153,66067,7199,618105,0
26,-1,638170,219106,1367006,65907,7787,683133,0
26,3,707690,248237,1291361,73903,9249,645104,0
26,-1,637996,219507,1193208,66060,7658,596285,2
26,-1,640887,219910,1341743,66154,7943,670438,0
26,-1,644530,220210,1439766,66206,8493,719357,0
26,-1,637123,219244,1300470,65800,7686,650910,0
26,3,710174,248531,1423424,73724,8908,711300,0
26,-1,646086,221000,1273343,66518,7609,636049,0
26,-1,643074,218930,1190406,65618,6558,594858,0
26,-1,662906,224260,1393019,69634,9003,696098,0
26,-1,639704,218993,1297203,66139,7760,648214,0
26,3,713381,249539,1287463,74493,9716,642907,0
26,-1,638553,220286,1273798,66630,8662,636301,0
26,-1,650525,220953,1323343,66611,8038,661245,0
27,-1,637345,219418,1183396,65893,7298,591342,0
27,-1,641470,219325,1226260,66044,7458,612686,0
27,-1,638454,219477,1500943,65957,7790,750133,0
27,3,727515,252941,1482145,77214,9956,740701,0
27,-1,643240,221618,1340932,67027,8030,669458,2
27,-1,637412,218693,1261295,65726,7356,630315,0
27,-1,647720,221434,1380626,66872,8415,689387,0
27,-1,638606,219594,1695069,65849,9239,847061,0
27,3,713574,248697,1358984,73806,8725,679139,0
27,-1,642522,219065,1183253,65720,7891,591235,0
27,-1,643482,219185,1308283,65631,7263,653850,0
27,-1,640441,218641,1307840,65998,7333,653623,0
27,-1,638018,218701,1268208,66014,7448,633763,0
27,3,708173,248269,1332209,74139,9889,665775,0
27,-1,635236,219075,1284370,65964,7907,641816,0
27,-1,650466,221322,1252217,66933,7970,625666,0
28,-1,639165,219017,1282349,65752,7364,640796,0
28,-1,640661,219026,1268486,65877,7483,633856,0
28,-1,640931,219682,1482347,66127,8448,740282,0
28,3,714607,250979,1475912,75003,9436,737282,0
28,-1,636042,219352,1264307,66002,7346,632058,2
28,-1,636894,219205,1241574,65943,6774,620356,0
28,-1,647357,221541,1384202,66668,8240,691685,0
28,-1,640599,219606,1269695,65965,7494,634545,0
28,3,711941,248609,1445533,73760,8736,722466,0
28,-1,641817,218844,1471626,65580,9502,735476,0
28,-1,648074,221409,1239556,66634,7120,619101,0
28,-1,642438,220025,1428389,66473,7881,713797,0
28,-1,643304,220315,1230093,66747,7407,614512,0
28,3,712169,248376,1486189,74119,9060,742741,0
28,-1,643995,217534,1310182,65570,7897,654762,0
28,-1,649079,221628,1230500,67112,8098,614716,0
29,-1,635940,218858,1239356,65795,6351,619355,0
29,-1,640369,219300,1333094,66041,8201,666162,0
29,-1,638700,219286,1277937,65884,6853,638602,0
29,3,708026,248700,1344336,74011,8521,671763,0
29,-1,665712,228636,1258831,68702,7974,628988,2
29,-1,640706,220591,1343188,66302,7373,671215,0
29,-1,644041,220454,1535696,66257,8427,768285,0
29,-1,640512,220784,1311533,66586,8198,654966,0
29,3,716270,250946,1368488,74836,8591,683613,0
29,-1,664041,224324,1370904,69173,8717,685124,0
29,-1,640986,218876,1336222,65512,6936,667782,0
29,-1,642079,220393,1274273,66793,7120,636581,0
29,-1,638896,218975,1356666,66141,8432,677980,0
29,3,714627,248554,1481936,74116,9347,740576,0
29,-1,648110,219859,1257612,66292,8567,628441,0
29,-1,645412,220581,1185734,66514,7060,592476,0
30,-1,637832,219470,1188696,65929,6456,593987,0
30,-1,637880,218401,1219755,65715,7195,609626,0
30,-1,635931,219089,1238036,65835,7135,618702,0
30,3,727534,252797,1440343,77109,9149,719685,0
30,-1,637406,219414,1201787,66038,7141,600448,2
30,-1,640084,220170,1379878,66280,7878,689301,0
30,-1,647867,221053,1426774,66563,8067,712496,0
30,-1,639783,219654,1215335,66041,7708,607244,0
30,3,708168,248405,1467745,73666,9017,733573,0
30,-1,644054,219435,1632640,65795,9974,815915,0
30,-1,643282,219042,1158972,65631,6879,579198,0
30,-1,637234,218556,1280984,66016,7952,640213,0
30,-1,638694,218791,1272957,66030,8040,636203,0
30,3,720160,250871,1476015,75123,10053,736850,0
30,-1,644182,218686,1238878,65958,8192,618982,0
30,-1,643911,219926,1331888,66267,7813,665617,0
31,-1,639579,220184,1371753,66407,7521,685528,0
31,-1,639465,219112,1352119,65930,8641,675691,0
31,-1,661007,224048,1312165,69318,8572,655810,0
31,3,711142,249725,1461170,74545,9373,729956,0
31,-1,641988,219819,1294772,66154,7909,646854,2
31,-1,643395,221257,1363026,66872,7858,680890,0
31,-1,643779,220221,1495719,66142,8567,747486,0
31,-1,638956,219515,1358777,65975,8489,679072,0
31,3,710275,247790,1580819,73521,10615,790080,0
31,-1,640929,219519,1316878,65800,8286,658092,0
31,-1,663561,223235,1334175,68800,7790,666772,0
31,-1,637605,218926,1298997,66083,7266,649149,0
31,-1,643930,220952,1222463,67092,8071,610560,0
31,3,716990,250433,1336729,75061,9811,667569,0
31,-1,645486,219635,1376375,66237,9124,687756,0
31,-1,644757,219800,1441747,66200,8654,720526,0
32,-1,634638,218551,1215539,65640,6893,607438,0
32,-1,639598,219567,1223990,66084,6826,611675,0
32,-1,637643,219104,1290820,65845,7522,645017,0
32,3,735686,258036,1414890,76792,9324,706825,0
32,-1,641867,221775,1438108,67097,8060,718393,2
32,-1,636338,219022,1271737,65806,7205,635502,0
32,-1,643782,220930,1389411,66370,8324,694320,0
32,-1,637356,219254,1251402,65919,8056,625393,0
32,3,732632,252850,1468739,76989,10108,734087,0
32,-1,638667,218871,1373080,65600,8098,686097,0
32,-1,641918,218761,1302937,65546,7151,651103,0
32,-1,639966,220455,1230243,66886,7499,614503,0
32,-1,638575,218302,1240903,65880,6785,620154,0
32,3,712583,248536,1573454,74139,9422,786402,0
32,-1,643598,219205,1491265,66100,9167,745735,0
32,-1,673846,226511,1389209,70737,9841,693700,0
33,-1,641294,221080,1294437,66730,7989,646712,0
33,-1,639440,219420,1201842,66114,8019,600631,0
33,-1,640765,220740,1449414,66624,8505,723420,0
33,3,727402,252974,1589571,77143,9748,794402,0
33,-1,636169,219204,1248753,65824,7075,624086,0
33,-1,638287,220237,1282942,66288,8135,640890,2
33,-1,642657,220962,1454920,66313,8003,726880,0
33,-1,644804,219194,1199299,65852,7500,599386,0
33,3,716653,249955,1396485,74404,8611,697575,0
33,-1,648110,221820,1276981,66889,7755,637858,0
33,-1,644522,220136,1243419,66071,7205,621248,0
33,-1,654299,222679,1354703,69113,8976,676919,0
33,-1,638686,218000,1269670,65733,7159,634463,0
33,3,716496,250554,1363420,75099,9080,681136,0
33,-1,647529,221077,1335615,66984,8919,667410,0
33,-1,643683,220138,1255955,66362,8092,627689,0
34,-1,658526,222988,1283193,68853,7912,641095,0
34,-1,636820,218812,1284906,65792,8253,641987,0
34,-1,637494,219189,1307028,65875,7839,653175,0
34,3,727766,253359,1398655,77294,9507,698857,0
34,-1,640999,221499,1327927,66928,8940,663172,0
34,-1,643402,221124,1399278,66844,7655,698995,2
34,-1,644818,220179,1334618,66160,7878,666799,0
34,-1,646266,220442,1319695,66475,8283,659394,0
34,3,712848,249040,1318766,73919,9102,658987,0
34,-1,663201,223923,1320676,69079,8541,660052,0
34,-1,641848,219036,1364689,65732,8145,681954,0
34,-1,642088,219072,1199850,66159,7281,599580,0
34,-1,638990,218747,1270470,66089,7205,634873,0
34,3,712327,249108,1351716,74277,9346,675466,0
34,-1,664132,223826,1342933,69382,9646,670297,0
34,-1,644263,220902,1402425,66597,8915,699932,0
35,-1,639498,219753,1183835,66031,7307,591470,0
35,-1,644453,218759,1190103,65858,7613,594510,0
35,-1,635297,219076,1183915,65765,7772,591549,0
35,3,712022,248644,1458587,73948,9107,728383,0
35,-1,639084,219448,1198858,65952,7193,599002,0
35,-1,637148,219876,1216165,66175,7537,607739,2
35,-1,643096,220162,1291455,66101,8383,645462,0
35,-1,641285,218919,1296611,65833,8107,647579,0
35,3,709501,248149,1449827,73624,8933,724606,0
35,-1,638255,218823,1334284,65606,8169,666876,0
35,-1,643821,218875,1201018,65632,7708,600076,0
35,-1,665772,227541,1307022,68719,7850,653213,0
35,-1,661032,224104,1499382,69583,9351,749225,0
35,3,734278,253770,1529605,77636,10013,764477,0
35,-1,641832,219111,1220811,66013,8671,610121,0
35,-1,645243,220146,1306480,66324,8275,652895,0
36,-1,638357,219839,1347414,66292,7813,673096,0
36,-1,663113,223394,1239941,69242,9058,619642,0
36,-1,658688,224529,1213715,69442,8853,606399,0
36,3,712028,249971,1425383,74637,9223,712074,0
36,-1,641934,220759,1231947,66428,7074,615585,0
36,-1,642632,219888,1461779,66015,7724,730615,0
36,-1,644172,220397,1409317,66319,7316,704268,2
36,-1,641631,219643,1410386,66041,8208,704731,0
36,3,711821,248061,1460230,73566,9214,729699,0
36,-1,638362,218713,1296411,65607,8060,647799,0
36,-1,642575,219230,1201469,65719,7272,600412,0
36,-1,645606,220923,1241717,66986,7102,620287,0
36,-1,638850,218752,1289440,66048,7644,644458,0
36,3,715195,249387,1497052,74419,9584,748148,0
36,-1,643898,219146,1358826,66030,8050,679056,0
36,-1,644462,219505,1381243,66201,8358,690888,0
37,-1,634862,218827,1191745,65764,6437,595404,0
37,-1,642069,219402,1135585,66062,7308,567509,0
37,-1,643288,219877,1232504,66077,8424,615772,0
37,3,710731,248720,1512177,73932,9807,755588,0
37,-1,640918,220637,1334503,66526,7426,666651,0
37,-1,648209,222066,1527574,67039,8595,762912,0
37,-1,645398,220320,1272586,66057,7881,635831,2
37,-1,646447,220706,1362644,66599,9064,680723,0
37,3,712233,250204,1355976,74570,8863,677326,0
37,-1,641310,219220,1217079,65725,8250,608164,0
37,-1,647979,221218,1347676,66698,8881,673256,0
37,-1,637944,218411,1283868,65946,6740,641566,0
37,-1,640857,219741,1353202,66385,7499,676245,0
37,3,714660,249221,1463858,74257,8553,731646,0
37,-1,646104,219743,1432481,66264,8253,715809,0
37,-1,644351,219544,1364746,66085,8952,682070,0
38,-1,641095,221117,1316864,66804,7274,657852,0
38,-1,644710,220134,1359128,66481,8887,678517,0
38,-1,639993,219255,1225824,65963,7586,612483,0
38,3,728963,253207,1569805,77291,9914,784449,0
38,-1,636374,219177,1249130,65922,6533,624177,0
38,-1,664863,224744,1239171,69380,8472,619164,0
38,-1,643919,221256,1249446,66501,7291,624229,2
38,-1,644269,219768,1229848,66100,7989,614589,0
38,3,710550,247522,1385771,73336,9067,692517,0
38,-1,641579,219510,1196370,65895,8003,597828,0
38,-1,663041,223780,1273329,69019,7820,636393,0
38,-1,640009,218890,1304899,66107,7553,652102,0
38,-1,638565,218961,1234636,66098,6982,616988,0
38,3,712521,248666,1426236,74136,9480,712710,0
38,-1,643356,219055,1388018,65991,8485,693722,0
38,-1,645234,220152,1293398,66378,7244,646346,0
39,-1,654303,222938,1312118,68922,7858,655568,0
39,-1,641488,218976,1202546,65911,6995,601329,0
39,3,712284,249470,1425569,74302,8809,712387,0
39,-1,641771,220570,1377356,66384,7859,688130,0
39,-1,637247,219331,1432430,65977,9028,715873,0
39,-1,644033,221195,1344838,66685,8113,671644,0
39,-1,648373,222170,1346804,67126,8449,672760,2
39,-1,641529,218786,1343264,65727,8615,671183,0
39,3,711057,248560,1361837,73722,9283,680618,0
39,-1,660406,223770,1256712,69048,8301,628010,0
39,-1,640376,219080,1345717,65684,7145,672497,0
39,-1,638653,218755,1302327,66067,8145,650716,0
39,-1,637919,219051,1219484,66194,7431,609346,0
39,3,711340,248874,1461203,74267,9199,730240,0
39,-1,643015,219134,1201550,66011,7592,600476,0
39,-1,646285,221056,1236748,66798,6769,617511,0
40,-1,636861,219435,1277381,65969,7625,638321,0
40,-1,641528,219338,1307440,66039,7822,653283,0
40,3,710489,249367,1461235,74199,8806,730149,0
40,-1,640071,219485,1260639,66023,7947,629855,0
40,-1,636093,219506,1666774,66048,9300,832964,0
40,-1,639817,219322,1441481,65867,8131,720602,0
40,-1,666743,229126,1461596,68753,8735,730390,2
40,-1,664035,224748,1336473,69498,8733,667824,0
40,3,712042,248408,1277680,73731,8960,638495,0
40,-1,642322,219461,1261902,65841,8864,630621,0
40,-1,666360,223845,1333393,69058,8633,666416,0
40,-1,637772,218926,1227375,66083,7598,613371,0
40,-1,638525,218953,1337364,66152,8200,668373,0
40,3,711389,249111,1420874,74281,9149,710078,0
40,-1,640378,218403,1353886,65794,7689,676695,0
40,-1,643127,220336,1398055,66496,7758,698669,0
41,-1,632995,218462,1217155,65644,7350,608203,0
41,-1,641973,219545,1320796,66038,7660,659980,0
41,3,705584,248408,1423156,73887,9415,711224,0
41,-1,659437,223760,1285879,69238,7993,642551,0
41,-1,642078,220941,1327794,66676,8125,663372,0
41,-1,647311,222063,1383077,67203,8688,690010,0
41,-1,643915,220204,1192135,66193,7722,595526,2
41,-1,639898,218858,1206768,65763,7527,602817,0
41,3,716525,250707,1295881,74808,8850,647268,0
41,-1,644914,220995,1268605,66566,8096,633754,0
41,-1,643168,218753,1287291,65616,7958,643326,0
41,-1,646385,221020,1196822,66925,7787,597791,0
41,-1,643808,219448,1308560,66327,7137,653926,0
41,3,712131,249725,1411741,74537,9252,705480,0
41,-1,644742,219725,1207946,66183,7747,603832,0
41,-1,651431,222914,1226842,67673,7957,612826,0
42,-1,656510,223729,1237467,69096,8493,618367,0
42,-1,662322,224092,1303455,69354,8170,650220,0
42,3,734216,253598,1558164,77392,10186,778877,0
42,-1,637111,219096,1352617,65817,7884,675856,0
42,-1,636242,219101,1197387,65924,7045,598229,0
42,-1,637705,219191,1241611,65887,7719,620534,0
42,-1,642728,221148,1346740,66738,7703,672694,2
42,-1,644182,220345,1441505,66461,9020,720104,0
42,3,711345,248587,1464425,73796,8896,731917,0
42,-1,638994,218724,1380600,65553,8341,689952,0
42,-1,645113,220134,1217110,66184,7538,608104,0
42,-1,638894,218837,1204841,66145,7662,601507,0
42,-1,641134,218147,1238865,65862,7438,619082,0
42,3,713651,249396,1338572,74313,8863,668827,0
42,-1,643336,219146,1399546,66073,8037,699225,0
42,-1,693905,234383,1462704,72611,9381,731000,0
43,-1,633189,218993,1155357,65797,6953,577354,0
43,-1,639676,218337,1363919,65592,7597,681501,0
43,3,709142,249029,1433234,74096,9045,716179,0
43,-1,637562,219689,1239201,66044,7122,619105,0
43,-1,636757,219327,1328438,65936,7781,663811,0
43,-1,639285,219718,1277704,65834,7981,638523,0
43,-1,641239,219905,1398782,66035,8959,698379,0
43,-1,639742,219315,1419494,65939,8449,709431,2
43,3,711661,248475,1497566,73766,9950,748378,0
43,-1,638617,219265,1456527,65766,8139,727753,0
43,-1,644269,219067,1342793,65718,7772,671070,0
43,-1,636846,218367,1305718,65908,8423,652575,0
43,-1,643844,219414,1177409,66380,7658,588376,0
43,3,716396,250847,1652287,75006,10422,824908,0
43,-1,669123,228253,1355587,68813,7449,677486,0
43,-1,642493,219760,1180447,66250,7627,589887,0
44,-1,638007,221302,1221735,66727,7311,610623,0
44,-1,639672,218883,1227904,65882,7820,613521,0
44,3,710888,249969,1465093,74590,9379,732061,0
44,-1,640227,220634,1316446,66567,8218,657738,0
44,-1,636397,219674,1315343,66016,7829,657158,0
44,-1,665743,224228,1333808,69193,8711,666531,0
44,-1,641597,219422,1328907,65925,7979,663973,0
44,-1,637981,219789,1347370,66021,7723,673177,2
44,3,718215,250628,1390633,74717,9582,694750,0
44,-1,637241,219250,1322954,65756,7987,660952,0
44,-1,642237,218662,1369318,65513,7675,684291,0
44,-1,643358,221350,1327300,67248,8392,662875,0
44,-1,644688,220309,1162053,66895,7130,580475,0
44,3,715802,249461,1539298,74468,9836,768984,0
44,-1,644449,220399,1267886,66698,7316,633396,0
44,-1,645112,220709,1352155,66583,8003,675579,0
45,-1,641653,218874,1235510,65766,8142,617404,0
45,-1,640930,219027,1330820,65931,8336,665025,0
45,3,709596,248654,1563746,73927,9651,781274,0
45,-1,639731,219286,1292112,65970,8520,645689,0
45,-1,639314,220976,1400672,66747,8104,699581,0
45,-1,645131,220918,1355200,66503,8253,676507,0
45,-1,645222,220578,1364255,66457,7884,681671,0
45,-1,646839,222221,1346286,67056,7839,672368,2
45,3,715992,251062,1789657,74875,11179,894125,0
45,-1,640935,220781,1290440,66384,8062,645242,0
45,-1,647128,221273,1487263,66769,9101,742577,0
45,-1,659216,223447,1455213,69353,9076,727153,0
45,-1,641284,219030,1288298,66205,7354,643720,0
45,3,715184,250610,1411460,75138,9604,705218,0
45,-1,639377,218287,1283416,65803,7590,641355,0
45,-1,643004,220296,1276615,66507,7584,637965,0
46,-1,642523,219000,1259414,65765,8396,629371,0
46,-1,641305,219352,1286222,65976,7142,642635,0
46,3,708903,248693,1412968,73944,9046,705884,0
46,-1,640140,219754,1337890,66022,8058,668659,0
46,-1,645561,219329,1304191,65903,7903,651638,0
46,-1,643746,219845,1294821,65915,7587,647131,0
46,-1,643413,220166,1274362,66134,7321,636782,0
46,3,705830,247469,1568117,73490,9964,783456,0
46,-1,636198,218767,1328910,65751,8067,663989,2
46,-1,641490,219139,1273347,65719,7985,636294,0
46,-1,662733,224097,1356534,69156,7473,677848,0
46,-1,637759,218844,1218283,66043,6721,608619,0
46,-1,643179,220141,1380946,66749,8509,689894,0
46,3,711720,249678,1456641,74663,9659,727965,0
46,-1,638242,218816,1343059,65945,8326,671209,0
46,-1,646024,221485,1249765,67064,8241,624354,0
47,-1,647282,221326,1356133,66795,8426,677467,0
47,-1,645065,221283,1369339,66921,7803,684050,0
47,3,730914,252859,1425290,77116,10360,712256,0
47,-1,637813,219069,1355698,65810,7218,677267,0
47,-1,645776,220057,1264915,66214,8106,632093,0
47,-1,642767,219844,1261572,65965,7841,630342,0
47,-1,638927,218723,1498657,65612,8100,748824,0
47,3,711547,248452,1360698,73750,9046,679867,0
47,-1,643816,220208,1344057,65958,8578,671602,2
47,-1,647911,221749,1391988,66890,8265,695064,0
47,-1,645385,220316,1244608,66297,7550,621771,0
47,-1,637937,219206,1367812,66239,8015,683551,0
47,-1,638389,218475,1293419,65980,7854,646412,0
47,3,713598,249953,1423678,74748,8586,711357,0
47,-1,642524,218852,1316996,66101,8046,658166,0
47,-1,641935,219693,1202367,66241,7083,600871,0
48,-1,642028,219176,1350909,65836,7409,675086,0
48,-1,661905,224062,1319328,69259,8077,659320,0
48,3,708115,247864,1477137,73624,9511,738375,0
48,-1,641712,221165,1424189,66807,7926,711454,0
48,-1,641568,218886,1243070,65782,7587,621155,0
48,-1,642947,219453,1163283,65809,6624,581281,0
48,-1,641269,219439,1548678,65911,9106,773625,0
48,3,712671,249586,1523237,74291,9738,760949,0
48,-1,639548,218885,1320032,65651,7767,659700,0
48,-1,638522,219203,1365641,65733,8432,682361,2
48,-1,643954,219975,1300748,66003,7189,649967,0
48,-1,636227,218820,1322556,66091,8268,660934,0
48,-1,641425,218476,1362093,65957,8002,680748,0
48,3,710527,249688,1469648,74606,9157,734553,0
48,-1,643208,218597,1218608,66033,7889,609006,0
48,-1,646668,222024,1408484,67336,7500,703686,0
49,-1,641256,218712,1301292,65603,8552,649962,0
49,-1,646324,220615,1346671,66534,8401,672770,0
49,3,708809,248735,1517717,73949,9962,758319,0
49,-1,656314,223446,1272959,69120,8671,636123,0
49,-1,663457,223819,1292918,69188,8660,646018,0
49,-1,643541,220019,1276823,66011,7091,637985,0
49,-1,637419,218521,1301474,65523,7838,650436,0
49,3,717059,250247,1413108,74598,9371,705960,0
49,-1,639095,218916,1253748,65655,7900,626520,0
49,-1,637540,218877,1265274,65652,7381,632204,2
49,-1,640647,218797,1237098,65596,7120,618150,0
49,-1,639322,218716,1314141,66057,8401,656713,0
49,-1,645745,220748,1243700,66964,7667,621202,0
49,3,710591,249287,1415492,74486,9835,707359,0
49,-1,642091,218750,1334973,66082,8533,666973,0
49,-1,648573,220528,1342503,66534,8140,670881,0
50,-1,640542,218809,1220549,65586,7528,609783,0
50,-1,640975,218919,1227968,65765,7181,613395,0
50,3,706761,248255,1460718,73827,10055,730099,0
50,-1,637883,219388,1334250,65959,8355,666714,0
50,-1,642806,219811,1352815,66129,8644,675978,0
50,-1,641497,219768,1365594,65845,7423,682361,0
50,-1,639821,219683,1258301,65947,7634,628755,0
50,3,709696,248396,1417659,73705,8838,708418,0
50,-1,636617,218738,1262268,65550,7612,630521,0
50,-1,643498,221599,1300584,66821,8357,649670,2
50,-1,640072,218772,1386957,65618,7889,693125,0
50,-1,662035,223876,1479561,69567,9415,739435,0
50,3,714542,249551,1305839,74665,9400,652523,0
50,-1,661393,223548,1281465,69471,8927,640418,0
50,-1,642719,219180,1304315,66116,8462,651881,0
50,-1,644997,219981,1367710,66403,8250,683504,0
51,-1,646131,221138,1336881,66547,8232,667864,0
51,-1,641977,219368,1308582,65937,8272,654085,0
51,3,705776,248437,1286247,73849,9278,642674,0
51,-1,639413,220433,1372135,66445,8297,685346,0
51,-1,642490,219737,1559084,66174,9608,779061,0
51,-1,645040,221107,1314250,66656,7804,656465,0
51,-1,639203,219054,1388284,65810,8311,692904,0
51,3,713744,249617,1422860,74122,8818,711054,0
51,-1,667209,228631,1412709,68443,8362,705990,0
51,-1,639735,218887,1318797,65671,8212,658975,2
51,-1,638734,218693,1255470,65540,6772,627410,0
51,-1,635583,218266,1185063,65918,8046,592184,0
51,3,715816,250074,1448695,74786,9857,724050,0
51,-1,640006,218649,1201208,66096,7102,600115,0
51,-1,646348,220483,1289454,66913,8973,643973,0
51,-1,645598,220886,1328490,66703,7774,663905,0
52,-1,641362,219152,1281088,65753,8156,640143,0
52,-1,638001,218655,1328893,65582,7812,664154,0
52,3,705852,248893,1533517,74000,8874,766307,0
52,-1,638820,219996,1288284,66250,8445,643796,0
52,-1,641734,219851,1270366,66152,7870,634821,0
52,-1,641796,220071,1299867,66036,7500,649257,0
52,-1,636299,218758,1210670,65623,8588,604994,0
52,3,706980,248793,1434303,73840,9334,716826,0
52,-1,662993,224208,1465643,69113,8247,731849,0
52,-1,638093,219552,1220335,65891,7200,609851,2
52,-1,645324,220960,1162542,66592,7366,580754,0
52,-1,638122,218718,1312200,66049,8467,655706,0
52,3,741179,258874,1640483,77369,10017,819577,0
52,-1,640140,219026,1182972,66163,7134,591111,0
52,-1,661909,223337,1388461,69354,9143,693869,0
52,-1,645494,220422,1298659,66537,7708,649035,0
53,-1,642142,218717,1320390,65555,7071,659824,0
53,-1,642402,220091,1361516,66168,7721,680238,0
53,3,704996,249095,1447405,74107,9540,723072,0
53,-1,638492,218772,1347893,65793,7599,673523,0
53,-1,647153,220910,1267601,66770,8607,632994,0
53,-1,639086,219344,1285887,65735,7126,642535,0
53,-1,638527,219354,1187136,65829,7812,592993,0
53,3,714191,248808,1388993,73894,9120,694078,0
53,-1,641946,220682,1308298,66277,8159,653502,0
53,-1,638959,219331,1220496,65824,6895,609871,2
53,-1,640308,218599,1306451,65512,6957,652858,0
53,-1,642571,221349,1263765,67176,7876,630970,0
53,3,717144,250740,1376402,75204,9089,687625,0
53,-1,638900,219053,1320341,66254,8344,659640,0
53,-1,643568,218552,1302212,65954,8300,650832,0
53,-1,648469,221840,1361879,67294,7433,680929,0
54,-1,645932,220918,1313443,66597,8354,656118,0
54,-1,638570,219224,1264372,65924,7624,631758,0
54,3,709343,250910,1598885,74977,10014,798704,0
54,-1,657861,223398,1296865,69106,7826,647927,0
54,-1,639981,219108,1225825,65866,7215,612374,0
54,-1,645687,221058,1370953,66569,8490,684831,0
54,-1,646792,220635,1239779,66502,8635,619234,0
54,3,710364,247949,1414034,73550,9668,706775,0
54,-1,641099,219685,1271381,65871,7611,635332,0
54,-1,645775,222146,1213481,66965,7552,605921,2
54,-1,637843,218685,1187504,65548,6897,593373,0
54,-1,638231,219165,1328192,66202,7716,663653,0
54,3,716467,250325,1393343,75036,9178,696083,0
54,-1,643863,221392,1221780,67285,7659,610265,0
54,-1,643518,219369,1245696,66238,8465,622603,0
54,-1,643711,220360,1316518,66484,7390,657960,0
55,-1,661406,223498,1333127,68956,9211,666232,0
55,-1,640636,219274,1359967,65855,8571,679312,0
55,3,707774,248358,1449940,73856,8575,724507,0
55,-1,636881,219094,1231113,65939,7282,615216,0
55,-1,642059,220342,1289759,66490,7627,644291,0
55,-1,640572,219100,1306998,65752,9061,653165,0
55,-1,647181,221340,1389575,66842,8795,693969,0
55,3,712775,248673,1351206,73817,9397,675046,0
55,-1,639429,219370,1340510,65688,7936,669913,0
55,-1,641064,218933,1220415,65627,7393,609709,2
55,-1,638812,218379,1393847,65437,7553,696565,0
55,-1,636084,218672,1316150,65967,7306,657758,0
55,3,711915,249102,1411871,74460,8885,705538,0
55,-1,658546,223310,1376701,69397,9325,688050,0
55,-1,641860,219430,1208210,66185,8171,603662,0
55,-1,644121,220435,1333732,66583,7776,666540,0
56,-1,639263,218712,1328984,65550,7764,663997,0
56,-1,641956,219795,1281996,65950,7398,640832,0
56,3,712052,249759,1366641,74346,9183,682839,0
56,-1,636368,219183,1297656,65917,7389,648495,0
56,-1,642554,219727,1201086,66068,6639,600057,0
56,-1,661654,224213,1254271,69155,8879,626771,0
56,3,706897,248097,1305009,73579,9252,652142,0
56,-1,640346,219065,1471696,65818,9293,735397,0
56,-1,660023,224709,1359979,69244,9314,679694,0
56,-1,634341,218747,1315095,65638,7455,657112,2
56,-1,638939,218910,1487799,65721,8719,743469,0
56,-1,638738,220048,1253670,66677,7409,626242,0
56,3,713196,249840,1529906,74681,10141,764084,0
56,-1,642311,218889,1279314,66192,7941,639232,0
56,-1,641555,218842,1206839,65961,8357,602995,0
56,-1,642365,220095,1307875,66573,8349,653638,0
57,-1,638466,218746,1214382,65612,6951,606751,0
57,-1,661452,224005,1302677,69228,8515,650455,0
57,3,707599,248595,1329511,73971,8346,664453,0
57,-1,636277,219451,1251222,66009,6955,625364,0
57,-1,641472,219535,1402292,65974,7521,700736,0
57,-1,644103,220832,1260002,66475,8530,629084,0
57,3,728468,252636,1456472,76882,9368,727810,0
57,-1,643447,220656,1339795,66452,8335,669140,0
57,-1,639711,218808,1273378,65519,8247,636203,0
57,-1,639654,219609,1227188,65855,6845,613303,2
57,-1,638655,218735,1279584,65560,7855,639429,0
57,-1,636807,218979,1218683,66212,7871,608788,0
57,3,717076,251425,1375913,75605,9480,687098,0
57,-1,640963,218925,1208359,66028,7481,603996,0
57,-1,646302,220940,1287594,66919,8209,643169,0
57,-1,643955,219881,1220246,66471,7026,609871,0
58,-1,644337,220687,1364565,66418,7837,681690,0
58,-1,641536,219921,1180250,66080,7226,589802,0
58,3,709951,248500,1672590,73846,10768,835769,0
58,-1,658951,224182,1285092,69372,8584,641916,0
58,-1,641387,219942,1390286,66170,7307,694888,0
58,-1,638542,219196,1241799,65733,7832,620313,0
58,3,708697,248833,1484128,73858,9811,741642,0
58,-1,642791,219427,1378722,65889,8873,688929,0
58,-1,643004,220148,1439758,65970,9905,719565,0
58,-1,639621,219455,1234964,65907,7445,617170,2
58,-1,639209,219272,1223255,65782,7319,611422,0
58,-1,637957,219895,1288529,66366,8001,644001,0
58,3,717404,250602,1341845,75263,9872,670117,0
58,-1,638128,218411,1314249,65949,8520,656771,0
58,-1,639579,218851,1281883,65926,7719,640639,0
58,-1,663629,225084,1409794,69970,8327,704545,0
59,-1,638937,219040,1286845,65710,7195,643045,0
59,-1,642421,220622,1261026,66505,8035,629939,0
59,3,713126,250448,1464792,74832,9380,731818,0
59,-1,637471,219331,1385406,66027,7775,692191,0
59,-1,641995,220028,1244988,66146,7012,622107,0
59,-1,639828,219010,1633581,65664,9145,816187,0
59,3,713405,250268,1430284,74509,9317,714570,0
59,-1,641723,219927,1517150,66102,9360,758063,0
59,-1,645750,221333,1303348,66563,8080,651169,0
59,-1,642097,219099,1347112,65754,8195,673109,2
59,-1,665582,223303,1346328,68821,8293,672770,0
59,-1,656874,223723,1439346,69485,9820,719177,0
59,3,715427,249507,1476587,74652,9740,737987,0
59,-1,642932,219962,1282899,66439,7734,641069,0
59,-1,640093,219130,1341172,66070,8248,670285,0
59,-1,641093,219938,1404961,66475,7552,702092,0
60,-1,637921,218626,1248002,65519,6676,623759,0
60,-1,637770,219304,1260677,65894,8042,629908,0
60,3,705614,248529,1465615,73968,9867,732459,0
60,-1,636910,219132,1323688,65919,7592,661450,0
60,-1,644288,219827,1303982,66106,8303,651549,0
60,-1,641505,220347,1330288,66143,7934,664750,0
60,3,715862,250586,1432311,74638,9459,715282,0
60,-1,639895,219498,1235780,65945,7244,617515,0
60,-1,640341,219406,1378371,65665,7892,688797,0
60,-1,644027,218850,1292332,65653,7927,645712,0
60,-1,639341,218957,1283153,65642,6669,641248,2
60,-1,641185,219283,1211346,66220,7465,605390,0
60,3,715290,250067,1445576,74840,9506,722426,0
60,-1,637884,218182,1401346,65751,8263,700301,0
60,-1,641426,218316,1249291,65786,7355,624338,0
60,-1,639630,219577,1260249,66323,7842,629691,0
61,-1,658738,223224,1322800,68931,8254,661056,0
61,-1,637312,219374,1176574,65920,7502,587948,0
61,3,707127,248231,1579201,73917,8958,789409,0
61,-1,643246,220111,1396884,66501,8665,697428,0
61,-1,643207,219748,1272913,66119,7592,635706,0
61,-1,637744,218989,1232375,65621,7199,615736,0
61,3,709160,249198,1380052,73945,9082,689424,0
61,-1,639562,219705,1359888,65976,7776,679593,0
61,-1,643849,221245,1309352,66602,8110,653877,0
61,-1,643983,219047,1231556,65665,7853,615435,0
61,-1,648863,221849,1336730,66887,7962,667827,2
61,-1,643623,219182,1309300,66166,8712,654250,0
61,3,730924,253562,1537124,77664,11967,768225,0
61,-1,638311,219073,1289312,66209,7590,644245,0
61,-1,643072,218947,1362902,65980,8407,681125,0
61,-1,647855,221734,1268436,67324,7251,633443,0
62,-1,639321,218236,1293526,65379,7493,646522,0
62,-1,648327,221610,1275817,66921,9004,637035,0
62,3,710903,250879,1478143,75028,9785,738548,0
62,-1,659928,223426,1247784,69182,8647,623226,0
62,-1,644230,220495,1334061,66539,8165,666395,0
62,-1,642583,220549,1344175,66519,7722,671587,0
62,3,711952,248877,1384771,73770,9952,691890,0
62,-1,640899,219406,1339209,65813,8164,669108,0
62,-1,661439,224519,1354068,69195,8204,676563,0
62,-1,643388,219170,1513999,65757,8530,756604,0
62,-1,633035,219745,1283128,65454,7325,641158,2
62,-1,646912,220462,1304337,66861,8986,651324,0
62,3,733071,253748,1694734,77778,11589,846869,0
62,-1,643202,220137,1220780,66696,7564,609893,0
62,-1,646304,221047,1239876,66999,8199,619357,0
62,-1,662867,224422,1315796,69760,8969,657449,0
63,-1,640141,219040,1299152,65704,8449,649147,0
63,-1,640872,218828,1247651,65700,8288,623502,0
63,3,727022,253251,1446055,77295,10371,722495,0
63,-1,640132,219710,1364998,66162,7874,682176,0
63,-1,641632,219038,1327682,65844,7657,663595,0
63,-1,642171,219579,1261460,65865,7786,630423,0
63,3,710343,248890,1520792,73765,9936,760049,0
63,-1,643197,220217,1303004,66171,8463,651170,0
63,-1,638124,219346,1310055,65648,8312,654851,0
63,-1,649741,221791,1251066,66942,8362,624757,0
63,-1,636694,219822,1357869,65461,7297,678567,2
63,-1,642077,218878,1691062,66152,11301,845132,0
63,3,730512,253048,1554756,77477,10876,776921,0
63,-1,639795,219203,1322134,66142,7583,660617,0
63,-1,641013,219093,1301856,66103,7925,650567,0
63,-1,644383,221315,1300277,67151,7463,649395,0
64,-1,639208,218594,1321320,65571,7551,660319,0
64,-1,642236,219823,1163083,66063,7503,581018,0
64,3,703039,248541,1480080,73969,9836,739724,0
64,-1,636168,218452,1257520,65731,7644,628452,0
64,-1,646008,221446,1450005,67003,8534,724226,0
64,-1,641701,219758,1229174,65993,7273,614181,0
64,3,713366,249571,1477279,74158,10169,738047,0
64,-1,639359,218847,1207335,65702,7375,603328,0
64,-1,641340,220021,1197459,65933,7899,598296,0
64,-1,640775,218857,1272396,65652,8051,635821,0
64,-1,639605,221051,1195755,66155,7497,596890,2
64,-1,641557,219008,1158213,66183,8874,578777,0
64,3,713680,250191,1510036,74928,9761,754608,0
64,-1,638471,218957,1244671,66057,7358,622103,0
64,-1,642788,219897,1211464,66504,7793,605304,0
64,-1,640147,219865,1428089,66475,8103,713981,0
65,-1,637948,218330,1323714,65416,7153,661474,0
65,-1,640645,218954,1244701,65744,7523,621910,0
65,3,711659,249259,1412252,74255,8974,705677,0
65,-1,639743,219777,1239409,66123,7622,619260,0
65,-1,660860,223933,1271449,69276,8271,635246,0
65,-1,641636,219678,1366664,65898,8161,682803,0
65,3,711067,250268,1431446,74384,9452,715245,0
65,-1,642076,220236,1402653,66171,8038,700898,0
65,-1,638946,219312,1232051,65718,7687,615593,0
65,-1,641355,218474,1213471,65461,7710,606477,0
65,-1,636726,219831,1341386,65476,7563,670245,2
65,-1,640531,218541,1303667,66002,8903,651490,0
65,3,711440,249146,1464695,74510,10319,731945,0
65,-1,639927,219448,1230036,66277,7441,614536,0
65,-1,641061,218664,1293996,65911,7102,646588,0
65,-1,647187,220316,1314734,66620,8163,657003,0
66,-1,645290,220912,1280517,66518,7705,639690,0
66,-1,640275,219094,1376116,65814,8486,687670,0
66,3,712782,250211,1452336,74833,9900,725668,0
66,-1,640845,220548,1337210,66619,8091,668035,0
66,-1,637691,218288,1321469,65691,7931,660004,0
66,-1,661647,224224,1335909,69275,7764,667409,0
66,3,707875,249426,1385921,73911,8913,692562,0
66,-1,644172,221723,1320630,66926,7907,659542,0
66,-1,638715,219403,1335823,65664,8147,667593,0
66,-1,642002,218608,1325131,65527,8071,662121,0
66,-1,636193,218477,1211329,65008,7739,605277,2
66,-1,641490,220016,1247117,66706,8076,622999,0
66,3,733414,253370,1585162,77649,11407,792132,0
66,-1,636737,218557,1266264,65966,7408,632867,0
66,-1,646226,221150,1195154,67061,6944,596820,0
66,-1,646651,220080,1317540,66548,8475,658274,0
67,-1,637544,218252,1223333,65446,7730,611289,0
67,-1,640973,219578,1277714,65956,8032,638609,0
67,3,713432,250647,1476118,74977,9108,737343,0
67,-1,640534,219137,1420410,65928,7702,709860,0
67,-1,640060,219668,1311032,65973,8455,655098,0
67,-1,638563,219325,1325845,65823,7302,662512,0
67,3,714674,248509,1489347,73579,9812,744318,0
67,-1,658736,224040,1287867,69197,8486,643354,0
67,-1,637952,219678,1337961,65833,8257,668539,0
67,-1,641059,219165,1287338,65679,7767,643394,0
67,-1,641412,221076,1244095,66271,7776,621526,2
67,-1,639824,218224,1355612,65826,8371,677503,0
67,3,708397,248076,1449077,74184,9458,724252,0
67,-1,659135,222959,1533846,69277,10008,766537,0
67,-1,659394,222875,1333666,69086,8636,666344,0
67,-1,647403,220350,1274911,66502,8567,637125,0
68,-1,636335,217991,1179648,65373,7182,589441,0
68,-1,646903,221922,1425684,66962,8562,712114,0
68,3,707617,248546,1466574,73987,9629,732959,0
68,-1,657534,223456,1247945,69140,7404,623575,0
68,-1,637592,219056,1302600,65894,7798,650880,0
68,-1,642928,219830,1454409,66029,9778,726655,0
68,3,714394,249134,1636972,73843,10538,818072,0
68,-1,643584,220344,1335713,66080,8282,667331,0
68,-1,637974,219313,1359717,65571,7554,679488,0
68,-1,664713,224360,1370366,69224,8228,684797,0
68,-1,639525,219395,1327191,66356,8987,663277,2
68,-1,640124,218681,1520839,66125,10323,759970,0
68,3,706055,248170,1390518,74134,9975,694806,0
68,-1,638066,218911,1402336,66089,8355,700153,0
68,-1,639544,219038,1269794,66038,7465,634564,0
68,-1,667931,224703,1441391,69857,9429,720205,0
69,-1,640074,219301,1228075,65819,8001,613631,0
69,-1,663256,224638,1447204,69342,8671,723093,0
69,3,706699,248697,1464012,74090,9006,731631,0
69,-1,636380,219159,1315479,66027,6936,657175,0
69,-1,640530,219319,1241727,65978,6490,620389,0
69,-1,640111,219790,1275534,66022,7034,637294,0
69,3,715852,250829,1483050,74591,10074,740876,0
69,-1,641609,220022,1298946,66040,7725,648938,0
69,-1,648128,219947,1403908,65787,8216,701706,0
69,-1,640697,218807,1235956,65567,7310,617634,0
69,-1,642272,219443,1339600,66295,9483,669387,0
69,-1,643457,221027,1253916,67138,8723,626323,2
69,3,711058,250116,1395692,74925,10039,696103,0
69,-1,638385,219521,1333862,66283,7589,666354,0
69,-1,643686,219987,1221841,66559,7759,610417,0
69,-1,646621,220494,1255779,66683,7671,627540,0
70,-1,638138,218709,1170773,65661,7835,584977,0
70,-1,643653,221316,1380276,66611,9007,690238,0
70,3,708327,248801,1491476,74084,9262,745305,0
70,-1,637055,218997,1314749,65871,7684,657045,0
70,-1,641072,219577,1287896,66001,7222,643673,0
70,-1,644433,221328,1280666,66784,8749,639627,0
70,3,716734,251160,1515712,74658,10121,757328,0
70,-1,644581,221190,1364726,66624,8539,681821,0
70,-1,669673,224823,1265165,69224,8558,632193,0
70,-1,642434,219946,1284206,66001,7348,641738,0
70,-1,645164,221038,1276641,67169,8818,637320,0
70,-1,639190,219842,1200875,66476,7675,600146,2
70,3,713845,248368,1572946,74067,10438,786110,0
70,-1,640705,218601,1283609,66130,7844,641392,0
70,-1,638650,219018,1195784,66037,7427,597576,0
70,-1,645438,220232,1346278,66581,8380,672853,0
71,-1,637619,218719,1172743,65652,6938,585989,0
71,-1,641579,219233,1326785,65725,7621,663057,0
71,3,708452,248548,1484986,74017,9330,742031,0
71,-1,640096,220225,1234650,66335,7489,616681,0
71,-1,641217,219974,1280720,66182,7872,639983,0
71,-1,639724,219808,1296185,66151,7882,647367,0
71,3,735927,253633,1358227,77098,10244,678688,0
71,-1,641992,220436,1192145,66193,8164,595591,0
71,-1,646505,219916,1307672,65829,8664,653518,0
71,-1,642093,218571,1280039,65437,7958,639768,0
71,-1,640501,219280,1316644,66221,9406,657987,0
71,-1,636137,218365,1281530,65893,7939,640431,2
71,3,711641,247790,1509432,73782,10374,754584,0
71,-1,646449,221377,1244639,67261,8387,621662,0
71,-1,640279,219424,1318044,66150,8137,658530,0
71,-1,649398,220642,1266544,66729,7976,632895,0
72,-1,635265,218269,1298711,65402,7441,649033,0
72,-1,662058,224489,1256796,69259,8181,628001,0
72,3,705443,248425,1537178,73935,10108,768203,0
72,-1,640485,220469,1320758,66603,8051,659867,0
72,-1,639330,219267,1189472,65916,6947,594380,0
72,-1,641445,219369,1315120,65905,7715,657190,0
72,3,716784,251002,1430529,74802,9176,714891,0
72,-1,642114,220509,1281727,66139,8160,640398,0
72,-1,643509,219209,1231596,65547,7884,615448,0
72,-1,642048,218810,1244748,65635,7450,622144,0
72,-1,640899,219486,1317267,66304,8601,658177,0
72,-1,640436,219232,1302483,66291,7725,650954,2
72,3,718509,249715,1315591,74675,9307,657384,0
72,-1,663352,224204,1391415,69694,9614,695225,0
72,-1,636761,218285,1340559,65780,8839,669928,0
72,-1,648861,221608,1356903,67274,7973,677565,0
73,-1,638027,219159,1210646,65769,7246,604971,0
73,-1,640994,219471,1332937,65846,7509,666047,0
73,3,705073,248676,1638005,74015,10085,818634,0
73,-1,646290,221726,1400199,67160,8083,699387,0
73,-1,641981,220754,1354002,66643,7950,676266,0
73,-1,639971,219304,1271090,65907,7896,635117,0
73,3,738074,254028,1424877,77429,9919,712084,0
73,-1,638580,219431,1320825,65818,9007,659838,0
73,-1,645096,219797,1215312,65794,7603,606924,0
73,-1,647698,221475,1228320,66760,7374,613531,0
73,-1,644184,219389,1479769,66217,10148,739722,0
73,3,713702,248240,1379314,73965,9576,689291,0
73,-1,639656,219575,1252734,66417,8219,625847,2
73,-1,642308,219653,1306975,66407,7982,652868,0
73,-1,645558,219386,1209425,66182,7500,604408,0
73,-1,645274,220673,1352746,66744,8138,676079,0
74,-1,639508,220030,1328500,66273,7797,663593,0
74,-1,639985,219888,1194144,65971,7083,596736,0
74,3,708347,249303,1369032,74483,9447,683950,0
74,-1,660298,223866,1357604,69330,7951,678386,0
74,-1,641928,220028,1661538,66231,9716,830309,0
74,-1,646500,221856,1353263,67020,8199,675829,0
74,3,714404,249472,1458128,74148,9300,728585,0
74,-1,639534,219393,1365114,65827,9182,682227,0
74,-1,644756,219596,1301430,65672,8157,650251,0
74,-1,662266,223525,1470115,68972,8225,734633,0
74,-1,640038,218899,1244067,66087,8088,621645,0
74,3,716033,250156,1404638,75029,9586,701332,0
74,-1,638590,219065,1235516,66267,7583,617369,2
74,-1,642525,220174,1248560,66766,8089,623551,0
74,-1,642748,218658,1273975,65931,7654,636454,0
74,-1,644342,220493,1322360,66682,8060,660818,0
75,-1,639401,218765,1189351,65612,7441,594337,0
75,-1,666290,228994,1307673,68600,7406,653389,0
75,3,709150,251227,1523661,75235,9937,761089,0
75,-1,639697,220583,1248955,66635,7933,623914,0
75,-1,641296,220345,1339968,66518,7738,669272,0
75,-1,661434,224472,1324412,69370,8936,661798,0
75,3,711475,248333,1450661,73754,9785,725001,0
75,-1,660824,224512,1215424,69300,8524,607449,0
75,-1,643731,219485,1206138,65709,7661,602693,0
75,-1,639799,218187,1217168,65333,7570,608233,0
75,-1,637603,218142,1348660,65831,8799,673915,0
75,3,713664,248989,1469871,74273,9778,734453,0
75,-1,641411,218947,1350386,66195,7622,674951,2
75,-1,637683,218858,1276448,66144,7893,637745,0
75,-1,647649,220150,1214756,66471,7718,606935,0
75,-1,644029,220469,1220905,66552,7592,610161,0
76,-1,642489,219334,1319781,65851,8498,659512,0
76,-1,641581,220186,1256259,66068,8143,627692,0
76,3,710302,250729,1547725,75006,9737,773236,0
76,-1,637512,219049,1212794,65996,7443,606140,0
76,-1,639106,220262,1364498,66218,8087,681866,0
76,-1,641186,219629,1224338,65974,7237,611780,0
76,3,709297,247998,1380505,73726,9411,689888,0
76,-1,642055,220684,1253401,66281,8834,626181,0
76,-1,672796,225659,1390866,69933,9788,694613,0
76,-1,641806,219189,1330955,65768,7488,665109,0
76,-1,639262,218727,1319436,66017,8177,659249,0
76,3,715715,250037,1411234,74771,9118,704717,0
76,-1,639157,219253,1305100,66302,8457,652169,2
76,-1,659654,223157,1436227,69354,8885,717712,0
76,-1,663782,223501,1400356,69282,9054,699702,0
76,-1,643551,220549,1323575,66681,8326,661457,0
77,-1,638679,218598,1216106,65613,8085,607686,0
77,-1,641051,219383,1181003,65784,7154,590175,0
77,3,702704,248159,1413564,73789,9603,706363,0
77,-1,634925,218644,1263304,65757,7318,631393,0
77,-1,645702,221143,1381048,66737,7791,689779,0
77,-1,642288,221108,1349181,66720,7413,673955,0
77,3,731086,253433,1450012,77257,9735,724593,0
77,-1,638758,219855,1179075,65929,7883,589299,0
77,-1,643396,219344,1188094,65593,7539,593175,0
77,-1,647384,221345,1212312,66663,7754,605538,0
77,-1,638903,218957,1290276,66135,8781,644671,0
77,3,713745,249821,1483609,74719,9794,741310,0
77,-1,643058,219606,1328025,66398,8367,663610,2
77,-1,638742,219357,1464533,66270,8793,731832,0
77,-1,643060,219708,1249573,66235,7134,624449,0
77,-1,650098,221405,1230918,67243,8645,614858,0
78,-1,639414,219073,1332441,65690,8516,665836,0
78,-1,646317,221921,1346476,66884,7824,672642,0
78,3,709960,250199,1439655,74744,9397,719226,0
78,-1,636802,219517,1427384,66109,7816,713968,0
78,-1,640609,219554,1277238,66069,7560,638266,0
78,-1,638532,219424,1317643,66027,7254,658418,0
78,3,710354,248275,1450715,73734,9565,725172,0
78,-1,647597,221737,1495344,66845,8687,747096,0
78,-1,646394,220205,1323811,65917,8816,661545,0
78,-1,662276,223853,1365142,69035,8084,682290,0
78,-1,642546,220885,1258503,67086,8548,628459,0
78,3,712101,248412,1357590,74095,9493,678404,0
78,-1,636693,218994,1279237,66138,8681,639293,2
78,-1,640442,220049,1275153,66660,7699,637074,0
78,-1,647014,220580,1266397,66703,7564,632501,0
78,-1,643431,219308,1289340,66179,8048,644302,0
79,-1,638094,218354,1235428,65488,7458,617337,0
79,-1,637553,219251,1171827,65845,8001,585508,0
79,3,718129,250304,1378886,74923,10751,688747,0
79,-1,633512,217921,1161240,65633,6497,580303,0
79,-1,637626,218734,1271260,65712,7703,635326,0
79,-1,638158,219963,1525331,66183,8988,762326,0
79,3,706731,248084,1596432,73640,9646,797819,0
79,-1,664358,224146,1293814,69089,8882,646452,0
79,-1,647866,221179,1346946,66453,8568,672892,0
79,-1,638379,218426,1303098,65445,7059,651245,0
79,-1,636764,218665,1295611,66053,9103,647477,0
79,3,711821,248035,1341912,73997,9353,670633,0
79,-1,640621,219813,1217186,66579,8020,608069,0
79,-1,634739,218944,1271398,66146,7997,635275,2
79,-1,640486,218377,1182976,65734,7132,591191,0
79,-1,646798,221255,1278742,67107,8761,638754,0
80,-1,638854,219196,1334884,65783,8021,667167,0
80,-1,643228,222145,1362931,67029,8551,680720,0
80,3,711762,248881,1455283,74168,10093,726940,0
80,-1,641272,221123,1365211,66822,8258,682230,0
80,-1,663175,223916,1309909,69280,8379,654605,0
80,-1,660435,223891,1319734,69194,8363,659546,0
80,3,712877,248738,1540601,73876,9740,769915,0
80,-1,646032,220643,1379261,66242,8466,689134,0
80,-1,643001,218704,1423825,65383,8994,711311,0
80,-1,641946,220105,1600962,66038,8951,800141,0
80,-1,639834,219138,1200804,66288,8796,599913,0
80,3,708600,248466,1459146,74114,10308,729169,0
80,-1,638664,218715,1344756,66094,8433,671958,0
80,-1,636752,218459,1333159,65967,7923,666099,2
80,-1,643956,220084,1298168,66388,7423,648730,0
80,-1,645518,220194,1390220,66581,8521,694732,0
81,-1,637470,219097,1337989,65701,7576,668649,0
81,-1,644994,219493,1259966,65874,7592,629654,0
81,3,712944,248880,1361024,74154,9538,679968,0
81,-1,633927,218523,1371079,65696,7671,685122,0
81,-1,643828,220559,1386489,66382,7435,692785,0
81,-1,639132,219847,1200544,66115,6476,599791,0
81,3,710263,248056,1559914,73669,9857,779499,0
81,-1,642263,219668,1318060,65922,8365,658581,0
81,-1,648988,221771,1411714,66722,8855,705146,0
81,-1,644418,220699,1220214,66430,7485,609634,0
81,-1,632893,218371,1341491,65113,7867,670043,0
81,3,709622,248121,1518954,73984,9533,758737,0
81,-1,638476,218906,1284381,66089,8559,641828,0
81,-1,640113,219153,1303144,66222,8028,651166,2
81,-1,644185,220315,1236221,66769,8153,617536,0
81,-1,647964,222190,1250342,67480,7806,624487,0
82,-1,637246,218392,1301578,65514,6819,650424,0
82,-1,641154,218824,1462405,65619,8386,730075,0
82,3,731547,252873,1510261,77207,11172,754454,0
82,-1,635226,219330,1327686,66043,7429,663383,0
82,-1,637409,218461,1281665,65705,7469,640298,0
82,-1,636761,219277,1279677,65955,7265,639384,0
82,3,713089,250162,1364597,74614,9692,681793,0
82,-1,642990,220384,1345060,66101,8638,672258,0
82,-1,665442,224907,1482753,69252,9030,741023,0
82,-1,639895,219128,1298417,65667,7169,648840,0
82,-1,638695,219314,1198307,65470,7161,598731,0
82,3,712107,250019,1351275,74808,9969,674958,0
82,-1,637554,219086,1257364,66198,8170,628024,0
82,-1,640429,219806,1215728,66468,7501,607471,2
82,-1,662264,223301,1347053,69268,9881,673184,0
82,-1,664863,224849,1384223,69911,9174,691719,0
83,-1,636977,218253,1322685,65447,7932,660809,0
83,-1,642179,218867,1422155,65717,8084,710543,0
83,3,712529,248981,1309671,74182,9534,654524,0
83,-1,634681,219618,1314110,66143,7594,656711,0
83,-1,637966,218723,1299436,65782,7568,649497,0
83,-1,641439,221121,1327347,66691,7956,663022,0
83,3,713785,249151,1559019,73958,9457,779084,0
83,-1,643285,219687,1307963,65913,7834,653455,0
83,-1,641564,219536,1637095,65758,9413,818175,0
83,-1,638277,218733,1227334,65625,7201,613271,0
83,-1,636142,219122,1302185,65384,7752,650480,0
83,3,713958,248907,1448401,74229,10061,723866,0
83,-1,643621,221103,1219905,67147,7986,609271,0
83,-1,641772,219703,1190217,66241,7763,594462,2
83,-1,640339,219067,1474629,66038,8943,736992,0
83,-1,645537,220907,1231641,66784,8152,615457,0
84,-1,641941,220549,1332954,66480,8059,665815,0
84,-1,642005,219622,1253405,66003,7181,626344,0
84,3,710810,248287,1368726,73931,9698,683867,0
84,-1,640483,220391,1382800,66587,8843,691198,0
84,-1,639989,219595,1360687,65996,7796,679941,0
84,-1,638701,219445,1242428,66006,7471,620837,0
84,3,710234,249259,1483359,74047,9356,741484,0
84,-1,666535,225055,1387784,69536,8492,693383,0
84,-1,649732,221253,1299195,66494,8396,648475,0
84,-1,639205,219154,1309470,65676,7388,654356,0
84,-1,636589,218796,1286973,65273,7678,643153,0
84,3,710968,248621,1486775,74213,10006,742917,0
84,-1,636396,218739,1326604,66028,8004,662982,0
84,-1,638805,218668,1210301,65992,7591,605105,2
84,-1,640307,218872,1544197,65984,8072,771117,0
84,-1,643981,219587,1325260,66322,8144,662175,0
85,-1,637026,218254,1214472,65541,7017,606888,0
85,-1,638776,218815,1310291,65704,7522,654786,0
85,3,709775,248347,1308820,73955,9160,654043,0
85,-1,637989,218796,1395252,65840,8049,697036,0
85,-1,659591,224241,1290214,69340,7450,644654,0
85,-1,643024,219243,1273311,65955,7796,636303,0
85,3,706046,248107,1489447,73734,9311,744348,0
85,-1,641000,219863,1262232,66052,7221,630654,0
85,-1,646293,220264,1464798,65962,9038,732015,0
85,-1,659267,223572,1312613,68960,7901,655997,0
85,-1,640180,220712,1213816,66109,7099,605784,0
85,3,729190,252699,1639274,77267,10542,819229,0
85,-1,638693,220124,1241080,66735,7785,619949,0
85,-1,641041,220808,1219404,66898,8185,609093,2
85,-1,644241,219509,1291287,66184,7598,645222,0
85,-1,642959,219620,1379388,66398,8104,688993,0
86,-1,636142,218623,1251658,65597,7056,625547,0
86,-1,649057,221652,1322053,66778,7592,660538,0
86,3,708059,247910,1510304,73813,9068,754828,0
86,-1,640649,220128,1380603,66299,8488,689879,0
86,-1,638080,219628,1322317,65989,7504,660605,0
86,-1,645962,220428,1331438,66516,8806,665179,0
86,3,711567,249571,1517793,74251,9291,758552,0
86,-1,646044,221202,1362398,66710,8469,680535,0
86,-1,644711,219830,1298611,65903,8218,648696,0
86,-1,644190,219966,1386038,65893,9081,692630,0
86,-1,636211,218972,1320376,65247,7555,659804,0
86,3,707922,248295,1421151,73943,8665,710244,0
86,-1,639492,219026,1288962,66199,8702,644254,0
86,-1,642052,219934,1199716,66358,7338,599506,2
86,-1,646290,220747,1215011,66876,7654,606598,0
86,-1,643658,219608,1313986,66341,8701,656635,0
87,-1,656463,223090,1393891,68950,8687,696589,0
87,-1,641941,219367,1223338,65848,6989,611266,0
87,3,736636,257537,1447961,76647,9643,723718,0
87,-1,640400,220394,1392491,66611,8979,695392,0
87,-1,645716,221373,1368251,66779,8065,683476,0
87,-1,641317,218751,1214565,65761,7932,606995,0
87,3,710648,247925,1445985,73629,9887,722713,0
87,-1,642639,220383,1334260,66116,8272,666773,0
87,-1,641544,219118,1381752,65570,8970,690004,0
87,-1,688880,233024,1293692,71742,8422,646449,0
87,-1,634109,218912,1215277,65353,7427,606716,0
87,3,710433,249098,1440929,74355,9810,720124,0
87,-1,637877,218773,1284336,66058,8839,641723,0
87,-1,663199,223776,1356487,69389,8527,677871,0
87,-1,638449,219161,1259735,66145,7517,629568,2
87,-1,647827,221935,1315911,67383,8942,657327,0
88,-1,640081,218431,1349415,65618,7798,674357,0
88,-1,641687,219497,1279748,65841,8316,639425,0
88,3,713130,248590,1373512,74068,9262,686330,0
88,-1,657429,223648,1205307,69253,8842,602277,0
88,-1,639714,219042,1449122,65849,7577,724070,0
88,-1,646946,221371,1310719,66906,7871,654543,0
88,3,711942,248859,1356149,74060,9318,677896,0
88,-1,642536,220673,1283176,66350,7432,640973,0
88,-1,641998,219517,1384623,65752,8214,691980,0
88,-1,638278,218457,1137739,65463,7465,568538,0
88,-1,642968,221017,1212787,66299,7275,605537,0
88,3,705528,248096,1359648,73978,9933,679503,0
88,-1,640438,219760,1401099,66360,8957,700046,0
88,-1,641573,219183,1433715,66108,7949,716353,0
88,-1,642996,219644,1287090,66210,7525,643163,2
88,-1,642998,220220,1238368,66583,8316,618755,0
89,-1,641405,219538,1267064,66053,7060,633014,0
89,-1,639858,218891,1226406,65644,7552,612851,0
89,3,710563,248043,1518758,73755,9354,758710,0
89,-1,637622,219799,1206387,66196,8083,602859,0
89,-1,644184,221255,1329046,66922,8093,663717,0
89,-1,663129,224116,1273463,69349,7755,636363,0
89,3,716103,249983,1368804,74673,10019,683763,0
89,-1,646952,222119,1356550,67052,8419,677609,0
89,-1,644065,219609,1278806,65785,8603,638500,0
89,-1,640950,219194,1197918,65755,7811,598522,0
89,-1,657795,222993,1395726,68468,8303,697614,0
89,3,710684,248100,1399495,74097,8997,699415,0
89,-1,636999,218763,1242538,66124,8591,620930,0
89,-1,639517,218774,1229758,65850,7322,614385,0
89,-1,642040,219699,1233232,66446,8281,616151,2
89,-1,642277,220215,1338118,66464,8594,668767,0
89,3,710895,248168,1493102,74117,9506,746171,0
90,-1,641814,220143,1433407,66389,7820,716112,0
90,-1,662478,223699,1348974,69074,8872,674050,0
90,3,715220,250559,1502679,74917,9618,750406,0
90,-1,636735,219556,1231831,66010,7904,615529,0
90,-1,660284,223937,1287042,69260,7950,643186,0
90,-1,644045,220215,1366647,66254,8957,682692,0
90,3,713217,248612,1499713,73847,9729,749663,0
90,-1,642319,219863,1284461,65992,7498,641878,0
90,-1,642504,218985,1329624,65449,8373,664505,0
90,-1,643932,219875,1299116,66140,7470,648987,0
90,-1,635961,219017,1350803,65363,7963,674952,0
90,3,729047,252734,1453043,77231,9928,726121,0
90,-1,635542,219135,1212212,66213,8595,605677,0
90,-1,641453,219772,1327192,66265,7857,663202,0
90,-1,638769,218736,1280115,65946,7701,639623,2
90,-1,649197,221799,1298185,67305,8516,648356,0
90,3,710611,247944,1360480,74013,8885,679845,0
91,-1,637490,218273,1210786,65701,8406,604764,0
91,-1,639987,218937,1279610,65733,8006,639389,0
91,3,717141,250505,1476688,74845,9976,737611,0
91,-1,636190,219425,1206740,66092,7612,602985,0
91,-1,638791,219564,1313003,66041,7573,655871,0
91,-1,643389,219781,1223249,66123,7262,611186,0
91,3,717448,250673,1489714,74823,10187,744107,0
91,-1,643849,220276,1630561,66174,9318,814806,0
91,-1,642772,219879,1303649,65835,8816,651466,0
91,-1,639223,218549,1417354,65512,8207,708364,0
91,-1,635907,218934,1225994,65329,8257,612631,0
91,3,709345,248262,1370925,73974,9409,685094,0
91,-1,632923,218178,1208075,65873,8114,603702,0
91,-1,640152,219218,1294355,66060,8386,646630,0
91,-1,644876,220404,1224698,66677,7742,611681,2
91,-1,645483,220005,1331089,66473,8846,665296,0
91,3,708956,247969,1282119,74132,8728,640653,0
92,-1,637141,218848,1222911,65798,7383,610820,0
92,3,714842,250709,1487116,74841,9736,742953,0
92,-1,640830,219528,1250300,65860,7567,624800,0
92,-1,636978,219702,1226848,66159,7545,613149,0
92,-1,637982,219222,1280944,65883,7797,640048,0
92,-1,643749,220240,1329723,66216,8230,664557,0
92,3,734944,253833,1465795,77367,10027,732114,0
92,-1,641632,219309,1339848,65763,8516,669577,0
92,-1,642456,219792,1369546,65801,8531,684248,0
92,-1,640878,219141,1468987,65747,8998,733302,0
92,-1,633314,218240,1332619,65030,8532,666115,0
92,3,709416,248773,1359883,74196,9167,679639,0
92,-1,646549,219406,1238473,66241,7961,618826,0
92,-1,645789,220528,1254080,66800,7691,626527,0
92,-1,641482,219863,1345030,66580,8701,671993,2
92,-1,665422,224666,1384837,69803,9134,691917,0
92,3,731493,253245,1443271,77588,10680,721229,0
93,-1,641602,220503,1304389,66519,7285,651572,0
93,3,715304,250655,1543096,74830,9780,770920,0
93,-1,642788,219382,1346046,65972,7819,672630,0
93,-1,635635,219396,1398820,66074,8711,698971,0
93,-1,638766,219987,1268561,66201,7549,633821,0
93,-1,641033,219074,1211576,65918,7118,605342,0
93,3,710105,248616,1402869,73799,8718,701024,0
93,-1,641231,220035,1377651,66030,7959,688357,0
93,-1,641864,219636,1278887,65768,7791,639202,0
93,-1,639012,218758,1315649,65559,7550,657471,0
93,-1,640912,221208,1371329,66317,8386,684738,0
93,3,713270,249017,1439443,74247,9464,719284,0
93,-1,647937,220420,1231201,66916,8318,614952,0
93,-1,639327,218335,1294417,65725,7861,646841,0
93,-1,646916,222722,1417645,67659,8738,708257,2
93,-1,645066,220216,1373167,66543,8252,686248,0
93,3,728514,252981,1498851,77673,10409,749057,0
94,-1,658963,223470,1356111,69028,8718,677686,0
94,3,714436,249358,1437083,74080,9497,718009,0
94,-1,639705,219081,1274745,65840,7103,636993,0
94,-1,660519,223900,1354838,69321,8745,677080,0
94,-1,640742,219668,1338389,66016,8485,668800,0
94,-1,641041,219242,1225087,65947,7099,612310,0
94,3,710427,248946,1517453,73910,9825,758182,0
94,-1,646180,221866,1340891,66948,8135,669715,0
94,-1,639531,219008,1341980,65503,9142,670540,0
94,-1,663008,223755,1281362,69048,8699,640480,0
94,-1,654928,223330,1250219,68540,9114,624683,0
94,3,711642,248189,1485481,74096,8901,742303,0
94,-1,664424,223378,1455240,69383,9011,727234,0
94,-1,640631,219166,1265640,66118,7942,632342,0
94,-1,643578,220311,1337039,66552,7799,668169,0
94,-1,643890,220393,1350769,66653,8383,675003,2
94,3,706712,247981,1380111,74239,9155,689699,0
95,-1,635896,218562,1314749,65583,7550,656945,0
95,3,713326,250307,1460856,74495,9296,729732,0
95,-1,642715,219880,1200130,66172,6986,599625,0
95,-1,637021,219306,1220167,66027,7662,609653,0
95,-1,642389,220972,1325028,66785,8812,661877,0
95,-1,644524,221106,1334964,66820,7899,666919,0
95,3,710459,248982,1480699,74040,9289,739922,0
95,-1,663012,225156,1337305,69537,8302,668243,0
95,-1,648011,221119,1320810,66553,8519,659968,0
95,-1,639680,218939,1283083,65685,7345,641254,0
95,-1,637278,219318,1353299,65419,8289,676044,0
95,3,730397,252362,1514698,77286,9263,756896,0
95,-1,644176,219023,1358418,66219,8465,678759,0
95,-1,641008,219458,1176231,66131,6829,587776,0
95,-1,641780,219779,1230411,66452,7936,614999,0
95,-1,642581,220520,1341105,66701,7955,670164,2
95,3,705882,247910,1375067,74139,8290,687105,0
96,-1,639394,220360,1343438,66380,7482,670939,0
96,3,713838,248461,1468056,73728,9765,733432,0
96,-1,645685,221015,1375748,66717,8718,687337,0
96,-1,639414,220504,1332252,66636,8118,665640,0
96,-1,640511,220930,1317550,66682,8094,658189,0
96,-1,641863,220066,1710313,66250,9474,854185,0
96,3,711215,249109,1380542,74055,9587,689780,0
96,-1,642316,219960,1292238,66007,8395,645485,0
96,-1,661115,223550,1270093,68981,8066,634527,0
96,-1,639130,219192,1202978,65663,6946,601127,0
96,-1,639578,220786,1303989,66007,8342,651343,0
96,3,709721,248420,1388873,74220,8354,694082,0
96,-1,644057,219266,1267955,66222,8313,633695,0
96,-1,665864,228312,1284973,68788,7762,642099,0
96,-1,647690,221045,1419940,66844,8524,709668,0
96,-1,643724,221799,1256298,67386,8125,627541,2
96,3,705407,248424,1465262,74364,10097,732195,0
97,-1,638325,218672,1304100,65590,7578,651696,0
97,3,709810,247761,1391420,73580,8822,695054,0
97,-1,640049,219345,1222369,66041,7275,610857,0
97,-1,634048,218850,1205376,65800,7870,602313,0
97,-1,637515,219489,1261015,66043,7692,630093,0
97,-1,638100,219049,1239239,65894,7568,619143,0
97,3,710337,248444,1376807,73855,9234,687872,0
97,-1,642678,220531,1273578,66199,8356,636247,0
97,-1,644475,219426,1352998,65820,8782,676033,0
97,-1,639263,219083,1301159,65715,7304,650213,0
97,3,710007,247977,1294817,74081,8570,647081,0
97,-1,635905,219160,1378265,65390,8126,688269,0
97,-1,638340,217186,1299307,65637,8426,649352,0
97,-1,639465,219230,1225102,66056,7970,612125,0
97,-1,643594,219507,1406271,66352,8706,702405,0
97,-1,643507,220491,1372922,66636,7578,685999,2
97,3,708967,247890,1309580,74222,9070,654163,0
98,-1,637462,218675,1219624,65602,7147,609443,0
98,3,728887,253246,1433040,77259,9572,716056,0
98,-1,641269,219118,1339991,65886,7472,669630,0
98,-1,638869,220314,1329289,66364,7783,664174,0
98,-1,637480,220278,1295512,66274,7773,647179,0
98,-1,639420,219459,1346433,65971,8142,672778,0
98,3,710874,248876,1529597,73921,9940,764326,0
98,-1,640136,220030,1299931,66086,7903,649402,0
98,-1,668932,228287,1351262,68308,8338,675299,0
98,-1,639839,219894,1234984,65956,7443,617134,0
98,3,708016,248384,1486565,74218,9343,742922,0
98,-1,634016,218677,1258298,65145,8258,628910,0
98,-1,644421,220556,1252765,66960,7901,625830,0
98,-1,641674,219582,1169532,66208,8022,584325,0
98,-1,647773,221647,1252323,67239,8927,625302,0
98,-1,644202,220826,1326252,66613,7145,662716,2
98,3,708049,248214,1475931,74306,9596,737335,0
99,-1,664586,228022,1292906,68576,7425,646118,0
99,3,707713,248477,1350009,73919,8645,674704,0
99,-1,643101,220529,1236386,66286,7174,617904,0
99,-1,654668,223339,1380206,69143,8336,689741,0
99,-1,641724,219942,1236096,66043,7319,617551,0
99,-1,664376,224345,1281747,69395,8093,640430,0
99,3,711671,248985,1692718,74016,11251,845947,0
99,-1,647119,222295,1336522,67079,8327,667458,0
99,-1,643008,219884,1237715,65978,7674,618654,0
99,-1,640547,219024,1272856,65647,7547,636133,0
99,3,707474,248665,1526680,74329,10003,762939,0
99,-1,634189,218776,1332489,65187,8055,665870,0
99,-1,643290,219029,1288940,66156,7937,643791,0
99,-1,642992,218657,1215411,65907,8219,607060,0
99,-1,644886,220861,1300119,66798,8332,649581,0
99,3,707311,248615,1513080,74631,9586,755644,0
99,-1,647564,220679,1275099,66547,8160,637238,2
100,-1,648871,223925,1316787,67373,7674,657717,0
100,3,729118,253142,1446895,77284,9613,723012,0
100,-1,643057,220876,1327476,66680,7445,663206,0
100,-1,638441,219773,1219567,66196,7666,609209,0
100,-1,646407,221064,1390553,66806,8606,694564,0
100,-1,643422,220357,1328728,66309,8079,663945,0
100,3,715520,249717,1531813,74119,9799,765502,0
100,-1,640262,219901,1228107,66006,8069,613377,0
100,-1,641196,219586,1364119,65835,8384,681739,0
100,-1,643333,219643,1302981,65890,7720,651023,0
100,3,711571,248217,1355885,74075,8491,677660,0
100,-1,641129,221600,1299570,66367,8366,648761,0
100,-1,641792,218608,1407920,65949,8301,703592,0
100,-1,645955,220608,1211292,66722,8119,605073,0
100,-1,667609,224678,1471733,69860,9162,735724,0
100,3,705486,247948,1410659,74245,10248,704906,0
100,-1,642021,220635,1356329,66592,7303,677806,2
101,-1,685454,234048,1377016,71694,8068,688277,0
101,3,711203,249331,1438846,74346,8845,718806,0
101,-1,637868,218192,1207295,65651,7153,603186,0
101,-1,634321,218738,1333159,65801,7211,666214,0
101,-1,641139,219695,1247484,66090,6674,623349,0
101,-1,643994,220648,1438611,66599,7606,718405,0
101,3,709844,249147,1484162,73985,9662,741723,0
101,-1,640955,220694,1442069,66323,8874,720653,0
101,-1,645052,221056,1391558,66569,8553,694634,0
101,-1,639475,218950,1265310,65685,7674,632314,0
101,3,709431,248250,1541176,74131,9860,770167,0
101,-1,655038,223504,1501172,68454,8887,749883,0
101,-1,639607,218587,1292105,65965,7924,645732,0
101,-1,643350,219105,1386461,66026,8472,692616,0
101,-1,644291,219865,1417606,66550,7642,708416,0
101,3,707873,247842,1474150,74135,10510,736763,0
102,-1,671051,230835,1249278,68802,7121,624256,0
102,3,715244,250267,1559871,74647,10471,779258,0
102,-1,639499,219330,1281313,65954,7687,640320,0
102,-1,634624,219348,1276724,66056,7647,637905,0
102,-1,641178,219919,1337759,66301,7738,668318,0
102,-1,641408,219843,1321965,66082,8113,660604,0
102,3,715466,250044,1512214,74332,9799,755660,0
102,-1,645927,221153,1341416,66374,7843,670273,0
102,-1,661502,223758,1265052,69038,8658,632141,0
102,-1,638599,218785,1224058,65586,7179,611787,0
102,3,706702,247782,1392693,73989,9556,696002,0
102,-1,634113,219254,1336957,65225,8362,668128,0
102,-1,643096,219269,1226958,66263,7275,613085,0
102,-1,645915,220854,1328610,66938,7684,663658,0
102,-1,643667,219863,1364406,66496,7880,681872,0
102,3,707305,247912,1554690,74175,9977,776555,0
103,-1,692347,238508,1440400,71218,8309,719603,0
103,3,707986,248056,1379655,73780,9217,689480,0
103,-1,643653,219377,1381181,65815,8559,690295,0
103,-1,633475,219346,1226440,65966,7535,612713,0
103,-1,641700,219329,1232848,66006,7523,615990,0
103,-1,638627,219140,1216674,65918,7267,607946,0
103,3,715671,250806,1467929,74759,9849,733561,0
103,-1,643837,220301,1505133,66159,9717,751719,0
103,-1,640645,219274,1336778,65849,7986,667999,0
103,-1,642940,220377,1223166,66318,7211,611054,0
103,3,711160,249252,1459590,74471,10211,729409,0
103,-1,633316,218966,1237432,65162,7978,618302,0
103,-1,640373,218575,1413341,65989,8118,706369,0
103,-1,638401,218387,1224241,65768,7453,611613,0
103,-1,641312,219560,1339949,66389,8409,669617,0
103,3,708289,247996,1339173,74237,9392,668855,0
104,-1,692169,238689,1384617,71123,8210,691927,0
104,3,708083,247472,1397052,73515,9111,698205,0
104,-1,643770,220180,1401797,66360,8464,700392,0
104,-1,639231,220990,1354080,66848,7918,676435,0
104,-1,640581,219245,1380968,65886,8174,690104,0
104,-1,639141,219278,1687237,65953,9192,842625,0
104,3,714367,250226,1371448,74385,8970,685224,0
104,-1,647166,221977,1354253,66929,8668,676390,0
104,-1,646181,220440,1353588,66406,8249,676227,0
104,-1,640524,219164,1259198,65727,7163,629265,0
104,3,710118,249633,1402954,74837,9837,700836,0
104,-1,632765,219092,1399391,65214,8828,699348,0
104,-1,660385,222876,1400448,69204,8747,700039,0
104,-1,642680,220342,1309240,66496,7906,654129,0
104,-1,642975,219795,1182456,66467,7678,590673,0
104,3,709885,248794,1483477,74518,10228,741299,0
105,-1,687012,236810,1320810,70572,7245,659921,0
105,3,709115,248150,1468153,73713,9249,733674,0
105,-1,642749,220293,1303702,66444,8443,651306,0
105,-1,633331,219175,1389204,65992,7434,694022,0
105,-1,639954,218959,1249167,65852,7239,624057,0
105,-1,660932,223324,1379592,69022,8618,689482,0
105,3,710858,249758,1489506,74265,9883,744231,0
105,-1,666011,225595,1317295,69617,8929,658149,0
105,-1,642176,219223,1221179,65769,7764,610266,0
105,-1,639999,219526,1229990,65906,7096,614592,0
105,3,733424,257894,1519124,77037,10687,759103,0
105,-1,638714,218791,1301515,65101,7358,650442,0
105,-1,641110,219481,1279408,66328,7814,639290,0
105,-1,640766,218762,1333466,66036,7971,666461,0
105,-1,641070,219270,1372951,66312,8301,685900,0
105,3,707762,247887,1338545,74134,9326,668948,0
106,-1,693898,238107,1396049,71018,7810,697589,0
106,3,706521,247885,1323442,73707,8060,661340,0
106,-1,638654,218518,1213743,65718,8080,606527,0
106,-1,633715,219297,1338228,65982,7727,668805,0
106,-1,645020,221753,1356621,67006,7689,677610,0
106,-1,642337,220725,1390012,66600,8138,694363,0
106,3,711482,249251,1350300,74035,9563,674729,0
106,-1,641743,219739,1232809,65820,7286,616006,0
106,-1,642813,219314,1275375,65946,7871,637446,0
106,-1,636503,218811,1330999,65580,7661,665160,0
106,3,708693,247992,1451296,74045,9817,725262,0
106,-1,643511,221301,1214086,66280,7068,606271,0
106,-1,643024,219142,1448069,66233,8268,723671,0
106,-1,641293,219365,1232989,66187,7425,616087,0
106,-1,643835,219753,1376953,66531,8322,688055,0
106,3,707407,248271,1462973,74315,9712,731198,0
107,-1,694897,236719,1301169,70508,8154,650131,0
107,3,706182,248464,1417255,73837,8532,708261,0
107,-1,639139,218750,1372291,65762,7856,685862,0
107,-1,634831,220121,1280351,66278,7438,639735,0
107,-1,640915,219333,1385176,65920,8218,692239,0
107,-1,641668,220311,1518707,66312,8661,757895,0
107,3,733997,254771,1494028,77566,9887,746692,0
107,-1,644128,221089,1263947,66338,7712,631501,0
107,-1,643161,220075,1378950,66113,7872,689116,0
107,-1,645814,221230,1262567,66685,7438,630720,0
107,3,708247,248125,1350620,74116,9083,674879,0
107,-1,658776,223983,1371735,68629,8178,685589,0
107,-1,642458,219241,1301321,66204,8442,650352,0
107,-1,640632,219078,1285005,66048,8003,642231,0
107,-1,642595,219721,1247059,66475,7993,622870,0
107,3,704885,247872,1427675,74159,8807,713480,0
108,-1,716866,242395,1352406,74166,9326,675873,0
108,3,711749,250514,1458755,74832,9381,728725,0
108,-1,642952,221085,1334638,66881,7923,666710,0
108,-1,635634,220538,1356388,66617,7485,677728,0
108,-1,640772,219732,1383502,66134,8936,690834,0
108,-1,639184,219748,1208682,66099,6966,603981,0
108,3,710977,249624,1344286,74012,8996,671636,0
108,-1,647455,222168,1422990,66907,8882,710550,0
108,-1,638908,218834,1183622,65608,7001,591493,0
108,-1,664544,224710,1422924,69345,8598,711100,0
108,3,708676,248310,1465072,74147,9365,732023,0
108,-1,635124,218685,1311863,65112,7741,655528,0
108,-1,663546,223528,1359247,69423,9048,679286,0
108,-1,644017,220939,1356961,66883,7925,677675,0
108,-1,646655,221646,1264863,67411,8183,631628,0
108,3,713387,247790,1504132,74105,9382,751381,0
109,-1,694082,237060,1283709,70634,8019,641462,0
109,3,704420,248016,1418488,73713,8498,708900,0
109,-1,636360,218229,1353501,65576,8156,676314,0
109,-1,646962,219465,1326789,66037,7412,663000,0
109,-1,639249,219472,1223514,66005,7202,611456,0
109,-1,639357,220239,1238551,66265,7724,618720,0
109,3,709769,249555,1481469,74063,10026,740210,0
109,-1,644062,221111,1349642,66376,8325,674426,0
109,-1,640265,219228,1339886,65828,7976,669362,0
109,-1,638298,218710,1440972,65558,7942,720012,0
109,3,726737,252768,1565977,77425,9863,782699,0
109,-1,633363,217805,1166651,64902,7289,582572,0
109,-1,641619,218324,1290945,65968,8830,645120,0
109,-1,641335,219207,1325297,66099,8119,662493,0
109,-1,642550,220659,1237504,66796,7740,618361,0
109,3,734659,252674,1632950,77551,10560,815873,0
110,-1,699677,238934,1418453,71469,9122,708895,0
110,3,705457,247727,1410234,73565,9430,704756,0
110,-1,634199,218095,1196985,65546,7255,598074,0
110,-1,645416,219342,1278986,66038,7619,639172,0
110,-1,641514,220450,1278860,66277,7040,638945,0
110,-1,642942,219528,1342859,66049,8244,671069,0
110,3,717228,250943,1635666,74510,11123,817434,0
110,-1,639825,219901,1348967,65847,8243,674197,0
110,-1,643372,220704,1344729,66523,7764,671852,0
110,-1,638307,218668,1233577,65547,6988,616391,0
110,3,710165,247896,1395483,73981,9567,697336,0
110,-1,662409,224646,1359733,69290,8807,679486,0
110,-1,639387,218497,1275181,65992,8770,637196,0
110,-1,642114,220068,1226132,66576,7425,612399,0
110,-1,639600,219737,1377767,66545,8496,688453,0
110,3,713160,247900,1480615,74200,10050,739889,0
111,-1,690813,236669,1263581,70548,7215,631573,0
111,3,705415,248587,1377008,73973,8413,688134,0
111,-1,633838,218188,1297402,65558,8768,648444,0
111,-1,648167,220663,1343581,66758,8385,671136,0
111,-1,638226,218870,1214406,65787,6954,606717,0
111,3,711258,250600,1471744,74409,9786,735619,0
111,-1,641712,219873,1219715,66141,7559,609327,0
111,-1,643207,222054,1371503,66911,8027,685087,0
111,-1,639684,219701,1248258,66006,7152,623658,0
111,-1,638856,219306,1369418,65788,7346,684387,0
111,3,705856,248379,1443390,74242,9059,721306,0
111,-1,635829,219437,1246265,65279,8417,622783,0
111,-1,643297,220093,1226774,66755,8086,612904,0
111,-1,641591,219133,1310909,66126,8018,655102,0
111,-1,637872,219346,1299225,66535,7631,648991,0
111,3,713870,248044,1469722,74170,10193,734596,0
112,-1,693134,237279,1409133,70681,8764,704014,0
112,3,705409,247496,1509597,73491,8861,754460,0
112,-1,638164,218398,1241227,65659,8367,620575,0
112,-1,646379,220240,1261255,66316,8229,630228,0
112,-1,658071,223722,1316982,69183,8123,657877,0
112,3,707237,249981,1697577,74263,10774,848108,0
112,-1,640274,219403,1356871,65955,7897,677912,0
112,-1,641194,219687,1303144,65798,8255,651094,0
112,-1,640979,219199,1287078,65830,7549,643160,0
112,-1,639884,219782,1281446,65938,7595,640181,0
112,3,710353,249857,1459477,74973,10114,729250,0
112,-1,636909,218783,1404584,65066,7452,702488,0
112,-1,640536,219423,1203873,66314,8557,601628,0
112,-1,639737,219182,1248598,66092,7180,623936,0
112,-1,642332,219968,1447457,66580,8425,723344,0
112,3,714053,247666,1431430,74107,10271,715501,0
113,-1,699114,240270,1479225,72040,8778,739120,0
113,3,703427,247591,1257971,73572,8375,628589,0
113,-1,640119,219079,1171129,65777,7259,585290,0
113,-1,647181,220901,1262794,66728,8641,630832,0
113,-1,638401,219737,1386647,66071,7880,692826,0
113,3,721676,251539,1506059,74900,9933,752411,0
113,-1,660942,223613,1399660,69184,8710,699343,0
113,-1,640548,220446,1275657,66084,8843,637339,0
113,-1,642291,220407,1365790,66415,7592,682428,0
113,-1,637786,218971,1173681,65666,7280,586302,0
113,3,726340,252852,1487629,77480,10878,743430,0
113,-1,635230,218849,1382638,65147,7571,690980,0
113,-1,640011,218884,1245061,66106,7543,622272,0
113,-1,640625,219573,1396228,66212,7691,697692,0
113,-1,646211,219646,1303595,66485,8420,651394,0
113,3,713556,248801,1510772,74507,9891,755031,0
114,-1,714928,241922,1465483,74023,10562,732346,0
114,3,711558,250626,1405544,74845,9596,702221,0
114,-1,659435,223249,1274517,68996,8246,636951,0
114,-1,641343,219073,1212351,65965,8345,605184,0
114,-1,642230,219939,1579828,66201,8866,789396,0
114,3,714816,249208,1365443,73935,9547,682332,0
114,-1,637098,218718,1344999,65757,7905,672086,0
114,-1,645893,222394,1289515,66974,8552,644098,0
114,-1,637968,218655,1325291,65602,8114,662386,0
114,-1,634484,217967,1313585,65256,8046,656512,0
114,3,706463,248579,1364683,74313,10420,682175,0
114,-1,634208,218576,1317212,65025,7946,657804,0
114,-1,639288,219497,1269277,66381,7567,634219,0
114,-1,642770,220020,1261945,66577,7451,630507,0
114,-1,646456,220338,1257329,66750,8588,628050,0
114,3,716986,249934,1549362,75143,9749,774181,0
115,-1,691351,237184,1275351,70710,7865,637328,0
115,3,712747,248241,1306935,73679,8819,653106,0
115,-1,638173,219192,1290358,65860,8133,644773,0
115,-1,644330,219451,1228942,66015,8385,613845,0
115,-1,638299,219037,1298282,65842,9733,648717,0
115,3,715501,250793,1386665,74486,10353,692878,0
115,-1,640705,219633,1273014,66047,7528,636053,0
115,-1,661757,225114,1303361,69422,9016,651247,0
115,-1,638675,219515,1244540,65934,7977,621809,0
115,-1,643291,221391,1226279,66674,7830,612667,0
115,3,715459,249723,1443234,74805,9115,721146,0
115,-1,635993,218959,1285638,65180,7575,642456,0
115,-1,677119,230590,1406183,69969,8055,702338,0
115,-1,638499,218825,1336487,65961,7714,667893,0
115,-1,645422,220455,1185831,66773,7313,592456,0
115,3,711781,248513,1405278,74326,9473,702337,0
116,-1,690379,236887,1288070,70542,7647,643641,0
116,3,713035,248600,1362034,73905,9606,680683,0
116,-1,637070,219236,1375372,65775,8040,687335,0
116,-1,665987,224146,1267740,69419,9475,633552,0
116,-1,662169,224576,1271421,69416,9108,635287,0
116,3,714635,249287,1682733,74208,11176,840917,0
116,-1,659290,223663,1446416,69158,7966,722634,0
116,-1,641069,221037,1376914,66303,8535,688023,0
116,-1,643185,219085,1311145,65731,8119,655164,0
116,-1,656448,223175,1353229,68869,8100,676159,0
116,3,714227,250172,1352792,75163,8714,675819,0
116,-1,655701,223179,1362574,68286,7897,680990,0
116,-1,641267,218877,1370781,66083,8691,684856,0
116,-1,636692,218521,1192506,65759,7802,595605,0
116,-1,649454,221677,1248044,67450,7731,623353,0
116,3,735500,253583,1544416,77692,10379,771777,0
117,-1,693411,237111,1265010,70722,8023,632057,0
117,3,711687,248749,1355158,73839,8789,677149,0
117,-1,688036,232964,1537658,71893,8903,768320,0
117,-1,644733,219880,1328934,66173,9052,664090,0
117,-1,639136,219785,1220675,66108,7372,609689,0
117,3,736185,254987,1532190,77892,10213,765690,0
117,-1,642141,220640,1654984,66377,9144,827042,0
117,-1,639478,220389,1536318,66103,9825,767808,0
117,-1,644663,219563,1222473,65895,7794,610718,0
117,-1,645518,218801,1196095,65568,7186,597679,0
117,3,714161,249666,1341436,74943,9392,670180,0
117,-1,633033,218881,1169491,65109,7145,584422,0
117,-1,641371,218710,1341391,66099,8346,670402,0
117,-1,636765,218300,1267393,65778,8430,633328,0
117,-1,665886,224393,1403231,69897,9068,701280,0
117,3,711842,248295,1352997,74150,8628,676185,0
118,-1,692051,236892,1390385,70606,8218,694816,0
118,3,729000,252506,1440840,76877,9697,720196,0
118,-1,636721,218705,1263932,65713,7301,631203,0
118,-1,644157,220105,1444028,66299,8588,721574,0
118,-1,659398,223726,1274829,69210,7826,636965,0
118,3,712941,249333,1476093,74101,9223,737715,0
118,-1,639520,219973,1351199,66377,8297,675017,0
118,-1,640480,220410,1256198,66054,7877,627847,0
118,-1,642213,219069,1388033,65794,7639,693354,0
118,-1,645336,219220,1371845,65766,8944,685546,0
118,3,711574,249204,1511050,74685,9809,755008,0
118,-1,638348,219783,1319652,65472,7222,659470,0
118,-1,640481,218545,1336573,65990,7469,667957,0
118,-1,637393,218992,1281545,66055,7648,640425,0
118,-1,645208,220134,1368635,66717,8739,683929,0
118,3,719586,250530,1438552,75058,9952,718409,0
119,-1,689457,236451,1444905,70395,8511,722081,0
119,3,711702,249301,1443888,74291,9116,721339,0
119,-1,634324,218401,1262542,65583,7511,630932,0
119,-1,643435,219183,1300276,66005,8150,649208,0
119,-1,639224,220081,1309169,66184,7426,654222,0
119,3,718743,251924,1537294,75267,9746,767776,0
119,-1,640378,220087,1230073,66207,7137,614693,0
119,-1,642786,221391,1359217,66356,8547,679316,0
119,-1,643615,219348,1338419,65819,8490,668930,0
119,-1,646132,219915,1233568,65921,8372,616424,0
119,3,706732,247320,1499934,73781,9175,749707,0
119,-1,636243,219334,1309081,65294,7005,654157,0
119,-1,660108,223350,1441639,69387,9125,720299,0
119,-1,647225,220156,1272461,66614,7729,635767,0
119,-1,646118,221647,1368691,67317,8685,684016,0
119,3,711669,247857,1344476,73967,8845,671846,0
120,-1,689533,236756,1347285,70502,7199,673355,0
120,3,715178,250442,1598244,74777,10141,798419,0
120,-1,635752,218620,1250107,65676,7152,624893,0
120,-1,642887,219294,1459090,65999,9236,729219,0
120,-1,638742,220277,1305770,66217,7605,652535,0
120,3,713679,249296,1462219,74142,9499,730714,0
120,-1,637696,219471,1368836,65984,7500,684042,0
120,-1,639318,220383,1650530,66077,9742,824852,0
120,-1,643679,219802,1225050,66017,7501,612157,0
120,-1,643239,218952,1351301,65605,9686,675311,0
120,3,709159,249936,1342785,75050,9353,670489,0
120,-1,635372,219187,1337021,65315,7583,668136,0
120,-1,641211,219214,1465298,66268,7960,732362,0
120,-1,639389,217038,1328679,65412,8000,664032,0
120,-1,644556,220041,1337953,66544,8443,668593,0
120,3,717431,250928,1377223,75228,10139,687589,0
121,-1,711186,241653,1378877,73948,8829,688959,0
121,3,706300,247581,1407021,73589,9822,703323,0
121,-1,641529,221313,1438215,66714,8751,718541,0
121,-1,643757,219656,1270802,66095,7837,635060,0
121,-1,640685,220665,1328117,66587,7645,663500,0
121,3,713166,249764,1386649,74151,9135,692673,0
121,-1,640185,219358,1416721,65952,8229,707821,0
121,-1,637182,219993,1207432,65888,7827,603274,0
121,-1,661391,223671,1376370,69135,8482,687746,0
121,-1,650785,222008,1190941,66991,8337,594874,0
121,3,709619,248004,1414571,74024,9130,706894,0
121,-1,635198,219411,1321164,65347,7853,660050,0
121,-1,645266,220914,1286767,67006,7736,642936,0
121,-1,645222,219740,1369008,66347,7874,684169,0
121,-1,642010,219404,1380541,66368,8499,689852,0
121,3,714817,248631,1355359,74124,9289,677276,0
122,-1,689919,237357,1339334,70801,8347,669200,0
122,3,707329,247979,1286566,73619,8340,642927,0
122,-1,640355,218614,1253649,65566,7029,625949,0
122,-1,644503,219726,1249864,66209,8120,624536,0
122,-1,638447,219954,1218319,66175,7201,608651,0
122,3,707883,248975,1326751,73929,9277,662983,0
122,-1,638239,219343,1425187,65946,7825,712073,0
122,-1,639242,220656,1385320,66194,7992,692220,0
122,-1,642666,218859,1259646,65751,8071,629452,0
122,-1,663423,223298,1264420,68895,8792,631881,0
122,3,711719,248396,1473860,74206,9188,736409,0
122,-1,635105,219913,1235352,65706,7729,617145,0
122,-1,640428,218579,1380068,66009,7925,689732,0
122,-1,649429,221227,1223397,67080,7460,611133,0
122,-1,645682,221029,1387621,66850,8593,693400,0
122,3,710704,247930,1346685,73910,8386,672936,0
123,-1,690957,237570,1288068,70860,7278,643514,0
123,3,767858,268698,1392671,79515,9259,695905,0
123,-1,637972,218607,1224733,65504,7388,611620,0
123,-1,646523,220510,1342440,66625,8627,670556,0
123,-1,635689,219025,1284257,65851,7263,641650,0
123,3,713865,249385,1475217,74098,9476,737170,0
123,-1,640124,220026,1274421,66146,7867,636848,0
123,-1,640360,221386,1465696,66638,8946,731921,0
123,-1,642154,219152,1305646,65877,8808,652463,0
123,-1,642523,219125,1318974,65679,8296,659164,0
123,3,708352,248310,1472643,74093,9078,736148,0
123,-1,639829,219216,1287499,65225,7539,643385,0
123,-1,639784,219177,1318695,66266,7973,658972,0
123,-1,664306,223478,1416082,69349,8930,707391,0
123,-1,641730,219971,1334050,66426,8411,666583,0
123,3,715075,249876,1372681,74587,8455,685931,0
124,-1,694812,239052,1517523,71513,9068,757847,0
124,3,763072,266625,1550191,78766,10147,774683,0
124,-1,637603,218666,1199242,65756,7337,598812,0
124,-1,640494,218550,1396719,65782,7977,698136,0
124,-1,636893,219855,1327506,66135,7225,663335,0
124,3,713456,248989,1294730,73944,8905,646904,0
124,-1,643153,221653,1291372,67016,8486,645043,0
124,-1,648233,220151,1330527,65972,7985,664780,0
124,-1,641964,219669,1327087,66171,7982,663143,0
124,-1,644404,219161,1572182,65784,9307,785270,0
124,3,707556,248536,1512612,74184,10219,755324,0
124,-1,639663,219722,1221826,65436,7311,610482,0
124,-1,638518,219464,1269844,66350,7429,634479,0
124,-1,643806,219593,1224307,66181,6893,611850,0
124,3,714991,249389,1362118,74418,9207,680703,0
124,-1,647011,220936,1306279,66994,9045,652554,0
125,-1,689557,237406,1399413,70784,8248,699270,0
125,3,761165,267115,1426919,78934,8639,713019,0
125,-1,642284,220500,1444735,66523,8819,721832,0
125,-1,640755,218835,1392395,65869,8126,695787,0
125,-1,639430,219389,1289387,65946,7573,644214,0
125,3,714492,250081,1399609,74498,9190,699307,0
125,-1,638320,219547,1461520,66029,9376,730318,0
125,-1,668664,224826,1298164,69355,8518,648654,0
125,-1,641596,219283,1304590,65910,7321,651810,0
125,-1,643371,219101,1257400,65677,8180,628380,0
125,3,727824,251779,1490827,77178,9849,744550,0
125,-1,639592,220157,1239983,65775,6880,619360,0
125,-1,643621,220142,1168325,66751,8178,583534,0
125,-1,641053,218883,1318963,65998,7653,659148,0
125,-1,642388,220023,1297161,66434,8371,648290,0
125,3,710441,248025,1433728,73937,9176,716567,0
126,-1,688586,236964,1238984,70559,8194,619157,0
126,3,767892,269185,1643595,79820,10403,821269,0
126,-1,639245,218888,1327914,65792,7799,663611,0
126,-1,643107,219306,1242554,66026,8397,621000,0
126,-1,642605,220788,1305385,66617,8464,652070,0
126,3,712253,249034,1364153,73940,10431,681655,0
126,-1,636177,219170,1322945,65837,8222,661006,0
126,-1,648371,220891,1300272,66295,8267,649703,0
126,-1,640357,219273,1267269,65908,7559,633083,0
126,-1,662433,223849,1322891,69056,8560,661068,0
126,3,709945,248773,1433874,74364,9255,716547,0
126,-1,635772,219202,1544747,65244,8031,772146,0
126,-1,641217,218859,1256231,66156,8896,627727,0
126,-1,643370,220038,1258406,66495,6864,628685,0
126,3,715178,248558,1359732,74032,9126,679542,0
126,-1,640970,219655,1320573,66332,8626,660061,0
127,3,753685,264757,1344662,78139,9038,671931,0
127,-1,689876,237793,1266577,70929,8774,632840,0
127,-1,637047,218267,1254777,65523,7193,627109,0
127,-1,646331,220981,1329364,66879,8832,664035,0
127,-1,638256,219315,1200571,65934,6907,599999,0
127,3,709821,249152,1413185,74127,9001,706154,0
127,-1,639456,220463,1371582,66552,8203,685127,0
127,-1,645963,220051,1228410,65980,7698,613812,0
127,-1,641098,219211,1300419,65851,7798,649904,0
127,-1,645676,220915,1293462,66436,8428,646237,0
127,3,710007,248860,1352590,74325,8345,675944,0
127,-1,637140,219411,1315372,65313,7433,657237,0
127,-1,641389,218825,1213730,66087,8378,606503,0
127,-1,642214,218494,1251628,65960,7246,625488,0
127,3,713725,248723,1605267,74129,9823,802196,0
127,-1,642772,220433,1236448,66638,7423,617889,0
