0,0,119,672012.319328,231995.201681,1325639.504202,69694.857143,8439.512605,662262.310924,10612.439332,3294.809112,69615.604346,1296.894003,618.217373,34787.240625
0,1,0,-nan,-nan,-nan,-nan,-nan,-nan,-nan,-nan,-nan,-nan,-nan,-nan
1,0,118,671543.991525,231751.745763,1313581.923729,69611.728814,8456.067797,656235.694915,10104.163349,2955.909660,62248.043773,1215.854005,622.475780,31090.827800
1,1,0,-nan,-nan,-nan,-nan,-nan,-nan,-nan,-nan,-nan,-nan,-nan,-nan
2,0,118,672012.881356,231972.813559,1321589.110169,69679.093220,8456.737288,660223.211864,10084.374446,2989.344418,67854.180331,1212.089819,650.909721,33934.830276
2,1,0,-nan,-nan,-nan,-nan,-nan,-nan,-nan,-nan,-nan,-nan,-nan,-nan
3,0,118,670991.813559,231607.830508,1318637.440678,69551.779661,8487.771186,658728.313559,8355.102648,2262.195005,57769.042905,1055.173037,649.200831,28856.347001
3,1,0,-nan,-nan,-nan,-nan,-nan,-nan,-nan,-nan,-nan,-nan,-nan,-nan
4,0,119,671748.798319,231688.949580,1310238.722689,69627.411765,8453.218487,654531.840336,9698.514603,2539.234344,65737.850023,1251.339957,588.056908,32813.889089
4,1,0,-nan,-nan,-nan,-nan,-nan,-nan,-nan,-nan,-nan,-nan,-nan,-nan
5,0,119,672791.042017,232027.857143,1314574.025210,69800.050420,8490.487395,656725.848739,9936.191002,2718.739789,75207.888282,1336.193728,657.249411,37584.005579
5,1,0,-nan,-nan,-nan,-nan,-nan,-nan,-nan,-nan,-nan,-nan,-nan,-nan
6,0,119,672324.537815,231905.815126,1316686.075630,69784.025210,8539.966387,657768.504202,9978.262479,2646.277544,65143.462913,1314.704392,600.968154,32536.251148
6,1,0,-nan,-nan,-nan,-nan,-nan,-nan,-nan,-nan,-nan,-nan,-nan,-nan
7,0,119,672184.319328,231788.932773,1310958.613445,69737.731092,8446.025210,654928.176471,9336.704975,2466.989833,64565.979097,1309.458023,691.375787,32266.191976
7,1,0,-nan,-nan,-nan,-nan,-nan,-nan,-nan,-nan,-nan,-nan,-nan,-nan
8,0,119,671800.294118,231831.672269,1316161.789916,69697.260504,8435.689076,657483.394958,9348.950882,2601.880665,67523.773759,1227.891282,591.771117,33718.123415
8,1,0,-nan,-nan,-nan,-nan,-nan,-nan,-nan,-nan,-nan,-nan,-nan,-nan
9,0,119,671147.361345,231783.638655,1319325.747899,69602.831933,8427.689076,659057.386555,8951.397197,2647.886932,71039.930757,1127.878460,668.819903,35479.877633
9,1,0,-nan,-nan,-nan,-nan,-nan,-nan,-nan,-nan,-nan,-nan,-nan,-nan
10,0,119,671540.075630,231678.285714,1322421.411765,69632.798319,8432.563025,660676.294118,9722.905145,2765.968459,64630.055429,1237.586528,658.493731,32289.277544
10,1,0,-nan,-nan,-nan,-nan,-nan,-nan,-nan,-nan,-nan,-nan,-nan,-nan
11,0,119,671073.941176,231743.714286,1313300.823529,69552.823529,8448.873950,656044.731092,8580.578274,2610.226695,59108.183911,973.741995,567.701877,29518.624348
11,1,0,-nan,-nan,-nan,-nan,-nan,-nan,-nan,-nan,-nan,-nan,-nan,-nan
12,0,119,673436.605042,232195.512605,1323509.907563,69855.369748,8466.907563,661191.890756,12947.887472,3776.964814,62930.030213,1565.096871,586.068599,31456.370171
12,1,0,-nan,-nan,-nan,-nan,-nan,-nan,-nan,-nan,-nan,-nan,-nan,-nan
13,0,119,672292.882353,231971.285714,1319849.680672,69730.042017,8426.680672,659345.663866,10960.287189,3185.729945,63888.605022,1394.435197,680.202601,31933.338553
13,1,0,-nan,-nan,-nan,-nan,-nan,-nan,-nan,-nan,-nan,-nan,-nan,-nan
14,0,119,671930.100840,231855.369748,1323096.084034,69642.327731,8481.621849,661008.739496,9705.392968,2899.714439,74169.211934,1198.114815,671.348549,37079.476649
14,1,0,-nan,-nan,-nan,-nan,-nan,-nan,-nan,-nan,-nan,-nan,-nan,-nan
15,0,239,670296.422594,231710.841004,1311117.991632,69592.581590,8389.920502,654948.133891,8329.331043,2352.110236,63633.025121,1026.918957,593.715418,31813.804489
15,1,0,-nan,-nan,-nan,-nan,-nan,-nan,-nan,-nan,-nan,-nan,-nan,-nan
