0,0,9,657096.888889,224348.000000,1270924.333333,67827.333333,8150.000000,635442.333333,25405.949992,8189.880857,81992.928702,2648.556924,454.406328,40981.587923
0,1,0,-nan,-nan,-nan,-nan,-nan,-nan,-nan,-nan,-nan,-nan,-nan,-nan
1,0,8,640236.375000,219165.500000,1299482.250000,65965.000000,8121.375000,649688.125000,2773.167635,870.157457,54598.546106,359.799944,656.864510,27277.804005
1,1,0,-nan,-nan,-nan,-nan,-nan,-nan,-nan,-nan,-nan,-nan,-nan,-nan
2,0,8,643710.750000,220114.500000,1284183.500000,66547.000000,7842.875000,642063.750000,6305.832494,1779.475063,71518.943767,1116.892228,535.753777,35720.173385
2,1,0,-nan,-nan,-nan,-nan,-nan,-nan,-nan,-nan,-nan,-nan,-nan,-nan
3,0,8,642521.875000,219921.625000,1322070.750000,66286.375000,8221.500000,660901.375000,2363.993784,723.825762,111556.995920,545.518775,979.014428,55610.999085
3,1,0,-nan,-nan,-nan,-nan,-nan,-nan,-nan,-nan,-nan,-nan,-nan,-nan
4,0,8,645028.750000,220572.000000,1279965.875000,66751.250000,8011.500000,639925.500000,7900.531671,1614.153571,51523.271321,1127.309380,662.375649,25850.322865
4,1,0,-nan,-nan,-nan,-nan,-nan,-nan,-nan,-nan,-nan,-nan,-nan,-nan
5,0,8,639913.875000,219289.375000,1285956.500000,66043.375000,7552.625000,642937.500000,3121.509428,657.791558,67614.879696,326.378974,534.595159,33836.703744
5,1,0,-nan,-nan,-nan,-nan,-nan,-nan,-nan,-nan,-nan,-nan,-nan,-nan
6,0,8,642164.750000,219913.250000,1257004.250000,66307.875000,7565.125000,628504.625000,4427.811049,927.426648,49982.994875,353.818258,402.536780,24983.864383
6,1,0,-nan,-nan,-nan,-nan,-nan,-nan,-nan,-nan,-nan,-nan,-nan,-nan
7,0,8,642591.625000,219971.000000,1285767.500000,66514.250000,7826.375000,642847.375000,7368.545038,1752.024115,87043.121410,1137.218509,867.921790,43542.686386
7,1,0,-nan,-nan,-nan,-nan,-nan,-nan,-nan,-nan,-nan,-nan,-nan,-nan
8,0,8,640967.750000,219382.125000,1297678.500000,66099.125000,7901.000000,648821.250000,3058.200605,1166.375844,40487.230277,407.667584,453.653778,20231.743806
8,1,0,-nan,-nan,-nan,-nan,-nan,-nan,-nan,-nan,-nan,-nan,-nan,-nan
9,0,8,642191.000000,219885.000000,1281809.625000,66299.250000,7855.625000,640891.500000,3550.078626,597.731754,66828.343521,322.328540,319.010163,33408.319196
9,1,0,-nan,-nan,-nan,-nan,-nan,-nan,-nan,-nan,-nan,-nan,-nan,-nan
10,0,8,643918.250000,219827.875000,1268835.250000,66448.125000,7905.875000,634427.875000,7172.518643,1576.336610,53351.451889,1109.653486,503.679818,26642.946226
10,1,0,-nan,-nan,-nan,-nan,-nan,-nan,-nan,-nan,-nan,-nan,-nan,-nan
11,0,8,644166.500000,220290.875000,1296971.375000,66479.375000,7865.750000,648508.750000,2676.883076,1283.716133,91649.226588,536.518391,332.533363,45812.060660
11,1,0,-nan,-nan,-nan,-nan,-nan,-nan,-nan,-nan,-nan,-nan,-nan,-nan
12,0,8,643826.500000,219908.250000,1272679.625000,66478.750000,8073.250000,636292.250000,5656.135165,1338.235289,50846.706019,1053.659427,573.112936,25405.320647
12,1,0,-nan,-nan,-nan,-nan,-nan,-nan,-nan,-nan,-nan,-nan,-nan,-nan
13,0,8,644293.875000,220027.500000,1282205.875000,66536.375000,8177.000000,641097.375000,7605.354125,1603.589723,113718.152738,1076.341946,802.794961,56835.253549
13,1,0,-nan,-nan,-nan,-nan,-nan,-nan,-nan,-nan,-nan,-nan,-nan,-nan
14,0,8,644418.375000,220060.625000,1286594.750000,66558.375000,8174.875000,643289.750000,6673.003296,1532.396810,97452.463636,1011.076770,761.356920,48672.419009
14,1,0,-nan,-nan,-nan,-nan,-nan,-nan,-nan,-nan,-nan,-nan,-nan,-nan
15,0,8,643450.750000,219733.125000,1254578.500000,66445.750000,8010.000000,627311.750000,7292.340515,1845.246151,56401.610201,1122.841680,657.469581,28221.351291
15,1,0,-nan,-nan,-nan,-nan,-nan,-nan,-nan,-nan,-nan,-nan,-nan,-nan
16,0,8,641430.625000,219396.875000,1253738.500000,66118.125000,8096.375000,626797.750000,2790.568085,632.908058,80735.211522,271.575237,629.365144,40399.669651
16,1,0,-nan,-nan,-nan,-nan,-nan,-nan,-nan,-nan,-nan,-nan,-nan,-nan
17,0,8,649478.125000,221302.875000,1269883.500000,67345.250000,7891.750000,634870.750000,9910.470214,2004.845096,41886.546468,1517.886256,761.979453,20927.947867
17,1,0,-nan,-nan,-nan,-nan,-nan,-nan,-nan,-nan,-nan,-nan,-nan,-nan
18,0,8,647347.375000,220802.250000,1243029.125000,67082.750000,7948.625000,621451.125000,8482.062263,2355.238032,50789.162721,1531.076970,345.434848,25392.579912
18,1,0,-nan,-nan,-nan,-nan,-nan,-nan,-nan,-nan,-nan,-nan,-nan,-nan
19,0,8,640635.125000,219247.000000,1252680.250000,66065.000000,7889.875000,626328.750000,2804.239355,819.080887,81803.884596,296.658895,278.560782,40934.194086
19,1,0,-nan,-nan,-nan,-nan,-nan,-nan,-nan,-nan,-nan,-nan,-nan,-nan
20,0,8,643061.750000,220004.750000,1312751.750000,66415.875000,8142.125000,656305.250000,2593.752000,999.826329,104077.085721,435.881703,902.621382,51966.405390
20,1,0,-nan,-nan,-nan,-nan,-nan,-nan,-nan,-nan,-nan,-nan,-nan,-nan
21,0,8,641584.625000,219491.375000,1260123.250000,66154.625000,8042.750000,630042.250000,3148.270157,990.193660,48118.982989,429.078937,340.386453,24088.917757
21,1,0,-nan,-nan,-nan,-nan,-nan,-nan,-nan,-nan,-nan,-nan,-nan,-nan
22,0,8,641216.250000,219236.750000,1244550.500000,66013.250000,7733.000000,622329.000000,3167.118318,719.911409,64215.750632,369.411271,448.907563,32114.506800
22,1,0,-nan,-nan,-nan,-nan,-nan,-nan,-nan,-nan,-nan,-nan,-nan,-nan
23,0,8,646431.250000,220446.125000,1310271.000000,66737.375000,8379.625000,655045.625000,6120.353559,1427.008010,65997.069954,1147.102103,758.446593,32845.795412
23,1,0,-nan,-nan,-nan,-nan,-nan,-nan,-nan,-nan,-nan,-nan,-nan,-nan
24,0,8,653100.000000,222523.750000,1262464.000000,67783.500000,7946.375000,631190.375000,16999.507758,4142.491543,75602.429850,2156.048701,799.737291,37780.844716
24,1,0,-nan,-nan,-nan,-nan,-nan,-nan,-nan,-nan,-nan,-nan,-nan,-nan
25,0,8,641805.375000,219651.875000,1273532.875000,66252.375000,7839.750000,636733.250000,2652.382322,687.022459,50491.812478,419.600684,252.253221,25265.647230
25,1,0,-nan,-nan,-nan,-nan,-nan,-nan,-nan,-nan,-nan,-nan,-nan,-nan
26,0,8,641336.125000,219384.125000,1275927.125000,66081.750000,7912.500000,637934.500000,1745.205463,579.746591,101675.105664,280.951397,393.820391,50858.748581
26,1,0,-nan,-nan,-nan,-nan,-nan,-nan,-nan,-nan,-nan,-nan,-nan,-nan
27,0,8,642581.125000,219960.250000,1295633.500000,66350.500000,8528.250000,647833.000000,3668.346270,877.982453,76053.781155,342.286065,511.126146,38034.202410
27,1,0,-nan,-nan,-nan,-nan,-nan,-nan,-nan,-nan,-nan,-nan,-nan,-nan
28,0,8,644598.125000,220652.250000,1274181.875000,66518.875000,8038.750000,637008.875000,8528.913800,3284.102341,121651.059119,1026.145511,714.132122,60828.721885
28,1,0,-nan,-nan,-nan,-nan,-nan,-nan,-nan,-nan,-nan,-nan,-nan,-nan
29,0,8,646368.375000,220861.375000,1254072.750000,67081.125000,8199.625000,626990.250000,9625.122700,1828.147419,64741.789073,1402.046490,556.839056,32370.504579
29,1,0,-nan,-nan,-nan,-nan,-nan,-nan,-nan,-nan,-nan,-nan,-nan,-nan
30,0,8,647154.500000,221308.125000,1314160.125000,66951.500000,8163.375000,657054.250000,9865.972088,3037.195723,70308.443774,1308.181945,660.819555,35204.471860
30,1,0,-nan,-nan,-nan,-nan,-nan,-nan,-nan,-nan,-nan,-nan,-nan,-nan
31,0,8,644052.750000,220331.500000,1291199.375000,66625.375000,7976.750000,645526.125000,7201.941262,1506.212053,65665.004919,902.197170,577.277176,32702.977446
31,1,0,-nan,-nan,-nan,-nan,-nan,-nan,-nan,-nan,-nan,-nan,-nan,-nan
32,0,8,645256.125000,219989.375000,1297124.875000,66702.375000,8120.500000,648569.375000,10841.151258,2021.076318,72205.046789,1583.042398,559.088320,36085.297168
32,1,0,-nan,-nan,-nan,-nan,-nan,-nan,-nan,-nan,-nan,-nan,-nan,-nan
33,0,8,641691.625000,219992.750000,1266094.125000,66352.500000,7661.250000,633005.250000,2180.192763,941.024010,41054.867840,429.944473,404.290660,20509.596009
33,1,0,-nan,-nan,-nan,-nan,-nan,-nan,-nan,-nan,-nan,-nan,-nan,-nan
34,0,8,642376.875000,219843.250000,1239753.625000,66459.875000,7747.375000,619867.875000,7002.394295,1598.403012,52900.576632,1087.138266,424.043906,26434.049749
34,1,0,-nan,-nan,-nan,-nan,-nan,-nan,-nan,-nan,-nan,-nan,-nan,-nan
35,0,8,646617.875000,221128.500000,1270907.500000,66849.375000,8071.625000,635438.000000,9100.914287,3373.780039,59053.399972,1313.869946,320.354467,29548.227341
35,1,0,-nan,-nan,-nan,-nan,-nan,-nan,-nan,-nan,-nan,-nan,-nan,-nan
36,0,8,642090.750000,219786.375000,1291399.375000,66253.625000,8306.500000,645555.375000,2739.139589,943.543711,90087.142003,519.278571,1244.890256,44840.227845
36,1,0,-nan,-nan,-nan,-nan,-nan,-nan,-nan,-nan,-nan,-nan,-nan,-nan
37,0,8,640389.625000,219472.750000,1261022.250000,66102.375000,7766.250000,630424.250000,3381.203814,727.442223,60853.860617,370.479398,559.515583,30417.719309
37,1,0,-nan,-nan,-nan,-nan,-nan,-nan,-nan,-nan,-nan,-nan,-nan,-nan
38,0,8,645478.500000,220469.500000,1264169.000000,66712.750000,7990.625000,632096.250000,7626.849808,1629.147937,49841.462070,1005.602525,591.665644,25000.437585
38,1,0,-nan,-nan,-nan,-nan,-nan,-nan,-nan,-nan,-nan,-nan,-nan,-nan
39,0,8,642217.750000,219566.625000,1272003.125000,66114.875000,7714.500000,635916.625000,2524.980978,842.622979,31703.089934,429.599359,539.983565,15903.002224
39,1,0,-nan,-nan,-nan,-nan,-nan,-nan,-nan,-nan,-nan,-nan,-nan,-nan
40,0,8,644869.875000,220022.125000,1255979.375000,66520.875000,7841.375000,627958.625000,8086.714343,1470.178768,55035.855896,894.093177,675.316581,27496.691783
40,1,0,-nan,-nan,-nan,-nan,-nan,-nan,-nan,-nan,-nan,-nan,-nan,-nan
41,0,8,644862.375000,220279.625000,1283452.500000,66581.625000,7922.250000,641668.000000,7974.731045,1711.849945,104711.691980,1248.082122,640.142709,52393.251672
41,1,0,-nan,-nan,-nan,-nan,-nan,-nan,-nan,-nan,-nan,-nan,-nan,-nan
42,0,8,643987.875000,220036.000000,1267807.750000,66478.750000,7904.250000,633916.875000,8391.945892,1626.637560,49880.912501,1219.693788,701.628775,24919.547641
42,1,0,-nan,-nan,-nan,-nan,-nan,-nan,-nan,-nan,-nan,-nan,-nan,-nan
43,0,8,648824.250000,221879.500000,1338837.750000,67162.500000,8161.000000,669276.625000,10964.540320,3814.972903,77812.195278,1477.462774,932.223820,38809.087248
43,1,0,-nan,-nan,-nan,-nan,-nan,-nan,-nan,-nan,-nan,-nan,-nan,-nan
44,0,8,645152.375000,220620.625000,1262993.375000,66725.125000,8016.875000,631517.375000,7486.604319,1838.066915,65866.833162,1072.541192,728.995445,32882.643062
44,1,0,-nan,-nan,-nan,-nan,-nan,-nan,-nan,-nan,-nan,-nan,-nan,-nan
45,0,8,648038.875000,220799.125000,1282570.625000,67034.500000,8103.875000,641282.875000,9924.892637,1960.264678,61916.139594,1375.312964,1070.889635,31005.834009
45,1,0,-nan,-nan,-nan,-nan,-nan,-nan,-nan,-nan,-nan,-nan,-nan,-nan
46,0,8,645830.500000,220684.125000,1330353.000000,66786.375000,8212.125000,665155.375000,6319.811310,1826.624855,34865.475857,1054.641045,404.650602,17461.271918
46,1,0,-nan,-nan,-nan,-nan,-nan,-nan,-nan,-nan,-nan,-nan,-nan,-nan
47,0,8,645498.750000,220453.125000,1259886.125000,66683.125000,8063.500000,629922.750000,7758.395449,1680.088200,32090.057555,1182.934216,621.035426,16131.246246
47,1,0,-nan,-nan,-nan,-nan,-nan,-nan,-nan,-nan,-nan,-nan,-nan,-nan
48,0,8,645656.375000,220394.750000,1287921.500000,66649.625000,8022.125000,643904.500000,6593.745729,1729.533373,70038.562892,1172.230239,729.475229,35004.360814
48,1,0,-nan,-nan,-nan,-nan,-nan,-nan,-nan,-nan,-nan,-nan,-nan,-nan
49,0,8,641451.875000,219811.250000,1278004.500000,66199.500000,7744.250000,638940.000000,3017.505321,639.312473,59473.667812,230.264522,354.174657,29694.688881
49,1,0,-nan,-nan,-nan,-nan,-nan,-nan,-nan,-nan,-nan,-nan,-nan,-nan
50,0,8,645326.125000,221113.500000,1296503.750000,66636.500000,7960.000000,648228.250000,8262.471323,3032.072435,93600.038353,947.951080,619.287292,46758.582343
50,1,0,-nan,-nan,-nan,-nan,-nan,-nan,-nan,-nan,-nan,-nan,-nan,-nan
51,0,8,642554.125000,219861.875000,1267085.500000,66241.000000,7947.250000,633517.500000,1567.774572,972.934535,70597.260659,506.536030,500.349815,35338.425011
51,1,0,-nan,-nan,-nan,-nan,-nan,-nan,-nan,-nan,-nan,-nan,-nan,-nan
52,0,8,643699.625000,220117.125000,1262266.625000,66538.625000,7955.750000,631153.875000,5851.501921,1743.635028,71949.392374,1108.515893,559.591090,35972.478697
52,1,0,-nan,-nan,-nan,-nan,-nan,-nan,-nan,-nan,-nan,-nan,-nan,-nan
53,0,8,647286.625000,221752.875000,1249029.250000,66737.125000,7974.875000,624485.750000,12746.226941,4350.229231,51945.713059,1383.398662,412.532556,25961.828151
53,1,0,-nan,-nan,-nan,-nan,-nan,-nan,-nan,-nan,-nan,-nan,-nan,-nan
54,0,8,645450.625000,220699.375000,1230954.250000,66764.625000,8025.375000,615417.625000,7965.100563,1707.398894,61190.693683,1040.385138,394.796763,30586.558457
54,1,0,-nan,-nan,-nan,-nan,-nan,-nan,-nan,-nan,-nan,-nan,-nan,-nan
55,0,8,646452.875000,220615.500000,1249588.000000,66871.125000,8323.375000,624778.250000,9376.954749,1941.541012,59839.612277,1461.305704,664.455969,29966.134071
55,1,0,-nan,-nan,-nan,-nan,-nan,-nan,-nan,-nan,-nan,-nan,-nan,-nan
56,0,8,643220.500000,219967.500000,1254644.500000,66424.000000,7976.750000,627311.750000,7672.862390,1845.072966,43278.030700,1307.354294,761.225451,21661.487471
56,1,0,-nan,-nan,-nan,-nan,-nan,-nan,-nan,-nan,-nan,-nan,-nan,-nan
57,0,8,642280.625000,220069.250000,1219198.875000,66272.250000,8055.250000,609582.875000,3011.558896,748.046915,42514.272493,283.296995,380.130816,21314.155457
57,1,0,-nan,-nan,-nan,-nan,-nan,-nan,-nan,-nan,-nan,-nan,-nan,-nan
58,0,8,643302.125000,220193.625000,1249845.500000,66467.375000,7904.125000,624868.750000,6526.965517,1658.384902,65686.510162,1105.445039,741.505300,32730.139733
58,1,0,-nan,-nan,-nan,-nan,-nan,-nan,-nan,-nan,-nan,-nan,-nan,-nan
59,0,8,645018.500000,220714.500000,1267829.750000,66686.875000,8043.625000,633947.125000,7425.331508,1542.661256,80552.432724,1070.080071,395.634597,40305.653789
59,1,0,-nan,-nan,-nan,-nan,-nan,-nan,-nan,-nan,-nan,-nan,-nan,-nan
60,0,8,642479.250000,219993.125000,1298620.250000,66397.250000,7838.750000,649337.875000,8939.921249,1894.347344,85477.355018,1299.144406,608.083824,42710.957237
60,1,0,-nan,-nan,-nan,-nan,-nan,-nan,-nan,-nan,-nan,-nan,-nan,-nan
61,0,8,641965.125000,219884.250000,1289010.625000,66212.000000,7950.375000,644508.125000,2590.802262,704.479373,72163.738721,492.082056,595.204154,36058.467897
61,1,0,-nan,-nan,-nan,-nan,-nan,-nan,-nan,-nan,-nan,-nan,-nan,-nan
62,0,8,650493.625000,221938.500000,1314279.000000,67600.875000,8318.750000,657096.375000,8940.982649,1660.741627,62741.602229,1344.358531,535.067227,31377.667257
62,1,0,-nan,-nan,-nan,-nan,-nan,-nan,-nan,-nan,-nan,-nan,-nan,-nan
63,0,8,642006.750000,219754.250000,1241498.250000,66141.375000,8039.125000,620611.000000,3214.453987,798.125578,47502.694397,345.309259,313.889088,23703.332218
63,1,0,-nan,-nan,-nan,-nan,-nan,-nan,-nan,-nan,-nan,-nan,-nan,-nan
64,0,8,645283.625000,220422.375000,1283341.500000,66587.125000,8504.375000,641610.750000,9196.386491,1874.521535,65778.973194,1264.895988,576.922208,32866.321698
64,1,0,-nan,-nan,-nan,-nan,-nan,-nan,-nan,-nan,-nan,-nan,-nan,-nan
65,0,8,641586.500000,219784.500000,1278489.250000,66184.250000,8289.875000,639103.000000,5157.917530,1062.696923,44171.577713,552.946143,984.405587,22005.586075
65,1,0,-nan,-nan,-nan,-nan,-nan,-nan,-nan,-nan,-nan,-nan,-nan,-nan
66,0,8,643981.375000,220164.875000,1279168.375000,66298.875000,8278.750000,639469.375000,3403.358890,751.032862,80079.128785,346.649116,565.751878,39913.414261
66,1,0,-nan,-nan,-nan,-nan,-nan,-nan,-nan,-nan,-nan,-nan,-nan,-nan
67,0,8,653581.625000,222549.875000,1283573.750000,67698.875000,8606.000000,641745.250000,16097.496257,4358.966318,67508.183442,1956.826477,538.837638,33695.108261
67,1,0,-nan,-nan,-nan,-nan,-nan,-nan,-nan,-nan,-nan,-nan,-nan,-nan
68,0,8,642457.875000,219665.375000,1277210.375000,66092.625000,8143.375000,638548.625000,2779.836391,668.783586,69845.526968,295.344264,419.530374,34896.922969
68,1,0,-nan,-nan,-nan,-nan,-nan,-nan,-nan,-nan,-nan,-nan,-nan,-nan
69,0,8,642179.375000,219806.875000,1254823.750000,66189.875000,8083.875000,627307.125000,1912.986927,666.235964,65148.783561,388.188240,365.317478,32503.293804
69,1,0,-nan,-nan,-nan,-nan,-nan,-nan,-nan,-nan,-nan,-nan,-nan,-nan
70,0,8,644988.500000,220158.625000,1287584.750000,66527.375000,8254.875000,643770.000000,8390.064779,1649.013943,110439.957995,1245.262115,642.177047,55243.048203
70,1,0,-nan,-nan,-nan,-nan,-nan,-nan,-nan,-nan,-nan,-nan,-nan,-nan
71,0,8,643493.750000,220005.875000,1333429.750000,66281.000000,8175.625000,666709.125000,3237.246004,921.367114,67070.311584,423.651685,619.898769,33489.634002
71,1,0,-nan,-nan,-nan,-nan,-nan,-nan,-nan,-nan,-nan,-nan,-nan,-nan
72,0,8,643985.500000,220282.750000,1349917.000000,66508.750000,8564.375000,674830.000000,8957.406279,1750.109550,161398.135591,1227.329291,1575.058883,80587.836193
72,1,0,-nan,-nan,-nan,-nan,-nan,-nan,-nan,-nan,-nan,-nan,-nan,-nan
73,0,8,643739.500000,220348.750000,1276668.500000,66513.875000,7935.125000,638323.125000,7604.622114,1680.879662,76371.283761,1080.790733,377.240122,38217.492155
73,1,0,-nan,-nan,-nan,-nan,-nan,-nan,-nan,-nan,-nan,-nan,-nan,-nan
74,0,8,641199.125000,219909.750000,1268525.250000,66159.750000,7901.875000,634182.750000,4219.157186,986.129524,56212.460079,505.873687,593.384875,28140.430539
74,1,0,-nan,-nan,-nan,-nan,-nan,-nan,-nan,-nan,-nan,-nan,-nan,-nan
75,0,8,640432.375000,219684.375000,1247177.875000,66105.875000,7825.500000,623605.375000,3531.396110,967.670907,70295.916072,652.177974,471.917631,35158.170274
75,1,0,-nan,-nan,-nan,-nan,-nan,-nan,-nan,-nan,-nan,-nan,-nan,-nan
76,0,8,646817.000000,221176.250000,1282317.500000,67166.500000,8236.625000,641095.375000,8454.677788,1730.903720,78071.230264,1363.178913,254.523544,39102.977342
76,1,0,-nan,-nan,-nan,-nan,-nan,-nan,-nan,-nan,-nan,-nan,-nan,-nan
77,0,8,644567.000000,220242.500000,1257054.875000,66580.375000,8051.375000,628519.750000,7316.067455,1605.585174,44026.582099,1022.250818,617.180674,22009.763116
77,1,0,-nan,-nan,-nan,-nan,-nan,-nan,-nan,-nan,-nan,-nan,-nan,-nan
78,0,8,646667.000000,220656.750000,1272695.875000,66961.250000,8096.250000,636377.375000,10551.032141,2378.541557,58626.291072,1581.581467,568.354148,29315.795593
78,1,0,-nan,-nan,-nan,-nan,-nan,-nan,-nan,-nan,-nan,-nan,-nan,-nan
79,0,8,645199.875000,220618.500000,1268574.875000,66804.750000,8137.500000,634252.625000,6523.804880,1542.197620,64658.831921,991.144509,493.712467,32280.644909
79,1,0,-nan,-nan,-nan,-nan,-nan,-nan,-nan,-nan,-nan,-nan,-nan,-nan
80,0,8,642974.375000,220127.625000,1269177.625000,66375.125000,7903.375000,634572.375000,3571.288176,922.552294,42801.031649,338.978405,426.337876,21443.263656
80,1,0,-nan,-nan,-nan,-nan,-nan,-nan,-nan,-nan,-nan,-nan,-nan,-nan
81,0,8,644083.000000,219968.125000,1299750.375000,66489.500000,7979.750000,649832.375000,7085.072830,1675.763590,59048.620663,1037.598790,434.986710,29490.687085
81,1,0,-nan,-nan,-nan,-nan,-nan,-nan,-nan,-nan,-nan,-nan,-nan,-nan
82,0,8,641361.000000,219630.125000,1229863.250000,66217.250000,7742.250000,614958.125000,3101.034263,757.606830,88885.202505,445.338004,294.564403,44469.165807
82,1,0,-nan,-nan,-nan,-nan,-nan,-nan,-nan,-nan,-nan,-nan,-nan,-nan
83,0,8,644940.750000,220369.750000,1296197.500000,66642.250000,7973.250000,648008.375000,7809.286423,2120.826121,62823.974409,1196.611649,371.346452,31365.428149
83,1,0,-nan,-nan,-nan,-nan,-nan,-nan,-nan,-nan,-nan,-nan,-nan,-nan
84,0,8,646076.875000,220634.500000,1325596.125000,66939.250000,8476.250000,662731.125000,7756.832640,1865.016957,73312.082248,1299.924205,525.624093,36621.119591
84,1,0,-nan,-nan,-nan,-nan,-nan,-nan,-nan,-nan,-nan,-nan,-nan,-nan
85,0,8,645737.625000,220649.625000,1339090.500000,66766.000000,8032.875000,669427.000000,8039.110211,1764.363904,106964.461784,1280.256224,723.111754,53329.106827
85,1,0,-nan,-nan,-nan,-nan,-nan,-nan,-nan,-nan,-nan,-nan,-nan,-nan
86,0,8,644230.250000,220487.625000,1322785.000000,66710.500000,8268.375000,661307.750000,6400.651056,1405.398603,65803.923282,941.202821,648.263052,32958.560939
86,1,0,-nan,-nan,-nan,-nan,-nan,-nan,-nan,-nan,-nan,-nan,-nan,-nan
87,0,8,649051.625000,221225.125000,1308921.500000,67190.750000,8372.375000,654466.875000,8248.448717,1724.350924,63855.091743,1273.824532,366.522488,31932.115470
87,1,0,-nan,-nan,-nan,-nan,-nan,-nan,-nan,-nan,-nan,-nan,-nan,-nan
88,0,8,645432.875000,220496.375000,1260866.125000,66724.625000,7937.125000,630309.625000,7299.772196,1555.449287,47477.316161,1023.679630,203.679551,23542.176949
88,1,0,-nan,-nan,-nan,-nan,-nan,-nan,-nan,-nan,-nan,-nan,-nan,-nan
89,0,8,642756.875000,219592.125000,1322051.875000,66170.500000,8189.500000,661020.750000,3105.285794,1221.788590,74301.201749,428.965616,386.084511,37211.377513
89,1,0,-nan,-nan,-nan,-nan,-nan,-nan,-nan,-nan,-nan,-nan,-nan,-nan
90,0,8,647716.750000,220789.250000,1265030.250000,66999.125000,8082.250000,632534.625000,8956.332212,1680.824333,68132.874576,1318.850109,526.620060,34098.269384
90,1,0,-nan,-nan,-nan,-nan,-nan,-nan,-nan,-nan,-nan,-nan,-nan,-nan
91,0,8,645186.500000,220367.750000,1244698.250000,66645.625000,7860.125000,622344.875000,8743.870367,1934.991457,39533.611724,1258.667047,609.038471,19748.541025
91,1,0,-nan,-nan,-nan,-nan,-nan,-nan,-nan,-nan,-nan,-nan,-nan,-nan
92,0,8,642417.500000,219879.375000,1267440.375000,66257.250000,8042.125000,633721.750000,2691.482723,787.033662,58421.833481,289.024977,437.195448,29219.421699
92,1,0,-nan,-nan,-nan,-nan,-nan,-nan,-nan,-nan,-nan,-nan,-nan,-nan
93,0,8,645228.750000,220272.000000,1281305.250000,66588.625000,8127.250000,640613.375000,7308.353880,1298.004045,58471.127870,959.073112,639.904436,29236.756433
93,1,0,-nan,-nan,-nan,-nan,-nan,-nan,-nan,-nan,-nan,-nan,-nan,-nan
94,0,8,641680.250000,219462.125000,1269639.750000,66102.125000,7921.125000,634751.625000,3104.259765,1043.066685,40073.399060,498.726738,430.495481,19917.465407
94,1,0,-nan,-nan,-nan,-nan,-nan,-nan,-nan,-nan,-nan,-nan,-nan,-nan
95,0,8,646983.625000,220725.125000,1311424.250000,66926.500000,8210.500000,655697.500000,10119.523061,2438.120097,75460.717633,1411.827628,565.902156,37718.057164
95,1,0,-nan,-nan,-nan,-nan,-nan,-nan,-nan,-nan,-nan,-nan,-nan,-nan
96,0,8,645945.375000,220655.625000,1262464.875000,66799.250000,7949.625000,631218.625000,5140.559963,1536.660904,55726.535956,980.769054,394.116397,27948.914639
96,1,0,-nan,-nan,-nan,-nan,-nan,-nan,-nan,-nan,-nan,-nan,-nan,-nan
97,0,8,641721.250000,219986.625000,1292568.750000,66306.500000,8192.875000,646152.750000,2218.420201,565.883808,74556.246316,403.343216,539.292462,37276.739627
97,1,0,-nan,-nan,-nan,-nan,-nan,-nan,-nan,-nan,-nan,-nan,-nan,-nan
98,0,8,644936.375000,220304.000000,1305621.000000,66628.625000,8322.000000,652755.625000,7625.346106,1917.955748,42158.789522,1264.356648,578.801564,21046.034436
98,1,0,-nan,-nan,-nan,-nan,-nan,-nan,-nan,-nan,-nan,-nan,-nan,-nan
99,0,8,641678.125000,219552.375000,1254999.125000,66108.875000,7547.625000,627490.500000,1781.950367,498.255692,60067.570802,226.584663,208.665964,30033.143825
99,1,0,-nan,-nan,-nan,-nan,-nan,-nan,-nan,-nan,-nan,-nan,-nan,-nan
100,0,8,641578.875000,219665.875000,1269524.375000,66169.250000,7820.875000,634753.500000,2542.092516,452.845845,50541.145894,159.348478,464.823471,25239.449236
100,1,0,-nan,-nan,-nan,-nan,-nan,-nan,-nan,-nan,-nan,-nan,-nan,-nan
101,0,8,641755.750000,219728.000000,1261721.250000,66171.375000,7807.250000,630824.000000,2704.700203,723.506220,73256.501766,340.602018,593.262537,36590.410807
101,1,0,-nan,-nan,-nan,-nan,-nan,-nan,-nan,-nan,-nan,-nan,-nan,-nan
102,0,8,652235.500000,222681.375000,1263466.625000,67678.875000,8012.750000,631732.500000,11855.097279,3331.814743,76895.729664,1461.597280,395.533105,38526.333926
102,1,0,-nan,-nan,-nan,-nan,-nan,-nan,-nan,-nan,-nan,-nan,-nan,-nan
103,0,8,651889.125000,221872.000000,1295352.000000,67789.875000,8545.875000,647623.500000,10897.315512,2429.809869,53927.981257,1654.643348,701.248073,26961.088568
103,1,0,-nan,-nan,-nan,-nan,-nan,-nan,-nan,-nan,-nan,-nan,-nan,-nan
104,0,8,642574.875000,220070.375000,1243670.500000,66316.000000,7849.875000,621820.750000,3102.508962,884.831472,42846.131456,334.374790,610.327461,21400.413102
104,1,0,-nan,-nan,-nan,-nan,-nan,-nan,-nan,-nan,-nan,-nan,-nan,-nan
105,0,8,642135.000000,219826.750000,1242075.750000,66249.000000,7838.875000,621027.875000,4673.727741,939.192572,54525.282504,474.996579,333.888993,27285.033665
105,1,0,-nan,-nan,-nan,-nan,-nan,-nan,-nan,-nan,-nan,-nan,-nan,-nan
106,0,8,647631.750000,220923.750000,1261433.750000,67018.500000,8172.625000,630714.250000,8671.810721,1776.507371,62837.696005,1392.141875,681.126262,31431.367584
106,1,0,-nan,-nan,-nan,-nan,-nan,-nan,-nan,-nan,-nan,-nan,-nan,-nan
107,0,8,641222.750000,219640.750000,1291933.750000,66152.500000,7867.375000,645893.375000,2574.430944,634.045888,86554.799014,332.661615,372.794493,43242.636734
107,1,0,-nan,-nan,-nan,-nan,-nan,-nan,-nan,-nan,-nan,-nan,-nan,-nan
108,0,8,644396.125000,220825.875000,1268459.500000,66851.000000,7753.375000,634139.750000,6196.677768,1772.350025,59819.510920,1063.101006,487.017181,29910.896989
108,1,0,-nan,-nan,-nan,-nan,-nan,-nan,-nan,-nan,-nan,-nan,-nan,-nan
109,0,8,645398.500000,220782.750000,1268330.000000,66781.750000,8009.875000,634126.750000,6954.140206,1928.483715,47045.482788,1144.231046,670.408726,23540.115918
109,1,0,-nan,-nan,-nan,-nan,-nan,-nan,-nan,-nan,-nan,-nan,-nan,-nan
110,0,8,642180.125000,220061.875000,1253586.000000,66338.750000,8021.625000,626750.250000,4288.980224,1074.346247,70953.468176,447.280323,660.717780,35441.238631
110,1,0,-nan,-nan,-nan,-nan,-nan,-nan,-nan,-nan,-nan,-nan,-nan,-nan
111,0,8,646088.750000,220717.500000,1316706.625000,66955.875000,8354.125000,658290.875000,8948.868221,1553.230344,90961.251300,1277.370095,773.742599,45408.584881
111,1,0,-nan,-nan,-nan,-nan,-nan,-nan,-nan,-nan,-nan,-nan,-nan,-nan
112,0,8,644867.000000,220274.500000,1312730.625000,66635.125000,8353.875000,656288.750000,8928.527552,1875.696004,77971.676103,1303.866504,771.922185,38913.072212
112,1,0,-nan,-nan,-nan,-nan,-nan,-nan,-nan,-nan,-nan,-nan,-nan,-nan
113,0,8,646297.875000,220858.750000,1309934.625000,66874.250000,8423.750000,654868.125000,5789.755207,1542.083635,75198.336537,1107.797336,781.163035,37595.660090
113,1,0,-nan,-nan,-nan,-nan,-nan,-nan,-nan,-nan,-nan,-nan,-nan,-nan
114,0,8,644012.375000,219941.500000,1255383.375000,66477.125000,7893.750000,627680.375000,7278.579651,1569.041586,41093.448051,1035.354702,559.319620,20537.180508
114,1,0,-nan,-nan,-nan,-nan,-nan,-nan,-nan,-nan,-nan,-nan,-nan,-nan
115,0,8,646174.875000,221196.500000,1312082.000000,66730.750000,8119.875000,655830.625000,9595.021566,2896.421326,111480.924686,921.525739,611.764137,55420.185406
115,1,0,-nan,-nan,-nan,-nan,-nan,-nan,-nan,-nan,-nan,-nan,-nan,-nan
116,0,8,645420.625000,220563.750000,1275279.125000,66911.000000,8178.125000,637583.625000,10908.139391,2612.697349,73206.106498,1593.380290,443.514216,36497.312089
116,1,0,-nan,-nan,-nan,-nan,-nan,-nan,-nan,-nan,-nan,-nan,-nan,-nan
117,0,8,644450.000000,220419.875000,1302816.625000,66732.875000,8054.875000,651407.625000,6772.511831,1473.135638,39420.370809,1086.440684,379.662165,19713.386695
117,1,0,-nan,-nan,-nan,-nan,-nan,-nan,-nan,-nan,-nan,-nan,-nan,-nan
118,0,8,644011.750000,220654.500000,1269467.250000,66824.375000,7740.125000,634649.375000,6941.189699,1627.522888,48246.726406,1066.988278,306.901628,24020.335749
118,1,0,-nan,-nan,-nan,-nan,-nan,-nan,-nan,-nan,-nan,-nan,-nan,-nan
119,0,8,641814.250000,219550.625000,1293483.750000,66109.250000,7739.500000,646798.375000,4013.120879,942.656875,76851.646706,456.272328,405.587229,38555.136409
119,1,0,-nan,-nan,-nan,-nan,-nan,-nan,-nan,-nan,-nan,-nan,-nan,-nan
120,0,8,641838.875000,219850.750000,1288187.000000,66254.375000,7821.000000,644098.750000,5438.948231,1435.475422,55205.087680,560.825717,379.790074,27616.700888
120,1,0,-nan,-nan,-nan,-nan,-nan,-nan,-nan,-nan,-nan,-nan,-nan,-nan
121,0,8,645744.000000,220994.500000,1253714.250000,66959.625000,7915.625000,626866.500000,9657.239422,1910.945185,46168.873158,1107.679437,475.355114,23105.432738
121,1,0,-nan,-nan,-nan,-nan,-nan,-nan,-nan,-nan,-nan,-nan,-nan,-nan
122,0,8,642875.250000,219726.500000,1263013.500000,66248.250000,7834.750000,631509.875000,4042.785696,1288.134504,58941.320884,457.611940,400.711165,29453.192978
122,1,0,-nan,-nan,-nan,-nan,-nan,-nan,-nan,-nan,-nan,-nan,-nan,-nan
123,0,8,645237.750000,220732.000000,1247091.000000,66836.000000,7703.000000,623471.500000,5807.972662,1493.953229,70497.385753,978.050868,394.963289,35215.266814
123,1,0,-nan,-nan,-nan,-nan,-nan,-nan,-nan,-nan,-nan,-nan,-nan,-nan
124,0,8,641325.125000,219550.375000,1286704.000000,66115.750000,7928.125000,643348.000000,3830.789163,723.285203,33629.989325,236.455995,349.480843,16741.859216
124,1,0,-nan,-nan,-nan,-nan,-nan,-nan,-nan,-nan,-nan,-nan,-nan,-nan
125,0,8,642184.500000,219556.500000,1301203.750000,66155.125000,7610.625000,650530.000000,4651.262221,1232.002435,48067.186897,445.507979,482.871085,23946.495526
125,1,0,-nan,-nan,-nan,-nan,-nan,-nan,-nan,-nan,-nan,-nan,-nan,-nan
126,0,8,647833.500000,220950.125000,1280255.625000,67045.250000,8252.000000,640108.625000,10825.668143,2201.417239,55983.497760,1465.664674,630.751734,28000.364805
126,1,0,-nan,-nan,-nan,-nan,-nan,-nan,-nan,-nan,-nan,-nan,-nan,-nan
127,0,8,646813.500000,220763.250000,1269487.625000,66948.875000,8127.375000,634744.000000,7665.239152,1665.494728,51149.057821,1327.402297,585.268088,25599.614646
127,1,0,-nan,-nan,-nan,-nan,-nan,-nan,-nan,-nan,-nan,-nan,-nan,-nan
128,0,8,640592.750000,219216.875000,1236856.375000,66010.125000,7764.250000,618416.500000,4138.638235,1035.340577,65417.332201,343.899490,509.470988,32710.278434
128,1,0,-nan,-nan,-nan,-nan,-nan,-nan,-nan,-nan,-nan,-nan,-nan,-nan
129,0,8,645760.000000,220731.875000,1302175.375000,66858.875000,8351.375000,651044.500000,7460.821453,1470.299241,66622.630644,1055.594197,685.916711,33303.315402
129,1,0,-nan,-nan,-nan,-nan,-nan,-nan,-nan,-nan,-nan,-nan,-nan,-nan
130,0,8,644218.125000,220194.000000,1249353.625000,66618.875000,7934.375000,624620.875000,7210.968736,1819.227789,55989.726153,1061.477795,753.667854,27930.916045
130,1,0,-nan,-nan,-nan,-nan,-nan,-nan,-nan,-nan,-nan,-nan,-nan,-nan
131,0,8,642438.375000,220029.500000,1250609.625000,66363.375000,7726.625000,625327.000000,4034.388737,1102.162420,41689.927189,436.494255,520.681269,20874.537025
131,1,0,-nan,-nan,-nan,-nan,-nan,-nan,-nan,-nan,-nan,-nan,-nan,-nan
132,0,8,642146.250000,220120.750000,1251470.500000,66640.000000,7967.875000,625690.625000,9618.221883,2056.459989,74396.909381,1160.294575,538.614296,37233.781674
132,1,0,-nan,-nan,-nan,-nan,-nan,-nan,-nan,-nan,-nan,-nan,-nan,-nan
133,0,8,641289.250000,219352.875000,1238166.125000,66140.750000,7761.250000,619084.500000,3792.017034,1024.045096,83542.457415,509.323264,556.204942,41762.642981
133,1,0,-nan,-nan,-nan,-nan,-nan,-nan,-nan,-nan,-nan,-nan,-nan,-nan
134,0,8,644160.750000,219801.625000,1266815.125000,66464.500000,7917.875000,633351.125000,5441.625579,1368.309809,63939.906147,967.992510,634.614536,31947.531510
134,1,0,-nan,-nan,-nan,-nan,-nan,-nan,-nan,-nan,-nan,-nan,-nan,-nan
135,0,8,644656.500000,220216.875000,1277241.500000,66633.625000,7786.500000,638608.625000,7283.891868,1719.296472,70362.745530,1057.853007,299.802018,35146.703209
135,1,0,-nan,-nan,-nan,-nan,-nan,-nan,-nan,-nan,-nan,-nan,-nan,-nan
136,0,7,647792.142857,220761.142857,1293455.857143,67028.714286,8093.428571,646723.571429,10168.624242,2015.056712,28517.934615,1442.962401,747.205433,14264.894811
136,1,0,-nan,-nan,-nan,-nan,-nan,-nan,-nan,-nan,-nan,-nan,-nan,-nan
137,0,7,642567.142857,219772.000000,1248698.571429,66187.571429,7794.571429,624395.571429,3880.637114,814.361099,57332.699530,376.064150,405.724346,28678.427422
137,1,0,-nan,-nan,-nan,-nan,-nan,-nan,-nan,-nan,-nan,-nan,-nan,-nan
138,0,7,641565.428571,219510.428571,1228723.857143,66180.142857,7607.142857,614383.000000,3597.915899,904.006140,65189.684308,504.600104,438.481610,32510.101665
138,1,0,-nan,-nan,-nan,-nan,-nan,-nan,-nan,-nan,-nan,-nan,-nan,-nan
139,0,7,644718.142857,220476.142857,1290126.142857,66748.571429,7910.000000,645083.428571,5382.940286,1331.959612,83097.627803,1075.679036,619.127035,41531.575089
139,1,0,-nan,-nan,-nan,-nan,-nan,-nan,-nan,-nan,-nan,-nan,-nan,-nan
140,0,7,640997.142857,219201.428571,1265191.571429,65999.714286,7708.000000,632621.285714,3404.702942,403.606193,52920.801243,193.821504,573.635773,26438.268172
140,1,0,-nan,-nan,-nan,-nan,-nan,-nan,-nan,-nan,-nan,-nan,-nan,-nan
141,0,7,648895.000000,221220.714286,1313584.142857,67197.714286,8031.285714,656823.000000,11306.053398,2538.036514,54979.887422,1711.610079,604.431661,27451.599652
141,1,0,-nan,-nan,-nan,-nan,-nan,-nan,-nan,-nan,-nan,-nan,-nan,-nan
142,0,7,643161.857143,220228.428571,1259902.571429,66452.142857,7531.857143,629943.000000,3416.977797,1040.001629,61268.384594,428.738158,571.464642,30650.431384
142,1,0,-nan,-nan,-nan,-nan,-nan,-nan,-nan,-nan,-nan,-nan,-nan,-nan
143,0,7,641128.428571,219392.285714,1323038.714286,66022.285714,7677.857143,661536.571429,3493.680002,959.821667,68816.756636,439.434609,510.420675,34401.049228
143,1,0,-nan,-nan,-nan,-nan,-nan,-nan,-nan,-nan,-nan,-nan,-nan,-nan
144,0,7,642462.571429,219859.571429,1281378.142857,66246.714286,7678.571429,640613.714286,3040.905122,662.618584,46507.674480,268.835964,341.558553,23143.306164
144,1,0,-nan,-nan,-nan,-nan,-nan,-nan,-nan,-nan,-nan,-nan,-nan,-nan
145,0,7,641884.714286,219551.285714,1319499.714286,66102.714286,7926.142857,659694.142857,5475.678424,1376.823229,59037.328249,560.911940,553.393280,29456.626484
145,1,0,-nan,-nan,-nan,-nan,-nan,-nan,-nan,-nan,-nan,-nan,-nan,-nan
146,0,7,645563.714286,220312.714286,1269149.714286,66637.000000,7899.857143,634620.714286,8356.186070,1609.222413,53074.311273,1083.588483,416.781350,26466.817930
146,1,0,-nan,-nan,-nan,-nan,-nan,-nan,-nan,-nan,-nan,-nan,-nan,-nan
147,0,7,642922.285714,220152.428571,1268671.285714,66381.142857,7870.857143,634255.857143,5304.310961,1213.888658,51306.325518,512.480084,519.050625,25643.257156
147,1,0,-nan,-nan,-nan,-nan,-nan,-nan,-nan,-nan,-nan,-nan,-nan,-nan
148,0,7,642325.285714,219752.571429,1255697.142857,66203.285714,7892.285714,627846.428571,3314.206723,899.857426,44977.202192,380.274981,446.934867,22500.144665
148,1,0,-nan,-nan,-nan,-nan,-nan,-nan,-nan,-nan,-nan,-nan,-nan,-nan
149,0,7,644934.857143,220440.714286,1285835.571429,66713.142857,8120.285714,642929.285714,6905.553240,1467.852047,60497.038506,1005.592708,429.467017,30288.412587
149,1,0,-nan,-nan,-nan,-nan,-nan,-nan,-nan,-nan,-nan,-nan,-nan,-nan
150,0,7,646392.000000,220639.428571,1271404.142857,66950.571429,8046.571429,635639.714286,10470.719146,2343.163665,67768.672083,1404.346809,484.675107,33822.993526
150,1,0,-nan,-nan,-nan,-nan,-nan,-nan,-nan,-nan,-nan,-nan,-nan,-nan
151,0,7,641271.714286,219842.142857,1272809.428571,66234.571429,7617.571429,636401.571429,4635.686225,1182.390488,64889.216553,589.909886,538.411647,32414.815549
151,1,0,-nan,-nan,-nan,-nan,-nan,-nan,-nan,-nan,-nan,-nan,-nan,-nan
152,0,7,643736.857143,220143.857143,1254905.000000,66574.142857,7728.142857,627319.857143,8715.635891,1684.397682,75298.285198,1251.244230,647.030454,37538.877274
152,1,0,-nan,-nan,-nan,-nan,-nan,-nan,-nan,-nan,-nan,-nan,-nan,-nan
153,0,7,643187.142857,219827.857143,1318928.428571,66491.000000,8078.571429,659468.857143,7076.454185,1565.412901,49744.641046,1235.927413,915.634496,24826.970976
153,1,0,-nan,-nan,-nan,-nan,-nan,-nan,-nan,-nan,-nan,-nan,-nan,-nan
154,0,7,649217.857143,222310.714286,1326990.571429,67361.000000,7901.857143,663518.142857,13314.430962,4240.995359,101588.739394,1658.710859,580.370184,50815.263735
154,1,0,-nan,-nan,-nan,-nan,-nan,-nan,-nan,-nan,-nan,-nan,-nan,-nan
155,0,7,648853.142857,221205.000000,1258455.714286,67423.857143,7972.142857,629184.857143,12273.964075,2465.371024,121836.292778,1716.633202,1005.108442,60881.269645
155,1,0,-nan,-nan,-nan,-nan,-nan,-nan,-nan,-nan,-nan,-nan,-nan,-nan
156,0,7,640868.285714,219559.714286,1236744.142857,66184.428571,7573.285714,618397.428571,2838.099853,755.556505,68828.074665,474.538530,520.398121,34412.551634
156,1,0,-nan,-nan,-nan,-nan,-nan,-nan,-nan,-nan,-nan,-nan,-nan,-nan
157,0,7,640667.714286,219617.428571,1261224.571429,66175.714286,7866.571429,630553.857143,2677.894040,511.318145,86273.467404,252.405408,618.080868,43049.825828
157,1,0,-nan,-nan,-nan,-nan,-nan,-nan,-nan,-nan,-nan,-nan,-nan,-nan
158,0,7,645860.000000,221125.285714,1262452.142857,67204.142857,7851.142857,631200.000000,6123.703875,1367.464151,79405.388821,1197.736011,628.455574,39689.355345
158,1,0,-nan,-nan,-nan,-nan,-nan,-nan,-nan,-nan,-nan,-nan,-nan,-nan
159,0,7,640232.142857,219690.714286,1252022.857143,66135.857143,7845.571429,626029.428571,3506.016642,594.786328,59806.822925,327.248018,405.123917,29891.212870
159,1,0,-nan,-nan,-nan,-nan,-nan,-nan,-nan,-nan,-nan,-nan,-nan,-nan
160,0,7,643302.142857,219986.142857,1299367.285714,66496.142857,8055.857143,649673.571429,6325.456741,1218.613314,43876.942509,987.563731,397.066539,21976.689832
160,1,0,-nan,-nan,-nan,-nan,-nan,-nan,-nan,-nan,-nan,-nan,-nan,-nan
161,0,7,648623.857143,221889.285714,1278641.000000,67155.142857,7936.571429,639321.000000,9428.639524,3166.259565,71980.887932,1159.710977,380.873754,36040.403101
161,1,0,-nan,-nan,-nan,-nan,-nan,-nan,-nan,-nan,-nan,-nan,-nan,-nan
162,0,7,645868.857143,220401.857143,1335499.428571,66699.000000,8112.428571,667649.571429,7549.069411,1776.960923,103496.350866,1019.830238,429.675578,51616.977741
162,1,0,-nan,-nan,-nan,-nan,-nan,-nan,-nan,-nan,-nan,-nan,-nan,-nan
163,0,7,645847.142857,220421.714286,1283376.142857,66638.714286,8119.142857,641647.000000,8559.419514,1781.040604,63308.070595,1092.700810,625.070380,31638.636001
163,1,0,-nan,-nan,-nan,-nan,-nan,-nan,-nan,-nan,-nan,-nan,-nan,-nan
164,0,7,644267.571429,220231.714286,1238805.000000,66596.857143,8091.857143,619407.142857,5958.504339,1395.107340,52103.825206,1080.844568,624.539700,26042.844229
164,1,0,-nan,-nan,-nan,-nan,-nan,-nan,-nan,-nan,-nan,-nan,-nan,-nan
165,0,7,642373.285714,220059.714286,1215504.142857,66342.714286,7802.714286,607720.285714,3638.444633,1042.592608,38093.292793,512.951046,588.576422,19083.199370
165,1,0,-nan,-nan,-nan,-nan,-nan,-nan,-nan,-nan,-nan,-nan,-nan,-nan
166,0,7,644602.714286,220421.714286,1289897.285714,66674.142857,7714.000000,644944.714286,6697.093735,1562.342080,61359.975500,1225.062731,695.533300,30691.073312
166,1,0,-nan,-nan,-nan,-nan,-nan,-nan,-nan,-nan,-nan,-nan,-nan,-nan
167,0,7,647615.857143,221053.142857,1295888.714286,67178.714286,7978.142857,647923.000000,10380.565061,2184.032668,62220.130527,1636.381523,732.045945,31097.406359
167,1,0,-nan,-nan,-nan,-nan,-nan,-nan,-nan,-nan,-nan,-nan,-nan,-nan
168,0,7,643258.142857,220125.571429,1270726.428571,66514.285714,7903.571429,635376.142857,7537.891926,2027.665854,61898.913911,1158.461876,484.512378,30964.199380
168,1,0,-nan,-nan,-nan,-nan,-nan,-nan,-nan,-nan,-nan,-nan,-nan,-nan
169,0,7,641034.285714,219735.000000,1290316.142857,66122.285714,7831.142857,645186.428571,2543.230550,541.156170,68753.296608,331.388298,619.852616,34373.991775
169,1,0,-nan,-nan,-nan,-nan,-nan,-nan,-nan,-nan,-nan,-nan,-nan,-nan
170,0,7,643840.000000,220553.857143,1290784.714286,66733.428571,8153.142857,645334.571429,7105.257651,1413.774828,73698.923502,1131.925017,839.310504,36777.711149
170,1,0,-nan,-nan,-nan,-nan,-nan,-nan,-nan,-nan,-nan,-nan,-nan,-nan
171,0,7,643606.000000,219973.571429,1250520.285714,66481.714286,7700.571429,625248.285714,6249.458719,1316.574544,63891.086373,1055.151000,661.992416,31954.922714
171,1,0,-nan,-nan,-nan,-nan,-nan,-nan,-nan,-nan,-nan,-nan,-nan,-nan
172,0,7,642858.714286,219912.142857,1284640.857143,66431.142857,7878.142857,642320.714286,7978.398366,1611.879686,54005.597812,1198.042979,563.820495,27012.485900
172,1,0,-nan,-nan,-nan,-nan,-nan,-nan,-nan,-nan,-nan,-nan,-nan,-nan
173,0,7,650821.857143,221815.571429,1283356.285714,67645.428571,8248.428571,641552.000000,10038.814350,2168.133289,64128.117516,1502.872474,571.979484,32195.536070
173,1,0,-nan,-nan,-nan,-nan,-nan,-nan,-nan,-nan,-nan,-nan,-nan,-nan
174,0,7,640372.285714,219512.857143,1242669.714286,66075.000000,7755.000000,621363.142857,1427.966258,458.276407,62429.067213,166.014629,494.251237,31207.190565
174,1,0,-nan,-nan,-nan,-nan,-nan,-nan,-nan,-nan,-nan,-nan,-nan,-nan
175,0,7,641554.000000,219863.857143,1259346.142857,66256.714286,7882.571429,629677.571429,2867.366338,659.922383,53556.688534,437.823094,427.789954,26817.164263
175,1,0,-nan,-nan,-nan,-nan,-nan,-nan,-nan,-nan,-nan,-nan,-nan,-nan
176,0,7,648038.428571,221606.714286,1338184.142857,67040.714286,8324.285714,669094.142857,10054.310147,3144.945138,62052.276660,1425.602901,668.778356,31029.747494
176,1,0,-nan,-nan,-nan,-nan,-nan,-nan,-nan,-nan,-nan,-nan,-nan,-nan
177,0,7,642373.428571,220036.428571,1225397.714286,66323.285714,7741.428571,612668.428571,2825.519717,682.161870,47545.845757,317.094269,273.727110,23806.822365
177,1,0,-nan,-nan,-nan,-nan,-nan,-nan,-nan,-nan,-nan,-nan,-nan,-nan
178,0,7,643056.000000,220175.285714,1221709.142857,66619.857143,7800.857143,610894.142857,7791.489716,1902.571096,43051.064329,1075.288457,528.890329,21519.159459
178,1,0,-nan,-nan,-nan,-nan,-nan,-nan,-nan,-nan,-nan,-nan,-nan,-nan
179,0,7,643299.571429,220475.428571,1248249.428571,66701.428571,8120.000000,624142.714286,8202.057875,1923.012061,66565.035918,1059.261853,538.285638,33265.420213
179,1,0,-nan,-nan,-nan,-nan,-nan,-nan,-nan,-nan,-nan,-nan,-nan,-nan
180,0,7,639247.285714,219648.285714,1239362.571429,66034.571429,7955.714286,619730.428571,3016.633588,537.946018,34579.381945,337.783048,406.293600,17206.520740
180,1,0,-nan,-nan,-nan,-nan,-nan,-nan,-nan,-nan,-nan,-nan,-nan,-nan
181,0,7,644582.714286,220722.142857,1287858.428571,66806.285714,7965.714286,643922.285714,8139.176366,1723.054218,81304.007884,1483.305162,842.378387,40643.141687
181,1,0,-nan,-nan,-nan,-nan,-nan,-nan,-nan,-nan,-nan,-nan,-nan,-nan
182,0,7,641209.142857,219885.571429,1233700.285714,66116.285714,7527.285714,616817.714286,3990.649730,850.864243,32586.713299,532.051747,433.609671,16285.863675
182,1,0,-nan,-nan,-nan,-nan,-nan,-nan,-nan,-nan,-nan,-nan,-nan,-nan
183,0,7,645086.000000,220275.571429,1198381.428571,66439.714286,7517.428571,599182.142857,10650.921141,2106.650955,40924.958521,1269.277152,523.524009,20445.028808
183,1,0,-nan,-nan,-nan,-nan,-nan,-nan,-nan,-nan,-nan,-nan,-nan,-nan
184,0,7,649178.285714,220864.142857,1242992.857143,66878.428571,8027.714286,621461.285714,9139.958326,2004.960664,40775.729589,1346.419257,543.927966,20315.437548
184,1,0,-nan,-nan,-nan,-nan,-nan,-nan,-nan,-nan,-nan,-nan,-nan,-nan
185,0,7,641875.285714,219609.000000,1232246.857143,66021.714286,7788.428571,616097.857143,2997.125943,772.260874,55298.020100,540.820201,619.557182,27558.413869
185,1,0,-nan,-nan,-nan,-nan,-nan,-nan,-nan,-nan,-nan,-nan,-nan,-nan
186,0,7,647122.571429,220558.714286,1266178.714286,66790.571429,7892.714286,633070.000000,10977.872834,2386.203543,107658.540318,1816.452418,758.709753,53823.578938
186,1,0,-nan,-nan,-nan,-nan,-nan,-nan,-nan,-nan,-nan,-nan,-nan,-nan
187,0,7,648166.428571,221290.714286,1252279.142857,67116.285714,7917.285714,626148.857143,8832.277604,2091.041894,55957.721723,1414.976094,344.000712,27956.789287
187,1,0,-nan,-nan,-nan,-nan,-nan,-nan,-nan,-nan,-nan,-nan,-nan,-nan
188,0,7,640286.428571,219306.857143,1260409.857143,65884.000000,7702.142857,630234.000000,3526.299025,586.290379,72488.006055,265.525355,439.164606,36235.142070
188,1,0,-nan,-nan,-nan,-nan,-nan,-nan,-nan,-nan,-nan,-nan,-nan,-nan
189,0,7,643285.142857,219893.142857,1251279.285714,66366.857143,7878.000000,625600.714286,7675.940751,1846.722458,49456.265265,1399.409613,619.375261,24710.190025
189,1,0,-nan,-nan,-nan,-nan,-nan,-nan,-nan,-nan,-nan,-nan,-nan,-nan
190,0,7,642761.571429,219912.857143,1280041.285714,66393.142857,7802.142857,639971.571429,6142.490929,1654.103938,105705.019940,966.745856,633.379243,52855.467256
190,1,0,-nan,-nan,-nan,-nan,-nan,-nan,-nan,-nan,-nan,-nan,-nan,-nan
191,0,8,644406.500000,220270.500000,1280124.125000,66724.875000,7670.125000,640060.250000,8218.530221,1934.180188,33366.099969,1434.104898,647.420543,16682.392123
191,1,0,-nan,-nan,-nan,-nan,-nan,-nan,-nan,-nan,-nan,-nan,-nan,-nan
192,0,8,644909.000000,220684.125000,1280486.750000,66756.000000,7725.625000,640224.000000,11356.232716,2256.741702,78250.762954,1365.103842,529.661198,39121.675846
192,1,0,-nan,-nan,-nan,-nan,-nan,-nan,-nan,-nan,-nan,-nan,-nan,-nan
193,0,8,641800.625000,219865.500000,1258668.000000,66321.750000,7690.375000,629303.500000,7530.316078,1584.348841,53788.405486,1265.969564,506.976069,26898.192351
193,1,0,-nan,-nan,-nan,-nan,-nan,-nan,-nan,-nan,-nan,-nan,-nan,-nan
194,0,8,641018.125000,219586.125000,1281569.375000,66062.250000,7575.000000,640786.750000,3779.070403,817.404801,49382.479484,543.999483,409.378798,24713.122060
194,1,0,-nan,-nan,-nan,-nan,-nan,-nan,-nan,-nan,-nan,-nan,-nan,-nan
195,0,8,646531.625000,221033.875000,1277280.375000,67084.875000,7723.375000,638614.500000,9651.874040,1639.751005,54321.314095,1264.928302,490.095638,27075.090715
195,1,0,-nan,-nan,-nan,-nan,-nan,-nan,-nan,-nan,-nan,-nan,-nan,-nan
196,0,8,647517.625000,221518.750000,1298708.375000,66922.875000,7823.500000,649335.250000,8353.706916,2850.425703,85564.390955,1090.981604,758.660991,42745.339429
196,1,0,-nan,-nan,-nan,-nan,-nan,-nan,-nan,-nan,-nan,-nan,-nan,-nan
197,0,8,646400.625000,220629.375000,1339546.625000,66845.875000,8079.625000,669746.250000,8745.264646,1921.408659,120460.054327,1517.733873,676.045845,60188.982399
197,1,0,-nan,-nan,-nan,-nan,-nan,-nan,-nan,-nan,-nan,-nan,-nan,-nan
198,0,8,642996.250000,219915.375000,1267310.875000,66377.125000,7888.000000,633686.250000,7070.348042,1468.035842,52579.563809,1185.819278,667.015180,26281.584806
198,1,0,-nan,-nan,-nan,-nan,-nan,-nan,-nan,-nan,-nan,-nan,-nan,-nan
199,0,8,647111.375000,221346.875000,1257169.000000,66875.125000,7849.500000,628586.125000,11712.683232,3667.519442,48098.892903,1528.473130,524.003101,24079.827717
199,1,0,-nan,-nan,-nan,-nan,-nan,-nan,-nan,-nan,-nan,-nan,-nan,-nan
200,0,8,644649.000000,220246.625000,1296036.500000,66699.875000,8014.000000,647937.250000,10860.094337,2312.006106,84952.198911,1594.616524,761.943732,42299.119192
200,1,0,-nan,-nan,-nan,-nan,-nan,-nan,-nan,-nan,-nan,-nan,-nan,-nan
201,0,8,642282.000000,219731.375000,1296744.000000,66349.500000,7851.875000,648354.875000,5521.155767,1375.513807,92094.677115,838.572597,645.240156,46031.819325
201,1,0,-nan,-nan,-nan,-nan,-nan,-nan,-nan,-nan,-nan,-nan,-nan,-nan
202,0,8,639071.000000,219341.875000,1288155.875000,65992.625000,7880.375000,644117.375000,4493.162695,869.174959,47144.684012,495.897655,507.943879,23526.665398
202,1,0,-nan,-nan,-nan,-nan,-nan,-nan,-nan,-nan,-nan,-nan,-nan,-nan
203,0,8,644172.875000,220655.500000,1271971.375000,66722.000000,8058.375000,635963.750000,6971.143906,1718.008367,36579.855282,1090.390526,825.771599,18177.983509
203,1,0,-nan,-nan,-nan,-nan,-nan,-nan,-nan,-nan,-nan,-nan,-nan,-nan
204,0,8,642478.625000,219836.250000,1251780.750000,66397.375000,7569.250000,625846.500000,7580.104006,1766.649000,27558.911171,1221.220490,511.942319,13691.875273
204,1,0,-nan,-nan,-nan,-nan,-nan,-nan,-nan,-nan,-nan,-nan,-nan,-nan
205,0,8,640585.500000,219599.875000,1298814.500000,66121.625000,8306.750000,649406.000000,3686.484606,1174.589975,136777.208366,358.335366,1052.900844,68365.349259
205,1,0,-nan,-nan,-nan,-nan,-nan,-nan,-nan,-nan,-nan,-nan,-nan,-nan
206,0,8,645112.500000,220339.500000,1251360.500000,66780.500000,7951.625000,625724.000000,7059.313228,1848.551122,81057.603337,1199.355973,975.825156,40528.436782
206,1,0,-nan,-nan,-nan,-nan,-nan,-nan,-nan,-nan,-nan,-nan,-nan,-nan
207,0,8,647582.375000,221007.000000,1278860.875000,67071.250000,8088.000000,639441.250000,9874.855201,2028.102068,61557.127119,1558.726704,439.770110,30801.074335
207,1,0,-nan,-nan,-nan,-nan,-nan,-nan,-nan,-nan,-nan,-nan,-nan,-nan
208,0,8,640067.625000,219236.000000,1253219.000000,65948.625000,7592.500000,626591.625000,2621.605707,810.415480,102682.915397,597.010875,595.834289,51329.559342
208,1,0,-nan,-nan,-nan,-nan,-nan,-nan,-nan,-nan,-nan,-nan,-nan,-nan
209,0,8,643453.125000,220216.500000,1309201.250000,66529.125000,8315.250000,654552.000000,6974.168238,1310.567816,83127.796646,1235.531711,559.245194,41557.198591
209,1,0,-nan,-nan,-nan,-nan,-nan,-nan,-nan,-nan,-nan,-nan,-nan,-nan
210,0,8,644369.000000,220478.750000,1295002.500000,66663.875000,8109.250000,647409.375000,7422.865266,1805.394815,123209.087670,1138.384320,682.331985,61530.829007
210,1,0,-nan,-nan,-nan,-nan,-nan,-nan,-nan,-nan,-nan,-nan,-nan,-nan
211,0,8,646896.375000,221215.125000,1296886.875000,67128.375000,8136.375000,648400.875000,8288.595055,2200.389422,72936.721644,1327.526359,978.021720,36450.564510
211,1,0,-nan,-nan,-nan,-nan,-nan,-nan,-nan,-nan,-nan,-nan,-nan,-nan
212,0,8,643442.125000,220302.875000,1266781.375000,66199.625000,7866.125000,633305.750000,10220.472267,3112.665355,79644.714934,889.021926,624.002892,39822.266038
212,1,0,-nan,-nan,-nan,-nan,-nan,-nan,-nan,-nan,-nan,-nan,-nan,-nan
213,0,8,640712.375000,219408.000000,1304842.750000,66024.625000,7942.875000,652407.500000,3533.519560,681.797257,66112.821602,386.553986,407.528968,33071.537631
213,1,0,-nan,-nan,-nan,-nan,-nan,-nan,-nan,-nan,-nan,-nan,-nan,-nan
214,0,8,647733.125000,220900.250000,1307480.000000,67158.125000,8134.625000,653716.250000,10259.210599,2152.345450,111964.182849,1737.536722,764.849648,55870.743204
214,1,0,-nan,-nan,-nan,-nan,-nan,-nan,-nan,-nan,-nan,-nan,-nan,-nan
215,0,8,638812.750000,219181.000000,1293616.875000,65897.000000,7763.500000,646756.625000,3167.179295,656.690186,44908.080777,282.413704,361.857707,22362.806582
215,1,0,-nan,-nan,-nan,-nan,-nan,-nan,-nan,-nan,-nan,-nan,-nan,-nan
216,0,8,642584.625000,219957.750000,1274449.250000,66398.125000,7708.250000,637194.375000,5834.128104,1354.669678,77407.781044,777.393311,424.928450,38698.775468
216,1,0,-nan,-nan,-nan,-nan,-nan,-nan,-nan,-nan,-nan,-nan,-nan,-nan
217,0,8,642801.875000,219813.125000,1284760.750000,66370.000000,7894.375000,642366.000000,7131.014452,1621.176073,55889.822369,1150.404711,471.324712,27933.412614
217,1,0,-nan,-nan,-nan,-nan,-nan,-nan,-nan,-nan,-nan,-nan,-nan,-nan
218,0,8,641491.500000,219655.375000,1273239.750000,66126.750000,7884.250000,636561.375000,3166.397638,874.682076,67670.029475,390.850915,566.818037,33846.203044
218,1,0,-nan,-nan,-nan,-nan,-nan,-nan,-nan,-nan,-nan,-nan,-nan,-nan
219,0,8,644423.500000,220416.125000,1279040.625000,66593.375000,8278.000000,639486.375000,6750.376804,1495.590555,58104.959164,1181.351973,905.462451,29143.099462
219,1,0,-nan,-nan,-nan,-nan,-nan,-nan,-nan,-nan,-nan,-nan,-nan,-nan
220,0,8,640066.250000,219340.125000,1255226.250000,66025.500000,8017.875000,627705.250000,3211.404628,657.554644,61392.156103,222.121026,460.959987,30778.579458
220,1,0,-nan,-nan,-nan,-nan,-nan,-nan,-nan,-nan,-nan,-nan,-nan,-nan
221,0,8,641204.250000,219628.375000,1267301.000000,66302.000000,7946.125000,633639.000000,6443.038351,1644.297642,62732.186605,849.842338,827.454445,31340.791486
221,1,0,-nan,-nan,-nan,-nan,-nan,-nan,-nan,-nan,-nan,-nan,-nan,-nan
222,0,8,645432.625000,220488.375000,1273894.625000,66819.875000,7953.000000,636913.875000,10580.044080,2005.803202,70828.966685,1622.581850,574.789527,35419.337982
222,1,0,-nan,-nan,-nan,-nan,-nan,-nan,-nan,-nan,-nan,-nan,-nan,-nan
223,0,8,646152.000000,220938.000000,1302383.125000,66722.375000,8111.250000,651115.250000,8831.568646,2712.745381,117131.734660,1207.917830,813.120648,58587.460121
223,1,0,-nan,-nan,-nan,-nan,-nan,-nan,-nan,-nan,-nan,-nan,-nan,-nan
224,0,8,643708.625000,220458.250000,1243026.875000,66224.375000,7759.125000,621376.750000,9920.060143,3822.244489,77084.560164,939.447702,422.000722,38608.129315
224,1,0,-nan,-nan,-nan,-nan,-nan,-nan,-nan,-nan,-nan,-nan,-nan,-nan
225,0,8,648342.000000,222454.000000,1299988.500000,66976.625000,7915.375000,649991.750000,18386.928122,6551.524403,34696.894497,1887.063720,369.420471,17387.389221
225,1,0,-nan,-nan,-nan,-nan,-nan,-nan,-nan,-nan,-nan,-nan,-nan,-nan
226,0,8,652984.000000,223429.625000,1314081.000000,67715.250000,8200.250000,657070.750000,23450.363910,7390.581691,52728.852747,2702.011323,473.801316,26426.707063
226,1,0,-nan,-nan,-nan,-nan,-nan,-nan,-nan,-nan,-nan,-nan,-nan,-nan
227,0,8,649339.500000,222712.625000,1273120.625000,66928.875000,7742.125000,636560.000000,17731.708780,6269.282693,34678.024212,1568.395553,577.016559,17337.851186
227,1,0,-nan,-nan,-nan,-nan,-nan,-nan,-nan,-nan,-nan,-nan,-nan,-nan
228,0,8,648394.875000,222037.750000,1306092.125000,66967.375000,8179.750000,653016.875000,18073.862810,5968.690220,63542.812189,1802.133939,799.913237,31806.557985
228,1,0,-nan,-nan,-nan,-nan,-nan,-nan,-nan,-nan,-nan,-nan,-nan,-nan
229,0,8,646213.875000,221796.250000,1260426.000000,66713.125000,7871.375000,630186.125000,17717.823529,6353.559372,108165.030574,1800.343956,491.906479,54009.230520
229,1,0,-nan,-nan,-nan,-nan,-nan,-nan,-nan,-nan,-nan,-nan,-nan,-nan
230,0,8,652783.625000,222885.125000,1284376.875000,67340.625000,8150.500000,642130.000000,17927.509280,5542.504566,58493.245205,1550.595284,594.195675,29210.161361
230,1,0,-nan,-nan,-nan,-nan,-nan,-nan,-nan,-nan,-nan,-nan,-nan,-nan
231,0,8,650986.500000,222465.625000,1317334.875000,67198.625000,8279.250000,658603.500000,20972.780824,6666.884729,88247.438711,2266.239172,708.338328,44037.524859
231,1,0,-nan,-nan,-nan,-nan,-nan,-nan,-nan,-nan,-nan,-nan,-nan,-nan
232,0,8,650964.250000,222866.250000,1271751.875000,67342.750000,8187.500000,635757.000000,25467.254415,7528.421975,98247.401380,2657.720393,598.743267,49140.321166
232,1,0,-nan,-nan,-nan,-nan,-nan,-nan,-nan,-nan,-nan,-nan,-nan,-nan
233,0,8,654417.625000,223358.875000,1302680.250000,67892.125000,8444.625000,651258.500000,17380.234053,5514.815193,84832.362984,1915.027313,633.952273,42423.022974
233,1,0,-nan,-nan,-nan,-nan,-nan,-nan,-nan,-nan,-nan,-nan,-nan,-nan
234,0,8,647335.625000,221824.250000,1257972.125000,66690.750000,8031.000000,628995.500000,19608.585989,6355.904356,74840.945909,1811.105722,506.114859,37423.519840
234,1,0,-nan,-nan,-nan,-nan,-nan,-nan,-nan,-nan,-nan,-nan,-nan,-nan
235,0,8,650156.875000,222831.125000,1248037.875000,67269.875000,8218.000000,623984.250000,19695.356092,6274.932020,63667.787370,1817.698437,807.503560,31841.388140
235,1,0,-nan,-nan,-nan,-nan,-nan,-nan,-nan,-nan,-nan,-nan,-nan,-nan
236,0,8,646651.750000,221797.750000,1291671.000000,66703.375000,8288.250000,645742.000000,17945.883447,5884.308790,92654.683736,1590.526244,673.304862,46375.018962
236,1,0,-nan,-nan,-nan,-nan,-nan,-nan,-nan,-nan,-nan,-nan,-nan,-nan
237,0,8,651783.750000,222593.625000,1325801.625000,67334.875000,8281.125000,662886.750000,17782.784496,5800.738184,87594.806234,2029.318509,647.628064,43800.686840
237,1,0,-nan,-nan,-nan,-nan,-nan,-nan,-nan,-nan,-nan,-nan,-nan,-nan
238,0,8,649234.000000,222435.125000,1312828.000000,67133.875000,8190.125000,656057.125000,18759.913752,5902.548738,78825.758211,1787.386461,874.963347,39201.524037
238,1,0,-nan,-nan,-nan,-nan,-nan,-nan,-nan,-nan,-nan,-nan,-nan,-nan
239,0,8,648165.500000,222201.000000,1318427.500000,67045.875000,7950.375000,659156.000000,17873.102326,6024.896244,153960.831352,1833.555524,620.889269,77037.954256
239,1,0,-nan,-nan,-nan,-nan,-nan,-nan,-nan,-nan,-nan,-nan,-nan,-nan
240,0,8,650549.000000,222854.000000,1339316.250000,67478.625000,8061.375000,669669.250000,17360.798534,5801.288133,67114.912521,1680.853573,255.416296,33532.318030
240,1,0,-nan,-nan,-nan,-nan,-nan,-nan,-nan,-nan,-nan,-nan,-nan,-nan
241,0,8,651053.000000,222701.125000,1276931.250000,67429.250000,8050.250000,638524.375000,18507.965434,5874.181697,86342.985824,1953.864168,604.997882,43278.983398
241,1,0,-nan,-nan,-nan,-nan,-nan,-nan,-nan,-nan,-nan,-nan,-nan,-nan
242,0,8,645954.250000,221619.250000,1257853.375000,66608.250000,7984.250000,628959.250000,17234.234997,5796.302458,48580.929831,1540.489593,431.852622,24268.263534
242,1,0,-nan,-nan,-nan,-nan,-nan,-nan,-nan,-nan,-nan,-nan,-nan,-nan
243,0,8,651140.750000,222817.500000,1310554.000000,67440.500000,8203.375000,655232.875000,24824.555554,7387.900971,141826.169686,2770.196383,809.650841,70914.519815
243,1,0,-nan,-nan,-nan,-nan,-nan,-nan,-nan,-nan,-nan,-nan,-nan,-nan
244,0,8,649949.875000,223010.875000,1296116.875000,67070.500000,7945.125000,647887.625000,16769.150533,5989.104617,113205.846567,1576.188758,946.106289,56368.079642
244,1,0,-nan,-nan,-nan,-nan,-nan,-nan,-nan,-nan,-nan,-nan,-nan,-nan
245,0,8,648076.000000,222175.125000,1307321.750000,67014.500000,8225.375000,653654.125000,16231.123498,5903.913394,114187.265948,1617.273864,791.433973,57116.913726
245,1,0,-nan,-nan,-nan,-nan,-nan,-nan,-nan,-nan,-nan,-nan,-nan,-nan
246,0,8,649717.750000,222725.750000,1262082.000000,67274.125000,7944.625000,631024.875000,18047.742239,5740.072120,74805.973311,1726.646275,619.761433,37384.073178
246,1,0,-nan,-nan,-nan,-nan,-nan,-nan,-nan,-nan,-nan,-nan,-nan,-nan
247,0,8,651922.125000,223047.125000,1265939.000000,67513.125000,8150.000000,632964.500000,18084.359385,5655.314899,85181.603607,1885.309752,719.027294,42571.599080
247,1,0,-nan,-nan,-nan,-nan,-nan,-nan,-nan,-nan,-nan,-nan,-nan,-nan
248,0,8,650336.750000,222506.000000,1276139.125000,67192.750000,7994.625000,638064.500000,17268.447757,5690.909418,46658.165005,1717.567812,915.847823,23334.738899
248,1,0,-nan,-nan,-nan,-nan,-nan,-nan,-nan,-nan,-nan,-nan,-nan,-nan
249,0,8,651605.625000,222669.375000,1317473.875000,67431.750000,7910.875000,658690.000000,18190.749441,5941.954012,86658.189472,1981.874413,678.018148,43292.268501
249,1,0,-nan,-nan,-nan,-nan,-nan,-nan,-nan,-nan,-nan,-nan,-nan,-nan
250,0,8,652949.625000,223041.125000,1322117.500000,67591.750000,8012.500000,661003.000000,24439.088690,7303.644954,171516.041653,2632.506873,1408.991217,85758.357533
250,1,0,-nan,-nan,-nan,-nan,-nan,-nan,-nan,-nan,-nan,-nan,-nan,-nan
251,0,8,652147.375000,222369.875000,1288997.000000,67141.875000,7688.500000,644510.750000,17328.050943,6014.797096,50815.693112,1721.714802,715.330868,25410.519026
251,1,0,-nan,-nan,-nan,-nan,-nan,-nan,-nan,-nan,-nan,-nan,-nan,-nan
252,0,8,654843.750000,223186.125000,1283604.625000,67658.125000,7963.375000,641813.000000,15581.110469,5525.014897,71153.448425,1719.082709,386.748606,35582.259516
252,1,0,-nan,-nan,-nan,-nan,-nan,-nan,-nan,-nan,-nan,-nan,-nan,-nan
253,0,8,649007.500000,222056.000000,1275009.250000,66841.375000,7777.000000,637480.250000,18509.580317,6737.202739,59397.221258,1862.561136,313.442578,29709.811918
253,1,0,-nan,-nan,-nan,-nan,-nan,-nan,-nan,-nan,-nan,-nan,-nan,-nan
254,0,8,649369.875000,221901.750000,1274624.125000,66761.625000,8144.625000,637290.625000,17012.562112,5831.730312,67064.943733,1559.096528,812.142219,33490.417357
254,1,0,-nan,-nan,-nan,-nan,-nan,-nan,-nan,-nan,-nan,-nan,-nan,-nan
255,0,8,650230.750000,222152.250000,1261376.250000,67015.875000,7930.750000,630700.000000,17290.633272,6023.704669,70020.632827,1913.831526,479.996289,34955.379518
255,1,0,-nan,-nan,-nan,-nan,-nan,-nan,-nan,-nan,-nan,-nan,-nan,-nan
