0,-1,688678,236708,1408611,70571,9474,703783,0
0,-1,692585,236570,1198542,70497,7040,598723,0
0,0,760713,265696,1360170,78429,8768,679714,11
0,-1,689215,236108,1306665,70328,7378,652719,0
0,-1,710003,240546,1346563,73582,8207,672887,0
0,-1,694766,238961,1308593,71592,7314,653511,2
0,-1,689548,235930,1264027,70310,6843,631641,0
0,-1,689754,237297,1322102,70899,7439,660401,0
0,-1,690885,237677,1364397,70989,6995,681590,0
0,-1,639191,219680,1255376,66263,7013,626904,0
0,-1,636404,217827,1159416,65290,6617,579280,0
0,-1,636266,218422,1449080,65617,9357,723654,0
0,-1,636538,217131,1144690,65179,7315,571931,0
0,-1,635762,217945,1181456,65409,6946,590281,0
0,-1,642793,219846,1222464,66203,7958,610565,0
0,-1,639671,218759,1407068,65647,8314,703010,0
0,-1,638781,218430,1248204,65526,7406,623570,0
0,-1,637469,217866,1152494,65402,7209,575810,0
0,-1,635083,220044,1253548,66275,7135,625998,0
0,-1,632231,217737,1267309,65294,7427,633181,0
0,-1,633269,218536,1166112,65645,6513,582619,0
0,-1,634369,217536,1143055,65244,6495,571074,0
0,-1,633256,217894,1261870,65513,6655,630438,0
0,-1,634068,218063,1161478,65530,6773,580372,0
0,-1,637047,218375,1265219,65497,8116,632079,0
0,-1,635671,218091,1207157,65470,7389,603153,0
0,-1,654370,222651,1178898,68858,7154,588959,0
0,-1,636417,217927,1241289,65475,7100,620245,0
0,-1,640237,220140,1239109,66443,6639,618835,0
0,-1,637830,218351,1149848,65502,6755,574360,0
0,-1,652922,222076,1263421,68674,8319,631202,0
0,-1,639483,219909,1269140,66367,7440,633903,0
0,-1,635321,217996,1262340,65552,7395,630666,0
0,-1,636246,218134,1182598,65597,6669,590724,0
0,-1,640268,219955,1262837,66498,7578,630519,0
0,-1,636666,218560,1202182,65613,7222,600600,0
0,-1,637459,217776,1188280,65377,7456,593620,0
0,-1,640176,217884,1329519,65532,7602,664401,0
0,-1,636288,217918,1191322,65400,6630,595258,0
0,-1,640800,217897,1209179,65470,7429,604042,0
0,-1,640584,218241,1178330,65512,7328,588681,0
0,-1,637463,217558,1273081,65377,7063,636142,0
0,-1,635700,218463,1168018,65615,7462,583579,0
0,-1,642025,220093,1255780,66281,8014,627165,0
0,-1,658313,223049,1206669,68805,8003,602884,0
0,-1,638702,218525,1243684,65501,7187,621482,0
0,-1,641648,219423,1182779,65934,7085,590872,0
0,-1,634285,217437,1202774,65290,7164,600888,0
0,-1,640083,219101,1176566,65837,7441,587753,0
0,-1,658620,222786,1216987,68844,7820,607987,0
0,-1,644421,219992,1316082,66459,7870,657346,0
0,-1,637547,217359,1211273,65299,6757,605166,0
0,-1,639050,217760,1298488,65470,7046,648803,0
0,-1,642522,220711,1287684,66694,7368,643177,0
0,-1,637860,218174,1185702,65665,7079,592419,0
0,-1,637425,218353,1156948,65754,6832,577960,0
0,-1,639158,217883,1245798,65559,6876,622429,0
0,-1,635408,217350,1259184,65419,6952,629198,0
0,-1,639583,218282,1256004,65679,7171,627562,0
0,-1,641127,217882,1137185,65596,6403,568166,0
0,-1,642937,220119,1270213,66604,8233,634320,0
0,-1,639450,218344,1231708,65754,7413,615478,0
0,-1,640609,217856,1250459,65543,7456,624738,0
0,-1,646734,220205,1299839,66637,8214,649113,0
0,-1,663700,223087,1182033,69067,8351,590470,0
0,-1,654246,223196,1270123,69113,7797,634687,0
0,-1,634512,218235,1171918,65727,7026,585410,0
0,-1,633351,218516,1275079,65756,7825,637127,0
0,-1,635499,218133,1191094,65628,7427,595049,0
0,-1,637489,218372,1253588,65746,7292,626381,0
0,-1,633451,218466,1257169,65803,6939,628096,0
0,-1,637676,219704,1229671,66384,7095,614168,0
0,-1,634149,218226,1093592,65733,6899,546382,0
0,-1,634399,218331,1224610,65767,6408,611805,0
0,-1,638396,219553,1274425,66366,7272,636532,0
0,-1,658323,222768,1212284,68988,7623,605584,0
0,-1,632015,218152,1247529,65709,7962,623312,0
0,-1,633366,218364,1148939,65773,6404,573949,0
0,-1,635965,218493,1158597,65803,6891,578794,0
0,-1,637182,219162,1201958,66028,7360,600525,0
0,-1,637755,218565,1225453,65746,6951,612267,0
0,-1,658668,223194,1206574,69134,7170,602975,0
0,-1,639675,219274,1229611,66166,6604,614211,0
0,-1,634674,218507,1171568,65671,6619,585373,0
0,-1,636040,218384,1221225,65606,6733,609965,0
0,-1,640045,219776,1255093,66306,6858,626911,0
0,-1,636078,218528,1164713,65617,6696,581955,0
0,-1,637956,218354,1152066,65610,6934,575575,0
0,-1,642219,219478,1271799,66023,7078,635446,0
0,-1,632554,217996,1287049,65456,7315,643065,0
0,-1,635954,218926,1245530,65857,7071,622331,0
0,-1,657434,223485,1196943,69111,7524,598053,0
0,-1,656320,223121,1295630,69005,7207,647478,0
0,-1,636979,218709,1150365,65764,6616,574779,0
0,-1,639900,218968,1232886,65869,7153,616031,0
0,-1,637264,218587,1152770,65697,6622,575995,0
0,-1,638898,219242,1219956,65917,6319,609543,0
0,-1,642545,219446,1214729,66167,7475,606771,0
0,-1,638159,218899,1164537,65853,6761,581838,0
0,-1,643119,220861,1234960,66737,6982,616727,0
0,-1,640448,219442,1254721,66165,6934,626672,0
0,-1,636448,218947,1169737,65812,7349,584463,0
0,-1,643319,221083,1322501,66781,7137,660530,0
0,-1,636380,218532,1215445,65685,6707,607473,0
0,-1,634858,218322,1219986,65581,6541,609568,0
0,-1,635254,218092,1323497,65526,7447,660749,0
0,-1,639226,218896,1266997,65859,7460,632890,0
0,-1,661071,223271,1191280,69008,7379,595255,0
0,-1,657414,223219,1272775,69050,7565,635910,0
0,-1,635822,217545,1248324,65444,6985,623779,0
0,-1,643217,220005,1255153,66393,7122,626884,0
0,-1,641863,220122,1259652,66428,7023,629218,0
0,-1,640811,218429,1144667,65663,7035,571939,0
0,-1,632904,218416,1244169,65625,6712,621733,0
0,-1,635555,218772,1179894,65782,6714,589377,0
0,-1,635599,218624,1222789,65676,6626,611057,0
0,-1,633564,218182,1222379,65559,6634,610693,0
0,-1,636770,218013,1161308,65527,6306,580197,0
0,-1,641252,220174,1187143,66517,6966,592830,0
0,-1,634327,218671,1164732,65790,6981,581806,0
0,-1,640470,220482,1262592,66641,7146,630666,0
0,-1,637104,218533,1263464,65739,6956,631211,0
0,-1,639979,219700,1271726,66295,6930,635179,0
0,-1,633660,218207,1117318,65582,5964,558266,0
0,-1,659244,223310,1202835,69085,7563,600948,0
0,-1,639499,218919,1183165,65854,6854,591083,0
0,-1,639578,218471,1226442,65627,7405,612721,0
0,-1,634880,218499,1169152,65675,7083,584130,0
0,-1,642299,220359,1282241,66506,7298,640516,0
0,-1,634726,218182,1251339,65558,6890,625223,0
0,-1,659056,223484,1306497,69096,6989,652797,0
0,-1,638246,218307,1155001,65673,6842,577007,0
0,-1,644037,219968,1194854,66376,7453,596750,0
0,-1,636903,218247,1188689,65539,6342,593913,0
0,-1,643317,220528,1262276,66513,7118,630521,0
0,-1,639731,218671,1169833,65628,6691,584555,0
0,-1,659940,222880,1334400,68783,7797,667184,0
0,-1,641100,218834,1174326,65665,7678,586713,0
0,-1,635894,218573,1241173,65518,8269,620237,0
0,-1,635644,218462,1509585,65483,8034,754414,0
0,-1,658168,223202,1170625,68880,7896,584816,0
0,-1,639639,220213,1367102,66306,7420,682862,0
0,-1,659037,223202,1172175,68904,7298,585657,0
0,-1,663770,223468,1221105,68971,8155,610098,0
0,-1,643510,220697,1312532,66611,7407,655454,0
0,-1,640822,218988,1267902,65722,7888,633446,0
0,-1,642316,219654,1257594,66129,7566,628137,0
0,-1,641025,218776,1169156,65678,6376,584022,0
0,-1,642751,219271,1245834,65793,6818,622510,0
0,-1,636949,218663,1213660,65670,7964,606326,0
0,-1,640812,220102,1423913,66065,8273,711520,0
0,-1,662576,223728,1247146,69190,8830,623201,0
0,-1,640760,219590,1204269,66076,7498,601509,0
0,-1,666765,224763,1233241,69563,8349,616174,0
0,-1,649109,221196,1339712,66836,8433,668753,0
0,-1,642595,220212,1158426,66326,6475,578497,0
0,-1,645335,220967,1257127,66727,7475,627843,0
0,-1,643094,219246,1300350,65833,7459,649669,0
0,-1,643910,219486,1280764,66085,7687,639674,0
0,-1,649602,221977,1445348,66897,9092,721855,0
0,-1,666470,224150,1228816,69135,8118,614038,0
0,-1,642260,221324,1263935,66394,8002,631520,0
0,-1,636197,219169,1246728,65693,7890,622924,0
0,-1,642758,221704,1290490,66818,7635,644460,0
0,-1,638967,219605,1237887,65866,7451,618466,0
0,-1,642036,220113,1154791,66043,7151,576938,0
0,-1,646979,222067,1295091,66963,8251,646523,0
0,-1,645885,221328,1354104,66698,7628,676338,0
0,-1,642322,219673,1246223,65943,7104,622677,0
0,-1,639492,219051,1260237,65754,7863,629614,0
0,-1,663858,223799,1353743,68998,10343,676310,0
0,-1,641082,220181,1245609,66121,8052,622251,0
0,-1,643784,220643,1275973,66441,7826,637338,0
0,-1,642613,219553,1221336,65917,7478,610229,0
0,-1,640972,219968,1282348,66324,7749,640265,0
0,-1,640002,218751,1401048,65718,7482,700019,0
0,-1,636644,218375,1181691,65572,7386,590409,0
0,-1,638233,218971,1204188,65701,7042,601617,0
0,-1,639797,218588,1215177,65637,8175,607099,0
0,-1,642942,219645,1262229,66158,7158,630439,0
0,-1,662897,223633,1240332,69025,7747,619783,0
0,-1,639396,218465,1145456,65555,7146,572342,0
0,-1,639668,218226,1169699,65563,7575,584401,0
0,-1,639445,219321,1312556,65946,6863,655846,0
0,-1,635361,218309,1173044,65573,6731,586058,0
0,-1,640763,218459,1339368,65534,7233,669258,0
0,-1,642649,220447,1252298,66489,7383,625396,0
0,-1,643683,220153,1305198,66318,7470,651877,0
0,-1,642204,218929,1269038,65722,7283,634091,0
0,-1,643371,220034,1196493,66263,7674,597504,0
0,-1,638045,218778,1141240,65736,6945,570198,0
0,-1,640075,218324,1312804,65548,7733,656061,0
0,-1,642366,219580,1264501,66164,7399,631643,0
0,-1,647203,220550,1178597,66609,7275,588410,0
0,-1,638287,218082,1256166,65372,7423,627821,0
0,-1,638646,218439,1230051,65600,7313,614550,0
0,-1,641218,218863,1232135,65699,7690,615666,0
0,-1,661240,223657,1226422,69094,8012,612814,0
0,-1,642117,218843,1154129,65593,6535,576577,0
0,-1,648257,220594,1288787,66536,7682,643595,0
0,-1,638799,217864,1157230,65150,7666,578141,0
0,-1,641291,218587,1252476,65412,7423,625945,0
0,-1,643695,219190,1172975,65649,7423,585994,0
0,-1,642668,218726,1179060,65478,7629,589108,0
0,-1,642219,218486,1276545,65315,8478,637847,0
0,-1,637586,219689,1206563,65745,7830,602517,0
0,-1,659548,223799,1206392,68957,7525,602780,0
0,-1,639430,218699,1274160,65525,7500,636433,0
0,-1,640090,219818,1192116,66034,7350,595390,0
0,-1,666241,227993,1216934,68248,7663,608014,0
0,-1,661174,223480,1161446,68952,8175,580156,0
0,-1,635072,217604,1161043,65291,6911,580066,0
0,-1,643652,220361,1248599,66372,7527,623654,0
0,-1,658042,222852,1192279,68756,7505,595827,0
0,-1,635541,217738,1232359,65276,7097,615793,0
0,-1,641295,218337,1281235,65495,7531,640047,0
0,-1,644294,219306,1155160,65820,6908,577079,0
0,-1,639510,219589,1235547,66122,6932,617121,0
0,-1,661020,223002,1164225,68798,7969,581749,0
0,-1,637578,217883,1085687,65311,6930,542434,0
0,-1,636840,217524,1224525,65191,6557,611907,0
0,-1,641528,218569,1237993,65569,6843,618576,0
0,-1,637718,217793,1189331,65289,7583,594255,0
0,-1,636858,217721,1214894,65261,7922,606965,0
0,-1,659681,222838,1229517,68721,7969,614449,0
0,-1,647863,220893,1212661,66644,7627,605537,0
0,-1,634785,217871,1252333,65236,7528,625722,0
0,-1,638196,218882,1242272,65681,7030,620569,0
0,-1,640587,219349,1142891,66029,6935,570793,0
0,-1,641282,219988,1190884,66208,6798,594845,0
0,-1,639721,218537,1247878,65532,6911,623470,0
0,-1,641741,218696,1164416,65601,7308,581756,0
0,-1,638851,218874,1254933,65611,6773,627038,0
0,-1,637730,217895,1159218,65321,7123,579128,0
0,-1,659407,222391,1382588,68622,7505,690955,0
0,-1,646197,220380,1257964,66375,7374,628240,0
0,-1,646111,220125,1229438,66269,7721,614248,0
0,-1,641694,217795,1275227,65213,7279,637304,0
0,-1,637701,218181,1169812,65409,7572,584496,0
0,-1,641222,218298,1144574,65470,6758,571784,0
0,-1,643852,220275,1157220,66385,6829,577862,0
0,-1,637514,218051,1136601,65377,6319,567928,0
0,-1,638729,217949,1148620,65347,6491,573818,0
0,-1,641400,217953,1181965,65384,7995,590593,0
0,-1,645283,220114,1228970,66349,6734,613861,0
0,-1,662751,222808,1306614,68656,8376,652807,0
0,-1,661455,222795,1286388,68645,7135,642750,0
0,-1,641944,218687,1217277,65466,6010,608149,0
0,-1,650196,220660,1260515,66430,6136,629433,0
0,-1,634566,219938,1151407,65736,6578,574954,0
0,-1,631879,218181,1232061,64960,6427,615566,0
0,-1,631203,217668,1216104,64708,6606,607619,0
0,-1,632207,218278,1216747,64994,6741,607953,0
0,-1,632026,218016,1211394,64846,6641,605242,0
0,-1,655909,222928,1374624,68285,7244,686959,0
0,-1,633637,219256,1158542,65487,7565,578634,0
0,-1,633619,218171,1203626,64957,6641,601405,0
0,-1,633404,218376,1257689,65016,8040,628382,0
0,-1,640049,220165,1188235,65778,7601,593505,0
0,-1,633195,218037,1141964,64860,7877,570232,0
0,-1,635984,218440,1268942,65030,7667,634031,0
0,-1,633677,218013,1203639,64853,7017,601456,0
0,-1,655449,222639,1259356,68223,7560,629154,0
0,-1,630642,217843,1276235,64801,7200,637610,0
0,-1,634453,217612,1150247,64843,7264,574728,0
0,-1,633581,218048,1157177,65026,6920,578108,0
0,-1,634715,218025,1147512,65008,6619,573214,0
0,-1,634870,218002,1236628,65052,6498,617926,0
0,-1,635158,217866,1217155,65019,6723,608098,0
0,-1,640122,219875,1198364,66709,8356,598501,0
0,-1,639685,218774,1175695,66353,7440,587240,0
0,-1,638692,218742,1238658,66084,6997,618922,0
0,-1,641667,218390,1302072,65958,7683,650612,0
0,-1,639915,218381,1345678,65944,8466,672278,0
0,-1,638453,217622,1183494,65730,7367,591230,0
0,-1,640476,218086,1351659,65934,8543,675260,0
0,-1,632035,217999,1235692,65901,7825,617443,0
0,-1,636405,218092,1243683,65837,7700,621295,0
1,-1,691042,236690,1321972,70592,7770,660427,0
1,-1,711829,241048,1345490,73780,8027,672317,0
1,0,760084,265942,1468063,78539,9164,733592,11
1,-1,687927,236296,1446603,70484,8811,722836,0
1,-1,691139,236067,1213822,70361,8608,606370,0
1,-1,691793,236983,1253751,70700,7038,626391,2
1,-1,686323,236270,1267399,70384,6741,633408,0
1,-1,688308,235726,1198507,70248,7224,598853,0
1,-1,670903,228171,1290638,69973,8303,644918,0
1,-1,655687,222678,1215153,68729,7487,607237,0
1,-1,643585,220275,1303435,66518,7620,650852,0
1,-1,639817,219055,1277157,66035,7214,637929,0
1,-1,636935,218854,1272784,66037,7684,635696,0
1,-1,635009,217328,1107051,65195,7002,553012,0
1,-1,637637,218439,1136465,65509,7173,567757,0
1,-1,636398,217528,1207653,65138,7144,603337,0
1,-1,639852,217668,1440401,65387,8948,719863,0
1,-1,638994,218113,1179282,65487,7117,588988,0
1,-1,639626,220299,1536463,66449,8938,767728,0
1,-1,633739,217922,1263694,65435,7217,631429,0
1,-1,634589,218536,1185876,65634,6119,592569,0
1,-1,632113,217456,1139228,65320,6668,569115,0
1,-1,635965,217663,1248641,65385,7124,623819,0
1,-1,656182,222173,1251190,68529,8251,625195,0
1,-1,633289,217974,1227117,65433,6579,613142,0
1,-1,635279,217686,1125996,65372,6988,562498,0
1,-1,639276,219651,1279194,66172,6884,638990,0
1,-1,634084,217717,1280997,65407,6689,640153,0
1,-1,641343,219965,1292624,66249,7862,645547,0
1,-1,642638,219399,1213493,66164,7537,606127,0
1,-1,633073,217764,1238669,65431,7031,618864,0
1,-1,634040,217970,1177892,65436,6883,588445,0
1,-1,635307,217711,1304818,65368,7556,651970,0
1,-1,637130,218009,1189133,65571,7236,594045,0
1,-1,641372,219602,1334818,66135,8269,666661,0
1,-1,639683,218306,1208356,65613,7028,603732,0
1,-1,641052,218637,1263250,65809,7280,631143,0
1,-1,636827,218428,1253965,65598,6295,626468,0
1,-1,640069,218860,1201621,65892,6881,600315,0
1,-1,644697,219921,1278855,66234,7062,638702,0
1,-1,639353,217836,1295781,65500,6938,647402,0
1,-1,641542,218110,1287944,65458,7565,643572,0
1,-1,636227,218297,1211422,65535,7581,605249,0
1,-1,642048,220169,1303678,66226,7328,651219,0
1,-1,639882,218431,1227614,65475,7061,613407,0
1,-1,642671,219826,1260747,66263,7412,629618,0
1,-1,636040,218712,1187239,65721,7207,593204,0
1,-1,637440,217923,1277198,65422,7491,638189,0
1,-1,643308,219328,1259718,66130,8053,629248,0
1,-1,639963,218793,1138492,65843,7453,568689,0
1,-1,639802,218535,1267138,65777,6744,633046,0
1,-1,640879,218830,1175585,65862,6975,587365,0
1,-1,636891,218695,1236850,65816,7407,618027,0
1,-1,642887,220547,1272384,66735,7517,635427,0
1,-1,641201,220259,1281061,66554,7278,639855,0
1,-1,642522,219177,1326868,66227,7850,662769,0
1,-1,642983,220387,1296696,66745,7244,647650,0
1,-1,640262,218433,1227778,65784,7491,613448,0
1,-1,663671,223234,1233630,69137,7760,616236,0
1,-1,638804,218245,1274235,65692,7591,636656,0
1,-1,645284,219588,1263987,66286,8083,631316,0
1,-1,641166,218041,1293729,65598,6926,646522,0
1,-1,641212,218443,1244040,65735,7912,621681,0
1,-1,643590,219086,1194889,65973,7617,597011,0
1,-1,631509,218321,1284037,65692,7053,641517,0
1,-1,638326,219935,1252084,66482,7487,625381,0
1,-1,630780,217847,1253808,65494,7514,626536,0
1,-1,655375,222780,1199593,69001,8300,599310,0
1,-1,638297,219037,1239929,65989,7641,619491,0
1,-1,631404,218258,1228143,65740,7159,613638,0
1,-1,634047,218095,1179954,65623,6445,589572,0
1,-1,632230,217582,1191841,65422,7055,595434,0
1,-1,634845,217994,1224605,65562,7103,611896,0
1,-1,637327,217851,1252135,65545,6730,625669,0
1,-1,636577,218238,1280440,65718,6992,639755,0
1,-1,639433,218838,1255875,65924,7122,627519,0
1,-1,632591,218168,1230168,65647,6793,614714,0
1,-1,655764,222857,1245718,69003,7946,622477,0
1,-1,636951,218068,1247614,65628,6563,623489,0
1,-1,654762,222576,1167742,68961,7514,583458,0
1,-1,635615,218250,1242733,65641,6484,620927,0
1,-1,637558,218120,1172113,65688,6758,585565,0
1,-1,638465,219902,1239313,66502,7224,618863,0
1,-1,638529,219230,1223401,65895,6629,611180,0
1,-1,635747,218050,1229679,65530,6427,614427,0
1,-1,642928,220628,1217675,66723,6772,608033,0
1,-1,638464,218688,1235734,65755,7086,617288,0
1,-1,637264,218565,1232005,65741,6778,615560,0
1,-1,634457,219097,1167319,65876,7056,583322,0
1,-1,633103,218307,1238003,65609,6332,618543,0
1,-1,635448,218502,1226645,65735,7215,612827,0
1,-1,636099,218745,1180112,65734,6576,589623,0
1,-1,635343,218296,1186745,65651,6747,592900,0
1,-1,638070,218493,1175487,65743,7035,587290,0
1,-1,658772,223401,1211564,69097,7250,605372,0
1,-1,639923,220036,1236077,66390,7070,617445,0
1,-1,638678,218501,1154221,65739,7001,576638,0
1,-1,637246,218559,1250719,65699,6859,624813,0
1,-1,658640,223635,1154525,69156,7528,576890,0
1,-1,640416,218693,1151097,65791,7017,575022,0
1,-1,635525,219367,1228581,66032,7157,613813,0
1,-1,656990,223341,1203747,69047,7706,601468,0
1,-1,635806,218404,1141126,65626,7091,570016,0
1,-1,639977,218953,1256646,65791,6495,627855,0
1,-1,639060,219210,1240192,65948,6890,619567,0
1,-1,635817,217825,1235198,65445,7798,617084,0
1,-1,640343,219115,1321801,65900,7790,660467,0
1,-1,641693,220270,1250077,66425,7363,624361,0
1,-1,641518,219798,1216907,66339,7277,607815,0
1,-1,640499,218732,1172326,65794,6985,585644,0
1,-1,640975,218979,1142138,65826,6337,570576,0
1,-1,641152,219083,1242176,65904,7098,620629,0
1,-1,634746,219503,1247430,66234,6838,623134,0
1,-1,634431,218328,1242198,65592,6897,620682,0
1,-1,655626,222895,1301059,68825,7612,650116,0
1,-1,638752,220627,1331446,66671,7409,664980,0
1,-1,656105,222802,1213539,68854,6889,606311,0
1,-1,658332,223473,1220272,69128,7638,609695,0
1,-1,636237,219432,1206956,66209,7035,602774,0
1,-1,657269,223368,1160838,69085,8060,580049,0
1,-1,638295,219460,1251186,66159,6701,625009,0
1,-1,639310,219013,1265264,65829,7432,632201,0
1,-1,660044,223130,1301296,69010,7333,650251,0
1,-1,637308,218823,1197461,65779,6118,598304,0
1,-1,641389,219863,1288693,66370,7458,643678,0
1,-1,641739,219304,1185412,65959,6624,592308,0
1,-1,657036,223438,1158406,69084,8002,578812,0
1,-1,636335,218230,1252073,65538,6737,625654,0
1,-1,640390,218453,1119972,65608,7283,559584,0
1,-1,638573,219195,1329015,65913,6650,663978,0
1,-1,638856,218471,1264021,65610,7203,631556,0
1,-1,641311,219240,1225360,65898,7300,612129,0
1,-1,639471,218827,1231988,65703,6572,615562,0
1,-1,633884,217007,1167376,65149,6824,583208,0
1,-1,641485,219445,1315979,65984,7024,657637,0
1,-1,643553,219928,1331765,66013,7696,665379,0
1,-1,641722,219164,1239062,65686,7947,619000,0
1,-1,640077,220874,1259215,66593,8311,628371,0
1,-1,642156,220499,1339848,66530,8245,669065,0
1,-1,638006,218874,1240844,65715,7500,619876,0
1,-1,635636,218138,1280636,65388,7447,639842,0
1,-1,641171,219021,1320154,65724,7122,659511,0
1,-1,643246,219552,1230328,65890,7302,614710,0
1,-1,659457,223262,1201508,68894,7953,600242,0
1,-1,642434,219942,1223911,66211,7331,611328,0
1,-1,641202,218772,1166800,65657,7391,582927,0
1,-1,640418,218449,1290702,65536,7803,644544,0
1,-1,642951,220115,1251389,66352,7783,624984,0
1,-1,663685,223348,1226113,68908,8334,612672,0
1,-1,638256,218644,1214639,65592,8455,606867,0
1,-1,638842,218476,1316152,65682,8571,657563,0
1,-1,646772,220579,1239301,66509,8780,619109,0
1,-1,647273,221164,1375250,66728,8233,686544,0
1,-1,643035,219478,1256871,65987,7645,628068,0
1,-1,640577,219287,1260852,65969,7798,629956,0
1,-1,645597,219787,1181511,66168,7449,590266,0
1,-1,648227,221311,1323588,66872,8372,661228,0
1,-1,644618,219586,1170990,65973,6946,585035,0
1,-1,664257,224478,1261749,69227,8459,630433,0
1,-1,644415,219806,1251129,65928,7811,625055,0
1,-1,649008,221052,1268054,66523,7833,633399,0
1,-1,639837,219963,1167735,65922,7833,583339,0
1,-1,644333,220337,1387410,66098,8295,693214,0
1,-1,643341,220980,1262285,66519,7316,630447,0
1,-1,638924,219287,1277101,65718,7696,638129,0
1,-1,638347,219584,1300675,65896,8444,649851,0
1,-1,638800,218919,1265568,65717,7720,632331,0
1,-1,642232,219480,1363313,65928,7780,681180,0
1,-1,644539,221038,1266122,66730,8241,632360,0
1,-1,661694,223184,1325861,68972,7801,662414,0
1,-1,636089,218659,1164003,65568,7695,581659,0
1,-1,640432,219683,1291429,65879,7857,645323,0
1,-1,639884,218973,1276114,65667,7547,637588,0
1,-1,638300,218760,1207652,65726,7006,603342,0
1,-1,641891,218923,1255271,65735,8261,627203,0
1,-1,641997,218274,1273579,65568,7907,636324,0
1,-1,638130,218382,1246322,65503,8044,622703,0
1,-1,637252,218134,1124832,65411,6433,561985,0
1,-1,639656,218676,1135750,65652,6698,567411,0
1,-1,640905,218979,1254140,65771,7090,626575,0
1,-1,638462,218736,1224762,65631,7305,611862,0
1,-1,643808,220219,1246285,66402,7953,622390,0
1,-1,646123,220446,1244530,66604,7812,621642,0
1,-1,637066,218523,1122899,65697,7337,560973,0
1,-1,636321,218406,1182810,65559,7151,591007,0
1,-1,659115,223069,1213049,68860,8066,606131,0
1,-1,664366,227388,1287933,68163,7624,643629,0
1,-1,638399,217875,1322046,65374,7201,660585,0
1,-1,639481,219184,1119107,65812,7049,559061,0
1,-1,635712,217724,1132900,65423,7031,565972,0
1,-1,642277,219854,1354602,66369,7396,676548,0
1,-1,640874,218849,1226737,65785,6737,612899,0
1,-1,665419,223648,1226750,69096,8199,612913,0
1,-1,662380,224239,1182684,69266,7398,591004,0
1,-1,641749,219991,1231415,66319,6934,615087,0
1,-1,641049,218520,1182521,65708,7470,590788,0
1,-1,636369,217975,1147137,65398,7101,573188,0
1,-1,643279,218835,1249720,65651,8087,624463,0
1,-1,642471,218624,1246276,65582,7523,622687,0
1,-1,639171,218388,1309999,65374,7927,654534,0
1,-1,643801,220591,1261094,66284,7624,629886,0
1,-1,641050,218403,1159139,65453,7437,579129,0
1,-1,643214,218531,1184335,65331,7774,591819,0
1,-1,641580,218552,1198678,65426,8195,598853,0
1,-1,636605,218580,1415678,65351,7929,707255,0
1,-1,640351,220365,1262121,66254,7978,630286,0
1,-1,640946,219663,1177540,65831,6782,588308,0
1,-1,640704,220345,1168487,66325,7343,583507,0
1,-1,640018,219150,1227069,65687,7237,613032,0
1,-1,641108,219193,1177807,65684,7209,588419,0
1,-1,639715,218314,1224921,65500,7520,611911,0
1,-1,636983,217878,1307132,65291,7044,653128,0
1,-1,634755,217745,1219456,65253,6767,609239,0
1,-1,634779,217513,1241394,65130,7068,620289,0
1,-1,640971,218547,1156899,65529,7491,578036,0
1,-1,640036,217661,1221773,65244,7676,610444,0
1,-1,638166,218229,1276903,65428,7100,638080,0
1,-1,637374,217388,1135283,65160,7123,567233,0
1,-1,637415,217919,1220611,65362,7349,609855,0
1,-1,641466,218266,1256175,65427,7916,627705,0
1,-1,647101,220353,1210846,66326,7394,604781,0
1,-1,643998,220329,1259645,66299,7812,628989,0
1,-1,660522,222552,1184355,68585,8338,591656,0
1,-1,640831,218286,1247219,65500,8054,623108,0
1,-1,639208,217780,1217897,65269,7738,608418,0
1,-1,656403,222968,1206556,68822,7832,602864,0
1,-1,638997,219356,1217851,66008,6894,608255,0
1,-1,637032,218334,1131765,65531,6567,565389,0
1,-1,638284,219187,1198860,65768,6927,598962,0
1,-1,661940,223315,1217314,68900,7916,608296,0
1,-1,639322,218022,1319388,65303,7076,659225,0
1,-1,657423,222809,1258985,68734,7498,629059,0
1,-1,659278,222685,1222685,68686,7442,611009,0
1,-1,638933,218071,1306882,65416,7337,653015,0
1,-1,660905,222949,1280758,68767,7697,640100,0
1,-1,637160,216961,1230915,65066,7883,614942,0
1,-1,641222,218227,1272420,65472,7316,635638,0
1,-1,645192,220715,1145097,66537,6967,571686,0
1,-1,661460,223152,1297081,68855,7515,648195,0
1,-1,642361,219199,1278389,65792,6773,638807,0
1,-1,645429,219248,1150889,65986,7095,574718,0
1,-1,639903,218097,1251219,65382,6987,625210,0
1,-1,643417,218604,1207791,65588,7502,603453,0
1,-1,659906,222570,1273901,68650,7580,636478,0
1,-1,640697,218185,1270679,65390,7578,634982,0
1,-1,638680,217844,1251937,65207,6528,625687,0
1,-1,640905,217863,1195773,65220,6501,597494,0
1,-1,641947,217856,1151067,65165,5777,575117,0
1,-1,651143,222745,1307214,68248,7739,653143,0
1,-1,630553,218351,1233754,65030,7065,616355,0
1,-1,633613,217977,1212291,64847,6135,605805,0
1,-1,633593,217779,1118406,64769,6150,558776,0
1,-1,637000,220357,1115966,65834,7182,557304,0
1,-1,661169,227488,1158615,67639,6593,578938,0
1,-1,635606,218102,1140148,64926,6653,569583,0
1,-1,632635,217777,1214720,64728,6822,606989,0
1,-1,630181,217602,1213673,64727,7875,606449,0
1,-1,633448,218117,1297638,64888,7765,648081,0
1,-1,635128,218965,1191845,65140,8211,595547,0
1,-1,632767,217643,1183683,64727,7578,591411,0
1,-1,632140,217185,1124921,64684,6671,561977,0
1,-1,637502,219039,1357116,65265,6557,678116,0
1,-1,631915,218263,1172015,64954,7091,585541,0
1,-1,635305,219074,1155669,65494,7208,577143,0
1,-1,632655,217857,1310275,64888,7314,654724,0
1,-1,635393,218224,1109650,65031,6388,554391,0
1,-1,634342,218058,1182007,64978,6725,590602,0
1,-1,635916,218176,1127862,65125,6767,563415,0
1,-1,632665,218159,1231248,65123,6990,615116,0
1,-1,636346,218065,1244325,65904,7784,621866,0
1,-1,640370,219882,1166628,66773,7733,582464,0
1,-1,642220,219581,1128746,66620,7405,563644,0
1,-1,643254,220192,1175035,66886,7935,586666,0
1,-1,639671,217921,1380979,65816,9177,690025,0
1,-1,640291,218032,1224575,65881,8590,611871,0
1,-1,635688,217151,1148288,65586,7306,573717,0
1,-1,634775,218077,1158359,65991,7453,578680,0
1,-1,634273,218023,1166657,65847,7500,582761,0
2,-1,690313,236649,1225484,70583,7031,612381,0
2,-1,688133,236108,1509467,70328,7874,754247,0
2,0,759793,265468,1412647,78413,8854,705834,11
2,-1,688766,236882,1324699,70576,7413,661963,0
2,-1,689868,236510,1205516,70447,7191,602307,0
2,-1,691375,237050,1422473,70695,8093,710895,0
2,-1,694126,238604,1315029,71457,7458,656699,0
2,-1,687730,236230,1297788,70404,6876,648300,2
2,-1,681168,233951,1308109,69690,7154,653558,0
2,-1,634910,217498,1141530,65252,6510,570361,0
2,-1,634841,217379,1250877,65298,6734,624586,0
2,-1,635803,217433,1172940,65228,6999,586039,0
2,-1,636379,217555,1200962,65357,7354,599948,0
2,-1,636205,217827,1194813,65378,7615,596923,0
2,-1,658801,222916,1284706,68808,7965,641928,0
2,-1,637852,218442,1283075,65536,7509,641065,0
2,-1,644466,220225,1308648,66492,8110,653443,0
2,-1,643260,219958,1274870,66314,7787,636824,0
2,-1,632221,217780,1381138,65321,7908,690150,0
2,-1,635388,218309,1158665,65509,7283,578872,0
2,-1,639022,220245,1298757,66508,6943,648613,0
2,-1,635739,218220,1271160,65524,7065,635173,0
2,-1,656684,222526,1269615,68844,7796,634303,0
2,-1,636149,218075,1207334,65454,6872,603231,0
2,-1,641172,218961,1319550,65876,8253,659029,0
2,-1,637108,218771,1246756,65997,7399,622828,0
2,-1,636074,217656,1213749,65413,7337,606411,0
2,-1,634614,218352,1360175,65664,6746,679600,0
2,-1,636992,218062,1203424,65489,6873,601368,0
2,-1,639865,218264,1148785,65417,6726,574016,0
2,-1,635356,218335,1255857,65670,7199,627416,0
2,-1,684329,231531,1366046,71474,8030,682525,0
2,-1,637841,218827,1163874,65822,7274,581510,0
2,-1,634921,217551,1231784,65359,7628,615452,0
2,-1,635167,217441,1273786,65317,7968,636322,0
2,-1,644851,220821,1291295,66718,7185,644904,0
2,-1,641410,219093,1371561,66187,7855,685298,0
2,-1,639604,219944,1240853,66337,6823,619685,0
2,-1,638029,218560,1257246,65770,6634,628135,0
2,-1,640048,218483,1215839,65596,6729,607413,0
2,-1,637780,218106,1198295,65540,6728,598638,0
2,-1,641737,218478,1174859,65636,7391,586944,0
2,-1,634861,218184,1213853,65440,7394,606548,0
2,-1,637344,218043,1169016,65421,6888,584104,0
2,-1,640620,218739,1178009,65559,7051,588593,0
2,-1,636691,218005,1165085,65366,7275,582087,0
2,-1,645125,220288,1260914,66518,8178,629698,0
2,-1,638100,218143,1258715,65531,7032,628996,0
2,-1,640202,218893,1166733,65758,7412,582971,0
2,-1,639717,218459,1324034,65665,7713,661539,0
2,-1,640478,218775,1176300,65791,6516,587627,0
2,-1,643575,219500,1282037,66268,7070,640331,0
2,-1,661606,222750,1229523,69031,8510,614328,0
2,-1,657599,222729,1230745,68981,7807,614951,0
2,-1,639351,218417,1186881,65790,7104,593061,0
2,-1,640154,218993,1169630,65978,7309,584325,0
2,-1,636724,218426,1248343,65785,7047,623687,0
2,-1,640833,219195,1254416,66224,7427,626556,0
2,-1,641083,218950,1237732,65897,6992,618480,0
2,-1,637185,218330,1172033,65752,8009,585476,0
2,-1,638807,217795,1210918,65635,7858,604913,0
2,-1,644828,219742,1283959,66404,7901,641304,0
2,-1,641928,219241,1333918,66166,8028,666222,0
2,-1,638854,217521,1234335,65444,7531,616739,0
2,-1,632643,219278,1239665,66243,6752,619144,0
2,-1,637329,219531,1307825,66123,7328,653520,0
2,-1,657914,222890,1217768,69008,8313,608321,0
2,-1,634028,218552,1168740,65805,7224,583959,0
2,-1,640140,220203,1276759,66578,7933,637710,0
2,-1,638713,219583,1281192,66340,7971,639951,0
2,-1,631381,216974,1131204,65364,6240,565110,0
2,-1,644312,220797,1219523,66872,7139,608953,0
2,-1,638365,219414,1175858,66089,6779,587530,0
2,-1,636827,218685,1147608,65831,6387,573471,0
2,-1,635752,218123,1216849,65626,7120,608031,0
2,-1,638283,218389,1228227,65791,7292,613443,0
2,-1,636375,218855,1223584,65920,7288,611237,0
2,-1,637293,219427,1240512,66111,6810,619795,0
2,-1,642359,220627,1297965,66825,6789,648188,0
2,-1,635671,218707,1116175,65874,6422,557605,0
2,-1,637766,219458,1275880,66293,7447,637320,0
2,-1,639043,219387,1335612,66074,6619,667388,0
2,-1,654871,222961,1189956,69010,7975,594577,0
2,-1,635322,218521,1204131,65704,6431,601537,0
2,-1,634139,218351,1153640,65614,6785,576356,0
2,-1,659447,223482,1165672,69114,7155,582358,0
2,-1,659891,223139,1207639,68990,7576,603455,0
2,-1,636573,218397,1218730,65632,6230,609001,0
2,-1,641456,218557,1242072,65741,7231,620662,0
2,-1,636560,219120,1236473,65912,7052,617805,0
2,-1,635416,218320,1274719,65594,6663,636866,0
2,-1,639015,219080,1270477,65791,6494,634859,0
2,-1,635644,218299,1231557,65618,6921,615285,0
2,-1,640515,219869,1262721,66344,7220,630709,0
2,-1,634939,218580,1149452,65744,6616,574270,0
2,-1,632205,217343,1139823,65348,6634,569383,0
2,-1,637289,218341,1151718,65628,6916,575542,0
2,-1,658333,223607,1199572,69142,7279,599331,0
2,-1,637306,218292,1228871,65651,6294,613965,0
2,-1,639800,218760,1245794,65747,6927,622536,0
2,-1,645226,220403,1293291,66601,7606,645920,0
2,-1,637752,218677,1228977,65694,7016,614134,0
2,-1,638117,218568,1247331,65680,7445,623275,0
2,-1,644943,221279,1218032,66900,7277,608265,0
2,-1,640159,220093,1270025,66506,7936,634200,0
2,-1,640589,219182,1346698,65940,8037,672900,0
2,-1,637810,218202,1322798,65475,6672,660891,0
2,-1,640481,218678,1258135,65730,7369,628556,0
2,-1,637511,218467,1188507,65649,6337,593839,0
2,-1,637948,218226,1232696,65540,7131,615940,0
2,-1,658170,223134,1200638,69040,7456,599897,0
2,-1,640916,219268,1236614,65951,7305,617801,0
2,-1,643690,218433,1274598,65647,7024,636846,0
2,-1,640390,221134,1176207,66832,7382,587436,0
2,-1,633743,218492,1327666,65673,7072,663304,0
2,-1,639022,219609,1167554,66057,6776,583306,0
2,-1,639215,219532,1238491,66025,7192,618784,0
2,-1,637339,218869,1150115,65818,6510,574561,0
2,-1,639911,218622,1145116,65762,6912,572137,0
2,-1,635491,218866,1156954,65776,6505,577897,0
2,-1,638058,219084,1145702,65905,6249,572206,0
2,-1,635682,218326,1218671,65556,6813,608866,0
2,-1,638542,218701,1322252,65743,6588,660629,0
2,-1,637468,218276,1163128,65666,6816,581049,0
2,-1,638276,218429,1256795,65624,7258,628074,0
2,-1,661310,223080,1169449,68993,7746,584331,0
2,-1,635001,218807,1164796,65815,7355,581938,0
2,-1,642611,221280,1270631,66938,7327,634595,0
2,-1,659035,223164,1195072,68991,7920,597117,0
2,-1,635668,218138,1186784,65580,6767,592912,0
2,-1,639016,218698,1191522,65741,6407,595375,0
2,-1,637312,218204,1267080,65591,7108,633065,0
2,-1,635619,218390,1132112,65644,6426,565620,0
2,-1,638242,218818,1178369,65781,6725,588666,0
2,-1,638818,218476,1249128,65600,6888,624119,0
2,-1,646003,220072,1271654,66263,7698,634999,0
2,-1,641574,218718,1257127,65575,7838,628015,0
2,-1,643174,219166,1182306,65761,8082,590671,0
2,-1,637544,219048,1312257,65759,7836,655538,0
2,-1,639047,219808,1296453,66169,7113,647419,0
2,-1,638991,218381,1303058,65474,7696,651169,0
2,-1,645149,220821,1288252,66544,7697,643434,0
2,-1,639541,219033,1124424,65665,7131,561689,0
2,-1,639202,219349,1252262,65883,7260,625708,0
2,-1,637433,218577,1136731,65529,7033,567916,0
2,-1,642031,219073,1334757,65671,7669,666891,0
2,-1,659082,223268,1344169,68925,8683,671560,0
2,-1,666688,224962,1222515,69993,8378,610530,0
2,-1,640987,218780,1309219,65635,7280,654163,0
2,-1,638855,219010,1311694,65751,8302,655162,0
2,-1,640596,219354,1174203,65930,7224,586516,0
2,-1,643629,219630,1230419,65879,7613,614628,0
2,-1,644776,220577,1169433,66312,7205,584209,0
2,-1,641463,218913,1161981,65807,6923,580505,0
2,-1,641425,219192,1167544,65981,7277,583193,0
2,-1,640916,218901,1171237,65848,7087,585085,0
2,-1,643898,219880,1341537,66128,8712,670216,0
2,-1,645722,220276,1279481,66151,7416,639312,0
2,-1,647327,219712,1184752,65851,6888,591989,0
2,-1,647348,221004,1319708,66522,8208,659161,0
2,-1,647084,220096,1391721,65959,8327,695551,0
2,-1,638601,220013,1318916,65949,7874,659221,0
2,-1,639919,219065,1159089,65596,7660,579119,0
2,-1,666539,228979,1237599,68646,7294,618269,0
2,-1,646030,221530,1392864,66692,7850,695729,0
2,-1,663886,224805,1244968,69337,9113,622239,0
2,-1,638898,219364,1148970,65892,7078,573991,0
2,-1,641542,219066,1276635,65718,7973,637774,0
2,-1,661744,223015,1201618,68843,8286,600293,0
2,-1,642190,219761,1392447,66094,7713,695738,0
2,-1,644065,219224,1169533,65800,7549,584175,0
2,-1,638916,219291,1226992,65762,7131,613130,0
2,-1,640280,218882,1137713,65655,6719,568440,0
2,-1,637644,218769,1274120,65679,7637,636623,0
2,-1,659680,223347,1237040,68988,8137,618126,0
2,-1,643506,219107,1312298,65791,8404,655698,0
2,-1,638612,218650,1373308,65580,7818,686166,0
2,-1,638315,218328,1235008,65535,7280,617013,0
2,-1,637849,218270,1289053,65464,7750,644150,0
2,-1,637117,217627,1160884,65221,7083,579988,0
2,-1,643688,219126,1149917,65867,7320,574515,0
2,-1,661548,223720,1205059,69103,7994,602177,0
2,-1,642497,218942,1158659,65834,7414,578779,0
2,-1,638659,220185,1219778,66535,7437,609174,0
2,-1,657790,222739,1191133,68860,7833,595156,0
2,-1,639342,219316,1216514,65847,7141,607876,0
2,-1,637492,218414,1145708,65518,7241,572324,0
2,-1,637701,218084,1264176,65417,7369,631698,0
2,-1,635727,218073,1171924,65416,7176,585423,0
2,-1,637622,218095,1222895,65477,7557,610927,0
2,-1,637686,217933,1154863,65430,6869,577067,0
2,-1,659400,222946,1192816,68886,7776,596006,0
2,-1,660798,223339,1216423,69029,7997,607728,0
2,-1,637934,218738,1207713,65637,6695,603441,0
2,-1,638346,219039,1147887,65792,6541,573416,0
2,-1,662757,223339,1296742,69020,8281,648091,0
2,-1,640833,219098,1270439,65811,7353,634775,0
2,-1,668491,227903,1201492,68231,7785,600402,0
2,-1,640323,218067,1172322,65364,7674,585616,0
2,-1,640929,219116,1258808,65740,7815,628904,0
2,-1,640149,217970,1213381,65164,7439,606350,0
2,-1,641715,219035,1269666,65554,7334,634414,0
2,-1,645290,220305,1278949,66279,7822,638723,0
2,-1,672084,225360,1184897,69848,8211,591948,0
2,-1,645466,218660,1263687,65364,7328,630392,0
2,-1,637758,219323,1290768,65664,8414,644753,0
2,-1,637982,218648,1137142,65480,6922,568096,0
2,-1,658715,224080,1159923,69049,8397,579503,0
2,-1,637666,218364,1106079,65395,6775,552605,0
2,-1,638263,218358,1105543,65404,7384,552279,0
2,-1,638046,217959,1214466,65331,7527,606806,0
2,-1,633552,217530,1233619,65145,6803,616366,0
2,-1,634409,217662,1131777,65248,6734,565456,0
2,-1,640811,218695,1314133,65648,7427,656506,0
2,-1,635438,217317,1189840,65066,6595,594478,0
2,-1,640410,218171,1141059,65448,7412,570092,0
2,-1,635841,218150,1209549,65445,7248,604311,0
2,-1,637014,217847,1235828,65301,6475,617480,0
2,-1,637570,218720,1118859,65639,7027,558997,0
2,-1,643890,220178,1228642,66366,7298,613457,0
2,-1,641537,218497,1169162,65547,7567,584121,0
2,-1,637905,218359,1233500,65500,7386,616108,0
2,-1,638940,217993,1110055,65331,6718,554597,0
2,-1,639516,218025,1172447,65328,7599,585830,0
2,-1,643479,218652,1286550,65598,7307,642792,0
2,-1,641441,217937,1183969,65367,7212,591521,0
2,-1,638380,219056,1181604,65744,7201,590318,0
2,-1,642296,219808,1214105,66233,7508,606471,0
2,-1,638635,217736,1225167,65239,7560,611972,0
2,-1,637739,218092,1228916,65431,7036,613961,0
2,-1,645908,220849,1200216,66639,6942,599279,0
2,-1,643208,218507,1240357,65581,7425,619842,0
2,-1,637638,217940,1230317,65328,6536,614798,0
2,-1,637815,217340,1168591,65077,7211,583912,0
2,-1,639384,218115,1147163,65377,6614,573203,0
2,-1,640443,218249,1280107,65429,8089,639693,0
2,-1,638936,218120,1276970,65438,8420,638046,0
2,-1,642899,218430,1241367,65532,7681,620226,0
2,-1,642666,219913,1174815,66193,6703,586574,0
2,-1,639416,218103,1299998,65382,6917,649559,0
2,-1,641278,218494,1242434,65513,7450,620790,0
2,-1,643214,219777,1172591,66232,6804,585573,0
2,-1,661860,223629,1311187,68984,7487,655170,0
2,-1,642488,218600,1179317,65543,7065,589052,0
2,-1,640167,217984,1204398,65352,7279,601740,0
2,-1,645628,218793,1337748,65561,7940,668316,0
2,-1,641341,218172,1134374,65379,6121,566765,0
2,-1,642796,218235,1213885,65392,6403,606410,0
2,-1,630806,218166,1146572,64904,6061,572879,0
2,-1,631915,217923,1265223,64831,6203,632216,0
2,-1,639386,220868,1149477,66085,6649,573907,0
2,-1,634681,218468,1258714,65041,6264,628880,0
2,-1,632305,217917,1145521,64818,6775,572339,0
2,-1,635504,218987,1223715,65229,6705,611393,0
2,-1,637213,219042,1231891,65190,6307,615434,0
2,-1,653764,222567,1305980,68175,8194,652588,0
2,-1,636381,218912,1296278,65209,7484,647599,0
2,-1,634994,218471,1256380,65027,7576,627874,0
2,-1,635969,219774,1199383,65735,8610,599049,0
2,-1,640462,219994,1245492,65728,7835,622206,0
2,-1,639213,219170,1322512,65210,7622,660816,0
2,-1,637151,219004,1150800,65374,6718,574785,0
2,-1,637389,218107,1234430,64910,7332,616837,0
2,-1,633946,218263,1232756,65103,7036,615931,0
2,-1,638968,220297,1254306,66036,7129,626444,0
2,-1,635985,218763,1162359,65272,6752,580648,0
2,-1,632619,218439,1156502,65130,7041,577870,0
2,-1,633343,217224,1284486,64702,7274,641908,0
2,-1,660264,226544,1274498,67499,6455,636849,0
2,-1,636430,217822,1139760,65874,7715,569425,0
2,-1,639893,218337,1266327,66008,7965,632717,0
2,-1,635678,217294,1156369,65632,7146,577662,0
2,-1,636479,217626,1233904,65766,7819,616493,0
2,-1,638627,217647,1384597,65617,8342,691841,0
2,-1,638131,217641,1161363,65782,8192,580101,0
2,-1,642735,218641,1319183,66046,8354,659050,0
2,-1,633281,218044,1254232,65858,7841,626663,0
2,-1,657911,222732,1228415,69199,8446,613567,0
3,-1,696325,239084,1339781,71607,7908,669064,0
3,-1,693099,238318,1345658,71283,7346,672117,0
3,-1,698140,238703,1334735,71415,7814,666562,0
3,0,767292,268875,1553876,79871,11263,775971,11
3,0,759061,265228,1360881,78277,9200,679896,11
3,0,760623,265563,1448476,78363,9883,724086,11
3,0,761123,265574,1460035,78388,9036,729605,11
3,0,762203,265638,1400305,78399,9240,699739,11
3,-1,692485,236855,1317162,70643,7969,658148,0
3,0,757677,266202,1493583,78634,8876,746335,11
3,0,760150,266135,1353601,78612,8469,676276,11
3,-1,696794,237679,1370849,71063,8434,684694,0
3,0,741258,260071,1350308,76720,8580,674672,11
3,0,708065,248061,1393797,73831,8695,696247,11
3,0,707953,247631,1463582,73565,9068,731348,11
3,-1,687695,236062,1324378,70315,6947,661757,0
3,0,710003,249251,1331246,74340,8784,664857,11
3,0,705651,247687,1231049,73438,7994,615125,11
3,0,727679,251646,1562620,76678,9831,780712,11
3,-1,688089,236654,1247474,70510,6585,623167,0
3,0,707081,247313,1403876,73557,9656,701369,11
3,0,728210,251700,1561241,76751,10646,780242,11
3,-1,635936,218220,1265993,65637,6848,632564,0
3,-1,638801,219249,1270864,65993,7611,634834,0
3,0,705435,247194,1548242,73342,8867,773709,11
3,0,711898,249586,1498653,74386,9609,748614,11
3,0,707300,247151,1481630,73387,9101,740397,11
3,0,713266,249144,1560656,74171,10015,779758,11
3,-1,635650,217837,1253681,65410,7770,626392,0
3,0,727763,252172,1558062,76770,10394,778637,11
3,-1,638536,217773,1286501,65493,8135,642831,0
3,-1,658022,222433,1352929,68694,8438,675732,0
3,0,709258,247514,1397683,73558,9511,698326,11
3,0,728834,251417,1478778,76639,10760,739110,11
3,0,708422,246758,1505291,73285,9545,752116,11
3,0,708944,246653,1454275,73107,8853,726600,11
3,-1,636759,218161,1128988,65500,7195,564045,0
3,0,705022,247966,1484582,73744,9490,741915,11
3,-1,637680,218134,1180285,65444,7113,589611,2
3,-1,637563,217440,1253835,65101,7439,626519,0
3,0,703985,246897,1380640,73403,8170,689892,11
3,0,707948,249076,1479679,74387,9617,739087,11
3,0,703423,247723,1345161,73607,9222,672104,11
3,0,701681,247184,1367154,73541,8156,683031,11
3,0,706313,248244,1402096,74044,8330,700364,11
3,0,704500,247474,1334174,73544,7742,666574,11
3,0,707855,248589,1388378,74161,8498,693532,11
3,0,706343,247929,1460444,73740,8752,729780,11
3,0,705024,247116,1506178,73314,9028,752664,11
3,0,710964,249547,1429167,74447,9793,713567,11
3,0,706754,247376,1531209,73465,10052,765055,11
3,-1,659081,222596,1294498,68809,8345,646882,0
3,0,721567,250964,1586885,76463,10004,792848,11
3,0,703225,247192,1484901,73344,8625,741922,11
3,0,705805,247729,1411113,73687,8959,704948,11
3,-1,639620,218330,1271152,65639,7784,635020,0
3,0,705541,247342,1317990,73451,8622,658479,11
3,-1,630549,217793,1151356,65364,6600,575182,0
3,-1,633504,218844,1186500,65714,6939,592697,2
3,-1,633082,218266,1267611,65562,7278,633265,0
3,-1,654085,222667,1275160,68804,7728,637145,0
3,0,735126,253639,1491275,77767,9894,745136,11
3,0,715702,250275,1504251,74619,9682,751360,11
3,0,702483,247001,1408217,73308,8904,703676,11
3,-1,636640,218549,1188851,65700,7111,593917,0
3,-1,632802,217874,1259229,65439,6517,629185,0
3,0,703176,246771,1431141,73337,8767,715182,11
3,-1,641480,220797,1244537,66786,6832,621383,2
3,0,727912,251969,1455806,76855,9838,727438,11
3,0,711227,249091,1581332,74418,9353,789878,11
3,-1,633122,217716,1212687,65461,6420,605900,0
3,-1,635324,217526,1196492,65224,7531,597456,0
3,0,707711,247636,1420668,73668,8917,709928,11
3,-1,632312,218559,1235881,65618,7514,617789,2
3,-1,632608,217507,1136508,65321,6049,567871,0
3,0,707398,247859,1431845,73678,8389,715462,11
3,0,709490,248603,1423184,73925,8255,711189,11
3,0,705720,246817,1425315,73349,8416,712282,11
3,-1,640800,220611,1237696,66639,6926,617996,0
3,-1,634080,217969,1207857,65527,6844,603393,2
3,0,709435,247419,1476837,73618,9108,737908,11
3,0,730487,252310,1426872,76964,8788,712893,11
3,0,715791,249863,1434037,74701,8525,716305,11
3,0,711462,248347,1407870,73843,9028,703469,11
3,0,706505,247945,1396123,73720,9448,697582,11
3,-1,636636,218000,1155742,65425,7023,577509,0
3,0,708538,247846,1496439,73644,9095,747805,11
3,0,730777,252377,1460681,76885,10073,729783,11
3,0,715527,250584,1665468,74833,9787,831926,11
3,0,709951,247786,1428272,73537,9035,713665,11
3,-1,633992,217808,1153473,65414,7419,576303,2
3,0,709196,247507,1409578,73636,9254,704281,11
3,-1,655968,222194,1268980,68668,8218,634179,0
3,0,704493,247731,1376314,73593,9174,687698,11
3,-1,634823,217271,1133283,65060,6959,566271,0
3,0,712284,249818,1498966,74541,9583,748781,11
3,0,706478,247590,1493932,73540,9716,746442,11
3,-1,637911,218028,1237636,65547,7668,618301,2
3,0,710643,248601,1572083,73758,9293,785572,11
3,0,709279,248071,1453150,73647,8791,726119,11
3,-1,633121,217424,1113331,65368,6896,556196,0
3,-1,636021,217993,1218516,65553,6954,608774,0
3,0,709800,248712,1526339,73849,9086,762727,11
3,0,713512,249589,1547510,74274,9956,773144,11
3,-1,635942,218147,1213680,65602,7493,606330,0
3,0,728344,252318,1490809,76904,10066,744871,11
3,0,712171,249371,1426925,74414,9686,712628,11
3,0,707818,247477,1408195,73550,9716,703621,11
3,0,708983,247847,1390199,73672,9004,694647,11
3,0,710310,247848,1522779,73598,9271,760927,11
3,0,732152,252473,1477206,76951,10646,738250,11
3,0,705087,247583,1553487,73564,9253,776254,11
3,-1,630940,217012,1215624,65189,7423,607433,0
3,0,710535,249104,1499922,74260,9135,749361,11
3,0,708211,247668,1428462,73484,8709,713739,11
3,-1,636704,218093,1245946,65517,7034,622474,0
3,0,709767,248735,1557651,74140,9495,778158,11
3,0,708669,248137,1486394,73672,8879,742783,11
3,0,709616,247726,1503289,73655,9413,751165,11
3,-1,633574,217057,1244477,65072,6914,621855,0
3,0,706889,247721,1414547,73601,8806,706847,11
3,0,707275,247825,1413569,73707,8406,706226,11
3,0,711978,249448,1506020,74489,9129,752222,11
3,0,709842,248474,1461350,73837,8979,730268,11
3,0,711597,247947,1529877,73794,9183,764529,11
3,-1,637204,218320,1270712,65712,7721,634898,2
3,0,713421,249709,1489369,74671,8997,743976,11
3,-1,638115,217742,1279487,65504,7086,639219,0
3,0,707107,247785,1434286,73818,9392,716593,11
3,0,706060,247484,1486049,73681,8585,742470,11
3,0,706183,247094,1536091,73545,9039,767531,11
3,-1,636422,217967,1186684,65553,7083,592844,0
3,0,710664,248088,1454682,73850,9395,726931,11
3,0,708406,247315,1497636,73651,9306,748383,11
3,-1,638486,218614,1155604,65784,6801,577424,2
3,-1,646683,220701,1257375,66754,7323,627947,0
3,0,709977,248240,1405247,73904,8476,702210,11
3,0,707956,247164,1405554,73600,9164,702283,11
3,0,709801,247370,1398326,73606,8793,698696,11
3,-1,638047,218098,1253186,65413,7173,626175,0
3,0,715971,249977,1529358,74806,8482,763716,11
3,0,711906,249256,1512800,74476,9543,755758,11
3,0,709877,248401,1438094,73988,9649,718591,11
3,0,709851,248012,1483111,73891,10021,740962,11
3,-1,636901,217995,1260939,65401,6958,630023,0
3,0,709285,247957,1488226,73825,9265,743661,11
3,-1,644881,220892,1248243,66710,7449,623341,2
3,0,710918,247771,1460701,73749,9782,729970,11
3,0,708354,247214,1554213,73568,9301,776651,11
3,-1,644234,219692,1268942,66195,7688,633788,0
3,0,710046,247506,1502684,73677,9748,750885,11
3,-1,634378,217942,1276308,65356,7606,637718,0
3,0,732022,252015,1446914,76968,10282,723069,11
3,0,714121,249054,1530179,74392,9894,764462,11
3,0,712589,248074,1495969,73884,9328,747498,11
3,0,709231,247221,1383442,73590,9337,691201,11
3,0,713786,247977,1423588,73859,8766,711409,11
3,0,712177,247301,1539759,73665,9345,769383,11
3,-1,658002,223061,1261526,68888,7985,630334,0
3,0,701002,247997,1405464,73851,8410,702209,11
3,0,701783,247982,1422069,73774,9061,710645,11
3,0,702452,247787,1487781,73801,8845,743342,11
3,-1,643214,220461,1302373,66465,7621,650360,0
3,0,703592,248330,1476268,73969,9727,737734,11
3,-1,641634,219697,1272376,65911,6897,635546,2
3,0,728514,256229,1553094,76236,9098,776093,11
3,0,704581,247867,1485562,73786,9394,742369,11
3,0,701719,247200,1400781,73517,9297,699865,11
3,-1,639484,217996,1228724,65425,7428,613937,0
3,0,705844,248729,1570828,74110,10220,784944,11
3,-1,638637,217925,1254245,65405,7657,626594,0
3,0,703140,247697,1510737,73725,9338,754912,11
3,0,704521,247962,1450787,73911,9064,724845,11
3,0,706293,247920,1530400,73762,9210,764784,11
3,0,706448,247662,1483529,73789,8869,741238,11
3,0,706208,247496,1436345,73710,9157,717805,11
3,-1,642534,220283,1255330,66508,7435,627034,0
3,0,723837,252348,1476915,77077,9754,738042,11
3,0,703537,248228,1481729,73977,8884,740293,11
3,0,707753,249073,1519457,74418,9008,759104,11
3,-1,639503,218658,1222244,65725,7720,610679,0
3,0,725014,252438,1557867,77121,9595,778466,11
3,0,708242,249567,1481801,74592,8741,740134,11
3,0,705196,247530,1489973,73678,9071,744509,11
3,0,706067,248111,1258998,73862,7789,629069,11
3,-1,639299,218498,1192456,65602,6962,595780,0
3,0,703536,247789,1344105,73817,8183,671558,11
3,-1,638704,217757,1238235,65430,6966,618633,0
3,0,707712,247973,1342947,73829,8037,671088,11
3,-1,639393,218075,1170454,65651,6460,584745,0
3,0,705750,248438,1318238,73966,8693,658675,11
3,-1,642836,218809,1237592,65852,7112,618284,0
3,0,705855,248443,1330759,73967,8070,664984,11
3,-1,634349,218266,1244838,65786,7130,621922,2
3,0,704757,248052,1354492,73932,8272,676736,11
3,-1,639688,219253,1208536,66065,7355,603807,0
3,0,707082,248686,1325398,74228,8718,662063,11
3,0,706077,247945,1288444,73830,7786,643845,11
3,0,708706,249178,1377957,74532,8155,688221,11
3,0,706902,247748,1284234,73749,7671,641709,11
3,0,705416,247989,1325685,73834,8095,662364,11
3,-1,638557,218407,1341646,65788,7547,670246,0
3,0,706721,247559,1470683,73662,8137,734908,11
3,0,711186,248229,1411159,73862,9020,705136,11
3,0,706554,248061,1395683,73715,7653,697448,11
3,0,704883,247858,1373936,73718,8674,686463,11
3,-1,637494,218446,1176561,65804,6929,587739,2
3,-1,658529,222456,1162246,68867,8303,580709,0
3,0,707816,247924,1380094,73751,7998,689615,11
3,0,707113,248086,1481239,73804,8781,740207,11
3,0,704434,247764,1300564,73718,8579,649762,11
3,-1,639870,218482,1257903,65767,7402,628566,0
3,0,706292,247972,1233820,73751,7845,616361,11
3,0,707088,247957,1441110,73682,8391,720083,11
3,0,733235,253412,1389685,77826,9403,694358,11
3,-1,639382,218053,1271736,65577,7173,635474,0
3,0,711618,248777,1443129,74006,8190,721112,11
3,-1,644223,219790,1261731,66411,7141,630321,0
3,-1,644923,219069,1276775,65963,7151,637939,0
3,0,727226,253210,1358672,77253,8631,678955,11
3,0,707508,248146,1348748,73800,8006,673909,11
3,0,702055,247908,1417609,73749,8507,708370,11
3,0,705106,247965,1452775,73709,8675,725957,11
3,0,704543,247256,1412205,73494,7998,705664,11
3,0,706980,248140,1431372,73829,8258,715202,11
3,-1,640900,219002,1182281,65903,7506,590729,0
3,0,705953,249133,1300285,74355,8677,649509,11
3,0,703925,247976,1290592,73789,8073,644819,11
3,0,709481,249268,1481296,74413,8422,739955,11
3,-1,638091,218738,1195205,65904,7356,597159,2
3,-1,639967,218240,1309818,65674,7298,654529,0
3,0,727581,252875,1488139,77173,9324,743646,11
3,0,710323,249604,1453048,74580,8523,725808,11
3,0,708823,248530,1381665,73968,8501,690305,11
3,0,708477,248264,1397595,73812,8550,698434,11
3,0,709667,249598,1488011,74584,8657,743199,11
3,-1,639344,218032,1242675,65595,7644,620803,0
3,-1,638702,218258,1308521,65764,7417,653528,2
3,-1,640910,218709,1277632,65872,7413,638372,0
3,0,728073,252351,1367498,76903,9335,683184,11
3,0,707594,248060,1335847,73748,8373,667556,11
3,0,704456,248022,1313947,73821,8438,656493,11
3,-1,643708,218147,1233812,65645,6804,616466,0
3,0,706642,247561,1275787,73624,8322,637450,11
3,0,706541,247982,1376564,73726,7838,687761,11
3,0,708174,247645,1462038,73626,8669,730628,11
3,0,708787,248094,1378131,73819,7896,688464,11
3,0,731614,252563,1470034,77054,9622,734632,11
3,0,706664,247357,1334589,73471,8247,666908,11
3,-1,633217,218716,1123669,65873,7297,561302,2
3,0,707118,247965,1418512,73748,8971,708752,11
3,-1,630329,217689,1223889,65456,7292,611461,0
3,-1,635743,218343,1222204,65751,7432,610660,0
3,0,712215,249330,1421391,74370,8624,710054,11
3,0,729138,253178,1303151,77197,8566,651198,11
3,-1,633760,218471,1156989,65771,7329,578032,0
3,0,708001,247930,1524337,73754,9601,761672,11
3,0,708206,247937,1449579,73756,9039,724021,11
3,0,732270,252902,1423436,77152,9980,711109,11
3,0,710318,249796,1528923,74642,10361,763159,11
3,0,710199,248525,1376815,73926,7935,687986,11
3,-1,639397,219846,1345183,66444,7781,671862,0
3,0,706561,248359,1330523,73893,8310,664762,11
3,0,707069,247877,1362540,73695,8322,680845,11
3,0,711534,249137,1479762,74171,8500,739438,11
3,-1,637433,218249,1174518,65752,7800,586716,0
3,0,707801,248045,1358171,73705,8802,678668,11
3,0,709485,248717,1421980,74044,8741,710493,11
3,-1,638900,220349,1256124,66694,7829,627444,0
3,0,711898,248286,1414028,73811,9144,706649,11
3,0,707911,247867,1322871,73676,8074,661049,11
3,0,707516,247422,1452995,73533,7930,726075,11
3,-1,635002,217590,1169139,65462,7247,584200,0
3,0,731575,252565,1349061,77016,9599,673883,11
3,0,707561,247354,1307562,73553,8653,653252,11
3,0,713799,249253,1478607,74373,9192,738623,11
3,0,710367,247896,1400382,73749,9277,699754,11
3,0,709942,248035,1397639,73783,8944,698335,11
3,0,730940,252186,1346759,76883,9410,672931,11
3,-1,638054,219427,1181225,66299,7044,589900,0
3,0,724682,252215,1288290,76946,9154,643732,11
3,-1,640180,219919,1252012,66534,6697,625361,0
3,0,706121,248046,1330678,73749,8545,664830,11
3,0,709438,250204,1460473,74796,8424,729211,11
3,-1,638136,219024,1149089,65915,6582,574096,0
3,-1,641687,220293,1243783,66655,7139,621269,0
3,0,706090,248561,1403730,73915,8612,701484,11
3,0,703737,247921,1319131,73783,7838,659106,11
3,0,703650,247296,1347833,73510,8131,673541,11
3,0,706121,247992,1401453,73775,8603,700275,11
3,-1,654901,222919,1193882,68980,8614,596608,0
3,-1,636410,219333,1266130,66214,6930,632424,0
3,0,712024,250167,1412742,74855,8416,705602,11
3,0,703793,246686,1330967,73407,8370,665039,11
3,0,705377,247420,1332654,73616,8083,665826,11
3,0,707740,247767,1358636,73698,8426,678908,11
3,0,713238,249654,1460893,74602,8758,729718,11
3,-1,666878,228933,1284300,69131,7382,641497,0
3,0,707382,248158,1394801,73832,7791,696948,11
3,0,710665,248597,1388683,73996,8464,693797,11
3,0,706420,247826,1316847,73733,8309,657927,11
3,-1,633852,218437,1113327,65788,6314,556186,0
3,-1,635887,218572,1234581,65779,7081,616788,2
3,0,706914,248805,1313763,74271,8594,656143,11
3,0,703795,247126,1252022,73457,8029,625611,11
3,-1,638028,218391,1154819,65771,6852,576928,0
3,0,710260,249142,1364322,74357,8957,681484,11
3,0,706345,247632,1383830,73589,8423,691504,11
3,0,725812,252262,1396327,76975,9586,697692,11
3,0,705351,247601,1398787,73611,8081,698965,11
3,-1,638373,218577,1161192,65814,7043,580267,0
3,0,708208,248166,1434910,73790,8035,716570,11
3,-1,638048,218178,1165408,65686,6819,582222,0
3,-1,636844,219895,1273510,66243,7452,636209,2
3,0,728582,252047,1385908,76903,9264,692496,11
3,0,713947,249646,1499821,74542,9612,749207,11
3,0,708137,247860,1368652,73755,8716,683900,11
3,0,709850,247703,1302186,73651,8956,650593,11
3,-1,637847,219419,1235498,66072,6502,617355,0
3,0,726575,252494,1283373,77033,8502,641208,11
3,0,708472,248490,1296910,73921,7659,648009,11
3,0,708986,248281,1289180,73826,8058,644112,11
3,-1,639429,219291,1272686,66238,7639,635559,0
3,0,729784,252358,1393715,76896,8799,696451,11
3,0,706858,247860,1417515,73633,7797,708329,11
3,0,707965,247890,1416040,73675,8125,707582,11
3,0,712668,249454,1488944,74419,8072,743776,11
3,-1,636377,218574,1357688,65688,7129,678499,0
3,0,715041,250272,1386657,74782,9638,692512,11
3,0,707635,248052,1419837,73719,9025,709436,11
3,0,706615,247754,1291196,73674,7986,645157,11
3,-1,637981,218777,1212083,65800,7081,605370,0
3,-1,642101,219608,1296821,66258,7163,647779,0
3,0,713742,248413,1351108,73710,9986,674982,11
3,0,704973,247646,1410123,73471,9548,704595,11
3,-1,639107,218068,1245284,65469,7708,622192,0
3,0,708011,249189,1557290,74140,9841,778036,11
3,0,707068,248394,1406528,73730,8547,702647,11
3,0,728567,252646,1491301,76932,10464,745353,11
3,-1,634638,218754,1156898,65804,6970,577974,0
3,0,733468,257652,1550842,76517,9608,774934,11
3,0,705198,247519,1331957,73473,7747,665617,11
3,0,706381,247937,1392931,73676,7938,696057,11
3,0,712617,249932,1400551,74528,8688,699647,11
3,0,704826,247412,1440403,73368,7559,719763,11
3,0,707907,248199,1337157,73724,7606,668039,11
3,0,708259,247836,1431756,73515,8526,715462,11
3,-1,638897,220245,1318763,66461,7295,658673,0
3,0,705829,247633,1385056,73459,7872,692132,11
3,0,708779,247956,1319605,73547,8950,659315,11
3,-1,669066,230505,1296038,69696,6846,647088,0
3,0,709415,247919,1267947,73543,8080,633460,11
3,0,709998,250252,1400683,74683,8713,699594,11
3,-1,636261,219516,1237937,66054,6432,618585,2
3,-1,635042,218630,1117019,65699,7004,558078,0
3,0,710730,249226,1409677,74033,8720,704421,11
3,0,710557,248496,1344807,73774,8472,671926,11
3,0,730066,252911,1370515,77019,9631,684816,11
3,0,710720,248381,1395102,73754,8890,697069,11
3,-1,638839,218570,1263588,65622,7034,631335,0
3,0,705603,247247,1446532,73293,8758,722821,11
3,-1,637886,219291,1147805,66014,7104,573422,2
3,0,710708,248374,1259602,73815,8646,629268,11
3,0,713442,249548,1344041,74368,8098,671361,11
3,0,709387,247789,1369215,73573,8810,684260,11
3,-1,660525,223158,1210613,68965,8006,604802,0
3,0,708737,248651,1572982,73804,10011,786027,11
3,0,707200,248463,1521800,73797,9666,760464,11
3,0,706826,248064,1449231,73575,10257,724200,11
3,-1,641281,220767,1245435,66761,7284,621994,2
3,-1,638079,218591,1323974,65692,7192,661477,0
3,-1,640401,219287,1212065,65910,7243,605551,0
3,0,713153,248692,1364005,73968,10285,681482,11
3,0,708302,248570,1288654,73870,8906,643893,11
3,0,730720,252689,1311860,77023,9823,655303,11
3,-1,637403,218832,1258751,65815,6854,628957,0
3,0,713939,249074,1282357,74138,8496,640637,11
3,0,714619,249079,1481900,74167,9100,740417,11
3,0,715796,249558,1380254,74305,8439,689561,11
3,-1,641649,219927,1273985,66375,7040,636339,0
3,0,712507,248489,1314429,73885,7842,656707,11
3,0,734662,253404,1367126,77251,8952,683062,11
3,0,713332,249611,1469829,74466,9391,734251,11
3,0,713550,249020,1519395,74143,9908,759257,11
3,-1,639103,218542,1170477,65713,6575,584833,0
3,-1,640594,219713,1234825,66139,6773,617119,2
3,0,735120,253609,1587358,77376,10256,793548,11
3,-1,641052,219101,1326932,65908,7160,662936,0
3,0,713663,249083,1414154,73928,9211,706614,11
3,0,712476,248804,1399891,73785,9418,699525,11
3,-1,638306,219486,1123968,66016,6572,561537,0
3,0,714878,248983,1315608,73841,8799,657326,11
3,0,737635,253843,1378843,77243,9771,688980,11
3,0,722217,251411,1392933,74932,9310,695747,11
3,-1,633905,218448,1220682,65617,7277,609845,2
3,-1,638102,219191,1257221,65843,6465,628333,0
3,0,709575,250376,1369724,74531,9520,684126,11
3,0,709437,249395,1333598,74032,8845,666267,11
3,-1,657928,222962,1175417,68920,7709,587357,0
3,0,713323,250383,1383221,74549,9648,690980,11
3,0,707067,248697,1571838,73812,9727,785605,11
3,0,711072,250266,1427149,74296,9816,713205,11
3,-1,636276,219043,1256948,65842,6193,628033,0
3,0,714243,250167,1463094,74467,9889,730873,11
3,-1,641730,220180,1476348,66434,8025,736817,0
3,0,711071,249295,1408186,74014,8988,703617,11
3,0,713602,249285,1507924,73963,8519,753521,11
3,0,712667,250102,1361192,74482,9108,680001,11
3,-1,639868,219335,1268172,65882,7226,633694,0
3,0,715530,250732,1358251,74735,10299,678354,11
3,0,713964,249712,1407248,74166,8685,703090,11
3,-1,639869,218238,1176731,65559,6921,587925,0
3,0,710711,248657,1478050,73869,9236,738462,11
3,-1,641036,220267,1269870,66505,7017,634282,0
3,0,732353,254110,1364848,77478,9804,681886,11
3,0,708810,248404,1481086,73781,9068,739942,11
3,0,711032,249473,1326184,74176,8598,662468,11
3,0,707404,248130,1419688,73687,9541,709327,11
3,0,709567,248741,1331112,73994,8640,664849,11
3,-1,639231,218048,1231400,65516,6983,615285,0
3,0,712849,248361,1243392,73792,9308,621164,11
3,0,711573,249013,1336280,74009,9993,667502,11
3,-1,639951,219093,1239848,65900,7198,619553,0
3,0,712230,248470,1325217,73841,8747,662119,11
3,0,714857,249421,1457316,74108,9938,728090,11
3,0,711811,248221,1509019,73684,9463,753911,11
3,0,713448,248600,1343540,73849,9444,670897,11
3,0,713666,248859,1450085,73879,9585,724462,11
3,-1,646110,220415,1270971,66607,7368,634683,0
3,0,729873,253483,1370171,77173,9654,684580,11
3,0,709606,248577,1518185,73756,9611,758141,11
3,0,728798,253196,1368314,77110,9542,683848,11
3,-1,644058,219327,1215524,65972,7349,607231,0
3,0,711399,248966,1426384,73926,9035,712796,11
3,0,710703,249082,1532698,74179,9778,765705,11
3,0,708998,248321,1589295,73807,9726,794131,11
3,0,709633,248179,1448565,73717,9048,723831,11
3,0,731586,252673,1479112,77023,10702,738991,11
3,0,715358,249989,1510917,74629,10470,754788,11
3,0,706947,248105,1321881,73805,9011,660403,11
3,0,709451,247721,1495217,73565,9551,747200,11
3,0,716196,250632,1457693,74822,9379,728096,11
3,0,709992,248072,1415659,73738,9339,707543,11
3,0,711977,249307,1508751,74267,9841,753689,11
3,0,707914,247849,1497945,73668,9076,748479,11
3,-1,634986,218996,1191077,65876,6937,595067,0
3,-1,633981,219058,1227747,65797,6587,613503,0
3,0,714988,249169,1553724,74284,10231,776164,11
3,0,707134,247533,1424883,73563,9160,711955,11
3,0,708365,247764,1439069,73569,9180,718857,11
3,0,714570,249400,1418685,74399,9182,708634,11
3,-1,637164,218872,1248258,65801,6473,623713,0
3,0,708316,248069,1472201,73746,8674,735555,11
3,0,710959,248659,1521200,73967,8540,760111,11
3,-1,636250,218823,1184126,65805,6663,591583,0
3,0,732275,252907,1310897,77155,9613,654987,11
3,0,710057,248092,1311723,73794,8699,655428,11
3,0,708855,247116,1392601,73382,8748,695702,11
3,0,713843,248803,1380359,74222,8974,689429,11
3,0,712549,247950,1405581,73765,9229,702297,11
3,0,712697,247671,1328236,73604,8534,663734,11
3,-1,639230,219600,1253071,66214,6526,625862,0
3,0,708113,249222,1315830,74315,8840,657312,11
3,0,707755,248572,1298929,73947,8307,649029,11
3,-1,637990,218780,1152602,65812,6559,575800,2
3,-1,638691,218502,1163972,65676,6793,581576,0
3,0,710136,248923,1385242,74266,8991,691918,11
3,0,708967,248687,1387097,73864,8348,693141,11
3,-1,634882,218595,1156561,65699,6703,577968,0
3,0,711161,248357,1446828,73839,8522,722980,11
3,0,705136,248076,1380364,73731,8756,689683,11
3,0,710777,249704,1432851,74417,8930,715753,11
3,0,708538,247892,1394310,73623,8358,696771,11
3,-1,635225,218709,1225062,65785,6042,612031,0
3,0,706349,247762,1320538,73538,7850,659846,11
3,0,708618,247690,1440881,73502,8750,719927,11
3,0,709883,247758,1346089,73590,8691,672646,11
3,0,715707,250170,1416901,74565,8567,707745,11
3,-1,636272,219342,1274877,66008,6691,636925,2
3,0,712750,250687,1392780,74842,9401,695642,11
3,-1,655943,222922,1204991,68943,7060,601985,0
3,0,729809,252707,1342812,76957,9691,671031,11
3,0,708886,248215,1357834,73945,8599,678296,11
3,-1,637242,218574,1176438,65753,6368,587754,0
3,0,708168,247043,1412667,73377,9251,706001,11
3,-1,639747,219574,1256993,66257,6799,627903,0
3,0,707599,247202,1421480,73427,8745,710328,11
3,0,707790,247652,1395930,73591,8201,697355,11
3,0,707951,247420,1511356,73469,8609,755220,11
3,0,714922,249722,1404724,74581,9364,701818,11
3,-1,637528,217978,1209292,65499,6618,604196,0
3,0,710504,247969,1306280,73733,8523,652715,11
3,0,710556,247627,1404073,73572,9195,701660,11
3,0,712936,248811,1480080,74190,9180,739611,11
3,-1,637278,218318,1204430,65569,6071,601825,0
3,0,704509,247604,1324384,73533,8442,661714,11
3,0,707314,248218,1250212,73756,8392,624617,11
3,-1,640172,218533,1147350,65634,6868,573176,0
3,0,712786,249728,1361901,74500,9050,680219,11
3,0,708791,247724,1397740,73549,8650,698565,11
3,-1,638773,218661,1245862,65786,7012,622530,0
3,-1,640358,219188,1271711,65897,7447,635373,0
3,0,713629,248925,1424410,74129,9712,711334,11
3,0,716305,250650,1417139,74700,8628,707876,11
3,0,711749,248446,1331174,73751,8633,665076,11
3,0,711401,247998,1379802,73599,8680,689467,11
3,0,716218,249744,1351779,74357,9144,675280,11
3,-1,663083,228572,1254928,68707,6891,626885,2
3,0,706191,247709,1316918,73555,9521,657949,11
3,0,714275,249966,1484900,74286,9590,741814,11
3,-1,638033,219065,1161575,65865,6515,580309,0
3,-1,642473,220707,1301054,66680,6192,649816,0
3,-1,638515,219035,1193086,65886,6452,596042,0
3,-1,638164,218958,1254249,65907,6751,626850,2
3,0,732873,253256,1493637,76980,9518,746295,11
3,0,711972,248092,1276355,73533,8988,637704,11
3,-1,637879,219575,1170059,66051,6822,584659,0
3,-1,643521,220860,1257501,66762,7243,627978,0
3,-1,638450,218612,1267728,65711,6489,633430,0
3,-1,640632,218820,1168328,65712,6443,583694,0
3,-1,639657,219383,1172638,65920,6557,585899,2
3,-1,646103,220883,1355427,66605,7928,676624,0
3,0,708589,248030,1403820,73468,8484,701505,11
3,0,712579,249408,1418894,74192,8902,708934,11
3,0,709445,247800,1286358,73439,8686,642711,11
3,0,707966,248032,1326713,73488,8881,662953,11
3,0,706260,247441,1304875,73304,8641,651996,11
3,-1,646473,220482,1227575,66390,8701,613070,0
3,-1,637519,219416,1220252,65844,6854,609584,0
3,0,709485,247251,1451470,73320,8911,725391,11
3,0,705574,247913,1396119,73597,8351,697571,11
3,-1,637781,219038,1205297,65752,7047,602183,0
3,0,707661,248161,1395008,73669,8570,697075,11
3,0,708432,247667,1294335,73565,8490,646770,11
3,-1,640619,219381,1236151,65846,7524,617368,0
3,0,712438,249314,1417373,74216,8603,707886,11
3,0,710865,247998,1380790,73609,8902,689980,11
3,0,707515,247613,1298831,73496,8561,648785,11
3,0,708705,248004,1306266,73622,8391,652698,11
3,0,707502,247631,1511942,73475,8470,755500,11
3,0,708772,247832,1302994,73580,8259,651003,11
3,0,729073,251874,1273838,76652,9280,636510,11
3,0,714246,249766,1280301,74479,8677,639424,11
3,0,709297,247383,1293212,73355,8829,646156,11
3,0,709945,247557,1225484,73483,8549,612293,11
3,0,707992,247657,1300404,73452,8641,649707,11
3,-1,660660,223975,1181104,69163,7882,590194,0
3,-1,640226,218798,1192684,65599,7361,596000,0
3,0,703913,247533,1380042,73435,8486,689586,11
3,-1,637858,218883,1158905,65733,6900,578926,0
3,0,708247,248058,1285968,73629,8193,642519,11
3,0,706780,247646,1358834,73529,8589,678972,11
3,-1,638169,218221,1329290,65435,6992,664255,0
3,0,706384,247249,1427364,73411,8534,713077,11
3,0,711979,248813,1420388,73868,8670,709605,11
3,-1,639063,219247,1218257,65828,6995,608609,2
3,0,705589,247076,1289291,73227,8687,644267,11
3,-1,636597,217484,1212455,65200,6633,605937,0
3,0,706699,247394,1364455,73429,8586,681799,11
3,0,707570,247288,1395622,73339,8309,697345,11
3,0,708744,247293,1305362,73395,9160,652288,11
3,0,711148,248404,1484136,73701,8517,741548,11
3,0,708631,247396,1394381,73426,8515,696717,11
3,0,732956,252702,1372810,76931,9644,685979,11
3,0,716951,250568,1358967,74748,9627,678563,11
3,0,708331,247082,1472311,73272,8913,735658,11
3,0,707334,247830,1488560,73602,8356,743882,11
3,-1,638917,218788,1390347,65700,7976,694730,0
3,0,709685,247836,1262410,73566,8641,630770,11
3,0,707213,247564,1398177,73422,9091,698656,11
3,0,708755,247620,1517840,73444,10256,758106,11
3,0,709981,247664,1477371,73500,10430,737916,11
3,-1,639271,219087,1250993,65850,7746,624863,2
3,-1,640870,219144,1280848,65774,7261,639999,0
3,0,708433,247690,1336381,73546,8826,667627,11
3,0,716299,249809,1280564,74447,9433,639532,11
3,0,709656,247783,1334723,73534,9409,666864,11
3,0,708888,247810,1336582,73563,9456,667840,11
3,-1,643564,220008,1257853,66268,7211,628291,0
3,0,710721,247488,1461715,73396,9331,730516,11
3,0,709521,247012,1375171,73253,9423,687143,11
3,0,714321,249616,1464645,74325,9628,731569,11
3,-1,643355,219543,1257924,65934,7533,628539,2
3,0,731804,252059,1377897,76729,9908,688442,11
3,-1,641318,220114,1290886,66330,8051,644692,0
3,0,713111,247720,1497212,73513,9139,748144,11
3,0,712740,247000,1415369,73239,8275,707241,11
3,-1,639788,218172,1292397,65534,8301,645775,0
3,-1,636992,218851,1185075,65820,7702,592174,2
3,0,710170,248033,1317006,73627,8711,658066,11
3,-1,639789,218664,1223273,65636,8007,611221,0
3,0,707191,247029,1381755,73270,8740,690464,11
3,0,706841,247243,1435860,73319,8559,717593,11
3,0,708067,247333,1454136,73357,8599,726616,11
3,0,709493,247770,1439134,73521,8158,718980,11
3,-1,642829,219972,1291194,66059,7806,645133,0
3,0,758539,262124,1456222,79706,9296,727836,11
3,0,708068,247312,1418349,73352,9099,708757,11
3,0,709678,247546,1446522,73477,8630,722816,11
3,0,706182,247209,1313156,73389,8344,656064,11
3,-1,648008,221861,1276993,67118,7438,637884,0
3,-1,642514,219725,1269733,66086,6597,634221,2
3,0,711105,247630,1310401,73445,8879,654724,11
3,-1,645595,219282,1286561,65918,8071,642808,0
3,0,712953,249359,1330634,74237,8434,664588,11
3,0,716347,250226,1297696,74604,8319,648067,11
3,0,710557,247324,1370764,73394,8674,684846,11
3,0,711666,249472,1328761,74276,8334,663673,11
3,-1,641106,219262,1288019,65987,7564,643611,0
3,0,709236,246822,1490173,73186,10453,744372,11
3,0,732826,252802,1458222,76958,10143,728766,11
3,0,708722,247023,1517344,73269,9189,758253,11
3,-1,642033,219526,1212402,66066,7939,605632,0
3,0,710730,247142,1329700,73307,8954,664388,11
3,0,732741,251580,1403853,76518,9661,701364,11
3,0,705672,247288,1323547,73345,8955,661279,11
3,-1,643968,219922,1206752,66083,7112,602900,0
3,0,714624,250244,1336658,74621,8491,667496,11
3,0,709224,247451,1421999,73411,8783,710582,11
3,-1,645850,219800,1259664,65935,6717,629370,0
3,0,709128,247284,1398242,73341,8177,698691,11
3,-1,644819,220981,1284499,66322,8334,641705,2
3,0,710427,248123,1522177,73655,8482,760700,11
3,0,708884,247284,1412280,73351,8757,705617,11
3,0,710821,247329,1321989,73358,8609,660593,11
3,0,711396,247568,1391605,73427,9082,695335,11
3,-1,641200,218970,1305052,65547,7600,651479,0
3,0,711727,247783,1535223,73489,8812,767239,11
3,0,713892,248892,1266535,74028,9070,632638,11
3,0,712825,248246,1315591,73684,9436,657324,11
3,0,733443,252028,1369085,76722,10098,684117,11
3,-1,651231,221733,1285229,66810,7802,641967,0
3,0,708980,247634,1330855,73510,8292,665003,11
3,0,710134,247827,1360836,73562,8202,680007,11
3,-1,643413,219495,1202551,65791,7458,600797,2
3,0,711579,248084,1426405,73594,8497,712820,11
3,0,711288,247686,1293446,73548,7883,646172,11
3,0,710792,247057,1408969,73284,9000,704031,11
3,0,710313,247734,1480108,73539,8566,739800,11
3,-1,659904,224019,1213182,69059,8243,606109,0
3,0,710459,247366,1389755,73293,7860,694473,11
3,-1,638790,219255,1274882,65691,8007,637039,0
3,0,711789,247368,1399500,73337,8240,699274,11
3,-1,640701,219911,1278965,65982,8169,638955,2
3,0,710690,246746,1462797,73184,8410,730896,11
3,0,735841,252262,1501379,76701,9282,750239,11
3,0,710897,247243,1282498,73247,7340,640744,11
3,0,718620,249566,1239498,74251,8172,619106,11
3,0,735447,252358,1413174,76747,8705,706288,11
3,-1,641231,220279,1151614,66141,7511,575259,0
3,0,698420,247351,1354020,72859,7867,676622,11
3,-1,639705,219560,1175103,65781,7020,587114,0
3,0,708181,249914,1299087,73924,8074,648922,11
3,0,708285,249586,1463330,73799,8178,731013,11
3,0,705437,249429,1280460,73814,8740,639507,11
3,0,701050,247230,1362344,72832,8551,680706,11
3,0,701628,247499,1270533,72957,8338,634825,11
3,0,703172,247573,1266922,73003,8363,632973,11
3,-1,641653,219930,1196322,65967,7689,597647,0
3,0,725700,252415,1416348,76353,8858,707806,11
3,0,712357,250472,1298735,74243,8067,648351,11
3,0,701810,247133,1356793,72739,8059,677994,11
3,0,703763,247405,1374603,72957,8122,686851,11
3,-1,637069,219231,1283149,65812,7558,641024,2
3,-1,638746,219473,1338452,65841,7912,668652,0
3,0,703568,248070,1388606,73159,8835,693961,11
3,0,706215,249167,1434359,73778,9193,716382,11
3,0,702350,247493,1469921,72963,8361,734619,11
3,-1,640273,219176,1199820,65849,7406,599421,0
3,0,705105,247296,1292848,72904,8792,645887,11
3,0,725280,251954,1387744,76211,10087,693410,11
3,0,705044,247868,1368524,73094,8974,683873,11
3,0,713574,250680,1435564,74358,9144,716715,11
3,0,705809,247490,1354289,72950,7946,676691,11
3,0,713299,250481,1297294,74239,8269,647826,11
3,0,704719,247151,1271863,72856,8827,635457,11
3,0,706082,249456,1323448,73783,8355,661126,11
3,0,701625,247848,1371320,73058,8899,685226,11
3,-1,643051,219574,1341127,65965,8010,670015,0
3,0,701605,247174,1370730,72802,8649,684904,11
3,0,705544,247938,1392353,73222,8993,695682,11
3,0,702703,246695,1308348,72787,8710,653680,11
3,-1,644551,220553,1309884,66517,8278,654186,0
3,-1,645608,221040,1235745,66785,8257,616782,2
3,0,712388,250466,1358272,74410,8789,678331,11
3,0,703872,247686,1472520,73189,8523,735804,11
3,0,708711,249220,1394462,73860,8414,696554,11
3,-1,646726,221264,1410171,66694,8297,703910,0
3,0,703197,246980,1321503,72856,8153,660331,11
3,0,707198,247666,1294495,73187,8211,646780,11
3,0,706105,247358,1390030,73048,8058,694707,11
3,0,700849,246858,1394694,72880,8680,696928,11
3,-1,644658,221505,1294473,66841,8355,646367,0
3,0,704311,247020,1398327,73798,9572,698738,11
3,0,708411,247946,1305637,74106,9567,652381,11
3,-1,639958,219277,1251901,65830,6987,625429,0
3,0,709102,247543,1296872,73987,8671,648010,11
3,0,713849,249195,1300649,74710,9006,649601,11
3,0,708362,247863,1400556,74087,9277,699797,11
3,0,710722,248614,1405868,74309,8852,702473,11
3,0,705817,246492,1298248,73537,8631,648611,11
3,0,728014,251740,1456775,77099,10167,727989,11
3,0,710007,248736,1454599,74509,9479,727724,11
3,0,706402,246853,1398152,73760,9899,698407,11
3,0,708014,247409,1365822,73989,9519,682439,11
3,0,729948,251794,1439488,77163,9999,719245,11
3,0,708563,249321,1337455,74813,9355,667919,11
3,-1,641143,219295,1305496,65890,8170,652481,0
3,0,706096,247669,1365532,74023,8588,682441,11
3,0,710049,249709,1260248,74950,9020,629185,11
3,0,706857,247449,1318232,73914,9678,658527,11
3,-1,639935,219103,1353935,65843,7607,676446,0
3,0,706817,247029,1385729,73783,9677,692330,11
3,0,709077,249059,1346500,74651,9312,672641,11
3,-1,662519,227487,1325282,68257,7906,662181,2
3,-1,639333,218154,1168309,65563,7532,583676,0
3,0,705245,246585,1477807,73620,8993,738432,11
3,0,708753,247823,1469547,74085,8744,734274,11
3,0,710080,247736,1299559,73983,8567,649226,11
3,0,709224,249428,1306109,74829,8659,652297,11
3,-1,642068,220496,1364655,66592,8464,681439,0
3,0,707929,247640,1518831,73978,10076,758474,11
3,0,707149,248252,1588199,74302,11333,793106,11
3,0,712337,249397,1436386,74798,11646,717128,11
3,-1,641734,219978,1298826,66271,7633,648722,0
3,0,710808,248047,1498111,74144,10568,748467,11
3,-1,663142,223509,1175037,69010,8284,587001,0
3,-1,642296,220827,1219546,66647,7599,608850,2
3,0,728714,251959,1687405,77217,12024,842963,11
3,0,707361,247743,1649884,73928,10326,824267,11
3,0,707007,247207,1479438,73885,10160,739090,11
3,0,706835,247367,1313975,73886,8208,656639,11
3,-1,639869,218669,1256022,65653,7183,627516,0
3,0,709130,247152,1308772,73807,8686,653946,11
3,-1,640415,218072,1231677,65410,7191,615362,0
3,0,706126,247592,1366812,74015,8552,682962,11
3,0,705427,247241,1284508,73801,8970,641727,11
3,-1,640571,218512,1211912,65623,7054,605511,0
3,0,704587,247219,1391398,73842,9282,695272,11
3,-1,641672,218633,1216548,65642,7797,607903,0
3,0,710941,248978,1310838,74665,8657,654595,11
3,0,708959,247622,1307364,74014,9098,653144,11
3,0,707916,246874,1377928,73729,9298,688532,11
3,0,712814,249128,1339380,74679,9411,668810,11
3,0,705262,247133,1245625,73933,8974,622193,11
3,-1,655621,223106,1315408,68964,7548,657267,0
3,-1,637229,218264,1107868,65558,6922,553526,0
3,0,728302,251782,1455387,77153,9693,727272,11
3,0,710876,248040,1394863,74141,8602,696892,11
3,-1,634715,217818,1122037,65321,6623,560587,0
3,0,705952,247393,1554093,73958,9725,776523,11
3,0,710316,247880,1488983,74088,9598,743981,11
3,0,728008,251263,1455261,76959,10531,727223,11
3,0,712862,248404,1454587,74259,9205,727064,11
3,-1,637628,218516,1246100,65574,6790,622643,0
3,0,709889,247620,1499222,73910,9763,749145,11
3,0,716699,249109,1419694,74589,10267,709162,11
3,0,712055,248440,1514912,74237,9669,756922,11
3,0,712294,247627,1559167,73970,9846,779120,11
3,0,713951,247726,1502330,73925,9390,750780,11
3,-1,659223,222768,1180540,68723,7594,589743,0
3,0,702892,246736,1439477,73648,10071,719321,11
3,0,706063,247636,1465615,74004,10152,732294,11
3,-1,645051,221384,1224387,66817,6956,611529,2
3,0,705047,247009,1443067,73740,10365,721134,11
3,0,705952,248298,1329538,74394,9581,664131,11
3,0,705341,247537,1577294,73898,10870,788368,11
3,0,709677,248936,1600048,74664,11287,798608,11
3,0,709193,247360,1494144,73847,10655,746661,11
3,0,704626,247117,1538902,73837,9297,768954,11
3,0,706220,247286,1491301,73832,9190,745207,11
3,-1,635388,217966,1313498,65358,7443,656373,0
3,0,705535,247703,1497979,73968,9723,748610,11
3,0,729053,251945,1483967,77189,10584,741626,11
3,-1,637124,218782,1180376,65710,7420,589768,2
3,-1,637174,218226,1113894,65467,7281,556569,0
3,0,705329,247395,1503414,73894,10029,751218,11
3,0,705706,247398,1491767,73820,9192,745564,11
3,0,709034,249414,1408648,74820,9238,703520,11
3,0,705996,247073,1485309,73731,8925,742186,11
3,-1,639460,218930,1232230,65816,6714,615610,0
3,0,710500,248914,1505955,74674,9505,751913,11
3,0,709614,248078,1419690,74080,9638,709409,11
3,0,706068,247250,1433711,73800,9242,716444,11
3,0,710987,248114,1433976,73991,9040,716586,11
3,0,728079,252400,1556782,77304,11069,777979,11
3,0,710682,249452,1425098,74888,9288,711745,11
3,0,708593,247722,1456918,73947,9890,727997,11
3,0,705785,246749,1401394,73632,9165,700246,11
3,0,706282,247221,1389711,73834,9434,694433,11
3,-1,640469,218836,1183264,65781,7572,591191,2
3,-1,642392,218818,1178837,65757,7461,588985,0
3,0,711986,248640,1412252,74507,8922,705469,11
3,0,706509,247055,1422877,73738,9071,711018,11
3,-1,640843,217936,1154628,65465,7670,576858,0
3,-1,637291,218318,1211149,65653,7516,605134,2
3,0,709699,247167,1528886,73756,9315,764037,11
3,0,710568,247529,1495707,73928,9227,747382,11
3,0,705509,247735,1432789,74016,9556,715887,11
3,0,726882,251988,1539250,77162,10434,769217,11
3,0,705198,247471,1511266,73877,9468,755253,11
3,0,706253,247331,1422526,73824,8431,710884,11
3,-1,639043,218607,1364767,65654,7374,681838,0
3,0,727228,252081,1638064,77222,10368,818628,11
3,-1,640041,218674,1141267,65674,7321,570172,0
3,0,711212,249170,1503828,74826,9775,751107,11
3,0,709353,247838,1487883,74017,9406,743420,11
3,0,713305,249781,1427266,74881,9621,712804,11
3,0,709636,247987,1502756,73980,9761,750920,11
3,0,709006,247431,1431433,73784,8822,715271,11
3,-1,642062,219530,1381550,65939,7140,690375,0
3,-1,643398,220633,1273400,66608,7412,635944,2
3,0,705162,247084,1432360,73633,9371,715787,11
3,-1,644711,219684,1277022,66215,7456,637840,0
3,0,709980,247665,1452121,73970,9178,725527,11
3,0,712137,249245,1409941,74780,8914,704155,11
3,0,709441,248081,1451182,74172,9369,725043,11
3,0,708500,247188,1424977,73837,8781,712150,11
3,-1,641961,219876,1307044,66280,7708,652822,0
3,-1,640283,218736,1238812,65675,7698,618932,2
3,0,707422,247342,1417096,73833,8594,708098,11
3,0,710411,248098,1506368,74096,9015,752727,11
3,-1,641877,218869,1241289,65667,7956,620149,0
3,-1,643870,218311,1339238,65455,7617,669176,0
3,0,731622,251729,1571146,77122,10366,785138,11
3,0,712883,248090,1370434,74028,9275,684801,11
3,-1,640907,218511,1173970,65429,7839,586522,0
3,0,705649,247178,1422723,73670,10070,710960,11
3,0,709362,248048,1422350,74039,9567,710542,11
3,0,732853,252945,1567028,77413,10818,782958,11
3,0,703870,246777,1476480,73512,9075,737773,11
3,-1,640514,218836,1260622,65546,7706,629790,2
3,-1,648555,221046,1249400,66456,7877,624009,0
3,-1,642799,218798,1179479,65475,7552,589238,0
3,-1,642907,219809,1121001,65872,7141,560002,2
3,0,708701,247277,1340935,73725,9615,670089,11
3,0,712044,248737,1417810,74398,9701,708151,11
3,-1,642972,218646,1180447,65436,7657,589782,0
3,0,710069,247283,1507523,73875,10267,753190,11
3,-1,647576,220299,1293917,66150,8226,646031,0
3,-1,650720,221497,1282540,66733,8337,640576,2
3,0,711171,249141,1445264,74685,9124,721958,11
3,0,707495,246833,1477234,73654,8590,738143,11
3,0,709981,248370,1425770,74163,9088,712299,11
3,-1,639631,220159,1296372,66102,8087,647277,0
3,0,710610,247672,1523905,73865,9221,761592,11
3,0,710959,248824,1421941,74474,9826,710166,11
3,0,709962,248054,1569892,73974,9717,784495,11
3,-1,636561,219254,1297091,65711,7129,648088,2
3,0,711605,247952,1491619,73956,8911,745237,11
3,-1,642968,220763,1224818,66478,7274,611666,0
3,0,711141,247586,1491374,74011,9514,745208,11
3,-1,639880,218675,1176901,65467,7316,588011,0
3,0,711086,246771,1514200,73713,9752,756674,11
3,0,707766,247842,1582901,73982,11053,790977,11
3,0,709254,247960,1542663,74070,10417,770796,11
3,0,707172,247326,1474485,73834,9033,736821,11
3,0,708382,247404,1391676,73911,8817,695296,11
3,0,727729,251519,1533376,76986,10257,766315,11
3,-1,639822,219456,1169275,65773,6929,584151,0
3,0,710601,247807,1493836,74039,9239,746434,11
3,0,714266,249465,1473928,74936,9871,735947,11
3,0,708156,247639,1525109,73976,9930,762034,11
3,-1,636188,218273,1102367,65362,6526,550735,0
3,0,714793,249416,1472525,74827,9610,735595,11
3,0,709946,247485,1513892,73877,9830,756434,11
3,0,710504,247475,1518105,73932,10010,758526,11
3,-1,636920,218454,1167761,65508,7341,583312,2
3,0,730803,252243,1558517,77241,10498,778731,11
3,0,711313,247750,1500035,73899,10161,749556,11
3,-1,646176,220930,1209408,66650,7667,603797,0
3,0,709375,247947,1380242,74083,9810,689424,11
3,0,708096,247650,1380335,73883,9159,689478,11
3,-1,634963,217863,1248774,65346,7113,623823,0
3,-1,638202,218877,1206258,65667,6930,602580,2
3,-1,641084,218843,1263181,65663,7760,631161,0
3,0,711246,247491,1504128,73768,9816,751605,11
3,0,712758,247878,1496773,73904,9410,747869,11
3,-1,639212,218358,1240988,65467,7391,620126,0
3,-1,641152,220649,1234242,66538,7491,616401,2
3,0,711811,247469,1506704,73847,9966,752722,11
3,0,712777,248098,1540442,74033,10192,769793,11
3,0,715139,248615,1483639,74409,9751,741089,11
3,-1,639998,218789,1251874,65881,7113,625304,0
3,0,711182,247286,1390405,73752,10022,694745,11
3,-1,660487,223011,1296877,68805,8220,648109,0
3,0,717866,248985,1448419,74643,9714,723355,11
3,-1,633497,217542,1124144,65132,6741,561655,0
3,0,706664,248798,1435831,74553,9531,717176,11
3,0,709267,249365,1397165,74752,9393,697741,11
3,0,706209,247367,1392754,73803,9189,695901,11
3,-1,637890,217929,1364078,65338,7285,681613,0
3,0,704898,247618,1377301,73892,9373,688176,11
3,0,705434,247716,1302390,74037,9442,650692,11
3,-1,639285,218605,1238143,65616,7266,618491,2
3,-1,646086,220336,1171962,66417,7440,585269,0
3,0,726209,252138,1507864,77354,10139,753466,11
3,-1,659629,223015,1192744,68790,7377,595979,0
3,-1,637732,218746,1141369,65656,6247,570197,2
3,0,709055,247933,1331981,74152,9479,665058,11
3,-1,640378,218070,1232017,65318,7569,615571,0
3,-1,642428,220658,1200860,66559,6817,599676,2
3,-1,637902,218121,1231758,65391,6785,615459,0
3,0,741812,260042,1367449,78077,8721,682932,11
3,0,712157,249166,1345097,74400,8932,672000,11
3,0,711140,248709,1381620,74322,9161,690220,11
3,-1,643468,219290,1154441,65992,8040,576650,0
3,0,713835,249195,1310297,74718,8790,654429,11
3,0,712301,248487,1379088,74296,9112,688831,11
3,-1,639439,218263,1246280,65464,8330,622716,0
3,0,711536,248643,1268549,74298,8408,633832,11
3,0,714671,249350,1336774,74706,8112,667825,11
3,0,735085,253352,1475997,77800,9304,737585,11
3,-1,643593,219787,1196605,66227,7762,597516,0
3,-1,640439,218563,1134341,65507,6968,566682,2
3,0,713657,247957,1404143,74225,9047,701510,11
3,0,735345,253428,1472340,77854,9346,735756,11
3,-1,641831,218550,1158322,65566,7633,578689,0
3,0,711549,248786,1459870,74517,8856,729519,11
3,0,707734,247879,1433239,74173,8902,716271,11
3,0,709808,248754,1335677,74504,8653,667323,11
3,-1,635201,218821,1241698,65666,7137,620372,2
3,0,715024,250281,1349996,75233,8908,674014,11
3,0,710379,248185,1274054,74259,8710,636527,11
3,-1,637062,218490,1153715,65531,7133,576364,0
3,0,707850,248005,1288600,74162,8041,643775,11
3,0,710403,248206,1431582,74246,8748,715323,11
3,0,709299,248081,1371691,74191,9077,685336,11
3,0,706957,247476,1370163,73939,9171,684564,11
3,0,713639,249639,1313731,74731,9317,656256,11
3,0,709329,248056,1313331,74178,8786,656183,11
3,-1,636314,217842,1317758,65288,7125,658412,0
3,0,713368,248797,1415437,74355,8746,707308,11
3,-1,636465,218344,1160395,65463,6439,579695,2
3,-1,644518,220574,1211278,66492,7432,604789,0
3,0,730260,252843,1473259,77489,10401,736190,11
3,0,715646,250273,1361343,75152,9420,679861,11
3,0,712397,248398,1426634,74217,9794,712891,11
3,0,712665,249769,1412423,74738,8769,705679,11
3,-1,637422,218235,1242132,65464,6905,620526,0
3,0,713457,249331,1325706,74563,9175,662437,11
3,0,711149,248134,1500362,74133,9704,748955,11
3,-1,640931,220031,1190462,66315,6979,594483,2
3,0,713430,249363,1415518,74479,9682,707399,11
3,0,712777,248831,1368765,74407,9408,683828,11
3,-1,643399,219491,1235429,66041,7558,617163,0
3,0,732600,252791,1444530,77502,10174,721584,11
3,0,712684,248139,1395458,74185,9192,697220,11
3,0,713794,249685,1395309,74675,9228,696870,11
3,0,719660,250925,1405660,75337,9512,701932,11
3,-1,644490,219413,1232884,66023,7704,615880,0
3,-1,640679,218654,1254923,65597,7638,627004,2
3,0,709446,248730,1374631,74334,8964,686882,11
3,0,710237,248710,1478342,74370,8665,738654,11
3,-1,640331,219375,1361954,65804,7150,680450,0
3,0,732420,253577,1457956,77720,9863,728395,11
3,0,708693,248397,1450915,74223,8783,724919,11
3,0,708790,248006,1403807,74105,8328,701328,11
3,0,712673,249090,1323413,74492,8026,661242,11
3,-1,639462,218274,1192958,65480,6990,595858,0
3,0,707534,248036,1246270,74125,8528,622622,11
3,0,710709,248003,1311383,74138,8198,655256,11
3,-1,639616,217519,1294290,65131,7601,646778,0
3,0,711150,248872,1405632,74438,9325,702360,11
3,0,715216,249925,1450906,74684,8709,724999,11
3,-1,640332,218564,1257536,65568,7832,628149,0
3,0,714219,248711,1407205,74273,9121,702928,11
3,0,708276,248101,1471233,73958,9284,735081,11
3,0,711352,248934,1393860,74321,9188,696315,11
3,0,709478,247935,1286470,73940,8669,642772,11
3,0,711560,248480,1421655,74113,8468,710273,11
3,-1,640311,217893,1200339,65296,8321,599683,0
3,0,718272,250775,1264701,75112,9051,631464,11
3,0,711921,248236,1247903,73981,9195,623452,11
3,0,715659,250345,1314097,74888,9096,656318,11
3,0,712589,248938,1348119,74267,9235,673508,11
3,0,710950,248515,1390948,74075,8645,694976,11
3,0,713736,249061,1292732,74212,8072,645866,11
3,0,718698,249906,1319084,74741,9258,658885,11
3,0,715934,249283,1409376,74375,9155,704263,11
3,0,714899,250897,1408111,75137,9110,703158,11
3,-1,645830,219996,1190174,66207,7747,594491,0
3,0,708535,247796,1298557,73830,8199,648793,11
3,0,710197,248309,1452269,73994,8819,725651,11
3,0,714050,249442,1300365,74404,8284,649643,11
3,0,731647,253068,1443776,77442,9547,721486,11
3,0,710468,248250,1377808,74095,8385,688253,11
3,0,732903,253234,1368693,77495,9605,683816,11
3,-1,638382,218582,1197870,65622,6607,598393,0
3,0,711730,248576,1450139,74144,8691,724192,11
3,-1,639353,218374,1338963,65530,7404,669084,0
3,0,713001,248699,1313948,74232,8527,656546,11
3,0,715227,249399,1393966,74651,8135,696114,11
3,0,711998,248055,1429585,73998,9209,714281,11
3,0,731867,252683,1423569,77331,9557,711378,11
3,0,715675,249780,1368491,74864,8599,683580,11
3,0,710372,248690,1379987,74297,8661,689524,11
3,-1,640871,218251,1139770,65464,6936,569417,0
3,0,716992,250201,1295167,75029,9524,646557,11
3,0,712687,247950,1454470,73969,9160,726719,11
3,0,716043,248875,1518741,74309,9950,758820,11
3,0,710224,247630,1420527,73923,8712,709835,11
3,0,717431,250430,1427014,75093,8860,712728,11
3,0,713453,248411,1527181,74169,8822,763128,11
3,-1,637409,218468,1226761,65567,6885,612749,2
3,0,716062,249228,1430064,74633,9402,714409,11
3,-1,661812,223588,1338206,68999,7639,668623,0
3,0,714402,248086,1556926,74017,10548,777984,11
3,0,716374,248896,1431159,74313,9213,715121,11
3,0,736774,252784,1569867,77389,10415,784520,11
3,-1,641897,218671,1252869,65598,6978,625947,0
3,0,707444,248708,1368547,74218,9701,683782,11
3,0,706468,247801,1494591,73973,9624,746790,11
3,0,710361,248931,1565102,74346,9383,782053,11
3,-1,640265,218460,1255756,65550,6959,627318,2
3,-1,646739,219752,1141870,66236,7362,570234,0
3,-1,638100,218279,1228646,65438,6613,613912,2
3,-1,641159,218744,1299310,65645,7233,649222,0
3,0,711459,248745,1693748,74275,11789,846464,11
3,0,714254,249295,1409894,74647,9455,704188,11
3,0,711403,248464,1475106,74208,9731,737109,11
3,0,712201,248624,1421816,74227,9649,710427,11
3,0,733415,252903,1592802,77406,10952,795956,11
3,0,716332,250016,1437150,74942,9772,717924,11
3,0,711956,248098,1501210,74073,9782,750074,11
3,0,712078,248958,1438350,74341,9091,718754,11
3,0,710774,248640,1390617,74235,8480,694827,11
3,-1,647970,220439,1220512,66359,7965,609268,0
3,0,709632,247833,1415278,73983,9210,707181,11
3,-1,642436,218490,1315237,65499,8221,657108,2
3,0,730825,252932,1436321,77397,9252,717846,11
3,0,714821,249915,1327849,74850,8843,663041,11
3,0,710210,248632,1412445,74224,8690,705752,11
3,0,710550,248246,1336398,74125,8466,667628,11
3,0,732202,253539,1438251,77580,9248,718620,11
3,-1,646990,220761,1153758,66465,6581,576197,0
3,0,712476,248544,1328577,74059,7468,663857,11
3,0,713027,248302,1410263,73970,8261,704608,11
3,0,711768,248476,1451589,74110,8877,725244,11
3,0,715503,248826,1368533,74295,8839,683757,11
3,0,738554,254184,1418828,77878,9336,708933,11
3,0,716917,248958,1467989,74374,9161,733488,11
3,-1,648351,221475,1202377,66769,6655,600308,2
3,-1,643086,218453,1104337,65463,6310,551737,0
3,0,711656,248943,1387544,74346,8131,693306,11
3,0,733094,253141,1434468,77354,10277,716858,11
3,0,714951,250282,1334314,74990,9210,666372,11
3,-1,643448,217702,1290844,65168,5850,645050,0
3,-1,630114,218539,1217192,65100,6577,608166,2
3,0,712847,248914,1452111,74334,8863,725617,11
3,0,716550,249865,1419086,74940,8546,708849,11
3,0,710335,248153,1444943,74123,9124,722030,11
3,-1,629379,217426,1235173,64663,6452,617052,0
3,0,716059,249260,1422347,74732,9338,710442,11
3,-1,652628,222857,1245329,68248,7440,622319,0
3,-1,631946,218525,1142508,65076,6668,570857,2
3,0,711637,247990,1465267,74067,9836,732188,11
3,-1,634630,218618,1300843,65092,6615,649959,0
3,0,714443,247918,1517416,74054,9873,758298,11
3,0,710733,248531,1414264,74309,8747,706528,11
3,-1,652794,223079,1267755,68347,8180,633407,0
3,0,711051,248172,1457944,74081,9031,728560,11
3,-1,631571,217862,1293329,64802,6993,646322,0
3,0,715582,249261,1432587,74400,8904,715740,11
3,0,716944,249638,1477960,74737,8688,738205,11
3,-1,637782,219342,1147275,65517,6719,572780,0
3,-1,631328,218945,1237134,65199,7116,618097,2
3,0,708374,248199,1506591,74009,9473,752777,11
3,0,707778,247804,1536707,73875,10679,767743,11
3,-1,632792,218492,1230664,65003,7617,614938,0
3,0,709734,247941,1522500,73945,10624,760818,11
3,0,714256,249264,1351319,74547,9827,675045,11
3,-1,636919,219177,1161044,65484,6562,579892,0
3,0,713529,247940,1433724,73886,9530,716401,11
3,0,708540,248440,1499492,74113,9094,749296,11
3,0,708146,247705,1396824,73854,8666,697907,11
3,0,711499,248133,1508306,74027,8910,753672,11
3,0,711579,247776,1397835,73800,8516,698498,11
3,-1,655116,222800,1289154,68177,8070,644031,0
3,-1,637620,220157,1231683,65872,8343,614985,2
3,0,712302,248098,1562448,73961,8775,780792,11
3,0,732442,252391,1547932,77212,10026,773512,11
3,0,717310,249440,1489268,74620,9037,743894,11
3,0,710727,247520,1383266,73732,9732,690966,11
3,0,714379,249537,1359133,74671,9317,678781,11
3,-1,635581,218428,1182796,64995,7644,590772,0
3,0,710448,247643,1445244,73810,10403,722129,11
3,0,716451,250052,1803965,74893,11929,901523,11
3,0,710918,248045,1627022,73967,12335,812907,11
3,0,711003,247597,1578717,73830,11550,788563,11
3,-1,632612,217864,1192356,64817,7863,595765,0
3,0,716773,250073,1606346,74794,12109,802562,11
3,-1,635179,219156,1331651,65305,7994,665225,2
3,0,709845,247732,1553885,73851,10978,776131,11
3,-1,663126,224754,1314779,69314,9052,656937,0
3,0,714775,250195,1597710,75001,11180,797951,11
3,-1,634832,218340,1219067,65006,6542,608978,0
3,0,710738,247813,1537938,73876,9907,768553,11
3,-1,637057,217976,1221958,64888,6645,610620,0
3,-1,631638,217698,1245752,64747,7395,622485,0
3,0,732579,252442,1584974,77303,11190,792152,11
3,0,711346,247081,1588717,73909,10284,793706,11
3,-1,632063,218474,1213321,65185,7413,606160,2
3,0,711611,247022,1467759,73830,9901,733423,11
3,-1,653241,222654,1249785,68317,7905,624526,0
3,0,708227,246734,1466661,73735,10731,732990,11
3,0,708449,246734,1537161,73783,10750,767859,11
3,0,709317,247055,1498827,73955,10889,748880,11
3,0,715075,247898,1543285,74231,10915,771182,11
3,0,738604,253774,1566903,78465,11204,782901,11
3,-1,637503,219489,1118578,65691,7399,558688,0
3,0,710499,246577,1538401,73734,10541,768700,11
3,0,717086,249180,1567329,74812,11043,782964,11
3,-1,657933,222936,1199274,68409,7591,599345,0
3,-1,632464,218099,1192157,65050,7334,595593,2
3,0,701800,246820,1487433,73812,8949,743217,11
3,0,703393,247275,1436699,74019,9506,717776,11
3,-1,655782,222747,1282797,68380,7615,640957,0
3,0,702699,247261,1436281,74005,10115,717512,11
3,0,707016,248366,1527030,74587,10066,762728,11
3,0,699734,246522,1503963,73843,10120,751400,11
3,0,706496,248498,1536401,74604,10936,767427,11
3,0,710066,249347,1536174,74951,10535,767385,11
3,0,705205,247278,1459121,73985,9731,728884,11
3,-1,658437,222726,1264619,68390,7700,631895,0
3,0,703591,246223,1416865,73618,9965,707760,11
3,0,708110,247974,1523543,74244,9884,761299,11
3,0,701150,246835,1374771,73835,9762,686807,11
3,-1,639162,220142,1163560,66045,7035,581058,2
3,0,710428,249960,1546099,75165,10700,772330,11
3,0,727769,252006,1569074,77349,11260,783936,11
3,-1,637024,218226,1236416,65857,7720,617778,0
3,0,705701,247201,1574329,73956,9828,786609,11
3,0,705328,247164,1420329,73911,9552,709630,11
3,0,711076,248383,1528938,74552,10154,763615,11
3,-1,635391,217124,1147340,65501,7602,573175,0
3,0,713239,249352,1532068,74998,10220,764900,11
3,-1,637415,218287,1174919,65974,7502,587052,0
3,-1,635455,218391,1223558,66029,6983,611340,2
3,0,734308,256697,1591534,76807,10110,795342,11
3,0,707766,247153,1377614,73954,7988,688293,11
3,-1,639039,219001,1173399,66397,7603,586015,0
3,0,704774,246923,1491154,73863,8845,745147,11
3,0,707615,247737,1417456,74164,8871,708154,11
3,0,707180,246863,1409363,73838,9033,704212,11
3,-1,639993,218399,1387985,65969,8284,693009,0
3,-1,642926,219126,1197273,66474,7872,597847,0
3,0,703998,246995,1522582,73889,9627,760841,11
3,0,711555,248625,1698863,74655,10632,848962,11
3,0,706837,247299,1416013,74078,9133,707359,11
3,0,706194,246524,1494760,73691,9008,746936,11
3,0,709928,247517,1396049,74146,9103,697478,11
3,0,704670,246970,1483164,73936,9111,741058,11
3,0,706071,247173,1380037,73958,8887,689631,11
3,-1,644559,219432,1257296,66565,8263,627737,0
3,0,707730,247370,1424039,73926,11635,711317,11
3,-1,654156,222634,1270410,69211,8941,634815,0
3,0,706417,247732,1581322,74079,10873,790380,11
3,0,705494,246947,1499712,73749,10253,749325,11
3,0,710777,248311,1590603,74260,10689,794000,11
3,0,732221,252921,1607792,77494,10983,803427,11
3,0,708201,248849,1426134,74567,9617,712286,11
3,0,705553,247528,1320484,73950,8967,659696,11
3,-1,635859,218861,1180939,66375,6782,589708,0
