-1,0,0.0591479
-1,1,0.0586466
-1,2,0.0586466
-1,3,0.0586466
-1,4,0.0591479
-1,5,0.0591479
-1,6,0.0591479
-1,7,0.0591479
-1,8,0.0591479
-1,9,0.0591479
-1,10,0.0591479
-1,11,0.0591479
-1,12,0.0591479
-1,13,0.0591479
-1,14,0.0591479
-1,15,0.114286
