0,0,16,648224.500000,222098.937500,1317352.000000,66947.500000,7983.250000,658195.500000,17594.625593,6043.162991,80991.256526,1720.526046,666.659161,40450.311445
0,1,0,-nan,-nan,-nan,-nan,-nan,-nan,-nan,-nan,-nan,-nan,-nan,-nan
1,0,15,643030.533333,220187.600000,1344773.333333,66604.866667,7910.866667,671789.533333,7875.995106,1552.229571,124564.151596,1175.666328,747.001104,62158.228880
1,1,0,-nan,-nan,-nan,-nan,-nan,-nan,-nan,-nan,-nan,-nan,-nan,-nan
2,0,15,643099.866667,220084.600000,1316665.200000,66543.266667,7904.400000,657935.400000,7205.855340,1541.062222,58139.179599,1103.964279,483.179718,29059.453456
2,1,0,-nan,-nan,-nan,-nan,-nan,-nan,-nan,-nan,-nan,-nan,-nan,-nan
3,0,15,641876.600000,219855.133333,1293906.600000,66372.800000,7832.066667,646456.200000,6536.315892,1541.342829,71209.028044,876.922057,527.573371,35572.027078
3,1,0,-nan,-nan,-nan,-nan,-nan,-nan,-nan,-nan,-nan,-nan,-nan,-nan
4,0,15,642421.133333,219819.933333,1264080.333333,66360.000000,7971.133333,631551.000000,6540.186601,1341.447252,51114.516229,935.271155,420.450214,25574.292733
4,1,0,-nan,-nan,-nan,-nan,-nan,-nan,-nan,-nan,-nan,-nan,-nan,-nan
5,0,15,643200.133333,219990.266667,1311831.333333,66396.733333,8167.400000,655420.066667,4937.354445,1238.444426,80376.685224,901.412482,807.206607,40101.146033
5,1,0,-nan,-nan,-nan,-nan,-nan,-nan,-nan,-nan,-nan,-nan,-nan,-nan
6,0,15,646245.666667,220824.933333,1287853.933333,66758.666667,7914.133333,643470.466667,13708.802139,3676.780647,65289.916827,1646.332193,737.040376,32636.939632
6,1,0,-nan,-nan,-nan,-nan,-nan,-nan,-nan,-nan,-nan,-nan,-nan,-nan
7,0,15,649768.733333,221479.733333,1328523.800000,67248.800000,8209.666667,663776.600000,10239.405988,2553.933971,53211.108518,1409.203945,557.840678,26594.022416
7,1,0,-nan,-nan,-nan,-nan,-nan,-nan,-nan,-nan,-nan,-nan,-nan,-nan
8,0,15,644510.866667,220171.000000,1320858.666667,66571.066667,8014.400000,659920.866667,7774.155327,1710.315215,73783.774606,1160.657427,655.736817,36879.033080
8,1,0,-nan,-nan,-nan,-nan,-nan,-nan,-nan,-nan,-nan,-nan,-nan,-nan
9,0,15,643221.133333,219952.266667,1285574.200000,66380.533333,7850.666667,642314.200000,6026.154129,1330.037466,83467.803004,797.681797,578.518299,41724.643593
9,1,0,-nan,-nan,-nan,-nan,-nan,-nan,-nan,-nan,-nan,-nan,-nan,-nan
10,0,15,642006.466667,219687.000000,1292634.333333,66301.466667,8027.600000,645865.466667,6315.342196,1193.714148,46314.157076,921.525248,575.139844,23157.564408
10,1,0,-nan,-nan,-nan,-nan,-nan,-nan,-nan,-nan,-nan,-nan,-nan,-nan
11,0,15,645416.066667,220700.066667,1317159.866667,66823.066667,8061.133333,658034.000000,7596.366214,1814.181559,57800.429634,1129.647819,655.260952,28927.693838
11,1,0,-nan,-nan,-nan,-nan,-nan,-nan,-nan,-nan,-nan,-nan,-nan,-nan
12,0,15,642437.666667,219800.933333,1282968.066667,66306.933333,7850.466667,641028.400000,6735.741906,1534.134869,60437.182485,1018.007038,560.330958,30215.359562
12,1,0,-nan,-nan,-nan,-nan,-nan,-nan,-nan,-nan,-nan,-nan,-nan,-nan
13,0,15,642558.333333,219756.933333,1327220.866667,66226.266667,7921.533333,663022.466667,2617.686909,1167.058323,53128.820450,468.534234,647.098021,26415.343824
13,1,0,-nan,-nan,-nan,-nan,-nan,-nan,-nan,-nan,-nan,-nan,-nan,-nan
14,0,15,644771.466667,220325.600000,1327563.266667,66621.866667,8018.666667,663379.266667,7094.941333,1582.085872,82986.656001,1118.973867,629.171377,41464.994331
14,1,0,-nan,-nan,-nan,-nan,-nan,-nan,-nan,-nan,-nan,-nan,-nan,-nan
15,0,15,645887.133333,220884.000000,1316066.533333,66786.600000,7992.400000,657530.733333,8461.792496,2512.842640,98606.762290,1185.720754,606.163982,49272.597133
15,1,0,-nan,-nan,-nan,-nan,-nan,-nan,-nan,-nan,-nan,-nan,-nan,-nan
16,0,15,640875.800000,219460.133333,1249291.800000,66082.000000,7636.000000,624204.266667,2087.900643,710.834145,51322.527814,326.945051,461.581629,25669.206585
16,1,0,-nan,-nan,-nan,-nan,-nan,-nan,-nan,-nan,-nan,-nan,-nan,-nan
17,0,15,642839.200000,219938.200000,1292480.200000,66382.400000,7951.666667,645789.733333,5789.563463,1435.534799,67361.558525,953.231193,509.077030,33676.246290
17,1,0,-nan,-nan,-nan,-nan,-nan,-nan,-nan,-nan,-nan,-nan,-nan,-nan
18,0,15,643183.000000,219977.200000,1312737.600000,66403.800000,8300.600000,655929.200000,7159.491583,1564.955258,78789.525918,968.200682,486.587957,39388.074261
18,1,0,-nan,-nan,-nan,-nan,-nan,-nan,-nan,-nan,-nan,-nan,-nan,-nan
19,0,15,645890.800000,220505.733333,1295315.866667,66832.866667,8209.933333,647157.600000,8329.948245,1826.819512,76369.402007,1302.053858,588.243767,38063.705277
19,1,0,-nan,-nan,-nan,-nan,-nan,-nan,-nan,-nan,-nan,-nan,-nan,-nan
20,0,15,642547.800000,219814.866667,1320473.933333,66243.066667,8218.600000,659698.800000,3169.531684,849.658666,97936.812715,349.076776,604.824581,48935.329303
20,1,0,-nan,-nan,-nan,-nan,-nan,-nan,-nan,-nan,-nan,-nan,-nan,-nan
21,0,15,642335.200000,220119.800000,1305310.200000,66376.800000,7889.266667,652134.066667,4031.350034,984.716961,59167.724373,441.360050,538.504778,29564.389801
21,1,0,-nan,-nan,-nan,-nan,-nan,-nan,-nan,-nan,-nan,-nan,-nan,-nan
22,0,15,646565.000000,220773.200000,1314411.800000,67033.866667,7931.666667,656855.000000,9457.605800,2204.519334,99183.462665,1429.864043,542.160452,49574.061866
22,1,0,-nan,-nan,-nan,-nan,-nan,-nan,-nan,-nan,-nan,-nan,-nan,-nan
23,0,15,642182.400000,219915.266667,1321525.866667,66378.533333,8101.466667,660259.466667,6636.148650,1186.434741,94474.928598,816.126287,516.296926,47207.160611
23,1,0,-nan,-nan,-nan,-nan,-nan,-nan,-nan,-nan,-nan,-nan,-nan,-nan
24,0,15,644495.066667,220855.400000,1317211.600000,66623.066667,8176.333333,658093.800000,8325.188394,3119.269953,84221.453519,1019.890809,547.704990,42041.932192
24,1,0,-nan,-nan,-nan,-nan,-nan,-nan,-nan,-nan,-nan,-nan,-nan,-nan
25,0,15,642176.866667,219751.266667,1268915.733333,66286.600000,8082.400000,634034.933333,5088.255390,1338.210072,63516.120720,841.225439,748.483427,31765.223348
25,1,0,-nan,-nan,-nan,-nan,-nan,-nan,-nan,-nan,-nan,-nan,-nan,-nan
26,0,16,641937.937500,219816.750000,1316473.687500,66362.812500,8180.562500,657664.312500,7536.953525,1534.405443,69870.479401,935.742701,834.958829,34938.425708
26,1,0,-nan,-nan,-nan,-nan,-nan,-nan,-nan,-nan,-nan,-nan,-nan,-nan
27,0,16,643032.375000,220395.062500,1317228.000000,66558.125000,8014.437500,657942.187500,5015.158994,1344.504252,77207.650988,864.030589,560.101661,38449.839041
27,1,0,-nan,-nan,-nan,-nan,-nan,-nan,-nan,-nan,-nan,-nan,-nan,-nan
28,0,16,645129.000000,220630.625000,1331006.375000,66813.500000,8325.875000,665041.000000,9055.814934,1760.844928,58873.117778,1352.960042,775.610798,29462.877781
28,1,0,-nan,-nan,-nan,-nan,-nan,-nan,-nan,-nan,-nan,-nan,-nan,-nan
29,0,16,644370.937500,220315.125000,1286907.312500,66682.000000,7997.687500,642975.750000,9063.997555,1867.744960,87023.277452,1355.684698,676.742447,43564.627227
29,1,0,-nan,-nan,-nan,-nan,-nan,-nan,-nan,-nan,-nan,-nan,-nan,-nan
30,0,16,640702.937500,219810.937500,1315741.187500,66214.812500,8119.062500,657291.375000,3625.210347,1008.780295,96683.232378,546.221592,690.592723,48074.435764
30,1,0,-nan,-nan,-nan,-nan,-nan,-nan,-nan,-nan,-nan,-nan,-nan,-nan
31,0,16,644068.562500,220581.000000,1313382.562500,66543.937500,8001.062500,656197.312500,7401.987132,2424.989613,69623.754457,1024.041532,661.146303,34850.650166
31,1,0,-nan,-nan,-nan,-nan,-nan,-nan,-nan,-nan,-nan,-nan,-nan,-nan
32,0,16,642706.125000,220372.750000,1312112.500000,66367.312500,7753.937500,655642.687500,7986.030928,2363.938120,75540.436067,849.041866,570.105634,37740.894009
32,1,0,-nan,-nan,-nan,-nan,-nan,-nan,-nan,-nan,-nan,-nan,-nan,-nan
33,0,16,643485.750000,220437.812500,1307574.937500,66498.375000,7938.000000,653323.437500,9074.251440,2636.708820,67805.697836,1051.982882,575.526715,33791.919611
33,1,0,-nan,-nan,-nan,-nan,-nan,-nan,-nan,-nan,-nan,-nan,-nan,-nan
34,0,16,646837.312500,221254.562500,1310472.125000,66895.500000,8121.250000,654746.812500,11285.027851,3014.649979,53259.027759,1396.720713,795.867726,26708.034814
34,1,0,-nan,-nan,-nan,-nan,-nan,-nan,-nan,-nan,-nan,-nan,-nan,-nan
35,0,16,644154.937500,220506.125000,1325214.875000,66674.250000,8055.000000,662138.437500,7492.656876,1558.832371,109968.153851,1057.753545,642.595421,55052.404929
35,1,0,-nan,-nan,-nan,-nan,-nan,-nan,-nan,-nan,-nan,-nan,-nan,-nan
36,0,16,644109.437500,220197.000000,1297956.312500,66567.687500,8264.562500,648495.187500,6683.230366,1702.462114,56902.213541,1127.398649,908.486101,28400.877978
36,1,0,-nan,-nan,-nan,-nan,-nan,-nan,-nan,-nan,-nan,-nan,-nan,-nan
37,0,16,643230.250000,219996.500000,1295646.125000,66463.000000,7957.562500,647373.750000,8059.622956,1536.295667,77944.576351,1049.012691,635.136990,39030.554130
37,1,0,-nan,-nan,-nan,-nan,-nan,-nan,-nan,-nan,-nan,-nan,-nan,-nan
38,0,16,646286.312500,221141.375000,1273802.312500,66698.750000,7884.375000,636449.250000,9992.309885,3222.591637,72262.004150,1217.243941,527.491217,36126.696188
38,1,0,-nan,-nan,-nan,-nan,-nan,-nan,-nan,-nan,-nan,-nan,-nan,-nan
39,0,16,645237.000000,220646.375000,1305444.062500,66744.562500,7873.687500,652194.187500,8361.374558,1659.042264,90071.219534,1162.691112,840.972482,44950.078977
39,1,0,-nan,-nan,-nan,-nan,-nan,-nan,-nan,-nan,-nan,-nan,-nan,-nan
40,0,16,644585.937500,220149.625000,1295011.250000,66554.312500,7996.687500,647007.437500,7497.341574,1879.802545,79913.781777,1182.420701,650.001800,39969.161306
40,1,0,-nan,-nan,-nan,-nan,-nan,-nan,-nan,-nan,-nan,-nan,-nan,-nan
41,0,16,642758.812500,219747.250000,1338773.000000,66257.312500,7980.750000,668950.687500,5590.320018,1210.286097,103726.535460,884.012989,829.656593,51823.960694
41,1,0,-nan,-nan,-nan,-nan,-nan,-nan,-nan,-nan,-nan,-nan,-nan,-nan
42,0,16,645260.562500,220595.437500,1301622.375000,66709.875000,7932.812500,650356.687500,6501.227499,1475.991911,56724.095480,1132.867428,587.853959,28392.789260
42,1,0,-nan,-nan,-nan,-nan,-nan,-nan,-nan,-nan,-nan,-nan,-nan,-nan
43,0,16,645597.625000,220753.625000,1316104.625000,66689.500000,7806.437500,657627.375000,10154.627596,2731.600215,79700.902627,1342.944433,604.136881,39835.954818
43,1,0,-nan,-nan,-nan,-nan,-nan,-nan,-nan,-nan,-nan,-nan,-nan,-nan
44,0,16,643694.125000,220329.812500,1321902.250000,66606.562500,8099.125000,660467.375000,8211.847728,1926.178186,95856.928291,1203.285916,773.528189,47867.166734
44,1,0,-nan,-nan,-nan,-nan,-nan,-nan,-nan,-nan,-nan,-nan,-nan,-nan
45,0,16,644189.187500,220479.000000,1304154.562500,66678.500000,8033.375000,651461.437500,7604.300915,1668.320263,64631.605459,1095.932879,786.950910,32256.565876
45,1,0,-nan,-nan,-nan,-nan,-nan,-nan,-nan,-nan,-nan,-nan,-nan,-nan
46,0,16,642620.500000,219806.562500,1299265.250000,66292.250000,7899.750000,649223.937500,5192.379055,1377.642414,56610.192763,721.760824,594.422251,28314.298644
46,1,0,-nan,-nan,-nan,-nan,-nan,-nan,-nan,-nan,-nan,-nan,-nan,-nan
47,0,16,642849.750000,219776.062500,1307317.500000,66280.312500,7964.812500,653158.875000,5452.394342,1483.675355,43628.874060,853.680613,574.227004,21668.126176
47,1,0,-nan,-nan,-nan,-nan,-nan,-nan,-nan,-nan,-nan,-nan,-nan,-nan
48,0,16,641251.625000,219502.812500,1281814.812500,66070.812500,7917.062500,640455.625000,2960.524782,796.650270,79425.782893,463.964602,638.515218,39723.727939
48,1,0,-nan,-nan,-nan,-nan,-nan,-nan,-nan,-nan,-nan,-nan,-nan,-nan
49,0,16,643518.250000,220196.812500,1321827.875000,66458.875000,8168.187500,660415.000000,5969.306738,1497.409272,81817.325288,1050.760491,815.957200,40867.405119
49,1,0,-nan,-nan,-nan,-nan,-nan,-nan,-nan,-nan,-nan,-nan,-nan,-nan
50,0,16,647594.375000,221028.500000,1318680.812500,67007.125000,7992.687500,658866.250000,9831.191471,2146.315797,72922.526265,1421.458620,739.551699,36556.001406
50,1,0,-nan,-nan,-nan,-nan,-nan,-nan,-nan,-nan,-nan,-nan,-nan,-nan
51,0,16,643978.125000,220114.812500,1335590.125000,66502.000000,8163.437500,667345.875000,6815.683604,1573.530712,79918.661037,1165.636843,570.552689,39935.033927
51,1,0,-nan,-nan,-nan,-nan,-nan,-nan,-nan,-nan,-nan,-nan,-nan,-nan
52,0,16,643389.375000,220071.437500,1296791.500000,66395.625000,7898.500000,647860.437500,7464.031333,1569.253842,59713.091620,857.150357,528.104511,29884.357664
52,1,0,-nan,-nan,-nan,-nan,-nan,-nan,-nan,-nan,-nan,-nan,-nan,-nan
53,0,16,644029.500000,220487.687500,1297321.437500,66521.562500,7751.937500,648145.750000,8440.960150,2370.827063,68743.816777,1108.811073,459.567795,34277.470424
53,1,0,-nan,-nan,-nan,-nan,-nan,-nan,-nan,-nan,-nan,-nan,-nan,-nan
54,0,16,646070.062500,220781.437500,1344841.375000,66794.500000,7956.500000,671962.687500,10490.088313,2752.823391,127022.466807,1488.340939,803.480165,63511.901139
54,1,0,-nan,-nan,-nan,-nan,-nan,-nan,-nan,-nan,-nan,-nan,-nan,-nan
55,0,16,641805.562500,219783.625000,1277218.250000,66291.687500,7747.687500,638204.000000,6808.629607,1397.691752,65230.675719,951.279317,494.416666,32654.196256
55,1,0,-nan,-nan,-nan,-nan,-nan,-nan,-nan,-nan,-nan,-nan,-nan,-nan
56,0,16,643833.250000,220298.312500,1286508.875000,66587.250000,7979.062500,642765.812500,7963.235818,1599.079060,67100.916141,1075.448191,619.012870,33578.591445
56,1,0,-nan,-nan,-nan,-nan,-nan,-nan,-nan,-nan,-nan,-nan,-nan,-nan
57,0,16,644185.437500,220290.562500,1279910.125000,66601.937500,7973.812500,639529.250000,7474.701516,1751.744629,62966.628439,1175.346623,509.240515,31491.918691
57,1,0,-nan,-nan,-nan,-nan,-nan,-nan,-nan,-nan,-nan,-nan,-nan,-nan
58,0,16,644648.937500,220271.187500,1305296.187500,66638.875000,7978.062500,652241.687500,9064.353062,1776.421727,67815.908025,1379.411735,712.260439,33848.408527
58,1,0,-nan,-nan,-nan,-nan,-nan,-nan,-nan,-nan,-nan,-nan,-nan,-nan
59,0,16,643255.625000,220101.687500,1317060.625000,66403.250000,7860.812500,658065.750000,4862.165681,1434.003300,75470.952249,780.716858,726.640748,37673.986503
59,1,0,-nan,-nan,-nan,-nan,-nan,-nan,-nan,-nan,-nan,-nan,-nan,-nan
60,0,16,645312.500000,220588.000000,1304742.500000,66658.000000,7925.750000,651858.625000,4903.046476,1308.263114,47540.805811,993.070743,484.600157,23751.426702
60,1,0,-nan,-nan,-nan,-nan,-nan,-nan,-nan,-nan,-nan,-nan,-nan,-nan
61,0,16,644472.687500,220209.812500,1317547.187500,66515.312500,8018.312500,658332.937500,8658.872254,1799.176555,79568.710993,1214.862992,566.235896,39784.364651
61,1,0,-nan,-nan,-nan,-nan,-nan,-nan,-nan,-nan,-nan,-nan,-nan,-nan
62,0,16,641913.125000,219965.875000,1275310.500000,66311.562500,7717.375000,637195.875000,6449.941113,1292.274249,50550.108300,891.350378,658.767967,25209.475646
62,1,0,-nan,-nan,-nan,-nan,-nan,-nan,-nan,-nan,-nan,-nan,-nan,-nan
63,0,16,642327.000000,220094.187500,1304732.812500,66372.687500,7782.187500,651910.875000,6223.278617,1218.649417,56228.026408,865.563813,655.517660,28179.155829
63,1,0,-nan,-nan,-nan,-nan,-nan,-nan,-nan,-nan,-nan,-nan,-nan,-nan
64,0,16,648469.812500,221387.687500,1305789.250000,67282.062500,7953.687500,652397.500000,8620.742538,1888.243487,71171.290814,1475.904150,552.927631,35599.077291
64,1,0,-nan,-nan,-nan,-nan,-nan,-nan,-nan,-nan,-nan,-nan,-nan,-nan
65,0,16,645185.625000,220694.937500,1320291.687500,66654.500000,7937.250000,659700.312500,8578.978158,2653.151557,54297.162361,1175.373504,489.591475,27083.829102
65,1,0,-nan,-nan,-nan,-nan,-nan,-nan,-nan,-nan,-nan,-nan,-nan,-nan
66,0,16,642502.562500,219991.687500,1291843.312500,66324.812500,7891.937500,645467.812500,5914.671535,1410.521832,42833.970115,884.949943,559.017718,21353.806175
66,1,0,-nan,-nan,-nan,-nan,-nan,-nan,-nan,-nan,-nan,-nan,-nan,-nan
67,0,16,645990.500000,220794.812500,1316571.625000,66847.687500,7936.687500,657794.687500,7231.575053,1559.357328,59541.320724,1167.117106,650.017761,29714.509433
67,1,0,-nan,-nan,-nan,-nan,-nan,-nan,-nan,-nan,-nan,-nan,-nan,-nan
68,0,16,642999.812500,219870.625000,1292369.125000,66282.375000,7850.750000,645739.937500,4635.940832,1198.950003,61414.767826,837.065027,530.019162,30704.035558
68,1,0,-nan,-nan,-nan,-nan,-nan,-nan,-nan,-nan,-nan,-nan,-nan,-nan
69,0,16,644975.625000,220509.187500,1309238.312500,66714.812500,7994.562500,654147.937500,8984.849114,2017.537770,69173.945067,1494.279894,640.218319,34585.440395
69,1,0,-nan,-nan,-nan,-nan,-nan,-nan,-nan,-nan,-nan,-nan,-nan,-nan
70,0,16,642404.312500,220094.312500,1310142.500000,66389.750000,7826.125000,654607.625000,6698.123214,1194.885492,73549.124908,928.700470,701.931520,36756.782675
70,1,0,-nan,-nan,-nan,-nan,-nan,-nan,-nan,-nan,-nan,-nan,-nan,-nan
71,0,16,644781.937500,220439.562500,1311293.375000,66622.750000,7987.750000,655202.062500,8166.590724,1671.330681,68126.786646,1081.954279,639.167085,34076.820044
71,1,0,-nan,-nan,-nan,-nan,-nan,-nan,-nan,-nan,-nan,-nan,-nan,-nan
72,0,16,641426.875000,219629.625000,1321607.000000,66124.312500,7901.312500,660288.375000,2859.799160,699.822824,76343.757200,385.853068,722.970757,38146.565791
72,1,0,-nan,-nan,-nan,-nan,-nan,-nan,-nan,-nan,-nan,-nan,-nan,-nan
73,0,16,640627.125000,219479.000000,1291239.750000,66009.750000,7763.375000,645242.625000,3138.829198,600.232559,61444.802558,358.135711,480.264104,30713.376870
73,1,0,-nan,-nan,-nan,-nan,-nan,-nan,-nan,-nan,-nan,-nan,-nan,-nan
74,0,16,645959.437500,221105.250000,1314452.500000,66824.312500,8045.625000,656770.125000,9595.286095,2859.749148,52694.825666,1350.340685,355.278038,26366.058285
74,1,0,-nan,-nan,-nan,-nan,-nan,-nan,-nan,-nan,-nan,-nan,-nan,-nan
75,0,16,643666.687500,220143.687500,1305213.375000,66484.937500,7772.375000,652163.500000,7582.048987,1888.717777,73643.154021,1149.509812,474.675004,36735.713713
75,1,0,-nan,-nan,-nan,-nan,-nan,-nan,-nan,-nan,-nan,-nan,-nan,-nan
76,0,16,646334.562500,221175.375000,1304560.187500,66852.125000,7863.187500,651771.937500,10978.688588,3266.422812,45558.249373,1549.221493,612.329897,22754.602176
76,1,0,-nan,-nan,-nan,-nan,-nan,-nan,-nan,-nan,-nan,-nan,-nan,-nan
77,0,16,641819.000000,219703.250000,1299011.312500,66161.062500,7776.500000,649126.250000,5527.961955,1157.326796,82675.410656,705.890614,470.375515,41198.445460
77,1,0,-nan,-nan,-nan,-nan,-nan,-nan,-nan,-nan,-nan,-nan,-nan,-nan
78,0,16,640325.750000,219627.812500,1311078.437500,66061.250000,7896.375000,654945.562500,4152.474812,789.071624,53435.727451,535.001694,454.646274,26692.787703
78,1,0,-nan,-nan,-nan,-nan,-nan,-nan,-nan,-nan,-nan,-nan,-nan,-nan
79,0,16,646490.000000,221124.812500,1319767.562500,66871.187500,8029.875000,659423.937500,11182.901971,2780.192107,99985.548555,1399.697879,692.999357,49965.620775
79,1,0,-nan,-nan,-nan,-nan,-nan,-nan,-nan,-nan,-nan,-nan,-nan,-nan
80,0,16,644588.437500,220311.812500,1318758.687500,66518.187500,8002.875000,658865.937500,9182.267135,1870.327051,75611.625835,1296.563497,551.106600,37802.584373
80,1,0,-nan,-nan,-nan,-nan,-nan,-nan,-nan,-nan,-nan,-nan,-nan,-nan
81,0,16,646349.875000,220809.125000,1301401.937500,66917.000000,8054.312500,650236.187500,9721.351603,1836.449900,92574.208344,1440.503992,731.563285,46302.166877
81,1,0,-nan,-nan,-nan,-nan,-nan,-nan,-nan,-nan,-nan,-nan,-nan,-nan
82,0,16,643755.000000,220179.750000,1324629.750000,66546.250000,8194.937500,661862.000000,6942.962408,1466.634349,89649.252114,995.152783,781.435735,44737.507571
82,1,0,-nan,-nan,-nan,-nan,-nan,-nan,-nan,-nan,-nan,-nan,-nan,-nan
83,0,16,641586.437500,219877.562500,1280007.562500,66319.187500,7876.812500,639565.250000,6203.217935,1379.041740,68473.317454,894.118995,683.527452,34231.021984
83,1,0,-nan,-nan,-nan,-nan,-nan,-nan,-nan,-nan,-nan,-nan,-nan,-nan
84,0,16,643663.250000,220353.875000,1353310.375000,66621.062500,8221.687500,676161.812500,8576.991733,1630.258180,61235.675706,1247.115345,544.237737,30678.970787
84,1,0,-nan,-nan,-nan,-nan,-nan,-nan,-nan,-nan,-nan,-nan,-nan,-nan
85,0,16,643801.750000,219884.187500,1313566.062500,66409.875000,8103.312500,656335.937500,5886.451780,1510.734516,91368.249061,1044.110858,718.333464,45628.333757
85,1,0,-nan,-nan,-nan,-nan,-nan,-nan,-nan,-nan,-nan,-nan,-nan,-nan
86,0,16,642467.375000,219818.875000,1304644.187500,66218.250000,8090.375000,651825.687500,3655.118481,871.627922,63220.185706,544.800365,567.936602,31524.030006
86,1,0,-nan,-nan,-nan,-nan,-nan,-nan,-nan,-nan,-nan,-nan,-nan,-nan
87,0,16,642505.812500,220017.687500,1306363.625000,66266.687500,7874.625000,652635.062500,3457.766733,1103.355321,62328.600892,458.611589,488.446629,31077.043057
87,1,0,-nan,-nan,-nan,-nan,-nan,-nan,-nan,-nan,-nan,-nan,-nan,-nan
88,0,16,642413.375000,219733.187500,1291658.000000,66257.312500,7948.187500,645465.000000,6526.554881,1401.312341,60183.389523,856.280891,518.698879,30134.735464
88,1,0,-nan,-nan,-nan,-nan,-nan,-nan,-nan,-nan,-nan,-nan,-nan,-nan
89,0,16,642952.000000,220321.750000,1303625.437500,66388.437500,7818.062500,651301.187500,7669.956910,2190.342453,96063.926056,658.679168,511.774910,48006.394154
89,1,0,-nan,-nan,-nan,-nan,-nan,-nan,-nan,-nan,-nan,-nan,-nan,-nan
90,0,16,646117.687500,220760.937500,1296686.500000,66968.687500,8174.062500,647885.312500,9969.652882,2039.370291,61519.794037,1484.616311,772.602297,30681.750854
90,1,0,-nan,-nan,-nan,-nan,-nan,-nan,-nan,-nan,-nan,-nan,-nan,-nan
91,0,16,643193.437500,220346.750000,1297459.937500,66300.312500,7937.750000,648312.500000,8960.828896,3110.936244,79066.717502,980.315365,499.257887,39471.539188
91,1,0,-nan,-nan,-nan,-nan,-nan,-nan,-nan,-nan,-nan,-nan,-nan,-nan
92,0,16,642747.312500,219927.750000,1289374.250000,66385.500000,7969.625000,644244.000000,5615.323574,1070.858913,58740.039736,790.342884,532.454561,29365.304330
92,1,0,-nan,-nan,-nan,-nan,-nan,-nan,-nan,-nan,-nan,-nan,-nan,-nan
93,0,16,642074.062500,219820.250000,1296599.000000,66305.312500,7876.125000,647847.312500,5911.342365,1441.936133,70376.263123,818.234587,575.511064,35226.862667
93,1,0,-nan,-nan,-nan,-nan,-nan,-nan,-nan,-nan,-nan,-nan,-nan,-nan
94,0,16,644455.937500,220456.187500,1292125.250000,66706.312500,7913.562500,645617.750000,9875.577322,2273.696198,80412.367582,1360.959208,728.713075,40149.870390
94,1,0,-nan,-nan,-nan,-nan,-nan,-nan,-nan,-nan,-nan,-nan,-nan,-nan
95,0,16,642445.500000,220117.937500,1278699.062500,66420.312500,7919.062500,638902.500000,5588.382011,1386.786865,70949.084718,787.491486,416.582745,35493.614850
95,1,0,-nan,-nan,-nan,-nan,-nan,-nan,-nan,-nan,-nan,-nan,-nan,-nan
96,0,16,645447.062500,220716.375000,1299995.187500,66935.500000,8075.375000,649481.187500,7811.518710,1885.227800,77443.489968,1341.676843,494.279763,38655.519757
96,1,0,-nan,-nan,-nan,-nan,-nan,-nan,-nan,-nan,-nan,-nan,-nan,-nan
97,0,16,643301.875000,220086.000000,1301148.125000,66497.375000,7952.500000,650195.125000,7529.187862,1843.679304,48387.613088,1164.988298,544.696360,24186.987444
97,1,0,-nan,-nan,-nan,-nan,-nan,-nan,-nan,-nan,-nan,-nan,-nan,-nan
98,0,16,641839.375000,219971.000000,1293001.437500,66385.250000,7802.375000,645979.812500,7292.121210,1423.961113,88192.488865,988.966854,598.801185,44070.824781
98,1,0,-nan,-nan,-nan,-nan,-nan,-nan,-nan,-nan,-nan,-nan,-nan,-nan
99,0,16,641694.187500,219987.125000,1274590.312500,66388.812500,7842.937500,636869.375000,7917.704956,1666.245588,64902.111063,1011.776113,722.509902,32487.699603
99,1,0,-nan,-nan,-nan,-nan,-nan,-nan,-nan,-nan,-nan,-nan,-nan,-nan
100,0,16,642026.687500,220004.312500,1302503.437500,66469.750000,7904.062500,650887.812500,8045.284960,1615.752097,74990.378705,1047.906156,779.063097,37461.078093
100,1,0,-nan,-nan,-nan,-nan,-nan,-nan,-nan,-nan,-nan,-nan,-nan,-nan
101,0,16,642514.062500,220057.375000,1297746.562500,66368.312500,7563.687500,648451.500000,8779.051013,2425.855233,69722.766406,956.927944,700.350334,34676.621244
101,1,0,-nan,-nan,-nan,-nan,-nan,-nan,-nan,-nan,-nan,-nan,-nan,-nan
102,0,16,645067.875000,220712.250000,1311236.437500,66810.250000,7787.937500,655090.125000,9252.286440,1596.168283,72710.485010,1213.774717,734.364391,36296.593426
102,1,0,-nan,-nan,-nan,-nan,-nan,-nan,-nan,-nan,-nan,-nan,-nan,-nan
103,0,16,644812.687500,220279.125000,1311529.250000,66680.187500,7789.625000,655369.875000,7490.415190,1650.814983,69484.907287,1237.688078,456.936795,34738.560180
103,1,0,-nan,-nan,-nan,-nan,-nan,-nan,-nan,-nan,-nan,-nan,-nan,-nan
104,0,16,641731.125000,219719.375000,1321299.000000,66251.875000,7763.312500,660244.562500,4434.131931,1302.179369,64048.586126,673.161466,610.786452,32046.910688
104,1,0,-nan,-nan,-nan,-nan,-nan,-nan,-nan,-nan,-nan,-nan,-nan,-nan
105,0,16,645683.562500,220775.875000,1324465.187500,66687.000000,7954.937500,661805.812500,14095.640292,3755.478180,80552.783899,1703.888494,741.213909,40285.344327
105,1,0,-nan,-nan,-nan,-nan,-nan,-nan,-nan,-nan,-nan,-nan,-nan,-nan
106,0,16,643589.250000,220211.125000,1292323.500000,66288.750000,7867.500000,645701.437500,6049.588183,2495.853032,54419.075896,619.183283,559.225134,27252.003633
106,1,0,-nan,-nan,-nan,-nan,-nan,-nan,-nan,-nan,-nan,-nan,-nan,-nan
107,0,16,646556.875000,221087.937500,1310008.687500,66772.937500,8071.437500,654514.625000,10985.397824,3251.815156,55829.333203,1309.638999,631.385279,27863.333935
107,1,0,-nan,-nan,-nan,-nan,-nan,-nan,-nan,-nan,-nan,-nan,-nan,-nan
108,0,16,648256.000000,221560.375000,1316930.375000,66957.562500,8210.937500,657963.375000,15192.302673,4813.281571,68625.753441,1591.766549,676.134830,34204.534091
108,1,0,-nan,-nan,-nan,-nan,-nan,-nan,-nan,-nan,-nan,-nan,-nan,-nan
109,0,16,649805.312500,221727.937500,1296520.562500,67114.187500,7982.250000,647787.125000,18876.354480,5690.164106,53971.056640,2179.361667,658.351113,26989.584827
109,1,0,-nan,-nan,-nan,-nan,-nan,-nan,-nan,-nan,-nan,-nan,-nan,-nan
110,0,16,648995.062500,221593.875000,1325121.500000,67008.187500,8105.000000,662049.250000,14374.627180,4642.582281,82056.059138,1564.613260,668.473167,40981.626587
110,1,0,-nan,-nan,-nan,-nan,-nan,-nan,-nan,-nan,-nan,-nan,-nan,-nan
111,0,16,646873.562500,221135.250000,1306482.062500,66637.875000,7862.187500,652880.812500,14163.529256,4638.467601,47373.916590,1466.654010,613.232034,23655.663559
111,1,0,-nan,-nan,-nan,-nan,-nan,-nan,-nan,-nan,-nan,-nan,-nan,-nan
112,0,16,649250.375000,221749.312500,1294038.625000,67062.750000,8021.500000,646506.250000,12607.365971,4266.259775,62507.402998,1398.333450,657.671841,31336.758822
112,1,0,-nan,-nan,-nan,-nan,-nan,-nan,-nan,-nan,-nan,-nan,-nan,-nan
113,0,16,649571.937500,221699.812500,1304387.500000,67123.562500,8111.312500,651738.375000,14595.393068,4541.600547,97947.425271,1617.625960,849.552950,49018.390425
113,1,0,-nan,-nan,-nan,-nan,-nan,-nan,-nan,-nan,-nan,-nan,-nan,-nan
114,0,16,647145.437500,221235.437500,1322587.062500,66767.187500,8093.250000,660820.562500,13705.582248,4471.793655,77827.115896,1399.260484,553.115777,38924.328761
114,1,0,-nan,-nan,-nan,-nan,-nan,-nan,-nan,-nan,-nan,-nan,-nan,-nan
115,0,16,652024.500000,222238.812500,1293319.500000,67512.437500,8205.312500,646206.000000,17720.039020,5377.877418,108270.603001,2111.537295,828.584465,54146.061635
115,1,0,-nan,-nan,-nan,-nan,-nan,-nan,-nan,-nan,-nan,-nan,-nan,-nan
116,0,16,646363.687500,220990.250000,1288729.687500,66652.687500,7955.562500,643939.562500,12123.284336,4385.728325,83306.960603,1339.287251,604.327309,41681.998719
116,1,0,-nan,-nan,-nan,-nan,-nan,-nan,-nan,-nan,-nan,-nan,-nan,-nan
117,0,16,646898.437500,221330.937500,1289510.812500,66744.000000,8085.000000,644235.187500,12056.320780,4169.091155,62145.172165,1131.299308,383.216649,31054.521505
117,1,0,-nan,-nan,-nan,-nan,-nan,-nan,-nan,-nan,-nan,-nan,-nan,-nan
118,0,16,648536.750000,221460.937500,1312294.125000,67002.625000,8103.000000,655680.625000,13687.326444,4338.891671,91091.867463,1558.424761,665.879494,45424.600429
118,1,0,-nan,-nan,-nan,-nan,-nan,-nan,-nan,-nan,-nan,-nan,-nan,-nan
119,0,16,648671.437500,221679.125000,1315539.937500,67008.312500,8054.750000,657270.125000,18372.331119,5545.278103,77536.728529,2104.223542,684.038422,38707.167984
119,1,0,-nan,-nan,-nan,-nan,-nan,-nan,-nan,-nan,-nan,-nan,-nan,-nan
120,0,16,649552.062500,222144.562500,1290035.000000,67178.375000,7854.250000,644522.062500,14847.763087,5147.166502,53630.716071,1692.703565,637.257062,26918.959358
120,1,0,-nan,-nan,-nan,-nan,-nan,-nan,-nan,-nan,-nan,-nan,-nan,-nan
121,0,16,650946.125000,222343.312500,1288385.625000,67499.375000,8071.375000,643670.187500,15599.617222,4824.090338,66701.410302,1742.946854,683.730564,33295.482776
121,1,0,-nan,-nan,-nan,-nan,-nan,-nan,-nan,-nan,-nan,-nan,-nan,-nan
122,0,16,645278.937500,220840.562500,1283044.562500,66597.750000,7798.875000,641099.875000,12884.863855,4524.437547,69728.595445,1382.538223,619.290509,34826.239136
122,1,0,-nan,-nan,-nan,-nan,-nan,-nan,-nan,-nan,-nan,-nan,-nan,-nan
123,0,16,644378.750000,220723.000000,1290191.562500,66483.937500,7968.812500,644548.125000,11932.144665,4291.000248,82219.508169,1167.112273,627.575216,41019.668869
123,1,0,-nan,-nan,-nan,-nan,-nan,-nan,-nan,-nan,-nan,-nan,-nan,-nan
124,0,16,643749.312500,220686.562500,1302360.375000,66437.000000,8025.125000,650695.375000,12159.952034,4464.231568,76605.899151,1199.879004,432.257284,38179.111993
124,1,0,-nan,-nan,-nan,-nan,-nan,-nan,-nan,-nan,-nan,-nan,-nan,-nan
125,0,16,648182.375000,221779.562500,1321010.187500,67102.625000,8125.437500,659849.750000,18445.121594,5420.405496,60690.071073,1974.387179,462.960712,30217.947927
125,1,0,-nan,-nan,-nan,-nan,-nan,-nan,-nan,-nan,-nan,-nan,-nan,-nan
126,0,16,645554.312500,220791.062500,1340583.875000,66574.500000,8054.812500,669844.937500,13957.970182,4554.894517,122930.366642,1362.727917,546.091936,61362.007100
126,1,0,-nan,-nan,-nan,-nan,-nan,-nan,-nan,-nan,-nan,-nan,-nan,-nan
127,0,22,644867.772727,220954.454545,1298685.727273,66821.454545,7954.409091,648819.272727,11531.294723,3734.981961,55535.043151,1072.811927,464.321172,27800.584244
127,1,0,-nan,-nan,-nan,-nan,-nan,-nan,-nan,-nan,-nan,-nan,-nan,-nan
