0,-1,714693,248348,1353723,73739,7675,676322,2
0,-1,721285,250292,1419610,74514,7767,709123,0
0,-1,685532,237648,1251148,70815,7895,624943,0
0,-1,666803,229731,1287024,68591,7909,643100,0
0,-1,661392,229685,1319484,68609,7684,659255,0
0,-1,667464,231229,1345841,69359,9086,672111,0
0,-1,690327,234958,1261845,72012,9785,630388,0
0,-1,669978,231629,1262849,69259,8694,630907,0
0,-1,665541,230573,1273681,69070,8494,636205,0
0,-1,675227,232236,1326215,69866,9047,662359,0
0,-1,666403,230784,1309508,69151,9519,653858,0
0,-1,666847,230469,1368154,69055,9159,683166,0
0,-1,664958,230526,1224719,68958,8002,611927,0
0,-1,664820,230979,1308120,69169,7596,653611,0
0,-1,690660,235340,1358750,72333,8663,678931,0
0,-1,667369,230720,1350485,69032,9217,674374,0
0,-1,668294,230599,1270123,69018,8124,634297,0
0,-1,686699,235669,1314127,72464,9124,656590,0
0,-1,667124,231146,1250569,69184,7764,624672,0
0,-1,672156,232314,1359762,69609,8711,679026,0
0,-1,670596,231745,1469027,69264,9072,733564,0
0,-1,674578,232409,1329775,69389,8984,664458,0
0,-1,669887,231302,1365885,68998,8642,682476,0
0,-1,672189,233144,1336178,69885,8330,667275,0
0,-1,690936,235448,1395527,72217,10247,697226,0
0,-1,671165,232466,1313874,69740,8367,656033,0
0,-1,669614,230258,1160632,68844,8182,579786,0
0,-1,670304,230857,1191441,68917,8368,595313,0
0,-1,669132,231621,1241109,69081,7155,620215,0
0,-1,674343,232909,1212383,69830,7694,605452,0
0,-1,664340,229943,1389250,68683,7726,694161,0
0,-1,667484,230247,1266264,68681,8131,632726,0
0,-1,675060,232576,1438417,69645,8379,718325,0
0,-1,670815,230226,1332177,68712,8050,665606,0
0,-1,677077,232200,1271768,69464,7383,635285,0
0,-1,665864,232276,1229451,69144,8093,613825,0
0,-1,661585,230037,1386431,68296,7873,692636,0
0,-1,667672,232118,1257942,70063,8763,628072,0
0,-1,665791,230579,1287244,69298,7964,643231,0
0,-1,667219,230162,1326383,69208,8291,662752,0
0,-1,662532,230449,1293635,69288,8600,646332,0
0,-1,666521,230200,1390312,69132,8767,694723,0
0,-1,664043,229702,1171902,69031,8069,585517,0
0,-1,663920,230177,1411667,69044,8730,705208,0
0,-1,667925,230467,1314445,69269,8556,656683,0
0,-1,665705,229684,1231774,69011,7877,615239,0
0,-1,667471,232232,1261762,69910,9096,630044,0
0,-1,690996,235863,1469673,72893,10037,734180,0
0,-1,669069,231040,1302612,69487,7745,650781,0
0,-1,667085,230924,1364950,69416,8539,682053,0
0,-1,673391,232005,1399660,69596,8661,699366,0
0,-1,674621,232256,1372382,69957,9398,684891,0
0,-1,666048,230790,1291441,69340,8533,645193,0
0,-1,670461,230919,1221358,69137,7654,610334,0
0,-1,672885,232280,1215502,70048,7942,607108,0
0,-1,674177,233112,1264541,70265,8114,631589,0
0,-1,671677,230873,1287102,69237,9108,643168,0
0,-1,668376,230305,1309292,69280,9019,654020,0
0,-1,664742,230003,1346736,69241,8942,672820,0
0,-1,664991,230066,1358637,69246,7956,678715,0
1,-1,717705,248766,1472797,73782,8702,735327,2
1,-1,684436,237066,1237977,70462,8161,618483,0
1,-1,667867,229842,1330843,68601,8279,665076,0
1,-1,665268,230551,1253580,68952,7907,626294,0
1,-1,668916,230987,1348668,69054,8032,673899,0
1,-1,666367,230321,1253041,68806,8365,626174,0
1,-1,669355,231749,1432409,69454,9335,715220,0
1,-1,668578,230563,1344987,69060,8912,672028,0
1,-1,691840,235040,1290836,72315,9600,645046,0
1,-1,667247,231626,1469324,69608,9496,733877,0
1,-1,669399,232038,1278222,69791,8812,638179,0
1,-1,666075,230931,1263430,69077,8004,631270,0
1,-1,668769,232156,1309660,69707,7600,654107,0
1,-1,669544,231093,1389793,69155,7803,694367,0
1,-1,669898,230683,1241025,69000,8679,620031,0
1,-1,669333,231267,1292214,69166,8379,645642,0
1,-1,666169,230727,1313555,68959,8184,656214,0
1,-1,669793,230538,1296320,68967,8685,647608,0
1,-1,667995,231367,1266602,69121,7460,632802,0
1,-1,668054,231134,1442088,68986,8669,720119,0
1,-1,674695,232137,1440583,69369,9857,719780,0
1,-1,674779,233530,1326861,70003,8938,662419,0
1,-1,687906,235956,1340576,72344,9454,669490,0
1,-1,666618,230000,1390039,68590,9303,694176,0
1,-1,688264,235305,1292555,72210,8740,645841,0
1,-1,668418,230211,1302024,68888,7809,650598,0
1,-1,674925,233042,1324165,69871,8883,661286,0
1,-1,667694,230797,1333243,68761,7616,666181,0
1,-1,686912,234112,1218563,71789,8667,608763,0
1,-1,664330,230256,1221737,68696,7355,610519,0
1,-1,669290,230601,1286217,68834,8331,642612,0
1,-1,690544,235225,1379085,72138,8658,688998,0
1,-1,669585,230135,1410289,68647,8004,704748,0
1,-1,672386,230626,1312919,68779,7271,656023,0
1,-1,663794,230378,1295621,68240,7504,647279,0
1,-1,663685,229981,1310134,68228,8298,654626,0
1,-1,666924,230097,1230337,69111,8129,614759,0
1,-1,665720,230215,1398961,69207,8217,698952,0
1,-1,665751,229938,1304240,69043,7846,651498,0
1,-1,664998,230026,1215602,69203,7518,607321,0
1,-1,667791,231071,1376792,69453,8615,687913,0
1,-1,668850,231041,1229130,69667,7871,613783,0
1,-1,667300,230992,1256332,69364,8252,627588,0
1,-1,667249,230137,1367035,69141,8269,682965,0
1,-1,668518,230675,1316041,69339,8090,657531,0
1,-1,663083,230380,1376831,69156,9238,687619,0
1,-1,672332,232127,1320588,69856,8433,659716,0
1,-1,674132,231970,1297963,69882,8742,648422,0
1,-1,691438,236290,1392317,72998,9622,695631,0
1,-1,672925,231407,1345462,69391,8690,672142,0
1,-1,670660,230172,1355682,68985,9145,676915,0
1,-1,669394,232137,1225552,69858,8418,612057,0
1,-1,677449,232946,1403986,70194,8377,701119,0
1,-1,675118,231018,1332179,69498,8457,665645,0
1,-1,691202,236117,1390549,72813,9736,694893,0
1,-1,670363,230206,1145988,69040,7932,572585,0
1,-1,670828,230059,1312233,69191,8762,655690,0
1,-1,667104,231614,1497344,70031,9507,747662,0
1,-1,686646,234715,1364869,72624,9675,681759,0
2,-1,740262,253231,1337616,77062,9128,668314,0
2,-1,665705,230458,1295682,68735,7488,647322,2
2,-1,668605,229793,1275889,68592,7819,637520,0
2,-1,669500,230969,1258774,69162,8699,628496,0
2,-1,664257,230006,1258558,68790,7548,628766,0
2,-1,669912,230559,1308017,68959,8980,653473,0
2,-1,668229,230785,1358984,68986,8764,678993,0
2,-1,666754,229637,1266847,68741,8197,632524,0
2,-1,671106,230944,1311081,69204,8325,655002,0
2,-1,662540,230368,1359405,68950,8477,679065,0
2,-1,666828,230844,1294850,69164,8463,646897,0
2,-1,664257,230734,1353504,69036,7906,676263,0
2,-1,668422,231686,1284217,69335,7990,641549,0
2,-1,668739,230800,1291767,69040,7638,645439,0
2,-1,673938,232791,1267053,69830,9032,632647,0
2,-1,687286,235626,1330125,72448,8827,664491,0
2,-1,668264,231619,1444602,69510,8805,721410,0
2,-1,666994,230182,1331404,68835,8020,665202,0
2,-1,664973,230559,1327887,68806,7292,663459,0
2,-1,674724,233620,1382061,70141,8740,690011,0
2,-1,672722,231514,1281983,69477,8882,640104,0
2,-1,668818,231486,1364821,69084,8489,681892,0
2,-1,669641,231249,1277802,68984,7905,638354,0
2,-1,668584,230735,1473031,68905,9717,736061,0
2,-1,668289,231925,1258026,69504,8793,628119,0
2,-1,671437,231428,1381393,69430,8227,689892,0
2,-1,669598,231041,1312584,68983,8819,655828,0
2,-1,666448,230818,1297583,68754,7493,648394,0
2,-1,666906,230319,1241022,68761,7649,620094,0
2,-1,669624,230406,1298266,68777,7796,648592,0
2,-1,666494,229518,1339151,68419,8517,669062,0
2,-1,666797,229813,1229756,68568,7704,614432,0
2,-1,689952,235505,1358949,72244,8385,679006,0
2,-1,669097,229718,1323581,68442,7129,661372,0
2,-1,666494,231464,1224673,68805,7353,611644,0
2,-1,665334,230478,1227119,68450,7713,613066,0
2,-1,673393,231517,1310296,69802,9277,654327,0
2,-1,663821,229685,1332688,69007,8420,665874,0
2,-1,667980,230085,1366106,69121,8093,682681,0
2,-1,675594,231909,1222582,70009,8216,610537,0
2,-1,665513,230265,1353905,69146,7837,676507,0
2,-1,665870,230263,1322197,69233,8131,660459,0
2,-1,663859,229701,1306560,68915,9346,652913,0
2,-1,671784,232175,1243789,70037,8129,621084,0
2,-1,667432,230562,1326858,69342,8738,662804,0
2,-1,670797,228744,1325856,68640,8368,662437,0
2,-1,668041,231037,1315368,69516,8026,657283,0
2,-1,671807,231114,1280266,69583,8766,639693,0
2,-1,672165,232338,1298203,69905,7711,648636,0
2,-1,670767,231228,1327285,69300,8469,663498,0
2,-1,672355,231450,1441389,69490,9295,719480,0
2,-1,666495,230823,1382851,69359,9096,690853,0
2,-1,671882,232166,1274367,69956,7663,636285,0
2,-1,674005,230910,1254909,69408,8534,627039,0
2,-1,674961,232677,1261828,70055,7616,630182,0
2,-1,670168,230342,1303216,69084,8932,650667,0
2,-1,665234,229259,1338296,68947,9064,668563,0
2,-1,687932,235186,1408179,72767,9671,703358,0
2,-1,662699,229671,1267099,69113,8493,633183,0
3,-1,716140,248053,1270107,73547,8727,634548,0
3,-1,672942,232159,1322710,69627,8255,660469,0
3,-1,665538,230244,1314584,68801,8163,656775,2
3,-1,664829,230152,1489723,68731,8631,744127,0
3,-1,664622,230035,1313364,68681,8985,655966,0
3,-1,668792,230572,1254720,68954,7827,626886,0
3,-1,670884,232272,1344448,69693,8826,671400,0
3,-1,667790,230238,1357823,68972,8555,678151,0
3,-1,668203,229935,1318633,68859,8926,658829,0
3,-1,661245,230314,1358672,68961,9111,678688,0
3,-1,664323,230167,1241148,68922,8579,620096,0
3,-1,667312,231932,1317470,69423,7486,658195,0
3,-1,667943,231244,1317156,69112,7495,658229,0
3,-1,666702,230466,1191083,68988,7100,595111,0
3,-1,674456,233285,1442454,70118,8784,720819,0
3,-1,669771,231885,1368752,69419,8464,683818,0
3,-1,664350,230875,1382550,69039,8483,690821,0
3,-1,669616,231590,1350948,69284,7925,675030,0
3,-1,670193,232156,1372432,69653,8428,685344,0
3,-1,664728,229941,1258288,68634,8499,628643,0
3,-1,674048,232128,1363794,69472,8640,681368,0
3,-1,675533,233844,1402454,70028,8918,700084,0
3,-1,669549,231646,1337962,69184,8233,668331,0
3,-1,672987,232172,1469336,69544,9348,733698,0
3,-1,671763,231419,1416208,69161,8268,707475,0
3,-1,668018,230208,1200412,68851,7745,599691,0
3,-1,669635,230692,1290343,68777,8319,644780,0
3,-1,664383,230334,1207845,68555,7784,603505,0
3,-1,664412,229472,1218057,68389,7255,608606,0
3,-1,668324,229894,1241091,68631,8205,620134,0
3,-1,667285,230535,1344601,68816,8226,671842,0
3,-1,669851,231953,1269250,69440,7742,633929,0
3,-1,669069,229855,1311402,68557,8320,655230,0
3,-1,672175,230700,1256326,68797,7144,627671,0
3,-1,663004,230408,1334394,68301,7212,666733,0
3,-1,663621,230623,1280391,68351,8951,639435,0
3,-1,669012,230107,1330483,69113,9370,664827,0
3,-1,665062,230535,1270579,69250,8249,634824,0
3,-1,686157,234613,1321930,72465,8782,660589,0
3,-1,689864,234218,1383262,72282,8987,691129,0
3,-1,670131,232438,1271605,70183,8096,634954,0
3,-1,665873,230581,1288771,69356,7926,643921,0
3,-1,669708,232342,1232289,70047,9243,615490,0
3,-1,670410,229900,1277828,69068,7942,638408,0
3,-1,670014,230159,1236589,69174,8090,617833,0
3,-1,677293,231945,1275413,69832,9071,636637,0
3,-1,698834,242215,1299597,73213,7805,648935,0
3,-1,674793,232790,1251554,70387,8469,624787,0
3,-1,667730,231070,1296084,69460,7990,647544,0
3,-1,668668,230876,1333430,69279,8205,666231,0
3,-1,670780,231171,1407181,69368,8947,702727,0
3,-1,667480,230746,1333060,69322,8951,665892,0
3,-1,669276,230636,1226821,69275,6988,612838,0
3,-1,693651,235927,1300803,72884,8996,649866,0
3,-1,671979,232091,1369313,69702,8323,684222,0
3,-1,691866,235104,1376129,72392,9577,687287,0
3,-1,674458,231011,1247732,69428,8966,623184,0
3,-1,686683,235227,1528491,72703,10716,763807,0
3,-1,662676,229799,1238907,69227,8887,618792,0
4,-1,717960,248644,1334409,73809,9178,666877,0
4,-1,667255,230134,1289493,68742,7072,644183,0
4,-1,660383,230272,1206009,68765,7395,602515,2
4,-1,669028,231956,1348830,69669,8842,673768,0
4,-1,665771,230643,1224100,68962,8366,611437,0
4,-1,668675,230781,1390452,68980,9009,694795,0
4,-1,671317,232201,1304947,69435,8223,651827,0
4,-1,667476,230129,1332962,68909,8453,665871,0
4,-1,670419,231099,1281934,69239,8857,640333,0
4,-1,684543,235025,1271430,72337,9079,635231,0
4,-1,666598,231467,1291652,69563,8772,644938,0
4,-1,661135,229948,1246778,68696,7770,622956,0
4,-1,665887,230920,1330309,69063,7458,664722,0
4,-1,669744,231708,1309519,69511,7542,654080,0
4,-1,665103,230599,1250074,69015,8013,624495,0
4,-1,663628,230462,1292018,68990,7170,645410,0
4,-1,668808,231945,1324123,69426,8099,661348,0
4,-1,667111,230985,1455964,69117,9498,727476,0
4,-1,666059,230952,1241654,68964,7515,620459,0
4,-1,667250,231067,1337093,69008,8244,668001,0
4,-1,677980,233719,1381657,70282,9017,689812,0
4,-1,690391,236474,1313628,72492,9101,656441,0
4,-1,672651,232811,1340655,69723,9062,669345,0
4,-1,669283,231159,1489295,69064,8976,744114,0
4,-1,669232,230745,1300219,69092,7943,649580,0
4,-1,673717,232436,1311703,69762,8435,655115,0
4,-1,671764,232336,1261494,69572,8482,630063,0
4,-1,669481,231566,1312616,68987,8385,655911,0
4,-1,666235,230232,1264497,68729,7558,631760,0
4,-1,666924,229443,1283262,68406,7972,641228,0
4,-1,666707,230470,1248373,68753,7682,623810,0
4,-1,667269,229261,1353959,68318,8252,676541,0
4,-1,669742,230060,1220861,68634,7944,609844,0
4,-1,669418,230063,1387991,68482,7306,693442,0
4,-1,664282,230980,1446608,68431,8404,722715,0
4,-1,662410,230278,1231291,68189,8895,615185,0
4,-1,672198,231394,1264032,69760,8767,631091,0
4,-1,664391,229523,1340819,68921,8138,669936,0
4,-1,664166,229795,1209445,68983,7783,604120,0
4,-1,666637,228944,1328839,68846,8555,663902,0
4,-1,672258,231867,1265417,69922,8219,632035,0
4,-1,665558,230419,1431100,69276,8931,715064,0
4,-1,685797,234961,1387472,72514,10010,693113,0
4,-1,668713,230116,1374670,69159,8020,686855,0
4,-1,669058,229868,1403156,69072,8667,701173,0
4,-1,694021,235034,1380782,72480,10060,690184,0
4,-1,668766,231352,1251017,69699,7684,625027,0
4,-1,669491,231104,1179289,69593,8005,589055,0
4,-1,671736,232724,1241603,70215,7680,620158,0
4,-1,673649,232813,1352021,70112,8276,675146,0
4,-1,692538,236082,1489860,72780,10483,744452,0
4,-1,667001,230847,1337424,69318,8615,668194,0
4,-1,670962,231726,1322149,69605,7897,660528,0
4,-1,674747,231641,1183664,69680,7868,591383,0
4,-1,667269,230695,1229964,69181,8065,614479,0
4,-1,671669,230845,1123259,69342,7887,561172,0
4,-1,671970,230881,1558138,69329,10035,778890,0
4,-1,659970,229563,1327172,69091,8751,663122,0
4,-1,667848,232077,1387848,70118,9285,693208,0
5,-1,717771,249090,1307817,73969,7691,653010,0
5,-1,666085,229913,1345158,68642,7262,672186,0
5,-1,668295,232159,1341221,69744,8460,669699,2
5,-1,685559,234527,1344248,72006,9081,671399,0
5,-1,669090,231566,1390192,69412,8942,694376,0
5,-1,667410,230278,1377700,68862,8468,688224,0
5,-1,666391,230709,1394834,68908,8575,696826,0
5,-1,669712,231360,1351837,69327,8966,675151,0
5,-1,670560,231267,1453097,69377,9328,725783,0
5,-1,662039,230266,1312663,68988,8279,655661,0
5,-1,666291,230696,1405489,69120,7789,702219,0
5,-1,668468,230402,1338713,68981,8353,668937,0
5,-1,697110,242381,1383674,72883,8033,690934,0
5,-1,667212,230395,1323268,68920,7846,661220,0
5,-1,666367,230308,1386479,68862,8288,692780,0
5,-1,666478,231400,1430283,69212,7853,714790,0
5,-1,667464,232160,1350053,69673,8622,674172,0
5,-1,688687,234966,1357138,72188,8622,678089,0
5,-1,668242,230612,1473457,68976,9119,736248,0
5,-1,679134,233455,1374003,70045,8994,685970,0
5,-1,692892,235996,1405117,72582,9607,701862,0
5,-1,669819,231967,1351620,69266,8924,675341,0
5,-1,667164,231074,1247468,69001,8800,623240,0
5,-1,666646,230373,1465224,68754,9007,732194,0
5,-1,671725,232265,1338464,69779,8653,668420,0
5,-1,690178,235620,1273131,72354,8677,636120,0
5,-1,667515,230426,1226149,68782,8445,612557,0
5,-1,668139,231366,1327456,68902,8313,663326,0
5,-1,668449,230775,1289814,69104,7391,644254,0
5,-1,669145,230764,1306790,68906,7733,652937,0
5,-1,669642,230938,1343627,68946,8191,671289,0
5,-1,668484,230020,1264173,68649,7974,631586,0
5,-1,670489,231127,1369427,68999,7483,684243,0
5,-1,695442,235175,1438852,72053,8708,719005,0
5,-1,665019,230983,1372353,68481,8522,685433,0
5,-1,661438,230390,1379440,68282,8137,689559,0
5,-1,668580,230175,1222914,69157,8166,610961,0
5,-1,687926,234892,1384293,72527,8423,691660,0
5,-1,668624,230237,1244130,69194,8553,621450,0
5,-1,670161,230515,1220124,69246,7970,609551,0
5,-1,669559,231162,1249114,69511,8453,624088,0
5,-1,671038,232229,1336891,70169,8305,667502,0
5,-1,675283,231653,1235846,69853,8491,617126,0
5,-1,667878,229909,1309754,69088,8042,654389,0
5,-1,672985,232147,1263618,70164,8294,630916,0
5,-1,672120,230855,1275887,69275,9705,637442,0
5,-1,667787,231021,1385175,69567,7693,692102,0
5,-1,669374,231076,1224146,69593,8597,611519,0
5,-1,667402,231343,1369623,69589,8430,684119,0
5,-1,670408,230458,1323500,69233,8248,661166,0
5,-1,671707,231918,1369951,69630,9424,684236,0
5,-1,673490,233225,1204006,70410,8825,600974,0
5,-1,668982,230960,1322811,69326,8103,660635,0
5,-1,673539,231285,1265830,69517,7847,632482,0
5,-1,670545,231206,1330689,69398,8518,664941,0
5,-1,674959,232567,1335157,69979,8647,666938,0
5,-1,670645,229954,1364325,69017,10472,681637,0
5,-1,667453,230883,1371073,69567,8796,684703,0
5,-1,660864,229703,1309371,69178,8876,654217,0
5,-1,688497,235337,1338496,72728,8272,668750,0
6,-1,738630,253874,1417965,77291,8987,708190,0
6,-1,666341,230036,1283743,68807,7470,641427,0
6,-1,667804,231760,1353523,69505,8614,675993,0
6,-1,664721,230714,1397036,69037,8250,697979,2
6,-1,664134,230168,1340640,68812,8955,669854,0
6,-1,676714,233886,1471663,70379,9252,734960,0
6,-1,667792,230237,1305656,68740,8849,652282,0
6,-1,688586,234991,1352735,72294,9945,675945,0
6,-1,669066,230280,1340700,68970,8937,669909,0
6,-1,664654,231227,1304059,69181,8358,651865,0
6,-1,664716,230499,1302852,68980,8404,650943,0
6,-1,667356,230458,1237021,69019,7853,617984,0
6,-1,664092,230575,1332350,69020,8393,665671,0
6,-1,671965,232956,1335041,70003,7399,666799,0
6,-1,666088,230496,1272596,68900,8155,635909,0
6,-1,666136,231098,1402615,69197,8290,700888,0
6,-1,663901,230901,1345886,69078,8870,672418,0
6,-1,666144,230518,1281234,68951,7312,640140,0
6,-1,668472,231165,1370659,69181,8555,684805,0
6,-1,694366,236051,1317455,72448,9474,658180,0
6,-1,670297,231502,1355414,69313,8388,677141,0
6,-1,668580,231990,1335293,69256,8686,667070,0
6,-1,669440,231937,1295572,69214,9007,647290,0
6,-1,668914,231077,1299732,69020,8043,649426,0
6,-1,686697,234827,1307392,72123,8369,652700,0
6,-1,668033,230102,1293593,68805,8667,646344,0
6,-1,668595,231103,1255242,68960,8599,627144,0
6,-1,668343,231375,1214496,68925,7754,606653,0
6,-1,667520,230686,1212362,68866,7389,605623,0
6,-1,669136,230849,1302596,68871,7713,650766,0
6,-1,670027,231642,1305987,69337,7650,652332,0
6,-1,667870,229779,1371347,68535,8715,685223,0
6,-1,667856,230100,1349556,68629,7738,674412,0
6,-1,668593,229079,1444591,68336,8021,721804,0
6,-1,661345,230247,1329152,68265,8458,663840,0
6,-1,659743,230030,1388500,68127,8858,694239,0
6,-1,666875,229541,1360949,68893,8566,680068,0
6,-1,665640,230302,1338261,69219,8128,668627,0
6,-1,666960,230063,1176833,69174,8258,587902,0
6,-1,669895,230734,1304825,69339,8537,652009,0
6,-1,664588,229441,1357422,68863,8788,678288,0
6,-1,688939,234441,1378921,72328,8877,689029,0
6,-1,669140,229239,1339949,68894,8210,669539,0
6,-1,668943,230495,1339154,69323,8244,669018,0
6,-1,669693,230659,1310735,69331,7966,654981,0
6,-1,669140,229746,1260924,68887,9043,630059,0
6,-1,673544,231715,1312417,69674,8109,655725,0
6,-1,673314,232333,1238221,70155,8192,618487,0
6,-1,668332,231847,1340493,69708,8159,669696,0
6,-1,673146,231510,1317981,69425,8391,658492,0
6,-1,670058,230533,1421286,69166,9415,709682,0
6,-1,689051,235922,1291778,72800,9846,645299,0
6,-1,668292,230449,1205128,69190,7509,602040,0
6,-1,671502,231114,1347708,69518,8419,673353,0
6,-1,675621,233676,1294335,70483,8860,646341,0
6,-1,668075,230116,1335736,68991,7978,667453,0
6,-1,671709,230532,1458528,69271,10267,728562,0
6,-1,663735,229961,1341763,69269,8756,670362,0
6,-1,665375,229650,1284655,69117,7905,641838,0
6,-1,665653,230381,1216835,69293,7030,607873,0
7,-1,717053,248294,1306592,73724,7615,652652,0
7,-1,664428,229408,1213489,68372,7678,606322,0
7,-1,662134,229970,1277753,68736,8348,638436,0
7,-1,665985,230588,1468868,68939,8856,733927,0
7,-1,667590,232449,1397511,69799,9604,698252,2
7,-1,668908,230722,1338465,69039,8791,668697,0
7,-1,667650,230114,1344109,68707,9197,671499,0
7,-1,695184,239943,1361693,71818,8881,680489,0
7,-1,670034,230740,1375964,69076,9257,687145,0
7,-1,663194,230698,1222285,69123,8157,610677,0
7,-1,666823,231444,1223610,69362,7853,611209,0
7,-1,670268,231965,1355782,69632,7779,677059,0
7,-1,666622,230990,1283939,69099,7365,641504,0
7,-1,669660,231238,1250209,69164,7691,624591,0
7,-1,665004,230232,1348103,68819,8330,673429,0
7,-1,665959,230145,1295225,68904,7679,647206,0
7,-1,665154,230677,1229295,69014,7878,614054,0
7,-1,667437,230780,1292567,69089,7749,645739,0
7,-1,667359,230779,1332573,69006,9581,665413,0
7,-1,668955,230578,1555778,68847,10234,777334,0
7,-1,675001,232103,1295754,69499,8255,647034,0
7,-1,695608,241158,1288650,71972,7980,643741,0
7,-1,687855,235844,1289224,72340,9341,644223,0
7,-1,669010,231004,1375880,69058,8552,687478,0
7,-1,669609,231898,1338921,69595,8489,668760,0
7,-1,670231,231380,1316631,69310,8567,657566,0
7,-1,692163,235242,1217748,72158,9058,608414,0
7,-1,669345,232533,1306051,69558,8453,652294,0
7,-1,663385,229619,1304500,68439,7828,651838,0
7,-1,695338,240361,1257804,71913,7692,628226,0
7,-1,690375,235650,1469585,72280,8748,734369,0
7,-1,675977,233131,1293739,69847,7846,646058,0
7,-1,667538,230070,1253153,68624,7553,625930,0
7,-1,670685,230291,1275737,68628,7262,637459,0
7,-1,659431,229954,1313395,68120,8822,655139,0
7,-1,671485,232963,1291770,69346,8640,644794,0
7,-1,667009,230379,1354800,69260,9254,676913,0
7,-1,666827,230670,1245636,69286,7649,622340,0
7,-1,669526,231028,1234404,69441,8312,616687,0
7,-1,672655,232247,1236057,70112,7981,617233,0
7,-1,672568,232262,1243474,70036,8662,620496,0
7,-1,667603,230139,1294053,69154,7629,646550,0
7,-1,672059,230898,1371959,69491,8430,685469,0
7,-1,668171,230555,1218636,69246,7747,608850,0
7,-1,667470,230194,1315828,69233,7996,657533,0
7,-1,690663,234923,1302226,72440,10549,650578,0
7,-1,670343,230844,1377118,69425,7667,688108,0
7,-1,693017,235298,1471138,72790,9214,735049,0
7,-1,668476,231525,1305201,69618,8351,652177,0
7,-1,675954,233062,1238192,70281,7935,618231,0
7,-1,670512,231362,1327925,69473,10089,663261,0
7,-1,664493,229441,1301771,68918,9057,650294,0
7,-1,671328,230995,1348357,69352,8685,673594,0
7,-1,673741,231244,1341876,69516,8360,670492,0
7,-1,692980,236664,1331719,72981,9834,665263,0
7,-1,672714,230728,1293281,69195,8069,646278,0
7,-1,670549,230093,1366774,69080,10114,682938,0
7,-1,663895,230038,1273050,69251,8232,636011,0
7,-1,668930,230820,1199941,69541,7862,599265,0
7,-1,666361,229895,1313736,69100,7731,656260,0
8,-1,716288,248182,1441873,73627,8257,720631,0
8,-1,666253,230392,1298990,68774,7428,649015,0
8,-1,665512,230469,1329620,68869,8051,663992,0
8,-1,663575,230067,1381325,68745,8719,690047,0
8,-1,665875,231144,1227465,69193,8624,613326,2
8,-1,669510,231136,1297652,69128,8617,648110,0
8,-1,669346,231004,1344863,68974,9064,672003,0
8,-1,669857,232445,1348144,69829,8747,673222,0
8,-1,688530,235273,1357395,72394,10644,678322,0
8,-1,665357,231180,1345442,69461,8690,671713,0
8,-1,668088,231979,1328878,69691,8453,663502,0
8,-1,666791,230363,1228530,69023,7806,613770,0
8,-1,668816,232374,1348544,69764,8007,673474,0
8,-1,665962,230869,1205725,69040,7350,602340,0
8,-1,664715,231045,1339608,69055,8627,669379,0
8,-1,670896,232757,1377918,69938,8807,688171,0
8,-1,690864,235459,1255554,72340,8491,627216,0
8,-1,667286,230640,1416872,68927,8118,707946,0
8,-1,672633,232818,1383258,69905,9999,690668,0
8,-1,672123,232145,1333742,69557,8333,666053,0
8,-1,675575,233484,1361390,70178,8898,679600,0
8,-1,666921,231437,1350190,68962,8636,674510,0
8,-1,668293,231781,1345720,69220,9351,672410,0
8,-1,670556,231993,1370030,69526,8764,684183,0
8,-1,664454,230298,1209818,68916,7666,604452,0
8,-1,664979,230297,1321231,68841,8270,660091,0
8,-1,668937,230120,1178965,68632,8192,589088,0
8,-1,666710,231164,1322251,68866,8282,660730,0
8,-1,693760,235840,1280357,72344,8592,639743,0
8,-1,669808,230845,1202265,68919,8328,600525,0
8,-1,665696,230189,1397089,68654,7975,698014,0
8,-1,691009,235475,1408691,72211,8668,703882,0
8,-1,666886,229574,1298574,68469,7785,648877,0
8,-1,671506,230487,1324890,68789,7851,661965,0
8,-1,665624,231173,1357891,68548,8917,678450,0
8,-1,688126,235600,1470232,71762,9131,733861,0
8,-1,667254,230514,1387001,69292,9438,693061,0
8,-1,663443,229573,1359595,68987,8505,679354,0
8,-1,669652,231657,1204384,69851,7762,601389,0
8,-1,690844,234890,1394759,72540,9263,696691,0
8,-1,665613,230457,1256863,69257,7847,627927,0
8,-1,666249,229867,1234082,69032,7427,616510,0
8,-1,666319,229325,1330601,68885,8491,664640,0
8,-1,666407,230295,1313410,69254,7980,656068,0
8,-1,666534,230176,1381198,69201,8472,690072,0
8,-1,674069,230939,1248049,69294,9183,623057,0
8,-1,669636,231470,1330105,69681,7914,664533,0
8,-1,668504,230911,1333626,69496,7860,666250,0
8,-1,685701,234658,1404651,72448,9274,701861,0
8,-1,671554,231761,1236181,69603,7873,617501,0
8,-1,668782,230750,1340854,69244,9530,670246,0
8,-1,667289,231113,1291354,69454,8801,645125,0
8,-1,675163,233156,1283589,70305,8162,640813,0
8,-1,676359,232762,1285023,70301,8055,641736,0
8,-1,671408,231365,1196789,69448,7397,597915,0
8,-1,671555,230894,1252743,69301,7652,625904,0
8,-1,674390,232049,1380225,69990,9871,689352,0
8,-1,687278,235301,1416836,72769,9803,708008,0
8,-1,664849,230047,1196595,69249,8374,597794,0
8,-1,665620,230253,1308397,69249,7955,653591,0
9,-1,718846,249619,1433649,74224,9119,716096,0
9,-1,686468,234766,1357240,72042,8788,678218,0
9,-1,663823,230429,1273926,68923,7468,636360,0
9,-1,665147,230539,1318862,68905,9754,658848,0
9,-1,664883,230104,1303044,68863,9501,650922,2
9,-1,671957,231619,1278095,69281,8540,638402,0
9,-1,669202,231364,1241452,68995,8506,620225,0
9,-1,666835,230041,1393528,68828,8194,696074,0
9,-1,673722,231843,1402053,69651,10064,699829,0
9,-1,661731,230231,1268432,68976,8687,633646,0
9,-1,661935,230445,1322857,69062,7666,661097,0
9,-1,667380,230800,1253643,69140,8477,626723,0
9,-1,665349,231619,1347164,69504,8182,672845,0
9,-1,666668,230690,1179205,69008,7374,589153,0
9,-1,669635,230889,1337902,69061,8551,668243,0
9,-1,684808,234882,1305225,72147,8176,651884,0
9,-1,668191,230929,1300784,69091,8110,649849,0
9,-1,665493,230845,1235060,69077,7534,616962,0
9,-1,687958,235630,1420039,72256,10106,709508,0
9,-1,670800,231173,1329873,69079,8107,664541,0
9,-1,671550,232073,1453091,69445,9559,726108,0
9,-1,670614,232860,1278519,69588,8504,638759,0
9,-1,677216,232442,1327080,69636,8482,662811,0
9,-1,667472,231167,1242051,69065,8173,620497,0
9,-1,664812,230408,1301565,68816,8470,650216,0
9,-1,668937,231781,1279236,69535,8335,638933,0
9,-1,669013,230340,1238102,68709,7112,618468,0
9,-1,666163,230950,1240032,68760,7802,619553,0
9,-1,667859,230211,1356833,68758,8067,677908,0
9,-1,667564,230399,1240499,68730,7570,619803,0
9,-1,665182,229951,1243823,68597,7614,621472,0
9,-1,667857,229892,1300051,68525,8025,649548,0
9,-1,667135,230095,1309124,68681,7678,654156,0
9,-1,669139,230224,1335753,68642,7016,667418,0
9,-1,665762,232129,1411865,69084,9526,705681,0
9,-1,668529,232462,1239185,69159,7909,618938,0
9,-1,664149,229867,1291707,69031,8959,645422,0
9,-1,664826,230245,1380892,69191,8054,689929,0
9,-1,688444,235254,1349463,72634,9005,674072,0
9,-1,669021,229878,1273316,69074,7850,636246,0
9,-1,665027,230262,1363549,69181,8207,680688,0
9,-1,669812,231133,1311543,69495,7952,655310,0
9,-1,672356,231321,1297384,69541,7754,648198,0
9,-1,690668,238714,1408599,71746,8238,703781,0
9,-1,666431,230142,1337495,69161,7941,668174,0
9,-1,674292,231468,1304571,69655,9142,651218,0
9,-1,667467,231123,1227431,69477,7661,613145,0
9,-1,670121,231289,1327039,69677,7440,663036,0
9,-1,671221,230832,1381989,69387,8631,690539,0
9,-1,672140,231952,1350982,69604,8222,675073,0
9,-1,674633,232617,1367654,70048,9332,683079,0
9,-1,667820,231540,1257082,69594,8896,627926,0
9,-1,666350,230074,1250532,69114,7496,624692,0
9,-1,674343,231982,1307566,69817,7891,653234,0
9,-1,674587,231081,1243264,69311,7808,621223,0
9,-1,700625,240940,1357034,72490,8578,677884,0
9,-1,669148,230154,1464307,69133,10569,731644,0
9,-1,660577,229240,1440167,68980,8881,719604,0
9,-1,673099,232399,1338158,70282,8648,668063,0
9,-1,664491,229911,1266534,69120,7700,632778,0
10,-1,717567,249374,1437620,74056,8892,718345,0
10,-1,665253,229163,1310662,68289,7745,654895,0
10,-1,666674,231460,1414495,69437,8081,706166,0
10,-1,664348,230582,1359845,68927,8559,679698,0
10,-1,666606,230552,1360819,69016,8168,679979,2
10,-1,690275,235387,1383536,72337,8165,691600,0
10,-1,674528,233099,1357407,69859,9109,677634,0
10,-1,668181,230887,1472699,69179,9190,735781,0
10,-1,669005,230465,1272555,69047,9291,635520,0
10,-1,659051,229686,1375356,68712,8175,687142,0
10,-1,663447,230902,1365181,69144,8194,681960,0
10,-1,687493,235379,1307977,72446,8830,653392,0
10,-1,662834,230688,1261192,69036,7682,630117,0
10,-1,670155,232490,1235933,69856,7350,617265,0
10,-1,668684,230410,1235442,68900,8265,617119,0
10,-1,663693,230396,1333363,68911,7955,666250,0
10,-1,668086,230967,1280133,69102,8006,639632,0
10,-1,670583,232661,1277032,69932,8124,637501,0
10,-1,666444,230865,1285933,68952,7724,642457,0
10,-1,668497,230634,1218327,68906,8581,608522,0
10,-1,672821,232671,1339404,69734,8571,668878,0
10,-1,666990,231688,1379290,69134,9172,689144,0
10,-1,675540,233344,1508555,70021,9405,753723,0
10,-1,666736,230346,1367350,68791,9664,683124,0
10,-1,663589,230349,1199110,68913,7311,599003,0
10,-1,668422,230274,1387043,68821,9556,693025,0
10,-1,668679,230488,1300988,68836,8009,650096,0
10,-1,666761,231522,1321985,68989,8287,660400,0
10,-1,666134,230306,1284016,68687,7461,641392,0
10,-1,673120,232422,1226998,69665,7791,612774,0
10,-1,685631,235255,1326294,72156,8878,662433,0
10,-1,672203,232285,1319051,69546,7941,658820,0
10,-1,674715,231562,1294573,69313,8100,646529,0
10,-1,670967,230496,1328844,68747,7545,664067,0
10,-1,683054,234853,1444761,71519,10065,721379,0
10,-1,662594,230167,1453364,68258,9171,726057,0
10,-1,672893,232001,1306267,69923,8349,652442,0
10,-1,682939,234591,1383748,72334,9516,691457,0
10,-1,668893,230682,1289219,69335,7923,644077,0
10,-1,670792,230980,1374455,69413,8531,686786,0
10,-1,665038,230676,1290553,69295,8465,644733,0
10,-1,667262,230498,1170712,69268,7899,584799,0
10,-1,667857,229814,1394210,69057,8751,696741,0
10,-1,665211,230018,1298229,69129,8157,648670,0
10,-1,669113,230961,1405071,69474,8563,702077,0
10,-1,668581,229670,1314108,68836,9302,656831,0
10,-1,666913,230653,1236505,69290,8659,617693,0
10,-1,669362,230959,1371357,69514,7809,685187,0
10,-1,676487,232865,1373380,70331,9146,685862,0
10,-1,674054,232131,1341638,69723,7847,670229,0
10,-1,669232,230786,1370388,69247,8413,684539,0
10,-1,670985,230951,1328925,69340,7828,664016,0
10,-1,693817,239790,1447059,71922,8587,723112,0
10,-1,670520,230957,1328661,69443,7787,663719,0
10,-1,697678,235958,1362298,72761,9170,680453,0
10,-1,671371,231311,1373766,69434,9281,686370,0
10,-1,672738,230544,1347347,69276,9731,673713,0
10,-1,661981,229616,1356154,69090,8866,677095,0
10,-1,688280,234533,1462009,72582,9152,730547,0
10,-1,688013,235309,1407353,72711,8676,703189,0
11,-1,722447,248257,1371285,73638,9496,685145,0
11,-1,672286,231923,1294874,69437,8574,646705,0
11,-1,661194,229732,1342783,68730,7646,670494,0
11,-1,662839,229882,1305031,68738,8727,652125,0
11,-1,668650,230965,1389075,69141,7645,693970,0
11,-1,666274,230742,1301013,69099,8940,649929,2
11,-1,690272,235950,1270522,72343,9545,634781,0
11,-1,666629,230374,1268526,68967,8629,633927,0
11,-1,669177,230485,1531415,69001,9446,764726,0
11,-1,664164,230307,1350622,68998,8904,674794,0
11,-1,672563,232695,1425150,70056,8592,711333,0
11,-1,665888,231384,1435956,69482,9765,716965,0
11,-1,661364,230143,1374763,68762,8561,687027,0
11,-1,665003,230493,1288263,68979,7391,643597,0
11,-1,689189,235045,1349356,72237,8828,674094,0
11,-1,666306,232298,1446398,69797,9139,722486,0
11,-1,672644,232824,1391711,69858,8876,695033,0
11,-1,684812,234907,1236318,72237,8338,617560,0
11,-1,668860,232245,1363901,69657,7793,681226,0
11,-1,673086,232449,1353107,69484,8675,676051,0
11,-1,670833,232167,1283933,69482,8509,641391,0
11,-1,672101,232759,1258048,69689,9499,628252,0
11,-1,672935,231897,1355487,69347,9207,677242,0
11,-1,669824,231519,1255644,69247,8643,627363,0
11,-1,664586,230511,1327870,68906,8541,663445,0
11,-1,667487,229954,1396596,68703,9504,697824,0
11,-1,676011,233739,1314750,70109,7871,656558,0
11,-1,664394,230383,1237394,68569,7324,618273,0
11,-1,672184,232764,1313976,69789,8094,656060,0
11,-1,666261,230373,1229159,68780,7555,614159,0
11,-1,671724,230510,1261751,68836,7895,630448,0
11,-1,668177,230448,1301924,68797,7996,650444,0
11,-1,672249,231158,1313868,69019,8107,656471,0
11,-1,668540,229854,1326668,68586,7287,662838,0
11,-1,660415,230262,1303459,68210,8778,651228,0
11,-1,660245,229553,1442557,67979,9043,720331,0
11,-1,668133,230971,1319078,69416,8915,659070,0
11,-1,667245,230445,1323495,69185,8766,661146,0
11,-1,666021,230026,1240808,69087,7583,619936,0
11,-1,668954,230576,1327647,69358,7935,663375,0
11,-1,666166,230840,1361338,69430,9392,680179,0
11,-1,667712,230655,1366597,69300,8572,682886,0
11,-1,695144,236269,1428477,73501,9579,713598,0
11,-1,669062,231820,1244108,69926,8401,621246,0
11,-1,673979,232652,1214606,70261,7481,606432,0
11,-1,689378,234547,1455851,72308,9893,727545,0
11,-1,687650,234486,1262035,72429,9086,630643,0
11,-1,666692,230724,1217677,69450,7183,608285,0
11,-1,676508,232009,1247257,69816,8552,623098,0
11,-1,670961,231351,1294179,69466,7592,646296,0
11,-1,669261,231898,1382783,69795,9545,690209,0
11,-1,696080,235555,1388155,72701,9614,693578,0
11,-1,667461,230165,1256891,69104,7868,627949,0
11,-1,676080,232379,1262179,70111,8453,630375,0
11,-1,673173,230795,1241577,69209,8338,620266,0
11,-1,676010,233029,1390674,70231,8601,694505,0
11,-1,675552,231951,1431759,69882,10174,714606,0
11,-1,664699,231082,1375463,69783,9314,686915,0
11,-1,662897,228653,1307684,68847,8269,653501,0
11,-1,664994,229817,1334102,69068,8318,666576,0
12,-1,728482,251008,1430733,74789,9784,714724,0
12,-1,666183,230032,1243715,68695,8240,621455,0
12,-1,662074,229992,1242613,68766,8026,620881,0
12,-1,683865,234981,1341168,72192,9449,670034,0
12,-1,669976,231372,1254406,69225,8191,626582,0
12,-1,676392,233775,1263575,70113,8899,630907,2
12,-1,670914,230814,1256379,68848,8729,627619,0
12,-1,686915,235076,1297084,72323,9283,647942,0
12,-1,668230,230293,1419135,68938,8740,709029,0
12,-1,661434,230216,1240864,68881,8458,619965,0
12,-1,686020,234715,1308791,72228,9054,653851,0
12,-1,668174,230965,1302474,69193,9132,650875,0
12,-1,666254,232794,1265418,69955,8040,631904,0
12,-1,668185,230854,1316535,69102,7769,657784,0
12,-1,668811,231038,1363463,69153,8816,681241,0
12,-1,686031,235390,1335843,72351,9416,667415,0
12,-1,666474,230989,1269655,69117,7803,634287,0
12,-1,665054,231091,1354597,69182,8512,676666,0
12,-1,664106,230459,1427892,68892,7543,713660,0
12,-1,669029,230379,1250000,68799,7625,624491,0
12,-1,670874,231454,1257446,69277,8185,628162,0
12,-1,667926,232069,1254783,69240,9156,626973,0
12,-1,671044,231196,1247031,69116,8280,623091,0
12,-1,668438,231106,1366571,69037,9234,682406,0
12,-1,686080,234705,1289772,72142,8895,644430,0
12,-1,668111,230631,1376952,68885,9204,688215,0
12,-1,695593,239470,1262741,71423,8488,630803,0
12,-1,673979,230636,1226204,68631,7710,612649,0
12,-1,663142,229683,1294694,68500,7393,646860,0
12,-1,666861,230198,1194420,68664,7694,596766,0
12,-1,692175,235202,1255392,72151,8998,627170,0
12,-1,668995,229889,1369246,68552,8302,683993,0
12,-1,668603,230105,1309322,68649,7859,654251,0
12,-1,689913,234837,1372718,72022,8042,685829,0
12,-1,663005,231596,1327873,68837,8932,663132,0
12,-1,668649,232774,1280051,69336,7868,639130,0
12,-1,670777,231629,1223503,69838,7871,611006,0
12,-1,672577,232812,1275829,70236,7274,637239,0
12,-1,662944,229795,1295751,69010,8211,647286,0
12,-1,668578,230940,1306798,69459,7817,652919,0
12,-1,668165,231902,1316006,69917,9182,656677,0
12,-1,666031,230418,1369163,69293,8289,683870,0
12,-1,670321,230450,1255540,69280,7960,627122,0
12,-1,685560,234549,1401573,72442,10012,700434,0
12,-1,686685,234193,1373059,72293,8960,686147,0
12,-1,669360,230006,1422540,69012,8665,710806,0
12,-1,667335,230586,1224147,69427,8447,611593,0
12,-1,673040,232254,1264473,70210,8030,631293,0
12,-1,672277,231139,1361453,69537,8494,680283,0
12,-1,667629,231020,1356158,69361,8284,677601,0
12,-1,672652,231447,1392468,69485,9563,695456,0
12,-1,674979,231487,1277064,69566,8166,637654,0
12,-1,666926,230368,1318393,69172,8115,658800,0
12,-1,671340,231179,1344472,69571,8621,671737,0
12,-1,671303,230393,1261419,69131,8744,630326,0
12,-1,670188,230768,1334633,69221,8496,666829,0
12,-1,670361,230049,1357573,69012,9569,677705,0
12,-1,665236,230478,1264876,69420,8704,632012,0
12,-1,665992,230315,1217872,69374,8018,608361,0
12,-1,664083,230104,1247747,69228,8546,623321,0
13,-1,743710,253581,1471798,77184,10057,735388,0
13,-1,664758,230004,1164672,68674,7744,581853,0
13,-1,661290,230084,1343096,68786,8813,671113,0
13,-1,670191,230557,1260669,68946,8371,629637,0
13,-1,671775,232066,1353993,69619,8815,676504,0
13,-1,664397,230932,1278065,68997,8361,638327,2
13,-1,671472,231987,1293489,69379,9819,645995,0
13,-1,664711,229819,1328011,68790,8617,663516,0
13,-1,688288,234663,1255427,72244,10055,627113,0
13,-1,663105,230496,1330629,69008,8563,664890,0
13,-1,664667,230784,1242617,69089,7461,620768,0
13,-1,665164,230269,1305886,68948,8488,652743,0
13,-1,684861,235770,1248869,72472,8350,623924,0
13,-1,666161,230459,1294879,68934,8060,646988,0
13,-1,668042,230951,1296096,69108,7619,647684,0
13,-1,664733,230277,1321036,68878,7797,660166,0
13,-1,668000,230887,1385768,69018,8421,692333,0
13,-1,669308,231022,1267703,69143,8263,633285,0
13,-1,665429,231391,1473722,69245,8728,736273,0
13,-1,671718,231669,1337127,69230,7476,668101,0
13,-1,674270,231220,1368302,69172,8848,683495,0
13,-1,668573,231771,1258864,69145,8982,629050,0
13,-1,670139,231312,1332338,69148,9030,665672,0
13,-1,688727,235791,1256998,72408,9373,628034,0
13,-1,666046,230400,1226880,68905,7468,613128,0
13,-1,668976,231240,1455075,69097,9105,726967,0
13,-1,667823,230329,1352622,68789,8265,675782,0
13,-1,676322,232397,1249643,69427,8341,624123,0
13,-1,664615,230293,1203154,68701,7433,601148,0
13,-1,666850,230268,1241436,68747,7991,620202,0
13,-1,671356,231348,1266143,69088,8535,632594,0
13,-1,672250,231942,1283251,69460,8158,640805,0
13,-1,669595,230356,1220914,68768,7581,609973,0
13,-1,668372,230386,1306316,68721,7188,652666,0
13,-1,665685,231044,1269241,68472,8494,634181,0
13,-1,681441,234590,1355966,71476,9086,677408,0
13,-1,667235,230414,1322781,69191,8117,660880,0
13,-1,685936,234632,1362267,72411,8939,680584,0
13,-1,668252,230724,1349334,69328,8501,674315,0
13,-1,669571,230040,1273239,69156,8810,636188,0
13,-1,669452,230511,1294426,69342,8854,645925,0
13,-1,666180,230817,1242495,69392,7776,620760,0
13,-1,666518,229308,1384476,68862,8517,691820,0
13,-1,671307,230396,1280986,69279,8899,639968,0
13,-1,667319,230175,1223261,69224,7241,611232,0
13,-1,694519,235432,1457796,72574,10053,728284,0
13,-1,666362,230319,1223550,69372,8261,611155,0
13,-1,669965,231082,1227564,69632,8075,613324,0
13,-1,671430,231207,1408547,69507,8632,703817,0
13,-1,678076,234019,1260444,70689,8583,629261,0
13,-1,674419,232851,1260916,70208,8769,629653,0
13,-1,676182,231783,1385553,69661,9101,692175,0
13,-1,670842,232408,1249336,70128,8242,623760,0
13,-1,668320,230694,1292402,69222,7825,645577,0
13,-1,674694,231603,1203067,69537,7653,601105,0
13,-1,672565,232045,1339697,69834,8322,669190,0
13,-1,667079,229768,1350700,68894,9989,674819,0
13,-1,662805,230019,1234467,69210,8872,616690,0
13,-1,671149,232305,1364774,70171,8370,681533,0
13,-1,668113,231931,1352082,69962,9106,675177,0
14,-1,721860,248628,1325422,73720,8796,662033,0
14,-1,665837,229920,1176037,68607,7180,587613,0
14,-1,666324,231675,1476866,69588,9652,737420,0
14,-1,673717,232366,1261133,69677,8843,629680,0
14,-1,667763,230820,1252768,69055,7747,625953,0
14,-1,669079,230970,1216216,68958,8981,607760,0
14,-1,665140,230787,1226563,68960,7917,612745,2
14,-1,666540,230745,1250089,69103,8556,624544,0
14,-1,670531,231140,1326996,69283,9638,662786,0
14,-1,665685,231528,1312025,69372,8155,655575,0
14,-1,666146,231717,1335225,69614,8195,666754,0
14,-1,669264,232476,1493394,69914,8807,745038,0
14,-1,669170,230547,1258023,68914,8531,628558,0
14,-1,668846,231312,1325154,69244,7879,662172,0
14,-1,667710,230805,1331910,69081,8335,665287,0
14,-1,666564,231181,1340864,69192,8616,669878,0
14,-1,671096,232426,1344669,69847,8745,671331,0
14,-1,670051,231355,1395480,69165,8707,697351,0
14,-1,671573,232747,1352946,69983,8318,675620,0
14,-1,673120,232569,1530359,69700,8478,764218,0
14,-1,677765,233080,1373117,70078,8581,685817,0
14,-1,670622,233063,1332022,69778,9437,665369,0
14,-1,669621,231627,1264847,69251,8308,631818,0
14,-1,664397,230323,1243812,68778,9197,621330,0
14,-1,665512,230871,1324531,69027,7827,661493,0
14,-1,668359,231316,1354821,69125,9873,676926,0
14,-1,689059,235349,1260390,72260,8555,629623,0
14,-1,674074,231833,1189012,69074,8189,594034,0
14,-1,667604,230171,1303407,68715,8583,651198,0
14,-1,670128,231621,1309433,69331,8386,654084,0
14,-1,672426,230863,1244553,68914,8077,621779,0
14,-1,689116,235178,1383217,72090,8559,691208,0
14,-1,673903,232780,1298428,69789,7683,648289,0
14,-1,666960,229845,1347689,68551,7439,673412,0
14,-1,666264,231330,1254191,68773,8438,625995,0
14,-1,665052,230415,1191936,68247,7795,595498,0
14,-1,665984,230322,1211303,69223,8045,605136,0
14,-1,669062,231080,1346082,69460,8344,672602,0
14,-1,663998,229921,1240449,69031,8001,619762,0
14,-1,672536,231184,1217117,69696,8544,607911,0
14,-1,672576,232319,1245380,70147,8232,621929,0
14,-1,664554,230403,1364808,69243,8345,682026,0
14,-1,691422,234901,1478869,72520,9528,739074,0
14,-1,671429,231244,1277337,69717,8364,637992,0
14,-1,666548,230262,1293071,69197,7745,646006,0
14,-1,672988,232008,1349328,69822,8715,673694,0
14,-1,664397,229424,1273028,68942,8053,636055,0
14,-1,674719,233218,1248487,70573,8099,623332,0
14,-1,672486,231689,1306293,69700,7913,652609,0
14,-1,668840,230855,1221585,69283,7834,610266,0
14,-1,670422,231261,1397025,69389,8725,697870,0
14,-1,672747,230814,1237577,69303,8412,618302,0
14,-1,689616,235929,1386239,72811,9408,692583,0
14,-1,674448,233480,1264283,70377,8266,631194,0
14,-1,675441,232234,1208378,69931,7465,603623,0
14,-1,671383,231426,1317805,69468,8141,658344,0
14,-1,674994,232176,1470061,70006,10629,733999,0
14,-1,661012,229817,1236734,69216,8766,617788,0
14,-1,662829,229364,1337687,69020,7811,668114,0
14,-1,669920,230644,1325269,69392,7982,662006,0
15,-1,721483,248836,1531890,73785,9049,765421,0
15,-1,672500,232850,1235158,69788,7801,616768,0
15,-1,686930,234800,1398751,72108,8892,698796,0
15,-1,666038,229514,1175794,68560,7594,587301,0
15,-1,666448,230761,1312169,68931,8025,655572,0
15,-1,673585,233114,1433743,69940,9545,715929,0
15,-1,663476,230577,1364264,69066,8278,681407,2
15,-1,664246,230323,1299691,68914,8377,649135,0
15,-1,667349,230359,1352676,68971,8871,675867,0
15,-1,689173,239630,1364199,71726,8407,681471,0
15,-1,666272,230974,1262134,69229,8403,630562,0
15,-1,665288,230649,1488648,69101,9276,743601,0
15,-1,672375,231868,1304076,69591,8710,651412,0
15,-1,666375,230742,1285935,68994,7578,642581,0
15,-1,669298,231342,1376998,69222,8611,688122,0
15,-1,664026,230753,1268969,69054,7507,634165,0
15,-1,687991,235364,1269748,72369,9408,634254,0
15,-1,667464,230728,1305652,69031,8279,652266,0
15,-1,666073,230841,1272332,69109,8093,635704,0
15,-1,670082,231206,1535650,69118,10067,767249,0
15,-1,675193,232147,1339991,69492,8286,669389,0
15,-1,687076,235954,1278013,72325,9432,638606,0
15,-1,670989,232076,1341547,69318,8995,670339,0
15,-1,672434,231007,1286524,69065,9335,642638,0
15,-1,665801,230598,1219455,69005,8003,609180,0
15,-1,667450,230949,1424911,68939,9929,712049,0
15,-1,669413,231643,1321844,69239,8122,660470,0
15,-1,671900,231250,1234483,68918,8209,616677,0
15,-1,666743,230294,1409975,68697,7938,704604,0
15,-1,664440,229799,1310033,68499,7834,654615,0
15,-1,669630,230153,1221396,68662,7933,610298,0
15,-1,668616,230699,1297448,68865,7783,648295,0
15,-1,668088,230204,1334587,68668,7539,666880,0
15,-1,675737,231897,1239311,69418,8430,619004,0
15,-1,685729,235436,1372346,71715,9295,685392,0
15,-1,666607,232032,1226572,68875,8013,612626,0
15,-1,669382,232097,1241667,70050,8649,619999,0
15,-1,665134,230073,1324615,69122,8248,661858,0
15,-1,664979,230374,1326983,69275,7382,663072,0
15,-1,666460,229180,1237145,68790,8081,618124,0
15,-1,688231,234883,1435283,72518,9884,717228,0
15,-1,684952,234385,1404175,72386,9600,701723,0
15,-1,669171,230364,1260691,69194,7556,629954,0
15,-1,670168,230392,1342093,69296,9245,670559,0
15,-1,672183,231761,1236643,69891,7851,617584,0
15,-1,670364,230415,1272519,69246,9048,635490,0
15,-1,667790,231614,1231602,69885,8073,615055,0
15,-1,668010,231081,1315203,69608,8329,657136,0
15,-1,670983,231451,1283463,69654,8725,641094,0
15,-1,672533,232108,1317273,69711,8818,658234,0
15,-1,673731,232869,1340687,70051,8889,669983,0
15,-1,675920,232794,1237751,70237,8225,618078,0
15,-1,669902,231347,1231484,69504,7894,615191,0
15,-1,674008,231791,1252766,69593,7723,625629,0
15,-1,673407,230859,1187002,69262,7712,593061,0
15,-1,666302,230049,1249285,68987,7869,624210,0
15,-1,692806,235663,1482104,72677,10651,740608,0
15,-1,665781,231526,1411887,69902,9190,705212,0
15,-1,667687,229719,1427998,69148,8231,713549,0
15,-1,667123,229357,1227438,68874,7937,612927,0
16,-1,723000,249430,1379778,74064,9186,688956,0
16,-1,665103,230204,1165855,68759,7320,582458,0
16,-1,663140,229880,1463411,68661,9207,731328,0
16,-1,665916,229958,1258372,68747,8808,628585,0
16,-1,666067,230692,1241842,68869,7622,620273,0
16,-1,669753,230942,1339882,68886,9063,669445,0
16,-1,677078,232965,1501838,69963,9679,749487,0
16,-1,673431,232260,1358615,69879,8180,678358,2
16,-1,669952,230631,1266769,69098,9679,632552,0
16,-1,662723,231148,1332414,69272,8984,665715,0
16,-1,661731,229821,1222023,68803,7237,610450,0
16,-1,664626,230610,1422758,69059,8294,710341,0
16,-1,667890,230737,1268027,69069,8126,633503,0
16,-1,671417,233051,1319496,70091,7961,658981,0
16,-1,666060,230297,1317804,68909,7580,658481,0
16,-1,664830,231089,1220734,69156,7675,609711,0
16,-1,667129,231347,1320632,69195,7638,659855,0
16,-1,673460,232564,1506681,69799,10065,752459,0
16,-1,663818,230362,1346712,68902,8277,672886,0
16,-1,669387,230665,1315194,68887,8298,657126,0
16,-1,673791,231928,1275339,69418,7685,637258,0
16,-1,667607,232168,1378368,69303,9431,688480,0
16,-1,672490,231566,1251428,69144,8419,624999,0
16,-1,667155,229963,1256408,68757,8640,627472,0
16,-1,666391,231022,1352460,69112,8701,675804,0
16,-1,668795,230517,1347849,68801,10470,673353,0
16,-1,666838,230732,1243318,68908,7919,621234,0
16,-1,670505,230735,1337865,68713,8396,668475,0
16,-1,662330,229650,1290881,68450,7364,645057,0
16,-1,666006,230657,1213088,68880,7594,606067,0
16,-1,669669,230226,1241284,68669,8197,620158,0
16,-1,671287,231936,1221238,69451,8100,609949,0
16,-1,666400,230105,1325356,68662,7739,662284,0
16,-1,669762,229678,1333040,68494,7824,666118,0
16,-1,663733,230537,1322839,68332,7922,660965,0
16,-1,662768,230490,1316388,68335,7916,657687,0
16,-1,685493,234707,1394903,72447,9208,696936,0
16,-1,666685,230389,1319394,69245,8382,659328,0
16,-1,662380,229587,1437781,69008,8230,718143,0
16,-1,670674,231127,1186984,69513,8183,592976,0
16,-1,670155,231268,1453834,69545,8331,725709,0
16,-1,664601,230607,1439350,69336,9223,718910,0
16,-1,666955,229839,1254023,69052,7607,626555,0
16,-1,670171,230331,1430142,69224,8707,714618,0
16,-1,667420,230667,1334041,69326,8761,666460,0
16,-1,669421,230063,1345890,69171,8789,672183,0
16,-1,683956,234622,1357576,72441,8833,678292,0
16,-1,669110,231054,1395410,69643,7889,697241,0
16,-1,672445,231474,1376392,69620,9049,687454,0
16,-1,671048,232105,1199021,69926,8497,598620,0
16,-1,671880,231886,1432411,69562,9330,715528,0
16,-1,675141,232015,1292682,69893,8028,645623,0
16,-1,672555,231506,1261066,69568,9051,629968,0
16,-1,673608,231574,1395271,69480,8596,697159,0
16,-1,673980,230953,1245137,69383,8175,622012,0
16,-1,674289,232899,1250571,70238,8530,624664,0
16,-1,667951,229958,1433194,68996,9991,715758,0
16,-1,662981,230427,1335115,69358,7603,667048,0
16,-1,670176,231708,1316541,69932,7916,657488,0
16,-1,666530,229480,1303606,68977,8007,651427,0
17,-1,719070,248415,1328466,73755,8193,663807,0
17,-1,665416,230296,1229136,68742,7260,614159,0
17,-1,665880,230769,1362787,69020,8842,680898,0
17,-1,665312,230053,1180842,68775,7657,589871,0
17,-1,673387,232252,1358050,69685,8827,678132,0
17,-1,668963,231208,1373050,69088,8373,686100,0
17,-1,670086,231152,1222070,69222,8090,610514,0
17,-1,667589,230115,1399034,68877,10019,698994,0
17,-1,667418,231014,1338446,69234,9514,668208,2
17,-1,659272,229863,1335580,68758,8727,667356,0
17,-1,665592,231753,1325992,69649,8010,662085,0
17,-1,664511,230850,1307024,69143,8830,652854,0
17,-1,666696,230662,1345855,68987,8127,672453,0
17,-1,686113,234795,1244864,72120,8494,621911,0
17,-1,665986,230845,1197193,69027,7669,597984,0
17,-1,663281,230905,1326328,69078,8108,662547,0
17,-1,670808,232519,1380740,69779,8249,689623,0
17,-1,688893,235307,1306788,72309,8889,652832,0
17,-1,662753,229991,1372787,68780,7743,685899,0
17,-1,671661,231982,1354790,69617,9011,676675,0
17,-1,675170,233695,1340462,70156,8208,669445,0
17,-1,665828,231627,1338515,69094,9334,668465,0
17,-1,671236,231434,1332725,69117,8364,665893,0
17,-1,674377,232669,1349630,69840,9093,673933,0
17,-1,667315,232193,1325540,69754,8800,661807,0
17,-1,674037,232934,1415739,69869,9940,707052,0
17,-1,674061,231961,1327164,69543,8291,662933,0
17,-1,673047,231268,1324500,68929,8343,661782,0
17,-1,671608,232649,1295871,69752,7792,647115,0
17,-1,667443,231094,1306753,69195,7308,652691,0
17,-1,670960,231375,1193090,69343,8320,595811,0
17,-1,667008,230423,1362114,68755,7839,680585,0
17,-1,669040,230044,1249141,68654,7727,624072,0
17,-1,669811,230292,1293073,68741,7525,646053,0
17,-1,665109,231430,1343559,68626,7492,671225,0
17,-1,661339,230453,1233638,68342,7633,616324,0
17,-1,668023,230247,1354102,69203,8844,676173,0
17,-1,671668,233110,1361538,70442,8563,679968,0
17,-1,666115,230788,1537634,69466,9758,768000,0
17,-1,666848,229597,1240090,68988,8355,619675,0
17,-1,663781,230283,1376559,69177,8819,687924,0
17,-1,665802,231533,1249752,69808,8678,624098,0
17,-1,666968,229701,1246385,69072,8169,622710,0
17,-1,688837,235054,1379258,72597,9749,689115,0
17,-1,664393,229715,1285666,69047,9084,642303,0
17,-1,674421,232337,1499064,70126,8828,748363,0
17,-1,662207,230176,1213412,69177,7269,606232,0
17,-1,675982,231798,1256280,69838,7719,627819,0
17,-1,672526,231882,1377856,69762,9296,688128,0
17,-1,666273,230536,1401089,69131,8702,700129,0
17,-1,670866,231940,1353451,69547,8722,675944,0
17,-1,670372,230466,1312711,69253,7620,655766,0
17,-1,676131,233056,1204476,70297,8384,601218,0
17,-1,671156,231596,1235554,69578,7743,617315,0
17,-1,678336,232971,1272766,70313,8868,635621,0
17,-1,670078,231780,1255589,69562,8275,627294,0
17,-1,672155,231472,1386440,69557,8937,692534,0
17,-1,671789,229994,1269880,69271,8383,634489,0
17,-1,666562,230067,1343407,69315,8489,671243,0
17,-1,689323,234976,1448866,72571,9068,724026,0
18,-1,726644,251870,1487592,75145,9252,742074,0
18,-1,666318,230552,1187258,68884,7539,593169,0
18,-1,666644,231543,1484094,69414,9199,741150,0
18,-1,665860,230163,1281025,68762,8607,639907,0
18,-1,665926,230422,1312898,68961,7692,655856,0
18,-1,667769,230842,1428417,68931,8953,713824,0
18,-1,671847,231488,1357438,69487,8613,677741,0
18,-1,670619,231837,1533813,69731,9776,765050,0
18,-1,667675,230341,1333394,69020,9190,666070,2
18,-1,661368,229973,1336145,68842,8375,667405,0
18,-1,683102,234854,1406412,72290,8955,702431,0
18,-1,666177,230302,1384666,68947,8301,691925,0
18,-1,671158,231642,1371743,69320,8023,685462,0
18,-1,664883,230282,1293488,68922,7385,646202,0
18,-1,667713,231108,1288470,69136,8445,643790,0
18,-1,662337,230484,1244033,68911,8698,621511,0
18,-1,666504,230897,1366295,69055,7892,682620,0
18,-1,668091,230833,1296517,69031,7929,647571,0
18,-1,668281,232747,1500782,69967,9027,749453,0
18,-1,673311,232980,1366161,69931,8840,682248,0
18,-1,671152,231253,1241119,69087,8189,620073,0
18,-1,671728,232948,1332125,69735,9275,665142,0
18,-1,670031,232017,1248754,69317,7714,623910,0
18,-1,668431,230782,1453866,68979,9742,725641,0
18,-1,684937,235315,1265396,72323,8580,632317,0
18,-1,689173,235654,1436019,72258,10774,716863,0
18,-1,670088,230987,1317970,68995,8513,658403,0
18,-1,670000,230441,1203105,68627,7390,601163,0
18,-1,666006,231215,1293523,69031,7627,646324,0
18,-1,669143,230924,1291455,68950,7688,645218,0
18,-1,670932,230869,1233678,68947,8378,616374,0
18,-1,665130,229977,1251089,68674,7760,625029,0
18,-1,689141,234819,1332719,72002,8608,665878,0
18,-1,691293,234890,1398548,72031,8554,698839,0
18,-1,684455,235033,1350807,71585,8268,674971,0
18,-1,667204,232624,1233100,69231,7946,615723,0
18,-1,664830,229476,1208580,68851,8491,603832,0
18,-1,685167,234417,1371509,72334,9109,685293,0
18,-1,670551,230421,1301130,69286,8086,650114,0
18,-1,688587,234225,1277581,72345,8729,638385,0
18,-1,672494,232445,1324400,70164,8905,660945,0
18,-1,671230,230857,1220243,69455,8294,609650,0
18,-1,667210,230089,1422688,69194,8272,710681,0
18,-1,670113,231138,1257689,69693,8442,628118,0
18,-1,691154,235000,1289771,72588,9393,644128,0
18,-1,669941,230986,1341396,69472,8756,669782,0
18,-1,665072,229665,1306086,68847,8245,652525,0
18,-1,675201,231799,1330078,69871,8472,664478,0
18,-1,671344,231355,1406164,69540,8827,702653,0
18,-1,672922,231382,1335295,69607,8690,667135,0
18,-1,672630,232059,1230827,69637,7623,614952,0
18,-1,670204,230653,1445794,69239,8090,722360,0
18,-1,691626,235411,1311041,72634,10124,654988,0
18,-1,673442,231782,1385191,69658,8515,692100,0
18,-1,672370,231076,1278475,69493,8312,638727,0
18,-1,672731,231111,1242453,69366,8143,620716,0
18,-1,671084,230365,1429190,69193,8763,714108,0
18,-1,676020,232013,1388146,70087,8923,692983,0
18,-1,663811,229776,1311191,69193,8069,655073,0
18,-1,667564,229998,1333773,69050,8009,666346,0
19,-1,722212,249030,1287304,73965,9121,643184,0
19,-1,670223,231441,1238182,69343,7803,618366,0
19,-1,661807,230089,1208188,68769,6460,603726,0
19,-1,666416,230235,1313354,68853,8430,656208,0
19,-1,670066,232292,1347493,69758,8441,672733,0
19,-1,664558,230401,1293681,68803,8558,646278,0
19,-1,667721,229988,1286027,68738,7850,642595,0
19,-1,668182,230570,1350086,69077,9454,674505,0
19,-1,666664,232358,1288497,69892,8797,643366,0
19,-1,661421,230601,1217165,69110,7972,608038,2
19,-1,663633,230731,1431566,69141,8349,715316,0
19,-1,666150,230813,1524109,69148,8544,761158,0
19,-1,672019,232664,1468455,69863,8096,733413,0
19,-1,666990,231130,1274975,69133,6948,637081,0
19,-1,666900,231027,1216517,69159,7177,607784,0
19,-1,672798,230751,1335750,69015,8714,667405,0
19,-1,668274,231169,1444035,69139,8123,721486,0
19,-1,668532,231579,1299902,69292,7650,649256,0
19,-1,669667,230553,1338220,68943,8320,668543,0
19,-1,669887,231151,1359195,69147,9331,678578,0
19,-1,669661,231093,1351332,69048,8923,674945,0
19,-1,667167,231585,1248081,69056,8597,623534,0
19,-1,669892,231267,1319473,69056,8902,659216,0
19,-1,669536,231227,1252631,69071,8406,625873,0
19,-1,674065,231813,1222507,69356,8617,610690,0
19,-1,671446,231908,1367595,69475,8755,683001,0
19,-1,669714,230605,1212751,68990,8257,605848,0
19,-1,672389,231155,1312598,68896,8366,655922,0
19,-1,668799,232360,1298652,69525,8104,648562,0
19,-1,666139,229821,1396127,68575,7886,697601,0
19,-1,668764,230230,1181616,68683,8219,590372,0
19,-1,666437,230536,1322846,68764,7886,660964,0
19,-1,664698,229931,1233326,68583,7448,616307,0
19,-1,671087,230940,1333069,68955,7886,665993,0
19,-1,659218,229551,1407219,67963,7411,703106,0
19,-1,681877,234831,1350374,71506,8773,674676,0
19,-1,668914,231014,1245001,69639,8303,621837,0
19,-1,662984,229591,1290562,68978,7503,644936,0
19,-1,671549,231044,1305242,69450,8065,652204,0
19,-1,669311,230689,1237366,69374,8109,618142,0
19,-1,667433,231215,1325728,69547,8245,662435,0
19,-1,672346,231848,1244936,69981,7697,621663,0
19,-1,672960,232199,1258750,70025,7991,628662,0
19,-1,666262,229870,1330625,69088,8371,664889,0
19,-1,672653,230592,1256079,69354,8346,627545,0
19,-1,697146,239881,1389371,72102,8187,694138,0
19,-1,667511,230894,1292555,69299,8113,645706,0
19,-1,672894,231232,1358972,69654,8317,679021,0
19,-1,692359,236305,1429088,73027,10212,713911,0
19,-1,671182,231211,1263753,69532,8057,631450,0
19,-1,668784,230890,1319441,69218,8358,659284,0
19,-1,671295,230717,1314265,69268,7998,656682,0
19,-1,667896,230273,1357455,69083,8413,678230,0
19,-1,670286,230934,1313891,69348,8591,656387,0
19,-1,672852,230927,1334978,69431,7453,667014,0
19,-1,672607,231027,1178421,69300,7140,588846,0
19,-1,676117,232541,1379502,70114,8659,688756,0
19,-1,672587,230081,1290228,69272,9107,644533,0
19,-1,663820,229382,1250466,69028,7944,624772,0
19,-1,669193,231215,1326696,69714,7633,662522,0
20,-1,720205,248426,1369922,73710,8530,684567,0
20,-1,665962,230202,1371582,68761,8275,685304,0
20,-1,683888,235100,1317353,72229,8080,658312,0
20,-1,663730,229523,1336053,68579,7864,667203,0
20,-1,664057,230103,1313619,68884,7760,656387,0
20,-1,665762,230009,1266126,68650,8410,632600,0
20,-1,669503,231013,1318905,69174,8125,659002,0
20,-1,668749,231142,1319408,69264,9017,658973,0
20,-1,660166,230354,1263612,68966,8417,631264,0
20,-1,665078,232721,1347610,70093,9109,672889,2
20,-1,666623,231844,1316206,69657,8231,657337,0
20,-1,663993,230405,1341965,69008,8927,670525,0
20,-1,693679,236674,1354602,73271,8839,676814,0
20,-1,665277,230814,1188190,69070,7462,593653,0
20,-1,664616,230813,1309371,68999,7246,654244,0
20,-1,669283,230410,1298726,68896,8575,648826,0
20,-1,668778,231637,1320077,69358,7989,659433,0
20,-1,668581,231891,1340020,69600,8134,669359,0
20,-1,670491,230697,1313251,69049,8455,656051,0
20,-1,671406,232112,1408675,69631,8878,703524,0
20,-1,668847,231207,1380017,68982,9624,689551,0
20,-1,667537,231952,1368875,69209,9200,684071,0
20,-1,674246,233067,1332414,69873,9016,665493,0
20,-1,666631,230541,1316556,68908,8119,657790,0
20,-1,670436,230182,1333706,68812,8939,666437,0
20,-1,668474,231348,1279994,69120,8224,639450,0
20,-1,667172,230272,1292560,68776,8011,645812,0
20,-1,670660,230757,1233746,68784,8310,616456,0
20,-1,663183,229480,1215080,68523,7415,607055,0
20,-1,669338,231984,1289090,69490,7526,643826,0
20,-1,668169,230365,1264722,68764,8572,631931,0
20,-1,671797,230556,1357746,68833,8427,678551,0
20,-1,666070,230517,1281319,68821,8091,640216,0
20,-1,669511,230304,1209596,68716,7491,604419,0
20,-1,663106,230529,1330727,68324,7331,664939,0
20,-1,665878,230097,1306739,68176,7947,652879,0
20,-1,665489,230318,1329637,69245,8502,664052,0
20,-1,663304,229972,1328580,69137,8694,663686,0
20,-1,671970,231575,1235020,69784,7421,616780,0
20,-1,666838,230128,1245303,69156,7819,622229,0
20,-1,668001,231461,1324147,69791,7731,661416,0
20,-1,689723,235011,1398536,72576,9337,698768,0
20,-1,666053,229775,1308821,69030,8204,653901,0
20,-1,670667,231986,1302374,69982,8283,650412,0
20,-1,669183,229210,1296807,68899,8601,648024,0
20,-1,671322,231559,1263100,69809,8681,630589,0
20,-1,664852,229970,1207200,68959,7654,603103,0
20,-1,677654,233057,1255123,70509,7475,626817,0
20,-1,673116,232353,1381665,69899,9019,690214,0
20,-1,670639,231022,1333583,69498,8501,666251,0
20,-1,669510,231564,1290297,69479,8080,644657,0
20,-1,691579,235713,1383799,72725,8698,691410,0
20,-1,669093,231018,1343065,69382,8052,671088,0
20,-1,690416,235350,1360194,72548,9030,679511,0
20,-1,672279,230833,1243031,69388,7803,621088,0
20,-1,671527,231098,1242272,69368,7413,620600,0
20,-1,692590,235723,1323086,72675,9203,660983,0
20,-1,670366,229646,1312785,69113,8626,655821,0
20,-1,668702,231326,1352976,69963,9118,675368,0
20,-1,663655,229455,1254354,69079,7490,626661,0
21,-1,718579,248289,1275534,73708,8276,637242,0
21,-1,664996,230415,1212249,68803,7529,605669,0
21,-1,663029,231002,1155733,69058,7026,577399,0
21,-1,672562,232834,1382596,69983,9569,690204,0
21,-1,666534,231518,1352854,69479,8124,675658,0
21,-1,687390,235359,1329976,72181,9719,664516,0
21,-1,671297,230957,1296027,69060,8476,647337,0
21,-1,666650,230642,1236267,69124,8983,617554,0
21,-1,660564,230910,1248787,69196,7695,623754,0
21,-1,662723,230219,1224721,68969,7950,611781,0
21,-1,663037,230696,1253116,69149,7962,625865,2
21,-1,662952,230411,1424126,68989,9052,711723,0
21,-1,668255,231400,1337153,69251,7856,668042,0
21,-1,667850,231810,1306524,69568,7652,652481,0
21,-1,668131,230844,1374719,69056,7350,686844,0
21,-1,691743,235592,1296395,72357,9924,647559,0
21,-1,668444,231726,1366924,69537,8182,682625,0
21,-1,668539,230914,1359070,69004,8653,679024,0
21,-1,674448,232244,1389535,69725,9054,694064,0
21,-1,667419,231466,1388586,69212,8741,693681,0
21,-1,687681,234909,1298954,72120,8857,648812,0
21,-1,668117,232028,1322733,69263,9087,660938,0
21,-1,669142,231743,1238336,69336,7676,618748,0
21,-1,674397,233112,1327511,69974,8582,663008,0
21,-1,673842,232109,1326326,69654,8879,662357,0
21,-1,666737,230863,1236060,68889,8178,617508,0
21,-1,670090,231336,1385592,69138,8481,692314,0
21,-1,674138,232413,1383372,69536,9183,690523,0
21,-1,668408,230277,1229426,68685,7992,614270,0
21,-1,687997,235569,1274740,72265,8581,636950,0
21,-1,671975,231895,1270846,69374,8312,634807,0
21,-1,669510,230485,1267311,68801,7941,633001,0
21,-1,672283,232265,1270840,69621,7727,634808,0
21,-1,669346,230508,1367817,68814,7532,683425,0
21,-1,667073,232315,1285234,69064,7067,642052,0
21,-1,670816,232697,1220701,69289,7481,609662,0
21,-1,666110,230482,1341971,69155,8458,670433,0
21,-1,668799,232082,1244152,69979,8662,621437,0
21,-1,667296,230161,1294023,69107,7589,646547,0
21,-1,667801,230286,1293297,69188,7886,646199,0
21,-1,664943,230405,1462413,69283,9199,730809,0
21,-1,666056,229463,1309412,69021,8188,654216,0
21,-1,669567,231661,1218481,69930,7515,608359,0
21,-1,666901,229983,1340549,69149,8493,669887,0
21,-1,673981,231599,1249867,69851,8366,624204,0
21,-1,668584,230357,1263658,69212,8889,631087,0
21,-1,666856,231123,1351001,69384,8173,675018,0
21,-1,672824,231459,1262218,69714,8211,630562,0
21,-1,699474,241058,1438720,72470,8695,718848,0
21,-1,675375,233055,1316440,70380,7937,657480,0
21,-1,673577,232730,1240632,70019,7974,619543,0
21,-1,670596,230905,1229873,69376,7438,614324,0
21,-1,669694,231276,1407496,69491,8221,703225,0
21,-1,671658,232171,1264363,69768,8056,631574,0
21,-1,669349,230706,1268268,69291,7733,633573,0
21,-1,668841,230216,1185612,69030,7266,592333,0
21,-1,672968,231524,1302681,69501,8313,650749,0
21,-1,695403,235820,1455235,73495,10327,726867,0
21,-1,685971,234508,1363870,72546,9276,681519,0
21,-1,672339,232040,1383021,70153,9156,690582,0
22,-1,723644,250267,1363274,74425,7797,681120,0
22,-1,666176,230056,1222158,68631,7791,610614,0
22,-1,663882,230362,1156375,68817,7712,577728,0
22,-1,668445,232058,1344897,69636,7989,671862,0
22,-1,663750,229722,1228742,68743,8156,613852,0
22,-1,665699,230527,1259431,68793,7976,629238,0
22,-1,673002,232048,1278050,69585,9676,638275,0
22,-1,665298,230136,1350894,68889,9134,675014,0
22,-1,663100,231972,1336868,69672,8479,667597,0
22,-1,660786,229832,1364516,68767,8217,681742,0
22,-1,667346,232614,1425034,69957,9764,711762,0
22,-1,663987,230978,1323738,69219,8790,661346,2
22,-1,669117,231685,1259792,69356,8135,629300,0
22,-1,660276,229248,1215253,68579,7427,607154,0
22,-1,665380,230504,1383461,68985,6955,691310,0
22,-1,669229,230884,1366711,69086,8850,682935,0
22,-1,669361,231600,1397193,69289,8809,698138,0
22,-1,668640,231224,1284578,69215,7902,641736,0
22,-1,668499,230219,1374214,68868,8937,686631,0
22,-1,668064,230738,1404111,68897,8302,701584,0
22,-1,667405,231052,1314421,69135,8283,656561,0
22,-1,662611,230802,1235388,68775,8390,617408,0
22,-1,671163,231660,1542723,69250,10413,771376,0
22,-1,687645,235143,1318797,72178,9471,658854,0
22,-1,669927,230835,1308908,69001,8647,653878,0
22,-1,671146,233232,1381284,70026,9515,689684,0
22,-1,666297,230310,1220640,68731,7080,609848,0
22,-1,691639,235921,1480577,72211,9995,739853,0
22,-1,667861,230315,1340921,68634,8422,670101,0
22,-1,664962,230100,1315766,68713,7639,657382,0
22,-1,666909,230264,1284991,68728,8028,642047,0
22,-1,669198,230569,1429460,68725,8055,714225,0
22,-1,692811,234765,1379799,71928,8947,689333,0
22,-1,670597,230899,1327460,68884,7734,663304,0
22,-1,662544,230174,1320885,68177,6934,660062,0
22,-1,684854,234962,1340283,71568,8558,669607,0
22,-1,682393,234565,1362304,71534,8636,680596,0
22,-1,668864,230699,1240205,69313,8759,619728,0
22,-1,668832,230468,1410821,69215,8129,705016,0
22,-1,669212,229890,1415962,69088,8510,707519,0
22,-1,664353,230449,1381004,69202,8459,690047,0
22,-1,670297,230720,1293064,69285,7998,646076,0
22,-1,686214,234712,1384969,72482,8912,691955,0
22,-1,665291,230336,1337904,69218,8913,668490,0
22,-1,668110,229542,1358391,68981,9038,678700,0
22,-1,668122,230714,1370847,69405,9159,684509,0
22,-1,673119,233002,1306042,70208,8495,652191,0
22,-1,673844,232434,1241467,70159,8219,619927,0
22,-1,668181,230768,1246358,69324,7680,622648,0
22,-1,668723,230937,1351816,69396,8114,675312,0
22,-1,669198,231246,1330080,69326,8201,664461,0
22,-1,669438,230813,1321251,69304,7553,660129,0
22,-1,670825,231392,1220970,69523,7865,609901,0
22,-1,667469,230877,1343948,69315,8866,671526,0
22,-1,697258,236348,1373462,73019,8676,686245,0
22,-1,670567,231304,1374510,69424,7879,686376,0
22,-1,672553,231804,1330667,69768,8491,664572,0
22,-1,668126,229629,1354410,69051,8859,676725,0
22,-1,662555,229432,1330367,69047,8176,664663,0
22,-1,688178,234995,1390837,72701,9483,694859,0
23,-1,719739,249016,1330239,73938,8029,664623,0
23,-1,669122,230468,1330868,68813,8496,665027,0
23,-1,664502,230893,1272681,69062,7988,635795,0
23,-1,663215,229780,1304859,68728,7840,651854,0
23,-1,668136,229897,1313077,68717,9436,656065,0
23,-1,664622,230525,1317348,68795,8515,657990,0
23,-1,668750,230972,1206547,69081,8284,602700,0
23,-1,671100,230410,1284679,69006,7655,641876,0
23,-1,672117,230418,1333890,69054,8494,666337,0
23,-1,664006,230411,1258413,68978,8764,628704,0
23,-1,664663,230556,1356468,69035,8962,677802,0
23,-1,662183,230729,1338817,69154,8542,668855,2
23,-1,667615,230780,1265606,68993,7807,632480,0
23,-1,665841,230503,1212306,68935,7364,605757,0
23,-1,686251,234863,1273282,72211,8372,636144,0
23,-1,669525,230722,1343317,69030,9249,671043,0
23,-1,663412,230166,1373385,68767,7942,686272,0
23,-1,686273,235045,1388639,72257,8404,693871,0
23,-1,674343,232774,1378325,69951,7956,688381,0
23,-1,669057,231881,1255648,69286,8393,627159,0
23,-1,667122,231323,1255276,69180,7758,627183,0
23,-1,667362,232346,1370327,69353,8850,684590,0
23,-1,670402,231236,1349455,69002,8971,674317,0
23,-1,668154,230480,1333901,68846,8796,666453,0
23,-1,668391,230606,1183371,68805,7729,591162,0
23,-1,669885,230683,1387005,68863,8209,692991,0
23,-1,669905,231804,1320763,69489,7638,659837,0
23,-1,667699,230570,1520452,68714,9404,759179,0
23,-1,665084,230460,1200978,68678,7172,600071,0
23,-1,685387,235073,1283245,72102,8322,641142,0
23,-1,667647,230139,1331738,68699,8245,665434,0
23,-1,673716,232683,1301302,69809,7958,649743,0
23,-1,670783,230247,1254476,68701,8291,626746,0
23,-1,674212,232247,1346792,69621,7668,672622,0
23,-1,666734,232486,1247286,69193,7359,622860,0
23,-1,665241,230202,1328746,68236,7968,663742,0
23,-1,661071,230143,1321851,68327,7929,660400,0
23,-1,665801,229835,1328510,69049,8866,663824,0
23,-1,668882,230807,1439422,69623,9474,718973,0
23,-1,668306,230620,1202546,69253,7570,600898,0
23,-1,669764,232534,1212242,70246,7170,605273,0
23,-1,667533,230578,1310624,69289,8030,654966,0
23,-1,665624,230351,1256672,69212,8281,628007,0
23,-1,663013,229747,1267019,69022,8697,633053,0
23,-1,692501,235375,1448150,72647,9239,723587,0
23,-1,671367,230386,1261280,69179,8616,630086,0
23,-1,687017,235073,1353081,72467,9782,676062,0
23,-1,670155,230824,1263869,69450,8482,631362,0
23,-1,672203,231482,1314731,69588,8785,656968,0
23,-1,673998,233115,1260356,70330,8263,629352,0
23,-1,670214,231848,1320656,69563,8394,659854,0
23,-1,671113,230517,1265358,69208,7719,631983,0
23,-1,672232,232471,1256702,70045,7883,627592,0
23,-1,670059,230953,1230920,69355,7360,615040,0
23,-1,672901,230811,1357299,69362,7873,678210,0
23,-1,670729,230541,1321805,69194,8411,660404,0
23,-1,671837,231107,1352125,69612,9097,674929,0
23,-1,675852,231849,1381107,70020,9938,689813,0
23,-1,662732,229848,1224691,69233,8145,611641,0
23,-1,664548,229567,1316301,69122,8611,657649,0
24,-1,717380,248267,1231990,73647,7950,615588,0
24,-1,674809,233135,1395334,69866,8855,696885,0
24,-1,662313,230528,1303801,68950,7474,651460,0
24,-1,671908,232335,1359133,69753,8709,678739,0
24,-1,670069,231023,1246430,69122,8458,622427,0
24,-1,670452,232176,1452882,69622,9450,725528,0
24,-1,665561,230155,1240543,68770,8389,619718,0
24,-1,670455,231278,1336381,69258,8307,667691,0
24,-1,677049,232603,1334322,69972,8760,666410,0
24,-1,682052,234899,1315556,72277,9361,657407,0
24,-1,666399,231847,1423266,69589,9136,710567,0
24,-1,665888,231203,1267499,69144,7594,633256,2
24,-1,666230,230432,1334884,68922,8142,666959,0
24,-1,687256,235364,1283527,72370,7937,641236,0
24,-1,664728,230488,1289376,68939,7346,644294,0
24,-1,667518,230486,1283317,68947,8831,640913,0
24,-1,666682,230405,1398043,68914,8085,698492,0
24,-1,665428,230140,1294808,68765,7979,646922,0
24,-1,688687,234931,1412890,72224,8459,705970,0
24,-1,664176,230513,1328044,68848,8317,663566,0
24,-1,671257,231244,1337203,69205,9344,668094,0
24,-1,668827,233259,1479149,69805,9202,738699,0
24,-1,674019,233451,1249191,70050,8282,623538,0
24,-1,666679,230770,1235115,68977,8130,617072,0
24,-1,673267,231952,1379819,69497,9767,689168,0
24,-1,667987,230244,1423089,68753,8980,710786,0
24,-1,667601,230493,1343126,68841,7878,671157,0
24,-1,673420,231229,1389844,68854,9336,694453,0
24,-1,695350,240234,1361466,71585,8153,680299,0
24,-1,662474,229719,1208545,68474,7575,603807,0
24,-1,675722,232706,1260241,69750,8070,629328,0
24,-1,716196,244395,1379150,74849,8722,689043,0
24,-1,676735,232792,1229169,69710,8554,613938,0
24,-1,667613,229377,1256987,68440,7405,628129,0
24,-1,662817,230776,1449295,68373,7731,724179,0
24,-1,666468,231243,1273060,68571,7732,635941,0
24,-1,664741,230882,1360824,68600,7919,679929,0
24,-1,688406,234944,1413560,72572,9608,706356,0
24,-1,688843,234954,1387997,72533,9005,693513,0
24,-1,667059,230285,1306575,69249,7980,652620,0
24,-1,668169,230812,1330547,69422,8663,664721,0
24,-1,669997,230318,1362643,69169,8033,680877,0
24,-1,674572,231500,1302070,69727,8720,650311,0
24,-1,667745,230042,1261572,69195,8029,630267,0
24,-1,667687,229951,1337772,69084,7586,668342,0
24,-1,672075,230531,1236106,69298,8393,617532,0
24,-1,665199,230354,1312964,69070,8557,656056,0
24,-1,669081,231036,1297243,69486,8526,648016,0
24,-1,674946,233166,1235836,70417,8534,616956,0
24,-1,671573,231569,1315606,69606,8049,657304,0
24,-1,674291,233813,1245749,70433,8321,621937,0
24,-1,673689,231413,1354093,69541,8278,676464,0
24,-1,667583,231027,1340184,69382,8445,669613,0
24,-1,671723,232020,1329631,69729,7953,664267,0
24,-1,673988,231648,1501873,69670,8555,750410,0
24,-1,670990,231121,1341310,69382,7817,670194,0
24,-1,669054,230736,1289877,69236,8535,644458,0
24,-1,672615,230068,1349070,69288,9905,674065,0
24,-1,666343,231231,1434164,69838,8436,716211,0
24,-1,665896,230438,1258522,69444,8254,628622,0
25,-1,720235,248694,1296990,73855,8708,647987,0
25,-1,670186,231705,1327482,69347,7648,663046,0
25,-1,682203,234625,1319440,71896,8470,659167,0
25,-1,688204,234962,1313496,72220,8640,656194,0
25,-1,670748,231588,1347347,69486,9730,672752,0
25,-1,662253,229902,1327342,68692,8889,663261,0
25,-1,669255,230867,1264022,69030,9067,631488,0
25,-1,668664,230578,1273444,69094,8213,636145,0
25,-1,692305,235213,1347563,72367,9853,673295,0
25,-1,660879,230481,1269680,68945,7680,634359,0
25,-1,663563,231024,1224880,69228,7643,611693,0
25,-1,668657,231320,1329612,69236,7648,664367,0
25,-1,669279,231264,1212059,69240,8364,605466,2
25,-1,665258,230737,1221305,68993,7185,610232,0
25,-1,667185,231845,1331977,69569,7591,665309,0
25,-1,691231,235598,1326956,72398,9866,662970,0
25,-1,667682,231834,1342814,69508,8223,670687,0
25,-1,669103,232159,1403490,69678,8838,701026,0
25,-1,672564,231316,1286816,69401,9013,642609,0
25,-1,669540,231044,1347376,69008,8377,673178,0
25,-1,668357,230795,1334311,68983,8293,666705,0
25,-1,697248,236767,1302099,72580,9173,650228,0
25,-1,669806,232512,1269494,69438,8725,634137,0
25,-1,667140,231093,1371722,68991,8831,685578,0
25,-1,668836,230157,1318888,68719,10155,658858,0
25,-1,666667,230303,1384016,68742,9179,691546,0
25,-1,670826,232121,1306933,69661,8040,652706,0
25,-1,672875,231446,1284746,68991,8938,641860,0
25,-1,670316,231772,1398688,69127,7751,698814,0
25,-1,664700,230914,1303474,68918,7560,651339,0
25,-1,674938,232318,1273200,69553,8482,635987,0
25,-1,666745,229977,1399860,68643,7775,699464,0
25,-1,669144,229462,1297417,68388,8047,648248,0
25,-1,669784,230846,1321309,68934,7405,660139,0
25,-1,664942,232527,1227311,69163,7454,612857,0
25,-1,665529,231156,1232922,68547,7494,615823,0
25,-1,664807,229831,1309350,68207,7703,654184,0
25,-1,662557,229652,1240078,69004,8426,619614,0
25,-1,672198,231331,1298971,69557,8308,649033,0
25,-1,670101,231670,1246429,69803,7919,622559,0
25,-1,666027,230380,1312094,69234,8990,655439,0
25,-1,673142,232184,1266912,69992,7526,632712,0
25,-1,669329,229997,1387057,69135,8895,692885,0
25,-1,673374,232501,1233161,70249,7887,615624,0
25,-1,667596,230341,1330509,69217,7827,664856,0
25,-1,671619,230883,1250485,69408,8757,624718,0
25,-1,666004,231801,1232996,69771,8222,615692,0
25,-1,670660,230857,1243494,69423,8097,621286,0
25,-1,690212,235855,1388681,72860,9695,693794,0
25,-1,672072,232551,1351556,69989,8241,675218,0
25,-1,689845,236035,1363984,72767,9159,681372,0
25,-1,675935,232862,1332111,70258,8743,665087,0
25,-1,668711,230936,1246113,69367,8310,622619,0
25,-1,668053,230568,1332677,69240,8153,665752,0
25,-1,672766,230938,1261690,69418,7604,630389,0
25,-1,689849,235110,1362361,72474,8894,680596,0
25,-1,670765,231625,1369485,69621,8889,683747,0
25,-1,672562,230495,1373786,69418,10223,686362,0
25,-1,664882,229828,1234236,69193,8029,616660,0
25,-1,665603,230159,1259060,69292,8366,628936,0
26,-1,739345,252933,1398519,76990,8946,698876,0
26,-1,667530,231333,1323825,69254,8329,661208,0
26,-1,663269,231940,1305904,69444,7081,652188,0
26,-1,665537,230159,1247577,68856,8704,623465,0
26,-1,666351,229839,1275952,68772,8431,637508,0
26,-1,663634,230466,1272736,68937,8654,635832,0
26,-1,667951,231206,1395506,69170,8181,697039,0
26,-1,668336,230381,1342281,68974,8604,670538,0
26,-1,674080,231778,1333531,69469,8365,666267,0
26,-1,661556,230934,1253738,69194,8215,626172,0
26,-1,662139,229960,1367080,68866,9000,682988,0
26,-1,666152,230725,1276177,68957,7810,637705,0
26,-1,664335,231349,1299832,69251,7606,649423,2
26,-1,663732,230654,1302493,68999,7232,650779,0
26,-1,665824,230273,1329668,68870,8259,664426,0
26,-1,670432,231083,1320573,69101,8102,659808,0
26,-1,666278,231311,1365389,69209,8289,682188,0
26,-1,668306,231724,1283112,69370,7597,641084,0
26,-1,669359,230734,1215968,69063,8319,607501,0
26,-1,669476,230993,1334668,69029,8132,666809,0
26,-1,673222,232726,1427783,69892,9321,712938,0
26,-1,676362,232547,1375288,69422,9370,687090,0
26,-1,669080,231449,1194163,69050,8328,596631,0
26,-1,667546,231334,1311775,69153,8470,655304,0
26,-1,691464,236202,1414064,72473,10484,706323,0
26,-1,667343,230304,1403584,68749,8946,701340,0
26,-1,690138,235957,1273707,72433,8158,636386,0
26,-1,669963,230370,1357532,68598,9034,678398,0
26,-1,665976,230593,1287366,68760,7616,643211,0
26,-1,673973,232604,1294949,69737,8002,646675,0
26,-1,667816,230359,1292134,68749,8076,645630,0
26,-1,665993,230077,1358277,68622,8065,678679,0
26,-1,670066,230327,1268414,68754,8262,633741,0
26,-1,670696,231632,1267770,69336,7378,633306,0
26,-1,662684,231050,1229566,68501,7155,614332,0
26,-1,662122,229942,1210506,68144,7909,604720,0
26,-1,664779,230051,1282702,68299,7323,640973,0
26,-1,665227,230533,1343029,69327,8779,671015,0
26,-1,671167,231449,1239259,69757,7446,618806,0
26,-1,664049,229674,1323644,68888,7232,661419,0
26,-1,666301,230476,1271400,69272,8694,635174,0
26,-1,687954,234731,1405482,72462,9151,702207,0
26,-1,686714,233808,1463127,72147,9497,731101,0
26,-1,688154,234667,1379916,72499,8776,689549,0
26,-1,671940,231077,1228907,69625,7941,613635,0
26,-1,669856,230178,1251243,69201,8779,625033,0
26,-1,666346,230674,1270843,69102,8079,634861,0
26,-1,670155,231018,1236475,69460,7759,617757,0
26,-1,669080,231425,1321441,69524,8529,660210,0
26,-1,670458,230881,1302181,69407,7678,650647,0
26,-1,677364,232058,1252747,69648,8416,625869,0
26,-1,694710,236194,1387635,72844,9431,693305,0
26,-1,688368,235612,1411109,72690,9489,705012,0
26,-1,694839,237007,1401435,73186,8943,700093,0
26,-1,673714,230836,1369275,69377,8814,684250,0
26,-1,671619,231697,1229694,69584,7630,614342,0
26,-1,671365,231089,1391094,69346,9044,695175,0
26,-1,677480,232846,1371433,70420,9847,684825,0
26,-1,664181,229588,1281220,69106,8901,640167,0
26,-1,664640,229781,1193066,69218,8024,595978,0
27,-1,715290,248285,1359602,73675,7954,679438,0
27,-1,665007,230345,1300082,68806,7454,649530,0
27,-1,668914,230342,1318052,68769,7396,658536,0
27,-1,662182,229291,1238307,68535,7531,618581,0
27,-1,685423,234417,1265888,72049,8796,632425,0
27,-1,688629,235053,1319955,72152,9253,659502,0
27,-1,666838,230829,1410503,68981,8265,704814,0
27,-1,688763,234341,1280491,72059,8891,639566,0
27,-1,673161,231834,1333486,69655,9191,666036,0
27,-1,667955,231869,1266325,69653,9040,632184,0
27,-1,682885,234738,1316668,72192,9892,657848,0
27,-1,666189,230679,1416706,69037,8013,707817,0
27,-1,665663,230999,1206316,69172,7905,602648,2
27,-1,663891,231129,1304876,69168,7242,651934,0
27,-1,668063,231756,1293679,69328,7148,646363,0
27,-1,669557,231320,1240432,69187,8143,619391,0
27,-1,664318,230939,1333335,69118,7514,666042,0
27,-1,665827,231166,1351925,69170,8022,675513,0
27,-1,668931,230785,1291590,69095,7609,645229,0
27,-1,668561,231190,1265424,69044,8215,632030,0
27,-1,690449,235639,1303151,72379,9559,651137,0
27,-1,675997,232076,1334921,69282,9099,666900,0
27,-1,671136,232100,1318044,69258,8701,658239,0
27,-1,675394,233059,1338214,69896,9288,668226,0
27,-1,670121,230918,1416927,68976,9221,707425,0
27,-1,668126,231169,1386750,69046,9229,692626,0
27,-1,666469,230753,1284221,68906,7363,641682,0
27,-1,669459,230747,1385586,68736,9159,692020,0
27,-1,669640,232090,1299087,69351,7704,648867,0
27,-1,689847,235229,1287193,72169,9059,643044,0
27,-1,666888,229912,1246655,68597,7855,622906,0
27,-1,690379,235219,1372337,72133,9240,685758,0
27,-1,668072,229962,1404223,68594,8427,701651,0
27,-1,666495,230093,1408351,68648,7442,703806,0
27,-1,663958,232085,1234085,68986,7684,616291,0
27,-1,665534,230382,1377098,68257,7511,688123,0
27,-1,667884,231126,1214256,68668,7608,606627,0
27,-1,663475,230263,1226306,69224,8246,612701,0
27,-1,667413,229978,1298651,69072,7538,648935,0
27,-1,667261,231161,1284538,69518,7474,641838,0
27,-1,670021,232177,1207480,70094,8398,602964,0
27,-1,667741,230273,1315779,69199,7634,657428,0
27,-1,668167,230164,1334532,69222,7933,666661,0
27,-1,665532,229940,1223816,69181,7570,611343,0
27,-1,670000,230521,1327739,69297,8019,663320,0
27,-1,670399,229952,1180864,69134,7963,590003,0
27,-1,666073,230922,1309153,69309,7977,654067,0
27,-1,671250,232084,1230390,69986,7723,614289,0
27,-1,668421,231452,1325293,69639,9005,662197,0
27,-1,675816,233331,1233133,70445,7717,615768,0
27,-1,673321,230896,1246304,69184,8750,622610,0
27,-1,694142,239342,1217280,71822,8260,608105,0
27,-1,665168,230393,1352193,69193,9342,675643,0
27,-1,670355,231586,1328531,69561,8205,663720,0
27,-1,673098,231859,1232389,69867,7353,615585,0
27,-1,667915,230044,1325003,68924,7842,662136,0
27,-1,674846,231155,1296029,69356,9291,647489,0
27,-1,717733,243699,1570250,75295,10666,784677,0
27,-1,665968,231272,1345668,69796,8309,672328,0
27,-1,665588,230451,1264537,69457,8332,631670,0
28,-1,720995,248678,1284641,73853,8227,641931,0
28,-1,663877,229505,1212900,68570,7208,606029,0
28,-1,668727,229997,1335323,68650,7904,667176,0
28,-1,668668,232427,1455235,69801,8099,726605,0
28,-1,663866,229679,1231450,68604,8372,615305,0
28,-1,670477,230360,1271209,68846,8351,635041,0
28,-1,670124,231709,1350059,69284,8520,674355,0
28,-1,668187,230286,1352746,69013,8835,675734,0
28,-1,671836,230995,1254132,69234,8773,626567,0
28,-1,665727,230275,1210305,69007,8995,604510,0
28,-1,662020,230688,1352348,69124,9246,675649,0
28,-1,666071,230927,1250345,69118,7607,624622,0
28,-1,661705,230265,1298039,68851,7618,648530,0
28,-1,669796,232770,1316948,69972,7782,657771,2
28,-1,685142,235135,1252898,72303,8410,625960,0
28,-1,668353,231422,1332839,69426,8527,665427,0
28,-1,663577,230281,1239626,68863,7766,619333,0
28,-1,672811,232612,1378331,69823,8763,688254,0
28,-1,667750,230453,1278278,68961,7630,638665,0
28,-1,668472,230949,1256584,69029,8105,627689,0
28,-1,668444,230957,1339717,68958,8912,669369,0
28,-1,676071,232257,1414353,69286,9477,706727,0
28,-1,691351,237130,1311433,72720,9424,655318,0
28,-1,691411,235709,1300335,72325,9907,649633,0
28,-1,666817,230082,1368856,68665,9716,684138,0
28,-1,674609,233015,1541264,69814,9644,769713,0
28,-1,667287,230540,1366095,68911,7983,682513,0
28,-1,677393,233177,1347858,69727,9064,672350,0
28,-1,665137,230202,1330341,68578,7670,664723,0
28,-1,671966,231059,1269171,68985,8546,634046,0
28,-1,671750,232559,1349850,69718,7902,674080,0
28,-1,667140,230434,1343080,68779,8242,671110,0
28,-1,668885,230654,1304642,68847,8210,651853,0
28,-1,664953,229893,1331964,68554,7625,665543,0
28,-1,656610,229829,1257665,68050,7428,628299,0
28,-1,689144,235831,1361758,72325,9218,680388,0
28,-1,689059,238655,1340775,70804,7682,670012,0
28,-1,663682,230159,1248785,69113,8124,623916,0
28,-1,667482,230581,1223507,69344,7465,611204,0
28,-1,670609,231655,1308593,69847,8159,653591,0
28,-1,685974,234709,1279182,72500,9627,639182,0
28,-1,666830,230258,1273314,69156,7366,636223,0
28,-1,667168,230560,1343282,69362,8477,670885,0
28,-1,666536,230265,1231618,69161,7468,615302,0
28,-1,669933,230501,1223126,69175,7699,611032,0
28,-1,670324,230439,1238841,69277,8748,618828,0
28,-1,664763,230285,1286600,69051,8410,642842,0
28,-1,672672,231771,1287769,69780,8520,643409,0
28,-1,673475,231383,1328270,69567,7935,663653,0
28,-1,690535,235780,1374399,72777,8845,686831,0
28,-1,672749,231148,1317882,69241,8969,658566,0
28,-1,691557,235253,1458669,72605,8459,728885,0
28,-1,674414,232763,1257496,70168,8810,627967,0
28,-1,678096,232062,1265241,69648,8227,632073,0
28,-1,674243,231893,1376100,69744,8403,687584,0
28,-1,669374,230941,1265756,69288,7770,632426,0
28,-1,673945,230795,1427383,69257,9807,712974,0
28,-1,673161,230734,1394309,69501,9097,696500,0
28,-1,664181,230874,1351496,69547,7714,675430,0
28,-1,663091,229616,1220444,69122,7199,609721,0
29,-1,720154,248611,1311281,73759,8007,655225,0
29,-1,663649,229918,1312524,68740,7453,655810,0
29,-1,669810,230441,1292303,68763,8024,645753,0
29,-1,665511,230291,1273419,68829,8286,636117,0
29,-1,666247,230048,1260862,68775,9031,629710,0
29,-1,670374,230320,1338889,68780,8950,668723,0
29,-1,672582,231665,1356414,69457,9340,677555,0
29,-1,669782,231120,1452286,69214,8910,725728,0
29,-1,670608,230697,1325876,69090,8416,662378,0
29,-1,665487,230237,1255767,68939,8822,627439,0
29,-1,661573,230943,1400139,69163,8834,699579,0
29,-1,665080,230366,1314780,68888,7492,656906,0
29,-1,689127,235188,1265349,72238,8878,632297,0
29,-1,663170,230743,1262261,69067,7543,630692,2
29,-1,665744,230441,1307529,68918,8037,653360,0
29,-1,669276,231579,1414175,69326,7761,706476,0
29,-1,662272,230223,1338620,68846,7869,668924,0
29,-1,666598,231046,1336370,69178,9553,667528,0
29,-1,671383,232351,1370824,69822,8212,684614,0
29,-1,667270,231283,1365524,69008,7649,682223,0
29,-1,668482,231261,1242526,69019,7863,620655,0
29,-1,672176,231711,1331582,69099,9177,665205,0
29,-1,668472,231802,1300012,69135,8606,649486,0
29,-1,672568,232249,1342084,69372,9127,670543,0
29,-1,667528,230931,1342047,68929,8437,670412,0
29,-1,667014,230449,1562462,68840,9226,781089,0
29,-1,669560,231941,1254628,69588,7887,626666,0
29,-1,667829,230455,1499911,68667,9246,749448,0
29,-1,686006,235614,1275351,72169,9092,637193,0
29,-1,671414,231529,1236088,69330,8010,617409,0
29,-1,690010,235169,1296914,72158,8668,647986,0
29,-1,665318,230212,1288903,68609,7575,644048,0
29,-1,670024,230289,1317991,68693,8552,658514,0
29,-1,670460,230470,1334034,68765,7674,666600,0
29,-1,656312,230084,1249158,68155,7131,624204,0
29,-1,664006,230281,1288623,68286,7785,643893,0
29,-1,686107,234422,1360710,71563,8894,679930,0
29,-1,665674,230801,1337799,69407,8086,668344,0
29,-1,666455,230590,1337794,69227,7881,668475,0
29,-1,671907,232353,1258200,70076,8711,627866,0
29,-1,665428,230222,1337579,69172,8789,668308,0
29,-1,667268,230708,1361564,69321,8214,680285,0
29,-1,666084,230075,1271905,69152,8467,635483,0
29,-1,670452,231523,1195101,69816,7659,597052,0
29,-1,668301,230289,1325743,69166,8000,662392,0
29,-1,689588,234931,1314096,72511,9580,656523,0
29,-1,668923,232344,1293469,69997,8730,645718,0
29,-1,686691,234993,1376034,72519,10109,687532,0
29,-1,692778,236043,1389201,72948,9324,694111,0
29,-1,672441,232130,1242472,69849,7500,620619,0
29,-1,676903,233184,1293295,70233,8739,645817,0
29,-1,669564,231077,1298353,69369,7678,648779,0
29,-1,664453,230017,1325648,69010,8110,662320,0
29,-1,679014,233324,1220555,70279,8796,609356,0
29,-1,672214,231756,1453317,69709,8153,726121,0
29,-1,674386,231161,1266569,69371,8186,632918,0
29,-1,676453,231761,1376817,69747,9620,687530,0
29,-1,668468,229367,1407275,69025,9218,703126,0
29,-1,663456,230541,1309615,69403,7807,654282,0
29,-1,670439,231388,1456139,69895,8977,727404,0
30,-1,718019,248314,1277868,73658,7499,638505,0
30,-1,667866,231639,1327794,69573,7470,663083,0
30,-1,674514,232695,1360356,69766,7975,679482,0
30,-1,665593,230769,1245371,69025,8320,621857,0
30,-1,665383,230272,1362905,68816,8294,680975,0
30,-1,674176,232182,1345534,69494,9153,672312,0
30,-1,667312,230218,1313731,68761,8706,656455,0
30,-1,664997,229796,1252459,68821,7975,625672,0
30,-1,668303,230389,1301287,69022,8435,650050,0
30,-1,666938,231662,1264315,69616,9146,631377,0
30,-1,668505,231055,1316486,69243,8010,657792,0
30,-1,666388,231492,1267009,69307,7388,633114,0
30,-1,670518,232413,1317323,69738,7988,657995,0
30,-1,667177,231642,1216814,69392,7268,607956,0
30,-1,663388,230781,1315767,69026,8020,657397,2
30,-1,668115,231069,1282649,69117,8090,640670,0
30,-1,664030,231125,1287619,69193,8511,643163,0
30,-1,666515,230758,1203250,69068,8490,601021,0
30,-1,671336,231913,1474884,69450,9289,736778,0
30,-1,664517,230258,1322809,68703,7564,660922,0
30,-1,667724,230803,1339470,68896,8934,669212,0
30,-1,697407,236940,1337739,72641,9638,668518,0
30,-1,669706,230915,1398062,68822,8640,698454,0
30,-1,671578,232461,1449819,69560,9494,724128,0
30,-1,662252,229201,1379121,68382,9427,689108,0
30,-1,693882,239760,1435361,71541,9710,717138,0
30,-1,664837,229999,1226405,68730,8095,612803,0
30,-1,673016,232833,1407847,69601,8873,703038,0
30,-1,667944,230538,1325253,68684,7743,662144,0
30,-1,667208,230555,1176151,68778,7893,587557,0
30,-1,669187,230522,1318415,68831,8091,658730,0
30,-1,666166,230348,1335802,68748,7854,667434,0
30,-1,666648,229398,1272054,68460,8039,635558,0
30,-1,672446,231331,1361322,69051,8647,680134,0
30,-1,672398,229880,1486925,68475,7574,743023,0
30,-1,662878,230267,1378355,68257,7512,688681,0
30,-1,664735,230269,1331035,68404,7502,665064,0
30,-1,662873,229407,1322814,68879,8523,660944,0
30,-1,673285,232573,1227490,70233,7601,612763,0
30,-1,687973,234944,1587286,72550,10072,793511,0
30,-1,683726,234889,1372117,72517,9399,685649,0
30,-1,671007,231747,1278785,69841,8480,638683,0
30,-1,689192,234887,1297554,72565,8648,648294,0
30,-1,667220,230628,1334434,69357,8216,666681,0
30,-1,689750,234691,1396745,72448,9562,697872,0
30,-1,670592,229823,1339295,69029,8493,669208,0
30,-1,687601,235960,1451299,72737,9243,725160,0
30,-1,674237,232154,1263131,69807,8586,631035,0
30,-1,674227,231962,1265469,69806,8056,632219,0
30,-1,668359,230996,1314695,69446,8126,656751,0
30,-1,694161,236255,1386834,72791,9647,692884,0
30,-1,670813,231934,1362028,69664,8696,680501,0
30,-1,669085,231587,1329786,69613,7843,664343,0
30,-1,673187,231654,1192096,69623,7685,595421,0
30,-1,670731,230816,1322025,69373,8433,660592,0
30,-1,670142,231035,1261573,69373,8041,630335,0
30,-1,675082,231620,1359327,69520,9729,679004,0
30,-1,673902,231435,1367204,69919,9391,682865,0
30,-1,665177,229639,1168392,69152,8140,583737,0
30,-1,666442,230419,1399074,69436,7957,698910,0
31,-1,717407,248515,1445768,73686,7497,722495,0
31,-1,666682,229748,1247162,68702,7911,623211,0
31,-1,689408,234753,1376830,72025,8893,687946,0
31,-1,667519,231509,1347483,69419,8967,672975,0
31,-1,684214,234411,1320708,72029,9082,659691,0
31,-1,671154,230840,1291263,68923,8481,644978,0
31,-1,668502,230904,1275724,68979,8941,637177,0
31,-1,672744,232874,1293464,70093,8983,645780,0
31,-1,670418,230489,1234716,68953,8447,616916,0
31,-1,685571,235400,1264817,72446,9681,631740,0
31,-1,672295,232169,1368733,69747,9687,683521,0
31,-1,688377,235538,1276794,72421,9342,637929,0
31,-1,666017,230873,1259318,69086,7366,629045,0
31,-1,663633,230502,1210077,68987,7964,604419,0
31,-1,694315,240447,1269016,71959,7620,634042,2
31,-1,668645,232329,1333258,69806,9012,665982,2
31,-1,668619,231515,1353316,69296,8512,675835,2
31,-1,687826,235547,1295234,72421,8752,647105,0
31,-1,660571,230990,1262028,69150,7515,630601,2
31,-1,668473,233001,1390446,70093,8666,694138,2
31,-1,667269,232331,1344796,69729,8598,671615,0
31,-1,671717,232868,1354623,69975,8252,676416,2
31,-1,666752,231209,1331077,69198,8348,665027,0
31,-1,690153,240082,1373367,71844,8515,686178,2
31,-1,670099,231934,1350700,69616,8757,674634,0
31,-1,666843,230803,1222597,69123,8178,610649,2
31,-1,665675,231726,1289938,69384,8070,644539,2
31,-1,668497,231630,1255138,69204,7373,627059,2
31,-1,670569,231361,1558534,69111,9968,778691,0
31,-1,673603,232205,1416116,69422,8879,707455,2
31,-1,670549,231111,1481625,68973,10073,740169,0
31,-1,699164,242310,1318150,72712,9076,657954,2
31,-1,674890,232293,1347434,69287,8849,673155,0
31,-1,672420,231693,1328671,69110,8845,663815,2
31,-1,671930,232030,1537227,69304,10344,767971,0
31,-1,669900,232269,1269689,69439,8137,634395,2
31,-1,671618,232168,1334057,69287,8730,666563,0
31,-1,693469,240350,1460987,71791,9380,729920,2
31,-1,669021,232244,1371607,69674,8390,685307,2
31,-1,674564,232665,1457679,69780,9754,728356,0
31,-1,668958,231428,1428514,69159,9458,713320,2
31,-1,667487,231572,1343052,69329,7927,671137,2
31,-1,665343,230260,1231898,68728,7679,615384,0
31,-1,673031,233225,1371140,69986,8581,684761,2
31,-1,667190,231374,1370107,69167,8754,684499,2
31,-1,674859,232347,1227918,69834,8109,613203,0
31,-1,672209,232690,1341314,69837,8266,669789,2
31,-1,669074,230949,1318315,69060,8357,658594,2
31,-1,669035,230126,1349103,68481,8655,674167,0
31,-1,668582,230675,1384882,68743,9241,691991,2
31,-1,678216,233136,1232593,69860,8322,615440,2
31,-1,664891,231126,1340890,68871,7785,669955,2
31,-1,669192,230854,1319736,68812,7885,659354,0
31,-1,666317,230726,1333687,68900,7910,666363,2
31,-1,667813,229888,1168543,68632,8042,583787,0
31,-1,664413,230660,1221391,68888,7295,610195,2
31,-1,667322,230480,1302585,68829,7955,650708,2
31,-1,672552,233236,1247704,69960,7453,623099,2
31,-1,666732,230060,1289238,68621,7660,644178,0
31,-1,667742,230179,1190014,68654,7654,594513,2
31,-1,664011,230937,1341622,68948,8374,670320,2
31,-1,665663,230581,1311409,68807,7759,655247,2
31,-1,668333,231498,1310247,69285,8015,654406,0
31,-1,670222,232309,1315279,69638,7794,656846,2
31,-1,666310,230617,1256491,68916,8024,627656,2
31,-1,667304,230100,1239510,68685,7620,619332,0
31,-1,668763,230363,1260374,68781,8309,629648,2
31,-1,673000,232744,1280220,69789,7702,639370,2
31,-1,665124,230284,1353668,68749,7646,676305,2
31,-1,670578,230921,1288415,69059,8163,643426,0
31,-1,666112,230114,1315809,68655,7405,657402,2
31,-1,676545,233352,1297868,69949,7564,648117,2
31,-1,678651,232686,1332344,69670,7274,665416,0
31,-1,660705,230651,1256924,68378,7367,627969,2
31,-1,662276,230591,1336697,68370,7192,667840,2
31,-1,668023,232828,1343928,69322,9099,671369,2
31,-1,661682,230296,1314141,68232,8201,656527,0
31,-1,660363,229900,1509696,68087,9103,754459,2
31,-1,666366,231517,1306201,68934,7828,652455,0
31,-1,668803,232465,1230606,69373,7955,614584,2
31,-1,664114,230405,1257563,69326,8305,628223,0
31,-1,664570,230114,1338169,69147,8575,668530,2
31,-1,688368,234893,1326317,72543,9070,662688,0
31,-1,666818,230304,1298779,69233,7864,648945,2
31,-1,666429,231910,1242493,70050,8121,620437,2
31,-1,668569,230515,1372743,69316,8378,685837,0
31,-1,667631,230030,1308111,69144,8086,653578,2
31,-1,666779,230842,1359674,69418,8311,679378,2
31,-1,673303,232797,1294779,70359,7976,646525,2
31,-1,667278,231975,1211472,69862,8340,604971,0
31,-1,662433,229768,1272936,69044,8648,636044,2
31,-1,662946,230652,1316817,69380,8230,657944,2
31,-1,663724,229839,1340236,69047,8781,669670,2
31,-1,665711,229934,1349998,69019,8307,674461,0
31,-1,665204,230829,1322029,69421,8525,660553,2
31,-1,666443,230724,1343076,69389,8804,670790,2
31,-1,665356,229897,1228875,69163,7596,613926,0
31,-1,673684,232868,1230561,70320,8414,614243,2
31,-1,668815,231049,1279163,69498,8510,639105,2
31,-1,671418,230772,1378450,69401,8542,688780,2
31,-1,664704,229953,1264586,69068,7667,631843,0
31,-1,667227,231108,1312858,69553,8689,655897,2
31,-1,667924,230195,1226260,69212,8001,612540,0
31,-1,672535,231889,1258772,69970,8167,628598,0
31,-1,670534,231517,1236060,69669,8414,617455,2
31,-1,666118,230130,1371793,69153,9076,684772,2
31,-1,673229,232152,1280471,70046,9194,639195,2
31,-1,663952,230346,1379260,69008,8692,689339,0
31,-1,664254,230530,1259271,69210,8689,629101,2
31,-1,674714,233226,1260467,70457,7697,629328,2
31,-1,666775,231323,1312250,69540,8694,655590,2
31,-1,676048,233592,1325789,70632,8223,661961,0
31,-1,669155,231585,1348762,69667,7755,673771,2
31,-1,671661,231633,1229624,69784,7729,614144,2
31,-1,670867,232713,1301742,70385,8360,650041,2
31,-1,674389,232549,1227671,70163,7895,613086,0
31,-1,670419,231512,1291813,69669,7962,645330,2
31,-1,671419,232517,1311582,70009,8002,655142,2
31,-1,670657,231688,1336263,69714,8883,667620,2
31,-1,670369,232147,1197168,69803,7865,598116,0
31,-1,668762,231619,1272766,69694,8532,635685,2
31,-1,672673,232665,1366165,69952,7735,682453,2
31,-1,671448,231572,1237544,69490,7647,618306,0
31,-1,674317,231866,1238791,69594,8604,618766,2
31,-1,669564,231947,1384931,69590,8979,691911,2
31,-1,670024,231707,1359633,69590,9036,679085,2
31,-1,670753,231297,1448254,69448,9471,723244,2
31,-1,675910,233188,1340222,70290,8741,669219,0
31,-1,676050,233482,1335183,70501,7976,666718,2
31,-1,666552,230272,1305775,69200,8056,652360,2
31,-1,671690,230991,1328298,69421,8798,663683,2
31,-1,666019,231294,1238323,69461,8784,618548,2
31,-1,667395,230860,1332143,69314,8138,665614,0
31,-1,666066,230851,1238329,69379,8182,618538,2
31,-1,667882,230940,1392037,69403,8413,695516,2
31,-1,672433,231822,1270170,69728,7668,634480,2
31,-1,673464,231374,1261967,69434,8653,630440,0
31,-1,675061,233466,1255267,70454,8172,626871,2
31,-1,672868,231208,1334486,69499,7485,666723,2
31,-1,669971,231281,1294908,69562,8403,646912,0
31,-1,671369,231876,1250786,69763,7391,624882,2
31,-1,678771,233464,1266501,70404,8390,632496,2
31,-1,666554,230057,1263980,69041,8382,631544,2
31,-1,667785,230293,1306983,69092,8473,653072,0
31,-1,668442,231359,1411245,69488,8445,705126,2
31,-1,676145,232243,1414622,69968,9503,706379,0
31,-1,671674,231134,1421293,69447,9231,709996,2
31,-1,669299,230170,1374590,69212,9644,686551,0
31,-1,671027,230823,1299859,69554,9404,649212,2
31,-1,669636,230329,1352849,69380,9665,675905,2
31,-1,670873,229692,1301959,69189,8692,650390,2
31,-1,659778,229688,1339162,69252,9131,669060,2
31,-1,670203,231250,1266225,69834,9065,632153,0
31,-1,664218,230047,1197806,69301,8826,598427,2
31,-1,661713,229320,1327454,69016,8308,663090,2
31,-1,664713,230206,1255201,69348,8397,627069,0
31,-1,664524,230316,1277438,69287,8140,638214,2
