0,2,759289,266108,1457166,78549,9438,728541,0
0,-1,686946,236496,1239411,70399,6984,619718,0
0,2,762096,266057,1516680,78531,10013,758357,0
0,-1,689301,236657,1325031,70500,6990,662544,0
0,2,766335,269125,1376119,79829,9445,687994,0
0,-1,696828,239975,1344010,71929,7603,672006,2
0,-1,690128,236668,1263108,70494,7247,631405,0
0,2,731443,253227,1549411,77126,11159,774335,0
0,2,707911,247619,1414163,73377,9376,707168,0
0,-1,689150,237474,1238887,70771,7143,619372,0
0,2,705000,248193,1300082,73769,8249,650047,0
0,-1,634865,218145,1160440,65538,6808,580280,0
0,2,705149,248073,1366865,73756,8847,683393,0
0,2,724685,252388,1300688,77010,8813,650293,0
0,-1,637083,218931,1203696,65738,6547,601853,0
0,2,710461,248479,1372379,73959,9311,686155,0
0,2,705961,247697,1323919,73687,9219,661861,0
0,2,710717,248964,1401325,74298,9486,700672,0
0,-1,637189,219014,1272375,65818,7424,636202,0
0,2,712072,249973,1490896,74623,9679,745487,0
0,-1,643948,219857,1394526,66020,9034,697073,0
0,2,710982,248786,1430199,74006,9021,715147,0
0,-1,636779,218486,1311947,65534,6951,656020,0
0,-1,640796,219092,1205191,65766,6818,602584,0
0,2,731972,253554,1522740,77211,9797,761303,0
0,-1,641841,219170,1303240,65796,7705,651655,0
0,2,710011,248542,1345573,73765,8706,672885,0
0,2,709246,248814,1486900,73990,8527,743495,0
0,-1,654782,223125,1200948,69018,7877,600439,0
0,2,712039,248254,1424855,73939,8971,712480,0
0,-1,635343,218629,1146987,65763,6502,573489,0
0,2,709296,248717,1372234,74128,9103,686219,0
0,-1,639726,219497,1192697,65920,7195,596308,0
0,2,711702,249585,1339875,74369,9686,669975,0
0,2,714096,249035,1519086,74189,9775,759576,0
0,-1,636033,218071,1169845,65531,7611,584807,0
0,2,705575,248485,1452820,73970,9485,726379,0
0,2,706961,248696,1373579,74078,9130,686693,0
0,-1,647015,221720,1283896,66938,7497,641912,0
0,2,705300,248444,1469361,74048,9183,734506,0
0,-1,636156,218087,1292170,65538,7884,646049,0
0,2,709454,249393,1402084,74307,9191,701073,0
0,-1,642375,221597,1216080,66926,8274,607962,0
0,2,704828,248306,1319149,73912,8912,659501,0
0,2,706142,248495,1348759,74025,8129,674232,0
0,-1,635947,218535,1215251,65673,6877,607721,0
0,2,708365,249286,1418105,74203,8063,709094,0
0,-1,638671,219022,1425931,65894,8070,712956,0
0,2,716640,250463,1413525,74744,9381,706772,0
0,2,707592,248503,1421334,73933,8495,710709,0
0,-1,638295,218340,1177337,65719,7666,588565,0
0,2,711510,250411,1416975,74705,8607,708536,0
0,2,710526,248635,1432013,73940,9387,715869,0
0,-1,639503,218962,1343037,65662,8377,671164,0
0,2,710486,249867,1312017,74406,8241,656069,0
0,2,706390,248511,1295746,73847,8264,647917,0
0,-1,644457,219600,1213189,65924,7580,606527,0
0,-1,666545,229115,1489415,68642,8654,744759,0
0,2,711830,249743,1431839,74389,9161,715946,0
0,2,710554,248674,1422176,74020,9265,710824,0
0,-1,640476,219993,1272198,66101,7524,636166,0
0,2,709236,250425,1379903,74806,9907,690011,0
0,-1,637967,219646,1147405,66004,7418,573747,0
0,2,706440,248817,1391235,73980,8605,695563,0
0,2,711321,249207,1443068,74116,9355,721586,0
0,2,712528,249428,1304651,74171,8559,652291,0
0,-1,641348,219040,1182191,65773,7427,591027,0
0,2,708155,248479,1412956,73902,9784,706483,0
0,2,709786,248624,1326993,73967,8776,663536,0
0,-1,646642,220444,1394002,66651,8365,697060,0
0,2,708772,248655,1371884,73926,8089,686012,0
0,-1,640312,219275,1209195,65984,7455,604623,0
0,2,716461,250591,1448372,74891,9223,724116,0
0,-1,639461,219617,1333081,66128,7630,666593,0
0,2,715725,250649,1485248,74678,9889,742658,0
0,-1,641365,219142,1221585,65978,8038,610693,0
0,2,709826,248544,1333395,73743,9330,666736,0
0,-1,643275,220436,1404009,66690,8561,702012,0
0,2,711684,248656,1370607,73770,9185,685336,0
0,2,734103,253894,1373691,77351,9609,686796,0
0,-1,643397,219583,1323006,66075,8068,661513,0
0,2,714989,249451,1250792,74181,8824,625445,0
0,2,712656,249054,1433709,74102,8492,716826,0
0,-1,642025,218859,1314080,65858,8039,656824,0
0,2,717382,250255,1329009,74238,9366,664521,0
0,-1,655888,223913,1267969,69337,8407,633933,0
0,2,706727,249247,1329122,73883,9092,664593,0
0,2,714456,251962,1446632,75102,9987,722748,0
0,-1,634524,219098,1382392,65930,8783,691167,0
0,2,711531,250006,1595750,74258,10202,797542,0
0,-1,635064,219791,1310870,66197,7454,655456,0
0,2,733702,253491,1631487,77259,10505,815680,0
0,2,709265,249089,1554165,73951,10578,777075,0
0,2,718173,251577,1585111,75090,10879,792054,0
0,-1,659164,223453,1254892,69208,7683,627361,0
0,2,711492,249009,1461921,73970,9176,730828,0
0,2,709620,248090,1463059,73682,8992,731470,0
0,-1,660840,223865,1185637,69315,8195,592884,0
0,-1,635174,219221,1184921,66030,6613,592473,0
0,2,711778,249702,1394868,74442,9805,697413,0
0,-1,644167,221436,1337712,67081,7578,668876,0
0,2,714490,249622,1377946,74160,9555,689067,0
0,2,709965,247876,1634365,73623,11146,817144,0
0,-1,638954,220096,1277444,66481,7792,638769,0
0,2,715261,249809,1397934,74526,10126,698647,0
0,2,711316,248335,1378052,73738,10002,689109,0
0,-1,634827,218889,1173367,65727,6616,586728,0
0,2,738983,257685,1413523,76363,10193,706739,0
0,2,714455,249378,1359985,73934,10152,679809,0
0,-1,641132,220324,1259976,66499,7364,630052,0
0,2,715342,249322,1344659,73892,9199,672306,0
0,2,710649,248425,1319948,73636,9462,660025,0
0,-1,639814,219310,1255805,65941,7139,627958,0
0,2,710661,250121,1394616,74435,9203,697386,0
0,-1,638673,221289,1281428,66857,7167,640804,0
0,2,711628,248695,1363561,73856,9562,681622,0
0,2,714428,249041,1457363,73933,10050,728725,0
0,-1,636959,219019,1265449,65826,6935,632740,0
0,2,730685,252948,1409203,76996,9054,704639,0
0,2,714148,250861,1411125,74832,9420,705852,0
0,2,719509,251079,1358222,74866,9161,679015,0
0,-1,636395,219611,1280686,66061,6763,640384,0
0,2,715350,249288,1292929,74020,9322,646514,0
0,-1,636599,218791,1166301,65788,7079,583200,0
0,2,710891,248865,1388007,73904,9047,693959,0
0,2,709498,247994,1372514,73574,9093,686011,0
0,-1,638796,219282,1193242,65919,6894,596653,0
0,2,711041,247789,1428425,73489,9324,714201,0
0,2,710512,248251,1371628,73687,8756,685717,0
0,-1,641737,220016,1290237,66194,7662,645174,0
0,2,711320,247923,1316428,73603,8476,658214,0
0,-1,643525,220835,1215857,66631,7764,607980,0
0,2,732933,253536,1418501,77256,9129,709198,0
0,2,711222,248017,1403455,73610,8731,701739,0
0,-1,636256,218797,1206612,65757,7469,603353,0
0,2,699763,248066,1349970,73076,7932,675023,0
0,-1,637157,218976,1172936,65798,6893,586567,0
0,2,704904,248826,1428749,73327,9046,714411,0
0,2,711113,250104,1320982,74005,8388,660570,0
0,-1,638612,218686,1320098,65650,6812,660082,0
0,2,728867,253345,1403403,76677,9466,701656,0
0,2,709905,248853,1403664,73397,9038,701822,0
0,-1,640791,219886,1327508,66128,7859,663923,0
0,2,706115,248045,1320497,73238,8680,660269,0
0,2,730600,253084,1458414,76689,9795,729362,0
0,-1,640998,219626,1190039,66091,7823,594872,0
0,2,710049,248056,1464783,74080,10378,732444,0
0,-1,649314,221670,1301283,66996,8802,650712,0
0,2,710558,248588,1375900,74335,9564,687885,0
0,2,728241,252501,1539705,77269,10559,769484,0
0,-1,642822,221275,1312711,66767,7716,656428,0
0,2,704841,247831,1393746,74074,9135,696899,0
0,2,711750,249667,1312775,74863,8327,656459,0
0,2,707760,248128,1411204,74036,9086,705638,0
0,2,706262,248243,1378085,74083,9482,689076,0
0,-1,659746,224333,1224761,69377,8570,612425,0
0,-1,637483,219130,1180806,65896,7167,590378,0
0,2,729154,252447,1588630,77347,10403,794217,0
0,-1,640017,220263,1317071,66412,7627,658141,0
0,2,712250,249304,1300637,74729,9110,650384,0
0,-1,635818,219199,1127848,65904,6568,563971,0
0,2,733804,252714,1522303,77388,10017,761174,0
0,2,709473,247652,1308189,73953,9556,654129,0
0,-1,640011,219214,1303899,65855,7963,651889,0
0,-1,658271,223966,1262123,69265,8770,630902,0
0,2,706889,248156,1396869,74147,9591,698486,0
0,2,730196,253283,1477106,77623,10400,738523,0
0,-1,636462,218824,1319450,65756,7332,659764,0
0,2,707635,249309,1253709,74688,9306,626905,0
0,-1,660770,224260,1578431,69365,8827,789270,0
0,2,707682,247941,1387006,74103,9102,693479,0
0,2,716327,249270,1283789,74509,9364,641962,0
0,-1,646302,220981,1307507,66686,8005,653579,0
0,2,710599,248372,1370712,74230,8779,685392,0
0,2,707610,248017,1394318,73928,10114,697209,0
0,-1,641481,219922,1503025,66111,8276,751111,0
0,2,707803,247792,1345377,74028,8210,672593,0
0,-1,646603,220483,1303695,66493,8200,651850,0
0,-1,640227,220725,1225513,66501,7873,612810,0
0,2,709436,248777,1389636,74271,9422,694858,0
0,2,712788,248465,1373755,74089,9278,686907,0
0,-1,659767,223882,1224899,69196,8286,612391,0
0,2,714933,248711,1401721,74138,9487,700816,0
0,-1,640980,220068,1238054,66188,7231,618758,0
0,2,713684,248793,1374883,74219,9607,687364,0
0,-1,641490,219428,1315401,65828,8041,657751,0
0,2,708111,249540,1316191,74689,9178,657862,0
0,-1,661720,224178,1254773,69187,8455,627346,0
0,2,712475,249166,1283529,74606,8920,641771,0
0,-1,646204,221238,1319723,66602,8220,659935,0
0,2,712212,248936,1366928,74459,9534,683504,0
0,-1,641563,219365,1176016,65810,7428,588050,0
0,2,712806,249304,1502739,74614,9650,751392,0
0,2,714608,251243,1316671,75469,9713,658551,0
0,-1,641757,220455,1301955,66508,7459,651014,0
0,2,716230,249379,1374044,74500,9058,687076,0
0,-1,645855,220648,1178444,66359,7095,589235,0
0,2,736792,254060,1488853,77842,10683,744279,0
0,2,713249,249944,1503624,74720,9409,751620,0
0,-1,644868,220560,1174021,66384,7209,587026,0
0,2,713074,249117,1508683,74387,9977,754508,0
0,2,714169,249803,1436544,74535,10235,718183,0
0,-1,642410,220005,1284745,66098,7235,642422,0
0,2,716538,249428,1358794,74397,10516,679322,0
0,-1,647636,221164,1191633,66333,8064,595786,0
0,2,712224,249598,1347161,74466,8708,673534,0
0,-1,641175,220855,1332016,66203,8385,666046,0
0,2,716233,249856,1310578,74626,9395,655324,0
0,-1,641021,219685,1255773,65774,9025,627924,0
0,2,717532,250573,1491767,75134,10203,745568,0
0,-1,645119,220618,1413885,66116,7972,707302,0
0,2,709414,249006,1501434,74345,9720,750621,0
0,-1,639434,220154,1374407,66130,8745,687317,0
0,2,711741,249328,1398122,74341,8943,699157,0
0,-1,645470,221317,1215020,66686,7848,607488,0
0,2,714748,250010,1334062,74868,9177,667099,0
0,2,717795,251033,1328229,75201,8885,664170,0
0,-1,647169,221065,1309751,66364,8650,654759,0
0,2,732431,252953,1358706,77456,10155,679273,0
0,2,718567,250392,1322972,75048,9049,661550,0
0,-1,645070,221890,1294440,66980,8230,647220,0
0,2,718301,250609,1273451,75188,9198,636803,0
0,-1,640155,219531,1261896,65979,7854,630927,0
0,2,719873,250973,1348123,75255,9163,674063,0
0,2,711289,248469,1281075,74074,8315,640582,0
0,-1,660953,223995,1332370,69207,9234,666190,0
0,2,714447,249718,1312512,74532,7947,656309,0
0,2,711041,248306,1431551,74010,9101,715757,0
0,2,714726,248630,1432583,74116,9709,716347,0
0,-1,641950,219344,1365619,65871,8930,682222,0
0,2,713134,248726,1248424,74317,8592,624127,0
0,2,708139,247208,1295626,73863,8890,647851,0
0,2,733895,252830,1407124,77581,10457,703581,0
0,-1,666317,224841,1291512,69415,8589,645758,0
0,2,719097,250105,1420263,75101,9476,710192,0
0,-1,645502,220872,1366862,66611,8174,683440,0
0,2,704342,247692,1394205,74104,8711,697136,0
0,2,711104,249152,1373185,74798,8534,686658,0
0,2,706337,248486,1361279,74541,8342,680704,0
0,-1,646373,220262,1196922,66201,8127,598389,0
0,2,706167,247574,1425183,74045,8374,712758,0
0,2,711479,248062,1436608,74257,8891,718060,0
0,-1,642325,220096,1265108,66038,7630,632455,0
0,2,707626,248307,1223565,74168,7763,611923,0
0,-1,641484,220077,1331005,66105,8017,665530,0
0,2,713767,249950,1479417,74925,9124,739992,0
1,2,766013,268131,1449023,79382,9093,724446,0
1,-1,694518,237462,1243702,70768,7263,621824,0
1,2,759424,266287,1354364,78674,8745,677079,0
1,-1,712558,241673,1392841,73923,8614,696446,0
1,2,709806,248845,1352316,73883,9232,675624,0
1,2,709539,248628,1334004,73756,8976,667020,0
1,-1,694813,236757,1227398,70508,7928,613734,0
1,2,703297,247835,1378282,73713,9106,689152,0
1,-1,635527,218363,1288816,65626,7140,644422,0
1,2,714271,251461,1511821,75201,9616,755713,0
1,-1,639555,218315,1300282,65561,7329,650136,0
1,2,709222,248984,1231489,74123,8689,615726,0
1,2,714904,250677,1416126,74935,9580,708019,0
1,2,710919,250062,1308431,74606,9535,654202,0
1,2,708262,247851,1401547,73733,8553,700797,0
1,-1,660072,223214,1349627,68982,8012,674779,0
1,2,708224,248550,1380051,73929,9242,690145,0
1,-1,639817,218470,1293344,65445,8562,646794,0
1,-1,643708,221693,1302646,66850,8275,651163,2
1,2,710201,247906,1370726,73695,9115,685452,0
1,-1,638162,218811,1202539,65719,7535,601231,0
1,-1,639723,218844,1275568,65677,7032,637819,0
1,2,709202,248793,1525440,73800,8866,762757,0
1,-1,639561,218114,1313460,65435,8218,656730,0
1,2,708034,248843,1427118,73949,9741,713592,0
1,2,711437,248753,1438154,73901,9258,719088,0
1,-1,633240,218696,1111932,65767,6805,555944,0
1,2,711689,248782,1366397,74108,8679,683204,0
1,-1,637452,219246,1195227,65891,6775,597626,0
1,2,713922,250277,1585184,74922,9968,792472,0
1,-1,636754,218484,1248284,65689,6850,624145,0
1,2,716565,249664,1408585,74528,10489,704359,0
1,2,714132,249666,1603256,74519,10153,801662,0
1,-1,637105,219143,1140313,65962,6997,570093,0
1,2,704446,248723,1427296,74074,9353,713602,0
1,2,709155,249827,1415150,74646,9856,707550,0
1,2,707898,248782,1415199,74102,9489,707515,0
1,-1,660068,223238,1273765,69023,8088,636876,0
1,-1,639089,218481,1191051,65657,7401,595538,0
1,2,708910,249696,1452449,74598,9788,726205,0
1,-1,634781,219004,1162189,65826,7294,581117,0
1,2,725265,252648,1362086,77112,10505,680988,0
1,2,705078,248428,1310647,74013,8044,655376,0
1,-1,636835,218742,1266698,65802,7425,633338,0
1,2,709798,249070,1395843,74386,9587,697988,0
1,-1,642170,220840,1261440,66810,7664,630752,0
1,2,712707,249484,1364516,74270,8688,682305,0
1,2,709861,250181,1485492,74641,9445,742849,0
1,-1,640281,219359,1193940,65950,7631,596726,0
1,2,706645,248769,1410023,73980,8293,705058,0
1,-1,641611,219761,1266092,65900,7988,632712,0
1,2,710284,248571,1429105,73894,9277,714596,0
1,2,709218,249900,1455478,74575,9238,727812,0
1,2,708620,248761,1446843,74000,8413,723473,0
1,-1,647101,220878,1315521,66486,7855,657785,0
1,-1,639504,219441,1435401,65820,8988,716904,0
1,2,709315,248819,1455572,73943,9605,727787,0
1,2,712935,249020,1417389,74056,9492,708669,0
1,-1,641338,220072,1255280,66003,7366,627682,0
1,2,705422,248183,1319291,73759,8637,659679,0
1,-1,648740,221794,1230241,66968,8610,615026,0
1,2,711455,248735,1381509,73998,8851,690788,0
1,2,708052,248463,1350848,73917,8442,675456,0
1,2,714242,250819,1495275,74960,9579,747727,0
1,-1,641466,219216,1262772,65879,8109,631436,0
1,2,710042,248773,1477807,74021,9568,738995,0
1,2,731436,253237,1374599,77273,9469,687268,0
1,-1,664148,223861,1283861,69354,8725,641715,0
1,2,711093,249074,1384574,74133,8798,692327,0
1,2,712325,248782,1345492,74025,9440,672644,0
1,-1,658913,223420,1265098,69180,8275,632594,0
1,-1,641474,218921,1249507,65850,7477,624270,0
1,2,710464,249407,1303253,74094,8180,651669,0
1,-1,640935,218939,1367880,65867,7905,684193,0
1,2,712702,249656,1417866,74344,9660,708752,0
1,-1,660905,223337,1238274,69097,8397,619148,0
1,2,713312,248984,1231933,73942,8754,616007,0
1,2,709956,248587,1367517,73852,8968,683816,0
1,-1,643394,219053,1326114,65901,8243,662798,0
1,2,713544,249314,1392169,74179,9202,696100,0
1,2,711946,249417,1407025,74217,9368,703513,0
1,-1,640930,218967,1305403,65924,7920,652847,0
1,2,716258,249840,1314298,74241,9222,657177,0
1,-1,634759,220246,1329520,66515,7800,664442,0
1,2,707587,249498,1461836,74059,9260,730916,0
1,2,713070,250341,1596771,74324,11669,797400,0
1,-1,633043,218763,1318844,65765,8140,659292,0
1,2,734376,255079,1493902,77758,10323,747006,0
1,-1,641837,220846,1314027,66741,9287,656870,0
1,2,714873,250320,1539215,74444,9510,768774,0
1,2,708431,249098,1332151,73935,9127,666012,0
1,2,736242,258388,1625667,76736,11615,812323,0
1,-1,637792,219431,1211144,66039,7084,605542,0
1,2,710176,248861,1577604,73885,10700,788612,0
1,-1,639509,219442,1234060,66096,7739,616999,0
1,2,715680,249914,1479875,74541,10293,739912,0
1,-1,633180,218811,1224122,65895,8340,612185,0
1,2,707701,248670,1476574,73814,9516,738220,0
1,-1,637639,218993,1372709,65952,6490,686326,0
1,2,715958,251348,1471489,75015,9530,735750,0
1,2,708441,248171,1390391,73786,8784,694255,0
1,2,709339,248542,1440557,73942,10062,720199,0
1,-1,638680,219132,1249872,65921,7505,624974,0
1,2,713321,249547,1531844,74172,9527,765804,0
1,-1,640564,219817,1239038,66077,7357,619322,0
1,2,712835,249215,1429753,73998,10327,714802,0
1,2,712945,248840,1526341,73696,10725,763217,0
1,-1,635090,218952,1203584,65805,6727,601830,0
1,2,744061,255567,1381708,78155,10312,690701,0
1,2,716266,251480,1397681,74916,9325,698932,0
1,-1,639710,219646,1218047,65974,7215,609078,0
1,2,711630,248171,1446366,73609,9512,723234,0
1,-1,657008,224255,1250222,69350,7337,625104,0
1,2,709711,248275,1260101,73748,8650,630098,0
1,2,710018,248381,1382281,73747,9431,691219,0
1,-1,636858,219341,1247677,65940,7157,623840,0
1,2,709752,248655,1413641,73813,8698,706801,0
1,2,730169,252821,1665043,76888,10466,832183,0
1,2,710758,248695,1365514,73883,8443,682796,0
1,-1,638510,220835,1279216,66643,7818,639655,0
1,2,713911,248544,1445066,73720,9325,722572,0
1,-1,659212,224243,1224522,69382,7790,612365,0
1,2,708663,248211,1331100,73645,8390,665523,0
1,2,711223,248637,1377041,73828,8361,688461,0
1,-1,635704,219053,1159553,65872,6703,579852,0
1,2,710685,249087,1492853,73952,8973,746346,0
1,2,709941,248537,1301476,73799,8791,650648,0
1,-1,643910,221587,1268077,67031,7787,634113,0
1,2,715190,250418,1364832,74569,8431,682377,0
1,-1,638901,219363,1143349,65975,7230,571705,0
1,2,711913,247905,1306905,73543,9022,653486,0
1,2,712481,248653,1318539,73744,8694,659407,0
1,-1,640396,219545,1263648,65986,7765,631867,0
1,2,714094,248493,1257051,73636,7450,628580,0
1,-1,641168,220009,1197679,66135,7075,598877,0
1,2,704759,248817,1359979,73374,8644,680045,0
1,2,708266,249433,1225087,73763,8270,612578,0
1,-1,641268,219702,1269939,66098,6697,635066,0
1,2,705794,248456,1463761,73297,8502,731925,0
1,2,707829,248777,1634606,73388,9882,817228,0
1,-1,638470,219030,1214223,65819,7118,607164,0
1,2,706290,248158,1284812,73245,9249,642395,0
1,2,706421,248265,1445726,73305,9345,722841,0
1,-1,644719,219965,1176458,66130,7944,588181,0
1,2,708215,247703,1283570,73878,9310,641742,0
1,-1,642832,219549,1254953,66043,8015,627417,0
1,2,708366,247799,1381015,74037,10092,690555,0
1,2,709097,249550,1385819,74777,9146,692984,0
1,2,708501,248503,1360150,74303,8770,680078,0
1,-1,637206,219471,1312367,65954,7603,656018,0
1,2,708212,247924,1381378,74032,8756,690735,0
1,2,709140,248772,1307468,74352,9233,653777,0
1,-1,666996,229138,1234428,68888,7383,617181,0
1,2,734704,252640,1437818,77417,9687,718950,0
1,-1,637849,219635,1179908,66068,6619,590049,0
1,2,712977,249531,1314856,74811,8822,657447,0
1,-1,638399,219381,1222101,65983,7476,611077,0
1,2,709371,248787,1401442,74372,9143,700763,0
1,-1,661310,223776,1400527,69200,7962,700304,0
1,2,712244,248718,1369354,74360,9425,684723,0
1,2,708448,248745,1437918,74391,11113,718615,0
1,-1,642321,219912,1257129,66177,7689,628509,0
1,-1,635278,219041,1294912,65870,8057,647498,0
1,2,709210,249339,1325012,74691,9404,662420,0
1,2,709776,248403,1410573,74256,9220,705234,0
1,-1,642753,221497,1315962,66994,8283,658080,0
1,2,711862,248180,1398804,74074,8947,699338,0
1,-1,639618,219771,1450818,66100,8303,725432,0
1,2,708524,248188,1369052,74116,9224,684560,0
1,2,712801,248295,1460348,74057,9736,730198,0
1,-1,638655,218821,1304812,65772,7495,652260,0
1,2,708903,248348,1302398,74207,8548,651330,0
1,2,707089,248252,1315755,74128,8633,657969,0
1,-1,640279,219787,1263622,66075,7561,631838,0
1,2,713191,249563,1271314,74700,8617,635758,0
1,-1,661749,223896,1230238,69187,8062,615048,0
1,-1,638513,219348,1186007,65938,7573,593009,0
1,2,710703,247917,1467800,73907,8689,733843,0
1,-1,641521,219731,1221438,65999,7335,610643,0
1,2,712877,248644,1227603,74122,8329,613742,0
1,2,713907,248799,1418866,74206,9131,709471,0
1,-1,644173,221233,1320102,66805,8297,660037,0
1,2,713148,248391,1433233,74052,9269,716640,0
1,-1,642670,220146,1202720,66128,7255,601417,0
1,2,705754,248418,1410769,74132,9246,705395,0
1,-1,640745,220096,1288028,66063,7588,644048,0
1,2,709806,249256,1367283,74609,9979,683538,0
1,-1,642512,219541,1362348,65821,8039,680680,0
1,2,713140,249287,1478499,74575,10369,739063,0
1,-1,644064,220694,1201009,66491,7988,600666,0
1,2,716193,250093,1338128,74909,8808,669063,0
1,2,737861,254207,1439257,77908,10621,719526,0
1,-1,639363,219701,1184490,66054,7433,592294,0
1,2,717415,250215,1509180,74816,9164,754609,0
1,-1,643704,219806,1269359,66044,7249,634726,0
1,2,715031,249616,1360162,74632,10048,679985,0
1,2,715339,251703,1369159,75582,10252,684430,0
1,-1,646257,219670,1266823,66058,7864,633413,0
1,2,713000,249347,1453922,74542,10130,726960,0
1,2,712889,249752,1403187,74546,8995,701488,0
1,-1,645296,221262,1272596,66706,7463,636417,0
1,2,714904,249238,1422831,74273,9547,711498,0
1,-1,646326,220797,1157738,66237,7503,578817,0
1,2,717014,250814,1488209,75176,9642,744194,0
1,-1,641258,220806,1210945,66235,7355,605536,0
1,2,712804,248956,1294000,74282,9050,646825,0
1,-1,646352,221706,1323057,66710,9005,661465,0
1,2,737655,254296,1471878,77804,10551,735878,0
1,-1,665510,225949,1253535,69683,8779,626317,0
1,2,706371,248733,1458349,74218,10068,729220,0
1,-1,643613,220265,1412198,66090,8013,705254,0
1,-1,644831,220448,1298436,66120,7858,649301,0
1,2,714518,250973,1336112,75284,9419,667884,0
1,2,711507,248611,1348466,74153,8492,674266,0
1,2,715066,249503,1333340,74460,8004,666703,0
1,-1,645540,220974,1318159,66513,8712,659104,0
1,2,714596,249315,1387871,74550,9365,693975,0
1,2,714261,249636,1297342,74604,8937,648699,0
1,-1,660814,224482,1242015,69286,8333,620916,0
1,2,713813,249438,1324361,74530,9102,662230,0
1,-1,640816,219204,1457748,65914,9420,727979,0
1,2,742199,254640,1624176,77930,10817,812041,0
1,2,710655,248197,1274834,73927,8824,637463,0
1,-1,641848,219419,1486780,65867,9153,743158,0
1,2,711864,248159,1435737,73970,8590,717901,0
1,2,714245,249140,1309156,74330,8994,654424,0
1,2,713494,248347,1309227,74095,8571,654654,0
1,-1,639268,218892,1305107,65616,8489,652429,0
1,2,711200,248314,1333936,74137,8693,666941,0
1,2,711097,248118,1318104,74136,8994,659100,0
1,2,714383,248982,1348171,74745,9616,674144,0
1,-1,642171,219637,1313282,65951,7571,656617,0
1,2,712272,248301,1407227,74368,9466,703791,0
1,-1,635515,217952,1242337,65400,8023,621127,0
1,2,702900,248094,1381500,74260,8196,690777,0
1,2,729335,253075,1440090,77678,9630,720005,0
1,2,704409,247938,1380442,74155,8437,690241,0
1,-1,643925,219062,1246890,65816,8217,623493,0
1,2,714299,250690,1392509,75379,9241,696318,0
1,2,710091,248287,1305032,74350,8077,652569,0
1,-1,659398,223474,1255629,68950,7852,627674,0
1,2,712778,249301,1335879,74719,9279,667989,0
1,-1,637883,219096,1243969,65717,6809,621969,0
1,2,707524,248384,1290716,74232,8339,645435,0
2,-1,696717,239451,1345193,71713,8190,672438,0
2,2,760643,266343,1462374,78670,9336,731170,0
2,2,787440,271931,1509369,82252,10968,754698,0
2,-1,687955,236851,1303282,70579,7758,651627,0
2,2,715373,250409,1806619,74702,12315,902755,0
2,-1,699403,238907,1324048,71481,8666,662058,0
2,2,730304,253203,1414160,77124,10511,706936,0
2,2,710722,250367,1585427,74752,9854,791261,0
2,-1,645571,222864,1262582,66972,6704,631301,0
2,2,709517,249537,1508874,74430,9370,754298,0
2,-1,640690,219364,1266971,65942,6786,633558,0
2,2,709904,249391,1300947,74428,8922,650399,0
2,2,708563,247908,1399929,73681,8760,699993,0
2,2,703994,247678,1281992,73624,9211,640851,0
2,2,705270,247911,1327118,73726,8817,663590,0
2,-1,636362,218027,1207135,65439,6526,603547,0
2,2,711504,250200,1364908,74681,9596,682668,0
2,-1,661355,223583,1292778,69032,9556,645768,0
2,2,710138,248417,1341268,73735,9634,670679,0
2,-1,644470,220639,1286553,66455,7648,643274,0
2,-1,643800,221327,1216936,66752,7645,608430,0
2,2,711342,249914,1506816,74400,9556,753471,0
2,-1,637458,218623,1351937,65654,7966,675903,2
2,-1,638794,218261,1197333,65448,7324,598768,0
2,2,733160,253058,1448246,77113,10742,724186,0
2,2,714361,250767,1494492,74892,10030,747211,0
2,-1,638165,219502,1129655,65973,7232,564736,0
2,2,714934,249577,1482308,74566,9232,741222,0
2,-1,633142,218046,1177879,65499,6797,588948,0
2,2,711286,248579,1437788,74020,9529,718933,0
2,-1,637648,218796,1367133,65737,8053,683496,0
2,2,714694,249371,1376556,74294,10258,688327,0
2,-1,634619,218370,1125922,65611,6322,562863,0
2,2,711002,248640,1469690,74072,9544,734784,0
2,2,703732,248853,1374073,74045,9324,687078,0
2,2,703962,248154,1332064,73817,9449,666073,0
2,-1,638331,218796,1182452,65793,7304,591221,0
2,2,706746,248160,1344967,73865,9181,672409,0
2,2,709308,250089,1403487,74746,9252,701815,0
2,-1,639007,218926,1435438,65784,8800,718090,0
2,-1,640553,219219,1261560,65948,7165,630754,0
2,2,709429,248424,1322212,74018,9015,661115,0
2,2,706406,248819,1313342,74136,8514,656714,0
2,-1,634901,218488,1161620,65598,7065,580831,0
2,2,711151,250548,1436448,74870,9283,718249,0
2,-1,639068,218886,1212636,65894,7376,606318,0
2,2,711816,248920,1329112,74099,8875,664611,0
2,2,710197,250037,1419604,74642,8454,709885,0
2,-1,639765,219454,1199874,66001,7616,599959,0
2,2,705966,248886,1345103,73998,8168,672572,0
2,-1,644061,219793,1288714,66058,7688,644282,0
2,2,707924,248412,1303871,73840,8541,651990,0
2,2,708504,248200,1325580,73740,8515,662836,0
2,-1,641670,219040,1344390,65727,7567,672251,0
2,2,714149,250636,1422346,74957,9185,711228,0
2,-1,662228,224582,1396606,69273,9290,698247,0
2,2,710111,248574,1454616,73965,8998,725975,0
2,2,710911,249250,1362346,74200,8951,681161,0
2,-1,638693,219474,1196712,65878,6992,598403,0
2,2,711513,251073,1387736,75071,9082,693790,0
2,-1,644490,220757,1307871,66514,8018,653971,0
2,2,708966,248706,1354323,73947,8475,677220,0
2,2,712368,250143,1481149,74644,9468,740627,0
2,-1,641987,219736,1194357,66011,7767,597232,0
2,2,710460,248907,1363082,74054,8994,681465,0
2,2,707388,248799,1362440,74038,8868,681301,0
2,2,711079,249630,1414785,74305,8894,707250,0
2,-1,641963,219204,1187772,66011,6511,593979,0
2,2,708618,248709,1402751,74009,7869,701280,0
2,2,711639,248755,1368392,74026,9243,684218,0
2,-1,638441,218715,1283270,65819,7613,641686,0
2,-1,645216,220379,1304667,66575,8766,652424,0
2,2,706425,248105,1407805,73747,8094,703945,0
2,-1,646127,221265,1344258,66950,7988,671980,0
2,2,709913,248469,1419415,73714,8926,709749,0
2,-1,640177,218948,1243054,65882,7348,621577,0
2,2,713437,249125,1310912,73932,8760,655578,0
2,2,707862,248754,1312306,74013,8663,656178,0
2,-1,641290,218887,1405223,65868,8101,702677,0
2,2,715649,250309,1407212,74540,8636,703542,0
2,2,720367,251178,1410610,75089,9362,705364,0
2,-1,643246,219110,1236256,65884,8139,617872,0
2,2,718526,251261,1511772,74897,9952,756034,0
2,-1,646649,219381,1330734,66004,7634,665389,0
2,2,710846,250970,1516361,74720,9482,758239,0
2,2,712431,250204,1496082,74276,10812,748283,0
2,2,713341,249218,1612496,73874,10294,805968,0
2,-1,638662,219516,1305969,66113,8351,653032,0
2,2,716214,251111,1424803,75050,9669,712465,0
2,-1,640664,219670,1237834,66131,8395,618882,0
2,2,717213,249972,1331404,74250,9418,665676,0
2,2,716900,250741,1430880,74860,9775,715379,0
2,-1,635695,218528,1313594,65789,8060,656774,0
2,2,714741,251043,1681520,74973,10622,840648,0
2,-1,638499,219354,1151748,66012,7181,576003,0
2,2,712564,248901,1296379,74060,9696,648236,0
2,-1,631340,218524,1232201,65754,8060,615558,0
2,2,710770,249832,1468905,74327,9038,734492,0
2,-1,637320,219280,1283010,65983,7372,641362,0
2,2,736339,257658,1536208,76488,10003,768101,0
2,2,710070,248838,1427041,74117,9605,713007,0
2,-1,637451,218829,1274341,65822,6665,637282,0
2,2,711960,248496,1410356,73914,10205,705212,0
2,2,708163,248038,1310728,73587,8545,655154,0
2,-1,638544,218861,1153937,65887,7535,576953,0
2,2,716963,250318,1412074,74525,10421,706039,0
2,2,717666,251133,1413169,74764,10500,706461,0
2,-1,638330,219368,1270389,65913,7234,635224,0
2,2,713284,248235,1323900,73442,10243,661950,0
2,2,712120,249622,1354124,74028,9579,677139,0
2,-1,661913,224025,1293346,69261,8039,646682,0
2,2,710387,248135,1337336,73666,9282,668704,0
2,-1,639086,219141,1275605,65867,7293,637855,0
2,2,729187,252824,1361094,76978,9550,680502,0
2,2,714924,249837,1365006,74388,9387,682552,0
2,-1,639884,219808,1200950,66089,6535,600527,0
2,2,712487,249963,1310170,74440,8783,655160,0
2,2,712618,248515,1425671,73770,9935,713009,0
2,2,716928,250013,1322204,74453,9443,661176,0
2,-1,638009,219156,1164321,65908,6975,582163,0
2,2,733173,252627,1355968,76920,9735,678005,0
2,-1,638191,219116,1181199,65849,7684,590647,0
2,2,713755,249838,1339078,74493,9020,669503,0
2,2,712458,250160,1332118,74618,8517,666085,0
2,-1,636350,219676,1241857,66066,7060,620989,0
2,2,709086,248140,1399441,73623,8767,699729,0
2,2,713490,248494,1280430,73836,8835,640104,0
2,-1,639190,219462,1277899,66030,7215,638993,0
2,2,712438,247931,1304846,73576,8927,652474,0
2,-1,638898,219548,1179387,65983,7047,589778,0
2,2,713366,249219,1387719,74012,8435,693844,0
2,2,709067,248184,1299426,73641,8750,649200,0
2,-1,659656,224396,1217646,69421,7849,608805,0
2,2,736186,252810,1464376,76885,9459,732357,0
2,-1,640183,219846,1168954,66124,6701,584517,0
2,2,706133,248561,1408336,73286,8517,704217,0
2,2,707939,249438,1297619,73595,8720,648849,0
2,-1,643334,220258,1300529,66481,7081,650379,0
2,2,706760,248348,1373341,73262,8627,686720,0
2,2,704466,247870,1451074,73046,9225,725539,0
2,-1,643108,221244,1280415,66785,7743,640759,0
2,2,703795,248112,1431794,73185,9624,715686,0
2,2,705403,247667,1391155,73089,9185,695615,0
2,-1,643578,220314,1212548,66492,8013,606213,0
2,2,710385,249094,1418896,74447,9725,709501,0
2,-1,641987,219928,1262777,66189,7908,631305,0
2,2,712354,248475,1423492,74254,9702,711862,0
2,2,708923,247906,1528524,74014,10116,763926,0
2,-1,636199,219539,1307807,65986,7955,653932,0
2,2,707697,248249,1292206,74152,8413,645744,0
2,2,709009,248571,1354850,74215,8590,677405,0
2,2,710229,249381,1235885,74683,8393,617895,0
2,-1,639651,220165,1194959,66356,7616,597514,0
2,2,715202,249806,1330487,74866,8865,665279,0
2,2,728598,252531,1555110,77405,9741,777458,0
2,-1,637830,219612,1410758,65993,8133,705237,0
2,-1,658511,223864,1219646,69255,8341,609830,0
2,2,712890,248908,1594578,74432,10553,797095,0
2,-1,641223,219870,1390255,66090,7938,695042,0
2,2,711537,248068,1300526,74084,9023,650311,0
2,2,710580,249109,1297692,74397,9720,648915,0
2,-1,645131,221498,1355794,66909,8002,677912,0
2,-1,637368,219839,1272282,66092,7624,636037,0
2,2,708905,247571,1494430,73814,10201,747159,0
2,2,715122,249914,1333446,74931,8825,666790,0
2,-1,659649,224362,1257442,69399,8854,628789,0
2,2,713810,249804,1462457,74821,9032,731237,0
2,-1,639469,219669,1211121,66081,7729,605324,0
2,2,711065,248608,1387772,74302,8834,693971,0
2,2,712134,249053,1394939,74281,9410,697490,0
2,-1,644870,220746,1337880,66627,8636,668960,0
2,2,712510,248588,1384863,74290,8538,692494,0
2,2,713986,248698,1367646,74297,9248,683877,0
2,-1,645392,221698,1275262,67063,7544,637738,0
2,2,709489,248573,1373050,74148,8783,686574,0
2,-1,642228,219869,1283594,66146,7493,641880,0
2,-1,636576,218976,1312503,65768,8166,656148,0
2,2,713468,249306,1383891,74587,8171,691907,0
2,-1,640824,220567,1332376,66526,7208,666057,0
2,2,715378,248873,1302935,74272,8577,651522,0
2,2,733062,253208,1494967,77488,11042,747370,0
2,-1,661240,224303,1226250,69381,8303,613098,0
2,2,715676,250102,1334015,75014,9101,666992,0
2,-1,639980,219106,1313565,65694,8124,656821,0
2,2,703526,247954,1261536,73936,8424,630524,0
2,-1,643016,220791,1299542,66497,7661,649431,0
2,2,708433,248716,1321627,74336,9422,660845,0
2,-1,642774,219902,1255541,65998,7892,627873,0
2,2,741962,260484,1345242,78160,8659,672699,0
2,-1,643111,219503,1192370,65824,6503,596195,0
2,2,714075,249330,1524608,74612,9390,762357,0
2,2,711596,248696,1247662,74363,8915,623808,0
2,-1,637566,219400,1161814,65887,7492,580916,0
2,2,713473,249687,1410029,74657,9058,705022,0
2,-1,642734,220014,1180593,66064,7397,590350,0
2,2,712398,248849,1380305,74321,9658,689772,0
2,2,716018,249369,1417560,74537,9599,708770,0
2,-1,646897,220452,1315980,66348,7143,658132,0
2,2,712032,249681,1548013,74622,9725,773880,0
2,-1,644165,219684,1299406,66020,8129,649747,0
2,2,711971,249044,1325328,74273,9062,662435,0
2,2,716366,249926,1384021,74528,9489,691804,0
2,-1,645618,220397,1292176,66061,7639,646126,0
2,2,714160,249816,1352754,74575,9101,676274,0
2,-1,668727,224917,1267293,69358,8476,633578,0
2,2,734434,253791,1370998,77692,10195,685387,0
2,-1,640990,220634,1434169,66123,9425,717465,0
2,2,737437,257561,1386430,76857,9643,693237,0
2,-1,643984,221395,1237862,66628,8372,618906,0
2,2,734416,253679,1473035,77586,10870,736506,0
2,-1,648563,222477,1278356,67071,8350,638825,0
2,-1,642445,220144,1192169,66123,7316,596156,0
2,2,735355,253591,1467146,77650,10067,733584,0
2,2,732069,253815,1426919,77682,10068,713445,0
2,2,715372,249019,1313829,74256,9060,656974,0
2,-1,643464,219733,1331888,65976,8094,665720,0
2,2,711989,249420,1310729,74389,8049,655384,0
2,2,711691,248607,1423115,74211,9165,711610,0
2,-1,650550,221300,1303144,66602,7943,651499,0
2,2,718802,249423,1410063,74556,9545,705067,0
2,-1,642144,220188,1278933,66121,8001,639591,0
2,2,717769,249489,1299458,74411,8818,649737,0
2,2,706186,247143,1242319,73724,8982,621313,0
2,-1,641649,219929,1499652,66134,10004,749624,0
2,2,711156,248515,1602220,74145,10822,801058,0
2,2,732470,253543,1533159,77571,10095,766513,0
2,-1,665621,224789,1307077,69459,8903,653273,0
2,2,713277,248494,1380807,74090,8968,690405,0
2,2,709733,248028,1288512,73981,8169,644309,0
2,2,710080,247750,1403418,73938,9467,701753,0
2,-1,640099,219310,1231661,65800,6867,615763,0
2,2,710390,247972,1340073,74190,8905,670086,0
2,2,717422,249867,1658601,75136,10812,829284,0
2,-1,643090,219207,1294505,65787,7600,647264,0
2,2,703930,247768,1568753,74143,9345,784353,0
2,2,706112,247925,1258035,74244,8832,629065,0
2,2,714414,249966,1407016,75214,9249,703582,0
2,-1,644549,220201,1380493,66221,8053,690268,0
2,2,705948,248376,1390660,74402,8393,695386,0
2,2,713936,249749,1432052,74921,8883,716087,0
2,-1,638704,218953,1150332,65720,7407,575106,0
2,2,709218,248147,1471984,74278,9804,736010,0
2,-1,645949,221057,1415472,66602,8216,707708,0
2,2,711416,247874,1291618,73936,8396,645864,0
2,-1,642296,219192,1296711,65738,7347,648369,0
3,-1,710929,241689,1351955,73915,8509,675931,0
3,2,764019,267012,1438443,78909,9631,719217,0
3,2,763588,266285,1345044,78610,9203,672624,0
3,-1,692697,237132,1363377,70698,7977,681742,0
3,2,711487,248745,1291807,74027,8622,645905,0
3,-1,698074,238313,1354133,71282,8771,677044,0
3,2,709651,248380,1361949,73758,8929,680979,0
3,2,703749,248462,1408119,73934,9184,704070,0
3,-1,669123,229643,1275374,68442,7244,637644,0
3,2,704623,247949,1436535,73768,8191,718188,0
3,-1,639959,219535,1284107,66151,7237,642118,0
3,2,705874,248294,1273927,73820,8271,636866,0
3,2,710953,249962,1433275,74579,8731,716643,0
3,2,705403,247843,1271754,73698,8758,635845,0
3,-1,638540,218758,1286326,65673,7071,643236,0
3,2,703444,247528,1296472,73607,8773,648310,0
3,2,709235,248571,1349360,73914,9853,674177,0
3,2,709317,248138,1413948,73779,8552,707019,0
3,-1,639826,219042,1359599,65862,9405,679615,0
3,-1,639770,219121,1379988,65749,8043,690184,0
3,-1,643024,219199,1205072,65770,7838,602496,0
3,2,710436,249041,1390279,73929,9180,695163,0
3,-1,643725,220308,1295697,66346,7899,647768,0
3,2,710944,248336,1484580,73744,9800,742382,0
3,2,707731,248048,1503890,73605,9078,751915,0
3,-1,654867,223255,1319555,68924,8535,659664,0
3,-1,634703,218926,1181500,65883,7249,590716,2
3,2,709689,247708,1485936,73642,9127,742975,0
3,-1,633873,218661,1162742,65688,7247,581351,0
3,2,711334,248596,1345895,74051,9275,672882,0
3,-1,638925,219647,1326913,66061,8630,663412,0
3,2,714900,250536,1449408,74877,9200,724746,0
3,-1,637672,218997,1129519,65890,6728,564694,0
3,2,717538,251262,1473117,75227,10104,736385,0
3,2,702105,248086,1305817,73843,9296,652950,0
3,2,704149,247904,1404801,73781,9133,702392,0
3,-1,637529,218497,1272396,65617,7124,636162,0
3,2,728256,253316,1421604,77384,10660,710670,0
3,2,708769,249668,1438862,74581,9595,719498,0
3,-1,660291,223854,1267237,69195,8620,633545,0
3,-1,665537,224574,1286077,69994,8099,642868,0
3,2,708034,248503,1334170,73976,9432,667209,0
3,2,740352,259737,1461344,77591,9515,730741,0
3,-1,687644,232943,1265231,71878,8514,632496,0
3,2,711710,249154,1331806,74138,8642,665871,0
3,2,709684,249261,1314398,74206,8217,657241,0
3,-1,637358,218606,1427767,65739,8539,713893,0
3,2,706095,249303,1300181,74186,8336,650113,0
3,-1,641670,218716,1266336,65622,9152,633245,0
3,2,730923,252935,1375216,77096,10133,687559,0
3,-1,646678,221199,1389456,66818,8036,694604,0
3,2,709188,249069,1381634,74104,8611,690857,0
3,2,734109,253633,1472515,77373,9760,736069,0
3,-1,643957,219494,1333417,65912,7043,666766,0
3,2,729316,252988,1336878,77184,9350,668395,0
3,-1,638783,219514,1371736,65835,7792,685794,0
3,2,728799,253219,1449542,77272,9656,724559,0
3,2,712439,250199,1312534,74733,9189,656215,0
3,-1,646023,220521,1201707,66179,7906,600955,0
3,2,706466,249054,1524422,74078,9249,762251,0
3,-1,640890,219071,1291492,65788,7528,645836,0
3,2,713931,250680,1424765,74862,9058,712392,0
3,-1,660886,223947,1219076,69155,8245,609481,0
3,2,707389,248383,1398204,73885,9037,699181,0
3,2,708797,248881,1379537,74053,8977,689744,0
3,2,711908,249942,1583872,74582,10284,792037,0
3,-1,640470,219138,1207746,65885,7412,604036,0
3,2,709054,248258,1346065,73833,8908,673089,0
3,2,726825,252716,1342100,77109,8618,671111,0
3,2,714988,250737,1448817,74944,8963,724280,0
3,-1,638290,219141,1184606,65956,6910,592197,0
3,-1,642028,219883,1318442,66233,8109,659262,0
3,2,707930,248518,1394979,73904,9029,697321,0
3,-1,642936,219626,1376248,66132,8410,688005,0
3,2,708381,248638,1380111,73707,8895,690099,0
3,-1,641869,219927,1200505,66242,7631,600305,0
3,2,737221,254747,1408998,78160,10044,704468,0
3,2,709415,248484,1462365,73861,9417,731172,0
3,-1,645179,220619,1356124,66739,9106,677666,0
3,2,717843,250430,1425069,74618,8560,712194,0
3,2,715055,249496,1309368,74237,8206,654724,0
3,-1,649261,221349,1389447,66988,8898,694514,0
3,2,736803,255025,1402543,77609,10094,701241,0
3,-1,646576,219694,1304731,66175,8017,652241,0
3,2,706613,249822,1393436,74171,8612,696834,0
3,2,713213,250216,1465700,74254,10786,732928,0
3,2,712547,249627,1537336,74138,9979,768443,0
3,-1,639112,220361,1326004,66380,7992,663039,0
3,2,717042,251605,1423442,75089,9374,711797,0
3,-1,637586,218819,1141042,65894,7638,570518,0
3,2,711613,248467,1427168,73713,9650,713677,0
3,2,711920,249209,1306350,74047,8748,653139,0
3,-1,638039,219263,1256147,66001,7120,628160,0
3,2,732010,254092,1444139,77412,10038,722043,0
3,-1,639365,220079,1248600,66507,7859,624128,0
3,2,714833,250170,1364094,74680,10359,681840,0
3,-1,643423,220189,1248932,66523,8486,624787,0
3,2,710316,249034,1364021,74018,8937,682006,0
3,2,707139,248127,1461180,73626,9889,730641,0
3,-1,636509,219320,1274017,66004,7506,637059,0
3,2,710264,248221,1447337,73730,9655,723703,0
3,-1,642909,221459,1366824,66993,7486,683248,0
3,2,709841,248204,1436781,73780,9265,718411,0
3,2,711556,248866,1361471,73948,9955,680730,0
3,-1,643674,221159,1204963,66892,7296,602664,0
3,2,711648,248800,1321087,73853,9440,660570,0
3,-1,639854,219913,1325542,66095,7151,662824,0
3,2,711057,248686,1521216,73729,10165,760411,0
3,2,713374,248338,1448069,73526,10147,724147,0
3,2,711647,249954,1461824,74104,9913,730160,0
3,-1,640371,220606,1264982,66566,7026,632556,0
3,2,711529,248451,1323032,73693,8553,661555,0
3,-1,642544,219799,1147216,66106,6878,573534,0
3,2,708676,248731,1377980,73767,9133,689045,0
3,2,710104,248617,1282379,73757,8780,641243,0
3,-1,657587,224047,1240079,69291,7474,620058,0
3,2,708481,247762,1308608,73504,8854,654318,0
3,2,710863,248157,1505125,73591,9840,752337,0
3,-1,639620,219550,1268279,65927,6919,634178,0
3,2,708861,247639,1400710,73464,9444,700405,0
3,2,710697,247927,1349383,73550,9007,674731,0
3,-1,638867,219404,1138753,65935,6996,569422,0
3,2,707450,248224,1328967,73706,8839,664438,0
3,-1,641922,221205,1329486,66842,7617,664838,0
3,2,733683,253374,1383601,77171,9927,691735,0
3,2,706973,247686,1286632,73553,8444,643293,0
3,2,713155,248668,1281416,73822,8891,640715,0
3,-1,640008,219884,1292244,66091,7087,646171,0
3,2,712659,248717,1407990,73891,9520,704168,0
3,-1,638992,219123,1134003,65875,6947,567069,0
3,2,712557,248908,1312632,73856,8555,656325,0
3,-1,636435,219314,1253571,65898,7914,626834,0
3,2,710722,247548,1241413,73470,8368,620686,0
3,2,711737,247849,1413261,73359,8190,706674,0
3,-1,638263,219134,1135522,65856,6946,567819,0
3,2,709166,250043,1432290,73967,8340,716188,0
3,2,705837,248937,1476208,73425,9499,738273,0
3,-1,641415,220101,1259646,66180,6913,629846,0
3,2,708960,250251,1296600,74147,8862,648361,0
3,2,709858,249359,1272702,73771,8923,636328,0
3,-1,639370,219484,1261849,65960,7114,630869,0
3,2,726068,253301,1559856,76731,10134,779974,0
3,-1,641389,219021,1278189,65833,7703,639129,0
3,2,711883,250445,1305488,74411,8757,652529,0
3,2,711471,249013,1266772,74617,9364,633326,0
3,-1,663032,223853,1268292,69230,8318,634093,0
3,2,712291,248880,1452530,74348,9830,726308,0
3,2,713384,248745,1331848,74340,10420,666288,0
3,-1,656504,223556,1198034,69104,7173,599145,0
3,2,711409,248864,1479231,74320,10549,739689,0
3,2,706637,248035,1528946,74121,9617,764371,0
3,2,708042,248035,1306597,74116,9206,653345,0
3,-1,637653,219646,1142569,66072,6837,571332,0
3,2,711598,248337,1404257,74189,8983,702169,0
3,-1,638320,218619,1201864,65776,6927,600649,0
3,2,709827,248650,1371046,74340,9011,685593,0
3,-1,638238,220021,1283588,66117,7637,641906,0
3,2,709345,248598,1503150,74233,9907,751443,0
3,-1,641138,219834,1323148,66093,8492,661676,0
3,2,713510,248536,1403225,74277,9202,701659,0
3,2,728786,252758,1383064,77464,10789,691535,0
3,-1,662937,224781,1248436,69479,8127,624125,0
3,-1,648332,221438,1349571,66840,8240,674851,0
3,2,730504,252750,1455996,77402,10082,727893,0
3,2,713599,250197,1630793,75059,10520,814856,0
3,-1,639969,219723,1278589,65976,7613,639336,0
3,2,713514,249342,1295770,74779,8303,647817,0
3,-1,641302,220630,1266088,66573,8425,633059,0
3,2,711429,249161,1310279,74682,8469,655202,0
3,2,714229,249997,1337631,74797,9373,668884,0
3,-1,639902,219707,1206894,66090,6708,603517,0
3,2,708124,247276,1389183,73708,8319,694636,0
3,2,734298,252967,1381257,77489,10268,690616,0
3,-1,661770,223733,1252004,69133,7421,625984,0
3,2,706748,248013,1380707,73880,8680,690388,0
3,-1,640213,219116,1223407,65858,7185,611689,0
3,-1,643221,219347,1229283,65936,7859,614551,0
3,2,709843,248285,1310298,73938,8397,655190,0
3,-1,638708,219473,1274513,66006,6820,637257,0
3,2,713174,248409,1347971,74018,10021,674017,0
3,2,709637,248185,1402124,73990,9495,700487,0
3,-1,640226,220067,1301968,66216,7902,650734,0
3,2,711431,248690,1394794,74189,8963,697406,0
3,-1,643404,220931,1282170,66597,7928,641104,0
3,2,705655,249294,1462788,74441,8635,731399,0
3,-1,639228,219567,1196133,65923,7200,598117,0
3,2,709710,248662,1306109,74215,8746,652929,0
3,-1,637503,217955,1253079,65351,7172,626585,0
3,2,713672,250678,1348780,75130,8904,674794,0
3,-1,643557,219976,1301474,66024,6611,650781,0
3,2,713888,249558,1461676,74728,9945,730900,0
3,2,717277,251442,1270288,75648,9117,635503,0
3,-1,637673,219077,1233460,65709,7198,616780,0
3,2,717525,250663,1379927,75167,9169,690691,0
3,-1,642176,219651,1310311,65965,7262,655250,0
3,2,714135,249231,1419079,74451,10267,709622,0
3,2,715324,249263,1496132,74510,10435,747936,0
3,-1,645175,220231,1170651,66236,7167,585374,0
3,2,709666,249011,1318351,74383,9224,659109,0
3,-1,645597,220297,1358879,66257,7945,679303,0
3,2,714019,250208,1409227,74709,9764,704496,0
3,-1,646935,221176,1223761,66338,6438,611752,0
3,2,715536,249653,1411034,74456,9413,705574,0
3,2,714418,250163,1371012,74881,9564,685351,0
3,-1,650037,221499,1338609,66471,8382,669363,0
3,2,713930,249245,1506848,74407,9422,753405,0
3,-1,642032,220464,1362685,66070,8862,681095,0
3,2,715175,249131,1511108,74348,9927,755674,0
3,-1,667864,229639,1211187,68820,8050,605504,0
3,2,716016,248899,1337782,74316,9412,668838,0
3,-1,666155,225690,1406499,69633,9503,703193,0
3,2,731231,253665,1350153,77661,10362,675060,0
3,-1,641798,220240,1284911,66106,7443,642470,0
3,2,713979,250340,1418999,74966,8726,709525,0
3,2,716901,250086,1363356,74544,9718,681806,0
3,-1,640617,219677,1314087,65985,7786,657033,0
3,2,713553,250473,1308893,75040,8963,654506,0
3,2,715645,249278,1270391,74511,8821,635253,0
3,-1,644970,220080,1313284,65991,8138,656604,0
3,2,716722,248991,1404360,74392,9631,702226,0
3,-1,641896,219689,1147414,65904,7573,573594,0
3,2,717059,249163,1412483,74347,8822,706287,0
3,2,711440,249285,1292183,74356,8998,646106,0
3,-1,640000,219568,1175472,65975,6976,586539,0
3,2,714298,250001,1349477,74834,8854,674803,0
3,2,712241,249550,1635437,74505,11124,817367,0
3,-1,641044,219353,1305532,65840,8493,652829,0
3,2,712139,248763,1310555,74175,8860,655326,0
3,2,713076,248904,1382743,74322,8828,691421,0
3,2,713142,248886,1379037,74384,8829,689648,0
3,-1,641203,219535,1323612,65921,7798,661885,0
3,2,709126,247720,1630290,74104,11149,815186,0
3,2,711578,247694,1288561,74176,8856,644320,0
3,-1,646310,220896,1290304,66660,8234,645165,0
3,2,723888,250683,1336715,75453,8891,668444,0
3,2,704554,247690,1558955,74091,10087,779567,0
3,-1,643292,220233,1681716,66249,9620,840827,0
3,2,709756,248244,1239177,74318,8867,619648,0
3,2,705993,247610,1388091,74105,8439,694091,0
3,-1,638818,219483,1192034,65893,7466,596070,0
3,2,708671,247614,1295899,74082,8320,647910,0
3,2,729633,253076,1378912,77695,9918,689514,0
3,-1,641762,219755,1515667,66017,9042,757828,0
3,2,709721,248149,1360804,74174,9084,680451,0
3,-1,640209,218672,1570790,65635,9593,785392,0
4,-1,689985,237338,1232447,70778,7799,616188,0
4,2,763164,266478,1364022,78762,9387,681789,0
4,2,763076,267026,1380611,78933,8912,690249,0
4,-1,690964,236534,1233995,70479,7710,616996,0
4,2,706111,247706,1354986,73633,8618,677483,0
4,-1,695524,237983,1316742,70957,8223,658347,0
4,2,708587,247949,1326356,73553,8764,663172,0
4,-1,675952,232088,1183287,69204,7452,591663,0
4,2,702286,247416,1569282,73493,9496,784608,0
4,2,705882,247812,1379729,73630,9255,689901,0
4,-1,637459,218246,1250158,65652,7714,625094,0
4,2,709699,249831,1397489,74646,8992,698569,0
4,2,707159,248198,1366856,73785,8783,683412,0
4,2,727135,253170,1331372,77195,10341,665674,0
4,-1,642123,220631,1278100,66487,7560,639076,0
4,2,708375,247870,1388531,73779,8963,694166,0
4,2,715407,250167,1477745,74585,10316,738817,0
4,-1,638048,218551,1332991,65678,8754,666376,0
4,2,711919,249442,1500173,74293,9245,750141,0
4,-1,638634,218867,1222346,65677,7807,611225,0
4,-1,639021,218103,1292023,65330,7465,645980,0
4,2,711474,249001,1484394,73842,10247,742238,0
4,2,715524,250782,1590100,74831,9849,795119,0
4,-1,642455,219520,1272410,65936,8127,636295,0
4,2,711560,249158,1419008,74090,9501,709289,0
4,-1,633451,218892,1265077,65772,7355,632132,0
4,2,713074,249338,1390954,74176,8742,695517,0
4,-1,634974,217897,1152750,65564,6633,576398,0
4,2,710953,248423,1387758,73934,9903,693928,0
4,-1,639134,219880,1274831,66311,7530,637451,0
4,2,708446,248266,1356184,73911,9016,678130,0
4,-1,634397,219514,1151248,66039,6780,575696,2
4,-1,652021,221948,1307621,68671,7510,653771,0
4,2,730642,253072,1411675,77313,10484,705856,0
4,2,708164,248678,1361677,74053,8721,681065,0
4,2,729599,256782,1464353,76422,8997,731985,0
4,-1,637184,218790,1176130,65801,6540,588026,0
4,2,705436,248494,1453359,74008,9765,726660,0
4,2,705939,248108,1392478,73862,9585,696245,0
4,-1,636301,218439,1176096,65658,6747,588051,0
4,-1,639257,219065,1170826,65884,6747,585406,0
4,2,708311,248387,1474691,73989,8929,737394,0
4,2,706762,248456,1360704,74004,8715,680396,0
4,-1,635211,218255,1227650,65547,7773,613906,0
4,2,711979,249829,1443383,74487,8708,721728,0
4,2,711539,249182,1394550,74150,8242,697318,0
4,-1,640534,219931,1307810,66412,7846,653994,0
4,2,706873,249147,1306532,74154,8619,653321,0
4,-1,643910,219930,1299846,66043,8692,649855,0
4,2,707659,247790,1392304,73599,8668,696203,0
4,-1,660212,223162,1563257,68918,8339,781859,0
4,2,715139,249952,1448495,74531,9621,724225,0
4,2,712490,249232,1412289,74115,8971,706190,0
4,-1,641280,218814,1184876,65664,7220,592489,0
4,2,710463,250079,1411950,74629,8913,705872,0
4,2,711194,249215,1386909,74165,8917,693445,0
4,-1,636711,218971,1274945,65703,7800,637581,0
4,2,730711,253664,1307580,77433,9374,653817,0
4,-1,642804,219647,1279860,65849,7339,640098,0
4,2,705052,248455,1297176,73860,9119,648619,0
4,-1,639780,219325,1253632,65777,7488,626859,0
4,2,727496,252872,1357831,77097,9365,678758,0
4,2,708017,248946,1439903,74034,9874,719969,0
4,-1,636535,218470,1254981,65619,7021,627548,0
4,2,708276,248635,1500703,73934,9432,750123,0
4,2,711453,249965,1449625,74409,9439,724775,0
4,-1,639231,219066,1265764,65877,7217,632933,0
4,2,710421,248717,1299476,74024,8540,649747,0
4,2,708831,249548,1392998,74256,8952,696483,0
4,2,710916,248311,1358786,73800,9533,679431,0
4,-1,642091,220772,1305419,66717,7853,652766,0
4,-1,644922,220567,1317015,66639,8365,657972,0
4,-1,640629,219080,1418050,65920,8001,708662,0
4,2,711400,248816,1387399,73994,8780,693753,0
4,2,709498,249040,1373781,74008,8972,686940,0
4,-1,640527,219651,1175663,66170,7802,587877,0
4,2,711030,248736,1372313,73876,8425,686219,0
4,2,715785,250930,1457803,75060,9460,728940,0
4,-1,640212,219057,1188197,65911,7947,593976,0
4,2,733680,253975,1407942,77382,9146,703930,0
4,2,714129,249884,1410892,74373,8239,705499,0
4,-1,664341,223615,1271913,69226,8904,635881,0
4,2,716801,249114,1328763,73907,8167,664478,0
4,-1,645705,219450,1250798,66072,7587,625068,0
4,2,715561,250194,1412964,74272,8820,706527,0
4,2,731686,254407,1463349,77454,10164,731648,0
4,-1,640637,221438,1381074,66996,8733,690484,0
4,2,712402,249308,1374048,73902,9449,687183,0
4,2,710434,249701,1453522,74183,9701,726812,0
4,-1,641757,220943,1268779,66791,8825,634272,0
4,2,713860,249603,1491898,74122,10195,745285,0
4,2,712248,250390,1323077,74767,9457,661431,0
4,-1,632837,217703,1165799,65570,6919,582833,0
4,2,714428,248878,1377973,73944,9943,688942,0
4,-1,656004,222952,1250965,68971,7389,625516,0
4,2,714433,248954,1410388,74019,9615,705240,0
4,-1,639565,219038,1185212,65910,7364,592938,0
4,2,709438,249121,1485644,74062,9909,742659,0
4,2,706502,248781,1452105,73953,9272,726038,0
4,-1,636050,219014,1270324,65900,7639,635214,0
4,2,729748,253036,1400743,77097,9834,700264,0
4,-1,637803,219368,1267818,66022,6764,633955,0
4,2,709598,248368,1308849,73882,8618,654574,0
4,2,716596,251264,1443638,74979,9635,721650,0
4,-1,659497,223719,1211952,69291,7245,605878,0
4,2,710293,248730,1479928,73781,10170,739980,0
4,-1,637924,219592,1332887,66048,6985,666495,0
4,2,709546,248515,1409461,73608,10189,704794,0
4,2,719288,250941,1438105,74624,10381,719106,0
4,2,712664,250899,1385791,74553,9352,692890,0
4,-1,638060,218734,1246452,65733,7463,623276,0
4,2,713382,250299,1396695,74521,8346,698320,0
4,-1,637956,219006,1210570,65859,7528,605033,0
4,2,714982,250440,1448097,74568,9894,723720,0
4,2,710061,248495,1457757,73776,9572,728915,0
4,-1,635836,219318,1249073,65923,7347,624602,0
4,2,709359,248497,1359464,73757,9264,679765,0
4,2,707997,247587,1524142,73412,8953,761764,0
4,-1,636931,218874,1261895,65769,6629,630913,0
4,2,713908,250408,1589176,74640,9659,794693,0
4,2,713542,249343,1317213,74325,9242,658664,0
4,-1,643097,221024,1202355,66697,7530,601227,0
4,2,712841,250561,1326716,74679,9284,663352,0
4,-1,640169,219328,1276243,65962,7712,638161,0
4,2,709458,248310,1423908,73730,8943,711941,0
4,2,715164,248808,1426221,73910,9310,713101,0
4,2,716063,250283,1302412,74631,8745,651152,0
4,-1,638149,219450,1232652,65995,7778,616409,0
4,2,712143,247555,1423836,73374,8962,711944,0
4,-1,642428,220996,1197553,66773,7123,598845,0
4,2,710165,248257,1536679,73709,9101,768312,0
4,-1,646348,221001,1358300,66769,8135,679175,0
4,2,714965,249091,1429107,73922,8887,714560,0
4,2,713858,248318,1402665,73623,8597,701380,0
4,-1,644022,220773,1216352,66635,7523,608296,0
4,2,704351,248655,1378310,73327,8830,689203,0
4,2,703859,248265,1699377,73118,9796,850134,0
4,-1,638353,218951,1166226,65784,7135,583169,0
4,2,726734,253210,1425626,76586,9993,712760,0
4,2,703909,248007,1421556,73049,9438,710822,0
4,-1,637978,219879,1257094,66094,7561,628627,0
4,2,710086,248334,1456557,73239,9398,728189,0
4,-1,660266,223776,1222646,69237,8070,611079,0
4,2,727740,253050,1429635,76674,9754,714809,0
4,2,706753,248064,1309968,74083,10417,655036,0
4,-1,640466,219260,1141366,65904,6818,570643,0
4,2,716017,250744,1326115,75299,9862,663131,0
4,2,712014,248272,1304875,74129,10218,652478,0
4,-1,634991,219143,1263902,65885,7313,631997,0
4,2,713860,250610,1362114,75228,9957,681137,0
4,2,708470,248420,1436149,74201,9643,718151,0
4,-1,639845,220011,1215235,66183,7430,607564,0
4,2,710273,247736,1276950,73960,9306,638501,0
4,2,708661,248086,1389329,74098,9049,694717,0
4,2,707238,247484,1303154,73899,8380,651626,0
4,-1,639291,219766,1283695,66095,8113,641827,0
4,-1,636453,219629,1243533,66087,7859,621812,0
4,2,706653,247661,1453587,73817,8852,726523,0
4,-1,637425,218796,1269209,65848,7795,634706,0
4,2,711805,248285,1275200,74208,8523,637621,0
4,2,705145,247692,1295852,73956,9367,647972,0
4,-1,641047,219757,1207153,66097,7332,603771,0
4,-1,665254,224625,1249647,69465,8251,624853,0
4,2,707593,247889,1435378,73993,8308,717769,0
4,-1,638147,219571,1286738,66041,7239,643120,0
4,2,706748,247730,1381116,74018,9782,690578,0
4,2,711331,248976,1313610,74609,8999,656817,0
4,-1,640464,220129,1224743,66216,7335,612428,0
4,2,707575,248080,1420536,74039,9047,710297,0
4,2,707854,247811,1416595,73851,9083,708337,0
4,-1,640123,220078,1277515,66452,7242,638961,0
4,2,713872,250190,1317159,74938,8477,658659,0
4,2,713529,248320,1343344,74150,9073,671712,0
4,-1,639218,219241,1221200,65890,6540,610647,0
4,2,711983,250532,1282109,75109,8975,641131,0
4,-1,640409,219509,1241256,66040,7105,620614,0
4,-1,646442,220616,1304929,66545,8681,652460,0
4,2,710577,248887,1355931,74224,8675,678018,0
4,-1,638040,219497,1397997,65925,7198,698738,0
4,2,715402,250093,1306818,74930,9314,653497,0
4,2,712157,248747,1445288,74174,9684,721937,0
4,-1,637831,219220,1185021,65893,6730,592554,0
4,2,711776,247992,1403963,73881,9437,701975,0
4,-1,661044,224121,1227155,69178,7544,613569,0
4,2,718208,249430,1346682,74432,9448,673346,0
4,-1,644739,220257,1297718,66142,8197,648904,0
4,2,715298,250731,1381920,75303,9569,690871,0
4,-1,640395,219818,1233784,65912,7823,616927,0
4,2,718234,251221,1481934,75464,9788,740894,0
4,-1,645947,221175,1341569,66604,7001,670858,0
4,2,714429,250193,1391019,75094,9500,695573,0
4,2,712674,249827,1436486,74790,9115,718188,0
4,-1,649718,221319,1343873,66767,7948,672002,0
4,2,713767,248964,1487301,74394,9434,743689,0
4,-1,644017,220388,1310947,66125,7988,655521,0
4,2,717073,251023,1341934,75336,9872,671038,0
4,2,715487,249415,1493561,74498,9757,746806,0
4,-1,643108,219982,1209710,66082,6818,604901,0
4,2,715380,249682,1396075,74592,9200,698075,0
4,2,713217,248952,1331277,74301,9210,665827,0
4,-1,650524,222764,1289328,67423,8178,644720,0
4,2,713857,248806,1433087,74078,9744,716319,0
4,-1,645036,220101,1288829,65962,7392,644459,0
4,2,710203,248741,1399046,74166,9499,699180,0
4,-1,648287,220524,1252300,66179,7879,626100,0
4,2,711545,249333,1388573,74396,8956,694359,0
4,-1,644164,221812,1310556,66780,8749,655263,0
4,2,714670,249259,1468617,74372,9141,734242,0
4,-1,638525,219412,1236184,65673,8753,617889,0
4,2,715000,249144,1332373,74394,9208,666113,0
4,-1,642032,220256,1375243,66060,8288,687709,0
4,-1,664371,225604,1308277,69663,8772,654084,0
4,2,712026,249314,1402311,74447,10579,701047,0
4,2,712730,248295,1447063,74074,9951,723426,0
4,-1,641081,219705,1279667,65979,7777,639884,0
4,2,713470,249238,1237435,74227,8347,618763,0
4,2,739953,255068,1465517,78120,9809,732745,0
4,2,714440,248787,1370630,74306,9428,685105,0
4,-1,645950,220299,1191384,66120,7720,595646,0
4,2,717453,249711,1315880,74646,9057,657982,0
4,-1,640687,219772,1190883,65985,7434,595436,0
4,2,722166,251448,1361552,75347,9854,680852,0
4,-1,638668,219355,1284368,65867,7457,642159,0
4,2,713169,249226,1469041,74401,10272,734573,0
4,2,711976,248463,1392628,74140,8415,696365,0
4,2,718032,249894,1340103,74769,8356,670208,0
4,-1,640516,219576,1433052,65968,8677,716111,0
4,2,720554,250227,1484121,74856,9841,742120,0
4,2,710838,249008,1377773,74396,8767,688733,0
4,2,713410,247874,1299878,74042,7790,650191,0
4,-1,642619,220491,1294849,66423,7779,647370,0
4,2,738574,252892,1433655,77646,10200,716797,0
4,2,710721,247617,1403006,74008,9221,701552,0
4,-1,639902,218897,1299526,65724,7658,649731,0
4,2,714552,248045,1261766,74266,8552,630929,0
4,2,705127,247736,1546670,74136,10764,773152,0
4,-1,643871,219626,1210289,66044,7563,605187,0
4,2,706081,247216,1328892,73935,9011,664495,0
4,2,712400,249731,1425187,75097,10034,712660,0
4,-1,639190,220305,1282630,66454,7699,641239,0
4,2,707964,247923,1436751,74208,9347,718393,0
4,2,706459,247656,1415099,74079,8596,707593,0
4,-1,639156,219255,1193249,65780,7376,596497,0
4,2,710228,248063,1351976,74052,8842,676039,0
4,-1,645781,220939,1323055,66579,7801,661494,0
5,-1,690583,237362,1235338,70767,7275,617695,0
5,2,767714,269130,1447691,79838,9449,723930,0
5,2,760475,265971,1450384,78503,8962,725233,0
5,-1,691451,237169,1334026,70638,7708,666985,0
5,2,715628,250553,1427416,74907,8987,713691,0
5,-1,691854,236979,1248921,70643,6989,624476,0
5,2,729772,252854,1484162,76977,9886,742174,0
5,-1,713196,243177,1287836,74374,8099,643705,0
5,2,711082,248114,1349891,73653,8620,674951,0
5,2,709955,249188,1274574,74104,8534,637281,0
5,-1,637243,218933,1254707,65804,6810,627255,0
5,2,703220,247820,1361610,73698,8554,680854,0
5,2,710874,249830,1409630,74507,8394,704776,0
5,-1,637484,218825,1237874,65780,7195,618933,0
5,2,702279,247111,1442167,73345,8891,721086,0
5,2,711115,248811,1409701,73963,8328,704880,0
5,2,712113,248518,1316492,73975,8757,658230,0
5,-1,643118,220356,1262884,66525,7401,631416,0
5,2,718607,251000,1506148,74998,9953,753067,0
5,-1,637269,218801,1270039,65643,7954,634990,0
5,-1,645199,220574,1343180,66415,8125,671581,0
5,2,717809,251843,1637378,75083,11019,818492,0
5,2,712716,249432,1387198,74151,8923,693700,0
5,-1,639407,218768,1232165,65607,7791,616027,0
5,2,713020,250097,1526594,74564,10199,763308,0
5,-1,640748,218072,1162808,65299,7031,581360,0
5,2,731957,253374,1490683,77353,9874,745511,0
5,-1,635601,218118,1166338,65497,6974,583092,0
5,2,709574,248366,1389039,73926,9601,694563,0
5,-1,638376,218739,1313765,65724,7637,656835,0
5,2,713061,248212,1280928,73932,7959,640502,0
5,-1,638942,218584,1241361,65711,7174,620699,0
5,2,714135,248629,1474015,74018,9279,736997,0
5,2,718501,250188,1439819,74840,9986,720010,0
5,2,726237,253297,1407549,77385,10232,703571,0
5,-1,636649,219057,1250886,65896,7120,625434,2
5,-1,639298,218968,1209000,65851,7471,604518,0
5,2,705212,248542,1320186,74038,9057,659999,0
5,-1,636277,218699,1220188,65684,6608,610126,0
5,2,712489,251154,1415450,75154,10103,707705,0
5,-1,637084,218238,1278439,65571,7440,639216,0
5,2,706039,248036,1416387,73778,9096,708315,0
5,2,708361,249958,1421531,74766,9314,710872,0
5,-1,637642,219033,1117273,65834,7096,558616,0
5,2,710851,248985,1347359,74104,8835,673730,0
5,-1,642900,220495,1489996,66630,9057,744925,0
5,2,730068,253160,1373702,77271,8820,686838,0
5,2,705639,249108,1323269,74076,8549,661686,0
5,-1,638657,218343,1243465,65589,7909,621691,0
5,2,707188,248951,1343859,74068,9305,671974,0
5,-1,640669,219366,1528190,65956,7754,764372,0
5,2,704366,247746,1402231,73683,9237,701323,0
5,2,710963,249075,1297932,74100,7890,649009,0
5,-1,660801,222957,1261270,68855,8120,630661,0
5,2,710270,249290,1432948,74189,9107,716298,0
5,2,713551,250456,1344588,74765,8566,672072,0
5,-1,637925,219432,1194999,65934,7665,597580,0
5,2,711772,248617,1257774,74010,8930,628811,0
5,-1,641491,219226,1212502,65713,7211,606300,0
5,2,710113,250653,1370973,74875,9151,685561,0
5,-1,660953,224039,1241023,69207,8440,620560,0
5,2,712141,250135,1440538,74669,9754,720287,0
5,-1,637290,218898,1312615,65719,7828,656321,0
5,2,706815,248881,1375545,74048,8161,687764,0
5,2,709335,249166,1466476,74061,9050,733278,0
5,2,708481,248945,1373714,74075,8940,686900,0
5,-1,642254,219549,1297712,66074,7924,648909,0
5,2,709683,248499,1353326,73922,8144,676572,0
5,2,712166,248683,1343963,73973,9180,671987,0
5,2,716742,251009,1420591,74999,10457,710251,0
5,-1,639098,219310,1187837,66077,7587,593969,0
5,-1,663331,224239,1356693,69423,8808,678688,0
5,-1,644004,220547,1351830,66631,8109,675601,0
5,2,708934,248807,1358331,73978,8502,679036,0
5,2,708610,249103,1417988,73938,9056,709053,0
5,-1,664954,223920,1367740,69342,7935,683840,0
5,2,711957,249478,1390178,74105,8731,695127,0
5,-1,640935,218944,1313515,65906,8510,656803,0
5,2,730793,253322,1453117,77223,9423,726536,0
5,2,712425,249765,1405868,74283,8642,703007,0
5,2,713739,249490,1316219,74171,9146,658165,0
5,-1,643692,219935,1377512,66229,8208,688426,0
5,2,715604,249486,1383412,74064,9300,691748,0
5,-1,645948,219400,1396378,66027,7945,697894,0
5,2,715890,249493,1343482,73989,8956,671767,0
5,2,711334,250541,1518148,74380,10067,759113,0
5,-1,632477,218589,1288149,65708,8249,643985,0
5,2,709529,249827,1381385,74187,9531,690703,0
5,2,710754,249005,1376342,73925,9449,688152,0
5,-1,638996,219376,1288149,66079,7398,644011,0
5,2,712470,249566,1413058,74122,9338,706586,0
5,2,730026,253811,1287339,77349,9832,643551,0
5,-1,632236,217963,1300196,65526,7585,649766,0
5,2,715404,249664,1386913,74409,10036,693445,0
5,-1,638916,219801,1197193,66210,6908,598706,0
5,2,734078,253676,1467968,77277,10116,733939,0
5,-1,638268,218888,1171427,65908,7187,585735,0
5,2,706477,248421,1335765,73874,9652,667860,0
5,-1,656633,223325,1206644,69136,8247,603377,0
5,2,714083,249247,1713505,74010,11026,856740,0
5,2,713123,249766,1405854,74449,9871,702757,0
5,-1,639451,220374,1318201,66508,7680,659138,0
5,2,709835,248150,1466345,73707,9270,733140,0
5,-1,637811,219177,1284936,65930,7160,642520,0
5,2,733324,254169,1449619,77456,10113,724757,0
5,2,733819,254113,1378715,77398,10142,689382,0
5,2,711712,248277,1495138,73663,9534,747617,0
5,-1,636909,219294,1310615,65962,7443,655356,0
5,2,733668,253248,1419447,76962,10995,709593,0
5,2,708535,248864,1611819,73674,9687,805800,0
5,-1,638419,218636,1254281,65623,7055,627242,0
5,2,706636,248179,1309527,73606,8451,654885,0
5,-1,636659,218582,1171997,65685,6785,585905,0
5,2,709609,248373,1526557,73663,9652,762495,0
5,2,711159,249073,1521535,73953,8944,760797,0
5,-1,640147,221004,1301969,66677,7186,651090,0
5,2,705591,248296,1495549,73673,9381,747329,0
5,-1,670544,231233,1315722,69921,7363,657889,0
5,2,711661,248776,1524770,73814,9377,762382,0
5,2,711022,248238,1397515,73649,9066,698768,0
5,2,731907,253115,1409520,77064,9538,704687,0
5,-1,637985,219434,1121379,65977,7266,560747,0
5,2,728146,253182,1507127,77097,10506,753094,0
5,-1,639619,219238,1177523,65962,7070,588814,0
5,2,710300,248809,1405547,73877,8874,702784,0
5,2,712811,248240,1300630,73581,8913,650086,0
5,2,712181,248729,1397871,73884,8952,698912,0
5,-1,642322,221081,1318925,66701,8139,659144,0
5,2,732720,252878,1432209,76995,10293,716059,0
5,-1,658135,223759,1153975,69200,7620,576948,0
5,2,731696,252612,1443559,76859,9789,721664,0
5,-1,642476,219759,1378708,66094,7615,689402,0
5,2,714033,248450,1451603,73729,9478,725586,0
5,2,709187,247720,1397807,73399,8410,698862,0
5,-1,640087,219228,1327408,65905,7199,663754,0
5,2,701629,247820,1283059,72960,8359,641536,0
5,2,705347,248478,1373794,73272,8375,686883,0
5,-1,665041,224656,1267510,69487,7838,633719,0
5,2,702035,247913,1327697,73038,8855,663882,0
5,2,703884,247851,1278839,73050,8415,639463,0
5,-1,643061,219774,1263634,66111,7449,631787,0
5,2,707424,248317,1347217,73181,9562,673408,0
5,-1,636941,218148,1278140,65631,7849,639066,0
5,2,704837,248103,1323463,73270,8739,661711,0
5,2,709282,248668,1350738,74173,10424,675417,0
5,-1,642879,220643,1209425,66606,7912,604634,0
5,2,712810,249938,1319302,74873,9440,659662,0
5,2,710942,248178,1344630,74176,9662,671812,0
5,-1,646766,219766,1334617,66057,7844,667394,0
5,2,707001,247956,1582592,74087,10611,791092,0
5,2,726548,252998,1539560,77426,10676,769800,0
5,-1,658680,224105,1389057,69212,8097,694540,0
5,2,710708,248245,1242156,74208,9067,621135,0
5,2,713154,248660,1412822,74334,9279,706452,0
5,2,710232,248375,1337222,74221,9208,668672,0
5,-1,637019,219255,1250491,65905,7069,625096,0
5,-1,642121,219929,1269362,66059,7629,634683,0
5,2,745492,259427,1498134,77816,11275,749134,0
5,-1,658557,223944,1198284,69270,7817,599170,0
5,2,709834,247803,1451033,74010,9822,725635,0
5,2,708593,249300,1380010,74522,9764,689922,0
5,-1,642246,220685,1287281,66600,7652,643746,0
5,-1,641604,219796,1304963,66144,7554,652475,0
5,2,706984,248017,1299113,74086,8767,649678,0
5,-1,636176,219174,1295973,65866,7934,648013,0
5,2,712340,249266,1255930,74658,8728,627927,0
5,2,707441,247547,1432779,73918,9718,716454,0
5,-1,638555,219770,1298596,66073,7660,649347,0
5,2,711510,249260,1245104,74672,8314,622643,0
5,2,711600,248604,1390964,74206,9037,695299,0
5,-1,642059,219824,1318396,66016,8172,659254,0
5,2,711891,248532,1328198,74167,8706,664293,0
5,2,715065,249534,1371098,74887,9114,685641,0
5,-1,640374,219528,1231154,66040,6806,615656,0
5,2,709163,248647,1319875,74139,8318,659831,0
5,-1,640606,219918,1314316,66092,8304,657041,0
5,-1,642683,219353,1309590,65928,8256,654894,0
5,2,708816,248201,1357662,73983,9138,678869,0
5,-1,640408,220689,1320356,66306,6811,660036,0
5,2,712372,248077,1283937,73992,9032,642079,0
5,2,716968,250727,1424885,75168,9985,712211,0
5,-1,664316,228782,1314567,68767,7440,657302,0
5,2,740282,258111,1432467,76966,8906,716271,0
5,-1,637683,219105,1431536,65690,7325,715825,0
5,2,713807,248651,1359147,74168,10016,679558,0
5,-1,640354,219021,1129371,65715,7105,564588,0
5,2,707452,248561,1394290,74395,9777,697150,0
5,-1,639819,220044,1279491,66004,7911,639791,0
5,2,714798,249774,1288108,74716,8961,644027,0
5,-1,641348,219715,1283267,65855,6982,641695,0
5,2,711512,248642,1324592,74384,9630,662085,0
5,2,708494,248950,1397955,74663,8800,698708,0
5,-1,644805,219692,1146493,65915,7051,573277,0
5,2,719470,251677,1399671,75561,9424,699683,0
5,-1,641680,219851,1250327,65949,7060,625109,0
5,2,733945,254236,1504632,77930,10873,752236,0
5,2,716224,250300,1367439,74984,9334,683691,0
5,-1,668501,225713,1201755,69787,8464,600926,0
5,2,731933,253361,1471084,77578,10252,735526,0
5,-1,643135,220225,1424176,66289,7622,712129,0
5,2,713742,249195,1381007,74376,9639,690437,0
5,2,718932,251174,1376942,75189,9821,688448,0
5,-1,651130,222637,1351798,67134,8291,675965,0
5,2,730496,253485,1559269,77585,10687,779672,0
5,-1,642704,219650,1184695,65843,8099,592395,0
5,2,710475,249422,1334169,74627,9203,667152,0
5,-1,638619,220204,1259069,66012,8118,629585,0
5,2,712788,248899,1387802,74245,9279,693793,0
5,-1,641272,220606,1312368,66109,9461,656225,0
5,2,712197,248814,1442369,74237,9080,721218,0
5,-1,644486,221517,1325058,66663,8287,662444,0
5,-1,646223,221649,1367844,66796,7730,683516,0
5,2,708696,248589,1471846,74124,9280,735489,0
5,2,718031,250823,1323365,75212,9363,661591,0
5,-1,644804,220302,1239339,66218,7687,619612,0
5,2,716995,250770,1356880,75106,8993,678590,0
5,2,712530,248521,1305116,74144,8883,652587,0
5,-1,646281,220598,1373008,66192,8073,686556,0
5,2,718086,250654,1283725,75156,8491,641804,0
5,2,714335,249024,1360577,74442,8451,680340,0
5,-1,644362,221092,1237431,66612,8447,618753,0
5,2,713119,249171,1323033,74288,8358,661554,0
5,-1,638569,219463,1170217,66013,7303,585166,0
5,2,717255,251355,1689756,75457,11156,844623,0
5,2,715996,250362,1306590,75027,8521,653359,0
5,2,715130,249013,1306036,74238,7714,653064,0
5,-1,643207,220616,1360434,66464,8504,680232,0
5,2,720487,251623,1386829,75400,9653,693477,0
5,2,715305,248434,1381135,74177,8846,690862,0
5,2,711065,247738,1394127,73961,8183,696651,0
5,2,709678,247489,1299025,73973,8469,649538,0
5,-1,639983,219356,1176573,65881,7781,588289,0
5,2,718053,249763,1415377,74985,9600,707734,0
5,-1,638799,218787,1386509,65626,7708,693227,0
5,2,714654,248183,1720780,74312,10879,860257,0
5,2,702185,247612,1359119,74186,8954,679620,0
5,-1,641884,218893,1260065,65789,8180,630026,0
5,2,713193,249317,1318167,74902,9059,659129,0
5,2,706316,247867,1390041,74137,8621,695064,0
5,-1,641293,221306,1343041,66847,8225,671574,0
5,2,706223,247626,1302447,74087,8735,651264,0
5,2,705335,247627,1297477,74067,8864,648766,0
5,-1,645577,221666,1295103,66854,8054,647548,0
5,2,707430,248352,1524912,74226,10311,762168,0
5,-1,640879,219383,1214273,65859,7756,607180,0
6,2,758267,266580,1458838,78783,8773,729396,0
6,-1,694487,239036,1394268,71485,8385,697107,0
6,2,786312,271785,1467892,82258,11165,733919,0
6,-1,691044,236972,1227905,70622,7060,613897,0
6,2,712908,250503,1390981,74795,8687,695526,0
6,-1,696882,239577,1484479,71825,8214,742204,0
6,2,708616,248490,1331596,73798,8543,665816,0
6,-1,689673,236868,1170411,70639,7241,585089,0
6,2,731608,252645,1506934,76946,10249,753406,0
6,2,709395,249513,1337960,74447,9262,669122,0
6,-1,642844,220854,1297260,66714,7474,648673,0
6,2,711668,248748,1410506,74150,9063,705279,0
6,2,706248,247751,1287447,73647,7996,643687,0
6,-1,635738,217783,1150082,65422,6617,575063,0
6,2,713197,248663,1573556,74019,10603,786343,0
6,2,728502,252341,1389758,76985,9407,694895,0
6,2,713519,249730,1430230,74691,8581,715109,0
6,-1,638736,218573,1221077,65688,7436,610601,0
6,2,712253,248872,1547359,74024,9458,773721,0
6,-1,636368,219025,1346543,65712,8327,673403,0
6,2,731933,253117,1444861,77060,9727,722499,0
6,-1,639924,218967,1330153,65716,8236,665163,0
6,-1,642505,218794,1397355,65625,7755,698656,0
6,2,712533,249727,1472294,74364,9973,736375,0
6,-1,641424,218676,1182884,65590,7565,591565,0
6,2,708227,248573,1478535,73905,9366,739297,0
6,2,712436,249363,1334583,74245,8864,667337,0
6,-1,637206,219343,1234195,66007,7540,617003,0
6,2,737861,257978,1531286,76799,10142,765426,0
6,-1,637292,218675,1416923,65729,9081,708392,0
6,2,718442,251107,1413506,75159,8017,706833,0
6,-1,637138,218377,1158156,65603,6709,579055,0
6,2,717033,250158,1505795,74734,10213,753205,0
6,2,711058,248116,1602284,73864,9610,801404,0
6,-1,642282,221298,1346545,66896,8767,673109,0
6,2,704725,248876,1435077,74167,10570,717450,0
6,2,707940,249599,1478263,74390,10134,739122,0
6,-1,635665,218896,1426008,65787,7992,712961,0
6,2,724403,252785,1366427,77226,10075,683197,0
6,-1,635324,218527,1145320,65649,7275,572678,2
6,-1,637699,218772,1181695,65800,7121,590866,0
6,2,705760,248784,1403872,74137,8628,701765,0
6,2,708339,249542,1453652,74488,8642,726822,0
6,-1,635935,218666,1135799,65694,7223,567797,0
6,2,709867,249293,1331961,74195,8337,666018,0
6,-1,639149,219481,1183360,66023,7114,591704,0
6,2,708730,249004,1395817,74025,9054,697956,0
6,-1,638027,218350,1204251,65680,7828,602122,0
6,2,713702,248959,1383838,74083,8935,691833,0
6,2,708357,249340,1295082,74201,8964,647593,0
6,-1,642803,219931,1128599,66177,7147,564218,0
6,2,730979,253738,1343609,77429,8903,671756,0
6,2,712235,249666,1406718,74464,8840,703427,0
6,-1,640021,218770,1142185,65701,6789,571159,0
6,2,709929,249441,1408097,74183,8255,704090,0
6,2,729126,253407,1267859,77309,8741,634031,0
6,-1,644337,219225,1231995,65818,7484,616102,0
6,2,711610,248706,1256855,74048,8926,628313,0
6,-1,641427,219580,1267719,65884,7324,633914,0
6,2,733598,253382,1258034,77228,9808,629107,0
6,-1,640804,219520,1206151,65941,7510,602993,0
6,2,707119,248719,1312775,74001,8748,656459,0
6,-1,641489,220282,1318661,66382,7735,659403,0
6,2,706333,248265,1363198,73802,8785,681713,0
6,2,707180,248693,1362856,73955,8861,681459,0
6,2,712365,248960,1393532,74013,9475,696880,0
6,-1,641341,219306,1243871,65949,7084,621961,0
6,2,708344,248274,1320053,73734,9122,660097,0
6,2,713130,249507,1302588,74252,8916,651204,0
6,2,732576,253192,1349026,77203,9557,674487,0
6,-1,637383,219054,1263242,65922,7870,631680,0
6,-1,639525,219346,1314937,66055,7966,657257,0
6,-1,641248,219597,1339682,66132,7669,669915,0
6,2,729294,253024,1325678,77166,10104,662877,0
6,2,710162,248840,1343899,73873,8997,671876,0
6,-1,642956,219819,1308949,66155,7846,654089,0
6,2,714001,250284,1408856,74596,9329,704501,0
6,-1,637564,217513,1404045,65548,8458,701910,0
6,2,710633,249245,1394907,74145,8838,697501,0
6,2,718118,250715,1428874,74754,9397,714539,0
6,2,714144,249606,1254238,74176,8789,627160,0
6,-1,643427,219225,1326978,66015,8530,662774,0
6,2,735532,254030,1504613,77380,9668,752385,0
6,-1,644347,219470,1403905,66096,8009,701560,0
6,2,716088,249905,1310475,74183,9996,655334,0
6,2,734598,255260,1371634,77715,9994,685758,0
6,-1,638816,219947,1218285,66251,7762,609080,0
6,2,716512,251264,1450723,74827,9778,722769,0
6,-1,639288,219890,1320453,66161,8169,660205,0
6,2,712462,249509,1492121,74107,9833,745753,0
6,2,713411,249988,1542474,74164,10366,771218,0
6,-1,634291,218980,1322726,65940,7258,661363,0
6,2,713361,249720,1310412,74164,9517,655199,0
6,2,717025,250655,1552592,74834,11107,776128,0
6,-1,634611,218609,1187493,65825,7150,593476,0
6,2,712302,249170,1463732,74052,9375,731815,0
6,2,710917,248071,1444495,73659,9485,722297,0
6,-1,641014,219827,1145367,66186,6963,572724,0
6,-1,636655,219036,1336859,65961,7687,668480,0
6,2,713105,249227,1716019,74108,11476,857964,0
6,-1,638354,219820,1300163,66210,7900,650132,0
6,2,708347,248502,1246276,73860,9229,623165,0
6,2,707445,247899,1376764,73701,8785,688412,0
6,-1,638607,219480,1271531,66024,7420,635862,0
6,2,710041,249026,1440828,74028,9008,720477,0
6,2,710358,248579,1466751,73856,9758,733288,0
6,2,717959,251439,1302307,74933,9032,651259,0
6,-1,637628,219275,1262149,65896,6715,631125,0
6,2,712256,249034,1503251,73816,10188,751735,0
6,2,715649,249121,1420740,73817,9678,710326,0
6,-1,644787,221476,1260144,66999,6927,630151,0
6,2,708828,248458,1384918,73708,8555,692498,0
6,-1,641729,220250,1146725,66261,7319,573402,0
6,2,706011,248003,1421546,73496,8893,710814,0
6,2,712490,249222,1362650,74215,9032,681419,0
6,-1,634115,218782,1307388,65694,7225,653753,0
6,2,714181,249786,1431572,74374,9383,715784,0
6,-1,657780,223799,1215040,69209,7672,607447,0
6,2,710955,249473,1296383,74095,8021,648376,0
6,2,710354,248389,1456659,73676,9890,727716,0
6,2,710720,247970,1322277,73557,8998,661195,0
6,-1,642325,221062,1270847,66728,7369,635497,0
6,2,718107,250161,1254735,74441,8904,627441,0
6,-1,642588,220806,1302148,66615,7676,651067,0
6,2,709433,247999,1420329,73565,8952,709849,0
6,2,715752,250430,1303989,74747,8585,651912,0
6,2,714516,250098,1313748,74485,8533,656754,0
6,-1,636235,219163,1438413,65871,8023,719220,0
6,2,711040,247931,1343585,73602,8908,671830,0
6,-1,638069,219626,1257064,66007,7255,628578,0
6,2,715699,250503,1309895,74616,8518,654852,0
6,-1,641085,219470,1276376,65952,7663,638235,0
6,2,711887,247795,1318167,73503,8545,659105,0
6,2,709790,247838,1321493,73439,8139,660628,0
6,-1,638085,219530,1224560,65922,6436,612261,0
6,2,707416,249848,1319358,73899,8262,659732,0
6,-1,639557,219221,1243980,65930,6843,622023,0
6,2,703900,248103,1356119,73098,8665,678109,0
6,2,705191,248940,1398360,73363,9508,699226,0
6,-1,646125,221173,1279832,66834,7504,639958,0
6,2,704641,248416,1388172,73222,9057,694112,0
6,2,709315,248379,1435836,73188,8819,717983,0
6,-1,642623,220389,1291198,66534,7946,645555,0
6,2,706642,248301,1386993,73363,8727,693575,0
6,2,708587,248221,1397625,73300,9062,698843,0
6,-1,641087,219280,1185564,65974,6597,592417,0
6,2,713301,248576,1487301,74173,9940,743692,0
6,-1,644901,219795,1297146,66107,7860,648570,0
6,2,710933,248481,1440787,74199,9812,720343,0
6,2,714004,250499,1438386,75044,9877,719165,0
6,2,736331,257162,1507507,76815,9633,753807,0
6,-1,635067,219660,1271333,65983,6806,635662,0
6,2,714513,249963,1292908,75007,8828,646555,0
6,2,713463,249250,1298819,74715,8801,649461,0
6,2,706084,247659,1323159,73921,9003,661636,0
6,-1,637705,219855,1301172,66094,7613,650747,0
6,-1,640383,219321,1200315,65864,7342,600063,0
6,2,711613,247883,1302539,74027,8804,651315,0
6,-1,641771,219854,1235740,66074,7449,617949,0
6,2,715068,249144,1314459,74661,9301,657229,0
6,2,705220,248462,1374842,74255,9551,687450,0
6,-1,639365,219546,1296325,65952,7097,647944,0
6,-1,639272,219323,1244130,65886,6795,622116,0
6,2,730427,252788,1487571,77406,9980,743751,0
6,-1,637217,219092,1202825,65852,7155,601453,0
6,2,706261,247508,1282074,73877,9000,641080,0
6,2,709705,248829,1570357,74406,10431,785219,0
6,-1,644451,220935,1322090,66660,7986,661426,0
6,2,706823,248095,1240497,74113,8398,620309,0
6,2,732371,253067,1520933,77500,9421,760419,0
6,-1,641352,219836,1203479,66160,6962,601801,0
6,2,708853,247821,1415759,73936,8798,707917,0
6,-1,643601,221428,1283389,66911,7342,641748,0
6,2,736909,253966,1472198,78359,10510,736050,0
6,2,710626,249362,1363866,74627,9261,681794,0
6,-1,638625,218868,1180977,65732,7755,590417,0
6,-1,643117,219828,1219591,66065,7327,609819,0
6,2,711408,249536,1324076,74636,8530,662111,0
6,-1,645211,221710,1291059,67040,8182,645470,0
6,2,715417,249369,1268589,74614,8842,634354,0
6,2,731423,252974,1518398,77386,10938,758740,0
6,-1,643311,220516,1209823,66347,6777,604966,0
6,2,714191,249781,1299914,74719,8309,649953,0
6,-1,638424,219305,1246191,65757,6721,623143,0
6,2,712707,248676,1332068,74122,9904,665954,0
6,-1,641817,219456,1256618,65905,7748,628369,0
6,2,706771,247795,1290828,74011,8561,644977,0
6,-1,641694,219608,1206114,65903,7964,603128,0
6,2,712190,249350,1401708,74586,9127,700878,0
6,-1,646008,221451,1247653,66776,7198,623899,0
6,2,714019,248848,1305037,74425,9331,652558,0
6,2,715462,248860,1400436,74443,9188,699897,0
6,-1,646340,221359,1197888,66648,7417,599008,0
6,2,733923,253702,1490293,77740,10475,745203,0
6,-1,644129,221206,1282667,66690,7720,641241,0
6,2,713422,249804,1338247,74680,9611,669159,0
6,2,718028,250694,1413386,75219,9787,706569,0
6,-1,643501,220262,1374524,66222,7704,687365,0
6,2,711493,249312,1312686,74464,9826,656342,0
6,2,715740,250855,1354958,75106,10036,677395,0
6,-1,644059,220701,1345051,66577,7909,672603,0
6,2,712466,249842,1455096,74461,9234,727663,0
6,-1,646040,220946,1424308,66334,7726,712246,0
6,2,720249,250239,1356078,74629,9815,678169,0
6,-1,667815,224823,1208554,69343,8737,604017,0
6,2,714957,249303,1416185,74277,9206,707645,0
6,-1,645521,221946,1302508,66806,8422,651420,0
6,2,713963,249477,1415422,74514,9618,707645,0
6,-1,661397,225232,1381598,69462,9922,690754,0
6,2,713323,248335,1332357,74095,9311,666056,0
6,-1,644835,221271,1279230,66380,8258,639356,0
6,-1,640061,220005,1302150,66073,7897,651103,0
6,2,717192,251176,1508070,75323,9414,753839,0
6,2,710281,248214,1427609,73991,9401,713891,0
6,-1,641902,219700,1156934,65931,7145,578560,0
6,2,734659,254367,1445939,77833,10019,723037,0
6,2,724492,252317,1445090,75647,9390,722622,0
6,-1,648500,222098,1441905,66946,8621,720500,0
6,2,713922,249324,1311393,74528,8694,655748,0
6,2,714616,249527,1417650,74606,8952,708869,0
6,-1,641655,220419,1390051,66121,8140,695006,0
6,2,716714,249395,1232217,74367,8683,616144,0
6,-1,640236,219177,1251951,65736,7798,625968,0
6,2,725149,251406,1336003,75282,9105,668063,0
6,2,711509,249037,1237124,74310,8692,618603,0
6,2,712059,248363,1421238,74076,8057,710654,0
6,-1,642995,219520,1421405,65915,9519,710119,0
6,2,733861,252885,1437322,77288,9973,718663,0
6,2,717680,248845,1625958,74200,11135,813014,0
6,2,733811,253274,1425547,77568,9276,712728,0
6,-1,637061,219027,1253927,65712,8132,626970,0
6,2,715596,249065,1388911,74727,9302,694513,0
6,2,715601,248671,1522751,74503,10981,760483,0
6,-1,640556,219280,1450414,65870,9004,725201,0
6,2,712492,247462,1313216,74018,8562,656623,0
6,2,709594,249509,1393273,74944,8599,696912,0
6,-1,641481,219063,1270909,65881,7255,635457,0
6,2,706903,247804,1389955,74187,9010,695012,0
6,2,710448,248663,1531362,74456,9355,766025,0
6,-1,641185,220101,1542870,66191,8561,771484,0
6,2,731102,252550,1481002,77534,9809,740562,0
6,2,705555,247875,1272075,74197,9092,636077,0
6,-1,661516,224127,1232768,69192,8225,616326,0
6,2,708468,248078,1436192,74081,9360,718152,0
6,-1,639912,219114,1288481,65732,8120,644240,0
7,2,760324,266262,1400450,78667,9144,700255,0
7,-1,689560,237403,1448629,70715,8428,724292,0
7,2,763463,266563,1356961,78739,10089,678468,0
7,-1,691205,237186,1212110,70754,6755,605986,0
7,2,706956,247831,1294096,73645,8064,647047,0
7,-1,693247,237493,1245276,70826,7867,622659,0
7,2,707446,247872,1421332,73544,8987,710675,0
7,-1,691044,238027,1253558,71131,7569,626690,0
7,2,716722,250648,1459051,74777,10006,729528,0
7,2,706720,248779,1312019,74009,9196,655944,0
7,-1,657986,223153,1283761,68975,8171,641876,0
7,2,711992,250089,1416649,74704,9408,708301,0
7,2,707771,248298,1271291,73829,8357,635561,0
7,-1,636858,218674,1283375,65718,7568,641710,0
7,2,716482,250358,1397533,74743,9512,698711,0
7,2,705147,247314,1386825,73490,8974,693433,0
7,2,708471,248768,1282157,74026,8491,641024,0
7,-1,639131,219270,1327246,65960,7432,663611,0
7,2,711716,249444,1442967,74163,9127,721521,0
7,-1,639288,218765,1310185,65576,8534,655106,0
7,2,713852,249150,1417562,74011,9412,708789,0
7,-1,638620,218940,1212312,65662,7445,606153,0
7,-1,662001,223752,1305453,69088,8524,652686,0
7,2,716196,251142,1455302,74932,9649,727703,0
7,-1,647468,221427,1271801,66795,8029,635924,0
7,2,710425,248615,1474759,73905,9511,737300,0
7,2,716311,251207,1544788,75064,9476,772494,0
7,-1,634831,218827,1131280,65770,6366,565543,0
7,2,714815,250919,1469808,75069,9349,734984,0
7,-1,658471,223271,1295818,69091,8321,647876,0
7,2,732129,252569,1425090,77085,10481,712641,0
7,-1,638943,218924,1282028,65791,7180,641004,0
7,2,712454,248468,1429356,73972,9958,714682,0
7,2,714389,248972,1403339,74159,9725,701436,0
7,-1,637204,218521,1116437,65664,6989,558196,0
7,2,709018,249841,1474403,74648,9840,737261,0
7,2,729940,253109,1436662,77307,10704,718314,0
7,-1,635568,217807,1159506,65353,6851,579728,0
7,2,709897,249191,1319971,74268,9684,660042,0
7,-1,642538,220573,1346360,66553,8190,673164,0
7,2,706216,248859,1366964,74116,8408,683717,0
7,2,708108,249062,1437232,74190,9346,718486,0
7,-1,636603,218981,1189548,65830,7746,594725,0
7,-1,639018,220599,1248000,66667,8340,623975,2
7,2,709167,248413,1339139,73991,8959,669590,0
7,-1,640886,219797,1337610,66321,7477,668794,0
7,2,709206,248833,1389254,73996,8497,694637,0
7,-1,638433,219654,1531116,66167,9466,765371,2
7,-1,636913,218256,1361559,65682,8340,680805,0
7,2,712560,249493,1282200,74276,8840,641146,0
7,-1,639617,219220,1274855,66034,8196,637415,2
7,2,705998,248533,1315994,73897,8594,658025,0
7,-1,643330,220220,1317391,66285,7303,658747,2
7,-1,640038,219529,1170503,65987,7121,585297,0
7,2,706841,248643,1389888,73982,8478,694936,0
7,-1,640050,220032,1324458,66041,8526,662851,2
7,2,710184,248479,1309304,73927,7985,654687,0
7,-1,643014,219993,1410772,66022,9231,704928,0
7,2,710877,249346,1411016,74129,9413,705550,0
7,2,707247,248989,1273762,74022,8164,636898,0
7,-1,643819,219068,1300941,65707,7691,650570,0
7,-1,636783,219367,1299353,65887,8287,649738,2
7,-1,641778,220367,1338567,66280,8259,669360,0
7,2,708170,247876,1329119,73656,9295,664480,0
7,-1,641321,219790,1245470,65930,7371,622801,2
7,2,713101,248945,1413062,74036,9642,706498,0
7,-1,638486,218879,1272216,65700,7501,636109,0
7,2,705355,248622,1262192,73892,7981,631447,0
7,-1,638785,219203,1221130,65782,7181,610626,0
7,-1,638373,219559,1184426,65939,7321,592179,2
7,2,714075,251299,1448222,75104,9292,724259,0
7,2,714736,250471,1533561,74853,9828,766841,0
7,2,713446,249542,1312409,74272,8341,656264,0
7,2,712264,249940,1501677,74573,10474,750892,0
7,-1,642000,219989,1276216,66135,7403,638138,0
7,2,711660,248920,1445022,74040,9714,722551,0
7,-1,645518,219070,1298681,65952,7476,649354,0
7,2,711132,248706,1388652,73905,9047,694103,0
7,-1,637040,219483,1326276,66146,7654,663184,2
7,-1,643593,221451,1340412,66911,7980,670390,0
7,2,711883,248686,1367234,73968,8708,683541,0
7,-1,638709,218748,1295912,65844,7112,647981,0
7,2,712536,249113,1535920,73986,9112,768339,0
7,-1,642436,219068,1267196,65899,7612,633427,0
7,2,731510,253633,1391934,77217,9811,696111,0
7,2,716755,250332,1352521,74418,10062,676271,0
7,-1,642893,219874,1372334,66166,8177,685770,0
7,2,717468,251122,1501455,74992,9407,750595,0
7,-1,643220,219386,1317303,66039,8868,658684,0
7,2,718336,251806,1351150,75241,8879,675586,0
7,2,734997,254598,1378834,77732,9552,689463,0
7,-1,646253,220604,1301102,66651,8452,650614,0
7,2,721820,251520,1333527,74983,9508,666988,0
7,2,710887,250431,1398461,74366,9440,699031,0
7,-1,641348,221709,1316630,67083,8534,658427,0
7,-1,634354,219238,1228436,66054,8402,614086,2
7,2,713036,250552,1333553,74427,10333,666777,0
7,-1,641593,221139,1366987,66888,8433,683479,0
7,2,713460,250241,1563930,74389,9534,781963,0
7,-1,634740,219449,1378450,65980,7286,689274,0
7,2,715024,249404,1402205,74005,9910,701124,0
7,2,709949,249161,1387149,74024,9237,693611,0
7,-1,636228,220005,1303738,66277,7656,651836,2
7,2,712380,249180,1507616,74054,10882,753592,0
7,-1,634601,218629,1248579,65725,7397,624243,0
7,-1,636543,219498,1199487,66131,6929,600165,2
7,2,710081,248306,1396906,73656,9253,698419,0
7,2,718046,250728,1483211,74895,10061,741549,0
7,-1,643732,221212,1238040,66936,7898,618837,0
7,-1,639546,221387,1316419,67015,7928,658175,2
7,-1,638126,219938,1310077,66265,7237,655020,0
7,2,709756,248898,1369482,73948,9211,684689,0
7,2,713002,248834,1549230,73914,9863,774636,0
7,-1,638920,218940,1362615,65874,7276,681349,0
7,-1,637460,219420,1293237,66019,7562,646716,2
7,2,707635,248265,1419114,73820,8874,709413,0
7,-1,637236,219466,1213521,66085,6818,606818,0
7,2,709088,249258,1327448,74039,9000,663744,0
7,2,717598,250295,1446869,74617,9803,723314,0
7,-1,636999,220321,1279234,66322,7950,639599,2
7,-1,638017,219821,1283845,66126,6644,641984,0
7,2,732642,253462,1292330,77180,10196,646235,0
7,2,715061,250600,1392606,74518,9745,696402,0
7,-1,636946,219207,1182662,65901,6515,591394,2
7,2,716141,249031,1464974,73735,9695,732448,0
7,-1,640360,219950,1294122,66158,7718,647077,0
7,-1,644562,220665,1202562,66579,7522,601358,0
7,2,708912,249042,1284712,74039,8920,642430,0
7,2,730153,253325,1384097,77117,9289,691873,0
7,2,708950,248316,1298015,73716,8832,649047,0
7,-1,635633,219559,1325295,66071,7150,662701,0
7,2,715913,250358,1374306,74658,9287,686994,0
7,-1,635193,219754,1301023,66136,7485,650512,2
7,-1,638531,219766,1265169,66127,7707,632591,0
7,2,708239,247747,1407209,73463,9151,703647,0
7,2,711440,249147,1331355,73970,9235,665427,0
7,2,713138,248193,1405862,73652,9311,702983,0
7,-1,635793,218844,1318368,65750,7219,659244,0
7,-1,638300,220415,1305624,66328,6709,652861,2
7,2,715557,248919,1238605,73928,8744,619357,0
7,-1,640788,220044,1280435,66213,7172,640429,0
7,2,733036,253630,1391728,77246,9170,695841,0
7,2,708294,247870,1314816,73515,8441,657393,0
7,-1,642486,221405,1285858,66941,7593,642997,2
7,-1,641368,219928,1309035,66080,8059,654706,0
7,2,712176,248861,1371899,73901,8776,686258,0
7,2,711534,248278,1386127,73674,9326,692965,0
7,-1,641003,219552,1249764,66062,7224,624746,0
7,2,708019,247761,1447094,73513,8664,723518,0
7,-1,644420,221562,1267533,66946,7289,633832,0
7,-1,642860,220658,1280518,66423,7527,640311,2
7,2,715198,248860,1499699,73885,9645,749549,0
7,-1,635763,219277,1261438,65898,7940,630765,2
7,2,712841,247782,1432219,73402,9170,716127,0
7,-1,637416,219095,1320802,65891,7415,660452,0
7,-1,666284,228862,1229192,68803,7132,614617,2
7,2,701940,247873,1372981,73052,8590,686534,0
7,-1,638120,218780,1151163,65807,7021,575638,0
7,2,704721,248739,1287517,73372,8514,643800,0
7,2,706514,249858,1303373,73901,9087,651709,0
7,-1,644107,220644,1364906,66397,7658,682557,0
7,2,708653,250307,1291856,74183,8870,646079,0
7,-1,637478,219441,1166212,66032,7042,583121,2
7,2,713451,250685,1389539,74278,9125,694743,0
7,-1,640333,219314,1363890,65901,7644,681979,0
7,2,712248,250261,1344776,74279,9148,672450,0
7,2,706484,247778,1399337,73147,8729,699703,0
7,-1,639426,218913,1241405,65815,7293,620584,0
7,2,709463,248587,1430143,74207,9065,715127,0
7,-1,642575,219218,1203359,65890,7675,601673,0
7,2,731666,252572,1456863,77400,10399,728377,0
7,-1,633524,219707,1193512,66100,6471,596812,2
7,2,705949,247887,1462205,73955,9986,731107,0
7,2,714427,249947,1406511,74903,9313,703292,0
7,-1,637559,219327,1166853,65922,7208,583529,0
7,2,729777,252522,1444268,77383,10048,722114,0
7,2,710307,248641,1300126,74304,8294,650052,0
7,2,707385,248213,1559463,74264,10393,779125,0
7,-1,635424,219019,1236787,65813,7145,618340,0
7,-1,636402,219628,1196881,66083,7185,598378,2
7,-1,640862,219929,1256411,66103,7989,628152,0
7,2,709943,247791,1369013,73981,8679,684523,0
7,-1,639349,219517,1257350,66023,7220,628711,0
7,2,715359,250072,1255642,75073,9061,627815,0
7,-1,637003,219860,1265214,66154,7784,632646,2
7,2,717419,249649,1353361,74921,8888,676710,0
7,-1,639258,220093,1240960,66226,6960,620638,0
7,2,706443,247665,1374899,73970,8625,687497,0
7,-1,642298,220452,1305490,66535,8466,652755,0
7,-1,643106,221806,1307204,66981,8314,653456,0
7,2,711823,250532,1328863,75167,8696,664241,0
7,2,708630,248304,1509672,74160,9247,754883,0
7,-1,636286,218424,1318977,65595,7929,659535,0
7,-1,662995,228741,1305815,68791,7654,653188,2
7,2,729946,253253,1353167,77565,10453,676511,0
7,2,711959,248999,1366583,74335,8980,683353,0
7,-1,643129,221152,1428297,66842,7437,714218,0
7,2,706156,247615,1260013,73883,9204,630052,0
7,-1,640419,219252,1239851,65889,7379,619911,0
7,-1,637362,219388,1241481,66010,6108,620759,2
7,2,713647,248667,1340037,74292,8505,670079,0
7,2,707936,248123,1320570,73991,9481,660339,0
7,-1,644162,220720,1304664,66582,7644,652085,0
7,2,716235,250627,1295389,75254,8767,647748,0
7,-1,644247,220261,1377921,66264,8286,688945,0
7,-1,639342,219925,1145885,66090,6842,572713,0
7,2,711032,248384,1322315,74113,8723,661207,0
7,-1,638569,219767,1287773,66027,7411,643749,2
7,-1,645780,221580,1287034,66948,7999,643601,0
7,2,711878,249196,1345243,74315,9788,672610,0
7,2,709630,247882,1286314,73864,8376,643146,0
7,-1,640887,219483,1303477,65860,8272,651331,0
7,2,712100,248888,1227696,74252,8834,613804,0
7,-1,643513,220459,1274903,66410,7588,637513,0
7,-1,640827,221334,1293175,66796,8374,646627,2
7,2,706091,248077,1405598,73936,8726,702700,0
7,-1,644837,221341,1359366,66779,8038,679534,0
7,2,712265,249340,1644642,74582,10185,821291,0
7,-1,661344,224220,1216687,69179,7493,608191,0
7,2,712847,248857,1327315,74451,10025,663683,0
7,-1,641396,219405,1139585,65848,7383,569850,0
7,2,714238,249188,1524827,74607,9879,762249,0
7,2,712158,249295,1396289,74559,9004,698166,0
7,-1,641365,220351,1344814,66279,7815,672366,0
7,2,718448,250973,1341817,75277,9399,671149,0
7,-1,640033,220024,1219824,66057,6823,609960,0
7,2,715505,250325,1348582,74760,9562,674335,0
7,-1,676279,232292,1348393,70126,7992,674324,2
7,2,710033,248961,1275971,74359,8905,637969,0
7,-1,644170,220912,1205337,66531,6849,602726,0
7,2,715775,249713,1495387,74579,10110,747650,0
7,2,763989,263893,1539933,80656,11246,770015,0
7,-1,644724,220508,1180078,66200,6757,590091,0
7,-1,644208,220991,1274462,66302,8269,637292,2
7,2,715694,249432,1337765,74372,10136,668805,0
7,-1,645245,219961,1158108,65919,7532,579104,0
7,-1,646682,220866,1180424,66219,7480,590198,2
7,2,711129,248334,1404906,73982,8733,702446,0
7,-1,644418,223051,1267433,67331,8355,633732,2
7,-1,640862,220572,1195289,66112,7582,597764,0
7,2,713207,248115,1251791,73974,8677,625848,0
7,-1,647909,221747,1630907,66530,9638,814469,0
7,2,716174,249336,1435548,74458,9690,717773,0
7,-1,641925,220554,1336629,66098,8594,668360,0
7,2,708070,247773,1438146,73946,10305,719080,0
7,-1,646686,222108,1286506,67051,8355,643207,0
7,2,712249,248980,1379049,74355,9778,689567,0
7,-1,644104,220345,1236951,66187,7369,618530,0
7,2,711972,248942,1308212,74366,8584,654188,0
7,2,718108,250636,1328302,74945,8611,664186,0
7,-1,646796,221622,1324649,66914,8736,662152,2
7,-1,664144,224044,1274425,69063,9421,637205,0
7,2,715021,249893,1249787,74681,8952,624822,0
7,2,716525,249336,1368234,74472,9013,684171,0
7,-1,638004,220122,1278071,66093,7578,638998,2
7,-1,642294,220296,1575112,66123,9608,787525,0
7,2,714323,248930,1320702,74293,9259,660282,0
7,-1,665445,224902,1235020,69509,8889,617310,0
7,2,718926,249457,1394400,74400,9561,697251,0
7,2,715387,248722,1260163,74150,9235,630158,0
7,-1,639440,218926,1305636,65723,8659,653031,0
7,2,718537,250373,1347266,74977,8638,673665,0
7,2,719176,250994,1307952,75215,9025,653995,0
7,2,719100,249839,1428303,74782,9605,714192,0
7,2,710331,248215,1252062,74128,8716,626070,0
7,-1,643022,219243,1431857,65750,9304,715678,0
7,2,713096,247998,1385365,74146,8710,692722,0
7,-1,642322,221052,1323530,66707,7525,661714,2
7,2,710665,247172,1386533,73929,9668,693267,0
7,-1,638009,218693,1304117,65585,7577,652012,0
7,2,714876,248210,1283141,74333,9222,641641,0
7,2,703021,247622,1288532,74125,8891,644316,0
7,-1,641015,219815,1283863,66054,7725,641939,2
7,-1,641092,219261,1222848,65811,7327,611408,0
7,2,708454,248090,1260602,74276,8653,630344,0
7,2,705777,248051,1286404,74279,8535,642916,0
7,-1,641591,219380,1208138,65993,7551,604055,2
7,-1,646678,220572,1303180,66542,8039,651542,0
7,2,709524,248301,1406714,74271,8337,703394,0
7,2,708065,247706,1293490,74070,8531,646764,0
7,-1,638039,219171,1174681,65756,7196,587399,0
7,2,708260,248486,1303343,74290,9087,651717,0
7,-1,642469,219754,1291977,65926,7854,645979,0
7,2,706775,247813,1329579,74010,8338,664812,0
