0,-1,720220,248997,1379000,73926,8579,688900,2
0,-1,741612,253008,1472437,77007,10026,735864,0
0,-1,667936,230436,1283243,68771,8470,641293,0
0,-1,667776,231337,1345138,69413,8510,671868,0
0,-1,667445,230210,1282643,68946,9273,640866,0
0,-1,663612,232160,1317142,69740,7532,657953,0
0,-1,664521,230502,1300387,68908,7564,649852,0
0,-1,667673,230956,1295883,69043,8350,647566,0
0,-1,665108,232208,1348237,69689,8236,673631,0
0,-1,667990,230826,1386934,69031,9252,692897,0
0,-1,669600,230788,1287523,68970,8727,643217,0
0,-1,671711,233867,1361893,70101,8274,680364,0
0,-1,667485,230174,1242425,68791,8099,620846,0
0,-1,671315,231477,1315826,69215,7673,657474,0
0,-1,666195,229994,1377563,68541,8122,688385,0
0,-1,666500,230410,1345051,68773,8481,672259,0
0,-1,670235,229883,1356078,68502,7958,677756,0
0,-1,680621,234890,1333730,71553,8968,666470,0
0,-1,663455,229778,1443845,68078,8896,721657,0
0,-1,671177,232056,1244200,70012,7323,621441,0
0,-1,674365,231013,1322259,69437,8226,660725,0
0,-1,664779,230198,1332454,69217,7950,665710,0
0,-1,667278,230494,1312387,69278,7824,655756,0
0,-1,674340,231494,1341106,69659,8338,669888,0
0,-1,671568,231414,1334186,69606,7672,666616,0
0,-1,669157,230949,1238614,69210,7737,618940,0
0,-1,669261,230351,1405568,69125,8344,702407,0
0,-1,674737,231664,1245324,69695,8036,622221,0
0,-1,670598,231191,1368744,69403,9147,683903,0
0,-1,673429,230249,1306506,69342,9342,652637,0
0,-1,686816,234794,1380126,72626,9624,689717,0
1,-1,714936,248330,1372780,73725,7843,686034,2
1,-1,666483,230126,1277481,68647,8405,638381,0
1,-1,663726,230342,1266460,68901,7805,632797,0
1,-1,668628,230805,1263505,69087,8120,630334,0
1,-1,665269,230626,1231579,69080,6951,615364,0
1,-1,667555,230897,1201101,69102,7610,600180,0
1,-1,686539,235164,1216842,72253,8116,607899,0
1,-1,672948,231471,1328514,69276,8505,663390,0
1,-1,667116,231090,1453759,69149,9752,726527,0
1,-1,670295,231325,1455615,69147,8901,726371,0
1,-1,674435,233385,1328654,69863,8951,663754,0
1,-1,666990,230480,1319431,68761,8079,659247,0
1,-1,668978,230816,1404296,68944,7827,701918,0
1,-1,672481,232463,1385064,69521,8726,691889,0
1,-1,665741,230262,1362295,68666,8312,680939,0
1,-1,668563,230149,1476096,68661,9610,737688,0
1,-1,662119,230263,1223928,68239,7072,611604,0
1,-1,662896,230344,1359545,68364,8537,679359,0
1,-1,665327,230067,1323937,69101,7724,661587,0
1,-1,676298,232146,1238976,70096,8306,618648,0
1,-1,671784,232486,1327082,70233,8069,662645,0
1,-1,668568,230714,1385892,69363,8302,692400,0
1,-1,671379,231180,1254706,69346,8112,626985,0
1,-1,671426,231722,1334518,69681,8045,666793,0
1,-1,672924,232762,1235597,70009,8137,617199,0
1,-1,673508,231323,1379474,69473,8815,689894,0
1,-1,673095,231578,1297555,69657,7457,648394,0
1,-1,669341,230443,1342628,69102,8999,670914,0
1,-1,671915,230193,1320892,69341,9569,659890,0
1,-1,663944,230219,1243507,69349,8468,621206,0
2,-1,662298,229860,1319169,68620,7641,659194,2
2,-1,665983,229951,1219553,68576,7736,609335,0
2,-1,662185,230020,1253031,68800,7827,626169,0
2,-1,667107,230955,1375996,69116,7990,687651,0
2,-1,671483,230220,1344786,68982,8061,671996,0
2,-1,665287,230513,1303729,68935,7098,651463,0
2,-1,664401,230720,1227754,68996,7825,613472,0
2,-1,674306,232295,1370179,69807,9601,684425,0
2,-1,668259,231791,1386865,69586,8800,692846,0
2,-1,688364,235466,1362505,72268,9735,680857,0
2,-1,669270,231987,1241728,69261,8581,620473,0
2,-1,690255,235524,1398214,72292,8432,698790,0
2,-1,667270,230541,1308100,68940,7715,653564,0
2,-1,668235,231358,1257182,69019,7584,628070,0
2,-1,667654,230267,1290991,68727,8637,644903,0
2,-1,669485,230149,1220176,68657,8229,609763,0
2,-1,660686,230085,1200389,68095,6944,599884,0
2,-1,668204,232393,1263353,69196,8574,631094,0
2,-1,665644,230268,1210955,69151,7168,605202,0
2,-1,690749,234531,1368851,72388,9403,684052,0
2,-1,689536,234651,1395384,72444,8938,697240,0
2,-1,670309,232286,1224224,70017,8142,611386,0
2,-1,668657,229770,1324444,68834,8618,662062,0
2,-1,672128,231850,1316182,69709,8146,657594,0
2,-1,670575,231711,1309999,69505,8243,654631,0
2,-1,673070,230963,1386725,69313,9809,692835,0
2,-1,670557,231000,1336384,69506,8046,667723,0
2,-1,703744,242062,1381462,72816,9243,689961,0
2,-1,675155,232053,1279106,70123,8748,638631,0
2,-1,667917,232094,1353776,70119,9268,676133,0
3,-1,662150,230369,1215841,68751,7602,607578,2
3,-1,670608,232608,1344315,69786,7993,671376,0
3,-1,664767,229537,1348443,68738,7860,673845,0
3,-1,668636,231164,1381038,69216,8373,690106,0
3,-1,677095,232546,1323713,69932,8554,661263,0
3,-1,684220,235133,1278523,72305,8162,638453,0
3,-1,664283,230429,1161209,68831,7140,580271,0
3,-1,670692,231043,1355891,69094,8878,677247,0
3,-1,666991,230377,1467236,68820,9958,733005,0
3,-1,671538,231765,1372812,69263,9690,685986,0
3,-1,671862,233308,1313188,69870,8711,655960,0
3,-1,667357,230530,1436754,68872,8227,717947,0
3,-1,666606,229987,1312338,68743,7995,655827,0
3,-1,665573,230232,1328804,68631,8530,664076,0
3,-1,666323,230155,1378394,68636,8656,688643,0
3,-1,674032,231989,1243552,69452,7495,621324,0
3,-1,658050,229550,1188749,67915,7011,594039,0
3,-1,661781,230458,1497916,68421,8211,749131,0
3,-1,664263,230145,1290055,69164,7878,644683,0
3,-1,668201,229615,1178493,68996,8261,588854,0
3,-1,667145,230149,1231380,69151,7437,615353,0
3,-1,686571,234954,1337087,72523,9528,668170,0
3,-1,670236,231137,1248871,69365,7918,623902,0
3,-1,672228,232272,1221799,70056,7547,610228,0
3,-1,671244,232214,1370295,69732,7878,684732,0
3,-1,675639,232740,1283881,70193,8226,641347,0
3,-1,672360,231421,1332866,69617,8643,665997,0
3,-1,670575,230868,1269738,69224,8543,634403,0
3,-1,672879,230033,1267124,69231,9517,633107,0
3,-1,665618,229719,1250288,69117,7956,624828,0
4,-1,672500,233651,1338594,70068,8100,668786,2
4,-1,685668,234585,1351690,71984,8907,675442,0
4,-1,666002,229992,1275322,68822,7214,637297,0
4,-1,667457,230082,1311562,68844,8104,655325,0
4,-1,670348,230640,1340568,69063,7880,670000,0
4,-1,666497,231344,1348676,69240,7277,673967,0
4,-1,668671,232262,1298100,69673,8738,647820,0
4,-1,671045,231244,1349045,69194,9037,674110,0
4,-1,668634,231257,1366161,69212,9074,682394,0
4,-1,671701,232253,1370383,69586,9352,684580,0
4,-1,669111,232536,1371559,69443,8875,685297,0
4,-1,667871,230647,1236195,68870,7907,617546,0
4,-1,673535,232768,1302316,69932,8266,650423,0
4,-1,671856,232923,1287534,69803,8397,643026,0
4,-1,688159,235060,1489141,72013,9463,744131,0
4,-1,667522,230623,1295935,68863,7531,647609,0
4,-1,660059,230652,1331733,68390,7659,665462,0
4,-1,685904,234795,1470564,71641,9332,734526,0
4,-1,668269,230484,1383713,69281,8750,691113,0
4,-1,673927,231205,1205014,69712,8970,601823,0
4,-1,668895,230802,1328859,69403,7758,663990,0
4,-1,667451,230323,1247126,69218,8407,623094,0
4,-1,669208,230227,1247646,69079,8954,623412,0
4,-1,668138,230934,1329247,69405,8162,664151,0
4,-1,675203,231706,1368990,69526,8258,684160,0
4,-1,690868,235410,1391712,72548,9684,695455,0
4,-1,676459,232790,1332114,70297,8241,665420,0
4,-1,671544,231141,1298507,69379,8768,648710,0
4,-1,671798,229997,1362088,69219,8643,680659,0
4,-1,666676,229398,1347799,68970,8042,673339,0
5,-1,667373,230492,1269978,68858,8852,634489,0
5,-1,667670,230613,1194757,68929,7727,596927,2
5,-1,671533,232339,1408968,69852,7922,703666,0
5,-1,669905,231005,1364038,69179,8906,681213,0
5,-1,670252,231090,1309104,69256,7907,654335,0
5,-1,662072,230272,1300304,68920,8055,649889,0
5,-1,665903,231882,1320555,69390,7867,659240,0
5,-1,670409,231390,1304064,69269,8606,650736,0
5,-1,687576,235462,1426818,72367,9480,712965,0
5,-1,667464,231495,1397868,69149,8675,697961,0
5,-1,666866,231774,1376078,69167,8676,687629,0
5,-1,669024,231371,1228647,69142,7879,613786,0
5,-1,668996,230400,1326686,68882,8838,662961,0
5,-1,667887,231131,1311338,68921,8634,655215,0
5,-1,664267,229857,1416287,68621,8614,707739,0
5,-1,669114,230001,1263596,68646,7694,631459,0
5,-1,666171,232354,1211046,69082,6936,605029,0
5,-1,662471,230025,1355225,68290,8175,676992,0
5,-1,670279,230852,1343162,69332,9005,671492,0
5,-1,668101,229776,1187568,69030,8379,593221,0
5,-1,669757,231533,1267154,69832,7910,632912,0
5,-1,671262,231229,1247002,69679,8315,622684,0
5,-1,675028,231408,1198134,69648,7855,598341,0
5,-1,670353,231522,1329738,69586,8067,664469,0
5,-1,675239,232178,1323104,69723,8057,661132,0
5,-1,676710,232613,1276743,70063,8268,637872,0
5,-1,674693,231911,1276056,69941,8280,637238,0
5,-1,669712,230817,1334418,69266,8569,666879,0
5,-1,669827,229985,1289011,69282,8735,643962,0
5,-1,674934,232838,1405492,70465,8795,701610,0
6,-1,667367,230293,1264716,68777,8053,631976,0
6,-1,667536,231973,1304152,69753,7311,651257,2
6,-1,685053,234177,1320621,72018,8585,659891,0
6,-1,690256,235110,1387358,72338,10035,693835,0
6,-1,671606,230904,1203355,69085,7994,601402,0
6,-1,665672,230215,1206149,68905,7044,602757,0
6,-1,662238,230561,1421521,68932,8465,710185,0
6,-1,667992,230616,1333784,68916,8614,666245,0
6,-1,667660,231427,1648559,69260,10406,823809,0
6,-1,668918,231025,1292940,69021,8267,645868,0
6,-1,668056,232022,1383490,69283,8746,691405,0
6,-1,669747,230796,1356849,68939,8812,678113,0
6,-1,668226,230170,1367255,68805,8842,683201,0
6,-1,665619,230539,1235347,68737,8140,617383,0
6,-1,675119,232210,1260558,69513,9150,629625,0
6,-1,667995,229847,1205138,68610,7602,602157,0
6,-1,660060,229821,1373636,68070,6754,686497,0
6,-1,681522,234605,1342675,71589,9807,671065,0
6,-1,673467,232546,1340514,70101,8731,669616,0
6,-1,670500,230950,1273856,69434,9086,636443,0
6,-1,666602,229676,1305755,68914,7668,652585,0
6,-1,669336,230179,1332968,69162,9135,666147,0
6,-1,671396,230394,1262259,69079,8425,630734,0
6,-1,674740,233659,1242956,70642,7982,620781,0
6,-1,676389,233202,1247078,70154,7491,622969,0
6,-1,671770,231252,1461878,69416,7952,730490,0
6,-1,671334,231482,1243870,69609,8231,621570,0
6,-1,688624,235098,1362344,72456,9842,680747,0
6,-1,672154,230404,1311205,69379,9351,655206,0
6,-1,668010,230445,1253307,69423,7981,626480,0
7,-1,664844,229609,1191455,68521,7347,595283,0
7,-1,662992,230098,1239678,68869,8091,619414,2
7,-1,665173,230326,1221726,68974,7396,610407,0
7,-1,664941,229957,1329569,68669,8273,664377,0
7,-1,675991,232523,1311877,69961,8584,655362,0
7,-1,665115,230852,1229720,69106,7807,614539,0
7,-1,669715,232787,1433825,69926,8625,715198,0
7,-1,668011,230698,1296210,69023,8350,647816,0
7,-1,664971,229997,1319249,68709,8083,659275,0
7,-1,689483,235760,1316734,72369,9491,658119,0
7,-1,672216,232883,1329608,69721,8926,664101,0
7,-1,667145,230446,1322120,68850,8414,660614,0
7,-1,689511,235893,1405013,72477,8761,701936,0
7,-1,687448,235707,1314889,72138,9243,656934,0
7,-1,668225,230222,1484534,68659,9303,741810,0
7,-1,668516,229978,1299593,68598,8550,649377,0
7,-1,663840,232161,1187835,69031,6962,593337,0
7,-1,663554,230400,1291050,68460,8707,645151,0
7,-1,666192,230162,1599578,69121,8793,799664,0
7,-1,670237,230706,1415934,69314,8309,707510,0
7,-1,665715,230364,1319930,69177,7944,659511,0
7,-1,666015,229400,1263699,68835,8200,631477,0
7,-1,670077,230261,1264466,69043,8553,631782,0
7,-1,689890,235912,1363924,72906,8170,681539,0
7,-1,672872,231592,1339150,69526,8168,669252,0
7,-1,670792,230570,1318917,69202,7824,659123,0
7,-1,670734,230775,1350772,69349,7723,674778,0
7,-1,669644,230280,1274447,69072,9048,636764,0
7,-1,669188,229402,1235365,68975,9029,617293,0
7,-1,669000,230477,1258913,69418,7934,628984,0
8,-1,688452,235354,1273868,72239,9119,636428,0
8,-1,661924,229693,1209720,68683,7600,604355,2
8,-1,664562,230198,1286796,68925,7746,642923,0
8,-1,668118,230725,1316442,68908,8513,657813,0
8,-1,690897,234741,1264145,72226,9151,631734,0
8,-1,665682,230983,1177010,69189,7633,588097,0
8,-1,667004,230491,1377302,68967,8524,688246,0
8,-1,666972,230442,1279800,68911,7844,639405,0
8,-1,666676,231061,1315531,69142,8503,657361,0
8,-1,667744,231300,1370604,69118,8851,684539,0
8,-1,667349,231438,1225716,69023,8426,612352,0
8,-1,675181,233428,1324424,70091,8249,661546,0
8,-1,667547,230441,1221649,68854,7667,610460,0
8,-1,666339,231100,1325111,68927,8545,662125,0
8,-1,674686,232887,1334942,69873,9328,666692,0
8,-1,688747,234706,1278399,71983,8342,638688,0
8,-1,661001,230463,1260719,68307,6641,629953,0
8,-1,666078,231873,1315369,69013,9035,657417,0
8,-1,665149,229540,1431142,68941,8783,715800,0
8,-1,672248,231510,1286908,69818,8010,642848,0
8,-1,685492,234632,1433770,72396,9300,716346,0
8,-1,672480,231947,1342856,70046,8049,670819,0
8,-1,671697,231002,1180169,69277,8098,589592,0
8,-1,669065,231673,1397519,69725,7744,698399,0
8,-1,675700,233195,1330330,70305,7753,664618,0
8,-1,694282,236702,1428865,72986,8764,713953,0
8,-1,669665,230592,1297416,69290,8574,648377,0
8,-1,670406,230139,1220111,69011,8362,609501,0
8,-1,676148,232452,1449326,70309,9912,723954,0
8,-1,670203,231372,1348012,69809,8491,673414,0
9,-1,663799,229814,1255431,68590,7776,627193,0
9,-1,666963,230267,1297154,68918,8741,648118,2
9,-1,670150,231885,1320832,69633,8006,659666,0
9,-1,670626,232144,1364350,69699,8665,681115,0
9,-1,670452,230733,1281025,69072,8683,640125,0
9,-1,664779,231082,1249898,69187,7871,624554,0
9,-1,667721,231136,1347481,69125,8240,673325,0
9,-1,667281,230481,1455796,68912,8120,727237,0
9,-1,668485,231770,1246726,69336,7636,622995,0
9,-1,667359,231286,1376729,69131,8676,687851,0
9,-1,667143,231814,1381147,69144,8643,690215,0
9,-1,668516,230552,1316568,68864,8147,658012,0
9,-1,665413,230030,1282491,68767,7536,640845,0
9,-1,666120,231436,1336355,69026,8814,667734,0
9,-1,694409,240034,1392126,71810,8162,695371,0
9,-1,667737,229860,1183679,68500,8029,591519,0
9,-1,656732,229883,1283591,68065,6690,641307,0
9,-1,662763,230448,1342521,68460,8293,671250,0
9,-1,672073,232631,1386930,70213,9049,692480,0
9,-1,667635,229998,1395157,69104,8287,697263,0
9,-1,670008,231657,1209224,69809,7628,603953,0
9,-1,688340,234853,1371991,72524,9604,685514,0
9,-1,670495,230732,1239566,69297,8684,619230,0
9,-1,671207,231235,1403598,69616,8241,701433,0
9,-1,669420,231217,1295792,69393,7398,647253,0
9,-1,668396,230464,1347216,69174,7938,673260,0
9,-1,690095,235061,1381475,72538,9210,690234,0
9,-1,671136,230622,1262803,69211,8342,630961,0
9,-1,669694,229811,1335165,69160,9248,667059,0
9,-1,666232,229741,1243348,69132,7829,621301,0
10,-1,666796,230700,1184063,68927,7835,591595,0
10,-1,664577,230169,1249666,68919,8077,624458,0
10,-1,669082,231420,1287375,69307,9569,643223,2
10,-1,664638,230111,1390562,68798,8666,694893,0
10,-1,670673,231206,1227914,69298,8186,613552,0
10,-1,661052,230139,1290073,68900,7468,644705,0
10,-1,666240,230223,1338996,68781,7959,669191,0
10,-1,666159,230322,1405235,68873,8672,702070,0
10,-1,668456,231405,1401480,69205,7997,700299,0
10,-1,665889,230795,1272383,68956,8083,635236,0
10,-1,663821,231739,1317638,69182,7607,658345,0
10,-1,669838,231605,1414668,69271,8466,706857,0
10,-1,668812,231328,1289687,69285,7832,644328,0
10,-1,667876,232166,1326791,69426,8245,662781,0
10,-1,666154,229928,1402765,68566,8769,700930,0
10,-1,668205,230329,1252909,68764,7872,626056,0
10,-1,655855,229944,1289160,68094,6391,644238,0
10,-1,661213,230047,1339773,68263,8781,669632,0
10,-1,685995,234617,1491146,72443,10028,745304,0
10,-1,665830,230008,1308717,69169,7578,654065,0
10,-1,664056,229745,1326728,69044,7988,662943,0
10,-1,667603,229985,1329518,69203,8292,664347,0
10,-1,671864,231614,1198923,69727,7898,598553,0
10,-1,669248,231858,1253314,69825,7806,626199,0
10,-1,672394,231715,1181793,69564,7243,590529,0
10,-1,678001,232377,1253281,69988,8663,626048,0
10,-1,672097,231305,1310969,69581,8046,655074,0
10,-1,671280,230638,1189940,69153,7655,594417,0
10,-1,675527,231928,1349904,70052,9019,674206,0
10,-1,666310,230297,1324690,69364,8672,661951,0
11,-1,671792,232034,1276799,69470,8482,637617,0
11,-1,663308,230009,1246969,68815,7404,623059,0
11,-1,666484,230543,1302591,68979,7037,650831,2
11,-1,664824,230160,1467292,68775,8608,733686,0
11,-1,671662,231680,1285229,69545,8673,642141,0
11,-1,664396,230711,1302200,69117,8170,650708,0
11,-1,667968,231358,1322546,69255,8299,661023,0
11,-1,687435,235408,1320192,72378,9058,659321,0
11,-1,667102,231284,1339974,69247,10109,669593,0
11,-1,665367,230721,1308530,68921,8060,654116,0
11,-1,680776,233929,1352197,70098,8571,675391,0
11,-1,666011,230742,1331798,68949,7802,665479,0
11,-1,666314,230678,1219891,68968,7864,609548,0
11,-1,666485,231936,1268850,69179,7887,634034,0
11,-1,672551,232243,1349875,69607,8723,674482,0
11,-1,669897,231010,1309470,68965,7931,654410,0
11,-1,671846,230653,1251984,68720,6151,625650,0
11,-1,661151,230427,1270736,68481,7931,634115,0
11,-1,666602,230445,1417697,69277,9140,708372,0
11,-1,669589,230019,1377776,69152,9255,688397,0
11,-1,667375,230881,1302364,69345,7330,650819,0
11,-1,666669,229667,1270136,69021,7884,634497,0
11,-1,667775,229560,1363598,68803,8323,681444,0
11,-1,667678,231423,1247962,69731,8848,623477,0
11,-1,670637,231247,1221932,69402,7621,610613,0
11,-1,675768,232893,1346667,70226,8727,672719,0
11,-1,667615,230099,1212205,69107,7156,605634,0
11,-1,670437,230741,1266620,69229,7798,632982,0
11,-1,670440,229940,1367578,69251,8645,683320,0
11,-1,665386,229767,1221511,69137,7253,610333,0
12,-1,665346,229866,1330725,68557,8049,664932,0
12,-1,665148,230339,1332699,68922,7618,665890,0
12,-1,674657,233127,1396302,69954,8742,697383,2
12,-1,665669,230958,1445663,69054,8724,722960,0
12,-1,674616,233143,1361308,70200,8805,680175,0
12,-1,682765,234731,1263044,72185,9292,631133,0
12,-1,669780,232505,1398007,69855,8695,698420,0
12,-1,667173,230645,1349817,69011,8367,674492,0
12,-1,668965,231989,1255980,69447,8313,626554,0
12,-1,671102,231340,1389181,69151,9177,694020,0
12,-1,677429,232792,1313018,69490,8948,656016,0
12,-1,668246,231701,1221241,69332,7716,610239,0
12,-1,665783,230333,1223652,68863,7897,611354,0
12,-1,674535,230928,1408318,68804,8253,703627,0
12,-1,665936,230278,1380599,68734,8555,689830,0
12,-1,669866,230293,1315849,68704,8239,657594,0
12,-1,672426,229905,1407271,68497,6766,703184,0
12,-1,667829,232793,1287142,69432,8818,642888,0
12,-1,663241,229636,1330263,68975,9196,664716,0
12,-1,670183,230968,1231474,69454,8164,615258,0
12,-1,665211,230518,1211277,69280,7581,605181,0
12,-1,666994,230223,1275147,69221,8230,637144,0
12,-1,674513,232435,1356873,70058,8495,677921,0
12,-1,668391,230940,1305760,69563,8053,652306,0
12,-1,688904,235875,1256576,72771,8018,627898,0
12,-1,672062,231201,1260961,69445,8143,630081,0
12,-1,666474,229971,1231167,69143,7963,615144,0
12,-1,669101,230323,1348305,69052,7984,673705,0
12,-1,671326,231140,1340460,69658,8093,669673,0
12,-1,664162,229092,1321908,68985,8487,660578,0
13,-1,664464,230231,1186278,68762,7365,592673,0
13,-1,661770,229435,1304034,68553,8116,651605,0
13,-1,667736,231886,1301510,69376,8273,650040,0
13,-1,662832,229982,1407676,68732,8324,702878,2
13,-1,671097,230540,1319893,69011,7917,659566,0
13,-1,668309,231011,1254656,69219,7657,626955,0
13,-1,666059,230714,1226370,68978,7580,612808,0
13,-1,671880,231363,1364276,69199,8680,681898,0
13,-1,664253,230359,1204596,68887,7359,602033,0
13,-1,670570,231371,1302424,69124,9359,650645,0
13,-1,679735,233684,1257443,70058,8640,627954,0
13,-1,668080,230790,1362516,68899,8532,681022,0
13,-1,666494,229821,1335758,68676,8559,667576,0
13,-1,674200,230999,1395236,68836,8438,697202,0
13,-1,667705,230554,1295324,68759,8874,647156,0
13,-1,689297,235243,1322891,72126,8053,661085,0
13,-1,679247,232926,1296229,69752,6823,647436,0
13,-1,681698,234673,1536371,71588,9382,767387,0
13,-1,664610,229968,1553818,69046,9817,776343,0
13,-1,667825,229996,1384511,69122,8654,691508,0
13,-1,669671,231764,1213080,69892,8330,605853,0
13,-1,669028,231448,1280400,69820,8195,639222,0
13,-1,671059,231465,1232002,69457,8023,615583,0
13,-1,673701,231162,1250404,69596,7792,624755,0
13,-1,670551,231615,1175189,69573,7820,587179,0
13,-1,670774,231043,1350186,69361,9126,674711,0
13,-1,673756,233039,1193049,70467,7979,595860,0
13,-1,669499,230271,1406528,69051,8121,702727,0
13,-1,666214,229240,1382858,68925,8430,691084,0
13,-1,665063,230002,1250682,69265,7869,625007,0
14,-1,664875,230706,1352791,69116,8406,675760,0
14,-1,663405,229927,1195907,68756,7585,597471,0
14,-1,690990,235236,1354392,72225,10423,676588,0
14,-1,663162,230454,1359206,69088,8542,679086,2
14,-1,670682,230293,1332645,68940,7616,665998,0
14,-1,670868,231640,1419731,69588,8705,709318,0
14,-1,664994,230695,1221168,69039,7462,610158,0
14,-1,669477,230796,1329894,69059,8499,665012,0
14,-1,669932,232876,1269769,69997,8167,634179,0
14,-1,672653,232505,1385366,69672,8432,691642,0
14,-1,695873,236474,1248906,72523,9148,623816,0
14,-1,690965,235662,1270419,72392,9275,634715,0
14,-1,687083,235028,1309198,72153,8993,654078,0
14,-1,672667,231000,1361846,68818,8776,680610,0
14,-1,674643,232390,1366077,69651,8531,682361,0
14,-1,667271,230217,1342664,68716,7742,671008,0
14,-1,677095,232193,1233777,69464,6945,616346,0
14,-1,660553,230309,1376023,68307,8458,687685,0
14,-1,668635,232071,1209044,69983,8464,604100,0
14,-1,690483,234949,1381930,72550,9261,690438,0
14,-1,665824,231123,1441561,69469,9275,720432,0
14,-1,688626,235331,1382286,72685,9835,690714,0
14,-1,668231,230489,1327186,69118,8139,663228,0
14,-1,671167,230773,1441564,69429,8818,721203,0
14,-1,669400,231707,1358106,69582,7999,678689,0
14,-1,672328,231808,1221085,69810,8279,609941,0
14,-1,667368,230883,1258315,69264,7957,628877,0
14,-1,671476,231989,1274925,69819,8410,636921,0
14,-1,668156,229879,1306162,69236,8230,652551,0
14,-1,665266,229729,1238337,69151,7723,618761,0
15,-1,674178,232951,1439901,69885,8951,719258,0
15,-1,666886,231586,1308949,69454,7920,653928,0
15,-1,670302,231153,1347069,69021,8993,673933,0
15,-1,667985,231253,1241047,69305,7892,620182,2
15,-1,670772,230780,1260123,69171,8121,629693,0
15,-1,666191,230494,1197247,69050,7003,598402,0
15,-1,664684,230468,1340600,68941,7905,670002,0
15,-1,669634,230733,1429922,69006,8549,714983,0
15,-1,669184,231406,1337089,69212,7422,668179,0
15,-1,667921,230502,1371962,68933,9396,684588,0
15,-1,673922,231930,1257393,69189,8394,628216,0
15,-1,670532,231626,1350358,69280,8642,674834,0
15,-1,663785,230020,1238093,68725,8266,618646,0
15,-1,672938,231394,1261307,68889,8307,630297,0
15,-1,667074,229879,1318225,68551,8547,658792,0
15,-1,667355,230432,1243609,68731,7252,621533,0
15,-1,671099,230156,1305228,68641,6924,652252,0
15,-1,666702,230048,1321799,68286,8123,660550,0
15,-1,662673,230098,1251996,69189,8092,625551,0
15,-1,668845,231088,1274337,69677,8294,636341,0
15,-1,670205,230580,1329594,69301,7989,664345,0
15,-1,667099,230384,1200831,69195,8538,600056,0
15,-1,696556,239724,1340388,71904,7718,669803,0
15,-1,677350,233032,1287310,70451,8548,642923,0
15,-1,667543,231241,1361550,69523,9239,680031,0
15,-1,694277,239464,1249605,71831,7879,624450,0
15,-1,668544,231208,1306385,69347,7724,652868,0
15,-1,672662,231275,1375405,69414,9365,687353,0
15,-1,674046,231746,1326971,69995,9134,662891,0
15,-1,671094,232497,1336152,70317,8547,667513,0
16,-1,664340,229637,1328026,68552,9004,663705,0
16,-1,661615,229808,1273162,68687,7568,636190,0
16,-1,669710,231277,1354605,69137,8790,676207,0
16,-1,667736,229977,1273170,68903,8020,636242,0
16,-1,669748,230612,1368616,69062,8020,683943,2
16,-1,669213,231990,1320647,69767,7980,659723,0
16,-1,665995,231397,1307906,69255,7989,653502,0
16,-1,673566,232944,1570512,70055,9001,783059,0
16,-1,665766,230600,1304043,68869,7447,651686,0
16,-1,668008,231515,1392536,69181,8462,695381,0
16,-1,673834,231794,1250155,69150,7885,624657,0
16,-1,667849,230688,1241282,68932,7852,620154,0
16,-1,664252,230146,1182243,68782,7873,590624,0
16,-1,671667,230500,1347134,68596,8597,673138,0
16,-1,666331,230185,1370509,68666,8609,684726,0
16,-1,669159,231477,1382897,69102,8014,691041,0
16,-1,670691,230302,1283429,68625,6518,641330,0
16,-1,664203,229529,1340343,68063,8762,669855,0
16,-1,662783,229903,1239000,69090,8406,619250,0
16,-1,667949,229438,1369915,68983,8592,684490,0
16,-1,670174,230209,1297511,69128,7725,648314,0
16,-1,663744,229815,1259359,69008,8924,629228,0
16,-1,670058,231218,1256824,69557,7444,627818,0
16,-1,691973,235533,1451059,72851,9502,724424,0
16,-1,671627,231323,1315441,69517,8132,657084,0
16,-1,669469,230985,1416375,69379,7833,707578,0
16,-1,670980,232554,1237935,69991,7980,618357,0
16,-1,671092,230761,1273503,69148,8379,636398,0
16,-1,669441,230371,1300194,69383,8788,649622,0
16,-1,686240,235065,1265166,72693,9110,632234,0
17,-1,668233,230544,1210278,68977,7571,604696,0
17,-1,669125,230167,1322260,68866,7787,660692,0
17,-1,669923,231764,1431625,69400,10367,714941,0
17,-1,669889,230891,1380050,69108,8081,689717,0
17,-1,663393,230674,1268406,69152,7415,633861,2
17,-1,687814,235170,1261752,72361,8371,630432,0
17,-1,664811,230862,1352098,69036,7491,675656,0
17,-1,667177,230974,1330659,69016,8284,665102,0
17,-1,670241,232321,1381530,69687,8056,690181,0
17,-1,670894,231856,1388747,69573,9067,693256,0
17,-1,674384,232048,1344187,69235,8780,671845,0
17,-1,666146,230471,1302172,68917,8456,650546,0
17,-1,663572,230056,1284160,68742,8482,641630,0
17,-1,675175,232011,1349388,69308,8766,674113,0
17,-1,668602,230791,1326386,68876,9848,662658,0
17,-1,667021,230438,1345876,68734,7945,672626,0
17,-1,668102,229619,1313041,68347,6744,656146,0
17,-1,664952,229832,1353057,68048,8043,676456,0
17,-1,666596,230136,1287294,69145,8791,643296,0
17,-1,670389,230921,1307389,69402,7828,653414,0
17,-1,667380,229641,1174834,68922,7880,586939,0
17,-1,664796,230389,1188386,69203,8778,593814,0
17,-1,669614,229844,1305235,68893,8323,652407,0
17,-1,671407,230455,1400213,69355,8683,699780,0
17,-1,672369,232099,1334337,69800,7819,666500,0
17,-1,669648,231435,1370776,69472,7829,685062,0
17,-1,678800,233266,1316105,70305,8588,657519,0
17,-1,668512,230154,1276837,69004,8373,638078,0
17,-1,669949,230769,1240100,69469,8643,619455,0
17,-1,670933,231984,1271910,70001,9100,635480,0
18,-1,670156,231708,1345948,69522,7971,672397,0
18,-1,666626,229668,1196369,68663,7114,597867,0
18,-1,666080,230392,1462929,68800,9983,731058,0
18,-1,672526,232021,1318830,69787,8684,658829,0
18,-1,662134,230948,1289020,69221,7712,644040,2
18,-1,665989,230582,1495023,69083,8720,747123,0
18,-1,664900,230559,1278790,68939,7023,638988,0
18,-1,665520,230677,1297184,69026,8062,647987,0
18,-1,663611,230349,1281385,68893,7470,640278,0
18,-1,667116,231076,1223651,69029,7502,611198,0
18,-1,692377,236417,1267773,72479,8709,633525,0
18,-1,668962,231619,1312364,69380,9043,655537,0
18,-1,670085,233011,1309968,70013,8689,654194,0
18,-1,670794,230536,1356600,68619,8853,677833,0
18,-1,668016,231258,1406633,69024,9647,702701,0
18,-1,665216,230003,1259961,68670,7594,629549,0
18,-1,669642,229493,1391584,68473,8002,695384,0
18,-1,672337,233247,1289765,69439,8403,643999,0
18,-1,666020,230545,1397409,69331,8920,698408,0
18,-1,688248,234867,1380825,72544,9660,690036,0
18,-1,670528,231546,1253284,69821,8683,625989,0
18,-1,670344,230888,1339689,69330,8299,669313,0
18,-1,670658,230099,1324778,69029,8295,662030,0
18,-1,672807,232024,1317750,70047,8478,658461,0
18,-1,673844,232522,1463222,70135,8789,730979,0
18,-1,669086,230478,1332115,69162,8459,665677,0
18,-1,677336,233137,1316215,70237,8627,657592,0
18,-1,673389,232441,1276645,70035,8131,637653,0
18,-1,670985,231017,1340010,69563,8907,669570,0
18,-1,666059,229894,1311055,69250,9000,654999,0
19,-1,672423,232369,1363660,69819,8215,681034,0
19,-1,664745,229747,1308381,68684,7957,653743,0
19,-1,668551,231657,1425923,69255,9140,712608,0
19,-1,689541,235206,1271048,72408,8817,635149,0
19,-1,665817,230967,1237887,69217,7889,618614,2
19,-1,664260,230157,1369018,68902,8611,684200,0
19,-1,696934,242289,1372836,72824,8615,685789,0
19,-1,667959,230794,1262592,69088,7577,630922,0
19,-1,666935,231286,1298192,69213,7625,648730,0
19,-1,663887,230201,1276855,68688,6899,638134,0
19,-1,674817,231425,1178337,69027,7325,588695,0
19,-1,669080,231464,1289123,69180,8106,644061,0
19,-1,687234,234549,1273719,72052,8335,636391,0
19,-1,670653,230779,1248285,68749,8451,623499,0
19,-1,667645,231002,1361785,68951,9163,680506,0
19,-1,672007,230656,1356951,68866,8350,678079,0
19,-1,670348,230201,1275098,68594,7136,637242,0
19,-1,684440,234845,1380589,71509,9021,689997,0
19,-1,666989,230642,1324369,69294,8756,661847,0
19,-1,668420,230719,1289962,69334,8932,644596,0
19,-1,669457,230173,1255351,69135,8029,627209,0
19,-1,667457,230837,1423853,69294,7924,711413,0
19,-1,672788,231415,1281269,69645,8164,639775,0
19,-1,671790,231647,1445830,69766,8187,722595,0
19,-1,670814,231844,1526050,69729,8734,762053,0
19,-1,670221,231297,1388168,69463,8573,693642,0
19,-1,673827,232113,1374973,69731,8355,687111,0
19,-1,691779,235901,1421718,72696,9634,710241,0
19,-1,666122,229598,1322282,69085,8639,660667,0
19,-1,693080,239432,1263334,72067,8166,631533,0
20,-1,686223,234234,1394900,71945,8498,697051,0
20,-1,669985,232032,1353094,69632,8064,675826,0
20,-1,668289,231126,1467201,69025,9607,733169,0
20,-1,669008,230665,1323134,69119,8194,661100,0
20,-1,666316,230655,1414119,69101,7766,706647,0
20,-1,667734,233098,1318126,70142,8277,658288,2
20,-1,687011,235871,1263986,72516,8147,631315,0
20,-1,666252,230242,1388900,68829,8147,694053,0
20,-1,665419,231541,1283169,69213,7803,641281,0
20,-1,671467,232696,1335328,69770,8316,667033,0
20,-1,671601,231630,1224795,69148,7336,612003,0
20,-1,666573,230547,1346337,68894,8202,672905,0
20,-1,668689,230350,1384860,68888,8156,691948,0
20,-1,672157,231340,1326682,68874,8927,663079,0
20,-1,665182,230344,1425886,68634,9177,712507,0
20,-1,669254,230607,1371442,68832,8145,685358,0
20,-1,672042,230594,1323093,68759,7506,661184,0
20,-1,664469,230141,1389358,68137,7974,694389,0
20,-1,664466,230265,1343268,69247,8600,671238,0
20,-1,667996,230657,1349640,69388,8860,674355,0
20,-1,671059,231417,1188682,69812,7756,593640,0
20,-1,666429,230386,1318621,69204,8104,658813,0
20,-1,670539,230076,1227103,69058,7730,613104,0
20,-1,677320,233285,1335101,70554,8532,666928,0
20,-1,668411,231415,1286955,69560,7823,643087,0
20,-1,668090,230611,1318330,69211,8217,658720,0
20,-1,669366,230539,1281354,69118,7985,640230,0
20,-1,669873,230740,1321022,69123,8301,660218,0
20,-1,695043,234608,1362953,72585,9907,680974,0
20,-1,665561,230360,1294926,69351,8732,647104,0
21,-1,664344,229773,1298160,68680,7124,648536,0
21,-1,663330,229291,1378871,68545,7970,689072,0
21,-1,672030,232841,1393973,69915,9866,695881,0
21,-1,667289,230439,1324601,68988,8158,661996,0
21,-1,666468,231103,1173251,69221,7338,586288,0
21,-1,662484,230463,1175102,69038,7643,587128,2
21,-1,666837,232041,1298950,69622,8431,648870,0
21,-1,667308,231056,1231332,69103,7995,615140,0
21,-1,668485,231018,1203137,68942,6990,601184,0
21,-1,690760,236552,1281170,72574,8481,640277,0
21,-1,694138,236600,1431824,72519,9033,715424,0
21,-1,685499,235280,1291140,72257,8735,645131,0
21,-1,666244,229701,1360353,68651,8512,679742,0
21,-1,673682,231509,1272092,68986,8920,635685,0
21,-1,666757,230300,1488992,68685,9641,744040,0
21,-1,669506,230475,1296446,68779,8277,647874,0
21,-1,675758,232430,1286594,69501,7627,642796,0
21,-1,666897,231380,1482798,68587,8167,740144,0
21,-1,663262,229815,1327523,69039,8397,663446,0
21,-1,670139,231605,1280036,69832,8759,639479,0
21,-1,688368,234862,1307340,72553,9165,653112,0
21,-1,666649,230708,1277367,69292,7508,638303,0
21,-1,669029,230356,1335123,69014,8714,667197,0
21,-1,693625,235999,1467624,73024,9516,733972,0
21,-1,690054,235840,1453161,72825,9863,725352,0
21,-1,671630,232270,1354555,69777,8178,676859,0
21,-1,668936,230657,1455685,69271,8562,727467,0
21,-1,668307,230553,1282193,69138,8366,640809,0
21,-1,673541,230635,1236634,69470,8363,617635,0
21,-1,670479,232024,1274468,70170,9581,636958,0
22,-1,664662,229785,1344799,68664,8011,672082,0
22,-1,666808,230302,1328027,68832,7902,663597,0
22,-1,663699,229995,1519994,68673,9113,759340,0
22,-1,669912,230658,1237139,69105,8408,618229,0
22,-1,669378,232185,1306102,69849,7653,652509,0
22,-1,661675,230732,1323117,69067,8314,661235,2
22,-1,662933,230836,1228798,69036,7410,613971,0
22,-1,665599,231393,1275628,69213,8823,636767,0
22,-1,688880,234850,1269165,72034,8352,634181,0
22,-1,665517,230798,1349106,68939,7804,674009,0
22,-1,670836,231810,1288478,69207,7525,643785,0
22,-1,669577,231470,1332244,69142,8109,665630,0
22,-1,671858,232002,1355189,69604,8149,676911,0
22,-1,665906,229345,1380700,68274,8639,689881,0
22,-1,665061,230498,1415689,68798,8736,707454,0
22,-1,669868,230762,1406555,68790,8094,702956,0
22,-1,671160,230469,1360629,68678,7685,679988,0
22,-1,667084,231576,1290366,68768,8327,644182,0
22,-1,663872,230468,1340395,69232,7869,669917,0
22,-1,663917,229571,1333691,68907,7624,666452,0
22,-1,667483,230199,1292772,69231,7065,645992,0
22,-1,668127,231104,1282539,69522,7937,640859,0
22,-1,674495,232251,1264626,69966,8659,631624,0
22,-1,673949,232278,1282526,70002,8268,640901,0
22,-1,673145,232702,1319446,70005,8558,659138,0
22,-1,695487,235884,1513978,72706,10024,756634,0
22,-1,679780,233576,1349366,70472,8421,674102,0
22,-1,673241,231692,1319248,69726,8795,659025,0
22,-1,670872,229952,1379840,69216,7776,689584,0
22,-1,685897,234505,1316285,72534,9479,657485,0
23,-1,668226,231579,1344661,69348,8330,671508,0
23,-1,664265,230198,1301094,68829,7498,650110,0
23,-1,667192,231245,1366076,69088,9052,682694,0
23,-1,667993,230303,1317996,68953,8282,658715,0
23,-1,683120,234253,1254017,72037,7828,626637,0
23,-1,664450,230729,1186585,69000,7192,592962,2
23,-1,666751,230996,1172028,69086,7192,585675,0
23,-1,669991,231019,1255614,69126,8542,627415,0
23,-1,670706,231880,1347146,69278,7304,673137,0
23,-1,666474,231029,1335686,68947,7498,667271,0
23,-1,674311,233179,1329984,69810,7951,664363,0
23,-1,667391,230622,1232220,68899,7500,615807,0
23,-1,667223,230506,1244244,68921,7966,621647,0
23,-1,674956,232739,1362003,69629,8889,680343,0
23,-1,663582,230176,1198066,68593,7532,598701,0
23,-1,716677,244552,1430184,74896,8741,714683,0
23,-1,669928,230290,1346818,68627,7395,673108,0
23,-1,662776,230167,1324706,68207,8124,661807,0
23,-1,669398,232541,1254784,70168,8303,626829,0
23,-1,665868,230618,1371080,69394,7991,685044,0
23,-1,667925,230667,1269545,69328,7179,634290,0
23,-1,666681,230672,1235251,69321,7440,617255,0
23,-1,670974,230708,1428516,69223,8526,713819,0
23,-1,669940,230791,1361475,69481,8217,680444,0
23,-1,668117,230914,1348931,69395,7917,674395,0
23,-1,673391,231259,1280580,69477,8355,639868,0
23,-1,671333,230779,1368544,69218,8276,683880,0
23,-1,668611,230376,1368963,69065,9038,684220,0
23,-1,672127,230309,1294150,69384,8638,646650,0
23,-1,663487,230118,1255109,69323,7925,627278,0
24,-1,665123,230432,1343395,68787,8071,671220,0
24,-1,663027,229904,1300416,68711,7150,649760,0
24,-1,670685,231099,1370076,69058,10300,684422,0
24,-1,666192,229459,1323550,68790,8570,661362,0
24,-1,663821,230170,1289663,68887,7781,644493,0
24,-1,684186,235282,1236257,72297,8269,617832,0
24,-1,670846,233163,1254921,70080,8212,626853,2
24,-1,672942,232349,1333253,69776,9029,665667,0
24,-1,665972,230528,1281936,68728,6748,640648,0
24,-1,669241,231044,1335693,68951,7978,667504,0
24,-1,676863,232858,1249524,69534,7886,624291,0
24,-1,668025,231291,1304741,69155,7898,652023,0
24,-1,666814,230360,1315566,68767,8337,657444,0
24,-1,669745,231318,1455000,68968,9026,727038,0
24,-1,672520,231225,1217001,69073,7601,608092,0
24,-1,666276,230165,1306005,68646,7940,652658,0
24,-1,675567,231801,1320846,69313,8213,660007,0
24,-1,666896,230914,1465503,68399,7904,732330,0
24,-1,686250,234716,1382797,72404,9022,691053,0
24,-1,704856,242155,1503845,73070,9495,750610,0
24,-1,667064,230660,1310141,69349,7757,654574,0
24,-1,666092,230187,1395681,69226,8425,697282,0
24,-1,670830,230921,1299312,69294,8731,649263,0
24,-1,671204,231579,1324190,69777,8647,661658,0
24,-1,667846,231174,1324996,69444,8173,662576,0
24,-1,673314,231463,1428502,69475,8535,713847,0
24,-1,675075,233113,1290940,70216,7938,644871,0
24,-1,668061,230602,1420945,69203,8758,709994,0
24,-1,674943,231674,1307935,69971,9190,653209,0
24,-1,664529,229715,1288095,69126,9170,643336,0
25,-1,664593,230472,1230791,68719,7900,614959,0
25,-1,663424,230442,1380609,68893,7924,689902,0
25,-1,668375,230575,1368452,68839,8640,683942,0
25,-1,673427,232881,1427716,70054,8571,713316,0
25,-1,661065,229715,1229585,68704,7651,614476,0
25,-1,664756,231050,1253528,69139,7764,626456,0
25,-1,663689,230952,1251249,69065,8489,625283,2
25,-1,690401,235500,1316655,72359,9161,657770,0
25,-1,670941,232284,1316428,69571,8173,657678,0
25,-1,667483,230874,1252622,68919,7968,625997,0
25,-1,672980,231767,1358923,69137,8683,679064,0
25,-1,665960,230828,1330095,69029,7906,664848,0
25,-1,668531,230443,1215894,68845,7793,607446,0
25,-1,670669,230653,1250038,68708,8829,624654,0
25,-1,672708,232189,1399440,69574,9195,699085,0
25,-1,667268,230227,1343220,68711,8343,671291,0
25,-1,669727,229646,1361331,68415,8003,680306,0
25,-1,672439,233427,1289742,69556,8573,643908,0
25,-1,662552,229792,1364363,68966,7941,681825,0
25,-1,693239,235670,1460355,72784,10399,729239,0
25,-1,669243,231543,1335876,69658,8208,667580,0
25,-1,669029,231738,1308036,69895,7996,653238,0
25,-1,673538,232259,1238442,70002,8449,618468,0
25,-1,674611,233400,1519063,70610,9198,758312,0
25,-1,667620,231550,1436984,69591,8376,718136,0
25,-1,669775,229899,1276377,68929,7579,637776,0
25,-1,672233,231727,1337680,69654,8163,668384,0
25,-1,667245,230386,1277047,69094,8420,638097,0
25,-1,670404,230356,1293688,69343,9333,646382,0
25,-1,667875,231612,1407418,70028,9341,702589,0
26,-1,668999,232072,1308222,69552,8324,653387,0
26,-1,663328,229344,1192421,68468,7547,595843,0
26,-1,670496,231250,1368010,68992,9619,683413,0
26,-1,688792,234973,1291558,72250,8787,645258,0
26,-1,664061,231080,1217642,69226,7692,608526,0
26,-1,663455,230807,1299341,69023,8090,649415,0
26,-1,694192,240460,1277594,71941,7540,638431,2
26,-1,670988,231864,1372817,69409,9034,686461,0
26,-1,667265,230655,1316378,68792,7833,657813,0
26,-1,673431,233145,1342240,69909,8581,670488,0
26,-1,673265,231942,1359096,69223,8491,679145,0
26,-1,671032,232951,1318055,69997,8649,658220,0
26,-1,688772,235160,1313778,72112,8617,656245,0
26,-1,673871,231831,1246273,69114,8364,622822,0
26,-1,690076,235358,1424642,72184,9539,711954,0
26,-1,672542,231706,1327798,69361,8337,663308,0
26,-1,669170,230403,1325865,68584,7333,662681,0
26,-1,690551,236356,1403290,72465,9888,700876,0
26,-1,666116,231114,1244792,69537,8453,621949,0
26,-1,668517,229683,1228896,69018,8973,613873,0
26,-1,665245,230113,1363914,69145,7676,681530,0
26,-1,664387,229826,1271401,69047,8537,635324,0
26,-1,690236,235173,1362970,72520,9484,680971,0
26,-1,675691,232616,1387839,70121,9185,693045,0
26,-1,667463,231856,1294580,69714,8824,646766,0
26,-1,674119,232073,1362493,69735,8342,680899,0
26,-1,675861,232454,1328913,69793,8388,664050,0
26,-1,673476,233051,1274984,70215,8394,636857,0
26,-1,670750,230162,1244566,69325,8559,621773,0
26,-1,686826,235853,1445259,72952,9532,722134,0
27,-1,667283,230916,1345226,69071,8033,672140,0
27,-1,665436,230124,1234221,68844,7934,616670,0
27,-1,673494,233065,1427332,69856,10089,712640,0
27,-1,668347,230630,1306437,69105,8397,652850,0
27,-1,672201,232629,1292776,70038,7942,645717,0
27,-1,666560,232111,1326786,69636,7916,662826,0
27,-1,669628,232678,1315505,69932,8025,657076,2
27,-1,669465,231383,1418323,69276,8948,708729,0
27,-1,670539,231704,1291577,69241,7933,645434,0
27,-1,668074,231477,1228825,69136,7311,614011,0
27,-1,671720,232317,1348800,69607,8037,673698,0
27,-1,685567,235162,1271858,72221,8732,635365,0
27,-1,668159,230598,1322123,68889,7922,660692,0
27,-1,669261,230694,1333981,68728,8310,666656,0
27,-1,668300,230981,1216696,68889,8238,607943,0
27,-1,668342,230489,1331417,68777,7540,665299,0
27,-1,692845,235402,1499132,72098,9639,749017,0
27,-1,665683,230897,1331360,68443,7969,664859,0
27,-1,661967,230157,1350939,69135,8453,675139,0
27,-1,670748,230876,1276742,69426,8545,637862,0
27,-1,669126,230477,1251131,69212,8129,625223,0
27,-1,667496,231047,1267825,69509,8426,633528,0
27,-1,673826,232413,1223184,70046,8420,610695,0
27,-1,668770,230582,1397931,69492,9060,699046,0
27,-1,665858,231534,1425953,69579,8578,712540,0
27,-1,668925,230543,1393203,69227,8161,696317,0
27,-1,676132,233029,1264779,70140,8262,631642,0
27,-1,690196,235979,1403371,72726,10403,701357,0
27,-1,669908,229838,1225391,69176,8660,612312,0
27,-1,663903,229831,1287288,69245,8935,642913,0
28,-1,665717,230411,1211376,68791,7391,605326,0
28,-1,664012,230008,1220809,68815,7261,609931,0
28,-1,671950,232261,1538016,69309,9408,768021,0
28,-1,667021,230240,1304409,68936,8155,651862,0
28,-1,689844,236024,1225839,72652,8505,612445,0
28,-1,663201,230827,1202989,69091,7340,601353,0
28,-1,670990,231799,1325723,69569,7314,662408,0
28,-1,669232,231744,1348482,69428,8302,673772,2
28,-1,666853,231115,1359752,69156,7979,679220,0
28,-1,669270,232427,1349619,69614,7367,674058,0
28,-1,670092,231896,1225316,69435,7302,612276,0
28,-1,669859,232349,1333142,69446,8446,666040,0
28,-1,674251,232848,1407368,69773,8314,703081,0
28,-1,677487,233207,1395592,69740,9071,697103,0
28,-1,664396,229808,1273118,68544,8655,636321,0
28,-1,666334,229972,1412641,68607,8221,706031,0
28,-1,670733,230737,1472213,68806,8721,735685,0
28,-1,668355,231845,1504059,68902,8247,751558,0
28,-1,667465,232053,1262485,70045,8789,630727,0
28,-1,668569,230209,1327226,69176,8162,662768,0
28,-1,670705,231351,1254380,69736,8023,626442,0
28,-1,662274,229823,1252033,69057,8336,625541,0
28,-1,689094,235049,1298417,72448,9638,648670,0
28,-1,671636,231708,1329027,69784,8724,663925,0
28,-1,673880,231449,1313572,69495,9296,656315,0
28,-1,670744,231619,1265236,69577,8205,632220,0
28,-1,674142,231989,1382315,69648,8811,690742,0
28,-1,666280,230037,1258069,68997,8860,628533,0
28,-1,673559,231734,1251068,70026,8452,624703,0
28,-1,663890,229959,1384158,69196,8983,691113,0
29,-1,669497,232039,1328848,69611,7627,663747,0
29,-1,667825,231637,1359910,69437,8125,679347,0
29,-1,670688,232369,1451824,69534,9582,725354,0
29,-1,670112,231834,1330737,69670,8313,664819,0
29,-1,662666,230211,1180418,68921,6924,589824,0
29,-1,662212,230739,1362389,69069,7938,680753,0
29,-1,668625,231154,1270788,69222,7233,635009,0
29,-1,668464,230886,1404499,69105,8601,701835,2
29,-1,667876,231060,1284527,69161,8130,640894,0
29,-1,666303,231048,1340177,68998,7318,669674,0
29,-1,673761,231220,1329746,69190,8627,664486,0
29,-1,664936,230893,1235749,68931,7941,617472,0
29,-1,668860,231114,1334733,69040,7806,666835,0
29,-1,691830,235581,1350340,72124,9682,674613,0
29,-1,669131,230383,1224240,68772,8475,611676,0
29,-1,667275,230528,1341483,68763,8206,670457,0
29,-1,670311,230464,1335407,68690,8481,666831,0
29,-1,661365,230034,1304520,68118,7901,651914,0
29,-1,682474,234559,1350206,72439,9492,674758,0
29,-1,687139,234632,1620313,72445,10280,809725,0
29,-1,665702,229849,1337414,69029,8560,668336,0
29,-1,673591,231102,1261411,69691,8153,630190,0
29,-1,669497,230445,1204228,69160,8310,601695,0
29,-1,671157,231520,1443519,69699,9257,720954,0
29,-1,677450,233285,1352889,70432,9196,676427,0
29,-1,672297,231324,1360442,69465,8510,679749,0
29,-1,672239,231153,1249002,69332,8492,624173,0
29,-1,673632,233140,1366366,70413,9349,682220,0
29,-1,667508,229683,1190209,69061,7737,594526,0
29,-1,663535,230256,1314017,69344,9592,656489,0
30,-1,685759,234797,1349575,72060,8957,674329,0
30,-1,663920,229908,1258622,68749,7273,628887,0
30,-1,693361,240337,1421543,71673,9490,710489,0
30,-1,666765,230744,1218207,69171,8028,608719,0
30,-1,666786,232097,1334621,69730,7831,666625,0
30,-1,662778,231080,1226928,69121,7629,613093,0
30,-1,691188,235661,1270173,72439,8072,634655,0
30,-1,668700,233024,1350061,70072,8147,673619,2
30,-1,668721,231788,1365963,69539,8266,682057,0
30,-1,671011,232621,1320419,69800,8445,659510,0
30,-1,677559,233157,1338632,70119,8442,668631,0
30,-1,672443,231625,1316741,69161,8174,657889,0
30,-1,669085,231722,1312147,69259,8233,655642,0
30,-1,669266,230948,1467628,68831,9026,733348,0
30,-1,667978,230051,1263813,68613,9363,631493,0
30,-1,691023,235502,1256797,72225,9117,627992,0
30,-1,671808,231487,1411034,69079,8426,705577,0
30,-1,684822,234988,1387232,71554,9415,692870,0
30,-1,665605,229648,1224728,68973,8178,611999,0
30,-1,674001,232837,1307305,70236,8494,652529,0
30,-1,669123,230951,1356643,69419,8340,677798,0
30,-1,667558,228684,1339495,68716,8411,669402,0
30,-1,670366,231002,1244233,69315,8099,621460,0
30,-1,675003,233221,1340497,70568,9214,669142,0
30,-1,673918,231951,1289260,69757,8530,644234,0
30,-1,673315,231872,1339306,69830,7630,669087,0
30,-1,694800,237255,1353491,73115,9403,676094,0
30,-1,692360,236567,1291906,72974,9819,645523,0
30,-1,668732,230012,1261985,69191,8822,630537,0
30,-1,663418,230508,1500343,69358,9135,749902,0
31,-1,663894,230145,1297733,68715,7930,648512,0
31,-1,663464,229708,1217237,68695,7241,608125,0
31,-1,674234,233508,1367678,70004,9403,682720,0
31,-1,670239,230138,1237502,68935,7080,618356,0
31,-1,684028,235272,1317725,72408,8153,658550,0
31,-1,683191,235310,1234991,72328,7718,617036,0
31,-1,669850,231526,1336660,69304,7268,668014,0
31,-1,665341,231561,1474114,69284,8327,736096,2
31,-1,665884,230669,1352794,68973,8065,675994,0
31,-1,687820,235532,1290549,72264,8593,644766,0
31,-1,672580,231285,1366957,69266,7572,683006,0
31,-1,670024,230776,1349293,68908,8309,674200,0
31,-1,664960,230304,1309358,68763,8414,654226,0
31,-1,673263,232967,1395676,69637,9354,697489,0
31,-1,667781,230673,1294415,68878,8536,646273,0
31,-1,664856,230103,1206423,68578,7884,602883,0
31,-1,670849,230224,1419022,68679,8872,709250,0
31,-1,665122,230465,1352856,68297,8170,676026,0
31,-1,669614,230301,1346304,69204,9126,672857,0
31,-1,666297,229547,1454055,68970,8955,726005,0
31,-1,685840,234338,1357788,72324,9557,678536,0
31,-1,666339,229345,1302392,68861,8440,650806,0
31,-1,667861,230408,1253183,69145,8388,626057,0
31,-1,693432,236852,1457241,73229,10569,727756,0
31,-1,674063,232569,1360239,70127,8672,679529,0
31,-1,671444,231683,1377010,69595,8879,688220,0
31,-1,669751,231080,1247012,69216,7751,623145,0
31,-1,672072,231701,1288631,69581,8032,643885,0
31,-1,666346,229481,1238929,68958,8273,619121,0
31,-1,664996,230412,1567960,69368,9650,784244,0
32,-1,664853,230956,1195484,68971,6941,597381,0
32,-1,682996,234716,1241387,72149,8141,620151,0
32,-1,665098,230508,1375628,68768,8974,687507,0
32,-1,668725,230709,1295785,69106,7667,647534,0
32,-1,662867,230502,1410229,69054,7745,704701,0
32,-1,668125,230262,1310921,68818,8731,655243,0
32,-1,665127,229995,1311645,68837,7391,655313,0
32,-1,668560,231305,1521127,69144,8514,760251,0
32,-1,665064,230881,1273961,69082,7046,636629,2
32,-1,665513,230901,1301056,68990,7931,650113,0
32,-1,677564,232974,1310443,69968,8345,654441,0
32,-1,691500,235578,1270845,72200,9101,634948,0
32,-1,669594,230953,1345306,69050,8099,672265,0
32,-1,669798,230718,1455181,68706,10247,727147,0
32,-1,664539,229569,1364737,68410,8599,682258,0
32,-1,665920,230867,1177765,68931,7261,588423,0
32,-1,669859,230305,1356048,68773,8280,677568,0
32,-1,663917,230109,1217282,68132,8169,608379,0
32,-1,668255,230449,1379245,69242,9145,689246,0
32,-1,674174,233237,1279949,70493,8225,638889,0
32,-1,664894,230250,1287364,69214,7874,643021,0
32,-1,675604,232170,1227114,70061,7885,612672,0
32,-1,669953,231298,1249183,69533,8046,624302,0
32,-1,671460,231905,1307433,69755,8956,653075,0
32,-1,677370,232323,1347400,69885,9172,673189,0
32,-1,673670,232248,1260601,69966,8213,629718,0
32,-1,695702,240319,1418714,71911,8605,708907,0
32,-1,679756,232504,1277182,70010,7835,637863,0
32,-1,670171,230768,1320506,69493,8361,659759,0
32,-1,689361,235283,1464112,72756,10084,731658,0
33,-1,664539,231025,1399626,69191,7539,699244,0
33,-1,664041,229762,1264694,68711,8362,631966,0
33,-1,665123,230602,1416630,68785,9498,707888,0
33,-1,668444,230003,1204961,68851,7608,602061,0
33,-1,662068,229763,1189449,68864,6542,594338,0
33,-1,668443,230937,1229732,69124,8093,614472,0
33,-1,668445,231250,1272532,69203,7503,635898,0
33,-1,669360,232053,1364526,69621,8192,681246,0
33,-1,665937,231273,1325497,69177,8536,662644,2
33,-1,664356,230846,1177858,68953,6962,588450,0
33,-1,672647,231578,1221523,69386,7753,610301,0
33,-1,673331,232048,1341471,69317,8805,670157,0
33,-1,668195,231010,1363242,68971,8107,680846,0
33,-1,676950,233886,1413963,69998,9553,706210,0
33,-1,669418,231142,1343828,69228,8319,671205,0
33,-1,667056,229740,1379237,68486,8510,689139,0
33,-1,670097,230730,1402898,68819,8382,701288,0
33,-1,665391,230966,1240652,68391,8385,619707,0
33,-1,688718,234523,1373424,72429,9412,686395,0
33,-1,665882,230191,1394534,69222,8592,696547,0
33,-1,664286,229872,1250898,69068,8180,624972,0
33,-1,691620,234978,1401013,72536,9234,700078,0
33,-1,667071,230457,1345899,69154,8342,672529,0
33,-1,675095,232593,1233781,70147,9065,616052,0
33,-1,670187,230817,1332486,69340,8915,665913,0
33,-1,668996,230755,1262662,69233,7630,630986,0
33,-1,671657,231876,1376934,69685,8413,688186,0
33,-1,676589,231605,1333458,69500,8784,666290,0
33,-1,668304,229731,1233626,68976,7266,616467,0
33,-1,664808,229715,1379672,69133,8866,689038,0
34,-1,663813,229762,1245862,68619,7548,622485,0
34,-1,665108,230508,1199387,68988,7797,599329,0
34,-1,665486,230848,1322268,68958,9400,660629,0
34,-1,667618,230200,1250579,68971,7595,624843,0
34,-1,666015,231621,1339671,69584,7772,669429,0
34,-1,665270,230189,1320450,68817,7927,659575,0
34,-1,670621,232888,1304943,69998,7767,652012,0
34,-1,663105,229629,1273462,68730,7871,636275,0
34,-1,668596,231526,1320354,69208,8625,659855,2
34,-1,669514,230559,1379896,68780,8921,689327,0
34,-1,671941,231619,1274703,69333,8569,636900,0
34,-1,670432,231015,1238520,68956,8065,618920,0
34,-1,666181,230466,1234447,68833,7611,616744,0
34,-1,689865,235294,1325839,72041,10359,662606,0
34,-1,665683,230329,1353442,68726,8288,676202,0
34,-1,673036,232561,1290060,69703,8213,644179,0
34,-1,689692,235010,1498220,72051,9683,748538,0
34,-1,666384,231422,1215456,68767,8269,606937,0
34,-1,666931,229645,1205339,68973,8100,602398,0
34,-1,663001,229415,1414471,68876,8284,706849,0
34,-1,665232,229947,1326915,69074,7792,662852,0
34,-1,670121,230539,1250550,69283,7758,624845,0
34,-1,666685,230305,1298107,69060,7915,648624,0
34,-1,666642,230470,1264550,69257,9006,631908,0
34,-1,671829,231810,1547634,69745,9171,774678,0
34,-1,669721,232148,1244094,69872,7444,621582,0
34,-1,667293,230318,1400494,69140,8313,699986,0
34,-1,674199,230979,1263071,69301,7858,631131,0
34,-1,691802,235505,1391636,72689,8837,695528,0
34,-1,663907,229798,1276229,69158,8767,637273,0
35,-1,691653,239373,1293092,71488,7738,646232,0
35,-1,667163,231375,1250024,69422,8515,624171,0
35,-1,673627,231243,1354058,69059,9409,676633,0
35,-1,668250,230352,1334366,68969,7785,666796,0
35,-1,664630,230884,1241034,69180,7533,619990,0
35,-1,665399,230468,1336183,68950,7717,667798,0
35,-1,662886,230173,1284658,68804,6990,642060,0
35,-1,664081,230387,1467553,68805,8429,733137,0
35,-1,674435,232299,1439671,69568,9848,719167,0
35,-1,664453,230741,1319326,68863,7636,659216,2
35,-1,670772,231264,1212445,69196,7860,605675,0
35,-1,672606,232326,1333274,69570,8735,665981,0
35,-1,666601,231039,1163423,69026,7675,581191,0
35,-1,667917,230169,1292066,68497,9896,645842,0
35,-1,666848,230543,1293568,68811,8155,646468,0
35,-1,690241,235596,1356874,72244,9008,678010,0
35,-1,667824,229442,1270364,68458,7621,634858,0
35,-1,662685,230294,1341196,68244,8324,670180,0
35,-1,668625,231417,1240002,69761,8390,619376,0
35,-1,670516,231422,1290768,69780,9554,644681,0
35,-1,668618,231261,1214270,69562,7454,606526,0
35,-1,670408,230646,1250407,69278,7534,624854,0
35,-1,669937,231322,1421599,69423,8688,710478,0
35,-1,700508,242846,1268082,73296,8715,633297,0
35,-1,670084,231083,1355646,69494,8612,676852,0
35,-1,669004,230530,1329749,69087,7199,664534,0
35,-1,672684,232983,1299689,70246,8367,649221,0
35,-1,697914,236212,1471509,72858,9222,735304,0
35,-1,670943,230263,1331029,69156,8569,665199,0
35,-1,664274,229839,1371432,69154,9089,685911,0
36,-1,668538,232228,1325191,69677,7961,661945,0
36,-1,662383,229850,1216112,68821,7889,607629,0
36,-1,668730,230297,1401904,68760,9648,700035,0
36,-1,669272,231174,1304641,69286,7314,652024,0
36,-1,663378,230182,1254291,68905,7921,626774,0
36,-1,664344,230172,1287988,68807,7289,643643,0
36,-1,670892,232036,1333673,69641,7684,666254,0
36,-1,671550,233167,1335939,70096,7978,666930,0
36,-1,669876,230936,1372667,68989,9600,685861,0
36,-1,667947,231438,1299297,69251,7778,648354,2
36,-1,671167,231536,1320304,69295,7669,659623,0
36,-1,671677,231195,1219030,68999,8026,609146,0
36,-1,665982,231045,1248021,68989,7960,623403,0
36,-1,671027,231659,1344877,69066,10427,671984,0
36,-1,662790,229461,1354926,68383,8384,677040,0
36,-1,665285,229981,1267776,68575,8483,633553,0
36,-1,670147,231477,1309185,69284,7647,653626,0
36,-1,661391,230001,1344622,68119,8548,671548,0
36,-1,668967,230201,1304512,69206,9206,651961,0
36,-1,669886,230719,1353932,69374,9351,676484,0
36,-1,686973,234658,1446124,72468,9347,722549,0
36,-1,669579,230708,1324948,69333,8262,662050,0
36,-1,668888,230281,1313553,69057,7533,656400,0
36,-1,668261,231185,1246565,69507,8402,622904,0
36,-1,674171,232689,1315075,70148,8665,656919,0
36,-1,669383,231037,1315465,69352,7697,657310,0
36,-1,688914,235568,1401824,72683,9488,700525,0
36,-1,672089,230454,1303681,69126,8418,651443,0
36,-1,669484,230377,1261401,69235,7979,630209,0
36,-1,686658,234839,1420960,72638,9828,709603,0
37,-1,663600,230057,1209215,68757,7244,604326,0
37,-1,662875,230202,1217707,68822,7230,608421,0
37,-1,669199,230409,1276310,68807,8057,637697,0
37,-1,665893,229840,1167989,68773,7203,583577,0
37,-1,682553,235137,1250655,72355,8347,624915,0
37,-1,668112,231349,1235712,69247,7803,617127,0
37,-1,667067,230437,1328605,68903,7473,663884,0
37,-1,666294,231338,1321015,69320,7866,659995,0
37,-1,670626,231049,1450829,69000,10068,724831,0
37,-1,668377,232829,1341053,69868,8675,670037,2
37,-1,675170,233509,1323713,70223,7952,661059,0
37,-1,693746,236484,1401921,72538,8582,700571,0
37,-1,665667,230625,1189556,68899,7996,594305,0
37,-1,672536,232585,1357467,69521,9631,677989,0
37,-1,690882,234884,1290322,72029,8982,644674,0
37,-1,666667,230213,1338741,68697,7967,669253,0
37,-1,666739,230205,1475561,68681,8300,737109,0
37,-1,664507,230503,1329913,68338,8463,665453,0
37,-1,667300,229683,1332944,68943,8548,666207,0
37,-1,667943,230443,1273787,69280,9576,636374,0
37,-1,665350,229747,1296773,69013,8629,648036,0
37,-1,673051,231760,1265233,69929,8338,631725,0
37,-1,672785,232314,1237923,70009,7354,618252,0
37,-1,666866,231360,1368243,69527,9049,684130,0
37,-1,670507,231789,1372254,69714,9425,684907,0
37,-1,668040,230666,1353766,69231,8250,676549,0
37,-1,669898,231247,1234615,69464,8373,616977,0
37,-1,671572,230525,1356998,69154,8759,678121,0
37,-1,669916,230779,1320867,69360,8276,660101,0
37,-1,665148,229889,1281449,69226,9148,640368,0
38,-1,661234,229366,1366657,68500,7843,683187,0
38,-1,668392,232342,1274309,69799,7731,636301,0
38,-1,691074,235247,1371077,72102,9407,684985,0
38,-1,668593,230487,1278387,69052,8036,638736,0
38,-1,659882,230355,1280145,69012,7779,639629,0
38,-1,670724,231663,1325677,69502,8294,662321,0
38,-1,667279,231841,1210878,69405,7054,604956,0
38,-1,663783,230796,1288115,69032,7081,643258,0
38,-1,670817,231403,1362829,69073,9247,681036,0
38,-1,666877,231040,1324098,69031,8719,661692,2
38,-1,672005,231429,1320003,69305,7869,659589,0
38,-1,671345,232031,1413377,69327,8294,706239,0
38,-1,667038,231293,1231867,69092,8238,615528,0
38,-1,670028,231381,1505014,68952,9844,751360,0
38,-1,671006,231941,1398171,69445,7887,698385,0
38,-1,667504,231125,1237143,69024,7968,618122,0
38,-1,665897,230213,1607145,68679,9391,801824,0
38,-1,665241,231087,1261110,68479,8251,630186,0
38,-1,668294,230359,1279710,69259,8728,639497,0
38,-1,670836,231505,1371089,69592,8864,685545,0
38,-1,668002,230053,1217143,69188,8307,608090,0
38,-1,694839,236195,1325131,73448,9836,662007,0
38,-1,668197,230580,1224912,69197,7203,612021,0
38,-1,670912,230963,1380487,69368,8310,689286,0
38,-1,669455,231310,1374819,69512,9189,686347,0
38,-1,675196,233084,1351037,70259,8017,675038,0
38,-1,670554,230812,1413984,69331,9152,706586,0
38,-1,674515,231503,1250588,69501,7712,624827,0
38,-1,668240,229975,1239134,69063,8097,619197,0
38,-1,666108,230192,1376967,69270,9170,687684,0
39,-1,679424,236514,1351231,70508,8247,674763,0
39,-1,670339,231183,1345269,69282,8502,671911,0
39,-1,668168,230593,1295725,68890,7999,647433,0
39,-1,669780,231143,1258593,69206,8350,629013,0
39,-1,666183,230422,1277190,69050,8306,638254,0
39,-1,667027,230993,1419969,69120,8043,709544,0
39,-1,667207,231883,1301760,69570,7565,650388,0
39,-1,668564,232359,1304200,69789,7706,651523,0
39,-1,690683,235691,1346153,72324,9176,672425,0
39,-1,668443,231433,1364008,69198,7637,681342,2
39,-1,676423,233540,1362406,70093,8303,680598,0
39,-1,667969,231215,1221221,69039,7396,610292,0
39,-1,669047,232838,1356541,69863,8358,677550,0
39,-1,670335,230638,1375082,68673,10306,686857,0
39,-1,665494,230135,1339615,68635,7778,669381,0
39,-1,668440,231617,1298216,69140,8868,648743,0
39,-1,672584,231249,1417026,68989,8315,707732,0
39,-1,661699,230387,1345347,68279,8531,672341,0
39,-1,669429,230812,1357718,69372,8793,678438,0
39,-1,666876,230220,1311867,69182,8480,655595,0
39,-1,673804,232796,1253601,70269,8022,626070,0
39,-1,671603,230863,1204833,69376,8156,602095,0
39,-1,667006,230719,1383824,69194,8890,691834,0
39,-1,669542,231375,1387370,69521,9034,692924,0
39,-1,679232,233506,1321825,70482,9255,660340,0
39,-1,668331,230932,1331039,69267,8438,665216,0
39,-1,692380,235777,1441809,72707,10074,720364,0
39,-1,677583,232993,1331294,70198,7636,665042,0
39,-1,671424,231058,1391996,69686,8764,695341,0
39,-1,665293,230335,1305938,69317,9503,652291,0
40,-1,681780,237812,1378782,70610,8283,688885,0
40,-1,664433,229790,1212737,68694,7114,606011,0
40,-1,667158,230520,1364139,68813,8477,681711,0
40,-1,671343,231913,1242226,69666,8530,620462,0
40,-1,666729,230651,1319247,69092,8122,659323,0
40,-1,664794,230635,1305572,68908,7706,652351,0
40,-1,665805,230960,1157440,69063,7470,578371,0
40,-1,664418,231029,1292205,69054,7419,645608,0
40,-1,668132,230840,1355140,68885,8476,676618,0
40,-1,670771,231147,1296740,69207,8783,648049,2
40,-1,672371,232344,1304877,69528,7939,652038,0
40,-1,670908,231562,1334239,69126,8856,666677,0
40,-1,683677,234916,1381105,72174,8486,690210,0
40,-1,670800,231081,1386396,68851,9972,692750,0
40,-1,667387,230417,1272504,68831,7904,635858,0
40,-1,665376,230500,1248647,68802,8378,623771,0
40,-1,675646,231957,1356115,69492,9291,677184,0
40,-1,659095,229798,1267214,68034,8616,633432,0
40,-1,687957,234766,1383139,72509,9629,691257,0
40,-1,669578,231745,1222622,69970,7691,610766,0
40,-1,687687,234661,1391952,72432,9656,695533,0
40,-1,668338,229993,1410429,69083,8514,704848,0
40,-1,669733,232263,1354516,69956,8421,676540,0
40,-1,670575,231208,1368338,69434,7941,683936,0
40,-1,693605,235831,1464327,72839,10074,731373,0
40,-1,669278,231646,1307539,69549,8032,653339,0
40,-1,670821,231313,1265006,69474,8767,632092,0
40,-1,672479,230513,1251801,69178,7809,625451,0
40,-1,668255,230226,1393983,69158,8652,696204,0
40,-1,665516,230529,1271031,69395,9605,635182,0
41,-1,696727,242648,1327377,71944,7286,662880,0
41,-1,663881,229840,1364991,68714,8242,682197,0
41,-1,670222,231318,1285595,69086,8367,642369,0
41,-1,669575,231291,1222676,69305,7597,610938,0
41,-1,667306,231244,1324990,69330,8034,662063,0
41,-1,668589,232308,1324466,69690,7966,661683,0
41,-1,667038,231101,1256149,69152,8571,627721,0
41,-1,664007,231083,1293911,69135,7861,646566,0
41,-1,669742,230935,1197313,69017,7675,598186,0
41,-1,666672,231213,1227031,69184,7457,613047,2
41,-1,670740,231650,1318727,69261,8035,658940,0
41,-1,674315,232964,1298887,69816,8832,648797,0
41,-1,671540,230434,1248860,68889,7647,624200,0
41,-1,674524,233234,1365727,69753,8850,681874,0
41,-1,686382,234787,1293618,72009,8684,646528,0
41,-1,662122,229556,1337808,68400,8903,668464,0
41,-1,693298,235123,1453545,72082,10229,726048,0
41,-1,665769,231241,1376338,68583,8349,687407,0
41,-1,665787,229930,1333805,69126,9151,666538,0
41,-1,687286,234949,1372508,72569,9256,685820,0
41,-1,665021,229913,1230198,69087,7984,614617,0
41,-1,676355,232749,1314317,70308,8154,656248,0
41,-1,689866,234714,1367887,72338,9083,683534,0
41,-1,674395,232738,1503527,70175,8269,751655,0
41,-1,670959,230813,1510417,69283,8882,754902,0
41,-1,672404,232478,1263209,69975,8119,630782,0
41,-1,667814,230286,1430829,69046,8562,715038,0
41,-1,674215,231086,1315828,69381,7994,657446,0
41,-1,669870,231434,1308150,69631,8441,653397,0
41,-1,661417,230099,1359278,69247,9303,679297,0
42,-1,712697,246754,1448525,73276,8123,723876,0
42,-1,661808,229857,1202464,68745,7417,600782,0
42,-1,676349,233932,1353415,70306,9318,675908,0
42,-1,671758,232499,1325724,69987,8675,662134,0
42,-1,668104,232033,1327436,69729,8635,662911,0
42,-1,664746,230950,1220841,69089,7829,610038,0
42,-1,670382,232673,1313105,69906,8707,655991,0
42,-1,669733,231071,1304764,69110,7648,652089,0
42,-1,670256,231392,1332804,69096,8653,666076,0
42,-1,690145,235664,1282200,72400,8415,640677,0
42,-1,702097,243252,1358336,73071,8184,678568,2
42,-1,673618,233145,1349152,70014,8808,673756,0
42,-1,672005,230917,1300007,69090,8645,649646,0
42,-1,668307,230605,1320160,68839,9351,659566,0
42,-1,668245,230428,1373099,68776,8997,686114,0
42,-1,675019,232039,1283724,69412,8296,641417,0
42,-1,670017,229990,1380154,68637,9197,689647,0
42,-1,666952,231717,1284321,68907,7954,641736,0
42,-1,669056,231142,1343236,69523,8710,671253,0
42,-1,666164,230758,1324258,69426,8502,661647,0
42,-1,665001,229674,1229374,69010,8439,614242,0
42,-1,669242,230430,1362627,69246,8032,680838,0
42,-1,672677,230695,1235093,69231,8147,617076,0
42,-1,671379,232457,1416659,69943,8530,707484,0
42,-1,670332,231224,1451872,69494,8799,725611,0
42,-1,664587,229666,1244978,68881,7518,622114,0
42,-1,670081,231190,1378047,69453,9000,688619,0
42,-1,696509,236470,1486334,72914,9941,742810,0
42,-1,670818,230965,1380989,69368,8514,690014,0
42,-1,667897,230843,1298502,69524,9188,648602,0
43,-1,727742,250731,1404759,74741,9483,701752,0
43,-1,664852,229875,1343573,68718,7605,671505,0
43,-1,688558,234818,1322215,72154,8803,660641,0
43,-1,669487,230534,1425792,69018,8513,712281,0
43,-1,667749,231296,1309393,69304,7826,654388,0
43,-1,687756,235324,1249569,72352,7952,624266,0
43,-1,686346,235725,1210111,72439,8234,604693,0
43,-1,669503,231313,1309378,69143,7421,654338,0
43,-1,670964,231681,1250262,69228,7344,624794,0
43,-1,676556,232884,1338321,69936,8598,668465,0
43,-1,670450,231471,1302084,69351,7427,650555,2
43,-1,690490,235010,1283621,72148,8667,641408,0
43,-1,674564,232227,1372813,69655,8884,685793,0
43,-1,668367,230492,1533721,68756,9708,766707,0
43,-1,671394,232154,1360177,69547,8506,679554,0
43,-1,671799,230591,1288756,68846,8846,643955,0
43,-1,697173,239698,1399617,71473,8861,699149,0
43,-1,661986,230013,1348455,68107,8325,673896,0
43,-1,663555,229651,1330211,68988,8323,664744,0
43,-1,664598,230261,1316815,69248,7647,658064,0
43,-1,664960,230246,1175747,69243,7893,587377,0
43,-1,669679,230445,1327956,69261,7635,663528,0
43,-1,670178,229681,1321737,68888,8856,660510,0
43,-1,670360,231568,1326927,69679,8558,663051,0
43,-1,674752,233569,1314173,70507,8787,656185,0
43,-1,668679,231440,1324305,69473,8280,661806,0
43,-1,670634,231394,1339380,69490,8586,669311,0
43,-1,672057,231088,1318406,69387,8658,658508,0
43,-1,668518,230540,1327525,69188,8253,663288,0
43,-1,669093,231330,1421278,69856,9341,709885,0
44,-1,743579,253510,1421178,77206,9798,710204,0
44,-1,684153,234234,1337118,72024,8366,668101,0
44,-1,667508,230677,1314323,68955,8363,656626,0
44,-1,673097,231963,1485497,69691,9359,741655,0
44,-1,660841,230123,1353522,68902,8245,676426,0
44,-1,666945,231358,1283106,69183,8106,641107,0
44,-1,667084,232127,1236782,69659,8029,617892,0
44,-1,667719,230735,1255809,68971,7222,627595,0
44,-1,689280,235361,1370454,72186,9334,684787,0
44,-1,668872,230697,1359247,68968,7805,679201,0
44,-1,671494,231904,1251776,69212,7938,625429,2
44,-1,671326,231394,1370940,69212,8449,685114,0
44,-1,670935,230296,1312810,68862,8810,656057,0
44,-1,690720,235973,1273674,72382,9352,636175,0
44,-1,666505,230279,1404578,68686,8181,701876,0
44,-1,670424,230622,1217288,68855,8425,608227,0
44,-1,676078,233266,1670743,70000,10870,833918,0
44,-1,662743,230597,1380892,68412,8966,690027,0
44,-1,669949,230309,1477863,69190,8828,738672,0
44,-1,661915,229491,1252222,68971,8025,625796,0
44,-1,664841,230641,1256402,69311,8340,627781,0
44,-1,667338,229921,1266019,69087,7612,632751,0
44,-1,670779,230366,1329539,69072,8196,664381,0
44,-1,670633,231743,1339927,69782,8812,669591,0
44,-1,692759,236650,1454117,73113,10123,726735,0
44,-1,666375,230637,1313686,69179,8252,656400,0
44,-1,666729,230461,1355030,69109,8129,677190,0
44,-1,673241,231063,1329789,69380,7414,664329,0
44,-1,667479,230101,1337705,69065,8580,668357,0
44,-1,664128,229601,1327094,69079,9026,663512,0
45,-1,721806,248640,1325836,73782,8168,662480,0
45,-1,660910,229751,1319433,68633,7157,659355,0
45,-1,670877,230520,1282518,68866,7902,640954,0
45,-1,667984,230309,1401254,69002,8547,700255,0
45,-1,663021,230595,1347335,69088,7889,673268,0
45,-1,668002,231066,1209779,69143,7253,604400,0
45,-1,663781,230627,1167186,69006,7800,583261,0
45,-1,687042,235608,1322413,72391,8221,660789,0
45,-1,667497,230916,1590517,69099,9162,794541,0
45,-1,670281,231828,1263964,69271,7798,631563,0
45,-1,672275,232641,1341092,69484,8827,670137,2
45,-1,671736,231744,1415722,69329,8025,707401,0
45,-1,675633,232801,1302738,69938,8557,650646,0
45,-1,668328,231259,1291675,69059,8676,645431,0
45,-1,686318,234923,1322984,72034,8775,661164,0
45,-1,677285,233176,1276863,69937,8967,637688,0
45,-1,689507,235348,1454292,72184,9503,725869,0
45,-1,661218,230224,1470483,68213,8236,734944,0
45,-1,687481,234422,1401299,72374,9571,700231,0
45,-1,664624,230619,1240539,69267,8917,619833,0
45,-1,671539,232114,1221826,70097,8148,609987,0
45,-1,665579,229241,1330661,68889,7412,665012,0
45,-1,673629,231559,1256691,69683,8139,627465,0
45,-1,668992,231464,1533490,69720,8899,766359,0
45,-1,673026,232208,1413036,69829,8482,705548,0
45,-1,671737,231115,1347521,69367,8473,673374,0
45,-1,671270,231563,1313698,69562,7978,656427,0
45,-1,675030,232186,1255704,69849,7440,627124,0
45,-1,672792,232711,1332461,70224,8612,665367,0
45,-1,663843,230105,1296471,69304,8977,647868,0
46,-1,726373,250108,1412005,74436,9301,705372,0
46,-1,661463,229818,1335133,68715,7103,667123,0
46,-1,674976,232896,1355563,69857,7757,677117,0
46,-1,688231,234965,1353315,72302,9551,676180,0
46,-1,663652,230881,1323304,69059,7899,661272,0
46,-1,666164,230778,1259793,69019,7418,629302,0
46,-1,664474,231545,1250429,69317,7967,624894,0
46,-1,665290,230712,1201036,69008,7093,600113,0
46,-1,669662,231840,1443220,69557,9644,721170,0
46,-1,670070,231579,1320797,69193,7974,659969,0
46,-1,666969,231726,1339890,69316,8302,669524,2
46,-1,669807,231538,1231059,69222,7745,615114,0
46,-1,670642,231182,1253623,69177,8390,626391,0
46,-1,666832,230654,1292533,68818,8137,645881,0
46,-1,664794,230430,1339382,68798,8305,669260,0
46,-1,690588,234692,1296443,71964,9714,647862,0
46,-1,669532,230022,1368950,68596,9456,684167,0
46,-1,665544,232102,1449187,69050,9123,723654,0
46,-1,668291,230425,1356195,69295,8144,677707,0
46,-1,692886,234971,1278789,72593,8815,638971,0
46,-1,686794,234466,1394316,72399,9043,696678,0
46,-1,669979,230786,1256686,69407,7959,628008,0
46,-1,669507,230236,1325398,69077,8302,662297,0
46,-1,665817,231301,1202430,69593,7032,600917,0
46,-1,673737,232698,1378640,70169,8982,688344,0
46,-1,671781,231493,1249499,69397,7700,624410,0
46,-1,668651,230823,1373907,69303,8274,686604,0
46,-1,671550,230643,1256459,69233,7756,627755,0
46,-1,685935,234767,1373311,72373,9232,686069,0
46,-1,662267,229851,1345958,69184,8537,672660,0
47,-1,717736,247931,1281265,73539,8092,640205,0
47,-1,661257,229738,1198650,68631,7357,598891,0
47,-1,668511,230992,1352968,69004,6945,675761,0
47,-1,664841,230061,1354376,68927,8619,676612,0
47,-1,661811,230307,1206957,69009,7776,603129,0
47,-1,666123,231418,1245653,69269,7342,622472,0
47,-1,666723,230483,1207641,68971,7120,603412,0
47,-1,664308,230678,1295924,69014,6702,647623,0
47,-1,667463,231226,1337598,69169,9409,668472,0
47,-1,668780,231188,1377980,69095,8048,688520,0
47,-1,667403,231041,1326086,69008,7990,662690,0
47,-1,675454,233582,1363638,70063,8569,681169,2
47,-1,690332,235920,1326708,72507,8540,662879,0
47,-1,668598,230805,1349672,68904,8646,674505,0
47,-1,668566,230515,1270580,68817,8417,634834,0
47,-1,668730,230227,1246791,68646,9347,623038,0
47,-1,667361,229889,1355223,68547,8599,677320,0
47,-1,683545,235064,1402001,71569,10035,700882,0
47,-1,670550,231515,1249283,69827,8581,624123,0
47,-1,667734,229810,1168612,69065,8127,583865,0
47,-1,667081,231072,1313476,69490,8257,656318,0
47,-1,671969,231879,1244836,69919,7817,621453,0
47,-1,668722,230106,1224610,69008,7467,611885,0
47,-1,672550,232422,1226348,70079,8169,612701,0
47,-1,699000,241014,1416162,72448,9525,707046,0
47,-1,673418,231285,1322514,69386,8389,660913,0
47,-1,668481,230790,1339954,69290,8445,669558,0
47,-1,670201,231085,1274314,69331,7747,636862,0
47,-1,672673,230472,1217745,69221,8602,608352,0
47,-1,661760,229535,1240171,69070,8093,619688,0
47,-1,666959,230105,1500196,69198,9410,749300,0
48,-1,719636,248155,1440591,73614,9222,719900,0
48,-1,666516,231467,1349207,69387,8313,674093,0
48,-1,668512,230596,1298705,68823,8110,649018,0
48,-1,668135,231866,1361723,69674,8721,680311,0
48,-1,661797,230456,1286801,68990,8527,643072,0
48,-1,669739,231927,1314784,69651,8632,656730,0
48,-1,669723,230984,1233348,69137,7573,616328,0
48,-1,684576,234809,1205806,72135,7783,602501,0
48,-1,670206,230689,1377177,68933,10182,687702,0
48,-1,675557,233721,1353287,70258,8462,675861,0
48,-1,692185,237175,1290412,72832,8709,644713,0
48,-1,668921,230964,1255716,69045,7818,627418,2
48,-1,670044,230952,1330412,69099,8286,664847,0
48,-1,671021,231112,1295674,68938,8138,647332,0
48,-1,667096,229862,1249566,68558,7591,624455,0
48,-1,669327,230337,1223039,68693,9120,611237,0
48,-1,668473,230144,1441834,68640,9159,720379,0
48,-1,662484,230820,1331238,68411,8711,665243,0
48,-1,664929,229897,1280064,69110,8357,639640,0
48,-1,672334,231737,1210200,69890,7894,604368,0
48,-1,667830,231425,1308924,69773,7818,653769,0
48,-1,665890,229944,1248419,69096,8281,623764,0
48,-1,672852,230915,1306471,69322,7828,652877,0
48,-1,668375,231118,1331863,69493,8158,665588,0
48,-1,669027,231087,1244164,69406,8621,621632,0
48,-1,672465,231100,1345435,69195,8996,672411,0
48,-1,669252,231153,1215574,69408,8469,607463,0
48,-1,697502,236440,1392129,72921,8950,695566,0
48,-1,673105,230678,1281091,69280,9276,639921,0
48,-1,665983,231464,1356887,69915,9060,677887,0
48,-1,665924,229496,1383154,68924,8908,691024,0
49,-1,720177,248822,1292385,73861,8402,645622,0
49,-1,662803,229507,1212633,68519,7602,605862,0
49,-1,667376,230660,1234699,68863,7423,616950,0
49,-1,667761,230358,1335497,69025,8512,667443,0
49,-1,664186,231236,1296855,69322,9232,647983,0
49,-1,687526,235301,1297863,72327,9010,648463,0
49,-1,668684,230919,1209399,69085,7159,604341,0
49,-1,663362,230321,1202489,68875,7191,600914,0
49,-1,669002,230546,1391944,68894,9887,695228,0
49,-1,669168,231874,1410661,69281,7935,704886,0
49,-1,667024,231400,1353315,69158,8385,676222,0
49,-1,670471,231520,1398947,69491,8461,698915,0
49,-1,667726,231036,1331234,69160,7940,665170,2
49,-1,669611,230763,1376131,68849,8930,687698,0
49,-1,666777,230316,1324609,68742,7915,661879,0
49,-1,669426,230610,1266829,68799,9238,632924,0
49,-1,672794,232203,1384241,69583,9278,691371,0
49,-1,660143,230221,1295475,68172,8696,647397,0
49,-1,665677,230254,1319145,69178,8540,659157,0
49,-1,687549,234545,1420712,72392,8966,709722,0
49,-1,665541,230633,1424355,69355,8009,711752,0
49,-1,667403,230672,1275009,69332,8263,637112,0
49,-1,670364,230406,1322411,69101,9057,660907,0
49,-1,669667,231854,1287683,69827,8231,643507,0
49,-1,670266,231588,1197276,69675,8826,598242,0
49,-1,671895,231525,1315152,69409,8318,657093,0
49,-1,669992,231667,1300495,69621,8208,649866,0
49,-1,673925,231399,1233002,69427,7756,616091,0
49,-1,676314,231848,1244581,69842,9469,621600,0
49,-1,664136,229616,1243398,69102,7651,621112,0
49,-1,672348,232111,1473210,70019,10813,735786,0
50,-1,717045,248118,1266853,73609,7855,632929,0
50,-1,662514,230000,1265328,68823,7851,632200,0
50,-1,666221,230664,1298249,68979,7577,648618,0
50,-1,667085,230475,1423732,69060,8817,711333,0
50,-1,665464,230789,1329492,69155,7880,664494,0
50,-1,665147,230645,1321434,68958,7585,660421,0
50,-1,670346,232425,1315843,69839,7577,657072,0
50,-1,664292,230673,1150794,69029,7238,575120,0
50,-1,691130,235614,1471234,72346,10672,735294,0
50,-1,669622,231556,1276666,69127,8356,637977,0
50,-1,670469,232144,1331885,69398,8115,665487,0
50,-1,668301,231299,1318173,69137,7873,658643,0
50,-1,664544,231008,1293462,69063,7931,646339,2
50,-1,670786,230896,1314648,69019,8528,656956,0
50,-1,670448,232204,1319160,69528,7494,658986,0
50,-1,669356,230073,1361779,68632,9332,680513,0
50,-1,690722,235749,1502520,72293,9614,751221,0
50,-1,662791,231079,1359999,68442,9307,679300,0
50,-1,669526,230860,1431323,69377,9303,715262,0
50,-1,667220,230576,1362681,69218,8319,681080,0
50,-1,665549,230276,1305466,69218,7908,652262,0
50,-1,693508,239722,1357645,72077,8341,678491,0
50,-1,668767,230823,1304713,69259,7774,652028,0
50,-1,664620,230163,1266860,69179,8931,633034,0
50,-1,667546,231175,1258214,69558,9375,628457,0
50,-1,671688,231419,1296873,69404,8496,647962,0
50,-1,668902,231230,1416512,69409,8537,707929,0
50,-1,698139,240265,1347856,72052,8189,673525,0
50,-1,672948,231005,1254785,69397,9277,626784,0
50,-1,665098,230459,1306434,69395,8387,652831,0
50,-1,689674,235597,1505323,72748,10458,751988,0
51,-1,720277,248680,1378373,73850,8650,688724,0
51,-1,665439,231457,1228386,69535,7551,613436,0
51,-1,664964,230341,1238351,68861,7535,618834,0
51,-1,672517,233036,1400045,70138,8781,698847,0
51,-1,665149,231041,1335436,69187,7959,667486,0
51,-1,666106,230935,1322341,69053,7984,660831,0
51,-1,686006,235226,1261558,72291,8188,630131,0
51,-1,695185,240800,1375694,72072,7537,687459,0
51,-1,670995,231894,1385186,69350,9089,692059,0
51,-1,666340,230860,1226423,69028,7879,612762,0
51,-1,668476,231808,1257689,69294,7669,628397,0
51,-1,661031,228793,1328710,68383,8206,664050,0
51,-1,673583,233402,1341263,70041,7793,669973,2
51,-1,667810,230399,1423113,68734,8653,711156,0
51,-1,667349,230735,1324070,68855,8367,661492,0
51,-1,669026,230026,1326731,68586,9006,663047,0
51,-1,674589,231480,1251700,69277,8111,625286,0
51,-1,664648,232174,1281770,69003,8604,639764,0
51,-1,670429,231573,1285633,69798,8719,642379,0
51,-1,670762,230805,1321245,69381,8409,660227,0
51,-1,665260,230543,1242632,69326,7796,620852,0
51,-1,664175,229824,1255526,69071,8317,627589,0
51,-1,672819,231428,1274777,69670,7822,636813,0
51,-1,688724,235591,1274421,72785,9689,636904,0
51,-1,675979,233040,1199598,70318,8445,599306,0
51,-1,677703,232947,1208896,70047,8582,603987,0
51,-1,688547,235681,1406849,72699,9494,703090,0
51,-1,677038,233174,1255098,70285,7896,626886,0
51,-1,671408,230286,1196123,69050,8666,597810,0
51,-1,661266,229474,1222348,69050,7852,610777,0
51,-1,667107,230307,1312523,69247,9493,655788,0
52,-1,717860,248248,1340298,73653,7845,670002,0
52,-1,681760,234433,1237747,72053,8149,618353,0
52,-1,666716,230281,1282897,68963,7201,641045,0
52,-1,666942,230804,1367641,69159,8686,683324,0
52,-1,662923,230242,1210251,68972,7684,604757,0
52,-1,664384,230707,1274962,69037,7285,636491,0
52,-1,669231,231140,1507380,69128,8189,753308,0
52,-1,666885,231334,1205732,69239,7257,601988,0
52,-1,668029,230974,1455900,69054,9475,727646,0
52,-1,665217,230426,1280643,68919,8382,639958,0
52,-1,671362,233657,1357503,70054,9372,678184,0
52,-1,690873,235530,1299033,72363,8755,648977,0
52,-1,665688,230968,1232099,69113,8571,615688,2
52,-1,667646,230489,1365293,68840,8384,682391,0
52,-1,665424,230270,1358700,68690,8310,678915,0
52,-1,671564,231652,1285805,69405,9015,641986,0
52,-1,670897,230643,1334343,68847,8469,666816,0
52,-1,666616,230985,1280325,68455,8371,639845,0
52,-1,665311,230263,1376787,69202,8958,688010,0
52,-1,668970,230529,1368745,69257,7788,684020,0
52,-1,685042,235126,1364475,72630,8626,681900,0
52,-1,674023,231348,1300828,69695,8267,649766,0
52,-1,668859,230161,1329537,69093,7594,664271,0
52,-1,667281,230962,1223291,69345,8417,611411,0
52,-1,673436,231356,1295258,69602,9028,647084,0
52,-1,673314,231593,1255951,69427,8419,627581,0
52,-1,666801,231250,1263252,69406,8371,631281,0
52,-1,673558,230836,1323025,69316,8721,661190,0
52,-1,671898,230537,1262842,69107,9388,630863,0
52,-1,667037,231577,1340216,69957,8501,669336,0
52,-1,669320,231478,1440597,69802,9788,719259,0
53,-1,719299,248319,1386473,73711,8599,692566,0
53,-1,659823,229910,1176853,68767,7338,587989,0
53,-1,667310,230880,1390188,69165,8340,694680,0
53,-1,665744,230565,1270486,69055,8438,634875,0
53,-1,667249,232087,1332384,69737,8288,665783,0
53,-1,665178,231146,1286543,69175,7686,642879,0
53,-1,668116,231156,1499973,69205,9159,748854,0
53,-1,667776,231874,1311801,69517,7478,655300,0
53,-1,667639,231234,1347060,69182,8766,673113,0
53,-1,677065,232645,1267727,69906,9024,633155,0
53,-1,671573,231902,1312130,69317,7918,655415,0
53,-1,669410,231013,1320874,69063,8387,659924,0
53,-1,667392,230285,1356924,68712,8701,678055,0
53,-1,673440,233151,1388944,69926,8462,693725,2
53,-1,663403,229996,1264065,68612,7620,631541,0
53,-1,690759,235775,1355559,72271,9970,677313,0
53,-1,667211,229637,1347887,68478,8070,673645,0
53,-1,664628,230684,1363540,68328,7758,681225,0
53,-1,664094,230155,1371007,69133,9559,685064,0
53,-1,666436,230213,1303536,69211,7636,651466,0
53,-1,667439,229906,1256487,69099,8795,627816,0
53,-1,669356,230005,1435960,69155,9128,717363,0
53,-1,671052,231289,1297726,69590,7946,648331,0
53,-1,667061,231948,1177551,69986,7686,588191,0
53,-1,672287,231316,1263170,69533,8741,631134,0
53,-1,671325,231397,1256719,69344,8684,627819,0
53,-1,665083,230416,1356430,69160,9097,677849,0
53,-1,673759,232106,1295558,69925,7652,647289,0
53,-1,673147,230713,1204511,69190,8260,601862,0
53,-1,662583,230382,1224660,69402,8380,611882,0
53,-1,666947,230645,1378343,69308,8815,688376,0
54,-1,741792,253613,1417652,77190,8795,708196,0
54,-1,662778,230178,1231396,68816,7977,615350,0
54,-1,673633,232028,1308440,69458,9011,653370,0
54,-1,668912,232000,1425434,69709,8906,711876,0
54,-1,662216,230529,1230177,68968,7897,614723,0
54,-1,664550,230528,1314632,68933,7372,657063,0
54,-1,665030,230356,1214196,68941,7231,606741,0
54,-1,663609,230619,1315029,68971,7405,657144,0
54,-1,670153,231736,1436729,69346,9821,718033,0
54,-1,692146,235311,1271267,72327,9406,635131,0
54,-1,669351,230938,1333756,68968,8446,666462,0
54,-1,667576,230733,1287036,68916,8317,643019,0
54,-1,672096,232548,1349404,69765,8844,674022,0
54,-1,669966,231192,1465067,69060,9635,731497,2
54,-1,671097,232015,1366693,69547,8227,682775,0
54,-1,669165,230764,1349522,68872,9377,674276,0
54,-1,669330,230324,1258470,68735,7872,628830,0
54,-1,663427,230656,1402386,68352,8143,700265,0
54,-1,666521,230630,1323380,69209,8760,661378,0
54,-1,665229,230179,1419916,69096,7996,709699,0
54,-1,668306,231273,1250121,69683,8501,624479,0
54,-1,669454,230171,1250407,69271,8163,624758,0
54,-1,689620,234646,1286595,72445,9938,642879,0
54,-1,665030,229983,1229902,69203,8480,614611,0
54,-1,672220,231306,1186982,69603,8091,592779,0
54,-1,700079,237635,1310400,73732,9725,654699,0
54,-1,668016,230965,1349771,69353,8293,674508,0
54,-1,672032,231430,1221175,69547,7950,610076,0
54,-1,676990,232549,1259758,70070,9130,629390,0
54,-1,660895,229469,1343929,69063,8388,671646,0
54,-1,665117,229984,1340073,69135,9066,669617,0
55,-1,718141,248536,1313361,73774,6695,656193,0
55,-1,681267,234345,1335329,71955,8438,667252,0
55,-1,667049,230072,1282690,68787,9147,640532,0
55,-1,664010,230258,1335178,68933,9187,667257,0
55,-1,661842,230098,1321842,68885,7857,660541,0
55,-1,666533,231683,1346233,69324,7571,672747,0
55,-1,665737,230568,1325673,68953,7411,662522,0
55,-1,667183,231404,1295133,69253,7129,647195,0
55,-1,667014,230784,1351220,68994,8680,675312,0
55,-1,670248,230429,1207034,68889,7676,603008,0
55,-1,668439,230785,1242906,68867,7693,620777,0
55,-1,691656,235585,1232376,72336,9079,615784,0
55,-1,667294,231032,1360829,69067,8213,679988,0
55,-1,667650,231416,1332553,68989,10176,665898,2
55,-1,688849,235292,1385484,72155,8482,692338,0
55,-1,666386,230126,1414843,68612,8919,707027,0
55,-1,690894,235293,1343639,72093,8759,671418,0
55,-1,663537,230516,1336638,68315,8002,667886,0
55,-1,661138,230163,1345556,68313,8747,672391,0
55,-1,672387,232236,1286990,70160,7865,642820,0
55,-1,667384,230918,1333602,69394,9235,666446,0
55,-1,669304,230502,1365753,69268,8833,682501,0
55,-1,667805,230144,1176450,69177,8188,587669,0
55,-1,666333,230841,1223553,69515,7599,611297,0
55,-1,673426,231980,1252357,69772,8422,625802,0
55,-1,670889,231544,1270159,69423,8652,634382,0
55,-1,674394,233145,1292497,70313,8070,645677,0
55,-1,677858,233720,1212532,70596,8489,605273,0
55,-1,692951,235523,1395054,72601,9800,697237,0
55,-1,662438,230146,1234567,69314,7408,616870,0
55,-1,663445,229774,1361932,69009,8700,680852,0
56,-1,715882,247810,1337251,73495,7476,668203,0
56,-1,661140,229978,1327406,68763,7814,663355,0
56,-1,669054,230493,1237335,68919,8760,618402,0
56,-1,676320,232660,1593709,69952,9701,795134,0
56,-1,686951,238849,1286718,71455,7540,642982,0
56,-1,669260,232823,1339011,69956,8327,668879,0
56,-1,667185,230903,1230260,69080,7346,614780,0
56,-1,664576,231266,1552080,69209,8630,775094,0
56,-1,667449,230845,1402569,69063,9333,700754,0
56,-1,670936,231068,1181834,69129,8015,590503,0
56,-1,672170,231849,1379344,69212,8348,689157,0
56,-1,668419,230927,1265559,69015,8499,632349,0
56,-1,668020,231025,1361058,69003,8697,680041,0
56,-1,670410,231440,1225121,68967,8073,611997,2
56,-1,666687,230648,1469511,68866,8250,734283,0
56,-1,669882,230062,1343377,68631,9255,671351,0
56,-1,667791,230107,1261835,68634,7584,630397,0
56,-1,666232,231653,1304571,68833,8132,651628,0
56,-1,659751,229635,1263593,68115,8189,631511,0
56,-1,665610,230100,1335726,69174,8365,667510,0
56,-1,685967,234681,1385444,72461,10062,692289,0
56,-1,688331,234385,1388848,72313,9536,694115,0
56,-1,670435,229924,1176938,69056,7602,588106,0
56,-1,687823,236091,1397875,72963,9830,698532,0
56,-1,675588,232930,1215867,70286,8229,607273,0
56,-1,673799,232835,1291561,70029,8318,645014,0
56,-1,688880,235372,1515018,72610,9188,757229,0
56,-1,693097,235919,1300710,72856,9224,649813,0
56,-1,674227,231545,1272826,69486,8232,635693,0
56,-1,664796,231149,1406863,69798,8141,702662,0
56,-1,686968,235477,1458963,72703,10275,728946,0
57,-1,721802,250417,1422895,74564,8046,710833,0
57,-1,660031,230171,1187147,68876,7125,593202,0
57,-1,687526,235070,1295816,72232,9109,647116,0
57,-1,668838,230247,1354441,68956,8557,676895,0
57,-1,668310,232957,1394939,70075,8328,696769,0
57,-1,685261,235788,1271742,72477,8629,635508,0
57,-1,685733,235287,1275057,72314,7907,637208,0
57,-1,663304,231326,1317561,69188,7794,657997,0
57,-1,667238,231083,1439397,69139,9774,719287,0
57,-1,671551,231452,1236782,69096,8036,618004,0
57,-1,674388,233311,1310454,69896,8753,654472,0
57,-1,667461,231241,1231121,69054,7711,615076,0
57,-1,664951,230937,1437045,68987,8174,718120,0
57,-1,680984,234206,1346104,70260,8527,672372,2
57,-1,664895,230020,1283281,68608,7728,641167,0
57,-1,675040,232506,1266019,69686,8598,632431,0
57,-1,669868,230350,1228022,68733,8334,613616,0
57,-1,664816,231347,1360421,68596,8132,679432,0
57,-1,666515,231481,1330776,68769,8331,664991,0
57,-1,669326,230335,1327473,69206,8143,663448,0
57,-1,665657,231372,1276703,69762,8421,637539,0
57,-1,669874,231111,1247524,69513,8724,623361,0
57,-1,671674,230959,1216829,69425,7821,608045,0
57,-1,663438,230052,1341173,69091,7949,670214,0
57,-1,668507,230944,1212017,69485,7972,605436,0
57,-1,673248,231844,1315802,69491,8379,657640,0
57,-1,670774,231605,1295239,69516,9169,647238,0
57,-1,672570,232001,1191539,69720,8490,595290,0
57,-1,674957,231595,1422583,69516,8901,710705,0
57,-1,663295,230814,1436091,69517,8152,717550,0
57,-1,667751,229883,1277185,69098,8925,638179,0
58,-1,719447,248727,1411374,73825,8565,705198,0
58,-1,664310,232325,1337578,69719,7517,668173,0
58,-1,667184,230493,1282155,68922,8028,640545,0
58,-1,669540,230907,1330189,69192,8342,663848,0
58,-1,659201,229845,1316478,68747,8236,657864,0
58,-1,668922,231265,1235739,69225,7567,617550,0
58,-1,669610,231395,1454091,69278,9133,726548,0
58,-1,664225,230416,1302283,68925,8686,650706,0
58,-1,667545,232013,1345104,69403,8462,671944,0
58,-1,670126,231289,1190917,69088,8116,595011,0
58,-1,693001,237348,1269707,72814,9088,634417,0
58,-1,666438,230349,1323444,68761,8701,661388,0
58,-1,694639,235823,1286038,72409,8917,642535,0
58,-1,665659,231486,1346286,69063,8242,672650,2
58,-1,665762,230953,1344413,69073,8228,671617,0
58,-1,689190,234636,1338265,71883,9922,668877,0
58,-1,664948,230086,1276982,68629,7527,638132,0
58,-1,661987,230703,1196741,68382,7361,597964,0
58,-1,665275,230037,1319630,68223,8006,659559,0
58,-1,670617,231182,1240809,69527,7938,620012,0
58,-1,666687,230854,1396115,69377,9307,697745,0
58,-1,666366,230285,1302415,69260,8334,650764,0
58,-1,668195,229968,1274650,69068,8103,636923,0
58,-1,659710,229536,1187180,68926,7515,593251,0
58,-1,674878,232417,1402991,69936,8780,701055,0
58,-1,671147,230803,1335173,69125,8326,667190,0
58,-1,669211,231352,1354512,69490,8998,676926,0
58,-1,668999,230684,1274787,69313,8761,637171,0
58,-1,676166,233052,1318876,70221,9194,658846,0
58,-1,659545,229501,1271411,69015,7378,635350,0
58,-1,666979,230610,1342766,69338,8787,670858,0
59,-1,719808,249054,1308122,73966,7884,653771,0
59,-1,669178,230255,1244790,68815,7971,621982,0
59,-1,665413,230164,1325314,68652,8634,661874,0
59,-1,669079,230509,1304852,69072,7859,651994,0
59,-1,665443,231100,1206498,69254,7626,602730,0
59,-1,666948,230914,1371947,69057,7591,685613,0
59,-1,670240,232677,1329396,69949,8128,664077,0
59,-1,668419,232042,1384887,69626,8858,691970,0
59,-1,670158,231411,1302882,69115,8750,650747,0
59,-1,693902,236593,1249629,73123,9202,624292,0
59,-1,669293,231709,1231836,69217,8325,615478,0
59,-1,665955,230320,1397507,68760,8218,698486,0
59,-1,673005,231748,1362156,69449,9317,680513,0
59,-1,668683,231319,1267968,69090,7581,633571,0
59,-1,665430,230502,1292363,68829,8111,645649,2
59,-1,670287,230719,1320903,68873,8494,660108,0
59,-1,667647,230332,1352330,68690,8435,675781,0
59,-1,659379,229655,1325126,68009,7573,662094,0
59,-1,667640,230987,1266909,68589,7674,633027,0
59,-1,667879,230520,1341454,69259,8260,670346,0
59,-1,666674,231591,1348520,69911,8909,673574,0
59,-1,664439,229480,1255826,68957,8682,627543,0
59,-1,668667,230220,1242294,69145,8080,620648,0
59,-1,673247,230727,1373722,69205,8248,686519,0
59,-1,675251,233135,1335318,70403,8218,666881,0
59,-1,676216,233181,1235445,70208,8010,617156,0
59,-1,666312,230683,1343974,69242,8647,671667,0
59,-1,669701,231210,1224328,69527,8635,611768,0
59,-1,691308,234925,1369155,72325,9693,684146,0
59,-1,660878,230287,1300164,69364,7771,649649,0
59,-1,664569,229981,1191554,69097,8294,595366,0
60,-1,737955,253019,1406791,76986,9453,703098,0
60,-1,669454,230702,1293809,68991,7803,646539,0
60,-1,667921,231386,1343136,69146,8634,671156,0
60,-1,668551,230262,1344068,68893,8051,671352,0
60,-1,665940,231778,1342263,69643,7971,670528,0
60,-1,668589,231872,1380735,69409,7670,690012,0
60,-1,687561,235288,1256647,72269,8449,627888,0
60,-1,663111,230424,1365171,68891,8742,682309,0
60,-1,670528,231563,1404293,69096,8851,701799,0
60,-1,671398,231905,1263778,69288,8883,631372,0
60,-1,666199,230901,1223259,68866,7623,611255,0
60,-1,671870,232956,1382325,69958,8975,690328,0
60,-1,671523,231393,1337529,69189,8231,668124,0
60,-1,664260,230060,1316844,68634,8152,658131,0
60,-1,669225,232491,1339618,69710,8445,668902,2
60,-1,668018,230499,1300959,68774,8708,650144,0
60,-1,666060,230533,1195855,68815,7440,597543,0
60,-1,672535,233641,1220715,69611,7115,609726,0
60,-1,687075,234828,1410268,71621,9212,704734,0
60,-1,667278,230578,1389110,69321,7694,694069,0
60,-1,663692,230182,1235664,69172,8579,617356,0
60,-1,690248,235235,1318964,72667,8966,659104,0
60,-1,667463,230329,1217967,69153,7352,608459,0
60,-1,672640,230927,1455482,69274,8658,727203,0
60,-1,691326,235678,1408511,72795,9741,703793,0
60,-1,670107,231229,1219644,69356,7305,609485,0
60,-1,689186,236033,1387801,72805,9700,693813,0
60,-1,675967,231288,1324395,69562,8743,661775,0
60,-1,668996,229884,1246092,69022,8181,622668,0
60,-1,682912,233280,1373669,70619,8533,685865,0
60,-1,664308,229559,1178125,68894,8702,588589,0
61,-1,716666,249050,1435085,73902,9516,716771,0
61,-1,671323,231792,1318205,69501,8130,658471,0
61,-1,666224,229987,1445154,68797,8976,722208,0
61,-1,672853,232646,1338401,69998,8584,668254,0
61,-1,661171,230463,1312951,69060,8056,655723,0
61,-1,668111,231210,1237629,69206,7542,618385,0
61,-1,667312,231157,1331564,69190,7474,665421,0
61,-1,664012,231180,1310325,69115,8293,654241,0
61,-1,668025,231008,1371503,68980,9579,685276,0
61,-1,669595,231107,1442023,69027,8567,720482,0
61,-1,668608,231980,1306248,69255,8022,652564,0
61,-1,664909,230596,1317577,68840,8687,658349,0
61,-1,669029,230491,1236312,68886,7672,617683,0
61,-1,666167,230601,1371926,68736,8314,685552,0
61,-1,667499,230472,1356823,68798,8837,678106,2
61,-1,688418,234661,1325628,71984,9461,662490,0
61,-1,671311,230298,1298617,68751,8256,648873,0
61,-1,682751,234428,1322400,71399,8068,660794,0
61,-1,666498,230904,1334609,68549,7922,666952,0
61,-1,669204,231695,1250837,69872,7155,624803,0
61,-1,664250,230764,1338179,69406,9181,668704,0
61,-1,663852,229628,1222934,69001,7761,611001,0
61,-1,666441,230305,1297688,69255,7985,648404,0
61,-1,672071,230447,1334606,69094,9000,666882,0
61,-1,670120,231386,1325873,69495,8735,662613,0
61,-1,671393,231476,1304970,69391,7541,652180,0
61,-1,668602,232149,1306832,69930,8774,652927,0
61,-1,672987,230731,1228076,69368,7804,613637,0
61,-1,669513,230184,1329566,69018,9024,664369,0
61,-1,672867,229795,1321940,69106,8709,660685,0
61,-1,662654,229689,1235917,69130,7989,617668,0
62,-1,712129,247228,1385315,73301,8806,691969,0
62,-1,665720,229835,1264583,68690,7883,631955,0
62,-1,666977,230461,1525747,69008,9673,762430,0
62,-1,670640,230702,1337503,69141,8619,668217,0
62,-1,667000,232488,1379581,69941,8459,689195,0
62,-1,670670,232571,1317870,69855,7807,658361,0
62,-1,664388,230477,1160384,68971,7471,579774,0
62,-1,684950,235449,1362605,72352,9030,680951,0
62,-1,666857,230567,1381859,68884,9758,690079,0
62,-1,668499,231031,1359728,68897,8077,679439,0
62,-1,673394,233561,1319040,69939,7943,658978,0
62,-1,671053,230613,1344795,68906,8291,671820,0
62,-1,673949,232463,1339365,69752,8807,668987,0
62,-1,671881,233403,1356672,69901,8430,677630,0
62,-1,667972,231429,1316710,69096,8005,657858,2
62,-1,668495,230380,1263405,68730,8659,631172,0
62,-1,671113,230395,1193096,68749,7959,596189,0
62,-1,665182,232212,1215368,69042,7454,607162,0
62,-1,667682,232054,1253049,69090,8120,625990,0
62,-1,666302,230408,1309518,69273,7730,654417,0
62,-1,662074,230235,1308424,69234,8468,653751,0
62,-1,667412,230282,1313691,69185,8353,656410,0
62,-1,666913,230445,1308945,69270,8433,654048,0
62,-1,673811,232025,1257712,69894,7948,628068,0
62,-1,673982,232709,1269296,70190,8278,634022,0
62,-1,670562,232084,1366052,69576,7629,682718,0
62,-1,667510,231467,1328486,69539,8586,663882,0
62,-1,674192,231038,1377846,69459,8577,688532,0
62,-1,668900,230381,1225019,69134,8511,612122,0
62,-1,672691,230281,1210856,69370,8236,605003,0
62,-1,670251,231736,1277565,69985,8464,638073,0
63,-1,728462,251046,1455712,74807,9970,727388,0
63,-1,673860,232568,1352831,69829,8798,675726,0
63,-1,665462,230080,1434125,68874,7918,715861,0
63,-1,672714,231880,1284289,69674,9511,640779,0
63,-1,682501,235115,1341278,72351,8210,670203,0
63,-1,687103,235290,1299516,72359,7810,649020,0
63,-1,667439,231689,1234259,69518,8124,616541,0
63,-1,662473,230631,1345684,69004,8444,672442,0
63,-1,690653,235933,1446254,72478,10488,722552,0
63,-1,666251,230679,1294085,68802,7542,646041,0
63,-1,696401,241426,1269331,72044,7728,634232,0
63,-1,668505,230014,1322285,68674,8433,660515,0
63,-1,691080,235891,1319236,72419,9149,659028,0
63,-1,687070,236154,1330371,72342,9299,664816,0
63,-1,671311,231898,1346741,69416,8670,672405,0
63,-1,669597,231300,1354152,69075,8702,676635,2
63,-1,668453,230398,1227707,68727,8268,613132,2
63,-1,669981,230928,1380103,68950,8716,689535,2
63,-1,666790,230795,1248603,68965,7724,623912,2
63,-1,668115,230828,1296717,68912,7269,648019,2
63,-1,673986,231920,1233536,69440,8180,616294,0
63,-1,666128,230664,1343965,68866,7899,671575,2
63,-1,675357,232989,1247725,69849,7024,623238,2
63,-1,660934,230408,1308374,68241,7729,653869,0
63,-1,660718,230062,1334938,68206,7369,667017,2
63,-1,667982,232828,1256810,69312,8535,627900,2
63,-1,665649,231820,1474308,68748,8400,736850,2
63,-1,663880,230002,1255477,68113,8579,627117,2
63,-1,661249,230199,1507409,68296,8865,753355,2
63,-1,664410,230265,1421710,68296,8961,710307,0
63,-1,669248,232701,1246264,69386,8051,622583,2
63,-1,664382,230487,1259805,69308,8230,629397,2
63,-1,667416,230389,1340620,69292,8572,669886,2
63,-1,663960,230480,1415441,69304,8788,707535,2
63,-1,665940,230084,1330596,69083,7895,665035,0
63,-1,666079,230648,1370307,69401,8686,684859,2
63,-1,673172,232747,1241227,70342,8202,619860,2
63,-1,660568,229744,1285517,69052,8271,642361,0
63,-1,662922,229998,1321609,69148,8772,660394,2
63,-1,668978,232400,1233615,70195,7873,616155,2
63,-1,667256,230440,1315031,69315,8653,657118,2
63,-1,666177,230295,1339970,69208,8319,669523,0
63,-1,670873,231952,1215298,70052,8127,606545,2
63,-1,668495,230950,1260136,69487,8123,629566,2
63,-1,667564,230390,1315900,69298,8440,657242,2
63,-1,689100,234808,1376865,72466,8732,687937,0
63,-1,666323,230626,1252371,69337,8975,625648,2
63,-1,670430,231104,1208016,69329,7810,603404,2
63,-1,666321,230211,1329578,69030,8105,664391,2
63,-1,673183,232122,1187901,70040,8410,593278,2
63,-1,670974,230652,1331993,69227,9021,665582,2
63,-1,674772,231148,1246563,69365,8396,622772,0
63,-1,666126,231102,1163405,69448,8404,581300,2
63,-1,668190,231666,1364838,69766,9031,682024,2
63,-1,674037,232848,1362207,70286,8484,680563,2
63,-1,671911,231851,1271391,69770,8402,635374,2
63,-1,670096,231792,1340582,69825,8402,669816,2
63,-1,694362,235935,1467744,72899,9299,733323,0
63,-1,672375,233402,1281418,70508,8466,640021,2
63,-1,669179,231732,1277371,69731,8826,638281,2
63,-1,672618,233748,1322482,70586,8980,660400,2
63,-1,669989,231694,1231201,69551,7505,615335,2
63,-1,667197,231668,1232710,69579,7930,615959,2
63,-1,678124,234005,1207876,70554,8224,603202,0
63,-1,671752,232343,1342957,69727,7452,671039,2
63,-1,666237,230851,1374018,69314,7699,686557,2
63,-1,670743,231304,1360864,69492,8477,679947,2
63,-1,675071,233153,1292680,70376,7929,645875,2
63,-1,671056,230813,1388361,69328,9355,693727,2
63,-1,665553,231090,1225078,69360,8133,612218,0
63,-1,675603,232757,1277998,70046,7703,638539,2
63,-1,670604,231469,1303353,69638,7878,651274,2
63,-1,677304,232957,1356409,70339,7983,677598,0
63,-1,673040,232502,1266282,69826,7758,632696,2
63,-1,670954,231106,1337371,69451,7576,668234,2
63,-1,667858,231353,1421567,69439,8988,710338,2
63,-1,670630,231321,1344916,69433,7402,671833,2
63,-1,674690,232506,1326899,69966,8557,662948,0
63,-1,671663,232362,1304143,70386,8848,651441,2
63,-1,675368,231799,1257414,70005,8599,628161,0
63,-1,671293,229817,1227043,69229,7580,613083,2
63,-1,668122,232515,1343238,70333,7813,671134,2
63,-1,666201,230620,1412372,69483,8465,705457,0
