0,0,9,656557.222222,224002.111111,1238208.222222,67758.000000,7663.444444,618635.555556,19552.139603,7135.235485,38667.226119,1927.859896,355.749947,19306.566966
0,1,0,-nan,-nan,-nan,-nan,-nan,-nan,-nan,-nan,-nan,-nan,-nan,-nan
1,0,8,650541.625000,222329.625000,1242419.875000,66961.750000,7752.125000,620626.500000,19368.083455,7234.059734,51483.833478,2050.305145,333.517030,25771.149615
1,1,0,-nan,-nan,-nan,-nan,-nan,-nan,-nan,-nan,-nan,-nan,-nan,-nan
2,0,8,640119.375000,219052.250000,1254965.625000,66044.750000,7590.125000,626922.750000,1905.946152,1212.408940,76627.546095,452.018736,576.316414,38225.863240
2,1,0,-nan,-nan,-nan,-nan,-nan,-nan,-nan,-nan,-nan,-nan,-nan,-nan
3,0,8,645170.625000,220081.875000,1221097.375000,66812.375000,7623.750000,609982.750000,8416.636263,1606.332191,45904.774888,1385.834129,661.251985,23023.525065
3,1,0,-nan,-nan,-nan,-nan,-nan,-nan,-nan,-nan,-nan,-nan,-nan,-nan
4,0,8,638627.125000,218621.000000,1231117.375000,65857.625000,7579.000000,615040.875000,4148.589623,661.810396,43640.895196,446.072566,449.973888,21794.963807
4,1,0,-nan,-nan,-nan,-nan,-nan,-nan,-nan,-nan,-nan,-nan,-nan,-nan
5,0,8,638383.250000,218310.250000,1221703.000000,65761.500000,7379.500000,610394.250000,3848.056157,1071.143169,86749.080727,427.037469,495.816750,43429.511057
5,1,0,-nan,-nan,-nan,-nan,-nan,-nan,-nan,-nan,-nan,-nan,-nan,-nan
6,0,8,639938.125000,219082.500000,1250759.250000,66097.125000,7457.750000,624819.000000,1808.990011,1308.974408,72436.349600,553.629036,552.128325,36076.859682
6,1,0,-nan,-nan,-nan,-nan,-nan,-nan,-nan,-nan,-nan,-nan,-nan,-nan
7,0,8,649303.625000,221125.375000,1224750.875000,67563.625000,7598.000000,611843.000000,9458.475246,2114.984866,56593.381619,1421.335370,384.353353,28332.196354
7,1,0,-nan,-nan,-nan,-nan,-nan,-nan,-nan,-nan,-nan,-nan,-nan,-nan
8,0,8,643365.000000,219876.000000,1260905.750000,66594.875000,7417.625000,629842.875000,9395.037480,1597.803805,72515.202888,1416.918526,647.560024,36190.491767
8,1,0,-nan,-nan,-nan,-nan,-nan,-nan,-nan,-nan,-nan,-nan,-nan,-nan
9,0,8,641849.125000,219391.500000,1221711.375000,66324.375000,7504.250000,610290.500000,7796.131836,1878.180037,81796.941819,1236.989787,1030.724108,40801.003851
9,1,0,-nan,-nan,-nan,-nan,-nan,-nan,-nan,-nan,-nan,-nan,-nan,-nan
10,0,8,639958.625000,218702.500000,1236055.250000,65911.625000,7506.500000,617512.875000,4476.693644,735.047447,56423.156035,383.988261,527.058346,28191.789432
10,1,0,-nan,-nan,-nan,-nan,-nan,-nan,-nan,-nan,-nan,-nan,-nan,-nan
11,0,8,643239.750000,219495.250000,1207660.125000,66377.625000,7464.375000,603292.625000,8017.304562,1370.917097,36806.149848,1049.245555,535.679227,18406.819544
11,1,0,-nan,-nan,-nan,-nan,-nan,-nan,-nan,-nan,-nan,-nan,-nan,-nan
12,0,8,640667.000000,218969.375000,1218660.750000,66052.250000,7462.125000,608759.750000,2963.758045,1035.492870,59767.719464,460.427179,574.249388,29811.462098
12,1,0,-nan,-nan,-nan,-nan,-nan,-nan,-nan,-nan,-nan,-nan,-nan,-nan
13,0,8,642123.875000,219257.875000,1201251.625000,66303.750000,7460.125000,600122.875000,6695.802518,1510.567976,45346.491896,968.676255,557.280100,22658.218225
13,1,0,-nan,-nan,-nan,-nan,-nan,-nan,-nan,-nan,-nan,-nan,-nan,-nan
14,0,8,639049.250000,218562.500000,1220188.625000,65873.750000,7403.625000,609519.500000,2448.871819,870.179005,60384.685747,416.139325,470.915581,30191.856141
14,1,0,-nan,-nan,-nan,-nan,-nan,-nan,-nan,-nan,-nan,-nan,-nan,-nan
15,0,8,641060.000000,218801.000000,1247208.250000,65993.750000,7511.250000,623058.875000,3263.881432,797.405167,61138.819388,406.341836,666.204689,30496.390739
15,1,0,-nan,-nan,-nan,-nan,-nan,-nan,-nan,-nan,-nan,-nan,-nan,-nan
16,0,8,644356.875000,219446.750000,1257044.875000,66436.125000,7585.250000,627919.875000,7252.649903,1675.172957,58953.378263,1079.884304,493.968306,29332.007068
16,1,0,-nan,-nan,-nan,-nan,-nan,-nan,-nan,-nan,-nan,-nan,-nan,-nan
17,0,8,640974.125000,219027.250000,1234273.250000,66069.125000,7410.500000,616568.750000,3253.348369,982.741923,56611.779891,520.610084,579.765470,28420.407966
17,1,0,-nan,-nan,-nan,-nan,-nan,-nan,-nan,-nan,-nan,-nan,-nan,-nan
18,0,8,645136.250000,219824.625000,1240113.750000,66771.125000,7711.750000,619524.625000,8760.411887,2087.473649,62415.106462,1507.429802,555.541796,31179.292872
18,1,0,-nan,-nan,-nan,-nan,-nan,-nan,-nan,-nan,-nan,-nan,-nan,-nan
19,0,8,641361.750000,218922.500000,1240991.000000,66068.500000,7402.375000,619907.125000,1913.699150,869.236303,36359.816415,483.136885,248.338951,18177.348345
19,1,0,-nan,-nan,-nan,-nan,-nan,-nan,-nan,-nan,-nan,-nan,-nan,-nan
20,0,8,642666.000000,218986.000000,1268159.000000,66218.125000,7507.750000,633641.000000,7748.358262,1475.635202,87923.112732,1205.837203,528.429454,43978.810685
20,1,0,-nan,-nan,-nan,-nan,-nan,-nan,-nan,-nan,-nan,-nan,-nan,-nan
21,0,8,643650.000000,219662.000000,1199950.125000,66503.875000,7449.125000,599409.000000,8055.726783,1766.080123,53969.861449,1210.528029,597.886786,27085.503517
21,1,0,-nan,-nan,-nan,-nan,-nan,-nan,-nan,-nan,-nan,-nan,-nan,-nan
22,0,8,642125.250000,219088.625000,1252672.625000,66288.250000,7616.375000,625852.500000,7405.471841,1715.193206,60308.554696,1195.353269,632.380609,30185.012022
22,1,0,-nan,-nan,-nan,-nan,-nan,-nan,-nan,-nan,-nan,-nan,-nan,-nan
23,0,8,638724.375000,218538.625000,1210768.000000,65868.500000,7492.750000,604827.750000,2631.053636,658.031712,70266.503761,359.104442,602.663619,35164.294297
23,1,0,-nan,-nan,-nan,-nan,-nan,-nan,-nan,-nan,-nan,-nan,-nan,-nan
24,0,8,640657.875000,219262.000000,1190508.000000,66212.250000,7546.500000,594647.000000,2214.243349,1035.608034,39046.322362,610.325272,454.989286,19522.047818
24,1,0,-nan,-nan,-nan,-nan,-nan,-nan,-nan,-nan,-nan,-nan,-nan,-nan
25,0,8,641591.875000,219024.875000,1216021.250000,66240.000000,7722.625000,607519.375000,7508.362678,1710.252572,54170.894842,1231.532480,718.334173,27001.829470
25,1,0,-nan,-nan,-nan,-nan,-nan,-nan,-nan,-nan,-nan,-nan,-nan,-nan
26,0,8,638763.875000,218558.000000,1194960.500000,65872.500000,7349.750000,596934.125000,3469.592355,871.237912,49907.801139,330.603615,626.306584,25023.655820
26,1,0,-nan,-nan,-nan,-nan,-nan,-nan,-nan,-nan,-nan,-nan,-nan,-nan
27,0,8,643620.125000,219811.875000,1249819.875000,66562.500000,7610.625000,624277.750000,6792.992905,1551.096825,40249.352512,915.499590,270.312753,20076.657601
27,1,0,-nan,-nan,-nan,-nan,-nan,-nan,-nan,-nan,-nan,-nan,-nan,-nan
28,0,8,639718.000000,218726.125000,1254926.750000,65904.875000,7343.375000,626959.625000,1746.461422,700.610883,47660.783874,286.034280,467.157344,23838.661246
28,1,0,-nan,-nan,-nan,-nan,-nan,-nan,-nan,-nan,-nan,-nan,-nan,-nan
29,0,8,639848.250000,218828.250000,1253978.375000,65974.750000,7610.125000,626438.375000,2496.692550,1241.070380,85732.889678,491.731571,565.809031,42856.298495
29,1,0,-nan,-nan,-nan,-nan,-nan,-nan,-nan,-nan,-nan,-nan,-nan,-nan
30,0,8,641583.500000,219182.750000,1235769.500000,66339.500000,7669.625000,617229.250000,5974.896882,1306.507726,69948.664582,1049.746517,630.353460,34962.806734
30,1,0,-nan,-nan,-nan,-nan,-nan,-nan,-nan,-nan,-nan,-nan,-nan,-nan
31,0,8,642253.125000,219379.500000,1259614.375000,66359.875000,7826.125000,629262.750000,7289.238960,1615.171198,61865.322625,1149.810684,662.581210,30933.942348
31,1,0,-nan,-nan,-nan,-nan,-nan,-nan,-nan,-nan,-nan,-nan,-nan,-nan
32,0,8,639147.625000,218659.750000,1232531.375000,65898.375000,7257.000000,615741.000000,2173.226975,1075.245524,36685.499662,463.560119,272.034005,18280.776091
32,1,0,-nan,-nan,-nan,-nan,-nan,-nan,-nan,-nan,-nan,-nan,-nan,-nan
33,0,8,638980.875000,218478.500000,1214940.625000,65790.625000,7250.375000,606977.625000,3696.500387,418.519414,53584.943100,278.950236,652.994820,26796.897297
33,1,0,-nan,-nan,-nan,-nan,-nan,-nan,-nan,-nan,-nan,-nan,-nan,-nan
34,0,8,645324.500000,219981.875000,1247130.125000,66770.500000,7720.625000,623069.125000,9079.608926,1705.030017,69401.900245,1276.750955,843.534371,34762.449261
34,1,0,-nan,-nan,-nan,-nan,-nan,-nan,-nan,-nan,-nan,-nan,-nan,-nan
35,0,8,639512.875000,218848.000000,1233489.000000,65926.000000,7302.250000,616125.250000,3005.236199,585.079695,56867.507126,316.360554,762.858563,28496.933597
35,1,0,-nan,-nan,-nan,-nan,-nan,-nan,-nan,-nan,-nan,-nan,-nan,-nan
36,0,8,645312.375000,220570.000000,1250694.250000,66679.500000,7724.125000,624864.875000,10592.050037,3150.989884,46554.702246,1334.827423,1063.065430,23267.336576
36,1,0,-nan,-nan,-nan,-nan,-nan,-nan,-nan,-nan,-nan,-nan,-nan,-nan
37,0,8,648322.875000,220912.000000,1259047.750000,67012.500000,7542.750000,629060.250000,11110.076951,3708.867651,71884.181851,1683.118534,842.878661,35917.169525
37,1,0,-nan,-nan,-nan,-nan,-nan,-nan,-nan,-nan,-nan,-nan,-nan,-nan
38,0,8,638571.375000,218537.750000,1253981.500000,65809.500000,7316.250000,626509.375000,3302.748512,916.153337,33846.711388,452.020464,745.688734,16939.536969
38,1,0,-nan,-nan,-nan,-nan,-nan,-nan,-nan,-nan,-nan,-nan,-nan,-nan
39,0,8,641516.625000,219368.125000,1228081.625000,66182.875000,7785.500000,613438.500000,3853.476578,1058.359868,30911.391448,550.136446,659.211650,15488.401895
39,1,0,-nan,-nan,-nan,-nan,-nan,-nan,-nan,-nan,-nan,-nan,-nan,-nan
40,0,8,640644.750000,218940.875000,1279842.375000,66008.250000,7708.875000,639321.875000,3847.608697,890.743992,55008.744900,530.848790,706.554215,27487.103355
40,1,0,-nan,-nan,-nan,-nan,-nan,-nan,-nan,-nan,-nan,-nan,-nan,-nan
41,0,8,642419.875000,219336.375000,1247502.125000,66317.875000,7386.625000,623248.250000,7818.553406,1631.256030,74548.526150,1141.298431,720.368645,37313.851556
41,1,0,-nan,-nan,-nan,-nan,-nan,-nan,-nan,-nan,-nan,-nan,-nan,-nan
42,0,8,641465.750000,219205.250000,1268974.500000,66090.875000,7606.125000,633866.125000,3383.222678,1353.456016,81098.650322,620.477122,790.454843,40537.550994
42,1,0,-nan,-nan,-nan,-nan,-nan,-nan,-nan,-nan,-nan,-nan,-nan,-nan
43,0,8,641179.125000,218979.125000,1204504.375000,66155.125000,7532.500000,601771.750000,6110.575718,1559.156618,44138.654219,1094.647482,471.537909,22065.620820
43,1,0,-nan,-nan,-nan,-nan,-nan,-nan,-nan,-nan,-nan,-nan,-nan,-nan
44,0,8,644023.875000,219755.875000,1249573.125000,66496.000000,7928.000000,624162.375000,6857.177543,1400.436310,74184.878644,943.298601,412.313291,36986.488739
44,1,0,-nan,-nan,-nan,-nan,-nan,-nan,-nan,-nan,-nan,-nan,-nan,-nan
45,0,8,645696.750000,220090.000000,1281784.625000,66781.250000,7982.125000,640222.500000,9366.888701,1860.847925,73535.452759,1509.063596,765.457614,36647.280319
45,1,0,-nan,-nan,-nan,-nan,-nan,-nan,-nan,-nan,-nan,-nan,-nan,-nan
46,0,8,648829.625000,220853.625000,1240584.375000,67242.500000,7859.625000,619766.250000,11000.389970,2134.226613,59051.918212,1579.875707,877.665645,29585.714275
46,1,0,-nan,-nan,-nan,-nan,-nan,-nan,-nan,-nan,-nan,-nan,-nan,-nan
47,0,8,639383.250000,218653.500000,1264954.125000,65824.125000,7494.250000,631916.375000,2122.304158,536.126851,75516.544390,201.956330,1013.677556,37696.549865
47,1,0,-nan,-nan,-nan,-nan,-nan,-nan,-nan,-nan,-nan,-nan,-nan,-nan
48,0,8,640578.500000,219412.125000,1189901.875000,66194.125000,7359.375000,594342.250000,2886.083852,892.247505,79222.390537,431.567039,507.843711,39538.673504
48,1,0,-nan,-nan,-nan,-nan,-nan,-nan,-nan,-nan,-nan,-nan,-nan,-nan
49,0,8,642054.125000,219309.625000,1230575.250000,66282.750000,7639.125000,614786.000000,6031.128324,1550.541433,71998.898875,1194.036510,753.514339,36061.507023
49,1,0,-nan,-nan,-nan,-nan,-nan,-nan,-nan,-nan,-nan,-nan,-nan,-nan
50,0,8,647012.500000,220474.750000,1247926.125000,67133.250000,7731.875000,623394.500000,9732.013525,2207.426259,61611.768416,1423.249078,485.383724,30772.334771
50,1,0,-nan,-nan,-nan,-nan,-nan,-nan,-nan,-nan,-nan,-nan,-nan,-nan
51,0,8,640161.625000,218862.500000,1225014.375000,65915.750000,7565.875000,611996.875000,2394.851714,881.930695,55484.708959,399.506805,390.093078,27721.569181
51,1,0,-nan,-nan,-nan,-nan,-nan,-nan,-nan,-nan,-nan,-nan,-nan,-nan
52,0,8,639342.500000,218748.875000,1210834.750000,65913.000000,7572.500000,604832.500000,3744.472092,795.705730,72691.503626,376.185127,774.269656,36181.673559
52,1,0,-nan,-nan,-nan,-nan,-nan,-nan,-nan,-nan,-nan,-nan,-nan,-nan
53,0,8,642952.750000,219683.000000,1217561.000000,66454.250000,7765.375000,608172.000000,7865.505383,1668.342741,57982.291836,1077.679190,862.255898,29090.447264
53,1,0,-nan,-nan,-nan,-nan,-nan,-nan,-nan,-nan,-nan,-nan,-nan,-nan
54,0,8,642264.500000,219610.125000,1270451.625000,66420.375000,7936.125000,634643.375000,8120.271470,1823.889418,65121.183842,1278.175745,960.864381,32598.480513
54,1,0,-nan,-nan,-nan,-nan,-nan,-nan,-nan,-nan,-nan,-nan,-nan,-nan
55,0,8,639274.375000,218828.000000,1268754.250000,65911.500000,7767.750000,633746.250000,3123.349241,693.987932,56530.506127,320.989875,570.132386,28269.972328
55,1,0,-nan,-nan,-nan,-nan,-nan,-nan,-nan,-nan,-nan,-nan,-nan,-nan
56,0,8,644205.000000,220056.000000,1304153.250000,66619.500000,8031.250000,651333.750000,5987.096625,1563.791067,61087.786248,1003.005857,942.132123,30612.754922
56,1,0,-nan,-nan,-nan,-nan,-nan,-nan,-nan,-nan,-nan,-nan,-nan,-nan
57,0,8,647116.500000,221036.000000,1287592.500000,66842.375000,8203.000000,643202.875000,11120.805299,3150.790853,101765.366897,1350.376979,1063.383045,50827.363038
57,1,0,-nan,-nan,-nan,-nan,-nan,-nan,-nan,-nan,-nan,-nan,-nan,-nan
58,0,8,642006.750000,219183.250000,1281777.250000,66195.250000,7915.250000,640412.625000,5643.670188,1439.936435,32167.731303,1045.967704,538.343466,16111.966593
58,1,0,-nan,-nan,-nan,-nan,-nan,-nan,-nan,-nan,-nan,-nan,-nan,-nan
59,0,8,640225.375000,219270.250000,1231621.125000,66072.375000,7530.250000,615188.875000,4170.998470,853.276882,60169.338868,301.855900,571.908810,30168.286123
59,1,0,-nan,-nan,-nan,-nan,-nan,-nan,-nan,-nan,-nan,-nan,-nan,-nan
60,0,8,640190.750000,219256.000000,1284702.250000,66058.000000,7989.250000,641815.125000,3323.581154,520.531459,71749.070929,310.592176,722.799722,35843.302465
60,1,0,-nan,-nan,-nan,-nan,-nan,-nan,-nan,-nan,-nan,-nan,-nan,-nan
61,0,8,642755.750000,219630.125000,1232089.750000,66418.500000,7597.875000,615514.625000,7023.341900,1555.117474,52374.433841,1059.036118,430.646444,26174.028850
61,1,0,-nan,-nan,-nan,-nan,-nan,-nan,-nan,-nan,-nan,-nan,-nan,-nan
62,0,8,643580.625000,219704.750000,1253992.625000,66448.625000,7797.500000,626444.500000,8978.052516,1634.769307,38807.470183,1190.833420,707.022807,19477.178736
62,1,0,-nan,-nan,-nan,-nan,-nan,-nan,-nan,-nan,-nan,-nan,-nan,-nan
63,0,8,642094.500000,219120.250000,1209614.250000,66172.750000,7633.875000,604336.375000,7316.706841,1586.726485,46397.124002,1090.164982,249.168837,23258.080563
63,1,0,-nan,-nan,-nan,-nan,-nan,-nan,-nan,-nan,-nan,-nan,-nan,-nan
64,0,8,649103.750000,221202.500000,1233200.250000,67048.000000,7457.875000,616049.250000,17321.575013,4689.558375,74629.247063,2141.568292,870.814480,37320.233975
64,1,0,-nan,-nan,-nan,-nan,-nan,-nan,-nan,-nan,-nan,-nan,-nan,-nan
65,0,8,645084.000000,220680.625000,1239205.250000,66501.000000,7445.250000,619019.625000,10556.606995,3255.517545,50587.238338,1098.159824,371.408047,25330.151845
65,1,0,-nan,-nan,-nan,-nan,-nan,-nan,-nan,-nan,-nan,-nan,-nan,-nan
66,0,8,640843.500000,218820.625000,1214233.750000,65863.625000,7430.875000,606653.125000,2837.441409,838.720296,50018.868737,464.938151,304.657364,25023.812711
66,1,0,-nan,-nan,-nan,-nan,-nan,-nan,-nan,-nan,-nan,-nan,-nan,-nan
67,0,8,643267.375000,219378.875000,1230295.875000,66301.875000,7713.750000,614578.875000,7007.640258,1285.617404,38223.242780,944.653169,382.020533,19023.279110
67,1,0,-nan,-nan,-nan,-nan,-nan,-nan,-nan,-nan,-nan,-nan,-nan,-nan
68,0,8,641979.000000,219200.625000,1268318.625000,66005.375000,7692.125000,633619.625000,2493.338525,936.276126,88153.955246,403.030066,551.163414,44108.938961
68,1,0,-nan,-nan,-nan,-nan,-nan,-nan,-nan,-nan,-nan,-nan,-nan,-nan
69,0,8,643562.250000,219569.250000,1236887.000000,66361.125000,7679.250000,617866.000000,6623.920341,1411.097600,66771.879775,1125.433299,583.767452,33370.100910
69,1,0,-nan,-nan,-nan,-nan,-nan,-nan,-nan,-nan,-nan,-nan,-nan,-nan
70,0,8,640469.375000,218717.125000,1237651.500000,65839.500000,7665.125000,618218.250000,2450.374407,868.889440,47198.145774,501.886441,483.900154,23454.160077
70,1,0,-nan,-nan,-nan,-nan,-nan,-nan,-nan,-nan,-nan,-nan,-nan,-nan
71,0,8,644371.000000,219815.500000,1218771.625000,66423.875000,7489.250000,608849.625000,7249.637491,1810.237830,54307.714567,1045.306706,371.724949,27234.027934
71,1,0,-nan,-nan,-nan,-nan,-nan,-nan,-nan,-nan,-nan,-nan,-nan,-nan
72,0,8,641715.000000,219358.500000,1239200.250000,66217.000000,7638.125000,619064.375000,7615.551818,1559.463770,71926.261865,1100.379366,560.867506,36018.206219
72,1,0,-nan,-nan,-nan,-nan,-nan,-nan,-nan,-nan,-nan,-nan,-nan,-nan
73,0,8,644616.000000,219911.125000,1230804.500000,66634.000000,7641.000000,614857.875000,9990.774269,1845.728477,52844.977924,1447.268116,541.569478,26485.794043
73,1,0,-nan,-nan,-nan,-nan,-nan,-nan,-nan,-nan,-nan,-nan,-nan,-nan
74,0,8,639347.750000,218720.750000,1242447.125000,65797.125000,7411.500000,620702.000000,3426.600602,596.058879,117846.272811,475.511156,807.272878,58959.521839
74,1,0,-nan,-nan,-nan,-nan,-nan,-nan,-nan,-nan,-nan,-nan,-nan,-nan
75,0,8,638456.375000,218847.875000,1240307.125000,65828.625000,7365.250000,619643.250000,3419.689823,614.379044,36962.677539,380.444785,311.546044,18484.184434
75,1,0,-nan,-nan,-nan,-nan,-nan,-nan,-nan,-nan,-nan,-nan,-nan,-nan
76,0,8,641397.625000,219536.250000,1192081.875000,66191.500000,7508.125000,595331.000000,2793.326956,733.423096,52207.858780,400.952304,508.136408,25995.933321
76,1,0,-nan,-nan,-nan,-nan,-nan,-nan,-nan,-nan,-nan,-nan,-nan,-nan
77,0,8,642538.500000,219242.500000,1235867.750000,66218.375000,7529.125000,617328.500000,8113.868868,1769.671368,57625.529893,1227.221958,471.018959,28870.419191
77,1,0,-nan,-nan,-nan,-nan,-nan,-nan,-nan,-nan,-nan,-nan,-nan,-nan
78,0,8,646004.625000,220414.125000,1306411.000000,66849.500000,7874.500000,652640.500000,9629.785900,1921.634684,126180.775244,1513.619586,988.183561,63052.382463
78,1,0,-nan,-nan,-nan,-nan,-nan,-nan,-nan,-nan,-nan,-nan,-nan,-nan
79,0,8,638883.875000,218599.000000,1230230.625000,65834.625000,7301.750000,614641.250000,2422.570455,571.558833,60357.044361,416.380516,361.025882,30210.462003
79,1,0,-nan,-nan,-nan,-nan,-nan,-nan,-nan,-nan,-nan,-nan,-nan,-nan
80,0,8,641436.250000,219346.125000,1272395.125000,66303.500000,7713.500000,635712.625000,6488.663995,1542.255932,57558.721803,1001.575010,491.031313,28835.673171
80,1,0,-nan,-nan,-nan,-nan,-nan,-nan,-nan,-nan,-nan,-nan,-nan,-nan
81,0,8,643091.250000,219622.875000,1272961.875000,66464.375000,7823.625000,635925.875000,6531.595130,1553.877604,51634.081231,1018.787016,374.944642,25728.434340
81,1,0,-nan,-nan,-nan,-nan,-nan,-nan,-nan,-nan,-nan,-nan,-nan,-nan
82,0,8,642194.125000,219446.125000,1227203.000000,66362.625000,7633.750000,613050.375000,7258.617438,1588.067728,58232.483519,1026.255565,473.885733,29120.098836
82,1,0,-nan,-nan,-nan,-nan,-nan,-nan,-nan,-nan,-nan,-nan,-nan,-nan
83,0,8,639727.500000,218863.750000,1247248.250000,65963.875000,7687.625000,623015.875000,3168.345152,1130.885466,43147.966504,526.752418,353.654470,21533.117699
83,1,0,-nan,-nan,-nan,-nan,-nan,-nan,-nan,-nan,-nan,-nan,-nan,-nan
84,0,8,641590.750000,219326.750000,1270094.875000,66316.125000,7692.750000,634590.000000,7240.119953,1690.086962,58270.213676,1261.930410,613.265797,29147.069214
84,1,0,-nan,-nan,-nan,-nan,-nan,-nan,-nan,-nan,-nan,-nan,-nan,-nan
85,0,8,640733.875000,219166.125000,1241096.375000,66098.000000,7697.375000,619947.500000,3773.207668,1091.556164,86895.424488,394.416975,469.476820,43383.040448
85,1,0,-nan,-nan,-nan,-nan,-nan,-nan,-nan,-nan,-nan,-nan,-nan,-nan
86,0,8,647340.625000,220750.625000,1253637.500000,67100.750000,8026.125000,626222.875000,9133.007404,2022.809676,76136.578944,1369.941582,749.624979,38233.758697
86,1,0,-nan,-nan,-nan,-nan,-nan,-nan,-nan,-nan,-nan,-nan,-nan,-nan
87,0,8,640459.250000,219162.500000,1259361.875000,66094.500000,7963.000000,629019.750000,2891.344227,1018.018418,69854.854592,448.579146,410.609912,34811.370641
87,1,0,-nan,-nan,-nan,-nan,-nan,-nan,-nan,-nan,-nan,-nan,-nan,-nan
88,0,8,643087.500000,219951.375000,1269162.500000,66556.625000,7732.125000,633937.000000,6699.015077,1492.963574,77086.880348,1023.201708,550.086911,38612.837470
88,1,0,-nan,-nan,-nan,-nan,-nan,-nan,-nan,-nan,-nan,-nan,-nan,-nan
89,0,8,643537.250000,219675.875000,1289269.500000,66448.250000,8187.625000,644019.875000,7594.106214,1877.797476,77522.311053,1219.999872,558.434405,38762.076049
89,1,0,-nan,-nan,-nan,-nan,-nan,-nan,-nan,-nan,-nan,-nan,-nan,-nan
90,0,8,639578.000000,218460.000000,1250365.125000,65765.375000,7758.125000,624662.375000,2073.178779,309.902807,48590.517312,287.268575,271.531047,24324.831001
90,1,0,-nan,-nan,-nan,-nan,-nan,-nan,-nan,-nan,-nan,-nan,-nan,-nan
91,0,8,642377.750000,219554.625000,1244289.000000,66191.625000,7614.250000,621625.125000,2826.704873,991.812852,63290.969644,507.290828,453.429639,31671.433179
91,1,0,-nan,-nan,-nan,-nan,-nan,-nan,-nan,-nan,-nan,-nan,-nan,-nan
92,0,8,639793.625000,218894.000000,1256462.625000,65950.500000,7778.125000,627694.000000,2329.592826,551.492747,82985.192120,162.225923,646.806277,41583.035808
92,1,0,-nan,-nan,-nan,-nan,-nan,-nan,-nan,-nan,-nan,-nan,-nan,-nan
93,0,8,644263.625000,219686.250000,1253141.375000,66465.625000,7869.500000,626019.375000,5946.149467,1366.077391,59345.419385,906.379327,522.632280,29661.019187
93,1,0,-nan,-nan,-nan,-nan,-nan,-nan,-nan,-nan,-nan,-nan,-nan,-nan
94,0,8,641738.750000,219706.750000,1219107.375000,66321.375000,7761.000000,608832.500000,3780.227300,1302.606306,52950.609267,634.313593,539.686715,26480.731320
94,1,0,-nan,-nan,-nan,-nan,-nan,-nan,-nan,-nan,-nan,-nan,-nan,-nan
95,0,8,643919.250000,220414.250000,1236971.000000,66457.750000,7732.375000,617858.750000,7676.850701,2915.247149,67698.585238,793.949424,529.386895,33956.864699
95,1,0,-nan,-nan,-nan,-nan,-nan,-nan,-nan,-nan,-nan,-nan,-nan,-nan
96,0,8,642350.875000,219516.625000,1240630.500000,66373.750000,7619.625000,619787.500000,6815.987702,1614.197319,70085.750684,1195.017861,431.161205,35022.701038
96,1,0,-nan,-nan,-nan,-nan,-nan,-nan,-nan,-nan,-nan,-nan,-nan,-nan
97,0,8,646653.750000,220656.875000,1238868.875000,66709.250000,7976.875000,618911.000000,10300.682741,3580.351185,51171.258858,1277.361710,291.342770,25555.608064
97,1,0,-nan,-nan,-nan,-nan,-nan,-nan,-nan,-nan,-nan,-nan,-nan,-nan
98,0,8,642943.125000,219411.625000,1202264.250000,66329.750000,7635.625000,600614.000000,9445.591464,1955.955517,65460.269077,1331.736437,586.328819,32782.314645
98,1,0,-nan,-nan,-nan,-nan,-nan,-nan,-nan,-nan,-nan,-nan,-nan,-nan
99,0,8,640682.625000,219076.250000,1241738.750000,66043.750000,7655.125000,620299.000000,4407.025554,898.996072,66563.648557,503.957774,675.615541,33350.465124
99,1,0,-nan,-nan,-nan,-nan,-nan,-nan,-nan,-nan,-nan,-nan,-nan,-nan
100,0,8,643002.250000,219692.500000,1274291.500000,66426.625000,7954.000000,636598.125000,11101.178640,2018.703049,98078.308211,1321.737392,854.291227,48989.378659
100,1,0,-nan,-nan,-nan,-nan,-nan,-nan,-nan,-nan,-nan,-nan,-nan,-nan
101,0,8,642938.625000,219626.000000,1247326.625000,66461.625000,7944.500000,622980.125000,7751.886463,1545.821626,75981.097876,986.954272,675.132765,37895.859785
101,1,0,-nan,-nan,-nan,-nan,-nan,-nan,-nan,-nan,-nan,-nan,-nan,-nan
102,0,8,640183.875000,219197.625000,1296625.000000,66075.250000,8210.250000,647723.375000,3404.769795,1056.764276,63875.924230,464.824362,673.221314,31838.199018
102,1,0,-nan,-nan,-nan,-nan,-nan,-nan,-nan,-nan,-nan,-nan,-nan,-nan
103,0,8,643451.875000,219784.000000,1247893.125000,66459.750000,7756.000000,623406.750000,7002.554220,1288.216500,41559.888948,907.660833,475.201273,20786.339978
103,1,0,-nan,-nan,-nan,-nan,-nan,-nan,-nan,-nan,-nan,-nan,-nan,-nan
104,0,8,645602.125000,220130.875000,1272178.625000,66829.375000,7968.000000,635552.375000,8751.830472,2120.925649,64693.317128,1442.769294,804.063586,32345.556457
104,1,0,-nan,-nan,-nan,-nan,-nan,-nan,-nan,-nan,-nan,-nan,-nan,-nan
105,0,8,643752.375000,219679.125000,1292820.625000,66437.375000,8292.625000,645804.875000,9071.284032,1946.436259,101289.597865,1266.916329,692.623082,50612.579571
105,1,0,-nan,-nan,-nan,-nan,-nan,-nan,-nan,-nan,-nan,-nan,-nan,-nan
106,0,8,640479.625000,219049.500000,1261362.625000,66022.000000,7906.250000,630121.250000,3355.345732,738.821020,93647.703601,318.156015,541.685737,46832.066602
106,1,0,-nan,-nan,-nan,-nan,-nan,-nan,-nan,-nan,-nan,-nan,-nan,-nan
107,0,8,643254.500000,219842.375000,1278559.375000,66327.375000,8023.875000,638625.375000,2134.736635,822.233990,55560.359407,289.217452,608.827857,27647.403644
107,1,0,-nan,-nan,-nan,-nan,-nan,-nan,-nan,-nan,-nan,-nan,-nan,-nan
108,0,8,643213.125000,219716.125000,1274339.375000,66417.000000,8249.625000,636677.375000,7902.926205,1808.036603,113983.475173,1249.986000,906.697984,57089.670513
108,1,0,-nan,-nan,-nan,-nan,-nan,-nan,-nan,-nan,-nan,-nan,-nan,-nan
109,0,8,642995.750000,220065.750000,1228362.000000,66384.000000,7630.125000,613487.000000,4054.356106,931.586516,29273.017350,439.091961,555.979190,14688.687509
109,1,0,-nan,-nan,-nan,-nan,-nan,-nan,-nan,-nan,-nan,-nan,-nan,-nan
110,0,8,646263.000000,220409.375000,1255755.750000,66862.250000,8079.750000,627299.125000,11248.436402,1926.277754,45365.847806,1357.909952,697.730204,22624.909201
110,1,0,-nan,-nan,-nan,-nan,-nan,-nan,-nan,-nan,-nan,-nan,-nan,-nan
111,0,8,639828.375000,218812.250000,1287469.750000,65874.500000,7903.000000,643222.000000,2632.647381,668.450400,97419.994031,243.313584,625.362295,48663.169651
111,1,0,-nan,-nan,-nan,-nan,-nan,-nan,-nan,-nan,-nan,-nan,-nan,-nan
112,0,8,645971.000000,220912.500000,1263566.500000,66659.125000,7864.500000,631142.125000,9837.302654,3781.942457,77865.020812,1349.438257,552.117967,38966.442269
112,1,0,-nan,-nan,-nan,-nan,-nan,-nan,-nan,-nan,-nan,-nan,-nan,-nan
113,0,8,644299.500000,219857.375000,1258643.750000,66487.375000,7937.750000,628732.625000,7430.230128,1756.189550,67471.690133,1171.377601,552.461707,33706.236277
113,1,0,-nan,-nan,-nan,-nan,-nan,-nan,-nan,-nan,-nan,-nan,-nan,-nan
114,0,8,640588.625000,218868.625000,1248357.625000,65948.500000,7733.125000,623613.750000,3534.719824,557.771669,59817.890112,389.011247,589.911315,29922.075082
114,1,0,-nan,-nan,-nan,-nan,-nan,-nan,-nan,-nan,-nan,-nan,-nan,-nan
115,0,8,647092.750000,221073.125000,1237248.125000,66887.000000,7791.625000,618055.000000,11719.596972,3168.146873,64433.751498,1362.532293,739.433556,32187.377809
115,1,0,-nan,-nan,-nan,-nan,-nan,-nan,-nan,-nan,-nan,-nan,-nan,-nan
116,0,8,642690.000000,219273.750000,1266426.625000,66143.500000,7845.000000,632643.500000,3711.032740,1046.171921,61957.287743,519.918263,741.559337,31012.312982
116,1,0,-nan,-nan,-nan,-nan,-nan,-nan,-nan,-nan,-nan,-nan,-nan,-nan
117,0,8,645409.875000,219872.250000,1256307.375000,66573.875000,7596.375000,627559.250000,7283.231673,1631.789872,47924.487733,1155.521683,553.190505,23968.925486
117,1,0,-nan,-nan,-nan,-nan,-nan,-nan,-nan,-nan,-nan,-nan,-nan,-nan
118,0,8,640886.625000,218839.250000,1200677.500000,65949.750000,7378.500000,599811.750000,4202.616207,1174.145833,64856.897351,449.793772,572.864513,32349.977244
118,1,0,-nan,-nan,-nan,-nan,-nan,-nan,-nan,-nan,-nan,-nan,-nan,-nan
119,0,8,641667.375000,219258.375000,1250357.250000,66125.500000,7341.875000,624505.125000,3444.473034,821.405189,60171.448634,453.369331,883.620031,30062.422530
119,1,0,-nan,-nan,-nan,-nan,-nan,-nan,-nan,-nan,-nan,-nan,-nan,-nan
120,0,8,647155.500000,220207.250000,1270730.250000,66868.625000,7756.000000,634746.500000,8986.232080,2004.236497,69920.413623,1400.008566,823.715363,34808.135960
120,1,0,-nan,-nan,-nan,-nan,-nan,-nan,-nan,-nan,-nan,-nan,-nan,-nan
121,0,8,644469.625000,219725.250000,1273336.625000,66522.750000,7779.750000,636105.875000,8637.210776,1933.562046,47365.223424,1087.816707,825.570371,23721.354664
121,1,0,-nan,-nan,-nan,-nan,-nan,-nan,-nan,-nan,-nan,-nan,-nan,-nan
122,0,8,642006.000000,219331.875000,1233386.000000,66178.750000,7785.000000,616059.500000,3230.857974,1047.667103,55411.767672,524.369562,594.470352,27753.214895
122,1,0,-nan,-nan,-nan,-nan,-nan,-nan,-nan,-nan,-nan,-nan,-nan,-nan
123,0,8,648645.375000,220779.250000,1244093.375000,67301.000000,7897.750000,621437.125000,10139.753571,2215.655645,38439.450237,1640.925730,723.366565,19225.989808
123,1,0,-nan,-nan,-nan,-nan,-nan,-nan,-nan,-nan,-nan,-nan,-nan,-nan
124,0,8,642225.375000,219564.000000,1257962.625000,66451.625000,7647.750000,628435.000000,7381.857946,1755.615419,60424.611606,978.655575,645.966476,30164.558251
124,1,0,-nan,-nan,-nan,-nan,-nan,-nan,-nan,-nan,-nan,-nan,-nan,-nan
125,0,8,638268.250000,218616.125000,1210468.375000,65857.500000,7499.750000,604655.125000,3144.014621,706.102053,37618.275701,215.532480,626.746709,18766.790858
125,1,0,-nan,-nan,-nan,-nan,-nan,-nan,-nan,-nan,-nan,-nan,-nan,-nan
126,0,8,639872.500000,219060.500000,1256003.750000,66033.500000,7645.750000,627351.500000,3620.917114,988.597365,71230.903588,426.958136,824.749773,35508.339665
126,1,0,-nan,-nan,-nan,-nan,-nan,-nan,-nan,-nan,-nan,-nan,-nan,-nan
127,0,8,641025.250000,219429.625000,1262422.125000,66199.375000,7576.250000,630554.250000,3411.711878,987.601759,70441.190855,474.127076,726.338377,35087.097211
127,1,0,-nan,-nan,-nan,-nan,-nan,-nan,-nan,-nan,-nan,-nan,-nan,-nan
128,0,7,654014.857143,221882.571429,1296731.142857,68190.285714,8385.714286,647850.714286,7676.900722,1903.457820,76211.560174,1419.719159,964.963466,38109.449168
128,1,0,-nan,-nan,-nan,-nan,-nan,-nan,-nan,-nan,-nan,-nan,-nan,-nan
129,0,7,638811.142857,218567.428571,1243251.714286,65840.428571,7485.142857,621170.571429,4465.693977,901.149561,72662.511045,419.022965,634.779698,36363.606402
129,1,0,-nan,-nan,-nan,-nan,-nan,-nan,-nan,-nan,-nan,-nan,-nan,-nan
130,0,7,640586.571429,218887.571429,1262981.571429,66004.571429,7889.428571,630664.285714,3239.304284,746.863127,56131.170798,406.056948,512.150050,27602.794288
130,1,0,-nan,-nan,-nan,-nan,-nan,-nan,-nan,-nan,-nan,-nan,-nan,-nan
131,0,7,640555.571429,219214.714286,1268558.000000,66131.571429,7642.428571,633744.571429,3164.594348,995.506004,27244.854560,342.501661,566.106970,13524.777546
131,1,0,-nan,-nan,-nan,-nan,-nan,-nan,-nan,-nan,-nan,-nan,-nan,-nan
132,0,7,641998.000000,219162.428571,1229145.714286,66275.857143,7742.714286,614036.428571,7704.478345,1892.577446,46330.593424,1161.057576,669.900998,23168.518856
132,1,0,-nan,-nan,-nan,-nan,-nan,-nan,-nan,-nan,-nan,-nan,-nan,-nan
133,0,7,638894.285714,218768.142857,1223086.000000,65909.142857,7639.714286,610988.428571,3155.556085,764.136007,66526.301480,452.729319,621.598105,33230.557821
133,1,0,-nan,-nan,-nan,-nan,-nan,-nan,-nan,-nan,-nan,-nan,-nan,-nan
134,0,7,639967.714286,218682.571429,1278890.285714,65908.857143,7503.571429,638843.000000,3393.055375,1158.120751,67127.169364,402.702807,594.472120,33461.717563
134,1,0,-nan,-nan,-nan,-nan,-nan,-nan,-nan,-nan,-nan,-nan,-nan,-nan
135,0,7,643206.142857,219178.714286,1249296.285714,66345.714286,7663.000000,624097.285714,9484.512721,1686.609423,67619.733315,1179.625451,766.702960,33845.254268
135,1,0,-nan,-nan,-nan,-nan,-nan,-nan,-nan,-nan,-nan,-nan,-nan,-nan
136,0,7,640796.428571,218994.714286,1272614.714286,66057.571429,7536.857143,635748.428571,4763.770801,1575.368865,60030.209680,739.731005,599.214350,30004.519811
136,1,0,-nan,-nan,-nan,-nan,-nan,-nan,-nan,-nan,-nan,-nan,-nan,-nan
137,0,7,646780.285714,220277.142857,1208879.571429,66984.142857,7600.714286,603829.571429,8815.259476,2070.391642,45708.884953,1477.844611,418.755883,22800.581007
137,1,0,-nan,-nan,-nan,-nan,-nan,-nan,-nan,-nan,-nan,-nan,-nan,-nan
138,0,7,642148.857143,219071.000000,1266544.285714,66251.428571,7739.714286,632812.142857,8371.089030,1816.823916,50672.074379,1110.299426,490.381110,25405.904755
138,1,0,-nan,-nan,-nan,-nan,-nan,-nan,-nan,-nan,-nan,-nan,-nan,-nan
139,0,7,640762.571429,218943.428571,1235708.142857,66002.857143,7429.857143,617224.285714,3476.648586,844.201881,89964.333117,412.653929,210.871273,44791.259118
139,1,0,-nan,-nan,-nan,-nan,-nan,-nan,-nan,-nan,-nan,-nan,-nan,-nan
140,0,7,640166.285714,218807.285714,1257329.571429,65957.285714,7655.428571,627978.571429,2493.872474,486.558384,67467.635551,266.746383,643.626746,33912.714096
140,1,0,-nan,-nan,-nan,-nan,-nan,-nan,-nan,-nan,-nan,-nan,-nan,-nan
141,0,7,641942.285714,219274.285714,1198589.571429,66330.000000,7383.285714,598747.428571,6658.286839,1490.282880,44782.816057,1072.676226,366.259359,22382.258783
141,1,0,-nan,-nan,-nan,-nan,-nan,-nan,-nan,-nan,-nan,-nan,-nan,-nan
142,0,7,639773.428571,218683.000000,1265052.142857,65897.000000,7626.714286,632016.571429,4645.156521,1008.347587,83724.243895,456.750948,507.013022,41815.142879
142,1,0,-nan,-nan,-nan,-nan,-nan,-nan,-nan,-nan,-nan,-nan,-nan,-nan
143,0,7,641388.857143,219186.857143,1253539.285714,66159.000000,7654.142857,626049.428571,2820.051541,1212.331570,32040.248558,560.195119,319.396497,15984.525078
143,1,0,-nan,-nan,-nan,-nan,-nan,-nan,-nan,-nan,-nan,-nan,-nan,-nan
144,0,7,644207.714286,219611.428571,1266211.285714,66466.000000,7479.428571,632562.571429,6057.209653,1428.247263,69092.458525,1137.955560,574.461203,34488.216161
144,1,0,-nan,-nan,-nan,-nan,-nan,-nan,-nan,-nan,-nan,-nan,-nan,-nan
145,0,7,650211.285714,221664.857143,1280446.428571,67348.285714,7605.000000,639664.857143,17303.419395,4635.528555,94698.827926,2115.807628,532.376344,47273.657855
145,1,0,-nan,-nan,-nan,-nan,-nan,-nan,-nan,-nan,-nan,-nan,-nan,-nan
146,0,7,643573.571429,219986.142857,1224267.000000,66561.857143,7548.428571,611642.571429,10606.769009,2502.883048,61851.395138,1384.784710,979.023399,31007.020403
146,1,0,-nan,-nan,-nan,-nan,-nan,-nan,-nan,-nan,-nan,-nan,-nan,-nan
147,0,7,644419.857143,219709.571429,1291870.857143,66670.857143,7923.285714,645487.285714,11607.384637,2715.600373,92268.114575,1808.130165,795.389162,46130.237266
147,1,0,-nan,-nan,-nan,-nan,-nan,-nan,-nan,-nan,-nan,-nan,-nan,-nan
148,0,7,639516.571429,218778.428571,1253845.000000,65926.571429,7484.285714,626362.000000,3830.016518,974.055859,87292.066537,409.734010,856.861668,43510.441561
148,1,0,-nan,-nan,-nan,-nan,-nan,-nan,-nan,-nan,-nan,-nan,-nan,-nan
149,0,7,641957.285714,219438.142857,1247065.142857,66392.428571,7713.714286,622991.142857,8542.820740,1657.426096,32330.528322,1195.035786,366.300312,16168.286157
149,1,0,-nan,-nan,-nan,-nan,-nan,-nan,-nan,-nan,-nan,-nan,-nan,-nan
150,0,7,643082.428571,219608.428571,1212780.285714,66491.285714,7437.857143,605834.285714,4876.228339,1219.446696,64925.428509,986.013723,448.152215,32468.767321
150,1,0,-nan,-nan,-nan,-nan,-nan,-nan,-nan,-nan,-nan,-nan,-nan,-nan
151,0,7,645947.571429,220317.714286,1258088.714286,66954.000000,7640.857143,628485.000000,9531.244962,1962.009153,88571.459768,1401.418873,627.436378,44296.483879
151,1,0,-nan,-nan,-nan,-nan,-nan,-nan,-nan,-nan,-nan,-nan,-nan,-nan
152,0,7,638988.000000,218895.142857,1231133.142857,65925.714286,7392.571429,614993.000000,3777.203085,1083.915314,73212.531098,354.286694,513.237304,36571.114323
152,1,0,-nan,-nan,-nan,-nan,-nan,-nan,-nan,-nan,-nan,-nan,-nan,-nan
153,0,7,642684.571429,219598.571429,1244796.857143,66442.142857,7627.714286,621854.714286,8380.002231,1676.789437,80445.154576,1040.411104,832.371434,40158.447899
153,1,0,-nan,-nan,-nan,-nan,-nan,-nan,-nan,-nan,-nan,-nan,-nan,-nan
154,0,7,649121.285714,220869.571429,1270888.000000,67363.714286,8234.285714,634913.285714,8694.629356,1797.343107,86517.645505,1525.582110,789.120978,43263.446995
154,1,0,-nan,-nan,-nan,-nan,-nan,-nan,-nan,-nan,-nan,-nan,-nan,-nan
155,0,7,639280.285714,218636.857143,1222203.285714,65843.428571,7737.285714,610530.000000,3398.673090,744.434287,43957.460868,307.679730,123.181300,22006.668360
155,1,0,-nan,-nan,-nan,-nan,-nan,-nan,-nan,-nan,-nan,-nan,-nan,-nan
156,0,7,640542.571429,218909.428571,1245793.571429,65987.428571,7669.857143,622250.000000,3972.978223,1054.861786,85366.126611,473.712347,587.503296,42527.065318
156,1,0,-nan,-nan,-nan,-nan,-nan,-nan,-nan,-nan,-nan,-nan,-nan,-nan
157,0,7,642373.142857,219165.142857,1214654.571429,66252.142857,7681.714286,606798.428571,8437.027243,1895.764560,47537.094568,1168.201845,562.755139,23732.212195
157,1,0,-nan,-nan,-nan,-nan,-nan,-nan,-nan,-nan,-nan,-nan,-nan,-nan
158,0,7,639955.000000,218608.857143,1226514.571429,65834.142857,7538.714286,612680.571429,3611.330068,707.587941,47906.251948,382.248397,501.822312,24075.852519
158,1,0,-nan,-nan,-nan,-nan,-nan,-nan,-nan,-nan,-nan,-nan,-nan,-nan
159,0,7,644509.285714,220078.714286,1244276.857143,66618.571429,7613.714286,621540.285714,7909.953038,1366.803959,57876.566382,1178.785556,820.750478,29022.969784
159,1,0,-nan,-nan,-nan,-nan,-nan,-nan,-nan,-nan,-nan,-nan,-nan,-nan
160,0,7,646195.857143,220312.714286,1249435.285714,66954.428571,7696.142857,624120.142857,8523.904864,1907.194627,35008.127427,1355.375631,573.983929,17484.643846
160,1,0,-nan,-nan,-nan,-nan,-nan,-nan,-nan,-nan,-nan,-nan,-nan,-nan
161,0,7,642239.571429,219146.285714,1220301.428571,66276.571429,7515.285714,609674.857143,7130.827959,1647.952991,60196.201940,1076.921917,438.602884,30086.097252
161,1,0,-nan,-nan,-nan,-nan,-nan,-nan,-nan,-nan,-nan,-nan,-nan,-nan
162,0,7,639134.285714,218786.428571,1209700.428571,65930.571429,7211.142857,604323.428571,2790.953330,941.939618,42293.262401,371.670690,539.983711,21145.775349
162,1,0,-nan,-nan,-nan,-nan,-nan,-nan,-nan,-nan,-nan,-nan,-nan,-nan
163,0,7,637783.000000,218543.714286,1200495.714286,65815.142857,7258.571429,599733.714286,3126.080339,598.264804,53116.229841,335.221218,378.353900,26565.888336
163,1,0,-nan,-nan,-nan,-nan,-nan,-nan,-nan,-nan,-nan,-nan,-nan,-nan
164,0,7,640706.000000,219481.857143,1214845.714286,66074.285714,7221.571429,606940.142857,10497.425970,3438.716930,72037.206341,936.779699,316.112031,36004.156897
164,1,0,-nan,-nan,-nan,-nan,-nan,-nan,-nan,-nan,-nan,-nan,-nan,-nan
165,0,7,638534.285714,218700.428571,1198961.428571,65877.285714,7354.571429,598951.142857,3630.821541,762.557887,34806.672176,372.959482,444.139250,17402.989730
165,1,0,-nan,-nan,-nan,-nan,-nan,-nan,-nan,-nan,-nan,-nan,-nan,-nan
166,0,7,642071.142857,219687.000000,1209732.142857,66493.571429,7458.428571,604318.428571,5423.494720,1662.600029,113178.265087,1100.926474,362.987547,56473.262255
166,1,0,-nan,-nan,-nan,-nan,-nan,-nan,-nan,-nan,-nan,-nan,-nan,-nan
167,0,7,639592.714286,218594.714286,1215242.571429,65784.142857,7487.285714,607103.285714,2974.580821,782.430593,58661.668073,408.023609,293.479965,29395.096805
167,1,0,-nan,-nan,-nan,-nan,-nan,-nan,-nan,-nan,-nan,-nan,-nan,-nan
168,0,7,642383.714286,219526.000000,1221544.857143,66172.714286,7617.857143,610137.142857,4243.898872,918.366251,35066.306508,457.747814,436.758328,17547.186681
168,1,0,-nan,-nan,-nan,-nan,-nan,-nan,-nan,-nan,-nan,-nan,-nan,-nan
169,0,7,642580.142857,219422.000000,1216842.714286,66312.142857,7436.571429,607916.857143,8856.329027,1710.122218,59450.826962,1077.170291,365.860573,29683.913115
169,1,0,-nan,-nan,-nan,-nan,-nan,-nan,-nan,-nan,-nan,-nan,-nan,-nan
170,0,7,645093.571429,220026.428571,1260104.571429,66760.714286,7470.571429,629576.142857,6707.765561,1911.460239,57483.108266,1330.888394,504.082436,28777.188046
170,1,0,-nan,-nan,-nan,-nan,-nan,-nan,-nan,-nan,-nan,-nan,-nan,-nan
171,0,7,640645.285714,219300.571429,1245109.857143,66102.142857,7410.857143,621935.285714,2956.518595,961.853398,43771.681548,443.536898,409.749550,21895.702492
171,1,0,-nan,-nan,-nan,-nan,-nan,-nan,-nan,-nan,-nan,-nan,-nan,-nan
172,0,7,642314.000000,219416.571429,1231058.000000,66422.285714,7574.285714,614980.571429,9366.414042,2130.133990,99545.746815,1479.329743,701.036929,49783.347700
172,1,0,-nan,-nan,-nan,-nan,-nan,-nan,-nan,-nan,-nan,-nan,-nan,-nan
173,0,7,639947.571429,219259.571429,1235288.142857,66075.428571,7460.571429,617061.142857,3308.445205,993.962899,63378.174151,425.452652,951.523719,31693.387658
173,1,0,-nan,-nan,-nan,-nan,-nan,-nan,-nan,-nan,-nan,-nan,-nan,-nan
174,0,7,643062.714286,219952.142857,1239374.285714,66578.142857,7848.857143,619066.714286,10089.501484,2208.892252,70084.051554,1443.763082,772.645997,34971.178822
174,1,0,-nan,-nan,-nan,-nan,-nan,-nan,-nan,-nan,-nan,-nan,-nan,-nan
175,0,7,639153.857143,219169.000000,1233962.571429,65904.571429,7506.000000,616360.571429,4474.955784,1232.643269,79225.997149,666.559151,644.736491,39464.781311
175,1,0,-nan,-nan,-nan,-nan,-nan,-nan,-nan,-nan,-nan,-nan,-nan,-nan
176,0,7,641721.857143,219612.857143,1311627.857143,66328.142857,7951.142857,655196.714286,7764.335597,1805.658758,131129.910861,1314.433548,992.522390,65577.320086
176,1,0,-nan,-nan,-nan,-nan,-nan,-nan,-nan,-nan,-nan,-nan,-nan,-nan
177,0,7,639601.142857,218778.285714,1208114.714286,65760.000000,7317.571429,603511.142857,3255.610692,892.537428,61718.704923,473.231444,374.735281,30787.312704
177,1,0,-nan,-nan,-nan,-nan,-nan,-nan,-nan,-nan,-nan,-nan,-nan,-nan
178,0,7,644380.857143,220534.714286,1210794.571429,66536.428571,7213.571429,604927.428571,10202.128705,2881.238162,76819.366611,1171.462804,611.597173,38415.606843
178,1,0,-nan,-nan,-nan,-nan,-nan,-nan,-nan,-nan,-nan,-nan,-nan,-nan
179,0,7,644358.285714,219933.285714,1215981.714286,66591.285714,7660.000000,607495.000000,11105.253348,2219.020808,79236.613744,1534.642975,1120.802391,39610.827831
179,1,0,-nan,-nan,-nan,-nan,-nan,-nan,-nan,-nan,-nan,-nan,-nan,-nan
180,0,7,638296.285714,218669.857143,1216089.714286,65719.142857,7289.000000,607520.857143,1949.008005,502.068700,49848.234096,319.826037,557.842272,24923.844398
180,1,0,-nan,-nan,-nan,-nan,-nan,-nan,-nan,-nan,-nan,-nan,-nan,-nan
181,0,7,641030.285714,219130.428571,1212860.714286,66083.428571,7572.714286,605934.000000,9605.569809,1845.901704,52514.521351,1374.060807,912.525806,26243.922203
181,1,0,-nan,-nan,-nan,-nan,-nan,-nan,-nan,-nan,-nan,-nan,-nan,-nan
182,0,7,639000.714286,218527.142857,1264485.714286,65653.142857,7512.142857,631762.571429,4323.631665,642.104893,107963.252625,381.569476,791.346308,53967.427112
182,1,0,-nan,-nan,-nan,-nan,-nan,-nan,-nan,-nan,-nan,-nan,-nan,-nan
183,0,8,641459.375000,219143.500000,1258794.250000,66118.000000,7543.625000,628951.500000,10874.873953,2008.054718,61463.314062,1158.841339,632.188844,30784.382709
183,1,0,-nan,-nan,-nan,-nan,-nan,-nan,-nan,-nan,-nan,-nan,-nan,-nan
184,0,8,638892.250000,218713.250000,1279531.375000,65803.750000,7579.000000,639173.250000,3720.073714,509.580403,84922.164081,492.932741,497.449997,42346.615572
184,1,0,-nan,-nan,-nan,-nan,-nan,-nan,-nan,-nan,-nan,-nan,-nan,-nan
185,0,8,646476.250000,220196.125000,1287879.625000,66940.375000,7657.750000,643437.750000,8729.647011,2157.306158,47692.188574,1544.848208,702.547463,23787.148766
185,1,0,-nan,-nan,-nan,-nan,-nan,-nan,-nan,-nan,-nan,-nan,-nan,-nan
186,0,8,638287.000000,218517.125000,1211291.125000,65728.750000,7392.375000,605142.625000,3488.368279,918.994483,57544.871580,418.516054,526.509244,28773.683966
186,1,0,-nan,-nan,-nan,-nan,-nan,-nan,-nan,-nan,-nan,-nan,-nan,-nan
187,0,8,641272.875000,219068.375000,1246735.500000,66100.250000,7546.500000,622933.625000,7924.581936,1809.083673,30066.209813,1153.103177,543.189424,15042.255066
187,1,0,-nan,-nan,-nan,-nan,-nan,-nan,-nan,-nan,-nan,-nan,-nan,-nan
188,0,8,645040.125000,220161.000000,1265732.250000,66785.875000,7844.250000,632254.375000,12541.405647,2408.073919,91689.871270,1647.569303,435.715719,45853.028897
188,1,0,-nan,-nan,-nan,-nan,-nan,-nan,-nan,-nan,-nan,-nan,-nan,-nan
189,0,8,638342.000000,218544.750000,1243702.125000,65728.625000,7535.375000,621289.750000,3207.529540,740.775059,61031.448996,453.522309,709.565173,30489.009502
189,1,0,-nan,-nan,-nan,-nan,-nan,-nan,-nan,-nan,-nan,-nan,-nan,-nan
190,0,8,639630.875000,218932.625000,1235775.125000,66040.625000,7337.500000,617350.250000,5930.166575,1449.348900,46610.288608,1063.825989,415.266180,23230.223642
190,1,0,-nan,-nan,-nan,-nan,-nan,-nan,-nan,-nan,-nan,-nan,-nan,-nan
191,0,8,636963.625000,217992.500000,1197973.500000,65491.250000,7318.500000,598541.000000,3106.860390,318.867527,69222.774399,284.044781,497.753453,34627.642643
191,1,0,-nan,-nan,-nan,-nan,-nan,-nan,-nan,-nan,-nan,-nan,-nan,-nan
192,0,8,641424.625000,219267.250000,1210759.500000,66184.250000,7569.375000,604876.625000,7842.861243,1713.322923,54816.775154,1290.792755,565.730045,27399.400427
192,1,0,-nan,-nan,-nan,-nan,-nan,-nan,-nan,-nan,-nan,-nan,-nan,-nan
193,0,8,640516.125000,219224.125000,1241426.250000,66152.750000,7803.750000,620194.750000,8610.368407,1910.996758,79356.250717,1054.060334,831.849258,39634.826450
193,1,0,-nan,-nan,-nan,-nan,-nan,-nan,-nan,-nan,-nan,-nan,-nan,-nan
194,0,8,645480.000000,220728.125000,1225851.000000,66677.250000,7823.125000,612423.375000,11180.106305,3322.109926,58851.007608,1394.465377,557.071458,29427.452149
194,1,0,-nan,-nan,-nan,-nan,-nan,-nan,-nan,-nan,-nan,-nan,-nan,-nan
195,0,8,641986.375000,219709.375000,1250727.750000,66400.375000,7778.500000,624831.250000,6864.437758,1438.534231,58586.996780,1113.041322,864.573450,29347.046051
195,1,0,-nan,-nan,-nan,-nan,-nan,-nan,-nan,-nan,-nan,-nan,-nan,-nan
196,0,8,637083.000000,218208.625000,1237334.875000,65596.000000,7682.375000,618165.250000,2738.841041,406.852227,56831.098490,273.631139,584.901260,28453.984228
196,1,0,-nan,-nan,-nan,-nan,-nan,-nan,-nan,-nan,-nan,-nan,-nan,-nan
197,0,8,641161.000000,219396.625000,1227394.375000,66283.125000,7558.500000,613224.875000,7308.319643,1498.165540,66952.901212,1104.698651,500.599141,33434.880714
197,1,0,-nan,-nan,-nan,-nan,-nan,-nan,-nan,-nan,-nan,-nan,-nan,-nan
198,0,8,644762.250000,220058.375000,1295077.625000,66848.875000,7921.250000,647099.250000,8870.293692,2146.193604,41580.780413,1430.397972,220.291143,20800.973485
198,1,0,-nan,-nan,-nan,-nan,-nan,-nan,-nan,-nan,-nan,-nan,-nan,-nan
199,0,8,637165.625000,218779.250000,1226259.375000,65808.125000,7349.625000,612599.375000,3285.492046,922.016777,63219.663335,514.839644,666.809369,31604.957851
199,1,0,-nan,-nan,-nan,-nan,-nan,-nan,-nan,-nan,-nan,-nan,-nan,-nan
200,0,8,638073.625000,218580.250000,1189308.375000,65733.625000,7397.375000,594135.250000,2032.175924,675.518643,55228.483636,312.264686,271.595258,27583.832845
200,1,0,-nan,-nan,-nan,-nan,-nan,-nan,-nan,-nan,-nan,-nan,-nan,-nan
201,0,8,642108.750000,219156.125000,1245368.250000,66132.250000,7703.125000,622169.125000,7721.628645,1402.622048,89926.918561,1073.726542,644.931089,44968.473547
201,1,0,-nan,-nan,-nan,-nan,-nan,-nan,-nan,-nan,-nan,-nan,-nan,-nan
202,0,8,639587.500000,218994.875000,1246722.750000,65893.375000,7404.250000,622805.500000,3296.002882,985.595688,46702.314784,485.185000,776.956683,23430.341440
202,1,0,-nan,-nan,-nan,-nan,-nan,-nan,-nan,-nan,-nan,-nan,-nan,-nan
203,0,8,641595.125000,219375.500000,1274906.625000,66262.375000,7455.375000,636899.125000,9283.412336,2127.993597,83777.831211,1281.748994,879.324590,41861.991551
203,1,0,-nan,-nan,-nan,-nan,-nan,-nan,-nan,-nan,-nan,-nan,-nan,-nan
204,0,8,641829.750000,219286.375000,1220584.250000,66245.375000,7583.000000,609635.875000,8372.602519,2095.851196,59175.715327,1310.841899,296.282382,29490.123365
204,1,0,-nan,-nan,-nan,-nan,-nan,-nan,-nan,-nan,-nan,-nan,-nan,-nan
205,0,8,643360.000000,219657.000000,1225596.000000,66587.000000,7713.875000,612300.000000,10791.289983,2100.018750,68567.672332,1474.852450,736.682163,34304.411287
205,1,0,-nan,-nan,-nan,-nan,-nan,-nan,-nan,-nan,-nan,-nan,-nan,-nan
206,0,8,645770.375000,221106.125000,1252247.000000,66582.750000,7517.750000,625543.750000,11691.488634,4470.317227,80807.349188,1372.315721,473.947452,40365.745508
206,1,0,-nan,-nan,-nan,-nan,-nan,-nan,-nan,-nan,-nan,-nan,-nan,-nan
207,0,8,644208.750000,219601.500000,1217752.125000,66595.750000,7576.875000,608431.000000,11239.385479,2652.510273,60819.198027,1610.380681,737.026024,30357.777780
207,1,0,-nan,-nan,-nan,-nan,-nan,-nan,-nan,-nan,-nan,-nan,-nan,-nan
208,0,8,641245.000000,219092.000000,1250884.625000,66170.000000,7691.000000,624966.375000,6899.961123,1456.635679,72630.596204,1256.492837,488.046873,36291.835828
208,1,0,-nan,-nan,-nan,-nan,-nan,-nan,-nan,-nan,-nan,-nan,-nan,-nan
209,0,8,641029.750000,219120.125000,1207494.750000,66182.500000,7359.375000,603242.375000,7375.488539,1747.329064,68214.629105,1226.508459,855.128051,34109.948226
209,1,0,-nan,-nan,-nan,-nan,-nan,-nan,-nan,-nan,-nan,-nan,-nan,-nan
210,0,8,640953.875000,219073.000000,1262783.625000,66143.125000,7604.875000,630892.375000,6905.179115,1409.379030,61001.469970,948.550267,720.764080,30465.242831
210,1,0,-nan,-nan,-nan,-nan,-nan,-nan,-nan,-nan,-nan,-nan,-nan,-nan
211,0,8,640510.875000,219119.500000,1236029.625000,66175.000000,7334.625000,617407.500000,8154.857179,1712.452554,60067.618456,1134.314330,710.162470,29892.364916
211,1,0,-nan,-nan,-nan,-nan,-nan,-nan,-nan,-nan,-nan,-nan,-nan,-nan
212,0,8,639413.500000,218762.500000,1257868.750000,65840.250000,7508.500000,628418.750000,4332.383264,1039.827269,80032.901411,509.429031,661.199289,39965.988536
212,1,0,-nan,-nan,-nan,-nan,-nan,-nan,-nan,-nan,-nan,-nan,-nan,-nan
213,0,8,641532.375000,219531.125000,1264059.375000,66330.750000,7617.750000,631478.500000,7724.093279,1544.857472,62564.348624,1266.926078,293.289000,31186.951727
213,1,0,-nan,-nan,-nan,-nan,-nan,-nan,-nan,-nan,-nan,-nan,-nan,-nan
214,0,8,638802.000000,218479.625000,1223392.625000,65757.875000,7493.125000,611141.500000,3383.294105,880.869874,59694.112982,557.989345,685.989876,29916.151837
214,1,0,-nan,-nan,-nan,-nan,-nan,-nan,-nan,-nan,-nan,-nan,-nan,-nan
215,0,8,641679.875000,219687.500000,1250596.250000,66098.625000,7579.000000,624830.000000,9953.365831,3131.221647,73148.466308,1104.083889,726.574841,36558.793641
215,1,0,-nan,-nan,-nan,-nan,-nan,-nan,-nan,-nan,-nan,-nan,-nan,-nan
216,0,8,645933.875000,220236.750000,1245954.500000,66956.625000,8033.000000,622551.750000,11059.963839,2305.432321,42190.522484,1681.563405,746.644661,21101.347882
216,1,0,-nan,-nan,-nan,-nan,-nan,-nan,-nan,-nan,-nan,-nan,-nan,-nan
217,0,8,637957.125000,218474.625000,1281662.375000,65757.000000,7966.500000,640324.250000,2504.210476,514.792176,67757.505711,265.900357,936.965047,33896.411465
217,1,0,-nan,-nan,-nan,-nan,-nan,-nan,-nan,-nan,-nan,-nan,-nan,-nan
218,0,8,642050.125000,219373.875000,1238191.375000,66317.750000,7737.625000,618270.500000,5406.524980,1313.979969,62820.452221,747.905868,653.641901,31243.360843
218,1,0,-nan,-nan,-nan,-nan,-nan,-nan,-nan,-nan,-nan,-nan,-nan,-nan
219,0,8,642583.875000,219377.500000,1230745.000000,66289.625000,7978.250000,614848.750000,9033.479776,1632.877981,47013.817900,1248.304444,845.767809,23530.402418
219,1,0,-nan,-nan,-nan,-nan,-nan,-nan,-nan,-nan,-nan,-nan,-nan,-nan
220,0,8,639521.250000,218635.250000,1252948.625000,65763.125000,7773.250000,625986.500000,2846.518037,493.968812,46082.652186,299.008962,615.591332,23059.468180
220,1,0,-nan,-nan,-nan,-nan,-nan,-nan,-nan,-nan,-nan,-nan,-nan,-nan
221,0,8,644794.625000,219846.875000,1269503.875000,66638.750000,7918.125000,634181.500000,8838.818911,1778.726893,90510.601805,1390.047099,946.837821,45084.147397
221,1,0,-nan,-nan,-nan,-nan,-nan,-nan,-nan,-nan,-nan,-nan,-nan,-nan
222,0,8,642353.625000,219734.125000,1245365.000000,66434.625000,7755.625000,622105.750000,7484.992684,1426.949407,67112.777934,1092.386257,815.374291,33561.506133
222,1,0,-nan,-nan,-nan,-nan,-nan,-nan,-nan,-nan,-nan,-nan,-nan,-nan
223,0,8,641014.000000,219202.000000,1279893.000000,66206.625000,8111.125000,639402.625000,6192.161375,1294.952509,74901.924757,1127.709508,673.822016,37302.348740
223,1,0,-nan,-nan,-nan,-nan,-nan,-nan,-nan,-nan,-nan,-nan,-nan,-nan
224,0,8,639933.375000,218971.125000,1233736.125000,66108.000000,7649.125000,616342.500000,5701.154860,1546.540529,50373.548429,858.485585,537.972452,25142.368947
224,1,0,-nan,-nan,-nan,-nan,-nan,-nan,-nan,-nan,-nan,-nan,-nan,-nan
225,0,8,638076.250000,218569.625000,1240552.750000,65774.250000,7470.000000,619764.250000,3862.375427,937.314107,55737.201382,510.692361,384.218362,27895.750020
225,1,0,-nan,-nan,-nan,-nan,-nan,-nan,-nan,-nan,-nan,-nan,-nan,-nan
226,0,8,639588.000000,218947.750000,1233812.750000,66106.250000,7567.875000,616421.000000,6190.257224,1540.078549,81834.270774,822.131642,360.808619,40885.517720
226,1,0,-nan,-nan,-nan,-nan,-nan,-nan,-nan,-nan,-nan,-nan,-nan,-nan
227,0,8,641352.750000,219382.125000,1248442.000000,66281.250000,7609.000000,623714.375000,10105.743735,1871.643291,77629.109569,1196.753812,720.452115,38860.841222
227,1,0,-nan,-nan,-nan,-nan,-nan,-nan,-nan,-nan,-nan,-nan,-nan,-nan
228,0,8,644039.625000,220543.375000,1249854.375000,66648.875000,7475.000000,624469.875000,8679.620440,2847.907475,66830.181107,1160.787172,509.100678,33492.256442
228,1,0,-nan,-nan,-nan,-nan,-nan,-nan,-nan,-nan,-nan,-nan,-nan,-nan
229,0,8,642573.500000,219584.375000,1246412.625000,66541.250000,7461.125000,622755.125000,8937.564349,1981.173638,33302.773927,1441.006484,480.061568,16673.902921
229,1,0,-nan,-nan,-nan,-nan,-nan,-nan,-nan,-nan,-nan,-nan,-nan,-nan
230,0,8,640299.875000,218857.000000,1268338.250000,66097.000000,7251.125000,633678.500000,8772.648153,1995.050062,33964.299653,1286.062110,651.756940,16994.537453
230,1,0,-nan,-nan,-nan,-nan,-nan,-nan,-nan,-nan,-nan,-nan,-nan,-nan
231,0,8,637398.000000,218402.250000,1230744.375000,65767.750000,7280.750000,614794.375000,4321.902359,1259.142342,43779.844241,619.937648,425.492876,21869.472907
231,1,0,-nan,-nan,-nan,-nan,-nan,-nan,-nan,-nan,-nan,-nan,-nan,-nan
232,0,8,639282.750000,218787.000000,1216790.500000,65896.750000,7488.750000,607890.375000,4295.692865,936.101223,61263.788838,540.866839,664.136234,30632.720014
232,1,0,-nan,-nan,-nan,-nan,-nan,-nan,-nan,-nan,-nan,-nan,-nan,-nan
233,0,8,642212.875000,219540.875000,1225849.875000,66367.500000,7402.125000,612372.625000,8093.913476,1580.869416,83700.629364,1137.864337,691.635279,41908.160339
233,1,0,-nan,-nan,-nan,-nan,-nan,-nan,-nan,-nan,-nan,-nan,-nan,-nan
234,0,8,637273.000000,218527.750000,1204652.875000,65773.625000,6927.625000,601833.750000,3498.936946,657.550141,56848.601169,365.276928,544.294253,28364.037723
234,1,0,-nan,-nan,-nan,-nan,-nan,-nan,-nan,-nan,-nan,-nan,-nan,-nan
235,0,8,641045.750000,219801.625000,1281260.625000,66108.250000,7214.875000,640079.500000,7545.533575,2585.328554,98497.267067,697.166721,657.255931,49254.278238
235,1,0,-nan,-nan,-nan,-nan,-nan,-nan,-nan,-nan,-nan,-nan,-nan,-nan
236,0,8,649924.500000,222386.750000,1242168.875000,67425.000000,7492.125000,620538.125000,24561.284815,7687.408792,68004.328986,2776.238552,778.512434,34020.555222
236,1,0,-nan,-nan,-nan,-nan,-nan,-nan,-nan,-nan,-nan,-nan,-nan,-nan
237,0,8,646699.500000,221376.000000,1212562.375000,66805.250000,7234.625000,605808.125000,17255.572201,5869.396391,35436.576221,1815.584462,366.782612,17740.952324
237,1,0,-nan,-nan,-nan,-nan,-nan,-nan,-nan,-nan,-nan,-nan,-nan,-nan
238,0,8,644830.250000,221307.500000,1234084.000000,66591.250000,7449.000000,616517.875000,17868.186546,6320.339093,74986.497363,1778.560215,470.774628,37480.367159
238,1,0,-nan,-nan,-nan,-nan,-nan,-nan,-nan,-nan,-nan,-nan,-nan,-nan
239,0,8,646795.625000,221705.125000,1220238.875000,66940.750000,7484.875000,609568.250000,17211.282150,5817.714617,42331.410609,1740.164989,700.995798,21132.945759
239,1,0,-nan,-nan,-nan,-nan,-nan,-nan,-nan,-nan,-nan,-nan,-nan,-nan
240,0,8,646105.375000,221137.625000,1239575.625000,66675.250000,7559.125000,619330.250000,19885.261621,5990.781688,60551.857758,1901.783817,477.672073,30303.193094
240,1,0,-nan,-nan,-nan,-nan,-nan,-nan,-nan,-nan,-nan,-nan,-nan,-nan
241,0,8,647411.125000,221292.500000,1213298.250000,66731.750000,7632.875000,606164.000000,26670.907654,7850.716018,71355.472106,2797.116227,755.422140,35680.660861
241,1,0,-nan,-nan,-nan,-nan,-nan,-nan,-nan,-nan,-nan,-nan,-nan,-nan
242,0,8,648716.625000,221685.375000,1267013.125000,66954.250000,7734.875000,632921.500000,20296.778088,6290.413956,69344.228544,2002.424765,769.117097,34588.830148
242,1,0,-nan,-nan,-nan,-nan,-nan,-nan,-nan,-nan,-nan,-nan,-nan,-nan
243,0,8,646076.875000,221109.125000,1277897.875000,66502.500000,7605.750000,638406.500000,18480.127201,6156.325618,56657.755604,1652.441678,434.331023,28281.494948
243,1,0,-nan,-nan,-nan,-nan,-nan,-nan,-nan,-nan,-nan,-nan,-nan,-nan
244,0,8,644030.375000,220585.750000,1206710.375000,66284.250000,7220.375000,602863.500000,18050.253045,6029.017597,48178.741199,1658.328809,538.017411,24048.694596
244,1,0,-nan,-nan,-nan,-nan,-nan,-nan,-nan,-nan,-nan,-nan,-nan,-nan
245,0,8,646174.250000,221205.750000,1262953.250000,66683.625000,7460.250000,631036.000000,18184.360889,5678.055273,49332.471124,1751.369888,476.920525,24706.900524
245,1,0,-nan,-nan,-nan,-nan,-nan,-nan,-nan,-nan,-nan,-nan,-nan,-nan
246,0,8,645165.750000,221094.000000,1271860.250000,66531.500000,7624.625000,635382.375000,17243.002253,5814.438902,80921.342140,1553.088053,598.468658,40369.323102
246,1,0,-nan,-nan,-nan,-nan,-nan,-nan,-nan,-nan,-nan,-nan,-nan,-nan
247,0,8,644824.875000,220952.375000,1260348.625000,66428.125000,7625.250000,629563.750000,18116.411223,5957.577841,90746.891225,1613.607793,610.601701,45212.266253
247,1,0,-nan,-nan,-nan,-nan,-nan,-nan,-nan,-nan,-nan,-nan,-nan,-nan
248,0,8,642577.125000,220432.375000,1221116.875000,66221.875000,7395.750000,610099.500000,17692.191430,5680.804673,35571.508214,1522.872732,345.614218,17822.008809
248,1,0,-nan,-nan,-nan,-nan,-nan,-nan,-nan,-nan,-nan,-nan,-nan,-nan
249,0,8,644478.875000,221157.125000,1211515.625000,66473.375000,7267.375000,605257.625000,20208.156735,6899.863811,74708.263082,2022.962181,537.883802,37261.614843
249,1,0,-nan,-nan,-nan,-nan,-nan,-nan,-nan,-nan,-nan,-nan,-nan,-nan
250,0,8,647767.875000,222430.500000,1287192.500000,67230.000000,7605.625000,642937.125000,17350.453729,5461.222963,45157.053087,1668.768708,767.147792,22631.788492
250,1,0,-nan,-nan,-nan,-nan,-nan,-nan,-nan,-nan,-nan,-nan,-nan,-nan
251,0,8,654307.625000,223650.750000,1235735.250000,67958.000000,7504.500000,617397.500000,19079.247829,6264.056189,37388.973681,2017.521685,584.113431,18703.957242
251,1,0,-nan,-nan,-nan,-nan,-nan,-nan,-nan,-nan,-nan,-nan,-nan,-nan
252,0,8,645697.875000,220973.375000,1228634.000000,66467.750000,7172.500000,613853.875000,18132.401602,5943.203912,58367.440939,1556.997090,541.601560,29137.978784
252,1,0,-nan,-nan,-nan,-nan,-nan,-nan,-nan,-nan,-nan,-nan,-nan,-nan
253,0,8,648478.125000,221540.125000,1295128.750000,66885.000000,7525.625000,647062.750000,19208.249715,6215.005258,81107.010227,1934.558800,706.130643,40543.539223
253,1,0,-nan,-nan,-nan,-nan,-nan,-nan,-nan,-nan,-nan,-nan,-nan,-nan
254,0,8,650146.125000,221870.375000,1264519.250000,67045.375000,7564.250000,631730.875000,19750.203806,6616.137127,83208.405146,2066.151915,741.197300,41591.455187
254,1,0,-nan,-nan,-nan,-nan,-nan,-nan,-nan,-nan,-nan,-nan,-nan,-nan
255,0,8,651658.125000,221866.500000,1275655.875000,67192.750000,7917.125000,637370.875000,22654.983053,7288.975871,86447.343037,2685.718840,561.767843,43301.165733
255,1,0,-nan,-nan,-nan,-nan,-nan,-nan,-nan,-nan,-nan,-nan,-nan,-nan
