3,0,0.0626518
3,1,0.0621661
3,2,0.0621661
3,3,0.0621661
3,4,0.0621661
3,5,0.0621661
3,6,0.0626518
3,7,0.0626518
3,8,0.0626518
3,9,0.0626518
3,10,0.0626518
3,11,0.0626518
3,12,0.0626518
3,13,0.0626518
3,14,0.0626518
3,15,0.0626518
