0,0,0.000501505
0,1,0.000501505
0,2,0.000501505
0,3,0.000501505
0,4,0.000501505
0,5,0.000501505
0,6,0.000501505
0,7,0.000501505
0,8,0.000501505
0,9,0.000501505
0,10,0.000501505
0,11,0.000501505
0,12,0.000501505
0,13,0.000501505
0,14,0.000501505
0,15,0.000501505
0,16,0.000501505
0,17,0.000501505
0,18,0.000501505
0,19,0.000501505
0,20,0.000501505
0,21,0.000501505
0,22,0.000501505
0,23,0.000501505
0,24,0.000501505
0,25,0.000501505
0,26,0.000501505
0,27,0.000501505
0,28,0.000501505
0,29,0.000501505
0,30,0.000501505
0,31,0.984453
