0,-1,688403,236704,1216028,70593,7649,608003,0
0,2,763911,266692,1389956,78767,8796,694966,0
0,-1,688665,237346,1385158,70809,7557,692582,2
0,2,760871,267577,1478400,79054,9161,739238,0
0,2,713292,249934,1430995,74441,8937,715513,0
0,-1,696200,238180,1332686,71037,8293,666471,0
0,2,710575,248021,1293631,73652,8462,646752,0
0,2,704347,247845,1287423,73674,8458,643681,0
0,-1,658207,223779,1269475,69072,7962,634678,0
0,2,704805,248396,1311779,73904,9210,655820,0
0,-1,637003,218529,1183447,65552,6945,591782,0
0,2,712679,248949,1393909,74076,9343,696914,0
0,2,731124,253683,1429572,77276,9900,714851,0
0,2,734108,254354,1409771,77427,10023,704819,0
0,-1,639002,218585,1182867,65539,7399,591431,0
0,2,712243,249021,1381738,74143,8888,690862,0
0,2,710262,248111,1424340,73847,9145,711907,0
0,2,716791,249897,1507012,74758,10778,753384,0
0,-1,633775,218728,1272754,65759,6787,636399,0
0,2,705483,248541,1392557,74017,9000,696336,0
0,2,708333,248867,1487898,74031,9226,743980,0
0,-1,637702,219016,1151804,65846,6684,575906,0
0,2,707960,249220,1485760,74361,9195,742935,0
0,2,731852,253444,1472125,77290,10927,735705,0
0,2,708262,248886,1433648,73986,8962,716824,0
0,-1,636474,218329,1185382,65639,7213,592764,0
0,2,712054,249549,1420300,74278,9115,710071,0
0,2,709789,248545,1448311,73869,8623,724179,0
0,-1,660114,223500,1299820,69097,8601,649652,0
0,2,709137,248246,1412457,73702,9330,706253,0
0,2,705781,248773,1550315,73945,8792,775164,0
0,-1,638877,219084,1241080,65968,6953,620513,0
0,2,708309,248651,1316403,73979,9185,658259,0
0,-1,649500,221820,1340565,66808,7565,670406,0
0,2,710740,249621,1475883,74271,10284,737857,0
0,2,713718,250803,1498204,74835,9864,748842,0
0,2,711418,248229,1448213,73686,9676,724100,0
0,2,711203,249635,1416791,74206,9105,708442,0
0,2,713421,249179,1421150,74001,9153,710533,0
0,-1,639552,219020,1183012,65741,7217,591459,0
0,2,710542,249000,1303010,74039,8704,651432,0
0,2,717259,250522,1559858,74585,10445,779938,0
0,-1,637630,219260,1366695,65869,8033,683356,0
0,2,723028,251841,1532618,75047,10529,766379,0
0,2,709495,249809,1313025,74166,9052,656394,0
0,-1,660258,223486,1214113,69084,8716,606962,0
0,2,717755,250383,1314588,74342,9489,657341,0
0,2,714304,249782,1382954,74281,9521,691476,0
0,-1,659771,223594,1270221,69249,8679,635067,0
0,2,711601,248884,1317555,73896,9164,658863,0
0,2,709956,248680,1435263,73802,9942,717539,0
0,2,708459,248808,1437822,73912,10325,718962,0
0,-1,664229,223595,1375964,69238,8042,687955,0
0,2,708234,248868,1351543,73905,9173,675696,0
0,2,715260,250661,1474527,74509,10301,736905,0
0,-1,642087,218979,1342907,65934,8969,671365,0
0,2,711716,249504,1449224,73991,10042,724571,0
0,2,713992,250482,1403333,74574,8826,701761,0
0,2,711983,248531,1317033,73746,9493,658562,0
0,-1,635707,219791,1334867,66209,8764,667464,0
0,2,710946,249103,1319224,73949,9357,659637,0
0,2,710192,248023,1300021,73615,9714,650056,0
0,2,708257,248120,1301021,73598,8324,650544,0
0,2,712566,250301,1321775,74597,8990,660961,0
0,-1,638125,219010,1152983,65933,7578,576553,0
0,2,733905,253268,1428784,77109,10392,714318,0
0,2,713074,249086,1380451,73950,8599,690233,0
0,2,714416,248924,1414408,73918,9105,707239,0
0,-1,635367,218820,1260075,65793,7336,630083,0
0,2,703901,247937,1323734,73107,8424,661850,0
0,2,708132,250143,1340850,74106,9076,670413,0
0,2,705649,248254,1475024,73293,8883,737543,0
0,-1,638157,219526,1221621,66057,7515,610856,0
0,2,712129,249110,1311480,74443,9253,655768,0
0,2,705513,248455,1413362,74200,9601,706677,0
0,-1,641467,219831,1175268,66130,7392,587687,0
0,2,711095,250313,1327566,75130,9022,663744,0
0,2,708704,248032,1399594,74067,9474,699763,0
0,-1,642225,219920,1281778,66144,7610,640748,0
0,2,734603,253247,1520927,77575,10345,760471,0
0,2,716394,248797,1357687,74273,9459,678727,0
0,-1,641508,221085,1300369,66731,7693,650218,0
0,2,708719,248077,1379710,74118,9212,689900,0
0,2,708297,248181,1330460,74132,9938,665279,0
0,-1,660537,223288,1187263,69010,8792,593581,0
0,2,710846,248425,1442010,74068,9948,721028,0
0,2,706747,247921,1397514,73929,9083,698782,0
0,2,728448,252646,1475087,77258,10871,737529,0
0,-1,640592,220174,1270328,66142,7277,635181,0
0,2,717393,250743,1431594,75151,9257,715872,0
0,-1,644175,221598,1395703,66978,7891,697876,0
0,2,733029,253283,1507956,77468,10401,753995,0
0,2,714043,248039,1396718,73999,9172,698406,0
0,-1,640785,219658,1280718,66068,7173,640572,0
0,2,710890,249358,1520056,74479,10425,760035,0
0,2,714579,249552,1483456,74571,10626,741687,0
0,2,716488,250689,1357376,75249,9116,678746,0
0,-1,642039,219524,1199696,65986,7543,599896,0
0,2,714789,248947,1426074,74354,9680,713064,0
0,2,716789,249963,1353169,74730,9478,676502,0
0,2,715113,249466,1495427,74580,10067,747605,0
0,-1,646500,219671,1300450,66032,7712,650171,0
0,2,717925,250894,1485345,74820,10153,742729,0
0,2,715909,250114,1336700,74886,8758,668411,0
0,-1,636539,219479,1372712,65915,8326,686357,0
0,2,715852,248830,1427145,74254,9732,713609,0
0,2,713866,249686,1304869,74547,9082,652473,0
0,-1,643672,221539,1306185,67034,7734,652952,0
0,2,711649,249349,1396684,74434,9223,698378,0
0,2,717784,251669,1365232,75572,9191,682680,0
0,2,717177,249564,1336185,74619,9503,667975,0
0,2,716013,249461,1528102,74454,9997,764103,0
0,-1,643148,221803,1241354,66973,8575,620689,0
0,2,733077,253887,1457164,77675,11016,728619,0
0,2,710963,249119,1490435,74325,9739,745154,0
0,-1,641021,219578,1238061,66025,8414,619046,0
0,2,711396,248152,1275776,74114,9132,637902,0
0,2,733947,252827,1402391,77586,10896,701231,0
0,-1,639717,219672,1141501,65925,7573,570757,0
0,2,729075,252998,1555821,77628,10558,777877,0
0,2,704992,247387,1324582,73988,8209,662320,0
0,-1,637708,219645,1303372,65920,6721,651670,0
0,2,703439,246871,1293289,73887,8400,646649,0
1,-1,698673,240569,1338856,72059,7487,669545,2
1,2,758720,266764,1421656,78780,8600,710848,0
1,2,707056,248344,1402111,73613,8885,701080,0
1,-1,691994,237053,1246971,70661,6887,623507,0
1,2,712123,248301,1417621,73739,9457,708783,0
1,-1,640169,219226,1196880,65805,7137,598435,0
1,2,703189,247843,1343687,73654,9173,671824,0
1,2,709704,248335,1337014,73849,9064,668426,0
1,-1,634714,218111,1286374,65319,7146,643152,0
1,2,710106,248401,1462035,73732,8906,731019,0
1,2,708144,248405,1348691,73760,8690,674347,0
1,2,713734,249518,1250597,74119,8718,625188,0
1,-1,639480,218602,1277071,65588,6686,638617,0
1,2,712636,248516,1584664,73981,9439,792522,0
1,2,712066,249191,1444249,74218,8806,722181,0
1,2,710561,248444,1559486,74007,10294,779711,0
1,-1,634334,218847,1204852,65747,7578,602418,0
1,2,705401,248591,1321285,74041,9044,660689,0
1,2,710308,249811,1466327,74627,9283,733159,0
1,-1,640450,220693,1257178,66633,7794,628341,0
1,2,707674,248698,1386352,74084,9179,693220,0
1,2,708905,248740,1797394,73993,10492,898706,0
1,2,707305,248912,1404721,74012,9222,702338,0
1,-1,642652,220600,1343672,66550,8210,671808,0
1,2,707522,248231,1418074,73794,8750,708994,0
1,2,731171,253636,1366569,77363,9722,683247,0
1,-1,637511,218808,1237215,65814,7133,618626,0
1,2,711262,248389,1433094,73808,9029,716490,0
1,2,728311,253244,1494349,77240,10335,747039,0
1,-1,640867,220502,1302628,66611,7592,651286,0
1,2,711433,249401,1410695,74149,10038,705385,0
1,-1,642172,219454,1204701,65883,6893,602497,0
1,2,707891,248731,1430302,73925,9926,715171,0
1,2,728524,253280,1455657,77178,9593,727764,0
1,2,733504,253689,1562596,77299,9727,781302,0
1,2,734054,254713,1438558,77590,10288,719159,0
1,2,713000,249383,1598060,74068,10931,798935,0
1,-1,647082,222296,1320214,67063,8272,660101,0
1,2,709918,248619,1352243,73901,9234,676145,0
1,2,713939,250284,1359503,74536,8826,679809,0
1,-1,638536,219820,1272677,66043,7927,636338,0
1,2,738612,254341,1469168,77385,10455,734580,0
1,2,713008,249280,1485341,73923,9480,742689,0
1,-1,641197,220013,1268978,66158,7466,634095,0
1,2,712594,249141,1428729,74068,9773,714396,0
1,2,733166,253421,1430988,77273,9666,715517,0
1,-1,638874,219121,1265970,65990,7584,633044,0
1,2,709645,248682,1411901,73923,9743,705975,0
1,2,730044,253083,1371906,77028,10025,685771,0
1,2,714504,250108,1461648,74500,9859,730804,0
1,-1,643994,219842,1457185,66245,9707,728465,0
1,2,711164,249182,1414354,73997,9917,707076,0
1,2,712212,248310,1380025,73651,9888,690095,0
1,-1,643751,219680,1331887,66101,8577,666237,0
1,2,710278,249154,1383259,73855,9383,691676,0
1,2,709781,248652,1320776,73783,9155,660453,0
1,2,711242,249026,1320528,73872,9321,660317,0
1,-1,637770,219552,1169333,66122,7639,584560,0
1,2,709065,248835,1250746,73884,8994,625307,0
1,2,710198,248292,1341192,73658,9770,670633,0
1,2,708101,248048,1396104,73556,9824,698086,0
1,2,714431,248573,1392636,73800,9344,696246,0
1,-1,639309,219499,1287636,66093,7322,643874,0
1,2,712135,248139,1300700,73591,9480,650396,0
1,2,710302,248043,1294581,73587,8391,647342,0
1,2,734249,253003,1430604,77007,9201,715351,0
1,-1,644305,221019,1425483,66929,8632,712752,0
1,2,725671,253473,1429066,76681,9270,714545,0
1,2,705480,248315,1435195,73215,8386,717623,0
1,-1,634995,218768,1269020,65836,7428,634526,0
1,2,703190,248255,1415784,73316,9322,707924,0
1,2,709579,248566,1438987,74290,10149,719457,0
1,2,709737,249909,1311618,74997,9485,655692,0
1,-1,639524,219803,1409198,66117,7701,704704,0
1,2,710945,248473,1379722,74265,8809,689847,0
1,2,707412,247745,1343051,74000,8775,671506,0
1,-1,645373,221628,1302539,67035,7917,650951,0
1,2,711996,248579,1429048,74279,8987,714387,0
1,2,713698,249232,1408594,74476,9501,704273,0
1,-1,657603,224043,1290866,69287,7717,645267,0
1,2,711806,248937,1312045,74404,9433,656073,0
1,-1,640435,219746,1198292,66048,7480,599071,0
1,2,709766,248560,1316127,74234,9742,658021,0
1,2,711086,248802,1351076,74324,9518,675087,0
1,2,712987,250901,1322980,75272,9212,661496,0
1,2,714987,248794,1351660,74213,9643,675845,0
1,-1,638526,219387,1260204,65987,7597,629989,0
1,2,711444,247735,1396946,73897,9330,698510,0
1,-1,638352,219025,1292714,65831,7895,646329,0
1,2,713816,248048,1419715,73958,9491,709889,0
1,2,716453,250067,1312770,74914,8977,656302,0
1,-1,642714,220746,1384526,66619,7371,692273,0
1,2,708792,248864,1370648,74284,9338,685338,0
1,2,734233,254273,1663410,77883,12430,831776,0
1,-1,646092,221430,1408980,66944,8037,704528,0
1,2,712243,249658,1409183,74721,9368,704628,0
1,2,717651,250821,1377942,75239,9681,688787,0
1,2,715080,249535,1406970,74524,9452,703560,0
1,2,711698,249551,1392791,74579,9926,695953,0
1,-1,644655,219678,1280557,66100,7823,640268,0
1,2,712309,248701,1717042,74086,10765,858401,0
1,2,710632,248992,1376546,74297,8752,688314,0
1,-1,640647,221465,1493259,66911,8664,747124,0
1,2,715590,249170,1339104,74386,10059,669604,0
1,2,731789,253923,1359299,77724,10341,679626,0
1,-1,641731,220866,1325684,66593,7738,662918,0
1,2,713075,248678,1360882,74137,9406,680475,0
1,2,712512,249621,1350475,74510,8407,675176,0
1,2,715138,248951,1442875,74336,8964,721478,0
1,-1,637828,219925,1245613,66144,8484,622862,0
1,2,716097,249064,1459296,74330,8629,729957,0
1,2,713979,249926,1397528,74607,9266,698818,0
1,2,713393,248614,1542673,74156,10396,771193,0
1,-1,639604,219045,1207400,65839,7113,603748,0
1,2,716435,250359,1343774,74972,9410,671769,0
1,2,713686,248981,1335463,74556,9444,667704,0
1,-1,643228,219450,1329525,65809,8728,664879,0
1,2,702758,247846,1313415,74246,9593,656582,0
1,2,714987,251030,1443373,75468,9671,721764,0
1,-1,639016,220345,1327937,66278,7444,663929,0
1,2,704721,247514,1405012,74019,9155,702435,0
2,2,760865,266455,1568211,78702,8961,784204,0
2,2,715076,250404,1508900,74715,9396,754386,0
2,-1,693173,237252,1337674,70703,8150,668778,0
2,2,711341,248023,1428479,73622,9048,714292,0
2,-1,641875,220240,1248134,66275,7128,624039,0
2,2,705516,247179,1244524,73446,8251,622251,0
2,2,715789,250496,1343877,74827,9785,671797,0
2,-1,639127,219821,1294268,66206,7720,647159,0
2,-1,641906,221082,1276173,66671,7404,637975,2
2,2,708565,248520,1394129,73784,8313,697038,0
2,2,707280,248473,1481995,73748,8862,740728,0
2,2,715052,250409,1329035,74524,9556,664481,0
2,-1,638355,218357,1379226,65483,7511,689504,0
2,2,710719,248132,1433984,73759,9592,717005,0
2,2,711791,248610,1449684,74039,9775,724866,0
2,2,715968,250696,1468172,75076,10661,734024,0
2,-1,636409,218585,1293926,65675,7821,647032,0
2,2,702973,248098,1606728,73771,11489,803297,0
2,2,707368,248910,1409323,74102,9068,704705,0
2,-1,653517,222479,1238849,68783,7781,619421,0
2,2,706013,248411,1406792,73923,8939,703490,0
2,2,708510,248913,1543895,74054,10180,772015,0
2,-1,635878,217962,1325740,65485,7852,662866,0
2,2,710430,250393,1549049,74732,9872,774469,0
2,2,709932,249232,1374886,74136,8282,687380,0
2,2,707639,248573,1396265,73885,8808,698142,0
2,-1,636501,218567,1303250,65738,7819,651596,0
2,2,707999,247937,1405345,73769,9118,702634,0
2,-1,657197,223164,1313302,69092,8229,656638,0
2,2,708763,248726,1418726,73947,9024,709375,0
2,2,708512,249810,1496616,74359,9471,748370,0
2,-1,641885,219271,1220026,65791,7244,610069,0
2,2,729524,253706,1488296,77427,11347,744133,0
2,2,714061,249769,1401444,74266,10296,700646,0
2,2,711705,249679,1410232,74178,8702,705170,0
2,2,708701,248921,1414122,73890,8682,707034,0
2,-1,645358,221498,1386271,66705,8640,693180,0
2,2,716209,251065,1412560,74841,9394,706278,0
2,2,713584,249178,1417724,74064,9680,708877,0
2,2,712763,249186,1343350,74177,9278,671696,0
2,-1,646765,221055,1375960,66738,9096,687939,0
2,2,719405,250780,1545541,74435,10418,772762,0
2,2,717404,251601,1467475,74938,9669,733807,0
2,-1,637373,218658,1256570,65663,8149,628235,0
2,2,712127,249487,1457350,74117,9977,728668,0
2,-1,639979,219235,1381274,65974,8345,690619,0
2,2,712389,249228,1489399,74086,9635,744682,0
2,2,715230,250149,1517713,74595,10195,758806,0
2,2,710106,249247,1423285,74034,9796,711672,0
2,-1,642245,219549,1296834,66071,7889,648371,0
2,2,707109,248235,1714107,73673,11649,857047,0
2,2,738123,254111,1414062,77437,10797,706922,0
2,2,712922,248356,1330089,73697,10380,664924,0
2,-1,642582,218664,1352225,65814,8444,676056,0
2,2,709413,249119,1408881,73822,9970,704428,0
2,2,737117,257885,1567492,76430,10104,783790,0
2,2,731595,252779,1362880,76916,10212,681424,0
2,-1,639226,220941,1361692,66843,7990,680817,0
2,2,707032,247902,1352838,73513,9639,676242,0
2,2,710221,248163,1415953,73616,9392,708015,0
2,2,713357,250763,1363904,74716,9317,681935,0
2,2,712139,248697,1644946,73800,9856,822506,0
2,-1,634945,218863,1297544,65852,8556,648702,0
2,2,713937,248720,1398582,73772,9573,699338,0
2,2,710912,248472,1535441,73743,8972,767785,0
2,2,713787,249289,1447915,74013,8935,723997,0
2,-1,638294,218928,1258212,65884,7122,629153,0
2,2,704059,248556,1368321,73290,8285,684249,0
2,2,706410,249103,1298194,73460,9221,648988,0
2,-1,657680,223639,1329610,69237,8560,664864,0
2,2,712878,250439,1328017,74338,8872,663999,0
2,2,709675,248287,1401335,74103,9638,700647,0
2,2,703360,248079,1436401,74127,9521,718186,0
2,-1,640575,219705,1187121,66068,7459,593603,0
2,2,710310,248583,1437332,74288,8994,718708,0
2,-1,639815,219745,1476775,66088,8451,738204,0
2,2,714707,249733,1310402,74879,9079,654944,0
2,2,714511,250294,1343631,75053,9388,671813,0
2,2,713495,249634,1322934,74917,9032,661477,0
2,-1,637836,219790,1281641,66117,7964,640826,0
2,2,707735,247566,1489433,73853,9235,744750,0
2,-1,640567,219540,1160012,66053,7822,579950,0
2,2,708791,248657,1496252,74270,10241,748136,0
2,2,712455,248533,1435025,74126,9133,717507,0
2,2,709385,248516,1418708,74110,9450,709262,0
2,-1,640448,219318,1241917,65985,7313,620941,0
2,2,715574,249424,1424824,74431,9840,712538,0
2,2,716376,249695,1336277,74703,9055,668124,0
2,-1,639183,219998,1215646,66218,7005,607856,0
2,2,715049,249212,1559203,74361,10277,779553,0
2,2,716064,248649,1319766,74179,9289,659954,0
2,-1,638540,219401,1285644,65946,7212,642794,0
2,2,712607,250344,1302466,75172,9300,651297,0
2,2,713389,249666,1536357,74643,11364,767587,0
2,-1,661532,224236,1231352,69338,8217,615617,0
2,2,713450,250274,1337393,74959,8918,668637,0
2,2,735354,254025,1466396,77851,11237,733241,0
2,2,718174,249605,1343034,74634,10580,671532,0
2,2,711775,249782,1360747,74674,10306,680252,0
2,-1,662783,223556,1196507,69091,8765,598186,0
2,2,719305,250739,1443784,75002,10711,721884,0
2,2,714994,249308,1445118,74286,8693,722576,0
2,-1,666566,228912,1372703,68818,8360,686156,0
2,2,712516,248565,1606692,74156,10366,803402,0
2,2,709673,249310,1250307,74377,9144,625161,0
2,-1,638535,219443,1208753,66005,7022,604434,0
2,2,715984,250553,1324345,75042,9443,662259,0
2,2,716503,251504,1352006,75341,9278,675950,0
2,2,713685,248876,1392344,74390,8457,695944,0
2,-1,637370,219864,1271283,66072,8055,635656,0
2,2,714273,249256,1452493,74415,9491,726304,0
2,2,713395,249315,1465100,74385,9934,732592,0
2,2,713911,249015,1509846,74280,9760,754740,0
2,-1,638602,219246,1223233,65941,6987,611509,0
2,2,712254,248584,1452613,74095,9744,726267,0
2,2,709930,247598,1429928,73998,9933,715110,0
2,-1,642647,219483,1171896,65818,7845,585984,0
2,2,706613,247563,1237639,74041,8902,618788,0
2,2,712364,249597,1416486,74865,8614,708305,0
2,-1,639674,220090,1316091,66004,7559,658052,0
2,2,706249,247844,1325464,74173,9144,662803,0
3,2,769206,268362,1465067,79610,9991,732515,0
3,2,707935,248459,1324395,73818,8411,662192,0
3,-1,692099,237108,1243830,70665,7596,621936,0
3,2,711426,248185,1406532,73614,9977,703235,0
3,-1,639085,218933,1239187,65790,7810,619564,0
3,2,707898,248294,1259690,73760,8591,629814,0
3,2,708603,248162,1405278,73731,9297,702611,0
3,-1,636068,218845,1247682,65646,8114,623829,0
3,2,706556,247871,1391135,73812,8337,695593,0
3,2,731749,253114,1390486,77112,9436,695139,0
3,2,712111,249140,1266297,73990,9366,633107,0
3,-1,638819,218859,1320771,65660,6942,660286,0
3,-1,639018,219147,1320202,65758,8252,660087,2
3,2,714569,250094,1392504,74451,9981,696297,0
3,2,711285,248670,1457772,74009,9484,728827,0
3,2,712851,248789,1427773,74137,10576,713712,0
3,-1,637724,219175,1204992,65926,7250,602549,0
3,2,731003,253485,1445765,77421,10557,722821,0
3,2,704915,248512,1462061,74011,9156,731082,0
3,-1,642117,219518,1228990,66137,7633,614310,0
3,2,706887,249025,1309365,74122,8606,654712,0
3,2,707623,249111,1522407,74083,10892,760677,0
3,-1,638008,218470,1283288,65709,7796,641644,0
3,2,704458,248410,1406826,73857,8613,703406,0
3,2,707866,248680,1293903,73941,8171,646941,0
3,2,706763,248355,1365311,73836,9156,682595,0
3,-1,635892,218813,1198820,65692,7041,599421,0
3,2,708290,248778,1333793,74036,8471,666857,0
3,-1,642422,219013,1241884,65843,8902,620929,0
3,2,709499,249309,1423400,74166,9444,711544,0
3,2,709097,248367,1470404,73815,9236,735128,0
3,-1,663101,223878,1262873,69228,8694,631335,0
3,2,710511,248893,1552683,74059,11190,776245,0
3,2,708694,248339,1435171,73784,10050,717656,0
3,2,713699,249685,1480456,74098,9973,740157,0
3,2,711534,249322,1410681,74082,8942,705309,0
3,-1,636551,219069,1261505,65719,8102,630719,0
3,2,729386,252871,1392393,76991,10157,696153,0
3,2,711055,249819,1707152,74209,10837,853572,0
3,2,736477,254137,1416057,77456,10456,708027,0
3,-1,642370,219462,1374593,65860,8552,687155,0
3,2,721997,251699,1535173,74925,10451,767615,0
3,2,713227,250221,1429922,74299,9618,715013,0
3,-1,641545,219134,1189300,65789,7975,594699,0
3,2,710093,249269,1416897,74005,9667,708540,0
3,-1,638530,219176,1193803,65973,7040,596954,0
3,2,711436,249317,1422126,74126,9045,711032,0
3,2,714829,249135,1482000,74084,11056,740895,0
3,2,709145,248485,1311595,73756,9571,655803,0
3,-1,639981,218989,1229288,65908,7259,614681,0
3,2,732836,253448,1498379,77198,10872,749034,0
3,2,711491,248013,1434342,73694,10155,717121,0
3,2,713039,249161,1314115,74043,9589,657001,0
3,-1,643597,219014,1306864,65898,7675,653424,0
3,2,708415,248806,1310861,73653,8859,655288,0
3,2,732198,253341,1418909,77057,10253,709424,0
3,2,710262,248569,1447243,73779,9257,723636,0
3,-1,656244,223942,1365514,69322,8148,682742,0
3,2,715783,249870,1311522,74486,9656,655775,0
3,2,710094,248463,1565459,73693,9619,782604,0
3,2,729082,253532,1547034,77168,11066,773566,0
3,2,709908,248208,1391547,73627,9628,695660,0
3,-1,635381,219356,1294880,66017,7772,647492,0
3,2,711588,248616,1371967,73798,8766,686031,0
3,2,708527,248532,1395397,73782,8723,697737,0
3,-1,637935,219507,1222143,66055,6822,611126,0
3,2,713794,249447,1410199,74194,8454,705172,0
3,2,705405,248739,1479040,73324,8381,739558,0
3,2,710489,250036,1260368,74000,8351,630125,0
3,-1,636035,218772,1314303,65802,7349,657236,0
3,2,730191,253332,1435424,76790,9542,717647,0
3,2,709444,248589,1409985,74247,9546,705001,0
3,2,709644,248154,1399020,74102,9759,699795,0
3,-1,636810,218869,1265778,65825,7212,632931,0
3,2,728521,252577,1464641,77378,9862,732340,0
3,-1,639272,219783,1437438,66024,8302,717660,0
3,2,708300,247895,1407154,74106,9162,703659,0
3,2,729748,252627,1537709,77407,10324,768691,0
3,2,712303,248108,1387912,74161,9409,693983,0
3,-1,636604,219988,1194990,66170,6971,597491,0
3,2,713325,249619,1404044,74801,9677,702028,0
3,-1,642749,220829,1233522,66643,8045,616729,0
3,2,715078,250726,1404169,75297,9651,702145,0
3,2,714944,250484,1386870,75056,9568,693396,0
3,2,706474,248118,1751563,73938,11367,875816,0
3,-1,640690,219708,1271986,66030,8055,635989,0
3,2,710453,248470,1406290,74180,9615,703183,0
3,2,713085,248677,1431711,74201,8708,715794,0
3,-1,639758,220737,1295669,66616,7713,647872,0
3,2,711531,247796,1332536,73943,9066,666310,0
3,2,712407,248095,1411456,73899,9867,705761,0
3,-1,639087,219444,1279723,65993,7041,639868,0
3,2,727975,252996,1479664,77579,9944,739836,0
3,2,716728,250294,1319503,74981,9538,659791,0
3,-1,643264,220585,1312571,66567,8098,656290,0
3,2,711173,249196,1413544,74526,9369,706827,0
3,2,716558,250103,1359110,74741,10120,679459,0
3,2,714953,249174,1324307,74494,9981,662068,0
3,2,714251,250400,1395738,74885,10355,697675,0
3,-1,643835,219784,1223559,66052,8268,611738,0
3,2,711850,249034,1514678,74192,10063,757115,0
3,2,716521,250674,1360607,75136,9117,680824,0
3,-1,640950,220675,1357694,66476,7865,678632,0
3,2,717463,250632,1322014,75143,8387,661229,0
3,2,715194,249530,1317869,74505,9901,659064,0
3,-1,636849,219050,1168987,65821,6999,584544,0
3,2,733829,254157,1453402,77761,9934,726701,0
3,2,720235,249864,1382283,74602,9176,691183,0
3,2,716751,249994,1309716,74874,8713,654608,0
3,-1,646991,220974,1298741,66684,8539,649095,0
3,2,720145,250547,1405130,75160,10082,702678,0
3,2,710222,248263,1306963,73947,9706,653476,0
3,2,712841,248628,1463320,74106,9213,731659,0
3,-1,641777,220632,1323275,66625,7819,661670,0
3,2,712744,249076,1391878,74327,9109,695971,0
3,2,716507,249714,1439858,74924,10034,719898,0
3,-1,642395,220064,1315970,66044,8409,657869,0
3,2,709936,250038,1449229,75053,9358,724526,0
3,2,710859,248646,1427584,74440,9161,713838,0
3,-1,637026,219190,1330860,65717,7353,665393,0
3,2,710850,250546,1310316,75327,8667,655182,0
4,2,763304,266526,1481591,78704,9398,740776,0
4,2,707014,248105,1374662,73661,8578,687271,0
4,-1,698616,240169,1326335,72041,8608,663166,0
4,2,709366,247836,1311262,73516,8675,655590,0
4,-1,636417,218303,1178249,65490,6723,589092,0
4,2,728305,252535,1339322,76991,10208,669629,0
4,2,709907,248157,1340521,73764,9072,670217,0
4,-1,639807,218932,1184090,65612,7363,592019,0
4,2,707168,247957,1359680,73796,8999,679826,0
4,2,713634,248765,1350327,73876,9567,675042,0
4,2,711183,248964,1336688,73878,9031,668286,0
4,-1,643893,220456,1273865,66362,7556,636967,0
4,2,715593,249988,1486634,74565,10668,743200,0
4,-1,633268,218980,1138966,65766,7299,569533,2
4,2,711832,248783,1597727,74110,10771,798669,0
4,-1,654849,223051,1316763,68942,8055,658357,0
4,2,711361,248304,1505907,73913,10236,752867,0
4,2,705746,248874,1330356,74046,9057,665233,0
4,-1,640312,219145,1169063,65861,7578,584444,0
4,2,705400,248612,1485062,74022,9144,742493,0
4,2,708413,250033,1448022,74771,9777,724092,0
4,2,708122,247891,1674816,73590,10420,837161,0
4,-1,645348,221429,1288347,66967,8303,644198,0
4,2,704803,248327,1398996,73819,9417,699439,0
4,2,707255,248992,1236919,74115,8605,618377,0
4,2,727855,253134,1403519,77262,9686,701868,0
4,-1,637193,218651,1259207,65742,7106,629627,0
4,2,711827,249216,1344728,74149,8454,672354,0
4,-1,643425,220216,1288784,66472,8982,644351,0
4,2,706112,248398,1506687,73872,9225,753304,0
4,2,708597,248623,1628990,73961,10203,814525,0
4,-1,641098,219460,1304090,65948,8025,652027,0
4,2,709525,248936,1409788,73962,10061,704749,0
4,2,715786,250509,1493591,74782,10597,746792,0
4,2,710715,248682,1405811,73810,8884,702902,0
4,2,706597,248508,1466291,73787,9261,733174,0
4,-1,637461,219234,1274845,65780,7874,637429,0
4,2,713817,249646,1409240,74153,9622,704624,0
4,2,709110,248655,1377065,73780,9111,688350,0
4,2,716250,249776,1445594,74308,9524,722719,0
4,-1,642958,220124,1249179,66141,7798,624570,0
4,2,715940,250284,1512542,74205,10515,756315,0
4,2,739100,259446,1385660,76989,8988,692861,0
4,-1,639915,218806,1233113,65722,7911,616497,0
4,2,733353,253252,1402699,77096,9971,701346,0
4,-1,638991,219236,1202476,66040,7843,601288,0
4,2,713040,249787,1323051,74270,9231,661602,0
4,2,712136,248240,1598163,73694,10482,799118,0
4,2,710549,249129,1425363,73992,9727,712655,0
4,-1,645379,221000,1302103,66866,8097,651063,0
4,2,712731,248693,1458306,73864,10222,729089,0
4,2,711546,248146,1330630,73729,10312,665264,0
4,2,715915,249741,1389091,74409,9812,694562,0
4,-1,644586,219761,1240405,66210,8103,620117,0
4,2,711348,250365,1429456,74415,9734,714584,0
4,2,711148,249154,1386655,73905,9894,693379,0
4,2,711036,248814,1312247,74061,9250,656277,0
4,-1,634199,219869,1232433,66226,6972,616126,0
4,2,733814,253510,1333691,77181,10242,666788,0
4,2,712109,248731,1398978,73813,9656,699543,0
4,2,712602,248157,1439086,73588,9693,719573,0
4,2,711238,248279,1528970,73586,9370,764639,0
4,-1,640706,220773,1292651,66793,7639,646358,0
4,2,710247,248295,1518260,73620,9131,759184,0
4,2,717236,249477,1311363,74244,8990,655754,0
4,-1,640924,221013,1300920,66767,7524,650494,0
4,2,710835,248148,1561912,73647,8896,780997,0
4,2,707333,250528,1303264,74139,8206,651714,0
4,2,704710,248791,1443322,73299,9949,721574,0
4,-1,634998,219187,1301190,65951,7147,650646,0
4,2,705848,247930,1372211,73208,8309,686085,0
4,2,709902,247936,1490405,74099,10428,745218,0
4,-1,636918,219265,1202729,66009,6983,601424,0
4,2,714678,248956,1625422,74352,11062,812689,0
4,2,709279,248454,1402058,74201,9502,701023,0
4,-1,639868,219333,1341251,65988,8725,670386,0
4,2,707763,248116,1412507,74037,9080,706225,0
4,2,710271,248245,1409680,74198,8829,704829,0
4,2,711296,247773,1363225,74002,9213,681522,0
4,-1,639033,220624,1321505,66561,7698,660845,0
4,2,730984,253035,1690711,77527,11413,845137,0
4,-1,639568,218999,1185291,65768,7548,592642,0
4,2,709844,248874,1455668,74328,9690,727805,0
4,2,731157,253413,1489233,77517,10616,744613,0
4,2,709199,248603,1378552,74086,9756,689303,0
4,2,711047,248238,1411476,74202,9233,705747,0
4,-1,645400,222097,1305735,67193,7947,652837,0
4,2,713646,248094,1375770,74062,9295,687929,0
4,-1,637522,220183,1258843,66214,7948,629401,0
4,2,712468,248181,1518658,74080,10614,759348,0
4,-1,636707,218552,1203648,65681,7187,601825,0
4,2,717621,250451,1353367,75052,9667,676750,0
4,2,709310,248038,1381619,74159,9261,690850,0
4,2,743166,260799,1383398,78261,9013,691738,0
4,-1,641266,219651,1306358,66016,7117,653161,0
4,2,710176,249248,1344151,74659,9939,672080,0
4,2,717986,250773,1272973,75187,9736,636465,0
4,2,713652,249629,1384111,74535,10370,692017,0
4,2,715229,250150,1283321,74803,8498,641707,0
4,-1,641332,219390,1194621,66003,7808,597253,0
4,2,715954,250660,1569370,74935,10283,783438,0
4,2,734466,254034,1606652,77695,10685,803348,0
4,-1,639112,220173,1249904,66175,7350,624481,0
4,2,735213,254058,1512570,77776,9656,756364,0
4,2,709533,248849,1408959,74190,8904,704523,0
4,-1,658070,223747,1262163,69205,8442,631068,0
4,2,736943,257971,1531510,76909,9231,765792,0
4,2,723270,251792,1353788,75444,9624,676857,0
4,2,714210,249318,1422605,74543,9231,711304,0
4,-1,642949,219912,1328220,66144,7407,664172,0
4,2,716287,249137,1353171,74374,8985,676624,0
4,2,716728,251168,1391670,75320,10322,695711,0
4,2,718657,250418,1407276,74978,9720,703417,0
4,-1,641189,219556,1194729,66044,7646,597434,0
4,2,710670,248876,1432463,74270,9505,716216,0
4,2,710327,247999,1349877,74137,9444,674958,0
4,-1,637684,218570,1218354,65516,7650,609191,0
4,2,716031,248313,1463267,74295,10176,731683,0
4,2,708529,248140,1341675,74206,8729,670920,0
4,-1,641028,221381,1444105,66767,8963,722012,0
4,2,729293,252757,1353516,77565,10334,676796,0
4,2,708733,247661,1422745,73922,9743,711417,0
5,2,761924,266497,1376089,78758,9338,687977,0
5,2,708146,248513,1403401,73796,8749,701642,0
5,-1,717706,242930,1284969,74391,9665,642413,0
5,2,710757,247612,1427584,73443,8645,713803,0
5,-1,639066,219242,1234694,65799,6793,617390,0
5,2,708903,248602,1368049,73958,8470,683963,0
5,2,728923,252755,1419465,77086,10280,709686,0
5,-1,640731,218770,1271492,65565,8066,635744,0
5,2,710332,248781,1300067,74045,8841,650154,0
5,2,712180,248480,1267983,73758,9020,633778,0
5,2,711258,249465,1333831,74080,8864,666835,0
5,-1,639277,219192,1271157,65748,7075,635620,0
5,2,708364,248176,1562451,73741,9936,781187,0
5,2,709807,248861,1340860,74153,8772,670483,0
5,-1,637989,219456,1181233,65901,7453,590571,0
5,-1,636180,219472,1259578,66036,7061,629740,2
5,2,710103,248003,1387207,73810,9998,692667,0
5,2,725824,253170,1397276,77306,10004,698539,0
5,-1,638463,218777,1200440,65745,7695,600159,0
5,2,729826,253123,1430458,77299,9698,715182,0
5,2,709206,249346,1532778,74270,9050,766363,0
5,2,730314,253268,1595932,77268,10915,797768,0
5,-1,639481,218848,1271147,65729,7449,635421,0
5,2,706558,249040,1387944,74123,8843,693967,0
5,2,710730,248868,1309834,74054,9382,654855,0
5,-1,641499,220820,1287346,66624,7878,643638,0
5,2,705912,248429,1324684,73934,9339,662312,0
5,2,729881,253580,1496717,77379,9724,748274,0
5,-1,637326,218016,1186706,65468,7989,593205,0
5,2,727634,253168,1568471,77188,10110,783725,0
5,2,708000,248940,1531566,74033,9537,765818,0
5,-1,643394,219283,1273045,66025,7547,636493,0
5,2,710109,249432,1335866,74258,9223,667971,0
5,2,732210,253538,1382080,77359,9555,690723,0
5,2,714680,250164,1701461,74318,11355,850694,0
5,2,710751,249449,1400935,74113,8914,700401,0
5,-1,636940,219125,1232902,65832,7777,616493,0
5,2,709371,248966,1352496,73953,8847,676259,0
5,2,708746,248961,1316219,73939,9110,658177,0
5,2,720674,251235,1447878,74947,10309,723770,0
5,-1,641963,219707,1312597,66008,8250,656354,0
5,2,719213,251275,1440336,74805,10672,720241,0
5,2,709485,249493,1442210,74005,9875,721150,0
5,-1,641314,219165,1265808,65866,8377,632949,0
5,2,712817,249617,1251077,74135,8859,625789,0
5,2,710599,248934,1437223,74023,9084,718627,0
5,-1,637498,219060,1262343,65918,7605,631221,0
5,2,711812,248906,1523108,73939,10487,761356,0
5,-1,643328,220276,1305393,66546,8015,652713,0
5,2,707999,248560,1375175,73816,9970,687605,0
5,2,712193,248567,1343566,73778,9688,671731,0
5,2,711346,248439,1262804,73867,9402,631430,0
5,2,711800,248535,1297558,73782,9414,648794,0
5,-1,646666,220535,1337994,66638,9145,668712,0
5,2,721654,251466,1445709,74934,9977,722848,0
5,2,708011,248874,1273163,73835,9296,636455,0
5,2,708970,248501,1325525,73726,9402,662803,0
5,-1,636002,218521,1172588,65778,6448,586240,0
5,2,711637,248886,1322759,73868,9640,661378,0
5,2,710046,247949,1307996,73541,8711,654020,0
5,2,712205,247973,1490102,73538,9764,745030,0
5,2,758358,262189,1453739,79735,9684,726850,0
5,-1,657136,223538,1278235,69224,8337,639080,0
5,2,718148,250731,1455639,74691,9224,727882,0
5,2,716079,249495,1371205,74080,9351,685644,0
5,-1,638749,219478,1196485,66112,7732,598309,0
5,2,713240,248559,1339551,73814,8023,669808,0
5,2,722829,252963,1520962,76519,9571,760525,0
5,2,705163,249413,1350308,73751,9431,674645,0
5,-1,636303,218988,1289101,65955,8002,644600,0
5,2,705787,248263,1417898,73365,8991,708919,0
5,2,709552,248185,1319837,74076,9708,659913,0
5,-1,641137,220852,1339595,66683,7922,669875,0
5,2,711199,248292,1436699,74198,10619,718361,0
5,2,707479,248235,1405450,74080,10104,702742,0
5,-1,638041,219043,1187597,65820,7024,593846,0
5,2,709476,248523,1478575,74288,9493,739263,0
5,2,709583,247761,1465670,73973,8790,732792,0
5,2,712947,248758,1496105,74269,9167,748058,0
5,-1,634059,218694,1334174,65655,8020,667087,0
5,2,706613,247900,1411431,74029,9199,705762,0
5,-1,636931,218855,1148727,65807,7261,574330,0
5,2,712223,249501,1315863,74744,9106,657889,0
5,2,713667,249030,1484273,74388,9174,742161,0
5,2,707790,248154,1427290,73937,10405,713697,0
5,-1,658878,223419,1233332,69024,8314,616630,0
5,2,709860,247829,1365323,74003,8997,682712,0
5,2,716963,250390,1290645,75095,8873,645301,0
5,-1,647844,221504,1261399,66947,8646,630462,0
5,2,717439,250800,1332422,75287,9316,666304,0
5,-1,642895,221319,1296981,66887,7756,648504,0
5,2,713115,249210,1325115,74372,8813,662592,0
5,2,708408,248230,1399183,74237,9492,699982,0
5,2,712519,249697,1293549,74648,8880,646829,0
5,-1,641141,219959,1286224,66151,7773,643086,0
5,2,717672,249475,1286252,74672,9043,643116,0
5,2,711498,248980,1358338,74364,10022,679038,0
5,2,712847,249681,1512089,74638,10871,756058,0
5,2,712246,249452,1523068,74556,9417,761608,0
5,-1,640539,219184,1226067,65835,8115,612973,0
5,2,713657,249071,1448627,74181,10065,723706,0
5,2,714789,250010,1505943,74593,10460,752387,0
5,-1,637623,219674,1340815,65974,7726,670453,0
5,2,714048,249289,1318720,74420,8181,659369,0
5,2,711262,249576,1410495,74527,9716,705296,0
5,-1,637788,220111,1222272,66210,7782,611201,0
5,2,711778,248771,1413745,74271,9592,706918,0
5,2,718701,250073,1433552,74652,9425,716828,0
5,2,736381,253965,1575372,77778,10775,787716,0
5,-1,662127,223501,1275735,69128,8454,637872,0
5,2,717592,250121,1443419,74940,8790,721821,0
5,2,734304,254266,1405469,77784,11077,702709,0
5,2,735222,253525,1473224,77556,11333,736765,0
5,-1,642275,220182,1234128,66264,7133,617105,0
5,2,731247,253595,1452177,77520,10365,726153,0
5,2,709119,247675,1699035,74056,12066,849478,0
5,-1,644648,220943,1408301,66542,8195,704159,0
5,2,715018,247877,1404280,74141,10232,702135,0
5,2,712376,249745,1389785,75090,9499,694984,0
5,-1,642861,219375,1305737,65762,7522,652823,0
5,2,704710,247443,1245144,73997,8661,622456,0
5,2,709451,248702,1451407,74287,10132,725695,0
6,2,767256,268619,1480742,79542,8702,740324,0
6,2,708390,248847,1354488,73782,8714,677216,0
6,-1,693563,237225,1262286,70686,8390,631057,0
6,2,716054,250380,1429096,74647,9903,714559,0
6,-1,672262,231365,1239247,68864,7512,619598,0
6,2,705647,248221,1334978,73819,8616,667504,0
6,2,705120,247751,1390518,73597,8314,694939,0
6,-1,646787,221467,1408749,66805,8280,704427,0
6,2,708665,247989,1352910,73782,9536,676481,0
6,2,733143,253005,1352364,76984,10332,676094,0
6,2,709735,248471,1337929,73728,9129,668993,0
6,-1,637084,218318,1248539,65452,7036,624266,0
6,2,712152,249092,1567543,74011,9490,783262,0
6,2,713588,249784,1536580,74406,9386,768274,0
6,-1,637274,219526,1247114,65990,7484,623603,0
6,2,710841,248428,1315312,73984,9592,657701,0
6,2,709094,249940,1359627,74671,9706,679919,0
6,-1,640625,220705,1281612,66753,7342,640702,2
6,-1,643393,221165,1209338,66800,8154,604461,0
6,2,705603,247906,1447980,73777,9069,724004,0
6,2,709261,249714,1631627,74417,11087,815648,0
6,-1,641387,220719,1278966,66568,7166,639453,0
6,2,712415,250149,1444217,74636,9099,722201,0
6,2,710699,251433,1406552,75141,9398,703229,0
6,2,710537,249348,1310562,74239,9034,655266,0
6,-1,634242,218052,1190217,65542,7002,595079,0
6,2,704101,247941,1423434,73716,9268,711754,0
6,2,712615,249680,1538684,74317,9401,769143,0
6,-1,641485,219074,1140553,65854,7461,570236,0
6,2,705540,249206,1472370,74123,9207,735634,0
6,2,706803,248911,1421645,74031,8778,710865,0
6,-1,662077,223588,1356564,69174,7170,678296,0
6,2,708226,248853,1412171,74044,8770,706143,0
6,2,730427,253586,1551267,77366,9287,775624,0
6,2,709897,248864,1696011,73941,12629,847939,0
6,2,711741,250378,1532609,74601,9155,766246,0
6,-1,644194,222523,1340658,67162,8644,670317,0
6,2,713052,250133,1457810,74498,9853,728932,0
6,2,720965,251214,1423489,74932,10120,711763,0
6,2,713660,249291,1346577,74135,10366,673209,0
6,-1,642249,219997,1269359,65920,7707,634372,0
6,2,715936,250094,1358690,74202,10239,679228,0
6,2,710221,250049,1335370,74180,9937,667731,0
6,-1,641304,219504,1251112,65924,8392,625540,0
6,2,716537,251393,1450302,75012,9581,725253,0
6,-1,644918,218879,1291216,65859,7403,645664,0
6,2,708848,248869,1399517,73922,9021,699786,0
6,2,716292,250404,1503490,74575,10685,751698,0
6,-1,637982,218494,1522176,65776,8678,761536,0
6,2,707432,248560,1591848,73866,10498,795200,0
6,2,710434,248136,1445620,73678,11336,722809,0
6,2,717206,250747,1334147,74868,10209,667079,0
6,2,710999,248659,1418977,73819,9734,709498,0
6,-1,643987,219636,1172803,66112,8417,586458,0
6,2,713335,248552,1331399,73566,9212,665706,0
6,2,729834,254012,1365186,77250,10275,682623,0
6,-1,644932,218720,1309451,65820,7777,654681,0
6,2,713255,250966,1325749,74836,9692,662927,0
6,2,708735,248215,1422340,73719,8647,711185,0
6,2,709416,248099,1406053,73569,9365,703027,0
6,2,720560,251377,1376953,75016,9682,688573,0
6,-1,637655,219638,1285408,66368,7450,642612,0
6,2,716335,250128,1381228,74456,9131,690674,0
6,2,714375,250612,1305004,74606,8338,652558,0
6,2,731945,252639,1421702,76841,9407,710900,0
6,-1,638502,219917,1273517,66243,6897,636834,0
6,2,709035,248365,1317289,73655,8662,658699,0
6,2,701871,248165,1346888,73123,7822,673470,0
6,2,711527,250294,1339487,74022,8550,669820,0
6,-1,635486,219181,1223177,65960,7658,611633,0
6,2,724283,252551,1502806,76528,9957,751316,0
6,2,710552,249136,1412152,74506,10000,706075,0
6,-1,640116,219291,1214641,66026,7594,607298,0
6,2,732394,252876,1531474,77479,11115,765462,0
6,2,707156,247916,1573393,74013,9929,786037,0
6,-1,641481,220156,1221706,66483,8065,610880,0
6,2,707969,247974,1338184,74058,9253,669048,0
6,2,710536,248896,1469557,74419,9279,734743,0
6,2,708410,247578,1346868,73932,8859,673444,0
6,-1,637418,220190,1396009,66252,8226,698086,0
6,2,707092,248034,1308681,74132,9073,654245,0
6,-1,659300,224279,1383952,69375,8234,691999,0
6,2,728494,252691,1495219,77379,11355,747491,0
6,2,712977,249250,1344569,74711,9144,672146,0
6,2,711576,250095,1300505,74897,9831,650321,0
6,-1,640588,219959,1295010,66180,7392,647418,0
6,2,710761,248547,1314844,74297,8785,657507,0
6,2,711631,248744,1240066,74317,9266,620099,0
6,-1,642790,219910,1260341,66145,7874,630182,0
6,2,731269,252852,1497187,77437,10703,748624,0
6,-1,659145,224042,1256333,69284,7600,628085,0
6,2,713729,248791,1378727,74248,9747,689417,0
6,2,728889,252761,1501776,77419,10818,750825,0
6,2,711537,249546,1312834,74556,9078,656456,0
6,-1,637318,219295,1188170,65922,7195,593936,0
6,2,717806,249693,1339272,74739,9743,669663,0
6,2,715909,249707,1463865,74635,10251,731647,0
6,2,711611,249074,1422484,74398,10018,711056,0
6,2,711038,249010,1450272,74373,9416,725188,0
6,-1,642476,220069,1205012,66246,8088,602505,0
6,2,720530,251776,1416558,75361,10185,707756,0
6,2,710595,248184,1472090,73930,9336,736009,0
6,-1,639568,219900,1260701,66103,7815,630331,0
6,2,714191,248686,1317248,74196,8502,658668,0
6,2,712815,249357,1312068,74420,9758,655988,0
6,-1,641844,219441,1508811,66056,9314,754391,0
6,2,713976,249976,1441822,74658,9329,720958,0
6,2,721191,251255,1342141,75283,9202,671137,0
6,2,713667,249356,1351606,74529,9113,675840,0
6,-1,642077,220323,1355983,66452,8332,678041,0
6,2,715082,249223,1445665,74415,9971,722645,0
6,2,711059,249256,1279930,74381,9587,640012,0
6,2,714267,249640,1346686,74512,9439,673346,0
6,-1,640554,219340,1254278,65905,6793,627038,0
6,2,716170,248307,1574861,74009,11220,787407,0
6,2,711455,247192,1405671,73879,9194,702848,0
6,-1,640436,219559,1366556,65839,8202,683182,0
6,2,712994,247653,1395205,74072,9974,697590,0
6,-1,644924,219610,1256952,65897,7931,628500,0
6,2,729891,252900,1420686,77590,9979,710277,0
6,2,705514,247866,1249221,74174,9246,624516,0
6,2,707769,248231,1395999,74140,9368,697079,0
7,2,760526,266214,1380707,78593,8837,690323,0
7,2,705420,248544,1266696,73851,8440,633309,0
7,-1,692205,237522,1331873,70867,7629,665965,0
7,2,709567,248299,1362649,73724,8894,681352,0
7,-1,687331,236183,1389226,70334,7914,694626,0
7,2,707484,248198,1390339,73771,8519,695169,0
7,2,714487,250264,1433055,74696,9169,716456,0
7,-1,641217,219246,1261138,65831,7431,630554,0
7,2,711481,249979,1429498,74720,9490,714695,0
7,2,709669,248220,1430578,73770,9399,715290,0
7,-1,643797,221341,1297141,66760,7578,648646,0
7,2,709648,248901,1500592,73840,9154,750244,0
7,2,712559,249854,1552056,74479,10426,775256,0
7,2,731028,253457,1385705,77406,9597,692898,0
7,-1,633489,218611,1276865,65710,7598,638426,0
7,2,710171,248059,1357579,73833,10158,678826,0
7,2,704542,248155,1355195,73879,9622,677599,0
7,-1,635420,217999,1330764,65494,7815,665358,0
7,2,705637,248206,1387330,73878,8607,693680,0
7,-1,634665,219559,1145604,66035,6904,572613,2
7,2,706977,249146,1446063,74350,9106,723052,0
7,2,705377,248386,1318318,73829,8818,659204,0
7,-1,639167,219527,1279776,65987,7421,639889,0
7,2,724958,252885,1307241,77173,9103,653666,0
7,2,714594,251279,1424859,75076,9525,712443,0
7,-1,637008,219171,1274851,65924,7505,637380,0
7,2,734239,253669,1380526,77417,10231,690125,0
7,2,709424,248708,1389976,73892,9107,694896,0
7,-1,657938,222928,1245920,68941,8281,622908,0
7,2,705349,248262,1521037,73791,9697,760630,0
7,2,713112,250993,1523644,74987,9661,761768,0
7,-1,642100,219680,1287045,66159,6639,643606,0
7,2,711038,248448,1247078,73859,8753,623580,0
7,2,707163,247888,1343745,73633,8573,671871,0
7,2,713713,250324,1477193,74558,10602,738822,0
7,2,710055,249428,1461581,74132,8711,730586,0
7,-1,643716,219153,1225620,65894,7374,612727,0
7,2,708322,248666,1403106,73866,9271,701161,0
7,2,713116,248559,1278887,73751,8639,639379,0
7,2,715815,249693,1360723,74277,9501,680378,0
7,-1,646986,221591,1368426,66802,8100,684122,0
7,2,734670,254270,1503910,77367,11081,751726,0
7,2,710893,249660,1443875,74048,9637,721827,0
7,-1,664878,224296,1322802,69301,9422,661304,0
7,2,710276,249487,1320105,74147,8726,660104,0
7,-1,649787,221561,1453873,66920,9226,727024,0
7,2,709921,248486,1435460,73750,9651,717695,0
7,2,707970,247870,1555613,73546,10693,777681,0
7,-1,638533,219284,1292500,66045,7195,646305,0
7,2,707020,248415,1411329,73816,9630,705731,0
7,2,710245,248605,1335006,73778,10353,667446,0
7,2,711792,248775,1469050,73985,9808,734246,0
7,2,715480,250998,1453175,74908,9758,726567,0
7,-1,646538,221007,1224091,66855,8732,612074,0
7,2,712252,248352,1383557,73541,10388,691637,0
7,2,711184,248729,1450533,73682,9386,725306,0
7,-1,645505,219248,1276227,66067,7787,637904,0
7,2,711645,248697,1528985,73865,9750,764535,0
7,2,712267,250113,1382027,74502,9149,691188,0
7,2,708737,248170,1328224,73629,8704,664203,0
7,2,711905,248258,1286144,73631,9495,643114,0
7,-1,634581,219094,1304824,65917,7633,652427,0
7,2,711791,248754,1430830,73804,8581,715423,0
7,2,713143,248626,1339875,73798,8975,669972,0
7,2,710256,247998,1397190,73559,8441,698632,0
7,-1,639048,220571,1260688,66669,7555,630420,0
7,2,713635,248660,1402931,73756,8911,701447,0
7,2,706210,249988,1298064,73932,7617,649107,0
7,2,729133,253692,1538312,76719,9393,769126,0
7,-1,632151,218786,1359188,65831,8061,679626,0
7,2,702600,248256,1410491,73348,9294,705262,0
7,2,709838,248663,1290313,74356,9417,645169,0
7,-1,638991,219186,1309327,65938,7491,654705,0
7,2,711272,248099,1447455,74150,10670,723644,0
7,2,727769,252427,1536757,77283,10445,768400,0
7,-1,661931,224395,1212986,69405,8905,606444,0
7,2,710434,248473,1403878,74198,9732,701919,0
7,2,709333,248846,1328571,74388,9846,664217,0
7,2,716036,249503,1395157,74778,9295,697711,0
7,-1,642960,219844,1304948,66150,7677,652500,0
7,2,714464,250238,1309214,75129,9113,654611,0
7,-1,639636,219577,1260436,65989,8006,630192,0
7,2,706761,248435,1376439,74218,9524,688324,0
7,2,708678,248187,1360802,74121,9700,680461,0
7,2,728110,252823,1507816,77401,11388,753899,0
7,-1,639818,220202,1274952,66440,7672,637463,0
7,2,712202,249045,1506867,74390,9571,753453,0
7,2,711177,248205,1341856,74081,9255,671021,0
7,-1,642321,219725,1226865,66060,7561,613430,0
7,2,711820,248837,1376723,74205,9359,688398,0
7,-1,637720,219728,1246106,66049,6811,623000,0
7,2,714102,248392,1462942,74053,9367,731522,0
7,2,709778,250147,1322949,74981,8912,661642,0
7,2,713327,248853,1318777,74398,9052,659385,0
7,-1,641842,219303,1287972,65970,7730,643983,0
7,2,714902,249225,1304130,74623,9354,652232,0
7,2,712588,249373,1309617,74536,9010,654839,0
7,2,716218,250394,1418810,75066,10617,709457,0
7,2,711094,249387,1413933,74477,9411,706949,0
7,-1,640823,219312,1148709,65961,7950,574399,0
7,2,712450,249499,1450358,74446,10201,725186,0
7,-1,636631,219635,1505172,66064,8372,752343,0
7,2,715700,250793,1426335,75053,9600,713470,0
7,2,717735,251137,1495062,75376,9282,747803,0
7,-1,643091,220246,1316532,66188,7897,658219,0
7,2,707365,247525,1563627,73853,10569,781773,0
7,2,711297,249015,1464376,74284,9692,732230,0
7,2,715020,249810,1455580,74508,9537,727831,0
7,2,716693,249655,1412361,74621,9594,706078,0
7,-1,640580,219402,1298142,65864,8002,649151,0
7,2,719224,250957,1360387,75295,9323,680114,0
7,2,713648,249234,1291613,74368,8624,646001,0
7,2,715936,249467,1499428,74305,9263,749205,0
7,-1,643486,221224,1356212,66836,7547,678044,0
7,2,713010,248386,1361322,74046,9766,680719,0
7,-1,640497,219850,1251702,65983,7493,625830,0
7,2,717407,249586,1430838,74883,9961,715457,0
7,2,709840,246742,1337003,73809,10027,668457,0
7,-1,646166,220507,1333666,66545,8818,666831,0
7,2,707232,248129,1282018,74217,8527,641064,0
7,2,711141,250347,1364364,75187,9577,682260,0
7,2,712967,249676,1365306,74863,9303,682426,0
8,2,761022,267048,1436620,78920,8980,718312,0
8,-1,691779,237406,1270846,70771,7390,635420,0
8,2,710975,248271,1369216,73688,8864,684566,0
8,2,728683,252561,1431130,76933,9825,715601,0
8,-1,689611,237380,1244941,70758,6818,622198,0
8,2,704473,248008,1417059,73721,8345,708522,0
8,2,705845,247743,1285768,73692,7949,642884,0
8,-1,637455,218119,1191634,65383,7206,595751,0
8,2,708747,248177,1357577,73853,8854,678794,0
8,2,709383,248133,1417073,73734,8884,708505,0
8,-1,643458,219411,1206263,65846,7431,603090,0
8,2,710319,249431,1397689,74088,9160,698873,0
8,2,711461,249704,1595229,74277,9805,795503,0
8,2,711878,248624,1445102,74036,11075,722330,0
8,-1,633366,218405,1244360,65483,7812,622168,0
8,2,710799,248574,1401960,74036,9824,701029,0
8,2,705706,249102,1311078,74227,9139,655481,0
8,-1,637393,219059,1274343,65881,7206,637193,0
8,2,707794,249275,1618788,74264,10579,809419,0
8,2,727236,253248,1408391,77312,10696,704151,0
8,-1,635943,218772,1348491,65796,7468,674248,2
8,2,711539,250694,1454382,74886,9496,727262,0
8,-1,634946,218557,1405859,65660,7435,702939,0
8,2,713043,248709,1298979,74003,9461,649535,0
8,2,708994,249613,1544525,74291,9715,772262,0
8,-1,636804,218889,1142660,65826,7245,571304,0
8,2,711274,249566,1398034,74322,9016,698948,0
8,2,710015,249750,1309752,74344,8452,654813,0
8,-1,639020,219461,1216498,66029,7439,608177,0
8,2,711235,248192,1331092,73792,8970,665555,0
8,2,706566,248790,1506379,73964,9509,753117,0
8,-1,645222,220797,1294410,66665,8184,647185,0
8,2,710052,248224,1429905,73794,9219,714998,0
8,2,708817,248816,1381532,74051,9047,690815,0
8,2,710257,249250,1636477,73938,11141,817889,0
8,2,708267,248563,1531480,73742,11498,765623,0
8,-1,641878,218495,1305190,65610,8236,652596,0
8,2,709501,249224,1387482,74046,9122,693724,0
8,2,715549,250504,1321562,74638,9074,660755,0
8,2,716372,250117,1684412,74452,11702,841218,0
8,-1,646300,221744,1310402,66907,7841,655127,0
8,2,717827,249497,1395582,73992,9155,697765,0
8,2,730420,254091,1378683,77266,9994,689385,0
8,-1,641061,219427,1303856,65919,8693,651882,0
8,2,710063,249523,1467920,74096,9728,733990,0
8,-1,663833,223719,1282498,69262,8884,640917,0
8,2,732108,253028,1356110,77099,9870,678043,0
8,2,735059,253790,1448385,77293,12297,724178,0
8,-1,641324,218875,1320928,65850,7192,660495,0
8,2,708669,248646,1348701,73953,9839,674138,0
8,2,711652,249151,1815122,74033,12608,907836,0
8,2,709669,248217,1585372,73735,10255,792527,0
8,2,733567,253219,1392174,77177,9878,696117,0
8,-1,663302,224125,1236141,69430,9344,617963,0
8,2,717107,250360,1310584,74437,9529,655361,0
8,2,711791,249180,1497673,73872,9826,748884,0
8,-1,646116,219542,1235342,66116,7627,617344,0
8,2,708993,247915,1453334,73532,9875,726750,0
8,2,729420,253073,1389441,77038,9958,694693,0
8,2,708689,248326,1443927,73641,8790,721933,0
8,2,712340,248751,1451526,73850,10223,725819,0
8,-1,636276,219621,1384116,66146,9006,692076,0
8,2,711447,248685,1393858,73820,8833,696977,0
8,2,710872,248327,1456554,73715,9046,728319,0
8,2,715371,250384,1355801,74543,8797,677947,0
8,-1,639511,219842,1289699,66186,6990,644873,0
8,2,720635,250709,1329726,74735,9323,664906,0
8,2,720128,250362,1340856,74557,8493,670487,0
8,2,706424,248552,1423341,73292,9021,711716,0
8,-1,641586,219818,1275217,66197,7675,637689,0
8,2,707825,248397,1318358,73333,8914,659182,0
8,2,707166,247939,1419106,73985,10014,709492,0
8,-1,637244,218686,1261007,65774,7080,630495,0
8,2,714723,250304,1480736,75176,11088,740264,0
8,2,713757,250625,1423207,75225,10450,711575,0
8,-1,639188,219618,1270786,66006,7184,635448,0
8,2,714272,249875,1317419,74981,8950,658722,0
8,2,707095,248040,1367355,74091,9951,683711,0
8,2,709825,247756,1429053,73979,9661,714530,0
8,-1,642749,219894,1249759,66116,7361,624842,0
8,2,708524,248724,1426690,74333,9382,713318,0
8,-1,636552,218801,1299727,65800,7552,649891,0
8,2,712217,248329,1421421,74182,9344,710511,0
8,2,728098,252404,1501136,77363,10271,750471,0
8,2,715062,248976,1710389,74492,11871,854835,0
8,-1,633029,217865,1168030,65511,7336,583835,0
8,2,711673,249462,1407379,74779,9308,703764,0
8,2,710791,248248,1438598,74126,9430,719344,0
8,-1,644805,221170,1301719,66705,7662,650862,0
8,2,714357,249860,1342638,74696,9377,671320,0
8,-1,640658,219988,1355135,66127,7289,677531,0
8,2,735878,252984,1477292,77520,9954,738287,0
8,2,709737,249260,1541471,74452,10047,770777,0
8,2,713181,249677,1355350,74690,9219,677811,0
8,-1,641287,218949,1205159,65834,7846,602460,0
8,2,714671,249383,1470089,74673,9589,735083,0
8,2,711982,249446,1306400,74524,8847,653248,0
8,2,717731,250391,1456612,74839,9819,728236,0
8,2,711397,249267,1576382,74512,9942,788236,0
8,-1,644214,220012,1293929,66127,7753,647001,0
8,2,762049,263182,1640297,80439,12000,819579,0
8,2,733652,253906,1467920,77687,10226,734007,0
8,-1,638793,219711,1268723,66091,7834,634225,0
8,2,716471,250472,1329479,75017,8791,664828,0
8,-1,639836,219123,1230011,65840,7113,615409,0
8,2,711607,250287,1322854,74969,9423,661418,0
8,2,714480,250026,1332564,74660,8841,666337,0
8,2,726529,253077,1594465,75860,11766,796813,0
8,2,714151,249033,1375469,74398,9038,687807,0
8,-1,640808,219306,1224839,65878,7347,612466,0
8,2,716301,248830,1323522,74303,10062,661790,0
8,2,719984,249791,1400971,74471,10208,700475,0
8,2,715141,249651,1455032,74486,9506,727567,0
8,-1,641031,220233,1418189,66246,8461,709135,0
8,2,713024,248404,1352521,74117,9453,676210,0
8,-1,639200,219382,1719581,65862,9786,859841,0
8,2,714330,248839,1516423,74411,10695,758269,0
8,2,714753,248122,1401877,74212,9631,700932,0
8,-1,642638,219663,1244582,66028,7612,622296,0
8,2,706325,247803,1507792,74129,8831,753940,0
8,2,704198,248031,1395764,74246,9872,697923,0
8,2,731368,253542,1335069,77711,9705,667577,0
9,2,764554,266967,1455646,78896,9678,727855,0
9,-1,695710,238218,1354077,71081,8104,677065,0
9,2,706703,248186,1424234,73745,8282,712141,0
9,2,707113,247821,1326382,73589,8797,663200,0
9,-1,691537,238122,1406553,71244,7107,703271,0
9,2,705736,247623,1307830,73704,8324,653956,0
9,2,711308,249950,1442222,74532,8978,721124,0
9,-1,637642,218717,1301362,65596,7925,650710,0
9,2,704346,247625,1335802,73619,8749,667907,0
9,2,718572,251749,1551771,75294,10170,775532,0
9,-1,639697,218433,1266331,65451,7312,633158,0
9,2,714024,249183,1397822,73990,9635,698941,0
9,2,713762,250364,1477624,74729,9979,738870,0
9,2,710218,248979,1372018,74180,8993,685680,0
9,-1,634468,219386,1141333,65836,7064,570560,0
9,2,710454,248444,1445824,73945,9457,722954,0
9,2,702855,248568,1286609,73943,9443,643278,0
9,-1,639952,220098,1286780,66407,7606,643426,0
9,2,706315,248246,1450217,73874,10121,725146,0
9,2,708364,248035,1463402,73825,9033,731798,0
9,2,711812,249831,1513801,74466,8676,757017,0
9,-1,636863,218268,1201701,65477,7319,600794,0
9,-1,635941,218738,1192515,65697,7434,596154,2
9,2,711388,248424,1315649,73832,9682,657786,0
9,2,708103,248465,1293829,73873,8662,646922,0
9,-1,656531,223537,1237907,69115,8824,618933,0
9,2,710895,248790,1438332,73944,9352,719133,0
9,2,708670,248093,1367541,73710,8814,683536,0
9,-1,641312,219798,1276951,66316,8405,638536,0
9,2,718124,250704,1415108,74929,10321,707373,0
9,2,705529,248520,1453581,73879,9456,726839,0
9,-1,639054,218860,1205045,65753,6776,602543,0
9,2,711513,249121,1477920,74065,9421,738977,0
9,2,712193,250373,1515608,74724,10171,757869,0
9,2,733638,253555,1664475,77174,11712,832171,0
9,-1,641215,218596,1195744,65681,7435,597905,0
9,2,730303,253399,1499751,77161,10091,749958,0
9,2,706080,248306,1442884,73653,9507,721378,0
9,2,712857,248950,1318642,73896,8943,659236,0
9,2,713117,249506,1437124,74111,10024,718630,0
9,-1,663349,224561,1373129,69266,8046,686387,0
9,2,716814,249963,1384940,74284,9299,692481,0
9,2,716323,251652,1410901,74945,10027,705490,0
9,-1,639106,219030,1342011,65692,8040,670900,0
9,2,711479,250475,1424507,74413,9529,712304,0
9,-1,646710,220822,1316449,66663,7995,658285,0
9,2,712598,249405,1441098,74137,9825,720580,0
9,2,711258,248726,1444591,73857,11073,722312,0
9,-1,645440,220450,1463156,66606,9656,731596,0
9,2,706601,248387,1669036,73819,12019,834406,0
9,2,736453,257683,1554339,76450,10830,776648,0
9,2,709318,248326,1531294,73861,10987,764215,0
9,2,713865,249747,1652276,74232,11170,826166,0
9,-1,639878,218885,1211102,65873,8233,605448,0
9,2,709874,247763,1324075,73374,10455,662075,0
9,2,715046,250518,1439130,74538,9547,719662,0
9,-1,644456,219505,1315176,66127,7847,657584,0
9,2,707398,248270,1451469,73620,9267,725623,0
9,2,706403,248407,1328181,73745,8697,664147,0
9,2,714421,250954,1387859,74859,8886,693982,0
9,2,711837,247971,1385996,73534,9658,693047,0
9,-1,637748,219223,1316239,66010,8184,658213,0
9,2,709148,248242,1412511,73619,9179,706281,0
9,2,716329,250796,1314939,74654,8913,657536,0
9,2,713692,248765,1318782,73820,8825,659440,0
9,-1,634055,218133,1169769,65682,6329,584933,0
9,2,712868,248105,1329983,73590,8650,665047,0
9,2,712560,248322,1483073,73601,8338,741395,0
9,-1,645551,220938,1372707,66751,8193,686412,0
9,2,705250,248894,1318344,73377,8650,659218,0
9,2,710403,250837,1277386,74300,9527,638468,0
9,2,707081,247941,1321388,73222,8853,660567,0
9,-1,655872,223153,1281763,69095,8046,640751,0
9,2,731114,252991,1536035,77531,11426,768016,0
9,2,707126,248024,1588446,74103,10463,794294,0
9,-1,638115,219618,1310147,66027,7180,655110,0
9,2,707182,248086,1402072,74088,9703,701039,0
9,2,711550,249578,1305528,74810,8560,652545,0
9,-1,639012,219419,1275201,65950,6865,637737,0
9,2,709918,248244,1310128,74134,8754,655018,0
9,2,711818,250321,1298756,75184,8334,649420,0
9,-1,636413,219231,1284931,65944,7417,642476,0
9,2,732239,252955,1544148,77463,10700,771993,0
9,2,707340,248017,1332247,74065,9641,666206,0
9,2,716826,249683,1303393,74903,9212,651993,0
9,-1,641455,219893,1365553,66071,8003,682738,0
9,2,707215,247409,1287291,73883,9550,643569,0
9,2,710169,248681,1403989,74268,9246,702041,0
9,-1,642942,219791,1211353,66141,7361,605664,0
9,2,709965,248461,1388442,74082,9461,694241,0
9,-1,637435,219332,1280021,65815,6618,639765,0
9,2,714910,249137,1361284,74217,9118,680685,0
9,2,707152,248118,1513864,74028,11907,756959,0
9,2,713511,249260,1472306,74563,8742,736208,0
9,-1,662468,223832,1264678,69239,8326,632325,0
9,2,714994,249712,1409192,74785,8424,704585,0
9,2,708543,248307,1401955,74172,9606,700979,0
9,2,712891,249064,1428220,74449,9767,714042,0
9,2,709692,249065,1396240,74396,9632,698204,0
9,-1,640377,219341,1176239,65940,7139,588008,0
9,2,712441,249181,1476028,74290,10482,737981,0
9,-1,641504,220856,1351636,66616,8482,675275,0
9,2,714793,250047,1350707,74621,9058,675394,0
9,2,712823,249358,1412859,74474,9499,706370,0
9,-1,644993,221689,1307866,66992,7791,653821,0
9,2,712939,248619,1403293,74152,8734,701688,0
9,2,714949,249380,1415091,74457,9671,707600,0
9,2,716752,250326,1325124,74818,8770,662605,0
9,2,714145,249586,1253925,74511,8827,627010,0
9,-1,639484,219668,1297006,66025,7081,648538,0
9,2,714533,248827,1318068,74365,9316,659065,0
9,2,717791,249278,1352482,74309,9068,676239,0
9,2,733091,253292,1541595,77478,10591,770705,0
9,-1,637443,219357,1326292,65944,7725,662723,0
9,2,716754,248866,1394573,74252,10321,696039,0
9,2,713825,248895,1473133,74363,9353,736375,0
9,-1,662214,223854,1364131,69063,8625,681955,0
9,2,718999,250108,1411516,75090,9918,705727,0
9,-1,646353,221166,1300648,66714,7650,650290,0
9,2,707446,248170,1257390,74285,9002,628650,0
9,2,709016,247283,1413915,73891,8592,706979,0
9,2,709302,247228,1245400,73763,8816,622731,0
9,-1,646923,222008,1321360,66987,8240,660758,0
10,2,761367,266143,1372551,78589,9282,686261,0
10,-1,713548,241994,1399118,74050,8919,699475,0
10,2,724044,254584,1403839,75670,8829,701914,0
10,2,709848,248239,1382131,73820,8404,691027,0
10,-1,693606,237504,1405441,70815,7406,702752,0
10,2,706049,247693,1408430,73568,8531,704110,0
10,2,705947,247656,1308356,73611,8309,654122,0
10,-1,661142,223572,1401634,69003,8154,700696,0
10,2,710204,248528,1392713,73895,8385,696351,0
10,2,712606,249379,1361101,74200,9567,680534,0
10,-1,637842,218300,1177289,65574,6436,588581,0
10,2,711885,248753,1407935,73783,9435,703983,0
10,2,707099,248222,1493528,73729,9845,746678,0
10,2,710601,248446,1535904,73905,9328,767844,0
10,-1,638263,221365,1205137,66640,7078,602521,0
10,2,712428,249674,1426481,74590,9658,713311,0
10,2,702680,248346,1530699,73966,9125,765331,0
10,-1,635030,218631,1253445,65727,6578,626787,0
10,2,710685,250513,1462675,74953,9781,731421,0
10,2,713041,250434,1487162,74882,9449,743534,0
10,2,708467,248439,1545953,73864,9193,773016,0
10,-1,660866,223502,1297113,69126,8198,648445,0
10,2,716226,250329,1416978,74716,9987,708416,0
10,2,707380,248586,1337252,73974,8846,668647,0
10,-1,640686,219152,1188696,65891,8277,594350,2
10,-1,633213,218032,1243867,65442,7423,621905,0
10,2,711701,249041,1425646,74015,9101,712815,0
10,2,711920,249328,1268557,74255,8809,634304,0
10,-1,638956,218637,1284746,65749,7684,642450,0
10,2,712579,248875,1306868,74081,9715,653371,0
10,2,710042,249192,1459707,74132,9137,729906,0
10,-1,639057,219248,1277234,65939,7219,638630,0
10,2,730068,253183,1461290,77190,9853,730667,0
10,2,711017,249758,1335917,74326,8722,668012,0
10,2,711035,249212,1703289,74014,10603,851534,0
10,-1,644802,220156,1334499,66317,8571,667148,0
10,2,709009,249179,1477584,74031,8979,738818,0
10,2,711587,251004,1435410,74912,10126,717411,0
10,2,711210,248729,1257096,73864,9084,628475,0
10,-1,639655,219530,1352641,65804,7286,676154,0
10,2,743098,260740,1472219,77806,9698,735863,0
10,2,717284,250466,1487436,74410,10312,743396,0
10,2,709829,249521,1377967,73982,9611,688867,0
10,-1,641809,219874,1317807,66043,8596,658853,0
10,2,710512,249520,1345812,74025,9557,672945,0
10,-1,641046,218815,1281748,65736,7013,640918,0
10,2,709847,248464,1365264,73811,9418,682573,0
10,2,710604,249386,1439325,74048,9909,719649,0
10,-1,639517,218918,1161067,65858,7763,580571,0
10,2,715001,248992,1326915,74106,10038,663414,0
10,2,708220,248317,1380517,73690,9916,689813,0
10,2,714043,250110,1517637,74653,9901,758541,0
10,2,707676,247878,1353808,73544,9145,677031,0
10,-1,644974,219730,1214943,66307,8701,607443,0
10,2,716830,250447,1394114,74524,10089,697027,0
10,2,712141,249714,1296900,74060,8483,648462,0
10,-1,645633,220340,1317191,66569,8386,658562,0
10,2,709405,248880,1438867,73902,9291,719482,0
10,2,713561,250575,1433413,74697,8933,716769,0
10,2,728485,252222,1535196,76698,10005,767583,0
10,2,713911,248721,1426005,73777,9569,713054,0
10,-1,637718,219616,1332920,66075,8159,666590,0
10,2,709736,249247,1372316,73998,8715,686209,0
10,2,711430,248825,1431846,73824,9178,715955,0
10,2,707927,248116,1337361,73562,8221,668731,0
10,-1,634698,218819,1300980,65781,7291,650535,0
10,2,715426,248944,1390405,73878,9310,695276,0
10,2,711639,247216,1462296,73405,9071,731159,0
10,-1,641841,219856,1390853,66234,8511,695388,0
10,2,713905,251173,1331597,74381,8276,665927,0
10,2,702569,248087,1393222,73110,9978,696535,0
10,2,712297,250850,1289002,74492,9292,644455,0
10,-1,635465,219227,1185058,65993,6881,592635,0
10,2,708763,247675,1540709,73896,10239,770374,0
10,2,707218,247800,1470068,74009,10303,734826,0
10,-1,642242,221331,1431796,66818,8850,715956,0
10,2,710870,248888,1345842,74397,9346,672885,0
10,2,705634,247812,1487495,74027,9070,743724,0
10,-1,640909,219951,1143913,66158,7588,571977,0
10,2,712519,249459,1367817,74764,9410,683761,0
10,2,704281,248162,1371252,74200,9052,685605,0
10,-1,636728,219153,1382129,65844,7908,691014,0
10,2,711695,248613,1426686,74278,10146,713223,0
10,2,711714,248284,1384918,74125,9294,692420,0
10,2,733258,252588,1502406,77395,10620,751141,0
10,-1,638902,219349,1197087,65912,6937,598562,0
10,2,706748,247920,1315395,74009,9786,657736,0
10,2,709486,248362,1409302,74060,9904,704692,0
10,-1,640872,219332,1294348,65936,7684,647060,0
10,2,708512,248007,1290672,73903,9060,645368,0
10,-1,646114,221913,1327303,67085,8082,663644,0
10,2,710948,247765,1377988,73758,9375,688801,0
10,2,711470,250282,1278748,75095,9589,639374,0
10,2,713670,250312,1410962,74859,8941,705507,0
10,-1,642602,220071,1260607,66219,8691,630243,0
10,2,715454,249531,1434567,74669,9673,717325,0
10,2,714957,249760,1393891,74690,9166,696942,0
10,2,717753,251445,1416081,75482,9658,708054,0
10,-1,640702,219121,1183375,65923,6647,591884,0
10,2,727586,252386,1495588,77286,10675,747894,0
10,2,715999,250421,1559861,74715,10912,779932,0
10,-1,637886,219798,1234364,66116,7771,616949,0
10,2,715151,250374,1352795,74842,9239,676498,0
10,2,712098,249465,1450252,74492,9353,725421,0
10,-1,641377,220112,1373498,66213,8426,686594,0
10,2,717549,249385,1453077,74436,9927,726515,0
10,2,734572,253504,1456255,77582,10590,728148,0
10,2,717864,251309,1320895,75196,8678,660389,0
10,2,714296,249065,1305772,74357,9285,652880,0
10,-1,643120,221000,1332040,66646,7958,666056,0
10,2,717229,250031,1388176,74728,9765,693987,0
10,2,715839,249073,1448314,74274,9831,724201,0
10,2,713920,249633,1461017,74489,9373,730327,0
10,-1,639757,219562,1345980,65829,7817,672704,0
10,2,713195,248419,1303236,74031,9354,651670,0
10,-1,639308,219504,1388894,66038,8837,694580,0
10,2,713143,248740,1563089,74290,10078,781715,0
10,2,715240,248086,1340073,74244,10325,670083,0
10,-1,639670,218995,1247927,65665,7409,623889,0
10,2,704015,247805,1394969,74123,8575,697503,0
10,2,710804,248141,1309232,74266,8601,654660,0
10,2,709518,247801,1475826,73966,9619,737961,0
10,-1,659214,223712,1251875,69058,8226,625737,0
11,2,761370,266568,1457826,78691,9479,728890,0
11,-1,688022,236871,1358251,70597,7975,678984,0
11,2,764162,265248,1479242,80286,10177,739567,0
11,2,708441,248338,1242424,73880,8790,621163,0
11,-1,691774,237545,1242817,70857,7298,621376,0
11,2,709464,249986,1403682,74641,8748,701842,0
11,2,705426,247496,1369066,73571,8420,684491,0
11,-1,637817,218548,1279086,65587,6717,639551,0
11,2,706384,247696,1414281,73596,9459,707103,0
11,-1,643407,220870,1311770,66654,7383,655881,0
11,2,713075,249942,1484830,74627,9723,742368,0
11,2,716343,251104,1553030,74868,10399,776536,0
11,2,708020,248311,1575045,73743,9384,787314,0
11,2,714063,250639,1433452,74967,9100,716643,0
11,-1,640288,217933,1191147,65272,7208,595571,0
11,2,709606,248753,1347811,74106,9679,673956,0
11,2,702032,248077,1469976,73840,9308,734963,0
11,-1,636730,218112,1283686,65513,7437,641769,0
11,2,705468,248774,1508274,74101,8774,754144,0
11,2,706016,247837,1484290,73745,8997,742131,0
11,2,730212,253510,1414173,77377,9377,706953,0
11,-1,638614,218825,1172757,65828,7280,586367,0
11,2,711975,249136,1292561,74131,9066,646274,0
11,2,712758,250592,1431037,74813,9560,715522,0
11,-1,641548,218603,1229662,65711,7479,614768,0
11,2,711967,249552,1320373,74221,8259,660222,0
11,2,707285,247941,1313976,73679,9010,656973,0
11,-1,638088,219586,1214439,66072,7537,607298,2
11,-1,657184,223046,1262955,69015,8260,631374,0
11,2,715308,250014,1406716,74601,10097,703331,0
11,2,709059,248716,1446628,73932,9097,723354,0
11,-1,639158,219426,1188101,65932,6712,594043,0
11,2,709164,249166,1459889,74043,8929,729981,0
11,2,715405,250656,1429259,74678,9325,714732,0
11,2,713415,249899,1533676,74272,10772,766812,0
11,-1,641331,218980,1226612,65794,8179,613112,0
11,2,709900,249343,1382959,74037,9494,691519,0
11,2,715020,249771,1630166,74245,11327,815011,0
11,2,715879,250597,1482558,74656,8648,741266,0
11,-1,642884,221029,1318501,66541,7894,659159,0
11,2,710697,249617,1364891,74169,9278,682445,0
11,2,714413,249325,1506130,74045,9450,752967,0
11,2,710478,249937,1346506,74182,9231,673299,0
11,-1,640379,219268,1258977,65738,7862,629507,0
11,2,710693,250171,1437443,74273,10137,718771,0
11,-1,640443,219025,1177943,65866,6688,589023,0
11,2,730087,253833,1326581,77309,10460,663158,0
11,2,709882,248756,1389552,73928,9612,694754,0
11,-1,644429,220386,1246970,66616,8598,623483,0
11,2,711335,248149,1342029,73695,9557,670942,0
11,2,713450,250413,1402230,74684,9970,701146,0
11,2,708380,247846,1361484,73604,9309,680620,0
11,2,712180,249278,1404847,74070,9714,702436,0
11,-1,643564,219596,1167748,66112,8542,583926,0
11,2,734302,253855,1763684,77132,11939,881805,0
11,2,710211,248932,1456450,73752,9685,728268,0
11,-1,642247,219400,1277729,66082,7819,638889,0
11,2,714446,250756,1382205,74764,9438,691166,0
11,2,728878,253321,1350971,77113,9813,675490,0
11,2,707849,248231,1508362,73685,9186,754117,0
11,2,713908,249007,1400944,73943,9935,700513,0
11,-1,635988,218971,1234504,65913,8090,617374,0
11,2,710924,248234,1403999,73677,8988,701991,0
11,2,709290,248666,1302057,73892,8921,651031,0
11,-1,655116,223488,1254595,69182,8322,627284,0
11,2,714558,250164,1460837,74490,8391,730485,0
11,2,711548,248484,1275265,73769,8797,637586,0
11,2,711713,247773,1305067,73399,8790,652396,0
11,-1,659640,223445,1258333,69156,8162,629163,0
11,2,705633,248315,1420183,73171,8276,710007,0
11,2,704140,248647,1330455,73303,9195,665192,0
11,2,704108,247464,1347948,73024,8625,673926,0
11,-1,636102,219313,1295017,65968,7627,647525,0
11,2,711364,249036,1464333,74426,10302,732635,0
11,2,706067,247848,1472928,74053,10612,736332,0
11,-1,638385,219848,1445459,66130,9262,722378,0
11,2,707569,247907,1285487,74093,9005,642640,0
11,2,734889,252730,1466625,77457,9734,733209,0
11,-1,640052,219389,1395448,65929,8798,697445,0
11,2,712504,248741,1274256,74355,9099,637046,0
11,2,709972,247868,1319596,74029,9476,659851,0
11,-1,636050,219547,1204954,66037,7103,602558,0
11,2,731066,252896,1471330,77482,10325,735826,0
11,2,708915,248162,1325462,74063,9895,662744,0
11,-1,658845,223580,1236473,69165,7285,618299,0
11,2,712372,248415,1338475,74184,8448,669426,0
11,2,711208,248322,1277877,74187,9270,639031,0
11,2,730960,252454,1475774,77183,9941,737956,0
11,-1,642030,219748,1193758,66086,7160,596927,0
11,2,711279,248740,1291052,74185,8440,645573,0
11,-1,638191,219339,1284065,65967,7756,641835,0
11,2,711970,248862,1259343,74209,8885,629736,0
11,2,707017,248633,1429274,74345,11403,714234,0
11,2,710076,248890,1424562,74337,9940,712316,0
11,-1,640195,219305,1214188,65968,7183,607042,0
11,2,715575,249921,1349504,74833,8716,674933,0
11,2,710321,248671,1431297,74337,9329,715577,0
11,2,733951,253954,1504807,77837,11254,752341,0
11,-1,641564,219629,1350186,66008,7389,675140,0
11,2,710278,249911,1373421,74700,9566,686464,0
11,2,713690,249965,1535207,74612,9570,767599,0
11,-1,635393,219256,1258508,65886,8382,629281,0
11,2,713536,249830,1491896,74432,10110,745935,0
11,2,718100,249940,1345925,74667,9279,673004,0
11,-1,657268,223410,1224213,68979,8165,612117,0
11,2,718530,249659,1559614,74543,10976,779822,0
11,2,715241,249945,1300661,74642,9332,650381,0
11,2,716151,250085,1399718,74605,9081,699965,0
11,2,717283,251315,1295780,75293,8982,647832,0
11,-1,639007,219366,1270741,65878,7249,635451,0
11,2,719288,251334,1312155,75476,9164,656162,0
11,2,716712,249377,1358793,74395,8574,679437,0
11,2,715280,250573,1556215,74981,9707,777882,0
11,-1,640160,219710,1247500,66035,8223,623804,0
11,2,744029,259233,1467454,77527,9679,733794,0
11,-1,639371,219861,1242286,66082,6984,621188,0
11,2,711949,248438,1316509,74225,9262,658328,0
11,2,713552,247951,1452570,74194,10654,726321,0
11,2,708539,248108,1303153,74280,8622,651590,0
11,-1,646646,220500,1266122,66342,8047,633031,0
11,2,708078,248108,1371519,74283,8387,685820,0
11,2,713740,250000,1509258,74935,9326,755093,0
11,-1,642807,220206,1228889,66085,7554,614431,0
12,2,767524,269032,1502345,79800,9708,751152,0
12,-1,700009,239646,1397322,71704,8702,698637,0
12,2,760377,266042,1395159,78610,9168,697605,0
12,2,708660,248204,1469148,73703,9185,734637,0
12,-1,690288,237166,1350909,70680,7440,675466,0
12,2,703314,248160,1297233,73743,8513,648646,0
12,2,712655,250828,1505577,74947,8825,752883,0
12,-1,637483,218411,1269119,65517,7223,634579,0
12,2,707346,248193,1339519,73843,9337,669702,0
12,-1,658887,223055,1267699,68947,7928,633824,0
12,2,710383,249201,1376008,74204,9293,688000,0
12,2,712128,249361,1581363,73971,10165,790629,0
12,2,711495,248535,1421708,73803,9669,710844,0
12,2,705778,248393,1410029,74011,9396,704890,0
12,-1,662975,223648,1357145,69000,9003,678519,0
12,2,709375,248610,1410225,73997,9834,705149,0
12,2,734333,252995,1367412,77266,10063,683745,0
12,-1,637604,219259,1208590,65913,6805,604331,0
12,2,711056,250172,1445688,74775,10313,722966,0
12,2,708363,248696,1352910,74010,8916,676583,0
12,-1,637394,218463,1298971,65648,7616,649480,0
12,2,707609,248460,1439736,73944,9036,719901,0
12,2,714496,250611,1527516,74845,9393,763886,0
12,2,709289,249049,1335066,74122,8706,667500,0
12,-1,645247,220501,1224401,66510,8296,612120,0
12,2,712358,250315,1412073,74804,8887,705835,0
12,2,713493,251126,1446374,75054,9787,723184,0
12,-1,638577,218996,1318927,65815,8418,659465,0
12,2,718881,250957,1338072,74990,9987,668911,0
12,2,711034,249832,1527718,74501,9464,763969,0
12,-1,638085,218718,1305069,65741,6929,652270,2
12,-1,645285,220611,1284598,66635,7845,642330,0
12,2,710190,249798,1438623,74305,8838,719381,0
12,2,730152,253269,1378992,77108,10399,689508,0
12,2,708542,248443,1551516,73725,9815,776088,0
12,-1,641998,219158,1194179,65740,7751,596998,0
12,2,725425,253272,1425595,77108,9420,712739,0
12,2,716183,250814,1506481,74743,9878,753182,0
12,2,713309,249418,1620313,74107,11048,810039,0
12,-1,643265,219889,1174778,65913,7524,587411,0
12,2,717489,250434,1445181,74484,10316,722709,0
12,2,714088,249553,1392380,74208,9637,695964,0
12,2,708163,249410,1504179,73964,9722,751968,0
12,-1,660965,223890,1299922,69155,8934,649930,0
12,2,716899,250933,1546172,74536,9726,772858,0
12,-1,645994,221436,1338908,66925,7529,669646,0
12,2,710427,249331,1297635,74027,9307,648370,0
12,2,709769,248732,1394230,73839,9395,697139,0
12,-1,662442,223982,1205098,69358,8857,602423,0
12,2,717809,250616,1436126,74859,9743,718122,0
12,2,731037,253267,1404585,77143,10668,702215,0
12,2,711475,249384,1440152,74265,9875,719932,0
12,-1,638659,217962,1279087,65651,8828,639392,0
12,2,712736,249910,1424418,74477,9495,712242,0
12,2,735395,253923,1453898,77154,11114,726925,0
12,-1,665099,223868,1278535,69306,9186,639258,0
12,2,711293,249116,1450973,73810,9415,725536,0
12,2,729146,252998,1351585,76998,9438,675836,0
12,2,708374,248687,1401609,73828,9683,700776,0
12,2,717955,250248,1364549,74504,9361,682200,0
12,-1,638168,220043,1289191,66486,8466,644436,0
12,2,711190,248470,1431565,73744,10120,715822,0
12,2,713939,249911,1499734,74527,9320,749552,0
12,2,716902,250595,1310226,74636,9244,655134,0
12,-1,633862,219174,1395553,65867,7758,697781,0
12,2,709302,248788,1410408,73796,9097,705248,0
12,2,712868,248360,1392074,73663,9536,696057,0
12,2,717343,250580,1277612,74683,8536,638863,0
12,-1,638874,219253,1462887,66022,9080,731431,0
12,2,704567,248478,1475226,73201,8825,737648,0
12,2,709346,248719,1515954,73330,9410,757936,0
12,2,706784,248319,1473741,73372,9185,736883,0
12,-1,638012,219666,1280929,66141,7687,640472,0
12,2,711340,249442,1476597,74753,10546,738172,0
12,2,707274,248283,1480260,74138,10060,739584,0
12,-1,634905,218971,1133188,65731,7113,566618,0
12,2,709812,248475,1441452,74193,9400,720739,0
12,2,715455,249186,1417511,74508,9542,708732,0
12,-1,642752,220384,1307468,66278,8006,653478,0
12,2,714448,249947,1284479,74955,9158,642056,0
12,2,710862,249212,1323991,74624,9279,661955,0
12,-1,639149,221046,1301362,66733,8072,650633,0
12,2,710501,248592,1286565,74238,8599,643265,0
12,2,710624,247806,1299363,73963,9404,649642,0
12,-1,637130,219327,1305520,65965,7315,652770,0
12,2,713067,248880,1419383,74379,9666,709636,0
12,2,706889,247425,1454702,73781,8503,727411,0
12,2,710839,248914,1315687,74268,8650,657779,0
12,-1,644560,221564,1296279,66954,7409,648069,0
12,2,711869,247310,1407613,73735,9696,703723,0
12,-1,638581,219894,1187860,66172,7169,593936,0
12,2,714178,249681,1269902,74649,8716,635030,0
12,2,705495,248106,1288590,74140,9669,644217,0
12,-1,646430,221315,1214732,66803,7567,607238,0
12,2,716463,251338,1353848,75442,9696,676818,0
12,2,711234,249338,1447452,74586,9039,723740,0
12,2,713645,249465,1337668,74582,9069,668782,0
12,2,716916,250850,1483095,75209,9885,741559,0
12,-1,641160,219731,1194429,66075,6967,597240,0
12,2,708391,249532,1459412,74520,9945,729778,0
12,2,714257,250134,1524956,74649,10535,761677,0
12,-1,640909,221494,1339507,66893,8211,669411,0
12,2,712110,249577,1508122,74411,10282,753386,0
12,2,716384,249990,1334866,74874,9280,667500,0
12,-1,641589,220566,1245298,66311,8490,622539,0
12,2,714243,249029,1474190,74374,9672,737154,0
12,2,712039,248829,1432071,74173,9097,716083,0
12,2,713592,249187,1271451,74225,7815,635776,0
12,2,714823,250324,1331161,74693,8965,665450,0
12,-1,645559,221208,1311179,66820,8190,655613,0
12,2,736178,254072,1472016,77842,10496,736033,0
12,2,716633,248998,1445622,74293,9611,722858,0
12,2,716912,250010,1335482,74834,9180,667798,0
12,-1,637632,218915,1323374,65668,7926,661665,0
12,2,714146,249138,1414123,74333,9311,707112,0
12,-1,638906,220160,1328393,66121,7993,664183,0
12,2,712666,249243,1384449,74604,9273,692248,0
12,2,719973,250811,1483263,75399,10426,741520,0
12,-1,642730,219616,1183032,65910,7450,591515,0
12,2,705291,247410,1295950,73999,8839,648024,0
12,2,709109,248341,1401164,74323,9155,700507,0
12,-1,637944,219481,1266131,65814,7438,632933,0
12,2,713366,249696,1510293,74648,8994,755067,0
13,2,785266,271825,1506760,82245,10247,753353,0
13,-1,690527,237064,1257746,70623,7042,628876,0
13,2,789138,276045,1401699,81549,8658,700836,0
13,2,708509,248234,1313184,73705,9205,656597,0
13,-1,689346,237305,1249581,70777,7120,624753,0
13,2,735741,258627,1476604,77108,10026,738294,0
13,2,726138,252799,1385306,77124,9047,692556,0
13,-1,640947,220185,1275384,66297,7652,637611,0
13,2,705749,247876,1359467,73687,8391,679614,0
13,-1,639142,219276,1124619,65907,6668,562261,0
13,2,715862,248983,1362063,74134,8722,680934,0
13,2,714039,250546,1436283,74589,9263,718315,0
13,2,715220,250363,1580741,74609,10523,790260,0
13,2,713577,248721,1391873,74052,9095,695898,0
13,-1,641077,218871,1262290,65661,7648,631164,0
13,2,711654,248185,1338210,73858,8939,669157,0
13,2,716842,249128,1546094,74188,9752,773188,0
13,-1,638540,219736,1359497,66292,7384,679706,0
13,2,727687,253254,1446428,77330,10385,723151,0
13,2,708095,248683,1308437,74026,8910,654258,0
13,-1,636540,218261,1162274,65572,7323,581140,0
13,2,708791,249290,1499424,74191,9209,749770,0
13,2,709486,248939,1415728,74075,8849,707876,0
13,2,709851,249329,1416745,74175,8706,708399,0
13,-1,637183,218339,1154660,65516,7450,577290,0
13,2,728471,253279,1391611,77248,9256,695783,0
13,2,710107,249035,1452624,74058,8900,726276,0
13,-1,639452,219579,1312792,66229,8101,656189,0
13,2,733851,253578,1434370,77354,10212,717135,0
13,2,708452,249257,1578895,74101,9463,789379,0
13,-1,661539,223625,1247389,69162,8161,623685,0
13,2,704718,248165,1380757,73738,8448,690424,0
13,2,710227,248790,1619798,73845,11697,809784,0
13,-1,640129,218968,1202550,65733,7708,601203,0
13,2,709562,248615,1524597,73859,10065,762566,0
13,-1,649999,222675,1231821,67186,8407,615792,2
13,2,714691,249269,1417403,74139,9707,708649,0
13,2,716249,251331,1489068,74957,10062,744473,0
13,2,710960,249159,1412904,73990,8887,706455,0
13,-1,661789,224412,1256679,69216,8216,628269,0
13,2,713326,249610,1256077,74064,9411,628080,0
13,2,712846,249203,1350809,74134,9141,675372,0
13,-1,636410,218400,1356549,65612,8070,678147,0
13,2,732334,254552,1469955,77479,10952,734942,0
13,2,716930,251384,1419796,74943,9839,710030,0
13,-1,661084,223635,1312754,69189,8206,657412,0
13,2,712578,249819,1517480,74124,9868,758383,0
13,2,714134,250836,1457532,74917,10432,728761,0
13,-1,666513,228071,1292391,68584,8286,646047,0
13,2,712878,248954,1454347,74040,9311,727224,0
13,2,710810,249411,1453839,74078,9985,726863,0
13,2,706910,247927,1420126,73632,9876,710084,0
13,-1,641424,219303,1260619,65989,8021,630328,0
13,2,711373,248750,1373216,73912,9982,686700,0
13,2,711786,248881,1490435,73775,10920,745199,0
13,-1,644005,220021,1347417,66278,8304,673749,0
13,2,732398,254371,1365907,77360,9600,682984,0
13,2,706892,248591,1438200,73791,9409,719147,0
13,2,712148,248028,1442610,73556,10195,721354,0
13,2,710385,247991,1516885,73539,9637,758481,0
13,-1,635155,218853,1277914,65845,7443,638926,0
13,2,710351,248573,1364776,73732,10131,682377,0
13,2,710122,248650,1300373,73799,9460,650231,0
13,2,730584,252728,1386817,76906,9578,693392,0
13,-1,634712,219659,1321764,66177,9424,660947,0
13,2,716284,250764,1311395,74748,8584,655762,0
13,2,713269,248429,1315688,73674,9561,657819,0
13,2,734164,253334,1444412,77110,9029,722235,0
13,-1,639968,219572,1309780,66140,8154,654895,0
13,2,723482,252890,1438384,76486,10476,719030,0
13,2,703250,247233,1357263,72923,9179,678491,0
13,2,706813,248160,1398200,73302,9184,699041,0
13,-1,638726,218928,1347340,65857,9084,673592,0
13,2,708724,248212,1497931,74197,10493,748979,0
13,2,713893,251204,1409955,75393,9985,704941,0
13,-1,657018,223879,1247690,69182,8416,623767,0
13,2,729245,252333,1477331,77353,9180,738679,0
13,2,712610,248759,1380470,74355,9056,690202,0
13,-1,638037,219417,1293063,65879,8128,646569,0
13,2,710203,248437,1330400,74287,9530,665123,0
13,2,709593,249851,1339563,74896,9363,669628,0
13,-1,639580,219545,1295938,65934,7329,647934,0
13,2,707448,247822,1455000,74039,9441,727516,0
13,2,711324,248484,1332071,74162,9843,665993,0
13,-1,637880,219980,1254222,66117,7319,627058,0
13,2,708889,248059,1282788,74047,9859,641449,0
13,2,710069,248777,1460514,74307,9715,730299,0
13,2,711167,248808,1448570,74209,9215,724341,0
13,-1,657754,223529,1252482,69075,8275,626236,0
13,2,713187,248291,1372785,74039,9140,686438,0
13,-1,640781,220809,1292331,66630,7707,646005,0
13,2,709589,248371,1287318,74110,9340,643727,0
13,2,718291,249380,1262757,74637,9002,631338,0
13,-1,640839,219853,1200632,66099,7638,600304,0
13,2,709280,248409,1369977,74276,9425,685038,0
13,2,716465,251238,1569865,75445,11104,784973,0
13,2,737017,255344,1462892,78369,9618,731396,0
13,2,740199,258510,1605371,77258,10822,802694,0
13,-1,660528,224128,1244943,69347,7778,622455,0
13,2,717748,249922,1433245,74692,9735,716715,0
13,2,709704,249609,1410768,74529,9920,705260,0
13,-1,659407,224574,1354181,69468,8923,677047,0
13,2,720723,250388,1416333,74663,10263,706722,0
13,2,712239,248900,1412340,74324,9409,706208,0
13,-1,637744,219508,1221511,65912,7986,610761,0
13,2,720014,251342,1349117,75389,9022,674643,0
13,2,712135,249174,1654366,74400,10265,827230,0
13,2,734314,254429,1392889,77843,10078,696491,0
13,-1,641363,219885,1571168,66039,8936,785606,0
13,2,713724,249092,1419216,74412,9215,709653,0
13,2,712171,248886,1470058,74325,10030,734994,0
13,2,716266,248899,1395599,74132,9460,697839,0
13,-1,642499,220709,1361054,66604,8995,680109,0
13,2,735515,254048,1454234,77693,9785,727086,0
13,2,718491,250927,1395720,75199,9798,697728,0
13,-1,640752,218808,1243926,65789,8031,621852,0
13,2,714952,248405,1358350,74158,8630,679116,0
13,2,759429,261400,1598965,80159,12123,799527,0
13,-1,645312,221431,1303188,66776,7478,651573,0
13,2,708555,248918,1404543,74507,9429,702316,0
13,2,707329,247516,1441880,74015,8426,720993,0
13,-1,637388,219741,1284843,65955,8313,642381,0
13,2,707830,247819,1490907,74121,9696,744685,0
14,-1,692527,237489,1347445,70835,8263,673730,0
14,2,761671,266769,1361319,78832,7999,680632,0
14,2,765359,268762,1479526,79742,9383,739638,0
14,2,731559,253114,1439559,77072,10272,719681,0
14,-1,694575,237208,1239568,70680,7699,619816,0
14,2,702932,247416,1318600,73516,8241,659319,0
14,2,706510,247661,1422356,73608,9464,711175,0
14,-1,637412,218456,1182067,65477,7024,591045,0
14,2,706798,248241,1397504,73794,9023,698773,0
14,-1,636162,218193,1186690,65524,6938,593150,0
14,2,713601,249249,1385506,74151,8506,692564,0
14,2,708959,249087,1322569,74003,8741,661247,0
14,2,710449,248297,1416229,73775,9075,707486,0
14,2,712764,249089,1311058,74163,8540,655565,0
14,-1,644561,220616,1307233,66400,8054,653557,0
14,2,714273,249470,1467301,74508,9263,733709,0
14,2,714443,248934,1325880,74173,9465,662592,0
14,-1,636605,219255,1314415,65948,6960,657232,0
14,2,709791,249459,1375108,74321,9017,687606,0
14,2,726736,252618,1364782,77084,9391,682435,0
14,-1,639401,219808,1293540,66302,8039,646815,0
14,2,712066,250560,1709742,74931,10026,854861,0
14,2,714525,250087,1503858,74606,10320,751818,0
14,2,729297,253763,1392259,77424,9250,696069,0
14,-1,666575,224863,1221121,70048,8298,610326,0
14,2,706246,248829,1290474,74063,8857,645185,0
14,2,711922,248860,1310059,74019,8924,654970,0
14,-1,635118,218671,1200001,65721,7618,599957,0
14,2,712818,249999,1422188,74600,9227,711026,0
14,2,710240,249577,1617065,74298,10403,808503,0
14,-1,640722,220256,1294048,66363,7052,646940,0
14,2,732576,253658,1536524,77352,9534,768247,0
14,2,707503,248473,1395482,73773,9372,697782,0
14,-1,640217,219256,1237150,65783,7802,618499,0
14,2,712770,250236,1551369,74681,10611,775434,0
14,2,712343,248803,1388331,74042,9253,694168,0
14,2,707134,248285,1439029,73669,9119,719526,0
14,-1,637881,219765,1357862,65985,7834,679035,2
14,2,709489,249154,1378620,74009,8687,689289,0
14,-1,640795,219406,1347509,65828,7562,673759,0
14,2,711868,249104,1397233,73970,9288,698662,0
14,2,720065,252102,1460277,75418,10069,729740,0
14,-1,641730,219966,1271466,66083,7638,635479,0
14,2,711272,250661,1526052,74409,10291,763077,0
14,2,736395,255208,1396213,77681,10044,698255,0
14,-1,640162,219111,1379009,65827,8398,689436,0
14,2,711814,250090,1434460,74288,9690,717265,0
14,2,732750,254375,1371413,77508,9899,685778,0
14,-1,643444,221354,1311719,66880,7727,655898,0
14,2,714568,249311,1342291,74181,9338,671165,0
14,2,708223,248627,1366271,73792,9337,683017,0
14,2,708929,248401,1362232,73841,9814,681185,0
14,-1,661557,223526,1314135,69144,8860,656884,0
14,2,710661,249318,1476796,74013,9586,738238,0
14,2,713708,248801,1374570,73776,10240,687226,0
14,-1,642413,219661,1439957,66283,8644,719915,0
14,2,708439,248896,1315818,73738,9383,657960,0
14,2,709575,248096,1508601,73572,9828,754337,0
14,2,716716,250639,1398791,74723,9805,699279,0
14,2,739200,258814,1445827,77015,9073,722977,0
14,-1,638128,220040,1285523,66263,7690,642757,0
14,2,713355,248347,1317268,73677,10375,658691,0
14,2,710511,248630,1299108,73782,9182,649593,0
14,2,711532,248766,1416989,73833,9529,707880,0
14,-1,638756,218936,1141493,65944,8181,570768,0
14,2,714249,248368,1351378,73714,9997,675737,0
14,2,712996,248249,1266812,73647,8910,633267,0
14,2,716542,248848,1476218,73864,9357,738146,0
14,-1,644132,221505,1226226,67013,7432,613200,0
14,2,703260,248258,1266229,73188,8720,633169,0
14,2,708893,248655,1552543,73263,9081,776277,0
14,2,713003,250860,1369923,74526,9252,684876,0
14,-1,656286,222807,1254347,68939,7898,627164,0
14,2,713620,249320,1409029,74761,9503,704512,0
14,2,704725,247648,1367936,73932,8806,683964,0
14,-1,643951,220095,1289026,66149,7702,644507,0
14,2,707531,248680,1324585,74388,9195,662191,0
14,2,711497,248432,1472111,74188,9411,736024,0
14,-1,643220,221551,1305695,66842,8109,652781,0
14,2,712939,249754,1336330,74840,9218,668193,0
14,2,708471,248729,1303195,74312,9927,651541,0
14,-1,636839,218862,1242263,65769,7114,621088,0
14,2,706418,247667,1444135,73947,8961,722109,0
14,2,709629,248413,1289969,74218,8614,644809,0
14,-1,636881,219782,1202949,66067,7393,601387,0
14,2,720047,251169,1469776,75391,9902,734737,0
14,2,712450,249282,1317693,74664,8681,658949,0
14,2,710615,248767,1372868,74118,8051,686138,0
14,-1,637923,219002,1169807,65823,7034,584873,0
14,2,713176,248529,1423921,74144,9246,712001,0
14,-1,639844,219400,1294568,65937,8058,647225,0
14,2,714591,248976,1415306,74305,9598,707698,0
14,2,716032,248539,1314562,74150,9023,657265,0
14,-1,663327,224038,1266476,69287,8330,633180,0
14,2,711870,249768,1343448,74879,9653,671788,0
14,2,716323,250088,1336884,74813,9399,668488,0
14,2,709958,249012,1302322,74467,8022,650992,0
14,2,710872,249104,1442830,74357,10258,721400,0
14,-1,641294,219725,1289452,66103,7744,644725,0
14,2,719895,251189,1481601,75407,10498,740668,0
14,2,714625,249989,1625542,74627,11063,812667,0
14,-1,635411,219494,1292330,65963,6819,646164,0
14,2,722756,251557,1429058,75206,10572,714168,0
14,2,712499,248864,1330911,74236,8978,665497,0
14,-1,643103,221063,1309750,66687,8502,654280,0
14,2,734879,253760,1470063,77638,10672,735091,0
14,2,710656,248552,1379821,74204,9231,689964,0
14,2,714503,248663,1320336,74224,9283,660114,0
14,-1,642687,220842,1272344,66631,7761,636227,0
14,2,715570,250245,1506709,74744,8866,753443,0
14,2,715730,250370,1348062,75032,9203,673906,0
14,2,721107,251076,1389920,75234,10214,695038,0
14,-1,637974,219533,1409910,66055,10080,705115,0
14,2,714149,249080,1355168,74325,9873,677626,0
14,2,716563,249873,1339003,74551,9472,669548,0
14,-1,645300,220590,1237675,66571,8485,618466,0
14,2,713252,248203,1515566,74089,9322,757833,0
14,2,713274,248138,1356738,74219,10224,678416,0
14,-1,662080,223995,1260167,69068,8420,630035,0
14,2,705047,247775,1317375,74108,8745,658737,0
14,2,711999,249737,1424886,74970,8890,712436,0
14,-1,645961,222012,1320888,67019,7755,660448,0
14,2,710657,249036,1413259,74500,8936,706686,0
15,-1,690402,236959,1235652,70686,7383,617790,0
15,2,760917,266756,1496048,78744,8826,747997,0
15,2,782422,272210,1486283,82360,9704,743090,0
15,2,709401,248310,1315425,73741,9490,657659,0
15,-1,698074,238424,1383801,71302,9040,691744,0
15,2,711347,250505,1382866,74821,10040,691195,0
15,2,707030,248562,1351829,73950,8550,675831,0
15,-1,641194,220548,1285566,66506,7768,642798,0
15,2,704988,247584,1303770,73624,8845,651878,0
15,-1,638025,218567,1289335,65536,7221,644756,0
15,2,718944,251151,1453616,75133,8762,726817,0
15,2,709876,249069,1422536,74044,10075,711258,0
15,2,710493,248598,1424432,73874,9823,712208,0
15,2,710981,248216,1355601,73880,8734,677854,0
15,-1,642148,219380,1266235,65853,8091,633140,0
15,2,712252,248843,1327112,74135,9185,663560,0
15,2,711641,248076,1432262,73842,9710,716113,0
15,-1,635664,218905,1174521,65772,6730,587260,0
15,2,706777,248239,1308364,73878,9089,654221,0
15,2,706337,248580,1410424,74072,8545,705292,0
15,-1,635560,218830,1283819,65713,7399,641912,0
15,2,708495,249060,1478679,74132,8300,739389,0
15,2,709106,248307,1529136,73779,10213,764474,0
15,2,708865,249296,1404230,74198,9800,702090,0
15,-1,637300,218400,1185802,65626,7099,592908,0
15,2,713461,249312,1503652,74315,10364,751838,0
15,2,736255,258241,1340217,76803,9023,670105,0
15,-1,644910,221193,1424190,66829,7984,712098,0
15,2,715388,250391,1391349,74680,9454,695649,0
15,2,709143,248399,1324531,73906,8694,662225,0
15,-1,635284,217537,1197553,65385,7293,598847,0
15,2,709276,248858,1370520,74059,8627,685288,0
15,2,713293,250325,1557505,74607,10817,778912,0
15,-1,643938,219603,1181789,65931,7639,590835,0
15,2,710026,248652,1608568,73845,10098,804250,0
15,2,713001,248929,1476390,74029,9780,738166,0
15,2,713572,249870,1497560,74497,10264,748616,0
15,2,714023,249920,1489663,74426,9634,744790,0
15,-1,665335,228757,1309650,68609,7812,654860,0
15,2,716343,250891,1540771,74905,10327,770137,0
15,-1,641401,220320,1237191,66152,7544,618596,2
15,2,734047,254265,1455873,77614,10326,728000,0
15,-1,643438,220964,1307869,66591,8050,653737,0
15,2,708106,249762,1424619,74011,10074,712368,0
15,-1,643071,220851,1329168,66691,8384,664596,2
15,2,715684,251306,1450796,74819,9893,725470,0
15,-1,644822,221273,1316402,66810,8002,658091,0
15,2,716346,249685,1316824,74139,9379,658330,0
15,2,715400,249620,1430859,74397,9783,715173,0
15,-1,640926,219468,1405618,66111,8608,702856,0
15,2,713763,248997,1403713,74010,10142,701939,0
15,2,708314,248548,1429965,73749,10183,715061,0
15,2,710510,248765,1497478,73926,10867,748522,0
15,-1,647063,221147,1353093,66939,7420,676625,2
15,-1,642327,220109,1207400,66296,7883,603635,0
15,2,712194,249250,1777129,74086,12459,888596,0
15,-1,639987,219593,1171096,66154,8078,585275,2
15,2,712662,248482,1431705,73512,10264,715838,0
15,-1,644146,219453,1337279,66113,8382,668609,0
15,2,706557,248832,1484200,73795,9451,741859,0
15,2,710006,247938,1334961,73521,8577,667167,0
15,-1,641435,218850,1345928,65888,7808,672845,2
15,2,733197,253494,1467828,77177,10413,733907,0
15,-1,634789,219388,1152648,66113,7853,576303,2
15,-1,641330,221693,1410123,67077,9303,704872,0
15,2,714001,250025,1342563,74437,9584,671127,0
15,2,731809,252517,1319355,76794,10193,659792,0
15,-1,639299,221892,1356705,67221,8531,677857,2
15,2,708474,248487,1244384,73810,8479,622131,0
15,2,707008,247725,1310908,73533,8719,655496,0
15,-1,636490,219470,1237769,66132,7349,618980,2
15,-1,640054,219808,1223847,66211,7951,611915,0
15,2,718227,250721,1335544,74831,9589,667846,0
15,-1,636102,219984,1293069,66276,7465,646587,2
15,2,714293,249303,1323468,74203,9266,661692,0
15,2,719142,250163,1346757,74469,9528,673376,0
15,-1,637339,219180,1286936,66026,7031,643540,2
15,-1,638774,219780,1224172,66192,7291,612142,0
15,-1,635441,219110,1152745,65995,7334,576422,2
15,2,711738,251005,1317058,74255,8567,658697,0
15,-1,639107,221219,1317094,66925,7818,658611,2
15,2,703947,247932,1327173,73042,8727,663522,0
15,-1,635782,219235,1136502,66029,7428,568348,2
15,2,728496,253199,1470942,76759,9797,735416,0
15,-1,638463,219296,1367945,66027,8420,683981,0
15,2,712005,248773,1407141,74351,9452,703505,0
15,2,708497,249359,1361231,74740,8687,680611,0
15,-1,640738,219420,1212605,65974,7126,606339,0
15,-1,634764,219502,1261736,66040,7816,630897,2
15,2,707196,248169,1397234,74113,8952,698631,0
15,2,711086,248660,1435274,74615,9355,717665,0
15,-1,639497,219167,1496900,65832,9363,748498,0
15,-1,642704,221429,1299516,66913,8416,649963,2
15,2,707910,248107,1450462,74083,9566,725207,0
15,-1,641568,219717,1161065,66120,7869,580458,2
15,2,706927,248329,1247347,74129,9664,623623,0
15,-1,641384,220269,1211562,66220,7215,605787,0
15,-1,634816,219595,1273021,66082,7604,636511,2
15,-1,639813,220976,1463802,66495,8057,731481,2
15,2,712450,248808,1308231,74240,8984,654150,0
15,-1,638028,219523,1138737,66080,7619,569299,2
15,2,707150,247869,1261688,73962,9365,630837,0
15,-1,642014,221211,1279016,66843,8265,639347,0
15,2,711260,248186,1443542,74004,9541,721735,0
15,-1,643759,221850,1297962,67079,7997,648979,2
15,2,708056,248301,1338584,74061,8626,669744,0
15,2,735181,257413,1781854,76731,11392,890965,0
15,-1,638291,219177,1324216,65818,7263,662044,0
15,2,711315,248088,1337809,73979,8666,669053,0
15,-1,637087,219700,1290794,66048,7982,645383,2
15,-1,639391,219835,1268973,66061,7000,634215,0
15,2,714010,248321,1329119,74091,9063,664601,0
15,2,717833,249592,1320832,74687,9618,660432,0
15,-1,639700,219212,1321068,65939,7156,660515,0
15,2,708430,249015,1470686,74479,9360,735382,0
15,2,712402,249075,1412730,74495,9351,706323,0
15,-1,643728,220960,1311689,66483,7945,655810,2
15,2,710179,249131,1504590,74505,8887,752263,0
15,2,718702,251131,1356852,75308,9755,678358,0
15,-1,642875,219322,1292333,65912,7961,646167,0
15,2,737930,254116,1528258,77883,11431,764152,0
15,2,715989,250515,1522022,74875,10164,760896,0
15,-1,637227,220606,1335146,66583,7794,667584,0
15,2,736000,253939,1574109,77637,11420,786709,0
15,-1,642571,222060,1424581,67187,8240,711832,2
15,2,713040,249480,1247684,74449,8926,623869,0
15,-1,637927,219599,1290945,66000,7792,645327,0
15,-1,636166,219600,1195502,66028,7559,597677,2
15,2,716718,249179,1332796,74408,8530,666324,0
15,2,709761,248786,1392899,74243,9422,696458,0
15,-1,634836,217885,1210947,65534,7645,605531,0
15,2,712231,248875,1319879,74240,8566,659839,0
15,2,709253,248112,1411164,74064,9217,705625,0
15,-1,636928,219186,1217396,65867,7772,608730,2
15,2,735656,253708,1462829,77715,10072,731413,0
15,-1,644421,221398,1279495,66928,7575,639795,2
15,2,739850,254660,1549534,77908,11347,774790,0
15,-1,638624,219609,1189339,65994,7501,594656,0
15,2,711568,248823,1331759,74212,9075,665921,0
15,-1,637367,219290,1274984,65980,7977,637258,2
15,-1,664409,229245,1318035,68923,8026,659072,2
15,2,711936,248654,1504398,74155,10429,752251,0
15,-1,641965,220501,1319411,66350,8034,659813,2
15,-1,642197,219675,1146991,66093,7676,573426,0
15,2,712414,247822,1338860,73922,9822,669325,0
15,-1,638729,219881,1172426,66163,6607,585993,2
15,2,714992,248895,1322364,74715,10298,661167,0
15,-1,640212,219151,1333565,65712,7740,666767,0
15,2,704482,247270,1298029,73959,9132,649056,0
15,2,708197,247852,1315944,74121,8223,658007,0
15,-1,638084,220244,1218572,66130,7385,609285,2
15,-1,639399,219990,1230368,65991,6748,615124,0
15,2,706766,247662,1293890,74093,8463,646992,0
