0,3,762630,266801,1423624,78776,9044,711479,0
0,3,708065,247750,1381779,73531,9521,690357,0
0,3,704958,247719,1330449,73672,8881,664848,0
0,3,715343,249298,1370786,74082,9441,684973,0
0,3,711115,248233,1316201,73845,9139,657653,0
0,3,703615,247844,1345766,73782,9099,672581,0
0,3,708375,248547,1314019,73900,8539,656681,0
0,3,714100,249782,1613014,74317,10050,805655,0
0,3,712282,249051,1349289,74120,9815,674109,0
0,3,709258,249042,1390171,74079,8526,694618,0
0,3,710164,248592,1390196,73797,9567,694718,0
0,3,708453,249470,1655810,74021,10891,827466,0
0,3,709873,248963,1422297,74002,8985,710617,0
0,3,707318,248006,1371549,73652,9066,685220,0
0,3,708249,248667,1362007,73673,9489,680609,0
0,3,709534,248167,1315720,73611,9113,657532,0
0,3,713684,249791,1452356,74401,9105,725180,0
0,3,699151,248203,1453668,73111,8595,726300,0
0,3,729705,252724,1407279,76607,10057,703060,0
0,3,711753,249139,1696321,74487,10357,847062,0
0,3,714404,249385,1461338,74747,8840,730302,0
0,3,708357,248807,1467812,74311,9563,733584,0
0,3,709907,247837,1451707,74025,9127,725504,0
0,3,711219,248051,1325629,74070,9088,662430,0
0,3,712964,249834,1399026,74849,9115,699174,0
0,3,717693,250289,1403613,74831,9643,701354,0
0,3,712863,248520,1470585,74164,9234,734975,0
0,3,717331,250293,1494053,74770,9426,746523,0
0,3,715501,248841,1347973,74251,8849,673712,0
0,3,714317,248510,1515546,74236,9251,757346,0
0,3,730259,252616,1459921,77514,10649,729527,0
1,3,717551,251145,1691376,74919,10595,844926,0
1,3,707225,248069,1324965,73794,8254,661881,0
1,3,716806,250110,1437621,74500,9389,718358,0
1,3,706941,247537,1465792,73712,10350,731187,0
1,3,705385,248488,1482235,73949,9379,740796,0
1,3,707948,248935,1401467,74055,8610,699999,0
1,3,712262,249129,1474079,74087,9418,736754,0
1,3,714060,249262,1399225,74168,9807,699215,0
1,3,707719,248879,1511662,73992,9156,755323,0
1,3,714213,250224,1424144,74541,9978,711645,0
1,3,714053,252280,1495313,75343,10464,746841,0
1,3,708463,248767,1496232,73904,9711,747650,0
1,3,712857,249574,1499309,74413,9617,749180,0
1,3,711601,250376,1364200,74582,9978,681544,0
1,3,711439,249119,1365098,74174,9484,681603,0
1,3,708910,248136,1445312,73607,8871,722241,0
1,3,716086,249218,1464231,73843,8158,731617,0
1,3,704009,247375,1276737,72980,8797,638273,0
1,3,708389,248318,1449016,74137,10248,724137,0
1,3,712751,248619,1353729,74299,8671,676532,0
1,3,706209,248272,1397015,74210,9290,698148,0
1,3,709916,248234,1451446,74191,9319,725338,0
1,3,712700,248275,1355405,74154,9120,677318,0
1,3,711194,248481,1480583,74358,9447,739880,0
1,3,716011,249810,1447046,74612,9153,723132,0
1,3,712695,248565,1466377,74149,8797,733000,0
1,3,715707,250132,1452397,74649,8911,725842,0
1,3,716270,249745,1423862,74534,8656,711643,0
1,3,710601,247600,1431231,73893,8623,715289,0
1,3,706898,248032,1525973,74284,10657,762146,0
2,3,730365,252658,1526979,76941,10748,763260,0
2,3,705202,247638,1448854,73601,8243,724120,0
2,3,713807,249111,1388938,74027,9436,694027,0
2,3,732252,253872,1398948,77592,9296,699099,0
2,3,706452,248929,1538436,74145,9895,768911,0
2,3,707805,248993,1449505,74086,9120,724316,0
2,3,711588,248981,1495127,74020,10151,746846,0
2,3,712995,249031,1484332,74116,9310,741621,0
2,3,712698,248833,1346884,73955,9133,673250,0
2,3,711449,248947,1400328,73937,9571,699615,0
2,3,706086,249019,1328326,73806,9292,663713,0
2,3,708692,248897,1407455,74037,9521,703367,0
2,3,709494,248853,1398208,73992,8970,698659,0
2,3,707355,248450,1406111,73612,9287,702577,0
2,3,706829,247692,1426174,73412,9222,712575,0
2,3,711338,249008,1485613,73865,9170,742459,0
2,3,716684,248421,1556125,73614,8988,777911,0
2,3,710128,249950,1386070,74069,9226,692376,0
2,3,708245,247938,1581174,74028,9574,790203,0
2,3,715262,250564,1384775,75267,9100,691719,0
2,3,712683,248140,1308649,74079,8834,653861,0
2,3,711048,248617,1505631,74253,9516,752480,0
2,3,711699,247886,1518899,73959,9621,759199,0
2,3,733204,254205,1606845,77980,11357,803188,0
2,3,715820,250225,1381822,75019,9168,690336,0
2,3,715905,249890,1489731,74819,8541,744257,0
2,3,736630,255040,1780014,78098,11653,889660,0
2,3,718459,249617,1421732,74503,9047,710505,0
2,3,734663,253527,1564138,77664,9520,781598,0
2,3,705950,247638,1506694,74076,9578,753105,0
3,3,711238,248947,1422365,73952,10692,710043,0
3,3,705432,247107,1361269,73396,8566,680223,0
3,3,712245,248579,1512533,73806,8957,755847,0
3,3,712356,248943,1473429,74128,9255,736295,0
3,3,707480,248997,1474714,74403,9669,736227,0
3,3,708852,249520,1415823,74236,8612,707360,0
3,3,711960,249826,1409565,74395,9340,704222,0
3,3,715493,250052,1586284,74633,9598,792543,0
3,3,730320,253266,1382898,77257,9911,691003,0
3,3,710842,248771,1541541,73802,9195,770503,0
3,3,716176,250468,1546277,74331,9305,772732,0
3,3,709696,248399,1436384,73710,9650,717732,0
3,3,706580,248016,1420989,73663,9331,710154,0
3,3,710422,249940,1446128,74150,9780,722642,0
3,3,707496,248284,1374721,73724,8938,686987,0
3,3,707594,247923,1312428,73588,8671,655798,0
3,3,721591,250790,1703265,74715,10510,851030,0
3,3,704837,248166,1399926,73323,9256,699624,0
3,3,709144,248328,1860140,74209,11977,929552,0
3,3,710756,248823,1453781,74349,8972,726469,0
3,3,714682,249114,1276485,74494,9079,637804,0
3,3,710009,248126,1573883,74101,9954,786523,0
3,3,709777,248009,1420541,74066,8922,710073,0
3,3,718062,250830,1447915,75230,9780,723514,0
3,3,718500,249746,1418765,74675,9936,709113,0
3,3,713592,249143,1509641,74429,9634,754382,0
3,3,734502,254220,1540608,77792,10656,769832,0
3,3,714782,249236,1472360,74295,9608,735884,0
3,3,712073,248874,1358129,74311,8457,678625,0
3,3,710170,249710,1669273,75102,11946,833811,0
4,3,709460,248457,1497287,73739,10275,748185,0
4,3,729663,252576,1411801,77072,9496,705449,0
4,3,713733,248742,1690952,73913,9582,844996,0
4,3,711425,248551,1562232,74074,10080,779512,0
4,3,705590,248689,1609800,74048,10502,804523,0
4,3,705855,249261,1470502,74208,9427,734869,0
4,3,711659,249022,1438221,74076,9534,718676,0
4,3,711542,248814,1445161,74053,8927,722369,0
4,3,711454,249173,1443734,74116,9803,721423,0
4,3,730160,252959,1465978,77024,10611,732519,0
4,3,718253,249631,1420030,74114,9246,709520,0
4,3,716344,250579,1426282,74792,10191,712541,0
4,3,711501,248361,1432696,73814,9399,716030,0
4,3,710496,250197,1447142,74403,9373,723041,0
4,3,708007,248195,1458128,73610,9596,728858,0
4,3,729444,253078,1564552,77025,10068,781885,0
4,3,714505,248251,1496069,73629,8860,747706,0
4,3,707170,248157,1262310,73365,8788,630643,0
4,3,706238,247629,1580831,73955,10081,790043,0
4,3,707802,248117,1357795,74104,8256,678551,0
4,3,714977,249792,1309751,74936,8697,653969,0
4,3,707931,247723,1432209,73959,9396,715796,0
4,3,710111,248649,1490794,74123,8639,745018,0
4,3,712457,248974,1496729,74465,9591,747903,0
4,3,715176,249171,1443345,74486,9560,721260,0
4,3,711577,248839,1359817,74193,9346,679576,0
4,3,737498,257911,1658347,76914,10708,828800,0
4,3,716765,249368,1326866,74439,8552,662841,0
4,3,709597,248028,1395852,73992,8530,697591,0
4,3,707667,247773,1435355,74101,9270,717284,0
5,3,709013,248987,1516433,73908,9818,757690,0
5,3,706258,247445,1423770,73568,9148,711512,0
5,3,710861,248044,1408588,73631,8940,703850,0
5,3,710502,248260,1454632,73907,9250,726993,0
5,3,703599,248157,1749896,73851,10364,874644,0
5,3,713827,249463,1425176,74180,9084,712207,0
5,3,714006,250779,1511402,74926,9590,754700,0
5,3,710003,248370,1443460,73814,9049,721385,0
5,3,709600,248889,1412508,74079,9616,705800,0
5,3,711441,249725,1506158,74145,9910,752540,0
5,3,739423,254656,1453589,77535,10377,726472,0
5,3,734902,254052,1357911,77465,10621,678536,0
5,3,717490,250928,1510441,74786,9530,754839,0
5,3,716296,248746,1724653,73718,11676,861945,0
5,3,710246,248528,1442247,73812,9542,720715,0
5,3,715631,248956,1443542,73926,9614,721338,0
5,3,711989,247506,1361675,73273,8107,680440,0
5,3,725969,252320,1372027,76475,9479,685672,0
5,3,707590,248742,1415155,74378,9366,707104,0
5,3,711988,248178,1660877,74170,11031,830048,0
5,3,730242,252233,1467249,77246,10548,733225,0
5,3,713078,249732,1417280,74810,9368,708199,0
5,3,736079,252941,1666720,77345,10844,832915,0
5,3,713745,249270,1526230,74486,9887,762741,0
5,3,713189,248866,1463384,74336,9744,731289,0
5,3,718141,250877,1293323,75126,9008,645905,0
5,3,711097,249145,1432493,74392,9959,715650,0
5,3,713521,249114,1405371,74393,8910,702157,0
5,3,712432,248467,1354823,74148,8908,677055,0
5,3,707507,248518,1486661,74422,10161,743198,0
6,3,715626,250574,1446924,74803,9849,722743,0
6,3,708495,248575,1308664,73964,8092,653885,0
6,3,711621,248892,1384460,73986,8622,691881,0
6,3,710592,248791,1421369,74122,9184,710221,0
6,3,707987,249662,1675031,74401,10556,837055,0
6,3,712223,249875,1477956,74500,8592,738430,0
6,3,729239,253445,1474775,77297,10061,736923,0
6,3,713227,249739,1384231,74347,9363,691617,0
6,3,708493,248602,1447794,73875,9102,723555,0
6,3,708596,248750,1406691,73731,9004,703044,0
6,3,720406,250998,1449865,74531,10016,724483,0
6,3,713406,249700,1351918,74238,10220,675504,0
6,3,711363,248864,1346764,73929,9345,672925,0
6,3,715098,248882,1453857,73744,9874,726549,0
6,3,710242,248575,1465991,73741,8974,732609,0
6,3,710517,247484,1328655,73335,8991,664055,0
6,3,714897,248568,1486345,73703,9085,742815,0
6,3,705384,248260,1339685,73356,9335,669583,0
6,3,706054,247736,1569384,73987,9251,784365,0
6,3,709831,247400,1446282,73800,9375,722873,0
6,3,708392,247332,1380275,73891,8993,689728,0
6,3,710931,248189,1527619,74134,9669,763395,0
6,3,713410,248104,1436428,73965,9261,717898,0
6,3,735267,254560,1689231,78030,11066,844271,0
6,3,718068,250655,1390510,75201,9484,694258,0
6,3,712368,249610,1473430,74484,8551,736331,0
6,3,714834,249736,1346275,74558,10082,672611,0
6,3,717001,249595,1410895,74464,8962,705074,0
6,3,710029,247882,1460121,73947,9041,729578,0
6,3,705010,247713,1360555,74104,8960,679895,0
7,3,707471,247791,1386590,73656,9936,692888,0
7,3,708234,247968,1387799,73776,9275,693276,0
7,3,708039,247914,1447777,73645,8791,723450,0
7,3,714679,249847,1444880,74678,9402,721808,0
7,3,703267,248263,1734880,73833,10375,867104,0
7,3,709596,248565,1368065,73973,8507,683646,0
7,3,710450,248634,1431167,73912,9608,714949,0
7,3,718438,250804,1500891,74963,9391,749759,0
7,3,709001,249061,1400084,74121,9030,700035,0
7,3,710136,249622,1487415,74073,9880,743212,0
7,3,719650,250425,1390065,74399,9753,694573,0
7,3,710686,248745,1283161,73887,9079,641172,0
7,3,710352,248583,1519744,73791,10065,759067,0
7,3,713301,248436,1524733,73537,9921,761675,0
7,3,712277,249824,1427410,74393,9087,713096,0
7,3,712847,248828,1524584,73877,9180,761632,0
7,3,710436,247442,1640876,73267,10152,819728,0
7,3,704119,247829,1272159,73170,8920,635765,0
7,3,710390,250033,1447862,75028,9155,723197,0
7,3,712055,248627,1369903,74326,9427,684548,0
7,3,712718,248953,1502273,74390,9102,750729,0
7,3,711667,248448,1547022,74164,8967,773201,0
7,3,714683,249110,1456605,74301,9377,728004,0
7,3,710697,249048,1591376,74416,9344,795371,0
7,3,734736,253729,1632804,77766,10616,816090,0
7,3,711722,249815,1377221,74778,8461,688153,0
7,3,710786,248331,1333246,74066,8941,666127,0
7,3,714796,249529,1455690,74469,9121,727491,0
7,3,709654,247955,1346889,73972,8434,673093,0
7,3,710222,248910,1515460,74546,10178,757462,0
8,3,710038,249162,1293487,74139,9099,646434,0
8,3,706488,247767,1311129,73615,8274,655219,0
8,3,711939,248321,1342352,73816,8878,670717,0
8,3,709383,248617,1451891,74097,8556,725500,0
8,3,707410,250577,1605836,75031,10536,801781,0
8,3,709043,248567,1387019,73964,8751,693115,0
8,3,712206,249688,1389207,74513,9816,693498,0
8,3,732990,253276,1456108,77272,10015,727614,0
8,3,713212,251039,1516383,75057,9991,757449,0
8,3,710086,249428,1398996,74092,8909,699043,0
8,3,720229,251076,1402450,74783,9860,700654,0
8,3,710861,249639,1333750,74253,9188,666294,0
8,3,716104,251300,1418735,75001,9151,708756,0
8,3,713756,248898,1491458,73669,9996,745401,0
8,3,709236,247933,1529845,73574,9123,764587,0
8,3,711869,248534,1684621,73674,9332,841903,0
8,3,712489,247523,1475609,73439,10397,737283,0
8,3,707282,248455,1369126,73444,8899,684079,0
8,3,710285,248511,1391569,74292,8847,695319,0
8,3,712110,248557,1442959,74222,9729,721153,0
8,3,708981,248139,1397976,74059,9021,698707,0
8,3,707971,247818,1347505,73868,8563,673395,0
8,3,717640,250172,1353861,74857,8877,676391,0
8,3,708187,248734,1549476,74325,9957,774442,0
8,3,714138,249707,1378200,74675,9265,688737,0
8,3,714328,249058,1431708,74208,8304,715609,0
8,3,708174,248615,1563075,74161,9618,781133,0
8,3,712413,248958,1400370,74212,8829,699838,0
8,3,711269,248466,1523313,74131,9806,761476,0
8,3,705723,247668,1369238,74090,9538,684324,0
9,3,710281,249319,1411273,74377,10419,704599,0
9,3,707612,248211,1386294,73770,8391,692726,0
9,3,716712,250323,1449857,74703,8879,724398,0
9,3,713071,250629,1436099,74890,8924,717405,0
9,3,729572,252979,1508613,77257,10985,753211,0
9,3,715999,251502,1465842,75157,8849,732337,0
9,3,709677,249222,1428038,74096,8806,713662,0
9,3,710756,248702,1417166,74030,8872,708172,0
9,3,709373,248888,1398787,73963,9049,699009,0
9,3,713181,249368,1544292,74024,9992,771776,0
9,3,715179,249710,1346811,74110,9634,672929,0
9,3,710041,248803,1479139,73881,9357,739239,0
9,3,730116,252649,1339681,76910,9629,669475,0
9,3,719749,251175,1570219,74727,10417,785305,0
9,3,709813,248676,1470730,73738,9420,734958,0
9,3,758253,262110,1563262,79726,9841,781268,0
9,3,714208,248540,1363332,73654,9452,681120,0
9,3,704146,248237,1360533,73317,9616,679809,0
9,3,708908,248210,1418219,74105,8936,708729,0
9,3,715392,250083,1369767,75070,9383,684137,0
9,3,709503,248956,1376913,74370,8975,688073,0
9,3,709594,248673,1426268,74161,9021,712787,0
9,3,713393,248551,1479518,74128,9359,739245,0
9,3,717653,250468,1435064,75119,9820,717063,0
9,3,713174,249509,1431929,74592,9169,715546,0
9,3,716374,250581,1346578,75102,9092,672433,0
9,3,709076,249376,1381439,74422,9138,690322,0
9,3,720922,250849,1420514,75168,9233,709112,0
9,3,714360,250322,1430189,75108,9288,714461,0
9,3,703168,247754,1436775,74122,9601,717958,0
10,3,708437,248602,1383834,73960,9815,691115,0
10,3,712429,250791,1647176,74906,10377,822848,0
10,3,710462,248315,1350698,73864,8131,674995,0
10,3,707799,247508,1460385,73620,8749,729848,0
10,3,708846,249380,1450154,74234,9564,724974,0
10,3,729685,253302,1385764,77324,9115,692410,0
10,3,728614,253278,1458857,77250,10021,728961,0
10,3,708628,248098,1339481,73786,8404,669256,0
10,3,705077,248201,1484701,73808,9438,742043,0
10,3,711624,248735,1513431,74013,9966,756456,0
10,3,718062,250046,1595083,74208,11464,797222,0
10,3,713062,250666,1466166,74821,9164,732571,0
10,3,711501,249387,1338280,74115,9512,668633,0
10,3,742982,255152,1507727,77972,10787,753674,0
10,3,708034,248197,1445618,73708,9515,722376,0
10,3,709246,248223,1424001,73688,8933,711611,0
10,3,717286,250064,1387355,74367,9178,692660,0
10,3,705292,247769,1303994,73184,8618,651543,0
10,3,707757,247449,1384750,73903,8859,692029,0
10,3,712230,248751,1382219,74343,9231,690780,0
10,3,711529,247922,1424624,73991,8517,712162,0
10,3,713031,249510,1359970,74632,8858,679595,0
10,3,714223,248437,1393533,74105,8959,696484,0
10,3,711922,249347,1446428,74453,9499,722913,0
10,3,736343,253907,1508364,77806,10098,753763,0
10,3,713141,249068,1450397,74212,8182,724869,0
10,3,714644,249241,1526434,74428,9891,762781,0
10,3,741507,254939,1480105,78038,9810,739625,0
10,3,716001,248603,1334292,74156,9612,666716,0
10,3,709619,248433,1368437,74376,9517,683782,0
11,3,707593,248530,1417802,73843,9561,708571,0
11,3,706075,247659,1401462,73551,8717,700231,0
11,3,708546,247927,1505377,73658,9735,752224,0
11,3,708581,248113,1375282,73866,8757,687230,0
11,3,709854,250081,1504238,74739,9884,750979,0
11,3,708315,248910,1442167,73995,8791,720642,0
11,3,709557,249177,1449718,74120,9237,724247,0
11,3,711650,248850,1343742,74056,8404,671492,0
11,3,706286,248799,1432876,74046,9508,715924,0
11,3,711048,249060,1533643,74062,10361,766310,0
11,3,713250,249227,1479649,73934,9630,739487,0
11,3,711385,249132,1471182,74008,9519,735138,0
11,3,710526,248724,1435139,73876,8779,717235,0
11,3,713254,248642,1341925,73608,8663,670551,0
11,3,709047,247920,1400584,73528,8795,699926,0
11,3,710847,248787,1446780,73810,9294,723054,0
11,3,714250,248995,1526419,73781,9651,762576,0
11,3,705931,248333,1334358,73395,8795,666722,0
11,3,716559,251234,1357994,75398,8518,678354,0
11,3,709410,247863,1331096,73996,9381,665083,0
11,3,713861,249461,1346114,74730,7836,672045,0
11,3,705632,247586,1420374,73731,9056,709803,0
11,3,714031,248881,1455353,74234,9791,727349,0
11,3,732131,253765,1605529,77693,9829,802294,0
11,3,713503,248718,1488508,74223,8615,743949,0
11,3,712586,249256,1421581,74372,8595,710331,0
11,3,715150,249127,1490011,74330,10165,744592,0
11,3,715334,248778,1440573,74174,8732,719908,0
11,3,716981,248623,1437402,74093,10705,718270,0
11,3,710801,248983,1492219,74757,9713,745457,0
12,3,711248,249899,1477602,74623,9444,738292,0
12,3,707576,248087,1455362,73710,9155,727307,0
12,3,707673,247539,1480499,73543,8901,739751,0
12,3,728941,252825,1442224,77219,9459,720550,0
12,3,708358,249561,1558592,74341,9944,778925,0
12,3,708452,248946,1448039,74034,8605,723679,0
12,3,715053,249905,1493868,74511,10372,746339,0
12,3,711079,248843,1494363,73999,8620,746749,0
12,3,716058,250019,1491365,74646,9776,744907,0
12,3,710304,248396,1509589,73852,10389,754674,0
12,3,722785,251865,1479971,75083,9699,739309,0
12,3,709003,248221,1352471,73724,8617,675912,0
12,3,711492,249584,1548649,74143,9542,773959,0
12,3,713010,248108,1471516,73396,10300,735405,0
12,3,710558,248820,1482955,73867,9312,740958,0
12,3,710272,249190,1371430,74188,8825,685208,0
12,3,714658,248780,1529969,73706,9243,764944,0
12,3,704755,247993,1444523,73272,9055,721733,0
12,3,730169,253133,1464390,77568,9624,731741,0
12,3,713890,249892,1355058,74903,9728,676897,0
12,3,731361,252971,1536144,77483,9908,767660,0
12,3,711841,250521,1396973,75059,9369,697860,0
12,3,712733,248711,1446314,74068,9866,722793,0
12,3,710402,249008,1558879,74396,8760,779087,0
12,3,714723,249749,1541690,74679,9154,770396,0
12,3,712180,249175,1444884,74351,9202,722064,0
12,3,718521,250980,1425485,75260,9565,711719,0
12,3,742152,258752,1458443,77225,9246,728849,0
12,3,718316,249424,1405076,74403,10329,701732,0
12,3,706979,248142,1444397,74294,9397,721700,0
13,3,703656,247912,1356396,73712,8701,677983,0
13,3,708805,249050,1465113,74248,9480,731981,0
13,3,710409,248639,1445852,73798,9584,722563,0
13,3,709673,248865,1432240,74148,8880,715663,0
13,3,729519,256776,1632029,76426,9805,814936,0
13,3,707612,249042,1330971,74115,8233,665102,0
13,3,708737,248464,1508131,73879,9865,753607,0
13,3,710169,248893,1523556,74063,8442,761290,0
13,3,713104,249188,1411068,74096,9474,705158,0
13,3,712816,249496,1361516,74271,9258,679830,0
13,3,717182,250146,1487511,74213,9727,743231,0
13,3,710060,249020,1441103,74035,9197,719890,0
13,3,707571,248382,1330951,73743,8353,664833,0
13,3,715545,249037,1519578,73756,10370,759285,0
13,3,710440,248655,1513404,73782,9207,756327,0
13,3,709914,249333,1383442,74032,8602,691303,0
13,3,711502,248500,1555067,73642,8903,776970,0
13,3,704246,247965,1467833,73180,9772,733573,0
13,3,707606,248184,1368796,74139,9464,684095,0
13,3,711409,247696,1424234,74018,9808,711924,0
13,3,710372,248235,1394103,74147,8293,696694,0
13,3,709438,248234,1342196,74048,9221,670548,0
13,3,711428,248923,1344240,74332,9220,671756,0
13,3,709144,249191,1559473,74455,10190,779399,0
13,3,712918,249316,1475153,74521,9094,737235,0
13,3,711668,249471,1376357,74417,8129,687919,0
13,3,735112,253733,1516446,77655,10829,757970,0
13,3,718287,250578,1332120,75188,8969,665419,0
13,3,716843,249210,1463365,74299,9615,730983,0
13,3,729618,253166,1453768,77683,10752,726501,0
14,3,711553,249074,1433079,74066,8748,716206,0
14,3,722718,251547,1494969,76741,9404,746823,0
14,3,710456,248742,1355116,73825,8945,677227,0
14,3,707935,248362,1299507,73938,8340,649299,0
14,3,711547,251166,1664122,75144,10764,831296,0
14,3,711681,250567,1483643,74785,9510,741311,0
14,3,708473,248489,1391453,73871,9004,695309,0
14,3,714551,250928,1444452,74945,9066,721533,0
14,3,710195,248258,1577873,73810,9531,788492,0
14,3,710090,248508,1483951,73884,9796,741473,0
14,3,714525,249462,1484212,74067,9882,741631,0
14,3,713204,250274,1477361,74595,9893,738118,0
14,3,709510,248903,1467144,73869,9689,732887,0
14,3,715524,249446,1387776,73953,9226,693519,0
14,3,729279,253462,1432245,77182,9575,715924,0
14,3,714273,250006,1439107,74553,9896,718908,0
14,3,710087,247911,1487727,73464,8411,743492,0
14,3,704011,248751,1462379,73519,10015,730677,0
14,3,706383,248279,1412280,74221,9129,705751,0
14,3,712251,248666,1615342,74352,10613,806871,0
14,3,709203,248133,1359710,74087,8195,679543,0
14,3,710074,248740,1459130,74198,9718,729203,0
14,3,712516,248599,1347604,74130,8698,673455,0
14,3,709163,248859,1443709,74312,9490,721457,0
14,3,713018,249247,1433138,74454,8939,716296,0
14,3,709710,249164,1482459,74372,8786,740904,0
14,3,711431,248603,1460671,74119,9316,730131,0
14,3,734209,253596,1491296,77666,10074,745283,0
14,3,714130,248098,1282345,73963,8817,641154,0
14,3,707791,249106,1456210,74780,9588,727530,0
14,3,710231,248039,1370235,74025,9900,684780,0
15,3,709829,248894,1486780,74148,9789,742762,0
15,3,705034,248112,1378203,73819,9191,688742,0
15,3,711871,248803,1383592,73850,8643,691457,0
15,3,706342,248146,1416702,73889,9146,707994,0
15,3,727515,253809,1460393,77522,9893,729770,0
15,3,708308,249227,1460510,74121,8978,729787,0
15,3,727898,252448,1498693,76974,10425,748932,0
15,3,730345,253445,1453269,77369,9305,726304,0
15,3,709445,248307,1360237,73844,8410,679673,0
15,3,714834,250794,1535020,74950,10541,766972,0
15,3,718917,251106,1548719,74812,10335,773804,0
15,3,711831,249884,1554191,74189,9340,776678,0
15,3,708765,249506,1526240,74155,9900,762632,0
15,3,713002,249023,1352359,73766,9670,675860,0
15,3,705787,247898,1341141,73468,9298,670074,0
15,3,733097,253645,1372891,77215,9387,686088,0
15,3,718275,249811,1380438,74285,9392,689399,0
15,3,707446,248864,1464222,73564,10403,731960,0
15,3,707783,248022,1450038,74050,11310,724704,0
15,3,710535,248354,1512169,74169,9783,755744,0
15,3,711508,248995,1401617,74613,9248,700326,0
15,3,712250,249990,1447319,74788,9147,723169,0
15,3,717276,250628,1380434,75120,9292,689453,0
15,3,715849,249439,1540578,74485,9267,769969,0
15,3,734679,254215,1513034,77936,10217,756169,0
15,3,714519,249968,1376320,74588,8613,687839,0
15,3,711941,248804,1429500,74308,9879,714316,0
15,3,716245,248840,1434811,74287,9988,717046,0
15,3,720281,250708,1574187,75118,10155,786163,0
15,3,701848,247490,1414578,74142,9123,706895,0
15,3,709482,248132,1285685,74156,9103,642317,0
16,3,706868,247527,1381400,73656,9338,690333,0
16,3,705587,248582,1356825,73929,9589,677912,0
16,3,716947,250612,1526565,74760,9474,762528,0
16,3,714951,248270,1440605,73939,9057,719867,0
16,3,703626,248501,1526433,74043,10114,762877,0
16,3,712347,250811,1594083,74922,9015,796505,0
16,3,709024,248817,1475900,74025,9234,737238,0
16,3,710733,248941,1426951,74089,9105,712718,0
16,3,710711,248776,1479458,74073,9274,739294,0
16,3,707527,248365,1337645,73796,9249,668489,0
16,3,715862,249992,1400941,74230,9383,699954,0
16,3,708848,248953,1481247,73884,9562,740268,0
16,3,708763,248226,1443570,73681,8995,721337,0
16,3,721336,251603,1363995,74876,10049,681320,0
16,3,713077,248712,1394678,73839,9645,696997,0
16,3,709490,248363,1355137,73732,9602,677176,0
16,3,713648,248541,1494223,73732,9252,746745,0
16,3,708935,249883,1378194,74007,10334,688593,0
16,3,706058,248043,1320562,74084,9803,659855,0
16,3,715076,250135,1414570,75002,8902,706706,0
16,3,708132,247834,1469014,73996,8930,734122,0
16,3,706444,248083,1609839,73919,9739,804511,0
16,3,708780,247853,1317735,73893,8876,658512,0
16,3,714244,249149,1549399,74396,9059,774395,0
16,3,714516,249933,1327722,74707,9284,663528,0
16,3,711146,249038,1447604,74245,9290,723518,0
16,3,716425,250250,1363591,74931,9550,681212,0
16,3,715700,249252,1405657,74470,9237,702428,0
16,3,737629,254123,1597159,77755,10827,798272,0
16,3,704428,247586,1379590,74059,8397,689468,0
16,3,707494,247843,1393953,74022,8556,696733,0
17,3,706832,248081,1479030,73751,8723,739126,0
17,3,705313,249243,1278114,74195,8185,638752,0
17,3,730291,252575,1535261,76875,9049,767302,0
17,3,719305,250775,1810218,74989,11170,904357,0
17,3,707868,249004,1361306,74179,9564,679976,0
17,3,727686,253377,1493312,77331,9503,746099,0
17,3,710277,249413,1462924,74169,8509,731128,0
17,3,712033,248687,1340093,74005,9133,669598,0
17,3,708928,248532,1417668,73849,8248,708485,0
17,3,708497,248553,1345388,73933,8676,672137,0
17,3,720483,251897,1723688,75091,11284,861340,0
17,3,710853,249190,1689316,73976,10435,844304,0
17,3,729475,252891,1459571,76986,9981,729339,0
17,3,735415,253866,1390949,77151,10558,695154,0
17,3,711414,248060,1524573,73576,10079,762126,0
17,3,708253,248069,1305049,73565,9132,652237,0
17,3,712247,248519,1472626,73579,8414,735914,0
17,3,705102,248276,1367532,73346,10010,683437,0
17,3,709622,247961,1353913,74051,10189,676549,0
17,3,730232,252641,1548770,77418,10554,773726,0
17,3,709787,248803,1483687,74382,9436,741138,0
17,3,710471,249182,1359806,74369,9239,679612,0
17,3,708922,248163,1391888,74052,9727,695568,0
17,3,719375,251617,1416813,75589,9263,707812,0
17,3,714102,249440,1457941,74580,9299,728544,0
17,3,710333,249060,1413025,74352,9085,706096,0
17,3,712944,249423,1485511,74440,9073,742464,0
17,3,716676,249842,1494810,74663,9558,746990,0
17,3,713285,248459,1392309,74063,9277,695876,0
17,3,709271,249423,1383409,74920,8557,691138,0
17,3,731929,253446,1574842,77650,10704,787148,0
18,3,708133,248224,1355725,73770,8321,677519,0
18,3,709252,248158,1390010,73822,8798,694541,0
18,3,711392,248704,1361146,73927,9440,680271,0
18,3,732761,252776,1477059,77271,10289,737940,0
18,3,703946,247917,1413182,73782,9320,706609,0
18,3,708499,249048,1432392,74105,8406,715819,0
18,3,703389,247407,1327698,73564,8857,663618,0
18,3,708638,248035,1435078,73707,8880,717159,0
18,3,711204,249117,1342121,74147,9033,670600,0
18,3,713296,250315,1471511,74749,9744,735153,0
18,3,714815,250600,1490310,74444,10373,744603,0
18,3,715670,251516,1480173,75087,10242,738860,0
18,3,707948,248047,1564243,73653,10228,781650,0
18,3,712184,248493,1555124,73585,10069,777211,0
18,3,713588,248740,1587216,73833,10137,793156,0
18,3,709200,248873,1303025,73848,8761,650827,0
18,3,719238,250592,1365785,74617,9070,682383,0
18,3,704045,248138,1378944,73202,10318,689246,0
18,3,708104,247705,1363609,73953,10178,681344,0
18,3,708664,248164,1391045,74155,9213,695048,0
18,3,708221,248210,1509559,74114,8950,754447,0
18,3,711172,249877,1371016,74887,10009,684892,0
18,3,712589,249383,1338758,74611,9858,668878,0
18,3,713907,249453,1495744,74581,9496,747457,0
18,3,717311,250984,1395723,75256,8957,697469,0
18,3,714893,250369,1363259,74926,8692,681119,0
18,3,710336,248760,1431729,74171,9007,715479,0
18,3,714314,249259,1462111,74437,8778,730742,0
18,3,711436,248485,1308268,74078,9041,653354,0
18,3,705684,248526,1336497,74397,8778,667915,0
18,3,709202,248086,1513714,74145,9550,756314,0
19,3,712814,250266,1469562,74737,9224,734038,0
19,3,728044,252400,1487305,76945,10286,742406,0
19,3,711933,249073,1298031,74144,9179,648497,0
19,3,715320,249701,1446035,74594,8880,722407,0
19,3,704232,248593,1499768,74039,9312,748394,0
19,3,706209,248688,1349219,73992,8126,674151,0
19,3,711412,249401,1541122,74131,9315,770144,0
19,3,711457,249575,1468018,74309,9512,733504,0
19,3,712177,249753,1489256,74554,9894,744188,0
19,3,731862,253880,1480436,77441,10256,739554,0
19,3,717071,249809,1501932,74170,9222,750507,0
19,3,731138,254038,1429704,77380,9896,714436,0
19,3,711833,249512,1555038,74127,9789,777200,0
19,3,714771,249150,1365209,73871,9787,682014,0
19,3,711556,248309,1386362,73683,9784,692834,0
19,3,705901,247972,1443877,73544,9326,721529,0
19,3,734242,252913,1589649,76909,10520,794171,0
19,3,704043,248387,1375728,73398,9139,687411,0
19,3,729249,252335,1476605,77320,10654,737706,0
19,3,710561,248537,1449217,74315,9439,724263,0
19,3,714590,249658,1369017,74860,9077,683558,0
19,3,704868,247808,1372874,73890,9406,686434,0
19,3,711822,247869,1272257,73894,9059,635727,0
19,3,712841,249584,1397596,74630,9296,698433,0
19,3,715156,249579,1456341,74551,9889,727854,0
19,3,709270,248759,1444492,74164,9401,721888,0
19,3,734676,253350,1500326,77568,10041,749759,0
19,3,718882,251211,1380847,75421,9378,689806,0
19,3,719799,249883,1635390,74777,10585,817198,0
19,3,708492,249481,1535000,74909,9336,766974,0
19,3,707076,247587,1575321,73926,9649,786692,0
20,3,728728,252904,1457913,77099,9884,728545,0
20,3,708350,248489,1527658,73923,8508,763425,0
20,3,713214,249658,1360243,74504,9672,679337,0
20,3,711204,248651,1336086,74120,8704,667406,0
20,3,725581,253269,1487120,77342,9862,743808,0
20,3,708972,249707,1445898,74449,9103,722361,0
20,3,729535,253250,1403707,77276,9709,701140,0
20,3,712120,248660,1476771,73945,9139,738040,0
20,3,708152,248716,1364256,74004,8389,681736,0
20,3,709715,249236,1518281,74131,9626,758581,0
20,3,716010,249776,1455221,74337,9405,727113,0
20,3,707401,248862,1414535,73843,9208,706612,0
20,3,711847,249728,1606740,74424,10948,802781,0
20,3,713338,248951,1414970,73801,9586,707110,0
20,3,715128,249885,1385649,74400,10000,691976,0
20,3,715149,250418,1405734,74660,9280,702316,0
20,3,712216,247720,1564390,73503,9980,780299,0
20,3,703699,247913,1536336,73161,10402,767753,0
20,3,708875,248611,1436573,74302,10466,717825,0
20,3,712362,249503,1363157,74797,9125,681084,0
20,3,710618,248647,1471238,74312,9904,735491,0
20,3,708497,248758,1375146,74222,8868,687198,0
20,3,711233,247793,1445399,73849,10332,722193,0
20,3,716541,250742,1415392,75182,9046,707090,0
20,3,718607,251587,1359448,75532,9614,679223,0
20,3,718511,249721,1517500,74522,9570,758425,0
20,3,714935,249909,1408801,74650,8978,704012,0
20,3,734697,253500,1569694,77691,10422,784508,0
20,3,718798,250981,1529372,75210,10724,763023,0
20,3,706478,248926,1526648,74535,9314,763088,0
20,3,707106,247939,1500631,74112,9879,749901,0
21,3,704085,247253,1389399,73452,8856,694179,0
21,3,706460,247801,1520462,73649,9390,759887,0
21,3,709727,248640,1262273,73983,8761,630570,0
21,3,712809,249191,1313331,74215,8493,656170,0
21,3,701663,247928,1373819,73791,9126,686563,0
21,3,705939,248868,1280899,74073,8402,640047,0
21,3,710638,250044,1469376,74601,9381,733977,0
21,3,716042,250883,1530873,75052,9241,764770,0
21,3,709565,248311,1501627,73838,8932,750382,0
21,3,708784,248952,1435541,73974,9467,716998,0
21,3,715180,249938,1390274,74216,8539,694660,0
21,3,708278,249620,1434711,74151,9670,716904,0
21,3,709469,249060,1431275,74003,9728,715613,0
21,3,710022,249281,1342287,73920,9956,670728,0
21,3,708261,248027,1361505,73573,10370,680376,0
21,3,732291,253466,1644099,77162,9980,821770,0
21,3,714390,248910,1528199,73933,9718,763822,0
21,3,711336,251036,1380700,74492,9525,689373,0
21,3,705932,247956,1319304,74037,9677,659312,0
21,3,707560,248006,1652926,74057,10218,826137,0
21,3,707737,247939,1395419,74040,9013,697336,0
21,3,714748,249020,1526129,74351,9511,762756,0
21,3,712242,248467,1496368,74097,9401,747739,0
21,3,711166,248811,1563150,74445,10169,780937,0
21,3,711768,249434,1383578,74453,11026,691391,0
21,3,716273,249711,1448252,74462,9771,723277,0
21,3,710964,248688,1497080,74218,9401,748234,0
21,3,714079,249593,1410782,74561,9284,705004,0
21,3,712672,248297,1532153,74027,10291,765403,0
21,3,724798,250991,1456728,75551,8783,727623,0
21,3,712700,249670,1524979,74848,9759,761892,0
22,3,705284,247671,1434370,73616,8633,716797,0
22,3,707221,248450,1525138,73896,8939,762146,0
22,3,707844,248119,1449521,73823,9127,724398,0
22,3,714525,250324,1409716,74889,8921,704069,0
22,3,706177,247970,1306032,73847,7785,652505,0
22,3,705045,248439,1354578,73916,9446,676906,0
22,3,707647,249050,1486951,74085,9027,742969,0
22,3,732189,253824,1405304,77484,9706,702186,0
22,3,714325,250658,1569843,74905,9770,784086,0
22,3,735881,258703,1678095,76917,9901,838563,0
22,3,720044,251598,1501033,75011,9937,750177,0
22,3,718425,250014,1453753,74413,9736,726394,0
22,3,708645,248974,1723081,73924,11011,861134,0
22,3,715246,248437,1540150,73583,10181,769674,0
22,3,713190,248846,1307621,73873,9680,653376,0
22,3,708714,248217,1468653,73622,9154,733858,0
22,3,712671,248656,1480040,73789,9362,739714,0
22,3,725306,253004,1638037,76633,10484,818528,0
22,3,709141,248466,1349546,74217,9990,674414,0
22,3,745125,259279,1647868,77829,11460,823136,0
22,3,713088,250018,1402874,75038,9241,700773,0
22,3,712092,247280,1478853,73841,9170,739110,0
22,3,712777,248875,1560461,74192,9240,779854,0
22,3,713396,250214,1715121,74834,10600,857229,0
22,3,711763,249701,1433308,74646,10894,716174,0
22,3,715043,249652,1368491,74389,8742,683935,0
22,3,715356,250600,1337689,75032,8912,668215,0
22,3,716616,250657,1398478,75123,9338,698656,0
22,3,711893,248448,1453725,74118,9795,726533,0
22,3,717938,249712,1454169,74987,8931,726548,0
22,3,706951,248092,1247239,74091,8317,623284,0
23,3,708365,248143,1493984,73756,8605,746503,0
23,3,711734,250137,1508497,74627,9129,753665,0
23,3,711604,249538,1375667,74242,8866,687443,0
23,3,732036,253431,1589252,77417,9402,794218,0
23,3,714963,248481,1435774,74052,9163,717441,0
23,3,708654,249346,1332500,74260,9722,665810,0
23,3,731415,253030,1405170,77140,10895,702048,0
23,3,713804,250164,1447787,74682,9324,723370,0
23,3,710978,249081,1291152,74137,8962,645188,0
23,3,713328,249899,1397315,74327,9251,697887,0
23,3,736456,254386,1586044,77449,10108,792741,0
23,3,715543,249710,1533907,74100,9995,766717,0
23,3,731002,253481,1297247,77204,10436,648271,0
23,3,722271,251662,1463147,74950,10163,730839,0
23,3,710369,247868,1375068,73508,9868,687381,0
23,3,708582,248625,1326116,73803,8889,662611,0
23,3,717621,250532,1377684,74725,8684,688098,0
23,3,701559,247650,1758035,73099,10605,879272,0
23,3,712697,250000,1270776,74936,9427,634891,0
23,3,733424,252740,1509727,77455,10230,754509,0
23,3,707970,247926,1417760,74009,8640,708437,0
23,3,714965,248929,1525097,74465,9412,762167,0
23,3,710313,248250,1462921,74028,9412,731065,0
23,3,716158,250991,1636482,75426,11241,816709,0
23,3,718468,250980,1670690,75267,11509,834717,0
23,3,714811,248978,1448352,74127,9816,723894,0
23,3,707958,248162,1486580,74049,9487,742774,0
23,3,718328,249230,1458569,74493,9484,728980,0
23,3,712829,249002,1570001,74332,10773,783884,0
23,3,714353,248088,1505044,74264,10023,751671,0
23,3,712690,250550,1552517,75216,10140,775550,0
24,3,708002,248202,1359575,73775,8759,679341,0
24,3,704809,247916,1350604,73704,8397,674902,0
24,3,712608,248928,1505737,74076,10085,752366,0
24,3,712409,248338,1624115,73990,10169,811688,0
24,3,710821,248004,1477889,73825,9203,738558,0
24,3,714683,251121,1418734,75165,9165,708631,0
24,3,709736,248878,1363518,73992,9762,681564,0
24,3,711992,249555,1411147,74296,9524,705172,0
24,3,711081,249688,1357418,74515,9256,678176,0
24,3,715725,250979,1526510,74956,10015,762752,0
24,3,716528,250558,1684763,74375,10707,841773,0
24,3,715506,249559,1320575,74102,9357,659890,0
24,3,710513,249765,1506949,74207,9976,751933,0
24,3,714409,248932,1548913,73788,10395,774020,0
24,3,732343,253131,1418608,77047,10066,708875,0
24,3,713918,251015,1401318,74790,9304,700086,0
24,3,712033,248677,1471294,73831,8872,735890,0
24,3,702436,248020,1423413,73169,9715,711181,0
24,3,706375,247922,1345951,74019,9731,672565,0
24,3,712631,248589,1453325,74293,8972,726260,0
24,3,730615,252923,1453954,77500,10782,726548,0
24,3,711567,248265,1478698,74100,9527,739061,0
24,3,710320,248606,1546784,74169,9734,772952,0
24,3,732580,253105,1614686,77593,11687,807438,0
24,3,716895,250049,1738211,74747,10291,867377,0
24,3,716235,250334,1364182,74641,8855,681458,0
24,3,712956,249416,1310144,74467,9251,654766,0
24,3,717489,249357,1353167,74481,8832,676294,0
24,3,711286,248246,1611193,74003,10329,805639,0
24,3,712754,247809,1349705,74181,9024,674501,0
24,3,729862,253524,1482369,77788,10301,740671,0
25,3,707405,248511,1304137,73851,8232,651665,0
25,3,710768,250165,1447899,74757,8843,723210,0
25,3,713061,250291,1460772,74750,9046,729660,0
25,3,713328,249450,1699887,74259,10583,849019,0
25,3,714629,248313,1483031,73916,9575,741169,0
25,3,727194,252551,1425783,77063,9187,712399,0
25,3,711492,249305,1334883,74183,10091,666970,0
25,3,706747,247762,1336004,73682,8373,667639,0
25,3,706925,248600,1288101,73974,8937,643552,0
25,3,711280,248981,1363997,74001,9000,681757,0
25,3,717328,250099,1429167,74345,9518,714084,0
25,3,718893,251639,1582410,75007,10826,790728,0
25,3,715350,249084,1373267,74106,10108,686245,0
25,3,718991,250907,1430790,74588,10051,714645,0
25,3,709433,248408,1642874,73713,9780,820823,0
25,3,727653,252951,1466696,77043,9969,732902,0
25,3,714312,249897,1360211,74422,8408,679223,0
25,3,702572,248437,1446079,73249,10013,722712,0
25,3,705779,248183,1340909,74104,9116,669523,0
25,3,712666,248692,1493629,74269,8977,746736,0
25,3,706178,247743,1338175,73990,9141,668106,0
25,3,718515,250265,1386699,75112,8729,692724,0
25,3,709483,248323,1507239,74060,9241,753267,0
25,3,713817,249667,1552508,74725,10642,775354,0
25,3,716671,250515,1460537,75134,9358,729722,0
25,3,712436,248848,1414205,74158,9458,706775,0
25,3,710113,248724,1711583,74284,9835,854967,0
25,3,715500,249178,1491154,74443,8700,745113,0
25,3,737489,253684,1537298,77615,10873,768312,0
25,3,713902,247922,1328332,74195,9612,663756,0
25,3,708314,247427,1457645,73948,9587,728637,0
26,3,704544,248077,1326948,73698,8022,663063,0
26,3,706537,248281,1365750,73839,7871,682336,0
26,3,707306,247276,1378009,73657,9232,688448,0
26,3,714383,250475,1496329,74891,9142,747469,0
26,3,715221,249188,1379057,74241,8978,689149,0
26,3,708275,248625,1495536,74022,8242,747414,0
26,3,712201,250072,1398934,74610,10271,698907,0
26,3,729064,253366,1592225,77324,9765,795558,0
26,3,708258,248533,1368214,73914,8676,683718,0
26,3,705993,247785,1532856,73605,9149,766140,0
26,3,713010,249348,1388876,74098,9138,694152,0
26,3,712995,248982,1331647,73883,8976,665431,0
26,3,710404,247812,1362756,73585,9711,680841,0
26,3,713469,249034,1315122,73761,8316,657215,0
26,3,708436,248343,1471656,73694,9768,735440,0
26,3,715448,248137,1417933,73615,8595,708545,0
26,3,712727,248289,1457853,73663,9373,728658,0
26,3,707896,250278,1384995,74032,9532,691872,0
26,3,711939,250507,1320919,75178,9281,659709,0
26,3,712437,249045,1420785,74447,9079,709963,0
26,3,706974,248098,1339995,74159,10005,669515,0
26,3,712590,249079,1370872,74585,8206,684966,0
26,3,710937,248751,1633205,74237,10055,816003,0
26,3,711308,248702,1691450,74238,10568,844906,0
26,3,715941,249623,1620595,74638,11031,809745,0
26,3,714608,249482,1402678,74388,9780,700910,0
26,3,715582,251143,1624812,75326,11649,811555,0
26,3,718377,249554,1444609,74565,9453,721836,0
26,3,714872,249146,1375387,74335,9039,687274,0
26,3,717549,249586,1419574,74936,9522,709206,0
26,3,707610,248061,1465598,74240,9859,732475,0
27,3,754810,264739,1581729,78185,9559,790486,0
27,3,705385,248222,1431159,73858,8291,715090,0
27,3,712562,249722,1382034,74345,9343,690535,0
27,3,709897,248956,1430185,74149,8422,714618,0
27,3,715888,249850,1512402,74661,10012,755587,0
27,3,705537,248350,1455009,73918,9147,726801,0
27,3,708732,249222,1306372,74176,9572,652604,0
27,3,709498,248864,1368149,74018,9301,683293,0
27,3,706063,248643,1350609,73947,8110,674915,0
27,3,709190,249237,1362748,74143,8295,680509,0
27,3,714869,249830,1568710,74330,9527,783888,0
27,3,736772,254643,1455907,77523,10012,727665,0
27,3,733655,253562,1416583,77363,10328,707925,0
27,3,713664,249301,1623010,74036,10826,810565,0
27,3,708705,248232,1428224,73682,9219,713212,0
27,3,714531,248621,1386255,73812,9239,692733,0
27,3,735741,253012,1378922,77032,10436,689071,0
27,3,708903,248240,1447893,73174,9888,723316,0
27,3,728484,252559,1479627,77339,10731,739376,0
27,3,710538,248266,1441587,74136,9673,720513,0
27,3,708629,249136,1311499,74667,9475,655086,0
27,3,711225,247479,1356622,73908,8479,678002,0
27,3,716842,250825,1489079,75171,9064,743923,0
27,3,715845,251488,1413844,75492,9535,706372,0
27,3,717696,250736,1701851,75165,11085,849413,0
27,3,719339,250664,1375130,74968,10153,686973,0
27,3,707441,248305,1430181,74089,10168,714774,0
27,3,719913,250965,1400287,75315,9196,699473,0
27,3,712986,248747,1572980,74170,10134,785707,0
27,3,712841,248641,1474816,74432,9199,736967,0
27,3,705165,246844,1560623,73770,10507,780398,0
28,3,761132,265046,1397759,78260,9847,698492,0
28,3,702813,247787,1412268,73691,8553,705710,0
28,3,708457,248246,1406181,73903,8724,702423,0
28,3,711217,248986,1626748,74200,10836,812711,0
28,3,712071,248267,1440469,73898,9051,719800,0
28,3,709933,250574,1510728,74937,9740,754853,0
28,3,708848,248218,1375517,73719,9830,687341,0
28,3,709799,249581,1295300,74300,9229,647161,0
28,3,731043,253042,1510318,77228,9041,754466,0
28,3,708840,248859,1415407,74060,9653,707280,0
28,3,714233,249954,1705856,74435,11912,852411,0
28,3,714082,250093,1461172,74273,9335,730124,0
28,3,712876,248941,1460709,74050,8932,729980,0
28,3,714666,248944,1438839,73905,10262,719014,0
28,3,705811,247551,1580019,73356,10101,789476,0
28,3,714089,248695,1470499,73763,9821,735050,0
28,3,714020,248488,1299931,73746,9123,649280,0
28,3,727344,252922,1440673,76505,9675,719959,0
28,3,707350,248282,1374281,74171,9076,686709,0
28,3,716475,250737,1408704,75192,9171,703815,0
28,3,733285,257814,1420249,77062,10646,709496,0
28,3,711449,248128,1612260,74045,10050,805786,0
28,3,730768,252882,1570789,77310,10273,784999,0
28,3,730741,254015,1479593,77852,10011,739429,0
28,3,710581,248604,1335324,74339,9109,667297,0
28,3,715419,249377,1341748,74317,9659,670484,0
28,3,714315,249239,1366097,74433,10473,682530,0
28,3,735999,253910,1474777,77796,9755,737016,0
28,3,714711,249326,1426336,74379,9885,712810,0
28,3,714156,247886,1455871,74139,8920,727676,0
28,3,714343,250642,1549360,75363,11073,772084,0
29,3,761628,265655,1338463,78468,9616,668641,0
29,3,704586,248314,1435464,73830,8791,717420,0
29,3,714786,249611,1469556,74267,9511,734347,0
29,3,710624,248203,1335789,73831,8509,667500,0
29,3,712009,248033,1338283,73772,9027,668866,0
29,3,727850,253242,1461834,77306,10222,730577,0
29,3,711167,249554,1351417,74276,9471,675317,0
29,3,713234,250431,1342884,74764,10198,670747,0
29,3,712252,250124,1444128,74662,8895,721498,0
29,3,707615,248729,1500799,73959,10225,749556,0
29,3,712999,249958,1305141,74485,8619,651729,0
29,3,711453,249545,1374372,74045,9567,686740,0
29,3,709397,248015,1366912,73629,8702,683071,0
29,3,713423,249468,1562911,74095,10148,780861,0
29,3,712826,250836,1431981,74801,9871,715181,0
29,3,714487,249130,1341746,73991,9528,670460,0
29,3,714696,249134,1368247,73965,9929,683398,0
29,3,708484,248409,1464638,73241,9378,731966,0
29,3,710266,249393,1437862,74564,10394,717608,0
29,3,708745,248493,1367986,74327,9167,683381,0
29,3,729916,252446,1566507,77335,10764,782872,0
29,3,717407,250355,1471772,75083,8919,735095,0
29,3,711151,249022,1525786,74268,8961,762545,0
29,3,710846,249000,1457869,74460,9604,728630,0
29,3,718437,251301,1384110,75425,9339,691442,0
29,3,712569,249240,1462967,74263,9411,731306,0
29,3,713124,249192,1267879,74357,9502,633548,0
29,3,717858,249792,1303522,74681,9321,651364,0
29,3,718133,250796,1403066,75182,10436,700418,0
29,3,737568,253693,1396620,78400,10127,697865,0
29,3,703626,247008,1465976,73947,9796,732281,0
30,3,763055,266400,1559093,78702,10126,779161,0
30,3,727019,251941,1441744,76800,9139,720385,0
30,3,714038,249650,1633925,74515,10484,816289,0
30,3,711548,248982,1467669,74054,9351,733336,0
30,3,718112,250291,1490936,74886,10065,744785,0
30,3,707944,248869,1474794,74104,8902,737030,0
30,3,708938,248942,1301357,74062,9355,650185,0
30,3,709358,249718,1377179,74260,9813,688225,0
30,3,710531,249024,1439051,74063,9553,719122,0
30,3,707920,249517,1366194,74281,9311,682328,0
30,3,713819,249462,1400456,74291,9972,699675,0
30,3,713851,249593,1430543,74064,10787,714852,0
30,3,716049,250035,1411512,74584,10688,705140,0
30,3,712541,249107,1333345,73971,9057,666241,0
30,3,734525,253223,1480986,77109,9937,740018,0
30,3,713050,248253,1560086,73647,9927,779671,0
30,3,713796,249024,1392251,74094,10613,695489,0
30,3,706661,247967,1505817,73067,8793,751680,0
30,3,704845,248438,1364252,74264,8942,681735,0
30,3,709961,247837,1631560,74006,9984,815451,0
30,3,713770,250046,1424702,74952,9155,711783,0
30,3,708370,247857,1273092,73989,8953,636054,0
30,3,708393,248606,1532293,74175,9308,765761,0
30,3,709364,248532,1397411,74157,8823,698343,0
30,3,711948,249166,1366636,74476,8943,682914,0
30,3,714588,250415,1636613,74685,10111,817214,0
30,3,708446,248476,1427698,74085,8922,713522,0
30,3,715313,249422,1312605,74565,8629,656170,0
30,3,736795,253827,1377405,77614,10233,688309,0
30,3,713267,248229,1280346,74332,9361,639737,0
30,3,706760,247743,1375281,74089,9504,687267,0
31,3,763313,267176,1466230,78996,9532,732650,0
31,3,703463,247945,1376793,73782,8416,687930,0
31,3,711912,248624,1635968,74005,11400,816679,0
31,3,707422,247866,1459979,73588,8668,729554,0
31,3,735530,253416,1408539,77389,10503,703862,0
31,3,708961,249666,1397103,74358,8837,698117,0
31,3,707707,248340,1478544,73831,9760,738873,0
31,3,713592,249130,1374671,74093,9038,686928,0
31,3,716131,251815,1522731,75385,8684,760481,0
31,3,711480,250916,1471595,74996,9962,735133,0
31,3,716214,249079,1412523,74145,10313,705852,0
31,3,716341,250680,1355506,74785,10331,677267,0
31,3,713031,248647,1599445,73901,11401,799700,0
31,3,710259,248198,1384898,73610,9386,692183,0
31,3,711976,248585,1472133,73791,10157,735682,0
31,3,718838,250751,1418069,74821,9735,708318,0
31,3,716172,250315,1383197,74682,8968,690686,0
31,3,706961,248647,1440948,73375,8957,720071,0
31,3,705754,248491,1366995,74204,9658,683326,0
31,3,729588,252843,1507046,77503,9991,753136,0
31,3,707507,248217,1461777,74129,9166,730510,0
31,3,711513,248387,1349945,74182,9051,674616,0
31,3,708217,248209,1428021,74017,9309,713659,0
31,3,711139,249491,1503796,74556,9478,751509,0
31,3,712518,249291,1529177,74415,9712,764273,0
31,3,714302,249207,1449605,74251,9754,724525,0
31,3,716325,250892,1500982,75207,8852,749891,0
31,3,715524,249666,1305739,74582,9697,652462,0
31,3,715468,250092,1345693,74866,9554,672503,0
31,3,712470,248610,1315537,74420,9541,657396,0
31,3,708283,248487,1552115,74395,9915,773822,0
32,3,765200,267255,1510823,78988,10012,755012,0
32,3,726819,253230,1342780,77277,9169,670977,0
32,3,715019,250322,1468528,74716,9290,733614,0
32,3,712077,249737,1725992,74494,11009,862335,0
32,3,713747,249445,1573816,74467,9792,786294,0
32,3,705259,248677,1463881,74019,9279,730697,0
32,3,714241,250835,1580841,74846,10671,789821,0
32,3,716609,250711,1480154,74944,9420,739525,0
32,3,729020,253519,1395584,77377,9082,697388,0
32,3,727650,253995,1370168,77490,9764,684313,0
32,3,721285,251453,1433596,75213,10723,715529,0
32,3,710521,249257,1370263,74062,10577,684825,0
32,3,711804,248595,1628852,73967,11213,813778,0
32,3,711826,248988,1391456,73926,9874,695264,0
32,3,714912,250407,1423625,74567,8934,711253,0
32,3,734543,253059,1516366,77031,10339,757920,0
32,3,733269,253649,1480279,77268,9358,739856,0
32,3,713305,250716,1384322,74412,8856,691394,0
32,3,708659,247768,1313983,73991,9338,656596,0
32,3,708838,248240,1462424,74207,9402,730818,0
32,3,708266,247843,1454092,74003,9710,726765,0
32,3,712722,249347,1279691,74697,9442,639606,0
32,3,712295,250226,1557477,74950,10082,778128,0
32,3,709091,248774,1514996,74242,9967,757136,0
32,3,712755,249479,1458417,74585,9714,728801,0
32,3,713560,248616,1511061,74143,9227,755261,0
32,3,731098,253233,1676437,77528,10135,837841,0
32,3,718641,250655,1428119,75230,8971,713598,0
32,3,711831,249122,1464981,74372,10795,731926,0
32,3,718334,249865,1338941,75001,9904,668935,0
32,3,729336,252755,1407283,77574,10978,703050,0
33,3,762772,266517,1461367,78694,10332,730221,0
33,3,705379,248080,1338576,73776,8928,668942,0
33,3,728837,252614,1425725,77044,10158,712328,0
33,3,709491,249034,1697005,74100,10913,848176,0
33,3,713361,248534,1464924,74040,9571,732071,0
33,3,707477,248897,1450493,74122,9649,724855,0
33,3,707012,248434,1449650,73913,9767,724474,0
33,3,732711,253372,1415926,77330,9673,707416,0
33,3,708719,249193,1446648,74134,9129,722945,0
33,3,716113,249410,1337126,74146,9434,668058,0
33,3,713200,249115,1480188,74107,9935,740114,0
33,3,717738,251672,1439440,75164,10471,718820,0
33,3,710727,248202,1636181,73764,11000,817695,0
33,3,712680,248886,1450922,73835,10062,725093,0
33,3,707533,247855,1356453,73524,8529,677803,0
33,3,710453,247832,1409094,73507,9754,704168,0
33,3,715596,249786,1334225,74373,9131,666548,0
33,3,731143,253581,1536308,77230,10410,767538,0
33,3,715923,249524,1342300,74784,10283,670711,0
33,3,712670,248729,1467800,74325,10045,733451,0
33,3,708284,248447,1339095,74261,8954,669096,0
33,3,709472,248511,1331197,74206,9155,665095,0
33,3,712133,247425,1591890,73718,10388,795607,0
33,3,713477,250021,1334786,75077,9731,666793,0
33,3,717177,250873,1387606,75222,9497,693306,0
33,3,714954,249207,1431804,74209,9344,715505,0
33,3,712973,250034,1618454,74716,10768,808849,0
33,3,715474,249474,1493786,74580,8321,746462,0
33,3,714276,248968,1400284,74203,9004,699657,0
33,3,714478,247767,1289764,74160,9721,644538,0
33,3,704876,247487,1336524,74011,9500,667551,0
34,3,762164,266588,1477542,78716,9666,738143,0
34,3,708346,248949,1261905,74029,8849,630468,0
34,3,707761,247929,1440808,73698,9473,719594,0
34,3,710691,248721,1422029,73907,9317,710617,0
34,3,712583,248585,1451058,74018,9692,725153,0
34,3,711084,251318,1526147,75200,10060,762418,0
34,3,708550,248865,1759605,74002,11371,878431,0
34,3,711404,249075,1545720,74132,9926,772366,0
34,3,706923,248855,1381241,74043,8344,690240,0
34,3,712115,248683,1302214,73986,8915,650409,0
34,3,714633,249546,1473589,74210,9124,736461,0
34,3,713205,249276,1520813,73982,10101,759997,0
34,3,732252,253590,1367309,77351,10020,683317,0
34,3,710279,248428,1477246,73752,9478,738201,0
34,3,706376,247960,1362821,73563,8828,680970,0
34,3,711511,248453,1356976,73683,8857,678085,0
34,3,732840,253536,1512862,77198,9780,755982,0
34,3,706591,248257,1435130,73237,9264,717066,0
34,3,711887,248186,1539524,74187,12061,769252,0
34,3,711068,248137,1449211,74124,9662,724088,0
34,3,714969,250350,1395963,75149,9366,697295,0
34,3,711157,247942,1452411,73993,10048,725819,0
34,3,712387,247995,1455349,73908,9553,727232,0
34,3,729836,252976,1389090,77576,11059,694158,0
34,3,711881,249390,1391644,74490,8899,695472,0
34,3,714106,249662,1333577,74460,8673,666380,0
34,3,711155,249765,1358937,74721,9356,678834,0
34,3,718231,250254,1396331,75027,9628,697862,0
34,3,713537,249181,1493387,74369,9781,746250,0
34,3,715945,248759,1339892,74448,10273,669684,0
34,3,704520,247682,1387736,74084,10225,693328,0
35,3,767811,269387,1615441,80013,10543,806923,0
35,3,734267,258031,1369868,76992,9918,684285,0
35,3,710597,249323,1346874,74252,8870,673006,0
35,3,709536,248315,1341192,73721,8595,670238,0
35,3,715815,250578,1450988,75044,9825,724812,0
35,3,708768,248101,1478908,73862,8874,739096,0
35,3,727767,253198,1539863,77222,10457,769465,0
35,3,710219,248766,1363562,74033,8904,681383,0
35,3,706370,248272,1381466,73814,8627,690308,0
35,3,711728,248460,1445780,73873,9802,722491,0
35,3,714170,249316,1378318,74108,9043,688841,0
35,3,711270,249462,1560513,74079,9819,779768,0
35,3,709179,247948,1437744,73700,10147,718472,0
35,3,714216,250545,1506300,74777,9564,752504,0
35,3,709273,248232,1491688,73621,9664,745386,0
35,3,713230,249303,1396143,74294,9694,697569,0
35,3,710722,248429,1457760,73748,8722,728406,0
35,3,705053,248026,1342700,73115,8438,671039,0
35,3,710241,248242,1361874,74119,10328,680627,0
35,3,709978,248207,1288422,74174,9272,644011,0
35,3,730833,252892,1539336,77479,10318,768728,0
35,3,710749,248277,1596429,74175,10222,797749,0
35,3,713510,248665,1503970,74184,9506,751579,0
35,3,709036,248536,1348839,74349,9508,674095,0
35,3,714187,250125,1441618,74774,9571,720391,0
35,3,714721,250218,1601603,74627,9489,800379,0
35,3,711842,249860,1513073,74614,9761,756072,0
35,3,713572,248985,1410148,74447,9707,704765,0
35,3,709472,248108,1520939,73974,9384,760012,0
35,3,759373,261384,1545145,80144,11252,772125,0
35,3,704308,248032,1369310,74241,10499,684152,0
36,3,785293,271459,1561520,82167,11373,780257,0
36,3,705397,248569,1385886,73951,9077,692471,0
36,3,709192,247997,1388845,73828,9829,693942,0
36,3,704488,247121,1415455,73460,8519,707359,0
36,3,715523,249453,1292515,74340,9608,645799,0
36,3,709448,248716,1421086,74062,8853,710113,0
36,3,709995,249212,1478988,74152,10400,739095,0
36,3,715570,250399,1554251,74754,9337,776245,0
36,3,711789,250519,1471022,74867,9207,734704,0
36,3,731622,253022,1522187,77204,9325,760766,0
36,3,718215,251162,1489142,74959,9652,744189,0
36,3,714261,250102,1833805,74303,11239,916058,0
36,3,710671,249042,1598671,74097,10654,799515,0
36,3,734544,253572,1746096,77269,11282,872655,0
36,3,709548,248959,1376095,73935,9079,687636,0
36,3,731792,253096,1493497,77039,10199,746485,0
36,3,708269,248388,1414904,73780,8896,706932,0
36,3,710061,249472,1556366,73814,9448,776879,0
36,3,715095,249446,1271311,74797,9079,635138,0
36,3,711726,248815,1335671,74338,9449,667472,0
36,3,708092,248064,1427486,74068,9153,713084,0
36,3,713811,249659,1440898,74760,9196,720008,0
36,3,716110,249077,1526056,74347,9270,762641,0
36,3,708442,249470,1263378,74860,9147,631147,0
36,3,709989,248927,1472976,74299,9605,736111,0
36,3,721481,252234,1401219,75639,9810,699373,0
36,3,721917,250802,1413539,75210,9081,706305,0
36,3,714056,249456,1468187,74472,9200,733720,0
36,3,718677,251477,1576009,75413,9976,787032,0
36,3,715857,248738,1433332,74484,9597,716134,0
36,3,707629,247548,1258042,74029,8796,628637,0
37,3,763066,266397,1467445,78720,10372,733240,0
37,3,703966,248043,1424285,73791,8933,711854,0
37,3,708312,247759,1452704,73734,9417,725824,0
37,3,706614,248306,1370000,73837,8773,684615,0
37,3,716628,249951,1367416,74698,9648,683000,0
37,3,710079,248461,1398639,73953,8836,699010,0
37,3,709583,249189,1544960,74141,9906,771933,0
37,3,710093,248687,1382479,74065,8976,690457,0
37,3,705526,248686,1484263,74022,8917,741578,0
37,3,714581,249791,1697648,74366,10627,848205,0
37,3,714975,250198,1419879,74463,9104,709532,0
37,3,715958,250974,1584948,74809,9717,792021,0
37,3,704835,247108,1500184,73428,10648,749786,0
37,3,713460,249612,1520189,74176,9567,759685,0
37,3,728912,252848,1380612,76974,10419,689920,0
37,3,712293,248887,1361532,73867,10343,680450,0
37,3,715592,249322,1397941,74047,9104,698470,0
37,3,706123,248898,1447543,73381,9688,723456,0
37,3,710076,248354,1354876,74263,9597,676846,0
37,3,729837,252787,1398756,77473,10271,698973,0
37,3,708853,248308,1361892,74174,8738,680626,0
37,3,710076,247925,1628932,73890,9576,814154,0
37,3,712561,248193,1531987,73979,10360,765586,0
37,3,707717,247996,1314402,74169,9433,656818,0
37,3,737417,254093,1571358,77878,10374,785269,0
37,3,710337,248946,1571995,74171,11065,785569,0
37,3,739144,253789,1611577,77695,10807,805474,0
37,3,716778,251177,1368803,75424,9390,683756,0
37,3,711421,249238,1487789,74386,9656,743365,0
37,3,712785,248498,1374170,74398,9369,686758,0
37,3,709267,247392,1501687,73914,8953,750361,0
38,3,764158,266872,1559160,78790,10343,779109,0
38,3,711150,248139,1436447,73820,8830,717792,0
38,3,710086,248887,1653687,74056,10812,825952,0
38,3,707167,248046,1488451,73699,8712,743911,0
38,3,712587,248677,1329302,74088,9312,664219,0
38,3,708834,248910,1261937,74100,8606,630533,0
38,3,706995,248341,1497826,73828,9376,748492,0
38,3,712510,249890,1564679,74330,9580,781724,0
38,3,708011,249663,1531349,74512,8974,765106,0
38,3,710892,248288,1373324,73886,9084,686248,0
38,3,714248,249714,1510406,74280,9113,754831,0
38,3,715212,250813,1375955,74561,9059,687519,0
38,3,714282,248985,1405375,74115,9550,701864,0
38,3,712342,249399,1469693,74107,9900,734467,0
38,3,706252,247909,1370102,73546,8926,684667,0
38,3,709816,248387,1354428,73723,9836,676726,0
38,3,712136,248294,1311244,73710,8625,655104,0
38,3,708264,250100,1372325,74105,9128,685451,0
38,3,709762,247661,1260552,73952,9237,629889,0
38,3,709706,248960,1501469,74447,9595,750348,0
38,3,711449,249695,1456703,74832,9183,727811,0
38,3,714690,250479,1468688,75004,9215,733624,0
38,3,715103,249916,1445911,74888,9777,722325,0
38,3,726930,252776,1662317,77427,10797,830775,0
38,3,716028,250023,1480756,74750,9076,740056,0
38,3,716787,251424,1377260,75382,9097,688039,0
38,3,717966,249564,1355705,74546,8874,677518,0
38,3,713526,248783,1500123,74311,8753,749645,0
38,3,714362,248419,1393125,74023,9502,695974,0
38,3,716166,249337,1494324,74854,9902,746645,0
38,3,731565,252653,1482434,77564,9621,740832,0
39,3,763257,266973,1375077,78907,9590,687130,0
39,3,710228,247272,1454186,73448,9006,726734,0
39,3,728904,253071,1449437,77213,9892,724268,0
39,3,708659,249261,1284935,74116,8996,641983,0
39,3,711129,248198,1432993,73880,9169,716158,0
39,3,708880,249175,1279170,74242,8702,639233,0
39,3,708686,249236,1545410,74157,10611,772294,0
39,3,712513,250781,1586163,74948,10675,791701,0
39,3,711321,248658,1470288,74006,8827,734679,0
39,3,711959,248998,1517588,74054,10271,758529,0
39,3,745091,261174,1523898,78065,9443,761355,0
39,3,710016,249477,1509658,74095,9897,754369,0
39,3,712919,248524,1487249,73818,9899,743371,0
39,3,714080,250347,1423490,74634,9288,711167,0
39,3,711168,250256,1420079,74485,9654,709387,0
39,3,711533,248592,1319606,73785,9767,659320,0
39,3,711905,248423,1400809,73708,8583,699977,0
39,3,705579,247741,1358463,72993,8099,678789,0
39,3,711608,248177,1429512,74159,10357,714352,0
39,3,711471,249056,1465637,74647,9460,732042,0
39,3,707872,248443,1665814,74250,10379,832221,0
39,3,728628,252610,1532485,77189,10424,765398,0
39,3,710776,248241,1442689,74058,8800,720925,0
39,3,707395,248789,1439178,74338,9065,719207,0
39,3,714906,249857,1559053,74662,9593,779188,0
39,3,714924,249685,1416587,74520,9397,707626,0
39,3,715033,248886,1512913,74311,9556,756047,0
39,3,716959,250193,1408400,75023,8555,703780,0
39,3,715549,249149,1442322,74298,8144,720770,0
39,3,710081,247490,1452088,74014,9699,725691,0
39,3,709035,247998,1503867,74202,9950,751145,0
40,3,765852,268091,1498836,79401,9275,748838,0
40,3,712206,248275,1453552,73881,9486,726280,0
40,3,706299,247629,1343953,73636,10021,671406,0
40,3,734120,253375,1355890,77235,10516,677582,0
40,3,710851,248245,1489250,73874,9599,744239,0
40,3,709713,249723,1377838,74604,8788,688386,0
40,3,710112,250246,1534870,74683,10114,767856,0
40,3,733038,253310,1578442,77281,11186,788647,0
40,3,708524,248665,1366552,73971,8235,682776,0
40,3,714745,250561,1446626,74889,9182,722328,0
40,3,734057,253949,1479463,77465,9419,739289,0
40,3,732382,254405,1430475,77558,9865,714867,0
40,3,713062,249331,1577908,74103,10459,788776,0
40,3,709937,248371,1434926,73736,9412,717013,0
40,3,707302,248022,1320797,73663,9738,659766,0
40,3,718814,250846,1290587,74771,9831,644349,0
40,3,731863,252666,1465590,76872,9597,732413,0
40,3,708584,249273,1331209,73725,8888,664987,0
40,3,712016,248768,1431528,74312,11283,715409,0
40,3,706797,247957,1774129,74066,11112,886207,0
40,3,706795,248382,1593399,74110,9866,796384,0
40,3,712191,248556,1542577,74115,9316,771061,0
40,3,710778,248548,1449845,74113,9397,724498,0
40,3,706944,248661,1426964,74195,9627,713154,0
40,3,715329,250396,1621679,75058,10150,809510,0
40,3,716601,249986,1457405,74655,9231,728284,0
40,3,717723,250098,1517930,74825,9489,758459,0
40,3,714110,249364,1498638,74555,9207,748721,0
40,3,713549,248820,1472828,74250,8742,735985,0
40,3,711540,248447,1414995,74328,9239,707139,0
40,3,710052,247879,1402646,74190,9224,700644,0
41,3,761588,266750,1536370,78786,9664,767143,0
41,3,709426,247351,1334854,73540,8851,666983,0
41,3,705492,247962,1331697,73737,8666,665357,0
41,3,710292,248136,1343864,73699,9361,671365,0
41,3,712654,248572,1413637,74016,9762,706501,0
41,3,703920,248186,1454802,73927,8533,727012,0
41,3,704061,248263,1476645,73818,8926,738007,0
41,3,712858,249572,1581952,74290,10111,790552,0
41,3,708522,248504,1428048,73893,8748,713615,0
41,3,708743,248616,1491245,73931,9724,745428,0
41,3,712976,249858,1436825,74392,8864,718050,0
41,3,710612,250053,1474215,74379,9047,736380,0
41,3,708981,247855,1388560,73530,9337,693884,0
41,3,713347,249440,1352661,74128,9519,675985,0
41,3,711368,248476,1315688,73790,10039,657342,0
41,3,717698,250315,1344679,74531,10466,671965,0
41,3,712211,248977,1493410,73934,8917,746215,0
41,3,707870,248718,1447845,73368,8612,723524,0
41,3,713425,249847,1306814,75049,9667,652682,0
41,3,706859,248205,1451899,74122,10068,725645,0
41,3,726338,252615,1485949,77417,9857,742357,0
41,3,715094,250120,1376901,74859,8817,687974,0
41,3,713776,248523,1373663,74147,10128,686545,0
41,3,704619,248296,1346143,74121,8762,672831,0
41,3,711271,249099,1523629,74413,10117,760590,0
41,3,714911,249798,1454277,74552,9564,726689,0
41,3,718153,249487,1598525,74510,10922,798448,0
41,3,714473,249675,1341476,74610,8808,670421,0
41,3,735282,253577,1579389,77584,10259,789145,0
41,3,713647,248114,1448911,74285,9036,724135,0
41,3,713764,249689,1449686,74901,9580,723935,0
42,3,766646,269313,1619070,79909,9951,808648,0
42,3,731401,252510,1552678,76981,10457,775412,0
42,3,704298,247761,1381583,73667,9103,690399,0
42,3,730780,253361,1453702,77236,9998,726377,0
42,3,732115,253182,1431906,77354,10089,715552,0
42,3,730130,253227,1380873,77355,9154,690093,0
42,3,707041,248878,1347482,74042,9411,673281,0
42,3,707624,247899,1603412,73723,9852,801350,0
42,3,709787,249367,1372241,74212,8430,685749,0
42,3,713735,248960,1425373,74069,9577,712010,0
42,3,716539,249868,1418333,74367,9771,708710,0
42,3,709570,249633,1450578,74191,10059,725049,0
42,3,709129,248169,1469979,73750,9300,734618,0
42,3,714707,250561,1462657,74773,9833,730751,0
42,3,718582,251337,1566313,74995,10125,783670,0
42,3,710032,248212,1512127,73641,9637,755788,0
42,3,708970,248214,1371268,73706,8347,685274,0
42,3,708926,250193,1374649,74130,9119,686844,0
42,3,729778,252506,1428453,77377,10766,713907,0
42,3,713011,250014,1388202,75045,8913,693550,0
42,3,705332,248390,1429980,74228,9602,714624,0
42,3,709523,248325,1376067,74041,9482,687703,0
42,3,713032,248688,1500650,74181,9122,749828,0
42,3,704944,248981,1512441,74445,8403,755787,0
42,3,712038,248930,1450937,74390,9634,723917,0
42,3,732132,253998,1502018,77850,9448,750570,0
42,3,718438,250766,1383237,75217,9179,690974,0
42,3,716394,250828,1372222,75300,8930,685381,0
42,3,714481,249705,1510341,74533,8855,754762,0
42,3,715716,249717,1448775,74776,8753,723964,0
42,3,708210,248183,1426921,74321,8786,713090,0
43,3,760146,266765,1426105,78846,8823,712355,0
43,3,710019,248078,1404700,73712,8670,701822,0
43,3,707347,248158,1380748,73854,8572,689838,0
43,3,713232,249541,1354313,74224,8829,676684,0
43,3,711484,248566,1459855,74039,9416,729471,0
43,3,708067,248270,1427421,73916,8539,713377,0
43,3,705419,248481,1333567,73885,9824,666319,0
43,3,709451,248650,1737697,73945,11337,868432,0
43,3,710414,249567,1424888,74437,9095,711809,0
43,3,712033,248627,1375914,73942,9344,687534,0
43,3,714265,250578,1455826,74729,9501,727321,0
43,3,711069,250631,1489517,74700,10189,744157,0
43,3,713381,250863,1450684,74878,9479,724666,0
43,3,733218,254077,1512531,77427,9637,755700,0
43,3,731542,253105,1633222,77047,10926,816037,0
43,3,711078,248449,1487957,73722,9171,743590,0
43,3,716536,251041,1420724,74894,9084,709548,0
43,3,702925,248208,1339794,73122,8759,669795,0
43,3,709400,248225,1316486,74175,9789,657877,0
43,3,730382,253065,1529612,77529,9965,764336,0
43,3,709959,247809,1360768,74005,9588,680016,0
43,3,709107,247859,1463543,74019,9153,731384,0
43,3,711568,248600,1485801,74181,9523,742495,0
43,3,735847,252722,1512069,77448,10255,755374,0
43,3,711345,248685,1409357,74376,9745,704322,0
43,3,713146,249613,1482153,74573,9385,740962,0
43,3,715732,248849,1348428,74294,8660,674107,0
43,3,711750,249290,1466624,74452,9963,732992,0
43,3,713811,248784,1519039,74172,9813,758998,0
43,3,709986,247591,1498503,74002,9220,748857,0
43,3,707831,247252,1461716,73962,9292,730341,0
44,3,763809,266715,1401810,78804,9551,700432,0
44,3,707449,247494,1329299,73526,8840,664211,0
44,3,706424,247721,1482227,73617,9557,740720,0
44,3,710261,248732,1354574,73937,9138,676882,0
44,3,709786,248304,1422626,73917,9287,710987,0
44,3,710323,250171,1427072,74747,9007,712909,0
44,3,706432,249345,1253895,74214,8750,626743,0
44,3,708526,248587,1512511,73894,10097,755827,0
44,3,708004,249048,1323600,74129,8538,661238,0
44,3,705981,247336,1398559,73498,8980,698953,0
44,3,713570,248984,1372202,73881,10187,685669,0
44,3,713679,249496,1489150,74105,9849,744295,0
44,3,713701,249543,1377286,74122,10165,688224,0
44,3,709842,248963,1495647,74029,9099,747380,0
44,3,708297,248564,1606130,73754,10490,802064,0
44,3,708825,247986,1601288,73541,9860,800363,0
44,3,733718,253413,1502326,77159,9356,750780,0
44,3,709353,249667,1361153,73859,8460,679980,0
44,3,711565,249516,1294240,74726,9623,646616,0
44,3,706740,247820,1417431,74053,9480,708322,0
44,3,709192,248395,1524415,74227,9695,761826,0
44,3,712576,249840,1344681,74980,8283,671718,0
44,3,709123,248710,1561205,74200,10610,780278,0
44,3,715375,248172,1354563,74178,9317,676934,0
44,3,712069,249790,1488450,74701,9637,744030,0
44,3,713658,250299,1417230,74987,9323,708087,0
44,3,716118,248890,1489917,74265,9626,744687,0
44,3,714642,249276,1452150,74550,9382,725574,0
44,3,712475,249011,1386638,74301,9125,692935,0
44,3,710493,247803,1421296,74164,9400,710242,0
44,3,709230,248388,1499824,74351,10028,749646,0
45,3,767804,268209,1504101,79516,9680,751481,0
45,3,708010,247982,1376397,73633,8386,687747,0
45,3,709279,248918,1375636,74065,9348,687388,0
45,3,710089,249244,1394548,74100,9062,696767,0
45,3,709448,247607,1453673,73785,10056,726365,0
45,3,707656,248505,1358684,74029,8541,678998,0
45,3,704694,248393,1374509,73923,8973,686746,0
45,3,713825,251080,1584081,75014,10789,790892,0
45,3,708234,249198,1389723,74115,8756,694338,0
45,3,711501,248830,1447888,73956,8856,723550,0
45,3,714194,249846,1280389,74255,8931,639695,0
45,3,735268,254714,1495371,77620,10393,747269,0
45,3,709163,248321,1288176,73709,8925,643761,0
45,3,711180,248908,1523609,73971,9995,761356,0
45,3,709864,247888,1473649,73512,9262,735821,0
45,3,714906,250735,1491462,74742,9549,744965,0
45,3,709942,248470,1405608,73778,8533,702302,0
45,3,726333,253089,1576470,76540,10119,787757,0
45,3,710852,248891,1318740,74408,9799,658944,0
45,3,709725,249052,1439867,74458,9536,719476,0
45,3,706606,248059,1650796,74161,11415,824547,0
45,3,707807,248144,1341185,74116,9047,670180,0
45,3,711092,248033,1572753,73951,9337,786047,0
45,3,719756,250263,1436732,74895,9954,717878,0
45,3,714580,249541,1503212,74664,9278,751345,0
45,3,711400,249649,1467009,74626,9825,733200,0
45,3,715241,249083,1436269,74376,9537,717743,0
45,3,717319,250415,1509148,75094,9412,754122,0
45,3,711450,248160,1386640,73992,9267,692725,0
45,3,710251,247828,1399068,74179,9592,699149,0
45,3,707462,248051,1450253,74220,9655,724747,0
46,3,761370,266118,1424171,78594,9500,711605,0
46,3,713440,249701,1471897,74394,9818,734948,0
46,3,710802,249178,1442068,74314,9403,720202,0
46,3,707936,248052,1576641,73700,10860,787730,0
46,3,712272,249102,1403577,74135,8969,701438,0
46,3,705920,248046,1480301,73814,8755,739785,0
46,3,704741,248331,1508686,73786,9737,753893,0
46,3,728883,253322,1523664,77268,9766,761571,0
46,3,709015,249141,1335037,74218,9345,666917,0
46,3,713652,249927,1550596,74570,9240,774680,0
46,3,718814,252038,1427797,75346,10220,712295,0
46,3,712711,249863,1489475,74196,9611,744073,0
46,3,713078,249893,1370111,74431,9826,684427,0
46,3,713244,250191,1509889,74560,9533,754325,0
46,3,713409,250262,1447253,74509,9076,722493,0
46,3,712313,248688,1375109,73812,9498,687219,0
46,3,709257,247950,1424781,73554,9347,711880,0
46,3,704217,248611,1458839,73253,9773,729010,0
46,3,706569,247784,1305111,73986,9209,652164,0
46,3,707138,248183,1455669,74174,8600,727417,0
46,3,709169,248577,1439670,74232,10074,719507,0
46,3,712443,248196,1570191,74155,10176,784417,0
46,3,715956,250001,1449468,74899,9340,724284,0
46,3,715056,248497,1483589,74110,10066,741317,0
46,3,717347,251013,1391643,75331,8882,695213,0
46,3,712975,249912,1482831,74740,9432,740998,0
46,3,717134,250047,1379166,74681,10109,689202,0
46,3,714218,249895,1545932,74600,9823,772635,0
46,3,716091,250387,1370989,75026,9036,684710,0
46,3,736177,252076,1512990,77374,10860,756256,0
46,3,715632,250339,1635651,75258,9978,817051,0
47,3,761905,266738,1505401,78747,9537,752350,0
47,3,710025,248412,1460792,73759,9222,729838,0
47,3,707552,248145,1577632,73817,10280,787363,0
47,3,731182,253546,1624887,77305,10181,811977,0
47,3,713784,250048,1640482,74771,11124,819622,0
47,3,706837,248787,1441485,74103,8631,720367,0
47,3,727419,253835,1391831,77462,8935,695471,0
47,3,706770,248655,1570993,73872,9738,785134,0
47,3,712292,250313,1394022,74814,9401,695944,0
47,3,710712,249051,1662455,74139,10566,830675,0
47,3,713552,250362,1439523,74753,9841,719176,0
47,3,714779,250953,1482429,74775,9703,740533,0
47,3,710025,249170,1350044,73984,9076,674430,0
47,3,709236,249205,1358050,74049,8710,678011,0
47,3,708973,248351,1505718,73671,9893,752460,0
47,3,713959,249871,1416167,74400,8993,707351,0
47,3,715282,250406,1290352,74580,8567,643885,0
47,3,706179,249756,1371681,73872,9026,685223,0
47,3,713032,248416,1435756,74191,10504,717150,0
47,3,710927,247973,1358382,74052,8883,678852,0
47,3,728397,252614,1525923,77420,11106,762599,0
47,3,715616,250317,1403918,75112,9837,701347,0
47,3,714274,249715,1463458,74520,9336,731228,0
47,3,713380,247803,1386087,73935,9543,692641,0
47,3,716634,251030,1481646,75444,9797,740175,0
47,3,717438,251002,1423486,75311,9030,711069,0
47,3,712864,248684,1533799,74208,10996,766617,0
47,3,718435,251932,1384861,75550,9143,691798,0
47,3,732854,253251,1523405,77491,10567,761130,0
47,3,715926,248511,1367120,74408,8842,683217,0
47,3,706196,246878,1495388,73851,9947,747248,0
48,3,766818,268819,1508998,79745,9442,753941,0
48,3,707343,247459,1359827,73382,8849,679410,0
48,3,704263,247767,1403359,73658,9124,701297,0
48,3,708113,248646,1581511,73858,9614,790337,0
48,3,709830,248239,1528104,73885,9812,763593,0
48,3,706357,248471,1296453,73968,8373,647919,0
48,3,712151,248685,1497792,73892,9925,748535,0
48,3,712866,249195,1447326,74146,10034,723292,0
48,3,711114,249767,1474713,74363,9269,736846,0
48,3,711757,249339,1440053,74153,8927,719582,0
48,3,708625,248787,1443020,73883,9991,721030,0
48,3,710377,249338,1448070,73995,9795,723558,0
48,3,709618,248650,1449818,73877,10133,724378,0
48,3,707936,248636,1478056,73881,9575,737308,0
48,3,708073,248244,1466021,73610,10144,732287,0
48,3,708196,248011,1459026,73628,9059,728984,0
48,3,709963,248546,1322949,73764,9425,660890,0
48,3,709284,248462,1436626,73209,9022,717882,0
48,3,714993,249791,1464273,74918,10953,731485,0
48,3,709845,248072,1471137,74085,8979,735328,0
48,3,709458,248366,1483491,74191,10397,741432,0
48,3,710650,248172,1410968,74140,9160,704987,0
48,3,712495,248640,1472433,74151,9687,736021,0
48,3,714099,248591,1501466,74172,10133,750354,0
48,3,733219,254094,1591620,77968,10311,795391,0
48,3,711134,249509,1484636,74611,9642,741924,0
48,3,712565,248702,1281461,74262,8397,640312,0
48,3,735969,254615,1615738,77916,10682,807455,0
48,3,713251,249340,1369024,74429,8511,684105,0
48,3,713438,247857,1371907,74148,9165,685824,0
48,3,707847,248134,1437116,74280,9119,718005,0
49,3,761449,266738,1514806,78829,8021,756963,0
49,3,713442,250597,1480891,74784,9470,739871,0
49,3,705353,247999,1424110,73768,9106,711576,0
49,3,707147,248569,1393212,73903,8465,696083,0
49,3,711395,249201,1372674,74240,9464,686006,0
49,3,708884,250033,1538549,74742,8877,768635,0
49,3,712506,249530,1407711,74266,9219,703040,0
49,3,711469,249136,1632574,74058,10111,815994,0
49,3,707186,248648,1357442,73943,8378,678373,0
49,3,715406,251044,1378224,75099,9822,688243,0
49,3,713350,249213,1518904,73947,9404,758697,0
49,3,712616,249960,1380762,74266,10130,689871,0
49,3,708864,248423,1508611,73714,9788,753947,0
49,3,713719,248998,1595498,73978,10099,797473,0
49,3,706638,248158,1419655,73598,9156,709905,0
49,3,708420,248211,1464700,73623,8953,732228,0
49,3,734863,252459,1525944,76813,9857,762532,0
49,3,708175,248981,1439848,73394,8453,719491,0
49,3,730864,252684,1411737,77404,10753,705500,0
49,3,711862,248400,1455586,74203,8990,727329,0
49,3,707200,247930,1529991,73980,10207,764609,0
49,3,712205,249222,1361956,74701,9408,680088,0
49,3,713474,249312,1551835,74619,8993,775307,0
49,3,713615,248311,1505885,74047,9856,752598,0
49,3,712190,249928,1494133,74795,9316,746721,0
49,3,711881,249383,1484439,74498,9728,741988,0
49,3,720334,250204,1329462,74923,9848,664065,0
49,3,711602,249257,1391423,74346,8345,695302,0
49,3,714661,250281,1398968,74914,9227,699777,0
49,3,716942,249461,1787228,74836,10781,892838,0
49,3,707190,247455,1408437,74015,9096,703564,0
50,3,760181,266542,1587726,78703,9084,793457,0
50,3,711871,248219,1394758,73722,10202,696766,0
50,3,705745,247947,1334765,73769,8386,666971,0
50,3,713014,250496,1455010,74614,9251,726831,0
50,3,710182,248934,1400967,74170,9462,700160,0
50,3,725381,252792,1580517,77207,9663,789720,0
50,3,716331,250344,1521930,74705,10201,760234,0
50,3,707320,248738,1401554,73857,9464,700207,0
50,3,707514,248861,1324663,74047,8325,662075,0
50,3,732766,253422,1321941,77288,9276,660432,0
50,3,715074,250323,1455284,74547,9712,726948,0
50,3,710053,249301,1300590,73936,8764,649873,0
50,3,730786,253612,1476584,77269,10767,737648,0
50,3,716126,250001,1637220,74508,10451,816597,0
50,3,710740,249096,1606280,73929,10577,801908,0
50,3,712217,248899,1381714,73886,8973,690405,0
50,3,718518,250545,1423012,74614,9703,710887,0
50,3,704112,248127,1432568,73045,8658,715807,0
50,3,709278,248027,1301277,74091,9423,650267,0
50,3,712314,249099,1598249,74725,10069,799052,0
50,3,705715,248016,1380181,74062,10110,689721,0
50,3,708411,247976,1381712,73999,9677,690496,0
50,3,710253,248418,1468060,73964,9566,733744,0
50,3,716741,250107,1408706,74937,9184,703091,0
50,3,710355,249059,1517066,74485,9502,758107,0
50,3,713075,249707,1410300,74679,8538,704732,0
50,3,714714,249185,1409625,74412,8999,704454,0
50,3,711051,249257,1488359,74328,9537,743946,0
50,3,713831,249539,1488684,74481,9732,744014,0
50,3,713842,248573,1599264,74335,10113,799234,0
50,3,706327,247788,1389630,74121,8917,694558,0
51,3,760474,266489,1394394,78693,8972,696640,0
51,3,710245,248027,1423263,73556,9599,711176,0
51,3,726950,253137,1464175,77229,10141,731579,0
51,3,711634,248636,1477112,73771,8842,738203,0
51,3,708325,248237,1442049,73907,9629,720746,0
51,3,704536,248113,1539954,73908,9496,769560,0
51,3,709576,248733,1459854,73952,9013,729448,0
51,3,715526,251121,1563113,75074,11083,780718,0
51,3,705930,248568,1395331,73901,8487,697271,0
51,3,712708,249656,1373289,74324,9161,686253,0
51,3,714484,249511,1472397,74039,9579,735765,0
51,3,711430,250039,1364168,74262,9876,681644,0
51,3,707413,248512,1514950,73753,10822,757056,0
51,3,713474,249555,1393641,74369,9670,696451,0
51,3,708130,248543,1434359,73765,9098,716777,0
51,3,729676,252589,1685832,76823,10667,842572,0
51,3,712807,248751,1490154,73878,9604,744528,0
51,3,715166,251644,1416020,74602,8567,707297,0
51,3,710747,248947,1359404,74394,10128,679318,0
51,3,731464,252923,1646654,77502,10536,822948,0
51,3,708812,248607,1412795,74225,10572,706075,0
51,3,710321,247763,1465231,73923,8870,732231,0
51,3,710223,248723,1550679,74181,9959,774958,0
51,3,732958,252696,1536962,77315,11189,768234,0
51,3,711677,249197,1669599,74578,9645,834354,0
51,3,710915,249226,1420044,74463,9342,709576,0
51,3,714522,249417,1433089,74464,9820,716227,0
51,3,710580,248994,1389676,74302,8989,694448,0
51,3,710022,249115,1476171,74350,9173,737545,0
51,3,710844,247312,1509860,73924,9885,754521,0
51,3,715291,251043,1458755,75487,9700,728615,0
52,3,764036,266705,1432700,78792,9229,715973,0
52,3,715585,250140,1454499,74503,10522,726682,0
52,3,703792,247685,1457100,73525,8992,728120,0
52,3,711399,249235,1405525,74005,8633,702274,0
52,3,715868,248994,1405175,74138,9582,702224,0
52,3,708543,248867,1442989,74116,8825,721199,0
52,3,713596,250288,1616662,74758,10436,807679,0
52,3,730859,253600,1538202,77351,10537,768712,0
52,3,710051,250682,1576031,74926,9572,787387,0
52,3,713563,250782,1450381,74951,9114,724554,0
52,3,712346,249050,1549051,73903,9907,773998,0
52,3,739202,259470,1477671,77039,9161,738286,0
52,3,707431,248351,1379229,73738,9501,689031,0
52,3,709630,248128,1365693,73727,9324,682328,0
52,3,708526,248479,1407591,73669,9203,703442,0
52,3,708029,248305,1552085,73707,9882,775633,0
52,3,712650,247712,1507536,73414,9520,753182,0
52,3,704926,248622,1514909,73328,8996,757064,0
52,3,713586,249626,1267768,74846,9247,633291,0
52,3,706978,247470,1459829,73893,9551,729515,0
52,3,726179,252829,1404188,77421,10887,701740,0
52,3,712525,248896,1477944,74297,9190,738633,0
52,3,709179,248345,1536463,74010,10224,767840,0
52,3,713210,248439,1463942,74150,10040,731539,0
52,3,716179,249152,1465779,74482,9163,732532,0
52,3,713454,250418,1359638,75073,8343,679352,0
52,3,715469,250090,1438565,74668,9387,718854,0
52,3,717125,248874,1414157,74263,9554,706747,0
52,3,718327,250480,1379450,74991,9524,689099,0
52,3,715998,249623,1481894,74993,9480,740025,0
52,3,704777,248023,1488375,74275,9099,743893,0
53,3,761927,266597,1515176,78773,9972,757140,0
53,3,709684,248339,1396010,73740,9978,697397,0
53,3,710221,248439,1438257,73869,9724,718637,0
53,3,715163,250698,1488635,74769,9577,743630,0
53,3,716784,250469,1555506,74944,9314,777113,0
53,3,707915,249371,1457958,74495,9188,728494,0
53,3,709479,248943,1499867,74075,9471,749494,0
53,3,708968,249398,1467657,74225,9447,733226,0
53,3,707077,248114,1451751,73768,8480,725383,0
53,3,709194,249639,1483307,74303,9158,741144,0
53,3,736943,254655,1451457,78078,10317,725302,0
53,3,710361,249452,1465194,73954,9454,732098,0
53,3,715761,249788,1505692,74412,10226,752223,0
53,3,709295,248550,1417075,73858,9021,708129,0
53,3,712880,250751,1462480,74687,9456,730666,0
53,3,705701,247817,1362947,73491,8431,681058,0
53,3,714339,248904,1485727,73924,9308,742355,0
53,3,703641,248145,1577452,73103,9138,787242,0
53,3,707644,247555,1322982,73881,9343,661026,0
53,3,713036,248631,1588006,74327,10143,793558,0
53,3,708359,249249,1467670,74467,10265,733414,0
53,3,714087,250163,1405084,75055,9008,701901,0
53,3,709529,248419,1485264,74078,9400,742156,0
53,3,717753,249725,1379969,74728,9544,689363,0
53,3,716440,249385,1500441,74643,9957,749856,0
53,3,710849,249519,1520149,74589,9438,759788,0
53,3,715454,249208,1456284,74365,9464,727764,0
53,3,717756,249516,1527932,74540,11158,763515,0
53,3,713827,248944,1283123,74304,9265,641185,0
53,3,717784,249837,1346100,74968,9365,672477,0
53,3,711848,248773,1428436,74439,8844,713813,0
54,3,761174,266538,1422846,78808,9354,710953,0
54,3,710138,249012,1393771,73924,8640,696361,0
54,3,709360,247636,1352714,73578,8511,675937,0
54,3,732767,254171,1406649,77357,9401,702913,0
54,3,733770,252881,1469662,77262,9544,732813,0
54,3,706976,248706,1335502,74105,8360,667246,0
54,3,710754,249316,1405638,74196,9342,702393,0
54,3,709748,248752,1600166,73938,10655,799670,0
54,3,710151,249572,1339512,74268,8604,669353,0
54,3,708672,248009,1344809,73744,8608,671997,0
54,3,713420,249033,1352390,73893,8676,676000,0
54,3,710830,249857,1483138,74143,10133,740743,0
54,3,712816,249311,1363497,74079,9021,681488,0
54,3,714345,249050,1425555,74075,9587,712413,0
54,3,730681,254401,1531605,77382,10901,765422,0
54,3,719236,250693,1393571,74666,9487,696320,0
54,3,712012,248717,1469297,73850,9688,734259,0
54,3,704657,248428,1301161,73192,8755,650258,0
54,3,729474,253226,1453589,77544,10446,726637,0
54,3,713014,249069,1446003,74632,9426,722532,0
54,3,703641,247884,1429680,73996,9693,714449,0
54,3,732236,253001,1515219,77479,9578,757209,0
54,3,711900,249057,1504993,74301,9668,752136,0
54,3,714184,248520,1494537,74174,10115,746913,0
54,3,735077,253707,1654567,77843,10378,826864,0
54,3,711031,249820,1419126,74637,8707,709224,0
54,3,713763,248922,1557691,74282,9482,778489,0
54,3,720497,250921,1381472,75209,9395,689678,0
54,3,711119,248237,1321081,74010,9442,660175,0
54,3,714089,248969,1400744,74528,9396,699988,0
54,3,735019,257121,1387223,76952,8763,693149,0
55,3,779575,270577,1515063,81837,10203,757085,0
55,3,707114,247947,1539226,73537,9664,769010,0
55,3,705673,247180,1342941,73373,8704,671094,0
55,3,709306,249038,1305188,73943,8406,652016,0
55,3,710986,247957,1388505,73802,9094,693884,0
55,3,705633,249255,1437189,74257,9314,718238,0
55,3,714519,250019,1507047,74616,9932,753174,0
55,3,709624,249095,1552106,74111,10546,775463,0
55,3,707462,248957,1455032,74029,8792,727107,0
55,3,711114,248755,1484028,73967,9842,741618,0
55,3,714975,250276,1585241,74553,9075,792035,0
55,3,713312,251524,1520219,74976,9558,759214,0
55,3,711743,248190,1508345,73661,10464,753611,0
55,3,710588,248011,1470612,73696,10047,734893,0
55,3,711497,248861,1466188,73766,10208,732769,0
55,3,712649,248492,1492799,73669,9577,746080,0
55,3,711433,247898,1376617,73542,9564,687965,0
55,3,704023,248557,1364187,73237,9598,681784,0
55,3,711687,248588,1414654,74236,10703,706771,0
55,3,709782,247856,1584394,74008,9201,791793,0
55,3,708634,248315,1370191,74218,8639,684649,0
55,3,710765,248839,1350778,74354,8055,674982,0
55,3,709572,248720,1427702,74120,9637,713502,0
55,3,711887,247900,1433481,73855,9861,716405,0
55,3,713806,249556,1456774,74676,9110,727919,0
55,3,711306,249539,1457745,74569,9738,728509,0
55,3,718880,251504,1480273,75505,9294,739428,0
55,3,715644,249692,1325093,74546,8514,662143,0
55,3,731715,253576,1530540,77566,10529,764894,0
55,3,711824,247562,1568821,74001,9324,784061,0
55,3,713008,249900,1485355,75136,10228,741967,0
56,3,760488,266555,1506316,78727,10057,752734,0
56,3,708362,248301,1356129,73726,9103,677625,0
56,3,717077,250988,1483060,74956,10052,740446,0
56,3,709350,249054,1397627,73926,8791,698533,0
56,3,715582,249797,1579634,74630,9802,789115,0
56,3,703151,248530,1415184,74024,8860,707258,0
56,3,709673,248551,1463772,73901,9336,731304,0
56,3,709298,249193,1658129,74077,10731,827896,0
56,3,708874,249041,1508213,74127,8366,753675,0
56,3,711917,249409,1458031,74228,9250,728465,0
56,3,711995,248667,1467373,73789,9466,733316,0
56,3,730284,254234,1581310,77393,10394,790152,0
56,3,711005,248397,1317662,73825,9587,657604,0
56,3,714080,250109,1540140,74662,9853,769413,0
56,3,711125,248921,1642686,73836,11201,819781,0
56,3,711149,248344,1346615,73719,9343,672882,0
56,3,709650,248070,1554084,73572,9534,776646,0
56,3,709362,250999,1304055,74307,9229,651280,0
56,3,707492,247435,1298543,73804,9708,648845,0
56,3,708859,248069,1419174,74112,9561,709330,0
56,3,718703,250120,1387871,75004,9670,693349,0
56,3,711864,249169,1414927,74640,8791,706855,0
56,3,714630,249473,1445790,74604,10081,722344,0
56,3,713362,249206,1367126,74370,9139,683197,0
56,3,716333,249064,1574011,74555,9634,786676,0
56,3,715276,251709,1395648,75579,9562,696967,0
56,3,712001,248897,1622105,74362,10301,810176,0
56,3,716570,249666,1422719,74556,10138,710984,0
56,3,712902,248550,1341396,74115,8720,670231,0
56,3,712073,248276,1496104,74256,9835,747683,0
56,3,708693,248589,1358198,74380,8859,678220,0
57,3,760499,266831,1357163,78827,9079,678030,0
57,3,709051,248156,1460487,73597,9754,729498,0
57,3,735596,253943,1456589,77999,9795,727580,0
57,3,708556,249244,1334840,74047,9011,666840,0
57,3,711053,248283,1285087,73918,9043,642164,0
57,3,711588,250197,1468902,74744,9709,733892,0
57,3,709294,248536,1510127,73905,9563,754609,0
57,3,713161,250635,1653676,74861,10575,825996,0
57,3,706854,248627,1489369,73952,8645,744277,0
57,3,709480,248547,1519790,73900,9709,759531,0
57,3,715621,250750,1474308,74764,9448,736536,0
57,3,716451,251106,1478623,74770,10213,738594,0
57,3,708840,248129,1624848,73589,10546,811916,0
57,3,732792,254039,1616821,77426,10033,807978,0
57,3,710331,249075,1347455,73888,8543,673339,0
57,3,733253,252941,1456545,77029,10376,727864,0
57,3,731611,252733,1572249,76933,9729,785595,0
57,3,724040,253179,1414596,76565,10693,706860,0
57,3,709583,248767,1358251,74342,10003,678603,0
57,3,730269,252620,1506982,77427,10407,753067,0
57,3,733684,252662,1658750,77327,10795,829060,0
57,3,713401,250126,1541676,75113,9631,770139,0
57,3,711874,248547,1474856,74049,9901,737135,0
57,3,714807,249219,1453791,74397,10013,726574,0
57,3,715209,249545,1530724,74729,9764,765017,0
57,3,706163,248706,1456565,74281,9071,727938,0
57,3,716393,250436,1377194,75022,8385,688210,0
57,3,718203,250569,1507621,74852,9695,753469,0
57,3,710682,248406,1456528,74024,9728,727958,0
57,3,708931,247467,1357720,73900,9110,678635,0
57,3,705688,247917,1415055,74206,9548,706983,0
58,3,764198,268330,1772556,79512,10771,885680,0
58,3,707849,248003,1428893,73629,9616,714195,0
58,3,707591,247864,1267392,73721,8466,633225,0
58,3,716418,251159,1541227,74817,11132,769967,0
58,3,710871,248311,1414410,73924,9002,706756,0
58,3,708965,248456,1331670,74020,9156,665498,0
58,3,708287,248500,1365498,73837,9062,681727,0
58,3,709220,248787,1423049,73955,9671,710991,0
58,3,708987,249513,1339648,74284,8265,669389,0
58,3,716051,250555,1530886,74829,10209,764511,0
58,3,712303,249577,1453327,74153,9519,726161,0
58,3,714225,250521,1364489,74385,9443,681514,0
58,3,715381,250147,1466795,74638,10411,732613,0
58,3,711226,248589,1451870,73893,9507,725501,0
58,3,709471,248524,1469056,73651,9266,734232,0
58,3,709843,248011,1488802,73617,9214,744062,0
58,3,710945,248796,1406453,73883,9268,702831,0
58,3,703586,248166,1457237,73084,8907,728320,0
58,3,725232,252551,1434063,76522,9926,716539,0
58,3,707612,247811,1531956,74016,10148,765681,0
58,3,713309,248165,1580993,74167,10131,789924,0
58,3,731308,252267,1513313,77264,10090,756322,0
58,3,710693,248583,1453313,74204,9909,726237,0
58,3,717412,249196,1417449,74675,9210,708232,0
58,3,715634,249956,1505833,74859,8811,752691,0
58,3,716858,249549,1443363,74598,9467,721226,0
58,3,712089,249079,1358572,74326,8645,678943,0
58,3,714981,249388,1331849,74387,8459,665649,0
58,3,709797,248874,1446658,74238,9558,722854,0
58,3,717053,249959,1466938,75085,9145,732663,0
58,3,709366,248435,1304215,74337,9684,651469,0
59,3,759127,266658,1540821,78813,9811,771148,0
59,3,731497,253194,1501165,77144,10271,749992,0
59,3,713293,250194,1402879,74625,10152,700728,0
59,3,710444,249197,1656245,74067,11586,827033,0
59,3,709761,248295,1433718,73937,8350,716430,0
59,3,707325,248154,1274976,73896,8794,637084,0
59,3,712151,250529,1470602,74874,9552,734290,0
59,3,710490,250367,1484344,74699,9989,741583,0
59,3,707282,249314,1411435,74131,9105,705245,0
59,3,710296,249356,1449588,74215,9165,724448,0
59,3,709917,249226,1455583,74046,9919,727221,0
59,3,732204,254533,1398094,77479,10310,698442,0
59,3,712765,249426,1559127,74113,10228,776512,0
59,3,708209,247764,1429386,73585,8669,714311,0
59,3,713412,250505,1434257,74635,9221,716488,0
59,3,737872,258328,1502752,76874,9475,750742,0
59,3,732835,253163,1584017,77094,9657,791591,0
59,3,702524,248312,1379356,73234,9127,689322,0
59,3,704048,248230,1399914,73341,9327,699546,0
59,3,709329,248838,1507074,74357,9868,753115,0
59,3,711332,247655,1376840,73947,9443,688125,0
59,3,710324,248337,1420375,74210,8744,709779,0
59,3,715662,250051,1596306,74952,9501,797365,0
59,3,714013,248265,1529811,74126,9452,764554,0
59,3,713197,249391,1644415,74651,9966,821813,0
59,3,720953,250880,1314935,75202,9441,656871,0
59,3,710259,248642,1417549,74186,9586,708259,0
59,3,724365,252161,1696018,75662,11751,846939,0
59,3,713930,249307,1350760,74426,8450,674948,0
59,3,735464,253620,1567235,77693,10388,783292,0
59,3,712031,250128,1356953,75209,10114,677741,0
60,3,754619,265175,1411379,78265,9074,705439,0
60,3,708231,248341,1347754,73747,8939,673516,0
60,3,705958,247382,1475443,73508,9121,737223,0
60,3,708814,249013,1381930,73886,9389,690558,0
60,3,715336,250357,1464522,74910,9458,731545,0
60,3,707787,248375,1360711,73987,8720,680039,0
60,3,709558,249362,1470099,74093,9264,734677,0
60,3,707908,249097,1374754,74106,9295,686973,0
60,3,709792,250492,1433382,74804,9047,716193,0
60,3,709721,248428,1333098,73923,9219,666076,0
60,3,714936,250209,1383868,74546,10101,691098,0
60,3,709760,249627,1733890,74134,11098,866370,0
60,3,713347,249042,1471297,74009,10076,735133,0
60,3,709637,248625,1476146,73945,8989,737751,0
60,3,707980,248755,1308809,73709,8942,654020,0
60,3,709815,249045,1321064,73959,8412,660098,0
60,3,709159,247972,1364109,73583,9776,681798,0
60,3,706550,248590,1436879,73257,8362,718060,0
60,3,702070,247468,1327272,73051,9105,663169,0
60,3,710471,247801,1477249,73999,9876,738317,0
60,3,710453,247273,1426743,73901,10132,712855,0
60,3,712963,249657,1356142,74837,8533,677521,0
60,3,732246,253213,1550762,77554,10564,775043,0
60,3,714213,248575,1383625,74243,9324,691147,0
60,3,716695,249904,1554323,74808,9644,776838,0
60,3,717772,249860,1367750,74716,10341,683468,0
60,3,735040,252754,1522454,77321,10614,760782,0
60,3,716498,250081,1386071,74787,8534,692455,0
60,3,719007,249484,1418126,74417,9766,708607,0
60,3,710788,248056,1358403,74121,8857,678840,0
60,3,706413,247892,1342821,74163,9718,670768,0
61,3,769501,268535,1582684,79656,10176,790832,0
61,3,703874,247191,1510881,73286,9253,755081,0
61,3,707876,247976,1613920,73719,10272,806482,0
61,3,713079,251340,1462872,74968,9220,730831,0
61,3,710553,248093,1451458,73916,9994,725097,0
61,3,707171,248479,1502571,73965,8872,750911,0
61,3,706656,248713,1316338,73991,9016,657854,0
61,3,707311,249579,1434160,74279,10320,716547,0
61,3,706950,249280,1458684,74141,8865,728821,0
61,3,710350,248764,1420015,74007,8748,709574,0
61,3,713166,249115,1424784,73946,10485,711666,0
61,3,715157,251005,1503773,74757,10638,751335,0
61,3,712273,249101,1384555,74054,9491,692351,0
61,3,710638,249254,1391231,74113,8921,695237,0
61,3,712735,249873,1557139,74136,12235,777854,0
61,3,714310,248834,1462914,73813,9984,731152,0
61,3,712569,248295,1364011,73677,10030,681507,0
61,3,703993,248332,1441750,73211,8615,720567,0
61,3,713725,249794,1337133,74032,9171,667678,0
61,3,731406,253135,1630796,77563,10877,814942,0
61,3,715693,250384,1398931,75146,9217,698855,0
61,3,708938,248151,1380344,74170,9024,689960,0
61,3,707748,247584,1481495,73871,9040,740422,0
61,3,714171,248400,1394391,74242,9695,696695,0
61,3,714610,249856,1555214,74827,9710,777188,0
61,3,715538,249047,1293835,74325,10009,646576,0
61,3,715450,248954,1345420,74359,9007,672261,0
61,3,717550,249881,1462150,74529,9078,730703,0
61,3,716649,248906,1342632,74260,8794,671036,0
61,3,711384,248145,1453905,74078,9215,726740,0
61,3,707793,249246,1506121,74599,9074,752340,0
62,3,760716,266293,1389293,78652,8983,694212,0
62,3,708573,248602,1357515,73839,9090,678563,0
62,3,714938,250681,1485835,74929,10026,742246,0
62,3,733905,253662,1441254,77227,9648,720276,0
62,3,711523,248583,1492138,74081,11439,745602,0
62,3,706286,248746,1488984,74143,8811,744047,0
62,3,712712,249524,1428038,74253,8813,713547,0
62,3,708015,247998,1414323,73665,9440,706676,0
62,3,715815,249556,1440934,74243,9373,720013,0
62,3,729667,253279,1552136,77302,9180,775694,0
62,3,730749,253325,1488745,77147,10818,744123,0
62,3,712223,250604,1476243,74384,9899,737714,0
62,3,712532,249402,1462898,74078,9815,731044,0
62,3,709145,248468,1340272,73858,9110,669659,0
62,3,708783,248785,1352610,73736,9540,675889,0
62,3,729595,252578,1435659,76872,9202,717498,0
62,3,732462,253339,1431317,77127,9671,715184,0
62,3,708247,250836,1422977,74252,8961,710625,0
62,3,707490,247837,1384871,73170,9544,692026,0
62,3,706961,248009,1573732,74062,9929,786470,0
62,3,732951,252694,1533127,77420,10687,765923,0
62,3,712839,249918,1381969,75017,9313,690389,0
62,3,711003,249176,1449328,74461,8939,724248,0
62,3,712261,247954,1378941,74052,9710,689078,0
62,3,713889,250035,1420619,75064,9055,709744,0
62,3,716469,249783,1473472,74612,9661,736477,0
62,3,717004,250173,1402745,74948,9168,700845,0
62,3,716052,249971,1433422,74678,8817,716279,0
62,3,741091,254291,1648846,77811,9948,824033,0
62,3,711922,248740,1334138,74300,8856,666761,0
62,3,706609,248056,1521132,74244,9698,759999,0
63,3,766097,268657,1536927,79627,9848,767904,0
63,3,705192,247993,1430113,73641,9563,714671,0
63,3,728096,252458,1440440,76995,10193,719750,0
63,3,714859,248839,1388032,73953,8723,693570,0
63,3,713515,249749,1369812,74640,9672,684319,0
63,3,710967,249918,1555298,74695,9790,777057,0
63,3,711104,249200,1507343,74196,10765,753122,0
63,3,716573,250524,1514110,74851,10984,756429,0
63,3,718599,250861,1346890,74995,10149,672839,0
63,3,710644,249578,1552599,74233,9091,775771,0
63,3,714849,249979,1506594,74295,10682,752700,0
63,3,710012,249776,1394535,74154,9641,697001,0
63,3,711463,249242,1609087,74112,10138,804199,0
63,3,715642,250695,1494661,74838,9746,746879,0
63,3,710611,249337,1279724,73933,8933,639519,0
63,3,708446,248152,1467141,73654,9348,732957,0
63,3,710623,248413,1377853,73744,9514,688174,0
63,3,701299,247957,1308662,73063,8164,654042,0
63,3,732358,256855,1345539,75823,8964,671980,0
63,3,709741,247886,1556139,74006,9098,777580,0
63,3,711828,248359,1667902,74152,9923,833507,0
63,3,709735,248451,1453866,74199,8904,726576,0
63,3,711355,248313,1541837,74242,9390,770490,0
63,3,713026,248450,1302366,74185,8899,650751,0
63,3,713473,249428,1359375,74644,8909,679335,0
63,3,720639,251452,1583022,75490,10245,790513,0
63,3,712159,248752,1437584,74219,8894,718102,0
63,3,717887,251047,1420766,75221,8920,709834,0
63,3,716413,248922,1477165,74230,9377,738189,0
63,3,713792,249120,1467523,74440,9617,732973,0
63,3,711004,248104,1515340,74230,9566,757324,0
