-1,0,0.0157569
-1,1,0.0151941
-1,2,0.0151941
-1,3,0.0151941
-1,4,0.0151941
-1,5,0.0151941
-1,6,0.0151941
-1,7,0.0151941
-1,8,0.0151941
-1,9,0.0151941
-1,10,0.0151941
-1,11,0.0151941
-1,12,0.0151941
-1,13,0.0151941
-1,14,0.0151941
-1,15,0.0151941
-1,16,0.0151941
-1,17,0.0151941
-1,18,0.0151941
-1,19,0.0151941
-1,20,0.0151941
-1,21,0.0151941
-1,22,0.0151941
-1,23,0.0151941
-1,24,0.0151941
-1,25,0.0151941
-1,26,0.0151941
-1,27,0.0151941
-1,28,0.0151941
-1,29,0.0151941
-1,30,0.0151941
-1,31,0.0151941
-1,32,0.0151941
-1,33,0.0151941
-1,34,0.0151941
-1,35,0.0151941
-1,36,0.0151941
-1,37,0.0151941
-1,38,0.0151941
-1,39,0.0151941
-1,40,0.0151941
-1,41,0.0151941
-1,42,0.0151941
-1,43,0.0151941
-1,44,0.0151941
-1,45,0.0151941
-1,46,0.0151941
-1,47,0.0151941
-1,48,0.0151941
-1,49,0.0151941
-1,50,0.0157569
-1,51,0.0157569
-1,52,0.0157569
-1,53,0.0157569
-1,54,0.0157569
-1,55,0.0157569
-1,56,0.0157569
-1,57,0.0157569
-1,58,0.0157569
-1,59,0.0157569
-1,60,0.0157569
-1,61,0.0157569
-1,62,0.0157569
-1,63,0.0348903
2,0,0.019802
2,1,0.0148515
2,2,0.0148515
2,3,0.0148515
2,4,0.0148515
2,5,0.0148515
2,6,0.0148515
2,7,0.0148515
2,8,0.0148515
2,9,0.0148515
2,10,0.0148515
2,11,0.0148515
2,12,0.0148515
2,13,0.0148515
2,14,0.0148515
2,15,0.0148515
2,16,0.0148515
2,17,0.0148515
2,18,0.0148515
2,19,0.0148515
2,20,0.0148515
2,21,0.0148515
2,22,0.0148515
2,23,0.0148515
2,24,0.0148515
2,25,0.0148515
2,26,0.0148515
2,27,0.0148515
2,28,0.0148515
2,29,0.0148515
2,30,0.0148515
2,31,0.0148515
2,32,0.0148515
2,33,0.0148515
2,34,0.0148515
2,35,0.0148515
2,36,0.0148515
2,37,0.0148515
2,38,0.0148515
2,39,0.0148515
2,40,0.0148515
2,41,0.0148515
2,42,0.0148515
2,43,0.0148515
2,44,0.0148515
2,45,0.0148515
2,46,0.0148515
2,47,0.0148515
2,48,0.0148515
2,49,0.0148515
2,50,0.0148515
2,51,0.0148515
2,52,0.0148515
2,53,0.0148515
2,54,0.0148515
2,55,0.019802
2,56,0.019802
2,57,0.019802
2,58,0.019802
2,59,0.019802
2,60,0.019802
2,61,0.019802
2,62,0.019802
2,63,0.019802
