-1,0,0.0303819
-1,1,0.0295139
-1,2,0.0295139
-1,3,0.0295139
-1,4,0.0295139
-1,5,0.0295139
-1,6,0.0295139
-1,7,0.0295139
-1,8,0.0295139
-1,9,0.0303819
-1,10,0.0303819
-1,11,0.0303819
-1,12,0.0303819
-1,13,0.0303819
-1,14,0.0303819
-1,15,0.0303819
-1,16,0.0303819
-1,17,0.0303819
-1,18,0.0303819
-1,19,0.0303819
-1,20,0.0303819
-1,21,0.0303819
-1,22,0.0303819
-1,23,0.0303819
-1,24,0.0303819
-1,25,0.0303819
-1,26,0.0303819
-1,27,0.0303819
-1,28,0.0303819
-1,29,0.0303819
-1,30,0.0303819
-1,31,0.0651042
3,0,0.031653
3,1,0.0304807
3,2,0.0304807
3,3,0.0304807
3,4,0.0304807
3,5,0.0304807
3,6,0.0304807
3,7,0.0304807
3,8,0.0304807
3,9,0.0304807
3,10,0.0304807
3,11,0.0304807
3,12,0.031653
3,13,0.031653
3,14,0.031653
3,15,0.031653
3,16,0.031653
3,17,0.031653
3,18,0.031653
3,19,0.031653
3,20,0.031653
3,21,0.031653
3,22,0.031653
3,23,0.031653
3,24,0.031653
3,25,0.031653
3,26,0.031653
3,27,0.031653
3,28,0.031653
3,29,0.031653
3,30,0.031653
3,31,0.031653
