0,0,31,646972.129032,220711.838710,1247020.516129,66759.903226,7746.290323,623498.645161,13747.039082,4547.690120,56276.360291,1562.795105,712.616134,28116.861680
0,1,0,-nan,-nan,-nan,-nan,-nan,-nan,-nan,-nan,-nan,-nan,-nan,-nan
1,0,30,642453.266667,219374.500000,1253887.233333,66164.333333,7828.666667,626894.900000,8254.897055,2624.226537,92805.502534,1091.462637,814.111963,46351.141102
1,1,0,-nan,-nan,-nan,-nan,-nan,-nan,-nan,-nan,-nan,-nan,-nan,-nan
2,0,30,643219.333333,219867.066667,1238012.233333,66272.300000,7649.366667,619024.200000,10232.471586,3294.473068,68534.677775,1237.149928,838.147182,34262.305497
2,1,0,-nan,-nan,-nan,-nan,-nan,-nan,-nan,-nan,-nan,-nan,-nan,-nan
3,0,30,643012.700000,219569.766667,1242125.166667,66350.333333,7810.766667,621062.033333,8961.461645,2173.915326,47341.176922,1204.820383,694.684805,23655.511757
3,1,0,-nan,-nan,-nan,-nan,-nan,-nan,-nan,-nan,-nan,-nan,-nan,-nan
4,0,30,642524.733333,219587.500000,1246865.300000,66372.600000,7831.066667,623375.766667,7153.929195,1599.846571,74283.920669,1136.319163,790.355909,37093.365162
4,1,0,-nan,-nan,-nan,-nan,-nan,-nan,-nan,-nan,-nan,-nan,-nan,-nan
5,0,30,641576.500000,219409.366667,1255750.700000,66282.833333,7791.433333,627843.666667,6663.695270,1520.542041,88406.430107,924.843629,703.780491,44184.103980
5,1,0,-nan,-nan,-nan,-nan,-nan,-nan,-nan,-nan,-nan,-nan,-nan,-nan
6,0,30,643080.000000,219572.133333,1240934.066667,66492.100000,7877.000000,620474.333333,9235.711602,1901.404564,77057.824484,1353.256205,927.726361,38525.275876
6,1,0,-nan,-nan,-nan,-nan,-nan,-nan,-nan,-nan,-nan,-nan,-nan,-nan
7,0,30,642956.300000,219502.000000,1233767.266667,66334.600000,7759.400000,616840.766667,8290.075883,2327.659783,60320.476748,1209.266571,651.903807,30148.852029
7,1,0,-nan,-nan,-nan,-nan,-nan,-nan,-nan,-nan,-nan,-nan,-nan,-nan
8,0,30,642165.866667,219330.633333,1235169.633333,66216.966667,7770.600000,617571.566667,5950.201020,1432.061276,69242.427053,905.542249,770.425925,34593.774148
8,1,0,-nan,-nan,-nan,-nan,-nan,-nan,-nan,-nan,-nan,-nan,-nan,-nan
9,0,30,643371.233333,219646.700000,1240169.466667,66376.100000,7888.633333,620096.266667,5733.916699,1502.304877,69965.904099,990.120072,770.310867,35016.185360
9,1,0,-nan,-nan,-nan,-nan,-nan,-nan,-nan,-nan,-nan,-nan,-nan,-nan
10,0,30,643221.766667,219554.800000,1248389.966667,66302.966667,7875.533333,624161.833333,10602.814726,2628.028036,88247.441854,1388.887888,803.767202,44113.602041
10,1,0,-nan,-nan,-nan,-nan,-nan,-nan,-nan,-nan,-nan,-nan,-nan,-nan
11,0,30,642377.033333,219326.066667,1235324.500000,66184.133333,7715.866667,617667.266667,10962.593283,2952.263199,75296.543507,1433.985907,701.219164,37635.572587
11,1,0,-nan,-nan,-nan,-nan,-nan,-nan,-nan,-nan,-nan,-nan,-nan,-nan
12,0,30,644861.633333,220089.233333,1243297.833333,66607.566667,7968.066667,621615.133333,10891.370108,2739.692911,85711.898961,1472.017248,842.062545,42791.645464
12,1,0,-nan,-nan,-nan,-nan,-nan,-nan,-nan,-nan,-nan,-nan,-nan,-nan
13,0,30,641051.600000,219018.733333,1246377.233333,66081.300000,7714.033333,623189.566667,6367.070994,1409.891815,66097.125524,965.538784,851.563679,33058.962279
13,1,0,-nan,-nan,-nan,-nan,-nan,-nan,-nan,-nan,-nan,-nan,-nan,-nan
14,0,30,641499.633333,219334.966667,1242585.666667,66182.400000,7608.200000,621265.400000,4410.040865,1125.796207,59673.419371,703.447397,638.815018,29777.169417
14,1,0,-nan,-nan,-nan,-nan,-nan,-nan,-nan,-nan,-nan,-nan,-nan,-nan
15,0,30,646004.066667,220489.133333,1262756.533333,66886.300000,7905.733333,631368.300000,11346.542498,2725.100374,74119.609313,1476.471744,764.911626,37026.382769
15,1,0,-nan,-nan,-nan,-nan,-nan,-nan,-nan,-nan,-nan,-nan,-nan,-nan
16,0,30,642631.100000,219664.633333,1272384.033333,66352.533333,7890.433333,636164.466667,9829.841166,2413.360430,95034.372007,1261.623761,772.457493,47496.949515
16,1,0,-nan,-nan,-nan,-nan,-nan,-nan,-nan,-nan,-nan,-nan,-nan,-nan
17,0,30,643446.900000,219773.666667,1246608.666667,66491.766667,7807.533333,623253.366667,7241.749730,1664.574867,68542.154256,1174.989268,704.786433,34233.112078
17,1,0,-nan,-nan,-nan,-nan,-nan,-nan,-nan,-nan,-nan,-nan,-nan,-nan
18,0,30,642214.933333,219353.700000,1230919.033333,66306.200000,7663.533333,615421.033333,7908.161855,1745.417183,52084.497556,1169.186908,687.267378,25990.880199
18,1,0,-nan,-nan,-nan,-nan,-nan,-nan,-nan,-nan,-nan,-nan,-nan,-nan
19,0,30,642444.366667,219397.400000,1233283.800000,66332.433333,7601.366667,616633.366667,8023.641578,1726.143478,49293.821730,1132.721757,738.080731,24631.919286
19,1,0,-nan,-nan,-nan,-nan,-nan,-nan,-nan,-nan,-nan,-nan,-nan,-nan
20,0,30,641650.333333,219184.766667,1232943.133333,66182.666667,7643.633333,616480.000000,6926.727897,1700.352742,64715.935887,1136.918125,725.074179,32356.330120
20,1,0,-nan,-nan,-nan,-nan,-nan,-nan,-nan,-nan,-nan,-nan,-nan,-nan
21,0,30,642050.733333,219216.866667,1255438.800000,66203.800000,7759.900000,627734.400000,8540.468949,1614.837695,64495.113728,1118.880613,716.413770,32229.574324
21,1,0,-nan,-nan,-nan,-nan,-nan,-nan,-nan,-nan,-nan,-nan,-nan,-nan
22,0,30,643677.733333,219646.500000,1243103.266667,66481.233333,7793.333333,621525.366667,7646.023119,1576.625590,73497.580240,1174.284624,722.721861,36767.304129
22,1,0,-nan,-nan,-nan,-nan,-nan,-nan,-nan,-nan,-nan,-nan,-nan,-nan
23,0,30,643722.133333,219631.400000,1250327.200000,66521.500000,7803.466667,625137.600000,9044.791122,1854.222256,70384.054622,1406.050017,797.948107,35197.019395
23,1,0,-nan,-nan,-nan,-nan,-nan,-nan,-nan,-nan,-nan,-nan,-nan,-nan
24,0,30,643322.133333,219582.000000,1261030.166667,66443.966667,7787.166667,630505.366667,7875.727817,1602.129936,87075.922801,1189.425141,653.970136,43552.511246
24,1,0,-nan,-nan,-nan,-nan,-nan,-nan,-nan,-nan,-nan,-nan,-nan,-nan
25,0,30,641217.366667,219184.133333,1251639.566667,66139.766667,7725.133333,625837.866667,6414.916354,1228.382398,62595.951767,860.684095,699.113140,31304.303753
25,1,0,-nan,-nan,-nan,-nan,-nan,-nan,-nan,-nan,-nan,-nan,-nan,-nan
26,0,30,641750.800000,219488.700000,1236242.466667,66157.766667,7636.900000,618130.533333,7965.465818,2538.257606,61785.035678,939.996797,543.315890,30913.654445
26,1,0,-nan,-nan,-nan,-nan,-nan,-nan,-nan,-nan,-nan,-nan,-nan,-nan
27,0,30,641374.133333,219364.500000,1249667.800000,66154.600000,7795.800000,624814.933333,6508.181214,1939.998312,57308.263861,779.924937,565.024153,28635.263393
27,1,0,-nan,-nan,-nan,-nan,-nan,-nan,-nan,-nan,-nan,-nan,-nan,-nan
28,0,30,641569.433333,219441.433333,1245078.566667,66183.633333,7900.733333,622489.733333,6702.213474,1792.920405,88383.903406,866.494142,627.198370,44188.676180
28,1,0,-nan,-nan,-nan,-nan,-nan,-nan,-nan,-nan,-nan,-nan,-nan,-nan
29,0,30,641730.166667,219261.733333,1235267.700000,66236.866667,7862.700000,617644.133333,7082.182470,1565.151770,58684.820879,1058.120149,625.099200,29327.467647
29,1,0,-nan,-nan,-nan,-nan,-nan,-nan,-nan,-nan,-nan,-nan,-nan,-nan
30,0,30,641096.300000,219235.233333,1243497.666667,66130.733333,7650.400000,621736.433333,4374.714910,1282.032155,77260.964921,755.688469,643.060681,38635.838950
30,1,0,-nan,-nan,-nan,-nan,-nan,-nan,-nan,-nan,-nan,-nan,-nan,-nan
31,0,30,642886.200000,219541.366667,1267907.366667,66449.466667,7990.933333,633889.100000,7868.857246,1775.818318,74258.724037,1297.812229,904.566818,37083.344909
31,1,0,-nan,-nan,-nan,-nan,-nan,-nan,-nan,-nan,-nan,-nan,-nan,-nan
32,0,30,640254.966667,218999.100000,1246811.466667,65992.166667,7735.433333,623389.366667,3339.407318,1041.923105,62703.145910,477.138630,815.928497,31313.773871
32,1,0,-nan,-nan,-nan,-nan,-nan,-nan,-nan,-nan,-nan,-nan,-nan,-nan
33,0,30,643376.200000,219834.600000,1239466.633333,66567.200000,7664.066667,619720.966667,7769.949645,1681.081112,56091.137597,1137.400791,616.891775,28019.146403
33,1,0,-nan,-nan,-nan,-nan,-nan,-nan,-nan,-nan,-nan,-nan,-nan,-nan
34,0,30,642873.066667,219626.066667,1252807.933333,66230.166667,7771.433333,626347.400000,10811.240101,3357.213229,70668.940859,1116.999794,745.011216,35236.477301
34,1,0,-nan,-nan,-nan,-nan,-nan,-nan,-nan,-nan,-nan,-nan,-nan,-nan
35,0,30,643648.933333,219921.633333,1237969.000000,66399.533333,7594.333333,618997.033333,10964.592745,3576.560121,68786.506919,1292.635131,726.033532,34376.621097
35,1,0,-nan,-nan,-nan,-nan,-nan,-nan,-nan,-nan,-nan,-nan,-nan,-nan
36,0,30,644929.800000,220262.200000,1253147.333333,66541.500000,7918.500000,626556.200000,11689.885735,3690.326963,67727.435332,1415.088260,718.109312,33864.520941
36,1,0,-nan,-nan,-nan,-nan,-nan,-nan,-nan,-nan,-nan,-nan,-nan,-nan
37,0,30,644017.600000,220166.633333,1250787.366667,66412.600000,7783.133333,625355.266667,10733.396224,3485.401521,61085.536254,1183.936192,566.931315,30544.236133
37,1,0,-nan,-nan,-nan,-nan,-nan,-nan,-nan,-nan,-nan,-nan,-nan,-nan
38,0,30,643189.733333,219820.033333,1249139.700000,66238.700000,7706.266667,624546.233333,11158.830578,3769.974416,64788.332282,1162.007520,671.860945,32408.097126
38,1,0,-nan,-nan,-nan,-nan,-nan,-nan,-nan,-nan,-nan,-nan,-nan,-nan
39,0,31,644200.645161,220059.225806,1238156.161290,66525.354839,7800.709677,619103.354839,14602.918026,4172.695638,69160.251885,1775.205441,754.592272,34600.314680
39,1,0,-nan,-nan,-nan,-nan,-nan,-nan,-nan,-nan,-nan,-nan,-nan,-nan
40,0,31,645160.064516,220394.516129,1263689.774194,66732.580645,7864.580645,631771.322581,11102.788720,3446.551047,66542.940315,1384.715361,847.004885,33226.930881
40,1,0,-nan,-nan,-nan,-nan,-nan,-nan,-nan,-nan,-nan,-nan,-nan,-nan
41,0,31,643581.258065,219835.225806,1265274.258065,66392.419355,7904.903226,632634.419355,11648.932777,3501.136587,70277.455419,1339.666780,630.840983,35134.063481
41,1,0,-nan,-nan,-nan,-nan,-nan,-nan,-nan,-nan,-nan,-nan,-nan,-nan
42,0,31,644678.935484,220385.709677,1240639.709677,66501.290323,7805.161290,620365.709677,16061.651257,5229.904120,70987.588488,1706.635479,721.052327,35515.254213
42,1,0,-nan,-nan,-nan,-nan,-nan,-nan,-nan,-nan,-nan,-nan,-nan,-nan
43,0,31,645102.580645,220322.806452,1273406.967742,66682.645161,7991.225806,636675.161290,15102.401204,4424.442071,91564.454937,1846.659138,793.433482,45780.922731
43,1,0,-nan,-nan,-nan,-nan,-nan,-nan,-nan,-nan,-nan,-nan,-nan,-nan
44,0,31,643125.193548,219858.838710,1241495.645161,66316.032258,7745.096774,620748.129032,10633.095487,3354.260566,70837.710985,1150.884806,636.412088,35394.040173
44,1,0,-nan,-nan,-nan,-nan,-nan,-nan,-nan,-nan,-nan,-nan,-nan,-nan
45,0,31,641313.290323,219480.548387,1241585.870968,66092.677419,7656.064516,620736.483871,9918.325002,3426.195980,68616.029809,1111.152711,659.730000,34247.563086
45,1,0,-nan,-nan,-nan,-nan,-nan,-nan,-nan,-nan,-nan,-nan,-nan,-nan
46,0,31,642503.387097,219686.451613,1247806.741935,66286.806452,7758.193548,623854.451613,10769.190504,3426.446545,62481.888019,1298.101627,654.215877,31246.184983
46,1,0,-nan,-nan,-nan,-nan,-nan,-nan,-nan,-nan,-nan,-nan,-nan,-nan
47,0,31,644495.548387,220410.096774,1264585.032258,66566.580645,7932.580645,632276.483871,14212.865294,4240.764260,68653.394728,1577.498689,674.080247,34263.785229
47,1,0,-nan,-nan,-nan,-nan,-nan,-nan,-nan,-nan,-nan,-nan,-nan,-nan
48,0,31,644364.290323,220168.903226,1262352.483871,66517.387097,7846.516129,631178.129032,12168.685399,3457.354483,77557.781567,1449.236099,750.922825,38766.986062
48,1,0,-nan,-nan,-nan,-nan,-nan,-nan,-nan,-nan,-nan,-nan,-nan,-nan
49,0,31,643176.935484,219897.258065,1250879.774194,66295.483871,7832.483871,625406.935484,11295.056512,3567.931170,65770.309546,1190.055647,827.385500,32912.434361
49,1,0,-nan,-nan,-nan,-nan,-nan,-nan,-nan,-nan,-nan,-nan,-nan,-nan
50,0,31,643788.677419,220005.161290,1235538.774194,66449.000000,7824.419355,617727.322581,11624.390735,3549.972059,57518.234835,1321.666080,729.737283,28727.584517
50,1,0,-nan,-nan,-nan,-nan,-nan,-nan,-nan,-nan,-nan,-nan,-nan,-nan
51,0,31,642617.096774,219826.870968,1236123.677419,66261.483871,7575.612903,618057.483871,11588.018557,3604.339792,72317.703628,1298.038020,670.506389,36152.205961
51,1,0,-nan,-nan,-nan,-nan,-nan,-nan,-nan,-nan,-nan,-nan,-nan,-nan
52,0,31,641812.064516,219661.967742,1261406.612903,66201.096774,7802.483871,630637.548387,10402.639305,3334.891762,65519.319067,992.504598,564.078802,32689.517876
52,1,0,-nan,-nan,-nan,-nan,-nan,-nan,-nan,-nan,-nan,-nan,-nan,-nan
53,0,31,644217.354839,220283.580645,1261170.387097,66635.645161,7825.387097,630573.096774,12575.553452,3950.945887,86603.722176,1545.434119,700.645356,43253.672502
53,1,0,-nan,-nan,-nan,-nan,-nan,-nan,-nan,-nan,-nan,-nan,-nan,-nan
54,0,31,643612.806452,219856.741935,1246175.741935,66404.290323,7762.322581,623065.870968,15275.153900,4286.714743,58648.472367,1777.442113,779.613361,29314.788757
54,1,0,-nan,-nan,-nan,-nan,-nan,-nan,-nan,-nan,-nan,-nan,-nan,-nan
55,0,31,645154.322581,220413.709677,1245553.516129,66679.903226,7766.322581,622822.129032,12199.941825,3488.148240,71898.037920,1494.127825,710.025506,35968.963812
55,1,0,-nan,-nan,-nan,-nan,-nan,-nan,-nan,-nan,-nan,-nan,-nan,-nan
56,0,31,642254.741935,219564.903226,1249455.290323,66204.419355,7696.193548,624719.354839,11031.028677,3287.282291,72424.186735,1195.816006,683.161504,36157.211918
56,1,0,-nan,-nan,-nan,-nan,-nan,-nan,-nan,-nan,-nan,-nan,-nan,-nan
57,0,31,641834.967742,219628.451613,1231462.322581,66219.225806,7527.806452,615698.225806,11448.738078,3525.129271,65576.143612,1195.447108,608.929437,32786.817898
57,1,0,-nan,-nan,-nan,-nan,-nan,-nan,-nan,-nan,-nan,-nan,-nan,-nan
58,0,31,643255.677419,219821.322581,1216535.548387,66309.290323,7791.741935,608248.774194,10942.845780,3418.278499,64687.695554,1138.772661,785.552034,32306.081068
58,1,0,-nan,-nan,-nan,-nan,-nan,-nan,-nan,-nan,-nan,-nan,-nan,-nan
59,0,31,644887.677419,220096.419355,1256991.161290,66562.064516,7915.870968,628460.129032,13803.759954,4077.337562,73792.488659,1704.174891,780.851510,36813.973783
59,1,0,-nan,-nan,-nan,-nan,-nan,-nan,-nan,-nan,-nan,-nan,-nan,-nan
60,0,31,643653.806452,219966.419355,1246191.612903,66416.838710,7786.129032,623097.645161,10617.453496,3371.956088,72405.715476,1297.146847,775.529444,36188.905116
60,1,0,-nan,-nan,-nan,-nan,-nan,-nan,-nan,-nan,-nan,-nan,-nan,-nan
61,0,31,642858.870968,219578.709677,1243016.064516,66199.032258,7686.161290,621545.032258,9880.116718,3324.810887,74057.825432,1209.348865,732.284322,37037.406615
61,1,0,-nan,-nan,-nan,-nan,-nan,-nan,-nan,-nan,-nan,-nan,-nan,-nan
62,0,31,643042.322581,219586.935484,1240847.387097,66167.032258,7671.161290,620402.741935,11009.693619,3620.991790,61858.284560,1175.151314,621.622284,30945.563873
62,1,0,-nan,-nan,-nan,-nan,-nan,-nan,-nan,-nan,-nan,-nan,-nan,-nan
63,0,80,642761.675000,219734.000000,1255633.400000,66500.175000,7939.600000,627807.312500,9689.454769,2632.964214,72030.208418,1054.374279,721.417123,36012.143887
63,1,0,-nan,-nan,-nan,-nan,-nan,-nan,-nan,-nan,-nan,-nan,-nan,-nan
