-1,0,0.0101266
-1,1,0.00759494
-1,2,0.00759494
-1,3,0.00759494
-1,4,0.00759494
-1,5,0.00759494
-1,6,0.00759494
-1,7,0.00759494
-1,8,0.00759494
-1,9,0.00759494
-1,10,0.00759494
-1,11,0.00759494
-1,12,0.00759494
-1,13,0.00759494
-1,14,0.00759494
-1,15,0.00759494
-1,16,0.00759494
-1,17,0.00759494
-1,18,0.0101266
-1,19,0.0101266
-1,20,0.0101266
-1,21,0.0101266
-1,22,0.0101266
-1,23,0.0101266
-1,24,0.0101266
-1,25,0.0101266
-1,26,0.0101266
-1,27,0.0101266
-1,28,0.00759494
-1,29,0.00759494
-1,30,0.00759494
-1,31,0.00759494
-1,32,0.00759494
-1,33,0.00759494
-1,34,0.00759494
-1,35,0.00759494
-1,36,0.00759494
-1,37,0.00759494
-1,38,0.00759494
-1,39,0.00759494
-1,40,0.00759494
-1,41,0.00759494
-1,42,0.00759494
-1,43,0.00759494
-1,44,0.00759494
-1,45,0.00759494
-1,46,0.00759494
-1,47,0.00759494
-1,48,0.00759494
-1,49,0.00759494
-1,50,0.00759494
-1,51,0.00759494
-1,52,0.00759494
-1,53,0.00759494
-1,54,0.00759494
-1,55,0.00759494
-1,56,0.00759494
-1,57,0.00759494
-1,58,0.00759494
-1,59,0.00759494
-1,60,0.00759494
-1,61,0.00759494
-1,62,0.00759494
-1,63,0.00759494
-1,64,0.00759494
-1,65,0.00759494
-1,66,0.00759494
-1,67,0.00759494
-1,68,0.00759494
-1,69,0.00759494
-1,70,0.00759494
-1,71,0.00759494
-1,72,0.00759494
-1,73,0.00759494
-1,74,0.00759494
-1,75,0.00759494
-1,76,0.00759494
-1,77,0.00759494
-1,78,0.00759494
-1,79,0.00759494
-1,80,0.00759494
-1,81,0.00759494
-1,82,0.00759494
-1,83,0.00759494
-1,84,0.00759494
-1,85,0.00759494
-1,86,0.00759494
-1,87,0.00759494
-1,88,0.00759494
-1,89,0.00759494
-1,90,0.00759494
-1,91,0.00759494
-1,92,0.00759494
-1,93,0.00759494
-1,94,0.00759494
-1,95,0.00759494
-1,96,0.00759494
-1,97,0.00759494
-1,98,0.00759494
-1,99,0.00759494
-1,100,0.00759494
-1,101,0.00759494
-1,102,0.00759494
-1,103,0.00759494
-1,104,0.00759494
-1,105,0.00759494
-1,106,0.00759494
-1,107,0.00759494
-1,108,0.00759494
-1,109,0.00759494
-1,110,0.00759494
-1,111,0.00759494
-1,112,0.00759494
-1,113,0.00759494
-1,114,0.00759494
-1,115,0.00759494
-1,116,0.00759494
-1,117,0.00759494
-1,118,0.00759494
-1,119,0.00759494
-1,120,0.00759494
-1,121,0.00759494
-1,122,0.00759494
-1,123,0.00759494
-1,124,0.00759494
-1,125,0.00759494
-1,126,0.00759494
-1,127,0.00759494
0,0,0.00060423
0,1,0.00060423
0,2,0.00060423
0,3,0.00060423
0,4,0.00060423
0,5,0.00060423
0,6,0.00060423
0,7,0.00060423
0,8,0.00060423
0,9,0.00060423
0,10,0.00060423
0,11,0.00060423
0,12,0.00060423
0,13,0.00060423
0,14,0.00060423
0,15,0.00060423
0,16,0.00060423
0,17,0.00060423
0,18,0.00060423
0,19,0.00060423
0,20,0.00060423
0,21,0.00060423
0,22,0.00060423
0,23,0.00060423
0,24,0.00060423
0,25,0.00060423
0,26,0.00060423
0,27,0.00060423
0,28,0.00060423
0,29,0.00060423
0,30,0.00060423
0,31,0.00060423
0,32,0.00060423
0,33,0.00060423
0,34,0.00060423
0,35,0.00060423
0,36,0.00060423
0,37,0.00060423
0,38,0.00060423
0,39,0.00060423
0,40,0.00060423
0,41,0.00060423
0,42,0.00060423
0,43,0.00060423
0,44,0.00060423
0,45,0.00060423
0,46,0.00060423
0,47,0.00060423
0,48,0.00060423
0,49,0.00060423
0,50,0.00060423
0,51,0.00060423
0,52,0.00060423
0,53,0.00060423
0,54,0.00060423
0,55,0.00060423
0,56,0.00060423
0,57,0.00060423
0,58,0.00060423
0,59,0.00060423
0,60,0.00060423
0,61,0.00060423
0,62,0.00060423
0,63,0.00060423
0,64,0.00060423
0,65,0.00060423
0,66,0.00060423
0,67,0.00060423
0,68,0.00060423
0,69,0.00060423
0,70,0.00060423
0,71,0.00060423
0,72,0.00060423
0,73,0.00060423
0,74,0.00060423
0,75,0.00060423
0,76,0.00060423
0,77,0.00060423
0,78,0.00060423
0,79,0.00060423
0,80,0.00060423
0,81,0.00060423
0,82,0.00060423
0,83,0.00060423
0,84,0.00060423
0,85,0.00060423
0,86,0.00060423
0,87,0.00060423
0,88,0.00060423
0,89,0.00060423
0,90,0.00060423
0,91,0.00060423
0,92,0.00060423
0,93,0.00060423
0,94,0.00060423
0,95,0.00060423
0,96,0.00060423
0,97,0.00060423
0,98,0.00060423
0,99,0.00060423
0,100,0.00060423
0,101,0.00060423
0,102,0.00060423
0,103,0.00060423
0,104,0.00060423
0,105,0.00060423
0,106,0.00060423
0,107,0.00060423
0,108,0.00060423
0,109,0.00060423
0,110,0.00060423
0,111,0.00060423
0,112,0.00060423
0,113,0.00060423
0,114,0.00060423
0,115,0.00060423
0,116,0.00060423
0,117,0.00060423
0,118,0.00060423
0,119,0.00060423
0,120,0.00060423
0,121,0.00060423
0,122,0.00060423
0,123,0.00060423
0,124,0.00060423
0,125,0.00060423
0,126,0.00060423
0,127,0.923263
