0,0,55,648273.981818,221538.836364,1310005.981818,67000.018182,7821.054545,654425.072727,14171.443911,4640.807413,71117.677983,1721.300761,653.213996,35504.484817
0,1,6,724267.666667,253227.833333,1514902.000000,75868.000000,9852.666667,756866.666667,17814.689011,6173.171508,107128.891988,1908.991182,1128.790749,53555.126121
1,0,54,645847.500000,221035.592593,1311787.796296,66697.555556,7753.351852,655233.759259,11241.625582,3799.057707,82188.796857,1268.947021,530.620990,41096.386814
1,1,5,708964.600000,248473.000000,1457814.800000,73944.400000,9722.400000,728250.400000,2896.855854,714.203612,38488.735346,358.900320,605.206609,19166.135496
2,0,54,646191.666667,220787.444444,1319535.574074,66811.037037,7891.740741,659176.462963,10719.584871,3095.932838,89938.059989,1452.289252,805.135397,44956.178785
2,1,5,710476.000000,248785.800000,1435713.400000,74078.400000,8809.200000,717307.800000,3803.840165,1006.426430,129267.128881,422.285969,720.232574,64596.300762
3,0,54,643029.407407,220131.240741,1307130.203704,66317.055556,7679.092593,652982.592593,8816.066034,2781.229218,85115.935136,1030.057755,528.757778,42525.346720
3,1,5,712246.800000,248491.400000,1460751.800000,73939.200000,9037.200000,729665.000000,3520.916892,487.027145,67736.235577,233.280432,585.552184,33809.341679
4,0,54,644252.685185,220498.388889,1310841.777778,66545.814815,7811.500000,654833.685185,9469.384236,2792.046464,83043.994576,1113.122536,532.787837,41496.551567
4,1,5,715864.200000,249533.800000,1426134.200000,74640.400000,9591.400000,712680.800000,8977.033327,1645.134086,73113.974033,1350.236513,613.400554,36525.057571
5,0,54,644839.722222,220590.166667,1324133.425926,66646.240741,7875.814815,661452.462963,9877.050588,2948.027588,72015.819077,1246.409806,622.325807,35909.463677
5,1,5,711642.200000,249178.000000,1446816.200000,74196.600000,9120.400000,722800.600000,3180.534131,813.877386,54426.610390,315.306581,371.623788,27163.540643
6,0,54,644012.629630,220514.314815,1304879.500000,66537.722222,7792.425926,651799.018519,8699.010225,2749.820599,74304.391329,1080.334815,666.710849,37105.950324
6,1,5,715893.000000,250355.600000,1589537.600000,74982.200000,9856.600000,794157.400000,10402.101884,2212.032332,216753.824195,1496.517477,1075.543323,108402.409347
7,0,54,643440.796296,220242.407407,1306229.407407,66453.833333,7858.796296,652538.018519,8760.859148,2721.105940,72015.794483,1154.853907,584.201810,35963.772298
7,1,5,714038.600000,249734.600000,1408820.000000,74702.800000,9564.400000,703887.400000,5761.334380,1770.075998,60190.670383,1348.575901,257.254427,30060.016657
8,0,54,644479.592593,220676.518519,1305802.388889,66519.462963,7832.666667,652268.388889,9281.956240,3078.556021,109398.269250,1106.096552,733.879039,54673.509780
8,1,5,713512.200000,249885.600000,1456838.600000,74833.000000,9638.400000,727763.400000,9514.697313,2204.895517,103745.092514,1344.062350,707.894794,51951.986713
9,0,54,646247.648148,221066.740741,1303521.740741,66828.833333,7899.629630,651207.629630,13401.312606,3762.087463,80483.044045,1565.087819,602.262410,40212.077573
9,1,5,713191.200000,249416.000000,1479941.000000,74314.400000,9673.600000,739100.400000,3779.247671,714.404367,60318.018654,433.676654,645.680912,29859.481272
10,0,54,644068.555556,220512.759259,1308324.962963,66535.907407,7892.759259,653553.537037,9783.436047,2792.818846,79738.250904,1157.606731,590.107898,39851.128157
10,1,5,723955.000000,251498.400000,1465717.800000,76028.000000,9623.600000,732373.800000,8571.593271,1706.878156,33683.656021,1436.933819,640.714476,16787.115052
11,0,54,645772.259259,220866.944444,1323688.481481,66756.574074,7894.759259,661248.222222,11066.353763,3160.364357,87082.445966,1344.818322,739.157226,43558.878270
11,1,5,712958.000000,249232.600000,1478065.600000,74242.000000,9628.800000,738495.000000,3378.424722,844.207226,54995.653561,435.948621,1219.008187,27445.652370
12,0,54,645710.259259,220817.166667,1316003.648148,66717.055556,7950.203704,657437.203704,11460.929807,3149.381443,79891.131188,1462.023983,683.036775,39911.777147
12,1,5,718531.600000,251498.000000,1486109.600000,74998.600000,9655.000000,742343.000000,7779.901197,3271.433142,56395.762332,1119.179807,1026.361535,28267.493854
13,0,54,642833.870370,220212.111111,1309825.851852,66332.074074,7748.166667,654319.722222,8762.615610,2627.422964,76698.678590,958.970568,577.549637,38295.030818
13,1,5,720429.800000,250946.800000,1459523.000000,75527.600000,9501.600000,729259.400000,11656.635388,2555.728734,61163.358116,1643.464706,563.888145,30633.783525
14,0,54,645037.055556,220652.518519,1311621.685185,66643.074074,7856.148148,655220.703704,10011.665027,3013.328950,90784.654115,1233.148197,623.614951,45406.471264
14,1,5,710117.000000,248801.800000,1431621.600000,74068.800000,9137.400000,715403.400000,3677.734574,696.118783,66094.351682,222.224571,431.032992,33082.431438
15,0,54,643572.314815,220379.796296,1325960.592593,66448.000000,7931.407407,662416.833333,11689.488062,3330.365008,76705.071652,1366.540306,616.683169,38385.846948
15,1,5,712696.400000,249221.000000,1431071.800000,74225.400000,9161.000000,714967.400000,2987.016880,766.624289,48763.216384,461.972120,608.451148,24422.095247
16,0,54,645027.351852,220679.055556,1310575.111111,66657.907407,7828.351852,654670.185185,10162.187336,2915.716572,65864.599310,1306.813530,604.118187,32955.911683
16,1,5,710175.400000,248766.800000,1428942.600000,74093.800000,9011.400000,713968.400000,2062.151362,792.590537,111959.790508,508.543567,684.676449,56037.536807
17,0,54,645639.814815,220967.425926,1328202.685185,66688.462963,7988.648148,663456.833333,10857.668985,3298.108670,100255.762334,1360.601919,715.205931,50098.793775
17,1,5,713910.600000,249592.000000,1463841.000000,74680.000000,9354.200000,731345.800000,7915.918736,1665.299252,47131.773448,1392.398363,820.064973,23583.142678
18,0,54,645988.388889,220759.981481,1306398.925926,66713.870370,7946.092593,652672.703704,13951.618085,3912.870120,83165.464803,1760.248689,767.040519,41610.909997
18,1,5,717932.400000,250200.600000,1454833.200000,75174.200000,9500.400000,726933.200000,10195.207082,2185.148746,61068.602238,1588.710219,447.969017,30501.453443
19,0,54,645506.574074,220653.425926,1309077.425926,66649.277778,7860.166667,653987.185185,10999.628419,3028.705851,75822.531686,1312.526944,624.821656,37854.978237
19,1,5,710776.200000,248640.800000,1417724.200000,73992.400000,9168.600000,708370.800000,3212.237189,670.259472,70523.113753,263.936811,432.922441,35314.773460
20,0,54,645765.777778,220943.740741,1306273.277778,66778.555556,7891.648148,652560.166667,10700.291660,3017.357902,89800.196505,1317.068724,663.793675,44854.243507
20,1,5,716725.600000,250556.000000,1402253.600000,75106.400000,8900.200000,700545.400000,11478.514026,2089.759316,80199.802687,1416.425162,889.751741,40154.309311
21,0,54,646057.203704,220890.129630,1313246.592593,66794.166667,7826.851852,656010.037037,10267.324934,3152.760396,93820.550459,1369.448831,588.559931,46882.400847
21,1,5,710302.400000,248605.600000,1412352.200000,74075.200000,9412.400000,705611.800000,2581.705839,906.610523,106432.183763,466.223294,831.285414,53220.328482
22,0,54,644360.555556,220579.851852,1305954.148148,66546.314815,7834.888889,652381.611111,9668.499188,2775.291279,87030.237970,1153.653485,633.516777,43503.107401
22,1,5,715131.000000,250063.800000,1532602.000000,74880.600000,9860.400000,765604.200000,10587.557584,2027.484885,88766.167237,1416.166177,762.585497,44220.174162
23,0,54,644213.203704,220389.018519,1311577.111111,66519.592593,7819.759259,655228.925926,10380.564101,2808.695186,74956.274438,1217.253093,651.246666,37445.335969
23,1,5,712260.200000,249311.600000,1454412.400000,74326.200000,9658.800000,726647.600000,4086.942006,1169.694080,63967.785360,519.936304,651.086292,32035.695170
24,0,54,645587.203704,220736.870370,1300496.888889,66674.000000,7811.703704,649698.407407,11859.247519,3421.128063,73431.519637,1436.717929,657.446622,36714.293653
24,1,5,711602.200000,249067.600000,1427580.400000,74242.200000,9676.400000,713112.400000,1654.493929,798.621212,84393.093840,491.953819,978.200102,42246.026112
25,0,54,644146.407407,220391.537037,1303557.833333,66516.240741,7784.851852,651189.518519,9837.695854,2785.945632,74409.462219,1218.410424,628.593769,37201.269319
25,1,5,710413.400000,248855.200000,1468360.000000,74000.400000,9378.600000,733583.400000,3102.817790,736.243003,52582.646099,371.368604,603.427411,26358.534099
26,0,54,645727.962963,220762.129630,1315533.203704,66741.981481,7954.351852,657156.500000,10578.402925,2847.863794,73210.559826,1321.273186,671.370162,36526.873200
26,1,5,714525.600000,250542.400000,1483096.000000,74460.400000,9291.400000,741041.800000,9554.482605,3355.528072,48756.705980,793.952795,671.483313,24332.916746
27,0,54,645692.296296,220865.370370,1311757.370370,66722.574074,7823.296296,655279.000000,10287.599266,3244.379404,82451.364143,1242.742898,530.234876,41121.645253
27,1,5,713176.600000,249725.400000,1437253.200000,74586.400000,9023.400000,718023.200000,8146.579665,1955.936768,82560.703886,1443.875701,516.610337,41184.934247
28,0,55,644971.109091,220589.727273,1327637.527273,66633.381818,7994.763636,663266.727273,9972.752549,2853.355055,79715.132880,1246.316981,744.345911,39901.622443
28,1,5,707799.200000,248824.800000,1440128.400000,73936.800000,9178.800000,719503.200000,3531.918368,699.606575,49352.245552,475.730764,177.556076,24620.587949
29,0,55,645461.236364,220979.072727,1307478.381818,66694.709091,7792.563636,653162.181818,10591.371514,3238.926331,85455.234041,1219.323668,601.735846,42753.254119
29,1,5,711024.200000,249361.400000,1405569.800000,74144.000000,9069.600000,702079.200000,2656.881510,1059.041189,54406.436595,723.158351,374.990453,27157.472337
30,0,55,646583.927273,221147.145455,1315850.636364,66861.309091,7930.345455,657347.636364,11976.068631,3529.491508,75799.480798,1493.802298,739.047230,37879.020093
30,1,5,711583.800000,249073.000000,1415394.800000,74048.000000,9013.200000,707118.000000,4530.825638,668.434589,36574.772926,482.636509,443.027042,18312.857276
31,0,142,643528.978873,220702.457746,1302820.211268,66549.309859,7790.528169,650782.718310,9175.677518,2847.374433,85130.604283,1056.983531,620.497241,42557.758465
31,1,5,710981.400000,249431.400000,1490076.800000,74122.400000,9409.400000,744445.800000,2870.686650,786.727043,32879.177486,523.232874,472.165479,16471.937171
