-1,0,0.0153148
-1,1,0.0147476
-1,2,0.0147476
-1,3,0.0147476
-1,4,0.0147476
-1,5,0.0147476
-1,6,0.0147476
-1,7,0.0147476
-1,8,0.0147476
-1,9,0.0147476
-1,10,0.0147476
-1,11,0.0147476
-1,12,0.0147476
-1,13,0.0147476
-1,14,0.0147476
-1,15,0.0147476
-1,16,0.0153148
-1,17,0.0153148
-1,18,0.0153148
-1,19,0.0153148
-1,20,0.0153148
-1,21,0.0153148
-1,22,0.0153148
-1,23,0.0153148
-1,24,0.0153148
-1,25,0.0153148
-1,26,0.0153148
-1,27,0.0153148
-1,28,0.0153148
-1,29,0.0153148
-1,30,0.0153148
-1,31,0.0153148
-1,32,0.0153148
-1,33,0.0153148
-1,34,0.0153148
-1,35,0.0153148
-1,36,0.0153148
-1,37,0.0153148
-1,38,0.0153148
-1,39,0.0153148
-1,40,0.0153148
-1,41,0.0153148
-1,42,0.0153148
-1,43,0.0153148
-1,44,0.0153148
-1,45,0.0153148
-1,46,0.0153148
-1,47,0.0153148
-1,48,0.0153148
-1,49,0.0153148
-1,50,0.0153148
-1,51,0.0153148
-1,52,0.0153148
-1,53,0.0153148
-1,54,0.0153148
-1,55,0.0153148
-1,56,0.0153148
-1,57,0.0153148
-1,58,0.0153148
-1,59,0.0153148
-1,60,0.0153148
-1,61,0.0153148
-1,62,0.0153148
-1,63,0.0436756
2,0,0.0164835
2,1,0.010989
2,2,0.010989
2,3,0.010989
2,4,0.010989
2,5,0.010989
2,6,0.010989
2,7,0.010989
2,8,0.010989
2,9,0.010989
2,10,0.010989
2,11,0.0164835
2,12,0.0164835
2,13,0.0164835
2,14,0.0164835
2,15,0.0164835
2,16,0.0164835
2,17,0.0164835
2,18,0.0164835
2,19,0.0164835
2,20,0.0164835
2,21,0.0164835
2,22,0.0164835
2,23,0.0164835
2,24,0.0164835
2,25,0.0164835
2,26,0.0164835
2,27,0.0164835
2,28,0.0164835
2,29,0.0164835
2,30,0.0164835
2,31,0.0164835
2,32,0.0164835
2,33,0.0164835
2,34,0.0164835
2,35,0.0164835
2,36,0.0164835
2,37,0.0164835
2,38,0.0164835
2,39,0.0164835
2,40,0.0164835
2,41,0.0164835
2,42,0.0164835
2,43,0.0164835
2,44,0.0164835
2,45,0.0164835
2,46,0.0164835
2,47,0.0164835
2,48,0.0164835
2,49,0.0164835
2,50,0.0164835
2,51,0.0164835
2,52,0.0164835
2,53,0.0164835
2,54,0.0164835
2,55,0.0164835
2,56,0.0164835
2,57,0.0164835
2,58,0.0164835
2,59,0.0164835
2,60,0.0164835
2,61,0.0164835
2,62,0.0164835
2,63,0.0164835
