0,0,465,644370.965591,220445.636559,1301460.875269,66567.150538,7829.421505,650123.070968,9624.271428,2802.510628,78011.137051,1180.309917,640.458571,39006.488820
0,1,0,-nan,-nan,-nan,-nan,-nan,-nan,-nan,-nan,-nan,-nan,-nan,-nan
1,0,464,644364.521552,220381.012931,1308907.786638,66549.144397,7859.303879,653855.310345,9947.796836,2862.387184,80679.728987,1227.558306,623.295535,40307.383032
1,1,0,-nan,-nan,-nan,-nan,-nan,-nan,-nan,-nan,-nan,-nan,-nan,-nan
2,0,464,644456.103448,220409.318966,1307473.036638,66564.846983,7820.756466,653146.978448,9578.726897,2834.153696,76220.211069,1211.319479,632.039637,38082.806328
2,1,0,-nan,-nan,-nan,-nan,-nan,-nan,-nan,-nan,-nan,-nan,-nan,-nan
3,0,572,644369.256993,220524.243007,1312860.830420,66614.312937,7856.573427,655813.360140,9565.881173,2762.037174,84127.934064,1196.034253,656.174120,42050.454386
3,1,0,-nan,-nan,-nan,-nan,-nan,-nan,-nan,-nan,-nan,-nan,-nan,-nan
