0,-1,690103,236534,1283421,70499,6962,641830,0
0,0,756054,266302,1325916,78734,8705,662929,11
0,-1,687658,236209,1201329,70476,6562,600698,2
0,-1,640416,219046,1205666,65896,7571,602864,0
0,-1,644024,220135,1297030,66587,6822,648593,0
0,-1,637971,219903,1305920,66349,8724,652803,0
0,-1,660076,222811,1166693,68920,7732,583205,0
0,-1,647482,221672,1270034,66818,7458,635065,0
0,-1,637321,217819,1275934,65417,7781,637756,0
0,-1,637654,218230,1161812,65444,7541,580961,0
0,-1,642182,218122,1193609,65368,7888,597027,0
0,-1,630910,217373,1217738,64726,6953,608897,0
0,-1,641846,218386,1216490,66001,7670,608306,0
0,-1,641940,219701,1164002,66456,7488,582066,0
1,0,760916,265423,1307821,78348,8471,653873,11
1,-1,631986,217760,1212451,65348,6763,606234,2
1,-1,637484,218140,1244709,65552,7608,622356,0
1,-1,638602,218583,1278288,65819,6409,639227,0
1,-1,636702,219240,1275479,65954,7779,637488,0
1,-1,637633,218079,1341800,65485,7204,671175,0
1,-1,644912,220385,1184701,66064,6847,592377,0
1,-1,635312,217954,1245100,65446,8012,622811,0
1,-1,635544,217698,1143274,65235,7881,571684,0
1,-1,664559,223476,1247203,68879,9372,623640,0
1,-1,631440,217880,1143592,65005,6997,571827,0
1,-1,638506,217550,1145199,65697,7482,572544,0
1,-1,638623,218738,1266334,65944,7767,633224,0
2,0,777589,270914,1573787,82016,10753,786974,11
2,-1,633891,217848,1156335,65438,7110,578082,2
2,-1,635203,217548,1255037,65352,7219,627533,0
2,-1,638879,218260,1266557,65680,7651,633325,0
2,-1,635566,218766,1261540,65743,8277,630518,0
2,-1,640812,219246,1329342,65964,7942,663972,0
2,-1,643039,220848,1218340,66452,6364,609241,0
2,-1,657738,221941,1228801,68522,8427,614621,0
2,-1,643223,218346,1198504,65443,7501,599291,0
2,-1,639555,217869,1316988,65203,8876,658116,0
2,-1,630506,217454,1267650,64816,7067,633859,0
2,-1,639068,218226,1211937,65907,7160,605950,0
2,-1,637225,218552,1118203,65895,7283,559143,0
3,0,737516,259235,1354890,76429,8352,677470,11
3,-1,637427,218620,1279027,65785,7696,639495,2
3,-1,659206,222849,1271997,68954,8863,636007,0
3,-1,638669,218725,1221030,65869,6958,610557,0
3,-1,637936,220120,1304999,66455,8507,652595,0
3,-1,638870,218642,1181399,65806,7735,590691,0
3,-1,640745,219698,1124550,65913,6297,562315,0
3,-1,636862,218105,1296741,65474,7990,648155,0
3,-1,642060,218701,1215048,65614,7429,607590,0
3,-1,638742,217792,1242067,65242,8638,621142,0
3,-1,641651,220697,1197142,66244,6799,598687,0
3,-1,638125,217463,1264462,65693,7343,632213,0
3,-1,660932,222543,1276320,69116,7940,638130,0
4,0,733591,259032,1395940,76549,8807,697962,11
4,-1,637174,218416,1167898,65649,6783,584061,2
4,-1,636725,217648,1156554,65444,8009,578254,0
4,-1,637672,218682,1237652,65859,6797,618879,0
4,-1,655939,223528,1253366,69152,8425,626676,0
4,-1,638089,218684,1261960,65738,7609,630953,0
4,-1,646026,221711,1258362,66878,7178,629262,0
4,-1,637313,218106,1452668,65526,8264,726348,0
4,-1,639654,218142,1132957,65379,7485,566525,0
4,-1,642216,218045,1447352,65387,10250,723157,0
4,-1,632250,217459,1246606,64854,6713,623362,0
4,-1,639339,218024,1249543,65873,7378,624797,0
4,-1,638282,218026,1187069,65852,6812,593426,0
5,0,701402,246601,1283872,73341,8036,641927,11
5,-1,640642,220497,1277971,66604,7170,639001,2
5,-1,636229,217512,1215994,65363,7403,608009,0
5,-1,637776,218798,1155794,65853,6697,577977,0
5,-1,638127,219251,1272155,65926,6976,636113,0
5,-1,639790,218983,1230890,65901,7636,615435,0
5,-1,661246,223987,1189287,69071,7747,594547,0
5,-1,636761,217763,1263307,65326,8214,631624,0
5,-1,640116,218523,1205140,65546,7834,602652,0
5,-1,640829,217926,1287074,65256,8660,643531,0
5,-1,633714,218550,1336090,65167,6781,667760,0
5,-1,640978,218643,1347031,66008,7518,673528,0
5,-1,636544,217107,1180307,65467,6851,590209,0
6,0,704878,247634,1322027,73633,8106,661010,11
6,-1,640726,219789,1214451,66252,6666,607184,0
6,-1,634738,218687,1172733,65754,7817,586337,2
6,-1,660819,223311,1229708,69167,8185,614943,0
6,-1,635123,218607,1168822,65741,7072,584281,0
6,-1,661476,223143,1183775,69011,7709,591821,0
6,-1,640207,219839,1233019,65961,6673,616541,0
6,-1,636547,218218,1187269,65563,7895,593654,0
6,-1,645754,220436,1230559,66341,7860,615314,0
6,-1,641986,219140,1170346,65946,8700,584815,0
6,-1,634268,218505,1196764,65207,6731,598465,0
6,-1,639132,218399,1246559,66257,7476,623338,0
6,-1,638852,218576,1141757,66020,6936,570929,0
7,0,710683,249934,1379358,74647,8930,689706,11
7,-1,635854,218077,1206487,65570,7109,603321,0
7,-1,636224,217939,1234040,65573,7542,617033,2
7,-1,634566,217031,1166776,65362,6875,583435,0
7,-1,633178,218270,1221667,65509,6962,610838,0
7,-1,639481,219012,1281688,65850,7940,640569,0
7,-1,640427,220486,1243717,66291,6990,621919,0
7,-1,633335,217398,1232337,65250,7835,616184,0
7,-1,638850,217999,1214650,65322,6278,607362,0
7,-1,640612,218608,1185604,65496,8290,592837,0
7,-1,632053,217791,1202986,64935,6922,601522,0
7,-1,660087,222892,1280500,69232,8249,640241,0
7,-1,638397,218768,1229838,66028,7019,614974,0
8,0,707667,247914,1347066,73653,9627,673505,11
8,-1,634200,217633,1135486,65390,6533,567724,0
8,-1,636275,218012,1181666,65587,8202,590359,2
8,-1,656639,222935,1239751,69019,8337,619925,0
8,-1,653979,223165,1192148,68992,8116,595979,0
8,-1,639975,219356,1306984,65943,7914,653547,0
8,-1,639287,219622,1185245,65836,6755,592709,0
8,-1,641837,220467,1268110,66542,8014,634128,0
8,-1,637257,217627,1216556,65216,7149,608324,0
8,-1,640245,218801,1170045,65561,8017,585041,0
8,-1,631637,218017,1141188,65057,6851,570570,0
8,-1,639293,218118,1236551,65848,7052,618290,0
8,-1,642431,220152,1178219,66804,7847,589132,0
9,0,702915,247563,1292679,73553,7741,646254,11
9,-1,638205,218466,1221083,65709,7286,610603,0
9,-1,634461,218940,1192652,65794,7917,596325,2
9,-1,641268,218846,1211143,65905,7619,605734,0
9,-1,633603,218958,1312245,65771,6953,656223,0
9,-1,635280,218457,1227578,65641,6643,613820,0
9,-1,647524,220226,1152175,66009,7305,576118,0
9,-1,658352,223634,1231202,69093,8824,615624,0
9,-1,644370,220795,1220497,66522,7013,610437,0
9,-1,637501,217885,1253841,65220,8171,626886,0
9,-1,632306,218210,1229236,65067,7402,614650,0
9,-1,638472,218350,1158464,65999,6956,579200,0
9,-1,637350,218758,1304892,66084,7888,652483,0
10,0,704985,247375,1288030,73451,7953,643968,11
10,-1,632847,217753,1217736,65389,7090,608857,0
10,-1,642154,221018,1255564,66792,6904,627848,2
10,-1,643063,219834,1385207,66432,8089,692537,0
10,-1,636952,218280,1174077,65667,8084,587063,0
10,-1,640517,218752,1156786,65797,6778,578493,0
10,-1,647671,220573,1144632,66173,7602,572335,0
10,-1,633530,217949,1233452,65476,7947,616411,0
10,-1,659861,223192,1189753,68855,7950,594929,0
10,-1,660057,222254,1254299,68427,9193,627204,0
10,-1,636058,220208,1161131,65984,7203,580661,0
10,-1,637207,218311,1279550,65864,7235,639830,0
10,-1,638123,218271,1156478,65893,7633,578273,0
11,0,705713,247020,1429227,73324,8271,714599,11
11,-1,635445,217481,1143873,65293,7044,571954,0
11,-1,635070,219521,1197122,65965,7190,597486,2
11,-1,635871,217214,1175276,65297,7919,587657,0
11,-1,638052,218751,1271724,65764,7844,635845,0
11,-1,639810,219060,1267624,66111,7601,633817,0
11,-1,645121,220229,1120288,66003,6937,560175,0
11,-1,634331,217442,1194781,65266,7259,597440,0
11,-1,642835,218939,1246668,65683,8051,623370,0
11,-1,637396,217311,1142780,65035,6882,571404,0
11,-1,652303,222820,1243094,68402,8349,621582,0
11,-1,643932,220246,1202791,66947,7327,601358,0
11,-1,637448,218423,1220991,65967,7146,610695,0
12,0,705716,247615,1310827,73626,7618,655423,11
12,-1,642127,220606,1232800,66616,6919,616369,0
12,-1,635280,218322,1170207,65661,7309,585147,2
12,-1,642534,219195,1197238,65969,7200,598716,0
12,-1,636092,218260,1260298,65649,7367,630205,0
12,-1,637283,218583,1187658,65715,6589,593870,0
12,-1,648979,221808,1187110,66854,6960,593600,0
12,-1,638097,219099,1315701,65830,8125,658104,0
12,-1,642123,219250,1241632,65970,8245,620877,0
12,-1,646667,220318,1212596,66222,8358,606343,0
12,-1,632833,217760,1323110,64973,6565,661698,0
12,-1,636454,217819,1314789,65855,7461,657378,0
12,-1,636734,218128,1206608,65839,6787,603393,0
13,0,707121,246954,1402005,73368,8832,701029,11
13,-1,657257,222542,1249650,68787,7555,624769,0
13,-1,636885,218864,1162631,65945,7644,581378,2
13,-1,643782,220394,1232010,66673,7468,616077,0
13,-1,639714,220370,1325353,66597,9021,662110,0
13,-1,636540,218777,1153303,65687,6296,576556,0
13,-1,644327,220087,1217625,66015,7095,608866,0
13,-1,634073,217634,1252034,65331,8016,626024,0
13,-1,637735,218003,1323287,65326,7475,661689,0
13,-1,638572,218009,1251911,65291,7944,625939,0
13,-1,637709,219880,1261246,65831,6628,630647,0
13,-1,636760,217886,1171349,65809,7670,585685,0
13,-1,636140,218247,1136959,65913,7060,568569,0
14,0,724701,252023,1416186,76929,9859,707999,11
14,-1,634602,217764,1165570,65459,5829,582812,0
14,-1,642252,219831,1258709,66394,8361,629416,0
14,-1,637234,218335,1176767,65773,6771,588418,2
14,-1,636439,219485,1239421,66034,8883,619626,0
14,-1,644073,220946,1197522,66801,7803,598715,0
14,-1,642258,219658,1134698,65791,6570,567388,0
14,-1,634651,218251,1176709,65561,7734,588290,0
14,-1,642486,220265,1286236,66323,7663,643143,0
14,-1,638223,218189,1304317,65378,8378,652134,0
14,-1,633534,218204,1302774,65104,6801,651385,0
14,-1,637077,218410,1233239,66015,7498,616611,0
14,-1,635914,218373,1253068,65923,7569,626567,0
15,0,704669,247122,1347891,73452,8500,673969,11
15,-1,634771,217991,1334445,65407,6410,667304,0
15,-1,639501,219030,1386664,65975,8854,693272,0
15,-1,638493,218838,1242944,65881,7477,621502,2
15,-1,636226,219544,1441364,66053,9378,719773,0
15,-1,636923,218684,1157195,65705,7059,578580,0
15,-1,647563,220501,1168820,66292,7540,584454,0
15,-1,632586,217609,1369409,65320,8427,684684,0
15,-1,658473,222941,1191137,68779,8018,595489,0
15,-1,660229,222736,1216399,68743,8609,608337,0
15,-1,633168,217749,1214835,64915,6436,607465,0
15,-1,636817,218595,1147504,66219,6935,573721,0
15,-1,637216,219028,1330975,66165,8348,665542,0
16,0,711435,248950,1369982,74258,8793,684965,11
16,-1,634203,217674,1229735,65345,6452,614898,0
16,-1,639600,219384,1281341,66260,8019,640745,0
16,-1,636552,218504,1221770,65780,7563,610969,2
16,-1,631388,218140,1350108,65505,8536,675613,0
16,-1,637691,219391,1126329,65991,7180,563106,0
16,-1,644229,219825,1104235,65936,6989,552153,0
16,-1,640465,220113,1306297,66438,8695,653000,0
16,-1,635489,217886,1119257,65290,6900,559743,0
16,-1,640373,218423,1242244,65514,8176,621000,0
16,-1,651336,222393,1224353,68236,7437,612113,0
16,-1,639598,217850,1219991,65805,7799,610052,0
16,-1,636476,219250,1154345,66438,7760,577236,0
17,0,712231,248855,1314011,74331,9387,656845,11
17,-1,634297,217451,1146588,65400,7388,573274,0
17,-1,637907,218019,1309447,65675,7538,654775,0
17,-1,640100,218927,1153719,65954,7047,576982,2
17,-1,659085,223354,1238005,69084,8965,618964,0
17,-1,638452,219738,1185846,66287,7553,592817,0
17,-1,644801,220371,1178545,66042,7596,589315,0
17,-1,637992,220175,1262190,66301,8916,631535,0
17,-1,639890,218972,1232450,65684,7501,616271,0
17,-1,639339,218114,1198241,65406,7753,599158,0
17,-1,632756,218472,1221716,65192,6806,610989,0
17,-1,640126,218744,1172382,66090,7758,586150,0
17,-1,640537,218097,1248520,65883,7199,624274,0
18,0,701243,246835,1259905,73364,8190,629886,11
18,-1,634049,218076,1092748,65589,7318,546365,0
18,-1,639428,218527,1257632,65765,6721,628882,0
18,-1,638509,218823,1286091,65914,8195,642992,2
18,-1,638132,220048,1282571,66415,8663,641507,0
18,-1,637943,218422,1177053,65623,8171,588473,0
18,-1,643216,219762,1130563,65889,6700,565338,0
18,-1,640663,219257,1052038,65828,7231,526066,0
18,-1,660371,222714,1288433,68736,8119,644211,0
18,-1,637236,217694,1238105,65239,7705,619021,0
18,-1,630321,218132,1217034,65122,7275,608564,0
18,-1,644105,220173,1150095,66884,7729,574988,0
18,-1,641777,218519,1152215,66053,7333,576151,0
19,0,703847,247262,1363687,73471,9542,681765,11
19,-1,633890,217649,1152343,65393,7289,576133,0
19,-1,643310,220409,1507565,66698,9216,753831,0
19,-1,638087,218833,1272369,65862,8051,636383,2
19,-1,641073,221556,1492193,66968,9005,745676,0
19,-1,635873,218126,1175166,65575,7354,587503,0
19,-1,646292,221484,1196922,66731,7141,598547,0
19,-1,638407,217995,1211745,65307,8050,605902,0
19,-1,639640,218880,1295342,65665,7181,647843,0
19,-1,643009,219982,1207025,66196,7244,603528,0
19,-1,630821,217547,1235677,64908,6326,617881,0
19,-1,638395,217719,1261467,65744,7343,630714,0
19,-1,640291,218211,1115055,65739,6737,557577,0
20,0,725855,251654,1469391,76753,10213,734392,11
20,-1,632847,218094,1208679,65549,7301,604329,0
20,-1,635997,217909,1248050,65545,7797,624054,0
20,-1,645650,220613,1439735,66679,7849,719755,2
20,-1,653956,223111,1206058,69008,8737,602921,0
20,-1,637260,218857,1177680,65772,6865,588826,0
20,-1,641912,219470,1269145,65752,7109,634611,0
20,-1,639111,218538,1265413,65575,8173,633188,0
20,-1,640684,219784,1232402,66156,7256,616384,0
20,-1,637136,218161,1256497,65377,7572,628246,0
20,-1,630968,217542,1196357,64886,6277,598269,0
20,-1,641086,219392,1304248,66327,7214,652140,0
20,-1,642427,219697,1247229,66493,7327,623667,0
21,0,704901,247277,1418898,73558,9028,709250,11
21,-1,628619,216353,1128500,64921,6848,564232,0
21,-1,638347,218886,1173356,65925,7481,586777,0
21,-1,632134,218487,1190527,65609,8391,595260,0
21,-1,635546,219740,1243531,66074,7700,621790,2
21,-1,641829,220556,1218305,66631,7464,609110,0
21,-1,641460,219904,1215867,65908,7065,607974,0
21,-1,636428,217986,1258280,65460,8490,629107,0
21,-1,638175,218256,1126973,65463,7148,563536,0
21,-1,637187,218352,1406135,65520,8169,702799,0
21,-1,630733,217846,1146131,64944,6620,573107,0
21,-1,638135,218598,1231149,66030,7940,615628,0
21,-1,640100,218595,1346477,65946,7558,673271,0
22,-1,644813,220434,1228451,66556,8026,614119,0
22,0,710759,248056,1405961,73865,9823,702962,11
22,-1,687977,232770,1344687,71951,8355,672272,0
22,-1,636894,219725,1248317,66300,7518,624041,0
22,-1,637082,220404,1307812,66623,8635,653835,2
22,-1,657732,223524,1143039,69118,7932,571452,0
22,-1,643944,219328,1174906,65738,7443,587513,0
22,-1,639629,219294,1187626,65854,7887,593761,0
22,-1,636961,217822,1181616,65215,7047,590869,0
22,-1,634895,217935,1147027,65327,6938,573469,0
22,-1,650325,222390,1148501,68289,7885,574240,0
22,-1,641407,219624,1165276,66678,7044,582616,0
22,-1,638201,218272,1222647,65774,7354,611169,0
23,-1,658328,222429,1292535,68731,8483,646182,0
23,0,709119,247526,1431989,73636,9387,715610,11
23,-1,637216,218676,1181694,65848,7270,590898,0
23,-1,630534,218262,1161071,65568,7173,580561,0
23,-1,633633,218871,1159469,65900,7794,579659,2
23,-1,637354,219135,1135490,65927,7551,567705,0
23,-1,663888,223932,1213080,69045,7622,606587,0
23,-1,639383,219265,1196104,65844,7641,597334,0
23,-1,643864,220841,1160199,66569,7308,580173,0
23,-1,645754,219870,1213171,66161,8222,606715,0
23,-1,631443,217998,1122380,65053,6045,561255,0
23,-1,657289,222102,1251972,69040,7660,625969,0
23,-1,639236,217584,1257467,65537,7161,628761,0
24,-1,641507,220454,1245179,66512,7778,622581,0
24,0,708090,247819,1432681,73594,9031,716397,11
24,-1,636135,218524,1186721,65775,7362,593393,0
24,-1,631519,218457,1223150,65660,7111,611656,0
24,-1,634526,218183,1133527,65591,6435,566743,2
24,-1,638612,220042,1234238,66366,7664,617064,0
24,-1,643521,220145,1268365,66049,7067,634084,0
24,-1,642791,220481,1456401,66421,8587,727766,0
24,-1,635719,217867,1190121,65292,8032,595091,0
24,-1,640361,218111,1178942,65431,7914,589518,0
24,-1,629649,217737,1131190,64901,6043,565645,0
24,-1,637857,218498,1217763,66071,7241,608776,0
24,-1,644188,220100,1172511,66602,6874,586315,0
25,-1,636616,217975,1226024,65535,7382,613021,0
25,0,712642,248213,1467595,73678,10582,733813,11
25,-1,640949,220785,1184683,66809,7875,592419,0
25,-1,635521,218272,1265272,65643,6427,632028,0
25,-1,640588,220467,1265849,66632,7594,632960,2
25,-1,634933,218577,1246556,65652,7913,623258,0
25,-1,643081,219682,1174359,65834,6586,587262,0
25,-1,635405,218455,1238784,65575,7338,619447,0
25,-1,634708,218139,1120804,65418,7299,560588,0
25,-1,638940,217570,1257977,65153,8249,628891,0
25,-1,634215,219592,1191904,65733,6403,596009,0
25,-1,637923,218490,1125236,66002,6607,562563,0
25,-1,660250,223051,1284474,69170,8023,642226,0
26,-1,634872,217539,1224880,65360,7022,612251,0
26,0,710861,247111,1369438,73268,9171,684458,11
26,-1,655301,222866,1203110,68982,8519,601648,0
26,-1,644773,218567,1374165,65695,8378,686674,0
26,-1,632519,218617,1146638,65805,7205,573248,2
26,-1,646135,220731,1317848,66683,8287,659018,0
26,-1,641549,219647,1241687,65930,6836,620927,0
26,-1,663095,227872,1164516,68362,7166,582147,0
26,-1,646610,220547,1257705,66520,8159,628974,0
26,-1,639313,218102,1167503,65421,7640,583750,0
26,-1,628578,217914,1245136,64965,6522,622617,0
26,-1,637677,219040,1263023,66350,7950,631469,0
26,-1,636329,217862,1154908,65715,7072,577510,0
27,-1,635615,218107,1292564,65588,7018,646258,0
27,0,711799,248024,1373900,73655,8699,686536,11
27,-1,632816,217620,1261362,65406,7259,630721,0
27,-1,647870,220483,1335906,66614,9309,667904,0
27,-1,641767,220928,1186090,66806,7351,592945,2
27,-1,662930,223621,1363674,69177,8475,681828,0
27,-1,639934,219408,1176735,65940,6632,588413,0
27,-1,634309,218124,1246462,65440,8076,623254,0
27,-1,664153,223247,1232111,68892,8719,616055,0
27,-1,639713,218115,1417953,65386,9660,708934,0
27,-1,645020,218171,1474729,65415,7615,737420,0
27,-1,637681,218178,1324164,65943,7896,662093,0
27,-1,640539,220074,1146516,66756,7646,573317,0
28,-1,655092,222403,1245018,68780,7808,622428,0
28,0,707657,247715,1539640,73436,9120,769856,11
28,-1,639838,218729,1257105,65870,7261,628549,0
28,-1,643925,218614,1377802,65709,8472,688904,0
28,-1,634569,218614,1204896,65791,7018,602516,2
28,-1,639859,218665,1308528,65783,7273,654287,0
28,-1,661886,223310,1167897,69012,7203,583931,0
28,-1,639322,220603,1291420,66526,7381,645831,0
28,-1,639461,218132,1269035,65421,8188,634647,0
28,-1,646293,220942,1204275,66643,8538,602125,0
28,-1,650951,220935,1454954,66607,7123,727485,0
28,-1,635660,217755,1222963,65793,7725,611438,0
28,-1,639295,218119,1180862,65686,7387,590469,0
29,-1,634900,218033,1140764,65539,7059,570422,0
29,0,708406,248237,1330780,73717,8546,665309,11
29,-1,665826,224363,1281352,70036,8189,640571,0
29,-1,644231,219824,1391607,66330,8709,695728,0
29,-1,643380,219889,1232336,66107,7494,616181,0
29,-1,634972,218766,1177610,65741,7996,588757,2
29,-1,643659,220136,1248369,66231,7318,624234,0
29,-1,655204,222990,1236773,68837,8208,618458,0
29,-1,642058,219243,1442012,65819,9790,720952,0
29,-1,661677,222837,1231770,68751,9482,615747,0
29,-1,664227,222428,1378765,68653,8688,689382,0
29,-1,635830,218073,1234329,65880,6787,617133,0
29,-1,641822,219179,1194200,66345,7514,597175,0
30,-1,635738,217634,1223078,65383,7560,611545,0
30,0,707750,247613,1389828,73536,9134,694894,11
30,-1,636940,217969,1153457,65656,6918,576785,0
30,-1,644009,219373,1179706,65974,8587,589756,0
30,-1,640734,219529,1229815,66212,7208,614965,0
30,-1,664195,227896,1221428,68544,7451,610611,2
30,-1,641596,219321,1310920,65916,6406,655586,0
30,-1,641054,219756,1245266,66190,7878,622702,0
30,-1,640910,218437,1242415,65478,8455,621200,0
30,-1,638421,218079,1143471,65346,7343,571668,0
30,-1,643830,218473,1293487,65576,7011,646726,0
30,-1,653381,222201,1281613,68997,8848,640769,0
30,-1,639838,218754,1153190,66109,7560,576650,0
31,-1,637005,218434,1169957,65672,7398,584950,0
31,0,707692,248228,1305856,73783,8299,652646,11
31,-1,640455,218663,1172538,65755,7544,586336,0
31,-1,640713,218382,1279011,65629,8280,639453,0
31,-1,641595,219062,1177508,65918,7199,588745,0
31,-1,636270,218736,1212801,65812,7831,606245,2
31,-1,638586,218821,1264398,65863,6411,632244,0
31,-1,636073,218380,1180496,65563,7797,590538,0
31,-1,639358,218263,1166966,65452,7973,583488,0
31,-1,639474,218395,1267822,65502,9111,633903,0
31,-1,643354,218361,1337486,65562,7859,668791,0
31,-1,637798,217903,1229000,65783,7136,614491,0
31,-1,636826,217686,1248920,65684,7618,624503,0
32,-1,639088,219645,1255208,66258,7288,627549,0
32,0,708005,247736,1340001,73642,9489,670049,11
32,-1,637224,218042,1379771,65599,8981,689873,0
32,-1,640282,218007,1221509,65468,8471,610685,0
32,-1,638508,218264,1175219,65649,6779,587277,0
32,-1,631766,218907,1122691,65855,6001,561255,2
32,-1,638695,219193,1181694,65936,6240,590860,0
32,-1,636995,219159,1233161,65742,7857,616550,0
32,-1,660708,223366,1249157,68916,8738,624249,0
32,-1,641090,218145,1234109,65363,9049,616959,0
32,-1,649024,220264,1300642,66373,7937,650276,0
32,-1,643057,220399,1180975,66899,6835,590506,0
32,-1,637118,218500,1202332,66081,7168,601209,0
33,-1,632955,217530,1150642,65294,6884,575321,0
33,0,706296,247658,1391944,73632,8501,695962,11
33,-1,645292,221181,1278710,66939,8144,639568,0
33,-1,640485,218336,1297554,65672,8588,648756,0
33,-1,656740,222949,1190975,68950,7697,595475,0
33,-1,640317,221113,1287435,66745,7064,643808,2
33,-1,643272,220907,1239180,66795,6679,619709,0
33,-1,635231,218011,1226114,65371,7515,613086,0
33,-1,642489,218585,1203729,65533,8302,601942,0
33,-1,637260,217756,1127446,65258,6667,563788,0
33,-1,643998,218534,1326767,65625,7782,663294,0
33,-1,658024,222772,1242445,69196,8087,621192,0
33,-1,634737,217529,1176528,65707,7592,588302,0
34,-1,633432,217106,1210012,65219,7349,604941,0
34,0,705013,247783,1608231,73744,9958,804152,11
34,-1,638602,218289,1233799,65622,7019,616961,0
34,-1,641166,218983,1221739,65854,8426,610891,0
34,-1,638844,218385,1279430,65655,7529,639702,0
34,-1,637622,218682,1207993,65652,6464,604189,2
34,-1,659648,223933,1174299,69315,6976,587196,0
34,-1,635334,218641,1322612,65646,7839,661344,0
34,-1,639505,218135,1298574,65434,8882,649255,0
34,-1,642682,219769,1155987,66216,7418,578041,0
34,-1,640798,217585,1240190,65324,7108,620122,0
34,-1,637037,218017,1236973,65883,7869,618514,0
34,-1,638139,218608,1238685,66089,7733,619455,0
35,-1,640510,220382,1326538,66594,7627,663265,0
35,0,705754,246969,1406504,73423,9032,703266,11
35,-1,636424,218182,1189279,65646,6765,594727,0
35,-1,642954,219747,1473935,66232,8900,736476,0
35,-1,642156,219590,1303354,66015,7206,651656,0
35,-1,643430,220962,1177739,66640,7062,588931,2
35,-1,643203,219232,1176256,65947,7571,588179,0
35,-1,640065,219690,1248863,66163,8293,624358,0
35,-1,642259,219637,1242550,66031,8160,621238,0
35,-1,638360,218542,1177790,65575,7151,588954,0
35,-1,665656,222611,1405916,68748,9203,703007,0
35,-1,642199,219327,1197099,66463,7741,598520,0
35,-1,636359,217947,1220381,65817,7234,610216,0
36,-1,654134,222514,1251411,68808,7902,625575,0
36,0,726481,251869,1450768,76936,10085,725241,11
36,-1,637958,218850,1215709,65860,7040,607902,0
36,-1,641212,218625,1298008,65728,8875,648888,0
36,-1,638996,218888,1232807,65849,6510,616449,0
36,-1,641904,220149,1144077,66209,6779,572089,2
36,-1,647995,221139,1262627,66770,7526,631483,0
36,-1,634215,217860,1123332,65398,7461,561718,0
36,-1,641725,219250,1180430,65775,7585,589971,0
36,-1,639322,218602,1210599,65582,7431,605354,0
36,-1,646062,219910,1288087,66257,7857,643856,0
36,-1,636804,217934,1195115,65880,7611,597540,0
36,-1,638041,218536,1152946,66057,6767,576520,0
37,-1,634550,218303,1142283,65647,7081,571077,0
37,0,708211,247895,1593644,73838,10285,796887,11
37,-1,635752,217621,1180568,65324,7166,590323,0
37,-1,641445,218851,1358755,65765,8644,679448,0
37,-1,636912,218422,1140501,65698,6667,570374,0
37,-1,642518,219387,1115305,66046,7182,557712,0
37,-1,646867,221414,1226812,66749,7878,613522,2
37,-1,634143,218263,1294031,65554,8757,647013,0
37,-1,637000,217760,1416626,65266,8879,708328,0
37,-1,641387,219539,1247234,66079,7372,623825,0
37,-1,639772,217819,1227468,65346,6483,613126,0
37,-1,643740,221266,1353561,67289,9515,676714,0
37,-1,635201,217805,1244641,65787,6784,622353,0
38,-1,631977,217859,1146642,65532,7382,573290,0
38,0,706535,247016,1451502,73525,9215,725764,11
38,-1,645049,220809,1253546,66641,7683,626889,0
38,-1,659522,223197,1290047,69038,8944,644897,0
38,-1,636007,218111,1179146,65552,6766,589587,0
38,-1,643416,219762,1146392,66092,7271,573263,0
38,-1,639855,220548,1158007,66187,6878,579060,2
38,-1,634862,218803,1301333,65773,8555,650869,0
38,-1,638114,218357,1453321,65570,9907,726347,0
38,-1,639583,219038,1188887,65700,7364,594474,0
38,-1,641118,218031,1169827,65433,6277,584734,0
38,-1,636673,218273,1326176,66027,8066,663096,0
38,-1,635846,218034,1269425,65833,7382,634744,0
39,-1,636958,218633,1247766,65749,7472,623868,0
39,0,709921,248163,1418501,73902,9884,709289,11
39,-1,659802,222950,1263112,68904,8096,631538,0
39,-1,641225,218142,1277589,65546,7655,638822,0
39,-1,638537,219188,1224093,65887,6804,612069,0
39,-1,642992,219895,1159259,66179,7450,579644,0
39,-1,639991,219754,1193909,65889,6583,596975,2
39,-1,636775,219847,1396512,66304,8462,697967,0
39,-1,644032,220536,1256154,66484,8035,628004,0
39,-1,638170,217666,1132108,65225,7137,566097,0
39,-1,648088,221097,1189627,66709,7019,594957,0
39,-1,636031,218119,1274376,65877,8135,637560,0
39,-1,635095,217957,1242673,65891,7930,621348,0
40,-1,635530,218660,1256521,66020,7082,628242,0
40,0,705830,247148,1434232,73502,9197,717148,11
40,-1,639270,218872,1152190,65792,7262,576141,0
40,-1,640892,218680,1235283,65783,8729,617556,0
40,-1,656793,223016,1184603,68986,7550,592372,0
40,-1,641418,219333,1135374,65856,6901,567730,0
40,-1,642278,221180,1260869,66773,7494,630504,2
40,-1,643138,219591,1332112,65989,7834,665961,0
40,-1,659869,223156,1242399,68857,9038,621253,0
40,-1,638183,218255,1222122,65440,6701,611068,0
40,-1,639107,217974,1235412,65382,6469,617736,0
40,-1,635142,218140,1301830,65946,8660,650565,0
40,-1,638738,219576,1180138,66564,7747,590107,0
41,-1,633279,217587,1197876,65368,7588,598900,0
41,0,706582,247461,1413180,73655,8555,706616,11
41,-1,638601,218929,1161769,65753,6913,580977,0
41,-1,644169,219645,1209087,66046,8488,604540,0
41,-1,637243,218715,1228910,65803,7068,614284,0
41,-1,643569,220025,1111137,66190,6962,555623,0
41,-1,640812,219410,1213098,65916,7226,606592,2
41,-1,643848,218362,1203478,65619,8131,601775,0
41,-1,632818,216644,1167464,64892,7423,583671,0
41,-1,640868,219699,1236038,66120,7025,618022,0
41,-1,646173,219376,1138374,66095,7533,569225,0
41,-1,634735,218284,1211633,65985,7401,605665,0
41,-1,661852,227755,1293540,68807,8666,646810,0
42,-1,638846,219678,1170596,66249,7777,585255,0
42,0,713810,249396,1508394,74567,9679,754259,11
42,-1,655687,223056,1244558,68940,7382,622211,0
42,-1,644976,220476,1351542,66604,9590,675615,0
42,-1,643589,219762,1325830,66263,7708,662981,0
42,-1,642572,219513,1161253,65933,7077,580633,0
42,-1,637809,218744,1169946,65711,7017,585006,2
42,-1,645699,219785,1258963,66273,7923,629530,0
42,-1,636694,218392,1238155,65500,7759,619091,0
42,-1,638863,218297,1305189,65436,6877,652630,0
42,-1,641786,218290,1149297,65559,6593,574704,0
42,-1,634377,217897,1230457,65828,7750,615240,0
42,-1,637068,217832,1237137,65773,7638,618660,0
43,-1,631392,217785,1106037,65430,7337,553043,0
43,0,709363,247433,1471367,73698,8602,735718,11
43,-1,638056,218589,1161993,65636,7300,581039,0
43,-1,639409,218710,1291619,65733,8098,645773,0
43,-1,637035,218214,1226106,65590,7500,613116,0
43,-1,641444,219373,1131335,66011,6662,565692,0
43,-1,671536,230299,1296234,69469,7469,648199,2
43,-1,642821,219050,1269766,65854,7772,635083,0
43,-1,639222,219370,1251433,66028,7933,625788,0
43,-1,638603,218556,1202944,65595,6842,601555,0
43,-1,640425,218184,1255666,65400,6538,627883,0
43,-1,659102,222709,1343428,69190,8761,671719,0
43,-1,640505,218390,1148402,66007,7734,574243,0
43,-1,648969,221505,1283006,67399,8537,641127,0
44,-1,636804,218627,1123410,65725,7570,561572,0
44,-1,639858,219778,1281342,66265,7517,640598,0
44,0,709968,248854,1401788,74329,9768,700898,11
44,-1,645265,219781,1297755,66244,8856,648655,0
44,-1,640699,219402,1242424,66013,7390,621212,0
44,-1,641237,219817,1181718,66094,6833,590936,0
44,-1,640919,218915,1216971,65677,7599,608506,2
44,-1,642675,218799,1237206,65720,7619,618696,0
44,-1,660974,223953,1204098,69074,7868,602070,0
44,-1,636280,217804,1233157,65271,7312,616602,0
44,-1,645536,219537,1177125,66204,7102,588639,0
44,-1,633592,217552,1117795,65691,7327,558887,0
44,-1,659499,222755,1220183,69172,8752,610155,0
44,-1,644592,220065,1188619,66750,8371,594267,0
45,-1,636880,219378,1167743,66236,7515,583747,0
45,-1,634435,218204,1171536,65473,6930,585811,0
45,0,714089,249072,1548139,74375,10875,773872,11
45,-1,639819,218726,1336847,65739,8446,668460,0
45,-1,641675,220572,1256115,66714,7709,628044,0
45,-1,641750,220197,1149813,66196,6673,574946,0
45,-1,641713,218408,1157701,65617,7348,578882,0
45,-1,637549,218897,1252238,65731,8312,626163,2
45,-1,639228,218402,1164158,65509,7496,582132,0
45,-1,660552,223897,1181146,69076,7934,590585,0
45,-1,661141,222187,1294600,68570,7820,647348,0
45,-1,641862,220132,1171438,66764,7636,585724,0
45,-1,638969,218642,1204973,66051,7553,602515,0
45,-1,646825,220825,1113774,67181,6895,556941,0
46,-1,633233,218165,1142753,65580,6865,571337,0
46,-1,641002,220599,1368230,66599,9159,683863,0
46,0,713657,248340,1440382,73972,9436,720238,11
46,-1,641997,219976,1476335,66455,9360,737608,0
46,-1,637829,218738,1208287,65806,7170,604171,0
46,-1,639242,219580,1253010,65971,6811,626633,0
46,-1,641344,218598,1236775,65732,7821,618447,0
46,-1,633908,218476,1300317,65680,8190,649770,2
46,-1,638458,218632,1161376,65598,6679,580725,0
46,-1,638537,218185,1148048,65383,6960,574058,0
46,-1,639963,217863,1262105,65381,7087,631135,0
46,-1,633463,217709,1185343,65801,7435,592628,0
46,-1,637161,218153,1167126,65847,7246,583674,0
46,-1,640594,218890,1143174,66218,7088,571625,0
47,-1,630948,217553,1141878,65316,7223,570929,0
47,-1,652831,221922,1358587,68598,7917,680283,0
47,0,729289,252041,1490025,76969,10190,744942,11
47,-1,659857,222889,1250349,68874,8717,624933,0
47,-1,637759,218825,1213270,65805,6391,606698,0
47,-1,642096,218933,1161759,65711,7370,580912,0
47,-1,642672,218744,1255196,65708,7953,627632,0
47,-1,636512,218872,1182707,65784,7789,591384,2
47,-1,639772,219209,1219072,65893,7159,609594,0
47,-1,637724,218260,1234687,65463,7212,617373,0
47,-1,640104,217841,1179866,65347,6639,589973,0
47,-1,632575,217464,1205679,65678,7214,602820,0
47,-1,639320,218428,1206644,65963,7183,603367,0
47,-1,645319,220097,1122926,66826,7276,561566,0
48,-1,629575,217440,1143478,65301,7282,571731,0
48,-1,637313,219231,1229212,65871,7222,614624,0
48,0,712729,249870,1502586,74740,9889,751267,11
48,-1,638790,218443,1306903,65645,8375,653546,0
48,-1,635743,218369,1138721,65682,6833,569341,0
48,-1,661798,223956,1196706,69228,7981,598329,0
48,-1,645143,220246,1232103,66453,7912,616179,0
48,-1,642228,219578,1143740,65838,6936,571906,2
48,-1,638525,219017,1131955,65699,7148,566020,0
48,-1,641380,219904,1217885,66184,7076,609008,0
48,-1,642412,219075,1244559,65781,6766,622318,0
48,-1,641059,220605,1175889,66994,7512,587921,0
48,-1,638038,218172,1254485,65859,7821,627306,0
48,-1,641963,219261,1181885,66385,7460,591032,0
49,-1,663649,223292,1282145,69023,7930,640986,0
49,-1,642534,219380,1300625,66073,8226,650163,0
49,0,712868,249570,1601767,74638,9616,800904,11
49,-1,642657,220318,1286650,66492,8875,643419,0
49,-1,658420,223245,1173475,69063,7465,586655,0
49,-1,642081,219592,1276536,66040,7611,638321,0
49,-1,645236,218807,1201996,65648,7686,601023,0
49,-1,639269,219011,1236960,65557,7259,618581,2
49,-1,641692,219752,1269027,66212,7806,634655,0
49,-1,637332,218310,1153049,65484,7001,576572,0
49,-1,641011,218796,1208295,65816,6585,604243,0
49,-1,636978,218557,1238180,66066,7069,619168,0
49,-1,635882,217728,1233804,65742,7082,616908,0
49,-1,641774,219392,1237295,66364,7792,618694,0
50,-1,638376,218008,1141339,65510,7093,570683,0
50,-1,638403,218192,1238236,65539,7568,619337,0
50,0,710288,248631,1317537,74078,8302,658869,11
50,-1,638430,218878,1265550,65852,8705,633062,0
50,-1,636541,219232,1219792,65866,7045,609890,0
50,-1,639871,219208,1266537,65824,6735,633315,0
50,-1,641650,218511,1306704,65787,8364,653135,0
50,-1,642764,219601,1137017,65745,7338,568539,2
50,-1,638261,218443,1318293,65532,7693,659268,0
50,-1,641464,220284,1295272,66379,6726,647701,0
50,-1,641551,217782,1235531,65327,7355,617801,0
50,-1,633758,217690,1200491,65692,7353,600211,0
50,-1,637910,218825,1235405,66145,7709,617792,0
50,-1,639497,218719,1319285,66148,8139,659689,0
51,-1,640953,219240,1266337,66089,7221,633108,0
51,-1,639950,218978,1246176,65803,6944,623084,0
51,0,703414,246526,1334881,73414,8459,667517,11
51,-1,641167,219084,1263116,65861,7939,631575,0
51,-1,660761,223195,1207513,68939,8486,603737,0
51,-1,637792,218790,1238719,65765,6721,619302,0
51,-1,640977,218097,1236344,65501,8146,618347,0
51,-1,643337,220947,1226753,66609,7131,613446,2
51,-1,641880,219767,1227884,66123,7451,614013,0
51,-1,633695,217646,1108051,65147,6941,554061,0
51,-1,659829,222371,1252547,68632,7632,626364,0
51,-1,635169,218213,1201882,66005,7401,600899,0
51,-1,634750,217782,1292295,65803,7700,646195,0
51,-1,645412,218537,1226833,66163,7870,613275,0
52,-1,642118,220139,1261162,66557,6946,630540,0
52,-1,641342,220195,1265308,66480,7749,632591,0
52,0,710454,248971,1464223,74366,9853,730034,11
52,-1,640604,218373,1213746,65626,7786,606933,0
52,-1,638285,218737,1259151,65718,7341,629611,0
52,-1,642079,220176,1245501,66383,7219,622818,0
52,-1,642223,218832,1304832,65692,8117,652222,0
52,-1,635032,218040,1294213,65344,7568,647154,0
52,-1,635911,218538,1233743,65559,7751,616929,2
52,-1,642879,219749,1200369,66123,6876,600163,0
52,-1,643473,219493,1227861,65901,6706,613914,0
52,-1,655160,222962,1222959,69302,8941,611541,0
52,-1,641066,220515,1179957,67014,6628,590041,0
52,-1,647033,219892,1244930,66625,7225,622622,0
53,-1,638022,218855,1133655,65705,6728,566810,0
53,-1,637753,218563,1216991,65662,6604,608467,0
53,0,709499,247631,1324757,73693,8287,662412,11
53,-1,639611,218479,1182249,65705,8348,591117,0
53,-1,641043,220047,1255744,66366,7770,627901,0
53,-1,637431,218442,1243629,65481,7184,621852,0
53,-1,640081,218002,1318879,65394,8506,659447,0
53,-1,640125,218354,1233791,65484,7465,616995,0
53,-1,637527,217822,1207369,65336,8204,603673,2
53,-1,644240,219296,1136269,65820,7098,568183,0
53,-1,642720,219722,1135316,66160,6502,567644,0
53,-1,633046,218334,1207470,65999,7596,603635,0
53,-1,654869,222509,1307643,69161,7843,653812,0
53,-1,644455,219137,1161304,66357,6774,580701,0
54,-1,635551,217909,1218439,65303,7053,609283,0
54,-1,637192,218336,1329681,65559,7523,664792,0
54,0,705460,247149,1393911,73550,8858,697023,11
54,-1,641004,218891,1236889,65780,8250,618817,0
54,-1,638895,219131,1238469,65940,7430,619306,0
54,-1,640163,219657,1213974,65950,7110,607039,0
54,-1,646153,220528,1347357,66514,8194,673359,0
54,-1,638590,217835,1195070,65275,6898,597570,0
54,-1,637630,218480,1237290,65550,8267,618685,2
54,-1,639913,218031,1115423,65381,7564,557738,0
54,-1,636603,217754,1282762,65301,8015,641414,0
54,-1,644906,219550,1294395,66602,8456,647150,0
54,-1,639613,218789,1244039,66142,7954,622156,0
54,-1,648081,219755,1195372,66625,7009,597733,0
55,-1,639580,218458,1143024,65568,7012,571465,0
55,-1,639629,219650,1168444,66001,7346,584317,0
55,0,713145,249652,1579219,74675,10525,790097,11
55,-1,640138,219031,1265402,65883,7624,632690,0
55,-1,643807,221389,1290368,66897,7393,645096,0
55,-1,636721,218621,1222657,65630,6990,611397,0
55,-1,661580,222934,1358835,68820,8861,679724,0
55,-1,643718,220192,1260875,66287,7370,630505,0
55,-1,634539,218240,1121826,65416,7569,560901,2
55,-1,639631,217857,1182557,65292,8012,591317,0
55,-1,643341,218780,1246427,65658,7157,623320,0
55,-1,640681,218205,1273982,65965,8349,636972,0
55,-1,639780,219309,1201597,66425,8065,600846,0
55,-1,644924,218976,1254552,66287,8350,627392,0
56,-1,639884,219013,1229465,66037,7358,614693,0
56,-1,635544,218478,1199963,65645,6532,599975,0
56,0,707449,247575,1545082,73712,10516,772224,11
56,-1,642979,220036,1295107,66458,8536,647386,0
56,-1,657482,223414,1311911,69135,7917,655886,0
56,-1,640644,219858,1297334,66311,7299,648715,0
56,-1,641692,219079,1368857,65717,8528,684077,0
56,-1,638232,218229,1224178,65401,7294,612136,0
56,-1,640634,219109,1223615,65769,7471,611899,2
56,-1,641246,218361,1199509,65499,8526,599789,0
56,-1,663052,222414,1266454,68658,8262,633185,0
56,-1,638998,218117,1166588,65886,8195,583255,0
56,-1,638474,218571,1310761,66060,7919,655437,0
56,-1,666701,223918,1401962,69702,8378,700735,0
57,-1,637182,217829,1313098,65449,7686,656393,0
57,-1,659442,223356,1252442,69056,7980,626453,0
57,0,710864,248193,1452920,73882,9966,726493,11
57,-1,661713,222936,1192168,68840,8509,596122,0
57,-1,637587,218704,1265794,65753,7659,632897,0
57,-1,636983,218921,1263197,65820,7231,631680,0
57,-1,642692,218903,1354964,65655,8905,677191,0
57,-1,658572,222675,1177754,68627,7797,588939,0
57,-1,635867,218521,1097899,65552,7920,548989,2
57,-1,638530,218468,1107293,65494,7359,553561,0
57,-1,641782,217945,1250482,65416,7671,625257,0
57,-1,637616,217354,1165739,65596,7410,582811,0
57,-1,635139,217523,1333911,65683,7777,666855,0
57,-1,642902,219300,1222744,66402,7010,611457,0
58,-1,635876,218044,1334840,65567,7487,667482,0
58,-1,635808,218591,1132047,65670,6312,566004,0
58,0,710373,248044,1566174,73810,9982,783093,11
58,-1,639765,218722,1388548,65750,8130,694266,0
58,-1,640628,219962,1241861,66368,7124,620918,0
58,-1,638841,219439,1205167,66000,7112,602636,0
58,-1,661887,223837,1354659,69116,9237,677684,0
58,-1,643367,220184,1289942,66258,7513,645018,0
58,-1,638098,218273,1260598,65484,7754,630350,2
58,-1,636375,217893,1169225,65317,7892,584603,0
58,-1,642116,218148,1155120,65411,7164,577592,0
58,-1,637912,217982,1222977,65844,7867,611474,0
58,-1,635718,218241,1239072,65959,7467,619592,0
58,-1,643556,218845,1131703,66177,7019,565892,0
59,-1,641309,219874,1230098,66428,7406,615059,0
59,-1,641128,220183,1272776,66287,8191,636326,0
59,0,714055,249226,1635282,74192,9815,816792,11
59,-1,638430,218072,1370681,65594,8771,684634,0
59,-1,635390,218132,1215884,65589,7212,607992,0
59,-1,637121,218906,1154619,65743,6985,577361,0
59,-1,639110,218004,1280016,65442,8384,638993,0
59,-1,638466,218457,1221907,65452,7010,611003,0
59,-1,640243,219074,1129991,65735,7012,565022,2
59,-1,640631,218365,1121198,65523,7476,560404,0
59,-1,644398,219300,1242551,65820,7687,621318,0
59,-1,639524,218274,1274520,65923,7979,637317,0
59,-1,639179,218973,1236054,66132,7871,618051,0
59,-1,642583,218887,1231508,66257,7208,615871,0
60,-1,658088,222869,1271041,68925,8187,635640,0
60,-1,638156,219319,1192383,65828,7062,595974,0
60,0,713482,248085,1425274,73792,9465,712670,11
60,-1,642164,219775,1292379,66330,8440,646170,0
60,-1,655485,222781,1190232,68894,7543,595018,0
60,-1,656629,223306,1182455,68974,8267,591216,0
60,-1,641312,219447,1247921,66042,7505,624025,0
60,-1,665460,227778,1284689,68172,7824,642385,0
60,-1,647843,220726,1197873,66624,8406,598849,2
60,-1,637854,218127,1241242,65445,7306,620602,0
60,-1,642557,218195,1232281,65483,7258,616132,0
60,-1,641220,218866,1304744,66105,8250,652370,0
60,-1,640891,219977,1161688,66774,7553,580945,0
60,-1,665508,223773,1300330,69693,8772,650061,0
61,-1,635512,218066,1164498,65584,7045,582391,0
61,-1,636268,218614,1141828,65545,7654,570832,0
61,0,709409,247981,1436519,73798,10193,718285,11
61,-1,634944,217267,1375337,65382,7853,687410,0
61,-1,634425,218178,1265991,65554,6670,633041,0
61,-1,635800,219080,1249105,65740,8015,624588,0
61,-1,641563,219794,1159690,66026,6476,579882,0
61,-1,657699,222575,1157107,68586,7917,578489,0
61,-1,634703,218685,1265217,65608,7481,632598,2
61,-1,636410,217612,1223631,65161,6829,611768,0
61,-1,667444,227069,1277040,68063,7289,638600,0
61,-1,637142,217501,1144354,65593,7493,572169,0
61,-1,657934,222907,1284043,69287,8919,641962,0
61,-1,644034,219730,1287575,66538,7548,643825,0
62,-1,634416,218037,1128577,65536,6963,564298,0
62,-1,636279,219084,1190753,65735,7465,595066,0
62,0,714865,248507,1359967,73944,9051,679517,11
62,-1,643534,219546,1421442,66314,8800,710035,0
62,-1,634000,218564,1235188,65707,6654,617728,0
62,-1,645966,220397,1294420,66391,8845,647176,0
62,-1,636728,217917,1236950,65366,7463,618560,0
62,-1,635703,218214,1118816,65330,6646,559418,0
62,-1,635306,218390,1164199,65535,7054,582100,2
62,-1,637896,218539,1253760,65521,7620,626859,0
62,-1,643259,218666,1140274,65579,7389,570176,0
62,-1,637892,218237,1212146,65949,8024,606011,0
62,-1,636275,218493,1221917,65983,7824,611010,0
62,-1,643964,220180,1173179,66811,7472,586625,0
63,-1,636675,218976,1255116,66029,7190,627539,0
63,-1,636542,219123,1145045,65699,7938,572299,0
63,0,721869,251913,1447527,76857,9351,723715,11
63,-1,644320,220178,1302137,66534,8612,651470,0
63,-1,638486,219114,1152113,65878,7093,576030,0
63,-1,638897,218177,1103905,65414,7135,551914,0
63,-1,647989,220673,1243306,66554,7440,621664,0
63,-1,639767,220027,1218638,66162,7577,609390,0
63,-1,634153,217356,1250383,65083,7629,625078,0
63,-1,635837,218596,1106525,65582,6652,553327,2
63,-1,642733,219003,1197798,65940,7357,598942,0
63,-1,635532,217808,1227137,65734,7774,613544,0
63,-1,633183,217364,1141548,65635,7253,570769,0
63,-1,641984,218510,1297062,66010,6944,648659,0
64,-1,637643,217820,1112589,65438,6564,556300,0
64,-1,641204,220540,1193747,66502,8686,596874,0
64,0,703428,248288,1393613,73886,8432,696861,11
64,-1,659928,223015,1227981,69025,9586,613963,0
64,-1,635476,218330,1181733,65586,6742,590795,0
64,-1,640144,218660,1211908,65573,8086,606021,0
64,-1,664013,223503,1232951,68936,7604,616451,0
64,-1,642042,218998,1217329,65581,7317,608724,0
64,-1,639947,218258,1218187,65476,7727,609062,0
64,-1,640038,218850,1223056,65673,7199,611577,2
64,-1,642071,219027,1218460,65752,6832,609277,0
64,-1,644313,219949,1296788,66735,7754,648376,0
64,-1,636555,219042,1235609,66207,7179,617845,0
64,-1,648773,221161,1172573,67179,7176,586401,0
65,-1,636829,217890,1169188,65516,6888,584511,0
65,-1,662002,223820,1219507,69022,8067,609692,0
65,0,705212,248937,1300490,74103,8585,650146,11
65,-1,641336,220362,1231270,66578,8145,615668,0
65,-1,635631,218716,1132828,65723,7438,566334,0
65,-1,643084,219765,1252480,65983,7307,626041,0
65,-1,643257,218936,1216032,65735,6735,608073,0
65,-1,640646,218832,1171560,65618,7207,585816,0
65,-1,637664,217815,1127409,65285,7165,563700,0
65,-1,637035,218506,1105476,65570,6942,552722,2
65,-1,637964,217568,1198884,65237,7137,599531,0
65,-1,637776,217923,1140222,65819,7676,570133,0
65,-1,635807,218918,1182083,66335,7550,591087,0
65,-1,663242,223306,1253337,69450,7594,626676,0
66,-1,634938,217360,1153383,65299,7205,576476,0
66,-1,641005,219734,1199874,65949,7846,599612,0
66,0,703534,248417,1481353,73931,12588,740194,11
66,-1,639257,218367,1182193,65751,7941,591285,0
66,-1,632947,218248,1133693,65600,6607,566791,0
66,-1,639354,218738,1162966,65584,6536,581506,0
66,-1,647546,220306,1272465,66399,7222,636298,0
66,-1,659285,223314,1153532,68754,7740,576847,0
66,-1,643802,220432,1295796,66359,6940,647656,0
66,-1,643231,220955,1211783,66624,7441,605780,2
66,-1,639013,217608,1241497,65260,6966,620779,0
66,-1,637073,217823,1215037,65798,7285,607543,0
66,-1,637704,218178,1218313,65900,8572,609176,0
66,-1,645044,220103,1140034,66574,7260,570058,0
67,-1,642232,220223,1221210,66564,7330,610404,0
67,-1,642178,220622,1324503,66413,8720,662586,0
67,-1,638720,218225,1286678,65631,7846,643240,0
67,0,707779,249027,1617531,74326,11151,808187,11
67,-1,640118,220415,1172529,66570,6828,586142,0
67,-1,638968,219019,1141766,65610,6358,570920,0
67,-1,643065,219074,1220979,65829,7133,610529,0
67,-1,640209,219749,1158955,65844,6926,579525,0
67,-1,638499,218094,1217781,65400,7841,608968,0
67,-1,638607,218291,1233976,65430,7552,617046,2
67,-1,638739,217983,1324177,65439,7627,662135,0
67,-1,637279,218194,1177631,65958,7532,588843,0
67,-1,636976,218361,1276636,65902,8471,638371,0
67,-1,643223,219207,1220098,66297,7426,610101,0
68,-1,635070,217722,1149517,65471,6673,574710,0
68,-1,639235,219465,1358209,65886,7947,678694,0
68,-1,635944,217584,1229748,65464,8182,614546,0
68,0,702929,247613,1541713,73553,10497,770792,11
68,-1,635214,218609,1165840,65785,7358,582895,0
68,-1,640050,219073,1224811,65654,7270,612423,0
68,-1,641943,218998,1162530,65743,7080,581356,0
68,-1,641505,220052,1231858,66168,7573,615964,0
68,-1,640516,218978,1138020,65727,7215,569075,0
68,-1,633649,218220,1246773,65398,7707,623445,2
68,-1,639396,217686,1222452,65315,7345,611287,0
68,-1,638605,218655,1217000,66045,7341,608506,0
68,-1,635645,218142,1162618,65879,8347,581356,0
68,-1,643802,219549,1167396,66618,6490,583738,0
69,-1,633291,217907,1204748,65481,6693,602398,0
69,-1,665859,228733,1373148,68814,9376,686418,0
69,-1,644278,221082,1329064,66918,8649,664068,0
69,0,705490,247644,1473764,73613,10739,736590,11
69,-1,633830,218375,1139915,65645,7352,569947,0
69,-1,640537,219163,1210752,65801,6860,605450,0
69,-1,639930,218459,1231751,65567,6734,615957,0
69,-1,636577,218903,1134468,65583,6800,567285,0
69,-1,658092,222864,1180890,68770,7699,590403,0
69,-1,641439,220120,1179254,66279,6793,589672,2
69,-1,644430,220336,1168622,66497,6766,584423,0
69,-1,639541,219610,1186116,66714,8081,593063,0
69,-1,635959,218818,1154071,66114,8148,577108,0
69,-1,639889,218786,1150148,66157,7526,575124,0
70,-1,643164,220767,1252153,66564,7559,626101,0
70,-1,635395,218728,1265641,65657,8124,632562,0
70,-1,638368,218762,1240479,65905,7903,620110,0
70,0,708966,249228,1495921,74364,9875,747938,11
70,-1,635673,219482,1118983,66023,6706,559483,0
70,-1,644414,221112,1330224,66661,7496,665312,0
70,-1,644082,220468,1256081,66560,7003,628098,0
70,-1,638663,218829,1119255,65509,6824,559673,0
70,-1,636717,218429,1237194,65468,7104,618671,0
70,-1,639365,219016,1159033,65695,6991,579573,2
70,-1,639581,218091,1294271,65526,6798,647174,0
70,-1,655121,222070,1311102,69030,8563,655580,0
70,-1,637284,219453,1123688,66457,7875,561893,0
70,-1,641431,219239,1159326,66224,7614,579714,0
71,-1,656561,222547,1335117,68673,7585,667515,0
71,-1,634391,218358,1240431,65535,8124,620205,0
71,-1,636855,218332,1202432,65716,8098,601363,0
71,0,702551,246966,1359484,73490,8310,679744,11
71,-1,638896,220364,1170433,66501,7173,585167,0
71,-1,637799,219401,1214141,65883,6658,607120,0
71,-1,665083,224156,1195828,69237,8374,597971,0
71,-1,636145,218666,1158566,65442,7253,579341,0
71,-1,642675,220078,1237814,66261,7680,618911,0
71,-1,642761,219148,1284804,65698,7897,642451,2
71,-1,639522,218326,1369974,65595,8075,685021,0
71,-1,639707,218757,1189834,66351,8053,595024,0
71,-1,632664,217933,1188587,65853,7997,594347,0
71,-1,641543,218680,1150096,65979,6583,575077,0
72,-1,634734,217897,1252669,65316,7326,626387,0
72,-1,641851,220873,1508065,66644,9026,754465,0
72,-1,637292,218466,1242834,65802,8994,621284,0
72,0,703882,247821,1605107,73736,9459,802535,11
72,-1,638383,218349,1137046,65656,7153,568527,0
72,-1,643401,220355,1268422,66466,7315,634243,0
72,-1,639137,217670,1131343,65330,7517,565774,0
72,-1,639324,220369,1237850,66262,7616,618990,0
72,-1,637102,217881,1330978,65305,7505,665494,0
72,-1,643731,220330,1165680,66511,6952,582909,2
72,-1,642380,219623,1170764,66179,6899,585443,0
72,-1,634543,217690,1153879,65787,8319,576979,0
72,-1,632804,217980,1253880,65831,7841,626978,0
72,-1,643471,219716,1195367,66414,7371,597721,0
73,-1,634359,218145,1134774,65458,6795,567410,0
73,-1,632791,218395,1190492,65585,7469,595278,0
73,-1,635314,218105,1333890,65630,8710,666866,0
73,0,706529,248320,1497982,73833,9892,748765,11
73,-1,637884,218570,1238130,65650,7068,619103,0
73,-1,639568,219110,1317846,65721,6882,658963,0
73,-1,645772,220473,1240368,66481,7449,620254,0
73,-1,644236,219094,1229467,65584,7534,614785,0
73,-1,636363,218219,1269802,65482,7195,634732,0
73,-1,637562,218040,1233430,65492,6726,616815,0
73,-1,640138,218274,1160154,65533,6984,580095,2
73,-1,636533,218065,1163230,65811,7999,581591,0
73,-1,643629,218168,1250282,65882,7394,625146,0
73,-1,642362,219456,1145845,66274,6461,572969,0
74,-1,636202,218349,1215934,65518,6914,608008,0
74,-1,637016,220497,1346310,66424,8093,672475,0
74,-1,663138,223272,1282472,69187,9721,641103,0
74,0,709027,248621,1658113,73981,10332,828510,11
74,-1,640563,218832,1255528,65800,7362,627805,0
74,-1,639380,218884,1196854,65679,7111,598405,0
74,-1,641990,219408,1220300,65925,7324,610281,0
74,-1,645998,220151,1248056,66097,7625,624019,0
74,-1,655898,222199,1176570,68537,7573,588255,0
74,-1,660165,222488,1237895,68722,7665,618871,0
74,-1,638809,218380,1241386,65509,6844,620765,2
74,-1,639888,219812,1156470,66718,8802,578193,0
74,-1,646852,219901,1144012,66740,7689,572127,0
74,-1,666715,228112,1256997,68886,7389,628539,0
75,-1,638102,220227,1249742,66390,7120,624894,0
75,-1,642256,218528,1252857,65599,8184,626209,0
75,-1,641952,218749,1303336,65835,8280,651856,0
75,0,728760,252476,1569551,77025,11695,784700,11
75,-1,638579,219027,1230132,65878,6862,615109,0
75,-1,638231,218910,1170074,65677,6571,585087,0
75,-1,639920,218763,1349916,65650,7606,675020,0
75,-1,646548,220138,1157143,65866,7932,578615,0
75,-1,634692,218184,1232618,65438,7526,616345,0
75,-1,638585,218289,1228692,65550,6651,614328,0
75,-1,642165,218374,1192254,65625,7396,596169,2
75,-1,632722,218172,1226161,65123,7463,613085,0
75,-1,642355,218253,1339625,65965,8073,669869,0
75,-1,661530,223823,1219749,69588,9116,609855,0
76,-1,634798,216752,1284320,64952,7281,642263,0
76,-1,640810,218020,1195081,65397,8235,597407,0
76,-1,642960,219560,1276865,66130,8613,638408,0
76,0,709290,248573,1492927,73932,10048,746402,11
76,-1,640023,219466,1151096,66017,7374,575524,0
76,-1,641467,220309,1247172,66314,6831,623671,0
76,-1,641298,218487,1241024,65685,7159,620543,0
76,-1,641125,218473,1219966,65256,7499,610050,0
76,-1,639427,217830,1203313,65287,8267,601509,0
76,-1,636221,217832,1141093,65327,6501,570601,0
76,-1,646950,220935,1280611,66743,7653,639670,2
76,-1,636915,219078,1303447,65418,7259,651672,0
76,-1,645818,219409,1197723,66519,8298,598916,0
76,-1,646232,219894,1187721,66491,8464,593902,0
77,-1,640574,219531,1238249,66138,6922,619122,0
77,-1,647210,220898,1382271,66636,8879,691140,0
77,-1,642783,219238,1313381,66236,8368,656362,0
77,0,714062,249771,1651196,74534,11289,824982,11
77,-1,637898,218419,1249620,65657,7324,624822,0
77,-1,639358,219077,1254044,65679,7908,627068,0
77,-1,640185,218625,1247550,65630,7343,623818,0
77,-1,643287,218602,1232086,65368,7987,616147,0
77,-1,638592,217931,1159981,65382,7477,579949,0
77,-1,638243,218455,1329134,65495,8093,664618,0
77,-1,631710,218438,1132212,65192,6788,566164,2
77,-1,639702,218739,1187473,65485,7340,593752,0
77,-1,637784,216791,1213315,65529,8068,606741,0
77,-1,644333,219250,1238782,66321,8488,619382,0
78,-1,635673,217946,1161122,65362,6772,580493,0
78,-1,640082,218171,1315217,65477,7686,657465,0
78,-1,638584,217681,1262920,65460,7885,631526,0
78,0,703177,247868,1547417,73681,10516,773671,11
78,-1,636864,218469,1175532,65621,7108,587755,0
78,-1,634265,217914,1221034,65257,6989,610468,0
78,-1,662131,223602,1187462,69024,7974,593719,0
78,-1,647604,220931,1239202,66421,7638,619667,0
78,-1,637635,217743,1243486,65251,8241,621571,0
78,-1,639132,218650,1156103,65468,7388,578099,0
78,-1,639625,220871,1216268,66233,8436,608818,2
78,-1,637982,218563,1157216,65241,6922,578598,0
78,-1,638702,217470,1170130,65643,7631,585101,0
78,-1,640724,218391,1164614,65974,7569,582351,0
79,-1,634797,217734,1278153,65307,7197,638890,0
79,-1,640063,218364,1241670,65639,8273,620794,0
79,-1,641614,218478,1441732,65808,8209,720543,0
79,0,736081,258204,1531787,77019,9642,765892,11
79,-1,640522,220365,1275829,66504,7216,637897,0
79,-1,642249,220904,1262606,66677,7097,631385,0
79,-1,640752,218747,1204220,65649,7330,602158,0
79,-1,641891,218999,1245276,65540,7218,622643,0
79,-1,660016,222952,1161974,68795,8428,580914,0
79,-1,644759,220539,1119812,66392,6696,559887,0
79,-1,634970,217800,1151637,64949,7267,575802,2
79,-1,659805,223167,1286300,68526,8116,643152,0
79,-1,642563,219707,1155413,66693,7311,577781,0
79,-1,644864,219153,1309872,66287,8156,654926,0
80,-1,657319,223086,1249685,68873,7396,624721,0
80,-1,636036,217300,1134166,65293,8176,566781,0
80,-1,643333,220517,1298719,66724,8232,649130,0
80,0,706562,248534,1399461,73951,8520,699694,11
80,-1,639783,218947,1245244,65866,6596,622690,0
80,-1,636550,218773,1161859,65584,6659,580977,0
80,-1,640719,218870,1263341,65763,7711,631764,0
80,-1,638392,218115,1199958,65158,6847,600088,0
80,-1,638862,217909,1108247,65312,7200,554145,0
80,-1,643142,218483,1208807,65463,7602,604468,0
80,-1,631277,218173,1303830,65082,8389,651903,2
80,-1,639273,219987,1268438,65873,7103,633986,0
80,-1,641754,218288,1223944,65973,7566,612016,0
80,-1,640157,218590,1178970,66062,6798,589514,0
81,-1,633445,217749,1273507,65304,6700,636785,0
81,-1,640186,217813,1318492,65428,8743,658883,0
81,-1,638105,218710,1211118,65889,6808,605577,0
81,0,706759,247762,1409748,73686,8624,704863,11
81,-1,644932,221300,1224208,66940,7003,612095,0
81,-1,641821,220979,1229474,66624,7282,614845,0
81,-1,640118,218942,1165811,65732,7402,582990,0
81,-1,646580,220600,1242734,66243,8119,621428,0
81,-1,643720,220802,1163238,66472,7108,581553,0
81,-1,645692,219935,1168231,66126,7551,584172,0
81,-1,631851,217851,1190641,64945,7731,595364,2
81,-1,634201,218422,1301575,65149,7279,650766,0
81,-1,640991,218461,1291355,65920,7588,645686,0
81,-1,642188,218936,1190293,66188,7457,594994,0
82,-1,634579,217745,1170971,65372,7540,585404,0
82,-1,640419,218611,1279509,65609,7365,640035,0
82,-1,639261,218213,1239398,65717,7779,619783,0
82,0,707515,248937,1442103,74292,9240,720941,11
82,-1,659536,223395,1172442,69135,7201,586285,0
82,-1,657868,223563,1173997,68986,7987,586983,0
82,-1,641755,218417,1228343,65514,7652,614221,0
82,-1,640915,218408,1204235,65300,7581,602208,0
82,-1,637901,218409,1101413,65483,7503,550707,0
82,-1,642622,218075,1285155,65229,7359,642666,0
82,-1,636786,218480,1176544,65182,7410,588278,0
82,-1,637931,218654,1225346,66133,7680,612662,2
82,-1,642865,219300,1248407,66449,7765,624068,0
82,-1,661566,223842,1376065,69548,8644,688085,0
83,-1,634665,218060,1119405,65408,7181,559667,0
83,-1,639606,218424,1380389,65514,7972,690020,0
83,-1,660524,222656,1176792,68947,8345,588399,0
83,0,708965,248824,1446323,74085,8503,723110,11
83,-1,636717,218443,1276013,65726,7071,638057,0
83,-1,636727,219339,1243541,65763,7068,621808,0
83,-1,646108,220613,1120869,66281,7430,560470,0
83,-1,642811,219371,1134036,65657,7528,567067,0
83,-1,638051,218596,1166872,65532,7612,583359,0
83,-1,641514,218308,1263969,65421,7918,632174,0
83,-1,633582,217309,1257661,64694,7414,628886,0
83,-1,638868,218376,1242869,66017,7809,621503,2
83,-1,639540,218210,1238937,65945,7633,619424,0
83,-1,641825,219642,1159199,66597,7242,579652,0
84,-1,634972,218302,1104121,65475,6860,552041,0
84,-1,639758,218805,1346214,65679,7721,672454,0
84,-1,638728,218356,1227989,65749,7793,614040,0
84,0,708538,247972,1299755,73801,8342,649882,11
84,-1,637073,218755,1316431,65755,7106,658222,0
84,-1,639946,218600,1212535,65633,7265,606306,0
84,-1,641723,219266,1213212,65775,7431,606641,0
84,-1,642920,219375,1284000,65602,7738,642086,0
84,-1,644006,220454,1251837,66442,7718,625869,0
84,-1,648170,221005,1263567,66609,8973,630982,0
84,-1,656026,222714,1225184,68315,7900,612503,0
84,-1,633725,218451,1194336,66057,6896,597061,2
84,-1,637999,218171,1204042,65953,6941,601923,0
84,-1,641737,218822,1180649,66092,7247,590413,0
85,-1,633899,217926,1141708,65411,6423,570884,0
85,-1,644596,220357,1280386,66355,7983,639931,0
85,-1,641051,219397,1346061,66077,8341,673092,0
85,0,705960,248086,1280640,73822,8530,640239,11
85,-1,641677,220304,1217266,66507,6790,608679,0
85,-1,640717,219235,1196710,65794,7027,598405,0
85,-1,647418,221507,1225876,66902,7879,613015,0
85,-1,644640,220536,1228513,66243,7832,614388,0
85,-1,659099,222797,1298592,68743,8081,649297,0
85,-1,640391,217915,1160476,65257,8462,580287,0
85,-1,635232,218566,1254582,65194,7713,627250,0
85,-1,641355,220178,1158538,66890,7866,579183,2
85,-1,644631,219392,1219391,66532,7537,609747,0
85,-1,662539,223533,1243878,69538,7981,621944,0
86,-1,633817,218166,1113152,65541,6655,556510,0
86,-1,641313,219046,1256144,65753,7685,628165,0
86,-1,638407,219011,1143644,65973,7132,571867,0
86,0,705038,247424,1297173,73575,8437,648552,11
86,-1,635599,217949,1245817,65526,6788,622912,0
86,-1,657867,223336,1221335,68973,7642,610662,0
86,-1,661539,223555,1216091,68947,7932,608036,0
86,-1,660897,223524,1175730,68791,8239,587965,0
86,-1,638132,218607,1321291,65600,7516,660634,0
86,-1,642789,218632,1274846,65482,8936,637549,0
86,-1,634027,218207,1201354,65039,7464,600638,0
86,-1,634821,218171,1213553,65972,7027,606753,2
86,-1,638521,217318,1220122,65576,7347,609965,0
86,-1,637238,217859,1170080,65930,6585,585030,0
87,-1,637241,219512,1196417,66127,7283,598118,0
87,-1,643906,221031,1290128,66697,7981,645076,0
87,-1,637825,218059,1202360,65607,7612,601218,0
87,0,728674,252572,1324898,77092,10285,662406,11
87,-1,634569,218497,1148550,65671,6727,574314,0
87,-1,640819,220220,1242863,66265,6940,621516,0
87,-1,640979,219642,1224267,65925,7214,612187,0
87,-1,644804,220518,1193260,66230,7648,596684,0
87,-1,636803,218475,1234103,65540,7366,617059,0
87,-1,646734,220301,1256848,66267,7664,628358,0
87,-1,633047,217725,1314389,64941,7134,657173,0
87,-1,638479,219405,1174560,66394,7637,587347,2
87,-1,644079,220011,1227016,66817,7775,613599,0
87,-1,639053,218703,1306720,66187,6973,653403,0
88,-1,632692,218035,1174326,65493,6816,587129,0
88,-1,659661,223246,1311240,68955,8453,655503,0
88,-1,639381,218672,1145695,65741,6694,572891,0
88,0,707939,247849,1381283,73661,9176,690669,11
88,-1,639875,220285,1216401,66486,7745,608111,0
88,-1,637521,218108,1154168,65476,6494,577120,0
88,-1,641151,219173,1140337,65736,7736,570229,0
88,-1,633781,217156,1161500,64909,7795,580790,0
88,-1,641392,219711,1152521,65957,6687,576237,0
88,-1,638697,217898,1144142,65317,7144,572113,0
88,-1,629958,217498,1217170,64852,7600,608549,0
88,-1,635611,217897,1282754,65818,7528,641246,2
88,-1,638494,217936,1263119,65827,7199,631513,0
88,-1,638370,218525,1222886,66118,7007,611486,0
89,-1,656295,222396,1264490,68747,7951,632359,0
89,-1,638067,217428,1322725,65246,8081,661076,0
89,-1,640184,219652,1251950,66344,7192,626046,0
89,0,708071,248205,1472882,73871,8770,736389,11
89,-1,636040,218560,1143256,65698,6372,571572,0
89,-1,642273,220699,1245310,66568,7395,622718,0
89,-1,643468,220331,1205016,66374,7608,602581,0
89,-1,645705,220530,1226367,66318,7642,613243,0
89,-1,637741,218557,1238742,65551,7858,619357,0
89,-1,639091,218175,1306291,65347,7532,653181,0
89,-1,635300,218182,1244237,65079,7107,622126,0
89,-1,638165,218261,1204763,65945,7315,602446,2
89,-1,641151,219367,1230085,66511,7691,614997,0
89,-1,638697,218419,1164683,65966,7384,582371,0
90,-1,633069,217348,1132355,65284,6569,566212,0
90,-1,638484,218178,1303653,65593,8154,651521,0
90,-1,635990,218696,1106744,65856,7032,553425,0
90,0,712715,249250,1415308,74372,8772,707648,11
90,-1,636059,218910,1146566,65872,6689,573217,0
90,-1,655822,222707,1184626,68702,7216,592285,0
90,-1,640809,219613,1157277,65941,7797,578714,0
90,-1,663850,223951,1194944,68944,7860,597520,0
90,-1,636807,218388,1144132,65480,7023,571924,0
90,-1,646036,220289,1357969,66331,9379,679010,0
90,-1,634278,218141,1249389,65113,7306,624687,0
90,-1,640412,217724,1210547,65818,7603,605100,0
90,-1,636908,218365,1224104,66030,7716,612052,2
90,-1,637787,218664,1174251,65951,7978,587151,0
91,-1,634430,218336,1217950,65679,7354,608965,0
91,-1,637917,218309,1215208,65629,7923,607355,0
91,-1,646298,220670,1186914,66771,8065,593521,0
91,0,707430,248079,1371420,73756,8012,685707,11
91,-1,634287,218528,1110072,65613,6877,555043,0
91,-1,634328,218685,1221076,65520,6313,610550,0
91,-1,641114,219620,1292079,65802,7766,646061,0
91,-1,641229,219113,1209204,65611,7283,604637,0
91,-1,637074,218207,1231772,65412,7150,615917,0
91,-1,641402,219871,1156826,66087,6818,578509,0
91,-1,638019,219687,1170872,65777,7185,585429,0
91,-1,641889,218941,1172636,66203,7205,586330,0
91,-1,642745,220080,1166015,66903,7074,582809,2
91,-1,636634,218584,1146357,65875,6919,573214,0
92,-1,633171,218358,1218024,65683,6378,609043,0
92,-1,661117,223309,1296058,69125,8530,647871,0
92,-1,662678,223215,1190665,69118,8801,595345,0
92,0,709358,248635,1377971,73841,8148,688997,11
92,-1,639590,220429,1165571,66610,7574,582838,0
92,-1,664678,228103,1265926,68426,6972,633062,0
92,-1,639578,219355,1162036,65821,7709,581050,0
92,-1,644752,220276,1280371,66186,7351,640225,0
92,-1,640427,219985,1221480,66310,7599,610687,0
92,-1,639884,217553,1212948,65057,7553,606573,0
92,-1,633897,218119,1158684,65108,7328,579389,0
92,-1,660028,222945,1226372,69305,8209,613038,0
92,-1,641907,219000,1264247,66209,7777,632182,2
92,-1,645028,218629,1229108,65965,7035,614603,0
93,-1,639849,220694,1308435,66730,7451,654177,0
93,-1,640756,219175,1230906,65972,7873,615494,0
93,-1,639134,218069,1209428,65605,7664,604781,0
93,-1,655119,223186,1148517,69055,8193,574037,0
93,0,707153,248279,1278653,73782,8191,639247,11
93,-1,635287,218537,1262840,65517,6749,631457,0
93,-1,667373,224101,1226716,69128,8702,613445,0
93,-1,642228,220182,1225080,66133,7444,612610,0
93,-1,636451,218550,1223408,65566,7263,611770,0
93,-1,640455,218049,1146073,65328,7166,573091,0
93,-1,635286,218183,1148804,65071,7829,574400,0
93,-1,638902,218339,1134616,65945,6966,567307,0
93,-1,635771,218514,1139115,65969,8300,569605,2
93,-1,645304,219206,1155549,66422,7346,577803,0
94,-1,655184,222324,1269522,68716,8193,634698,0
94,-1,640261,218603,1258620,65752,7763,629264,0
94,-1,640232,218905,1156798,65926,6968,578464,0
94,-1,640359,219586,1206322,66204,6816,603097,0
94,0,706009,247516,1231924,73613,8515,615853,11
94,-1,635327,219040,1327855,65726,7315,663960,0
94,-1,641815,218505,1300013,65507,7272,650055,0
94,-1,638631,219176,1159845,65574,6931,579972,0
94,-1,634841,218170,1127416,65387,7407,563737,0
94,-1,646252,220749,1173013,66447,6876,586672,0
94,-1,632033,217586,1229494,64849,7801,614718,0
94,-1,639073,218471,1220174,66083,7379,610028,0
94,-1,635897,218085,1224562,65853,7357,612327,2
94,-1,638144,216381,1266663,65285,7581,633399,0
95,-1,632218,217632,1245145,65446,7049,622441,0
95,-1,639575,218517,1284835,65751,7972,642402,0
95,-1,638702,218349,1156099,65757,7407,578113,0
95,-1,637791,218554,1142404,65764,6824,571194,0
95,0,702881,246968,1280889,73492,8490,640424,11
95,-1,639852,220049,1169011,66229,7508,584564,0
95,-1,645836,220404,1270761,66355,7294,635438,0
95,-1,660659,224005,1193774,68993,7918,596979,0
95,-1,635557,218169,1224988,65423,7576,612467,0
95,-1,639825,218270,1219223,65409,6965,609637,0
95,-1,635017,218322,1301271,65162,8430,650658,0
95,-1,641598,219631,1166007,66605,7341,583056,0
95,-1,638681,218474,1252568,65919,7876,626359,2
95,-1,639156,217790,1211808,65715,7252,605942,0
96,-1,634480,218222,1153311,65649,7563,576667,0
96,-1,640765,218953,1388237,65888,8526,694154,0
96,-1,637935,217870,1227645,65555,7038,613831,0
96,-1,641499,220322,1223258,66580,6753,611743,0
96,0,707794,247991,1292969,73766,8186,646501,11
96,-1,633159,218252,1156579,65417,7441,578342,0
96,-1,645527,219594,1179152,65886,7334,589624,0
96,-1,644334,219230,1242492,65652,7513,621284,0
96,-1,635308,218324,1228755,65491,7682,614234,0
96,-1,643409,220090,1157415,66152,6807,578777,0
96,-1,631789,217737,1215312,64906,7418,607691,0
96,-1,634739,217327,1190351,65566,6421,595137,0
96,-1,646340,219940,1220737,66768,7253,610483,0
96,-1,642246,218518,1292286,66013,7300,646299,2
97,-1,648661,224348,1276956,67325,7686,638490,0
97,-1,639342,218614,1230988,65785,8205,615435,0
97,-1,640315,218936,1202918,65939,7245,601503,0
97,-1,658831,223373,1197732,69159,7155,598874,0
97,0,707832,247536,1405848,73597,9277,702754,11
97,-1,634488,219018,1276670,65826,6955,638354,0
97,-1,644067,219545,1174903,65887,7705,587467,0
97,-1,639995,218453,1166154,65561,7287,583094,0
97,-1,634126,218688,1239771,65591,8122,619124,0
97,-1,644350,220081,1109391,66183,7352,554745,0
97,-1,631938,217748,1239563,64924,7518,619817,0
97,-1,636522,218305,1220911,66018,7602,610363,0
97,-1,641747,218626,1172992,66068,7105,586544,0
97,-1,639119,219919,1159532,66737,7353,579693,2
98,-1,691532,238594,1357802,71505,7998,679036,0
98,-1,660669,223019,1288467,69041,8622,644250,0
98,-1,642872,220231,1255643,66471,8174,627870,0
98,-1,637476,219000,1228892,65834,6875,614392,0
98,0,705764,247042,1308553,73364,8495,654284,11
98,-1,635401,219318,1243545,65894,6486,621825,0
98,-1,670460,225709,1232232,70175,8491,616159,0
98,-1,636973,217860,1235120,65233,7048,617648,0
98,-1,643311,218331,1247379,65429,8074,623556,0
98,-1,637245,217737,1150161,65169,6730,575128,0
98,-1,651718,222108,1343804,68179,7750,671938,0
98,-1,635876,217811,1332575,65780,8144,665836,0
98,-1,640879,218912,1143410,66304,6487,571798,0
98,-1,640246,219575,1212842,66447,7609,606460,2
99,-1,690244,235770,1192670,70247,7094,596345,0
99,-1,637159,218462,1208987,65691,8213,604358,0
99,-1,638430,218450,1148200,65800,7766,574151,0
99,-1,636092,218217,1235853,65597,6764,617945,0
99,0,728102,252849,1335417,77157,8465,667749,11
99,-1,636304,220037,1227849,66391,7137,614000,0
99,-1,644236,219802,1244639,65968,7661,622369,0
99,-1,639236,218593,1278911,65568,7077,639484,0
99,-1,666917,223893,1186297,69102,8910,593178,0
99,-1,637974,218134,1168763,65319,6607,584430,0
99,-1,631491,218062,1312118,65013,7201,656115,0
99,-1,662392,222822,1297162,69270,8466,648509,0
99,-1,640874,218455,1233026,66043,7478,616562,0
99,-1,641696,219126,1236587,66369,7704,618335,2
100,-1,696210,238053,1283863,71196,7665,641916,0
100,-1,638386,219228,1250268,66155,8189,625126,0
100,-1,637557,218304,1226365,65699,7409,613210,0
100,-1,640766,220634,1360627,66661,7224,680121,0
100,0,710904,249965,1358075,74717,9241,679092,11
100,-1,647412,220785,1241178,66741,8242,620607,0
100,-1,645429,219884,1191677,65986,6485,595874,0
100,-1,639385,218558,1159373,65511,6946,579726,0
100,-1,641463,218250,1161104,65451,8529,580365,0
100,-1,637283,217882,1232582,65237,6529,616371,0
100,-1,635721,219892,1159454,65832,7049,579946,0
100,-1,639456,217479,1200161,65665,8127,599785,0
100,-1,664658,223499,1277591,69991,8461,638753,0
100,-1,640938,219527,1155932,66493,6914,577929,2
101,-1,693043,237101,1281231,70691,7505,640686,0
101,-1,635633,218401,1229302,65662,8111,614821,0
101,-1,637300,218232,1270346,65653,7388,635257,0
101,-1,653500,222292,1160142,68786,7794,579967,0
101,0,706544,247496,1254554,73561,8423,627331,11
101,-1,662284,223149,1205741,68934,8317,602909,0
101,-1,648364,221250,1286176,66729,7100,643135,0
101,-1,640549,219521,1231944,66021,7295,616027,0
101,-1,641000,218388,1147546,65451,7957,573599,0
101,-1,636804,217931,1169403,65316,6732,584784,0
101,-1,655236,222499,1213947,68297,7686,606963,0
101,-1,639178,217879,1258735,65798,8594,629223,0
101,-1,642891,218781,1167586,66105,6883,583829,0
102,-1,690804,236446,1198044,70446,6624,599015,0
102,-1,642125,218889,1259839,65732,9076,629809,0
102,-1,637579,218771,1250678,65848,7354,625456,0
102,-1,635300,219087,1162016,65897,6767,581034,0
102,0,711657,248837,1495666,74257,9571,747516,11
102,-1,640882,218936,1221580,65869,7462,610831,0
102,-1,642490,219262,1249581,65793,7185,624835,0
102,-1,640504,219363,1152611,65815,7061,576309,0
102,-1,643049,219153,1139420,65734,7376,569753,0
102,-1,657857,222890,1222246,68667,7415,611154,0
102,-1,637834,218529,1245185,65202,7453,622916,0
102,-1,643156,220011,1240708,66721,7625,620141,0
102,-1,639516,218116,1204719,65924,6612,602385,0
103,-1,692552,237402,1282183,70781,6825,641126,0
103,-1,638716,217726,1264764,65261,8982,632255,0
103,-1,638250,218077,1215452,65613,7312,607782,0
103,-1,633168,218174,1225714,65567,7622,612876,0
103,0,710860,248675,1580946,74001,10503,790731,11
103,-1,641266,218674,1222121,65725,7837,611057,0
103,-1,639311,218565,1143456,65583,6701,571781,0
103,-1,639930,218306,1228689,65445,7497,614412,0
103,-1,640751,218224,1255980,65391,7577,628036,0
103,-1,644279,218837,1217459,65578,7378,608799,0
103,-1,637678,219150,1148831,65555,6881,574464,0
103,-1,639885,218047,1228424,65903,7993,613984,0
103,-1,639729,218726,1149727,66296,7008,574764,0
104,-1,690584,236729,1284663,70537,7237,642308,0
104,-1,638067,218055,1210153,65592,8834,604925,0
104,-1,638560,218235,1180482,65671,7325,590284,0
104,-1,642782,220889,1253842,66841,7267,627033,0
104,0,714195,249713,1480890,74608,10386,740462,11
104,-1,640338,218430,1231992,65695,7754,616064,0
104,-1,641108,219605,1203836,65968,6821,602009,0
104,-1,646383,221397,1186507,66736,7172,593330,0
104,-1,640949,218582,1132657,65581,7292,566407,0
104,-1,640742,217857,1147304,65145,7228,573586,0
104,-1,634383,218174,1182519,65107,6711,591297,0
104,-1,638580,217696,1243353,65747,7295,621660,0
104,-1,639487,218400,1239978,65969,6881,620046,0
105,-1,695950,238382,1254828,71472,7386,627326,0
105,-1,637633,217998,1261358,65552,8470,630710,0
105,-1,638225,218519,1291228,65806,7268,645665,0
105,-1,635948,219033,1264992,65847,7362,632529,0
105,0,706459,247446,1304311,73521,8349,652136,11
105,-1,643409,219752,1301244,66295,7695,650556,0
105,-1,647672,221471,1261929,66793,7534,631120,0
105,-1,639898,218564,1143822,65497,7230,571956,0
105,-1,638356,217667,1278489,65222,7311,639287,0
105,-1,643815,219145,1244397,65849,7499,622265,0
105,-1,633200,217692,1249882,64906,7274,624994,0
105,-1,638207,217841,1278378,65797,8459,639183,0
105,-1,638065,218182,1175510,65844,6308,587798,0
106,-1,711353,241131,1277473,73768,8291,638619,0
106,-1,641444,219361,1287812,66268,8184,643763,0
106,-1,637830,218479,1354225,65748,7580,677151,0
106,-1,634599,218228,1227738,65638,7383,613709,0
106,0,707466,248285,1245784,73834,8404,622919,11
106,-1,639342,218483,1231081,65722,7287,615527,0
106,-1,662076,223709,1217961,69091,8377,608994,0
106,-1,638168,218580,1197306,65588,7213,598535,0
106,-1,645472,220356,1307790,66399,7948,654015,0
106,-1,640721,218463,1318634,65466,8499,659367,0
106,-1,636182,218029,1288033,65017,6576,644084,0
106,-1,659749,223009,1471992,69307,9735,735872,0
106,-1,647115,220659,1238357,66973,7330,619001,0
107,-1,689512,236814,1205499,70633,7104,602666,0
107,-1,658390,222410,1335477,68798,8191,667670,0
107,-1,635900,218129,1243586,65687,6761,621660,0
107,-1,634396,218907,1161369,65838,6734,580655,0
107,0,707495,247985,1298339,73579,8883,649184,11
107,-1,640399,219051,1218265,65875,7494,609199,0
107,-1,645659,220203,1249613,66163,8226,624872,0
107,-1,637159,218462,1110629,65578,6842,555368,0
107,-1,668503,224297,1190912,69663,8010,595385,0
107,-1,639865,218005,1131988,65307,7109,566037,0
107,-1,641914,220674,1174044,66268,6984,587082,0
107,-1,639946,218064,1175853,65863,7429,588129,0
107,-1,641197,218617,1157427,65884,6226,578644,0
108,-1,690104,236750,1211929,70606,7466,605989,0
108,-1,635501,217489,1277581,65395,7930,638764,0
108,-1,636641,218756,1177179,65874,7081,588632,0
108,-1,636421,218952,1313627,65874,8698,656072,0
108,0,705635,246913,1291398,73320,8822,645734,11
108,-1,638613,218326,1168986,65643,7267,584524,0
108,-1,646339,220846,1290009,66557,7874,645063,0
108,-1,636374,217768,1157194,65272,7374,578645,0
108,-1,641649,218482,1228554,65531,7650,614306,0
108,-1,688146,232443,1376924,71515,7790,688500,0
108,-1,659503,223379,1280641,69048,8274,640413,0
108,-1,639318,218234,1304495,65952,7786,652160,0
108,-1,641005,218859,1240197,65997,7257,620181,0
109,-1,688581,236128,1182550,70350,7398,591254,0
109,-1,637849,218787,1222783,65848,7615,611439,0
109,-1,662648,227749,1252225,68490,7507,626171,0
109,-1,655081,223097,1244687,68968,9743,622291,0
109,0,714644,250256,1346459,74672,9161,673285,11
109,-1,637359,218039,1147654,65528,6475,573880,0
109,-1,640458,219183,1201026,65772,7334,600553,0
109,-1,661587,223454,1166359,69034,8475,583208,0
109,-1,639318,217953,1119145,65331,6658,559626,0
109,-1,643908,219633,1179767,66000,7165,589953,0
109,-1,637283,218856,1176840,65516,7492,588630,0
109,-1,657042,222334,1273785,69125,8245,636835,0
109,-1,642082,219585,1194342,66359,7123,597258,0
110,-1,694089,238701,1237011,71529,7533,618410,0
110,-1,638449,219035,1331110,66133,8452,665797,0
110,-1,644699,221378,1210672,66971,7911,605472,0
110,-1,630688,218210,1295352,65575,8587,647522,0
110,0,710526,248132,1290916,73632,8561,645479,11
110,-1,641803,220071,1235727,66391,7188,617920,0
110,-1,640967,219679,1246692,65962,7508,623332,0
110,-1,640682,219257,1166536,65859,7819,583324,0
110,-1,642263,218810,1242185,65629,7767,621188,0
110,-1,641434,218951,1216730,65569,6623,608485,0
110,-1,634833,218339,1233395,65158,7066,616659,0
110,-1,636362,218531,1378819,66058,7787,689647,0
110,-1,637538,217469,1217867,65568,6267,608983,0
111,-1,687486,236331,1159707,70442,6695,579797,0
111,-1,636436,218278,1252320,65680,7614,626165,0
111,-1,658012,223166,1246074,69105,8285,623072,0
111,-1,638743,218809,1137946,65799,7670,568741,0
111,0,714973,249440,1416145,74521,9179,708161,11
111,-1,638932,218313,1130140,65654,6452,565078,0
111,-1,644308,219850,1179224,66036,7254,589663,0
111,-1,639997,219560,1324119,66085,7811,662122,0
111,-1,639540,217556,1218231,65130,7467,609155,0
111,-1,637914,218095,1190635,65340,6835,595396,0
111,-1,636960,220032,1148296,65976,7830,574393,0
111,-1,640650,218480,1255325,66036,8432,627670,0
111,-1,657572,222680,1262115,69005,7789,631090,0
112,-1,690253,237470,1287123,70836,7469,643644,0
112,-1,636857,218609,1405504,65717,7904,702974,0
112,-1,635929,218455,1247195,65731,7361,623693,0
112,-1,640270,219167,1410098,65941,8886,704861,0
112,0,714704,248925,1344321,74068,8918,672202,11
112,-1,638246,218241,1255913,65576,6638,628070,0
112,-1,642353,219187,1288415,65771,7287,644244,0
112,-1,638484,218785,1210223,65652,7178,605162,0
112,-1,639348,218864,1310467,65670,7532,655241,0
112,-1,635764,217796,1116738,65146,6419,558462,0
112,-1,636509,218342,1261231,65170,7632,630588,0
112,-1,638401,218077,1152448,65923,7592,576269,0
112,-1,639719,218447,1227082,65930,7625,613573,0
113,-1,685001,235849,1175301,70283,7317,587645,0
113,-1,640383,219992,1302258,66482,7864,650831,0
113,-1,633846,218000,1186256,65589,7490,593145,0
113,-1,638022,218382,1308566,65649,8661,654257,0
113,0,708945,250088,1367129,74605,8672,683616,11
113,-1,641337,219759,1335057,66105,6685,667653,0
113,-1,645146,220828,1254573,66540,7162,627225,0
113,-1,641314,220610,1247052,66559,7152,623588,0
113,-1,640323,217915,1211138,65309,7490,605610,0
113,-1,637430,218196,1229708,65367,7010,614959,0
113,-1,635696,218441,1313134,65146,8348,656517,0
113,-1,639657,218540,1231204,66038,7372,615626,0
113,-1,641339,219194,1129686,66345,7319,564915,0
114,-1,689911,236562,1210661,70554,7165,605480,0
114,-1,639970,218866,1347802,65817,7333,673358,0
114,-1,634403,218083,1231726,65614,7460,615913,0
114,-1,641117,220218,1280907,66536,8376,640188,0
114,0,704653,247816,1276859,73516,8834,638486,11
114,-1,658825,223373,1196605,68953,7500,598191,0
114,-1,640214,219275,1163498,65871,7048,581785,0
114,-1,637004,218106,1169176,65435,6772,584632,0
114,-1,643792,219280,1240960,65993,7346,620528,0
114,-1,641481,220014,1180999,66133,7033,590554,0
114,-1,639738,220036,1246797,65880,8038,622896,0
114,-1,657936,222568,1293198,69186,8289,646611,0
114,-1,639442,218750,1144875,65935,7452,572508,0
115,-1,689134,236579,1288647,70489,6672,644323,0
115,-1,636003,217844,1187432,65456,7156,593886,0
115,-1,634900,218283,1150572,65769,7596,575336,0
115,-1,638660,219104,1408593,65924,8921,704511,0
115,0,705064,248847,1374574,73847,7931,687320,11
115,-1,640520,219298,1203269,65807,7404,601718,0
115,-1,640709,219711,1239729,65953,7176,619896,0
115,-1,636564,218385,1229053,65589,6953,614575,0
115,-1,641341,218629,1161013,65581,7252,580550,0
115,-1,638395,219130,1169220,65658,6745,584696,0
115,-1,635835,218328,1301509,65170,7951,650632,0
115,-1,636270,217542,1138330,65709,6915,569132,0
115,-1,639991,219137,1138277,66038,7514,569189,0
116,-1,688516,236842,1199243,70636,6338,599633,0
116,-1,635758,217807,1246272,65443,7316,623137,0
116,-1,641467,218454,1149709,65772,7759,574759,0
116,-1,637504,218844,1331175,65774,8333,665565,0
116,0,708282,248353,1363897,73679,8151,681978,11
116,-1,642720,219162,1235409,65702,7596,617837,0
116,-1,639586,219137,1172508,65814,6877,586377,0
116,-1,636603,218643,1226829,65659,7253,613459,0
116,-1,640691,218335,1219117,65440,7620,609652,0
116,-1,639094,217799,1291688,65173,7116,645982,0
116,-1,630690,217730,1214633,64910,8565,607152,0
116,-1,640631,219206,1169705,66465,7657,584795,0
116,-1,637430,217787,1169483,65602,7338,584776,0
117,-1,693427,238219,1278082,71298,7971,639009,0
117,-1,640683,219885,1355769,66419,8545,677837,0
117,-1,640033,218283,1256969,65746,8641,628474,0
117,-1,637997,219088,1129545,65864,7363,564527,0
117,0,706348,248032,1437498,73710,9022,718871,11
117,-1,644959,220609,1224773,66415,7297,612440,0
117,-1,638646,219064,1227681,65689,7272,613871,0
117,-1,638014,219197,1301384,65789,7145,651000,0
117,-1,641576,218863,1130052,65716,7176,565074,0
117,-1,636896,217950,1094699,65238,6384,547398,0
117,-1,636369,218843,1305487,65327,8162,652870,0
117,-1,635424,217857,1232664,65815,7630,616248,0
117,-1,641888,220036,1125951,66648,6647,563038,0
118,-1,690322,237147,1278817,70705,7915,639370,0
118,-1,634521,217812,1205423,65390,7989,602490,0
118,-1,639216,218031,1353542,65606,8185,676824,0
118,-1,639194,218568,1264757,65705,7732,631593,0
118,0,706084,248249,1290422,73730,8121,645244,11
118,-1,640531,218761,1142141,65640,7189,571152,0
118,-1,643890,219633,1166362,65837,6958,583208,0
118,-1,634959,218274,1206248,65480,6861,603210,0
118,-1,638861,218258,1231063,65407,7410,615623,0
118,-1,640308,218563,1148410,65509,7036,574249,0
118,-1,638613,219729,1161104,65807,6969,580771,0
118,-1,632959,217252,1226821,65605,7776,613471,0
118,-1,657743,222820,1239630,69101,7964,619911,0
119,-1,686752,235852,1244388,70263,7212,622206,0
119,-1,636296,218930,1196806,65814,7058,597767,0
119,-1,640907,218270,1453844,65723,8347,726818,0
119,-1,637150,218889,1185807,65800,7878,593293,0
119,0,704261,247805,1294812,73515,8393,647447,11
119,-1,636998,217915,1294337,65281,7396,647211,0
119,-1,643462,219533,1226112,65865,7207,613076,0
119,-1,636517,218380,1294327,65533,7041,647188,0
119,-1,640876,219831,1233014,66155,7796,616587,0
119,-1,641422,219509,1173868,65967,6901,587001,0
119,-1,632120,217434,1249973,64771,7678,625048,0
119,-1,639021,218366,1162434,66002,7594,581255,0
119,-1,636569,218208,1120883,65760,7492,560491,0
120,-1,686691,236101,1229098,70411,7075,614575,0
120,-1,638368,218478,1229514,65651,7325,614733,0
120,-1,639802,218138,1169565,65638,7767,584975,0
120,-1,655102,222554,1283256,68768,8519,641572,0
120,0,708269,247879,1399108,73530,8660,699490,11
120,-1,661149,223812,1151067,69077,8017,575451,0
120,-1,646623,221004,1273237,66524,7196,636676,0
120,-1,634318,218388,1143533,65520,7489,571781,0
120,-1,641313,218660,1148766,65602,7892,574589,0
120,-1,636331,217813,1274947,65200,6789,637654,0
120,-1,633682,218394,1148063,65208,7836,573958,0
120,-1,639280,218496,1220836,65995,7659,610388,0
120,-1,646008,219553,1153277,66348,7759,576697,0
121,-1,706967,241119,1322453,73823,8278,661214,0
121,-1,663395,227373,1201477,68301,8257,600510,0
121,-1,660991,222735,1301244,68903,9369,650383,0
121,-1,636351,219095,1333630,65939,8318,666723,0
121,0,708470,248690,1331230,73798,7958,665662,11
121,-1,638496,218421,1095244,65665,6065,547616,0
121,-1,642599,219253,1239143,65729,7832,619620,0
121,-1,645128,219538,1264191,66073,7561,632212,0
121,-1,640860,218852,1148243,65638,7869,574157,0
121,-1,636778,217914,1104852,65236,6673,552466,0
121,-1,654169,222665,1318805,68343,9323,659253,0
121,-1,642931,220377,1165689,66918,7204,582885,0
121,-1,640413,218226,1215853,65788,7246,607967,0
122,-1,687586,236111,1324623,70310,7651,662313,0
122,-1,655308,223066,1183977,68950,7490,591891,0
122,-1,645551,220345,1332109,66558,8444,665908,0
122,-1,637046,218922,1262642,65761,8310,631343,0
122,0,706887,247993,1364123,73619,8270,682103,11
122,-1,638211,218402,1170444,65572,6771,585283,0
122,-1,639030,219001,1197119,65622,7030,598612,0
122,-1,639936,218467,1266610,65571,7286,633292,0
122,-1,640187,218496,1217151,65474,7791,608648,0
122,-1,636698,218271,1247040,65409,7579,623533,0
122,-1,633950,218712,1298852,65278,8367,649218,0
122,-1,657223,222377,1279728,69128,8077,639595,0
122,-1,642435,218745,1177050,66013,7699,588566,0
123,-1,690902,237462,1284063,71029,8101,642162,0
123,-1,631548,217358,1103903,65305,6354,551915,0
123,-1,638942,218430,1292512,65725,8372,646083,0
123,-1,638474,219678,1337654,66247,8878,668202,0
123,0,706524,248764,1359698,73814,9025,679952,11
123,-1,639171,219039,1261609,65845,7653,630847,0
123,-1,642651,219523,1235697,65792,7492,617890,0
123,-1,642996,220310,1309824,66448,7627,654993,0
123,-1,645103,220896,1217435,66584,7916,608898,0
123,-1,638138,218855,1296963,65589,8909,648433,0
123,-1,634780,218106,1165458,65053,6749,582778,0
123,-1,633981,217352,1162404,65587,7471,581208,0
123,-1,642596,219164,1282721,66075,7891,641407,0
124,-1,688315,237127,1299000,70739,7672,649458,0
124,-1,635316,218915,1153161,65835,6885,576564,0
124,-1,639399,218588,1420319,65758,8595,710195,0
124,-1,634841,218615,1258986,65737,8887,629451,0
124,0,708922,249540,1421382,74466,8947,710748,11
124,-1,640075,219904,1417680,66355,8665,708946,0
124,-1,645399,221111,1256940,66631,7430,628541,0
124,-1,643090,219737,1327760,66005,8902,663480,0
124,-1,659097,222771,1163688,68717,8725,581836,0
124,-1,635035,217891,1242191,65144,8107,621139,0
124,-1,655546,222737,1355934,68362,7615,678068,0
124,-1,635681,218106,1300148,65920,6926,650196,0
124,-1,642792,219831,1173771,66620,7708,586551,0
125,-1,686521,236174,1279148,70431,7128,639643,0
125,-1,635243,217930,1199071,65513,6843,599551,0
125,-1,661069,223089,1216370,69089,8379,608115,0
125,-1,634177,218359,1279241,65570,9146,639457,0
125,-1,656966,223005,1285485,68988,8231,642302,0
125,0,708941,248384,1285087,73742,8847,642578,11
125,-1,642608,220891,1348365,66475,7107,674300,0
125,-1,637595,217863,1170308,65414,7951,584914,0
125,-1,637719,218164,1140877,65430,7657,570521,0
125,-1,655730,222624,1237466,68616,8808,618735,0
125,-1,632527,217721,1281245,64952,6941,640816,0
125,-1,634669,217906,1315333,65824,7257,657642,0
125,-1,641468,218862,1219126,66039,7461,609596,0
126,-1,690386,238475,1319096,71389,7227,659551,0
126,-1,638056,217371,1102946,65313,7363,551462,0
126,-1,637832,218257,1173775,65666,7462,586958,0
126,-1,643642,220728,1465584,66763,8554,732126,0
126,-1,636705,218246,1239988,65590,7584,619964,0
126,0,716246,250614,1415146,74738,9045,707630,11
126,-1,643492,219612,1236365,65819,7134,618231,0
126,-1,636954,218461,1185697,65677,8128,592847,0
126,-1,636938,217516,1103739,65135,7592,551906,0
126,-1,643950,217938,1218292,65233,8264,608731,0
126,-1,635523,218586,1223249,65224,7035,611642,0
126,-1,636765,218462,1227332,66074,7384,613700,0
126,-1,638208,218283,1236800,65814,7615,618430,0
127,-1,706964,241138,1318097,73847,8105,659055,0
127,-1,662345,223653,1233061,69179,8499,616594,0
127,-1,641080,218085,1188169,65629,7221,594143,0
127,-1,658333,223057,1272428,68987,9310,635961,0
127,-1,634301,218325,1247357,65612,8078,623515,0
127,0,735367,258672,1392746,76898,8730,696409,11
127,0,731865,253499,1495960,77382,8753,747948,11
127,0,716161,251077,1464674,75090,7829,732380,11
127,0,709719,248240,1311721,73818,8808,655793,11
127,0,710005,248503,1326454,73879,7845,663270,11
127,0,712505,249329,1405216,74078,8572,702692,11
127,0,707469,247593,1340441,73402,8442,670261,11
127,0,711370,249389,1305693,74027,7963,652908,11
127,0,710716,249258,1308886,73982,8241,654483,11
127,0,707914,248828,1376610,73844,8033,688346,11
127,0,716189,250379,1424297,74352,8663,712154,11
127,0,709530,248765,1398197,73758,8286,699127,11
127,0,710366,248987,1469206,73913,8656,734615,11
127,0,708805,248445,1489283,73651,8532,744650,11
127,0,710557,248916,1345821,73828,8670,672959,11
127,0,709904,248480,1418797,73714,8768,709413,11
127,0,733153,253390,1465692,77210,10197,732841,11
127,0,717944,251106,1565550,75012,9695,782858,11
127,0,714092,248059,1461854,73595,9061,731002,11
127,0,709983,248111,1454046,73701,9376,727051,11
127,0,713607,248936,1385376,73997,9010,692697,11
127,0,709296,247524,1480212,73507,9690,740152,11
127,0,712745,248348,1512093,73822,9382,755980,11
127,0,710802,248045,1464770,73688,9677,732277,11
127,0,711621,249088,1522396,74015,11722,760746,11
127,0,712704,248317,1410650,73915,9864,705350,11
127,0,712072,247826,1398532,73623,9320,699272,11
127,0,707126,248890,1582448,74008,11112,791049,11
127,0,728117,252723,1541851,77052,11897,770710,11
127,0,710834,250857,1483758,75010,11441,741708,11
127,0,709389,249476,1478622,74338,9706,739340,11
127,0,707112,248005,1398045,73657,9265,699069,11
127,0,729091,252922,1444082,76991,9648,722078,11
127,-1,642225,219674,1249488,65863,7474,624828,0
127,0,708789,247938,1399919,73645,9086,699971,11
127,0,704245,247777,1460675,73577,10604,730357,11
127,0,706419,247501,1436800,73526,9636,718101,11
127,0,705356,247689,1456259,73572,10052,727912,11
127,0,708822,248391,1489930,73854,9637,744606,11
127,0,710579,249141,1427285,74400,9833,713601,11
127,0,730317,252328,1344226,76802,10173,672211,11
127,0,711853,248214,1299543,73755,8847,649873,11
127,0,705517,248734,1382480,73923,9142,691284,11
127,0,710681,249280,1416372,74295,9174,708280,11
127,0,725672,252375,1347822,76898,9488,674009,11
127,0,714617,249908,1306742,74572,9555,653443,11
127,0,706869,248054,1288329,73645,8503,644211,11
127,0,712264,249928,1306333,74436,8776,653209,11
127,0,708146,247998,1396819,73616,8615,698463,11
127,0,717504,250241,1368771,74385,9092,684386,11
127,0,710183,248389,1402671,73607,8825,701313,11
127,0,708238,247832,1469405,73370,8844,734741,11
127,0,712058,248064,1338159,73431,8917,669082,11
127,0,710527,249024,1480332,73770,8695,740212,11
127,0,706879,248279,1381901,73547,8715,690994,11
127,0,707783,248027,1427879,73511,8587,713825,11
127,0,709028,247673,1311373,73496,9122,655713,11
127,0,711865,248109,1443251,73635,10525,721638,11
127,0,707357,247069,1500964,73194,10296,750501,11
127,0,708206,248401,1315555,73749,8996,657832,11
127,0,707981,247861,1364981,73561,8984,682430,11
127,0,705043,246936,1289135,73177,8041,644621,11
127,0,707941,247596,1360762,73423,8566,680426,11
127,0,708813,247655,1391148,73517,8906,695613,11
127,0,708493,247262,1472135,73340,9062,736121,11
127,0,710043,247725,1269884,73516,8871,635005,11
127,-1,637200,218530,1318881,65632,8864,659330,0
127,0,711461,247493,1443665,73374,10323,721365,11
127,0,706850,248891,1395004,74079,9535,697435,11
127,0,704498,247472,1279881,73395,8661,639963,11
127,0,707673,247471,1404725,73399,8964,702302,11
127,0,709149,249410,1386541,74331,9122,693280,11
127,0,708320,249098,1346954,74105,8996,673449,11
127,0,707320,248304,1390056,73591,8705,695076,11
127,0,730855,252529,1329991,76873,9924,664934,11
127,0,714904,249336,1371400,74315,8970,685775,11
127,0,709598,247761,1307085,73501,9062,653532,11
127,0,711110,247769,1414995,73463,9134,707409,11
127,0,709301,247286,1239332,73258,9203,619620,11
127,0,730206,252354,1281579,76735,9511,640787,11
127,0,710351,247215,1411811,73230,11149,706232,11
127,0,709876,247698,1320910,73396,10381,659843,11
127,0,711861,247986,1440090,73464,10978,719616,11
127,0,731333,252802,1435186,76884,9695,717664,11
127,0,707560,247308,1407894,73296,8643,704291,11
127,0,707388,247371,1386803,73298,8579,693470,11
127,0,709909,247879,1373880,73493,8390,686978,11
127,0,713009,249354,1278904,74168,8587,639495,11
127,0,710603,248674,1548616,73774,10352,774334,11
127,0,709196,247669,1325553,73423,8557,662821,11
127,0,707520,246576,1273295,72985,8719,636666,11
127,0,710213,247857,1551800,73484,9425,775561,11
127,0,708884,247888,1477224,73552,8553,738729,11
127,0,709322,248006,1485637,73602,8617,742860,11
127,0,731225,252326,1508514,76772,9607,754301,11
127,0,709595,247677,1436356,73466,9883,718159,11
127,0,707893,246852,1466948,73297,8766,733548,11
127,0,708897,247761,1511470,73581,8862,755886,11
127,0,730298,251824,1505933,76658,9835,752905,11
127,0,707187,246477,1472289,73164,8590,736265,11
127,0,711248,247716,1390709,73593,8743,695263,11
127,0,714496,248675,1496716,73903,9411,748393,11
127,0,711095,247620,1412480,73527,8872,706310,11
127,0,711199,247341,1364557,73420,9169,682322,11
127,0,733039,253297,1434326,77229,9076,717128,11
127,-1,641987,220160,1215876,66257,8113,607982,0
127,0,710376,247557,1487190,73458,8811,743612,11
127,0,713913,247904,1487591,73583,8880,743836,11
127,0,708134,247003,1338244,73316,8160,669120,11
127,0,711012,247415,1484993,73453,8498,742534,11
127,0,710993,246847,1475866,73157,9443,738023,11
127,0,705756,249687,1324964,74040,8534,662536,11
127,0,706514,249316,1404927,73864,8669,702566,11
127,0,707241,249491,1579594,73995,10806,789048,11
127,0,724927,252068,1568201,76311,11031,784108,11
127,0,705650,247662,1469680,73173,8844,734879,11
127,0,708641,248828,1562047,73529,8988,781114,11
127,0,705918,246900,1481078,72884,8835,740555,11
127,0,708233,249778,1403084,74110,9518,701575,11
127,0,706016,248783,1508514,73654,10657,754370,11
127,0,703925,247038,1481921,72981,8937,741024,11
127,0,706135,247637,1458773,73159,8804,729312,11
127,0,707075,247426,1329238,73998,10151,664534,11
127,0,705612,247198,1481225,73863,9996,740586,11
127,0,709923,248507,1488992,74289,10017,744469,11
127,0,705471,247721,1386788,74027,9274,693386,11
127,0,707972,247601,1476320,73944,10068,738106,11
127,0,703453,247554,1474431,73935,9585,737300,11
127,0,704380,246790,1456900,73651,9524,728388,11
127,0,706759,247448,1411908,73910,9422,705964,11
127,0,705223,247015,1498446,73734,10783,749243,11
127,0,710737,247856,1431245,74021,9171,715627,11
127,0,710465,248045,1474587,74139,8995,737227,11
127,0,705783,247536,1516183,73986,9598,758080,11
127,0,705345,247513,1411674,73924,9370,705787,11
127,0,708374,247166,1323483,73890,9832,661667,11
127,0,728586,251831,1593651,77204,9975,796855,11
127,0,706427,247218,1405501,73787,8836,702719,11
127,0,707888,247623,1463887,73895,9483,731949,11
127,0,712252,248160,1482972,74175,9478,741477,11
127,0,708436,248318,1309546,74410,8126,654806,11
127,0,708064,248311,1410820,74244,8907,705417,11
127,0,706463,247608,1373040,74016,9042,686546,11
127,0,708579,247439,1283481,73959,8885,641737,11
127,0,706732,247706,1399770,74082,9611,699045,11
127,0,706054,246871,1357621,73635,9171,679306,11
127,-1,647678,220381,1249809,66176,8519,624733,0
127,0,708464,247412,1463051,73966,9586,731311,11
127,0,709735,247660,1310760,74023,8917,655372,11
127,0,702382,247314,1456660,73925,9145,728370,11
127,0,705318,247614,1514901,73872,8763,757495,11
127,0,705052,246853,1382402,73684,8954,691281,11
127,0,712314,249257,1392060,74749,9288,696088,11
127,0,709890,248521,1412019,74420,9149,706055,11
127,0,708358,247118,1491599,73679,9487,745833,11
127,0,726972,251524,1600887,77040,10622,800433,11
127,0,709049,249463,1403902,74864,8890,702003,11
127,0,708304,248180,1482915,74056,9757,741441,11
127,0,707260,247374,1430191,73735,8859,715127,11
127,0,707913,248219,1410415,74049,8941,705264,11
127,0,714723,249678,1393360,74766,8886,696848,11
127,0,706380,247484,1505134,73861,10003,752669,11
127,0,707818,247575,1478556,73890,9089,739322,11
127,0,712024,249224,1318474,74683,8998,659321,11
127,0,709427,247279,1474200,73708,8916,737147,11
127,0,710020,248115,1471465,74034,9601,735769,11
127,0,710920,247776,1432886,73890,8166,716523,11
127,0,732563,252253,1519296,77141,9980,759701,11
127,0,710076,247472,1423120,73798,9119,711584,11
127,0,713069,248111,1397487,74149,8844,698849,11
127,0,704804,247673,1239308,73796,9142,619702,11
127,0,710396,249509,1209855,74700,9398,604999,11
127,0,707332,247612,1315308,74009,8363,657698,11
127,0,707363,247309,1405017,73876,8107,702513,11
127,0,715213,249941,1322479,75093,8819,661101,11
127,0,716289,249907,1323795,75002,8828,661898,11
127,0,713692,247924,1273355,74132,9752,636720,11
127,0,710749,248631,1333324,74230,9102,666699,11
127,0,714712,250247,1254926,74987,8545,627560,11
127,0,716325,249193,1373517,74502,8700,686809,11
127,0,711003,248823,1422800,74395,9673,711493,11
127,0,718050,249745,1329524,75001,8671,664631,11
127,0,716015,248736,1367018,74491,8794,683552,11
127,0,719125,250737,1397603,75409,9434,698862,11
127,-1,634911,218745,1204366,65291,7231,602235,0
127,0,708899,247966,1302054,74176,8888,650971,11
127,0,711832,248659,1356101,74405,9785,678093,11
127,0,714324,248949,1435294,74452,9577,717704,11
127,0,713397,248041,1524726,74160,10297,762650,11
127,0,714371,248339,1392819,74235,9546,695089,11
127,0,736187,253949,1489880,77822,11087,744850,11
127,0,716747,249460,1585728,74580,10216,792636,11
127,0,716775,249467,1420722,74592,9035,710400,11
127,0,720225,250373,1385006,75159,9432,692536,11
127,0,706367,249471,1318079,74588,7968,659060,11
127,0,729609,253013,1421618,77375,9712,710784,11
127,0,731578,253415,1560815,77526,10557,780342,11
127,0,714775,249893,1336591,74724,8923,668304,11
127,0,713786,248539,1302189,74097,8646,651071,11
127,0,709842,248665,1675880,74171,10325,837951,11
127,0,703553,247247,1353017,73650,8286,676540,11
127,0,709653,249016,1395704,74346,8938,697831,11
127,0,710021,248229,1397624,74042,8413,698881,11
127,0,731438,252869,1357407,77378,10299,678672,11
127,0,710745,248013,1341759,73993,9259,670801,11
127,0,714140,250160,1297355,74997,9532,648632,11
127,0,732246,253451,1438799,77621,10185,719457,11
127,0,710914,247678,1640111,73809,11855,819850,11
127,0,712534,249014,1407534,74388,9027,703818,11
127,0,707681,248118,1288962,74014,8876,644514,11
127,0,708560,248494,1233162,74153,8144,616510,11
127,-1,663651,222659,1240646,69212,7906,620319,0
127,0,729811,253165,1432046,77495,9038,716058,11
127,0,709773,247888,1391342,73932,8779,695680,11
127,0,708190,248023,1361814,74054,9233,680925,11
127,0,710405,248638,1485149,74204,8983,742717,11
127,0,712672,248597,1385536,74115,9168,692808,11
127,0,713261,249462,1388503,74479,9260,694285,11
127,0,711407,247532,1311562,73915,9377,655846,11
127,0,715566,249111,1449878,74464,9457,725018,11
127,0,713408,247700,1272576,73907,8181,635854,11
127,0,737075,252985,1547486,77468,11540,773891,11
127,0,712978,248356,1231634,74093,8068,615824,11
127,0,711849,248504,1406752,74075,9385,703427,11
127,0,706665,247360,1507498,73751,9125,753759,11
127,0,713440,248974,1415854,74283,9976,707956,11
127,0,732166,252406,1534707,77190,10765,767346,11
127,0,712891,248542,1487116,74107,9741,743705,11
127,0,709723,248020,1485624,73972,8930,742837,11
127,0,710426,248778,1415434,74477,8694,707769,11
127,0,709618,247992,1498729,73975,8689,749511,11
127,0,711239,248855,1422527,74439,8809,711338,11
127,0,717863,249889,1374334,74847,9450,687226,11
127,0,708520,247424,1376496,73793,9449,688351,11
127,0,716271,249349,1454022,74617,9759,727128,11
127,0,709160,247460,1439385,73890,9072,719761,11
127,0,713153,248606,1435300,74457,9653,717698,11
127,0,707737,247752,1419258,74018,8748,709632,11
127,0,727899,251152,1593745,76856,10357,796964,11
127,0,709881,247184,1472277,73878,8830,736149,11
127,0,712157,247944,1402280,74175,9160,701226,11
127,-1,660034,222696,1261048,69051,7814,630569,0
127,0,711432,247274,1364431,73954,9711,682279,11
127,0,714842,248831,1443400,74778,9543,721827,11
127,0,708833,247000,1460552,73946,9531,730299,11
127,0,733089,252414,1527211,77486,10670,763670,11
127,0,711067,247161,1485628,73961,8769,742837,11
127,0,710705,247329,1485199,73986,9629,742759,11
127,0,710373,246884,1460112,73834,9738,729980,11
127,0,715325,248208,1381476,74235,9925,690761,11
127,0,707088,247015,1389932,73929,8745,695008,11
127,0,710307,248898,1519764,74782,10914,760016,11
127,0,706831,247618,1460031,74098,9354,730156,11
127,0,710008,247623,1412308,74077,9094,706203,11
127,0,732937,251920,1525695,77341,10590,762824,11
127,0,730634,251620,1519056,77154,10054,759593,11
127,0,714518,249394,1479456,74962,9780,739782,11
127,0,714803,248755,1462103,74778,9498,731115,11
127,0,712792,247043,1561918,73871,9691,780995,11
127,0,707237,247061,1378500,73937,8813,689307,11
127,0,709228,247176,1393857,73796,9389,696994,11
