-1,0,0.0303483
-1,1,0.0298507
-1,2,0.0298507
-1,3,0.0298507
-1,4,0.0298507
-1,5,0.0298507
-1,6,0.0298507
-1,7,0.0298507
-1,8,0.0298507
-1,9,0.0298507
-1,10,0.0298507
-1,11,0.0298507
-1,12,0.0298507
-1,13,0.0298507
-1,14,0.0298507
-1,15,0.0298507
-1,16,0.0298507
-1,17,0.0298507
-1,18,0.0298507
-1,19,0.0298507
-1,20,0.0298507
-1,21,0.0298507
-1,22,0.0298507
-1,23,0.0298507
-1,24,0.0298507
-1,25,0.0298507
-1,26,0.0298507
-1,27,0.0298507
-1,28,0.0298507
-1,29,0.0303483
-1,30,0.0303483
-1,31,0.0731343
