0,0,60,642558.450000,219574.816667,1234738.166667,66313.133333,7729.366667,617362.383333,9407.558908,2761.402841,66538.916412,1197.891348,741.933801,33268.882235
0,1,0,-nan,-nan,-nan,-nan,-nan,-nan,-nan,-nan,-nan,-nan,-nan,-nan
1,0,59,642264.830508,219432.203390,1262093.000000,66225.474576,7944.898305,631058.932203,8979.393961,2583.171692,75650.325199,1169.111431,732.075218,37795.612024
1,1,0,-nan,-nan,-nan,-nan,-nan,-nan,-nan,-nan,-nan,-nan,-nan,-nan
2,0,59,642876.745763,219529.423729,1238950.169492,66342.355932,7824.372881,619461.542373,9272.364028,2494.286489,77068.812062,1137.302619,785.033582,38465.348721
2,1,0,-nan,-nan,-nan,-nan,-nan,-nan,-nan,-nan,-nan,-nan,-nan,-nan
3,0,59,643502.254237,219778.084746,1248402.796610,66422.796610,7823.847458,624205.508475,9467.246265,2804.239752,72430.677302,1281.545105,749.359293,36212.442300
3,1,0,-nan,-nan,-nan,-nan,-nan,-nan,-nan,-nan,-nan,-nan,-nan,-nan
4,0,59,642103.423729,219502.254237,1240278.406780,66240.661017,7648.491525,620102.593220,9297.157758,2641.207445,60054.199634,1074.752263,607.099868,29993.247617
4,1,0,-nan,-nan,-nan,-nan,-nan,-nan,-nan,-nan,-nan,-nan,-nan,-nan
5,0,59,645814.966102,220302.949153,1253218.355932,66792.254237,7858.152542,626577.847458,10357.379398,2768.205381,64525.456200,1375.040925,711.938957,32229.491025
5,1,0,-nan,-nan,-nan,-nan,-nan,-nan,-nan,-nan,-nan,-nan,-nan,-nan
6,0,59,644596.016949,219827.745763,1243716.627119,66537.389831,7819.898305,621838.203390,11093.789745,2906.925988,78452.529551,1411.940173,781.817173,39206.547347
6,1,0,-nan,-nan,-nan,-nan,-nan,-nan,-nan,-nan,-nan,-nan,-nan,-nan
7,0,59,641722.271186,219298.491525,1252595.355932,66140.813559,7814.440678,626282.559322,9380.978773,2803.621843,62543.872074,1072.672071,805.204054,31211.443306
7,1,0,-nan,-nan,-nan,-nan,-nan,-nan,-nan,-nan,-nan,-nan,-nan,-nan
8,0,59,642537.745763,219602.898305,1219504.271186,66280.644068,7624.711864,609743.864407,9524.648184,2890.640986,67048.458524,1185.487924,779.663314,33529.337373
8,1,0,-nan,-nan,-nan,-nan,-nan,-nan,-nan,-nan,-nan,-nan,-nan,-nan
9,0,59,642000.949153,219454.644068,1235105.677966,66147.491525,7769.355932,617548.610169,11251.991674,3669.469591,67535.815740,1195.090513,797.465960,33765.883559
9,1,0,-nan,-nan,-nan,-nan,-nan,-nan,-nan,-nan,-nan,-nan,-nan,-nan
10,0,59,643960.847458,219896.254237,1239980.372881,66451.440678,7771.661017,619983.203390,11430.451431,3420.806390,67031.341261,1431.559198,787.405256,33473.881711
10,1,0,-nan,-nan,-nan,-nan,-nan,-nan,-nan,-nan,-nan,-nan,-nan,-nan
11,0,59,643131.033898,219718.864407,1246782.915254,66297.915254,7729.406780,623382.644068,9471.007114,3141.620506,69365.069537,1159.495774,782.787980,34620.624723
11,1,0,-nan,-nan,-nan,-nan,-nan,-nan,-nan,-nan,-nan,-nan,-nan,-nan
12,0,59,643554.118644,219830.796610,1227398.966102,66440.694915,7766.491525,613688.457627,9331.020921,2784.031589,57377.687946,1260.066803,678.393525,28690.844080
12,1,0,-nan,-nan,-nan,-nan,-nan,-nan,-nan,-nan,-nan,-nan,-nan,-nan
13,0,59,643628.322034,219698.677966,1243879.084746,66433.813559,7732.067797,621926.254237,10489.344273,2892.368178,71704.669053,1348.895587,777.147694,35814.311251
13,1,0,-nan,-nan,-nan,-nan,-nan,-nan,-nan,-nan,-nan,-nan,-nan,-nan
14,0,60,643843.316667,219758.216667,1247799.433333,66460.183333,7878.616667,623881.416667,9437.175187,2627.307475,64369.060744,1205.015207,665.918566,32107.676471
14,1,0,-nan,-nan,-nan,-nan,-nan,-nan,-nan,-nan,-nan,-nan,-nan,-nan
15,0,60,643512.800000,219824.133333,1237744.900000,66421.816667,7743.583333,618836.250000,10013.284053,2983.415450,70890.328547,1225.502842,689.616205,35433.937729
15,1,0,-nan,-nan,-nan,-nan,-nan,-nan,-nan,-nan,-nan,-nan,-nan,-nan
16,0,60,642259.766667,219475.716667,1234872.216667,66249.266667,7779.333333,617375.783333,11136.688769,3203.890120,52218.835976,1380.373462,647.784240,26049.694559
16,1,0,-nan,-nan,-nan,-nan,-nan,-nan,-nan,-nan,-nan,-nan,-nan,-nan
17,0,60,641598.983333,219413.583333,1239449.300000,66142.766667,7682.083333,619728.650000,9170.431505,2827.946241,67689.650177,997.764090,750.425419,33831.689740
17,1,0,-nan,-nan,-nan,-nan,-nan,-nan,-nan,-nan,-nan,-nan,-nan,-nan
18,0,60,642469.033333,219609.683333,1246757.850000,66319.516667,7823.200000,623348.866667,10291.808709,2911.126188,67886.301795,1214.514834,803.052734,33908.674694
18,1,0,-nan,-nan,-nan,-nan,-nan,-nan,-nan,-nan,-nan,-nan,-nan,-nan
19,0,60,642656.316667,219660.733333,1237038.050000,66401.150000,7714.516667,618501.400000,9840.447743,2761.119199,62185.595789,1272.223773,712.386026,31079.164996
19,1,0,-nan,-nan,-nan,-nan,-nan,-nan,-nan,-nan,-nan,-nan,-nan,-nan
20,0,60,643111.383333,219777.283333,1227860.833333,66409.533333,7689.750000,613908.183333,10822.642278,3012.991305,67607.699583,1293.457917,676.026593,33775.681196
20,1,0,-nan,-nan,-nan,-nan,-nan,-nan,-nan,-nan,-nan,-nan,-nan,-nan
21,0,60,642540.866667,219641.066667,1226896.216667,66339.633333,7710.766667,613453.550000,9907.606429,2715.851584,59777.624373,1208.754800,801.453521,29896.031218
21,1,0,-nan,-nan,-nan,-nan,-nan,-nan,-nan,-nan,-nan,-nan,-nan,-nan
22,0,60,642378.266667,219519.200000,1229478.150000,66241.716667,7775.016667,614691.350000,10948.715265,3082.779037,55535.074101,1313.064788,752.159391,27747.824911
22,1,0,-nan,-nan,-nan,-nan,-nan,-nan,-nan,-nan,-nan,-nan,-nan,-nan
23,0,60,644342.850000,220011.050000,1253604.933333,66492.250000,7851.600000,626798.033333,11684.558174,3402.205948,85177.752717,1483.966932,820.012606,42589.334151
23,1,0,-nan,-nan,-nan,-nan,-nan,-nan,-nan,-nan,-nan,-nan,-nan,-nan
24,0,60,643077.566667,219820.100000,1250673.266667,66381.133333,7812.783333,625275.566667,9637.942430,2807.812255,90930.088388,1123.250261,824.396711,45365.018913
24,1,0,-nan,-nan,-nan,-nan,-nan,-nan,-nan,-nan,-nan,-nan,-nan,-nan
25,0,60,645058.466667,220208.916667,1245135.950000,66698.566667,7787.566667,622550.416667,10718.121890,3110.973788,67339.773969,1472.802412,750.360855,33659.751096
25,1,0,-nan,-nan,-nan,-nan,-nan,-nan,-nan,-nan,-nan,-nan,-nan,-nan
26,0,60,642649.116667,219608.666667,1242363.133333,66370.350000,7830.283333,621146.533333,10326.625160,2769.375975,53942.337545,1311.265125,700.166625,26922.907600
26,1,0,-nan,-nan,-nan,-nan,-nan,-nan,-nan,-nan,-nan,-nan,-nan,-nan
27,0,60,644191.383333,219878.983333,1235908.283333,66536.950000,7775.500000,617909.166667,12091.141975,3225.704975,70411.767645,1566.947355,726.641922,35160.599506
27,1,0,-nan,-nan,-nan,-nan,-nan,-nan,-nan,-nan,-nan,-nan,-nan,-nan
28,0,60,641593.783333,219487.833333,1225412.483333,66185.616667,7671.633333,612690.933333,9406.410479,2775.965058,58495.806545,1039.391955,639.661029,29243.128809
28,1,0,-nan,-nan,-nan,-nan,-nan,-nan,-nan,-nan,-nan,-nan,-nan,-nan
29,0,60,643103.500000,219741.633333,1229435.883333,66355.083333,7702.683333,614689.683333,10412.636662,2866.366620,73502.266162,1249.501451,697.975178,36731.220967
29,1,0,-nan,-nan,-nan,-nan,-nan,-nan,-nan,-nan,-nan,-nan,-nan,-nan
30,0,60,643787.633333,219794.483333,1240520.033333,66465.183333,7808.700000,620226.016667,9910.806773,2725.366211,69479.517494,1319.144451,747.837979,34701.424016
30,1,0,-nan,-nan,-nan,-nan,-nan,-nan,-nan,-nan,-nan,-nan,-nan,-nan
31,0,160,640828.656250,219375.068750,1239811.831250,66171.181250,7739.900000,619893.700000,7110.915561,2197.027145,66095.108368,840.688407,683.958023,33034.592043
31,1,0,-nan,-nan,-nan,-nan,-nan,-nan,-nan,-nan,-nan,-nan,-nan,-nan
