0,2,760089,266210,1321467,78647,9258,660244,0
0,-1,689339,237145,1195946,70694,8191,597368,0
0,2,781054,271792,1474055,82223,9528,736399,0
0,-1,690108,237811,1230396,70934,7304,614613,2
0,2,710949,249002,1429574,74275,9063,713907,0
0,2,708460,248235,1486018,73716,9587,742079,0
0,2,724081,252301,1406638,76941,9508,702824,0
0,2,713143,250473,1423511,74791,9565,710779,0
0,2,706488,247444,1372806,73535,9094,686040,0
0,-1,692290,237079,1374777,70631,8220,686983,0
0,2,706823,247917,1540171,73750,9300,769677,0
0,2,708355,247837,1431792,73777,10554,715365,0
0,2,710313,248600,1330748,74011,8722,664921,0
0,2,707804,249150,1520738,74029,9377,759547,0
0,2,714473,250084,1459066,74544,9666,728650,0
0,2,711527,248869,1650908,73937,10078,825006,0
0,-1,637063,218472,1158079,65673,6861,578686,0
0,2,716123,250363,1451061,74817,9569,724867,0
0,2,709537,248092,1398691,73841,9578,698941,0
0,2,712298,248539,1411060,73991,8920,704983,0
0,2,707079,249145,1365660,74239,8482,682308,0
0,-1,639740,219134,1308781,65748,7536,653995,0
0,2,707730,249062,1383850,74234,8324,691392,0
0,2,737614,258797,1472412,77308,9617,735341,0
0,2,708158,248464,1506054,73869,9431,752350,0
0,2,708561,249394,1510574,74213,9940,754301,0
0,-1,640648,218932,1219564,65655,7678,609057,0
0,2,710256,249084,1311199,74050,9456,655073,0
0,2,708628,249714,1375831,74339,8415,687403,0
0,2,712331,250572,1385441,74906,9030,691986,0
0,2,713127,249892,1789781,74417,11513,893788,0
0,-1,635252,219149,1200001,65845,7570,599494,0
0,2,714584,249330,1322267,74148,8635,660680,0
0,2,714446,250891,1441997,74862,9426,720321,0
0,2,706540,247875,1352495,73779,8831,675791,0
0,2,713631,249589,1449278,74274,8589,724152,0
0,-1,634037,218300,1260927,65573,7045,629919,0
0,2,709145,248181,1400552,73695,9070,699812,0
0,2,712386,248793,1331942,73996,8395,665645,0
0,2,713567,250461,1288917,74686,8565,643702,0
0,-1,665814,224634,1298748,69978,8200,648986,0
0,2,713756,250097,1452176,74466,9953,725451,0
0,2,714889,249556,1366968,74097,9376,682945,0
0,2,714083,249346,1503062,74126,10240,751070,0
0,2,715378,250451,1643180,74513,9312,820281,0
0,-1,635487,217883,1240169,65442,7611,619557,0
0,2,719185,250269,1455802,74312,10061,727367,0
0,2,711123,250017,1405424,74202,9625,702197,0
0,2,715678,251097,1418956,74936,8879,708632,0
0,2,713971,249659,1589796,74161,10273,793778,0
0,-1,638838,218514,1167790,65635,7452,583281,0
0,2,712633,249893,1397478,74452,9038,698018,0
0,2,710780,250437,1492700,74819,9945,745230,0
0,2,708290,248327,1438659,73751,8966,718498,0
0,2,714218,250164,1511144,74695,9718,754151,0
0,2,731238,253432,1388165,77210,9367,693533,0
0,2,732189,253373,1434301,77186,10070,716686,0
0,2,719768,250742,1320989,74574,9259,659810,0
0,-1,637881,219272,1329883,65781,7877,664416,0
0,2,716600,248630,1429558,73596,8672,714332,0
0,2,709304,248815,1436971,73774,9053,717974,0
0,2,709599,248034,1296160,73592,8708,647635,0
0,2,715120,250102,1389667,74598,9387,693876,0
0,2,732086,252995,1468366,77026,10830,733626,0
0,2,709290,248011,1341326,73561,9875,670256,0
0,-1,640116,219180,1281281,65718,7663,640182,0
0,2,715543,248126,1357400,73599,9054,678119,0
0,2,710138,248310,1514017,73694,9147,756474,0
0,2,710969,248827,1412478,73903,9014,705768,0
0,2,711583,248992,1320090,73916,8834,659534,0
0,2,710800,248447,1427422,73784,8379,713222,0
0,-1,641847,219680,1181061,65970,8201,589948,0
0,2,711191,247718,1433138,73354,8128,716122,0
0,2,724045,253140,1398950,76581,9912,699033,0
0,2,707236,248484,1380023,73324,8147,689456,0
0,2,702880,247834,1495470,73212,9119,747231,0
0,-1,641702,220769,1249070,66700,7598,623684,0
0,2,714052,249423,1416177,74799,9240,707187,0
0,2,704883,248438,1322605,74294,8236,660585,0
0,2,728771,252210,1427263,77290,9171,713082,0
0,2,706811,248445,1303435,74152,9593,651242,0
0,2,708624,247979,1455931,74001,9234,727172,0
0,-1,644954,219258,1267224,65997,7607,633024,0
0,2,709702,248406,1288654,74250,8433,643842,0
0,2,711919,249157,1421510,74488,9751,710257,0
0,2,707194,247384,1484588,73761,9225,741819,0
0,-1,642807,219237,1266092,66000,7878,632548,0
0,2,716184,250261,1356490,75125,8583,677488,0
0,2,712756,249491,1297696,74740,8647,648223,0
0,2,711549,248386,1266533,74200,9018,632752,0
0,2,714513,248801,1787180,74444,11354,892931,0
0,2,708739,247954,1335670,73890,8579,667287,0
0,-1,639326,220448,1280189,66644,7822,639383,0
0,2,709488,248341,1417904,74225,8991,708328,0
0,2,712047,250077,1380518,75053,9656,689390,0
0,2,710173,247841,1302793,73899,9423,650538,0
0,2,714078,248440,1702797,74110,10362,850284,0
0,-1,638400,219124,1138399,65971,7504,568768,0
0,2,703837,247971,1312651,74058,9076,655792,0
0,2,711361,248736,1315061,74380,9137,657036,0
0,2,716696,251318,1440172,75472,9589,719236,0
0,2,713780,249188,1476225,74585,9311,737549,0
0,-1,638821,219754,1185625,66205,7025,592002,0
0,2,718137,251266,1400644,75348,8956,699520,0
0,2,715692,249466,1366083,74561,10005,682540,0
0,2,709551,248939,1322043,74379,9046,660488,0
0,2,712848,249577,1459716,74447,8826,729463,0
0,2,719813,251312,1323911,75249,9293,661210,0
0,-1,657274,223603,1248374,69238,8322,623564,0
0,2,713644,248849,1313245,74248,8886,656161,0
0,2,713841,248923,1351056,74276,8398,675076,0
0,2,734242,253619,1419820,77588,9814,709350,0
0,-1,637936,218844,1296813,65766,7137,647948,0
0,2,712949,248400,1389051,74123,9785,694137,0
0,2,713616,249412,1463166,74395,9181,731187,0
0,2,714558,249940,1270989,74539,8272,635089,0
0,-1,661391,223838,1431652,69210,9355,715114,0
0,2,740932,258297,1399045,77127,9015,699089,0
0,2,716930,249121,1266335,74274,8857,632748,0
0,2,711914,248784,1352597,74229,8742,675889,0
0,-1,637029,219791,1202504,66121,7695,600548,0
0,2,715043,248821,1292955,74200,8404,645959,0
0,2,711207,248042,1317592,74089,8397,658245,0
0,2,711106,247968,1431542,74186,8683,715333,0
0,-1,639823,219664,1224575,66004,7785,611855,0
0,2,706534,247942,1382256,74222,8684,690708,0
0,2,713565,249483,1369990,74918,8857,684360,0
0,2,718510,251327,1456186,75581,8771,727102,0
0,2,708012,247416,1312203,73948,8871,655640,0
0,2,712830,249370,1326951,74733,8753,662822,0
1,2,759544,266394,1490011,78662,9061,744429,0
1,2,708636,247951,1331510,73650,9055,665230,0
1,2,708755,247474,1434686,73329,10095,716818,0
1,-1,696467,239797,1348229,71867,7956,673297,2
1,2,702542,247896,1304503,73696,8400,651677,0
1,2,708324,248873,1289252,73994,9039,644118,0
1,-1,700477,240771,1763721,72189,11279,880798,0
1,2,705300,247917,1375744,73695,9929,687207,0
1,2,705749,247735,1322281,73689,9853,660362,0
1,2,708495,248280,1578136,73893,10656,788460,0
1,2,710357,248657,1367190,73926,8937,683184,0
1,2,705695,248079,1392614,73668,9606,695734,0
1,2,711241,248862,1358951,73959,9320,678890,0
1,2,715345,250863,1490049,74892,9819,743971,0
1,-1,636255,218576,1292933,65756,7294,645987,0
1,2,710629,248522,1288366,74024,8726,643449,0
1,2,713449,249918,1350568,74471,9072,674777,0
1,2,713546,248631,1360634,74069,8927,679899,0
1,2,710129,249679,1477498,74622,9623,738024,0
1,-1,639790,219258,1190524,65841,7730,594699,0
1,2,729363,252986,1351774,77283,9499,675311,0
1,2,706719,248426,1305128,74012,8465,652068,0
1,2,706093,248621,1415410,73907,10027,707242,0
1,2,708437,249803,1509941,74536,10283,753583,0
1,-1,638703,218436,1219204,65527,8280,609158,0
1,2,710019,248581,1402185,73845,9538,699636,0
1,2,710974,248938,1421064,74089,8864,710028,0
1,2,706225,248396,1316594,73832,8786,657801,0
1,2,708427,248474,1453526,73899,9242,726419,0
1,-1,658053,222997,1275667,68888,7757,637332,0
1,2,718358,250783,1446341,74961,10581,722402,0
1,2,706248,248686,1397159,73921,8338,698115,0
1,2,706703,248351,1422971,73770,8557,711026,0
1,2,714683,250903,1398316,75002,9104,698358,0
1,-1,638910,219451,1184246,66003,6920,591672,0
1,2,709727,248537,1325271,73938,8076,662220,0
1,2,712421,249196,1419711,74072,9134,709393,0
1,2,709700,249295,1312472,74057,8034,655713,0
1,-1,637843,218414,1320880,65575,7633,660094,0
1,2,710071,249549,1394142,74052,9440,696641,0
1,2,715697,250706,1477392,74693,9628,737707,0
1,2,716218,250140,1471263,74580,9648,734706,0
1,2,716887,251175,1459159,74873,9558,728841,0
1,-1,638872,219421,1246162,66040,7858,622445,0
1,2,720319,251130,1480810,74768,10044,739552,0
1,2,731049,254493,1455604,77493,10021,727278,0
1,2,709533,248567,1336046,73823,8832,667604,0
1,2,713462,249929,1490010,74193,10479,744494,0
1,-1,663466,224074,1213926,69274,8597,606716,0
1,2,708755,248767,1425895,73861,9173,712116,0
1,2,726962,253166,1566015,77223,10370,781979,0
1,2,730619,253165,1372599,77115,9575,685806,0
1,2,731349,253636,1574371,77328,10142,786636,0
1,2,707857,248726,1315481,73984,8727,657293,0
1,2,711670,248916,1433414,73994,10066,716259,0
1,-1,645352,221389,1365855,66682,8509,681854,0
1,2,714646,249265,1251866,73941,8763,625399,0
1,2,713492,248645,1305029,73606,8690,652098,0
1,2,707756,248122,1391211,73522,9085,695291,0
1,2,711215,248418,1414623,73812,9248,706820,0
1,2,732538,253360,1434485,77142,10039,716791,0
1,2,710303,248595,1415770,73794,9394,707370,0
1,2,714783,250174,1300300,74497,9079,649130,0
1,-1,642976,220578,1307258,66206,7645,652931,0
1,2,713234,248378,1337825,73679,9912,668371,0
1,2,734664,253812,1386259,77282,10376,692583,0
1,2,713597,250336,1394459,74522,8669,696509,0
1,2,712039,248635,1297466,73786,8779,648192,0
1,2,710844,248651,1445587,73796,8343,722288,0
1,-1,641711,219601,1266488,65979,8759,632707,0
1,2,712710,248011,1300538,73514,7768,649820,0
1,2,709177,250052,1378749,73982,8081,688538,0
1,2,710203,249485,1410607,73869,8747,704553,0
1,2,705544,247902,1394373,73227,8720,696592,0
1,-1,641519,219659,1323556,66162,8819,661397,0
1,2,730276,252447,1422602,77375,10198,710740,0
1,2,705493,247357,1271683,73837,9394,635289,0
1,2,707657,248005,1380564,74108,8536,689738,0
1,2,712990,248349,1293174,74245,9288,646152,0
1,-1,646415,220797,1333827,66720,7484,666271,0
1,2,708887,248532,1373017,74315,9373,685950,0
1,2,713020,248283,1300994,74205,9379,650062,0
1,2,710582,249063,1398748,74401,9779,698972,0
1,2,706872,247981,1360997,74117,8708,679932,0
1,-1,645612,221122,1289036,66998,7699,643612,0
1,2,730203,252221,1469639,77292,9957,734371,0
1,2,708318,248115,1396309,74055,9382,697840,0
1,2,711857,248402,1319708,74162,8968,659369,0
1,2,711075,248018,1372572,74032,9088,685917,0
1,2,712532,249574,1305225,74673,8848,651917,0
1,-1,633913,218375,1273627,65716,7307,636373,0
1,2,734761,257207,1489069,76862,10596,744043,0
1,2,733599,253020,1490021,77526,10545,744416,0
1,2,717534,250760,1465041,75161,10375,731074,0
1,2,712263,248099,1457591,73972,10106,728249,0
1,-1,638762,219283,1189700,66040,7306,594342,0
1,2,714833,247204,1410329,73853,8926,704722,0
1,2,711985,249390,1483177,74564,9454,740950,0
1,2,731031,253548,1471223,77677,11288,735155,0
1,2,707720,248351,1343749,74266,8946,671299,0
1,-1,636851,219410,1161913,66085,6914,580549,0
1,2,732743,253899,1492731,77825,10729,745809,0
1,2,716776,249910,1290675,74753,9343,644781,0
1,2,713143,250042,1430280,74785,9544,714570,0
1,2,720336,251880,1334340,75605,9280,666313,0
1,2,735876,253983,1459930,77649,10108,729513,0
1,-1,637988,219437,1268388,66099,7150,633659,0
1,2,713328,248979,1341697,74293,8588,670348,0
1,2,717817,251190,1418656,75409,8565,708542,0
1,2,715561,248744,1386902,74232,8934,693033,0
1,2,714076,249577,1294605,74541,8568,646862,0
1,-1,640150,220064,1366239,66208,7150,682671,0
1,2,720713,251035,1387360,75214,9137,692891,0
1,2,713327,249107,1281984,74371,9201,640524,0
1,-1,638023,219378,1287250,65875,7655,643112,0
1,2,717009,249108,1408623,74405,9248,703858,0
1,2,720531,251158,1385918,75319,8931,692151,0
1,2,712951,248409,1286324,73996,8210,642799,0
1,-1,633321,218481,1356588,65595,8221,677909,0
1,2,717173,249428,1351586,74428,8963,675257,0
1,2,712854,248855,1383685,74323,8124,691358,0
1,2,717340,249971,1393230,75021,9386,695936,0
1,-1,640738,220184,1328738,66435,7822,663609,0
1,2,704264,247566,1321747,74054,8162,660462,0
1,2,706934,247964,1318412,74171,8225,658711,0
1,2,729409,252032,1482180,77373,9512,740682,0
1,2,707649,247873,1298659,74229,8748,648705,0
1,-1,638585,219418,1312536,65998,7187,655724,0
1,2,711321,248982,1387637,74439,8281,693277,0
2,2,761866,267948,1461926,79167,9661,730559,0
2,2,714369,250148,1439307,74618,9861,718788,0
2,2,711012,248604,1424929,73811,9308,711856,0
2,2,705869,248309,1396537,73786,9105,697655,0
2,2,710843,249811,1356896,74497,9183,677799,0
2,-1,693981,237317,1250386,70737,8921,624635,0
2,2,707413,247497,1484983,73557,9529,742196,0
2,2,709783,249651,1399888,74478,10347,699186,0
2,-1,693149,237563,1239350,70862,8235,619123,2
2,2,707965,248147,1475976,73841,9417,737371,0
2,2,707976,248324,1448358,73868,8791,723694,0
2,2,710701,250722,1429615,74872,9910,713943,0
2,2,709163,248861,1388696,73916,9196,693744,0
2,2,709544,248786,1558955,74014,9389,778802,0
2,-1,660001,227281,1320894,68135,8136,659816,0
2,2,709443,248060,1333192,73787,8743,666157,0
2,2,713664,248415,1330009,73978,8141,664597,0
2,2,715291,249605,1426230,74587,9490,712416,0
2,-1,637172,219096,1274590,65996,7773,636445,0
2,2,704560,248156,1396779,73861,9052,697936,0
2,2,709393,249896,1444190,74673,8817,721243,0
2,2,704656,248033,1391217,73863,8741,695135,0
2,2,707487,248885,1340521,74054,9185,669694,0
2,2,711930,248609,1493574,73876,10499,746175,0
2,-1,641932,218528,1244930,65507,7244,621892,0
2,2,712123,250467,1445899,74816,9435,722106,0
2,2,709114,248558,1400078,73903,9080,699657,0
2,2,711396,248710,1370362,74005,10176,684585,0
2,-1,634752,217793,1267131,65333,6807,632973,0
2,2,706337,248642,1383087,73950,8951,691099,0
2,2,732697,253040,1356013,77139,9839,677596,0
2,2,711182,251054,1540675,74993,9421,769537,0
2,2,711272,249579,1338909,74274,8717,669003,0
2,2,709964,248606,1417235,73986,8541,708219,0
2,-1,638682,220049,1308101,66464,7717,653169,0
2,2,713550,250690,1429167,74942,8085,713599,0
2,2,711419,248790,1332450,73988,8384,665817,0
2,2,730057,253470,1371659,77186,9150,685327,0
2,-1,637533,218669,1207779,65754,7910,603277,0
2,2,711681,249034,1293982,73958,8644,646515,0
2,2,737557,254880,1443599,78156,10599,721301,0
2,2,710489,248471,1412304,73861,9522,705799,0
2,2,714717,250473,1465353,74440,10359,732026,0
2,-1,642186,220022,1211921,66454,8611,605324,0
2,2,714615,249716,1505772,74081,10006,752409,0
2,2,715549,250985,1417015,74733,9678,707855,0
2,2,711516,249105,1415410,74010,9240,707135,0
2,2,714720,251140,1562339,74916,10327,780222,0
2,-1,638961,218707,1205767,65733,7939,602605,0
2,2,709351,248425,1539519,73746,10284,769264,0
2,2,716494,249487,1506914,74253,10418,752691,0
2,2,706465,248674,1300057,73926,8964,649444,0
2,2,709775,248656,1499108,73943,9558,748971,0
2,2,704666,247981,1485841,73716,9016,742495,0
2,2,717143,250496,1414779,74633,10768,706755,0
2,-1,638365,219232,1298937,65835,8004,648958,0
2,2,735394,253843,1320862,77123,10315,660045,0
2,2,714220,249060,1287450,73845,9205,643230,0
2,2,709030,249188,1289141,73907,8529,644132,0
2,2,710890,248677,1229500,73891,8935,614273,0
2,2,709638,247681,1274101,73502,8888,636679,0
2,2,712348,249812,1385356,74403,8731,691711,0
2,-1,641356,219585,1295661,65838,7808,647291,0
2,2,709620,248544,1287423,73803,9387,643099,0
2,2,714624,249063,1328388,73969,9755,663685,0
2,2,712422,249973,1399555,74422,8841,699089,0
2,2,712202,248315,1456713,73642,9893,727898,0
2,2,732836,253178,1367599,77088,9584,683294,0
2,2,713897,248748,1367162,73799,8615,683101,0
2,-1,637612,218526,1264392,65533,7830,631771,0
2,2,714733,248608,1354308,73751,8199,676571,0
2,2,703561,248687,1293828,73371,8330,646116,0
2,2,703906,247897,1300096,73057,8457,649505,0
2,2,706281,248453,1396733,73435,8913,697887,0
2,-1,638969,218866,1133670,65853,7234,566259,0
2,2,713736,249691,1354514,74892,9013,676526,0
2,2,709037,249133,1225814,74565,9270,612298,0
2,2,710163,249477,1290740,74693,9403,644484,0
2,2,710805,248030,1283237,74119,8623,641117,0
2,-1,641943,219348,1182304,66060,7289,590682,0
2,2,711335,248308,1537731,74165,9186,768349,0
2,2,716078,249471,1403465,74765,9076,701121,0
2,2,705847,247909,1277513,74031,8728,638323,0
2,2,707621,247812,1427747,73988,8767,713364,0
2,-1,642507,218679,1240760,65795,7538,619898,0
2,2,710967,248053,1338639,74011,8696,668902,0
2,2,709215,248807,1403844,74338,8697,701469,0
2,2,710158,248574,1436972,74264,9142,717996,0
2,2,732956,252461,1473745,77370,9972,736394,0
2,2,706101,247928,1336274,73927,9634,667685,0
2,-1,659038,227237,1304908,68312,7328,652052,0
2,2,711771,249865,1243600,74932,9386,621127,0
2,2,714972,248462,1372927,74273,9462,685891,0
2,2,731585,252701,1498148,77316,10710,748982,0
2,2,713301,248848,1453671,74263,10012,725910,0
2,-1,637742,219259,1200169,65987,7572,599675,0
2,2,715697,248375,1322628,74197,9163,660525,0
2,2,712207,249195,1332628,74573,8830,665840,0
2,2,715984,249997,1384931,74723,9528,691766,0
2,2,734087,254266,1368308,78111,10681,683399,0
2,-1,635878,219080,1269533,65875,7433,634281,0
2,2,711837,249459,1436873,74502,9755,717971,0
2,2,713835,249098,1341874,74477,9211,670314,0
2,2,717547,250996,1335486,75340,8628,666919,0
2,2,764056,263964,1498766,80730,10295,749015,0
2,-1,634997,219186,1151930,66021,6604,575435,0
2,2,713425,249096,1446872,74246,9119,722998,0
2,2,717134,250876,1309871,75198,8924,654312,0
2,2,715823,250236,1311667,74951,8310,655143,0
2,2,716803,249583,1379091,74537,9298,689137,0
2,-1,639083,219156,1187156,65920,7106,593114,0
2,2,710262,248461,1358882,74165,8675,679033,0
2,2,713526,248697,1387344,74015,8168,693237,0
2,2,735809,254320,1335516,77810,9349,667267,0
2,-1,641596,220932,1209204,66675,7956,603755,0
2,2,715898,249811,1287328,74642,8730,643008,0
2,2,740882,254236,1525078,77791,9577,761963,0
2,2,715353,250229,1349392,74958,8620,674007,0
2,-1,636759,219889,1421515,66176,8124,710402,0
2,2,733916,252879,1511712,77288,10096,755320,0
2,2,710488,248173,1297637,73989,8044,648437,0
2,2,711582,248180,1391374,74251,8984,695150,0
2,-1,639562,219949,1207445,66149,7558,603492,0
2,2,727908,253320,1465048,77749,9716,732160,0
2,2,705468,247401,1401041,73952,8428,700050,0
2,2,708976,248001,1400762,74179,8240,700017,0
2,2,707268,247630,1257843,74015,9073,628470,0
2,-1,638730,219847,1329818,66089,7186,664474,0
2,2,731368,253579,1445356,77747,9164,722227,0
3,2,767093,267361,1495904,79182,10398,747251,0
3,2,730872,252902,1425566,77028,9998,712167,0
3,2,709744,248334,1333738,73655,8684,666347,0
3,2,711836,250623,1558832,74827,10690,778525,0
3,-1,693004,236981,1340022,70600,8363,669528,0
3,2,706656,247529,1379353,73529,9026,689255,0
3,2,710864,249960,1447976,74592,9436,723184,0
3,2,706028,248087,1449918,73757,9624,724331,0
3,2,711058,249818,1474929,74685,10258,736583,0
3,2,708296,248505,1315731,73861,8417,657348,0
3,2,712486,248691,1369393,73907,9521,684197,0
3,2,715545,250122,1367446,74287,9203,683273,0
3,2,712594,248898,1426827,73956,9702,712815,0
3,-1,690791,237527,1313561,70790,7743,656154,2
3,-1,689631,237409,1264148,70733,7289,631479,0
3,2,715639,251164,1320816,75143,9516,659640,0
3,2,716351,250317,1465037,74904,8456,731613,0
3,2,713996,248850,1299425,74142,9109,649208,0
3,-1,636561,219010,1277251,65765,7974,638196,0
3,2,708213,248860,1385735,74134,9190,692284,0
3,2,706242,248133,1446364,73868,8883,722668,0
3,2,705056,248109,1389997,73854,8902,694491,0
3,2,710974,250492,1452986,74832,9399,725766,0
3,2,711921,248892,1480838,74072,9886,739738,0
3,-1,660449,223269,1348388,68923,8922,673730,0
3,2,728448,253373,1494442,77329,9886,746818,0
3,2,708972,248771,1429328,74024,8930,714174,0
3,-1,637666,219409,1439465,65974,7913,719104,0
3,2,713716,250016,1411699,74611,10009,705198,0
3,2,711620,248459,1356379,73906,8994,677673,0
3,2,712068,248973,1410848,74085,9454,704696,0
3,2,736689,258411,1441631,76866,8963,720333,0
3,2,708299,248783,1262857,74022,8246,631058,0
3,2,711277,249154,1313858,74150,8532,656397,0
3,-1,652427,222042,1339690,68688,7683,669272,0
3,2,730288,253578,1438115,77373,8779,718840,0
3,2,707636,248279,1279910,73839,8109,639512,0
3,-1,645012,221287,1376717,66932,8868,687187,0
3,2,708142,249083,1387995,73930,8258,693520,0
3,2,712806,250069,1389251,74517,8224,693926,0
3,2,712711,248789,1426680,73810,8566,712516,0
3,2,716300,250851,1455932,74935,10056,727223,0
3,2,716486,249264,1470028,74077,9603,734103,0
3,-1,634589,218449,1273550,65604,8131,636380,0
3,2,719752,251413,1517918,74881,10280,758148,0
3,2,711658,250045,1309157,74266,9233,653860,0
3,2,715270,250756,1517462,74747,9087,757938,0
3,2,715049,250317,1523771,74297,10532,761327,0
3,-1,641056,219510,1176145,65980,7770,587456,0
3,2,709889,248703,1418718,73918,9734,708685,0
3,2,717128,250065,1490584,74618,9785,744420,0
3,2,714316,249330,1435963,74033,8905,717522,0
3,2,711688,249316,1312961,74071,8929,656000,0
3,2,711809,248146,1388677,73740,9903,693867,0
3,2,713520,249272,1333071,74071,9788,666135,0
3,-1,636264,218969,1272049,65717,8424,635446,0
3,2,712670,249188,1482199,73858,9399,740614,0
3,2,713474,248791,1444957,73712,9638,722053,0
3,2,709658,248834,1399313,73740,8942,699082,0
3,2,707549,247649,1613641,73444,9603,805812,0
3,2,710175,248449,1380369,73771,9328,689628,0
3,2,709488,248090,1484762,73617,9317,742040,0
3,-1,662586,224431,1259651,69263,8641,629256,0
3,2,714589,250964,1288287,74879,8919,643207,0
3,2,733558,252796,1417402,76981,10760,707775,0
3,2,710809,248155,1745748,73588,11044,872375,0
3,2,731401,252701,1486701,76926,9917,742888,0
3,2,709885,248513,1329745,73795,9075,664291,0
3,-1,640804,219323,1305811,65892,7658,652144,0
3,2,736785,253399,1452798,77158,9995,725846,0
3,2,717199,249966,1324922,74376,8227,661857,0
3,2,704403,247866,1369168,73030,8199,684098,0
3,2,704005,247906,1471407,73047,9162,735267,0
3,2,709978,249982,1322859,74079,8902,660732,0
3,-1,639501,219371,1159469,66074,7459,579201,0
3,2,710634,249002,1407885,74396,8982,703380,0
3,2,705485,248397,1303201,74205,9468,651099,0
3,2,708990,248166,1354657,74146,9597,676700,0
3,-1,661378,222917,1280815,68980,7926,639907,0
3,2,712332,249123,1370013,74763,9078,684326,0
3,2,729286,252839,1580216,77479,10558,789327,0
3,2,712469,248850,1317805,74392,9027,658463,0
3,2,710074,249983,1314028,74931,9073,656280,0
3,2,707527,248627,1349001,74232,8283,674160,0
3,-1,645756,220198,1177864,66376,7598,588404,0
3,2,713380,249228,1452436,74514,8776,725690,0
3,2,731148,252382,1445147,77229,9882,722108,0
3,2,708952,247869,1411119,73979,8813,705176,0
3,2,712920,248543,1357808,74232,8775,678419,0
3,-1,634210,219317,1270018,66076,7941,634416,0
3,2,711881,248528,1430869,74108,9287,715063,0
3,2,729768,253114,1367567,77567,10802,683336,0
3,2,711742,247264,1446131,73847,10470,722260,0
3,2,707995,247609,1478098,73838,9547,738380,0
3,-1,658326,223976,1222611,69376,8368,610817,0
3,2,710378,247480,1630109,73736,9929,813903,0
3,2,716903,248996,1459355,74378,9369,729167,0
3,2,707761,248046,1433996,74121,9707,716602,0
3,2,711011,248607,1402875,74232,9726,700800,0
3,2,713850,250351,1341535,75013,9723,669682,0
3,-1,635209,219242,1350779,66042,7103,674821,0
3,2,718235,250865,1289459,75242,9288,644037,0
3,2,714051,249153,1327761,74457,9714,663349,0
3,2,713004,249386,1295231,74586,8096,647075,0
3,2,714720,249984,1373632,74632,8875,686364,0
3,-1,637505,219499,1267557,66113,7918,633185,0
3,2,719194,250637,1255309,74984,9293,626971,0
3,2,713856,250126,1293848,74856,8199,646216,0
3,2,711142,248785,1382133,74297,8690,690586,0
3,2,713697,248731,1379603,74268,8407,689326,0
3,-1,643490,221135,1267722,66842,7315,633199,0
3,2,711833,248953,1359376,74336,8869,679204,0
3,2,717316,251113,1344538,75171,8412,671618,0
3,2,713388,249801,1278063,74632,8878,638547,0
3,-1,638512,218865,1217426,65796,8354,608312,0
3,2,712681,249005,1342708,74423,9135,670884,0
3,2,716240,249144,1321408,74344,8137,660261,0
3,2,733565,253565,1418875,77546,9424,708927,0
3,-1,634804,219429,1211283,65958,7567,605277,0
3,2,713660,248589,1370003,74202,9194,684522,0
3,2,710639,248578,1386697,74103,8293,692866,0
3,2,712895,247746,1404435,74059,8434,701749,0
3,-1,636786,218830,1323955,65808,8237,661594,0
3,2,704211,247666,1363017,74103,8076,681214,0
3,2,704697,247167,1300452,73930,8856,649757,0
3,2,707770,247999,1280049,74247,8333,639489,0
3,2,713604,250413,1346737,75297,9692,672624,0
3,-1,643954,220188,1372820,66373,7990,685694,0
3,2,709714,249548,1379723,74809,9597,689243,0
4,2,762669,266705,1366428,78748,8839,682733,0
4,2,708616,248267,1590176,73873,11272,794736,0
4,2,714730,250716,1464016,74718,10101,731175,0
4,2,724878,252603,1470879,76826,10869,734888,0
4,-1,693385,237564,1249940,70806,8537,624377,0
4,2,705852,248147,1332117,73801,8454,665415,0
4,2,706096,247998,1339572,73715,9709,669295,0
4,2,710718,250384,1464020,74803,10198,731115,0
4,2,726846,252370,1460293,76979,10552,729726,0
4,2,706468,247338,1305216,73566,8421,652153,0
4,2,713214,248652,1477422,73863,9068,738221,0
4,2,714492,250142,1432828,74432,10140,715565,0
4,2,710378,248317,1484612,73778,10042,741398,0
4,-1,695087,239245,1377812,71677,8570,688172,0
4,2,708850,248273,1394443,73896,9220,696809,0
4,2,735452,253481,1535044,77433,9207,767098,0
4,2,735272,253305,1336448,77368,9890,667787,0
4,-1,637049,218621,1245585,65664,7403,622353,2
4,-1,639349,218741,1212824,65629,7982,605866,0
4,2,708093,248633,1335828,74013,8840,667429,0
4,2,707477,249160,1412737,74251,8936,705888,0
4,2,706040,248736,1325023,74045,8103,662024,0
4,2,713509,249370,1363333,74151,8972,681243,0
4,-1,640491,218969,1201519,65733,7369,600157,0
4,2,710116,249164,1422098,74142,9679,710550,0
4,2,709930,249912,1547606,74371,9633,773287,0
4,2,708694,249044,1269877,74119,8256,634530,0
4,-1,635490,219060,1181640,65797,6944,590348,0
4,2,707144,248633,1505322,73853,8485,752480,0
4,2,733041,253519,1341029,77380,9094,670030,0
4,2,710779,248868,1405579,74066,9264,702204,0
4,2,707009,248132,1394903,73737,8178,697066,0
4,2,707338,249029,1288440,74097,8051,643811,0
4,-1,634317,218439,1274820,65675,7217,637001,0
4,2,712407,249915,1437600,74588,9537,718037,0
4,2,707840,248052,1332995,73699,8394,666098,0
4,2,709760,248814,1492860,73903,9972,745576,0
4,-1,657420,222893,1282721,68934,8509,640919,0
4,2,710062,249165,1330613,74029,8465,664922,0
4,2,707959,248826,1379219,73889,8557,689244,0
4,2,713851,249516,1413111,74110,8355,705541,0
4,2,712377,249385,1342789,74165,9913,670771,0
4,2,738056,254666,1497459,77657,10094,747803,0
4,-1,637813,218282,1307365,65612,8366,653189,0
4,2,718807,250766,1486277,74546,9790,742544,0
4,2,710455,250020,1408048,74185,9649,703510,0
4,2,733591,254969,1388344,77669,9594,693522,0
4,2,709762,249018,1349488,73978,8990,674239,0
4,-1,642350,220190,1243426,66485,8446,620940,0
4,2,715385,251167,1531732,75072,10268,765264,0
4,2,733511,253531,1484134,77359,10691,741629,0
4,2,713543,249408,1394276,74152,8792,696594,0
4,2,716879,250982,1399133,74888,9389,698685,0
4,2,712851,248441,1251830,73835,8734,625349,0
4,-1,636500,218960,1209097,65809,8254,603821,0
4,2,710340,248298,1482309,73715,9988,740788,0
4,2,717947,251620,1462143,74857,9339,730390,0
4,2,718540,250718,1501176,74628,9912,749552,0
4,2,712698,250645,1401895,74637,9220,700303,0
4,2,706514,248173,1435632,73543,9069,717412,0
4,2,715726,250128,1391016,74475,9238,694652,0
4,-1,640122,219652,1251135,65867,7913,625152,0
4,2,709541,248491,1306455,73814,8641,652636,0
4,2,730259,252854,1472641,76923,9863,735863,0
4,2,712288,248376,1314642,73681,9677,656727,0
4,2,732689,253469,1441120,77178,9302,720084,0
4,2,712089,248842,1487305,73871,9812,743230,0
4,2,707212,247892,1284381,73542,8250,641723,0
4,-1,640730,219370,1231986,65798,7660,615698,0
4,2,714624,249113,1371316,73958,9261,685216,0
4,2,711054,247907,1375043,73476,7733,686861,0
4,2,710393,250837,1308131,74334,8319,653232,0
4,2,704901,248570,1377107,73304,9111,688032,0
4,-1,642709,221052,1312202,66760,7653,655448,0
4,2,705444,248270,1380684,73344,8809,689840,0
4,2,710589,248200,1338867,74196,9983,668910,0
4,2,710215,250036,1253975,75063,9576,625927,0
4,2,709200,249321,1250122,74557,8924,624515,0
4,-1,641849,219522,1410722,66077,7842,704836,0
4,2,731451,252972,1423150,77536,9405,711161,0
4,2,708995,248323,1471404,74234,9691,735122,0
4,2,713168,249729,1328645,74793,9226,663621,0
4,2,705100,247748,1343101,74013,9847,671060,0
4,-1,644926,219956,1258341,66448,8488,628493,0
4,2,706805,248162,1415464,74168,9506,707270,0
4,2,712312,248193,1383327,74115,8968,691241,0
4,2,710734,248512,1317882,74284,8915,658408,0
4,2,713070,249970,1330262,74985,8241,664323,0
4,2,713079,249306,1335716,74670,8278,667044,0
4,-1,632345,218561,1261043,65707,7832,630134,0
4,2,731337,252962,1500383,77408,9721,749687,0
4,2,711477,248797,1269150,74345,9549,634093,0
4,2,716909,249706,1353674,74799,10410,676043,0
4,2,710936,248624,1446550,74140,9519,723668,0
4,-1,636804,219569,1251882,66140,7394,625484,0
4,2,711523,248613,1462862,74316,9496,730896,0
4,2,712803,248014,1469816,74070,9389,734147,0
4,2,711019,249026,1428253,74334,9798,713666,0
4,2,713522,249170,1441812,74399,9721,720425,0
4,2,713796,248648,1384394,74408,9359,691786,0
4,-1,637217,219736,1325796,66149,7249,662434,0
4,2,715641,249188,1407025,74514,9694,703002,0
4,2,716919,250627,1279072,75169,9011,638732,0
4,2,710835,249355,1409330,74585,9303,704016,0
4,-1,636552,219552,1201562,66065,7496,600057,0
4,2,711978,249374,1335995,74465,8294,667575,0
4,2,714841,249206,1296196,74271,8848,647717,0
4,2,710492,248578,1380428,74177,8590,689800,0
4,2,710384,248671,1383794,74194,8816,691386,0
4,2,713093,248776,1473787,74224,8616,736430,0
4,-1,659795,223885,1200920,69308,7715,600029,0
4,2,713284,249893,1334440,74826,8613,666574,0
4,2,712765,248744,1286305,74278,7574,642625,0
4,2,711786,248811,1230834,74173,7750,614966,0
4,-1,642922,220164,1301764,66218,7669,650377,0
4,2,714484,249637,1303683,74601,9101,651368,0
4,2,718821,250447,1328633,74995,8248,663819,0
4,2,711768,248851,1339941,74219,8602,669528,0
4,-1,639322,221493,1361294,66938,8707,679456,0
4,2,712463,248645,1359911,74170,9342,679455,0
4,2,713203,248891,1422842,74246,8536,710876,0
4,2,713546,248467,1472442,74187,9240,735764,0
4,-1,639519,220312,1288303,66304,7778,643565,0
4,2,704674,248347,1473809,74357,8448,736546,0
4,2,707711,248565,1386000,74422,8850,692504,0
4,2,712874,250009,1385906,75065,8156,692145,0
4,-1,641959,220077,1265970,66179,7235,632516,0
4,2,706084,247958,1372014,74169,8522,685549,0
4,2,714639,249331,1373752,74558,8869,686426,0
5,2,784396,271195,1506383,82064,11259,752655,0
5,2,706428,247452,1302659,73571,8732,650802,0
5,2,729179,252618,1429929,76899,9982,714533,0
5,-1,691815,237267,1231371,70696,7345,615242,0
5,2,703888,248558,1341220,73827,10038,669966,0
5,2,703649,247722,1395455,73622,8683,697294,0
5,2,704234,247767,1475326,73697,9639,737174,0
5,2,726038,252756,1459028,77049,10624,729067,0
5,2,709563,248511,1380273,73916,9700,689454,0
5,2,708869,248339,1351572,73834,8661,675287,0
5,2,716587,250913,1425347,74878,9528,711893,0
5,2,711674,248969,1338292,73914,9299,668546,0
5,2,732872,253094,1352638,77149,10891,675820,0
5,-1,691220,237348,1270328,70766,7866,634581,0
5,2,708019,248433,1302710,73960,8333,651039,0
5,2,711922,248541,1490871,74054,8882,744919,0
5,2,712205,248402,1429139,73997,9008,714137,0
5,-1,639371,218825,1230063,65693,8615,614466,0
5,2,707133,250510,1458851,75024,9807,728678,0
5,-1,643076,221442,1316009,66812,8197,657040,2
5,2,709438,249199,1386295,74211,8242,692789,0
5,2,705868,248147,1560995,73875,9292,779708,0
5,2,706091,248431,1239313,73971,8197,619220,0
5,-1,639049,218613,1198857,65520,7925,599038,0
5,2,709233,248874,1400347,73971,8605,699691,0
5,2,707970,249231,1413691,74108,10013,706300,0
5,2,712141,250397,1431086,74744,9234,714550,0
5,-1,637405,219192,1192877,65822,7520,595846,0
5,2,708008,248692,1405713,73953,8868,702494,0
5,2,711724,249149,1466800,74171,9199,732846,0
5,2,714784,249635,1397886,74222,8842,698519,0
5,2,710407,249862,1457991,74478,8531,728279,0
5,2,707601,249203,1410202,74104,8825,704547,0
5,-1,634178,218722,1271352,65741,7270,635120,0
5,2,710872,248944,1400551,73981,9251,699754,0
5,2,708273,249066,1394162,74079,8523,696602,0
5,2,708325,248550,1609459,73817,10351,803660,0
5,-1,636681,218488,1224573,65714,7370,611866,0
5,2,708516,249578,1602360,74147,10710,800625,0
5,2,709292,249140,1306223,74028,8070,652691,0
5,2,713552,249590,1636202,74143,11214,814952,0
5,2,708507,248243,1511165,73689,9383,754934,0
5,2,717254,250293,1371163,74450,8862,684752,0
5,-1,637657,218827,1204661,65768,7366,601990,0
5,2,735793,254604,1459832,77544,10782,729435,0
5,2,713870,251278,1389554,74861,9582,693941,0
5,2,710074,249900,1404159,74236,9712,701493,0
5,2,715503,251460,1416730,75075,9601,707633,0
5,-1,644501,219668,1231072,66160,7496,615075,0
5,2,731899,254087,1429441,77438,10735,714003,0
5,2,707918,247437,1555215,73469,9323,777121,0
5,2,728463,252525,1434048,76913,10079,716207,0
5,2,731621,253546,1527340,77217,9721,763078,0
5,2,716388,250201,1331321,74625,9482,664979,0
5,-1,661083,223407,1252995,68996,8245,625974,0
5,2,731184,253233,1455976,77175,10135,727622,0
5,2,713481,248768,1336385,73747,9319,667675,0
5,2,742721,255127,1466765,78031,9968,732933,0
5,2,714857,250403,1307584,74496,9079,652996,0
5,2,713804,250488,1363391,74681,9105,680888,0
5,2,709710,248697,1408707,73793,9326,703893,0
5,-1,638659,219402,1167202,65864,7448,582967,0
5,2,712782,250325,1283614,74608,8716,640977,0
5,2,706713,248141,1385102,73591,9134,691991,0
5,2,712051,248017,1389025,73588,9713,694081,0
5,2,710440,248704,1424257,73829,9412,711597,0
5,2,710303,248436,1482577,73708,9361,740767,0
5,2,711153,248666,1427974,73766,8950,713451,0
5,-1,643993,220979,1329829,66695,8213,664561,0
5,2,714116,248420,1362966,73763,8756,681012,0
5,2,714001,248735,1303964,73780,7907,651436,0
5,2,702139,248025,1283197,73015,8423,641125,0
5,2,706193,248698,1358922,73359,8437,678881,0
5,-1,648698,221182,1366824,66807,8532,682411,0
5,2,703471,247702,1501442,73057,9688,750148,0
5,2,707676,247527,1248036,73897,9295,623449,0
5,2,708308,247587,1229556,73883,9252,614165,0
5,2,710118,249953,1251718,74986,8632,624933,0
5,-1,641130,219095,1269670,65975,7714,634319,0
5,2,713935,248983,1380709,74450,9166,689786,0
5,2,708825,248998,1638772,74445,9605,819451,0
5,2,708215,248403,1484641,74251,9292,741764,0
5,2,710865,250040,1340714,75039,9847,669546,0
5,-1,641871,219102,1125427,65999,7700,562180,0
5,2,709472,249452,1335750,74769,9220,667250,0
5,2,731156,252927,1454629,77516,9850,726812,0
5,2,708511,248530,1287680,74313,9018,643350,0
5,2,735949,257706,1414058,76993,9223,706565,0
5,2,711616,247606,1338241,73918,8546,668646,0
5,-1,637119,219326,1193894,66060,7293,596559,0
5,2,713845,249831,1309317,74877,8714,653994,0
5,2,714722,248583,1252174,74275,9531,625619,0
5,2,711406,247735,1405078,73955,10658,701491,0
5,2,712544,249425,1472697,74652,10328,735276,0
5,-1,634873,218919,1295732,65807,7716,647453,0
5,2,709948,248044,1465869,74081,9566,732345,0
5,2,713639,247995,1430059,74033,9951,714533,0
5,2,706770,248156,1389138,74211,9128,694109,0
5,2,713637,249705,1311923,74642,9722,655411,0
5,2,737217,254345,1492038,78108,10178,745573,0
5,-1,646335,221740,1552961,67184,9347,775573,0
5,2,718347,250547,1394097,74931,9660,696454,0
5,2,717895,249578,1259050,74643,9417,629003,0
5,2,717260,250808,1415557,75228,8605,706959,0
5,-1,655869,223465,1228679,69168,8926,614166,0
5,2,714945,250541,1310862,75022,9145,654749,0
5,2,717243,250240,1261950,74618,8764,630578,0
5,2,719009,251346,1418506,75212,8998,708477,0
5,2,715387,248989,1312749,74357,9278,655836,0
5,2,713361,248471,1372839,74144,8302,685966,0
5,-1,638595,219482,1196578,66028,7296,597769,0
5,2,712562,249308,1339772,74427,8870,669479,0
5,2,713898,249523,1373360,74542,8322,686565,0
5,2,712424,249468,1294815,74508,8275,647008,0
5,-1,640139,219127,1357453,65802,7465,678266,0
5,2,718565,249669,1289487,74607,8470,644320,0
5,2,716866,249123,1410660,74330,8696,704863,0
5,2,710432,249234,1409012,74381,8798,703997,0
5,-1,656341,223980,1224737,69277,8092,611704,0
5,2,717561,250596,1446668,74990,9806,722644,0
5,2,711533,248723,1289547,74194,8575,644270,0
5,2,713045,247846,1331611,73987,9245,665369,0
5,-1,658392,224013,1318824,69279,8154,658745,0
5,2,713193,246975,1380284,73805,8859,689664,0
5,2,708921,248509,1388973,74396,8663,693942,0
5,-1,644804,221936,1282166,67129,7764,640292,0
5,2,707797,247694,1283924,74106,7916,641636,0
5,2,706431,247910,1384514,74156,7742,691825,0
5,2,709007,247109,1304162,73739,8596,651632,0
6,2,767174,268529,1495007,79530,10057,746680,0
6,2,707135,248213,1399870,73871,8701,699405,0
6,2,706217,247699,1405296,73460,8980,702224,0
6,-1,712280,241628,1403457,73927,8642,701309,0
6,2,711677,248351,1450246,73740,9404,724446,0
6,2,706740,248407,1302141,73867,8578,650462,0
6,2,714825,250373,1457426,74790,9928,728151,0
6,2,702181,247090,1506879,73353,9559,752984,0
6,2,706372,247632,1486819,73550,10419,742955,0
6,2,708855,248422,1369053,73972,8888,684000,0
6,2,731679,252521,1400937,76843,10344,700006,0
6,2,718311,251818,1438701,75175,10030,718310,0
6,-1,690322,237692,1250386,70906,7108,624782,0
6,2,711644,249248,1346850,74087,9330,672202,0
6,2,708612,248537,1454074,73984,10142,726576,0
6,2,710681,248742,1378206,74100,8373,688513,0
6,2,712535,248451,1634257,73972,9788,816714,0
6,-1,643352,219957,1192046,66060,7621,595382,0
6,2,704275,248302,1337792,73891,9007,668413,0
6,2,706712,248676,1302580,74071,8343,650851,0
6,2,709214,249707,1696152,74471,10865,847185,0
6,-1,640808,219372,1177345,65856,7881,588043,2
6,2,709540,248590,1338338,74026,9706,668597,0
6,-1,639183,219075,1232931,65718,7498,616015,0
6,2,713402,250296,1334027,74476,9196,666624,0
6,2,711565,250150,1507773,74681,9711,752553,0
6,2,703621,247490,1334100,73620,8798,666598,0
6,-1,663906,228544,1368347,68895,8706,683275,0
6,2,708603,249345,1418368,74213,9253,708711,0
6,2,710586,248861,1471101,74102,10245,734537,0
6,2,709855,248481,1315033,73860,8576,657016,0
6,2,706112,248549,1387125,73876,8488,693162,0
6,-1,642556,219624,1291045,66204,7886,644787,0
6,2,705057,248294,1383935,73812,8622,691508,0
6,2,711559,249056,1383775,74149,8528,691616,0
6,2,710313,248848,1494632,74052,9404,746892,0
6,2,708628,248429,1335290,73864,7753,667194,0
6,-1,637311,218870,1173947,65824,7604,586460,0
6,2,731957,254094,1551242,77401,10625,774166,0
6,2,706674,248464,1351378,73721,8590,675205,0
6,2,715535,250726,1309583,74771,8959,654344,0
6,2,716841,251392,1514470,75122,9965,756059,0
6,2,716790,249964,1569697,74449,9630,784318,0
6,-1,639823,219627,1260256,66023,8473,629499,0
6,2,717816,249451,1435105,74125,9240,716944,0
6,2,732127,254744,1348527,77539,9837,673751,0
6,2,714794,249766,1513717,74073,10304,756019,0
6,-1,661342,223295,1373965,69007,7600,686589,0
6,2,708788,249195,1328837,73956,9032,663957,0
6,2,713640,248771,1480373,73899,10223,739707,0
6,2,717015,250332,1480504,74639,10529,739808,0
6,2,709771,248689,1452034,73948,9787,725748,0
6,2,711145,248957,1498969,73978,9324,749022,0
6,2,710606,247821,1300879,73638,9680,650009,0
6,-1,643312,218907,1230461,65770,7453,614758,0
6,2,712848,249987,1482065,74293,9860,740404,0
6,2,712444,248676,1348884,73713,10070,673920,0
6,2,715589,249184,1404516,73860,9815,701794,0
6,2,711395,249441,1255874,73977,8487,627308,0
6,2,711026,250172,1370024,74463,9307,684421,0
6,2,709885,248455,1425748,73776,8521,712334,0
6,-1,641586,220577,1192630,66391,7812,595518,0
6,2,730198,253413,1286965,77183,9659,642908,0
6,2,712515,248505,1437946,73783,9457,718424,0
6,2,716086,250238,1387984,74583,10271,693208,0
6,2,708431,248083,1424939,73585,8905,711651,0
6,2,730547,252734,1554295,76922,9703,776743,0
6,2,708138,248354,1413432,73666,9100,706191,0
6,-1,662244,224409,1289085,69298,9178,643939,0
6,2,738931,257326,1470949,76338,8801,735018,0
6,2,718163,250798,1320652,74703,8268,659409,0
6,2,708508,250231,1324329,74037,8095,661403,0
6,2,703528,248066,1353887,73133,8877,676521,0
6,-1,664862,224081,1275440,69392,9227,637101,0
6,2,708729,249855,1316342,73977,8908,657360,0
6,2,710194,249044,1277578,74493,9437,638161,0
6,2,713475,248478,1367777,74196,9939,683284,0
6,2,736490,257162,1354221,76860,9028,676545,0
6,-1,643722,220392,1323402,66594,7990,660994,0
6,2,708739,248287,1461873,74222,9024,730446,0
6,2,711222,248695,1487263,74307,9864,742990,0
6,2,715029,249663,1390769,74606,8892,694893,0
6,2,726991,253104,1423972,77558,10266,711527,0
6,-1,640748,218816,1347921,65866,8301,673658,0
6,2,731937,257336,1435784,76922,10065,717429,0
6,2,710763,248416,1349037,74240,8105,674009,0
6,2,708106,247264,1294288,73766,8913,646711,0
6,2,717176,249525,1416744,74724,9249,707627,0
6,2,712385,248681,1383521,74279,8754,691287,0
6,-1,634036,219124,1267577,65986,7243,633248,0
6,2,708838,248243,1377261,74188,8811,688158,0
6,2,713335,248557,1304675,74244,9786,651876,0
6,2,715051,249214,1410483,74654,9556,703725,0
6,-1,636563,219636,1214837,66147,7410,606922,0
6,2,715206,248798,1573645,74273,10359,785758,0
6,2,711524,248433,1473328,74199,9153,735755,0
6,2,713678,247849,1354109,74049,9360,676357,0
6,2,708474,248205,1367314,74138,9367,683238,0
6,2,710715,249086,1322665,74399,9240,660855,0
6,2,716574,249786,1425371,74826,9359,712191,0
6,-1,637292,218609,1256582,65794,6809,627810,0
6,2,713779,248868,1326926,74370,9716,662958,0
6,2,717304,249982,1321269,74749,9931,660120,0
6,-1,635483,219590,1253709,66150,8385,626340,0
6,2,711347,249244,1398796,74458,9314,698911,0
6,2,731608,254012,1481300,77737,10366,740272,0
6,2,714725,249343,1314776,74370,8564,656954,0
6,2,712554,249360,1373573,74313,8685,686398,0
6,2,715835,249455,1418143,74406,8479,708628,0
6,2,734670,253867,1439512,77745,9054,719269,0
6,-1,638978,219590,1176305,66051,7397,587368,0
6,2,715076,251015,1361944,75275,9315,680304,0
6,2,731673,253527,1511904,77592,9912,755459,0
6,2,736638,254919,1363468,78098,9254,681273,0
6,-1,639832,220332,1315437,66304,7249,657126,0
6,2,718193,249490,1440887,74558,9001,720008,0
6,2,720255,250824,1367071,75165,9929,682784,0
6,-1,646501,221055,1311854,66703,8582,655066,0
6,2,736736,254319,1450100,77831,9443,724557,0
6,2,714599,248377,1400521,74055,9313,699815,0
6,2,712841,249418,1374678,74571,8859,686534,0
6,-1,636783,219741,1296193,66094,7337,647568,0
6,2,714425,248526,1418903,74245,9209,708993,0
6,2,712455,247712,1429543,74152,9689,713894,0
6,2,727874,252762,1398206,77519,10351,698710,0
6,-1,638593,219355,1265582,65936,6796,632334,0
6,2,706009,247517,1357730,74041,7774,678411,0
6,2,708799,248639,1504580,74443,8538,751892,0
6,2,709709,247718,1444570,74030,8374,721670,0
7,2,760539,266339,1486736,78640,9690,742703,0
7,2,712598,250343,1410307,74799,9017,704180,0
7,2,708980,248526,1326503,73796,8942,662588,0
7,-1,694581,237532,1270425,70858,8232,634557,0
7,2,711038,247565,1396639,73393,9586,697836,0
7,2,708257,249104,1468211,74304,9070,733153,0
7,2,730426,252853,1393483,77134,9735,696012,0
7,2,715215,249911,1509835,74527,10493,754228,0
7,2,708310,249030,1354688,74061,9898,676648,0
7,2,710936,249925,1541898,74680,9635,769931,0
7,2,711507,249208,1402226,73994,9144,700737,0
7,2,710508,249149,1323316,73952,9255,661259,0
7,-1,691215,238087,1354158,71120,8374,676342,0
7,2,711736,249635,1542456,74393,10382,769148,0
7,2,706101,248018,1451238,73762,10047,725083,0
7,2,709124,248149,1318620,73862,8022,658827,0
7,2,711976,248110,1319677,73902,9384,659327,0
7,-1,638349,218978,1299051,65817,8122,648965,0
7,2,712143,251333,1507307,75172,9724,752874,0
7,2,703998,248052,1381081,73786,8243,690082,0
7,2,707732,249377,1431747,74446,9045,715094,0
7,2,709604,249435,1403674,74253,8730,701260,0
7,-1,644657,221602,1311831,66853,8204,654994,0
7,2,710769,249127,1418172,74130,9386,708701,0
7,2,707507,249554,1440631,74271,9213,719710,0
7,2,705157,248143,1552828,73782,9133,776039,0
7,-1,638918,220125,1265276,66176,7687,631979,0
7,2,706907,248391,1317465,73843,9045,658341,0
7,2,715337,250441,1431084,74771,8896,714751,0
7,2,711468,248813,1348077,74011,8562,673633,0
7,2,710801,249709,1315526,74281,8461,657219,0
7,-1,638033,218604,1243570,65720,7466,621284,0
7,2,708917,250053,1488264,74609,8668,743378,0
7,-1,634428,219474,1187671,66024,7029,593295,2
7,2,730576,253334,1427647,77296,9279,713309,0
7,2,708869,248776,1398340,73906,8799,698725,0
7,2,709884,248749,1335396,74042,8307,667150,0
7,-1,636084,217962,1209790,65420,7451,604458,0
7,2,709564,249844,1458370,74499,9327,728452,0
7,2,735980,253774,1466247,77341,9656,732672,0
7,2,729717,253139,1381273,77039,9601,690282,0
7,2,730871,253531,1583831,77169,10180,792261,0
7,2,713918,249597,1486726,74193,8774,743019,0
7,-1,637523,218926,1290820,65833,8051,644868,0
7,2,715389,249306,1402196,74211,9311,700577,0
7,2,708348,249505,1425792,74039,9547,712384,0
7,2,736039,255172,1352347,77713,10276,675680,0
7,-1,646257,220935,1270549,66762,7789,634371,0
7,2,715233,249268,1316710,74030,8943,657798,0
7,2,712122,248763,1404448,73968,9969,701610,0
7,2,711379,248436,1441979,73846,10081,720366,0
7,2,710200,248969,1487678,74046,9483,743025,0
7,2,709147,248839,1304207,73895,8625,651607,0
7,2,711717,248525,1223973,73919,8565,611440,0
7,-1,643309,218922,1283940,65734,8078,641446,0
7,2,710471,248571,1486839,73851,9749,742939,0
7,2,712995,248798,1479764,73688,10210,739425,0
7,2,713171,248612,1334376,73641,8511,666751,0
7,2,715208,251097,1312231,74800,9374,655265,0
7,2,710552,247803,1388199,73506,8972,693672,0
7,2,708386,247933,1351096,73496,8256,674938,0
7,-1,644251,219847,1154798,65981,8351,576906,0
7,2,708679,248517,1326082,73821,9221,662379,0
7,2,718246,250367,1390831,74544,9783,694641,0
7,2,730152,252578,1482661,76876,10750,740699,0
7,2,709687,249059,1394732,73896,8691,696880,0
7,-1,636836,218497,1210727,65623,7244,604827,0
7,2,710029,248423,1476264,73678,8841,737709,0
7,2,735328,252677,1450250,76873,9875,724619,0
7,2,712559,248185,1552397,73642,9076,775700,0
7,2,732708,252833,1418360,76909,8715,708643,0
7,2,704242,248672,1269823,73384,8153,634423,0
7,2,705976,249115,1299910,73498,9315,649474,0
7,-1,646891,220868,1337611,66692,7715,668056,0
7,2,702942,248142,1345572,73260,8282,672221,0
7,2,708676,248489,1298517,74301,9847,648597,0
7,2,716706,249785,1421755,74847,9784,710105,0
7,-1,640500,218621,1269825,65726,7277,634382,0
7,2,716316,250537,1265235,75112,8578,631703,0
7,2,707669,247772,1322219,74008,8820,660654,0
7,2,731677,253538,1532409,77706,10598,765574,0
7,2,714485,249944,1309743,74904,8662,654088,0
7,2,707889,249229,1306027,74651,9278,652361,0
7,-1,642496,219092,1196517,65944,7698,597761,0
7,2,709292,247725,1490325,73924,9163,744737,0
7,2,709166,248189,1293134,74139,8074,646190,0
7,2,709933,248485,1236859,74274,8587,617926,0
7,2,712292,248110,1528858,74132,9747,763915,0
7,2,710150,248190,1510372,74134,10065,754611,0
7,-1,640603,221411,1318857,67002,7722,658700,0
7,2,706684,247770,1330089,73951,8451,664641,0
7,2,709511,247647,1318448,73884,9059,658854,0
7,2,712256,248790,1422348,74378,9639,710161,0
7,-1,638191,219823,1282682,66454,7515,640665,0
7,2,713731,249246,1506137,74397,9529,752439,0
7,2,710291,248563,1494502,74277,10060,746357,0
7,2,716134,249209,1417572,74464,9856,708245,0
7,2,710749,248864,1380398,74555,9396,689266,0
7,2,709459,249167,1308857,74444,9974,653810,0
7,2,716728,250375,1353919,75197,9179,676287,0
7,-1,638269,219295,1184054,66087,7122,591566,0
7,2,734981,253996,1381760,77851,10199,690450,0
7,2,714843,249473,1338142,74539,9608,668572,0
7,-1,632388,218864,1214528,65877,8178,606726,0
7,2,716713,252052,1331766,75759,8957,665005,0
7,2,709555,249570,1316027,74534,8971,657505,0
7,2,714765,249625,1319852,74399,8969,659460,0
7,2,712075,249542,1397772,74438,8707,698393,0
7,2,714932,248929,1502397,74280,9259,750688,0
7,2,711956,248730,1369215,74213,8462,684168,0
7,-1,640542,220674,1272766,66651,8287,635796,0
7,2,714581,249723,1262245,74520,8976,630713,0
7,2,713634,249169,1409374,74341,8907,704182,0
7,2,713016,249636,1229986,74584,8014,614492,0
7,-1,659479,223651,1250901,69189,8851,624906,0
7,2,714838,248788,1387012,74316,8262,693085,0
7,2,738360,254215,1492894,77767,10253,745891,0
7,-1,642947,220157,1211283,66244,7337,605172,0
7,2,715205,249318,1324021,74450,8998,661568,0
7,2,713658,248680,1351149,74177,8922,675026,0
7,2,711095,248394,1284670,74038,7973,641947,0
7,-1,639448,219442,1318860,65898,7451,658701,0
7,2,735300,253471,1451371,77625,9668,725270,0
7,2,718676,249986,1512907,75063,10234,755225,0
7,2,705217,248081,1270246,74309,8884,634556,0
7,-1,659989,224057,1262730,69291,7624,630967,0
7,2,709049,247987,1278928,74255,8261,638942,0
7,2,705667,247931,1312319,74214,9202,655552,0
7,2,710790,248051,1452196,74101,8218,725777,0
8,2,764319,267165,1482722,78975,9659,740759,0
8,2,709629,248792,1414231,74197,9076,706556,0
8,-1,692640,237164,1314909,70710,8122,656953,0
8,2,708007,247960,1577428,73653,10015,788013,0
8,2,711396,248019,1565493,73627,10464,782376,0
8,2,705194,248170,1439906,73830,8580,719401,0
8,2,706573,247613,1405100,73573,9296,702116,0
8,2,708994,247968,1435038,73738,9950,716831,0
8,2,710199,249248,1452951,74318,10233,725752,0
8,2,728652,253070,1456324,77272,10438,727661,0
8,2,710437,248132,1326097,73665,9215,662387,0
8,2,713895,250124,1349103,74264,9210,673902,0
8,-1,688464,237192,1243312,70672,7613,621180,0
8,2,709612,248320,1457728,73743,10106,728653,0
8,2,714571,248190,1563938,73839,9716,781247,0
8,2,714665,250134,1426522,74824,9279,712791,0
8,2,732252,253693,1324253,77494,9718,661695,0
8,-1,638783,219193,1215013,65912,7291,606837,0
8,2,726620,253550,1340471,77426,9217,669799,0
8,2,707336,248622,1301468,74019,8684,650438,0
8,2,704094,248322,1413065,73926,8525,706103,0
8,2,705880,248424,1419850,73975,8908,709391,0
8,-1,658868,223343,1331354,68907,8656,665106,0
8,2,711510,250372,1432138,74806,10040,715124,0
8,2,706970,248656,1595868,73896,9727,797243,0
8,2,710363,248868,1516863,73947,9238,757901,0
8,-1,635345,218819,1207692,65727,7444,603279,0
8,2,709781,248755,1393635,73963,9471,696411,0
8,2,709694,248590,1326060,74000,8832,662455,0
8,2,712097,249652,1479516,74261,8572,738987,0
8,-1,657948,222974,1282592,68848,8524,640693,0
8,2,727197,253032,1342664,77134,9023,670841,0
8,2,711296,249022,1410190,74072,8472,704646,0
8,2,708096,248598,1389253,73968,8238,694074,0
8,2,710730,249649,1372257,74317,8787,685614,0
8,2,706258,248470,1301807,73954,7593,650398,0
8,-1,635831,218711,1253296,65745,7367,626063,2
8,-1,638292,218737,1176629,65793,7880,587728,0
8,2,708547,249074,1525784,74067,9644,762053,0
8,2,715469,249982,1586681,74295,10037,792737,0
8,2,710714,249122,1307925,73972,8850,653533,0
8,2,709115,248731,1626119,73897,9720,812628,0
8,2,714990,249601,1483436,74231,9540,741219,0
8,-1,635354,218587,1212203,65625,7402,605618,0
8,2,715009,249362,1489304,74166,9507,744133,0
8,2,710214,249728,1329488,74083,9217,664125,0
8,2,710994,249081,1309142,73992,9174,654041,0
8,-1,662592,224043,1250075,69273,8302,624508,0
8,2,716633,250808,1392801,74867,10209,695318,0
8,2,713457,249884,1523690,74284,10919,761336,0
8,2,732811,253762,1461080,77327,10796,729826,0
8,2,708713,248828,1434171,74032,9501,716481,0
8,2,707878,248478,1470380,73770,8999,734680,0
8,-1,642767,219023,1221029,65793,7748,609984,0
8,2,708910,247779,1309301,73568,9420,654184,0
8,2,711780,248499,1404888,73781,9370,701979,0
8,2,733229,253482,1462727,77045,10896,730736,0
8,2,715094,249182,1393381,73858,9484,696250,0
8,2,731415,253980,1366390,77259,9359,682717,0
8,2,711160,248694,1455990,73756,9530,727572,0
8,-1,641909,219290,1205460,65759,8097,602178,0
8,2,710163,248655,1447910,73828,9043,723472,0
8,2,708472,248083,1330363,73660,9608,664512,0
8,2,710220,248309,1428071,73653,8760,713540,0
8,2,710764,247970,1351682,73548,9795,675234,0
8,-1,638414,219034,1363498,65733,7577,681276,0
8,2,713323,249718,1393108,74438,9325,695731,0
8,2,712500,249398,1378208,74271,9020,688353,0
8,2,712893,248765,1427773,73885,9731,713263,0
8,2,713603,248493,1368910,73715,8639,683921,0
8,2,710024,247956,1377174,73581,8351,688171,0
8,2,703989,248654,1276009,73309,8236,637506,0
8,2,706747,249951,1242958,73969,9176,620554,0
8,-1,641448,218962,1220236,65909,7094,609355,0
8,2,712595,251572,1315627,74529,9195,656920,0
8,2,706863,248128,1285062,74155,9600,642013,0
8,2,710912,247802,1366938,73984,9846,682967,0
8,-1,641616,219606,1270413,66153,7258,634643,0
8,2,709598,248291,1393482,74211,9210,696192,0
8,2,709838,249305,1337205,74679,8131,667910,0
8,2,709829,248395,1398010,74199,9443,698525,0
8,2,713612,249958,1315759,74872,8959,657215,0
8,2,708998,248458,1283956,74299,8279,641528,0
8,-1,646065,220888,1296795,66840,8438,647608,0
8,2,731390,253039,1494864,77529,10307,747011,0
8,2,706743,247752,1334367,73987,8585,666737,0
8,2,727430,252369,1542609,77307,10086,770880,0
8,2,712128,248419,1382199,74197,9130,690619,0
8,-1,632820,219015,1265710,65900,7145,632486,0
8,2,708678,247953,1406371,74012,9039,702751,0
8,2,710411,248939,1332953,74439,8415,666049,0
8,2,716589,250485,1607019,75069,11000,802202,0
8,2,711068,248411,1297263,74198,9375,648208,0
8,-1,634484,218850,1178328,65907,7267,588759,0
8,2,711988,247988,1594837,74059,10432,796874,0
8,2,708883,248363,1464525,74144,10228,731760,0
8,2,716036,248579,1319929,74266,9359,659510,0
8,2,714773,250691,1334235,75123,9629,666140,0
8,2,715191,249855,1315177,74764,9909,657019,0
8,2,713448,249164,1370351,74634,8510,684578,0
8,-1,634378,218407,1166393,65725,6364,582658,0
8,2,717950,250311,1352753,74857,8970,675735,0
8,2,735389,253990,1598972,77865,10638,798930,0
8,-1,641973,219883,1347267,66285,8951,672823,0
8,2,734626,254544,1495373,78014,9900,747193,0
8,2,716351,249916,1412269,74670,9506,705620,0
8,2,715838,250635,1392306,74959,8978,695558,0
8,2,711403,249010,1296214,74199,8351,647741,0
8,2,713383,249248,1367335,74395,8878,683238,0
8,2,710197,248653,1367660,74254,8875,683291,0
8,-1,638423,219059,1326419,65886,7974,662867,0
8,2,708315,248435,1304492,74072,8564,651887,0
8,2,711547,249332,1374806,74493,8743,686966,0
8,2,711165,249294,1291415,74367,8307,645282,0
8,-1,639228,219697,1386174,66028,7939,692645,0
8,2,716159,249936,1346100,74672,8667,672640,0
8,2,716550,249262,1379776,74488,8588,689334,0
8,-1,639271,219249,1293216,65889,8078,645897,0
8,2,715889,249901,1346335,74824,9105,672691,0
8,2,711722,248312,1516812,74038,9289,757964,0
8,2,711033,248947,1448993,74315,8350,723965,0
8,-1,640139,219987,1283470,66169,7706,641268,0
8,2,710984,247920,1299462,74001,8531,649130,0
8,2,711466,248049,1462940,74266,10034,730902,0
8,2,702500,247530,1261374,74046,8496,630245,0
8,-1,639337,219817,1176647,66050,6679,587895,0
8,2,707164,248091,1327533,74224,8329,663268,0
8,2,705627,248445,1372857,74392,9265,685974,0
8,2,732074,253127,1472613,77580,9599,735817,0
9,2,760523,266874,1887099,78892,11841,942587,0
9,2,708048,248241,1322124,73817,8274,660503,0
9,-1,692984,237169,1252745,70657,8265,625937,0
9,2,730532,252827,1414914,77042,10089,707060,0
9,2,716571,250493,1505154,74721,10494,751769,0
9,2,703819,247644,1307224,73610,8298,653156,0
9,2,706256,247819,1327421,73716,8332,663088,0
9,2,706488,247467,1398480,73450,9726,698732,0
9,2,706730,248393,1410561,73804,9724,704556,0
9,2,706830,247787,1413130,73724,9724,706035,0
9,-1,695436,236897,1217807,70560,8326,608362,0
9,2,710702,248602,1371244,73889,10323,685142,0
9,2,711502,248622,1353538,73763,9060,676164,0
9,2,708815,248838,1431340,73910,9541,715183,0
9,2,714487,249059,1406123,74149,9233,702509,0
9,2,712233,248748,1466781,74123,8999,732986,0
9,2,713263,248357,1370409,73928,8540,684774,0
9,-1,637757,218963,1256297,65878,7327,627666,0
9,2,707843,249499,1445580,74522,9278,722127,0
9,2,711236,250743,1353835,75026,9975,676150,0
9,2,710263,248768,1314802,74126,9353,656831,0
9,2,705531,248687,1360935,74037,8663,680514,0
9,-1,640782,218450,1175828,65542,7883,587456,0
9,2,709341,248910,1617865,74039,9982,808370,0
9,2,709153,248921,1396020,74059,9544,697478,0
9,2,708949,248784,1321411,73961,8384,660356,0
9,-1,634844,219009,1305851,65826,7944,652485,0
9,2,709600,248991,1435240,74104,8986,717171,0
9,2,709318,248468,1401995,73975,8758,700488,0
9,2,710760,248931,1429553,74079,9161,714287,0
9,-1,635839,218184,1287347,65567,6902,642951,0
9,2,707193,249291,1364773,74169,8945,681796,0
9,2,709876,248577,1309101,73916,7979,654167,0
9,2,709998,249414,1346762,74179,8128,672916,0
9,2,707365,248561,1614005,73924,10337,806478,0
9,2,708336,248558,1514790,74002,10391,757371,0
9,-1,641118,220493,1313527,66451,7476,656008,0
9,2,711634,248301,1561131,73811,9617,779966,0
9,2,712035,248991,1362074,73988,8409,680567,0
9,2,707096,248058,1304857,73543,8487,652160,0
9,2,708430,248817,1384571,73913,9775,691834,0
9,-1,685984,232311,1350504,71716,8495,674820,0
9,2,714563,249495,1374364,74101,9488,686461,0
9,2,720277,251608,1573633,75242,10251,785868,0
9,2,711790,250477,1425994,74349,9699,712534,0
9,2,714170,250505,1270845,74410,9012,634887,0
9,-1,639157,218589,1425226,65582,7542,712068,0
9,-1,639692,219283,1282976,65895,6877,641038,2
9,2,714972,249679,1328469,74270,9767,663683,0
9,2,718136,251592,1536428,75108,10297,767985,0
9,2,714887,249162,1386111,74082,9605,692616,0
9,2,706888,248172,1488011,73702,9683,743589,0
9,2,731192,252913,1317872,77066,9370,658525,0
9,-1,645555,220312,1348422,66330,8689,673389,0
9,2,714226,249665,1333152,74576,9985,664896,0
9,2,712983,248834,1428741,74032,9879,713881,0
9,2,710105,249316,1349039,74017,10102,674002,0
9,2,716139,250032,1418180,74361,9375,708335,0
9,2,709224,248914,1383911,73812,8625,691517,0
9,2,708686,248519,1392178,73693,9332,695604,0
9,-1,645995,221491,1305148,66741,8485,651841,0
9,2,711146,248848,1349827,74121,8623,674249,0
9,2,711150,249258,1305243,74037,8393,652090,0
9,2,710681,249374,1340534,74058,8919,669576,0
9,2,710647,248272,1450453,73710,10798,724803,0
9,-1,663877,223873,1232874,69172,9186,615865,0
9,2,710189,248826,1577678,73802,9648,788312,0
9,2,708694,248416,1470244,73688,8504,734706,0
9,2,711500,248191,1501230,73655,9753,750091,0
9,2,713154,248686,1375700,73847,8319,687328,0
9,2,711693,248358,1372233,73624,8014,685721,0
9,2,724008,253284,1324665,76657,9427,661721,0
9,2,701362,248511,1293023,73318,9000,645914,0
9,-1,640463,218628,1308773,65580,7928,653666,0
9,2,703262,248357,1247367,73226,9300,623137,0
9,2,711531,249986,1248788,74966,10006,623440,0
9,2,711941,248553,1284165,74264,9578,641635,0
9,-1,645149,221327,1333447,67046,7666,665928,0
9,2,709637,248531,1340397,74284,9026,669694,0
9,2,709093,248369,1390118,74233,8966,694542,0
9,2,714271,250087,1564277,74981,10384,780600,0
9,2,708833,248418,1472275,74077,9114,735664,0
9,2,718515,250010,1310603,75038,8966,654501,0
9,-1,642199,219443,1307376,66104,8308,653075,0
9,2,709138,248335,1415387,74204,9014,707170,0
9,2,711583,250030,1248952,75091,8691,623763,0
9,2,709876,248491,1407583,74170,8802,703311,0
9,2,714068,248825,1311879,74420,9240,655279,0
9,-1,634311,219912,1130044,66228,6934,564576,0
9,2,718491,250642,1372952,75313,9680,685519,0
9,2,706134,247726,1391716,73915,8858,695473,0
9,2,710878,248488,1325431,74106,8706,662189,0
9,2,709235,248028,1475016,74038,9336,737034,0
9,-1,635143,219301,1337995,65990,7664,668569,0
9,2,715871,250194,1439183,75177,9910,718609,0
9,2,712806,247899,1505645,73910,9651,752454,0
9,2,716329,249189,1397785,74645,9374,697709,0
9,2,706007,248217,1332239,74037,9931,665523,0
9,2,713000,249586,1296384,74565,9586,647777,0
9,-1,640081,221013,1332360,66831,7429,665331,0
9,2,711238,248754,1510035,74471,9613,754392,0
9,2,712059,249284,1353600,74550,9123,676349,0
9,-1,643768,221207,1242395,66955,8029,620179,0
9,2,716652,250592,1402714,74974,9268,700802,0
9,2,712661,249553,1385813,74585,8324,692450,0
9,2,716143,250386,1394654,74841,9312,696774,0
9,2,715298,249648,1328490,74467,8814,663810,0
9,2,711182,249290,1373966,74335,8832,686517,0
9,2,712663,248896,1397950,74260,8614,698581,0
9,2,719576,249938,1295443,74846,9159,647119,0
9,-1,637752,218884,1370699,65831,7514,684937,0
9,2,708792,248631,1300761,74256,8946,649936,0
9,2,712404,248438,1342379,74130,8884,670746,0
9,2,715970,251284,1314101,75252,8815,656465,0
9,-1,638507,219818,1310442,66117,7374,654685,0
9,2,716345,249244,1403193,74458,8927,701226,0
9,2,719287,250726,1348309,75082,8553,673489,0
9,-1,642939,219926,1297997,66136,7203,648470,0
9,2,713120,248969,1368205,74291,8465,683664,0
9,2,712289,248503,1412790,74134,9160,705874,0
9,2,714596,250310,1388436,75060,9057,693511,0
9,-1,670754,231285,1364246,69951,8262,681172,0
9,2,716818,249493,1313189,74766,8872,655786,0
9,2,710507,247498,1341019,73980,9712,670121,0
9,2,711062,249079,1296673,74782,8613,647742,0
9,-1,636173,219143,1271574,65875,7054,635320,0
9,2,710283,249674,1451896,74966,8183,725295,0
9,2,712000,248230,1404673,74305,8405,701843,0
9,2,708879,247918,1364507,74087,8881,681727,0
10,2,768382,268427,1497503,79551,9791,747831,0
10,2,757001,262919,1451899,79604,10365,725574,0
10,-1,692039,237316,1392964,70659,8266,695857,0
10,2,707720,248225,1315152,73746,8832,656800,0
10,2,711354,248330,1514784,73765,9902,756453,0
10,2,706869,248019,1293361,73764,8532,646099,0
10,2,710907,250257,1556192,74730,9394,777265,0
10,2,716500,250726,1499113,74863,10366,748514,0
10,2,709568,248207,1502895,73746,9765,751120,0
10,2,709523,247334,1484094,73537,10294,741525,0
10,-1,699511,238981,1298391,71541,8946,648211,0
10,2,716625,251108,1385411,75089,9975,691746,0
10,2,710640,248930,1482112,73923,9643,740600,0
10,2,712011,249418,1365360,74165,8846,682231,0
10,2,712361,248541,1412432,73921,9282,705792,0
10,2,708210,248325,1334326,74025,8620,666664,0
10,-1,638718,218848,1209132,65778,7594,604058,0
10,2,710799,248100,1566889,73862,10106,782954,0
10,2,703385,248724,1324012,74010,8584,661596,0
10,2,723409,252481,1332274,77112,9482,665618,0
10,-1,645442,220662,1263232,66426,8607,630900,0
10,2,714489,249997,1377684,74704,9807,687975,0
10,2,705177,248467,1469335,73932,9697,733298,0
10,2,707447,248435,1297869,73940,8677,648349,0
10,2,707169,248292,1520995,73826,9334,759912,0
10,2,713566,251181,1443511,75089,9192,720785,0
10,-1,634311,218763,1238758,65744,7775,619097,0
10,2,727490,253082,1376799,77212,9497,687950,0
10,2,713250,251000,1505002,75022,9710,751716,0
10,2,713147,248840,1410090,74018,9187,704629,0
10,-1,637511,218705,1343891,65677,8249,671391,0
10,2,708384,248960,1256782,74072,9051,627911,0
10,2,713941,250715,1437685,74924,8723,718076,0
10,2,708612,249165,1296428,74129,8171,647755,0
10,2,714927,251695,1432473,75270,9407,715443,0
10,2,712325,250334,1309643,74800,8698,653946,0
10,-1,638650,218767,1214799,65746,7672,606895,0
10,2,714773,248958,1416072,74019,9681,707639,0
10,2,714239,250097,1397167,74540,8555,697891,0
10,2,711043,249722,1399397,74166,8971,699193,0
10,-1,636661,218788,1278854,65733,7640,639097,0
10,2,708426,248803,1442263,73798,9983,720675,0
10,2,717004,250831,1506757,74793,9810,752776,0
10,2,716110,250256,1671955,74494,11074,835292,0
10,2,713127,251999,1441863,75245,10652,720008,0
10,2,710020,249966,1348350,74230,8940,673634,0
10,-1,641018,219932,1268241,65995,7019,633648,0
10,2,712310,249517,1275527,74210,9154,637181,0
10,-1,639407,219509,1154426,66066,7876,576755,2
10,2,711635,249305,1676022,74132,11332,837220,0
10,2,716316,250282,1542110,74691,10083,770143,0
10,2,706599,248458,1411276,73915,9112,705013,0
10,-1,640584,218623,1345962,65595,7914,672039,0
10,2,712472,248600,1340944,73861,9027,669962,0
10,2,732052,253387,1348289,77272,10466,673656,0
10,2,710066,248344,1474074,73734,9733,736564,0
10,2,715018,248338,1512087,73663,9935,755601,0
10,2,713550,249544,1319535,73998,8943,659254,0
10,2,714127,250253,1463670,74156,9689,731133,0
10,2,712652,248695,1308010,73716,8483,653702,0
10,-1,661833,224420,1297549,69205,8752,648359,0
10,2,709103,248290,1270788,73733,8461,634874,0
10,2,706873,247990,1392349,73520,8937,695725,0
10,2,709913,248264,1449176,73624,8914,724113,0
10,2,711185,248534,1520128,73749,10137,758630,0
10,-1,641178,219091,1283015,65746,8388,640986,0
10,2,707080,247625,1383786,73457,8797,691405,0
10,2,712467,250276,1370452,74598,9144,684548,0
10,2,721368,251857,1329587,75186,9508,663816,0
10,2,716262,250020,1402024,74452,8620,700241,0
10,2,718442,250255,1304322,74630,8781,651336,0
10,2,703455,248390,1263527,73252,7662,631246,0
10,2,709231,248995,1231651,73451,8389,615281,0
10,-1,647688,221370,1373519,66765,8844,685869,0
10,2,702637,248426,1284606,73273,9280,641681,0
10,2,726123,252917,1348595,76618,9759,673773,0
10,2,732600,252896,1426503,77473,9975,712720,0
10,-1,659594,223648,1252498,69247,7407,625826,0
10,2,706301,247559,1496329,73930,9208,747713,0
10,2,711271,248466,1320002,74285,8988,659458,0
10,2,706754,247881,1550192,74042,9904,773455,0
10,2,711438,248431,1375040,74270,8562,687045,0
10,-1,639608,218786,1278119,65855,7725,638659,0
10,2,732388,252178,1418275,77222,9725,708693,0
10,2,710674,248528,1497855,74269,9132,748562,0
10,2,728928,252881,1336390,77492,10414,667661,0
10,2,711509,249259,1330647,74671,8313,664653,0
10,-1,664405,223567,1265805,69223,8258,632540,0
10,2,715225,250201,1335814,75094,9020,667225,0
10,2,711193,248124,1385086,74114,8618,692016,0
10,2,710544,248574,1316847,74317,9088,657902,0
10,2,707045,247395,1308501,73670,8445,653881,0
10,2,713582,248088,1342465,74045,8766,670779,0
10,-1,637254,219943,1322164,66249,8191,660561,0
10,2,729583,252304,1578974,77316,11096,788438,0
10,2,714298,248455,1453081,74117,9561,726262,0
10,2,712704,248594,1331291,74221,8882,665158,0
10,2,707345,249282,1243591,74629,8981,621048,0
10,2,732208,253828,1518789,77775,10323,758923,0
10,-1,655731,223477,1376438,69204,7774,687713,0
10,2,720123,251457,1332526,75498,9025,665278,0
10,2,713612,249792,1405126,74759,9961,702024,0
10,-1,636735,218656,1272356,65809,7653,635668,0
10,2,717191,250515,1437348,74922,8989,718050,0
10,2,711182,249338,1384369,74494,9041,691618,0
10,2,712816,249480,1295552,74514,8620,647278,0
10,2,714514,248970,1401652,74345,8727,700280,0
10,2,731883,253892,1508359,77650,9239,753730,0
10,2,718488,250988,1321953,75215,8487,660242,0
10,-1,642561,221362,1438552,66948,7694,718003,0
10,2,717614,249613,1373918,74557,8852,686479,0
10,2,711423,248862,1244886,74269,9516,622010,0
10,2,733716,254107,1416512,77784,9551,707798,0
10,2,718795,249234,1438413,74403,8741,718853,0
10,-1,641422,220980,1316052,66703,8064,657200,0
10,2,720428,251323,1433879,75455,8837,716166,0
10,2,714156,249280,1388520,74570,8377,693801,0
10,-1,643775,220922,1470491,66707,8302,734230,0
10,2,715907,250827,1366672,75187,8953,682644,0
10,2,712130,248691,1531751,74193,10020,765331,0
10,2,730436,253329,1495757,77438,9696,747327,0
10,-1,636299,218779,1279005,65742,7665,639138,0
10,2,714163,249039,1302780,74415,8720,650939,0
10,2,719229,250587,1612967,75344,10406,805373,0
10,2,706300,247359,1246250,73976,8786,622694,0
10,-1,636865,219861,1222890,66129,6839,610967,0
10,2,707488,247770,1308393,74153,8695,653783,0
10,2,730380,252318,1395234,77466,8943,697099,0
10,2,711070,248666,1352097,74327,8578,675618,0
11,2,761006,266378,1368014,78643,9106,683592,0
11,2,740074,260041,1390188,76710,9873,694563,0
11,-1,694723,239074,1273007,71534,7918,635810,0
11,2,712114,248645,1437986,73876,10155,718284,0
11,2,714514,249967,1549039,74458,10314,773819,0
11,2,705740,247784,1384043,73605,9403,691606,0
11,2,706812,247806,1407616,73639,9235,703399,0
11,2,708794,248314,1417794,73823,8896,708459,0
11,2,729394,252680,1484113,77025,10546,741478,0
11,2,711030,248384,1327163,73904,9774,663028,0
11,-1,716620,242235,1364825,74097,9386,682028,0
11,2,709657,248233,1290088,73842,9566,644406,0
11,2,710571,249463,1437841,74306,9563,717914,0
11,2,713606,250396,1437389,74642,9436,717756,0
11,2,710532,248418,1426070,73961,8910,712422,0
11,2,708571,248743,1447063,74103,8457,722816,0
11,-1,638195,219361,1192059,65902,7144,595547,0
11,2,731153,252857,1343401,77281,9915,671217,0
11,2,703368,248568,1476738,74053,8592,737878,0
11,2,703127,248280,1309407,73850,8213,654272,0
11,-1,641028,219389,1305921,65823,9573,652405,0
11,2,708633,248107,1299591,73865,8896,649249,0
11,2,708682,249371,1429800,74298,9734,714398,0
11,2,707044,248830,1287996,74048,9320,643364,0
11,2,728966,253628,1475965,77369,10523,737462,0
11,2,707173,248775,1393607,74018,8652,696198,0
11,-1,633634,218500,1223831,65494,7544,611302,0
11,2,708164,248121,1329705,73705,8413,664507,0
11,2,706346,247480,1385543,73603,8532,692385,0
11,2,712286,248761,1367839,73972,9441,683553,0
11,-1,636810,219221,1163447,65895,7070,581009,0
11,2,710542,249863,1336027,74564,9810,667270,0
11,2,711588,249559,1426267,74285,8875,712611,0
11,2,707974,248420,1405069,73861,8255,702139,0
11,2,711550,249992,1287560,74420,8895,643251,0
11,2,728629,253409,1306492,77319,8860,652797,0
11,-1,636103,218286,1169655,65541,6897,584255,0
11,2,713816,248958,1359545,74083,9199,679126,0
11,2,710613,248824,1292409,73907,8277,645725,0
11,2,711057,248735,1810167,73868,10950,903665,0
11,-1,634712,218575,1172627,65671,7530,585763,0
11,2,707571,248441,1419771,73738,9352,709058,0
11,2,714994,250267,1520399,74436,9639,759685,0
11,2,713249,249559,1495934,74306,9503,747404,0
11,2,707153,249371,1417881,73924,9593,708466,0
11,2,734433,254984,1394277,77637,9457,696593,0
11,-1,641139,220328,1321788,66409,8046,660087,0
11,2,712989,248966,1422062,74030,8890,710458,0
11,2,709478,248792,1405732,73958,9472,701711,0
11,2,708563,248100,1371600,73666,9628,685058,0
11,2,730280,253214,1480161,77238,10416,739519,0
11,-1,642455,219202,1210658,65766,7620,604827,0
11,2,709347,247730,1338248,73570,9399,668535,0
11,2,711626,248392,1371803,73827,10405,685012,0
11,2,711110,248786,1566014,73942,9657,782615,0
11,2,719059,250549,1477240,74767,10003,737719,0
11,2,713245,248181,1405833,73442,9382,702493,0
11,2,709369,248861,1408424,73694,9527,703787,0
11,2,712823,249334,1384155,73968,8918,691572,0
11,-1,640291,219287,1376863,65833,7958,687892,0
11,2,707822,248137,1392060,73621,9159,695536,0
11,2,729946,253708,1329431,77259,9434,664253,0
11,2,709355,248519,1416659,73771,9136,707774,0
11,2,712116,247891,1472929,73548,10326,735945,0
11,-1,642122,219828,1206111,66046,7760,602439,0
11,2,709709,249119,1415201,73949,9512,707167,0
11,-1,636243,218778,1166006,65696,7179,582422,2
11,2,715331,248864,1470534,73883,9349,734770,0
11,2,733774,253292,1444425,77125,10272,721652,0
11,2,713195,249112,1366183,73974,8002,682520,0
11,2,712099,248297,1313892,73731,8467,656482,0
11,2,701165,247894,1283342,73052,7836,641230,0
11,2,706235,248472,1404868,73292,8916,701819,0
11,-1,641148,219417,1314126,65940,8554,656340,0
11,2,713318,250663,1312149,74295,8471,655173,0
11,2,707364,248017,1283443,73217,8455,641187,0
11,2,711129,248029,1444228,74135,9722,721616,0
11,-1,645647,220514,1338332,66619,8387,668444,0
11,2,707843,248256,1382475,74242,8924,690714,0
11,2,729605,252544,1440851,77383,9800,719535,0
11,2,710225,248448,1475814,74202,10077,737366,0
11,2,714446,250033,1303917,74965,8251,651225,0
11,-1,640805,218637,1313192,65921,8297,655903,0
11,2,712620,248188,1334718,74126,9373,667023,0
11,2,711143,249068,1315903,74661,8713,657214,0
11,2,708602,247990,1299472,74117,9583,649271,0
11,2,708079,248151,1390854,74129,9146,694897,0
11,-1,641303,219101,1294085,65974,7650,646609,0
11,2,710787,248235,1384501,74193,8870,691789,0
11,2,711097,248418,1435683,74199,9194,717422,0
11,2,708841,248178,1321783,74191,9292,660431,0
11,2,711484,248404,1421123,74124,9094,710116,0
11,2,710505,247838,1484087,74022,9324,741502,0
11,-1,634205,219148,1287010,65891,7473,643050,0
11,2,710934,248463,1377356,74267,9261,688126,0
11,2,711785,248070,1547633,74020,10489,773206,0
11,2,714163,248468,1405383,74232,9996,702061,0
11,2,711179,249824,1305074,74559,9019,651932,0
11,-1,634285,218208,1168020,65734,6188,583632,0
11,2,709657,248831,1458407,74430,8982,728683,0
11,2,735053,253724,1473711,77791,10049,736404,0
11,2,715806,250140,1407599,74881,9193,703301,0
11,2,716660,250487,1332108,75074,9410,665355,0
11,-1,639047,219452,1176435,66062,6776,587592,0
11,2,713976,250575,1301897,75147,8244,650277,0
11,2,714259,250263,1257460,75027,9173,628165,0
11,2,718607,251036,1341297,75259,8791,669884,0
11,2,715828,248864,1393262,74096,9166,696181,0
11,2,713477,248766,1393635,74208,8493,696408,0
11,-1,655841,223202,1319538,69115,8591,659283,0
11,2,715108,249064,1271157,74318,8504,635166,0
11,2,710056,248991,1331831,74315,9087,665441,0
11,2,736070,257699,1358451,76829,8866,678865,0
11,-1,636953,219026,1272967,65812,6895,635975,0
11,2,718263,249826,1366631,74598,8812,682863,0
11,2,713113,248958,1394483,74392,8250,696775,0
11,-1,667514,225634,1319006,70303,8993,658927,0
11,2,715548,249078,1293781,74392,8615,646600,0
11,2,734445,254389,1445697,77849,10044,722349,0
11,2,714783,249912,1437355,74767,9535,718068,0
11,2,715915,248219,1503929,73985,9467,751556,0
11,-1,640068,220786,1452096,66621,8433,725070,0
11,2,734858,253470,1348546,77602,9913,673868,0
11,2,760616,261726,1623768,80260,11324,810923,0
11,2,706598,248031,1240510,74223,8383,619852,0
11,-1,641747,221153,1393867,66826,8220,696322,0
11,2,705000,247374,1362658,74001,8623,680888,0
11,2,709502,248152,1378901,74268,8761,689014,0
11,2,706385,247456,1333877,74001,8002,666567,0
12,2,766344,268650,1561433,79695,9946,780075,0
12,2,763580,268349,1545748,79442,9455,772148,0
12,-1,693160,236949,1195405,70605,7623,597248,0
12,2,709149,247643,1383800,73430,9660,691469,0
12,2,709766,247990,1478870,73669,10245,738993,0
12,2,708548,248811,1315315,73993,9339,656909,0
12,2,706751,248399,1358526,73932,8635,678684,0
12,2,711994,249751,1525837,74509,10792,761891,0
12,2,705866,247514,1476687,73475,10339,737897,0
12,-1,693201,236726,1254495,70493,8205,626786,0
12,2,714269,249853,1663266,74582,10877,830809,0
12,2,716439,249217,1267866,74204,8916,633517,0
12,2,706679,248196,1388808,73749,9330,693682,0
12,2,707575,248632,1495519,73897,9548,747069,0
12,2,710222,248295,1397598,73864,9429,697913,0
12,2,712613,249075,1440638,74168,9519,719827,0
12,-1,656656,223178,1295976,69007,7834,647544,0
12,2,716493,249603,1412049,74538,9875,705076,0
12,2,708450,248751,1238503,74083,8016,618662,0
12,2,711415,250170,1325490,74732,9523,662221,0
12,-1,639118,219079,1200602,65707,7551,599628,0
12,2,711941,249566,1266880,74354,8425,632945,0
12,2,714177,250890,1382166,75122,9146,689958,0
12,2,714183,250573,1496412,74937,9829,747134,0
12,2,708954,249285,1509208,74196,10532,753938,0
12,2,706384,248837,1425646,73993,9199,712455,0
12,-1,634323,219285,1185451,65802,7539,592096,0
12,2,732878,253182,1482101,77260,9756,740749,0
12,2,708615,248372,1348164,73918,8551,673543,0
12,2,711133,249432,1368677,74153,9900,683640,0
12,-1,635494,218736,1130963,65702,7556,564984,0
12,2,706446,248554,1343311,73860,9005,671228,0
12,2,706380,248519,1316020,73949,7578,657518,0
12,2,707778,248979,1344904,74101,8052,671944,0
12,2,708281,248923,1254154,73988,8442,626652,0
12,2,712093,248696,1282302,73968,9131,640844,0
12,-1,636542,218419,1289423,65597,7669,644175,0
12,2,712489,248717,1391710,73979,9389,695450,0
12,2,731708,253777,1286578,77306,9018,642923,0
12,2,706656,247091,1456172,73288,8892,727671,0
12,-1,636148,218826,1274481,65801,8181,636728,0
12,2,719788,250798,1486287,74819,10053,741966,0
12,2,714990,249685,1524234,74297,8912,760823,0
12,2,715678,250662,1471783,74860,9960,734908,0
12,2,712651,251649,1552081,74924,10273,775318,0
12,-1,637144,218666,1276356,65821,7101,637661,0
12,2,712588,249984,1420152,74238,9074,709489,0
12,2,710135,249093,1290906,74002,8428,644992,0
12,2,709706,249162,1627080,74004,10492,812824,0
12,2,710397,248643,1330063,73858,8552,664532,0
12,-1,640990,219239,1236845,65832,7554,617913,0
12,2,710908,249836,1489250,74370,9188,743723,0
12,2,715748,250347,1321128,74631,8730,659701,0
12,2,710963,248708,1428763,74091,9600,713740,0
12,2,712121,249282,1465082,74072,9969,732059,0
12,2,713470,248607,1487687,73780,10016,743369,0
12,2,736429,254706,1361219,77418,10105,680057,0
12,2,707458,248278,1419130,73497,9455,709163,0
12,2,714698,250615,1395932,74580,8564,697255,0
12,-1,639019,219272,1289637,65851,7472,644208,0
12,2,709582,248529,1267870,73786,8636,633469,0
12,2,707545,248394,1378015,73736,9119,688423,0
12,2,710612,248686,1499813,73824,9996,749297,0
12,2,718254,250613,1367457,74717,9614,682732,0
12,-1,642807,219891,1330336,65992,8289,664641,0
12,2,708081,248476,1405372,73746,9379,702144,0
12,2,711730,247867,1389540,73447,9371,694421,0
12,2,709689,247482,1416897,73452,9059,707874,0
12,2,710041,247900,1396161,73529,8436,697528,0
12,-1,643470,221004,1249775,66711,8490,623744,2
12,2,712382,248981,1287650,74085,8106,642973,0
12,2,700471,248157,1368782,73206,8269,683854,0
12,-1,643400,219989,1296486,66103,8330,647664,0
12,2,708932,249665,1311242,73849,8376,654763,0
12,2,708578,248460,1411245,73283,8629,705151,0
12,2,732162,256774,1371751,75779,8580,685272,0
12,2,710265,247749,1473970,73942,9030,736726,0
12,-1,641725,219270,1335632,66026,7497,667333,0
12,2,707171,248099,1320093,74091,8225,659553,0
12,2,710489,249196,1310295,74732,8045,654430,0
12,2,712277,249753,1379212,74956,9472,688695,0
12,2,713403,248810,1413150,74388,9039,705997,0
12,-1,661451,223478,1201518,69179,8802,600274,0
12,2,710783,247787,1303484,73979,9358,651277,0
12,2,714555,250237,1323929,75116,9249,661175,0
12,2,714182,249580,1243156,74771,8738,620834,0
12,2,706820,248317,1385733,74148,9111,692485,0
12,-1,643702,219268,1170442,65930,7258,584774,0
12,2,709562,247762,1313775,73982,8499,656436,0
12,2,712358,249100,1367874,74527,8765,683211,0
12,2,710101,249181,1427467,74678,10052,712878,0
12,2,709457,247748,1327539,73835,8730,663395,0
12,2,716187,250025,1340041,75052,8926,668963,0
12,-1,658191,223161,1242797,69118,8244,620975,0
12,2,711730,248306,1418501,74009,8390,708749,0
12,2,711667,248257,1500680,73975,9975,749832,0
12,2,716713,250196,1312596,74967,9373,655412,0
12,2,726690,252689,1440129,77339,10587,719468,0
12,-1,638885,220334,1273441,66564,7207,636182,0
12,2,711261,249677,1491520,74731,9354,745227,0
12,2,715405,249914,1289400,74729,8669,644193,0
12,2,716459,250645,1317429,75248,8692,657951,0
12,-1,641223,220751,1297523,66727,7811,647999,0
12,2,713174,249071,1448145,74410,9255,723554,0
12,2,711304,249706,1450052,74672,9328,724462,0
12,2,713924,250115,1327034,74748,8573,663163,0
12,2,735980,254213,1467609,77791,9598,733361,0
12,2,716666,249808,1364212,74497,9390,681621,0
12,2,716600,250093,1422666,74851,8035,710758,0
12,-1,638029,219932,1311750,66361,8026,655116,0
12,2,713347,248631,1343592,74185,9319,671416,0
12,2,707564,248915,1299664,74298,9047,649365,0
12,2,711163,248556,1285688,74221,8845,642357,0
12,-1,638871,220127,1268898,66216,6971,633926,0
12,2,723140,251710,1337553,75448,9341,667946,0
12,2,715966,249860,1419731,74725,8830,709444,0
12,-1,646867,221487,1302881,66842,8021,650565,0
12,2,711997,248715,1332451,74254,8339,665763,0
12,2,717899,251554,1316647,75452,9455,657591,0
12,2,716441,250736,1420217,75175,9409,709247,0
12,-1,637075,219489,1387624,66016,7956,693155,0
12,2,714416,248083,1381965,74012,9611,690612,0
12,2,713260,248928,1317750,74359,8405,658408,0
12,2,712223,247739,1444504,74104,9916,721688,0
12,2,728908,252920,1483213,77624,9222,741145,0
12,-1,640098,219310,1304651,65948,8644,651844,0
12,2,705272,247937,1283969,74258,8342,641503,0
12,2,710821,248118,1337081,74274,8052,668089,0
12,2,706592,248038,1410983,74260,8982,705043,0
13,2,785503,271971,1525138,82269,9896,762134,0
13,-1,691813,237223,1272251,70692,8662,635549,0
13,2,764027,267069,1545328,78807,9455,771988,0
13,2,715768,250518,1737131,74742,11992,867397,0
13,2,716159,250389,1516272,74689,10557,756841,0
13,2,709648,249628,1422948,74452,9591,710850,0
13,2,709334,248179,1362263,73825,8670,680665,0
13,2,707434,247919,1477899,73686,10071,738408,0
13,2,708875,248791,1398626,73977,9951,698750,0
13,-1,693285,237077,1346460,70617,8034,672717,0
13,2,707594,248099,1467599,73860,10352,733211,0
13,2,713780,249209,1362817,74146,8863,680939,0
13,2,734086,257731,1447050,76531,9600,723081,0
13,2,710059,249733,1357160,74243,9402,678038,0
13,2,731684,253293,1694499,77284,10886,846768,0
13,2,710398,247925,1442911,73793,8424,721168,0
13,-1,639261,218217,1373028,65563,7749,686183,0
13,2,710624,248178,1441550,73894,9560,720239,0
13,2,716810,248803,1303281,74058,8808,651163,0
13,2,710696,249504,1305230,74336,9452,652140,0
13,-1,639558,219400,1202844,65830,7636,600980,0
13,2,731144,253401,1377130,77404,9385,687991,0
13,2,726522,252387,1323966,77038,9259,661512,0
13,2,711108,249803,1509490,74264,9866,754090,0
13,2,706499,248619,1454041,73907,10133,726341,0
13,2,706900,248887,1279022,74054,8183,638627,0
13,-1,637149,220916,1288271,66540,8012,643538,0
13,2,710080,248751,1344155,73999,8161,671589,0
13,2,713205,250394,1550025,74732,9814,774148,0
13,2,714385,250374,1395603,74752,9774,696734,0
13,-1,638898,219227,1310626,65831,7657,654897,0
13,2,703594,248264,1403336,73806,8295,701183,0
13,2,713891,250860,1418271,74968,8962,708399,0
13,2,704933,248280,1322119,73829,7729,660578,0
13,2,710250,250240,1317416,74668,8995,657884,0
13,2,715814,250491,1558230,74752,10730,777916,0
13,-1,637363,218566,1219924,65647,7751,609361,0
13,2,713260,249273,1263564,74126,8481,631239,0
13,2,711324,249669,1242705,74173,7676,620881,0
13,2,731938,253801,1463165,77270,10160,730705,0
13,-1,634022,218666,1168108,65713,7870,583561,0
13,2,714619,249557,1559906,74313,10152,779431,0
13,2,742709,260552,1513919,77772,9552,756232,0
13,2,713852,249591,1343885,74272,9542,671282,0
13,2,708258,250384,1547274,74343,11246,773036,0
13,-1,638700,218257,1334616,65652,7539,666690,0
13,2,709717,249187,1330649,73889,8598,664874,0
13,2,713526,249356,1536243,74112,9571,767582,0
13,2,710331,248605,1609543,73781,11249,804441,0
13,2,707328,247870,1375118,73563,8641,687097,0
13,-1,642410,219110,1188914,65785,7401,593935,0
13,2,708377,249408,1337967,74404,9596,668222,0
13,2,730593,252816,1338397,76957,9246,668700,0
13,2,731622,253347,1406879,77234,10102,703155,0
13,2,714702,250594,1449822,74700,9372,724221,0
13,2,712420,248403,1396866,73676,9616,698031,0
13,2,711654,248990,1367293,73812,9889,683125,0
13,2,729673,253390,1354997,76932,10031,676981,0
13,-1,639796,219649,1308352,65970,8738,653589,0
13,2,709499,248586,1420741,73675,8875,709920,0
13,2,707280,248049,1389433,73534,9034,694182,0
13,2,705454,247823,1298828,73462,8659,648895,0
13,2,712790,249626,1437139,74320,9258,717735,0
13,2,711345,248344,1350330,73749,9444,674628,0
13,-1,640556,219503,1304230,65765,7595,651697,0
13,2,706750,248122,1533535,73516,10170,766428,0
13,2,715626,249389,1473796,74236,9672,736254,0
13,2,711453,248582,1333791,73799,8602,666375,0
13,2,716732,249302,1294184,74234,8768,646347,0
13,2,714832,249051,1260727,74003,8100,629808,0
13,2,714211,248527,1335266,73667,7248,667070,0
13,-1,662544,224378,1330869,69292,9269,665017,0
13,2,704046,248283,1448600,73165,9045,723749,0
13,-1,643448,220343,1257259,66243,7653,627967,2
13,2,705059,247994,1353977,73184,8208,676413,0
13,2,707420,248253,1330225,73324,8884,664507,0
13,2,730460,252799,1434690,77469,10476,716619,0
13,-1,639866,219019,1203460,65917,7305,601365,0
13,2,711627,250113,1298446,74956,9390,648546,0
13,2,708413,248223,1374506,74205,8513,686817,0
13,2,708078,248391,1392839,74238,9646,696138,0
13,2,715020,250516,1330082,75156,9207,664246,0
13,-1,639400,218678,1207207,65864,8488,603010,0
13,2,712744,248670,1314713,74259,8953,656885,0
13,2,707445,247855,1288837,74038,8373,643920,0
13,2,709472,248267,1317918,74159,9377,658423,0
13,2,706337,247611,1414448,73963,9609,706771,0
13,-1,648413,220991,1305308,66891,8153,651886,0
13,2,713044,249816,1319811,74946,9000,659070,0
13,2,710404,247986,1351487,74030,8563,675236,0
13,2,706154,247938,1471894,74006,11036,735292,0
13,2,709605,248199,1331844,74025,8754,665444,0
13,2,712174,248787,1384390,74602,8257,691502,0
13,-1,637083,218957,1301425,65937,7503,650176,0
13,2,710904,248579,1300281,74170,8261,649594,0
13,2,732404,253034,1544737,77404,10908,771877,0
13,2,733611,253091,1497590,77400,10569,748282,0
13,2,705815,248285,1482204,74115,9239,740535,0
13,-1,634981,219189,1213190,66008,7094,606100,0
13,2,712401,250159,1338332,75118,9057,668344,0
13,2,712445,248839,1388339,74355,8711,693815,0
13,2,711034,248831,1411411,74400,8988,705197,0
13,-1,639050,218655,1364907,65815,7313,681998,0
13,2,718592,251751,1323080,75588,8806,660476,0
13,2,707742,249269,1384543,74476,8820,691784,0
13,2,732354,254104,1419414,77915,10300,709170,0
13,2,714636,249864,1306099,74574,8307,652613,0
13,2,720584,250743,1332681,75003,9140,665684,0
13,2,712319,249049,1416119,74332,9098,707352,0
13,-1,638100,218636,1318937,65782,7275,658968,0
13,2,713804,248862,1240563,74306,8710,619839,0
13,2,706240,248725,1397417,74214,8545,698211,0
13,2,729499,252967,1436344,77452,9653,717805,0
13,-1,655810,223585,1218720,69140,8449,608921,0
13,2,715592,249570,1299500,74484,8235,649341,0
13,2,715053,249071,1430996,74295,8877,715140,0
13,-1,639158,218896,1180498,65785,7652,589941,0
13,2,739641,254235,1442521,77915,9537,720803,0
13,2,708904,248548,1284517,74144,9192,641819,0
13,2,712926,248424,1358202,74082,9563,678817,0
13,-1,639068,219470,1205957,65987,7881,602599,0
13,2,714050,248202,1314478,74006,8789,656922,0
13,2,713199,248155,1384737,74083,8527,691900,0
13,2,711678,248490,1318855,74342,8999,659044,0
13,2,705364,247658,1371921,74140,8944,685486,0
13,-1,643227,221057,1235092,66687,8286,616844,0
13,2,707033,248690,1392398,74615,8197,695544,0
13,2,708630,248316,1389555,74370,7530,694245,0
13,2,709904,248689,1396327,74430,8671,697670,0
14,2,759626,266333,1555541,78602,9310,777449,0
14,-1,695947,239180,1274248,71599,8475,636377,0
14,2,760106,266023,1391247,78536,9533,695087,0
14,2,731173,252934,1431272,77044,10244,715160,0
14,2,708287,247761,1546790,73558,9896,772807,0
14,2,704523,248283,1389282,73860,8819,694083,0
14,2,707582,247881,1290798,73676,8334,644997,0
14,2,707920,247466,1370552,73554,9669,684826,0
14,-1,696050,238151,1356368,71007,8544,677683,0
14,2,710874,249175,1553029,74300,10330,775645,0
14,2,712762,249612,1444237,74608,9743,721333,0
14,2,716544,250233,1461300,74792,8542,729763,0
14,2,709007,248241,1334544,73729,8761,666744,0
14,2,717645,250818,1443331,74885,10231,720978,0
14,2,716284,249831,1592147,74307,9605,794676,0
14,2,709057,247716,1419650,73743,9189,709416,0
14,-1,640550,219289,1661583,65975,10367,830123,0
14,2,710182,248253,1289574,73911,9220,644219,0
14,2,714013,248127,1364627,73930,9077,681829,0
14,2,710120,249835,1300000,74658,9532,649068,0
14,-1,645367,220879,1292500,66526,7778,645593,0
14,2,708210,248437,1632504,74022,10850,815711,0
14,2,708645,248738,1601596,74100,9871,800161,0
14,2,710744,249070,1576827,74116,9368,787909,0
14,2,710994,250242,1485671,74687,10874,741992,0
14,2,703747,248111,1273975,73744,8300,636572,0
14,-1,641613,218681,1317628,65637,8576,658357,0
14,2,713828,250280,1407555,74634,8979,703020,0
14,2,707490,248514,1564362,73912,10681,781480,0
14,2,710538,248752,1368106,74031,8641,683268,0
14,-1,658491,223379,1267359,69100,8251,633177,0
14,2,703028,248895,1282431,74090,7552,640699,0
14,2,726361,252523,1379553,76991,8656,689291,0
14,2,711370,249358,1482163,74123,8431,740669,0
14,2,707701,248677,1256538,73961,8349,627797,0
14,2,732928,253837,1388580,77401,9598,693841,0
14,-1,640713,220235,1333580,66430,8456,665873,0
14,2,712178,248448,1269947,73896,8806,634524,0
14,2,710823,249451,1236605,74107,7836,617822,0
14,2,712512,249207,1422325,73987,10160,711055,0
14,-1,642867,219077,1314819,65853,7805,656966,0
14,2,713079,248516,1577441,73885,9270,787738,0
14,2,732024,253452,1385482,77119,9543,692067,0
14,2,716027,250084,1673235,74460,10346,835884,0
14,2,717933,249459,1414873,73961,10063,707007,0
14,-1,638295,218340,1188755,65589,7908,594174,0
14,2,715994,251489,1429273,74912,9016,713885,0
14,2,713384,249495,1617501,74161,10654,808197,0
14,2,734830,254078,1586541,77450,12355,792654,0
14,2,735489,253972,1374591,77380,9855,686809,0
14,-1,647156,220978,1291083,66564,7915,644451,0
14,2,708973,248809,1294663,74024,9707,646528,0
14,2,711189,249350,1399390,74106,8791,699143,0
14,2,710011,248229,1368231,73804,9936,683173,0
14,2,710726,249509,1293910,74162,8308,646478,0
14,2,712533,248903,1503447,73886,9471,751185,0
14,2,712889,248417,1246728,73599,9355,622897,0
14,2,710270,250019,1408152,74278,9321,703375,0
14,-1,644508,221353,1315533,66788,8438,656875,0
14,2,716989,250971,1466917,74768,9259,732739,0
14,2,713410,250980,1368520,74882,9314,683434,0
14,2,707929,249147,1402639,73944,8859,700694,0
14,2,706787,247698,1446995,73398,9868,723024,0
14,2,712386,248663,1388868,73818,9853,693998,0
14,-1,646600,221434,1406711,66756,8210,702602,0
14,2,714515,251161,1290187,74863,9001,644447,0
14,2,708997,247862,1453957,73499,9258,726556,0
14,2,710261,248293,1446222,73653,9444,722670,0
14,2,715725,249384,1352200,74058,8847,675605,0
14,2,712080,248688,1373704,73842,8153,686312,0
14,2,715832,248869,1372614,73836,8303,685745,0
14,-1,641103,219663,1377958,66013,8394,687866,0
14,2,708484,250445,1312486,74100,8772,655436,0
14,2,703203,247145,1294985,72945,8488,646998,0
14,-1,638804,220106,1406724,66274,8342,702734,2
14,2,711584,250425,1414809,74223,8841,706363,0
14,-1,667668,228485,1327192,68715,8301,663142,0
14,2,708123,247937,1373151,74141,9264,686080,0
14,2,714266,250757,1321997,75249,9577,660148,0
14,2,708391,248338,1442156,74162,9342,720604,0
14,2,707112,248062,1395190,74045,9522,697179,0
14,2,710150,248312,1367183,74239,9310,683062,0
14,-1,643008,220491,1323011,66633,7861,660804,0
14,2,712558,248902,1287853,74402,8782,643516,0
14,2,710188,248966,1300765,74341,8523,649860,0
14,2,708220,248206,1364102,74090,8697,681589,0
14,2,712941,248523,1431375,74269,8747,715220,0
14,-1,643977,219975,1288275,66258,7489,643321,0
14,2,709709,248487,1366732,74255,8606,682969,0
14,2,711833,249141,1359750,74464,9520,679380,0
14,2,717970,249645,1319132,74794,9068,658775,0
14,2,711005,248670,1374841,74117,9276,686924,0
14,2,708296,247917,1392846,74073,9715,695837,0
14,-1,637112,219385,1278772,66019,7658,638917,0
14,2,708914,248777,1392479,74267,9088,695789,0
14,2,715451,248660,1555158,74148,10028,776903,0
14,2,712361,248943,1298990,74255,8694,648856,0
14,2,706448,248155,1400365,74060,8385,699737,0
14,-1,639275,219133,1124834,66007,7734,561952,0
14,2,711078,249847,1417699,74790,9629,708346,0
14,2,712522,249668,1343600,74807,8569,671063,0
14,2,732439,253762,1459270,77870,9357,729162,0
14,-1,638967,219231,1434137,66044,8037,716611,0
14,2,714864,250078,1336268,74772,9390,667597,0
14,2,715880,249187,1408120,74397,9613,703584,0
14,2,712435,249256,1383324,74515,9431,691062,0
14,2,714919,249504,1368848,74473,8334,683997,0
14,2,716134,249576,1399034,74421,9258,699062,0
14,-1,637283,219277,1254753,65987,7119,626953,0
14,2,712207,249612,1298223,74515,8105,648589,0
14,2,715480,249464,1310340,74433,9240,654759,0
14,2,717469,249284,1483419,74444,9467,741211,0
14,2,708833,248889,1363293,74338,8679,681157,0
14,-1,639303,218896,1202942,65827,7114,600917,0
14,2,716564,249501,1402994,74409,9092,701078,0
14,2,718057,250787,1351457,75048,8139,675034,0
14,-1,639279,219153,1345669,65888,8524,672437,0
14,2,715717,248902,1414797,74298,8371,706970,0
14,2,715315,249886,1257242,74568,8370,628107,0
14,2,713600,248229,1314864,74004,9213,656970,0
14,-1,635948,219321,1298328,65918,7920,648739,0
14,2,714439,248439,1395012,74063,9131,697147,0
14,2,710952,247792,1368481,73916,8244,683848,0
14,2,716786,249856,1422129,75088,8980,710369,0
14,-1,638362,219345,1191773,65962,7487,595330,0
14,2,708857,249566,1409512,74928,9047,704111,0
14,2,709459,248151,1289676,74295,8287,644381,0
14,2,710283,248573,1383736,74424,8979,691421,0
14,2,704818,247313,1305438,73968,7572,652298,0
14,2,709394,248050,1294691,74041,8778,646925,0
15,2,760726,266526,1551067,78715,11194,774687,0
15,-1,709965,241356,1275415,73804,8791,637125,0
15,2,790559,276434,1432913,81644,9214,715986,0
15,2,708262,248015,1383423,73599,9916,691194,0
15,2,711121,248802,1457694,73928,9944,728419,0
15,2,708893,249751,1402130,74578,8968,700371,0
15,2,709164,248675,1362630,73920,9404,681129,0
15,2,708275,247922,1472745,73769,10169,735797,0
15,-1,693404,237273,1341229,70657,8709,670105,0
15,2,706373,248086,1452086,73716,9428,725557,0
15,2,708429,248052,1375792,73854,9646,687235,0
15,2,716180,250473,1424823,74802,9903,711615,0
15,2,706268,247674,1369152,73508,9178,684084,0
15,2,712555,248882,1425405,73917,9581,712234,0
15,2,709539,248641,1455868,73872,9515,727559,0
15,2,711466,248992,1399201,74190,9021,699140,0
15,-1,638103,218548,1250747,65790,7726,624881,0
15,2,714112,250147,1409786,74873,10818,703987,0
15,2,719179,250359,1445105,74903,9489,721683,0
15,2,728051,253345,1295157,77382,9838,647108,0
15,-1,637808,218296,1275949,65470,7769,637478,0
15,2,727172,252778,1362327,77164,8872,680639,0
15,2,706309,248853,1294313,74173,8415,646572,0
15,2,711995,249978,1519221,74595,10012,758886,0
15,2,727994,253598,1468228,77363,10448,733644,0
15,-1,640891,218598,1323142,65561,8746,661119,0
15,2,731114,252945,1388999,77123,10060,693313,0
15,2,712173,249223,1362563,74097,9401,680824,0
15,2,707264,248252,1319795,73832,8599,659413,0
15,2,712346,249789,1408330,74363,9421,703635,0
15,-1,634150,218841,1309492,65808,7197,654115,0
15,2,717292,250037,1397160,74411,9207,698105,0
15,2,710340,249576,1384300,74281,9014,691755,0
15,2,707451,248370,1327351,73921,8047,663129,0
15,2,718446,250871,1352709,74854,9341,675680,0
15,2,711479,249143,1333624,74101,8542,666097,0
15,-1,634333,218286,1177110,65579,6389,588131,0
15,2,715788,249560,1392211,74404,9100,695447,0
15,2,707177,248404,1268686,73685,7438,633884,0
15,2,709772,249029,1501951,73944,9359,749998,0
15,-1,639806,218409,1210901,65580,7596,605018,0
15,2,712182,248669,1669145,73868,10920,834094,0
15,2,710749,249651,1424799,74087,9207,711940,0
15,2,714387,249673,1610235,74274,9606,804773,0
15,-1,640226,218683,1210272,65751,7420,604654,0
15,2,738960,254505,1393694,77469,10294,696217,0
15,2,712643,250427,1357556,74423,9346,678199,0
15,2,713605,249420,1416590,74044,9491,707585,0
15,2,713418,250216,1592055,74469,11027,795389,0
15,2,711035,248838,1388378,73953,8837,693817,0
15,-1,641196,219068,1148535,65779,6961,573719,0
15,2,710110,249317,1400406,74169,9820,699629,0
15,2,708695,248482,1305401,73761,8748,652092,0
15,2,710460,248089,1541358,73701,10425,770319,0
15,2,709873,248243,1425337,73636,9285,712179,0
15,2,717588,251273,1481163,74890,9569,739780,0
15,2,715459,249025,1314596,73775,9834,656888,0
15,-1,659785,223855,1255848,69115,8595,627383,0
15,2,709880,249398,1515922,73836,9043,757476,0
15,2,712076,249513,1535923,74021,9299,767449,0
15,2,734222,253077,1340675,77051,9516,669870,0
15,2,711579,248155,1479285,73624,9881,739184,0
15,2,707021,248180,1352895,73689,9181,675910,0
15,2,713211,248964,1311078,73878,10195,655031,0
15,-1,642959,219206,1315294,65719,8041,657294,0
15,2,705632,248551,1410994,73797,9119,704984,0
15,2,709960,248520,1418650,73781,8713,708833,0
15,2,710381,248677,1367922,73845,8475,683566,0
15,2,714797,250183,1264558,74527,8693,631537,0
15,2,712478,249304,1308022,74228,8004,653308,0
15,2,720189,250323,1335898,74497,8439,667219,0
15,-1,646892,220805,1332204,66568,8897,665280,0
15,2,704121,248064,1376128,73158,8389,687537,0
15,2,731311,253761,1445238,77290,9823,721917,0
15,2,705085,247569,1407773,73090,8846,703431,0
15,-1,638856,219148,1145143,65995,7003,571942,0
15,2,712861,248355,1475329,74183,9494,737136,0
15,-1,639649,219389,1264346,66087,7093,631689,2
15,2,705682,247707,1354223,73956,8997,676607,0
15,2,713956,250091,1310887,75040,8376,654486,0
15,2,711806,249668,1359699,74828,8948,678649,0
15,2,714902,250178,1440909,75027,9551,719815,0
15,-1,639550,219326,1205193,66076,7843,601954,0
15,2,715070,250501,1257808,75264,8853,628108,0
15,-1,639972,219576,1197288,66166,7292,598118,2
15,2,706432,248197,1342892,74033,8739,671033,0
15,2,711521,248966,1422007,74367,9162,710518,0
15,-1,642563,219703,1283032,66193,7780,640983,2
15,-1,645506,220692,1418324,66624,8444,708548,0
15,2,711212,247945,1400700,74048,8996,699868,0
15,2,705989,247442,1283144,73859,8574,641139,0
15,2,727982,252342,1376818,77262,10070,687947,0
15,2,713712,248643,1397703,74289,9393,698363,0
15,-1,635270,219604,1198960,66165,7292,598885,2
15,2,711523,248661,1541077,74206,10349,769882,0
15,-1,637229,219395,1187216,66083,6938,593121,0
15,2,731465,252642,1460535,77415,9979,729693,0
15,2,707219,247858,1312198,74017,9069,655620,0
15,2,713519,249101,1424679,74519,9627,711240,0
15,2,719038,249876,1333783,74756,8809,666131,0
15,2,707406,248747,1409764,74364,9549,704342,0
15,-1,638714,219064,1194442,65943,7410,596789,0
15,-1,636161,220016,1263104,66295,7561,631053,2
15,2,713011,248661,1397633,74388,9174,698396,0
15,2,713142,249364,1365720,74527,8494,682329,0
15,2,710661,249228,1444702,74563,9103,721963,0
15,-1,637347,219061,1277867,65919,7533,638433,0
15,-1,636601,219532,1179200,66144,6647,589010,2
15,2,716962,250432,1402112,74883,9104,700534,0
15,2,717854,250144,1390569,74816,9931,694646,0
15,2,711329,249648,1405067,74648,9641,701972,0
15,-1,638664,221054,1295066,66904,7885,646680,2
15,2,716415,250493,1305143,74921,7859,651948,0
15,2,716373,250062,1316613,74535,8470,657886,0
15,-1,639061,220835,1308697,66822,7803,653548,0
15,2,712815,250224,1236719,74900,8114,617728,0
15,2,716333,250291,1272516,74945,8580,635586,0
15,-1,638190,219636,1286310,66087,8174,642595,2
15,2,714944,249263,1366617,74450,9217,682819,0
15,-1,642242,220059,1170838,66214,7020,584887,0
15,2,711824,249604,1389270,74726,8694,694048,0
15,-1,635818,219842,1278785,66166,7647,638817,2
15,2,713807,249446,1402366,74442,8829,700702,0
15,2,714337,249637,1356337,74473,8368,677686,0
15,-1,637222,219323,1220393,65928,7421,609485,2
15,-1,638160,219071,1248344,65797,7782,623669,0
15,2,714492,248926,1298651,74366,7916,648853,0
15,2,715772,248542,1253143,74106,8454,626180,0
15,-1,643032,220238,1225163,66277,8208,612028,2
15,2,713146,248724,1279943,74209,7877,639527,0
15,-1,637065,220166,1178155,66220,7462,588556,0
15,-1,635860,219984,1203941,66190,7731,601381,2
15,2,720698,250878,1382028,75180,9489,690262,0
15,2,733448,253180,1432167,77486,8924,715559,0
15,2,733951,252850,1494741,77559,10121,747019,0
15,-1,638909,219373,1289507,65938,8011,644334,0
15,2,703110,247961,1378551,74289,8516,688818,0
15,-1,637028,219240,1206699,65967,8186,602800,2
15,2,708784,248712,1278004,74480,9033,638381,0
15,2,705698,247393,1350993,74020,8711,675046,0
15,2,710675,249860,1400344,75089,8665,699213,0
15,2,710995,248428,1253720,74155,8928,626410,0
