0,0,50,651543.960000,223143.660000,1309605.340000,67195.060000,7919.860000,654772.520000,21347.874564,7100.395219,85228.640644,2161.755096,625.432171,42564.200601
0,1,453,714353.602649,249821.792494,1449663.988962,74597.810155,9600.688742,724772.556291,9322.026232,2640.170835,92698.896650,1161.273444,736.277087,46302.283872
1,0,49,651844.142857,223221.428571,1298913.081633,67288.571429,7916.020408,649458.857143,20716.589418,7055.595759,61970.322539,2199.406905,531.347324,30965.466351
1,1,452,714033.435841,249817.975664,1445215.741150,74541.745575,9577.172566,722558.825221,9293.599859,2764.729698,92757.126006,1112.895277,735.862020,46346.851324
2,0,49,649284.244898,222391.571429,1294096.775510,66909.979592,7836.081633,647023.591837,20526.635804,6804.514024,68904.898143,2152.710266,656.356232,34469.579756
2,1,453,714324.459161,249872.668874,1445552.315673,74624.525386,9597.426049,722700.920530,9186.672034,2609.931905,93105.238536,1179.960851,693.042123,46467.048355
3,0,61,648418.573770,222139.508197,1302083.786885,66896.475410,7864.262295,650996.311475,19094.436759,6217.237607,72761.522987,1950.731394,582.520017,36320.365651
3,1,453,714606.708609,249875.752759,1448425.136865,74633.030905,9611.503311,724161.966887,9515.770702,2746.634563,88154.898394,1208.938620,713.289499,44020.449386
