-1,0,0.0666667
-1,1,0.0619048
-1,2,0.0619048
-1,3,0.0619048
-1,4,0.0619048
-1,5,0.0619048
-1,6,0.0619048
-1,7,0.0619048
-1,8,0.0619048
-1,9,0.0619048
-1,10,0.0666667
-1,11,0.0619048
-1,12,0.0619048
-1,13,0.0619048
-1,14,0.0619048
-1,15,0.0619048
1,0,0.0593173
1,1,0.0587577
1,2,0.0587577
1,3,0.0587577
1,4,0.0587577
1,5,0.0587577
1,6,0.0593173
1,7,0.0593173
1,8,0.0593173
1,9,0.0593173
1,10,0.0593173
1,11,0.0593173
1,12,0.0593173
1,13,0.0593173
1,14,0.0593173
1,15,0.113039
