0,1,760983,265491,1335531,78342,8387,667798,0
0,1,757304,266096,1401067,78577,8145,700567,1
0,1,760460,265546,1432939,78320,10584,716507,0
0,1,725162,254158,1455148,75081,9792,727901,0
0,1,713074,249306,1431483,74181,8957,715528,0
0,1,715460,249901,1454806,74534,9014,727454,0
0,1,703210,247239,1319236,73415,8233,659528,0
0,1,722675,251365,1453368,76640,9199,726529,0
0,1,726527,251834,1404766,76711,9908,702070,0
0,1,707237,247976,1335237,73667,9462,667574,0
0,1,706659,247809,1283828,73700,8657,641869,0
0,1,708520,247596,1441162,73520,9683,720260,0
0,1,706469,247923,1307887,73559,8888,653804,0
0,1,712277,248979,1240760,73880,8982,620046,0
0,1,712528,249645,1434121,74423,9636,717067,0
0,1,706639,247670,1309558,73649,9149,654782,0
0,1,708301,247578,1378197,73647,8809,689083,0
0,1,710678,247889,1272451,73771,8670,636210,0
0,1,707032,249032,1403539,74317,8908,701809,0
0,1,702574,247552,1391526,73641,9276,695786,0
0,1,727675,252180,1359309,76983,9060,679641,0
0,1,699978,247204,1369710,73534,9362,684861,0
0,1,711297,250051,1459236,74689,8799,729661,0
0,1,705802,247477,1431788,73493,8909,715668,0
0,1,707159,247662,1375353,73568,8547,687723,0
0,1,705258,247850,1428360,73621,8750,714221,0
0,1,706104,247909,1256536,73703,8061,628284,0
0,1,710199,248220,1364977,73754,8308,682534,0
0,1,712151,249268,1361159,74309,8779,680660,0
0,1,708635,247857,1312803,73540,7956,656435,0
0,1,713495,249732,1501175,74602,9575,750608,0
0,1,705752,249252,1401208,74264,8523,700657,0
0,1,708383,248623,1465535,73911,10293,732809,0
0,1,705588,248239,1272599,73769,7788,636350,0
0,1,712308,249582,1385329,74427,8937,692769,0
0,1,728577,252374,1329569,76953,9251,664756,0
0,1,707069,248182,1241167,73705,7721,620652,0
0,1,729215,252209,1400185,76676,9958,699512,0
0,1,710070,248591,1358603,73754,8685,679370,0
0,1,708475,248485,1453231,73770,9281,726700,0
0,1,711189,248359,1391302,73703,8835,695277,0
0,1,713897,249482,1438978,74340,9468,719351,0
0,1,713590,248778,1469010,73920,10116,734423,0
0,1,717906,250602,1401298,74535,9643,701058,0
0,1,714219,249926,1533770,74120,10342,766834,0
0,1,708189,248799,1366054,73735,10163,682748,0
0,1,713835,249128,1473492,73985,10100,736626,0
0,1,708619,248532,1374762,73719,9302,687337,0
0,1,708507,247576,1377978,73462,9506,688828,0
0,1,724946,252257,1406552,76905,9107,703181,0
0,1,709602,248207,1376946,73664,8646,688518,0
0,1,708120,246995,1283834,73342,9339,641927,0
0,1,707223,247501,1233322,73403,8013,616611,0
0,1,711157,248605,1393831,73750,9359,696912,0
0,1,707377,246758,1373573,73009,9551,686790,0
0,1,709683,248741,1368970,73596,9984,684293,0
0,1,708225,247994,1483512,73417,9912,741616,0
0,1,709043,247669,1308216,73410,9018,654505,0
0,1,706999,247354,1347047,73366,8535,673611,0
0,1,709309,247690,1350538,73453,9080,675301,0
0,1,709752,247772,1294425,73487,9296,647235,0
0,1,709300,248831,1369492,73976,9011,684694,0
0,1,710954,248644,1241846,73940,9119,620738,0
0,1,709983,247477,1490005,73351,10103,745162,0
0,1,713246,249255,1313037,74196,8425,656252,0
0,1,710809,248097,1501490,73564,9380,750735,0
0,1,710795,247415,1495290,73191,9112,747815,0
0,1,702603,247074,1280864,72714,8636,640343,0
0,1,706057,248062,1407247,73051,8689,703474,0
0,1,707556,248683,1218374,73478,8033,609336,0
0,1,701096,246972,1407416,72693,8897,703771,0
0,1,706591,247480,1476413,73746,10438,737943,0
0,1,708035,247292,1331676,73721,9344,665877,0
0,1,706848,247470,1319077,73846,9047,659430,0
0,1,708775,248265,1243306,74056,8016,621705,0
0,1,711046,248077,1442676,74028,9369,721287,0
0,1,710923,248747,1305649,74464,9257,652882,0
0,1,706225,247233,1400417,73768,9054,700286,0
0,1,711986,248862,1285611,74578,8768,642902,0
0,1,706392,247415,1415537,73810,9195,707809,0
0,1,731839,257126,1421545,76788,9849,710822,0
0,1,710795,247554,1352100,73919,9182,676200,0
0,1,711395,249231,1317913,74679,9579,659002,0
0,1,708444,247488,1372643,73845,9093,686611,0
0,1,712577,247174,1369961,73677,9199,684948,0
0,1,709837,247966,1254171,73996,8801,627027,0
0,1,712751,248135,1349891,74092,8746,674795,0
0,1,731823,252176,1413306,77209,9923,706614,0
0,1,729688,251804,1429172,76934,9777,714541,0
0,1,707856,247488,1355238,73759,8639,677661,0
0,1,712521,247250,1305829,73790,8903,652956,0
0,1,711374,249650,1334821,74900,9857,667802,0
0,1,709375,248497,1276020,74270,8996,638049,0
0,1,713479,248475,1356419,74361,8751,678278,0
0,1,736027,253188,1749233,77626,11090,874640,0
0,1,712335,248386,1463942,74130,10202,732014,0
0,1,712512,248442,1503967,74161,9775,752534,0
0,1,730672,252644,1344689,77326,9968,672205,0
0,1,711520,248969,1439608,74255,9841,719895,0
0,1,714450,249063,1463299,74198,9492,731679,0
0,1,710093,248576,1326711,74040,8540,663152,0
0,1,714117,248599,1505231,74074,9717,752650,0
0,1,711350,247603,1394369,73833,8360,697223,0
0,1,707464,247312,1420148,73753,9503,710110,0
0,1,733147,252639,1330363,77290,9770,665177,0
0,1,712805,248030,1394606,73941,9240,697456,0
0,1,735481,254328,1519184,77828,10212,759046,0
0,1,715084,249100,1337019,74421,8677,668532,0
0,1,713398,248395,1400251,74155,8883,700171,0
0,1,716179,249984,1443358,74708,9209,721759,0
0,1,714357,248717,1470322,74133,9810,735227,0
0,1,711518,248056,1373584,73886,9016,686832,0
0,1,716080,248760,1483769,74133,10075,741909,0
0,1,716209,249470,1373225,74729,9428,686781,0
0,1,711303,247112,1373737,73793,9540,686708,0
0,1,716858,249136,1472266,74707,10308,736220,0
0,1,704675,247126,1417687,73896,9055,708891,0
0,1,728845,252065,1498215,77267,11192,749013,0
0,1,703148,246491,1251387,73677,7928,625681,0
0,1,727252,252012,1450264,77313,10242,724984,0
0,1,709246,247363,1397466,73887,8389,698778,0
1,1,782009,270191,1363441,81693,10651,681712,0
1,1,761324,266274,1309517,78643,8437,654771,1
1,1,743336,260439,1491256,76797,9089,745764,0
1,1,705566,246956,1308442,73241,7970,654249,0
1,1,709489,247545,1410588,73540,9727,705360,0
1,1,703507,247789,1302204,73594,8970,651166,0
1,1,703200,247293,1378772,73470,8424,689263,0
1,1,705575,247408,1310019,73459,8486,654792,0
1,1,704165,247102,1337250,73375,8963,668653,0
1,1,707122,247895,1252077,73694,8517,626054,0
1,1,708102,247396,1408910,73496,8919,704577,0
1,1,732757,257098,1437620,76224,9219,718837,0
1,1,713868,249434,1325252,74174,9553,662433,0
1,1,707593,248023,1432573,73684,8698,716186,0
1,1,711559,249802,1432882,74527,9408,716309,0
1,1,713376,249451,1343118,74520,9919,671419,0
1,1,710221,247581,1270039,73670,9137,635057,0
1,1,702130,247119,1361057,73486,8183,680494,0
1,1,708796,248826,1376597,74073,9013,688341,0
1,1,706303,248162,1272245,73813,7747,636182,0
1,1,711728,248788,1354137,74272,9865,676954,0
1,1,708374,248670,1394903,74012,8690,697340,0
1,1,711347,249274,1454521,74359,10088,726933,0
1,1,711411,249271,1534660,74349,9540,767416,0
1,1,707216,248071,1281876,73753,8274,641023,0
1,1,709202,249137,1368236,74251,8601,684174,0
1,1,708699,247818,1405607,73642,8756,702840,0
1,1,709163,248055,1408233,73704,8383,704134,0
1,1,710262,248535,1329897,73883,9392,664704,0
1,1,728928,252561,1336398,77009,9324,668129,0
1,1,714266,248051,1388938,73653,8555,694507,0
1,1,704048,247431,1444954,73473,9194,722499,0
1,1,711248,250096,1467341,74612,9801,733781,0
1,1,707836,247678,1381246,73559,8811,690660,0
1,1,710390,248934,1399519,73977,8225,699803,0
1,1,711777,249926,1282194,74607,7988,641074,0
1,1,710868,248633,1440339,73786,9056,720190,0
1,1,727818,252467,1424561,76800,10076,712340,0
1,1,711105,249263,1455533,74193,9399,727894,0
1,1,711057,248441,1509701,73752,9145,755155,0
1,1,712535,248624,1400225,73810,8548,700007,0
1,1,718491,251365,1327536,75031,9517,663509,0
1,1,714441,249068,1327881,74039,9676,663895,0
1,1,714370,250405,1424134,74453,10015,711922,0
1,1,715169,250893,1310960,74689,9379,655444,0
1,1,713116,249276,1398573,74019,9737,699207,0
1,1,716765,250375,1410048,74579,9847,704882,0
1,1,710252,248437,1305203,73717,9371,652620,0
1,1,713410,247940,1282823,73626,8418,641446,0
1,1,733954,256611,1399980,76100,8874,699964,0
1,1,708384,247097,1314912,73363,9652,657368,0
1,1,711268,248601,1289307,73798,8645,644582,0
1,1,708451,247855,1366797,73482,9985,683349,0
1,1,734096,253670,1342796,77043,9854,671444,0
1,1,707955,248331,1432489,73433,9961,716300,0
1,1,714366,249905,1452300,74301,9633,726213,0
1,1,708571,247570,1393994,73380,9532,697035,0
1,1,710745,249082,1358752,74069,8272,679437,0
1,1,706245,246706,1320409,73087,8802,660254,0
1,1,730427,251898,1435611,76541,10413,717829,0
1,1,708392,248458,1368315,73685,9099,684571,0
1,1,706338,247080,1280092,73213,8792,639995,0
1,1,718647,250670,1333519,74712,9519,666444,0
1,1,709958,247575,1478251,73363,9880,738629,0
1,1,712119,249037,1404552,74037,9617,702343,0
1,1,710328,247010,1292418,73125,7636,646299,0
1,1,721454,251840,1443831,76108,9316,721722,0
1,1,709516,249390,1344902,73647,8674,672345,0
1,1,702437,247133,1447587,72786,9304,723760,0
1,1,709258,250183,1361263,74002,9391,680685,0
1,1,710930,249512,1355986,74688,10726,677545,0
1,1,712051,249464,1295148,74681,9088,647482,0
1,1,710905,249190,1222131,74619,8810,611127,0
1,1,709339,249021,1283508,74447,9359,641822,0
1,1,706516,247133,1340114,73727,8777,670154,0
1,1,705537,247253,1475753,73783,9600,737919,0
1,1,708210,248350,1314331,74179,8152,657203,0
1,1,712044,248242,1350708,74027,9006,675417,0
1,1,706037,247689,1337820,73960,8987,668887,0
1,1,708812,247125,1287085,73824,8652,643534,0
1,1,714154,249461,1373310,74687,8689,686720,0
1,1,705207,247422,1319025,73820,9429,659488,0
1,1,727686,252117,1444580,77218,9929,722235,0
1,1,713597,248295,1460412,74226,11473,730013,0
1,1,708955,248230,1277761,74123,8773,638872,0
1,1,714407,249239,1314060,74573,8997,657167,0
1,1,712021,247132,1348198,73738,9360,674139,0
1,1,709351,247911,1367150,73829,8705,683621,0
1,1,734354,252163,1559972,77054,10534,779817,0
1,1,712571,247717,1372334,73885,9258,686208,0
1,1,703124,247359,1335149,73892,8380,667436,0
1,1,709257,248720,1498851,74365,9322,749388,0
1,1,713352,248910,1375243,74482,8337,687802,0
1,1,712222,248260,1583197,74233,9142,791989,0
1,1,716376,250573,1370194,75117,9752,684866,0
1,1,712767,248522,1433302,74171,9244,716687,0
1,1,713753,249454,1238830,74545,8388,619332,0
1,1,729812,253091,1487837,77401,11338,743756,0
1,1,714165,248953,1452244,74161,9262,725794,0
1,1,734176,253846,1384446,77543,10550,691822,0
1,1,714784,249165,1387930,74514,9597,693825,0
1,1,717065,250272,1278833,74946,7943,639493,0
1,1,709259,249222,1300664,74564,8882,650398,0
1,1,708866,247745,1291962,73897,8675,646011,0
1,1,711889,248120,1370233,73987,9134,685158,0
1,1,715356,250767,1429747,75021,9538,714579,0
1,1,717420,249750,1325934,74788,9857,662623,0
1,1,733689,253153,1531745,77521,10261,765341,0
1,1,711424,248986,1376340,74170,9367,688194,0
1,1,711914,247902,1392933,73764,8784,696535,0
1,1,710324,247891,1441615,73820,9539,720638,0
1,1,713082,247724,1361258,73787,9312,680698,0
1,1,733560,252821,1438821,77341,10609,719298,0
1,1,733144,252313,1534194,77291,10805,766995,0
1,1,711877,247082,1432137,73820,10017,716125,0
1,1,702359,246673,1258648,73729,8120,629346,0
1,1,705359,246753,1356474,73765,9012,678350,0
1,1,709461,247242,1462614,73891,9970,731390,0
1,1,703821,246974,1371489,73809,9081,685590,0
1,1,708826,247185,1371664,73772,8672,685879,0
2,1,762463,266010,1294488,78550,9728,647300,0
2,1,758208,265827,1416601,78389,8475,708265,1
2,1,753559,264079,1431611,77897,9158,715871,0
2,1,707569,247620,1436378,73451,9348,718249,0
2,1,707060,246879,1244530,73267,8312,622309,0
2,1,704249,246930,1259625,73396,8343,629818,0
2,1,701603,247017,1437365,73364,8986,718455,0
2,1,708478,248941,1408921,74144,8809,704345,0
2,1,705377,247385,1383479,73515,9506,691782,0
2,1,709472,247225,1353921,73418,9653,677138,0
2,1,711217,248287,1343207,73890,9467,671744,0
2,1,727642,252388,1392718,76797,10010,696190,0
2,1,711736,248330,1294406,73619,9123,647200,0
2,1,706477,247628,1502582,73490,8903,751330,0
2,1,705160,247504,1411588,73574,9562,705837,0
2,1,710424,248128,1533899,73779,9980,766883,0
2,1,707876,247096,1345336,73489,9331,672557,0
2,1,724615,252715,1372369,77130,8812,686152,0
2,1,702852,247356,1388539,73609,9082,694315,0
2,1,709096,249535,1396125,74472,9032,698014,0
2,1,706779,247600,1280432,73690,8936,640185,0
2,1,706223,248359,1277702,73922,8421,638810,0
2,1,705695,247623,1416318,73528,9003,707771,0
2,1,736468,254536,1347301,78125,9194,673604,0
2,1,707986,248112,1356029,73660,8074,678054,0
2,1,702885,247059,1280901,73422,8150,640498,0
2,1,709898,248193,1513034,73746,9024,756290,0
2,1,707558,248142,1460947,73762,8368,730513,0
2,1,713861,249655,1310563,74379,8374,655358,0
2,1,706293,247139,1365791,73471,8513,682937,0
2,1,731639,252431,1326256,76867,9569,663032,0
2,1,706062,248462,1526995,73785,10597,763477,0
2,1,728034,253070,1443981,77146,10013,721903,0
2,1,712070,249055,1343846,74082,8336,671961,0
2,1,711284,249347,1374933,74333,8917,687528,0
2,1,726968,252591,1280606,77030,8376,640324,0
2,1,712639,249724,1466402,74317,9672,733031,0
2,1,707159,248223,1407337,73739,8849,703405,0
2,1,707961,248326,1326896,73709,8821,663461,0
2,1,709675,248318,1390979,73574,8692,695514,0
2,1,707159,248251,1345111,73737,9365,672017,0
2,1,734180,254365,1402060,77486,10442,700045,0
2,1,711647,248536,1473909,73697,9758,736952,0
2,1,708247,249083,1398445,73815,9819,699196,0
2,1,709134,248858,1259555,73746,9828,629727,0
2,1,715155,250144,1417164,74468,9683,708320,0
2,1,712825,249179,1413429,73965,10162,706580,0
2,1,708173,247970,1330272,73498,9467,665038,0
2,1,713887,248555,1351160,73851,9332,675650,0
2,1,706688,247594,1293437,73438,8623,646695,0
2,1,713061,249537,1316369,74431,8710,658194,0
2,1,709674,247951,1285160,73622,8953,642634,0
2,1,733057,252500,1357707,76816,9969,678905,0
2,1,718173,249953,1416551,74231,8889,708337,0
2,1,713003,250670,1461289,74484,10250,730629,0
2,1,730097,252455,1495604,76704,10281,747655,0
2,1,710211,248271,1224039,73687,8525,612124,0
2,1,709348,248023,1395047,73532,8819,697568,0
2,1,710202,248104,1398895,73526,9165,699466,0
2,1,708411,247205,1334133,73236,8751,667146,0
2,1,706490,247271,1425754,73266,9546,712921,0
2,1,705634,247010,1294267,73231,9300,647420,0
2,1,710460,247395,1344915,73308,9425,672181,0
2,1,716758,250623,1355588,74617,9305,677330,0
2,1,707959,247246,1653016,73312,9869,826298,0
2,1,716071,249352,1266535,74083,7980,633195,0
2,1,701652,248008,1359102,73099,9392,679032,0
2,1,726874,252676,1493223,76387,9594,746598,0
2,1,706102,247875,1322552,73055,9057,661221,0
2,1,702085,247739,1574167,72915,9976,787085,0
2,1,702802,247601,1506025,73094,9470,752691,0
2,1,711891,247880,1365819,73980,9182,682528,0
2,1,703515,247171,1203125,73807,8590,601615,0
2,1,707372,247758,1360060,73915,8819,680035,0
2,1,707429,247544,1258798,73861,7942,629437,0
2,1,711678,249268,1267908,74716,8687,633999,0
2,1,706072,247318,1478660,73754,9208,739361,0
2,1,711890,248290,1300145,74293,9109,649954,0
2,1,703703,247016,1382584,73682,9336,691345,0
2,1,708102,247742,1361899,73976,8842,681023,0
2,1,708171,247707,1400396,73962,9759,700232,0
2,1,707513,247536,1260828,73836,9000,630339,0
2,1,704834,246951,1241750,73689,9510,620850,0
2,1,717048,249563,1291761,74786,9310,645782,0
2,1,710498,247820,1295941,74029,9469,648009,0
2,1,729704,251778,1428373,76985,9555,714130,0
2,1,711092,247300,1383460,73760,8877,691797,0
2,1,712224,249101,1262455,74438,9333,631286,0
2,1,711728,247433,1413712,73636,9339,706905,0
2,1,714136,248945,1266897,74570,8470,633355,0
2,1,708453,247997,1442985,73998,10168,721831,0
2,1,712478,250010,1417720,74957,9486,708533,0
2,1,718982,250777,1304278,75193,8182,652141,0
2,1,713285,249007,1461185,74445,9470,730371,0
2,1,729825,252632,1570595,77360,11025,785273,0
2,1,717332,250235,1407368,74960,9905,703019,0
2,1,711023,248744,1593823,74277,9416,797370,0
2,1,714445,248780,1394917,74311,9339,697482,0
2,1,713862,249283,1413934,74222,9203,706642,0
2,1,714313,249506,1327678,74346,8939,663797,0
2,1,714014,248853,1454807,74210,9287,727436,0
2,1,733443,253222,1470594,77471,9383,735380,0
2,1,709566,248990,1375042,74293,9165,687475,0
2,1,712322,249373,1261208,74596,8486,630617,0
2,1,714893,249595,1300614,74623,8904,650276,0
2,1,718322,248830,1556740,74221,10244,778174,0
2,1,710286,248173,1306672,74082,9092,653184,0
2,1,714305,247920,1442164,73964,10175,721030,0
2,1,716284,250800,1654606,75111,11620,827244,0
2,1,716179,250291,1384571,74869,9025,692424,0
2,1,717107,250262,1666541,74910,11693,833242,0
2,1,718725,250019,1430600,74785,9865,715361,0
2,1,710032,247542,1302472,73869,9458,651472,0
2,1,711637,247960,1414756,74098,9760,707358,0
2,1,712805,247208,1444691,73863,9196,722241,0
2,1,703258,247465,1357684,73996,9194,678868,0
2,1,711851,248585,1405186,74555,9370,702597,0
2,1,706729,246782,1426987,73748,9166,713110,0
2,1,703632,246711,1255294,73782,9111,627583,0
2,1,731724,252758,1503964,77394,9973,751957,0
3,1,760838,265948,1294342,78491,9087,647220,0
3,1,765084,267880,1492104,79313,9539,745716,0
3,1,704959,247099,1338193,73208,8269,669136,1
3,1,705779,247164,1280526,73305,8614,640292,0
3,1,708756,247441,1363600,73501,9456,681790,0
3,1,706753,248043,1235989,73666,9071,617947,0
3,1,708294,247635,1363737,73601,8675,681805,0
3,1,704740,247195,1359005,73405,8674,679602,0
3,1,704578,247593,1260586,73467,8711,630290,0
3,1,711176,248634,1535345,74084,9922,767636,0
3,1,711408,248778,1324900,73901,9092,662401,0
3,1,712113,249592,1501247,74312,9864,750365,0
3,1,729056,252372,1383362,76763,10292,691639,0
3,1,709508,248287,1355056,73764,9092,677425,0
3,1,712420,247244,1354620,73501,9256,677222,0
3,1,709969,247879,1673456,73750,10673,836362,0
3,1,708773,247142,1399128,73604,9694,699276,0
3,1,701903,247811,1368070,73721,8330,684079,0
3,1,704841,248149,1349090,73766,8694,674561,0
3,1,706512,247896,1283209,73806,8393,641582,0
3,1,709477,248517,1223701,73982,8255,611805,0
3,1,702833,247531,1306702,73649,7932,653183,0
3,1,709594,249548,1544159,74380,9634,772019,0
3,1,708786,248463,1347432,73882,8186,673749,0
3,1,706867,248078,1355779,73742,8310,677932,0
3,1,705795,247519,1241131,73524,8370,620607,0
3,1,712144,249503,1390548,74386,8500,695432,0
3,1,727981,252409,1336852,76951,9077,668403,0
3,1,709387,248537,1377996,73816,8139,689028,0
3,1,711641,249208,1376485,74288,8658,688286,0
3,1,709525,247877,1358481,73656,8747,679282,0
3,1,708546,248795,1330225,73952,8661,665139,0
3,1,705732,248361,1413840,73761,8633,706938,0
3,1,708756,247760,1347471,73606,8208,673665,0
3,1,707632,247996,1287195,73741,8646,643575,0
3,1,714619,249534,1281586,74348,8667,640875,0
3,1,706843,247818,1369742,73550,8955,684873,0
3,1,704751,247178,1461445,73361,8634,730852,0
3,1,734846,253117,1598193,77022,10750,799131,0
3,1,711618,249204,1433383,73931,9033,716492,0
3,1,708209,247605,1269401,73516,8722,634913,0
3,1,713753,249192,1477064,74041,10520,738529,0
3,1,718332,250948,1550015,74828,9752,774504,0
3,1,713218,250871,1434704,74629,9830,717480,0
3,1,707733,248879,1307517,73800,9871,653910,0
3,1,712735,249585,1416882,74074,9776,708473,0
3,1,710671,248459,1299478,73685,8917,649782,0
3,1,710722,248229,1314966,73722,9576,657377,0
3,1,712773,247823,1381101,73598,9421,690552,0
3,1,706908,247672,1354864,73482,8435,677462,0
3,1,730474,253094,1339113,77112,9320,669507,0
3,1,710954,248400,1376275,73660,9088,688102,0
3,1,713015,248268,1366007,73670,8869,682965,0
3,1,711690,247856,1389354,73333,9661,694704,0
3,1,706339,248238,1463698,73473,10196,731842,0
3,1,711291,248985,1625281,73750,10543,812519,0
3,1,707265,247427,1347131,73323,8946,673603,0
3,1,711804,249820,1388552,74368,8234,694145,0
3,1,710844,247476,1381284,73334,9317,690676,0
3,1,709916,247746,1379731,73487,9253,689923,0
3,1,711576,249908,1410642,74360,9577,705114,0
3,1,727298,252140,1368793,76693,9782,684708,0
3,1,708881,247139,1420836,73261,9926,710437,0
3,1,708873,247343,1524975,73280,9529,761827,0
3,1,712482,248064,1421988,73525,9342,711068,0
3,1,711190,247762,1374224,73334,7987,687126,0
3,1,706389,249282,1159917,73650,8080,580021,0
3,1,730198,256519,1365446,75490,9033,682840,0
3,1,704666,247726,1414046,72972,9292,707032,0
3,1,711386,248542,1478041,73194,11210,738546,0
3,1,701975,247225,1482668,72933,9676,741334,0
3,1,713487,249062,1273688,74570,9122,636870,0
3,1,704179,247364,1283639,73809,8765,641856,0
3,1,705300,247296,1362457,73770,8215,681225,0
3,1,711892,248014,1379981,74094,8957,690018,0
3,1,726572,251532,1373573,77025,9470,686787,0
3,1,743046,258429,1396126,77401,8893,698137,0
3,1,728357,251407,1443228,76866,10231,721622,0
3,1,703755,246989,1305134,73694,8765,652637,0
3,1,709049,247705,1462930,73955,8780,731556,0
3,1,709564,248046,1295407,74060,9147,647796,0
3,1,711705,249401,1247364,74674,9782,623451,0
3,1,710095,247141,1476585,73799,11215,738052,0
3,1,710037,247604,1324727,73930,9793,662224,0
3,1,709416,247517,1258871,73869,8886,629380,0
3,1,710462,248199,1309383,74022,8602,654413,0
3,1,713945,248422,1340445,74319,9033,670259,0
3,1,713503,247997,1313949,73953,9518,657035,0
3,1,711826,247360,1392173,73696,8926,696138,0
3,1,731400,252001,1443954,77030,10225,721981,0
3,1,710676,248622,1322425,74384,8902,661330,0
3,1,708014,248544,1458404,74304,10469,729017,0
3,1,714352,249288,1258293,74452,8273,629175,0
3,1,711379,248167,1403813,74179,9379,701951,0
3,1,713192,249449,1375020,74500,10135,687555,0
3,1,712588,248941,1365025,74380,9661,682112,0
3,1,710168,248920,1414779,74297,8552,707264,0
3,1,713062,248494,1397489,74210,9337,698739,0
3,1,710899,248469,1484591,73959,9454,742381,0
3,1,711730,248874,1368603,74091,9594,684126,0
3,1,711174,248100,1457097,73938,9253,728977,0
3,1,710850,247806,1226377,73923,8008,613242,0
3,1,706938,248438,1290994,74062,8689,645518,0
3,1,709994,248493,1402019,74156,8560,701072,0
3,1,714967,249954,1321037,74817,8725,660584,0
3,1,717713,249113,1535889,74363,9880,768032,0
3,1,714100,250044,1289425,74961,9789,644490,0
3,1,712926,248851,1571757,74312,9818,785930,0
3,1,709581,248488,1336963,74067,9423,668517,0
3,1,731862,252734,1490014,77225,10243,744513,0
3,1,714544,249019,1363186,74217,9450,681609,0
3,1,717675,248997,1485698,74395,10019,742945,0
3,1,709377,247702,1277565,73880,8869,638743,0
3,1,714352,248741,1452250,74528,11022,726289,0
3,1,735848,252896,1498931,78111,10533,749340,0
3,1,703445,247166,1452356,73862,9248,726214,0
3,1,705803,247394,1255307,73972,8655,627687,0
3,1,710142,248598,1382232,74489,8985,691299,0
3,1,704177,247008,1275973,73831,8506,637909,0
3,1,708186,247086,1367134,73667,9019,683483,0
4,1,758273,265281,1325896,78343,8809,662987,0
4,1,782099,270885,1563870,81833,10410,781708,0
4,1,728089,251784,1393387,76724,9423,696744,0
4,1,710358,249703,1383031,74476,8672,691431,1
4,1,714903,249752,1333089,74473,9677,666624,0
4,1,708983,249196,1386444,74217,9193,693316,0
4,1,704834,246775,1283269,73268,8149,641344,0
4,1,703839,247056,1409921,73319,8924,704945,0
4,1,703131,246768,1299361,73284,9131,649517,0
4,1,710508,247978,1406884,73658,8962,703065,0
4,1,713427,249786,1410491,74479,9537,704827,0
4,1,705097,247493,1325231,73560,9476,662634,0
4,1,713445,249576,1443138,74151,10155,721624,0
4,1,731030,252271,1358406,76804,10814,679202,0
4,1,718045,250131,1370373,74610,10270,684919,0
4,1,708415,247097,1460359,73419,9846,729790,0
4,1,711035,248359,1304078,73893,8840,652088,0
4,1,713678,247498,1384295,73585,8413,692168,0
4,1,707169,248724,1394879,74233,8912,697519,0
4,1,725516,252664,1659227,77122,11095,829504,0
4,1,710216,249178,1304838,74462,8987,652117,0
4,1,704845,248082,1357722,73787,9158,678860,0
4,1,705510,248004,1700329,73740,10844,849806,0
4,1,706460,247696,1367618,73590,7863,683824,0
4,1,738701,259749,1385239,77565,9319,692368,0
4,1,705628,247966,1358563,73723,8246,679321,0
4,1,707085,247876,1299697,73689,8285,649909,0
4,1,706964,248123,1386911,73756,8429,693549,0
4,1,709588,248385,1379056,73868,8611,689581,0
4,1,710114,248419,1297831,73868,7584,648974,0
4,1,711071,248003,1355681,73653,9114,677941,0
4,1,704631,247852,1454682,73631,8496,727392,0
4,1,704692,247939,1419280,73639,8594,709671,0
4,1,728767,252543,1317416,77011,8927,658700,0
4,1,706464,248020,1359342,73673,8288,679708,0
4,1,710691,248383,1321886,73763,8660,660971,0
4,1,709562,248771,1437412,73786,9437,718771,0
4,1,712470,249970,1403739,74638,9281,701676,0
4,1,713796,249735,1425212,74324,9080,712012,0
4,1,708328,248546,1416695,73751,8597,708399,0
4,1,713625,249779,1350830,74490,9706,675452,0
4,1,713778,249837,1468542,74381,9609,734202,0
4,1,715561,248404,1336946,73796,8551,668372,0
4,1,708895,249011,1301220,73795,9578,650803,0
4,1,712658,249213,1324819,73909,9400,662352,0
4,1,711585,248397,1392669,73700,9374,696340,0
4,1,713173,249868,1379189,74274,10305,689463,0
4,1,707160,247488,1453335,73445,9274,726748,0
4,1,716240,249736,1388539,74402,9291,694374,0
4,1,728609,252287,1353599,76798,9324,676753,0
4,1,708459,247879,1272682,73589,8255,636242,0
4,1,713221,249758,1378467,74464,8813,689226,0
4,1,717090,250018,1383242,74378,9146,691852,0
4,1,713380,248638,1279101,73675,8723,639592,0
4,1,706747,248803,1427744,73646,9770,713613,0
4,1,707110,247554,1384798,73261,9313,692510,0
4,1,704599,247052,1290877,73193,9047,645623,0
4,1,727317,252615,1261093,76856,9089,630423,0
4,1,708326,247556,1401699,73365,8908,700877,0
4,1,707268,247329,1477576,73267,9043,738831,0
4,1,713195,247130,1420503,73216,8610,710293,0
4,1,710143,247751,1573653,73364,9575,786866,0
4,1,708987,247549,1378932,73388,8777,689440,0
4,1,710269,248179,1678273,73617,11200,838128,0
4,1,719123,249987,1360779,74414,9720,679973,0
4,1,712442,248002,1216713,73550,7731,608368,0
4,1,703911,248057,1407477,73084,8253,703635,0
4,1,706437,248399,1426645,73167,9350,713291,0
4,1,723587,251680,1453571,75968,9953,726744,0
4,1,705433,247346,1380688,72798,8329,690247,0
4,1,710551,248536,1387774,73554,9512,693628,0
4,1,729211,251927,1322178,77128,9861,661064,0
4,1,706411,247721,1375210,73960,8846,687612,0
4,1,724405,252016,1392769,77097,9816,696360,0
4,1,708445,247190,1345696,73754,8254,672883,0
4,1,705023,247131,1276068,73669,8721,638114,0
4,1,709219,246818,1232352,73604,8723,616195,0
4,1,711502,247531,1475550,73893,10410,737805,0
4,1,708075,249095,1289572,74582,8634,644999,0
4,1,707565,247450,1363717,73823,9120,681882,0
4,1,711232,249122,1257736,74664,9200,628931,0
4,1,727391,252109,1371793,77183,10916,685632,0
4,1,709022,247380,1361724,73858,8840,680807,0
4,1,710684,247668,1438447,73853,9736,718976,0
4,1,710868,248359,1334628,74095,9248,667318,0
4,1,710801,248173,1361252,74196,8036,680742,0
4,1,711533,247750,1419311,73944,8591,709694,0
4,1,712118,247742,1232168,73790,8583,616005,0
4,1,713971,248661,1334802,74340,8889,667478,0
4,1,733051,252717,1421934,77229,9853,710977,0
4,1,705294,247263,1328324,73700,9859,664177,0
4,1,712555,248301,1478460,74207,9200,739142,0
4,1,710132,247834,1365099,73986,8126,682577,0
4,1,708493,247773,1349324,74027,8800,674691,0
4,1,709932,248817,1490919,74315,10417,745281,0
4,1,713749,248975,1350020,74366,9403,674846,0
4,1,710126,248625,1441852,74206,9858,720608,0
4,1,711663,248336,1325316,74114,9204,662698,0
4,1,711911,248698,1398597,74125,9275,699005,0
4,1,710156,248614,1396314,74077,9382,698230,0
4,1,712670,248218,1435464,73977,9862,717784,0
4,1,709812,247804,1372105,73878,8385,686081,0
4,1,705069,248140,1358580,73975,8791,679322,0
4,1,712096,249740,1352780,74779,9281,676418,0
4,1,732935,253627,1471490,77599,9626,735625,0
4,1,720616,250576,1309691,75018,9055,654902,0
4,1,715196,248949,1341437,74333,8817,670728,0
4,1,711645,247998,1429799,74034,9595,714942,0
4,1,710453,248921,1458560,74152,9570,729065,0
4,1,709976,248006,1389151,73871,9371,694584,0
4,1,708923,247176,1441449,73598,9680,720744,0
4,1,714223,248191,1589526,73967,10227,794818,0
4,1,712275,247616,1438344,73859,9025,719181,0
4,1,710156,247468,1460953,73941,10682,730573,0
4,1,708295,246572,1431452,73620,9594,715774,0
4,1,703859,247495,1315073,73997,8494,657525,0
4,1,704393,246743,1528503,73768,9424,764240,0
4,1,707448,247250,1440308,73962,9481,720197,0
4,1,707751,248922,1396400,74667,9475,698177,0
4,1,709834,248366,1391879,74368,8328,695976,0
5,1,761827,266083,1342865,78589,9290,671466,0
5,1,756849,265135,1398956,78191,9491,699471,0
5,1,709227,247374,1381631,73481,9548,690843,0
5,1,706873,247457,1290215,73506,8771,644903,0
5,1,704726,247080,1388324,73259,8775,694153,0
5,1,709861,249607,1410003,74536,9158,704805,1
5,1,707368,247927,1398577,73626,8668,699414,0
5,1,704646,247725,1512107,73578,8920,755903,0
5,1,704667,247210,1236168,73454,8925,617893,0
5,1,708130,247807,1326085,73669,8682,663113,0
5,1,712842,247820,1338523,73697,8802,669083,0
5,1,704054,247594,1260223,73536,9444,630070,0
5,1,710391,248492,1389721,73651,9155,694793,0
5,1,708379,247659,1399537,73539,9851,699814,0
5,1,733318,252772,1336888,77123,10968,668433,0
5,1,728471,252456,1353529,77057,9339,676778,0
5,1,729326,251965,1554104,76828,11557,776193,0
5,1,714374,248064,1376031,73851,8721,688048,0
5,1,705094,248288,1292352,73907,8524,646238,0
5,1,707538,248326,1426481,73885,8887,713029,0
5,1,728654,252310,1269673,77023,9540,634806,0
5,1,706888,248473,1412570,73970,9253,706260,0
5,1,707184,248731,1410775,73940,8582,705583,0
5,1,707765,247600,1280199,73546,8215,640120,0
5,1,726061,252409,1328837,76941,9662,664407,0
5,1,704919,247934,1365843,73673,8079,683020,0
5,1,707071,247870,1341550,73636,8152,670828,0
5,1,709596,249537,1372391,74375,8583,686264,0
5,1,705750,247226,1291607,73419,8259,645848,0
5,1,707932,247654,1363053,73588,8018,681573,0
5,1,711175,248139,1271238,73779,8865,635658,0
5,1,708842,248850,1429616,73991,8088,714889,0
5,1,703364,247809,1312130,73655,8844,656121,0
5,1,708422,248653,1351737,73894,7932,675898,0
5,1,710847,250076,1397555,74689,9046,698852,0
5,1,707573,247679,1309172,73607,8653,654667,0
5,1,711565,248019,1366742,73565,10164,683085,0
5,1,728312,252514,1439809,76987,9897,719851,0
5,1,708805,248134,1328579,73580,9049,663908,0
5,1,713668,249587,1469808,74242,10136,734785,0
5,1,708453,248029,1291546,73532,8806,645766,0
5,1,713287,249936,1450764,74286,9565,726054,0
5,1,712501,248242,1409947,74000,9398,704954,0
5,1,709439,249428,1392970,73936,10296,696477,0
5,1,716246,250964,1316374,74713,9607,658143,0
5,1,711550,249095,1526992,73969,9238,763638,0
5,1,711307,248906,1330675,73808,9676,665331,0
5,1,731409,253657,1477065,77253,10637,738392,0
5,1,715345,249521,1359257,74310,9654,679571,0
5,1,705908,247631,1239088,73457,8288,619528,0
5,1,708910,248197,1293943,73660,8848,646877,0
5,1,706106,247562,1361295,73523,8360,680625,0
5,1,710647,247768,1329177,73446,7958,664593,0
5,1,709149,247530,1411029,73249,9169,705545,0
5,1,707874,248462,1549518,73483,9622,774553,0
5,1,709786,248784,1533471,73687,10134,766744,0
5,1,705590,247490,1246983,73349,9088,623536,0
5,1,712920,249116,1333751,74087,8432,666922,0
5,1,714235,249658,1343720,74334,8673,671944,0
5,1,730476,252228,1434887,76747,10057,717600,0
5,1,713704,248128,1372225,73588,9367,686191,0
5,1,713668,248959,1372237,74009,9364,685959,0
5,1,716505,249938,1483770,74376,10515,741912,0
5,1,708078,247556,1362983,73386,8787,681513,0
5,1,733303,251986,1466723,76632,10704,733395,0
5,1,710364,247363,1290489,73323,8289,645213,0
5,1,702275,247416,1473206,72851,8591,736600,0
5,1,707219,248856,1306944,73503,8454,653348,0
5,1,699841,246948,1231996,72683,8617,616082,0
5,1,707497,248459,1545209,73208,9926,772549,0
5,1,709527,248454,1385425,73353,9118,692597,0
5,1,709373,247685,1285108,73940,8801,642582,0
5,1,702544,246668,1293374,73560,8375,646796,0
5,1,715100,249938,1309386,74829,8243,654754,0
5,1,706727,247159,1305858,73791,8268,652966,0
5,1,708411,248433,1335491,74186,8722,667884,0
5,1,710861,247879,1317137,73960,8726,658588,0
5,1,716222,249335,1275279,74649,9001,637702,0
5,1,707885,248051,1432345,74030,9721,716161,0
5,1,705381,247639,1367587,73891,8831,683857,0
5,1,728735,252237,1353884,77236,10375,676950,0
5,1,705212,247021,1292804,73718,10195,646201,0
5,1,708300,247147,1321197,73746,8879,660372,0
5,1,714559,249132,1482478,74641,10426,740745,0
5,1,711474,249187,1295398,74560,9145,647790,0
5,1,709265,247790,1499898,73874,9048,749979,0
5,1,709835,247278,1278974,73768,7918,639519,0
5,1,715536,250031,1292267,74881,8802,646100,0
5,1,712545,248047,1411874,73955,9257,705977,0
5,1,709129,247436,1345067,73663,9386,672581,0
5,1,727550,252114,1336321,77198,10726,668192,0
5,1,732556,252581,1500863,77385,10560,750312,0
5,1,712548,249415,1298782,74666,8422,649451,0
5,1,713487,249319,1369148,74580,8427,684617,0
5,1,714448,248562,1528179,74181,9517,764454,0
5,1,715339,249749,1430778,74768,9335,715149,0
5,1,708121,248185,1412151,74052,9459,705860,0
5,1,709841,247656,1358558,73897,8661,679350,0
5,1,714331,249892,1624871,74710,10269,811440,0
5,1,715517,250258,1362145,74754,9844,680794,0
5,1,716127,249684,1547818,74628,9279,773079,0
5,1,713285,248149,1477518,74026,9360,738793,0
5,1,712624,248352,1378907,74065,8247,689305,0
5,1,707613,248381,1295498,74052,8764,647786,0
5,1,710213,248316,1288343,74078,8380,644253,0
5,1,715327,248903,1400231,74167,9189,700162,0
5,1,711941,248271,1466229,73923,8868,732706,0
5,1,718184,250688,1374518,75185,9915,687313,0
5,1,713622,249050,1387517,74236,8831,693783,0
5,1,710680,248257,1588607,74026,10202,794339,0
5,1,711189,247876,1414260,73872,9704,707169,0
5,1,711578,247544,1347476,73710,9325,673745,0
5,1,716548,249543,1393467,74721,9430,696756,0
5,1,711329,248099,1475677,74086,11111,737574,0
5,1,709437,247280,1347824,73948,9439,673874,0
5,1,707121,248806,1481343,74599,9230,740608,0
5,1,703567,246619,1555204,73702,9718,777640,0
5,1,705999,246937,1290450,73811,9339,645082,0
5,1,708675,247612,1273626,74106,7912,636807,0
5,1,705752,247080,1348398,73753,8200,674237,0
6,1,759256,265619,1289946,78341,8457,645044,0
6,1,759754,265999,1515406,78501,9906,757232,0
6,1,705773,247020,1414986,73161,9260,707529,0
6,1,705911,247186,1291422,73370,8481,645756,0
6,1,704944,247725,1487199,73597,9262,743345,0
6,1,711057,249620,1413539,74470,9665,706319,0
6,1,702563,248087,1293577,73723,8200,646656,1
6,1,713519,249693,1421228,74418,9888,710482,0
6,1,709251,249286,1309666,74269,9453,654616,0
6,1,710659,248747,1405085,74085,9822,702334,0
6,1,713124,248921,1309759,73980,9084,654914,0
6,1,702128,246731,1295152,73241,9705,647398,0
6,1,708235,247738,1401166,73408,9606,700471,0
6,1,706800,247417,1368273,73363,9059,684180,0
6,1,710000,247510,1312752,73552,9379,656388,0
6,1,709148,247295,1376693,73526,8728,688255,0
6,1,708774,247597,1467784,73682,10903,733463,0
6,1,713320,247804,1279157,73754,8158,639621,0
6,1,705288,248511,1404702,73976,9931,702394,0
6,1,709669,249770,1445935,74552,9705,722968,0
6,1,707672,248051,1339677,73849,8912,669715,0
6,1,713673,250458,1428343,74918,8751,714127,0
6,1,725359,252711,1412749,77029,10573,706091,0
6,1,709618,248459,1388265,73870,8306,694171,0
6,1,707363,248574,1401791,73892,9838,700818,0
6,1,704951,248347,1362140,73840,7945,681074,0
6,1,709390,248912,1374871,73966,7922,687472,0
6,1,706237,247939,1277644,73646,8419,638869,0
6,1,731390,252562,1368704,76990,9281,684306,0
6,1,707196,247748,1271735,73605,7907,635903,0
6,1,709460,247854,1268629,73710,8496,634351,0
6,1,705780,248130,1373243,73709,8520,686717,0
6,1,707997,249423,1462130,74343,9028,731172,0
6,1,708207,247935,1259210,73709,8124,629650,0
6,1,708994,248169,1385369,73773,9020,692718,0
6,1,707170,247559,1390227,73495,8548,695163,0
6,1,711359,248282,1439173,73621,9620,719729,0
6,1,707288,248321,1430682,73859,8748,715008,0
6,1,709306,248091,1348980,73652,8842,674397,0
6,1,713388,249084,1381920,73850,9733,691322,0
6,1,710198,248400,1271092,73780,8505,635583,0
6,1,710006,248505,1522227,73830,10536,760858,0
6,1,714494,248826,1328568,74008,9056,664371,0
6,1,709487,249412,1331332,73957,9399,665797,0
6,1,708686,247894,1259249,73390,8318,629692,0
6,1,711732,248725,1435941,73794,10155,717749,0
6,1,710447,248575,1297653,73700,9200,648799,0
6,1,705537,247587,1415860,73455,10138,707828,0
6,1,709070,247061,1369935,73304,9155,684973,0
6,1,711421,248137,1342745,73712,8765,671273,0
6,1,708729,247305,1384029,73360,9244,691949,0
6,1,707941,247682,1429542,73607,9044,714776,0
6,1,710998,247871,1494163,73543,8899,747032,0
6,1,717285,249995,1399213,74254,9411,699679,0
6,1,737748,253417,1480864,76945,10921,740414,0
6,1,710800,249393,1438772,74008,9598,719128,0
6,1,708500,247372,1298846,73351,9686,649466,0
6,1,713556,248438,1310859,73703,8421,655494,0
6,1,707871,247797,1360064,73480,8546,680073,0
6,1,710935,248049,1441570,73552,9463,720824,0
6,1,710319,247167,1426410,73233,9722,713197,0
6,1,707513,247161,1442411,73233,9037,721289,0
6,1,707788,247005,1344234,73199,9147,671973,0
6,1,730776,252223,1413296,76728,9660,706977,0
6,1,711760,247510,1409693,73387,9700,704928,0
6,1,715974,249896,1264298,74411,8532,632387,0
6,1,703254,248162,1535157,73189,9957,766845,0
6,1,704107,248293,1322685,73135,8605,661153,0
6,1,706024,248213,1299557,73133,9070,649752,0
6,1,704833,247773,1406777,72979,8748,703425,0
6,1,702560,247245,1563079,72963,10269,781482,0
6,1,707813,247372,1294381,73826,8703,647208,0
6,1,707892,248906,1269476,74528,8118,634823,0
6,1,706821,247113,1412145,73727,8962,706129,0
6,1,714860,249976,1319415,74979,8471,659779,0
6,1,710401,248990,1204096,74504,7781,602108,0
6,1,707434,247016,1368200,73690,8932,683735,0
6,1,711729,247922,1442421,74005,9556,721211,0
6,1,705920,248302,1282314,74286,9147,641042,0
6,1,728708,251956,1404831,77158,9621,702498,0
6,1,707934,248199,1268807,74141,8583,634527,0
6,1,706931,248323,1434573,74173,10815,716984,0
6,1,709803,248005,1368347,74029,9587,684287,0
6,1,711753,247792,1409163,73911,9485,704558,0
6,1,708284,247711,1330566,73763,9003,665304,0
6,1,707358,247493,1348464,73789,8651,674262,0
6,1,732122,252115,1550782,77122,9782,775382,0
6,1,729143,251998,1478808,77051,10294,739381,0
6,1,711509,247289,1306025,73735,8547,653047,0
6,1,710354,247460,1300408,73727,9573,650244,0
6,1,705220,247703,1306519,73954,9492,653318,0
6,1,710594,248288,1351679,74171,9158,675791,0
6,1,710515,248297,1292694,74126,8163,646389,0
6,1,731070,253065,1470695,77617,8789,735315,0
6,1,716032,249491,1576809,74511,9626,788388,0
6,1,712070,248710,1420388,74282,9447,709713,0
6,1,713381,250667,1385363,75195,9434,692519,0
6,1,735588,253992,1506923,77782,10461,752997,0
6,1,715098,249326,1388480,74304,10063,693794,0
6,1,709738,248185,1356193,73880,9075,678136,0
6,1,732887,253207,1523235,77406,10043,761465,0
6,1,712724,248131,1516626,73961,10092,758350,0
6,1,721090,250336,1270441,74973,8628,635274,0
6,1,712137,248236,1366681,74057,9189,683311,0
6,1,711900,248611,1391961,74177,9059,696025,0
6,1,718696,250441,1330401,74898,8674,665273,0
6,1,712494,248327,1443651,74024,9882,721749,0
6,1,714553,249707,1383682,74757,9626,691390,0
6,1,715406,248197,1367242,73938,9163,683593,0
6,1,708654,247869,1328725,73851,8731,664341,0
6,1,714312,249554,1365720,74554,9583,682963,0
6,1,712942,247947,1469999,73880,10219,735042,0
6,1,711475,247296,1328743,73701,9702,664401,0
6,1,736633,252104,1640169,77246,12491,820385,0
6,1,713291,247290,1478770,73962,9922,739428,0
6,1,700784,247088,1449448,73882,9010,724761,0
6,1,728128,252184,1419373,77358,9915,709693,0
6,1,727370,251846,1301805,77285,9446,650880,0
6,1,705600,246553,1363149,73721,8642,681582,0
6,1,708569,246893,1280315,73676,9251,640128,0
6,1,708373,247380,1436186,73876,8980,718031,0
7,1,780335,270167,1455384,81636,10186,727715,0
7,1,758826,265316,1335474,78237,8684,667781,0
7,1,711778,249171,1424502,74066,8628,712263,0
7,1,712805,250134,1299037,74477,9045,649673,0
7,1,703618,247621,1288991,73508,8172,644686,0
7,1,705736,247350,1367666,73512,8685,683674,0
7,1,728114,251852,1384318,76716,9455,691922,0
7,1,705290,247785,1297988,73537,8821,648925,1
7,1,704280,247232,1263377,73471,8919,631706,0
7,1,706612,247082,1460510,73362,9563,730413,0
7,1,708281,247342,1389198,73461,9048,694692,0
7,1,704361,247678,1257764,73627,9373,628828,0
7,1,714850,250404,1435852,74615,9523,717535,0
7,1,711214,249227,1515880,74187,9923,757176,0
7,1,710404,247843,1242591,73705,8534,621217,0
7,1,712804,248744,1481438,74214,10122,740391,0
7,1,709890,248078,1429982,73777,9863,715016,0
7,1,717102,249416,1403079,74506,9317,701658,0
7,1,700580,247072,1463395,73415,9611,731731,0
7,1,705596,248061,1357510,73800,9076,678681,0
7,1,704889,247262,1371795,73548,8824,685845,0
7,1,705422,247815,1368192,73720,8766,684093,0
7,1,708986,247996,1364831,73717,9267,682300,0
7,1,705875,247516,1366847,73492,8295,683470,0
7,1,707132,248286,1430803,73762,9057,715448,0
7,1,703460,247755,1359586,73606,8025,679770,0
7,1,707216,247719,1264217,73610,8133,632182,0
7,1,707623,247731,1353318,73606,9111,676685,0
7,1,710317,248526,1366270,73885,8313,683161,0
7,1,726784,252392,1392161,76957,9111,696036,0
7,1,732959,252976,1269324,77117,9835,634598,0
7,1,703787,247888,1519203,73672,8852,759763,0
7,1,709461,247839,1418812,73653,8759,709412,0
7,1,706021,247563,1391871,73556,7671,695989,0
7,1,708475,248390,1429817,73750,9035,715530,0
7,1,713562,249464,1491793,74358,9304,746035,0
7,1,732773,253093,1382633,77024,10122,691348,0
7,1,706559,248626,1389904,74007,9004,694338,0
7,1,713628,250199,1434785,74538,9404,717233,0
7,1,710518,248300,1363729,73650,9723,681527,0
7,1,714989,250542,1460384,74732,9829,730162,0
7,1,711710,248576,1386852,73900,9916,693213,0
7,1,712328,248606,1329084,73955,8694,664427,0
7,1,709022,249543,1505315,73958,9720,752478,0
7,1,713427,250333,1336385,74451,9198,667900,0
7,1,717822,251154,1398513,74813,9712,699039,0
7,1,715133,251022,1311535,74765,9189,655675,0
7,1,712858,248023,1520314,73636,10950,760100,0
7,1,712288,248574,1278847,73832,8944,639402,0
7,1,712930,249567,1288771,74453,9260,644234,0
7,1,712528,249211,1390412,74277,9101,695214,0
7,1,734555,252785,1341319,77043,9726,670607,0
7,1,711208,248323,1386259,73729,8523,693126,0
7,1,734128,253215,1395394,76908,10269,697614,0
7,1,713615,248534,1496318,73482,11210,748080,0
7,1,707626,247941,1377595,73387,10157,688746,0
7,1,712872,250010,1390486,74443,8818,695332,0
7,1,712655,248232,1542493,73635,11109,771340,0
7,1,707298,247247,1235161,73268,8388,617619,0
7,1,708846,247331,1367325,73304,9059,683696,0
7,1,709927,247331,1362672,73343,9350,681373,0
7,1,708773,247623,1308373,73421,8236,654185,0
7,1,708001,247612,1373963,73431,8772,686917,0
7,1,709117,247732,1423205,73418,9258,711432,0
7,1,711510,247482,1299981,73344,8697,649690,0
7,1,731712,252353,1353309,76761,9125,676481,0
7,1,701108,247405,1369148,72841,8285,684566,0
7,1,703377,247307,1367102,72809,8832,683336,0
7,1,708412,249108,1257532,73597,8933,628793,0
7,1,702482,246733,1343371,72693,8800,671729,0
7,1,705059,247816,1477458,73119,9170,738769,0
7,1,708595,247957,1361586,73999,9588,680802,0
7,1,704133,247785,1353028,73942,8697,676564,0
7,1,707112,247060,1353391,73724,8463,676756,0
7,1,707730,247674,1405411,73970,9152,702882,0
7,1,705967,247571,1278820,73885,8469,639394,0
7,1,711805,249167,1275405,74621,8803,637797,0
7,1,709173,247297,1391192,73789,9798,695499,0
7,1,702252,247203,1361657,73774,9231,680866,0
7,1,706073,247218,1317981,73743,8774,659007,0
7,1,712344,249072,1255368,74565,8656,627749,0
7,1,711502,247855,1469247,74008,9350,734495,0
7,1,706890,247213,1379975,73717,9331,690063,0
7,1,711088,248036,1403295,74018,8999,701674,0
7,1,705935,247447,1377739,73667,9438,688821,0
7,1,708593,247853,1394203,73964,9303,697140,0
7,1,711610,247531,1366508,73874,8931,683225,0
7,1,709886,247384,1312520,73755,8859,656311,0
7,1,709860,247466,1372683,73681,9472,686774,0
7,1,718385,249480,1267965,74547,8539,634055,0
7,1,706255,247322,1365463,73849,9212,682760,0
7,1,710773,248667,1468149,74269,9698,733811,0
7,1,714491,250295,1382210,75062,9199,690916,0
7,1,711881,248323,1462463,74257,8942,731256,0
7,1,712867,248377,1399488,74146,9819,699470,0
7,1,713283,249164,1375245,74327,9744,687667,0
7,1,732289,253512,1525481,77621,10903,762601,0
7,1,709425,248076,1308839,74044,8502,654396,0
7,1,712775,248260,1427274,73921,9500,713671,0
7,1,710944,248895,1475514,74107,9902,737625,0
7,1,710604,248120,1463470,73940,8982,731366,0
7,1,736158,253537,1450623,77512,10223,725294,0
7,1,738545,253431,1421045,77549,10172,710461,0
7,1,713870,249364,1314341,74613,9071,657233,0
7,1,713008,249344,1387254,74408,8819,693533,0
7,1,717003,249982,1328217,74595,8992,664144,0
7,1,713820,249022,1405941,74269,9792,703007,0
7,1,716982,248561,1454736,74220,10287,727280,0
7,1,716218,248645,1470257,74119,9487,735171,0
7,1,734430,253242,1505793,77445,10181,752967,0
7,1,711009,247677,1367850,73717,9139,683971,0
7,1,712235,247940,1361807,73850,9336,680875,0
7,1,711055,248153,1261994,73912,9191,630903,0
7,1,712391,247285,1488632,73859,11591,744203,0
7,1,712536,246954,1308354,73833,9849,654130,0
7,1,701715,246828,1578133,73778,9669,789155,0
7,1,706909,247323,1285766,74008,8624,642846,0
7,1,704912,247091,1233140,73878,8108,616543,0
7,1,711183,248559,1380905,74485,8432,690409,0
7,1,713073,249201,1398983,74671,9813,699170,0
7,1,705536,247287,1293076,73874,7590,646467,0
8,1,761232,265632,1295419,78411,8652,647746,0
8,1,788846,275679,1393530,81351,8330,696831,0
8,1,705304,247587,1397407,73384,9197,697973,0
8,1,727908,252232,1316523,76748,9505,658302,0
8,1,702266,247591,1321772,73501,8955,660836,0
8,1,705815,247343,1466738,73448,9304,733177,0
8,1,706530,247353,1297036,73475,8894,648554,0
8,1,709969,249932,1336477,74523,9705,668247,0
8,1,707590,249329,1360276,74407,9557,680119,1
8,1,708285,247979,1449509,73672,9669,724763,0
8,1,710992,248593,1293035,73889,8604,646579,0
8,1,709425,250183,1308927,74600,9808,654527,0
8,1,707265,247877,1496601,73455,8803,748319,0
8,1,708473,247684,1407829,73509,10071,703820,0
8,1,709005,247290,1266499,73426,8701,633073,0
8,1,708691,247409,1441610,73644,9222,720718,0
8,1,711128,248871,1394044,74055,10718,696384,0
8,1,712806,247489,1483490,73625,9203,741522,0
8,1,727292,252095,1323807,76937,9805,661645,0
8,1,705521,247786,1357352,73679,10282,678668,0
8,1,706437,247824,1289534,73729,8315,644757,0
8,1,705743,247895,1277883,73797,8373,638864,0
8,1,706234,247379,1631786,73527,9190,815927,0
8,1,705995,247880,1262210,73593,8152,631137,0
8,1,704246,248120,1356963,73719,7837,678511,0
8,1,706331,247063,1367135,73326,8313,683453,0
8,1,727085,252591,1349990,77018,8650,675000,0
8,1,706846,247879,1377511,73687,8572,688790,0
8,1,706401,247320,1366320,73525,8004,683194,0
8,1,708404,248305,1362785,73791,8186,681427,0
8,1,709114,248052,1224605,73711,8449,612335,0
8,1,703822,248397,1435370,73787,8350,717578,0
8,1,710196,248432,1461550,73806,8616,730783,0
8,1,715082,250261,1385668,74689,8770,692898,0
8,1,704948,247709,1242558,73641,8212,621344,0
8,1,708357,247783,1306230,73598,8317,653154,0
8,1,704896,246821,1345916,73185,8948,673022,0
8,1,713827,248452,1444927,73817,9701,722503,0
8,1,707060,247956,1429304,73648,9066,714578,0
8,1,712881,249679,1394427,74302,9367,697347,0
8,1,727885,252271,1562603,76747,9958,780617,0
8,1,716839,249553,1499479,74215,9698,749330,0
8,1,713239,248605,1392228,73906,9021,696179,0
8,1,729708,253493,1392394,77076,10230,696165,0
8,1,710226,249153,1388061,73835,9532,694091,0
8,1,710956,249049,1305012,73956,9185,652495,0
8,1,710671,248920,1312940,73845,9429,656627,0
8,1,710066,248164,1527482,73699,9743,763774,0
8,1,708743,247284,1371108,73369,9160,685532,0
8,1,710219,249113,1281343,74055,8310,640620,0
8,1,708625,247816,1457822,73569,9259,728875,0
8,1,714111,249174,1464586,74257,9084,732257,0
8,1,713820,249835,1350957,74441,8532,675476,0
8,1,711099,247992,1288068,73382,8686,644079,0
8,1,715133,248537,1601776,73510,11199,800658,0
8,1,708411,248220,1438993,73451,10181,719426,0
8,1,705121,247780,1381959,73470,9349,690988,0
8,1,709110,247266,1327922,73301,9243,663922,0
8,1,709242,247963,1382570,73533,9203,691337,0
8,1,708926,247713,1400211,73390,9161,700142,0
8,1,731283,251859,1464921,76588,10347,732463,0
8,1,707834,247548,1383139,73366,8750,691608,0
8,1,711269,249298,1359758,74143,8713,679891,0
8,1,707457,247636,1614209,73468,9934,806944,0
8,1,712908,248577,1324372,73848,9151,661910,0
8,1,716160,248430,1663641,73675,10281,831750,0
8,1,701754,247547,1342582,72928,7545,671092,0
8,1,701742,247350,1437941,72789,8890,718623,0
8,1,702166,246949,1305993,72647,9508,653014,0
8,1,707341,247871,1662370,72958,10030,831132,0
8,1,727119,252074,1500886,76328,10007,750170,0
8,1,708323,247602,1376177,73841,8594,688121,0
8,1,712677,248027,1413517,73999,9428,706809,0
8,1,713610,249964,1266299,74936,7851,633113,0
8,1,706803,247773,1417297,73991,8835,708569,0
8,1,703422,246853,1284180,73630,8792,642128,0
8,1,712406,249095,1287154,74597,8610,643626,0
8,1,730724,251836,1425509,77094,10207,712800,0
8,1,706436,247393,1266851,73910,8328,633469,0
8,1,708197,248347,1432103,74162,9211,716075,0
8,1,706122,247094,1312519,73712,8632,656265,0
8,1,714145,249413,1281996,74729,8870,640939,0
8,1,709421,247163,1754451,73704,12289,877232,0
8,1,712649,249159,1324711,74548,9430,662238,0
8,1,704852,247337,1366073,73638,9558,683034,0
8,1,729206,251655,1436844,77047,9484,718405,0
8,1,712285,248189,1360726,74074,8383,680392,0
8,1,711208,248078,1355158,73934,8284,677631,0
8,1,714778,249222,1287497,74575,9194,643802,0
8,1,733363,251991,1326239,77045,9800,663148,0
8,1,704274,246695,1256067,73549,8149,628089,0
8,1,711255,248968,1580009,74339,9656,789303,0
8,1,715130,249426,1497100,74496,10271,748574,0
8,1,711397,249129,1373908,74525,8700,687004,0
8,1,735091,253803,1386285,77720,10727,692977,0
8,1,711727,248872,1437173,74331,9952,718579,0
8,1,712798,249402,1316733,74512,8244,658362,0
8,1,712512,249045,1394246,74382,8854,697080,0
8,1,717479,250472,1301262,74952,9699,650835,0
8,1,710438,248741,1479083,74071,9828,739273,0
8,1,709532,248401,1375356,74052,8674,687687,0
8,1,713761,248668,1320585,74180,8970,660318,0
8,1,717840,249377,1288989,74395,8595,644481,0
8,1,710902,248250,1284728,74011,8628,642214,0
8,1,712961,250009,1315473,74882,8883,657664,0
8,1,711362,248021,1254396,73885,8556,627286,0
8,1,712742,249324,1367837,74412,9339,683247,0
8,1,714684,248002,1428576,74031,9446,714085,0
8,1,713406,247694,1403814,73726,9383,701943,0
8,1,713972,248659,1335504,74160,9263,667798,0
8,1,711238,248215,1415340,73982,9296,707693,0
8,1,733618,252620,1484467,77151,10556,742231,0
8,1,708427,247544,1320356,73727,9420,660079,0
8,1,713159,248108,1519570,74012,10118,759806,0
8,1,712221,247291,1440978,73931,10546,720530,0
8,1,722427,249980,1526554,75111,10507,762986,0
8,1,707830,248455,1366550,74331,9015,683060,0
8,1,703971,247122,1274711,73926,8139,637349,0
8,1,706792,246731,1274161,73744,8363,637017,0
8,1,706737,247204,1437077,73883,9440,718481,0
8,1,707584,247033,1283866,73731,9005,641891,0
9,1,762182,266309,1460208,78608,9387,730157,0
9,1,763966,268083,1443442,79428,8648,721761,0
9,1,712635,249313,1411734,74324,8953,705956,0
9,1,709123,247106,1227546,73289,8729,613716,0
9,1,702898,247082,1381877,73336,9074,690979,0
9,1,707519,248362,1359267,73823,8870,679488,0
9,1,705845,247417,1241640,73431,8453,620565,0
9,1,724920,252224,1387740,76817,9960,693935,0
9,1,704996,247665,1326573,73572,9355,662853,1
9,1,710192,249332,1403590,74374,9349,701781,0
9,1,709385,248253,1307458,73777,8571,653892,0
9,1,729049,252150,1295571,76783,9557,647636,0
9,1,706014,247657,1328765,73478,8800,664448,0
9,1,707623,247365,1400509,73431,9099,700219,0
9,1,710282,248141,1364646,73746,8837,682156,0
9,1,714475,249561,1405114,74469,9754,702255,0
9,1,708024,247959,1463871,73807,11013,731224,0
9,1,714262,248653,1332260,74029,8601,666111,0
9,1,704670,247750,1360885,73689,8835,680475,0
9,1,708237,249464,1363167,74513,10324,681393,0
9,1,709297,249262,1410789,74415,9164,705220,0
9,1,703729,247506,1398690,73637,9256,699333,0
9,1,708351,248491,1570528,73958,9278,785295,0
9,1,708183,248569,1237703,73907,7748,618888,0
9,1,704479,247746,1376887,73656,8345,688483,0
9,1,711910,250109,1398021,74637,8853,699007,0
9,1,708060,248787,1366139,73939,8490,683141,0
9,1,713018,250363,1501192,74759,9807,750566,0
9,1,711391,249544,1548094,74375,8281,774105,0
9,1,710441,249211,1407704,74292,8487,703931,0
9,1,712015,249525,1306514,74375,9023,653321,0
9,1,706180,247988,1304812,73706,8941,652440,0
9,1,713260,250279,1438469,74660,8721,719313,0
9,1,711003,248963,1455630,73978,8111,728004,0
9,1,714511,249263,1396878,74323,9046,698499,0
9,1,707906,248209,1277521,73764,7940,638859,0
9,1,712771,249459,1579571,74260,9454,789844,0
9,1,714562,249117,1305769,74258,9821,652812,0
9,1,704949,247253,1529288,73447,9011,764679,0
9,1,728848,252438,1462938,76796,10422,731338,0
9,1,706569,248004,1462427,73477,10220,731567,0
9,1,714853,249152,1403287,74054,9325,701297,0
9,1,734267,253308,1520685,77254,10633,760324,0
9,1,709374,250289,1357118,74417,9429,678450,0
9,1,715526,250672,1505631,74561,9842,752338,0
9,1,710876,248531,1427312,73742,8997,713400,0
9,1,714448,250264,1343023,74455,9671,671326,0
9,1,708548,248025,1369354,73668,8949,684778,0
9,1,714659,249934,1379837,74454,9899,689846,0
9,1,707866,247902,1276649,73708,8740,638247,0
9,1,707011,247981,1397603,73570,9093,698781,0
9,1,710537,247549,1400289,73515,9670,700116,0
9,1,713155,248252,1407932,73719,9851,703952,0
9,1,710450,248241,1467593,73517,10386,733838,0
9,1,714685,248917,1303311,73702,9436,651460,0
9,1,713903,250861,1463092,74559,9909,731113,0
9,1,708717,249192,1376598,74062,9189,688348,0
9,1,709830,247469,1308196,73387,9335,653974,0
9,1,711667,249006,1387460,74051,9192,693751,0
9,1,713472,249562,1334800,74208,8500,667441,0
9,1,711058,247767,1378694,73421,9780,689388,0
9,1,731472,252548,1367476,76823,9414,683800,0
9,1,711576,247671,1361101,73457,9422,680631,0
9,1,707867,247681,1418495,73405,9530,709211,0
9,1,709736,247038,1455886,73195,9635,727915,0
9,1,715719,248716,1394995,73943,10102,696356,0
9,1,700527,247481,1265859,72851,7574,632970,0
9,1,703494,247667,1387915,72949,8784,693721,0
9,1,703711,247912,1473312,72983,9236,736527,0
9,1,712015,250131,1473092,74059,10153,736542,0
9,1,704922,247417,1315570,72974,8197,657759,0
9,1,707364,247345,1368199,73772,8898,684042,0
9,1,715182,249091,1349090,74582,9569,674613,0
9,1,728044,252214,1406522,77239,9312,703200,0
9,1,707495,248263,1291723,74267,7662,645978,0
9,1,705657,247869,1314794,73873,9504,657442,0
9,1,708786,247311,1402459,73806,8664,701268,0
9,1,708827,247450,1365632,73877,8705,682831,0
9,1,714701,248006,1386329,74012,8892,693215,0
9,1,705752,247197,1378789,73767,8527,689526,0
9,1,705979,247246,1356165,73777,8826,678138,0
9,1,730063,251945,1445353,77134,10782,722650,0
9,1,730280,252132,1663022,77122,12049,831057,0
9,1,709965,247964,1413668,74005,9113,706822,0
9,1,707764,247749,1387352,73853,8800,693730,0
9,1,709380,247512,1357832,73797,8346,678925,0
9,1,711709,248377,1274212,74152,8669,637220,0
9,1,707955,247539,1421484,73760,8941,710779,0
9,1,731688,252623,1467629,77229,9947,733875,0
9,1,713162,248327,1212171,73989,8455,606126,0
9,1,725529,252074,1532493,77197,10341,766247,0
9,1,711485,249341,1479112,74520,9257,739642,0
9,1,710675,248345,1451698,74073,10283,725742,0
9,1,730784,252887,1456920,77609,9612,728264,0
9,1,710256,248294,1414815,74096,9833,707296,0
9,1,735538,253164,1509384,77528,10871,754237,0
9,1,709114,248416,1407580,74138,9118,703594,0
9,1,712363,249401,1323292,74704,9194,661554,0
9,1,736445,254192,1412950,77707,10645,706447,0
9,1,719737,250255,1375347,74736,10116,687761,0
9,1,711767,249683,1374195,74632,9301,686533,0
9,1,712195,248425,1419650,74059,9686,709865,0
9,1,714200,248403,1399561,74110,8908,699876,0
9,1,707713,247978,1370156,73881,8431,685120,0
9,1,712026,249384,1384409,74597,8556,692218,0
9,1,714258,249374,1355318,74369,9041,677690,0
9,1,711051,248959,1453948,74244,10029,726978,0
9,1,720030,250830,1646216,75181,9623,821906,0
9,1,719205,250202,1439971,74851,10323,720052,0
9,1,710466,247726,1438833,73799,9605,719455,0
9,1,711744,249226,1683340,74288,11737,841295,0
9,1,711495,247676,1307488,73845,9281,653785,0
9,1,713942,248674,1441079,74381,9318,720434,0
9,1,710333,246741,1301305,73589,9671,650448,0
9,1,718518,250122,1452946,75084,10265,726526,0
9,1,736745,252187,1511087,77315,11067,755673,0
9,1,706703,247494,1339744,74051,9466,669878,0
9,1,708751,247796,1547240,74120,9290,773645,0
9,1,706917,247321,1385966,73991,8702,692957,0
9,1,708818,248322,1321527,74269,9065,660820,0
9,1,705685,246824,1306175,73674,8030,652750,0
10,1,762464,266256,1448624,78556,10020,724044,0
10,1,758603,265692,1318605,78423,8217,659349,0
10,1,729110,252193,1351259,76745,9727,675643,0
10,1,712942,249051,1368340,74094,9417,684149,0
10,1,705377,247773,1347793,73534,9335,673972,0
10,1,703578,247324,1377686,73501,7927,688758,0
10,1,705673,247373,1275937,73451,8539,637874,0
10,1,703176,247669,1393715,73547,9311,696750,0
10,1,707317,247534,1338520,73508,9023,669137,0
10,1,706030,247452,1432738,73435,8981,716312,0
10,1,716242,250609,1430437,74671,9734,715054,1
10,1,711307,247420,1322389,73359,9883,661033,0
10,1,711678,249827,1452303,74296,9995,725982,0
10,1,714329,250307,1428045,74630,9447,714076,0
10,1,714574,250139,1437720,74581,9130,718745,0
10,1,729331,252174,1350380,76951,9996,674709,0
10,1,707848,247825,1442748,73712,10504,721190,0
10,1,711195,247607,1286465,73688,8817,643254,0
10,1,704568,247682,1254187,73709,8395,627142,0
10,1,724260,252570,1341879,77081,10296,670535,0
10,1,707051,247143,1416485,73524,8638,708069,0
10,1,702902,247098,1372613,73479,8630,686311,0
10,1,708172,247919,1327389,73778,8540,663579,0
10,1,706082,248360,1221591,73838,8404,610831,0
10,1,703058,247512,1342180,73518,8357,671128,0
10,1,725198,251968,1450577,76862,9173,725236,0
10,1,712079,248635,1444696,74045,9114,722364,0
10,1,708032,248125,1295039,73730,8936,647545,0
10,1,706030,247799,1433542,73616,9301,716528,0
10,1,706341,248121,1294493,73690,8281,647345,0
10,1,711065,248499,1263330,73884,7883,631688,0
10,1,709885,249430,1427018,74331,9560,713552,0
10,1,710683,249077,1450721,74042,9116,725306,0
10,1,710253,249225,1362524,74251,8109,681324,0
10,1,707819,247103,1293670,73393,8260,646878,0
10,1,708246,247715,1282075,73642,8286,641077,0
10,1,707950,248169,1271861,73701,8054,635973,0
10,1,710924,248074,1272877,73745,8797,636635,0
10,1,710327,248087,1536855,73747,9640,768409,0
10,1,712788,249093,1435582,73920,10140,717845,0
10,1,717583,249767,1453687,74352,9934,726117,0
10,1,717568,249876,1491255,74424,9632,744633,0
10,1,712894,248916,1532103,73987,9458,766074,0
10,1,712979,249160,1302301,73846,8917,651125,0
10,1,731988,253947,1362664,77224,9774,681177,0
10,1,712174,249273,1356219,74012,9286,677982,0
10,1,710023,248712,1359145,73739,9347,679442,0
10,1,711076,248040,1411073,73628,9963,705519,0
10,1,731284,253094,1272105,77032,9792,636052,0
10,1,710146,248953,1288665,74227,9020,644328,0
10,1,712214,248350,1403452,73728,8902,701699,0
10,1,710890,248449,1395496,73940,8923,697563,0
10,1,710658,248698,1361914,73815,9104,680952,0
10,1,714066,248794,1260530,73684,9388,630218,0
10,1,712295,247915,1376529,73351,9666,688255,0
10,1,709699,248061,1424385,73408,9382,712191,0
10,1,712469,248161,1397163,73475,9617,698553,0
10,1,730201,252239,1338690,76723,9842,669169,0
10,1,707127,247595,1381835,73322,9280,690132,0
10,1,707900,247744,1377965,73471,8684,688910,0
10,1,710487,247372,1449631,73304,9618,724796,0
10,1,708416,247942,1374283,73535,8492,687048,0
10,1,711245,247781,1289050,73493,8987,644450,0
10,1,705404,247183,1318035,73292,8977,659022,0
10,1,730633,252677,1351191,76877,9587,675579,0
10,1,712582,247512,1515805,73345,9835,757786,0
10,1,705613,249557,1282712,73734,7631,641091,0
10,1,702508,247417,1408611,72830,9220,704118,0
10,1,725852,252711,1450258,76358,11131,725134,0
10,1,707653,248445,1466396,73166,9896,733243,0
10,1,704595,247703,1425841,73012,9082,712994,0
10,1,711678,249734,1285499,74821,9246,642776,0
10,1,709902,247905,1359096,73977,9403,679616,0
10,1,713465,249231,1286807,74558,8520,643452,0
10,1,705806,247044,1379948,73758,8670,689989,0
10,1,733533,252019,1361366,77142,9721,680343,0
10,1,715341,250524,1299756,75176,8212,649907,0
10,1,708240,247288,1390451,73765,9052,695453,0
10,1,717993,249645,1311991,74812,8935,656020,0
10,1,704932,247244,1287091,73831,8422,643589,0
10,1,707775,247807,1306407,73990,8284,653261,0
10,1,705867,246197,1335008,73518,8894,667351,0
10,1,709641,247973,1386882,73960,9061,693403,0
10,1,716896,249875,1349348,74951,9088,674624,0
10,1,705027,247194,1441842,73584,9423,721549,0
10,1,706882,247213,1371802,73809,8731,685958,0
10,1,707498,246912,1283637,73615,8298,641855,0
10,1,710146,247566,1383267,73726,8216,691671,0
10,1,712013,247249,1404682,73635,8923,702377,0
10,1,709954,247446,1287505,73721,8367,643714,0
10,1,706512,248745,1270340,74445,8672,635265,0
10,1,705827,247168,1464907,73786,9764,732055,0
10,1,716438,250723,1382960,75171,10105,691363,0
10,1,709934,248797,1265403,74466,8525,632746,0
10,1,711081,248681,1393586,74286,9431,696715,0
10,1,712359,247883,1592890,73922,9750,796076,0
10,1,726590,251901,1536398,77071,10713,768042,0
10,1,712870,248465,1404103,74248,8690,702175,0
10,1,714364,249598,1366043,74548,8902,683197,0
10,1,717625,249587,1484744,74379,10210,742455,0
10,1,711623,248185,1582193,73969,9302,791242,0
10,1,715650,249121,1462650,74286,9224,731358,0
10,1,715659,249145,1281826,74468,8674,640963,0
10,1,730872,252921,1502094,77375,9681,751012,0
10,1,706239,247706,1481259,73831,9464,740664,0
10,1,736804,253914,1350569,77621,9631,675169,0
10,1,716150,249815,1385241,74554,9209,692448,0
10,1,735266,253438,1498463,77613,10094,748557,0
10,1,714121,248585,1345520,74212,9754,672889,0
10,1,711025,248285,1388367,74033,9309,694196,0
10,1,711613,247835,1467322,73827,9463,733676,0
10,1,711386,248115,1295207,73932,9054,647643,0
10,1,711176,247937,1391867,73849,9266,695941,0
10,1,712243,247529,1380609,73872,9615,690355,0
10,1,757348,260435,1668274,79794,11500,834220,0
10,1,713108,246770,1474343,73672,10459,736992,0
10,1,704507,247671,1357459,74115,9949,678388,0
10,1,705282,246844,1501569,73759,10623,750394,0
10,1,704992,247010,1277018,73867,8582,638524,0
10,1,711544,249047,1418482,74685,9339,708941,0
10,1,709015,248315,1428045,74181,9171,714054,0
11,1,782155,270644,1535053,81821,9926,767361,0
11,1,759123,266012,1426263,78486,8200,713145,0
11,1,706163,247220,1290765,73328,8263,645432,0
11,1,708206,247408,1368741,73419,8591,684405,0
11,1,732939,257420,1406192,76661,9972,703229,0
11,1,705992,247094,1403302,73356,8847,701446,0
11,1,723356,251697,1317363,76719,9018,658665,0
11,1,705102,246829,1307957,73184,8736,654053,0
11,1,709202,248651,1416771,74047,9777,708249,0
11,1,707017,247880,1319420,73520,8471,659744,0
11,1,712367,248065,1251685,73578,9387,625646,0
11,1,704674,247984,1363965,73624,9322,681915,1
11,1,709544,247931,1370942,73542,9395,685453,0
11,1,728664,252287,1360129,76812,10412,680066,0
11,1,730061,252529,1472394,76932,9873,735596,0
11,1,736312,257187,1403021,76488,9611,701514,0
11,1,710826,247968,1562475,73794,9545,781090,0
11,1,710617,247576,1357694,73690,8846,678878,0
11,1,704182,248074,1286794,73732,8682,643493,0
11,1,701724,247602,1436822,73566,8746,718451,0
11,1,708016,248085,1466373,73826,8649,733138,0
11,1,705339,247744,1427293,73681,8799,713655,0
11,1,712093,249752,1460198,74599,9463,730140,0
11,1,710598,248611,1311242,73903,8535,655667,0
11,1,705579,248849,1257814,73990,7891,628953,0
11,1,707609,248104,1280251,73693,8262,640158,0
11,1,708685,248180,1378661,73752,8603,689392,0
11,1,707492,248588,1230166,73944,8141,615126,0
11,1,710460,249015,1390547,73942,8396,695306,0
11,1,706519,248534,1376285,73813,8950,688176,0
11,1,710143,248671,1474979,73953,8539,737538,0
11,1,703638,247478,1496151,73484,10311,747876,0
11,1,709449,248652,1419701,73874,8587,709892,0
11,1,709284,248365,1382877,73776,9280,691485,0
11,1,712195,248911,1397096,74010,8029,698542,0
11,1,709076,248254,1311072,73821,8142,655642,0
11,1,707420,247966,1357517,73691,7779,678942,0
11,1,711345,248127,1325461,73687,9753,662769,0
11,1,707694,248038,1295957,73754,9238,647605,0
11,1,712935,249487,1451795,74217,9771,725004,0
11,1,711667,247836,1522233,73471,9235,760189,0
11,1,712633,248810,1486472,73865,9860,742968,0
11,1,711318,248393,1345107,73801,9092,672210,0
11,1,717566,249208,1262279,73906,8917,631120,0
11,1,708623,248653,1320344,73654,8620,660034,0
11,1,708322,248217,1382303,73633,9190,691027,0
11,1,707060,248419,1260759,73649,9697,630368,0
11,1,708781,247894,1410838,73544,9608,705278,0
11,1,710393,247861,1501323,73550,10161,749700,0
11,1,704373,247297,1311191,73456,8862,655571,0
11,1,711704,248200,1361983,73620,8473,681028,0
11,1,710036,247984,1380578,73678,8333,690052,0
11,1,730003,252614,1336334,76946,9639,668141,0
11,1,715959,250300,1301278,74557,9515,650566,0
11,1,711894,248082,1407592,73401,9860,703805,0
11,1,710006,248835,1385888,73702,9132,692943,0
11,1,712410,248577,1303700,73670,9423,651816,0
11,1,708273,247818,1654155,73500,10783,826940,0
11,1,706709,247874,1367627,73509,9130,683086,0
11,1,707585,247445,1437548,73317,8845,718760,0
11,1,713274,249053,1383418,74115,9608,691720,0
11,1,709541,248784,1338133,73972,8631,669120,0
11,1,711314,247794,1394367,73437,9605,697258,0
11,1,705436,247237,1395808,73257,9292,697909,0
11,1,710759,247321,1341658,73273,9178,670792,0
11,1,712311,248020,1374513,73533,9658,687053,0
11,1,697938,247506,1386784,72871,7934,693194,0
11,1,701197,247338,1377792,72795,9148,688879,0
11,1,703517,248008,1358741,73082,9258,679325,0
11,1,703604,247368,1435005,72784,9823,718009,0
11,1,708737,249344,1360351,73690,9030,680217,0
11,1,708287,247196,1554091,73760,10506,777031,0
11,1,708213,246935,1257358,73672,8618,628709,0
11,1,706240,247535,1375859,73945,8874,687927,0
11,1,708033,247086,1282401,73794,8920,641208,0
11,1,710457,247262,1338198,73788,9242,669136,0
11,1,708552,248001,1375189,74076,8678,687665,0
11,1,710295,248453,1294363,74381,8914,647291,0
11,1,711853,247414,1415722,73895,9066,707907,0
11,1,709157,249159,1280621,74738,7924,640367,0
11,1,705476,247237,1343224,73775,8401,671646,0
11,1,712778,248915,1316597,74536,8639,658203,0
11,1,706174,247124,1363648,73704,9236,681783,0
11,1,710260,247610,1336355,73847,8292,668079,0
11,1,705260,247432,1630677,73706,10913,815360,0
11,1,708593,248274,1278783,74310,8375,639546,0
11,1,713038,249023,1230752,74586,9071,615265,0
11,1,728249,251767,1462594,76931,9537,731025,0
11,1,713466,248483,1461036,74027,8995,730544,0
11,1,712773,248792,1246948,74353,8409,623517,0
11,1,712672,246203,1335753,73485,8220,667891,0
11,1,730540,252417,1497560,77248,10607,748812,0
11,1,712021,248960,1450350,74339,10001,724956,0
11,1,711163,248638,1380206,74417,8910,690123,0
11,1,714993,249264,1543112,74452,10533,771580,0
11,1,714279,249077,1501899,74418,9630,750764,0
11,1,709583,249471,1324747,74499,8996,662667,0
11,1,711102,248240,1388284,74089,8904,694238,0
11,1,709704,248339,1691252,74056,9681,845659,0
11,1,712149,247844,1394763,73712,9767,697414,0
11,1,710603,247756,1425278,73835,9538,712673,0
11,1,734060,253109,1494491,77412,9406,747346,0
11,1,716045,248620,1371456,74174,9725,685768,0
11,1,708332,248483,1347305,74129,9105,673641,0
11,1,708940,249077,1307550,74294,8780,653813,0
11,1,711811,247886,1307796,73714,8712,653922,0
11,1,716511,250160,1548633,74810,9606,772960,0
11,1,714713,248531,1485440,74155,9367,742251,0
11,1,714561,248351,1267939,74154,8325,634008,0
11,1,713709,249063,1441350,74209,9158,720217,0
11,1,717823,249592,1395635,74586,9030,697905,0
11,1,710383,247953,1423810,73916,9743,711958,0
11,1,709855,247904,1284544,73890,8991,642096,0
11,1,715607,249286,1388429,74693,9387,694195,0
11,1,713782,247867,1453189,74122,9841,726626,0
11,1,712030,246779,1440624,73756,9793,720688,0
11,1,708299,248008,1475561,74188,9998,737648,0
11,1,725950,252411,1588222,77422,10832,793740,0
11,1,729536,251875,1475406,77283,9743,737712,0
11,1,704369,246923,1342452,73782,8530,671252,0
11,1,730503,253006,1334501,77516,9559,667066,0
12,1,759060,265696,1379608,78453,8169,690105,0
12,1,760443,267007,1440085,78980,8773,720150,0
12,1,708582,248500,1440642,73916,10038,720284,0
12,1,706330,246886,1272383,73197,7882,636277,0
12,1,704328,247731,1420079,73583,9108,710938,0
12,1,725395,251542,1392613,76684,9443,696296,0
12,1,705010,246934,1286574,73315,9341,643309,0
12,1,705376,246943,1304216,73327,8959,652217,0
12,1,704710,247553,1317747,73521,8996,658834,0
12,1,730062,252433,1373228,76936,9884,686451,0
12,1,709476,247431,1330940,73353,9202,665323,0
12,1,728870,252808,1384218,76948,9930,692129,0
12,1,708512,248448,1374844,73709,9123,687422,1
12,1,704714,246992,1416304,73325,9229,707882,0
12,1,711844,247985,1438724,73677,9008,719387,0
12,1,709204,247785,1318646,73744,8907,659101,0
12,1,709842,247409,1396606,73536,9760,697850,0
12,1,710695,247647,1358879,73640,9630,679487,0
12,1,705659,248358,1424774,73923,8878,712449,0
12,1,708720,248163,1372866,73886,9646,686220,0
12,1,707271,248094,1288537,73772,8465,644265,0
12,1,705129,248089,1339460,73848,8250,669628,0
12,1,727424,252173,1412441,76971,9798,706282,0
12,1,708178,247667,1359841,73532,9222,679559,0
12,1,707276,249173,1407058,74253,8375,703586,0
12,1,709112,248775,1376677,74136,8732,688463,0
12,1,707637,247994,1459355,73698,10157,729560,0
12,1,706523,247277,1234011,73398,8285,617058,0
12,1,706896,247756,1279041,73563,8058,639545,0
12,1,710775,248130,1396535,73732,8541,698308,0
12,1,706973,247446,1280262,73519,7775,640173,0
12,1,704493,248154,1493382,73683,10015,746718,0
12,1,706834,248116,1329972,73742,8527,665029,0
12,1,704476,246951,1328548,73389,8371,664310,0
12,1,708539,247787,1276885,73643,7655,638441,0
12,1,710968,249538,1423145,74485,7920,711590,0
12,1,713476,250155,1370051,74719,8469,685082,0
12,1,709617,247404,1396742,73455,9553,697974,0
12,1,730363,253183,1469459,77166,10126,734942,0
12,1,707729,248448,1461924,73703,9642,730582,0
12,1,714292,249821,1460227,74290,9360,729681,0
12,1,711022,248451,1405600,73742,8594,702312,0
12,1,713254,249396,1417465,74165,9202,708692,0
12,1,718286,250115,1416688,74169,10049,708337,0
12,1,713739,250498,1417968,74500,9232,709070,0
12,1,732995,254408,1370699,77407,9897,685378,0
12,1,718210,249560,1325085,74235,9557,662309,0
12,1,729975,252846,1370662,76982,10078,685097,0
12,1,708321,248048,1307650,73566,8868,653871,0
12,1,707796,247913,1233449,73650,8497,616667,0
12,1,707669,246976,1407174,73249,9014,703531,0
12,1,706388,247170,1331293,73415,8212,665625,0
12,1,707173,247724,1282563,73489,8643,641250,0
12,1,710536,248233,1327314,73660,9561,663692,0
12,1,716865,249965,1432494,74302,9689,715974,0
12,1,708611,248086,1486311,73447,10220,742904,0
12,1,718462,251071,1442823,74744,9251,721379,0
12,1,710562,248340,1377014,73880,8953,688564,0
12,1,707146,247732,1405696,73422,9466,702908,0
12,1,727773,251791,1453509,76509,9827,726804,0
12,1,730108,252369,1414855,76749,9951,707370,0
12,1,715008,250084,1379274,74479,8623,689694,0
12,1,715707,249980,1300464,74412,8894,650282,0
12,1,712966,247741,1312033,73458,9893,655748,0
12,1,710650,247633,1389937,73433,8910,694967,0
12,1,711397,248228,1477744,73626,9625,738888,0
12,1,714124,248286,1348651,73500,7227,674370,0
12,1,721851,252177,1444993,76205,10678,722488,0
12,1,700515,247174,1269980,72750,8591,635050,0
12,1,703755,247622,1382499,72860,9545,691277,0
12,1,704531,247386,1416700,72851,9338,708361,0
12,1,706660,246988,1376528,73596,9811,688309,0
12,1,707333,247196,1362152,73805,8780,681121,0
12,1,705396,247280,1232364,73795,7783,616202,0
12,1,707993,247416,1376153,73844,8934,688161,0
12,1,710085,247494,1311042,73840,8990,655766,0
12,1,704631,246809,1331841,73580,8382,666046,0
12,1,710562,247847,1348861,74008,8624,674358,0
12,1,709857,246987,1296309,73707,8868,648190,0
12,1,723887,251648,1418763,77057,9138,709403,0
12,1,705017,247160,1406233,73730,8754,703191,0
12,1,708210,247286,1351729,73822,8303,675919,0
12,1,705830,247437,1327624,73832,9338,663702,0
12,1,711207,247826,1404083,73954,8852,701780,0
12,1,708441,248280,1335284,74027,9361,667565,0
12,1,708297,247985,1371389,74007,8979,685730,0
12,1,729808,251621,1356067,77019,10177,678021,0
12,1,708714,247598,1289223,73808,8032,644659,0
12,1,712422,248498,1279908,74182,8473,639970,0
12,1,709919,247160,1390495,73533,8423,695281,0
12,1,734918,252243,1404253,77253,9671,702045,0
12,1,710523,248649,1441937,74176,9903,720740,0
12,1,709218,248249,1338579,74049,9374,669057,0
12,1,716204,248766,1291981,74394,8683,646025,0
12,1,711366,248590,1364453,74318,9178,682365,0
12,1,732003,253142,1582347,77522,11123,790847,0
12,1,707065,248794,1449375,74249,10002,724710,0
12,1,732192,253851,1465211,77781,9865,732657,0
12,1,763283,263448,1631781,80510,11285,815529,0
12,1,719119,250839,1353183,75006,10273,676662,0
12,1,731472,252748,1511484,77261,10154,755755,0
12,1,709899,247933,1401234,73941,8631,700649,0
12,1,733756,253194,1345689,77399,10152,672842,0
12,1,709192,248911,1277665,74382,9010,638889,0
12,1,732156,252498,1417914,77234,10403,708946,0
12,1,714493,249278,1291079,74379,8448,645576,0
12,1,714087,249546,1529668,74448,8977,764875,0
12,1,715050,249133,1421888,74401,8688,710950,0
12,1,714134,248347,1242689,74141,8311,621373,0
12,1,711923,248758,1389083,74142,9288,694569,0
12,1,711551,247617,1342617,73782,9255,671362,0
12,1,709530,247566,1431084,73694,9358,715571,0
12,1,714604,249085,1417432,74256,9513,708649,0
12,1,710644,247445,1411663,73825,9976,705888,0
12,1,710371,246943,1457472,73800,9913,728681,0
12,1,717906,249904,1404610,74960,9521,702270,0
12,1,705385,246876,1231266,73781,8322,615667,0
12,1,704026,246870,1542158,73763,10637,770934,0
12,1,707686,247382,1349649,73932,8414,674838,0
12,1,708480,248863,1480386,74706,10226,740153,0
12,1,707121,247459,1295008,73869,9121,647466,0
13,1,757040,265215,1505282,78223,8654,752653,0
13,1,767745,267597,1350109,79260,9549,675118,0
13,1,704415,247311,1380679,73275,8885,690350,0
13,1,705359,247159,1278948,73329,7996,639571,0
13,1,704038,249092,1386287,74092,8133,693327,0
13,1,702588,246843,1320085,73333,8297,660038,0
13,1,706787,248028,1271319,73692,9316,635376,0
13,1,705895,247031,1406463,73336,9053,703260,0
13,1,702898,247109,1321614,73396,8954,660831,0
13,1,707935,247341,1340161,73520,8812,670034,0
13,1,730468,251946,1365246,76604,9949,682321,0
13,1,707725,247691,1415517,73496,9150,707422,0
13,1,705966,247947,1307046,73594,8976,653557,1
13,1,705747,247522,1388851,73472,9298,694386,0
13,1,710077,248270,1303959,73743,9168,651717,0
13,1,706785,246856,1420020,73377,8714,709950,0
13,1,713661,249039,1506269,74285,10412,753523,0
13,1,709599,247640,1339843,73703,8753,669947,0
13,1,709299,250182,1322969,74743,9417,661542,0
13,1,705798,247185,1459842,73513,9988,729709,0
13,1,703575,247394,1355931,73655,7997,677959,0
13,1,706437,248649,1409329,74147,8880,704618,0
13,1,705760,248123,1278419,73817,9052,639190,0
13,1,730076,253073,1380079,77180,8696,689991,0
13,1,704396,248105,1301505,73772,8474,650836,0
13,1,705337,247552,1359618,73560,8559,679879,0
13,1,727291,252123,1320226,76794,9398,660113,0
13,1,714869,249639,1354666,74486,9288,677402,0
13,1,711524,249980,1383989,74641,8771,692033,0
13,1,709744,247638,1276004,73542,8478,638032,0
13,1,712080,249803,1421448,74486,8890,710790,0
13,1,709200,250148,1458765,74623,10166,729167,0
13,1,705377,247949,1400842,73649,8686,700462,0
13,1,705229,247622,1355599,73463,8331,677790,0
13,1,709773,248290,1344842,73839,8058,672461,0
13,1,706053,247261,1318050,73394,8252,659066,0
13,1,710177,248562,1382378,73904,8557,691228,0
13,1,711616,248603,1541895,73866,9338,770497,0
13,1,708125,248556,1435097,73745,8941,717450,0
13,1,709180,247925,1362231,73573,9174,680940,0
13,1,712105,248345,1316994,73684,8768,658602,0
13,1,715065,250467,1389896,74688,8726,695027,0
13,1,714177,249919,1395237,74529,9297,697611,0
13,1,712422,248710,1395394,73697,10109,697653,0
13,1,707338,248451,1386717,73558,9445,693239,0
13,1,710131,248699,1355751,73713,9618,677832,0
13,1,712663,248267,1327632,73750,9646,663843,0
13,1,709293,247712,1401263,73519,9074,700476,0
13,1,701788,245879,1387616,72884,9718,693768,0
13,1,707134,248783,1278629,74143,8834,639177,0
13,1,708580,247824,1416877,73514,8983,708205,0
13,1,708591,247591,1355108,73519,8589,677535,0
13,1,709098,247892,1342247,73602,8917,671087,0
13,1,709788,247650,1281234,73376,9058,640572,0
13,1,741163,254466,1374977,77743,10122,687289,0
13,1,713348,250210,1493213,74378,9887,746222,0
13,1,712150,248361,1374497,73531,9636,687189,0
13,1,706825,247349,1283985,73340,8841,641881,0
13,1,709654,248362,1329594,73718,8251,664832,0
13,1,706373,247852,1332120,73448,8472,666103,0
13,1,710335,247595,1398503,73436,10005,699295,0
13,1,709459,247707,1375917,73478,8393,688030,0
13,1,708876,247524,1358099,73407,9171,679046,0
13,1,711524,247414,1262447,73339,9567,631160,0
13,1,711000,248185,1376657,73610,8681,688391,0
13,1,714107,249381,1584572,74096,9657,792238,0
13,1,719795,249931,1514985,74364,9511,757545,0
13,1,702777,247875,1362971,73012,8888,681515,0
13,1,702812,247946,1400130,72976,10011,700035,0
13,1,703186,247676,1487040,72918,9915,743358,0
13,1,703981,247551,1338855,72958,9523,669526,0
13,1,709113,247952,1378212,74204,10103,688709,0
13,1,709074,248432,1277599,74358,8538,638917,0
13,1,707289,248271,1346526,74148,8760,673293,0
13,1,713861,249494,1315501,74777,8517,657724,0
13,1,708741,247513,1358213,73846,8738,679145,0
13,1,711187,248546,1293972,74405,8882,646894,0
13,1,711803,248757,1292289,74504,8518,646196,0
13,1,715283,248546,1294195,74409,9326,647187,0
13,1,710283,247743,1211937,73935,9219,606017,0
13,1,707926,248515,1309308,74146,8172,654658,0
13,1,710815,248511,1322692,74403,9476,661492,0
13,1,709395,248612,1575130,74212,11134,787596,0
13,1,707590,246789,1354555,73603,8315,677230,0
13,1,710637,249577,1332469,74687,10326,665797,0
13,1,708979,247724,1333184,73962,9123,666548,0
13,1,710755,248313,1401249,74089,8989,700670,0
13,1,708327,247763,1347997,73840,8293,674027,0
13,1,708780,247165,1295945,73598,8511,647978,0
13,1,715431,249549,1391442,74649,8821,695780,0
13,1,712982,247199,1265556,73809,8979,632831,0
13,1,710437,249076,1384249,74577,10560,691736,0
13,1,716298,249823,1332206,74794,10137,666202,0
13,1,715393,248761,1424516,74428,9030,712303,0
13,1,710937,248433,1474742,74161,10249,737401,0
13,1,714232,249583,1356342,74555,10132,678119,0
13,1,719053,249940,1360239,74834,10145,680901,0
13,1,710597,248982,1333227,74410,9263,666574,0
13,1,710511,248303,1384137,74000,9615,691695,0
13,1,712757,248674,1572206,74056,9869,786121,0
13,1,712776,249059,1387511,74279,8966,693822,0
13,1,710455,248560,1422923,74105,8483,711505,0
13,1,714138,248105,1236846,74011,8173,618423,0
13,1,708018,248088,1376780,73973,8890,688422,0
13,1,709482,247713,1387726,73783,9238,693913,0
13,1,710622,248207,1312620,74079,8373,656345,0
13,1,710576,248577,1438036,74151,9209,718691,0
13,1,713822,248809,1446230,74300,9979,722660,0
13,1,740020,254171,1328150,77838,9271,664086,0
13,1,734554,254169,1441621,77711,11383,720737,0
13,1,713039,248092,1320661,73887,8363,660328,0
13,1,733105,251983,1469683,77015,10676,734763,0
13,1,710057,247786,1298873,73804,8390,649491,0
13,1,712210,247237,1332938,73777,9246,666308,0
13,1,709044,246976,1470183,73784,9895,735080,0
13,1,732432,251763,1599428,77223,10719,799654,0
13,1,727850,252307,1420420,77386,9607,710187,0
13,1,707082,248507,1532551,74447,10359,766419,0
13,1,706566,247379,1324568,73982,8979,661567,0
13,1,727146,252322,1458475,77400,10538,729026,0
13,1,705551,247474,1226141,73916,9201,613067,0
14,1,757396,265278,1510182,78254,9861,754689,0
14,1,763984,266272,1293787,78577,8892,646925,0
14,1,726393,252385,1458533,76850,9352,729328,0
14,1,704277,246786,1358400,73159,8114,679197,0
14,1,711762,247948,1405447,73696,9072,702873,0
14,1,707293,248526,1455601,74030,9387,727945,0
14,1,705065,247586,1349420,73618,8579,674782,0
14,1,707395,247023,1304715,73326,9072,652300,0
14,1,711324,249155,1491217,74323,9183,745398,0
14,1,709650,249008,1306348,74263,9013,653290,0
14,1,709200,247869,1319049,73569,8709,659378,0
14,1,706195,247512,1372389,73463,8659,685773,0
14,1,715856,249983,1339156,74505,10430,669516,0
14,1,709880,247938,1395236,73648,9861,697611,0
14,1,713620,250229,1450633,74764,9650,725018,0
14,1,711008,248217,1376222,73851,9774,688001,0
14,1,717346,250459,1440743,74858,9328,719631,1
14,1,715368,250203,1365130,74789,9358,682626,0
14,1,723856,252361,1272889,77003,9173,636431,0
14,1,725525,252214,1300331,76999,9769,650127,0
14,1,704216,247215,1392557,73504,8864,696272,0
14,1,704261,247948,1299541,73754,9102,649701,0
14,1,708578,247972,1288270,73783,9475,644208,0
14,1,706325,247699,1419363,73626,8988,709659,0
14,1,703942,248167,1445363,73805,8933,722713,0
14,1,705304,248068,1345763,73752,8184,672936,0
14,1,707371,248005,1394927,73742,8301,697549,0
14,1,732300,252796,1476113,77048,9932,738025,0
14,1,707764,248938,1349170,73964,7776,674611,0
14,1,730838,252502,1367284,76947,9006,683658,0
14,1,709345,248244,1404329,73805,9174,702146,0
14,1,726427,252810,1420681,77052,10122,709502,0
14,1,706232,247963,1436852,73733,9114,718453,0
14,1,725545,252195,1270574,76860,8960,635253,0
14,1,708109,248084,1352331,73665,7588,676203,0
14,1,707687,248370,1276285,73859,8080,638187,0
14,1,706411,247430,1317185,73504,7635,658620,0
14,1,716089,249471,1419951,74274,9463,710029,0
14,1,734131,257902,1526603,76501,9420,763509,0
14,1,714596,250443,1605398,74671,9820,802815,0
14,1,711671,249036,1425375,74145,9689,712156,0
14,1,715598,249531,1410092,74193,9510,705053,0
14,1,715508,249122,1330828,74107,9255,665423,0
14,1,721292,251043,1423492,74723,9757,711703,0
14,1,712025,250209,1331171,74263,9627,665356,0
14,1,711663,249192,1442680,73896,9434,721282,0
14,1,712241,248388,1458895,73754,9642,729465,0
14,1,711798,249630,1399411,74355,9360,699926,0
14,1,710854,247604,1293285,73517,9219,646781,0
14,1,707385,248036,1253157,73723,8788,626443,0
14,1,709535,247939,1377201,73558,8756,688600,0
14,1,702525,245883,1250378,72967,7957,625186,0
14,1,709047,247800,1355265,73540,8941,677579,0
14,1,709618,248008,1398766,73571,9244,699361,0
14,1,710573,247530,1340840,73241,9223,670185,0
14,1,706126,247811,1381187,73267,10170,690501,0
14,1,713151,249862,1443916,74229,9142,721917,0
14,1,704430,246836,1377207,73097,9501,688513,0
14,1,707023,247449,1384942,73328,9207,692541,0
14,1,716512,250407,1405101,74601,9493,702626,0
14,1,713395,249318,1385777,74081,9690,693034,0
14,1,705852,247354,1272506,73402,8115,636289,0
14,1,730458,252552,1398981,76799,9475,699264,0
14,1,715580,249316,1289196,74144,10102,644510,0
14,1,709681,247588,1390523,73354,9458,695141,0
14,1,712395,248466,1629811,73700,9472,815336,0
14,1,713292,247772,1368543,73410,7882,684217,0
14,1,704612,247508,1311692,72853,8606,656044,0
14,1,704657,249058,1315091,73558,9750,657463,0
14,1,726673,252437,1486053,76282,10071,743072,0
14,1,711046,250509,1612899,74164,10926,806467,0
14,1,706314,247740,1407959,73907,10268,703946,0
14,1,709535,247238,1411464,73823,9423,705779,0
14,1,710019,249375,1280633,74661,8914,640200,0
14,1,710217,248930,1302112,74499,8013,651074,0
14,1,708596,247056,1443506,73725,9034,721724,0
14,1,710522,248275,1344603,74109,8561,672337,0
14,1,727885,251616,1412791,77060,9720,706316,0
14,1,708695,246537,1362608,73619,9415,681356,0
14,1,710324,248436,1294005,74194,9793,647036,0
14,1,705881,247614,1385074,73959,9204,692638,0
14,1,710212,249346,1233869,74754,8870,616952,0
14,1,707362,247120,1297927,73691,8388,648966,0
14,1,726648,251701,1453236,76935,10185,726544,0
14,1,727429,252420,1459109,77174,11484,729441,0
14,1,712624,248582,1307092,74354,9348,653565,0
14,1,709576,247826,1418196,73905,8527,709134,0
14,1,713823,249207,1269088,74488,8652,634608,0
14,1,711311,248465,1351945,74064,9015,676007,0
14,1,730728,252041,1418085,76999,9154,709053,0
14,1,711265,247231,1413737,73807,9186,706907,0
14,1,707925,247342,1297909,73868,8695,649001,0
14,1,712381,248712,1335663,74322,10019,667868,0
14,1,718640,250206,1313509,75150,8713,656914,0
14,1,714453,249557,1434192,74789,9887,717108,0
14,1,713147,248869,1479840,74326,9458,739955,0
14,1,718728,250520,1504500,75104,10306,751701,0
14,1,710233,249016,1298087,74407,9250,648937,0
14,1,709703,248354,1462491,74084,9675,731306,0
14,1,713949,248992,1519204,74176,9958,759625,0
14,1,709360,247485,1396218,73677,8492,698223,0
14,1,716456,250268,1302409,74900,9300,651018,0
14,1,713125,248090,1366520,74007,9143,683169,0
14,1,713974,250252,1291132,74988,9081,645697,0
14,1,709907,247936,1379433,73992,9282,689763,0
14,1,712128,249322,1392787,74623,8154,696480,0
14,1,706326,246907,1412976,73605,8982,706158,0
14,1,713174,247920,1410515,73986,9034,704900,0
14,1,714579,248219,1286552,74058,8202,643316,0
14,1,715093,249013,1324234,74239,9552,661967,0
14,1,713068,248527,1338534,74072,8437,669267,0
14,1,712076,247766,1374034,73773,9428,687061,0
14,1,714125,249992,1384036,74833,9548,691919,0
14,1,717307,249482,1366648,74661,9546,683524,0
14,1,709389,247515,1358909,73967,9582,679261,0
14,1,714063,247369,1473825,73931,10284,736941,0
14,1,702457,246700,1422310,73749,8954,711032,0
14,1,702278,246895,1642022,73771,10833,821187,0
14,1,710949,249034,1493821,74684,9468,746011,0
14,1,709752,247453,1362957,74024,9497,681334,0
14,1,706626,248265,1302319,74334,9636,651178,0
15,1,761367,267173,1475549,79095,8608,737835,0
15,1,767655,267458,1364807,79136,9777,682440,0
15,1,707380,246812,1578506,73246,10097,788301,0
15,1,705499,247161,1264904,73351,8298,632685,0
15,1,708612,246874,1395870,73344,9685,697916,0
15,1,703024,247303,1398089,73484,8231,699030,0
15,1,703302,247132,1275931,73393,8021,637931,0
15,1,704537,246601,1409023,73181,8664,704422,0
15,1,706684,247721,1320400,73578,8454,660080,0
15,1,704341,246233,1245505,73239,8671,622608,0
15,1,716121,249867,1411789,74449,8870,705412,0
15,1,709699,248936,1406666,74029,9670,703350,0
15,1,710600,248061,1312475,73594,9599,656166,0
15,1,710724,248389,1460656,73740,9178,730258,0
15,1,727899,252293,1348401,76999,9576,673962,0
15,1,710468,248443,1460764,73934,9329,730244,0
15,1,709162,248505,1270385,73990,8528,635275,1
15,1,713507,248578,1261531,74026,8776,630817,0
15,1,704300,248458,1269878,73956,8537,634994,1
15,1,702190,247803,1304381,73762,9112,652212,0
15,1,705701,249766,1461721,74675,10018,730930,1
15,1,709565,249222,1464464,74371,9870,732260,0
15,1,705846,249121,1360579,74178,9632,680132,1
15,1,708532,248995,1392944,74313,8890,696493,0
15,1,704578,248013,1274595,73841,8166,636957,1
15,1,702677,247785,1388866,73752,9521,694436,0
15,1,707116,249640,1409125,74616,9406,704515,1
15,1,706022,248036,1356428,73755,9170,678245,1
15,1,706076,247408,1317424,73560,8980,658798,0
15,1,705660,247980,1366018,73670,8493,682794,1
15,1,711167,249482,1428541,74359,9126,714149,0
15,1,710924,249990,1378222,74622,8771,689178,1
15,1,709948,248375,1249915,73859,8828,625014,1
15,1,704357,248418,1257177,73820,8342,628612,0
15,1,703712,248408,1329331,73872,8319,664715,1
15,1,706123,248864,1351518,74008,8370,675811,1
15,1,726257,252451,1318657,76962,8929,659367,0
15,1,706514,248178,1282755,73822,8379,641436,1
15,1,708391,248452,1338942,73844,7782,669508,0
15,1,704572,247995,1272339,73707,8277,636203,1
15,1,710229,248149,1590682,73791,10239,795396,0
15,1,704810,248124,1305262,73729,8873,652691,1
15,1,734964,257632,1252524,76584,8328,626310,1
15,1,705773,248067,1367114,73675,7997,683640,0
15,1,710088,248412,1301866,73832,8834,650966,0
15,1,707024,248410,1286761,73867,8401,643415,1
15,1,710261,248943,1406947,74059,8976,703529,1
15,1,711214,248426,1296469,73859,8621,648284,0
15,1,703739,247949,1524232,73681,10436,761904,0
15,1,709689,250266,1444758,74738,8870,722481,1
15,1,712232,250103,1422393,74627,8967,711265,0
15,1,706976,247924,1306858,73650,8288,653421,0
15,1,709230,248253,1263689,73777,8173,631897,0
15,1,704930,247679,1402772,73587,8770,701436,0
15,1,709250,248279,1274885,73823,7963,637525,0
15,1,714140,249965,1484963,74499,10353,742375,1
15,1,710477,248345,1417577,73754,9471,708779,0
15,1,708349,248256,1384235,73801,8705,691808,1
15,1,709695,249629,1439627,74246,8699,719307,0
15,1,708997,248620,1278256,73929,8816,639141,1
15,1,711247,250650,1431210,74712,9508,715480,1
15,1,709607,248800,1405179,73872,9191,702635,0
15,1,707779,248217,1447594,73643,8944,723734,1
15,1,737316,254579,1427331,78032,10633,713647,0
15,1,707318,248454,1238007,73732,8389,619062,1
15,1,712213,248440,1324195,73754,8887,662099,0
15,1,713257,249172,1517036,74089,9571,758631,1
15,1,711861,248085,1438343,73716,9915,719430,0
15,1,712375,249390,1429142,74179,10169,714492,1
15,1,714154,248763,1325847,73735,8913,662893,0
15,1,710711,249567,1418143,74025,10351,709202,1
15,1,728422,253605,1513299,77130,10761,756646,0
15,1,709170,249485,1327889,74009,9200,663980,1
15,1,709560,249122,1264792,73902,9328,632261,0
15,1,711386,249635,1300868,74141,8819,650427,1
15,1,716032,250338,1516253,74615,9505,758316,0
15,1,706634,248810,1308741,73862,9678,654318,1
15,1,707353,247840,1330510,73600,9017,665118,0
15,1,711038,248366,1273149,73782,9073,636536,1
15,1,711053,249789,1313069,74425,9223,656470,1
15,1,714340,249403,1371651,74301,9874,685729,0
15,1,708949,249649,1383309,74484,8796,691679,0
15,1,706397,248505,1261554,73867,8601,630725,1
15,1,714035,249589,1444007,74294,9185,722028,0
15,1,713798,250323,1372793,74638,8552,686346,1
15,1,707133,248187,1347502,73697,9059,673758,1
15,1,712641,248345,1247235,73783,9127,623532,0
15,1,708767,248250,1365734,73786,8813,682651,1
15,1,732448,252628,1354582,76960,9945,677253,0
15,1,712413,249692,1297867,74447,8678,648846,1
15,1,710624,248335,1358327,73809,9082,679143,1
15,1,712280,249309,1501452,74152,9496,750606,0
15,1,711475,248662,1306417,73653,8766,653035,1
15,1,714690,248842,1407373,73700,9763,703621,0
15,1,709053,248627,1455667,73526,10645,727878,0
15,1,707324,248870,1472102,73661,10221,735719,1
15,1,706513,248113,1312106,73501,9649,655920,1
15,1,709662,248257,1325285,73532,9753,663017,0
15,1,708698,248396,1493210,73554,10713,746695,1
15,1,706542,247761,1431069,73464,9947,713947,1
15,1,732600,252349,1377943,76758,10160,688935,0
15,1,708225,247595,1362211,73452,9553,681113,1
15,1,703661,247257,1282546,73335,8215,641280,1
15,1,706939,247686,1368030,73483,8638,684060,0
15,1,709569,248107,1355087,73611,8938,677591,1
15,1,706909,247844,1262341,73537,7774,631205,1
15,1,730892,252067,1392260,76657,10151,696001,0
15,1,713462,250511,1405230,74613,8970,702535,1
15,1,709526,248137,1444792,73600,9076,722429,1
15,1,707875,247519,1524841,73320,10917,762443,0
15,1,710891,248086,1319509,73527,8871,659653,1
15,1,705444,246937,1299465,73150,9016,649772,0
15,1,706900,247882,1306324,73499,7998,653214,1
15,1,709426,247813,1405596,73486,8857,702803,0
15,1,709114,248021,1378195,73569,8651,689061,1
15,1,711932,247299,1440082,73224,9363,719858,0
15,1,710931,247971,1434670,73574,9938,717115,1
15,1,707580,248004,1383897,73552,8792,691930,1
15,1,708426,247215,1282082,73259,8567,640934,0
15,1,710114,247258,1349953,73345,8971,674998,0
15,1,713057,247889,1251013,73446,7460,625583,0
15,1,699378,247573,1384991,72944,8251,692541,1
15,1,703329,248444,1251580,73200,8848,625793,1
15,1,704022,247797,1340556,72996,8620,670104,0
15,1,706119,247159,1408460,72747,8999,704289,0
15,1,705214,247704,1463678,72904,9315,731844,0
15,1,704611,248349,1552722,73186,10889,776577,1
15,1,704364,247941,1425356,73045,8845,712754,0
15,1,701663,247789,1459057,73043,9394,729559,1
15,1,707548,247622,1328661,73927,9869,664349,0
15,1,711737,249430,1465731,74492,9964,733027,1
15,1,704881,247552,1300882,73924,8563,650470,1
15,1,709884,247818,1378455,73972,9244,689274,0
15,1,710491,249217,1289449,74710,9101,644748,1
15,1,706764,247083,1339984,73718,9061,670041,0
15,1,705342,247783,1361740,74009,8528,680931,1
15,1,707303,248447,1284339,74208,8497,642143,1
15,1,707492,247775,1293882,73971,8718,646842,0
15,1,707331,247347,1368485,73856,8559,683960,1
15,1,710579,247843,1364396,73995,9298,682208,0
15,1,707453,247970,1344788,74061,9327,672430,1
15,1,728308,252116,1459982,77206,9521,730074,0
15,1,710806,247944,1356199,74018,8725,678141,1
15,1,708585,247651,1316122,73851,8639,658065,0
15,1,714781,250178,1299642,75019,8689,649391,1
15,1,709974,247309,1298766,73761,8901,649419,0
15,1,710583,247910,1368439,74040,9256,684265,1
15,1,703711,247106,1303013,73742,9360,651542,1
15,1,706992,247426,1334482,73876,9257,667250,0
15,1,708411,248861,1284049,74495,9055,641995,0
15,1,727152,252056,1441577,77150,10743,720759,0
15,1,707362,246769,1355881,73563,8429,677880,0
15,1,707330,247295,1341168,73782,9329,670622,0
15,1,711161,248795,1409795,74281,9912,704771,1
15,1,707179,247279,1341039,73751,9223,670538,1
15,1,704569,247534,1329089,73748,9899,664617,0
15,1,709227,249419,1389599,74637,10153,694719,1
15,1,708432,247104,1331858,73648,9044,665866,0
15,1,711220,247043,1305165,73692,8531,652639,0
15,1,707394,247561,1429311,73743,9280,714698,0
15,1,714000,249300,1280263,74566,8728,640095,0
15,1,707478,247475,1358953,73699,8228,679523,1
15,1,712097,248772,1302648,74316,8061,651380,0
15,1,714334,248043,1403711,73990,9434,701855,0
15,1,704813,247460,1238792,73907,9304,619431,1
15,1,708830,248334,1578516,74263,9616,789167,0
15,1,716097,250413,1424628,75176,9364,711781,1
15,1,709754,248287,1331593,74199,10233,665669,0
15,1,716090,248832,1395560,74429,8844,697817,0
15,1,709236,248303,1372262,74257,8895,686193,1
15,1,714079,250734,1419028,75269,10220,709109,1
15,1,710278,248295,1494253,74232,9822,746852,0
15,1,713171,249998,1444667,74695,9709,722571,1
15,1,739065,257901,1636562,77016,10316,818334,0
15,1,711092,248730,1451074,74283,10365,725450,1
15,1,715981,249499,1387313,74520,9602,693793,0
15,1,713473,250875,1413574,75220,9983,706647,1
15,1,711296,249321,1319167,74493,9339,659558,1
15,1,708060,248233,1224569,74128,8845,612062,0
15,1,713923,249977,1431438,74751,10132,714974,0
15,1,717768,249871,1387243,74644,10115,693256,0
15,1,710460,248342,1486902,74035,9729,743421,0
15,1,734601,252392,1420194,77096,11091,710168,0
15,1,717415,250846,1431701,75179,9102,715881,1
15,1,711067,247810,1465276,73866,8971,732656,0
15,1,730120,253206,1429763,77463,10143,714887,0
15,1,711235,248854,1385441,74278,9067,692763,1
15,1,713519,250393,1238877,75000,8970,619486,1
15,1,711067,248359,1367414,74108,8993,683744,0
15,1,711660,248658,1391692,74178,8270,695855,0
15,1,714427,249431,1244435,74326,8406,622254,1
15,1,711654,249980,1446165,74622,9339,722774,1
15,1,717264,251199,1411567,75328,9660,705998,0
15,1,714895,250184,1363283,74958,9358,681714,1
15,1,711117,248611,1293491,74252,8740,646620,1
15,1,732585,252449,1460680,77239,10452,730467,0
15,1,711854,248900,1363729,74353,8954,681616,1
15,1,714852,248846,1349712,74338,8852,674890,0
15,1,712527,248474,1308437,74247,8441,654134,1
15,1,709435,247942,1379216,73897,9486,689662,1
15,1,710447,247718,1410752,73723,9532,705356,0
15,1,706237,247626,1658785,73814,10775,829270,1
15,1,710623,248167,1710134,73950,11514,855033,0
15,1,711946,248654,1312181,74116,8447,656139,1
15,1,709360,248132,1439697,73966,10054,719896,1
15,1,742275,258457,1508833,77197,10001,754342,0
15,1,721160,251422,1439914,75255,9003,720022,1
15,1,718737,249514,1547401,74566,10842,773712,0
15,1,709165,247647,1237592,73828,9068,618775,1
15,1,710400,247534,1535119,73890,9433,767155,0
15,1,713736,249953,1543730,75091,11829,772000,1
15,1,712024,247346,1464738,73968,9457,732368,0
15,1,713499,247566,1326821,74051,9930,663358,0
15,1,712395,247100,1433611,73868,9789,716786,1
15,1,700635,246874,1381747,73892,9088,690903,1
15,1,703407,246941,1486899,73841,10698,743487,0
15,1,709465,247439,1615995,73957,11199,807937,0
15,1,703478,246803,1442328,73751,9907,721101,1
15,1,702357,246881,1353586,73873,8973,676783,1
15,1,707630,247451,1289890,73967,8281,644921,0
15,1,707150,247599,1342944,74094,8063,671433,1
15,1,713542,250117,1457009,75119,10494,728467,0
15,1,706279,247745,1394652,74025,9317,697314,1
15,1,711369,248016,1350077,74088,8905,675018,0
