0,0,0,-nan,-nan,-nan,-nan,-nan,-nan,-nan,-nan,-nan,-nan,-nan,-nan
0,1,252,715051.853175,250050.353175,1435451.261905,74742.869048,9530.031746,717266.400794,11201.919334,3188.519896,81710.803953,1388.646513,648.655832,40844.856875
1,0,0,-nan,-nan,-nan,-nan,-nan,-nan,-nan,-nan,-nan,-nan,-nan,-nan
1,1,251,714251.776892,249715.482072,1433197.370518,74595.011952,9533.557769,716133.613546,9719.638876,2679.364245,86849.903221,1278.439174,681.614418,43395.433484
2,0,0,-nan,-nan,-nan,-nan,-nan,-nan,-nan,-nan,-nan,-nan,-nan,-nan
2,1,251,714281.756972,249794.733068,1434910.685259,74628.685259,9477.127490,717003.051793,9408.342354,2569.601040,86008.689548,1198.569310,672.688001,43015.091934
3,0,0,-nan,-nan,-nan,-nan,-nan,-nan,-nan,-nan,-nan,-nan,-nan,-nan
3,1,251,714586.709163,249843.103586,1436177.764940,74654.095618,9516.533865,717621.494024,8873.795417,2420.508927,83438.652954,1166.179508,651.957648,41720.611884
4,0,0,-nan,-nan,-nan,-nan,-nan,-nan,-nan,-nan,-nan,-nan,-nan,-nan
4,1,251,714457.625498,249769.095618,1426217.490040,74583.191235,9463.589641,712663.055777,9353.739845,2679.061795,77465.130037,1162.258447,634.878521,38718.288420
5,0,0,-nan,-nan,-nan,-nan,-nan,-nan,-nan,-nan,-nan,-nan,-nan,-nan
5,1,251,714261.067729,249775.988048,1437330.752988,74602.023904,9527.896414,718209.804781,9267.585781,2603.679688,90189.778336,1185.580242,684.991038,45070.745977
6,0,0,-nan,-nan,-nan,-nan,-nan,-nan,-nan,-nan,-nan,-nan,-nan,-nan
6,1,251,714277.035857,249868.478088,1440165.390438,74622.537849,9550.824701,719609.083665,9916.082254,2910.565153,84936.867447,1251.091464,651.620512,42420.863732
7,0,0,-nan,-nan,-nan,-nan,-nan,-nan,-nan,-nan,-nan,-nan,-nan,-nan
7,1,251,714516.952191,249867.314741,1433253.932271,74633.948207,9481.127490,716171.123506,9748.426679,2732.996703,82793.060887,1220.003462,644.200718,41399.746182
