-1,0,0.00505051
-1,1,0.00252525
-1,2,0.00252525
-1,3,0.00252525
-1,4,0.00252525
-1,5,0.00252525
-1,6,0.00252525
-1,7,0.00252525
-1,8,0.00252525
-1,9,0.00252525
-1,10,0.00252525
-1,11,0.00252525
-1,12,0.00252525
-1,13,0.00252525
-1,14,0.00252525
-1,15,0.00252525
-1,16,0.00252525
-1,17,0.00252525
-1,18,0.00252525
-1,19,0.00252525
-1,20,0.00252525
-1,21,0.00252525
-1,22,0.00252525
-1,23,0.00252525
-1,24,0.00252525
-1,654,0.00252525
-1,655,0.00252525
-1,656,0.00252525
-1,657,0.00252525
-1,658,0.00252525
-1,659,0.00252525
-1,660,0.00252525
-1,661,0.00252525
-1,662,0.00252525
-1,663,0.00252525
-1,664,0.00252525
-1,665,0.00252525
-1,666,0.00252525
-1,667,0.00252525
-1,668,0.00252525
-1,669,0.00252525
-1,670,0.00252525
-1,671,0.00252525
-1,672,0.00252525
-1,673,0.00252525
-1,674,0.00252525
-1,675,0.00252525
-1,676,0.00252525
-1,677,0.00252525
-1,678,0.00252525
-1,679,0.00252525
-1,680,0.00252525
-1,681,0.00252525
-1,682,0.00252525
-1,683,0.00252525
-1,684,0.00252525
-1,685,0.00252525
-1,686,0.00252525
-1,687,0.00252525
-1,688,0.00252525
-1,689,0.00252525
-1,690,0.00252525
-1,691,0.00252525
-1,692,0.00252525
-1,693,0.00252525
-1,694,0.00252525
-1,695,0.00252525
-1,696,0.00252525
-1,697,0.00252525
-1,698,0.00252525
-1,699,0.00252525
-1,700,0.00252525
-1,701,0.00252525
-1,702,0.00252525
-1,703,0.00252525
-1,704,0.00252525
-1,705,0.00252525
-1,706,0.00252525
-1,707,0.00252525
-1,708,0.00252525
-1,709,0.00252525
-1,710,0.00252525
-1,711,0.00252525
-1,712,0.00252525
-1,713,0.00252525
-1,714,0.00252525
-1,715,0.00252525
-1,716,0.00252525
-1,717,0.00252525
-1,718,0.00252525
-1,719,0.00252525
-1,720,0.00252525
-1,721,0.00252525
-1,722,0.00252525
-1,723,0.00252525
-1,724,0.00252525
-1,725,0.00252525
-1,726,0.00252525
-1,727,0.00252525
-1,728,0.00252525
-1,729,0.00252525
-1,730,0.00252525
-1,731,0.00252525
-1,732,0.00252525
-1,733,0.00252525
-1,734,0.00252525
-1,735,0.00252525
-1,736,0.00252525
-1,737,0.00252525
-1,738,0.00252525
-1,739,0.00252525
-1,740,0.00252525
-1,741,0.00252525
-1,742,0.00252525
-1,743,0.00252525
-1,744,0.00252525
-1,745,0.00252525
-1,746,0.00252525
-1,747,0.00252525
-1,748,0.00252525
-1,749,0.00252525
-1,750,0.00252525
-1,751,0.00252525
-1,752,0.00252525
-1,753,0.00252525
-1,754,0.00252525
-1,755,0.00252525
-1,756,0.00252525
-1,757,0.00252525
-1,758,0.00252525
-1,759,0.00252525
-1,760,0.00252525
-1,761,0.00252525
-1,762,0.00252525
-1,763,0.00252525
-1,764,0.00252525
-1,765,0.00252525
-1,766,0.00252525
-1,767,0.00252525
-1,768,0.00252525
-1,769,0.00252525
-1,770,0.00252525
-1,771,0.00252525
-1,772,0.00252525
-1,773,0.00252525
-1,774,0.00252525
-1,775,0.00252525
-1,776,0.00252525
-1,777,0.00252525
-1,778,0.00252525
-1,779,0.00252525
-1,780,0.00252525
-1,781,0.00252525
-1,782,0.00252525
-1,783,0.00252525
-1,784,0.00252525
-1,785,0.00252525
-1,786,0.00252525
-1,787,0.00252525
-1,788,0.00252525
-1,789,0.00252525
-1,790,0.00252525
-1,791,0.00252525
-1,792,0.00252525
-1,793,0.00252525
-1,794,0.00252525
-1,795,0.00252525
-1,796,0.00252525
-1,797,0.00252525
-1,798,0.00252525
-1,799,0.00252525
-1,800,0.00252525
-1,801,0.00252525
-1,802,0.00252525
-1,803,0.00252525
-1,804,0.00252525
-1,805,0.00252525
-1,806,0.00252525
-1,807,0.00252525
-1,808,0.00252525
-1,809,0.00252525
-1,810,0.00252525
-1,811,0.00252525
-1,812,0.00252525
-1,813,0.00252525
-1,814,0.00252525
-1,815,0.00252525
-1,816,0.00252525
-1,817,0.00252525
-1,818,0.00252525
-1,819,0.00252525
-1,820,0.00252525
-1,821,0.00252525
-1,822,0.00252525
-1,823,0.00252525
-1,824,0.00252525
-1,825,0.00252525
-1,826,0.00252525
-1,827,0.00252525
-1,828,0.00252525
-1,829,0.00252525
-1,830,0.00252525
-1,831,0.00252525
-1,832,0.00252525
-1,833,0.00252525
-1,834,0.00252525
-1,835,0.00252525
-1,836,0.00252525
-1,837,0.00252525
-1,838,0.00252525
-1,839,0.00252525
-1,840,0.00252525
-1,841,0.00252525
-1,842,0.00252525
-1,843,0.00252525
-1,844,0.00252525
-1,845,0.00252525
-1,846,0.00252525
-1,847,0.00252525
-1,848,0.00252525
-1,849,0.00252525
-1,850,0.00252525
-1,851,0.00252525
-1,852,0.00252525
-1,853,0.00252525
-1,854,0.00252525
-1,855,0.00252525
-1,856,0.00252525
-1,857,0.00252525
-1,858,0.00252525
-1,859,0.00252525
-1,860,0.00252525
-1,861,0.00252525
-1,862,0.00252525
-1,863,0.00252525
-1,864,0.00252525
-1,865,0.00252525
-1,866,0.00252525
-1,867,0.00252525
-1,868,0.00252525
-1,869,0.00252525
-1,870,0.00252525
-1,871,0.00252525
-1,872,0.00252525
-1,873,0.00252525
-1,874,0.00252525
-1,875,0.00252525
-1,876,0.00252525
-1,877,0.00252525
-1,878,0.00252525
-1,879,0.00252525
-1,880,0.00252525
-1,881,0.00252525
-1,882,0.00252525
-1,883,0.00252525
-1,884,0.00252525
-1,885,0.00252525
-1,886,0.00252525
-1,887,0.00252525
-1,888,0.00252525
-1,889,0.00252525
-1,890,0.00252525
-1,891,0.00252525
-1,892,0.00252525
-1,893,0.00252525
-1,894,0.00252525
-1,895,0.00252525
-1,896,0.00252525
-1,897,0.00252525
-1,898,0.00252525
-1,899,0.00252525
-1,900,0.00252525
-1,901,0.00252525
-1,902,0.00252525
-1,903,0.00252525
-1,904,0.00252525
-1,905,0.00252525
-1,906,0.00252525
-1,907,0.00252525
-1,908,0.00252525
-1,909,0.00252525
-1,910,0.00252525
-1,911,0.00252525
-1,912,0.00252525
-1,913,0.00252525
-1,914,0.00252525
-1,915,0.00252525
-1,916,0.00252525
-1,917,0.00252525
-1,918,0.00252525
-1,919,0.00252525
-1,920,0.00252525
-1,921,0.00252525
-1,922,0.00252525
-1,923,0.00252525
-1,924,0.00252525
-1,925,0.00252525
-1,926,0.00252525
-1,927,0.00252525
-1,928,0.00252525
-1,929,0.00252525
-1,930,0.00252525
-1,931,0.00252525
-1,932,0.00252525
-1,933,0.00252525
-1,934,0.00252525
-1,935,0.00252525
-1,936,0.00252525
-1,937,0.00252525
-1,938,0.00252525
-1,939,0.00252525
-1,940,0.00252525
-1,941,0.00252525
-1,942,0.00252525
-1,943,0.00252525
-1,944,0.00252525
-1,945,0.00252525
-1,946,0.00252525
-1,947,0.00252525
-1,948,0.00252525
-1,949,0.00252525
-1,950,0.00252525
-1,951,0.00252525
-1,952,0.00252525
-1,953,0.00252525
-1,954,0.00252525
-1,955,0.00252525
-1,956,0.00252525
-1,957,0.00252525
-1,958,0.00252525
-1,959,0.00252525
-1,960,0.00252525
-1,961,0.00252525
-1,962,0.00252525
-1,963,0.00252525
-1,964,0.00252525
-1,965,0.00252525
-1,966,0.00252525
-1,967,0.00252525
-1,968,0.00252525
-1,969,0.00252525
-1,970,0.00252525
-1,971,0.00252525
-1,972,0.00252525
-1,973,0.00252525
-1,974,0.00252525
-1,975,0.00252525
-1,976,0.00252525
-1,977,0.00252525
-1,978,0.00252525
-1,979,0.00252525
-1,980,0.00252525
-1,981,0.00252525
-1,982,0.00252525
-1,983,0.00252525
-1,984,0.00252525
-1,985,0.00252525
-1,986,0.00252525
-1,987,0.00252525
-1,988,0.00252525
-1,989,0.00252525
-1,990,0.00252525
-1,991,0.00252525
-1,992,0.00252525
-1,993,0.00252525
-1,994,0.00252525
-1,995,0.00252525
-1,996,0.00252525
-1,997,0.00252525
-1,998,0.00252525
-1,999,0.00252525
-1,1000,0.00252525
-1,1001,0.00252525
-1,1002,0.00252525
-1,1003,0.00252525
-1,1004,0.00252525
-1,1005,0.00252525
-1,1006,0.00252525
-1,1007,0.00252525
-1,1008,0.00252525
-1,1009,0.00252525
-1,1010,0.00252525
-1,1011,0.00252525
-1,1012,0.00252525
-1,1013,0.00252525
-1,1014,0.00252525
-1,1015,0.00252525
-1,1016,0.00252525
-1,1017,0.00252525
-1,1018,0.00252525
-1,1019,0.00252525
-1,1020,0.00252525
-1,1021,0.00252525
-1,1022,0.00252525
-1,1023,0.00252525
3,0,0.00124456
3,1,0.000622278
3,2,0.000622278
3,3,0.000622278
3,4,0.000622278
3,5,0.000622278
3,6,0.000622278
3,7,0.000622278
3,8,0.000622278
3,9,0.000622278
3,10,0.000622278
3,11,0.000622278
3,12,0.000622278
3,13,0.000622278
3,14,0.000622278
3,15,0.000622278
3,16,0.000622278
3,17,0.000622278
3,18,0.000622278
3,19,0.000622278
3,20,0.000622278
3,21,0.000622278
3,22,0.000622278
3,23,0.000622278
3,24,0.000622278
3,25,0.000622278
3,26,0.000622278
3,27,0.000622278
3,28,0.000622278
3,29,0.000622278
3,30,0.000622278
3,31,0.000622278
3,32,0.000622278
3,33,0.000622278
3,34,0.000622278
3,35,0.000622278
3,36,0.000622278
3,37,0.000622278
3,38,0.000622278
3,39,0.000622278
3,40,0.000622278
3,41,0.000622278
3,42,0.000622278
3,43,0.000622278
3,44,0.000622278
3,45,0.000622278
3,46,0.000622278
3,47,0.000622278
3,48,0.000622278
3,49,0.000622278
3,50,0.000622278
3,51,0.000622278
3,52,0.000622278
3,53,0.000622278
3,54,0.000622278
3,55,0.000622278
3,56,0.000622278
3,57,0.000622278
3,58,0.000622278
3,59,0.000622278
3,60,0.000622278
3,61,0.000622278
3,62,0.000622278
3,63,0.000622278
3,64,0.000622278
3,65,0.000622278
3,66,0.000622278
3,67,0.000622278
3,68,0.000622278
3,69,0.000622278
3,70,0.000622278
3,71,0.000622278
3,72,0.000622278
3,73,0.000622278
3,74,0.000622278
3,75,0.000622278
3,76,0.000622278
3,77,0.000622278
3,78,0.000622278
3,79,0.000622278
3,80,0.000622278
3,81,0.000622278
3,82,0.000622278
3,83,0.000622278
3,84,0.000622278
3,85,0.000622278
3,86,0.000622278
3,87,0.000622278
3,88,0.000622278
3,89,0.000622278
3,90,0.000622278
3,91,0.000622278
3,92,0.000622278
3,93,0.000622278
3,94,0.000622278
3,95,0.000622278
3,96,0.000622278
3,97,0.000622278
3,98,0.000622278
3,99,0.000622278
3,100,0.000622278
3,101,0.000622278
3,102,0.000622278
3,103,0.000622278
3,104,0.000622278
3,105,0.000622278
3,106,0.000622278
3,107,0.000622278
3,108,0.000622278
3,109,0.000622278
3,110,0.000622278
3,111,0.000622278
3,112,0.000622278
3,113,0.000622278
3,114,0.000622278
3,115,0.000622278
3,116,0.000622278
3,117,0.000622278
3,118,0.000622278
3,119,0.000622278
3,120,0.000622278
3,121,0.000622278
3,122,0.000622278
3,123,0.000622278
3,124,0.000622278
3,125,0.000622278
3,126,0.000622278
3,127,0.000622278
3,128,0.000622278
3,129,0.000622278
3,130,0.000622278
3,131,0.000622278
3,132,0.000622278
3,133,0.000622278
3,134,0.000622278
3,135,0.000622278
3,136,0.000622278
3,137,0.000622278
3,138,0.000622278
3,139,0.000622278
3,140,0.000622278
3,141,0.000622278
3,142,0.000622278
3,143,0.000622278
3,144,0.000622278
3,145,0.000622278
3,146,0.000622278
3,147,0.000622278
3,148,0.000622278
3,149,0.000622278
3,150,0.000622278
3,151,0.000622278
3,152,0.000622278
3,153,0.000622278
3,154,0.000622278
3,155,0.000622278
3,156,0.000622278
3,157,0.000622278
3,158,0.000622278
3,159,0.000622278
3,160,0.000622278
3,161,0.000622278
3,162,0.000622278
3,163,0.000622278
3,164,0.000622278
3,165,0.000622278
3,166,0.000622278
3,167,0.000622278
3,168,0.000622278
3,169,0.000622278
3,170,0.000622278
3,171,0.000622278
3,172,0.000622278
3,173,0.000622278
3,174,0.000622278
3,175,0.000622278
3,176,0.000622278
3,177,0.000622278
3,178,0.000622278
3,179,0.000622278
3,180,0.000622278
3,181,0.000622278
3,182,0.000622278
3,183,0.000622278
3,184,0.000622278
3,185,0.000622278
3,186,0.000622278
3,187,0.000622278
3,188,0.000622278
3,189,0.000622278
3,190,0.000622278
3,191,0.000622278
3,192,0.000622278
3,193,0.000622278
3,194,0.000622278
3,195,0.000622278
3,196,0.000622278
3,197,0.000622278
3,198,0.000622278
3,199,0.000622278
3,200,0.000622278
3,201,0.000622278
3,202,0.000622278
3,203,0.000622278
3,204,0.000622278
3,205,0.000622278
3,206,0.000622278
3,207,0.000622278
3,208,0.000622278
3,209,0.000622278
3,210,0.000622278
3,211,0.000622278
3,212,0.000622278
3,213,0.000622278
3,214,0.000622278
3,215,0.000622278
3,216,0.000622278
3,217,0.000622278
3,218,0.000622278
3,219,0.000622278
3,220,0.000622278
3,221,0.000622278
3,222,0.000622278
3,223,0.000622278
3,224,0.000622278
3,225,0.000622278
3,226,0.000622278
3,227,0.000622278
3,228,0.000622278
3,229,0.000622278
3,230,0.000622278
3,231,0.000622278
3,232,0.000622278
3,233,0.000622278
3,234,0.000622278
3,235,0.000622278
3,236,0.000622278
3,237,0.000622278
3,238,0.000622278
3,239,0.000622278
3,240,0.000622278
3,241,0.000622278
3,242,0.000622278
3,243,0.000622278
3,244,0.000622278
3,245,0.000622278
3,246,0.000622278
3,247,0.000622278
3,248,0.000622278
3,249,0.000622278
3,250,0.000622278
3,251,0.000622278
3,252,0.000622278
3,253,0.000622278
3,254,0.000622278
3,255,0.000622278
3,256,0.000622278
3,257,0.000622278
3,258,0.000622278
3,259,0.000622278
3,260,0.000622278
3,261,0.000622278
3,262,0.000622278
3,263,0.000622278
3,264,0.000622278
3,265,0.000622278
3,266,0.000622278
3,267,0.000622278
3,268,0.000622278
3,269,0.000622278
3,270,0.000622278
3,271,0.000622278
3,272,0.000622278
3,273,0.000622278
3,274,0.000622278
3,275,0.000622278
3,276,0.000622278
3,277,0.000622278
3,278,0.000622278
3,279,0.000622278
3,280,0.000622278
3,281,0.000622278
3,282,0.000622278
3,283,0.000622278
3,284,0.000622278
3,285,0.000622278
3,286,0.000622278
3,287,0.000622278
3,288,0.000622278
3,289,0.000622278
3,290,0.000622278
3,291,0.000622278
3,292,0.000622278
3,293,0.000622278
3,294,0.000622278
3,295,0.000622278
3,296,0.000622278
3,297,0.000622278
3,298,0.000622278
3,299,0.000622278
3,300,0.000622278
3,301,0.000622278
3,302,0.000622278
3,303,0.000622278
3,304,0.000622278
3,305,0.000622278
3,306,0.000622278
3,307,0.000622278
3,308,0.000622278
3,309,0.000622278
3,310,0.000622278
3,311,0.000622278
3,312,0.000622278
3,313,0.000622278
3,314,0.000622278
3,315,0.000622278
3,316,0.000622278
3,317,0.000622278
3,318,0.000622278
3,319,0.000622278
3,320,0.000622278
3,321,0.000622278
3,322,0.000622278
3,323,0.000622278
3,324,0.000622278
3,325,0.000622278
3,326,0.000622278
3,327,0.000622278
3,328,0.000622278
3,329,0.000622278
3,330,0.000622278
3,331,0.000622278
3,332,0.000622278
3,333,0.000622278
3,334,0.000622278
3,335,0.000622278
3,336,0.000622278
3,337,0.000622278
3,338,0.000622278
3,339,0.000622278
3,340,0.000622278
3,341,0.000622278
3,342,0.000622278
3,343,0.000622278
3,344,0.000622278
3,345,0.000622278
3,346,0.000622278
3,347,0.000622278
3,348,0.000622278
3,349,0.000622278
3,350,0.000622278
3,351,0.000622278
3,352,0.000622278
3,353,0.000622278
3,354,0.000622278
3,355,0.000622278
3,356,0.000622278
3,357,0.000622278
3,358,0.000622278
3,359,0.000622278
3,360,0.000622278
3,361,0.000622278
3,362,0.000622278
3,363,0.000622278
3,364,0.000622278
3,365,0.000622278
3,366,0.000622278
3,367,0.000622278
3,368,0.000622278
3,369,0.000622278
3,370,0.000622278
3,371,0.000622278
3,372,0.000622278
3,373,0.000622278
3,374,0.000622278
3,375,0.000622278
3,376,0.000622278
3,377,0.000622278
3,378,0.000622278
3,379,0.000622278
3,380,0.000622278
3,381,0.000622278
3,382,0.000622278
3,383,0.000622278
3,384,0.000622278
3,385,0.000622278
3,386,0.000622278
3,387,0.000622278
3,388,0.000622278
3,389,0.000622278
3,390,0.000622278
3,391,0.000622278
3,392,0.000622278
3,393,0.000622278
3,394,0.000622278
3,395,0.000622278
3,396,0.000622278
3,397,0.000622278
3,398,0.000622278
3,399,0.000622278
3,400,0.000622278
3,401,0.000622278
3,402,0.000622278
3,403,0.000622278
3,404,0.000622278
3,405,0.000622278
3,406,0.000622278
3,407,0.000622278
3,408,0.000622278
3,409,0.000622278
3,410,0.000622278
3,411,0.000622278
3,412,0.000622278
3,413,0.000622278
3,414,0.000622278
3,415,0.000622278
3,416,0.000622278
3,417,0.000622278
3,418,0.000622278
3,419,0.000622278
3,420,0.000622278
3,421,0.000622278
3,422,0.000622278
3,423,0.000622278
3,424,0.000622278
3,425,0.000622278
3,426,0.000622278
3,427,0.000622278
3,428,0.000622278
3,429,0.000622278
3,430,0.000622278
3,431,0.000622278
3,432,0.000622278
3,433,0.000622278
3,434,0.000622278
3,435,0.000622278
3,436,0.000622278
3,437,0.000622278
3,438,0.000622278
3,439,0.000622278
3,440,0.000622278
3,441,0.000622278
3,442,0.00124456
3,443,0.00124456
3,444,0.00124456
3,445,0.00124456
3,446,0.00124456
3,447,0.00124456
3,448,0.00124456
3,449,0.00124456
3,450,0.00124456
3,451,0.00124456
3,452,0.00124456
3,453,0.00124456
3,454,0.00124456
3,455,0.00124456
3,456,0.00124456
3,457,0.00124456
3,458,0.00124456
3,459,0.00124456
3,460,0.00124456
3,461,0.00124456
3,462,0.00124456
3,463,0.00124456
3,464,0.00124456
3,465,0.00124456
3,466,0.00124456
3,467,0.00124456
3,468,0.00124456
3,469,0.00124456
3,470,0.00124456
3,471,0.00124456
3,472,0.00124456
3,473,0.00124456
3,474,0.00124456
3,475,0.00124456
3,476,0.00124456
3,477,0.00124456
3,478,0.00124456
3,479,0.00124456
3,480,0.00124456
3,481,0.00124456
3,482,0.00124456
3,483,0.00124456
3,484,0.00124456
3,485,0.00124456
3,486,0.00124456
3,487,0.00124456
3,488,0.00124456
3,489,0.00124456
3,490,0.00124456
3,491,0.00124456
3,492,0.00124456
3,493,0.00124456
3,494,0.00124456
3,495,0.00124456
3,496,0.00124456
3,497,0.00124456
3,498,0.00124456
3,499,0.00124456
3,500,0.00124456
3,501,0.00124456
3,502,0.00124456
3,503,0.00124456
3,504,0.00124456
3,505,0.00124456
3,506,0.00124456
3,507,0.00124456
3,508,0.00124456
3,509,0.00124456
3,510,0.00124456
3,511,0.00124456
3,512,0.00124456
3,513,0.00124456
3,514,0.00124456
3,515,0.00124456
3,516,0.00124456
3,517,0.00124456
3,518,0.00124456
3,519,0.00124456
3,520,0.00124456
3,521,0.00124456
3,522,0.00124456
3,523,0.00124456
3,524,0.00124456
3,525,0.00124456
3,526,0.00124456
3,527,0.00124456
3,528,0.00124456
3,529,0.00124456
3,530,0.00124456
3,531,0.00124456
3,532,0.00124456
3,533,0.00124456
3,534,0.00124456
3,535,0.00124456
3,536,0.00124456
3,537,0.00124456
3,538,0.00124456
3,539,0.00124456
3,540,0.00124456
3,541,0.00124456
3,542,0.00124456
3,543,0.00124456
3,544,0.00124456
3,545,0.00124456
3,546,0.00124456
3,547,0.00124456
3,548,0.00124456
3,549,0.00124456
3,550,0.00124456
3,551,0.00124456
3,552,0.00124456
3,553,0.00124456
3,554,0.00124456
3,555,0.00124456
3,556,0.00124456
3,557,0.00124456
3,558,0.00124456
3,559,0.00124456
3,560,0.00124456
3,561,0.00124456
3,562,0.00124456
3,563,0.00124456
3,564,0.00124456
3,565,0.00124456
3,566,0.00124456
3,567,0.00124456
3,568,0.00124456
3,569,0.00124456
3,570,0.00124456
3,571,0.00124456
3,572,0.00124456
3,573,0.00124456
3,574,0.00124456
3,575,0.00124456
3,576,0.00124456
3,577,0.00124456
3,578,0.00124456
3,579,0.00124456
3,580,0.00124456
3,581,0.00124456
3,582,0.00124456
3,583,0.00124456
3,584,0.00124456
3,585,0.00124456
3,586,0.00124456
3,587,0.00124456
3,588,0.00124456
3,589,0.00124456
3,590,0.00124456
3,591,0.00124456
3,592,0.00124456
3,593,0.00124456
3,594,0.00124456
3,595,0.00124456
3,596,0.00124456
3,597,0.00124456
3,598,0.00124456
3,599,0.00124456
3,600,0.00124456
3,601,0.00124456
3,602,0.00124456
3,603,0.00124456
3,604,0.00124456
3,605,0.00124456
3,606,0.00124456
3,607,0.00124456
3,608,0.00124456
3,609,0.00124456
3,610,0.00124456
3,611,0.00124456
3,612,0.00124456
3,613,0.00124456
3,614,0.00124456
3,615,0.00124456
3,616,0.00124456
3,617,0.00124456
3,618,0.00124456
3,619,0.00124456
3,620,0.00124456
3,621,0.00124456
3,622,0.00124456
3,623,0.00124456
3,624,0.00124456
3,625,0.00124456
3,626,0.00124456
3,627,0.00124456
3,628,0.00124456
3,629,0.00124456
3,630,0.00124456
3,631,0.00124456
3,632,0.00124456
3,633,0.00124456
3,634,0.00124456
3,635,0.00124456
3,636,0.00124456
3,637,0.00124456
3,638,0.00124456
3,639,0.00124456
3,640,0.00124456
3,641,0.00124456
3,642,0.00124456
3,643,0.00124456
3,644,0.00124456
3,645,0.00124456
3,646,0.00124456
3,647,0.00124456
3,648,0.00124456
3,649,0.00124456
3,650,0.00124456
3,651,0.00124456
3,652,0.00124456
3,653,0.00124456
3,654,0.00124456
3,655,0.00124456
3,656,0.00124456
3,657,0.00124456
3,658,0.00124456
3,659,0.00124456
3,660,0.00124456
3,661,0.00124456
3,662,0.00124456
3,663,0.00124456
3,664,0.00124456
3,665,0.00124456
3,666,0.00124456
3,667,0.00124456
3,668,0.00124456
3,669,0.00124456
3,670,0.00124456
3,671,0.00124456
3,672,0.00124456
3,673,0.00124456
3,674,0.00124456
3,675,0.00124456
3,676,0.00124456
3,677,0.00124456
3,678,0.00124456
3,679,0.00124456
3,680,0.00124456
3,681,0.00124456
3,682,0.00124456
3,683,0.00124456
3,684,0.00124456
3,685,0.00124456
3,686,0.00124456
3,687,0.00124456
3,688,0.00124456
3,689,0.00124456
3,690,0.00124456
3,691,0.00124456
3,692,0.00124456
3,693,0.00124456
3,694,0.00124456
3,695,0.00124456
3,696,0.00124456
3,697,0.00124456
3,698,0.00124456
3,699,0.00124456
3,700,0.00124456
3,701,0.00124456
3,702,0.00124456
3,703,0.00124456
3,704,0.00124456
3,705,0.00124456
3,706,0.00124456
3,707,0.00124456
3,708,0.00124456
3,709,0.00124456
3,710,0.00124456
3,711,0.00124456
3,712,0.00124456
3,713,0.00124456
3,714,0.00124456
3,715,0.00124456
3,716,0.00124456
3,717,0.00124456
3,718,0.00124456
3,719,0.00124456
3,720,0.00124456
3,721,0.00124456
3,722,0.00124456
3,723,0.00124456
3,724,0.00124456
3,725,0.00124456
3,726,0.00124456
3,727,0.00124456
3,728,0.00124456
3,729,0.00124456
3,730,0.00124456
3,731,0.00124456
3,732,0.00124456
3,733,0.00124456
3,734,0.00124456
3,735,0.00124456
3,736,0.00124456
3,737,0.00124456
3,738,0.00124456
3,739,0.00124456
3,740,0.00124456
3,741,0.00124456
3,742,0.00124456
3,743,0.00124456
3,744,0.00124456
3,745,0.00124456
3,746,0.00124456
3,747,0.00124456
3,748,0.00124456
3,749,0.00124456
3,750,0.00124456
3,751,0.00124456
3,752,0.00124456
3,753,0.00124456
3,754,0.00124456
3,755,0.00124456
3,756,0.00124456
3,757,0.00124456
3,758,0.00124456
3,759,0.00124456
3,760,0.00124456
3,761,0.00124456
3,762,0.00124456
3,763,0.00124456
3,764,0.00124456
3,765,0.00124456
3,766,0.00124456
3,767,0.00124456
3,768,0.00124456
3,769,0.00124456
3,770,0.00124456
3,771,0.00124456
3,772,0.00124456
3,773,0.00124456
3,774,0.00124456
3,775,0.00124456
3,776,0.00124456
3,777,0.00124456
3,778,0.00124456
3,779,0.00124456
3,780,0.00124456
3,781,0.00124456
3,782,0.00124456
3,783,0.00124456
3,784,0.00124456
3,785,0.00124456
3,786,0.00124456
3,787,0.00124456
3,788,0.00124456
3,789,0.00124456
3,790,0.00124456
3,791,0.00124456
3,792,0.00124456
3,793,0.00124456
3,794,0.00124456
3,795,0.00124456
3,796,0.00124456
3,797,0.00124456
3,798,0.00124456
3,799,0.00124456
3,800,0.00124456
3,801,0.00124456
3,802,0.00124456
3,803,0.00124456
3,804,0.00124456
3,805,0.00124456
3,806,0.00124456
3,807,0.00124456
3,808,0.00124456
3,809,0.00124456
3,810,0.00124456
3,811,0.00124456
3,812,0.00124456
3,813,0.00124456
3,814,0.00124456
3,815,0.00124456
3,816,0.00124456
3,817,0.00124456
3,818,0.00124456
3,819,0.00124456
3,820,0.00124456
3,821,0.00124456
3,822,0.00124456
3,823,0.00124456
3,824,0.00124456
3,825,0.00124456
3,826,0.00124456
3,827,0.00124456
3,828,0.00124456
3,829,0.00124456
3,830,0.00124456
3,831,0.00124456
3,832,0.00124456
3,833,0.00124456
3,834,0.00124456
3,835,0.00124456
3,836,0.00124456
3,837,0.00124456
3,838,0.00124456
3,839,0.00124456
3,840,0.00124456
3,841,0.00124456
3,842,0.00124456
3,843,0.00124456
3,844,0.00124456
3,845,0.00124456
3,846,0.00124456
3,847,0.00124456
3,848,0.00124456
3,849,0.00124456
3,850,0.00124456
3,851,0.00124456
3,852,0.00124456
3,853,0.00124456
3,854,0.00124456
3,855,0.00124456
3,856,0.00124456
3,857,0.00124456
3,858,0.00124456
3,859,0.00124456
3,860,0.00124456
3,861,0.00124456
3,862,0.00124456
3,863,0.00124456
3,864,0.00124456
3,865,0.00124456
3,866,0.00124456
3,867,0.00124456
3,868,0.00124456
3,869,0.00124456
3,870,0.00124456
3,871,0.00124456
3,872,0.00124456
3,873,0.00124456
3,874,0.00124456
3,875,0.00124456
3,876,0.00124456
3,877,0.00124456
3,878,0.00124456
3,879,0.00124456
3,880,0.00124456
3,881,0.00124456
3,882,0.00124456
3,883,0.00124456
3,884,0.00124456
3,885,0.00124456
3,886,0.00124456
3,887,0.00124456
3,888,0.00124456
3,889,0.00124456
3,890,0.00124456
3,891,0.00124456
3,892,0.00124456
3,893,0.00124456
3,894,0.00124456
3,895,0.00124456
3,896,0.00124456
3,897,0.00124456
3,898,0.00124456
3,899,0.00124456
3,900,0.00124456
3,901,0.00124456
3,902,0.00124456
3,903,0.00124456
3,904,0.00124456
3,905,0.00124456
3,906,0.00124456
3,907,0.00124456
3,908,0.00124456
3,909,0.00124456
3,910,0.00124456
3,911,0.00124456
3,912,0.00124456
3,913,0.00124456
3,914,0.00124456
3,915,0.00124456
3,916,0.00124456
3,917,0.00124456
3,918,0.00124456
3,919,0.00124456
3,920,0.00124456
3,921,0.00124456
3,922,0.00124456
3,923,0.00124456
3,924,0.00124456
3,925,0.00124456
3,926,0.00124456
3,927,0.00124456
3,928,0.00124456
3,929,0.00124456
3,930,0.00124456
3,931,0.00124456
3,932,0.00124456
3,933,0.00124456
3,934,0.00124456
3,935,0.00124456
3,936,0.00124456
3,937,0.00124456
3,938,0.00124456
3,939,0.00124456
3,940,0.00124456
3,941,0.00124456
3,942,0.00124456
3,943,0.00124456
3,944,0.00124456
3,945,0.00124456
3,946,0.00124456
3,947,0.00124456
3,948,0.00124456
3,949,0.00124456
3,950,0.00124456
3,951,0.00124456
3,952,0.00124456
3,953,0.00124456
3,954,0.00124456
3,955,0.00124456
3,956,0.00124456
3,957,0.00124456
3,958,0.00124456
3,959,0.00124456
3,960,0.00124456
3,961,0.00124456
3,962,0.00124456
3,963,0.00124456
3,964,0.00124456
3,965,0.00124456
3,966,0.00124456
3,967,0.00124456
3,968,0.00124456
3,969,0.00124456
3,970,0.00124456
3,971,0.00124456
3,972,0.00124456
3,973,0.00124456
3,974,0.00124456
3,975,0.00124456
3,976,0.00124456
3,977,0.00124456
3,978,0.00124456
3,979,0.00124456
3,980,0.00124456
3,981,0.00124456
3,982,0.00124456
3,983,0.00124456
3,984,0.00124456
3,985,0.00124456
3,986,0.00124456
3,987,0.00124456
3,988,0.00124456
3,989,0.00124456
3,990,0.00124456
3,991,0.00124456
3,992,0.00124456
3,993,0.00124456
3,994,0.00124456
3,995,0.00124456
3,996,0.00124456
3,997,0.00124456
3,998,0.00124456
3,999,0.00124456
3,1000,0.00124456
3,1001,0.00124456
3,1002,0.00124456
3,1003,0.00124456
3,1004,0.00124456
3,1005,0.00124456
3,1006,0.00124456
3,1007,0.00124456
3,1008,0.00124456
3,1009,0.00124456
3,1010,0.00124456
3,1011,0.00124456
3,1012,0.00124456
3,1013,0.00124456
3,1014,0.00124456
3,1015,0.00124456
3,1016,0.00124456
3,1017,0.00124456
3,1018,0.00124456
3,1019,0.00124456
3,1020,0.00124456
3,1021,0.00124456
3,1022,0.00124456
3,1023,0.00124456
