0,-1,690211,236130,1270003,70315,7670,634688,0
0,-1,692300,237178,1297358,70691,7942,648251,0
0,-1,717485,242542,1373420,74206,9318,686393,0
0,-1,689513,236765,1275458,70546,7315,637291,0
0,-1,690516,237416,1357126,70743,7718,678190,2
0,-1,689481,236737,1242614,70492,7273,620961,0
0,-1,690294,236480,1190717,70424,7498,594869,0
0,-1,672685,230790,1270683,68711,8488,635140,0
0,-1,638349,218745,1246157,65730,6213,622109,0
0,-1,661115,223511,1322621,69075,9372,660725,0
0,-1,636193,218892,1323066,65774,8149,660909,0
0,-1,661203,223735,1335428,68997,8556,667372,0
0,-1,637682,218789,1283666,65555,7929,641450,0
0,-1,639379,218859,1348276,65634,8157,673716,0
0,-1,638094,218705,1300640,65586,7947,649715,0
0,-1,647196,221338,1348012,66865,8962,673235,0
0,-1,642444,219121,1215850,65844,8675,607535,0
0,-1,641618,218946,1300613,65700,7463,650015,0
0,-1,633412,218456,1344142,65535,7612,671626,0
0,-1,636835,219522,1196616,65821,6664,597918,0
0,-1,659724,223570,1322661,69032,8357,660973,0
0,-1,637530,219287,1209945,65862,7296,604672,0
0,-1,639604,219891,1237549,66083,7510,618375,0
0,-1,635088,218719,1244530,65727,7131,621937,0
0,-1,636608,218281,1190357,65559,7215,594877,0
0,-1,637028,218355,1212585,65444,7571,605934,0
0,-1,643101,221359,1226384,66650,7529,612622,0
0,-1,638302,218848,1294811,65700,7603,647021,0
0,-1,645924,221131,1266215,66802,7903,632470,0
0,-1,655232,223092,1301801,68850,8545,650501,0
0,-1,642726,221250,1304189,66602,7990,651573,0
0,-1,639374,219494,1157080,65965,7519,578201,0
0,-1,640229,219048,1219415,65792,7241,609316,0
0,-1,640507,219958,1292160,66303,8084,645555,0
0,-1,639905,219174,1215351,65818,7347,607245,0
0,-1,640221,218252,1409281,65603,8438,704365,0
0,-1,637899,218881,1187929,65828,6701,593574,0
0,-1,641968,219395,1190093,65917,6933,594666,0
0,-1,663904,224007,1292534,69334,8499,645933,0
0,-1,641116,218745,1226446,65709,7324,612857,0
0,-1,644419,219268,1239155,65822,7418,619107,0
0,-1,639723,218724,1199148,65613,7326,599235,0
0,-1,640774,219258,1212539,65769,7722,606016,0
0,-1,642901,219788,1265912,65937,7654,632559,0
0,-1,642872,220388,1213350,66208,6930,606279,0
0,-1,642895,220259,1294394,66192,7748,646858,0
0,-1,645784,220439,1377035,66439,8524,687827,0
0,-1,641816,219407,1307057,65932,8316,653133,0
0,-1,641982,218991,1194384,65809,7746,596854,0
0,-1,640526,219313,1402377,66041,8115,700687,0
0,-1,638569,218520,1221469,65735,7704,610393,0
0,-1,636897,218059,1289645,65641,6997,644425,0
0,-1,663443,223550,1213290,69110,8299,606289,0
0,-1,664749,223865,1360595,69323,8043,679879,0
0,-1,642055,219984,1207199,66266,7798,603208,0
0,-1,639956,218957,1305928,65885,7738,652634,0
0,-1,647814,220980,1328841,66769,8280,663764,0
0,-1,644895,220455,1266312,66554,8387,632603,0
0,-1,648326,220977,1308156,66884,8310,653530,0
0,-1,645377,219860,1315709,66212,7811,657555,0
0,-1,637355,218995,1164066,65936,6287,581681,0
0,-1,640422,221374,1371582,66958,8333,685877,0
0,-1,632281,218430,1217385,65667,8450,608018,0
0,-1,634979,219005,1214297,65941,8040,606737,0
0,-1,637135,218877,1227171,65857,8016,613294,0
0,-1,639872,219384,1362199,66031,8446,680728,0
0,-1,639450,219769,1284143,66173,7475,641742,0
0,-1,638484,219925,1261669,66246,7352,630468,0
0,-1,660026,223723,1293936,69279,8782,646504,0
0,-1,638984,219929,1360031,66439,8796,679166,0
0,-1,639441,218825,1455917,65823,8309,727710,0
0,-1,642973,220974,1364144,66850,8573,681465,0
0,-1,632583,218945,1226270,65867,8209,612839,0
0,-1,656923,223510,1291734,69196,9197,645452,0
0,-1,637870,219053,1383070,65962,7412,690681,0
0,-1,637837,218739,1294871,65803,8346,646767,0
0,-1,660134,223874,1306306,69363,8318,652713,0
0,-1,635998,218857,1396480,65908,9693,697922,0
0,-1,640605,219472,1509400,66117,8602,754086,0
0,-1,641338,219590,1325934,65983,9348,662258,0
0,-1,641544,220225,1313184,66258,9065,655906,0
0,-1,640400,219807,1176422,66114,7385,587839,0
0,-1,644004,220303,1289674,66247,7106,644458,0
0,-1,634757,219108,1289467,65842,7283,644348,0
0,-1,639175,219611,1196316,66063,7500,597681,0
0,-1,659211,224301,1249798,69359,8140,624384,0
0,-1,637735,218970,1278539,65808,7746,638886,0
0,-1,642163,220474,1278788,66364,7328,638899,0
0,-1,636220,219177,1271818,65890,6903,635571,0
0,-1,637339,218777,1184723,65758,7257,592047,0
0,-1,644174,221611,1216696,67018,7970,607490,0
0,-1,644022,220163,1250618,66394,8289,624646,0
0,-1,640729,219694,1453040,66121,8417,725835,0
0,-1,644455,221045,1295461,66664,7448,647152,0
0,-1,640320,219944,1336843,66165,7750,667911,0
0,-1,640181,220035,1209870,66187,7552,604466,0
0,-1,635570,218817,1278334,65719,6850,638781,0
0,-1,641700,220198,1250511,66194,7132,624766,0
0,-1,638757,218729,1306478,65638,6997,652894,0
0,-1,636365,218901,1229777,65738,7310,614560,0
0,-1,642474,220423,1289627,66291,7906,644194,0
0,-1,662029,224344,1189694,69354,8362,594500,0
0,-1,642816,220473,1362360,66315,7494,680852,0
0,-1,663730,224104,1266951,69283,8402,633114,0
0,-1,642597,219829,1266494,66138,7347,632849,0
0,-1,642874,219298,1255183,65911,7376,627274,0
0,-1,656946,223738,1200815,69186,7757,599931,0
0,-1,637076,219459,1185945,65989,6416,592627,0
0,-1,643847,221314,1317065,66793,8095,658010,0
0,-1,641725,220669,1329526,66518,7496,664194,0
0,-1,637006,219557,1257896,65988,7458,628754,0
0,-1,640172,220370,1211089,66418,7499,605070,0
0,-1,645835,222310,1249704,67230,7509,624225,0
0,-1,662380,224178,1398085,69319,7506,698268,0
0,-1,638610,219347,1270498,65973,7079,634906,0
0,-1,638177,219218,1214760,65926,7240,606900,0
0,-1,643120,220018,1317883,66174,7154,658491,0
0,-1,636210,219385,1232028,65977,8622,615584,0
0,-1,643466,221061,1258840,66702,8183,628935,0
0,-1,640012,219661,1192764,66083,7769,596036,0
0,-1,639671,219838,1187975,66125,6706,593668,0
0,-1,640378,219306,1186827,65963,7116,593048,0
0,-1,639013,218952,1187542,65762,7675,593445,0
0,-1,646758,221128,1252576,66765,8609,625636,0
0,-1,642694,220241,1333956,66284,8313,666502,0
0,-1,640256,219469,1433171,66041,9074,716144,0
0,-1,643848,220486,1341873,66331,8544,670475,0
0,-1,640773,219970,1308574,66124,7883,653926,0
0,-1,641788,219497,1231637,66028,7098,615634,0
0,-1,639507,218963,1209616,65784,6898,604436,0
0,-1,636846,219060,1259512,65828,7880,629415,0
0,-1,643972,221260,1316424,66907,7647,657646,0
0,-1,643979,220713,1206879,66392,7090,603086,0
0,-1,640066,219711,1185615,66110,6655,592455,0
0,-1,639270,218813,1235868,65751,7739,617507,0
0,-1,642450,219669,1308738,66066,7307,653806,0
0,-1,642238,220362,1266595,66485,7257,632830,0
0,-1,646869,221977,1407848,67154,7899,703325,0
0,-1,660912,223923,1238332,69212,8294,618920,0
0,-1,638556,219073,1174382,65793,6664,586919,0
0,-1,643855,219688,1351921,65897,8076,675237,0
0,-1,643623,219304,1220287,65748,7491,609803,0
0,-1,640225,219952,1374484,65930,8999,686917,0
0,-1,644028,221281,1315842,66624,8705,657240,0
0,-1,641099,219549,1168082,65893,8364,583661,0
0,-1,639906,219207,1480628,65857,9490,739859,0
0,-1,642519,219786,1324511,65997,8367,661838,0
0,-1,647755,220774,1360774,66365,7643,680021,0
0,-1,646351,221387,1331124,66777,8345,664913,0
0,-1,645024,220106,1523016,66171,11300,761121,0
0,-1,643720,220386,1252731,66290,8080,625958,0
0,-1,646652,220630,1277201,66351,8339,638221,0
0,-1,644452,220010,1224142,66185,8142,611655,0
0,-1,647005,220832,1494578,66271,10268,746462,0
0,-1,648768,221059,1321804,66307,8565,660342,0
0,-1,639754,220858,1249379,66232,8225,624282,0
0,-1,642967,221532,1338993,66386,8931,669202,0
0,-1,644112,221935,1337871,66818,9008,668355,0
0,-1,642528,220360,1210073,65979,8662,604591,0
0,-1,639707,220064,1343722,65895,8362,671410,0
0,-1,643344,220567,1240984,66183,8912,619933,0
0,-1,648196,222731,1303775,67130,8501,651370,0
0,-1,647638,222458,1327999,67056,8099,663336,0
0,-1,641688,219591,1419235,65884,8791,709247,0
0,-1,641090,219953,1151687,66039,7756,575511,0
0,-1,643493,220603,1215234,66273,7863,607118,0
0,-1,645768,220154,1215219,66191,8267,607102,0
0,-1,641980,220425,1385609,66089,8408,691853,0
0,-1,642749,219793,1311376,65961,8066,655385,0
0,-1,640514,219881,1212548,65952,7837,605862,0
0,-1,661898,224239,1287509,69204,8857,643380,0
0,-1,643704,220755,1316874,66434,8016,658011,0
0,-1,646370,220029,1293897,66126,8339,646529,0
0,-1,643809,220838,1294140,66534,8131,646408,0
0,-1,641197,219552,1393684,65892,8431,695761,0
0,-1,641527,219440,1279539,65876,8367,639423,0
0,-1,645711,220962,1341147,66585,8455,669932,0
0,-1,640202,218861,1305526,65599,7572,652456,0
0,-1,643121,218907,1287862,65748,8442,643532,0
0,-1,638767,219460,1269369,65949,7670,634314,0
0,-1,645133,221163,1434180,66830,8109,716486,0
0,-1,639221,219108,1273371,65824,8325,636351,0
0,-1,660573,223718,1251507,69142,8931,625384,0
0,-1,646290,221283,1410928,66661,8582,704807,0
0,-1,641690,218859,1322887,65646,8104,660842,0
0,-1,643721,220356,1291604,66357,8620,645085,0
0,-1,641479,219349,1143686,65801,7743,571514,0
0,-1,642467,219873,1270955,66206,8445,635060,0
0,-1,644657,220183,1418727,66378,8666,708713,0
0,-1,640952,219530,1799883,66009,10912,899273,0
0,-1,640195,219852,1164347,66047,7855,581670,0
0,-1,639598,218733,1329912,65625,8505,664652,0
0,-1,640697,219025,1406771,65715,8639,702989,0
0,-1,641588,219160,1309927,65749,8117,654541,0
0,-1,642159,219964,1320054,65932,9079,659670,0
0,-1,644960,219773,1168417,65953,9040,583616,0
0,-1,645401,219995,1269146,65877,8378,634137,0
0,-1,671574,225313,1316920,69857,9337,657925,0
0,-1,645361,219515,1300004,65738,8715,649640,0
0,-1,644332,221942,1200338,66746,8716,599340,0
0,-1,645429,221681,1291056,66687,8052,644652,0
0,-1,643168,219788,1295370,65745,7852,647071,0
0,-1,641208,220046,1323767,65934,8102,661482,0
0,-1,642460,219775,1324923,65832,8303,662090,0
0,-1,643520,219282,1213393,65659,8365,606328,0
0,-1,639786,219769,1319356,65844,8482,659056,0
0,-1,639152,219372,1286453,65846,7568,642678,0
0,-1,659201,223454,1237026,68947,8078,618163,0
0,-1,664157,223676,1223111,68993,8390,611139,0
0,-1,640947,219381,1405343,65843,8442,702045,0
0,-1,644101,220138,1193968,66269,7994,595888,0
0,-1,644235,220389,1274904,66310,7637,637076,0
0,-1,639931,219019,1404434,65653,8541,701686,0
0,-1,641490,220453,1295469,66366,8129,647012,0
0,-1,643501,220826,1286424,66480,7766,642821,0
0,-1,640912,219348,1423458,65791,8768,711245,0
0,-1,642029,218643,1325495,65516,9241,662331,0
0,-1,647689,221554,1252756,66856,8661,625698,0
0,-1,637236,218908,1238044,65614,7519,618520,0
0,-1,662956,223828,1341551,69061,9460,670628,0
0,-1,642252,219286,1185830,65820,8299,592211,0
0,-1,641677,219212,1277448,65775,8215,638224,0
0,-1,640219,218385,1237246,65432,8337,618319,0
0,-1,641918,218936,1299850,65617,8713,649523,0
0,-1,657205,223438,1274071,68957,8211,636771,0
0,-1,639755,219613,1287041,65898,7517,643100,0
0,-1,642437,220169,1174707,66247,7271,586894,0
0,-1,639511,218641,1297733,65531,8086,648544,0
0,-1,642028,219437,1468375,65859,9900,733501,0
0,-1,643336,219455,1252610,65823,7855,625973,0
0,-1,645761,219614,1302418,65892,8113,650675,0
0,-1,638620,218673,1326992,65518,7638,663174,0
0,-1,644808,220753,1254937,66451,7601,626712,0
0,-1,644806,221281,1216008,66600,7259,607638,0
0,-1,641557,218843,1483647,65583,8840,741480,0
0,-1,645241,219286,1231046,65795,8386,615085,0
0,-1,639691,219250,1295090,65791,7197,647109,0
0,-1,641275,218936,1254910,65616,7184,627155,0
0,-1,648242,220416,1175828,66320,7544,587342,0
0,-1,641209,218967,1232917,65634,7945,616141,0
0,-1,644720,219767,1340809,65908,8335,669977,0
0,-1,642508,219969,1216142,66181,7005,607439,0
0,-1,643269,218699,1267291,65560,7741,633351,0
0,-1,643541,218623,1256183,65514,7573,627808,0
0,-1,662073,223352,1376990,68866,8493,688108,0
0,-1,644984,219371,1206720,65787,7448,603008,0
0,-1,644838,219175,1266195,65673,7565,632595,0
0,-1,629001,218662,1242740,65048,6533,620922,0
0,-1,636974,220899,1165328,66029,6828,582024,0
0,-1,631253,218305,1201123,64867,7037,600167,0
0,-1,640649,221171,1247190,66079,7155,622943,0
0,-1,652977,223402,1351826,68426,9955,675546,0
0,-1,632706,218419,1301859,64952,7646,650521,0
0,-1,633901,218623,1244054,64984,7105,621667,0
0,-1,641300,220796,1200578,65960,7214,599703,0
0,-1,634191,218901,1343125,65130,7657,671203,0
0,-1,655573,223170,1324568,68277,7962,661964,0
0,-1,638625,219722,1375053,65371,7991,687175,0
0,-1,661513,224352,1363416,69180,9557,681163,0
0,-1,638927,219725,1369278,65442,7836,684764,0
0,-1,634047,218736,1166531,65095,7964,582921,0
0,-1,654658,223418,1341673,68424,9253,670416,0
0,-1,635480,218460,1181364,64979,6634,590416,0
0,-1,635013,218693,1311156,65219,8007,655219,0
0,-1,634676,218300,1249157,65014,6958,624168,0
0,-1,640149,219476,1137407,65520,7020,568259,0
0,-1,637619,219576,1264142,65539,7798,631606,0
0,-1,637810,218733,1279924,65938,8690,639660,0
0,-1,641860,220589,1245278,67001,8270,622083,0
0,-1,640438,219394,1288019,66273,8863,643647,0
0,-1,640827,219824,1233090,66638,8288,615958,0
0,-1,642071,219353,1256333,66277,8743,627793,0
0,-1,645966,220387,1214646,66852,8325,606746,0
0,-1,642768,219080,1413587,66230,8786,706429,0
0,-1,637384,219190,1189760,66278,7929,594565,0
0,-1,639650,219258,1298970,66176,8341,649100,0
0,-1,641439,220668,1199831,66864,8011,599370,0
0,-1,637601,218598,1357561,65960,8649,678552,0
0,-1,640447,219380,1317882,66315,8391,658457,0
0,-1,642454,219934,1326720,66486,8002,662926,0
0,-1,638181,218585,1451593,66043,8512,726141,0
0,-1,638806,218706,1239550,66041,8047,619444,0
0,-1,640806,218536,1259643,65988,8222,629326,0
0,-1,639223,219229,1433435,66131,8187,716163,0
0,-1,639569,219036,1253012,66133,7730,626117,0
0,-1,644066,219548,1277267,66379,7506,638295,0
0,-1,639379,219558,1278947,66356,7392,639192,0
0,-1,636832,218839,1259803,66087,7896,629610,0
0,-1,638670,218807,1249079,66144,7519,624135,0
0,-1,640990,218638,1161861,66019,6672,580683,0
0,-1,642054,218924,1239276,66165,7293,619226,0
0,-1,639799,219652,1245837,66441,7072,622564,0
0,-1,659962,223148,1363717,69350,8842,681501,0
0,-1,643047,220163,1240720,66754,8032,619675,0
0,-1,643371,219716,1189556,66423,7979,594384,0
0,-1,642039,219161,1428680,66182,9265,713900,0
0,-1,643440,220161,1209883,66812,8290,604014,0
0,-1,634936,218951,1321084,66162,8800,659857,0
0,-1,642238,220619,1209908,66994,8853,604304,0
0,-1,656748,223375,1331418,69372,8608,665270,0
0,-1,644574,220794,1238313,67085,7841,618142,0
0,-1,640770,219464,1291670,66342,7802,645433,0
0,-1,641469,220688,1245746,66881,8106,622348,0
0,-1,637810,218603,1179239,66003,7774,589264,0
0,-1,637767,218170,1337628,65785,8556,668482,0
0,-1,640821,218772,1238428,66007,7652,618810,0
0,-1,642696,219977,1197825,66695,7841,598245,0
0,-1,643857,220343,1341632,66784,7973,670022,0
0,-1,643271,219214,1203395,66288,7632,601278,0
0,-1,638172,219095,1238287,66221,7853,618382,0
0,-1,636760,218743,1291806,66091,8012,645618,0
0,-1,640344,218911,1177522,66108,6893,588425,0
0,-1,643258,220279,1195414,66745,7314,597166,0
0,-1,643670,220371,1143093,66693,7704,570963,0
0,-1,642631,218828,1254379,66127,8715,626781,0
0,-1,659197,223490,1406562,69457,9069,702649,0
0,-1,642386,219196,1397659,66153,8101,698134,0
0,-1,642901,219294,1245902,66237,6992,622570,0
0,-1,638605,218517,1206946,65949,6753,603098,0
0,-1,643172,219596,1288714,66382,7630,643921,0
0,-1,645955,219105,1284606,66124,7724,641956,0
0,-1,641407,219838,1433500,66338,7985,716215,0
0,-1,643001,219403,1223770,66257,7786,611609,0
0,-1,661777,223701,1374945,69490,9242,687079,0
0,-1,643525,218797,1246820,66079,8220,623176,0
0,-1,641057,219926,1207223,66669,7337,603210,0
0,-1,641633,219402,1195120,66225,7234,597177,0
0,-1,643509,218700,1147443,65939,7111,573207,0
0,-1,643113,219669,1265013,66419,7430,631925,0
0,-1,663870,223519,1479556,69420,9237,739494,0
0,-1,643494,218968,1293500,66023,7889,646350,0
0,-1,638283,218841,1192320,66050,7529,595870,0
0,-1,641485,218791,1254291,66073,7211,626821,0
0,-1,641052,219062,1181710,66213,7714,590468,0
0,-1,640418,218967,1330691,66121,8331,664990,0
0,-1,639941,218291,1294560,65910,8105,646608,0
0,-1,649068,220819,1257876,66968,8400,628363,0
0,-1,669592,228372,1375799,68938,7492,687600,0
0,-1,643930,219323,1158814,66207,8139,579033,0
0,-1,644464,219080,1409308,66212,8150,704342,0
0,-1,640524,218583,1326875,66007,8567,663062,0
0,-1,646520,219827,1329104,66614,8256,663835,0
0,-1,644419,218653,1214911,66093,7834,607142,0
0,-1,649401,220282,1282222,66821,8127,640121,0
0,-1,639337,219783,1384767,66270,8189,692209,0
0,-1,637012,219194,1328982,66084,8480,664040,0
0,-1,637501,218530,1229476,65811,7935,614396,0
0,-1,635424,219002,1288023,66056,7622,643609,0
0,-1,661542,223657,1321523,69487,8288,660254,0
0,-1,644514,220597,1188829,66920,7180,593933,0
0,-1,641479,220506,1318844,66654,7872,659013,0
0,-1,642090,219746,1296268,66535,8111,647760,0
0,-1,648774,222478,1311918,67642,7999,655294,0
0,-1,646978,221026,1226546,67046,7664,612458,0
0,-1,644606,220502,1239351,66608,7820,619273,0
0,-1,642660,219489,1269913,66316,8445,634566,0
0,-1,646518,220967,1230246,67031,8479,614627,0
0,-1,643406,220547,1344467,66829,9128,671789,0
0,-1,641191,219523,1287263,66385,8267,643191,0
0,-1,666636,224200,1354633,69780,9735,676998,0
0,-1,642351,219709,1288944,66508,8917,643965,0
0,-1,641496,219453,1363387,66340,8567,681289,0
0,-1,647244,221143,1213278,67077,8453,606120,0
0,-1,671127,229410,1650365,69323,10588,824653,0
0,-1,644852,220325,1315527,66613,8280,657436,0
0,-1,643546,219996,1259526,66430,8852,629329,0
0,-1,646176,219942,1338478,66500,8830,668923,0
0,-1,647210,220227,1247606,66469,8665,623432,0
0,-1,640826,220030,1216106,66492,8588,607702,0
0,-1,640992,219956,1371754,66449,8574,685595,0
0,-1,663271,224417,1340479,69682,8491,669967,0
0,-1,642096,220289,1444749,66594,8431,721790,0
0,-1,643434,219858,1275310,66434,7702,637436,0
0,-1,642327,219858,1234025,66415,7366,616680,0
0,-1,646086,220764,1157870,66915,7532,578302,0
0,-1,643188,220114,1186783,66519,7131,592993,0
0,-1,693185,234100,1407303,72553,9445,703178,0
0,-1,667032,225253,1328203,69883,8843,663674,0
0,-1,645183,220651,1369406,66604,8563,684052,0
0,-1,645868,220535,1361141,66482,8725,679803,0
0,-1,648726,220749,1290821,66548,8994,644800,0
0,-1,646349,222185,1215637,67306,8748,607118,0
0,-1,664228,224624,1339235,69645,8663,669216,0
0,-1,643708,220205,1324637,66394,8186,661936,0
0,-1,645375,220137,1264801,66329,7923,632035,0
0,-1,643080,220096,1239745,66427,8242,619440,0
0,-1,648851,221433,1177231,67086,8328,588009,0
0,-1,643016,220042,1256826,66401,7802,628106,0
0,-1,644737,220046,1287258,66428,8705,643069,0
0,-1,649019,220347,1257308,66757,7822,627940,0
0,-1,665149,224527,1411038,69647,9219,705050,0
0,-1,646058,219831,1320371,66390,7687,659789,0
0,-1,637019,219637,1276174,66261,7777,637528,0
0,-1,636976,217947,1308728,65774,8631,654036,0
0,-1,640441,219834,1307213,66389,8601,653194,0
0,-1,642179,220295,1284348,66559,7535,641672,0
0,-1,645440,220254,1279641,66510,8471,639321,0
0,-1,640071,219313,1390443,66239,7799,694822,0
0,-1,641217,219373,1305639,66218,7984,652519,0
0,-1,642695,219972,1399433,66435,7865,699296,0
0,-1,665769,224564,1346098,69698,9602,672728,0
0,-1,639118,218825,1344809,66020,8065,671975,0
0,-1,665370,225311,1377227,69938,8827,688237,0
0,-1,644844,219581,1387870,66261,8140,693544,0
0,-1,644787,220950,1191497,66888,7286,595065,0
0,-1,644944,220096,1245759,66447,7863,622368,0
0,-1,668133,225043,1239906,69784,8751,619429,0
0,-1,645664,221830,1184200,67139,7845,591494,0
0,-1,649219,221784,1272847,67191,7763,635563,0
0,-1,642888,219756,1284615,66236,7884,641908,0
0,-1,645852,220354,1190988,66592,7770,595041,0
0,-1,642367,219820,1265452,66454,8205,632287,0
0,-1,664581,224261,1387601,69683,9317,693380,0
0,-1,646658,219786,1308112,66381,7862,653730,0
0,-1,648018,220368,1224406,66601,7223,611628,0
0,-1,648393,220835,1254024,66983,7791,626084,0
0,-1,652468,220949,1246985,66830,8119,622928,0
0,-1,643992,220028,1358184,66369,8573,678543,0
0,-1,643037,219838,1417299,66322,8309,707950,0
0,-1,642402,219171,1241297,66076,8890,620338,0
0,-1,645582,219282,1215138,66107,8773,607189,0
0,-1,645229,220484,1230724,66535,7782,614780,0
0,-1,643808,220404,1264931,66705,8077,631974,0
0,-1,649215,220879,1268539,66834,8092,633721,0
0,-1,640156,219038,1350236,66011,7890,674651,0
0,-1,643409,219501,1305933,66176,9130,652524,0
0,-1,643991,219663,1239510,66218,7801,619191,0
0,-1,667836,224390,1396346,69601,9672,697811,0
0,-1,644556,219269,1228082,66157,7988,613604,0
0,-1,661506,224177,1297256,69476,9055,648206,0
0,-1,666412,224620,1460216,69681,9095,729746,0
0,-1,645596,220100,1225280,66414,7800,612224,0
0,-1,642784,219850,1251673,66531,7733,625407,0
0,-1,639956,218172,1119336,65809,7511,559345,0
0,-1,647020,219506,1205733,66323,7500,602567,0
0,-1,644274,219765,1273666,66533,7013,636459,0
0,-1,643422,218539,1210336,66055,8123,604845,0
0,-1,643112,218784,1228631,66274,7968,613916,0
0,-1,644183,218947,1128875,66304,7521,564113,0
0,-1,653665,221187,1308263,67373,7670,653583,0
0,-1,635909,219369,1309912,66437,7340,654474,0
0,-1,634946,218408,1185504,66078,6614,592427,0
0,-1,636512,218651,1190939,66164,6905,595051,0
0,-1,635420,218158,1209042,65995,7932,604181,0
0,-1,635511,218052,1155309,65973,7671,577287,0
0,-1,637467,218244,1291828,66025,7618,645615,0
0,-1,636884,219490,1257479,66485,6802,628384,0
0,-1,637838,218484,1203153,66113,7768,601196,0
0,-1,636701,218513,1277908,66109,7088,638618,0
0,-1,637495,218682,1308593,66232,7118,653969,0
0,-1,640138,219071,1126287,66278,6925,562903,0
0,-1,637038,217774,1272486,65912,7583,635981,0
0,-1,646912,221171,1362310,67354,8277,680504,0
0,-1,638598,219116,1384778,66368,7345,692097,0
0,-1,634074,217731,1177656,65945,6964,588435,0
0,-1,643522,220112,1312178,66875,7770,655401,0
0,-1,637559,218842,1273170,66265,7657,636258,0
0,-1,637492,218709,1302785,66239,7183,650585,0
0,-1,644579,220041,1373577,66636,7704,686436,0
0,-1,643894,220595,1424448,66919,8241,711112,0
0,-1,643494,220189,1293680,66750,7882,646207,0
1,-1,697421,239209,1422501,71480,7917,710781,0
1,-1,693645,236893,1308917,70545,7770,653995,0
1,-1,689349,236808,1324917,70535,7449,662185,0
1,-1,690115,236962,1454647,70554,7961,726875,0
1,-1,692000,237519,1255674,70807,7817,627402,0
1,-1,687493,236963,1373227,70665,7872,686252,2
1,-1,689060,236684,1257454,70422,7854,628367,0
1,-1,637102,218273,1346148,65576,7809,672728,0
1,-1,641859,219459,1227787,65966,8447,613468,0
1,-1,637249,218016,1209583,65456,7665,604445,0
1,-1,638553,219100,1186902,65770,7165,593061,0
1,-1,646849,221443,1332731,66658,8103,665701,0
1,-1,637616,218579,1227363,65528,8110,613276,0
1,-1,644070,221398,1300395,66742,8072,649628,0
1,-1,663185,224095,1338312,69309,8822,668716,0
1,-1,640559,218821,1184175,65737,7931,591529,0
1,-1,640879,218097,1251315,65342,8207,625224,0
1,-1,642593,221556,1465386,66779,9076,731943,0
1,-1,641197,221123,1304040,66639,8231,651289,0
1,-1,637289,218757,1257927,65752,7823,628532,0
1,-1,639146,220042,1285781,66331,7943,642284,0
1,-1,638283,219044,1291620,65779,7337,645307,0
1,-1,642000,219468,1308341,66090,7609,653653,0
1,-1,638086,219195,1188319,65897,6601,593835,0
1,-1,638726,218815,1162111,65685,7750,580603,0
1,-1,634934,218619,1210271,65570,7674,604890,0
1,-1,638533,218270,1202539,65517,7278,600903,0
1,-1,666752,225002,1282513,70104,8336,640803,0
1,-1,634408,218904,1265228,65700,7558,632595,0
1,-1,634587,218478,1228109,65529,7249,613642,0
1,-1,635185,218280,1167677,65544,7175,583534,0
1,-1,642894,220533,1272755,66584,8094,635804,0
1,-1,636830,219010,1161216,65773,7447,580290,0
1,-1,641736,219861,1293946,66296,8358,646387,0
1,-1,642907,219665,1300397,66036,7888,649957,0
1,-1,636081,217840,1195555,65506,6944,597355,0
1,-1,642854,220150,1209708,66314,7805,604314,0
1,-1,641706,219663,1215853,66015,7385,607590,0
1,-1,639452,218973,1301156,65806,7573,650247,0
1,-1,644672,219410,1311180,65779,8208,655193,0
1,-1,641138,219728,1324060,65885,7927,661719,0
1,-1,639451,219425,1405946,65779,7559,702527,0
1,-1,663292,224643,1250790,69304,8164,625017,0
1,-1,637999,219487,1148852,65923,7496,574037,0
1,-1,638727,218601,1281591,65612,7900,640573,0
1,-1,641338,219038,1176973,65751,6880,588067,0
1,-1,644554,221141,1307845,66770,7761,653291,0
1,-1,642163,219639,1171407,65944,7110,585406,0
1,-1,646262,222059,1323010,67201,7806,660781,0
1,-1,644913,220515,1307395,66633,8101,653077,0
1,-1,660241,223743,1256597,69295,7882,627834,0
1,-1,642136,219472,1304308,66093,8056,651854,0
1,-1,642461,219329,1402924,66059,7872,700965,0
1,-1,638593,218895,1310407,65870,8167,654877,0
1,-1,641425,218783,1195774,65891,8069,597478,0
1,-1,641839,219061,1189297,65972,7627,594164,0
1,-1,643037,219061,1196394,65971,8003,597733,0
1,-1,665790,224105,1268968,69383,8692,634119,0
1,-1,646095,220512,1333172,66618,8134,666037,0
1,-1,644808,218694,1300490,65800,7189,650011,0
1,-1,634103,219149,1281201,65989,7071,640190,0
1,-1,636591,218817,1251033,65876,8283,624945,0
1,-1,638672,219996,1347861,66475,8544,673368,0
1,-1,658682,224033,1277056,69328,8816,637914,0
1,-1,638333,219041,1217036,65937,8175,608015,0
1,-1,633913,218031,1170295,65652,6888,584706,0
1,-1,635971,218943,1145339,65877,7126,572217,0
1,-1,640222,219616,1310729,66090,7651,655106,0
1,-1,635231,218817,1364071,65761,8419,681704,0
1,-1,637718,218796,1460032,65893,7962,729409,0
1,-1,660925,223866,1417787,69291,9920,708555,0
1,-1,640552,219421,1198123,66077,8174,598605,0
1,-1,636987,219106,1316282,65957,8127,657583,0
1,-1,667591,229350,1399603,69233,8821,698480,0
1,-1,640323,220196,1253023,66272,7632,626128,0
1,-1,636340,218632,1355283,65775,8322,677352,0
1,-1,640978,220995,1306157,66845,7769,652328,0
1,-1,635565,218977,1207019,65867,7019,603000,0
1,-1,661025,223992,1222027,69389,7981,610704,0
1,-1,639667,219866,1155085,66166,7259,577123,0
1,-1,644382,220640,1297710,66556,7975,648214,0
1,-1,644880,221293,1466034,66837,8716,732326,0
1,-1,640813,220107,1205193,66168,7093,602106,0
1,-1,637759,219149,1295977,65908,8988,647252,0
1,-1,637665,219449,1230125,65957,7468,614565,0
1,-1,637854,219012,1187872,65813,7217,593461,0
1,-1,639690,219870,1201689,66098,7123,600309,0
1,-1,637632,220121,1245282,66203,6947,622124,0
1,-1,636981,219285,1289671,65956,6751,644443,0
1,-1,641201,220277,1267969,66232,6720,633600,0
1,-1,640349,219289,1305134,66004,8939,652190,0
1,-1,640626,219955,1191796,66182,7251,595433,0
1,-1,642087,219476,1217698,66041,7249,608331,0
1,-1,638287,219683,1192851,66077,7578,596034,0
1,-1,636564,218745,1170997,65728,7193,585090,0
1,-1,641946,219512,1196983,66024,7447,598065,0
1,-1,638902,219357,1187967,65913,7007,593645,0
1,-1,645222,220914,1309337,66650,7611,654075,0
1,-1,637658,219739,1299663,66025,8006,649501,0
1,-1,641910,220759,1342715,66640,8018,670678,0
1,-1,640549,219860,1188838,66013,7753,594108,0
1,-1,642957,220957,1282059,66686,7556,640293,0
1,-1,642454,219441,1284397,65972,7571,641837,0
1,-1,640543,219149,1292385,65820,7728,645828,0
1,-1,663349,223778,1243666,69152,8711,621761,0
1,-1,635805,219468,1350123,66007,7803,674719,0
1,-1,643587,221501,1220629,66839,8112,609806,0
1,-1,639309,220448,1293494,66251,7648,646468,0
1,-1,637928,219627,1180889,66043,6564,590142,0
1,-1,636521,219690,1287917,66077,7774,643535,0
1,-1,638311,219658,1207429,66033,7884,603393,0
1,-1,658855,223986,1179298,69206,7770,589189,0
1,-1,639287,219040,1242387,65853,7606,620895,0
1,-1,642156,220649,1312375,66567,7657,655527,0
1,-1,643835,220471,1278578,66351,7572,638962,0
1,-1,662861,223787,1257553,69195,8137,628496,0
1,-1,637364,219831,1170843,66071,7669,584991,0
1,-1,636439,218994,1247564,65865,7675,623388,0
1,-1,640412,220115,1272432,66213,7960,635809,0
1,-1,637947,219537,1333173,65987,7399,666454,0
1,-1,640951,219370,1290253,65857,7963,644729,0
1,-1,660929,223735,1278845,69149,8242,638960,0
1,-1,641836,219593,1134800,66076,7394,566983,0
1,-1,639572,219170,1266298,65914,7906,632759,0
1,-1,641353,219839,1319186,66081,7636,658769,0
1,-1,636630,218160,1195216,65545,7257,597240,0
1,-1,642294,219050,1203488,65842,7877,601332,0
1,-1,646153,221701,1288790,66964,7715,643580,0
1,-1,646547,220431,1302935,66466,8224,650670,0
1,-1,641346,221484,1411996,66983,8528,705008,0
1,-1,660023,223811,1263410,69221,7871,631349,0
1,-1,639328,219115,1275786,65869,7541,637578,0
1,-1,645027,221506,1278822,66953,7590,638765,0
1,-1,637267,218892,1231826,65784,7117,615551,0
1,-1,646683,221512,1302495,66851,7508,650738,0
1,-1,640837,220064,1191574,66152,7201,595380,0
1,-1,660789,223776,1283835,69229,7998,641404,0
1,-1,643299,219994,1294643,66133,8486,646954,0
1,-1,639112,219546,1255114,66033,7013,627158,0
1,-1,640011,219177,1207129,65825,7277,603295,0
1,-1,644231,220028,1328020,65961,8067,663567,0
1,-1,638442,219721,1225864,65938,8535,612584,0
1,-1,643865,220595,1237986,66260,8173,618438,0
1,-1,664744,224813,1272543,69416,9090,635859,0
1,-1,661184,223771,1268963,69114,8689,634093,0
1,-1,666504,225090,1340336,69449,9130,669725,0
1,-1,644367,219975,1224823,66044,7446,611857,0
1,-1,642991,220267,1304936,66221,8039,652065,0
1,-1,666015,225582,1247553,69756,8283,623290,0
1,-1,647689,222068,1219670,66979,7850,609275,0
1,-1,643697,219907,1151384,66191,7326,575171,0
1,-1,641302,219064,1383377,65803,8399,691202,0
1,-1,644195,220145,1325492,65980,8466,662327,0
1,-1,646175,220182,1187222,65983,7863,593211,0
1,-1,646404,221107,1278197,66282,8034,638733,0
1,-1,639607,220266,1202662,66054,8061,600919,0
1,-1,640205,220635,1673599,66192,10931,836372,0
1,-1,645034,221467,1306129,66652,8754,652469,0
1,-1,643265,221400,1251379,66470,8625,625124,0
1,-1,646028,222024,1240531,66832,8440,619591,0
1,-1,640689,220154,1228455,65987,8666,613910,0
1,-1,664084,225532,1298342,69565,9273,648854,0
1,-1,644551,220451,1616698,66228,10542,807183,0
1,-1,645662,221203,1334224,66661,8562,666516,0
1,-1,643351,220610,1299715,66199,8892,649503,0
1,-1,644080,219780,1372516,66039,8417,685942,0
1,-1,640245,219991,1327584,65955,8854,663237,0
1,-1,643410,220314,1306896,66047,7993,653062,0
1,-1,666029,224908,1243414,69395,9046,621428,0
1,-1,643087,220290,1242877,66154,8170,621137,0
1,-1,643381,220461,1239440,66252,7633,619309,0
1,-1,640438,218791,1205220,65756,7921,602291,0
1,-1,641520,220201,1203787,66121,7445,601568,0
1,-1,641443,219534,1209221,65944,7510,604300,0
1,-1,641669,219454,1363317,65877,8789,681270,0
1,-1,640037,219448,1438323,65864,10558,718392,0
1,-1,645998,220580,1300768,66447,8904,649891,0
1,-1,641208,218658,1266644,65548,8033,632959,0
1,-1,637751,219382,1191638,65955,7526,595613,0
1,-1,659989,223683,1275360,69148,8463,637306,0
1,-1,637963,219095,1160080,65868,7351,579690,0
1,-1,639914,219592,1357027,66006,8885,678145,0
1,-1,641043,219472,1478907,65928,9519,738512,0
1,-1,646631,221243,1302562,66667,8370,650531,0
1,-1,639077,219399,1300716,65792,8504,649884,0
1,-1,640115,219268,1196103,65833,7730,597610,0
1,-1,640108,219231,1626775,65919,10815,812933,0
1,-1,645162,220618,1336736,66594,8916,667640,0
1,-1,666093,224087,1271028,69275,9032,635153,0
1,-1,639626,218787,1190948,65765,8386,594997,0
1,-1,663707,223836,1295878,69160,9403,647465,0
1,-1,644802,221086,1420539,66628,8965,709595,0
1,-1,645749,220525,1327030,66438,9337,663030,0
1,-1,644038,219389,1299409,65860,8728,649231,0
1,-1,642141,219174,1167747,65744,8737,583569,0
1,-1,644395,219770,1230363,65870,8456,614636,0
1,-1,648137,221320,1291486,66512,8366,645097,0
1,-1,645338,219820,1189689,65786,7871,594268,0
1,-1,638057,219236,1168580,65545,8243,584001,0
1,-1,662660,224973,1294211,69244,8898,646430,0
1,-1,641736,219653,1625627,65737,10225,812503,0
1,-1,643639,220421,1197879,66030,7245,598642,0
1,-1,640091,219431,1318718,65678,8447,659014,0
1,-1,643524,219693,1157486,65843,8459,578347,0
1,-1,637554,218866,1262866,65528,8093,631103,0
1,-1,635781,218503,1337186,65430,7958,668187,0
1,-1,636115,218476,1192598,65496,7287,595850,0
1,-1,641505,219156,1348526,65781,8107,673788,0
1,-1,637319,218124,1425107,65313,8106,712040,0
1,-1,640555,219363,1131365,65744,7902,565169,0
1,-1,641435,218357,1320684,65427,8863,659868,0
1,-1,642153,220651,1376964,66512,7977,687270,0
1,-1,661042,224272,1306754,69189,9237,652981,0
1,-1,642561,219738,1163258,65941,7969,581241,0
1,-1,645067,220983,1284394,66498,8538,641515,0
1,-1,641295,218969,1248492,65682,8762,623847,0
1,-1,664054,223834,1333848,69053,9501,666379,0
1,-1,648265,220894,1240816,66485,8549,619768,0
1,-1,642351,219345,1358609,65792,9500,678586,0
1,-1,640344,218884,1239090,65633,8402,619060,0
1,-1,644358,219208,1364319,65743,9113,681713,0
1,-1,643211,219828,1324726,65922,9062,662030,0
1,-1,646258,221055,1369670,66536,8842,684129,0
1,-1,645050,219100,1450082,65723,9027,724685,0
1,-1,640412,219968,1201577,66218,7168,600343,0
1,-1,639544,218860,1192123,65643,7336,595607,0
1,-1,641347,218990,1197497,65704,7790,598309,0
1,-1,637828,218354,1263548,65428,7922,631163,0
1,-1,688049,232665,1370970,71641,8693,685122,0
1,-1,641322,218338,1269887,65357,8065,634635,0
1,-1,638528,218837,1235724,65667,7660,617373,0
1,-1,662014,223808,1281060,69027,8943,640209,0
1,-1,643176,218978,1278468,65683,7646,638883,0
1,-1,640955,219027,1257729,65705,8222,628474,0
1,-1,644392,219157,1198686,65746,8595,598597,0
1,-1,637506,218670,1224967,65586,7455,612124,0
1,-1,640364,219373,1233376,65800,7217,616323,0
1,-1,640998,218582,1262762,65514,7625,631092,0
1,-1,644540,220471,1187619,66439,7155,593321,0
1,-1,641291,218374,1237638,65430,7768,618387,0
1,-1,639585,218640,1331009,65571,7051,664865,0
1,-1,644251,219800,1273408,65881,7385,636401,0
1,-1,641153,218773,1296120,65504,7111,647653,0
1,-1,640859,218857,1360115,65576,7434,679646,0
1,-1,647312,220677,1118777,66393,6977,558853,0
1,-1,644879,219099,1306583,65667,7253,652578,0
1,-1,644683,219306,1382185,65656,6532,690621,0
1,-1,633952,219164,1265663,65249,6913,632585,0
1,-1,638802,220915,1267589,65998,7376,633160,0
1,-1,634905,218916,1386296,65183,7119,692804,0
1,-1,634744,219381,1202257,65322,7595,600230,0
1,-1,636899,220489,1179329,65869,7189,589185,0
1,-1,634153,218976,1307209,65128,7803,653215,0
1,-1,657952,223870,1399413,68563,8155,699283,0
1,-1,635076,219379,1259055,65340,8102,629217,0
1,-1,633821,218818,1379952,65138,8359,689553,0
1,-1,635577,218958,1433558,65186,8511,716148,0
1,-1,639780,219953,1235765,65708,7235,617346,0
1,-1,639201,219993,1212266,65649,7128,605355,0
1,-1,637501,218371,1251767,64958,7644,625544,0
1,-1,637047,218736,1135206,65018,7625,567107,0
1,-1,636275,219106,1307233,65240,7672,653255,0
1,-1,637362,219104,1329318,65336,7297,664259,0
1,-1,635628,219072,1400685,65373,7526,699993,0
1,-1,662286,227426,1264570,67757,7684,631933,0
1,-1,643954,220505,1151489,66017,7474,575260,0
1,-1,641792,220635,1238979,66908,8617,618878,0
1,-1,639455,218730,1227816,65993,8302,613511,0
1,-1,638094,218309,1296209,65877,8124,647815,0
1,-1,641040,219539,1316920,66355,8615,658058,0
1,-1,662324,223998,1364772,69600,9620,681976,0
1,-1,639235,218086,1219198,65864,7890,609339,0
1,-1,642197,218858,1273751,66104,8956,636601,0
1,-1,655959,223450,1317815,69421,9249,658482,0
1,-1,634428,218304,1271953,65881,7601,635608,0
1,-1,635883,218886,1266210,66119,7471,632716,0
1,-1,657884,222980,1338701,69190,8606,668866,0
1,-1,637346,218770,1269264,66059,8170,634257,0
1,-1,638328,218585,1442045,65993,7343,720210,0
1,-1,637272,218772,1338480,66073,7544,668928,0
1,-1,657726,222462,1269352,69152,8218,633956,0
1,-1,645377,220855,1267224,67053,7855,632932,0
1,-1,660480,223284,1537135,69403,9204,768069,0
1,-1,644738,219840,1345066,66466,8636,672139,0
1,-1,644724,220187,1209969,66773,6952,604492,0
1,-1,640176,219699,1167211,66577,6872,583053,0
1,-1,659311,223294,1331996,69383,8374,665520,0
1,-1,636356,218200,1221892,65827,7078,610573,0
1,-1,641434,219133,1250365,66231,6869,624851,0
1,-1,640496,218902,1189787,66064,7832,594559,0
1,-1,637393,218501,1288102,65987,7878,643750,0
1,-1,639228,218978,1309690,66176,8124,654398,0
1,-1,643500,219665,1268962,66397,7409,634210,0
1,-1,641437,218924,1295154,66106,8227,647240,0
1,-1,660568,222873,1392807,69193,9677,696042,0
1,-1,642377,218695,1265049,66033,8367,632075,0
1,-1,639615,219262,1238545,66286,7840,618844,0
1,-1,659227,223584,1452280,69482,10694,725843,0
1,-1,641025,218819,1190338,66051,8231,594770,0
1,-1,636599,218601,1375802,66062,8086,687406,0
1,-1,638837,218833,1230485,66086,7442,614862,0
1,-1,640538,219225,1283678,66196,8017,641423,0
1,-1,660850,223658,1396286,69466,9243,697653,0
1,-1,644514,221144,1299613,67124,8073,649280,0
1,-1,642234,219798,1278438,66439,8556,638846,0
1,-1,638357,218407,1352642,65965,8074,675860,0
1,-1,640238,218762,1396199,66081,8090,697736,0
1,-1,640871,218413,1314404,65912,8423,656598,0
1,-1,638962,219627,1343938,66296,8257,671096,0
1,-1,639361,218932,1295492,66140,8914,647509,0
1,-1,641867,219478,1281227,66343,7571,640185,0
1,-1,639735,219245,1280330,66219,7982,639765,0
1,-1,639754,219061,1219327,66023,8228,609274,0
1,-1,660905,222948,1248473,69145,9376,623836,0
1,-1,667223,228712,1290554,69075,8039,644608,0
1,-1,642194,219502,1508721,66343,8655,753964,0
1,-1,642660,219159,1415937,66235,7915,707238,0
1,-1,641678,218742,1296091,66016,8319,647763,0
1,-1,642437,219202,1304950,66248,8042,652116,0
1,-1,648870,220684,1191188,66813,7585,595045,0
1,-1,641345,219912,1217658,66353,7313,608478,0
1,-1,661340,223441,1310552,69448,8369,654934,0
1,-1,640389,219519,1255642,66368,7615,627434,0
1,-1,643137,219156,1297544,66203,8416,648436,0
1,-1,639641,218915,1289079,66107,6709,644115,0
1,-1,639918,218823,1359798,65982,7917,679606,0
1,-1,640736,218554,1244930,65888,7776,622225,0
1,-1,644983,220540,1248551,66865,8338,623917,0
1,-1,641802,219432,1268619,66286,7134,633935,0
1,-1,644272,219517,1313824,66242,7579,656578,0
1,-1,640970,219561,1323379,66273,8048,661303,0
1,-1,646072,220959,1204962,67116,7327,601917,0
1,-1,643347,220057,1166595,66664,7852,582930,0
1,-1,646080,220862,1161044,67131,7906,580047,0
1,-1,643481,219947,1332248,66486,8767,665139,0
1,-1,647833,221012,1228433,67119,8142,613523,0
1,-1,643240,219914,1161473,66613,7483,580244,0
1,-1,644111,219378,1204706,66261,8020,601985,0
1,-1,642921,218867,1381537,66085,8348,690459,0
1,-1,641691,218663,1275486,66074,8481,637491,0
1,-1,643788,218915,1291790,66120,8401,645534,0
1,-1,645616,219625,1289053,66377,8255,644160,0
1,-1,666362,223577,1389806,69477,9284,694566,0
1,-1,640435,220580,1262064,66806,8897,630182,0
1,-1,639711,220756,1219509,66781,7997,608705,0
1,-1,640678,220110,1477586,66390,8723,738183,0
1,-1,639350,218812,1400461,65962,8611,699877,0
1,-1,638793,218764,1172159,66184,7320,585850,0
1,-1,640235,219097,1143768,66354,7120,571582,0
1,-1,648313,220987,1273203,66823,7540,636189,0
1,-1,642738,220139,1269107,66563,8220,634238,0
1,-1,663282,224551,1455728,69810,9592,727551,0
1,-1,643509,219905,1311673,66510,8319,655470,0
1,-1,643113,219911,1377504,66375,8179,687826,0
1,-1,643882,220278,1340707,66612,8326,670113,0
1,-1,645090,220405,1313051,66679,7355,655977,0
1,-1,639933,219879,1357733,66762,8753,678319,0
1,-1,641879,219287,1204096,66348,8227,601570,0
1,-1,644697,220007,1325445,66592,8861,661977,0
1,-1,647102,221222,1253192,67172,8036,625891,0
1,-1,646213,220334,1772386,66710,10911,885840,0
1,-1,646750,220215,1304079,66580,8796,651599,0
1,-1,643438,219524,1296577,66307,9191,647890,0
1,-1,643688,219784,1342653,66403,8574,670890,0
1,-1,643687,220231,1284207,66533,8827,641651,0
1,-1,644463,219776,1316186,66401,8339,657751,0
1,-1,646350,220221,1370160,66580,9433,684708,0
1,-1,657679,223058,1262454,69271,8954,630787,0
1,-1,662155,224178,1381201,69680,9805,690366,0
1,-1,644793,220616,1215211,66715,7013,607253,0
1,-1,643965,221026,1205213,66977,7970,601991,0
1,-1,646286,221698,1203719,67344,7044,601247,0
1,-1,644066,220355,1292170,66605,7534,645720,0
1,-1,645856,220264,1210981,66612,8265,605043,0
1,-1,639862,219403,1212767,66230,8366,606020,0
1,-1,646086,221067,1333010,66720,8098,666178,0
1,-1,643277,219984,1310439,66360,8041,654795,0
1,-1,647046,221699,1429194,67125,8494,714041,0
1,-1,646252,220339,1331818,66407,8029,665447,0
1,-1,665204,224305,1388106,69494,9467,693442,0
1,-1,650751,220952,1335181,66612,8866,667133,0
1,-1,645692,220838,1187350,66592,7153,593247,0
1,-1,643990,220701,1185138,66520,6756,592180,0
1,-1,647959,221634,1223487,67153,8402,611060,0
1,-1,645463,220070,1288125,66373,7831,643701,0
1,-1,645005,219333,1159030,66100,7600,579041,0
1,-1,640927,219515,1263798,66174,7934,631546,0
1,-1,667490,228208,1253629,68828,7679,626414,0
1,-1,644083,219252,1214200,66156,7277,606705,0
1,-1,646154,220318,1209485,66585,8323,604198,0
1,-1,645598,220006,1300745,66569,7797,649762,0
1,-1,642509,219137,1281766,66119,7489,640482,0
1,-1,640393,219876,1383711,66405,7916,691484,0
1,-1,644086,220389,1208558,66509,8452,603968,0
1,-1,641422,219957,1300330,66360,8053,649869,0
1,-1,644113,220084,1226526,66410,7769,612914,0
1,-1,639823,219171,1395737,66137,8332,697475,0
1,-1,643941,220282,1268725,66507,8190,633995,0
1,-1,640478,219437,1262160,66140,7544,630643,0
1,-1,644097,220171,1219362,66491,8301,609213,0
1,-1,644926,221503,1267280,67203,7910,633010,0
1,-1,640416,219723,1457495,66356,7775,728427,0
1,-1,641209,219170,1218572,66127,7334,608825,0
1,-1,642006,219245,1207125,66179,6400,603141,0
1,-1,642579,219499,1377203,66322,7906,688150,0
1,-1,646762,220659,1169571,66517,7474,584289,0
1,-1,648364,219828,1190008,66327,7899,594459,0
1,-1,649287,221962,1379419,67074,7500,689179,0
1,-1,647412,222115,1236238,67435,7683,617461,0
1,-1,644537,219839,1278458,66465,7997,638894,0
1,-1,665421,224308,1234073,69722,8447,616555,0
1,-1,644745,219973,1527587,66448,8724,762884,0
1,-1,646051,220007,1227607,66504,7222,613501,0
1,-1,647732,220701,1211739,66859,7497,605391,0
1,-1,646602,219589,1262828,66325,8086,631015,0
1,-1,650523,220534,1325191,66480,9018,662007,0
1,-1,641239,219219,1336695,66004,8360,667946,0
1,-1,645839,221352,1256395,67109,8238,627606,0
1,-1,648651,221395,1259963,67031,8193,629501,0
1,-1,649077,221188,1204379,67010,8596,601611,0
1,-1,642979,219673,1237250,66272,7771,618010,0
1,-1,644076,219361,1285672,66170,8724,642381,0
1,-1,644131,219631,1301594,66257,7571,650295,0
1,-1,647125,221500,1372217,67197,9247,685584,0
1,-1,643469,219491,1297141,66200,8667,647806,0
1,-1,643084,219623,1327310,66255,9079,663220,0
1,-1,645142,219757,1242356,66289,7578,620675,0
1,-1,644322,219146,1296106,66082,9136,647804,0
1,-1,647633,219393,1231392,66117,9110,615365,0
1,-1,643053,219412,1311542,66168,7943,655360,0
1,-1,645358,220203,1303117,66421,7823,650965,0
1,-1,645016,220130,1273250,66485,8229,636171,0
1,-1,644590,219149,1274236,66106,8360,636637,0
1,-1,645396,219182,1316022,66149,7573,657566,0
1,-1,639990,218234,1337756,65912,8176,668517,0
1,-1,690423,232275,1471387,72140,9841,735293,0
1,-1,640451,218132,1305867,65912,7739,652601,0
1,-1,645590,218647,1228796,66144,8638,614144,0
1,-1,645885,218777,1210654,66254,8696,604987,0
1,-1,632705,218202,1182775,65961,6578,591158,0
1,-1,639561,220070,1286662,66887,7754,642781,0
1,-1,659813,223786,1386784,69647,8279,692970,0
1,-1,658451,223530,1432566,69537,9181,716074,0
1,-1,640338,219860,1221172,66806,8246,610039,0
1,-1,635687,218065,1239448,65976,7070,619397,0
1,-1,634494,218481,1226290,66140,7203,612615,0
1,-1,642830,220982,1294320,67255,7889,646574,0
1,-1,635713,218509,1191251,66166,6900,595316,0
1,-1,638106,218560,1202246,66133,7193,600939,0
1,-1,658552,223589,1330122,69609,8187,664728,0
1,-1,637726,218555,1175112,66183,6806,587069,0
1,-1,639598,218709,1181216,66237,6631,590243,0
1,-1,635220,218279,1174422,66047,6505,586876,0
1,-1,636521,218574,1205048,66171,7621,602204,0
1,-1,641839,219953,1216510,66639,7502,607736,0
1,-1,641192,220605,1329013,67119,7518,663941,0
1,-1,643891,220691,1342962,67052,7578,670966,0
1,-1,638837,218101,1279838,65947,7605,639574,0
1,-1,660603,223854,1386806,69592,8587,692910,0
1,-1,641344,218573,1177217,65956,7004,588280,0
1,-1,638459,218644,1194475,66002,8283,596929,0
2,-1,689443,236560,1293361,70455,7953,646328,0
2,-1,695378,237900,1340852,70919,8463,670168,0
2,-1,690639,238073,1316155,70972,7629,657642,0
2,-1,693247,238529,1366982,71075,6881,683072,0
2,-1,692828,237425,1230788,70743,8137,614918,0
2,-1,695339,237126,1363697,70624,8404,681707,0
2,-1,657109,226090,1331783,67777,8345,665231,0
2,-1,638087,218281,1251544,65550,8352,625206,0
2,-1,637028,218617,1260258,65655,7854,629696,2
2,-1,640629,218643,1314289,65709,8929,656748,0
2,-1,635548,218364,1318519,65442,8405,658729,0
2,-1,636946,218042,1252281,65344,7983,625830,0
2,-1,639838,218951,1186576,65625,6909,592934,0
2,-1,661577,224285,1307225,69186,8686,653130,0
2,-1,639283,218721,1374170,65727,7444,686922,0
2,-1,641223,219058,1283039,65897,8315,641162,0
2,-1,642100,218800,1221048,65632,8149,610384,0
2,-1,636555,219501,1324298,65834,7921,661727,0
2,-1,634854,219227,1200136,65729,7449,599573,0
2,-1,636376,218387,1261190,65513,6973,630174,0
2,-1,635297,218866,1199920,65768,7407,599533,0
2,-1,636148,218958,1197968,65807,6774,598489,0
2,-1,657699,222928,1308045,68821,8821,653698,0
2,-1,641842,221229,1347358,66838,7554,672934,0
2,-1,635904,218208,1119985,65423,6792,559720,0
2,-1,646877,221695,1240098,66793,8068,619324,0
2,-1,638613,218856,1296689,65705,6836,648010,0
2,-1,638900,218914,1172738,65836,6854,586003,0
2,-1,632996,218027,1345817,65313,7095,672543,0
2,-1,636014,218860,1256378,65681,7549,627784,0
2,-1,637394,218911,1203684,65776,8136,601451,0
2,-1,660274,223626,1214422,69083,8389,606882,0
2,-1,635363,218797,1195042,65695,7574,597198,0
2,-1,638886,218512,1205861,65652,8073,602527,0
2,-1,641369,219251,1352601,65839,7864,675917,0
2,-1,636870,218402,1198783,65615,6708,599106,0
2,-1,639149,219065,1140835,65839,7046,569964,0
2,-1,643475,220679,1356218,66619,8179,677677,0
2,-1,642931,219219,1222371,65929,7540,610812,0
2,-1,643496,219273,1205491,65822,7676,602180,0
2,-1,641870,220581,1294265,66383,7706,646259,0
2,-1,641757,220187,1337192,66019,8410,668303,0
2,-1,643543,219386,1326465,65761,7971,662866,0
2,-1,644500,219878,1333817,65919,8198,666527,0
2,-1,643130,220674,1276809,66590,7896,637851,0
2,-1,663012,223689,1258906,69094,8694,629005,0
2,-1,640474,219743,1294314,66043,6984,646810,0
2,-1,645217,221191,1293282,66785,7495,645951,0
2,-1,648074,220945,1388379,66762,8424,693563,0
2,-1,639679,219405,1181272,66061,7242,590263,0
2,-1,641711,218959,1213066,65882,7073,606162,0
2,-1,641183,218816,1285383,65792,7667,642333,0
2,-1,645294,220424,1285585,66582,7659,642244,0
2,-1,644590,219152,1294974,65947,7634,647076,0
2,-1,638372,217882,1335062,65636,8327,667178,0
2,-1,643039,219431,1348303,66036,7983,673721,0
2,-1,661356,223859,1242287,69324,8435,620840,0
2,-1,642505,219038,1275203,65927,8492,637269,0
2,-1,643531,219247,1189363,66026,7436,594169,0
2,-1,649182,220988,1335212,66861,7957,667074,0
2,-1,632931,218991,1309198,65896,7158,654262,0
2,-1,636458,219185,1210622,65960,8399,604956,0
2,-1,634152,218723,1182347,65857,7797,590785,0
2,-1,636950,219592,1297325,66127,8299,648158,0
2,-1,637862,219319,1310332,66013,7950,654583,0
2,-1,640215,220957,1343935,66869,9059,671274,0
2,-1,656961,223885,1266922,69348,8782,633165,0
2,-1,638826,220281,1333203,66534,8042,666050,0
2,-1,635170,219153,1271153,65998,7529,634898,0
2,-1,643790,221372,1320088,66963,8302,659129,0
2,-1,637317,218864,1280678,65861,8215,639943,0
2,-1,644138,220425,1277244,66594,9205,638132,0
2,-1,638759,219732,1357977,66125,7977,678462,0
2,-1,637292,219527,1425475,66063,9165,712372,0
2,-1,634504,218752,1338622,65823,8586,668939,0
2,-1,638910,219565,1342958,66069,8207,671145,0
2,-1,657343,223976,1250166,69328,8646,624744,0
2,-1,638584,219350,1296019,65992,7795,647633,0
2,-1,640187,219653,1238343,66115,7982,618720,0
2,-1,639621,220239,1196261,66468,7731,597356,0
2,-1,640224,219490,1311222,65966,7887,655189,0
2,-1,666012,225098,1245878,70146,8217,622530,0
2,-1,638997,220606,1291150,66561,7913,644962,0
2,-1,670986,231360,1268246,69989,7871,633231,0
2,-1,640588,221588,1220311,66885,8031,609545,0
2,-1,637551,219160,1277483,65908,7615,638386,0
2,-1,642497,221125,1355348,66821,7814,677004,0
2,-1,661787,223813,1259287,69150,8629,629210,0
2,-1,637147,219666,1251489,66032,7283,625404,0
2,-1,640869,220605,1262089,66558,7510,630497,0
2,-1,642131,220130,1190976,66230,8109,595089,0
2,-1,643425,221328,1258039,66889,7336,628528,0
2,-1,641959,219789,1285156,66070,7726,642131,0
2,-1,635390,218960,1262379,65808,7723,630838,0
2,-1,641370,220950,1296151,66679,7421,647478,0
2,-1,639990,219161,1231385,65884,6984,615237,0
2,-1,643021,221326,1287996,66914,7552,643376,0
2,-1,639578,219457,1303195,65951,7401,651165,0
2,-1,642749,219460,1248581,65962,7873,623864,0
2,-1,641877,220019,1408418,66194,7788,703757,0
2,-1,644461,221030,1236641,66707,8391,617695,0
2,-1,644853,220732,1322818,66597,8428,660659,0
2,-1,643944,221022,1308630,66671,7755,653834,0
2,-1,640414,219202,1194480,65907,7503,596904,0
2,-1,644074,219860,1259550,66067,8292,629478,0
2,-1,635740,219654,1353198,66035,7621,676168,0
2,-1,636995,219384,1199842,65918,7718,599572,0
2,-1,638733,219296,1292713,65903,6893,646067,0
2,-1,637889,218522,1198683,65719,6533,599004,0
2,-1,638794,218779,1199506,65744,6966,599452,0
2,-1,641635,221047,1226262,66798,7855,612422,0
2,-1,638519,218717,1209238,65731,7247,604269,0
2,-1,641684,220474,1311741,66511,7471,655332,0
2,-1,640150,219778,1300426,66054,7115,649904,0
2,-1,644274,221197,1401552,66835,8144,700195,0
2,-1,641050,219583,1297123,66064,7376,648199,0
2,-1,648540,221532,1330863,66853,8490,664790,0
2,-1,641506,220524,1180823,66366,7650,590042,0
2,-1,638252,219338,1323793,65894,7502,661575,0
2,-1,640274,219405,1312739,65974,8107,655953,0
2,-1,644111,221458,1319257,66945,6833,658962,0
2,-1,641417,219613,1223974,66021,7334,611636,0
2,-1,643216,220100,1269016,66118,8221,633985,0
2,-1,640150,219245,1258225,65820,7874,628806,0
2,-1,637887,218905,1372755,65824,8060,685786,0
2,-1,640313,218999,1226597,65811,7155,612892,0
2,-1,641992,219237,1225990,65899,7599,612595,0
2,-1,639736,218973,1282688,65770,7543,641048,0
2,-1,642105,219644,1319395,66031,8247,659278,0
2,-1,644468,219476,1218980,65976,7865,609054,0
2,-1,637783,219649,1299398,66062,7562,649335,0
2,-1,642205,221081,1345970,66718,6899,672316,0
2,-1,640911,220812,1386203,66629,7113,692494,0
2,-1,637584,218947,1142281,65786,7164,570893,0
2,-1,640249,219452,1226953,65948,7382,613145,0
2,-1,640508,220283,1273874,66203,7430,636657,0
2,-1,640633,219941,1276846,66162,7527,638079,0
2,-1,643736,220588,1295781,66543,8082,647348,0
2,-1,643811,220380,1326611,66455,8086,662825,0
2,-1,645082,221060,1250378,66790,7570,624634,0
2,-1,643520,220010,1332664,66029,8670,665823,0
2,-1,638662,219433,1330022,65796,8155,664564,0
2,-1,640265,220108,1645576,66055,9974,822305,0
2,-1,643063,220291,1286560,66126,8585,642880,0
2,-1,642571,219665,1209718,66020,7771,604490,0
2,-1,643487,220110,1312320,66059,8638,655925,0
2,-1,643937,219986,1299079,66112,8500,649193,0
2,-1,643685,220063,1224803,66212,7795,611980,0
2,-1,644594,220199,1389496,66207,8564,694328,0
2,-1,647458,220761,1173179,66370,7627,586153,0
2,-1,644612,219848,1222601,66108,8027,610903,0
2,-1,646521,219505,1182526,66015,7059,590891,0
2,-1,646996,220698,1360039,66255,8547,679607,0
2,-1,648364,220551,1351831,66171,8644,675493,0
2,-1,647732,219988,1295468,65851,8410,647263,0
2,-1,661842,224915,1236301,69354,9708,617791,0
2,-1,645046,221753,1357000,66724,9050,677856,0
2,-1,642002,220777,1228565,66259,8577,613904,0
2,-1,644733,222767,1327796,67119,8363,663257,0
2,-1,640538,220040,1269890,65924,8993,634538,0
2,-1,645354,220833,1800801,66301,11156,899685,0
2,-1,643180,220555,1236819,66129,7708,618021,0
2,-1,646317,221720,1306918,66757,8051,652939,0
2,-1,641859,220364,1224400,66231,7674,611760,0
2,-1,643020,219609,1264076,65853,7867,631642,0
2,-1,665767,224787,1290828,69335,9152,645044,0
2,-1,645542,221991,1306904,67081,8759,652691,0
2,-1,642823,220458,1276165,66162,7916,637748,0
2,-1,642909,220008,1190879,65954,7465,595258,0
2,-1,644040,221147,1219631,66602,8087,609129,0
2,-1,643022,219444,1290994,65891,8694,645167,0
2,-1,639238,218774,1302042,65597,7842,650674,0
2,-1,645138,221632,1394980,66977,8599,696753,0
2,-1,639987,219119,1190151,65761,6990,594670,0
2,-1,646473,221053,1394702,66568,8416,696859,0
2,-1,643738,219350,1164562,65895,8781,581801,0
2,-1,643158,219628,1256779,65945,7434,627996,0
2,-1,644226,219085,1285082,65763,8440,642226,0
2,-1,640900,219966,1409590,66137,7518,704393,0
2,-1,637429,218515,1173951,65628,7112,586612,0
2,-1,638739,219396,1307680,65854,7923,653555,0
2,-1,638201,219017,1315611,65775,8442,657374,0
2,-1,667243,228531,1365454,68511,8995,682273,0
2,-1,641192,218973,1217087,65721,8237,608050,0
2,-1,639189,219442,1231671,65831,8310,615282,0
2,-1,641558,220069,1155316,66071,8064,577315,0
2,-1,644791,219813,1231859,66037,8627,615537,0
2,-1,642653,218792,1183588,65693,8440,591323,0
2,-1,642807,219091,1344556,65797,8859,671767,0
2,-1,643554,220790,1206918,66676,8313,602477,0
2,-1,642895,219975,1291253,66091,9032,645135,0
2,-1,641901,220198,1303974,66131,8686,651539,0
2,-1,641156,219265,1215681,65851,7922,607382,0
2,-1,642091,219091,1266405,65734,7387,632677,0
2,-1,648143,221840,1231931,66864,8915,615377,0
2,-1,663305,223673,1300899,68976,9770,649745,0
2,-1,644656,219877,1201325,65862,8248,600262,0
2,-1,645206,219299,1299177,65610,8594,649061,0
2,-1,637165,218978,1348324,65514,7669,673806,0
2,-1,642796,220395,1446401,65967,11291,722588,0
2,-1,645386,221057,1300738,66403,8390,649616,0
2,-1,639231,219192,1323910,65590,8271,661499,0
2,-1,668053,228736,1359380,68445,8966,679249,0
2,-1,641271,219192,1353410,65620,8734,676364,0
2,-1,639089,219834,1378496,65869,9304,688739,0
2,-1,644630,221407,1288405,66727,8113,643375,0
2,-1,642065,219362,1283228,65811,8492,641187,0
2,-1,644745,220961,1311221,66499,7272,654975,0
2,-1,639741,219161,1393821,65731,8239,696417,0
2,-1,642790,219248,1170953,65765,7885,585036,0
2,-1,641703,218804,1154880,65641,8457,577153,0
2,-1,659868,224269,1311476,69195,8820,655367,0
2,-1,639840,219477,1332583,65862,8782,665843,0
2,-1,641165,219635,1576431,65950,10237,787089,0
2,-1,637020,218369,1184240,65392,8334,591534,0
2,-1,644745,220691,1281008,66506,8323,639959,0
2,-1,642761,219712,1565492,65888,10022,782313,0
2,-1,641046,218521,1296166,65440,8620,647548,0
2,-1,639648,218413,1365813,65459,9240,682525,0
2,-1,640339,218757,1231592,65564,9091,615839,0
2,-1,643434,219392,1191652,65810,7866,595398,0
2,-1,639579,218839,1313285,65662,7882,656254,0
2,-1,644491,219189,1564898,65792,9943,782880,0
2,-1,642955,218883,1286856,65601,8339,643119,0
2,-1,636362,218606,1314967,65438,8483,657065,0
2,-1,638133,218929,1132452,65704,7428,565899,0
2,-1,662997,224194,1210528,69168,8338,604817,0
2,-1,639547,218902,1273746,65649,7986,636496,0
2,-1,640604,219368,1276394,65788,7669,637763,0
2,-1,642511,219335,1526517,65813,9600,762715,0
2,-1,640306,219587,1383410,65799,7997,691147,0
2,-1,645153,220930,1286364,66503,8019,642049,0
2,-1,661990,223491,1484732,68956,8846,741657,0
2,-1,643053,218986,1334180,65628,8897,666775,0
2,-1,642402,218257,1450996,65339,8297,725126,0
2,-1,637591,218790,1247336,65567,7802,623317,0
2,-1,642832,219492,1277887,65804,7678,638529,0
2,-1,646527,221372,1184906,66722,7080,591863,0
2,-1,662174,223922,1351036,69070,7935,675201,0
2,-1,662760,224095,1268634,69172,8154,633876,0
2,-1,644978,219680,1302459,65852,7920,650935,0
2,-1,647073,220915,1330544,66596,7598,664714,0
2,-1,662925,223171,1312041,68827,8163,655747,0
2,-1,639016,218231,1520670,65394,7650,759977,0
2,-1,643371,219236,1317833,65721,7214,658460,0
2,-1,641399,218463,1357470,65405,7126,678373,0
2,-1,646632,218983,1409317,65545,7221,704328,0
2,-1,638201,221202,1235693,66085,7412,617121,0
2,-1,633090,218500,1348526,65004,6904,673681,0
2,-1,634649,218509,1282939,65009,6910,641105,0
2,-1,635578,218619,1141590,65024,6655,570462,0
2,-1,636497,219519,1259037,65345,7378,629204,0
2,-1,657453,223729,1316874,68517,7867,658104,0
2,-1,637058,219602,1311867,65382,7615,655497,0
2,-1,638568,219280,1171497,65285,7011,585297,0
2,-1,637665,219566,1283717,65381,8074,641281,0
2,-1,636587,218833,1169776,65170,7537,584548,0
2,-1,636220,219061,1314248,65212,7457,656722,0
2,-1,636786,219159,1268513,65230,7401,633983,0
2,-1,638871,219179,1367045,65230,8161,683012,0
2,-1,634941,218847,1451454,65218,8732,725108,0
2,-1,640514,220769,1162203,65964,7406,580763,0
2,-1,644559,221627,1199255,66434,7394,598882,0
2,-1,635502,218293,1301768,65081,7624,650491,0
2,-1,660503,223620,1300759,68650,8510,650155,0
2,-1,637470,218413,1186374,65107,7450,592775,0
2,-1,656539,223636,1345808,68583,8695,672503,0
2,-1,642096,219737,1282515,66572,8321,640782,0
2,-1,638479,218448,1261800,65935,8182,630620,0
2,-1,638030,218839,1316845,66048,8175,658153,0
2,-1,638876,218685,1291303,66097,8624,645303,0
2,-1,640713,219791,1251404,66637,7678,625178,0
2,-1,641285,218947,1193155,66164,8249,596151,0
2,-1,638700,218431,1205172,65974,7624,602249,0
2,-1,639332,219580,1313170,66336,7538,656247,0
2,-1,636123,218771,1275493,66075,8132,637412,0
2,-1,636524,218475,1170299,65910,6860,584873,0
2,-1,643796,220064,1366674,66668,8179,682382,0
2,-1,638662,218413,1353449,65947,7611,676415,0
2,-1,640838,219016,1241969,66180,7735,620802,0
2,-1,640390,219554,1240532,66383,7728,619839,0
2,-1,641531,219705,1348969,66404,7902,673983,0
2,-1,638181,218691,1361370,66084,8385,680807,0
2,-1,644398,220190,1306061,66746,8192,651538,0
2,-1,640998,218709,1253906,66039,7127,626609,0
2,-1,638080,219061,1281000,66241,7356,640071,0
2,-1,640557,219804,1279300,66450,7547,639243,0
2,-1,641414,218872,1255824,66105,7820,627573,0
2,-1,647084,221901,1186065,67466,7160,592422,0
2,-1,661030,223627,1379468,69462,8479,689395,0
2,-1,675536,230006,1301603,69798,7772,650170,0
2,-1,640381,219080,1198933,66156,7191,599117,0
2,-1,639884,218698,1298501,66034,8280,648927,0
2,-1,645736,220788,1211285,67066,7826,605037,0
2,-1,640070,219100,1274957,66215,8033,637201,0
2,-1,640988,218228,1295875,65875,8540,647636,0
2,-1,648776,220702,1228615,66977,7890,613619,0
2,-1,635709,218380,1217432,65941,8090,608426,0
2,-1,637271,218463,1228942,65992,8419,613996,0
2,-1,637581,219198,1329308,66123,7914,664249,0
2,-1,642033,220042,1195749,66729,7289,597191,0
2,-1,642083,219098,1211186,66235,7923,605263,0
2,-1,636848,218932,1192535,66070,7231,595849,0
2,-1,638165,219022,1260280,66189,7764,629623,0
2,-1,636719,218254,1251186,65882,7653,625178,0
2,-1,640551,219661,1350522,66461,8208,674597,0
2,-1,642379,218842,1289989,66040,7506,644554,0
2,-1,663309,223949,1350436,69552,9043,674885,0
2,-1,659937,223835,1433281,69515,10014,716176,0
2,-1,643271,220409,1301377,66839,7920,650005,0
2,-1,639535,218936,1176749,66181,7019,587935,0
2,-1,639472,219502,1238855,66307,7366,618980,0
2,-1,640994,218525,1266736,65943,7683,632857,0
2,-1,641797,219169,1175594,66120,7698,587495,0
2,-1,637100,218531,1192897,66003,7583,596107,0
2,-1,644811,220464,1329407,66835,8308,664009,0
2,-1,643424,220526,1350761,66947,7882,674730,0
2,-1,650064,221765,1249054,67415,7587,623527,0
2,-1,643276,218761,1195488,66058,7292,597458,0
2,-1,644312,219390,1297759,66241,7727,648492,0
2,-1,639477,218860,1237720,65981,7898,618428,0
2,-1,638177,218549,1188760,65952,6942,594011,0
2,-1,641430,219172,1213308,66245,8357,606247,0
2,-1,643004,219118,1289160,66179,8564,644218,0
2,-1,639391,219133,1291859,66188,7744,645623,0
2,-1,639598,219018,1297447,66158,8101,648352,0
2,-1,645064,220291,1175549,66768,7534,587064,0
2,-1,662340,223324,1357026,69269,9406,678251,0
2,-1,643811,219078,1286930,66214,7940,642964,0
2,-1,641240,218611,1234746,65911,6966,617031,0
2,-1,662646,223322,1338845,69236,8541,669136,0
2,-1,645159,220450,1208702,66814,7671,603848,0
2,-1,637727,218245,1259884,65907,7646,629642,0
2,-1,661816,223626,1266508,69501,9206,632930,0
2,-1,641671,218820,1320685,66076,8689,659977,0
2,-1,644059,218654,1257569,66027,8256,628473,0
2,-1,638821,218617,1256952,66053,7765,628127,0
2,-1,643184,219815,1242077,66406,7591,620596,0
2,-1,664943,223252,1288003,69375,8601,643829,0
2,-1,643268,218602,1365375,66001,8294,682427,0
2,-1,647805,221023,1203700,67051,7826,601152,0
2,-1,646133,220449,1251635,66902,8317,624681,0
2,-1,645382,218836,1340597,66131,8421,669965,0
2,-1,637858,219985,1182663,66653,8165,590712,0
2,-1,638399,219013,1342897,66044,7994,670900,0
2,-1,645315,221489,1404629,67114,8551,701628,0
2,-1,643119,220323,1261836,66657,8269,630425,0
2,-1,639382,219122,1260547,66163,7720,629969,0
2,-1,641141,220022,1188607,66642,7067,593896,0
2,-1,641836,219083,1325553,66190,7681,662493,0
2,-1,660861,223902,1377694,69558,8616,688559,0
2,-1,647395,220920,1231925,67060,7485,615370,0
2,-1,644801,220455,1186682,66618,7327,592988,0
2,-1,646028,220498,1204120,66655,7905,601724,0
2,-1,643981,220780,1206693,66926,7654,602587,0
2,-1,643037,220082,1723172,66508,10271,861186,0
2,-1,643938,220427,1573288,66781,9393,786161,0
2,-1,646862,221235,1251351,67240,8303,625185,0
2,-1,644744,220256,1342093,66656,9591,670666,0
2,-1,642136,219704,1330015,66525,8583,664409,0
2,-1,664193,224185,1431252,69761,9861,715317,0
2,-1,647354,221381,1311761,67187,8150,655220,0
2,-1,641203,219779,1291190,66327,9012,645268,0
2,-1,665299,224965,1307971,69944,9788,653562,0
2,-1,650764,221384,1265440,67218,8682,632406,0
2,-1,645859,220534,1297840,66682,7983,648430,0
2,-1,668027,224849,1408883,69883,10054,703922,0
2,-1,640614,220594,1156750,66687,8089,577849,0
2,-1,640637,219789,1232001,66383,7708,615727,0
2,-1,642853,220236,1333088,66538,8011,666196,0
2,-1,640363,219853,1276167,66456,8619,637436,0
2,-1,662460,224779,1373732,69872,8030,686543,0
2,-1,641726,219896,1260175,66508,8305,629678,0
2,-1,645460,220361,1170499,66602,7920,584962,0
2,-1,661891,224641,1309929,69811,10068,654474,0
2,-1,642733,220248,1259921,66498,7384,629615,0
2,-1,642763,219649,1293412,66264,7168,646193,0
2,-1,645013,221162,1368249,66771,9173,683370,0
2,-1,645448,220686,1274808,66573,8229,636571,0
2,-1,646045,220861,1244430,66588,7761,621752,0
2,-1,651036,221515,1217198,66994,8464,607886,0
2,-1,645560,221091,1195363,66884,7652,597161,0
2,-1,646577,220290,1373808,66369,7968,686464,0
2,-1,665040,224689,1326322,69627,8545,662833,0
2,-1,645291,220027,1344029,66345,7741,671404,0
2,-1,642894,219524,1231505,66208,8233,615330,0
2,-1,666086,223742,1402510,69343,9302,700981,0
2,-1,644636,219838,1295544,66348,7698,647364,0
2,-1,668501,225210,1364313,69880,8912,681713,0
2,-1,643846,219744,1321891,66356,7895,660520,0
2,-1,649054,220408,1342374,66573,8693,670745,0
2,-1,669205,224442,1334259,69695,8849,666670,0
2,-1,641726,220908,1231909,66910,8261,615276,0
2,-1,641209,219676,1319552,66345,8757,659564,0
2,-1,640632,220049,1282763,66457,8124,640977,0
2,-1,637728,218803,1246560,65978,7809,622865,0
2,-1,644524,221418,1334663,67178,8538,666702,0
2,-1,643709,220594,1267081,66820,7640,632869,0
2,-1,665426,224220,1343986,69619,8751,671544,0
2,-1,641725,219270,1337227,66095,8375,668159,0
2,-1,644059,219672,1291204,66338,8669,645211,0
2,-1,647397,221722,1245831,67166,7935,622333,0
2,-1,642869,219174,1310586,66134,8043,654900,0
2,-1,639943,218924,1270772,66070,7433,634941,0
2,-1,642468,219458,1306304,66281,7578,652725,0
2,-1,646235,220159,1185718,66365,8244,592426,0
2,-1,648226,220315,1273027,66507,8688,636102,0
2,-1,645738,220900,1294077,66733,7330,646379,0
2,-1,647445,220626,1237993,66645,7483,618537,0
2,-1,648814,221285,1315371,67215,7932,656999,0
2,-1,647927,221035,1160558,67003,7341,579627,0
2,-1,642858,219625,1430520,66397,8752,714614,0
2,-1,648108,220869,1344034,66980,8086,670856,0
2,-1,644542,219936,1346128,66497,8362,672584,0
2,-1,646359,219424,1249378,66180,8213,624311,0
2,-1,646123,219415,1269719,66151,8021,634498,0
2,-1,642525,220368,1239682,66494,8399,619378,0
2,-1,666474,225627,1383819,69981,9923,691524,0
2,-1,646127,220619,1353342,66527,7691,676243,0
2,-1,668612,225508,1272919,69956,9298,636207,0
2,-1,646220,221289,1257168,67026,7770,627787,0
2,-1,642462,219149,1230185,66051,7883,614563,0
2,-1,665072,224075,1355875,69512,8487,677574,0
2,-1,642698,220315,1307345,66451,8232,653414,0
2,-1,644420,219646,1169876,66166,7324,584446,0
2,-1,641180,218956,1191372,65995,7816,595387,0
2,-1,643506,219558,1331997,66185,8623,665529,0
2,-1,643843,219198,1289893,66183,8569,644575,0
2,-1,647027,219991,1235007,66359,9179,617025,0
2,-1,643400,219870,1214942,66324,7969,607096,0
2,-1,641983,219271,1222257,66086,7502,610554,0
2,-1,646696,219855,1319376,66320,7938,659230,0
2,-1,639655,218290,1223572,65784,8272,611484,0
2,-1,644267,218890,1136200,66080,7692,567786,0
2,-1,646272,220220,1281705,66865,8245,640794,0
2,-1,647040,220167,1252947,66869,8221,626045,0
2,-1,643420,218062,1245258,66014,8691,622316,0
2,-1,645504,219071,1172776,66348,8638,586012,0
2,-1,642834,218173,1166200,66011,7651,582832,0
2,-1,635736,219631,1270805,66515,6661,635019,0
2,-1,633525,218018,1252839,65976,7241,626115,0
2,-1,636734,218711,1244312,66233,7689,621795,0
2,-1,642214,220082,1264416,66856,7556,631761,0
2,-1,637195,218985,1203502,66321,8077,601419,0
2,-1,636842,218337,1255449,66073,7482,627388,0
2,-1,663611,224478,1329547,69848,8665,664507,0
2,-1,658348,223991,1328687,69743,8201,664042,0
2,-1,641267,220621,1377406,67023,7213,688022,0
2,-1,660076,223604,1314860,69611,8372,657068,0
2,-1,639952,218708,1282235,66201,6894,640772,0
2,-1,642373,220381,1282227,66958,7338,640650,0
2,-1,644221,220433,1262851,66916,7295,630863,0
2,-1,635273,218305,1194933,66097,7943,597116,0
2,-1,643063,220406,1331678,66958,7538,665255,0
2,-1,636318,218208,1109662,66073,7253,554394,0
2,-1,659046,223870,1329424,69700,8833,664333,0
2,-1,638752,218929,1290551,66255,7312,644898,0
2,-1,660642,223588,1322374,69568,9116,660881,0
2,-1,638205,218637,1404190,66023,8416,702126,0
2,-1,641295,219578,1253818,66377,7576,626578,0
2,-1,641567,218792,1178855,66119,7071,589122,0
3,-1,700381,239637,1408681,71700,9016,703798,0
3,-1,693290,237066,1320341,70601,8807,659821,0
3,-1,694736,236734,1312881,70513,8163,656155,0
3,-1,720446,246997,1313472,73586,7260,656062,0
3,-1,696446,239045,1289401,71568,8362,643323,0
3,-1,696011,238100,1272692,70967,7824,635962,0
3,-1,656882,226026,1281361,67415,7915,640169,0
3,-1,637895,219238,1397967,65837,8170,698728,0
3,-1,646989,221529,1429656,66886,8846,714335,0
3,-1,637383,219234,1323620,66074,8117,661474,0
3,-1,642518,221314,1276433,66692,8567,637559,2
3,-1,640149,219328,1253813,65803,8515,626432,0
3,-1,644797,221309,1339030,66648,8407,668817,0
3,-1,640478,219218,1198515,65794,7814,598716,2
3,-1,639930,218441,1282902,65408,7973,641146,0
3,-1,639144,219005,1263143,65796,7002,630902,0
3,-1,639965,219532,1274294,66050,8255,636691,2
3,-1,638361,218348,1218916,65583,7831,609010,0
3,-1,641577,219027,1192635,65842,7888,595764,0
3,-1,632179,218567,1221986,65600,7458,610720,0
3,-1,636247,219122,1129216,65803,6709,564252,0
3,-1,636192,218933,1384676,65718,8060,691840,0
3,-1,633903,218694,1242314,65737,6944,620623,2
3,-1,634596,218895,1199953,65729,7792,599525,0
3,-1,633735,218366,1263866,65557,7453,631545,0
3,-1,642250,221256,1292027,66887,7935,645522,2
3,-1,638219,219012,1361858,65743,8030,680539,0
3,-1,634318,219487,1180238,65965,6551,589673,2
3,-1,652248,222031,1353374,68661,7913,676202,0
3,-1,636867,218627,1163286,65575,7103,581227,0
3,-1,635641,218681,1222465,65650,7553,610902,2
3,-1,660286,223405,1211147,68911,8446,605185,0
3,-1,639148,218756,1291764,65551,7690,645578,0
3,-1,636004,218773,1177639,65594,7206,588490,2
3,-1,637962,218859,1213402,65823,7246,606292,0
3,-1,636634,218154,1174294,65379,7201,586775,0
3,-1,639877,218951,1240888,65735,7835,620239,2
3,-1,641870,221398,1314141,66760,7801,656372,0
3,-1,634721,218086,1295093,65361,7713,647228,0
3,-1,642460,220379,1217922,66453,7662,608471,0
3,-1,638700,218579,1246098,65728,7782,622653,0
3,-1,638206,219562,1212832,66024,7535,606025,2
3,-1,641396,220531,1298641,66647,8163,648577,0
3,-1,644667,220955,1333905,66631,7559,666415,0
3,-1,639750,219621,1202547,66053,7221,600934,0
3,-1,638126,218841,1255279,65842,6793,627262,2
3,-1,636791,218138,1153755,65472,6965,576509,0
3,-1,642723,219316,1274612,65976,7328,636944,0
3,-1,643546,219668,1220732,66123,7038,609968,0
3,-1,647117,221714,1289688,66984,8047,644232,2
3,-1,642521,219311,1308296,65804,7635,653860,0
3,-1,637078,219172,1200115,65789,7669,599837,0
3,-1,636183,219317,1285700,65920,7363,642517,2
3,-1,640751,219723,1313379,65964,7860,656370,2
3,-1,638531,219453,1183293,65861,6898,591295,0
3,-1,644898,220933,1328313,66434,8380,663821,0
3,-1,645120,220608,1183134,66207,7095,591237,0
3,-1,636792,218877,1214812,65718,7107,606938,2
3,-1,635534,218073,1236966,65484,7284,618121,0
3,-1,638165,218711,1314439,65594,7384,656929,0
3,-1,641453,219786,1286604,66026,7787,642916,0
3,-1,662447,224220,1358939,69267,7865,679068,0
3,-1,643615,219321,1227893,66009,7712,613616,0
3,-1,635941,219071,1313308,65981,7639,656139,2
3,-1,643961,221520,1315720,66936,7651,657349,0
3,-1,641287,219046,1294138,65934,7864,646729,0
3,-1,641911,219691,1386246,66180,7767,692760,0
3,-1,639403,219301,1213753,66081,7532,606444,2
3,-1,639253,218748,1148500,65843,6926,573918,0
3,-1,643314,218858,1218766,65889,7039,609022,0
3,-1,661070,223433,1338684,69122,8939,669067,0
3,-1,640144,219590,1197258,66160,7551,598175,2
3,-1,641370,219018,1388416,65901,8082,693674,0
3,-1,644300,219615,1239848,66182,7886,619526,0
3,-1,640236,218889,1193647,65945,7763,596417,2
3,-1,643182,219726,1198748,66174,7709,598999,0
3,-1,642457,218808,1197400,65763,7471,598361,0
3,-1,665385,223899,1324312,69306,8654,661890,0
3,-1,633195,219519,1266477,66108,6931,632864,0
3,-1,639693,220611,1259018,66658,8752,628678,0
3,-1,633106,218547,1350454,65739,9009,674806,0
3,-1,635614,219196,1265019,65890,7948,632084,0
3,-1,634895,219133,1308126,65943,8806,653727,0
3,-1,637207,219754,1257927,66207,7910,628515,2
3,-1,639867,219348,1184059,66072,8392,591674,0
3,-1,635959,219192,1236023,66009,7996,617684,0
3,-1,638300,219296,1217025,66068,7573,607926,0
3,-1,644825,221167,1402641,66980,8446,699888,0
3,-1,637636,219161,1317592,65871,8351,658515,0
3,-1,636750,219614,1254784,66162,8194,626690,2
3,-1,639253,220054,1350914,66499,8679,674997,0
3,-1,640708,219404,1196399,66114,8188,597925,0
3,-1,657366,224014,1297996,69327,9588,648313,0
3,-1,638934,221113,1315549,66912,8458,657222,2
3,-1,640019,221180,1370135,66907,8695,684011,0
3,-1,636723,219539,1253020,66118,8065,625678,2
3,-1,638961,220021,1353810,66265,8707,676431,0
3,-1,637757,219446,1209731,66057,8007,604528,2
3,-1,639848,220346,1391274,66556,8951,695845,0
3,-1,638390,218854,1471299,65839,8260,734747,0
3,-1,635354,219561,1266328,66143,8055,632708,2
3,-1,639521,220160,1388439,66509,8193,693370,0
3,-1,637094,219163,1188744,65956,6962,593935,2
3,-1,638613,219375,1302059,66022,8240,650660,0
3,-1,642178,219897,1191895,66168,7372,595461,0
3,-1,642545,221380,1267489,66907,8037,632966,2
3,-1,638300,219120,1210024,65818,7348,604721,0
3,-1,639190,219418,1265126,66001,7437,632122,0
3,-1,644010,220611,1227209,66399,7985,613178,2
3,-1,635818,219610,1431821,66091,8241,715540,0
3,-1,638024,219770,1278508,66060,7510,638867,0
3,-1,639189,219558,1141228,66054,7335,570107,0
3,-1,637832,220244,1248523,66278,7358,623655,2
3,-1,636669,219352,1206676,65916,7603,603040,0
3,-1,639109,220210,1585601,66257,9954,792361,0
3,-1,637619,219437,1200868,66040,7408,600032,2
3,-1,640388,219780,1242221,66053,7325,620743,0
3,-1,641206,220812,1292260,66625,7154,645589,0
3,-1,641467,219953,1396802,66116,8024,697957,0
3,-1,640236,219701,1310793,66069,9212,654855,0
3,-1,637113,219722,1186264,66120,7486,592571,2
3,-1,640604,220128,1248681,66210,7612,623817,0
3,-1,659533,224154,1311643,69315,7982,655349,0
3,-1,641598,220220,1251774,66281,7437,625458,2
3,-1,641259,219368,1391099,65972,8701,695071,0
3,-1,639803,219314,1273905,65910,7716,636552,0
3,-1,638447,219259,1239602,65947,7297,619304,0
3,-1,667087,229142,1212251,68909,7416,605586,2
3,-1,637512,219692,1277426,66028,6399,638089,0
3,-1,640146,219449,1239182,66008,7349,619188,0
3,-1,646028,221139,1315701,66808,8032,657217,0
3,-1,642825,220819,1320784,66614,8114,659932,0
3,-1,640267,220385,1218565,66297,7410,608933,2
3,-1,639472,218998,1230337,65802,7375,614820,0
3,-1,639612,218981,1261751,65745,7693,630592,0
3,-1,640735,219356,1348114,65920,7170,673745,0
3,-1,648808,221540,1285963,66965,7975,642401,0
3,-1,645662,220695,1382064,66585,8407,690586,0
3,-1,635968,219628,1274512,65997,7017,637096,0
3,-1,635150,219059,1142305,65826,7822,570867,0
3,-1,639023,219687,1207081,66079,7432,603196,0
3,-1,640127,220049,1287715,66193,7954,643486,0
3,-1,640057,219986,1220255,66163,7021,609577,0
3,-1,658829,224083,1215779,69293,8545,607451,0
3,-1,639926,219709,1210447,66088,7616,604893,0
3,-1,638225,220281,1281761,66229,7869,640299,2
3,-1,635245,218419,1255816,65514,7156,627521,0
3,-1,639615,220192,1254465,66242,6806,626927,0
3,-1,660048,223747,1234770,69194,7944,616983,0
3,-1,640110,219363,1164094,65974,7152,581689,0
3,-1,642979,219717,1181861,66033,7254,590546,0
3,-1,637423,219179,1145108,65869,7270,572191,0
3,-1,637550,219429,1201509,66015,7113,600362,2
3,-1,643833,221876,1312165,67110,8172,655451,0
3,-1,644153,221172,1337346,66744,8110,668331,0
3,-1,663726,228996,1323151,68855,7596,661120,2
3,-1,659542,223787,1331781,69203,7673,665516,0
3,-1,639214,219770,1291804,66349,7638,645366,0
3,-1,641850,220473,1303814,66331,7510,651582,2
3,-1,640257,219360,1212414,65944,7836,605697,0
3,-1,644672,221748,1226967,67032,7613,612665,0
3,-1,637992,219608,1166148,66086,6433,582684,2
3,-1,661956,223774,1256497,69147,7845,627885,0
3,-1,643931,220628,1369550,66602,7588,684054,0
3,-1,662725,223789,1312403,69210,8264,655794,0
3,-1,646557,221553,1321509,66977,8587,659992,2
3,-1,638660,219266,1195379,65952,7059,597477,0
3,-1,642532,219639,1230692,66102,7130,614876,0
3,-1,640260,219703,1215525,66135,6810,607338,2
3,-1,644520,220408,1523978,66317,9208,761589,0
3,-1,639317,219645,1230044,66073,7521,614659,0
3,-1,637518,219314,1331230,65899,7027,665262,0
3,-1,641754,219525,1277337,65943,7444,638307,0
3,-1,639815,219066,1199815,65835,7704,599591,0
3,-1,640868,220107,1128077,66228,6632,563791,2
3,-1,641810,219796,1223410,66128,7054,611323,0
3,-1,665194,224113,1435884,69281,8591,717505,0
3,-1,641167,221382,1355403,66885,7590,677127,2
3,-1,639167,219534,1293539,66041,7659,646318,0
3,-1,641675,219592,1202926,66044,7399,601108,0
3,-1,637743,218004,1262519,65466,7122,630893,0
3,-1,660644,223958,1287863,69238,7472,643512,0
3,-1,645047,221046,1298748,66614,8767,648868,0
3,-1,644731,220263,1333596,66138,8944,666374,2
3,-1,651368,221937,1297637,66918,8777,648037,0
3,-1,639892,219480,1176854,65809,8159,588057,0
3,-1,639556,220059,1232255,66060,7877,615614,2
3,-1,642114,220312,1502485,66063,9651,750854,0
3,-1,641470,219239,1300635,65833,8327,649774,0
3,-1,671193,230677,1350766,69644,8222,674586,2
3,-1,645379,220887,1328074,66603,8598,663476,0
3,-1,641981,219448,1201504,65879,7546,600389,0
3,-1,649585,220788,1362072,66354,8559,680612,0
3,-1,644363,220251,1350380,66186,7842,674571,0
3,-1,643658,220232,1157359,66156,7555,578105,2
3,-1,645418,220176,1236199,66130,8334,617835,0
3,-1,649760,221967,1270568,67101,8812,634599,0
3,-1,646269,219965,1284141,66205,7502,641614,0
3,-1,646456,221616,1312198,66741,8695,655686,2
3,-1,649145,221711,1328097,66870,8467,663420,0
3,-1,648679,220844,1383377,66205,8825,691208,0
3,-1,669000,225095,1258323,69402,8950,628806,0
3,-1,635465,219404,1259593,65692,8493,629376,0
3,-1,644776,223192,1246303,67347,9256,622327,2
3,-1,639494,220044,1257940,65927,8398,628522,0
3,-1,641506,220473,1343274,66078,8622,671259,0
3,-1,660622,225120,1325138,69428,9414,662259,0
3,-1,648316,222471,1411697,66992,9143,705182,0
3,-1,640700,220824,1192198,66240,8011,595663,2
3,-1,647984,222327,1279178,66987,8708,638848,0
3,-1,643195,220410,1364176,66067,8351,681628,0
3,-1,643673,220106,1337736,65936,8868,668365,0
3,-1,644579,221596,1201195,66529,7479,600171,2
3,-1,663870,223873,1348565,69095,9462,673827,0
3,-1,665106,224733,1249955,69393,8502,624552,0
3,-1,648533,222422,1248103,67132,8530,623193,2
3,-1,646670,220955,1282741,66373,8600,640966,0
3,-1,649733,220967,1298088,66540,8362,648491,0
3,-1,638055,220061,1313504,66149,8172,656326,2
3,-1,641950,220427,1438487,66135,8695,718813,0
3,-1,643043,220561,1378656,66336,8638,688797,0
3,-1,642576,220317,1132518,66147,7419,565851,0
3,-1,648933,222374,1269353,67141,7740,634153,0
3,-1,648258,221670,1367028,66919,8851,682941,0
3,-1,661372,224382,1263216,69305,8353,631279,0
3,-1,640595,219185,1291868,65868,7988,645544,0
3,-1,643262,220117,1411788,66111,8066,705194,0
3,-1,664571,224404,1263222,69255,8852,631277,0
3,-1,639982,219428,1329580,65888,7871,664350,2
3,-1,639639,218686,1203880,65602,7372,601639,0
3,-1,643200,219600,1301363,65963,7515,650315,0
3,-1,643579,218695,1187991,65673,7326,593735,0
3,-1,636387,218806,1267650,65731,7753,633443,0
3,-1,636459,218803,1335232,65711,7952,667325,0
3,-1,636233,219176,1309614,65909,8439,654221,2
3,-1,641169,220513,1312871,66526,8366,655915,0
3,-1,644267,221193,1308270,66780,8364,653441,0
3,-1,641306,219936,1300479,66056,8479,649823,0
3,-1,645214,220131,1354709,66083,8572,676958,0
3,-1,641188,219489,1584685,65894,9987,791905,0
3,-1,646831,221553,1303428,66835,8473,651129,0
3,-1,642470,219252,1334672,65878,9133,666867,0
3,-1,638905,219039,1295666,65843,8714,647386,2
3,-1,641723,218637,1243858,65667,8729,621604,0
3,-1,636913,219114,1220104,65825,7738,609595,2
3,-1,638037,219053,1337794,65774,7870,668589,0
3,-1,638661,218759,1159951,65584,7512,579520,0
3,-1,645465,221511,1281523,66858,8562,640229,2
3,-1,644085,219782,1210898,66084,8117,605167,0
3,-1,641511,219826,1306932,65972,8917,653066,0
3,-1,643061,219921,1364062,66086,8987,681494,2
3,-1,642086,219081,1586854,65756,9611,792926,0
3,-1,644811,220201,1178090,65971,8497,588669,0
3,-1,644763,221130,1222231,66549,8398,610484,0
3,-1,664714,224705,1424875,69197,9166,711827,0
3,-1,647977,220587,1297644,66278,8377,648268,0
3,-1,652941,222459,1319940,67060,8399,659377,2
3,-1,645767,218889,1488827,65486,8999,744005,0
3,-1,640186,219664,1131686,65751,7936,565417,0
3,-1,639453,219270,1195491,65608,7812,597200,0
3,-1,660342,224755,1278094,69181,9501,638739,0
3,-1,639472,219857,1252223,65890,8200,625394,2
3,-1,643595,220597,1655336,66110,9668,827176,0
3,-1,642594,219278,1193980,65666,7503,596559,0
3,-1,639183,219316,1293024,65704,8347,645981,2
3,-1,638546,218934,1167343,65626,8035,583330,0
3,-1,660902,224071,1267008,69074,8801,632929,0
3,-1,644001,220677,1289553,66452,8132,644279,0
3,-1,640550,219335,1285211,65750,7677,642057,0
3,-1,643064,221473,1282891,66786,8556,640918,2
3,-1,639124,218986,1182183,65702,7500,590639,0
3,-1,647037,221499,1262166,66786,7795,630418,0
3,-1,640851,219243,1224286,65800,8502,611584,2
3,-1,642143,218787,1282067,65649,9407,640552,0
3,-1,638529,219302,1375748,65775,9137,687411,0
3,-1,637816,219459,1243788,65837,7719,621464,2
3,-1,641282,219875,1215495,65960,8011,607309,0
3,-1,639439,219088,1333034,65661,8404,665935,0
3,-1,641108,219429,1298966,65821,8853,649086,2
3,-1,638468,218963,1230261,65631,8429,614825,0
3,-1,661208,223729,1327182,68981,8669,663162,0
3,-1,668489,229084,1309820,68893,7979,654381,0
3,-1,640518,218639,1514788,65533,9881,756995,0
3,-1,644634,221629,1221124,66829,7593,609845,2
3,-1,639067,218729,1287051,65539,8025,643259,0
3,-1,645792,221670,1436593,66819,8620,717692,0
3,-1,648202,221079,1215750,66558,9079,607250,0
3,-1,639883,218945,1314217,65631,8585,656640,0
3,-1,641777,218822,1317466,65653,8715,658156,0
3,-1,643139,219651,1224484,65854,7685,611779,2
3,-1,641881,218780,1198507,65622,7952,598864,0
3,-1,643480,221319,1239347,66674,7923,619066,0
3,-1,638558,218848,1435726,65595,8312,717652,0
3,-1,639333,218950,1176442,65659,8116,587733,0
3,-1,639115,219639,1245676,65886,7087,622351,0
3,-1,639974,218802,1511865,65598,9539,755578,0
3,-1,639956,218799,1339705,65562,8144,669386,0
3,-1,643108,221039,1309789,66608,7961,654214,0
3,-1,639534,218976,1320866,65615,7507,660084,0
3,-1,642155,219388,1433735,65811,8464,716462,0
3,-1,640026,219092,1279544,65739,7574,639466,2
3,-1,642672,219561,1179076,65871,7500,589165,0
3,-1,644417,219537,1351668,65875,8020,674781,0
3,-1,646140,221252,1194143,66676,7418,596428,0
3,-1,639584,218692,1327166,65530,8060,663238,0
3,-1,645689,221358,1226255,66722,7312,612482,2
3,-1,643429,219768,1303456,65942,7313,651321,0
3,-1,640441,219298,1196085,65730,6963,597761,0
3,-1,643290,219024,1259810,65645,7866,629688,0
3,-1,640982,218895,1162119,65676,7092,580622,2
3,-1,643930,219040,1297584,65700,8220,648467,0
3,-1,643215,219687,1288720,65908,7259,643843,0
3,-1,643454,219744,1354744,65933,7198,676913,0
3,-1,644124,219395,1296556,65843,8269,647872,2
3,-1,647667,219817,1332471,65920,8274,665346,0
3,-1,648921,221721,1311115,66839,7719,655005,0
3,-1,642685,218718,1142298,65548,6674,570815,0
3,-1,652392,221649,1401224,66723,7073,699749,0
3,-1,629685,218607,1295630,65009,7063,647349,0
3,-1,632489,219491,1304968,65368,7206,651883,2
3,-1,634120,219208,1314889,65297,6944,657081,0
3,-1,654609,223759,1347915,68527,8165,673422,0
3,-1,633381,219195,1204545,65281,7092,601839,2
3,-1,635545,218987,1267801,65218,7667,633453,0
3,-1,633962,219093,1112467,65236,7251,555820,0
3,-1,636002,219035,1206796,65179,6710,603097,0
3,-1,662770,228197,1212239,67848,7224,605849,0
3,-1,638712,219796,1304270,65396,7191,651741,0
3,-1,630287,218731,1276159,65131,7653,637784,2
3,-1,635042,218926,1308388,65163,7286,653761,0
3,-1,637261,219422,1226697,65307,7525,612967,0
3,-1,636600,218591,1267796,65080,7168,633584,0
3,-1,636876,219936,1316878,65520,7711,658026,2
3,-1,644015,221626,1293868,66399,8103,645340,0
3,-1,638640,219223,1375246,65214,7520,687184,0
3,-1,636255,218501,1180977,65005,7521,590075,2
3,-1,634227,218795,1208133,65103,8396,603610,0
3,-1,632997,219021,1237647,65219,7931,618404,2
3,-1,636008,218698,1261243,65058,7809,630269,0
3,-1,636034,218696,1271594,65075,7459,635360,0
3,-1,638177,219132,1181673,65409,7269,590483,0
3,-1,637251,218838,1302012,65289,7351,650652,0
3,-1,642073,221342,1170837,66399,7435,584854,2
3,-1,636990,218505,1169126,65139,7260,584239,0
3,-1,635120,219224,1261201,65387,8007,630257,0
3,-1,638495,219045,1366507,66157,8906,682855,0
3,-1,641078,219939,1341544,66469,8635,670184,2
3,-1,640454,219504,1178083,66317,7976,588811,0
3,-1,660596,223139,1325498,69284,9288,662402,0
3,-1,636773,219044,1247976,66177,7783,623656,2
3,-1,639686,218602,1214935,65949,7960,607113,0
3,-1,641994,218937,1320720,66181,8781,659876,0
3,-1,640859,219045,1322052,66140,8614,660691,0
3,-1,645058,219801,1328202,66657,8795,663575,0
3,-1,636916,218448,1247463,65886,8271,623299,0
3,-1,638850,219202,1283675,66210,8846,641369,0
3,-1,636968,218957,1295363,66138,7810,647353,0
3,-1,638474,218695,1217333,66055,7738,608376,0
3,-1,636362,218922,1327098,66166,8472,662969,2
3,-1,658602,223157,1374448,69333,8830,686761,0
3,-1,642459,219288,1270720,66226,7486,635014,0
3,-1,639211,219159,1183356,66177,7423,590972,0
3,-1,637141,218905,1206400,66088,8386,602984,0
3,-1,637360,218279,1225647,65919,8388,612538,0
3,-1,639582,218895,1346746,66141,8911,672426,0
3,-1,662415,223893,1320998,69564,8364,660133,0
3,-1,635893,218712,1235402,65990,7885,617379,0
3,-1,636367,218394,1174856,65897,7611,587065,0
3,-1,639998,219677,1277265,66431,7555,638255,2
3,-1,643803,220797,1214295,66966,7467,606603,0
3,-1,658827,223201,1319905,69384,7811,659586,0
3,-1,639688,218723,1339782,66070,7342,669559,0
3,-1,641331,218353,1195612,65919,7416,597549,0
3,-1,639905,218473,1271532,66045,7293,635440,2
3,-1,638204,218751,1246303,66112,7582,622806,0
3,-1,643928,220318,1197215,66837,7381,598043,0
3,-1,639308,219395,1294869,66331,8075,647009,2
3,-1,664288,223907,1325956,69564,8502,662642,0
3,-1,640570,218268,1258256,65840,7893,628408,0
3,-1,641923,219217,1288193,66267,8364,643681,0
3,-1,643644,219808,1386343,66410,9324,692775,2
3,-1,663087,223053,1430873,69211,9555,715047,0
3,-1,640268,219693,1350654,66346,9011,674895,0
3,-1,635224,218426,1247666,65987,8710,623443,2
3,-1,637122,218854,1238495,66166,8870,619452,0
3,-1,634823,218890,1260728,66150,8000,629791,2
3,-1,643489,221489,1238788,67280,7983,618691,0
3,-1,637737,218880,1208978,66165,8075,604076,0
3,-1,636402,218401,1300280,65965,7760,649719,2
3,-1,645529,221020,1198200,67110,7866,598400,0
3,-1,637853,219067,1296985,66200,8477,648063,0
3,-1,641884,221143,1183276,67143,7422,590960,2
3,-1,637864,218716,1273582,66085,8660,636359,0
3,-1,642324,219761,1287278,66404,7755,643326,0
3,-1,641673,219665,1276190,66426,8251,637789,2
3,-1,642109,220747,1186434,67097,7644,592106,0
3,-1,641965,219369,1238962,66320,7028,619166,0
3,-1,638993,219399,1200532,66308,7410,599731,2
3,-1,640859,218910,1353781,66154,7578,676422,0
3,-1,640932,218078,1258557,65796,7801,628893,0
3,-1,638498,219624,1252789,66367,8445,625981,2
3,-1,637711,218674,1241916,66037,7015,620580,0
3,-1,642440,220346,1171694,66912,7951,585200,0
3,-1,644008,220933,1246588,67111,7730,622639,0
3,-1,639408,218947,1257084,66158,7063,628255,0
3,-1,642633,219828,1191926,66286,8315,595497,0
3,-1,646607,219927,1197568,66618,8105,598266,0
3,-1,637819,219382,1298056,66332,8338,648611,2
3,-1,639485,219039,1349969,66138,8314,674594,0
3,-1,641687,219015,1250862,66161,7983,625002,0
3,-1,640733,219374,1331430,66335,8404,665348,2
3,-1,641206,218717,1208763,66084,7317,603792,0
3,-1,639250,218830,1209567,66047,7626,604351,2
3,-1,643971,219390,1180351,66309,7761,589841,0
3,-1,663376,223198,1414809,69360,8875,707093,0
3,-1,643525,219194,1289193,66153,8209,644266,2
3,-1,640209,219624,1231607,66196,7009,615448,0
3,-1,637440,218238,1368176,65739,6627,683375,0
3,-1,637377,218706,1192002,66052,8072,595655,0
3,-1,640693,219845,1207158,66484,8616,603131,2
3,-1,644193,219341,1404920,66240,8497,702031,0
3,-1,640208,218901,1317985,66220,8179,658602,2
3,-1,641000,219212,1217596,66242,7908,608413,0
3,-1,642725,220117,1209877,66553,7428,604464,2
3,-1,661728,223350,1352422,69375,8341,675777,0
3,-1,663091,223721,1271294,69413,8476,635210,0
3,-1,638704,219132,1230102,66126,8715,614523,2
3,-1,641658,219368,1262088,66134,8088,630665,0
3,-1,642059,218893,1177618,66046,6910,588477,0
3,-1,647254,221261,1341299,67207,8031,669960,2
3,-1,644095,219298,1380857,66179,8557,690082,0
3,-1,642507,218153,1264203,65740,8325,631823,0
3,-1,639600,218852,1278502,66100,8143,638879,0
3,-1,637643,218798,1246452,66102,7595,622657,2
3,-1,641061,219316,1370607,66295,7896,684976,0
3,-1,641350,218650,1148833,66079,7692,574013,0
3,-1,642988,219553,1227088,66345,7850,613137,2
3,-1,663361,223866,1410929,69533,9515,705206,0
3,-1,645246,219734,1317147,66380,8332,658157,0
3,-1,639257,219068,1276199,66113,8365,637867,0
3,-1,639368,218460,1317546,65936,8018,658467,0
3,-1,643211,219139,1122701,66171,7334,561069,0
3,-1,645462,220497,1189790,67053,7739,594146,2
3,-1,644324,219156,1238399,66209,7530,619015,0
3,-1,642092,219323,1226936,66309,7397,613195,0
3,-1,642829,218910,1356394,66119,8721,677807,2
3,-1,643049,218327,1308346,65837,8855,653882,0
3,-1,643253,218441,1298154,65980,8316,648755,0
3,-1,636094,219141,1235659,66191,8354,617479,0
3,-1,636956,218506,1219351,65752,7594,608917,0
3,-1,638666,219231,1316688,66048,8440,658076,0
3,-1,636351,218916,1247988,66022,8531,623421,2
3,-1,639340,219176,1318205,66086,8295,658716,0
3,-1,639680,219639,1230283,66543,8053,614645,0
3,-1,639701,219291,1190931,66321,7994,595110,0
3,-1,664937,224315,1312894,69739,8380,656009,0
3,-1,640939,219913,1178282,66501,6968,588795,0
3,-1,644767,220408,1289767,66755,8342,644546,0
3,-1,641746,219524,1329737,66320,8837,664567,0
3,-1,644423,219658,1333133,66309,8301,666210,0
3,-1,645278,220319,1310436,66604,8644,654835,0
3,-1,648328,221380,1173447,67255,8197,585841,0
3,-1,644150,220304,1266736,66578,8545,633040,2
3,-1,643474,219194,1293680,66305,8294,646460,0
3,-1,642510,219609,1193140,66479,7929,596232,0
3,-1,645776,221000,1187632,67129,7566,593164,0
3,-1,644670,221700,1213956,67457,8640,606083,2
3,-1,639114,219015,1321568,66162,8557,660452,0
3,-1,642314,219635,1316437,66370,9222,658026,0
3,-1,642309,219642,1311065,66512,8221,654996,2
3,-1,645410,219848,1214948,66559,8326,607131,0
3,-1,640378,219837,1310233,66451,9176,654708,0
3,-1,644713,220555,1189831,66685,8771,594592,0
3,-1,645084,219601,1427306,66291,8762,713254,0
3,-1,646184,220543,1213272,66723,7889,606197,2
3,-1,644326,220270,1295343,66600,8285,647508,0
3,-1,643712,220232,1322672,66596,8832,660861,2
3,-1,645704,220319,1342117,66596,8994,670719,0
3,-1,646474,219973,1367371,66515,8893,683197,0
3,-1,644332,221968,1157386,67439,8607,577998,2
3,-1,643977,221159,1280723,67080,7665,639613,0
3,-1,648787,221946,1359722,67321,8417,679353,0
3,-1,640481,219860,1253316,66415,8500,626340,0
3,-1,644271,220476,1203837,66676,7691,601528,0
3,-1,643565,219791,1178499,66437,7140,588815,0
3,-1,645803,220928,1205345,66820,8266,602176,0
3,-1,645636,219954,1212289,66516,8184,605705,0
3,-1,645557,221341,1220547,67101,7914,609578,0
3,-1,650468,222556,1246379,67608,8072,622437,0
3,-1,644405,220883,1399723,66748,7548,699405,2
3,-1,643975,219458,1264479,66149,8008,631979,0
3,-1,642606,219888,1425440,66320,8877,712235,0
3,-1,643930,219946,1443351,66268,8411,720970,0
3,-1,647762,220753,1270340,66550,8702,634647,0
3,-1,640605,219592,1247653,66168,8277,623389,0
3,-1,647762,221527,1347884,67095,7725,673605,0
3,-1,645947,221332,1219149,66949,7169,608588,0
3,-1,644116,219897,1197346,66364,7354,598182,0
3,-1,666063,224948,1264769,69782,8358,631832,0
3,-1,645729,219952,1247915,66343,7870,623492,0
3,-1,644808,220479,1184644,66755,7138,591705,0
3,-1,647512,221641,1289778,67319,7661,644165,2
3,-1,643491,219358,1180966,66241,7461,589976,0
3,-1,641527,219194,1316846,66137,8007,657963,0
3,-1,649504,221743,1232150,67298,7869,615321,0
3,-1,646622,219622,1295474,66285,8422,647328,0
3,-1,640519,220212,1287605,66508,8333,643381,0
3,-1,639801,220296,1247580,66519,8290,623382,2
3,-1,659459,223693,1351056,69444,9146,675199,0
3,-1,640891,220339,1221668,66699,8203,610292,0
3,-1,646731,221608,1215637,67239,7703,607033,0
3,-1,640472,220199,1273982,66453,7859,636575,0
3,-1,643630,220249,1233537,66500,8142,616307,0
3,-1,643704,220013,1195610,66446,7562,597498,0
3,-1,646757,220985,1204797,66951,8272,601808,0
3,-1,647940,221351,1237688,67152,8170,618287,0
3,-1,640543,220050,1196548,66480,7960,597831,2
3,-1,643080,219843,1318115,66393,8276,658668,0
3,-1,648110,221819,1256552,67266,7880,627646,0
3,-1,641964,220017,1350223,66461,8024,674582,2
3,-1,663398,224838,1405640,69789,8580,702402,0
3,-1,643002,219879,1254431,66353,7260,626805,0
3,-1,648092,221135,1154791,66962,7640,576713,0
3,-1,649875,221347,1164751,67053,8059,581647,0
3,-1,641261,219904,1264161,66303,7603,631737,0
3,-1,643219,220029,1186299,66402,7341,592792,0
3,-1,647319,220679,1378850,66705,9228,688495,0
3,-1,643964,219800,1203542,66504,7856,601255,0
3,-1,646809,220255,1310676,66552,7504,654988,2
3,-1,643350,219775,1290953,66355,7948,645110,0
3,-1,645552,220972,1217198,66829,7905,608072,2
3,-1,644815,219646,1298449,66359,8751,648845,0
3,-1,645235,219344,1209892,66258,7869,604498,0
3,-1,643573,219654,1285491,66448,7760,642409,2
3,-1,645864,219950,1196790,66492,8439,598055,0
3,-1,646879,219940,1227903,66449,7784,613528,0
3,-1,643871,219936,1209372,66339,7467,604208,0
3,-1,641269,219768,1246506,66253,8062,622825,0
3,-1,644283,219954,1326768,66307,7595,662904,0
3,-1,646212,220238,1172613,66483,8273,585856,0
3,-1,644264,220209,1363979,66479,8348,681616,0
3,-1,664892,224464,1388095,69571,9288,693559,0
3,-1,640944,219037,1250868,66072,7655,625112,0
3,-1,644977,220473,1217455,66531,7011,608302,2
3,-1,644042,218926,1223364,65998,8142,611214,0
3,-1,643474,219807,1297402,66318,7911,648302,0
3,-1,640844,219381,1290661,66212,8687,644973,2
3,-1,649061,221747,1306347,67243,8945,652673,0
3,-1,674231,229872,1362823,69515,8820,680853,0
3,-1,641756,219007,1304373,65996,8566,651758,0
3,-1,649449,220939,1302907,66916,8898,650646,0
3,-1,640985,219513,1300836,66238,7994,649950,2
3,-1,644993,219913,1288629,66344,8197,643804,0
3,-1,641177,218498,1228520,65853,7930,613749,0
3,-1,644702,219153,1279750,66050,8173,639498,0
3,-1,641611,219136,1201985,66062,7457,600478,2
3,-1,640389,218810,1194424,66065,7743,596656,0
3,-1,645122,219945,1300307,66432,8168,649575,2
3,-1,643763,218856,1153718,66048,7931,576544,0
3,-1,647160,221949,1286708,67481,8304,642446,2
3,-1,638749,218184,1247589,65836,7958,623476,0
3,-1,663303,223200,1427884,69452,8936,713728,0
3,-1,646475,219569,1300488,66469,8759,650004,0
3,-1,669061,224797,1349251,70528,9215,674089,0
3,-1,641950,218879,1355015,66288,7991,677167,2
3,-1,663267,222818,1246857,69377,8797,623009,0
3,-1,644910,218724,1161973,66251,6923,580611,2
3,-1,634077,218400,1217746,66088,6158,608621,0
3,-1,638946,220227,1341134,66907,7513,670097,0
3,-1,637614,218958,1275447,66297,7627,637380,0
3,-1,631827,218109,1248720,66092,7493,623915,2
3,-1,637379,218368,1172436,66072,7355,585955,0
3,-1,636558,218231,1260814,66097,7774,630004,0
3,-1,636993,218619,1184304,66145,7076,591745,0
3,-1,637228,218758,1204201,66268,7935,601731,2
3,-1,638418,218385,1179441,66133,6912,589303,0
3,-1,637792,219025,1259849,66263,7455,629632,0
3,-1,634855,218077,1254476,65989,7588,626775,2
3,-1,642838,219972,1387096,66617,7553,693079,0
3,-1,639016,219367,1182634,66377,6890,590971,0
3,-1,641611,219906,1278799,66741,7248,638973,0
3,-1,635452,218830,1306254,66322,7028,652796,2
3,-1,638721,219037,1168539,66354,6942,583942,0
3,-1,637176,218513,1210549,66127,7163,604966,0
3,-1,640155,218277,1331401,65965,7130,665354,0
3,-1,640990,221166,1282645,67301,6843,640723,2
3,-1,637501,218615,1275107,66150,7255,637139,0
3,-1,636692,218008,1215108,65882,7779,607434,0
3,-1,641312,218747,1213527,66268,7194,606352,0
3,-1,637531,218468,1216596,66136,6929,607967,0
3,-1,639629,218816,1247830,66272,7710,623542,0
3,-1,642249,219100,1323846,66246,8152,661439,0
3,-1,638615,218968,1266583,66192,8293,632912,0
3,-1,667731,228006,1324795,68773,8200,662071,0
