0,0,235,644774.417021,220653.774468,1299248.553191,66653.136170,8040.144681,649172.340426,9821.348530,2884.990032,81121.721560,1312.689576,693.220996,40520.060179
0,1,0,-nan,-nan,-nan,-nan,-nan,-nan,-nan,-nan,-nan,-nan,-nan,-nan
1,0,234,644499.534188,220607.354701,1296180.495726,66581.559829,8025.585470,647633.952991,10308.085031,3050.049173,80758.459501,1312.351595,652.178770,40361.434193
1,1,0,-nan,-nan,-nan,-nan,-nan,-nan,-nan,-nan,-nan,-nan,-nan,-nan
2,0,234,644222.418803,220506.606838,1295148.222222,66562.021368,7990.619658,647136.337607,9872.183128,2893.577183,80602.406603,1297.137221,679.895351,40282.699194
2,1,0,-nan,-nan,-nan,-nan,-nan,-nan,-nan,-nan,-nan,-nan,-nan,-nan
3,0,234,643798.696581,220432.606838,1302062.448718,66503.059829,8007.247863,650570.405983,8656.802234,2605.852827,79662.126499,1169.092301,596.109092,39821.508965
3,1,0,-nan,-nan,-nan,-nan,-nan,-nan,-nan,-nan,-nan,-nan,-nan,-nan
4,0,235,643699.497872,220406.706383,1300737.561702,66506.902128,8023.604255,649918.417021,9083.114462,2634.292354,78379.072806,1208.016994,645.724835,39174.395424
4,1,0,-nan,-nan,-nan,-nan,-nan,-nan,-nan,-nan,-nan,-nan,-nan,-nan
5,0,235,643997.723404,220446.182979,1300561.455319,66490.625532,8021.744681,649815.195745,9681.205712,2926.303920,84043.614671,1236.153535,687.790612,41984.845630
5,1,0,-nan,-nan,-nan,-nan,-nan,-nan,-nan,-nan,-nan,-nan,-nan,-nan
6,0,235,644651.987234,220516.782979,1298038.965957,66614.102128,8070.110638,648589.182979,9782.367747,2663.284894,75362.358943,1309.854424,728.320414,37648.374323
6,1,0,-nan,-nan,-nan,-nan,-nan,-nan,-nan,-nan,-nan,-nan,-nan,-nan
7,0,353,642458.127479,220257.532578,1298429.067989,66395.441926,8009.014164,648749.932011,7550.748590,2269.425317,77971.513379,970.683689,645.091392,38992.808309
7,1,0,-nan,-nan,-nan,-nan,-nan,-nan,-nan,-nan,-nan,-nan,-nan,-nan
