0,0,4,695032.750000,240419.000000,1371020.250000,71686.750000,8790.750000,685376.500000,28781.007656,10542.860120,42643.322768,3088.996227,509.401303,21204.157676
0,1,28,715005.892857,249705.321429,1370217.964286,74392.928571,9004.000000,685064.892857,13318.982175,4654.931119,63854.173274,1427.123178,566.613499,31858.006565
1,0,3,686735.000000,237492.000000,1328175.000000,70881.333333,8960.333333,664050.333333,23979.875410,8217.031135,50003.862511,2170.552976,522.009153,25139.383038
1,1,27,711410.370370,248458.074074,1383292.555556,74144.074074,9157.111111,691611.000000,6960.902826,1513.332034,75649.397080,1095.116430,515.294762,37750.309979
2,0,3,663814.000000,230071.333333,1338502.333333,68755.666667,8129.000000,669145.666667,1085.719117,439.279208,62549.869860,207.708663,515.940565,31384.869564
2,1,27,713032.222222,248886.481481,1372747.851852,74397.407407,9123.925926,686326.074074,8417.850946,1879.729302,73078.441582,1298.294786,569.493858,36507.748835
3,0,3,666269.333333,231255.000000,1298646.000000,69177.666667,8015.666667,649222.666667,4808.589352,927.037216,61849.134615,333.368998,483.173077,30977.199425
3,1,27,712263.148148,248819.000000,1378691.740741,74272.037037,9129.148148,689350.925926,7226.520118,1267.603046,75832.843306,1028.720906,796.573342,37897.304414
4,0,3,665272.000000,230128.000000,1305193.333333,68761.000000,8096.333333,652510.000000,2355.853278,247.242122,36983.437161,138.710730,281.169384,18571.516703
4,1,27,710780.555556,248438.925926,1367693.111111,74065.703704,9021.148148,683814.296296,7229.937315,1512.066159,71782.511283,1016.179075,838.265701,35845.158115
5,0,3,664981.333333,230605.333333,1329632.333333,68964.333333,8515.666667,664777.666667,1364.729603,1121.173889,62993.975592,541.808289,506.217564,31508.717781
5,1,27,711878.185185,248590.814815,1388820.185185,74179.333333,9033.592593,694368.037037,8557.185761,1712.374852,81645.600075,1055.964786,696.076265,40809.374928
6,0,3,664880.333333,230421.000000,1270628.000000,68866.000000,7968.000000,635267.000000,1321.429109,591.434415,33586.792523,236.909265,213.655486,16690.031176
6,1,27,709581.925926,248314.740741,1364299.555556,73900.222222,8957.111111,682160.592593,3054.898349,900.387513,71882.160777,486.241011,614.232815,35924.669766
7,0,4,669197.500000,231816.500000,1340837.750000,69456.000000,8409.000000,670340.250000,4549.352729,1492.375539,54672.456330,521.558722,711.988413,27311.420197
7,1,27,712110.370370,249030.481481,1380738.666667,74219.000000,9000.481481,690316.037037,7534.234209,2400.843823,75121.289601,1027.121400,602.981565,37573.144661
8,0,4,666279.000000,230609.250000,1309883.250000,68876.500000,8459.000000,654958.000000,2642.986947,544.507748,27123.033803,116.431310,236.479386,13584.256255
8,1,27,713388.444444,249201.777778,1369721.962963,74494.037037,9024.185185,684833.111111,7007.768580,1616.636823,51319.141026,1095.555786,566.780906,25637.066665
9,0,4,669766.500000,231446.750000,1284882.250000,69272.500000,8718.500000,642471.500000,2890.827260,1392.470534,42735.604666,533.735187,347.881086,21376.388429
9,1,27,710923.777778,248578.259259,1376539.777778,74149.148148,8957.111111,688289.481481,5990.593653,1292.854195,65497.802141,938.032247,490.310131,32838.687497
10,0,4,668597.500000,230685.250000,1291044.000000,68881.000000,8282.250000,645535.750000,2064.380597,838.574199,42837.062685,221.354919,275.920618,21411.182165
10,1,27,714523.740741,249342.222222,1379163.666667,74554.111111,9091.888889,689574.222222,9459.183621,2432.092322,55156.584597,1316.077627,489.708555,27542.353466
11,0,3,669194.333333,231039.333333,1294491.666667,69077.000000,8504.000000,647153.000000,3404.991369,1206.613535,78674.677541,570.788928,729.520847,39273.540508
11,1,27,714411.481481,249357.555556,1397188.555556,74656.333333,9245.518519,698520.407407,9479.989000,1982.521782,57553.307603,1338.289649,660.301691,28738.087139
12,0,3,668461.000000,231064.333333,1287044.000000,69092.666667,8298.000000,643526.666667,1848.621288,753.088013,17123.712740,302.656387,638.618822,8531.279089
12,1,27,712266.185185,248919.666667,1405638.518519,74306.629630,9257.666667,702828.592593,8189.300020,1750.056211,95777.203014,1164.740128,843.283222,47846.853747
13,0,3,673522.666667,232188.666667,1302169.000000,69979.000000,8467.333333,650943.666667,10642.173159,2555.719381,75401.199447,1614.515614,612.402010,37600.824728
13,1,27,713182.333333,249249.851852,1387393.555556,74468.000000,9016.000000,693718.333333,10766.943701,2721.865465,82165.527192,1412.341056,603.349048,41081.245787
14,0,3,675587.000000,234053.333333,1340225.333333,69939.666667,8415.000000,670105.333333,12793.974076,4570.794558,67864.380870,1309.406312,591.493590,33921.279559
14,1,27,711489.555556,248775.111111,1392391.777778,74159.037037,9033.296296,696152.370370,7627.380402,1990.466953,80420.949428,1023.069871,613.988286,40169.976799
15,0,3,666506.666667,230397.000000,1310615.333333,68796.000000,8587.666667,655199.333333,1178.401837,464.468155,13656.773077,134.352769,461.385113,6793.703179
15,1,27,712396.000000,249057.814815,1383350.111111,74386.814815,9157.481481,691630.333333,7236.715098,1445.053454,75252.180654,1048.618634,593.193140,37628.165485
16,0,3,673525.666667,232020.000000,1343518.000000,69926.333333,8662.666667,671673.333333,8461.212850,1828.497926,62634.141765,1525.064443,495.742092,31333.264883
16,1,27,712847.222222,248958.407407,1379704.592593,74423.925926,9205.481481,689853.703704,7503.676538,1718.814347,82634.278886,1224.990852,853.770651,41309.729004
17,0,3,675190.666667,232761.000000,1346861.333333,70257.000000,8507.333333,673289.333333,9130.552898,1885.702168,46562.161421,1275.521070,633.787206,23205.304427
17,1,27,709410.925926,248083.592593,1372814.148148,73809.000000,9114.037037,686403.925926,3481.100421,852.449249,60645.445776,412.198891,643.242220,30294.480591
18,0,3,672877.666667,232166.000000,1305426.666667,69992.333333,8412.000000,652648.333333,10951.993314,2541.124292,41858.919291,1646.689069,649.017719,20954.478826
18,1,27,710056.777778,248271.259259,1384969.888889,73896.185185,9197.370370,692451.925926,3974.444031,1044.117405,54318.466792,478.987979,577.118073,27141.786914
19,0,3,664981.000000,230324.333333,1287921.333333,68868.666667,8190.666667,643817.666667,915.707741,505.268465,39404.413512,236.536584,451.197912,19539.741116
19,1,27,714310.814815,249322.629630,1388370.481481,74499.370370,9253.851852,694132.111111,7888.352680,2174.180376,85247.297326,1199.796963,774.068315,42601.235997
20,0,3,667761.333333,231032.333333,1351262.333333,69112.333333,8536.333333,675586.333333,4254.318616,1325.589764,69847.732735,574.976135,354.925657,34952.474937
20,1,27,713006.185185,249160.111111,1397400.592593,74472.703704,9214.518519,698629.259259,7744.624167,1635.724538,99573.248201,1145.606772,600.106001,49720.576670
21,0,3,668426.333333,231081.333333,1373188.666667,69070.666667,8741.000000,686531.666667,1993.599313,527.451946,8728.230609,158.160959,455.228148,4335.345763
21,1,27,712951.000000,249118.407407,1388420.222222,74352.666667,9039.407407,694219.703704,8472.336007,2318.236211,53369.944701,1210.079214,519.447089,26705.717708
22,0,3,668395.666667,231809.000000,1346026.000000,69476.666667,8542.666667,672915.333333,3369.698833,1152.698862,80252.830559,441.271899,782.191934,40101.486725
22,1,27,711949.000000,248644.037037,1387139.333333,74153.296296,9065.370370,693569.592593,6734.829784,1455.968724,69497.766182,918.003785,542.953729,34835.234694
23,0,3,681446.333333,233669.666667,1363642.333333,71097.333333,8972.666667,681632.666667,11908.402645,2503.465642,18032.987742,1633.018949,505.329156,8994.463532
23,1,27,711212.259259,248635.629630,1396568.333333,74087.740741,9260.629630,698249.777778,5016.928990,1218.738697,58138.801343,812.872620,523.206081,29066.363051
24,0,3,673556.000000,231900.000000,1337900.000000,69906.666667,8582.000000,668865.333333,5910.643676,1612.998037,65720.745537,1455.218273,562.737950,32776.843557
24,1,27,713833.444444,249339.962963,1392208.740741,74479.629630,9187.333333,696124.481481,11875.065390,3094.005656,86156.047996,1571.562590,567.940464,43061.453280
25,0,3,667958.333333,230424.333333,1276333.333333,68777.333333,8600.333333,638216.000000,2855.132260,353.746928,57814.335398,143.099810,312.552218,28890.209599
25,1,27,712935.629630,249174.259259,1380890.814815,74462.592593,9153.592593,690414.148148,8788.578165,1867.148243,56668.081297,1252.654611,665.950463,28309.080300
26,0,3,667665.666667,231087.000000,1336729.666667,69080.000000,8534.666667,668245.000000,1962.663893,571.545274,53014.396952,326.521056,220.841321,26446.424673
26,1,27,712372.407407,248958.814815,1357691.370370,74375.740741,9132.148148,678863.555556,8050.399315,1742.614745,79599.587219,1032.948874,664.524152,39782.092385
27,0,3,668567.666667,231056.000000,1267934.000000,69126.000000,8097.666667,633925.666667,3118.923568,1012.326364,84712.749702,412.844604,649.656490,42347.528699
27,1,27,713333.111111,249269.666667,1375459.296296,74453.925926,9237.444444,687713.629630,8481.075029,2389.883059,92968.688810,1258.833673,668.171431,46438.675467
28,0,3,669966.333333,231193.666667,1302376.000000,69691.333333,7716.333333,651259.333333,6428.382344,1495.980689,48062.646556,1419.859696,593.805992,24062.531002
28,1,27,711717.555556,248782.518519,1386126.148148,74098.851852,9027.555556,693024.296296,7055.182814,1901.757537,73503.870111,877.376126,532.853835,36754.374642
29,0,3,664746.333333,229945.333333,1304585.333333,68701.666667,8038.000000,652255.333333,2987.263445,404.196597,36952.928241,215.895551,426.385584,18480.250618
29,1,27,711935.592593,248821.407407,1408441.333333,74278.888889,9365.592593,704120.185185,7879.246990,1820.025300,116027.323272,1188.732326,1006.103936,57941.046109
30,0,3,665094.000000,230426.000000,1281159.000000,68814.333333,7838.333333,640528.666667,3076.819245,435.410151,19807.032404,92.452991,161.617518,9922.959113
30,1,27,713649.037037,249227.296296,1398644.259259,74477.444444,9354.481481,699308.703704,8445.282433,1721.543167,53740.668591,1130.485026,707.955710,26812.902586
31,0,3,675376.000000,232431.000000,1350195.333333,70175.333333,8724.666667,675113.666667,9809.108556,1819.822152,6719.118610,1359.736821,332.596185,3397.918415
31,1,27,714090.814815,249198.407407,1399017.592593,74394.111111,9210.444444,699475.851852,10107.881051,2649.478792,77158.539973,1289.947295,748.494110,38500.323119
32,0,3,665511.333333,230270.000000,1284054.000000,68755.333333,8075.000000,642029.666667,1650.855401,496.264043,45117.962040,113.155743,30.506830,22518.065079
32,1,27,713655.259259,249553.444444,1414451.703704,74327.666667,9285.888889,707170.666667,15469.304221,5201.014654,82960.982757,1543.649740,692.049363,41383.829207
33,0,3,666767.666667,230786.000000,1281772.666667,68986.000000,7911.000000,640890.666667,1764.866819,698.034861,50405.258405,307.886343,306.068620,25204.199086
33,1,27,716842.296296,250021.740741,1399863.074074,74851.925926,9141.444444,699901.666667,15875.157149,4704.805302,82367.100895,2052.953409,799.979645,41138.041228
34,0,3,665663.333333,229951.000000,1366670.666667,68703.333333,8259.333333,683411.000000,2982.181565,215.408140,59395.265447,48.609556,370.377585,29662.544496
34,1,27,714629.666667,249621.740741,1394530.814815,74556.259259,9153.629630,697216.888889,12041.626948,3566.246856,90224.528426,1385.516018,741.783144,45110.804531
35,0,3,667179.000000,230645.666667,1325255.333333,69030.000000,8267.000000,662526.666667,2617.433985,977.959895,10633.823468,459.310353,343.098625,5398.157793
35,1,27,714019.000000,249625.666667,1389764.703704,74499.111111,9060.074074,694872.814815,11801.841134,3740.608378,84708.414978,1429.373946,738.218573,42337.397810
36,0,3,667311.000000,230424.333333,1284410.666667,68853.666667,8158.333333,642121.333333,697.240752,497.367961,56775.220254,128.971142,186.104511,28431.842903
36,1,27,714266.777778,249885.185185,1388530.925926,74399.037037,9073.592593,694280.925926,13190.103741,4446.960660,74826.811197,1401.922846,748.365194,37399.968078
37,0,3,668009.333333,231171.000000,1291136.666667,69246.666667,7996.000000,645383.333333,4198.026309,943.710054,77387.636585,424.188899,481.873427,38680.260102
37,1,27,714139.481481,249694.296296,1426709.222222,74497.000000,9271.296296,713308.851852,11549.720427,3597.543265,80004.548334,1366.695908,722.589214,39929.085851
38,0,3,666576.000000,230775.666667,1350854.666667,69086.666667,8263.666667,675334.666667,1573.825912,939.756824,87625.596037,353.510333,460.774228,43737.285957
38,1,27,715236.666667,249510.074074,1421573.000000,74495.740741,9321.185185,710739.259259,16288.759667,4673.270525,80504.024411,1857.866211,820.353223,40170.184970
39,0,3,665946.333333,230726.333333,1274890.000000,68986.333333,7999.666667,637360.333333,3775.003076,675.377096,55446.962339,263.530306,64.095415,27756.328243
39,1,27,717069.518519,250019.888889,1446664.370370,74798.074074,9481.185185,723256.962963,13654.928974,3904.114395,107998.721098,1597.230333,850.488358,53933.858618
40,0,3,667711.000000,231410.000000,1301792.000000,69417.000000,8451.666667,650881.000000,1678.287421,778.963842,44325.411681,299.262427,448.376578,22223.340583
40,1,27,716209.703704,250051.962963,1406336.962963,74671.111111,9242.925926,703064.740741,12584.209367,3846.159118,79791.165703,1496.726337,768.721301,39843.968886
41,0,3,678930.666667,234399.666667,1333899.666667,70627.666667,8329.666667,666868.333333,7771.832059,3069.742696,30658.630469,1231.389549,420.591118,15310.885917
41,1,27,713311.962963,249377.333333,1415200.259259,74256.296296,9224.814815,707489.481481,11873.204237,4014.791310,88412.448208,1261.783829,625.616261,44167.633445
42,0,3,673869.333333,233361.666667,1292623.333333,69610.333333,8071.000000,646242.333333,11785.381265,4127.291633,53648.210267,975.511604,183.555623,26893.448351
42,1,27,717214.777778,250061.592593,1408400.888889,74859.185185,9305.777778,704158.666667,15737.333967,4525.969593,69455.968960,1923.649541,758.197147,34713.353616
43,0,3,687629.000000,238042.333333,1340955.333333,71191.000000,8659.666667,670377.333333,23907.143633,8636.146993,75208.322794,2357.924652,304.710063,37518.512278
43,1,27,713200.444444,249329.407407,1390644.518519,74263.074074,9291.629630,695281.259259,11082.902372,3513.428696,59287.246508,1112.130519,771.649755,29626.842027
44,0,3,683665.333333,237197.333333,1346539.666667,70825.333333,8019.333333,673138.333333,24335.845254,8525.085193,31160.437463,2225.801778,238.481772,15643.606070
44,1,27,713914.037037,249435.444444,1409218.333333,74389.814815,9292.037037,704477.777778,11883.432596,3554.546284,89072.341869,1242.138390,875.876935,44282.474254
45,0,3,682540.333333,236641.000000,1307264.666667,70552.666667,8095.666667,653606.333333,25163.894377,9134.401166,91281.314398,2490.594351,494.935911,45506.658973
45,1,27,712444.444444,249049.777778,1399980.185185,74195.222222,9254.333333,699958.259259,11160.773059,3442.785687,72856.829552,1236.051939,572.529863,36362.840212
46,0,3,684086.666667,237262.333333,1393386.666667,70841.333333,8579.000000,696387.000000,25592.287384,8514.159435,104033.995281,2230.718619,481.502510,51685.604269
46,1,27,713546.111111,249421.740741,1396987.074074,74355.296296,9207.703704,698474.407407,11726.003725,3686.213440,86050.566711,1321.770384,747.406370,42991.591021
47,0,3,696698.666667,239325.666667,1268140.333333,72647.000000,8789.666667,634089.666667,17877.230981,6225.745489,21186.147366,669.953730,143.327907,10612.920564
47,1,28,712100.857143,249059.678571,1401275.142857,74217.785714,9226.107143,700617.785714,13710.380298,4106.988809,75718.987325,1555.977721,588.133266,37864.708367
48,0,3,696885.666667,240636.666667,1354245.666667,71870.666667,9715.333333,677081.333333,23328.829551,8155.614235,55746.893213,2378.008177,191.548659,27844.677173
48,1,28,714344.892857,249547.142857,1417246.928571,74486.750000,9343.857143,708586.964286,11104.909864,3469.649557,86779.981047,1322.555579,647.202260,43342.027138
49,0,3,686119.666667,237220.333333,1284146.666667,70761.333333,8649.333333,642089.666667,25396.545137,8084.846498,47907.500661,2085.316336,378.844149,24015.952897
49,1,28,713808.500000,249416.357143,1388473.107143,74392.357143,9361.250000,694240.535714,11256.303556,3499.949257,58044.664919,1351.085839,764.525045,29026.200593
50,0,3,682892.000000,236219.000000,1297618.000000,70418.333333,8456.666667,648817.333333,26104.411824,8483.474170,70457.655998,2247.667285,259.877321,35255.486281
50,1,28,714404.000000,249461.035714,1422461.357143,74420.464286,9407.857143,711188.071429,11648.545556,3602.590462,98572.351121,1335.280829,888.006343,49259.998516
51,0,3,683407.000000,236440.000000,1344583.333333,70498.333333,8686.666667,672209.000000,27550.828457,8984.643232,96255.867860,2445.653332,424.204615,48192.213112
51,1,28,714147.964286,249324.964286,1413634.142857,74350.392857,9270.250000,706657.428571,11663.631401,3667.709527,93893.155460,1288.269336,635.894624,46778.167362
52,0,3,685943.000000,237313.333333,1327047.000000,70872.666667,8349.333333,663476.000000,24012.422785,8119.921893,91946.805796,2090.822858,426.228681,45904.258887
52,1,28,713152.892857,249325.500000,1398340.392857,74271.321429,9120.964286,699166.964286,11058.680383,3847.659507,81058.146128,1237.469078,603.174666,40541.756019
53,0,3,688755.666667,237662.333333,1390418.000000,71489.333333,8892.000000,695147.333333,24212.992164,7990.146112,100228.714821,2124.453237,446.392951,50151.866661
53,1,28,714455.535714,249453.071429,1395851.357143,74457.000000,9067.607143,697889.500000,14477.450339,4243.159074,74667.938163,1757.962884,636.742903,37249.385176
54,0,3,682788.000000,236708.000000,1320375.666667,70651.000000,8496.666667,660169.000000,26209.853656,8200.403080,67927.442615,2103.646517,667.320180,33951.793365
54,1,28,714617.892857,249557.392857,1386430.678571,74514.071429,8991.642857,693248.071429,11120.045460,3538.348438,92965.267265,1352.300155,628.367398,46495.127603
55,0,3,684155.333333,236377.666667,1294214.666667,70499.000000,8238.666667,646966.333333,24805.774010,8549.893814,41800.923150,2285.407768,221.832269,20885.555333
55,1,28,713252.464286,249278.071429,1390098.464286,74316.285714,9044.607143,695018.107143,11704.197478,3853.770352,81476.455736,1297.091302,662.612974,40721.562239
56,0,3,686157.666667,236872.333333,1368761.333333,70657.666667,8279.333333,684310.000000,26812.360263,9576.195011,60327.311434,2681.079550,475.164767,30164.207145
56,1,28,712924.571429,249169.928571,1383029.928571,74251.642857,9001.035714,691490.357143,11274.612944,3458.779749,66040.750559,1221.632725,716.392275,32945.464556
57,0,3,690003.666667,238545.000000,1409630.666667,71431.333333,9000.333333,704761.000000,26243.945490,8781.729025,33081.972294,2332.537579,113.845900,16480.605895
57,1,28,715273.214286,249747.428571,1397311.642857,74662.214286,9258.678571,698623.285714,11668.671262,3608.212848,87251.939964,1407.648859,756.381614,43612.684736
58,0,3,690876.666667,237665.333333,1392838.333333,71496.666667,8990.333333,696369.666667,21609.744366,7496.997147,51049.999179,1976.016250,460.078496,25436.628410
58,1,28,717047.392857,250054.142857,1397706.107143,74798.214286,9156.464286,698854.964286,15457.904255,4725.703672,72763.905972,1914.019636,671.029246,36332.666758
59,0,3,684866.000000,236761.333333,1367655.666667,70646.666667,8744.333333,683824.000000,24503.648558,8589.479198,26400.646537,2259.957276,531.862346,13319.200502
59,1,28,712669.142857,249199.178571,1382134.964286,74263.571429,9123.571429,691028.071429,11025.933335,3597.976267,67142.250983,1260.966167,596.575790,33545.929633
60,0,3,682251.333333,235948.333333,1322854.666667,70299.666667,8611.333333,661381.333333,25631.115262,8817.598779,28406.935120,2406.547227,465.092344,14179.484860
60,1,28,713733.428571,249674.214286,1394715.142857,74446.607143,9164.357143,697376.428571,11804.490929,3809.293264,63329.584060,1291.343800,711.815697,31655.769560
61,0,3,685179.333333,236833.000000,1354841.666667,70672.666667,8157.666667,677427.666667,23875.247382,8494.461843,9526.076364,2277.913421,565.610192,4805.066238
61,1,28,717960.250000,250591.642857,1428378.321429,75093.035714,9305.357143,714126.178571,14857.298946,4214.253444,103956.212516,1854.168807,867.849115,51904.576361
62,0,3,685276.333333,236937.000000,1433368.000000,70718.000000,8531.333333,716597.000000,22711.497769,8168.077171,27805.829832,2150.367565,363.987485,13956.706417
62,1,28,713348.642857,249524.214286,1403583.250000,74352.142857,9076.785714,701704.321429,12752.909355,4076.269902,78150.805917,1387.612819,647.881678,39055.278305
63,0,3,684125.333333,236666.333333,1282269.333333,70543.000000,8189.333333,640969.333333,25036.892477,8763.600871,18107.263042,2420.875461,396.733608,9006.373459
63,1,76,710346.763158,248701.552632,1371039.447368,74172.565789,8982.855263,685489.868421,6847.219804,2276.579067,74413.061729,750.850769,577.623209,37154.654736
