-1,0,0.016129
-1,1,0.0153226
-1,2,0.0153226
-1,3,0.0153226
-1,4,0.0153226
-1,5,0.0153226
-1,6,0.0153226
-1,7,0.0153226
-1,8,0.0153226
-1,9,0.0153226
-1,10,0.0153226
-1,11,0.0153226
-1,12,0.0153226
-1,13,0.0153226
-1,14,0.0153226
-1,15,0.0153226
-1,16,0.0153226
-1,17,0.0153226
-1,18,0.0153226
-1,19,0.0153226
-1,20,0.0153226
-1,21,0.0153226
-1,22,0.0153226
-1,23,0.0153226
-1,24,0.0153226
-1,25,0.0153226
-1,26,0.0153226
-1,27,0.0153226
-1,28,0.0153226
-1,29,0.0153226
-1,30,0.0153226
-1,31,0.0153226
-1,32,0.0153226
-1,33,0.0153226
-1,34,0.0153226
-1,35,0.0153226
-1,36,0.0153226
-1,37,0.0153226
-1,38,0.0153226
-1,39,0.0153226
-1,40,0.0153226
-1,41,0.0153226
-1,42,0.0153226
-1,43,0.0153226
-1,44,0.0153226
-1,45,0.0153226
-1,46,0.0153226
-1,47,0.0153226
-1,48,0.0153226
-1,49,0.0153226
-1,50,0.0153226
-1,51,0.0153226
-1,52,0.0153226
-1,53,0.0153226
-1,54,0.0153226
-1,55,0.016129
-1,56,0.016129
-1,57,0.016129
-1,58,0.016129
-1,59,0.016129
-1,60,0.016129
-1,61,0.016129
-1,62,0.016129
-1,63,0.0274194
1,0,0.017038
1,1,0.0157274
1,2,0.0157274
1,3,0.0157274
1,4,0.0157274
1,5,0.0157274
1,6,0.0157274
1,7,0.0157274
1,8,0.0157274
1,9,0.0157274
1,10,0.0157274
1,11,0.0157274
1,12,0.0157274
1,13,0.0157274
1,14,0.0157274
1,15,0.0157274
1,16,0.0157274
1,17,0.0157274
1,18,0.0157274
1,19,0.0157274
1,20,0.0157274
1,21,0.0157274
1,22,0.0157274
1,23,0.0157274
1,24,0.0157274
1,25,0.0157274
1,26,0.0157274
1,27,0.0157274
1,28,0.0157274
1,29,0.0157274
1,30,0.0157274
1,31,0.0157274
1,32,0.0157274
1,33,0.0157274
1,34,0.0157274
1,35,0.0157274
1,36,0.0157274
1,37,0.0157274
1,38,0.0157274
1,39,0.0157274
1,40,0.0157274
1,41,0.0157274
1,42,0.0157274
1,43,0.0157274
1,44,0.0157274
1,45,0.0157274
1,46,0.0144168
1,47,0.0144168
1,48,0.0144168
1,49,0.0144168
1,50,0.0144168
1,51,0.0144168
1,52,0.0157274
1,53,0.0157274
1,54,0.0157274
1,55,0.0157274
1,56,0.0157274
1,57,0.0157274
1,58,0.0157274
1,59,0.0157274
1,60,0.0157274
1,61,0.0157274
1,62,0.0157274
1,63,0.0157274
