0,0,379,643427.810026,219907.572559,1238151.361478,66402.240106,7634.701847,619069.559367,10867.167912,3264.328901,67585.910042,1343.771909,646.965511,33764.767575
0,1,1,760182.000000,265893.000000,1674356.000000,78458.000000,11080.000000,837255.000000,0.000000,0.000000,0.000000,0.000000,0.000000,0.000000
1,0,378,642540.994709,219707.140212,1232553.238095,66285.740741,7552.552910,616281.849206,10403.915374,3112.228691,70981.753288,1239.687376,657.819135,35471.198413
1,1,1,758901.000000,265406.000000,1477879.000000,78307.000000,9430.000000,738969.000000,0.000000,0.000000,0.000000,0.000000,0.000000,0.000000
2,0,379,642595.013193,219686.216359,1232268.540897,66281.759894,7583.678100,616130.775726,10049.331895,2932.437243,66898.187682,1220.397348,680.198548,33418.456938
2,1,1,786448.000000,274933.000000,1525523.000000,81190.000000,9161.000000,762818.000000,0.000000,0.000000,0.000000,0.000000,0.000000,0.000000
3,0,491,642059.238289,219661.547862,1233796.122200,66274.171079,7600.543788,616897.794297,9464.356340,2813.932578,66456.868445,1168.924457,628.517222,33206.664538
3,1,420,711723.997619,248734.228571,1426573.473810,74271.047619,9344.371429,713257.509524,7293.122719,1838.306474,92482.230722,1032.916109,757.297856,46200.064047
