-1,0,0.002079
-1,1,0.001386
-1,2,0.001386
-1,3,0.001386
-1,4,0.001386
-1,5,0.001386
-1,6,0.001386
-1,7,0.001386
-1,8,0.001386
-1,9,0.001386
-1,10,0.001386
-1,11,0.001386
-1,12,0.001386
-1,13,0.001386
-1,14,0.001386
-1,15,0.001386
-1,16,0.001386
-1,17,0.001386
-1,18,0.001386
-1,19,0.001386
-1,20,0.001386
-1,21,0.001386
-1,22,0.001386
-1,23,0.001386
-1,24,0.001386
-1,25,0.001386
-1,26,0.001386
-1,27,0.001386
-1,28,0.001386
-1,29,0.001386
-1,30,0.001386
-1,31,0.001386
-1,32,0.001386
-1,33,0.001386
-1,34,0.001386
-1,35,0.001386
-1,36,0.001386
-1,37,0.001386
-1,38,0.001386
-1,39,0.001386
-1,40,0.001386
-1,41,0.001386
-1,42,0.001386
-1,43,0.001386
-1,44,0.001386
-1,45,0.001386
-1,46,0.001386
-1,47,0.001386
-1,48,0.001386
-1,49,0.001386
-1,50,0.001386
-1,51,0.001386
-1,52,0.001386
-1,53,0.001386
-1,54,0.001386
-1,55,0.001386
-1,56,0.001386
-1,57,0.001386
-1,58,0.001386
-1,59,0.001386
-1,60,0.001386
-1,61,0.001386
-1,62,0.001386
-1,63,0.001386
-1,64,0.001386
-1,65,0.001386
-1,66,0.001386
-1,67,0.001386
-1,68,0.001386
-1,69,0.001386
-1,70,0.001386
-1,71,0.001386
-1,72,0.001386
-1,73,0.001386
-1,74,0.001386
-1,75,0.001386
-1,76,0.001386
-1,77,0.001386
-1,78,0.001386
-1,79,0.001386
-1,80,0.001386
-1,81,0.001386
-1,82,0.001386
-1,83,0.001386
-1,84,0.001386
-1,85,0.001386
-1,86,0.001386
-1,87,0.001386
-1,88,0.001386
-1,89,0.001386
-1,90,0.001386
-1,91,0.001386
-1,92,0.001386
-1,93,0.001386
-1,94,0.001386
-1,95,0.001386
-1,96,0.001386
-1,97,0.000693001
-1,98,0.000693001
-1,99,0.000693001
-1,100,0.000693001
-1,101,0.000693001
-1,102,0.000693001
-1,103,0.000693001
-1,104,0.000693001
-1,105,0.000693001
-1,106,0.000693001
-1,107,0.000693001
-1,108,0.000693001
-1,109,0.000693001
-1,110,0.000693001
-1,111,0.000693001
-1,112,0.000693001
-1,113,0.000693001
-1,114,0.000693001
-1,115,0.000693001
-1,116,0.000693001
-1,117,0.000693001
-1,118,0.000693001
-1,119,0.000693001
-1,120,0.000693001
-1,121,0.000693001
-1,122,0.000693001
-1,123,0.000693001
-1,124,0.000693001
-1,125,0.000693001
-1,126,0.000693001
-1,127,0.000693001
-1,128,0.000693001
-1,129,0.000693001
-1,130,0.000693001
-1,131,0.000693001
-1,132,0.000693001
-1,133,0.000693001
-1,134,0.000693001
-1,135,0.000693001
-1,136,0.000693001
-1,137,0.000693001
-1,138,0.000693001
-1,139,0.000693001
-1,140,0.000693001
-1,141,0.000693001
-1,142,0.000693001
-1,143,0.000693001
-1,144,0.000693001
-1,145,0.000693001
-1,146,0.000693001
-1,147,0.000693001
-1,148,0.000693001
-1,149,0.000693001
-1,150,0.000693001
-1,151,0.000693001
-1,152,0.000693001
-1,153,0.000693001
-1,154,0.000693001
-1,155,0.000693001
-1,156,0.000693001
-1,157,0.000693001
-1,158,0.000693001
-1,159,0.000693001
-1,160,0.000693001
-1,161,0.000693001
-1,162,0.000693001
-1,163,0.000693001
-1,164,0.000693001
-1,165,0.000693001
-1,166,0.000693001
-1,167,0.000693001
-1,168,0.000693001
-1,169,0.000693001
-1,170,0.000693001
-1,171,0.000693001
-1,172,0.000693001
-1,173,0.000693001
-1,174,0.000693001
-1,175,0.000693001
-1,176,0.000693001
-1,177,0.000693001
-1,178,0.000693001
-1,179,0.000693001
-1,180,0.000693001
-1,181,0.000693001
-1,182,0.000693001
-1,183,0.000693001
-1,184,0.000693001
-1,185,0.000693001
-1,186,0.000693001
-1,187,0.000693001
-1,188,0.000693001
-1,189,0.000693001
-1,190,0.000693001
-1,191,0.000693001
-1,192,0.000693001
-1,193,0.000693001
-1,194,0.000693001
-1,195,0.000693001
-1,196,0.000693001
-1,197,0.000693001
-1,198,0.000693001
-1,199,0.000693001
-1,200,0.000693001
-1,201,0.000693001
-1,202,0.000693001
-1,203,0.000693001
-1,204,0.000693001
-1,205,0.000693001
-1,206,0.000693001
-1,207,0.000693001
-1,208,0.000693001
-1,209,0.000693001
-1,210,0.000693001
-1,211,0.000693001
-1,212,0.000693001
-1,213,0.000693001
-1,214,0.000693001
-1,215,0.000693001
-1,216,0.000693001
-1,217,0.000693001
-1,218,0.000693001
-1,219,0.000693001
-1,220,0.000693001
-1,221,0.000693001
-1,222,0.000693001
-1,223,0.000693001
-1,224,0.000693001
-1,225,0.000693001
-1,226,0.000693001
-1,227,0.000693001
-1,228,0.000693001
-1,229,0.000693001
-1,230,0.000693001
-1,231,0.000693001
-1,232,0.000693001
-1,233,0.000693001
-1,234,0.000693001
-1,235,0.000693001
-1,236,0.000693001
-1,237,0.000693001
-1,238,0.000693001
-1,239,0.000693001
-1,240,0.000693001
-1,241,0.000693001
-1,242,0.000693001
-1,243,0.000693001
-1,244,0.000693001
-1,245,0.000693001
-1,246,0.000693001
-1,247,0.000693001
-1,248,0.000693001
-1,249,0.000693001
-1,250,0.000693001
-1,251,0.000693001
-1,252,0.000693001
-1,253,0.000693001
-1,254,0.000693001
-1,255,0.000693001
-1,256,0.000693001
-1,257,0.000693001
-1,258,0.000693001
-1,259,0.000693001
-1,260,0.000693001
-1,261,0.000693001
-1,262,0.000693001
-1,263,0.000693001
-1,264,0.000693001
-1,265,0.000693001
-1,266,0.000693001
-1,267,0.000693001
-1,268,0.000693001
-1,269,0.000693001
-1,270,0.000693001
-1,271,0.000693001
-1,272,0.000693001
-1,273,0.000693001
-1,274,0.000693001
-1,275,0.000693001
-1,276,0.000693001
-1,277,0.000693001
-1,278,0.000693001
-1,279,0.000693001
-1,280,0.000693001
-1,281,0.000693001
-1,282,0.000693001
-1,283,0.000693001
-1,284,0.000693001
-1,285,0.000693001
-1,286,0.000693001
-1,287,0.000693001
-1,288,0.000693001
-1,289,0.000693001
-1,290,0.000693001
-1,291,0.000693001
-1,292,0.000693001
-1,293,0.000693001
-1,294,0.000693001
-1,295,0.000693001
-1,296,0.000693001
-1,297,0.000693001
-1,298,0.000693001
-1,299,0.000693001
-1,300,0.000693001
-1,301,0.000693001
-1,302,0.000693001
-1,303,0.000693001
-1,304,0.000693001
-1,305,0.000693001
-1,306,0.000693001
-1,307,0.000693001
-1,308,0.000693001
-1,309,0.000693001
-1,310,0.000693001
-1,311,0.000693001
-1,312,0.000693001
-1,313,0.000693001
-1,314,0.000693001
-1,315,0.000693001
-1,316,0.000693001
-1,317,0.000693001
-1,318,0.000693001
-1,319,0.000693001
-1,320,0.000693001
-1,321,0.000693001
-1,322,0.000693001
-1,323,0.000693001
-1,324,0.000693001
-1,325,0.000693001
-1,326,0.000693001
-1,327,0.000693001
-1,328,0.000693001
-1,329,0.000693001
-1,330,0.000693001
-1,331,0.000693001
-1,332,0.000693001
-1,333,0.000693001
-1,334,0.000693001
-1,335,0.000693001
-1,336,0.000693001
-1,337,0.000693001
-1,338,0.000693001
-1,339,0.000693001
-1,340,0.000693001
-1,341,0.000693001
-1,342,0.000693001
-1,343,0.000693001
-1,344,0.000693001
-1,345,0.000693001
-1,346,0.000693001
-1,347,0.000693001
-1,348,0.000693001
-1,349,0.000693001
-1,350,0.000693001
-1,351,0.000693001
-1,352,0.000693001
-1,353,0.000693001
-1,354,0.000693001
-1,355,0.000693001
-1,356,0.000693001
-1,357,0.000693001
-1,358,0.000693001
-1,359,0.000693001
-1,360,0.000693001
-1,361,0.000693001
-1,362,0.000693001
-1,363,0.000693001
-1,364,0.000693001
-1,365,0.000693001
-1,366,0.000693001
-1,367,0.000693001
-1,368,0.000693001
-1,369,0.000693001
-1,370,0.000693001
-1,371,0.000693001
-1,372,0.000693001
-1,373,0.000693001
-1,374,0.000693001
-1,375,0.000693001
-1,376,0.000693001
-1,377,0.000693001
-1,378,0.000693001
-1,379,0.000693001
-1,380,0.000693001
-1,381,0.000693001
-1,382,0.000693001
-1,383,0.000693001
-1,384,0.000693001
-1,385,0.000693001
-1,386,0.000693001
-1,387,0.000693001
-1,388,0.000693001
-1,389,0.000693001
-1,390,0.000693001
-1,391,0.000693001
-1,392,0.000693001
-1,393,0.000693001
-1,394,0.000693001
-1,395,0.000693001
-1,396,0.000693001
-1,397,0.000693001
-1,398,0.000693001
-1,399,0.000693001
-1,400,0.000693001
-1,401,0.000693001
-1,402,0.000693001
-1,403,0.000693001
-1,404,0.000693001
-1,405,0.000693001
-1,406,0.000693001
-1,407,0.000693001
-1,408,0.000693001
-1,409,0.000693001
-1,410,0.000693001
-1,411,0.000693001
-1,412,0.000693001
-1,413,0.000693001
-1,414,0.000693001
-1,415,0.000693001
-1,416,0.000693001
-1,417,0.000693001
-1,418,0.000693001
-1,419,0.000693001
-1,420,0.000693001
-1,421,0.000693001
-1,422,0.000693001
-1,423,0.000693001
-1,424,0.000693001
-1,425,0.000693001
-1,426,0.000693001
-1,427,0.000693001
-1,428,0.000693001
-1,429,0.000693001
-1,430,0.000693001
-1,431,0.000693001
-1,432,0.000693001
-1,433,0.000693001
-1,434,0.000693001
-1,435,0.000693001
-1,436,0.000693001
-1,437,0.000693001
-1,438,0.000693001
-1,439,0.000693001
-1,440,0.000693001
-1,441,0.000693001
-1,442,0.000693001
-1,443,0.000693001
-1,444,0.000693001
-1,445,0.000693001
-1,446,0.000693001
-1,447,0.000693001
-1,448,0.000693001
-1,449,0.000693001
-1,450,0.000693001
-1,451,0.000693001
-1,452,0.000693001
-1,453,0.000693001
-1,454,0.000693001
-1,455,0.000693001
-1,456,0.000693001
-1,457,0.000693001
-1,458,0.000693001
-1,459,0.000693001
-1,460,0.000693001
-1,461,0.000693001
-1,462,0.000693001
-1,463,0.000693001
-1,464,0.000693001
-1,465,0.000693001
-1,466,0.000693001
-1,467,0.000693001
-1,468,0.000693001
-1,469,0.000693001
-1,470,0.000693001
-1,471,0.000693001
-1,472,0.000693001
-1,473,0.000693001
-1,474,0.000693001
-1,475,0.000693001
-1,476,0.000693001
-1,477,0.000693001
-1,478,0.000693001
-1,479,0.000693001
-1,480,0.000693001
-1,481,0.000693001
-1,482,0.000693001
-1,483,0.000693001
-1,484,0.000693001
-1,485,0.000693001
-1,486,0.000693001
-1,487,0.000693001
-1,488,0.000693001
-1,489,0.000693001
-1,490,0.000693001
-1,491,0.000693001
-1,492,0.000693001
-1,493,0.000693001
-1,494,0.000693001
-1,495,0.000693001
-1,496,0.000693001
-1,497,0.000693001
-1,498,0.000693001
-1,499,0.000693001
-1,500,0.000693001
-1,501,0.000693001
-1,502,0.000693001
-1,503,0.000693001
-1,504,0.000693001
-1,505,0.000693001
-1,506,0.000693001
-1,507,0.000693001
-1,508,0.000693001
-1,509,0.000693001
-1,510,0.000693001
-1,511,0.000693001
-1,512,0.000693001
-1,513,0.000693001
-1,514,0.000693001
-1,515,0.000693001
-1,516,0.000693001
-1,517,0.000693001
-1,518,0.000693001
-1,519,0.000693001
-1,520,0.000693001
-1,521,0.000693001
-1,522,0.000693001
-1,523,0.000693001
-1,524,0.000693001
-1,525,0.000693001
-1,526,0.000693001
-1,527,0.000693001
-1,528,0.000693001
-1,529,0.000693001
-1,530,0.000693001
-1,531,0.000693001
-1,532,0.000693001
-1,533,0.000693001
-1,534,0.000693001
-1,535,0.000693001
-1,536,0.000693001
-1,537,0.000693001
-1,538,0.000693001
-1,539,0.000693001
-1,540,0.000693001
-1,541,0.000693001
-1,542,0.000693001
-1,543,0.000693001
-1,544,0.000693001
-1,545,0.000693001
-1,546,0.000693001
-1,547,0.000693001
-1,548,0.000693001
-1,549,0.000693001
-1,550,0.000693001
-1,551,0.000693001
-1,552,0.000693001
-1,553,0.000693001
-1,554,0.000693001
-1,555,0.000693001
-1,556,0.000693001
-1,557,0.000693001
-1,558,0.000693001
-1,559,0.000693001
-1,560,0.000693001
-1,561,0.000693001
-1,562,0.000693001
-1,563,0.000693001
-1,564,0.000693001
-1,565,0.000693001
-1,566,0.000693001
-1,567,0.000693001
-1,568,0.000693001
-1,569,0.000693001
-1,570,0.000693001
-1,571,0.000693001
-1,572,0.000693001
-1,573,0.000693001
-1,574,0.000693001
-1,575,0.000693001
-1,576,0.000693001
-1,577,0.000693001
-1,578,0.000693001
-1,579,0.000693001
-1,580,0.000693001
-1,581,0.000693001
-1,582,0.000693001
-1,583,0.000693001
-1,584,0.000693001
-1,585,0.000693001
-1,586,0.000693001
-1,587,0.000693001
-1,588,0.000693001
-1,589,0.000693001
-1,590,0.000693001
-1,591,0.000693001
-1,592,0.000693001
-1,593,0.000693001
-1,594,0.000693001
-1,595,0.000693001
-1,596,0.000693001
-1,597,0.000693001
-1,598,0.000693001
-1,599,0.000693001
-1,600,0.000693001
-1,601,0.000693001
-1,602,0.000693001
-1,603,0.000693001
-1,604,0.000693001
-1,605,0.000693001
-1,606,0.000693001
-1,607,0.000693001
-1,608,0.000693001
-1,609,0.000693001
-1,610,0.000693001
-1,611,0.000693001
-1,612,0.000693001
-1,613,0.000693001
-1,614,0.000693001
-1,615,0.000693001
-1,616,0.000693001
-1,617,0.000693001
-1,618,0.000693001
-1,619,0.000693001
-1,620,0.000693001
-1,621,0.000693001
-1,622,0.000693001
-1,623,0.000693001
-1,624,0.000693001
-1,625,0.000693001
-1,626,0.000693001
-1,627,0.000693001
-1,628,0.000693001
-1,629,0.000693001
-1,630,0.000693001
-1,631,0.000693001
-1,632,0.000693001
-1,633,0.000693001
-1,634,0.000693001
-1,635,0.000693001
-1,636,0.000693001
-1,637,0.000693001
-1,638,0.000693001
-1,639,0.000693001
-1,640,0.000693001
-1,641,0.000693001
-1,642,0.000693001
-1,643,0.000693001
-1,644,0.000693001
-1,645,0.000693001
-1,646,0.000693001
-1,647,0.000693001
-1,648,0.000693001
-1,649,0.000693001
-1,650,0.000693001
-1,651,0.000693001
-1,652,0.000693001
-1,653,0.000693001
-1,654,0.000693001
-1,655,0.000693001
-1,656,0.000693001
-1,657,0.000693001
-1,658,0.000693001
-1,659,0.000693001
-1,660,0.000693001
-1,661,0.000693001
-1,662,0.000693001
-1,663,0.000693001
-1,664,0.000693001
-1,665,0.000693001
-1,666,0.000693001
-1,667,0.000693001
-1,668,0.000693001
-1,669,0.000693001
-1,670,0.000693001
-1,671,0.000693001
-1,672,0.000693001
-1,673,0.000693001
-1,674,0.000693001
-1,675,0.000693001
-1,676,0.000693001
-1,677,0.000693001
-1,678,0.000693001
-1,679,0.000693001
-1,680,0.000693001
-1,681,0.000693001
-1,682,0.000693001
-1,683,0.000693001
-1,684,0.000693001
-1,685,0.000693001
-1,686,0.000693001
-1,687,0.000693001
-1,688,0.000693001
-1,689,0.000693001
-1,690,0.000693001
-1,691,0.000693001
-1,692,0.000693001
-1,693,0.000693001
-1,694,0.000693001
-1,695,0.000693001
-1,696,0.000693001
-1,697,0.000693001
-1,698,0.000693001
-1,699,0.000693001
-1,700,0.000693001
-1,701,0.000693001
-1,702,0.000693001
-1,703,0.001386
-1,704,0.001386
-1,705,0.001386
-1,706,0.001386
-1,707,0.001386
-1,708,0.001386
-1,709,0.001386
-1,710,0.001386
-1,711,0.001386
-1,712,0.001386
-1,713,0.001386
-1,714,0.001386
-1,715,0.001386
-1,716,0.001386
-1,717,0.001386
-1,718,0.001386
-1,719,0.001386
-1,720,0.001386
-1,721,0.001386
-1,722,0.001386
-1,723,0.001386
-1,724,0.001386
-1,725,0.001386
-1,726,0.001386
-1,727,0.001386
-1,728,0.001386
-1,729,0.001386
-1,730,0.001386
-1,731,0.001386
-1,732,0.001386
-1,733,0.001386
-1,734,0.001386
-1,735,0.001386
-1,736,0.001386
-1,737,0.001386
-1,738,0.001386
-1,739,0.001386
-1,740,0.001386
-1,741,0.001386
-1,742,0.001386
-1,743,0.001386
-1,744,0.001386
-1,745,0.001386
-1,746,0.001386
-1,747,0.001386
-1,748,0.001386
-1,749,0.001386
-1,750,0.001386
-1,751,0.001386
-1,752,0.001386
-1,753,0.001386
-1,754,0.001386
-1,755,0.001386
-1,756,0.001386
-1,757,0.001386
-1,758,0.001386
-1,759,0.001386
-1,760,0.001386
-1,761,0.001386
-1,762,0.001386
-1,763,0.001386
-1,764,0.001386
-1,765,0.001386
-1,766,0.001386
-1,767,0.001386
-1,768,0.001386
-1,769,0.001386
-1,770,0.001386
-1,771,0.001386
-1,772,0.001386
-1,773,0.001386
-1,774,0.001386
-1,775,0.001386
-1,776,0.001386
-1,777,0.001386
-1,778,0.001386
-1,779,0.001386
-1,780,0.001386
-1,781,0.001386
-1,782,0.001386
-1,783,0.001386
-1,784,0.001386
-1,785,0.001386
-1,786,0.001386
-1,787,0.001386
-1,788,0.001386
-1,789,0.001386
-1,790,0.001386
-1,791,0.001386
-1,792,0.001386
-1,793,0.001386
-1,794,0.001386
-1,795,0.001386
-1,796,0.001386
-1,797,0.001386
-1,798,0.001386
-1,799,0.001386
-1,800,0.001386
-1,801,0.001386
-1,802,0.001386
-1,803,0.001386
-1,804,0.001386
-1,805,0.001386
-1,806,0.001386
-1,807,0.001386
-1,808,0.001386
-1,809,0.001386
-1,810,0.001386
-1,811,0.001386
-1,812,0.001386
-1,813,0.001386
-1,814,0.001386
-1,815,0.001386
-1,816,0.001386
-1,817,0.001386
-1,818,0.001386
-1,819,0.001386
-1,820,0.001386
-1,821,0.001386
-1,822,0.001386
-1,823,0.001386
-1,824,0.001386
-1,825,0.001386
-1,826,0.001386
-1,827,0.001386
-1,828,0.001386
-1,829,0.001386
-1,830,0.001386
-1,831,0.001386
-1,832,0.001386
-1,833,0.001386
-1,834,0.001386
-1,835,0.001386
-1,836,0.001386
-1,837,0.001386
-1,838,0.001386
-1,839,0.001386
-1,840,0.001386
-1,841,0.001386
-1,842,0.001386
-1,843,0.001386
-1,844,0.001386
-1,845,0.001386
-1,846,0.001386
-1,847,0.001386
-1,848,0.001386
-1,849,0.001386
-1,850,0.001386
-1,851,0.001386
-1,852,0.001386
-1,853,0.001386
-1,854,0.001386
-1,855,0.001386
-1,856,0.001386
-1,857,0.001386
-1,858,0.001386
-1,859,0.001386
-1,860,0.001386
-1,861,0.001386
-1,862,0.001386
-1,863,0.001386
-1,864,0.001386
-1,865,0.001386
-1,866,0.001386
-1,867,0.001386
-1,868,0.001386
-1,869,0.001386
-1,870,0.001386
-1,871,0.001386
-1,872,0.001386
-1,873,0.001386
-1,874,0.001386
-1,875,0.001386
-1,876,0.001386
-1,877,0.001386
-1,878,0.001386
-1,879,0.001386
-1,880,0.001386
-1,881,0.001386
-1,882,0.001386
-1,883,0.001386
-1,884,0.001386
-1,885,0.001386
-1,886,0.001386
-1,887,0.001386
-1,888,0.001386
-1,889,0.001386
-1,890,0.001386
-1,891,0.001386
-1,892,0.001386
-1,893,0.001386
-1,894,0.001386
-1,895,0.001386
-1,896,0.001386
-1,897,0.001386
-1,898,0.001386
-1,899,0.001386
-1,900,0.001386
-1,901,0.001386
-1,902,0.001386
-1,903,0.001386
-1,904,0.001386
-1,905,0.001386
-1,906,0.001386
-1,907,0.001386
-1,908,0.001386
-1,909,0.001386
-1,910,0.001386
-1,911,0.001386
-1,912,0.001386
-1,913,0.001386
-1,914,0.001386
-1,915,0.001386
-1,916,0.001386
-1,917,0.001386
-1,918,0.001386
-1,919,0.001386
-1,920,0.001386
-1,921,0.001386
-1,922,0.001386
-1,923,0.001386
-1,924,0.001386
-1,925,0.001386
-1,926,0.001386
-1,927,0.001386
-1,928,0.001386
-1,929,0.001386
-1,930,0.001386
-1,931,0.001386
-1,932,0.001386
-1,933,0.001386
-1,934,0.001386
-1,935,0.001386
-1,936,0.001386
-1,937,0.001386
-1,938,0.001386
-1,939,0.001386
-1,940,0.001386
-1,941,0.001386
-1,942,0.001386
-1,943,0.001386
-1,944,0.001386
-1,945,0.001386
-1,946,0.001386
-1,947,0.001386
-1,948,0.001386
-1,949,0.001386
-1,950,0.001386
-1,951,0.001386
-1,952,0.001386
-1,953,0.001386
-1,954,0.001386
-1,955,0.001386
-1,956,0.001386
-1,957,0.001386
-1,958,0.001386
-1,959,0.001386
-1,960,0.001386
-1,961,0.001386
-1,962,0.001386
-1,963,0.001386
-1,964,0.001386
-1,965,0.001386
-1,966,0.001386
-1,967,0.001386
-1,968,0.001386
-1,969,0.001386
-1,970,0.001386
-1,971,0.001386
-1,972,0.001386
-1,973,0.001386
-1,974,0.001386
-1,975,0.001386
-1,976,0.001386
-1,977,0.001386
-1,978,0.001386
-1,979,0.001386
-1,980,0.001386
-1,981,0.001386
-1,982,0.001386
-1,983,0.001386
-1,984,0.001386
-1,985,0.001386
-1,986,0.001386
-1,987,0.001386
-1,988,0.001386
-1,989,0.001386
-1,990,0.001386
-1,991,0.001386
-1,992,0.001386
-1,993,0.001386
-1,994,0.001386
-1,995,0.001386
-1,996,0.001386
-1,997,0.001386
-1,998,0.001386
-1,999,0.001386
-1,1000,0.001386
-1,1001,0.001386
-1,1002,0.001386
-1,1003,0.001386
-1,1004,0.001386
-1,1005,0.001386
-1,1006,0.001386
-1,1007,0.001386
-1,1008,0.001386
-1,1009,0.001386
-1,1010,0.001386
-1,1011,0.001386
-1,1012,0.001386
-1,1013,0.001386
-1,1014,0.001386
-1,1015,0.001386
-1,1016,0.001386
-1,1017,0.001386
-1,1018,0.001386
-1,1019,0.001386
-1,1020,0.001386
-1,1021,0.001386
-1,1022,0.001386
-1,1023,0.001386
1,0,0.00325733
1,1,0.00162866
1,2,0.00162866
1,3,0.00162866
1,4,0.00162866
1,5,0.00162866
1,6,0.00162866
1,7,0.00162866
1,8,0.00162866
1,9,0.00162866
1,10,0.00162866
1,11,0.00162866
1,12,0.00162866
1,13,0.00162866
1,14,0.00162866
1,15,0.00162866
1,16,0.00162866
1,17,0.00162866
1,18,0.00162866
1,19,0.00162866
1,20,0.00162866
1,21,0.00162866
1,22,0.00162866
1,23,0.00162866
1,24,0.00162866
1,25,0.00162866
1,26,0.00162866
1,27,0.00162866
1,28,0.00162866
1,29,0.00162866
1,30,0.00162866
1,31,0.00162866
1,443,0.00162866
1,444,0.00162866
1,445,0.00162866
1,446,0.00162866
1,447,0.00162866
1,448,0.00162866
1,449,0.00162866
1,450,0.00162866
1,451,0.00162866
1,452,0.00162866
1,453,0.00162866
1,454,0.00162866
1,455,0.00162866
1,456,0.00162866
1,457,0.00162866
1,458,0.00162866
1,459,0.00162866
1,460,0.00162866
1,461,0.00162866
1,462,0.00162866
1,463,0.00162866
1,464,0.00162866
1,465,0.00162866
1,466,0.00162866
1,467,0.00162866
1,468,0.00162866
1,469,0.00162866
1,470,0.00162866
1,471,0.00162866
1,472,0.00162866
1,473,0.00162866
1,474,0.00162866
1,475,0.00162866
1,476,0.00162866
1,477,0.00162866
1,478,0.00162866
1,479,0.00162866
1,480,0.00162866
1,481,0.00162866
1,482,0.00162866
1,483,0.00162866
1,484,0.00162866
1,485,0.00162866
1,486,0.00162866
1,487,0.00162866
1,488,0.00162866
1,489,0.00162866
1,490,0.00162866
1,491,0.00162866
1,492,0.00162866
1,493,0.00162866
1,494,0.00162866
1,495,0.00162866
1,496,0.00162866
1,497,0.00162866
1,498,0.00162866
1,499,0.00162866
1,500,0.00162866
1,501,0.00162866
1,502,0.00162866
1,503,0.00162866
1,504,0.00162866
1,505,0.00162866
1,506,0.00162866
1,507,0.00162866
1,508,0.00162866
1,509,0.00162866
1,510,0.00162866
1,511,0.00162866
1,512,0.00162866
1,513,0.00162866
1,514,0.00162866
1,515,0.00162866
1,516,0.00162866
1,517,0.00162866
1,518,0.00162866
1,519,0.00162866
1,520,0.00162866
1,521,0.00162866
1,522,0.00162866
1,523,0.00162866
1,524,0.00162866
1,525,0.00162866
1,526,0.00162866
1,527,0.00162866
1,528,0.00162866
1,529,0.00162866
1,530,0.00162866
1,531,0.00162866
1,532,0.00162866
1,533,0.00162866
1,534,0.00162866
1,535,0.00162866
1,536,0.00162866
1,537,0.00162866
1,538,0.00162866
1,539,0.00162866
1,540,0.00162866
1,541,0.00162866
1,542,0.00162866
1,543,0.00162866
1,544,0.00162866
1,545,0.00162866
1,546,0.00162866
1,547,0.00162866
1,548,0.00162866
1,549,0.00162866
1,550,0.00162866
1,551,0.00162866
1,552,0.00162866
1,553,0.00162866
1,554,0.00162866
1,555,0.00162866
1,556,0.00162866
1,557,0.00162866
1,558,0.00162866
1,559,0.00162866
1,560,0.00162866
1,561,0.00162866
1,562,0.00162866
1,563,0.00162866
1,564,0.00162866
1,565,0.00162866
1,566,0.00162866
1,567,0.00162866
1,568,0.00162866
1,569,0.00162866
1,570,0.00162866
1,571,0.00162866
1,572,0.00162866
1,573,0.00162866
1,574,0.00162866
1,575,0.00162866
1,576,0.00162866
1,577,0.00162866
1,578,0.00162866
1,579,0.00162866
1,580,0.00162866
1,581,0.00162866
1,582,0.00162866
1,583,0.00162866
1,584,0.00162866
1,585,0.00162866
1,586,0.00162866
1,587,0.00162866
1,588,0.00162866
1,589,0.00162866
1,590,0.00162866
1,591,0.00162866
1,592,0.00162866
1,593,0.00162866
1,594,0.00162866
1,595,0.00162866
1,596,0.00162866
1,597,0.00162866
1,598,0.00162866
1,599,0.00162866
1,600,0.00162866
1,601,0.00162866
1,602,0.00162866
1,603,0.00162866
1,604,0.00162866
1,605,0.00162866
1,606,0.00162866
1,607,0.00162866
1,608,0.00162866
1,609,0.00162866
1,610,0.00162866
1,611,0.00162866
1,612,0.00162866
1,613,0.00162866
1,614,0.00162866
1,615,0.00162866
1,616,0.00162866
1,617,0.00162866
1,618,0.00162866
1,619,0.00162866
1,620,0.00162866
1,621,0.00162866
1,622,0.00162866
1,623,0.00162866
1,624,0.00162866
1,625,0.00162866
1,626,0.00162866
1,627,0.00162866
1,628,0.00162866
1,629,0.00162866
1,630,0.00162866
1,631,0.00162866
1,632,0.00162866
1,633,0.00162866
1,634,0.00162866
1,635,0.00162866
1,636,0.00162866
1,637,0.00162866
1,638,0.00162866
1,639,0.00162866
1,640,0.00162866
1,641,0.00162866
1,642,0.00162866
1,643,0.00162866
1,644,0.00162866
1,645,0.00162866
1,646,0.00162866
1,647,0.00162866
1,648,0.00162866
1,649,0.00162866
1,650,0.00162866
1,651,0.00162866
1,652,0.00162866
1,653,0.00162866
1,654,0.00162866
1,655,0.00162866
1,656,0.00162866
1,657,0.00162866
1,658,0.00162866
1,659,0.00162866
1,660,0.00162866
1,661,0.00162866
1,662,0.00162866
1,663,0.00162866
1,664,0.00162866
1,665,0.00162866
1,666,0.00162866
1,667,0.00162866
1,668,0.00162866
1,669,0.00162866
1,670,0.00162866
1,671,0.00162866
1,672,0.00162866
1,673,0.00162866
1,674,0.00162866
1,675,0.00162866
1,676,0.00162866
1,677,0.00162866
1,678,0.00162866
1,679,0.00162866
1,680,0.00162866
1,681,0.00162866
1,682,0.00162866
1,683,0.00162866
1,684,0.00162866
1,685,0.00162866
1,686,0.00162866
1,687,0.00162866
1,688,0.00162866
1,689,0.00162866
1,690,0.00162866
1,691,0.00162866
1,692,0.00162866
1,693,0.00162866
1,694,0.00162866
1,695,0.00162866
1,696,0.00162866
1,697,0.00162866
1,698,0.00162866
1,699,0.00162866
1,700,0.00162866
1,701,0.00162866
1,702,0.00162866
1,703,0.00162866
1,704,0.00162866
1,705,0.00162866
1,706,0.00162866
1,707,0.00162866
1,708,0.00162866
1,709,0.00162866
1,710,0.00162866
1,711,0.00162866
1,712,0.00162866
1,713,0.00162866
1,714,0.00162866
1,715,0.00162866
1,716,0.00162866
1,717,0.00162866
1,718,0.00162866
1,719,0.00162866
1,720,0.00162866
1,721,0.00162866
1,722,0.00162866
1,723,0.00162866
1,724,0.00162866
1,725,0.00162866
1,726,0.00162866
1,727,0.00162866
1,728,0.00162866
1,729,0.00162866
1,730,0.00162866
1,731,0.00162866
1,732,0.00162866
1,733,0.00162866
1,734,0.00162866
1,735,0.00162866
1,736,0.00162866
1,737,0.00162866
1,738,0.00162866
1,739,0.00162866
1,740,0.00162866
1,741,0.00162866
1,742,0.00162866
1,743,0.00162866
1,744,0.00162866
1,745,0.00162866
1,746,0.00162866
1,747,0.00162866
1,748,0.00162866
1,749,0.00162866
1,750,0.00162866
1,751,0.00162866
1,752,0.00162866
1,753,0.00162866
1,754,0.00162866
1,755,0.00162866
1,756,0.00162866
1,757,0.00162866
1,758,0.00162866
1,759,0.00162866
1,760,0.00162866
1,761,0.00162866
1,762,0.00162866
1,763,0.00162866
1,764,0.00162866
1,765,0.00162866
1,766,0.00162866
1,767,0.00162866
1,768,0.00162866
1,769,0.00162866
1,770,0.00162866
1,771,0.00162866
1,772,0.00162866
1,773,0.00162866
1,774,0.00162866
1,775,0.00162866
1,776,0.00162866
1,777,0.00162866
1,778,0.00162866
1,779,0.00162866
1,780,0.00162866
1,781,0.00162866
1,782,0.00162866
1,783,0.00162866
1,784,0.00162866
1,785,0.00162866
1,786,0.00162866
1,787,0.00162866
1,788,0.00162866
1,789,0.00162866
1,790,0.00162866
1,791,0.00162866
1,792,0.00162866
1,793,0.00162866
1,794,0.00162866
1,795,0.00162866
1,796,0.00162866
1,797,0.00162866
1,798,0.00162866
1,799,0.00162866
1,800,0.00162866
1,801,0.00162866
1,802,0.00162866
1,803,0.00162866
1,804,0.00162866
1,805,0.00162866
1,806,0.00162866
1,807,0.00162866
1,808,0.00162866
1,809,0.00162866
1,810,0.00162866
1,811,0.00162866
1,812,0.00162866
1,813,0.00162866
1,814,0.00162866
1,815,0.00162866
1,816,0.00162866
1,817,0.00162866
1,818,0.00162866
1,819,0.00162866
1,820,0.00162866
1,821,0.00162866
1,822,0.00162866
1,823,0.00162866
1,824,0.00162866
1,825,0.00162866
1,826,0.00162866
1,827,0.00162866
1,828,0.00162866
1,829,0.00162866
1,830,0.00162866
1,831,0.00162866
1,832,0.00162866
1,833,0.00162866
1,834,0.00162866
1,835,0.00162866
1,836,0.00162866
1,837,0.00162866
1,838,0.00162866
1,839,0.00162866
1,840,0.00162866
1,841,0.00162866
1,842,0.00162866
1,843,0.00162866
1,844,0.00162866
1,845,0.00162866
1,846,0.00162866
1,847,0.00162866
1,848,0.00162866
1,849,0.00162866
1,850,0.00162866
1,851,0.00162866
1,852,0.00162866
1,853,0.00162866
1,854,0.00162866
1,855,0.00162866
1,856,0.00162866
1,857,0.00162866
1,858,0.00162866
1,859,0.00162866
1,860,0.00162866
1,861,0.00162866
1,862,0.00162866
1,863,0.00162866
1,864,0.00162866
1,865,0.00162866
1,866,0.00162866
1,867,0.00162866
1,868,0.00162866
1,869,0.00162866
1,870,0.00162866
1,871,0.00162866
1,872,0.00162866
1,873,0.00162866
1,874,0.00162866
1,875,0.00162866
1,876,0.00162866
1,877,0.00162866
1,878,0.00162866
1,879,0.00162866
1,880,0.00162866
1,881,0.00162866
1,882,0.00162866
1,883,0.00162866
1,884,0.00162866
1,885,0.00162866
1,886,0.00162866
1,887,0.00162866
1,888,0.00162866
1,889,0.00162866
1,890,0.00162866
1,891,0.00162866
1,892,0.00162866
1,893,0.00162866
1,894,0.00162866
1,895,0.00162866
1,896,0.00162866
1,897,0.00162866
1,898,0.00162866
1,899,0.00162866
1,900,0.00162866
1,901,0.00162866
1,902,0.00162866
1,903,0.00162866
1,904,0.00162866
1,905,0.00162866
1,906,0.00162866
1,907,0.00162866
1,908,0.00162866
1,909,0.00162866
1,910,0.00162866
1,911,0.00162866
1,912,0.00162866
1,913,0.00162866
1,914,0.00162866
1,915,0.00162866
1,916,0.00162866
1,917,0.00162866
1,918,0.00162866
1,919,0.00162866
1,920,0.00162866
1,921,0.00162866
1,922,0.00162866
1,923,0.00162866
1,924,0.00162866
1,925,0.00162866
1,926,0.00162866
1,927,0.00162866
1,928,0.00162866
1,929,0.00162866
1,930,0.00162866
1,931,0.00162866
1,932,0.00162866
1,933,0.00162866
1,934,0.00162866
1,935,0.00162866
1,936,0.00162866
1,937,0.00162866
1,938,0.00162866
1,939,0.00162866
1,940,0.00162866
1,941,0.00162866
1,942,0.00162866
1,943,0.00162866
1,944,0.00162866
1,945,0.00162866
1,946,0.00162866
1,947,0.00162866
1,948,0.00162866
1,949,0.00162866
1,950,0.00162866
1,951,0.00162866
1,952,0.00162866
1,953,0.00162866
1,954,0.00162866
1,955,0.00162866
1,956,0.00162866
1,957,0.00162866
1,958,0.00162866
1,959,0.00162866
1,960,0.00162866
1,961,0.00162866
1,962,0.00162866
1,963,0.00162866
1,964,0.00162866
1,965,0.00162866
1,966,0.00162866
1,967,0.00162866
1,968,0.00162866
1,969,0.00162866
1,970,0.00162866
1,971,0.00162866
1,972,0.00162866
1,973,0.00162866
1,974,0.00162866
1,975,0.00162866
1,976,0.00162866
1,977,0.00162866
1,978,0.00162866
1,979,0.00162866
1,980,0.00162866
1,981,0.00162866
1,982,0.00162866
1,983,0.00162866
1,984,0.00162866
1,985,0.00162866
1,986,0.00162866
1,987,0.00162866
1,988,0.00162866
1,989,0.00162866
1,990,0.00162866
1,991,0.00162866
1,992,0.00162866
1,993,0.00162866
1,994,0.00162866
1,995,0.00162866
1,996,0.00162866
1,997,0.00162866
1,998,0.00162866
1,999,0.00162866
1,1000,0.00162866
1,1001,0.00162866
1,1002,0.00162866
1,1003,0.00162866
1,1004,0.00162866
1,1005,0.00162866
1,1006,0.00162866
1,1007,0.00162866
1,1008,0.00162866
1,1009,0.00162866
1,1010,0.00162866
1,1011,0.00162866
1,1012,0.00162866
1,1013,0.00162866
1,1014,0.00162866
1,1015,0.00162866
1,1016,0.00162866
1,1017,0.00162866
1,1018,0.00162866
1,1019,0.00162866
1,1020,0.00162866
1,1021,0.00162866
1,1022,0.00162866
1,1023,0.00162866
