0,0,760437,266157,1304798,78659,7851,652386,11
0,-1,690826,236698,1241569,70538,6959,620748,0
0,-1,688114,236343,1276993,70440,7000,638523,2
0,-1,656276,222582,1228192,68799,7768,614019,0
0,-1,640745,218658,1185215,65860,8235,592665,0
0,-1,636287,218587,1111805,65755,6923,555822,0
0,-1,639318,219124,1288340,65872,7001,644128,0
0,-1,663818,224224,1236149,69400,8557,618052,0
0,-1,641312,219584,1259923,66071,7681,630028,0
0,-1,637888,217894,1219435,65313,6820,609791,0
1,0,761034,265706,1376885,78449,9020,688442,11
1,-1,669889,231002,1185178,68856,6870,592618,2
1,-1,638280,218399,1181499,65640,7143,590803,0
1,-1,640724,218308,1296418,65714,8514,648235,0
1,-1,631995,217321,1144168,65351,6845,571943,0
1,-1,636067,218139,1226452,65523,7216,613221,0
1,-1,646170,219102,1201019,65893,7307,600598,0
1,-1,637885,218358,1151215,65548,7529,575121,0
1,-1,640334,218722,1387956,65577,8401,694094,0
2,0,762200,265881,1415046,78552,9264,707442,11
2,-1,638228,218320,1136296,65545,7460,568112,2
2,-1,635145,217592,1238621,65331,7788,619444,0
2,-1,644013,220312,1271646,66745,8385,635891,0
2,-1,634832,218414,1198640,65652,7355,599294,0
2,-1,639008,219388,1216745,66011,7190,608363,0
2,-1,644133,219189,1207235,65970,7913,603489,0
2,-1,639660,218245,1290374,65457,8307,645195,0
2,-1,669027,229107,1277783,68896,7324,639009,0
3,0,764515,267386,1642066,79157,10366,820986,11
3,-1,632964,218146,1164549,65581,6927,582396,2
3,-1,639530,219396,1259536,66135,7772,629845,0
3,-1,659777,223145,1204281,69121,8302,601916,0
3,-1,635728,218337,1142174,65620,6357,571173,0
3,-1,657096,223222,1211854,69044,8178,605847,0
3,-1,642757,219341,1193003,65997,7027,596561,0
3,-1,644307,220395,1266906,66369,8263,633540,0
3,-1,640614,217990,1244288,65324,8107,622173,0
4,0,760011,265585,1648333,78429,10892,824100,11
4,-1,639470,220094,1286368,66568,8032,642861,2
4,-1,635113,218239,1167449,65593,6956,583689,0
4,-1,643016,218686,1251756,65811,8114,625872,0
4,-1,633887,218157,1130608,65610,6551,565292,0
4,-1,642911,220671,1310614,66569,7574,655203,0
4,-1,642819,218958,1275255,65841,7700,637556,0
4,-1,639256,219043,1186169,65759,7303,592895,0
4,-1,642811,219808,1229208,66254,7665,614673,0
5,0,763265,266365,1447874,78691,9552,723920,11
5,-1,632780,218692,1226267,65792,7282,613165,2
5,-1,633322,217849,1176113,65453,7068,588089,0
5,-1,644561,219615,1261302,66363,8539,630632,0
5,-1,636311,219010,1290761,65844,6830,645401,0
5,-1,636689,218891,1247980,65807,7117,623893,0
5,-1,647235,220860,1321616,66777,8451,660884,0
5,-1,637015,218487,1179385,65541,7827,589772,0
5,-1,660612,223288,1147013,68864,7313,573492,0
6,0,761043,266114,1404640,78650,8628,702311,11
6,-1,632281,217298,1139312,65290,7271,569619,2
6,-1,638246,218201,1236682,65559,6471,618343,0
6,-1,638817,217763,1283594,65534,8064,641808,0
6,-1,635251,219111,1237727,65921,6635,618830,0
6,-1,634920,218111,1171531,65561,6823,585730,0
6,-1,662827,223369,1280827,69120,8907,640383,0
6,-1,642415,221152,1257643,66785,8489,628797,0
6,-1,640430,219199,1208106,65954,7892,604013,0
7,0,756599,265703,1338288,78460,8617,669101,11
7,-1,637850,217985,1153291,65528,7600,576692,2
7,-1,641445,219823,1337476,66396,7478,668662,0
7,-1,641683,218603,1208130,65807,8063,604063,0
7,-1,633326,218271,1218226,65598,6880,609170,0
7,-1,639288,220202,1241694,66492,7319,620828,0
7,-1,642809,219494,1398653,66003,7909,699270,0
7,-1,660803,223063,1229240,68876,8527,614385,0
7,-1,637349,218682,1096715,65622,6943,548331,0
8,0,758181,266028,1370147,78595,8208,685025,11
8,-1,636856,218314,1178056,65648,6808,589034,0
8,-1,635665,218464,1144209,65678,7146,572174,2
8,-1,644227,220012,1275925,66570,8829,637810,0
8,-1,638577,218975,1237471,65898,6960,618692,0
8,-1,661415,223120,1162890,69014,7841,581393,0
8,-1,641515,218935,1202611,65840,7503,601206,0
8,-1,638573,217846,1343686,65357,8320,671669,0
8,-1,637280,218396,1161115,65463,7397,580550,0
9,0,757352,265304,1440038,78327,8630,720002,11
9,-1,638021,218900,1173260,65840,6902,586675,0
9,-1,645562,220979,1216448,66778,8484,608054,2
9,-1,645386,219610,1240740,66292,8992,620400,0
9,-1,657240,223307,1293986,69108,7944,646862,0
9,-1,640838,219305,1172962,66014,7134,586452,0
9,-1,644737,220817,1323710,66611,7902,661806,0
9,-1,637669,218103,1283822,65402,8312,641786,0
9,-1,645307,220035,1222265,66318,7768,611201,0
10,0,763652,267864,1468053,79477,8970,734013,11
10,-1,634456,217676,1217563,65448,7337,608782,0
10,-1,638140,218896,1278578,65704,7910,639217,2
10,-1,640380,218219,1149982,65725,8730,574942,0
10,-1,637046,219205,1321617,65952,7684,660835,0
10,-1,637679,218498,1150567,65628,6580,575217,0
10,-1,642549,218995,1288521,65791,8114,644114,0
10,-1,640981,218705,1208601,65650,7929,604170,0
10,-1,662567,223503,1190464,68949,8126,595268,0
11,0,759694,265598,1361938,78432,8719,680977,11
11,-1,633623,217823,1135209,65406,6671,567646,0
11,-1,636083,218511,1238762,65610,7628,619413,2
11,-1,640532,218822,1270441,65858,7804,635222,0
11,-1,637424,218638,1180673,65711,6899,590321,0
11,-1,638144,218482,1165046,65723,7150,582469,0
11,-1,644364,219669,1320534,66026,8100,660233,0
11,-1,660267,223036,1180165,68818,8349,590238,0
11,-1,639048,217975,1163045,65326,7150,581568,0
12,0,758579,265615,1427805,78420,8642,713937,11
12,-1,683969,231422,1363681,71453,8187,681801,0
12,-1,644062,221023,1251197,66722,8577,625602,2
12,-1,660231,222896,1234016,68964,8872,617048,0
12,-1,636998,218840,1121236,65833,6939,560561,0
12,-1,642039,220138,1256127,66463,7563,627899,0
12,-1,664785,224912,1232096,69569,8639,615911,0
12,-1,639306,219053,1203939,65783,7946,602015,0
12,-1,637327,217963,1242729,65338,7177,621440,0
13,0,758750,265607,1463882,78469,8529,731968,11
13,-1,635276,217799,1199814,65486,6546,599955,0
13,-1,638389,218734,1200756,65892,7716,600287,2
13,-1,640337,218775,1321453,65897,8512,660705,0
13,-1,636415,218987,1205958,65888,7214,602970,0
13,-1,637159,218722,1140457,65802,6745,570219,0
13,-1,641702,219396,1338962,66025,7418,669360,0
13,-1,635388,217991,1144437,65377,7342,571778,0
13,-1,638559,218549,1363906,65649,8810,681793,0
14,0,751376,261935,1506120,77265,9323,753009,11
14,-1,633895,217530,1147447,65363,7009,573772,0
14,-1,641728,219797,1295714,66438,8460,647806,0
14,-1,639255,219063,1157574,66013,7774,578812,2
14,-1,639967,219987,1244922,66416,6898,622444,0
14,-1,639571,218845,1246830,65762,7376,623430,0
14,-1,643871,220529,1226531,66397,7029,613070,0
14,-1,636400,218038,1205110,65392,7725,602509,0
14,-1,638109,218460,1264443,65478,7651,632250,0
15,0,740669,257822,1420831,78057,9817,710418,11
15,-1,639574,219942,1260011,66321,7604,630054,0
15,-1,637936,218560,1179343,65818,8039,589589,0
15,-1,636885,220701,1299825,66865,8395,649919,2
15,-1,656078,223010,1221318,68980,7467,610629,0
15,-1,641885,219527,1218949,66081,7121,609518,0
15,-1,641868,219645,1298945,66034,8146,649399,0
15,-1,639446,219225,1263739,65875,7813,631674,0
15,-1,657448,222878,1179580,68755,7719,589824,0
16,0,706081,247177,1266939,73451,8467,633541,11
16,-1,632319,217534,1206227,65327,6945,603165,0
16,-1,638227,218594,1257215,65787,8161,628493,0
16,-1,637355,220360,1277902,66678,8148,638672,2
16,-1,634569,218765,1226903,65828,6578,613450,0
16,-1,644551,221037,1321116,66818,7817,660523,0
16,-1,643085,219620,1194674,66097,7447,597325,0
16,-1,635547,218079,1196566,65494,7091,598182,0
16,-1,637168,218351,1243473,65528,7567,621768,0
17,0,705899,247448,1407505,73450,8910,703511,11
17,-1,640220,220572,1242485,66606,7475,621287,0
17,-1,644579,218924,1263718,65907,7660,631800,0
17,-1,641736,220832,1289429,66759,8559,644077,2
17,-1,656820,223211,1168819,69060,7478,584360,0
17,-1,658846,223143,1188710,69017,7669,594328,0
17,-1,647151,219761,1284794,66026,8353,642279,0
17,-1,639377,219722,1301970,66291,8063,650976,0
17,-1,638954,218675,1241735,65579,7460,620908,0
18,0,710020,247996,1344284,73663,9223,672111,11
18,-1,654616,222710,1260486,68823,8194,630109,0
18,-1,642098,218245,1217665,65702,7100,608777,0
18,-1,642527,219870,1172590,66190,7342,586263,2
18,-1,637750,219758,1216953,66325,7684,608402,0
18,-1,636985,218580,1236960,65765,6602,618441,0
18,-1,666457,224425,1231426,69331,8145,615629,0
18,-1,641349,218670,1373442,65678,7934,686445,0
18,-1,641318,219879,1237591,66175,7228,618845,0
19,0,713761,249632,1550128,74528,10047,774835,11
19,-1,633106,217836,1225469,65346,7390,612761,0
19,-1,662550,222821,1326136,69021,8172,663190,0
19,-1,635042,218604,1152826,65763,7275,576429,0
19,-1,635935,219385,1255011,66029,6435,627469,2
19,-1,637259,218855,1196972,65789,6587,598509,0
19,-1,644722,219519,1284884,65981,7490,642406,0
19,-1,642056,219219,1270527,65986,7744,635080,0
19,-1,638209,218645,1136331,65577,6723,568213,0
20,0,709360,247415,1438032,73538,10166,719097,11
20,-1,638095,217632,1135070,65354,6714,567553,0
20,-1,639967,218198,1358372,65722,7841,679259,0
20,-1,633767,218531,1165185,65689,6584,582590,0
20,-1,637393,219057,1178937,65934,7313,589464,2
20,-1,638368,218587,1152105,65769,6678,576023,0
20,-1,643778,219547,1202798,65917,7179,601427,0
20,-1,637186,218070,1265495,65507,7758,632734,0
20,-1,635191,217746,1240534,65220,7344,620310,0
21,0,704587,247573,1392572,73569,9359,696333,11
21,-1,637435,217895,1166009,65475,7221,583067,0
21,-1,645714,220318,1310320,66566,8074,655081,0
21,-1,638890,219226,1164617,65932,6455,582359,0
21,-1,635512,219003,1296860,65850,8406,648395,2
21,-1,637623,219292,1194701,65974,6353,597397,0
21,-1,648120,220749,1386257,66548,8003,693174,0
21,-1,638206,218956,1259226,65836,7446,629679,0
21,-1,640734,217927,1225745,65307,7973,613131,0
22,0,706829,247898,1346298,73755,8882,673222,11
22,-1,636431,217855,1216136,65360,8322,608069,0
22,-1,640378,218559,1166887,65822,7687,583396,0
22,-1,638835,219887,1255132,66390,7158,627467,0
22,-1,639525,218723,1228771,65834,6850,614432,2
22,-1,634675,218497,1147493,65672,6391,573751,0
22,-1,642886,219146,1276875,65914,7761,638378,0
22,-1,637971,218455,1177479,65626,7384,588670,0
22,-1,642130,218780,1146727,65635,7805,573364,0
23,0,711757,250178,1430235,74760,9284,715244,11
23,-1,665290,224298,1201101,69897,7976,600137,0
23,-1,640975,219181,1248451,66023,7220,624216,0
23,-1,636025,218925,1232097,65863,7108,616080,0
23,-1,636394,219450,1263008,66041,6786,631536,2
23,-1,641920,219815,1266445,66432,7218,633228,0
23,-1,640736,218771,1197817,65677,7662,598801,0
23,-1,637858,218501,1288876,65684,7991,644406,0
23,-1,661761,223397,1272575,68929,8651,636284,0
24,0,704645,246597,1457880,73306,9258,728828,11
24,-1,640086,219522,1332223,66223,8197,666022,0
24,-1,659865,222161,1227049,68734,8216,613401,0
24,-1,632889,218012,1222448,65524,7209,611227,0
24,-1,659794,222982,1285624,68970,7340,642889,0
24,-1,634798,218214,1134120,65626,6750,567104,2
24,-1,639541,218497,1271507,65610,7145,635751,0
24,-1,637923,218826,1151828,65739,7310,575843,0
24,-1,638916,218603,1145310,65506,7390,572705,0
25,0,711506,248776,1429285,74203,9529,714722,11
25,-1,635457,217624,1264755,65378,7576,632408,0
25,-1,640946,218690,1332615,65860,8227,666389,0
25,-1,635672,219129,1189691,65937,7125,594811,0
25,-1,638850,218762,1326105,65714,6874,663124,0
25,-1,635218,218382,1234748,65659,6797,617383,2
25,-1,645112,221075,1289763,66771,7824,644712,0
25,-1,636607,218428,1243592,65522,7619,621762,0
25,-1,660245,222740,1197638,68704,8349,598858,0
26,0,707105,247684,1352910,73696,9333,676457,11
26,-1,637146,217571,1166626,65362,7352,583345,0
26,-1,640176,218684,1364003,65812,7789,681959,0
26,-1,633934,218880,1186086,65803,7069,593046,0
26,-1,637799,218756,1137939,65812,6426,569006,0
26,-1,662310,228231,1251772,68586,7352,626001,2
26,-1,643701,219411,1267524,65841,7907,633654,0
26,-1,634895,218209,1180107,65624,7081,589813,0
26,-1,638820,218496,1199123,65533,7280,599399,0
27,0,704751,246991,1435157,73365,8807,717617,11
27,-1,638743,218485,1277788,65719,7772,638985,0
27,-1,639759,218424,1294526,65776,7921,647080,0
27,-1,635946,220093,1294049,66495,7974,646938,0
27,-1,639949,219687,1242562,66311,6783,621247,0
27,-1,644697,220726,1273962,66735,8242,637003,2
27,-1,639118,218340,1277787,65541,8170,638746,0
27,-1,634590,217977,1326197,65477,7899,662918,0
27,-1,637724,218083,1133206,65305,6755,566635,0
28,0,706426,247544,1334138,73529,8875,667083,11
28,-1,643015,220401,1305077,66659,8704,652494,0
28,-1,641320,219376,1272328,66275,7956,636055,0
28,-1,643037,219054,1305292,65902,8096,652049,0
28,-1,640028,219249,1235307,65905,7504,617658,0
28,-1,637108,219663,1179605,65949,7213,589721,2
28,-1,637885,218292,1333348,65576,8303,666651,0
28,-1,644070,220598,1339078,66659,8269,669275,0
28,-1,637660,218197,1269594,65471,8751,634832,0
29,0,708159,247628,1336024,73487,8416,667983,11
29,-1,637326,217908,1243716,65460,7519,621933,0
29,-1,638519,217717,1266754,65440,7729,633181,0
29,-1,643630,219744,1285311,66302,8318,642662,0
29,-1,634408,217494,1217714,65437,7343,608848,0
29,-1,642937,219410,1292916,65933,8077,646472,2
29,-1,640714,219058,1282327,65828,8086,640990,0
29,-1,658562,222988,1220345,68950,8436,610152,0
29,-1,640087,218833,1209023,65902,7219,604573,0
30,0,726921,251782,1352139,76709,10165,675991,11
30,-1,639870,219968,1265637,66374,7630,632776,0
30,-1,640051,218923,1248335,65940,6960,624177,0
30,-1,637534,218463,1253623,65664,7444,626719,0
30,-1,635620,218334,1216563,65562,6848,608283,0
30,-1,637149,218491,1319406,65685,7982,659726,0
30,-1,644992,220513,1289464,66291,7305,644624,2
30,-1,638701,219881,1279004,66314,8087,639516,0
30,-1,640514,218451,1264776,65531,7883,632404,0
31,0,712826,250171,1367069,74644,9844,683342,11
31,-1,633271,217839,1419387,65484,8349,709650,0
31,-1,635095,217245,1261547,65373,7003,630833,0
31,-1,639925,218600,1255060,65786,7931,627428,0
31,-1,655548,222737,1183548,68907,7425,591787,0
31,-1,645033,220108,1221433,66364,8544,610466,0
31,-1,641638,219231,1197328,65873,7479,598529,2
31,-1,639187,219157,1305143,65901,7600,652464,0
31,-1,639578,218320,1278015,65529,7392,639031,0
32,0,706262,247391,1476222,73442,9683,738037,11
32,-1,636410,217877,1177642,65500,8539,588823,0
32,-1,644708,220946,1289364,66911,8035,644651,0
32,-1,643768,220741,1333004,66685,7541,666499,0
32,-1,637405,218114,1276540,65554,6903,638183,0
32,-1,639659,218841,1233043,65705,8045,616509,0
32,-1,643517,220315,1326865,66345,8895,663471,2
32,-1,642151,218308,1196025,65616,8686,598093,0
32,-1,642528,219993,1292634,66213,7196,646180,0
33,0,709082,247178,1440780,73313,10199,720444,11
33,-1,633309,217129,1194678,65211,6891,597119,0
33,-1,658299,222865,1236828,69026,8096,618300,0
33,-1,638231,218850,1250354,65829,7043,625257,0
33,-1,638454,218966,1251434,65858,6942,625715,0
33,-1,639509,219056,1253944,65747,7648,626958,0
33,-1,643278,222473,1265662,67142,8685,632848,2
33,-1,639927,217984,1255508,65346,8130,627676,0
33,-1,635644,217644,1269456,65232,7389,634601,0
34,0,709391,247522,1462744,73514,9610,731355,11
34,-1,636380,218176,1224083,65548,8101,611781,0
34,-1,640864,218444,1228588,65733,7466,614380,0
34,-1,642110,219605,1263821,66272,7361,631859,0
34,-1,634881,218486,1207989,65664,6415,604004,0
34,-1,644302,221184,1284819,66622,7790,642411,0
34,-1,640277,219943,1245632,66005,8673,622819,2
34,-1,641233,217802,1267058,65356,8698,633534,0
34,-1,638797,218321,1141195,65529,7016,570620,0
35,0,703073,247510,1402147,73518,8759,701111,11
35,-1,652974,222145,1245394,68655,7706,622583,0
35,-1,644737,219950,1261126,66448,8552,630591,0
35,-1,638933,218665,1190120,65721,7134,594996,0
35,-1,636319,219413,1207068,65995,7503,603546,0
35,-1,642142,219048,1257506,65703,8113,628723,0
35,-1,638668,219890,1171708,65972,7851,585889,2
35,-1,645943,220314,1277917,66478,8618,638951,0
35,-1,637424,218014,1256596,65347,7073,628367,0
36,0,702202,247304,1477604,73545,9273,738939,11
36,-1,635385,217664,1282424,65337,8249,641279,0
36,-1,640167,218489,1205111,65796,7946,602618,0
36,-1,637067,218471,1313954,65629,8754,656744,0
36,-1,639785,218529,1177521,65703,7270,588680,0
36,-1,641114,219362,1154705,65883,6985,577351,0
36,-1,641428,220307,1203175,66139,8131,601617,2
36,-1,640806,218544,1301180,65646,7780,650634,0
36,-1,657999,222814,1176342,68740,7429,588010,0
37,0,703569,247339,1410553,73495,9143,705265,11
37,-1,637900,218962,1253451,65805,8682,626582,0
37,-1,641092,218874,1193865,65884,7913,596815,0
37,-1,636618,218687,1268100,65688,7742,633506,0
37,-1,638881,218609,1142037,65690,6844,570932,0
37,-1,638651,218722,1316488,65606,7322,658242,0
37,-1,664529,228068,1335139,68425,8457,667575,2
37,-1,644452,219814,1283014,66254,8875,641535,0
37,-1,635860,218113,1216217,65356,7340,608131,0
38,0,701441,247259,1334734,73487,8630,667419,11
38,-1,632980,217603,1180852,65321,7404,590383,0
38,-1,644599,220250,1203651,66575,8373,601832,0
38,-1,638731,219733,1246678,66302,7239,623329,0
38,-1,638161,218708,1211350,65722,6837,605664,0
38,-1,638382,218722,1167912,65602,7637,583766,0
38,-1,642912,219041,1189605,65775,7885,594532,0
38,-1,638417,218009,1158402,65500,7658,579291,2
38,-1,635799,218184,1141625,65379,7009,570840,0
39,0,707712,248719,1380247,74147,10029,690215,11
39,-1,638384,219747,1298924,66332,8865,649731,0
39,-1,660915,223236,1170455,69122,8701,585230,0
39,-1,640591,219190,1297845,65940,6969,649169,0
39,-1,635468,218574,1144412,65744,6108,572216,0
39,-1,638285,219143,1257607,65697,8075,628822,0
39,-1,639263,217954,1324424,65348,9081,662188,0
39,-1,636161,218976,1209924,65876,7699,604863,2
39,-1,636552,217670,1385092,65231,7949,692589,0
40,0,704683,247214,1334515,73436,9816,667130,11
40,-1,639950,218500,1344634,65828,8403,671817,0
40,-1,637543,217749,1313391,65476,7841,656739,0
40,-1,645219,221384,1204046,67008,6850,601872,0
40,-1,636691,218983,1277076,65830,6562,638565,0
40,-1,637315,219107,1191361,65821,7763,595668,0
40,-1,661845,223809,1331824,69097,9170,665897,0
40,-1,643646,220741,1294772,66611,7822,647411,2
40,-1,636684,218324,1258133,65530,7709,628558,0
41,0,707676,248995,1531706,74329,10554,765685,11
41,-1,635397,217507,1250219,65329,7963,624696,0
41,-1,638713,218527,1179898,65772,7412,589795,0
41,-1,638592,218734,1157312,65809,6522,578620,0
41,-1,636514,218660,1262891,65822,7199,631452,0
41,-1,635927,218271,1234977,65478,7283,617459,0
41,-1,640300,218420,1424416,65561,9144,712266,0
41,-1,642040,219471,1262304,65951,7991,631207,2
41,-1,657602,222778,1204504,68734,7646,602260,0
42,0,702043,246744,1351464,73345,9215,675847,11
42,-1,635604,217833,1236122,65434,8170,618061,0
42,-1,657492,222713,1192101,68916,7840,596051,0
42,-1,641331,220137,1178657,66463,7372,589428,0
42,-1,635620,217526,1149586,65453,6468,574773,0
42,-1,648649,220712,1265323,66593,8182,633093,0
42,-1,663275,223696,1294508,69047,9116,647373,0
42,-1,638032,218985,1209697,65703,8420,604924,2
42,-1,636671,218761,1270749,65565,7494,635338,0
43,0,708252,248689,1578491,74171,10260,789055,11
43,-1,633980,217292,1421224,65262,8484,710583,0
43,-1,638130,218644,1261016,65819,7817,630447,0
43,-1,637211,218537,1161853,65708,6759,580964,0
43,-1,641203,220275,1248869,66581,6998,624429,0
43,-1,663534,223193,1214734,68934,8636,607318,0
43,-1,639021,218277,1340531,65536,8678,670133,0
43,-1,641365,219087,1353325,65739,8932,676684,2
43,-1,640861,220423,1227636,66259,7541,613850,0
44,0,701846,247107,1416056,73457,9068,708063,11
44,-1,637192,218099,1262371,65514,7854,630946,0
44,-1,637002,218420,1174375,65710,6816,587298,0
44,-1,637336,219254,1157412,65997,6675,578691,0
44,-1,656419,222921,1213780,68906,7301,606694,0
44,-1,641834,218770,1148973,65691,7338,574472,0
44,-1,644675,220188,1357265,66345,8651,678740,0
44,-1,649970,221218,1221484,66673,8256,610998,2
44,-1,642309,219151,1157250,65689,7533,578668,0
45,0,720290,250517,1396535,76404,9291,697855,11
45,-1,636740,218282,1316043,65600,7952,658031,0
45,-1,641660,220400,1270957,66538,7940,635588,0
45,-1,635297,218771,1118990,65774,6798,559499,0
45,-1,639805,219756,1246625,66113,7436,623326,0
45,-1,641690,218900,1241486,65688,7280,620615,0
45,-1,637426,218162,1353358,65450,8668,676560,0
45,-1,636829,219234,1275087,65641,7459,637594,2
45,-1,639508,218371,1315392,65384,8531,657711,0
46,0,703198,247179,1323336,73427,9096,661512,11
46,-1,656089,222248,1278235,68749,8261,639324,0
46,-1,636185,218404,1232480,65675,7708,616162,0
46,-1,659854,223485,1165621,69148,8378,582784,0
46,-1,635805,218597,1209957,65753,7659,604861,0
46,-1,641392,219142,1176800,65774,7560,588294,0
46,-1,641111,218932,1240416,65784,8686,620160,0
46,-1,641734,218806,1150955,65514,7073,575502,0
46,-1,637733,218578,1235459,65478,7950,617726,2
47,0,705156,247682,1367181,73675,8652,683557,11
47,-1,634232,218048,1187453,65504,7409,593705,0
47,-1,643439,218136,1371185,65624,7852,685001,0
47,-1,635384,218147,1179545,65564,7327,589719,0
47,-1,635885,218953,1261621,65810,7841,630777,0
47,-1,641976,219291,1240246,65780,7631,619993,0
47,-1,640664,219668,1199377,65977,8860,599515,0
47,-1,643339,220411,1238169,66254,7063,619145,0
47,-1,637462,218630,1236900,65604,7456,618486,2
48,0,705708,247898,1424685,73752,9430,712190,11
48,-1,632376,217629,1273039,65305,7591,636644,0
48,-1,639859,218056,1207124,65465,7107,603615,0
48,-1,639097,219423,1203832,65972,6917,601862,0
48,-1,634160,218589,1390236,65673,7673,695048,0
48,-1,638688,218518,1181047,65495,7142,590486,0
48,-1,639557,218869,1160203,65793,7913,580005,0
48,-1,640632,219182,1104223,65631,7352,552133,0
48,-1,640144,218850,1254076,65664,7797,627099,2
49,0,708813,248863,1516766,74189,9958,757958,11
49,-1,636443,218667,1249375,65675,7430,624500,0
49,-1,641376,219030,1227859,65827,6868,613955,0
49,-1,635235,218418,1171718,65711,6907,585809,0
49,-1,636655,218354,1278172,65622,7152,639048,0
49,-1,644483,220722,1210939,66564,7648,605330,0
49,-1,637753,218278,1254891,65516,7753,627425,0
49,-1,666740,228073,1252238,68266,8199,626159,0
49,-1,636105,218731,1140193,65635,6605,570085,2
50,0,704857,247159,1419214,73503,9471,709640,11
50,-1,638166,219424,1378642,66149,8317,689324,0
50,-1,639547,218083,1210434,65425,6625,605276,0
50,-1,635654,218689,1148918,65810,7445,574461,0
50,-1,637068,218715,1234183,65756,7138,617033,0
50,-1,659301,223293,1154095,68919,7490,576972,0
50,-1,643840,221000,1330933,66777,8543,665027,0
50,-1,640848,219996,1242692,66075,7440,621334,0
50,-1,640335,218979,1245819,65699,7554,622949,2
51,0,712842,249492,1508727,74488,10663,754060,11
51,-1,633671,218035,1267210,65526,7059,633566,0
51,-1,638929,218242,1217323,65605,6579,608707,0
51,-1,632649,217816,1115838,65482,6849,557912,0
51,-1,635860,218699,1424952,65737,8091,712508,0
51,-1,637281,218690,1164534,65652,7160,582217,0
51,-1,637155,218757,1272167,65664,8175,636070,0
51,-1,642141,219790,1163686,65900,6704,581887,0
51,-1,637259,218565,1149446,65587,6497,574750,2
52,0,705294,247370,1394746,73584,8817,697405,11
52,-1,632668,217693,1221554,65355,7619,610959,0
52,-1,642791,219609,1198717,65955,6545,599425,0
52,-1,639293,220148,1181386,66611,7363,590690,0
52,-1,634880,218822,1418645,65824,8105,709284,0
52,-1,642153,219096,1240464,65799,7521,620201,0
52,-1,646244,220228,1274819,66381,8200,637373,0
52,-1,638428,218210,1274352,65325,7618,637221,0
52,-1,642772,220788,1198849,66594,6777,599449,2
53,0,705531,247343,1308550,73543,8532,654198,11
53,-1,632376,218032,1345776,65528,7726,672895,0
53,-1,644274,220664,1319399,66624,6684,659780,0
53,-1,656557,223521,1164831,69222,8535,582285,0
53,-1,633890,218989,1266169,65832,7263,632972,0
53,-1,640048,218720,1247177,65675,7882,623502,0
53,-1,646872,220950,1295485,66712,8617,647603,0
53,-1,640919,218928,1221869,65560,7480,611058,0
53,-1,638197,218162,1250574,65481,7258,625544,2
54,0,726546,251763,1418156,76804,10391,708948,11
54,-1,658884,223005,1292737,68892,7995,646388,0
54,-1,637806,217484,1228826,65233,6938,614502,0
54,-1,640765,219583,1254521,66271,7193,627302,0
54,-1,635791,218793,1221370,65729,7116,610703,0
54,-1,636316,218177,1185137,65451,7073,592573,0
54,-1,640346,219261,1276073,65875,7516,638068,0
54,-1,640132,218948,1363873,65617,8614,682013,0
54,-1,639483,218201,1142154,65429,6981,571124,2
55,0,705920,247122,1389654,73443,8546,694718,11
55,-1,639512,219486,1239932,65982,9304,619974,0
55,-1,640195,218962,1181704,65822,7467,590933,0
55,-1,637954,218185,1158993,65708,7562,579549,0
55,-1,656527,223344,1211108,69080,7782,605455,0
55,-1,638886,218467,1172969,65566,6892,586491,0
55,-1,640232,219317,1266857,66031,7859,633462,0
55,-1,647269,221567,1258396,66583,7565,629312,0
55,-1,635236,218816,1240983,65665,7071,620529,2
56,0,705048,247037,1340045,73462,8616,670095,11
56,-1,634287,217443,1227223,65227,8524,613620,0
56,-1,635820,217680,1309446,65354,8249,655134,0
56,-1,658650,223146,1274918,69123,7922,637476,0
56,-1,634463,218777,1207783,65795,7247,603779,0
56,-1,638494,218330,1268806,65454,7010,634471,0
56,-1,640553,218450,1262976,65579,8255,631437,0
56,-1,639239,218703,1253437,65399,7109,626755,0
56,-1,637878,218765,1140037,65594,6897,570060,2
57,0,714598,249866,1366935,74655,10171,683757,11
57,-1,635176,218654,1232875,65642,7892,616488,0
57,-1,639349,218477,1235354,65612,6832,617758,0
57,-1,635126,218430,1183422,65759,7038,591649,0
57,-1,632627,218309,1161921,65573,6849,580926,0
57,-1,659570,223212,1202260,68938,7931,601059,0
57,-1,645261,220869,1246929,66684,7524,623341,0
57,-1,660900,224148,1169072,69003,7549,584638,0
58,0,715305,249714,1336531,74482,9592,668274,11
58,-1,633147,217857,1159269,65354,7632,579656,0
58,-1,641439,219889,1222048,66382,6883,611122,0
58,-1,638781,218651,1189483,65841,7597,594719,0
58,-1,635880,219912,1187805,66365,7172,593939,0
58,-1,636445,218337,1139043,65444,7060,569550,0
58,-1,661478,223957,1214852,69175,8424,607332,0
58,-1,636600,218553,1144262,65351,7232,572169,0
59,0,704845,247607,1422310,73622,8662,711230,11
59,-1,652463,222134,1315313,68614,8004,657556,0
59,-1,658555,222727,1188301,68804,7439,594201,0
59,-1,637406,218491,1274180,65725,7914,637122,0
59,-1,643881,218530,1178146,65686,7546,589087,0
59,-1,642094,220157,1254519,66335,6902,627291,0
59,-1,642676,219934,1361214,66054,7945,680611,0
59,-1,641160,219600,1390194,65759,9728,694742,0
59,-1,660862,222899,1326442,68778,8076,663115,0
60,0,703260,246989,1298727,73395,7947,649343,11
60,-1,633979,219663,1276078,66218,7042,638050,0
60,-1,645483,220073,1223676,66339,8004,611940,0
60,-1,636485,218683,1264505,65821,6972,632240,0
60,-1,641513,218656,1171222,65721,7261,585617,0
60,-1,637693,218956,1162260,65744,6981,581142,0
60,-1,643023,220562,1270747,66448,7952,635375,0
60,-1,636731,218331,1276065,65301,8904,638071,0
60,-1,639854,218366,1278599,65522,7412,639341,0
61,0,703901,247058,1406455,73376,8855,703253,11
61,-1,638821,217160,1143218,65154,7496,571688,0
61,-1,639004,218269,1190148,65507,7768,595110,0
61,-1,635321,218545,1167959,65830,6884,583895,0
61,-1,644902,220238,1306208,66495,7766,653086,0
61,-1,635283,218340,1218304,65460,7249,609149,0
61,-1,638835,219237,1154611,65871,7521,577401,0
61,-1,639039,219089,1193578,65565,8258,596856,0
61,-1,640765,218063,1281614,65345,7948,640846,0
62,0,707799,249360,1480251,74489,9339,740238,11
62,-1,646963,221016,1272583,66727,8282,636113,0
62,-1,640326,218626,1205235,65669,8246,602678,0
62,-1,632658,217974,1184901,65645,6984,592411,0
62,-1,641104,219034,1256430,65944,7429,628171,0
62,-1,639524,218513,1168657,65546,6674,584332,0
62,-1,639754,218658,1272593,65513,8052,636013,0
62,-1,636273,218266,1308305,65251,8253,654198,0
62,-1,638404,218038,1235242,65413,7354,617652,0
63,0,703458,246693,1312141,73360,8877,656090,11
63,-1,659418,222235,1315015,68677,8896,657485,0
63,-1,661251,222822,1244397,68858,8788,621810,0
63,-1,634874,218657,1285231,65793,8211,642583,0
63,-1,646228,220391,1280759,66630,7706,640424,0
63,-1,639768,218804,1154032,65727,6952,576972,0
63,-1,663359,223774,1223490,69093,9191,611824,0
63,-1,640461,220363,1271615,66258,8460,635891,0
63,-1,638226,218159,1224729,65376,7036,612436,0
64,-1,638701,218007,1170528,65331,7583,585176,0
64,0,707931,247532,1317105,73589,9290,658607,11
64,-1,640275,219147,1311449,65830,8073,655578,0
64,-1,636611,217916,1281924,65555,7295,640941,0
64,-1,641431,218831,1219004,65790,7069,609535,0
64,-1,640053,218906,1256875,65689,7547,628455,0
64,-1,640666,218989,1224927,65650,7536,612475,0
64,-1,660428,224089,1309975,68907,9301,655035,0
64,-1,639834,219121,1336828,65735,7272,668136,0
65,-1,640610,218660,1286567,65621,8233,643254,0
65,0,727603,252052,1370761,76847,9911,685107,11
65,-1,641372,219850,1465764,66246,9043,732105,0
65,-1,637082,218567,1343234,65827,7173,671530,0
65,-1,642119,220106,1239670,66444,7090,619829,0
65,-1,642840,220499,1286379,66531,7401,643093,0
65,-1,641145,219013,1232393,65733,8191,616118,0
65,-1,646352,218853,1429973,65505,9459,714862,0
65,-1,642122,219659,1195710,66123,7297,597848,0
66,-1,640066,217745,1270733,65262,7411,635406,0
66,0,708279,246792,1505390,73347,10406,752649,11
66,-1,637541,218736,1237288,65725,7599,619156,0
66,-1,666519,228732,1311869,69052,8280,655893,0
66,-1,638783,218280,1139449,65664,6500,569711,0
66,-1,635978,218172,1167833,65465,6974,583887,0
66,-1,644150,220385,1276530,66110,8251,638173,0
66,-1,644235,218352,1474847,65345,9392,737500,0
66,-1,638076,218276,1239303,65422,7015,619699,0
67,-1,644909,220334,1278205,66420,8570,639257,0
67,0,725125,251842,1436912,76845,10055,718366,11
67,-1,640042,218814,1276993,65737,7679,638184,0
67,-1,635194,218626,1268518,65815,7966,634332,0
67,-1,638716,218407,1279971,65658,6667,639790,0
67,-1,639128,218625,1175597,65617,7502,587708,0
67,-1,637949,219005,1208673,65662,7131,604312,0
67,-1,667382,223812,1248646,68952,9114,624444,0
67,-1,638410,218346,1265230,65449,7503,632596,0
68,-1,660128,222851,1243498,68777,8896,621684,0
68,0,705111,246727,1411925,73267,8679,706006,11
68,-1,639376,218693,1210959,65575,7481,605304,0
68,-1,634437,218251,1257044,65661,7551,628507,0
68,-1,639940,219270,1304767,65970,6809,652370,0
68,-1,642853,220531,1192851,66548,7456,596382,0
68,-1,644911,221545,1300583,66940,8719,650140,0
68,-1,643427,218482,1234484,65353,8761,617255,0
68,-1,635719,217619,1180588,65289,7276,590361,0
69,-1,637025,217739,1225873,65269,7348,613008,0
69,0,706487,247330,1397580,73555,9088,698562,11
69,-1,642746,220350,1291449,66510,7937,645883,0
69,-1,635076,218203,1265593,65706,8036,632749,0
69,-1,659530,223566,1187812,69192,7683,593778,0
69,-1,637736,218990,1233371,65787,6752,616479,0
69,-1,641129,220177,1279943,66195,8568,639923,0
69,-1,647587,220314,1221114,66195,8354,610462,0
69,-1,638231,218636,1295817,65545,7289,647985,0
70,-1,637721,218292,1177537,65480,7405,588663,0
70,0,710272,248305,1374433,73785,8911,686822,11
70,-1,659785,223252,1246344,68956,8913,623152,0
70,-1,637449,219441,1249721,66109,7255,624836,0
70,-1,638636,218546,1239111,65751,7591,619595,0
70,-1,635803,218269,1156481,65462,6450,578219,0
70,-1,636116,218627,1191251,65643,8097,595665,0
70,-1,643627,219082,1165412,65603,8622,582726,0
70,-1,641303,220254,1186241,66388,7134,593178,0
71,-1,635837,217344,1125254,65135,7464,562574,0
71,0,709231,247762,1453218,73555,9445,726628,11
71,-1,634270,217430,1244772,65293,7431,622097,0
71,-1,653331,222359,1220827,68799,9278,610412,0
71,-1,643362,219326,1263470,65948,7582,631755,0
71,-1,663125,228094,1279642,68461,6817,639808,0
71,-1,644426,219316,1193520,65906,7821,596605,0
71,-1,641944,218319,1196819,65307,8516,598211,0
71,-1,657054,222631,1285061,68674,7816,642566,0
72,-1,637686,218375,1185844,65541,7576,592958,0
72,0,709457,247952,1469965,73754,9714,735004,11
72,-1,639141,218803,1209110,65739,7413,604826,0
72,-1,639709,218981,1186934,65959,7710,593447,0
72,-1,645511,220754,1261252,66639,7393,630511,0
72,-1,639850,220255,1293503,66372,6730,646777,0
72,-1,646749,221348,1365564,66749,8362,682861,0
72,-1,642869,218981,1150360,65586,8454,575212,0
72,-1,641351,217852,1246416,65365,7704,623237,0
73,-1,637205,218105,1129381,65394,7597,564707,0
73,0,728857,251876,1429273,76701,9983,714658,11
73,-1,640317,219847,1366277,65994,8054,683608,0
73,-1,642349,220477,1291083,66683,8179,645517,0
73,-1,638551,218424,1260597,65594,7387,630357,0
73,-1,636139,218295,1212379,65482,7016,606208,0
73,-1,645341,220320,1312636,66192,8770,656388,0
73,-1,641225,218392,1359050,65340,8486,679620,0
73,-1,640464,217827,1145358,65238,7472,572689,0
74,-1,640722,218247,1146027,65505,8192,573008,0
74,0,705357,247796,1443008,73612,10104,721487,11
74,-1,646715,220605,1350048,66505,9341,674853,0
74,-1,637519,218542,1317872,65816,7629,659045,0
74,-1,646155,221289,1328382,66973,7540,664198,0
74,-1,637723,218305,1176459,65523,7155,588246,0
74,-1,641004,219542,1147758,65971,7434,573942,0
74,-1,640607,218127,1243002,65259,7592,621545,0
74,-1,645522,219749,1219495,66148,8016,609734,0
75,-1,645111,220349,1269388,66357,8668,634588,0
75,0,710100,248954,1596011,74234,10383,798031,11
75,-1,641525,218720,1276222,65555,7961,637983,0
75,-1,635385,217983,1232835,65592,7680,616369,0
75,-1,637351,218074,1220791,65624,7072,610430,0
75,-1,659819,223684,1245438,69071,7951,622676,0
75,-1,644660,219721,1152211,65947,7803,576093,0
75,-1,637736,217405,1383213,65059,9124,691558,0
75,-1,638929,218220,1275870,65404,7636,637939,0
76,-1,639618,218724,1278284,65668,8297,639196,0
76,0,703132,247484,1471404,73599,9930,735439,11
76,-1,642672,219550,1244844,65889,7712,622520,0
76,-1,636580,218563,1191070,65764,7224,595506,0
76,-1,638180,218781,1224739,65700,7381,612352,0
76,-1,639386,219308,1217547,65876,6870,608776,0
76,-1,642364,219273,1236600,65798,7959,618281,0
76,-1,639653,218702,1512550,65522,9598,756367,0
76,-1,639993,218074,1186466,65414,7659,593283,0
77,-1,636601,218012,1143793,65407,7316,571985,0
77,0,730318,253144,1465419,77110,10592,732277,11
77,-1,644027,220087,1335561,66243,8221,667945,0
77,-1,640790,220109,1268747,66591,7515,634475,0
77,-1,636194,218392,1167001,65705,6560,583509,0
77,-1,638048,219057,1251646,65824,6669,626038,0
77,-1,640957,218969,1284709,65663,8752,642307,0
77,-1,642489,218339,1294770,65324,8707,647182,0
77,-1,641023,218606,1331719,65493,7543,666214,0
78,-1,638937,218253,1237215,65506,7403,618647,0
78,0,708262,248038,1449484,73686,9439,724699,11
78,-1,641169,219317,1282821,65703,7507,641462,0
78,-1,656055,222699,1265129,68904,7836,632584,0
78,-1,642255,220018,1255327,66424,7498,627636,0
78,-1,636318,218267,1274070,65399,7027,637091,0
78,-1,644130,220437,1289386,66443,8279,644739,0
78,-1,640824,218609,1309451,65433,8335,654579,0
78,-1,644823,220482,1196359,66527,7172,598250,0
79,-1,641726,220038,1297649,66309,8073,649008,0
79,0,705922,247466,1605215,73423,9185,801759,11
79,-1,659706,223140,1237065,68847,8682,618545,0
79,-1,634752,218412,1264590,65792,7371,632418,0
79,-1,638817,218493,1149163,65753,6362,574514,0
79,-1,644674,221322,1264091,66804,7546,632034,0
79,-1,642241,220060,1224814,66104,8001,612406,0
79,-1,662924,223363,1381533,68782,10225,690507,0
79,-1,686136,231773,1323675,71397,8307,661851,0
80,-1,637846,218164,1253116,65546,8102,626609,0
80,0,713526,249199,1457631,74009,9628,728340,11
80,-1,642630,219886,1308204,66134,8355,654082,0
80,-1,636842,218843,1211008,65908,7296,605503,0
80,-1,638898,218603,1240950,65707,6748,620492,0
80,-1,660298,223807,1190758,69086,7799,595365,0
80,-1,638564,218785,1285728,65639,8005,642801,0
80,-1,641817,219162,1601153,65739,10030,800606,0
80,-1,639207,218675,1275329,65601,7330,637689,0
81,-1,636580,217956,1219631,65547,8166,609814,0
81,0,711193,247762,1502186,73492,9844,750856,11
81,-1,639683,218635,1211229,65586,8203,605392,0
81,-1,639186,219842,1249926,66417,7607,624866,0
81,-1,639218,219034,1256921,65859,7129,628445,0
81,-1,637978,219117,1237129,65801,6879,618539,0
81,-1,645982,221576,1282704,66893,8244,641329,0
81,-1,643422,220369,1386627,66344,8621,693381,0
81,-1,637945,218108,1186278,65364,7440,593145,0
82,-1,635989,218004,1136146,65563,6953,568055,0
82,0,710936,248310,1454286,73712,9955,726886,11
82,-1,638090,218245,1253725,65425,7854,626771,0
82,-1,635672,218767,1190646,65875,7608,595304,0
82,-1,637470,218388,1245447,65605,6745,622667,0
82,-1,637140,218961,1176478,65726,6360,588285,0
82,-1,662349,223204,1232803,68884,8694,616355,0
82,-1,640413,218020,1336640,65290,8820,667920,0
82,-1,639187,218329,1254988,65480,7604,627530,0
83,-1,633684,217499,1293542,65282,7800,646694,0
83,0,710714,247750,1460885,73490,9547,730445,11
83,-1,660685,223424,1230919,68967,8248,615279,0
83,-1,633949,218545,1224669,65833,6937,612346,0
83,-1,641347,220339,1291732,66503,7252,645855,0
83,-1,637773,219651,1242637,66110,7123,621293,0
83,-1,639791,218713,1282370,65638,7715,641069,0
83,-1,641345,218617,1248326,65577,9501,624166,0
83,-1,639747,218463,1247986,65492,6712,624028,0
84,-1,636387,217556,1136283,65269,7742,568128,0
84,0,734087,252902,1413499,76989,10669,707412,11
84,-1,637586,218655,1293970,65616,7913,647045,0
84,-1,634718,218728,1247876,65848,8186,623957,0
84,-1,658990,223637,1240763,69172,8010,620368,0
84,-1,641024,218497,1253845,65515,7765,626870,0
84,-1,642549,219583,1385244,65955,7901,692536,0
84,-1,639803,218043,1256819,65343,8850,628422,0
84,-1,639159,218280,1239581,65466,7120,619900,0
85,-1,638563,217865,1261434,65335,7952,630751,0
85,0,706419,247314,1418780,73384,9245,709256,11
85,-1,634005,217685,1255870,65386,8246,627863,0
85,-1,636486,218810,1194476,65855,6975,597203,0
85,-1,634820,218143,1176296,65553,7073,588162,0
85,-1,646271,220343,1285044,66345,8026,642585,0
85,-1,645365,221023,1269793,66605,7994,634835,0
85,-1,640109,218705,1391857,65612,9267,695942,0
85,-1,637344,217929,1245408,65323,7611,622764,0
86,-1,659734,222809,1304141,68858,9038,651942,0
86,0,711608,248784,1304721,73930,9496,652286,11
86,-1,638304,219360,1374215,66085,8345,687197,0
86,-1,637701,219670,1246576,66366,7713,623212,0
86,-1,640532,218657,1230683,65780,7554,615350,0
86,-1,641458,218941,1173744,65706,7109,586856,0
86,-1,640853,219472,1182007,65859,7547,590903,0
86,-1,639630,218098,1325949,65313,9218,662699,0
86,-1,639076,218551,1273623,65574,7575,636844,0
87,-1,637852,218058,1187671,65477,8374,593776,0
87,0,708205,247098,1282725,73377,9068,641886,11
87,-1,637183,217569,1267717,65287,7457,633708,0
87,-1,636958,218735,1272131,65830,7589,636076,0
87,-1,641473,218758,1161617,65757,7086,580800,0
87,-1,641520,219058,1168895,65820,7147,584500,0
87,-1,639407,219274,1312931,65731,7775,656496,0
87,-1,640873,218950,1537221,65679,9787,768580,0
87,-1,637779,218313,1232223,65499,7305,616048,0
88,-1,635468,217432,1237423,65171,8371,618731,0
88,0,709815,248495,1304079,73848,8444,652062,11
88,-1,637552,217757,1223342,65345,7826,611266,0
88,-1,637204,219303,1273046,66058,7221,636557,0
88,-1,659603,222638,1220500,68849,7556,610236,0
88,-1,660759,223110,1197919,68993,7589,598893,0
88,-1,644433,221116,1271723,66648,7939,635877,0
88,-1,644770,220806,1414505,66447,8702,706854,0
88,-1,637923,219034,1181759,65717,6861,590956,0
89,-1,640219,219195,1298430,66018,8102,649174,0
89,0,705710,247355,1334415,73450,8078,667264,11
89,-1,637751,218588,1318516,65612,7636,659377,0
89,-1,635554,218576,1159059,65770,6986,579521,0
89,-1,637546,218085,1312131,65485,6686,656121,0
89,-1,642407,219454,1197437,66006,7172,598660,0
89,-1,640182,220014,1290487,66019,7917,645225,0
89,-1,640484,218935,1270827,65699,9020,635454,0
89,-1,640414,218435,1171745,65537,7521,585937,0
90,-1,634964,217607,1272659,65312,8108,636385,0
90,0,708527,247459,1412464,73556,9728,706289,11
90,-1,637230,218779,1200096,65663,7830,600133,0
90,-1,654518,222825,1233090,69016,7916,616577,0
90,-1,640685,219269,1261276,65967,6889,630581,0
90,-1,638199,218272,1132613,65550,6601,566302,0
90,-1,639477,219273,1272194,65721,8047,636130,0
90,-1,647174,220223,1283308,66417,8216,641707,0
90,-1,637489,217312,1242840,65094,7722,621465,0
91,-1,636959,218667,1187316,65600,8008,593520,0
91,0,714057,248706,1331338,74026,8371,665691,11
91,-1,661664,227294,1291865,68134,8195,646128,0
91,-1,638116,219816,1315049,66397,7882,657453,0
91,-1,643988,220255,1258506,66484,6666,629274,0
91,-1,644878,219636,1198394,66244,7760,599107,0
91,-1,638671,219439,1177681,65818,7378,588813,0
91,-1,664737,223674,1233830,69037,8581,616871,0
91,-1,642936,219939,1171329,66306,7586,585779,0
92,-1,636977,218144,1141756,65445,6802,570653,0
92,0,704790,247874,1539085,73832,9770,769531,11
92,-1,636052,218154,1310776,65521,8467,655114,0
92,-1,635842,218702,1183567,65868,7774,591716,0
92,-1,639348,218826,1222061,65868,7234,611070,0
92,-1,640869,218692,1139778,65777,7311,569800,0
92,-1,638520,219200,1146703,65694,7927,573327,0
92,-1,641978,218517,1265456,65624,8013,632730,0
92,-1,638128,218302,1189873,65486,7755,594981,0
93,-1,636248,217826,1255474,65320,7789,627768,0
93,0,706720,247631,1350660,73750,9035,675308,11
93,-1,636640,217881,1290197,65390,8379,645139,0
93,-1,634799,218090,1188798,65618,7766,594521,0
93,-1,639467,218780,1255654,65810,7018,627876,0
93,-1,638862,218165,1167714,65603,6689,583919,0
93,-1,641512,221274,1299197,66592,8744,649551,0
93,-1,646826,220596,1274910,66466,8329,637511,0
93,-1,640225,219191,1138138,65963,6951,569114,0
94,-1,636541,218441,1178255,65546,7127,589184,0
94,0,713254,250162,1410645,74835,9169,705486,11
94,-1,641858,220274,1289123,66478,8179,644265,0
94,-1,652833,222612,1220731,68933,8353,610418,0
94,-1,638154,218600,1253013,65757,6965,626465,0
94,-1,639506,218434,1180081,65634,6683,590032,0
94,-1,645667,220887,1159508,66271,7557,579704,0
94,-1,640951,218504,1555176,65575,9484,777707,0
94,-1,636154,218070,1107680,65457,6892,553899,0
95,-1,635278,217874,1238305,65413,7395,619123,0
95,0,708798,247865,1271880,73771,9141,635773,11
95,-1,657649,222964,1292344,68892,8954,646190,0
95,-1,632489,218117,1252735,65690,7458,626489,0
95,-1,637797,218724,1162860,65748,6770,581399,0
95,-1,641632,219878,1251141,66401,7247,625566,0
95,-1,645933,221363,1407477,66702,9279,703526,0
95,-1,641312,218951,1371555,65780,9214,685406,0
95,-1,636694,218672,1226245,65561,7407,613068,0
96,-1,634883,217944,1164140,65479,6784,582070,0
96,0,710154,247973,1475874,73832,9562,738009,11
96,-1,632940,217457,1292755,65323,7554,646349,0
96,-1,641372,220534,1267983,66626,8428,634019,0
96,-1,639934,218601,1165280,65745,7066,582633,0
96,-1,640433,219023,1278947,65862,7168,639472,0
96,-1,640053,219175,1392051,65758,9072,695907,0
96,-1,640704,218599,1275327,65598,7877,637710,0
96,-1,642144,219744,1188967,66215,7341,594554,0
97,-1,638126,219554,1240104,66183,7064,620159,0
97,0,707589,247885,1437163,73862,10064,718431,11
97,-1,634945,218176,1306332,65436,8621,653201,0
97,-1,637341,218302,1251915,65705,7897,625902,0
97,-1,643328,220308,1288064,66498,7426,644033,0
97,-1,641655,219911,1256394,66338,7337,628185,0
97,-1,643832,221059,1250052,66544,8021,625118,0
97,-1,659960,222980,1209592,68883,8197,604787,0
97,-1,660642,223172,1321362,68877,7914,660714,0
98,-1,690341,236071,1422046,70404,9260,710283,0
98,0,710107,247833,1524825,73768,9974,762239,11
98,-1,641638,218111,1224400,65478,7579,612535,0
98,-1,638135,218931,1227638,65954,7948,613929,0
98,-1,639361,218752,1281797,65759,6760,640900,0
98,-1,637708,218723,1163158,65803,7054,581471,0
98,-1,639517,219488,1283857,65779,8143,641865,0
98,-1,644138,219798,1295436,66219,8994,647771,0
98,-1,638227,218524,1364519,65498,7614,682285,0
99,-1,694138,237738,1312478,70998,7210,656244,0
99,0,710294,248048,1521669,73847,9881,760967,11
99,-1,641065,218246,1245051,65591,7564,622870,0
99,-1,655773,222879,1227426,69019,8738,613805,0
99,-1,638000,218859,1307336,65827,6726,653636,0
99,-1,640836,218346,1192350,65638,7575,596237,0
99,-1,644953,221053,1379202,66554,8322,689395,0
99,-1,640985,219044,1171298,65794,7664,585692,0
99,-1,638937,219283,1194415,65800,7043,597185,0
100,-1,691333,236376,1282891,70469,7879,641503,0
100,0,715194,249727,1595012,74708,9518,797451,11
100,-1,660245,222426,1223996,68696,8983,611826,0
100,-1,636487,218260,1251575,65740,7726,625814,0
100,-1,643913,220933,1265565,66834,7413,632767,0
100,-1,640195,218714,1272298,65718,7050,636116,0
100,-1,638104,219219,1190028,65683,7347,595022,0
100,-1,640606,219278,1266379,65801,8092,633277,0
100,-1,636982,218458,1161209,65538,7272,580657,0
101,-1,687182,235291,1198099,70095,6967,599015,0
101,0,709206,248211,1472871,73926,10490,736313,11
101,-1,637804,218147,1193757,65580,7832,596752,0
101,-1,637253,218912,1263180,65892,7727,631606,0
101,-1,659199,223326,1190595,69085,7697,595205,0
101,-1,643037,220093,1314510,66443,7050,657278,0
101,-1,637960,219369,1237748,65799,7923,618787,0
101,-1,641335,219665,1416161,66209,8787,708052,0
101,-1,642312,220754,1194122,66500,7555,597098,0
102,-1,691587,236778,1237833,70549,7018,618891,0
102,0,706986,246487,1461252,73437,10555,730596,11
102,-1,642538,218836,1172378,65829,7987,586054,0
102,-1,638894,219633,1361940,66380,8674,681018,0
102,-1,638308,219147,1256847,65931,6860,628425,0
102,-1,637754,218428,1207657,65720,6739,603799,0
102,-1,665237,228705,1259352,68549,7465,629605,0
102,-1,659979,223204,1251851,68944,8674,626053,0
102,-1,643856,218543,1396246,65575,8792,698144,0
103,-1,711450,241112,1329658,73803,8505,664790,0
103,0,708910,247731,1400923,73731,10230,700349,11
103,-1,641975,218897,1179760,65910,7537,589844,0
103,-1,635282,218053,1138464,65620,7608,569219,0
103,-1,638948,219827,1160418,66146,6779,580134,0
103,-1,640140,219183,1240202,65901,6982,620103,0
103,-1,636819,218860,1245645,65531,7894,622846,0
103,-1,638132,218621,1142137,65590,7760,571117,0
103,-1,645437,219645,1198514,66062,7437,599340,0
104,-1,689112,236937,1173471,70663,6252,586786,0
104,0,711445,248362,1434229,73976,10408,717090,11
104,-1,663881,223747,1294113,69274,9281,647124,0
104,-1,633775,218358,1196975,65759,7671,598395,0
104,-1,639911,220295,1337276,66461,8350,668473,0
104,-1,643181,220687,1236772,66721,7351,618398,0
104,-1,638080,219488,1281558,65795,8556,640647,0
104,-1,639248,218540,1203814,65627,7876,601976,0
104,-1,643114,218465,1196307,65553,7345,598192,0
105,-1,691943,236630,1362931,70525,7376,681527,0
105,0,730992,252432,1516798,77136,11323,758274,11
105,-1,640164,218571,1325468,65809,8111,662407,0
105,-1,636618,219094,1296926,66199,7959,648541,0
105,-1,638286,218566,1355198,65692,9216,677573,0
105,-1,660484,223005,1184652,68903,7559,592379,0
105,-1,643522,220194,1253903,66052,8881,626861,0
105,-1,642041,219085,1272830,65714,8370,636457,0
105,-1,640499,217813,1254142,65274,7823,627072,0
106,-1,719585,246495,1230178,73491,6998,615149,0
106,0,710285,247712,1426314,73774,10306,713075,11
106,-1,639862,218814,1220163,65772,8291,610260,0
106,-1,632795,218277,1374283,65689,8465,687086,0
106,-1,636862,218781,1246287,65758,7773,623088,0
106,-1,638182,218630,1170770,65685,6334,585374,0
106,-1,639502,219132,1154025,65631,8075,577019,0
106,-1,641643,218647,1228312,65693,7800,614192,0
106,-1,641889,218596,1149052,65584,7405,574596,0
107,-1,712160,242511,1361206,74238,7982,680506,0
107,0,713300,248501,1438868,74053,10413,719470,11
107,-1,641577,219757,1343363,66350,8692,671397,0
107,-1,635529,219149,1380838,66032,8510,690333,0
107,-1,657174,223217,1191541,69035,8629,595556,0
107,-1,639169,218822,1175917,65811,6603,587988,0
107,-1,638830,219852,1254015,65901,8233,627065,0
107,-1,663155,223426,1295891,69034,8267,647935,0
107,-1,640874,217914,1408586,65323,9255,704374,0
108,-1,688873,236285,1226988,70462,6754,613387,0
108,0,711568,248483,1524400,74027,10411,762217,11
108,-1,643165,218608,1213469,65737,8012,606752,0
108,-1,630440,217624,1301325,65441,7875,650631,0
108,-1,636506,218980,1221481,65863,8130,610627,0
108,-1,641076,220040,1286315,66380,7391,643160,0
108,-1,644508,221947,1258608,66843,8335,629299,0
108,-1,642043,219535,1422778,65951,8509,711475,0
108,-1,663644,223157,1244001,68857,8544,622068,0
109,-1,690374,237456,1349040,70954,7679,674416,0
109,0,711358,247676,1524225,73765,10710,762034,11
109,-1,640954,218534,1291925,65710,7483,645755,0
109,-1,657382,222527,1233358,68925,8967,616588,0
109,-1,632993,217952,1244960,65496,8114,622496,0
109,-1,639108,218677,1322828,65642,6841,661409,0
109,-1,639165,220160,1295319,66058,8561,647666,0
109,-1,636798,217930,1193921,65328,6819,596909,0
109,-1,640106,218081,1163031,65374,7739,581542,0
110,-1,690432,236682,1369074,70606,8494,684484,0
110,0,712610,248883,1535510,74270,10514,767781,11
110,-1,639697,218448,1246362,65618,7381,623032,0
110,-1,632184,217918,1159101,65531,8081,579449,0
110,-1,636718,217963,1206942,65440,7722,603383,0
110,-1,638269,218919,1258201,65828,6412,629068,0
110,-1,638490,219790,1399176,65936,8442,699356,0
110,-1,638796,218562,1266514,65641,7879,633298,0
110,-1,644565,220286,1316436,66311,8142,658331,0
111,-1,714853,241367,1327442,73889,8833,663734,0
111,0,731342,251728,1479359,76855,11033,739519,11
111,-1,659981,222815,1386542,68846,7811,693343,0
111,-1,657952,226583,1343692,68129,7493,671847,0
111,-1,644994,220390,1393093,66608,8733,696440,0
111,-1,641363,220401,1254323,66582,7168,627180,0
111,-1,645066,221577,1286958,66687,8579,643517,0
111,-1,643978,220744,1259299,66554,7592,629699,0
111,-1,643380,218622,1381677,65621,8711,690548,0
112,-1,692728,236345,1205891,70401,7463,602935,0
112,0,717543,249665,1529120,74656,10613,764625,11
112,-1,638643,218440,1345740,65625,7243,672895,0
112,-1,638969,220644,1437813,66758,8559,718852,0
112,-1,660737,222816,1380315,68900,8985,690129,0
112,-1,639704,218712,1185011,65693,6977,592504,0
112,-1,639416,219818,1178815,65878,7884,589325,0
112,-1,636706,217735,1237068,65378,7147,618588,0
112,-1,640629,217979,1271208,65332,7967,635717,0
113,-1,690405,235824,1297762,70257,7650,648877,0
113,-1,636721,218193,1306627,65677,7660,653217,0
113,0,703526,248954,1419243,74366,10066,709474,11
113,-1,655806,223500,1191432,69220,8396,595782,0
113,-1,641128,219098,1296349,65894,7755,647798,0
113,-1,639085,218736,1174163,65770,7504,587029,0
113,-1,639247,219972,1282762,65927,8149,641240,0
113,-1,637965,218288,1392059,65628,9082,696294,0
113,-1,641368,218511,1259314,65569,8175,629729,0
114,-1,696822,237700,1321385,71098,8281,660647,0
114,-1,659161,222592,1273396,68907,8700,636636,0
114,0,704933,248072,1518076,73895,9659,759018,11
114,-1,632189,217692,1253957,65503,7718,626942,0
114,-1,638465,218538,1198756,65736,6985,599233,0
114,-1,637712,218291,1174014,65575,7246,587030,0
114,-1,639234,219847,1180140,65932,8022,590089,0
114,-1,644358,220197,1257452,66475,8363,628585,0
114,-1,639801,218337,1241136,65497,8033,620444,0
115,-1,689368,235893,1181860,70315,6526,590887,0
115,-1,637928,218019,1358725,65534,7420,679399,0
115,0,706946,248850,1541524,74330,10534,770733,11
115,-1,632096,218672,1174991,65761,7638,587541,0
115,-1,638820,218397,1284920,65645,8114,642435,0
115,-1,659267,222918,1174835,68929,8130,587358,0
115,-1,639263,220310,1247808,66085,8158,623947,0
115,-1,639376,218024,1277540,65512,8564,638766,0
115,-1,641659,218116,1192604,65388,8116,596351,0
116,-1,692809,236879,1298265,70592,7980,649092,0
116,-1,637343,218998,1338771,66069,7717,668661,0
116,0,704765,247711,1548761,73716,10601,774207,11
116,-1,637574,220118,1357341,66591,7943,678557,0
116,-1,638769,218425,1214860,65662,7753,607197,0
116,-1,639816,218859,1128292,65778,7015,564106,0
116,-1,638656,220183,1280996,66048,8101,640584,0
116,-1,641303,219240,1246078,66014,8042,622951,0
116,-1,647786,220841,1155135,66571,7854,577634,0
117,-1,697736,239597,1591208,71879,10017,795253,0
117,-1,635224,217590,1298003,65380,7353,649065,0
117,0,706185,247919,1574059,73837,10530,786963,11
117,-1,653129,222767,1306944,68973,8014,653347,0
117,-1,639156,218534,1381821,65696,7963,690696,0
117,-1,637552,218632,1137930,65745,6690,568949,0
117,-1,639616,220901,1260511,66440,7997,630111,0
117,-1,636735,217564,1205674,65319,7557,602907,0
117,-1,642867,218964,1178494,65687,7380,589281,0
118,-1,714607,241588,1386588,73970,9884,693271,0
118,-1,635937,218200,1299465,65637,7431,649578,0
118,0,705725,248389,1518380,73991,10382,759144,11
118,-1,631546,218296,1261959,65738,7318,631207,0
118,-1,640466,218975,1312273,65824,7680,655879,0
118,-1,638046,219153,1210535,66139,7208,605102,0
118,-1,648245,219976,1217896,65985,7808,608839,0
118,-1,638802,218594,1150939,65677,7672,575300,0
118,-1,639370,218104,1181972,65450,7496,591085,0
119,-1,691509,236236,1284473,70418,9252,642281,0
119,-1,637539,219319,1336133,66188,7971,667973,0
119,0,708113,249065,1516511,74467,10521,758207,11
119,-1,635388,218104,1133959,65669,6657,566948,0
119,-1,644344,220906,1281177,66673,7247,640595,0
119,-1,639382,218639,1231402,65662,7309,615754,0
119,-1,668583,224676,1228573,69296,8664,614213,0
119,-1,638819,218231,1166446,65529,7795,583317,0
119,-1,641139,218712,1278735,65613,7778,639421,0
120,-1,691109,236073,1387673,70330,8605,693412,0
120,-1,640862,219075,1308595,66115,8550,653792,0
120,0,701883,247338,1442342,73626,10644,721057,11
120,-1,642826,217806,1169581,65530,7426,584767,0
120,-1,637092,218506,1216782,65677,6593,608416,0
120,-1,639703,219009,1168486,65913,6773,584226,0
120,-1,646552,219674,1251534,65921,8358,625824,0
120,-1,635775,217994,1257735,65510,7621,628765,0
120,-1,642990,219981,1290327,66201,7908,645333,0
121,-1,691933,237154,1344122,70714,8088,671946,0
121,-1,638762,218105,1204997,65588,7901,602224,0
121,0,703744,247648,1395616,73695,10147,697779,11
121,-1,644001,218514,1232915,65822,7972,616306,0
121,-1,638292,219123,1229176,65852,6759,614665,0
121,-1,638995,219326,1335272,66003,6985,667642,0
121,-1,648998,221043,1221935,66528,8484,610936,0
121,-1,639617,219479,1251638,66182,7673,625741,0
121,-1,638212,218448,1166713,65530,6894,583175,0
122,-1,692652,236893,1334565,70653,8550,667275,0
122,-1,635712,217240,1172925,65229,8312,586063,0
122,0,704208,247899,1440829,73877,9234,720402,11
122,-1,644747,218882,1210308,65896,7531,605306,0
122,-1,638293,218682,1142560,65748,6937,571288,0
122,-1,636012,217853,1183831,65412,6702,591870,0
122,-1,644827,219790,1208640,65943,8468,604380,0
122,-1,639660,218089,1284642,65480,8514,642302,0
122,-1,646947,220270,1203387,66294,7667,601760,0
123,-1,710178,240569,1431494,73593,8750,715693,0
123,-1,637879,217646,1162647,65338,7926,581598,0
123,0,711121,249935,1525659,74696,10758,762709,11
123,-1,643413,218283,1291385,65705,7903,645599,0
123,-1,641661,220495,1257090,66635,6870,628576,0
123,-1,637312,218704,1192113,65801,6808,596101,0
123,-1,643367,219649,1197801,65845,8405,598784,0
123,-1,643736,220299,1342316,66428,7956,671085,0
123,-1,641841,218598,1187580,65581,7645,593881,0
124,-1,688479,236519,1416759,70549,9219,708031,0
124,-1,641457,219636,1259975,66313,8197,630070,0
124,0,708498,248044,1421343,73887,10184,710457,11
124,-1,641700,218398,1212222,65776,8070,605992,0
124,-1,637235,218736,1221279,65793,6867,610606,0
124,-1,638731,219304,1140750,65980,6533,570405,0
124,-1,644266,219394,1176786,65870,7994,588283,0
124,-1,661447,223933,1216973,69114,7903,608461,0
124,-1,640777,218199,1246665,65374,7888,623351,0
125,-1,686853,236227,1306555,70398,7212,653229,0
125,-1,634657,217361,1164645,65208,7274,582360,0
125,0,702825,248153,1540042,73913,10147,770065,11
125,-1,639923,217950,1305521,65564,7942,652823,0
125,-1,637238,219093,1261513,65871,7012,630730,0
125,-1,637127,219026,1264310,65857,6816,632181,0
125,-1,647576,221027,1294173,66660,8372,647054,0
125,-1,642663,219390,1246218,65874,7935,623171,0
125,-1,640703,218490,1363640,65498,8764,681835,0
126,-1,696545,238145,1349201,71259,7408,674687,0
126,-1,638057,218991,1117583,65827,7181,558844,0
126,0,702434,247829,1532114,73687,9473,765987,11
126,-1,642207,218528,1194018,65695,7745,596920,0
126,-1,636783,218111,1247556,65558,7230,623760,0
126,-1,659815,223393,1205076,69076,7928,602475,0
126,-1,643665,219511,1184967,66040,7968,592512,0
126,-1,639088,218334,1210604,65476,7503,605242,0
126,-1,646128,220852,1211953,66618,8269,606027,0
127,-1,690657,236261,1284685,70433,7715,642317,0
127,-1,636788,218049,1397306,65524,8057,698672,0
127,0,707943,249387,1550705,74596,10702,775254,11
127,0,701913,247046,1496285,73456,9650,748176,11
127,0,706967,248106,1482470,73861,9120,741252,11
127,0,707592,249315,1504018,74506,9776,751978,11
127,0,705679,247777,1505291,73807,9895,752557,11
127,0,703398,247339,1506945,73573,10061,753491,11
127,0,705504,247199,1603431,73621,9924,801769,11
127,0,708329,247557,1565424,73664,9734,782884,11
127,0,709236,249232,1544270,74472,10418,772048,11
127,0,706538,247818,1430259,73748,9654,715055,11
127,0,708048,247958,1445469,73833,9300,722195,11
127,0,709965,248300,1597430,73903,10336,798720,11
127,0,701561,247779,1495791,73750,10111,747903,11
127,0,701876,247505,1506505,73706,10741,753135,11
127,0,705144,247812,1489634,73800,10185,744863,11
127,0,702013,247328,1485727,73621,9477,742870,11
127,0,707118,248962,1534922,74306,9855,767372,11
127,0,728051,252963,1417038,77262,11258,708468,11
127,0,709768,250278,1559556,74860,10439,779811,11
127,0,705827,247926,1524144,73802,9837,762070,11
127,0,711744,249780,1554650,74805,9934,777189,11
127,0,707356,248691,1505716,74072,10190,752912,11
127,0,707353,248774,1541260,74240,10227,770646,11
127,0,708634,249062,1622293,74497,9799,811172,11
127,0,707287,248680,1422932,74235,9631,711536,11
127,0,712132,249701,1463313,74672,9682,731566,11
127,0,703259,248028,1318758,73896,9942,658740,11
127,0,706038,248327,1286483,73908,8288,643220,11
127,0,708080,249011,1366635,74345,9217,683236,11
127,0,708865,248437,1339402,74223,10080,669625,11
127,0,704675,247681,1251791,73648,8155,625815,11
127,0,706617,247802,1335315,73765,8891,667627,11
127,0,706323,247903,1267846,73777,8230,633947,11
127,0,708843,248421,1711086,73933,10940,856257,11
127,0,709903,248604,1525681,73966,9642,762786,11
127,0,707022,247493,1501642,73589,10065,750735,11
127,0,733673,253489,1400180,77844,9687,699981,11
127,0,709519,248151,1313377,73860,9074,656696,11
127,0,710281,247797,1432703,73633,9759,715957,11
127,0,724239,252500,1354897,77047,8957,677417,11
127,0,702164,247268,1386508,73464,9349,693212,11
127,0,705055,248631,1321802,74004,8514,660900,11
127,0,704970,247515,1310341,73609,8554,655117,11
127,0,705993,248050,1396420,73842,9318,698195,11
127,0,739592,260110,1400347,77835,8601,700189,11
127,0,707011,248154,1421446,73782,8163,710650,11
127,0,706128,249181,1437049,74396,8895,718479,11
127,0,710780,249412,1369614,74443,8672,684790,11
127,0,707581,248104,1385037,73777,8939,692537,11
127,0,705525,247568,1360499,73648,8476,680236,11
127,0,711011,249459,1367079,74434,9107,683538,11
127,0,711664,250287,1511842,74786,8868,755885,11
127,0,709465,249422,1426172,74434,8381,712746,11
127,0,705712,248394,1393144,73882,8426,696496,11
127,0,705597,247957,1379746,73796,8291,689965,11
127,0,727929,252430,1418375,77052,8967,709150,11
127,0,708871,249025,1324082,74331,9113,661947,11
127,0,707794,248278,1333103,73867,7934,666501,11
127,0,726650,251808,1360628,76775,9327,680313,11
127,0,711630,249973,1404335,74769,8850,702071,11
127,0,710685,248823,1457448,74051,9157,728757,11
127,0,707971,247641,1370687,73694,8570,685311,11
127,0,705856,248528,1365232,73974,8374,682603,11
127,0,707368,248019,1327838,73797,8266,663860,11
127,0,711986,249863,1604086,74675,9819,802017,11
127,0,710140,248943,1510772,74133,9457,754866,11
127,0,709923,247880,1444652,73779,9786,722036,11
127,0,709303,248423,1513897,74080,9968,757137,11
127,0,709625,249797,1494211,74557,10276,747018,11
127,0,706582,248214,1443795,73907,9614,721857,11
127,0,711846,249999,1505884,74710,10188,752980,11
127,0,705982,247521,1410603,73657,9978,705596,11
127,0,705006,247531,1442419,73595,10077,721242,11
127,0,706239,248147,1393290,73732,7767,696583,11
127,0,711359,249911,1383899,74694,8875,691920,11
127,0,707957,248267,1348214,73863,8268,674191,11
127,0,730737,252280,1351414,76990,9279,675591,11
127,0,708956,248453,1401395,73896,8164,700656,11
127,0,709479,248197,1430228,73861,9038,715085,11
127,0,729131,252547,1366397,77076,9520,683151,11
127,0,710507,247933,1418676,73715,8866,709333,11
127,0,710238,248933,1416308,74125,8951,708155,11
127,0,710015,247951,1308167,73784,8747,653952,11
127,0,711586,248418,1340672,73921,8681,670285,11
127,0,710507,249309,1371705,74452,8630,685765,11
127,0,707674,247683,1360403,73666,8100,680248,11
127,0,709595,248050,1385121,73786,9020,692546,11
127,0,709076,247429,1416551,73648,9306,708311,11
127,0,709463,247846,1402433,73759,9246,701212,11
127,0,714392,248824,1394997,74053,9244,697506,11
127,0,704189,248037,1352217,73723,8759,676121,11
127,0,708059,248621,1467861,73993,9954,733395,11
127,0,725871,252229,1646994,76915,10433,823289,11
127,0,708261,248865,1487151,74214,9674,743494,11
127,0,734181,257247,1592421,76565,10288,795954,11
127,-1,662534,222755,1257103,68980,9369,628718,0
127,0,703812,247662,1431877,73646,8839,715942,11
127,0,711511,249635,1531934,74532,9899,765935,11
127,0,705118,247738,1373644,73678,8189,686864,11
127,0,709031,248917,1391443,74242,8517,695759,11
127,0,706591,247980,1342962,73808,8011,671530,11
127,0,710859,249027,1399696,74100,8692,699825,11
127,0,703486,247486,1355301,73545,8301,677624,11
127,0,726730,252489,1375099,77043,9783,687440,11
127,0,711140,250132,1386842,74708,8787,693511,11
127,0,706993,248431,1422499,73869,8881,711228,11
127,0,706106,247807,1331972,73692,8326,666036,11
127,0,707648,248672,1398320,74098,8517,699159,11
127,0,713977,250912,1404520,75078,8399,702316,11
127,0,707922,247534,1385488,73582,8510,692730,11
127,0,712337,249975,1310644,74728,8877,655260,11
127,0,709943,248088,1304974,73835,8360,652381,11
127,0,715443,249622,1395944,74535,9263,697999,11
127,0,705299,247622,1294232,73686,8332,647042,11
127,0,707822,248469,1352213,73959,8781,675986,11
127,0,704210,247690,1392469,73644,8905,696209,11
127,0,707758,248047,1315512,73813,8940,657775,11
127,0,711399,249435,1388863,74456,9069,694409,11
127,0,708825,248726,1423166,74035,8581,711504,11
127,0,712629,249385,1407694,74433,9278,703859,11
127,0,709541,247560,1311298,73609,8856,655594,11
127,0,709628,249253,1405698,74387,8978,702807,11
127,0,710147,249048,1304093,74105,8910,652044,11
127,0,712717,249193,1363079,74384,10082,681659,11
127,0,709549,247974,1350077,73733,8900,674987,11
127,0,710193,248236,1294891,73860,8638,647443,11
127,0,714309,249458,1401775,74412,9170,700906,11
127,0,710907,248009,1336511,73748,9109,668157,11
127,0,705770,248053,1372238,73812,7578,685930,11
127,0,711613,249081,1415804,74109,9074,707871,11
127,0,707382,247929,1313281,73741,8421,656543,11
127,0,730102,252037,1379696,76905,9374,689862,11
127,0,709716,247629,1356278,73645,9083,678143,11
127,0,709970,248132,1356337,73754,9243,678181,11
127,0,708696,248348,1262535,73928,8337,631258,11
127,0,710988,247999,1397008,73614,9096,698470,11
127,0,713332,248591,1369544,73836,9245,684719,11
127,0,715640,249118,1307407,73927,8970,653558,11
127,0,723957,252457,1492199,76909,9721,746088,11
127,0,707372,248506,1433436,73744,8879,716788,11
127,0,706376,247914,1295330,73599,8629,647700,11
127,0,706718,248719,1410785,73883,8357,705422,11
127,0,706138,248059,1480850,73625,8344,740421,11
127,0,705235,247808,1392853,73581,7953,696376,11
127,0,710511,248714,1297449,73904,8278,648687,11
127,0,731729,253688,1375722,77310,9490,687831,11
127,0,704786,247314,1288801,73398,8027,644364,11
127,0,708321,248262,1249480,73808,8240,624705,11
127,0,713809,249632,1337399,74424,9301,668679,11
127,0,705293,247409,1418481,73460,8496,709219,11
127,0,729158,252623,1372035,77009,8966,685951,11
127,0,709918,248014,1376539,73656,8533,688230,11
127,0,713104,248922,1421065,73938,9098,710455,11
127,0,733520,252636,1461872,76976,9829,730970,11
127,0,708881,249809,1473852,74560,9332,736602,11
127,0,707762,248239,1390029,73781,8878,695050,11
127,0,708858,248556,1411472,73856,8883,705715,11
127,0,715662,250858,1471346,74896,9284,735551,11
127,0,706768,248127,1402137,73651,9090,701059,11
127,0,712448,248937,1428121,73987,9679,714001,11
127,0,712419,248682,1507999,73834,9690,754059,11
127,0,706394,247532,1259073,73399,8067,629431,11
127,0,710011,248609,1341918,73848,9160,670863,11
127,0,709262,247456,1294044,73436,9016,646948,11
127,0,709580,248662,1270994,73936,8226,635429,11
127,0,713157,249371,1395359,74075,9486,697652,11
127,0,735218,253885,1401739,77872,9826,700673,11
127,0,712605,249216,1406766,74265,9142,703358,11
127,0,712498,249930,1414508,74460,9294,707367,11
127,0,707555,247968,1411925,73652,8773,705969,11
127,0,714841,250156,1578297,74664,9646,789125,11
127,0,709795,248138,1441051,73670,8898,720532,11
127,0,711454,248440,1371994,73857,10439,686067,11
127,0,710426,247811,1454176,73699,10972,727009,11
127,0,729446,252356,1511938,76909,10351,755921,11
127,0,738884,258981,1559996,77353,10162,780169,11
127,0,711764,248377,1440933,73931,9417,720500,11
127,0,714984,249899,1539929,74529,10412,770069,11
127,0,711900,248514,1570619,73872,10929,785261,11
127,0,714778,249947,1549316,74567,10389,774511,11
127,0,712727,248797,1394233,73991,10178,697064,11
127,0,717298,250918,1508460,75013,10364,754216,11
127,0,716395,249543,1444632,74228,9446,722347,11
127,0,711560,248818,1530322,74009,9680,765292,11
127,0,717318,250416,1590501,74867,10846,795055,11
127,0,714991,248982,1545405,74029,11013,772692,11
127,0,716515,249688,1551568,74164,10254,775798,11
127,0,712949,248681,1381058,73750,10315,690573,11
127,0,717695,249885,1524025,74166,10503,761989,11
127,0,721962,251252,1535297,74887,10619,767493,11
127,0,714372,249591,1532853,74066,9807,766320,11
127,0,731294,253938,1525092,77288,11163,762448,11
127,0,709077,248792,1540016,73777,10318,770009,11
127,0,713543,250122,1519611,74443,10720,759846,11
127,0,712195,251063,1533901,74831,10142,766810,11
127,0,709707,248908,1522009,73903,10303,760920,11
127,0,711524,248467,1550787,73699,9828,775428,11
127,0,711647,249272,1604890,73991,10492,802585,11
127,0,711594,248851,1604004,73726,11385,802044,11
127,0,713635,249466,1719740,74052,11940,860001,11
127,0,714818,250488,1589788,74563,9966,794831,11
127,0,711849,249212,1545160,73929,10011,772617,11
127,0,710949,249217,1446830,74116,9701,723357,11
127,0,708271,248219,1437834,73729,9312,718907,11
127,0,712771,249452,1581625,74138,10183,790854,11
127,0,716234,250767,1429378,74854,10860,714479,11
127,0,714792,249999,1513491,74498,10466,756661,11
127,0,712295,248924,1522455,73966,10748,761208,11
127,0,714261,248951,1455653,73947,10345,727734,11
127,0,715454,249523,1551497,74073,10875,775534,11
127,0,706115,248639,1521032,73927,9945,760380,11
127,0,710490,248819,1568951,73829,10427,784396,11
127,0,709566,248481,1546324,73771,10309,772955,11
127,0,716941,251694,1546425,75058,10259,773080,11
127,0,710918,248693,1474079,73785,10250,736991,11
127,0,712040,249138,1430122,73929,10600,715066,11
127,0,712358,249559,1538631,74241,10246,769254,11
127,0,714041,249586,1425557,74118,9883,712692,11
127,0,717367,250616,1408722,74746,10002,704442,11
127,0,711174,249335,1415176,74004,9292,707438,11
127,0,711028,248216,1371545,73659,9056,685777,11
127,-1,637790,218677,1274087,65724,6934,637103,0
127,0,709965,248059,1317833,73741,9159,658727,11
127,0,708576,247630,1309668,73553,8968,654811,11
127,0,732210,252875,1441058,77086,9791,720542,11
127,0,707650,247506,1434079,73434,9523,716978,11
127,0,712736,249620,1341391,74413,9700,670612,11
127,0,709014,247977,1321101,73644,9442,660358,11
127,0,710189,248235,1410017,73749,9928,705039,11
127,0,707555,247160,1408814,73290,9906,704390,11
127,0,715840,249956,1431744,74555,10138,715408,11
127,0,713472,249328,1483480,74309,10235,741819,11
127,0,707207,247581,1556900,73543,11023,777856,11
127,0,713773,249620,1450254,74411,10437,725019,11
127,0,709921,247401,1421495,73410,10376,710661,11
127,0,709174,247956,1504605,73680,9603,752489,11
127,0,707318,247084,1341585,73297,8475,670958,11
127,0,714588,248982,1318887,74177,9904,659437,11
127,0,705059,247625,1454021,73591,9580,726936,11
127,0,707284,248400,1326967,73894,9861,663537,11
127,0,707195,247927,1287717,73749,9234,643980,11
127,0,707909,248540,1408360,73950,9223,704175,11
127,0,712280,249342,1415266,74467,10103,707564,11
127,0,711667,249565,1426416,74437,9814,713371,11
127,0,708868,247980,1396952,73679,8737,698334,11
127,0,714921,249938,1466681,74468,9923,733238,11
127,0,715737,251036,1325451,74915,9454,662562,11
127,0,708252,247606,1296615,73536,9177,648359,11
127,0,709936,247532,1363082,73468,8642,681380,11
127,0,707395,247717,1306878,73522,9215,653219,11
127,0,730070,252823,1458654,76970,10170,729341,11
127,0,707864,248011,1320677,73661,9242,660396,11
127,0,709211,247332,1463036,73390,10459,731495,11
127,0,701908,245656,1292577,72923,8572,646182,11
127,0,706695,247462,1396164,73491,9091,698048,11
127,0,731398,253049,1393776,77145,9930,696731,11
127,0,712097,248724,1272342,73944,8819,636118,11
127,0,710017,247106,1289051,73415,9191,644433,11
127,0,707060,247649,1436873,73627,10064,718406,11
127,0,729821,252358,1355465,76923,10107,677600,11
127,0,705687,246478,1411663,73136,9260,705633,11
127,0,708129,247149,1301131,73451,8941,650529,11
127,0,710038,247450,1404484,73495,10060,702231,11
127,0,710952,248152,1318152,73788,8807,659159,11
127,0,713114,248846,1434049,74176,9683,716988,11
127,0,709793,247526,1466058,73582,9361,733061,11
127,0,735371,253036,1388328,77182,9653,694202,11
127,0,716371,249737,1392335,74636,9055,696223,11
127,0,729004,252535,1282018,77004,8963,640963,11
127,0,712542,249732,1400430,74585,8798,700317,11
127,0,708342,247620,1385661,73518,9047,692871,11
127,0,709142,247858,1299115,73699,8654,649597,11
127,0,710327,247756,1393804,73549,9659,696801,11
127,0,709536,247673,1420862,73610,9765,710486,11
127,0,712549,248059,1534225,73706,10383,767035,11
127,0,715630,250484,1512695,74726,9383,756498,11
127,0,711288,248160,1526231,73719,10353,763080,11
127,0,713343,247529,1555731,73394,10315,777847,11
127,0,709053,248037,1537398,73578,10575,768755,11
127,0,731539,252718,1614528,76908,12574,806810,11
127,0,716737,250588,1531541,74698,11208,765816,11
127,0,712218,248068,1535443,73628,11623,767420,11
127,0,712381,248096,1680160,73443,11695,840259,11
127,0,716234,249279,1594118,74082,10405,797174,11
127,0,715967,249921,1568942,74399,10823,784898,11
127,0,711936,248083,1460724,73504,10685,730384,11
127,0,715531,249607,1424798,74209,10001,712607,11
127,0,713668,248466,1449272,73627,10240,724699,11
127,0,706283,248619,1506069,73644,9715,752840,11
127,0,712915,249190,1554832,73978,10276,777398,11
127,0,707689,248119,1397907,73506,8517,699075,11
127,0,713352,250180,1362738,74440,8999,681290,11
127,0,710457,248876,1292447,73745,8175,646298,11
127,0,729138,253644,1413693,77133,10104,706811,11
127,0,708779,248882,1327730,73829,8569,663894,11
127,0,709517,248642,1413287,73724,8676,706676,11
127,0,708086,247880,1312294,73451,8218,656202,11
127,0,730169,252377,1453920,76758,9058,727005,11
127,0,715221,250174,1362794,74510,9240,681466,11
127,0,706797,247879,1239885,73433,8353,619990,11
127,0,729554,252090,1319493,76679,9729,659758,11
127,0,710060,247268,1412106,73280,9271,706085,11
127,0,712629,249389,1418339,74292,9438,709194,11
127,0,708925,247475,1380589,73442,9546,690281,11
127,0,713014,249994,1395250,74534,9080,697687,11
127,0,707788,247292,1379793,73370,9287,689975,11
127,0,708332,247432,1313997,73398,8750,657001,11
127,0,731896,252113,1357734,76745,9497,678907,11
127,0,711497,250175,1338199,74599,8874,669183,11
127,0,707666,247676,1271091,73516,8415,635644,11
127,0,706767,247342,1279822,73418,8242,639960,11
127,0,714909,249990,1325251,74528,8894,662671,11
127,0,709964,247590,1287435,73482,8488,643746,11
127,0,706675,247404,1348283,73374,8844,674161,11
127,0,712694,248870,1354029,74085,9152,677055,11
127,0,709686,247536,1313068,73425,9244,656574,11
127,0,710959,247636,1474094,73505,9836,737108,11
127,0,713791,249429,1359053,74339,9243,679573,11
127,0,710901,247686,1609796,73489,11697,804912,11
127,0,712228,248010,1303387,73634,8638,651661,11
127,0,710894,248447,1342550,73949,8562,671288,11
127,0,703728,247508,1383858,73437,8836,691993,11
127,0,703796,247057,1296074,73194,8472,648037,11
127,0,727773,252807,1386845,76966,9472,693198,11
127,0,709661,249038,1445683,74234,8865,722896,11
127,0,707861,247324,1282147,73340,8575,641123,11
127,0,710807,249462,1365874,74303,8670,683002,11
127,0,707766,247271,1551128,73376,9894,775609,11
127,0,709805,248752,1350061,74067,8370,675080,11
127,0,706547,247428,1297450,73325,8927,648649,11
127,0,707648,247458,1337773,73426,9134,668935,11
127,0,706655,247357,1287868,73412,8871,643968,11
127,0,709002,247554,1487525,73463,9028,743803,11
127,0,710112,247846,1302049,73563,8842,651075,11
127,0,710556,247616,1407339,73475,9124,703704,11
127,0,705739,247670,1323965,73456,8141,662010,11
127,0,705981,247341,1545301,73427,9480,772691,11
127,0,709156,247615,1242031,73484,8960,621057,11
127,0,708004,247892,1396367,73507,8933,697922,11
127,0,707752,247270,1422364,73320,9166,711193,11
127,0,711016,248068,1339075,73595,8795,669564,11
127,0,715596,249407,1358578,74255,9654,679362,11
127,0,708912,247306,1324701,73340,8262,662327,11
127,0,708291,247590,1564148,73439,10617,782181,11
127,0,710462,248348,1409715,73729,8682,704888,11
127,0,712544,249016,1397086,74080,9451,698608,11
127,0,708526,247040,1347295,73273,8909,673676,11
127,0,711104,248341,1356531,74007,9385,678330,11
127,0,709130,246861,1401108,73199,9293,700666,11
127,0,708949,247329,1470701,73415,9874,735349,11
127,0,709553,247361,1341391,73355,9560,670711,11
127,0,725627,252094,1386722,76764,9571,693287,11
127,0,710952,249378,1345028,74221,8614,672586,11
127,0,706341,247203,1315401,73322,8149,657870,11
127,0,705618,247218,1462145,73271,8790,731092,11
127,0,732785,252879,1492125,77011,10313,746089,11
127,0,713762,248986,1430072,74121,9278,715106,11
127,0,710609,247856,1546007,73564,9690,772850,11
127,0,714193,249219,1504511,74020,10009,752246,11
127,0,728004,251607,1416192,76566,9820,708147,11
127,-1,639436,218886,1337784,65854,7523,668865,0
127,0,713281,249447,1448758,74242,9261,724439,11
127,0,715487,249908,1403614,74502,9140,701781,11
127,0,708739,247879,1504563,73580,8884,752311,11
127,0,709563,247834,1573489,73509,9265,786795,11
127,0,708192,247234,1584229,73370,11006,791865,11
127,0,712586,248126,1589176,73618,11736,794381,11
127,0,711752,247291,1497890,73408,10337,749469,11
127,0,711333,248867,1487091,74078,8764,743611,11
127,0,705755,247191,1410989,73308,8323,705531,11
127,0,708324,247708,1469861,73532,8458,734974,11
127,0,731298,252424,1490024,76828,9368,745131,11
127,0,707905,246848,1490287,73210,8618,745219,11
127,0,712320,247991,1416149,73612,9311,708161,11
127,0,711627,248582,1512027,73800,8744,756033,11
127,0,730337,252449,1600852,76841,9628,800477,11
127,0,709437,247334,1480503,73342,8644,740293,11
127,0,709358,247424,1465274,73380,9255,732676,11
127,0,712328,247870,1411538,73509,9364,705779,11
127,0,710911,247346,1483987,73354,8968,742020,11
127,0,730985,252719,1498345,76972,9127,749309,11
127,0,710592,247166,1398368,73289,9044,699185,11
127,0,713060,248233,1515479,73622,8907,757681,11
127,0,709666,246923,1393175,73249,8790,696590,11
127,0,707909,247605,1460120,73435,8487,730090,11
127,0,716454,249936,1337248,74517,8699,668679,11
127,0,710650,247443,1329535,73463,8340,664770,11
127,0,711535,247306,1454382,73368,8884,727221,11
127,0,732388,252161,1519458,76758,9454,759692,11
127,0,710069,247174,1509235,73159,8471,754585,11
127,0,712767,247841,1465545,73441,8305,732801,11
127,0,714968,248431,1449680,73659,8797,724898,11
127,0,719698,249887,1400325,74412,8181,700208,11
127,0,706890,250085,1411126,74009,8681,705628,11
127,0,704494,248246,1514497,73196,8917,757117,11
127,0,702768,247888,1530505,73076,9882,764818,11
127,0,701794,247884,1462496,73079,10083,730821,11
127,0,703007,247272,1623625,72884,10351,811690,11
127,0,706000,249642,1463220,73867,10341,731432,11
127,0,702596,247790,1540393,72996,10623,770080,11
127,0,702129,247544,1423527,72956,10897,711656,11
127,0,702982,247498,1334516,72952,9049,667296,11
127,0,706142,249432,1327642,73767,9132,663643,11
127,0,703593,247420,1503209,72911,8837,751443,11
127,0,703575,247977,1599387,73060,9683,799696,11
127,0,730285,256545,1437466,75563,8807,718822,11
127,0,704445,247851,1499132,73077,9293,749282,11
127,0,702279,247391,1514116,72906,8584,757077,11
127,0,702967,247183,1393240,72771,8792,696675,11
127,0,708384,249124,1288089,73692,8088,644077,11
127,0,705309,247964,1384818,73095,8227,692463,11
127,0,707879,248554,1402293,73310,8183,701197,11
127,0,706768,248298,1291366,73146,8286,645750,11
127,0,703971,246946,1224954,72733,7546,612501,11
127,0,706029,247616,1303436,73009,8035,651748,11
127,0,705594,249062,1246523,73739,8796,623323,11
127,0,708566,248341,1417451,73167,8160,708775,11
127,0,701075,246265,1296067,72601,8089,648079,11
127,0,707956,248634,1523430,73326,8216,761785,11
127,0,704174,246905,1380564,72716,7706,690286,11
127,0,706288,247459,1384724,72954,8266,692408,11
127,0,709126,247833,1370508,73073,8332,685305,11
127,0,699686,247228,1395648,72888,8704,697857,11
127,0,701065,247408,1402246,72880,8718,701181,11
127,0,703306,247492,1382156,72997,8562,691129,11
127,0,706773,249027,1345507,73587,8711,672829,11
127,0,702943,248201,1321926,73200,8828,661038,11
127,0,703471,247319,1372728,72904,8994,686441,11
127,0,705331,247686,1424304,72972,8743,712132,11
127,0,712084,250029,1265340,74044,8399,632702,11
127,0,701877,247345,1425917,72883,9577,713011,11
127,0,708720,249206,1466058,73848,8949,733112,11
127,0,706005,247582,1484356,73137,8878,742191,11
127,0,727821,251899,1518360,76355,9649,759292,11
127,0,710565,249982,1404790,74214,9128,702458,11
127,0,706739,247579,1498590,73099,8752,749368,11
127,0,706840,247404,1469850,73045,9105,734956,11
127,0,706859,248480,1578166,73431,8996,789125,11
127,0,706834,247629,1537344,73839,9885,768713,11
127,0,710919,248637,1447746,74498,9793,723926,11
127,0,706939,247190,1379623,73755,9599,689823,11
127,0,705360,247670,1400622,73982,9365,700451,11
127,0,711419,249185,1407238,74607,10105,703732,11
127,0,709470,247767,1492501,73974,10054,746302,11
127,0,707698,247306,1425615,73858,9407,712831,11
127,0,723196,251688,1507652,77099,10603,753949,11
127,0,704669,247956,1419216,74011,9681,709747,11
127,0,703528,247793,1391468,74016,9018,695731,11
127,0,707364,248752,1385494,74523,8975,692738,11
127,0,703634,247234,1422625,73815,8825,711399,11
127,0,704597,247168,1372828,73818,9178,686512,11
127,0,705903,247568,1372920,73986,9501,686507,11
127,0,728088,251625,1472249,77127,10579,736160,11
127,0,712761,250031,1269638,75059,9233,634875,11
127,0,708285,247589,1534933,73984,10500,767189,11
127,0,727873,252102,1603767,77251,11000,801887,11
127,0,713391,249365,1301101,74732,8980,650349,11
127,0,708092,248669,1412092,74377,9545,705934,11
127,0,709354,247190,1422717,73800,9748,711391,11
127,0,706871,247400,1535293,73921,9401,767727,11
127,0,730564,252555,1661767,77371,10812,830720,11
127,0,707467,247821,1456566,73897,9091,728166,11
127,0,707983,247505,1392976,73919,9120,696788,11
127,0,707784,246990,1387707,73707,8918,693938,11
127,0,713199,249018,1330693,74630,9257,664922,11
127,0,712720,248724,1403587,74537,9012,701510,11
127,0,709347,247273,1348175,73822,9124,674115,11
127,0,704001,247299,1448968,73770,10326,723858,11
127,0,704412,247198,1508080,73814,9376,753496,11
127,0,706456,247781,1591853,74043,9449,795620,11
127,0,707059,247952,1436332,74108,10159,717759,11
127,0,728642,252294,1529960,77300,10510,765058,11
127,0,711478,249303,1379159,74793,9373,689859,11
127,0,705392,247288,1590286,73852,10190,794656,11
127,0,709815,248341,1506062,74414,9487,752760,11
127,0,709158,247618,1377057,73991,9355,688249,11
127,0,710920,248965,1378512,74652,9317,688608,11
127,0,707394,246650,1423784,73631,10038,711773,11
127,0,707110,247531,1378887,73971,8544,689497,11
127,0,708067,247414,1378703,73881,9552,689266,11
127,0,712354,249168,1284154,74684,8330,642091,11
127,0,710805,247401,1274242,73886,8844,637260,11
127,0,709566,247533,1402295,73988,8831,701033,11
127,0,707722,247753,1383920,74038,9256,691982,11
127,0,711256,247416,1487371,73928,9702,743663,11
127,0,709031,247722,1339273,73974,9448,669633,11
127,0,713309,249169,1364924,74737,10000,682257,11
127,0,708396,247042,1435367,73710,10054,717700,11
127,0,711548,247562,1490303,73975,10134,745244,11
127,0,730077,251934,1403974,77153,10687,701955,11
127,0,710183,247644,1436196,73949,9670,718154,11
127,0,708345,247301,1370445,73811,9288,685055,11
127,0,708335,247130,1404978,73812,9299,702460,11
127,0,709659,246994,1421106,73712,9270,710621,11
127,0,711707,248257,1425899,74166,9806,713034,11
127,0,708593,246831,1305894,73678,9408,652882,11
127,-1,641123,218669,1292572,65648,8742,646322,0
127,0,715292,248506,1334280,74465,10388,667085,11
127,0,732080,251864,1558919,77111,10551,779492,11
127,0,716613,249116,1292669,74763,9417,646399,11
127,0,715496,248270,1458315,74161,9731,729010,11
127,0,702009,247102,1389016,73839,9891,694555,11
127,0,705897,247350,1484048,73850,10256,741964,11
127,0,706138,247339,1395084,73869,9869,697415,11
127,0,708248,249124,1368424,74660,9723,684324,11
127,0,705379,247492,1318614,73939,9526,659190,11
127,0,703697,247751,1356326,74054,9245,677901,11
127,0,725937,252298,1474025,77334,9970,736995,11
127,0,710533,249676,1286539,74982,8394,643232,11
127,0,705794,247489,1481394,73959,9711,740878,11
127,0,707908,248249,1462201,74163,9714,731051,11
127,0,706476,247329,1353129,73800,8917,676552,11
127,0,728940,252029,1515633,77173,10552,757877,11
127,0,713679,249737,1345793,74938,9655,672792,11
127,0,705202,247223,1347226,73849,8927,673346,11
127,0,709458,248337,1335480,74399,9322,667628,11
127,0,705407,246883,1372542,73694,8483,686066,11
127,0,709480,248018,1382606,74039,9542,691163,11
127,0,710058,249786,1326249,74978,8859,663184,11
127,0,706137,247078,1322979,73777,8793,661311,11
127,0,712198,248954,1246292,74601,9265,622991,11
127,0,729549,252442,1354673,77370,10669,677337,11
127,0,708755,247265,1311016,73775,8725,655780,11
127,0,706104,246871,1441635,73719,9631,720941,11
127,0,709799,248190,1298359,74122,8023,649215,11
127,0,708691,247464,1359099,73942,8887,679471,11
127,0,712377,248778,1296489,74580,8331,648251,11
127,0,711985,248899,1381702,74584,9529,691034,11
127,0,709736,247218,1422044,73872,9391,710891,11
127,0,707681,249112,1383141,74666,10078,691387,11
127,0,725771,251561,1362463,77073,10783,681332,11
127,0,726554,251807,1403297,77098,10290,701639,11
127,0,711293,249219,1335819,74723,9819,667517,11
127,0,707971,248054,1418870,74019,9053,709535,11
127,0,708804,247895,1339896,74040,9403,669749,11
127,0,710456,248213,1413037,74122,8929,706491,11
127,0,707184,247824,1516972,74017,10110,758240,11
127,0,705570,247064,1306544,73765,8587,653253,11
127,0,709672,247153,1348740,73868,9605,674297,11
127,0,707817,248596,1334623,74272,9894,667246,11
127,0,707246,247774,1279819,73962,9665,639905,11
127,0,707369,247393,1317330,73881,9411,658710,11
127,0,711282,248505,1296468,74432,9681,647958,11
127,0,710641,247931,1460485,74045,9883,730028,11
127,0,727182,251817,1491137,77065,11022,745399,11
127,0,710110,247414,1560841,73910,10169,780162,11
127,0,715878,249548,1443782,75013,10476,721813,11
127,0,704968,246512,1416611,73591,9095,708282,11
127,0,711279,248664,1419207,74485,10064,709479,11
127,0,711498,248123,1398988,74120,9291,699481,11
127,0,730930,251553,1450290,77082,10203,725116,11
127,0,712127,247781,1283588,74091,9240,641704,11
127,0,713600,247547,1389758,73847,9162,694670,11
127,0,726336,252074,1459260,77119,10817,729563,11
127,0,706407,247531,1424197,73796,10177,712089,11
127,0,706448,247413,1351393,73759,9839,675601,11
127,0,707631,247456,1367781,73819,9262,683810,11
127,0,708025,247743,1418922,73886,9188,708703,11
127,0,713694,249564,1479313,74806,10396,739678,11
127,0,706100,247495,1555251,73778,11173,777597,11
127,0,709046,248634,1443519,74233,10288,721700,11
127,0,711554,249252,1433916,74633,10341,716862,11
127,0,708869,247333,1333911,73755,8652,666994,11
127,0,710114,247730,1389884,73959,9037,694923,11
127,0,713230,249170,1318415,74566,9237,659554,11
127,0,709038,247627,1349999,73904,8904,674977,11
127,0,729103,252005,1445279,77113,10307,722453,11
127,0,713000,249024,1375830,74638,9071,687930,11
127,0,711198,247545,1502829,73830,9744,751362,11
127,0,712441,247663,1338346,73889,9564,669190,11
127,0,708028,247440,1331060,73829,9093,665554,11
127,0,708869,247298,1491658,73865,9417,745871,11
127,0,713069,248212,1511416,74156,9679,755214,11
127,0,711394,247079,1487253,73715,10070,743173,11
127,0,712842,247998,1604178,74093,10577,802005,11
127,0,715498,248672,1545943,74347,10592,772723,11
127,0,710880,247204,1571684,73739,10390,785416,11
127,0,708673,248018,1480367,74005,9662,740260,11
127,0,713984,249303,1386300,74666,9322,693113,11
127,0,709097,248032,1460809,74067,9607,730506,11
127,0,729098,251952,1519094,77086,10626,759333,11
127,0,710110,247069,1490363,73767,10004,744912,11
127,0,711309,248179,1477032,74134,9494,738401,11
127,0,709907,246969,1380314,73731,9050,689564,11
127,0,711751,248879,1554306,74587,10255,776373,11
127,0,709555,247419,1461261,73766,10042,730633,11
127,0,712955,248408,1437584,74123,10088,718205,11
127,0,708366,247640,1258535,73914,9785,629328,11
127,0,710987,247818,1459182,73800,10312,729661,11
127,0,711629,247869,1471749,73906,10385,735912,11
127,0,711365,247149,1313491,73653,8573,657113,11
127,0,714233,248808,1404306,74426,9885,701549,11
127,0,718025,249627,1482389,74781,10212,740867,11
127,0,708309,248004,1567556,73931,10858,783738,11
127,0,706581,247139,1523367,73673,10063,761598,11
127,0,737090,256696,1560657,76561,9987,780407,11
127,0,708324,247369,1437337,73744,9699,718584,11
127,0,710197,247956,1336139,73996,9415,668012,11
127,0,708927,247545,1419069,73850,9828,709826,11
127,0,711901,248086,1535310,74043,10270,767561,11
127,0,708960,247112,1565521,73654,10684,782739,11
127,0,713809,248297,1645659,74008,11244,822831,11
127,0,710112,247653,1534602,73825,11741,767285,11
127,0,711804,247732,1570605,73898,10939,785391,11
127,0,711691,247133,1553543,73585,11692,776599,11
127,0,712105,247599,1496895,73828,9972,748516,11
127,0,720115,249786,1475558,74753,10839,737131,11
127,0,703219,247670,1400382,73810,9836,700520,11
127,0,705796,248521,1405065,74419,10602,702161,11
127,0,706127,247293,1314391,73845,9506,657053,11
127,0,706532,248773,1265054,74532,9410,632284,11
127,0,706228,248093,1347471,74108,10151,673466,11
127,0,707341,247855,1473919,73983,10345,736875,11
127,0,705386,247696,1344931,74000,10470,672293,11
127,0,710760,248643,1347161,74511,9454,673320,11
127,0,706733,247440,1580285,73871,10941,790037,11
127,0,711375,249826,1461321,74850,10762,730170,11
127,0,704499,247354,1445397,73742,9665,722732,11
127,0,708197,247871,1555193,73998,11089,777290,11
127,0,705053,246824,1486187,73793,10668,742863,11
127,0,708834,248327,1589227,74308,10721,794558,11
127,0,709857,247849,1557577,73960,9785,778571,11
127,0,708863,247783,1442396,73992,10510,721253,11
127,0,708997,247304,1478024,73875,9836,738935,11
127,0,709317,248822,1416081,74382,9642,707014,11
127,0,708573,248290,1403965,74181,8951,701950,11
127,0,707959,248035,1320992,74147,8552,660527,11
127,0,730873,253068,1485934,77531,10721,743215,11
127,0,709314,248239,1411881,74238,9576,705756,11
127,0,711949,248970,1473140,74528,11922,736371,11
127,0,711100,248230,1392697,74233,9632,696342,11
127,0,713048,248710,1387454,74350,9534,693564,11
127,0,711060,248343,1593042,74185,11322,796528,11
127,0,711115,248044,1402013,74140,9738,700981,11
127,-1,639737,218935,1263702,65745,7315,631858,0
127,0,712598,248746,1323217,74371,8405,661525,11
127,0,713354,248030,1331905,74133,9386,665790,11
127,0,711398,248580,1336920,74262,10189,668249,11
127,0,709335,248465,1386741,74334,9597,693452,11
127,0,714083,249898,1316680,75140,9201,658402,11
127,0,711853,249221,1414868,74644,9666,707455,11
127,0,714306,249579,1343521,74951,9453,671706,11
127,0,709513,248487,1267125,74347,8097,633561,11
127,0,717910,251361,1324753,75667,9098,662122,11
127,0,709978,247929,1339598,74141,9050,669724,11
127,0,712432,248722,1434906,74420,9561,717258,11
127,0,712536,250200,1397311,75213,9578,698587,11
127,0,708334,247969,1463759,74090,9884,731838,11
127,0,708095,247703,1293060,74068,8793,646315,11
127,0,710941,248440,1299225,74327,8961,649507,11
127,0,709436,248000,1314069,74207,9197,657191,11
127,0,711907,248798,1351228,74381,9814,675586,11
127,0,715594,249514,1419696,74652,9293,709906,11
127,0,713965,248566,1392194,74409,9731,696156,11
127,0,714415,248564,1468249,74299,10051,734133,11
127,0,710306,248974,1422585,74440,10726,711313,11
127,0,712311,249213,1323335,74514,9532,661556,11
127,0,712110,248264,1434498,74150,10503,717211,11
127,0,712566,248187,1439770,74134,10030,719834,11
127,0,714620,250139,1350245,75079,8919,674851,11
127,0,713284,248596,1407263,74302,9725,703627,11
127,0,710679,248519,1412177,74290,9888,706051,11
127,0,715675,249886,1267330,74898,9106,633511,11
127,0,735237,253452,1464214,77713,11286,732203,11
127,0,712801,248220,1586196,74151,9669,793045,11
127,0,715201,248765,1440277,74241,9686,720176,11
127,0,714120,248388,1488979,74255,9238,744568,11
127,0,709881,248606,1537897,74301,9050,768854,11
127,0,708371,248718,1461434,74303,9011,730662,11
127,0,733531,253898,1532695,77824,10118,766266,11
127,0,710291,248978,1439126,74458,9055,719668,11
127,0,713342,249321,1416845,74562,8463,708460,11
127,0,731667,253007,1550584,77493,9929,775233,11
127,0,713236,248713,1494340,74289,8722,747247,11
127,0,712375,249487,1534627,74611,9532,767399,11
127,0,707771,248105,1416562,74099,9502,708338,11
127,0,712921,249820,1530520,74823,10847,765247,11
127,0,710029,248108,1566306,74147,10885,783325,11
127,0,730720,253296,1684652,77620,11325,842074,11
127,0,712203,248437,1495015,74233,9577,747509,11
127,0,712965,249155,1513512,74501,9242,756794,11
127,0,710930,247967,1407165,74091,9155,703622,11
127,0,714749,248854,1448343,74388,9641,724205,11
127,0,706855,247535,1341395,73868,9375,670722,11
127,0,710958,248777,1495270,74281,8655,747717,11
127,0,711385,248534,1280470,74195,8360,640285,11
127,0,735473,253841,1434849,77676,9304,717417,11
127,0,712955,249655,1438381,74525,9463,719210,11
127,0,713913,249284,1282027,74368,8607,641066,11
127,0,740824,254740,1444487,78490,10221,722338,11
127,0,735494,253630,1450479,77535,10164,725284,11
127,0,718600,250686,1329623,75059,9385,664929,11
127,0,715107,249418,1301872,74315,8520,650967,11
127,0,713633,248477,1300757,74104,9234,650412,11
127,0,717936,249200,1305452,74310,9211,652758,11
127,0,708881,247901,1229048,73849,8476,614565,11
127,0,732363,253178,1434195,77413,9382,717139,11
127,0,711289,249393,1419736,74398,8181,709961,11
127,0,710548,248245,1371060,74017,8854,685604,11
127,0,713826,249376,1288513,74356,8503,644300,11
127,0,717809,250769,1291757,75106,8655,645794,11
127,0,713125,248530,1454593,74098,8796,727412,11
127,0,715457,249811,1316272,74786,8418,658135,11
127,0,715195,249648,1324660,74798,8545,662436,11
127,0,712765,248152,1316378,73992,8591,658089,11
127,0,708025,247680,1355056,73836,8904,677616,11
127,0,710552,248602,1374254,74141,8028,687240,11
127,0,733878,252947,1500828,77447,8987,750455,11
127,0,716569,250578,1413724,75208,8510,706923,11
127,0,713469,248300,1386845,74098,9086,693476,11
127,0,711715,248639,1382592,74234,8976,691316,11
127,0,713578,249184,1334754,74600,8559,667499,11
127,0,712421,248211,1328315,74091,8726,664158,11
127,0,712036,247794,1288901,73911,8374,644465,11
127,0,719471,249739,1350383,74763,9221,675252,11
127,0,707904,247674,1377502,73937,8894,688845,11
127,0,712414,247989,1422935,73979,8354,711531,11
127,0,716572,249636,1408849,74579,9717,704491,11
127,0,716799,249498,1367252,74697,8884,683706,11
127,0,713735,248306,1361292,74134,9245,680690,11
127,0,714687,248125,1365913,74010,9274,683021,11
127,0,715307,248451,1241574,74193,8431,620825,11
127,0,714789,248994,1373753,74374,9331,686886,11
127,0,715575,249224,1422549,74576,8943,710791,11
127,0,712956,247949,1431200,74039,8661,715604,11
127,0,706459,247744,1474329,73950,9202,737031,11
127,0,708832,248356,1423158,74117,9000,711617,11
127,0,707619,248134,1356021,74086,8935,678062,11
127,0,713682,249366,1317793,74683,9004,658969,11
127,0,709176,248214,1379607,74121,8696,689843,11
127,0,710721,248356,1394342,74152,8972,697217,11
127,0,713286,250360,1292217,75076,9065,646221,11
127,0,711868,248629,1445182,74237,9207,722685,11
127,0,711886,248565,1335723,74222,9416,667747,11
127,0,734347,253199,1452112,77502,10453,726099,11
127,0,712146,247887,1398324,73961,9770,699203,11
127,0,712042,248176,1410855,74087,9319,705482,11
127,0,706109,248093,1341741,74050,8940,670967,11
127,0,708416,247961,1391421,73964,8904,695799,11
127,0,730044,252907,1453482,77438,9937,726818,11
127,0,713006,249306,1393020,74645,9382,695704,11
127,0,708244,248191,1372044,74104,8938,686013,11
127,0,709914,248520,1313401,74219,8957,656737,11
127,0,709292,247660,1260470,73886,8428,630257,11
127,0,711479,247841,1420769,73856,8764,710439,11
127,0,711797,248584,1306029,74254,8255,653093,11
127,0,736194,253774,1429278,77688,9552,714652,11
127,0,711708,248476,1383013,74225,8848,691549,11
127,0,714768,248751,1396632,74072,9325,698237,11
127,0,719031,250247,1324874,74925,9287,662439,11
127,0,714797,248636,1360334,74142,9198,680251,11
127,0,715247,247867,1369728,73949,8690,684963,11
127,0,714593,250646,1358080,75002,8878,679107,11
127,0,710622,248793,1389592,74220,9433,694845,11
127,0,713381,249471,1293068,74560,8659,646519,11
127,0,713188,248570,1373702,74202,8761,686887,11
127,0,716350,249463,1306744,74516,8265,653421,11
127,0,712506,248337,1426109,74223,9242,712993,11
127,0,712428,248511,1367861,74311,8861,684052,11
127,0,715793,249532,1299405,74743,8380,649756,11
127,0,712535,248456,1331522,74203,8418,665831,11
127,0,713093,248107,1381328,74155,8932,690756,11
127,0,714713,248057,1409134,74084,9470,704611,11
127,0,711878,248869,1302724,74412,8185,651283,11
127,0,731752,252501,1425348,77349,9574,712742,11
127,0,714237,248097,1407492,74087,8780,703503,11
127,0,718510,249728,1346200,74956,8745,673160,11
127,0,713780,248245,1247203,74186,8277,623646,11
127,0,715337,248563,1551073,74305,10101,774817,11
127,0,714060,247902,1337901,73942,8945,669002,11
127,0,716234,248598,1401061,74268,8620,700564,11
127,0,716551,248740,1427628,74209,11162,713443,11
127,0,738885,253253,1447085,77485,10133,723631,11
127,0,716507,248320,1376281,74048,9561,688174,11
127,0,721139,249745,1418498,74723,8958,709379,11
127,0,708517,248170,1369100,74049,9289,684578,11
127,0,713131,249299,1411864,74416,9374,705843,11
127,0,734709,254159,1499291,77774,11185,749542,11
127,0,712850,248645,1464459,74147,9056,732194,11
127,0,712858,248895,1480581,74302,9455,740545,11
127,0,710038,247882,1260206,73944,9094,629801,11
127,0,714399,249588,1328265,74867,8937,664031,11
127,0,709900,247441,1353393,73841,9070,676548,11
127,0,712471,247952,1404558,73980,9749,702556,11
127,0,713661,248016,1435362,73952,9941,717210,11
127,0,710018,248597,1549445,74154,10048,774722,11
127,0,712242,248050,1428611,73914,9906,714022,11
127,0,712386,248782,1478070,74452,10854,738893,11
127,0,711808,248061,1404668,74006,10094,702673,11
127,0,710931,247862,1509287,73877,11208,754683,11
127,0,709975,247712,1442595,73830,10157,721289,11
127,0,711462,247529,1305023,73788,9977,651877,11
127,0,718540,250481,1470714,75054,10276,735300,11
127,0,711651,248176,1521652,73957,10078,761280,11
127,0,732592,252216,1536059,77076,10950,768106,11
127,0,718052,250528,1567255,75080,11353,783518,11
127,-1,660418,222355,1225628,68605,8143,612893,0
127,0,718657,249962,1521276,74875,10237,760607,11
127,0,714597,248035,1409792,73955,9115,704901,11
127,0,715874,248697,1520566,74214,10378,760300,11
127,0,710524,247713,1413594,73834,9413,706842,11
127,0,714047,248745,1367489,74514,9179,683721,11
127,0,710173,247399,1466659,73714,10296,733147,11
127,0,714435,249385,1612022,74597,10396,806043,11
127,0,713316,247842,1615958,73865,10929,808005,11
127,0,733818,252988,1639583,77375,10590,819715,11
127,0,713722,248029,1591598,73965,10330,795277,11
127,0,710952,248428,1580673,74311,10472,790251,11
127,0,711182,247817,1736281,73964,10472,868264,11
127,0,709839,247362,1396858,73772,11242,698069,11
127,0,712512,247440,1534511,73825,9895,767325,11
127,0,707425,246880,1433303,73685,9700,716663,11
127,0,709286,247263,1483591,73847,9766,741829,11
127,0,711955,247356,1580882,73980,10548,790377,11
127,0,711251,248147,1430022,74195,9881,715023,11
127,0,714962,248668,1572956,74619,11350,786281,11
127,0,710002,247335,1505108,73998,11048,752893,11
127,0,713554,247291,1410104,73985,11982,704868,11
127,0,715857,248786,1616202,74657,11556,807471,11
127,0,717778,249812,1777930,75085,11099,888589,11
127,0,709986,246593,1480931,73772,10580,740175,11
127,0,714277,247804,1477504,74187,10880,738357,11
127,0,717871,249853,1588073,75043,10790,794277,11
127,0,713007,247425,1488727,74013,10175,744309,11
127,0,713199,247301,1402804,74021,9691,701203,11
127,0,735153,251537,1614310,77201,11513,807000,11
127,0,722647,250018,1585450,75248,10635,792791,11
127,0,702605,247092,1493523,73893,9153,746731,11
127,0,724808,252023,1618206,77338,11080,808722,11
127,0,704014,247248,1692161,73941,10815,845910,11
127,0,704614,247724,1660072,74190,10553,830136,11
127,0,708711,248545,1522733,74620,11695,761212,11
127,0,706091,247054,1475354,73880,11145,737615,11
127,0,706670,247229,1444668,73990,11304,722352,11
127,0,705815,247438,1504284,74053,11343,752177,11
127,0,704366,247356,1408557,74050,9979,703988,11
127,0,707170,247455,1378434,74041,9646,688812,11
127,0,707166,246427,1507327,73704,9218,753781,11
127,0,706699,247405,1378552,74055,9287,689281,11
127,0,705480,246603,1523149,73754,9215,760346,11
127,0,705413,247152,1357681,73942,9453,678910,11
127,0,729634,251746,1496797,77277,9852,748460,11
127,0,704336,247140,1370645,73924,8537,685425,11
127,0,705577,247132,1339447,73924,9216,669719,11
127,0,712672,249891,1432678,75115,10225,716162,11
127,0,707816,247786,1496688,74190,9187,747901,11
127,0,706051,246535,1459871,73665,9715,729654,11
127,0,725794,251932,1442175,77318,10421,720795,11
127,0,704461,246583,1333651,73760,8956,666364,11
127,0,706789,247051,1394174,73947,9398,696867,11
127,0,713959,249518,1559939,74960,10928,779615,11
127,0,706209,247705,1502255,74166,10261,751028,11
127,0,730934,252478,1551024,77482,10105,775495,11
127,0,709354,247019,1298138,73705,8506,649153,11
127,0,705919,247075,1297598,73782,9020,648790,11
127,0,728082,252184,1338971,77315,9354,669478,11
127,0,711434,248680,1397947,74547,8831,699035,11
127,0,707210,246946,1324799,73747,8650,662443,11
127,0,727931,252011,1409131,77258,9245,704674,11
127,0,706891,247217,1263999,73829,8383,632019,11
127,0,737101,256996,1595469,76736,10856,797733,11
