0,-1,688894,237448,1338739,70836,7225,668847,2
0,2,762968,267947,1508373,79406,9130,753322,0
0,-1,691370,237274,1305796,70758,6187,652325,0
0,-1,694327,237421,1244930,70804,8520,621908,0
0,-1,691285,237342,1258333,70745,6979,628618,0
0,-1,695503,238691,1355064,71406,7727,676757,0
0,-1,639788,219643,1179643,65909,6696,589284,0
0,-1,636778,219170,1267630,65751,8404,633156,0
0,-1,637610,218563,1140339,65577,7560,569637,0
0,-1,638786,218509,1175161,65537,7388,587149,0
0,-1,655010,223233,1230350,68825,8549,614659,0
0,-1,635505,218273,1296067,65594,7677,647570,0
0,-1,638500,219625,1291244,66264,7236,644896,0
0,-1,633870,218627,1194387,65731,7165,596646,0
0,2,708738,249090,1430242,74246,8864,714217,0
0,-1,634679,218090,1219881,65547,6696,609468,0
0,-1,645840,221111,1311126,66774,7903,654826,0
0,-1,636021,218603,1284292,65676,7618,641833,0
0,-1,641938,220760,1208386,66696,8251,603330,0
0,-1,642658,220179,1309043,66517,7631,653300,0
0,-1,644507,221537,1335713,66767,7569,667203,0
0,-1,645180,220748,1302095,66656,7894,650521,0
0,-1,647247,221925,1348215,67119,8307,673111,0
0,-1,642995,219180,1345110,65806,7526,672102,0
0,-1,638797,219556,1314942,65865,7091,657025,0
0,-1,645348,221304,1305281,66715,7871,651911,0
0,2,713853,250575,1396978,74858,8971,697839,0
0,-1,642081,219558,1295633,65891,7801,647404,0
0,-1,637377,218871,1211676,65715,7230,605357,0
0,-1,646159,221744,1281789,66956,7151,640117,0
0,-1,641674,219417,1269317,66051,6899,634131,0
0,-1,658601,223366,1151286,69163,7664,575174,0
0,-1,640454,218778,1294874,65846,7451,647014,0
0,-1,662495,223315,1218961,69084,7856,609015,0
0,-1,641096,219049,1247647,65988,7335,623305,0
0,-1,645233,219850,1253431,66217,7954,626228,0
0,-1,644853,219009,1171733,65984,7137,585408,0
0,-1,639685,220750,1288258,66698,7266,643445,0
0,2,710083,249645,1298526,74403,8384,648822,0
0,-1,658769,223352,1211134,69157,8268,605133,0
0,-1,640188,220273,1433551,66559,8171,716083,0
0,-1,636702,219034,1276795,65905,7535,637745,0
0,-1,638703,219494,1176380,66124,6862,587667,0
0,-1,638474,219293,1235370,66003,7639,617265,0
0,-1,638261,220142,1319700,66471,7618,659173,0
0,-1,642069,221118,1372370,66852,7942,685247,0
0,-1,638376,219966,1308061,66143,7434,653454,0
0,-1,645266,221591,1306040,67017,7603,652030,0
0,-1,638558,219198,1221061,65928,7667,610081,0
0,2,706631,249245,1412575,74192,8173,705831,0
0,-1,636201,219197,1266565,65925,7130,632791,0
0,-1,641440,220743,1290013,66655,7243,644482,0
0,-1,635898,219075,1238193,65851,6911,618612,0
0,-1,638827,219058,1200410,65832,7616,599764,0
0,-1,641956,219610,1439652,66041,8093,719386,0
0,-1,640123,220499,1143376,66344,6950,571171,0
0,-1,641590,219339,1137973,65975,7024,568558,0
0,2,730115,253168,1310648,77253,9381,654747,0
0,-1,638642,219070,1204817,65807,6969,601960,0
0,-1,658625,223789,1350022,69222,7816,674576,0
0,-1,645092,220866,1263427,66672,7335,631028,0
0,-1,641839,219222,1262831,65885,6852,630972,0
0,-1,636394,219649,1151651,66037,7174,575395,0
0,-1,665800,228702,1306197,68760,6898,652600,0
0,2,706450,248456,1297921,73917,8386,648416,0
0,-1,638261,219762,1176884,66093,6399,588013,0
0,-1,638661,219787,1284439,66087,6875,641829,0
0,-1,660604,223430,1303134,69069,7370,651180,0
0,-1,642758,220572,1257394,66569,8468,627938,0
0,-1,635475,218976,1265082,65815,7546,632138,0
0,-1,639783,219809,1288331,66146,6949,643656,0
0,-1,640516,219266,1332207,65836,8116,665662,0
0,-1,658406,223885,1348389,69246,8104,673411,0
0,-1,641288,219788,1350330,66046,7483,674500,0
0,-1,660927,223574,1212940,69081,7683,605966,0
0,-1,642688,219278,1244068,65898,7231,621485,0
0,2,730649,253400,1344940,77274,8945,672160,0
0,-1,636999,218756,1212781,65709,6824,605994,0
0,-1,637864,219180,1290770,65829,6969,644906,0
0,-1,637001,218806,1294189,65752,6963,646544,0
0,-1,636956,218699,1140713,65619,7175,569994,0
0,-1,641886,219187,1239061,65956,7466,619080,0
0,2,735934,254689,1440674,77583,10636,719667,0
0,-1,638298,219276,1168514,65748,7131,583851,0
0,-1,639079,219110,1239687,65688,7411,619373,0
0,-1,642600,219518,1228682,66021,7077,613775,0
0,-1,646097,220589,1343280,66293,7983,670993,0
0,-1,667007,224944,1251648,69500,8650,625436,0
0,-1,643831,219527,1298036,66006,8535,648556,0
0,2,712248,250011,1496144,74203,9664,747483,0
0,-1,645738,220103,1213084,65969,7670,605826,0
0,-1,648833,221094,1257249,66329,9139,627904,0
0,-1,646834,222427,1355739,66970,9314,676738,0
0,-1,639339,219647,1157147,65801,7395,577869,0
0,-1,643468,220108,1290432,65921,8049,644752,0
0,-1,639420,219385,1358005,65828,8190,678521,0
0,-1,642410,220316,1210372,66116,8089,604739,0
0,-1,647174,221495,1304472,66785,8446,651569,0
0,-1,642215,220224,1359789,66101,8112,679283,0
0,-1,639646,219397,1143959,65917,7554,571374,0
0,-1,664826,224634,1376317,69397,8148,687767,0
0,2,714481,250509,1391155,74781,9542,694808,0
0,-1,645124,221668,1380902,66994,8857,689496,0
0,-1,639230,218552,1147225,65494,7764,573211,0
0,-1,663107,224441,1190833,69323,8747,594974,0
0,-1,656982,223736,1421393,69160,8887,710180,0
0,-1,636750,219074,1210597,65858,7567,604677,0
0,-1,644293,221257,1282516,66733,8271,640431,0
0,-1,661773,223759,1286696,69075,8881,642725,0
0,-1,644493,219807,1293424,66058,8955,646106,0
0,-1,642944,218863,1167728,65754,8093,583442,0
0,-1,640793,219269,1273865,65792,7942,636418,0
0,2,709778,248123,1482058,73602,9984,740687,0
0,-1,646733,220581,1295444,66489,8425,646888,0
0,-1,643824,219647,1268961,65836,6980,633914,0
0,-1,643213,219969,1282693,65993,8828,640784,0
0,-1,644971,219971,1172866,65929,7520,585745,0
0,2,710439,247828,1400795,73508,9316,699845,0
0,-1,643315,219407,1208478,65680,7775,603649,0
0,-1,660761,224417,1203908,69005,8530,601110,0
0,-1,642808,220558,1199490,66101,7120,599222,0
0,-1,640597,219383,1204333,65711,7723,601797,0
0,-1,658821,223419,1234822,68919,8006,616944,0
0,-1,644914,221022,1341650,66543,7469,669979,0
0,2,715423,250456,1329969,74600,8449,664186,0
0,-1,661484,223437,1238480,68914,8530,618711,0
0,-1,647143,220518,1201696,66200,7339,600258,0
0,-1,638815,219139,1296837,65757,8014,647904,0
0,-1,643769,220317,1267267,66406,7982,633078,0
0,-1,640646,219257,1342120,65720,7873,670555,0
0,-1,661490,223081,1205771,68780,8706,602198,0
0,2,709239,250335,1316541,74115,8296,657379,0
0,-1,664677,223817,1275436,69052,8584,637184,0
0,-1,638596,218807,1248312,65604,7412,623370,0
0,-1,638279,218957,1193802,65597,6621,596474,0
0,-1,642826,219449,1357344,65869,7621,678275,0
0,-1,647203,221323,1211923,66660,7448,604912,0
0,-1,643139,220672,1237647,66409,6919,618028,0
0,2,727825,252535,1455076,76491,9972,727013,0
0,-1,638790,217710,1268492,65306,7378,633688,0
0,-1,638716,218756,1172939,65577,7869,585958,0
0,-1,646743,219888,1230359,66184,7534,614431,0
0,-1,642844,218927,1365623,65632,7644,682237,0
0,-1,662542,223642,1317567,68983,8229,658434,0
0,-1,648185,220402,1184667,66341,7804,591728,0
0,-1,646036,219752,1215702,65804,5650,607217,0
0,-1,631220,218281,1244487,64883,7233,621795,0
0,2,708124,248242,1417822,74073,10355,708414,0
0,-1,633932,218696,1175756,65076,7288,587356,0
0,-1,635497,219027,1371936,65223,7603,685845,0
0,-1,639839,220405,1291051,65860,7586,644929,0
0,-1,634283,218364,1278011,64959,7418,638580,0
0,-1,636870,218581,1371570,65076,7516,685094,0
0,-1,635557,218952,1281712,65291,8073,640391,0
0,-1,640176,220502,1249340,66003,7820,623532,0
0,-1,638961,219119,1341202,66098,8783,670006,0
0,-1,638619,218856,1184874,66149,7778,591992,0
0,-1,638478,218625,1308052,66101,8664,653387,0
0,-1,639272,218076,1131982,65858,7880,565495,0
0,2,714944,249894,1325945,74946,8440,662101,0
0,-1,640055,219979,1678067,66526,9510,838404,0
0,-1,636964,218914,1306864,66178,8388,652908,0
0,-1,644548,220527,1242965,66873,7618,620434,0
0,-1,637963,218757,1269761,66029,7875,634309,0
0,-1,638977,219320,1282611,66294,7760,640885,0
0,-1,643417,219322,1187859,66293,7927,593408,0
0,-1,659298,223304,1300119,69348,8830,649635,0
0,-1,647119,221943,1263394,67489,7526,630822,0
0,-1,640265,218905,1143297,66197,7200,571043,0
0,-1,639767,219188,1245705,66277,7947,622437,0
0,2,714760,249157,1316322,74329,8964,657531,0
0,-1,643041,219193,1385716,66275,7739,692318,0
0,-1,643305,219436,1263075,66293,7928,630879,0
0,-1,638310,219773,1292264,66470,8528,645530,0
0,-1,642435,220717,1217267,67028,7701,607668,0
0,-1,638877,219031,1176861,66169,7242,587915,0
0,-1,638435,218481,1287074,66011,8213,643118,0
0,2,717211,249210,1348550,74350,8922,673684,0
0,-1,638446,219172,1246900,66233,7417,622814,0
0,-1,638938,218632,1201196,66057,8046,600131,0
0,-1,641268,219022,1271255,66199,7619,635123,0
0,-1,639888,220129,1377169,66560,8444,687982,0
0,2,713670,249558,1281445,74579,8566,640164,0
0,-1,638500,218987,1189676,66161,7064,594376,0
0,-1,638880,218972,1280492,66180,7567,639691,0
0,-1,642257,219783,1170455,66680,7699,584541,0
0,-1,642888,219329,1243722,66249,7223,621349,0
0,-1,663862,223393,1296806,69429,8804,647867,0
0,-1,644162,219271,1309128,66348,7793,654016,0
0,-1,640022,219260,1253782,66267,8191,626129,0
0,2,713508,250476,1305159,75093,8327,651830,0
0,-1,646807,221447,1266158,67281,8137,631691,0
0,-1,643405,218791,1169453,66016,8134,584231,0
0,-1,662055,223502,1325664,69332,8363,662241,0
0,-1,662659,223377,1349268,69437,9023,674248,0
0,-1,642579,218774,1292790,65923,8186,645835,0
0,-1,641903,219529,1155742,66232,6694,577403,0
0,-1,663721,224013,1319620,69512,8455,659304,0
0,-1,644112,218931,1263771,66043,7433,631410,0
0,-1,645697,220486,1271672,66818,7765,635169,0
0,2,712492,248733,1385768,74215,9033,692426,0
0,-1,643332,218697,1309110,65932,7356,653936,0
0,-1,645274,219585,1192274,66236,7835,595433,0
0,-1,656407,223232,1376588,69266,8892,687825,0
0,-1,660979,224177,1401793,69510,10168,700498,0
0,-1,644086,221050,1132432,67179,7810,565175,0
0,2,711770,249076,1423114,74399,8440,710863,0
0,-1,671857,231063,1231765,70154,7396,614980,0
0,-1,646168,220608,1187672,66745,7485,593282,0
0,-1,651331,221946,1192731,67560,7126,595551,0
0,-1,644156,220360,1270924,66759,7012,635016,0
0,-1,642495,219959,1145092,66542,7327,572105,0
0,2,713489,248734,1513702,74156,9287,756410,0
0,-1,647202,221135,1199229,67100,7864,598878,0
0,-1,645077,220053,1291141,66558,8022,645192,0
0,-1,646371,221068,1250715,66891,7709,624857,0
0,-1,645418,219889,1327940,66492,8229,663442,0
0,-1,640691,219632,1277607,66363,7659,638227,0
0,-1,643474,220812,1344000,66928,8135,671248,0
0,-1,666332,225112,1476074,69954,9585,737539,0
0,-1,641751,219305,1377317,66125,7961,687904,0
0,-1,646154,220447,1360934,66473,8734,679873,0
0,2,714124,248097,1310456,74228,9012,654691,0
0,-1,650526,221337,1351038,66947,9052,675311,0
0,-1,642912,219414,1261782,66179,7881,630388,0
0,2,709556,249769,1421094,75012,9441,709750,0
0,-1,647119,220915,1282124,66895,6897,640388,0
0,-1,642049,219654,1171205,66285,7056,585123,0
0,-1,644532,219539,1271221,66271,8408,635062,0
0,-1,647505,220037,1206605,66472,7364,602797,0
0,-1,641637,218816,1318226,66020,7352,658415,0
0,-1,640674,220273,1142739,66687,7617,570487,0
0,2,710762,248701,1657211,74437,11549,827567,0
0,-1,642167,220095,1293131,66497,7309,646009,0
0,-1,644751,219624,1269533,66268,8619,634269,0
1,-1,693043,237439,1257365,70783,7974,628172,0
1,-1,692772,237562,1245459,70910,7331,622203,2
1,-1,687141,236744,1305884,70541,6891,652485,0
1,-1,716397,243031,1367094,74293,8813,682995,0
1,-1,637027,218265,1166544,65445,6881,582832,0
1,-1,640453,218609,1303254,65609,9087,650924,0
1,-1,640837,219186,1209125,65809,7524,603976,0
1,-1,661388,223587,1346463,69041,8876,672715,0
1,-1,636294,220678,1275330,66430,7260,636869,0
1,-1,638061,219215,1213528,65938,7297,606140,0
1,-1,636912,218213,1370835,65559,7478,684863,0
1,-1,642032,219466,1193717,66178,7362,596078,0
1,2,713056,250971,1429142,74986,8664,713629,0
1,-1,636191,218022,1181605,65447,7063,590315,0
1,-1,638170,218946,1154945,65848,7470,576811,0
1,-1,635288,218536,1309942,65704,7727,654518,0
1,-1,656582,222908,1203701,68876,8232,601152,0
1,-1,658742,223223,1288036,69018,8189,643544,0
1,-1,636633,217957,1216365,65530,6886,607687,0
1,-1,641329,219569,1207213,66081,7030,603076,0
1,-1,662682,223823,1262744,69197,8258,630832,0
1,-1,641575,218929,1191332,65665,7033,595237,0
1,-1,644983,221346,1380395,66660,8438,689550,0
1,2,710164,248547,1289589,73831,8897,644327,0
1,-1,661992,224527,1245082,69264,7783,622017,0
1,-1,661062,223806,1239554,69049,8090,619265,0
1,-1,644257,221214,1302681,66684,7508,650644,0
1,-1,661220,223943,1234297,69193,7630,616679,0
1,-1,640705,219038,1160943,65878,6714,580080,0
1,-1,638451,218950,1146956,65909,6536,573086,0
1,-1,639457,218898,1212949,65880,7170,606057,0
1,-1,641416,219223,1300129,66028,7492,649604,0
1,-1,645540,219862,1273737,66368,7947,636114,0
1,-1,642462,219216,1224496,65967,7685,611930,0
1,-1,649825,221245,1199589,66945,7663,599030,0
1,2,707162,248581,1411162,74070,8430,705106,0
1,-1,634294,218654,1228391,65802,6881,613804,0
1,-1,637469,219125,1276289,66001,7478,637714,0
1,-1,634368,218699,1282798,65799,7279,640904,0
1,-1,635323,219330,1324777,66059,7382,662070,0
1,-1,635760,218566,1270541,65769,7226,634866,0
1,-1,641316,220668,1290122,66673,7865,644355,0
1,-1,636292,219605,1180698,66147,6716,589827,0
1,-1,638589,219633,1254911,66104,7163,626889,0
1,-1,641291,219965,1293158,66373,7821,645841,0
1,-1,660038,223834,1282678,69226,8336,640954,0
1,-1,641794,220316,1163780,66270,7947,581487,0
1,2,710711,249313,1359221,74103,8597,679163,0
1,-1,640911,221275,1294273,66766,7465,646492,0
1,-1,636170,218971,1246477,65798,7033,622739,0
1,-1,642874,220895,1289999,66649,7622,644360,0
1,-1,642844,220460,1194219,66299,7788,596618,0
1,-1,642404,220335,1359799,66426,8113,678564,0
1,-1,636430,218824,1117243,65767,7048,558176,0
1,2,710881,249104,1431972,74134,8396,715436,0
1,-1,643598,220581,1214327,66560,7288,606436,0
1,-1,662989,223928,1222974,69251,7590,611044,0
1,-1,638416,219137,1267232,65864,6977,633125,0
1,-1,640899,219101,1186002,65908,7247,592427,0
1,-1,639934,219125,1174489,65877,6692,586727,0
1,-1,643056,219398,1189188,65937,7163,594250,0
1,2,728973,253581,1375824,77381,9650,687531,0
1,-1,639127,219460,1235651,65951,6461,617470,0
1,-1,637003,219316,1290069,65917,6690,644636,0
1,-1,637073,219583,1221665,66060,6158,610310,0
1,-1,639908,219265,1219189,65937,7035,609264,0
1,-1,638416,219372,1221443,65975,7214,610155,0
1,-1,640139,220092,1262898,66234,7546,631048,0
1,-1,639721,219571,1197173,66046,7598,598158,0
1,-1,640193,219451,1252199,66013,7747,625365,0
1,-1,641390,218986,1276066,65829,8141,637640,0
1,2,707681,248458,1472694,73864,8372,735909,0
1,-1,640931,219675,1347983,66000,7594,673698,0
1,-1,642291,219858,1353290,66144,7350,676203,0
1,-1,647123,220866,1288199,66647,8234,643445,0
1,-1,644859,221595,1225640,67032,7824,611955,0
1,-1,643447,220539,1226338,66322,6792,612681,0
1,-1,642856,219758,1390588,66110,7449,694814,0
1,-1,639373,219570,1177333,66046,7300,588106,0
1,-1,643063,219639,1381901,66021,8158,690503,0
1,2,715188,249501,1457980,74347,9723,728028,0
1,-1,644499,220094,1287089,66005,7040,643097,0
1,-1,659298,223585,1227524,68928,7867,613166,0
1,-1,641380,219135,1253756,65851,7203,626540,0
1,-1,644708,220140,1249670,66074,8053,624363,0
1,-1,648229,220901,1246027,66453,7726,622591,0
1,2,716489,251349,1410371,75032,9709,704489,0
1,-1,644816,220008,1402546,66188,8314,700747,0
1,-1,649915,222084,1331194,66839,8651,665015,0
1,-1,646494,220299,1191955,66018,8208,595327,0
1,-1,640573,220636,1316647,66153,9026,657803,0
1,-1,645847,222024,1223630,66850,8205,610967,0
1,-1,647745,222246,1288737,66986,8108,643668,0
1,-1,663629,225328,1272273,69578,8877,635432,0
1,-1,641344,220183,1143072,66181,7495,571069,0
1,-1,642219,219996,1235379,66137,8069,617210,0
1,-1,648261,222997,1328084,67297,8482,663266,0
1,-1,640553,220034,1211996,66062,8161,605505,0
1,-1,642510,219826,1379069,66048,8571,688855,0
1,2,737085,253927,1369520,77443,9938,684339,0
1,-1,638015,219241,1289293,65801,8613,644108,0
1,-1,641148,219288,1243199,65824,8407,621069,0
1,-1,641169,218946,1195998,65743,7686,597484,0
1,-1,647591,220861,1284778,66620,8160,641802,0
1,-1,660702,223954,1240608,69219,8513,619761,0
1,-1,662296,224405,1182058,69250,8345,590614,0
1,-1,639998,218514,1463122,65518,8924,731092,0
1,-1,641093,218893,1356409,65699,9588,677714,0
1,-1,641617,218973,1327533,65825,8595,663260,0
1,2,712350,248826,1452616,73898,10274,725675,0
1,-1,640568,219091,1291373,65679,8457,645344,0
1,-1,642512,219505,1322116,65860,8618,660595,0
1,-1,660758,223462,1299985,68945,8644,649434,0
1,-1,645753,221359,1257080,66633,8501,627561,0
1,-1,641539,219125,1291645,65563,8073,645307,0
1,2,711213,248825,1492616,73864,9709,745867,0
1,-1,643287,219370,1339135,65589,8324,669011,0
1,-1,639558,219724,1182590,65726,7614,590860,0
1,-1,639735,219263,1292675,65661,8198,645852,0
1,-1,640145,219371,1322348,65675,8323,660723,0
1,-1,638074,219213,1274722,65772,7587,636751,0
1,-1,638093,218649,1256071,65535,6933,627450,0
1,2,709596,248830,1234576,73888,8837,616599,0
1,-1,636965,218010,1252766,65296,7264,626019,0
1,-1,641803,218474,1314744,65484,8723,656915,0
1,-1,639422,219049,1286588,65701,7984,642796,0
1,-1,639457,219144,1270048,65740,7870,634479,0
1,-1,642131,218943,1324039,65671,8013,661545,0
1,-1,642180,218965,1279358,65688,7493,639201,0
1,2,702307,248451,1394098,73306,9314,696552,0
1,-1,642336,218970,1171822,65630,7884,585487,0
1,-1,642266,220596,1271056,66396,8023,634778,0
1,-1,641171,218908,1293687,65672,7869,646103,0
1,-1,640576,218986,1279691,65661,7498,639336,0
1,-1,661852,223752,1302867,69015,7881,650754,0
1,2,704579,248990,1418346,73444,9501,708618,0
1,-1,643434,219103,1298874,65619,7963,648944,0
1,-1,640933,218601,1318663,65560,7851,658824,0
1,-1,665774,223413,1230134,68875,8322,614396,0
1,-1,662974,223650,1294956,68935,8303,646949,0
1,-1,661561,223779,1294925,69077,7576,646970,0
1,-1,641107,218179,1218667,65434,7015,608843,0
1,-1,642745,218952,1236591,65681,7121,617792,0
1,2,708919,248049,1447764,74063,9516,723482,0
1,-1,646728,219044,1315503,65595,6679,657226,0
1,-1,633534,218717,1290167,65123,6625,644471,0
1,-1,634646,219316,1123734,65325,7164,561355,0
1,-1,637592,219552,1342409,65386,7951,670670,0
1,-1,634382,218861,1216981,65194,8370,608161,0
1,-1,636339,219105,1552599,65254,8020,775605,0
1,-1,639438,219907,1454284,65551,7751,726660,0
1,-1,634999,218652,1160361,65220,7807,579714,0
1,-1,643444,221602,1199828,66531,7965,598887,0
1,-1,657326,223917,1338453,68671,8706,668888,0
1,-1,640294,219499,1315488,66289,7816,657143,0
1,2,716198,250658,1340503,75264,8805,669320,0
1,-1,646052,220736,1517601,66967,10388,757509,0
1,-1,637896,218152,1189555,65922,8642,594296,0
1,-1,635643,218005,1268092,65814,8187,633610,0
1,-1,638596,218467,1289588,65973,8419,644316,0
1,-1,638700,218691,1180886,66040,7777,589778,0
1,-1,637971,219191,1187983,66166,7753,593420,0
1,-1,639248,219680,1181747,66508,7150,590155,0
1,-1,639958,218730,1185312,66051,7588,592213,0
1,2,706634,248079,1333467,74076,9676,666275,0
1,-1,637578,218803,1255760,66120,7679,627336,0
1,-1,636172,218077,1310410,65802,7902,654699,0
1,-1,639768,218607,1307316,66010,8446,653236,0
1,-1,640229,218953,1201470,66131,7340,600187,0
1,-1,640223,218133,1268375,65817,7813,633607,0
1,-1,643959,219807,1169972,66672,7649,584118,0
1,-1,637956,219795,1193972,66629,8033,596194,0
1,-1,660382,223963,1323788,69625,9484,661458,0
1,-1,636797,218660,1118186,66080,7077,558539,0
1,2,714239,248773,1382684,74255,9889,690804,0
1,-1,641299,218864,1189565,66218,7833,594291,0
1,-1,639323,219224,1270916,66235,8297,634851,0
1,-1,637357,218524,1217389,66016,7284,608192,0
1,-1,638076,218393,1247427,65936,7355,623128,0
1,-1,638468,220106,1201207,66764,7956,599853,0
1,2,713776,248843,1424733,74345,9244,711845,0
1,-1,643947,220841,1148578,67082,7640,573489,0
1,-1,637437,218694,1269241,66098,8511,634104,0
1,-1,638712,218767,1296304,66140,7716,647530,0
1,-1,639924,218630,1349234,66117,7695,674045,0
1,-1,643753,220254,1154640,66748,7186,576567,0
1,-1,647438,220488,1213069,66963,7562,605478,0
1,2,712890,248725,1383110,74298,8741,690978,0
1,-1,643092,220805,1247237,66962,8413,622678,0
1,-1,660414,223165,1421202,69329,8975,710077,0
1,-1,645182,219832,1227132,66367,8749,612967,0
1,-1,639126,218803,1267388,66031,7447,633128,0
1,-1,639978,218220,1365557,65883,7498,682245,0
1,-1,663415,223364,1452950,69394,8449,725909,0
1,-1,639055,218855,1247156,65966,7106,623155,0
1,-1,642325,219907,1283199,66577,7915,640893,0
1,-1,645713,220002,1292352,66393,7772,645628,0
1,2,713438,249619,1297809,74514,8633,648447,0
1,-1,643290,219898,1204483,66359,7168,601705,0
1,-1,644007,219129,1257387,66063,7477,628188,0
1,-1,642984,218735,1190950,65901,8047,594924,0
1,-1,635721,218822,1276290,66037,8110,637580,0
1,-1,637793,218933,1462805,65979,8801,730891,0
1,-1,640169,219170,1134444,66204,7622,566664,0
1,2,711292,249491,1378683,74516,9264,688822,0
1,-1,640713,219761,1348921,66508,7388,674011,0
1,-1,647528,221234,1282327,67106,7718,640328,0
1,-1,667651,225074,1354993,70118,8674,676973,0
1,-1,640429,219633,1201430,66437,6796,600138,0
1,-1,646883,220703,1261169,66773,8272,629990,0
1,2,714872,249101,1423783,74415,9090,711378,0
1,-1,648082,220685,1331620,66747,8267,665309,0
1,-1,643463,219765,1324126,66397,7964,661747,0
1,-1,644725,220076,1274699,66493,7634,636919,0
1,-1,645043,219837,1328664,66412,7851,663834,0
1,-1,663649,224826,1339488,69880,8209,669318,0
1,-1,641390,220207,1228803,66533,8217,613790,0
1,-1,642288,219845,1436120,66423,7775,717376,0
1,-1,642902,220233,1339164,66478,7824,668734,0
1,2,711751,247599,1412135,73910,8919,705539,0
1,-1,646943,221166,1328844,66652,8625,663763,0
1,-1,646027,220176,1345230,66393,8479,671887,0
1,-1,645909,221023,1196732,66720,7145,597841,0
1,2,704990,248307,1355277,74337,8604,677069,0
1,-1,643403,219673,1394243,66334,7618,696561,0
1,-1,665872,223684,1322220,69361,9322,660592,0
1,-1,644760,219752,1204967,66325,8281,601942,0
1,-1,646040,219462,1274638,66242,7638,636848,0
1,2,708559,248250,1477165,74316,9015,737515,0
1,-1,651964,221448,1287840,67184,7948,642875,0
1,-1,640697,219923,1181844,66442,7898,590303,0
1,-1,661193,224300,1329812,69626,8697,664392,0
1,-1,648429,221527,1225413,67214,8130,611885,0
2,-1,689915,236723,1217875,70537,7470,608546,0
2,-1,692249,237544,1446651,70849,7744,722770,0
2,-1,692776,238535,1401486,71332,7170,699981,0
2,-1,637457,218819,1274429,65668,7205,636774,0
2,-1,638435,219105,1270802,65677,7515,634827,2
2,-1,660905,223454,1318416,68911,8913,658699,0
2,-1,638267,218446,1132629,65517,6806,565856,0
2,-1,640995,219084,1250194,65799,6598,624528,0
2,-1,643273,219276,1302269,65801,8064,650573,0
2,-1,634021,218524,1197720,65621,6668,598284,0
2,-1,637027,218641,1281831,65703,7329,640440,0
2,2,708158,248070,1316881,73799,8889,657771,0
2,-1,639499,218861,1166222,65835,7557,582592,0
2,-1,636775,218180,1282264,65546,7607,640627,0
2,-1,641661,220269,1240905,66447,8615,619704,0
2,-1,636363,218785,1206015,65794,7063,602638,0
2,-1,636934,218442,1192995,65599,8344,596075,0
2,-1,639087,218897,1295647,65860,7995,647323,0
2,-1,637456,218417,1223994,65631,6999,611407,0
2,-1,638402,218595,1222271,65655,6510,610704,0
2,-1,640591,219143,1213289,65892,7460,606061,0
2,-1,663066,223544,1252170,68920,8247,625641,0
2,2,712974,249421,1299685,74066,8958,649338,0
2,-1,638899,219468,1260141,65921,7778,629542,0
2,-1,640198,219388,1207444,65842,7381,603283,0
2,-1,643854,220573,1288071,66336,7770,643352,0
2,-1,639155,219305,1281866,65830,6726,640518,0
2,-1,640906,219586,1262176,66002,7215,630653,0
2,-1,645703,221349,1331659,66930,6849,665118,0
2,-1,639736,219163,1193143,65929,7319,596172,0
2,-1,661554,223690,1236371,69261,8180,617668,0
2,-1,644321,220612,1275502,66663,7523,637006,0
2,-1,639799,218528,1294919,65766,7774,647076,0
2,-1,642541,218702,1293412,65811,6735,646270,0
2,-1,645129,219057,1318494,65928,7539,658843,0
2,2,704400,247634,1285926,73774,7625,642345,0
2,-1,634931,219471,1245313,66101,6896,622207,0
2,-1,636952,219300,1253863,66001,7463,626489,0
2,-1,638302,219513,1234548,66108,7432,616865,0
2,-1,634679,219459,1246573,65978,6699,622930,0
2,-1,637980,219773,1269436,66209,6933,634319,0
2,-1,640165,219029,1342250,65905,7290,670766,0
2,-1,635191,219290,1310839,65987,7213,655010,0
2,-1,638570,219321,1367159,66040,7210,683120,0
2,-1,641385,219599,1278081,66135,7749,638396,0
2,-1,639579,219914,1392122,66083,7657,695494,0
2,-1,638641,218912,1264714,65822,8203,631705,0
2,2,708302,248736,1461743,74003,9002,730361,0
2,-1,637463,220020,1191031,66196,7029,594972,0
2,-1,636446,219629,1186531,66062,6688,592773,0
2,-1,639238,218930,1306234,65724,7150,652717,0
2,-1,642374,221054,1206699,66857,7725,602642,0
2,-1,642477,219616,1258955,66082,7370,628996,0
2,2,729051,253414,1363916,77307,8754,681439,0
2,-1,639793,219352,1206067,65916,7301,602548,0
2,-1,639187,218931,1234078,65822,6707,616607,0
2,-1,642772,220078,1252825,66189,6936,625985,0
2,-1,637763,219441,1203729,65900,7296,601393,0
2,-1,637249,218216,1173101,65666,7113,586056,0
2,-1,642779,220628,1308977,66599,6856,653697,0
2,-1,647552,221044,1277883,66808,8101,638203,0
2,2,707882,248374,1354051,73900,8186,676578,0
2,-1,637731,219688,1271739,66043,6726,635456,0
2,-1,637930,218555,1237240,65757,6339,618256,0
2,-1,635841,218684,1186936,65718,6483,593090,0
2,-1,640321,219954,1189941,66157,6662,594434,0
2,-1,641906,219793,1263529,66145,7418,631199,0
2,-1,640888,220963,1288412,66713,7770,643392,0
2,-1,639699,219869,1255854,66142,7391,627376,0
2,-1,640760,219481,1216560,66003,7233,607978,0
2,-1,644200,220229,1323803,66448,8201,660998,0
2,2,709217,249087,1426963,74112,8633,712952,0
2,-1,638709,219208,1386278,65876,7135,692693,0
2,-1,639104,219098,1303757,65907,6849,651462,0
2,-1,642710,219715,1191385,66031,7032,595245,0
2,-1,660177,223955,1200382,69260,7513,599570,0
2,-1,660570,224181,1246420,69275,7862,622806,0
2,-1,644086,220621,1329414,66607,7809,664000,0
2,-1,638845,219420,1150728,65994,6859,574876,0
2,-1,644370,220980,1295990,66744,7895,647085,0
2,2,716674,250099,1479036,74382,9897,739011,0
2,-1,641299,219259,1238094,65755,7477,618631,0
2,-1,640101,220033,1225384,66033,7767,612258,0
2,-1,645716,221167,1347630,66822,7913,672990,0
2,-1,643699,220173,1374340,66083,8443,687105,0
2,2,716698,251550,1441965,75017,9813,720138,0
2,-1,644302,219813,1255026,66079,7158,627025,0
2,-1,650103,222616,1311314,67378,8190,654869,0
2,-1,650723,222567,1478996,67085,8785,738417,0
2,-1,649697,221039,1249370,66309,8659,624082,0
2,-1,641061,220694,1240383,66189,8452,619595,0
2,-1,643684,222164,1333348,66960,8086,665746,0
2,-1,666036,225751,1282425,69631,8838,640700,0
2,-1,641463,219767,1200051,65962,7698,599543,0
2,2,711527,248709,1437719,73950,9012,718133,0
2,-1,639422,219567,1234425,65898,8493,616809,0
2,-1,645122,219924,1238497,66063,8199,618658,0
2,-1,639412,220038,1220821,65998,8222,610042,0
2,-1,641228,219520,1236824,65838,8642,617936,0
2,-1,642106,219734,1199964,65971,7523,599516,0
2,-1,638461,219265,1208015,65831,8015,603559,0
2,-1,641434,219511,1287260,65894,7492,642970,0
2,-1,640610,219050,1152577,65727,7795,575754,0
2,-1,645561,219928,1244510,66094,8970,621492,0
2,-1,638673,218975,1215071,65789,7275,607035,0
2,-1,641572,220270,1210004,66140,8356,604354,0
2,-1,640711,219254,1208177,65842,8199,603634,0
2,2,731503,253147,1486987,77010,9934,743254,0
2,-1,659843,223666,1525514,69087,9349,761841,0
2,-1,642634,219868,1283467,66224,7892,640871,0
2,-1,641352,219602,1229464,65951,8090,614230,0
2,-1,664378,224017,1398871,69204,8888,698771,0
2,-1,668673,228198,1247588,68378,8586,623190,0
2,-1,640657,219447,1190241,65784,8784,594575,0
2,-1,642866,219312,1271394,65618,7761,635191,0
2,2,710445,248532,1398477,73724,9744,698806,0
2,-1,647640,221037,1381583,66461,8327,690082,0
2,-1,638940,219928,1283488,65849,8875,641114,0
2,-1,640545,219444,1310808,65698,7906,654970,0
2,-1,640298,219791,1290399,65902,7752,644683,0
2,-1,635955,218395,1179319,65450,6874,589329,0
2,2,718003,250342,1351618,74563,9363,675130,0
2,-1,639112,218521,1306988,65509,8295,652983,0
2,-1,641476,219545,1262856,66102,7350,630768,0
2,-1,645618,220842,1290248,66587,7998,644247,0
2,-1,638007,218949,1231399,65561,8132,615177,0
2,-1,640612,219251,1289303,65790,8195,644307,0
2,-1,644015,219587,1269514,65875,8235,634455,0
2,-1,640412,218656,1161168,65535,6815,579873,0
2,2,703478,248404,1394385,73257,8092,696671,0
2,-1,641296,218989,1312876,65687,8374,655897,0
2,-1,637262,218763,1130074,65633,7298,564523,0
2,-1,644263,220597,1396940,66507,8081,697272,0
2,-1,640310,219132,1175787,65690,7077,587489,0
2,-1,639974,218763,1309113,65634,7124,654207,0
2,-1,642119,218882,1323867,65610,7957,661470,0
2,2,707909,248474,1336943,73228,9579,668084,0
2,-1,642421,219458,1262795,65866,7184,631028,0
2,-1,642831,219009,1324202,65727,7410,661559,0
2,-1,641197,218950,1340563,65716,7028,669799,0
2,-1,642328,218652,1290016,65540,7599,644585,0
2,-1,643412,219791,1306507,65949,7103,652763,0
2,-1,664305,223555,1371079,68923,8146,685048,0
2,2,714846,249842,1268875,74825,9371,633719,0
2,-1,644109,218920,1264403,65607,6854,631635,0
2,-1,633133,218476,1279030,65014,6727,639077,0
2,-1,633226,218801,1186382,65094,7921,592564,0
2,-1,640790,220907,1307097,66019,7843,652834,0
2,-1,634253,218902,1421319,65155,8148,710173,0
2,-1,658775,223986,1337741,68614,8760,668374,0
2,-1,638719,219732,1237945,65640,7801,618173,0
2,-1,633010,218168,1370368,64959,8542,684906,0
2,-1,634036,218859,1400285,65307,9161,699060,0
2,-1,632910,218450,1289285,65149,7831,644020,0
2,-1,641870,220599,1237295,67005,8580,617838,0
2,2,732034,253240,1442844,77587,10287,720884,0
2,-1,661579,223566,1358447,69424,9524,678421,0
2,-1,641619,220099,1145607,66744,8031,572080,0
2,-1,637312,219138,1224946,66304,7828,611947,0
2,-1,660586,223428,1458542,69446,9919,728770,0
2,-1,660181,223704,1235691,69516,8383,617231,0
2,-1,638475,218600,1298783,65984,7638,648976,0
2,-1,638261,218665,1251831,66056,7879,625548,0
2,-1,642639,219288,1189595,66245,7391,594339,0
2,2,713398,249049,1506786,74336,9192,752926,0
2,-1,636637,218460,1204108,65934,7824,601572,0
2,-1,642859,219890,1229791,66688,8713,614047,0
2,-1,661811,223932,1409269,69588,8730,704165,0
2,-1,642274,220029,1182214,66730,7451,590265,0
2,-1,642905,219525,1181923,66389,7902,590445,0
2,-1,642415,219432,1219021,66375,8063,608996,0
2,-1,635392,219066,1279542,66232,8193,639288,0
2,-1,637114,218929,1181519,66129,7401,590333,0
2,-1,637570,219172,1229949,66130,7213,614487,0
2,2,714108,248465,1290420,74179,9611,644671,0
2,-1,639708,218389,1343763,65885,7921,671229,0
2,-1,644929,220734,1212781,66935,7626,605587,0
2,-1,643761,221363,1161128,67312,7837,579539,0
2,-1,640864,218256,1293192,65917,7278,646092,0
2,-1,641892,218392,1241654,65956,7551,620396,0
2,2,711381,248738,1402652,74390,9011,700804,0
2,-1,658412,223286,1361721,69373,8652,680309,0
2,-1,662193,223291,1230386,69345,8226,614549,0
2,-1,641135,218602,1249765,66033,7479,624395,0
2,-1,638439,218505,1216253,66013,7532,607562,0
2,-1,642740,219134,1192064,66262,7308,595452,0
2,2,714481,249598,1390317,74640,9150,694638,0
2,-1,643232,219304,1205903,66291,7274,602430,0
2,-1,637508,219013,1383455,66113,8276,691442,0
2,-1,642982,220066,1283395,66688,8043,641006,0
2,-1,640983,219059,1221009,66221,7404,609930,0
2,-1,641845,220274,1199238,66674,7288,598892,0
2,-1,645503,220437,1232824,66912,7382,615461,0
2,-1,640953,219213,1243446,66192,6918,621285,0
2,-1,644919,220456,1183999,66695,7060,591128,0
2,-1,643568,218823,1378732,66055,8262,688968,0
2,2,712818,249443,1512918,74448,9775,755979,0
2,-1,643661,219280,1287684,66151,7882,643292,0
2,-1,639763,218615,1265638,65926,7412,632311,0
2,-1,643029,218948,1361319,65981,7925,680219,0
2,-1,646572,219445,1157366,66235,7859,578112,0
2,-1,638892,220441,1162132,66752,7427,580303,0
2,2,732188,253581,1370889,77650,9904,685045,0
2,-1,638271,220172,1182234,66648,7507,590370,0
2,-1,642719,220604,1181765,66937,8729,590026,0
2,-1,644958,219660,1273748,66468,7311,636371,0
2,-1,642916,219909,1190040,66437,7099,594608,0
2,-1,647865,221310,1186786,67291,7728,592667,0
2,-1,645651,220399,1389226,66748,7887,694068,0
2,-1,645678,220231,1262530,66572,8476,630827,0
2,2,742139,258683,1400869,77268,9093,700045,0
2,-1,646011,220299,1366722,66625,7595,682729,0
2,-1,664443,224749,1348266,69893,9054,673570,0
2,-1,647628,221425,1183846,67182,7517,591113,0
2,-1,650619,222077,1283675,67468,8293,641000,0
2,-1,639388,219385,1238955,66275,7100,618944,0
2,-1,642749,220436,1239693,66701,8406,619216,0
2,2,714341,248361,1447374,74030,9944,723158,0
2,-1,645102,220025,1324785,66539,8123,661766,0
2,-1,649320,222098,1162030,67450,7933,579970,0
2,-1,643171,220116,1405648,66318,8954,701974,0
2,-1,645018,220219,1215088,66355,7234,607072,0
2,-1,641535,219464,1224823,66233,6931,612004,0
2,2,713884,247477,1403470,74045,9851,701357,0
2,-1,644002,219864,1180222,66358,7183,589745,0
2,-1,646169,220112,1336148,66380,7513,667487,0
2,-1,643769,219736,1182722,66333,8540,590779,0
2,2,707412,248057,1464576,74274,9077,731298,0
2,-1,644087,219221,1289225,66199,7783,644142,0
2,-1,668067,224080,1359422,69555,9384,679065,0
2,-1,641883,219958,1196162,66433,8051,597508,0
2,-1,638840,219394,1256100,66205,8153,627573,0
2,-1,639499,218560,1286805,65876,7780,642666,0
3,-1,693249,237292,1334272,70765,8328,666574,0
3,-1,696124,237154,1238089,70672,7943,618563,0
3,-1,693591,237430,1428447,70768,7602,713722,0
3,-1,657608,223566,1253626,68993,8124,626187,0
3,-1,642472,219699,1212087,65881,7162,605273,0
3,-1,643552,221654,1306285,66907,7437,652220,2
3,-1,639286,219342,1131857,65875,6803,565332,0
3,-1,643409,220310,1296600,66360,7540,647704,0
3,-1,642508,219040,1278648,65703,7655,638800,0
3,-1,653877,222865,1279093,68853,7984,639035,0
3,-1,657456,222996,1293047,68989,8534,646040,0
3,2,704612,247822,1318554,73710,8055,658655,0
3,-1,641265,220385,1206558,66606,7999,602427,0
3,-1,635972,218201,1177964,65545,6792,588527,0
3,-1,639475,219250,1261276,65876,7530,630165,0
3,-1,655796,223320,1307065,69009,8502,652965,0
3,-1,635311,218406,1160343,65576,7410,579548,0
3,-1,637884,219097,1441143,65917,7905,719515,0
3,-1,639600,220048,1414287,66481,7164,706311,0
3,2,713147,249935,1313856,74626,9258,656198,0
3,-1,639878,219655,1184173,66002,6732,591662,0
3,-1,644586,219068,1165400,65944,7243,582177,0
3,-1,641666,219357,1226067,65791,7030,612587,0
3,-1,636707,219044,1183423,65778,7573,591275,0
3,-1,638582,219112,1171196,65798,7271,585156,0
3,-1,641841,219784,1265413,65879,7248,632304,0
3,-1,637422,219243,1328311,65853,7052,663659,0
3,-1,640918,218894,1159064,65739,6910,578991,0
3,-1,663821,224645,1324599,69512,7624,661806,0
3,-1,643727,218456,1236841,65767,7383,617993,0
3,-1,639072,219157,1180806,66007,6741,589954,0
3,2,712399,248872,1353752,74134,8771,676451,0
3,-1,641405,218958,1243545,65837,6950,621249,0
3,-1,645265,221143,1297106,66905,8160,647792,0
3,-1,646461,220481,1194866,66447,7558,596933,0
3,-1,645861,220437,1284642,66621,7780,641582,0
3,-1,632344,218979,1179244,65846,7005,589172,0
3,-1,637764,219598,1180739,66148,7070,589968,0
3,-1,637005,218872,1209204,65850,7295,604248,0
3,-1,639887,220178,1202430,66526,7969,600535,0
3,-1,634167,218318,1180386,65692,6849,589772,0
3,-1,637328,219030,1182818,65917,6755,591012,0
3,2,709059,248452,1283879,74003,9270,641495,0
3,-1,656358,223582,1294712,69189,9280,646991,0
3,-1,636478,219308,1295331,65992,8083,647292,0
3,-1,638930,219066,1286966,65889,7953,642929,0
3,-1,641760,220509,1301682,66536,7869,649790,0
3,-1,642362,220265,1218531,66263,8035,608663,0
3,-1,639669,221633,1347822,66988,8079,673139,0
3,-1,638332,219267,1150149,65942,7155,574590,0
3,-1,637572,219108,1203394,65887,6971,601304,0
3,-1,640733,220105,1168247,66171,6650,583577,0
3,-1,642832,220972,1352644,66760,7484,675363,0
3,2,716471,250459,1609691,74840,10199,804890,0
3,-1,638649,219293,1264749,65958,7624,631907,0
3,-1,641323,220261,1211422,66259,6435,605217,0
3,-1,643666,221130,1342051,66731,6767,670345,0
3,-1,642233,219485,1288583,65948,7652,643845,0
3,-1,638530,219164,1195134,65821,7429,597114,0
3,-1,642036,219597,1169945,66050,6518,584458,0
3,2,709594,250560,1456007,74851,8960,727255,0
3,-1,661378,223140,1222357,68963,8125,610714,0
3,-1,641157,220471,1301592,66324,6440,650311,0
3,-1,643113,221197,1288418,66859,6908,643442,0
3,-1,637079,219583,1189019,66003,6833,594075,0
3,-1,639843,219382,1279274,65949,7573,639124,0
3,-1,639654,218973,1412552,65797,7553,705555,0
3,-1,658048,223968,1222618,69257,8017,610831,0
3,-1,638178,219397,1286686,65938,6985,642990,0
3,-1,640767,220183,1376086,66238,7601,687535,0
3,-1,640647,219183,1266569,65928,7762,632867,0
3,2,710398,250207,1419674,74615,8998,708997,0
3,-1,645897,221879,1339551,67102,8140,668867,0
3,-1,642512,220445,1294095,66523,7547,646388,0
3,-1,661682,223702,1293937,69183,7419,646706,0
3,-1,638709,219664,1310136,66109,6965,654556,0
3,-1,641034,219598,1171305,65949,7117,585064,0
3,-1,639286,218897,1287259,65785,7309,643161,0
3,-1,639164,219696,1216523,66078,6750,607741,0
3,-1,644115,220735,1289718,66583,8159,644168,0
3,2,714646,249278,1417893,74117,9230,708443,0
3,-1,640731,219488,1306675,65805,7036,652862,0
3,-1,639984,219606,1234666,65891,7865,616861,0
3,-1,640447,219283,1279472,65936,7732,639304,0
3,-1,647782,221721,1304171,66852,8134,651164,0
3,2,714439,249944,1428016,74217,9213,713215,0
3,-1,650756,221604,1424233,66872,8203,711252,0
3,-1,666553,225800,1226812,69886,8280,612895,0
3,-1,647112,220459,1299117,66252,7314,649090,0
3,-1,650890,221913,1282139,66768,8656,639756,0
3,-1,639219,220375,1436582,66046,8782,717862,0
3,-1,659852,224774,1467959,69335,9738,733522,0
3,-1,642445,220277,1311188,66112,8270,654932,0
3,-1,642948,220233,1353992,66108,8560,676422,0
3,2,715042,250556,1464029,74727,10222,731109,0
3,-1,663674,223858,1292011,69090,9004,645357,0
3,-1,665110,224708,1253539,69388,8266,626194,0
3,-1,645803,220022,1204767,66025,7896,601728,0
3,-1,645204,220776,1342638,66290,8923,670741,0
3,-1,643186,220621,1294616,66425,7955,646620,0
3,-1,644826,219368,1298642,65871,8309,648675,0
3,-1,638242,218599,1402171,65550,7964,700517,0
3,-1,644253,220431,1275339,66438,8414,636699,0
3,-1,643574,218922,1308359,65768,8804,653681,0
3,-1,636368,218867,1280838,65727,7838,639896,0
3,-1,639171,218972,1326483,65689,8624,662855,0
3,-1,661276,223674,1253271,68998,8401,626215,0
3,2,712242,249107,1432668,73806,9680,715691,0
3,-1,638161,218675,1270711,65715,8059,634899,0
3,-1,642283,219550,1240724,65981,7133,619542,0
3,-1,638400,218876,1291618,65727,8444,645295,0
3,-1,642896,219995,1355951,66075,7843,677501,0
3,-1,640292,219380,1375127,65844,8528,687045,0
3,-1,650157,221457,1220382,66788,8300,609344,0
3,-1,642167,219607,1396747,65764,8606,697677,0
3,2,714274,250551,1515741,74705,9594,757023,0
3,-1,643795,219436,1198184,65627,7439,598561,0
3,-1,638048,219270,1342285,65570,7560,670529,0
3,-1,661525,224641,1270892,69219,8163,634755,0
3,-1,642996,220984,1271338,66366,7826,635015,0
3,-1,636971,219212,1306155,65754,7645,652554,0
3,2,713503,249749,1318012,74385,8713,658386,0
3,-1,659715,223625,1280604,68984,8226,639727,0
3,-1,638511,218964,1291025,65650,7880,645047,0
3,-1,663833,224355,1398900,69228,9109,699083,0
3,-1,639235,218780,1317001,65602,8071,657996,0
3,-1,663137,223939,1295582,69072,8945,647375,0
3,-1,641364,218631,1279220,65491,8313,639088,0
3,-1,647016,220713,1245632,66432,8147,622093,0
3,2,705971,249869,1302853,73909,8020,650760,0
3,-1,643425,218847,1254320,65649,7450,626682,0
3,-1,643863,221521,1242066,66754,7776,620174,0
3,-1,662946,224151,1402933,69165,8285,700994,0
3,-1,640863,219164,1301630,65752,7405,650306,0
3,-1,641495,219502,1192851,65821,7143,595851,0
3,2,703235,247823,1405796,72998,10147,702448,0
3,-1,647437,221374,1198795,66741,7190,598401,0
3,-1,640949,219137,1396647,65692,7722,697864,0
3,-1,663884,223886,1339111,69077,8887,668967,0
3,2,706887,247881,1388778,74016,9547,694010,0
3,-1,641432,219025,1288567,65665,6747,643529,0
3,-1,644007,220007,1243446,66025,7007,621274,0
3,-1,643240,220174,1219202,66275,6809,608754,0
3,-1,643523,219795,1289287,65994,7144,644014,0
3,-1,644642,219188,1185312,65707,6491,592072,0
3,-1,632545,218684,1224190,65154,6390,611448,0
3,-1,638390,221265,1150450,66184,7639,574408,0
3,-1,633188,218380,1349585,64893,7644,674235,0
3,-1,638486,220777,1358109,66046,8308,676670,0
3,-1,637095,218756,1339276,65150,7748,669100,0
3,-1,636885,219233,1280936,65319,7711,639896,0
3,-1,642326,221730,1763474,66453,10414,880859,0
3,-1,634042,219132,1305443,65300,8580,652225,0
3,-1,643670,220370,1160326,65973,7785,579157,0
3,2,707251,248545,1407705,74238,9253,703388,0
3,-1,657357,223042,1390838,69323,8881,694978,0
3,-1,640228,218719,1257174,66073,7972,628060,0
3,-1,640138,218291,1279294,65861,8381,639099,0
3,-1,639428,220402,1221693,66915,8582,609949,0
3,-1,638349,218745,1288234,66069,8389,643615,0
3,-1,639328,219028,1214482,66194,8223,606678,0
3,-1,644478,220825,1210615,67026,7176,604551,0
3,-1,639907,218201,1255625,65844,7911,627346,0
3,-1,642599,219402,1250546,66255,8171,624926,0
3,2,727471,252627,1513318,77414,10924,755791,0
3,-1,639027,219416,1250670,66342,7854,624885,0
3,-1,639828,218710,1194814,66097,8089,596853,0
3,-1,639968,218806,1372926,66143,7738,686128,0
3,-1,640366,219543,1270677,66371,7869,634782,0
3,-1,662627,223308,1446039,69389,9117,722533,0
3,-1,638939,218330,1194798,65954,7751,596829,0
3,-1,634323,218652,1243191,66071,8091,621131,0
3,-1,638656,219972,1266680,66506,7475,632734,0
3,-1,643400,221471,1144322,67285,6801,571175,0
3,2,710098,248174,1391670,74030,9115,695278,0
3,-1,644709,220796,1190308,67080,7603,594277,0
3,-1,640656,219618,1168480,66405,7139,583732,0
3,-1,643296,219240,1185383,66288,8031,592136,0
3,-1,640711,218955,1251742,66198,7119,625341,0
3,2,709890,248944,1307315,74490,8425,653021,0
3,-1,644356,219626,1208319,66447,7555,603680,0
3,-1,637091,218800,1302300,66148,7776,650615,0
3,-1,641050,218980,1162806,66189,6916,580646,0
3,-1,642704,219483,1256188,66317,7511,627658,0
3,-1,665033,227967,1274621,68866,7682,636864,0
3,-1,640245,218549,1148613,66042,7081,573762,0
3,2,715192,249369,1409884,74496,9364,704430,0
3,-1,642746,219305,1325273,66319,8647,661888,0
3,-1,638922,219044,1249716,66114,8777,624134,0
3,-1,639241,219005,1325400,66171,8104,662165,0
3,-1,645624,220724,1208517,66934,7585,603469,0
3,-1,640370,219108,1223176,66147,7525,610928,0
3,-1,661405,223159,1314775,69321,8042,656896,0
3,-1,643466,218969,1282237,66194,7481,640563,0
3,-1,639705,218924,1275172,66051,7595,637050,0
3,-1,642287,218635,1176143,65937,7485,587641,0
3,2,715770,250226,1466684,74648,9620,732367,0
3,-1,647396,220918,1137883,66950,7957,568102,0
3,-1,669379,228303,1306581,68848,6898,652765,0
3,-1,666199,223778,1311897,69394,8572,655416,0
3,-1,643435,218547,1197728,65857,8212,598275,0
3,-1,643692,217407,1268929,65587,7044,633966,0
3,2,711017,249204,1299896,74386,9042,649448,0
3,-1,640166,219561,1258020,66224,7388,628442,0
3,-1,639410,219355,1506913,66419,8218,752598,0
3,-1,643073,219287,1264147,66336,7092,631572,0
3,-1,641639,219440,1266809,66287,8019,632991,0
3,-1,666478,224761,1236001,69908,8313,617432,0
3,-1,643382,219951,1192813,66592,7536,595901,0
3,-1,642255,219727,1148615,66481,7373,573758,0
3,2,718553,250718,1308655,75261,8704,653537,0
3,-1,644053,219591,1268408,66346,8290,633758,0
3,-1,645530,220955,1306447,67009,7268,652515,0
3,-1,642236,219537,1175352,66285,7518,587170,0
3,-1,668476,225045,1366336,69958,8971,682764,0
3,-1,640585,220048,1321164,66536,7453,660045,0
3,-1,645605,220176,1242886,66480,7855,620927,0
3,2,715840,249187,1339686,74306,9131,669304,0
3,-1,645077,220325,1240821,66613,7952,619939,0
3,-1,643409,220390,1244799,66548,8076,621831,0
3,-1,645335,220700,1373134,66565,9014,685358,0
3,-1,647892,220523,1304863,66507,8186,651844,0
3,2,714365,247982,1407629,74180,8747,703344,0
3,-1,642434,220249,1318547,66439,7542,658768,0
3,-1,643174,219959,1284028,66392,8245,641506,0
3,-1,645154,219601,1355340,66266,8361,677050,0
3,-1,643998,220235,1261726,66528,7742,630371,0
3,2,706294,248024,1472879,74226,9635,735272,0
3,-1,648448,220832,1202657,66900,7618,600641,0
3,-1,649440,220644,1252571,66651,8135,625418,0
3,-1,641185,220021,1202711,66415,7619,600878,0
3,-1,646244,221051,1224696,66990,7941,611678,0
3,-1,643012,220019,1381307,66444,7436,690130,0
4,-1,687048,236515,1382988,70455,7901,691014,0
4,-1,717508,242537,1396204,74254,9306,697752,0
4,-1,690996,236838,1250071,70583,7410,624482,0
4,-1,639110,218189,1318029,65466,7709,658490,0
4,-1,641757,219908,1299711,66169,7501,649038,0
4,-1,639783,219381,1145745,65916,7331,572259,0
4,-1,639484,218945,1314024,65756,7619,656499,2
4,-1,638167,218346,1212190,65430,7225,605653,0
4,-1,662027,223327,1355166,68909,8905,676978,0
4,2,711485,248316,1389602,73724,8810,694214,0
4,-1,635793,218849,1285398,65704,7453,642296,0
4,-1,638477,219743,1329017,66305,7395,663835,0
4,-1,659129,223394,1217811,69032,8592,608320,0
4,-1,636720,218364,1195257,65644,6951,597174,0
4,-1,644831,221233,1287424,66932,8233,642749,0
4,-1,634894,218675,1358686,65598,7254,678950,0
4,2,708094,248372,1538488,73922,10383,768293,0
4,-1,634643,218478,1173831,65628,7394,586135,0
4,-1,642620,220238,1296150,66471,8557,647274,0
4,-1,659394,223959,1282052,69303,8179,640552,0
4,-1,645122,220593,1311814,66619,7737,655270,0
4,-1,644607,219705,1208569,66167,7242,603838,0
4,-1,641538,218784,1219754,65703,7326,609357,0
4,-1,641086,221383,1359596,66812,8249,679005,0
4,-1,637666,219137,1137695,65816,6929,568366,0
4,-1,640102,219645,1285313,65858,6973,642120,0
4,-1,662485,223348,1258270,68995,8686,628732,0
4,-1,642542,219871,1187548,66071,7338,593307,0
4,-1,642330,218955,1318614,65899,7057,658805,0
4,-1,648854,221235,1414698,66853,8180,706531,0
4,-1,640594,219014,1211340,65975,6812,605148,0
4,2,712487,248545,1380747,74021,9155,689912,0
4,-1,641940,219809,1314775,66211,6643,656928,0
4,-1,639162,218616,1221840,65770,8358,610452,0
4,-1,643522,219701,1178470,66179,7326,588766,0
4,-1,641617,219194,1236085,66006,7391,617619,0
4,-1,639217,220977,1251287,66870,7343,624858,0
4,-1,639674,220603,1262095,66668,7285,630413,0
4,-1,658402,223983,1249847,69352,8526,624234,0
4,-1,638962,219095,1211347,65957,7764,605212,0
4,-1,639444,220744,1380345,66727,7553,689460,0
4,2,710005,249842,1323310,74612,9906,660886,0
4,-1,637545,219599,1206691,66141,7166,602872,0
4,-1,634630,219287,1210705,66044,8329,604952,0
4,-1,637997,220006,1240247,66214,7371,619543,0
4,-1,640760,220072,1242874,66297,7837,620954,0
4,-1,637079,218718,1346872,65707,7862,672859,0
4,-1,662190,224101,1375286,69308,9506,687169,0
4,-1,640149,218558,1307737,65631,8041,653355,0
4,-1,638686,219490,1325230,65964,7189,662413,0
4,-1,637117,219515,1399947,66024,7763,699505,0
4,-1,640385,220381,1233324,66496,7396,616014,0
4,2,711380,249604,1421488,74303,9112,710166,0
4,-1,638765,219336,1413246,65904,7751,706169,0
4,-1,642021,220870,1370918,66739,7399,684583,0
4,-1,637834,219443,1182400,65889,6352,590803,0
4,-1,636625,218765,1282421,65729,7026,640695,0
4,-1,643782,219834,1199011,66049,7115,599022,0
4,-1,639049,219631,1177860,66081,6977,588544,0
4,2,706202,248548,1298440,73899,8311,648806,0
4,-1,642818,220497,1328440,66366,6764,663763,0
4,-1,642060,219555,1269988,66051,7472,634528,0
4,-1,657558,223731,1352304,69137,7677,675659,0
4,-1,658234,223760,1295423,69150,7501,647260,0
4,-1,635847,219472,1156513,66026,7071,577739,0
4,-1,636314,218429,1224476,65716,7178,611795,0
4,-1,644743,221363,1374993,66894,8344,686944,0
4,-1,637009,219665,1267105,66072,8109,633021,0
4,-1,643384,221772,1279785,67076,8011,639092,0
4,-1,637311,218528,1251057,65598,7637,625027,0
4,2,716164,249472,1329136,74181,8780,664004,0
4,-1,642170,220022,1280432,66183,8221,639698,0
4,-1,661125,223569,1267857,69061,8111,633366,0
4,-1,641114,220112,1256482,66174,7614,627805,0
4,-1,640053,219142,1202701,65838,6648,600922,0
4,-1,638059,219459,1208024,65974,6603,603562,0
4,-1,640316,219839,1167957,66107,6762,583474,0
4,-1,639892,219659,1192224,66093,6632,595646,0
4,-1,636456,218947,1274046,65741,7403,636602,0
4,-1,641168,219400,1166649,65954,7434,582797,0
4,2,713715,249376,1366832,74209,9000,682796,0
4,-1,646226,221524,1270722,66836,7330,634583,0
4,-1,642036,220545,1234967,66420,8179,616733,0
4,-1,639544,219288,1190780,65860,6973,595028,0
4,2,738884,259394,1404384,76980,9218,701871,0
4,-1,643490,220368,1484669,66209,8793,741878,0
4,-1,646125,220341,1429984,66346,7971,714386,0
4,-1,645365,220400,1284655,66295,8819,641556,0
4,-1,647405,220657,1275775,66373,8009,637379,0
4,-1,648471,220833,1479975,66187,9243,739490,0
4,-1,640747,221018,1369101,66310,8549,683833,0
4,2,713192,250075,1447816,74490,9740,722941,0
4,-1,645494,221635,1292680,66696,8570,645101,0
4,-1,642369,220369,1293172,66107,7978,646052,0
4,-1,642834,220685,1297252,66229,7768,648069,0
4,-1,642014,219701,1310123,65931,7594,654503,0
4,-1,645080,221094,1263752,66428,8162,631286,0
4,-1,645476,220274,1305322,66050,8261,652318,0
4,-1,642138,220095,1404367,66069,8765,701671,0
4,-1,643405,220418,1175413,66247,7607,587258,0
4,-1,646589,220544,1336688,66462,8374,667500,0
4,-1,641135,219254,1293609,65807,8190,646379,0
4,-1,641735,220068,1237408,66031,8355,618199,0
4,-1,663660,224151,1282496,69303,9164,640694,0
4,-1,640989,220942,1315402,66624,8273,656919,0
4,-1,640760,220091,1316049,66177,7664,657591,0
4,-1,640275,219614,1286141,65956,8009,642479,0
4,2,711782,249146,1503502,73873,9423,751252,0
4,-1,640561,219553,1365049,65904,8878,681922,0
4,-1,639502,218736,1322005,65668,7771,660576,0
4,-1,635324,218781,1347689,65722,7811,673458,0
4,-1,641169,219698,1177848,65882,6793,588345,0
4,-1,644011,220096,1236312,66096,7781,617586,0
4,-1,666046,224325,1211603,69200,8862,605403,0
4,2,713959,249904,1386524,74390,9151,692521,0
4,-1,643784,219423,1192994,65730,8423,595886,0
4,-1,639111,218088,1298551,65255,8540,648962,0
4,-1,645563,219063,1249334,65503,8237,624274,0
4,-1,644619,220588,1317327,66175,8458,657972,0
4,-1,639412,219292,1291114,65644,8033,645095,0
4,2,711043,247646,1323494,73399,9046,661041,0
4,-1,640883,220774,1248115,66405,7694,623354,0
4,-1,637144,218725,1310923,65560,7642,654826,0
4,-1,637765,218488,1205694,65541,7656,602480,0
4,-1,643121,219160,1356928,65753,8297,678040,0
4,-1,642820,220878,1325617,66584,7272,661817,0
4,-1,640999,219210,1256708,65772,7314,627856,0
4,-1,640639,218659,1426289,65536,8669,712406,0
4,2,711890,248224,1398862,73564,7972,698911,0
4,-1,642635,219456,1273490,65859,8077,636310,0
4,-1,642029,218700,1291252,65549,8097,645208,0
4,-1,657968,223680,1267070,69032,8186,633033,0
4,-1,637705,218442,1253748,65484,7394,626060,0
4,-1,645536,220377,1222498,66339,7445,610473,0
4,-1,641438,219864,1259724,65986,7638,629361,0
4,2,703091,248237,1428491,73190,9596,714131,0
4,-1,662586,223687,1431047,69021,7982,714982,0
4,-1,647640,221122,1295270,66621,7724,646738,0
4,-1,642053,219383,1268178,65829,8039,633603,0
4,2,709891,248630,1353720,74344,9817,676340,0
4,-1,662078,223459,1301225,68955,7866,650141,0
4,-1,642071,219054,1297145,65685,7305,648126,0
4,-1,640502,218932,1327648,65705,7547,663331,0
4,-1,644415,220280,1235279,66258,6793,616979,0
4,-1,668273,223885,1328811,69019,8445,663808,0
4,-1,654121,223957,1301345,68631,8050,650096,0
4,-1,634686,219350,1241968,65321,7252,620412,0
4,-1,633490,218737,1429749,65092,8459,714427,0
4,-1,655972,223501,1424939,68441,9267,712026,0
4,-1,637438,219139,1396078,65283,8717,697341,0
4,-1,635307,218757,1317390,65155,7979,658129,0
4,-1,637015,219577,1285023,65422,7994,641865,0
4,-1,636558,218830,1263329,65212,7475,631074,0
4,-1,636909,218443,1179784,65099,7511,589501,0
4,2,707244,247869,1481326,73983,9485,740192,0
4,-1,641865,219223,1436343,66282,9360,717626,0
4,-1,639707,218864,1177727,66074,7664,588299,0
4,-1,644267,220713,1202664,67069,8244,600399,0
4,-1,639353,218640,1268866,66043,8119,633809,0
4,-1,642040,220402,1180722,66839,8155,589685,0
4,-1,638909,218648,1249386,66077,7900,624031,0
4,-1,658874,222835,1292089,69230,8177,645491,0
4,2,711062,248045,1298995,74142,8618,648948,0
4,-1,641141,218924,1165064,66159,7740,581943,0
4,-1,642205,219655,1244335,66679,8710,621105,0
4,-1,640665,219885,1193952,66674,7151,595908,0
4,-1,640585,219059,1289900,66180,8140,644488,0
4,-1,641349,218686,1209448,66055,7228,604456,0
4,-1,639744,219629,1146310,66398,7262,572648,0
4,-1,640926,218929,1271616,66167,7798,635235,0
4,-1,640977,218779,1330914,66089,7612,664995,0
4,-1,639108,219148,1159143,66293,7200,578985,0
4,-1,639867,219099,1251612,66233,8664,625261,0
4,-1,656464,223332,1236030,69373,7958,617556,0
4,2,711138,247836,1424920,73807,9069,712001,0
4,-1,637084,218360,1201417,65908,7489,600164,0
4,-1,637641,218808,1300330,66103,7337,649754,0
4,-1,641399,218968,1136944,66038,7461,567958,0
4,2,710973,248992,1308172,74337,9335,653616,0
4,-1,640744,219334,1169881,66250,6821,584392,0
4,-1,641017,218383,1331881,65937,7788,665574,0
4,-1,641060,219634,1169674,66615,7249,584241,0
4,-1,640583,218980,1125546,66162,6803,562270,0
4,-1,640085,219206,1236965,66252,6832,617893,0
4,-1,646244,219733,1368200,66594,7846,683280,0
4,2,712297,249085,1321356,74430,9876,660158,0
4,-1,639230,218158,1171003,65931,6573,584954,0
4,-1,668635,225166,1350910,70514,8967,675045,0
4,-1,641489,220099,1257257,66503,8137,628138,0
4,-1,637092,218486,1252293,65913,7604,625587,0
4,-1,640225,218541,1263796,66018,7604,631407,0
4,-1,665214,228003,1296783,68771,7857,647774,0
4,-1,641242,218945,1324498,66145,7815,661679,0
4,-1,645879,220005,1211706,66734,7426,605159,0
4,2,714640,250442,1628251,74674,11130,813459,0
4,-1,641813,219938,1305049,66282,7672,651986,0
4,-1,642094,218586,1328033,65913,8025,663590,0
4,-1,660899,223141,1230179,69177,8564,614464,0
4,-1,641991,219239,1185159,66119,7001,592078,0
4,-1,640415,218425,1254858,65822,7181,626960,0
4,-1,641862,218958,1137701,66037,7663,568285,0
4,2,715175,248846,1410880,74261,9163,704934,0
4,-1,645668,218990,1181824,66093,7789,590383,0
4,-1,636658,218384,1173009,65750,7107,586036,0
4,-1,635936,218445,1291360,66075,7919,645239,0
4,-1,665884,224508,1329443,69841,8242,664169,0
4,-1,641908,220023,1265011,66452,7339,631950,0
4,-1,645107,220364,1131210,66662,7083,565048,0
4,-1,644852,221058,1335240,67002,8022,667096,0
4,-1,643351,220134,1183623,66644,8442,591260,0
4,2,716530,250127,1251544,74922,8502,625057,0
4,-1,647186,221280,1153590,67167,7380,575856,0
4,-1,671827,229632,1422806,69406,8352,710843,0
4,-1,641532,219402,1294794,66291,8214,646930,0
4,-1,647750,221548,1202660,67197,7447,600622,0
4,-1,641421,220559,1283820,66656,7284,641236,0
4,-1,648104,221805,1209784,67341,8216,604179,0
4,2,733289,252702,1451428,77234,10283,725282,0
4,-1,641924,219316,1312832,66272,7861,655783,0
4,-1,644227,220883,1565372,66713,8463,782070,0
4,-1,644670,219667,1291445,66319,8117,645393,0
4,-1,644634,219539,1227886,66077,8189,613532,0
4,-1,644435,220965,1271043,66642,8198,634893,0
4,2,714777,248043,1417902,74305,9603,708403,0
4,-1,662736,223905,1331711,69452,8151,665357,0
4,-1,645886,220362,1292405,66526,7155,645605,0
4,2,708819,248159,1423273,74251,8935,711300,0
4,-1,667252,228159,1266155,68799,7524,632651,0
4,-1,665550,224769,1351389,69780,8195,675269,0
4,-1,647822,220751,1412720,66811,8414,705448,0
4,-1,640239,219788,1395260,66331,8137,696681,0
4,-1,643249,219872,1128808,66366,7312,563935,0
4,-1,639268,218984,1285760,66021,7443,642422,0
5,-1,694372,237440,1252131,70787,7854,625595,0
5,-1,693649,237242,1333176,70697,8013,666175,0
5,-1,720752,247073,1343201,73621,7370,671065,0
5,-1,640242,219193,1222651,65968,6493,610767,0
5,-1,647325,221777,1305323,66919,8006,651542,0
5,2,716734,250882,1509354,74772,10344,752283,0
5,-1,637563,218408,1261122,65542,6814,630243,0
5,-1,659522,223584,1318614,69042,8264,658756,0
5,-1,638256,218901,1333979,65740,8206,666501,2
5,-1,639291,218404,1187503,65511,7116,593060,0
5,-1,634435,218520,1145144,65674,7065,572181,0
5,-1,633248,218529,1258676,65730,6917,628779,0
5,-1,637309,218661,1156528,65779,6695,577747,0
5,-1,637568,218596,1258164,65686,7628,628524,0
5,-1,657879,223037,1278277,68981,8736,638630,0
5,2,710396,248311,1417452,73802,9127,708277,0
5,-1,643216,219284,1407595,65946,8716,703488,0
5,-1,639179,219390,1222348,65947,6925,610441,0
5,-1,638073,218412,1228052,65664,7439,613692,0
5,-1,641088,218511,1275887,65663,8268,637647,0
5,-1,661782,223795,1267381,69188,8197,633121,0
5,-1,643922,219874,1130411,66117,6973,564784,0
5,-1,647699,221198,1278810,66651,7198,638730,0
5,-1,641821,218524,1276437,65642,8160,637860,0
5,-1,662998,227922,1236256,68357,7378,617718,0
5,-1,637959,219195,1202419,65793,6835,600665,0
5,-1,641133,219083,1227895,65740,7567,613425,0
5,-1,643029,220265,1299692,66192,7300,649344,0
5,-1,641112,218850,1240098,65689,7105,619678,0
5,-1,664158,223895,1359179,69318,8767,679095,0
5,-1,641010,219525,1251678,66110,7917,625316,0
5,2,716066,250715,1438335,75069,9456,718366,0
5,-1,638904,218843,1295228,65868,6811,647187,0
5,-1,642239,220261,1206612,66550,8293,602781,0
5,-1,640272,218500,1342403,65739,7478,670686,0
5,-1,649067,221275,1290374,66974,7783,644345,0
5,-1,654406,223424,1187158,69176,7677,593061,0
5,-1,635903,219434,1179095,66004,7273,589036,0
5,2,729088,252661,1273852,77158,9532,636425,0
5,-1,635982,219255,1286029,66026,7643,642538,0
5,-1,639823,219737,1192483,66210,7668,595764,0
5,-1,635138,218917,1307522,65941,7052,653081,0
5,-1,633332,218161,1254162,65590,6992,626717,0
5,-1,642143,220039,1175598,66302,7210,587269,0
5,-1,638743,220709,1336403,66787,8320,667168,0
5,-1,659529,223680,1223432,69290,8596,611160,0
5,-1,638283,219338,1300370,65917,7767,649644,0
5,-1,638703,219610,1281121,65931,7922,640023,0
5,-1,640994,219460,1213068,66026,7414,606054,0
5,-1,637969,219586,1304727,66057,7650,651828,0
5,-1,637612,218943,1284802,65811,7549,641992,0
5,2,708823,248770,1312451,74022,8613,655770,0
5,-1,634938,218523,1165468,65704,6943,582271,0
5,-1,643935,221495,1337729,66933,7526,667992,0
5,-1,639107,219343,1251940,65920,7354,625592,0
5,-1,645260,221601,1215988,67030,7464,607148,0
5,-1,638829,219355,1233834,65973,6656,616420,0
5,-1,661949,223756,1288722,69183,7704,643820,0
5,-1,644796,221147,1280743,66746,7416,639694,0
5,2,706795,249099,1260246,74072,8857,629711,0
5,-1,642496,220810,1246320,66663,6993,622476,0
5,-1,642264,219352,1269653,65979,7655,634319,0
5,-1,636375,220080,1268612,66155,6621,633862,0
5,-1,641912,220617,1302345,66598,7551,650470,0
5,-1,643770,221281,1281183,66856,6793,639807,0
5,-1,639828,219092,1335185,65852,7217,666921,0
5,-1,637404,218909,1250095,65838,6888,624550,0
5,-1,640336,218810,1186395,65764,6924,592738,0
5,-1,640129,219374,1287545,65991,7294,643222,0
5,2,710873,248650,1374000,73931,8929,686057,0
5,-1,638437,219771,1368414,66081,8064,683948,0
5,-1,643885,220395,1351995,66530,8856,675149,0
5,-1,643127,220340,1330553,66262,8038,664610,0
5,-1,643306,219411,1158159,65972,7715,578640,0
5,-1,641419,219068,1180862,65893,6984,589989,0
5,-1,636676,219246,1220416,65957,6420,609795,0
5,-1,640634,220526,1216633,66541,7070,607634,0
5,-1,635210,218267,1244666,65570,6222,621864,0
5,2,741805,260282,1453301,77711,9047,725842,0
5,-1,644051,220053,1364563,66198,7493,681791,0
5,-1,644688,221276,1276199,66888,7978,637074,0
5,-1,641738,219940,1290652,66177,7229,644829,0
5,-1,639231,219748,1132743,65947,7449,565871,0
5,2,709270,249707,1535910,74048,10509,767362,0
5,-1,640233,219398,1254725,65903,7385,626885,0
5,-1,640927,220234,1174942,66098,6783,587073,0
5,-1,645405,220465,1352499,66288,8396,675811,0
5,-1,644539,220746,1258438,66385,8368,628860,0
5,-1,645469,220496,1225860,66338,7260,612155,0
5,-1,645497,220653,1335312,66136,8806,667313,0
5,-1,640802,221515,1402928,66661,8499,700035,0
5,2,710810,249418,1345852,74065,9327,671902,0
5,-1,642042,220575,1321343,66156,8836,660340,0
5,-1,645040,220550,1260494,66126,8164,629749,0
5,-1,640528,219848,1309332,65911,8262,654130,0
5,-1,643986,220308,1419665,66186,7816,709225,0
5,-1,642679,219843,1242537,65979,8823,620698,0
5,-1,647606,220855,1235117,66290,8294,617049,0
5,-1,643469,220095,1309682,66072,7953,654303,0
5,-1,641879,219123,1299566,65822,8858,649243,0
5,-1,643641,219331,1312765,65841,8698,656016,0
5,-1,638629,218733,1207005,65602,7142,603047,0
5,-1,641112,218582,1239855,65555,8142,619491,0
5,-1,640427,219233,1263169,65875,8185,631149,0
5,-1,638778,219309,1218206,65926,8280,608418,0
5,-1,640245,219460,1271010,65940,7709,634960,0
5,2,711055,250288,1455327,74362,9498,726884,0
5,-1,646679,221369,1394788,66678,8389,696588,0
5,-1,641058,219503,1384142,65902,8627,691343,0
5,-1,661247,223770,1297688,69131,9233,648281,0
5,-1,642972,219076,1299025,65796,8253,648897,0
5,-1,640094,219208,1341322,65828,8250,670196,0
5,-1,641123,219919,1282993,66068,7994,640931,0
5,-1,644382,219508,1225298,65858,8334,612281,0
5,2,709839,248161,1419654,73592,9517,709365,0
5,-1,641533,218637,1298884,65350,8659,649029,0
5,-1,665650,224949,1409012,69273,8943,703738,0
5,-1,649285,221128,1236610,66407,8085,617614,0
5,-1,640575,219796,1208493,65784,7683,603660,0
5,-1,641832,220957,1291020,66513,7862,644802,0
5,2,715317,249266,1450417,74220,9589,724601,0
5,-1,637046,218537,1192978,65560,7247,595999,0
5,-1,635961,218414,1267771,65471,7551,633380,0
5,-1,636097,218203,1321491,65343,8009,660280,0
5,-1,640538,218627,1209507,65554,7959,604282,0
5,-1,659288,224097,1271885,69139,8468,635484,0
5,-1,640912,219171,1389339,65712,7805,694231,0
5,-1,662337,223276,1308445,68893,9142,653946,0
5,2,713430,248527,1297352,73729,8075,648208,0
5,-1,641321,219122,1157479,65705,7490,578364,0
5,-1,642593,219651,1191436,66180,7743,594943,0
5,-1,646506,219107,1251439,65676,7261,625291,0
5,-1,642176,220049,1272362,66234,7690,635225,0
5,-1,642231,219430,1270955,65828,6872,634892,0
5,2,704038,248016,1448578,73083,9418,723457,0
5,-1,644315,220633,1160383,66434,7458,579430,0
5,-1,640572,218834,1386898,65669,7542,692928,0
5,-1,662469,223653,1310321,68987,7992,654622,0
5,2,727933,253089,1450259,76688,10302,724643,0
5,-1,641810,218587,1190490,65542,7411,594753,0
5,-1,638388,218555,1254891,65580,6692,626930,0
5,-1,645824,220931,1177514,66604,6863,587887,0
5,-1,638622,218757,1209199,65601,7281,604000,0
5,-1,644378,219071,1333257,65715,7637,666219,0
5,-1,643666,219015,1238888,65589,6405,618999,0
5,-1,632930,219117,1180545,65210,6228,589825,0
5,-1,635881,218903,1262458,65108,6965,630731,0
5,-1,636045,219026,1265138,65177,7675,631514,0
5,-1,638485,218780,1247674,65085,7375,623226,0
5,-1,637907,219606,1331606,65383,8817,665056,0
5,-1,633135,217741,1222006,64884,7846,610417,0
5,-1,641447,221794,1160054,66374,7854,579110,0
5,-1,635129,218293,1188163,65053,7003,593602,0
5,2,711827,247840,1386211,74102,9613,692584,0
5,-1,640033,219450,1127352,65484,7504,562991,0
5,-1,637609,218066,1204485,65794,8157,601826,0
5,-1,641955,219952,1300167,66440,8796,649516,0
5,-1,660146,223272,1323651,69364,9332,661311,0
5,-1,641496,218628,1557326,66090,11340,778118,0
5,-1,638188,219159,1277986,66250,8556,638513,0
5,-1,638380,218838,1277926,66089,8080,638498,0
5,2,713507,250134,1315368,75067,8278,656891,0
5,-1,639579,219286,1255067,66256,7424,626898,0
5,-1,641864,219547,1283362,66267,8073,641341,0
5,-1,644609,220276,1167075,66812,7602,582614,0
5,-1,638680,219490,1207003,66304,7688,602935,0
5,-1,659387,223295,1358589,69399,9045,678731,0
5,-1,639418,218411,1243890,66008,7503,621371,0
5,-1,675122,229930,1714832,69749,11331,856987,0
5,-1,639444,218438,1283312,65978,7740,640978,0
5,-1,639589,219312,1183520,66272,6802,591240,0
5,-1,648676,220546,1219955,66940,7944,609152,0
5,-1,637929,218821,1369630,66102,8666,684497,0
5,-1,642279,219227,1180639,66203,8053,589834,0
5,2,713873,249538,1299195,74689,8308,648816,0
5,-1,636676,218203,1145762,65882,7658,572353,0
5,-1,637201,218696,1307071,66047,7525,652974,0
5,-1,639504,218913,1304452,66157,8110,651527,0
5,2,710597,248825,1331151,74338,9946,665043,0
5,-1,638916,218968,1278202,66205,7397,638545,0
5,-1,646210,220898,1176387,67087,6980,587195,0
5,-1,636620,218268,1220194,65931,6959,609602,0
5,-1,641519,219351,1182176,66340,7366,590524,0
5,-1,636522,218202,1174710,65876,7203,586978,0
5,-1,662016,223336,1335723,69335,8862,667348,0
5,2,713545,249654,1322450,74744,9513,660641,0
5,-1,643177,220438,1146864,66953,7383,572612,0
5,-1,639950,218685,1260683,66124,7625,629816,0
5,-1,638128,218890,1288754,66076,8843,643967,0
5,-1,640672,219623,1355006,66392,7875,676955,0
5,-1,640280,219001,1294540,66157,7886,646891,0
5,-1,640123,219445,1206905,66184,7566,602978,0
5,-1,641948,219319,1289896,66500,6772,644176,0
5,2,710004,248970,1414811,74269,8856,707013,0
5,-1,639455,217949,1202669,65772,6935,600903,0
5,-1,638521,218873,1313750,65975,8397,656406,0
5,-1,642262,219026,1188832,66057,7303,593807,0
5,-1,644201,219471,1372738,66197,7531,685839,0
5,-1,648532,220615,1279414,66882,8112,638872,0
5,-1,643577,219838,1193729,66514,7068,596016,0
5,-1,662445,223264,1339103,69258,8413,669072,0
5,2,714935,249271,1445098,74469,9970,722006,0
5,-1,643251,218761,1257626,66032,7756,628184,0
5,-1,639847,219937,1263997,66353,7258,631399,0
5,-1,636807,219406,1222925,66403,7177,611339,0
5,-1,642224,219648,1190624,66441,7407,594766,0
5,-1,648633,221394,1212069,67175,8004,605284,0
5,-1,643742,220193,1204390,66610,7834,601632,0
5,-1,646548,221466,1213559,67432,7457,605888,0
5,2,716236,249731,1627809,74708,10582,813442,0
5,-1,643575,220267,1282610,66660,8435,640690,0
5,-1,646511,220705,1209267,66740,7878,604133,0
5,-1,640565,219252,1203180,66189,7245,601149,0
5,-1,653377,222389,1220945,67566,7966,609656,0
5,-1,649701,220759,1214571,66776,7986,606834,0
5,-1,643319,220605,1382340,66705,7604,690606,0
5,2,744520,259389,1521695,77629,10658,760038,0
5,-1,644928,220658,1288646,66744,7567,643633,0
5,-1,662346,224753,1408351,69856,8603,703492,0
5,-1,647719,220266,1316313,66446,8249,657900,0
5,-1,648151,221563,1285774,67186,8374,642097,0
5,-1,644235,219930,1435750,66306,8580,717222,0
5,-1,642288,219963,1341734,66273,8256,670339,0
5,2,714412,248233,1378868,74306,9993,688862,0
5,-1,642372,219571,1303837,66227,6551,651490,0
5,-1,641608,219118,1251641,66095,7619,625313,0
5,2,706536,247923,1411730,74182,9999,705581,0
5,-1,643287,219932,1268500,66424,6908,633612,0
5,-1,643086,219749,1291194,66321,7291,645002,0
5,-1,649921,220749,1361771,66669,8832,680471,0
5,-1,641525,220827,1284567,66906,8460,641744,0
5,-1,642023,220022,1173257,66444,7313,586056,0
5,-1,665280,224178,1365353,69603,9077,682174,0
5,2,730783,253211,1435117,77579,9505,717141,0
6,-1,698213,238923,1357791,71475,8202,678077,0
6,-1,691941,236999,1178170,70656,7043,588584,0
6,-1,693903,238804,1343751,71544,7615,671082,0
6,2,759945,266511,1437076,78676,8807,718078,0
6,-1,657272,225783,1323462,67348,8105,661111,0
6,-1,659296,222983,1354753,68811,8195,676966,0
6,-1,660556,223466,1307087,69017,8615,653070,0
6,-1,639327,218299,1255966,65427,7413,627391,0
6,-1,643918,220370,1304238,66374,7699,651292,0
6,-1,632910,218799,1206449,65687,7527,602660,2
6,-1,634477,218834,1196729,65678,7536,597652,0
6,-1,640874,220894,1320233,66769,7908,659220,0
6,-1,636296,218327,1330172,65608,8128,664505,0
6,-1,634774,218486,1251343,65630,6817,625106,0
6,2,707115,248102,1360741,73824,8244,679770,0
6,-1,637840,218252,1288080,65575,7265,643524,0
6,-1,644696,220328,1278273,66431,8167,638426,0
6,-1,638820,219376,1174639,65924,7365,586690,0
6,-1,636766,218230,1262675,65612,8274,630843,0
6,-1,640676,218895,1207358,65826,7746,603149,0
6,-1,640881,219161,1356200,65731,7276,677689,0
6,-1,641530,219114,1295089,65887,7536,647095,0
6,-1,639805,218859,1294579,65712,7989,646809,0
6,-1,641514,219086,1246592,65830,8276,622792,0
6,-1,639572,219567,1267269,65948,7802,633181,0
6,-1,641810,220666,1288128,66423,7517,643351,0
6,-1,643204,220117,1289587,66321,7382,644125,0
6,-1,643540,220873,1189896,66662,7163,594213,0
6,2,708474,248642,1388428,74078,8005,693654,0
6,-1,646726,221030,1273160,66693,7883,635835,0
6,-1,641914,218957,1276164,65858,7335,637684,0
6,-1,639856,218975,1140279,65883,7024,569709,0
6,-1,660371,223898,1240615,69320,7492,619799,0
6,-1,646018,219667,1256635,66097,7981,627687,0
6,-1,640925,218922,1335519,65900,7342,667257,0
6,-1,664417,223645,1311835,69241,8432,655471,0
6,-1,632314,218795,1154223,65827,6936,576657,0
6,-1,634386,219383,1270909,66074,7713,634920,0
6,2,708434,248760,1325665,74042,8462,662403,0
6,-1,638755,220032,1296947,66505,7547,647810,0
6,-1,639377,220166,1195824,66549,7958,597193,0
6,-1,639329,220478,1327763,66595,7625,663166,0
6,-1,644744,221183,1344955,66976,7674,671703,0
6,-1,644749,220664,1259159,66668,8403,628890,0
6,-1,657022,223513,1314207,69200,8801,656557,0
6,-1,639020,219631,1231735,66074,7800,615336,0
6,-1,640036,219976,1252391,66105,7636,625737,0
6,-1,641508,220944,1328541,66659,8022,663525,0
6,-1,642177,219587,1348168,66060,7983,673576,0
6,-1,636631,219336,1257039,65900,7252,628065,0
6,-1,637792,219008,1175855,65821,6844,587300,0
6,2,711300,249309,1474805,74123,9053,736946,0
6,-1,637581,219809,1265980,66069,7241,632592,0
6,-1,657836,223654,1310425,69143,7987,654675,0
6,-1,637261,218367,1220676,65563,7188,609424,0
6,-1,660230,223970,1208038,69267,7819,603568,0
6,-1,637620,219730,1254939,66032,6155,626976,0
6,-1,641273,219605,1340420,65942,6497,669847,0
6,-1,640986,219491,1173388,66021,6414,586205,0
6,2,711238,251098,1427440,75037,8587,713014,0
6,-1,641683,219861,1261277,66153,7168,630185,0
6,-1,644460,220278,1315497,66470,7767,657078,0
6,-1,637415,219262,1169594,65949,6859,584325,0
6,-1,637407,219681,1234455,66012,6836,616730,0
6,-1,660100,224284,1266631,69370,7804,632908,0
6,-1,639378,219504,1287741,66023,6993,643453,0
6,-1,636193,219245,1159426,65901,6379,579234,0
6,-1,640679,219454,1249367,66015,8078,624072,0
6,2,711814,250206,1438500,74744,9164,718311,0
6,-1,638264,219090,1255591,65790,7233,627390,0
6,-1,645713,221349,1272604,66836,7888,635551,0
6,-1,639376,219023,1305369,65827,7835,652208,0
6,-1,639501,219356,1285336,65887,7150,642326,0
6,-1,641356,219038,1156679,65840,7735,577879,0
6,-1,641072,219132,1194655,65925,6804,596968,0
6,-1,642571,221937,1327406,67095,7471,662989,0
6,-1,638418,219464,1168576,66029,6363,583874,0
6,2,735876,253713,1349175,77259,9917,674129,0
6,-1,664228,228714,1369779,68701,6993,684383,0
6,-1,641408,219647,1178149,66096,6959,588548,0
6,-1,660982,223923,1174820,69228,8145,586901,0
6,-1,637354,218641,1192587,65681,6618,595842,0
6,-1,639720,219880,1173685,65879,7662,586455,0
6,2,710136,249706,1416086,74041,10015,706089,0
6,-1,642763,220817,1285560,66593,7551,642102,0
6,-1,642751,219379,1262183,65951,8036,630649,0
6,-1,644494,220147,1285938,66189,7615,642423,0
6,-1,645640,221549,1157269,66638,7354,578066,0
6,-1,664972,224344,1470464,69436,9087,734730,0
6,-1,651374,222001,1314466,66887,8205,656421,0
6,2,733924,253675,1339681,77307,10822,669301,0
6,-1,636709,220348,1303829,66038,7857,651108,0
6,-1,644701,222176,1280743,66899,8521,638878,0
6,-1,664045,225402,1196914,69523,8269,598003,0
6,-1,641426,220688,1374913,66180,8448,686822,0
6,-1,645268,221222,1304770,66657,7791,651567,0
6,-1,646986,221669,1214286,66829,8013,606284,0
6,-1,648055,221827,1411781,66951,8159,705066,0
6,-1,643569,220519,1306200,66147,8343,652593,0
6,-1,648525,222244,1309834,67099,8121,654044,0
6,-1,641990,219286,1227717,65910,8371,613314,0
6,-1,642167,219856,1313126,66013,8261,656060,0
6,-1,647523,221295,1249855,66750,8879,624040,0
6,-1,645447,220358,1224092,66385,9022,611084,0
6,-1,638138,219562,1193935,66025,7683,596515,0
6,2,717460,250434,1409050,74432,9575,703891,0
6,-1,638101,219160,1171283,65888,7447,585070,0
6,-1,639171,219240,1191280,65766,7469,595065,0
6,-1,643537,220345,1293658,66351,8167,645947,0
6,-1,639172,219127,1340792,65772,8137,669779,0
6,-1,642477,218844,1161080,65745,7967,580003,0
6,-1,644190,220999,1298281,66602,7514,648468,0
6,-1,637979,218772,1207004,65641,7481,603046,0
6,2,708093,247623,1407180,73440,9604,703062,0
6,-1,642420,219233,1216086,65780,8828,607433,0
6,-1,642067,219114,1315451,65548,8690,657155,0
6,-1,649271,221124,1295296,66459,8065,646997,0
6,-1,646423,220219,1239801,65876,8001,619519,0
6,-1,638831,219369,1331830,65609,8152,665476,0
6,2,709263,249118,1332339,73983,8489,665593,0
6,-1,660530,224898,1290694,69293,9216,644713,0
6,-1,642846,219193,1294818,65701,7858,646966,0
6,-1,638054,218419,1350122,65445,7777,674441,0
6,-1,642505,219296,1238118,65789,8261,618585,0
6,-1,638457,218763,1265079,65574,8340,632074,0
6,-1,637616,218966,1292474,65685,7971,645640,0
6,2,711120,248404,1408431,73761,8531,703644,0
6,-1,640928,219582,1282951,65920,7357,641086,0
6,-1,641815,219294,1335629,65792,7935,667341,0
6,-1,638103,218647,1311114,65526,7048,655179,0
6,-1,641059,218997,1289758,65687,8598,644389,0
6,-1,647883,220688,1261078,66384,7834,629827,0
6,-1,645474,221025,1311736,66636,8246,654849,0
6,2,705235,248854,1459912,73410,10098,729347,0
6,-1,641360,219268,1288692,65785,7042,643824,0
6,-1,641119,219509,1185418,65840,7198,592164,0
6,-1,642611,219618,1246288,65896,7396,622840,0
6,-1,640140,218634,1168355,65539,6575,583669,0
6,2,704195,247847,1348567,73143,9401,673928,0
6,-1,642757,218918,1285393,65619,7975,642186,0
6,-1,640042,218840,1211236,65622,7664,605162,0
6,-1,662922,224165,1380470,69169,7702,689634,0
6,-1,666525,223925,1268799,69086,8993,633720,0
6,-1,642056,218751,1198672,65657,6908,598836,0
6,-1,640541,218742,1286082,65580,6857,642571,0
6,-1,629807,218588,1249939,65032,6529,624433,0
6,-1,652892,223098,1334098,68346,8063,666480,0
6,-1,639332,221301,1201190,66130,7935,599449,0
6,-1,637580,218990,1310417,65218,7646,654715,0
6,-1,632640,218648,1238943,65044,8088,618575,0
6,-1,639878,219595,1438505,65365,7623,718783,0
6,-1,655234,223612,1396850,68493,9813,697856,0
6,2,709108,248192,1397206,74183,8748,697989,0
6,-1,635682,218860,1303785,65271,8028,651486,0
6,-1,662635,227559,1227451,67765,7600,613291,0
6,-1,642941,220062,1198798,66767,8303,598685,0
6,-1,641931,219646,1228658,66615,8514,614577,0
6,-1,639292,218848,1264826,66147,8752,631826,0
6,-1,642519,219312,1157028,66302,8651,577966,0
6,-1,635307,218578,1294565,66005,7510,646717,0
6,-1,646095,222313,1677590,67643,10794,836532,0
6,2,712846,248286,1490200,74197,9720,744630,0
6,-1,639841,219938,1303777,66586,8568,651184,0
6,-1,640516,218716,1333248,66029,7612,665960,0
6,-1,640755,218825,1186116,66095,6914,592560,0
6,-1,635583,218597,1213920,65957,8412,606409,0
6,-1,640120,219020,1206250,66136,7651,602538,0
6,-1,644582,220684,1220446,66944,8069,609485,0
6,-1,640686,218667,1332633,65977,8631,665776,0
6,-1,641367,218235,1328759,65953,8024,663780,0
6,-1,643874,219165,1340376,66280,8788,669565,0
6,-1,663002,222955,1392219,69238,8637,695719,0
6,-1,640532,220522,1248805,66978,8567,623573,0
6,2,712062,248417,1306226,73997,9679,652595,0
6,-1,641203,219935,1191129,66601,7924,594769,0
6,-1,639948,219744,1216713,66412,8023,607777,0
6,-1,639120,219879,1181480,66683,7870,590005,0
6,-1,638011,218681,1263537,66007,7571,631248,0
6,2,709166,247987,1497770,74103,9800,748449,0
6,-1,642722,219976,1204400,66717,7847,601408,0
6,-1,660578,222962,1312847,69310,8572,655868,0
6,-1,635849,218329,1175105,66009,7063,586997,0
6,-1,639326,218218,1154124,65857,7047,576540,0
6,-1,641369,219352,1262051,66215,7639,630448,0
6,2,710467,249181,1463923,74530,8841,731467,0
6,-1,640066,218540,1239008,66072,7381,618877,0
6,-1,659783,223551,1212970,69425,8284,605887,0
6,-1,641631,218765,1306524,66092,7950,652858,0
6,-1,636499,218961,1249694,66158,8625,624184,0
6,-1,661108,223127,1327824,69326,9751,663475,0
6,2,709725,249021,1458689,74385,9146,728932,0
6,-1,642758,220474,1221672,66904,7789,609909,0
6,-1,640916,220231,1141600,66714,7651,569900,0
6,-1,641279,219593,1286335,66356,7962,642691,0
6,-1,642552,219397,1248381,66306,7384,623614,0
6,-1,642825,218299,1165172,65810,7973,582073,0
6,-1,643246,220095,1195454,66549,7531,597016,0
6,-1,644506,220094,1213943,66536,7368,606266,0
6,-1,666378,223671,1502197,69388,9354,750504,0
6,-1,644167,219427,1192549,66119,7522,595860,0
6,2,717519,250551,1283362,75144,9755,640717,0
6,-1,643299,219812,1194489,66351,7230,596674,0
6,-1,647875,220168,1150277,66660,8127,574325,0
6,-1,636115,218414,1272255,65854,8045,635623,0
6,-1,638767,218961,1256987,66059,7899,627988,0
6,-1,645656,221070,1209266,67067,7089,603817,0
6,-1,643689,220009,1293578,66567,8186,646174,0
6,-1,642036,219507,1388990,66332,7741,694048,0
6,2,717229,250578,1312487,75052,9314,655249,0
6,-1,640282,219865,1271731,66640,8346,635548,0
6,-1,644285,220176,1299441,66633,7734,649356,0
6,-1,647225,221188,1157330,67116,7552,577794,0
6,-1,644012,219761,1284420,66402,8411,641720,0
6,-1,666583,224344,1376359,69745,8870,687535,0
6,2,713824,249621,1477356,74497,9681,737791,0
6,-1,644672,219986,1215525,66479,7961,607210,0
6,-1,636439,219396,1239454,66284,7179,619227,0
6,-1,642378,220087,1378890,66569,7410,688894,0
6,-1,643689,220419,1440311,66604,8233,719697,0
6,-1,647121,220539,1390852,66681,8718,694949,0
6,-1,666826,225085,1359070,69844,9091,679030,0
6,-1,649638,221364,1407035,66980,9522,702897,0
6,2,707258,247068,1294203,73855,9421,646546,0
6,-1,641334,219906,1300575,66299,8238,649626,0
6,-1,641070,219724,1199824,66317,7090,599272,0
6,-1,663851,224222,1337946,69562,7999,668473,0
6,2,728830,253097,1537874,77630,10876,767917,0
6,-1,643629,220477,1292258,66567,6873,645607,0
6,-1,649471,220521,1229039,66802,7880,613757,0
6,-1,646110,219636,1191317,66308,7751,595187,0
6,-1,638965,219924,1267126,66363,8225,633062,0
6,-1,637696,218836,1179961,65992,7197,589483,0
6,2,734645,254048,1579603,77859,10389,789407,0
6,-1,643791,220100,1183015,66482,7337,590967,0
7,-1,694566,237753,1324313,70856,7934,661611,0
7,-1,691642,236889,1239775,70588,7636,619336,0
7,2,762642,266938,1422694,78810,8432,710874,0
7,-1,710503,242160,1382265,74088,8112,690582,0
7,-1,684801,235288,1348869,70113,7420,673883,0
7,-1,636888,218298,1202184,65443,6538,600546,0
7,-1,637092,218751,1280297,65676,7689,639582,0
7,-1,640925,219356,1237183,65872,8555,617712,0
7,-1,640200,218672,1271714,65677,8197,635319,0
7,-1,641981,221339,1293436,66725,8638,645800,0
7,-1,635942,218320,1172789,65711,6680,585707,0
7,-1,638646,219529,1277300,66035,7257,638232,0
7,-1,634406,219429,1143663,66031,6939,571247,2
7,-1,635702,218914,1136855,65842,6786,567936,0
7,-1,635833,218753,1321961,65772,7188,660407,2
7,2,709279,248518,1308963,73962,8785,653946,0
7,-1,635873,218399,1255105,65676,7093,627088,0
7,-1,639484,218333,1172146,65554,6664,585631,0
7,-1,635371,218335,1253623,65604,7335,626415,0
7,-1,638123,219530,1160107,66001,7848,579443,2
7,-1,639765,219421,1255290,65918,8331,627226,0
7,-1,636843,217824,1277323,65384,8183,638306,0
7,-1,639205,219303,1370537,65776,7167,684739,0
7,-1,640984,219785,1315259,66055,6777,656934,2
7,-1,644420,220384,1190859,66347,6996,594858,0
7,-1,638933,218535,1181247,65656,6934,590182,0
7,-1,641094,218973,1231438,65756,7281,615314,0
7,-1,637902,219724,1269239,65978,7342,634161,2
7,-1,639062,219291,1222092,65808,7022,610538,0
7,-1,642171,220111,1268578,66047,6976,633786,2
7,-1,643125,219463,1199226,65852,7530,599183,0
7,-1,641029,218951,1227210,65726,6898,613203,0
7,2,709995,249082,1334412,74217,8930,666718,0
7,-1,661243,224020,1178302,69209,8020,588625,0
7,-1,641226,219192,1276372,65878,7687,637708,0
7,-1,642266,219930,1184116,66119,6811,591531,2
7,-1,643286,219894,1191780,66186,6946,595387,0
7,-1,636177,219182,1283560,66050,7528,641345,2
7,-1,645651,221800,1196674,67129,7335,597566,0
7,-1,639061,219211,1256047,66043,7068,627446,2
7,-1,642528,219604,1326248,66127,7801,662733,0
7,-1,639786,219491,1203618,66146,6985,601329,2
7,-1,644617,220147,1276354,66478,7091,637444,0
7,-1,646423,220929,1424076,66848,7796,710672,2
7,-1,640783,219862,1229870,66246,7349,614384,2
7,-1,664268,224531,1220016,69563,8418,609539,0
7,-1,640783,219171,1231396,66032,7472,615241,2
7,-1,641347,218684,1275224,65801,7657,637194,0
7,-1,635425,220468,1161883,66597,6606,580177,0
7,-1,639277,220095,1199887,66296,6972,599415,0
7,2,712013,250171,1424278,74830,8883,711202,0
7,-1,633426,218922,1236585,65826,7227,617866,0
7,-1,639145,219788,1356154,66144,7773,677629,0
7,-1,635557,219789,1308924,66228,7460,654058,2
7,-1,635663,219141,1259707,65893,7070,629392,0
7,-1,639528,220481,1282912,66619,7439,640742,0
7,-1,640214,219613,1177348,66159,7226,588217,0
7,-1,636853,219043,1376394,65964,8155,687681,0
7,-1,636121,219356,1169362,66083,7471,583890,2
7,-1,638145,219698,1154667,66146,7710,576659,0
7,-1,637215,220250,1305007,66351,8743,652067,2
7,-1,638284,219729,1281445,66084,7359,639813,0
7,-1,639548,219264,1318042,65886,8281,658499,0
7,-1,643217,220764,1426272,66654,7865,712517,0
7,2,729218,253753,1366032,77417,8985,682587,0
7,-1,644229,220686,1172398,66422,7772,585715,2
7,-1,641937,221214,1319737,66782,7147,659079,0
7,-1,637126,219496,1264191,66043,7122,631621,0
7,-1,638067,219597,1170598,66098,7183,584857,2
7,-1,640783,220703,1304599,66582,7230,651627,0
7,-1,643244,219890,1305775,66275,9034,652161,0
7,-1,636792,219688,1230997,66101,7489,614976,2
7,-1,663808,224112,1441690,69299,9161,720538,0
7,-1,634652,218867,1265592,65778,7422,632289,2
7,-1,637474,219065,1183199,65830,6962,591140,0
7,-1,665882,228711,1217528,68772,7047,608254,2
7,-1,635802,218914,1211870,65750,6492,605596,0
7,-1,641960,219931,1259881,66161,6759,629486,0
7,2,711660,249191,1362073,74184,8872,680554,0
7,-1,638894,219913,1181039,66169,7241,590125,2
7,-1,639537,219028,1263415,65829,6728,631222,0
7,-1,641452,220120,1291349,66219,7341,645156,2
7,-1,644415,219889,1282386,66106,7365,640825,0
7,-1,640818,219340,1262728,66003,7173,630906,2
7,-1,647316,221029,1266012,66805,7569,632345,0
7,-1,634915,220211,1164977,66247,6113,582000,2
7,-1,642903,221297,1254530,66777,7350,626519,0
7,-1,636075,219435,1242705,65923,6253,620925,0
7,-1,636143,219584,1160021,66056,6459,579525,2
7,-1,637713,218808,1235118,65769,6704,617144,0
7,-1,640770,220523,1269574,66480,6866,634101,0
7,-1,645092,221030,1280178,66788,7156,639394,0
7,2,709710,249359,1490888,74427,9209,744761,0
7,-1,641133,219949,1195833,66048,7274,597545,0
7,-1,641612,220460,1390713,66517,7766,694716,0
7,-1,637420,219386,1244894,66015,6658,621839,2
7,-1,640404,219475,1324419,66028,8083,661742,0
7,-1,639982,219718,1350505,66093,7457,674803,0
7,-1,641475,220359,1334034,66299,7857,666491,2
7,-1,641317,219718,1553250,65922,7907,776264,0
7,-1,635405,217734,1187943,65401,7970,593598,0
7,-1,641459,219450,1230731,66006,6942,614947,0
7,-1,654938,223703,1238961,69190,7475,619049,0
7,-1,639068,219820,1246027,66068,6974,622510,0
7,2,714784,250422,1441758,74611,9657,720105,0
7,-1,641851,221141,1423785,66709,6856,711159,0
7,-1,644581,221313,1274538,66878,7835,636599,0
7,-1,641736,220339,1194511,66253,7563,596800,0
7,-1,640791,220010,1256485,66213,7207,627734,2
7,-1,644774,220712,1352801,66599,8183,675551,0
7,2,717059,250127,1352963,74339,9910,675946,0
7,-1,640882,219925,1174074,66095,6424,586564,2
7,-1,639133,219985,1135946,66035,7686,567402,0
7,-1,643165,220300,1162932,66182,6850,580920,0
7,-1,645872,220536,1313365,66499,7855,655888,0
7,-1,644172,220224,1327695,66168,7299,663440,0
7,-1,645368,220747,1351677,66451,7476,675215,2
7,-1,644098,220413,1170168,66266,8158,584584,0
7,-1,647618,220630,1184173,66419,7425,591643,0
7,2,715312,250808,1393663,74704,9577,696064,0
7,-1,646803,220628,1310102,66111,8368,654566,0
7,-1,645505,220453,1237843,66068,8357,618437,2
7,-1,647460,221431,1344166,66365,8349,671460,0
7,-1,644432,223045,1310807,67328,9282,654110,2
7,-1,638730,220194,1410374,66004,9128,704138,0
7,-1,641002,220436,1371862,66152,9177,684996,2
7,-1,644512,221242,1211512,66395,8083,605348,0
7,-1,639808,220466,1205671,66160,7856,602304,2
7,-1,646246,221237,1315685,66398,8215,657271,0
7,-1,642767,220238,1214372,66156,7538,606687,0
7,-1,642898,220887,1265417,66376,7975,631990,2
7,-1,644007,220849,1161346,66359,8022,580072,0
7,-1,647081,221864,1264514,66971,8102,631506,2
7,-1,665361,224495,1267679,69299,9325,633255,0
7,-1,642081,219941,1291210,65964,8408,645113,0
7,-1,641432,220257,1226655,66172,8101,612722,2
7,-1,645496,221774,1222840,66868,8088,610726,0
7,-1,648086,221613,1363049,66918,8664,680589,0
7,-1,639424,219096,1213657,65841,7968,606242,0
7,-1,642570,221133,1290963,66709,7927,644624,2
7,-1,666360,225021,1240567,69445,9174,619747,0
7,-1,641431,219010,1240146,65721,9057,619662,0
7,-1,637367,219240,1373892,65854,8869,686510,0
7,2,712728,249395,1510945,73937,10026,754965,0
7,-1,639572,219968,1298062,66157,7763,648529,2
7,-1,638426,219304,1284151,65821,7966,641649,0
7,-1,639361,219303,1332170,65811,8036,665327,0
7,-1,645700,221819,1299521,66925,7665,649102,2
7,-1,638602,219265,1294977,65764,8489,647052,0
7,-1,638754,219565,1327985,65930,8295,663274,2
7,-1,638706,219249,1330495,65880,8051,664707,0
7,-1,640348,219540,1284609,66011,8154,641767,2
7,-1,661847,223811,1226752,69167,8608,612788,0
7,-1,640290,220233,1161152,66131,6975,580055,2
7,-1,640995,220198,1190010,66157,7104,594563,0
7,-1,645156,221431,1295592,66832,7784,646978,2
7,2,713011,250115,1452853,74473,9133,725669,0
7,-1,641605,219585,1331516,65930,8419,665216,0
7,-1,642850,219922,1331135,66093,8553,665110,2
7,-1,649073,221492,1245122,66668,8625,621835,0
7,-1,638643,219380,1152346,65832,8521,575579,2
7,-1,648482,222042,1293076,66819,8813,645598,0
7,-1,641853,219483,1392579,65753,8876,695586,2
7,-1,643708,219374,1290182,65631,8310,644455,0
7,-1,646035,221032,1250311,66231,7851,624651,2
7,2,712165,247991,1378835,73556,9685,688929,0
7,-1,642790,218832,1295472,65413,8206,647297,0
7,-1,652290,222248,1203054,66952,8243,600798,2
7,-1,643993,221769,1323429,66714,8486,660735,0
7,-1,644098,220204,1281365,65952,8065,640166,0
7,-1,638412,219163,1284057,65715,8334,641368,2
7,-1,647233,221467,1305878,66822,7938,652062,0
7,-1,639180,219383,1279116,65830,7979,639031,0
7,-1,640755,219032,1141012,65657,7671,569997,0
7,-1,643599,221696,1280472,66848,7923,639196,2
7,-1,640224,218420,1258597,65447,8113,628891,0
7,-1,641144,219403,1316438,65851,8728,657720,2
7,2,710045,248003,1314425,73592,8443,656564,0
7,-1,645668,220901,1266819,66498,7423,632418,0
7,-1,637658,219443,1142893,65838,7372,570731,2
7,-1,638491,218764,1266647,65570,7949,632983,0
7,-1,640290,219137,1340995,65758,8814,669728,2
7,-1,642251,219285,1244507,65792,8267,621800,0
7,-1,641071,219099,1223599,65724,7433,611149,0
7,-1,640819,219299,1303325,65822,7349,651179,2
7,-1,646277,219858,1210606,65901,8416,604819,0
7,-1,641234,218987,1168946,65664,7065,583969,2
7,-1,641540,218338,1329841,65425,8035,664498,0
7,-1,635154,219014,1276199,65736,7421,637484,2
7,-1,662943,224227,1412712,69201,8492,705790,0
7,-1,640086,219787,1241313,65930,7880,620290,2
7,2,701443,247668,1423014,72968,9512,710657,0
7,-1,662486,223700,1285720,69044,8442,642311,0
7,-1,642134,219307,1336779,65840,7988,667929,2
7,-1,638644,218643,1211059,65556,7304,604938,0
7,-1,641792,220188,1219172,66155,7245,608936,2
7,-1,639954,218919,1356250,65643,7636,677687,0
7,-1,640362,219238,1262464,65803,7375,630626,0
7,-1,639494,218952,1278339,65719,7119,638444,2
7,2,709832,249997,1338289,74080,9265,668271,0
7,-1,647800,220918,1181496,66504,7031,590007,0
7,-1,645777,221210,1222577,66613,7274,610413,0
7,-1,644866,221061,1221384,66667,6966,609846,2
7,-1,640797,219057,1385279,65734,7079,692071,0
7,-1,642215,218513,1144838,65506,7357,571834,0
7,-1,642587,219242,1328952,65733,7417,664019,0
7,-1,648487,219975,1392995,65995,7961,695958,0
7,-1,648685,221815,1184208,66907,6789,590952,2
7,-1,629559,218892,1257575,65121,6421,628124,0
7,-1,633606,218981,1264649,65231,6797,631747,0
7,-1,635058,219793,1188713,65479,6938,593950,2
7,-1,634421,218780,1200465,65166,7096,599636,0
7,-1,641604,220876,1310597,66019,7734,654444,0
7,-1,631576,219158,1357082,65287,8294,677881,2
7,-1,638051,219682,1358658,65440,7876,678839,0
7,-1,639134,220875,1176387,66098,7918,587418,2
7,-1,643287,221377,1311553,66348,7702,654481,0
7,2,706735,247731,1522937,73942,9706,760945,0
7,-1,637301,220640,1319002,65930,8157,658759,0
7,-1,641601,221074,1202365,66169,7829,600760,0
7,-1,636403,218881,1259977,65192,7919,629431,0
7,-1,638468,218993,1305815,66201,8997,652421,0
7,-1,639809,219564,1347457,66424,8499,673180,2
7,-1,638742,218576,1274798,66004,8011,636997,0
7,-1,640898,219811,1199360,66654,8228,598906,0
7,-1,641492,219494,1185800,66383,8170,592209,2
7,-1,645837,220326,1148522,66836,7953,573451,0
7,-1,634875,218988,1258432,66217,7233,628554,2
7,2,711537,249083,1415582,74409,9052,707225,0
7,-1,658064,223019,1334347,69266,8759,666632,0
7,-1,644063,221304,1222147,67221,8427,610219,2
7,-1,638018,218899,1279820,66201,7764,639460,0
7,-1,640764,218698,1206409,66062,7320,602810,0
7,-1,637470,219217,1210936,66316,7802,604946,2
7,-1,637540,218505,1299032,66010,7614,648853,0
7,-1,636932,218582,1330000,65976,7926,664532,2
7,-1,638970,218664,1147556,66117,7321,573144,0
7,-1,666052,223689,1258466,69533,8580,628679,0
7,-1,642439,220388,1176965,66888,7363,587667,0
7,-1,641272,218891,1362684,66111,8492,680910,0
7,-1,639585,219470,1184326,66401,7556,591739,2
7,-1,639136,218046,1186554,65844,7263,592951,0
7,-1,643915,219759,1301861,66366,7759,650353,2
7,-1,660577,223351,1352200,69415,8814,675575,0
7,-1,638888,219211,1394607,66294,8333,696794,2
7,-1,646323,220146,1349144,66772,8053,673837,0
7,-1,641957,218778,1185493,66070,7729,592247,0
7,2,710652,248433,1387216,74101,8870,693150,0
7,-1,637561,218988,1264445,66205,8479,631619,0
7,-1,636849,218750,1282203,66126,7770,640577,0
7,-1,636190,218464,1243882,66009,7754,621430,0
7,-1,663689,228543,1344447,69074,8857,671711,0
7,-1,638369,218363,1376671,65856,8332,687636,0
7,-1,640475,219260,1197394,66260,8311,598004,2
7,2,727054,252740,1552308,77530,10587,775216,0
7,-1,638119,218406,1326159,65959,7383,662532,0
7,-1,640961,218617,1162148,65929,6837,580650,0
7,-1,636469,218876,1245102,66204,7663,621822,2
7,-1,658314,223187,1314997,69356,8729,656972,0
7,-1,640096,219165,1136272,66269,7380,567559,0
7,-1,641515,219674,1182881,66571,7316,590758,0
7,-1,643672,220619,1212060,66987,7428,605026,2
7,2,714990,250138,1330598,75083,8918,664573,0
7,-1,640815,218844,1185849,66100,7030,592499,0
7,-1,641037,218793,1148907,66143,7207,573856,0
7,-1,650064,221798,1201204,67497,7721,599611,0
7,-1,637493,218131,1254704,65893,7877,626777,2
7,-1,640496,217346,1235869,65661,7705,617460,0
7,-1,639959,219439,1192110,66257,7789,595522,0
7,-1,641051,220738,1171421,67033,8234,584890,2
7,2,713953,251117,1308819,75455,8642,653540,0
7,-1,640015,218673,1267564,66103,7802,633208,0
7,-1,641521,219448,1276678,66287,7827,637819,2
7,-1,640806,219186,1165127,66160,7847,581865,0
7,-1,646609,220703,1197961,66961,7579,598128,0
7,-1,640867,218744,1275434,66045,7195,637320,0
7,-1,647190,220074,1207429,66438,7219,603176,0
7,-1,647496,221561,1187125,67175,6786,592676,0
7,-1,641873,219491,1242731,66213,7800,620827,0
7,-1,643369,218784,1294864,65957,7827,647186,0
7,-1,643745,219305,1289745,66165,7425,644403,0
7,2,713360,248806,1444483,74254,8921,721804,0
7,-1,646048,220800,1203112,67026,7406,600689,2
7,-1,641371,218922,1273596,66013,8013,636389,0
7,-1,642522,218792,1210102,66060,8328,604347,2
7,-1,644466,218790,1133031,66023,7497,565981,0
7,-1,635417,219810,1263051,66374,6631,630943,2
7,-1,641500,220898,1298579,66964,8290,648440,0
7,-1,637540,219334,1230031,66170,8645,614593,2
7,-1,637843,219046,1465762,66010,9245,732394,0
7,-1,638038,219337,1201066,66392,8436,599833,2
7,-1,641222,219975,1164586,66598,7115,581854,0
7,-1,639215,219110,1272616,66214,7951,635871,0
7,2,714905,251304,1479065,75119,9009,739051,0
7,-1,645750,221570,1342100,67322,8152,670153,0
7,-1,646212,219838,1284483,66612,8112,641708,0
7,-1,642124,220085,1289175,66653,7827,644024,2
7,-1,643272,219645,1282208,66467,7536,640547,0
7,-1,646506,222369,1250194,67659,8236,623981,2
7,-1,642014,219777,1199963,66406,7540,599397,0
7,-1,643943,220353,1189280,66669,7838,594088,2
7,-1,641490,220202,1286434,66596,8569,642671,0
7,-1,643408,220891,1273084,66847,7663,635964,2
7,2,716914,251242,1422002,75359,9355,710191,0
7,-1,643555,219090,1260160,66146,7373,629620,0
7,-1,648984,221603,1187615,67272,7773,592957,0
7,-1,647432,220290,1307316,66640,8290,653067,0
7,-1,644183,221886,1189480,67396,7893,593787,2
7,-1,641695,220279,1202662,66567,6785,600856,0
7,-1,641107,219916,1321658,66507,7727,660290,0
7,-1,643077,220399,1304878,66620,7680,651890,2
7,-1,647669,221538,1253993,67296,8132,625664,0
7,-1,643399,220056,1328282,66421,8019,663692,0
7,-1,644958,219831,1356048,66227,8407,677003,0
7,2,717134,248945,1310883,74506,8766,654800,0
7,-1,651483,221226,1406177,66715,8459,702329,0
7,-1,642529,220777,1139950,66835,7172,569127,0
7,-1,644119,220860,1178907,66692,6753,588794,2
7,2,729599,253174,1486004,77724,9598,742540,0
7,-1,646191,220321,1313795,66455,7403,656416,0
7,-1,643155,219809,1311978,66351,7695,655394,2
7,-1,643864,220273,1284759,66505,7664,641889,0
7,-1,647801,220278,1274583,66523,7827,636773,0
7,-1,638634,218708,1267563,66033,7621,633209,2
7,-1,648511,221390,1221374,67201,7533,609777,0
7,-1,635967,219236,1310026,66123,8151,654421,0
7,-1,638776,219931,1167692,66386,8018,583264,2
7,-1,643624,220905,1160007,66747,7094,579441,0
7,2,706582,247385,1599795,74001,10375,799454,0
7,-1,640984,219835,1275239,66370,7732,637056,0
7,-1,644331,221501,1212052,67234,7760,605084,2
7,-1,643814,219594,1293293,66310,8225,646151,0
