0,-1,690360,236556,1268035,70499,7581,633535,0
0,-1,691757,237138,1284504,70708,7453,641641,2
0,-1,638175,221212,1212313,66094,6283,605443,0
1,-1,687606,236995,1295531,70682,7567,647165,2
1,-1,632280,219476,1288047,65306,6526,643566,0
2,-1,697209,240082,1553188,71949,8944,775229,2
2,-1,643947,218970,1254714,65551,5959,626603,0
3,-1,692373,237384,1290678,70832,7346,644771,2
3,-1,645402,219317,1285096,65732,6758,642074,0
4,-1,645138,222184,1337578,67017,7725,668143,2
4,-1,642443,218537,1274152,65445,6571,636631,0
5,-1,632755,218826,1182444,65732,7025,590685,2
5,-1,644573,219160,1181667,65682,6277,590468,0
6,-1,634600,218922,1280928,65706,7560,640194,2
6,-1,642369,218738,1344112,65432,6625,671591,0
7,-1,634705,219590,1180992,65955,7053,589798,2
7,-1,643466,218713,1298688,65546,6960,648897,0
8,-1,640830,219716,1393943,66095,8740,696476,2
8,-1,641752,218767,1276221,65501,6204,637766,0
9,-1,638277,218823,1324427,65807,7108,661707,2
9,-1,643256,218891,1287875,65524,7012,643556,0
10,-1,646607,221490,1347116,66852,8189,672388,2
10,-1,643150,219031,1187318,65647,6347,593245,0
11,-1,636753,219207,1318112,65785,7323,658591,2
11,-1,643721,219220,1266387,65662,6657,632799,0
12,-1,642341,220180,1298521,66049,7574,648801,2
12,-1,649221,221739,1234765,66767,6871,616682,0
13,-1,636687,218975,1228611,65805,7167,613684,2
13,-1,641342,218938,1116357,65563,6586,557768,0
14,-1,638896,220128,1250661,66357,7989,624376,2
14,-1,648644,220052,1235456,65951,8094,617266,0
15,-1,639820,219440,1281552,66144,7369,640210,2
15,-1,647946,220197,1164646,66217,7344,581595,0
16,-1,641665,219435,1281212,66115,8434,640006,2
16,-1,643836,219212,1215680,65699,6759,607455,0
17,-1,642889,219345,1368352,66030,7729,683647,2
17,-1,641854,218925,1380179,65475,7103,689685,0
18,-1,633361,218924,1221449,65958,7167,610204,2
18,-1,649612,221227,1233670,66634,7334,616139,0
19,-1,637462,219821,1309318,66259,6996,654081,2
19,-1,664959,223799,1408852,68965,8241,703896,0
20,-1,635346,219692,1265698,66201,7397,632320,2
20,-1,642050,219122,1485603,65721,7658,742416,0
21,-1,642370,221287,1375305,66880,8427,685725,2
21,-1,644086,219411,1358791,65858,7497,679238,0
22,-1,639667,220160,1201944,66246,7216,600475,2
22,-1,662264,223583,1426127,68961,8390,712028,0
23,-1,637049,219717,1228298,66106,7780,613692,2
23,-1,665648,223620,1403412,68976,8869,701251,0
24,-1,642210,220431,1351229,66338,7606,675126,2
24,-1,646748,220470,1281880,66141,7844,640479,0
25,-1,635236,220203,1242322,66234,6371,620091,2
25,-1,644896,220029,1205774,66151,7873,602251,0
26,-1,640243,219847,1277554,66119,6855,638205,2
26,-1,642845,218588,1286486,65584,7261,642764,0
27,-1,644189,221342,1326430,66868,7582,662340,2
27,-1,670212,228384,1332317,68413,7930,665659,0
28,-1,664386,229294,1287533,68934,7275,643280,2
28,-1,645929,220512,1182989,66374,7415,590470,0
29,-1,637591,219522,1314991,65999,6148,656921,2
29,-1,640041,218477,1254680,65506,7343,626764,0
30,-1,640032,219689,1311005,65972,7365,654916,2
30,-1,640836,218842,1212717,65608,6829,605868,0
31,-1,642008,221787,1367436,66901,7833,683280,2
31,-1,642217,219067,1306577,65667,7506,652798,0
32,-1,640241,219817,1201130,66020,7444,599807,2
32,-1,640788,219359,1203634,65760,6441,601406,0
33,-1,640609,220206,1233824,66246,7120,615949,2
33,-1,647139,219942,1273377,66149,8070,635641,0
34,-1,642460,219795,1180211,65906,7537,589464,2
34,-1,644784,219655,1397449,65909,8276,698169,0
35,-1,644664,221121,1349278,66353,8414,673914,2
35,-1,640758,218629,1316776,65537,7083,657953,0
36,-1,640995,220172,1296252,66069,8481,647605,2
36,-1,645701,221060,1210978,66636,7087,604690,0
37,-1,639826,220355,1301678,66247,7775,650426,2
37,-1,661609,223199,1386720,68773,8269,692670,0
38,-1,647723,222028,1319709,66956,7994,659054,2
38,-1,640941,219130,1381897,65754,7641,690424,0
39,-1,639163,220583,1318816,66235,7748,658921,2
39,-1,637572,218640,1178133,65510,6595,588654,0
40,-1,666774,229164,1325488,68787,8819,662167,2
40,-1,641365,219339,1431827,65736,8132,715488,0
41,-1,644400,220486,1234812,66238,7509,616730,2
41,-1,644911,220899,1430994,66484,7360,714860,0
42,-1,641546,220780,1327293,66644,7614,662763,2
42,-1,664543,222993,1333941,68722,8195,666499,0
43,-1,639320,219257,1494669,65955,8196,746852,2
43,-1,648631,221176,1200654,66566,8049,599488,0
44,-1,640533,218986,1269163,65856,7524,633805,2
44,-1,642653,218362,1377717,65367,7668,688422,0
45,-1,640329,218951,1335066,65847,8830,666452,2
45,-1,640609,218547,1377439,65513,7917,688334,0
46,-1,641803,220055,1390131,66113,9185,694576,2
46,-1,649265,221687,1275278,66900,8265,636825,0
47,-1,642606,219757,1335297,65979,8345,667022,2
47,-1,664448,223993,1410970,69094,8797,705077,0
48,-1,642700,219781,1342044,65859,9127,670182,2
48,-1,642917,218956,1324757,65627,7842,661926,0
49,-1,636856,219523,1328454,65784,8062,663720,2
49,-1,642120,219068,1408942,65689,7932,703854,0
50,-1,636937,219161,1220715,65769,7715,609709,2
50,-1,647104,220900,1360881,66528,7453,679669,0
51,-1,638461,219107,1250926,65763,7154,624797,2
51,-1,642625,220568,1262183,66392,7012,630401,0
52,-1,640363,219116,1208586,65758,7813,603747,2
52,-1,640731,218117,1271558,65318,7744,635294,0
53,-1,639979,219013,1317502,65724,7923,658266,2
53,-1,642416,219047,1203975,65704,7114,601511,0
54,-1,635685,219164,1326655,65770,6947,662857,2
54,-1,642523,218990,1315278,65646,7772,657173,0
55,-1,638597,219003,1254974,65768,7221,626957,2
55,-1,648307,221725,1241910,66847,7284,620229,0
56,-1,662075,223557,1446779,68965,7882,722843,0
56,-1,639337,218864,1328876,65676,7029,663953,2
57,-1,640261,218432,1221322,65421,7355,610204,0
57,-1,645605,221304,1238960,66726,7116,618528,2
58,-1,640030,218943,1321546,65645,7451,660383,0
58,-1,638318,218985,1364196,65673,7352,681607,2
59,-1,661513,223627,1350116,68980,7580,674571,0
59,-1,638953,218779,1316115,65577,7375,657059,2
60,-1,641895,219473,1279681,65849,7362,639138,0
60,-1,642768,218797,1264957,65599,7823,631953,2
61,-1,639906,219346,1236890,65807,7517,617726,0
61,-1,632098,219347,1292641,65347,6866,645876,2
62,-1,638737,218654,1197164,65543,6811,598087,0
62,-1,636205,219660,1297674,65437,7180,648373,2
63,-1,639420,218937,1238394,65635,7287,618745,0
63,-1,634465,219517,1296987,65532,7622,647918,2
64,-1,639816,219387,1267923,65755,7276,633422,0
64,-1,635947,218696,1350660,66134,7619,674792,2
65,-1,643690,221268,1233248,66710,7132,615601,0
65,-1,636315,219534,1300744,66382,7210,649714,2
66,-1,660080,223906,1324766,69082,7752,661979,0
66,-1,637397,219290,1356104,66302,8040,677431,2
67,-1,642010,218501,1238685,65438,7328,618881,0
67,-1,639806,218976,1354052,66220,8055,676530,2
68,-1,644962,219775,1347544,66151,7718,672594,0
68,-1,640425,219778,1286816,66426,8270,642704,2
69,-1,640316,218875,1266875,65609,7451,632976,0
69,-1,637537,218773,1289454,66168,7927,644212,2
70,-1,642110,219201,1452941,65665,7738,726005,0
70,-1,643094,219584,1320546,66397,7176,659751,2
71,-1,688320,232789,1425559,71697,8003,712352,0
71,-1,639026,219345,1339723,66275,7798,669255,2
72,-1,639795,218963,1280308,65632,7278,639716,0
72,-1,644456,220846,1252433,67137,7954,625089,2
73,-1,640245,218926,1404706,65613,7406,701933,0
73,-1,644007,219919,1245952,66461,8460,622377,2
74,-1,640025,218784,1348844,65636,6949,673865,0
74,-1,636289,218754,1244279,66091,8823,621633,2
75,-1,666473,225004,1338283,69413,8285,668749,0
75,-1,637901,218939,1349922,66143,8202,674442,2
76,-1,639494,218914,1282931,65688,7355,640946,0
76,-1,639554,219452,1272838,66322,7568,635915,2
77,-1,635644,217975,1260208,65291,6754,629552,0
77,-1,637540,218771,1324609,66127,7957,661522,2
78,-1,638732,219466,1247076,65857,7000,622626,0
78,-1,643584,219145,1409282,66240,8153,704100,2
79,-1,642330,219328,1305942,65809,7330,652455,0
79,-1,641501,219750,1251281,66347,7167,624607,2
80,-1,646398,221345,1386739,66746,7913,692545,0
80,-1,638992,219256,1219683,66153,8534,609303,2
81,-1,640049,219158,1263350,65755,7614,631127,0
81,-1,643045,219631,1177867,66230,7136,588472,2
82,-1,639121,218953,1200961,65632,6747,600058,0
82,-1,639661,218894,1229746,66125,7585,614003,2
83,-1,640366,218806,1264095,65668,7259,631607,0
83,-1,638938,218835,1272214,65949,7148,635509,2
84,-1,641994,219966,1187120,66195,7288,592782,0
84,-1,645588,220695,1237626,66969,7656,617871,2
85,-1,645315,220985,1242838,66607,7721,620647,0
85,-1,643385,219095,1325772,66110,8408,662232,2
86,-1,662011,223873,1433858,69097,7879,716200,0
86,-1,636052,220053,1303629,66425,7344,651272,2
87,-1,637899,218625,1369115,65523,7264,684051,0
87,-1,648276,221981,1236465,67424,7500,616945,2
88,-1,638934,218908,1282542,65637,6860,640195,0
88,-1,640541,220142,1272188,66530,8348,635510,2
89,-1,640701,220043,1240881,66236,7174,619745,0
89,-1,643579,220630,1271271,66878,8421,634783,2
90,-1,639476,219508,1219137,65867,7093,609170,0
90,-1,644618,220627,1403886,66744,8517,701141,2
91,-1,638591,218802,1304390,65601,7906,651779,0
91,-1,641630,219687,1340087,66469,8348,669463,2
92,-1,635973,218426,1337730,65424,8022,667922,0
92,-1,641910,220310,1344824,66644,8457,671820,2
93,-1,646376,220103,1239155,66200,8082,618926,0
93,-1,645610,220149,1317862,66454,7916,658458,2
94,-1,643793,218907,1283360,65693,7894,640763,0
94,-1,638757,219447,1307956,66237,6896,653457,2
95,-1,643030,219106,1189275,65755,7610,594286,0
95,-1,642349,220249,1236288,66474,7138,617531,2
96,-1,642314,218574,1294760,65508,8057,646973,0
96,-1,637548,219501,1275879,66238,8378,637421,2
97,-1,649501,221625,1243267,66877,7846,620894,0
97,-1,639149,219650,1343376,66307,7549,671262,2
98,-1,640721,218460,1251958,65465,8088,625434,0
98,-1,641118,220821,1387376,66636,7206,693106,2
99,-1,646582,221102,1326106,66582,8074,662325,0
99,-1,644313,220561,1252881,66577,7663,625887,2
100,-1,643342,218820,1317530,65639,7537,658315,0
100,-1,650401,221713,1256975,67292,8080,627696,2
101,-1,642715,218865,1354714,65624,7953,676898,0
101,-1,640295,219807,1375189,66346,7849,687025,2
102,-1,644043,220112,1227509,66335,7863,612891,0
102,-1,650389,221938,1215149,67305,7445,606571,2
103,-1,661143,223481,1375840,68953,8341,687467,0
103,-1,640647,219487,1435860,66325,8366,717395,2
104,-1,641317,219102,1317059,65725,8340,658048,0
104,-1,640511,218923,1158493,66126,7344,578607,2
105,-1,644603,220494,1231963,66304,8213,615193,0
105,-1,645395,221294,1283713,67462,8045,640946,2
106,-1,641107,219352,1228101,65832,7713,613495,0
106,-1,642094,218867,1493699,66314,8911,746322,2
107,-1,640629,219272,1270322,65716,8188,634601,0
107,-1,635132,218734,1316727,66273,7217,657874,2
108,-1,643215,218832,1261700,65610,8332,630420,0
108,-1,638174,218689,1336157,66260,7154,667661,2
109,-1,662046,223240,1317768,68827,8685,658272,0
109,-1,641083,221186,1357966,67325,7108,678063,2
110,-1,640310,218598,1205674,65532,7326,602277,0
110,-1,640294,219325,1347081,66349,7445,673006,2
111,-1,639563,218749,1331972,65545,7614,665417,0
111,-1,636843,218710,1330934,66128,8140,665073,2
112,-1,644828,220781,1223214,66466,7040,610748,0
113,-1,639452,219056,1262555,65718,6877,630982,0
114,-1,640047,219093,1301722,65667,7385,650500,0
115,-1,658396,222765,1446944,68665,8197,722694,0
116,-1,641883,218839,1345329,65651,7547,672194,0
117,-1,648027,220891,1242573,66482,7796,620661,0
118,-1,643211,219301,1266438,65787,7922,632746,0
119,-1,642485,219443,1250832,65825,7242,624818,0
120,-1,649629,222241,1253914,67057,8184,626144,0
121,-1,639150,218563,1242245,65501,7134,621010,0
122,-1,641424,219356,1414306,65763,7725,706630,0
123,-1,663134,224453,1323387,69209,7428,661190,0
124,-1,640820,219320,1395941,65817,7921,697523,0
125,-1,641586,219958,1308377,65992,7467,653753,0
126,-1,637907,219084,1192605,65761,7102,595727,0
127,-1,639767,219440,1302965,65782,7485,650996,0
128,-1,647498,221046,1256307,66636,7729,627405,0
129,-1,663386,224044,1262114,69122,8354,630656,0
130,-1,639747,218995,1325743,65658,7212,662390,0
131,-1,640215,219310,1326929,65835,7289,662877,0
132,-1,661980,224582,1254108,69299,7984,626557,0
133,-1,638771,219103,1300354,65751,7725,649664,0
134,-1,638694,218433,1194602,65466,7065,596844,0
135,-1,640405,219353,1308497,65823,7610,653738,0
136,-1,635386,218011,1317514,65286,7366,658367,0
137,-1,639777,218998,1356009,65668,7702,677517,0
138,-1,642033,220707,1331852,66503,7174,665139,0
139,-1,659591,224188,1259736,69168,7749,629329,0
140,-1,635452,218442,1283369,65424,7253,641309,0
141,-1,645071,219818,1253448,65959,7449,626238,0
142,-1,642076,219017,1142965,65686,7691,570769,0
143,-1,641083,218575,1256906,65514,8248,628036,0
144,-1,645364,220638,1188615,66405,7478,593618,0
145,-1,640423,219347,1279200,65735,7655,639140,0
146,-1,642090,219089,1198205,65721,7607,598609,0
147,-1,641659,218933,1292331,65631,7808,645686,0
148,-1,648004,221829,1295191,66890,7345,646595,0
149,-1,642095,219712,1335118,66166,8117,666399,0
150,-1,638121,218834,1305839,65611,7776,652533,0
151,-1,639715,219180,1267360,65760,8062,632998,0
152,-1,637516,218726,1335098,65508,8051,667125,0
153,-1,639217,218525,1183311,65509,7244,591201,0
154,-1,642566,219589,1338671,65946,8049,668548,0
155,-1,645980,221339,1376037,66631,8096,687225,0
156,-1,658909,223350,1317281,68919,8085,657364,0
157,-1,641662,219244,1323851,65779,8361,661446,0
158,-1,638184,219028,1273257,65750,7385,636050,0
159,-1,643637,220987,1262142,66625,7479,630339,0
160,-1,639239,219632,1308623,65914,8132,653744,0
161,-1,636771,219062,1353877,65743,7922,676210,0
162,-1,640768,220638,1368139,66394,8204,682850,0
163,-1,636516,218301,1184476,65512,7017,591585,0
164,-1,639468,218659,1326850,65528,7989,662995,0
165,-1,660819,223444,1279740,68947,8245,639323,0
166,-1,661794,223915,1598274,69067,9173,797390,0
167,-1,639094,219498,1325702,65838,7743,661851,0
168,-1,640611,220256,1285033,66259,7864,641751,0
169,-1,640322,219499,1182088,65878,7103,590389,0
170,-1,636808,218492,1352691,65501,8234,675889,0
171,-1,640494,220624,1296965,66494,8681,647606,0
172,-1,660505,224968,1201780,69345,8860,600200,0
173,-1,641335,219548,1419299,65812,8446,709043,0
174,-1,643713,220613,1334860,66367,7743,666189,0
175,-1,638792,219139,1206934,65672,7279,602254,0
176,-1,643875,221268,1298834,66643,7628,648591,0
177,-1,661226,224536,1315765,69230,8613,657087,0
178,-1,645829,221023,1246882,66388,8792,622414,0
179,-1,642871,220492,1232172,66070,8617,615477,0
180,-1,643020,221475,1221365,66686,8503,609792,0
181,-1,637921,219272,1223520,65714,7913,611160,0
182,-1,637996,219286,1211480,65651,7319,605328,0
183,-1,638797,219963,1329245,65948,8438,664009,0
184,-1,639082,220453,1342823,66093,7384,670918,0
185,-1,647074,219654,1395181,65785,8158,697173,0
186,-1,670346,225187,1291602,69429,8320,645135,0
187,-1,645707,219752,1306381,65870,8351,652558,0
188,-1,642730,218892,1193118,65513,7629,596171,0
189,-1,645223,219315,1319204,65600,8126,659029,0
190,-1,648407,220763,1313132,66310,7971,655844,0
191,-1,645818,220095,1210111,65888,7770,605039,0
192,-1,643815,219214,1342966,65569,8301,670971,0
193,-1,644299,219677,1334783,65717,8247,666887,0
194,-1,648152,221198,1434966,66546,8475,716660,0
195,-1,646181,219965,1326447,65858,8263,662550,0
196,-1,642781,219120,1196779,65547,7001,597681,0
196,-1,663327,224022,1441604,69655,8764,719350,0
197,-1,645412,219839,1336168,65794,8231,667495,0
197,-1,639383,218602,1355988,66085,8454,677450,0
198,-1,648160,221237,1368160,66441,8296,683255,0
198,-1,638643,218056,1308401,65824,7819,653675,0
199,-1,644270,219696,1216371,65798,7662,607626,0
199,-1,639780,218800,1277008,66157,7766,637329,0
200,-1,639324,218161,1312116,65271,8201,655601,0
200,-1,644616,220928,1306869,67007,7430,652388,0
201,-1,649705,222047,1332328,66812,8102,665216,0
201,-1,641354,218608,1305112,66028,8657,652118,0
202,-1,665230,224803,1425395,69212,8698,712419,0
202,-1,643791,220241,1318659,66853,8731,658661,0
203,-1,642007,219774,1477870,65812,8239,738238,0
203,-1,661928,224081,1411204,69629,8570,705146,0
204,-1,647682,220552,1346363,66255,7823,672436,0
204,-1,638645,218877,1275746,66122,7274,637362,0
205,-1,644051,219474,1323634,65658,8141,661359,0
205,-1,637276,218336,1224078,65977,7224,611603,0
206,-1,643194,219324,1272916,65728,7577,635737,0
206,-1,636517,218477,1227553,66011,6287,613327,0
207,-1,649508,221568,1342517,66604,8344,670321,0
207,-1,640922,220531,1291091,66983,7118,644782,0
208,-1,664598,224193,1298657,69015,8959,648778,0
208,-1,658623,223658,1344729,69534,8474,671887,0
209,-1,640966,219179,1287835,65666,8662,643312,0
209,-1,638352,218101,1323382,65827,7442,661220,0
210,-1,646293,221645,1298770,66632,8440,648544,0
210,-1,640651,219596,1247658,66414,7430,623294,0
211,-1,644171,219532,1390602,65653,8438,694684,0
211,-1,639680,218904,1233241,66175,8149,616134,0
212,-1,646811,221437,1313719,66645,8797,655940,0
212,-1,636958,218076,1166771,65915,7784,582951,0
213,-1,664617,224596,1379171,69193,9352,688777,0
213,-1,643121,220814,1314305,67206,8479,656269,0
214,-1,642762,219829,1294637,65831,9108,646761,0
214,-1,658253,223180,1391682,69507,8675,695351,0
215,-1,642362,219342,1296796,65610,8364,647500,0
215,-1,643265,220454,1370795,66987,7452,684664,0
216,-1,641790,219809,1410458,65794,9205,704694,0
216,-1,635922,218249,1316607,66047,6906,657912,0
217,-1,644874,219699,1341350,65795,8260,669872,0
217,-1,635732,218342,1208174,66068,7007,603666,0
218,-1,641847,218858,1286771,65476,8254,642755,0
218,-1,635290,218535,1356877,66130,7809,678072,0
219,-1,643724,219716,1430801,65804,9481,714817,0
219,-1,644866,219845,1388686,66583,7681,693888,0
220,-1,642011,219206,1388411,65606,8173,693443,0
220,-1,639474,217975,1330300,65899,6976,664683,0
221,-1,645196,219706,1385129,65934,8989,692024,0
221,-1,647344,221347,1364108,67411,7929,680461,0
222,-1,669129,228291,1302297,68331,8111,650666,0
222,-1,662484,223582,1336821,69639,7646,667933,0
223,-1,646165,220658,1355604,66439,9474,676974,0
223,-1,640157,218913,1220050,66322,6475,609556,0
224,-1,640673,219059,1240338,65719,7733,619508,0
224,-1,643094,220059,1358282,66807,7532,678184,0
225,-1,645657,221302,1344959,66683,9006,671639,0
225,-1,636682,218380,1349776,66081,7864,674469,0
226,-1,663138,224466,1371245,69266,8820,684418,0
226,-1,640078,218853,1289487,66253,7897,644347,0
227,-1,639800,219330,1301543,65761,8046,650007,0
227,-1,637230,218363,1158100,66137,6984,578467,0
228,-1,643854,219741,1208689,65881,7478,603563,0
228,-1,642269,220358,1270553,66967,7372,634320,0
229,-1,642039,219282,1349003,65753,8604,674007,0
229,-1,639863,219066,1156640,66281,6779,577841,0
230,-1,643925,219649,1261648,65991,7746,629854,0
230,-1,636131,218382,1143182,66061,6736,571096,0
231,-1,642879,219975,1613881,66079,8959,805758,0
231,-1,657149,223127,1285016,69463,8077,641940,0
232,-1,641518,219658,1360361,65998,8026,679601,0
232,-1,640890,218491,1440410,66107,7094,719550,0
233,-1,639990,219012,1328641,65741,7781,663921,0
233,-1,644053,220634,1340231,66978,8022,669467,0
234,-1,642435,219737,1226745,66010,7756,612848,0
234,-1,636890,218112,1224405,65997,7228,611784,0
235,-1,640446,219071,1384209,65670,8388,691193,0
235,-1,642930,220490,1332366,67098,8656,665344,0
236,-1,662702,224561,1375845,69375,8081,687302,0
236,-1,636931,218605,1264790,66143,7139,631821,0
237,-1,638709,218916,1399970,65685,8482,699454,0
237,-1,638821,219746,1297869,66773,7246,648214,0
238,-1,638325,219811,1613832,66007,9565,806391,0
238,-1,640879,219319,1514767,66451,8232,756873,0
239,-1,650354,221847,1317386,67020,8451,657894,0
239,-1,640995,220387,1485612,67047,9137,742317,0
240,-1,667915,224622,1375762,69388,8808,687480,0
240,-1,635754,218223,1269728,66043,8016,634376,0
241,-1,643888,219341,1219917,65827,8150,609457,0
241,-1,639081,219996,1414911,66791,8226,706439,0
242,-1,642562,219207,1337280,65840,8008,668169,0
242,-1,635516,219015,1350766,66338,7440,674954,0
243,-1,645123,220335,1476745,66264,9301,736824,0
243,-1,635818,218964,1291348,66271,7644,645253,0
244,-1,664739,224781,1290367,69418,8820,644693,0
244,-1,659971,223136,1412306,69444,9339,705654,0
245,-1,644223,219813,1333482,66024,8490,666330,0
245,-1,643368,219969,1387350,66841,8627,692787,0
246,-1,644935,220624,1358887,66426,8454,678754,0
246,-1,640609,219518,1376910,66498,8555,686685,0
247,-1,640489,219452,1498649,66015,9259,747893,0
247,-1,636638,218402,1284173,66102,8001,641561,0
248,-1,645637,221208,1327796,66824,8510,663018,0
248,-1,636725,218302,1295518,66094,8153,646655,0
249,-1,638287,218794,1323987,65727,8055,661326,0
249,-1,640144,219818,1291458,66820,8060,645011,0
250,-1,642538,219394,1438175,65886,9170,718601,0
250,-1,639438,219754,1304098,66564,7999,651483,0
251,-1,662285,224487,1386860,69398,8171,692966,0
251,-1,637738,218664,1318085,66255,7949,658453,0
252,-1,639977,219615,1198154,66015,7243,598815,0
252,-1,635760,218866,1248728,66337,7430,623840,0
253,-1,637503,218700,1285846,65650,7650,642505,0
253,-1,637654,218365,1221630,66139,7429,610251,0
254,-1,637951,218742,1202409,65730,7511,600694,0
254,-1,639815,219343,1311339,66480,7449,655148,0
255,-1,641075,219053,1290953,65774,8470,644989,0
255,-1,658961,223501,1420040,69599,8484,709576,0
256,-1,660061,223750,1467067,69092,8819,733263,0
256,-1,636526,218826,1290247,66218,7418,644650,0
257,-1,638803,218824,1361564,65745,8316,680317,0
257,-1,638401,219927,1344980,66840,8298,671818,0
258,-1,639164,219276,1251862,65838,7339,625946,0
258,-1,636619,218111,1184038,66010,6712,591590,0
259,-1,642705,220156,1316342,66367,7901,657589,0
259,-1,637345,218853,1255112,66296,7559,626971,0
260,-1,659753,223038,1244810,68919,7833,621872,0
260,-1,635683,218661,1242886,66174,6901,620998,0
261,-1,641111,218832,1343180,65761,7918,671110,0
261,-1,634835,218431,1304032,66145,7237,651434,0
262,-1,638648,218207,1361712,65517,7912,680152,0
262,-1,637833,219843,1332687,66799,7447,665873,0
263,-1,640985,219220,1380156,65829,7905,689542,0
263,-1,634999,219024,1315201,66337,7213,657061,0
264,-1,640625,219391,1227613,65856,7258,613331,0
264,-1,633149,218684,1282453,66239,6923,640653,0
265,-1,666802,228400,1343545,68475,8055,671367,0
265,-1,653757,221242,1295598,67393,7799,646723,0
266,-1,638375,218944,1205951,65694,7255,602499,0
266,-1,645107,218780,1324559,66257,7929,661892,0
267,-1,638339,218935,1349822,65696,7319,674451,0
267,-1,647020,219187,1465092,66372,8625,731477,0
268,-1,638915,219435,1201415,65846,6659,600259,0
268,-1,645034,218634,1494069,66166,8453,746619,0
269,-1,638823,219302,1383067,65792,7843,691030,0
269,-1,647928,220750,1315352,67110,8199,656951,0
270,-1,643792,219716,1381531,65925,7724,690333,0
270,-1,644663,218347,1391607,66043,9088,695370,0
271,-1,639618,219095,1336073,65718,7754,667451,0
271,-1,644134,218553,1428459,66189,8934,713498,0
272,-1,645682,221395,1327990,66802,8247,663136,0
272,-1,641295,217882,1280022,65942,8253,639016,0
273,-1,640532,219973,1325393,66046,7285,662185,0
273,-1,644095,218493,1410475,66094,8004,704836,0
274,-1,638649,218924,1208411,65680,7389,603804,0
274,-1,643186,218866,1215927,66281,7575,607409,0
275,-1,642600,220577,1288992,66471,7779,643241,0
275,-1,641463,218537,1313726,66051,7712,656421,0
276,-1,638184,219227,1180369,65816,6924,589465,0
276,-1,642523,219228,1157345,66385,7392,578180,0
277,-1,638285,219294,1353452,65734,7869,676216,0
277,-1,645095,218618,1267612,66195,8224,633360,0
278,-1,637876,219479,1183239,65899,6977,591144,0
278,-1,641873,217986,1215995,65901,7876,607584,0
279,-1,659895,223677,1212588,69042,8313,605745,0
279,-1,649875,221395,1357706,67371,8435,678022,0
280,-1,641115,221063,1260819,66572,7733,629657,0
280,-1,689551,231940,1449345,72094,9454,724237,0
281,-1,640774,220192,1344720,66102,7861,671833,0
281,-1,645873,219768,1351801,66806,8128,675024,0
282,-1,657110,223695,1452398,69151,8193,725698,0
282,-1,641578,219050,1253354,66299,7527,626331,0
283,-1,640850,219879,1408429,66087,7479,703743,0
283,-1,642532,218350,1182707,66062,7430,590814,0
284,-1,645992,219867,1342101,66142,8207,670470,0
284,-1,663554,223265,1252668,69518,8998,625904,0
285,-1,647720,220974,1355806,66635,8201,676940,0
285,-1,640437,218341,1407813,66001,8153,702775,0
286,-1,647856,221138,1327234,66772,8192,662918,0
286,-1,645706,219908,1319894,66803,8139,659240,0
287,-1,642667,219464,1349489,65993,7723,674317,0
287,-1,641989,218874,1315238,66267,7674,657214,0
288,-1,647892,221265,1289318,66757,8602,643842,0
288,-1,667233,223067,1402374,69448,9246,700671,0
289,-1,645033,220006,1277192,66165,8104,638053,0
289,-1,641794,217912,1555969,65925,8999,777623,0
290,-1,642893,219246,1328470,65861,8295,663762,0
290,-1,643865,219145,1405384,66344,9201,701920,0
291,-1,642560,219465,1184249,66008,7796,591380,0
291,-1,643907,218732,1327612,66182,8507,663057,0
292,-1,640631,218807,1341423,65716,8341,670282,0
292,-1,643195,218577,1282368,66150,8047,640284,0
293,-1,664158,224887,1297636,69520,8534,648435,0
293,-1,647829,220832,1321075,67194,7978,659691,0
294,-1,643844,220314,1431843,66480,8413,714944,0
294,-1,640467,218314,1210153,66016,7452,604541,0
295,-1,640630,219702,1310596,66018,7738,654621,0
295,-1,641711,218711,1293992,66144,8170,646509,0
296,-1,635392,217945,1313359,65457,8028,656184,0
296,-1,645166,219032,1235489,66286,7876,617084,0
297,-1,643000,219158,1241379,65953,8073,620161,0
297,-1,642605,218443,1374243,66057,8039,686606,0
298,-1,642368,218954,1362350,65782,7979,680489,0
298,-1,641908,218853,1405214,66244,7992,702042,0
299,-1,646882,221138,1428714,66804,8717,713043,0
299,-1,639648,218326,1258580,65978,7593,628828,0
300,-1,641774,219543,1302736,66035,8394,650830,0
300,-1,641677,218925,1220818,66295,7391,609874,0
301,-1,638737,218388,1201892,65484,7778,600351,0
301,-1,640543,218507,1333914,66110,7833,666460,0
302,-1,646018,220931,1321386,66561,8092,659999,0
302,-1,643953,219752,1317212,66437,7616,658144,0
303,-1,640516,219266,1277404,65857,7354,638510,0
303,-1,643977,219011,1275454,66193,7589,637090,0
304,-1,637458,218516,1306777,65541,7455,652907,0
304,-1,647214,220637,1304330,67004,8050,650998,0
305,-1,640276,219823,1258241,65981,7336,628607,0
305,-1,664722,224212,1262060,69645,8060,630524,0
306,-1,643896,219254,1336470,65830,8632,667625,0
306,-1,642900,218634,1239348,66014,7652,619176,0
307,-1,639901,218571,1199119,65592,7718,598990,0
307,-1,643716,220023,1231515,66720,7204,614905,0
308,-1,639178,218867,1330775,65583,7855,664841,0
308,-1,641657,219038,1305083,66200,7890,651851,0
309,-1,646592,221190,1401726,66739,8671,699741,0
309,-1,638818,218268,1131039,65901,6851,565010,0
310,-1,638922,218722,1227166,65606,7130,613103,0
310,-1,639932,219022,1268471,66116,7752,633623,0
311,-1,643267,220528,1260205,66235,7698,629609,0
311,-1,640570,218403,1144770,65934,7281,571826,0
312,-1,641967,219618,1234545,66008,7402,616772,0
312,-1,644432,219754,1276293,66688,7617,637249,0
313,-1,641872,219742,1320291,65963,8308,659578,0
313,-1,666073,224579,1549532,69759,9403,774273,0
314,-1,660571,223828,1267793,69150,8370,633271,0
314,-1,640632,218662,1334502,65968,7343,666911,0
315,-1,640842,220147,1351468,66110,7757,675222,0
315,-1,642401,219975,1314840,66577,7845,656724,0
316,-1,644039,220498,1321836,66249,8503,660260,0
316,-1,644079,219755,1311392,66380,7715,654844,0
317,-1,642403,220578,1422921,66415,8565,710505,0
317,-1,642375,219488,1236159,66248,6987,617617,0
318,-1,640143,219483,1363009,65893,8623,681122,0
318,-1,639537,218445,1315994,65900,7685,657570,0
319,-1,641374,219739,1299008,65950,8277,649019,0
319,-1,643833,220742,1339259,67038,8387,668065,0
320,-1,639512,219456,1423152,65949,8241,710719,0
320,-1,645497,218785,1354304,66001,8613,676622,0
321,-1,643715,220952,1334684,66629,8386,667601,0
321,-1,645433,219543,1318312,66299,8417,658641,0
322,-1,638868,219497,1353617,65931,8197,676307,0
322,-1,643050,218625,1255496,65966,7871,627209,0
323,-1,639524,219773,1419643,65979,8278,709508,0
323,-1,645661,219205,1274668,66094,7256,636538,0
324,-1,636650,218823,1280865,65688,7584,639766,0
324,-1,649572,221128,1317841,67038,8456,657927,0
325,-1,644547,221904,1318770,67029,8351,658491,0
325,-1,651917,221205,1466855,66960,8331,732681,0
326,-1,641759,220662,1304105,66268,8064,651451,0
326,-1,643281,218860,1237786,65986,7714,618388,0
327,-1,638186,219693,1208162,65880,7743,603598,0
327,-1,645907,219981,1228182,66349,7816,613600,0
328,-1,647935,221877,1290147,66871,8057,644185,0
328,-1,649461,221815,1337516,67248,8417,667923,0
329,-1,666051,224755,1255791,69276,9193,627359,0
329,-1,663086,223194,1424582,69177,9106,711783,0
330,-1,644178,219968,1136931,65967,7546,567971,0
330,-1,641380,218491,1291742,65876,7850,645357,0
331,-1,644127,220265,1249313,66111,8533,624115,0
331,-1,644161,219760,1255494,66320,7829,626827,0
332,-1,647373,221641,1234319,66732,8236,616325,0
332,-1,647849,219826,1312049,66347,8791,655431,0
333,-1,642315,220067,1169078,66068,7554,584024,0
333,-1,666747,224007,1284069,69520,9111,641478,0
334,-1,643792,220735,1298083,66188,8069,648607,0
334,-1,644753,219695,1164724,66290,7403,581682,0
335,-1,664645,224490,1410982,69260,8215,705098,0
335,-1,641957,219023,1235842,66051,7937,617317,0
336,-1,644922,220946,1419255,66307,7910,708862,0
336,-1,645057,220044,1311944,66401,7622,655514,0
337,-1,643274,219979,1304212,65960,8198,651628,0
337,-1,643090,219591,1421074,66249,8701,710004,0
338,-1,645021,220900,1288870,66534,8085,643715,0
338,-1,648007,221368,1368712,67110,8231,683474,0
339,-1,641048,219711,1279126,65884,7660,639165,0
339,-1,641836,218902,1287314,65958,8133,643154,0
340,-1,642022,220336,1182207,66204,6943,590468,0
340,-1,642907,219132,1213100,66070,7772,606054,0
341,-1,640991,220035,1340355,66079,8182,669337,0
341,-1,644898,220486,1314646,66739,8154,656271,0
342,-1,645429,221440,1307717,66864,8502,653170,0
342,-1,639225,218692,1427171,65910,8061,713115,0
343,-1,642042,219604,1328313,65941,7342,663444,0
343,-1,647501,221682,1518524,67254,8768,758313,0
344,-1,645390,221114,1287097,66662,7789,642959,0
344,-1,641418,219904,1242386,66347,7578,620630,0
345,-1,642444,219492,1318713,65878,7765,658849,0
345,-1,643792,219579,1257011,66199,7025,627961,0
346,-1,642582,220485,1314455,66200,7390,656770,0
346,-1,644063,219524,1330100,66173,7549,664599,0
347,-1,664627,225695,1333720,69692,8462,666379,0
347,-1,642955,219752,1227338,66300,7230,613169,0
348,-1,645895,221562,1448445,66768,7382,723503,0
348,-1,645019,220836,1310737,66871,7625,654330,0
349,-1,639997,219816,1227662,65959,7748,613316,0
349,-1,644364,219474,1328251,66227,8211,663555,0
350,-1,641259,221253,1263875,66669,8857,630875,0
350,-1,642622,219201,1204506,66087,7541,601304,0
351,-1,645176,220688,1194133,66254,7441,596169,0
351,-1,647831,221573,1237365,67183,7907,617674,0
352,-1,642663,219465,1240962,65786,8112,619730,0
352,-1,662933,223918,1259097,69462,8725,629129,0
353,-1,645518,220756,1204319,66338,7436,602352,0
353,-1,644051,220659,1358417,66826,7357,678168,0
354,-1,642688,219694,1240060,65944,7927,619363,0
354,-1,643713,220151,1333631,66465,7893,666292,0
355,-1,649732,222811,1252871,67263,8642,625185,0
355,-1,639147,218767,1204168,66010,7298,601579,0
356,-1,664773,225162,1243235,69529,8830,621125,0
356,-1,644999,219194,1272464,66090,7868,635792,0
357,-1,641376,219740,1292682,66044,8133,645878,0
357,-1,640920,219185,1261445,66133,7513,630121,0
358,-1,643582,220825,1216710,66274,7566,607701,0
358,-1,641667,219494,1402833,66231,7868,700647,0
359,-1,640163,219869,1362013,65910,8164,680511,0
359,-1,644998,221213,1322464,67062,7624,660483,0
360,-1,648145,222354,1375273,66974,8192,686824,0
360,-1,643448,219425,1191259,66216,7275,595022,0
361,-1,643211,221276,1360249,66391,8088,679596,0
361,-1,640461,218709,1345176,65880,7917,672075,0
362,-1,644477,221557,1329075,66693,7981,663660,0
362,-1,639570,218784,1331911,65896,8016,665407,0
363,-1,668839,229945,1275923,68943,7408,637398,0
363,-1,646370,221687,1435198,67240,8798,716711,0
364,-1,639485,220023,1325572,65966,8047,662336,0
364,-1,642100,220229,1238726,66407,7870,618811,0
365,-1,646217,221158,1456541,66356,8807,727886,0
365,-1,645463,220524,1275019,66552,7186,636979,0
366,-1,641135,219640,1190019,65783,7973,594687,0
366,-1,646221,219504,1255189,66226,7903,627148,0
367,-1,641586,220459,1212075,66173,7858,605619,0
367,-1,645839,219608,1358304,66236,8543,678639,0
368,-1,640650,220463,1295450,66097,8309,647411,0
368,-1,647178,220676,1374677,66604,7596,686777,0
369,-1,642395,220503,1260969,66136,7723,629863,0
369,-1,647067,219768,1354405,66317,7690,676731,0
370,-1,642815,221366,1307779,66644,8424,653072,0
370,-1,645698,219277,1227754,66068,7705,613350,0
371,-1,661648,224974,1313940,69371,8380,656414,0
371,-1,651558,221839,1314678,67254,8627,656483,0
372,-1,638459,219912,1330018,65936,8482,664370,0
372,-1,646479,220185,1376103,66480,8332,687534,0
373,-1,639636,220214,1430994,66052,8213,715023,0
373,-1,643121,219157,1483779,66083,8350,741697,0
374,-1,640021,220020,1239614,65943,7592,619239,0
374,-1,646700,219926,1349970,66388,7093,674286,0
375,-1,639595,220324,1302173,66030,8029,650681,0
375,-1,644999,219449,1186112,66208,7641,592601,0
376,-1,639778,220859,1398074,66256,8134,698503,0
376,-1,645311,220240,1333615,66453,8040,666317,0
377,-1,642413,222126,1380782,66843,8261,689668,0
377,-1,642412,219524,1284694,66182,7212,641638,0
378,-1,649188,220526,1199292,66150,7128,599250,0
378,-1,644675,219184,1228225,66080,7690,613579,0
379,-1,647829,220047,1341161,65887,7757,670230,0
379,-1,646380,219718,1338325,66254,7587,668600,0
380,-1,649088,221148,1339078,66367,8528,668810,0
380,-1,646086,220107,1264528,66428,6884,631448,0
381,-1,645142,219797,1228013,65886,7517,613563,0
381,-1,645119,219481,1226169,66163,7414,612471,0
382,-1,649636,220971,1336053,66329,7846,667386,0
382,-1,645336,219927,1348429,66317,8412,673448,0
383,-1,650405,221720,1360297,66734,8013,679510,0
383,-1,665607,224697,1425469,69681,8913,712031,0
384,-1,646337,220614,1372183,66191,8266,685613,0
384,-1,646403,220642,1246678,66842,7433,622418,0
385,-1,670239,225638,1259579,69623,8517,629291,0
385,-1,645549,220064,1399182,66485,8613,699124,0
386,-1,645631,220575,1228631,66171,7520,613842,0
386,-1,666088,224644,1310706,69794,9414,655011,0
387,-1,643285,219822,1359075,65836,7925,679075,0
387,-1,645897,220998,1171624,67023,7925,584904,0
388,-1,647382,220498,1303446,66171,6807,651248,0
388,-1,648197,219798,1275362,66459,8585,637150,0
389,-1,647013,220923,1332196,66233,7620,665664,0
389,-1,646586,219672,1263437,66351,7821,631084,0
390,-1,644132,220177,1263683,66040,6853,630868,0
390,-1,646200,219366,1334260,66286,8028,666576,0
391,-1,644522,219962,1599628,65917,8598,799392,0
391,-1,647439,220262,1308273,66595,8538,653676,0
392,-1,666873,225156,1319415,69451,8979,658444,0
392,-1,643297,219447,1374904,66341,8233,686779,0
393,-1,645348,220728,1267255,66180,8286,633080,0
393,-1,645574,219564,1293358,66339,8375,646111,0
394,-1,643936,220192,1163037,66015,6948,580817,0
394,-1,650011,221711,1370539,67341,8136,684598,0
395,-1,643080,220205,1247795,66074,7501,623309,0
395,-1,667490,224975,1532928,69856,9499,765955,0
396,-1,647026,221865,1233260,66782,7688,615929,0
396,-1,645887,220228,1775970,66622,9889,886507,0
397,-1,647952,220902,1171658,66293,7439,585221,0
397,-1,649454,221314,1284416,67116,8130,641349,0
398,-1,644972,220063,1251735,65989,8276,625357,0
398,-1,643466,219851,1228830,66442,7686,613906,0
399,-1,646279,220574,1343308,66150,8230,671036,0
399,-1,643663,219942,1384879,66387,8678,691872,0
400,-1,666134,225642,1307352,69758,7947,653276,0
400,-1,643626,219384,1330024,66313,7816,664403,0
401,-1,645179,220398,1402006,66223,8384,700397,0
401,-1,662338,223494,1349465,69398,8685,674277,0
402,-1,642127,219629,1377953,65957,7305,688551,0
402,-1,644559,219841,1192421,66483,7658,595652,0
403,-1,643475,220490,1429018,66287,7442,713927,0
403,-1,641666,219628,1301182,66398,7438,650333,0
404,-1,646329,221539,1314061,66755,7716,656293,0
404,-1,647416,221987,1284145,67507,7540,641256,0
405,-1,644800,221115,1219275,66510,6937,609074,0
405,-1,666191,225134,1380460,70000,8259,689743,0
406,-1,641469,219860,1301444,66074,7859,650209,0
406,-1,641065,219590,1248746,66290,6488,623888,0
407,-1,643439,220036,1202301,66204,7308,600539,0
407,-1,640277,219535,1327699,66224,7343,663357,0
408,-1,646203,219662,1375773,66061,8391,687328,0
408,-1,640414,219532,1274749,66138,7488,636930,0
409,-1,666650,224752,1320163,69507,7959,659566,0
409,-1,644286,221350,1245310,66989,7342,621954,0
410,-1,644978,220413,1358990,66313,8003,679061,0
410,-1,646738,219345,1296288,66111,7340,647684,0
411,-1,641557,219368,1317943,65984,7005,658354,0
411,-1,648112,220303,1452337,66461,8525,725647,0
412,-1,647439,221994,1354914,67149,7600,676363,0
412,-1,645814,219842,1349797,66338,8030,674463,0
413,-1,667822,225432,1336656,69777,8650,667720,0
413,-1,648661,221300,1303000,67039,7852,651099,0
414,-1,643504,219593,1343249,66075,7822,671149,0
414,-1,646460,220213,1348138,66386,7844,674015,0
415,-1,647572,221563,1382752,66866,8070,690549,0
415,-1,646697,220881,1295260,66726,7461,647137,0
416,-1,646781,221580,1362201,66634,7499,680716,0
416,-1,646066,220742,1298543,66659,7600,649087,0
417,-1,645365,220535,1281083,66297,7962,640030,0
417,-1,666727,225638,1439788,70045,8220,719185,0
418,-1,645763,221008,1275775,66442,8561,637215,0
418,-1,645476,220584,1338386,66590,7560,668698,0
419,-1,642748,220169,1239431,66129,8005,618887,0
419,-1,647703,220319,1326262,66442,7930,662705,0
420,-1,645388,221573,1260527,66808,8170,629647,0
420,-1,644640,219691,1266563,66240,8174,632873,0
421,-1,645021,220813,1235093,66447,7378,616983,0
421,-1,642415,220308,1388268,66399,7457,693365,0
422,-1,648347,222382,1336034,67252,8645,667060,0
422,-1,645323,220954,1291975,66861,7647,645365,0
423,-1,640575,219452,1272480,65835,8007,635544,0
423,-1,642093,219340,1223654,66177,7321,611443,0
424,-1,640998,219863,1376049,66098,8080,687582,0
424,-1,644065,220331,1313401,66589,7486,656257,0
425,-1,637575,219255,1224148,65887,7803,611478,0
425,-1,640991,219324,1328240,66168,8213,663704,0
426,-1,649804,221249,1362837,66867,8183,680557,0
426,-1,640001,219888,1335499,66315,7734,667257,0
427,-1,642465,218886,1277129,65747,6882,638060,0
427,-1,640225,220342,1221907,66503,7597,610535,0
428,-1,640875,218892,1406180,65750,7528,702314,0
428,-1,644006,219657,1312943,66333,8466,655982,0
429,-1,644823,220693,1353627,66573,7932,676128,0
429,-1,648717,221630,1231427,67251,7905,614981,0
430,-1,643665,219621,1272866,65996,7344,635884,0
430,-1,664622,224086,1346211,69547,9147,672522,0
431,-1,640791,219185,1211659,65764,7708,605161,0
431,-1,643128,219798,1257837,66382,7822,628436,0
432,-1,643378,220231,1296508,66095,7966,647780,0
432,-1,645036,220411,1218085,66780,7575,608370,0
433,-1,641783,219065,1259309,65675,6676,629344,0
433,-1,643254,219896,1373285,66412,7839,686266,0
434,-1,643971,220111,1344699,66073,6593,671977,0
434,-1,641797,219644,1255959,66293,7183,627571,0
435,-1,645543,221096,1389126,66586,7243,693725,0
435,-1,641132,219461,1404022,66283,7368,701350,0
436,-1,645575,221355,1330616,66746,7526,664621,0
436,-1,639081,218997,1289545,66010,7330,644339,0
437,-1,638055,218960,1219220,65613,6411,609134,0
437,-1,639948,218934,1267841,66072,7451,633544,0
438,-1,645540,220623,1278839,66159,8074,638889,0
438,-1,644078,220743,1217869,66876,7296,608332,0
439,-1,641780,219527,1246393,65885,8310,622739,0
439,-1,641802,219936,1277463,66432,7846,638218,0
440,-1,637541,217981,1213807,65372,7526,606314,0
440,-1,640194,220104,1233137,66401,7489,616159,0
441,-1,645498,220827,1241137,66334,8839,619848,0
441,-1,644778,220065,1302620,66458,8429,650789,0
442,-1,639710,219068,1161962,65727,7830,580452,0
442,-1,640949,219610,1282956,66314,7768,640949,0
443,-1,642686,220247,1276833,66334,8612,637034,0
443,-1,637816,218811,1335695,65964,7598,667395,0
444,-1,640604,219903,1187354,65967,7658,593151,0
444,-1,662351,224240,1460332,69618,8640,729614,0
445,-1,639208,219854,1362082,65979,8419,680384,0
445,-1,642409,220468,1316418,66603,7139,657775,0
446,-1,641245,219497,1235515,65909,7015,616576,0
446,-1,639163,219104,1310447,66116,7455,654856,0
447,-1,640849,219403,1399592,65818,7498,699296,0
447,-1,639631,219667,1279449,66322,7689,639248,0
448,-1,645102,221460,1395820,66859,7976,696956,0
448,-1,641610,220278,1314809,66517,8225,656976,0
449,-1,661646,224080,1302031,69194,8365,650473,0
449,-1,641349,219779,1305765,66382,8180,652515,0
450,-1,641711,220380,1354640,66190,7704,676801,0
450,-1,638701,219149,1320035,66140,7933,659568,0
451,-1,644459,221266,1339969,66664,7659,669286,0
451,-1,644450,221210,1273339,67184,8144,635869,0
452,-1,638888,219844,1358771,65915,7664,678895,0
452,-1,640609,220029,1333821,66436,7968,666386,0
453,-1,640740,220217,1285358,66055,7360,642231,0
453,-1,642719,221191,1257122,67020,8093,627842,0
454,-1,644675,220276,1419784,66109,7459,709336,0
454,-1,640226,220058,1317521,66482,8030,657920,0
455,-1,640506,219027,1199262,65668,6711,598725,0
455,-1,649169,220592,1243681,66616,7545,621335,0
456,-1,643502,220082,1321534,66050,7676,660264,0
456,-1,647048,219779,1366028,66325,8506,682581,0
457,-1,641098,219549,1386778,65900,8011,692802,0
457,-1,645247,219465,1240947,66224,7797,620034,0
458,-1,644638,221366,1301628,66737,8111,650043,0
458,-1,646255,219621,1187231,66320,7504,593103,0
459,-1,638994,219552,1344126,65847,7355,671496,0
459,-1,645556,219328,1237783,66200,7715,618488,0
460,-1,642332,219635,1372717,65928,7547,685854,0
460,-1,646761,220203,1247587,66497,8045,623348,0
461,-1,637741,219180,1286784,65736,6398,643045,0
461,-1,649212,221120,1255402,66973,7635,626995,0
462,-1,645607,221774,1296963,66894,7464,647481,0
462,-1,646450,220373,1308685,66580,8068,653850,0
463,-1,638766,219523,1355445,65921,7425,677142,0
463,-1,643923,219364,1265424,66240,7503,632226,0
464,-1,637380,219089,1183512,65718,6552,591210,0
464,-1,640995,219071,1381020,66093,7265,690090,0
465,-1,665347,229165,1338979,68752,7345,668920,0
465,-1,649498,220518,1279568,66809,8128,638924,0
466,-1,637239,218942,1200186,65659,6923,599450,0
466,-1,642526,218876,1401815,66039,8228,700426,0
467,-1,639812,218851,1233253,65631,7451,616085,0
467,-1,667045,224637,1408224,69693,8752,703551,0
468,-1,641354,219846,1154920,65993,6808,576907,0
468,-1,643633,219698,1287463,66295,8103,643310,0
469,-1,641336,219890,1201758,65984,7505,599875,0
469,-1,645336,220521,1299947,66806,7589,649262,0
470,-1,661129,224441,1269887,69263,8339,634487,0
470,-1,644075,220285,1361920,66527,7524,680593,0
471,-1,636567,218990,1340176,65664,7135,669607,0
471,-1,644601,219843,1365133,66324,7396,682030,0
472,-1,638586,220186,1286020,66114,6824,642598,0
472,-1,642648,219754,1366552,66351,7035,682796,0
473,-1,638950,219767,1312919,66017,7142,655959,0
473,-1,641581,219539,1240620,66298,7570,619759,0
474,-1,638183,220033,1304924,66201,7233,651653,0
474,-1,641639,219543,1210721,66225,7362,604863,0
475,-1,638310,219313,1189383,65821,7233,594171,0
475,-1,639206,218890,1348497,66038,7575,673802,0
476,-1,636555,218972,1289555,65648,7782,644293,0
476,-1,666175,223747,1471231,69389,8903,735075,0
477,-1,640453,221257,1434863,66749,8163,716514,0
477,-1,645905,219907,1337747,66416,8241,668356,0
478,-1,642787,219323,1299992,65764,7581,649531,0
478,-1,646001,220434,1316675,66822,7688,657609,0
479,-1,646184,220597,1388997,66435,8548,693784,0
479,-1,643885,218980,1257757,65994,6890,628378,0
480,-1,641715,219024,1299141,65683,7466,649041,0
480,-1,642647,219474,1309245,66223,7322,654106,0
481,-1,663469,224342,1382826,69233,7870,690927,0
481,-1,649001,221863,1253807,67281,7701,626168,0
482,-1,643381,220071,1429564,66065,8282,715258,0
482,-1,663133,223911,1364133,69506,7951,681594,0
483,-1,642581,219805,1319132,65989,7377,659147,0
483,-1,644338,220520,1264086,66599,7335,631567,0
484,-1,644914,221306,1301206,66717,8084,649878,0
484,-1,645677,220408,1351115,66753,6892,674801,0
485,-1,661464,223805,1364775,69016,9428,682026,0
485,-1,642578,219357,1415127,66275,7540,707016,0
486,-1,640647,219656,1363421,65991,7889,681330,0
486,-1,645539,220625,1262445,66868,7487,630369,0
487,-1,640400,219843,1313972,66045,7450,656560,0
487,-1,663341,224102,1357641,69510,8130,678360,0
488,-1,643986,219614,1210114,65996,7498,604593,0
488,-1,642421,219523,1335792,66184,6710,667444,0
489,-1,641550,219052,1287644,65812,7716,643395,0
489,-1,642314,220679,1244855,66815,7060,621819,0
490,-1,663572,224058,1287097,69293,7930,643120,0
490,-1,644007,219796,1331054,66280,7683,665044,0
491,-1,643484,220399,1349741,66309,7687,674411,0
491,-1,643076,220008,1150077,66388,7012,574519,0
492,-1,640340,219043,1312433,65831,6932,655676,0
492,-1,643095,220546,1209957,66521,6626,604487,0
493,-1,644188,220698,1412172,66632,7275,705261,0
493,-1,645061,219906,1347936,66297,7115,673526,0
494,-1,641219,219831,1472227,66135,8254,735583,0
494,-1,663880,224623,1404590,69691,8233,701913,0
495,-1,639640,219526,1273050,66040,6879,636368,0
495,-1,640746,219484,1292902,66164,7360,646038,0
496,-1,642083,219963,1322356,66194,7569,660667,0
496,-1,639608,219156,1287586,66075,6909,643358,0
497,-1,638475,218978,1227676,65780,6422,613373,0
497,-1,639188,218979,1213881,65997,6888,606424,0
498,-1,640785,219551,1277374,65974,7024,638124,0
498,-1,640906,219892,1297006,66354,7504,648085,0
499,-1,639000,219373,1430214,65986,8175,714275,0
499,-1,660208,224027,1432214,69526,8018,715603,0
500,-1,637915,219296,1241197,65918,6366,620389,0
500,-1,647727,220089,1326374,66417,7594,662685,0
501,-1,644430,221674,1347226,67010,7239,672744,0
501,-1,644874,219266,1326160,66058,8012,662579,0
502,-1,659598,224270,1319588,69376,7128,659343,0
502,-1,648401,220706,1223613,66814,7821,611148,0
503,-1,640184,219188,1196661,65866,6922,597901,0
503,-1,644541,219707,1357462,66263,7863,678203,0
504,-1,640757,219213,1198062,65958,7242,598338,0
504,-1,643778,219196,1250012,65954,7946,624553,0
505,-1,643355,220125,1307919,66170,7694,653510,0
505,-1,649841,221908,1308401,67211,8218,653457,0
506,-1,639578,219156,1234984,65893,7139,616977,0
506,-1,643612,219804,1324368,66219,7318,661746,0
507,-1,639150,219027,1457691,65821,7760,728398,0
507,-1,645389,220376,1406813,66428,7901,702933,0
508,-1,639842,219153,1197392,65851,7178,598216,0
508,-1,647119,220803,1273582,66577,7469,636385,0
509,-1,641349,219632,1224412,66031,7170,611752,0
509,-1,642159,219717,1329297,66207,6960,664277,0
510,-1,640710,220466,1303909,66516,7596,651281,0
510,-1,643215,219964,1264877,66319,7364,631962,0
511,-1,640418,220096,1183373,66209,6610,591099,0
511,-1,645849,221211,1223575,66915,7625,611100,0
512,-1,637606,219423,1308758,65971,7313,653944,0
512,-1,644228,220848,1236334,66614,7855,617689,0
513,-1,643133,219634,1242655,66004,7330,620624,0
513,-1,643880,219301,1226161,66148,7219,612616,0
514,-1,640665,219608,1383227,66043,7701,690993,0
514,-1,644068,219482,1295293,66076,7605,647256,0
515,-1,640180,219691,1289685,66021,7257,644401,0
515,-1,668331,225638,1342003,69944,8152,670573,0
516,-1,638963,219614,1301720,66069,8115,650422,0
516,-1,644784,220479,1269881,66487,7049,634533,0
517,-1,637414,218827,1286293,65709,7285,642782,0
517,-1,646371,220544,1301575,66495,7022,650380,0
518,-1,643133,221671,1325308,67044,7892,661861,0
518,-1,642902,220207,1367132,66391,7946,682689,0
519,-1,659317,224182,1266029,69360,8210,632600,0
519,-1,645314,220761,1313083,66542,7630,656129,0
520,-1,640961,219720,1322646,66079,7396,660847,0
520,-1,645924,221503,1235710,66982,7771,617216,0
521,-1,642597,220727,1441804,66572,8243,720170,0
521,-1,643866,220749,1318484,66636,7336,658747,0
522,-1,635365,218912,1308313,65770,7570,653702,0
522,-1,639658,219367,1377649,66082,8307,687960,0
523,-1,637911,219287,1220019,65937,7040,609569,0
523,-1,648017,220360,1416810,66470,8516,707936,0
524,-1,644894,220225,1329811,66446,8079,664095,0
524,-1,645290,220155,1357067,66450,8107,678032,0
525,-1,639999,218733,1210736,65688,7001,604793,0
525,-1,643894,219883,1419211,66330,8031,708933,0
526,-1,640988,219139,1372788,65831,7792,685911,0
526,-1,641719,219670,1399276,66264,7305,699130,0
527,-1,663068,223875,1317500,69205,8118,658242,0
527,-1,645397,221293,1237978,67019,7936,618227,0
528,-1,640494,219711,1249046,65955,6698,624026,0
528,-1,645553,220216,1346667,66508,7992,672471,0
529,-1,639609,219164,1268798,65884,7096,633954,0
529,-1,644123,220108,1223817,66417,7717,611166,0
530,-1,643863,220967,1359363,66674,8063,679063,0
530,-1,647563,222162,1320676,67383,7917,659169,0
531,-1,641123,219552,1338032,65928,7507,668568,0
531,-1,641395,220024,1458272,66480,8384,728679,0
532,-1,643427,220376,1295198,66285,6921,647120,0
532,-1,642501,220595,1319523,66681,8578,659240,0
533,-1,645946,221782,1568552,67008,8880,783387,0
533,-1,640249,219813,1211769,66408,7397,604726,0
534,-1,637532,218961,1272665,65836,6747,635855,0
534,-1,643327,220656,1463939,66758,8464,731297,0
535,-1,639880,219976,1261377,66095,6683,630197,0
535,-1,647647,221579,1383284,67260,7404,690876,0
536,-1,642099,220098,1217153,66190,6876,608193,0
536,-1,640371,219517,1346376,66320,8722,672701,0
537,-1,640865,220199,1338909,66417,7126,668711,0
537,-1,646019,222404,1382363,67606,8747,689302,0
538,-1,635708,219069,1234195,65812,6614,616671,0
538,-1,644581,220845,1342725,66785,8002,671192,0
539,-1,661827,223924,1391676,69213,7697,695358,0
539,-1,641178,220509,1431752,66614,8254,715145,0
540,-1,641029,219739,1528876,66041,8391,763916,0
540,-1,643519,220654,1602582,66716,8750,801199,0
541,-1,641535,219852,1253870,66083,7250,626498,0
541,-1,647632,220392,1176287,66540,7873,587764,0
542,-1,639378,219497,1218707,66007,6608,608835,0
542,-1,650100,221865,1298874,67395,8132,648527,0
543,-1,642977,220965,1327117,66685,7220,662934,0
543,-1,643494,219567,1290680,66320,7523,644878,0
544,-1,637940,219083,1205174,65911,6829,602060,0
544,-1,643804,219713,1284778,66353,8075,641947,0
545,-1,641961,220132,1316215,66168,8002,657650,0
545,-1,645036,220642,1341367,66746,8177,670172,0
546,-1,635919,218618,1353461,65671,8831,675989,0
546,-1,642869,220018,1290689,66511,7611,644888,0
547,-1,645382,222156,1221400,67240,7172,609716,0
547,-1,642995,220037,1246485,66432,7689,622832,0
548,-1,658051,223753,1233645,69225,7597,616349,0
548,-1,653261,222549,1279775,67604,8227,639105,0
549,-1,638614,219800,1348605,66091,7427,673872,0
549,-1,644793,219765,1380577,66341,7552,689864,0
550,-1,657213,223451,1255463,69119,8192,627386,0
550,-1,644030,220090,1366045,66568,7737,682541,0
551,-1,637729,219816,1349709,66097,6820,674377,0
551,-1,646229,221276,1299260,67120,7899,648815,0
552,-1,636536,219676,1312109,66097,7319,655515,0
552,-1,645553,220528,1258355,66643,7376,628778,0
553,-1,642392,219639,1471572,66101,8833,735024,0
553,-1,642577,219291,1372816,66236,7662,685953,0
554,-1,643611,220441,1267567,66268,6728,633357,0
554,-1,643747,219995,1344587,66509,7691,671861,0
555,-1,658210,223626,1291624,69181,7773,645237,0
555,-1,646274,221178,1244480,67088,7727,621545,0
556,-1,642399,220488,1326058,66326,7459,662522,0
556,-1,640693,219349,1220611,66193,7636,609863,0
557,-1,639505,219449,1254000,65953,7144,626605,0
557,-1,648452,222119,1275561,67466,8038,637074,0
558,-1,641944,220746,1342604,66557,7780,670757,0
558,-1,643526,220375,1274383,66650,7975,636711,0
559,-1,658196,223811,1266161,69151,7350,632505,0
559,-1,648527,221601,1282496,67232,8079,640335,0
560,-1,640963,220366,1365817,66287,7841,682662,0
560,-1,647905,221545,1293277,67237,7629,645684,0
561,-1,638033,219597,1283787,65986,7081,641504,0
561,-1,664507,224380,1440427,69741,10069,719419,0
562,-1,637091,219304,1291659,65959,6706,645365,0
562,-1,642438,219936,1366901,66434,8240,682957,0
563,-1,637349,219871,1229298,66046,6885,614084,0
563,-1,646836,220728,1494906,66742,9069,746182,0
564,-1,658711,223939,1208319,69280,7935,603668,0
564,-1,664905,224589,1409453,69785,9868,704127,0
565,-1,637752,218990,1233072,65788,6944,616086,0
565,-1,643445,220369,1362119,66635,8606,680499,0
566,-1,635352,218866,1128957,65827,6286,564010,0
566,-1,644714,220857,1449667,66799,8635,724293,0
567,-1,635413,218922,1248307,65809,7696,623263,0
567,-1,640180,219589,1312174,66277,8251,655605,0
568,-1,640140,220114,1232145,66215,7219,615603,0
568,-1,645683,220810,1312440,66740,8216,655649,0
569,-1,638943,219758,1222526,66094,7370,610673,0
569,-1,645523,221048,1208350,67049,8226,603285,0
570,-1,636248,219200,1224925,65955,7735,611986,0
570,-1,642474,219716,1283251,66382,8101,641321,0
571,-1,637575,219662,1313052,66009,7652,656146,0
571,-1,639494,219467,1180274,66358,6878,589563,0
572,-1,636770,219819,1285897,66053,7583,642029,0
572,-1,641264,220103,1297395,66562,7543,648275,0
573,-1,634849,219010,1238092,65813,7712,618531,0
573,-1,644266,219955,1337812,66558,8089,668411,0
574,-1,640921,221521,1316129,66967,7906,656976,0
574,-1,642520,219725,1235851,66466,7914,617587,0
575,-1,658372,224280,1309911,69354,8063,654465,0
575,-1,643984,220884,1349659,66849,8562,674319,0
576,-1,634913,219323,1366660,65944,7810,682869,0
576,-1,646145,221574,1262317,67357,8234,630355,0
577,-1,634266,219097,1775574,65869,9623,886437,0
577,-1,641283,220167,1243338,66652,7703,621151,0
578,-1,644761,219058,1349438,65826,8107,674268,0
578,-1,639154,219331,1298142,66342,7781,648595,0
579,-1,646230,220281,1303064,66264,8024,650829,0
579,-1,641384,220357,1314606,66754,8277,656613,0
580,-1,642407,219184,1241318,65901,7743,620183,0
580,-1,640291,220032,1312323,66767,7737,655099,0
581,-1,648033,221246,1327727,66873,8663,662583,0
581,-1,642310,219996,1585020,66620,8999,791549,0
582,-1,662838,223654,1323041,69115,8416,660704,0
582,-1,648387,220389,1214137,66676,7631,606388,0
583,-1,642835,219844,1352304,66130,8384,675085,0
583,-1,646147,219884,1328981,66563,8127,664061,0
584,-1,640373,219145,1256556,65881,7760,627707,0
584,-1,644519,219571,1332307,66408,8154,665479,0
585,-1,662972,223858,1363085,69214,8523,681129,0
585,-1,645767,220156,1274729,66659,7997,636789,0
586,-1,642881,219590,1288739,65989,7366,643910,0
586,-1,645305,220564,1326269,66984,8609,662419,0
587,-1,640400,219341,1266684,65927,7187,632526,0
587,-1,644101,220309,1577420,66722,10172,787974,0
588,-1,642771,220676,1311228,66600,7531,654868,0
588,-1,644263,219651,1321800,66496,8362,660465,0
589,-1,640912,219224,1311869,65936,7191,655610,0
589,-1,651456,222334,1243866,67675,7561,621013,0
590,-1,639887,219105,1309351,65838,7287,653864,0
590,-1,667059,224828,1386766,70026,9147,692917,0
591,-1,642092,220262,1245150,66251,6952,622208,0
591,-1,646068,220626,1203150,66853,7604,601105,0
592,-1,639238,219116,1179100,65865,7226,588985,0
592,-1,645066,220981,1214564,67121,8102,606399,0
593,-1,643151,221062,1247530,66754,7472,622836,0
593,-1,646216,220539,1243262,66830,8694,621044,0
594,-1,640383,219502,1430984,66000,8109,715599,0
594,-1,647312,222015,1355723,67572,9629,677125,0
595,-1,644981,220802,1320209,66628,7930,659437,0
595,-1,661034,224019,1476402,69701,10337,737831,0
596,-1,641451,219293,1203306,65969,7535,601049,0
596,-1,647147,220792,1222276,66908,8304,610562,0
597,-1,638968,218757,1326051,65702,7979,662404,0
597,-1,648701,221539,1304287,67334,8369,651420,0
598,-1,640029,219684,1291772,65959,7678,645481,0
598,-1,643864,220063,1341499,66633,8873,670039,0
599,-1,644170,220909,1367044,66670,7832,682982,0
599,-1,664353,224784,1949844,69911,11962,974365,0
600,-1,640723,219847,1312065,66093,7629,655559,0
600,-1,647419,221034,1321115,67042,9093,659758,0
601,-1,643863,221431,1380315,66824,7989,689378,0
601,-1,642015,219929,1208384,66426,7723,603700,0
602,-1,658641,223818,1368791,69179,7900,683996,0
602,-1,642275,219824,1314180,66480,8352,656515,0
603,-1,642460,220267,1366414,66238,7532,682654,0
603,-1,640626,219478,1267782,66318,8126,633176,0
604,-1,636976,219151,1223770,65813,6982,611311,0
604,-1,671320,230786,1321288,70046,8086,659527,0
605,-1,642262,219482,1304620,65985,7900,651762,0
605,-1,639523,219579,1255330,66313,7672,627333,0
606,-1,641792,219836,1387502,66080,8234,693214,0
606,-1,646702,220335,1378522,66549,8147,688553,0
607,-1,641785,219880,1289967,66140,6478,644157,0
607,-1,664766,224107,1395776,69621,9200,697296,0
608,-1,644615,220739,1315920,66614,7202,657244,0
608,-1,642684,220074,1338292,66479,7989,668523,0
609,-1,640379,219719,1289072,66045,7327,644128,0
609,-1,647219,221332,1230072,67151,7556,613976,0
610,-1,639501,219151,1247063,65959,7527,623079,0
610,-1,643945,220332,1372568,66612,8938,685826,0
611,-1,643490,220457,1258376,66317,7283,628745,0
611,-1,644162,220196,1217874,66615,7941,608431,0
612,-1,637917,218688,1356851,65760,7165,678054,0
612,-1,640243,219467,1360031,66291,8812,679383,0
613,-1,642048,220136,1330877,66236,7085,664817,0
613,-1,664322,224452,1384167,69732,9272,691539,0
614,-1,642375,220637,1378382,66587,7347,688453,0
614,-1,642640,219978,1253796,66560,7656,626442,0
615,-1,638761,219309,1268365,65912,6981,633708,0
615,-1,643092,220207,1360604,66613,8538,679892,0
616,-1,658897,223969,1270672,69279,7341,634434,0
616,-1,644645,221143,1282711,67174,8672,640051,0
617,-1,638526,219263,1369383,65954,7053,684195,0
617,-1,640700,218938,1318602,66172,8065,658589,0
618,-1,636781,219044,1271131,65781,6612,635100,0
618,-1,643714,220748,1608240,66845,9576,802610,0
619,-1,638980,220155,1321007,66431,7503,659880,0
619,-1,661593,224679,1400210,69892,9116,699297,0
620,-1,637501,219198,1217311,65864,7320,608191,0
620,-1,639076,220107,1318643,66566,7484,658735,0
621,-1,639474,219571,1315874,66039,7802,657455,0
621,-1,642791,219785,1274243,66421,8032,636573,0
622,-1,638128,219413,1299612,65937,6673,649367,0
622,-1,645118,220897,1267576,67003,8482,632923,0
623,-1,642400,220937,1390375,66741,7747,694407,0
623,-1,641152,220023,1454250,66606,8624,726618,0
624,-1,659118,224215,1291091,69340,7994,645106,0
624,-1,640318,219587,1309859,66286,8368,654505,0
625,-1,639001,219333,1299357,65922,8303,649159,0
625,-1,638045,219319,1326161,66255,8566,662416,0
626,-1,638979,219934,1227888,66197,6937,613508,0
626,-1,639052,220315,1241710,66867,7716,620289,0
627,-1,639310,220603,1335496,66552,7675,667221,0
627,-1,639545,219170,1331059,66301,8410,665106,0
628,-1,636989,219373,1210122,65977,7476,604580,0
628,-1,636832,218196,1216139,65954,7787,607618,0
629,-1,635364,218957,1328111,65788,8162,663586,0
629,-1,639839,219670,1303885,66508,7923,651469,0
630,-1,638393,218763,1233738,65680,7450,616396,0
630,-1,658001,223648,1516545,69581,9712,757479,0
631,-1,647575,221445,1301983,66910,8351,650391,0
631,-1,637023,219657,1189178,66570,8303,593806,0
632,-1,640602,219155,1291738,65915,7906,645225,0
632,-1,633361,218505,1305789,65833,7863,652313,0
633,-1,643129,220000,1201382,66139,7563,599463,0
633,-1,642942,218638,1433473,65967,7985,716017,0
634,-1,641585,219892,1196774,66148,6776,598051,0
634,-1,644437,218769,1228517,66018,7885,613777,0
635,-1,641611,220049,1316209,66354,7576,657433,0
635,-1,645163,219526,1339349,66254,8119,669125,0
636,-1,641896,219373,1206641,66012,7190,602843,0
636,-1,646125,220451,1240083,66833,7562,619163,0
637,-1,639345,218824,1365645,65728,8169,682392,0
637,-1,664271,223807,1405414,69449,9571,702196,0
638,-1,640098,219085,1243264,65862,6856,620969,0
638,-1,643311,218543,1302139,65810,8224,650537,0
639,-1,639720,219333,1280047,65938,7011,639512,0
639,-1,646809,219983,1390357,66572,8010,694286,0
640,-1,639340,219492,1307269,65931,7231,653173,0
640,-1,640359,217965,1276881,65621,8190,637916,0
641,-1,640421,220087,1306492,66111,7167,652737,0
641,-1,647822,221231,1249858,67033,7873,623810,0
642,-1,644386,221661,1346979,66949,7867,672732,0
642,-1,642549,219627,1222001,66251,7236,610382,0
643,-1,639002,219992,1319057,66107,7446,659093,0
643,-1,641084,218848,1307341,65952,8124,653238,0
644,-1,644814,220457,1486941,66447,9162,742785,0
644,-1,645753,219566,1355142,66180,7923,677027,0
645,-1,641546,219708,1351541,66100,7702,675306,0
645,-1,645869,219848,1367992,66291,7810,683550,0
646,-1,640185,219541,1373102,65971,8261,686082,0
646,-1,643184,218991,1399064,66005,8133,699018,0
647,-1,640758,219687,1293074,66087,8178,645998,0
647,-1,665509,223504,1318068,69316,8685,658578,0
648,-1,639258,219373,1221376,65938,7021,610303,0
648,-1,645407,219887,1203744,66302,7300,601339,0
649,-1,658742,223365,1282687,69024,8359,640692,0
649,-1,642621,218904,1329449,66025,7567,664144,0
650,-1,640713,219931,1326545,66126,7375,662638,0
650,-1,640504,218206,1336608,65673,7798,667868,0
651,-1,639743,219666,1313746,65997,6914,656554,0
651,-1,646104,220644,1329455,66842,7623,663579,0
652,-1,640263,220402,1356986,66506,7682,677373,0
652,-1,663071,223641,1420317,69329,8669,709660,0
653,-1,637878,219673,1410424,66015,8227,704853,0
653,-1,642012,219490,1207508,66207,7085,603278,0
654,-1,637705,218925,1295723,65791,7819,647430,0
654,-1,639019,218408,1290407,65824,7596,644788,0
655,-1,660029,223984,1182767,69281,7678,590884,0
655,-1,669524,228468,1350379,68831,7102,674702,0
656,-1,641319,220877,1234702,66652,7139,616592,0
656,-1,640150,218613,1248871,65869,7082,623979,0
657,-1,636617,219365,1140165,65975,6751,569595,0
657,-1,639553,219215,1313967,66089,8388,656525,0
658,-1,635858,219032,1241364,65836,7025,620249,0
658,-1,647383,220206,1288672,66724,7830,643323,0
659,-1,660959,223516,1254444,69069,8418,626760,0
659,-1,666789,223850,1547405,69397,9540,773188,0
660,-1,642490,220109,1357196,66210,7752,678130,0
660,-1,648015,220921,1265817,66888,7661,632115,0
661,-1,639478,219190,1209151,65967,7339,604125,0
661,-1,643949,219456,1302397,66247,8205,650677,0
662,-1,639419,218957,1273160,65757,7317,636260,0
662,-1,641688,218919,1332628,65954,8574,665812,0
663,-1,640364,219889,1300355,66157,7223,649729,0
663,-1,646248,220587,1253158,66869,8014,625796,0
664,-1,642829,221299,1302927,66838,7637,650618,0
664,-1,643031,219543,1267638,66420,7554,632682,0
665,-1,638788,220095,1371432,66189,8394,685226,0
665,-1,642751,219701,1317842,66315,8029,658293,0
666,-1,638816,219410,1275737,65913,7553,637426,0
666,-1,642236,219156,1344294,66099,8220,671639,0
667,-1,641263,220403,1348161,66496,7919,673370,0
667,-1,646835,221094,1262285,67048,8104,630195,0
668,-1,637256,219116,1227976,65921,6948,612895,0
668,-1,641260,219303,1342977,66138,7720,671021,0
669,-1,637998,219288,1370340,65938,8293,684709,0
669,-1,638921,218782,1355484,66009,8139,677193,0
670,-1,642160,221044,1337058,66717,7811,667730,0
670,-1,643684,219147,1154253,66072,7457,576590,0
671,-1,636347,218990,1406642,65799,7309,702878,0
671,-1,642853,218935,1276412,65985,8379,637732,0
672,-1,638501,219334,1193795,65977,7111,596455,0
672,-1,646952,221215,1182713,67110,7868,590607,0
673,-1,638097,219286,1330914,65941,7136,665096,0
673,-1,661059,223392,1287463,69295,9228,643167,0
674,-1,669502,230889,1351652,69802,7449,675007,0
674,-1,642645,219216,1158636,66122,7748,578161,0
675,-1,638403,219670,1315400,66051,7756,657097,0
675,-1,640231,218861,1280907,66032,7613,639792,0
676,-1,638129,219425,1290951,65937,7330,644984,0
676,-1,643891,220329,1252992,66627,7867,625623,0
677,-1,636919,219409,1215293,65947,7286,606894,0
677,-1,641580,218850,1300546,65973,7025,649927,0
678,-1,640086,220835,1340239,66637,8397,669381,0
678,-1,660759,223439,1378371,69234,8443,688621,0
679,-1,639122,219511,1295538,65978,7163,647012,0
679,-1,640581,219436,1273601,66146,7212,636354,0
680,-1,641459,221040,1337021,66721,7477,667761,0
680,-1,640602,219333,1286272,66148,7836,642622,0
681,-1,637464,219639,1329507,66060,7817,664257,0
681,-1,638000,218785,1218613,65965,7395,608769,0
682,-1,637414,220307,1201032,66278,6877,599776,0
682,-1,641449,219815,1398895,66253,7966,699007,0
683,-1,640710,221155,1337763,66732,7343,668213,0
683,-1,641640,220561,1302110,66845,8058,650074,0
684,-1,635749,219385,1195075,65995,6929,597056,0
684,-1,663155,223494,1427728,69310,8624,713290,0
685,-1,635080,219055,1369124,65770,7999,684089,0
685,-1,648131,220807,1241990,66804,7746,620238,0
686,-1,634910,219310,1373853,65974,7687,686434,0
686,-1,643398,219094,1404077,66037,8629,701548,0
687,-1,636299,219944,1213209,66120,7216,606160,0
687,-1,663826,223658,1659353,69308,10197,829163,0
688,-1,645514,220704,1328711,66582,8519,663567,0
688,-1,640614,218346,1201915,65836,7047,600496,0
689,-1,639013,219155,1299898,65852,7517,649535,0
689,-1,641799,219285,1296829,66165,7654,647817,0
690,-1,643090,219909,1346967,66161,7774,672725,0
690,-1,639626,218470,1326125,65856,7283,662602,0
691,-1,643133,220045,1339141,66156,7459,669044,0
691,-1,640530,218793,1240705,66096,8139,619643,0
692,-1,643108,220739,1366272,66652,7655,683066,0
692,-1,640295,218876,1310009,65972,8208,654310,0
693,-1,638047,219151,1368733,65857,7179,683577,0
693,-1,643958,220676,1158809,66802,7739,578367,0
694,-1,645688,221039,1370263,66699,7895,684044,0
694,-1,645214,219836,1229741,66332,7784,614266,0
695,-1,660508,223517,1493791,69118,8894,745923,0
695,-1,641575,218832,1331047,65962,8081,665003,0
696,-1,636972,219113,1282520,65780,7507,640812,0
696,-1,646274,220711,1244355,66884,7591,621191,0
697,-1,639611,219851,1138903,66163,6565,568732,0
697,-1,641030,218719,1264820,65938,7445,631869,0
698,-1,640916,220737,1230177,66601,7575,614154,0
698,-1,639906,218524,1328334,65950,7669,663435,0
699,-1,660557,223999,1222632,69280,7503,610749,0
699,-1,640038,218944,1201645,65964,6843,600326,0
700,-1,640430,219592,1572456,66065,8851,786798,0
700,-1,638587,218736,1295907,66014,7553,647438,0
701,-1,637204,218766,1349347,65747,7235,674267,0
701,-1,640957,219487,1314840,66205,8412,656694,0
702,-1,641735,220276,1337516,66553,8344,668062,0
702,-1,666454,228489,1543911,68914,8855,771855,0
703,-1,638018,219253,1334669,65920,7575,666856,0
703,-1,639852,219404,1355805,66126,8741,677282,0
704,-1,638827,219546,1302919,66005,7299,650969,0
704,-1,639979,218850,1400017,65988,9119,700001,0
705,-1,639519,220147,1268622,66227,7051,633708,0
705,-1,646157,220268,1330834,66432,8816,664824,0
706,-1,637419,219221,1363607,65877,7309,681310,0
706,-1,645601,220440,1352224,66680,8806,674995,0
707,-1,632811,218203,1313859,65523,7112,656459,0
707,-1,643488,219142,1504565,65997,8627,751921,0
708,-1,657265,224110,1343862,69317,8496,671435,0
708,-1,646253,220982,1337099,66971,7853,667612,0
709,-1,643003,219749,1296015,66046,7732,647534,0
709,-1,637906,218290,1201893,65715,7218,600582,0
710,-1,641360,219603,1230604,66059,7279,614738,0
710,-1,641122,219781,1364438,66323,8169,681762,0
711,-1,639633,219430,1388191,65962,7783,693525,0
711,-1,643682,219976,1322158,66705,8444,660132,0
712,-1,640635,219713,1225914,66093,7248,612460,0
712,-1,639645,218696,1193531,66115,7937,596235,0
713,-1,643802,221299,1382902,66868,7676,690885,0
713,-1,641520,219356,1243506,66269,8209,621353,0
714,-1,658970,223629,1286269,69204,7506,642672,0
714,-1,643321,220603,1208011,66929,8114,603131,0
715,-1,639972,220034,1254851,66144,7842,626863,0
715,-1,659392,223246,1515526,69377,9716,757259,0
716,-1,637189,218809,1255682,65762,6582,627428,0
716,-1,641088,219659,1223540,66588,7403,610779,0
717,-1,643879,221816,1642989,67126,8240,820565,0
717,-1,637611,218874,1358716,65965,8306,679120,0
718,-1,638915,220220,1340076,66451,7635,669276,0
718,-1,637885,219121,1245178,66031,8436,622140,0
719,-1,641594,220419,1571463,66387,8564,785162,0
719,-1,641113,218903,1272269,66022,8193,635549,0
720,-1,637122,219704,1210576,66119,6778,604825,0
720,-1,647122,221560,1213370,67204,7531,605713,0
721,-1,640216,221275,1308230,66951,7624,653183,0
721,-1,662093,223732,1392881,69410,8403,695372,0
722,-1,656873,223443,1283019,69176,8408,640943,0
722,-1,639033,218857,1212599,66001,6843,605833,0
723,-1,634153,218902,1310776,65887,7534,654804,0
723,-1,638042,218467,1388843,65791,7065,693959,0
724,-1,636612,219160,1301804,66018,8023,650247,0
724,-1,638355,218949,1220474,65950,7203,609583,0
725,-1,635359,219094,1237503,65951,7671,618222,0
725,-1,640304,219567,1237458,66244,7466,618130,0
726,-1,655032,223175,1329717,69070,9249,664369,0
726,-1,636610,218571,1311203,65783,7826,655015,0
727,-1,641684,219841,1428585,66244,8457,713721,0
727,-1,663194,223803,1479213,69406,9612,739070,0
728,-1,641183,219574,1290985,66110,7691,644756,0
728,-1,639451,219151,1355494,66110,8980,677214,0
729,-1,639083,219182,1296554,66000,7392,647788,0
729,-1,639108,219126,1259001,66067,8267,628984,0
730,-1,638984,219125,1245709,65998,6733,622229,0
730,-1,637815,218728,1297979,66060,8685,648472,0
731,-1,638747,219396,1287644,66050,7810,643245,0
731,-1,641939,220703,1209636,67027,8403,603871,0
732,-1,639441,220139,1363025,66550,8066,680491,0
732,-1,657734,223285,1353578,69379,9335,676253,0
733,-1,642616,220941,1325311,66853,7371,661726,0
733,-1,635716,218681,1216378,66014,8124,607488,0
734,-1,657894,223587,1366374,69193,7496,682684,0
734,-1,638474,219275,1271901,66223,7478,635489,0
735,-1,637232,219817,1361804,66189,7526,680095,0
735,-1,641641,217715,1326272,65706,7969,662484,0
736,-1,639395,220469,1316213,66629,7636,657391,0
736,-1,664493,223520,1273559,69423,9111,636014,0
737,-1,637754,219711,1315953,66188,7162,657140,0
737,-1,642415,218978,1187053,66145,7817,593121,0
738,-1,635061,218682,1342465,65835,6893,670987,0
738,-1,641982,219034,1338473,66188,8563,668777,0
739,-1,636196,219282,1394397,66066,8925,696596,0
739,-1,644047,219429,1369764,66296,8170,683819,0
740,-1,634268,218193,1207787,65727,6476,603369,0
740,-1,647718,221014,1392273,67075,7825,695153,0
741,-1,635414,218786,1259953,65906,6898,629301,0
741,-1,641551,218988,1327497,66156,7852,663252,0
742,-1,655012,223571,1291297,69230,8063,645166,0
742,-1,641458,219479,1239606,66516,7840,619054,0
743,-1,632991,218863,1480597,65813,7409,739796,0
743,-1,641563,219319,1339830,66278,7719,669080,0
744,-1,639123,219111,1214022,66016,7881,606118,0
744,-1,639503,218793,1216731,66059,6973,607902,0
745,-1,640356,219581,1295941,66122,7641,647421,0
745,-1,639742,219129,1307572,66201,7950,652897,0
746,-1,639795,219739,1318669,66216,7704,658793,0
746,-1,644300,219873,1258892,66373,7046,629206,0
747,-1,639474,220178,1344118,66561,8180,671402,0
747,-1,641217,219067,1256645,66209,7762,627823,0
748,-1,636673,218897,1307722,65901,7511,653419,0
748,-1,643211,220170,1274426,66570,7824,636276,0
749,-1,640481,220400,1467428,66622,8939,732936,0
749,-1,640314,218686,1255837,65916,7127,627335,0
750,-1,641249,220997,1310346,66876,7742,654176,0
750,-1,638624,217898,1297074,65774,7234,648106,0
751,-1,636617,219510,1278409,66106,7650,638577,0
751,-1,644965,221138,1215653,67092,7334,606888,0
752,-1,633530,218933,1396029,65873,9797,697122,0
752,-1,658017,222923,1391462,69171,8989,695124,0
753,-1,660008,223712,1248836,69308,8763,623846,0
753,-1,641986,219450,1350134,66344,7949,674405,0
754,-1,637241,219424,1243247,66078,7520,621063,0
754,-1,644708,220482,1287897,66844,8041,642693,0
755,-1,639315,220534,1400439,66631,8547,699459,0
755,-1,642588,220419,1247783,66902,7431,622472,0
756,-1,634458,218971,1205122,65865,7494,601788,0
756,-1,643466,219244,1209610,66338,8403,604174,0
757,-1,656230,223914,1306260,69342,8143,652676,0
757,-1,642606,219321,1217069,66244,8495,607962,0
758,-1,635123,218928,1308629,65889,7476,653795,0
758,-1,645071,220760,1274200,67048,8138,636064,0
759,-1,655774,223875,1362217,69355,8029,680559,0
759,-1,643401,220055,1335578,66514,8409,666866,0
760,-1,635879,220625,1380417,66665,7773,689677,0
760,-1,638032,218466,1330958,65974,8119,665067,0
761,-1,638539,219432,1245050,66072,6917,621475,0
761,-1,641387,218706,1329401,66039,7657,664012,0
762,-1,664514,223648,1376504,69248,8911,687850,0
762,-1,642414,219380,1373437,66274,8354,686242,0
763,-1,646185,220157,1528065,66331,9098,762675,0
763,-1,661876,223390,1453440,69444,8955,726313,0
764,-1,643108,219069,1237339,65992,7739,618119,0
764,-1,642591,219985,1233903,66712,7610,615835,0
765,-1,647939,220859,1262748,66854,8913,630211,0
765,-1,636717,218535,1403967,66033,8295,701197,0
766,-1,665094,223859,1254896,69334,8963,626923,0
766,-1,643481,220711,1347412,67084,7828,672910,0
767,-1,640826,218579,1334515,65797,8187,666740,0
767,-1,661512,222997,1339354,69254,8555,669277,0
768,-1,643243,219536,1498992,66112,9680,748859,0
768,-1,640824,218888,1285281,66162,7300,641874,0
769,-1,645392,220046,1218302,66309,7818,608638,0
769,-1,642402,220108,1236100,66721,7725,617252,0
770,-1,643072,219522,1228694,66126,7726,613821,0
770,-1,637830,217715,1250689,65650,7170,624905,0
771,-1,640979,218929,1418829,65897,8212,708831,0
771,-1,640323,219217,1233541,66230,7576,616167,0
772,-1,645758,220790,1338456,66806,8572,668035,0
772,-1,645530,221443,1246687,67210,7978,622325,0
773,-1,662540,223912,1262159,69356,8750,630046,0
773,-1,660827,224068,1522140,69569,9058,760656,0
774,-1,642820,219639,1367509,66180,8418,683177,0
774,-1,640867,219455,1343663,66270,7985,671327,0
775,-1,646491,220270,1315321,66492,8773,656819,0
775,-1,642061,220000,1260815,66711,7591,629724,0
776,-1,639949,218625,1317821,65810,8354,658178,0
776,-1,637524,218913,1265859,66163,7480,632428,0
777,-1,639177,218189,1362776,65737,8539,680869,0
777,-1,642792,220536,1202539,66916,8592,600413,0
778,-1,661488,223560,1293042,69185,8537,646098,0
778,-1,636831,218363,1338516,65965,8695,668793,0
779,-1,642668,219812,1324733,66213,8240,661581,0
779,-1,638310,220123,1239533,66731,7698,619057,0
780,-1,643281,220560,1359851,66674,8406,679203,0
780,-1,646900,221115,1221597,67147,7193,610008,0
781,-1,638682,219119,1220554,66028,7919,609690,0
781,-1,662804,223731,1361787,69519,8890,680195,0
782,-1,643968,219099,1226061,65993,6585,612550,0
782,-1,640114,218544,1253826,66066,7206,626365,0
783,-1,645479,220439,1238193,66624,7843,618239,0
783,-1,641745,218899,1241773,66057,7551,620448,0
784,-1,642194,219411,1183755,66103,8068,591321,0
784,-1,640106,218637,1349062,66096,7585,674028,0
785,-1,639280,218351,1250614,65721,8070,624784,0
785,-1,642141,218757,1280074,66053,7297,639539,0
786,-1,642836,220048,1349290,66293,7268,674137,0
786,-1,646391,221016,1293162,67044,7716,645475,0
787,-1,644198,220568,1304441,66732,7675,651315,0
787,-1,662292,223921,1482963,69595,9435,740924,0
788,-1,662894,223462,1340642,69152,8150,669781,0
788,-1,642429,219584,1307144,66382,7275,652864,0
789,-1,642554,219724,1455232,66120,8039,727237,0
789,-1,642814,219999,1424833,66719,9089,711221,0
790,-1,641852,219760,1316242,66188,7456,657396,0
790,-1,640244,219162,1474365,66177,8754,736576,0
791,-1,637283,218194,1552931,65735,8639,775120,0
791,-1,638050,218360,1393783,65945,8603,695912,0
792,-1,638408,219237,1350124,66041,7314,674444,0
792,-1,641341,219936,1557097,66510,8907,777703,0
793,-1,640687,218648,1289591,65794,6804,644242,0
793,-1,638635,218967,1530109,66125,7999,764432,0
794,-1,645613,220493,1506684,66619,9710,752506,0
794,-1,642732,220969,1233773,67153,7891,615424,0
795,-1,641415,219636,1368791,66155,7925,683880,0
795,-1,639829,218430,1254268,65908,7980,625990,0
796,-1,639896,219009,1211225,65912,7254,605065,0
796,-1,640560,219260,1221194,66238,8447,609743,0
797,-1,644709,220360,1370582,66599,7936,684345,0
797,-1,641615,219495,1366563,66317,8474,682481,0
798,-1,662207,223912,1336768,69342,8401,667845,0
798,-1,662187,224208,1400124,69624,9668,699527,0
799,-1,668597,228794,1343202,68827,8117,671174,0
799,-1,637124,218534,1202219,65998,7654,600695,0
800,-1,641891,220732,1331219,66722,7775,664941,0
800,-1,638269,218840,1373085,66104,8687,686163,0
801,-1,640323,218976,1353926,65870,7449,676376,0
801,-1,638048,218548,1370753,65969,8059,684862,0
802,-1,639061,218818,1198764,65880,7046,598899,0
802,-1,637104,218648,1366194,66020,8282,682543,0
803,-1,645020,221564,1378498,67052,8077,688387,0
803,-1,636464,218438,1351318,65955,7812,674887,0
804,-1,638991,219192,1299451,66014,7455,649258,0
804,-1,636535,218798,1302487,66079,7714,650785,0
805,-1,637949,218552,1292863,65795,7976,646001,0
805,-1,638992,219423,1377064,66346,8620,688071,0
806,-1,642595,220966,1296853,66792,7955,647635,0
806,-1,641034,220578,1254687,66892,8249,626490,0
807,-1,639335,219366,1171452,66096,7770,584918,0
807,-1,664310,228716,1439262,69123,9692,719029,0
808,-1,648457,221085,1445836,66847,8888,722107,0
808,-1,640999,218703,1272260,66154,8182,635520,0
809,-1,663775,223737,1335101,69339,8814,666932,0
809,-1,640306,219296,1350863,66280,8161,674830,0
810,-1,642199,219056,1343003,65931,7604,671068,0
810,-1,642761,219795,1433351,66449,7910,716257,0
811,-1,640754,218719,1273806,65888,6515,636025,0
811,-1,637497,218772,1214388,66117,7813,606628,0
812,-1,641833,219463,1178420,66055,6593,588829,0
812,-1,636258,218749,1401600,66080,8272,700271,0
813,-1,639394,218180,1316291,65602,7409,657715,0
813,-1,662417,223985,1394376,69555,9193,696675,0
814,-1,640618,219203,1241488,66025,7414,620351,0
814,-1,638895,219002,1288220,66089,7654,643636,0
815,-1,640378,219441,1290348,66054,7347,644666,0
815,-1,637174,218326,1227070,65907,7705,612707,0
816,-1,641769,219486,1346277,66017,7263,672703,0
816,-1,641329,220324,1239989,66769,7934,619034,0
817,-1,644294,221047,1389142,66848,7649,693665,0
817,-1,637266,218547,1238549,65982,7593,618731,0
818,-1,638879,219175,1353904,65984,6883,676435,0
818,-1,636983,218772,1267729,66093,7650,633224,0
819,-1,642501,220101,1306043,66254,7487,652591,0
819,-1,640744,219370,1295040,66333,8547,646931,0
820,-1,641275,219471,1277704,66013,7473,638377,0
820,-1,638875,218874,1367556,66157,8643,683281,0
821,-1,638367,218859,1332340,65670,7566,665657,0
821,-1,636723,218707,1285340,66117,8016,642187,0
822,-1,641677,219601,1229361,65984,8106,614162,0
822,-1,639392,219222,1323173,66196,8521,661174,0
823,-1,646222,221820,1275870,67010,8321,636781,0
823,-1,643266,221006,1218424,67077,8333,608237,0
824,-1,639264,219527,1249909,65964,8006,624228,0
824,-1,658524,223254,1345172,69370,9685,672209,0
825,-1,643087,220357,1267364,66248,6944,633168,0
825,-1,635161,218319,1291295,65894,7933,645180,0
826,-1,642894,220818,1332724,66586,7836,665650,0
826,-1,635560,218367,1250527,65923,7962,624713,0
827,-1,637847,218864,1327815,65741,6997,663390,0
827,-1,638266,219901,1281000,66681,8588,639729,0
828,-1,638530,219573,1433949,66002,8284,716353,0
828,-1,638671,219095,1373865,66177,9071,686298,0
829,-1,640163,220348,1310335,66239,7610,654121,0
829,-1,636662,218801,1273931,66072,8634,636514,0
830,-1,641925,219323,1309766,65840,8029,654464,0
830,-1,638207,219758,1311816,66453,9065,655384,0
831,-1,640854,218844,1308320,65698,7839,653733,0
831,-1,638576,220048,1306701,66689,8959,652660,0
832,-1,641651,219619,1228110,65992,7393,613126,0
832,-1,646193,219225,1309174,66198,7787,654050,0
833,-1,644604,220713,1400075,66526,7850,699125,0
833,-1,649064,220845,1328946,67033,8466,663726,0
834,-1,639231,219139,1294975,65743,7569,646275,0
834,-1,648125,220380,1188525,66786,8717,593691,0
835,-1,642147,219782,1230726,66054,7079,614807,0
835,-1,645132,220776,1244731,66990,7781,621384,0
836,-1,639522,219197,1309719,65811,8003,654402,0
836,-1,663970,223548,1404378,69474,9526,701609,0
837,-1,646235,221990,1345583,67060,8014,671831,0
837,-1,641885,218566,1272061,66016,8042,635690,0
838,-1,660868,223967,1348363,69225,8348,673679,0
838,-1,641235,219028,1388829,66225,8281,693886,0
839,-1,637896,219115,1309094,65765,7286,654035,0
839,-1,641582,218944,1305310,66126,7761,652220,0
840,-1,644090,219843,1245903,65989,7704,622437,0
840,-1,643547,219039,1338318,66214,8302,668586,0
841,-1,641006,219097,1254883,65681,7231,626995,0
841,-1,646591,220220,1275721,66770,7967,637186,0
842,-1,643138,220188,1294802,66088,7197,646884,0
842,-1,641080,218449,1386711,66036,8469,692744,0
843,-1,642060,219891,1284917,65931,7830,642164,0
843,-1,643525,219798,1237022,66425,8129,617952,0
844,-1,638598,219349,1174377,65770,7087,586792,0
844,-1,642068,219105,1345804,66134,8569,672470,0
845,-1,660069,223920,1254023,69065,7784,626455,0
845,-1,640763,218892,1256217,66101,7783,627607,0
846,-1,639014,219243,1273518,65728,7201,636283,0
846,-1,642869,219840,1276679,66376,8066,637795,0
847,-1,647842,222224,1418536,66911,8142,708530,0
847,-1,642840,220141,1260357,66704,7975,629538,0
848,-1,638980,219336,1328745,65834,7799,663850,0
848,-1,641699,218398,1390079,65959,8027,694482,0
849,-1,644195,222389,1349149,67042,7956,673749,0
849,-1,639988,218692,1296524,66028,8546,647693,0
850,-1,646429,220690,1327697,66461,8201,663439,0
850,-1,644166,220423,1223094,66832,8267,610635,0
851,-1,641867,219050,1371371,65741,7612,685194,0
851,-1,642212,219671,1180783,66320,7443,589815,0
852,-1,641474,219420,1248695,65888,7335,623861,0
852,-1,640068,218939,1252740,66148,8356,625870,0
853,-1,644050,219619,1224399,65936,7360,611736,0
853,-1,636439,218161,1325931,65797,6901,662466,0
854,-1,641840,219320,1261169,65841,7248,630146,0
854,-1,638447,218911,1404818,66106,8213,701936,0
855,-1,640612,219119,1359105,65745,8137,679359,0
855,-1,640415,218585,1332300,65999,8325,665741,0
856,-1,638645,218592,1291919,65739,8099,645466,0
856,-1,642892,219293,1358505,66279,8109,678587,0
857,-1,636983,218203,1266889,65561,7484,633028,0
857,-1,640981,219125,1210203,66247,7100,604543,0
858,-1,639519,219151,1288122,65820,7850,643665,0
858,-1,638621,218227,1278466,65886,8026,638746,0
859,-1,641617,220298,1364780,66403,8057,681558,0
859,-1,645197,221175,1224927,67105,7711,611991,0
860,-1,642355,219616,1180468,65884,7252,589822,0
860,-1,660650,223514,1535175,69458,9218,767102,0
861,-1,645828,220857,1247451,66616,7173,622963,0
861,-1,641764,218853,1326039,66115,7492,662373,0
862,-1,659663,222995,1461251,68784,8004,730127,0
862,-1,638493,218565,1295654,65951,7422,647386,0
863,-1,640221,218912,1304105,65667,7907,651585,0
863,-1,646197,221631,1232473,67393,7123,615371,0
864,-1,642563,219913,1234568,66062,7016,616711,0
864,-1,659053,223311,1370917,69411,8318,684939,0
865,-1,640576,219022,1427975,65817,7677,713565,0
865,-1,638437,218787,1313345,66125,7545,655947,0
866,-1,640552,219695,1377719,66036,6899,688318,0
866,-1,642089,220160,1219173,66748,7591,608770,0
867,-1,639472,218616,1295529,65828,7274,647278,0
867,-1,659886,223456,1332425,69405,8772,665765,0
868,-1,640266,219209,1279746,65957,7108,639525,0
868,-1,641098,219099,1218001,66190,7791,608516,0
869,-1,640948,219718,1346175,66184,8057,672619,0
869,-1,636227,218335,1254993,65907,8385,627054,0
870,-1,641356,219864,1302506,66133,7119,650548,0
870,-1,637882,219186,1245824,66164,8266,622205,0
871,-1,660626,224308,1382684,69436,8268,690863,0
871,-1,659116,223215,1253585,69333,8965,626278,0
872,-1,646082,220865,1457984,66707,8771,728209,0
872,-1,637631,218813,1184060,66101,7865,591350,0
873,-1,639517,218595,1300322,65656,8177,649462,0
873,-1,636232,218291,1171371,65857,7750,585065,0
874,-1,645191,221021,1409197,66753,8178,703127,0
874,-1,639219,219469,1279809,66366,7862,639313,0
875,-1,636387,218149,1232797,65359,8031,615918,0
875,-1,641358,220152,1247166,66738,7126,622898,0
876,-1,639333,218972,1448647,65904,8681,724151,0
876,-1,637976,219067,1360510,66215,7263,679647,0
877,-1,639362,218988,1466879,65919,7333,733051,0
877,-1,636521,218777,1368015,66087,7445,683412,0
878,-1,643090,220949,1441541,66857,8325,719925,0
878,-1,637464,218887,1377592,66222,7518,688166,0
879,-1,659263,223631,1320350,69211,8381,659600,0
879,-1,636325,218858,1351522,66042,8483,675228,0
880,-1,637515,218576,1326739,65687,8492,662713,0
880,-1,665037,223310,1346720,69412,8494,672919,0
881,-1,635484,218766,1307838,65661,8036,653411,0
881,-1,642424,218764,1318003,66130,8046,658523,0
882,-1,636416,217789,1419183,65416,8341,709038,0
882,-1,662086,223734,1410024,69517,8611,704311,0
883,-1,643848,220834,1415925,66644,8211,707059,0
883,-1,638738,218726,1302987,66047,7819,651051,0
884,-1,635517,218003,1322569,65355,8490,660803,0
884,-1,638154,218562,1224923,66016,7468,611820,0
885,-1,636607,218562,1216859,65674,7705,607866,0
885,-1,645142,219954,1352099,66519,8415,675487,0
886,-1,637495,218708,1522287,65776,8989,760311,0
886,-1,644319,220210,1266164,66757,7288,632216,0
887,-1,636881,218747,1228473,65767,7341,613649,0
887,-1,638947,218678,1277275,66101,7764,638174,0
888,-1,640056,220333,1304730,66456,7702,651556,0
888,-1,644332,220526,1256332,67035,7915,627239,0
889,-1,635696,218920,1216674,65739,7388,607976,0
889,-1,636968,218178,1211423,65855,7763,605207,0
890,-1,634403,218172,1177662,65541,6996,588379,0
890,-1,639513,219524,1292186,66321,7875,645537,0
891,-1,635502,218662,1319596,65710,7305,659260,0
891,-1,641385,218737,1308303,66019,8118,653730,0
892,-1,642123,221516,1279374,66886,7999,638987,0
892,-1,642247,219374,1209788,66303,7879,604333,0
893,-1,634041,218699,1205642,65750,7610,602141,0
893,-1,644681,220667,1235376,66967,8083,616822,0
894,-1,633850,218233,1398174,65491,8604,698597,0
894,-1,640843,219442,1261097,66311,7853,629888,0
895,-1,642493,218961,1325192,65904,9044,661332,0
895,-1,637918,218649,1206938,66056,7560,603257,0
896,-1,647432,221297,1224682,66764,8232,611560,0
896,-1,638338,218873,1207822,66066,8152,603375,0
897,-1,638841,218602,1211343,65761,7202,605084,0
897,-1,637440,218989,1170015,66099,7698,584353,0
898,-1,639246,219002,1159585,65758,7311,579236,0
898,-1,643998,220679,1177353,67001,7967,587927,0
899,-1,646011,221166,1259955,66847,8234,629030,0
899,-1,658696,222800,1265250,69271,8245,632244,0
900,-1,636511,218002,1307558,65517,7525,653269,0
900,-1,639464,219265,1205735,66285,7701,602318,0
901,-1,637166,218561,1200398,65735,6955,599604,0
901,-1,638841,219029,1209570,66161,6926,604363,0
902,-1,641745,220266,1375558,66470,8184,686754,0
902,-1,638332,219156,1327600,66262,8097,663378,0
903,-1,637276,218451,1323087,65639,8135,660950,0
903,-1,638540,218652,1381559,66094,8404,689570,0
904,-1,637207,218356,1505249,65650,8834,751627,0
904,-1,637982,218822,1315572,66085,8134,657418,0
905,-1,646048,221705,1317974,67072,8240,658017,0
905,-1,635823,218254,1301592,65925,7383,650315,0
906,-1,658934,223353,1336491,69111,8922,667769,0
906,-1,640562,220678,1225970,67018,7540,611878,0
907,-1,637771,218884,1233395,65828,6728,616138,0
907,-1,656114,223390,1398276,69353,9411,698783,0
908,-1,635640,218888,1377239,65812,7944,687577,0
908,-1,666361,227734,1386184,68784,8185,692608,0
909,-1,636520,218102,1231966,65473,7078,615299,0
909,-1,639124,218828,1336567,66085,7038,667642,0
910,-1,637759,218581,1299586,65549,7644,649244,0
910,-1,644238,221022,1223123,67118,7137,610737,0
911,-1,637474,218867,1194172,65705,6622,596554,0
911,-1,659975,223680,1378298,69519,8750,688808,0
912,-1,641166,220504,1344102,66376,7384,671274,0
912,-1,640424,219444,1379320,66341,8568,689137,0
913,-1,637601,218803,1271998,65603,6830,635514,0
913,-1,637339,218455,1375973,65978,8358,687535,0
914,-1,637284,218691,1300541,65578,7188,649723,0
914,-1,639300,219026,1316855,66193,8030,657729,0
915,-1,642040,221227,1622633,66697,8873,810545,0
915,-1,637145,218461,1420399,65973,8384,709841,0
916,-1,636905,218430,1302905,65483,7787,650901,0
916,-1,644177,221612,1322062,67388,8171,659646,0
917,-1,639835,220004,1334059,66250,8029,666260,0
917,-1,658407,223121,1387611,69286,9158,693282,0
918,-1,636238,218930,1237815,65765,7363,618394,0
918,-1,636270,218395,1216287,65962,7027,607573,0
919,-1,635628,218858,1180621,65638,7120,589701,0
919,-1,637595,219197,1318951,66272,8399,659041,0
920,-1,638505,219381,1194374,65871,7117,596583,0
920,-1,640583,218891,1168858,66111,8618,583915,0
921,-1,653605,222567,1229721,68738,7738,614226,0
921,-1,639662,218840,1241014,66094,8840,619901,0
922,-1,634353,218805,1200278,65662,7226,599597,0
922,-1,661297,223617,1403047,69516,9942,700472,0
923,-1,637460,218450,1239945,65523,6791,619510,0
923,-1,638443,218998,1291798,66211,9157,645391,0
924,-1,641149,220388,1365944,66494,8213,681963,0
924,-1,638724,219525,1181777,66318,8216,590028,0
925,-1,659506,223542,1314827,68944,8766,656868,0
925,-1,637719,218574,1235170,66030,8860,617056,0
926,-1,637552,218795,1262463,65702,6921,630367,0
926,-1,641911,220293,1170936,66810,8279,584608,0
927,-1,636962,218553,1422367,65663,8153,710684,0
927,-1,637620,219002,1293459,66211,9465,645841,0
928,-1,639107,219810,1361191,66308,7574,679659,0
928,-1,635439,218593,1247322,66071,8056,623236,0
929,-1,638898,219244,1562019,65904,9135,780382,0
929,-1,635353,218588,1294306,66004,7730,646733,0
930,-1,657864,223143,1278593,69020,8046,638839,0
930,-1,638620,219959,1269171,66687,7980,633797,0
931,-1,635263,218599,1233934,65732,6620,616425,0
931,-1,638332,218978,1285826,66099,8162,642483,0
932,-1,634110,218461,1277346,65635,6929,638262,0
932,-1,638293,219511,1233223,66423,8213,616161,0
933,-1,636363,218853,1181400,65775,6624,590115,0
933,-1,640441,218627,1235707,66081,8538,617285,0
934,-1,635203,219079,1217699,65811,7331,608370,0
934,-1,662153,223333,1459074,69413,9650,729059,0
935,-1,639623,220421,1380400,66565,8173,689407,0
935,-1,640077,218375,1207302,65964,7816,603235,0
936,-1,658898,223222,1299724,68952,7802,649382,0
936,-1,637475,218074,1292500,65894,8368,645776,0
937,-1,637977,218959,1194921,65848,6639,596663,0
937,-1,641704,220100,1314046,66744,8398,656184,0
938,-1,636101,218531,1321928,65616,7640,660509,0
938,-1,641059,218991,1266807,66204,7977,634506,0
939,-1,639758,220259,1374226,66292,7909,686332,0
939,-1,638481,218199,1137035,65827,7317,568034,0
940,-1,638252,218949,1286411,65575,6831,642516,0
940,-1,640585,219317,1240912,66299,8278,619972,0
941,-1,636284,218951,1566858,65736,8710,782437,0
941,-1,636780,218426,1325239,65978,8048,662227,0
942,-1,639971,220747,1314741,66580,7214,656536,0
942,-1,642370,218770,1427825,66071,8435,713458,0
943,-1,655127,223212,1303854,68908,8024,651447,0
943,-1,640891,218948,1284197,66199,7820,641665,0
944,-1,634886,218671,1213286,65619,6961,606170,0
944,-1,639199,218607,1203244,66043,7655,600901,0
945,-1,634074,218740,1387279,65690,7775,692976,0
945,-1,639945,219239,1342183,66280,8447,670526,0
946,-1,655270,223368,1319600,68910,8591,659380,0
946,-1,639153,218588,1257997,65978,7749,628532,0
947,-1,632658,218166,1342176,65467,8019,670433,0
947,-1,638245,218726,1230503,66128,7506,614851,0
948,-1,632914,218726,1213071,65805,6915,606027,0
948,-1,641742,220546,1255038,66978,8291,626767,0
949,-1,641743,218969,1281676,65879,7121,640330,0
949,-1,640235,219650,1303115,66418,8196,650945,0
950,-1,640665,218012,1253795,65441,7730,626393,0
950,-1,636288,218477,1302326,66023,8380,650463,0
951,-1,640849,218454,1229026,65641,7582,614008,0
951,-1,640264,219384,1270300,66351,8243,634666,0
952,-1,663168,223709,1436475,69184,9287,717669,0
952,-1,642610,220951,1302845,67036,8779,650565,0
953,-1,640584,218710,1491013,65772,9300,744923,0
953,-1,634245,218908,1324814,65355,7371,661662,0
954,-1,641341,218747,1345271,65688,8656,672158,0
954,-1,634471,218934,1321914,65273,7550,660497,0
955,-1,640572,218880,1302018,65799,8221,650479,0
955,-1,638039,219701,1403158,65597,7684,701142,0
956,-1,640982,218236,1473577,65568,9053,736992,0
956,-1,638871,218902,1302404,65283,7336,650733,0
957,-1,646556,221154,1331454,66800,8118,664752,0
957,-1,639631,219310,1236539,65463,6978,617804,0
958,-1,659409,222828,1322502,68881,8573,660801,0
958,-1,638704,219576,1276456,65518,7422,637910,0
959,-1,639105,218494,1260494,65653,7006,629751,0
959,-1,635596,219089,1220729,65354,7463,609882,0
960,-1,638184,218297,1354193,65566,7560,676579,0
960,-1,636951,218836,1193069,65207,7449,595997,0
961,-1,637968,218293,1196118,65392,7225,597670,0
961,-1,636209,218472,1247602,65173,7386,623039,0
962,-1,639986,219393,1322819,65840,7808,660941,0
962,-1,658410,223824,1393889,68674,8262,696408,0
963,-1,643993,221377,1408355,66782,8477,703326,0
963,-1,636247,218775,1319920,65244,7176,659397,0
964,-1,644784,220446,1396877,66353,8386,697492,0
964,-1,643646,221355,1225890,66339,7212,612619,0
965,-1,639391,218844,1396794,65696,8407,697908,0
965,-1,659916,223804,1366820,68664,7834,682715,0
966,-1,643502,220848,1339069,66549,7895,668226,0
966,-1,636539,218870,1312474,65249,7346,655741,0
967,-1,637436,218627,1199873,65650,6847,599417,0
967,-1,641296,221001,1269701,66147,7551,634219,0
968,-1,644464,220606,1327310,66462,7905,662469,0
968,-1,640496,221103,1283626,66253,7302,641002,0
969,-1,638970,218876,1217287,65678,7033,607876,0
969,-1,655305,223542,1386034,68600,8510,692410,0
970,-1,638280,218778,1197361,65668,7570,598283,0
970,-1,636688,218617,1184393,65173,7281,591555,0
971,-1,634181,217892,1273993,65283,7509,636553,0
971,-1,639687,220820,1212192,66045,7538,605399,0
972,-1,637168,218819,1236605,65692,7180,617873,0
972,-1,634321,218789,1437227,65211,7799,718109,0
973,-1,638406,218476,1190479,65515,7453,595134,0
973,-1,654047,223148,1545395,68505,8329,771972,0
974,-1,641725,219052,1318647,65761,8385,658532,0
974,-1,634243,219143,1246353,65388,7382,622719,0
975,-1,639477,218360,1226798,65427,7432,612955,0
975,-1,633322,219211,1268059,65424,7840,633478,0
976,-1,637711,218389,1281374,65491,8419,640271,0
976,-1,642330,219656,1196136,65579,7181,597597,0
977,-1,643164,219876,1230778,66023,7440,614925,0
977,-1,637385,218205,1208580,65070,7482,603757,0
978,-1,643452,220426,1429657,66383,8191,713880,0
978,-1,642556,220964,1256173,66279,6963,627079,0
979,-1,639902,219542,1250635,65906,8217,624667,0
979,-1,637400,218742,1267784,65220,6552,633428,0
980,-1,636381,218687,1219482,65589,8172,609280,0
980,-1,637905,219350,1398059,65480,7028,698519,0
981,-1,643594,220465,1267337,66541,8385,632771,0
981,-1,636149,218948,1309122,65342,7219,654026,0
982,-1,637552,218445,1446527,65514,7772,722812,0
982,-1,638095,218916,1347577,65247,7014,673295,0
983,-1,637327,218804,1300581,65786,7355,649859,0
983,-1,642072,220838,1266668,66293,7208,632506,0
984,-1,636788,218644,1322890,65707,7600,660995,0
984,-1,636920,218954,1296390,65302,7314,647693,0
985,-1,636783,218936,1237578,65724,6788,618273,0
985,-1,639737,219963,1288710,65705,7111,643630,0
986,-1,657719,223551,1306420,69028,7569,652697,0
986,-1,636218,219054,1314721,65229,6962,656899,0
987,-1,640419,219703,1362973,66129,7803,680898,0
987,-1,633788,218575,1281837,65021,7295,640414,0
988,-1,637423,218290,1273081,65620,7627,636113,0
988,-1,634753,218783,1225378,65089,7161,612219,0
989,-1,636773,218741,1305341,65742,6880,652199,0
989,-1,635063,219179,1346971,65208,7777,673060,0
990,-1,642660,220803,1311223,66681,7429,654723,0
990,-1,638228,219188,1267537,65284,6875,633346,0
991,-1,659045,223563,1325475,69089,8203,662178,0
991,-1,636864,218722,1267601,65079,6978,633386,0
992,-1,638498,220077,1379095,66380,7195,688732,0
992,-1,636580,219352,1406898,65316,7357,702975,0
993,-1,637831,218558,1323734,65657,7287,661309,0
993,-1,637551,219220,1280432,65285,7272,640077,0
994,-1,638100,218910,1153915,65700,6961,576525,0
994,-1,637873,219571,1338608,65348,7548,668862,0
995,-1,635742,218470,1262111,65585,6961,630305,0
995,-1,656779,223559,1363364,68419,8057,681224,0
996,-1,634162,218438,1158491,65570,6815,578550,0
996,-1,634401,218943,1262305,65194,7687,630685,0
997,-1,648072,223919,1232782,67089,8026,615523,0
997,-1,637970,219653,1339857,65456,7103,669443,0
998,-1,669197,231106,1287351,68870,8138,643051,0
998,-1,640437,220603,1208896,65964,6670,603732,0
999,-1,686746,235888,1440870,70301,7662,719908,0
999,-1,634869,218795,1351464,65187,7164,675172,0
1000,-1,693643,236523,1349698,70471,8314,674411,0
1000,-1,638929,220861,1199882,66123,7749,599086,0
1001,-1,695420,237560,1263111,70840,7600,630903,0
1001,-1,655262,223222,1297598,68397,8682,648335,0
1002,-1,693182,237109,1403222,70683,8149,701102,0
1002,-1,633253,218703,1290146,65171,7879,644591,0
1003,-1,699719,238954,1427561,71481,8916,713253,0
1003,-1,631469,218279,1257567,64957,7239,628288,0
1004,-1,693317,237394,1415147,70719,8573,707057,0
1004,-1,635457,219615,1307850,65357,8214,653515,0
1005,-1,697367,239736,1490934,71895,8642,744457,0
1005,-1,637413,220771,1284457,65957,7498,641526,0
1006,-1,715975,242287,1424938,74219,9712,711876,0
1006,-1,637949,219104,1214408,65230,6913,606830,0
1007,-1,692332,237209,1312483,70727,8019,655797,0
1007,-1,640799,220604,1244735,65927,7061,621349,0
1008,-1,690582,237011,1509770,70626,9023,754185,0
1008,-1,637173,219754,1291710,65484,6936,645333,0
1009,-1,694454,237821,1353033,70934,8627,675940,0
1009,-1,632951,218288,1295893,64889,7143,647512,0
1010,-1,691767,237321,1338280,70705,7913,668674,0
1010,-1,633421,218706,1363613,65060,7655,681201,0
1011,-1,692550,237529,1264937,70776,7377,632064,0
1011,-1,655753,223145,1391778,68349,7743,695418,0
1012,-1,698156,239869,1375424,71831,8235,686665,0
1012,-1,635270,218770,1267078,65117,6586,633058,0
1013,-1,714072,242064,1303504,74053,8821,651468,0
1013,-1,632967,218521,1385544,64987,7434,692255,0
1014,-1,690355,236982,1232754,70590,7835,615759,0
1014,-1,635102,218984,1261913,65211,6847,630423,0
1015,-1,691078,236937,1334042,70638,8073,666372,0
1015,-1,633710,218615,1269734,65039,7273,634507,0
1016,-1,690088,237028,1341971,70660,7893,670588,0
1016,-1,637177,220865,1229951,66042,7457,614157,0
1017,-1,690504,237369,1317423,70803,7559,658228,0
1017,-1,641529,221459,1279802,66194,6692,639121,0
1018,-1,688580,237116,1392233,70690,7854,695605,0
1018,-1,634998,218932,1364516,65182,6953,681828,0
1019,-1,688135,237173,1342959,70748,8090,670947,0
1019,-1,640053,221354,1199529,66226,7327,598958,0
1020,-1,685765,236128,1320258,70298,7899,659670,0
1020,-1,654637,223693,1276214,68519,8391,637572,0
1021,-1,714586,241742,1399409,73957,8764,699195,0
1021,-1,629629,217736,1141421,64694,6791,570256,0
1022,-1,692812,237487,1295851,70729,7026,647483,0
1022,-1,633820,218795,1320291,65147,6848,659629,0
1023,-1,694221,238627,1407676,71361,8375,703237,0
1023,-1,633539,218663,1385047,65069,6941,691949,0
