0,0,759365,265891,1467309,78511,8508,733091,11
1,0,759719,266131,1491323,78589,8669,745528,11
2,0,765941,268275,1482508,79617,9391,740453,11
3,0,760558,266005,1492590,78531,9912,745574,11
4,0,761329,265885,1407412,78549,9345,703178,11
5,0,766905,267658,1516060,79320,9883,757529,11
6,0,763439,266311,1423546,78683,9524,711197,11
7,0,760740,266146,1470656,78603,9445,734741,11
8,0,763760,267098,1500391,79068,9444,749693,11
9,0,761466,265586,1477271,78399,9988,738300,11
10,0,762682,266002,1393477,78592,10419,696343,11
11,0,766387,268489,1460136,79721,10116,729072,11
12,0,759728,265450,1389504,78354,9592,694429,11
13,0,759212,265211,1337309,78305,8294,668329,11
14,0,763980,266542,1458729,78743,9857,728778,11
15,0,767444,267283,1545507,79179,10739,772158,11
16,0,761354,265561,1485300,78377,9811,742270,11
17,0,763788,266119,1391189,78558,9406,695196,11
18,0,785195,270924,1515484,81959,10973,757528,11
19,0,764889,265937,1462671,78510,10188,730960,11
20,0,759398,265637,1695979,78402,10057,847645,11
21,0,760384,266905,1583108,78986,10403,791099,11
22,0,759061,265912,1492798,78496,9423,745842,11
23,0,759741,266050,1392678,78576,9437,695353,11
24,0,764628,268162,1478032,79558,9524,738182,11
25,0,761266,267206,1538528,79144,9137,768739,11
26,0,759589,265909,1530102,78531,9666,764581,11
27,0,781185,270416,1529509,81839,10451,764444,11
28,0,763703,267274,1491971,79278,9568,745351,11
29,0,754059,264156,1435798,77981,9068,717711,11
30,0,739208,259008,1393779,76384,8955,696542,11
31,0,708643,248555,1362283,73870,9377,680424,11
32,0,709104,247975,1320015,73804,8739,659318,11
33,0,724511,251612,1427495,76647,9636,713467,11
34,0,710319,249380,1439768,74380,9631,719221,11
35,0,704301,247158,1376338,73369,9035,687774,11
36,0,705857,247534,1468882,73545,9278,734091,11
37,0,707608,247720,1415868,73508,9340,707515,11
38,0,704945,247157,1381741,73408,9060,690381,11
39,0,709920,248939,1477910,74153,9866,738648,11
40,0,706412,247648,1355351,73581,9022,677218,11
41,0,705436,246893,1399821,73385,8834,699495,11
42,0,704518,246616,1446232,73309,8512,722729,11
43,0,712691,249339,1455481,74551,9510,726949,11
44,0,704786,247356,1470635,73534,9086,734827,11
45,0,705943,247242,1448726,73549,9669,724076,11
46,0,705899,247416,1368604,73512,9012,683963,11
47,0,708894,247585,1373457,73609,8829,686231,11
48,0,728185,251570,1474542,76664,10391,736524,11
49,0,713498,249525,1578318,74529,10430,788487,11
50,0,706593,246540,1422827,73209,9580,710978,11
51,0,703525,247168,1379509,73530,9283,689407,11
52,0,707779,248488,1427592,74136,9859,713227,11
53,0,705361,247293,1343529,73552,9039,671436,11
54,0,705852,247320,1281259,73567,8178,640187,11
55,0,707633,247714,1346638,73689,9016,672880,11
56,0,713850,249591,1338945,74348,9828,668947,11
57,0,704917,246975,1486292,73288,9764,742683,11
58,0,712848,249817,1575317,74462,10844,787321,11
59,0,708738,247804,1509447,73534,9814,754221,11
60,0,705974,247160,1441902,73364,10603,720537,11
61,0,708813,247812,1541143,73557,10281,769656,11
62,0,708943,247947,1498623,73633,10318,748840,11
63,0,707824,246932,1554265,73173,10236,775911,11
64,0,709785,247317,1498147,73400,10618,748240,11
65,0,714749,249993,1504283,74481,10125,751544,11
66,0,707422,247574,1705015,73515,10111,850832,11
67,0,707051,247102,1747057,73324,10306,872844,11
68,0,707629,247132,1459278,73383,9900,728954,11
69,0,713612,249432,1599358,74308,10758,799162,11
70,0,708599,247454,1448058,73427,10036,723590,11
71,0,710455,247601,1510526,73483,10548,754977,11
72,0,729075,251477,1425251,76553,10962,712175,11
73,0,714902,249661,1461402,74432,10685,730023,11
74,0,708416,246776,1444183,73201,10155,721591,11
75,0,709216,246732,1360509,73099,9315,679907,11
76,0,702037,247113,1485910,73277,9287,742600,11
77,0,701974,247687,1378447,73553,9858,688787,11
78,0,702924,247534,1419144,73629,9397,709136,11
79,0,702268,246881,1450536,73385,9932,724342,11
80,0,732144,257108,1515952,76682,10325,757686,11
81,0,704470,247366,1492351,73526,10772,745221,11
82,0,702716,246949,1485720,73387,9463,742632,11
83,0,707029,248900,1493197,74347,9471,745899,11
84,0,703329,247443,1443338,73559,9299,721275,11
85,0,704013,247380,1561601,73584,9491,780036,11
86,0,704632,246906,1638766,73330,10106,819028,11
87,0,706948,247982,1472979,73778,10756,736152,11
88,0,705884,247665,1537334,73574,10308,768381,11
89,0,702807,247477,1312747,73572,8569,655890,11
90,0,702080,246862,1316095,73366,8230,657747,11
91,0,703758,247272,1224562,73532,7836,611839,11
92,0,706153,247510,1290814,73562,8652,644895,11
93,0,704729,247679,1285285,73678,8176,642162,11
94,0,708188,248663,1342909,74186,9164,670724,11
95,0,704953,247412,1301677,73582,9139,650494,11
96,0,711004,249493,1371062,74546,9592,684954,11
97,0,706655,247582,1371961,73603,8980,685752,11
98,0,707612,247616,1435954,73649,9111,717533,11
99,0,706178,246840,1355377,73426,8972,677302,11
100,0,702545,248039,1372291,73804,8076,685527,11
101,0,706986,248662,1452188,74260,9158,725390,11
102,0,705938,247595,1322758,73668,8426,661113,11
103,0,703004,247031,1295367,73426,7672,647251,11
104,0,704598,246749,1426844,73339,9310,712975,11
105,0,705682,247155,1356497,73467,8803,677824,11
106,0,710287,249810,1503654,74631,9056,751260,11
107,0,704125,246712,1531837,73351,9293,765452,11
108,0,703217,246987,1470991,73480,9022,735113,11
109,0,704491,246604,1424471,73288,9152,711756,11
110,0,707133,247462,1516974,73534,11668,757910,11
111,0,712694,249446,1545509,74366,10587,771919,11
112,0,704782,247824,1592012,73592,9802,795312,11
113,0,705578,247403,1473495,73415,9543,736455,11
114,0,703933,246751,1375120,73261,9525,687078,11
115,0,706743,247082,1435956,73315,10043,717500,11
116,0,703879,247199,1415013,73482,9727,706986,11
117,0,707735,247516,1544122,73632,10047,771734,11
118,0,706820,246883,1457114,73347,9908,728347,11
119,0,705685,247093,1500612,73396,9899,749926,11
120,0,707043,247410,1559982,73486,10089,779596,11
121,0,706196,247182,1465068,73468,9910,732090,11
122,0,734822,253498,1535907,77844,10114,767517,11
123,0,707465,247239,1466296,73517,10211,732889,11
124,0,710257,247426,1574396,73602,9874,786751,11
125,0,702645,247090,1572048,73348,9800,785772,11
126,0,703486,246952,1439127,73446,9608,719134,11
127,0,703538,247272,1465870,73504,9392,732471,11
128,0,708047,248793,1543473,74209,10263,770962,11
129,0,756476,261663,1529221,79685,10535,764288,11
130,0,708757,249723,1465946,74600,10769,732367,11
131,0,704790,247606,1369607,73492,9962,684386,11
132,0,706742,247867,1552215,73696,10176,775741,11
133,0,710668,248974,1554628,74238,10186,776706,11
134,0,707625,248135,1436942,73780,9810,718093,11
135,0,704287,246777,1519248,73275,10330,759243,11
136,0,706930,247778,1515721,73712,9599,757527,11
137,0,710099,248732,1592713,74283,10114,795887,11
138,0,709667,248097,1452122,73730,9676,725458,11
139,0,702636,246958,1454096,73401,9951,726698,11
140,0,708164,248304,1592012,74054,10753,795572,11
141,0,704772,247551,1407625,73649,9779,703191,11
142,0,705768,246795,1510218,73343,9889,754827,11
143,0,703922,246558,1541510,73244,10271,770304,11
144,0,728325,252270,1503726,76996,10618,751483,11
145,0,705411,247122,1515668,73555,10588,757256,11
146,0,708238,247316,1412801,73558,10131,705900,11
147,0,713709,249503,1477633,74455,11316,738246,11
148,0,709189,246965,1552980,73425,10889,776217,11
149,0,707094,247653,1470636,73711,9388,735003,11
150,0,707935,247362,1587978,73402,9626,793532,11
151,0,708301,248043,1464539,73734,9478,731477,11
152,0,708536,248249,1518577,73854,9485,758889,11
153,0,705082,246636,1471365,73271,9398,735373,11
154,0,713394,249343,1545621,74428,10492,772068,11
155,0,710891,248336,1463354,73900,9782,731292,11
156,0,713366,249326,1578393,74244,9173,788688,11
157,0,730205,252179,1496757,76934,9731,747889,11
158,0,712590,248620,1464109,73939,9785,731717,11
159,0,713078,248351,1562353,73966,9973,780792,11
160,0,708228,248205,1665651,73885,11965,832182,11
161,0,707000,247201,1539523,73449,11155,769415,11
162,0,708773,247710,1416826,73659,10500,707917,11
163,0,731930,252660,1526364,77078,10841,762825,11
164,0,710534,248050,1460796,73686,9497,730020,11
165,0,717039,250178,1565832,74546,9955,782323,11
166,0,710812,247720,1467074,73572,9881,732964,11
167,0,708040,247743,1562529,73546,9999,780840,11
168,0,709793,248050,1468050,73678,9920,733531,11
169,0,711617,248116,1442434,73645,9748,720618,11
170,0,710016,247301,1570750,73451,9931,785055,11
171,0,711254,248135,1469547,73653,10336,734345,11
172,0,709858,247704,1472781,73646,10155,735790,11
173,0,715208,249551,1552692,74376,10545,775715,11
174,0,710552,247276,1528359,73471,10310,763641,11
175,0,709242,249931,1543144,74562,10491,770953,11
176,0,705685,247647,1525646,73505,9989,762367,11
177,0,707960,247666,1375898,73529,9834,687507,11
178,0,706238,247554,1427847,73554,10849,713515,11
179,0,731823,256708,1491730,76192,10422,745419,11
180,0,707235,247847,1523172,73632,9495,760926,11
181,0,728689,252677,1518718,76977,10950,759126,11
182,0,709695,247776,1446443,73478,9824,722765,11
183,0,711407,248058,1315630,73646,9218,657426,11
184,0,709796,249170,1430880,74191,9740,714796,11
185,0,709549,248660,1446270,73792,9437,722694,11
186,0,707716,248017,1492499,73566,8552,745830,11
187,0,731539,253191,1531689,77121,10190,765504,11
188,0,707924,247582,1424321,73438,8850,711717,11
189,0,713497,249591,1455930,74260,9777,727391,11
190,0,711691,247914,1420700,73540,9414,709930,11
191,0,729648,252496,1358852,76877,9557,678997,11
192,0,714632,249964,1542318,74540,9830,770615,11
193,0,712013,248969,1444269,74199,9280,721487,11
194,0,709970,248177,1375647,73775,9614,687415,11
195,0,709210,247478,1367709,73483,9363,683624,11
196,0,733142,252679,1401487,76964,11005,700327,11
197,0,704908,247517,1272018,73553,8589,635446,11
198,0,703453,246576,1363407,73261,8659,681369,11
199,0,713398,249990,1403924,74612,9541,701454,11
200,0,709269,247930,1382921,73683,9138,691077,11
201,0,708828,247825,1393101,73630,9453,696116,11
202,0,710346,248561,1464113,73890,9412,731587,11
203,0,707125,247545,1427336,73457,9104,713239,11
204,0,731353,252420,1384652,76925,10103,691880,11
205,0,708510,247253,1286771,73427,8558,642909,11
206,0,715183,249364,1451837,74363,10010,725278,11
207,0,710605,248271,1416671,73771,8627,708004,11
208,0,706518,247284,1517211,73467,10417,758335,11
209,0,708564,247665,1487890,73634,10690,743652,11
210,0,714992,249558,1443155,74433,10336,721167,11
211,0,707679,246805,1522664,73261,10197,760766,11
212,0,712090,248057,1776198,73747,10923,887621,11
213,0,712499,249369,1498604,74561,9363,748788,11
214,0,709609,247847,1471202,73796,8858,735211,11
215,0,711410,248146,1318023,73879,8130,658567,11
216,0,710863,247744,1326415,73690,9442,662895,11
217,0,711214,247651,1351150,73736,9510,675272,11
218,0,713770,247611,1409024,73734,10026,704037,11
219,0,705009,247869,1379900,73853,9878,689470,11
220,0,705478,247583,1420465,73703,9651,709968,11
221,0,711919,249876,1426529,74666,9600,712682,11
222,0,705492,247270,1379597,73599,9067,689412,11
223,0,707469,247878,1400366,73833,9095,699722,11
224,0,727505,252112,1420888,77010,9772,710059,11
225,0,707453,247483,1327441,73662,8681,663175,11
226,0,707797,247581,1487954,73733,9816,743450,11
227,0,708374,247403,1473886,73608,9488,736559,11
228,0,708240,247414,1362115,73687,9207,680476,11
229,0,705640,247156,1370124,73611,8880,684623,11
230,0,730036,252378,1391910,77091,10092,695568,11
231,0,714713,249664,1453497,74612,9717,726139,11
232,0,708547,247369,1434538,73626,9247,716824,11
233,0,712987,248724,1546164,74298,10236,772479,11
234,0,709054,247939,1456717,73857,9021,727905,11
235,0,708496,248198,1336709,73977,8959,667772,11
236,0,709337,247940,1375000,73818,8516,687037,11
237,0,709564,248151,1451498,73926,8816,725129,11
238,0,709738,247672,1359760,73713,9719,679533,11
239,0,709835,247754,1296923,73794,9783,648030,11
240,0,713990,249106,1371232,74414,9854,684786,11
241,0,710917,247920,1445245,73871,9276,722282,11
242,0,731852,251965,1491305,76971,9647,745148,11
243,0,714518,249441,1476505,74621,8989,737538,11
244,0,714322,248446,1330325,73988,8586,664807,11
245,0,707513,247779,1333490,73814,9592,666513,11
246,0,711182,248794,1383198,74095,9600,691045,11
247,0,707881,247286,1429100,73607,9761,714301,11
248,0,728889,251788,1371695,76840,10206,685542,11
249,0,714321,249965,1528199,74771,10384,763321,11
250,0,710822,248272,1457305,73910,10105,728329,11
251,0,714054,248600,1468323,74199,10212,733558,11
252,0,730323,252276,1383449,77088,10462,691384,11
253,0,715151,249735,1478016,74720,10684,738451,11
254,0,709533,247601,1496764,73684,9625,747736,11
255,0,708790,247160,1528363,73561,9972,763437,11
255,0,710246,247691,1365904,73810,9695,682380,11
255,0,714162,248900,1445446,74367,10044,722502,11
255,0,710858,247281,1423494,73608,9013,711412,11
255,0,727900,251886,1362433,76942,10027,680871,11
255,0,714350,249890,1459890,74833,10250,729008,11
255,0,708986,247674,1475872,73803,9422,737350,11
255,0,711718,248558,1519878,74188,9915,759348,11
255,0,710670,248041,1416824,73897,9662,707843,11
255,0,732533,252134,1339432,77002,10742,669363,11
255,0,711136,247729,1327352,73733,9152,663303,11
255,0,714379,249118,1357356,74406,10375,678164,11
255,0,713454,248366,1323511,73979,9635,661114,11
255,0,713706,247729,1505160,73754,9749,751804,11
255,0,716700,249379,1435407,74588,9824,717082,11
255,0,713622,247911,1320398,73831,8907,659867,11
255,0,713729,247822,1448688,73839,9661,723875,11
255,0,715924,248288,1401472,73906,9232,700308,11
255,0,706080,247760,1369311,73788,8315,684258,11
255,0,700650,247325,1400728,73609,9602,699964,11
255,0,703153,248249,1527610,73957,9084,763611,11
255,0,707160,249358,1410871,74560,9569,704790,11
255,0,700585,247543,1332429,73642,9373,665871,11
255,0,703048,247389,1424257,73628,8776,711606,11
255,0,705571,247992,1346575,73871,8883,672864,11
255,0,700295,247091,1356030,73466,9407,677708,11
255,0,702430,247850,1440664,73839,10176,719794,11
255,0,728366,256181,1483047,76220,8682,740992,11
255,0,705701,248349,1487404,73992,9279,743333,11
255,0,702375,247052,1428078,73534,9844,713450,11
255,0,707803,249155,1404346,74449,9711,701633,11
255,0,704473,247582,1320871,73745,9073,659910,11
255,0,704424,247583,1408687,73696,9581,703980,11
255,0,727901,252175,1337502,77012,9795,668426,11
255,0,706906,250197,1403132,74924,9917,700252,11
255,0,701808,247445,1582382,73596,10417,790695,11
255,0,705492,248512,1482131,74052,10292,740756,11
255,0,702367,247543,1508965,73662,9718,754179,11
255,0,701800,247098,1264463,73585,9040,631824,11
255,0,725710,252200,1307922,77052,10192,653492,11
255,0,706167,247721,1257913,73731,8968,628501,11
255,0,708088,248622,1333218,74077,9508,666171,11
255,0,702723,247583,1361682,73700,9854,680600,11
255,0,709741,249315,1512470,74510,10005,755756,11
255,0,705626,248365,1451099,74033,9243,725241,11
255,0,705222,247587,1476674,73703,9463,737828,11
255,0,709803,249458,1420720,74559,9968,709806,11
255,0,708306,248401,1425605,74022,9535,712539,11
255,0,708986,249036,1428169,74413,10004,713513,11
255,0,702297,247996,1671130,73867,10329,834203,11
255,0,702402,247499,1433896,73725,8880,716704,11
255,0,706445,248602,1423726,74257,9243,711259,11
255,0,724526,252237,1445102,77049,9716,721943,11
255,0,706742,248495,1398432,74042,8659,698805,11
255,0,706347,248580,1410040,74258,9290,704446,11
255,0,706011,247888,1407614,73850,8911,703447,11
255,0,727554,252028,1424351,76989,10317,711952,11
255,0,704167,247966,1399632,73889,8942,699417,11
255,0,705358,248043,1245789,73893,8856,622404,11
255,0,707981,248782,1340574,74312,9756,669611,11
255,0,706628,248123,1271619,73919,8789,635419,11
255,0,704267,247180,1471525,73541,9825,735230,11
255,0,705248,247935,1426879,73874,9091,713003,11
255,0,726644,252315,1426964,77006,9762,713131,11
255,0,711997,249905,1405058,74752,9161,701823,11
255,0,708540,248592,1328236,74015,8973,663442,11
255,0,707868,248022,1480277,73872,9528,739887,11
255,0,706384,248643,1340668,74090,8603,669833,11
255,0,707285,247850,1513272,73826,9621,756042,11
255,0,728452,252187,1452717,77044,9872,725930,11
255,0,711280,249568,1449670,74650,9559,724035,11
255,0,706510,247463,1418606,73694,9216,708844,11
255,0,708357,247824,1357654,73834,8845,678434,11
255,0,712484,249041,1532089,74394,10164,764556,11
255,0,701490,247361,1471131,73676,10718,734930,11
255,0,724251,252047,1525875,76940,12119,762175,11
255,0,706022,249272,1523032,74577,10315,760796,11
255,0,704930,248140,1553547,73862,10736,775931,11
255,0,705256,247780,1452528,73772,10085,725620,11
255,0,702860,247603,1393715,73750,8934,696979,11
255,0,705912,248484,1611513,74180,10412,806031,11
255,0,705279,247654,1524425,73771,9955,761901,11
255,0,725801,252242,1421355,77044,10780,709962,11
255,0,703163,247161,1340460,73538,9226,669815,11
255,0,703462,247392,1376772,73656,9931,687889,11
255,0,705976,247974,1361382,73814,9508,680336,11
255,0,707459,248093,1370286,73904,8600,684331,11
255,0,728936,252851,1678116,77200,10845,838305,11
255,0,712291,249947,1477999,74861,9475,738602,11
255,0,707113,247454,1625747,73635,9719,812289,11
255,0,703239,247595,1416698,73762,8817,707360,11
255,0,704960,247754,1503387,73819,9957,751407,11
255,0,706446,247898,1441000,73859,9431,719953,11
255,0,706397,248155,1407515,73881,9120,703298,11
255,0,705908,247282,1435143,73585,9334,717257,11
255,0,707753,247678,1352824,73774,9115,675899,11
255,0,708859,249234,1452603,74435,9790,725715,11
255,0,705325,247482,1404389,73643,8725,701883,11
255,0,710730,249275,1399471,74536,9089,699205,11
255,0,711079,248152,1409867,73848,9363,704526,11
255,0,702872,247848,1404563,73848,10173,701923,11
255,0,724366,252124,1433758,76980,10581,716392,11
255,0,704991,247854,1401560,73741,9069,700130,11
255,0,705795,247703,1316569,73622,9092,657904,11
255,0,708951,248438,1415271,74198,10286,707105,11
255,0,703305,247443,1310210,73569,8775,654799,11
255,0,706450,248238,1272728,73811,8289,635874,11
255,0,708805,248196,1471475,73838,8238,735317,11
255,0,712871,250011,1408788,74747,8848,703713,11
255,0,709005,248087,1419381,73806,9003,709309,11
255,0,710058,249604,1542604,74489,10026,770527,11
255,0,707673,248319,1448620,73891,9423,723834,11
255,0,707031,247868,1551065,73738,9996,775160,11
255,0,708897,248138,1557933,73794,10317,778417,11
255,0,708404,247875,1478539,73679,10225,738980,11
255,0,711220,249263,1533716,74429,9279,766075,11
255,0,711643,248673,1454209,73981,8749,726513,11
255,0,713122,249053,1334703,74308,9926,666847,11
255,0,711066,248749,1285636,74044,9446,642292,11
255,0,703250,248045,1242991,73760,8659,621265,11
255,0,701840,247111,1379611,73386,9754,689360,11
255,0,703206,247636,1297842,73691,9200,648309,11
255,0,710710,249953,1443516,74622,8956,721268,11
255,0,709653,248874,1335294,74025,8732,667234,11
255,0,704139,248084,1391216,73760,8535,695117,11
255,0,707757,249187,1530350,74367,9724,764557,11
255,0,706977,248566,1405209,73898,9189,702312,11
255,0,704525,247551,1439011,73656,9677,719105,11
255,0,726988,252628,1390287,77074,9913,694650,11
255,0,706302,247896,1391440,73710,8316,695395,11
255,0,706582,247938,1373620,73767,8662,686166,11
255,0,705872,248583,1509479,73975,8904,754657,11
255,0,705849,248741,1455442,74039,8688,727378,11
255,0,727930,253061,1436124,77196,9917,717707,11
255,0,704991,247948,1327662,73714,8759,663554,11
255,0,726434,252438,1456681,77037,9541,727950,11
255,0,705617,247637,1321352,73647,8458,660377,11
255,0,710430,249173,1339737,74340,9635,669346,11
255,0,709416,248225,1287280,73834,9330,643250,11
255,0,709156,248122,1322712,73820,9374,660965,11
255,0,710664,249965,1391284,74687,9533,695040,11
255,0,708732,249174,1391442,74345,8907,695174,11
255,0,707209,248873,1420304,74010,9127,709545,11
255,0,729770,253120,1381844,77237,9107,690531,11
255,0,709689,249572,1436097,74588,9561,717519,11
255,0,708652,248137,1457381,73775,9134,728151,11
255,0,701490,246507,1307012,73312,8448,653070,11
255,0,709847,249406,1406871,74421,9386,702859,11
255,0,705694,247758,1314816,73702,8643,657057,11
255,0,712768,250355,1408983,74872,9493,703770,11
255,0,706205,247485,1466704,73569,9284,732900,11
255,0,712977,248992,1520014,74236,10036,759363,11
255,0,711985,249977,1416794,74686,9024,707684,11
255,0,705887,247404,1419779,73544,8899,709286,11
255,0,710915,249068,1431023,74322,9508,714895,11
255,0,707938,247946,1408441,73760,9032,703805,11
255,0,709247,248612,1316657,74020,9327,657838,11
255,0,708644,247964,1298586,73787,8397,648942,11
255,0,703240,247368,1422562,73544,9604,710805,11
255,0,709001,249628,1404356,74498,9568,701553,11
255,0,706924,247719,1401161,73648,9285,700107,11
255,0,703675,247734,1427025,73655,9735,713159,11
255,0,727085,252728,1461753,77104,10283,730527,11
255,0,707109,248245,1378215,73814,8286,688546,11
255,0,706606,247773,1454678,73722,9400,726966,11
255,0,705259,247626,1321974,73609,9023,660416,11
255,0,708086,248992,1442526,74294,9557,720560,11
255,0,706862,248046,1425469,73747,9112,712572,11
255,0,707438,248253,1422498,73855,9316,710733,11
255,0,712979,249975,1415258,74713,9784,706727,11
255,0,708022,248247,1508381,73814,8710,753276,11
255,0,708821,247913,1487272,73688,8843,743087,11
255,0,734480,257357,1357647,76542,9075,678023,11
255,0,709649,247823,1359972,73701,9358,679549,11
255,0,706624,248543,1398257,73852,8558,698881,11
255,0,727262,252583,1395186,77002,9359,697180,11
255,0,708325,248319,1521872,73853,9246,760351,11
255,0,709270,248472,1582510,73854,10273,791010,11
255,0,707160,248175,1330616,73765,8438,665007,11
255,0,710522,249180,1393178,74301,9246,696127,11
255,0,708105,247955,1329054,73749,8606,664184,11
255,0,706280,247204,1321890,73496,8700,660631,11
255,0,730940,252363,1310429,76995,9375,654819,11
255,0,710338,249767,1352069,74655,9328,675344,11
255,0,707378,247797,1264623,73654,8782,632011,11
255,0,707843,247653,1316877,73660,8733,658070,11
255,0,708245,247850,1336653,73770,8423,667788,11
255,0,706126,246998,1491299,73368,8232,745196,11
255,0,730319,252351,1353842,76974,9077,676704,11
255,0,705581,248214,1424308,73797,9252,711840,11
255,0,703988,247261,1326052,73501,8590,662675,11
255,0,710835,248872,1554209,74090,9226,776692,11
255,0,726464,252198,1466460,76966,9241,732885,11
255,0,709865,249232,1477966,74408,9095,738386,11
255,0,706367,247424,1322628,73552,8543,661058,11
255,0,709564,248601,1390280,73995,9142,694725,11
255,0,708110,247698,1391126,73638,8506,695009,11
255,0,710456,248483,1305919,73956,8064,652555,11
255,0,707436,248271,1323893,73867,8518,661551,11
255,0,728589,252363,1346601,77024,9508,672907,11
255,0,709649,247642,1427311,73629,8745,713315,11
255,0,710339,247966,1314069,73773,8610,656598,11
255,0,712220,248322,1410097,73811,9457,704891,11
255,0,728889,252745,1349783,77109,9422,674456,11
255,0,710916,249413,1379544,74419,8780,689130,11
255,0,711583,249207,1349887,74129,8390,674614,11
255,0,709638,247951,1238835,73748,7969,619060,11
255,0,711595,248817,1298112,74036,8968,648725,11
255,0,731624,252537,1316437,76993,9671,657826,11
255,0,708577,247626,1297039,73533,8975,648289,11
255,0,709667,247860,1308354,73660,8810,653732,11
255,0,713589,249147,1364668,74305,9747,681789,11
255,0,711696,248319,1335239,73847,9543,667194,11
255,0,711544,248578,1315710,73912,9338,657515,11
255,0,715582,249580,1388618,74588,9985,693655,11
255,0,711150,247940,1323409,73717,8683,661354,11
255,0,713384,248465,1392783,73934,9181,696057,11
255,0,714123,248022,1441635,73748,8964,720556,11
255,0,701268,248060,1307162,73828,7971,653238,11
255,0,702219,247607,1452247,73615,8265,725722,11
255,0,705351,248735,1477771,73983,8785,738542,11
255,0,709418,250179,1427983,74765,9114,713529,11
255,0,703162,247589,1346219,73602,8928,672638,11
255,0,705260,248407,1367804,73860,8898,683795,11
255,0,706740,248546,1317315,73975,8389,658166,11
255,0,708939,249084,1443560,74330,9277,721126,11
255,0,703762,247867,1554456,73732,8918,776836,11
255,0,710362,250508,1424154,74919,8809,711458,11
255,0,704819,247710,1449394,73667,8105,724328,11
255,0,707875,248478,1417019,73934,8174,708159,11
255,0,704246,247626,1411177,73610,8775,705258,11
255,0,709331,249262,1351708,74334,8520,675250,11
255,0,709280,248949,1279869,74089,8594,639574,11
255,0,734527,257401,1465583,76576,8795,732240,11
255,0,709541,250302,1529474,74755,9401,764215,11
255,0,702897,247578,1394952,73525,7748,697248,11
255,0,704811,248015,1370380,73713,8386,684821,11
255,0,705348,247839,1295622,73698,8405,647477,11
255,0,712067,249989,1334149,74686,9187,666548,11
255,0,707332,248337,1323652,73928,8979,661373,11
255,0,706353,248225,1281754,73826,8205,640461,11
255,0,728639,252979,1367159,77193,9339,683220,11
255,0,712773,250096,1399896,74717,8731,699350,11
255,0,707306,247476,1286147,73562,8045,642749,11
255,0,707454,247993,1373084,73790,8422,686175,11
255,0,710334,248130,1379240,73827,8747,689146,11
255,0,702211,247351,1391567,73577,8697,695476,11
255,0,706756,248375,1395680,73823,8805,697485,11
255,0,707862,248459,1300822,73879,8223,649975,11
255,0,708127,248829,1414307,74154,8714,706624,11
255,0,707002,247898,1420572,73711,8670,709832,11
255,0,708092,247670,1452724,73573,8615,725980,11
255,0,705904,248646,1449541,73960,8566,724247,11
255,0,726361,252330,1345716,76961,9010,672511,11
255,0,709863,249044,1410351,74325,8599,704703,11
255,0,708306,247873,1351635,73730,8814,675693,11
255,0,703547,247572,1289607,73595,7786,644446,11
255,0,707237,248531,1341485,73965,7889,670381,11
255,0,707194,247944,1315813,73728,7947,657598,11
255,0,710449,249228,1302159,74374,8400,650595,11
255,0,710871,249313,1312444,74202,8130,655802,11
255,0,711636,249490,1347694,74534,8942,673153,11
255,0,708719,247890,1398172,73645,8873,698831,11
255,0,708454,248494,1301381,73848,8073,650470,11
255,0,709120,248218,1335535,73807,8596,667341,11
255,0,707668,247887,1352134,73610,7761,675808,11
255,0,710758,248637,1382619,73960,8147,691002,11
255,0,732669,252945,1346062,77132,9278,672647,11
255,0,708360,247724,1309339,73620,8356,654527,11
255,0,709630,247735,1290867,73616,8501,645024,11
255,0,704025,247586,1374111,73606,8644,686730,11
255,0,707026,247892,1363785,73654,8577,681533,11
255,0,708953,248135,1415028,73846,8338,707194,11
255,0,705410,247627,1407016,73609,8520,703210,11
255,0,706980,247806,1284146,73738,8651,641678,11
255,0,729922,252800,1302417,77124,9639,650821,11
255,0,713549,249718,1295103,74560,8901,646922,11
255,0,733347,258066,1330267,76816,8789,664802,11
255,0,707747,248373,1248673,73901,8068,623896,11
255,0,710903,249653,1320655,74513,8935,659870,11
255,0,729111,252838,1368672,77147,8813,683997,11
255,0,707654,247611,1364125,73655,8087,681748,11
255,0,708378,247881,1327792,73716,8172,663624,11
255,0,708452,248698,1398085,74259,8342,698586,11
255,0,707749,248178,1356009,73831,8166,677582,11
255,0,708705,247861,1368779,73712,8388,683984,11
255,0,708704,248517,1383697,73987,8365,691470,11
255,0,711303,248584,1319688,73988,8540,659420,11
255,0,709048,247358,1371098,73569,8973,685194,11
255,0,708672,247835,1344599,73679,8293,671903,11
255,0,707553,248832,1394449,74051,8261,696940,11
255,0,707032,248220,1354825,73826,7828,677065,11
255,0,706939,247891,1447929,73735,8045,723656,11
255,0,708679,247911,1476111,73651,8231,737671,11
255,0,706449,248329,1341714,73901,7238,670411,11
255,0,708013,247856,1360340,73767,8303,679878,11
255,0,711041,248801,1415198,74070,8641,707219,11
255,0,729275,252021,1345413,76824,8719,672351,11
255,0,713699,250272,1431333,74850,8661,715129,11
255,0,706408,247606,1500385,73611,8117,749910,11
255,0,706719,247737,1341008,73702,8140,670045,11
255,0,713139,249556,1473644,74495,8552,736365,11
255,0,709480,247545,1264256,73595,8775,631765,11
255,0,708499,248342,1314998,73845,9173,657181,11
255,0,707377,247999,1270750,73785,8333,635039,11
255,0,711483,249355,1306691,74420,8732,652819,11
255,0,710982,248675,1398330,73987,8528,698862,11
255,0,729945,252380,1387402,76941,9657,693392,11
255,0,713432,249833,1379771,74637,8467,689365,11
255,0,710841,248249,1330578,73883,8356,664882,11
255,0,711248,248223,1333887,73872,8714,666442,11
255,0,730761,252598,1456034,77056,8770,727495,11
255,0,714741,249785,1414149,74647,8390,706452,11
255,0,711267,247952,1352438,73729,8589,675965,11
255,0,711389,248404,1342192,73858,8546,670753,11
255,0,714054,248936,1442375,74290,9446,720707,11
255,0,709226,249941,1517516,74697,8491,758119,11
255,0,707807,248361,1330709,73890,8473,664908,11
255,0,705406,248004,1351421,73779,7823,675328,11
255,0,706519,248080,1391730,73835,8340,695623,11
255,0,728332,252460,1381898,77031,9184,690390,11
255,0,712827,250047,1407288,74784,8773,703103,11
255,0,705865,247514,1377488,73529,8435,688509,11
255,0,707027,248745,1446708,74018,8296,722986,11
255,0,705527,247830,1477017,73677,8282,738148,11
255,0,708388,248389,1282640,73771,8337,640968,11
255,0,728772,252747,1320442,76992,9647,659881,11
255,0,714332,250261,1322477,74681,9215,660722,11
255,0,708564,248004,1253076,73641,8873,626193,11
255,0,710049,248544,1265612,73845,8501,632454,11
255,0,709543,249525,1501105,74352,8560,750019,11
255,0,708787,248493,1300789,73807,7904,650157,11
255,0,708349,247800,1435563,73518,8803,717457,11
255,0,709468,248905,1327157,73937,8021,663218,11
255,0,712609,249349,1470812,74291,9440,734610,11
255,0,708500,247770,1405438,73557,8964,702385,11
255,0,708435,247768,1323550,73629,8237,661377,11
255,0,708938,248165,1317900,73649,8814,658672,11
255,0,713568,249662,1448164,74393,8581,723782,11
255,0,711195,248469,1388282,73793,8589,693727,11
255,0,708599,247543,1330813,73444,8200,665100,11
255,0,713418,249050,1530951,73974,8576,765073,11
255,0,708554,249748,1392069,74511,8696,695461,11
255,0,704451,247459,1376448,73412,8703,687884,11
255,0,706501,247942,1305357,73664,8347,652253,11
255,0,706985,248290,1389513,73720,8521,694508,11
255,0,729112,252491,1356101,76888,9426,677684,11
255,0,714598,250479,1418516,74760,8748,708639,11
255,0,708518,247728,1382359,73496,8595,690794,11
255,0,707501,248383,1310985,73719,9040,655216,11
255,0,712196,249284,1385982,74243,9087,692423,11
255,0,711771,248702,1428366,73876,9478,713730,11
255,0,729403,252626,1396412,76954,9788,697837,11
255,0,705386,246432,1369974,73212,8398,684670,11
255,0,711429,248323,1433541,73816,9147,716342,11
255,0,707080,248052,1408071,73780,7893,703737,11
255,0,705857,247332,1294309,73463,7760,646692,11
255,0,714821,250175,1401169,74726,8620,700087,11
255,0,710760,247881,1398574,73623,8671,699101,11
255,0,708902,248367,1293848,73940,7853,646509,11
255,0,709354,248135,1402369,73701,8312,700873,11
255,0,711152,248333,1457605,73753,7749,728357,11
255,0,711301,248003,1306007,73568,8045,652644,11
255,0,710215,247678,1299501,73538,8718,649388,11
255,0,711337,248306,1492889,73676,8661,746152,11
255,0,710416,247423,1416986,73399,8352,708161,11
255,0,733973,252850,1351208,77034,9986,675245,11
255,0,717616,249757,1448147,74510,9854,723524,11
255,0,706656,247924,1333371,73580,8883,666357,11
255,0,705581,247959,1260238,73647,9286,629730,11
255,0,706769,248025,1352883,73584,9723,676103,11
255,0,707614,248328,1252486,73763,8868,625868,11
255,0,710323,249359,1477629,74036,9479,738463,11
255,0,728658,252478,1355128,76831,9340,677169,11
255,0,715198,250613,1459623,74825,9767,729215,11
255,0,708199,247987,1394221,73584,9013,696689,11
255,0,710802,248704,1313166,73906,8461,656180,11
255,0,710432,248684,1417942,73796,9098,708590,11
255,0,710784,248642,1379382,73855,9593,689404,11
255,0,729238,252037,1387969,76888,9614,693061,11
255,0,709252,247937,1416238,73686,8969,707865,11
255,0,713938,249004,1437549,74303,9198,718254,11
255,0,729724,252442,1379522,76950,8916,689307,11
255,0,709423,248052,1399613,73674,8616,699476,11
255,0,710166,248440,1456257,73718,8934,727827,11
255,0,714694,249775,1456942,74505,9263,727892,11
255,0,736894,254365,1360858,77597,9710,680146,11
255,0,711040,248466,1391129,73809,8088,695245,11
255,0,717678,249862,1395074,74522,8752,697151,11
255,0,712431,248860,1428907,74076,8025,714145,11
255,0,714373,248680,1360722,74018,7999,680035,11
255,0,736362,253656,1365891,77393,9110,682529,11
255,0,709339,248237,1403531,73813,8973,701340,11
255,0,711227,248542,1380173,73871,8037,689704,11
255,0,716798,250840,1396109,74992,8689,697517,11
255,0,713649,248813,1459776,74008,8960,729532,11
255,0,713909,248791,1374425,74022,9251,687046,11
255,0,715520,250358,1377601,74766,8670,688289,11
255,0,713050,249250,1389789,74222,8204,694549,11
255,0,711729,248489,1303027,73919,7860,651202,11
255,0,718229,250631,1457174,74949,9176,728013,11
255,0,713493,248637,1335226,73970,8499,667291,11
255,0,714015,248899,1330525,74077,9363,665105,11
255,0,715819,248468,1239498,73881,8332,619473,11
255,0,711947,249253,1312476,74203,9429,655919,11
255,0,731159,252611,1291479,77086,10219,645401,11
255,0,718417,250910,1382029,74933,9911,690543,11
255,0,711616,248475,1397434,73772,9025,698308,11
255,0,714850,249172,1280260,74165,8866,639834,11
255,0,712788,248775,1301013,73870,8630,650119,11
255,0,716484,250088,1406966,74451,9241,703216,11
255,0,713528,248892,1405848,73895,9203,702498,11
255,0,712973,248326,1319025,73659,8659,659212,11
255,0,717639,250076,1417307,74186,9022,708096,11
255,0,720455,250821,1443748,74780,9384,721231,11
255,0,716005,249170,1484862,73887,9648,742123,11
255,0,718694,250270,1402098,74500,9625,700522,11
255,0,717363,249773,1470042,74145,9638,734690,11
255,0,738171,253963,1395710,77292,9592,697490,11
255,0,721456,251079,1434511,74846,9466,716639,11
255,0,717015,248973,1303219,73892,8583,651320,11
255,0,715321,249975,1404629,74176,8702,702058,11
255,0,709683,250373,1433334,74536,9218,716135,11
255,0,704050,248125,1314278,73527,8951,656775,11
255,0,708365,249425,1403842,74045,9220,701531,11
255,0,712083,251397,1373860,75021,9933,686369,11
255,0,708662,249344,1504961,73962,10076,752136,11
255,0,709346,249332,1260842,74031,8930,629502,11
255,0,706932,248622,1487224,73799,10044,743217,11
255,0,712210,250482,1446395,74605,9874,722663,11
255,0,708384,248568,1407701,73738,8930,703635,11
255,0,708122,248935,1402335,73853,9325,700863,11
255,0,709258,249087,1428694,73832,8669,714168,11
255,0,736752,258446,1377461,76708,8604,688382,11
255,0,713377,250401,1433442,74566,8565,716242,11
255,0,712050,249553,1406048,74096,8869,702633,11
255,0,732950,254269,1400775,77399,9084,699988,11
255,0,714261,250215,1535212,74514,9813,766904,11
255,0,712540,248864,1521980,73806,9079,760679,11
255,0,710523,248898,1419703,73875,9192,709390,11
255,0,717524,251347,1420804,74928,9307,709875,11
255,0,711152,248503,1416710,73717,9167,708057,11
255,0,711522,248404,1509500,73611,9117,754414,11
255,0,712651,249206,1412657,73981,8749,706008,11
255,0,708174,248488,1236691,73695,9113,617973,11
255,0,707911,249036,1299473,73982,8415,649306,11
255,0,732037,254187,1289113,77406,9289,644199,11
255,0,714305,250570,1321238,74708,8932,659952,11
255,0,708484,248862,1339984,73801,8987,669562,11
255,0,711429,249771,1237041,74167,8334,618134,11
255,0,712734,249894,1299842,74213,8731,649502,11
255,0,715117,250492,1458868,74603,8383,728921,11
255,0,709410,248335,1292970,73671,8738,646137,11
255,0,708443,248838,1359188,73879,8749,679293,11
255,0,731695,253947,1396806,77316,9283,698091,11
255,0,715198,250715,1397599,74792,8620,698263,11
255,0,708952,248423,1414819,73769,8707,707106,11
255,0,710782,248714,1318614,73913,8632,658940,11
255,0,712602,249005,1458133,74010,8795,728588,11
255,0,710357,248349,1342608,73738,8598,670969,11
255,0,731103,252142,1346510,76800,9328,672918,11
255,0,716212,251043,1426255,74960,9351,712576,11
255,0,714081,249830,1414478,74489,9414,706495,11
255,0,710685,248384,1419473,73756,9812,709368,11
255,0,709369,248570,1232397,73841,8081,615963,11
255,0,711421,248998,1487331,74014,8691,743253,11
255,0,711305,248290,1439185,73719,8815,719306,11
255,0,711154,249019,1374464,73955,9380,686886,11
255,0,709632,248484,1282301,73865,8483,640801,11
255,0,710845,248288,1426816,73858,9406,713045,11
255,0,732777,252816,1351709,77002,10017,675433,11
255,0,716075,250351,1485696,74726,9232,742242,11
255,0,713744,248613,1254595,73916,9113,626942,11
255,0,719113,249838,1320265,74398,9345,659704,11
255,0,707171,248438,1233900,73710,8794,616673,11
255,0,729359,253179,1303542,77099,9758,651409,11
255,0,716298,251479,1335372,75081,9654,667072,11
255,0,709058,248346,1331808,73700,8592,665555,11
255,0,709285,248377,1401396,73746,8586,700404,11
255,0,709777,248083,1333530,73608,8328,666426,11
255,0,711469,248853,1381670,73823,8957,690516,11
255,0,728706,253101,1354943,77070,9485,677122,11
255,0,709015,248047,1437879,73593,8803,718658,11
255,0,711909,249043,1370857,73926,9131,685124,11
255,0,711952,248683,1398552,73861,8939,698955,11
255,0,710191,248611,1504902,73838,9125,752116,11
255,0,710023,248154,1364312,73651,8530,681911,11
255,0,714069,249579,1464021,74143,9419,731747,11
255,0,716261,250139,1409956,74608,9757,704346,11
255,0,708700,247685,1402187,73461,9488,700742,11
255,0,708566,248423,1414110,73759,8865,706741,11
255,0,707927,248050,1332846,73721,8448,666087,11
255,0,735167,257731,1468378,76582,9440,733705,11
255,0,728506,252317,1385441,76912,9548,692447,11
255,0,708037,247566,1436337,73536,9150,717921,11
255,0,708990,247707,1297551,73615,8549,648368,11
255,0,710403,247759,1503325,73600,9818,751348,11
255,0,708891,248056,1317834,73749,8406,658534,11
255,0,707393,247637,1426141,73600,8635,712786,11
255,0,709197,247869,1556493,73701,10085,777778,11
255,0,716269,250169,1367932,74703,9640,683300,11
255,0,712224,248749,1354058,73987,9374,676445,11
255,0,712706,247917,1455486,73712,9686,727299,11
255,0,705458,247539,1514582,73521,10206,756808,11
255,0,730837,253317,1478535,77246,10007,738731,11
255,0,714208,250526,1648358,74892,10444,823494,11
255,0,706799,247300,1528695,73464,9610,764239,11
255,0,709531,248251,1441935,73842,9677,720566,11
255,0,710714,249126,1440444,74034,9299,719806,11
255,0,709913,248065,1508352,73772,9690,753769,11
255,0,710478,249616,1501384,74505,9376,750037,11
255,0,708897,247867,1485388,73633,9080,742279,11
255,0,707742,247237,1413895,73315,9510,706611,11
255,0,710279,248164,1506394,73750,9527,752711,11
255,0,716363,250134,1504218,74651,10205,751433,11
255,0,712299,248032,1444019,73744,9494,721517,11
255,0,703120,246304,1543530,73087,9917,771414,11
255,0,708470,247515,1410756,73481,9491,704940,11
255,0,712964,249314,1414351,74348,10715,706642,11
255,0,709385,247493,1469626,73490,10164,734385,11
255,0,710692,247980,1424931,73708,9593,712068,11
255,0,710088,247449,1521547,73462,10114,760388,11
255,0,707123,247023,1493242,73286,8932,746178,11
255,0,710777,247926,1509672,73678,9665,754375,11
255,0,732153,252694,1478402,76999,10444,738710,11
255,0,716940,250025,1532961,74622,9957,765895,11
255,0,712540,247709,1530949,73617,10219,765092,11
255,0,713275,248380,1436281,73859,10125,717650,11
255,0,712483,247887,1524978,73752,9889,762059,11
255,0,713073,247797,1417613,73660,9146,708423,11
255,0,724878,252202,1569574,76941,10143,784331,11
255,0,707854,248188,1413914,73828,9497,706511,11
255,0,708766,249411,1491405,74403,9315,745152,11
255,0,706849,247529,1438089,73575,9003,718654,11
255,0,705641,247785,1549792,73639,9522,774658,11
255,0,705259,247692,1385403,73679,8586,692267,11
255,0,706572,247838,1523042,73615,9438,761226,11
255,0,707509,248113,1388778,73821,9128,693913,11
255,0,707514,247762,1391948,73732,9257,695538,11
255,0,707443,247636,1362167,73628,8961,680780,11
255,0,727215,251835,1471475,76758,9794,735359,11
255,0,708990,248052,1511424,73732,9396,755358,11
255,0,710745,248163,1523593,73896,9253,761490,11
255,0,710875,247868,1591588,73688,9366,795396,11
255,0,706890,248586,1425134,74003,9258,712010,11
255,0,709093,248985,1545687,74246,9686,772293,11
255,0,708363,248278,1521573,73765,9701,760365,11
255,0,710265,248973,1494126,74269,9572,746293,11
255,0,708421,248146,1502236,73691,9266,750752,11
255,0,708396,248061,1449951,73636,9268,724561,11
255,0,735080,256964,1543137,76285,9933,771252,11
255,0,708765,247639,1527244,73554,9440,763127,11
255,0,709856,247939,1548541,73587,9655,773900,11
255,0,709009,247922,1515466,73610,9863,757371,11
255,0,714981,249846,1516462,74463,9599,757682,11
255,0,709763,247696,1596335,73558,9745,797759,11
255,0,710233,247655,1480646,73506,9302,739783,11
255,0,715039,251469,1467227,75108,10262,732674,11
255,0,708400,248385,1354781,73758,9341,676946,11
255,0,710449,248881,1347791,73948,9333,673431,11
255,0,711678,248860,1416664,74146,10374,707711,11
255,0,730193,252798,1535146,76987,10600,767213,11
255,0,712756,249340,1527720,74404,9829,763169,11
255,0,707273,247759,1508485,73553,9220,753750,11
255,0,708469,248200,1404645,73737,9139,701862,11
255,0,710348,248154,1418517,73673,9026,708896,11
255,0,708640,247603,1408332,73620,9568,703689,11
255,0,706567,247649,1489430,73647,8869,744277,11
255,0,701657,245550,1398768,72900,8525,698968,11
255,0,705653,247097,1511848,73412,8952,755463,11
255,0,728902,252072,1455778,76804,9874,727548,11
255,0,707794,247646,1459726,73613,8981,729311,11
255,0,708257,246983,1507980,73436,10251,753435,11
255,0,707993,247925,1491518,73721,9750,745379,11
255,0,709267,247483,1348224,73617,9672,673586,11
255,0,709648,247187,1388431,73474,9912,693603,11
255,0,710403,247907,1360651,73766,9528,679820,11
255,0,709075,246938,1407935,73388,9684,703609,11
255,0,734526,252690,1491009,77084,10588,744994,11
255,0,716886,249876,1531139,74705,9560,764874,11
255,0,705145,247929,1525628,73693,9087,762424,11
255,0,705668,247122,1512248,73436,9567,755721,11
255,0,705092,247690,1435866,73648,9124,717511,11
255,0,709355,248674,1510374,74167,9374,754516,11
255,0,704950,247115,1529218,73419,9060,764189,11
255,0,708408,248261,1513939,73805,9109,756371,11
255,0,713727,249999,1519488,74635,9863,758987,11
255,0,710670,248272,1427385,73793,9512,713159,11
255,0,707841,248275,1425732,73782,8887,712357,11
255,0,709968,248310,1529856,73820,9617,764541,11
255,0,705852,247003,1403185,73291,8895,701256,11
255,0,712015,248867,1591464,73987,9417,795325,11
255,0,734724,253379,1511638,77253,10450,755395,11
255,0,711803,248410,1533675,73781,10135,766587,11
255,0,709169,247347,1429554,73446,9339,714349,11
255,0,709404,247953,1529263,73703,9693,764228,11
255,0,707240,247664,1424055,73549,9297,711658,11
255,0,730409,252781,1406211,77060,10506,702675,11
255,0,711801,249183,1466507,74324,10234,732521,11
255,0,710389,248084,1525754,73699,9974,762547,11
255,0,711137,248209,1435240,73777,9638,717190,11
255,0,713983,249073,1537372,74247,10501,767995,11
255,0,712159,248866,1535234,74011,9779,767139,11
255,0,736829,256774,1475286,76178,9792,737306,11
255,0,729229,252184,1481287,76851,10050,740267,11
255,0,709252,247540,1521180,73514,9449,760267,11
255,0,711449,248387,1483449,73822,9198,741230,11
255,0,709974,247486,1551461,73491,9769,775214,11
255,0,710648,247769,1444948,73486,8664,721990,11
255,0,711433,247774,1453335,73495,9625,726263,11
255,0,718736,250155,1477877,74658,10103,738337,11
255,0,713893,247708,1564805,73495,10070,782113,11
255,0,716082,250645,1564556,74659,10359,781633,11
255,0,709572,247925,1534610,73611,9949,767010,11
255,0,707391,246746,1471118,73157,9817,734947,11
255,0,711149,247980,1443463,73613,9888,721217,11
255,0,709770,247983,1448861,73531,9211,724001,11
255,0,711081,247903,1295442,73430,9029,647313,11
255,0,711751,248646,1371328,73753,9751,685151,11
255,0,732806,252722,1361721,76838,10141,680430,11
255,0,717083,249927,1379397,74356,9723,689027,11
255,0,714072,248672,1361899,73726,9148,680475,11
255,0,717337,249628,1392559,74228,9038,695747,11
255,0,713565,248440,1317961,73592,9071,658539,11
255,0,733166,253267,1444826,76995,9804,722079,11
255,0,708502,247083,1428051,73201,9106,713585,11
255,0,713044,247921,1376097,73373,9321,687790,11
255,0,710287,247423,1290202,73281,8363,644747,11
255,0,712339,247829,1391550,73456,9434,695246,11
255,0,741731,254537,1350731,77862,9792,674937,11
255,0,711051,247766,1471112,73385,9654,735156,11
255,0,712052,247771,1373955,73397,9335,686554,11
255,0,714047,248593,1321591,73695,9148,660369,11
255,0,715525,248992,1417536,74015,9271,708196,11
255,0,712968,247924,1414110,73449,9472,706753,11
255,0,736743,252935,1370783,76894,9850,684955,11
255,0,714768,247994,1444663,73423,9058,722022,11
255,0,705675,247708,1456069,73322,8976,727568,11
255,0,707582,249083,1381085,73803,8652,690130,11
255,0,709561,249528,1426023,74143,9155,712436,11
255,0,706370,248244,1487445,73575,10006,743264,11
255,0,728754,252887,1483524,76790,10713,741364,11
255,0,712267,250357,1519289,74509,10416,759006,11
255,0,707444,248068,1436995,73431,9703,718152,11
255,0,711726,249238,1389993,73869,10264,694555,11
255,0,713336,249323,1511115,74035,10207,754871,11
255,0,706964,247821,1511235,73420,9281,755244,11
255,0,713006,250063,1488592,74451,9600,743493,11
255,0,709032,248083,1495009,73522,9234,747165,11
255,0,708262,247987,1528961,73506,9966,764192,11
255,0,709981,248804,1416176,73778,9039,707643,11
255,0,713365,249561,1516303,74214,9783,757659,11
255,0,710098,247997,1510051,73516,9848,754608,11
255,0,727888,253125,1480654,76994,10573,739918,11
255,0,707955,248513,1425232,73732,9391,712224,11
255,0,711314,248918,1438028,73846,8928,718529,11
255,0,710071,249135,1507828,74039,9547,753258,11
255,0,709255,248224,1451230,73585,8854,725266,11
255,0,731417,252870,1578433,76894,9863,788797,11
255,0,736217,257306,1585062,76259,10037,792121,11
255,0,705832,247484,1433352,73339,8780,716422,11
255,0,706859,247441,1534286,73338,9560,766696,11
255,0,713024,249844,1442780,74322,8901,720747,11
255,0,706234,247452,1508345,73375,9789,753768,11
255,0,717623,250733,1436259,74766,10112,717449,11
255,0,712169,248044,1470856,73525,9849,735072,11
255,0,704911,247307,1418840,73360,9072,709090,11
255,0,705213,247229,1479928,73405,9372,739429,11
255,0,707697,247510,1539309,73406,9395,769299,11
255,0,729121,252639,1496080,76946,9840,747560,11
255,0,714508,250471,1479671,74705,9927,739324,11
255,0,706739,247137,1503844,73314,9533,751676,11
255,0,709601,247975,1423157,73666,9243,711139,11
255,0,708309,247403,1520772,73414,9927,760022,11
255,0,733316,252602,1496598,76922,10262,747845,11
255,0,706606,247570,1507978,73378,9609,753751,11
255,0,710653,248388,1486100,74008,9384,742454,11
255,0,707109,247380,1555306,73431,9661,777296,11
255,0,709268,247272,1330812,73401,9735,664960,11
255,0,711814,248549,1410901,73997,9592,704844,11
255,0,709054,247029,1523491,73272,10365,761294,11
255,0,710480,247229,1515269,73317,10188,757205,11
255,0,714567,248765,1434397,73892,9136,716648,11
255,0,704317,247627,1499755,73484,9414,749491,11
255,0,728786,253051,1477863,77051,10133,738529,11
255,0,708139,247620,1599963,73476,9889,799580,11
255,0,704682,246965,1535012,73195,9626,767158,11
255,0,709445,248612,1456975,74018,9110,727972,11
255,0,708044,247760,1466331,73568,9202,732623,11
255,0,709365,247807,1552784,73545,10045,775593,11
255,0,709829,248032,1484154,73637,10305,741636,11
255,0,712161,249578,1499410,74321,9945,748672,11
255,0,732728,252979,1597603,77009,11932,798081,11
255,0,714410,249123,1443995,74278,10551,721112,11
255,0,707409,247784,1490729,73496,11526,744623,11
255,0,704455,246569,1573518,73078,10777,786242,11
255,0,709840,248156,1570566,73664,11203,784482,11
255,0,706555,246887,1440553,73217,9999,719952,11
255,0,706479,246852,1575222,73205,10408,787116,11
255,0,709997,247673,1486188,73504,11140,742305,11
255,0,708818,248514,1510596,73793,9895,754654,11
255,0,711033,248382,1756674,73718,10346,877156,11
255,0,708461,247308,1580768,73417,10607,789623,11
255,0,731714,252185,1575594,76795,11896,787475,11
255,0,718272,250974,1581591,74907,11512,790126,11
255,0,710238,247809,1601097,73566,10965,800452,11
255,0,705281,247353,1605624,73366,10514,802532,11
255,0,708823,248045,1287336,73659,8360,643305,11
255,0,707051,247153,1370033,73310,9265,684629,11
255,0,716441,249696,1358004,74357,9809,678449,11
255,0,730819,251946,1387895,76645,10039,693465,11
255,0,717506,250138,1364472,74594,9193,681388,11
255,0,710808,248148,1401544,73684,9395,700314,11
255,0,708079,247512,1485080,73420,9991,742010,11
255,0,708562,247689,1611239,73537,10311,805257,11
255,0,710526,248010,1478643,73631,10408,738485,11
255,0,708746,247053,1433835,73274,10338,715621,11
255,0,711210,248355,1406523,74029,9780,703054,11
255,0,710620,247355,1429093,73374,10380,713973,11
255,0,709644,246949,1492045,73249,10259,745753,11
255,0,713088,249149,1562630,74194,10265,779930,11
255,0,711235,248150,1669118,73665,11239,834095,11
255,0,709099,247148,1416513,73298,9944,707692,11
255,0,732555,252197,1489752,76798,10885,744469,11
255,0,712097,247679,1626193,73476,10295,812754,11
255,0,710958,247662,1297523,73545,9146,648219,11
255,0,715957,249226,1374973,74151,8848,686880,11
255,0,714341,248079,1556392,73652,9722,777738,11
255,0,712810,247090,1402377,73271,8428,700888,11
255,0,703757,247712,1458572,73558,9199,728860,11
255,0,726122,252216,1443861,76827,10226,721507,11
255,0,704112,246995,1413356,73215,9539,706453,11
255,0,706610,247333,1372963,73369,9503,686116,11
255,0,708476,248325,1324132,73738,9108,661600,11
255,0,707830,247729,1254851,73496,8539,627051,11
255,0,708752,247694,1310203,73478,9206,654784,11
255,0,707055,247838,1249034,73500,8701,623909,11
255,0,731817,252977,1331344,77061,9526,665298,11
255,0,707226,248119,1285772,73685,8594,642528,11
255,0,708240,247942,1431489,73590,8855,715087,11
255,0,705173,247040,1338615,73235,8361,668925,11
255,0,707837,247254,1423509,73339,9025,711303,11
255,0,713480,248868,1360356,74097,9127,679605,11
255,0,710052,248019,1440389,73623,9122,719772,11
255,0,706891,247176,1305832,73300,8929,652592,11
255,0,708788,247891,1392462,73594,8771,695805,11
255,0,757400,261647,1433099,79583,9866,716099,11
255,0,715148,250026,1436624,74613,9520,717688,11
255,0,710580,247668,1324353,73528,8898,661850,11
255,0,710437,247196,1301442,73268,8927,650312,11
255,0,713141,247838,1440162,73603,9363,719661,11
255,0,708502,248066,1420751,73590,9048,710058,11
255,0,707911,247588,1374019,73444,8514,686602,11
255,0,710520,248479,1346886,73996,8853,672851,11
255,0,708896,247774,1380970,73506,8796,690220,11
255,0,729181,252066,1459087,76732,9445,729116,11
255,0,714157,249393,1343882,74304,8944,671392,11
255,0,711195,247554,1462400,73443,9332,730817,11
255,0,707446,247859,1307444,73648,8669,653441,11
255,0,708625,247276,1316846,73437,9136,658042,11
255,0,710902,247333,1459973,73315,9673,729581,11
255,0,710842,247435,1390059,73444,9027,694602,11
255,0,710349,248951,1319061,74115,8499,658981,11
255,0,708934,247944,1427902,73639,8798,713488,11
255,0,715043,249402,1401456,74304,9079,699661,11
255,0,709002,247445,1361306,73458,8499,680229,11
255,0,707754,246617,1354934,73179,8694,677003,11
255,0,716368,249661,1321165,74354,8561,659933,11
255,0,709727,247080,1305123,73290,9084,652132,11
255,0,709596,247699,1374568,73521,9444,686754,11
255,0,732763,252652,1452306,76938,10140,725844,11
255,0,715760,249382,1333125,74252,9523,665895,11
255,0,732868,251593,1436912,76528,9813,718133,11
255,0,706495,247553,1437902,73421,9481,718661,11
255,0,707271,247486,1356707,73413,9181,678127,11
255,0,708285,247951,1425742,73647,8223,712112,11
255,0,713037,249482,1421512,74295,8415,710059,11
255,0,708490,247463,1464545,73401,9348,731773,11
255,0,708995,248012,1368662,73622,8719,684006,11
255,0,714901,250264,1284860,74667,8801,641626,11
255,0,708653,247202,1306637,73364,8837,652966,11
255,0,710142,247276,1220847,73398,8554,609954,11
255,0,707062,247381,1296914,73453,8632,648009,11
255,0,709137,247395,1373873,73387,9050,686737,11
255,0,711910,247928,1326436,73562,8573,662798,11
255,0,713170,248256,1402623,73696,9153,700935,11
255,0,716557,249055,1318712,74130,8636,658664,11
255,0,709057,247694,1473720,73511,8655,736437,11
255,0,716925,250457,1322289,74668,8601,660530,11
255,0,709477,247330,1420974,73343,8777,710128,11
255,0,708438,247191,1294491,73319,8272,646849,11
255,0,707790,246855,1432924,73204,8942,716138,11
255,0,711044,248201,1369168,73680,8071,684189,11
255,0,711050,247787,1380289,73547,8682,689834,11
255,0,730813,252648,1427027,76936,8901,713150,11
255,0,717567,250667,1459309,74801,8375,729020,11
255,0,712143,247582,1392509,73479,8953,695878,11
255,0,711929,248235,1342154,73830,8753,670589,11
255,0,713759,248636,1430066,73802,9663,714613,11
255,0,710228,247030,1367069,73260,8298,683216,11
255,0,734670,252433,1477171,76835,10233,738238,11
255,0,716637,249138,1327793,74264,8982,663328,11
255,0,705983,247097,1357579,73278,8540,677961,11
255,0,708461,247614,1632575,73483,8995,815335,11
255,0,712847,248753,1454222,73863,8991,726745,11
255,0,707399,247426,1337607,73403,8611,668375,11
255,0,730736,252198,1387954,76757,10135,693539,11
255,0,715423,249494,1308525,74384,8986,653626,11
255,0,709933,247514,1333673,73413,9583,666462,11
255,0,712365,247592,1358198,73455,9386,678799,11
255,0,710639,247845,1378467,73570,9257,688994,11
255,0,711824,248016,1402495,73620,9025,700728,11
255,0,716182,249286,1318727,74298,9017,658744,11
255,0,710687,247829,1409010,73448,8573,704095,11
255,0,711552,247712,1371318,73519,8717,685102,11
255,0,712681,247557,1459822,73406,9453,729494,11
255,0,709412,247663,1436002,73453,8576,717635,11
255,0,730498,251907,1490940,76673,9690,744994,11
255,0,711113,247406,1401235,73379,8963,700315,11
255,0,709350,247151,1373685,73302,8438,686424,11
255,0,714033,248173,1523213,73673,10019,760614,11
255,0,710143,246961,1528533,73234,9935,762990,11
255,0,716008,250062,1408634,74556,9072,703784,11
255,0,711586,247339,1400649,73315,9009,699907,11
255,0,712067,247575,1478234,73358,8924,738435,11
255,0,713799,247971,1567648,73523,9994,783650,11
255,0,712811,247580,1415004,73305,8635,706716,11
255,0,713332,247681,1444556,73446,8798,721880,11
255,0,735197,252206,1578832,76696,10798,788960,11
255,0,713773,248137,1329549,73522,7963,664853,11
255,0,698439,247685,1303428,72977,8507,651345,11
255,0,705662,249563,1285901,73808,8513,642486,11
255,0,700008,247263,1360670,72835,8394,680050,11
255,0,705592,249644,1372954,73886,9281,685481,11
255,0,702241,247729,1560322,73081,8832,779544,11
255,0,702370,247513,1431318,72961,9173,715183,11
255,0,698639,246602,1367673,72581,9158,683021,11
255,0,709463,250287,1292249,74131,8412,645373,11
255,0,701151,246991,1367903,72689,8484,683475,11
255,0,704695,247887,1451115,73095,8669,725278,11
255,0,703557,247086,1258404,72786,8010,628923,11
255,0,723879,252848,1470084,76480,10479,734719,11
255,0,701663,247503,1395450,72902,9323,697414,11
255,0,703432,247331,1391318,72872,8248,695141,11
255,0,724434,251859,1479474,76177,9519,739397,11
255,0,701188,247234,1331176,72883,8838,665286,11
255,0,706757,248692,1255413,73532,8346,627108,11
255,0,730637,256653,1313362,75622,8791,656310,11
255,0,725904,252329,1418548,76310,9923,708755,11
255,0,706541,248210,1422193,73145,8987,709757,11
255,0,707134,247452,1500913,72909,9809,749859,11
255,0,699800,247797,1467883,73061,9631,733558,11
255,0,700675,247207,1267253,72819,8483,633061,11
255,0,725226,252449,1654059,76344,11811,826255,11
255,0,707103,249478,1646191,73874,11001,820669,11
255,0,702418,246977,1434963,72707,9313,716946,11
255,0,704043,247743,1612238,73016,11013,804964,11
255,0,709114,249388,1537456,73750,10288,768160,11
255,0,706091,248201,1598502,73182,10871,798814,11
255,0,705213,248455,1576089,73250,11113,786704,11
255,0,724503,251883,1668554,76097,11880,833854,11
255,0,704584,247686,1621035,72996,11543,810234,11
255,0,706613,248036,1775719,73131,11119,887699,11
255,0,706142,248032,1518650,73069,9870,758864,11
255,0,704984,247286,1435744,72827,9487,717321,11
255,0,703474,247520,1553157,72882,12701,775949,11
255,0,703022,247427,1557399,72885,10500,778406,11
255,0,706218,248205,1733358,73171,10786,866063,11
255,0,707996,248527,1627235,73483,10756,812947,11
255,0,702267,246580,1512102,72741,11372,755301,11
255,0,704161,247522,1539224,72965,10183,768735,11
255,0,704948,247774,1610381,73073,11307,804770,11
255,0,706502,248152,1515798,73357,11022,757423,11
255,0,706745,248147,1661725,73217,9954,830634,11
255,0,706024,247526,1304684,72962,8103,652016,11
255,0,725442,252026,1428492,76255,9344,713927,11
255,0,711870,249955,1317448,74053,8282,658003,11
255,0,707970,247666,1429587,72974,8944,714353,11
255,0,702745,247933,1332243,73068,9047,665773,11
255,0,723841,252334,1519850,76318,9737,759593,11
255,0,708671,249955,1332349,74043,8961,665716,11
255,0,705072,248313,1418657,73151,9232,709077,11
255,0,707355,249250,1232155,73658,8793,615552,11
255,0,704828,247191,1383076,72810,10171,690989,11
255,0,703868,247681,1367607,72972,9631,683570,11
255,0,704886,247770,1378014,73101,10038,688681,11
255,0,703913,247073,1389136,72913,9438,694208,11
255,0,707833,249013,1252445,73798,8643,625703,11
255,0,704909,247776,1364103,73202,8465,681702,11
255,0,726440,251796,1435824,76314,9464,717623,11
255,0,700272,246952,1401265,72928,8899,700303,11
255,0,703513,247254,1397448,72995,8738,698396,11
255,0,703107,247666,1447532,73155,9048,723376,11
255,0,708379,249170,1368965,73866,8443,684011,11
255,0,707484,248334,1378180,73388,8094,688770,11
255,0,702365,247006,1323190,72905,8574,661215,11
255,0,703495,247334,1340676,73046,8814,670018,11
255,0,712845,250577,1337558,74405,9071,668153,11
255,0,706358,247718,1311046,73167,8568,655113,11
255,0,703844,246896,1362083,72862,8484,680739,11
255,0,704212,247785,1432472,73180,8178,715818,11
255,0,705689,247674,1433082,73162,9065,716181,11
255,0,705544,247447,1461452,73104,9421,730305,11
255,0,706151,247167,1452901,72973,9199,726032,11
255,0,711939,248956,1441290,73783,9472,720379,11
255,0,702138,247372,1438543,73057,8850,718900,11
255,0,710670,249494,1324643,74830,9861,661822,11
255,0,705001,247234,1327824,73823,9664,663596,11
255,0,705505,247125,1275476,73815,9988,637354,11
255,0,709010,248444,1308321,74251,9363,653627,11
255,0,705916,246697,1259132,73558,9124,629242,11
255,0,709348,247537,1438090,73929,9986,718674,11
255,0,728124,252519,1463492,77339,9655,731404,11
255,0,705603,247020,1284636,73742,8997,641946,11
255,0,708031,247536,1376610,73918,9579,688124,11
255,0,707944,247432,1529364,73893,10255,763986,11
255,0,712772,248784,1471357,74589,9923,735133,11
255,0,711713,247721,1547970,73988,10270,773553,11
255,0,704358,247373,1243879,73938,8507,621547,11
255,0,705211,247114,1519436,73769,9705,759323,11
255,0,709692,248603,1446150,74482,10256,722597,11
255,0,709925,248286,1528142,74197,9956,763796,11
255,0,705730,246410,1428304,73507,9338,713796,11
255,0,707990,247454,1516199,73923,10220,757704,11
255,0,709530,248600,1448685,74500,9251,723786,11
255,0,707927,246802,1417915,73682,9387,708438,11
255,0,730830,252083,1571629,77254,10810,785448,11
255,0,714127,248935,1421742,74630,9756,710340,11
255,0,710296,248008,1492404,74070,10523,745865,11
255,0,709733,247166,1420757,73795,11090,710156,11
255,0,709860,247269,1466367,73887,10708,732915,11
255,0,715931,249228,1482253,74719,10173,740560,11
255,0,702895,247726,1508806,74021,9856,754015,11
255,0,704742,247976,1518832,74010,9939,759071,11
255,0,705564,247240,1491042,73731,9991,745177,11
255,0,708783,249281,1433355,74677,9326,716261,11
255,0,703522,247003,1671554,73666,10268,835268,11
255,0,711226,250062,1523300,75038,10983,761762,11
255,0,703523,247207,1569080,73802,10343,784284,11
255,0,704769,247542,1419935,73979,9513,709541,11
255,0,710778,249138,1621794,74658,11452,810026,11
255,0,729491,252232,1913811,77283,12963,956446,11
255,0,704772,247765,1606490,74031,10930,802668,11
255,0,709823,249307,1492589,74707,10884,745712,11
255,0,705651,247306,1480551,73834,10930,740009,11
255,0,714022,250773,1659637,75331,10902,828659,11
255,0,705733,247095,1581389,73768,10572,789870,11
255,0,704841,247596,1602678,73998,10534,800646,11
255,0,707040,247804,1486684,74008,10531,742799,11
255,0,729083,252481,1662585,77317,11213,830771,11
255,0,712843,249730,1442678,74928,8885,720857,11
255,0,708096,247389,1591053,73869,10116,794741,11
255,0,706558,247021,1618878,73750,10095,809097,11
255,0,714753,249841,1370277,74886,8705,684616,11
255,0,734226,256170,1477813,76512,8922,738609,11
255,0,708421,247349,1418392,73925,8861,708654,11
255,0,723015,251547,1465606,77023,10236,732426,11
255,0,705834,247256,1427714,73824,9525,713591,11
255,0,710622,248659,1583551,74266,10673,791418,11
255,0,708725,248797,1259443,74445,9697,629232,11
255,0,712286,249340,1320248,74827,8538,659258,11
255,0,705839,247233,1327169,73818,9511,663259,11
255,0,709991,248807,1281466,74582,8269,639923,11
255,0,709854,247732,1283440,73966,8579,641444,11
255,0,707982,247355,1423633,73865,9450,711597,11
255,0,709950,247696,1314611,74046,9389,656890,11
255,0,707293,248148,1288427,74260,8329,643649,11
255,0,707034,247828,1380427,74044,9305,689667,11
255,0,706184,247114,1515358,73804,9866,757042,11
255,0,714356,249790,1338290,74982,9240,668206,11
255,0,706741,247546,1499202,73836,9128,749301,11
255,0,707394,247347,1344350,73892,8957,671659,11
255,0,708348,247112,1405807,73757,8931,702398,11
255,0,711937,248066,1480130,74139,9917,739504,11
255,0,705957,246971,1338404,73756,9009,668972,11
255,0,710495,247803,1515950,73977,9697,757594,11
255,0,711205,248207,1290130,74398,8550,644468,11
255,0,712116,248060,1394958,74139,9481,697056,11
255,0,710808,247370,1380703,73918,9338,690016,11
255,0,733984,252175,1520712,77283,10391,759967,11
255,0,704246,247328,1437822,73786,10104,718469,11
255,0,707351,248053,1438044,74139,8790,718542,11
255,0,709344,248539,1354839,74483,8940,676544,11
255,0,705994,247455,1349919,73936,9590,674531,11
255,0,727500,251850,1364684,77171,10645,681962,11
255,0,711595,249273,1257986,74807,9232,628240,11
255,0,707629,247305,1343265,73850,10069,671392,11
255,0,704711,247235,1341797,73835,9813,670594,11
255,0,705007,247081,1403104,73782,10056,700858,11
255,0,710827,248641,1337629,74505,10101,668077,11
255,0,708020,247559,1331629,73919,8626,665564,11
255,0,707759,247196,1290583,73850,9561,644974,11
255,0,709752,247546,1433961,73973,10040,716631,11
255,0,706878,248099,1513905,74139,8877,756526,11
255,0,707793,247733,1427498,74043,9398,713246,11
255,0,728696,252335,1486814,77351,10408,743019,11
255,0,715122,250457,1374151,75254,9176,686079,11
255,0,708245,246990,1565346,73747,9811,782381,11
255,0,704639,246373,1353826,73508,9026,676659,11
255,0,708576,247468,1430411,73948,9323,714878,11
255,0,709533,247656,1414579,74010,9063,706833,11
255,0,708024,246765,1342810,73684,8777,671007,11
255,0,708624,247560,1538577,73972,9315,768909,11
255,0,728467,251957,1587824,77200,10401,793668,11
255,0,709638,247733,1419887,73966,9809,709683,11
255,0,709157,247683,1339371,74046,8640,668954,11
255,0,709276,247318,1391327,73847,8776,695306,11
255,0,709373,247196,1434773,73859,9577,716976,11
255,0,713187,249350,1311589,74736,8788,655167,11
255,0,708336,247027,1445114,73761,9918,722033,11
255,0,710013,247034,1332393,73779,9462,665615,11
255,0,744504,258840,1445026,77658,9221,721838,11
255,0,706331,247352,1452137,73849,9692,725243,11
255,0,708826,247731,1320572,74073,9506,659904,11
255,0,707331,247466,1348055,73940,9840,673424,11
255,0,728779,251900,1374074,77155,10989,686723,11
255,0,706191,246622,1324308,73584,9587,661783,11
255,0,708136,246294,1366729,73569,9788,683041,11
255,0,705998,247369,1398990,73929,10521,698864,11
255,0,708108,247196,1344833,73795,9750,672081,11
255,0,709672,247857,1338769,74018,10042,668880,11
255,0,712909,248987,1268751,74725,9510,633621,11
255,0,711371,248192,1291584,74186,9648,645155,11
255,0,710182,247046,1402915,73807,10609,700937,11
255,0,707052,247653,1359067,73978,8671,679117,11
255,0,708826,247873,1391929,74078,8988,695714,11
255,0,707805,247120,1401706,73780,9288,700564,11
255,0,714143,249115,1363257,74667,9068,681085,11
255,0,710148,247508,1559173,73898,9776,779300,11
255,0,711560,248178,1451553,74123,10167,725166,11
255,0,709707,247201,1349531,73801,9934,674239,11
255,0,711701,248224,1461154,74206,10037,730135,11
255,0,712528,247615,1485133,74006,9937,742104,11
255,0,712405,247224,1425463,73815,9100,712400,11
255,0,707154,247620,1376183,74027,9331,687779,11
255,0,702557,247293,1392951,73868,9508,696094,11
255,0,701976,247076,1426809,73820,10219,712975,11
255,0,706310,248472,1379276,74418,10197,688929,11
255,0,706054,248211,1421501,74203,10636,710419,11
255,0,704556,247091,1370886,73841,10194,685060,11
255,0,709128,249294,1416566,74810,9908,707363,11
255,0,703420,247021,1371705,73780,9717,685564,11
255,0,703153,246712,1263569,73670,9190,631264,11
255,0,703486,246887,1301175,73720,9763,650011,11
255,0,707687,247872,1334936,74034,10000,667150,11
255,0,705540,247534,1344705,73959,10098,671733,11
255,0,709384,248102,1456493,74159,10148,727860,11
255,0,709805,247566,1351117,73925,10135,675315,11
255,0,702907,247466,1396111,73959,9632,697851,11
255,0,705016,247275,1324131,73853,8999,661665,11
255,0,709640,248905,1417054,74555,8915,707980,11
255,0,706849,247823,1456252,74016,9894,727616,11
255,0,707006,247465,1379993,73850,9113,689606,11
255,0,705551,247703,1447340,73926,9877,723299,11
255,0,706870,247147,1384639,73764,9785,691733,11
255,0,704906,247043,1436916,73714,9736,718093,11
255,0,711287,248847,1385779,74491,9416,692196,11
255,0,707834,247634,1483067,74010,9364,741009,11
255,0,708443,247166,1471486,73738,9415,735685,11
255,0,706076,246843,1379638,73712,9551,689510,11
255,0,707879,248668,1388756,74517,9909,693799,11
255,0,705207,247576,1315480,73908,8430,657405,11
255,0,709986,249709,1345175,74967,9010,671949,11
255,0,704332,246632,1293819,73651,9038,646411,11
255,0,705804,246989,1332030,73732,9406,665382,11
255,0,711571,249269,1515950,74786,11069,757188,11
255,0,705122,246868,1441967,73676,9311,720554,11
255,0,707752,247404,1578064,73889,11121,788091,11
255,0,710026,247658,1417197,73838,9928,708259,11
255,0,710495,249395,1500097,74846,11152,748297,11
255,0,707060,247604,1484976,73907,9166,741944,11
255,0,710335,248753,1729852,74318,11594,864593,11
255,0,707004,247169,1532688,73759,10578,765725,11
255,0,713485,249161,1550308,74672,10912,774074,11
255,0,707527,247277,1417922,73822,9318,708928,11
255,0,711156,248285,1882246,74209,11532,939918,11
255,0,710599,248392,1456447,74427,11081,727793,11
255,0,731091,252294,1640889,77308,11705,820015,11
255,0,712374,248078,1423930,74185,10599,711524,11
255,0,709436,246756,1436105,73660,9172,717505,11
255,0,710177,247324,1504823,73896,10380,752185,11
255,0,705298,247647,1408975,74025,9538,703810,11
255,0,728178,252395,1601268,77352,11942,800451,11
255,0,712363,249538,1463966,74841,10893,731004,11
255,0,705966,247517,1410934,73962,9539,705015,11
255,0,705355,247029,1378761,73765,8274,688945,11
255,0,710200,248523,1442797,74473,10397,720663,11
255,0,707734,247490,1489572,73897,9880,744217,11
255,0,706159,247690,1463353,74021,9595,731784,11
255,0,711699,249252,1513683,74746,11273,755849,11
255,0,706734,247538,1558453,73899,10127,778890,11
255,0,706974,246625,1418150,73549,9018,708759,11
255,0,710860,248324,1459547,74188,9431,729382,11
255,0,707955,247057,1350429,73816,8755,674809,11
255,0,730301,251709,1537127,77084,10274,768193,11
255,0,711975,249481,1347199,74923,9179,672924,11
255,0,706801,247648,1544475,73975,10522,771699,11
255,0,708668,248075,1547126,74133,10647,773258,11
255,0,708172,247423,1587907,73866,10609,793622,11
255,0,705202,246955,1403210,73719,9827,701388,11
255,0,731730,252478,1583046,77314,10974,790992,11
255,0,711984,249285,1388885,74817,10334,693819,11
255,0,710032,247781,1419215,73985,10371,709170,11
255,0,706117,246926,1473129,73714,9976,736421,11
255,0,707931,247002,1440235,73737,9542,719793,11
255,0,710072,247669,1443641,73987,9625,721480,11
255,0,711591,248732,1478717,74589,9831,738259,11
255,0,705965,247854,1548147,74099,10726,773639,11
255,0,727487,252047,1625966,77232,10903,812411,11
255,0,708098,247327,1571239,73839,10117,785178,11
255,0,707330,247424,1480905,73879,10152,739824,11
255,0,711260,248389,1616448,74221,10272,807793,11
255,0,709529,247469,1430535,73905,9686,714906,11
255,0,727269,251879,1624800,77065,11259,812172,11
255,0,706358,246348,1502469,73534,9184,750857,11
255,0,708535,247320,1318571,73867,9366,658835,11
255,0,708578,246877,1362231,73675,9585,680731,11
255,0,708480,247862,1257066,73994,9247,628000,11
255,0,708875,247593,1377264,73988,9219,688115,11
255,0,712519,249069,1383062,74633,9457,691005,11
255,0,711831,247758,1340421,74019,8738,669720,11
255,0,735202,253126,1497187,78094,10806,748232,11
255,0,709259,247103,1516758,73783,9798,757998,11
255,0,710126,246850,1345916,73700,8727,672550,11
255,0,710383,247672,1407484,74017,9734,703382,11
255,0,709200,247383,1408669,73878,9378,703864,11
255,0,711567,247877,1402265,73980,9191,700694,11
255,0,731135,251594,1462604,77066,10405,730930,11
255,0,716365,249318,1372336,74769,9138,685451,11
255,0,708906,247047,1434803,73692,9629,717065,11
255,0,714995,248765,1364193,74370,9104,681666,11
255,0,709567,246246,1550238,73469,10378,774509,11
255,0,711458,247646,1382887,73969,9924,691060,11
255,0,717319,249280,1251049,74676,9146,624984,11
255,0,706992,248001,1549617,74063,10734,774366,11
255,0,704741,247581,1415511,73894,10337,707454,11
255,0,705371,247049,1529118,73731,11200,764065,11
255,0,709475,248592,1509219,74269,10888,754038,11
255,0,710093,249041,1526818,74500,10277,762520,11
255,0,709463,248279,1410544,74045,9909,704493,11
255,0,707779,247921,1515613,73882,10400,757376,11
255,0,708174,247616,1455943,73836,10094,727424,11
255,0,709220,249362,1414708,74683,11099,706017,11
255,0,710458,248764,1460352,74230,10781,729573,11
255,0,706286,247477,1444764,73696,9432,722229,11
255,0,708898,248149,1556967,74012,9713,778515,11
255,0,706475,247861,1409734,73861,10648,704566,11
255,0,710421,248660,1311059,74349,8939,655009,11
255,0,707860,248219,1370078,74065,9419,684307,11
255,0,705792,246801,1337407,73546,8652,668394,11
255,0,726847,251648,1553372,76949,10500,776656,11
255,0,709143,247797,1455612,73855,9284,727417,11
255,0,708868,247323,1359226,73704,9064,679268,11
255,0,709885,247644,1423525,73887,9048,711314,11
255,0,712140,248770,1346863,74414,9131,672947,11
255,0,708549,248017,1390706,74019,8976,694983,11
255,0,706517,246962,1369073,73581,8633,684168,11
255,0,713377,248300,1549058,74043,9520,774160,11
255,0,709654,248023,1432881,74087,8982,716054,11
255,0,713490,248894,1351141,74473,9287,675035,11
255,0,711918,247487,1395777,73830,9731,697583,11
255,0,708714,247656,1333470,73875,9129,666418,11
255,0,707858,247614,1321807,73793,8183,660579,11
255,0,710014,248829,1267383,74423,8685,633162,11
255,0,709637,248319,1352635,74104,8662,676051,11
255,0,710136,248157,1305829,73930,8305,652776,11
255,0,710470,248088,1399537,74203,7990,699102,11
255,0,710921,248354,1312650,74093,8800,655976,11
255,0,730286,251877,1480624,77029,9621,740064,11
255,0,713544,248463,1403268,74134,8815,701300,11
255,0,706938,247751,1382660,73930,9929,690990,11
255,0,709224,247556,1303411,73849,8760,651336,11
255,0,733026,252711,1450232,77325,10317,724779,11
255,0,708624,247238,1487146,73711,9035,743027,11
255,0,713876,248621,1330633,74398,8435,665225,11
255,0,712080,247766,1400099,73940,9229,699691,11
255,0,709265,247840,1395859,73907,8577,697652,11
255,0,709195,247483,1371725,73863,8208,685373,11
255,0,713723,248062,1393349,74019,8716,696311,11
255,0,709786,247175,1360397,73706,8776,679852,11
255,0,710678,247182,1320914,73664,8921,660044,11
255,0,708459,247946,1327130,73885,9291,663152,11
255,0,709325,248052,1358970,73978,9268,679179,11
255,0,708431,247901,1401395,73877,8807,700408,11
255,0,712632,249045,1297818,74594,8242,648878,11
255,0,707458,247416,1476097,73776,9372,737873,11
255,0,710468,248307,1305746,74189,8875,652254,11
255,0,729608,252116,1518709,77156,10316,759048,11
255,0,715035,249759,1361995,75047,9096,680414,11
255,0,710917,247331,1337374,73854,8901,668377,11
255,0,712154,247482,1470835,73973,10186,734355,11
255,0,707486,247385,1576575,73907,11351,787907,11
255,0,708846,247603,1615305,73905,10545,806892,11
255,0,730321,251907,1673791,77031,12467,836179,11
255,0,713945,249285,1571979,74677,11072,784902,11
255,0,710160,248036,1564717,74012,11062,781517,11
255,0,710571,247493,1578637,73841,11339,787762,11
255,0,712731,247457,1666693,73769,11201,832836,11
255,0,709497,248001,1472306,74046,11736,735880,11
255,0,712468,248094,1384847,74031,9806,691857,11
255,0,711608,247270,1373852,73733,9456,686529,11
255,0,712500,248029,1480163,73960,10331,739736,11
255,0,713092,248250,1477740,74031,10472,738321,11
255,0,711393,247225,1481065,73692,10103,740061,11
255,0,711248,247202,1575952,73650,10049,787644,11
255,0,735033,252364,1782622,77167,11989,891003,11
255,0,718376,249840,1362145,74836,9737,680190,11
255,0,705979,246991,1446572,73620,9275,722899,11
255,0,712723,248962,1385800,74452,9386,691986,11
255,0,736606,256549,1489350,76508,9341,744298,11
255,0,708192,247288,1505467,73689,9775,752362,11
255,0,708649,246683,1498515,73566,9619,748711,11
255,0,711691,247742,1402471,73947,9567,700654,11
255,0,709253,247129,1460210,73760,9567,729841,11
255,0,712291,247952,1422753,74012,9350,711582,11
255,0,713252,247938,1476468,73964,9176,737867,11
255,0,710648,246892,1388603,73575,8831,693706,11
255,0,716251,248653,1332657,74408,8466,665621,11
255,0,714562,248405,1294130,74279,9447,646547,11
255,0,713059,248217,1376381,74045,9659,687832,11
255,0,712007,247273,1429600,73638,9545,714402,11
255,0,711712,247407,1399519,73838,9198,699504,11
255,0,713755,247703,1493588,73948,9002,746490,11
255,0,713286,247295,1324089,73846,8867,661715,11
255,0,704335,247720,1409868,73917,8798,704571,11
255,0,705813,248538,1315314,74358,8717,657043,11
255,0,704550,247703,1330364,73882,8498,664892,11
255,0,708856,249223,1345414,74637,9358,672007,11
255,0,706592,247974,1373959,74006,8933,686659,11
255,0,706219,247393,1275593,73701,8387,637463,11
255,0,706758,247552,1369467,73870,8686,684297,11
255,0,710061,250047,1295493,74863,8702,647174,11
255,0,703742,247174,1372606,73756,9097,686030,11
255,0,706611,247642,1380477,73860,9131,689959,11
255,0,705795,247892,1310549,73980,9244,654892,11
255,0,727530,252092,1429826,77122,10367,714628,11
255,0,705499,247076,1278853,73661,8476,639076,11
255,0,725987,252219,1326292,77267,9341,662785,11
255,0,710974,249631,1242872,74864,8913,620879,11
255,0,705221,247535,1264396,73885,8611,631875,11
255,0,707424,247309,1362459,73840,9075,680897,11
255,0,708741,247981,1383131,74157,8914,691282,11
255,0,729231,251859,1467672,77173,9549,733459,11
255,0,709958,248862,1424697,74339,8325,712019,11
255,0,708359,247730,1374969,74009,8443,687123,11
255,0,708986,248092,1501316,74173,8526,750106,11
255,0,708538,247434,1437197,73907,8203,718228,11
255,0,710033,248385,1404287,74281,8678,701869,11
255,0,711191,248502,1341234,74326,8426,670295,11
255,0,709977,247632,1412918,73962,8472,706007,11
255,0,714154,248702,1390648,74318,8588,695062,11
255,0,707910,248379,1359721,74204,8695,679541,11
255,0,711758,249571,1493617,74713,8741,746434,11
255,0,708580,248124,1459192,74245,8404,729274,11
255,0,708524,248067,1298276,74246,8333,648725,11
255,0,730009,252782,1474330,77499,9324,736795,11
255,0,708617,247929,1405405,74146,9345,702344,11
255,0,710166,248428,1302019,74210,8713,650679,11
255,0,711121,248352,1389983,74306,9214,694633,11
255,0,706656,248154,1365867,74144,9396,682576,11
255,0,707851,247854,1465442,74092,9391,732423,11
255,0,733875,253748,1485343,77800,10852,742337,11
255,0,711371,248202,1334668,74119,9210,667028,11
255,0,710407,248242,1325071,74126,9056,662121,11
255,0,710280,248015,1398246,74111,8823,698782,11
255,0,711465,248194,1374066,74149,9081,686643,11
255,0,713907,250151,1440123,75057,9508,719447,11
255,0,708501,248232,1441639,74195,8305,720139,11
255,0,710507,248263,1413845,74234,8996,706620,11
255,0,712620,248439,1412368,74248,9017,705943,11
255,0,713662,249140,1414624,74495,8177,706989,11
255,0,713280,248507,1415235,74310,8829,707292,11
255,0,718306,250040,1325900,75191,8597,662292,11
255,0,711966,247784,1416981,74148,8989,708242,11
255,0,714419,248349,1425336,74372,9109,712346,11
255,0,716313,248769,1331974,74471,8626,665669,11
255,0,710970,248571,1492610,74457,8638,745999,11
255,0,708961,248574,1385281,74456,9289,692306,11
255,0,706985,247816,1368992,74109,8432,684228,11
255,0,714820,249803,1278897,75030,8736,638887,11
255,0,710328,248898,1361696,74473,8610,680458,11
255,0,706839,247643,1275778,74056,8001,637510,11
255,0,730936,252889,1387078,77613,8799,693119,11
255,0,716311,250897,1335500,75497,8586,667378,11
255,0,708827,247453,1317331,73995,8705,658388,11
255,0,713948,249542,1307329,74909,8355,653156,11
255,0,711853,248488,1400265,74351,8798,699803,11
255,0,711434,248060,1445681,74220,8491,722481,11
255,0,712125,249012,1424250,74541,9454,711693,11
255,0,711234,248608,1366494,74405,8842,682856,11
255,0,710013,248118,1363679,74233,9485,681455,11
255,0,712125,248773,1319409,74439,8871,659340,11
255,0,713809,248656,1550572,74361,9985,775027,11
255,0,713694,248683,1470334,74409,9465,734684,11
255,0,715729,249963,1331050,74979,8465,664916,11
255,0,714291,248848,1508502,74401,9057,753847,11
255,0,713294,248178,1406888,74144,8885,703241,11
255,0,714225,248489,1384644,74285,9551,691917,11
255,0,710989,249187,1358803,74508,9958,679070,11
255,0,710534,248541,1246968,74308,9364,623091,11
255,0,716757,250713,1302870,75254,9516,650848,11
255,0,712123,249584,1341711,74665,9046,670490,11
255,0,709151,247942,1240944,74012,8504,620133,11
255,0,739122,257906,1413449,77089,9758,706312,11
255,0,712531,248650,1359303,74354,9082,679292,11
255,0,713759,248659,1382915,74272,9318,691090,11
255,0,712281,248921,1303756,74423,8911,651538,11
255,0,711630,248237,1440078,74118,8921,719704,11
255,0,713591,249037,1395858,74413,9015,697635,11
255,0,714693,249050,1364383,74451,8862,682135,11
255,0,715093,249866,1339829,74907,9272,669316,11
255,0,713583,248830,1481176,74415,8977,740265,11
255,0,712335,247900,1442873,73987,8560,721142,11
255,0,714164,249035,1314553,74496,8719,656834,11
255,0,735673,253172,1472748,77585,10036,736110,11
255,0,710708,248505,1401427,74265,9307,700318,11
255,0,712391,248764,1301255,74273,8890,650306,11
255,0,712793,248620,1400654,74320,8862,699984,11
255,0,712825,248370,1394537,74190,9138,696893,11
255,0,712618,248242,1445449,74146,9085,722432,11
255,0,714949,248891,1407990,74405,8953,703638,11
255,0,716116,248667,1327838,74352,9111,663508,11
255,0,714943,249145,1324229,74490,8768,661782,11
255,0,714991,248606,1279465,74205,9355,639461,11
255,0,715762,248853,1302406,74417,9327,650829,11
255,0,710824,249190,1337350,74473,9135,668397,11
255,0,708950,248206,1345911,74183,8850,672497,11
255,0,709924,248978,1363944,74454,8995,681648,11
255,0,713128,250093,1284980,74986,8017,642010,11
255,0,708888,248334,1378769,74192,8463,689055,11
255,0,709599,248262,1409940,74170,7725,704621,11
255,0,712956,249490,1331044,74630,7978,665118,11
255,0,730987,252990,1442435,77548,9439,720907,11
255,0,711026,249182,1336484,74447,8069,667904,11
255,0,708510,248386,1403397,74253,8869,701393,11
255,0,730190,252499,1426222,77317,9277,713032,11
255,0,710710,248938,1389941,74457,8862,694684,11
255,0,710767,249219,1446840,74501,8971,723078,11
255,0,711380,249248,1337292,74663,8873,668276,11
255,0,713072,249218,1333820,74505,8766,666516,11
255,0,729872,252975,1443795,77565,9017,721508,11
255,0,713453,249788,1364751,74878,8991,681939,11
255,0,711068,248567,1393718,74272,8696,696560,11
255,0,709589,248049,1379900,74095,8327,689682,11
255,0,732617,252883,1581927,77499,10525,790350,11
255,0,715229,249903,1419957,74714,10511,709291,11
255,0,712170,248364,1357821,74213,9860,678390,11
255,0,713973,248762,1395318,74362,10416,697138,11
255,0,715753,248694,1461093,74298,10872,730253,11
255,0,730324,253213,1636514,77596,11749,818067,11
255,0,712572,249059,1418659,74300,9814,709035,11
255,0,712888,249646,1495677,74728,10314,746677,11
255,0,710995,248410,1459620,74093,9946,729174,11
255,0,762236,262934,1625954,80401,11879,812836,11
255,0,711450,248386,1512028,74083,9239,755670,11
255,0,714111,249443,1396603,74610,8944,697812,11
255,0,713625,248799,1387634,74261,9124,693255,11
255,0,711374,248460,1407200,74104,9825,703263,11
255,0,736187,254031,1616355,77735,11394,807886,11
255,0,716773,250189,1417011,74982,9782,708219,11
255,0,713085,248314,1397170,74033,9487,698290,11
255,0,711695,248726,1578014,74178,10210,788620,11
255,0,712174,248707,1318688,74205,8627,658967,11
255,0,716108,250775,1425266,75115,10069,711576,11
255,0,717582,249820,1377063,74722,10722,687737,11
255,0,714033,249071,1443858,74275,9838,721526,11
255,0,718947,250731,1313686,75090,9398,656297,11
255,0,716415,249186,1411764,74319,9421,705452,11
255,0,719176,250073,1313326,74777,9254,656067,11
255,0,716602,249468,1418654,74432,9484,708990,11
255,0,730406,253155,1544375,77428,9693,771828,11
255,0,713784,250438,1398812,74986,9023,698777,11
255,0,710757,248867,1410281,74160,9109,704767,11
255,0,710848,248881,1410491,74221,9292,704900,11
255,0,710019,248313,1377270,73974,8963,688243,11
255,0,714139,249666,1324932,74612,8862,662055,11
255,0,710198,248279,1412757,73977,9201,705960,11
255,0,715190,249863,1401018,74813,8889,699833,11
255,0,710259,249057,1452922,74288,8610,726129,11
255,0,712627,249430,1324694,74354,8069,661990,11
255,0,711694,248641,1400044,74133,9028,699717,11
255,0,712115,248710,1365371,74160,8742,682223,11
255,0,711855,248220,1400468,73900,8075,699869,11
255,0,713402,249207,1328673,74348,8346,663949,11
255,0,711287,247987,1445918,73999,8814,722319,11
255,0,712297,248123,1292539,73936,8358,645797,11
255,0,711506,249565,1253282,74679,8280,626171,11
255,0,708973,248195,1297146,74070,8414,648122,11
255,0,711343,249018,1289768,74338,8268,644501,11
255,0,716365,250031,1307997,74869,8548,653414,11
255,0,710097,248049,1419286,74016,9551,709235,11
255,0,711918,248032,1537880,73955,9482,768729,11
255,0,712622,248234,1560766,74035,10363,779706,11
255,0,712636,249088,1395419,74341,9760,697357,11
255,0,713805,248781,1487629,74259,9607,743344,11
255,0,712796,247767,1483376,73826,9290,740918,11
255,0,714574,249128,1416582,74594,9778,707493,11
255,0,714665,248766,1521775,74199,9426,760511,11
255,0,735071,252529,1523023,77183,11461,761185,11
255,0,715851,249957,1439671,74900,9742,718547,11
255,0,710574,248646,1448793,74201,9730,723871,11
255,0,711609,248918,1446598,74282,8980,723235,11
255,0,733678,252809,1814401,77402,10429,907053,11
255,0,716342,250432,1534682,75165,9516,766593,11
255,0,712678,248314,1591367,74087,9340,795116,11
255,0,714400,248618,1496906,74210,10432,748101,11
255,0,735619,256689,1355516,76579,9416,676937,11
255,0,713955,249401,1321052,74496,9471,659965,11
255,0,714540,249461,1341872,74690,9838,670826,11
255,0,711889,248211,1349655,74077,9994,674491,11
255,0,711781,247909,1511500,73951,10706,755034,11
255,0,734663,252990,1522645,77409,11267,760965,11
255,0,717653,250367,1591396,75083,10173,794002,11
255,0,712147,247937,1479656,73963,10100,739146,11
255,0,713425,248058,1652377,74043,10412,826284,11
255,0,712693,247967,1393948,73968,9255,696601,11
255,0,711782,248461,1445878,74140,9221,722578,11
255,0,712600,248474,1381818,74175,9111,689780,11
255,0,734244,253504,1516944,77610,10209,757930,11
255,0,709937,247403,1507248,73827,8539,753163,11
255,0,712838,248177,1397215,74098,8528,698347,11
255,0,715570,249264,1422595,74455,9027,710823,11
255,0,716697,249403,1318591,74679,8788,658817,11
255,0,712587,247873,1421772,74015,8967,710491,11
255,0,713760,247931,1304472,74022,8097,651880,11
255,0,717456,250227,1323660,75042,8953,661250,11
255,0,713605,248111,1382648,74016,8520,691060,11
255,0,717548,249091,1497871,74391,9757,748674,11
255,0,714738,248867,1402368,74457,8936,700632,11
255,0,713373,248087,1450891,74070,8635,725107,11
255,0,714321,248073,1398021,74045,9334,698911,11
255,0,706085,248113,1282491,74023,8780,640973,11
255,0,707022,248130,1303723,74106,8765,651478,11
255,0,709896,249434,1236076,74690,9162,617551,11
255,0,707662,247378,1319015,73826,9341,659188,11
255,0,707256,248593,1283819,74198,8825,641455,11
255,0,729513,252893,1503823,77428,10026,751576,11
255,0,713468,250103,1341305,75058,9197,670067,11
255,0,707628,247898,1414724,73980,8822,707088,11
255,0,709863,248413,1381753,74169,9149,690506,11
255,0,709883,248089,1288462,74014,9449,643946,11
255,0,709905,248800,1359143,74292,8816,679210,11
255,0,708839,248761,1306327,74418,9001,652626,11
255,0,708072,247945,1373975,73977,8799,686658,11
255,0,711620,249371,1364462,74491,8607,681730,11
255,0,731181,253023,1507098,77470,9488,753235,11
255,0,713040,249495,1391947,74786,8438,695452,11
255,0,711739,248539,1321710,74170,8824,660569,11
255,0,714344,249522,1361563,74731,9214,680009,11
255,0,711024,247902,1370004,74024,9463,684690,11
255,0,706870,248101,1309610,74009,8882,654539,11
255,0,709515,248265,1498975,74065,9421,749237,11
255,0,710657,248745,1472727,74290,8683,735991,11
255,0,712472,248794,1313042,74288,8760,656167,11
255,0,711170,248674,1431718,74184,8935,715558,11
255,0,711464,248510,1471510,74207,8849,735365,11
255,0,715507,249736,1377100,74780,9183,688040,11
255,0,710599,248075,1340319,73956,9039,669961,11
255,0,733068,252747,1370980,77343,10545,685173,11
255,0,715128,249549,1272809,74821,9076,635843,11
255,0,712533,248297,1324224,74143,9319,661734,11
255,0,706854,248385,1270738,74134,8692,635078,11
255,0,711867,249336,1318235,74668,8956,658624,11
255,0,707916,248374,1387127,74188,8625,693255,11
255,0,730087,252850,1447928,77418,9796,723683,11
255,0,709045,247909,1433426,73962,8964,716429,11
255,0,711106,248305,1433267,74157,8805,716322,11
255,0,713779,249595,1344922,74744,8773,671889,11
255,0,710185,248300,1317251,74121,8354,658262,11
255,0,715090,249968,1321150,74925,9025,660174,11
255,0,709078,247651,1325275,73886,8311,662325,11
255,0,711086,247831,1371828,73958,8902,685544,11
255,0,733146,253928,1570391,77715,9277,784764,11
255,0,709809,248088,1387040,73994,8360,693211,11
255,0,709491,247950,1411829,74001,8222,705634,11
255,0,710662,247973,1303570,73996,7659,651455,11
255,0,713108,248834,1426216,74321,8287,712798,11
255,0,713049,249390,1326542,74675,8357,662797,11
255,0,711455,248299,1362573,74164,8223,680866,11
255,0,712050,248512,1359355,74272,8370,679322,11
255,0,714156,249078,1319061,74308,8560,659190,11
255,0,717194,249935,1276654,74808,8746,637788,11
255,0,715055,248891,1282785,74283,8866,640974,11
255,0,714209,248481,1316570,74092,9005,657965,11
255,0,715134,249212,1238155,74428,8027,618740,11
255,0,738850,254396,1375461,77889,9309,687415,11
255,0,718308,248948,1316048,74266,8929,657801,11
255,0,714789,250533,1281488,75072,8911,640221,11
255,0,711210,248755,1293045,74241,8649,646281,11
255,0,712579,249090,1286223,74420,8028,642797,11
255,0,717055,251066,1325996,75394,8641,662259,11
255,0,712483,249102,1365830,74409,8193,682500,11
255,0,715206,249823,1444455,74655,8406,721857,11
255,0,716139,249914,1407358,74870,8844,703102,11
255,0,713406,248779,1387156,74304,8804,693257,11
255,0,714290,250028,1296778,74996,8583,647801,11
255,0,717202,250259,1333398,74988,8019,666358,11
255,0,712179,248255,1423010,74040,8224,711207,11
255,0,715299,249102,1312435,74329,8569,655822,11
255,0,711097,248193,1392609,74009,8726,696000,11
255,0,711063,248519,1371342,74319,8282,685307,11
255,0,710842,247896,1369716,74089,8171,684501,11
255,0,715458,249246,1440484,74541,8024,720017,11
255,0,733178,252623,1582197,77375,9637,790774,11
255,0,717026,249858,1421890,74996,8667,710344,11
255,0,712868,247738,1386461,74017,8600,692990,11
255,0,711878,248177,1322732,74142,8625,661038,11
255,0,714683,249026,1247027,74590,8539,622931,11
255,0,712986,248361,1285735,74246,8038,642553,11
255,0,719058,250422,1328986,75160,8809,663977,11
255,0,713548,248294,1404116,74181,7938,701551,11
255,0,710283,248316,1363612,74225,9096,681400,11
255,0,710055,247901,1373279,74052,8706,686385,11
255,0,713506,249089,1288317,74439,8924,643780,11
255,0,715072,249401,1289597,74725,8472,644285,11
255,0,713462,248217,1391436,74206,8891,695334,11
255,0,713354,247567,1422139,73932,9401,710766,11
255,0,711776,248847,1302457,74413,8256,650957,11
255,0,714059,248186,1308371,74130,8335,653874,11
255,0,715102,248924,1462798,74427,8901,731017,11
255,0,716587,249467,1423117,74782,8902,711021,11
255,0,713242,247768,1425229,73993,8947,712306,11
255,0,719846,250228,1347279,75108,8939,673174,11
255,0,710189,247899,1351267,74016,8387,675406,11
255,0,714724,248541,1308189,74241,8586,653803,11
255,0,713153,248681,1379861,74364,8344,689583,11
255,0,717118,249725,1349538,74801,8310,674303,11
255,0,714583,248662,1376999,74328,9253,688074,11
255,0,714586,248064,1265825,73990,9156,632648,11
255,0,715318,248320,1253971,74125,8923,626677,11
255,0,716047,249439,1314355,74444,8352,656730,11
255,0,717883,249941,1287870,74822,8290,643429,11
255,0,714974,248473,1255587,74146,8470,627377,11
255,0,713276,247920,1382765,73919,9279,691037,11
255,0,713011,247531,1430109,73801,9019,714658,11
255,0,739082,253382,1580518,77523,9778,789906,11
255,0,719342,250531,1453343,75121,9046,726053,11
255,0,715579,248046,1435968,74014,10251,717698,11
255,0,715172,248074,1311163,73957,8639,655148,11
255,0,712138,248473,1337735,74148,8714,668531,11
255,0,708903,248296,1412634,74056,9541,705942,11
255,0,715845,250627,1454266,75165,9338,726530,11
255,0,709877,247944,1444227,73866,9384,721633,11
255,0,712532,249075,1435117,74353,9267,717243,11
255,0,715014,249524,1385071,74691,8491,691956,11
255,0,708230,247453,1355855,73839,9005,677367,11
255,0,732207,253284,1489974,77504,10881,744700,11
255,0,715269,250328,1389736,75026,9167,694199,11
255,0,709915,247909,1367265,73944,9003,683319,11
255,0,712443,248832,1546393,74268,9394,772839,11
255,0,715393,249493,1376322,74677,9553,687734,11
255,0,710952,247816,1454559,73899,9414,727176,11
255,0,735154,253472,1478560,77572,9762,738956,11
255,0,716625,249575,1370244,74758,9125,684632,11
255,0,714712,248096,1379842,74001,9372,689342,11
255,0,708605,248290,1429031,74128,9282,713900,11
255,0,710013,248140,1269547,74059,8576,634406,11
255,0,715732,249906,1362657,74644,9351,680807,11
255,0,713248,249391,1347053,74607,9042,672934,11
255,0,709720,247360,1363443,73739,8850,681390,11
255,0,710908,247501,1314058,73736,8513,656728,11
255,0,709456,247685,1436641,73899,8770,717951,11
255,0,712072,247986,1515935,73921,8803,757775,11
255,0,712094,248645,1434853,74200,8268,717007,11
255,0,733357,252665,1553188,77294,10142,776235,11
255,0,710692,247708,1386016,73842,8428,692654,11
255,0,713481,248436,1421079,74099,9340,710224,11
255,0,709097,248210,1450626,74062,9303,724946,11
255,0,730072,252369,1603109,77208,10123,801145,11
255,0,715838,250285,1500972,75052,9351,749783,11
255,0,712007,248427,1496937,74114,9507,748205,11
255,0,708346,247676,1401242,73916,9851,700083,11
255,0,711601,247958,1397255,73973,9630,698366,11
255,0,710154,247566,1455027,73789,9825,727190,11
255,0,713636,248661,1377763,74184,9157,688489,11
255,0,710895,247795,1277616,73864,9199,638503,11
255,0,710822,247777,1332915,73877,9403,666077,11
255,0,711789,247813,1276130,73938,8878,637687,11
255,0,734133,252252,1368735,77170,10480,683980,11
255,0,718494,250423,1330322,75069,9137,664352,11
255,0,715630,248208,1409915,74053,10270,704613,11
255,0,711181,248022,1383505,73916,9000,691257,11
255,0,710551,248005,1466457,74036,9703,732772,11
255,0,716017,249780,1447933,74742,9706,723425,11
255,0,710102,247251,1420055,73691,9629,709726,11
255,0,710629,247275,1360283,73803,9082,679703,11
255,0,712088,247822,1359502,73893,9265,679429,11
255,0,713056,247936,1443039,73964,9905,721005,11
255,0,711321,247416,1337740,73753,9024,668619,11
255,0,718249,249200,1480127,74560,9621,739641,11
255,0,709195,247491,1346780,73796,8488,673042,11
255,0,713649,248157,1352893,74046,8463,676048,11
255,0,735058,253021,1510647,77411,10225,754906,11
255,0,717494,249562,1434492,74780,9429,716786,11
255,0,713895,247957,1432927,73917,10001,716070,11
255,0,712868,247565,1355704,73760,9147,677534,11
255,0,716014,248739,1425955,74213,9868,712616,11
255,0,714634,247868,1472646,73947,9002,736048,11
255,0,709334,247416,1434328,73742,9094,716908,11
255,0,711932,248883,1426196,74405,8953,712544,11
255,0,734615,253141,1433142,77449,10177,716127,11
255,0,712101,248050,1253748,73946,8775,626627,11
255,0,709869,248034,1400134,73936,8793,699558,11
255,0,711947,248225,1384807,74061,8701,692055,11
255,0,713881,249161,1403595,74551,8500,701289,11
255,0,734992,253301,1464272,77487,9239,731769,11
255,0,712811,247427,1323454,73871,7902,661369,11
255,0,711626,248163,1423070,74125,9154,711189,11
255,0,709440,247284,1390856,73765,9254,695075,11
255,0,732547,252374,1470366,77260,10323,734524,11
255,0,707212,246649,1328598,73521,8834,663987,11
255,0,710712,247582,1493917,73921,9050,746505,11
255,0,711479,247846,1445333,74026,9059,722342,11
255,0,715666,249367,1378944,74803,8906,688973,11
255,0,712316,247564,1325710,73900,9183,662515,11
255,0,712266,247530,1438018,73930,9511,718468,11
255,0,711231,246968,1349234,73720,9165,674260,11
255,0,715695,248806,1463638,74520,9463,731414,11
255,0,712348,247181,1324827,73827,9083,662029,11
255,0,711687,247077,1366939,73738,8701,683171,11
255,0,735786,251697,1370325,77097,10462,684777,11
255,0,710028,247357,1289594,74012,9019,644410,11
255,0,709313,247152,1379501,73828,9236,689398,11
255,0,730200,251266,1414231,77074,10126,706752,11
255,0,710944,246935,1327096,73813,8829,663148,11
255,0,708984,246909,1401943,73804,9391,700696,11
255,0,714856,248594,1445706,74610,9526,722301,11
255,0,710927,247591,1364714,74088,9477,681967,11
255,0,714324,247999,1442788,74261,9137,721296,11
255,0,717078,249562,1491411,75029,9983,745101,11
255,0,709861,246452,1260991,73662,9175,630128,11
255,0,712342,246829,1329400,73873,9720,664353,11
255,0,714401,247639,1409899,74160,9641,704604,11
255,0,737330,253355,1429211,78334,9916,714149,11
255,0,711332,246678,1413763,73768,8947,706553,11
255,0,709875,246502,1313189,73742,9059,656247,11
255,0,711663,246951,1370558,73866,9274,684906,11
255,0,714466,247872,1343881,74211,9617,671383,11
255,0,713171,246966,1436361,73868,10179,717855,11
255,0,713084,247691,1402075,74145,8958,700747,11
255,0,716709,249414,1429578,74936,9761,714056,11
255,0,712764,247274,1546516,73971,10701,772901,11
255,0,712635,246962,1374660,73871,9280,686964,11
255,0,715653,248737,1336780,74686,8896,667919,11
255,0,712197,246383,1296867,73620,8969,648136,11
255,0,714110,247636,1248331,74146,8315,623754,11
255,0,735619,251729,1417698,77281,9878,708453,11
255,0,702055,247151,1263572,73872,8145,631447,11
255,0,704841,248160,1483618,74295,9219,741876,11
255,0,705153,247259,1462000,74014,9631,730733,11
255,0,704588,246631,1382533,73756,9005,691093,11
255,0,703835,247074,1646214,73888,10148,822084,11
255,0,727844,252330,1531302,77428,10814,765124,11
255,0,704480,247054,1396369,73914,9616,698062,11
255,0,704426,247069,1442127,73947,9578,720687,11
255,0,706947,247319,1491661,74013,9989,744948,11
255,0,701191,246877,1464277,73837,9797,731870,11
255,0,704205,247526,1379731,74131,8897,689911,11
255,0,726617,252081,1568613,77322,11205,784026,11
255,0,707510,248869,1611750,74830,10481,804759,11
255,0,705347,247163,1338256,73919,10257,668641,11
255,0,705924,246952,1300866,73831,9474,650078,11
255,0,728575,252310,1441745,77440,10427,720552,11
255,0,704352,246860,1384866,73817,8929,692072,11
255,0,704586,246803,1484330,73837,9467,741863,11
255,0,704896,247013,1406272,73881,9267,702751,11
255,0,707825,248158,1377694,74320,9744,688387,11
255,0,705281,246694,1463660,73776,10062,731406,11
255,0,702980,247177,1365870,73919,8580,682516,11
255,0,703467,247448,1457860,74061,8967,728551,11
255,0,704955,247512,1355877,74112,9391,677498,11
255,0,703917,246735,1431686,73788,9855,715684,11
255,0,725979,252349,1440261,77454,10102,719858,11
255,0,704309,247080,1432615,73917,9384,715686,11
255,0,706990,248305,1467658,74539,8939,733253,11
255,0,705613,247252,1416421,74012,8890,707821,11
255,0,708792,247662,1400256,74161,9368,699573,11
255,0,703124,247186,1274740,74028,8716,636853,11
255,0,712648,249898,1387536,75133,9870,693190,11
255,0,704271,246861,1391860,73856,9036,695750,11
255,0,711551,249316,1438741,74854,9012,718666,11
255,0,704499,246046,1418297,73628,9716,708620,11
255,0,707931,247472,1424385,74022,8784,711644,11
255,0,728036,251360,1509107,77158,10136,754275,11
255,0,709358,247341,1350067,74050,8854,674795,11
255,0,729123,251559,1459467,77244,9387,729489,11
255,0,715565,249885,1627525,75185,10227,812646,11
255,0,709266,247105,1475726,73857,9455,737514,11
255,0,709785,247190,1409000,74018,9497,704018,11
255,0,703345,247453,1378955,74098,9646,689022,11
255,0,727138,251764,1457016,77286,10480,728194,11
255,0,705872,247322,1495600,74042,9247,747373,11
255,0,705167,246926,1439479,73849,8901,719394,11
255,0,701446,245988,1238405,73641,8666,618705,11
255,0,712215,249536,1342629,75006,10340,670433,11
255,0,704280,246357,1285720,73619,9812,642499,11
255,0,704550,246777,1307201,73846,8578,653008,11
255,0,709508,248338,1483201,74363,9227,741113,11
255,0,706230,246581,1411611,73693,9175,705477,11
255,0,727590,252503,1452783,77522,10373,726073,11
255,0,708930,249043,1470569,74848,9831,734767,11
255,0,706664,247653,1441793,74127,9533,720470,11
255,0,705264,246837,1349780,73853,9218,674594,11
255,0,706684,247366,1414930,73959,9015,706900,11
255,0,709383,248300,1450616,74540,9860,724747,11
255,0,706028,247324,1391700,74049,8998,695062,11
255,0,707917,247430,1371285,74065,9024,685199,11
255,0,705479,247483,1433211,74110,9476,716173,11
255,0,706279,247217,1330646,73925,8634,664856,11
255,0,708585,247755,1374224,74117,8888,686748,11
255,0,708735,247572,1421621,74005,9030,710305,11
255,0,709253,247277,1408070,73849,8739,703693,11
255,0,709600,247495,1406793,73968,8912,703043,11
255,0,708220,246656,1323488,73592,8729,661323,11
255,0,712552,248378,1415410,74271,9315,707414,11
255,0,707828,248688,1444188,74530,10253,721500,11
255,0,729693,252720,1368638,77466,9603,684109,11
255,0,711696,249038,1426888,74684,9863,712660,11
255,0,704436,246819,1301604,73723,8644,650412,11
255,0,707060,247608,1342686,74006,9349,670760,11
255,0,705859,246886,1309827,73719,8653,654526,11
255,0,712519,249004,1455073,74644,9147,726971,11
255,0,706144,246678,1404084,73675,9503,701656,11
255,0,706827,247725,1329571,74057,8216,664136,11
255,0,727995,252005,1469627,77259,9633,734525,11
255,0,708074,247252,1459480,73897,9764,729512,11
