0,0,0,-nan,-nan,-nan,-nan,-nan,-nan,-nan,-nan,-nan,-nan,-nan,-nan
0,1,1,759365.000000,265891.000000,1467309.000000,78511.000000,8508.000000,733091.000000,0.000000,0.000000,0.000000,0.000000,0.000000,0.000000
1,0,0,-nan,-nan,-nan,-nan,-nan,-nan,-nan,-nan,-nan,-nan,-nan,-nan
1,1,1,759719.000000,266131.000000,1491323.000000,78589.000000,8669.000000,745528.000000,0.000000,0.000000,0.000000,0.000000,0.000000,0.000000
2,0,0,-nan,-nan,-nan,-nan,-nan,-nan,-nan,-nan,-nan,-nan,-nan,-nan
2,1,1,765941.000000,268275.000000,1482508.000000,79617.000000,9391.000000,740453.000000,0.000000,0.000000,0.000000,0.000000,0.000000,0.000000
3,0,0,-nan,-nan,-nan,-nan,-nan,-nan,-nan,-nan,-nan,-nan,-nan,-nan
3,1,1,760558.000000,266005.000000,1492590.000000,78531.000000,9912.000000,745574.000000,0.000000,0.000000,0.000000,0.000000,0.000000,0.000000
4,0,0,-nan,-nan,-nan,-nan,-nan,-nan,-nan,-nan,-nan,-nan,-nan,-nan
4,1,1,761329.000000,265885.000000,1407412.000000,78549.000000,9345.000000,703178.000000,0.000000,0.000000,0.000000,0.000000,0.000000,0.000000
5,0,0,-nan,-nan,-nan,-nan,-nan,-nan,-nan,-nan,-nan,-nan,-nan,-nan
5,1,1,766905.000000,267658.000000,1516060.000000,79320.000000,9883.000000,757529.000000,0.000000,0.000000,0.000000,0.000000,0.000000,0.000000
6,0,0,-nan,-nan,-nan,-nan,-nan,-nan,-nan,-nan,-nan,-nan,-nan,-nan
6,1,1,763439.000000,266311.000000,1423546.000000,78683.000000,9524.000000,711197.000000,0.000000,0.000000,0.000000,0.000000,0.000000,0.000000
7,0,0,-nan,-nan,-nan,-nan,-nan,-nan,-nan,-nan,-nan,-nan,-nan,-nan
7,1,1,760740.000000,266146.000000,1470656.000000,78603.000000,9445.000000,734741.000000,0.000000,0.000000,0.000000,0.000000,0.000000,0.000000
8,0,0,-nan,-nan,-nan,-nan,-nan,-nan,-nan,-nan,-nan,-nan,-nan,-nan
8,1,1,763760.000000,267098.000000,1500391.000000,79068.000000,9444.000000,749693.000000,0.000000,0.000000,0.000000,0.000000,0.000000,0.000000
9,0,0,-nan,-nan,-nan,-nan,-nan,-nan,-nan,-nan,-nan,-nan,-nan,-nan
9,1,1,761466.000000,265586.000000,1477271.000000,78399.000000,9988.000000,738300.000000,0.000000,0.000000,0.000000,0.000000,0.000000,0.000000
10,0,0,-nan,-nan,-nan,-nan,-nan,-nan,-nan,-nan,-nan,-nan,-nan,-nan
10,1,1,762682.000000,266002.000000,1393477.000000,78592.000000,10419.000000,696343.000000,0.000000,0.000000,0.000000,0.000000,0.000000,0.000000
11,0,0,-nan,-nan,-nan,-nan,-nan,-nan,-nan,-nan,-nan,-nan,-nan,-nan
11,1,1,766387.000000,268489.000000,1460136.000000,79721.000000,10116.000000,729072.000000,0.000000,0.000000,0.000000,0.000000,0.000000,0.000000
12,0,0,-nan,-nan,-nan,-nan,-nan,-nan,-nan,-nan,-nan,-nan,-nan,-nan
12,1,1,759728.000000,265450.000000,1389504.000000,78354.000000,9592.000000,694429.000000,0.000000,0.000000,0.000000,0.000000,0.000000,0.000000
13,0,0,-nan,-nan,-nan,-nan,-nan,-nan,-nan,-nan,-nan,-nan,-nan,-nan
13,1,1,759212.000000,265211.000000,1337309.000000,78305.000000,8294.000000,668329.000000,0.000000,0.000000,0.000000,0.000000,0.000000,0.000000
14,0,0,-nan,-nan,-nan,-nan,-nan,-nan,-nan,-nan,-nan,-nan,-nan,-nan
14,1,1,763980.000000,266542.000000,1458729.000000,78743.000000,9857.000000,728778.000000,0.000000,0.000000,0.000000,0.000000,0.000000,0.000000
15,0,0,-nan,-nan,-nan,-nan,-nan,-nan,-nan,-nan,-nan,-nan,-nan,-nan
15,1,1,767444.000000,267283.000000,1545507.000000,79179.000000,10739.000000,772158.000000,0.000000,0.000000,0.000000,0.000000,0.000000,0.000000
16,0,0,-nan,-nan,-nan,-nan,-nan,-nan,-nan,-nan,-nan,-nan,-nan,-nan
16,1,1,761354.000000,265561.000000,1485300.000000,78377.000000,9811.000000,742270.000000,0.000000,0.000000,0.000000,0.000000,0.000000,0.000000
17,0,0,-nan,-nan,-nan,-nan,-nan,-nan,-nan,-nan,-nan,-nan,-nan,-nan
17,1,1,763788.000000,266119.000000,1391189.000000,78558.000000,9406.000000,695196.000000,0.000000,0.000000,0.000000,0.000000,0.000000,0.000000
18,0,0,-nan,-nan,-nan,-nan,-nan,-nan,-nan,-nan,-nan,-nan,-nan,-nan
18,1,1,785195.000000,270924.000000,1515484.000000,81959.000000,10973.000000,757528.000000,0.000000,0.000000,0.000000,0.000000,0.000000,0.000000
19,0,0,-nan,-nan,-nan,-nan,-nan,-nan,-nan,-nan,-nan,-nan,-nan,-nan
19,1,1,764889.000000,265937.000000,1462671.000000,78510.000000,10188.000000,730960.000000,0.000000,0.000000,0.000000,0.000000,0.000000,0.000000
20,0,0,-nan,-nan,-nan,-nan,-nan,-nan,-nan,-nan,-nan,-nan,-nan,-nan
20,1,1,759398.000000,265637.000000,1695979.000000,78402.000000,10057.000000,847645.000000,0.000000,0.000000,0.000000,0.000000,0.000000,0.000000
21,0,0,-nan,-nan,-nan,-nan,-nan,-nan,-nan,-nan,-nan,-nan,-nan,-nan
21,1,1,760384.000000,266905.000000,1583108.000000,78986.000000,10403.000000,791099.000000,0.000000,0.000000,0.000000,0.000000,0.000000,0.000000
22,0,0,-nan,-nan,-nan,-nan,-nan,-nan,-nan,-nan,-nan,-nan,-nan,-nan
22,1,1,759061.000000,265912.000000,1492798.000000,78496.000000,9423.000000,745842.000000,0.000000,0.000000,0.000000,0.000000,0.000000,0.000000
23,0,0,-nan,-nan,-nan,-nan,-nan,-nan,-nan,-nan,-nan,-nan,-nan,-nan
23,1,1,759741.000000,266050.000000,1392678.000000,78576.000000,9437.000000,695353.000000,0.000000,0.000000,0.000000,0.000000,0.000000,0.000000
24,0,0,-nan,-nan,-nan,-nan,-nan,-nan,-nan,-nan,-nan,-nan,-nan,-nan
24,1,1,764628.000000,268162.000000,1478032.000000,79558.000000,9524.000000,738182.000000,0.000000,0.000000,0.000000,0.000000,0.000000,0.000000
25,0,0,-nan,-nan,-nan,-nan,-nan,-nan,-nan,-nan,-nan,-nan,-nan,-nan
25,1,1,761266.000000,267206.000000,1538528.000000,79144.000000,9137.000000,768739.000000,0.000000,0.000000,0.000000,0.000000,0.000000,0.000000
26,0,0,-nan,-nan,-nan,-nan,-nan,-nan,-nan,-nan,-nan,-nan,-nan,-nan
26,1,1,759589.000000,265909.000000,1530102.000000,78531.000000,9666.000000,764581.000000,0.000000,0.000000,0.000000,0.000000,0.000000,0.000000
27,0,0,-nan,-nan,-nan,-nan,-nan,-nan,-nan,-nan,-nan,-nan,-nan,-nan
27,1,1,781185.000000,270416.000000,1529509.000000,81839.000000,10451.000000,764444.000000,0.000000,0.000000,0.000000,0.000000,0.000000,0.000000
28,0,0,-nan,-nan,-nan,-nan,-nan,-nan,-nan,-nan,-nan,-nan,-nan,-nan
28,1,1,763703.000000,267274.000000,1491971.000000,79278.000000,9568.000000,745351.000000,0.000000,0.000000,0.000000,0.000000,0.000000,0.000000
29,0,0,-nan,-nan,-nan,-nan,-nan,-nan,-nan,-nan,-nan,-nan,-nan,-nan
29,1,1,754059.000000,264156.000000,1435798.000000,77981.000000,9068.000000,717711.000000,0.000000,0.000000,0.000000,0.000000,0.000000,0.000000
30,0,0,-nan,-nan,-nan,-nan,-nan,-nan,-nan,-nan,-nan,-nan,-nan,-nan
30,1,1,739208.000000,259008.000000,1393779.000000,76384.000000,8955.000000,696542.000000,0.000000,0.000000,0.000000,0.000000,0.000000,0.000000
31,0,0,-nan,-nan,-nan,-nan,-nan,-nan,-nan,-nan,-nan,-nan,-nan,-nan
31,1,1,708643.000000,248555.000000,1362283.000000,73870.000000,9377.000000,680424.000000,0.000000,0.000000,0.000000,0.000000,0.000000,0.000000
32,0,0,-nan,-nan,-nan,-nan,-nan,-nan,-nan,-nan,-nan,-nan,-nan,-nan
32,1,1,709104.000000,247975.000000,1320015.000000,73804.000000,8739.000000,659318.000000,0.000000,0.000000,0.000000,0.000000,0.000000,0.000000
33,0,0,-nan,-nan,-nan,-nan,-nan,-nan,-nan,-nan,-nan,-nan,-nan,-nan
33,1,1,724511.000000,251612.000000,1427495.000000,76647.000000,9636.000000,713467.000000,0.000000,0.000000,0.000000,0.000000,0.000000,0.000000
34,0,0,-nan,-nan,-nan,-nan,-nan,-nan,-nan,-nan,-nan,-nan,-nan,-nan
34,1,1,710319.000000,249380.000000,1439768.000000,74380.000000,9631.000000,719221.000000,0.000000,0.000000,0.000000,0.000000,0.000000,0.000000
35,0,0,-nan,-nan,-nan,-nan,-nan,-nan,-nan,-nan,-nan,-nan,-nan,-nan
35,1,1,704301.000000,247158.000000,1376338.000000,73369.000000,9035.000000,687774.000000,0.000000,0.000000,0.000000,0.000000,0.000000,0.000000
36,0,0,-nan,-nan,-nan,-nan,-nan,-nan,-nan,-nan,-nan,-nan,-nan,-nan
36,1,1,705857.000000,247534.000000,1468882.000000,73545.000000,9278.000000,734091.000000,0.000000,0.000000,0.000000,0.000000,0.000000,0.000000
37,0,0,-nan,-nan,-nan,-nan,-nan,-nan,-nan,-nan,-nan,-nan,-nan,-nan
37,1,1,707608.000000,247720.000000,1415868.000000,73508.000000,9340.000000,707515.000000,0.000000,0.000000,0.000000,0.000000,0.000000,0.000000
38,0,0,-nan,-nan,-nan,-nan,-nan,-nan,-nan,-nan,-nan,-nan,-nan,-nan
38,1,1,704945.000000,247157.000000,1381741.000000,73408.000000,9060.000000,690381.000000,0.000000,0.000000,0.000000,0.000000,0.000000,0.000000
39,0,0,-nan,-nan,-nan,-nan,-nan,-nan,-nan,-nan,-nan,-nan,-nan,-nan
39,1,1,709920.000000,248939.000000,1477910.000000,74153.000000,9866.000000,738648.000000,0.000000,0.000000,0.000000,0.000000,0.000000,0.000000
40,0,0,-nan,-nan,-nan,-nan,-nan,-nan,-nan,-nan,-nan,-nan,-nan,-nan
40,1,1,706412.000000,247648.000000,1355351.000000,73581.000000,9022.000000,677218.000000,0.000000,0.000000,0.000000,0.000000,0.000000,0.000000
41,0,0,-nan,-nan,-nan,-nan,-nan,-nan,-nan,-nan,-nan,-nan,-nan,-nan
41,1,1,705436.000000,246893.000000,1399821.000000,73385.000000,8834.000000,699495.000000,0.000000,0.000000,0.000000,0.000000,0.000000,0.000000
42,0,0,-nan,-nan,-nan,-nan,-nan,-nan,-nan,-nan,-nan,-nan,-nan,-nan
42,1,1,704518.000000,246616.000000,1446232.000000,73309.000000,8512.000000,722729.000000,0.000000,0.000000,0.000000,0.000000,0.000000,0.000000
43,0,0,-nan,-nan,-nan,-nan,-nan,-nan,-nan,-nan,-nan,-nan,-nan,-nan
43,1,1,712691.000000,249339.000000,1455481.000000,74551.000000,9510.000000,726949.000000,0.000000,0.000000,0.000000,0.000000,0.000000,0.000000
44,0,0,-nan,-nan,-nan,-nan,-nan,-nan,-nan,-nan,-nan,-nan,-nan,-nan
44,1,1,704786.000000,247356.000000,1470635.000000,73534.000000,9086.000000,734827.000000,0.000000,0.000000,0.000000,0.000000,0.000000,0.000000
45,0,0,-nan,-nan,-nan,-nan,-nan,-nan,-nan,-nan,-nan,-nan,-nan,-nan
45,1,1,705943.000000,247242.000000,1448726.000000,73549.000000,9669.000000,724076.000000,0.000000,0.000000,0.000000,0.000000,0.000000,0.000000
46,0,0,-nan,-nan,-nan,-nan,-nan,-nan,-nan,-nan,-nan,-nan,-nan,-nan
46,1,1,705899.000000,247416.000000,1368604.000000,73512.000000,9012.000000,683963.000000,0.000000,0.000000,0.000000,0.000000,0.000000,0.000000
47,0,0,-nan,-nan,-nan,-nan,-nan,-nan,-nan,-nan,-nan,-nan,-nan,-nan
47,1,1,708894.000000,247585.000000,1373457.000000,73609.000000,8829.000000,686231.000000,0.000000,0.000000,0.000000,0.000000,0.000000,0.000000
48,0,0,-nan,-nan,-nan,-nan,-nan,-nan,-nan,-nan,-nan,-nan,-nan,-nan
48,1,1,728185.000000,251570.000000,1474542.000000,76664.000000,10391.000000,736524.000000,0.000000,0.000000,0.000000,0.000000,0.000000,0.000000
49,0,0,-nan,-nan,-nan,-nan,-nan,-nan,-nan,-nan,-nan,-nan,-nan,-nan
49,1,1,713498.000000,249525.000000,1578318.000000,74529.000000,10430.000000,788487.000000,0.000000,0.000000,0.000000,0.000000,0.000000,0.000000
50,0,0,-nan,-nan,-nan,-nan,-nan,-nan,-nan,-nan,-nan,-nan,-nan,-nan
50,1,1,706593.000000,246540.000000,1422827.000000,73209.000000,9580.000000,710978.000000,0.000000,0.000000,0.000000,0.000000,0.000000,0.000000
51,0,0,-nan,-nan,-nan,-nan,-nan,-nan,-nan,-nan,-nan,-nan,-nan,-nan
51,1,1,703525.000000,247168.000000,1379509.000000,73530.000000,9283.000000,689407.000000,0.000000,0.000000,0.000000,0.000000,0.000000,0.000000
52,0,0,-nan,-nan,-nan,-nan,-nan,-nan,-nan,-nan,-nan,-nan,-nan,-nan
52,1,1,707779.000000,248488.000000,1427592.000000,74136.000000,9859.000000,713227.000000,0.000000,0.000000,0.000000,0.000000,0.000000,0.000000
53,0,0,-nan,-nan,-nan,-nan,-nan,-nan,-nan,-nan,-nan,-nan,-nan,-nan
53,1,1,705361.000000,247293.000000,1343529.000000,73552.000000,9039.000000,671436.000000,0.000000,0.000000,0.000000,0.000000,0.000000,0.000000
54,0,0,-nan,-nan,-nan,-nan,-nan,-nan,-nan,-nan,-nan,-nan,-nan,-nan
54,1,1,705852.000000,247320.000000,1281259.000000,73567.000000,8178.000000,640187.000000,0.000000,0.000000,0.000000,0.000000,0.000000,0.000000
55,0,0,-nan,-nan,-nan,-nan,-nan,-nan,-nan,-nan,-nan,-nan,-nan,-nan
55,1,1,707633.000000,247714.000000,1346638.000000,73689.000000,9016.000000,672880.000000,0.000000,0.000000,0.000000,0.000000,0.000000,0.000000
56,0,0,-nan,-nan,-nan,-nan,-nan,-nan,-nan,-nan,-nan,-nan,-nan,-nan
56,1,1,713850.000000,249591.000000,1338945.000000,74348.000000,9828.000000,668947.000000,0.000000,0.000000,0.000000,0.000000,0.000000,0.000000
57,0,0,-nan,-nan,-nan,-nan,-nan,-nan,-nan,-nan,-nan,-nan,-nan,-nan
57,1,1,704917.000000,246975.000000,1486292.000000,73288.000000,9764.000000,742683.000000,0.000000,0.000000,0.000000,0.000000,0.000000,0.000000
58,0,0,-nan,-nan,-nan,-nan,-nan,-nan,-nan,-nan,-nan,-nan,-nan,-nan
58,1,1,712848.000000,249817.000000,1575317.000000,74462.000000,10844.000000,787321.000000,0.000000,0.000000,0.000000,0.000000,0.000000,0.000000
59,0,0,-nan,-nan,-nan,-nan,-nan,-nan,-nan,-nan,-nan,-nan,-nan,-nan
59,1,1,708738.000000,247804.000000,1509447.000000,73534.000000,9814.000000,754221.000000,0.000000,0.000000,0.000000,0.000000,0.000000,0.000000
60,0,0,-nan,-nan,-nan,-nan,-nan,-nan,-nan,-nan,-nan,-nan,-nan,-nan
60,1,1,705974.000000,247160.000000,1441902.000000,73364.000000,10603.000000,720537.000000,0.000000,0.000000,0.000000,0.000000,0.000000,0.000000
61,0,0,-nan,-nan,-nan,-nan,-nan,-nan,-nan,-nan,-nan,-nan,-nan,-nan
61,1,1,708813.000000,247812.000000,1541143.000000,73557.000000,10281.000000,769656.000000,0.000000,0.000000,0.000000,0.000000,0.000000,0.000000
62,0,0,-nan,-nan,-nan,-nan,-nan,-nan,-nan,-nan,-nan,-nan,-nan,-nan
62,1,1,708943.000000,247947.000000,1498623.000000,73633.000000,10318.000000,748840.000000,0.000000,0.000000,0.000000,0.000000,0.000000,0.000000
63,0,0,-nan,-nan,-nan,-nan,-nan,-nan,-nan,-nan,-nan,-nan,-nan,-nan
63,1,1,707824.000000,246932.000000,1554265.000000,73173.000000,10236.000000,775911.000000,0.000000,0.000000,0.000000,0.000000,0.000000,0.000000
64,0,0,-nan,-nan,-nan,-nan,-nan,-nan,-nan,-nan,-nan,-nan,-nan,-nan
64,1,1,709785.000000,247317.000000,1498147.000000,73400.000000,10618.000000,748240.000000,0.000000,0.000000,0.000000,0.000000,0.000000,0.000000
65,0,0,-nan,-nan,-nan,-nan,-nan,-nan,-nan,-nan,-nan,-nan,-nan,-nan
65,1,1,714749.000000,249993.000000,1504283.000000,74481.000000,10125.000000,751544.000000,0.000000,0.000000,0.000000,0.000000,0.000000,0.000000
66,0,0,-nan,-nan,-nan,-nan,-nan,-nan,-nan,-nan,-nan,-nan,-nan,-nan
66,1,1,707422.000000,247574.000000,1705015.000000,73515.000000,10111.000000,850832.000000,0.000000,0.000000,0.000000,0.000000,0.000000,0.000000
67,0,0,-nan,-nan,-nan,-nan,-nan,-nan,-nan,-nan,-nan,-nan,-nan,-nan
67,1,1,707051.000000,247102.000000,1747057.000000,73324.000000,10306.000000,872844.000000,0.000000,0.000000,0.000000,0.000000,0.000000,0.000000
68,0,0,-nan,-nan,-nan,-nan,-nan,-nan,-nan,-nan,-nan,-nan,-nan,-nan
68,1,1,707629.000000,247132.000000,1459278.000000,73383.000000,9900.000000,728954.000000,0.000000,0.000000,0.000000,0.000000,0.000000,0.000000
69,0,0,-nan,-nan,-nan,-nan,-nan,-nan,-nan,-nan,-nan,-nan,-nan,-nan
69,1,1,713612.000000,249432.000000,1599358.000000,74308.000000,10758.000000,799162.000000,0.000000,0.000000,0.000000,0.000000,0.000000,0.000000
70,0,0,-nan,-nan,-nan,-nan,-nan,-nan,-nan,-nan,-nan,-nan,-nan,-nan
70,1,1,708599.000000,247454.000000,1448058.000000,73427.000000,10036.000000,723590.000000,0.000000,0.000000,0.000000,0.000000,0.000000,0.000000
71,0,0,-nan,-nan,-nan,-nan,-nan,-nan,-nan,-nan,-nan,-nan,-nan,-nan
71,1,1,710455.000000,247601.000000,1510526.000000,73483.000000,10548.000000,754977.000000,0.000000,0.000000,0.000000,0.000000,0.000000,0.000000
72,0,0,-nan,-nan,-nan,-nan,-nan,-nan,-nan,-nan,-nan,-nan,-nan,-nan
72,1,1,729075.000000,251477.000000,1425251.000000,76553.000000,10962.000000,712175.000000,0.000000,0.000000,0.000000,0.000000,0.000000,0.000000
73,0,0,-nan,-nan,-nan,-nan,-nan,-nan,-nan,-nan,-nan,-nan,-nan,-nan
73,1,1,714902.000000,249661.000000,1461402.000000,74432.000000,10685.000000,730023.000000,0.000000,0.000000,0.000000,0.000000,0.000000,0.000000
74,0,0,-nan,-nan,-nan,-nan,-nan,-nan,-nan,-nan,-nan,-nan,-nan,-nan
74,1,1,708416.000000,246776.000000,1444183.000000,73201.000000,10155.000000,721591.000000,0.000000,0.000000,0.000000,0.000000,0.000000,0.000000
75,0,0,-nan,-nan,-nan,-nan,-nan,-nan,-nan,-nan,-nan,-nan,-nan,-nan
75,1,1,709216.000000,246732.000000,1360509.000000,73099.000000,9315.000000,679907.000000,0.000000,0.000000,0.000000,0.000000,0.000000,0.000000
76,0,0,-nan,-nan,-nan,-nan,-nan,-nan,-nan,-nan,-nan,-nan,-nan,-nan
76,1,1,702037.000000,247113.000000,1485910.000000,73277.000000,9287.000000,742600.000000,0.000000,0.000000,0.000000,0.000000,0.000000,0.000000
77,0,0,-nan,-nan,-nan,-nan,-nan,-nan,-nan,-nan,-nan,-nan,-nan,-nan
77,1,1,701974.000000,247687.000000,1378447.000000,73553.000000,9858.000000,688787.000000,0.000000,0.000000,0.000000,0.000000,0.000000,0.000000
78,0,0,-nan,-nan,-nan,-nan,-nan,-nan,-nan,-nan,-nan,-nan,-nan,-nan
78,1,1,702924.000000,247534.000000,1419144.000000,73629.000000,9397.000000,709136.000000,0.000000,0.000000,0.000000,0.000000,0.000000,0.000000
79,0,0,-nan,-nan,-nan,-nan,-nan,-nan,-nan,-nan,-nan,-nan,-nan,-nan
79,1,1,702268.000000,246881.000000,1450536.000000,73385.000000,9932.000000,724342.000000,0.000000,0.000000,0.000000,0.000000,0.000000,0.000000
80,0,0,-nan,-nan,-nan,-nan,-nan,-nan,-nan,-nan,-nan,-nan,-nan,-nan
80,1,1,732144.000000,257108.000000,1515952.000000,76682.000000,10325.000000,757686.000000,0.000000,0.000000,0.000000,0.000000,0.000000,0.000000
81,0,0,-nan,-nan,-nan,-nan,-nan,-nan,-nan,-nan,-nan,-nan,-nan,-nan
81,1,1,704470.000000,247366.000000,1492351.000000,73526.000000,10772.000000,745221.000000,0.000000,0.000000,0.000000,0.000000,0.000000,0.000000
82,0,0,-nan,-nan,-nan,-nan,-nan,-nan,-nan,-nan,-nan,-nan,-nan,-nan
82,1,1,702716.000000,246949.000000,1485720.000000,73387.000000,9463.000000,742632.000000,0.000000,0.000000,0.000000,0.000000,0.000000,0.000000
83,0,0,-nan,-nan,-nan,-nan,-nan,-nan,-nan,-nan,-nan,-nan,-nan,-nan
83,1,1,707029.000000,248900.000000,1493197.000000,74347.000000,9471.000000,745899.000000,0.000000,0.000000,0.000000,0.000000,0.000000,0.000000
84,0,0,-nan,-nan,-nan,-nan,-nan,-nan,-nan,-nan,-nan,-nan,-nan,-nan
84,1,1,703329.000000,247443.000000,1443338.000000,73559.000000,9299.000000,721275.000000,0.000000,0.000000,0.000000,0.000000,0.000000,0.000000
85,0,0,-nan,-nan,-nan,-nan,-nan,-nan,-nan,-nan,-nan,-nan,-nan,-nan
85,1,1,704013.000000,247380.000000,1561601.000000,73584.000000,9491.000000,780036.000000,0.000000,0.000000,0.000000,0.000000,0.000000,0.000000
86,0,0,-nan,-nan,-nan,-nan,-nan,-nan,-nan,-nan,-nan,-nan,-nan,-nan
86,1,1,704632.000000,246906.000000,1638766.000000,73330.000000,10106.000000,819028.000000,0.000000,0.000000,0.000000,0.000000,0.000000,0.000000
87,0,0,-nan,-nan,-nan,-nan,-nan,-nan,-nan,-nan,-nan,-nan,-nan,-nan
87,1,1,706948.000000,247982.000000,1472979.000000,73778.000000,10756.000000,736152.000000,0.000000,0.000000,0.000000,0.000000,0.000000,0.000000
88,0,0,-nan,-nan,-nan,-nan,-nan,-nan,-nan,-nan,-nan,-nan,-nan,-nan
88,1,1,705884.000000,247665.000000,1537334.000000,73574.000000,10308.000000,768381.000000,0.000000,0.000000,0.000000,0.000000,0.000000,0.000000
89,0,0,-nan,-nan,-nan,-nan,-nan,-nan,-nan,-nan,-nan,-nan,-nan,-nan
89,1,1,702807.000000,247477.000000,1312747.000000,73572.000000,8569.000000,655890.000000,0.000000,0.000000,0.000000,0.000000,0.000000,0.000000
90,0,0,-nan,-nan,-nan,-nan,-nan,-nan,-nan,-nan,-nan,-nan,-nan,-nan
90,1,1,702080.000000,246862.000000,1316095.000000,73366.000000,8230.000000,657747.000000,0.000000,0.000000,0.000000,0.000000,0.000000,0.000000
91,0,0,-nan,-nan,-nan,-nan,-nan,-nan,-nan,-nan,-nan,-nan,-nan,-nan
91,1,1,703758.000000,247272.000000,1224562.000000,73532.000000,7836.000000,611839.000000,0.000000,0.000000,0.000000,0.000000,0.000000,0.000000
92,0,0,-nan,-nan,-nan,-nan,-nan,-nan,-nan,-nan,-nan,-nan,-nan,-nan
92,1,1,706153.000000,247510.000000,1290814.000000,73562.000000,8652.000000,644895.000000,0.000000,0.000000,0.000000,0.000000,0.000000,0.000000
93,0,0,-nan,-nan,-nan,-nan,-nan,-nan,-nan,-nan,-nan,-nan,-nan,-nan
93,1,1,704729.000000,247679.000000,1285285.000000,73678.000000,8176.000000,642162.000000,0.000000,0.000000,0.000000,0.000000,0.000000,0.000000
94,0,0,-nan,-nan,-nan,-nan,-nan,-nan,-nan,-nan,-nan,-nan,-nan,-nan
94,1,1,708188.000000,248663.000000,1342909.000000,74186.000000,9164.000000,670724.000000,0.000000,0.000000,0.000000,0.000000,0.000000,0.000000
95,0,0,-nan,-nan,-nan,-nan,-nan,-nan,-nan,-nan,-nan,-nan,-nan,-nan
95,1,1,704953.000000,247412.000000,1301677.000000,73582.000000,9139.000000,650494.000000,0.000000,0.000000,0.000000,0.000000,0.000000,0.000000
96,0,0,-nan,-nan,-nan,-nan,-nan,-nan,-nan,-nan,-nan,-nan,-nan,-nan
96,1,1,711004.000000,249493.000000,1371062.000000,74546.000000,9592.000000,684954.000000,0.000000,0.000000,0.000000,0.000000,0.000000,0.000000
97,0,0,-nan,-nan,-nan,-nan,-nan,-nan,-nan,-nan,-nan,-nan,-nan,-nan
97,1,1,706655.000000,247582.000000,1371961.000000,73603.000000,8980.000000,685752.000000,0.000000,0.000000,0.000000,0.000000,0.000000,0.000000
98,0,0,-nan,-nan,-nan,-nan,-nan,-nan,-nan,-nan,-nan,-nan,-nan,-nan
98,1,1,707612.000000,247616.000000,1435954.000000,73649.000000,9111.000000,717533.000000,0.000000,0.000000,0.000000,0.000000,0.000000,0.000000
99,0,0,-nan,-nan,-nan,-nan,-nan,-nan,-nan,-nan,-nan,-nan,-nan,-nan
99,1,1,706178.000000,246840.000000,1355377.000000,73426.000000,8972.000000,677302.000000,0.000000,0.000000,0.000000,0.000000,0.000000,0.000000
100,0,0,-nan,-nan,-nan,-nan,-nan,-nan,-nan,-nan,-nan,-nan,-nan,-nan
100,1,1,702545.000000,248039.000000,1372291.000000,73804.000000,8076.000000,685527.000000,0.000000,0.000000,0.000000,0.000000,0.000000,0.000000
101,0,0,-nan,-nan,-nan,-nan,-nan,-nan,-nan,-nan,-nan,-nan,-nan,-nan
101,1,1,706986.000000,248662.000000,1452188.000000,74260.000000,9158.000000,725390.000000,0.000000,0.000000,0.000000,0.000000,0.000000,0.000000
102,0,0,-nan,-nan,-nan,-nan,-nan,-nan,-nan,-nan,-nan,-nan,-nan,-nan
102,1,1,705938.000000,247595.000000,1322758.000000,73668.000000,8426.000000,661113.000000,0.000000,0.000000,0.000000,0.000000,0.000000,0.000000
103,0,0,-nan,-nan,-nan,-nan,-nan,-nan,-nan,-nan,-nan,-nan,-nan,-nan
103,1,1,703004.000000,247031.000000,1295367.000000,73426.000000,7672.000000,647251.000000,0.000000,0.000000,0.000000,0.000000,0.000000,0.000000
104,0,0,-nan,-nan,-nan,-nan,-nan,-nan,-nan,-nan,-nan,-nan,-nan,-nan
104,1,1,704598.000000,246749.000000,1426844.000000,73339.000000,9310.000000,712975.000000,0.000000,0.000000,0.000000,0.000000,0.000000,0.000000
105,0,0,-nan,-nan,-nan,-nan,-nan,-nan,-nan,-nan,-nan,-nan,-nan,-nan
105,1,1,705682.000000,247155.000000,1356497.000000,73467.000000,8803.000000,677824.000000,0.000000,0.000000,0.000000,0.000000,0.000000,0.000000
106,0,0,-nan,-nan,-nan,-nan,-nan,-nan,-nan,-nan,-nan,-nan,-nan,-nan
106,1,1,710287.000000,249810.000000,1503654.000000,74631.000000,9056.000000,751260.000000,0.000000,0.000000,0.000000,0.000000,0.000000,0.000000
107,0,0,-nan,-nan,-nan,-nan,-nan,-nan,-nan,-nan,-nan,-nan,-nan,-nan
107,1,1,704125.000000,246712.000000,1531837.000000,73351.000000,9293.000000,765452.000000,0.000000,0.000000,0.000000,0.000000,0.000000,0.000000
108,0,0,-nan,-nan,-nan,-nan,-nan,-nan,-nan,-nan,-nan,-nan,-nan,-nan
108,1,1,703217.000000,246987.000000,1470991.000000,73480.000000,9022.000000,735113.000000,0.000000,0.000000,0.000000,0.000000,0.000000,0.000000
109,0,0,-nan,-nan,-nan,-nan,-nan,-nan,-nan,-nan,-nan,-nan,-nan,-nan
109,1,1,704491.000000,246604.000000,1424471.000000,73288.000000,9152.000000,711756.000000,0.000000,0.000000,0.000000,0.000000,0.000000,0.000000
110,0,0,-nan,-nan,-nan,-nan,-nan,-nan,-nan,-nan,-nan,-nan,-nan,-nan
110,1,1,707133.000000,247462.000000,1516974.000000,73534.000000,11668.000000,757910.000000,0.000000,0.000000,0.000000,0.000000,0.000000,0.000000
111,0,0,-nan,-nan,-nan,-nan,-nan,-nan,-nan,-nan,-nan,-nan,-nan,-nan
111,1,1,712694.000000,249446.000000,1545509.000000,74366.000000,10587.000000,771919.000000,0.000000,0.000000,0.000000,0.000000,0.000000,0.000000
112,0,0,-nan,-nan,-nan,-nan,-nan,-nan,-nan,-nan,-nan,-nan,-nan,-nan
112,1,1,704782.000000,247824.000000,1592012.000000,73592.000000,9802.000000,795312.000000,0.000000,0.000000,0.000000,0.000000,0.000000,0.000000
113,0,0,-nan,-nan,-nan,-nan,-nan,-nan,-nan,-nan,-nan,-nan,-nan,-nan
113,1,1,705578.000000,247403.000000,1473495.000000,73415.000000,9543.000000,736455.000000,0.000000,0.000000,0.000000,0.000000,0.000000,0.000000
114,0,0,-nan,-nan,-nan,-nan,-nan,-nan,-nan,-nan,-nan,-nan,-nan,-nan
114,1,1,703933.000000,246751.000000,1375120.000000,73261.000000,9525.000000,687078.000000,0.000000,0.000000,0.000000,0.000000,0.000000,0.000000
115,0,0,-nan,-nan,-nan,-nan,-nan,-nan,-nan,-nan,-nan,-nan,-nan,-nan
115,1,1,706743.000000,247082.000000,1435956.000000,73315.000000,10043.000000,717500.000000,0.000000,0.000000,0.000000,0.000000,0.000000,0.000000
116,0,0,-nan,-nan,-nan,-nan,-nan,-nan,-nan,-nan,-nan,-nan,-nan,-nan
116,1,1,703879.000000,247199.000000,1415013.000000,73482.000000,9727.000000,706986.000000,0.000000,0.000000,0.000000,0.000000,0.000000,0.000000
117,0,0,-nan,-nan,-nan,-nan,-nan,-nan,-nan,-nan,-nan,-nan,-nan,-nan
117,1,1,707735.000000,247516.000000,1544122.000000,73632.000000,10047.000000,771734.000000,0.000000,0.000000,0.000000,0.000000,0.000000,0.000000
118,0,0,-nan,-nan,-nan,-nan,-nan,-nan,-nan,-nan,-nan,-nan,-nan,-nan
118,1,1,706820.000000,246883.000000,1457114.000000,73347.000000,9908.000000,728347.000000,0.000000,0.000000,0.000000,0.000000,0.000000,0.000000
119,0,0,-nan,-nan,-nan,-nan,-nan,-nan,-nan,-nan,-nan,-nan,-nan,-nan
119,1,1,705685.000000,247093.000000,1500612.000000,73396.000000,9899.000000,749926.000000,0.000000,0.000000,0.000000,0.000000,0.000000,0.000000
120,0,0,-nan,-nan,-nan,-nan,-nan,-nan,-nan,-nan,-nan,-nan,-nan,-nan
120,1,1,707043.000000,247410.000000,1559982.000000,73486.000000,10089.000000,779596.000000,0.000000,0.000000,0.000000,0.000000,0.000000,0.000000
121,0,0,-nan,-nan,-nan,-nan,-nan,-nan,-nan,-nan,-nan,-nan,-nan,-nan
121,1,1,706196.000000,247182.000000,1465068.000000,73468.000000,9910.000000,732090.000000,0.000000,0.000000,0.000000,0.000000,0.000000,0.000000
122,0,0,-nan,-nan,-nan,-nan,-nan,-nan,-nan,-nan,-nan,-nan,-nan,-nan
122,1,1,734822.000000,253498.000000,1535907.000000,77844.000000,10114.000000,767517.000000,0.000000,0.000000,0.000000,0.000000,0.000000,0.000000
123,0,0,-nan,-nan,-nan,-nan,-nan,-nan,-nan,-nan,-nan,-nan,-nan,-nan
123,1,1,707465.000000,247239.000000,1466296.000000,73517.000000,10211.000000,732889.000000,0.000000,0.000000,0.000000,0.000000,0.000000,0.000000
124,0,0,-nan,-nan,-nan,-nan,-nan,-nan,-nan,-nan,-nan,-nan,-nan,-nan
124,1,1,710257.000000,247426.000000,1574396.000000,73602.000000,9874.000000,786751.000000,0.000000,0.000000,0.000000,0.000000,0.000000,0.000000
125,0,0,-nan,-nan,-nan,-nan,-nan,-nan,-nan,-nan,-nan,-nan,-nan,-nan
125,1,1,702645.000000,247090.000000,1572048.000000,73348.000000,9800.000000,785772.000000,0.000000,0.000000,0.000000,0.000000,0.000000,0.000000
126,0,0,-nan,-nan,-nan,-nan,-nan,-nan,-nan,-nan,-nan,-nan,-nan,-nan
126,1,1,703486.000000,246952.000000,1439127.000000,73446.000000,9608.000000,719134.000000,0.000000,0.000000,0.000000,0.000000,0.000000,0.000000
127,0,0,-nan,-nan,-nan,-nan,-nan,-nan,-nan,-nan,-nan,-nan,-nan,-nan
127,1,1,703538.000000,247272.000000,1465870.000000,73504.000000,9392.000000,732471.000000,0.000000,0.000000,0.000000,0.000000,0.000000,0.000000
128,0,0,-nan,-nan,-nan,-nan,-nan,-nan,-nan,-nan,-nan,-nan,-nan,-nan
128,1,1,708047.000000,248793.000000,1543473.000000,74209.000000,10263.000000,770962.000000,0.000000,0.000000,0.000000,0.000000,0.000000,0.000000
129,0,0,-nan,-nan,-nan,-nan,-nan,-nan,-nan,-nan,-nan,-nan,-nan,-nan
129,1,1,756476.000000,261663.000000,1529221.000000,79685.000000,10535.000000,764288.000000,0.000000,0.000000,0.000000,0.000000,0.000000,0.000000
130,0,0,-nan,-nan,-nan,-nan,-nan,-nan,-nan,-nan,-nan,-nan,-nan,-nan
130,1,1,708757.000000,249723.000000,1465946.000000,74600.000000,10769.000000,732367.000000,0.000000,0.000000,0.000000,0.000000,0.000000,0.000000
131,0,0,-nan,-nan,-nan,-nan,-nan,-nan,-nan,-nan,-nan,-nan,-nan,-nan
131,1,1,704790.000000,247606.000000,1369607.000000,73492.000000,9962.000000,684386.000000,0.000000,0.000000,0.000000,0.000000,0.000000,0.000000
132,0,0,-nan,-nan,-nan,-nan,-nan,-nan,-nan,-nan,-nan,-nan,-nan,-nan
132,1,1,706742.000000,247867.000000,1552215.000000,73696.000000,10176.000000,775741.000000,0.000000,0.000000,0.000000,0.000000,0.000000,0.000000
133,0,0,-nan,-nan,-nan,-nan,-nan,-nan,-nan,-nan,-nan,-nan,-nan,-nan
133,1,1,710668.000000,248974.000000,1554628.000000,74238.000000,10186.000000,776706.000000,0.000000,0.000000,0.000000,0.000000,0.000000,0.000000
134,0,0,-nan,-nan,-nan,-nan,-nan,-nan,-nan,-nan,-nan,-nan,-nan,-nan
134,1,1,707625.000000,248135.000000,1436942.000000,73780.000000,9810.000000,718093.000000,0.000000,0.000000,0.000000,0.000000,0.000000,0.000000
135,0,0,-nan,-nan,-nan,-nan,-nan,-nan,-nan,-nan,-nan,-nan,-nan,-nan
135,1,1,704287.000000,246777.000000,1519248.000000,73275.000000,10330.000000,759243.000000,0.000000,0.000000,0.000000,0.000000,0.000000,0.000000
136,0,0,-nan,-nan,-nan,-nan,-nan,-nan,-nan,-nan,-nan,-nan,-nan,-nan
136,1,1,706930.000000,247778.000000,1515721.000000,73712.000000,9599.000000,757527.000000,0.000000,0.000000,0.000000,0.000000,0.000000,0.000000
137,0,0,-nan,-nan,-nan,-nan,-nan,-nan,-nan,-nan,-nan,-nan,-nan,-nan
137,1,1,710099.000000,248732.000000,1592713.000000,74283.000000,10114.000000,795887.000000,0.000000,0.000000,0.000000,0.000000,0.000000,0.000000
138,0,0,-nan,-nan,-nan,-nan,-nan,-nan,-nan,-nan,-nan,-nan,-nan,-nan
138,1,1,709667.000000,248097.000000,1452122.000000,73730.000000,9676.000000,725458.000000,0.000000,0.000000,0.000000,0.000000,0.000000,0.000000
139,0,0,-nan,-nan,-nan,-nan,-nan,-nan,-nan,-nan,-nan,-nan,-nan,-nan
139,1,1,702636.000000,246958.000000,1454096.000000,73401.000000,9951.000000,726698.000000,0.000000,0.000000,0.000000,0.000000,0.000000,0.000000
140,0,0,-nan,-nan,-nan,-nan,-nan,-nan,-nan,-nan,-nan,-nan,-nan,-nan
140,1,1,708164.000000,248304.000000,1592012.000000,74054.000000,10753.000000,795572.000000,0.000000,0.000000,0.000000,0.000000,0.000000,0.000000
141,0,0,-nan,-nan,-nan,-nan,-nan,-nan,-nan,-nan,-nan,-nan,-nan,-nan
141,1,1,704772.000000,247551.000000,1407625.000000,73649.000000,9779.000000,703191.000000,0.000000,0.000000,0.000000,0.000000,0.000000,0.000000
142,0,0,-nan,-nan,-nan,-nan,-nan,-nan,-nan,-nan,-nan,-nan,-nan,-nan
142,1,1,705768.000000,246795.000000,1510218.000000,73343.000000,9889.000000,754827.000000,0.000000,0.000000,0.000000,0.000000,0.000000,0.000000
143,0,0,-nan,-nan,-nan,-nan,-nan,-nan,-nan,-nan,-nan,-nan,-nan,-nan
143,1,1,703922.000000,246558.000000,1541510.000000,73244.000000,10271.000000,770304.000000,0.000000,0.000000,0.000000,0.000000,0.000000,0.000000
144,0,0,-nan,-nan,-nan,-nan,-nan,-nan,-nan,-nan,-nan,-nan,-nan,-nan
144,1,1,728325.000000,252270.000000,1503726.000000,76996.000000,10618.000000,751483.000000,0.000000,0.000000,0.000000,0.000000,0.000000,0.000000
145,0,0,-nan,-nan,-nan,-nan,-nan,-nan,-nan,-nan,-nan,-nan,-nan,-nan
145,1,1,705411.000000,247122.000000,1515668.000000,73555.000000,10588.000000,757256.000000,0.000000,0.000000,0.000000,0.000000,0.000000,0.000000
146,0,0,-nan,-nan,-nan,-nan,-nan,-nan,-nan,-nan,-nan,-nan,-nan,-nan
146,1,1,708238.000000,247316.000000,1412801.000000,73558.000000,10131.000000,705900.000000,0.000000,0.000000,0.000000,0.000000,0.000000,0.000000
147,0,0,-nan,-nan,-nan,-nan,-nan,-nan,-nan,-nan,-nan,-nan,-nan,-nan
147,1,1,713709.000000,249503.000000,1477633.000000,74455.000000,11316.000000,738246.000000,0.000000,0.000000,0.000000,0.000000,0.000000,0.000000
148,0,0,-nan,-nan,-nan,-nan,-nan,-nan,-nan,-nan,-nan,-nan,-nan,-nan
148,1,1,709189.000000,246965.000000,1552980.000000,73425.000000,10889.000000,776217.000000,0.000000,0.000000,0.000000,0.000000,0.000000,0.000000
149,0,0,-nan,-nan,-nan,-nan,-nan,-nan,-nan,-nan,-nan,-nan,-nan,-nan
149,1,1,707094.000000,247653.000000,1470636.000000,73711.000000,9388.000000,735003.000000,0.000000,0.000000,0.000000,0.000000,0.000000,0.000000
150,0,0,-nan,-nan,-nan,-nan,-nan,-nan,-nan,-nan,-nan,-nan,-nan,-nan
150,1,1,707935.000000,247362.000000,1587978.000000,73402.000000,9626.000000,793532.000000,0.000000,0.000000,0.000000,0.000000,0.000000,0.000000
151,0,0,-nan,-nan,-nan,-nan,-nan,-nan,-nan,-nan,-nan,-nan,-nan,-nan
151,1,1,708301.000000,248043.000000,1464539.000000,73734.000000,9478.000000,731477.000000,0.000000,0.000000,0.000000,0.000000,0.000000,0.000000
152,0,0,-nan,-nan,-nan,-nan,-nan,-nan,-nan,-nan,-nan,-nan,-nan,-nan
152,1,1,708536.000000,248249.000000,1518577.000000,73854.000000,9485.000000,758889.000000,0.000000,0.000000,0.000000,0.000000,0.000000,0.000000
153,0,0,-nan,-nan,-nan,-nan,-nan,-nan,-nan,-nan,-nan,-nan,-nan,-nan
153,1,1,705082.000000,246636.000000,1471365.000000,73271.000000,9398.000000,735373.000000,0.000000,0.000000,0.000000,0.000000,0.000000,0.000000
154,0,0,-nan,-nan,-nan,-nan,-nan,-nan,-nan,-nan,-nan,-nan,-nan,-nan
154,1,1,713394.000000,249343.000000,1545621.000000,74428.000000,10492.000000,772068.000000,0.000000,0.000000,0.000000,0.000000,0.000000,0.000000
155,0,0,-nan,-nan,-nan,-nan,-nan,-nan,-nan,-nan,-nan,-nan,-nan,-nan
155,1,1,710891.000000,248336.000000,1463354.000000,73900.000000,9782.000000,731292.000000,0.000000,0.000000,0.000000,0.000000,0.000000,0.000000
156,0,0,-nan,-nan,-nan,-nan,-nan,-nan,-nan,-nan,-nan,-nan,-nan,-nan
156,1,1,713366.000000,249326.000000,1578393.000000,74244.000000,9173.000000,788688.000000,0.000000,0.000000,0.000000,0.000000,0.000000,0.000000
157,0,0,-nan,-nan,-nan,-nan,-nan,-nan,-nan,-nan,-nan,-nan,-nan,-nan
157,1,1,730205.000000,252179.000000,1496757.000000,76934.000000,9731.000000,747889.000000,0.000000,0.000000,0.000000,0.000000,0.000000,0.000000
158,0,0,-nan,-nan,-nan,-nan,-nan,-nan,-nan,-nan,-nan,-nan,-nan,-nan
158,1,1,712590.000000,248620.000000,1464109.000000,73939.000000,9785.000000,731717.000000,0.000000,0.000000,0.000000,0.000000,0.000000,0.000000
159,0,0,-nan,-nan,-nan,-nan,-nan,-nan,-nan,-nan,-nan,-nan,-nan,-nan
159,1,1,713078.000000,248351.000000,1562353.000000,73966.000000,9973.000000,780792.000000,0.000000,0.000000,0.000000,0.000000,0.000000,0.000000
160,0,0,-nan,-nan,-nan,-nan,-nan,-nan,-nan,-nan,-nan,-nan,-nan,-nan
160,1,1,708228.000000,248205.000000,1665651.000000,73885.000000,11965.000000,832182.000000,0.000000,0.000000,0.000000,0.000000,0.000000,0.000000
161,0,0,-nan,-nan,-nan,-nan,-nan,-nan,-nan,-nan,-nan,-nan,-nan,-nan
161,1,1,707000.000000,247201.000000,1539523.000000,73449.000000,11155.000000,769415.000000,0.000000,0.000000,0.000000,0.000000,0.000000,0.000000
162,0,0,-nan,-nan,-nan,-nan,-nan,-nan,-nan,-nan,-nan,-nan,-nan,-nan
162,1,1,708773.000000,247710.000000,1416826.000000,73659.000000,10500.000000,707917.000000,0.000000,0.000000,0.000000,0.000000,0.000000,0.000000
163,0,0,-nan,-nan,-nan,-nan,-nan,-nan,-nan,-nan,-nan,-nan,-nan,-nan
163,1,1,731930.000000,252660.000000,1526364.000000,77078.000000,10841.000000,762825.000000,0.000000,0.000000,0.000000,0.000000,0.000000,0.000000
164,0,0,-nan,-nan,-nan,-nan,-nan,-nan,-nan,-nan,-nan,-nan,-nan,-nan
164,1,1,710534.000000,248050.000000,1460796.000000,73686.000000,9497.000000,730020.000000,0.000000,0.000000,0.000000,0.000000,0.000000,0.000000
165,0,0,-nan,-nan,-nan,-nan,-nan,-nan,-nan,-nan,-nan,-nan,-nan,-nan
165,1,1,717039.000000,250178.000000,1565832.000000,74546.000000,9955.000000,782323.000000,0.000000,0.000000,0.000000,0.000000,0.000000,0.000000
166,0,0,-nan,-nan,-nan,-nan,-nan,-nan,-nan,-nan,-nan,-nan,-nan,-nan
166,1,1,710812.000000,247720.000000,1467074.000000,73572.000000,9881.000000,732964.000000,0.000000,0.000000,0.000000,0.000000,0.000000,0.000000
167,0,0,-nan,-nan,-nan,-nan,-nan,-nan,-nan,-nan,-nan,-nan,-nan,-nan
167,1,1,708040.000000,247743.000000,1562529.000000,73546.000000,9999.000000,780840.000000,0.000000,0.000000,0.000000,0.000000,0.000000,0.000000
168,0,0,-nan,-nan,-nan,-nan,-nan,-nan,-nan,-nan,-nan,-nan,-nan,-nan
168,1,1,709793.000000,248050.000000,1468050.000000,73678.000000,9920.000000,733531.000000,0.000000,0.000000,0.000000,0.000000,0.000000,0.000000
169,0,0,-nan,-nan,-nan,-nan,-nan,-nan,-nan,-nan,-nan,-nan,-nan,-nan
169,1,1,711617.000000,248116.000000,1442434.000000,73645.000000,9748.000000,720618.000000,0.000000,0.000000,0.000000,0.000000,0.000000,0.000000
170,0,0,-nan,-nan,-nan,-nan,-nan,-nan,-nan,-nan,-nan,-nan,-nan,-nan
170,1,1,710016.000000,247301.000000,1570750.000000,73451.000000,9931.000000,785055.000000,0.000000,0.000000,0.000000,0.000000,0.000000,0.000000
171,0,0,-nan,-nan,-nan,-nan,-nan,-nan,-nan,-nan,-nan,-nan,-nan,-nan
171,1,1,711254.000000,248135.000000,1469547.000000,73653.000000,10336.000000,734345.000000,0.000000,0.000000,0.000000,0.000000,0.000000,0.000000
172,0,0,-nan,-nan,-nan,-nan,-nan,-nan,-nan,-nan,-nan,-nan,-nan,-nan
172,1,1,709858.000000,247704.000000,1472781.000000,73646.000000,10155.000000,735790.000000,0.000000,0.000000,0.000000,0.000000,0.000000,0.000000
173,0,0,-nan,-nan,-nan,-nan,-nan,-nan,-nan,-nan,-nan,-nan,-nan,-nan
173,1,1,715208.000000,249551.000000,1552692.000000,74376.000000,10545.000000,775715.000000,0.000000,0.000000,0.000000,0.000000,0.000000,0.000000
174,0,0,-nan,-nan,-nan,-nan,-nan,-nan,-nan,-nan,-nan,-nan,-nan,-nan
174,1,1,710552.000000,247276.000000,1528359.000000,73471.000000,10310.000000,763641.000000,0.000000,0.000000,0.000000,0.000000,0.000000,0.000000
175,0,0,-nan,-nan,-nan,-nan,-nan,-nan,-nan,-nan,-nan,-nan,-nan,-nan
175,1,1,709242.000000,249931.000000,1543144.000000,74562.000000,10491.000000,770953.000000,0.000000,0.000000,0.000000,0.000000,0.000000,0.000000
176,0,0,-nan,-nan,-nan,-nan,-nan,-nan,-nan,-nan,-nan,-nan,-nan,-nan
176,1,1,705685.000000,247647.000000,1525646.000000,73505.000000,9989.000000,762367.000000,0.000000,0.000000,0.000000,0.000000,0.000000,0.000000
177,0,0,-nan,-nan,-nan,-nan,-nan,-nan,-nan,-nan,-nan,-nan,-nan,-nan
177,1,1,707960.000000,247666.000000,1375898.000000,73529.000000,9834.000000,687507.000000,0.000000,0.000000,0.000000,0.000000,0.000000,0.000000
178,0,0,-nan,-nan,-nan,-nan,-nan,-nan,-nan,-nan,-nan,-nan,-nan,-nan
178,1,1,706238.000000,247554.000000,1427847.000000,73554.000000,10849.000000,713515.000000,0.000000,0.000000,0.000000,0.000000,0.000000,0.000000
179,0,0,-nan,-nan,-nan,-nan,-nan,-nan,-nan,-nan,-nan,-nan,-nan,-nan
179,1,1,731823.000000,256708.000000,1491730.000000,76192.000000,10422.000000,745419.000000,0.000000,0.000000,0.000000,0.000000,0.000000,0.000000
180,0,0,-nan,-nan,-nan,-nan,-nan,-nan,-nan,-nan,-nan,-nan,-nan,-nan
180,1,1,707235.000000,247847.000000,1523172.000000,73632.000000,9495.000000,760926.000000,0.000000,0.000000,0.000000,0.000000,0.000000,0.000000
181,0,0,-nan,-nan,-nan,-nan,-nan,-nan,-nan,-nan,-nan,-nan,-nan,-nan
181,1,1,728689.000000,252677.000000,1518718.000000,76977.000000,10950.000000,759126.000000,0.000000,0.000000,0.000000,0.000000,0.000000,0.000000
182,0,0,-nan,-nan,-nan,-nan,-nan,-nan,-nan,-nan,-nan,-nan,-nan,-nan
182,1,1,709695.000000,247776.000000,1446443.000000,73478.000000,9824.000000,722765.000000,0.000000,0.000000,0.000000,0.000000,0.000000,0.000000
183,0,0,-nan,-nan,-nan,-nan,-nan,-nan,-nan,-nan,-nan,-nan,-nan,-nan
183,1,1,711407.000000,248058.000000,1315630.000000,73646.000000,9218.000000,657426.000000,0.000000,0.000000,0.000000,0.000000,0.000000,0.000000
184,0,0,-nan,-nan,-nan,-nan,-nan,-nan,-nan,-nan,-nan,-nan,-nan,-nan
184,1,1,709796.000000,249170.000000,1430880.000000,74191.000000,9740.000000,714796.000000,0.000000,0.000000,0.000000,0.000000,0.000000,0.000000
185,0,0,-nan,-nan,-nan,-nan,-nan,-nan,-nan,-nan,-nan,-nan,-nan,-nan
185,1,1,709549.000000,248660.000000,1446270.000000,73792.000000,9437.000000,722694.000000,0.000000,0.000000,0.000000,0.000000,0.000000,0.000000
186,0,0,-nan,-nan,-nan,-nan,-nan,-nan,-nan,-nan,-nan,-nan,-nan,-nan
186,1,1,707716.000000,248017.000000,1492499.000000,73566.000000,8552.000000,745830.000000,0.000000,0.000000,0.000000,0.000000,0.000000,0.000000
187,0,0,-nan,-nan,-nan,-nan,-nan,-nan,-nan,-nan,-nan,-nan,-nan,-nan
187,1,1,731539.000000,253191.000000,1531689.000000,77121.000000,10190.000000,765504.000000,0.000000,0.000000,0.000000,0.000000,0.000000,0.000000
188,0,0,-nan,-nan,-nan,-nan,-nan,-nan,-nan,-nan,-nan,-nan,-nan,-nan
188,1,1,707924.000000,247582.000000,1424321.000000,73438.000000,8850.000000,711717.000000,0.000000,0.000000,0.000000,0.000000,0.000000,0.000000
189,0,0,-nan,-nan,-nan,-nan,-nan,-nan,-nan,-nan,-nan,-nan,-nan,-nan
189,1,1,713497.000000,249591.000000,1455930.000000,74260.000000,9777.000000,727391.000000,0.000000,0.000000,0.000000,0.000000,0.000000,0.000000
190,0,0,-nan,-nan,-nan,-nan,-nan,-nan,-nan,-nan,-nan,-nan,-nan,-nan
190,1,1,711691.000000,247914.000000,1420700.000000,73540.000000,9414.000000,709930.000000,0.000000,0.000000,0.000000,0.000000,0.000000,0.000000
191,0,0,-nan,-nan,-nan,-nan,-nan,-nan,-nan,-nan,-nan,-nan,-nan,-nan
191,1,1,729648.000000,252496.000000,1358852.000000,76877.000000,9557.000000,678997.000000,0.000000,0.000000,0.000000,0.000000,0.000000,0.000000
192,0,0,-nan,-nan,-nan,-nan,-nan,-nan,-nan,-nan,-nan,-nan,-nan,-nan
192,1,1,714632.000000,249964.000000,1542318.000000,74540.000000,9830.000000,770615.000000,0.000000,0.000000,0.000000,0.000000,0.000000,0.000000
193,0,0,-nan,-nan,-nan,-nan,-nan,-nan,-nan,-nan,-nan,-nan,-nan,-nan
193,1,1,712013.000000,248969.000000,1444269.000000,74199.000000,9280.000000,721487.000000,0.000000,0.000000,0.000000,0.000000,0.000000,0.000000
194,0,0,-nan,-nan,-nan,-nan,-nan,-nan,-nan,-nan,-nan,-nan,-nan,-nan
194,1,1,709970.000000,248177.000000,1375647.000000,73775.000000,9614.000000,687415.000000,0.000000,0.000000,0.000000,0.000000,0.000000,0.000000
195,0,0,-nan,-nan,-nan,-nan,-nan,-nan,-nan,-nan,-nan,-nan,-nan,-nan
195,1,1,709210.000000,247478.000000,1367709.000000,73483.000000,9363.000000,683624.000000,0.000000,0.000000,0.000000,0.000000,0.000000,0.000000
196,0,0,-nan,-nan,-nan,-nan,-nan,-nan,-nan,-nan,-nan,-nan,-nan,-nan
196,1,1,733142.000000,252679.000000,1401487.000000,76964.000000,11005.000000,700327.000000,0.000000,0.000000,0.000000,0.000000,0.000000,0.000000
197,0,0,-nan,-nan,-nan,-nan,-nan,-nan,-nan,-nan,-nan,-nan,-nan,-nan
197,1,1,704908.000000,247517.000000,1272018.000000,73553.000000,8589.000000,635446.000000,0.000000,0.000000,0.000000,0.000000,0.000000,0.000000
198,0,0,-nan,-nan,-nan,-nan,-nan,-nan,-nan,-nan,-nan,-nan,-nan,-nan
198,1,1,703453.000000,246576.000000,1363407.000000,73261.000000,8659.000000,681369.000000,0.000000,0.000000,0.000000,0.000000,0.000000,0.000000
199,0,0,-nan,-nan,-nan,-nan,-nan,-nan,-nan,-nan,-nan,-nan,-nan,-nan
199,1,1,713398.000000,249990.000000,1403924.000000,74612.000000,9541.000000,701454.000000,0.000000,0.000000,0.000000,0.000000,0.000000,0.000000
200,0,0,-nan,-nan,-nan,-nan,-nan,-nan,-nan,-nan,-nan,-nan,-nan,-nan
200,1,1,709269.000000,247930.000000,1382921.000000,73683.000000,9138.000000,691077.000000,0.000000,0.000000,0.000000,0.000000,0.000000,0.000000
201,0,0,-nan,-nan,-nan,-nan,-nan,-nan,-nan,-nan,-nan,-nan,-nan,-nan
201,1,1,708828.000000,247825.000000,1393101.000000,73630.000000,9453.000000,696116.000000,0.000000,0.000000,0.000000,0.000000,0.000000,0.000000
202,0,0,-nan,-nan,-nan,-nan,-nan,-nan,-nan,-nan,-nan,-nan,-nan,-nan
202,1,1,710346.000000,248561.000000,1464113.000000,73890.000000,9412.000000,731587.000000,0.000000,0.000000,0.000000,0.000000,0.000000,0.000000
203,0,0,-nan,-nan,-nan,-nan,-nan,-nan,-nan,-nan,-nan,-nan,-nan,-nan
203,1,1,707125.000000,247545.000000,1427336.000000,73457.000000,9104.000000,713239.000000,0.000000,0.000000,0.000000,0.000000,0.000000,0.000000
204,0,0,-nan,-nan,-nan,-nan,-nan,-nan,-nan,-nan,-nan,-nan,-nan,-nan
204,1,1,731353.000000,252420.000000,1384652.000000,76925.000000,10103.000000,691880.000000,0.000000,0.000000,0.000000,0.000000,0.000000,0.000000
205,0,0,-nan,-nan,-nan,-nan,-nan,-nan,-nan,-nan,-nan,-nan,-nan,-nan
205,1,1,708510.000000,247253.000000,1286771.000000,73427.000000,8558.000000,642909.000000,0.000000,0.000000,0.000000,0.000000,0.000000,0.000000
206,0,0,-nan,-nan,-nan,-nan,-nan,-nan,-nan,-nan,-nan,-nan,-nan,-nan
206,1,1,715183.000000,249364.000000,1451837.000000,74363.000000,10010.000000,725278.000000,0.000000,0.000000,0.000000,0.000000,0.000000,0.000000
207,0,0,-nan,-nan,-nan,-nan,-nan,-nan,-nan,-nan,-nan,-nan,-nan,-nan
207,1,1,710605.000000,248271.000000,1416671.000000,73771.000000,8627.000000,708004.000000,0.000000,0.000000,0.000000,0.000000,0.000000,0.000000
208,0,0,-nan,-nan,-nan,-nan,-nan,-nan,-nan,-nan,-nan,-nan,-nan,-nan
208,1,1,706518.000000,247284.000000,1517211.000000,73467.000000,10417.000000,758335.000000,0.000000,0.000000,0.000000,0.000000,0.000000,0.000000
209,0,0,-nan,-nan,-nan,-nan,-nan,-nan,-nan,-nan,-nan,-nan,-nan,-nan
209,1,1,708564.000000,247665.000000,1487890.000000,73634.000000,10690.000000,743652.000000,0.000000,0.000000,0.000000,0.000000,0.000000,0.000000
210,0,0,-nan,-nan,-nan,-nan,-nan,-nan,-nan,-nan,-nan,-nan,-nan,-nan
210,1,1,714992.000000,249558.000000,1443155.000000,74433.000000,10336.000000,721167.000000,0.000000,0.000000,0.000000,0.000000,0.000000,0.000000
211,0,0,-nan,-nan,-nan,-nan,-nan,-nan,-nan,-nan,-nan,-nan,-nan,-nan
211,1,1,707679.000000,246805.000000,1522664.000000,73261.000000,10197.000000,760766.000000,0.000000,0.000000,0.000000,0.000000,0.000000,0.000000
212,0,0,-nan,-nan,-nan,-nan,-nan,-nan,-nan,-nan,-nan,-nan,-nan,-nan
212,1,1,712090.000000,248057.000000,1776198.000000,73747.000000,10923.000000,887621.000000,0.000000,0.000000,0.000000,0.000000,0.000000,0.000000
213,0,0,-nan,-nan,-nan,-nan,-nan,-nan,-nan,-nan,-nan,-nan,-nan,-nan
213,1,1,712499.000000,249369.000000,1498604.000000,74561.000000,9363.000000,748788.000000,0.000000,0.000000,0.000000,0.000000,0.000000,0.000000
214,0,0,-nan,-nan,-nan,-nan,-nan,-nan,-nan,-nan,-nan,-nan,-nan,-nan
214,1,1,709609.000000,247847.000000,1471202.000000,73796.000000,8858.000000,735211.000000,0.000000,0.000000,0.000000,0.000000,0.000000,0.000000
215,0,0,-nan,-nan,-nan,-nan,-nan,-nan,-nan,-nan,-nan,-nan,-nan,-nan
215,1,1,711410.000000,248146.000000,1318023.000000,73879.000000,8130.000000,658567.000000,0.000000,0.000000,0.000000,0.000000,0.000000,0.000000
216,0,0,-nan,-nan,-nan,-nan,-nan,-nan,-nan,-nan,-nan,-nan,-nan,-nan
216,1,1,710863.000000,247744.000000,1326415.000000,73690.000000,9442.000000,662895.000000,0.000000,0.000000,0.000000,0.000000,0.000000,0.000000
217,0,0,-nan,-nan,-nan,-nan,-nan,-nan,-nan,-nan,-nan,-nan,-nan,-nan
217,1,1,711214.000000,247651.000000,1351150.000000,73736.000000,9510.000000,675272.000000,0.000000,0.000000,0.000000,0.000000,0.000000,0.000000
218,0,0,-nan,-nan,-nan,-nan,-nan,-nan,-nan,-nan,-nan,-nan,-nan,-nan
218,1,1,713770.000000,247611.000000,1409024.000000,73734.000000,10026.000000,704037.000000,0.000000,0.000000,0.000000,0.000000,0.000000,0.000000
219,0,0,-nan,-nan,-nan,-nan,-nan,-nan,-nan,-nan,-nan,-nan,-nan,-nan
219,1,1,705009.000000,247869.000000,1379900.000000,73853.000000,9878.000000,689470.000000,0.000000,0.000000,0.000000,0.000000,0.000000,0.000000
220,0,0,-nan,-nan,-nan,-nan,-nan,-nan,-nan,-nan,-nan,-nan,-nan,-nan
220,1,1,705478.000000,247583.000000,1420465.000000,73703.000000,9651.000000,709968.000000,0.000000,0.000000,0.000000,0.000000,0.000000,0.000000
221,0,0,-nan,-nan,-nan,-nan,-nan,-nan,-nan,-nan,-nan,-nan,-nan,-nan
221,1,1,711919.000000,249876.000000,1426529.000000,74666.000000,9600.000000,712682.000000,0.000000,0.000000,0.000000,0.000000,0.000000,0.000000
222,0,0,-nan,-nan,-nan,-nan,-nan,-nan,-nan,-nan,-nan,-nan,-nan,-nan
222,1,1,705492.000000,247270.000000,1379597.000000,73599.000000,9067.000000,689412.000000,0.000000,0.000000,0.000000,0.000000,0.000000,0.000000
223,0,0,-nan,-nan,-nan,-nan,-nan,-nan,-nan,-nan,-nan,-nan,-nan,-nan
223,1,1,707469.000000,247878.000000,1400366.000000,73833.000000,9095.000000,699722.000000,0.000000,0.000000,0.000000,0.000000,0.000000,0.000000
224,0,0,-nan,-nan,-nan,-nan,-nan,-nan,-nan,-nan,-nan,-nan,-nan,-nan
224,1,1,727505.000000,252112.000000,1420888.000000,77010.000000,9772.000000,710059.000000,0.000000,0.000000,0.000000,0.000000,0.000000,0.000000
225,0,0,-nan,-nan,-nan,-nan,-nan,-nan,-nan,-nan,-nan,-nan,-nan,-nan
225,1,1,707453.000000,247483.000000,1327441.000000,73662.000000,8681.000000,663175.000000,0.000000,0.000000,0.000000,0.000000,0.000000,0.000000
226,0,0,-nan,-nan,-nan,-nan,-nan,-nan,-nan,-nan,-nan,-nan,-nan,-nan
226,1,1,707797.000000,247581.000000,1487954.000000,73733.000000,9816.000000,743450.000000,0.000000,0.000000,0.000000,0.000000,0.000000,0.000000
227,0,0,-nan,-nan,-nan,-nan,-nan,-nan,-nan,-nan,-nan,-nan,-nan,-nan
227,1,1,708374.000000,247403.000000,1473886.000000,73608.000000,9488.000000,736559.000000,0.000000,0.000000,0.000000,0.000000,0.000000,0.000000
228,0,0,-nan,-nan,-nan,-nan,-nan,-nan,-nan,-nan,-nan,-nan,-nan,-nan
228,1,1,708240.000000,247414.000000,1362115.000000,73687.000000,9207.000000,680476.000000,0.000000,0.000000,0.000000,0.000000,0.000000,0.000000
229,0,0,-nan,-nan,-nan,-nan,-nan,-nan,-nan,-nan,-nan,-nan,-nan,-nan
229,1,1,705640.000000,247156.000000,1370124.000000,73611.000000,8880.000000,684623.000000,0.000000,0.000000,0.000000,0.000000,0.000000,0.000000
230,0,0,-nan,-nan,-nan,-nan,-nan,-nan,-nan,-nan,-nan,-nan,-nan,-nan
230,1,1,730036.000000,252378.000000,1391910.000000,77091.000000,10092.000000,695568.000000,0.000000,0.000000,0.000000,0.000000,0.000000,0.000000
231,0,0,-nan,-nan,-nan,-nan,-nan,-nan,-nan,-nan,-nan,-nan,-nan,-nan
231,1,1,714713.000000,249664.000000,1453497.000000,74612.000000,9717.000000,726139.000000,0.000000,0.000000,0.000000,0.000000,0.000000,0.000000
232,0,0,-nan,-nan,-nan,-nan,-nan,-nan,-nan,-nan,-nan,-nan,-nan,-nan
232,1,1,708547.000000,247369.000000,1434538.000000,73626.000000,9247.000000,716824.000000,0.000000,0.000000,0.000000,0.000000,0.000000,0.000000
233,0,0,-nan,-nan,-nan,-nan,-nan,-nan,-nan,-nan,-nan,-nan,-nan,-nan
233,1,1,712987.000000,248724.000000,1546164.000000,74298.000000,10236.000000,772479.000000,0.000000,0.000000,0.000000,0.000000,0.000000,0.000000
234,0,0,-nan,-nan,-nan,-nan,-nan,-nan,-nan,-nan,-nan,-nan,-nan,-nan
234,1,1,709054.000000,247939.000000,1456717.000000,73857.000000,9021.000000,727905.000000,0.000000,0.000000,0.000000,0.000000,0.000000,0.000000
235,0,0,-nan,-nan,-nan,-nan,-nan,-nan,-nan,-nan,-nan,-nan,-nan,-nan
235,1,1,708496.000000,248198.000000,1336709.000000,73977.000000,8959.000000,667772.000000,0.000000,0.000000,0.000000,0.000000,0.000000,0.000000
236,0,0,-nan,-nan,-nan,-nan,-nan,-nan,-nan,-nan,-nan,-nan,-nan,-nan
236,1,1,709337.000000,247940.000000,1375000.000000,73818.000000,8516.000000,687037.000000,0.000000,0.000000,0.000000,0.000000,0.000000,0.000000
237,0,0,-nan,-nan,-nan,-nan,-nan,-nan,-nan,-nan,-nan,-nan,-nan,-nan
237,1,1,709564.000000,248151.000000,1451498.000000,73926.000000,8816.000000,725129.000000,0.000000,0.000000,0.000000,0.000000,0.000000,0.000000
238,0,0,-nan,-nan,-nan,-nan,-nan,-nan,-nan,-nan,-nan,-nan,-nan,-nan
238,1,1,709738.000000,247672.000000,1359760.000000,73713.000000,9719.000000,679533.000000,0.000000,0.000000,0.000000,0.000000,0.000000,0.000000
239,0,0,-nan,-nan,-nan,-nan,-nan,-nan,-nan,-nan,-nan,-nan,-nan,-nan
239,1,1,709835.000000,247754.000000,1296923.000000,73794.000000,9783.000000,648030.000000,0.000000,0.000000,0.000000,0.000000,0.000000,0.000000
240,0,0,-nan,-nan,-nan,-nan,-nan,-nan,-nan,-nan,-nan,-nan,-nan,-nan
240,1,1,713990.000000,249106.000000,1371232.000000,74414.000000,9854.000000,684786.000000,0.000000,0.000000,0.000000,0.000000,0.000000,0.000000
241,0,0,-nan,-nan,-nan,-nan,-nan,-nan,-nan,-nan,-nan,-nan,-nan,-nan
241,1,1,710917.000000,247920.000000,1445245.000000,73871.000000,9276.000000,722282.000000,0.000000,0.000000,0.000000,0.000000,0.000000,0.000000
242,0,0,-nan,-nan,-nan,-nan,-nan,-nan,-nan,-nan,-nan,-nan,-nan,-nan
242,1,1,731852.000000,251965.000000,1491305.000000,76971.000000,9647.000000,745148.000000,0.000000,0.000000,0.000000,0.000000,0.000000,0.000000
243,0,0,-nan,-nan,-nan,-nan,-nan,-nan,-nan,-nan,-nan,-nan,-nan,-nan
243,1,1,714518.000000,249441.000000,1476505.000000,74621.000000,8989.000000,737538.000000,0.000000,0.000000,0.000000,0.000000,0.000000,0.000000
244,0,0,-nan,-nan,-nan,-nan,-nan,-nan,-nan,-nan,-nan,-nan,-nan,-nan
244,1,1,714322.000000,248446.000000,1330325.000000,73988.000000,8586.000000,664807.000000,0.000000,0.000000,0.000000,0.000000,0.000000,0.000000
245,0,0,-nan,-nan,-nan,-nan,-nan,-nan,-nan,-nan,-nan,-nan,-nan,-nan
245,1,1,707513.000000,247779.000000,1333490.000000,73814.000000,9592.000000,666513.000000,0.000000,0.000000,0.000000,0.000000,0.000000,0.000000
246,0,0,-nan,-nan,-nan,-nan,-nan,-nan,-nan,-nan,-nan,-nan,-nan,-nan
246,1,1,711182.000000,248794.000000,1383198.000000,74095.000000,9600.000000,691045.000000,0.000000,0.000000,0.000000,0.000000,0.000000,0.000000
247,0,0,-nan,-nan,-nan,-nan,-nan,-nan,-nan,-nan,-nan,-nan,-nan,-nan
247,1,1,707881.000000,247286.000000,1429100.000000,73607.000000,9761.000000,714301.000000,0.000000,0.000000,0.000000,0.000000,0.000000,0.000000
248,0,0,-nan,-nan,-nan,-nan,-nan,-nan,-nan,-nan,-nan,-nan,-nan,-nan
248,1,1,728889.000000,251788.000000,1371695.000000,76840.000000,10206.000000,685542.000000,0.000000,0.000000,0.000000,0.000000,0.000000,0.000000
249,0,0,-nan,-nan,-nan,-nan,-nan,-nan,-nan,-nan,-nan,-nan,-nan,-nan
249,1,1,714321.000000,249965.000000,1528199.000000,74771.000000,10384.000000,763321.000000,0.000000,0.000000,0.000000,0.000000,0.000000,0.000000
250,0,0,-nan,-nan,-nan,-nan,-nan,-nan,-nan,-nan,-nan,-nan,-nan,-nan
250,1,1,710822.000000,248272.000000,1457305.000000,73910.000000,10105.000000,728329.000000,0.000000,0.000000,0.000000,0.000000,0.000000,0.000000
251,0,0,-nan,-nan,-nan,-nan,-nan,-nan,-nan,-nan,-nan,-nan,-nan,-nan
251,1,1,714054.000000,248600.000000,1468323.000000,74199.000000,10212.000000,733558.000000,0.000000,0.000000,0.000000,0.000000,0.000000,0.000000
252,0,0,-nan,-nan,-nan,-nan,-nan,-nan,-nan,-nan,-nan,-nan,-nan,-nan
252,1,1,730323.000000,252276.000000,1383449.000000,77088.000000,10462.000000,691384.000000,0.000000,0.000000,0.000000,0.000000,0.000000,0.000000
253,0,0,-nan,-nan,-nan,-nan,-nan,-nan,-nan,-nan,-nan,-nan,-nan,-nan
253,1,1,715151.000000,249735.000000,1478016.000000,74720.000000,10684.000000,738451.000000,0.000000,0.000000,0.000000,0.000000,0.000000,0.000000
254,0,0,-nan,-nan,-nan,-nan,-nan,-nan,-nan,-nan,-nan,-nan,-nan,-nan
254,1,1,709533.000000,247601.000000,1496764.000000,73684.000000,9625.000000,747736.000000,0.000000,0.000000,0.000000,0.000000,0.000000,0.000000
255,0,0,-nan,-nan,-nan,-nan,-nan,-nan,-nan,-nan,-nan,-nan,-nan,-nan
255,1,1726,712109.570104,248772.561993,1412977.559096,74316.175550,9315.399189,706045.151217,7580.037618,1817.933613,88345.956426,1069.365909,751.130247,44139.707339
