0,-1,693350,236954,1241294,70595,7372,620133,0
0,2,761714,267663,1457111,79364,9380,727882,0
0,-1,687887,238470,1348283,71368,7843,673211,2
0,-1,656839,223812,1333817,69175,7787,666413,0
0,2,709568,249316,1310748,74085,8887,654779,0
0,-1,638000,219303,1299844,65983,8638,649356,0
0,2,711169,250538,1552644,74851,10474,775563,0
0,-1,661392,223672,1194625,69090,8386,596692,0
0,-1,641969,219766,1167630,66174,6459,583497,0
0,2,709025,249654,1378113,74260,7915,688820,0
0,-1,656822,223837,1319512,69309,7946,659077,0
0,2,713208,250221,1477244,74658,9452,737809,0
0,-1,636377,219785,1336877,66140,7543,667992,0
0,2,712398,249207,1411859,74149,9083,705225,0
0,-1,642208,220012,1335500,66163,7855,667287,0
0,-1,635325,218453,1230818,65551,7011,615022,0
0,2,709577,248330,1422443,73730,8929,710762,0
0,-1,644911,221300,1310229,66734,7340,654391,0
0,2,703491,248663,1310946,73343,8350,654984,0
0,-1,646814,220920,1309285,66272,7781,654120,0
0,2,709041,249155,1420778,74558,9189,709683,0
0,-1,642011,219687,1486162,66013,8972,742708,0
0,-1,642066,219343,1185952,65879,7892,592494,0
0,2,710317,247859,1378133,73822,9310,688689,0
0,-1,644965,221191,1285223,66554,8001,641886,0
0,2,713700,249768,1362722,74629,9195,680885,0
0,-1,659558,223661,1249291,69000,7866,624137,0
0,2,709121,248333,1464767,74079,9700,731878,0
0,-1,640839,218622,1177432,65515,7992,588276,0
0,-1,638121,218781,1166312,65581,6703,582767,0
0,2,712045,248132,1332898,74228,8880,665928,0
0,-1,635777,220115,1176979,65862,7659,587810,0
1,-1,690017,237889,1305139,70988,8156,652071,2
1,-1,635705,218546,1289105,65632,6985,644088,0
1,2,715564,250736,1609084,74823,10146,803623,0
1,-1,635535,218764,1228903,65783,6406,613950,0
1,2,711427,248245,1460521,73898,9357,729752,0
1,-1,648290,221403,1387220,66714,8928,692935,0
1,-1,664480,224049,1287206,69346,8255,643152,0
1,2,714190,250282,1403045,74677,9041,700944,0
1,-1,634336,218226,1180982,65721,6326,589968,0
1,2,714128,250074,1445869,74545,9453,722207,0
1,-1,635022,219448,1190706,65964,6789,594934,0
1,2,715893,250432,1527097,74820,10314,762740,0
1,-1,637527,218489,1278514,65692,7282,638799,0
1,-1,645273,222103,1279920,67190,6893,639116,0
1,2,707051,247490,1373212,73329,8162,686475,0
1,-1,661427,223830,1262867,69008,8105,630932,0
1,2,704016,247726,1424104,72984,8389,711578,0
1,-1,648828,222090,1297959,66845,8410,648308,0
1,2,707606,248094,1303346,74069,8997,651248,0
1,-1,641822,219455,1293417,65833,7955,646239,0
1,-1,641820,219217,1281375,65765,7820,640244,0
1,2,718609,250347,1301604,74974,8777,650034,0
1,-1,641177,219500,1394578,65735,7962,696699,0
1,2,710552,249259,1461096,74525,9027,729971,0
1,-1,637448,219347,1287328,65804,7323,643128,0
1,2,715403,249233,1483808,74387,9220,741487,0
1,-1,644181,220357,1250153,66272,8122,624333,0
1,-1,640246,218905,1299609,65610,7264,649307,0
1,2,715856,248663,1375679,74281,9885,687358,0
1,-1,638161,218666,1291502,65176,7310,645387,0
2,-1,687576,236914,1335559,70671,7767,667177,2
2,-1,634184,218454,1224939,65666,6483,611878,0
2,2,730344,252879,1430199,77053,9366,714595,0
2,-1,633631,218077,1193137,65504,6888,596063,0
2,2,716909,250203,1463036,74762,9851,730780,0
2,-1,642779,219388,1327211,65911,8713,663032,0
2,-1,642663,219628,1384138,66172,8789,691462,0
2,2,708050,248559,1495012,73936,8582,747060,0
2,-1,636909,219327,1167048,66064,6993,583121,0
2,2,708874,248937,1282662,73866,8317,640762,0
2,-1,642190,219543,1287562,66057,7618,643356,0
2,2,708577,248013,1372734,73705,8814,685889,0
2,-1,640390,219949,1251940,66145,7144,625484,0
2,-1,657876,223658,1223285,69152,7226,611200,0
2,2,708933,248282,1326442,73695,8788,662574,0
2,-1,644186,220599,1352851,66234,7686,675912,0
2,2,710801,251020,1339947,74362,8380,669101,0
2,-1,643297,220426,1379008,66031,8374,689030,0
2,2,710539,249779,1239277,74685,8749,619119,0
2,-1,639799,219604,1291451,65915,7408,645314,0
2,-1,645930,221232,1308511,66693,8146,653488,0
2,2,734182,252965,1482087,77356,10032,740613,0
2,-1,645417,221520,1270555,66557,7818,634560,0
2,2,731198,253771,1534874,77713,12000,767055,0
2,-1,640078,220442,1249274,66322,7606,623588,0
2,2,715590,249185,1613683,74404,10536,806338,0
2,-1,638778,218601,1400074,65512,7974,699568,0
2,-1,640104,219373,1428985,65842,8305,713876,0
2,2,717979,250572,1324817,75189,8854,661634,0
2,-1,637662,219419,1268558,65299,6973,633833,0
3,-1,688826,236276,1221035,70484,7062,609915,2
3,-1,640471,218971,1204260,65639,7264,601645,0
3,2,709444,248725,1306696,73920,8519,652788,0
3,-1,639110,218948,1254583,65745,7473,626743,0
3,2,717909,250275,1491866,74869,10230,745149,0
3,-1,642449,219371,1329110,65866,8131,664182,0
3,-1,644178,220568,1331800,66665,7717,665189,0
3,2,716913,251583,1409544,75260,9797,703330,0
3,-1,633890,218609,1262282,65708,7098,630710,0
3,2,711989,249341,1419763,74029,8993,709442,0
3,-1,644677,221240,1362892,66817,7439,680623,0
3,2,713054,250043,1404693,74528,9392,701617,0
3,-1,644370,221782,1299389,67063,7799,648919,0
3,-1,640332,219870,1253404,66104,7054,626196,0
3,2,709376,248053,1370746,73604,9520,684929,0
3,-1,641898,220070,1302647,66062,7023,650820,0
3,2,701932,247924,1284186,72992,8317,641677,0
3,-1,642806,220043,1275448,65938,7383,637212,0
3,-1,643872,221072,1315724,66730,7819,657146,0
3,2,707191,248133,1299595,74072,8326,649332,0
3,-1,663169,224537,1255753,69315,8263,626984,0
3,2,712873,249291,1312960,74529,8164,655775,0
3,-1,639692,219211,1276448,65595,8037,637777,0
3,2,712848,248979,1504494,74444,9795,751763,0
3,-1,637936,218803,1154328,65680,6820,576689,0
3,2,713818,249298,1478084,74401,9222,738645,0
3,-1,648627,221390,1263054,66732,8199,630761,0
3,-1,638554,218706,1275251,65562,7512,637173,0
3,2,712503,248266,1250067,74105,9217,624461,0
3,-1,634840,218784,1369241,65133,7389,684082,0
4,-1,634300,218767,1257937,65685,6853,628473,2
4,-1,642995,219724,1306054,66179,8165,652359,0
4,2,711597,249611,1254939,74290,8880,626800,0
4,-1,633891,218345,1204983,65614,6986,602035,0
4,2,713165,248283,1488002,73895,9801,743467,0
4,-1,643469,219368,1383956,65921,8290,691804,0
4,-1,642714,220053,1288395,66297,7019,643658,0
4,2,708562,248898,1368023,74058,9220,683482,0
4,-1,639903,220896,1287732,66853,8137,643064,0
4,2,710364,249318,1394235,74065,8823,696695,0
4,-1,640592,219842,1182082,66128,7413,590579,0
4,2,711573,249022,1309704,74066,8854,654331,0
4,-1,658166,223659,1249403,69179,7322,624172,0
4,-1,637148,219255,1267026,65897,7082,633068,0
4,2,707599,248430,1325503,73677,8548,662379,0
4,-1,641219,220251,1204391,66100,7343,601689,0
4,2,709334,250511,1311396,74119,8352,655052,0
4,-1,642076,220728,1227244,66166,7009,613253,0
4,-1,638007,219463,1276081,65923,7596,637565,0
4,2,710534,248321,1280051,74161,8386,639536,0
4,-1,640747,219785,1451669,65961,9657,724885,0
4,2,713114,248201,1339307,73993,8598,669186,0
4,-1,639651,219865,1175598,65853,7365,587334,0
4,2,733914,254065,1660635,77950,11424,829897,0
4,-1,641128,218562,1271688,65514,7768,635155,0
4,2,717244,250313,1446049,74962,8834,722325,0
4,-1,642116,219244,1149694,65721,7140,574479,0
4,-1,639070,219227,1170758,65767,7055,584876,0
4,2,712369,248648,1321131,74282,8931,660073,0
4,-1,663433,228439,1209903,67932,6964,604496,0
5,-1,642741,220053,1268104,66103,7786,633599,0
5,-1,635606,218713,1272642,65652,7025,635832,2
5,2,708673,248961,1263082,74002,8513,631134,0
5,-1,638174,219657,1234869,66272,7436,616677,0
5,2,710066,248335,1482908,73972,9860,740938,0
5,-1,640326,219127,1204816,65853,7309,601923,0
5,-1,646418,221830,1301053,67193,7651,649568,0
5,2,706354,248228,1332071,73756,9176,665593,0
5,-1,633819,219369,1170824,66057,7153,584904,0
5,2,714959,251050,1461702,74968,9602,730028,0
5,-1,643076,220193,1273574,66433,7415,636058,0
5,2,716133,250961,1300656,74967,8942,649640,0
5,-1,637793,219543,1276691,65957,7178,637915,0
5,-1,636270,219287,1221244,65912,6253,610272,0
5,2,710862,248783,1415164,73849,9055,707024,0
5,-1,643432,219527,1214493,65843,7774,606739,0
5,2,711606,247255,1396823,73352,9207,697883,0
5,-1,645528,220559,1264372,66097,7539,631790,0
5,-1,641106,219648,1367134,65933,7756,683003,0
5,2,708119,247812,1441202,74068,8541,720125,0
5,-1,635778,218134,1311318,65402,8077,655249,0
5,2,713188,249037,1365793,74346,8575,682451,0
5,-1,638077,219642,1353420,65751,7474,676282,0
5,2,740525,259915,1336332,78091,9094,667346,0
5,-1,639033,218524,1361023,65499,8022,680030,0
5,2,713825,249207,1578649,74428,10411,788714,0
5,-1,641316,218999,1232477,65721,7601,615778,0
5,-1,636827,218473,1239576,65479,7427,619417,0
5,2,733535,252859,1449194,77345,9448,724010,0
5,-1,637964,219700,1299431,65427,7213,649242,0
6,-1,637019,218410,1204323,65538,6892,601693,0
6,-1,643586,221581,1219728,66966,7617,609024,2
6,2,707602,248533,1368365,73970,8757,683578,0
6,-1,632518,217770,1171513,65432,6676,585341,0
6,2,713279,250028,1506870,74704,10112,752675,0
6,-1,638849,218911,1255448,65727,7453,627207,0
6,-1,643049,219784,1281524,66182,7696,640287,0
6,2,708634,248378,1355604,73794,9655,677457,0
6,-1,639202,219127,1182650,66012,7790,590719,0
6,2,707528,249006,1417608,73977,8382,708358,0
6,-1,642455,220259,1257835,66262,7415,628443,0
6,2,709065,249040,1383370,74024,8882,691226,0
6,-1,641135,219215,1182925,65942,7208,591044,0
6,-1,659548,224273,1252367,69345,8245,625655,0
6,2,731203,253106,1519319,77066,9273,759098,0
6,-1,642340,219414,1246955,65791,7506,622964,0
6,2,710647,248183,1411722,73546,8012,705412,0
6,-1,642728,219815,1224434,65879,7638,611849,0
6,-1,643836,220876,1407746,66574,7308,703132,0
6,2,709454,248288,1496384,74129,9130,747752,0
6,-1,643481,219365,1261990,65911,7738,630580,0
6,2,714163,249971,1308887,74793,9130,653757,0
6,-1,645074,219729,1303512,65738,7953,651331,0
6,2,710861,249124,1292331,74562,9162,645601,0
6,-1,647723,221679,1352496,66874,7909,675446,0
6,2,710406,248315,1485207,74100,8481,742204,0
6,-1,639476,218642,1321875,65547,8020,660473,0
6,-1,643611,219288,1379344,65787,8539,689213,0
6,2,712213,248520,1305999,74188,8875,652567,0
6,-1,637988,219979,1189119,65727,6834,593849,0
7,-1,643067,221217,1239429,66822,7916,618597,0
7,2,727238,252916,1408267,77214,10053,703529,0
7,-1,638844,218704,1223477,65779,7047,611033,2
7,-1,634672,218894,1192981,65799,7304,596022,0
7,2,715319,249836,1342149,74645,9083,670234,0
7,-1,641930,218995,1199963,65799,7535,599516,0
7,-1,640830,218667,1241890,65809,6888,620478,0
7,2,705443,248569,1471688,73872,9918,735369,0
7,-1,640637,220561,1285022,66679,7661,641757,0
7,2,706806,248454,1447423,73753,8929,723255,0
7,-1,639744,219579,1234715,66045,7369,616816,0
7,2,708824,249264,1464231,74063,10088,731117,0
7,-1,639786,219153,1407926,65862,7570,703478,0
7,-1,636082,219230,1249590,65862,6900,624348,0
7,2,712684,249848,1527227,74185,9374,763131,0
7,-1,640876,219276,1213081,65731,6992,606039,0
7,2,719853,249914,1556077,74132,9863,777547,0
7,-1,643643,220597,1146736,66117,7419,572789,0
7,-1,640360,219833,1446816,66076,8776,722015,0
7,2,710076,248353,1418959,74159,8566,709025,0
7,-1,642326,219055,1308528,65711,7786,653773,0
7,2,711015,248490,1517095,74270,9568,758120,0
7,-1,644719,219531,1221200,65715,7797,610203,0
7,2,709960,248863,1380970,74441,9169,689880,0
7,-1,660702,223414,1260025,68931,8465,629622,0
7,2,716937,250779,1442373,75214,9712,720658,0
7,-1,637816,218249,1344248,65394,7899,671695,0
7,-1,641650,218907,1423242,65617,8788,711200,0
7,2,716211,249397,1429157,74431,8848,714069,0
7,-1,633898,218648,1271759,64982,7161,635445,0
8,-1,640399,219232,1201869,65837,8285,600354,0
8,2,707690,249182,1361038,74185,8942,679899,0
8,-1,636762,218309,1270382,65682,7667,634548,2
8,-1,657229,222550,1287839,68782,7674,643348,0
8,2,715361,250373,1428856,74923,8989,713555,0
8,-1,647781,221299,1290697,66709,7400,644543,0
8,-1,640774,218920,1282462,65892,7689,640735,0
8,2,709331,248797,1484690,73941,9654,741795,0
8,-1,657066,223607,1223450,69243,7972,611203,0
8,2,711648,251046,1542844,74920,9867,770557,0
8,-1,637278,219131,1200995,65807,7287,600015,0
8,2,712210,248661,1397481,73868,9993,698252,0
8,-1,660027,223846,1267889,69231,8689,633459,0
8,-1,638475,220418,1352149,66473,6872,675486,0
8,2,710165,248856,1240310,73906,8570,619602,0
8,-1,641910,220104,1330476,66006,7375,664735,0
8,2,718222,249770,1337906,74301,8900,668235,0
8,-1,643503,219655,1262502,65939,7820,630776,0
8,-1,641338,220385,1219018,66170,7226,608927,0
8,2,728937,252704,1441436,77422,9354,720276,0
8,-1,640595,219097,1224699,65649,7466,611953,0
8,2,714090,249660,1417972,74833,9635,708818,0
8,-1,645139,220214,1268299,66081,8263,633771,0
8,2,712544,250239,1284713,75111,9354,641671,0
8,-1,638979,218908,1176532,65638,7295,587787,0
8,2,709290,249030,1519572,74382,9670,759113,0
8,-1,640722,218748,1226743,65582,7531,612907,0
8,-1,663800,223784,1368132,69044,8798,683575,0
8,2,734543,253275,1548036,77490,9819,773561,0
8,-1,633793,218944,1245715,65188,7496,622273,0
9,-1,639196,219184,1224262,65817,7276,611571,0
9,2,711012,248194,1324798,73716,8129,662006,0
9,-1,633872,219155,1176835,65915,6675,587710,2
9,-1,636398,218613,1274531,65693,7631,636825,0
9,2,711131,248385,1429515,74005,9230,714212,0
9,-1,640764,219313,1335952,65841,8335,667431,0
9,-1,642086,219863,1264324,66241,7528,631779,0
9,2,707705,248881,1350997,74065,8572,675210,0
9,-1,637012,219053,1259840,65920,7119,629500,0
9,2,726388,253539,1402523,77237,9315,700719,0
9,-1,640063,220023,1222903,66195,6514,610981,0
9,2,714186,250220,1516197,74621,10378,756890,0
9,-1,637493,219112,1192689,65849,7382,595895,0
9,-1,641445,219319,1253346,65935,7095,626143,0
9,2,706645,247933,1319722,73526,9002,659407,0
9,-1,661634,223655,1282542,68975,7835,640794,0
9,2,712052,248065,1317614,73560,8245,658310,0
9,-1,640347,219371,1200814,65933,7758,599994,0
9,2,707537,248485,1385657,74271,9276,692351,0
9,-1,646426,221925,1288477,66948,8024,643433,0
9,-1,640860,219287,1264568,65813,7931,631808,0
9,2,730263,253249,1512791,77588,10231,755695,0
9,-1,643878,219781,1192134,65929,7970,595607,0
9,2,711721,249007,1608100,74565,9893,803593,0
9,-1,645734,221307,1328391,66695,7466,663344,0
9,2,714081,248399,1410821,74048,9687,705026,0
9,-1,639526,218728,1258307,65527,7802,628678,0
9,-1,640944,218984,1215288,65685,7097,607143,0
9,2,712330,248912,1427524,74257,8747,713382,0
9,-1,637797,220744,1140397,65993,7388,569155,0
10,-1,642919,220706,1284397,66400,7187,641431,0
10,2,708381,247533,1317407,73623,8828,658217,0
10,-1,636692,219413,1262036,65950,6930,630402,0
10,-1,634116,218738,1223651,65795,6874,611292,2
10,2,708438,248394,1292174,74032,8670,645543,0
10,-1,647725,222186,1481536,67151,9601,739796,0
10,-1,639908,219031,1196445,65912,7293,597725,0
10,2,710032,248767,1434816,73986,9454,715519,0
10,-1,634741,218791,1249327,65833,7545,624357,0
10,2,719207,251642,1422221,75044,9150,710193,0
10,-1,640270,220555,1300671,66552,7026,649738,0
10,2,712097,248500,1323202,73791,9270,661134,0
10,-1,641729,221140,1295029,66699,8362,646645,0
10,-1,642057,220310,1180683,66275,7237,589876,0
10,2,707831,248068,1421110,73574,8621,709967,0
10,-1,644460,220865,1314888,66338,8026,656938,0
10,2,712294,248727,1457833,73795,8170,728372,0
10,-1,642789,220417,1240341,66317,7333,619654,0
10,2,707183,248493,1416975,74234,9332,708005,0
10,-1,663927,225394,1220344,69616,8091,609647,0
10,-1,643075,220194,1175298,66100,7338,587079,0
10,2,717015,249444,1557928,74671,9995,777583,0
10,-1,641121,219001,1242699,65583,8162,621150,0
10,2,713098,249311,1362273,74684,8895,680496,0
10,-1,640207,220118,1233793,66208,7496,616205,0
10,2,719238,250437,1333304,74997,9220,666032,0
10,-1,638013,218391,1303444,65447,7378,651232,0
10,-1,662154,223463,1281177,68932,7789,640131,0
10,2,713102,249603,1339812,74698,8914,669268,0
10,-1,639523,221650,1138644,66320,7419,568854,0
11,-1,636276,218503,1257758,65506,7600,628336,0
11,2,730402,252725,1307409,77181,9677,653060,0
11,-1,634020,218269,1266445,65536,7508,632723,0
11,-1,633640,219190,1252695,65953,7140,625676,2
11,2,715054,249703,1624803,74601,10008,811447,0
11,-1,664107,224363,1247300,69331,8228,623116,0
11,-1,667401,228356,1318224,68660,7930,658570,0
11,2,712772,249167,1471303,74185,9621,734588,0
11,-1,635489,219396,1267766,66029,7615,633424,0
11,2,715507,249493,1446902,74251,9721,722767,0
11,-1,636540,219253,1175065,65944,7149,586995,0
11,2,712133,248896,1403235,73937,8820,701239,0
11,-1,639896,219748,1208367,66076,7922,603643,0
11,-1,638853,219232,1166266,65888,6974,582577,0
11,2,712019,249242,1533939,74146,9825,766332,0
11,-1,638024,218847,1225777,65669,6923,612458,0
11,2,713244,248824,1384416,73733,8478,691793,0
11,-1,645947,221713,1308343,66957,7534,653441,0
11,2,709391,248146,1410847,74082,9684,705059,0
11,-1,639548,219561,1191362,65841,7984,595415,0
11,-1,639636,219068,1261595,65748,7721,630299,0
11,2,711549,248383,1418372,74142,9522,708816,0
11,-1,644878,219434,1264123,65798,8639,631560,0
11,2,716702,251102,1369783,75517,10153,683771,0
11,-1,636149,218330,1211016,65429,7617,605266,0
11,2,714047,249003,1404207,74338,9418,701674,0
11,-1,658645,222872,1329816,68691,8078,664488,0
11,-1,639405,218318,1153131,65428,6855,576093,0
11,2,713464,248562,1392436,74175,9343,695683,0
11,-1,632757,218646,1214203,65137,7313,606308,0
12,-1,638553,218799,1316192,65703,7615,657615,0
12,2,708101,248004,1259554,73830,8987,629234,0
12,-1,665749,229210,1328857,69075,8130,663641,0
12,2,711780,248676,1576761,74150,10996,787490,0
12,-1,636225,218809,1166459,65777,7200,582464,2
12,-1,643735,220507,1205666,66150,7414,602374,0
12,-1,638084,218819,1177283,65904,7000,588185,0
12,2,709341,248650,1314813,73965,8027,657035,0
12,-1,638696,219643,1232128,66159,7363,615683,0
12,2,713101,249161,1413640,73977,9204,706261,0
12,-1,638872,219010,1268209,65815,7488,633644,0
12,2,716550,251163,1426185,75010,9650,712056,0
12,-1,638642,219622,1346884,65947,7530,672997,0
12,-1,638736,219904,1282856,66102,6855,640979,0
12,2,707895,248651,1418334,73759,9377,708733,0
12,-1,639322,219573,1253280,65921,7295,626208,0
12,2,716606,250108,1470590,74519,9650,734459,0
12,-1,651959,221898,1302275,67098,8002,650324,0
12,2,708511,248240,1389525,74142,9556,694221,0
12,-1,640873,220656,1270047,66232,8287,634545,0
12,-1,639594,219686,1221178,65989,7434,610125,0
12,2,712007,249057,1383524,74213,8684,691264,0
12,-1,643302,219429,1347744,65823,8610,673265,0
12,2,714759,250405,1386422,75210,10602,692340,0
12,-1,657682,224034,1209232,69119,8377,604129,0
12,2,714953,249696,1308816,74517,8365,653977,0
12,-1,641224,218689,1216917,65599,7984,608045,0
12,-1,639629,218950,1262586,65702,6957,630875,0
12,2,717596,251014,1412481,75199,9064,705462,0
12,-1,636041,218756,1234638,65117,6631,616844,0
13,-1,636128,218285,1195530,65448,6840,597262,0
13,2,726003,252839,1411296,77097,9467,705029,0
13,-1,637449,219568,1259194,66007,7578,629193,0
13,2,711750,250089,1429826,74745,9085,714180,0
13,-1,642022,219617,1255007,66072,7849,626970,2
13,-1,645433,219605,1204252,65877,6913,601692,0
13,-1,639790,218777,1326229,65808,7474,662580,0
13,2,708760,248721,1296217,74030,8099,647664,0
13,-1,641766,221219,1262224,66926,7313,630395,0
13,2,710914,248838,1509840,73828,9266,754408,0
13,-1,638123,219137,1307301,65905,7368,653279,0
13,2,732443,253275,1491893,77179,9626,745519,0
13,-1,642557,221082,1496188,66760,8000,747245,0
13,-1,638859,218855,1187674,65819,6557,593461,0
13,2,706532,248368,1436850,73728,9407,717977,0
13,-1,637215,219127,1186533,65763,6650,592998,0
13,2,714369,248841,1399732,73750,8621,699318,0
13,-1,667635,224620,1224622,69505,8325,611748,0
13,2,704949,247719,1265118,73931,8414,632062,0
13,-1,643756,220122,1294073,66127,9327,646421,0
13,-1,639093,218992,1320216,65763,8339,659684,0
13,2,712240,249417,1310707,74602,8525,654799,0
13,-1,643922,219950,1384023,66008,7809,691410,0
13,2,712062,248836,1460239,74400,9805,729635,0
13,-1,639300,218800,1312393,65578,7604,655733,0
13,2,734544,253622,1486232,77636,10429,742595,0
13,-1,641050,218559,1303271,65456,8006,651326,0
13,-1,642650,218817,1293735,65540,7875,646389,0
13,2,711158,249525,1716950,74439,11025,858549,0
13,-1,634603,218773,1510023,65144,8392,754426,0
14,-1,657949,223108,1354319,68909,8176,676627,0
14,2,707898,248648,1390297,73926,9129,693968,0
14,-1,634390,218504,1184529,65634,6644,591825,0
14,2,710783,248862,1574410,74155,9883,786392,0
14,-1,641182,219713,1170113,65955,6781,584385,2
14,-1,644021,219995,1222087,65983,6938,610581,0
14,-1,639102,218878,1207720,65881,7183,603404,0
14,2,710681,248786,1296383,74036,8893,647700,0
14,-1,657351,223639,1232059,69251,8486,615532,0
14,2,713380,250166,1465339,74504,9391,732006,0
14,-1,642841,220907,1271379,66662,7055,634919,0
14,2,713067,249955,1438858,74529,9089,718687,0
14,-1,660490,224744,1327700,69488,8566,663469,0
14,-1,643937,221480,1262351,66924,7444,630410,0
14,2,705914,248506,1445737,73784,9455,722177,0
14,-1,659210,224140,1267728,69227,7959,633445,0
14,2,713580,248565,1482040,73644,10235,740539,0
14,-1,643596,219604,1308176,66039,7441,653573,0
14,2,708644,249382,1258801,74766,8702,628795,0
14,-1,643386,219920,1314724,65928,8141,656919,0
14,-1,640856,219686,1213320,66088,7500,606199,0
14,2,714377,250515,1291444,75136,9086,644797,0
14,-1,640738,219003,1459543,65637,8290,729306,0
14,2,715413,251023,1378212,75501,10055,688140,0
14,-1,638208,218842,1308525,65611,7621,653961,0
14,2,714233,249777,1289398,74594,8578,644283,0
14,-1,641234,218885,1453592,65596,9087,726350,0
14,-1,644490,219727,1180830,65922,7061,589955,0
14,2,710270,248114,1425286,73900,9095,712215,0
14,-1,654236,223589,1323650,68472,7834,661333,0
15,-1,634671,218609,1271825,65635,7079,635376,0
15,2,704482,247730,1411389,73612,8419,705246,0
15,-1,634263,218840,1279056,65767,7388,638971,0
15,2,730186,253243,1380949,77367,9318,689875,0
15,-1,647336,221261,1314132,66723,7020,656060,0
15,-1,640486,219973,1206473,66011,7344,602651,2
15,-1,643605,221084,1292944,66910,7616,645712,0
15,2,729575,253104,1307817,77164,9374,653361,0
15,-1,638953,220133,1356189,66526,8196,677474,0
15,2,733745,253584,1404271,77210,9747,701673,0
15,-1,639623,220322,1255955,66296,6549,627520,0
15,2,709934,249373,1369413,74176,8672,684193,0
15,-1,637140,219446,1227644,65965,8278,613283,0
15,-1,636352,219369,1268119,65935,7305,633592,0
15,2,711090,248230,1450673,73628,9592,724404,0
15,-1,640233,219199,1249795,65752,7832,624450,0
15,2,732089,253291,1352311,77064,8815,675492,0
15,-1,646002,220392,1273063,66296,7031,636108,0
15,2,706739,247807,1290361,73952,9196,644799,0
15,-1,647040,221758,1329318,66852,8206,663943,0
15,-1,638737,218988,1397944,65785,8281,698520,0
15,2,709675,247819,1267555,73829,8301,633347,0
15,-1,640296,219144,1294344,65738,7328,646688,0
15,2,712072,248842,1390935,74417,9542,695011,0
15,-1,642953,221017,1286966,66637,7462,642722,0
15,2,714067,249077,1304026,74330,9027,651525,0
15,-1,647431,221554,1253760,66863,8122,626047,0
15,-1,662539,223723,1312353,69028,7583,655684,0
15,2,711223,248717,1519444,74183,10746,759281,0
15,-1,634270,219770,1262769,65484,7780,630820,0
16,-1,644961,220959,1291917,66626,7473,645242,0
16,2,704181,247690,1479299,73596,8979,739169,0
16,-1,633578,218538,1234849,65675,7268,616953,0
16,2,709480,248806,1393081,74129,8856,695988,0
16,-1,641567,219554,1272129,65902,6420,635484,0
16,-1,646792,221682,1306099,66934,8065,652148,2
16,-1,639388,219082,1289032,65924,7371,644080,0
16,2,704729,247866,1294970,73726,8448,647022,0
16,-1,634523,219120,1530310,65909,8836,764481,0
16,2,707376,247878,1417650,73513,9139,708439,0
16,-1,637532,219134,1384058,65836,8218,691519,0
16,2,709775,248682,1323480,73871,9220,661262,0
16,-1,637181,219619,1300759,65968,8097,649831,0
16,-1,635934,219400,1255054,65884,6247,627065,0
16,2,740785,254635,1335484,77990,10095,667294,0
16,-1,645854,220767,1316648,66512,8215,657645,0
16,2,712251,247948,1298468,73472,8618,648789,0
16,-1,645631,220594,1245118,66313,7408,622113,0
16,2,702589,247782,1277631,74031,9270,638358,0
16,-1,665208,225168,1267643,69476,8489,633272,0
16,-1,644310,221518,1414001,66989,8928,706312,0
16,2,728055,252489,1466483,77362,9689,732821,0
16,-1,637398,218140,1224774,65348,7516,611876,0
16,2,712046,249212,1409647,74546,9813,704353,0
16,-1,659455,224039,1278609,69131,8048,638832,0
16,2,712794,248799,1307705,74247,8884,653339,0
16,-1,640079,218744,1326216,65612,7887,662540,0
16,-1,639362,218062,1166383,65296,7248,582701,0
16,2,717939,249300,1450149,74363,10554,726386,0
16,-1,633882,219142,1402498,65303,8585,700740,0
17,-1,638676,218850,1255793,65780,7118,627532,0
17,2,707806,248421,1389521,73889,8750,694234,0
17,-1,642428,221460,1453736,66870,9585,726136,0
17,2,712640,250401,1431739,74843,9014,715151,0
17,-1,642192,219435,1268689,65810,7229,633912,0
17,-1,636070,219236,1189161,65929,7517,593941,2
17,-1,637654,218886,1221098,65889,7133,610170,0
17,2,712277,250770,1404970,74950,9130,701974,0
17,-1,637057,219931,1571435,66255,9007,784498,0
17,2,714711,250374,1564913,74585,9187,781907,0
17,-1,637071,219326,1296060,65954,8079,647674,0
17,2,715206,250062,1287869,74274,8850,643406,0
17,-1,638081,220428,1304471,66290,7766,651710,0
17,-1,639768,221148,1323249,66781,7819,660938,0
17,2,710661,247901,1385194,73578,9675,692139,0
17,-1,642186,219745,1335344,65918,8257,667259,0
17,2,712561,248819,1367276,73804,8295,683187,0
17,-1,644794,220200,1298188,66212,6614,648603,0
17,2,707836,247540,1278604,73933,8879,638867,0
17,-1,645313,221534,1347623,66717,8002,673151,0
17,-1,644689,219550,1336983,66010,7991,668034,0
17,2,707620,248743,1434688,74345,9567,716883,0
17,-1,641067,219932,1347753,65977,7722,673090,0
17,2,712489,249363,1378344,74505,9536,688775,0
17,-1,639917,219591,1279554,65884,7785,639187,0
17,2,740583,254981,1367849,78542,10510,683370,0
17,-1,640351,218948,1217191,65634,6961,608204,0
17,-1,640410,218727,1286989,65636,7148,642996,0
17,2,739090,253719,1395917,77615,10357,697466,0
17,-1,634034,219192,1299658,65227,7290,649284,0
18,-1,637005,218213,1198236,65534,7231,598623,0
18,2,711101,250308,1482410,74745,9798,740131,0
18,-1,632982,218153,1422107,65527,8009,710604,0
18,2,706443,248676,1316707,74137,9036,657833,0
18,-1,643823,220744,1313306,66242,8880,655564,0
18,-1,639824,219510,1251282,65988,7202,625077,2
18,-1,637100,218986,1244960,65919,8149,622052,0
18,2,730633,253588,1384392,77407,8885,691806,0
18,-1,632720,218672,1505119,65731,8456,752046,0
18,2,710914,249182,1469266,73988,8984,734125,0
18,-1,640839,220835,1333393,66640,8388,666081,0
18,2,712411,248715,1469009,73726,10733,733879,0
18,-1,638206,218720,1178781,65630,7046,589156,0
18,-1,666863,229006,1299178,68821,6891,649147,0
18,2,714491,249653,1407973,74336,9459,703253,0
18,-1,641053,219626,1242986,65956,7666,621029,0
18,2,712286,248458,1371411,73645,8637,685201,0
18,-1,647899,221689,1361379,66914,6873,679946,0
18,2,713400,248504,1442844,74211,9489,720933,0
18,-1,644032,220833,1208985,66292,7269,604038,0
18,-1,645526,220325,1293998,66447,8122,646345,0
18,2,712107,248271,1387423,74171,8364,693256,0
18,-1,643694,219599,1337906,65892,8761,668223,0
18,2,712132,249697,1530370,74689,10172,764568,0
18,-1,637250,218946,1337728,65643,7930,668379,0
18,2,717846,251190,1318243,75369,9240,658383,0
18,-1,670192,229670,1322377,69045,7515,660542,0
18,-1,646476,221425,1240140,66654,7260,619356,0
18,2,715613,249156,1448573,74320,9237,723631,0
18,-1,636597,220770,1173896,66009,6765,586239,0
19,-1,643630,221353,1289475,66860,7323,643929,0
19,2,703494,247896,1556307,73711,9517,777156,0
19,-1,637118,220926,1264596,66656,6788,631535,0
19,2,714959,248279,1331945,73968,9249,665506,0
19,-1,642475,220739,1215773,66473,6852,607098,0
19,-1,644655,221432,1304019,67041,7921,651110,2
19,-1,649355,221387,1390226,66952,9875,694080,0
19,2,712123,250657,1483340,74900,9140,740999,0
19,-1,636499,219134,1298062,65938,8174,648553,0
19,2,708492,248657,1443729,73805,8853,721389,0
19,-1,636879,219017,1383442,65806,7913,690742,0
19,2,711964,248998,1350131,73817,8509,674606,0
19,-1,664182,224253,1414289,69301,8962,705952,0
19,-1,639093,219392,1248840,65911,6425,624027,0
19,2,712681,248514,1434448,73649,9784,716740,0
19,-1,662431,224266,1288358,69252,8496,643524,0
19,2,716786,249212,1315402,74115,8614,657098,0
19,-1,645260,220525,1223376,66345,6737,611292,0
19,2,711041,248492,1431685,74215,9527,715402,0
19,-1,639184,219372,1314257,65770,8146,656676,0
19,-1,644093,219618,1337241,65984,8170,667959,0
19,2,710753,247941,1308960,73946,8453,654112,0
19,-1,642055,219146,1379060,65745,8634,688974,0
19,2,709276,248425,1256196,74158,9122,627552,0
19,-1,638401,219231,1175703,65771,7162,587383,0
19,2,712866,249943,1459772,74598,8593,729450,0
19,-1,641581,218563,1330074,65501,8484,664472,0
19,-1,641090,219083,1238387,65740,7327,618672,0
19,2,714246,249252,1466337,74356,8892,732681,0
19,-1,636731,220730,1166880,65957,6210,582809,0
20,-1,659386,223500,1315578,69086,7846,657245,0
20,2,708590,247946,1394837,73753,8974,696963,0
20,-1,661481,223178,1273294,68999,8808,636038,0
20,2,715210,249966,1257805,74496,8636,628307,0
20,-1,640745,219468,1243078,65814,6689,621183,0
20,-1,662608,223325,1194073,69206,8598,596493,0
20,2,710491,248828,1418071,74031,8977,708578,0
20,-1,647008,221153,1349537,66930,7337,673782,2
20,-1,635459,218970,1261549,65888,7560,630366,0
20,2,712750,250247,1463680,74558,9745,731119,0
20,-1,637866,219814,1384028,66099,7746,692025,0
20,2,709017,249409,1293442,74091,8638,646315,0
20,-1,641174,219354,1446784,65942,7816,723354,0
20,-1,638567,219564,1211749,66000,7097,605386,0
20,2,713554,249008,1316325,73933,8779,657572,0
20,-1,641720,219780,1254803,65968,7348,626933,0
20,2,712450,248834,1441924,73881,8218,720227,0
20,-1,644943,220643,1306772,66284,7099,652952,0
20,2,716347,249917,1362083,74941,9153,680417,0
20,-1,640610,219827,1189339,65886,7104,594186,0
20,-1,641393,219233,1257682,65950,7579,628146,0
20,2,731405,252978,1436897,77505,9400,718057,0
20,-1,646094,221265,1405170,66763,8161,701797,0
20,2,711086,249569,1339754,74496,9439,669354,0
20,-1,640754,220880,1290622,66571,8398,644381,0
20,2,728808,253034,1486155,77408,10224,742524,0
20,-1,641152,218894,1221002,65654,8110,610065,0
20,-1,638710,218463,1284920,65494,7464,642025,0
20,2,714754,248605,1483454,74114,10016,741479,0
20,-1,629928,218620,1217662,65056,6302,608456,0
20,2,709499,247487,1318454,73859,8573,658788,0
21,-1,636135,218665,1341699,65687,6707,670320,0
21,2,711834,250017,1397924,74686,9365,698113,0
21,-1,640715,218697,1282490,65774,8545,640624,0
21,2,716060,249968,1406294,74710,8762,702233,0
21,-1,642578,221149,1274738,66678,6935,636423,0
21,-1,641066,218659,1186390,65801,7717,592626,0
21,2,707082,248180,1386101,73773,8980,692618,0
21,-1,640006,219602,1231963,66163,7553,615434,2
21,-1,636492,219487,1320770,66095,7844,659870,0
21,2,714098,250990,1514290,74863,9427,756336,0
21,-1,635939,219288,1331978,65841,7923,665594,0
21,2,714370,249530,1475210,74047,8993,737158,0
21,-1,642272,219730,1340556,66010,7492,669895,0
21,-1,641183,220709,1264951,66497,6799,631768,0
21,2,713630,248948,1341057,73835,9371,670147,0
21,-1,640310,220194,1315987,66404,7425,657359,0
21,2,709904,248439,1393619,73702,8539,696328,0
21,-1,645991,220261,1250955,66235,7241,625023,0
21,2,712222,249778,1353565,74841,8944,676101,0
21,-1,640844,220204,1275807,66148,7711,637434,0
21,-1,638766,218727,1296071,65640,8022,647626,0
21,2,710182,248290,1356137,74115,7894,677528,0
21,-1,643551,219927,1351329,66047,8555,675215,0
21,2,708383,249028,1325264,74411,9781,662081,0
21,-1,636047,218757,1210238,65563,7233,604726,0
21,2,715855,249517,1400983,74389,9545,700042,0
21,-1,645022,220781,1274133,66540,7891,636255,0
21,-1,646076,220917,1189729,66527,7311,594117,0
21,2,737549,253767,1484511,77643,9981,741578,0
21,-1,629763,218912,1217627,65148,6141,608348,0
21,2,709929,248781,1305023,74394,8262,651964,0
22,-1,641167,220904,1280884,66535,6931,639709,0
22,2,708406,248963,1405729,74294,8862,702123,0
22,-1,641955,218927,1212479,65792,8113,605677,0
22,2,709793,247736,1371232,73705,8302,685061,0
22,-1,645832,220873,1488814,66585,9774,743376,0
22,-1,642944,219508,1198037,66140,6566,598470,0
22,2,712498,250222,1458381,74676,9050,728565,0
22,-1,633985,219151,1187279,66011,7380,593063,2
22,-1,661464,227997,1376256,68523,8479,687459,0
22,2,709153,249652,1524700,74161,9635,761915,0
22,-1,642331,221537,1303884,66926,8319,651306,0
22,2,710956,249487,1419331,74162,10028,709186,0
22,-1,644239,220984,1357763,66636,8094,677859,0
22,-1,636658,219308,1261888,65877,6560,630568,0
22,2,711447,248492,1327797,73580,9421,663412,0
22,-1,642098,219841,1192742,66147,7527,595963,0
22,2,732463,253006,1412930,77028,8939,705969,0
22,-1,645658,221017,1274823,66528,7050,636961,0
22,2,714098,249086,1444184,74430,9815,721644,0
22,-1,638493,219180,1315828,65747,7748,657461,0
22,-1,664396,224513,1266947,69439,7671,632877,0
22,2,708828,248357,1413036,74108,8344,706049,0
22,-1,640728,219436,1337325,65914,7592,668196,0
22,2,717575,249178,1431707,74478,10516,715287,0
22,-1,638994,220351,1353905,66328,8013,676234,0
22,2,712890,249713,1427148,74487,9265,713108,0
22,-1,661652,223861,1268851,69036,7888,633937,0
22,-1,660645,223338,1298485,68890,7552,648758,0
22,2,714091,248591,1265301,74100,8792,632174,0
22,-1,651703,221428,1382456,66678,7449,690493,0
22,2,709335,248409,1337566,74243,9254,667987,0
23,-1,638813,218584,1171702,65584,6827,585421,0
23,2,706202,248531,1442331,73943,8447,720632,0
23,-1,639177,218333,1168303,65612,7037,583599,0
23,2,711246,248644,1405886,74100,8835,702640,0
23,-1,644984,220331,1475441,66220,9123,736148,0
23,-1,640620,219033,1187888,65931,6521,593474,0
23,2,711273,250085,1448306,74659,8795,723525,0
23,-1,640997,221586,1319281,67056,8502,658662,0
23,-1,639140,221771,1405119,67178,9382,701421,2
23,2,709706,248685,1560222,73799,10720,779520,0
23,-1,640357,219298,1362901,65945,8502,680785,0
23,2,731755,254276,1395812,77475,10139,697349,0
23,-1,639823,219003,1221008,65849,7248,610122,0
23,-1,640104,220046,1262121,66156,6601,630529,0
23,2,715291,248447,1485304,73557,9342,742273,0
23,-1,641467,219568,1309801,65915,7978,654544,0
23,2,715240,250450,1424937,74579,8554,711570,0
23,-1,642870,220570,1280937,66352,6831,640017,0
23,2,708537,247598,1314541,73889,9007,656795,0
23,-1,640093,219991,1278138,66073,8300,638465,0
23,-1,639547,218949,1670330,65816,9300,834651,0
23,2,708626,248388,1306664,74053,8233,652875,0
23,-1,640306,219420,1239585,65884,7998,619128,0
23,2,736185,253600,1501791,77790,11332,750344,0
23,-1,635401,219330,1297371,65807,7393,648235,0
23,2,717587,251584,1271675,75339,8644,635052,0
23,-1,640385,219459,1304669,65838,7707,651852,0
23,-1,640424,219147,1161981,65686,7073,580423,0
23,2,714882,248611,1463796,74089,10165,731453,0
23,-1,666734,223574,1295176,68904,7548,647138,0
23,2,709328,247950,1415192,74086,9382,707169,0
24,-1,637865,218953,1255229,65724,7415,627225,0
24,2,706258,247731,1322440,73732,7964,660627,0
24,-1,641068,218937,1270964,65882,8034,634977,0
24,2,730941,253049,1516471,77310,9434,757746,0
24,-1,643663,219722,1209233,65920,7156,604212,0
24,-1,644300,220829,1333112,66827,7323,665633,0
24,2,729600,253867,1340736,77465,8800,669943,0
24,-1,655331,223586,1227580,69229,8305,613442,0
24,-1,636076,219968,1250912,66274,7341,624733,2
24,2,716426,250741,1675168,74740,11400,836247,0
24,-1,641828,220335,1306694,66404,7889,652458,0
24,2,710281,249741,1692492,74222,11073,845740,0
24,-1,642199,220769,1327011,66703,7837,662224,0
24,-1,636900,219235,1207927,65867,6720,603451,0
24,2,715661,249447,1401768,73899,9626,700452,0
24,-1,641231,219806,1227332,66101,7263,613245,0
24,2,715194,250375,1253082,74648,8509,625820,0
24,-1,663202,224497,1187261,69419,8110,593173,0
24,2,715851,250065,1643381,75012,11017,820539,0
24,-1,659309,224226,1346377,69292,8521,672650,0
24,-1,641547,219897,1198239,66140,7424,598631,0
24,2,712573,250369,1299910,75087,8970,649144,0
24,-1,641883,219261,1322889,65789,8410,660917,0
24,2,720702,249955,1409625,74824,10671,704362,0
24,-1,644830,219039,1350960,65668,7864,674938,0
24,2,732684,254220,1359139,77725,9378,679028,0
24,-1,639120,218633,1237385,65518,7685,618206,0
24,-1,641184,219844,1261144,65959,8041,630105,0
24,2,714280,249611,1452446,74603,9217,725519,0
24,-1,644452,218873,1257888,65597,6106,628491,0
24,2,707457,248249,1335081,74093,8333,667109,0
25,-1,636519,218612,1170030,65657,6909,584526,0
25,2,708595,249252,1421041,74380,8745,709760,0
25,-1,638033,218237,1174733,65580,7169,586873,0
25,2,712850,248549,1553594,74070,10171,776345,0
25,-1,660574,223692,1271963,69049,7903,635514,0
25,-1,640450,218559,1264364,65729,7365,631716,0
25,2,709537,249165,1270443,74123,8741,634799,0
25,-1,631764,218361,1279539,65643,8081,639374,0
25,2,711075,249645,1559822,74261,9152,779426,0
25,-1,636601,219689,1140965,66095,6705,570021,2
25,-1,641541,220477,1258359,66355,7715,628676,0
25,2,710509,249674,1264467,74180,9100,631774,0
25,-1,660404,224426,1331257,69390,8271,665463,0
25,-1,658814,224124,1271928,69224,7584,635521,0
25,2,713696,249121,1386042,73805,10128,692471,0
25,-1,641796,219894,1219582,66093,6867,609405,0
25,2,713553,248261,1335014,73692,9443,666976,0
25,-1,646248,220820,1211557,66415,8235,605327,0
25,2,732418,253140,1465671,77581,10143,732279,0
25,-1,641819,220356,1216186,66204,7887,607606,0
25,-1,641394,219087,1289184,65831,8103,644197,0
25,2,711961,248273,1363576,74117,9066,681307,0
25,-1,662437,224397,1420079,69251,9151,709049,0
25,2,718135,249258,1458635,74524,10513,728835,0
25,-1,667220,224173,1247291,69187,8338,623151,0
25,2,713763,249867,1354717,74466,9091,676925,0
25,-1,639532,218896,1296451,65650,7929,647765,0
25,-1,659838,223778,1300841,69030,7712,649855,0
25,2,713470,248884,1500512,74255,10230,749773,0
25,-1,642292,218178,1163285,65250,6035,581292,0
25,2,727047,252504,1438951,77377,9462,718994,0
26,-1,657109,223348,1298448,68897,7959,648720,0
26,2,705022,247325,1396035,73469,8196,697537,0
26,-1,641803,218558,1405856,65687,9250,702460,0
26,2,708598,248463,1628090,73961,9749,813497,0
26,-1,640479,219314,1241749,65865,7200,620283,0
26,-1,640693,219209,1202303,66041,7597,600610,0
26,2,708900,249807,1487212,74536,9342,743003,0
26,-1,638343,220265,1300166,66535,7801,649362,0
26,2,707947,248133,1379862,73680,8785,689472,0
26,-1,639047,221356,1269354,66914,7534,633799,2
26,-1,660386,224148,1180256,69384,7307,589451,0
26,2,713758,251873,1364207,75288,10277,681228,0
26,-1,642291,219875,1309567,66102,7781,654251,0
26,-1,635921,219396,1325948,65957,7250,662522,0
26,2,714330,249242,1386688,73804,9642,692947,0
26,-1,660803,224237,1392301,69319,7657,695650,0
26,2,712963,247793,1447087,73444,8708,722949,0
26,-1,647180,221697,1334858,66839,7928,666735,0
26,2,707831,248209,1306468,74188,9676,652762,0
26,-1,641336,220636,1289802,66225,8262,644450,0
26,-1,640632,219484,1249873,65937,7699,624396,0
26,2,707408,247911,1364022,74030,8480,681607,0
26,-1,640450,219250,1440758,65851,9117,719250,0
26,2,734163,253175,1505359,77569,10935,752165,0
26,-1,643001,218916,1276488,65686,8029,637811,0
26,2,715581,250984,1265367,75002,8823,632043,0
26,-1,640838,219681,1414395,65942,9014,706325,0
26,-1,641689,218420,1224008,65404,7306,611583,0
26,2,718035,249285,1503556,74405,10103,751274,0
26,-1,645679,219437,1300932,65761,6812,650042,0
26,2,706808,248746,1398020,74391,8410,698566,0
27,-1,635852,218513,1255971,65551,7383,627553,0
27,2,706115,248334,1658882,73899,10129,828869,0
27,-1,648445,221816,1301302,67028,8229,649718,0
27,2,710754,248380,1399430,74005,9248,699161,0
27,-1,641272,219287,1203123,65888,8061,601064,0
27,-1,640084,219389,1260364,66027,7007,629718,0
27,2,706458,248708,1336791,73958,8624,667906,0
27,-1,634554,218722,1297608,65819,7330,648420,0
27,2,710491,249208,1330606,74058,8733,664849,0
27,-1,635777,219411,1207830,66011,7027,603407,2
27,-1,640528,220279,1181027,66220,7271,590047,0
27,2,711553,250942,1616613,74779,10126,807677,0
27,-1,642275,219862,1348130,66085,7419,673625,0
27,-1,637920,219437,1154434,65962,7200,576798,0
27,2,715379,249770,1358100,74196,10269,678330,0
27,-1,638368,219289,1296553,65926,7509,647744,0
27,2,709841,248061,1365834,73634,9135,682373,0
27,-1,643810,220216,1171714,66101,7076,585381,0
27,2,709140,249441,1560001,73764,9936,779498,0
27,-1,644565,221791,1292546,66873,8087,645069,0
27,-1,639780,219376,1424931,65993,9236,711825,0
27,2,706735,247258,1436530,73768,8920,717794,0
27,-1,638579,218923,1268029,65695,8201,633662,0
27,2,717306,250439,1449757,75307,10408,724028,0
27,-1,641892,218854,1175634,65600,7348,587408,0
27,2,713286,250052,1313214,74607,9010,655850,0
27,-1,639681,219625,1168087,65908,7480,583747,0
27,-1,647512,221680,1193343,66894,6962,595744,0
27,2,715748,249660,1392110,74504,8609,695594,0
27,-1,651328,221296,1203879,66575,6792,601230,0
27,2,710789,247947,1468699,74066,8900,733875,0
28,-1,635243,218506,1170044,65630,6655,584495,0
28,2,704304,248479,1297785,73855,8447,648266,0
28,-1,639437,219085,1327263,65881,6981,662946,0
28,2,712321,249775,1438617,74734,9068,718302,0
28,-1,639125,218703,1281934,65749,7342,640426,0
28,-1,640898,219026,1276258,65966,8006,637604,0
28,2,706548,248761,1365451,73975,8673,682240,0
28,-1,632822,219149,1172318,65916,7440,585698,0
28,2,707626,248677,1449935,73788,8986,724461,0
28,-1,638079,219765,1283255,66072,7767,641085,2
28,-1,640749,220835,1322866,66628,8308,660646,0
28,2,719294,250252,1682955,74246,11183,841027,0
28,-1,637195,218748,1263417,65733,6847,631237,0
28,-1,638496,219973,1172527,66172,6978,585789,0
28,2,712545,249202,1297593,73821,9149,648566,0
28,-1,640926,220285,1228311,66229,7309,613637,0
28,2,711651,247897,1403174,73544,9399,701135,0
28,-1,642148,219650,1288646,65965,7208,643989,0
28,2,706332,247708,1359939,73128,8373,679595,0
28,-1,640951,220661,1298483,66292,8493,648731,0
28,-1,641036,220315,1287852,66485,7920,643240,0
28,2,729821,252789,1427900,77428,9998,713520,0
28,-1,645402,220972,1295971,66572,8294,647351,0
28,2,710451,247494,1524217,73801,9828,761455,0
28,-1,642857,218693,1321011,65548,8198,660013,0
28,2,714629,250018,1251853,74579,8165,625429,0
28,-1,641048,218900,1208334,65619,7351,603759,0
28,2,735982,253924,1466241,77661,10294,732592,0
28,-1,688736,232920,1313889,71742,7781,656407,0
28,-1,645126,219257,1260604,65700,6638,629819,0
28,2,713272,250056,1435040,75177,9538,716711,0
29,-1,656142,226356,1310940,67924,7513,654675,0
29,2,730565,252656,1419217,77087,9848,709166,0
29,-1,637768,218257,1243748,65613,7219,621356,0
29,2,705163,247341,1390270,73677,8477,694617,0
29,-1,640013,219351,1424901,65962,9122,711897,0
29,-1,642641,219793,1452918,66180,9244,725874,0
29,2,709759,251076,1412223,75028,8888,705362,0
29,-1,657427,224540,1360176,69519,8138,679525,0
29,2,729492,253687,1450834,77280,10403,724904,0
29,-1,640726,219618,1173346,66092,7257,586136,0
29,-1,636771,219180,1150784,65881,6719,574896,2
29,2,714531,249423,1417744,73987,9507,708454,0
29,-1,639403,219721,1252029,66047,6863,625528,0
29,-1,638749,220770,1267432,66704,7117,632800,0
29,2,714010,249430,1295272,73899,8980,647147,0
29,-1,636533,219144,1297263,65833,7458,648165,0
29,2,712042,248966,1616680,73852,9950,807887,0
29,-1,641696,220219,1276928,66252,7400,637975,0
29,2,711256,250432,1322509,74358,8691,660471,0
29,-1,639393,220195,1299096,66085,8227,648959,0
29,-1,639225,219433,1138004,65974,6894,568503,0
29,2,706487,247599,1380624,73905,8694,689914,0
29,-1,639845,219615,1235724,65896,8513,617291,0
29,2,709903,248568,1337532,74083,9120,668264,0
29,-1,647865,220895,1285875,66483,7892,642312,0
29,2,710708,248903,1324241,74148,8693,661647,0
29,-1,639781,219007,1318590,65662,7373,658781,0
29,2,714352,249097,1424664,74255,8633,711910,0
29,-1,639727,219006,1249743,65702,6994,624426,0
29,-1,644210,219030,1189421,65642,6587,594177,0
29,2,706970,248052,1298658,74202,8271,648836,0
30,-1,670199,231148,1146329,68770,6973,572675,0
30,2,708692,247914,1449526,73709,8949,724285,0
30,-1,637704,218128,1148302,65489,7089,573734,0
30,2,712301,249948,1333746,74712,9241,666143,0
30,-1,642261,220813,1299979,66704,7820,649066,0
30,-1,643588,220794,1277023,66815,7311,637601,0
30,2,715171,249961,1410263,74588,9427,704550,0
30,-1,633382,219124,1386306,65989,7349,692682,0
30,2,734244,253793,1339897,77284,9149,669492,0
30,-1,639150,219404,1315259,65941,7657,657059,0
30,2,716458,249739,1322895,74229,9421,660910,0
30,-1,635313,219728,1278916,66068,7195,638938,2
30,-1,640044,219518,1172362,65994,6796,585803,0
30,-1,637804,220830,1186084,66608,6994,592256,0
30,2,711324,248609,1473449,73596,9081,736302,0
30,-1,641595,219875,1238097,66109,8577,618396,0
30,2,717362,250475,1541152,74631,10627,769202,0
30,-1,640297,219802,1246940,66126,7055,623021,0
30,2,705291,247937,1315575,73130,8304,657373,0
30,-1,644838,221379,1283127,66704,8504,640849,0
30,-1,638308,219504,1189764,66035,7269,594452,0
30,2,709027,248368,1382063,74183,8230,690643,0
30,-1,645877,222546,1342161,67215,8781,669862,0
30,2,709630,248671,1437576,74115,9240,718402,0
30,-1,647825,221354,1243139,66709,8229,620702,0
30,2,715131,250482,1335299,74786,8588,667178,0
30,-1,642534,220539,1254642,66396,7176,626637,0
30,2,715115,249315,1407452,74391,9221,703239,0
30,-1,637820,218267,1169190,65412,7008,584249,0
30,-1,667862,223636,1272763,68909,8208,635751,0
30,2,708713,249088,1306308,74562,8232,652632,0
31,-1,681932,235318,1251503,70160,7908,625307,0
31,2,714307,250059,1466669,74620,8935,732827,0
31,-1,636154,217968,1192325,65477,6660,595675,0
31,2,707797,248698,1274826,74102,8522,636777,0
31,-1,640601,219298,1205051,65855,7296,602058,0
31,2,711454,248835,1389845,74026,8435,694620,0
31,-1,661745,224019,1252763,69372,7787,625920,0
31,-1,636135,220675,1311074,66666,7306,654894,0
31,2,710545,248821,1390325,73943,8258,694749,0
31,-1,656499,223559,1260708,69181,7979,629883,0
31,2,721299,251883,1466452,75076,9567,732439,0
31,-1,637964,220308,1268481,66306,6533,633800,2
31,-1,643680,221369,1276463,66890,6761,637407,0
31,-1,643042,219383,1145701,65895,7288,572414,0
31,2,710990,248729,1409599,73682,9488,704315,0
31,-1,642175,220495,1308573,66506,8127,653668,0
31,2,712521,248175,1356914,73678,8648,677988,0
31,-1,643109,220722,1258851,66571,7264,628733,0
31,2,705414,248366,1644704,73365,10486,821724,0
31,-1,637019,219651,1214701,65873,7575,606936,0
31,-1,638657,218766,1299732,65588,7808,649501,0
31,2,707559,248236,1237544,74146,8561,618288,0
31,-1,642357,219188,1392832,65761,7925,696080,0
31,2,715627,249383,1366011,74393,8783,682596,0
31,-1,642461,219284,1213907,65745,7673,606471,0
31,2,710342,249457,1450779,74463,9508,725211,0
31,-1,640909,219225,1402331,65735,8524,700722,0
31,2,710700,248914,1390308,74312,9539,694674,0
31,-1,645201,220270,1360930,66284,8473,679822,0
31,-1,647359,220617,1152062,66326,6793,575346,0
31,2,706149,247421,1332794,74021,8675,665963,0
32,-1,685478,236068,1288632,70286,7412,643947,0
32,2,708832,247472,1485745,73478,9222,742618,0
32,-1,645398,221814,1363100,67023,7261,680770,0
32,2,708493,248473,1333919,74001,8340,666350,0
32,-1,639304,219743,1224723,65930,7353,611811,0
32,2,709882,249051,1427439,74115,8590,713181,0
32,-1,643354,220432,1436505,66459,9523,717504,0
32,-1,636652,218760,1177525,65851,6191,588308,0
32,2,710550,248819,1353796,73840,8784,676490,0
32,-1,638519,219732,1317640,66069,7041,658327,0
32,2,719265,250663,1267615,74420,8729,633424,0
32,-1,637906,219515,1170523,66058,7058,584711,2
32,-1,659473,224193,1233386,69331,7440,616181,0
32,2,714922,250623,1478225,74537,9599,738509,0
32,-1,647894,221223,1206393,66857,8125,602338,0
32,-1,639674,219619,1349479,65908,7517,674285,0
32,2,711005,247827,1416830,73524,9355,708024,0
32,-1,638838,219559,1190750,66002,6748,594875,0
32,2,713443,251072,1342614,74559,9119,670444,0
32,-1,649633,221100,1324705,66352,8330,661994,0
32,-1,645360,220941,1275228,66667,8334,636930,0
32,2,706525,248264,1293997,74106,8909,646610,0
32,-1,640213,218689,1347240,65632,8084,673069,0
32,2,713795,248569,1409317,74124,9230,704088,0
32,-1,663671,224424,1319795,69159,8184,659513,0
32,2,714411,251478,1409916,75368,10226,703733,0
32,-1,641091,219630,1365794,65978,9692,681821,0
32,2,710534,248945,1322553,74358,8879,660640,0
32,-1,641400,219229,1429917,65746,7744,714353,0
32,-1,644808,219422,1190021,65691,7146,594543,0
32,2,706513,248076,1421750,74192,8796,710393,0
33,-1,702847,240383,1403470,71978,8379,700953,0
33,2,715492,250158,1576506,74604,10247,787576,0
33,-1,659305,223377,1308538,69087,8372,653788,0
33,2,732080,252638,1310526,77201,10825,654726,0
33,-1,637269,219224,1207588,65762,7258,603433,0
33,-1,646324,220582,1297488,66656,8218,648048,0
33,2,706978,248110,1389017,73762,8036,694068,0
33,-1,645786,219071,1281301,65929,7125,640333,0
33,2,709580,248994,1413459,74066,8751,705958,0
33,-1,636533,219335,1187784,65991,6597,593369,0
33,2,715471,249724,1350774,74062,9548,674857,0
33,-1,636902,219677,1132814,66113,7104,565966,2
33,-1,638221,219227,1294702,65935,6947,646851,0
33,2,711164,249427,1545903,73878,9019,772380,0
33,-1,663272,223822,1183278,69133,8135,591060,0
33,-1,640091,220064,1284523,66150,7635,641832,0
33,2,710618,248299,1464916,73707,9274,731987,0
33,-1,636179,218872,1249117,65684,7394,624218,0
33,2,705584,248361,1401817,73334,9040,700478,0
33,-1,648683,220411,1284563,66179,7943,641813,0
33,-1,641848,219869,1303747,66039,8202,651329,0
33,2,709070,248520,1399088,74225,9353,699106,0
33,-1,641709,219581,1147287,65947,7344,573058,0
33,2,732041,252912,1442970,77322,9713,720998,0
33,-1,642079,219848,1381811,65912,8134,690386,0
33,2,717752,249981,1449800,74594,9731,724444,0
33,-1,637938,218597,1230481,65537,8033,614839,0
33,2,719881,249705,1428012,74591,8920,713573,0
33,-1,640191,218854,1365687,65589,7825,682581,0
33,-1,643999,219352,1204650,65696,6750,601845,0
33,2,727362,253118,1444660,77687,9625,721810,0
34,-1,714940,241956,1358555,74004,8944,678806,0
34,2,710989,248598,1390761,73942,8507,694876,0
34,-1,640358,218330,1296041,65644,8064,647477,0
34,2,712081,249223,1329231,74234,8752,664157,0
34,-1,641362,219363,1266345,65878,7572,632668,0
34,-1,640218,218606,1163271,65777,7007,580854,0
34,2,708891,248336,1285399,73807,8650,642239,0
34,-1,646328,219566,1306685,66138,7515,652772,0
34,2,708586,249833,1412898,74349,8431,705940,0
34,-1,639500,220493,1306577,66463,7956,652532,0
34,2,713405,249880,1701220,74157,9996,849368,0
34,-1,638120,219567,1310092,66004,7219,654728,0
34,-1,640922,220059,1312474,66251,7624,655712,2
34,2,719148,250696,1448927,74637,9178,723625,0
34,-1,642948,219924,1185461,66105,7503,592249,0
34,-1,643528,221850,1290107,66952,8203,644232,0
34,2,709797,248867,1295246,73945,8645,647072,0
34,-1,640786,219166,1297033,65721,7456,647769,0
34,2,703039,247868,1425003,73153,9233,712010,0
34,-1,651967,222015,1334324,66851,8270,666416,0
34,-1,639180,219317,1380729,65868,8005,689993,0
34,2,729629,253005,1440366,77555,10329,719800,0
34,-1,640453,219145,1344279,65873,7589,671636,0
34,2,710319,248695,1403601,74176,9374,701358,0
34,-1,642427,219022,1191469,65582,7721,595345,0
34,2,717746,250398,1388292,74737,9640,693523,0
34,-1,642773,220927,1209118,66544,7634,603787,0
34,2,716262,249252,1402433,74440,9381,700811,0
34,-1,641854,219344,1345154,65769,9116,671451,0
34,-1,647431,221109,1206292,66565,6698,602446,0
34,2,706570,248412,1257030,74384,8800,628058,0
35,-1,693947,237603,1334955,70859,8224,666999,0
35,2,707438,247524,1292223,73572,7865,645698,0
35,-1,638966,219038,1216979,65848,7331,608053,0
35,2,710485,248302,1379978,73947,8862,689485,0
35,-1,643246,220042,1290556,65999,6897,644859,0
35,-1,639594,218628,1269696,65804,7363,634340,0
35,2,708242,248507,1315849,73847,8638,657462,0
35,-1,645967,219558,1195162,66105,7090,597198,0
35,2,708347,248778,1308698,73996,8000,653858,0
35,-1,634810,219141,1166220,65919,6576,582604,0
35,2,714933,250721,1403816,74470,8850,701287,0
35,-1,640988,219798,1175968,66110,7726,587472,0
35,-1,637836,219484,1208411,66045,7149,603605,2
35,2,713557,248949,1351930,73775,9252,675382,0
35,-1,642200,219311,1241870,65924,7619,620576,0
35,-1,637689,219474,1271065,65862,7417,635049,0
35,2,707837,247770,1280482,73486,8323,639770,0
35,-1,646044,221388,1357807,66664,7681,677729,0
35,2,712477,250326,1303872,74267,8377,651321,0
35,-1,645927,220201,1412207,66088,9489,705393,0
35,-1,641038,220160,1382233,66266,8722,690378,0
35,2,708893,249543,1317435,74792,8870,658131,0
35,-1,645360,220948,1429820,66633,8168,714237,0
35,2,711485,248202,1336060,74028,8906,667543,0
35,-1,643897,219175,1294378,65630,8172,646709,0
35,2,717089,250792,1363884,75078,9412,680675,0
35,-1,661781,224529,1205278,69289,8478,602106,0
35,2,715747,249257,1399570,74508,9332,699307,0
35,-1,638295,218508,1288311,65493,7301,643737,0
35,-1,640150,218522,1313474,65429,6622,656276,0
35,2,706218,247244,1305684,73956,9274,652330,0
36,-1,695846,239590,1345123,71783,8254,671707,0
36,2,711190,249458,1407034,74450,8688,702765,0
36,-1,637998,218898,1121942,65822,6656,560493,0
36,2,710617,248660,1441189,74063,9970,720094,0
36,-1,638532,219087,1185390,65901,7873,592177,0
36,-1,663033,223665,1223863,69298,8803,611422,0
36,2,711615,250418,1344238,74833,9350,671309,0
36,-1,649038,220991,1270291,66860,8029,634438,0
36,2,707384,248657,1277537,73906,8110,638320,0
36,-1,636167,219503,1292615,65970,7712,645825,0
36,2,716844,249378,1504115,73971,9810,751606,0
36,-1,639214,219339,1167223,65918,7011,583172,0
36,2,716630,250352,1390284,74621,10408,694174,0
36,-1,646019,220844,1337216,66614,7650,667952,0
36,-1,644514,221465,1316533,66799,7341,657671,2
36,-1,637054,219503,1303810,65847,7897,651771,0
36,2,708668,248102,1342501,73586,8681,670725,0
36,-1,641726,220016,1322617,65966,8183,659761,0
36,2,706500,248546,1385958,73479,8719,692512,0
36,-1,669124,225016,1236321,69417,8661,617636,0
36,-1,641029,219461,1373863,65950,8973,686074,0
36,2,707867,248159,1377817,74097,9456,688509,0
36,-1,639523,219032,1248296,65839,6887,623716,0
36,2,709066,248153,1302539,73994,8675,650839,0
36,-1,650233,221901,1362090,66761,8133,680269,0
36,2,735579,254088,1486281,77866,10917,742051,0
36,-1,638873,219156,1219116,65758,8019,609003,0
36,2,735143,254502,1545345,77990,9777,772141,0
36,-1,665291,224572,1304217,69302,8421,651683,0
36,-1,642375,219157,1282973,65577,6438,641027,0
36,2,708280,248033,1328526,74248,8624,663844,0
37,-1,710545,241583,1377322,73978,8503,688204,0
37,2,729034,252633,1425706,77075,9486,712299,0
37,-1,640948,219822,1171681,66131,7066,585382,0
37,2,714907,250476,1616296,74933,10433,807162,0
37,-1,689486,233113,1423194,72045,8679,711039,0
37,-1,641369,219468,1267569,66121,7940,633313,0
37,2,713337,249753,1401336,74320,8278,700208,0
37,-1,665004,223788,1239490,69277,8456,619234,0
37,2,708873,248679,1273864,73949,8179,636388,0
37,-1,639336,219249,1247512,65903,6867,623329,0
37,2,719130,250743,1551416,74652,9725,775143,0
37,-1,637404,219563,1305228,65985,7263,652200,0
37,2,736097,254571,1499591,77504,10532,748517,0
37,-1,642154,219618,1282037,66046,7427,640597,0
37,-1,640936,220423,1254528,66162,7617,626763,0
37,-1,641431,220320,1314048,66169,7716,656445,2
37,2,709673,248762,1415523,73787,8546,707316,0
37,-1,640202,218990,1332582,65644,8388,665594,0
37,2,709071,249633,1326901,73994,8650,662867,0
37,-1,648294,220968,1303707,66233,7945,651329,0
37,-1,639104,219216,1265071,65791,7648,632097,0
37,2,708967,248413,1263711,74266,8589,631398,0
37,-1,664169,227584,1355391,68312,8183,677259,0
37,2,714740,248483,1307984,74107,8561,653553,0
37,-1,663537,223918,1276032,68982,8685,637507,0
37,2,716582,250576,1314900,75134,8836,656684,0
37,-1,639740,218759,1146524,65589,7428,572822,0
37,2,712871,249069,1466225,74460,9518,731226,0
37,-1,639876,219888,1212982,65987,6868,605975,0
37,-1,642769,219094,1274593,65648,6795,636906,0
37,2,706942,247960,1301133,74185,8928,650148,0
38,-1,691945,237747,1265086,70908,7593,632095,0
38,2,705101,247264,1375486,73467,8255,687249,0
38,-1,639392,219026,1292706,65870,8280,645764,0
38,2,706949,248281,1389731,74000,9236,693891,0
38,-1,640219,219273,1422857,66075,8745,710737,0
38,-1,638251,218767,1458402,65779,7412,728259,0
38,2,709225,249208,1432379,74093,8712,715719,0
38,-1,645397,219817,1317516,66213,7638,658401,0
38,2,708765,248147,1262592,73739,8251,630926,0
38,-1,644796,221719,1300425,67078,7853,649475,0
38,2,716272,250084,1509403,74260,9529,754279,0
38,-1,640440,219582,1338383,65978,7436,668708,0
38,2,711561,248636,1491679,73740,9895,745429,0
38,-1,643346,220801,1255630,66590,7053,627156,0
38,-1,637364,219187,1161172,65722,6861,580182,0
38,-1,638059,219717,1190231,65996,6680,594643,2
38,2,715734,249026,1396175,73953,9007,697525,0
38,-1,642345,219991,1324931,66056,7854,662036,0
38,2,706358,247875,1248099,73183,8620,623585,0
38,-1,646318,220414,1302529,66145,8114,650616,0
38,-1,638963,219106,1257666,65742,7924,628670,0
38,2,716790,249309,1283033,74696,9430,640812,0
38,-1,659488,223441,1213052,69057,7962,606059,0
38,2,711889,248306,1299961,74025,8305,649682,0
38,-1,642389,219261,1261449,65633,7414,630387,0
38,2,712891,249432,1323140,74475,9130,661132,0
38,-1,639433,219060,1217341,65705,8028,608091,0
38,2,716942,249908,1413520,74685,9370,706350,0
38,-1,640097,218830,1268119,65596,7054,633575,0
38,-1,640735,218311,1184549,65379,6554,591821,0
38,2,727813,252774,1565372,77522,10608,782227,0
39,-1,693115,237315,1335345,70733,8486,667221,0
39,2,713096,249550,1430254,74447,9127,714427,0
39,-1,637540,218523,1138087,65728,7710,568553,0
39,2,711844,249017,1330919,74171,8604,664915,0
39,-1,640715,219801,1205993,66136,7338,602352,0
39,-1,639416,218820,1269974,65860,7718,634473,0
39,2,709786,248799,1334888,73999,7895,666971,0
39,-1,642901,219042,1205592,65956,7792,602278,0
39,2,713990,250760,1313538,74893,8238,656024,0
39,-1,638072,219263,1301033,65959,6382,650116,0
39,2,717537,251545,1541975,74997,9359,770199,0
39,-1,639073,219395,1173451,65934,6913,586292,0
39,2,715923,249470,1392550,74064,10320,695587,0
39,-1,642216,219656,1169248,66036,6278,584125,0
39,-1,641566,221311,1303493,66652,7762,651044,0
39,-1,647322,221894,1336714,66931,8749,667657,2
39,2,714418,249569,1451484,74113,9481,725227,0
39,-1,638887,218711,1379135,65605,8090,689184,0
39,2,705077,248004,1317390,73282,9277,658197,0
39,-1,648074,221196,1302079,66587,8145,650499,0
39,-1,642423,221094,1329920,66671,8009,664094,0
39,2,715380,250301,1328324,75092,9015,663413,0
39,-1,639009,219436,1289992,65955,7566,644510,0
39,2,716173,250299,1451115,74976,9393,724747,0
39,-1,641677,219531,1409222,65786,8088,704077,0
39,2,714312,250174,1416496,74785,9615,707794,0
39,-1,643526,220856,1201130,66473,7238,600055,0
39,2,712818,249123,1307632,74485,8889,653340,0
39,-1,641994,219196,1242914,65752,7227,621002,0
39,-1,643221,219816,1276599,66032,6512,637668,0
39,2,704495,247898,1375356,74241,8915,687175,0
40,-1,692248,237394,1237161,70799,8213,617999,0
40,2,708396,247986,1461176,73697,9492,730129,0
40,-1,635881,218488,1259571,65584,7042,629404,0
40,2,709141,248948,1405528,74076,8842,702261,0
40,-1,644507,221526,1292144,66930,7797,645361,0
40,-1,640772,219271,1267706,66048,7279,633316,0
40,2,709636,249019,1350238,74045,8016,674725,0
40,-1,641622,219157,1276367,66009,7805,637746,0
40,2,729116,253367,1300683,77289,9419,649832,0
40,-1,638734,219901,1260971,66098,6875,630057,0
40,2,714155,249378,1463933,73958,9504,731219,0
40,-1,637867,219281,1170197,65896,6765,584668,0
40,2,711267,249141,1459398,74167,9582,728930,0
40,-1,640100,219102,1311470,65807,6605,655288,0
40,-1,659177,224371,1231997,69234,8139,615564,0
40,-1,640713,219904,1159643,66033,6959,579313,2
40,2,715813,249514,1374518,74269,9215,686565,0
40,-1,661754,224351,1282335,69284,7679,640667,0
40,2,702784,248019,1272445,73320,8610,635678,0
40,-1,649223,221202,1325541,66299,8401,662309,0
40,-1,656396,223401,1281457,68959,8796,640218,0
40,2,711300,247813,1387876,73958,8591,693474,0
40,-1,636611,218614,1294377,65647,7808,646734,0
40,2,711885,248657,1445416,74165,8299,722204,0
40,-1,646280,221721,1370404,66673,8236,684522,0
40,2,714269,249306,1406276,74462,9255,702800,0
40,-1,638604,218606,1336942,65554,7650,668032,0
40,2,714920,250023,1502196,74639,9445,750625,0
40,-1,640018,218446,1466556,65433,8491,732832,0
40,-1,642682,219264,1400310,65721,7880,699621,0
40,2,711959,250190,1408409,75235,9221,703472,0
41,-1,695387,239031,1354870,71495,8372,676626,0
41,2,707409,247810,1495055,73648,10574,747085,0
41,-1,638272,219227,1167783,65917,6850,583341,0
41,2,710419,248437,1366384,73922,8825,682785,0
41,-1,638304,219142,1166781,65953,7003,582890,0
41,-1,640090,219107,1194439,65895,6766,596655,0
41,2,705300,248410,1287391,73842,8143,643305,0
41,-1,643788,219942,1250447,66251,7852,624748,0
41,2,708930,249040,1228830,74103,8113,613957,0
41,-1,638007,219645,1208893,66070,6972,603960,0
41,2,714429,250156,1619348,74250,9967,809161,0
41,-1,637015,219914,1260685,66143,6952,629945,0
41,2,711440,249460,1331748,74113,9940,665343,0
41,-1,639267,219029,1176444,65812,6566,587826,0
41,-1,637972,220045,1269806,66027,7951,634410,0
41,2,710951,248574,1502275,73782,9699,750676,0
41,-1,638072,220232,1235745,66155,7380,617397,2
41,-1,645031,221552,1310298,66801,7729,654386,0
41,2,703671,248443,1308109,73402,8771,653628,0
41,-1,650322,222214,1378505,66970,8671,688505,0
41,-1,641498,219895,1319371,65969,8105,659170,0
41,2,711717,248318,1491004,74119,8733,744975,0
41,-1,643029,219539,1390312,65952,7407,694609,0
41,2,712966,248300,1391959,74043,9066,695506,0
41,-1,644671,219797,1287792,65750,8115,643422,0
41,2,732201,253876,1492134,77819,10729,745659,0
41,-1,641586,220451,1314562,66395,7271,656406,0
41,2,733197,254094,1553521,77717,10652,776219,0
41,-1,663374,224320,1225050,69215,7357,612055,0
41,-1,643930,218887,1261572,65554,7272,630386,0
41,2,713404,247499,1424050,74040,8909,711541,0
42,-1,688267,236522,1225228,70428,7392,612052,0
42,2,730130,252729,1450806,77120,9663,724893,0
42,-1,636915,219063,1283924,66105,7657,641344,0
42,2,709295,248112,1346271,73731,8701,672676,0
42,-1,638544,219304,1292552,66010,7622,645735,0
42,-1,641933,220006,1166694,66296,6886,582744,0
42,2,711611,249631,1367386,74549,10144,682862,0
42,-1,643011,219869,1340663,66357,8317,669583,0
42,2,707435,248911,1305366,74055,7629,652343,0
42,-1,636143,219193,1253875,65861,6893,626482,0
42,2,713608,249741,1277469,74068,9037,638268,0
42,-1,633822,218683,1279411,65718,7129,639276,0
42,2,708755,248704,1319096,73851,9326,658968,0
42,-1,643316,221094,1261472,66725,7099,629850,0
42,-1,648011,221343,1322555,66673,7925,660489,0
42,2,709317,248474,1406046,73764,8657,702550,0
42,-1,637195,219379,1319794,65790,7252,659374,2
42,-1,637236,219075,1148554,65674,6441,573771,0
42,2,711196,248650,1381865,73447,9025,690447,0
42,-1,665707,224964,1239722,69381,8580,619265,0
42,-1,638458,218652,1225144,65587,7763,612220,0
42,2,712678,248829,1303651,74329,9030,651305,0
42,-1,640601,219023,1294236,65882,7365,646670,0
42,2,713646,249350,1378138,74395,8791,688556,0
42,-1,642433,219343,1192548,65714,7843,595727,0
42,2,711024,249122,1313561,74479,9297,656366,0
42,-1,658996,224005,1218287,69102,7716,608697,0
42,2,715578,249419,1486691,74488,10162,742805,0
42,-1,640434,219271,1251107,65787,7124,625015,0
42,-1,661791,223311,1304810,68799,7848,651930,0
42,2,713499,247859,1450063,74130,9645,724591,0
43,-1,691791,237213,1242635,70688,7568,620832,0
43,2,708706,247960,1282020,73728,8651,640566,0
43,-1,638359,218017,1227069,65434,7461,613083,0
43,2,709997,248768,1364366,73982,8883,681678,0
43,-1,646459,221163,1286127,66765,7963,642307,0
43,-1,637605,219236,1315448,66080,8445,657153,0
43,2,730611,253411,1527830,77303,11292,763362,0
43,-1,644731,219694,1180758,66167,8038,589844,0
43,2,708879,249075,1417231,74148,9054,707826,0
43,-1,636833,219745,1201143,66045,6436,600177,0
43,2,718749,251715,1388491,75031,10037,693479,0
43,-1,661545,223715,1231003,69119,8403,615040,0
43,2,707940,248512,1454999,73775,10148,727002,0
43,-1,660570,224191,1227445,69324,7574,613284,0
43,-1,640946,219068,1178044,65684,7014,588526,0
43,2,709997,249117,1341307,74171,8452,670082,0
43,-1,664922,229048,1272184,68675,7167,635605,0
43,-1,641086,220164,1177147,66139,6334,588182,2
43,2,706526,248524,1374636,73403,8595,686813,0
43,-1,649016,220265,1200683,66032,6992,599968,0
43,-1,639321,219481,1330100,65896,7896,664589,0
43,2,714819,249883,1331266,75007,8967,664794,0
43,-1,658661,223305,1222338,68944,7627,610705,0
43,2,716776,250272,1320647,75101,9032,659528,0
43,-1,642222,219225,1294454,65625,8422,646812,0
43,2,717094,250741,1326034,75193,9410,662398,0
43,-1,637201,218829,1303977,65642,7768,651582,0
43,2,715331,249852,1380168,74591,9588,689564,0
43,-1,641843,219331,1266053,65816,7248,632526,0
43,-1,641310,218205,1187094,65347,6599,593185,0
43,2,738714,254143,1472283,78552,10383,735628,0
44,-1,711756,242350,1369295,74157,8729,684062,0
44,2,711240,248239,1390443,73879,9806,694743,0
44,-1,645767,221106,1390759,66826,8203,694566,0
44,2,711568,249395,1466405,74112,9513,732746,0
44,-1,665986,224715,1299827,70038,7754,649252,0
44,-1,637248,219275,1149180,66068,7380,574106,0
44,2,709087,248690,1345689,73942,9318,672385,0
44,-1,643344,219463,1220163,66057,8479,609625,0
44,2,705395,248746,1296084,74015,7888,647564,0
44,-1,658288,224051,1262786,69290,7943,630852,0
44,2,734676,254080,1317123,77350,9888,658023,0
44,-1,640196,219642,1243144,66023,7398,621134,0
44,2,731516,252962,1479059,77072,10119,739015,0
44,-1,643590,219634,1254342,65978,7509,626775,0
44,-1,640809,219435,1177506,65805,6362,588297,0
44,2,708736,248763,1330777,73807,8576,664915,0
44,-1,640381,220683,1244986,66434,7136,621764,0
44,-1,641814,221647,1277241,66955,7681,637824,2
44,2,711799,250004,1372202,74056,8632,685469,0
44,-1,648524,220715,1290575,66215,6884,644872,0
44,-1,639572,219873,1492294,65968,8135,745606,0
44,2,709198,247833,1403392,73991,8696,701132,0
44,-1,640306,220039,1292702,66128,7144,645734,0
44,2,712241,249000,1245868,74445,8866,622481,0
44,-1,648385,222047,1260025,66867,8493,629229,0
44,2,716341,249657,1487933,74594,9745,743444,0
44,-1,643721,219158,1330644,65702,8355,664932,0
44,2,714901,249725,1497784,74428,9498,748470,0
44,-1,639713,218884,1230298,65649,7109,614663,0
44,-1,642411,219406,1243069,65756,6842,621084,0
44,2,712350,247967,1315437,74259,9152,657198,0
45,-1,686939,236493,1324787,70381,8405,661895,0
45,2,710662,248445,1445325,73891,9886,722095,0
45,-1,660496,223254,1303892,69029,8636,651491,0
45,2,711007,249729,1392865,74443,8927,695656,0
45,-1,637433,218321,1202582,65660,6670,600659,0
45,-1,640029,218651,1201157,65830,8206,599963,0
45,2,709873,248862,1265190,74077,9140,632062,0
45,-1,647138,221708,1341481,67168,8297,669885,0
45,2,712081,250081,1397237,74644,8934,698003,0
45,-1,638478,219797,1337401,66114,7044,668214,0
45,2,712538,249540,1285437,74008,8801,642290,0
45,-1,642643,220841,1319406,66634,7768,659047,0
45,2,717638,250974,1406773,74833,9279,702610,0
45,-1,641530,219209,1186460,65902,7062,592810,0
45,-1,641609,220131,1227306,66007,6098,613220,0
45,2,708539,248193,1363621,73623,8468,681376,0
45,-1,640557,219159,1221791,65703,7409,610502,0
45,-1,642884,220639,1198502,66337,7035,598815,2
45,2,702096,247247,1438335,72965,8589,718796,0
45,-1,645198,219930,1291823,66144,7770,644859,0
45,-1,636610,218961,1395416,65694,9001,697646,0
45,2,714878,250271,1338168,75012,8919,668405,0
45,-1,637770,218849,1309276,65759,7309,654139,0
45,2,712067,248677,1319968,74287,9060,659482,0
45,-1,641209,219365,1306706,65731,8450,652852,0
45,2,713888,249229,1316406,74431,9632,657752,0
45,-1,642456,219079,1232722,65719,7740,615880,0
45,2,715593,249976,1460950,74670,9910,729980,0
45,-1,636760,218870,1265277,65620,7397,632175,0
45,-1,643435,220210,1222108,66209,6699,610380,0
45,2,710558,247546,1414498,73994,9088,706759,0
46,-1,692270,237368,1373021,70787,8263,685986,0
46,2,706438,247817,1410986,73611,9250,704881,0
46,-1,643073,220364,1414702,66470,8028,706595,0
46,2,706301,248225,1367130,73760,9376,683043,0
46,-1,638417,218819,1193370,65876,7034,596187,0
46,2,711692,250559,1524358,74865,9348,761016,0
46,-1,639580,218388,1195424,65716,7752,597335,0
46,-1,643106,218899,1263530,65872,7159,631363,0
46,2,706506,248462,1316681,73936,8384,657887,0
46,-1,636149,218986,1296899,65801,6799,648064,0
46,2,715040,250226,1301705,74466,8425,650404,0
46,-1,637732,218355,1263334,65555,6891,631229,0
46,2,708737,248035,1403866,73646,9390,701494,0
46,-1,642683,219460,1191787,65956,7058,595464,0
46,-1,639363,219187,1160138,65800,6823,579648,0
46,2,711581,248153,1416368,73604,9751,707741,0
46,-1,642202,220133,1192795,66082,6606,595986,0
46,-1,644606,220950,1187529,66557,6422,593348,2
46,2,704206,248268,1385968,73279,9216,692548,0
46,-1,647427,220552,1220966,66176,7157,609954,0
46,-1,637666,218924,1583056,65683,9705,791099,0
46,2,709767,248070,1404781,74079,9330,702011,0
46,-1,637585,219144,1164319,65870,6908,581683,0
46,2,709487,248106,1247984,73993,8545,623562,0
46,-1,641089,219367,1344160,65732,8272,671622,0
46,2,717124,250924,1284907,75268,8763,641559,0
46,-1,644154,220134,1265799,66262,7673,632169,0
46,2,714962,249651,1569380,74592,9709,784242,0
46,-1,644430,220688,1227162,66524,7693,612799,0
46,-1,637943,218508,1461581,65436,8447,730267,0
46,2,714663,248331,1450363,74326,10308,724698,0
47,-1,690942,236857,1282828,70565,7986,640486,0
47,2,706807,247917,1467993,73693,9817,733969,0
47,-1,636255,218678,1409508,65649,8239,704235,0
47,2,705819,248291,1287804,73768,9303,643447,0
47,-1,642969,220501,1306920,66616,7994,652797,0
47,2,710279,250860,1445049,74959,8999,721767,0
47,-1,658917,223255,1345694,69149,9002,672395,0
47,-1,645503,220093,1233483,66317,7940,616188,0
47,2,707590,249485,1352701,74197,8601,675878,0
47,-1,638320,220174,1227882,66247,6808,613443,0
47,2,710939,249003,1408792,73976,8660,703961,0
47,-1,642166,220530,1291696,66343,7376,645382,0
47,2,707712,248535,1324107,73863,8145,661595,0
47,-1,646974,221790,1354947,67077,7973,676719,0
47,-1,644459,221162,1285745,66659,7624,642141,0
47,2,714529,248639,1560330,73832,11344,779692,0
47,-1,640941,219755,1253269,65924,7349,626210,0
47,-1,642436,220959,1191178,66379,7126,595146,2
47,2,727720,252882,1450287,76671,9408,724571,0
47,-1,646144,220371,1288768,66062,7706,643990,0
47,-1,658077,223852,1322770,69098,8847,660596,0
47,2,710263,248455,1286433,74199,8508,642826,0
47,-1,637366,219076,1259294,65709,7553,629233,0
47,2,710076,248618,1294064,74265,9138,646559,0
47,-1,642516,220136,1328404,65909,8580,663774,0
47,2,733796,253777,1370350,77772,10328,684665,0
47,-1,639253,219105,1328321,65670,7884,663734,0
47,2,739192,254630,1459160,77995,9818,729051,0
47,-1,663092,224233,1387438,69196,8173,693283,0
47,-1,665024,223314,1300911,68820,8348,649936,0
47,2,719697,250738,1432595,75399,9846,715557,0
48,-1,692752,237838,1518210,70938,9525,758651,0
48,2,707826,247998,1442757,73564,9205,720708,0
48,-1,644990,220921,1316988,66752,8102,657735,0
48,2,709658,248086,1314250,73728,8088,656525,0
48,-1,638061,218579,1299509,65746,7905,649194,0
48,2,705525,248761,1333927,73967,8795,666532,0
48,-1,641504,219907,1303315,66344,8096,650970,0
48,-1,643299,219568,1354606,66071,7804,676946,0
48,2,704021,248122,1278591,73760,8754,638919,0
48,-1,638297,220316,1268694,66423,7080,633676,0
48,2,711663,249722,1297711,74359,8959,648338,0
48,-1,637481,219038,1186670,65835,7073,592948,0
48,2,709367,249450,1460074,74410,9367,729362,0
48,-1,640805,219483,1256820,65974,6767,627934,0
48,-1,639378,219753,1117260,65982,6869,558151,0
48,2,712463,248924,1476257,73879,10100,737515,0
48,-1,647153,222160,1322060,66980,8010,660221,0
48,-1,675318,232084,1327696,69908,7791,662983,2
48,2,707659,248729,1357918,73446,9085,678431,0
48,-1,644728,220192,1199015,66056,6532,598901,0
48,-1,634804,218675,1311316,65573,8473,655196,0
48,2,711138,248247,1301959,74124,8963,650553,0
48,-1,635952,218958,1147511,65797,6881,573263,0
48,2,709278,247694,1419748,73856,9242,709293,0
48,-1,649940,221329,1299465,66566,8348,648793,0
48,2,714662,249400,1279391,74579,8965,639191,0
48,-1,640268,218460,1301920,65462,7899,650626,0
48,2,715632,250548,1372415,75044,9110,685445,0
48,-1,638094,218678,1413141,65538,7693,706102,0
48,-1,644434,219118,1227404,65610,7078,613299,0
48,2,711262,247921,1391004,74164,9488,695086,0
48,-1,639869,220107,1193687,65814,7105,596165,0
49,-1,710169,241790,1335244,74031,9344,667076,0
49,2,726683,252637,1464916,76911,10699,731951,0
49,-1,660100,223231,1385553,68985,8632,692260,0
49,2,713373,250029,1419508,74466,9415,709006,0
49,-1,637645,218954,1193946,65912,7370,596272,0
49,2,711235,249257,1277638,74167,8787,638285,0
49,-1,638168,218726,1256355,65793,7435,627724,0
49,-1,640578,218792,1393107,65831,7898,696011,0
49,2,726580,253002,1353381,77195,8943,676159,0
49,-1,636380,219817,1192266,66130,6594,595676,0
49,2,716671,250161,1435826,74529,9513,717432,0
49,-1,643024,221330,1313621,66873,7485,655946,0
49,2,715396,250787,1424481,74866,9643,711352,0
49,-1,641685,220177,1262665,66233,7326,630829,0
49,-1,642925,220086,1293566,66048,7768,645968,0
49,2,712002,249102,1414831,73950,9723,706995,0
49,-1,638680,219507,1177134,65938,6568,588095,0
49,-1,644778,220738,1278026,66232,7233,638508,2
49,2,705242,248213,1331170,73358,8715,665150,0
49,-1,645910,220222,1352171,66019,7566,675617,0
49,-1,646208,220051,1344360,66212,8129,671282,0
49,2,712837,248695,1291603,74320,8574,645288,0
49,-1,636283,218881,1233004,65714,7929,615962,0
49,2,709513,248339,1361050,74168,9490,679865,0
49,-1,648193,221295,1257012,66458,8145,627659,0
49,2,714987,249807,1316531,74646,8909,657845,0
49,-1,639114,218869,1338526,65653,7569,668545,0
49,2,731828,253303,1610173,77509,10084,804581,0
49,-1,638464,219116,1269020,65755,7055,633987,0
49,-1,643921,219684,1188805,65992,7438,593786,0
49,2,717454,250121,1312396,75195,9185,655381,0
49,-1,640036,219590,1391015,65454,7794,695115,0
50,-1,694714,238907,1412670,71474,9227,705585,0
50,2,707823,248545,1496748,73819,9183,747847,0
50,-1,638059,218712,1349133,65684,6865,674002,0
50,2,715184,249445,1394509,74088,8428,696762,0
50,-1,635819,218526,1166108,65723,6542,582550,0
50,2,713914,249960,1343666,74592,9763,671169,0
50,-1,639363,219148,1331196,65938,8480,665192,0
50,-1,642213,219049,1271020,65906,8052,635060,0
50,2,705418,248707,1404624,74019,8401,701868,0
50,-1,636567,219315,1249343,65961,7587,624215,0
50,2,714559,249604,1366938,74329,8608,683059,0
50,-1,639286,219745,1308539,66076,7247,653853,0
50,2,711347,249683,1429829,74483,9336,714171,0
50,-1,638664,219088,1121491,65827,6758,560257,0
50,-1,645535,221649,1316361,66880,8443,656954,0
50,2,711861,248735,1650923,73839,12035,825037,0
50,-1,638855,220265,1333285,66156,6779,666113,0
50,2,702638,247987,1299259,73175,8688,649162,0
50,-1,644967,220739,1134704,66163,7107,566906,2
50,-1,646247,220853,1283383,66208,8497,640934,0
50,-1,643859,219608,1265324,65932,7949,632062,0
50,2,710456,247899,1388811,74049,9364,694032,0
50,-1,659566,223711,1208497,69119,8497,603804,0
50,2,710015,248365,1409076,74050,9783,704045,0
50,-1,642134,219137,1208637,65524,6833,603858,0
50,2,714019,249293,1512317,74500,9703,755671,0
50,-1,640134,219547,1296334,65814,7789,647742,0
50,2,714319,249837,1383513,74524,10211,691334,0
50,-1,639696,219687,1233427,65902,7300,616180,0
50,-1,672275,229046,1367067,68566,7719,682948,0
50,2,733401,252647,1358582,77531,10152,678828,0
50,-1,642767,221079,1205036,66360,7149,601616,0
51,-1,691758,237785,1344642,70930,8524,671775,0
51,2,709204,249695,1659618,74390,9279,828391,0
51,-1,637215,218363,1307982,65566,7607,653671,0
51,2,731793,252976,1430305,76987,8805,714673,0
51,-1,635431,218803,1263916,65852,7612,631160,0
51,2,730307,253259,1306283,77250,9487,652785,0
51,-1,660056,223702,1334737,69275,8230,666855,0
51,-1,646080,220915,1310390,66826,8910,654419,0
51,2,704088,249275,1246863,74164,7768,623008,0
51,-1,634835,219498,1266299,66027,8183,632698,0
51,2,740763,255832,1427334,78569,9865,713174,0
51,-1,637933,219794,1249309,66130,7199,624215,0
51,2,713387,250133,1399224,74679,9716,698813,0
51,-1,658967,223848,1211061,69239,8038,605010,0
51,-1,639514,219695,1304066,66070,7372,651414,0
51,2,732127,252670,1416419,76851,10580,707817,0
51,-1,637921,219095,1296342,65687,7018,647722,0
51,2,709256,249577,1324997,73941,8162,661787,0
51,-1,646567,221427,1228787,66644,7810,613636,0
51,-1,639026,220049,1284865,66103,7419,641939,2
51,-1,640929,218971,1323378,65705,8132,661080,0
51,2,712660,249816,1335369,74896,8741,666901,0
51,-1,636454,218325,1124016,65537,7122,561539,0
51,2,710768,248190,1409271,73923,9868,704179,0
51,-1,648100,222139,1210129,66784,7416,604326,0
51,2,717115,251047,1390166,75377,9237,694293,0
51,-1,638053,218915,1320475,65560,8107,659770,0
51,2,715598,251059,1379716,75300,9783,688997,0
51,-1,636086,218467,1255891,65419,7828,627486,0
51,-1,647919,221513,1300637,66779,8311,648752,0
51,2,713372,247951,1306667,74163,9055,652888,0
51,-1,637153,219007,1263803,65321,7095,631377,0
52,-1,689502,237595,1225290,70877,7155,612161,0
52,2,706902,249091,1390055,74104,8790,694581,0
52,-1,638845,219383,1256901,65941,7331,627895,0
52,2,714796,250017,1301424,74270,8228,650185,0
52,-1,635972,217922,1187223,65528,7847,592640,0
52,2,710173,248641,1404504,73911,8819,701846,0
52,-1,637479,219012,1417319,65863,8618,708135,0
52,-1,638712,218538,1279142,65750,7926,639213,0
52,2,708810,247982,1386501,73640,8636,692799,0
52,-1,641014,219741,1159018,66108,7261,579024,0
52,2,717895,251008,1455967,74875,9354,727234,0
52,-1,636227,219598,1160930,66042,6853,579977,0
52,2,708692,249232,1337384,74126,8895,668202,0
52,-1,639286,219392,1192146,65933,7162,595537,0
52,-1,639436,219809,1244840,66068,6547,621914,0
52,2,712453,248472,1466998,73765,9222,732964,0
52,-1,641154,220505,1315916,66254,7226,657481,0
52,2,703353,247481,1404399,72997,8768,701742,0
52,-1,646391,220664,1371247,66163,9870,684990,0
52,-1,661234,223347,1292571,68864,9552,645937,0
52,2,711875,249260,1400850,74731,9210,699788,0
52,-1,638049,219388,1237331,65925,7874,618090,2
52,-1,634805,218404,1175292,65564,7180,587082,0
52,2,711060,248614,1325159,74167,8753,662053,0
52,-1,645933,220038,1209469,65869,8762,604199,0
52,2,712407,249484,1455912,74474,9527,727493,0
52,-1,642419,219308,1300686,65786,7944,649907,0
52,2,707467,247549,1501547,73856,9823,750289,0
52,-1,658258,223835,1251025,69058,8190,625075,0
52,-1,642721,218757,1251482,65486,7441,625267,0
52,2,712861,248571,1421099,74441,8933,710027,0
52,-1,635464,218796,1523652,65247,8486,761339,0
53,-1,716139,246866,1413186,73474,8453,706131,0
53,2,709144,247355,1313063,73410,9039,656106,0
53,-1,643154,221184,1384821,66696,8787,691736,0
53,2,711977,249271,1329827,74029,8330,664427,0
53,-1,637596,218485,1194098,65672,7588,596599,0
53,2,706845,248359,1421589,73845,9651,710230,0
53,-1,636091,218800,1194785,65887,6877,596786,0
53,-1,640350,218574,1376912,65857,8893,688027,0
53,2,716704,250240,1412207,74725,8806,705368,0
53,-1,640251,219683,1104156,66069,6549,551674,0
53,2,715375,249624,1275477,74235,8965,637087,0
53,-1,637885,220627,1201034,66599,7800,599802,0
53,2,704660,247919,1250493,73686,9232,624768,0
53,-1,642675,220834,1284895,66630,7406,641757,0
53,-1,639891,219365,1230472,65982,7568,614796,0
53,2,709764,248572,1365249,73798,8698,682032,0
53,-1,639763,220082,1232438,66051,6528,615776,0
53,2,706940,249068,1318533,73600,9026,658781,0
53,-1,650521,222957,1244449,67265,7894,621351,0
53,-1,640931,218980,1187819,65727,8326,593331,0
53,2,706242,247726,1305765,73943,8780,652443,0
53,-1,663645,228198,1268816,68540,8053,633898,2
53,-1,637505,218948,1134949,65793,7455,567084,0
53,2,711681,248516,1473406,74178,9110,736193,0
53,-1,643570,220518,1328573,65959,8132,663872,0
53,2,709258,248880,1413018,74275,9642,706081,0
53,-1,639365,218564,1205639,65498,7598,602223,0
53,2,711170,250097,1392479,74895,9607,695645,0
53,-1,645515,218742,1247129,65577,7142,623048,0
53,-1,642292,219204,1296821,65625,7195,647873,0
53,2,711985,247618,1387971,74068,8548,693554,0
53,-1,634895,218754,1204397,65190,7113,601776,0
54,-1,689066,237472,1276751,70878,7723,637892,0
54,2,709287,248629,1287923,73835,8924,643429,0
54,-1,640648,218735,1275620,65599,7792,637375,0
54,2,711139,249371,1322572,74006,8160,660764,0
54,-1,638597,219180,1123762,65875,6542,561264,0
54,2,706697,249145,1430557,74205,8268,714681,0
54,-1,640661,220517,1323064,66592,7801,660752,0
54,-1,661928,223699,1232544,69223,8780,615700,0
54,2,733780,253543,1350271,77313,9603,674657,0
54,-1,637727,219140,1281885,65875,7137,640549,0
54,2,716231,250034,1351726,74302,9447,675352,0
54,-1,670429,231194,1269627,69903,7449,633982,0
54,2,708829,249911,1387952,74605,9414,692916,0
54,-1,636264,218930,1164620,65792,6778,581683,0
54,-1,641762,220523,1333291,66532,7547,665940,0
54,2,707838,248186,1558030,73689,9930,778410,0
54,-1,637258,219252,1300623,65789,7428,649872,0
54,2,706316,248983,1502249,73518,9045,750639,0
54,-1,664981,225314,1235414,69493,8278,617224,0
54,-1,641670,219559,1198203,65961,8445,598843,0
54,2,710141,249075,1307683,74661,8160,653160,0
54,-1,642398,221180,1273437,66717,7645,635920,2
54,-1,637915,219260,1199342,65835,7851,599325,0
54,2,710905,248613,1373584,74142,9415,686353,0
54,-1,644954,221104,1393130,66421,8151,695822,0
54,2,717599,251840,1320732,75684,8792,659373,0
54,-1,642311,219487,1238821,65894,7913,618973,0
54,2,737237,253077,1518749,77485,10420,759035,0
54,-1,644740,219039,1438950,65712,8661,718899,0
54,-1,641042,218880,1171525,65539,6708,585288,0
54,2,710294,247989,1331990,74125,8691,665559,0
54,-1,636747,220189,1189997,66027,7442,594298,0
55,-1,689501,237762,1315492,70920,8153,657230,0
55,2,711885,250553,1455339,74761,8848,726835,0
55,-1,640981,219892,1255010,66277,7700,626695,0
55,2,712226,248937,1452634,73874,9780,725830,0
55,-1,640522,220266,1198073,66376,7325,598180,0
55,2,705660,248767,1418752,74053,8774,708874,0
55,-1,645695,221699,1309531,66971,8245,653758,0
55,-1,639765,218841,1335075,65837,8300,667143,0
55,2,713153,249054,1362764,74019,8584,680994,0
55,-1,640157,220063,1182754,66133,6917,590879,0
55,2,717395,251379,1324524,75007,8918,661417,0
55,-1,638884,219911,1200796,66159,7606,599824,0
55,2,726927,253214,1456345,77209,9114,727650,0
55,-1,637828,219816,1281128,66054,7555,640147,0
55,-1,638830,219342,1327052,65909,7439,663155,0
55,2,708336,248768,1328502,73795,8961,663823,0
55,-1,643683,219549,1273693,65920,7710,636457,0
55,2,701673,248593,1383646,73429,8860,691264,0
55,-1,643733,220206,1167808,66003,7130,583401,0
55,-1,642115,220165,1423851,66156,8315,711472,0
55,2,711294,247800,1276985,74053,9050,637967,0
55,-1,641102,219249,1195306,65832,7561,597022,2
55,-1,635589,218779,1257104,65701,8851,628186,0
55,2,708450,247947,1342222,73942,8789,670678,0
55,-1,662075,224095,1252099,68995,8277,625573,0
55,2,732924,254062,1440526,77885,9207,719754,0
55,-1,644723,220920,1211760,66497,7278,604892,0
55,2,719776,251290,1394491,75359,9353,696484,0
55,-1,647268,220471,1257223,66299,7675,627918,0
55,-1,645166,220595,1202923,66438,7060,600728,0
55,2,714792,248314,1325148,74357,7666,662059,0
55,-1,637977,219044,1266297,65375,6765,632593,0
56,-1,687071,237066,1211583,70666,7878,605322,0
56,2,706016,247643,1306199,73598,7952,652692,0
56,-1,635773,217754,1185708,65502,7904,592210,0
56,2,728359,253025,1365069,77107,9291,681945,0
56,-1,639573,219109,1159180,65903,7628,578921,0
56,2,708679,248842,1316832,74136,8644,657999,0
56,-1,659696,223867,1204837,69200,8128,601846,0
56,-1,640919,219636,1189792,66153,7965,594421,0
56,2,709897,248505,1353103,73820,9258,676178,0
56,-1,640518,219966,1377972,66158,7374,688654,0
56,2,710770,248599,1247855,73811,8818,623506,0
56,-1,637967,219732,1214741,66053,7204,606872,0
56,2,713109,248023,1316751,73612,8485,657952,0
56,-1,643216,219797,1257810,66110,7462,628472,0
56,-1,637973,219668,1241427,66070,6813,620109,0
56,2,711323,248085,1435923,73647,9866,717438,0
56,-1,646094,220559,1256224,66403,8166,627509,0
56,2,727276,253040,1521525,76534,9223,760270,0
56,-1,647161,221880,1307010,66718,7923,652838,0
56,-1,638597,219211,1170111,65838,6793,584641,0
56,2,710285,247782,1240214,73998,8534,619668,0
56,-1,639917,219660,1394202,65944,7991,696558,0
56,2,712204,248725,1375821,74336,9079,687402,0
56,-1,642466,219587,1265194,65959,8554,632095,2
56,-1,639171,219137,1232892,65540,7313,616054,0
56,2,716379,251115,1375152,75398,9613,686855,0
56,-1,639577,218831,1188770,65685,7022,593912,0
56,2,716201,249054,1393234,74360,9138,696184,0
56,-1,641157,218250,1235997,65414,7831,617630,0
56,-1,638942,218703,1250374,65508,6591,624816,0
56,2,713660,248311,1409878,74341,8609,704504,0
56,-1,637740,218953,1232578,65310,6909,615845,0
57,-1,688602,237519,1354752,70841,8112,676809,0
57,2,761332,266604,1446224,78732,8813,722617,0
57,-1,636403,218286,1209858,65451,7144,604438,0
57,2,708954,248436,1340386,73848,8540,669714,0
57,-1,636595,218494,1240524,65631,6748,619769,0
57,2,706187,248695,1469334,74061,8552,734180,0
57,-1,638153,219055,1370936,65866,8989,684093,0
57,-1,638534,218927,1302018,65877,8189,650596,0
57,2,713727,250214,1389800,74658,9029,694259,0
57,-1,638937,219770,1223701,66053,6880,611476,0
57,2,711114,249386,1308563,74014,8630,653848,0
57,-1,640765,220121,1191106,66134,6730,595074,0
57,2,713080,248787,1305412,73923,8850,652267,0
57,-1,642182,219252,1207977,65904,7190,603423,0
57,-1,644232,220797,1337325,66729,8047,667498,0
57,2,709791,248262,1505278,73622,9559,752215,0
57,-1,642485,219364,1321006,65792,8015,660136,0
57,2,706642,249007,1421046,73475,8700,710163,0
57,-1,642627,220379,1301964,66051,8352,650538,0
57,2,708239,248040,1335645,74070,8194,667384,0
57,-1,644978,221036,1293889,66654,7898,646225,0
57,-1,644096,219335,1301645,65867,8195,650335,0
57,2,708664,248050,1358406,74024,8291,678801,0
57,-1,640764,219553,1324376,65879,8270,661662,2
57,-1,644043,219734,1184899,65881,7585,591876,0
57,2,732023,253772,1479210,77799,10364,739092,0
57,-1,645383,221552,1266390,66788,7925,632441,0
57,2,715303,249305,1492397,74438,8988,745672,0
57,-1,642057,218502,1445266,65494,9582,722203,0
57,-1,643630,219352,1190408,65733,7005,594753,0
57,2,712944,247996,1298177,74186,8907,648668,0
57,-1,639642,220148,1145009,65922,7115,571832,0
58,2,760729,267085,1391646,78914,8892,695180,0
58,-1,686053,236983,1252573,70634,7851,625871,0
58,-1,642021,220554,1304016,66500,8064,651202,0
58,2,712676,248378,1392436,73783,9539,695791,0
58,-1,644249,221977,1666547,67057,9154,832289,0
58,2,709361,249121,1406739,74181,8263,702991,0
58,-1,637856,219409,1227158,65943,7155,613048,0
58,-1,645326,219429,1318749,66030,7647,658894,0
58,2,711758,249461,1348751,74242,9044,673842,0
58,-1,657484,223510,1332621,69110,7930,665953,0
58,2,715994,251032,1489134,75009,9096,743832,0
58,-1,641972,221208,1289559,66739,7112,644068,0
58,2,712455,249777,1491423,74208,9607,745266,0
58,-1,643251,220379,1421938,66269,8410,710494,0
58,-1,663473,224530,1392578,69404,8149,695669,0
58,2,716899,250241,1466932,74585,9905,732732,0
58,-1,642635,219271,1213167,65760,7707,606131,0
58,2,703314,248139,1511582,73101,9770,755420,0
58,-1,652624,222714,1376996,67120,8011,687570,0
58,-1,641273,219931,1186599,66103,7504,592799,0
58,2,708410,248429,1535229,74119,9425,767181,0
58,-1,646329,220245,1192237,66102,7891,595605,0
58,2,712554,250069,1421173,74936,8869,709914,0
58,-1,643499,220160,1361093,65946,7597,680049,0
58,-1,641975,219582,1210669,65753,8146,604836,2
58,2,717649,249734,1290881,74630,9212,644877,0
58,-1,658855,223295,1210060,68894,7630,604536,0
58,2,734664,253882,1490363,77730,9924,744578,0
58,-1,666101,224242,1269976,69200,8673,634539,0
58,-1,646092,221215,1177348,66692,6784,587827,0
58,2,712734,248571,1463351,74719,8777,731174,0
58,-1,635287,218906,1257493,65287,8463,628247,0
59,-1,719561,242303,1341987,74167,8290,670395,0
59,2,766304,268710,1605594,79616,10576,801587,0
59,-1,637974,219777,1243310,65961,6720,621444,0
59,2,709048,247888,1344730,73509,9335,671789,0
59,-1,637192,218557,1264319,65634,7933,631231,0
59,2,706457,248271,1328613,73908,8882,663816,0
59,-1,638731,219422,1269020,65962,8209,633896,0
59,-1,663845,223507,1243463,69217,8331,621238,0
59,2,716132,250623,1430729,74886,9120,714649,0
59,-1,640716,220587,1271759,66635,7358,635195,0
59,2,706940,248024,1295156,73662,8267,647193,0
59,-1,657717,224091,1236647,69266,7449,617815,0
59,2,714028,249803,1628580,74459,10536,813625,0
59,-1,640210,219222,1313033,65818,7002,655578,0
59,-1,640611,219620,1486250,65960,7717,742362,0
59,2,706916,248775,1400963,73814,9090,700021,0
59,-1,662482,224007,1265732,69118,7594,632182,0
59,2,712909,250812,1366192,74348,8594,682135,0
59,-1,646315,220366,1320737,66107,7225,659965,0
59,-1,637987,219102,1158688,65883,6814,578856,0
59,2,709148,248758,1404226,74350,8567,701622,0
59,-1,642055,219067,1313653,65654,7700,656407,0
59,2,708284,248659,1550213,74219,9464,774656,0
59,-1,639135,218943,1206356,65457,6990,602768,0
59,-1,639284,219719,1227775,65850,8245,613460,2
59,2,719813,251079,1284048,75376,8981,641292,0
59,-1,636202,218412,1254051,65457,7241,626556,0
59,2,715351,249920,1443420,74848,9313,721082,0
59,-1,641562,218857,1269060,65595,7901,634094,0
59,-1,662733,223572,1281276,68908,7915,640148,0
59,2,714366,249305,1411130,74663,8833,705057,0
59,-1,638601,219848,1260486,65615,7166,629727,0
60,-1,696186,237417,1236273,70809,7453,617559,0
60,2,762943,267925,1596952,79462,10078,797389,0
60,-1,638796,218867,1359466,65672,7509,678279,0
60,2,709565,248605,1407051,73890,9644,702950,0
60,-1,636747,219024,1248564,65875,7299,623587,0
60,2,709728,249569,1315712,74572,9167,657191,0
60,-1,638677,218868,1181841,65741,7231,590425,0
60,-1,641691,219349,1201207,66040,7664,599966,0
60,2,731815,253145,1361234,77209,9177,680237,0
60,-1,636086,219129,1163989,65987,7288,581503,0
60,2,708098,248838,1382043,73970,8697,690618,0
60,-1,635222,219059,1245007,65794,7327,622063,0
60,2,717460,250777,1501605,74809,10270,749971,0
60,-1,639615,219435,1314669,65938,7593,656820,0
60,-1,640268,219433,1240607,65943,7234,620081,0
60,2,714812,250024,1391887,74442,8738,695023,0
60,-1,644028,220304,1265650,66116,7673,632320,0
60,2,728682,253555,1433104,76709,9257,716051,0
60,-1,646550,220771,1225110,66187,6930,612229,0
60,-1,638567,219365,1338941,65858,8073,669079,0
60,2,711719,248614,1322267,74321,8955,660642,0
60,-1,664770,224554,1244839,69354,8439,621930,0
60,2,707413,247888,1332384,73986,9384,665759,0
60,-1,640578,219292,1256908,65662,7818,627928,0
60,-1,650641,221850,1282805,67004,8178,640459,2
60,2,714540,249649,1505651,74626,9960,752241,0
60,-1,640387,218829,1292715,65635,8254,645885,0
60,2,714513,249213,1575321,74363,9450,786949,0
60,-1,646557,221167,1458341,66573,9176,728512,0
60,-1,642034,219242,1255287,65716,6785,627201,0
60,2,707211,247154,1300617,73920,7957,649835,0
60,-1,636008,219180,1260081,65384,7081,629569,0
61,-1,694901,237254,1232366,70736,7636,615677,0
61,2,761076,266497,1434112,78768,10570,716537,0
61,-1,637130,218492,1200051,65524,7351,599541,0
61,2,717590,251183,1446344,74952,8720,722334,0
61,-1,636886,218224,1174782,65572,6596,586940,0
61,2,711235,249663,1401690,74423,8847,700372,0
61,-1,637973,219014,1169172,65813,7232,583945,0
61,-1,642003,219342,1137351,66078,7381,568069,0
61,2,712397,249579,1398041,74295,9444,698222,0
61,-1,660200,223847,1237810,69290,7736,618365,0
61,2,735581,253576,1439409,77285,10088,719182,0
61,-1,639917,220894,1273998,66643,7215,636377,0
61,2,711854,249696,1472909,74361,9737,735828,0
61,-1,642869,220365,1302189,66316,7716,650627,0
61,-1,643738,221289,1365811,66736,7818,682176,0
61,2,713387,248572,1311851,73815,8566,655427,0
61,-1,640768,219414,1209975,65776,6862,604557,0
61,2,704291,248451,1515553,73247,9465,757235,0
61,-1,643840,220111,1296606,65972,8060,648051,0
61,-1,645745,221726,1316899,66965,8080,657666,0
61,2,712706,249624,1537546,74586,9588,768367,0
61,-1,641840,219207,1293469,65793,7522,646224,0
61,2,710232,249082,1349234,74394,9050,674093,0
61,-1,640811,219237,1304756,65602,7389,651999,0
61,2,715154,250017,1410038,74753,8783,704703,0
61,-1,635849,219344,1301837,65834,7669,650489,2
61,-1,645733,221320,1276768,66663,7790,637816,0
61,2,718527,251407,1421625,75460,9390,709960,0
61,-1,642667,218826,1259006,65593,7896,629060,0
61,-1,639494,218645,1375018,65613,8442,686812,0
61,2,714131,250320,1408599,75314,9186,703453,0
61,-1,638676,220733,1438769,66195,9650,717179,0
62,-1,697016,238408,1344436,71309,7729,671483,0
62,2,760710,266814,1487117,78791,10096,743010,0
62,-1,663854,227788,1227963,68435,6860,613525,0
62,2,711004,249488,1306446,74176,8669,652754,0
62,-1,638794,218832,1270227,65785,7438,634636,0
62,2,707979,248410,1395171,73983,8670,697102,0
62,-1,637520,219002,1268024,65894,9600,633202,0
62,-1,640931,218968,1186876,65929,7523,592974,0
62,2,711793,249891,1555350,74574,9290,777314,0
62,-1,636985,219204,1196355,65934,6875,597801,0
62,2,715588,250026,1608526,74244,9446,803559,0
62,-1,637682,220019,1187944,66197,7280,593433,0
62,2,731981,254122,1426798,77506,9958,712804,0
62,-1,638381,218969,1277991,65765,8199,638581,0
62,-1,641626,220005,1325862,66092,8437,662233,0
62,2,710407,247946,1346315,73578,9255,672765,0
62,-1,642537,219706,1222089,65946,6827,610446,0
62,2,705120,248420,1311604,73305,8873,655238,0
62,-1,645103,220772,1311609,66166,6923,655261,0
62,2,713158,249844,1301424,74927,8543,649966,0
62,-1,661486,223210,1261594,68901,8203,630391,0
62,-1,646390,220751,1316410,66503,8760,657459,0
62,2,714701,248127,1401583,73986,8874,700324,0
62,-1,641815,219480,1219759,65720,7665,609385,0
62,2,734304,253564,1476328,77726,9937,737631,0
62,-1,638372,218524,1371990,65476,7702,685593,0
62,-1,637929,218971,1258617,65702,7160,628790,2
62,2,735133,253614,1620936,77639,10524,809875,0
62,-1,641645,218541,1293874,65501,7982,646457,0
62,-1,645563,221048,1221284,66541,6787,609949,0
62,2,714642,247823,1519159,74119,10244,759147,0
62,-1,655514,223322,1328537,68515,8526,663717,0
63,-1,694230,237601,1428535,70811,8277,713708,0
63,2,758559,266699,1486544,78752,9807,742730,0
63,-1,641912,221139,1308931,66803,6990,653542,0
63,2,713465,249767,1417118,74461,9677,707737,0
63,-1,636271,218277,1286210,65587,7438,642635,0
63,2,705838,248790,1457497,74094,10227,727967,0
63,-1,638096,219575,1146068,65979,7871,572452,0
63,-1,642075,219825,1205278,66230,7032,602031,0
63,2,710390,249154,1502695,74065,9523,750584,0
63,-1,636918,218974,1255750,65887,7261,627462,0
63,2,713096,249358,1456471,74048,9325,727753,0
63,-1,634372,218843,1305425,65710,7590,652325,0
63,2,705482,247914,1457025,73670,9997,727941,0
63,-1,662065,223603,1276538,69140,8387,637630,0
63,-1,636912,218606,1240047,65723,7387,619584,0
63,2,710110,248662,1320867,73772,8961,660015,0
63,-1,641015,219326,1222792,65805,6943,610928,0
63,2,703706,248228,1426228,73092,8431,712388,0
63,-1,668025,225654,1276352,69590,8341,637626,0
63,2,728853,252311,1428536,77296,9001,713747,0
63,-1,640398,219217,1238692,65822,7274,618944,0
63,-1,642750,219240,1281940,65779,8072,640321,0
63,2,716984,249452,1300818,74597,8938,649708,0
63,-1,639797,218736,1311977,65382,7980,655612,0
63,2,712917,249213,1424181,74434,9399,711577,0
63,-1,637483,218818,1303439,65660,7283,651234,0
63,-1,643386,221613,1255352,66808,7849,626922,2
63,-1,639598,218915,1293799,65686,7996,646409,2
63,-1,640260,219829,1190167,65975,6938,594672,2
63,2,711323,248355,1461728,74073,9286,730394,0
63,-1,643711,221291,1257013,66746,7035,627741,2
63,-1,643225,219327,1236710,65818,8300,617877,0
63,-1,642604,220775,1206072,66557,7058,602323,2
63,-1,639766,219055,1258193,65759,6877,628638,2
63,-1,641491,218909,1262819,65686,7833,630859,2
63,-1,640953,218840,1281434,65614,7149,640292,0
63,2,714130,247988,1373052,74242,9518,686070,0
63,-1,640303,219162,1260308,65638,6699,629665,2
63,-1,644549,219440,1259213,65801,7518,629097,2
63,-1,632778,219580,1249908,65398,6890,624472,2
63,-1,634285,218968,1298386,65213,7300,648746,2
63,-1,633506,218753,1264280,65296,7926,631671,0
63,-1,638986,220741,1194645,66213,7724,596554,2
