0,-1,697578,239705,1254890,71797,7684,626537,0
0,2,783358,271187,1380085,82062,9848,689617,0
0,-1,711481,241298,1398626,73819,8665,697831,0
0,-1,693155,236965,1320887,70626,9393,660139,0
0,-1,699032,238659,1451831,71347,9467,725202,0
0,-1,687783,237028,1394009,70604,7463,695850,0
0,-1,689228,237034,1236144,70618,7568,617414,2
0,-1,714162,242278,1398518,74164,9277,698770,0
0,2,760645,267169,1458149,78935,8803,728536,0
0,-1,636645,218574,1307960,65719,7870,653319,0
0,-1,638419,218746,1334549,65572,8036,666518,0
0,-1,637132,218237,1221491,65402,8772,610101,0
0,-1,639181,218685,1190144,65553,7484,594562,0
0,-1,661712,223803,1301878,69129,8554,650341,0
0,-1,637680,218269,1291745,65446,7789,645360,0
0,-1,639995,218851,1276668,65642,7765,637662,0
0,-1,658550,223143,1317731,68913,8652,658361,0
0,-1,645886,220867,1273755,66695,8517,635971,0
0,2,711388,248408,1413759,73742,9534,706353,0
0,-1,647104,221250,1331217,66709,8242,664718,0
0,-1,634341,218758,1328505,65614,7687,663765,0
0,-1,637799,219125,1135038,65864,7052,567046,0
0,-1,637452,219270,1178575,65855,6368,588696,0
0,-1,637716,218813,1248940,65763,6527,623959,0
0,-1,637455,218497,1156811,65599,6397,578031,0
0,-1,654066,222581,1369717,68835,7635,683645,0
0,-1,636732,219014,1222740,65862,7125,610798,0
0,-1,637353,218835,1117878,65807,6572,558434,0
0,-1,636252,218013,1164431,65459,7404,581667,0
0,-1,645615,221547,1346650,67006,8581,672551,0
0,-1,638768,219110,1193028,65877,7090,595863,0
0,-1,641218,218947,1192738,65750,6616,595865,0
0,-1,636062,218840,1289343,65780,7587,644167,0
0,-1,637192,218754,1150147,65794,7757,574461,0
0,-1,642849,220497,1382751,66609,9415,690247,0
0,-1,638763,218913,1394378,65734,8790,696690,0
0,2,707990,248548,1287130,73840,8902,642951,0
0,-1,642321,219800,1400767,66347,8378,699647,0
0,2,706422,247958,1405296,73799,8647,702025,0
0,-1,640900,220234,1311022,66540,7239,654237,0
0,-1,647994,221503,1357681,66849,8301,677413,0
0,-1,644399,220613,1238666,66557,8884,618560,0
0,-1,644746,219197,1252203,65981,7832,625626,0
0,-1,641989,219647,1329235,65972,8290,663911,0
0,-1,643194,219191,1254824,65786,8295,626991,0
0,-1,636574,218851,1281317,65651,8263,640271,0
0,-1,642547,220960,1302807,66510,7729,650652,0
0,-1,661935,224127,1341117,69187,8004,670118,0
0,-1,646957,221579,1396229,66804,7410,697428,0
0,2,713720,248883,1425128,73837,9146,712036,0
0,-1,640516,218707,1225917,65608,7616,612457,0
0,-1,642062,220091,1180261,66121,6674,589686,0
0,-1,641206,219513,1261574,65942,7322,630272,0
0,-1,641488,219770,1284890,66030,7446,641968,0
0,-1,641255,219239,1229473,65817,7187,614263,0
0,-1,640011,219091,1218472,65837,7290,608774,0
0,-1,660422,223473,1346200,69052,7648,672604,0
0,-1,642184,219477,1143398,66052,6849,571108,0
0,-1,637155,218980,1259214,65844,7617,629201,0
0,-1,660148,223856,1226489,69334,7596,612698,0
0,2,707828,248067,1430320,73835,9472,714660,0
0,-1,646683,221158,1288497,66850,7901,643418,0
0,-1,640824,218987,1260010,65939,7321,629493,0
0,-1,641360,219532,1317785,66125,7104,658357,0
0,-1,640831,218907,1204997,65874,7633,602048,0
0,-1,642229,219206,1550957,66026,8365,774176,0
0,2,714494,248369,1302305,73983,8468,650631,0
0,-1,640097,219491,1185197,66133,7978,592039,0
0,-1,640358,218575,1290588,65868,8230,644770,0
0,-1,661908,223577,1222731,69299,8549,610843,0
0,-1,644302,220132,1186350,66315,7769,592558,0
0,-1,643475,219356,1310262,66016,7924,654695,0
0,-1,664797,223711,1246397,69262,8671,622632,0
0,2,704824,248572,1455488,74034,9017,727252,0
0,-1,634274,219860,1176147,66237,6735,587539,0
0,2,707020,248427,1415739,73961,8662,707452,0
0,-1,655675,223701,1231630,69271,7835,615224,0
0,-1,638529,219862,1236485,66184,7740,617895,0
0,-1,637532,219603,1298246,66380,7642,648383,0
0,-1,640475,220531,1308347,66646,8187,653369,0
0,-1,640882,220570,1304462,66643,8001,651635,0
0,-1,638656,220274,1190218,66531,7639,594398,0
0,-1,637182,219530,1257714,66120,6823,628476,0
0,-1,641522,220729,1201221,66499,7266,600113,0
0,-1,638532,219446,1190307,66050,6796,594770,0
0,-1,644467,220604,1255482,66650,8193,626986,0
0,-1,635270,219108,1235938,65917,7401,617554,0
0,-1,658081,223791,1448522,69279,9569,723755,0
0,2,709138,248504,1435707,73874,9465,717434,0
0,-1,638318,219788,1301504,66195,8253,650363,0
0,-1,636219,218676,1250412,65858,7097,624737,0
0,-1,636095,219013,1207666,65925,6887,603277,0
0,2,707754,248704,1455863,73955,8826,727594,0
0,-1,644400,221333,1299098,66931,7320,648647,0
0,-1,637250,219453,1248646,66076,6900,623813,0
0,-1,659493,223545,1253839,69157,8467,626423,0
0,-1,660489,223876,1243202,69260,7353,621047,0
0,2,707100,248731,1408844,74001,8768,703949,0
0,-1,639792,219939,1197465,66180,6820,598246,0
0,-1,642309,220242,1350157,66246,7806,674448,0
0,-1,643468,220834,1351658,66685,8072,675093,0
0,-1,640856,218853,1327891,65713,8376,663290,0
0,-1,636399,219607,1490431,65921,8760,744613,0
0,-1,634651,219058,1408597,65826,8175,703800,0
0,-1,638885,219567,1190629,66045,7025,594819,0
0,-1,641919,220874,1315687,66669,8187,657132,0
0,-1,638366,219145,1356352,65856,8228,677679,0
0,-1,639953,219190,1386927,65912,8812,692860,0
0,-1,640718,219693,1355802,66014,7843,677454,0
0,-1,641257,219865,1291843,66142,7346,645458,0
0,-1,638962,219631,1240379,66015,6656,619714,0
0,-1,640423,219244,1215412,65921,7325,607301,0
0,2,709578,248778,1311173,73961,8165,655242,0
0,-1,642202,219681,1407732,66079,7958,703112,0
0,-1,638619,220126,1322345,66161,8241,660450,0
0,-1,638018,219123,1333209,65907,6742,666116,0
0,-1,639973,219748,1253878,66091,6520,626482,0
0,-1,645346,220968,1297637,66678,6886,648405,0
0,-1,642455,220271,1401457,66288,8361,700186,0
0,-1,638279,218623,1245346,65773,7985,622189,0
0,-1,641290,219242,1174204,65973,7463,586600,0
0,-1,639448,219115,1161443,65894,7066,580178,0
0,2,711251,249936,1415652,74557,8936,707149,0
0,-1,640763,219089,1278026,65901,7856,638437,0
0,-1,657945,224040,1269727,69300,7978,634576,0
0,-1,638127,219843,1303957,66088,7466,651495,0
0,-1,636607,219079,1295523,65827,7084,647147,0
0,-1,636991,219284,1255670,65907,6884,627302,0
0,-1,637025,219310,1178640,65974,6116,588788,0
0,-1,639439,218978,1233772,65827,6734,616379,0
0,-1,637413,219684,1243458,66081,6721,621088,0
0,-1,637177,218695,1190714,65815,7628,594871,0
0,2,709231,249128,1446118,74133,9336,722600,0
0,-1,644435,220890,1338706,66749,8002,668668,0
0,-1,646415,221957,1355601,67080,8297,676995,0
0,2,710180,249553,1539250,74455,9280,768973,0
0,-1,641974,219466,1521809,65932,8429,760397,0
0,-1,636187,219158,1253195,65875,8211,625790,0
0,-1,642442,221461,1273053,66979,7952,635751,0
0,-1,641769,220783,1330747,66580,8334,664539,0
0,-1,640573,219565,1253127,66015,7165,626177,0
0,-1,643437,220160,1314795,66193,7948,656969,0
0,-1,639141,220255,1307888,66263,7271,653455,0
0,-1,639892,219433,1210552,65780,6900,604825,0
0,-1,643072,220255,1298832,66120,7565,648902,0
0,-1,640014,219082,1179050,65826,7311,588964,0
0,-1,641785,219219,1204252,65913,7209,601641,0
0,-1,643570,219579,1229424,65976,7226,614276,0
0,-1,644842,219593,1204060,65971,7532,601540,0
0,-1,636328,218890,1348462,65778,7929,673484,0
0,-1,637637,219367,1348226,65809,6877,673599,0
0,-1,637505,219111,1239698,65749,6312,619385,0
0,-1,640890,219476,1308281,65826,7524,653768,0
0,2,712123,248652,1372305,73821,8780,685719,0
0,-1,641034,219716,1192437,66010,7150,595706,0
0,-1,638824,219416,1182204,65969,6931,590566,0
0,-1,661818,224160,1222155,69345,7742,610652,0
0,-1,644397,220444,1203394,66168,8475,601024,0
0,-1,641404,219707,1293962,65896,6886,646589,0
0,-1,642395,219611,1243742,65912,7366,621406,0
0,-1,639696,219887,1293288,65879,7928,646243,0
0,-1,659749,223629,1342690,68977,7934,671010,0
0,-1,662729,224079,1230170,69285,8080,614564,0
0,-1,647923,221694,1304134,66880,7887,651438,0
0,-1,643748,220054,1276532,66081,7610,637861,0
0,-1,651949,222229,1327912,67190,7780,663210,0
0,-1,645245,220197,1325620,66199,7871,662427,0
0,-1,646410,220511,1277570,66333,7201,638390,0
0,-1,647658,219935,1173503,66118,6789,586277,0
0,-1,647088,220639,1308086,66241,8061,653634,0
0,-1,645063,220469,1289403,66094,7911,644219,0
0,2,709674,249283,1395439,73920,9218,697311,0
0,-1,646886,219754,1204251,65805,7627,601722,0
0,-1,640334,220503,1220078,66172,7803,609657,0
0,-1,644354,222097,1283346,66868,8180,640889,0
0,-1,643179,221411,1203634,66480,7689,601308,0
0,-1,646393,221787,1372507,66774,8120,685273,0
0,-1,643241,220685,1237884,66208,7582,618460,0
0,2,716760,251199,1468943,74985,9793,733694,0
0,-1,645796,221014,1190074,66286,7426,594597,0
0,-1,642671,220626,1323348,66159,7999,661253,0
0,-1,642824,219696,1310260,65889,7878,654630,0
0,-1,643789,220055,1358144,66093,8192,678582,0
0,-1,643062,220533,1227723,66256,7518,613349,0
0,2,713206,249841,1479395,74210,9245,739234,0
0,-1,664205,224307,1373137,69282,8157,686096,0
0,-1,645346,219970,1174665,66111,7649,586888,0
0,-1,639697,219631,1287388,65910,7829,643197,0
0,-1,664288,224266,1256952,69262,8775,627890,0
0,-1,640651,219918,1270403,65973,7629,634778,0
0,-1,644143,219916,1229949,66042,8358,614371,0
0,-1,647079,220693,1313076,66496,8282,655758,0
0,-1,641660,219347,1312190,65902,7943,655659,0
0,-1,641062,219295,1300199,65845,7590,649613,0
0,2,711042,248109,1426244,73634,9889,712722,0
0,-1,645429,220790,1334480,66556,8071,666099,0
0,-1,642464,218993,1211026,65695,8304,605079,0
0,-1,646045,220539,1282453,66546,8230,640134,0
0,-1,656358,223454,1240016,69099,7799,619512,0
0,-1,646017,221524,1426322,66952,8563,712004,0
0,-1,641171,219891,1303115,66110,7979,651180,0
0,-1,666257,228208,1361744,68414,8791,680476,0
0,-1,641757,219506,1307359,65847,7995,653264,0
0,-1,642364,219177,1435796,65793,8985,717427,0
0,-1,639403,219221,1207565,65763,7890,603195,0
0,-1,642164,220121,1226708,66214,8124,612524,0
0,-1,641840,219110,1263942,65796,9132,631396,0
0,2,707277,248696,1333047,73916,8968,666111,0
0,-1,638279,218235,1277635,65515,7981,638426,0
0,-1,643440,220198,1302410,66310,8464,650259,0
0,-1,640406,218708,1175243,65709,7486,586982,0
0,-1,638505,219176,1389131,65844,7763,694144,0
0,-1,639872,219742,1144999,66014,7152,571986,0
0,-1,648737,221259,1343281,66688,8272,670916,0
0,-1,642399,219661,1464197,65895,8650,731899,0
0,-1,648798,222352,1307972,67056,7798,653116,0
0,-1,642672,219345,1355774,65808,8683,677329,0
0,-1,645260,219024,1544543,65641,9016,771831,0
0,-1,643261,219490,1332922,65788,8840,665997,0
0,-1,642021,219051,1396973,65533,8174,697663,0
0,-1,639318,218183,1280895,65307,7489,639991,0
0,-1,643652,219389,1160334,65664,6871,579781,0
0,2,712187,249398,1283401,73994,8249,641192,0
0,-1,646723,220387,1184421,66021,7680,591733,0
0,-1,638416,219444,1214429,65622,7375,606785,0
0,-1,639615,219644,1294563,65691,7875,646824,0
0,-1,637429,219078,1221164,65520,7426,610157,0
0,-1,640361,219802,1253690,65848,7271,626381,0
0,-1,641593,219754,1132745,65825,7615,565886,0
0,2,715929,250466,1392888,74662,9512,695535,0
0,-1,643546,219738,1184960,65856,7399,591958,0
0,-1,637148,218853,1187883,65598,6803,593554,0
0,-1,636532,218569,1167442,65514,6626,583286,0
0,-1,641704,219225,1294412,65806,7519,646706,0
0,-1,638129,218787,1262807,65597,6993,630948,0
0,-1,640144,219156,1287760,65734,7612,643370,0
0,-1,644416,220323,1263054,66295,7730,630838,0
0,2,716638,251350,1437555,74954,8846,717837,0
0,-1,641975,218575,1281670,65494,8279,640353,0
0,-1,635359,218442,1274507,65394,7940,636869,0
0,-1,640005,218839,1169705,65598,6946,584374,0
0,-1,638962,218692,1293407,65575,6945,646247,0
0,-1,639596,219232,1186849,65771,7486,592914,0
0,-1,644909,220714,1237395,66537,7500,617962,0
0,-1,641087,219214,1258898,65717,6780,629035,0
0,2,709299,248321,1304584,73712,9061,651831,0
0,-1,642241,218963,1265165,65591,7802,632125,0
0,-1,638904,218999,1295584,65652,6941,647395,0
0,-1,641674,219244,1211143,65777,7964,605091,0
0,-1,642073,218702,1278210,65572,8044,638692,0
0,-1,665345,223958,1238142,69112,8623,618611,0
0,-1,637255,218736,1206748,65618,7520,602915,0
0,2,709007,247883,1488202,73523,8792,743685,0
0,-1,645099,220969,1228374,66614,7806,613475,0
0,-1,641764,219117,1231305,65741,7389,615103,0
0,-1,642333,219603,1250511,65872,6868,624809,0
0,-1,642003,219170,1354075,65658,7434,676467,0
0,-1,658972,223492,1326819,68945,7525,662858,0
0,-1,637561,218129,1196657,65388,7092,597926,0
0,2,714660,248688,1418139,73832,9443,708641,0
0,-1,640173,218365,1195504,65402,7231,597300,0
0,-1,644097,221077,1211747,66551,6950,605192,0
0,-1,648215,221245,1309003,66584,7584,653584,0
0,2,738151,253161,1496928,77009,9939,747997,0
0,-1,663352,223784,1321297,69057,8501,660223,0
0,-1,647154,220625,1166838,66423,7967,582664,0
0,-1,645705,221152,1157038,66661,7162,577621,0
0,-1,639180,218530,1292783,65496,7540,645971,0
0,-1,641939,219474,1371100,65872,7264,685192,0
0,-1,642283,218913,1218924,65671,7159,608916,0
0,-1,645798,220907,1214666,66593,6826,606459,0
0,-1,664491,224751,1291589,69380,7461,645161,0
0,-1,643734,219012,1222627,65652,7144,610866,0
0,-1,646106,220720,1268151,66223,6931,633611,0
0,-1,643117,219800,1291469,66091,6671,645000,0
0,-1,643700,218697,1263879,65544,7290,631485,0
0,-1,662657,223438,1336194,68919,7492,667548,0
0,-1,646863,220425,1174475,66278,7110,586580,0
0,-1,644815,219132,1278193,65678,6913,638526,0
0,-1,635942,220393,1191357,65858,6453,595080,0
0,-1,633553,218725,1348938,65133,6712,673898,0
0,-1,632798,218424,1278047,64951,6925,638512,0
0,2,708332,249190,1522083,73633,9169,760526,0
0,-1,635143,219080,1183647,65255,6957,591367,0
0,-1,643786,221675,1178810,66443,6891,588643,0
0,-1,636417,219141,1265257,65245,7176,632126,0
0,2,710194,248602,1468102,74291,9674,733560,0
0,-1,637894,219423,1271994,65309,6627,635543,0
0,-1,631992,218431,1166801,64993,7330,582950,0
0,-1,635880,219326,1278669,65343,7271,638862,0
0,-1,657330,223689,1277174,68476,7679,638074,0
0,-1,638885,219938,1177081,65705,6888,587909,0
0,-1,634297,218898,1267017,65124,7747,633073,0
0,-1,639272,219425,1317476,65296,6878,658296,0
0,-1,637901,218961,1228063,65185,6557,613643,0
0,2,715100,249945,1515665,74857,9609,756909,0
0,-1,634570,218994,1251599,65133,7704,625441,0
0,-1,635200,218847,1295521,65163,7192,647258,0
0,-1,632797,218703,1243934,65178,7796,621431,0
0,-1,657241,223400,1350069,68577,7964,674504,0
0,-1,636908,218937,1330870,65346,7373,664994,0
0,-1,636643,218407,1245226,65089,7028,622210,0
0,-1,658535,223365,1393489,69403,8774,696240,0
0,2,706303,247977,1380406,74081,7950,689734,0
0,-1,638603,218532,1269195,65958,7557,634095,0
0,-1,644544,220791,1199915,67117,7962,599042,0
0,-1,642192,220332,1250061,66782,7512,624580,0
0,-1,639016,220076,1254538,66702,8180,626552,0
0,-1,635388,218607,1246036,65986,7744,622489,0
0,-1,640281,218813,1191012,66088,8056,595012,0
0,-1,638310,218849,1198007,66090,8230,598461,0
0,-1,640463,219035,1324371,66116,7589,661717,0
0,-1,645389,220860,1272044,66938,7739,635258,0
0,-1,655315,223043,1365837,69206,9268,682377,0
0,2,708614,248418,1412722,74159,9804,705913,0
0,-1,643750,220625,1225346,66982,7264,612017,0
0,-1,642366,219391,1139866,66330,7575,569412,0
0,-1,639327,218305,1268928,65877,6951,634034,0
0,-1,641718,218505,1241390,66041,7509,620165,0
0,-1,637428,218769,1176342,65993,7305,587753,0
0,-1,640224,219007,1188703,66197,7270,593915,0
0,-1,642635,219810,1197480,66414,7765,598285,0
0,-1,636525,218278,1197121,65819,7381,598087,0
0,2,711429,248503,1493022,74297,9030,746022,0
0,-1,638248,218503,1237083,65911,7195,618151,0
0,-1,645324,221239,1230695,67122,7886,614476,0
0,-1,641479,218369,1207050,65961,7681,603073,0
0,-1,639279,218943,1277224,66161,7807,638245,0
0,-1,642219,218587,1311027,66040,8267,654200,0
0,-1,641199,218452,1284997,65909,7625,642171,0
0,-1,641526,219288,1258114,66223,7891,628512,0
0,-1,642496,218773,1323899,66079,7272,662075,0
0,-1,641388,218616,1198712,66021,7768,598794,0
0,-1,646139,219244,1199949,66201,7412,599586,0
0,-1,635155,218285,1108890,65922,7949,553971,0
0,2,729770,253369,1547087,77628,11277,772895,0
0,-1,640235,219216,1218824,66235,8451,608868,0
0,-1,659814,223670,1313269,69493,9141,656146,0
0,-1,639109,218859,1300170,66121,7678,649555,0
0,-1,641683,220844,1167692,67131,6537,583153,0
0,-1,638830,219671,1284185,66316,7604,641618,0
0,-1,645870,221152,1213412,67141,7444,605875,0
0,-1,662637,228214,1226292,68926,8416,612602,0
0,-1,638250,219093,1210556,66203,6941,604804,0
0,-1,644732,220360,1204762,66830,7273,601621,0
0,-1,637879,218727,1349669,66026,7223,674363,0
0,-1,641784,218653,1315882,66022,7272,657539,0
0,-1,642663,219068,1180606,66127,7715,589845,0
0,-1,659294,223549,1290246,69490,8765,644854,0
0,2,708202,248221,1432330,73989,9725,715681,0
0,-1,640004,219145,1280795,66187,7417,639942,0
0,-1,640209,219578,1292416,66324,7144,645836,0
0,-1,639996,218582,1222319,66072,6621,610563,0
0,-1,641250,219313,1272877,66211,7370,636034,0
0,-1,638585,218608,1279243,65977,7629,639270,0
0,-1,661376,222982,1305178,69173,8640,652129,0
0,2,716520,250140,1481418,74909,9717,739634,0
0,-1,642903,220507,1219149,66965,6636,608772,0
0,-1,646175,221538,1173967,67136,7012,586251,0
0,-1,641240,218727,1205467,66043,6510,602304,0
0,-1,637604,218128,1182773,65849,6343,591000,0
0,-1,641598,218977,1181534,66197,7186,590364,0
0,-1,648318,220804,1131685,67032,7436,565178,0
0,-1,634758,218364,1290531,65958,8496,644751,0
0,-1,639179,219241,1347333,66231,7683,672949,0
0,-1,641773,219961,1400556,66439,7823,699212,0
0,-1,640418,219024,1218339,66148,8008,608484,0
0,-1,645023,219797,1291177,66303,8061,645116,0
0,-1,665533,228126,1366341,68788,7885,682705,0
0,-1,647549,221065,1190210,66983,7500,594417,0
0,-1,642041,219548,1129302,66277,7116,564135,0
0,-1,642801,218446,1150710,65855,6957,574877,0
0,-1,641099,219025,1260910,65994,7156,630050,0
0,-1,642401,218900,1265572,65995,7517,632209,0
0,-1,643871,220006,1176673,66677,7258,587695,0
0,2,737615,253998,1450435,77950,10676,724788,0
0,-1,641494,219455,1314794,66344,7951,656906,0
0,-1,648107,221589,1179040,67358,8078,588630,0
0,-1,663058,223733,1358229,69417,8792,678645,0
0,-1,644340,219516,1445435,66198,8281,722019,0
0,-1,642652,218982,1284781,66032,8136,641852,0
0,-1,639711,219296,1305824,66075,8174,652478,0
0,-1,642111,218977,1258844,66051,8012,628938,0
0,-1,642170,219448,1199609,66225,7565,599356,0
0,-1,648578,220426,1252289,66647,8158,625539,0
0,-1,648250,220325,1212964,66702,8253,605785,0
0,-1,636778,219232,1236447,66137,7365,617766,0
0,-1,637799,218698,1270415,65987,7637,634518,0
0,-1,638799,219437,1301144,66206,7362,650126,0
0,-1,638545,218551,1164486,65854,7434,581707,0
0,-1,638675,218550,1194955,66173,7004,597000,0
0,-1,666469,224822,1377467,69874,9425,688271,0
0,-1,642150,220762,1227170,67043,8046,612802,0
0,2,716330,250030,1396734,74627,8737,697927,0
0,-1,641325,219753,1239291,66413,8555,619005,0
0,2,716213,250318,1334181,74666,8377,666576,0
0,-1,650354,222735,1221631,67752,8483,609921,0
0,-1,641779,219363,1206153,66316,8045,602568,0
0,-1,643351,219959,1263669,66473,8050,630963,0
0,-1,642644,219510,1281840,66320,7320,640334,0
0,-1,644883,219835,1294492,66569,7986,646764,0
0,-1,643440,220266,1606084,66723,9473,802580,0
0,-1,643186,219849,1188515,66564,7891,593773,0
0,2,717324,250754,1398114,75111,9251,698056,0
0,-1,643952,220314,1209520,66701,7848,604273,0
0,-1,645657,220636,1205607,66774,7897,602338,0
0,-1,666721,224998,1393973,69996,9761,696580,0
0,-1,666555,225059,1391843,69945,9453,695374,0
0,-1,641253,219447,1175785,66257,7418,587249,0
0,-1,664741,224832,1363505,69893,9287,681195,0
0,-1,643887,219169,1315828,66158,8622,657278,0
0,-1,643064,220183,1278945,66578,8489,638886,0
0,-1,644985,219958,1300371,66471,8042,649655,0
0,-1,644388,219806,1282988,66405,7601,640986,0
0,-1,646723,220076,1318944,66559,8862,658954,0
0,-1,640236,219615,1312565,66333,8072,655677,0
0,-1,640403,219749,1354621,66390,8555,676596,0
0,2,714645,248921,1421240,74278,9150,710194,0
0,-1,641311,220180,1179395,66509,7594,589206,0
0,-1,664803,224489,1517587,69788,9012,758236,0
0,-1,646975,221048,1235671,66990,7219,617118,0
0,-1,642464,220183,1266585,66486,7383,632795,0
0,-1,643808,220032,1262793,66384,6984,631133,0
0,-1,644652,221052,1408746,66737,8147,703865,0
0,-1,645640,220279,1284253,66410,7629,641636,0
0,2,715080,249652,1399460,74659,9131,699189,0
0,-1,643941,219313,1258049,65992,8124,628570,0
0,-1,663231,224857,1325801,69713,8350,662375,0
0,-1,642370,219874,1263193,66235,7480,631178,0
0,2,715343,248922,1252006,74361,8914,625471,0
0,-1,664347,224570,1363153,69669,8025,681082,0
0,-1,644369,219713,1364691,66304,7645,681779,0
0,-1,641716,219476,1249786,66157,7961,624522,0
0,-1,643189,219322,1308876,66126,8339,653801,0
0,-1,666469,223818,1379898,69380,9283,689409,0
0,-1,643590,220484,1366206,66522,7499,682607,0
0,-1,647583,221315,1342452,67029,8471,670313,0
0,-1,649864,220665,1272124,66841,8725,635425,0
0,-1,644748,219681,1274120,66352,8108,636643,0
0,-1,664313,224151,1377592,69528,9338,688318,0
0,-1,647831,219997,1423379,66434,9375,710692,0
0,-1,642357,219097,1264481,66089,7181,631721,0
0,-1,662035,224635,1382396,69746,9795,690685,0
0,-1,662461,224271,1495708,69613,9335,747300,0
0,-1,639440,219623,1294397,66289,9106,646664,0
0,-1,639208,218991,1281810,66007,7493,640491,0
0,-1,646081,220827,1365248,66677,9776,681766,0
0,-1,640269,219414,1218997,66211,8146,608835,0
0,2,710933,248092,1388764,74218,9250,693911,0
0,-1,641571,219295,1160670,66158,6847,579873,0
0,-1,642708,219485,1167685,66241,6139,583343,0
0,-1,643816,219314,1288215,66156,7266,643667,0
0,-1,645899,219872,1264065,66304,8564,631582,0
0,-1,645979,221734,1220199,67190,7540,609632,0
0,2,705412,248603,1505541,74425,8585,752351,0
0,-1,640021,218960,1322589,66058,8013,660813,0
0,-1,643958,220642,1226148,66622,7313,612423,0
0,-1,645806,220390,1319521,66522,7231,659341,0
0,-1,641478,219509,1232223,66172,7205,615710,0
0,-1,648033,221087,1237032,67004,7121,617695,0
0,-1,645113,220736,1340196,66930,8357,669341,0
0,-1,644332,219744,1276809,66393,8199,637903,0
0,-1,646355,219359,1265740,66222,8032,632506,0
0,-1,645133,219387,1183608,66271,7205,591359,0
0,-1,644435,219948,1188033,66453,7261,593553,0
0,-1,651267,221664,1211807,67291,8422,605116,0
0,-1,648165,221003,1281939,66700,6946,640587,0
0,-1,647995,219713,1316522,66301,8409,657758,0
0,-1,641018,219861,1250685,66314,7521,624878,0
0,-1,641327,218908,1287014,66025,6963,642879,0
0,2,709521,248134,1247879,74256,8523,623481,0
0,-1,649676,221488,1159636,67109,7316,578970,0
0,-1,643245,219880,1212464,66353,6984,605846,0
0,-1,645174,220951,1200247,66871,7463,599468,0
0,-1,641277,218749,1208605,65932,6775,603973,0
1,-1,698122,238962,1264525,71494,7995,631635,0
1,-1,693393,237125,1400641,70632,8789,699871,0
1,-1,691691,236940,1431447,70566,8285,715277,0
1,-1,699266,238938,1419886,71519,9092,708907,0
1,2,760735,266795,1528858,78765,9202,763917,0
1,-1,692835,238543,1414956,71310,7967,706477,0
1,-1,668722,231005,1310964,68909,8007,654995,2
1,-1,677631,230957,1326804,70827,8247,662703,0
1,-1,641113,220227,1298254,66321,8038,648479,0
1,-1,642405,220109,1329681,66274,7905,663777,0
1,-1,642806,219463,1303171,65822,8803,651082,0
1,-1,639184,219320,1203719,65853,6950,601143,0
1,-1,637979,218582,1254711,65576,7052,626965,0
1,-1,643406,220799,1304622,66507,8046,651607,0
1,-1,642728,219071,1174062,65728,7826,586482,0
1,2,707702,247894,1306069,73629,8599,652507,0
1,-1,660761,223285,1237142,68925,8709,617957,0
1,-1,663261,223820,1409668,69040,9150,704307,0
1,-1,636414,220672,1315879,66415,7282,657179,0
1,-1,655050,223189,1287530,68848,8177,643120,0
1,-1,639405,220095,1227019,66375,7030,612827,0
1,-1,639022,219631,1338155,66016,7515,668620,0
1,-1,639615,219161,1268819,65863,6670,633957,0
1,-1,634856,218694,1402629,65736,7332,700073,0
1,-1,634160,218325,1352436,65536,7586,675012,0
1,-1,636916,218575,1196861,65712,7303,597906,0
1,-1,660893,223537,1203675,69136,8401,601231,0
1,-1,637905,218324,1316742,65588,7283,657900,0
1,-1,639513,219250,1290567,65853,7732,644482,0
1,-1,639830,218972,1277688,65814,7266,638310,0
1,-1,641719,221323,1306834,66850,8147,652553,0
1,-1,635534,218376,1159072,65617,7121,578960,0
1,2,706852,248115,1312545,73823,9697,655692,0
1,-1,637992,218912,1140618,65874,7058,569764,0
1,-1,656863,222951,1242710,68827,8379,620746,0
1,-1,637597,218065,1204525,65412,7835,601905,0
1,2,707977,248358,1364919,73907,8654,682060,0
1,-1,639547,220212,1272640,66480,7082,635491,0
1,-1,660508,223300,1260504,69052,8429,629681,0
1,-1,638252,218653,1162087,65561,7227,580686,0
1,-1,662571,223837,1258237,69217,7800,628584,0
1,-1,644479,219862,1219558,66122,7965,608985,0
1,-1,647710,221062,1468187,66526,9422,733742,0
1,-1,635428,218712,1263521,65690,7911,631177,0
1,2,734292,257797,1418492,76503,9092,708833,0
1,-1,640109,219308,1351792,65816,7782,675428,0
1,-1,638444,219104,1394217,65674,7090,696543,0
1,-1,662995,224534,1251143,69267,8051,625042,0
1,-1,641954,219037,1256039,65678,7488,627615,0
1,-1,637884,218880,1278180,65697,6977,638650,0
1,-1,640633,219327,1215229,65772,6769,607149,0
1,-1,643356,220772,1419455,66506,8027,709017,0
1,-1,641871,219668,1201115,65982,7311,599967,0
1,-1,637519,218704,1347998,65654,7124,673522,0
1,-1,643603,219420,1361046,65945,7353,679991,0
1,-1,642351,219367,1129005,66019,6522,564007,0
1,2,710727,248364,1417923,73985,9145,708479,0
1,-1,645010,218893,1203938,65855,7348,601549,0
1,-1,638428,219001,1241647,65953,7183,620339,0
1,2,712071,248967,1415145,74129,9226,707174,0
1,-1,638571,218373,1311881,65659,7299,655483,0
1,-1,639654,218551,1282324,65763,7579,640646,0
1,-1,659020,223371,1236835,69176,7562,617897,0
1,-1,662230,223242,1247961,69052,8017,623415,0
1,-1,641533,219327,1350968,66003,8046,675016,0
1,-1,644596,219080,1293485,65954,7552,646256,0
1,-1,645306,221129,1422475,66937,9229,710357,0
1,2,704295,248270,1244323,73912,8886,621629,0
1,-1,643403,219861,1277686,66242,7810,638279,0
1,-1,643146,219071,1287338,66022,9339,642894,0
1,-1,640512,218791,1258485,65900,7639,628672,0
1,-1,646772,219618,1359152,66116,7864,678886,0
1,-1,635841,220547,1297229,66639,7224,647909,0
1,2,726249,253022,1513294,77296,9661,756185,0
1,-1,632259,218566,1275317,65726,7823,637176,0
1,-1,634989,218780,1191447,65849,7552,595175,0
1,-1,636246,219446,1173018,66113,7354,585931,0
1,-1,641108,220551,1407887,66693,8863,702670,0
1,-1,638749,218962,1187337,65955,7857,593187,0
1,-1,634843,218321,1187269,65682,7239,593244,0
1,-1,638415,220415,1320301,66616,7210,659243,0
1,-1,635191,218817,1189786,65926,7120,594375,0
1,2,708003,248266,1476134,73889,9263,737657,0
1,-1,642594,220960,1291657,66844,7439,645027,0
1,-1,639499,219356,1302650,66051,7073,650840,0
1,-1,634136,219127,1292778,65996,8157,645873,0
1,-1,638023,219506,1289153,66110,7965,643961,0
1,-1,645264,221819,1344794,67184,8274,671468,0
1,-1,636784,219441,1232540,66239,7233,615594,0
1,-1,639476,220270,1298411,66533,7854,648585,0
1,2,711495,250477,1478940,74760,9775,738918,0
1,-1,659243,223506,1264469,69234,7754,631659,0
1,-1,656840,223734,1273972,69262,8448,636456,0
1,-1,638050,219305,1279910,65898,7039,639446,0
1,2,708546,249153,1549449,74142,11007,774239,0
1,-1,638646,219304,1281365,65957,7589,639922,0
1,-1,640678,220634,1270768,66568,7224,634713,0
1,-1,638730,219283,1333646,65847,8648,666412,0
1,-1,637831,218983,1325907,65764,7088,662466,0
1,-1,639754,219473,1385983,65972,8562,692452,0
1,-1,635681,219567,1433856,66062,8120,716414,0
1,-1,641213,220239,1265604,66219,7828,632398,0
1,-1,671434,231545,1305152,70016,7586,651619,0
1,-1,638172,219670,1368745,66007,7482,683947,0
1,-1,638566,219248,1255735,65871,8056,627561,0
1,2,708208,249368,1375589,74161,7859,687367,0
1,-1,638319,218591,1349873,65617,8441,674366,0
1,-1,641412,220968,1278177,66667,7681,638456,0
1,-1,638719,219314,1260964,65959,6821,630032,0
1,-1,658597,223878,1246530,69229,7412,622720,0
1,-1,643794,221325,1277022,66869,8068,637830,0
1,-1,642345,219764,1218711,66054,7623,608707,0
1,-1,637206,220141,1289492,66231,7810,644076,0
1,-1,638787,220062,1165455,66195,6670,582230,0
1,-1,660235,224444,1210617,69403,7313,604795,0
1,-1,641304,219786,1225002,66143,7008,612046,0
1,-1,636402,219326,1290462,65902,7570,644688,0
1,-1,637918,219226,1152399,65943,6654,575819,0
1,-1,638980,218769,1293530,65728,7753,646239,0
1,2,728020,253004,1341734,77169,8759,670313,0
1,-1,660126,224052,1179498,69331,7642,589092,0
1,-1,643019,219617,1254659,66069,7897,626807,0
1,-1,637831,220761,1310630,66649,7609,654585,0
1,-1,637436,219991,1270832,66128,7610,634846,0
1,-1,656734,223356,1308800,69057,8036,653792,0
1,-1,641484,220415,1331995,66538,8139,665210,0
1,2,730436,253268,1340088,77290,9425,669500,0
1,-1,639792,220313,1334648,66237,7103,666525,0
1,-1,643301,221088,1285854,66813,7414,642094,0
1,-1,637673,219342,1176121,65873,6799,587620,0
1,-1,635654,218583,1178959,65646,7087,589048,0
1,-1,661602,223887,1349385,69241,7284,674174,0
1,-1,639209,219547,1272656,66069,7024,635760,0
1,2,712414,250256,1515496,74746,9171,756946,0
1,-1,639426,219010,1338291,65746,8068,668762,0
1,-1,639523,219933,1189077,66183,7645,594005,0
1,-1,658745,223995,1295714,69315,8487,647124,0
1,-1,639181,219666,1228382,66035,6888,613825,0
1,-1,639100,218960,1173909,65790,7023,586496,0
1,-1,640951,219581,1220435,66064,7684,609760,0
1,-1,639234,218861,1242327,65772,7220,620730,0
1,-1,641895,220564,1268831,66564,7843,633675,0
1,-1,635674,217862,1207440,65323,7386,603219,0
1,-1,641586,219954,1189925,66156,7022,594481,0
1,-1,642650,219879,1309665,66058,8085,654398,0
1,2,731753,253646,1352586,77385,8887,675787,0
1,-1,646176,221096,1314210,66773,7271,656229,0
1,-1,648109,221239,1301628,66737,8457,650039,0
1,-1,642149,221789,1367839,67060,7558,682647,0
1,-1,638908,220270,1289859,66161,6917,644464,0
1,-1,640923,220849,1313143,66529,6926,655871,0
1,-1,639729,219574,1205427,65902,6400,602145,0
1,-1,642148,219868,1196635,66121,6948,597748,0
1,-1,639046,219814,1330759,66029,7258,665004,0
1,-1,639095,219461,1163683,65890,6862,581390,0
1,-1,640580,220282,1212732,66099,7730,605902,0
1,-1,661272,224135,1213220,69215,7413,606058,0
1,-1,643942,220689,1290853,66506,7751,644611,0
1,-1,649436,221239,1295460,66712,7921,646983,0
1,-1,641494,220522,1431540,66194,7523,715275,0
1,2,712758,249519,1339436,74111,8905,669205,0
1,-1,640458,219324,1293853,65919,7843,646442,0
1,-1,644974,220219,1242597,66164,6827,620855,0
1,-1,643714,220025,1171419,66048,7280,585267,0
1,-1,668847,225394,1250373,69704,7830,624448,0
1,-1,643039,219921,1182567,66062,7107,590795,0
1,-1,645994,220846,1384633,66430,8261,691083,0
1,-1,646166,220182,1208394,66294,7566,603660,0
1,-1,647306,220854,1202038,66451,7973,600554,0
1,-1,647069,220725,1290148,66159,7883,644539,0
1,-1,668640,224906,1183613,69361,8331,591340,0
1,-1,638672,220196,1312036,65998,7901,655610,0
1,-1,641585,221252,1347049,66366,8435,673081,0
1,-1,642762,222113,1321661,66933,7425,660085,0
1,-1,640415,220021,1186162,65919,7147,592669,0
1,-1,646588,222209,1228386,66892,8007,613305,0
1,2,713882,250000,1329497,74321,9165,664201,0
1,-1,644118,220453,1188213,66140,7650,593577,0
1,-1,641078,220483,1201026,66141,7594,600071,0
1,-1,646789,222170,1276159,67000,7527,637321,0
1,2,710048,249354,1526728,74021,10591,763216,0
1,-1,642224,219781,1256022,65962,7213,627550,0
1,-1,640586,219656,1274977,65930,7672,637005,0
1,-1,644107,220761,1384595,66320,7651,691767,0
1,-1,645260,220165,1272486,66146,7926,635719,0
1,-1,640435,219662,1319525,65864,7529,659372,0
1,-1,643340,220407,1291055,66108,7868,645226,0
1,-1,640445,219979,1172873,66097,7263,585780,0
1,-1,641597,219483,1130499,65942,7346,564803,0
1,-1,640005,218595,1141639,65702,7806,570369,0
1,-1,640362,219123,1277391,65822,7523,638232,0
1,2,714351,249489,1239290,74177,9456,619082,0
1,-1,639625,219084,1416097,65719,7756,707610,0
1,-1,640635,219701,1299416,65903,7541,649135,0
1,-1,641132,218926,1253537,65689,8241,626288,0
1,-1,641229,219480,1247878,65938,7548,623368,0
1,-1,640367,219765,1314724,66073,7441,656950,0
1,-1,639264,219448,1170201,65991,7776,584449,0
1,-1,641503,220139,1310769,66425,8369,654447,0
1,-1,660438,223583,1289134,69021,9400,644028,0
1,-1,640627,219699,1316349,65984,8019,657624,0
1,-1,642714,219322,1237719,65795,7115,618375,0
1,-1,637603,218894,1169246,65672,7167,584111,0
1,-1,641367,220027,1204017,66062,8135,601504,0
1,-1,661094,223998,1276954,69204,8536,637626,0
1,2,738961,254448,1420471,77624,10716,709608,0
1,-1,637740,218602,1293975,65641,8014,646330,0
1,-1,642229,219523,1253073,65989,7206,626038,0
1,-1,640671,218997,1297995,65695,8091,648537,0
1,-1,636141,218719,1178433,65744,7638,588566,0
1,-1,639803,218951,1223594,65713,7547,611303,0
1,-1,639758,218822,1330254,65658,7869,664328,0
1,-1,661308,223801,1285619,69136,8987,642266,0
1,-1,669423,228487,1361226,68454,8489,680360,0
1,-1,642277,219204,1325427,65772,7456,662232,0
1,-1,664709,223761,1274793,69026,9340,636516,0
1,-1,647780,221812,1326657,66862,8500,662571,0
1,2,707065,248969,1445565,73799,8988,722244,0
1,-1,641467,219381,1414506,65685,8191,707278,0
1,-1,647424,221260,1271071,66588,7907,634736,0
1,-1,644119,219399,1272329,65717,7842,635653,0
1,-1,644980,219587,1342184,65710,7758,670631,0
1,-1,644733,219331,1172678,65660,7737,585949,0
1,2,727405,252304,1377050,76787,9234,687969,0
1,-1,641630,220973,1283363,66459,7928,640877,0
1,-1,641561,219930,1274274,65855,7823,636617,0
1,-1,638627,219069,1257026,65593,7331,628155,0
1,-1,667762,228634,1300000,68433,7747,649600,0
1,-1,642247,219471,1234964,65738,7846,617003,0
1,-1,637387,219346,1281879,65807,6938,640485,0
1,-1,641975,219381,1259183,65821,7767,629155,0
1,-1,639737,218758,1263279,65591,7537,631202,0
1,-1,639638,219144,1179084,65736,7255,589082,0
1,-1,639163,218943,1400524,65672,7758,699636,0
1,2,709783,248188,1385074,73607,8867,692060,0
1,-1,637941,218653,1247221,65537,8274,623178,0
1,-1,641869,218867,1221343,65657,8046,609787,0
1,-1,638214,219837,1367098,65931,8330,682774,0
1,-1,635964,218264,1267958,65375,7705,633537,0
1,-1,640129,219352,1261232,65765,7358,630191,0
1,-1,638516,219172,1128389,65740,7092,563653,0
1,2,727470,252941,1389196,77031,9529,694079,0
1,-1,661188,223711,1200115,69000,7307,599489,0
1,-1,641565,219387,1360530,65782,7226,679735,0
1,-1,640895,218753,1318757,65563,7616,658988,0
1,-1,644403,219765,1277480,65938,7342,638319,0
1,-1,648514,221320,1159898,66723,7922,579162,0
1,-1,641854,218982,1220520,65633,7790,609798,0
1,-1,641329,218741,1284306,65560,7998,641773,0
1,2,732162,252952,1537734,77016,9440,768313,0
1,-1,643903,218916,1225072,65692,7578,612080,0
1,-1,638454,218783,1239448,65583,6826,619265,0
1,-1,645111,220845,1361107,66585,7793,679750,0
1,-1,638744,218680,1292025,65543,7276,645558,0
1,-1,639821,219076,1284946,65719,7073,641846,0
1,2,711313,248473,1309798,73702,8404,654283,0
1,-1,644920,219316,1275850,65804,7644,637480,0
1,-1,643131,220449,1243438,66160,7597,621173,0
1,-1,641730,219248,1321046,65786,7214,660098,0
1,-1,643711,219182,1262418,65754,7484,630607,0
1,-1,662059,223423,1314975,68918,8089,656992,0
1,2,712461,248211,1335259,73574,8491,667081,0
1,-1,640521,218908,1273223,65675,7542,636039,0
1,-1,643408,219184,1320907,65758,7199,659909,0
1,-1,664104,222861,1253474,68696,8453,626298,0
1,-1,643685,220481,1183523,66364,6832,591052,0
1,-1,639611,218917,1282676,65649,7106,640963,0
1,-1,647044,221557,1194873,66788,7066,596725,0
1,-1,640640,219007,1367261,65686,7138,683119,0
1,-1,642505,218698,1289987,65544,7804,644507,0
1,-1,646037,220430,1298291,66265,8332,648229,0
1,-1,640723,219026,1351679,65710,7406,675356,0
1,-1,640994,218755,1410770,65629,7587,704953,0
1,-1,648293,220799,1198320,66553,7444,598366,0
1,-1,639566,218504,1352249,65496,6629,675499,0
1,-1,641235,218578,1216732,65445,6814,607698,0
1,-1,642377,218514,1255695,65424,6556,627398,0
1,-1,644957,219379,1245110,65670,5960,622010,0
1,-1,633162,218516,1310694,65041,6788,654822,0
1,-1,655135,223844,1310030,68570,8089,654523,0
1,2,713169,251177,1320001,74560,8728,659351,0
1,-1,633932,218715,1206357,65079,7301,602654,0
1,-1,633524,218135,1179872,64917,7023,589487,0
1,-1,638621,220115,1213767,65780,6731,606222,0
1,-1,641138,220737,1167963,65960,6863,583210,0
1,2,709468,248413,1424300,74253,9667,711769,0
1,-1,634531,219322,1277368,65255,7948,638132,0
1,2,711247,247909,1289631,74000,9961,644377,0
1,-1,635090,219161,1331611,65234,7058,665383,0
1,-1,638288,219788,1262470,65481,6841,630668,0
1,-1,636830,219326,1318833,65284,7303,658915,0
1,-1,636816,220256,1129063,65879,7549,563755,0
1,-1,637622,219205,1239832,65280,7169,619407,0
1,-1,637712,219315,1327256,65341,7119,663035,0
1,-1,655201,223554,1398965,68474,8233,699015,0
1,-1,636359,218824,1268077,65109,7561,633678,0
1,-1,643937,221376,1185076,66376,7208,591609,0
1,-1,635332,218898,1182056,65259,7085,590601,0
1,-1,640258,220510,1279686,66053,7172,638965,0
1,-1,639550,219310,1168699,65466,7029,583843,0
1,-1,642212,219360,1358479,66273,8469,678726,0
1,-1,638095,218402,1274067,65919,7917,636525,0
1,2,705240,247698,1492886,73937,8732,746000,0
1,-1,641400,219996,1220509,66701,7882,609585,0
1,-1,644105,219658,1330941,66372,8185,665017,0
1,-1,656252,223488,1346726,69440,9277,672818,0
1,-1,642075,221103,1211397,67108,7818,604638,0
1,-1,640685,219215,1305099,66206,8271,652156,0
1,-1,639160,219132,1256520,66166,8289,628144,0
1,-1,644365,221041,1274512,67123,7504,636818,0
1,-1,639795,219012,1312797,66178,7764,655725,0
1,-1,640470,218929,1324382,66129,7812,661518,0
1,2,705579,247847,1298615,73958,8847,648925,0
1,-1,639272,219192,1305163,66284,7788,651818,0
1,-1,659577,223064,1268541,69328,8987,633845,0
1,-1,636870,218429,1300178,65868,7230,649628,0
1,-1,643921,219926,1176673,66701,6846,587687,0
1,2,708412,248507,1392463,74233,8388,695818,0
1,-1,638731,219316,1267339,66269,7425,633179,0
1,-1,640968,219278,1282044,66201,7782,640581,0
1,-1,661636,223992,1214159,69622,8332,606617,0
1,-1,637950,219279,1222436,66240,7244,610657,0
1,-1,641953,219152,1313137,66184,7640,656176,0
1,-1,660817,223597,1425153,69488,8859,712037,0
1,-1,641465,219002,1266258,66135,8056,632705,0
1,-1,640729,219158,1232022,66189,7081,615409,0
1,-1,642148,219271,1301948,66240,7315,650462,0
1,-1,645723,220796,1237580,67062,7931,617959,0
1,-1,640430,218597,1362999,66007,7640,681208,0
1,-1,642850,219296,1399252,66237,7515,699107,0
1,-1,643129,219547,1320043,66330,8093,659548,0
1,-1,661931,222524,1337854,69127,8672,668305,0
1,2,718118,250564,1390147,75174,8986,694338,0
1,-1,637875,219642,1181318,66413,8537,590194,0
1,-1,638097,218802,1203741,66048,8193,601374,0
1,-1,635894,218568,1256990,65968,7807,628093,0
1,-1,637368,218477,1304801,65967,7939,651871,0
1,-1,655767,223043,1315135,69335,7736,657069,0
1,-1,644721,220822,1178161,67042,7509,588297,0
1,-1,660170,223131,1321235,69321,8680,659962,0
1,-1,638848,218610,1266488,66011,7319,632822,0
1,2,710231,248388,1330269,74119,9120,664691,0
1,-1,636836,218479,1203969,65971,7176,601590,0
1,-1,640546,219094,1289752,66204,7396,644455,0
1,-1,642410,220893,1202752,67090,7465,600582,0
1,-1,645973,220857,1191739,67003,6774,595099,0
1,-1,661917,223400,1234428,69399,8637,616694,0
1,-1,638739,219733,1256774,66409,8442,627892,0
1,-1,641707,219910,1187056,66686,7013,592855,0
1,-1,658075,223121,1414236,69320,8440,706662,0
1,-1,637493,217964,1164720,65822,6641,581954,0
1,-1,643454,220348,1230435,66819,7049,614496,0
1,-1,662647,223705,1318007,69490,7491,658483,0
1,-1,642018,219247,1216513,66221,7321,607785,0
1,2,712118,248919,1426310,74224,8952,712620,0
1,-1,667340,228757,1271732,69112,7537,635403,0
1,-1,659793,223571,1334025,69266,7982,666595,0
1,-1,641944,219313,1267649,66256,7431,633359,0
1,-1,639699,219197,1241516,66206,7154,620332,0
1,-1,644554,219226,1131568,66186,6968,565368,0
1,-1,665305,223815,1224335,69573,8357,611613,0
1,-1,645058,218745,1284882,66131,7817,641917,0
1,-1,636386,218581,1379394,66021,8274,688900,0
1,-1,644770,220703,1288783,66900,7784,643217,0
1,-1,643279,219707,1266232,66377,8225,633057,0
1,-1,643306,219215,1263357,66116,8133,631295,0
1,-1,640201,219905,1177107,66594,7542,587786,0
1,-1,639677,218411,1225350,65804,6722,612272,0
1,-1,643009,219639,1344574,66272,7647,671824,0
1,-1,644828,219743,1172319,66329,7190,585651,0
1,-1,645898,220922,1232219,66955,7988,615396,0
1,-1,642118,218706,1310095,65894,8131,654611,0
1,-1,640043,219330,1276647,66086,7747,637836,0
1,2,711027,248869,1313046,74410,9358,656087,0
1,-1,642499,219135,1270819,66144,6797,634997,0
1,-1,641421,218902,1173187,66141,7246,586188,0
1,-1,640604,219323,1271505,66253,8112,635339,0
1,-1,642750,219417,1264232,66315,8313,630808,0
1,-1,648082,221197,1363413,67010,9190,680702,0
1,-1,649471,220951,1167371,66934,8194,582814,0
1,-1,642021,218762,1346307,65855,7857,672771,0
1,-1,645129,219423,1424002,66163,7903,711474,0
1,-1,641853,218999,1226944,66035,7570,613028,0
1,-1,645532,219671,1293200,66250,8099,646103,0
1,-1,649833,220469,1239917,66741,7592,619215,0
1,-1,636690,218361,1201066,65777,7481,600092,0
1,-1,636422,218508,1327969,65881,8096,663570,0
1,-1,643361,220410,1155658,66673,7759,577132,0
1,-1,640564,219426,1238405,66383,7380,618818,0
1,-1,642078,219997,1394772,66535,7881,696928,0
1,-1,638963,219492,1183053,66329,7772,591059,0
1,2,763149,263505,1563974,80597,11167,781438,0
1,-1,641762,219960,1282528,66513,8146,640813,0
1,-1,664649,224847,1504979,69917,11102,752028,0
1,2,714187,249342,1463349,74332,9576,731180,0
1,-1,645042,220650,1167307,66645,7430,583201,0
1,-1,646421,221809,1324087,67359,9820,661196,0
1,-1,643146,219996,1263336,66526,8257,631089,0
1,-1,644916,220123,1325368,66623,8231,662021,0
1,-1,647124,220096,1313915,66683,8663,656341,0
1,2,714703,248868,1412186,74250,10289,705622,0
1,-1,643330,220502,1341508,66824,8392,670134,0
1,-1,649889,222933,1211864,67893,7832,605078,0
1,-1,644222,220048,1201225,66584,7594,600078,0
1,-1,643368,220049,1324585,66503,9141,661624,0
1,-1,646290,220631,1330664,66677,8173,664868,0
1,-1,643401,219571,1294674,66324,8966,646840,0
1,-1,644836,220657,1216057,66718,8232,607474,0
1,-1,647450,221445,1204119,67160,8873,601302,0
1,-1,643800,220279,1305714,66550,8652,652118,0
1,-1,644266,219929,1320274,66495,8018,659477,0
1,-1,647262,221356,1231302,67146,8071,614775,0
1,-1,644624,219649,1355412,66396,8800,677289,0
1,2,731072,253473,1389487,77634,10604,694159,0
1,-1,642059,220098,1330575,66567,8028,664795,0
1,-1,644810,221950,1205454,67473,8837,601676,0
1,-1,643676,220786,1262911,66778,8124,630706,0
1,-1,641812,219737,1255427,66380,6949,627299,0
1,-1,644911,220206,1201876,66546,7391,600494,0
1,-1,642883,220229,1221911,66492,8159,610344,0
1,2,713956,249857,1288949,74660,8001,644074,0
1,-1,642539,220132,1404337,66455,7507,701519,0
1,-1,644435,219919,1224215,66324,7458,611675,0
1,-1,671493,225678,1412194,70481,9412,705529,0
1,-1,650966,222321,1274273,67352,8599,636270,0
1,-1,650531,220915,1202369,66619,7781,600684,0
1,-1,642504,220072,1284483,66301,7425,641809,0
1,2,721914,251185,1275954,75382,9064,637162,0
1,-1,644785,220886,1227631,66800,6977,613151,0
1,-1,644607,219999,1372196,66391,7454,685607,0
1,-1,642660,219681,1275000,66267,6413,637083,0
1,-1,647465,220987,1404782,66892,7559,700824,0
1,-1,647284,220882,1202890,66885,8210,600138,0
1,-1,641920,219655,1350318,66331,8227,674632,0
1,-1,667638,228256,1318763,68815,7979,658779,0
1,-1,647856,220329,1349079,66534,8356,673842,0
1,-1,642842,219276,1273038,66151,8662,635898,0
1,-1,646184,219541,1230854,66308,7797,614651,0
1,-1,644561,219070,1221378,66112,8483,610110,0
1,-1,647806,220104,1221586,66478,8061,610280,0
1,-1,638776,219377,1314393,66232,8055,656852,0
1,-1,640961,219752,1289829,66321,7792,644309,0
1,2,713341,248935,1429443,74264,8674,714250,0
1,-1,647156,221290,1199417,67060,8029,598685,0
1,-1,645251,221130,1241581,66996,7784,620078,0
1,-1,640736,218922,1415152,65971,9422,706941,0
1,-1,639665,220138,1402041,66442,9526,700602,0
1,-1,664687,225087,1337325,69859,8329,668141,0
1,-1,641717,219582,1270843,66280,7101,634923,0
1,-1,642902,219610,1257412,66339,7031,628244,0
1,-1,645458,219917,1282079,66353,7960,640535,0
1,2,714789,247804,1417463,74189,9556,708249,0
1,-1,649326,220688,1352236,66615,8593,675544,0
1,-1,650241,222992,1232736,67749,7868,615597,0
1,-1,639684,219354,1298085,66163,8428,648562,0
1,-1,643833,220234,1184027,66484,6898,591724,0
1,-1,646031,221703,1207309,67192,7564,602436,0
1,-1,664174,223729,1305215,69478,8753,652114,0
1,-1,665224,224162,1327632,69681,7972,663344,0
1,-1,664648,224131,1340012,69651,8810,669498,0
1,-1,645685,220391,1212610,66793,6820,605563,0
1,2,710585,247814,1452928,74137,9263,726087,0
1,-1,671013,228894,1297140,69107,7900,648171,0
1,-1,641336,219057,1140212,66142,7110,569550,0
1,-1,669790,225220,1292957,69965,9169,645898,0
1,-1,647683,220024,1225776,66354,7330,612501,0
1,-1,672543,225322,1479013,69913,8550,738991,0
1,-1,643084,219642,1205711,66270,6987,602362,0
1,-1,642952,219394,1270820,66089,7477,634935,0
1,-1,644794,219714,1185608,66352,7554,592243,0
1,-1,641309,218884,1201256,65919,7174,600157,0
1,-1,643348,219104,1290654,66099,7645,644913,0
1,-1,648466,220992,1220359,66924,7191,609446,0
2,-1,691642,236805,1175129,70551,7665,587157,0
2,-1,696828,238976,1415267,71398,8248,706935,0
2,2,763273,266697,1511785,78725,10320,755042,0
2,-1,697651,239829,1561295,71903,8656,779574,0
2,-1,715854,241994,1365927,74034,9386,682439,0
2,-1,690379,237105,1284502,70699,7391,641802,0
2,-1,693434,237658,1414824,70814,8032,707563,0
2,-1,637937,218977,1257044,65765,7384,628007,0
2,-1,638987,218661,1196810,65554,7788,597699,0
2,-1,646585,221410,1280637,66707,8774,639506,0
2,-1,634884,218051,1324072,65327,8125,661539,0
2,-1,640051,219279,1425366,65832,8343,712186,0
2,-1,639228,219303,1280072,65751,7784,639419,0
2,-1,638949,218083,1282976,65307,7848,640896,0
2,2,708637,247929,1379460,73632,9265,689224,0
2,-1,639427,218743,1248361,65630,7870,623738,0
2,-1,640984,218994,1206879,65724,7645,602933,0
2,-1,640882,218684,1255520,65600,7230,627279,0
2,-1,632875,218797,1152053,65717,7259,575410,2
2,-1,634096,218259,1276943,65426,7777,637992,0
2,-1,641676,221218,1196130,66822,7433,597339,0
2,-1,634725,218445,1189825,65606,6809,594479,0
2,-1,639453,219423,1168566,65872,6841,583907,0
2,-1,632831,218251,1330652,65582,7571,664714,0
2,-1,637422,218951,1271000,65798,7427,635091,0
2,-1,637896,218786,1215460,65726,7193,607151,0
2,-1,638277,218749,1118398,65805,7357,558413,0
2,-1,637005,218782,1278288,65801,7269,638478,0
2,-1,638377,218578,1282418,65728,7711,640678,0
2,-1,646114,221158,1352749,66794,8296,675500,0
2,-1,642069,218863,1430973,65830,9066,714805,0
2,2,707588,248377,1307450,73850,8819,653029,0
2,-1,686083,232292,1431461,71718,8648,715193,0
2,-1,634970,217794,1213482,65406,8088,606141,0
2,-1,636441,218922,1169762,65697,7556,584336,0
2,-1,639573,219071,1208516,65773,7270,603756,0
2,2,711451,248567,1604427,73840,10407,801845,0
2,-1,641028,218523,1439841,65676,8777,719522,0
2,-1,640597,219000,1311772,65867,7457,655504,0
2,-1,639087,219284,1214912,65843,7540,607032,0
2,-1,641210,219188,1195625,65862,7735,597401,0
2,-1,664895,224202,1276315,69436,8896,637499,0
2,-1,644348,219598,1460274,65911,8121,729505,0
2,2,707412,248423,1568849,73893,10129,783940,0
2,-1,643584,219077,1282615,65771,7955,640695,0
2,-1,639663,219629,1266728,65923,8473,632891,0
2,-1,641423,220137,1292547,66010,7356,645776,0
2,-1,644518,220393,1199088,66158,6803,599021,0
2,-1,642057,219538,1188694,65873,7104,593881,0
2,-1,638088,219477,1230034,65923,7491,614469,0
2,-1,661087,223900,1219570,69187,7974,609047,0
2,-1,638800,219288,1249794,65842,7433,624420,0
2,-1,663152,223742,1280963,69123,8343,639906,0
2,-1,642624,220232,1320708,66200,7379,659926,0
2,-1,640728,218729,1285224,65632,7260,642168,0
2,2,738435,258159,1428813,76846,9540,714039,0
2,-1,642792,219807,1286906,66079,7042,642954,0
2,-1,649415,221447,1281129,66915,8073,639820,0
2,-1,639121,218951,1260280,65884,7369,629830,0
2,2,730639,252559,1373511,77102,10131,686240,0
2,-1,640629,219451,1413086,66078,8073,706005,0
2,-1,641414,219666,1291852,66160,7355,645391,0
2,-1,637851,219056,1254414,65978,6953,626768,0
2,-1,642955,219600,1320135,66142,7660,659610,0
2,-1,642185,218989,1304990,65889,7798,652007,0
2,-1,642993,218750,1123415,65887,6653,561210,0
2,2,703513,247789,1402179,73762,8866,700639,0
2,-1,638998,218545,1275428,65768,8018,637203,0
2,-1,645747,219947,1313905,66409,8684,656290,0
2,-1,645491,221131,1294760,66993,8411,646467,0
2,-1,644762,219893,1273808,66236,7586,636265,0
2,-1,647213,220417,1420619,66432,9498,709682,0
2,-1,644925,218758,1285247,65830,7425,642160,0
2,2,705887,248331,1240434,73971,8946,619778,0
2,-1,639139,220939,1339558,66867,7657,668791,0
2,-1,661574,228058,1302189,68592,7353,650652,0
2,-1,660209,223799,1223717,69315,8541,611301,0
2,-1,639547,219933,1291304,66245,7872,645032,0
2,-1,639480,219273,1275215,66006,7659,637175,0
2,-1,639741,220789,1278622,66812,8107,638434,0
2,2,705535,248564,1462770,74039,9747,730005,0
2,-1,635995,219243,1362497,66025,7083,680746,0
2,-1,646756,221855,1379293,67195,7698,688608,0
2,-1,658207,223713,1247163,69207,7666,623144,0
2,-1,640076,219501,1224297,66105,6566,611762,0
2,-1,632116,218747,1273090,65818,7974,636163,0
2,-1,637759,219822,1266600,66215,7137,632770,0
2,-1,637488,219382,1308435,66004,7847,653586,0
2,-1,636198,219472,1193934,66093,6732,596512,0
2,2,709397,250933,1513938,74954,10637,756276,0
2,-1,640731,219499,1196984,66113,7718,597933,0
2,-1,637608,219136,1290933,65911,6697,644928,0
2,-1,642080,220270,1275998,66470,7084,637340,0
2,2,706836,248286,1557013,73820,10329,777728,0
2,-1,639877,219926,1276989,66105,7296,638045,0
2,-1,639587,219271,1580117,65933,7830,788488,0
2,-1,636642,219298,1204669,65961,7334,601811,0
2,-1,662674,224298,1543726,69340,9290,770975,0
2,-1,641649,220250,1235666,66238,8380,617240,0
2,-1,641233,219253,1326900,65948,8512,662774,0
2,-1,635963,219797,1299544,66058,8074,648812,0
2,-1,634870,218962,1337245,65768,8069,667886,0
2,2,729675,253789,1460444,77436,10185,730062,0
2,-1,641012,221115,1379191,66716,7862,688880,0
2,-1,635314,219267,1219693,65936,7013,609323,0
2,-1,642220,220720,1387900,66587,8109,693218,0
2,-1,659163,224141,1522288,69353,9195,760236,0
2,-1,636555,219331,1400301,65918,8488,699918,0
2,-1,640892,220166,1247453,66188,6834,623363,0
2,-1,641577,219734,1243653,66110,7130,621389,0
2,-1,658563,223729,1279994,69171,8277,639525,0
2,-1,639616,219201,1153706,65908,6989,576409,0
2,-1,638270,218765,1248270,65664,7608,624061,0
2,-1,642880,221109,1436341,66813,8261,717449,0
2,-1,641520,219291,1228505,65956,7023,613779,0
2,2,731756,252655,1390266,77056,10056,694665,0
2,-1,664488,224415,1261660,69421,8046,630291,0
2,-1,642052,219360,1252412,65978,7458,625822,0
2,-1,639689,219075,1287250,65844,6895,643241,0
2,-1,642410,219345,1255902,65942,7216,627485,0
2,-1,641263,219704,1208148,66104,7800,603596,0
2,-1,639464,218774,1204159,65796,7354,601592,0
2,-1,645218,219258,1329137,65906,7859,664104,0
2,-1,634392,218826,1203829,65768,7381,601585,0
2,-1,634498,219425,1265919,65968,6789,632469,0
2,2,711680,249958,1390759,74596,8877,694660,0
2,-1,640250,219836,1179049,66082,7001,588990,0
2,-1,639711,219999,1325794,66222,7417,662299,0
2,-1,660568,224403,1248009,69439,8255,623511,0
2,-1,642089,219553,1294302,66048,7502,646593,0
2,-1,641809,220916,1310282,66613,7171,654435,0
2,-1,639978,219326,1235210,65944,7343,617057,0
2,2,711472,249230,1568111,74152,10264,783537,0
2,-1,642006,220660,1292970,66591,7257,645741,0
2,-1,643495,220317,1252480,66316,7261,625682,0
2,-1,639424,219859,1279636,66157,7959,639298,0
2,-1,639087,219403,1256129,65897,7314,627672,0
2,-1,641884,219168,1189482,65871,7762,594353,0
2,-1,638786,219011,1240830,65720,7202,619992,0
2,-1,639171,219054,1239354,65839,7606,619234,0
2,2,714277,249086,1387976,74112,9160,693411,0
2,-1,641216,218937,1249482,65828,7961,624306,0
2,-1,640535,219377,1372394,65872,7553,685571,0
2,-1,643156,220459,1291570,66179,7206,645309,0
2,-1,641603,220250,1316948,66174,7741,657959,0
2,-1,661908,223841,1236520,69163,8336,617464,0
2,-1,662769,223983,1343737,69255,7719,671387,0
2,-1,641431,218954,1303711,65793,8021,651390,0
2,-1,655471,223812,1212665,69225,7581,605785,0
2,-1,639871,220050,1269608,66115,6934,634357,0
2,-1,662059,224746,1194022,69384,8039,596588,0
2,-1,636332,218683,1249444,65560,6138,624284,0
2,-1,639414,219618,1304229,65975,6834,651645,0
2,-1,637199,219179,1306000,65767,7433,652579,0
2,-1,640107,219883,1247309,66160,7194,623164,0
2,-1,640551,219267,1342799,65778,7105,670921,0
2,-1,642812,219635,1216188,65896,7926,607672,0
2,2,710654,248184,1325646,73649,9398,662358,0
2,-1,667261,225252,1275648,70093,8519,637243,0
2,-1,642825,219349,1193594,65871,7239,596341,0
2,-1,639175,219359,1256501,65842,7311,627774,0
2,-1,639872,219284,1222902,65773,7553,611019,0
2,-1,641828,219737,1277888,65960,7130,638443,0
2,-1,643513,220143,1283595,66084,6964,641285,0
2,-1,646931,220363,1282836,66311,6909,640609,0
2,-1,645057,221290,1154628,66586,6626,576834,0
2,-1,642924,219696,1212562,66071,7066,605811,0
2,-1,647107,220845,1294032,66432,7462,646491,0
2,-1,649504,222069,1368469,67093,8267,683402,0
2,-1,648050,221429,1300295,66764,7934,649397,0
2,-1,649644,221379,1221119,66404,8297,610015,0
2,-1,640047,220797,1252830,66235,7868,625913,0
2,-1,645024,221779,1287291,66759,8576,642973,0
2,-1,661347,225372,1354958,69513,8500,676943,0
2,2,714359,249574,1379977,73959,9759,689454,0
2,-1,642485,221031,1304538,66302,7547,651590,0
2,-1,641834,220532,1287228,66104,8419,643122,0
2,-1,642933,220412,1211921,66144,8070,605293,0
2,-1,664789,225949,1246986,69730,8076,622913,0
2,-1,641998,220115,1178983,65998,7502,588999,0
2,2,708884,249236,1330652,74052,9217,664926,0
2,-1,644009,220284,1364026,66176,7381,681498,0
2,-1,641213,220137,1173025,66185,7008,585656,0
2,-1,643629,220181,1291626,66087,8250,645319,0
2,-1,642620,219491,1150116,65882,7663,574601,0
2,-1,661896,224895,1207737,69404,8066,603353,0
2,-1,643882,220489,1284806,66117,7630,641921,0
2,2,708154,248732,1421818,73873,9668,710495,0
2,-1,640224,219026,1305593,65632,8014,652362,0
2,-1,639628,218987,1196828,65740,7750,597885,0
2,-1,640885,219274,1229512,65872,7747,614215,0
2,-1,641500,219739,1192899,66057,7350,595966,0
2,-1,641874,219773,1290606,65979,7340,644748,0
2,-1,642042,219629,1275349,65942,7645,637202,0
2,-1,663477,224540,1263720,69327,8079,631407,0
2,-1,645712,220497,1206645,66455,8435,602577,0
2,-1,643631,218767,1198210,65710,7333,598529,0
2,-1,638550,219371,1335459,65929,8967,667130,0
2,-1,638161,219565,1229777,66012,7571,614375,0
2,2,710259,248638,1439885,73786,9740,719606,0
2,-1,640554,220362,1240189,66452,7960,619302,0
2,-1,637937,219068,1220507,65723,7693,609633,0
2,-1,649369,222209,1364838,66950,8208,681561,0
2,-1,644591,222151,1293378,67054,8636,645659,0
2,-1,638284,218902,1289220,65641,8019,644096,0
2,-1,642582,219584,1235244,65933,8330,617165,0
2,-1,640380,219930,1301806,66322,7773,650114,0
2,-1,639234,218631,1414668,65636,7851,706962,0
2,-1,642515,218731,1167622,65694,8249,583379,0
2,-1,637387,219490,1386400,65960,8111,692717,0
2,-1,662125,224369,1182820,69322,7740,590873,0
2,-1,663559,223738,1198561,69129,8425,598795,0
2,-1,642033,220237,1367486,66153,8394,683226,0
2,-1,641109,219289,1222322,65849,8145,610673,0
2,-1,642622,219271,1426388,65814,8167,713543,0
2,-1,644222,219473,1318339,65823,8149,658459,0
2,2,716305,248532,1295963,73562,8733,647578,0
2,-1,641636,219507,1330548,65843,9620,664796,0
2,-1,646159,221574,1340598,66601,8319,669398,0
2,-1,644036,219136,1358955,65557,8654,678954,0
2,-1,647844,221181,1278786,66477,7650,638704,0
2,-1,644506,219768,1188184,65835,7673,593581,0
2,-1,645497,219368,1211448,65657,7586,605296,0
2,2,733653,253753,1311713,77183,9838,655393,0
2,-1,639185,219688,1272884,65769,7871,635889,0
2,-1,640475,219850,1290379,65788,7936,644700,0
2,-1,643177,219870,1320052,65845,7426,659638,0
2,-1,662498,223981,1354945,69056,7642,676937,0
2,-1,641542,219512,1191837,65790,7023,595451,0
2,-1,641324,220785,1242687,66374,7456,620504,0
2,-1,638380,219127,1313669,65754,7055,656352,0
2,2,711710,249631,1380524,74353,8292,689647,0
2,-1,638871,218755,1281582,65563,6919,640347,0
2,-1,663605,223424,1281289,68929,8141,640108,0
2,-1,640768,219200,1233253,65996,7054,615907,0
2,-1,641635,218927,1262229,65623,8160,630417,0
2,-1,643653,219367,1352046,65806,8271,675161,0
2,-1,643795,220254,1244638,66295,7055,621346,0
2,-1,643886,221329,1259027,66704,7299,628771,0
2,2,710957,248217,1444831,73697,10013,721827,0
2,-1,640403,220073,1243798,66275,7137,621179,0
2,-1,637848,218793,1194008,65581,7544,596531,0
2,-1,638573,218835,1180077,65654,7301,589534,0
2,-1,642713,218903,1282997,65614,8153,640999,0
2,-1,663119,223474,1261052,68962,8204,629976,0
2,-1,648411,221002,1217964,66533,7523,608227,0
2,-1,641887,219244,1209193,65787,7666,604187,0
2,-1,640850,219303,1222338,65811,7910,610665,0
2,2,716258,250397,1313426,74593,8774,656014,0
2,-1,642184,218958,1216326,65632,7897,607786,0
2,-1,642749,219056,1171960,65739,7422,585496,0
2,-1,641378,220323,1211463,66334,7002,605017,0
2,-1,639694,218925,1174708,65665,7017,587030,0
2,-1,662509,223637,1288328,69038,8614,643743,0
2,-1,640157,219093,1200184,65683,7133,599666,0
2,2,733250,253631,1516136,77224,9147,757748,0
2,-1,641457,218943,1373105,65684,7584,686039,0
2,-1,643590,220402,1146454,66349,7089,572614,0
2,-1,641670,219266,1291128,65790,7536,644987,0
2,-1,640886,218201,1298903,65337,7647,648985,0
2,-1,640234,218643,1217477,65530,6770,608260,0
2,2,718717,249599,1517900,74117,9407,758455,0
2,-1,639752,218110,1248651,65414,7315,623797,0
2,-1,642712,219230,1364681,65722,8079,681881,0
2,-1,643860,218985,1138216,65672,7725,568663,0
2,-1,639654,219226,1198251,65792,6842,598580,0
2,-1,640661,218655,1243550,65532,7188,621313,0
2,-1,661550,223097,1293988,68768,8111,646676,0
2,2,703671,248397,1250473,73243,8714,624720,0
2,-1,643869,219326,1246509,65800,7421,622744,0
2,-1,640968,218797,1310345,65579,7296,654732,0
2,-1,644076,219031,1231354,65726,7624,615169,0
2,-1,639459,219116,1229287,65665,7360,614119,0
2,-1,644815,219240,1283695,65761,7636,641467,0
2,-1,664565,223633,1320159,68988,7720,659489,0
2,-1,642238,219306,1317428,65755,6696,658170,0
2,-1,642884,218729,1242509,65477,7147,620779,0
2,-1,643493,218755,1175125,65573,6237,587060,0
2,-1,646611,218989,1337659,65576,6509,668459,0
2,-1,632868,218756,1261765,65162,6465,630347,0
2,-1,633511,218930,1233029,65179,7212,616012,0
2,-1,632890,218735,1176232,65061,7601,587715,0
2,-1,633639,218769,1249682,65072,7415,624371,0
2,2,707824,248191,1408959,74132,9699,704015,0
2,-1,638001,220087,1255313,65565,7053,627094,0
2,-1,657241,223575,1373317,68471,7695,686271,0
2,-1,638221,221078,1165546,66066,7661,582091,0
2,2,710237,247841,1297804,73974,9062,648475,0
2,-1,639372,221025,1281789,66138,7543,639968,0
2,-1,635530,219050,1271198,65228,6864,635129,0
2,-1,635471,219024,1339652,65159,7609,669498,0
2,-1,656938,223307,1212807,68394,8083,605981,0
2,-1,634864,218840,1279681,65104,7182,639404,0
2,-1,636443,219133,1255188,65287,6886,627172,0
2,-1,633106,219248,1250136,65282,7836,624610,0
2,-1,654555,223280,1232057,68395,8458,615475,0
2,-1,636458,218786,1285745,65226,6930,642395,0
2,-1,635020,218580,1400602,65129,7674,699896,0
2,-1,637130,219545,1378729,65541,7476,688825,0
2,-1,663808,227932,1345822,67916,7490,672534,0
2,2,706543,247468,1309405,73899,7990,654311,0
2,-1,655410,223158,1260702,68447,8510,629795,0
2,-1,638410,218822,1182324,66106,7433,590749,0
2,-1,638708,219131,1298457,66191,7786,648784,0
2,-1,641077,218669,1363252,65975,7910,681160,0
2,-1,636283,219663,1290663,66375,8244,644401,0
2,-1,637936,219129,1334935,66195,7861,666934,0
2,-1,660274,223271,1485730,69386,9784,742448,0
2,-1,642990,221292,1263356,67255,7871,630781,0
2,-1,660521,223837,1384993,69549,8481,692035,0
2,-1,639692,218942,1410733,66095,7970,704742,0
2,-1,642535,219307,1286326,66191,7909,642716,0
2,2,711556,250324,1305309,75117,9595,651850,0
2,-1,639296,219007,1456284,66207,8547,727089,0
2,-1,641135,220081,1270204,66761,7616,634301,0
2,-1,661262,223538,1267461,69479,8276,633329,0
2,2,709761,248542,1420933,74228,9241,710043,0
2,-1,637797,218386,1254308,65948,7493,626703,0
2,-1,638760,219382,1298757,66332,7177,648911,0
2,-1,641582,220095,1194492,66821,7134,596523,0
2,-1,643186,220295,1320954,66825,7845,659766,0
2,-1,643781,220225,1133992,66758,7758,566356,0
2,-1,646917,221917,1172980,67431,7366,585684,0
2,-1,638619,218394,1332122,66014,7533,665603,0
2,-1,641229,218690,1324396,66097,7617,661651,0
2,-1,640647,219219,1272015,66285,7775,635481,0
2,-1,643793,220275,1237784,66821,7599,618145,0
2,2,713385,249676,1317199,74804,9214,657884,0
2,-1,663659,223668,1337563,69511,8890,668406,0
2,-1,660229,222780,1337275,69184,8628,668198,0
2,-1,646376,220662,1230204,66922,7293,614438,0
2,-1,644046,220378,1211433,66913,7698,604874,0
2,-1,646282,219687,1194214,66618,8340,596425,0
2,-1,636072,219329,1175719,66299,8046,587367,0
2,-1,638729,219140,1227259,66151,8543,613258,0
2,-1,637342,219518,1267434,66318,6866,633149,0
2,-1,635833,218392,1246505,65967,7652,622719,0
2,-1,639403,218251,1189177,65889,8012,594188,0
2,2,709268,248845,1512035,74374,10058,755366,0
2,-1,638102,218662,1233282,66050,6938,616188,0
2,-1,642735,219815,1399255,66422,6909,699099,0
2,-1,642942,219461,1206838,66339,7481,602917,0
2,-1,638971,219111,1263644,66184,7869,631352,0
2,-1,638485,218382,1327780,65853,7863,663444,0
2,-1,642591,219040,1230244,66239,7811,614592,0
2,-1,642757,220036,1202015,66720,7613,600285,0
2,-1,642916,220019,1275618,66719,7398,637060,0
2,-1,639213,220398,1146535,66804,8113,572555,0
2,-1,636663,218854,1246437,66086,7508,622759,0
2,-1,637389,218955,1290539,66196,7738,644912,0
2,-1,642734,220223,1192250,66770,6923,595431,0
2,-1,637047,218692,1208071,66093,7201,603509,0
2,-1,639354,218920,1224046,66172,6371,611399,0
2,2,709306,247747,1324792,73804,9412,661920,0
2,-1,640855,218834,1175666,66068,6876,587345,0
2,-1,645354,219445,1272900,66475,7637,635753,0
2,-1,641190,219118,1363132,66223,7435,681042,0
2,-1,640529,218774,1200206,65929,6755,599387,0
2,-1,649142,221445,1268204,67329,7433,633298,0
2,-1,643306,219221,1261009,66239,7515,630023,0
2,-1,641783,218724,1131556,66134,7023,565331,0
2,-1,646628,219776,1158235,66644,8088,578464,0
2,-1,637007,218477,1314336,65972,9090,656709,0
2,-1,637506,218828,1320722,65974,7645,659947,0
2,-1,642773,219372,1300243,66215,7626,649657,0
2,-1,644484,219558,1342262,66162,8345,670718,0
2,-1,659734,223651,1323450,69389,8827,661166,0
2,-1,638879,218782,1231306,66004,7092,615109,0
2,-1,642581,219539,1270273,66482,6610,634473,0
2,2,714193,249535,1332592,74632,8927,665723,0
2,-1,641608,218859,1206145,65980,7226,602601,0
2,-1,641179,219326,1185456,66096,7725,592297,0
2,-1,641634,218786,1172651,65864,6842,585916,0
2,-1,643593,221293,1240608,67035,8136,619454,0
2,-1,659576,222938,1333502,69206,8279,666242,0
2,-1,641078,219073,1200571,66228,7501,599790,0
2,-1,641973,218522,1215534,65988,7475,607322,0
2,-1,642122,219089,1340701,66004,8822,669813,0
2,-1,662335,223566,1520327,69298,9910,759752,0
2,-1,643093,218712,1314022,65888,7750,656540,0
2,-1,668975,228223,1319297,68771,7150,659124,0
2,-1,642881,218909,1330235,65955,8073,664656,0
2,-1,643476,218832,1287695,66021,8381,643305,0
2,-1,647288,220893,1238927,66920,7784,618688,0
2,-1,665992,223429,1335898,69329,8599,667451,0
2,-1,638840,219533,1273578,66256,7341,636277,0
2,-1,638998,219327,1266772,66144,7858,633005,0
2,-1,641339,219881,1194950,66315,7370,596970,0
2,-1,640549,219389,1258139,66437,7629,628603,0
2,-1,639383,219142,1275686,66154,7899,637408,0
2,2,712894,249867,1331876,74608,8990,665428,0
2,-1,645736,220055,1302957,66512,8409,650801,0
2,-1,672445,231094,1287197,70247,8193,642695,0
2,2,713087,249398,1434544,74440,9288,716812,0
2,-1,646609,221250,1674443,66963,11292,836007,0
2,-1,642509,219695,1215252,66345,8469,607064,0
2,2,711102,249180,1414309,74334,9112,706684,0
2,-1,662672,224711,1279265,69768,10379,639174,0
2,-1,644939,221056,1245850,67017,8003,622053,0
2,-1,644089,220059,1304569,66560,7529,651765,0
2,-1,649583,221319,1216403,67355,7602,607394,0
2,-1,640019,219476,1320304,66432,8331,659551,0
2,-1,662922,224429,1320526,69862,8362,659561,0
2,-1,645295,220822,1146946,67074,7841,572495,0
2,-1,645959,220889,1260278,67060,8549,629387,0
2,-1,646445,220449,1551824,66726,10501,775367,0
2,-1,641934,220062,1303256,66431,8768,651196,0
2,-1,645278,219993,1297759,66469,8264,648374,0
2,-1,643357,219824,1228437,66466,8327,613769,0
2,-1,652115,221900,1246197,67401,8617,622243,0
2,2,712458,249591,1467266,74548,9663,733295,0
2,-1,647350,221191,1247860,67089,8060,623016,0
2,-1,645811,220002,1318776,66513,8651,658874,0
2,-1,649790,221711,1765376,67354,11634,881577,0
2,-1,640847,220649,1238528,66731,7936,618573,0
2,-1,664659,225062,1265842,69947,9332,632424,0
2,-1,646462,221123,1284199,67092,7409,641246,0
2,-1,647199,222106,1101533,67450,7035,549973,0
2,-1,644207,220432,1270030,66644,7770,634510,0
2,-1,661018,224330,1368122,69644,9028,683696,0
2,2,713034,249772,1429755,74570,9068,714430,0
2,-1,640660,219805,1305531,66293,7598,652291,0
2,-1,645138,219813,1304275,66370,7697,651665,0
2,-1,647109,221228,1188727,66698,6961,593878,0
2,-1,642231,219319,1368765,66086,7673,683903,0
2,2,721473,251531,1540573,75530,10766,769361,0
2,-1,645269,220280,1146804,66356,7187,572963,0
2,-1,640979,219470,1204038,66106,7194,601580,0
2,-1,642610,220223,1165836,66378,6608,582481,0
2,-1,643473,219598,1258852,66211,7614,628795,0
2,-1,640217,219487,1277868,66222,6981,638412,0
2,-1,644036,219913,1422251,66405,7890,710006,0
2,-1,643348,219714,1228790,66276,7806,613796,0
2,-1,643849,220678,1341057,66630,8056,669764,0
2,-1,645993,220051,1415539,66410,8354,706773,0
2,-1,643242,219133,1298673,66106,8269,649018,0
2,2,712279,249598,1403095,74476,9042,700930,0
2,-1,647333,221210,1217664,67087,7419,607255,0
2,-1,646414,220036,1284553,66448,8291,641614,0
2,-1,644817,219348,1291296,66172,7792,645028,0
2,-1,644754,219418,1317236,66241,7708,658378,0
2,-1,641285,220696,1232231,66856,8827,615308,0
2,-1,641331,220298,1282902,66517,8280,640986,0
2,-1,641480,219772,1279226,66364,8520,639132,0
2,-1,644940,221618,1519932,67264,10411,758541,0
2,-1,646310,220831,1309189,66918,8428,653717,0
2,-1,643776,219593,1392949,66283,9631,696135,0
2,-1,640165,218777,1194999,66005,6861,597200,0
2,-1,644257,219791,1255612,66383,7527,627328,0
2,-1,645113,220891,1226156,66921,7100,612547,0
2,-1,645750,220476,1317039,66488,7958,657945,0
2,2,713563,247491,1362882,74054,8827,681122,0
2,-1,647726,220341,1223130,66445,7913,611162,0
2,-1,669035,226165,1368447,70260,8076,683671,0
2,-1,650220,222173,1329540,67361,7452,664158,0
2,-1,644072,219691,1267745,66368,7573,633416,0
2,-1,647723,220725,1222353,66631,7085,610758,0
2,-1,644304,220187,1196201,66583,7668,597412,0
2,-1,648021,220511,1196282,66653,7585,597747,0
2,-1,643499,219937,1265361,66424,7555,632251,0
2,-1,644145,219822,1294986,66415,7286,647087,0
2,2,706134,247737,1304272,74105,8930,651714,0
2,-1,648722,221323,1199257,67214,7457,598879,0
2,-1,646474,220173,1213677,66566,6586,606416,0
2,-1,645052,219645,1197936,66377,8229,598510,0
2,-1,648149,220127,1268319,66420,7156,633735,0
2,-1,647164,220105,1222223,66404,6997,610741,0
2,-1,649117,220096,1288969,66360,8269,643902,0
2,-1,642906,219849,1299150,66233,7843,649187,0
2,-1,644553,219893,1316755,66324,7723,657855,0
2,-1,644398,220776,1208571,66914,7468,603508,0
2,2,711350,249152,1441370,74707,8723,719993,0
2,-1,642280,218805,1187562,65884,6679,593362,0
2,-1,663907,223639,1362017,69398,7910,680646,0
3,-1,690445,236806,1167469,70552,6823,583367,0
3,2,759027,266669,1356800,78732,9502,677970,0
3,-1,692228,237378,1287378,70710,7612,643145,0
3,-1,714929,241938,1411874,74044,9980,705499,0
3,-1,693291,237088,1385949,70597,8442,692494,0
3,-1,690987,237936,1388728,71068,8312,692904,0
3,-1,695719,238848,1472719,71521,8592,735332,0
3,-1,637119,218317,1182688,65514,6724,590885,0
3,-1,660470,223350,1409967,68928,8286,704303,0
3,-1,661317,223514,1251480,68944,9399,625240,0
3,-1,637939,219037,1200615,65832,7716,599683,0
3,-1,638464,218812,1230293,65693,8328,614509,0
3,-1,645957,221101,1300480,66566,7924,649521,0
3,2,708161,247790,1404426,73504,8693,701814,0
3,-1,640595,219624,1174546,65864,7466,586801,0
3,-1,638277,218789,1341311,65681,7933,670125,0
3,-1,644742,220632,1300012,66526,8206,649112,0
3,-1,642078,218861,1221763,65623,8058,610391,0
3,-1,634275,218524,1206999,65552,7443,602991,0
3,-1,635101,217976,1132288,65527,6440,565687,0
3,-1,660261,223966,1264331,69285,8058,631788,0
3,-1,657253,222734,1272936,68762,8055,636031,0
3,-1,639775,218945,1283161,65800,7513,641055,0
3,-1,640216,220634,1396271,66618,8294,697695,0
3,-1,637910,219213,1306456,65883,7583,652236,0
3,-1,637117,219156,1234940,65947,7734,616934,2
3,-1,637472,218503,1205000,65653,7645,602022,0
3,-1,636351,219131,1257196,65912,8075,628071,0
3,-1,634835,218385,1164041,65625,7098,581680,2
3,-1,638605,218670,1433994,65681,8778,715797,0
3,2,711836,249708,1478262,74470,9735,738261,0
3,-1,637202,218227,1273482,65529,7534,636308,0
3,-1,640560,219174,1258060,65906,7743,628462,2
3,-1,645687,220676,1312484,66566,7897,655445,0
3,-1,635330,218687,1231582,65694,7346,615310,0
3,-1,639718,219633,1133050,66063,7933,565950,0
3,-1,634933,218604,1198937,65599,7954,598906,0
3,-1,637848,219468,1182207,65910,7701,590470,2
3,-1,637157,218505,1266088,65462,7602,632453,0
3,2,728574,252532,1446437,76901,10323,722655,0
3,-1,638348,218943,1437530,65774,9326,718265,2
3,-1,642661,219525,1294955,66033,7669,646869,0
3,-1,639129,219129,1315950,65964,8522,658114,0
3,-1,638181,218806,1281381,65829,7062,639060,2
3,-1,638546,219203,1175922,65770,7207,587606,0
3,-1,642374,219840,1185016,66137,7540,591925,0
3,2,710425,248095,1483954,73726,10174,741386,0
3,-1,641795,219443,1280274,66031,8255,639666,0
3,-1,662307,223319,1308425,68880,8672,653629,0
3,-1,646818,221655,1346229,66874,8422,672161,2
3,-1,643336,218950,1338183,65641,8918,668467,0
3,-1,637482,219698,1267897,66018,8292,632912,2
3,-1,645729,221824,1281842,66911,7787,640192,0
3,-1,637283,219001,1186703,65744,6717,592788,0
3,-1,644192,220624,1301146,66348,8031,650051,0
3,-1,642125,219579,1281575,65868,8024,640543,0
3,-1,664136,223743,1180857,69102,8975,589924,0
3,-1,638119,219452,1262186,65915,6919,630604,2
3,-1,637501,218908,1291467,65715,7635,645110,0
3,-1,638724,218632,1296864,65610,7868,648002,0
3,-1,636489,218191,1341500,65416,7252,670330,0
3,2,708534,248226,1364175,73747,8581,681692,0
3,-1,644555,221380,1335051,66845,7967,666707,2
3,-1,641184,219028,1192568,65746,6659,595740,0
3,-1,645188,220495,1322308,66498,8207,660457,0
3,-1,641656,219678,1203939,66034,6913,601499,2
3,-1,645170,221190,1319532,66780,7175,658955,0
3,-1,663770,223681,1207900,69260,8669,603455,0
3,-1,639330,219418,1181789,66049,7397,590483,0
3,2,711993,249388,1336433,74300,9263,667710,0
3,-1,644432,221395,1290978,67003,7396,644685,0
3,-1,640552,219664,1256791,66130,6941,627943,2
3,-1,639307,218919,1182328,65867,7167,590729,0
3,-1,645190,220336,1349949,66562,8038,674281,0
3,-1,638610,219080,1166095,66021,7072,582558,2
3,-1,644156,220568,1292000,66647,7699,645215,0
3,-1,643827,219867,1313150,66419,8018,655650,0
3,-1,663738,223412,1555129,69195,8788,776330,0
3,2,700795,247656,1381644,73720,8778,690390,0
3,-1,643070,220490,1367555,66649,8282,682943,0
3,-1,639779,218543,1300220,65780,8168,649676,0
3,-1,642326,219287,1203094,66072,8128,600947,0
3,-1,642567,219067,1331199,65934,8443,665085,0
3,-1,644099,219432,1173320,66105,7595,586105,0
3,-1,640934,218631,1325906,65806,7439,662342,2
3,-1,644196,218781,1280802,65916,7553,639872,0
3,2,705374,249136,1399898,74235,8977,699549,0
3,-1,634828,219682,1487901,66185,9140,743465,0
3,-1,634217,219213,1186085,66040,7008,592443,2
3,2,729712,253085,1338823,77301,9260,669159,0
3,-1,641130,221588,1547332,67077,9518,772929,0
3,-1,637101,218995,1276142,65967,7509,637559,0
3,-1,638244,221458,1294663,67105,7903,646407,2
3,-1,640759,220817,1279595,66826,8029,638935,0
3,-1,636657,219526,1356299,66149,8315,677579,2
3,-1,636528,218498,1229826,65761,7388,614431,0
3,-1,655671,223772,1271489,69300,8363,635191,0
3,-1,638891,219603,1243118,66118,6971,621167,0
3,-1,636994,219235,1199863,65974,6544,599303,0
3,-1,638066,219469,1298969,66119,7131,649001,2
3,-1,636756,218886,1288849,65837,7445,643875,0
3,-1,639276,219657,1183905,66082,6823,591523,0
3,-1,641302,219722,1187864,66182,7210,593425,0
3,-1,640124,221591,1311047,67062,7640,654796,2
3,-1,636052,218917,1278907,65927,8095,638986,0
3,-1,636764,219599,1304565,66084,7595,651883,0
3,-1,635801,219240,1407891,65962,8996,703512,0
3,2,725507,253081,1559311,77192,10470,779093,0
3,-1,642473,221310,1373635,66964,7092,686118,0
3,-1,638048,219248,1291836,65970,6996,645506,0
3,2,708811,248849,1340425,74045,8980,669678,0
3,-1,637391,218551,1356627,65739,7186,677663,0
3,-1,637484,220302,1336718,66386,7789,667817,2
3,-1,636136,219007,1353782,65872,7392,676348,0
3,-1,640242,220451,1379959,66331,7257,688962,0
3,-1,637610,219471,1233107,65955,7398,615757,2
3,-1,644810,221466,1306585,67004,7116,652440,0
3,-1,641084,220037,1391180,66199,8081,694187,0
3,2,711635,250248,1472332,74656,9244,735447,0
3,-1,644178,221897,1434578,67052,9187,716288,2
3,-1,639469,219236,1414392,65881,8858,707103,0
3,-1,642393,219733,1363697,66087,8098,681523,0
3,-1,643204,219388,1407806,65981,8434,703380,0
3,-1,637126,220202,1266368,66233,7808,632273,0
3,-1,634407,219482,1351704,66015,8139,674895,2
3,-1,636488,219323,1261798,65961,7100,630484,0
3,-1,639752,219544,1206448,65925,6577,602741,0
3,-1,638071,219818,1278305,66151,7769,638741,0
3,-1,639941,220530,1561147,66331,8693,780554,0
3,-1,661764,223729,1400560,69126,9996,699739,0
3,-1,644007,221869,1281596,67077,7855,639968,2
3,-1,637489,219563,1347516,65984,7370,673338,0
3,-1,639412,219237,1267941,65897,7151,633487,0
3,-1,641311,219537,1324767,65967,7410,661301,0
3,-1,641651,220214,1207228,66296,7867,603123,2
3,-1,642697,219664,1236735,66096,7739,617621,0
3,-1,647373,221340,1342057,66871,8413,669971,0
3,2,712672,249783,1343989,74379,8538,671365,0
3,-1,640152,220363,1313617,66316,7509,656371,0
3,-1,636848,219711,1383963,66019,8509,690938,2
3,-1,665806,228691,1231728,68748,7112,615387,2
3,-1,643374,220566,1283025,66552,7369,640897,0
3,-1,642741,220185,1211761,66239,6880,605311,0
3,-1,642985,221496,1274432,66964,7624,636480,2
3,-1,644219,219938,1209157,66129,7052,604131,0
3,-1,638075,219622,1162911,66089,6754,580994,2
3,-1,643383,220774,1262624,66422,7387,630784,0
3,-1,645627,221339,1380395,66975,7712,689168,0
3,-1,643199,220747,1293709,66464,7744,646257,2
3,-1,641937,219329,1167293,65984,7307,583046,0
3,-1,641321,219525,1281001,66071,7589,640003,2
3,-1,662425,223587,1243169,69163,8553,621083,0
3,-1,643216,219439,1262383,65953,7571,630752,0
3,2,708955,249763,1409304,74227,8917,704122,0
3,-1,640337,221304,1320172,66889,7594,659087,0
3,-1,637730,219708,1220269,66117,7267,609541,0
3,-1,637374,219535,1210685,66037,6487,604622,0
3,-1,640114,220009,1290616,66221,7762,644766,0
3,-1,639239,219351,1251993,65930,7276,625554,0
3,-1,642336,219974,1276931,66129,7326,638029,0
3,-1,638363,219736,1279891,66064,7435,639492,0
3,-1,637977,220169,1349472,66257,7481,674217,2
3,-1,638897,219390,1190886,65989,6654,595028,0
3,2,708876,248900,1429759,74071,9023,714433,0
3,-1,640404,220521,1254213,66347,6866,626588,0
3,-1,639331,218835,1358866,65758,7366,678908,0
3,-1,647879,221264,1381782,66763,8924,689846,0
3,-1,637280,219292,1220623,65960,7142,609835,0
3,-1,638050,219570,1210418,66064,7138,604739,2
3,-1,660350,223813,1274424,69218,8061,636637,0
3,-1,663477,228913,1304833,68801,7565,651975,2
3,-1,639186,219636,1245058,66020,7050,622081,0
3,-1,641082,219483,1323187,65871,7875,661177,0
3,-1,641927,220526,1219305,66366,7571,609119,2
3,2,716465,249755,1399900,74439,9398,699245,0
3,-1,645523,220711,1314283,66598,8088,656483,0
3,-1,640204,219826,1364165,66128,6693,681548,0
3,-1,645618,221762,1304979,66965,8001,651367,0
3,-1,647341,221838,1309105,67029,8657,653409,2
3,-1,641567,219024,1229764,65805,7705,614473,0
3,-1,644110,220549,1241826,66327,7866,620359,0
3,-1,640111,219664,1209314,66091,6853,604136,2
3,-1,639137,218793,1225997,65706,6753,612604,0
3,-1,644378,220251,1191350,66192,7067,595178,0
3,-1,641374,218801,1280803,65726,7443,639980,0
3,-1,639568,220501,1314601,66375,7860,656646,0
3,-1,641433,220850,1294484,66548,6708,646654,0
3,-1,643084,220859,1276164,66598,7124,637431,0
3,-1,641944,219481,1332013,65966,7136,665476,0
3,2,712811,249347,1406150,74103,8550,702534,0
3,-1,644786,220880,1339366,66628,7245,668908,0
3,-1,642234,220456,1318776,66504,7280,658740,0
3,-1,646033,221684,1444511,66908,7756,721649,0
3,-1,644619,221087,1191214,66617,7778,594760,0
3,-1,642548,219304,1183205,65804,6458,591264,0
3,-1,642185,219619,1240596,65956,7237,619873,0
3,-1,643566,221102,1272606,66591,7625,635559,0
3,-1,646544,221856,1343604,67003,7992,670939,0
3,-1,641507,219171,1275204,65849,7435,637175,0
3,-1,672045,230943,1315127,69689,7618,656774,2
3,-1,647339,222061,1284867,67059,7156,641715,0
3,-1,645905,220503,1233052,66290,6994,615999,0
3,-1,643558,220124,1303554,66208,6772,651224,2
3,-1,642355,220169,1183966,66169,7638,591548,0
3,-1,644174,220476,1303037,66372,7157,651037,0
3,-1,644884,220334,1178058,66317,6375,588581,0
3,-1,644196,220854,1293462,66459,8329,646191,2
3,-1,664254,224459,1223036,69430,8468,611025,0
3,-1,643603,219832,1167670,66041,7186,583419,0
3,-1,647750,220523,1396532,66098,8396,697869,0
3,-1,637111,220558,1147714,66154,7388,573376,0
3,-1,640709,220697,1291127,66166,8189,645256,0
3,2,713736,250386,1440933,74367,9390,720006,0
3,-1,645926,221792,1343091,66744,8271,670744,0
3,-1,640801,220378,1320544,66122,8738,659736,2
3,-1,644658,221735,1302302,66742,7741,650403,0
3,-1,643057,219870,1394235,65897,7467,696636,0
3,-1,639303,220325,1193862,66104,7050,596451,2
3,-1,640879,219406,1147457,65687,7028,573305,0
3,2,713090,248793,1293529,73868,9000,646160,0
3,-1,640268,220047,1193703,65946,7780,596474,0
3,-1,645454,221440,1408461,66656,7415,703336,0
3,-1,643203,220979,1178329,66421,7245,588592,2
3,-1,646252,221569,1301184,66775,7780,649667,0
3,-1,646706,221982,1318714,67021,8365,658501,0
3,-1,645966,221291,1306127,66725,7876,652457,0
3,-1,643209,220034,1209661,66090,8565,604357,0
3,-1,638639,220333,1292468,66229,7860,645675,2
3,-1,642529,220903,1312322,66331,8155,655667,0
3,2,735272,254167,1356195,77486,9677,677637,0
3,-1,644734,221166,1327995,66617,8072,663367,0
3,-1,649169,222026,1323841,66968,8453,661044,0
3,-1,640302,219443,1359941,65946,7633,679507,0
3,-1,642437,220142,1158080,66147,7367,578584,0
3,-1,646852,220182,1294195,66162,7670,646631,0
3,-1,643260,221379,1278792,66795,7394,638518,2
3,-1,639448,219233,1298887,65745,7358,648957,0
3,-1,639242,218561,1187274,65515,7205,593287,0
3,-1,640155,219488,1332070,65946,7531,665554,2
3,-1,640355,219016,1174125,65712,7252,586813,0
3,-1,645788,220336,1141048,66186,7450,569981,0
3,-1,646512,220446,1303403,66457,7886,650640,0
3,-1,635998,218767,1312369,65712,7992,655725,0
3,-1,641403,220627,1284381,66370,7755,641811,2
3,-1,637718,219203,1352791,65849,8279,675883,0
3,2,716927,250890,1502872,74742,10037,750673,0
3,-1,659624,223414,1275808,69018,8544,637353,0
3,-1,637778,219707,1272589,66102,8258,635690,2
3,-1,640517,219063,1388295,65767,8141,693529,0
3,-1,640850,219300,1231806,65858,7947,615303,0
3,-1,662789,224037,1240001,69163,8381,619592,0
3,-1,637824,219263,1335166,65841,8745,667053,2
3,-1,639859,218553,1274415,65538,8267,636691,0
3,-1,643959,220602,1236223,66265,8052,617443,0
3,-1,639251,218578,1148451,65686,8441,573767,2
3,-1,643976,219544,1269027,65983,8326,634033,0
3,-1,638979,218832,1243775,65759,7174,621298,0
3,-1,642137,219175,1321672,65864,9336,660183,0
3,-1,638327,218867,1278269,65792,8147,638606,2
3,-1,643550,219270,1202806,65868,8096,600748,0
3,-1,638017,219032,1236639,65895,7457,617774,0
3,2,710802,248298,1469140,73732,9594,733938,0
3,-1,644890,221239,1206333,66687,7377,602534,0
3,-1,644970,221361,1225010,66812,7843,611287,2
3,-1,641559,219590,1321089,65957,8089,660075,0
3,-1,641428,219788,1344023,65959,8331,671594,0
3,-1,641764,219288,1415967,65852,7883,706635,0
3,-1,642532,219023,1270094,65639,8369,634560,0
3,-1,638924,219473,1270092,65845,8754,634598,2
3,-1,640731,219457,1341841,65785,8724,670449,0
3,-1,642823,219065,1349508,65591,8298,674369,0
3,-1,642867,219834,1403608,65860,8544,701590,2
3,-1,663181,223635,1282730,68867,9523,640573,0
3,-1,644249,219696,1169202,65805,7572,584115,0
3,-1,649143,221527,1322099,66666,8077,660280,0
3,2,711546,249309,1294271,73886,8411,646752,0
3,-1,648275,220703,1278378,66329,7749,638494,0
3,-1,651330,221890,1181802,66848,7905,590056,2
3,-1,641622,221078,1278816,66407,7600,638756,0
3,-1,639698,219475,1168876,65691,7222,584024,0
3,-1,641829,220191,1184524,66004,6940,591722,0
3,-1,638460,219569,1181781,65816,6953,590457,2
3,-1,642858,220327,1366285,66029,7331,682606,0
3,-1,645010,221330,1172229,66568,6902,585401,0
3,-1,644768,219744,1300627,65822,7207,649871,0
3,2,711801,249657,1359400,74335,8240,679036,0
3,-1,637270,218912,1289228,65680,7088,644281,0
3,-1,643827,221051,1249826,66637,7618,624138,0
3,-1,638990,218461,1207053,65494,7171,603205,0
3,-1,643176,221571,1246004,66809,7493,622161,2
3,-1,641388,219721,1167515,65928,6935,583264,0
3,-1,646017,221139,1284726,66677,7671,641303,0
3,-1,641288,218873,1291132,65619,8186,645144,0
3,-1,644544,219617,1256273,65895,7999,627628,0
3,-1,637479,218996,1306286,65673,8072,652371,0
3,-1,637521,219379,1147558,65840,6932,573210,2
3,2,731119,252821,1413554,76983,9819,706308,0
3,-1,638772,219113,1277216,65752,7240,638143,0
3,-1,646182,220551,1175835,66493,7429,587149,0
3,-1,643694,220524,1205132,66376,7552,601796,0
3,-1,641584,219115,1218687,65720,7879,608870,0
3,-1,639900,219757,1168458,65939,6578,583722,2
3,-1,640829,219015,1337330,65703,6941,668076,0
3,-1,642008,218827,1214919,65652,7845,606977,0
3,-1,644976,221746,1199938,66886,6969,599270,2
3,-1,644636,220695,1221535,66455,7175,610128,0
3,2,759830,262644,1476096,79894,9666,737565,0
3,-1,639886,218970,1243204,65743,7214,620974,2
3,-1,639228,218725,1269327,65564,8034,634198,0
3,-1,640678,218761,1164798,65554,7289,581908,2
3,-1,645084,219426,1306925,65841,7498,652998,0
3,-1,642868,218772,1334861,65577,8146,667009,0
3,-1,639516,219567,1214365,65885,7272,606763,0
3,-1,636296,218715,1252027,65553,7576,625513,0
3,2,712440,248675,1295416,73855,9523,646952,0
3,-1,638977,218994,1269195,65681,7235,634049,0
3,-1,641884,220561,1220850,66510,7118,609670,2
3,-1,642998,219758,1311650,65896,7001,655399,0
3,-1,638757,218336,1296887,65444,7740,648097,0
3,-1,642696,219567,1321665,65889,7852,660360,2
3,-1,639775,219373,1299833,65759,7236,649451,0
3,-1,662862,224094,1328857,69130,7979,664019,0
3,2,715481,249311,1396342,73958,8845,697740,0
3,-1,638847,219114,1218536,65805,7262,608571,2
3,-1,641600,218716,1179074,65602,7077,589107,0
3,-1,641437,219621,1312820,65902,6985,655853,0
3,-1,643152,219396,1286851,65788,7766,642962,0
3,-1,650899,222260,1224451,67097,8154,611414,0
3,-1,643661,218949,1189219,65691,8003,594119,0
3,-1,637658,218781,1191856,65567,7510,595450,0
3,-1,640276,219242,1281765,65790,6893,640360,0
3,2,702075,247993,1296803,73007,8335,647797,0
3,-1,646574,221670,1204743,66838,7156,601628,2
3,-1,642524,219457,1350748,65863,6965,674855,0
3,-1,641663,218817,1351979,65582,7318,675562,0
3,-1,641955,219007,1239973,65647,7062,619595,0
3,-1,669330,228076,1255780,68313,7939,627406,0
3,-1,648619,220633,1229167,66492,7761,613787,0
3,-1,640111,217885,1164762,65319,6711,581867,0
3,-1,642345,218982,1183619,65670,6710,591360,0
3,-1,642932,218915,1275218,65726,7398,637048,2
3,-1,647737,220239,1192868,66296,7502,595836,0
3,-1,644795,219576,1137915,65801,6629,568470,0
3,-1,642010,218575,1343956,65383,6923,671616,0
3,-1,642002,218053,1170224,65218,6141,584651,0
3,-1,632630,218750,1300885,65071,7012,649960,0
3,-1,637926,220595,1176931,65909,6966,587727,0
3,-1,631988,218747,1163714,65151,6916,581486,2
3,-1,634800,219412,1158465,65332,7122,578770,0
3,2,710625,249698,1262851,74835,9967,630422,0
3,-1,637991,220848,1145190,65994,7323,572063,0
3,-1,634051,218862,1252878,65217,7257,626009,2
3,-1,633193,218643,1261287,65057,7308,630233,0
3,-1,663681,228535,1213655,67977,6942,606380,0
3,-1,640003,219323,1233623,65260,6979,616394,0
3,-1,630598,218848,1258755,65183,7377,628815,2
3,2,711210,248506,1465782,74229,9832,732408,0
3,-1,657075,223820,1323564,68554,8736,661100,0
3,-1,633783,218269,1322510,64894,7182,660882,0
3,-1,638549,219854,1260334,65454,7289,629743,0
3,-1,638571,219751,1210672,65391,7415,604872,0
3,-1,634443,218724,1181905,65054,7184,590429,0
3,-1,635117,218656,1238920,65098,7319,619081,0
3,-1,638854,221274,1187347,66108,7143,592974,0
3,-1,635701,219183,1294446,65284,7413,646607,0
3,-1,633654,219259,1183093,65297,7667,591062,2
3,-1,635326,218309,1191614,65023,6572,595343,0
3,-1,634967,219245,1273293,65404,6974,636140,0
3,-1,633170,218520,1330841,65150,7646,664764,2
3,-1,637175,218767,1168585,65311,7023,583842,0
3,2,709862,248435,1293287,74197,8593,646166,0
3,-1,660928,223784,1342899,68710,8502,670983,0
3,-1,637880,218579,1290852,65166,7253,645027,0
3,-1,642767,220982,1185825,67094,8104,592117,0
3,-1,638366,218357,1176347,65962,7366,587760,0
3,-1,637357,219202,1243516,66285,7676,621266,2
3,-1,640113,218623,1311764,66082,8099,655346,0
3,-1,640571,219147,1230597,66239,7825,614809,2
3,-1,641385,218928,1134821,66138,7970,566989,0
3,-1,635953,218643,1302245,65959,7743,650507,0
3,2,706282,247639,1530199,73920,9815,764682,0
3,-1,637339,218898,1278463,66067,8226,638764,0
3,-1,644253,221334,1185896,67244,7713,592039,2
3,-1,635621,218540,1278289,66026,8015,638678,0
3,-1,635511,218630,1310210,66094,7752,654581,2
3,-1,636824,218540,1239335,66011,8354,619285,0
3,-1,637127,218164,1394564,65811,7419,695702,0
3,-1,667065,228072,1378796,68839,8040,688214,0
3,-1,636851,218632,1335809,66001,7555,667524,0
3,-1,639317,219966,1224976,66514,8089,612403,2
3,2,706273,248131,1405381,74054,8343,702277,0
3,-1,639269,219098,1294613,66212,7848,646537,0
3,-1,637989,218968,1184846,66136,7988,591969,2
3,-1,641449,218764,1167303,66055,7801,583169,0
3,-1,644555,219783,1274840,66466,7764,636914,0
3,-1,665323,223424,1298484,69438,7730,648660,0
3,-1,639809,220808,1163872,67085,7491,581143,2
3,-1,639631,219452,1248665,66327,7687,623955,0
3,-1,635673,218402,1263596,65967,7545,631370,0
3,-1,638924,218411,1114584,66011,7581,556736,0
3,-1,660369,223787,1257436,69511,8169,628224,0
3,-1,640285,218775,1295669,66115,7474,647345,0
3,-1,639396,218478,1313199,65971,8040,656109,0
3,-1,640985,218836,1271892,66161,7108,635455,2
3,-1,663028,223174,1357710,69394,8400,678260,0
3,2,709267,248451,1372377,74199,9076,685722,0
3,-1,660405,223218,1348611,69380,8761,673940,0
3,-1,639520,218501,1254940,65982,7460,626986,0
3,-1,645374,219783,1293483,66636,7848,646111,0
3,-1,644699,220881,1228162,67150,7416,613110,2
3,-1,642644,219509,1304506,66363,7748,651732,0
3,-1,663591,223484,1307187,69456,8839,653122,0
3,-1,639530,218085,1273422,65854,7987,636200,0
3,-1,640008,219353,1117858,66320,7044,558427,0
3,-1,639230,219555,1165083,66373,8199,582040,0
3,-1,638139,219878,1216072,66648,7838,607387,0
3,-1,642037,220543,1212883,66936,7682,605671,0
3,-1,641531,220104,1177628,66667,7829,588077,0
3,2,715778,250432,1400729,75171,9506,698801,0
3,-1,635616,219225,1226837,66278,7698,612825,2
3,-1,637417,218456,1139945,65971,7021,569555,0
3,-1,644116,220753,1203614,66923,7221,601146,0
3,-1,638988,218117,1326893,65767,7569,662952,0
3,-1,637604,218590,1231269,65993,7346,615248,0
3,-1,643991,220933,1295481,67036,7741,646933,0
3,-1,642384,219295,1171333,66185,7277,585280,0
3,-1,637875,218261,1295884,65880,7985,647410,0
3,-1,638838,219289,1171989,66296,7078,585508,2
3,-1,639310,218836,1268132,66107,7477,633598,0
3,-1,643188,219182,1155806,66258,7729,577493,0
3,-1,642636,220466,1140056,66903,7876,569217,0
3,-1,639558,219003,1167549,66173,7156,583336,0
3,-1,639081,218154,1223271,65822,6916,611180,0
3,2,714223,248442,1487867,74260,9980,743419,0
3,-1,644504,221100,1255052,67199,7758,626681,0
3,-1,636711,218261,1166966,65880,6982,583061,0
3,-1,644320,220835,1193954,67039,7329,596158,2
3,-1,639220,218947,1298378,66133,7306,648802,0
3,-1,645082,220750,1183908,67030,7387,591113,0
3,-1,638758,219640,1341099,66414,7765,670078,2
3,-1,639837,219043,1258611,66209,7452,628898,0
3,-1,638713,217983,1246857,65711,6491,622893,0
3,-1,664982,223724,1403897,69503,8477,701407,0
3,-1,643234,220106,1198002,66693,7517,598460,0
3,-1,644421,219657,1135019,66384,6927,567090,0
3,-1,640246,218350,1183358,65905,7371,591309,0
3,-1,640226,220156,1323198,66856,8889,660597,0
3,-1,662172,223395,1425535,69410,9675,712210,0
3,-1,641245,220836,1262370,67055,8284,630061,2
3,-1,637943,218393,1383927,65859,7222,691884,0
3,2,711863,249661,1325067,74925,9420,661887,0
3,-1,639884,218793,1226592,66131,8045,612823,0
3,-1,642581,218528,1217585,65940,7983,608429,0
3,-1,641310,219534,1236249,66199,6446,617635,0
3,-1,642255,219978,1177896,66410,6689,588411,2
3,-1,640324,218983,1335634,66073,7865,667292,0
3,-1,662258,223421,1221832,69328,8131,610453,0
3,-1,642316,220052,1135223,66629,7574,566980,0
3,-1,643268,219769,1282325,66305,7368,640736,0
3,-1,647125,221292,1255098,67071,7778,626676,2
3,-1,641975,217928,1273578,65666,7995,636362,0
3,-1,637437,218760,1236788,66103,7125,617881,2
3,-1,639825,219095,1250283,66130,7074,624707,0
3,-1,643672,220156,1172996,66692,7564,585773,0
3,-1,642725,218796,1288960,66085,8203,644072,0
3,-1,641765,219152,1232663,66199,7095,615838,2
3,-1,643669,220078,1254231,66392,8056,626315,0
3,-1,644683,218971,1266637,65998,7953,632848,0
3,-1,640451,219164,1286944,66157,8712,642913,2
3,-1,642514,218342,1311526,65823,7798,655410,0
3,-1,640437,219233,1208818,66136,7652,603904,0
3,-1,641362,218719,1280065,65909,7343,639582,0
3,-1,645154,220501,1246212,66909,7723,622252,2
3,2,714891,249489,1402839,74569,9446,700977,0
3,-1,642005,218541,1253961,65820,8139,626562,0
3,-1,642512,218796,1185532,65988,8060,592303,2
3,-1,662749,223219,1307521,69224,9133,653311,0
3,-1,645512,218965,1221363,66058,8031,610198,0
3,-1,636058,220013,1275260,66418,7200,637094,2
3,-1,636239,218435,1270524,65829,8277,634837,0
3,-1,636102,218831,1286748,66021,8316,642956,0
3,-1,637786,218653,1175457,65877,7284,587297,0
3,-1,635992,218592,1164334,65941,7444,581770,0
3,-1,636451,218903,1304558,66245,7682,651661,2
3,-1,661911,223497,1366953,69474,8821,683008,0
3,-1,642727,219265,1280693,66255,8223,639918,0
3,-1,641446,219908,1383690,66561,8200,691231,0
3,2,714383,249791,1310354,74560,8750,654730,0
3,-1,644360,220379,1292466,66694,8387,645807,0
3,-1,638157,219484,1298214,66327,8794,648141,2
3,-1,642264,219369,1298201,66267,8694,648631,0
3,2,713412,250057,1386317,74570,9261,692686,0
3,-1,644009,219451,1218549,66283,8373,608669,0
3,-1,643629,220120,1273153,66533,7801,636067,0
3,-1,649424,221760,1295521,67352,8314,646972,0
3,-1,643992,220110,1243009,66644,7812,620625,2
3,-1,666935,224755,1343974,70014,8986,671510,0
3,-1,639096,219604,1276103,66689,7930,637094,0
3,-1,644644,220051,1399121,66640,8285,699041,0
3,-1,642397,219533,1146230,66410,7429,572769,0
3,-1,646926,220767,1274481,66860,8390,636627,0
3,-1,644706,219731,1511178,66474,9106,754998,0
3,-1,642403,219850,1302817,66506,8236,650854,2
3,-1,647754,220834,1730780,66819,10533,864705,0
3,-1,643615,220884,1310622,66838,7906,654220,2
3,-1,644594,220185,1307614,66559,8182,653108,0
3,-1,644137,220023,1387632,66471,8792,693253,0
3,-1,645898,220432,1199004,66692,7824,599111,2
3,-1,667026,224503,1295333,69790,9352,647108,0
3,2,714012,249117,1413703,74402,10163,706301,0
3,-1,643275,219925,1318688,66501,8294,658772,0
3,-1,665881,224486,1438339,69788,10047,718534,0
3,-1,647039,220601,1250259,66710,8104,624638,0
3,-1,649721,220954,1198024,67008,8143,598413,0
3,-1,644142,221885,1239072,67431,8557,618580,2
3,-1,644183,220705,1247745,66742,7980,623256,0
3,-1,642838,220224,1364158,66585,8213,681662,0
3,-1,643023,220738,1313588,66768,7999,656209,2
3,-1,644115,220465,1113486,66662,7377,556277,0
3,2,712259,249730,1400638,74792,8429,699493,0
3,-1,647597,221528,1280097,67296,7370,639023,0
3,-1,645016,219819,1412834,66462,8123,705883,0
3,-1,650763,222626,1207670,67627,7847,602983,0
3,-1,645221,220691,1180033,66767,6648,589421,0
3,-1,642289,219784,1281705,66282,7590,640386,0
3,-1,647880,222201,1199548,67338,7675,599025,2
3,-1,649359,221246,1246027,66953,7929,621833,0
3,2,715054,249366,1380536,74524,8468,689817,0
3,-1,647105,220234,1273429,66411,8135,636246,0
3,-1,646768,220406,1187091,66478,8086,593075,2
3,-1,645906,222040,1214662,67249,7716,606346,0
3,-1,644616,220439,1204999,66479,6829,602034,0
3,-1,642087,220497,1306476,66513,7124,652787,2
3,-1,647168,221518,1193314,67159,7488,595816,0
3,-1,643797,221164,1228668,66967,6942,613786,0
3,-1,645504,221338,1198277,66829,7121,598527,2
3,-1,644637,220102,1178513,66418,7216,588835,0
3,-1,647957,221449,1183361,67131,8140,590792,0
3,2,712094,248908,1384052,74241,8993,691628,0
3,-1,642922,219726,1224536,66307,8314,611593,2
3,-1,648891,221913,1256532,67286,8054,626579,0
3,-1,642117,219533,1360040,66284,7559,679518,0
3,-1,667914,224981,1436795,69800,9491,717928,0
3,-1,665961,224826,1371616,69798,8383,685351,0
3,-1,646450,220423,1391613,66578,8581,695083,0
3,-1,649441,221720,1210930,67287,7587,604518,0
3,-1,648550,220975,1274743,66884,7856,636372,0
3,-1,637292,219677,1280613,66284,8012,639869,0
3,-1,641537,219763,1296877,66365,8931,647829,0
3,-1,646592,221487,1189544,67181,7688,593661,0
3,-1,641930,219841,1304200,66377,8417,651563,2
3,-1,661605,224360,1356056,69645,9105,677467,0
3,-1,644284,221466,1229144,67205,8314,613561,2
3,-1,641424,219520,1313750,66232,8261,656308,0
3,-1,648119,221408,1352332,67146,9683,675288,0
3,-1,646012,221882,1197879,67358,7945,597839,0
3,-1,639902,219322,1317425,66246,7687,658164,2
3,-1,645961,220746,1204807,66871,7131,601749,0
3,-1,645311,220446,1280697,66559,6978,639951,0
3,2,713274,247996,1297941,74229,8913,648463,0
3,-1,650050,221459,1291541,67133,7790,645419,0
3,-1,671216,225994,1276684,70171,9003,637867,0
3,-1,643653,221501,1280854,66909,7408,639992,2
3,-1,643448,220393,1255681,66518,7351,627374,0
3,-1,646956,221241,1367785,66870,7372,683302,0
3,2,707519,248463,1381145,74398,8952,689975,0
3,-1,664505,224444,1331461,69596,8291,665225,0
3,-1,644204,219442,1367316,66224,7808,683258,0
3,-1,642419,219507,1341049,66251,8010,670025,0
3,-1,645350,219599,1271989,66325,7264,635543,0
3,-1,645835,219907,1322281,66422,7806,660736,2
3,-1,641191,219422,1245953,66333,8118,622471,0
3,-1,643556,219942,1499688,66491,9223,749409,0
3,-1,665800,224728,1312694,69831,8388,655852,0
3,-1,649498,221334,1291775,67144,7203,645156,0
3,-1,646014,220524,1188436,66702,7242,593725,2
3,-1,647848,220794,1159818,66869,7203,579133,0
3,-1,645563,219213,1216173,66085,7721,607594,0
3,-1,648490,220948,1240625,66928,6994,619664,0
3,-1,647218,219612,1246349,66216,7269,622751,0
3,-1,666411,225553,1374836,69970,8864,686945,0
3,-1,639263,218619,1190582,65963,7631,594905,2
3,-1,643750,219859,1341112,66301,7181,670001,0
3,-1,644731,220425,1239467,66603,7523,619202,0
3,-1,646787,221293,1232523,67068,7072,615464,0
3,2,730064,253096,1421628,77588,9200,710282,0
3,-1,643729,219399,1329368,66127,6812,664307,0
3,-1,643916,219567,1284491,66235,6477,641706,0
