-1,0,0.00690846
-1,1,0.00518135
-1,2,0.00518135
-1,3,0.00518135
-1,4,0.00518135
-1,5,0.00518135
-1,6,0.00518135
-1,7,0.00518135
-1,8,0.00518135
-1,9,0.00518135
-1,10,0.00518135
-1,11,0.00518135
-1,12,0.00518135
-1,13,0.00518135
-1,14,0.00518135
-1,15,0.00518135
-1,16,0.00518135
-1,17,0.00518135
-1,18,0.00518135
-1,19,0.00518135
-1,20,0.00518135
-1,21,0.00518135
-1,22,0.00518135
-1,23,0.00518135
-1,24,0.00518135
-1,25,0.00518135
-1,26,0.00518135
-1,27,0.00518135
-1,28,0.00518135
-1,29,0.00518135
-1,30,0.00518135
-1,31,0.00518135
-1,32,0.00518135
-1,33,0.00518135
-1,34,0.00345423
-1,35,0.00345423
-1,36,0.00345423
-1,37,0.00345423
-1,38,0.00345423
-1,39,0.00345423
-1,40,0.00345423
-1,41,0.00345423
-1,42,0.00345423
-1,43,0.00345423
-1,44,0.00345423
-1,45,0.00345423
-1,46,0.00345423
-1,47,0.00345423
-1,48,0.00345423
-1,49,0.00345423
-1,50,0.00345423
-1,51,0.00345423
-1,52,0.00345423
-1,53,0.00345423
-1,54,0.00345423
-1,55,0.00345423
-1,56,0.00345423
-1,57,0.00345423
-1,58,0.00345423
-1,59,0.00345423
-1,60,0.00345423
-1,61,0.00345423
-1,62,0.00345423
-1,63,0.00345423
-1,64,0.00345423
-1,65,0.00345423
-1,66,0.00345423
-1,67,0.00345423
-1,68,0.00345423
-1,69,0.00345423
-1,70,0.00345423
-1,71,0.00345423
-1,72,0.00345423
-1,73,0.00345423
-1,74,0.00345423
-1,75,0.00345423
-1,76,0.00345423
-1,77,0.00345423
-1,78,0.00345423
-1,79,0.00345423
-1,80,0.00345423
-1,81,0.00345423
-1,82,0.00345423
-1,83,0.00345423
-1,84,0.00345423
-1,85,0.00345423
-1,86,0.00345423
-1,87,0.00345423
-1,88,0.00345423
-1,89,0.00345423
-1,90,0.00345423
-1,91,0.00345423
-1,92,0.00345423
-1,93,0.00345423
-1,94,0.00345423
-1,95,0.00345423
-1,96,0.00345423
-1,97,0.00345423
-1,98,0.00345423
-1,99,0.00345423
-1,100,0.00345423
-1,101,0.00345423
-1,102,0.00345423
-1,103,0.00345423
-1,104,0.00345423
-1,105,0.00345423
-1,106,0.00345423
-1,107,0.00345423
-1,108,0.00345423
-1,109,0.00345423
-1,110,0.00345423
-1,111,0.00345423
-1,112,0.00345423
-1,113,0.00345423
-1,114,0.00345423
-1,115,0.00345423
-1,116,0.00345423
-1,117,0.00345423
-1,118,0.00345423
-1,119,0.00345423
-1,120,0.00345423
-1,121,0.00345423
-1,122,0.00345423
-1,123,0.00345423
-1,124,0.00345423
-1,125,0.00345423
-1,126,0.00345423
-1,127,0.00345423
-1,128,0.00345423
-1,129,0.00345423
-1,130,0.00345423
-1,131,0.00345423
-1,132,0.00345423
-1,133,0.00345423
-1,134,0.00345423
-1,135,0.00345423
-1,136,0.00345423
-1,137,0.00345423
-1,138,0.00345423
-1,139,0.00345423
-1,140,0.00345423
-1,141,0.00345423
-1,142,0.00345423
-1,143,0.00345423
-1,144,0.00345423
-1,145,0.00345423
-1,146,0.00345423
-1,147,0.00345423
-1,148,0.00345423
-1,149,0.00345423
-1,150,0.00345423
-1,151,0.00345423
-1,152,0.00345423
-1,153,0.00345423
-1,154,0.00345423
-1,155,0.00345423
-1,156,0.00345423
-1,157,0.00345423
-1,158,0.00345423
-1,159,0.00345423
-1,160,0.00345423
-1,161,0.00345423
-1,162,0.00345423
-1,163,0.00345423
-1,164,0.00345423
-1,165,0.00345423
-1,166,0.00345423
-1,167,0.00345423
-1,168,0.00345423
-1,169,0.00345423
-1,170,0.00345423
-1,171,0.00345423
-1,172,0.00345423
-1,173,0.00345423
-1,174,0.00345423
-1,175,0.00345423
-1,176,0.00345423
-1,177,0.00345423
-1,178,0.00345423
-1,179,0.00345423
-1,180,0.00345423
-1,181,0.00345423
-1,182,0.00345423
-1,183,0.00345423
-1,184,0.00345423
-1,185,0.00345423
-1,186,0.00345423
-1,187,0.00345423
-1,188,0.00345423
-1,189,0.00345423
-1,190,0.00345423
-1,191,0.00345423
-1,192,0.00345423
-1,193,0.00345423
-1,194,0.00345423
-1,195,0.00345423
-1,196,0.00345423
-1,197,0.00345423
-1,198,0.00345423
-1,199,0.00345423
-1,200,0.00345423
-1,201,0.00345423
-1,202,0.00345423
-1,203,0.00345423
-1,204,0.00345423
-1,205,0.00345423
-1,206,0.00345423
-1,207,0.00345423
-1,208,0.00345423
-1,209,0.00345423
-1,210,0.00345423
-1,211,0.00345423
-1,212,0.00345423
-1,213,0.00345423
-1,214,0.00345423
-1,215,0.00345423
-1,216,0.00345423
-1,217,0.00345423
-1,218,0.00345423
-1,219,0.00345423
-1,220,0.00345423
-1,221,0.00345423
-1,222,0.00345423
-1,223,0.00345423
-1,224,0.00518135
-1,225,0.00518135
-1,226,0.00518135
-1,227,0.00518135
-1,228,0.00518135
-1,229,0.00518135
-1,230,0.00518135
-1,231,0.00518135
-1,232,0.00518135
-1,233,0.00518135
-1,234,0.00518135
-1,235,0.00518135
-1,236,0.00518135
-1,237,0.00518135
-1,238,0.00518135
-1,239,0.00518135
-1,240,0.00518135
-1,241,0.00518135
-1,242,0.00518135
-1,243,0.00518135
-1,244,0.00518135
-1,245,0.00518135
-1,246,0.00518135
-1,247,0.00518135
-1,248,0.00518135
-1,249,0.00518135
-1,250,0.00518135
-1,251,0.00518135
-1,252,0.00518135
-1,253,0.00518135
-1,254,0.00518135
-1,255,0.00518135
2,0,0.00414079
2,1,0.00345066
2,2,0.00345066
2,3,0.00345066
2,4,0.00345066
2,5,0.00345066
2,6,0.00345066
2,7,0.00345066
2,8,0.00345066
2,9,0.00345066
2,10,0.00345066
2,11,0.00345066
2,12,0.00345066
2,13,0.00345066
2,14,0.00345066
2,15,0.00345066
2,16,0.00345066
2,17,0.00345066
2,18,0.00345066
2,19,0.00345066
2,20,0.00345066
2,21,0.00345066
2,22,0.00345066
2,23,0.00345066
2,24,0.00345066
2,25,0.00345066
2,26,0.00345066
2,27,0.00345066
2,28,0.00345066
2,29,0.00345066
2,30,0.00345066
2,31,0.00345066
2,32,0.00345066
2,33,0.00345066
2,34,0.00345066
2,35,0.00345066
2,36,0.00345066
2,37,0.00345066
2,38,0.00345066
2,39,0.00345066
2,40,0.00345066
2,41,0.00345066
2,42,0.00345066
2,43,0.00345066
2,44,0.00345066
2,45,0.00345066
2,46,0.00345066
2,47,0.00345066
2,48,0.00345066
2,49,0.00345066
2,50,0.00345066
2,51,0.00345066
2,52,0.00345066
2,53,0.00345066
2,54,0.00345066
2,55,0.00345066
2,56,0.00345066
2,57,0.00345066
2,58,0.00345066
2,59,0.00345066
2,60,0.00345066
2,61,0.00345066
2,62,0.00345066
2,63,0.00345066
2,64,0.00345066
2,65,0.00345066
2,66,0.00345066
2,67,0.00345066
2,68,0.00345066
2,69,0.00345066
2,70,0.00345066
2,71,0.00345066
2,72,0.00345066
2,73,0.00345066
2,74,0.00345066
2,75,0.00345066
2,76,0.00345066
2,77,0.00345066
2,78,0.00345066
2,79,0.00345066
2,80,0.00345066
2,81,0.00345066
2,82,0.00345066
2,83,0.00345066
2,84,0.00345066
2,85,0.00345066
2,86,0.00345066
2,87,0.00345066
2,88,0.00414079
2,89,0.00414079
2,90,0.00414079
2,91,0.00414079
2,92,0.00414079
2,93,0.00414079
2,94,0.00414079
2,95,0.00414079
2,96,0.00414079
2,97,0.00414079
2,98,0.00414079
2,99,0.00414079
2,100,0.00414079
2,101,0.00414079
2,102,0.00414079
2,103,0.00414079
2,104,0.00414079
2,105,0.00414079
2,106,0.00414079
2,107,0.00414079
2,108,0.00414079
2,109,0.00414079
2,110,0.00414079
2,111,0.00414079
2,112,0.00414079
2,113,0.00414079
2,114,0.00414079
2,115,0.00414079
2,116,0.00414079
2,117,0.00414079
2,118,0.00414079
2,119,0.00414079
2,120,0.00414079
2,121,0.00414079
2,122,0.00414079
2,123,0.00414079
2,124,0.00414079
2,125,0.00414079
2,126,0.00414079
2,127,0.00414079
2,128,0.00414079
2,129,0.00414079
2,130,0.00414079
2,131,0.00414079
2,132,0.00414079
2,133,0.00414079
2,134,0.00414079
2,135,0.00414079
2,136,0.00414079
2,137,0.00414079
2,138,0.00414079
2,139,0.00414079
2,140,0.00414079
2,141,0.00414079
2,142,0.00414079
2,143,0.00414079
2,144,0.00414079
2,145,0.00414079
2,146,0.00414079
2,147,0.00414079
2,148,0.00414079
2,149,0.00414079
2,150,0.00414079
2,151,0.00414079
2,152,0.00414079
2,153,0.00414079
2,154,0.00414079
2,155,0.00414079
2,156,0.00414079
2,157,0.00414079
2,158,0.00414079
2,159,0.00414079
2,160,0.00414079
2,161,0.00414079
2,162,0.00414079
2,163,0.00414079
2,164,0.00414079
2,165,0.00414079
2,166,0.00414079
2,167,0.00414079
2,168,0.00414079
2,169,0.00414079
2,170,0.00414079
2,171,0.00414079
2,172,0.00414079
2,173,0.00414079
2,174,0.00414079
2,175,0.00414079
2,176,0.00414079
2,177,0.00414079
2,178,0.00414079
2,179,0.00414079
2,180,0.00414079
2,181,0.00414079
2,182,0.00414079
2,183,0.00414079
2,184,0.00414079
2,185,0.00414079
2,186,0.00414079
2,187,0.00414079
2,188,0.00414079
2,189,0.00414079
2,190,0.00414079
2,191,0.00414079
2,192,0.00414079
2,193,0.00414079
2,194,0.00414079
2,195,0.00414079
2,196,0.00414079
2,197,0.00414079
2,198,0.00414079
2,199,0.00414079
2,200,0.00414079
2,201,0.00414079
2,202,0.00414079
2,203,0.00414079
2,204,0.00414079
2,205,0.00414079
2,206,0.00414079
2,207,0.00414079
2,208,0.00414079
2,209,0.00414079
2,210,0.00414079
2,211,0.00414079
2,212,0.00414079
2,213,0.00414079
2,214,0.00414079
2,215,0.00414079
2,216,0.00414079
2,217,0.00414079
2,218,0.00414079
2,219,0.00414079
2,220,0.00414079
2,221,0.00414079
2,222,0.00414079
2,223,0.00414079
2,224,0.00414079
2,225,0.00414079
2,226,0.00414079
2,227,0.00414079
2,228,0.00414079
2,229,0.00414079
2,230,0.00414079
2,231,0.00414079
2,232,0.00414079
2,233,0.00414079
2,234,0.00414079
2,235,0.00414079
2,236,0.00414079
2,237,0.00414079
2,238,0.00414079
2,239,0.00414079
2,240,0.00414079
2,241,0.00414079
2,242,0.00414079
2,243,0.00414079
2,244,0.00414079
2,245,0.00414079
2,246,0.00414079
2,247,0.00414079
2,248,0.00414079
2,249,0.00414079
2,250,0.00414079
2,251,0.00414079
2,252,0.00414079
2,253,0.00414079
2,254,0.00414079
2,255,0.00414079
