0,0,467,644971.770878,220525.777302,1278647.370450,66616.458244,7977.490364,638868.034261,10332.090587,2930.502010,79777.590122,1241.957733,652.578799,39879.482130
0,1,0,-nan,-nan,-nan,-nan,-nan,-nan,-nan,-nan,-nan,-nan,-nan,-nan
1,0,466,645037.759657,220612.980687,1276956.785408,66666.884120,7982.467811,638016.285408,9770.103858,2846.270750,76214.054797,1236.586144,645.690368,38074.487684
1,1,0,-nan,-nan,-nan,-nan,-nan,-nan,-nan,-nan,-nan,-nan,-nan,-nan
2,0,466,645033.021459,220509.343348,1273407.034335,66620.347639,7953.903433,636253.306867,9748.238980,2838.459098,76337.728228,1257.593570,632.787065,38172.745711
2,1,0,-nan,-nan,-nan,-nan,-nan,-nan,-nan,-nan,-nan,-nan,-nan,-nan
3,0,598,644104.770903,220426.779264,1275854.775920,66571.043478,7959.617057,637474.794314,9193.266127,2642.683726,76866.001603,1160.493724,678.416962,38423.586711
3,1,0,-nan,-nan,-nan,-nan,-nan,-nan,-nan,-nan,-nan,-nan,-nan,-nan
