0,-1,687127,236408,1283586,70516,8074,641741,0
0,0,760428,265533,1372319,78382,9027,686310,11
0,-1,687242,236587,1301582,70586,7028,650764,2
0,-1,691404,236195,1222800,70410,8243,611414,0
0,-1,635553,218091,1271073,65552,6908,635541,0
0,-1,637675,218273,1334382,65528,7291,667151,0
0,-1,640179,217961,1354405,65390,8759,676797,0
0,-1,635963,217662,1173357,65250,7662,586621,0
0,-1,638972,219533,1266449,66031,7186,633235,0
0,-1,654014,222450,1289106,68635,8636,644684,0
0,-1,637001,218106,1487945,65485,9251,742373,0
0,-1,641076,218630,1335686,65789,8489,667633,0
0,-1,641020,218576,1244877,65685,8276,622376,0
0,-1,638972,218583,1332823,65537,8352,666347,0
0,-1,635538,217585,1321414,65272,7974,660672,0
0,-1,659665,222932,1511888,68992,8598,755456,0
0,-1,634742,217154,1458603,65367,8090,729391,0
0,-1,642059,219792,1419928,66488,8557,708870,0
0,-1,633102,219443,1329327,66287,7667,664658,0
0,-1,636925,218131,1233606,65650,7096,616906,0
0,-1,635321,218639,1168224,65844,7075,584149,0
0,-1,634244,217938,1204097,65577,6706,602096,0
0,-1,636290,218444,1251528,65644,6910,625815,0
0,-1,637377,218119,1120519,65524,7248,560324,0
0,-1,638493,220031,1366270,66388,7577,683222,0
0,-1,637814,218987,1160816,65851,6654,580483,0
0,-1,637170,218356,1147899,65620,6862,574112,0
0,-1,637822,219441,1210884,66010,7817,605385,0
0,-1,643057,219943,1278996,66364,8446,639578,0
0,-1,640306,218634,1304231,65742,8501,652136,0
0,-1,641483,218637,1193531,65700,7193,596847,0
0,-1,634960,218368,1148010,65627,6878,574036,0
0,-1,633616,217603,1486631,65330,8945,742953,0
0,-1,640417,218617,1161819,65697,6884,580976,0
0,-1,638616,218680,1125950,65742,6805,563008,0
0,-1,637807,218667,1181692,65771,6581,590904,0
0,-1,636489,218812,1232543,65621,6761,616339,0
0,-1,638612,219038,1126074,65748,7130,563091,0
0,-1,636241,217320,1279678,65153,7888,639379,0
0,-1,636887,218663,1285793,65504,8556,642955,0
0,-1,643254,219532,1301139,66002,8557,650521,0
0,-1,646337,219948,1269088,65968,7515,634492,0
0,-1,639207,219966,1274878,65933,8515,637456,0
0,-1,645093,221142,1252654,66582,8349,626099,0
0,-1,643676,219819,1288765,66066,7907,644315,0
0,-1,639848,219755,1259199,65978,7743,629581,0
0,-1,639379,217757,1338243,65319,8256,669152,0
0,-1,644953,220195,1275581,66437,8415,637845,0
0,-1,654451,222600,1336009,68824,7682,668112,0
0,-1,637942,218532,1211307,65611,8050,605688,0
0,-1,632899,216561,1094781,65057,6753,547334,0
0,-1,637986,218464,1256849,65552,8182,628499,0
0,-1,645526,221046,1271729,66609,7179,635944,0
0,-1,664038,223769,1192180,68896,8653,596098,0
0,-1,637151,219100,1323970,65594,8487,661849,0
0,-1,637942,218624,1243520,65487,7056,621849,0
0,-1,633742,217635,1270951,65158,6850,635560,0
0,-1,638995,218533,1269115,65562,6794,634649,0
0,-1,641809,219724,1309319,66123,7568,654686,0
0,-1,640637,218872,1276355,65609,7404,638214,0
0,-1,644416,218706,1505433,65634,9349,752648,0
0,-1,643287,219452,1241773,66028,7785,620849,0
0,-1,637592,217646,1246877,65285,7774,623358,0
0,-1,641588,218041,1121279,65370,7837,560714,0
0,-1,641858,218333,1284698,65423,8051,642327,0
0,-1,646690,220084,1179946,66321,7447,589901,0
0,-1,631865,218168,1169704,64946,7119,584741,0
0,-1,631792,217917,1487098,64818,8509,743478,0
0,-1,637019,219062,1268681,65239,7559,634468,0
0,-1,637658,218178,1263237,64910,7861,631673,0
0,-1,634495,218271,1288336,65101,8257,644175,0
0,-1,657542,222914,1365022,69276,9632,682114,0
0,-1,639540,218111,1146770,65914,8592,573426,0
0,-1,633566,217207,1115784,65590,7179,557926,0
0,-1,639600,220160,1132973,66804,7441,566298,0
0,-1,640255,218344,1187126,65987,6901,593679,0
0,-1,638907,218138,1317553,65932,8141,658806,0
0,-1,638628,218027,1280212,65854,8968,640029,0
0,-1,635893,218765,1300248,66104,9364,650125,0
0,-1,636990,218437,1191094,65993,7971,595497,0
0,-1,640574,220021,1268375,66815,9391,633838,0
0,-1,642431,220172,1120881,66843,7651,560198,0
0,-1,642000,218385,1429511,65961,9767,714613,0
0,-1,640434,218437,1262287,65905,7852,630807,0
0,-1,645429,220816,1187719,66952,7431,593805,0
0,-1,638052,218243,1285088,65796,7590,642102,0
0,-1,643850,219201,1153353,66421,6831,576753,0
0,-1,640625,219046,1307790,66120,7692,653906,0
0,-1,642066,218542,1286551,65890,9025,643425,0
0,-1,642743,218421,1154212,65949,7839,577070,0
0,-1,634043,218021,1251206,65747,7675,625721,0
0,-1,641104,220263,1206638,66784,7239,603371,0
0,-1,649406,221429,1183145,67396,6908,591597,0
0,-1,640462,219619,1218350,66428,7087,609219,0
0,-1,643864,219396,1325084,66316,7591,662631,0
0,-1,644670,219978,1164501,66469,7239,582259,0
1,-1,688296,235786,1197763,70265,7070,598932,0
1,0,759481,265379,1305853,78409,8388,652835,11
1,-1,639355,219430,1253862,66273,6918,626888,0
1,-1,631512,217556,1238870,65401,6547,619370,2
1,-1,636381,217915,1155887,65411,7385,577967,0
1,-1,645092,220378,1394720,66423,9149,697300,0
1,-1,635033,218325,1216616,65495,6440,608187,0
1,-1,634503,217508,1242126,65231,6935,620961,0
1,-1,632115,217471,1287879,65130,7165,643922,0
1,-1,636981,218254,1361281,65518,8047,680119,0
1,-1,640658,219074,1247021,65963,7556,623415,0
1,-1,639149,217705,1357400,65468,7543,679068,0
1,-1,640793,219579,1279968,65895,8290,639910,0
1,-1,638460,218333,1329871,65547,9053,665104,0
1,-1,642448,218727,1481122,65833,8044,740595,0
1,-1,641790,219149,1370721,65974,8195,685167,0
1,-1,659687,222681,1261522,68895,9030,630795,0
1,-1,644103,218248,1254326,65670,7008,627181,0
1,-1,638719,219211,1210217,66039,7265,605150,0
1,-1,632276,217549,1239341,65388,7012,619718,0
1,-1,635545,218766,1171358,65906,6919,585742,0
1,-1,632162,217761,1221809,65352,6877,610806,0
1,-1,637874,218408,1177014,65652,7384,588513,0
1,-1,632970,218292,1236846,65623,6283,618523,0
1,-1,638075,219647,1365209,66071,7636,682551,0
1,-1,637889,219309,1238759,65914,6991,619418,0
1,-1,637494,218287,1269366,65580,8821,634704,0
1,-1,639815,218959,1233688,65877,8537,616385,0
1,-1,636583,217660,1381666,65355,8704,690884,0
1,-1,646324,220427,1266925,66620,8008,633522,0
1,-1,635796,219003,1235071,65778,6917,617510,0
1,-1,637477,218094,1299666,65509,7200,649879,0
1,-1,662707,223558,1156029,69150,8027,578068,0
1,-1,643844,221251,1220380,66859,6777,610253,0
1,-1,643274,220740,1262599,66775,7446,631420,0
1,-1,641516,219132,1156615,65699,7158,578160,0
1,-1,636784,218655,1152402,65539,6234,576338,0
1,-1,643492,220354,1344057,66335,8625,671517,0
1,-1,637639,219215,1202564,65790,8326,601279,0
1,-1,641605,219184,1269822,65871,7871,634952,0
1,-1,644907,219775,1280323,66070,7649,640055,0
1,-1,639158,219854,1156683,65950,7789,578195,0
1,-1,663715,225097,1165397,69437,8369,582690,0
1,-1,644513,220755,1273750,66534,7756,636782,0
1,-1,645060,219566,1160989,65891,7240,580460,0
1,-1,641272,219214,1384798,65886,8510,692361,0
1,-1,640240,218768,1267525,65712,7466,633750,0
1,-1,638069,218807,1352042,65777,7179,676066,0
1,-1,646714,221164,1340945,66635,8100,670475,0
1,-1,636236,218135,1172926,65587,7195,586505,0
1,-1,636185,218486,1150275,65609,6976,575160,0
1,-1,668125,227768,1212195,68181,7891,606086,0
1,-1,640374,218817,1353775,65511,7795,676944,0
1,-1,645467,218607,1351756,65353,7764,675963,0
1,-1,638014,218668,1252616,65485,7077,626331,0
1,-1,635265,218050,1224336,65398,7067,612188,0
1,-1,635583,217376,1232273,65084,6564,616169,0
1,-1,638636,218744,1228279,65616,7368,614189,0
1,-1,638825,218082,1191879,65378,6902,595978,0
1,-1,642555,218282,1187221,65475,8255,593649,0
1,-1,639333,218314,1455413,65462,9055,727466,0
1,-1,638101,218032,1270252,65363,8003,635204,0
1,-1,643790,218655,1218031,65567,8308,608736,0
1,-1,640646,218213,1300824,65448,7829,650249,0
1,-1,662050,222664,1289860,68676,8146,644966,0
1,-1,631655,218461,1107070,64997,6443,553563,0
1,-1,636484,220173,1174989,65768,7524,587443,0
1,-1,638265,219630,1188678,65629,7022,594307,0
1,-1,637621,218199,1267623,64892,7752,633772,0
1,-1,637356,218856,1300157,65267,8268,649960,0
1,-1,636214,218013,1329694,65854,9641,664977,0
1,-1,644038,219476,1179239,66576,7904,589595,0
1,-1,640395,220111,1222456,66740,8653,611238,0
1,-1,654820,222787,1276568,69105,8307,638025,0
1,-1,640584,218916,1246344,66437,7744,623135,0
1,-1,636981,217802,1136949,65782,7370,568402,0
1,-1,659070,222586,1375428,69171,9687,687679,0
1,-1,635196,218780,1223238,66067,8192,611503,0
1,-1,642917,220058,1181769,66816,8474,590891,0
1,-1,641164,218706,1204262,65954,8848,602167,0
1,-1,635019,217895,1288343,65857,7807,644100,0
1,-1,639289,217794,1237355,65652,7754,618611,0
1,-1,640234,218105,1346171,65866,8247,673214,0
1,-1,661434,223352,1340852,69269,8847,670512,0
1,-1,663282,227095,1318960,68482,9096,659231,0
1,-1,639577,217780,1271362,65786,7374,635714,0
1,-1,640808,218345,1274845,65835,7476,637468,0
1,-1,644774,219820,1268029,66597,8936,634045,0
1,-1,640443,217719,1405621,65708,8564,702587,0
1,-1,637413,219734,1158514,66472,7296,579353,0
1,-1,644884,219462,1252567,66286,7585,626306,0
1,-1,664424,223724,1337836,69698,7928,669042,0
1,-1,643803,220150,1124332,66831,7283,562234,0
1,-1,646890,221126,1260379,67158,7594,630237,0
1,-1,643245,219731,1246296,66448,7365,623221,0
2,-1,708916,240208,1381490,73482,8269,690675,0
2,0,762624,266131,1347002,78672,9566,673443,11
2,-1,656479,222449,1280851,68761,8054,640458,0
2,-1,633275,217410,1224245,65144,6889,612130,0
2,-1,640462,220388,1271361,66485,7371,635805,2
2,-1,660315,222527,1315719,68669,9077,657867,0
2,-1,634395,218343,1290440,65476,7294,645280,0
2,-1,653979,222494,1236097,68655,7542,618160,0
2,-1,644687,220096,1268591,66264,8093,634436,0
2,-1,655535,222316,1340441,68693,9176,670275,0
2,-1,637363,217919,1287737,65488,7640,643892,0
2,-1,639776,218236,1203522,65583,7042,601735,0
2,-1,638278,218843,1459345,65601,8078,729767,0
2,-1,639522,218734,1283026,65609,8252,641399,0
2,-1,639776,218103,1270674,65547,7489,635589,0
2,-1,638899,217789,1380508,65515,7788,690678,0
2,-1,638737,218247,1274177,65724,8433,636996,0
2,-1,643662,218383,1325493,65719,7575,662754,0
2,-1,635451,217883,1115035,65593,7289,557547,0
2,-1,635032,217683,1220203,65496,6414,610141,0
2,-1,636621,219390,1180582,66234,6959,590397,0
2,-1,640704,220759,1295617,66706,7623,647869,0
2,-1,641866,219843,1171503,66138,6906,585804,0
2,-1,638254,218991,1177526,65839,6921,588835,0
2,-1,635950,218125,1237430,65545,7569,618779,0
2,-1,637799,218463,1220289,65657,7105,610169,0
2,-1,640989,220249,1455533,66543,8365,727449,0
2,-1,641360,219816,1196562,66048,7511,598164,0
2,-1,641149,218712,1361987,65747,7736,679729,0
2,-1,661521,223037,1209606,68913,8177,604887,0
2,-1,634464,218499,1236316,65628,6642,618251,0
2,-1,638382,218953,1410864,65854,8898,705186,0
2,-1,639902,219392,1219953,66218,7843,610027,0
2,-1,638695,219189,1365113,65926,8485,682593,0
2,-1,640421,219801,1277389,66326,7317,638748,0
2,-1,641247,218559,1139180,65536,7364,569704,0
2,-1,642699,220528,1192327,66507,7706,596161,0
2,-1,636925,218371,1138495,65470,7419,569254,0
2,-1,642154,218592,1224399,65540,7208,612073,0
2,-1,641214,220200,1148974,66130,7409,574513,0
2,-1,646923,220348,1201333,66105,7309,600880,0
2,-1,638295,219810,1394741,65879,8217,697463,0
2,-1,640987,219794,1228209,65947,8470,614039,0
2,-1,639902,219028,1187315,65798,7511,593618,0
2,-1,643885,219475,1271307,65825,7847,635651,0
2,-1,642505,220099,1252907,66292,7755,626336,0
2,-1,639210,218405,1286389,65585,7883,643108,0
2,-1,642679,218737,1213757,65733,8112,606918,0
2,-1,637419,218429,1297506,65528,7990,648798,0
2,-1,642304,218817,1150975,65774,7682,575515,0
2,-1,634559,218253,1336311,65504,7396,668207,0
2,-1,644726,219935,1258313,66195,8702,629231,0
2,-1,645675,221230,1261375,66487,7863,630736,0
2,-1,644136,218345,1456779,65284,8482,728511,0
2,-1,640860,220447,1243688,66366,7317,621915,0
2,-1,634899,217856,1142167,65303,6645,571141,0
2,-1,637408,218083,1325166,65413,7183,662629,0
2,-1,636363,218015,1272694,65342,7377,636398,0
2,-1,644174,220917,1266066,66586,7172,633137,0
2,-1,640590,217812,1214650,65282,8698,607229,0
2,-1,639208,218170,1415019,65444,9302,707165,0
2,-1,641837,218420,1228717,65475,8462,614434,0
2,-1,646286,220122,1183340,66243,8168,591679,0
2,-1,637600,217777,1385776,65327,7716,692928,0
2,-1,640595,218179,1274275,65424,7643,637182,0
2,-1,628773,218067,1154248,64853,6710,577028,0
2,-1,632966,218048,1252281,64914,7517,626177,0
2,-1,633845,218277,1257383,64975,7353,628875,0
2,-1,656886,223127,1345523,68328,9151,672774,0
2,-1,633206,217732,1402192,64875,7762,701203,0
2,-1,639971,219828,1288549,66669,9645,644258,0
2,-1,661280,222822,1331987,69257,9558,666017,0
2,-1,637292,218501,1372898,66048,8613,686541,0
2,-1,639365,218297,1244876,65903,7347,622486,0
2,-1,659430,222640,1296078,69195,8063,648164,0
2,-1,640736,219234,1184422,66483,8012,592232,0
2,-1,635523,217594,1236794,65605,7189,618423,0
2,-1,646398,219713,1221444,66708,8381,610719,0
2,-1,636343,217868,1221308,65780,7798,610347,0
2,-1,644179,219974,1316059,66672,8726,658016,0
2,-1,637808,218163,1264059,65877,7767,631969,0
2,-1,642028,218958,1264943,65973,8284,632421,0
2,-1,665794,223971,1295485,70125,8878,647850,0
2,-1,639487,219018,1375360,66065,8094,687528,0
2,-1,657769,222852,1240920,69131,10096,620448,0
2,-1,638946,217966,1276788,65770,7104,638435,0
2,-1,659269,222760,1279679,69060,8136,639706,0
2,-1,661164,222995,1450415,69123,10077,724969,0
2,-1,663554,222512,1426420,69114,9884,713196,0
2,-1,634263,218324,1245816,65826,7353,622964,0
2,-1,639776,218772,1171395,66218,6939,585736,0
2,-1,642178,219030,1274117,66303,6857,637091,0
2,-1,640024,218663,1125658,66151,7133,562889,0
2,-1,664106,224112,1294997,69663,8621,647536,0
2,-1,641913,218997,1313418,66189,7425,656771,0
3,-1,686782,236189,1307700,70400,7322,653891,0
3,0,787680,275314,1438195,81282,8707,719029,11
3,-1,635345,218158,1171221,65549,7131,585673,0
3,-1,635318,217935,1152874,65423,7157,576462,0
3,-1,643433,219988,1360377,66208,8778,680298,0
3,-1,632663,218548,1109948,65587,6868,554974,2
3,-1,633594,217991,1334477,65397,7326,666301,0
3,-1,636508,218117,1157552,65377,7053,578773,0
3,-1,665269,224254,1270346,69746,8044,635196,0
3,-1,636994,217945,1291113,65507,8413,644846,0
3,-1,639220,218944,1364875,65895,8260,682471,0
3,-1,659362,222225,1265069,68605,7973,632496,0
3,-1,641693,220351,1312420,66321,8727,656167,0
3,-1,642560,220271,1330959,66487,8269,665110,0
3,-1,642960,219433,1311715,66254,8594,655779,0
3,-1,638718,218028,1238533,65597,8594,619294,0
3,-1,637056,217634,1312530,65490,8320,656180,0
3,-1,644666,219801,1279276,66405,7649,639598,0
3,-1,632397,217769,1241026,65509,7203,620565,0
3,-1,634473,217908,1201844,65568,6745,601040,0
3,-1,637587,219267,1244041,66039,7680,622059,0
3,-1,641366,220282,1261069,66553,6966,630675,0
3,-1,637122,218491,1146001,65618,7005,573040,0
3,-1,635370,218697,1242417,65769,7036,621251,0
3,-1,636894,218469,1187000,65644,6701,593538,0
3,-1,637178,218438,1161286,65653,6855,580669,0
3,-1,659772,224307,1301154,69367,9785,650342,0
3,-1,638882,218711,1166392,65783,7279,583095,0
3,-1,636574,218183,1215079,65507,7228,607628,0
3,-1,639404,218435,1220160,65702,7474,610207,0
3,-1,638457,220548,1339923,66602,7606,669988,0
3,-1,656199,222993,1199057,68926,7905,599588,0
3,-1,635677,218238,1140684,65636,6577,570377,0
3,-1,637076,218620,1168918,65709,6627,584516,0
3,-1,640698,219215,1472395,65845,8507,736247,0
3,-1,642170,219477,1284942,65864,8527,642519,0
3,-1,660838,223966,1205591,69166,8108,602819,0
3,-1,638560,218275,1430077,65461,8643,714444,0
3,-1,640562,218592,1598208,65561,9736,799164,0
3,-1,643351,219580,1165169,66025,7293,582679,0
3,-1,645333,220092,1334351,65966,8190,667134,0
3,-1,661552,224671,1317470,69299,9026,658920,0
3,-1,640060,219719,1158973,65822,7546,579376,0
3,-1,639165,219105,1282903,65774,7523,641492,0
3,-1,642506,219072,1325745,65713,7597,662828,0
3,-1,641565,219613,1191400,65996,7369,595609,0
3,-1,644212,220060,1214149,66277,7464,607018,0
3,-1,638759,217651,1265519,65331,7819,632944,0
3,-1,643676,220853,1265010,66610,8106,632171,0
3,-1,638847,217842,1259271,65424,7888,629648,0
3,-1,649524,221335,1270796,66847,7898,635449,0
3,-1,639777,218381,1229477,65462,7725,614629,0
3,-1,642891,218958,1159914,65583,7947,580035,0
3,-1,669893,224710,1306265,69196,9116,652870,0
3,-1,638946,218260,1165030,65368,7472,582558,0
3,-1,634916,218264,1224582,65466,7053,612329,0
3,-1,642422,219652,1222798,66129,7143,611474,0
3,-1,663155,223722,1207336,69018,8171,603714,0
3,-1,639593,218205,1110996,65413,7113,555531,0
3,-1,647339,220673,1287150,66566,8961,643399,0
3,-1,638726,218464,1305479,65478,8007,652691,0
3,-1,639445,218395,1199194,65500,7767,599486,0
3,-1,642596,218699,1374547,65650,9383,687246,0
3,-1,639885,218123,1287730,65386,7722,643845,0
3,-1,641316,219002,1183266,65839,7056,591629,0
3,-1,649353,220367,1338877,66356,8202,669391,0
3,-1,635613,220066,1179041,65791,7543,589547,0
3,-1,632944,217768,1244866,64725,7663,622513,0
3,-1,636056,218505,1492755,65082,9004,745435,0
3,-1,632401,218330,1312516,65101,8624,656187,0
3,-1,631539,217731,1339537,64863,8020,669465,0
3,-1,638616,217669,1158698,65738,7647,579305,0
3,-1,636793,218032,1253856,65852,8467,626934,0
3,-1,664863,227020,1422800,68529,8791,711038,0
3,-1,635335,217420,1149956,65653,6952,574972,0
3,-1,634489,217824,1285439,65778,8464,642721,0
3,-1,638859,217850,1275826,65751,8440,637973,0
3,-1,642268,218133,1346814,65942,8160,673291,0
3,-1,637156,218554,1282379,66066,8284,641234,0
3,-1,658199,222626,1331371,69135,9971,665419,0
3,-1,637011,218425,1147735,65986,7326,573866,0
3,-1,643598,220099,1172700,66671,7516,586257,0
3,-1,639539,218067,1284226,65908,7587,642214,0
3,-1,642678,219857,1212288,66505,7609,606169,0
3,-1,641231,217873,1138780,65713,8243,569276,0
3,-1,643277,219814,1195400,66603,8097,597754,0
3,-1,638152,217987,1146076,65773,6528,572808,0
3,-1,642769,218745,1383099,65980,8231,690558,0
3,-1,640562,218185,1262430,65921,8348,631258,0
3,-1,647892,219621,1192969,66469,7351,596541,0
3,-1,641262,219148,1156064,66365,7388,578080,0
3,-1,641040,218995,1243350,66360,7492,621729,0
3,-1,640609,219491,1183183,66467,7573,591618,0
3,-1,640908,219155,1147539,66257,7070,573836,0
3,-1,645168,220909,1197460,67099,7333,598800,0
4,-1,697003,238354,1310943,71300,7523,655521,0
4,0,739153,259062,1344837,76453,8697,672390,11
4,-1,634913,217971,1215431,65520,6869,607721,0
4,-1,637381,218985,1261000,66015,7438,630500,0
4,-1,639177,218150,1314192,65483,8358,656916,0
4,-1,632768,218011,1256733,65422,7286,628352,2
4,-1,632291,217530,1196208,65231,7402,598158,0
4,-1,639883,219797,1278882,66153,7719,639406,0
4,-1,636693,217952,1149672,65398,6852,574809,0
4,-1,639062,219256,1389217,66014,9169,694455,0
4,-1,639680,219244,1302002,65918,8169,651150,0
4,-1,637930,218035,1212307,65458,6837,606131,0
4,-1,640102,218462,1240525,65514,7542,620271,0
4,-1,659754,223292,1340934,68973,9435,670314,0
4,-1,639162,218513,1208085,65765,7583,604082,0
4,-1,638000,218180,1215635,65641,8680,607720,0
4,-1,640298,219132,1214424,66011,8337,606876,0
4,-1,646714,220209,1263199,66635,7830,631716,0
4,-1,636724,218753,1244149,65868,7207,622112,0
4,-1,637287,219305,1168328,66054,6584,584208,0
4,-1,653230,222341,1155010,68798,8750,577687,0
4,-1,658721,223347,1202171,69110,7571,601180,0
4,-1,660713,223422,1249562,69097,8213,624883,0
4,-1,632746,217972,1225369,65473,7447,612778,0
4,-1,636765,218602,1238444,65719,7356,619284,0
4,-1,639910,220005,1313332,66383,8016,656700,0
4,-1,633260,217980,1373976,65505,9012,686929,0
4,-1,637428,218405,1136973,65604,7371,568336,0
4,-1,642017,219982,1258698,66411,7337,629504,0
4,-1,642181,219021,1214239,65826,7603,607172,0
4,-1,664732,228076,1284141,68532,7010,642101,0
4,-1,634310,218401,1224879,65606,6844,612483,0
4,-1,638544,218454,1270392,65616,7727,635241,0
4,-1,642953,220167,1251310,66354,7566,625696,0
4,-1,637181,218466,1422621,65766,8252,710873,0
4,-1,641657,219020,1121250,65708,7111,560675,0
4,-1,636860,218647,1170912,65592,6586,585341,0
4,-1,645257,221317,1449514,66794,8801,724209,0
4,-1,643699,220158,1306549,66279,8355,652958,0
4,-1,644510,219882,1296591,66066,7997,648341,0
4,-1,643770,219826,1224149,65928,6919,612044,0
4,-1,635961,219380,1191191,65685,7739,595435,0
4,-1,642252,220593,1214350,66388,7751,607179,0
4,-1,644593,221104,1276407,66739,7778,638244,0
4,-1,646473,221206,1297960,66667,7579,648960,0
4,-1,659258,223168,1221025,68938,8159,610398,0
4,-1,639680,218765,1265515,65681,7871,632628,0
4,-1,662950,223754,1329808,69200,9423,665125,0
4,-1,640513,220148,1277076,66330,8134,638614,0
4,-1,639065,217925,1300648,65426,8202,650313,0
4,-1,666005,223724,1205076,69089,8235,602677,0
4,-1,661045,223581,1206219,69064,8450,603086,0
4,-1,642027,218641,1279269,65347,8028,639652,0
4,-1,646150,219874,1314253,66003,8309,656708,0
4,-1,640362,219075,1200769,65653,7742,600451,0
4,-1,640485,218186,1261372,65392,7325,630783,0
4,-1,637757,218284,1155982,65467,6953,578040,0
4,-1,639229,218051,1142361,65345,7215,571208,0
4,-1,635513,217634,1204658,65206,7349,602363,0
4,-1,639219,217760,1234194,65250,8442,617163,0
4,-1,662980,223586,1294210,68991,9007,647154,0
4,-1,637197,217805,1188820,65257,7438,594186,0
4,-1,641170,218461,1546587,65519,9896,773288,0
4,-1,638505,217832,1186769,65286,7244,593331,0
4,-1,640423,218311,1341583,65522,8473,670812,0
4,-1,643324,218436,1249283,65453,7200,624558,0
4,-1,633733,218817,1270207,65152,7643,635035,0
4,-1,654020,222651,1306428,68194,8851,653280,0
4,-1,634568,218253,1234522,64976,7308,617320,0
4,-1,633995,217730,1262398,64886,8337,630930,0
4,-1,635804,218706,1484787,65262,8295,742927,0
4,-1,638025,218013,1285892,65887,8136,642964,0
4,-1,635084,217937,1242410,65787,7801,621245,0
4,-1,642057,219509,1145355,66515,6991,572557,0
4,-1,658892,222561,1347284,69194,8191,673683,0
4,-1,639319,218531,1340920,66004,9459,670308,0
4,-1,641602,219473,1174369,66558,7168,587122,0
4,-1,640739,217883,1206840,65803,7952,603528,0
4,-1,635506,218025,1163099,65892,7461,581520,0
4,-1,638327,218889,1230759,66152,7507,615153,0
4,-1,636516,218570,1275793,65983,8018,637759,0
4,-1,660075,222508,1338626,68921,9471,669364,0
4,-1,640692,218243,1353029,65881,8503,676519,0
4,-1,635487,217774,1216010,65582,7381,608012,0
4,-1,638512,217763,1183771,65607,7831,591907,0
4,-1,661258,222727,1318934,69051,9057,659536,0
4,-1,643317,219678,1183960,66493,7524,592037,0
4,-1,642848,219268,1196867,66272,7537,598315,0
4,-1,637218,217513,1381258,65682,8896,690502,0
4,-1,644878,218754,1300754,65941,7376,650379,0
4,-1,640720,219103,1252594,66363,7915,626331,0
4,-1,642550,218983,1251627,66354,7614,625850,0
4,-1,644343,220671,1147397,67114,7513,573766,0
4,-1,641056,219150,1247951,66156,7722,624033,0
4,-1,643265,219120,1283201,66210,7485,641678,0
5,-1,689572,236251,1219974,70395,6677,609994,0
5,-1,634169,218245,1102331,65628,6133,551128,0
5,0,705359,247075,1305362,73406,8228,652647,11
5,-1,634458,218098,1219057,65481,7438,609505,0
5,-1,638226,218110,1161867,65420,7701,581326,0
5,-1,632738,218135,1298514,65479,7309,649301,0
5,-1,640884,220595,1212531,66579,7537,606133,2
5,-1,633246,217922,1196096,65360,6599,597963,0
5,-1,637045,217981,1262226,65338,7577,631135,0
5,-1,634965,218188,1267255,65459,8494,632947,0
5,-1,645891,220378,1397035,66654,9010,698162,0
5,-1,637296,218096,1231362,65423,7067,615714,0
5,-1,639389,218762,1421648,65593,8432,710189,0
5,-1,640432,219239,1280633,65893,8267,640313,0
5,-1,636859,218003,1242668,65564,7039,621387,0
5,-1,659314,222773,1231862,68961,9453,615947,0
5,-1,636371,217962,1286738,65566,8456,643432,0
5,-1,641060,218397,1233100,65767,7300,616620,0
5,-1,634986,217955,1169432,65568,7053,584758,0
5,-1,634081,218087,1132722,65613,6303,566412,0
5,-1,630672,218064,1294766,65604,8595,647364,0
5,-1,635876,218012,1264750,65569,6707,632377,0
5,-1,637421,218977,1243183,65753,7109,621622,0
5,-1,637882,219968,1302238,66358,7120,651209,0
5,-1,635268,218662,1130110,65698,6998,565071,0
5,-1,632498,217438,1189027,65367,7750,594494,0
5,-1,636914,218040,1297338,65469,8220,648663,0
5,-1,639325,219140,1328223,65832,8602,664105,0
5,-1,639073,218644,1396895,65717,8062,698082,0
5,-1,640528,218482,1158146,65670,7580,579053,0
5,-1,637589,218670,1236530,65710,6742,618317,0
5,-1,634450,218737,1143259,65771,7261,571580,0
5,-1,638059,218177,1285684,65590,6713,642722,0
5,-1,658507,222913,1235508,68939,8078,617789,0
5,-1,637499,218967,1189812,65827,6261,594951,0
5,-1,641330,219275,1187744,65755,7492,593915,0
5,-1,640665,219403,1201374,65847,6841,600686,0
5,-1,660267,223485,1297875,68965,8723,648985,0
5,-1,641938,218997,1310412,65667,8219,655001,0
5,-1,642758,219793,1180053,66010,7854,590026,0
5,-1,666428,224817,1355596,69343,8456,677759,0
5,-1,638854,220316,1340007,66093,8086,669958,0
5,-1,666319,228896,1217243,68640,7175,608628,0
5,-1,638144,219167,1261013,65845,7814,630570,0
5,-1,663358,223678,1184131,68968,8282,592074,0
5,-1,640930,219927,1188491,66325,7573,594295,0
5,-1,635882,217755,1232840,65270,7991,616475,0
5,-1,638031,217922,1312874,65384,7452,655781,0
5,-1,656994,222401,1224378,68615,8204,612273,0
5,-1,642381,219866,1317045,66380,7619,658515,0
5,-1,641203,218266,1278278,65518,8076,639179,0
5,-1,637758,218474,1117287,65558,7535,558464,0
5,-1,640250,218230,1340625,65290,8523,670334,0
5,-1,644517,219231,1309947,65552,8653,654882,0
5,-1,638116,218570,1190873,65440,8289,595708,0
5,-1,659314,222718,1243403,68708,8060,621721,0
5,-1,636820,218151,1234200,65395,7159,617138,0
5,-1,658725,223275,1139027,68894,7903,569598,0
5,-1,639190,218249,1141831,65476,7774,570958,0
5,-1,644488,220255,1324628,66296,8295,662432,0
5,-1,639444,219363,1190536,66018,7694,595083,0
5,-1,642037,219663,1234127,66130,7399,616778,0
5,-1,662619,223254,1317274,68879,9224,658689,0
5,-1,639567,218441,1297013,65545,8986,648419,0
5,-1,661317,223039,1205846,68785,7978,603006,0
5,-1,642382,218058,1262678,65331,6964,631322,0
5,-1,637713,219974,1236070,65705,6871,618006,0
5,-1,632348,218182,1276079,64981,8011,638097,0
5,-1,632654,217352,1206421,64730,8114,603157,0
5,-1,638928,220003,1230101,65876,8207,614625,0
5,-1,641737,219523,1246047,65721,8060,623187,0
5,-1,639930,219331,1183371,66503,7689,591638,0
5,-1,634715,218167,1144814,65906,7627,572152,0
5,-1,636429,217572,1345175,65664,8070,672903,0
5,-1,637404,218196,1307384,65947,7639,653735,0
5,-1,657899,222550,1384747,69134,9899,691856,0
5,-1,640660,218314,1255684,65973,7656,627861,0
5,-1,640304,217641,1287906,65789,8872,643761,0
5,-1,639979,220078,1220325,66878,6986,610150,0
5,-1,637302,218298,1279088,65958,8858,639659,0
5,-1,658054,222975,1276315,69249,8875,638106,0
5,-1,637428,217416,1158586,65651,7139,579300,0
5,-1,648390,221031,1236229,67199,7716,617902,0
5,-1,637865,218142,1177014,65785,7723,588353,0
5,-1,642050,218463,1369398,65863,8451,684552,0
5,-1,642299,218041,1293527,65702,8608,646775,0
5,-1,636786,218124,1140809,65769,7372,570382,0
5,-1,640930,218258,1282578,65812,8148,641352,0
5,-1,641648,218322,1149367,65928,7653,574797,0
5,-1,642193,217947,1248044,65665,8024,624138,0
5,-1,636854,218596,1261970,66058,7534,631022,0
5,-1,642582,219512,1165854,66457,6578,582963,0
5,-1,637992,218712,1178396,66151,7243,589262,0
5,-1,640750,219182,1237938,66295,7085,618985,0
5,-1,644709,220472,1163948,66868,6988,582040,0
6,-1,694714,238433,1310365,71410,7191,654985,0
6,-1,710249,241931,1345273,74016,7822,672705,0
6,0,709009,248397,1433597,74015,9078,716899,11
6,-1,659604,222760,1259427,68890,8431,629779,0
6,-1,638010,218416,1351627,65529,7719,676315,0
6,-1,632814,218142,1222617,65411,7753,611185,0
6,-1,632172,217854,1243579,65324,7154,621748,0
6,-1,633165,217589,1121611,65249,7490,560797,2
6,-1,635771,217718,1191049,65268,8202,595511,0
6,-1,636203,217516,1207917,65302,8425,603799,0
6,-1,638370,218763,1418976,65717,8125,709205,0
6,-1,647454,220861,1256533,66527,7429,628331,0
6,-1,639304,219056,1310788,65757,8209,655281,0
6,-1,641702,220123,1396546,66347,8840,698153,0
6,-1,639932,218497,1315142,65695,8050,657662,0
6,-1,665012,227351,1311270,68361,8693,655673,0
6,-1,644586,218965,1302158,65915,7730,651270,0
6,-1,640928,218308,1284294,65682,7832,642191,0
6,-1,641227,220786,1269243,66805,7462,634695,0
6,-1,656850,223705,1195859,69291,7594,597981,0
6,-1,642450,219631,1430584,66348,9060,715326,0
6,-1,640109,220285,1340679,66621,7292,670380,0
6,-1,637631,218417,1253300,65638,7587,626700,0
6,-1,633463,218599,1326249,65766,7442,663169,0
6,-1,639644,219899,1182167,66378,7229,591143,0
6,-1,635050,218477,1440491,65651,7764,719960,0
6,-1,645733,220605,1410594,66643,9516,705216,0
6,-1,641533,220625,1382377,66642,8660,691138,0
6,-1,639536,219173,1336364,65947,8145,668143,0
6,-1,646364,220496,1219575,66601,8077,609811,0
6,-1,638001,219167,1166926,65922,6762,583470,0
6,-1,638825,220362,1293673,66503,8450,646848,0
6,-1,643500,220729,1379864,66731,8564,690053,0
6,-1,638524,218570,1289729,65735,7776,644906,0
6,-1,655539,222686,1216006,68889,6937,608020,0
6,-1,640367,218726,1120691,65661,6759,560381,0
6,-1,637563,218321,1212855,65468,7348,606465,0
6,-1,640260,219688,1303048,65930,8387,651601,0
6,-1,639355,218291,1298190,65494,8580,648891,0
6,-1,641208,219214,1286928,65800,8117,643221,0
6,-1,642414,219469,1186940,65894,7100,593457,0
6,-1,649010,221032,1208931,66522,8493,604288,0
6,-1,637974,219050,1256530,65582,7925,628290,0
6,-1,640685,219291,1126193,65825,7236,562845,0
6,-1,641576,218918,1173155,65645,7310,586408,0
6,-1,637265,217902,1168830,65360,7531,584445,0
6,-1,661688,223035,1186393,68844,8079,593339,0
6,-1,639816,218812,1568860,65816,9994,784425,0
6,-1,640522,219698,1326306,66183,8501,663006,0
6,-1,636311,217494,1209695,65300,7868,604835,0
6,-1,639252,217558,1128002,65359,7351,564040,0
6,-1,639352,218586,1180805,65641,8008,590435,0
6,-1,647897,221630,1256636,66697,8663,628368,0
6,-1,641575,218570,1440269,65356,8849,720399,0
6,-1,638903,218651,1204206,65464,7937,602078,0
6,-1,639668,218196,1153530,65396,6844,576808,0
6,-1,636789,217976,1172807,65382,7002,586419,0
6,-1,637620,218519,1171766,65563,7179,585813,0
6,-1,637156,217893,1198205,65291,7274,599141,0
6,-1,642852,218397,1457134,65558,9391,727741,0
6,-1,637935,217927,1212818,65312,7801,606253,0
6,-1,637568,218076,1262503,65362,7510,631167,0
6,-1,637783,217226,1216878,65147,7694,608447,0
6,-1,638550,218539,1156414,65554,7203,578107,0
6,-1,642444,219224,1178867,65769,7303,589112,0
6,-1,643265,218536,1157114,65488,6618,578571,0
6,-1,634300,218477,1520480,65076,9046,760421,0
6,-1,630782,217828,1156834,64792,7302,578422,0
6,-1,642687,220958,1164335,66207,7405,582027,0
6,-1,634450,218305,1315272,65144,8405,657684,0
6,-1,637572,218262,1355868,65068,8489,677981,0
6,-1,639150,217709,1354061,65796,9091,677098,0
6,-1,633538,217781,1258634,65728,7637,629344,0
6,-1,637796,218230,1148578,65861,6538,574239,0
6,-1,637937,218771,1246475,66121,7338,623309,0
6,-1,639145,219119,1258645,66221,8408,629230,0
6,-1,638313,217582,1243400,65709,7155,621875,0
6,-1,661584,222545,1354790,69153,9356,677100,0
6,-1,655995,222895,1322209,69260,8443,661085,0
6,-1,635031,217486,1226488,65682,7486,613262,0
6,-1,639211,217290,1226853,65602,7345,613410,0
6,-1,642575,219791,1168090,66654,7764,583986,0
6,-1,663074,222809,1653201,69203,10911,826579,0
6,-1,637249,218395,1177359,65802,6673,588545,0
6,-1,660085,222918,1342944,69114,9542,671470,0
6,-1,643110,218909,1452691,66028,8604,725939,0
6,-1,638961,218684,1183059,65923,7803,591573,0
6,-1,639151,217863,1180095,65658,7345,590087,0
6,-1,644123,219673,1280913,66701,8114,639831,0
6,-1,644549,218626,1196096,65927,7368,598087,0
6,-1,659396,223947,1270084,69617,8081,635083,0
6,-1,659164,223139,1332642,69409,9272,666420,0
6,-1,639092,219383,1253261,66441,7687,626665,0
6,-1,639348,218888,1147492,66139,6734,573786,0
6,-1,670043,228801,1261147,69152,7739,630697,0
7,-1,712754,241354,1313117,73879,7913,656515,0
7,-1,686036,235359,1233719,70202,6849,616867,0
7,0,708869,247901,1421864,73718,8165,710945,11
7,-1,637155,217892,1178306,65490,7761,589186,0
7,-1,644261,220085,1232717,66252,7890,616282,0
7,-1,638613,219678,1319562,66158,8100,659644,0
7,-1,642305,219354,1283061,65965,7792,641467,0
7,-1,637501,218112,1186987,65464,7776,593508,0
7,-1,638111,220097,1330286,66393,8260,665165,2
7,-1,657822,222556,1281400,68650,8483,640700,0
7,-1,639647,219688,1339037,66276,8343,669068,0
7,-1,640594,218520,1148440,65554,7360,574146,0
7,-1,640360,219688,1279950,66127,8336,640094,0
7,-1,637786,219304,1304439,65915,8848,652075,0
7,-1,642216,220115,1262204,66449,7688,631219,0
7,-1,638858,218201,1420977,65610,8141,710507,0
7,-1,642360,218328,1217079,65738,7067,608494,0
7,-1,641254,218837,1258333,65904,7388,629156,0
7,-1,656365,223097,1243730,69106,8044,621937,0
7,-1,632964,217567,1103053,65535,6015,551585,0
7,-1,638813,218867,1220110,65899,7622,610050,0
7,-1,635519,218236,1348147,65692,8288,674084,0
7,-1,640479,219156,1315457,65918,6883,657858,0
7,-1,637767,220775,1307207,66716,7480,653636,0
7,-1,657069,223394,1187455,69087,7284,593776,0
7,-1,639871,219147,1395280,65863,7963,697228,0
7,-1,661865,223222,1398700,69031,9093,700151,0
7,-1,657144,223135,1319976,68966,8470,659989,0
7,-1,636125,217888,1272806,65501,7940,636392,0
7,-1,662376,223448,1202859,69033,8981,601338,0
7,-1,638990,219717,1256907,66233,7015,628496,0
7,-1,640160,218591,1372245,65808,8954,685722,0
7,-1,637376,218720,1244973,65785,6757,622602,0
7,-1,637879,218606,1313758,65698,7257,656870,0
7,-1,636369,219061,1241746,65884,6921,620914,0
7,-1,643199,220489,1195659,66476,7495,597901,0
7,-1,642527,220284,1276281,66406,7707,638238,0
7,-1,637207,218601,1223830,65480,7580,611951,0
7,-1,641928,219770,1363528,66221,8904,681738,0
7,-1,640031,219148,1168614,65736,7288,584233,0
7,-1,642996,219144,1344985,65888,7776,672519,0
7,-1,646546,219901,1221117,65889,8473,610469,0
7,-1,638222,219364,1301671,65766,8603,650792,0
7,-1,646080,221427,1335853,66749,7479,667956,0
7,-1,642112,219395,1249815,65844,7682,624903,0
7,-1,644800,220370,1188497,66539,8011,594130,0
7,-1,639975,218644,1259177,65637,7402,629638,0
7,-1,645203,220117,1329797,66407,9190,665015,0
7,-1,637445,218760,1274635,65653,8879,637039,0
7,-1,638256,218505,1244521,65683,7317,622219,0
7,-1,640774,218488,1300159,65681,7752,650122,0
7,-1,641591,218997,1201670,65725,8466,600706,0
7,-1,661967,223521,1207076,68830,8533,603326,0
7,-1,646872,220564,1396336,66323,8523,698567,0
7,-1,642096,220423,1205320,66369,7843,602798,0
7,-1,638805,218490,1251406,65529,7240,625757,0
7,-1,636377,218113,1235058,65316,7127,617612,0
7,-1,638274,218655,1140238,65602,6652,570200,0
7,-1,641039,218349,1175056,65487,7571,587618,0
7,-1,641873,218351,1247912,65439,8586,624010,0
7,-1,640341,218428,1191641,65526,7802,595690,0
7,-1,637421,218008,1254134,65324,7470,627008,0
7,-1,639767,217995,1270200,65349,8392,634876,0
7,-1,636942,217813,1178079,65291,7412,589015,0
7,-1,636347,217820,1353926,65292,8808,676831,0
7,-1,639647,217607,1485903,65087,8750,742974,0
7,-1,633625,217986,1267216,64839,6959,633534,0
7,-1,636027,217678,1265430,64756,7463,632796,0
7,-1,661203,224058,1233982,69115,9100,617075,0
7,-1,639441,220530,1360299,66118,8470,680278,0
7,-1,637527,218353,1271060,65168,7981,635262,0
7,-1,640040,218416,1285403,65971,8197,642720,0
7,-1,659444,223270,1300845,69303,8929,650435,0
7,-1,637177,217627,1311257,65674,7795,655534,0
7,-1,636447,217824,1259512,65842,7688,629798,0
7,-1,638488,219010,1377527,66231,9255,688942,0
7,-1,640795,218963,1414453,66180,7965,706839,0
7,-1,640333,217806,1199713,65770,7343,599818,0
7,-1,639225,219063,1202464,66363,8220,601336,0
7,-1,638175,218508,1264809,66049,8467,632518,0
7,-1,645020,220239,1167916,66835,7029,583912,0
7,-1,636811,217774,1282829,65766,7827,641339,0
7,-1,640807,218388,1192302,65930,6591,596174,0
7,-1,637916,218531,1176592,65843,8625,588413,0
7,-1,638671,218717,1265999,66005,7770,633148,0
7,-1,639314,217831,1322018,65643,7958,660992,0
7,-1,642652,218063,1130267,65908,7052,565075,0
7,-1,641362,219030,1251660,66105,7971,625846,0
7,-1,639132,218239,1340130,65790,8541,670001,0
7,-1,640112,217507,1260096,65570,8312,630078,0
7,-1,635032,218509,1138827,66093,6367,569448,0
7,-1,644942,219840,1166485,66616,7529,583319,0
7,-1,646127,219375,1202450,66385,7266,601125,0
7,-1,642302,219812,1259157,66456,7811,629606,0
7,-1,642783,219129,1189227,66198,7851,594634,0
8,-1,690489,236709,1246964,70613,6164,623495,0
8,-1,688541,236374,1293747,70466,6801,646881,0
8,0,705996,247574,1271108,73575,8401,635507,11
8,-1,638856,218171,1122848,65574,6928,561449,0
8,-1,640071,218863,1209681,65668,8175,604788,0
8,-1,634324,218106,1395527,65484,7722,697617,0
8,-1,637747,218046,1231478,65409,7503,615729,0
8,-1,635880,217653,1141464,65255,6949,570742,0
8,-1,634089,217292,1298364,65107,7857,649231,0
8,-1,636932,218141,1255099,65664,8901,627794,2
8,-1,640350,219500,1235182,65932,8913,617350,0
8,-1,638525,218177,1192515,65441,7723,596121,0
8,-1,662917,227607,1375199,68231,8525,687605,0
8,-1,647044,220921,1372385,66702,9578,685963,0
8,-1,637046,218373,1186111,65645,6729,593160,0
8,-1,643069,220637,1329425,66760,8197,664371,0
8,-1,640494,218189,1216505,65628,7659,608054,0
8,-1,640626,218419,1275237,65713,7532,637698,0
8,-1,636392,218928,1257852,65881,7304,628970,0
8,-1,637270,219544,1187216,66327,7016,593690,0
8,-1,640507,219888,1372906,66505,8543,686592,0
8,-1,637952,219222,1318119,65970,7332,659390,0
8,-1,638811,218512,1282815,65607,7178,641447,0
8,-1,639753,218250,1255754,65549,7885,627969,0
8,-1,634415,218143,1181983,65542,6675,591031,0
8,-1,636367,218159,1206734,65565,7575,603363,0
8,-1,639724,218608,1364670,65737,7748,682092,0
8,-1,636801,219185,1321066,65845,7809,660505,0
8,-1,640879,220120,1480050,66475,8543,739482,0
8,-1,638861,218577,1147962,65644,7448,574014,0
8,-1,638405,219296,1257706,65954,6729,628896,0
8,-1,641765,220280,1182031,66533,7150,591101,0
8,-1,639983,219666,1264617,66233,7228,632401,0
8,-1,640510,219702,1247121,66298,7733,623671,0
8,-1,637647,218095,1179873,65529,6787,589996,0
8,-1,663129,224187,1191166,69135,7921,595735,0
8,-1,640631,219187,1208365,65711,6725,604257,0
8,-1,639841,219577,1316941,65914,8261,658491,0
8,-1,666277,224759,1375481,69921,10071,687518,0
8,-1,639793,218902,1253776,65732,7877,626805,0
8,-1,648540,221953,1285825,67179,8139,642844,0
8,-1,642337,219326,1267217,65724,8335,633821,0
8,-1,641274,221161,1351079,66647,7682,675573,0
8,-1,639558,219171,1287687,65786,7922,643876,0
8,-1,645478,220777,1279382,66467,8062,639741,0
8,-1,643142,219980,1270228,66119,7910,635127,0
8,-1,641048,219673,1242254,66159,7650,621192,0
8,-1,640724,218278,1347575,65565,9108,673775,0
8,-1,638472,219140,1377577,65670,8997,688603,0
8,-1,638092,218564,1135189,65689,7303,567553,0
8,-1,639366,218124,1148536,65567,7225,574291,0
8,-1,638881,218303,1196958,65502,7658,598545,0
8,-1,639899,218685,1348943,65504,8259,674531,0
8,-1,671807,225268,1240213,69812,8237,620142,0
8,-1,661153,224295,1198499,69111,8688,599301,0
8,-1,636055,217924,1228662,65306,7136,614397,0
8,-1,638289,218041,1150849,65344,6993,575473,0
8,-1,641978,220341,1283522,66350,7133,641831,0
8,-1,640336,218068,1252783,65319,7534,626437,0
8,-1,641214,218190,1252917,65386,8587,626460,0
8,-1,638680,217725,1341833,65215,8188,671011,0
8,-1,640420,219930,1201121,66272,7856,600448,0
8,-1,639903,218533,1337859,65509,8118,668887,0
8,-1,659323,222365,1200547,68604,7734,600334,0
8,-1,642587,218672,1267598,65543,7620,633776,0
8,-1,667274,223258,1456101,68791,9454,728130,0
8,-1,640427,221282,1164551,66203,7010,582236,0
8,-1,637993,218903,1191164,65184,7362,595504,0
8,-1,634635,218301,1173029,64949,7395,586277,0
8,-1,635520,218596,1324487,65143,9080,662049,0
8,-1,637349,218633,1273686,65244,7789,636935,0
8,-1,641018,218792,1421003,66079,8908,710594,0
8,-1,637584,218903,1251085,66149,7544,625589,0
8,-1,639697,218968,1271578,66187,7874,635821,0
8,-1,642015,219443,1163280,66641,7215,581708,0
8,-1,639697,219293,1302618,66509,8449,651817,0
8,-1,639105,217756,1174572,65749,6965,587667,0
8,-1,637180,217535,1281316,65691,8300,640685,0
8,-1,638518,218536,1275398,66039,8595,637728,0
8,-1,657808,222336,1645311,69084,10511,822734,0
8,-1,638628,217606,1164877,65640,7021,582442,0
8,-1,639995,218409,1276235,65971,7864,638028,0
8,-1,640498,218542,1281203,66020,8076,640620,0
8,-1,657113,222945,1214363,69159,9143,607191,0
8,-1,639686,218188,1201543,65805,7672,600821,0
8,-1,661266,222892,1342194,69128,8150,671146,0
8,-1,640037,217520,1213793,65697,7662,606833,0
8,-1,660101,222518,1272081,69036,8446,636113,0
8,-1,669254,228066,1404610,68768,8135,702049,0
8,-1,641121,217457,1246580,65622,8341,623313,0
8,-1,639118,218394,1226032,65979,7630,613053,0
8,-1,645662,219766,1271446,66517,7691,635765,0
8,-1,644436,219078,1263412,66332,7666,631748,0
8,-1,666974,224290,1347024,69723,8472,673551,0
8,-1,646801,221303,1141749,67230,7964,570945,0
8,-1,643388,219791,1248532,66489,7518,624320,0
9,-1,694618,238857,1326744,71460,7120,663427,0
9,-1,688757,236851,1193046,70653,6761,596531,0
9,0,705184,247110,1484771,73456,8735,742447,11
9,-1,637493,217952,1207390,65453,7001,603668,0
9,-1,635865,217800,1108131,65325,7043,554079,0
9,-1,634464,218496,1225872,65538,6934,613141,0
9,-1,636728,217947,1170918,65337,6956,585535,0
9,-1,644942,221049,1220110,66710,8462,610017,0
9,-1,637152,218583,1180473,65626,7539,590270,0
9,-1,655239,222404,1282441,68763,8703,641152,0
9,-1,660874,222926,1294442,68846,8457,647326,0
9,-1,645677,221187,1277674,66814,7480,638850,2
9,-1,643827,220901,1396988,66665,8883,698388,0
9,-1,661224,222711,1287169,68832,9797,643655,0
9,-1,637396,218446,1218135,65584,7693,608613,0
9,-1,659540,223438,1322528,69193,8701,661495,0
9,-1,638757,218057,1215971,65662,8217,607806,0
9,-1,640662,218468,1146113,65785,7244,573136,0
9,-1,638044,219837,1243748,66430,7221,621934,0
9,-1,636170,218802,1117734,65905,6955,558919,0
9,-1,659783,223286,1209446,69145,7906,604368,0
9,-1,634901,218448,1249312,65768,7846,624117,0
9,-1,642710,220517,1269788,66693,6965,634942,0
9,-1,643339,219669,1283570,66277,7928,641815,0
9,-1,637731,218813,1106183,65804,6862,553174,0
9,-1,635901,218682,1309188,65772,7551,654368,0
9,-1,641550,219841,1274821,66284,7149,637509,0
9,-1,634211,218119,1317267,65459,7468,658808,0
9,-1,656921,223009,1455191,68995,9041,727510,0
9,-1,641302,219917,1274782,66321,7757,637575,0
9,-1,633847,218473,1370273,65703,7441,685164,0
9,-1,657448,223067,1164724,68990,7817,582442,0
9,-1,637222,219180,1206751,65936,6352,603432,0
9,-1,638381,218852,1159727,65840,7532,579884,0
9,-1,640227,218369,1188360,65660,7419,594313,0
9,-1,641832,219587,1312627,65904,7485,656349,0
9,-1,638004,219748,1450409,65976,8467,725216,0
9,-1,639231,219409,1210960,65852,7752,605508,0
9,-1,643084,219913,1298436,66040,8934,649059,0
9,-1,641051,219949,1271985,66312,7676,636040,0
9,-1,642287,219363,1304842,65980,7270,652366,0
9,-1,645293,219882,1276168,65889,8125,638072,0
9,-1,641239,220092,1166553,66039,8048,583213,0
9,-1,645927,221669,1282018,66919,8043,641325,0
9,-1,641805,219748,1294110,65914,8169,647048,0
9,-1,638836,218846,1280070,65768,7353,640077,0
9,-1,637903,218886,1148423,65680,6915,574291,0
9,-1,641720,219510,1244322,66236,8247,622183,0
9,-1,635996,218651,1271810,65642,8540,635621,0
9,-1,636254,218022,1202691,65454,7586,601348,0
9,-1,638224,217919,1250116,65387,7550,625137,0
9,-1,662219,223142,1296679,68948,8329,648389,0
9,-1,649240,220988,1266677,66548,8042,633753,0
9,-1,643802,219084,1288422,65573,8011,644222,0
9,-1,636599,218603,1162090,65431,8295,580917,0
9,-1,634105,217671,1159812,65221,6584,579933,0
9,-1,641845,219723,1191987,66121,6773,595934,0
9,-1,636660,218475,1229629,65529,7290,614967,0
9,-1,641782,218980,1152042,65704,7112,576100,0
9,-1,658800,222496,1276756,68627,9125,638481,0
9,-1,662328,223766,1274913,69034,8273,637690,0
9,-1,658383,223079,1284513,68811,8006,642287,0
9,-1,642031,220177,1191440,66281,7002,595644,0
9,-1,638033,218282,1163447,65476,7130,581755,0
9,-1,648158,220240,1212499,66381,8388,606275,0
9,-1,642586,218252,1318493,65399,7857,659152,0
9,-1,652476,222794,1286230,68236,7860,643174,0
9,-1,655874,222869,1393387,68271,8812,696622,0
9,-1,633293,218254,1250135,64928,8202,625121,0
9,-1,636367,219531,1219123,65551,8257,609176,0
9,-1,634289,217936,1234762,64924,7818,617382,0
9,-1,637946,218120,1259166,65886,8807,629522,0
9,-1,638436,219722,1133927,66600,7516,567029,0
9,-1,634761,217680,1176429,65759,7443,588270,0
9,-1,658116,222393,1310728,69111,8613,655128,0
9,-1,636543,218376,1432912,66033,8234,716415,0
9,-1,645539,220768,1173113,66964,8425,586368,0
9,-1,639531,218057,1342321,65856,8049,671178,0
9,-1,638327,218652,1289112,66037,8621,644622,0
9,-1,638488,219436,1322317,66543,9054,661240,0
9,-1,641567,219339,1430794,66493,8921,714853,0
9,-1,635985,217633,1240966,65716,7908,620534,0
9,-1,636887,217145,1283464,65564,7118,641783,0
9,-1,632402,217435,1133192,65544,8063,566608,0
9,-1,641972,219996,1247293,66639,7904,623514,0
9,-1,641835,219273,1173366,66163,7338,586648,0
9,-1,644014,219036,1259351,66416,7749,629793,0
9,-1,637296,217719,1180151,65625,7376,590072,0
9,-1,641167,219038,1260356,66301,8035,630121,0
9,-1,646922,219779,1403816,66613,8643,700843,0
9,-1,638138,218525,1167964,65928,7273,584017,0
9,-1,644958,220164,1192274,66795,7488,596345,0
9,-1,643463,219011,1247079,66249,7544,623642,0
9,-1,644144,219724,1219666,66443,6843,609863,0
9,-1,661083,223706,1216722,69534,8763,608402,0
9,-1,643507,219433,1257935,66297,7619,628994,0
10,-1,691369,236797,1301234,70625,7717,650565,0
10,-1,690899,236866,1372694,70640,7304,686363,0
10,-1,643081,220114,1294147,66502,7260,647030,0
10,0,706395,247223,1402405,73441,9182,701219,11
10,-1,637095,217807,1124137,65286,6830,562066,0
10,-1,638098,219860,1358793,66291,8157,679585,0
10,-1,637499,218191,1236398,65454,7406,618172,0
10,-1,638370,219005,1241651,65714,7291,620727,0
10,-1,635550,217988,1214219,65433,7642,607127,0
10,-1,636898,218122,1263170,65632,8378,631657,0
10,-1,636616,217738,1322032,65412,8291,660803,0
10,-1,642557,220242,1582143,66342,9743,790819,0
10,-1,634350,218288,1280636,65584,8405,640245,2
10,-1,639124,218091,1302192,65468,8155,650953,0
10,-1,640012,219060,1164257,65845,7528,582581,0
10,-1,634486,217886,1254671,65559,8071,627376,0
10,-1,638729,217967,1295367,65591,7910,647692,0
10,-1,638562,217676,1331506,65486,8018,665841,0
10,-1,632444,218022,1139865,65562,7168,569983,0
10,-1,653549,222902,1199858,69010,7651,599968,0
10,-1,637544,218763,1317006,65835,7875,658101,0
10,-1,633509,218362,1150734,65744,7052,575311,0
10,-1,659129,223218,1191702,69059,7421,595929,0
10,-1,638539,218386,1166653,65684,7490,583358,0
10,-1,637383,218545,1159378,65620,6247,579716,0
10,-1,635244,218630,1267873,65746,7727,634082,0
10,-1,636881,217750,1234179,65426,7189,617216,0
10,-1,640712,218846,1164574,65783,7342,582762,0
10,-1,640148,219203,1330375,65971,8074,665121,0
10,-1,638948,218502,1262545,65632,6440,631309,0
10,-1,636152,218953,1134066,65873,6498,567111,0
10,-1,636940,218343,1147617,65632,6913,573850,0
10,-1,632887,217914,1152302,65439,6224,576181,0
10,-1,638997,219445,1229978,65996,7410,615000,0
10,-1,644065,219953,1237165,66375,7410,618673,0
10,-1,639345,218647,1321831,65582,7626,660971,0
10,-1,636218,218261,1335386,65452,8902,667163,0
10,-1,637593,219084,1320993,65691,8204,660839,0
10,-1,640792,218788,1277492,65684,7446,638679,0
10,-1,641133,218666,1284719,65699,8418,642346,0
10,-1,643562,218516,1235537,65698,8901,617731,0
10,-1,643937,219625,1269178,65861,8368,634567,0
10,-1,639733,219961,1333159,65932,8895,666660,0
10,-1,662987,224963,1228919,69525,8075,614385,0
10,-1,663634,223857,1209097,69178,8076,604401,0
10,-1,639672,218676,1227939,65699,7457,614014,0
10,-1,638478,218596,1183063,65657,7669,591612,0
10,-1,660714,223465,1234906,69083,8292,617599,0
10,-1,636459,218644,1340432,65581,9116,670169,0
10,-1,634347,217618,1291610,65318,8387,645767,0
10,-1,644146,220017,1268503,66434,8561,634325,0
10,-1,639619,218779,1280801,65703,7961,640186,0
10,-1,663001,223002,1244324,68808,8652,622285,0
10,-1,641801,218089,1263815,65178,7862,631880,0
10,-1,643447,220021,1359305,66068,8698,680224,0
10,-1,643421,220323,1272384,66395,7090,636291,0
10,-1,637667,217816,1181887,65304,7669,591009,0
10,-1,643175,218941,1186005,65704,7101,593044,0
10,-1,639473,218051,1273026,65371,7546,636639,0
10,-1,638026,217423,1193225,65148,8187,596549,0
10,-1,636848,217991,1122206,65327,6914,560780,0
10,-1,640207,218347,1474145,65496,8945,737146,0
10,-1,641374,218435,1170177,65524,7780,585113,0
10,-1,636937,218181,1120543,65390,7136,560385,0
10,-1,643776,218803,1276579,65634,8039,638209,0
10,-1,641685,218143,1279974,65306,7253,640058,0
10,-1,631614,218107,1227431,64928,7150,613798,0
10,-1,660721,227281,1190528,67577,6785,595296,0
10,-1,636744,218470,1262187,65046,7707,631226,0
10,-1,633529,218137,1301098,65016,8314,650281,0
10,-1,635328,218164,1302117,65083,7959,650943,0
10,-1,637706,218222,1317826,65943,9471,658925,0
10,-1,634147,218348,1216445,65940,8213,608216,0
10,-1,642254,219324,1205024,66445,7709,602472,0
10,-1,637036,217274,1223138,65599,7138,611515,0
10,-1,634043,217632,1336623,65769,8514,668109,0
10,-1,638113,218432,1354261,66043,8573,677102,0
10,-1,641145,217980,1295317,65879,8882,647642,0
10,-1,640071,219632,1206809,66696,8218,603355,0
10,-1,637260,217844,1248127,65802,8019,624077,0
10,-1,636613,217670,1245567,65709,7571,622273,0
10,-1,636321,218191,1164703,65945,7418,582276,0
10,-1,641443,219641,1164628,66655,7182,582314,0
10,-1,637230,218732,1136627,65969,7545,568331,0
10,-1,659864,223225,1394744,69364,9053,697248,0
10,-1,640528,218369,1225303,65820,7463,612687,0
10,-1,643520,218532,1218791,66086,7061,609434,0
10,-1,641082,219277,1267900,66341,8172,633847,0
10,-1,638900,217952,1246522,65690,7996,623278,0
10,-1,643495,218882,1457357,66124,8964,728310,0
10,-1,642310,220098,1184434,66878,7739,592300,0
10,-1,640616,218794,1252608,66188,7552,626317,0
10,-1,663403,223491,1307697,69575,7954,653890,0
10,-1,643290,219683,1222081,66392,6891,611064,0
10,-1,639866,219125,1204597,66143,7990,602321,0
10,-1,640395,218926,1231536,66186,7187,615822,0
11,-1,688912,236185,1234358,70448,7385,617160,0
11,-1,692444,235724,1233931,70207,7743,616970,0
11,-1,659018,222620,1334012,68778,8072,667103,0
11,0,709124,247351,1393463,73610,9555,696642,11
11,-1,658808,222889,1272104,68775,8125,636059,0
11,-1,634083,218053,1348240,65465,8502,674169,0
11,-1,641334,220228,1192819,66410,8226,596391,0
11,-1,636815,218005,1133939,65336,7046,566954,0
11,-1,633952,217938,1192840,65267,7170,596576,0
11,-1,643054,219657,1608713,66360,10016,804065,0
11,-1,640310,219509,1350229,66215,8769,674703,0
11,-1,634077,217894,1289049,65354,8813,644561,0
11,-1,636907,218699,1290123,65734,8428,644834,2
11,-1,640525,219017,1216341,65823,8472,608203,0
11,-1,639664,218215,1327124,65518,8548,663555,0
11,-1,643272,218066,1441393,65654,8438,720700,0
11,-1,638138,218187,1260795,65659,7400,630296,0
11,-1,639994,218349,1339885,65696,7767,670001,0
11,-1,635892,219044,1219589,65973,6987,609849,0
11,-1,632972,218338,1288362,65751,6583,644220,0
11,-1,636396,218406,1221811,65725,7250,610664,0
11,-1,638672,218662,1444154,65774,7930,722913,0
11,-1,638360,219008,1261699,65871,7354,630896,0
11,-1,640556,218782,1311562,65820,7584,655827,0
11,-1,637789,218981,1192913,65870,6581,596515,0
11,-1,637907,218230,1241502,65633,7593,620805,0
11,-1,639420,218628,1174685,65728,6428,587349,0
11,-1,639449,218788,1379377,65773,7539,689204,0
11,-1,637072,218412,1261273,65656,7226,630636,0
11,-1,640392,219417,1341636,65967,6586,670739,0
11,-1,634519,218313,1234467,65599,6904,617317,0
11,-1,636810,218714,1115955,65773,6662,558018,0
11,-1,646158,221245,1299417,66857,7567,649781,0
11,-1,657983,223556,1179481,69148,8262,589800,0
11,-1,642779,219674,1165421,66076,7260,582795,0
11,-1,637261,218626,1179542,65631,6772,589749,0
11,-1,658703,223226,1212723,68943,7708,606456,0
11,-1,665360,223927,1337743,69123,8294,668908,0
11,-1,642073,219657,1437885,66172,7928,718749,0
11,-1,645203,221106,1235648,66899,8814,617631,0
11,-1,643801,219822,1270969,66037,8235,635463,0
11,-1,646340,220195,1285644,65991,8334,642832,0
11,-1,661602,224796,1247960,69325,8840,624015,0
11,-1,644534,220436,1247456,66168,7290,623711,0
11,-1,639455,219066,1138317,65836,7106,569139,0
11,-1,641252,219550,1259173,65919,7494,629589,0
11,-1,636805,218039,1324091,65399,7722,662124,0
11,-1,642137,219083,1230201,65885,7421,615152,0
11,-1,637660,218426,1164564,65614,7198,582250,0
11,-1,637808,218791,1179809,65642,7518,590010,0
11,-1,661138,223437,1209661,69045,8295,604907,0
11,-1,638844,218373,1259879,65521,7773,629989,0
11,-1,642023,218483,1299149,65539,7770,649620,0
11,-1,663283,223977,1287997,68967,8407,644081,0
11,-1,640610,219512,1342560,65772,8678,670693,0
11,-1,659485,222971,1313184,68786,7428,656651,0
11,-1,638229,218298,1172603,65431,7053,586349,0
11,-1,641179,218392,1322053,65462,7963,661072,0
11,-1,639347,218231,1296543,65447,6969,648323,0
11,-1,639942,218792,1314003,65637,8387,656990,0
11,-1,635655,218304,1308118,65435,7955,653947,0
11,-1,641612,218626,1195003,65584,7847,597542,0
11,-1,647843,221374,1210273,66729,7473,605055,0
11,-1,637305,217683,1225562,65227,8286,612714,0
11,-1,640943,217896,1166528,65294,7134,583343,0
11,-1,643977,219142,1254113,65626,7085,626881,0
11,-1,629806,217512,1132992,64589,7104,566494,0
11,-1,634119,218137,1249746,64925,7476,624789,0
11,-1,635848,218567,1295258,65021,7840,647582,0
11,-1,631210,217541,1281061,64726,8095,640536,0
11,-1,634391,217668,1268613,64898,7822,634282,0
11,-1,641881,219101,1390038,66409,8613,694926,0
11,-1,638326,219850,1130904,66762,8214,565327,0
11,-1,637909,218115,1301665,65925,7895,650926,0
11,-1,637349,217993,1261997,65803,7500,630888,0
11,-1,635373,217904,1285676,65922,8456,641664,0
11,-1,634595,217359,1135831,65581,7411,567402,0
11,-1,641360,218367,1378285,65997,8229,689106,0
11,-1,636041,218892,1295761,66162,7821,647765,0
11,-1,641539,218698,1143372,66163,7408,571659,0
11,-1,640497,217945,1246588,65816,7344,623312,0
11,-1,637916,218647,1401319,66084,9619,700499,0
11,-1,657102,222426,1315850,69012,8729,657783,0
11,-1,644569,218463,1173932,65923,7775,587142,0
11,-1,639511,218294,1319348,65984,9474,659661,0
11,-1,637627,217831,1296421,65697,7572,647744,0
11,-1,640970,217916,1323863,65821,8615,661942,0
11,-1,643232,218503,1346426,65914,8395,673046,0
11,-1,638366,218306,1234346,65852,7971,617224,0
11,-1,640664,218303,1139132,65892,7450,569448,0
11,-1,658362,222850,1250529,69313,9072,625260,0
11,-1,641085,219061,1251195,66194,7921,625591,0
11,-1,643037,218419,1256961,66098,7299,628519,0
11,-1,644988,220615,1161876,66958,6804,581058,0
11,-1,647743,221114,1217729,67088,7757,608974,0
11,-1,642193,219464,1169600,66217,7301,584847,0
12,-1,710477,241261,1331366,73786,8494,665729,0
12,-1,698573,238457,1324356,71434,8409,662149,0
12,-1,639156,219374,1207458,66123,7537,603781,0
12,0,706003,247438,1282891,73482,8200,641489,11
12,-1,635952,217948,1144184,65381,6563,572085,0
12,-1,635837,218489,1239070,65609,7654,619638,0
12,-1,655849,222040,1237013,68462,8968,618499,0
12,-1,643600,220343,1274295,66441,7694,637224,0
12,-1,635941,217994,1249662,65401,7113,624719,0
12,-1,657404,222548,1339130,68795,9004,669748,0
12,-1,641279,218021,1331503,65527,8183,665371,0
12,-1,635414,218276,1315706,65457,8790,657811,0
12,-1,642719,219843,1289072,66279,8964,644091,0
12,-1,634296,217888,1229635,65446,8082,614528,2
12,-1,637929,217870,1298116,65429,7844,648487,0
12,-1,662774,223148,1300742,69157,9438,650396,0
12,-1,639764,218264,1407617,65724,8529,703857,0
12,-1,642079,218795,1192458,65851,7986,596278,0
12,-1,654532,223168,1154289,69096,7538,577194,0
12,-1,631537,218187,1264621,65584,6211,632464,0
12,-1,638966,218384,1271870,65712,6946,636024,0
12,-1,635641,218465,1223587,65725,6799,611850,0
12,-1,636245,218518,1315589,65661,7046,657688,0
12,-1,640445,218889,1257907,65814,6891,629047,0
12,-1,635982,218376,1247995,65619,6672,624001,0
12,-1,638252,218697,1244702,65729,7211,622341,0
12,-1,639324,218616,1287598,65715,7078,643924,0
12,-1,639075,219204,1402980,65940,7304,701433,0
12,-1,635957,218905,1268373,65819,7722,634177,0
12,-1,640363,219818,1234172,66317,7457,617152,0
12,-1,634028,218623,1282050,65750,6882,641104,0
12,-1,639559,219722,1195896,66247,6840,598081,0
12,-1,660349,223242,1306727,69049,7295,653459,0
12,-1,640791,219924,1344338,66361,7741,672215,0
12,-1,638045,218391,1174247,65643,7264,587157,0
12,-1,661093,223064,1199180,68871,7603,599571,0
12,-1,636939,218830,1239570,65727,6982,619820,0
12,-1,643041,220574,1200316,66517,7905,600188,0
12,-1,640566,218457,1282995,65486,8390,641252,0
12,-1,658030,222775,1219354,68833,8198,609499,0
12,-1,641820,219336,1302692,65896,7732,651314,0
12,-1,642670,219430,1365103,65704,8252,682429,0
12,-1,641151,220872,1422513,66259,9391,711096,0
12,-1,642167,219427,1268226,65819,8041,633743,0
12,-1,644479,220417,1211915,66484,8206,605820,0
12,-1,640826,219217,1254428,65763,7339,627181,0
12,-1,643457,220961,1404077,66737,8701,702115,0
12,-1,638120,218016,1155425,65423,7278,577578,0
12,-1,637820,219619,1205818,66239,8001,602623,0
12,-1,636479,218380,1369011,65511,8346,684517,0
12,-1,641719,218262,1147964,65566,7765,574044,0
12,-1,640356,218735,1155690,65659,7094,577915,0
12,-1,640537,218338,1290422,65453,6933,645115,0
12,-1,641662,218346,1146385,65322,8033,573249,0
12,-1,637892,218832,1289889,65521,8401,644730,0
12,-1,638789,218877,1332122,65667,7240,666102,0
12,-1,657986,222819,1150769,68742,7644,575422,0
12,-1,644487,220268,1241467,66391,7687,620808,0
12,-1,637337,217709,1259214,65243,6792,629641,0
12,-1,636535,217547,1365337,65191,8671,682499,0
12,-1,643539,220226,1222377,66382,8013,611147,0
12,-1,639784,218155,1489520,65356,9047,744618,0
12,-1,661381,223008,1368449,68812,8264,684253,0
12,-1,636096,217983,1144363,65369,7777,572256,0
12,-1,643494,219132,1285121,65723,8477,642543,0
12,-1,663205,223421,1351567,68838,8400,675783,0
12,-1,633038,218375,1209964,65018,7631,605019,0
12,-1,637042,219401,1182435,65524,7290,591061,0
12,-1,637999,219490,1207718,65562,7321,603889,0
12,-1,631736,217736,1305199,64797,8181,652648,0
12,-1,637705,218796,1201542,65283,8085,600640,0
12,-1,660311,222838,1368361,69201,10090,683965,0
12,-1,638213,218041,1159086,65835,7584,579529,0
12,-1,635010,217516,1360410,65683,7900,680276,0
12,-1,642958,220141,1144682,66807,6884,572404,0
12,-1,634128,217913,1228043,65736,8252,614054,0
12,-1,639593,218075,1364560,65922,9447,681891,0
12,-1,638275,217249,1268963,65562,7755,634433,0
12,-1,637247,219383,1206291,66507,8284,603230,0
12,-1,645236,220770,1219498,67031,8513,609704,0
12,-1,659481,222682,1290018,69217,8750,645020,0
12,-1,659903,222191,1313815,68996,8481,656935,0
12,-1,638785,218186,1192753,65843,7684,596230,0
12,-1,640549,217217,1269539,65444,7913,634685,0
12,-1,636514,217620,1191946,65714,7564,596090,0
12,-1,638458,218170,1152939,65686,6812,576440,0
12,-1,662323,222706,1437977,69160,8792,718515,0
12,-1,646635,220971,1189933,66997,7595,595042,0
12,-1,642841,218285,1344222,65797,8977,671816,0
12,-1,638469,217033,1270442,65426,8463,635330,0
12,-1,637429,218352,1175907,66057,7683,588001,0
12,-1,641470,218879,1308857,66161,8116,654473,0
12,-1,642998,219189,1297940,66411,7685,649011,0
12,-1,640785,218797,1177433,66167,7096,588764,0
12,-1,644992,219398,1286049,66347,7724,643110,0
12,-1,639715,218838,1261492,66098,7659,630791,0
13,-1,688718,236735,1185094,70609,7469,592528,0
13,-1,695903,237410,1317744,71015,8699,658730,0
13,-1,635008,218031,1117610,65447,6737,558780,0
13,0,711994,249561,1350617,74343,8982,675247,11
13,-1,635657,217888,1234339,65313,6599,617147,0
13,-1,637328,220791,1257549,66483,7733,628472,0
13,-1,634784,217566,1220710,65215,7925,610214,0
13,-1,659223,222755,1251106,68789,8305,625589,0
13,-1,639945,220062,1293459,66247,7968,646695,0
13,-1,635816,217759,1338501,65269,8447,669089,0
13,-1,641600,218684,1284961,65775,8147,642273,0
13,-1,644614,219135,1252393,65806,8267,625987,0
13,-1,639154,218183,1180993,65526,7647,590461,0
13,-1,641833,220171,1386279,66494,8934,693113,2
13,-1,639221,218194,1333552,65565,8591,666788,0
13,-1,639348,217841,1325387,65552,8318,662767,0
13,-1,638823,218055,1436758,65658,8595,718278,0
13,-1,645029,220322,1273684,66668,8518,636554,0
13,-1,633311,218102,1145656,65630,6396,572869,0
13,-1,631922,218489,1257407,65789,7126,628802,0
13,-1,636061,218892,1239673,65939,6699,619630,0
13,-1,634088,218237,1207323,65681,6861,603738,0
13,-1,636816,218419,1239487,65630,6676,619828,0
13,-1,663488,224119,1222313,69825,7990,611212,0
13,-1,637317,219167,1237767,65953,7400,618934,0
13,-1,639332,218903,1155094,65857,7247,577421,0
13,-1,638118,218611,1223546,65737,6422,611905,0
13,-1,635436,218365,1384372,65566,7291,692136,0
13,-1,645398,220695,1283767,66701,7744,641859,0
13,-1,641843,218750,1324394,65709,8298,662532,0
13,-1,631324,217857,1253179,65464,6666,626635,0
13,-1,636355,218642,1191259,65784,7236,595687,0
13,-1,638583,218679,1454030,65730,8120,727051,0
13,-1,639526,219694,1238414,66105,7092,619441,0
13,-1,644300,220328,1301594,66490,9231,650879,0
13,-1,633983,217055,1166049,65086,7068,583117,0
13,-1,636405,219003,1187769,65747,6263,593961,0
13,-1,660691,223775,1171571,69074,7658,585841,0
13,-1,635971,218035,1223248,65354,8425,611785,0
13,-1,639063,219386,1236397,65957,7919,618088,0
13,-1,666620,224823,1202049,69529,8483,601094,0
13,-1,648658,221667,1356898,66799,8287,678382,0
13,-1,637617,219636,1406934,65834,8870,703035,0
13,-1,640082,219125,1342027,65786,8711,671276,0
13,-1,641539,219683,1138920,66055,7914,569410,0
13,-1,640060,219334,1237999,65848,6990,619022,0
13,-1,635921,218212,1144486,65485,6968,572312,0
13,-1,642554,219639,1351205,66202,8282,675642,0
13,-1,636026,218153,1123474,65581,7856,561787,0
13,-1,643177,221399,1285975,66849,8578,643014,0
13,-1,640822,218478,1316400,65668,8737,658236,0
13,-1,638621,218223,1259280,65429,7737,629674,0
13,-1,640797,218352,1343685,65466,7698,671940,0
13,-1,642413,218681,1259246,65425,8037,629683,0
13,-1,637439,218573,1231676,65465,8263,615883,0
13,-1,635319,217660,1141550,65223,6482,570848,0
13,-1,634545,217638,1145982,65219,6763,573032,0
13,-1,642263,219335,1228866,66007,7340,614573,0
13,-1,640190,218666,1324800,65574,7213,662482,0
13,-1,639443,218256,1255368,65478,8654,627683,0
13,-1,636725,217968,1245126,65335,7476,622651,0
13,-1,639287,218693,1270414,65601,7291,635144,0
13,-1,639199,218193,1408619,65456,8317,704088,0
13,-1,643365,220159,1140247,66339,7407,569966,0
13,-1,641739,218004,1254612,65384,8058,627334,0
13,-1,646881,219259,1487210,65795,9306,743615,0
13,-1,633002,218582,1403715,65157,9691,701476,0
13,-1,630552,217242,1230450,64541,7144,615127,0
13,-1,634488,218360,1296232,65000,8013,647975,0
13,-1,639514,220863,1291955,66112,8723,646008,0
13,-1,635631,218043,1429937,64922,8501,715128,0
13,-1,638485,218198,1216021,65874,8570,608032,0
13,-1,643285,218849,1325216,66105,8484,662529,0
13,-1,643192,221107,1287962,67217,8068,643749,0
13,-1,657275,222022,1319760,69019,8082,659976,0
13,-1,639822,217998,1107439,65836,6947,553762,0
13,-1,639369,217953,1328031,65833,8784,663794,0
13,-1,638889,218242,1154359,65917,7752,576712,0
13,-1,637215,218437,1421110,65976,8939,710110,0
13,-1,639554,218824,1254112,66098,8043,627099,0
13,-1,636972,218037,1302136,65892,7905,651038,0
13,-1,638297,217817,1236602,65821,7096,618313,0
13,-1,658459,222991,1253043,69273,8725,626653,0
13,-1,642820,218676,1300292,66021,9305,649777,0
13,-1,635756,218168,1198281,65850,8392,598958,0
13,-1,645401,220051,1191309,66676,7529,595410,0
13,-1,639557,218199,1264068,65942,6667,632099,0
13,-1,661140,223250,1345969,69254,8769,673025,0
13,-1,642628,218701,1370226,65957,8832,685087,0
13,-1,641871,218559,1236266,66024,8786,617949,0
13,-1,637040,219457,1142125,66637,7143,571143,0
13,-1,645213,220031,1132043,66746,7559,566070,0
13,-1,643607,219592,1233120,66536,6635,616534,0
13,-1,641386,219184,1236743,66304,7130,618467,0
13,-1,645074,219796,1326218,66453,7142,663224,0
13,-1,648679,220759,1179309,67057,7770,589716,0
14,-1,688763,236499,1186092,70526,6944,593058,0
14,-1,697257,239435,1423436,71814,8049,711725,0
14,-1,655023,222420,1204314,68748,7654,602156,0
14,-1,644288,220363,1272423,66368,7614,636256,0
14,0,707106,247576,1593130,73475,10496,796275,11
14,-1,639299,217922,1237993,65384,7709,618739,0
14,-1,636342,218550,1169418,65557,7628,584526,0
14,-1,636087,217788,1146874,65412,7209,573356,0
14,-1,635395,218306,1171907,65468,6912,585969,0
14,-1,636867,218610,1145777,65645,7419,572884,0
14,-1,646819,220772,1364582,66770,8102,681891,0
14,-1,642083,218590,1311683,65674,9311,655390,0
14,-1,643916,220047,1339995,66069,8811,669777,0
14,-1,639923,218832,1270500,65759,8582,635250,0
14,-1,641517,219018,1232628,65977,7644,615791,0
14,-1,638015,217557,1285674,65401,7720,642797,0
14,-1,637056,218330,1207141,65781,7887,603608,2
14,-1,637098,217777,1166553,65513,7964,583443,0
14,-1,636483,219768,1431451,66475,8368,715830,0
14,-1,639053,219673,1253472,66372,7734,626831,0
14,-1,634162,217710,1224071,65462,7337,612080,0
14,-1,633649,217945,1224706,65571,6700,612433,0
14,-1,633747,218258,1186169,65606,6775,593008,0
14,-1,636594,218324,1222887,65655,6895,611500,0
14,-1,637112,218852,1281983,65774,6940,641022,0
14,-1,640551,219835,1242004,66325,7728,621066,0
14,-1,641260,219810,1276491,66323,7006,638309,0
14,-1,644448,221022,1324868,66851,8633,662211,0
14,-1,660297,222941,1220847,68933,7872,610329,0
14,-1,640659,218664,1273956,65724,8254,637012,0
14,-1,635203,219673,1269491,66284,6974,634992,0
14,-1,637509,218186,1116893,65636,6419,558489,0
14,-1,641032,220076,1254922,66370,6635,627415,0
14,-1,638463,219948,1245184,66415,7640,622662,0
14,-1,659918,223142,1162799,68987,7869,581431,0
14,-1,640351,218819,1275184,65729,6846,637671,0
14,-1,637929,219737,1272234,66124,7209,636214,0
14,-1,637377,218744,1199721,65584,7007,599912,0
14,-1,642895,219898,1247975,66227,8708,624172,0
14,-1,637759,218598,1210927,65713,7595,605272,0
14,-1,645003,219839,1273372,66143,7818,636611,0
14,-1,664860,224675,1228556,69275,8572,614274,0
14,-1,638726,219894,1344222,65970,8191,671913,0
14,-1,644044,221107,1359417,66579,9003,679450,0
14,-1,641046,219739,1112168,66150,6977,555965,0
14,-1,642483,220222,1283660,66346,7746,641914,0
14,-1,641946,218364,1265456,65562,7869,632761,0
14,-1,634122,217298,1250954,65201,7680,625522,0
14,-1,636749,218534,1176314,65658,7839,588128,0
14,-1,639044,217999,1373125,65414,8652,686680,0
14,-1,637526,218133,1147469,65553,7319,573850,0
14,-1,642312,220122,1280949,66406,7868,640538,0
14,-1,639997,218451,1304546,65520,7325,652295,0
14,-1,642281,218872,1167664,65609,7422,583936,0
14,-1,635317,217995,1319408,65247,8895,659671,0
14,-1,638052,218847,1251886,65632,6979,625974,0
14,-1,641042,218836,1188083,65648,7607,594071,0
14,-1,636291,217900,1243270,65320,7570,621682,0
14,-1,637712,217892,1249722,65303,6810,624909,0
14,-1,641502,218553,1226794,65566,6894,613381,0
14,-1,636930,218455,1187363,65516,7546,593725,0
14,-1,636341,217573,1197546,65196,7482,598897,0
14,-1,638741,217658,1235762,65168,7949,617826,0
14,-1,663299,222322,1206238,68520,8617,603168,0
14,-1,667591,227278,1316109,68083,7713,658128,0
14,-1,645413,219219,1183819,65972,7678,591796,0
14,-1,635700,220298,1114386,65839,7166,557206,0
14,-1,656505,223173,1317434,68348,8247,658779,0
14,-1,633078,218321,1249382,64996,7952,624737,0
14,-1,630259,217685,1294069,64816,8292,646898,0
14,-1,641630,220698,1251704,66210,8430,625555,0
14,-1,639798,218968,1345499,66136,9584,672834,0
14,-1,644937,219590,1265654,66588,8640,632573,0
14,-1,656066,222127,1280337,68977,8344,640193,0
14,-1,637412,218273,1192328,65922,6695,596285,0
14,-1,642393,218799,1169579,66139,7373,584771,0
14,-1,638864,218202,1245725,65964,8670,622780,0
14,-1,641462,219412,1142820,66547,7961,571385,0
14,-1,639398,219942,1288405,66775,8790,643950,0
14,-1,637110,218088,1199982,65831,7388,599990,0
14,-1,642203,219611,1234075,66598,8854,616659,0
14,-1,638155,217673,1207435,65668,7547,603748,0
14,-1,664188,227434,1278684,68654,7789,639400,0
14,-1,639422,217895,1262765,65651,8319,631343,0
14,-1,640782,218608,1203435,66036,7322,601740,0
14,-1,638180,218267,1182506,65859,7259,591143,0
14,-1,638630,218144,1240812,65888,7161,620445,0
14,-1,641519,219270,1199026,66266,7840,599563,0
14,-1,644935,219638,1261485,66450,8802,630689,0
14,-1,647130,219550,1220687,66516,8291,610176,0
14,-1,636226,218239,1252084,65874,7734,626041,0
14,-1,640393,219005,1189654,66195,7684,594894,0
14,-1,639816,218649,1360574,66216,7644,680330,0
14,-1,645796,221332,1145947,67391,7076,572966,0
14,-1,644890,219661,1165380,66433,7015,582729,0
14,-1,664239,223515,1303458,69474,8213,651774,0
15,-1,692454,238129,1299328,71244,7919,649457,0
15,-1,714049,241300,1327691,73885,9254,663855,0
15,-1,637393,217397,1286454,65290,7027,643228,0
15,-1,636841,218016,1233740,65404,6629,616841,0
15,0,707326,247813,1536178,73626,10498,767933,11
15,0,709911,247418,1610815,73385,11445,805302,11
15,-1,638925,217201,1258553,65034,8273,629148,0
15,0,702281,247250,1394985,73484,9849,697541,11
15,0,702698,247526,1452953,73584,9971,726469,11
15,0,702393,247649,1355847,73601,8570,677737,11
15,0,704339,246945,1323234,73352,8412,661848,11
15,0,727955,252121,1407933,76739,9460,703993,11
15,0,707427,248940,1468952,74241,9839,734331,11
15,0,726992,252053,1380008,76778,9961,689963,11
15,0,709990,249807,1453648,74484,9095,726660,11
15,-1,633143,217785,1109345,65308,7103,554638,0
15,0,710467,249924,1485371,74511,8922,742432,11
15,0,704744,247508,1447415,73494,9066,723554,11
15,0,727593,252075,1340059,76760,10484,670085,11
15,-1,635288,217911,1159877,65384,6326,579891,0
15,-1,640296,220595,1265805,66503,7835,632744,0
15,0,711499,249034,1631055,74191,11707,815222,11
15,0,712682,249460,1632659,74526,10939,816207,11
15,0,708556,247249,1654439,73591,10735,827688,11
15,0,732062,252959,1636552,77214,11881,818437,11
15,-1,638480,218334,1465966,65549,8851,732516,0
15,0,709485,247839,1761821,73822,10337,880577,11
15,0,708934,248065,1548750,73731,10503,774712,11
15,0,730066,252233,1624162,76826,11408,811987,11
15,0,729518,252948,1587969,77083,11202,793822,11
15,-1,661006,223001,1277752,68990,7818,638261,0
15,0,707674,248208,1486034,73693,11901,742885,11
15,0,709679,248184,1623370,73690,10674,811523,11
15,0,710522,248126,1527638,73598,10285,763821,11
15,0,712726,248513,1511952,73784,10774,755897,11
15,0,713476,249818,1816699,74561,11657,908296,11
15,0,709155,247867,1497787,73674,11695,748672,11
15,0,706645,247831,1572037,73622,10422,785895,11
15,-1,644308,219719,1393188,66214,9076,695981,0
15,0,710776,248539,1608148,73856,10450,803777,11
15,0,706751,247872,1691722,73701,10668,846902,11
15,0,709540,248067,1584534,73746,11306,792123,11
15,0,704938,247134,1378002,73549,9095,688319,11
15,0,706636,247335,1516018,73600,9994,757684,11
15,0,707362,247797,1549063,73812,10029,773825,11
15,-1,642141,219699,1310235,66080,8691,655062,0
15,0,709907,248235,1327889,73936,9715,663977,11
15,0,705812,247563,1439472,73717,8879,719311,11
15,0,713794,249597,1558700,74659,10155,779231,11
15,-1,662229,223266,1272145,69006,9720,635791,0
15,0,713778,248478,1354577,74171,10226,677235,11
15,0,712964,248412,1283226,74019,8887,641655,11
15,-1,643737,220396,1413386,66638,8214,706731,0
15,0,710163,247285,1262472,73653,8796,631283,11
15,0,733578,252537,1358044,77117,9552,679121,11
15,0,702525,248045,1520824,73833,9647,760267,11
15,0,707099,248534,1237925,74036,8283,619001,11
15,-1,640997,219229,1284457,66027,7471,642260,0
15,0,727363,255834,1362946,76117,8388,681543,11
15,0,710476,249639,1447569,74607,9264,723927,11
15,0,708192,248267,1404119,73950,8345,702107,11
15,-1,641042,218450,1145241,65789,8610,572764,0
15,0,709392,249925,1423185,74771,8916,711594,11
15,0,707546,248366,1295629,73949,8114,647860,11
15,-1,638995,218304,1244762,65767,7448,622480,2
15,0,705174,247734,1315643,73741,7842,657857,11
15,0,710952,249571,1397242,74659,8411,698527,11
15,-1,640270,218207,1304535,65658,7210,652295,2
15,0,707291,247845,1506433,73816,8585,753294,11
15,-1,652738,222636,1352503,68927,8376,675237,0
15,0,708097,247717,1525538,73728,9770,762850,11
15,0,703864,247973,1252100,73867,7908,626094,11
15,0,705024,247629,1380241,73762,8561,690159,11
15,0,725033,252045,1496686,76949,9575,748366,11
15,-1,635199,220164,1275618,66688,7475,637886,2
15,0,705298,247691,1319395,73769,8412,659819,11
15,-1,633482,218207,1256931,65738,6812,628480,2
15,0,725676,252371,1568805,77066,11322,784499,11
15,-1,637546,218293,1157740,65750,7540,578912,0
15,0,709459,249511,1526067,74520,9528,763041,11
15,0,709252,248257,1327341,73871,8766,663722,11
15,-1,636672,218734,1240825,65898,6966,620471,2
15,-1,637775,219344,1246167,66274,7148,623122,0
15,0,710014,249172,1472121,74359,8767,736122,11
15,0,706108,248322,1407278,73874,9392,703682,11
15,0,708203,248443,1447164,73916,8375,723608,11
15,0,708307,248378,1470842,73831,8351,735419,11
15,-1,635732,218968,1180822,65906,6455,590446,0
15,-1,638441,218903,1276444,66111,8043,638325,0
15,0,709627,249617,1523993,74568,9296,762122,11
15,0,708481,248799,1436324,74029,9498,718158,11
15,0,727062,251982,1277699,76830,9479,638897,11
15,-1,640493,220405,1225768,66618,7641,612945,2
15,0,707253,248155,1392077,73831,8427,696092,11
15,-1,642489,219692,1207581,66277,7644,603836,0
15,0,710435,248444,1426020,73858,8386,713054,11
15,0,709272,249225,1540590,74182,10245,770322,11
15,0,705256,247598,1508880,73584,10501,754388,11
15,-1,635006,218562,1238685,65680,7115,619381,0
15,0,707574,248089,1523808,73697,10146,761551,11
15,0,706449,247900,1789015,73626,10807,894576,11
15,0,711501,248939,1498669,74031,10832,749326,11
15,0,731749,252659,1330150,77085,9558,665133,11
15,0,710380,248068,1381131,73835,8936,690491,11
15,-1,635871,219356,1181612,66005,6361,590864,2
15,0,729844,252810,1361025,77145,9534,680481,11
15,-1,641232,219926,1224684,66172,7146,612425,0
15,-1,636748,218899,1167526,65875,7297,583899,2
15,0,712824,248818,1358599,73947,9209,679490,11
15,0,710057,248141,1311157,73843,8627,655612,11
15,0,716138,250130,1392820,74631,9224,696475,11
15,0,700605,247884,1300111,73751,7633,650097,11
15,-1,641103,220717,1379059,66735,8300,689309,2
15,0,709135,249188,1415687,74335,9158,707918,11
15,-1,634178,218492,1218390,65741,6833,609297,2
15,0,702874,247565,1395789,73524,7658,697928,11
15,0,710621,249398,1436840,74384,8896,718480,11
15,-1,636092,218181,1240936,65562,6537,620445,0
15,0,705247,247820,1368876,73649,8209,684556,11
15,0,708949,248884,1340579,74065,8806,670324,11
15,0,710674,249535,1325288,74562,8733,662713,11
15,0,706580,248418,1278736,73903,7681,639403,11
15,-1,639537,219316,1202704,66001,6998,601400,2
15,0,705902,247958,1312232,73693,8200,656163,11
15,0,726806,252581,1339266,77029,8734,669642,11
15,0,708564,248062,1349926,73764,8423,674902,11
15,0,705396,247915,1314127,73691,8334,657153,11
15,-1,636882,218686,1382430,65756,8163,691376,0
15,0,707381,247806,1283966,73620,8200,641946,11
15,0,709122,248102,1304290,73836,8434,652166,11
15,-1,664744,228077,1309069,68555,8356,654620,2
15,0,706200,248674,1378171,73949,8897,689089,11
15,0,704564,247405,1289518,73545,8287,644814,11
15,-1,641010,220587,1221711,66666,8348,610493,2
15,0,706962,248058,1558321,73861,10465,779198,11
15,-1,636709,217667,1214299,65292,7133,607078,0
15,0,708847,248750,1332055,74017,8010,666101,11
15,0,708898,247914,1318492,73612,9016,659302,11
15,0,708974,247996,1261138,73743,8381,630619,11
15,0,706612,247735,1262444,73673,8247,631198,11
15,0,711330,248976,1413154,74107,8695,706773,11
15,0,708532,248381,1594908,73875,9927,797400,11
15,-1,639968,219438,1405310,66045,8094,702687,2
15,0,711505,248333,1359673,73708,9062,679905,11
15,-1,644137,220265,1336758,66424,8346,668221,0
15,0,731168,252746,1353911,76963,8993,676800,11
15,0,714724,249832,1349381,74487,8713,674738,11
15,-1,639902,218828,1252431,65799,7962,626157,2
15,0,724628,252814,1397286,76968,8705,698658,11
15,0,707407,248320,1387759,73741,7877,693982,11
15,-1,643301,218357,1279294,65614,7067,639679,0
15,0,728074,252542,1366661,76878,9408,683301,11
15,0,709308,247904,1444605,73580,8966,722395,11
15,0,708628,247908,1330593,73550,9284,665339,11
15,0,706183,247714,1308687,73489,8675,654389,11
15,-1,655844,222732,1141312,68830,7278,570652,0
15,0,709413,248037,1499724,73631,10359,749552,11
15,-1,637554,218636,1144307,65757,6361,572207,2
15,0,707106,248078,1468616,73678,11265,734155,11
15,0,729131,252656,1538444,76956,10774,769058,11
15,0,710597,247766,1486955,73527,9977,743469,11
15,-1,636030,219283,1314382,65951,7016,657216,2
15,-1,638180,218990,1182955,65811,7031,591493,0
15,0,707323,248229,1374855,73750,9631,687439,11
15,-1,642475,220489,1256297,66638,7406,628173,2
15,-1,644265,219767,1255010,66325,7651,627568,0
15,-1,636754,218938,1241281,65880,6860,620654,2
15,0,711655,248081,1295517,73803,8271,647693,11
15,0,712234,248833,1298688,74078,8931,649267,11
15,-1,640176,219015,1143629,65810,7090,571854,0
15,0,712985,249155,1448805,74008,9391,724161,11
15,-1,639021,219247,1158337,65930,7010,579235,2
15,0,715489,249421,1327971,74093,9361,663884,11
15,0,735638,253263,1385777,77089,10239,693015,11
15,0,722545,251607,1426554,74983,9626,713296,11
15,-1,636748,219046,1149320,65907,5828,574739,2
15,0,709033,249635,1442553,74115,9813,721379,11
15,-1,639478,218947,1246691,65811,6838,623421,0
15,-1,644863,220750,1263187,66618,8518,631639,2
15,0,708710,247948,1321595,73431,9685,660706,11
15,0,729161,253664,1594800,77220,10673,797273,11
15,-1,639025,219126,1135244,65796,6895,567664,2
15,0,707870,248775,1420905,73942,9876,710585,11
15,-1,637352,219768,1173709,65978,6811,586896,2
15,-1,636874,218622,1150454,65650,7057,575354,0
15,0,706301,247971,1475965,73646,9599,737933,11
15,0,711545,249383,1419052,74133,8962,709520,11
15,0,712757,249094,1506038,74047,8933,753061,11
15,-1,635332,218469,1242782,65520,6941,621498,2
15,0,710045,248553,1331632,73885,9850,665742,11
15,0,715954,250583,1452107,74830,9730,726134,11
15,0,716669,249188,1394122,74151,9078,697026,11
15,-1,641173,219048,1346363,65766,9160,673214,0
15,0,706205,247813,1359960,73540,8598,679984,11
15,0,709482,248822,1471208,73868,9061,735602,11
15,0,727494,252825,1347666,77052,9313,673835,11
15,0,710015,249468,1427757,74447,8640,713875,11
15,-1,639366,220617,1264583,66531,7909,632320,2
15,0,706892,247675,1237992,73641,8411,618940,11
15,0,709539,248352,1336562,73861,9519,668311,11
15,0,709744,247808,1470224,73584,10011,735131,11
15,0,710433,248412,1527013,73782,9878,763521,11
15,-1,639658,218553,1501352,65604,9870,750159,0
15,0,705165,247539,1423028,73464,9837,711551,11
15,0,708702,247791,1428912,73598,9130,714193,11
15,0,707488,247782,1483751,73640,9334,741949,11
15,-1,644395,219952,1314108,66047,8458,657133,2
15,0,712646,248451,1402169,73887,9762,700691,11
15,-1,641576,220143,1323852,66419,8404,661862,0
15,0,710624,247077,1468303,73424,10140,734191,11
15,0,705401,247759,1412684,73622,9450,706371,11
15,-1,637006,218800,1162123,65818,7108,581147,2
15,0,709157,248424,1529681,73794,9879,764990,11
15,0,709235,248734,1517940,73878,9759,759008,11
15,0,705410,247434,1435191,73423,9601,717484,11
15,0,705574,247165,1413086,73358,9391,706560,11
15,-1,642648,218998,1172387,65819,7700,586292,0
15,-1,642360,219606,1319214,66066,7429,659491,2
15,-1,640983,218968,1159972,65814,7172,580008,2
15,-1,645698,219152,1187115,65677,6838,593757,0
15,-1,642868,220333,1302377,66098,8434,650911,2
15,0,730133,252991,1485478,77145,9593,742682,11
15,0,708550,248453,1323817,74116,8875,661840,11
15,0,710260,248012,1198206,73759,8487,599145,11
15,0,710942,248131,1337732,73799,8864,668904,11
15,-1,642633,222229,1276959,67073,8697,638368,2
15,0,708120,248194,1406828,73759,8824,703438,11
15,0,707770,248324,1312093,73772,8341,656080,11
15,-1,638075,219355,1162048,65719,7829,581074,0
15,0,711974,249595,1458564,74492,9149,729351,11
15,0,709351,247445,1267515,73444,8897,633818,11
15,0,715550,249429,1343911,74333,9603,671964,11
15,0,710982,247960,1434971,73598,9900,717511,11
15,0,711020,248085,1348499,73436,9211,673662,11
15,-1,637178,219364,1148045,65843,7313,573150,2
15,0,710888,247949,1377531,73478,9654,688880,11
15,-1,642810,220377,1300166,66140,8392,650055,0
15,0,710866,248574,1393352,73701,9633,696840,11
15,0,714851,249559,1417603,74282,9871,708811,11
15,0,711286,247897,1310132,73463,8734,655122,11
15,0,715511,249588,1443801,74203,9521,721934,11
15,0,713523,248272,1420756,73549,9518,710241,11
15,0,711998,248117,1483167,73493,10436,741796,11
15,0,714592,248870,1426735,73730,9958,713058,11
15,0,715380,248840,1501428,73693,10888,750602,11
15,-1,637954,218723,1201110,65723,8007,600515,0
15,0,710463,249869,1489334,74394,10206,744553,11
15,0,727829,253259,1373681,77021,9721,686975,11
15,0,734582,256973,1502967,76204,9146,751534,11
15,0,709945,247847,1316109,73564,8875,658103,11
15,0,709835,249632,1361406,74281,8896,680740,11
15,0,727651,252265,1349154,76785,9070,674670,11
15,0,707275,247375,1499731,73356,8548,749896,11
15,-1,638695,220147,1275415,66103,7341,637676,2
15,0,710789,248462,1254458,73794,8484,627291,11
15,0,709804,247864,1365122,73593,8818,682675,11
15,-1,644311,221438,1255288,66858,7972,627619,0
15,0,710915,249977,1366636,74530,9011,683373,11
15,-1,637720,218874,1163961,65806,7383,581993,2
15,0,709133,247925,1445896,73616,9086,722986,11
15,0,709197,247202,1300647,73360,9081,650446,11
15,0,706413,247014,1489624,73248,8832,744836,11
15,0,704696,247047,1396301,73198,8437,698199,11
15,0,708549,247971,1417124,73595,8909,708585,11
15,0,706900,246984,1306033,73240,8433,653069,11
15,-1,644182,219618,1291201,66142,7854,645693,0
15,0,710334,248245,1296724,73699,8518,648381,11
15,0,706670,247184,1386269,73319,8615,693131,11
15,0,715551,249574,1365113,74379,9152,682635,11
15,-1,640611,218138,1269881,65453,7525,635006,0
15,0,711358,248177,1308640,73661,9010,654326,11
15,0,715775,249518,1348841,74273,9571,674482,11
15,0,708236,247614,1364792,73526,8226,682402,11
15,0,711529,247486,1496549,73428,10035,748295,11
15,0,709567,247715,1569939,73512,11452,784903,11
15,0,712309,248266,1546270,73705,10797,772924,11
15,-1,638894,220215,1281664,66526,7864,640892,0
15,-1,639518,219769,1212070,66066,7923,606020,2
15,0,703490,246805,1533478,73118,10468,766681,11
15,0,707819,247710,1573882,73463,10908,786815,11
15,-1,637254,219384,1198415,65907,7821,599248,2
15,0,732448,253144,1553643,77083,11349,776628,11
15,0,710813,248809,1497181,74053,10087,748435,11
15,-1,639368,218382,1264861,65509,8305,632453,0
15,0,708708,248071,1498695,73621,10608,749337,11
15,0,706230,247384,1435602,73321,9371,717783,11
15,-1,636269,218574,1265759,65691,8555,632915,2
15,0,708895,248308,1551406,73633,9977,775682,11
15,0,709152,248270,1707100,73695,11315,853164,11
15,-1,637748,217801,1143935,65466,7386,572004,2
15,-1,636723,217447,1198166,65322,7851,599025,0
15,0,710438,247891,1419716,73526,9820,709932,11
15,0,716420,249855,1748203,74467,11877,873911,11
15,-1,637747,218452,1269388,65667,7928,634616,2
15,0,709850,247126,1357247,73281,9739,678594,11
15,0,710828,248175,1430322,73689,9652,715304,11
15,0,709798,247244,1265590,73340,9240,632598,11
15,-1,635077,217727,1177446,65315,6733,588767,0
15,0,707314,246859,1351299,73210,9195,675698,11
15,0,711363,247609,1723921,73484,11715,861876,11
15,-1,640534,218505,1290652,65490,7427,645355,0
15,0,709093,246785,1265316,73200,8419,632772,11
15,-1,637300,218743,1172647,65538,8025,586330,2
15,0,709985,247573,1431903,73365,8669,715899,11
15,-1,649859,221488,1253319,66595,8266,626773,0
15,0,712381,247736,1431276,73414,8342,715641,11
15,0,712587,247430,1389762,73362,8279,694972,11
15,0,706073,249715,1248869,73860,7864,624350,11
15,0,701444,247803,1320962,73058,8308,660367,11
15,0,703953,247614,1515036,73000,8762,757288,11
15,0,722813,252474,1445121,76357,10435,722615,11
15,-1,635330,218120,1207991,65204,8203,603917,0
15,0,701547,247323,1342105,72915,9275,670786,11
15,0,704653,248142,1390292,73175,8764,694972,11
15,0,704557,247903,1624432,73118,11196,812155,11
15,0,706611,248216,1526172,73146,9449,763115,11
15,-1,636309,219172,1279967,65684,8139,640017,2
15,0,703736,246784,1440004,72673,9595,719996,11
15,-1,636682,218781,1164401,65592,7031,582278,2
15,0,705780,249132,1456139,73752,10555,727927,11
15,-1,641689,220346,1256731,66203,7362,628426,0
15,0,704696,248377,1514107,73264,9963,757123,11
15,0,706616,248053,1505931,73128,9768,752895,11
15,0,707499,247931,1495206,73029,10518,747521,11
15,0,706060,247584,1522411,72909,10054,761206,11
15,0,712243,250072,1463721,74071,9529,731932,11
15,0,705121,249093,1427877,73703,9856,713875,11
15,0,701890,247507,1458329,73047,10407,729149,11
15,-1,637220,218571,1230094,65543,7384,615097,2
15,0,722862,251897,1649795,76276,11994,825238,11
15,0,704905,247504,1339101,73029,9460,669120,11
15,-1,637944,218761,1225754,65640,7241,612932,2
15,-1,643066,220167,1243985,66307,7537,622102,0
15,0,706486,246879,1371987,73620,10343,686027,11
15,-1,644952,220599,1234104,66513,7031,617125,0
15,0,707587,247366,1600355,73855,11106,799991,11
15,0,708748,247444,1473008,73909,9872,736027,11
15,0,704773,246889,1392112,73675,9806,696040,11
15,0,709722,248662,1493132,74464,11114,746141,11
15,0,709532,248153,1406422,74120,10274,702763,11
15,0,714151,249913,1382414,75025,10262,691033,11
15,0,702627,247596,1409271,73987,9551,704635,11
15,0,705674,247517,1370278,73918,9275,685253,11
15,-1,638140,218467,1233009,65552,7021,616549,0
15,0,704161,247166,1359725,73797,9269,679742,11
15,-1,637867,218790,1142619,65657,6468,571362,2
15,0,704483,247681,1442107,74015,9600,721117,11
15,0,707203,247516,1336062,73956,8918,668087,11
15,0,705880,247189,1393672,73798,9415,696690,11
15,0,705575,247163,1360950,73818,9573,680531,11
15,0,706495,247361,1369767,73875,8534,684911,11
15,0,708542,248069,1407433,74099,8785,703740,11
15,-1,638906,218027,1189721,65417,7455,594910,0
15,0,709723,247360,1381817,73866,9066,690956,11
15,0,707026,247228,1279910,73871,8620,640003,11
15,0,712216,248199,1421997,74190,9568,711074,11
15,0,707963,246883,1391813,73715,8895,695915,11
15,0,732784,251772,1364575,77149,9691,682383,11
15,-1,656887,223114,1252751,68840,8702,626452,0
15,-1,638257,218955,1189966,65645,6944,595011,2
15,0,729551,252337,1513888,77317,10660,757018,11
15,-1,639555,218495,1300847,65535,8361,650382,0
15,0,732046,252083,1631017,77229,12047,815543,11
15,0,706462,247397,1654507,73828,10860,826996,11
15,0,707557,247752,1560972,74008,10848,780322,11
15,0,707815,247640,1531747,73996,10606,765737,11
15,-1,642939,219411,1261533,65858,8433,630775,2
15,0,709237,246699,1637797,73680,11004,818839,11
15,0,732523,252494,1534444,77349,11399,767415,11
15,0,713068,249055,1425469,74743,11681,712509,11
15,0,714214,248610,1588676,74488,10872,794268,11
15,-1,638231,218697,1144167,65672,7461,572264,2
15,-1,640851,218716,1261324,65628,7891,630712,0
15,0,709452,247124,1441905,73787,10389,720993,11
15,0,708745,246968,1538126,73734,10339,768980,11
15,0,707362,247731,1444143,74032,9823,722100,11
15,-1,637775,218110,1343658,65436,7872,671821,2
15,0,703883,247167,1453200,73820,10759,726360,11
15,0,705031,247418,1466767,73856,10404,732974,11
15,0,727769,252212,1655887,77314,12092,827940,11
15,-1,640670,218404,1261903,65538,8631,631126,2
15,-1,644177,218762,1187599,65618,8254,593712,0
15,0,705872,247597,1676487,73987,10467,838172,11
15,0,728613,251800,1559047,77084,11317,779588,11
15,0,705577,247705,1546378,73926,10543,773311,11
15,0,709252,249474,1404823,74886,9670,702126,11
15,-1,637007,218360,1268572,65505,7659,634206,2
15,0,705896,247333,1384158,73840,9765,691783,11
15,-1,661478,223476,1261791,68976,7709,630777,0
15,0,708459,247657,1332309,73969,9595,666220,11
15,0,706302,247304,1386496,73806,9159,693331,11
15,0,707416,247302,1534435,73860,10710,767254,11
15,-1,639559,218222,1186722,65475,7842,593340,2
15,0,707772,247482,1444101,73905,9787,722044,11
15,0,709191,247882,1405051,73980,8989,701931,11
15,0,730211,252014,1497897,77180,10874,748914,11
15,-1,636553,217733,1179924,65255,6953,589822,2
15,0,710668,247586,1396908,73988,8864,698504,11
15,0,705750,247189,1424048,73780,10026,712259,11
15,-1,642280,218001,1315350,65333,7859,657620,0
15,-1,641580,218315,1246285,65520,7530,623163,2
15,0,710932,248365,1521652,74211,9868,760783,11
15,0,706308,247331,1428951,73837,9726,714420,11
15,0,708402,247811,1434279,74067,8982,716977,11
15,0,729862,251931,1621135,77177,10727,810211,11
15,0,709182,247504,1350952,73814,9066,675451,11
15,0,711922,249358,1379123,74779,9899,689367,11
15,-1,651674,222927,1195620,68292,8137,597879,0
15,0,708586,247143,1323722,73816,8738,661900,11
15,0,709077,247371,1313047,73843,8426,656504,11
15,0,710102,247569,1633311,73966,11039,816126,11
15,0,709991,247578,1406556,73848,9960,703168,11
15,-1,634377,218266,1243050,64926,7114,621293,0
15,0,715680,249208,1321804,74653,8890,660842,11
15,0,712004,247894,1383792,73965,9486,691798,11
15,0,710552,249945,1315995,74885,9374,657941,11
15,-1,630488,217698,1178015,64721,7498,588996,0
15,0,707737,247358,1346220,73776,9144,673019,11
15,0,707717,247167,1330050,73684,8878,665015,11
15,0,708478,247597,1237948,73868,9191,618991,11
15,0,730544,252189,1423094,77121,9829,711534,11
15,0,707543,247562,1417924,73802,9498,708945,11
15,-1,633840,217396,1138952,64673,7638,569533,2
15,0,715691,249773,1326155,74803,9116,663054,11
15,-1,631874,218261,1151704,64987,7891,575924,0
15,0,710701,248027,1440939,74107,9247,720535,11
15,-1,656029,222748,1325517,68343,8867,662721,0
15,-1,641457,220887,1256932,66261,8389,628222,2
15,0,709272,247264,1531950,73710,10252,766050,11
15,-1,638196,218742,1245117,66116,8495,622394,2
15,0,731318,252165,1615560,77249,11127,807364,11
15,-1,641660,219374,1287208,66511,9138,643540,0
15,0,716274,249149,1400715,74336,9514,700416,11
15,0,717529,249266,1327772,74552,9432,664049,11
15,0,713409,247437,1311878,73774,8929,655978,11
15,-1,640775,218236,1356184,65954,8912,678132,0
15,0,703957,248557,1470682,74141,8088,735370,11
15,-1,632763,218127,1170034,65899,7200,585006,2
15,0,704749,247399,1329922,74016,9539,664990,11
15,0,710196,248513,1419266,74281,9504,709690,11
15,0,709950,248793,1497940,74391,9317,749008,11
15,0,708325,247515,1402215,73887,8798,701045,11
15,-1,643477,220855,1205968,67103,8327,603088,2
15,-1,635177,217768,1205255,65836,7190,602574,0
15,0,711038,248793,1454905,74395,8929,727618,11
15,0,712313,248776,1337891,74383,8792,668986,11
15,-1,635905,218582,1258237,66075,7622,629057,2
15,0,707096,247970,1352952,74034,8882,676530,11
15,0,708587,248229,1504205,74141,8618,752155,11
15,0,709442,248247,1237517,74130,8799,618795,11
15,0,712306,249085,1311183,74468,9048,655633,11
15,0,732178,253262,1423452,77645,10845,711772,11
15,-1,636783,218860,1103778,66169,7159,551914,2
15,0,715664,250652,1436256,75376,9721,718189,11
15,-1,635825,218124,1344098,65972,8029,671852,0
15,0,709882,248603,1302588,74392,8911,651322,11
15,0,711493,248257,1324529,74275,8695,662302,11
15,0,707655,248009,1284793,74126,8096,642407,11
15,-1,637468,217949,1342928,65876,8737,671527,2
15,-1,637269,217584,1212192,65708,6980,606199,0
15,0,711284,248778,1440583,74366,9479,720326,11
15,-1,637367,219810,1179134,66770,7786,589520,2
15,0,715254,249697,1354011,74845,8798,677077,11
15,0,714526,248656,1380117,74267,8872,690018,11
15,0,709376,248656,1427471,74343,9849,713747,11
15,0,711248,248824,1253749,74372,9419,626919,11
15,0,732964,253404,1440750,77686,10081,720557,11
15,0,710926,248737,1379862,74342,9285,689976,11
15,0,714634,249713,1324647,74843,8894,662371,11
15,0,717026,250145,1425912,75047,9052,713027,11
15,-1,640273,219265,1182106,66516,8048,591385,0
15,0,715046,248739,1299017,74352,8627,649613,11
15,0,707356,248619,1252816,74319,8636,626449,11
15,-1,641596,218857,1262562,66141,7761,631044,2
15,-1,640834,218573,1263377,66071,7793,631602,0
15,-1,642186,219867,1229787,66832,7773,615124,2
15,0,712317,248338,1406571,74174,8681,703319,11
15,0,710747,248474,1359339,74253,8744,679701,11
15,-1,640669,218491,1282089,66040,8360,640951,2
15,0,714669,248833,1422706,74282,9086,711360,11
15,0,728677,252703,1465013,77332,10112,732726,11
15,-1,654913,222765,1281390,69225,9219,640813,0
15,0,711402,248691,1339363,74158,8458,669721,11
15,0,710930,248376,1326071,74076,8786,663049,11
15,0,710240,248109,1397207,73930,8894,698635,11
15,0,717079,250216,1336939,74872,8831,668428,11
15,-1,634502,218615,1252374,66094,7807,626184,2
15,0,713679,248971,1350636,74239,9292,675404,11
15,-1,636630,217657,1319832,65685,8237,659839,0
15,0,709382,248556,1398932,74163,8671,699524,11
15,0,709315,248401,1314199,74096,7842,657234,11
15,0,711595,248694,1341576,74221,8156,670893,11
15,0,710291,247697,1368473,73846,8838,684331,11
15,-1,638139,218229,1381653,65909,8876,690824,0
15,0,710069,248141,1317075,73995,8820,658565,11
15,0,710778,248490,1331864,74191,8592,665955,11
15,0,714797,249564,1314796,74806,8803,657457,11
15,-1,638491,218969,1195450,66158,8222,597730,2
15,0,735060,252577,1465917,77247,9994,733097,11
15,-1,634878,218188,1245695,65917,7841,622784,2
15,0,713277,248165,1462328,74111,8920,731204,11
15,0,715894,249902,1283047,74923,7868,641604,11
15,-1,637265,218344,1174940,65935,7462,587426,0
15,0,712192,247993,1363046,74042,8499,681606,11
15,-1,637024,218373,1349546,66035,9096,675005,2
15,0,716415,249361,1344016,74662,8857,672104,11
15,0,711170,247909,1373417,73950,8199,686785,11
15,0,706741,248422,1324258,74130,9037,662142,11
15,-1,644018,218714,1295506,66187,7802,647661,0
15,-1,635890,218482,1302709,66021,8305,651252,2
15,0,716127,250561,1393092,75097,8528,696630,11
15,0,714379,250529,1484861,75161,11591,742152,11
15,-1,640269,219037,1200197,66219,7602,600117,2
15,0,709550,247754,1383400,73838,9011,691751,11
15,-1,638490,218331,1171223,65949,7451,585630,2
15,-1,663751,223133,1362986,69241,9211,681596,0
15,0,710375,248453,1407642,74141,8716,703867,11
15,0,709896,247846,1360667,73971,8969,680372,11
15,0,709788,247974,1298873,73987,8386,649492,11
15,0,716946,249786,1331579,74836,8994,665839,11
15,-1,640366,218335,1353055,65907,8096,676468,0
15,-1,637454,218640,1270959,66107,8377,635547,2
15,0,709246,248247,1372689,74071,8884,686391,11
15,0,713707,249249,1533167,74515,9599,765620,11
15,0,710510,248575,1543719,74272,10447,771818,11
15,0,711794,248867,1232280,74412,9076,616163,11
15,0,733197,252675,1437675,77440,10341,718866,11
15,-1,639493,218572,1252627,66009,7847,626362,2
15,0,716181,249322,1316472,74745,8859,658210,11
15,0,712375,247623,1381683,73961,8715,690903,11
15,-1,639581,219253,1136218,66378,7116,568065,0
15,-1,639086,218694,1151178,65975,6960,575658,2
15,0,711920,247362,1388543,73764,8422,694262,11
15,0,716117,249432,1344335,74598,8388,672112,11
15,0,713931,248520,1397432,74179,9257,698698,11
15,-1,640516,217755,1287447,65771,7912,643704,0
15,0,713541,247760,1349903,73860,9041,674815,11
15,0,710650,247873,1507098,73913,10170,753565,11
15,0,711527,249002,1571295,74528,9990,785669,11
15,-1,639644,218715,1287559,65933,7851,643776,0
15,0,711362,248098,1451292,74039,8900,725565,11
15,0,715376,249839,1371904,74786,10003,685924,11
15,-1,637757,218027,1227756,65807,8897,613909,2
15,-1,643771,218653,1246915,65927,9369,623395,0
15,0,712038,247728,1349895,73933,8740,674937,11
15,0,712098,247885,1415727,73890,9169,707725,11
15,0,713106,247951,1307290,73987,8463,653623,11
15,-1,636744,217802,1339284,65671,8245,669631,2
15,0,710707,248583,1423978,74369,9727,711963,11
15,0,708568,247579,1415097,73930,9543,708220,11
15,0,709371,247496,1506038,73852,9629,753026,11
15,-1,643466,219647,1270441,66753,8553,635198,2
15,-1,641903,217959,1322839,65776,8628,661379,0
15,0,711126,247932,1447153,74011,9893,723363,11
15,0,717414,249879,1550189,74988,10256,774578,11
15,-1,635616,218614,1222912,66002,7477,611530,0
15,0,712193,249411,1382266,75094,9547,691128,11
15,0,707995,246831,1309916,73889,9055,654852,11
15,-1,638417,219210,1298885,66338,7509,649482,2
15,0,717417,249641,1649523,75046,10726,824875,11
15,0,709894,246495,1288586,73753,9059,644371,11
15,-1,648453,221758,1208906,67411,7227,604522,2
15,-1,639405,218905,1277164,66109,7739,638611,0
15,0,713273,247188,1396992,73965,9019,698489,11
15,-1,636056,218408,1193872,65994,8004,596939,2
15,0,702572,247092,1379613,73917,7636,689829,11
15,0,703716,247386,1319810,74077,8116,659906,11
15,0,703771,247302,1387200,74003,8282,693588,11
15,0,706062,248352,1413824,74578,9536,706913,11
15,-1,639340,218943,1305617,66343,7185,652640,2
15,0,707114,248165,1391347,74310,9102,695655,11
15,0,709253,248702,1411304,74699,9403,705620,11
15,-1,642217,218724,1272525,66237,7401,636291,0
15,0,708038,248844,1459833,74807,9362,729791,11
15,0,705259,247874,1494344,74358,9393,747027,11
15,0,705376,247180,1355229,73996,9515,677157,11
15,0,709030,247856,1527300,74207,9550,763144,11
15,0,732839,256163,1356640,76673,9356,678377,11
15,0,710889,248817,1490925,74680,9172,744905,11
15,-1,659634,223091,1239139,69431,7411,619555,0
15,0,705634,247174,1448830,73929,9266,724258,11
15,-1,644129,220293,1236187,66629,7114,618134,2
15,-1,643376,219426,1240794,66320,7078,620431,0
15,0,709106,248225,1505375,74342,9375,752752,11
15,0,709412,248411,1380991,74485,9553,690313,11
15,0,730758,252830,1564376,77456,10993,782187,11
15,0,705241,247392,1446691,73957,10226,723078,11
15,-1,643861,219774,1352298,66480,7301,676220,0
15,0,710327,248509,1670577,74535,9783,834865,11
