-1,0,0.0302648
-1,1,0.0296343
-1,2,0.0296343
-1,3,0.0296343
-1,4,0.0296343
-1,5,0.0296343
-1,6,0.0296343
-1,7,0.0296343
-1,8,0.0296343
-1,9,0.0296343
-1,10,0.0296343
-1,11,0.0296343
-1,12,0.0296343
-1,13,0.0296343
-1,14,0.0296343
-1,15,0.0296343
-1,16,0.0296343
-1,17,0.0296343
-1,18,0.0296343
-1,19,0.0296343
-1,20,0.0296343
-1,21,0.0296343
-1,22,0.0296343
-1,23,0.0302648
-1,24,0.0302648
-1,25,0.0302648
-1,26,0.0302648
-1,27,0.0302648
-1,28,0.0302648
-1,29,0.0302648
-1,30,0.0302648
-1,31,0.075662
0,0,0.0023753
0,1,0.0023753
0,2,0.0023753
0,3,0.0023753
0,4,0.0023753
0,5,0.0023753
0,6,0.0023753
0,7,0.0023753
0,8,0.0023753
0,9,0.0023753
0,10,0.0023753
0,11,0.0023753
0,12,0.0023753
0,13,0.0023753
0,14,0.0023753
0,15,0.0023753
0,16,0.0023753
0,17,0.0023753
0,18,0.0023753
0,19,0.0023753
0,20,0.0023753
0,21,0.0023753
0,22,0.0023753
0,23,0.0023753
0,24,0.0023753
0,25,0.0023753
0,26,0.0023753
0,27,0.0023753
0,28,0.0023753
0,29,0.0023753
0,30,0.0023753
0,31,0.926366
