0,1,759640,265545,1413362,78314,9204,706336,0
0,-1,719486,248401,1397528,73730,8786,698434,0
0,1,760549,265934,1355687,78488,8816,677444,1
0,1,758016,266050,1573152,78542,9042,786053,0
0,-1,717723,248555,1410924,73715,8777,705036,0
0,1,761042,266178,1507434,78577,9143,753158,0
0,1,758656,266078,1415259,78509,8726,707254,0
0,-1,726284,251609,1422806,74989,8458,710776,0
0,1,760471,265112,1393584,78165,9246,696583,0
0,-1,719869,248558,1386895,73765,8155,693151,0
0,1,703507,247384,1296626,73434,8216,647914,0
0,-1,718761,248662,1385684,73792,8012,692461,0
0,1,704579,247241,1443898,73450,8611,721653,0
0,-1,718695,248292,1355085,73628,8353,677170,0
0,-1,728958,251248,1426908,74793,9237,712736,0
0,1,711306,248949,1404894,74093,8583,701920,0
0,-1,661473,229604,1326283,68635,7489,662737,2
0,1,707878,248572,1436490,74094,8834,717662,0
0,-1,670191,232307,1363655,69781,7763,681309,0
0,-1,667954,231184,1358138,69122,7976,678595,0
0,-1,664609,230497,1262713,68697,7531,631031,0
0,1,708008,247501,1322221,73278,8766,660807,0
0,-1,666275,230836,1255318,68910,7411,627299,0
0,-1,664998,230227,1270899,68701,8336,635100,0
0,1,703574,248904,1375186,74170,7711,687145,0
0,-1,665658,230311,1282752,68880,7951,641046,0
0,1,704797,247635,1436732,73622,8270,717968,0
0,-1,666325,230619,1253440,68924,7227,626358,0
0,-1,666641,230185,1299461,68738,8651,649363,0
0,1,721975,251209,1375655,76559,8606,687479,0
0,-1,665825,229929,1359780,68616,8020,679373,0
0,1,704363,246574,1277201,73171,8077,638243,0
0,-1,668215,229893,1270903,68712,8000,635085,0
0,1,701946,246817,1333063,73224,8971,666041,0
0,-1,661573,230143,1336051,68798,7641,667627,0
0,-1,663485,230234,1203445,68804,7589,601329,0
0,1,726677,251974,1390567,76841,9369,694905,0
0,-1,666500,231504,1340925,69435,7891,669951,0
0,1,710512,247875,1298337,73606,8696,648737,0
0,1,711164,249383,1412875,74392,8463,705900,0
0,-1,662413,230497,1234918,68898,7747,617125,0
0,1,713683,249330,1526267,74266,8606,762504,0
0,-1,665112,230792,1177326,68968,6981,588297,0
0,1,707861,247719,1436433,73499,8586,717818,0
0,-1,662922,230249,1244699,68790,7499,622146,0
0,1,714974,250608,1427907,74635,9067,713397,0
0,-1,684767,234242,1343653,71907,9191,671468,0
0,1,708618,247964,1304574,73620,9037,651842,0
0,-1,664969,229910,1184111,68717,7170,591693,0
0,1,728386,252243,1328756,76847,9611,663826,0
0,1,709464,248269,1406665,73748,8547,703008,0
0,1,706059,247389,1369810,73532,8233,684456,0
0,-1,661526,229749,1321155,68650,7241,660052,0
0,-1,662966,229376,1300705,68536,7856,650022,0
0,1,710021,247525,1358994,73604,8492,679188,0
0,1,707445,247523,1274041,73615,8086,636661,0
0,-1,667466,230829,1237469,69085,7690,618367,0
0,1,710156,248361,1274514,73921,8570,636953,0
0,1,728075,252233,1324670,76995,8664,661884,0
0,-1,666181,230083,1339367,68773,7738,669343,0
0,1,710955,248606,1382242,74007,7968,690719,0
0,-1,663777,229614,1351248,68616,8234,675203,0
0,1,708775,247736,1279554,73676,8763,639435,0
0,-1,665410,230065,1175752,68811,7156,587474,0
0,1,716871,250710,1425126,74994,9715,711959,0
0,-1,669119,230208,1185503,68882,7534,592363,0
0,-1,666802,231553,1340292,69467,8178,669199,0
0,1,714152,247975,1493039,73805,10152,746111,0
0,1,706826,248434,1422795,73932,9156,710750,0
0,-1,664077,230116,1319204,68826,8065,659246,0
0,1,729145,252643,1428897,77097,10545,712938,0
0,-1,666352,230754,1260938,69061,7203,630105,0
0,-1,660784,229522,1319502,68619,8196,659122,0
0,1,709352,249199,1390958,74352,9373,694886,0
0,-1,665519,229985,1372955,68869,8680,686106,0
0,1,701115,246249,1261974,73248,7569,630644,0
0,-1,672842,232038,1406323,69688,9055,702737,0
0,1,708996,247842,1318314,73704,8085,658804,0
0,-1,670177,231802,1222927,69402,7277,611135,0
0,1,704951,248190,1300942,73811,8505,650172,0
0,-1,664952,229902,1265362,68587,6999,632307,0
0,-1,670957,231452,1266552,69101,7576,632946,0
0,1,725293,252341,1286814,76958,9132,642845,0
0,-1,668909,230974,1310854,69056,8182,654978,0
0,1,708657,248001,1336191,73744,8322,667778,0
0,-1,666292,229982,1316719,68692,8539,658029,0
0,1,711831,249064,1437188,74063,8674,717963,0
0,-1,668817,230311,1256276,68768,8003,627870,0
0,1,731319,253046,1641630,77131,10218,820213,0
0,-1,673322,231884,1388806,69454,8829,693831,0
0,1,703719,248262,1267623,73711,8120,633516,0
0,-1,667672,231225,1416202,69045,8541,707704,0
0,-1,692489,239983,1349569,71577,7935,674467,0
0,-1,668378,230986,1419813,68912,7909,709581,0
0,1,728353,253059,1468062,77182,9132,733508,0
0,-1,667589,231760,1230463,69430,7955,614693,0
0,1,707099,247971,1246429,73657,8000,622900,0
0,-1,667241,231171,1317728,69101,7866,658497,0
0,1,726826,252503,1350194,76969,8610,674694,0
0,-1,687255,235100,1295542,72169,8630,647491,0
0,-1,669171,231093,1245357,69070,7895,622358,0
0,1,705195,247929,1353439,73693,9348,676590,0
0,-1,673847,232419,1340766,69753,9013,669807,0
0,1,729113,252719,1534361,77024,11109,766769,0
0,-1,669610,231543,1196020,69241,7292,597646,0
0,1,706213,247853,1277946,73610,8206,638511,0
0,1,712593,249241,1411921,74297,8756,705616,0
0,-1,665085,230005,1311309,68664,7640,655351,0
0,1,706786,247988,1325701,73724,8340,662028,0
0,1,712913,248576,1310070,73868,9355,654339,0
0,-1,672688,231593,1233317,69560,8417,616219,0
0,-1,667367,229880,1286506,68772,7464,642869,0
0,-1,665737,229281,1276630,68573,7299,637972,0
0,-1,670081,230471,1269667,69050,7303,634436,0
0,1,705596,248165,1292922,73772,7896,646116,0
0,-1,673063,233273,1327845,70178,7701,663357,0
0,1,702080,247244,1418635,73408,7634,709114,0
0,-1,666154,230150,1182883,68905,7586,590991,0
0,-1,668366,230860,1320963,69171,7498,660068,0
0,1,710463,249812,1402201,74542,8770,700471,0
0,-1,673137,232557,1329758,69963,8125,664326,0
0,1,712807,249467,1476996,74382,9433,737938,0
0,-1,671122,231497,1328841,69339,7743,664105,0
0,-1,666558,230551,1338555,69036,8215,668994,0
0,1,707258,247552,1388952,73572,8846,694076,0
0,1,708194,249220,1297860,74296,8963,648288,0
0,1,710391,248890,1413501,73959,8547,706349,0
0,-1,688073,234712,1323175,72187,8846,661189,0
0,1,708676,247923,1282229,73689,8054,640722,0
0,-1,667080,229951,1311843,68850,8225,655568,0
0,1,711362,248564,1298736,73883,8530,648995,0
0,1,709978,248565,1310538,73866,7860,654914,0
0,-1,668660,230305,1326607,68951,7997,663048,0
0,-1,669565,230217,1384470,68976,8492,691872,0
0,1,712765,249017,1458140,73893,8464,728707,0
0,1,711677,248444,1245074,73710,8374,622151,0
0,-1,669086,230181,1316157,68928,7819,657799,0
0,-1,663641,232037,1438713,69680,8767,718429,0
0,1,707638,248193,1350465,73596,7927,674792,0
0,1,708897,248577,1242297,73768,7701,620768,0
0,-1,660546,230725,1295558,69039,8533,647459,0
0,1,710261,248202,1302519,73575,8073,650878,0
0,-1,686911,238823,1548830,71458,8772,774131,0
0,1,711064,248160,1282127,73630,9165,640841,0
0,1,710684,247802,1352980,73513,7908,676140,0
0,-1,661743,230453,1365401,68993,8229,682402,0
0,1,712921,249241,1541808,74248,9292,770892,0
0,-1,684689,235059,1305120,72351,8732,652126,0
0,1,711399,249501,1574729,74047,9735,786377,0
0,-1,665014,230707,1247773,69075,8103,623526,0
0,1,712408,248460,1419838,73861,8645,709539,0
0,-1,666743,230619,1168165,69108,8271,583675,0
0,1,713212,248681,1508061,73951,10269,753510,0
0,-1,664478,230759,1223164,69136,7463,611191,0
0,1,716801,250829,1517929,74696,9876,759005,0
0,-1,663177,229987,1317465,68850,7650,658361,0
0,-1,664619,230073,1309876,68867,7451,654607,0
0,1,712488,248765,1552279,73710,10997,776044,0
0,-1,663431,230082,1295117,68852,7804,647185,0
0,1,709666,250400,1570042,74441,10296,783942,0
0,-1,666244,230676,1329881,69109,8101,664521,0
0,-1,666397,230610,1344891,69072,7573,672108,0
0,1,712758,250481,1391805,74506,9031,695300,0
0,1,711766,250719,1384079,74633,8576,691447,0
0,-1,663546,231055,1230388,69222,7093,614802,0
0,1,714155,250368,1479063,74608,9705,738920,0
0,-1,663410,230608,1306406,69055,7820,652871,0
0,-1,666571,231067,1643958,69196,8445,821805,0
0,-1,661612,230261,1182677,68954,7136,590998,0
0,1,712301,249253,1439980,73941,9390,719592,0
0,-1,665040,230384,1246027,68890,7429,622769,0
0,1,705883,248059,1363704,73549,9303,681604,0
0,1,707783,247807,1362682,73537,8981,680952,0
0,-1,667869,231594,1413162,69345,7866,706075,0
0,1,732084,252937,1376677,77047,10176,687863,0
0,-1,683380,235115,1382461,72244,9631,690758,0
0,1,710223,248333,1396596,73657,9735,698146,0
0,-1,664823,230856,1279771,69075,7784,639324,0
0,1,707239,247617,1576200,73439,9787,787824,0
0,1,710666,248347,1366118,73750,9833,682505,0
0,-1,668681,231540,1394572,69539,9267,696665,0
0,-1,690728,236339,1326943,72661,9274,662906,0
0,1,710433,247928,1304198,73699,8972,651599,0
0,-1,666871,230968,1582116,69104,8739,788788,0
0,1,716374,249890,1399313,74548,9671,698878,0
0,1,709701,248777,1593683,73958,10436,796167,0
0,-1,693737,236689,1345080,73271,8928,671984,0
0,-1,684320,235679,1287257,72392,7797,643268,0
0,1,713000,249620,1398349,74352,10016,698758,0
0,-1,663465,230615,1231096,69016,7794,615189,0
0,-1,666746,231943,1305882,69589,8611,652230,0
0,1,715558,250222,1522489,74450,9630,760540,0
0,-1,665417,230614,1234885,69006,7476,617103,0
0,-1,664215,230826,1331723,69086,7837,665496,0
0,-1,666122,230782,1226307,68996,7408,612817,0
0,1,709553,247517,1477957,73481,10293,738662,0
0,1,730865,252826,1403735,77040,10314,701483,0
0,-1,668684,231763,1321345,69537,8153,659994,0
0,-1,667904,232113,1432698,69705,8191,715802,0
0,1,706243,246722,1514116,73120,10182,755948,0
0,-1,668039,232046,1282432,69625,7693,640548,0
0,1,710307,248807,1391808,73803,9070,695545,0
0,-1,665746,230985,1246408,69121,7352,622744,0
0,-1,669143,231465,1381219,69270,8019,690098,0
0,1,711274,248533,1444857,73599,9781,721958,0
0,-1,666796,231174,1313028,69128,7333,656138,0
0,1,712343,248272,1387231,73530,8951,693334,0
0,-1,669202,231143,1405196,69120,8196,702243,0
0,1,712425,247868,1359381,73354,9061,679302,0
0,-1,673507,232363,1303838,69803,8906,651360,0
0,-1,667332,231226,1401438,69192,8938,699921,0
0,1,708082,247814,1347380,73390,8115,673458,0
0,-1,665685,230821,1476849,69044,9267,738096,0
0,1,728951,252138,1451714,76704,8737,725480,0
0,1,716000,250283,1430492,74582,8871,714591,0
0,-1,671226,232085,1348808,69639,8538,673815,0
0,1,727527,252082,1361030,76681,8941,680077,0
0,-1,669037,231637,1268561,69287,7814,634052,0
0,-1,690975,235580,1288880,72421,8190,644075,0
0,1,707361,247475,1418386,73407,8212,708720,0
0,-1,667910,230821,1410305,68965,7499,704977,0
0,1,710792,247737,1231840,73468,8985,615584,0
0,1,706317,247741,1369073,73465,8672,684177,0
0,-1,671426,231524,1329719,69280,8174,664416,0
0,1,710210,249180,1357995,74125,8195,678417,0
0,-1,670115,231764,1424460,69404,8014,711721,0
0,1,708140,247885,1381252,73535,8094,690186,0
0,-1,666768,230301,1317160,68830,8249,658290,0
0,1,710187,247849,1298382,73502,8536,648885,0
0,1,708370,247681,1394226,73408,9035,696694,0
0,-1,667328,230769,1182727,69019,7360,590987,0
0,1,709324,247562,1372182,73420,9658,685609,0
0,-1,667611,230722,1211316,69003,7174,605053,0
0,-1,669441,230969,1345112,69118,8086,672264,0
0,1,710640,247243,1541888,73253,9950,770573,0
0,1,707563,248033,1450226,73562,9874,724547,0
0,-1,664793,232107,1326604,69651,7796,662774,0
0,-1,668846,232202,1361891,69625,8538,680421,0
0,-1,684512,234985,1414801,72169,8180,707153,0
0,1,707914,247312,1549373,73292,9501,774208,0
0,1,715085,249978,1342386,74501,8705,670410,0
0,-1,684822,234993,1272735,72233,8419,635935,0
0,1,709021,247647,1429915,73450,8908,714458,0
0,1,709287,247560,1439055,73455,9188,719255,0
0,1,710794,247592,1434327,73382,9636,716839,0
0,1,716251,249608,1436363,74236,8685,717622,0
0,-1,662948,230174,1308807,68837,7057,654081,0
0,1,710906,246919,1477148,73121,9410,738140,0
0,-1,664336,230693,1222543,69036,6715,610988,0
0,1,707634,247174,1471802,73254,9565,735115,0
0,-1,667192,230588,1231666,68940,7494,615537,0
0,1,709964,247752,1475910,73519,8739,737494,0
0,-1,662793,230697,1297793,69058,7741,648479,0
0,1,712832,248608,1399327,73917,9183,698945,0
0,-1,667378,231688,1337928,69457,7771,668303,0
0,1,714554,249391,1436823,73985,8886,717895,0
0,-1,668577,231205,1335632,69158,8092,667027,0
0,1,712912,247582,1450627,73297,9035,724803,0
0,-1,666320,230866,1367674,69060,8132,683058,0
0,1,710964,247233,1399834,73206,8306,699485,0
0,-1,666056,230541,1337091,68882,7446,668761,0
0,-1,675156,232674,1340239,69839,8537,669177,0
0,-1,668082,231721,1218257,69371,8061,608737,0
0,1,721481,251921,1410797,76197,9959,705022,0
0,-1,686265,235525,1292542,72374,9231,645649,0
0,-1,666983,230992,1295430,69099,8532,647066,0
0,1,706181,248302,1388735,73152,9084,693839,0
0,1,724911,252401,1435356,76269,10295,717294,0
0,1,706608,248366,1285605,73356,8682,641953,0
0,-1,664017,230564,1362946,68974,7679,681159,0
0,1,707088,248248,1485063,73312,9543,741745,0
0,1,706656,247231,1366007,72935,8570,682613,0
0,-1,671365,232860,1348845,70000,7095,673819,0
0,1,700736,246751,1428584,72756,9384,713806,0
0,-1,688063,235054,1289980,72266,8243,644610,0
0,1,704335,247279,1329588,72920,9370,664343,0
0,-1,686624,235580,1236707,72380,7562,618049,0
0,-1,670256,231765,1344463,69347,7858,671882,0
0,1,704318,247186,1397934,72963,8311,698566,0
0,-1,668544,231179,1306563,69107,7575,652944,0
0,1,725725,251675,1466733,77025,10179,732985,0
0,-1,690067,235213,1252809,72293,8110,626151,0
0,1,707104,247430,1396257,73851,9608,697721,0
0,1,713957,249788,1350283,74883,9263,674531,0
0,-1,671404,232465,1327381,69664,7789,663214,0
0,-1,671963,232616,1328907,69734,7527,663846,0
0,1,709837,247288,1476709,73843,9811,737940,0
0,-1,671189,231064,1250335,69006,7724,624745,0
0,1,703638,246919,1224750,73674,8993,612019,0
0,-1,662982,230170,1291941,68673,7708,645642,0
0,1,705443,247075,1471030,73711,9168,735219,0
0,-1,664630,230356,1383704,68658,7479,691574,0
0,-1,687268,235406,1293228,72227,8308,646264,0
0,1,705048,246955,1371548,73703,8625,685463,0
0,1,707864,247777,1292637,73974,8459,646002,0
0,-1,665496,230792,1284904,68898,6878,642114,0
0,1,729049,252008,1620364,77150,10755,809751,0
0,-1,671977,232310,1273340,69600,8748,636205,0
0,-1,668763,230884,1363856,68875,8457,681563,0
0,-1,665414,230746,1251203,68936,7556,625145,0
0,-1,663841,229978,1242174,68590,7672,620695,0
0,1,708508,247613,1490601,73883,9800,745069,0
0,1,708838,247158,1395873,73744,9500,697589,0
0,-1,666655,230273,1365092,68750,7831,682202,0
0,-1,688783,235603,1307175,72259,8907,653276,0
0,1,709809,247544,1304039,73855,9216,651592,0
0,-1,671672,231568,1396170,69110,8681,697603,0
0,1,707344,247076,1455482,73706,9737,727441,0
0,-1,670112,230933,1239612,68953,8182,619518,0
0,1,711726,247613,1417986,73940,9597,708153,0
0,-1,664584,230273,1322438,68831,7964,660880,0
0,1,711257,247562,1317279,73912,9045,658251,0
0,-1,687896,235238,1602151,72102,9441,800461,0
0,1,704580,247311,1285338,73791,8958,642298,0
0,-1,675475,232431,1345940,69625,8713,672562,0
0,1,708806,247957,1421061,74043,9459,710176,0
0,1,707324,247621,1368746,73883,8603,684021,0
0,-1,673034,232593,1298119,69591,8851,648685,0
0,1,707597,248566,1296193,74410,8953,647623,0
0,-1,673121,231781,1498731,69449,8763,748466,0
0,1,712872,248901,1312877,74521,9481,655864,0
0,-1,693925,236072,1423595,72565,9959,711455,0
0,1,710359,247624,1284248,73837,8116,641799,0
0,-1,671620,232195,1462821,69423,7939,731397,0
0,1,705058,247449,1434122,73824,9017,716721,0
0,-1,675808,232510,1342607,69402,8993,670987,0
0,1,706302,247133,1371950,73739,8940,685659,0
0,-1,694399,236656,1448861,72533,10204,723732,0
0,1,710925,248544,1326905,74409,8856,662853,0
0,-1,675172,232099,1445655,69272,8428,721757,0
0,-1,676223,232784,1413995,69430,9495,706102,0
0,1,708562,247109,1400498,73753,7817,699828,0
0,-1,676767,232710,1444075,69472,9311,721381,0
0,-1,669956,232607,1494266,69373,10061,746415,0
0,1,711393,247965,1412471,74058,9001,705849,0
0,1,727665,252480,1356669,77282,10067,677936,0
0,-1,669669,231987,1315849,69193,8123,657589,0
0,1,713977,249604,1335841,74856,8383,667307,0
0,1,709381,247724,1460576,73861,9996,729878,0
0,1,730495,252465,1411303,77199,9907,705284,0
0,-1,687913,236371,1376110,72467,8684,687696,0
0,-1,668162,231614,1255738,69053,7153,627478,0
0,1,732058,252457,1440047,77321,9075,719558,0
0,-1,671522,231622,1293424,69081,7834,646385,0
0,1,709699,247685,1487580,73788,8676,740923,0
0,1,711368,246982,1332016,73566,10088,665707,0
0,1,707924,247518,1498176,73874,9492,748631,0
0,-1,669655,231705,1237108,69223,7747,618194,0
0,1,709030,247746,1505634,73805,9524,752465,0
0,-1,667198,231782,1396844,69266,9226,698088,0
0,1,712712,248221,1442342,73947,9841,720544,0
0,-1,670259,232022,1367832,69316,8358,683676,0
0,1,732290,252533,1547507,77299,10129,773245,0
0,-1,669562,231289,1255747,69201,8015,627500,0
0,-1,668014,231032,1360248,68925,8435,679751,0
0,-1,671496,231481,1375065,69073,8526,687192,0
0,1,711816,247438,1590706,73860,10077,794954,0
0,1,702170,247229,1476143,73714,9675,737353,0
0,1,704836,247467,1390271,73803,8502,694846,0
0,-1,692531,235904,1341398,72283,9375,670282,0
0,1,708017,247797,1353794,73960,8843,676560,0
0,-1,676422,232231,1349398,69487,8503,674267,0
0,1,729968,253362,1484284,77666,9733,741764,0
0,1,713953,250191,1306827,75003,9700,652877,0
0,-1,666911,231195,1474287,69068,8936,736667,0
0,-1,673419,232505,1323598,69785,8557,661162,0
0,1,709956,248496,1425855,74172,9234,712590,0
0,1,710656,248057,1478211,74250,9348,738761,0
0,-1,667334,230991,1226890,69069,7321,613100,0
0,1,712567,248755,1435388,74373,8421,717297,0
0,-1,668448,230384,1337257,68777,9052,667698,0
0,1,715330,250442,1385907,75145,8918,692329,0
0,-1,665013,230547,1315712,68844,8606,657287,0
0,-1,665431,230029,1229045,68689,7995,614111,0
0,1,713335,249518,1296607,74710,8132,647718,0
0,-1,670667,231359,1339855,69318,8682,669075,0
0,1,714572,249127,1468456,74406,9239,733890,0
0,-1,671469,231836,1405107,69581,9164,701770,0
0,1,713988,249417,1404177,74500,9458,701612,0
0,1,712896,248302,1599372,74036,9646,799024,0
0,-1,667911,230480,1309696,68840,7809,654472,0
0,-1,663699,230361,1288492,68748,8663,643946,0
0,1,708957,249196,1228863,74448,8417,613995,0
0,-1,664424,230486,1365872,68792,8294,682688,0
0,-1,666590,230417,1383746,68773,8804,691202,0
0,1,709500,248529,1488215,74131,8712,743677,0
0,1,714575,249023,1435030,74340,9007,717109,0
0,1,714154,249516,1411536,74432,8964,705352,0
0,-1,694654,240040,1445066,71610,9479,721982,0
0,1,712198,249196,1449659,74264,9176,724478,0
0,-1,665069,229752,1203293,68671,8225,601293,0
0,-1,687416,234565,1296224,72037,8488,647683,0
0,1,712042,248479,1471836,73957,9337,735603,0
0,1,717496,250316,1327171,74830,9596,662957,0
0,1,712067,250045,1389972,74821,9075,694403,0
0,-1,688658,235594,1477302,72308,9622,738207,0
0,-1,666878,230040,1318480,68808,8136,658880,0
0,1,715007,249582,1245406,74687,8482,621997,0
0,-1,661281,228545,1251909,68265,7725,625635,0
0,-1,669941,230107,1362305,68720,9586,680007,0
0,1,714426,249513,1288849,74645,8114,643905,0
0,1,735638,253388,1460333,77477,10236,729741,0
0,-1,695018,235929,1429504,72424,10560,714514,0
0,-1,669417,231811,1424382,69461,8659,711792,0
0,1,714693,248338,1423643,74047,9848,711416,0
0,1,706766,248359,1370726,74031,9332,684992,0
0,-1,671459,232410,1355781,69732,8789,676308,0
0,1,707010,247881,1294551,73942,9079,646946,0
0,-1,668435,230796,1380644,68972,8165,689966,0
0,1,711634,248790,1376519,74199,9824,688078,0
0,1,711658,248547,1406158,74153,9789,703040,0
0,-1,668969,230902,1323760,68938,8463,661461,0
0,-1,672152,231539,1268529,69307,9443,633769,0
0,1,717288,250577,1348920,74963,8714,673853,0
0,1,715570,248810,1396557,74137,8831,697893,0
0,-1,670990,231022,1555490,68799,9258,777060,0
0,1,712854,248159,1392951,73916,8507,696111,0
0,-1,692727,235480,1442628,72097,10406,720785,0
0,1,716746,248523,1322855,74017,9323,661000,0
0,-1,672711,232707,1444790,69570,8995,721922,0
0,-1,671675,231166,1397258,68797,10090,697597,0
0,1,710285,248174,1471596,74031,9321,736056,0
0,-1,673081,231157,1344080,68797,8779,671668,0
0,-1,675102,232832,1401850,69623,8735,700422,0
0,1,716509,248371,1533300,74187,9891,766199,0
0,1,738924,257398,1438156,76686,9358,718603,0
0,-1,670781,230871,1408952,68708,8657,704135,0
0,1,711176,248309,1426256,73979,9046,712809,0
0,-1,672967,230926,1308412,68710,8359,653855,0
0,1,717989,249996,1420933,74773,8625,709851,0
0,-1,665648,231676,1297458,69110,7629,648342,0
0,-1,666142,231059,1239511,68894,8121,619398,0
0,1,714023,250075,1418795,74839,9304,708686,0
0,1,710663,247808,1462458,73769,9123,730879,0
0,-1,688011,235787,1246607,72257,8187,622931,0
0,-1,683639,235085,1277262,72071,8879,638258,0
0,1,710179,248642,1411108,74140,8996,705028,0
0,1,712867,247970,1248112,73820,8956,623591,0
0,-1,665437,230548,1281394,68815,7319,640393,0
0,-1,662591,229728,1206771,68505,6967,603059,0
0,1,713363,247641,1280156,73753,8723,639722,0
0,1,713365,249813,1380292,74858,9012,689424,0
0,-1,670243,231053,1242366,68981,7957,621032,0
0,1,708157,247214,1291191,73736,8009,645221,0
0,-1,665914,230049,1420521,68617,7719,709884,0
0,1,711193,247938,1268163,74146,8323,633709,0
0,1,709538,247221,1279993,73830,8609,639587,0
0,1,712394,247222,1243373,73941,8677,621302,0
0,-1,664794,229880,1262191,68536,7383,630746,0
0,-1,691075,234973,1279008,72053,8376,639203,0
0,1,714128,247920,1401873,74165,9533,700322,0
0,-1,669013,230365,1236405,68749,7946,617773,0
0,1,708908,246148,1292834,73587,8609,646049,0
0,-1,690272,235412,1379138,72204,9043,689226,0
0,-1,663955,229919,1344789,68524,7574,672051,0
0,1,708004,248755,1372346,74636,8432,685580,0
0,-1,665480,230100,1325901,68644,8006,662647,0
0,1,707217,247635,1372314,74094,8646,685752,0
0,-1,664480,229871,1307915,68498,7468,653548,0
0,1,706174,247104,1403410,73849,8826,701486,0
0,-1,668244,230254,1248176,68731,8264,623710,0
0,1,705921,247380,1309866,73979,8458,654610,0
0,-1,667880,229778,1338045,68496,8464,668676,0
0,1,704083,247164,1305860,73912,8106,652321,0
0,1,707811,248004,1390801,74185,8483,695054,0
0,-1,665713,230217,1335855,68655,8485,667709,0
0,1,705635,246452,1410878,73681,8871,705120,0
0,1,717338,250516,1479195,75286,11000,738954,0
0,-1,674859,232263,1290915,69522,9309,644681,0
0,1,726706,251598,1487925,77163,10428,743565,0
0,-1,668604,230579,1292509,68807,9035,645728,0
0,1,708212,247540,1299347,73924,8295,649292,0
0,-1,669181,230372,1337617,68648,9617,668182,0
1,1,769136,268129,1515343,79436,10063,757208,0
1,-1,722613,250629,1441754,74573,8350,720383,0
1,1,766546,268565,1497524,79568,9500,748218,0
1,1,757184,265990,1471999,78563,8563,735512,1
1,1,766470,267599,1538126,79170,9387,768498,0
1,-1,718734,249003,1434276,73874,7417,716838,0
1,-1,718648,248096,1318326,73568,8315,658788,0
1,1,763489,266472,1488756,78619,9656,743985,0
1,1,726928,255969,1446173,75773,8958,722625,0
1,-1,719884,248542,1382960,73757,8433,691145,0
1,1,703967,247578,1336875,73568,7703,668006,0
1,-1,721478,248824,1328717,73837,9231,664057,0
1,1,715145,250206,1380531,74567,9181,689694,0
1,-1,721028,248695,1411625,73776,8432,705488,0
1,1,706336,246959,1344632,73323,8954,671951,0
1,-1,685934,234795,1355755,72163,8772,677394,0
1,-1,664885,229747,1369266,68639,8700,684278,0
1,-1,685252,235065,1367299,72069,8227,683254,0
1,1,705947,247185,1452112,73282,8713,725668,0
1,-1,668173,231571,1382826,69315,8437,690896,0
1,1,708610,247722,1297608,73519,8430,648411,0
1,-1,664923,230565,1270784,68778,7953,634993,0
1,-1,665193,229221,1272831,68450,8283,635956,0
1,-1,670158,232768,1345396,69890,7901,672097,2
1,1,707793,249161,1379095,74321,8412,688977,0
1,-1,665439,230249,1243995,68891,7786,621599,0
1,1,709726,249272,1425201,74225,8997,712218,0
1,-1,667969,230488,1254851,68838,7573,627040,0
1,-1,685477,234460,1374160,71968,8752,686761,0
1,1,705903,247182,1393491,73383,8609,696299,0
1,1,705036,247192,1239772,73454,7614,619483,0
1,-1,672796,232357,1324864,69673,8071,661844,0
1,-1,660819,230475,1176194,68968,6968,587681,0
1,-1,663459,230542,1305051,68965,7955,652191,0
1,1,706695,247054,1438895,73494,8864,719078,0
1,-1,663005,230527,1223205,68918,6935,611229,0
1,1,709030,247972,1257380,73665,8452,628376,0
1,1,708582,248136,1418643,73868,8189,708976,0
1,-1,687519,235045,1364846,72178,8555,682001,0
1,1,711128,248660,1292639,73825,7989,646129,0
1,-1,666231,231337,1394643,69342,7740,696530,0
1,1,716391,249931,1494359,74398,9051,746665,0
1,-1,666090,230708,1308643,68928,7292,653921,0
1,-1,664739,230156,1304033,68810,7085,651589,0
1,1,730218,252989,1362424,76909,9442,680804,0
1,1,706753,247421,1296690,73402,8670,647992,0
1,-1,665510,230080,1252671,68812,7753,626036,0
1,1,705952,248094,1284813,73678,8290,642110,0
1,1,710882,249083,1491043,74193,9160,744944,0
1,-1,664774,230403,1205281,68934,7055,602270,0
1,1,709508,248275,1280118,73858,8447,639659,0
1,-1,666636,231101,1199111,69151,7483,599182,0
1,1,729260,252241,1453066,76992,8715,726135,0
1,1,707781,248012,1369275,73800,8549,684272,0
1,-1,664015,230054,1255418,68822,6946,627376,0
1,1,714337,249553,1301183,74480,8800,650085,0
1,1,708609,247089,1243864,73476,7953,621633,0
1,-1,667794,231842,1325506,69563,7511,662270,0
1,1,706421,246973,1309579,73453,7792,654529,0
1,-1,664860,229875,1300764,68715,7227,650052,0
1,1,710083,247572,1307833,73694,9018,653597,0
1,-1,666108,230218,1257166,68824,8191,628283,0
1,1,712209,247768,1374669,73677,8778,686979,0
1,-1,673740,232288,1278171,69669,8776,638696,0
1,-1,662254,229741,1210790,68699,7187,604988,0
1,1,716985,249447,1584233,74503,10771,791594,0
1,-1,663595,229791,1308513,68734,7239,653869,0
1,1,708071,249354,1507748,74398,9580,752857,0
1,1,705816,248132,1435067,73792,9502,717652,0
1,-1,667102,231161,1291475,69168,7758,645524,0
1,-1,665959,229925,1277885,68786,7014,638538,0
1,1,709547,249446,1299611,74448,9330,649213,0
1,-1,666022,230241,1321104,68931,7244,660213,0
1,1,703378,247602,1368782,73571,8390,684040,0
1,-1,688805,235516,1252335,72359,8538,625853,0
1,1,704809,248244,1416996,73895,8097,708062,0
1,-1,669548,232200,1368514,69724,7690,683646,0
1,1,709977,248410,1370472,73944,8592,684851,0
1,-1,673246,232242,1352507,69756,8176,675668,0
1,-1,688433,234908,1447817,72043,7864,723499,0
1,1,706305,248483,1308451,74049,8938,653810,0
1,-1,665185,230001,1234491,68707,8096,616938,0
1,1,712541,250061,1423740,74623,8592,711314,0
1,-1,665041,229558,1264759,68552,7781,632028,0
1,1,709107,249318,1415684,74134,8654,707487,0
1,-1,689993,234880,1349916,71993,8863,674563,0
1,1,707930,248595,1442429,73798,8902,720053,0
1,-1,670165,230792,1290419,68974,8330,644881,0
1,1,708995,247919,1290404,73704,8509,644886,0
1,-1,666918,231310,1368005,69006,8607,683428,0
1,-1,667127,230939,1364547,68944,8239,681950,0
1,1,704804,247671,1362228,73640,9023,680671,0
1,-1,667372,230950,1284080,68950,7405,641708,0
1,-1,668093,230498,1217439,68770,7691,608380,0
1,1,727488,252300,1283977,76942,8630,641581,0
1,-1,671978,232802,1310211,69912,8540,654380,0
1,1,706645,247496,1381693,73537,8682,690459,0
1,-1,668710,230297,1329555,68780,7816,664522,0
1,-1,667717,230316,1310618,68802,7673,654482,0
1,-1,668654,230519,1287324,68839,8102,643343,0
1,1,703693,247574,1530426,73527,9580,764832,0
1,1,709698,249169,1400861,74020,9542,699435,0
1,1,705344,247875,1472806,73594,8655,734955,0
1,-1,669896,232102,1323347,69583,7880,661181,0
1,1,710762,248718,1279593,73989,8073,639426,0
1,-1,668739,230926,1319410,69056,7783,659321,0
1,1,708498,247824,1305710,73661,7460,652480,0
1,1,709995,247964,1301255,73713,8574,650141,0
1,-1,669734,231315,1249462,69235,7838,624308,0
1,-1,669124,230741,1348379,69094,7937,673815,0
1,1,708913,247650,1362860,73573,8242,680975,0
1,-1,667103,230161,1323283,68967,7477,661220,0
1,-1,671257,231537,1209132,69388,7264,604219,0
1,-1,664619,230203,1234452,68930,6986,616768,0
1,1,733248,256985,1353770,76383,8735,676518,0
1,-1,665425,230306,1264802,69006,7244,632026,0
1,-1,665189,229871,1332094,68850,7391,665686,0
1,1,707081,248756,1400300,73917,8774,699877,0
1,-1,669489,230749,1404721,69138,8065,702044,0
1,-1,672962,231894,1337815,69692,7729,668418,0
1,1,730019,252484,1589420,76939,9995,794092,0
1,1,728581,252469,1418057,76947,10053,708973,0
1,-1,672254,230654,1326693,69092,7761,662977,0
1,1,709701,247801,1287580,73600,8204,643485,0
1,1,706715,248316,1269085,73782,8463,634108,0
1,-1,668323,230631,1336336,69104,8429,667812,0
1,-1,666051,229350,1357213,68748,8477,678295,0
1,1,707545,247714,1318822,73653,7936,659054,0
1,1,710292,248239,1380150,73714,8614,689777,0
1,1,708392,247864,1345209,73537,7824,672262,0
1,-1,670452,230786,1214581,69110,8550,606843,0
1,-1,669511,230576,1391483,69037,8479,695445,0
1,1,710727,248456,1376685,73700,8658,688008,0
1,-1,670106,230996,1342629,69215,8098,670995,0
1,1,713167,249095,1247515,73850,8443,623295,0
1,-1,673042,230467,1394713,69000,8697,696907,0
1,1,709514,249026,1316995,73935,7615,658131,0
1,-1,667354,232630,1375474,69965,9070,687182,0
1,1,712339,249811,1368955,74398,9057,683836,0
1,1,709648,248453,1306478,73648,8405,652889,0
1,-1,669788,233479,1468277,70253,9051,731951,0
1,1,706566,247678,1319519,73438,8546,659363,0
1,1,714470,250044,1327830,74501,9073,663104,0
1,-1,664037,231221,1405485,69302,8991,702395,0
1,1,711808,248222,1282466,73691,8268,640877,0
1,-1,661742,230168,1298895,68964,7776,649158,0
1,1,709098,248432,1431351,73779,9558,715312,0
1,1,712293,249378,1480850,74019,9593,739691,0
1,-1,667172,231539,1420290,69594,8666,709515,0
1,-1,667642,231314,1240711,69350,8438,619917,0
1,1,712779,248505,1452148,73832,10575,725766,0
1,-1,666453,232046,1346972,69808,8693,672889,0
1,1,712598,249594,1455662,74218,10114,727563,0
1,-1,664690,231005,1322214,69222,7233,660677,0
1,-1,664495,230682,1198590,69059,6801,598934,0
1,-1,667522,231834,1324680,69658,7853,661571,0
1,1,719911,250646,1552790,74595,10370,775498,0
1,1,718806,249905,1538371,74122,10973,768057,0
1,-1,666199,230984,1246553,69171,7309,622947,0
1,-1,669614,232148,1332877,69821,8064,665917,0
1,1,729589,253494,1352847,77091,9471,675953,0
1,1,715653,250165,1463827,74217,9587,731466,0
1,-1,664002,230563,1331861,69066,8305,665443,0
1,1,711941,248738,1311455,73799,8756,655388,0
1,-1,664216,231038,1242386,69146,7276,620740,0
1,-1,666758,231495,1424238,69291,8410,710811,0
1,1,708693,248403,1492673,73732,9321,746093,0
1,-1,663018,230628,1246538,69018,8161,622915,0
1,1,711202,248990,1483094,73820,9497,741176,0
1,-1,668964,232519,1300894,69858,7928,649742,0
1,1,708829,248698,1452460,73871,9749,725461,0
1,-1,686709,235213,1276755,72343,7688,637906,0
1,1,707673,247486,1307160,73451,8342,653329,0
1,-1,668776,231129,1174819,69156,7215,586967,0
1,1,708527,248030,1329721,73605,9445,664193,0
1,-1,664464,230806,1459744,69055,8740,729670,0
1,1,716095,249741,1461555,74315,9950,730228,0
1,-1,687227,235142,1360539,72277,9860,679929,0
1,1,711047,248674,1359162,73828,9668,678878,0
1,-1,670454,232407,1379639,69753,8183,688665,0
1,1,710878,248050,1382393,73710,8800,690788,0
1,-1,667753,231515,1315159,69298,7801,657141,0
1,1,711268,248187,1414794,73765,9046,706937,0
1,1,712579,247930,1361401,73699,9483,680288,0
1,-1,673094,232497,1361710,69766,8383,680302,0
1,-1,669411,230394,1341712,68895,8311,670429,0
1,1,709232,248269,1279215,73598,8281,639278,0
1,-1,664375,231593,1173540,69307,7331,586385,0
1,-1,662188,230565,1244939,68953,7448,621797,0
1,1,706212,247383,1407611,73339,9301,703297,0
1,-1,666414,231085,1314093,69152,7397,656461,0
1,-1,669246,232309,1330603,69733,7912,664712,0
1,-1,669901,232215,1359620,69682,7830,679299,0
1,1,713114,249509,1463940,74409,9420,731469,0
1,1,706514,247351,1402323,73420,8996,700631,0
1,-1,668859,231670,1327434,69354,7920,663375,0
1,-1,688710,234999,1273377,72121,8741,636215,0
1,1,709425,248119,1642800,73650,9989,820976,0
1,-1,664545,231001,1214125,69121,7088,606709,0
1,1,706766,247465,1279646,73338,8266,639626,0
1,-1,662058,229918,1294286,68768,7628,646793,0
1,-1,672155,233298,1329074,70154,8189,663779,0
1,1,714151,247842,1682525,73324,10732,840326,0
1,-1,671500,232952,1337475,69992,7808,667837,0
1,1,711761,247973,1377374,73432,9733,688289,0
1,-1,666470,230600,1303535,69004,6988,651380,0
1,1,712401,248077,1393927,73404,9171,696579,0
1,-1,669329,231027,1467898,69135,8172,733593,0
1,-1,665076,230325,1362313,68860,8804,681240,0
1,1,707316,248057,1347584,73505,8328,673463,0
1,-1,664048,230246,1372137,68823,8693,685583,0
1,1,710220,249750,1395855,74354,8713,697279,0
1,1,710511,248443,1370461,73702,8296,684882,0
1,-1,667446,231220,1535867,69196,7995,767209,0
1,1,705433,247449,1218837,73327,7979,609066,0
1,-1,665630,230608,1320159,69001,7093,659700,0
1,-1,665055,230038,1269148,68826,7463,634224,0
1,1,705555,247230,1365777,73205,8582,682516,0
1,-1,667374,230679,1321631,69036,7565,660411,0
1,1,709565,247155,1307358,73251,9144,653365,0
1,-1,668887,230435,1253061,68919,7971,626178,0
1,1,705063,247912,1374184,73486,8329,686730,0
1,1,707650,247599,1420006,73433,8601,709663,0
1,-1,664562,230073,1309450,68802,7694,654440,0
1,1,708965,247893,1373874,73530,8556,686551,0
1,-1,664912,229723,1315343,68761,7857,657326,0
1,1,715026,249848,1324489,74428,8947,661564,0
1,1,707198,247728,1509770,73494,9347,754406,0
1,1,706820,246930,1478408,73147,9948,738621,0
1,-1,670734,232545,1243000,69820,8006,620581,0
1,-1,667577,230432,1288686,68944,8285,643469,0
1,-1,667679,230489,1338319,68858,8181,668820,0
1,1,717980,250309,1422054,74561,10186,709321,0
1,1,726351,252349,1436301,76767,10862,717326,0
1,-1,673181,230870,1374071,69037,7943,686683,0
1,-1,666296,232261,1316749,69773,8017,657779,0
1,-1,663438,230911,1447635,69092,7944,723412,0
1,1,708943,247586,1602433,73465,11009,800789,0
1,1,757865,261808,1496151,79579,9615,747548,0
1,-1,665665,230930,1160131,69103,7254,579805,0
1,1,707331,247423,1343666,73329,8766,671312,0
1,1,713515,249571,1390513,74223,8900,694769,0
1,1,717127,250482,1400400,74575,9006,699534,0
1,-1,669858,232222,1336510,69687,8142,667714,0
1,1,707701,247196,1539051,73273,9052,769206,0
1,-1,664402,230752,1360934,69028,7486,680184,0
1,1,711794,247850,1619876,73533,10914,809389,0
1,1,705727,246832,1424249,73124,9360,711767,0
1,-1,670980,232630,1335025,69891,7952,666888,0
1,1,713417,249539,1370917,74241,8842,684867,0
1,-1,666214,231989,1397081,69605,7789,697964,0
1,1,708509,247213,1476613,73252,9001,737826,0
1,-1,665502,230765,1255082,69057,7231,627260,0
1,1,709172,247895,1521628,73482,8748,760396,0
1,-1,669174,231958,1411607,69592,8408,705089,0
1,1,711007,247695,1452717,73399,8728,725931,0
1,-1,665173,231013,1327030,69098,7648,663240,0
1,1,711567,247442,1344057,73279,8071,671656,0
1,-1,665568,230743,1257241,69040,7837,628393,0
1,-1,671630,231845,1359182,69388,7428,679049,0
1,1,699018,246786,1377021,72591,8741,687829,0
1,-1,684032,234890,1247364,72183,8880,623183,0
1,-1,667296,230725,1299295,69005,9031,648676,0
1,1,725498,252236,1533688,76240,10182,766451,0
1,-1,666813,231225,1372129,69180,8464,685566,0
1,-1,669322,230624,1260781,68974,7796,630068,0
1,1,703413,248105,1389413,73050,9587,694121,0
1,1,701584,247494,1309153,72850,8719,653948,0
1,1,705063,247891,1451135,73014,9189,724815,0
1,-1,687927,235624,1354348,72443,7811,676816,0
1,1,707920,248672,1315464,73394,8901,656804,0
1,-1,667791,230783,1270080,69042,7491,634650,0
1,1,701528,247376,1309391,73045,8728,653995,0
1,1,703555,247357,1395989,72974,9590,697664,0
1,-1,666862,231801,1230877,69347,7356,615066,0
1,1,702790,247170,1283159,72926,8528,641198,0
1,-1,666269,230562,1264984,68916,6976,632201,0
1,-1,664838,230206,1293738,68791,7040,646424,0
1,1,706308,247433,1401496,73915,9693,700254,0
1,-1,668271,230665,1260771,68936,7255,630060,0
1,1,709329,247674,1332627,73966,9358,665806,0
1,-1,666637,230979,1220397,68995,7306,609814,0
1,1,728645,251892,1431890,77091,10357,715603,0
1,-1,690933,235984,1299838,72340,8451,649468,0
1,1,713507,248583,1278272,74383,8985,638571,0
1,-1,673642,232048,1313801,69496,8369,656383,0
1,-1,666024,231205,1310643,68992,7303,654979,0
1,1,706889,247466,1287070,73847,9374,643157,0
1,1,726988,251872,1415292,77067,9262,707266,0
1,-1,666779,231386,1259380,69070,6785,629455,0
1,-1,669134,231309,1269955,69070,7471,634634,0
1,1,709041,249278,1349776,74709,8356,674220,0
1,1,708379,248030,1350761,74095,8465,675006,0
1,-1,669780,231577,1261736,69172,7448,630546,0
1,-1,666818,230478,1252475,68760,8192,625936,0
1,1,706036,247045,1376180,73674,9938,687790,0
1,-1,687567,235239,1260778,72176,7901,630070,0
1,-1,663346,230263,1339641,68668,7977,669491,0
1,1,707501,247975,1271734,74213,8679,635159,0
1,-1,666930,231086,1279091,69063,7997,639133,0
1,1,710253,248131,1442298,74051,9563,720765,0
1,-1,674990,233666,1446252,70171,8444,722495,0
1,-1,671706,231827,1350276,69265,8876,674780,0
1,1,707729,247230,1444856,73809,8891,722103,0
1,-1,670308,231396,1341141,69108,8259,670237,0
1,1,728141,251708,1519469,77062,10457,759180,0
1,-1,689117,235832,1253012,72334,8001,626037,0
1,1,713514,248356,1367094,74351,8811,683052,0
1,-1,693576,235690,1282801,72425,9059,640936,0
1,1,709500,247693,1283640,73909,8630,641439,0
1,-1,668461,231109,1309223,68993,8770,654249,0
1,1,703693,247705,1383876,73957,9348,691526,0
1,-1,672155,231932,1257665,69398,8117,628409,0
1,1,704114,247099,1368566,73714,9078,683934,0
1,1,706532,247333,1338612,73797,8373,668978,0
1,-1,691049,235964,1318247,72474,8464,658718,0
1,1,706926,247132,1361711,73737,8735,680545,0
1,-1,674906,233429,1483307,70185,9131,740730,0
1,1,710203,248737,1583476,74541,9798,789579,0
1,-1,672922,231420,1497150,69288,9142,747860,0
1,1,711172,248283,1499966,74161,10788,749280,0
1,-1,669277,231437,1495997,69214,9657,746694,0
1,1,727108,252060,1429266,77177,9886,714251,0
1,-1,671827,231451,1412489,69036,8880,705794,0
1,1,706995,247850,1358956,73994,8427,678997,0
1,-1,672232,232056,1672097,69214,9430,834771,0
1,1,707468,247544,1406413,73902,8558,702853,0
1,-1,674502,232382,1464377,69301,9157,731832,0
1,-1,676324,233191,1398566,69786,9546,698341,0
1,1,726453,251523,1437432,76966,9055,718319,0
1,-1,673441,231592,1341226,69063,9256,671012,0
1,-1,672713,232181,1448785,69269,8649,723774,0
1,1,712575,248137,1329902,74092,8717,664492,0
1,-1,668161,232164,1433509,69296,9050,716263,0
1,1,709077,246050,1376454,73397,8792,687833,0
1,1,705734,246987,1381875,73739,8209,690557,0
1,1,705251,247239,1403434,73637,9006,701338,0
1,-1,668411,231668,1236953,69163,8048,618136,0
1,1,709283,247730,1308665,73858,8413,654032,0
1,1,707632,247828,1311967,73811,8533,655645,0
1,-1,671215,232818,1328794,69695,8039,663909,0
1,-1,675862,233883,1404813,70021,8617,701810,0
1,1,708339,247204,1412556,73618,8835,705942,0
1,-1,672966,233288,1239533,69876,8186,619265,0
1,1,711110,247401,1331800,73653,8923,665332,0
1,1,706466,247376,1355133,73815,9399,677208,0
1,1,706172,246911,1561262,73625,9232,779200,0
1,-1,670740,231193,1320217,68953,9002,659067,0
1,1,710325,247635,1448501,73672,9783,723931,0
1,1,734193,252166,1691074,77050,11266,845158,0
1,-1,666042,231092,1375045,69017,8496,687264,0
1,-1,690181,236494,1367002,72592,8700,683080,0
1,-1,675453,233786,1365604,70215,8941,682243,0
1,-1,669832,231837,1243522,69203,7776,621441,0
1,1,715585,248472,1382504,74374,9539,691093,0
1,1,717365,248721,1478344,74458,10802,738231,0
1,1,705919,247992,1357170,74025,9669,678138,0
1,1,706724,247815,1423153,74084,9193,711216,0
1,-1,672852,231913,1402217,69260,9115,700715,0
1,-1,672633,231667,1391441,69166,8641,695341,0
1,1,706444,248407,1368272,74206,8161,683759,0
1,1,731605,252699,1414891,77358,10102,707080,0
1,-1,664608,230536,1379445,68844,8266,688865,0
1,1,709665,249160,1491330,74379,9593,745287,0
1,-1,668030,231085,1315529,69053,9054,657408,0
1,1,710133,248015,1442764,74149,9593,721005,0
1,-1,668200,231571,1344725,69189,7990,671961,0
1,1,712791,248480,1452926,74376,9256,726080,0
1,-1,668041,230747,1376896,68947,8569,688004,0
1,1,729439,252528,1454862,77444,9778,727004,0
1,-1,673827,232581,1477326,69766,9390,736773,0
1,-1,672816,233278,1481870,70044,9792,739332,0
1,1,710112,248518,1396360,74165,8743,697853,0
1,-1,666694,230434,1553181,68803,9216,776150,0
1,1,716028,250242,1412485,75022,8764,705571,0
1,1,713614,248609,1373210,74207,9186,686360,0
1,-1,667424,230923,1346133,69055,9141,672456,0
1,1,713693,249134,1599268,74417,9517,799197,0
1,-1,669777,230825,1317348,69013,8663,658277,0
1,-1,670416,230025,1274047,68760,7828,636591,0
1,1,706246,248478,1345329,74136,8669,672344,0
1,-1,664672,230622,1349320,68833,7963,674340,0
1,-1,670481,232207,1334745,69598,8524,666903,0
1,1,709759,248779,1426261,74277,9258,712638,0
1,1,712242,248556,1398754,74103,8658,698935,0
1,1,714818,249892,1390449,74552,8760,694843,0
1,-1,664375,230295,1343077,68718,7991,671142,0
1,-1,667300,230553,1259539,68825,8436,629415,0
1,1,709556,248564,1488529,74021,9157,743231,0
1,1,714928,250068,1422882,74696,9364,710847,0
1,-1,669916,230785,1271191,69003,8256,635172,0
1,1,714037,249320,1394163,74286,9041,696748,0
1,1,730560,253293,1601398,77431,10178,800234,0
1,-1,664126,229786,1241915,68647,7675,620707,0
1,-1,669083,231443,1312205,69347,7821,655341,0
1,1,709678,247865,1284347,73910,7625,641839,0
1,-1,669094,231826,1333595,69540,8131,666238,0
1,-1,668992,230969,1348181,69196,8966,673852,0
1,1,708420,247801,1364013,73874,8855,681720,0
1,1,712017,248281,1400373,74044,9445,699845,0
1,-1,669943,230307,1367133,68755,9489,683007,0
1,-1,666067,230354,1391999,68778,9394,695276,0
1,1,712666,247749,1442446,73865,9277,720732,0
1,1,705130,248088,1435361,73953,9361,717222,0
1,-1,689096,235606,1342004,72308,9452,670943,0
1,1,730052,253101,1438625,77427,10581,718986,0
1,-1,665911,230211,1322956,68679,7570,661125,0
1,1,708674,247956,1423994,73910,9418,711663,0
1,1,712123,248884,1391667,74256,9213,695276,0
1,-1,674736,232140,1320855,69519,8450,659945,0
1,-1,669549,230796,1192602,68884,8159,595999,0
1,1,711052,248077,1283257,73987,8120,641276,0
1,1,716008,249333,1358613,74345,8863,678988,0
1,-1,670199,231092,1584925,68860,9163,791679,0
1,1,716466,249764,1398785,74572,8137,699119,0
1,-1,672644,231338,1465913,68941,9600,731668,0
1,1,714472,248629,1312707,74136,9311,655967,0
1,-1,668900,230966,1366871,68828,8705,683034,0
1,-1,672176,232550,1411067,69496,9126,705210,0
1,-1,672643,231442,1257855,68943,8247,628555,0
1,1,733695,252875,1613190,77395,11267,806324,0
1,-1,690981,235777,1467080,72160,9056,733359,0
1,1,715568,248380,1502294,74157,9754,750754,0
1,-1,676571,233012,1370957,69689,8664,684932,0
1,1,719168,250744,1372556,75039,9343,685634,0
1,1,720320,250409,1410586,74957,9511,704697,0
1,-1,677101,232722,1328766,69513,8398,663827,0
1,1,714057,247873,1401626,73807,9215,700382,0
1,-1,672690,230303,1374657,68604,7605,686898,0
1,1,711129,248796,1454602,74210,9388,726822,0
1,-1,665192,230681,1264230,68729,7659,631800,0
1,-1,670056,231425,1372911,69143,8443,685941,0
1,1,712763,249418,1410852,74577,9274,704801,0
1,-1,667298,230636,1416399,68847,7965,707745,0
1,1,711016,247498,1368310,73758,8878,683658,0
1,1,732843,252249,1438987,77073,9370,719000,0
1,-1,666710,231244,1310773,69154,7681,654910,0
1,1,709812,247514,1271958,73712,8938,635521,0
1,-1,692436,239322,1360880,71376,8099,680118,0
1,-1,689141,235219,1299478,72133,8777,649242,0
1,1,713913,247736,1458603,73885,9572,728013,0
1,1,707218,247248,1369893,73721,8651,684639,0
1,-1,661887,229584,1335764,68411,7387,667517,0
1,1,708835,247094,1352492,73807,8798,675896,0
1,1,711558,247271,1599010,73846,9222,798181,0
1,1,711973,247400,1410981,73997,8729,705123,0
1,-1,664867,230324,1312939,68689,7442,656098,0
1,-1,669452,230642,1360197,68864,8212,679722,0
1,1,712865,247669,1440145,74079,9269,719608,0
1,-1,667508,230566,1347997,68830,7393,673638,0
1,1,712177,247004,1481534,73806,9428,739763,0
1,-1,672291,231815,1303408,69404,7890,651186,0
1,-1,669531,232122,1367160,69566,7651,682991,0
1,1,700855,247115,1276460,73896,7958,637858,0
1,-1,686802,235157,1266545,72131,8469,632719,0
1,1,704950,246731,1280496,73724,8312,639753,0
1,-1,665537,230592,1217133,68851,7496,608165,0
1,1,707008,248130,1378048,74215,9035,688668,0
1,-1,666411,229973,1348780,68597,7584,674057,0
1,-1,667664,229969,1396337,68583,8960,697831,0
1,1,705705,247472,1385404,73968,8733,692343,0
1,1,707294,248401,1433976,74500,8125,716461,0
1,1,711130,249029,1399169,74777,9218,698935,0
1,-1,686114,234299,1329754,71792,8768,664572,0
1,1,706969,247499,1310617,74018,8457,654967,0
1,1,709115,247758,1253870,74124,8153,626628,0
1,-1,666714,229862,1359274,68552,8346,679329,0
1,1,703949,247104,1239745,73904,8812,619468,0
1,-1,670944,230427,1346946,68749,8965,673031,0
1,-1,672705,232226,1392300,69434,9820,695136,0
1,1,706116,247137,1261931,73748,8038,630734,0
1,1,714481,249772,1350851,74890,8783,674637,0
2,1,782149,270070,1493442,81617,10248,746503,0
2,-1,715258,248237,1292000,73596,7676,645627,0
2,1,758545,266127,1390726,78547,8994,695060,0
2,1,783669,271165,1547674,81973,9651,773408,0
2,-1,718056,248627,1404289,73753,7603,701788,0
2,-1,716941,247932,1410352,73501,8004,704760,0
2,1,761312,266061,1428431,78509,8535,713880,0
2,1,761364,266267,1429910,78609,8788,714725,1
2,1,752961,263823,1558908,77789,8966,779074,0
2,-1,719010,248625,1280921,73720,7830,640165,0
2,1,705292,247097,1396827,73395,8389,698022,0
2,-1,719976,248339,1448081,73636,8828,723766,0
2,-1,726300,250138,1421555,74412,9169,710298,0
2,1,705356,246925,1459291,73168,8750,729298,0
2,1,715270,250114,1492990,74632,9655,745859,0
2,-1,666736,231792,1415350,69533,7467,707136,0
2,-1,663861,229726,1250452,68611,7237,624940,0
2,-1,668225,230266,1448249,68683,7911,723789,0
2,1,713099,249007,1495711,74080,9928,747390,0
2,-1,665401,230089,1261287,68622,7641,630269,0
2,1,714296,249592,1399084,74380,9317,698889,0
2,-1,687598,234689,1459872,71960,8690,729435,0
2,-1,665453,229916,1261502,68761,8593,630363,0
2,1,724506,252274,1380063,76875,8824,689681,0
2,-1,665188,229943,1338044,68710,7562,668702,0
2,1,702893,247563,1430414,73559,8153,714788,0
2,-1,665992,230009,1247520,68666,7385,623496,0
2,-1,666260,230166,1224590,68772,7660,611982,2
2,-1,671437,231069,1278123,69027,8288,638729,0
2,1,704965,247119,1257489,73385,7817,628373,0
2,1,705455,247448,1356802,73534,8340,677892,0
2,-1,668174,229674,1365422,68614,7528,682347,0
2,-1,668570,230240,1305159,68885,7222,652277,0
2,1,702905,247107,1369807,73404,8294,684516,0
2,-1,669240,232740,1298067,69920,8235,648431,0
2,-1,662275,230733,1221307,68984,7016,610177,0
2,1,707609,247326,1387688,73489,8443,693492,0
2,1,710634,247882,1436973,73715,8572,718087,0
2,-1,661770,229372,1318198,68543,7964,658791,0
2,1,730002,252359,1369169,76906,9385,684239,0
2,-1,662275,230122,1362634,68792,7451,680834,0
2,1,709448,247697,1373427,73526,8104,686397,0
2,-1,684595,234320,1339542,71999,8379,669442,0
2,1,714008,248303,1384256,73710,9028,691712,0
2,-1,664447,230056,1396776,68722,8121,698115,0
2,1,711879,248379,1248902,73691,8820,624105,0
2,-1,665099,230284,1193541,68833,7551,596462,0
2,1,732279,252514,1351797,76901,10051,675374,0
2,1,706526,247042,1361366,73321,8844,680381,0
2,-1,667068,231923,1392954,69652,7886,695874,0
2,1,709112,247441,1224168,73537,7889,611783,0
2,1,708820,247807,1278723,73718,8362,639183,0
2,-1,666253,231075,1331582,69297,8262,665389,0
2,-1,666526,230416,1278206,68933,7879,638717,0
2,1,709370,248253,1404173,73841,8419,701739,0
2,1,729403,252154,1293333,76956,9334,646209,0
2,1,713638,248969,1342354,74289,9249,670663,0
2,-1,673686,232932,1350325,69940,8266,674639,0
2,1,709486,247705,1341649,73722,8870,670475,0
2,-1,671602,232494,1341846,69902,8495,670201,0
2,1,711252,249020,1441195,74342,8967,720004,0
2,-1,665491,230337,1182972,68917,7201,591108,0
2,1,711959,248038,1285527,73836,8737,642403,0
2,-1,664085,229555,1215856,68555,7825,607655,0
2,-1,667110,232053,1333022,69700,8163,665636,0
2,1,712617,247395,1516879,73577,10232,757674,0
2,-1,662778,229840,1354500,68695,8245,676915,0
2,1,702982,248202,1458533,73861,9549,728757,0
2,-1,667512,231002,1342850,69295,8202,670858,0
2,1,704851,247733,1383281,73717,10070,690840,0
2,-1,672822,232771,1465362,69963,8314,732082,0
2,1,705929,247720,1295662,73662,8892,647445,0
2,-1,664431,229896,1351174,68730,8667,675220,0
2,1,705749,247838,1283617,73707,8568,641465,0
2,-1,665824,230625,1244195,68904,7692,621774,0
2,1,727528,252140,1319938,76961,8649,659601,0
2,-1,671052,230629,1392885,68984,8993,696084,0
2,1,707725,247579,1398241,73616,8572,698722,0
2,-1,666440,230612,1365510,68958,7173,682379,0
2,-1,667339,230276,1326428,68738,7850,662841,0
2,1,706426,248351,1304192,73887,9246,651754,0
2,-1,669956,230179,1318881,68710,7981,659122,0
2,1,705675,248203,1280322,73780,8170,639769,0
2,-1,676399,233958,1375524,70291,8950,687084,0
2,1,709181,249419,1660659,74328,9852,829425,0
2,-1,671195,231690,1315831,69206,7880,657526,0
2,1,709532,249423,1429404,74327,9070,713448,0
2,-1,669095,230429,1353528,68817,8016,676482,0
2,1,707689,248083,1382443,73737,8358,690859,0
2,-1,669053,233029,1352534,69915,8304,675640,0
2,-1,668399,230836,1285121,68864,7480,642166,0
2,1,705883,248219,1296794,73732,8651,647987,0
2,-1,670385,232220,1324756,69483,7974,661810,0
2,-1,669506,231057,1184426,68956,7613,591924,0
2,1,705474,247678,1225688,73546,8031,612429,0
2,-1,665917,230861,1286049,68942,7772,642658,0
2,1,706605,247787,1360709,73661,8324,680002,0
2,-1,670215,231467,1233904,69223,7604,616527,0
2,-1,667284,230483,1335916,68903,8352,667554,0
2,-1,669775,231323,1221545,69134,7615,610419,0
2,1,706436,247282,1332342,73383,8883,665859,0
2,1,727918,252988,1534703,77134,11087,766597,0
2,-1,665834,230530,1372843,68883,7556,686118,0
2,1,710479,248159,1262691,73755,8269,630959,0
2,1,707867,247807,1370202,73683,8460,684804,0
2,1,711716,249664,1403770,74385,9013,701310,0
2,-1,662477,229357,1280773,68545,7620,639973,0
2,-1,690174,235062,1263952,72228,9150,631634,0
2,1,710625,247943,1446219,73661,9207,723752,0
2,-1,670962,232208,1333844,69799,7802,666274,0
2,1,709120,247914,1364961,73678,8820,682135,0
2,-1,670395,231322,1281603,69276,7052,640489,0
2,-1,671470,231345,1308600,69503,7458,653548,0
2,-1,663900,230254,1326962,68939,8089,663205,0
2,1,707467,248095,1281758,73697,7968,640513,0
2,-1,666569,229918,1351102,68777,7715,675241,0
2,1,709619,248644,1414036,73924,8847,706657,0
2,-1,665229,230468,1337663,69050,7207,668455,0
2,-1,667826,230437,1368432,69002,7910,683846,0
2,-1,668160,230339,1243000,69003,7826,621145,0
2,1,706804,247902,1360371,73698,8631,679762,0
2,1,711191,249469,1478799,74277,9545,738473,0
2,-1,669788,229993,1236205,68884,6879,617822,0
2,1,708005,247284,1442710,73453,8806,720994,0
2,1,704834,247921,1313938,73629,8796,656637,0
2,-1,669998,231703,1236516,69439,8158,617845,0
2,1,705457,247036,1319149,73325,8084,659286,0
2,-1,669343,231002,1269049,69173,7712,634238,0
2,1,708420,247941,1322329,73664,8383,660836,0
2,-1,690125,235374,1230701,72473,9088,614680,0
2,1,707880,248247,1283764,73734,7841,641451,0
2,-1,673138,231665,1372966,69603,8595,685978,0
2,1,709313,247907,1282357,73570,8058,640856,0
2,-1,692794,235407,1297255,72444,9137,648179,0
2,1,714866,249872,1281423,74407,8167,640189,0
2,-1,691660,234999,1393233,72295,10162,695799,0
2,1,707079,248908,1424626,73849,8056,712024,0
2,-1,660877,230658,1253391,69055,8342,625886,0
2,1,707396,248274,1407338,73716,8236,703285,0
2,1,710123,248372,1412836,73627,9100,706048,0
2,-1,659886,230092,1323729,68808,8692,661599,0
2,1,709322,249118,1406401,73904,8687,702850,0
2,1,712244,249432,1324668,74029,8715,661969,0
2,-1,666745,231863,1439480,69665,9194,719250,0
2,1,714131,249985,1430232,74384,9223,715259,0
2,-1,665184,231164,1326167,69462,7788,662563,0
2,1,711143,249377,1454120,74267,9838,726672,0
2,1,712970,248565,1445391,73822,9809,721763,0
2,-1,663078,230633,1301307,69058,7881,650574,0
2,-1,685608,235428,1294891,72456,8660,647025,0
2,1,709914,248450,1658098,73734,10404,828340,0
2,-1,664326,231383,1347560,69339,7296,673431,0
2,1,715371,248585,1454253,73871,10876,726751,0
2,-1,666275,231984,1330869,69728,7759,664696,0
2,1,715935,248669,1503509,73656,10100,751376,0
2,-1,665890,231589,1309253,69569,7637,654124,0
2,-1,663389,230563,1341006,68960,7713,670137,0
2,1,718610,250317,1485538,74428,10315,741325,0
2,-1,670557,232587,1308023,69959,7386,653591,0
2,-1,688691,235446,1276896,72443,8276,638085,0
2,1,709715,249261,1374026,73905,9729,686652,0
2,1,709872,248455,1313739,73569,8972,656547,0
2,-1,683165,234888,1289090,72235,9114,644177,0
2,1,709630,248074,1250983,73542,8220,625201,0
2,-1,666435,232365,1315427,69873,7985,657101,0
2,1,711673,249091,1366614,73925,9029,682799,0
2,-1,696366,241369,1434946,72434,9068,716917,0
2,-1,664590,229837,1212203,68772,7163,605796,0
2,1,713290,248575,1395323,73681,9107,697013,0
2,-1,666274,231190,1255150,69192,8051,627212,0
2,1,706796,247758,1456184,73545,8894,727692,0
2,-1,668848,231417,1237166,69280,7632,618316,0
2,1,710735,249112,1374329,74108,10021,686444,0
2,1,709087,247614,1384422,73488,8923,691811,0
2,-1,668626,231530,1319624,69411,7684,659222,0
2,-1,664708,230578,1376854,68955,8146,688160,0
2,1,709373,247142,1502286,73290,10078,750419,0
2,-1,664640,230451,1394574,68888,8730,696526,0
2,1,711279,249233,1340248,74165,9531,669404,0
2,-1,665923,230655,1363619,68974,7943,681482,0
2,1,710557,247551,1400860,73509,8859,699988,0
2,-1,665885,230054,1429160,68715,8307,713713,0
2,1,710033,248297,1579345,73822,10750,789273,0
2,1,714679,248912,1307049,73961,9465,653060,0
2,-1,668823,231214,1228742,69126,7633,613919,0
2,-1,669078,230621,1350362,68875,8804,674823,0
2,1,713413,249846,1484874,74443,9191,741899,0
2,-1,662620,230635,1254715,69021,7586,626348,0
2,1,709864,248892,1435846,73866,9336,717516,0
2,-1,670184,232975,1262541,69935,8018,630622,0
2,-1,663944,230206,1364386,68831,7175,681866,0
2,-1,685446,235348,1270427,72335,7978,634840,0
2,-1,665028,230716,1231711,69056,7454,615543,0
2,1,708277,247919,1358392,73674,8279,678865,0
2,1,707344,247936,1385364,73661,8885,692419,0
2,-1,671320,233059,1395367,70018,8123,697135,0
2,-1,666987,230526,1330077,68969,8050,664604,0
2,1,713865,249013,1537832,74104,10035,768216,0
2,-1,664691,231486,1365888,69276,7274,682552,0
2,1,708365,247469,1377352,73337,8976,688365,0
2,-1,663346,230478,1262640,68919,7817,631023,0
2,-1,686052,234797,1289983,72101,8425,644721,0
2,1,716037,249719,1474972,74123,10403,736383,0
2,-1,664107,230574,1299827,68940,7833,649565,0
2,1,711963,248334,1410079,73514,9613,704690,0
2,1,717663,249822,1471082,74144,9620,735054,0
2,-1,665258,230441,1242350,68951,7662,620784,0
2,-1,668866,231026,1288546,69126,7475,643868,0
2,1,728904,253014,1289626,76813,9522,644489,0
2,-1,667862,232355,1396399,69724,8370,697651,0
2,-1,668441,232308,1476871,69706,8904,737717,0
2,1,707742,247457,1401223,73341,8576,700152,0
2,1,710553,249043,1372052,74070,7989,685516,0
2,-1,664181,230536,1550202,68865,8286,774621,0
2,1,708377,249041,1285630,74032,8930,642334,0
2,-1,665580,230530,1217677,68923,7190,608606,0
2,1,708932,247826,1301072,73552,8235,650162,0
2,-1,667940,231061,1219830,69149,7568,609516,0
2,1,729613,251952,1335654,76626,9334,667308,0
2,-1,667317,231009,1319350,69089,7879,659287,0
2,-1,673972,232772,1326759,69934,8140,662851,0
2,1,713534,249329,1328011,74136,8497,663543,0
2,1,710226,248680,1265700,73770,8205,632467,0
2,-1,663580,230337,1228773,68826,7532,613890,0
2,1,706389,247471,1366010,73357,8461,682704,0
2,-1,666261,230698,1327767,68935,7983,663424,0
2,1,736544,257615,1378674,76582,8450,688801,0
2,1,705583,247584,1291800,73386,8047,645635,0
2,1,708433,247885,1308468,73519,8520,653843,0
2,-1,668106,230995,1246965,69161,8692,622748,0
2,-1,666354,230192,1247287,68815,7782,623305,0
2,1,712980,248984,1307762,74109,10090,653046,0
2,-1,690060,235214,1294242,72277,8738,646731,0
2,1,711083,247198,1413728,73296,10088,705834,0
2,-1,673345,231592,1315160,69321,8098,657229,0
2,-1,684366,235148,1280000,72286,7906,639597,0
2,1,708048,246932,1506060,73163,9895,752627,0
2,-1,662598,231103,1337034,69096,7157,668219,0
2,1,706899,247252,1435514,73329,9000,717401,0
2,-1,667442,231526,1389672,69287,7275,694530,0
2,1,709803,247628,1647595,73460,11122,823671,0
2,-1,664282,230646,1241516,68988,7418,620348,0
2,1,711099,247573,1474382,73368,9312,736614,0
2,1,732291,252835,1498219,76936,9634,748619,0
2,1,712375,247970,1428296,73549,8876,713718,0
2,-1,670421,232568,1337823,69874,8166,668235,0
2,1,708832,247110,1574394,73258,11287,786838,0
2,1,706148,247468,1443478,73338,9376,721357,0
2,-1,666239,230622,1327118,68967,7537,663239,0
2,1,710342,247390,1344855,73355,9033,671991,0
2,-1,668940,230813,1352495,69070,7438,675847,0
2,1,709151,247307,1381636,73295,8790,690330,0
2,-1,666193,231304,1348182,69186,7903,673933,0
2,1,711715,247437,1472611,73393,9585,735856,0
2,-1,664130,230389,1291918,68817,8284,645672,0
2,1,710410,247655,1663679,73420,10299,831314,0
2,-1,662834,230483,1290154,68892,7681,644566,0
2,1,709227,247114,1442315,73154,8380,720637,0
2,-1,667578,230699,1387367,68944,8752,692581,0
2,-1,691145,235562,1352074,72392,9582,675641,0
2,1,702531,247860,1677712,73084,10259,838492,0
2,-1,664004,231045,1222962,69107,7926,611119,0
2,-1,666707,230921,1289865,68979,8313,644512,0
2,-1,664151,230379,1363695,68843,7929,681537,0
2,1,705095,249037,1259938,73586,8876,629355,0
2,-1,665385,230662,1337393,69041,7805,668208,0
2,1,707546,247672,1400590,72905,9194,700036,0
2,1,704659,248163,1439990,73117,9651,719757,0
2,1,726309,252321,1377369,76255,9973,688433,0
2,-1,666129,230865,1282228,69106,7223,640790,0
2,1,708246,248219,1505958,73090,8881,752592,0
2,1,700939,247256,1340059,72942,9409,669412,0
2,-1,666614,231218,1319810,69419,7607,659211,0
2,1,722266,251743,1443489,76177,10046,721267,0
2,-1,669414,230680,1184386,68965,7955,591815,0
2,1,703255,247781,1307322,73146,9451,652888,0
2,-1,669816,232118,1366914,69612,7844,682906,0
2,-1,673344,233315,1324672,70127,7776,661748,0
2,1,708515,248126,1287130,73291,7996,643099,0
2,-1,670772,231896,1379689,69563,7169,689329,0
2,1,709118,248165,1301837,74079,10152,650278,0
2,-1,666962,230948,1326835,68984,7884,663147,0
2,1,708993,247987,1390556,74000,9400,694889,0
2,-1,666709,230331,1316593,68760,7318,657938,0
2,1,709004,247238,1340246,73763,8763,669822,0
2,-1,669604,230725,1233176,68856,8123,616271,0
2,-1,682846,235268,1268772,72195,7804,633944,0
2,1,711005,249229,1273149,74617,8959,636048,0
2,-1,664484,230889,1251439,68952,6947,625280,0
2,1,706249,247563,1289158,73837,7843,644230,0
2,-1,665671,230637,1250457,68896,7102,624763,0
2,1,706065,247020,1366287,73678,7936,682538,0
2,-1,666202,230440,1275688,68815,7818,637533,0
2,1,707237,247699,1274617,73916,7803,637035,0
2,-1,666186,231029,1228483,68914,6831,613841,0
2,1,708396,248531,1386066,74301,9188,692160,0
2,-1,665677,230732,1344921,68836,7661,672137,0
2,-1,695136,236450,1419845,72557,8808,709498,0
2,1,705622,247843,1452470,73896,9787,725954,0
2,-1,670083,232095,1334890,69533,7847,666965,0
2,1,726851,251541,1505690,77031,10734,752433,0
2,-1,689442,235751,1281080,72358,8536,640167,0
2,-1,666570,230360,1300240,68770,7986,649476,0
2,1,713362,249443,1300605,74695,8587,649675,0
2,-1,664886,229455,1288520,68445,7272,643908,0
2,-1,665827,230580,1179131,68749,7072,589179,0
2,1,708837,247752,1380320,73931,8918,689828,0
2,1,729890,251473,1459878,77010,9833,729537,0
2,-1,669744,230281,1226913,68811,7642,613095,0
2,1,709728,247565,1418047,73861,8709,708737,0
2,-1,666144,230943,1311722,69083,8611,655185,0
2,-1,671213,231826,1313177,69382,8860,655883,0
2,1,706777,247462,1286713,73924,8261,643001,0
2,1,710806,249865,1366142,74857,9513,682497,0
2,1,711288,249949,1232320,74974,7645,615498,0
2,-1,670493,231919,1395347,69388,8166,697347,0
2,1,706206,247526,1312483,73908,8406,655942,0
2,-1,694497,236605,1432693,72750,10308,716523,0
2,1,706392,247370,1456138,73841,10226,727740,0
2,-1,672063,231423,1426988,69256,8558,712954,0
2,1,708251,247644,1313263,73898,8048,656354,0
2,-1,671702,231819,1363773,69365,9612,681339,0
2,-1,694635,237526,1379407,72928,9303,689365,0
2,1,706095,247321,1332582,73810,9220,666059,0
2,-1,672632,232114,1384518,69222,8727,691362,0
2,1,707938,248094,1440349,74061,9124,719790,0
2,1,730443,252178,1423662,77221,8748,711534,0
2,-1,674269,232641,1364855,69425,8390,682062,0
2,-1,678076,234006,1513982,70110,9825,756178,0
2,1,710331,248082,1353029,74068,9423,676107,0
2,-1,672262,231547,1483621,69105,9183,740814,0
2,-1,676735,232046,1293340,69251,8702,646072,0
2,1,710493,247762,1377563,73960,8260,688429,0
2,1,710968,247683,1336962,73907,8001,668190,0
2,-1,668654,232221,1570492,69300,9735,784508,0
2,1,703348,246582,1340141,73514,8230,669779,0
2,-1,668433,232122,1357421,69229,8560,678375,0
2,1,708402,247196,1323525,73691,8646,661386,0
2,1,707796,247796,1359520,73905,8545,679370,0
2,1,713086,248366,1299759,74035,9247,649562,0
2,-1,667694,231520,1313531,68989,7981,656422,0
2,-1,691604,236923,1288952,72655,8382,644239,0
2,1,732403,252536,1481910,77196,11038,740885,0
2,-1,671568,232476,1209524,69433,7842,604366,0
2,1,714591,248318,1472818,74031,9206,735508,0
2,1,710709,249403,1432125,74741,9888,715266,0
2,1,708367,247812,1421936,73934,9243,710277,0
2,-1,675787,233767,1242515,70152,8494,620607,0
2,1,709331,247325,1511018,73694,9842,755094,0
2,1,712933,248205,1467856,73958,9678,733565,0
2,-1,690610,236681,1376707,72685,9026,687944,0
2,-1,667457,231496,1374159,69179,8567,686771,0
2,-1,671396,231456,1429566,69209,8614,714402,0
2,-1,670574,231397,1314255,69024,9255,656747,0
2,1,715270,248051,1354491,74058,9497,676875,0
2,1,715373,248054,1417538,74047,10338,708157,0
2,1,707158,248982,1448165,74461,11091,723277,0
2,1,708047,248143,1448905,74133,9590,724123,0
2,-1,671282,231666,1361576,69172,8853,680426,0
2,-1,672216,231344,1278555,69113,8601,638882,0
2,1,712652,249265,1395776,74615,9457,697356,0
2,1,709799,248238,1382620,74150,9118,690911,0
2,1,711537,249339,1437776,74485,8579,718531,0
2,-1,687148,235692,1334739,72329,8910,667205,0
2,-1,686591,235670,1363596,72369,9474,681198,0
2,1,715420,249514,1361599,74713,9533,680351,0
2,-1,665841,230876,1258817,69079,7432,628987,0
2,1,716665,249819,1327471,74769,9673,663350,0
2,-1,689195,235719,1297144,72376,8862,648209,0
2,-1,665769,230355,1396122,68822,8910,697062,0
2,1,709934,248930,1359060,74409,8972,679108,0
2,1,710700,248942,1354613,74425,8980,676985,0
2,-1,687444,235447,1360401,72244,9658,680092,0
2,1,710920,248648,1408412,74272,8653,703856,0
2,-1,668780,231030,1548690,69039,10557,773929,0
2,1,713475,248823,1401173,74292,8761,700059,0
2,-1,662719,229439,1305405,68583,8405,652279,0
2,1,712086,248775,1493057,74299,9979,746467,0
2,-1,672157,232221,1310534,69701,8652,654430,0
2,1,715230,249176,1281715,74442,8446,640501,0
2,-1,674053,232002,1324021,69594,8517,661549,0
2,-1,666291,230841,1213118,68962,7847,606152,0
2,-1,665926,230874,1346885,68850,8225,672961,0
2,1,731454,252927,1460624,77404,9312,729936,0
2,1,731513,253626,1454800,77603,9171,726854,0
2,-1,668511,232031,1414418,69516,8974,706253,0
2,1,711311,248911,1405698,74287,9230,702454,0
2,-1,687952,234830,1336758,71999,9480,668122,0
2,1,762933,263175,1524543,80329,10646,761929,0
2,1,713089,248339,1431995,73879,9115,715684,0
2,-1,665983,229617,1315105,68605,8591,657077,0
2,1,712443,248586,1541312,74023,9310,770325,0
2,-1,669691,231426,1360041,69371,8345,679409,0
2,1,716692,249296,1431106,74505,9352,714972,0
2,-1,664928,230001,1276579,68754,7737,637975,0
2,1,710017,248603,1340548,74156,7811,669792,0
2,-1,668767,230365,1359761,68853,9300,679223,0
2,-1,666071,230118,1289893,68820,7905,644195,0
2,1,714150,248459,1488762,74126,9135,743914,0
2,1,710062,248011,1395279,73977,8181,697261,0
2,-1,670744,231104,1555997,69065,9720,775087,0
2,-1,665226,230684,1301141,68919,8905,650074,0
2,1,713978,248366,1364598,74089,9491,681837,0
2,-1,666725,230838,1320432,68991,8228,660251,0
2,1,721621,250480,1378634,75005,9078,688303,0
2,1,711331,249888,1420928,74687,9768,709733,0
2,-1,670870,232204,1349039,69594,8114,673944,0
2,1,729367,252856,1528754,77332,10288,764014,0
2,1,713598,249755,1367298,74702,9137,682761,0
2,-1,670260,230760,1193303,68973,7907,596264,0
2,-1,671447,232160,1429165,69512,8803,713272,0
2,1,712483,249084,1302873,74285,8500,651014,0
2,1,716609,249705,1410265,74471,9160,704832,0
2,-1,668493,230396,1492049,68598,9472,745295,0
2,1,717510,250009,1317261,74636,7473,658120,0
2,-1,669756,230457,1375362,68601,9763,687220,0
2,1,714930,248879,1288658,74258,9191,643796,0
2,-1,667944,230866,1370589,68741,9771,684951,0
2,-1,670137,230543,1349950,68586,8592,674707,0
2,-1,668448,230411,1340834,68609,8294,670036,0
2,1,713468,248918,1404511,74329,8591,701855,0
2,-1,669180,231148,1456277,68861,8510,727824,0
2,1,713103,248603,1428428,74247,9655,713787,0
2,-1,671098,231030,1263495,68831,8208,631433,0
2,1,714614,248646,1439058,74234,9246,719019,0
2,1,712990,247782,1367768,73814,9072,683539,0
2,-1,672436,231256,1269708,68889,8153,634549,0
2,1,738218,253908,1545368,77618,10953,772111,0
2,-1,675114,231420,1388100,68962,8038,693735,0
2,1,716768,248538,1474535,74118,10284,736825,0
2,-1,665019,231035,1291688,68909,8076,645445,0
2,1,710295,247818,1449002,73814,9203,724005,0
2,-1,668344,231573,1334090,69035,8409,666687,0
2,-1,667817,231041,1350237,68886,7828,674623,0
2,1,712078,248605,1502166,74104,9401,750371,0
2,1,710698,247697,1411366,73790,9507,705250,0
2,-1,667095,230752,1238423,68918,7080,618761,0
2,1,715652,248228,1399676,74001,9783,699580,0
2,-1,671477,232141,1345943,69581,7982,672442,0
2,-1,667229,229897,1215603,68565,7249,607464,0
2,1,714896,248440,1399919,74075,9866,699597,0
2,1,710526,247823,1448554,73939,10345,723818,0
2,-1,665411,230678,1240548,68851,8005,619885,0
2,1,708994,247525,1235500,73992,8063,617338,0
2,1,711199,247840,1544448,74078,9287,771725,0
2,1,715293,249172,1373988,74766,8592,686456,0
2,-1,662337,229531,1223438,68468,7219,611309,0
2,-1,665968,229787,1206008,68530,7514,602672,0
2,1,716404,249445,1465364,74896,9939,731971,0
2,-1,669737,231235,1307294,69240,7579,653090,0
2,1,716087,248812,1398596,74597,9462,698747,0
2,-1,667310,230600,1225113,68770,7722,612286,0
2,1,712852,247273,1273671,73963,9098,636464,0
2,-1,686251,235417,1299227,72222,8115,649355,0
2,-1,667890,230474,1226900,68750,7728,613214,0
2,1,709235,249012,1392827,74776,8977,695882,0
2,-1,668230,230282,1213811,68682,7728,606593,0
2,1,702464,246673,1274674,73732,8086,636974,0
2,-1,688858,235221,1278025,72117,7751,638655,0
2,-1,690479,234963,1325810,72064,8656,662573,0
2,1,706425,248086,1257671,74233,8397,627993,0
2,1,706896,247374,1290453,73965,8447,644906,0
2,1,728303,252165,1429432,77348,9616,714322,0
2,-1,675082,232191,1271835,69502,8234,635444,0
2,1,705389,247045,1404089,73897,8363,701145,0
2,-1,666334,230113,1378403,68632,8555,688963,0
2,1,713241,249254,1328206,74693,9293,663574,0
2,1,708859,249292,1382467,74785,9311,690619,0
2,-1,688707,234437,1358829,71811,9971,679009,0
2,-1,667558,230558,1471505,68804,9422,735255,0
2,1,710221,249516,1382421,74789,8654,690558,0
2,1,730899,252438,1413693,77290,10155,706443,0
3,1,761268,266186,1368281,78495,8761,683771,0
3,-1,721004,248676,1350891,73757,8393,675064,0
3,1,758473,265934,1394114,78452,8472,696689,0
3,-1,719715,248188,1269702,73641,8156,634602,0
3,1,760843,266381,1397792,78662,7821,698588,0
3,-1,717519,248110,1330749,73589,7736,665098,0
3,1,766802,268754,1601823,79673,9495,800253,0
3,1,759255,264173,1426174,77861,9391,712782,0
3,-1,715209,248239,1317695,73608,8299,658470,0
3,1,703210,246967,1410789,73253,8687,705123,0
3,-1,724782,250712,1447470,74562,8053,723191,0
3,-1,718722,248043,1430259,73538,8536,714748,0
3,1,707167,247966,1436525,73526,8637,717902,0
3,1,704542,246569,1443461,73213,9242,721407,0
3,-1,690256,238878,1263509,71440,7530,631339,0
3,1,703436,246828,1412188,73198,8430,705761,0
3,-1,666630,230736,1292786,68985,7308,646081,0
3,-1,668005,230820,1340415,68888,7811,669847,0
3,-1,663612,229881,1307906,68591,7878,653528,0
3,1,708648,247545,1346238,73394,8294,672750,0
3,-1,665220,230085,1387959,68629,7433,693577,0
3,-1,668025,230440,1278799,68928,7911,639046,0
3,1,702065,247257,1350134,73449,8720,674634,0
3,1,703664,246621,1360544,73154,7893,679905,0
3,-1,666090,230236,1452522,68851,8147,725827,0
3,1,709587,249608,1425032,74473,8554,711890,1
3,-1,687479,234952,1373375,72075,8563,686375,0
3,-1,667604,229998,1376575,68592,8308,688033,0
3,1,710841,250000,1496056,74586,8336,747493,0
3,1,704732,247800,1498620,73653,8743,748930,0
3,-1,688859,234985,1356384,72067,9152,677825,0
3,-1,665191,230193,1367972,68842,8261,683604,2
3,-1,668940,230103,1367205,68851,8060,683267,0
3,1,702321,247337,1231781,73499,8520,615420,0
3,-1,660686,230417,1224048,68968,7481,611495,2
3,-1,682691,234816,1260221,72100,8932,629754,0
3,-1,661855,229826,1304412,68717,7711,651866,0
3,1,711986,249749,1421906,74613,9007,710083,0
3,-1,661559,230200,1300260,68882,6991,649603,2
3,1,708329,247324,1347609,73440,8957,673495,0
3,-1,664858,230495,1236710,68967,7577,618035,0
3,1,709918,248024,1471402,73667,8551,735382,0
3,-1,661118,229647,1256094,68600,7567,627675,0
3,1,710886,249210,1488147,74186,9466,743578,0
3,-1,660541,229598,1319153,68590,7324,659260,0
3,1,712648,248137,1356531,73660,9072,677892,0
3,-1,662975,230306,1288928,68858,6972,644092,0
3,1,710455,248452,1318337,73713,8198,658856,0
3,-1,669397,232111,1283476,69738,8331,641130,0
3,1,709680,248492,1372285,73680,8888,685784,0
3,-1,678969,233286,1394277,71702,7977,696721,0
3,1,708906,247980,1290348,73552,8048,644866,0
3,1,711890,249667,1383375,74547,8931,691084,1
3,1,708177,247341,1287728,73516,8482,643515,0
3,-1,661726,229686,1211741,68647,6674,605615,0
3,1,707042,247472,1336609,73565,8481,667968,0
3,-1,664109,229696,1240096,68609,7232,619678,0
3,-1,663554,230298,1347216,68913,7455,673192,2
3,1,705090,248008,1384918,73865,8269,692076,1
3,1,707214,247836,1277061,73771,8566,638190,0
3,-1,686772,234459,1318981,72076,8445,659051,0
3,1,735222,256873,1333990,76375,8968,666620,0
3,1,709139,247537,1310106,73672,8656,654678,0
3,1,708136,247007,1373604,73391,8524,686500,0
3,-1,663552,230299,1227069,68860,7578,613086,2
3,-1,684118,234052,1361637,71925,8884,680398,0
3,1,710392,247756,1459744,73775,8456,729492,0
3,-1,668838,231619,1452473,69485,8754,725709,0
3,1,708793,247348,1349905,73548,8891,674559,0
3,-1,673570,232719,1250753,69911,8436,624830,0
3,1,711989,248636,1494976,74131,9317,746927,0
3,-1,682714,234602,1306950,72080,9589,653071,0
3,-1,666994,231193,1198026,69167,7573,598661,0
3,1,705966,247706,1431230,73673,9105,714804,0
3,-1,666520,232134,1353554,69765,8370,676183,2
3,-1,664985,230395,1256958,68916,7962,628079,0
3,1,706502,248638,1412439,74012,9220,705219,0
3,1,702831,247498,1326178,73646,8595,662705,0
3,-1,686435,234585,1294483,72123,8374,646862,0
3,-1,667137,231135,1351280,69331,8549,675054,0
3,1,722577,251973,1339188,76905,9137,669185,0
3,1,704047,247738,1478447,73721,8393,738807,0
3,-1,667455,230414,1291652,68909,8946,645418,0
3,1,706503,248093,1386671,73857,8160,692913,1
3,-1,667360,230784,1337328,69084,8836,668221,2
3,-1,672905,231796,1292453,69362,8114,645855,0
3,1,705937,247601,1354579,73643,8744,676954,0
3,-1,665529,229652,1263314,68780,7289,631224,0
3,-1,665505,230201,1346477,68873,7062,672920,2
3,-1,671183,231923,1355029,69483,8187,677044,0
3,-1,669120,230496,1345543,68826,7862,672103,0
3,1,712977,250297,1491125,74791,10199,745258,0
3,1,708168,249146,1421010,74242,9145,709831,0
3,-1,664625,230415,1337097,68802,8568,668076,2
3,-1,690235,235263,1337321,72233,9214,668181,0
3,1,702823,247353,1443491,73405,9215,721592,0
3,-1,667664,230129,1300964,68697,7864,650151,0
3,1,705777,248166,1347924,73762,9065,673194,0
3,1,705919,247497,1374111,73482,8952,686435,0
3,-1,670583,230578,1448143,68892,8077,723750,0
3,-1,670078,230113,1393067,68689,8667,695999,0
3,1,710752,248671,1319008,73923,8927,658996,1
3,1,703877,247914,1436425,73568,8917,717845,0
3,-1,674247,233275,1470945,69853,8962,734920,0
3,-1,666650,231558,1358226,69151,8086,678728,2
3,1,703806,248453,1279975,73875,8522,639544,1
3,-1,666595,231019,1226360,68962,7488,612789,0
3,-1,689087,235834,1221963,72332,8338,610713,0
3,-1,669331,231591,1243425,69147,7815,621333,2
3,1,707999,248088,1363678,73708,8671,681465,0
3,-1,666882,231163,1217491,69051,7956,608404,0
3,1,710230,249824,1302249,74577,8683,650628,1
3,1,707985,247909,1307051,73647,8534,653216,0
3,-1,666226,230421,1316033,68812,7919,657660,0
3,1,704735,248090,1367074,73754,8098,683044,1
3,-1,665877,230922,1298336,69049,8143,648810,2
3,-1,672584,232648,1427065,69815,8138,712960,0
3,1,708970,247907,1451269,73621,9323,725226,0
3,-1,670552,231667,1321900,69430,8158,660447,0
3,1,707785,248731,1392085,73977,8356,695670,0
3,-1,664355,230464,1396076,68896,7969,697588,0
3,1,707984,247698,1499888,73591,9134,749609,0
3,-1,663552,230210,1222458,68810,7309,610860,2
3,1,711412,248874,1391019,73995,8652,695058,0
3,1,710403,248469,1511462,73868,9650,755416,0
3,-1,665369,230530,1292973,68888,7864,646074,0
3,-1,668441,230939,1303331,69039,8294,651272,0
3,1,714538,250135,1493815,74703,9434,745938,0
3,1,729279,252921,1318076,77162,9403,658580,0
3,-1,666468,230684,1324559,69089,7215,661951,0
3,-1,670237,230597,1391019,69083,7639,695158,0
3,-1,668641,230354,1221802,69018,6755,610549,0
3,-1,690873,235100,1281603,72384,9100,640545,0
3,1,709322,250125,1449307,74705,8471,723533,1
3,1,705028,248020,1376622,73673,8312,687948,0
3,-1,666583,230331,1400297,69008,8057,699706,0
3,1,706633,248702,1390425,73896,8779,694901,0
3,-1,666041,230540,1225178,69085,7319,612148,2
3,-1,667562,230163,1228891,68912,7926,614185,0
3,-1,671351,231929,1313105,69684,8026,655873,0
3,1,708078,247749,1404335,73586,8366,701738,0
3,-1,667071,229928,1339928,68853,7775,669691,0
3,1,707287,247963,1471852,73619,9124,735570,0
3,-1,691234,234912,1438437,72305,8319,718668,0
3,1,712972,250085,1444318,74624,9131,721601,1
3,1,708039,247586,1303117,73553,7983,651194,0
3,-1,665709,230368,1249035,69035,8124,624236,0
3,1,704936,247567,1226190,73524,8212,612845,0
3,1,707093,248456,1257396,73848,7857,628370,1
3,1,712422,249311,1395402,74330,8930,697160,0
3,-1,672030,232368,1378188,69904,8518,688381,0
3,1,707865,248208,1304269,73787,7771,651791,0
3,-1,672963,231333,1309546,69430,9076,654302,0
3,1,709945,248292,1263684,73735,8214,631571,0
3,1,705131,246871,1301677,73280,8298,650567,0
3,-1,669233,230522,1304404,69072,8007,651810,0
3,-1,669403,230355,1355507,68977,8619,677413,0
3,1,730721,252605,1409367,76853,8650,704340,0
3,-1,670818,230666,1221407,69114,7963,610333,0
3,1,706775,249041,1307692,73914,7983,653521,1
3,1,708539,249385,1387740,74133,8191,693328,0
3,-1,661688,231330,1312296,69312,7970,655087,0
3,1,709824,249706,1442999,74305,8291,720970,0
3,1,714241,250397,1409233,74558,9064,704070,0
3,-1,660047,230080,1356432,68922,8039,677875,0
3,-1,662477,230943,1340708,69211,8623,669723,2
3,1,711876,248491,1528878,73728,8648,764035,0
3,1,707385,248178,1277728,73630,8136,638366,0
3,1,709451,248564,1240000,73836,7682,619571,1
3,-1,662295,230240,1406495,68922,8428,702501,0
3,-1,664771,232589,1387597,70020,9080,693119,2
3,1,710194,248282,1409091,73700,9440,704155,0
3,-1,661734,230317,1244970,68995,7743,622077,0
3,1,706830,247998,1437771,73604,9445,718503,0
3,1,714916,250357,1464863,74733,10015,731577,0
3,-1,666654,231280,1304969,69302,7961,652152,0
3,-1,665402,230495,1253778,69056,7769,626374,0
3,1,713420,248814,1299269,74004,7995,649351,0
3,-1,661445,230914,1286294,69195,7454,642767,0
3,-1,663194,231346,1347955,69338,7734,673583,2
3,1,713625,249123,1520240,74050,10584,759389,0
3,-1,666658,231169,1331485,69231,7389,665307,0
3,-1,665621,230737,1237525,69136,7483,618401,0
3,1,714354,249069,1459360,73986,9872,729104,0
3,1,713807,250007,1472830,74151,10798,736506,1
3,-1,673861,233173,1394143,70201,7986,696428,0
3,1,717000,249485,1674039,73925,11202,836329,0
3,-1,684197,234643,1319231,72146,8010,658962,0
3,1,707815,249396,1465373,73936,10051,731952,0
3,-1,662854,230582,1172045,69089,7534,585642,2
3,-1,667631,231825,1242863,69676,8016,620889,0
3,1,714214,250159,1397966,74383,9221,698536,0
3,-1,660288,230473,1329807,69003,8427,664578,0
3,1,709099,249007,1354113,73858,8438,676660,0
3,-1,666170,231774,1335241,69576,7743,667069,0
3,1,709492,248993,1368914,73916,8696,684039,0
3,-1,665066,230820,1194870,69138,7431,597055,0
3,-1,662720,230526,1369416,69042,9281,684345,2
3,-1,686120,235176,1397456,72303,9452,697957,0
3,1,732091,252771,1423486,76900,9763,711333,0
3,1,716727,250861,1380983,74724,9989,689968,1
3,-1,666284,231375,1235078,69207,7474,617080,0
3,1,705814,248577,1424104,73779,9023,711693,1
3,1,712128,250208,1452606,74645,9515,725609,0
3,-1,665252,231117,1318549,69114,7738,658811,2
3,-1,664640,230185,1320377,68821,7616,659884,0
3,1,707943,248418,1357531,73818,9300,678231,1
3,1,709487,248000,1531631,73661,11967,765262,0
3,-1,665841,230493,1413653,68919,7679,706239,0
3,1,711698,249596,1410202,74352,8891,704264,0
3,-1,667733,232291,1372812,69781,8769,685226,0
3,1,708557,247429,1377896,73457,9811,688509,0
3,-1,667826,231562,1328231,69252,8378,663260,0
3,1,706384,247199,1395218,73321,10338,696887,0
3,-1,662939,230510,1297584,68909,8177,648105,0
3,1,709519,247985,1459834,73618,10444,729447,0
3,-1,672132,232827,1399704,70011,8360,698918,0
3,1,707250,247660,1387641,73613,9029,693458,1
3,1,710299,247541,1390510,73509,9642,694739,0
3,-1,671080,233198,1399351,70063,9152,698422,2
3,-1,670834,232077,1333946,69464,8032,666554,0
3,1,708966,247201,1404373,73345,9179,701549,0
3,1,725496,252434,1316828,76880,9520,658151,0
3,-1,669246,231011,1318170,69118,7420,658835,0
3,-1,665028,232335,1330214,69742,8133,664501,0
3,1,710609,247849,1606190,73500,9503,801880,0
3,-1,683981,235132,1245773,72274,7806,622398,0
3,1,708633,247605,1543501,73462,9618,771457,0
3,-1,685409,235311,1307262,72351,8217,653284,0
3,-1,664237,230632,1384571,68947,7432,691995,0
3,-1,664623,230475,1357087,68943,7949,677998,0
3,-1,665708,231365,1445738,69237,8417,722548,0
3,1,711266,247830,1311076,73626,9364,654915,0
3,-1,665916,231180,1248888,69202,7810,624054,2
3,1,711376,248072,1510327,73679,10836,754593,0
3,-1,668249,231126,1229129,69170,7639,614227,0
3,-1,662994,230807,1279176,69003,7006,639218,0
3,1,709886,248933,1435390,73904,9871,717357,0
3,-1,666017,231331,1227649,69221,7381,613437,0
3,-1,667427,231326,1353877,69204,7206,676622,0
3,1,737024,256793,1304237,76054,9216,651802,0
3,1,707968,248419,1387476,73584,10500,693281,1
3,-1,667707,230755,1355120,69075,7769,677205,0
3,1,731733,252887,1439065,76790,10465,719099,0
3,1,710552,248293,1459141,73526,11146,729116,1
3,-1,666072,230689,1363220,68969,7470,681181,0
3,1,711106,247705,1476677,73241,9711,737922,0
3,-1,671740,232931,1411173,69974,8056,704799,0
3,1,714903,248643,1424799,73593,9254,712022,0
3,-1,664655,231630,1265969,69339,8380,632605,0
3,-1,663460,230841,1483144,69018,9561,740790,2
3,1,707703,248039,1286852,73477,8117,643169,0
3,-1,664981,230668,1251654,68948,8492,625558,0
3,-1,672314,232925,1378453,70004,9008,687555,0
3,1,707391,247640,1275290,73401,8330,637243,0
3,1,705337,247099,1289220,73308,8092,644265,0
3,-1,669946,232641,1350746,69902,8097,674837,0
3,1,707411,247399,1381887,73335,8195,690559,0
3,-1,670157,232246,1307525,69695,8162,653316,0
3,-1,669629,232738,1353756,69941,8465,676258,2
3,1,706628,247116,1328133,73178,8069,663767,0
3,-1,665513,230332,1250368,68842,7997,624783,0
3,-1,690368,235584,1295013,72409,8125,647073,0
3,1,710047,247104,1282259,73252,8872,640788,0
3,1,707470,247388,1398629,73330,8575,698965,0
3,-1,664372,230955,1379278,69025,8205,689301,0
3,-1,664524,230705,1214435,69038,7460,606852,2
3,1,731858,252718,1334952,76876,9623,667077,0
3,-1,665826,230067,1339382,68799,7728,669373,0
3,1,713085,249249,1381343,74216,8651,690135,0
3,-1,668797,231596,1380907,69360,8615,690089,2
3,-1,668474,230458,1246136,68979,7948,622587,0
3,1,712023,248157,1461716,73588,9274,730521,0
3,1,709096,247653,1336308,73424,9528,667725,0
3,-1,669968,231838,1254348,69409,7704,626786,0
3,1,709933,247855,1486975,73474,10878,742743,0
3,-1,669991,230947,1321226,69057,7636,660157,0
3,-1,690032,235071,1290754,72189,8761,644894,0
3,1,711219,247785,1420774,73483,10095,709803,0
3,1,706565,247328,1413986,73303,9229,706536,0
3,-1,666105,232199,1391930,69456,7814,695606,0
3,-1,665221,230824,1192407,69022,7426,595713,0
3,-1,665844,231295,1321360,69194,7289,660255,0
3,1,707984,247566,1377437,73363,8910,688386,0
3,1,710443,247665,1365063,73441,8922,682159,0
3,1,712911,248810,1474824,73817,9854,736909,1
3,-1,662023,230179,1296071,68808,7202,647683,0
3,1,730294,252426,1493300,76782,9341,746239,0
3,1,709665,247756,1621165,73511,9885,810171,0
3,1,711253,247841,1405160,73504,8866,702013,0
3,-1,686602,235558,1305686,72353,7753,652373,0
3,1,716834,250049,1328175,74510,10270,663309,0
3,1,711005,247957,1369237,73587,9460,684093,1
3,1,713222,247965,1460887,73554,9789,730048,0
3,-1,667151,231403,1340912,69393,8053,669903,0
3,1,706184,247323,1325819,73298,8537,662456,0
3,-1,669080,231172,1344891,69139,8086,672051,0
3,1,714929,250011,1326156,74435,8743,662441,0
3,1,707165,247738,1431995,73500,8747,715737,1
3,-1,685228,235118,1309976,72287,8923,654647,0
3,1,730986,252718,1472003,76917,9427,735467,0
3,1,709470,247580,1386110,73449,8859,692532,1
3,-1,667230,231100,1260913,69152,7472,630326,0
3,-1,665512,231646,1268392,69361,7976,633722,2
3,1,716601,249934,1575904,74459,10659,787223,0
3,-1,668005,231083,1545562,69041,8887,771159,0
3,1,708838,247303,1427224,73212,8376,713099,0
3,-1,665573,231054,1375269,69080,8208,687082,2
3,-1,670789,231751,1324610,69384,7908,661938,0
3,-1,668504,231013,1388427,69161,8183,693746,0
3,1,701293,248266,1459375,73164,8871,729264,1
3,1,700678,247298,1453147,72786,8803,726154,0
3,-1,664928,230596,1189935,69005,7297,594576,0
3,-1,669501,232085,1289764,69609,8595,644309,0
3,-1,669962,232893,1408061,70006,9110,703274,0
3,1,703172,248004,1236200,73120,8453,617573,0
3,-1,671747,232684,1419404,69803,9402,710395,0
3,1,706147,247692,1286533,72971,8763,642865,0
3,1,707663,249660,1432530,73820,9501,715651,0
3,-1,691102,240486,1334403,71964,7663,666762,2
3,1,705908,247990,1299342,72989,9162,649307,0
3,-1,667230,231354,1225899,69239,7305,612573,0
3,1,712871,250418,1365750,74197,8768,682224,0
3,-1,668295,230862,1341061,68998,7980,670217,0
3,1,700642,247483,1365233,73057,9313,681913,0
3,-1,668329,231583,1321884,69340,7537,660571,2
3,1,704353,246986,1312711,72866,8506,655947,0
3,-1,673408,232286,1248241,69679,8011,623493,0
3,1,727009,251977,1336133,76295,9422,667603,0
3,-1,670878,232808,1224740,69914,7336,611847,0
3,-1,689586,235327,1286759,72246,7843,643050,0
3,1,702189,246634,1283211,72714,8192,641244,0
3,1,712464,250622,1309200,74310,8490,653947,1
3,-1,667737,231011,1359223,69080,7191,679254,0
3,1,709800,248705,1364446,74318,9395,681920,1
3,-1,672816,232571,1309298,69885,8724,654024,2
3,-1,669519,230482,1298159,68927,8045,648672,0
3,1,707666,247420,1299256,73803,9058,649194,0
3,1,705759,247839,1258889,74015,8873,628656,1
3,1,711640,249278,1327770,74590,9249,663303,0
3,1,711397,248343,1427311,74102,9590,713333,0
3,-1,669563,231659,1273122,69213,7303,636141,0
3,-1,668363,231483,1266174,69166,7135,632719,2
3,1,701543,247246,1354448,73809,9349,676878,0
3,-1,667867,230805,1252029,68841,7067,625692,0
3,-1,671508,231261,1329121,69039,7689,664174,0
3,1,730194,252407,1410030,77265,10376,704626,0
3,-1,667163,231353,1241074,69074,7692,620167,0
3,-1,666055,231189,1366549,69004,7341,682821,0
3,1,714247,250144,1302986,74980,7879,650950,0
3,-1,665095,230971,1283480,68974,7082,641418,2
3,-1,671949,232600,1338286,69763,8345,668649,0
3,1,707759,248426,1352643,74298,9239,675627,0
3,1,707935,247673,1335151,73960,8259,667188,0
3,-1,689182,235968,1349356,72410,8615,674343,0
3,-1,669560,232054,1185305,69310,6685,592031,2
3,-1,665050,230520,1226316,68779,7432,612891,0
3,1,708306,247328,1374703,73733,8760,687645,0
3,-1,669085,230904,1330980,68938,7730,665072,0
3,-1,665670,230739,1234188,68953,7344,616728,0
3,-1,669160,231851,1349053,69268,7973,674054,0
3,1,705111,247417,1414201,73809,9636,706561,0
3,1,706779,247772,1485008,74002,9626,741860,1
3,-1,670366,231767,1364178,69432,8563,681557,0
3,-1,667093,231082,1272214,69063,7684,635753,2
3,1,727417,251874,1437959,77136,9553,718618,0
3,1,705088,247063,1266331,73804,8216,632821,1
3,-1,673546,233089,1329431,69832,8450,664130,0
3,1,710587,247269,1236336,73779,8822,617779,0
3,1,708822,247307,1295310,73858,8202,647066,1
3,-1,673017,232496,1266149,69632,8618,632607,0
3,1,710135,247025,1520370,73730,9670,759856,0
3,-1,695051,236925,1335121,73249,9084,667243,0
3,-1,672008,231562,1361445,69320,8510,680328,2
3,1,727880,251127,1420711,76833,9451,710010,0
3,-1,664600,230686,1257182,69008,7931,628240,0
3,1,709923,247275,1300908,73764,9049,650081,0
3,-1,668052,230932,1442556,69006,8427,720465,0
3,-1,668284,231738,1321121,69346,8229,659801,2
3,1,724813,252165,1440048,77183,10257,719613,0
3,1,703776,247148,1306661,73724,9160,653038,1
3,1,710415,248456,1374305,74227,9244,686833,0
3,-1,669058,231761,1245779,69293,7527,622608,0
3,1,705904,247885,1376327,73958,8863,687807,0
3,-1,701726,243119,1435248,73028,8474,716927,2
3,-1,676266,233481,1465012,70052,9315,731910,0
3,1,711633,248723,1323466,74435,8567,661184,0
3,-1,677748,233105,1501296,69991,9101,749333,0
3,-1,671717,231877,1436640,69448,8698,718123,2
3,1,710532,249405,1350746,74793,8839,674790,0
3,-1,678898,233606,1432020,70225,9665,715382,0
3,1,707235,247888,1297904,74043,8362,648549,1
3,1,730251,252029,1490778,77184,9525,745074,0
3,-1,672567,232011,1437765,69353,8997,718577,0
3,-1,670399,231420,1407401,69009,9339,703149,2
3,1,706059,247661,1310771,73907,9103,655033,0
3,1,706484,247632,1364723,73934,8356,682011,1
3,-1,672109,232239,1357506,69314,8511,678395,0
3,-1,673781,232053,1444912,69206,9109,721504,0
3,1,707710,247452,1328072,73863,7575,663390,0
3,1,712996,249554,1280173,74809,8484,639394,1
3,1,713910,249590,1316395,74796,8450,657534,0
3,-1,692422,236392,1382436,72439,10584,690637,0
3,1,706784,248179,1293622,74126,9105,646334,1
3,-1,696141,236590,1415022,72525,10599,707185,0
3,1,709742,248280,1345896,74157,8597,672585,1
3,-1,696239,236394,1515865,72469,10282,757071,0
3,1,711982,248899,1314346,74511,8565,656684,0
3,-1,670551,233850,1414255,70165,9721,706350,2
3,-1,673060,233224,1412646,69799,9999,705808,0
3,1,711652,248209,1353603,74121,8305,676452,0
3,1,706089,247646,1451116,73863,10789,725216,0
3,-1,669483,231847,1250042,69204,7999,624636,0
3,1,711688,248214,1519960,74072,9351,759636,0
3,1,710003,247684,1372425,73870,8601,685835,0
3,1,715031,249658,1485475,74755,10650,741747,0
3,1,709362,247910,1397073,73973,8873,698120,1
3,-1,668535,231711,1333723,69181,8636,666498,2
3,-1,670754,232727,1243539,69526,8124,621398,0
3,-1,670322,232137,1316189,69334,7976,657794,0
3,1,710555,248611,1312608,74320,8665,655737,0
3,-1,667979,232178,1199436,69352,7900,599276,2
3,-1,667611,231365,1233448,69031,8161,616404,0
3,1,710789,247402,1453418,73647,10075,726376,0
3,1,731520,252114,1383413,77130,10384,691084,0
3,1,712445,248727,1358383,74452,9056,678939,0
3,-1,667559,230774,1248216,68983,8064,623791,0
3,1,710382,247811,1414088,73900,9351,706199,1
3,1,714836,249659,1422100,74694,9440,710155,0
3,-1,667086,231171,1297166,69033,8713,648382,0
3,-1,666412,231547,1396382,69228,8448,697806,2
3,1,709320,248031,1293893,73955,9831,646343,1
3,1,712849,247723,1376766,73828,9218,688091,0
3,-1,672967,232876,1458481,69785,8315,728845,0
3,-1,672021,231840,1454961,69326,8399,727075,0
3,1,709065,247520,1351991,73926,9044,675623,0
3,-1,670588,232006,1285689,69293,8132,642500,0
3,-1,672521,232275,1410594,69555,8945,704829,0
3,1,714873,248120,1655735,74049,10329,827595,0
3,1,706244,248321,1500346,74112,10053,750154,0
3,1,726008,252075,1595458,77271,10495,797353,0
3,-1,675021,233225,1466364,69895,8857,732616,0
3,1,710676,248787,1466226,74298,9403,732660,0
3,1,713579,250328,1337495,75114,9334,667988,0
3,-1,669644,232296,1377761,69410,9077,688536,0
3,1,710040,248664,1353423,74232,9852,676331,0
3,-1,671936,232762,1375109,69790,9278,686941,0
3,1,710317,248400,1482044,74202,9507,740739,0
3,1,708605,248711,1402970,74246,9546,701089,1
3,-1,666057,230077,1303221,68675,8231,651234,0
3,1,715528,249123,1392027,74501,9257,695670,0
3,-1,669237,231369,1544076,69201,9778,771583,0
3,1,717117,249807,1352687,74983,8487,675715,0
3,-1,669729,231808,1394118,69373,8791,696053,0
3,1,705685,247584,1431365,73902,8455,715383,0
3,-1,664282,230437,1350771,68772,9153,674964,0
3,1,713945,249413,1401837,74491,8685,700468,0
3,-1,669184,232342,1299150,69724,8524,649236,2
3,-1,665191,230082,1403118,68662,8787,700957,0
3,1,711360,248796,1329441,74332,8555,664401,0
3,-1,670841,230736,1249854,69089,8045,624330,0
3,-1,688639,235255,1291756,72300,8817,645536,0
3,1,713348,249461,1386641,74504,9934,693601,0
3,1,713211,248923,1378135,74373,9168,688165,1
3,1,720953,250970,1442138,75223,10093,720692,0
3,-1,669570,229859,1341670,68709,8936,670272,0
3,-1,664554,230733,1196769,68918,8232,598063,0
3,-1,664533,230699,1247016,68912,7323,623073,0
3,1,711201,249236,1345517,74410,7922,672433,0
3,-1,669783,231042,1471235,69060,8660,734924,0
3,-1,664666,231071,1423576,69050,8515,710559,2
3,1,711580,248740,1292242,74215,8510,645646,0
3,1,715543,250470,1313299,74938,8901,656044,0
3,1,708194,248833,1258913,74243,8911,628922,1
3,-1,667732,231098,1381453,69026,8747,690241,0
3,-1,674186,233667,1381682,70088,8380,689857,2
3,1,711580,248635,1405289,74055,9295,702234,0
3,1,711686,248461,1266689,73958,8308,633031,0
3,-1,672223,232138,1248091,69621,8254,623367,0
3,1,713654,248558,1422477,74001,9487,711052,0
3,1,712474,248073,1398099,73811,9952,698758,0
3,-1,662526,229652,1285495,68594,7586,642099,0
3,-1,663972,230356,1303842,68886,8271,651544,2
3,1,707685,248236,1499495,74033,8769,749331,1
3,-1,667123,230065,1352541,68739,8447,675890,0
3,1,711707,248729,1355169,74177,8152,677129,0
3,1,711526,249172,1221461,74366,7775,610377,1
3,-1,688587,235557,1284660,72363,8254,641917,0
3,-1,668175,230567,1250292,68967,8590,624737,2
3,1,713762,248804,1407910,74232,8467,703582,0
3,-1,667580,230352,1357796,68841,8688,678605,0
3,-1,668613,231246,1382464,69120,9560,691313,2
3,1,711410,248837,1403751,74202,8316,701546,0
3,-1,670324,230920,1237168,68996,8851,618083,0
3,-1,664423,230735,1432512,68908,8476,715946,0
3,1,714656,248965,1387764,74314,9199,693402,0
3,-1,666900,231374,1302400,69107,8614,650583,2
3,-1,665386,230399,1503810,68783,9027,751593,0
3,1,715717,248626,1386679,74174,9530,692889,0
3,1,707769,248397,1463417,74094,9993,731556,0
3,-1,668942,230831,1397843,68969,9702,697768,0
3,1,706386,247730,1426044,73854,10073,712490,0
3,1,709169,248363,1388688,74052,9185,693897,0
3,-1,690818,235143,1365648,72182,9104,682357,0
3,-1,673781,233239,1366484,69933,8087,682602,2
3,1,709947,247900,1522252,73835,9495,760184,0
3,-1,690571,235906,1296075,72357,8882,647645,0
3,-1,671140,231562,1357862,69192,8180,678504,2
3,-1,672002,230952,1377983,68938,9782,688629,0
3,1,713822,248579,1392786,74068,8953,695927,0
3,1,711127,248804,1394959,74199,8642,696960,1
3,-1,671096,231176,1373023,68882,9757,686179,0
3,1,714945,249530,1385204,74496,8280,692227,0
3,1,715065,249402,1284868,74532,7951,641570,1
3,1,722819,251449,1401196,75339,9043,699740,0
3,-1,677683,233017,1434041,69768,9434,716526,0
3,-1,668934,230443,1308262,68587,8642,653741,0
3,1,712949,248496,1387708,74247,8808,693416,0
3,-1,691176,235378,1289946,72038,9609,644498,0
3,1,715272,250246,1303140,75032,8373,651051,1
3,1,712882,248586,1545177,74235,10570,772192,0
3,-1,671132,230795,1285084,68688,8469,642200,0
3,-1,665829,229331,1400216,68264,8261,699695,0
3,1,712421,248338,1466711,74093,9924,732886,0
3,-1,669818,231250,1289194,68905,7883,644185,2
3,1,714184,248312,1311964,74008,8844,655598,0
3,-1,670962,230896,1262944,68783,8088,631148,0
3,1,714642,249280,1475979,74396,8880,737356,1
3,1,714379,248565,1365466,74082,9524,682338,0
3,-1,671591,230917,1234942,68741,7701,617151,0
3,1,739368,253430,1623586,77529,10093,811282,0
3,-1,668180,232268,1366396,69445,8013,682616,0
3,-1,670132,232867,1221954,69728,8323,610441,0
3,1,709764,247999,1413466,73925,9234,706399,0
3,-1,664215,231051,1326753,68936,7650,663007,2
3,-1,672495,233105,1310380,69833,7815,654643,0
3,1,712349,247936,1368166,73934,9726,683587,0
3,-1,664369,230590,1210723,68848,7489,604979,2
3,1,711721,247896,1282735,73803,8409,640911,0
3,-1,664622,230139,1316406,68650,7482,657879,0
3,1,713839,247911,1319933,73865,9089,659511,0
3,-1,662812,229289,1201505,68393,6901,600463,0
3,-1,665179,230190,1297878,68644,7617,648601,0
3,1,713527,247921,1321227,73837,8837,660276,0
3,-1,665583,230532,1330371,68784,7900,664751,2
3,1,707786,247711,1368804,73910,8819,684042,1
3,1,711820,248176,1354699,74027,8822,676970,0
3,-1,669936,230503,1348909,68765,7944,674129,0
3,1,708082,247275,1225857,73750,8042,612566,1
3,1,710653,247438,1353977,73786,8184,676719,0
3,1,733526,252738,1408708,77470,9901,704051,0
3,1,711215,247787,1492352,74076,9449,745459,1
3,-1,664704,230248,1338601,68730,7667,668900,2
3,1,732962,252327,1438888,77368,9647,718987,0
3,-1,670278,231109,1327418,69025,8463,663372,0
3,-1,667755,230239,1379241,68761,7888,689267,0
3,1,731811,251879,1416739,77274,10968,707987,0
3,-1,666621,230524,1213327,68819,7600,606324,0
3,1,759314,261018,1648101,79951,11543,823613,0
3,-1,664494,229821,1294996,68551,8024,647186,0
3,1,710071,247318,1394570,73996,9698,696874,1
3,1,711476,246919,1364639,73786,9070,681996,0
3,-1,664360,230445,1209328,68694,7536,604331,0
3,-1,663614,230352,1217009,68780,7201,608151,2
3,-1,669842,231903,1316961,69416,7473,657858,0
3,1,704058,247307,1433720,73917,8825,716456,0
3,-1,667755,230862,1301308,68966,7590,650251,0
3,1,701981,247161,1357912,73878,8643,678670,0
3,-1,669813,231510,1375630,69297,8134,687220,0
3,-1,665577,230496,1222433,68837,7283,610819,2
3,-1,668081,230353,1259969,68764,7855,629575,0
3,1,705562,246829,1302809,73770,9180,651066,0
3,1,708411,248678,1379725,74656,8639,689192,0
3,1,705350,247242,1284506,73888,7974,641808,0
3,-1,669639,230436,1294127,68781,8515,646778,0
3,1,711943,249610,1403568,74948,9063,701062,0
3,-1,671007,232688,1272609,69770,8083,635600,2
3,-1,668124,230241,1276681,68677,8755,637775,0
3,1,707559,247025,1286094,73833,8184,642443,0
3,1,709264,247123,1278840,73790,8698,639010,0
3,-1,669112,231113,1301618,69016,8112,650440,2
3,-1,667219,229910,1264932,68572,7981,631932,0
3,-1,665819,229952,1411914,68570,9001,704712,0
3,1,705018,247011,1356743,73738,8859,678307,0
3,1,704109,246475,1213802,73545,7976,606668,0
3,-1,670705,230869,1299634,68921,9710,649596,0
