-1,0,0.0602294
-1,1,0.0592734
-1,2,0.0592734
-1,3,0.0592734
-1,4,0.0592734
-1,5,0.0592734
-1,6,0.0592734
-1,7,0.0592734
-1,8,0.0592734
-1,9,0.0592734
-1,10,0.0592734
-1,11,0.0592734
-1,12,0.0592734
-1,13,0.0592734
-1,14,0.0602294
-1,15,0.108987
3,0,0.0628116
3,1,0.0618146
3,2,0.0618146
3,3,0.0618146
3,4,0.0618146
3,5,0.0618146
3,6,0.0628116
3,7,0.0628116
3,8,0.0628116
3,9,0.0628116
3,10,0.0628116
3,11,0.0628116
3,12,0.0628116
3,13,0.0628116
3,14,0.0628116
3,15,0.0628116
