-1,0,0.0302166
-1,1,0.0296465
-1,2,0.0296465
-1,3,0.0296465
-1,4,0.0296465
-1,5,0.0296465
-1,6,0.0296465
-1,7,0.0296465
-1,8,0.0296465
-1,9,0.0296465
-1,10,0.0296465
-1,11,0.0296465
-1,12,0.0296465
-1,13,0.0296465
-1,14,0.0296465
-1,15,0.0296465
-1,16,0.0296465
-1,17,0.0296465
-1,18,0.0296465
-1,19,0.0296465
-1,20,0.0296465
-1,21,0.0296465
-1,22,0.0296465
-1,23,0.0296465
-1,24,0.0296465
-1,25,0.0302166
-1,26,0.0302166
-1,27,0.0302166
-1,28,0.0302166
-1,29,0.0302166
-1,30,0.0302166
-1,31,0.0769669
2,0,0.0314136
2,1,0.026178
2,2,0.0314136
2,3,0.0314136
2,4,0.0314136
2,5,0.0314136
2,6,0.0314136
2,7,0.0314136
2,8,0.0314136
2,9,0.0314136
2,10,0.0314136
2,11,0.0314136
2,12,0.0314136
2,13,0.0314136
2,14,0.0314136
2,15,0.0314136
2,16,0.0314136
2,17,0.0314136
2,18,0.0314136
2,19,0.0314136
2,20,0.0314136
2,21,0.0314136
2,22,0.0314136
2,23,0.0314136
2,24,0.0314136
2,25,0.0314136
2,26,0.0314136
2,27,0.0314136
2,28,0.0314136
2,29,0.0314136
2,30,0.0314136
2,31,0.0314136
