0,-1,707561,240762,1348677,73726,8329,673965,0
0,0,757626,265608,1348969,78378,8104,674130,11
0,-1,631009,217775,1156800,65342,7175,577988,0
0,-1,633236,218278,1113418,65563,6321,556108,2
0,-1,639379,219786,1260110,66166,7347,629555,0
0,-1,634324,217617,1350714,65445,7505,674911,0
0,-1,633473,217542,1241159,65356,6814,620270,0
0,-1,661637,223227,1277183,68923,7943,638175,0
0,-1,641564,220290,1273517,66544,7709,636142,0
0,-1,634114,218042,1227117,65645,6993,613191,0
0,-1,661388,223178,1268426,69123,8771,634050,0
0,-1,643823,220525,1401694,66731,9299,700035,0
0,-1,644017,220035,1301184,66486,8249,649914,0
0,-1,644961,219830,1201748,66146,8004,600566,0
0,-1,636187,218301,1372642,65640,8901,685995,0
0,-1,636256,218730,1301078,65783,7287,650176,0
0,-1,637486,218570,1234194,65769,7136,616766,0
0,-1,635908,219254,1285366,65922,7464,642217,0
0,-1,639433,219126,1259539,65871,7692,629513,0
0,-1,639239,218464,1249757,65594,7513,624495,0
0,-1,639435,218689,1183959,65532,6686,591620,0
0,-1,642337,219011,1128518,65792,7278,563949,0
0,-1,657431,224163,1338151,69135,8704,668632,0
0,-1,646830,221321,1366884,66847,7820,682570,0
0,-1,641757,218520,1164336,65671,7933,581888,0
0,-1,646103,220672,1265871,66660,8101,632312,0
0,-1,638166,218961,1256907,65757,7355,628053,0
0,-1,634077,218274,1145449,65505,7216,572364,0
0,-1,639796,218892,1345459,65489,7315,672390,0
0,-1,638101,218450,1171251,65524,7061,585299,0
0,-1,645090,220533,1231701,66467,7782,615296,0
0,-1,640009,218180,1143505,65396,7502,571398,0
0,-1,635357,218316,1150320,65430,7273,574825,0
0,-1,640608,218656,1211337,65630,7355,605315,0
0,-1,636601,217858,1226494,65232,6771,612898,0
0,-1,637348,217947,1255937,65306,7712,627450,0
0,-1,661460,222700,1289267,68755,8897,644278,0
0,-1,639680,218293,1317656,65578,7080,658260,0
1,0,758447,266121,1425499,78655,8231,712312,11
1,-1,632653,217125,1163570,65154,6962,581334,0
1,-1,637184,218704,1233592,65617,6938,616259,0
1,-1,635377,218377,1160199,65561,7011,579897,2
1,-1,634887,217779,1265756,65434,7098,632539,0
1,-1,639504,217857,1162567,65453,7215,581007,0
1,-1,641418,219166,1213681,65788,6920,606445,0
1,-1,659472,223229,1267227,68893,8546,633177,0
1,-1,636357,218443,1151575,65794,6907,575423,0
1,-1,638750,218593,1195124,65762,7838,597166,0
1,-1,638978,217784,1277149,65531,8077,638163,0
1,-1,659822,222929,1225730,68985,8808,612577,0
1,-1,639941,218361,1222326,65677,7740,610788,0
1,-1,638672,219643,1317056,66292,8905,657948,0
1,-1,636131,218753,1336152,65751,6992,667794,0
1,-1,639182,219137,1181711,65943,7307,590531,0
1,-1,640065,220289,1381176,66545,8328,689958,0
1,-1,635938,218876,1302315,65793,7099,650774,0
1,-1,638972,218393,1200209,65633,8320,599875,0
1,-1,643151,220828,1285249,66587,7552,642061,0
1,-1,661637,223781,1369841,69215,9716,684522,0
1,-1,643935,219641,1331860,65890,8578,665627,0
1,-1,640243,219229,1287015,65865,7618,643181,0
1,-1,645664,219928,1191089,66279,7612,595079,0
1,-1,660572,222983,1178167,68935,8467,588710,0
1,-1,634756,217949,1209705,65340,6997,604508,0
1,-1,644962,219467,1260009,66053,7241,629607,0
1,-1,637751,218371,1234447,65272,7166,616994,0
1,-1,636031,218123,1161414,65395,6903,580393,0
1,-1,660566,223359,1205483,68900,8430,602492,0
1,-1,639645,218209,1367920,65426,7189,683652,0
1,-1,640130,219020,1332631,65848,8127,665789,0
1,-1,643266,220184,1200234,66273,7082,599541,0
1,-1,639736,218312,1181148,65422,7426,590192,0
1,-1,639802,218399,1279782,65467,7303,639257,0
1,-1,639843,218270,1250555,65528,8093,624852,0
1,-1,637727,217829,1299748,65408,6988,649425,0
2,0,780248,270133,1535883,81741,9517,767499,11
2,-1,639508,219023,1153728,65847,7434,576489,0
2,-1,634869,218094,1153657,65412,6436,576479,0
2,-1,633052,219361,1245515,66195,7383,622115,2
2,-1,641140,220650,1267750,66707,7850,633226,0
2,-1,643740,219900,1280894,66431,8157,639482,0
2,-1,636996,217610,1150442,65188,6556,574911,0
2,-1,637716,218558,1206947,65657,6514,603074,0
2,-1,632860,217659,1344172,65439,6984,671799,0
2,-1,640805,219740,1354552,66393,9217,676076,0
2,-1,639076,218652,1183891,65849,8222,591368,0
2,-1,637719,218536,1202616,65792,7523,600966,0
2,-1,639141,218073,1301939,65514,7854,650525,0
2,-1,640276,220579,1364527,66648,8753,681562,0
2,-1,637179,219467,1264568,66042,6879,631964,0
2,-1,638137,218390,1150402,65636,7025,574767,0
2,-1,660415,223094,1197587,68921,8331,598364,0
2,-1,634971,218344,1313377,65594,7356,656383,0
2,-1,643185,219444,1263552,65939,7722,631450,0
2,-1,636826,219020,1228868,65726,7270,614167,0
2,-1,641355,219223,1359863,65974,8676,679581,0
2,-1,647960,221344,1315504,66702,8142,656988,0
2,-1,639804,219076,1167702,65800,6990,583441,0
2,-1,642584,219085,1115705,65819,7064,557499,0
2,-1,644964,218723,1108768,65713,6559,554032,0
2,-1,637543,219175,1249094,65810,7412,624175,0
2,-1,641274,218913,1256248,65702,7266,627827,0
2,-1,638046,218358,1177997,65341,6571,588653,0
2,-1,640463,219859,1162041,66263,7543,580426,0
2,-1,641248,218181,1137108,65410,7630,568246,0
2,-1,639780,218601,1243432,65589,7089,621313,0
2,-1,636065,218223,1169507,65465,7318,584535,0
2,-1,638279,218013,1184890,65370,7760,592093,0
2,-1,657321,222096,1260719,68393,8581,629913,0
2,-1,642651,219837,1218042,66193,7694,608347,0
2,-1,639829,217610,1154749,65258,7776,576863,0
2,-1,636953,217886,1229624,65397,6725,614462,0
3,0,764572,268956,1483161,79967,9082,740750,11
3,-1,637097,218287,1146158,65568,6966,572693,0
3,-1,634041,218156,1213023,65454,6715,606185,0
3,-1,634956,218857,1161578,65826,7082,580420,2
3,-1,657037,223137,1277176,69001,8060,638144,0
3,-1,641897,219132,1264470,66105,8258,631628,0
3,-1,658113,222801,1290609,68892,7844,645014,0
3,-1,637943,218581,1357327,65609,7560,678373,0
3,-1,644434,219976,1283820,66479,7920,641472,0
3,-1,641521,218187,1294728,65678,8675,646814,0
3,-1,638643,218648,1443688,65830,9630,721509,0
3,-1,639400,218439,1193028,65780,7723,596046,0
3,-1,640036,218537,1275533,65675,8474,637558,0
3,-1,633186,218273,1297730,65525,8206,648525,0
3,-1,634365,218856,1143854,65819,6593,571648,0
3,-1,639185,218917,1244208,65847,7151,621695,0
3,-1,640835,219908,1281515,66331,7809,640233,0
3,-1,637492,218064,1397295,65570,7540,698108,0
3,-1,641356,219869,1262468,66312,7784,630374,0
3,-1,638048,219224,1191060,65879,7622,595108,0
3,-1,641779,219954,1431641,66246,8415,715607,0
3,-1,644662,220184,1474084,66053,8320,736451,0
3,-1,640821,219742,1229249,65958,7277,614254,0
3,-1,640160,218158,1200848,65487,7314,599972,0
3,-1,642299,218374,1154632,65666,6466,576896,0
3,-1,639512,219711,1285044,66179,7342,642028,0
3,-1,642382,219106,1166413,65811,7629,582837,0
3,-1,643168,220418,1258356,66219,7420,628698,0
3,-1,638968,219304,1191362,65801,7231,595246,0
3,-1,640356,218920,1258029,65822,7761,628467,0
3,-1,639607,218392,1252161,65454,7128,625722,0
3,-1,635792,218493,1134911,65477,7117,567235,0
3,-1,636981,217853,1167796,65296,7323,583549,0
3,-1,645835,219895,1203341,66176,8077,601188,0
3,-1,661029,223235,1395452,68836,8347,697231,0
3,-1,646400,220154,1192108,66202,7072,595557,0
3,-1,646924,219677,1166072,66305,7361,582267,0
4,0,756190,265000,1408733,78244,8463,703986,11
4,-1,657301,225715,1227057,67835,7426,612808,0
4,-1,642772,220626,1311674,66511,7795,655082,0
4,-1,635473,217490,1283677,65335,8040,641474,0
4,-1,635861,217895,1179788,65542,7067,589579,2
4,-1,638558,218392,1250417,65674,8096,624909,0
4,-1,643923,219933,1204489,66321,7385,601730,0
4,-1,638622,219286,1281072,65886,7541,640148,0
4,-1,639255,217940,1223059,65590,6808,611239,0
4,-1,641799,218849,1328578,65915,8511,663750,0
4,-1,643045,220649,1320139,66830,8453,659259,0
4,-1,636228,218000,1232096,65636,7805,615592,0
4,-1,642077,218931,1147977,65801,8098,573602,0
4,-1,635344,219095,1223825,65896,8381,611543,0
4,-1,639062,218827,1254739,65734,7293,627058,0
4,-1,635938,218085,1175649,65514,6977,587490,0
4,-1,638053,218255,1249524,65511,7394,624354,0
4,-1,636294,218227,1333741,65651,7402,666465,0
4,-1,639896,218615,1232192,65730,7130,615546,0
4,-1,636443,217778,1119119,65410,6430,559213,0
4,-1,641563,219917,1197127,66217,7620,598058,0
4,-1,641351,219295,1242793,65698,7424,620778,0
4,-1,641633,219874,1166060,66055,7019,582787,0
4,-1,640006,218443,1276121,65581,7093,637752,0
4,-1,640141,217984,1168340,65729,7057,583577,0
4,-1,634619,217934,1243570,65311,7442,621466,0
4,-1,641743,219246,1168771,65860,7560,584029,0
4,-1,638555,218666,1414420,65409,8655,706851,0
4,-1,633335,217525,1109921,65174,6668,554621,0
4,-1,640578,218830,1150257,65658,6893,574716,0
4,-1,656992,222203,1188321,68555,7776,593852,0
4,-1,635652,219215,1186505,65769,7018,592844,0
4,-1,643498,220668,1173707,66517,7868,586264,0
4,-1,641011,218730,1164161,65627,6985,581651,0
4,-1,637960,218313,1362989,65376,7880,681175,0
4,-1,637428,217001,1207724,65017,7419,603566,0
4,-1,642607,218847,1187346,65897,7438,593108,0
5,0,761430,266517,1433378,78796,8632,716340,11
5,-1,684131,234494,1383407,69840,7454,691434,0
5,-1,636113,218443,1222575,65598,6775,610792,0
5,-1,636021,218061,1164405,65574,7438,581803,0
5,-1,635290,217385,1458709,65304,8735,728805,0
5,-1,633651,218252,1136874,65686,6574,568072,2
5,-1,637991,218102,1182244,65531,7428,590795,0
5,-1,637212,219124,1217626,65833,6344,608429,0
5,-1,639155,218437,1266424,65781,7183,632932,0
5,-1,640352,218732,1308530,65817,8970,653682,0
5,-1,659119,223189,1247982,69141,8968,623644,0
5,-1,635899,218020,1235519,65602,7477,617220,0
5,-1,644986,220447,1211158,66605,8908,604890,0
5,-1,636421,219146,1349744,66136,8871,674222,0
5,-1,659554,223298,1215728,69016,7823,607459,0
5,-1,660445,223294,1289544,69062,8238,644282,0
5,-1,639796,219446,1258354,66018,7444,628845,0
5,-1,643537,220717,1325069,66778,8461,661667,0
5,-1,641783,219854,1355109,66150,7339,676977,0
5,-1,641413,220388,1212007,66498,7529,605277,0
5,-1,661036,224403,1242647,69376,8912,621015,0
5,-1,646845,221626,1347569,66795,8292,673066,0
5,-1,637215,218556,1216507,65536,6974,607880,0
5,-1,663245,223651,1221379,69115,7873,610244,0
5,-1,641320,218228,1156201,65628,6777,577762,0
5,-1,635093,218415,1267267,65529,7729,633258,0
5,-1,639128,218305,1116973,65501,7267,558141,0
5,-1,660402,223946,1217066,68986,7973,608251,0
5,-1,640510,218532,1294267,65509,7060,646816,0
5,-1,636385,217513,1217577,65191,7173,608405,0
5,-1,638912,218264,1137134,65479,7285,568339,0
5,-1,634281,218009,1282154,65343,6893,640767,0
5,-1,658404,222953,1145231,68794,7388,572268,0
5,-1,661039,222571,1258299,68661,8417,628953,0
5,-1,639956,219416,1285784,65792,7478,642687,0
5,-1,646248,220356,1423067,66322,9478,710680,0
5,-1,639858,217510,1355588,65280,7563,677455,0
6,0,765778,267802,1437817,79354,9017,718315,11
6,-1,686454,235810,1305150,70305,7282,652221,0
6,-1,634481,217816,1256170,65327,7655,627652,0
6,-1,635112,217720,1174529,65393,7316,586756,0
6,-1,634668,217340,1407812,65304,8212,703493,0
6,-1,641283,220544,1268299,66631,6761,633547,2
6,-1,638616,218679,1110224,65660,6949,554752,0
6,-1,637438,218139,1293081,65480,7114,646155,0
6,-1,645954,220850,1258305,66838,7854,628544,0
6,-1,659597,222827,1265094,68943,7827,631609,0
6,-1,640046,218388,1155579,65757,8174,577338,0
6,-1,640914,220222,1286523,66525,7896,642640,0
6,-1,661225,223362,1196887,69108,8865,597934,0
6,-1,632477,218294,1480682,65576,9476,739914,0
6,-1,636296,218233,1313324,65594,7222,656318,0
6,-1,638748,219788,1268414,66323,7698,633648,0
6,-1,640589,220244,1292144,66527,7518,645496,0
6,-1,657607,222726,1295275,68897,8579,647091,0
6,-1,642378,220537,1313036,66589,7979,655560,0
6,-1,642518,220628,1278952,66486,7650,638964,0
6,-1,637229,218772,1199630,65699,7328,599164,0
6,-1,642733,220041,1332402,66004,7736,665811,0
6,-1,667282,224188,1320378,69274,8182,659851,0
6,-1,640439,219019,1161884,65763,7033,580623,0
6,-1,639513,218187,1171442,65599,6314,585312,0
6,-1,638691,220316,1300493,66464,7347,649641,0
6,-1,637750,218166,1157753,65522,7525,578500,0
6,-1,637272,218879,1249040,65487,7453,624012,0
6,-1,638757,218249,1227293,65530,7189,613365,0
6,-1,637992,217957,1170818,65333,6999,585078,0
6,-1,640224,219481,1204083,66100,7511,601480,0
6,-1,643890,218298,1225965,65406,6961,612369,0
6,-1,635435,217961,1180321,65321,7319,589819,0
6,-1,659600,223003,1175412,68767,7532,587369,0
6,-1,637057,217973,1251779,65264,7835,625501,0
6,-1,639084,218464,1250179,65489,7356,624731,0
6,-1,660139,222872,1286202,68888,7773,642771,0
7,0,756126,265675,1382450,78517,8902,690883,11
7,-1,690821,237790,1308083,71146,7994,653526,0
7,-1,634074,217967,1132374,65382,6267,565838,0
7,-1,640231,220295,1242910,66531,8107,620677,0
7,-1,658618,222653,1289770,68898,9061,644558,0
7,-1,641441,218976,1167497,65720,6755,583446,0
7,-1,637644,218051,1146594,65575,6510,572940,2
7,-1,638367,218775,1292838,65681,7138,646123,0
7,-1,665941,224440,1277078,70065,8110,638030,0
7,-1,638728,218536,1574425,65873,9983,786413,0
7,-1,639843,218604,1184600,65805,7927,592011,0
7,-1,638540,218888,1182449,65930,7969,590785,0
7,-1,640599,218775,1193688,65818,8170,596583,0
7,-1,658819,223274,1224577,69041,8790,611990,0
7,-1,636360,218462,1264302,65620,7266,631911,0
7,-1,635828,218772,1146349,65810,7312,572560,0
7,-1,656759,223069,1326201,68983,8031,662672,0
7,-1,637464,218814,1283469,65776,7630,641419,0
7,-1,642826,219115,1270935,65879,8114,634867,0
7,-1,636409,218821,1159354,65707,7059,579227,0
7,-1,656500,223114,1228373,68839,8722,613797,0
7,-1,644405,219498,1224703,65793,8145,611956,0
7,-1,645302,219790,1324912,66023,7538,662008,0
7,-1,639737,218563,1227835,65599,7516,613548,0
7,-1,639780,217902,1237547,65457,6927,618345,0
7,-1,654635,222772,1277910,68788,8148,638616,0
7,-1,639607,219284,1202754,65819,7573,601048,0
7,-1,643309,218832,1241703,65526,7437,620483,0
7,-1,636904,218258,1258337,65422,6931,628876,0
7,-1,642588,219968,1169602,66313,7604,584232,0
7,-1,658349,222853,1174681,68761,7908,587004,0
7,-1,641534,218232,1244758,65465,7874,622005,0
7,-1,660023,223625,1201078,68982,7796,600133,0
7,-1,638534,218247,1168977,65410,7149,584140,0
7,-1,642431,220734,1230682,66438,7547,614702,0
7,-1,641218,218009,1214471,65335,7409,606772,0
7,-1,641981,218120,1235711,65455,7990,617428,0
8,0,754232,265662,1358729,78523,8599,678931,11
8,-1,692701,237169,1319450,70760,7624,659238,0
8,-1,632332,217373,1156742,65180,6283,577971,0
8,-1,633794,218502,1121534,65705,7711,560332,0
8,-1,637530,217960,1245933,65498,7637,622561,0
8,-1,638060,218500,1135529,65587,6402,567351,0
8,-1,639835,219038,1238705,65812,7260,619020,2
8,-1,659318,223322,1282291,69034,8077,640807,0
8,-1,637271,218323,1152703,65756,6986,575981,0
8,-1,637397,218514,1269369,65806,7698,634371,0
8,-1,638120,218068,1148492,65613,7864,573904,0
8,-1,636542,218595,1227955,65771,8189,613706,0
8,-1,639064,218591,1191785,65704,7831,595581,0
8,-1,638460,219431,1243394,65984,7867,621276,0
8,-1,638780,219355,1167035,65891,6982,583120,0
8,-1,641647,219558,1281842,66055,7054,640580,0
8,-1,639861,220166,1331910,66198,7974,665539,0
8,-1,638139,219510,1217474,66074,7544,608150,0
8,-1,642964,219818,1294503,66345,8178,646456,0
8,-1,636169,219132,1259620,65762,7322,629381,0
8,-1,637677,219572,1236677,65870,7604,617822,0
8,-1,644514,220467,1268790,66131,7839,633878,0
8,-1,643731,219487,1222707,65929,6832,610984,0
8,-1,640401,219395,1283093,66130,7516,640927,0
8,-1,645460,220212,1276335,66510,7796,637627,0
8,-1,641970,219592,1338616,65928,8218,668966,0
8,-1,640972,218705,1139565,65613,7092,569384,0
8,-1,645305,220029,1257704,66100,7520,628355,0
8,-1,636937,218630,1152664,65519,6988,575938,0
8,-1,660458,223329,1149959,68898,7778,574632,0
8,-1,638612,219089,1167242,65732,7207,583248,0
8,-1,639627,217394,1247224,65135,7882,623272,0
8,-1,636305,218404,1258118,65514,7613,628546,0
8,-1,638310,218227,1316845,65466,7701,658167,0
8,-1,656530,222901,1220767,68724,8067,609892,0
8,-1,641652,218433,1179806,65473,7329,589481,0
8,-1,643995,219413,1209626,66089,7445,604205,0
9,0,761200,267824,1461851,79463,8667,730274,11
9,-1,688840,236181,1201411,70382,7209,600334,0
9,-1,638571,220343,1249087,66481,7273,623631,0
9,-1,637281,218419,1260599,65632,7467,629972,0
9,-1,636284,217923,1162957,65532,7234,581168,0
9,-1,639464,218533,1220618,65563,7089,609956,0
9,-1,634798,218716,1179126,65716,6763,589202,2
9,-1,639850,220022,1329582,66311,7255,664326,0
9,-1,641300,219856,1297250,66446,7941,648090,0
9,-1,644557,220175,1281615,66619,8173,640235,0
9,-1,641973,220111,1219504,66598,9042,609144,0
9,-1,643183,218071,1188423,65655,7807,593939,0
9,-1,640771,218514,1183438,65706,8649,591192,0
9,-1,637144,219317,1261471,65920,8234,630448,0
9,-1,638814,219842,1296248,66342,7409,647520,0
9,-1,637699,218135,1235339,65513,7050,617126,0
9,-1,636560,218299,1231826,65578,7886,615439,0
9,-1,636911,218768,1210713,65748,8123,605003,0
9,-1,645596,221070,1389898,66868,8350,694734,0
9,-1,633467,218096,1225914,65435,6848,612449,0
9,-1,637384,218810,1186522,65748,7275,592904,0
9,-1,637779,218224,1178807,65371,7326,589029,0
9,-1,646136,220718,1269686,66503,7119,634374,0
9,-1,640797,218207,1278170,65496,7887,638734,0
9,-1,663313,223514,1279377,69085,7831,639287,0
9,-1,638617,218674,1208387,65543,7887,603846,0
9,-1,639566,219170,1377359,65828,7914,687850,0
9,-1,637511,218073,1195423,65176,7083,597339,0
9,-1,635762,218219,1248088,65283,7304,623734,0
9,-1,637153,218277,1154101,65422,6638,576729,0
9,-1,636648,218309,1107593,65428,7136,553456,0
9,-1,646169,220014,1257684,66212,7884,628362,0
9,-1,634095,218025,1234147,65399,7164,616733,0
9,-1,640188,219121,1297907,65937,7561,648359,0
9,-1,643115,217628,1225981,65153,6918,612244,0
9,-1,640441,217989,1249966,65263,8184,624604,0
9,-1,639564,217784,1243337,65322,7395,621280,0
10,0,758147,265893,1397998,78570,8431,698529,11
10,-1,711270,241802,1361673,74033,7724,680461,0
10,-1,652724,222648,1299552,68766,7979,649375,0
10,-1,635798,218208,1248096,65567,8109,623600,0
10,-1,640064,219501,1256603,66170,7111,627800,0
10,-1,637865,218237,1195354,65483,6692,597368,0
10,-1,636902,218369,1118665,65627,6832,559079,0
10,-1,641461,220690,1286851,66703,7099,642982,2
10,-1,636367,217882,1288426,65559,7817,643854,0
10,-1,661889,223670,1269446,69284,8469,634386,0
10,-1,638116,218493,1172622,65790,7597,585988,0
10,-1,642472,218767,1234506,65892,7430,616802,0
10,-1,644160,220697,1620482,66706,10126,809554,0
10,-1,632639,218207,1190228,65531,7790,594644,0
10,-1,637911,218755,1257752,65803,7329,628527,0
10,-1,659520,223386,1315686,69128,7107,657491,0
10,-1,638979,219145,1194157,65840,7007,596711,0
10,-1,638139,218487,1268382,65682,8656,633881,0
10,-1,635360,217352,1280679,65398,8162,639787,0
10,-1,664452,227953,1284049,68425,7314,641600,0
10,-1,642435,219451,1280154,66002,7252,639591,0
10,-1,642639,219524,1215994,65787,7358,607604,0
10,-1,643067,219758,1162513,65957,7079,580827,0
10,-1,637793,218063,1296881,65481,7223,648145,0
10,-1,641571,219074,1315146,65843,7280,657214,0
10,-1,637050,219145,1251180,65763,7923,625189,0
10,-1,639634,218821,1260489,65668,7821,629600,0
10,-1,645472,220594,1205127,66398,7847,602016,0
10,-1,644512,220852,1358998,66525,7469,678811,0
10,-1,633344,216781,1099276,64955,6698,549287,0
10,-1,638469,218434,1173795,65531,7421,586521,0
10,-1,639541,218062,1141926,65431,7452,570616,0
10,-1,638180,219594,1252030,66049,7606,625516,0
10,-1,646299,220353,1259087,66397,7707,628890,0
10,-1,647442,220213,1216112,66167,7769,607411,0
10,-1,661833,223169,1278444,68802,7911,638812,0
10,-1,639133,218141,1403985,65494,7829,701413,0
11,0,758208,264948,1375834,78200,8439,687449,11
11,-1,687444,236294,1180302,70400,6302,589664,0
11,-1,637747,218296,1194011,65546,6925,596432,0
11,-1,637820,219003,1176050,65774,7217,587752,0
11,-1,635771,218034,1220576,65565,7498,609837,0
11,-1,636380,218199,1234309,65477,6994,616885,0
11,-1,635564,218070,1187722,65445,7683,593553,0
11,-1,632381,218515,1109156,65692,6388,554208,2
11,-1,638161,218238,1270745,65755,7228,634960,0
11,-1,636933,217629,1349979,65478,7769,674520,0
11,-1,638828,218796,1306611,65855,8185,653045,0
11,-1,640122,218097,1255892,65613,7802,627561,0
11,-1,660992,223330,1236861,69000,9258,618140,0
11,-1,635686,219080,1274743,65906,7835,636909,0
11,-1,640900,220212,1278563,66529,6901,638781,0
11,-1,636844,218446,1282911,65724,7531,641028,0
11,-1,641046,220373,1295452,66511,8230,646873,0
11,-1,637979,218836,1296931,65852,8210,647744,0
11,-1,638379,218830,1246632,65700,8183,622881,0
11,-1,636638,218310,1229365,65496,6861,614274,0
11,-1,662073,223205,1244589,69023,8905,621858,0
11,-1,644368,220565,1300969,66134,7629,650167,0
11,-1,641518,218744,1282275,65639,7860,640796,0
11,-1,639864,218955,1256832,65788,7606,628034,0
11,-1,640128,218505,1150904,65623,6458,575134,0
11,-1,635704,218083,1360413,65418,8825,679778,0
11,-1,641413,219723,1260974,66213,7691,629982,0
11,-1,639558,218753,1216140,65512,7197,607637,0
11,-1,636345,218635,1236356,65447,7168,617827,0
11,-1,636638,218348,1161852,65515,6968,580524,0
11,-1,643975,219553,1187644,66107,7738,593276,0
11,-1,645283,220273,1333333,66382,8070,666123,0
11,-1,636584,218183,1173636,65473,6911,586428,0
11,-1,638575,217818,1175045,65279,7422,587217,0
11,-1,640518,218027,1151332,65358,7281,575260,0
11,-1,639893,218242,1263030,65463,7353,631060,0
11,-1,637014,217702,1185520,65304,6892,592349,0
12,0,740384,260171,1374290,76833,7982,686568,11
12,-1,711415,241549,1343777,73949,7864,671525,0
12,-1,642741,220247,1191522,66368,7285,595118,0
12,-1,634869,218192,1243427,65549,7278,621384,0
12,-1,634883,217780,1150172,65437,6806,574730,0
12,-1,638540,219057,1248169,66156,7145,623602,0
12,-1,635283,217734,1171638,65292,6795,585385,0
12,-1,637623,219082,1266431,65966,7259,632900,2
12,-1,636692,217879,1305241,65570,7087,652308,0
12,-1,639172,219046,1541717,65964,9383,770239,0
12,-1,637280,218529,1508787,65845,9818,753654,0
12,-1,638832,217863,1155077,65606,6749,577049,0
12,-1,639015,218488,1243275,65669,8141,621190,0
12,-1,659141,227158,1274469,68206,7742,636796,0
12,-1,636959,219058,1204548,65911,7223,601862,0
12,-1,638438,218969,1199245,65822,6943,599242,0
12,-1,656760,223187,1283465,68989,8412,641341,0
12,-1,637700,219735,1200094,66333,7585,599314,0
12,-1,642292,220007,1296333,66371,8325,647435,0
12,-1,638642,219343,1172192,65886,7040,585619,0
12,-1,638507,218820,1220123,65680,6800,609731,0
12,-1,641401,219876,1263982,65891,6925,631740,0
12,-1,643284,219643,1167901,65998,7048,583552,0
12,-1,638530,218877,1149114,65776,7436,574173,0
12,-1,640405,218894,1231719,65741,6743,615498,0
12,-1,640139,220160,1274247,66316,8721,636390,0
12,-1,636031,218468,1139366,65714,6795,569285,0
12,-1,639780,219267,1165124,65807,7410,582011,0
12,-1,638679,219148,1151721,65662,7372,575558,0
12,-1,658494,223058,1295469,68802,7687,647308,0
12,-1,637999,218161,1194266,65392,6991,596830,0
12,-1,641935,218726,1250596,65618,7807,624943,0
12,-1,637644,217803,1295146,65274,7950,647246,0
12,-1,640305,219550,1251235,66089,7032,625048,0
12,-1,641633,218093,1446463,65290,9539,722900,0
12,-1,644138,220227,1206524,66277,7713,602688,0
12,-1,645326,219039,1239522,65958,7532,619161,0
13,-1,690124,236662,1214743,70580,7119,607013,0
13,0,704855,247229,1291150,73446,8848,645090,11
13,-1,635659,217995,1189468,65404,7524,594340,0
13,-1,631596,217519,1227832,65361,7454,613341,0
13,-1,635022,217694,1170070,65419,6614,584698,0
13,-1,640140,218391,1164251,65710,7130,581752,0
13,-1,658716,223979,1203803,69102,7951,601589,0
13,-1,636157,218052,1132417,65670,6623,565907,0
13,-1,638883,218195,1230395,65696,8018,614804,2
13,-1,636205,218237,1220213,65741,7405,609808,0
13,-1,636305,218559,1164243,65828,7335,581783,0
13,-1,638993,217834,1227366,65490,7369,613402,0
13,-1,638527,218896,1192003,65854,8234,595669,0
13,-1,654688,223360,1220546,69063,8181,609735,0
13,-1,634600,218517,1186861,65717,7329,593059,0
13,-1,637480,219262,1246446,66006,6770,622799,0
13,-1,636835,219977,1366134,66372,8529,682363,0
13,-1,634992,219123,1232466,65825,7324,615871,0
13,-1,640738,219177,1234722,65905,7319,616972,0
13,-1,639204,219769,1251143,66154,7246,624924,0
13,-1,637521,218233,1202996,65602,7618,601215,0
13,-1,664349,224332,1191105,69127,7256,595175,0
13,-1,641344,218895,1255755,65692,7573,627525,0
13,-1,635852,218223,1146846,65555,7212,573025,0
13,-1,642541,219934,1259133,66272,7076,629162,0
13,-1,634706,218497,1268032,65554,9172,633618,0
13,-1,657206,221739,1106133,68506,7951,552739,0
13,-1,642262,219957,1133011,65886,7271,566092,0
13,-1,636039,218660,1146401,65511,7285,572787,0
13,-1,639995,218679,1245621,65613,7412,622533,0
13,-1,660669,222754,1291175,68750,8370,645250,0
13,-1,642550,219399,1244071,66042,7821,621558,0
13,-1,646039,220883,1303928,66636,7834,651144,0
13,-1,637781,218260,1172680,65513,7089,586087,0
13,-1,648498,220945,1184817,66607,8053,591643,0
13,-1,640817,218631,1197960,65574,7659,598579,0
13,-1,644028,219011,1241617,65783,7565,620475,0
14,-1,686539,235693,1282378,70222,6485,640857,0
14,0,706375,247672,1312706,73626,8499,655780,11
14,-1,636463,217972,1170582,65405,7123,584809,0
14,-1,633210,218133,1211864,65601,6675,605443,0
14,-1,635009,218283,1147220,65660,6799,573137,0
14,-1,640722,218249,1244254,65530,7119,621803,0
14,-1,636111,219094,1175229,65710,7598,587284,0
14,-1,634818,217896,1148720,65563,6567,574083,0
14,-1,637717,219141,1183630,66026,7828,591338,2
14,-1,639454,219906,1296982,66463,7726,647888,0
14,-1,661961,227477,1264383,68407,7719,631946,0
14,-1,640923,218911,1289568,65954,7410,644213,0
14,-1,638053,218661,1258827,65717,8361,628995,0
14,-1,632491,218644,1273216,65777,8554,636193,0
14,-1,634340,218407,1221269,65589,6970,610328,0
14,-1,657496,222697,1197725,68901,8355,598511,0
14,-1,637443,218556,1278363,65602,7596,638862,0
14,-1,662430,223383,1329201,68981,8710,664217,0
14,-1,639376,219078,1286559,65876,7783,642665,0
14,-1,635281,218577,1159270,65649,6227,579153,0
14,-1,640887,219676,1266700,66268,8298,632863,0
14,-1,639694,219316,1173519,65783,6495,586393,0
14,-1,646699,221386,1265978,66799,7839,632451,0
14,-1,637159,218255,1227248,65511,7288,613231,0
14,-1,643543,219021,1166515,65796,6835,582860,0
14,-1,638937,219339,1198604,66065,8009,598763,0
14,-1,637964,218419,1338853,65601,7970,669055,0
14,-1,640001,218361,1169528,65360,7724,584423,0
14,-1,634991,218254,1329711,65338,7465,664524,0
14,-1,637402,218195,1269437,65447,6665,634269,0
14,-1,641594,220100,1254415,66257,7075,626731,0
14,-1,639907,218242,1112026,65471,7426,555626,0
14,-1,659578,222879,1205641,68747,8083,602438,0
14,-1,635844,217647,1254686,65239,7512,627027,0
14,-1,644562,220201,1292123,66236,7996,645306,0
14,-1,646551,220766,1198269,66462,7790,598629,0
14,-1,639434,217666,1255722,65304,7438,627499,0
15,-1,687612,236485,1224824,70531,6400,611979,0
15,0,700332,247322,1317608,73510,8960,658414,11
15,-1,642070,220597,1186016,66605,7796,592211,0
15,-1,657410,226483,1359177,67936,7877,679237,0
15,-1,633311,217916,1163135,65491,7149,581332,0
15,-1,646259,220751,1368721,66741,7704,683792,0
15,-1,637480,218871,1233434,65611,8244,616344,0
15,-1,659820,222928,1211590,69011,8227,605473,0
15,-1,641561,218459,1261416,65733,8566,630395,0
15,-1,639147,218976,1208102,65979,7174,603740,2
15,-1,635838,218115,1279713,65689,8696,639521,0
15,-1,639222,218330,1186248,65700,6887,592754,0
15,-1,663378,223263,1351907,69055,8262,675550,0
15,-1,638755,219817,1167599,66128,7929,583342,0
15,-1,633925,218640,1268083,65772,6743,633688,0
15,-1,636972,218698,1247402,65729,7051,623362,0
15,-1,636159,218416,1264442,65645,7415,631980,0
15,-1,641487,219776,1256900,66173,7141,627983,0
15,-1,637196,218254,1208542,65557,7628,603951,0
15,-1,635828,218802,1244017,65649,7348,621584,0
15,-1,637517,218115,1405415,65409,9571,702104,0
15,-1,638382,219178,1160549,65703,6647,580008,0
15,-1,662619,223971,1319911,69188,7443,659607,0
15,-1,645270,219118,1224679,65722,6985,612045,0
15,-1,642589,218880,1234979,65697,7582,617273,0
15,-1,635172,218374,1158882,65555,7302,579119,0
15,-1,637667,218134,1324517,65574,7854,661711,0
15,-1,640578,218976,1200163,65581,7298,599688,0
15,-1,641249,221111,1266270,66569,7555,632443,0
15,-1,637240,218326,1146849,65500,7224,572972,0
15,-1,635275,217318,1224223,65124,6822,611770,0
15,-1,643990,220124,1229238,66331,8137,614060,0
15,-1,639133,218000,1167007,65329,6888,583115,0
15,-1,639690,219653,1244600,66139,7088,621695,0
15,-1,641199,218062,1302622,65293,7913,650964,0
15,-1,660252,222909,1278985,68751,7843,639084,0
15,-1,643389,218998,1174395,65769,7105,586816,0
16,-1,692185,237785,1307459,71166,8184,653108,0
16,0,723146,252247,1401692,76883,9963,700517,11
16,-1,635535,218031,1129401,65454,6851,564200,0
16,-1,637163,219396,1284988,66188,8031,641860,0
16,-1,637796,218088,1125977,65582,7222,562584,0
16,-1,639245,218433,1259435,65680,7721,629479,0
16,-1,668213,229542,1306906,69065,8817,653190,0
16,-1,637252,218101,1166952,65589,7026,583153,0
16,-1,639878,218380,1425303,65828,10067,711610,0
16,-1,636518,218601,1274979,65819,9132,636681,2
16,-1,658518,223313,1257427,69167,8659,628267,0
16,-1,642937,220154,1258483,66605,7392,628456,0
16,-1,642424,219234,1553738,65978,10423,776223,0
16,-1,633912,218457,1192423,65652,7407,595769,0
16,-1,658647,223246,1218810,69040,7623,609056,0
16,-1,636126,218749,1266139,65819,6742,632723,0
16,-1,636442,218834,1209520,65864,8270,604160,0
16,-1,639095,218462,1168408,65590,6672,584049,0
16,-1,641142,220266,1417036,66464,8074,707871,0
16,-1,637953,219108,1261694,65809,6990,630483,0
16,-1,641833,219584,1320057,65928,7825,659290,0
16,-1,659938,224175,1183026,69276,7262,591099,0
16,-1,646950,221040,1193133,66590,7536,595882,0
16,-1,645078,219589,1257471,65875,7060,628553,0
16,-1,645024,220636,1264466,66634,7372,631616,0
16,-1,634714,218470,1282361,65538,7747,640642,0
16,-1,636651,218171,1189326,65573,7883,594273,0
16,-1,647005,221626,1266321,66718,7227,632498,0
16,-1,656760,223510,1277813,68866,7631,638479,0
16,-1,637877,217831,1222782,65292,7453,611082,0
16,-1,638543,218342,1161890,65499,7476,580535,0
16,-1,641034,218094,1208708,65357,8143,604054,0
16,-1,637791,218108,1269559,65414,7326,634455,0
16,-1,659645,223596,1183917,68994,8158,591631,0
16,-1,660166,222893,1234745,68698,7962,616948,0
16,-1,639732,218367,1293777,65480,7270,646485,0
16,-1,637759,217241,1244842,65152,7167,622075,0
17,-1,691254,237446,1327031,70796,8120,663086,0
17,0,708339,249778,1378547,74574,9385,688608,11
17,-1,635705,218094,1238594,65467,7433,618835,0
17,-1,630874,217520,1141221,65350,7360,570261,0
17,-1,636611,217904,1166437,65535,7453,582706,0
17,-1,645379,220727,1267490,66756,7105,633169,0
17,-1,638398,219435,1271484,65854,7687,635381,0
17,-1,636361,218176,1118109,65663,6274,558551,0
17,-1,641352,218781,1200301,65833,7613,599659,0
17,-1,642446,220326,1370066,66571,9069,684411,0
17,-1,637958,218632,1187581,65826,7621,593385,2
17,-1,637433,217301,1258893,65335,7422,629120,0
17,-1,638994,218221,1223363,65621,7762,611313,0
17,-1,633847,218988,1255012,65853,7772,627108,0
17,-1,637770,219860,1252296,66348,7233,625587,0
17,-1,637877,219109,1251519,65879,6815,625397,0
17,-1,636185,218500,1234566,65669,7785,616894,0
17,-1,640367,218955,1357620,65825,7131,678437,0
17,-1,658210,223381,1346467,69065,8968,672451,0
17,-1,634682,218277,1220415,65526,6750,609745,0
17,-1,640369,218987,1306419,65644,8613,652601,0
17,-1,640943,219097,1197683,65784,6683,598575,0
17,-1,642449,219434,1170921,65794,7284,585108,0
17,-1,644881,219853,1185496,66016,7507,592468,0
17,-1,638292,217908,1224180,65392,6656,611786,0
17,-1,658226,223375,1167706,68961,8449,583528,0
17,-1,634989,217937,1266555,65452,7809,632923,0
17,-1,658239,222885,1218244,68758,7848,608803,0
17,-1,640349,219651,1350268,65812,7054,674749,0
17,-1,658927,223130,1282872,68812,8139,641104,0
17,-1,641490,220047,1226082,66316,7072,612410,0
17,-1,644383,219464,1188138,66051,7714,593554,0
17,-1,637604,218265,1180865,65440,7305,590102,0
17,-1,640556,219430,1144234,65837,6849,571756,0
17,-1,642716,218988,1172476,65594,7824,585834,0
17,-1,639784,219047,1485702,65708,8863,742434,0
17,-1,639459,218049,1299496,65487,6900,649323,0
18,-1,686505,235696,1297292,70210,7090,648305,0
18,0,702204,246672,1301993,73198,8121,650623,11
18,-1,633931,217726,1225108,65301,7240,612150,0
18,-1,630852,217836,1157018,65444,7146,578110,0
18,-1,636043,217688,1123835,65413,7247,561498,0
18,-1,639050,219103,1208519,65785,6574,603933,0
18,-1,656189,223155,1276999,68776,8382,638014,0
18,-1,641226,220257,1186188,66462,7295,592606,0
18,-1,660554,223594,1267161,69245,8468,633124,0
18,-1,633643,217873,1193790,65561,8271,596699,0
18,-1,635601,218359,1208037,65732,7517,603570,2
18,-1,636594,217887,1237297,65565,7560,618289,0
18,-1,639819,218472,1260719,65653,7995,629940,0
18,-1,638010,220450,1317389,66605,8350,658074,0
18,-1,634290,218290,1177574,65597,6488,588413,0
18,-1,654742,223000,1211465,68977,8420,605412,0
18,-1,637035,219222,1257742,65894,8298,628473,0
18,-1,641156,219700,1263319,66318,7468,630973,0
18,-1,635609,218510,1149017,65552,7873,573833,0
18,-1,656391,223084,1294380,68861,8112,646766,0
18,-1,642746,220489,1518332,66491,9114,758298,0
18,-1,643704,219502,1235495,65942,7491,617383,0
18,-1,642516,220000,1108569,66034,6343,553949,0
18,-1,644291,219525,1246157,65874,7299,622732,0
18,-1,642639,219919,1287083,66176,7267,643049,0
18,-1,637077,219927,1383675,66233,7581,691298,0
18,-1,642087,220485,1279903,66589,8133,639404,0
18,-1,640706,218838,1207070,65601,7132,603189,0
18,-1,645846,219952,1168516,65880,7960,583878,0
18,-1,635555,217809,1163623,65289,7214,581449,0
18,-1,660141,223645,1180951,69000,7285,590129,0
18,-1,642779,219129,1120924,65751,7160,560145,0
18,-1,636393,218046,1257769,65342,7442,628526,0
18,-1,634323,217465,1229569,65117,7447,614429,0
18,-1,638777,217935,1251991,65300,8264,625646,0
18,-1,638058,218472,1241891,65415,7531,620612,0
18,-1,639595,218064,1305855,65386,7234,652560,0
19,-1,687429,236297,1186670,70491,6895,593009,0
19,0,701996,247684,1428991,73625,8633,713917,11
19,-1,639316,220180,1273307,66420,7560,636024,0
19,-1,663423,223187,1307544,68982,8159,653470,0
19,-1,635817,217951,1122472,65506,6625,560725,0
19,-1,636008,218048,1223769,65559,6761,611520,0
19,-1,635630,218659,1285470,65557,6565,642454,0
19,-1,637370,218458,1135686,65696,6697,567422,0
19,-1,637979,218072,1204491,65672,8386,601801,0
19,-1,635081,218295,1187554,65769,7777,593390,0
19,-1,641952,220221,1267622,66638,8394,633068,2
19,-1,641187,219056,1479045,65957,9754,739176,0
19,-1,641522,219519,1312923,66044,7453,656096,0
19,-1,632237,218680,1489417,65795,9252,744359,0
19,-1,654082,222845,1302134,68937,7964,650749,0
19,-1,639647,218838,1149965,65823,6842,574678,0
19,-1,635769,218794,1235662,65831,7689,617536,0
19,-1,636644,218456,1364130,65676,8468,681473,0
19,-1,636318,219048,1204328,65697,8279,601696,0
19,-1,633716,218418,1333586,65716,7550,666419,0
19,-1,639683,219552,1294832,65904,7621,647024,0
19,-1,644518,220096,1181468,66261,7082,590445,0
19,-1,663663,224592,1169748,69292,8100,584572,0
19,-1,646222,220737,1293194,66521,7889,646066,0
19,-1,636287,217731,1230834,65309,7348,615061,0
19,-1,633709,219087,1269590,65779,6991,634529,0
19,-1,636594,218135,1282534,65489,8232,640850,0
19,-1,638028,218473,1310565,65551,7342,654934,0
19,-1,642724,218449,1260391,65398,7835,629836,0
19,-1,641607,219597,1257567,66088,7678,628246,0
19,-1,636042,218237,1229671,65483,6905,614390,0
19,-1,639366,217874,1173881,65294,7658,586596,0
19,-1,643185,220235,1260635,66385,7584,629751,0
19,-1,641622,220311,1287007,66400,7453,642783,0
19,-1,638019,218013,1236453,65336,7458,617867,0
19,-1,658359,222952,1274446,68723,7997,636840,0
19,-1,638211,217821,1528789,65430,8883,763907,0
20,-1,710023,242123,1325850,74165,8374,662451,0
20,0,725010,251617,1420817,76688,9675,710045,11
20,-1,654942,222334,1290370,68629,7978,644817,0
20,-1,641752,219539,1292972,66207,7513,645889,0
20,-1,656684,222357,1295986,68749,7816,647627,0
20,-1,637802,218162,1131699,65571,6414,565577,0
20,-1,634450,218822,1151160,65661,6467,575189,0
20,-1,641819,220868,1408103,66801,7232,703418,0
20,-1,657697,222925,1256864,69045,8729,628338,0
20,-1,639575,220719,1287868,66800,8654,643299,0
20,-1,641643,219936,1271942,66548,7852,635362,0
20,-1,640859,219158,1236220,66031,7340,617733,2
20,-1,639988,218754,1392098,65751,8059,695469,0
20,-1,645102,219079,1191263,65852,7685,595276,0
20,-1,637341,219675,1260811,66296,7304,629904,0
20,-1,637898,218527,1188728,65744,7025,594033,0
20,-1,633729,218501,1197233,65692,7611,598136,0
20,-1,637525,219171,1350793,65859,7797,674885,0
20,-1,640473,218611,1202971,65610,8188,600986,0
20,-1,634984,219242,1264787,65894,7037,632069,0
20,-1,638481,219257,1244670,65750,6959,621955,0
20,-1,643343,219689,1280635,66050,7810,640008,0
20,-1,640355,219497,1185515,65881,7314,592335,0
20,-1,644894,219331,1152911,65787,6660,576178,0
20,-1,662734,223105,1250244,68835,7619,624834,0
20,-1,639981,218532,1263406,65569,6877,631391,0
20,-1,638271,218953,1399478,65979,7773,699133,0
20,-1,639242,219135,1142186,65754,6615,570835,0
20,-1,647280,220858,1249778,66476,7932,624318,0
20,-1,637993,218780,1149036,65632,7107,574221,0
20,-1,633801,217412,1239146,65156,6855,619259,0
20,-1,640468,218446,1127526,65576,7029,563444,0
20,-1,638580,218747,1327370,65622,7475,663412,0
20,-1,636677,218412,1238296,65497,7544,618785,0
20,-1,641716,218021,1264344,65314,8210,631705,0
20,-1,641127,217876,1170996,65127,7525,585157,0
20,-1,642353,219575,1182054,66150,7047,590442,0
21,-1,690463,236734,1223497,70615,7137,611323,0
21,0,701582,246566,1315627,73148,8216,657427,11
21,-1,632317,217607,1153604,65445,6382,576256,0
21,-1,638781,218474,1247205,65671,7183,623267,0
21,-1,634291,217604,1201942,65457,5742,600481,0
21,-1,637301,218415,1235327,65764,6582,617349,0
21,-1,643909,219235,1233361,65782,6542,616302,0
21,-1,655316,222884,1248466,68979,7426,623856,0
21,-1,635657,217706,1314276,65516,8617,656732,0
21,-1,643562,218847,1249540,65926,7973,624292,0
21,-1,640111,218838,1233724,65877,8163,616615,0
21,-1,641272,219047,1462522,65921,10151,730780,0
21,-1,645640,220611,1352995,66672,7620,675826,2
21,-1,662949,223003,1230353,68933,8705,614853,0
21,-1,635522,218732,1165638,65787,6902,582432,0
21,-1,642101,220477,1255964,66635,7022,627416,0
21,-1,638272,218952,1149859,65862,7592,574511,0
21,-1,639414,218727,1492416,65791,8576,745440,0
21,-1,645257,220628,1212813,66652,8203,605617,0
21,-1,635930,218407,1182449,65715,6972,590747,0
21,-1,638134,218535,1178063,65573,7510,588603,0
21,-1,641173,219274,1199610,65972,7148,599486,0
21,-1,641365,219941,1220446,65914,7696,609903,0
21,-1,646543,220642,1397936,66451,7275,698394,0
21,-1,641097,218443,1250996,65610,6963,625095,0
21,-1,645960,219099,1141940,65779,7094,570372,0
21,-1,639664,219770,1305292,66350,8449,651830,0
21,-1,638797,218912,1414706,65678,8314,706895,0
21,-1,663492,224001,1246000,69027,8441,622659,0
21,-1,635458,218061,1254680,65364,7335,627059,0
21,-1,640065,219689,1256698,66127,7027,627961,0
21,-1,638271,217849,1244490,65292,7941,621907,0
21,-1,638764,218735,1144222,65635,6684,571722,0
21,-1,643353,219896,1222386,66174,7165,610761,0
21,-1,660968,222549,1248719,68537,8296,623967,0
21,-1,643918,219109,1192686,65878,7965,595771,0
21,-1,638144,218235,1221288,65528,7000,610249,0
22,-1,690651,237388,1329617,71015,8232,664231,0
22,0,701976,246380,1337460,73137,8174,668366,11
22,-1,637730,219726,1270303,66255,7090,634636,0
22,-1,642886,220421,1269185,66625,7277,633853,0
22,-1,632412,217118,1277544,65232,6719,638359,0
22,-1,639259,218613,1153062,65754,6466,576058,0
22,-1,642705,218237,1197699,65364,6789,598530,0
22,-1,637398,218304,1147427,65630,7061,573337,0
22,-1,640030,219437,1314778,66300,8814,656763,0
22,-1,646485,220513,1299637,66607,8635,649221,0
22,-1,639571,218643,1266454,65860,8405,632744,0
22,-1,640925,218682,1256499,65663,8083,627884,0
22,-1,638270,218940,1144038,65882,7821,571565,2
22,-1,642127,218707,1168770,65778,7969,584044,0
22,-1,635353,218406,1188796,65633,7533,594072,0
22,-1,636213,218936,1181306,65825,6616,590333,0
22,-1,639465,220066,1317764,66447,8200,658096,0
22,-1,638640,218692,1373644,65705,8699,686215,0
22,-1,638361,218290,1267697,65566,7148,633592,0
22,-1,639362,219780,1254830,66322,7662,626818,0
22,-1,638446,219626,1159301,65929,6935,579304,0
22,-1,639663,218708,1256537,65784,7473,627940,0
22,-1,643075,219406,1360209,65760,8177,679862,0
22,-1,643023,219167,1171979,65786,6930,585574,0
22,-1,641885,218995,1246698,65710,7593,623049,0
22,-1,641413,218152,1154658,65523,7252,576968,0
22,-1,656685,223145,1193583,68980,7950,596254,0
22,-1,639826,219437,1345006,65985,8396,671513,0
22,-1,638207,217953,1241509,65111,6853,620442,0
22,-1,659085,222689,1210761,68681,8010,604982,0
22,-1,635976,218561,1142833,65566,6974,571048,0
22,-1,644513,220714,1253553,66535,8031,626278,0
22,-1,636261,218117,1243112,65383,7597,621294,0
22,-1,643599,218998,1154295,65718,7188,576904,0
22,-1,641746,218494,1242680,65491,7016,620951,0
22,-1,640807,218270,1181603,65410,7506,590327,0
22,-1,641420,218195,1175754,65482,7369,587459,0
23,-1,684531,236122,1166942,70360,6973,583067,0
23,0,702553,246900,1399436,73354,8315,699318,11
23,-1,631868,217817,1285199,65472,7130,642203,0
23,-1,637502,217720,1122891,65441,6992,561008,0
23,-1,633104,217282,1192492,65284,6528,595748,0
23,-1,636142,217586,1161152,65491,7816,580207,0
23,-1,642833,218607,1160741,65564,7185,580124,0
23,-1,639118,218917,1235696,65749,7691,617494,0
23,-1,637732,217945,1252735,65665,8313,625990,0
23,-1,641448,218448,1552003,65800,8944,775665,0
23,-1,637207,218496,1427219,65870,9416,713352,0
23,-1,637090,218081,1301569,65584,9308,650327,0
23,-1,638272,218162,1240633,65639,8117,620034,2
23,-1,640125,218602,1262415,65760,7590,630753,0
23,-1,640870,221113,1279398,66841,7837,639212,0
23,-1,639013,220014,1268008,66372,7525,633491,0
23,-1,633843,218331,1283626,65615,8163,641419,0
23,-1,641723,219807,1322810,66095,7964,660936,0
23,-1,639473,218831,1346305,65821,7803,672957,0
23,-1,636661,219069,1159210,65934,6629,579216,0
23,-1,644701,220733,1308808,66546,8776,653725,0
23,-1,641603,219276,1225263,65979,7239,612453,0
23,-1,641189,219279,1259895,65731,8468,629319,0
23,-1,647503,221191,1182179,66701,7354,590401,0
23,-1,639513,218220,1174469,65471,6835,587001,0
23,-1,644358,218791,1243452,65800,7707,621302,0
23,-1,637504,218157,1160854,65558,7498,580038,0
23,-1,640081,218835,1267997,65654,7418,633692,0
23,-1,639515,218718,1354977,65477,7271,677162,0
23,-1,639194,218040,1231001,65341,7099,615204,0
23,-1,633069,217883,1327511,65328,6971,663361,0
23,-1,658751,222626,1197759,68680,8674,598456,0
23,-1,656393,223432,1157138,68917,8241,578107,0
23,-1,638729,217514,1296104,65190,8071,647717,0
23,-1,639346,218002,1173178,65265,6705,586201,0
23,-1,645403,220595,1181291,66495,7413,589912,0
23,-1,638398,217604,1265330,65288,7201,632225,0
24,-1,685076,235934,1214741,70317,6468,606896,0
24,0,710521,248751,1431634,74080,9440,715248,11
24,-1,636079,217728,1321174,65273,7378,660164,0
24,-1,640499,219187,1203158,66091,7600,601014,0
24,-1,654293,222140,1266776,68619,8165,632960,0
24,-1,635160,217573,1115068,65386,6478,557183,0
24,-1,663914,223460,1367739,68944,8143,683470,0
24,-1,640326,219802,1155525,66091,6986,577447,0
24,-1,642771,220157,1288502,66604,8002,643508,0
24,-1,640961,218552,1212977,65779,7604,606078,0
24,-1,638170,218170,1194203,65659,8067,596728,0
24,-1,643383,220613,1283750,66715,8522,641364,0
24,-1,641756,218511,1191552,65611,7852,595537,0
24,-1,633092,218731,1131869,65809,7582,565497,2
24,-1,653593,223013,1200157,68981,7869,599605,0
24,-1,654791,222736,1203136,68886,7979,601222,0
24,-1,636130,219605,1248013,66056,7993,623775,0
24,-1,638261,218958,1244247,65848,6980,621479,0
24,-1,643201,219948,1279954,66380,7587,639539,0
24,-1,637077,219603,1237869,66023,7365,618570,0
24,-1,640338,219322,1496982,65768,8420,747536,0
24,-1,641069,219687,1213256,66153,6916,606248,0
24,-1,643554,219896,1248732,65920,8001,624013,0
24,-1,662050,223707,1152077,69011,7460,575714,0
24,-1,639406,218341,1236920,65496,6479,618233,0
24,-1,647235,220167,1302554,66392,7861,650860,0
24,-1,640457,219703,1280633,66329,8298,639823,0
24,-1,639256,218995,1276031,65661,7311,637686,0
24,-1,647107,220689,1217649,66264,8368,608415,0
24,-1,637443,218114,1148793,65417,7434,574069,0
24,-1,648177,221047,1228846,66688,7375,613793,0
24,-1,638475,218402,1235809,65514,7849,617475,0
24,-1,637494,218004,1199712,65342,7466,599448,0
24,-1,643654,219964,1255463,66291,7786,627110,0
24,-1,647311,220537,1226809,66315,7836,612928,0
24,-1,637338,217826,1181358,65219,7617,590340,0
24,-1,636270,217774,1192321,65367,6689,595777,0
25,-1,690104,238314,1353637,71330,7276,676236,0
25,0,704663,246971,1262059,73299,8678,630668,11
25,-1,637270,219094,1157378,65797,6577,578333,0
25,-1,635309,217837,1314595,65452,7077,656890,0
25,-1,634677,218309,1150282,65624,7370,574712,0
25,-1,634999,217858,1158599,65557,6679,578930,0
25,-1,641964,218689,1242658,65612,6960,621027,0
25,-1,636155,218522,1198415,65704,7017,598867,0
25,-1,637042,218347,1130315,65776,6666,564868,0
25,-1,636995,217992,1208128,65622,7959,603747,0
25,-1,641506,219311,1223569,66043,8127,611220,0
25,-1,657361,222757,1217396,68893,7906,608494,0
25,-1,663673,223295,1251147,69045,9312,625052,0
25,-1,636600,220846,1278074,66795,8269,638263,2
25,-1,634825,219092,1252755,65906,6875,625976,0
25,-1,637139,219464,1288944,66164,7399,643966,0
25,-1,638682,220272,1376028,66475,8382,687309,0
25,-1,637109,218869,1165700,65806,6943,582355,0
25,-1,639116,218711,1217724,65839,7272,608395,0
25,-1,638348,220412,1275689,66608,7814,637261,0
25,-1,641282,220155,1303997,66300,7971,651335,0
25,-1,641611,219240,1155377,65976,6891,577321,0
25,-1,645520,221681,1354130,66728,7834,676587,0
25,-1,645634,219793,1254316,65955,7750,626751,0
25,-1,642229,219883,1244688,66335,6779,621816,0
25,-1,642350,218916,1287382,65818,7977,643291,0
25,-1,659079,223310,1212872,69010,8370,605956,0
25,-1,655727,222935,1224952,68844,7978,612179,0
25,-1,644859,220614,1269985,66281,8148,634493,0
25,-1,636474,217859,1223391,65289,7342,611345,0
25,-1,665234,223676,1209662,69003,8338,604513,0
25,-1,637364,217648,1183582,65208,7633,591444,0
25,-1,637335,217802,1152068,65297,7276,575660,0
25,-1,636033,217751,1254929,65271,7810,627013,0
25,-1,640771,218547,1196173,65520,7573,597585,0
25,-1,639613,218429,1423818,65441,8098,711489,0
25,-1,638049,217778,1239005,65331,7537,619085,0
26,-1,684051,236070,1337649,70366,8097,668457,0
26,0,704118,245945,1366304,72961,9476,682708,11
26,-1,633618,218032,1242949,65455,7060,621057,0
26,-1,641096,219768,1269406,66251,7605,633989,0
26,-1,632408,217134,1225495,65212,7163,612419,0
26,-1,654517,221734,1202885,68614,8054,601040,0
26,-1,642664,218687,1251657,65571,7526,625489,0
26,-1,634767,218211,1125315,65528,6315,562235,0
26,-1,637305,218393,1177352,65675,7839,588301,0
26,-1,645581,220300,1212275,66580,7765,605694,0
26,-1,643867,220713,1209978,66801,8207,604414,0
26,-1,637215,218693,1316438,65779,7944,657913,0
26,-1,642543,219458,1241282,66007,7571,620286,0
26,-1,639902,220121,1225029,66419,9083,611774,0
26,-1,635584,219705,1245818,66126,7144,622467,2
26,-1,636742,219166,1177726,65932,7785,588475,0
26,-1,636604,220361,1304703,66586,8107,651699,0
26,-1,639292,219764,1326375,66279,7459,662579,0
26,-1,639408,218856,1296866,65866,8023,648081,0
26,-1,634450,218962,1314340,65808,7497,656836,0
26,-1,636410,218565,1328001,65515,7683,663004,0
26,-1,641566,219297,1199436,65979,6636,599424,0
26,-1,662967,224404,1260713,69202,8783,629536,0
26,-1,639769,218019,1288776,65434,7486,644062,0
26,-1,641197,218487,1162894,65548,7093,581145,0
26,-1,646959,220018,1261015,66465,7589,629952,0
26,-1,636009,217961,1251148,65506,7897,625226,0
26,-1,638880,219166,1258025,65823,7046,628671,0
26,-1,661813,223822,1212321,68889,8149,605839,0
26,-1,637889,217805,1150160,65343,7256,574775,0
26,-1,639839,217882,1132432,65316,7263,565945,0
26,-1,637460,218063,1265148,65414,7798,632160,0
26,-1,640972,219567,1189206,66100,7587,594082,0
26,-1,638261,218238,1265096,65464,7188,632118,0
26,-1,638854,218344,1448770,65402,9157,724090,0
26,-1,635957,217795,1123398,65188,6810,561247,0
26,-1,637980,218310,1460026,65575,8565,729413,0
27,-1,690591,236705,1286525,70561,6993,642833,0
27,-1,634041,218601,1294322,65594,6698,646720,0
27,0,713162,249928,1470179,74675,9167,734510,11
27,-1,635500,218049,1169242,65415,7319,584140,0
27,-1,635157,218279,1151125,65608,6500,575094,0
27,-1,634393,217764,1234270,65527,7134,616824,0
27,-1,640731,218473,1153555,65515,7048,576431,0
27,-1,637361,218630,1156465,65722,6289,577881,0
27,-1,641403,219776,1178563,66394,7433,588807,0
27,-1,639483,218349,1178316,65760,7139,588672,0
27,-1,659024,223018,1187304,69067,8433,593077,0
27,-1,639063,217982,1207180,65497,7454,603136,0
27,-1,642038,219429,1369743,66142,8623,684375,0
27,-1,638167,218691,1162724,65789,8818,580892,0
27,-1,636852,218961,1262798,65871,7083,631050,2
27,-1,637642,218949,1349401,65855,6347,674380,0
27,-1,653712,222896,1292068,68935,8796,645584,0
27,-1,658116,223069,1230901,68974,7534,615153,0
27,-1,637753,218476,1232582,65655,7625,615865,0
27,-1,637831,220569,1293935,66533,7378,646439,0
27,-1,638633,219026,1344568,65730,7816,672362,0
27,-1,644805,221266,1281087,66929,7227,639884,0
27,-1,640979,219965,1247655,65953,7415,623436,0
27,-1,642377,219170,1157308,65808,7608,578451,0
27,-1,643583,219790,1187888,66228,7554,593402,0
27,-1,642326,218674,1235063,65685,7566,617176,0
27,-1,637245,218552,1248537,65672,7116,623865,0
27,-1,636180,218482,1259967,65608,7396,629648,0
27,-1,641669,218918,1220727,65522,7125,610013,0
27,-1,657743,222378,1172663,68543,7648,586083,0
27,-1,638826,217846,1293973,65344,7158,646624,0
27,-1,637778,218247,1275909,65464,7514,637725,0
27,-1,637417,218587,1123287,65583,6880,561332,0
27,-1,637644,218176,1139481,65450,6721,569348,0
27,-1,643929,220695,1415604,66507,9048,706452,0
27,-1,638131,218385,1258511,65460,7329,628900,0
27,-1,636452,217985,1111682,65447,7160,555344,0
28,-1,688170,236367,1298220,70515,7111,648702,0
28,-1,633435,218201,1242460,65474,6612,620868,0
28,0,707157,247554,1403139,73503,8873,701143,11
28,-1,635329,217931,1232314,65334,7883,615849,0
28,-1,639399,219910,1325517,66269,7728,662132,0
28,-1,636037,218940,1301122,66098,6517,650068,0
28,-1,644824,220311,1239977,66383,7139,619484,0
28,-1,639937,220196,1316736,66489,7505,657746,0
28,-1,637108,218412,1140183,65791,7556,569636,0
28,-1,638737,217963,1224130,65595,7685,611667,0
28,-1,634450,217418,1183957,65484,7527,591534,0
28,-1,644438,219961,1469609,66381,9890,734110,0
28,-1,640260,218286,1226858,65637,8473,613088,0
28,-1,637232,218416,1236367,65666,8654,617806,0
28,-1,636804,219001,1257316,65830,7104,628344,0
28,-1,634960,218308,1109792,65637,6639,554373,2
28,-1,636407,218005,1249322,65522,7256,624255,0
28,-1,636183,218771,1217424,65774,6804,608298,0
28,-1,661926,223262,1285017,69062,8640,642149,0
28,-1,643678,219151,1298216,65893,8197,648725,0
28,-1,635990,219004,1228760,65730,6660,613938,0
28,-1,641385,219904,1348898,66196,7745,674203,0
28,-1,640858,220196,1267152,66062,7990,633066,0
28,-1,643963,219872,1260838,66277,7983,630042,0
28,-1,640949,219157,1141782,65820,7258,570526,0
28,-1,641430,218240,1148040,65564,7208,573690,0
28,-1,639376,219690,1240643,66245,7449,619828,0
28,-1,637837,219127,1329447,65773,7185,664448,0
28,-1,638380,218101,1128704,65216,7037,564116,0
28,-1,637083,218443,1234324,65551,7345,616842,0
28,-1,643813,219780,1336807,66153,7669,667944,0
28,-1,637417,218360,1239488,65455,7978,619432,0
28,-1,636244,218023,1166345,65356,7494,582821,0
28,-1,636668,218107,1249219,65396,7396,624255,0
28,-1,638757,217763,1254821,65249,7808,627027,0
28,-1,637509,218776,1178166,65591,6986,588608,0
28,-1,643176,218223,1181265,65520,7853,590085,0
28,-1,645870,220151,1233009,66428,6893,615851,0
29,-1,685617,235895,1339214,70277,7206,669257,0
29,-1,638015,220000,1335936,66353,7521,667332,0
29,0,706271,246731,1301683,73177,8603,650596,11
29,-1,637332,218074,1292247,65434,7476,645692,0
29,-1,632720,218002,1252987,65523,7671,626152,0
29,-1,637331,218085,1313106,65593,6887,656094,0
29,-1,641810,218866,1226481,65759,7424,612867,0
29,-1,637382,218198,1169357,65520,6481,584406,0
29,-1,635186,217976,1123991,65594,6864,561715,0
29,-1,638712,218319,1286512,65698,8298,642862,0
29,-1,640081,219096,1209593,65993,7221,604285,0
29,-1,641008,218833,1475392,65939,10071,737161,0
29,-1,642044,219033,1337263,65860,9569,667791,0
29,-1,638681,219248,1269279,65979,8438,634093,0
29,-1,668828,229724,1310283,69274,7661,654596,0
29,-1,641775,220853,1266267,66773,7664,632567,2
29,-1,640982,219068,1249611,65877,6950,624298,0
29,-1,635501,218889,1226232,65767,6897,612780,0
29,-1,638824,218673,1272106,65789,7355,635750,0
29,-1,641493,218611,1249535,65664,8264,624115,0
29,-1,636597,218764,1241503,65592,7615,620271,0
29,-1,639873,219425,1201016,66010,6822,600131,0
29,-1,640976,219703,1291592,65893,8747,645133,0
29,-1,640815,219146,1169047,65798,7463,583955,0
29,-1,639506,218637,1222740,65603,7539,610976,0
29,-1,644624,219877,1280293,66336,7951,639706,0
29,-1,636398,218516,1257580,65538,7659,628454,0
29,-1,634929,218215,1219483,65484,7171,609310,0
29,-1,643503,220013,1299965,66094,7980,649451,0
29,-1,636158,218443,1122843,65479,6391,561111,0
29,-1,639828,218044,1239955,65357,7589,619656,0
29,-1,642880,218253,1337843,65432,7700,668565,0
29,-1,636234,217867,1163951,65290,7404,581642,0
29,-1,637069,218079,1200847,65418,7236,600074,0
29,-1,638304,217613,1174563,65159,7133,586939,0
29,-1,638838,218136,1254195,65318,7641,626638,0
29,-1,643061,218411,1135420,65556,7551,567327,0
29,-1,639866,217462,1173692,65241,6754,586509,0
30,-1,690212,237901,1309979,71188,6955,654448,0
30,-1,633516,217821,1151237,65507,6919,575178,0
30,0,707647,247501,1421266,73551,8053,710211,11
30,-1,658124,222983,1269531,68914,8507,634393,0
30,-1,645419,220544,1295629,66639,8037,647116,0
30,-1,661631,226781,1226787,68109,6651,613118,0
30,-1,640728,217808,1282228,65350,6740,640747,0
30,-1,638538,218475,1269164,65654,7029,634272,0
30,-1,636116,218202,1213046,65706,7572,606107,0
30,-1,637966,218076,1303691,65633,7676,651901,0
30,-1,639148,217997,1251279,65597,7850,625328,0
30,-1,639925,218446,1308802,65715,8474,654072,0
30,-1,660173,223465,1212545,69115,8761,605901,0
30,-1,637806,218824,1239216,65798,8744,619213,0
30,-1,634918,218552,1297672,65676,6975,648632,0
30,-1,643146,220519,1357640,66614,7393,678189,0
30,-1,634548,219298,1223087,65994,7684,610995,2
30,-1,636478,218597,1166526,65666,6537,582915,0
30,-1,640252,219268,1291710,65979,8177,645463,0
30,-1,660415,222599,1162063,68758,8413,580678,0
30,-1,640749,220590,1341602,66505,8423,670098,0
30,-1,642736,220745,1315437,66582,7606,657268,0
30,-1,639950,219612,1310188,65831,8171,654687,0
30,-1,639665,219252,1271802,65794,7638,635511,0
30,-1,638794,218122,1183959,65489,7384,591619,0
30,-1,642804,218799,1259445,65729,8151,629531,0
30,-1,639006,218342,1303861,65506,7155,651571,0
30,-1,635927,218190,1282531,65462,7171,640955,0
30,-1,638498,218748,1210936,65412,7382,605014,0
30,-1,639067,218546,1196923,65567,7081,598184,0
30,-1,638696,217973,1169259,65381,7120,584234,0
30,-1,645972,220121,1245106,66405,7849,621985,0
30,-1,641191,220229,1180566,66405,7454,589602,0
30,-1,661481,222533,1211917,68661,7916,605584,0
30,-1,638815,218141,1256383,65326,7392,627685,0
30,-1,640646,218340,1468339,65360,9202,733913,0
30,-1,640883,218258,1498462,65489,9206,748867,0
30,-1,641179,218647,1284976,65690,6754,642246,0
31,-1,686493,235872,1201214,70280,6754,600186,0
31,-1,633004,217853,1260785,65392,7257,630010,0
31,0,706161,246789,1334562,73316,8641,666967,11
31,0,710262,248528,1494301,73860,9525,746748,11
31,0,707562,247127,1415754,73418,9097,707486,11
31,0,708483,247121,1288037,73506,8603,643606,11
31,0,704597,248042,1387684,73773,9401,693485,11
31,0,723999,251785,1493132,76792,9970,746282,11
31,0,699971,246644,1303220,73346,8844,651179,11
31,0,723980,251760,1520857,76784,9860,760112,11
31,0,705106,247069,1291020,73397,8509,645301,11
31,-1,635810,217980,1162273,65383,7003,580661,0
31,0,704001,247654,1328724,73661,9134,663942,11
31,0,709830,249222,1390328,74370,9317,694517,11
31,0,699636,246116,1278083,73108,8401,638539,11
31,0,707603,248767,1423727,74248,8711,711309,11
31,0,710615,249459,1347414,74533,9039,673045,11
31,0,711945,249041,1320636,74348,9143,659851,11
31,0,726981,252014,1405065,76844,9726,702088,11
31,0,705852,247337,1321563,73598,8343,660319,11
31,0,707021,247178,1359371,73473,8713,679363,11
31,0,729366,252009,1472647,76870,10085,735884,11
31,0,703795,247792,1404707,73735,8724,701971,11
31,0,704920,247967,1409427,73912,8842,704173,11
31,0,708413,249063,1405901,74391,8717,702444,11
31,0,703189,246681,1230976,73340,8245,615178,11
31,0,706827,247619,1238149,73653,7948,618731,11
31,0,709509,247419,1358117,73570,9185,678719,11
31,0,723973,251250,1347523,76699,9125,673484,11
31,-1,633651,217090,1135709,65210,6774,567491,0
31,0,707078,247352,1393263,73416,8390,696291,11
31,0,708239,247832,1371076,73598,7688,685065,11
31,0,729012,251900,1530138,76821,9242,764718,11
31,0,708541,248023,1391478,73801,8227,695351,11
31,0,712507,249046,1391346,74384,8220,695131,11
31,0,709833,247890,1298698,73804,9173,649015,11
31,0,707023,247669,1308408,73688,8567,653812,11
31,0,706428,247362,1376328,73412,8207,687939,11
31,0,715797,250666,1310936,74710,8408,654898,11
31,0,708427,247495,1227278,73424,7707,613357,11
31,0,708510,247920,1310618,73588,7930,654979,11
31,0,707894,247549,1336744,73518,7638,668019,11
31,0,709509,247634,1362942,73551,7512,681167,11
31,0,708521,247424,1267586,73471,8502,633499,11
31,0,717084,250155,1465474,74593,8765,732130,11
31,0,706720,248213,1286390,73658,8168,642609,11
31,0,708874,248625,1357240,73763,10113,678164,11
31,0,710769,249847,1416456,74482,9593,707739,11
31,0,728971,252371,1327108,76875,9299,663190,11
31,0,704448,247969,1271688,73643,8827,635519,11
31,0,704361,248064,1306354,73720,8162,652858,11
31,-1,655360,223067,1292168,68930,7584,645651,0
31,0,704833,247787,1313532,73645,8133,656412,11
31,0,709108,248976,1404845,74220,8764,701892,11
31,0,707994,247428,1377058,73558,8875,688142,11
31,0,703876,247792,1371973,73631,8697,685571,11
31,0,704735,247742,1392660,73655,8123,696001,11
31,0,704264,247454,1398271,73520,8495,698777,11
31,0,709840,249111,1424965,74274,9071,712008,11
31,0,708424,247867,1267218,73818,8895,633156,11
31,0,707262,247425,1253954,73526,8443,626591,11
31,0,706689,246975,1394836,73516,8927,697068,11
31,0,728181,252184,1411490,77037,10072,705464,11
31,0,711121,247646,1455153,73788,9008,727258,11
31,0,709301,249592,1433826,74667,9121,716503,11
31,0,704299,247291,1403217,73661,9126,701259,11
31,0,705443,247411,1348178,73688,8520,673746,11
31,0,707520,249213,1487098,74594,9190,742990,11
31,0,707175,247947,1261377,73851,8787,630372,11
31,0,728044,251959,1326129,76949,9754,662775,11
31,0,704895,247506,1481706,73663,9952,740552,11
31,0,709643,248489,1512874,73991,9917,756155,11
31,0,708770,248597,1439593,74056,9457,719323,11
31,-1,648436,221415,1250142,66796,7480,624491,0
31,0,708506,248131,1534371,73922,10989,766782,11
31,0,708980,247682,1458426,73670,10428,728702,11
31,0,713600,248995,1447786,74176,10242,723485,11
31,0,727362,252577,1531111,77139,10639,765143,11
31,0,714084,249830,1630574,74623,11484,814172,11
31,0,711427,248692,1526667,74101,11302,763029,11
31,0,707369,247106,1554295,73546,10944,776329,11
31,0,711618,247918,1457550,73825,10248,728425,11
31,0,730514,252467,1507821,77096,10655,753493,11
31,0,713812,250411,1551085,74909,10520,774775,11
31,0,709576,249000,1566977,74342,10414,783121,11
31,0,727356,252286,1449117,77054,10833,724151,11
31,0,708652,248970,1446794,74365,11128,722572,11
31,0,708088,248296,1519426,73962,10056,759234,11
31,0,707138,247570,1509842,73665,10040,754608,11
31,0,705712,247635,1509682,73780,10358,754416,11
31,0,707881,247124,1536463,73573,10123,767843,11
31,0,708607,247698,1454188,73759,10317,726560,11
31,0,710419,248347,1407036,73991,9555,703118,11
31,0,709845,247728,1512067,73730,10440,755547,11
31,0,716033,249891,1544168,74762,11161,771403,11
31,-1,638810,218911,1179870,65737,6876,589652,0
31,0,705324,247124,1511259,73549,9445,755214,11
31,0,731312,252294,1494238,77068,11241,746713,11
31,0,709012,247641,1509062,73706,10180,753999,11
31,0,709569,247569,1433838,73683,9614,716530,11
31,0,714768,249221,1532105,74450,10897,765547,11
31,0,706012,247337,1540215,73595,9986,769677,11
31,0,708456,248248,1516574,73958,9683,757861,11
31,0,708631,247442,1514674,73682,10325,756832,11
31,0,711682,247933,1617577,73840,9998,808213,11
31,0,728591,251980,1495077,76953,10558,747148,11
31,0,734576,253171,1530198,77373,11585,764571,11
31,0,716627,249605,1798083,74623,12747,898331,11
31,0,704337,247696,1546215,73788,10364,772646,11
31,0,708553,247964,1568577,73790,10691,783894,11
31,0,712955,250034,1548109,74777,10388,773369,11
31,0,707020,247327,1441370,73592,9780,720285,11
31,0,706545,247521,1524361,73708,9645,761654,11
31,0,711767,248689,1565673,73963,10445,782524,11
31,0,711919,248246,1416956,73779,9663,708083,11
31,0,709969,248091,1513838,73745,10013,756641,11
31,0,713342,247991,1512093,73744,9975,755482,11
31,0,712045,249462,1536511,74445,10751,767673,11
31,0,710409,248775,1440774,74008,10077,720018,11
31,0,707703,246956,1511397,73502,10565,755211,11
31,-1,641480,220506,1259539,66643,7631,629272,0
31,0,709207,247268,1468704,73506,9919,733952,11
31,0,716426,249673,1443210,74605,10468,720777,11
31,0,713941,248058,1434533,73820,9616,716957,11
31,0,712847,247338,1428856,73521,9305,713910,11
31,0,704634,249505,1412249,74447,9078,705777,11
31,0,724732,252904,1436121,77149,9416,717696,11
31,0,699576,246917,1507535,73316,10600,753312,11
31,0,706608,248857,1420403,74265,9931,709747,11
31,0,703058,247676,1467740,73675,10301,733459,11
31,0,726257,252554,1577345,77059,11976,788521,11
31,0,704176,247861,1895452,73708,13021,946087,11
31,0,710556,249851,1570328,74588,11108,784735,11
31,0,707935,249107,1495307,74136,8572,747298,11
31,-1,646318,221432,1526539,67110,10006,762777,0
31,0,705933,247484,1472436,73579,8377,735891,11
31,0,704117,247336,1486261,73476,9248,742884,11
31,0,711954,249889,1518939,74658,9414,758835,11
31,0,707879,250091,1519072,74754,9398,759005,11
31,0,727265,252921,1490993,77153,9968,745155,11
31,0,704982,248126,1516572,73785,9078,757913,11
31,0,703766,247831,1420635,73754,8904,709918,11
31,0,703306,247829,1410084,73738,8285,704574,11
31,0,706562,248308,1493685,73827,8278,746332,11
31,0,706718,248199,1487248,73826,8670,743147,11
31,0,711193,250225,1549192,74727,8942,774100,11
31,0,706744,248469,1521311,73846,8994,760259,11
31,0,707106,247858,1520398,73670,8910,759924,11
31,0,706064,247935,1401330,73699,8491,700161,11
31,0,728465,252628,1370352,77098,8934,684669,11
31,0,709023,248127,1261439,73868,8616,630312,11
31,-1,639324,218884,1273297,65812,8164,636363,0
31,0,704100,248445,1410768,73986,9172,704996,11
31,0,708641,249451,1375424,74537,9124,687111,11
31,0,706696,248543,1359541,73975,8291,679288,11
31,0,703267,247461,1293902,73579,8069,646544,11
31,0,706992,248154,1346402,73797,8756,672803,11
31,0,713826,249257,1393387,74382,9383,696169,11
31,0,711867,249041,1264048,74140,9139,631571,11
31,0,712210,248210,1408400,73865,9555,703681,11
31,0,702283,247285,1444839,73469,9722,721741,11
31,0,703751,247845,1268011,73771,8695,633443,11
31,0,708781,249562,1396176,74515,9924,697966,11
31,0,704036,247354,1466795,73514,8830,732400,11
31,0,703845,247530,1430730,73560,10119,714980,11
31,0,706253,248341,1471138,73877,9424,735132,11
31,0,706192,247905,1311811,73737,8450,655502,11
31,0,708426,248194,1401985,73763,8781,700557,11
31,-1,636812,217742,1184385,65499,7530,591833,0
31,0,728335,252408,1345894,76925,9549,672572,11
31,0,713426,250598,1374913,74927,8981,686688,11
31,0,727320,252594,1498851,77066,9762,749052,11
31,0,712497,250118,1416507,74746,9128,707509,11
31,0,707895,248378,1369232,73864,8111,684197,11
31,0,707528,247617,1318776,73578,8284,658954,11
31,0,716004,250071,1466174,74632,9568,732335,11
31,0,713074,250405,1538900,74855,8976,768838,11
31,0,707556,248374,1371736,73858,8098,685661,11
31,0,709454,249456,1454810,74462,9605,726516,11
31,0,712452,249332,1449533,74421,9761,724116,11
31,0,725992,252094,1404023,76926,9520,701387,11
31,0,706897,247757,1475982,73672,9672,738186,11
31,0,705866,247610,1561659,73632,9311,779772,11
31,0,710894,249921,1512457,74723,10056,755466,11
31,-1,641199,218171,1252502,65558,7717,625879,0
31,0,710438,247841,1360638,73572,9960,679556,11
31,0,727694,251990,1437530,76912,10387,719016,11
31,0,708844,247267,1624567,73522,9914,811976,11
31,0,706886,247189,1399792,73437,9688,699004,11
31,0,710900,248295,1440592,73893,9504,719836,11
31,0,710321,247867,1428163,73764,10201,713293,11
31,0,708484,247893,1459227,73771,9679,729316,11
31,0,709302,248017,1496006,73707,9155,747628,11
31,0,710122,248311,1531437,73863,10375,765237,11
31,0,711483,248860,1437804,74056,9731,718400,11
31,0,710896,247992,1347865,73753,9256,673510,11
31,0,718242,250474,1385684,74837,10497,692155,11
31,0,704102,248248,1369988,73766,8109,684597,11
31,0,726834,252501,1367547,76933,9505,683365,11
31,0,703261,247661,1357163,73498,7997,678127,11
31,0,706043,248051,1365760,73655,8509,682407,11
31,0,708707,248717,1402538,73910,9271,700822,11
31,0,707927,248471,1355565,73835,8343,677377,11
31,0,707101,247815,1372628,73574,8666,686003,11
31,0,728482,252912,1397848,77078,9898,698468,11
31,0,709716,248239,1585815,73680,10278,792760,11
31,0,710745,248263,1395185,73705,8938,697230,11
31,0,704407,248169,1342097,73696,9417,670683,11
31,0,703219,247463,1366638,73417,8812,682942,11
31,0,706877,248749,1499758,73825,9621,748970,11
31,0,708742,247984,1433466,73582,9052,715995,11
31,0,726189,252292,1412887,76857,9699,705790,11
31,-1,656360,223270,1253981,69060,9213,626772,0
31,0,707719,248100,1398411,73661,9156,699030,11
31,0,706500,247691,1332750,73484,9147,665913,11
31,0,710936,249415,1445974,74263,10189,722518,11
31,0,727960,252219,1544042,76789,10706,771496,11
31,0,708660,249261,1428594,74049,10007,713956,11
31,0,710040,249101,1367506,74101,9049,683579,11
31,0,709347,249043,1315660,74089,8562,657444,11
31,0,713301,250089,1430484,74559,9574,714668,11
31,0,711023,249136,1448777,73976,9151,724021,11
31,0,715752,250524,1585464,74825,10345,791919,11
31,0,735532,258718,1419533,76964,8914,709403,11
31,0,730230,252993,1570981,77223,9568,784543,11
31,0,715668,249978,1517644,74686,10045,758092,11
31,0,715464,251126,1344905,74884,8964,671845,11
31,0,713614,250163,1384659,74470,9440,691729,11
31,0,711409,248973,1337777,73914,8393,668490,11
31,0,717342,251446,1408918,75032,9042,703741,11
31,-1,634728,218781,1169774,65751,6843,584482,0
31,0,710684,249012,1423368,73856,9451,711195,11
31,0,714129,249287,1417394,74008,9341,708254,11
31,0,714217,249132,1481816,73972,10208,740555,11
31,0,719062,250363,1480355,74512,10067,739469,11
31,0,714388,248950,1423741,73840,11012,711634,11
31,0,715284,249259,1600194,73940,10759,799560,11
31,0,710024,249727,1430556,74156,9382,714309,11
31,0,717131,251214,1501864,74950,10160,750059,11
31,0,709392,248393,1675875,73622,10061,837186,11
31,0,709319,248809,1744875,73778,10622,871995,11
31,0,710988,249165,1431682,73976,9580,715534,11
31,0,710946,248858,1440859,73889,9260,720046,11
31,0,716313,250602,1510545,74700,10365,754589,11
31,0,712432,250171,1642656,74442,9594,820060,11
31,0,737899,258873,1484613,76826,10001,742109,11
31,0,716169,250738,1338693,74768,9472,668803,11
31,0,712282,249448,1235039,74095,7940,617027,11
31,0,710425,248730,1353357,73853,8384,676403,11
31,0,712695,248480,1295154,73787,8360,647276,11
31,0,732037,253031,1372722,77097,9282,685922,11
31,0,716068,249573,1441282,74222,10238,720222,11
31,0,734901,253943,1377316,77433,9934,688051,11
31,0,715897,250064,1444637,74620,9922,721623,11
31,0,713464,248771,1394357,73889,9368,696813,11
31,0,709621,248438,1312218,73767,8288,655728,11
31,-1,665732,224882,1215049,70080,8118,607052,0
31,0,714031,249447,1320793,74104,8852,660047,11
31,0,713983,248537,1317695,73743,8973,658375,11
31,0,715875,249721,1371203,74167,9240,685283,11
31,0,734496,252628,1436801,76986,9636,717910,11
31,0,708791,247856,1297795,73611,8876,648553,11
31,0,709586,248627,1466193,73920,8820,732769,11
31,0,708664,248509,1303990,73893,8338,651666,11
31,0,709231,247694,1420307,73623,9253,709753,11
31,0,710774,248250,1337586,73756,9082,668455,11
31,0,730105,252281,1292999,76858,9289,646098,11
31,0,709822,247757,1366120,73559,9100,682714,11
31,0,734937,253561,1335625,77246,9359,667480,11
31,0,715859,249178,1489202,74241,8877,744217,11
31,-1,635762,219277,1399910,65947,7722,699544,2
31,0,712298,249365,1322317,74124,8432,660752,11
31,0,730901,252903,1361540,77074,9049,680461,11
31,0,710784,247755,1471029,73587,8912,735186,11
31,0,709993,248558,1314165,73954,9473,656664,11
31,0,710526,247822,1412251,73696,9243,705812,11
31,0,709305,247574,1495677,73573,9571,747498,11
31,0,714128,248381,1563437,73832,10056,781347,11
31,0,709909,247510,1417945,73574,9157,708697,11
31,-1,636807,218856,1160451,65839,7346,579848,2
31,0,714192,247834,1494721,73491,9329,747034,11
31,0,704519,248104,1496454,73687,9343,747883,11
31,0,708500,250025,1495939,74678,10009,747244,11
31,-1,635881,218849,1148115,65814,6733,573709,0
31,0,707326,248716,1447782,73902,10376,722937,11
31,0,727092,252699,1523452,76951,11326,761303,11
31,-1,642439,221150,1209270,66853,7663,603914,2
31,0,731977,256808,1459567,76255,9191,729317,11
31,0,729547,253171,1489016,77106,9995,744161,11
31,0,706689,247778,1407522,73634,9336,703338,11
31,0,706962,246957,1574782,73278,11168,786554,11
31,0,711198,248937,1534178,73997,10686,766539,11
31,0,704492,248453,1481725,74058,10421,740149,11
31,0,703958,247861,1442622,73724,9391,720869,11
31,0,702940,247044,1363886,73441,9090,681987,11
31,0,704921,247249,1477490,73447,9850,738349,11
31,0,707283,248229,1485375,73793,9450,742179,11
31,0,705584,247229,1386817,73436,9680,693029,11
31,-1,635223,218847,1226468,65811,7854,612738,2
31,0,705899,246739,1437928,73267,9758,718537,11
31,0,710098,248964,1315745,73984,8924,657473,11
31,0,708767,247638,1312683,73534,8613,656058,11
31,0,708298,248126,1232567,73726,8723,615862,11
31,0,711614,249114,1313461,74224,9704,656186,11
31,0,710525,248045,1364314,73668,8844,681781,11
31,0,711603,250145,1374236,74702,9147,686535,11
31,0,707373,247568,1326858,73497,8548,663055,11
31,0,709407,248342,1376153,73723,8759,687714,11
31,0,710145,249575,1365651,74405,8934,682194,11
31,0,706736,248032,1335179,73671,8871,667237,11
31,-1,663761,227717,1252389,68478,8010,625690,2
31,-1,640718,219768,1436453,66324,8050,717712,0
31,0,709654,248414,1301566,73659,8710,650383,11
31,0,709338,247841,1353396,73460,8940,676413,11
31,0,710602,248539,1394218,73647,8822,696712,11
31,-1,636968,218952,1194440,65848,8399,596649,2
31,0,733578,253228,1363349,76917,9753,681334,11
31,0,712065,248059,1388603,73428,8963,693983,11
31,0,713733,248726,1244767,73705,8867,621999,11
31,0,711110,247913,1387065,73395,9163,693185,11
31,0,715976,249585,1366434,74213,9336,682780,11
31,0,711602,247317,1310487,73284,8652,654888,11
31,0,704428,247409,1493259,73309,8900,746267,11
31,0,706553,248298,1334531,73652,8076,666699,11
31,0,711338,249368,1412215,74226,9163,705585,11
31,0,708151,248468,1394292,73700,8394,696796,11
31,0,714024,250054,1441752,74493,9219,720420,11
31,0,707457,247721,1368714,73483,8907,683942,11
31,0,703789,247731,1331582,73563,8780,665387,11
31,-1,639510,218446,1187370,65686,7166,593306,0
31,0,705845,247366,1233155,73351,8821,616183,11
31,0,708726,247780,1399378,73510,8802,699332,11
31,0,706602,246756,1517843,73192,9055,758488,11
31,0,704056,247123,1503374,73287,9134,751371,11
31,-1,640874,221280,1290160,66855,7284,644402,2
31,0,707217,247143,1319171,73367,8903,659191,11
31,0,711060,247808,1329120,73560,8928,664206,11
31,0,710340,249170,1335969,74209,8806,667535,11
31,0,705803,248076,1305731,73610,8134,652516,11
31,0,707732,247705,1547376,73526,9015,773304,11
31,0,706449,247971,1298136,73615,8147,648719,11
31,0,709344,248143,1484906,73660,8820,742040,11
31,0,711511,248490,1311075,73725,9412,655218,11
31,0,707765,247055,1251956,73264,8471,625613,11
31,0,708017,247453,1335041,73397,9077,667207,11
31,0,708313,248046,1323758,73592,9066,661547,11
31,0,710955,248274,1387498,73917,9738,693233,11
31,0,714017,250128,1342602,74532,8649,670742,11
31,-1,638757,219082,1265895,65743,7365,632565,2
31,-1,657168,223334,1306776,68938,9185,653231,0
31,0,708848,247150,1423985,73230,9230,711624,11
31,0,709901,247435,1309767,73432,9297,654527,11
31,0,711440,249349,1389166,74243,8968,693988,11
31,-1,636131,219300,1372064,65869,7959,685663,2
31,0,731346,252458,1377991,76847,10172,688650,11
31,0,708578,246963,1268525,73237,9116,633920,11
31,0,709327,248301,1349234,73720,9230,674338,11
31,-1,635658,218535,1125700,65556,7500,562412,2
31,0,709636,247465,1289566,73393,8098,644464,11
31,0,737798,253434,1447733,77629,9800,723486,11
31,0,735134,252672,1409504,76944,9833,704390,11
31,0,712085,247264,1436946,73335,9101,718099,11
31,0,704660,247826,1427113,73580,9510,713080,11
31,0,726738,252401,1352981,76773,9980,676000,11
31,0,706013,247825,1435813,73513,9313,717543,11
31,0,707922,248095,1423969,73629,9683,711609,11
31,0,708056,247757,1361404,73528,9369,680322,11
31,0,709665,249533,1333423,74373,9074,666112,11
31,0,705297,247226,1413979,73316,8892,706670,11
31,0,706177,248121,1298208,73668,8219,648775,11
31,0,706286,247947,1415244,73738,8818,707100,11
31,0,707985,248273,1479687,73695,8721,739503,11
31,0,705017,246971,1345774,73239,8410,672613,11
31,0,734963,257042,1495906,76239,9582,747460,11
31,0,706411,247687,1409130,73488,9169,703964,11
31,0,712881,249973,1374253,74535,9050,686635,11
31,0,705061,247141,1365384,73384,8679,682404,11
31,0,707763,247483,1492911,73407,8920,746130,11
31,0,704979,247224,1210830,73324,8154,605108,11
31,0,706510,247378,1274694,73352,8424,637021,11
31,-1,641438,220175,1191398,66212,6385,595312,0
31,0,705691,247237,1427439,73260,8973,713433,11
31,0,731064,252480,1364119,76857,9514,681751,11
31,0,714783,249887,1364092,74531,8722,681511,11
31,0,709533,247398,1387910,73373,9052,693662,11
31,0,713266,249086,1372272,74154,8898,685614,11
31,0,710244,247654,1298210,73491,9074,648703,11
31,0,731453,252741,1481681,76938,9946,740235,11
31,0,711204,247501,1376166,73387,9448,687683,11
31,0,705547,248050,1412282,73605,8855,705899,11
31,0,727340,252598,1341165,76895,9389,670206,11
31,-1,641256,219770,1254232,66178,7281,626724,2
31,0,710232,248904,1293506,74091,8551,646302,11
31,0,708269,247784,1306566,73545,9019,652982,11
31,0,707816,247986,1284340,73632,8964,641815,11
31,0,709223,247794,1397792,73525,9166,698567,11
31,0,730999,252367,1372728,76831,9748,685941,11
31,0,706018,247156,1391798,73258,8838,695566,11
31,0,708279,247934,1370595,73599,8967,684983,11
31,0,707149,247479,1403154,73444,9076,701125,11
31,0,713352,249332,1354138,74330,9166,676552,11
31,0,736618,257617,1431830,76669,9007,715196,11
31,0,709131,247709,1357206,73476,8355,678165,11
31,0,708698,247393,1402749,73423,8796,701032,11
31,0,708637,246869,1414597,73182,9316,706917,11
31,0,711682,247970,1323468,73594,9165,661317,11
31,0,704422,247127,1257824,73305,8437,628608,11
31,0,704357,246721,1362416,73189,9224,680865,11
31,0,713055,250199,1330345,74582,8768,664356,11
31,0,713136,249314,1330850,74166,8481,664812,11
31,-1,647409,221551,1289722,66783,8590,644138,2
31,0,717607,250149,1348392,74506,9405,673533,11
31,-1,642608,220221,1273175,66117,8512,635938,2
31,0,711777,247941,1386671,73561,9637,692910,11
31,0,712866,248879,1335435,74109,9303,667093,11
31,0,711888,247389,1577930,73405,10871,787711,11
31,0,710169,247413,1258033,73305,9514,628648,11
31,0,733321,252377,1325505,76781,10382,662332,11
31,-1,644452,222081,1458458,66961,8588,728241,0
31,0,713215,247844,1332415,73535,9194,665779,11
31,0,714548,248008,1620800,73535,10709,810173,11
31,0,705378,247380,1436087,73247,9426,717531,11
31,0,709966,248911,1327651,74045,8609,663221,11
31,0,704710,247297,1429321,73265,9270,714326,11
31,0,706860,247603,1293787,73471,8296,646436,11
31,0,711109,248861,1370751,74012,8650,684668,11
31,-1,639187,219466,1304194,65792,7981,651417,2
31,0,708079,247529,1376375,73365,9055,687805,11
31,0,708821,247506,1491702,73449,10544,745024,11
31,0,713184,248669,1391371,73963,9056,695082,11
31,0,710503,248135,1520300,73599,9482,759701,11
31,0,707555,247425,1488228,73372,8999,743730,11
31,0,757248,261444,1621145,79452,10177,810226,11
31,0,710373,247729,1576190,73367,9518,787576,11
31,0,708017,247182,1508251,73240,9662,753752,11
31,0,711598,248233,1528693,73642,9934,763945,11
31,0,710115,249246,1432391,74243,9127,715511,11
31,0,709116,247910,1525077,73468,9279,762161,11
31,0,710577,247263,1524413,73318,9473,761863,11
31,0,709870,247715,1718267,73465,10232,858686,11
31,0,709945,246966,1506910,73125,9844,753080,11
31,0,712576,249684,1421840,74289,8784,710177,11
31,0,709564,247760,1574136,73436,9586,786644,11
31,0,710513,247564,1517617,73383,9704,758409,11
31,0,712068,247811,1528658,73439,9927,764008,11
31,0,711141,247449,1516360,73506,9512,757591,11
31,-1,642128,221081,1313588,66735,7566,656212,2
31,0,712485,247556,1432334,73529,9982,715625,11
31,0,706894,247188,1443756,73370,9537,721582,11
31,0,713440,249478,1515626,74331,8934,757157,11
31,-1,644599,219997,1147725,66085,7238,573543,0
31,0,729835,251602,1509464,76563,9819,754330,11
31,-1,642013,219658,1211447,66054,7143,605340,2
31,0,708036,246759,1524467,73229,9708,761861,11
31,0,712609,248540,1483490,73863,9146,741324,11
31,0,714343,249348,1576867,74482,9451,787783,11
31,0,737255,256353,1450625,76135,9124,724857,11
31,-1,640628,219016,1122010,65793,6298,560685,2
31,0,713058,248024,1424172,73658,8933,711715,11
31,0,730406,251922,1455648,76742,9262,727524,11
31,0,711688,247186,1395398,73441,8906,697486,11
31,0,729697,251465,1332268,76630,9044,665673,11
31,0,710777,247331,1302994,73474,8582,651084,11
31,0,717292,249756,1304399,74447,8442,651476,11
31,0,710470,246544,1440203,73293,8659,719731,11
31,0,715020,249641,1319468,74594,8176,659090,11
31,0,711034,247229,1399527,73407,8003,699460,11
31,0,717677,249187,1308310,74289,7972,653708,11
31,0,714584,247404,1517261,73477,7919,758302,11
31,0,699655,246838,1369005,72843,8053,684083,11
31,0,722250,252080,1459747,76398,9389,729579,11
31,0,702189,247370,1305487,73008,8586,652290,11
31,0,703464,247048,1227037,72942,7883,613201,11
31,0,706496,249730,1428118,74074,9791,713187,11
31,0,700598,246616,1371212,72795,8604,685288,11
31,0,702668,247487,1381205,73100,8447,690197,11
31,0,710402,249621,1374879,74147,8242,686678,11
31,0,701440,247286,1331762,73058,8432,665591,11
31,0,707483,248858,1337496,73755,8243,668197,11
31,-1,638693,218667,1177290,65711,7023,588334,0
31,-1,670706,229957,1227189,69384,7454,613035,2
31,0,703010,248375,1300432,73594,9104,649704,11
31,0,703616,248003,1413956,73248,9373,706612,11
31,0,701135,247263,1240425,73000,8515,619922,11
31,0,706010,247750,1528392,73277,11029,763427,11
31,-1,639554,218522,1279721,65634,6214,639442,2
31,0,702950,247538,1326779,73083,9339,663055,11
31,-1,638625,218070,1147442,65451,6819,573432,2
31,0,706122,247848,1670320,73210,9756,834913,11
31,0,707992,247332,1401919,73027,8902,700726,11
31,0,700791,247525,1426708,73097,9187,712969,11
31,0,705340,248505,1303712,73586,8768,651364,11
31,0,709425,249860,1671227,74186,10837,834796,11
31,0,700232,247003,1318292,72927,8816,658828,11
31,0,709078,249461,1273834,73951,8819,636431,11
31,0,702100,246864,1294132,72938,9001,646734,11
31,0,724626,251679,1340701,76261,9515,669998,11
31,0,728217,252019,1468780,76396,9724,733952,11
31,0,708912,248239,1314601,73365,8037,656975,11
31,0,706187,247375,1403478,73842,9508,701360,11
31,0,706778,247324,1333621,73943,9151,666466,11
31,0,708875,248418,1392270,74277,9397,695725,11
31,-1,640758,218245,1123612,65695,7647,561432,0
31,0,707799,247416,1422042,73904,9158,710685,11
31,0,712697,248076,1545955,74042,9756,772591,11
31,0,709864,248312,1324052,74164,9633,661636,11
31,0,710948,247728,1509537,74004,10381,754464,11
31,0,707567,247239,1516544,73825,10224,757932,11
31,0,709002,247699,1406373,73984,9366,702809,11
31,0,724024,251963,1468787,77222,10717,734125,11
31,0,704971,247501,1514459,73955,9873,756825,11
31,0,705446,247222,1490294,73910,9445,744800,11
31,0,707512,247584,1527719,73980,10887,763071,11
31,-1,637697,218915,1246459,65747,8093,622824,2
31,0,713109,249011,1480099,74576,10005,739479,11
31,0,704590,246918,1425777,73694,9563,712500,11
31,0,706433,247131,1462563,73737,8572,730810,11
31,0,709145,249404,1407214,74786,9556,702746,11
31,0,707855,248615,1345794,74316,9442,672554,11
31,0,704606,246827,1466789,73673,9745,733085,11
31,-1,642392,220259,1338973,66366,7633,668909,0
31,0,705270,247516,1423350,73901,9391,711377,11
31,0,706122,247171,1504701,73856,9344,752034,11
31,-1,633783,218260,1178427,65542,7041,588838,2
31,0,707827,246664,1531501,73631,9846,765563,11
31,0,707167,247651,1547476,73868,9203,773369,11
31,0,709598,247939,1380382,74367,9603,689577,11
31,0,710195,247743,1461105,73984,9728,730187,11
31,0,709172,247290,1331693,73888,9300,665495,11
31,0,714049,248763,1529356,74358,9686,764357,11
31,0,710167,247532,1417341,73904,9053,708343,11
31,0,711245,247575,1497260,73973,9507,748272,11
31,0,703858,247193,1522777,73709,10081,761042,11
31,0,703313,246506,1415241,73521,9261,707331,11
31,0,710738,248986,1391233,74706,9144,695079,11
31,0,708417,247618,1549280,73954,10016,774287,11
31,0,704172,247088,1508988,73781,9869,754239,11
31,0,705449,247231,1562835,73829,9688,780912,11
31,0,709045,248544,1508185,74312,9561,753643,11
31,0,729732,252590,1563998,77407,10616,781575,11
31,0,708593,247140,1552125,73800,9330,775692,11
31,0,713604,249509,1450826,74760,9280,724847,11
31,0,709801,247733,1525634,74040,9044,762473,11
31,0,713180,249681,1470844,74886,9570,734785,11
31,0,708633,247489,1443608,73973,8772,721515,11
31,0,709240,246791,1441461,73684,9312,720404,11
31,0,708714,247254,1520303,73913,8870,759679,11
31,-1,644109,220869,1210153,66662,8446,604468,2
31,0,705893,247011,1509931,73760,9760,754615,11
31,0,707209,247786,1470826,74021,10255,735026,11
31,-1,633115,218523,1245421,65641,6951,622297,2
31,-1,637741,219301,1246017,65895,7525,622671,0
31,0,706329,246621,1488628,73631,9464,743894,11
31,0,710640,247957,1522173,74123,9288,760820,11
31,0,715393,248548,1444421,74339,10080,721679,11
31,0,702706,247354,1480713,73763,9442,740099,11
31,-1,663093,227726,1329832,68244,7651,664550,2
31,0,704211,247260,1417693,73712,9868,708486,11
31,0,706838,247655,1500067,73843,10024,749722,11
31,0,708860,247989,1492357,74002,10284,745814,11
31,0,705327,247448,1475472,73915,9499,737380,11
31,-1,642587,219650,1185479,65817,6865,592355,2
31,0,711655,249077,1426878,74646,8838,712796,11
31,0,729514,252014,1550965,77223,10271,775209,11
31,0,708294,247076,1498144,73721,9283,748765,11
31,-1,641008,219093,1256792,65589,7151,627910,0
31,0,705963,247282,1437007,73686,9215,718160,11
31,0,706702,247663,1417433,73824,9597,708447,11
31,0,706889,247087,1544057,73682,9477,771813,11
31,0,709927,248096,1412909,74100,9370,706082,11
31,0,707494,247447,1387751,73936,9665,693482,11
31,0,707346,247293,1490225,73842,8781,744747,11
31,0,712580,249148,1429656,74685,9308,714226,11
31,0,712855,248932,1405778,74646,8412,702168,11
31,0,708192,248259,1401851,74210,8657,700564,11
31,0,709217,247557,1550765,73986,9348,775091,11
31,0,705753,246155,1415738,73561,9091,707522,11
31,0,730836,252145,1549067,77272,10461,774106,11
31,0,710849,247554,1502255,73934,9161,750799,11
31,-1,641196,219139,1145522,65685,7488,572111,2
31,0,707068,247671,1492506,73803,10021,745922,11
31,0,708511,247815,1366520,73855,9362,682915,11
31,0,706965,247344,1351177,73738,9276,675309,11
31,0,706268,247770,1497618,73891,9638,748502,11
31,0,706434,247705,1452664,73905,9255,725886,11
31,0,706199,247165,1447383,73692,9347,723382,11
31,0,707524,247427,1484073,73735,9629,741741,11
31,0,712170,248868,1537415,74210,10181,768356,11
31,0,708500,247243,1420088,73674,9026,709695,11
31,0,711319,249186,1414164,74730,8608,706664,11
31,0,707349,247360,1500717,73896,9538,749921,11
31,-1,642050,219703,1218179,66123,7759,608554,0
31,0,711333,249017,1435486,74724,9019,717004,11
31,0,709712,248025,1437861,74251,9375,718347,11
31,0,717900,250275,1495256,75197,9505,747067,11
31,0,708454,247985,1444965,74035,9220,722102,11
31,0,705681,246713,1427714,73626,8561,713651,11
31,0,710554,247845,1496191,74029,9020,747769,11
31,0,735121,253154,1567213,78052,10684,783292,11
31,0,709887,247617,1409849,73959,8880,704650,11
31,0,710508,247494,1335177,73918,8631,667154,11
31,0,703712,247252,1303480,73875,9196,651414,11
31,0,705207,246918,1388468,73835,9960,693844,11
31,0,709580,248026,1315793,74056,8957,657571,11
31,0,709698,248328,1393960,74223,8801,696606,11
31,-1,635042,218236,1229456,65477,7653,614344,2
31,0,711427,249191,1436497,74630,9756,717935,11
31,0,730823,252796,1558516,77498,10700,779006,11
31,0,710236,248045,1276693,74189,8508,637977,11
31,0,710804,247669,1319974,73912,9028,659623,11
31,0,711128,248239,1460039,74214,9495,729339,11
31,0,711414,248526,1535974,74310,10181,767439,11
31,0,710222,247557,1487567,73889,9185,743191,11
31,0,711024,248403,1427384,74286,10375,713296,11
31,0,714763,249308,1340887,74701,8959,670040,11
31,0,718036,250111,1345701,75216,9096,672231,11
31,0,715639,248197,1310675,74269,8739,654966,11
31,0,714017,248952,1517270,74514,9023,758305,11
31,0,716871,249997,1278075,75175,9558,638503,11
31,0,713856,248420,1323661,74353,8598,661392,11
31,0,713161,248809,1312970,74417,8521,656188,11
31,0,718654,249418,1376688,74708,9237,687937,11
31,0,715961,248356,1336605,74310,9076,667922,11
31,-1,637464,217736,1232824,65198,7218,616131,0
31,0,710482,248308,1300644,74194,8834,650051,11
31,0,713133,248918,1358583,74436,9038,678835,11
31,0,714023,249019,1357163,74438,8508,678118,11
31,0,716788,249000,1503630,74493,9628,751291,11
31,0,712973,248974,1375436,74393,8962,687329,11
31,0,713412,248563,1402154,74279,9354,700752,11
31,0,712533,248983,1314754,74538,9285,656002,11
31,0,717538,250043,1311095,75071,9547,654815,11
31,0,717207,250249,1393245,75132,9176,695906,11
31,0,710709,248225,1405622,74216,8983,702464,11
31,0,715601,249809,1292028,74905,8586,645423,11
31,0,736301,252998,1445207,77570,9858,722213,11
31,0,717545,250564,1310978,75347,8704,654768,11
31,0,718505,249501,1321966,74811,8650,660379,11
31,0,714587,248798,1375352,74399,9814,687169,11
31,0,715472,248897,1408813,74444,9304,704069,11
31,-1,639629,218759,1247162,65669,7568,623088,2
31,0,709037,249733,1307609,74877,8888,653387,11
31,0,728070,253096,1535469,77598,9958,767324,11
31,-1,640522,218216,1210994,65462,7264,605195,0
31,0,706834,248372,1373304,74246,9278,686160,11
31,0,713794,250147,1404769,75126,9471,701516,11
31,-1,635523,218362,1153266,65518,7696,576263,2
31,0,710464,248833,1289756,74268,9473,644564,11
31,0,728646,253255,1365639,77558,9625,682300,11
31,0,708675,248896,1343885,74275,8815,671572,11
31,0,730711,252622,1457135,77280,10030,728247,11
31,0,714000,250465,1322036,75077,9091,660359,11
31,0,709262,248460,1478929,74180,8817,739020,11
31,0,711320,248269,1399811,74047,8388,699608,11
31,0,713789,248883,1390791,74238,8555,694951,11
31,0,707216,248588,1370535,74130,9269,684716,11
31,0,709369,248637,1385058,74090,8965,692124,11
31,-1,638327,218320,1279855,65504,7682,639604,2
31,0,716041,250076,1322191,74793,9118,660434,11
31,0,710829,248648,1335812,74122,8776,667454,11
31,0,711370,248891,1277797,74181,8172,638358,11
31,0,713069,249084,1297142,74320,9064,648109,11
31,0,716976,250483,1312150,75013,8125,655409,11
31,0,708603,248208,1452522,74043,8972,725958,11
31,0,715027,250116,1362991,74876,8821,680969,11
31,-1,648449,220951,1262492,66705,7754,630589,2
31,0,710010,248143,1482329,74030,9579,740933,11
31,0,729290,252865,1461190,77369,9625,730120,11
31,-1,634788,218709,1307664,65633,7225,653387,2
31,0,708434,248101,1504674,74089,9519,752110,11
31,-1,657432,223152,1165295,68841,7766,582288,0
31,0,712885,249140,1448672,74610,10103,723855,11
31,0,710793,248696,1355530,74261,9544,677394,11
31,0,709930,247400,1499655,73750,9183,749490,11
31,0,714628,249725,1430090,74782,9453,714538,11
31,0,732427,252794,1624101,77400,11045,811692,11
31,0,716434,249898,1620005,74939,10348,809441,11
31,0,702938,247474,1421669,73835,9226,710519,11
31,0,725621,251651,1533395,76955,10474,766363,11
31,0,709313,248332,1487415,74082,8329,743377,11
31,0,707450,248080,1480155,74090,9415,739774,11
31,0,707864,248076,1689505,74074,10037,844377,11
31,0,709879,247954,1434101,73970,9506,716804,11
31,-1,636754,218351,1219293,65520,7059,609323,2
31,0,711379,248059,1467973,74069,9673,733549,11
31,0,712451,249546,1415221,74713,9524,707202,11
31,0,713106,249056,1431000,74460,9212,714965,11
31,0,713258,248482,1500034,74149,9716,749602,11
31,0,714894,248486,1531536,74126,9713,765439,11
31,0,728257,252631,1581133,77310,10829,790403,11
31,0,711593,248995,1504557,74418,9377,751938,11
31,0,717429,250624,1433648,75198,9905,716128,11
31,-1,639262,218300,1133126,65433,7062,566104,0
31,0,714949,250080,1637616,74703,10207,818422,11
31,0,741452,254774,1574576,78542,10963,786903,11
31,0,713753,248814,1417877,74285,9213,708642,11
31,-1,639878,218715,1252388,65633,7705,625806,2
31,0,719006,249983,1432450,74779,9553,715735,11
31,0,709779,248265,1491259,74171,9643,745284,11
31,0,707503,247166,1426754,73820,9057,713000,11
31,0,716901,250222,1531188,75181,11725,764272,11
31,0,712453,247866,1444510,74089,8703,721898,11
31,0,712679,249127,1391504,74468,8431,695424,11
31,0,712288,247832,1449500,74014,8599,724371,11
31,0,712870,248927,1320561,74415,8677,659945,11
31,0,712805,248318,1392077,74201,8777,695685,11
31,0,711900,248842,1290671,74380,8834,644957,11
31,0,712171,248567,1311166,74270,9252,655160,11
31,0,711760,248711,1393489,74274,8221,696503,11
31,0,711823,248316,1481184,74114,8993,740200,11
31,0,733547,252532,1562672,77269,9008,781019,11
31,0,717301,250494,1432989,75166,8403,715770,11
31,-1,638770,219096,1192391,65757,6602,595854,2
31,0,713348,248515,1420341,74131,9204,709885,11
31,0,712826,247984,1401476,73938,9204,700433,11
31,0,714234,248538,1296173,74165,8439,647704,11
31,0,737626,253740,1431020,77609,10063,715252,11
31,0,719508,249410,1317629,74636,9312,658295,11
31,-1,636645,217776,1189623,65272,6669,594123,0
31,0,715017,247979,1386579,73952,9027,692929,11
31,0,714008,248468,1384546,74192,9205,691922,11
31,0,720286,249777,1332328,74851,8727,665601,11
31,0,711401,247752,1392634,73845,8272,696027,11
31,0,715387,250231,1366648,74972,8412,682808,11
31,-1,640007,218736,1256021,65588,6945,627512,2
31,0,714376,249466,1332935,74656,9141,666096,11
31,0,706671,247710,1393104,73850,9757,696217,11
31,0,708272,248451,1288948,74072,8947,644103,11
31,0,709804,247906,1357539,73961,8673,678391,11
31,0,712934,248902,1233449,74267,8463,616343,11
31,0,708830,247749,1340218,73874,9123,669695,11
31,0,715496,249568,1336995,74759,9089,668043,11
31,-1,635358,218780,1245730,65591,7285,622323,2
31,0,710636,248355,1322545,74097,8323,660924,11
31,0,715045,249850,1328629,74822,8869,663733,11
31,0,708935,248037,1411539,74008,8857,705333,11
31,0,714022,249239,1318101,74570,8560,658597,11
31,0,710743,247646,1371512,73873,8989,685244,11
31,0,711552,247479,1436144,73781,8767,717805,11
31,0,734375,253106,1347302,77431,9470,673391,11
31,0,709060,247612,1423780,73858,8668,711481,11
31,0,709897,247167,1394293,73731,8727,696859,11
31,-1,642865,219835,1448755,66274,9668,723392,0
31,0,712613,249801,1309723,75019,8493,654203,11
31,0,705468,246749,1365811,73666,8579,682656,11
31,0,708277,247898,1395243,74066,8348,697216,11
31,0,705489,247204,1392993,73806,8872,696120,11
31,0,708672,247701,1305790,73959,8606,652544,11
31,0,708203,247094,1402114,73857,8256,700787,11
31,0,709635,247195,1499035,73894,9061,749110,11
31,-1,641867,220260,1160852,66341,7364,579671,2
31,0,708879,247483,1458999,74038,10493,729089,11
31,0,709476,247569,1496348,74246,10123,747574,11
31,0,708533,247129,1473120,73962,9349,736150,11
31,0,711863,247473,1555607,74011,10234,777536,11
31,0,710058,248415,1477977,74576,10457,738350,11
31,0,706975,247464,1304059,74097,9102,651406,11
31,0,728488,251668,1390186,77241,10330,694720,11
31,0,711115,247825,1574190,74197,9857,786695,11
31,0,709227,246862,1376896,73873,9596,687966,11
31,0,717195,249737,1424122,75066,10337,711731,11
31,0,711413,248058,1451311,74282,9126,725167,11
31,0,709437,246833,1521247,73841,10582,760565,11
31,-1,638854,218419,1285240,65494,7191,642021,2
31,0,706841,247850,1329936,74162,9967,664772,11
31,0,705306,247283,1274663,74022,10010,637027,11
31,0,712223,249605,1410938,75105,9967,704850,11
31,-1,648758,221045,1234408,66725,7959,616511,0
31,0,708335,247216,1473201,73942,9902,736567,11
31,0,709823,246653,1397102,73768,9794,698276,11
31,0,711215,248577,1404501,74707,9473,701665,11
31,-1,645037,220786,1183009,66649,7128,590950,2
31,0,708797,246875,1384988,73795,9164,692191,11
31,0,708332,246789,1475528,73801,9166,737250,11
31,0,709059,247701,1277731,74166,8441,638238,11
31,0,709170,247287,1362327,73966,8896,680766,11
31,0,713681,248237,1434781,74518,9113,717142,11
31,0,713838,249652,1454813,75119,9771,726485,11
31,0,705572,246640,1425479,73773,9021,712379,11
31,0,711036,247717,1397741,74065,9251,698582,11
31,0,709024,247111,1407550,73961,9619,703271,11
31,0,711447,247978,1350947,74232,9476,675081,11
31,0,730257,251414,1481093,77121,10020,740240,11
31,0,708143,246991,1454825,73904,9735,727059,11
31,0,732408,251763,1500794,77276,10950,749605,11
31,0,708923,246803,1492398,73809,10261,745721,11
31,0,715771,249073,1459473,74868,10502,728873,11
31,0,714172,248246,1428555,74346,10091,713905,11
31,-1,638793,217843,1162744,65455,6734,580927,2
31,0,710242,248409,1457067,74526,9653,727909,11
31,0,706994,246581,1514613,73754,9644,756925,11
31,0,710918,247745,1526458,74459,9609,762360,11
31,0,710878,247947,1469115,74106,9623,734252,11
31,-1,641714,219310,1156362,66091,6377,577670,0
31,-1,638295,218223,1241906,65492,6789,620540,2
