0,0,16,653185.000000,223189.312500,1291102.187500,67494.312500,8043.562500,645120.687500,21502.774891,6501.699929,55404.955795,2239.645137,664.024375,27721.898854
0,1,0,-nan,-nan,-nan,-nan,-nan,-nan,-nan,-nan,-nan,-nan,-nan,-nan
1,0,15,645904.066667,221242.466667,1270222.866667,66693.533333,7793.000000,634708.533333,12141.243393,4383.209279,50284.626143,1270.353330,505.563976,25226.559757
1,1,0,-nan,-nan,-nan,-nan,-nan,-nan,-nan,-nan,-nan,-nan,-nan,-nan
2,0,15,643180.733333,220191.933333,1270413.266667,66540.200000,7974.400000,634804.200000,7908.601768,1685.843348,70557.478601,1298.591966,629.502640,35298.878625
2,1,0,-nan,-nan,-nan,-nan,-nan,-nan,-nan,-nan,-nan,-nan,-nan,-nan
3,0,15,641329.266667,219829.933333,1263536.733333,66232.866667,7762.066667,631267.066667,3593.483333,1111.327403,65039.204045,569.520484,622.570421,32487.777362
3,1,0,-nan,-nan,-nan,-nan,-nan,-nan,-nan,-nan,-nan,-nan,-nan,-nan
4,0,15,643785.266667,220103.866667,1267902.933333,66494.800000,7830.533333,633560.266667,8517.844371,1838.372065,46450.706711,1111.120168,745.889703,23237.402736
4,1,0,-nan,-nan,-nan,-nan,-nan,-nan,-nan,-nan,-nan,-nan,-nan,-nan
5,0,15,643325.066667,220272.800000,1289066.666667,66509.000000,7957.000000,644077.666667,5353.206883,1423.864469,67308.785893,864.560775,588.623705,33639.748643
5,1,0,-nan,-nan,-nan,-nan,-nan,-nan,-nan,-nan,-nan,-nan,-nan,-nan
6,0,15,643843.200000,220306.266667,1288431.666667,66593.866667,8067.066667,643786.933333,8645.011457,1716.241027,89591.408458,1328.978097,737.952886,44761.644157
6,1,0,-nan,-nan,-nan,-nan,-nan,-nan,-nan,-nan,-nan,-nan,-nan,-nan
7,0,15,644409.600000,220569.600000,1263267.066667,66704.533333,7851.000000,631169.733333,8855.431289,1788.656583,67802.152152,1410.748117,605.714564,33867.000266
7,1,0,-nan,-nan,-nan,-nan,-nan,-nan,-nan,-nan,-nan,-nan,-nan,-nan
8,0,15,643208.866667,220144.466667,1297002.200000,66529.333333,7792.533333,648031.133333,9169.532194,1913.170836,89175.105985,1230.846520,703.262480,44490.851886
8,1,0,-nan,-nan,-nan,-nan,-nan,-nan,-nan,-nan,-nan,-nan,-nan,-nan
9,0,15,642903.933333,220054.266667,1253353.933333,66482.066667,7753.933333,626240.200000,9023.967099,1770.206936,56750.912840,1093.093742,668.955850,28356.417753
9,1,0,-nan,-nan,-nan,-nan,-nan,-nan,-nan,-nan,-nan,-nan,-nan,-nan
10,0,15,644558.133333,220278.000000,1283251.200000,66487.000000,7972.666667,641175.933333,6087.700035,1262.898043,53828.264181,943.281718,420.607286,26909.937534
10,1,0,-nan,-nan,-nan,-nan,-nan,-nan,-nan,-nan,-nan,-nan,-nan,-nan
11,0,15,643292.933333,219904.333333,1251211.933333,66342.666667,7860.133333,625116.600000,7448.748159,1085.407368,68507.982241,965.243021,707.641234,34151.417745
11,1,0,-nan,-nan,-nan,-nan,-nan,-nan,-nan,-nan,-nan,-nan,-nan,-nan
12,0,15,644602.200000,220413.333333,1290618.133333,66571.800000,8212.666667,644652.866667,6281.546691,1420.797132,80926.765049,825.883462,788.602618,40345.544824
12,1,0,-nan,-nan,-nan,-nan,-nan,-nan,-nan,-nan,-nan,-nan,-nan,-nan
13,0,15,643760.600000,220063.533333,1301228.266667,66492.466667,7980.600000,650222.066667,8710.977242,1769.440434,88799.829312,1213.787453,520.015359,44363.022205
13,1,0,-nan,-nan,-nan,-nan,-nan,-nan,-nan,-nan,-nan,-nan,-nan,-nan
14,0,15,643016.533333,220098.000000,1273323.133333,66265.200000,7805.800000,636173.133333,6082.025648,2312.559246,105538.567623,803.836650,574.492495,52733.019367
14,1,0,-nan,-nan,-nan,-nan,-nan,-nan,-nan,-nan,-nan,-nan,-nan,-nan
15,0,15,645597.266667,220586.600000,1255605.400000,66849.133333,7946.400000,627350.066667,8325.913735,1872.841470,78712.338164,1296.915462,775.489678,39225.900130
15,1,0,-nan,-nan,-nan,-nan,-nan,-nan,-nan,-nan,-nan,-nan,-nan,-nan
16,0,15,644846.133333,220773.800000,1259417.266667,66665.933333,7894.333333,629209.333333,8251.984084,2126.180431,61379.542867,814.026082,356.211860,30766.666173
16,1,0,-nan,-nan,-nan,-nan,-nan,-nan,-nan,-nan,-nan,-nan,-nan,-nan
17,0,15,644296.466667,220437.666667,1277416.000000,66660.333333,8069.533333,638229.400000,6095.109481,1536.302647,37144.131965,1063.916016,507.439306,18549.308971
17,1,0,-nan,-nan,-nan,-nan,-nan,-nan,-nan,-nan,-nan,-nan,-nan,-nan
18,0,15,642106.000000,219705.000000,1226594.133333,66270.200000,7633.133333,612864.666667,5574.728286,1102.805271,36877.182640,769.699439,366.931759,18452.190604
18,1,0,-nan,-nan,-nan,-nan,-nan,-nan,-nan,-nan,-nan,-nan,-nan,-nan
19,0,15,643237.000000,220103.866667,1287558.333333,66404.533333,8090.000000,643352.400000,7626.578796,1412.424151,49682.677739,971.221147,823.525349,24867.589096
19,1,0,-nan,-nan,-nan,-nan,-nan,-nan,-nan,-nan,-nan,-nan,-nan,-nan
20,0,15,644025.200000,220071.866667,1307715.133333,66383.533333,8020.666667,653376.000000,5732.123239,1415.023150,68958.038268,947.381997,523.168254,34437.497698
20,1,0,-nan,-nan,-nan,-nan,-nan,-nan,-nan,-nan,-nan,-nan,-nan,-nan
21,0,15,646291.200000,220709.000000,1282267.533333,66944.733333,7927.866667,640708.266667,9709.399049,2010.202179,48984.271391,1465.682888,592.531166,24512.205467
21,1,0,-nan,-nan,-nan,-nan,-nan,-nan,-nan,-nan,-nan,-nan,-nan,-nan
22,0,15,643915.400000,220306.266667,1247643.533333,66619.333333,7923.466667,623326.000000,7542.608848,1800.959095,64760.929865,1284.818102,621.437995,32406.540268
22,1,0,-nan,-nan,-nan,-nan,-nan,-nan,-nan,-nan,-nan,-nan,-nan,-nan
23,0,15,645314.733333,220444.400000,1266186.066667,66651.066667,8128.000000,632705.333333,7802.901909,1438.273215,52308.078591,1160.610441,508.296370,26135.285374
23,1,0,-nan,-nan,-nan,-nan,-nan,-nan,-nan,-nan,-nan,-nan,-nan,-nan
24,0,15,641684.933333,219576.400000,1241594.600000,66113.266667,7797.333333,620354.266667,3540.976880,947.488456,62914.147344,354.590180,621.633404,31468.225804
24,1,0,-nan,-nan,-nan,-nan,-nan,-nan,-nan,-nan,-nan,-nan,-nan,-nan
25,0,15,643281.666667,219874.666667,1265713.000000,66324.333333,8155.933333,632421.866667,5930.441194,1310.932323,59188.160211,870.901500,461.746318,29555.845454
25,1,0,-nan,-nan,-nan,-nan,-nan,-nan,-nan,-nan,-nan,-nan,-nan,-nan
26,0,15,643755.866667,220212.200000,1274644.733333,66502.800000,7910.533333,636836.933333,5765.641715,1454.716201,70335.888698,980.708397,451.917819,35086.309878
26,1,0,-nan,-nan,-nan,-nan,-nan,-nan,-nan,-nan,-nan,-nan,-nan,-nan
27,0,15,646358.200000,220859.933333,1308297.400000,66918.133333,8243.000000,653672.333333,9737.314744,2129.465926,80465.572495,1380.166747,672.651767,40262.712541
27,1,0,-nan,-nan,-nan,-nan,-nan,-nan,-nan,-nan,-nan,-nan,-nan,-nan
28,0,15,644492.066667,220311.133333,1280588.600000,66569.600000,7997.666667,639808.333333,8634.450397,1791.495013,73782.186990,1297.444812,647.538073,36834.788027
28,1,0,-nan,-nan,-nan,-nan,-nan,-nan,-nan,-nan,-nan,-nan,-nan,-nan
29,0,15,642445.133333,219660.200000,1289101.600000,66153.133333,7882.133333,644131.400000,2388.190720,1018.053908,59437.613784,478.205377,506.224439,29587.223519
29,1,0,-nan,-nan,-nan,-nan,-nan,-nan,-nan,-nan,-nan,-nan,-nan,-nan
30,0,15,644079.800000,220034.800000,1294801.000000,66477.600000,8099.533333,647032.800000,7389.456969,1822.961481,123859.189269,1152.748877,758.933890,62025.029360
30,1,0,-nan,-nan,-nan,-nan,-nan,-nan,-nan,-nan,-nan,-nan,-nan,-nan
31,0,15,644070.266667,220348.866667,1296391.400000,66537.466667,7995.333333,647749.200000,4457.216523,1140.359818,60369.468329,612.143651,552.944201,30175.740327
31,1,0,-nan,-nan,-nan,-nan,-nan,-nan,-nan,-nan,-nan,-nan,-nan,-nan
32,0,15,644284.133333,220201.133333,1282344.800000,66526.066667,8094.333333,640786.466667,8007.645687,1701.801276,62313.885395,1121.939479,614.363591,31179.196716
32,1,0,-nan,-nan,-nan,-nan,-nan,-nan,-nan,-nan,-nan,-nan,-nan,-nan
33,0,15,644285.333333,220275.133333,1273674.800000,66398.200000,7900.000000,636391.333333,9186.901637,2805.184316,76279.456824,1098.668661,625.270288,38181.640968
33,1,0,-nan,-nan,-nan,-nan,-nan,-nan,-nan,-nan,-nan,-nan,-nan,-nan
34,0,15,644717.800000,220359.066667,1286365.666667,66581.800000,7993.133333,642722.400000,8006.155708,1879.755710,55293.367211,1242.137631,428.833280,27645.063819
34,1,0,-nan,-nan,-nan,-nan,-nan,-nan,-nan,-nan,-nan,-nan,-nan,-nan
35,0,15,647645.733333,221000.466667,1264565.533333,66906.133333,7809.200000,631857.400000,10715.160901,2946.418591,55085.164075,1464.233218,600.564978,27582.168768
35,1,0,-nan,-nan,-nan,-nan,-nan,-nan,-nan,-nan,-nan,-nan,-nan,-nan
36,0,15,645565.333333,220769.733333,1287058.466667,66680.933333,7929.133333,643081.200000,8970.275616,2528.804236,68732.272234,1280.412458,556.377314,34391.759591
36,1,0,-nan,-nan,-nan,-nan,-nan,-nan,-nan,-nan,-nan,-nan,-nan,-nan
37,0,15,642964.266667,220178.133333,1290409.866667,66383.133333,8094.600000,644671.466667,2864.547538,1125.299656,93116.879981,457.980912,715.427965,46503.061880
37,1,0,-nan,-nan,-nan,-nan,-nan,-nan,-nan,-nan,-nan,-nan,-nan,-nan
38,0,15,646195.266667,220825.533333,1288435.733333,66919.000000,8101.400000,643767.400000,7478.534825,1888.590616,123447.787941,1194.150633,457.265758,61795.371396
38,1,0,-nan,-nan,-nan,-nan,-nan,-nan,-nan,-nan,-nan,-nan,-nan,-nan
39,0,15,644290.733333,220350.466667,1286751.000000,66600.266667,7826.600000,642949.800000,7873.685367,1688.148448,84115.873162,1190.493313,624.320836,42040.070497
39,1,0,-nan,-nan,-nan,-nan,-nan,-nan,-nan,-nan,-nan,-nan,-nan,-nan
40,0,15,641880.733333,219808.066667,1324795.333333,66271.866667,7928.800000,662008.466667,7072.065153,1366.377618,103948.351087,1002.529126,565.742721,51932.471182
40,1,0,-nan,-nan,-nan,-nan,-nan,-nan,-nan,-nan,-nan,-nan,-nan,-nan
41,0,15,643580.866667,220302.866667,1273009.333333,66518.866667,7847.800000,635980.333333,6059.313359,1355.163846,79119.198142,957.876044,806.479279,39382.771415
41,1,0,-nan,-nan,-nan,-nan,-nan,-nan,-nan,-nan,-nan,-nan,-nan,-nan
42,0,15,645627.933333,220553.266667,1277531.066667,66769.466667,7901.933333,638343.666667,9342.227054,1865.016156,48289.935885,1355.016156,483.006483,24123.050481
42,1,0,-nan,-nan,-nan,-nan,-nan,-nan,-nan,-nan,-nan,-nan,-nan,-nan
43,0,15,641964.866667,219901.400000,1285135.933333,66302.733333,7959.000000,642184.866667,5641.364278,1552.708807,75259.917751,941.355226,479.924577,37665.188805
43,1,0,-nan,-nan,-nan,-nan,-nan,-nan,-nan,-nan,-nan,-nan,-nan,-nan
44,0,15,647258.600000,221492.200000,1299515.533333,66948.800000,7955.400000,649288.200000,12613.312712,3844.032001,104190.783881,1489.023313,854.900602,52144.992919
44,1,0,-nan,-nan,-nan,-nan,-nan,-nan,-nan,-nan,-nan,-nan,-nan,-nan
45,0,15,644650.733333,220527.000000,1262174.866667,66679.666667,7831.133333,630618.000000,7220.145072,1622.117423,46429.611627,1159.346348,648.454765,23231.017693
45,1,0,-nan,-nan,-nan,-nan,-nan,-nan,-nan,-nan,-nan,-nan,-nan,-nan
46,0,15,641168.200000,219880.200000,1260760.066667,66224.866667,7807.400000,629974.933333,3295.798805,1137.227224,75582.624171,531.745160,722.928009,37859.385757
46,1,0,-nan,-nan,-nan,-nan,-nan,-nan,-nan,-nan,-nan,-nan,-nan,-nan
47,0,15,642986.066667,219979.333333,1265711.733333,66359.733333,7792.733333,632434.000000,6587.810212,1801.465391,64290.537074,967.682625,606.812049,32128.079245
47,1,0,-nan,-nan,-nan,-nan,-nan,-nan,-nan,-nan,-nan,-nan,-nan,-nan
48,0,15,645213.933333,220500.666667,1297786.866667,66750.933333,8035.866667,648455.133333,8192.037797,1929.907137,60866.441694,1181.114698,597.752665,30386.689494
48,1,0,-nan,-nan,-nan,-nan,-nan,-nan,-nan,-nan,-nan,-nan,-nan,-nan
49,0,15,644152.733333,220519.466667,1265826.000000,66681.733333,7800.200000,632467.666667,7994.801557,1656.172892,67939.500710,1178.711583,594.016969,33963.742571
49,1,0,-nan,-nan,-nan,-nan,-nan,-nan,-nan,-nan,-nan,-nan,-nan,-nan
50,0,15,646407.666667,221269.866667,1274136.133333,66761.933333,7697.866667,636574.000000,10844.217363,3782.104879,70117.199365,1408.821231,452.721676,35011.414813
50,1,0,-nan,-nan,-nan,-nan,-nan,-nan,-nan,-nan,-nan,-nan,-nan,-nan
51,0,15,641659.333333,219687.866667,1253860.800000,66238.733333,7788.400000,626466.533333,8186.780634,1590.119277,97186.699463,920.935066,773.600655,48627.561002
51,1,0,-nan,-nan,-nan,-nan,-nan,-nan,-nan,-nan,-nan,-nan,-nan,-nan
52,0,15,642667.200000,219874.466667,1276966.000000,66309.133333,7864.400000,638058.133333,7137.281118,1403.983374,101072.095332,925.867584,545.155611,50556.105206
52,1,0,-nan,-nan,-nan,-nan,-nan,-nan,-nan,-nan,-nan,-nan,-nan,-nan
53,0,15,645909.866667,220767.066667,1261632.600000,66858.066667,7881.466667,630322.666667,8735.690378,1794.766520,49632.029192,1260.763233,595.562240,24782.483725
53,1,0,-nan,-nan,-nan,-nan,-nan,-nan,-nan,-nan,-nan,-nan,-nan,-nan
54,0,15,644827.533333,220555.000000,1287806.066667,66774.800000,7846.266667,643442.866667,10526.622984,2095.633079,56947.261839,1406.799782,666.067010,28470.844422
54,1,0,-nan,-nan,-nan,-nan,-nan,-nan,-nan,-nan,-nan,-nan,-nan,-nan
55,0,15,643768.800000,220202.066667,1254735.266667,66576.133333,7935.733333,626877.466667,8795.582855,1765.561534,62957.849355,1241.347862,785.062840,31530.775713
55,1,0,-nan,-nan,-nan,-nan,-nan,-nan,-nan,-nan,-nan,-nan,-nan,-nan
56,0,15,643852.866667,220226.000000,1278053.400000,66574.533333,8005.800000,638556.600000,7746.960435,1568.800603,76506.163154,1074.319932,611.021462,38212.972598
56,1,0,-nan,-nan,-nan,-nan,-nan,-nan,-nan,-nan,-nan,-nan,-nan,-nan
57,0,15,643517.533333,220380.866667,1293727.933333,66419.666667,8136.800000,646326.866667,6954.325991,2586.291550,128189.508167,839.942908,963.510332,64016.634968
57,1,0,-nan,-nan,-nan,-nan,-nan,-nan,-nan,-nan,-nan,-nan,-nan,-nan
58,0,15,643728.133333,220164.733333,1272072.400000,66577.933333,7953.800000,635588.000000,7593.876119,1565.357317,49339.251580,1167.348190,635.308870,24676.445400
58,1,0,-nan,-nan,-nan,-nan,-nan,-nan,-nan,-nan,-nan,-nan,-nan,-nan
59,0,16,645601.687500,220352.312500,1272521.250000,66796.437500,7955.000000,635823.937500,9516.942463,1968.969169,79000.056837,1379.225461,886.031320,39477.363548
59,1,0,-nan,-nan,-nan,-nan,-nan,-nan,-nan,-nan,-nan,-nan,-nan,-nan
60,0,16,644317.250000,220116.312500,1270395.562500,66489.937500,8081.750000,634782.687500,6593.549883,1642.873995,62572.912540,878.123886,552.739258,31399.161573
60,1,0,-nan,-nan,-nan,-nan,-nan,-nan,-nan,-nan,-nan,-nan,-nan,-nan
61,0,16,644383.812500,220220.250000,1254996.875000,66554.312500,7921.437500,627041.562500,7917.208048,1638.911281,68498.731600,1061.070257,430.525401,34248.177203
61,1,0,-nan,-nan,-nan,-nan,-nan,-nan,-nan,-nan,-nan,-nan,-nan,-nan
62,0,16,643047.937500,219859.312500,1257615.062500,66237.812500,7837.750000,628349.875000,3810.396985,1149.475626,53462.057698,462.198580,522.314979,26698.280883
62,1,0,-nan,-nan,-nan,-nan,-nan,-nan,-nan,-nan,-nan,-nan,-nan,-nan
63,0,16,644581.250000,220262.062500,1284808.375000,66581.750000,7901.062500,641994.562500,8225.432287,2044.447800,88605.910144,1263.211606,687.507315,44327.554158
63,1,0,-nan,-nan,-nan,-nan,-nan,-nan,-nan,-nan,-nan,-nan,-nan,-nan
64,0,16,644951.187500,220377.062500,1351561.062500,66646.062500,8306.500000,675311.937500,6695.599191,1600.974760,121977.321464,1132.383629,928.686640,61003.835033
64,1,0,-nan,-nan,-nan,-nan,-nan,-nan,-nan,-nan,-nan,-nan,-nan,-nan
65,0,16,645080.312500,220604.437500,1278225.125000,66772.375000,7980.812500,638577.437500,6288.636574,1360.890103,82355.533547,1061.069736,375.033702,41070.352076
65,1,0,-nan,-nan,-nan,-nan,-nan,-nan,-nan,-nan,-nan,-nan,-nan,-nan
66,0,16,643658.375000,219863.125000,1264523.750000,66340.000000,8078.062500,631817.437500,6342.951096,1255.381012,77182.219848,748.627745,674.972543,38567.111358
66,1,0,-nan,-nan,-nan,-nan,-nan,-nan,-nan,-nan,-nan,-nan,-nan,-nan
67,0,16,641760.000000,219469.125000,1245853.750000,66095.625000,7784.000000,622529.625000,3085.376902,904.999439,54757.790116,452.531059,431.303837,27395.684345
67,1,0,-nan,-nan,-nan,-nan,-nan,-nan,-nan,-nan,-nan,-nan,-nan,-nan
68,0,16,645451.000000,220666.625000,1247371.000000,66823.687500,7929.937500,623186.750000,8625.120557,1809.097664,56330.769580,1192.604488,602.967191,28115.179075
68,1,0,-nan,-nan,-nan,-nan,-nan,-nan,-nan,-nan,-nan,-nan,-nan,-nan
69,0,16,646396.937500,220794.062500,1288532.062500,66974.250000,8261.812500,643876.375000,10190.021697,2121.713737,82264.104039,1498.398416,603.464810,41098.007026
69,1,0,-nan,-nan,-nan,-nan,-nan,-nan,-nan,-nan,-nan,-nan,-nan,-nan
70,0,16,642715.687500,220123.312500,1224299.187500,66328.062500,7861.437500,611685.312500,6653.115264,2295.413082,73621.598899,723.587112,781.477045,36732.397166
70,1,0,-nan,-nan,-nan,-nan,-nan,-nan,-nan,-nan,-nan,-nan,-nan,-nan
71,0,16,642785.687500,219914.625000,1274681.000000,66393.062500,8002.562500,636831.687500,5777.613691,1355.874758,62757.876571,891.998631,602.383077,31342.921110
71,1,0,-nan,-nan,-nan,-nan,-nan,-nan,-nan,-nan,-nan,-nan,-nan,-nan
72,0,16,642178.937500,219993.812500,1283476.500000,66364.437500,7995.750000,641253.250000,6725.947391,1231.661288,73814.026759,862.578545,644.609717,36895.016267
72,1,0,-nan,-nan,-nan,-nan,-nan,-nan,-nan,-nan,-nan,-nan,-nan,-nan
73,0,16,645328.062500,220626.750000,1259120.562500,66800.000000,7987.750000,629098.062500,9088.920807,1783.891305,68950.882057,1346.982461,657.479230,34526.704993
73,1,0,-nan,-nan,-nan,-nan,-nan,-nan,-nan,-nan,-nan,-nan,-nan,-nan
74,0,16,646346.125000,220886.500000,1252653.625000,66761.937500,7954.875000,625867.312500,9521.121001,2674.979813,67610.742319,1302.556643,702.984608,33840.582923
74,1,0,-nan,-nan,-nan,-nan,-nan,-nan,-nan,-nan,-nan,-nan,-nan,-nan
75,0,16,645999.812500,220655.750000,1255240.250000,66653.375000,7885.500000,627218.000000,9550.259167,2805.384209,75282.160785,1325.359568,545.774221,37655.105107
75,1,0,-nan,-nan,-nan,-nan,-nan,-nan,-nan,-nan,-nan,-nan,-nan,-nan
76,0,16,640969.500000,219452.750000,1265746.562500,66073.625000,7814.125000,632446.125000,3723.863132,857.314958,71378.822307,439.822532,623.902023,35662.210221
76,1,0,-nan,-nan,-nan,-nan,-nan,-nan,-nan,-nan,-nan,-nan,-nan,-nan
77,0,16,644397.687500,220270.500000,1290335.250000,66595.937500,7998.750000,644745.250000,6531.791884,1485.458263,55441.764466,1151.841377,646.219922,27695.404740
77,1,0,-nan,-nan,-nan,-nan,-nan,-nan,-nan,-nan,-nan,-nan,-nan,-nan
78,0,16,648376.750000,221120.187500,1276622.562500,67183.062500,8035.875000,637872.437500,9682.532743,1947.720084,71892.903375,1478.873113,732.688105,35942.083007
78,1,0,-nan,-nan,-nan,-nan,-nan,-nan,-nan,-nan,-nan,-nan,-nan,-nan
79,0,16,642219.875000,219660.250000,1281124.000000,66290.500000,7922.562500,640150.125000,6857.692905,1525.110713,76250.425268,910.112699,554.281062,38112.543032
79,1,0,-nan,-nan,-nan,-nan,-nan,-nan,-nan,-nan,-nan,-nan,-nan,-nan
80,0,16,642223.750000,219942.000000,1276152.312500,66395.687500,8045.500000,637633.125000,6879.881172,1275.529106,51274.120439,873.443309,534.830581,25682.045450
80,1,0,-nan,-nan,-nan,-nan,-nan,-nan,-nan,-nan,-nan,-nan,-nan,-nan
81,0,16,643908.812500,220640.875000,1275528.500000,66579.312500,7902.750000,637301.000000,7076.136651,2070.495106,77856.036640,655.210817,475.368081,38843.404530
81,1,0,-nan,-nan,-nan,-nan,-nan,-nan,-nan,-nan,-nan,-nan,-nan,-nan
82,0,16,649819.937500,221532.125000,1297087.062500,67355.375000,8165.250000,648087.187500,10211.593316,2854.871054,58221.168504,1545.005739,721.652487,29106.662580
82,1,0,-nan,-nan,-nan,-nan,-nan,-nan,-nan,-nan,-nan,-nan,-nan,-nan
83,0,16,643675.437500,220312.875000,1308742.312500,66669.125000,8098.562500,653819.625000,7700.735452,1563.968905,124215.653369,1058.230001,955.020351,61992.329167
83,1,0,-nan,-nan,-nan,-nan,-nan,-nan,-nan,-nan,-nan,-nan,-nan,-nan
84,0,16,641028.500000,219501.312500,1240742.187500,66151.812500,7865.937500,619865.687500,2888.630515,683.162382,44664.956196,392.558152,470.838543,22261.848763
84,1,0,-nan,-nan,-nan,-nan,-nan,-nan,-nan,-nan,-nan,-nan,-nan,-nan
85,0,16,640767.375000,219862.750000,1314246.250000,66273.312500,8167.500000,656591.875000,3248.148316,783.550692,134844.885347,416.297327,1004.260673,67357.479777
85,1,0,-nan,-nan,-nan,-nan,-nan,-nan,-nan,-nan,-nan,-nan,-nan,-nan
86,0,16,642906.375000,219910.062500,1292174.812500,66397.812500,8096.812500,645639.937500,6709.972093,1515.826980,69856.680820,934.913246,550.716263,34954.962027
86,1,0,-nan,-nan,-nan,-nan,-nan,-nan,-nan,-nan,-nan,-nan,-nan,-nan
87,0,16,643477.562500,220024.875000,1265719.062500,66537.000000,7882.250000,632500.062500,7113.988702,1576.655276,72151.881927,1121.299191,517.505495,36124.042556
87,1,0,-nan,-nan,-nan,-nan,-nan,-nan,-nan,-nan,-nan,-nan,-nan,-nan
88,0,16,643429.687500,220151.125000,1271124.000000,66481.812500,7946.812500,635113.187500,5819.247650,1316.589005,86955.230323,772.845814,628.298816,43518.630896
88,1,0,-nan,-nan,-nan,-nan,-nan,-nan,-nan,-nan,-nan,-nan,-nan,-nan
89,0,16,644454.000000,220271.750000,1241509.687500,66677.187500,7816.875000,620262.687500,7443.334451,1771.952578,51802.688069,1224.662822,538.550819,25881.556333
89,1,0,-nan,-nan,-nan,-nan,-nan,-nan,-nan,-nan,-nan,-nan,-nan,-nan
90,0,16,643939.687500,219909.812500,1272761.875000,66505.812500,7967.750000,635957.500000,8339.614925,1639.579680,79320.771554,1171.722675,589.909050,39678.236079
90,1,0,-nan,-nan,-nan,-nan,-nan,-nan,-nan,-nan,-nan,-nan,-nan,-nan
91,0,16,642833.687500,219826.875000,1282722.437500,66307.312500,7898.625000,640967.687500,4713.172839,1143.133078,77696.814784,856.010785,913.440260,38837.688371
91,1,0,-nan,-nan,-nan,-nan,-nan,-nan,-nan,-nan,-nan,-nan,-nan,-nan
92,0,16,645208.625000,220862.812500,1272797.500000,66843.250000,7922.187500,635917.750000,8329.131692,2275.956563,87174.639485,1066.789957,529.313260,43662.899585
92,1,0,-nan,-nan,-nan,-nan,-nan,-nan,-nan,-nan,-nan,-nan,-nan,-nan
93,0,16,643573.500000,220427.562500,1283753.312500,66575.125000,7857.125000,641480.750000,8322.970436,2540.449713,59566.250434,1013.365548,348.924217,29819.089686
93,1,0,-nan,-nan,-nan,-nan,-nan,-nan,-nan,-nan,-nan,-nan,-nan,-nan
94,0,16,641584.250000,219750.000000,1283759.875000,66344.250000,7855.562500,641428.562500,5397.258407,1164.210838,57395.376084,863.375751,723.291778,28677.471206
94,1,0,-nan,-nan,-nan,-nan,-nan,-nan,-nan,-nan,-nan,-nan,-nan,-nan
95,0,16,640564.312500,219819.187500,1317928.437500,66263.250000,8031.375000,658506.125000,3309.341508,874.742692,136886.327523,402.306553,1011.020578,68434.732863
95,1,0,-nan,-nan,-nan,-nan,-nan,-nan,-nan,-nan,-nan,-nan,-nan,-nan
96,0,16,644475.562500,220330.437500,1247083.625000,66759.187500,8066.687500,623082.312500,8229.710125,1863.487187,54083.882755,1322.941147,649.736747,27017.609322
96,1,0,-nan,-nan,-nan,-nan,-nan,-nan,-nan,-nan,-nan,-nan,-nan,-nan
97,0,16,642221.500000,220053.812500,1257554.125000,66475.187500,7888.187500,628325.812500,6931.385774,1304.241313,67440.999866,840.093835,791.387880,33669.320930
97,1,0,-nan,-nan,-nan,-nan,-nan,-nan,-nan,-nan,-nan,-nan,-nan,-nan
98,0,16,643770.937500,219954.125000,1276232.625000,66434.187500,7952.562500,637666.000000,6316.627358,1384.994715,76307.822870,871.213609,485.993566,38176.076881
98,1,0,-nan,-nan,-nan,-nan,-nan,-nan,-nan,-nan,-nan,-nan,-nan,-nan
99,0,16,646471.625000,220499.562500,1298663.687500,66858.937500,8335.625000,648888.875000,6841.823002,1585.118173,71961.259966,1283.774877,710.780458,35997.237975
99,1,0,-nan,-nan,-nan,-nan,-nan,-nan,-nan,-nan,-nan,-nan,-nan,-nan
100,0,16,646725.875000,220662.312500,1287482.375000,66753.562500,8133.250000,643323.875000,8461.516264,2490.442273,110040.736594,1224.932343,823.704627,54953.226782
100,1,0,-nan,-nan,-nan,-nan,-nan,-nan,-nan,-nan,-nan,-nan,-nan,-nan
101,0,16,645888.312500,220725.687500,1262881.062500,66789.687500,8231.062500,630958.625000,9848.989965,3000.782892,82441.920720,1287.194076,611.146921,41186.501622
101,1,0,-nan,-nan,-nan,-nan,-nan,-nan,-nan,-nan,-nan,-nan,-nan,-nan
102,0,16,647083.000000,221221.750000,1262225.250000,66822.312500,7999.312500,630602.125000,11596.213094,4167.756973,80218.873984,1322.409624,475.312229,40118.858587
102,1,0,-nan,-nan,-nan,-nan,-nan,-nan,-nan,-nan,-nan,-nan,-nan,-nan
103,0,16,646868.875000,221184.375000,1275844.875000,66797.375000,8187.000000,637422.875000,12488.792580,4336.654729,68171.365139,1381.879557,628.665750,34122.545047
103,1,0,-nan,-nan,-nan,-nan,-nan,-nan,-nan,-nan,-nan,-nan,-nan,-nan
104,0,16,647637.562500,221167.000000,1250287.062500,66858.187500,8005.812500,624753.937500,14951.016913,4585.055111,69200.194605,1501.493349,383.197439,34565.770629
104,1,0,-nan,-nan,-nan,-nan,-nan,-nan,-nan,-nan,-nan,-nan,-nan,-nan
105,0,16,646509.062500,221173.375000,1284555.937500,66772.562500,8082.625000,641829.125000,18549.263589,5578.436092,74683.187604,1965.275616,773.407305,37362.460425
105,1,0,-nan,-nan,-nan,-nan,-nan,-nan,-nan,-nan,-nan,-nan,-nan,-nan
106,0,16,646306.312500,221022.062500,1264775.812500,66715.875000,8128.187500,631827.500000,13346.364101,4174.655187,57324.706837,1328.850766,934.445639,28528.174124
106,1,0,-nan,-nan,-nan,-nan,-nan,-nan,-nan,-nan,-nan,-nan,-nan,-nan
107,0,16,650985.937500,222212.437500,1307297.562500,67500.750000,8162.062500,653235.125000,14022.942926,4477.123420,60424.304858,1640.091327,633.900965,30256.640597
107,1,0,-nan,-nan,-nan,-nan,-nan,-nan,-nan,-nan,-nan,-nan,-nan,-nan
108,0,16,647705.562500,221371.875000,1292887.000000,66953.625000,8021.000000,646053.750000,14701.438764,4537.185125,62423.778418,1703.238565,606.190358,31262.125920
108,1,0,-nan,-nan,-nan,-nan,-nan,-nan,-nan,-nan,-nan,-nan,-nan,-nan
109,0,16,644135.062500,220732.437500,1259309.625000,66428.187500,7950.500000,629196.250000,12746.183867,4234.617736,59037.264626,1114.215207,400.722784,29562.655121
109,1,0,-nan,-nan,-nan,-nan,-nan,-nan,-nan,-nan,-nan,-nan,-nan,-nan
110,0,16,647684.812500,221605.062500,1261720.750000,66817.000000,7856.625000,630396.875000,13442.863949,4454.478287,66638.699252,1283.470734,522.730915,33355.151963
110,1,0,-nan,-nan,-nan,-nan,-nan,-nan,-nan,-nan,-nan,-nan,-nan,-nan
111,0,16,644389.125000,220829.062500,1263052.125000,66500.687500,7750.062500,631061.812500,14510.057266,5143.376037,89202.517141,1539.473316,543.598021,44530.759354
111,1,0,-nan,-nan,-nan,-nan,-nan,-nan,-nan,-nan,-nan,-nan,-nan,-nan
112,0,16,648441.875000,221648.187500,1264844.062500,66998.750000,7768.062500,631957.000000,15447.596451,4750.868016,58130.262166,1583.426565,476.285821,29014.261784
112,1,0,-nan,-nan,-nan,-nan,-nan,-nan,-nan,-nan,-nan,-nan,-nan,-nan
113,0,16,648053.312500,221600.812500,1316860.250000,66978.625000,8060.500000,657890.312500,13267.386643,4259.936285,89646.670935,1475.457932,714.161221,44755.196507
113,1,0,-nan,-nan,-nan,-nan,-nan,-nan,-nan,-nan,-nan,-nan,-nan,-nan
114,0,16,646349.312500,220716.250000,1298222.312500,66518.125000,7826.125000,648706.375000,17130.386787,5319.834989,54796.653108,1921.405276,558.316429,27467.017373
114,1,0,-nan,-nan,-nan,-nan,-nan,-nan,-nan,-nan,-nan,-nan,-nan,-nan
115,0,16,646237.875000,221225.625000,1304736.375000,66636.562500,8119.187500,651862.000000,11839.943332,4221.907431,78014.496428,1161.351043,700.419804,39016.170106
115,1,0,-nan,-nan,-nan,-nan,-nan,-nan,-nan,-nan,-nan,-nan,-nan,-nan
116,0,16,646980.937500,221271.187500,1280150.375000,66772.375000,7958.437500,639579.937500,14555.338301,4824.967438,54640.320712,1545.833063,599.184025,27289.273168
116,1,0,-nan,-nan,-nan,-nan,-nan,-nan,-nan,-nan,-nan,-nan,-nan,-nan
117,0,16,648155.812500,221595.062500,1281528.937500,67054.250000,7952.437500,640339.875000,13317.448527,4236.402711,65613.481316,1504.832819,451.281643,32788.335767
117,1,0,-nan,-nan,-nan,-nan,-nan,-nan,-nan,-nan,-nan,-nan,-nan,-nan
118,0,16,645998.562500,221295.437500,1268670.937500,66753.312500,7900.500000,633885.750000,12975.402812,4261.327566,65005.454403,1355.733091,507.591125,32562.375289
118,1,0,-nan,-nan,-nan,-nan,-nan,-nan,-nan,-nan,-nan,-nan,-nan,-nan
119,0,16,649028.250000,221959.937500,1294355.437500,67091.500000,8082.750000,646706.125000,16395.297010,5261.438556,80677.057893,1773.410204,916.274488,40317.149254
119,1,0,-nan,-nan,-nan,-nan,-nan,-nan,-nan,-nan,-nan,-nan,-nan,-nan
120,0,16,645594.062500,221078.375000,1253083.437500,66571.625000,8028.500000,625998.187500,12818.472542,4353.747651,61404.225293,1197.243599,763.939461,30546.018262
120,1,0,-nan,-nan,-nan,-nan,-nan,-nan,-nan,-nan,-nan,-nan,-nan,-nan
121,0,16,650963.312500,222330.437500,1265084.875000,67448.437500,8420.250000,632045.375000,15194.747076,5001.776284,57130.544886,1787.431256,662.101531,28541.765809
121,1,0,-nan,-nan,-nan,-nan,-nan,-nan,-nan,-nan,-nan,-nan,-nan,-nan
122,0,16,646375.000000,220979.687500,1280612.187500,66628.437500,8051.312500,639868.437500,13228.846992,4368.094661,87703.043992,1278.365068,566.527329,43826.532532
122,1,0,-nan,-nan,-nan,-nan,-nan,-nan,-nan,-nan,-nan,-nan,-nan,-nan
123,0,16,647439.750000,221523.687500,1265865.625000,66939.875000,8069.187500,632541.437500,14845.793573,4940.663641,70239.584143,1692.290529,666.763566,35204.218565
123,1,0,-nan,-nan,-nan,-nan,-nan,-nan,-nan,-nan,-nan,-nan,-nan,-nan
124,0,16,646418.500000,220905.062500,1293581.625000,66599.437500,7983.312500,646346.312500,12444.026001,4339.230238,82917.213106,1403.751446,657.241653,41432.569783
124,1,0,-nan,-nan,-nan,-nan,-nan,-nan,-nan,-nan,-nan,-nan,-nan,-nan
125,0,16,645248.187500,220909.375000,1268585.250000,66546.750000,7805.500000,633794.000000,12443.679355,4435.793135,67430.753076,1286.453385,454.682719,33698.483555
125,1,0,-nan,-nan,-nan,-nan,-nan,-nan,-nan,-nan,-nan,-nan,-nan,-nan
126,0,16,646746.937500,221071.437500,1276280.062500,66771.187500,7947.687500,637676.812500,12461.245576,4352.340605,75075.124022,1443.945862,663.512784,37518.369584
126,1,0,-nan,-nan,-nan,-nan,-nan,-nan,-nan,-nan,-nan,-nan,-nan,-nan
127,0,23,644773.826087,220688.956522,1274389.434783,66741.434783,7930.391304,636723.956522,13401.185008,4196.644855,71308.478802,1320.389660,610.764008,35631.555701
127,1,0,-nan,-nan,-nan,-nan,-nan,-nan,-nan,-nan,-nan,-nan,-nan,-nan
