2,0,0.00404245
2,1,0.00353714
2,2,0.00353714
2,3,0.00353714
2,4,0.00353714
2,5,0.00353714
2,6,0.00353714
2,7,0.00353714
2,8,0.00353714
2,9,0.00353714
2,10,0.00353714
2,11,0.00353714
2,12,0.00353714
2,13,0.00353714
2,14,0.00353714
2,15,0.00353714
2,16,0.00353714
2,17,0.00353714
2,18,0.00353714
2,19,0.00353714
2,20,0.00353714
2,21,0.00353714
2,22,0.00353714
2,23,0.00353714
2,24,0.00353714
2,25,0.00353714
2,26,0.00353714
2,27,0.00353714
2,28,0.00353714
2,29,0.00353714
2,30,0.00353714
2,31,0.00353714
2,32,0.00353714
2,33,0.00353714
2,34,0.00353714
2,35,0.00353714
2,36,0.00353714
2,37,0.00353714
2,38,0.00353714
2,39,0.00353714
2,40,0.00353714
2,41,0.00353714
2,42,0.00353714
2,43,0.00353714
2,44,0.00353714
2,45,0.00353714
2,46,0.00353714
2,47,0.00353714
2,48,0.00353714
2,49,0.00353714
2,50,0.00353714
2,51,0.00353714
2,52,0.00353714
2,53,0.00353714
2,54,0.00353714
2,55,0.00353714
2,56,0.00353714
2,57,0.00353714
2,58,0.00353714
2,59,0.00353714
2,60,0.00353714
2,61,0.00353714
2,62,0.00353714
2,63,0.00353714
2,64,0.00353714
2,65,0.00353714
2,66,0.00353714
2,67,0.00353714
2,68,0.00353714
2,69,0.00353714
2,70,0.00404245
2,71,0.00404245
2,72,0.00404245
2,73,0.00404245
2,74,0.00404245
2,75,0.00404245
2,76,0.00404245
2,77,0.00404245
2,78,0.00404245
2,79,0.00404245
2,80,0.00404245
2,81,0.00404245
2,82,0.00404245
2,83,0.00404245
2,84,0.00404245
2,85,0.00404245
2,86,0.00404245
2,87,0.00404245
2,88,0.00404245
2,89,0.00404245
2,90,0.00404245
2,91,0.00404245
2,92,0.00404245
2,93,0.00404245
2,94,0.00404245
2,95,0.00404245
2,96,0.00404245
2,97,0.00404245
2,98,0.00404245
2,99,0.00404245
2,100,0.00404245
2,101,0.00404245
2,102,0.00404245
2,103,0.00404245
2,104,0.00404245
2,105,0.00404245
2,106,0.00404245
2,107,0.00404245
2,108,0.00404245
2,109,0.00404245
2,110,0.00404245
2,111,0.00404245
2,112,0.00404245
2,113,0.00404245
2,114,0.00404245
2,115,0.00404245
2,116,0.00404245
2,117,0.00404245
2,118,0.00404245
2,119,0.00404245
2,120,0.00404245
2,121,0.00404245
2,122,0.00404245
2,123,0.00404245
2,124,0.00404245
2,125,0.00404245
2,126,0.00404245
2,127,0.00404245
2,128,0.00404245
2,129,0.00404245
2,130,0.00404245
2,131,0.00404245
2,132,0.00404245
2,133,0.00404245
2,134,0.00404245
2,135,0.00404245
2,136,0.00404245
2,137,0.00404245
2,138,0.00404245
2,139,0.00404245
2,140,0.00404245
2,141,0.00404245
2,142,0.00404245
2,143,0.00404245
2,144,0.00404245
2,145,0.00404245
2,146,0.00404245
2,147,0.00404245
2,148,0.00404245
2,149,0.00404245
2,150,0.00404245
2,151,0.00404245
2,152,0.00404245
2,153,0.00404245
2,154,0.00404245
2,155,0.00404245
2,156,0.00404245
2,157,0.00404245
2,158,0.00404245
2,159,0.00404245
2,160,0.00404245
2,161,0.00404245
2,162,0.00404245
2,163,0.00404245
2,164,0.00404245
2,165,0.00404245
2,166,0.00404245
2,167,0.00404245
2,168,0.00404245
2,169,0.00404245
2,170,0.00404245
2,171,0.00404245
2,172,0.00404245
2,173,0.00404245
2,174,0.00404245
2,175,0.00404245
2,176,0.00404245
2,177,0.00404245
2,178,0.00404245
2,179,0.00404245
2,180,0.00404245
2,181,0.00404245
2,182,0.00404245
2,183,0.00404245
2,184,0.00404245
2,185,0.00404245
2,186,0.00404245
2,187,0.00404245
2,188,0.00404245
2,189,0.00404245
2,190,0.00404245
2,191,0.00404245
2,192,0.00404245
2,193,0.00404245
2,194,0.00404245
2,195,0.00404245
2,196,0.00404245
2,197,0.00404245
2,198,0.00404245
2,199,0.00404245
2,200,0.00404245
2,201,0.00404245
2,202,0.00404245
2,203,0.00404245
2,204,0.00404245
2,205,0.00404245
2,206,0.00404245
2,207,0.00404245
2,208,0.00404245
2,209,0.00404245
2,210,0.00404245
2,211,0.00404245
2,212,0.00404245
2,213,0.00404245
2,214,0.00404245
2,215,0.00404245
2,216,0.00404245
2,217,0.00404245
2,218,0.00404245
2,219,0.00404245
2,220,0.00404245
2,221,0.00404245
2,222,0.00404245
2,223,0.00404245
2,224,0.00404245
2,225,0.00404245
2,226,0.00404245
2,227,0.00404245
2,228,0.00404245
2,229,0.00404245
2,230,0.00404245
2,231,0.00404245
2,232,0.00404245
2,233,0.00404245
2,234,0.00404245
2,235,0.00404245
2,236,0.00404245
2,237,0.00404245
2,238,0.00404245
2,239,0.00404245
2,240,0.00404245
2,241,0.00404245
2,242,0.00404245
2,243,0.00404245
2,244,0.00404245
2,245,0.00404245
2,246,0.00404245
2,247,0.00404245
2,248,0.00404245
2,249,0.00404245
2,250,0.00404245
2,251,0.00404245
2,252,0.00404245
2,253,0.00404245
2,254,0.00404245
2,255,0.00404245
