-1,0,0.00290698
-1,1,0.00218023
-1,2,0.00218023
-1,3,0.00218023
-1,4,0.00218023
-1,5,0.00218023
-1,6,0.00218023
-1,7,0.00218023
-1,8,0.00218023
-1,9,0.00218023
-1,10,0.00218023
-1,11,0.00218023
-1,12,0.00218023
-1,13,0.00218023
-1,14,0.00218023
-1,15,0.00218023
-1,16,0.00218023
-1,17,0.00218023
-1,18,0.00218023
-1,19,0.00218023
-1,20,0.00218023
-1,21,0.00218023
-1,22,0.00218023
-1,23,0.00218023
-1,24,0.00218023
-1,25,0.00218023
-1,26,0.00218023
-1,27,0.00218023
-1,28,0.00218023
-1,29,0.00218023
-1,30,0.00218023
-1,31,0.00218023
-1,32,0.00218023
-1,33,0.00218023
-1,34,0.00218023
-1,35,0.00218023
-1,36,0.00218023
-1,37,0.00218023
-1,38,0.00218023
-1,39,0.00218023
-1,40,0.00218023
-1,41,0.00218023
-1,42,0.00218023
-1,43,0.00218023
-1,44,0.00218023
-1,45,0.00218023
-1,46,0.00218023
-1,47,0.00218023
-1,48,0.00218023
-1,49,0.00218023
-1,50,0.00218023
-1,51,0.00218023
-1,52,0.00218023
-1,53,0.00218023
-1,54,0.00218023
-1,55,0.00218023
-1,56,0.00218023
-1,57,0.00218023
-1,58,0.00218023
-1,59,0.00218023
-1,60,0.00218023
-1,61,0.00218023
-1,62,0.00218023
-1,63,0.00218023
-1,64,0.00218023
-1,65,0.00218023
-1,66,0.00218023
-1,67,0.00218023
-1,68,0.00218023
-1,69,0.00218023
-1,70,0.00218023
-1,71,0.00218023
-1,72,0.00218023
-1,73,0.00218023
-1,74,0.00218023
-1,75,0.00218023
-1,76,0.00218023
-1,77,0.00218023
-1,78,0.00218023
-1,79,0.00218023
-1,80,0.00218023
-1,81,0.00218023
-1,82,0.00145349
-1,83,0.00145349
-1,84,0.00145349
-1,85,0.00145349
-1,86,0.00145349
-1,87,0.00145349
-1,88,0.00145349
-1,89,0.00145349
-1,90,0.00145349
-1,91,0.00145349
-1,92,0.00145349
-1,93,0.00145349
-1,94,0.00145349
-1,95,0.00145349
-1,96,0.00145349
-1,97,0.00145349
-1,98,0.00145349
-1,99,0.00145349
-1,100,0.00145349
-1,101,0.00145349
-1,102,0.00145349
-1,103,0.00145349
-1,104,0.00145349
-1,105,0.00145349
-1,106,0.00145349
-1,107,0.00145349
-1,108,0.00145349
-1,109,0.00145349
-1,110,0.00145349
-1,111,0.00145349
-1,112,0.00145349
-1,113,0.00145349
-1,114,0.00145349
-1,115,0.00145349
-1,116,0.00145349
-1,117,0.00145349
-1,118,0.00145349
-1,119,0.00145349
-1,120,0.00145349
-1,121,0.00145349
-1,122,0.00145349
-1,123,0.00145349
-1,124,0.00145349
-1,125,0.00145349
-1,126,0.00145349
-1,127,0.00145349
-1,128,0.00145349
-1,129,0.00145349
-1,130,0.00145349
-1,131,0.00145349
-1,132,0.00145349
-1,133,0.00145349
-1,134,0.00145349
-1,135,0.00145349
-1,136,0.00145349
-1,137,0.00145349
-1,138,0.00145349
-1,139,0.00145349
-1,140,0.00145349
-1,141,0.00145349
-1,142,0.00145349
-1,143,0.00145349
-1,144,0.00145349
-1,145,0.00145349
-1,146,0.00145349
-1,147,0.00145349
-1,148,0.00145349
-1,149,0.00145349
-1,150,0.00145349
-1,151,0.00145349
-1,152,0.00145349
-1,153,0.00145349
-1,154,0.00145349
-1,155,0.00145349
-1,156,0.00145349
-1,157,0.00145349
-1,158,0.00145349
-1,159,0.00145349
-1,160,0.00145349
-1,161,0.00145349
-1,162,0.00145349
-1,163,0.00145349
-1,164,0.00145349
-1,165,0.00145349
-1,166,0.00145349
-1,167,0.00145349
-1,168,0.00145349
-1,169,0.00145349
-1,170,0.00145349
-1,171,0.00145349
-1,172,0.00145349
-1,173,0.00145349
-1,174,0.00145349
-1,175,0.00145349
-1,176,0.00145349
-1,177,0.00145349
-1,178,0.00145349
-1,179,0.00145349
-1,180,0.00145349
-1,181,0.00145349
-1,182,0.00145349
-1,183,0.00145349
-1,184,0.00145349
-1,185,0.00145349
-1,186,0.00145349
-1,187,0.00145349
-1,188,0.00145349
-1,189,0.00145349
-1,190,0.00145349
-1,191,0.00145349
-1,192,0.00145349
-1,193,0.00145349
-1,194,0.00145349
-1,195,0.00145349
-1,196,0.00145349
-1,197,0.00145349
-1,198,0.00145349
-1,199,0.00145349
-1,200,0.00145349
-1,201,0.00145349
-1,202,0.00145349
-1,203,0.00145349
-1,204,0.00145349
-1,205,0.00145349
-1,206,0.00145349
-1,207,0.00145349
-1,208,0.00145349
-1,209,0.00145349
-1,210,0.00145349
-1,211,0.00145349
-1,212,0.00145349
-1,213,0.00145349
-1,214,0.00145349
-1,215,0.00145349
-1,216,0.00145349
-1,217,0.00145349
-1,218,0.00145349
-1,219,0.00145349
-1,220,0.00145349
-1,221,0.00145349
-1,222,0.00145349
-1,223,0.00145349
-1,224,0.00145349
-1,225,0.00145349
-1,226,0.00145349
-1,227,0.00145349
-1,228,0.00145349
-1,229,0.00145349
-1,230,0.00145349
-1,231,0.00145349
-1,232,0.00145349
-1,233,0.00145349
-1,234,0.00145349
-1,235,0.00145349
-1,236,0.00145349
-1,237,0.00145349
-1,238,0.00145349
-1,239,0.00145349
-1,240,0.00145349
-1,241,0.00145349
-1,242,0.00145349
-1,243,0.00218023
-1,244,0.00218023
-1,245,0.00218023
-1,246,0.00218023
-1,247,0.00218023
-1,248,0.00218023
-1,249,0.00218023
-1,250,0.00218023
-1,251,0.00218023
-1,252,0.00218023
-1,253,0.00218023
-1,254,0.00218023
-1,255,0.00218023
-1,256,0.00218023
-1,257,0.00218023
-1,258,0.00218023
-1,259,0.00218023
-1,260,0.00218023
-1,261,0.00218023
-1,262,0.00218023
-1,263,0.00218023
-1,264,0.00218023
-1,265,0.00218023
-1,266,0.00218023
-1,267,0.00218023
-1,268,0.00218023
-1,269,0.00218023
-1,270,0.00218023
-1,271,0.00218023
-1,272,0.00218023
-1,273,0.00218023
-1,274,0.00218023
-1,275,0.00218023
-1,276,0.00218023
-1,277,0.00218023
-1,278,0.00218023
-1,279,0.00218023
-1,280,0.00218023
-1,281,0.00218023
-1,282,0.00218023
-1,283,0.00218023
-1,284,0.00218023
-1,285,0.00218023
-1,286,0.00218023
-1,287,0.00218023
-1,288,0.00218023
-1,289,0.00218023
-1,290,0.00218023
-1,291,0.00218023
-1,292,0.00218023
-1,293,0.00218023
-1,294,0.00218023
-1,295,0.00218023
-1,296,0.00218023
-1,297,0.00218023
-1,298,0.00218023
-1,299,0.00218023
-1,300,0.00218023
-1,301,0.00218023
-1,302,0.00218023
-1,303,0.00218023
-1,304,0.00218023
-1,305,0.00218023
-1,306,0.00218023
-1,307,0.00218023
-1,308,0.00218023
-1,309,0.00218023
-1,310,0.00218023
-1,311,0.00218023
-1,312,0.00218023
-1,313,0.00218023
-1,314,0.00218023
-1,315,0.00218023
-1,316,0.00218023
-1,317,0.00218023
-1,318,0.00218023
-1,319,0.00218023
-1,320,0.00218023
-1,321,0.00218023
-1,322,0.00218023
-1,323,0.00218023
-1,324,0.00218023
-1,325,0.00218023
-1,326,0.00218023
-1,327,0.00218023
-1,328,0.00218023
-1,329,0.00218023
-1,330,0.00218023
-1,331,0.00218023
-1,332,0.00218023
-1,333,0.00218023
-1,334,0.00218023
-1,335,0.00218023
-1,336,0.00218023
-1,337,0.00218023
-1,338,0.00218023
-1,339,0.00218023
-1,340,0.00218023
-1,341,0.00218023
-1,342,0.00218023
-1,343,0.00218023
-1,344,0.00218023
-1,345,0.00218023
-1,346,0.00218023
-1,347,0.00218023
-1,348,0.00218023
-1,349,0.00218023
-1,350,0.00218023
-1,351,0.00218023
-1,352,0.00218023
-1,353,0.00218023
-1,354,0.00218023
-1,355,0.00218023
-1,356,0.00218023
-1,357,0.00218023
-1,358,0.00218023
-1,359,0.00218023
-1,360,0.00218023
-1,361,0.00218023
-1,362,0.00218023
-1,363,0.00218023
-1,364,0.00218023
-1,365,0.00218023
-1,366,0.00218023
-1,367,0.00218023
-1,368,0.00218023
-1,369,0.00218023
-1,370,0.00218023
-1,371,0.00218023
-1,372,0.00218023
-1,373,0.00218023
-1,374,0.00218023
-1,375,0.00218023
-1,376,0.00218023
-1,377,0.00218023
-1,378,0.00218023
-1,379,0.00218023
-1,380,0.00218023
-1,381,0.00218023
-1,382,0.00218023
-1,383,0.00218023
-1,384,0.00218023
-1,385,0.00218023
-1,386,0.00218023
-1,387,0.00218023
-1,388,0.00218023
-1,389,0.00218023
-1,390,0.00218023
-1,391,0.00218023
-1,392,0.00218023
-1,393,0.00218023
-1,394,0.00218023
-1,395,0.00218023
-1,396,0.00218023
-1,397,0.00218023
-1,398,0.00218023
-1,399,0.00218023
-1,400,0.00218023
-1,401,0.00218023
-1,402,0.00218023
-1,403,0.00218023
-1,404,0.00218023
-1,405,0.00218023
-1,406,0.00218023
-1,407,0.00218023
-1,408,0.00218023
-1,409,0.00218023
-1,410,0.00218023
-1,411,0.00218023
-1,412,0.00218023
-1,413,0.00218023
-1,414,0.00218023
-1,415,0.00218023
-1,416,0.00218023
-1,417,0.00218023
-1,418,0.00218023
-1,419,0.00218023
-1,420,0.00218023
-1,421,0.00218023
-1,422,0.00218023
-1,423,0.00218023
-1,424,0.00218023
-1,425,0.00218023
-1,426,0.00218023
-1,427,0.00218023
-1,428,0.00218023
-1,429,0.00218023
-1,430,0.00218023
-1,431,0.00218023
-1,432,0.00218023
-1,433,0.00218023
-1,434,0.00218023
-1,435,0.00218023
-1,436,0.00218023
-1,437,0.00218023
-1,438,0.00218023
-1,439,0.00218023
-1,440,0.00218023
-1,441,0.00218023
-1,442,0.00218023
-1,443,0.00218023
-1,444,0.00218023
-1,445,0.00218023
-1,446,0.00218023
-1,447,0.00218023
-1,448,0.00218023
-1,449,0.00218023
-1,450,0.00218023
-1,451,0.00218023
-1,452,0.00218023
-1,453,0.00218023
-1,454,0.00218023
-1,455,0.00218023
-1,456,0.00218023
-1,457,0.00218023
-1,458,0.00218023
-1,459,0.00218023
-1,460,0.00218023
-1,461,0.00218023
-1,462,0.00218023
-1,463,0.00218023
-1,464,0.00218023
-1,465,0.00218023
-1,466,0.00218023
-1,467,0.00218023
-1,468,0.00218023
-1,469,0.00218023
-1,470,0.00218023
-1,471,0.00218023
-1,472,0.00218023
-1,473,0.00218023
-1,474,0.00218023
-1,475,0.00218023
-1,476,0.00218023
-1,477,0.00218023
-1,478,0.00218023
-1,479,0.00218023
-1,480,0.00218023
-1,481,0.00218023
-1,482,0.00218023
-1,483,0.00218023
-1,484,0.00218023
-1,485,0.00218023
-1,486,0.00218023
-1,487,0.00218023
-1,488,0.00218023
-1,489,0.00218023
-1,490,0.00218023
-1,491,0.00218023
-1,492,0.00218023
-1,493,0.00218023
-1,494,0.00218023
-1,495,0.00218023
-1,496,0.00218023
-1,497,0.00218023
-1,498,0.00218023
-1,499,0.00218023
-1,500,0.00218023
-1,501,0.00218023
-1,502,0.00218023
-1,503,0.00218023
-1,504,0.00218023
-1,505,0.00218023
-1,506,0.00218023
-1,507,0.00218023
-1,508,0.00218023
-1,509,0.00218023
-1,510,0.00218023
-1,511,0.00218023
0,0,0.00161812
0,1,0.00161812
0,2,0.00161812
0,3,0.00161812
0,4,0.00161812
0,5,0.00161812
0,6,0.00161812
0,7,0.00161812
0,8,0.00161812
0,9,0.00161812
0,10,0.00161812
0,11,0.00161812
0,12,0.00161812
0,13,0.00161812
0,14,0.00161812
0,15,0.00161812
0,16,0.00161812
0,17,0.00161812
0,18,0.00161812
0,19,0.00161812
0,20,0.00161812
0,21,0.00161812
0,22,0.00161812
0,23,0.00161812
0,24,0.00161812
0,25,0.00161812
0,26,0.00161812
0,27,0.00161812
0,28,0.00161812
0,29,0.00161812
0,30,0.00161812
0,31,0.00161812
0,32,0.00161812
0,33,0.00161812
0,34,0.00161812
0,35,0.00161812
0,36,0.00161812
0,37,0.00161812
0,38,0.00161812
0,39,0.00161812
0,40,0.00161812
0,41,0.00161812
0,42,0.00161812
0,43,0.00161812
0,44,0.00161812
0,45,0.00161812
0,46,0.00161812
0,47,0.00161812
0,48,0.00161812
0,49,0.00161812
0,50,0.00161812
0,51,0.00161812
0,52,0.00161812
0,53,0.00161812
0,54,0.00161812
0,55,0.00161812
0,56,0.00161812
0,57,0.00161812
0,58,0.00161812
0,59,0.00161812
0,60,0.00161812
0,61,0.00161812
0,62,0.00161812
0,63,0.00161812
0,64,0.00161812
0,65,0.00161812
0,66,0.00161812
0,67,0.00161812
0,68,0.00161812
0,69,0.00161812
0,70,0.00161812
0,71,0.00161812
0,72,0.00161812
0,73,0.00161812
0,74,0.00161812
0,75,0.00161812
0,76,0.00161812
0,77,0.00161812
0,78,0.00161812
0,79,0.00161812
0,80,0.00161812
0,81,0.00161812
0,82,0.00161812
0,83,0.00161812
0,84,0.00161812
0,85,0.00161812
0,86,0.00161812
0,87,0.00161812
0,88,0.00161812
0,89,0.00161812
0,90,0.00161812
0,91,0.00161812
0,92,0.00161812
0,93,0.00161812
0,94,0.00161812
0,95,0.00161812
0,96,0.00161812
0,97,0.00161812
0,98,0.00161812
0,99,0.00161812
0,100,0.00161812
0,101,0.00161812
0,102,0.00161812
0,103,0.00161812
0,104,0.00161812
0,105,0.00161812
0,106,0.00161812
0,107,0.00161812
0,108,0.00161812
0,109,0.00161812
0,110,0.00161812
0,111,0.00161812
0,112,0.00161812
0,113,0.00161812
0,114,0.00161812
0,115,0.00161812
0,116,0.00161812
0,117,0.00161812
0,118,0.00161812
0,119,0.00161812
0,120,0.00161812
0,121,0.00161812
0,122,0.00161812
0,123,0.00161812
0,124,0.00161812
0,125,0.00161812
0,126,0.00161812
0,127,0.00161812
0,128,0.00161812
0,129,0.00161812
0,130,0.00161812
0,131,0.00161812
0,132,0.00161812
0,133,0.00161812
0,134,0.00161812
0,135,0.00161812
0,136,0.00161812
0,137,0.00161812
0,138,0.00161812
0,139,0.00161812
0,140,0.00161812
0,141,0.00161812
0,142,0.00161812
0,143,0.00161812
0,144,0.00161812
0,145,0.00161812
0,146,0.00161812
0,147,0.00161812
0,148,0.00161812
0,149,0.00161812
0,150,0.00161812
0,151,0.00161812
0,152,0.00161812
0,153,0.00161812
0,154,0.00161812
0,155,0.00161812
0,156,0.00161812
0,157,0.00161812
0,158,0.00161812
0,159,0.00161812
0,160,0.00161812
0,161,0.00161812
0,162,0.00161812
0,163,0.00161812
0,164,0.00161812
0,165,0.00161812
0,166,0.00161812
0,167,0.00161812
0,168,0.00161812
0,169,0.00161812
0,170,0.00161812
0,171,0.00161812
0,172,0.00161812
0,173,0.00161812
0,174,0.00161812
0,175,0.00161812
0,176,0.00161812
0,177,0.00161812
0,178,0.00161812
0,179,0.00161812
0,180,0.00161812
0,181,0.00161812
0,182,0.00161812
0,183,0.00161812
0,184,0.00161812
0,185,0.00161812
0,186,0.00161812
0,187,0.00161812
0,188,0.00161812
0,189,0.00161812
0,190,0.00161812
0,191,0.00161812
0,192,0.00161812
0,193,0.00161812
0,194,0.00161812
0,195,0.00161812
0,196,0.00161812
0,197,0.00161812
0,198,0.00161812
0,199,0.00161812
0,200,0.00161812
0,201,0.00161812
0,202,0.00161812
0,203,0.00161812
0,204,0.00161812
0,205,0.00161812
0,206,0.00161812
0,207,0.00161812
0,208,0.00161812
0,209,0.00161812
0,210,0.00161812
0,211,0.00161812
0,212,0.00161812
0,213,0.00161812
0,214,0.00161812
0,215,0.00161812
0,216,0.00161812
0,217,0.00161812
0,218,0.00161812
0,219,0.00161812
0,220,0.00161812
0,221,0.00161812
0,222,0.00161812
0,223,0.00161812
0,224,0.00161812
0,225,0.00161812
0,226,0.00161812
0,227,0.00161812
0,228,0.00161812
0,229,0.00161812
0,230,0.00161812
0,231,0.00161812
0,232,0.00161812
0,233,0.00161812
0,234,0.00161812
0,235,0.00161812
0,236,0.00161812
0,237,0.00161812
0,238,0.00161812
0,239,0.00161812
0,240,0.00161812
0,241,0.00161812
0,242,0.00161812
0,243,0.00161812
0,244,0.00161812
0,245,0.00161812
0,246,0.00161812
0,247,0.00161812
0,248,0.00161812
0,249,0.00161812
0,250,0.00161812
0,251,0.00161812
0,252,0.00161812
0,253,0.00161812
0,254,0.00161812
0,255,0.00161812
0,256,0.00161812
0,257,0.00161812
0,258,0.00161812
0,259,0.00161812
0,260,0.00161812
0,261,0.00161812
0,262,0.00161812
0,263,0.00161812
0,264,0.00161812
0,265,0.00161812
0,266,0.00161812
0,267,0.00161812
0,268,0.00161812
0,269,0.00161812
0,270,0.00161812
0,271,0.00161812
0,272,0.00161812
0,273,0.00161812
0,274,0.00161812
0,275,0.00161812
0,276,0.00161812
0,277,0.00161812
0,278,0.00161812
0,279,0.00161812
0,280,0.00161812
0,281,0.00161812
0,282,0.00161812
0,283,0.00161812
0,284,0.00161812
0,285,0.00161812
0,286,0.00161812
0,287,0.00161812
0,288,0.00161812
0,289,0.00161812
0,290,0.00161812
0,291,0.00161812
0,292,0.00161812
0,293,0.00161812
0,294,0.00161812
0,295,0.00161812
0,296,0.00161812
0,297,0.00161812
0,298,0.00161812
0,299,0.00161812
0,300,0.00161812
0,301,0.00161812
0,302,0.00161812
0,303,0.00161812
0,304,0.00161812
0,305,0.00161812
0,306,0.00161812
0,307,0.00161812
0,308,0.00161812
0,309,0.00161812
0,310,0.00161812
0,311,0.00161812
0,312,0.00161812
0,313,0.00161812
0,314,0.00161812
0,315,0.00161812
0,316,0.00161812
0,317,0.00161812
0,318,0.00161812
0,319,0.00161812
0,320,0.00161812
0,321,0.00161812
0,322,0.00161812
0,323,0.00161812
0,324,0.00161812
0,325,0.00161812
0,326,0.00161812
0,327,0.00161812
0,328,0.00161812
0,329,0.00161812
0,330,0.00161812
0,331,0.00161812
0,332,0.00161812
0,333,0.00161812
0,334,0.00161812
0,335,0.00161812
0,336,0.00161812
0,337,0.00161812
0,338,0.00161812
0,339,0.00161812
0,340,0.00161812
0,341,0.00161812
0,342,0.00161812
0,343,0.00161812
0,344,0.00161812
0,345,0.00161812
0,346,0.00161812
0,347,0.00161812
0,348,0.00161812
0,349,0.00161812
0,350,0.00161812
0,351,0.00161812
0,352,0.00161812
0,353,0.00161812
0,354,0.00161812
0,355,0.00161812
0,356,0.00161812
0,357,0.00161812
0,358,0.00161812
0,359,0.00161812
0,360,0.00161812
0,361,0.00161812
0,362,0.00161812
0,363,0.00161812
0,364,0.00161812
0,365,0.00161812
0,366,0.00161812
0,367,0.00161812
0,368,0.00161812
0,369,0.00161812
0,370,0.00161812
0,371,0.00161812
0,372,0.00161812
0,373,0.00161812
0,374,0.00161812
0,375,0.00161812
0,376,0.00161812
0,377,0.00161812
0,378,0.00161812
0,379,0.00161812
0,380,0.00161812
0,381,0.00161812
0,382,0.00161812
0,383,0.00161812
0,384,0.00161812
0,385,0.00161812
0,386,0.00161812
0,387,0.00161812
0,388,0.00161812
0,389,0.00161812
0,390,0.00161812
0,391,0.00161812
0,392,0.00161812
0,393,0.00161812
0,394,0.00161812
0,395,0.00161812
0,396,0.00161812
0,397,0.00161812
0,398,0.00161812
0,399,0.00161812
0,400,0.00161812
0,401,0.00161812
0,402,0.00161812
0,403,0.00161812
0,404,0.00161812
0,405,0.00161812
0,406,0.00161812
0,407,0.00161812
0,408,0.00161812
0,409,0.00161812
0,410,0.00161812
0,411,0.00161812
0,412,0.00161812
0,413,0.00161812
0,414,0.00161812
0,415,0.00161812
0,416,0.00161812
0,417,0.00161812
0,418,0.00161812
0,419,0.00161812
0,420,0.00161812
0,421,0.00161812
0,422,0.00161812
0,423,0.00161812
0,424,0.00161812
0,425,0.00161812
0,426,0.00161812
0,427,0.00161812
0,428,0.00161812
0,429,0.00161812
0,430,0.00161812
0,431,0.00161812
0,432,0.00161812
0,433,0.00161812
0,434,0.00161812
0,435,0.00161812
0,436,0.00161812
0,437,0.00161812
0,438,0.00161812
0,439,0.00161812
0,440,0.00161812
0,441,0.00161812
0,442,0.00161812
0,443,0.00161812
0,444,0.00161812
0,445,0.00161812
0,446,0.00161812
0,447,0.00161812
0,448,0.00161812
0,449,0.00161812
0,450,0.00161812
0,451,0.00161812
0,452,0.00161812
0,453,0.00161812
0,454,0.00161812
0,455,0.00161812
0,456,0.00161812
0,457,0.00161812
0,458,0.00161812
0,459,0.00161812
0,460,0.00161812
0,461,0.00161812
0,462,0.00161812
0,463,0.00161812
0,464,0.00161812
0,465,0.00161812
0,466,0.00161812
0,467,0.00161812
0,468,0.00161812
0,469,0.00161812
0,470,0.00161812
0,471,0.00161812
0,472,0.00161812
0,473,0.00161812
0,474,0.00161812
0,475,0.00161812
0,476,0.00161812
0,477,0.00161812
0,478,0.00161812
0,479,0.00161812
0,480,0.00161812
0,481,0.00161812
0,482,0.00161812
0,483,0.00161812
0,484,0.00161812
0,485,0.00161812
0,486,0.00161812
0,487,0.00161812
0,488,0.00161812
0,489,0.00161812
0,490,0.00161812
0,491,0.00161812
0,492,0.00161812
0,493,0.00161812
0,494,0.00161812
0,495,0.00161812
0,496,0.00161812
0,497,0.00161812
0,498,0.00161812
0,499,0.00161812
0,500,0.00161812
0,501,0.00161812
0,502,0.00161812
0,503,0.00161812
0,504,0.00161812
0,505,0.00161812
0,506,0.00161812
0,507,0.00161812
0,508,0.00161812
0,509,0.00161812
0,510,0.00161812
0,511,0.173139
