-1,0,0.00877193
-1,1,0.00584795
-1,2,0.00584795
-1,3,0.00584795
-1,4,0.00584795
-1,5,0.00584795
-1,6,0.00584795
-1,7,0.00584795
-1,8,0.00584795
-1,9,0.00584795
-1,10,0.00584795
-1,11,0.00584795
-1,12,0.00584795
-1,13,0.00584795
-1,14,0.00584795
-1,15,0.00584795
-1,16,0.00584795
-1,17,0.00584795
-1,18,0.00584795
-1,19,0.00584795
-1,20,0.00584795
-1,21,0.00584795
-1,22,0.00584795
-1,23,0.00584795
-1,24,0.00584795
-1,25,0.00584795
-1,26,0.00584795
-1,27,0.00584795
-1,28,0.00584795
-1,29,0.00292398
-1,30,0.00292398
-1,31,0.00292398
-1,32,0.00292398
-1,33,0.00292398
-1,34,0.00292398
-1,35,0.00292398
-1,36,0.00292398
-1,37,0.00292398
-1,38,0.00292398
-1,39,0.00292398
-1,40,0.00292398
-1,41,0.00292398
-1,42,0.00292398
-1,43,0.00292398
-1,44,0.00292398
-1,45,0.00292398
-1,46,0.00292398
-1,47,0.00292398
-1,48,0.00292398
-1,49,0.00292398
-1,50,0.00292398
-1,51,0.00292398
-1,52,0.00292398
-1,53,0.00292398
-1,54,0.00292398
-1,55,0.00292398
-1,56,0.00292398
-1,57,0.00292398
-1,58,0.00292398
-1,59,0.00292398
-1,60,0.00292398
-1,61,0.00292398
-1,62,0.00292398
-1,63,0.00292398
-1,64,0.00292398
-1,65,0.00292398
-1,66,0.00292398
-1,67,0.00292398
-1,68,0.00292398
-1,69,0.00292398
-1,70,0.00292398
-1,71,0.00292398
-1,72,0.00292398
-1,73,0.00292398
-1,74,0.00292398
-1,75,0.00292398
-1,76,0.00292398
-1,77,0.00292398
-1,78,0.00292398
-1,79,0.00292398
-1,80,0.00292398
-1,81,0.00292398
-1,82,0.00292398
-1,83,0.00292398
-1,84,0.00292398
-1,85,0.00292398
-1,86,0.00292398
-1,87,0.00292398
-1,88,0.00292398
-1,89,0.00292398
-1,90,0.00292398
-1,91,0.00292398
-1,92,0.00292398
-1,93,0.00292398
-1,94,0.00292398
-1,95,0.00292398
-1,96,0.00292398
-1,97,0.00292398
-1,98,0.00292398
-1,99,0.00292398
-1,100,0.00292398
-1,101,0.00292398
-1,102,0.00292398
-1,103,0.00292398
-1,104,0.00292398
-1,105,0.00292398
-1,106,0.00292398
-1,107,0.00292398
-1,108,0.00292398
-1,109,0.00292398
-1,110,0.00292398
-1,111,0.00292398
-1,112,0.00292398
-1,113,0.00292398
-1,114,0.00292398
-1,115,0.00292398
-1,116,0.00292398
-1,117,0.00292398
-1,118,0.00292398
-1,119,0.00292398
-1,120,0.00292398
-1,121,0.00292398
-1,122,0.00292398
-1,123,0.00292398
-1,124,0.00292398
-1,125,0.00292398
-1,126,0.00292398
-1,127,0.00292398
-1,128,0.00292398
-1,129,0.00292398
-1,130,0.00292398
-1,131,0.00292398
-1,132,0.00292398
-1,133,0.00292398
-1,134,0.00292398
-1,135,0.00292398
-1,136,0.00292398
-1,137,0.00292398
-1,138,0.00292398
-1,139,0.00292398
-1,140,0.00292398
-1,141,0.00292398
-1,142,0.00292398
-1,143,0.00292398
-1,144,0.00292398
-1,145,0.00292398
-1,146,0.00292398
-1,147,0.00292398
-1,148,0.00292398
-1,149,0.00292398
-1,150,0.00292398
-1,151,0.00292398
-1,152,0.00292398
-1,153,0.00292398
-1,154,0.00292398
-1,155,0.00292398
-1,156,0.00292398
-1,157,0.00292398
-1,158,0.00292398
-1,159,0.00292398
-1,160,0.00292398
-1,161,0.00292398
-1,162,0.00292398
-1,163,0.00292398
-1,164,0.00292398
-1,165,0.00292398
-1,166,0.00292398
-1,167,0.00292398
-1,168,0.00292398
-1,169,0.00292398
-1,170,0.00292398
-1,171,0.00292398
-1,172,0.00292398
-1,173,0.00292398
-1,174,0.00292398
-1,175,0.00292398
-1,176,0.00292398
-1,177,0.00292398
-1,178,0.00292398
-1,179,0.00292398
-1,180,0.00292398
-1,181,0.00292398
-1,182,0.00292398
-1,183,0.00292398
-1,184,0.00292398
-1,185,0.00292398
-1,186,0.00292398
-1,187,0.00292398
-1,188,0.00292398
-1,189,0.00292398
-1,190,0.00292398
-1,191,0.00292398
-1,192,0.00292398
-1,193,0.00292398
-1,194,0.00292398
-1,195,0.00292398
-1,196,0.00292398
-1,197,0.00292398
-1,198,0.00292398
-1,199,0.00292398
-1,200,0.00584795
-1,201,0.00584795
-1,202,0.00584795
-1,203,0.00584795
-1,204,0.00584795
-1,205,0.00584795
-1,206,0.00584795
-1,207,0.00584795
-1,208,0.00584795
-1,209,0.00584795
-1,210,0.00584795
-1,211,0.00584795
-1,212,0.00584795
-1,213,0.00584795
-1,214,0.00584795
-1,215,0.00584795
-1,216,0.00584795
-1,217,0.00584795
-1,218,0.00584795
-1,219,0.00584795
-1,220,0.00584795
-1,221,0.00584795
-1,222,0.00584795
-1,223,0.00584795
-1,224,0.00584795
-1,225,0.00584795
-1,226,0.00584795
-1,227,0.00584795
-1,228,0.00584795
-1,229,0.00584795
-1,230,0.00584795
-1,231,0.00584795
-1,232,0.00584795
-1,233,0.00584795
-1,234,0.00584795
-1,235,0.00584795
-1,236,0.00584795
-1,237,0.00584795
-1,238,0.00584795
-1,239,0.00584795
-1,240,0.00584795
-1,241,0.00584795
-1,242,0.00584795
-1,243,0.00584795
-1,244,0.00584795
-1,245,0.00584795
-1,246,0.00584795
-1,247,0.00584795
-1,248,0.00584795
-1,249,0.00584795
-1,250,0.00584795
-1,251,0.00584795
-1,252,0.00584795
-1,253,0.00584795
-1,254,0.00584795
-1,255,0.00584795
1,0,0.0043024
1,1,0.00368777
1,2,0.00368777
1,3,0.00368777
1,4,0.00368777
1,5,0.00368777
1,6,0.00368777
1,7,0.00368777
1,8,0.00368777
1,9,0.00368777
1,10,0.0043024
1,11,0.0043024
1,12,0.0043024
1,13,0.0043024
1,14,0.0043024
1,15,0.0043024
1,16,0.0043024
1,17,0.0043024
1,18,0.0043024
1,19,0.0043024
1,20,0.0043024
1,21,0.0043024
1,22,0.0043024
1,23,0.0043024
1,24,0.0043024
1,25,0.0043024
1,26,0.0043024
1,27,0.0043024
1,28,0.0043024
1,29,0.0043024
1,30,0.0043024
1,31,0.0043024
1,32,0.0043024
1,33,0.0043024
1,34,0.0043024
1,35,0.0043024
1,36,0.0043024
1,37,0.0043024
1,38,0.0043024
1,39,0.0043024
1,40,0.0043024
1,41,0.0043024
1,42,0.0043024
1,43,0.0043024
1,44,0.0043024
1,45,0.0043024
1,46,0.0043024
1,47,0.0043024
1,48,0.0043024
1,49,0.0043024
1,50,0.0043024
1,51,0.0043024
1,52,0.0043024
1,53,0.0043024
1,54,0.0043024
1,55,0.0043024
1,56,0.0043024
1,57,0.0043024
1,58,0.0043024
1,59,0.0043024
1,60,0.0043024
1,61,0.0043024
1,62,0.0043024
1,63,0.0043024
1,64,0.0043024
1,65,0.0043024
1,66,0.0043024
1,67,0.0043024
1,68,0.0043024
1,69,0.0043024
1,70,0.0043024
1,71,0.0043024
1,72,0.0043024
1,73,0.0043024
1,74,0.0043024
1,75,0.0043024
1,76,0.0043024
1,77,0.0043024
1,78,0.0043024
1,79,0.0043024
1,80,0.0043024
1,81,0.0043024
1,82,0.0043024
1,83,0.0043024
1,84,0.0043024
1,85,0.0043024
1,86,0.0043024
1,87,0.0043024
1,88,0.0043024
1,89,0.0043024
1,90,0.0043024
1,91,0.0043024
1,92,0.0043024
1,93,0.0043024
1,94,0.0043024
1,95,0.0043024
1,96,0.0043024
1,97,0.0043024
1,98,0.0043024
1,99,0.0043024
1,100,0.00368777
1,101,0.00368777
1,102,0.00368777
1,103,0.00368777
1,104,0.00368777
1,105,0.00368777
1,106,0.00368777
1,107,0.00368777
1,108,0.00368777
1,109,0.00368777
1,110,0.00368777
1,111,0.00368777
1,112,0.00368777
1,113,0.00368777
1,114,0.00368777
1,115,0.00368777
1,116,0.00368777
1,117,0.00368777
1,118,0.00368777
1,119,0.00368777
1,120,0.00368777
1,121,0.00368777
1,122,0.00368777
1,123,0.00368777
1,124,0.00368777
1,125,0.00368777
1,126,0.00368777
1,127,0.00368777
1,128,0.00368777
1,129,0.00368777
1,130,0.00368777
1,131,0.00368777
1,132,0.00368777
1,133,0.00368777
1,134,0.00368777
1,135,0.00368777
1,136,0.00368777
1,137,0.00368777
1,138,0.00368777
1,139,0.00368777
1,140,0.00368777
1,141,0.00368777
1,142,0.00368777
1,143,0.00368777
1,144,0.00368777
1,145,0.00368777
1,146,0.00368777
1,147,0.00368777
1,148,0.00368777
1,149,0.00368777
1,150,0.00368777
1,151,0.00368777
1,152,0.00368777
1,153,0.00368777
1,154,0.00368777
1,155,0.00368777
1,156,0.00368777
1,157,0.00368777
1,158,0.00368777
1,159,0.00368777
1,160,0.00368777
1,161,0.00368777
1,162,0.00368777
1,163,0.00368777
1,164,0.00368777
1,165,0.00368777
1,166,0.00368777
1,167,0.00368777
1,168,0.00368777
1,169,0.00368777
1,170,0.00368777
1,171,0.00368777
1,172,0.00368777
1,173,0.00368777
1,174,0.00368777
1,175,0.00368777
1,176,0.00368777
1,177,0.00368777
1,178,0.00368777
1,179,0.00368777
1,180,0.00368777
1,181,0.00368777
1,182,0.00368777
1,183,0.00368777
1,184,0.00368777
1,185,0.00368777
1,186,0.00368777
1,187,0.00368777
1,188,0.00368777
1,189,0.00368777
1,190,0.00368777
1,191,0.00368777
1,192,0.00368777
1,193,0.00368777
1,194,0.00368777
1,195,0.00368777
1,196,0.00368777
1,197,0.00368777
1,198,0.00368777
1,199,0.00368777
1,200,0.00368777
1,201,0.00368777
1,202,0.00368777
1,203,0.00368777
1,204,0.00368777
1,205,0.00368777
1,206,0.00368777
1,207,0.00368777
1,208,0.00368777
1,209,0.00368777
1,210,0.00368777
1,211,0.00368777
1,212,0.00368777
1,213,0.00368777
1,214,0.00368777
1,215,0.00368777
1,216,0.00368777
1,217,0.00368777
1,218,0.00368777
1,219,0.00368777
1,220,0.00368777
1,221,0.00368777
1,222,0.00368777
1,223,0.00368777
1,224,0.00368777
1,225,0.00368777
1,226,0.00368777
1,227,0.00368777
1,228,0.00368777
1,229,0.00368777
1,230,0.00368777
1,231,0.00368777
1,232,0.00368777
1,233,0.00368777
1,234,0.00368777
1,235,0.00368777
1,236,0.00368777
1,237,0.00368777
1,238,0.00368777
1,239,0.00368777
1,240,0.00368777
1,241,0.00368777
1,242,0.00368777
1,243,0.00368777
1,244,0.00368777
1,245,0.00368777
1,246,0.00368777
1,247,0.00368777
1,248,0.00368777
1,249,0.00368777
1,250,0.00368777
1,251,0.00368777
1,252,0.00368777
1,253,0.00368777
1,254,0.00368777
1,255,0.00368777
