0,3,759610,267067,1458591,78926,9187,729062,0
0,-1,695129,237614,1280441,70809,7745,639731,0
0,3,761630,266671,1415578,78781,8950,707419,0
0,3,760923,267330,1471687,79108,9024,735268,0
0,3,711729,249175,1518585,74103,8486,758951,0
0,3,706865,247542,1414718,73492,9550,707141,0
0,3,732105,253567,1438439,77256,10043,718796,0
0,-1,690426,237392,1235611,70788,7204,617471,0
0,-1,696237,239733,1338814,71787,7533,668803,2
0,3,709167,247892,1402340,73727,8403,700691,0
0,3,706392,248249,1434808,73782,9371,717023,0
0,3,705419,248279,1414861,73834,8530,706986,0
0,3,704998,249079,1323405,73996,8210,661358,0
0,3,726937,253114,1426056,77107,9062,712520,0
0,3,707529,248269,1406219,73792,8518,702739,0
0,3,705998,248199,1479431,73727,8821,739377,0
0,-1,695887,238075,1343656,70968,8174,671471,0
0,3,707818,247876,1413642,73739,9305,706488,0
0,3,710634,248269,1392293,73887,9123,695232,0
0,3,708190,248369,1435318,73905,8328,717265,0
0,-1,711061,242278,1380884,74143,8063,690131,0
0,3,710326,248639,1421169,73932,9662,710182,0
0,3,713458,248401,1330714,73786,9941,664781,0
0,3,710442,249182,1467319,74080,10835,733143,0
0,-1,669250,229534,1311280,68470,7810,655217,0
0,3,713557,249796,1482093,74330,10601,739955,0
0,3,731964,253619,1457044,77300,9657,727791,0
0,3,712238,249471,1447815,74174,9009,723477,0
0,3,713356,248758,1375922,73963,9247,687310,0
0,3,713757,250844,1481850,74934,9469,740379,0
0,3,734974,256983,1498461,76477,9679,748880,0
0,3,708951,248579,1285848,74075,8979,642571,0
0,-1,642375,220160,1292990,66345,7468,645923,0
0,3,716344,250374,1519117,74908,8701,759046,0
0,3,712789,248583,1421688,74035,9673,710570,0
0,3,713741,248970,1456313,74171,9420,727835,0
0,-1,637646,218790,1144261,65666,6918,571696,0
0,3,703469,248341,1434895,73974,9209,717015,0
0,3,707319,248469,1449008,74000,9199,724137,0
0,3,708883,248731,1409784,74087,8963,704349,0
0,3,710020,250330,1372272,74898,10019,685649,0
0,3,729225,252874,1481352,77256,9465,740160,0
0,-1,638293,217906,1329005,65309,7735,664076,0
0,3,701377,247904,1527558,73796,9840,763383,0
0,3,706296,248596,1444564,74015,9328,721660,0
0,3,709527,249115,1689447,74211,9965,843807,0
0,3,706968,248301,1550682,73803,9930,774901,0
0,-1,644259,220504,1357867,66400,8180,678240,0
0,3,713271,250994,1542698,75014,9716,770738,0
0,3,708971,249953,1528203,74601,10195,762832,0
0,3,740785,260640,1515885,77931,9718,757252,0
0,3,707863,248406,1392236,73838,9538,696030,0
0,3,706495,248244,1433882,73778,10012,716299,0
0,3,714652,249811,1529955,74483,9964,764356,0
0,3,713734,250269,1370814,74701,9594,684949,0
0,-1,636010,220561,1355233,66405,7374,676615,0
0,3,705927,248779,1519350,73980,9937,759238,0
0,3,712286,250499,1361504,74881,9559,680176,0
0,3,732871,253434,1409679,77346,9293,704192,0
0,3,707864,248283,1414978,73738,9222,707184,0
0,3,708520,248195,1290603,73831,8872,644925,0
0,3,704607,248442,1495912,73917,9475,747567,0
0,-1,632619,218479,1160440,65645,6586,579902,0
0,3,707378,248933,1293294,74065,8686,646582,0
0,3,710047,249125,1428279,74130,8765,713736,0
0,3,708375,248541,1382167,73904,9074,690443,0
0,-1,638609,219812,1273803,66305,7424,636356,0
0,3,714519,249927,1503703,74327,9022,751141,0
0,3,729450,253708,1500429,77441,10812,749597,0
0,3,731065,253741,1524136,77408,10091,761306,0
0,-1,643742,221333,1305916,66784,8215,652269,0
0,3,712324,249562,1560539,74217,9511,779998,0
0,3,713239,249424,1511080,74077,9007,754946,0
0,-1,639560,219536,1364650,65821,7056,681931,0
0,3,709081,248869,1321626,73909,8636,660390,0
0,3,732416,254002,1475627,77526,10384,737545,0
0,3,710450,248620,1435284,73808,9343,717342,0
0,3,709640,249099,1376059,74017,9005,687598,0
0,3,714702,250113,1410096,74483,9562,704603,0
0,-1,645458,221431,1342999,66936,8313,670809,0
0,3,719189,250566,1514056,74743,10534,756296,0
0,3,711702,249019,1599706,74016,9966,799487,0
0,3,715865,249933,1343354,74318,9421,671270,0
0,-1,636309,218078,1208046,65438,6985,603690,0
0,3,714855,249360,1432933,74128,9008,716054,0
0,3,719376,251311,1372493,74839,10128,685521,0
0,-1,641845,220982,1464796,66649,8573,731588,0
0,3,710165,250783,1561345,74673,10144,780145,0
0,3,716004,251173,1442990,74793,10323,720991,0
0,3,709682,249149,1384093,73876,9008,691714,0
0,3,709904,249309,1411095,73964,9658,705062,0
0,3,714042,249538,1389402,74170,9547,694175,0
0,-1,659022,223127,1319205,68971,8158,659158,0
0,3,717584,250555,1481520,74534,9944,740345,0
0,-1,636450,218249,1296618,65555,7528,647988,0
0,3,711286,248831,1393274,73844,9402,696381,0
0,3,709565,248402,1457234,73764,9470,728294,0
0,3,731755,253880,1351182,77383,10082,675246,0
0,3,707387,247904,1462912,73544,9128,731178,0
0,3,710097,248288,1321339,73726,8968,660358,0
0,3,730140,254217,1400333,77531,9925,699797,0
0,3,710098,249458,1500070,74147,9533,749555,0
0,-1,637505,218476,1213861,65668,7693,606439,0
0,3,708342,248318,1427187,73722,8836,713231,0
0,3,733074,253524,1414464,77228,9630,706946,0
0,3,708270,248145,1534361,73777,9069,766426,0
0,3,716492,250511,1453963,74804,10085,726461,0
0,-1,640539,219116,1269983,65904,7747,634678,0
0,3,705437,248245,1521084,73765,9251,760216,0
0,3,711742,249045,1343920,73991,9512,671465,0
0,3,720347,250902,1521724,74855,9932,760224,0
0,3,713120,248877,1449759,73705,9939,724588,0
0,-1,646709,220818,1228164,66521,8468,613374,0
0,3,713348,249508,1368005,73981,8851,683663,0
0,3,721256,251299,1452740,74883,9746,725521,0
0,3,711472,249010,1542383,73847,9795,770865,0
0,3,737892,258139,1475741,76522,9563,737528,0
0,3,705336,247745,1338117,73412,8998,668697,0
0,-1,660577,224121,1255072,69220,8300,627233,0
0,3,708441,248356,1428213,73659,9546,713769,0
0,3,714111,249789,1309086,74359,9356,653972,0
0,-1,641001,219520,1175886,65737,7553,587487,0
0,3,732139,253471,1438493,77133,10042,718812,0
0,3,708077,248077,1450234,73555,9252,724644,0
0,3,715277,250174,1319801,74418,9882,659173,0
0,3,708578,248141,1447015,73611,9927,723063,0
0,3,709804,247725,1599271,73445,10160,797880,0
0,3,711886,248849,1533279,73836,10236,766769,0
0,3,709624,248467,1449158,73693,9250,724183,0
0,-1,636725,218647,1277025,65633,7872,638152,0
0,3,711887,248172,1504005,73605,10882,751620,0
0,3,711619,248404,1478334,73756,9834,738860,0
0,3,713824,249675,1593234,74139,9661,795990,0
0,3,713045,248351,1405991,73647,9952,702591,0
0,3,713799,249824,1369848,74367,8741,684388,0
0,3,711632,248360,1468667,73627,9039,733962,0
0,3,737715,253062,1443734,77042,10136,721489,0
0,3,704807,248514,1498277,73237,8674,748735,0
0,-1,644962,220146,1325139,66361,8103,662054,0
0,3,704355,248293,1319644,73159,8827,659514,0
0,3,705460,249489,1408566,73780,10137,702951,0
0,3,708346,249226,1329931,73492,9426,664598,0
0,3,707194,248867,1842598,73410,10907,920862,0
0,-1,641557,218843,1355569,65805,8320,677474,0
0,3,703207,248661,1476565,73352,9687,737937,0
0,3,706721,248650,1346378,73326,9203,672717,0
0,3,712933,250859,1405395,74475,9460,702043,0
0,3,725647,252739,1485956,76578,10129,742736,0
0,3,709309,248076,1366014,74109,9220,682814,0
0,-1,645170,220361,1414573,66565,8184,706810,0
0,3,712001,248292,1519416,74209,10283,759371,0
0,3,707436,248281,1444651,74168,8931,721876,0
0,-1,639850,218958,1232915,65907,6857,616035,0
0,3,710237,248579,1451823,74282,9695,725484,0
0,3,709292,248725,1538810,74286,10043,769048,0
0,3,708696,248216,1454472,74178,9244,726719,0
0,-1,639041,218049,1348128,65706,8539,673470,0
0,3,709427,248347,1413826,74168,9301,706500,0
0,3,710335,249286,1374436,74487,9647,686830,0
0,3,710127,248206,1384902,74173,9465,692110,0
0,3,710424,248323,1334188,74244,8444,666677,0
0,3,711492,248386,1396750,74223,8988,698099,0
0,3,709108,248624,1323908,74275,8184,661268,0
0,3,711350,247761,1338916,73982,9508,669147,0
0,-1,643760,219321,1334966,66054,8119,667092,0
0,3,708438,249464,1370099,74733,9274,684894,0
0,3,707989,248497,1379501,74222,9216,689293,0
0,3,712162,249034,1477124,74427,9010,738163,0
0,3,713160,249494,1313967,74745,8882,656435,0
0,-1,649780,221167,1340630,66924,8424,669717,0
0,3,709930,248440,1344457,74149,8360,672003,0
0,3,713614,248791,1435743,74377,8896,717502,0
0,3,708585,248543,1361103,74316,9600,679633,0
0,3,711243,248064,1349259,74037,9241,674221,0
0,3,712721,249917,1352393,74991,8582,675311,0
0,3,710051,248450,1370439,74166,8416,684956,0
0,3,717154,249865,1395275,74958,8803,696981,0
0,-1,639061,220044,1190821,66266,7781,595068,0
0,3,731173,252426,1468362,77339,10839,733924,0
0,3,713310,249350,1366378,74718,9413,682515,0
0,3,711714,249638,1369031,74670,8987,683960,0
0,3,715271,249241,1381470,74382,9345,690341,0
0,3,711871,248944,1699349,74216,10247,848716,0
0,3,709183,248142,1420783,74174,9387,709863,0
0,-1,638572,219960,1341714,66470,7805,670144,0
0,3,713515,249745,1411567,74703,9660,705307,0
0,3,736385,252977,1642458,77407,11730,820978,0
0,3,715002,249122,1347954,74304,9173,673644,0
0,3,713851,248417,1442665,74161,9858,721084,0
0,3,708466,248374,1501509,74114,9804,750446,0
0,-1,638933,220337,1350456,66546,7868,674814,0
0,3,707431,248418,1408701,74139,9543,703914,0
0,3,711384,248960,1347415,74456,8848,673313,0
0,3,712499,249053,1465889,74467,9470,732564,0
0,-1,646038,221647,1398493,67127,7921,698478,0
0,3,737504,254394,1732838,78100,11355,865826,0
0,3,713497,249680,1593969,74769,10921,796625,0
0,3,711708,248650,1427050,74359,10048,713059,0
0,3,709045,248264,1343492,74220,8568,671442,0
0,3,733418,254072,1525274,77878,10730,762268,0
0,-1,642487,220889,1328646,66837,7546,663134,0
0,3,716397,250490,1309523,75102,9140,654271,0
0,3,715693,249155,1405122,74368,9834,702109,0
0,3,711380,249094,1452940,74417,8675,726126,0
0,3,713572,249648,1467408,74622,11127,733225,0
0,3,715302,249793,1356257,74569,9237,677684,0
0,-1,644987,220759,1355941,66699,8745,677059,0
0,3,737688,254832,1423062,77994,10630,711148,0
0,3,715990,249772,1399741,74503,9055,699385,0
0,3,712222,249637,1453117,74452,9340,726104,0
0,3,710599,248979,1416921,74301,8910,708053,0
0,3,714378,248528,1300139,74064,8158,649475,0
0,-1,639861,221161,1281242,66909,8128,639935,0
0,3,715521,250002,1430233,74855,9540,714599,0
0,3,716042,248915,1508358,74278,10156,753448,0
0,3,711979,250454,1408021,74998,9587,703677,0
0,3,714207,250731,1535033,75158,9959,766843,0
0,-1,639241,220271,1376783,66483,9023,687397,0
0,3,709602,249116,1505888,74330,9341,752576,0
0,3,733195,254017,1444039,77716,9929,721723,0
0,3,715800,250114,1491664,74645,9509,745416,0
0,3,711268,249237,1394915,74365,8808,697087,0
0,3,713309,248745,1338055,74307,8965,668512,0
0,3,719242,250690,1600817,75263,10924,799368,0
0,3,718407,249530,1428745,74543,10843,713881,0
0,-1,656610,223822,1272734,69211,9028,635975,0
0,3,738416,254164,1528805,77752,11754,764056,0
0,3,722678,250499,1437142,74980,9168,717630,0
0,3,713209,248777,1386814,74245,9190,693011,0
0,-1,642445,220790,1318401,66628,7875,658555,0
0,3,712968,248012,1316444,73925,9684,657926,0
0,3,714233,248712,1349368,74143,9795,674433,0
0,3,716732,248960,1467748,74212,9466,733465,0
0,3,711940,248835,1479744,74238,9521,739102,0
0,3,711675,248697,1342946,74291,8952,671059,0
0,-1,641715,220285,1335558,66266,7797,666985,0
0,3,712720,247768,1415769,74064,9356,707587,0
0,3,712090,247590,1275540,74039,9082,637434,0
0,3,713183,248245,1320285,74347,9088,659706,0
0,3,715105,248252,1324504,74327,8579,661804,0
0,3,705551,248236,1519395,74382,11162,758217,0
0,-1,641253,219554,1249074,66056,8085,623941,0
0,3,708119,248037,1358356,74223,8949,678731,0
0,3,709865,248304,1440053,74359,9219,719586,0
0,3,708517,247817,1421020,74158,9304,710155,0
0,-1,635481,219137,1351372,65827,8821,675386,0
0,3,703092,246743,1300894,73878,8616,650036,0
0,3,711801,248201,1344122,74133,9521,671563,0
0,-1,639947,219801,1194932,66099,7578,597063,0
0,3,708825,247734,1333833,73991,9029,666435,0
1,3,763200,266735,1462279,78807,9991,730765,0
1,3,764890,266162,1393272,78551,9211,696356,0
1,3,721993,253565,1420711,75211,8798,709952,0
1,3,708048,248299,1459806,73823,9315,729551,0
1,3,709027,248172,1464266,73650,9441,731233,0
1,-1,687986,236837,1254821,70552,7548,627125,0
1,3,710790,248699,1462394,73964,9113,730788,0
1,3,703629,247950,1547991,73582,9403,773675,0
1,3,705114,248599,1462264,73955,8351,730736,0
1,3,708459,248156,1446807,73694,8913,723215,0
1,3,706700,247774,1384656,73521,9202,692100,0
1,3,704674,247561,1482365,73565,8940,740773,0
1,-1,692540,237057,1394592,70597,8015,696960,0
1,3,706595,248414,1493597,73846,9622,746205,0
1,3,706794,247763,1433376,73645,9794,716366,0
1,3,710392,248123,1344469,73778,8700,671775,0
1,3,731750,253133,1403616,77244,9508,701460,0
1,-1,691554,237484,1248851,70782,6931,624116,0
1,3,710149,249141,1473517,74177,9867,736259,0
1,3,711223,248250,1417833,73693,9006,708404,0
1,-1,688318,236618,1333648,70481,6988,666384,2
1,3,708003,248758,1334673,73909,8237,666910,0
1,-1,691445,237044,1261218,70600,6981,630336,0
1,3,711686,248969,1325474,73950,9124,662375,0
1,3,712786,249770,1329091,74241,8568,664151,0
1,3,709863,247958,1297833,73645,8371,648584,0
1,3,711254,248292,1352020,73690,9301,675568,0
1,-1,637750,218269,1219448,65521,7113,609380,0
1,3,708406,248439,1331390,73982,9028,664906,0
1,3,708757,248457,1349100,74007,8764,673866,0
1,3,711207,248325,1356936,73845,9483,678142,0
1,3,733661,252775,1520957,77212,9284,760057,0
1,3,710071,248386,1381410,73931,9452,690371,0
1,3,713868,249530,1548048,74482,9675,773492,0
1,-1,639495,219606,1121212,65933,7238,560282,0
1,3,702949,248543,1354943,73941,9112,677101,0
1,3,707949,249081,1424811,74148,9538,712080,0
1,3,710874,250286,1510272,74884,10066,754497,0
1,3,726086,253330,1333704,77376,9775,666476,0
1,-1,639894,219010,1349958,65709,8333,674678,0
1,3,707721,248687,1441422,74121,8915,720397,0
1,3,707476,248044,1441683,73855,9098,720467,0
1,3,704526,247847,1487642,73781,9248,743529,0
1,3,709952,248765,1544809,74072,10178,771578,0
1,-1,640197,219018,1202039,65740,7406,600612,0
1,3,708175,248702,1522970,73951,9639,760860,0
1,3,730594,252966,1520790,77189,9784,760115,0
1,3,707883,250421,1328189,74828,9462,663237,0
1,3,707711,248708,1484886,73933,9487,741822,0
1,3,712502,250198,1496383,74650,10190,747688,0
1,3,706609,248769,1335463,74008,8585,667295,0
1,3,709346,248654,1467920,73921,9754,733548,0
1,3,709211,248878,1348151,74001,8788,673595,0
1,-1,640668,218607,1326913,65605,7439,662843,0
1,3,709426,250027,1553260,74596,10006,775908,0
1,3,711335,249851,1423706,74354,9041,711501,0
1,3,713141,249651,1511160,74309,9838,755120,0
1,3,708817,248909,1401027,74042,8733,699545,0
1,3,713444,250556,1317271,74831,9053,657929,0
1,-1,634907,218577,1326008,65644,7985,662674,0
1,3,714051,249162,1417711,74072,9558,708448,0
1,3,706770,248585,1576246,73950,11216,787536,0
1,3,708457,248092,1393411,73739,8914,696505,0
1,-1,633888,218303,1223091,65587,6994,611196,0
1,3,712979,250367,1477552,74677,9614,738228,0
1,3,709401,248527,1415186,73904,9565,707257,0
1,3,710018,248754,1438274,73987,9434,718717,0
1,3,708446,248297,1496052,73707,9825,747279,0
1,-1,636530,218405,1259548,65654,6921,629404,0
1,3,711924,249370,1552105,74170,10026,775689,0
1,3,714680,250649,1411765,74759,8686,705268,0
1,-1,637032,218465,1274937,65510,7348,636875,0
1,3,711640,250323,1405921,74548,8821,702207,0
1,3,707408,248487,1396916,73869,8430,698150,0
1,3,715636,251071,1449723,74921,9500,724241,0
1,3,712317,249830,1535270,74442,9169,767110,0
1,3,713847,249362,1446635,74038,9303,722786,0
1,-1,658132,223095,1307391,68953,8927,653400,0
1,3,715889,250072,1540186,74349,10965,769446,0
1,3,712338,250073,1592014,74591,10219,795252,0
1,3,712175,249303,1481761,74098,10168,740441,0
1,-1,665904,224702,1337497,70020,8117,668281,0
1,3,716830,251107,1451100,74979,9356,725034,0
1,3,717447,250189,1481019,74215,10006,740246,0
1,-1,636298,218742,1264344,65718,7627,631789,0
1,3,707116,249985,1383410,74201,9096,690215,0
1,3,711466,250379,1468284,74290,10026,733751,0
1,3,714826,251086,1443334,74796,9806,720632,0
1,3,710106,249950,1445481,74193,10083,722248,0
1,3,712143,248904,1344281,73896,9792,671868,0
1,-1,635265,217921,1304732,65401,8086,651998,0
1,3,716372,250656,1437707,74743,10046,718224,0
1,-1,637734,219009,1289695,65928,7205,644367,0
1,3,711809,249392,1569631,74082,10076,784449,0
1,3,717716,251410,1502517,75056,10053,750823,0
1,3,706096,248013,1343311,73629,10197,671301,0
1,3,713303,250809,1469203,74867,9292,733946,0
1,3,710336,248980,1472121,73922,9605,735528,0
1,3,713524,248084,1272437,73741,8901,635837,0
1,3,730720,253358,1393258,77262,9932,696295,0
1,-1,640098,220209,1220056,66542,7369,609347,0
1,3,711613,249666,1435836,74177,9359,717554,0
1,3,710371,248540,1394526,73818,9708,696626,0
1,3,711021,249206,1449946,74226,9507,724414,0
1,-1,644309,220931,1472893,66716,9194,735119,0
1,3,733215,253727,1401790,77377,9969,700578,0
1,3,735752,253342,1425594,77254,9948,712612,0
1,3,715112,250822,1430895,74867,9414,714860,0
1,3,733821,252908,1389379,76988,9984,694363,0
1,3,718373,251381,1446099,74944,10039,722437,0
1,-1,641276,218868,1141588,65722,7951,570126,0
1,3,709346,247586,1467497,73333,9685,732876,0
1,3,713701,248620,1371953,73601,9120,685605,0
1,3,710685,248906,1434400,73758,8858,716925,0
1,3,716625,250879,1463356,74737,9140,731141,0
1,-1,641944,220572,1350121,66408,7652,674609,0
1,3,704969,247555,1279338,73413,8662,639393,0
1,3,708768,248243,1331638,73683,9128,665186,0
1,3,712543,248171,1362609,73609,9807,680894,0
1,-1,649036,222346,1315360,67027,8125,657013,0
1,3,710145,248497,1505128,73754,10181,752076,0
1,3,713700,250730,1370345,74779,9126,684465,0
1,3,710681,248643,1382309,73810,10313,690667,0
1,3,716723,249677,1413252,74283,9772,706004,0
1,3,713821,249908,1322372,74507,9467,660731,0
1,3,711863,248366,1316353,73722,9267,657568,0
1,3,709145,248173,1413073,73618,9461,706034,0
1,-1,643317,220921,1325289,66579,7461,661890,0
1,3,716731,250568,1374496,74700,9302,686487,0
1,3,712893,248460,1460855,73740,9362,729886,0
1,3,716140,250685,1360530,74644,8892,679590,0
1,3,713281,248381,1408063,73670,9889,703718,0
1,3,710111,248263,1479389,73683,8912,739266,0
1,3,712627,248463,1480572,73762,9122,739780,0
1,3,711553,247209,1388742,73402,9673,694025,0
1,-1,640459,218960,1293240,65751,7445,646081,0
1,3,702212,248253,1358764,73141,7808,679053,0
1,3,703284,248267,1269257,73196,8751,634236,0
1,3,708367,249624,1606750,73621,10609,803045,0
1,3,705201,248672,1398397,73338,9291,698620,0
1,-1,644481,220036,1348571,66422,7582,673763,0
1,3,704186,248055,1509819,73089,9795,754567,0
1,3,706575,249848,1394888,73929,8836,696858,0
1,3,710772,250620,1479127,74217,9457,738844,0
1,3,706817,248255,1453761,73314,8960,726487,0
1,3,713200,249600,1348272,73979,8713,673711,0
1,3,711250,249119,1458412,74432,10162,728877,0
1,-1,641964,219352,1302855,66059,7799,651058,0
1,3,711031,247967,1536944,73994,9400,768175,0
1,3,706630,248312,1423547,74081,8700,711063,0
1,-1,645866,221108,1320584,66910,7929,659791,0
1,3,729274,252848,1487421,77431,10251,743361,0
1,3,706081,247762,1518474,73990,9309,758998,0
1,3,710100,247986,1298152,74054,8796,648482,0
1,-1,647530,222004,1427149,67163,8263,713073,0
1,3,714136,249553,1413632,74789,8831,705970,0
1,3,710857,249361,1392622,74692,8502,695988,0
1,3,714751,250578,1382016,75139,9041,690279,0
1,3,713968,250160,1342830,74997,9313,670823,0
1,3,710161,248224,1462108,74114,9563,730762,0
1,3,715544,249261,1494501,74665,9875,746682,0
1,-1,643735,219666,1349581,66091,8027,674379,0
1,3,713462,249126,1367471,74482,9651,683272,0
1,3,705484,247944,1429941,74066,9889,714523,0
1,3,708434,248927,1441883,74235,9016,720546,0
1,3,713150,249862,1336681,74885,9110,667804,0
1,3,707194,247726,1403003,73921,8955,701117,0
1,-1,664806,223700,1322089,69254,8411,660655,0
1,3,708081,248030,1446537,74105,9230,722678,0
1,3,710490,247681,1470898,73971,9476,735060,0
1,3,708474,248017,1276577,74134,8709,637438,0
1,3,711434,248804,1433077,74297,9787,716059,0
1,3,729283,252823,1482746,77487,10171,741086,0
1,3,709949,248674,1364582,74272,9067,681474,0
1,-1,654545,223461,1404807,69191,7926,702133,0
1,3,734124,252845,1455488,77486,10147,727482,0
1,3,708983,248597,1314300,74132,8984,656645,0
1,3,729956,252895,1678612,77463,10851,838956,0
1,3,711659,249827,1280331,74784,9612,639408,0
1,3,710375,247808,1493609,73877,9527,746183,0
1,3,714198,248701,1546383,74188,10140,772670,0
1,-1,638188,220330,1387413,66379,8509,693312,0
1,3,711419,249112,1463407,74376,9698,731278,0
1,3,712839,248231,1659730,73957,11283,829334,0
1,3,714366,248917,1426079,74294,9578,712684,0
1,3,710536,247592,1604722,73741,9918,802013,0
1,3,712169,247504,1341119,73696,10474,670182,0
1,3,705803,247515,1323202,73722,9032,661220,0
1,-1,637114,219368,1215622,66060,7217,607340,0
1,3,711537,249927,1391579,75025,9531,695242,0
1,3,713230,250239,1437221,74825,9163,718131,0
1,3,714747,249922,1366482,74668,8828,682860,0
1,-1,636608,218416,1284107,65712,7264,641674,0
1,3,712873,248931,1760134,74390,11013,879822,0
1,3,718832,249844,1495956,74770,11598,747611,0
1,3,714938,250014,1516823,74849,9575,758116,0
1,3,713269,249696,1452287,74680,9259,725666,0
1,3,718321,250924,1370054,75234,9714,684507,0
1,-1,656606,223134,1273817,69037,7605,636263,0
1,3,712934,249505,1355327,74592,10068,677252,0
1,3,716404,249587,1540341,74629,10257,768954,0
1,3,711753,249566,1492714,74555,9717,745780,0
1,3,710280,249225,1293474,74462,9598,646328,0
1,3,713749,249196,1477447,74490,9244,738329,0
1,-1,639651,219104,1358639,66008,7772,679114,0
1,3,717117,250754,1347957,75018,8399,673400,0
1,3,715243,249554,1557433,74422,9275,778209,0
1,3,715096,248622,1452548,74040,10146,725846,0
1,3,712850,250285,1336416,74908,8625,667537,0
1,3,733982,253548,1484599,77592,10056,741841,0
1,-1,656522,223297,1291398,69134,8491,645202,0
1,3,714006,249628,1416916,74529,9618,708075,0
1,3,718452,250284,1326183,74953,9014,662210,0
1,3,708648,248959,1505898,74344,9859,752522,0
1,-1,636011,219412,1286562,66078,7597,642918,0
1,3,731603,253746,1516017,77687,10445,757616,0
1,3,714201,248888,1411877,74257,9869,705602,0
1,3,711507,249304,1453283,74419,9283,726229,0
1,3,717316,250471,1380125,74851,8599,689719,0
1,3,718190,249102,1424550,74364,8943,711936,0
1,3,716929,250187,1296783,75024,8706,647856,0
1,3,713935,248938,1416045,74434,8617,707670,0
1,-1,642703,220825,1434186,66763,8698,716473,0
1,3,715744,249231,1353099,74505,10226,676281,0
1,3,713473,249057,1470101,74398,9294,734572,0
1,3,719276,249604,1440044,74425,9977,719646,0
1,3,713285,249327,1373719,74345,9393,686531,0
1,-1,638362,219160,1325864,65869,7427,662571,0
1,3,718757,250114,1370148,74834,9965,684482,0
1,3,714293,249176,1342042,74300,9383,670734,0
1,3,719005,250209,1526824,74975,10699,762759,0
1,3,715323,249536,1566635,74434,10003,783084,0
1,3,710721,247646,1315836,73870,8781,657580,0
1,-1,639832,220058,1332807,66087,7874,665998,0
1,3,712391,247756,1470681,74126,9861,734968,0
1,3,717254,250029,1340720,75147,9145,670360,0
1,3,714279,247745,1358699,74166,9930,678941,0
1,3,714654,247497,1428483,73979,9728,713859,0
1,-1,638386,218934,1475136,65800,8515,736909,0
1,3,703282,247806,1418293,74143,9317,708799,0
1,3,705896,247552,1312816,74114,8967,655603,0
1,3,733900,256754,1354580,76837,8301,676977,0
1,3,710227,247908,1252200,74202,8881,625703,0
1,-1,637232,219875,1381894,66170,8719,690729,0
1,3,706097,248005,1400004,74178,8841,699659,0
1,3,709911,248329,1317864,74251,9254,658506,0
1,-1,638755,219214,1285239,65808,7445,642253,0
1,3,707611,248118,1450795,74119,8677,724768,0
2,3,781949,270808,1412412,81874,9592,705894,0
2,3,788475,272258,1466299,82339,10505,732884,0
2,3,745205,261160,1380123,77070,8366,689605,0
2,3,709059,249037,1429093,74007,8793,714292,0
2,3,710505,248832,1403388,73902,10203,701319,0
2,-1,698830,239185,1266581,71522,7865,632799,0
2,3,708464,247888,1421764,73590,8966,710503,0
2,3,725507,252716,1507800,76878,10234,753225,0
2,3,704764,248383,1359749,73849,8976,679507,0
2,3,708743,248574,1347034,73759,8514,673121,0
2,3,706767,248412,1355966,73823,8666,677584,0
2,3,706282,248562,1428946,73921,9109,714131,0
2,-1,698634,240159,1463444,72009,8321,730951,0
2,3,708666,247910,1365047,73765,9289,682102,0
2,3,710259,248555,1406953,73867,8330,703254,0
2,3,714397,250251,1462319,74782,9056,730400,0
2,3,709575,248717,1410697,73958,8527,704725,0
2,-1,690418,237260,1326848,70673,7154,663168,0
2,3,714560,248520,1347581,74001,9157,673992,0
2,3,716994,251094,1439646,74963,9356,719080,0
2,-1,697014,239334,1361058,71682,7289,679853,0
2,3,708355,248574,1402113,73863,9225,700651,0
2,3,717125,251433,1476213,75051,9601,737310,0
2,-1,634571,218827,1268789,65823,6704,634038,2
2,3,715798,250155,1438243,74687,9860,718494,0
2,-1,659936,223194,1327914,68980,7945,663500,0
2,3,712190,248946,1427347,73998,9511,713291,0
2,3,717060,250571,1381339,74724,10477,690178,0
2,3,719627,250864,1521450,74942,10053,760089,0
2,3,710168,248309,1342174,73972,8815,670713,0
2,3,711783,249113,1355457,74208,8948,677353,0
2,3,713008,249223,1395950,74197,8856,697887,0
2,3,715131,249172,1450198,74387,9844,724719,0
2,-1,636264,218990,1213113,65733,7956,606173,0
2,3,712746,248639,1495132,74040,9852,747211,0
2,3,708425,250079,1465578,74811,9490,732080,0
2,3,705697,248321,1339790,73958,8972,669526,0
2,3,728597,253505,1392614,77444,9994,695926,0
2,-1,640895,219148,1296804,65733,7691,647856,0
2,3,704553,248474,1474233,74007,9345,736705,0
2,3,707672,248500,1323404,74056,8701,661277,0
2,3,709497,248712,1315359,74088,8493,657310,0
2,3,707257,249164,1340934,74201,8330,670149,0
2,-1,646351,221086,1311343,66807,8409,655023,0
2,3,706758,248621,1486882,74001,9990,742876,0
2,3,707445,248829,1455105,74037,9467,727165,0
2,3,709405,249138,1363835,74157,8838,681483,0
2,3,710871,248247,1390357,73775,10381,694707,0
2,3,707609,249046,1718363,74032,10695,858782,0
2,3,707462,248492,1469947,73889,9771,734459,0
2,3,707822,249561,1483889,74277,9013,741370,0
2,3,713455,250845,1449778,74998,10081,724145,0
2,3,708768,248886,1326146,74012,8854,662490,0
2,-1,640941,218154,1306566,65347,7735,652556,0
2,3,707201,248805,1505784,74042,9838,752236,0
2,3,710228,249913,1353338,74396,8794,676145,0
2,3,709000,248199,1494836,73736,8353,746946,0
2,-1,665541,229116,1412489,69053,8984,705255,0
2,3,711612,249126,1407910,74160,8160,703539,0
2,3,712485,248949,1294480,74094,9493,646793,0
2,3,718157,250668,1463205,74910,10612,731067,0
2,3,706377,248999,2028513,74123,12177,1014088,0
2,3,707494,249449,1422753,74194,9662,710891,0
2,-1,639113,220238,1328391,66524,8018,663625,0
2,3,706596,248299,1672986,73742,11148,835829,0
2,3,714141,250586,1586940,74872,10538,792793,0
2,3,709027,249378,1441053,74216,8945,720134,0
2,3,709439,249153,1357401,74104,8976,678218,0
2,-1,638560,219073,1354232,65814,8290,676762,0
2,3,709560,248789,1430410,73938,8803,714801,0
2,3,714044,249923,1483776,74227,9332,741548,0
2,-1,638664,219437,1221222,65868,7421,610146,0
2,3,707018,248791,1362790,73914,8028,681031,0
2,3,734760,258319,1501636,76848,8736,750452,0
2,3,708385,248633,1526762,73788,8897,762747,0
2,3,708354,249039,1504647,73944,9009,752099,0
2,-1,638508,218547,1374353,65607,7212,686880,0
2,3,706710,247096,1392728,73334,8613,696029,0
2,3,711925,248711,1648948,73829,9989,824049,0
2,3,712169,249362,1378947,74108,9422,689004,0
2,3,713834,249207,1336802,74169,8692,668067,0
2,-1,638783,218835,1244012,65805,7016,621508,0
2,3,712357,249122,1335699,74117,8610,667392,0
2,3,719145,251465,1577999,74939,10030,788139,0
2,-1,640602,220995,1356627,66724,8322,678178,0
2,3,717851,249461,1493170,73914,9553,746235,0
2,3,713367,250418,1356519,74364,9622,677802,0
2,3,709282,249144,1333184,73842,9646,666174,0
2,3,712597,251293,1446179,74834,10291,722394,0
2,3,732115,254179,1390148,77459,9920,694620,0
2,-1,639458,219614,1214923,66038,7406,607121,0
2,3,713171,249850,1467871,74265,10022,733473,0
2,-1,642786,220274,1309423,66502,8760,654107,0
2,3,714627,250572,1527876,74596,10114,763248,0
2,3,731521,253538,1450879,77285,10331,725207,0
2,3,716706,250042,1385881,74526,9684,692520,0
2,3,735546,254008,1377940,77383,10116,688623,0
2,3,712600,248421,1436982,73742,9438,717981,0
2,3,736512,254479,1320056,77648,10296,659684,0
2,3,710088,249516,1419665,74255,8893,709446,0
2,-1,656619,222932,1220238,69005,8797,609771,0
2,3,710126,249638,1407621,74364,9755,703232,0
2,3,709812,248428,1451930,73737,9795,725588,0
2,3,710525,249196,1315810,74098,8888,657308,0
2,-1,642925,219521,1328403,66038,7964,663721,0
2,3,711394,248829,1445273,74123,10081,722137,0
2,3,713113,248884,1513226,74020,9314,756214,0
2,3,734699,253545,1567615,77284,10299,783483,0
2,3,718911,250871,1441738,74693,9804,720316,0
2,3,734305,253945,1456482,77290,10500,727851,0
2,-1,642868,219141,1353445,65796,7610,676274,0
2,3,734842,254022,1522184,77227,9937,760718,0
2,3,715580,248846,1465871,73660,9582,732599,0
2,3,732616,254235,1404175,77266,9565,701742,0
2,-1,664713,228561,1335536,68557,7388,667421,0
2,3,732840,253543,1525346,77141,9296,762290,0
2,3,706125,248248,1322160,73679,9195,660664,0
2,3,706093,247605,1408400,73365,9483,703887,0
2,3,712467,248553,1360767,73791,9437,680077,0
2,-1,642118,219940,1283636,65948,7533,641482,0
2,3,709861,248394,1428238,73733,10187,713439,0
2,3,712502,248473,1472693,73756,9990,735924,0
2,3,709873,248360,1499433,73660,10458,749295,0
2,3,713440,248407,1455111,73698,10107,727182,0
2,3,732251,253245,1353974,77109,9496,676304,0
2,-1,637837,219395,1362993,65909,7828,681119,0
2,3,759464,262516,1533995,79853,10457,766404,0
2,3,709661,248755,1480301,73786,9618,739782,0
2,3,710578,248259,1477335,73696,9913,738302,0
2,3,720450,251454,1411540,75061,10251,705075,0
2,3,711284,248929,1421445,73858,9317,710228,0
2,3,716799,250206,1419135,74482,9892,709246,0
2,3,709091,248282,1574755,73593,9825,787079,0
2,3,711947,248266,1404745,73659,8798,701902,0
2,-1,640519,219297,1202718,65816,7674,600991,0
2,3,714783,248651,1366591,73830,9760,682711,0
2,3,701995,248732,1440748,73373,8692,720019,0
2,3,708948,250827,1278153,74240,9080,638614,0
2,3,704078,248398,1599418,73180,10304,799271,0
2,3,708573,249299,1493122,73544,9373,746172,0
2,-1,640715,218601,1246873,65684,7282,623098,0
2,3,705408,248484,1429615,73188,8853,714331,0
2,3,707463,248323,1379004,73214,9074,689129,0
2,3,726707,253442,1646133,76674,10857,822404,0
2,3,710628,250269,1379154,74167,8941,688983,0
2,3,707205,247988,1456328,73219,8734,727824,0
2,-1,642107,220880,1359507,66730,7531,679331,0
2,3,712427,249309,1388869,74698,9209,693911,0
2,3,710295,248054,1392443,74138,9372,695638,0
2,3,708861,249520,1353965,74768,8616,676596,0
2,-1,643421,220291,1224724,66563,8049,611832,0
2,3,705412,247923,1458590,74043,9889,728938,0
2,3,726083,252757,1653181,77379,11308,826292,0
2,-1,661836,223627,1282613,69198,8723,640899,0
2,3,707898,248029,1507442,74110,9963,753422,0
2,3,709395,248250,1406020,74158,9346,702575,0
2,3,707113,248233,1488652,74131,8694,743971,0
2,3,729439,252639,1498994,77417,10186,749348,0
2,3,729586,252600,1558643,77409,10393,778958,0
2,3,714542,249959,1358799,74970,8817,678685,0
2,3,710299,247598,1437535,73821,9369,718243,0
2,-1,645816,221180,1284246,67012,8276,641344,0
2,3,711835,248153,1379066,74102,9467,689166,0
2,3,707122,247956,1561935,74042,10486,780413,0
2,3,726805,252826,1499741,77436,9710,749461,0
2,3,708583,248600,1445615,74238,9334,722487,0
2,-1,644237,219459,1233863,66093,7685,616555,0
2,3,708213,248199,1360590,74076,9197,679976,0
2,3,709668,248413,1441404,74134,9875,720436,0
2,3,717546,250708,1355430,75262,8646,676976,0
2,3,709712,248814,1364332,74325,9266,681710,0
2,3,709885,248699,1434242,74339,9519,716734,0
2,-1,634092,219430,1384892,66079,7307,692168,0
2,3,735569,257519,1448985,76944,9394,723913,0
2,3,719444,250971,1414352,75411,9224,706527,0
2,3,712860,249189,1334881,74605,8406,666889,0
2,3,712357,250034,1324298,74832,9262,661585,0
2,3,709697,248011,1549765,74112,10837,774243,0
2,3,712466,249130,1294035,74364,9619,646489,0
2,3,712643,248967,1386819,74547,8463,692942,0
2,-1,633298,218872,1371551,65793,7648,685452,0
2,3,716662,249853,1424183,74754,9807,711327,0
2,3,713782,248001,1278426,74086,9451,638599,0
2,3,732210,253184,1602519,77450,11783,800897,0
2,3,733210,253240,1422588,77466,10609,710709,0
2,3,734365,253410,1550479,77523,10392,774839,0
2,3,719566,250299,1377487,74860,10314,688458,0
2,-1,635155,219614,1392715,66016,7941,696031,0
2,3,705005,247974,1433006,74133,9451,716170,0
2,3,729600,253589,1430497,77754,10195,714870,0
2,3,709716,248704,1445668,74284,9939,722498,0
2,-1,636910,219192,1205694,65957,6985,602474,0
2,3,714319,249418,1374486,74489,10044,686913,0
2,3,712897,249332,1669805,74508,10953,834346,0
2,3,715526,248915,1548448,74529,11348,773476,0
2,3,715619,250851,1401148,75464,9939,699462,0
2,3,711645,249350,1425308,74467,9560,712301,0
2,3,736012,254276,1502237,77935,10360,750781,0
2,-1,635586,218434,1279392,65696,7776,639361,0
2,3,717276,250826,1383824,75201,9944,691369,0
2,3,719823,251131,1643877,75425,11829,820686,0
2,3,708960,248727,1456119,74336,9968,727714,0
2,3,712777,249839,1332678,74724,9572,665900,0
2,3,735667,254084,1849015,77913,12427,924126,0
2,-1,642776,220917,1238355,66854,8233,618367,0
2,3,718875,251346,1361164,75454,9476,679905,0
2,3,716662,250293,1412136,74604,9955,705704,0
2,3,715518,249361,1440532,74372,9967,719756,0
2,-1,637240,219171,1393166,65939,7742,696252,0
2,3,714437,249307,1592054,74423,10557,795513,0
2,3,713179,249467,1333307,74474,9172,666256,0
2,3,716185,249489,1467991,74454,10047,733670,0
2,3,735264,254001,1508200,77779,9812,753717,0
2,3,707993,249071,1368848,74305,8862,684157,0
2,-1,635160,218946,1322446,65882,8093,660812,0
2,3,711970,249310,1445054,74456,9639,722179,0
2,3,712457,248980,1426901,74229,9183,713093,0
2,3,734662,254426,1487668,77858,9822,743544,0
2,3,716633,250820,1407708,75062,8774,703258,0
2,3,716473,249387,1405512,74388,9435,702455,0
2,3,714045,249314,1316757,74550,9136,658013,0
2,-1,659689,223690,1298499,69272,8641,648936,0
2,3,717929,250442,1365803,75024,9132,682229,0
2,3,718525,250770,1441966,75143,10241,720238,0
2,3,721522,251009,1405034,75311,9325,701865,0
2,3,716111,248828,1405605,74182,9394,702543,0
2,-1,638256,219812,1251838,66131,7509,625382,0
2,3,712776,248892,1432802,74228,8543,716017,0
2,3,713623,248765,1615076,74159,9766,807124,0
2,3,717980,250725,1588789,75123,10522,793419,0
2,3,718654,249903,1550370,74565,11395,775639,0
2,3,712610,248918,1507109,74198,9144,753130,0
2,-1,642707,221343,1332418,66798,7767,665549,0
2,3,733946,253242,1471621,77536,9749,735332,0
2,3,736240,253760,1483660,77730,10208,741491,0
2,3,713026,248695,1317359,74471,8615,658357,0
2,3,711831,247329,1368077,73920,9838,683665,0
2,3,715240,248288,1329936,74326,8721,664441,0
2,-1,643297,220066,1623101,66179,8705,811231,0
2,3,710674,249144,1448170,74636,9473,723624,0
2,3,708874,247903,1321333,74229,9420,660051,0
2,3,707103,247958,1480719,74211,9370,740003,0
2,3,708268,248240,1311809,74319,8605,655514,0
2,-1,634910,219023,1401382,65775,9119,700257,0
2,3,706457,247923,1465475,74143,8172,732469,0
2,3,707066,247520,1382625,74029,9390,690858,0
2,-1,637719,219127,1335618,65891,7930,667472,0
2,3,731140,253431,1539724,77699,9863,769458,0
3,3,762985,266364,1328511,78690,9130,663889,0
3,3,762622,266862,1381034,78872,8709,690116,0
3,3,755557,265015,1428931,78228,8523,714041,0
3,3,709904,249076,1330970,74061,8237,665166,0
3,-1,689908,236595,1182827,70443,7421,591025,0
3,3,708509,248232,1246551,73729,9150,622952,0
3,3,707847,248046,1477367,73758,9140,738301,0
3,3,705151,248418,1539545,73684,9396,769468,0
3,3,728355,252381,1430091,76955,9074,714675,0
3,3,727366,252152,1447325,76849,9830,723402,0
3,3,704711,247912,1444424,73551,8883,721866,0
3,-1,691989,236576,1239463,70501,8755,619331,0
3,3,704997,247036,1307790,73349,8607,653614,0
3,3,709981,247927,1314841,73676,8190,657066,0
3,3,707198,248080,1403280,73801,8474,701309,0
3,3,709794,248358,1358161,73945,9954,678659,0
3,3,710898,249680,1326312,74448,8832,662535,0
3,-1,687540,236904,1327853,70572,7074,663667,0
3,3,713058,248537,1508039,74027,9448,753545,0
3,3,710514,248484,1369662,73852,8809,684447,0
3,-1,690028,236930,1227908,70615,7397,613604,0
3,3,709900,249094,1381556,73964,8463,690299,0
3,3,707867,248509,1344518,73820,9346,671868,0
3,3,712844,248886,1380458,73883,8991,689798,0
3,-1,638544,218806,1198132,65718,6360,598635,0
3,3,732246,252862,1393496,77070,9975,696466,0
3,3,710728,248638,1290914,73933,9681,645060,0
3,3,713518,248742,1404827,74045,8649,702064,0
3,3,710367,248440,1466676,73901,8813,732764,0
3,-1,635925,218252,1282593,65532,7223,640907,2
3,3,708189,247996,1322682,73839,8671,661026,0
3,3,714368,249473,1485458,74532,8977,742043,0
3,3,711736,248808,1448456,74085,9001,723882,0
3,-1,639433,218738,1174759,65717,7496,587081,0
3,3,712289,248018,1413430,73817,9403,706497,0
3,3,715722,248770,1413070,74120,9155,706084,0
3,3,708494,249619,1461441,74583,9692,730352,0
3,3,704667,248295,1406336,73839,9131,702960,0
3,-1,642575,220585,1361218,66434,8305,679687,0
3,3,703186,248584,1432530,74046,9318,715876,0
3,3,708247,249245,1421008,74270,8689,710012,0
3,3,730830,253189,1356636,77375,9612,677811,0
3,3,706827,248373,1563418,73944,9500,781340,0
3,-1,639779,218862,1380360,65758,7674,689638,0
3,3,710552,248924,1454083,74131,9923,726771,0
3,3,707419,248604,1538308,73906,9259,768715,0
3,3,708436,248262,1456954,73805,9467,728126,0
3,3,710855,248554,1501510,73973,10201,750303,0
3,3,711910,250847,1598468,74847,10273,798864,0
3,3,708608,249966,1543818,74397,9231,771515,0
3,3,710992,249373,1464921,74138,9439,732040,0
3,3,704661,247870,1384684,73704,9498,692013,0
3,3,713685,250819,1334904,74960,8804,666633,0
3,-1,643953,219514,1321179,65897,8207,660031,0
3,3,706702,248840,1496878,73982,9794,747997,0
3,3,710345,249939,1416746,74583,9037,707811,0
3,3,711068,249341,1451515,74112,8980,725450,0
3,-1,636962,219457,1305325,65948,7672,652406,0
3,3,708815,248516,1341062,73885,8713,670153,0
3,3,714713,250131,1438642,74666,9722,718712,0
3,3,712439,249490,1420923,74295,9556,710013,0
3,3,706926,249670,1506723,74268,9296,752750,0
3,3,712881,250381,1463498,74675,9753,731130,0
3,-1,635614,218331,1301622,65595,7841,650477,0
3,3,710206,248716,1424356,73941,9277,711689,0
3,3,708327,248774,1450425,73984,8807,724900,0
3,3,712302,250116,1621732,74633,10076,809679,0
3,3,711163,248372,1367616,73774,9430,683318,0
3,-1,638111,219415,1341015,65955,7525,670105,0
3,3,708403,248581,1437204,73953,8393,718216,0
3,3,713348,250205,1367263,74621,10014,683092,0
3,-1,633638,218075,1212832,65369,6250,606047,0
3,3,708004,249548,1335233,74189,8792,667129,0
3,3,707982,248534,1487947,73884,8740,743461,0
3,3,708297,248656,1443025,73816,8549,720856,0
3,-1,641529,220741,1327602,66573,7378,663229,0
3,3,708889,249018,1387023,73981,8923,693103,0
3,3,713476,249535,1418873,74135,10038,709132,0
3,3,712534,248846,1473385,73861,9380,736694,0
3,3,729701,253101,1573070,77022,9806,786177,0
3,3,742843,260577,1524126,77807,9856,761395,0
3,-1,637985,218494,1344719,65645,7618,672106,0
3,3,718302,251443,1447461,75265,9216,723117,0
3,3,717221,249274,1354841,74064,8672,677060,0
3,-1,657128,223717,1284501,69150,8743,641506,0
3,3,717985,250186,1460901,74266,10203,730172,0
3,3,713801,251298,1457346,74874,9821,727869,0
3,3,711271,250094,1356867,74229,10125,677877,0
3,3,713957,249804,1456739,74185,9251,727763,0
3,-1,641049,219918,1368964,66305,7783,684018,0
3,3,711373,249230,1357852,73999,9203,678503,0
3,3,713872,248925,1357225,73997,9085,678188,0
3,-1,639668,218947,1299507,65855,7623,649337,0
3,3,712008,249388,1459088,74007,9362,729609,0
3,3,737362,258767,1550110,76855,10030,774713,0
3,3,712894,249277,1344643,74109,8723,671948,0
3,3,711836,248883,1436532,73940,9565,717509,0
3,3,734811,253849,1395592,77326,9888,697322,0
3,-1,640910,218442,1354497,65657,8676,676782,0
3,3,713736,249232,1389193,74145,9298,694216,0
3,3,710222,250066,1543854,74594,9816,771612,0
3,3,713538,249056,1488416,73919,9458,743815,0
3,3,712554,248880,1364036,73932,9196,681289,0
3,3,708248,248108,1342235,73701,9072,670656,0
3,-1,663220,223958,1535201,69266,8438,767239,0
3,3,713856,249994,1334143,74641,9786,666243,0
3,3,715409,249833,1527049,74508,9644,762571,0
3,3,712403,249249,1552694,74063,9678,775750,0
3,3,711882,248964,1429756,74013,9490,714462,0
3,3,710987,248603,1449966,73800,9841,724847,0
3,-1,664549,224112,1296516,69129,8420,647848,0
3,3,713438,248570,1296168,73641,9217,647705,0
3,3,718638,250227,1461987,74410,9833,730471,0
3,3,709579,248884,1391752,73737,8729,695639,0
3,-1,638023,218525,1255883,65560,7169,627617,0
3,3,709029,248593,1388568,73670,8901,693971,0
3,3,710640,248487,1490187,73693,9764,744752,0
3,3,733531,252820,1399110,76961,9917,699253,0
3,3,710022,248379,1507734,73733,10320,753534,0
3,-1,640377,219764,1329030,65882,7464,664147,0
3,3,710373,248597,1501057,73746,9710,750082,0
3,3,717246,250057,1395315,74413,10105,696991,0
3,3,710652,248127,1412348,73588,9632,705486,0
3,3,712703,248545,1410392,73735,9939,704887,0
3,3,709869,248383,1352829,73728,9145,676049,0
3,-1,636919,219269,1196866,65855,7199,598138,0
3,3,712390,248947,1433842,73865,9189,716612,0
3,3,711714,249957,1354140,74503,9405,676072,0
3,3,712098,248781,1519432,73862,10175,759405,0
3,3,733286,253023,1489674,77024,11000,744336,0
3,3,711596,248489,1410780,73712,9589,704953,0
3,3,709236,247425,1544682,73369,10239,771934,0
3,3,715458,249233,1465830,73948,9252,732643,0
3,3,714247,249451,1467009,74103,9258,733164,0
3,-1,638447,218828,1265363,65629,7238,632371,0
3,3,718034,250350,1286085,74557,8794,642912,0
3,3,702081,248867,1477354,73340,8496,738354,0
3,3,704513,248758,1338602,73351,9059,668788,0
3,3,714665,251486,1432345,74535,9129,715692,0
3,-1,641496,219322,1266503,66016,7474,632744,0
3,3,710311,250022,1426047,73962,8654,711544,0
3,3,704801,248454,1541653,73203,9678,770487,0
3,3,728616,253347,1474715,76618,9741,737064,0
3,3,707582,248339,1319707,73165,9497,659492,0
3,3,704021,248240,1511104,73279,9402,755060,0
3,-1,639387,218949,1358243,65932,7921,678764,0
3,3,731269,256453,1470022,75671,8838,734654,0
3,3,708691,247954,1402305,74025,9346,700810,0
3,3,711519,249028,1457569,74432,9712,728369,0
3,-1,646006,221650,1210684,67107,7680,604665,0
3,3,707156,249224,1403986,74525,8890,701582,0
3,3,708500,247513,1358224,73897,9718,678823,0
3,-1,640507,219402,1234735,66094,7861,616936,0
3,3,711409,248694,1519576,74306,9896,759320,0
3,3,708845,248089,1621705,74079,10193,810454,0
3,3,710544,248152,1402481,74083,8771,700966,0
3,3,707015,248340,1527507,74131,8970,763481,0
3,3,708646,248012,1306617,74053,8777,652936,0
3,3,711775,248271,1336025,74109,8499,667649,0
3,3,730827,252782,1516990,77466,10640,758170,0
3,-1,660671,223635,1268377,69269,8336,633801,0
3,3,715077,249739,1357704,74637,9438,678467,0
3,3,712963,248942,1461601,74377,9703,730595,0
3,3,707974,249079,1440554,74462,10485,719896,0
3,3,709950,248890,1352501,74496,9801,675872,0
3,3,713015,249664,1349504,74930,8861,674166,0
3,-1,643202,219740,1289929,66176,7866,644689,0
3,3,706727,248303,1323702,74084,8764,661503,0
3,3,710573,248642,1417605,74244,10446,708342,0
3,3,708925,247535,1382049,73956,9394,690777,0
3,3,706272,247983,1385193,74100,9322,692243,0
3,3,707904,248359,1394461,74219,8806,696783,0
3,-1,632281,218742,1267669,65814,7447,633390,0
3,3,707690,248121,1331261,74105,9293,665203,0
3,3,734033,252858,1579499,77465,10512,789435,0
3,3,712477,247891,1361345,74019,8795,680284,0
3,3,706027,247924,1518559,73921,11423,758759,0
3,3,712813,249636,1376243,74780,9216,687593,0
3,-1,635928,219454,1273812,65987,7658,636260,0
3,3,711821,248119,1461121,74033,10392,730212,0
3,3,710283,248292,1567756,74090,9988,783302,0
3,3,710389,247701,1305013,73759,8841,652131,0
3,3,711363,247042,1306698,73778,9698,652897,0
3,3,714184,249141,1421282,74343,9791,710145,0
3,3,709128,248130,1260896,74088,9384,630129,0
3,3,713505,249362,1377793,74414,9234,688550,0
3,-1,637237,218767,1274268,65831,7711,636746,0
3,3,713825,248386,1338003,74064,10078,668592,0
3,3,708561,249625,1311337,74818,9076,654744,0
3,3,708665,248213,1350082,74218,9840,674717,0
3,3,712974,249484,1322873,74611,9258,661037,0
3,-1,639185,220429,1329828,66601,7878,664202,0
3,3,712169,249217,1458241,74480,9642,728802,0
3,3,714568,249494,1557025,74607,10848,778632,0
3,3,714577,248903,1555907,74478,10660,777858,0
3,3,733684,254061,1488395,77985,10095,743820,0
3,3,715812,251564,1444715,75605,9961,721579,0
3,3,717628,250737,1375695,75167,9095,687323,0
3,-1,637507,219318,1252274,66058,7276,625797,0
3,3,714464,249896,1358694,74730,9165,678984,0
3,3,718426,250554,1414354,74930,9453,706754,0
3,3,727810,252462,1542614,77309,10739,770945,0
3,-1,637045,218761,1210073,65838,7934,604598,0
3,3,719554,251744,1410463,75547,9074,704505,0
3,3,712141,249157,1639881,74465,11157,819299,0
3,3,713718,249995,1445869,74662,9270,722663,0
3,3,742486,255461,1541210,78653,11397,770024,0
3,3,714881,248991,1491814,74130,10050,745645,0
3,-1,638598,220039,1330246,66310,7352,664730,0
3,3,716599,250640,1358479,75137,9523,678455,0
3,3,714509,249091,1485812,74308,9531,742565,0
3,3,714250,249090,1544521,74331,9526,772044,0
3,3,713200,248906,1326618,74311,8716,662929,0
3,3,705717,248599,1428756,74167,9377,713982,0
3,-1,639561,220219,1405076,66330,8935,701960,0
3,3,730918,253179,1736009,77488,10617,867583,0
3,3,711955,248857,1409136,74323,9437,704203,0
3,3,715802,250491,1421911,75015,9240,710107,0
3,3,717393,250479,1444543,74743,8638,721932,0
3,-1,638326,219443,1342995,65989,8113,671057,0
3,3,722996,251719,1382026,75434,9687,690406,0
3,3,717251,251349,1310182,75304,9309,654510,0
3,3,714897,249411,1526460,74571,10499,762942,0
3,3,715416,249333,1427252,74525,10597,713216,0
3,3,715646,249271,1401132,74466,9012,700197,0
3,3,716554,249039,1479768,74246,9483,739259,0
3,-1,660545,223971,1330845,69314,8845,665028,0
3,3,712078,248972,1351033,74265,9015,675204,0
3,3,713545,249727,1453797,74709,10374,726080,0
3,3,732784,252353,1573026,77121,10595,786079,0
3,3,712938,248306,1389833,74121,9797,694464,0
3,-1,635713,219008,1209647,65868,7452,604359,0
3,3,710193,248677,1567993,74206,9876,783618,0
3,3,710653,248389,1367966,74142,8922,683305,0
3,3,714002,248082,1342763,74101,8860,671055,0
3,3,711141,247914,1363548,74173,9244,681405,0
3,3,715820,248721,1483331,74481,9883,741172,0
3,3,714672,248477,1401815,74409,9498,700448,0
3,3,702270,247610,1401595,74186,9534,700381,0
3,-1,667199,225478,1304082,70268,8938,651628,0
3,3,704887,247311,1397434,73968,8832,698382,0
3,3,713300,250098,1456937,75202,9839,727776,0
3,3,709108,248394,1400447,74342,9556,699832,0
3,-1,634771,219238,1277094,65997,8693,637783,0
3,3,707760,248207,1643980,74327,10467,821208,0
3,3,710660,248973,1340028,74770,9215,669296,0
3,-1,657252,223586,1274243,69128,8235,636778,0
3,3,707729,248515,1355320,74312,8585,677064,0
4,3,762387,266542,1369736,78700,9661,684572,0
4,3,761720,266335,1362015,78644,8132,680681,0
4,3,782614,271101,1514232,82016,10130,756789,0
4,3,708158,248476,1410108,73884,8796,704654,0
4,-1,713924,241986,1338046,74038,9044,668765,0
4,3,704806,247500,1319385,73376,9017,659361,0
4,3,707829,248024,1343250,73717,8198,671136,0
4,3,718188,251062,1545091,74903,10289,771924,0
4,3,706334,247846,1316161,73739,8071,657670,0
4,3,707655,247857,1367341,73660,9256,683278,0
4,3,707758,248554,1404789,73811,8224,701939,0
4,-1,693012,236971,1326912,70575,8108,663109,0
4,3,708151,248119,1396735,73817,8753,697983,0
4,3,709933,248393,1411990,73882,8777,705527,0
4,3,706648,247973,1346514,73758,9370,672902,0
4,3,708006,248076,1597692,73804,10033,798513,0
4,-1,690670,237102,1402417,70639,7353,700827,0
4,3,705615,246921,1228476,73452,8421,613797,0
4,3,717348,250559,1505918,74897,9069,752142,0
4,3,710459,248262,1402981,73771,8428,701045,0
4,-1,691245,237992,1196658,70936,6539,597960,0
4,3,706936,248813,1367439,73922,8736,683357,0
4,3,711297,249180,1482464,73969,9404,740718,0
4,3,713425,249387,1342840,74049,9612,671096,0
4,-1,636967,218247,1308136,65534,7234,653675,0
4,3,709809,248422,1419579,73815,9262,709206,0
4,3,711371,248837,1546935,73931,8944,773024,0
4,3,713321,249320,1356062,74236,8579,677679,0
4,3,731027,253488,1446137,77442,9600,722663,0
4,3,711476,249048,1457846,74194,9479,728547,0
4,3,710966,248777,1415629,74102,8565,707428,0
4,3,711607,248828,1435210,74122,9559,717263,0
4,-1,639040,218182,1159480,65436,7368,579394,0
4,3,712759,248146,1360223,73871,9020,679683,0
4,3,714130,248091,1581689,73869,9538,790548,0
4,3,705239,248280,1412145,73901,9456,705689,0
4,-1,642874,221398,1203188,66793,7471,600836,2
4,3,705242,248520,1321002,74022,8999,660183,0
4,-1,637789,218795,1212361,65683,6971,605832,0
4,3,707932,248153,1459474,73866,9327,729405,0
4,3,704820,248264,1440131,73936,9124,719622,0
4,3,708947,248628,1373930,74088,9347,686450,0
4,3,707679,249342,1471873,74438,9323,735113,0
4,-1,639829,219252,1358998,65899,7043,679027,0
4,3,708657,248602,1580262,73961,9933,789308,0
4,3,712008,250827,1472038,74957,10245,735266,0
4,3,714393,250723,1479628,74971,9150,738990,0
4,3,714354,250561,1553906,74837,9726,775121,0
4,3,706779,248783,1412517,74009,9108,705598,0
4,3,706521,248488,1529159,73864,9318,764285,0
4,3,712052,250013,1542708,74593,10001,770693,0
4,3,707140,248828,1558708,73972,9921,778938,0
4,-1,642394,219000,1308081,65720,8701,653361,0
4,3,729447,253654,1408412,77400,9281,703870,0
4,3,710629,248983,1458170,74088,8962,728504,0
4,3,708868,248382,1428215,73867,9778,713523,0
4,3,711126,249147,1446602,74152,9256,722963,0
4,-1,635001,218738,1272124,65685,7382,635764,0
4,3,729067,253328,1517133,77283,9552,758100,0
4,3,709829,248480,1432761,73825,9407,715953,0
4,3,718619,250869,1451274,74991,9864,725039,0
4,3,709293,249278,1360235,74189,9058,679635,0
4,3,728121,253153,1475416,77239,10797,737258,0
4,-1,638828,219965,1303308,66357,7733,651016,0
4,3,709103,249081,1280053,74110,8912,639883,0
4,3,706530,248468,1352589,73904,8807,675850,0
4,3,706182,248582,1432447,73895,9840,715990,0
4,3,730613,253333,1437346,77275,10559,718213,0
4,-1,636075,219041,1225312,65850,6448,612250,0
4,3,707376,248551,1372136,73929,8155,685777,0
4,3,715134,250466,1476960,74861,10608,737813,0
4,-1,653456,222454,1307264,68691,7577,653224,0
4,3,727892,254128,1443694,77411,8984,721515,0
4,3,710947,248618,1475094,73896,9085,737265,0
4,-1,645356,221144,1235367,66769,7661,617085,0
4,3,712160,248927,1514138,73947,9080,756777,0
4,3,706089,248282,1461250,73666,9032,730325,0
4,3,713935,250065,1401210,74502,9482,700032,0
4,3,738021,254910,1374822,78206,10140,686883,0
4,3,713454,250479,1479370,74638,10003,738987,0
4,3,711951,249690,1466408,74157,9061,732454,0
4,-1,636748,218309,1327913,65562,8294,663479,0
4,3,714121,249457,1509116,74262,9463,754139,0
4,3,716418,249616,1466769,74225,8628,732868,0
4,-1,633520,218585,1333736,65706,7917,666742,0
4,3,720464,251154,1450125,74776,9972,724502,0
4,3,707991,249389,1451674,73998,10098,725401,0
4,3,713512,251554,1425497,75007,9745,711943,0
4,3,713157,249602,1393774,73987,9317,695988,0
4,-1,635623,218475,1205634,65626,6994,602562,0
4,3,714631,250728,1569087,74474,9805,784128,0
4,3,717352,251248,1471928,75077,9844,735167,0
4,-1,640693,220021,1293697,66319,8027,646318,0
4,3,711826,249034,1417062,73900,10487,707887,0
4,3,709535,248812,1355897,73951,8633,677751,0
4,3,711009,248716,1378656,73872,8884,688999,0
4,3,712853,249956,1466211,74459,9266,732319,0
4,3,710822,248574,1490240,73856,9410,744137,0
4,-1,643511,220234,1399154,66462,9011,698937,0
4,3,716091,250013,1443637,74528,10358,721299,0
4,3,708811,248710,1407433,74003,9266,703463,0
4,3,709746,248580,1458430,73801,9329,728939,0
4,3,730501,252668,1334128,76918,9649,666650,0
4,3,711825,248667,1435647,73803,9764,717429,0
4,-1,643092,219653,1298197,66052,7550,648764,0
4,3,731638,253269,1354293,77221,10007,676891,0
4,3,714371,249527,1483023,74227,9636,741086,0
4,3,709513,248507,1355933,73724,8431,677623,0
4,3,711179,248720,1338766,73907,9175,668972,0
4,-1,640491,219404,1339988,65843,7481,669544,0
4,3,711072,248247,1374211,73599,9912,686731,0
4,3,714359,248649,1356566,73621,10019,677890,0
4,3,713793,248556,1433235,73606,9906,716116,0
4,3,712600,249713,1507331,74031,11915,752971,0
4,-1,659699,223792,1283860,69079,8121,641633,0
4,3,709037,248584,1440623,73654,9347,719993,0
4,3,731115,252971,1457020,77012,10146,728222,0
4,3,712426,248951,1470625,73934,9328,734871,0
4,3,711165,248103,1439102,73592,9402,719243,0
4,-1,640851,219930,1360842,65966,7922,679203,0
4,3,711973,249719,1421626,74364,9269,710272,0
4,3,712749,248506,1439188,73769,10129,719416,0
4,3,711373,248927,1453487,73919,9686,726333,0
4,3,714288,248539,1553653,73773,10133,776213,0
4,-1,641327,219043,1275192,65743,8027,637103,0
4,3,714956,250340,1549634,74610,10668,773998,0
4,3,709417,247991,1572723,73552,9676,785807,0
4,3,729823,253170,1532397,77043,10307,765791,0
4,3,708871,247914,1460232,73546,9757,729692,0
4,3,709857,248023,1426418,73618,10085,712698,0
4,3,710327,248663,1427907,73802,9133,713449,0
4,3,712795,248659,1498521,73747,9803,749081,0
4,-1,641431,219766,1281374,66022,7345,640332,0
4,3,713808,248442,1450048,73750,9648,724708,0
4,3,712274,248624,1535555,73803,8781,766796,0
4,3,716886,250402,1371727,74679,8680,685134,0
4,3,713740,248345,1327721,73605,7197,663435,0
4,3,707103,248575,1347985,73243,7851,673710,0
4,3,705423,248777,1522655,73365,9325,760941,0
4,-1,645833,221428,1273117,66883,7851,635935,0
4,3,705494,248507,1422780,73270,8638,710934,0
4,3,708857,250386,1366224,74147,9342,682501,0
4,3,703380,247253,1388996,72910,9008,694049,0
4,3,707320,248864,1378569,73415,9884,688833,0
4,-1,639851,219137,1181572,65933,7095,590441,0
4,3,706224,248486,1599202,73216,9551,799567,0
4,3,707825,248371,1424637,73391,8824,711960,0
4,3,712461,249405,1381226,74716,9545,690091,0
4,3,711687,249498,1385251,74765,9915,692074,0
4,-1,659125,223359,1204297,69155,7926,601761,0
4,3,704395,248056,1638540,74015,11067,818959,0
4,3,731335,253020,1526007,77549,10758,762764,0
4,-1,643292,219584,1422464,66144,7629,710813,0
4,3,710910,248146,1458616,74095,9184,728977,0
4,3,714226,250174,1424193,75062,9132,711495,0
4,3,716996,250912,1422874,75357,10061,710803,0
4,3,735007,252584,1501393,77406,9562,750243,0
4,3,713984,249981,1427371,74918,9800,712282,0
4,3,707573,247635,1406355,73901,8688,702879,0
4,-1,642929,219399,1204105,66075,8121,601645,0
4,3,710665,248613,1316784,74236,8764,658012,0
4,3,733055,252821,1522904,77470,10331,761130,0
4,3,715204,249661,1386838,74787,8893,693086,0
4,3,706065,248708,1440438,74342,9961,719688,0
4,3,708132,248206,1533899,74064,9879,766584,0
4,3,706287,247517,1326836,73900,8944,662984,0
4,-1,644675,219677,1236201,66050,7663,617761,0
4,3,708573,247906,1439143,74051,9267,719275,0
4,3,713258,250014,1308244,74749,9475,653747,0
4,3,709470,248271,1395086,74116,9044,697255,0
4,3,713207,250041,1465592,75003,10548,731390,0
4,-1,633930,219787,1219517,66197,7011,609382,0
4,3,731209,252285,1515856,77261,10144,757507,0
4,3,732806,252960,1456974,77437,10927,728143,0
4,3,713169,248836,1365415,74295,8632,682320,0
4,3,713769,248762,1446182,74336,9328,722709,0
4,3,707005,247806,1287863,73879,9741,643559,0
4,3,712322,248617,1357904,74218,9122,678623,0
4,-1,661306,227969,1242721,68554,7512,621102,0
4,3,711058,248663,1389444,74295,9951,694201,0
4,3,711565,248824,1394777,74147,8812,696823,0
4,3,709885,247947,1464416,73888,9404,731771,0
4,3,712245,248177,1342623,74138,9679,670765,0
4,3,708064,247834,1344822,73897,9127,672032,0
4,3,715616,249366,1403446,74384,9932,701089,0
4,-1,637598,219252,1335130,65977,8053,667147,0
4,3,710381,248282,1512029,74037,9435,755696,0
4,3,718339,250769,1345627,75132,10295,671816,0
4,3,736701,253021,1524699,77529,10239,761919,0
4,3,709236,248036,1317844,74152,9559,658535,0
4,3,711749,249229,1451346,74524,9299,725387,0
4,-1,636284,218703,1323564,65818,7810,661435,0
4,3,710671,248962,1416065,74342,9441,707755,0
4,3,712559,249175,1296712,74450,8842,648069,0
4,3,738126,254529,1647148,78167,11518,823144,0
4,3,711202,249310,1555542,74556,9931,777385,0
4,-1,637836,219671,1164135,66174,7324,581700,0
4,3,735467,253216,1757890,77657,11726,878633,0
4,3,713033,249527,1446348,74527,8976,722823,0
4,3,715621,249970,1456653,74723,9459,727954,0
4,3,712204,249251,1484568,74538,10180,741766,0
4,3,710934,250082,1384264,74733,8997,691702,0
4,-1,639522,219713,1210188,66116,7038,604709,0
4,3,735641,254597,1513521,77980,10109,756118,0
4,3,712763,249637,1445014,74659,9959,721804,0
4,3,715800,250888,1396943,75148,9395,697981,0
4,3,716019,250753,1523282,75000,9804,760966,0
4,-1,634427,218901,1254178,65930,7556,626611,0
4,3,719939,251370,1366153,75277,9757,682434,0
4,3,734015,253867,1511196,77667,10015,755365,0
4,3,713559,249085,1699501,74382,10584,849490,0
4,3,711328,249021,1374869,74326,9236,687072,0
4,3,708873,248159,1395354,74089,9042,697340,0
4,3,718603,250463,1343970,74943,9495,671443,0
4,-1,643653,221260,1341298,67026,7649,669849,0
4,3,710257,249318,1405348,74441,9378,702332,0
4,3,712990,249491,1307605,74458,8854,653463,0
4,3,712650,249063,1426292,74375,9323,712737,0
4,3,714675,249534,1309653,74347,8010,654427,0
4,-1,637902,219267,1270160,65943,7771,634509,0
4,3,717878,250254,1409805,74788,8696,704479,0
4,3,734640,253902,1405538,77602,10228,702418,0
4,3,713664,248320,1428708,74186,9214,713822,0
4,3,713827,248991,1453566,74378,9646,726483,0
4,3,740875,258191,1412323,77119,10352,705787,0
4,3,716804,249371,1450572,74403,8984,724926,0
4,-1,640828,220773,1333929,66627,8326,666467,0
4,3,715534,249395,1322325,74443,9148,660812,0
4,3,732994,253186,1498800,77471,10803,748807,0
4,3,715029,249947,1472578,74783,10402,735632,0
4,3,717619,250590,1527751,74965,10602,762889,0
4,-1,641818,219835,1289987,66128,7242,644566,0
4,3,711014,248287,1497531,73995,9853,748405,0
4,3,713138,248121,1436979,74022,9330,718227,0
4,3,716517,249337,1412123,74707,9410,705763,0
4,3,711287,248047,1538262,74208,10085,768242,0
4,3,712344,247784,1511799,74114,10122,755635,0
4,3,714828,247768,1470103,74134,10333,734823,0
4,3,709050,249319,1409872,74883,8845,704415,0
4,-1,644653,220717,1367657,66595,8122,683163,0
4,3,707602,247756,1429718,74130,9341,714476,0
4,3,729915,252835,1465910,77634,10450,732533,0
4,-1,635032,219459,1129898,65970,7530,564469,0
4,3,707900,248250,1320083,74263,8956,659514,0
4,3,710664,250476,1429396,75312,8662,714246,0
4,3,706918,247672,1290653,74128,9134,644940,0
4,-1,638606,219793,1349100,66115,9075,674175,0
4,3,710689,249957,1445984,74942,10134,722424,0
5,3,761761,266306,1342128,78584,9064,670700,0
5,3,761754,266298,1494666,78545,9005,747032,0
5,-1,691153,237191,1353317,70716,7116,675086,0
5,3,759473,266149,1384627,78594,8702,691970,0
5,3,707814,248468,1389830,73875,8794,694551,0
5,3,708931,249128,1316751,74235,9126,657813,0
5,3,709737,248442,1383533,73769,8963,691305,0
5,3,710358,248179,1388639,73672,9264,694066,0
5,3,707857,248542,1341271,73951,8678,670250,0
5,3,707515,248203,1286830,73758,8605,643067,0
5,-1,691730,236972,1253700,70636,7778,626477,0
5,3,710103,249968,1497816,74544,9505,748403,0
5,3,708608,248210,1363518,73776,9164,681359,0
5,3,715867,250512,1468468,74852,9522,733763,0
5,3,708024,248423,1368580,73870,9080,684204,0
5,3,708554,248435,1457069,73868,9021,728039,0
5,-1,700051,239154,1394817,71603,8652,696533,0
5,3,707116,248013,1354869,73868,8985,677543,0
5,3,711769,248953,1392857,74158,8378,696111,0
5,3,710575,248204,1369407,73702,8625,684418,0
5,-1,691295,236985,1237180,70589,7517,618295,0
5,3,705812,248268,1434475,73716,9208,716930,0
5,3,711134,248565,1352118,73772,9363,675685,0
5,3,731777,253489,1457990,77187,10009,729517,0
5,-1,637361,218447,1234754,65572,6982,617051,0
5,3,708297,248595,1456416,73900,8831,727835,0
5,3,714986,250689,1480695,74865,9238,739875,0
5,3,712873,248871,1342144,74101,8281,670661,0
5,3,709368,248755,1446930,74090,9249,723015,0
5,3,709093,248150,1364912,73847,8992,682105,0
5,3,713194,249090,1454121,74203,9547,726751,0
5,-1,644360,220636,1358802,66580,8717,678748,0
5,3,708858,247900,1381335,73778,9219,690269,0
5,3,716019,249687,1294473,74407,9292,646873,0
5,3,714629,248983,1422613,74186,9383,710966,0
5,3,726576,253441,1350118,77409,9959,674730,0
5,3,706354,248877,1395288,74146,8991,697280,0
5,-1,644240,220507,1321160,66393,8292,659943,0
5,3,710562,249397,1392368,74322,9419,695775,0
5,3,705197,247864,1268443,73833,8089,633736,0
5,3,709040,247995,1505184,73828,8803,752165,0
5,3,706085,248374,1440481,73989,9732,719843,0
5,-1,644915,220838,1329129,66614,7871,664049,0
5,3,724856,252253,1350225,77028,9978,674673,0
5,-1,639113,219212,1331741,65947,8275,665400,2
5,3,713690,249340,1426047,74165,9385,712618,0
5,3,730551,253337,1408665,77330,8896,704068,0
5,3,709067,248818,1452068,74051,9265,725598,0
5,3,711193,250353,1528198,74754,9946,763532,0
5,3,706011,248918,1425550,74058,8805,712310,0
5,3,708807,249223,1379740,74141,9106,689398,0
5,-1,661649,223202,1252946,68896,9061,626183,0
5,3,710723,249064,1622605,74053,9906,810586,0
5,3,709753,249221,1461393,74173,9167,730219,0
5,3,712252,248971,1435797,74095,9121,717171,0
5,3,709091,248809,1443855,74053,9587,721585,0
5,3,711635,250435,1431894,74854,9723,715193,0
5,-1,635553,219298,1324007,65784,8094,661570,0
5,3,706463,248387,1367066,73864,8674,683046,0
5,3,711104,248319,1461358,73842,9347,730396,0
5,3,734406,253665,1418204,77408,10084,708723,0
5,3,705275,248219,1499061,73790,9776,749219,0
5,-1,636003,218831,1325512,65816,7383,662317,0
5,3,735983,258170,1533652,76816,9880,766328,0
5,3,711585,250481,1437980,74835,9938,718373,0
5,3,705619,248448,1322247,73888,8718,660923,0
5,3,706478,248275,1362346,73761,8763,680852,0
5,3,710835,249007,1480245,74109,9821,739788,0
5,-1,633832,218212,1158555,65547,7308,578920,0
5,3,716754,250583,1436021,74751,9621,717394,0
5,3,713488,249769,1485511,74342,9739,742129,0
5,-1,642671,219748,1297614,66096,7819,648129,0
5,3,712865,248736,1508802,73842,9538,754229,0
5,3,709900,248758,1449806,73822,9370,724534,0
5,-1,660021,223239,1291661,69031,7917,645392,0
5,3,710158,249212,1377052,74190,7924,688110,0
5,3,714050,250108,1474738,74511,9317,736867,0
5,3,731367,253430,1353953,77218,9970,676647,0
5,3,713233,249597,1429085,74148,9369,714207,0
5,3,708476,248850,1356669,73903,9793,678090,0
5,-1,639410,218539,1228181,65616,7443,613664,0
5,3,716887,250251,1502341,74622,10197,750968,0
5,3,713945,249543,1439881,74240,8462,719495,0
5,-1,633534,218191,1410841,65470,7689,704775,0
5,3,716340,249908,1428052,74506,9393,713359,0
5,3,718738,250304,1458398,74244,9986,728975,0
5,3,709561,249800,1537229,74168,9835,768211,0
5,3,731489,254682,1540349,77539,10163,769672,0
5,3,714426,250587,1355483,74421,9344,677283,0
5,-1,636802,218708,1284461,65763,7733,641813,0
5,3,710892,249697,1355770,74113,9082,677411,0
5,3,709425,248821,1359990,73911,9217,679692,0
5,-1,636589,218987,1193424,65788,7330,596259,0
5,3,710190,249389,1443412,73990,9082,721442,0
5,3,711297,249677,1458826,74173,9128,729065,0
5,3,710068,248794,1463314,73943,9340,731272,0
5,-1,637568,218100,1264014,65502,7967,631557,0
5,3,709028,248304,1424908,73711,9800,712135,0
5,3,708478,247677,1440010,73441,9368,719763,0
5,3,712632,248494,1434099,73790,10180,716707,0
5,3,709791,249195,1433008,74098,9369,716157,0
5,3,708620,248307,1335612,73819,8719,667375,0
5,3,708617,248701,1343619,73825,8530,671278,0
5,3,708138,248726,1448084,73901,10043,723629,0
5,-1,641818,219759,1222733,66160,6943,610975,0
5,3,710647,248522,1326162,73898,9430,662101,0
5,3,711755,248213,1429573,73741,10156,714464,0
5,-1,647354,221089,1348722,66597,7709,673638,0
5,3,713204,250039,1428209,74548,8836,713497,0
5,3,712654,249009,1343395,73974,9343,671142,0
5,3,711426,248737,1548380,73839,10396,773843,0
5,3,712545,248368,1327213,73564,9751,663220,0
5,3,712970,248589,1520159,73624,10088,759631,0
5,3,709820,249263,1434089,73843,9807,716635,0
5,-1,644603,221246,1343746,66674,8004,671387,0
5,3,730967,254427,1463913,77389,10381,731619,0
5,3,708118,248450,1431242,73728,9510,715165,0
5,3,709827,248681,1385897,73758,8471,692563,0
5,3,731706,252873,1357930,76970,9810,678561,0
5,-1,642096,220791,1329127,66450,8229,663784,0
5,3,712550,249184,1477209,73976,9778,738211,0
5,3,712830,248527,1434984,73673,10250,716689,0
5,3,708748,247750,1449620,73506,10078,724190,0
5,3,712820,248309,1476208,73664,10359,737818,0
5,-1,642301,219846,1182404,66049,7405,590816,0
5,3,708790,248295,1552918,73635,9503,775973,0
5,3,712678,250185,1380020,74591,9147,688992,0
5,3,714374,248540,1449439,73790,10260,724101,0
5,3,715813,250240,1305340,74529,9956,652030,0
5,3,711676,247976,1313129,73548,9664,656267,0
5,3,706811,247774,1326327,73483,8710,662882,0
5,3,713237,248714,1320909,73823,9041,660110,0
5,-1,643458,220800,1382859,66528,8075,690949,0
5,3,712831,248081,1355467,73578,8952,677355,0
5,3,714503,248976,1479511,73957,8953,739331,0
5,3,710537,248279,1472600,73652,8434,736043,0
5,3,735651,252644,1440734,76837,9262,719921,0
5,3,705874,248484,1465294,73259,8751,732290,0
5,3,705966,248458,1488395,73209,8757,744013,0
5,-1,638150,218682,1241089,65660,8044,620220,0
5,3,705674,248646,1261851,73356,9320,630572,0
5,3,728600,253330,1520322,76680,10027,759824,0
5,3,708433,248451,1621097,73224,10270,810085,0
5,3,708170,249813,1273553,73841,9085,636295,0
5,-1,644002,221228,1318961,66924,7696,658835,0
5,3,713463,250707,1380876,74264,8663,689548,0
5,3,705744,247945,1543948,73215,8955,771627,0
5,3,707123,247960,1489250,74085,9987,743987,0
5,3,709372,248398,1472087,74248,10112,735669,0
5,-1,638095,219145,1222443,65995,7089,610872,0
5,3,709099,247922,1316498,74033,9028,657875,0
5,3,705527,247817,1368576,73960,9479,683225,0
5,-1,640357,218333,1216282,65677,7195,607702,0
5,3,709979,248444,1596689,74272,10069,797630,0
5,3,706897,247770,1443596,73989,9059,721343,0
5,3,709428,248484,1354341,74205,9569,676897,0
5,3,712759,248941,1323503,74598,8446,661124,0
5,3,707098,248113,1431026,74105,9942,715051,0
5,3,729781,252922,1515022,77512,10064,757111,0
5,-1,642465,219329,1373434,65964,8174,686322,0
5,3,713207,249815,1322510,74874,9765,660778,0
5,3,711493,248543,1428664,74254,9289,713965,0
5,3,712794,248965,1450802,74392,9503,724992,0
5,3,708059,248200,1327419,74209,8796,663301,0
5,3,712903,250247,1350187,75052,9446,674449,0
5,-1,664830,223788,1365431,69279,9148,682372,0
5,3,710037,249190,1338094,74496,9344,668686,0
5,3,710953,248138,1328172,74192,8974,663662,0
5,3,712928,249139,1278698,74688,8979,638732,0
5,3,709610,248934,1303202,74396,8969,651213,0
5,3,705659,248034,1415118,74136,9460,707302,0
5,-1,637896,219143,1227333,65987,6598,613397,0
5,3,709182,247898,1335676,74033,8632,667387,0
5,3,710042,247895,1462298,74080,10007,730105,0
5,3,711305,248368,1313083,74245,9155,655947,0
5,3,711813,248267,1592381,74110,10335,795917,0
5,3,711485,249510,1305035,74476,9570,652051,0
5,3,709363,248433,1473785,74198,9141,736539,0
5,-1,642361,222022,1329553,67181,8742,664144,0
5,3,732419,253310,1563569,77511,11030,781504,0
5,3,709770,248553,1465484,74179,10144,732304,0
5,3,716479,250495,1385789,75047,10025,692187,0
5,3,710208,247557,1273646,73919,8540,636442,0
5,3,715594,250238,1316022,75016,8475,657317,0
5,3,711153,248149,1311511,73956,8612,655453,0
5,-1,640308,220317,1439591,66582,8505,719363,0
5,3,739366,257749,1482647,76885,9294,740948,0
5,3,733504,253067,1376031,77368,10497,687700,0
5,3,715403,248214,1384483,74173,9396,691925,0
5,3,707891,248013,1397759,74135,9520,698537,0
5,3,707708,248744,1495418,74391,9889,747214,0
5,-1,635626,218848,1239296,65855,6919,619257,0
5,3,714716,249094,1526687,74472,9722,762989,0
5,3,712408,249056,1499856,74405,10084,748839,0
5,3,715609,250066,1444369,74862,10109,721611,0
5,3,713639,249101,1474621,74558,9871,736849,0
5,-1,634561,218599,1268764,65727,7399,634060,0
5,3,714734,249732,1452072,74707,9480,725713,0
5,3,712703,249421,1321715,74573,9162,660508,0
5,3,740912,258704,1550833,77331,10088,775046,0
5,3,716393,249656,1355584,74650,9844,677328,0
5,3,707295,249069,1462451,74409,9141,730615,0
5,-1,640219,220404,1326878,66627,8262,662859,0
5,3,716668,250621,1440877,75151,8986,719831,0
5,3,712859,249706,1506383,74632,9337,752743,0
5,3,712249,249576,1523707,74538,9342,761388,0
5,-1,633948,218890,1352671,65868,7885,675928,0
5,3,715238,249563,1389708,74381,9225,694505,0
5,3,716651,250460,1390477,74709,8650,694722,0
5,3,713563,249519,1431958,74492,9328,715485,0
5,3,714533,249398,1397587,74448,9080,698309,0
5,3,713400,249488,1352561,74503,9857,675749,0
5,3,717657,249626,1447494,74544,9665,723405,0
5,-1,659091,223846,1471478,69273,8151,735281,0
5,3,717942,249427,1450928,74483,10463,725203,0
5,3,709348,248835,1448627,74293,9718,723858,0
5,3,714448,250933,1252645,75266,9260,625754,0
5,3,710770,248792,1455413,74220,9548,727170,0
5,3,713247,249473,1369748,74353,8785,684596,0
5,-1,638993,219250,1382563,65921,8491,690800,0
5,3,718020,249837,1450053,74587,9598,724750,0
5,3,715776,249774,1416623,74649,9563,707955,0
5,3,714456,249412,1479272,74524,9164,739393,0
5,3,712336,248863,1449532,74322,9461,724425,0
5,3,718750,250717,1361239,75250,10239,679953,0
5,3,719407,250595,1397433,75009,8981,698292,0
5,-1,637984,219670,1299730,66078,7754,649552,0
5,3,710056,248381,1390731,74125,9803,694839,0
5,3,713277,249360,1419164,74411,9787,709492,0
5,3,710241,248437,1459472,74079,9293,729297,0
5,3,710410,247962,1412082,73888,9540,705822,0
5,-1,639692,219050,1273450,65758,7268,636396,0
5,3,731423,253564,1606674,77523,11131,802994,0
5,3,713957,249228,1488279,74424,9122,743684,0
5,3,714510,249172,1507060,74455,9135,753217,0
5,3,710936,248126,1407451,74177,9826,703437,0
5,3,712829,248489,1422137,74413,9768,710580,0
5,3,718270,249823,1464274,75006,10055,731529,0
5,-1,640110,219458,1296462,65970,7879,647749,0
5,3,705002,248272,1281121,74342,9419,640005,0
5,3,710956,249468,1455228,74945,9970,727019,0
5,3,709052,248788,1343217,74437,8667,671208,0
5,-1,656283,223925,1187512,69275,8170,593350,0
5,3,707752,247999,1339469,74235,8730,668999,0
5,3,728054,252318,1439700,77437,10221,719457,0
5,-1,635665,219376,1324391,65926,7586,661560,0
5,3,706551,247861,1461320,74096,8612,730274,0
5,3,714215,249238,1432518,74535,9121,715768,0
5,3,707658,247649,1321848,73978,8804,660633,0
6,3,768907,269551,1482301,79944,10560,739930,0
6,3,784997,271273,1524869,82100,10977,761960,0
6,-1,690532,237238,1369678,70648,7526,684532,0
6,3,762297,267822,1427926,79301,9188,713434,0
6,3,727682,252910,1514824,77123,9788,757056,0
6,3,712471,248758,1418599,73989,10368,708996,0
6,3,714733,249834,1498087,74402,10098,748342,0
6,3,711369,248571,1431198,73840,10027,715125,0
6,3,704592,247203,1379581,73422,8139,689445,0
6,-1,690128,236829,1245964,70534,7218,622664,0
6,3,711922,250598,1389929,74932,9371,694230,0
6,3,706015,248432,1408150,73779,8576,703456,0
6,3,705677,247565,1280812,73535,8008,640087,0
6,3,706355,247652,1446415,73666,8996,722837,0
6,3,707035,248238,1451437,73824,9530,725304,0
6,-1,694359,237135,1265223,70628,7713,632215,0
6,3,710125,249509,1489804,74571,9916,744104,0
6,3,708651,248412,1293284,74004,9080,646213,0
6,3,714961,250080,1463708,74686,9423,731413,0
6,3,709331,248061,1437539,73728,9015,718251,0
6,-1,721001,247216,1332135,73650,7146,665699,0
6,3,706216,248313,1404684,73715,9136,701943,0
6,3,714934,250678,1461577,74827,10069,730104,0
6,3,714015,248941,1528003,73862,9959,763558,0
6,-1,635523,218382,1164393,65531,7122,581911,0
6,3,711404,248972,1328489,73905,8404,664022,0
6,3,731575,253426,1393827,77281,9379,696548,0
6,3,712149,248988,1298530,74081,8596,648936,0
6,3,708156,248018,1458946,73834,9343,728982,0
6,3,714589,249887,1469593,74673,9641,734236,0
6,3,711280,248679,1438298,74013,9553,718762,0
6,-1,639889,219073,1261567,65802,8106,630407,0
6,3,711591,249414,1433758,74530,9531,716296,0
6,3,715465,249502,1352962,74534,9998,675914,0
6,3,716211,249966,1462809,74692,9803,730833,0
6,3,709122,249929,1350431,74662,9273,674680,0
6,3,704202,248370,1524051,73918,9476,761643,0
6,-1,638028,218595,1292512,65569,8015,645396,0
6,3,710479,249980,1471278,74696,10097,735062,0
6,3,703714,247926,1412276,73718,8523,705788,0
6,3,705579,248280,1433743,73987,8514,716330,0
6,3,710241,250979,1472331,75108,9702,735517,0
6,-1,642876,220983,1335220,66744,7706,666915,0
6,3,708511,249030,1318841,74142,8873,659111,0
6,3,710343,248706,1366352,73993,8626,682785,0
6,3,705995,248591,1363054,73934,9699,681141,0
6,3,707218,248195,1484378,73802,8694,741872,0
6,3,728049,253582,1378278,77372,9504,688785,0
6,3,709207,250495,1457068,74763,9755,727778,0
6,-1,640503,218712,1260081,65642,7697,629774,0
6,3,714288,251178,1425154,75056,10151,711403,0
6,3,708471,248576,1386572,73904,9359,692766,0
6,3,708491,249194,1475794,74102,8740,737442,0
6,3,710878,248671,1331088,73991,8580,665198,0
6,3,707677,248650,1458345,73927,8370,728705,0
6,-1,635208,219616,1342884,65926,7759,670955,2
6,3,708114,248085,1470355,73804,8963,734830,0
6,-1,642026,221384,1407749,66725,8529,702968,0
6,3,708295,249361,1436072,74183,9141,717738,0
6,3,731025,253433,1424502,77318,9963,711901,0
6,3,709066,248199,1312850,73809,8543,655890,0
6,3,706777,249141,1503710,74066,9729,751422,0
6,-1,635974,219241,1197724,65881,6505,598560,0
6,3,709606,249010,1446982,74036,9352,723079,0
6,3,705523,248751,1478731,74013,9901,738659,0
6,3,731626,253292,1656591,77234,10298,828243,0
6,-1,636303,218961,1113572,65830,6299,556481,0
6,3,706427,248908,1448133,74015,10112,723577,0
6,3,711237,249580,1523410,74479,9997,761120,0
6,3,709494,248537,1407237,73888,9806,703377,0
6,-1,639967,219086,1265812,65749,7379,632468,0
6,3,710817,248600,1491323,73914,9088,745250,0
6,3,715137,249420,1403351,74116,9427,701337,0
6,-1,637522,218939,1163085,65850,6442,581322,0
6,3,716559,251329,1480171,74941,9555,739548,0
6,3,709667,248388,1489738,73796,9284,744362,0
6,3,710869,249037,1367066,73941,8816,683200,0
6,3,710188,249262,1358370,74049,9463,678809,0
6,3,711694,248581,1483760,73752,8848,741606,0
6,-1,639927,219125,1305682,65862,7753,652354,0
6,3,707204,248684,1394122,73871,9587,696627,0
6,3,710705,248322,1410078,73864,8903,704597,0
6,3,715492,249412,1460645,74200,8612,729998,0
6,-1,642843,219172,1405367,65929,7828,702268,0
6,3,715663,249417,1344444,74227,8680,671787,0
6,3,722900,251865,1387186,75083,9918,692931,0
6,3,714313,250912,1445964,74721,10534,722223,0
6,3,712263,249748,1373367,74029,10011,686143,0
6,-1,686651,232459,1303817,71753,8597,651553,0
6,3,713140,249327,1547223,73951,9526,773067,0
6,3,734196,255088,1472179,77723,10270,735661,0
6,3,713710,250229,1481122,74318,9737,740272,0
6,-1,634976,218624,1284467,65641,7647,642065,0
6,3,713835,250728,1463753,74512,10301,731306,0
6,3,709509,249176,1347811,74119,8915,673549,0
6,3,712727,249860,1452413,74422,9608,725781,0
6,-1,659127,223416,1252875,69086,7759,625992,0
6,3,711058,249062,1392603,73967,9542,695870,0
6,3,710819,248837,1518211,73871,9466,758750,0
6,3,715336,250325,1470875,74639,10138,735106,0
6,3,706850,248423,1321592,73901,9229,660409,0
6,3,707593,248354,1330981,73864,8648,665116,0
6,3,715618,250391,1513068,74603,9680,756036,0
6,-1,646258,220948,1280160,66755,7681,639460,0
6,3,714778,250125,1449136,74521,9903,724032,0
6,3,730477,253246,1507545,77187,9601,753325,0
6,3,710215,248023,1371414,73754,9203,685289,0
6,-1,639530,218769,1377995,65672,8062,688518,0
6,3,710716,249484,1339588,74145,8495,669471,0
6,3,711471,248691,1367402,73832,9372,683305,0
6,3,711628,248972,1564859,73918,10619,782062,0
6,3,720254,251199,1314039,74738,9541,656434,0
6,3,712864,248549,1321005,73611,8788,660264,0
6,3,708791,249706,1466073,73995,8830,732540,0
6,-1,661719,223634,1173779,69055,8023,586453,0
6,3,710686,248626,1506097,73671,9211,752662,0
6,3,713203,250087,1403369,74420,8614,701166,0
6,3,708465,248682,1392022,73738,8800,695525,0
6,-1,642835,219385,1185914,65832,7962,592769,0
6,3,710009,248653,1475570,73804,9326,737600,0
6,3,713394,250559,1443960,74683,9075,721483,0
6,3,718434,251233,1432103,74976,10407,715266,0
6,-1,645358,220862,1291330,66544,7859,645337,0
6,3,709453,248249,1564000,73613,9722,781309,0
6,3,710105,247988,1356841,73566,9646,678056,0
6,3,711522,249722,1369328,74343,9297,683797,0
6,3,708561,247739,1458523,73460,9668,728886,0
6,3,714282,249510,1491137,74112,10082,744773,0
6,3,732174,253213,1407639,77074,10407,703351,0
6,3,717580,250255,1351846,74511,8853,675209,0
6,3,707660,248159,1325053,73596,9749,662208,0
6,3,712068,248621,1457678,73823,9392,728510,0
6,-1,640246,219172,1258685,65778,7822,628905,0
6,3,714175,249024,1444460,73906,9887,721783,0
6,3,713825,249163,1494689,73927,9247,747129,0
6,3,714213,248784,1452380,73910,9663,725695,0
6,3,714991,248667,1405545,73818,8752,701956,0
6,3,705035,248361,1495447,73224,8481,747288,0
6,-1,643141,219868,1329136,66077,8243,664196,0
6,3,707592,250147,1308969,73985,9039,653952,0
6,3,725982,252903,1598853,76489,11174,798961,0
6,3,705698,247766,1347730,72991,8155,673850,0
6,3,705818,248300,1399917,73164,8686,699590,0
6,3,704402,248779,1558318,73345,9954,778498,0
6,3,704763,247589,1306459,72937,8338,652965,0
6,-1,636821,218862,1328224,65816,7988,663847,0
6,3,710155,249930,1470625,74012,8952,734736,0
6,3,709561,248515,1372483,74295,9551,685860,0
6,3,706848,248414,1479063,74258,8872,739174,0
6,-1,642814,219757,1309933,66158,7909,654591,0
6,3,716788,249826,1352734,74888,10279,675551,0
6,3,707657,248412,1387765,74202,9963,693476,0
6,-1,641511,219168,1222605,65993,7756,610961,0
6,3,709523,248253,1560613,74121,10021,779942,0
6,3,707363,248221,1556102,74179,10594,777825,0
6,3,709850,249075,1450403,74425,9415,724729,0
6,3,710781,248005,1506156,74097,9120,752598,0
6,3,706993,248279,1317961,74135,9917,658683,0
6,3,708674,248227,1409834,74189,9184,704500,0
6,-1,661489,223507,1278177,69257,8523,638631,0
6,3,706603,247597,1329181,73842,8814,664308,0
6,3,710980,248439,1435839,74196,9334,717555,0
6,3,714560,250373,1366237,75216,9235,682394,0
6,3,716241,248742,1469162,74295,9442,734246,0
6,3,729202,252852,1535747,77480,10932,767463,0
6,-1,640949,218553,1309565,65752,8249,654497,0
6,3,707079,248168,1440165,74175,8972,719743,0
6,3,731528,252964,1486116,77502,10319,742696,0
6,3,711493,248800,1486387,74377,9475,742801,0
6,-1,645541,218969,1311074,65882,7360,655168,0
6,3,730287,252632,1525644,77358,10256,762389,0
6,3,707625,248732,1489672,74335,10482,744308,0
6,3,712406,249082,1450635,74441,9134,724920,0
6,3,710840,248189,1424513,74124,9484,711859,0
6,3,712413,248957,1393364,74446,9521,696286,0
6,3,737084,254022,1565341,78327,11081,782317,0
6,3,712911,250514,1264465,75074,9699,631501,0
6,3,706823,247828,1378388,73914,9043,688864,0
6,-1,634533,219424,1203741,66095,8505,601465,0
6,3,707816,247632,1438975,73768,9082,719211,0
6,3,709579,248374,1411150,74069,9923,705230,0
6,3,709292,247955,1588175,73895,9500,793866,0
6,3,733640,252766,1605457,77402,10920,801901,0
6,3,710430,249306,1414503,74431,9097,706505,0
6,3,732346,252943,1495673,77346,9970,747578,0
6,-1,634904,218854,1381994,65853,8061,690644,0
6,3,710124,248829,1473724,74188,10274,736575,0
6,3,713794,248295,1470019,73987,9829,734648,0
6,3,717393,249189,1499822,74460,9474,749504,0
6,3,729799,253057,1549099,77502,11197,774187,0
6,3,710625,248606,1446564,74130,9225,722878,0
6,-1,639795,220874,1378446,66732,8190,688575,0
6,3,717988,251227,1385270,75538,9089,692059,0
6,3,731454,253731,1506882,77702,11593,752999,0
6,3,717727,250658,1463177,75263,11032,731036,0
6,-1,636096,219529,1295438,66120,7164,647281,0
6,3,712572,249658,1463999,74755,10056,731534,0
6,3,715326,250250,1404274,75098,9994,701466,0
6,3,717550,250972,1317128,75343,9366,657929,0
6,3,713572,250298,1440498,74885,9235,719899,0
6,3,735078,253783,1494029,77790,11566,746694,0
6,-1,639274,219389,1393972,66078,7245,696608,0
6,3,717658,249877,1464823,74709,9696,731979,0
6,3,712146,249511,1470110,74546,9693,734546,0
6,3,732644,254126,1526864,77922,10314,762953,0
6,3,716781,251374,1679925,75399,11196,838688,0
6,-1,635773,219702,1324260,66183,8560,661657,0
6,3,714130,248959,1354271,74213,9565,676732,0
6,3,715348,249737,1536936,74471,10213,767959,0
6,3,712819,249360,1573829,74432,10784,786517,0
6,3,712045,248905,1461476,74303,9952,730284,0
6,3,735859,253035,1560598,77412,11160,779848,0
6,3,718284,250823,1512975,75196,9719,755583,0
6,-1,639262,219530,1458789,66132,7714,728784,0
6,3,714747,249223,1576215,74417,10409,786841,0
6,3,715310,250949,1357365,75310,9388,678106,0
6,3,713536,249709,1364990,74534,9133,682182,0
6,3,714963,250917,1375184,75252,9309,686869,0
6,-1,638323,219418,1271545,66069,8393,635339,0
6,3,712278,249055,1316899,74182,8955,658112,0
6,3,719744,250551,1419002,74863,9645,709097,0
6,3,735495,254490,1491990,77922,10027,745657,0
6,3,712374,249168,1421513,74517,9130,710521,0
6,3,717382,248873,1492562,74395,10484,745753,0
6,3,736618,254377,1416390,77956,10330,707743,0
6,-1,639960,220477,1318164,66316,7316,658623,0
6,3,718945,249778,1484683,74522,9527,741879,0
6,3,718360,251755,1385069,75509,10324,691852,0
6,3,713451,249762,1848937,74729,10800,923766,0
6,3,718046,251242,1548821,75343,10345,773958,0
6,-1,639900,219756,1348789,66103,7944,673991,0
6,3,736706,253294,1561617,77494,11544,780535,0
6,3,716765,248845,1534912,74243,10463,767069,0
6,3,709663,247977,1343082,73970,8328,671190,0
6,3,713096,248021,1414686,74011,8853,707114,0
6,3,739037,253040,1582232,77638,11412,790229,0
6,-1,642288,220189,1284979,66256,7632,642149,0
6,3,715789,249188,1432156,74837,10378,715527,0
6,3,711255,247167,1347581,73962,9489,673390,0
6,3,705038,248074,1292561,74275,8803,645670,0
6,3,706601,248011,1363679,74195,9896,681504,0
6,-1,644688,219791,1347113,66092,9247,672858,0
6,3,705856,247612,1388399,74066,9035,693743,0
6,3,727195,252464,1516281,77506,9686,757798,0
6,3,708518,247103,1477652,73845,8493,738550,0
6,-1,640227,219895,1358950,66082,8272,679059,0
6,3,710017,249636,1631901,75017,10096,815870,0
6,3,710154,247850,1422279,74032,8659,710476,0
6,3,732117,253611,1461871,77750,9926,730249,0
7,3,759609,266186,1380794,78563,8512,689964,0
7,3,766049,268169,1467319,79388,9017,733209,0
7,-1,695701,239434,1408787,71584,8237,703861,0
7,3,760215,267004,1352274,78858,8211,675741,0
7,3,707688,247157,1496280,73439,8822,747807,0
7,3,731489,253036,1462570,77133,10496,730901,0
7,3,709588,248656,1344442,73816,9064,671985,0
7,-1,690972,236905,1243046,70566,7147,621201,0
7,3,711779,247955,1415890,73712,9407,707312,0
7,3,708814,249701,1404141,74580,8689,701544,0
7,3,727878,252532,1358226,77039,9768,678870,0
7,3,706029,248863,1417114,73868,8678,708208,0
7,3,713876,251360,1501350,74963,8831,750075,0
7,3,705280,247857,1411347,73635,9036,705213,0
7,3,704267,247794,1395160,73623,9120,697100,0
7,-1,698109,238370,1362966,71246,8534,680841,0
7,3,728165,252793,1398338,77124,9725,698661,0
7,3,707425,248036,1393060,73806,9624,696129,0
7,3,709182,248302,1379116,73802,8330,689089,0
7,3,718449,251698,1545894,75287,10031,772293,0
7,-1,694624,238979,1348398,71579,7527,673662,0
7,3,711334,250920,1333996,74908,9054,666437,0
7,3,709692,248425,1425965,73776,9229,712482,0
7,-1,642650,221001,1287201,66710,7763,642954,0
7,3,713922,249598,1444869,74152,9695,721496,0
7,3,713319,250178,1430835,74671,9040,714842,0
7,3,709763,248918,1426946,74046,8301,713004,0
7,3,731328,253119,1416536,77147,9399,707783,0
7,3,705970,247689,1362178,73726,8324,680662,0
7,3,732216,253304,1382374,77381,9903,690837,0
7,3,710204,248141,1320899,73924,9337,660080,0
7,-1,641821,219421,1188478,65906,7320,593989,0
7,3,716204,249104,1468709,74178,9043,734029,0
7,3,711780,248443,1491904,73952,9319,745613,0
7,3,718058,250263,1419526,74893,9917,709004,0
7,3,704711,248193,1428430,73886,8940,713881,0
7,-1,661091,223553,1242433,69041,8551,620787,0
7,3,731526,253628,1421507,77487,10080,710201,0
7,3,727525,253095,1406405,77313,9939,702955,0
7,3,707117,248512,1278350,73975,9240,638802,0
7,3,710296,249868,1419112,74634,9054,708989,0
7,-1,640920,218498,1208844,65680,7451,603985,0
7,3,725973,252838,1374958,77208,10474,687237,0
7,3,740699,259844,1488018,77610,9743,743501,0
7,3,711692,249704,1483703,74449,9331,741290,0
7,3,710681,249250,1404448,74473,10605,701436,0
7,3,710228,248710,1356674,73950,8858,677861,0
7,-1,640755,218507,1339753,65548,8584,669421,0
7,3,707120,249556,1276261,74268,9081,637544,0
7,3,708922,248968,1489399,74028,9291,744461,0
7,3,729882,253797,1575896,77480,10525,787518,0
7,3,708832,249280,1491082,74178,9483,745114,0
7,3,707365,249295,1457315,74194,9150,728202,0
7,3,730145,253696,1368854,77409,9406,683963,0
7,3,712256,250343,1643367,74808,9942,821091,0
7,-1,633666,219077,1280531,65708,7629,639771,0
7,3,709582,248692,1317870,74013,9029,658378,0
7,3,717030,250858,1478876,74973,9145,738765,0
7,3,707089,247595,1465491,73654,9390,732318,0
7,3,711684,249424,1393970,74246,8831,696457,0
7,-1,655820,223419,1281452,69093,7764,640230,0
7,3,705991,248808,1382083,73977,9755,690535,0
7,-1,634596,218984,1265665,65854,6662,632317,2
7,3,710779,249960,1424855,74536,9908,711719,0
7,3,708386,249854,1577886,74536,9673,788115,0
7,3,710263,248916,1755623,73967,10932,877016,0
7,-1,633843,218373,1211303,65589,7158,605197,0
7,3,707557,249312,1313088,74096,9493,656284,0
7,3,709061,248705,1339285,74010,9425,669149,0
7,3,709587,248424,1268671,73887,8922,633937,0
7,-1,638520,218873,1242664,65623,6866,620992,0
7,3,715369,250572,1556644,74812,9740,777902,0
7,3,731564,252996,1545460,77038,9172,772392,0
7,-1,635472,218637,1275872,65697,6818,637570,2
7,3,712785,249612,1310624,74081,8979,654843,0
7,-1,641091,220548,1317230,66447,7157,658143,0
7,3,708422,248767,1436040,73916,8262,717650,0
7,3,710675,248579,1442084,73777,9580,720753,0
7,3,707235,248174,1282278,73598,8673,640864,0
7,3,716066,250890,1416088,74827,8885,707478,0
7,-1,636869,218281,1305996,65523,6974,652607,0
7,3,707715,248512,1501537,73744,9927,750495,0
7,3,711964,248785,1449196,73936,9721,724262,0
7,3,714665,249918,1388466,74421,8510,693839,0
7,-1,644544,220304,1287168,66458,8470,643755,0
7,3,714298,249221,1486247,74119,9650,742751,0
7,3,716146,250021,1366126,74219,10129,682643,0
7,3,711265,250683,1436537,74436,9797,717505,0
7,-1,636797,218901,1218066,65742,7828,608734,0
7,3,712711,250325,1464797,74316,10384,732030,0
7,3,717214,251510,1502305,74937,9786,750567,0
7,-1,639976,220973,1355315,66793,8284,677075,2
7,3,710754,250212,1490086,74368,9659,744503,0
7,3,712498,250007,1327974,74371,8694,663642,0
7,-1,643241,220620,1421123,66617,7819,709942,0
7,3,714124,249197,1516254,74036,9728,757725,0
7,3,734097,253667,1364270,77309,10503,681682,0
7,3,713020,249664,1347442,74212,9027,673304,0
7,-1,641033,219620,1222110,66091,7369,610614,0
7,3,715982,251386,1452596,75123,10846,725692,0
7,3,710868,248800,1471759,73905,8862,735126,0
7,3,712035,248591,1424159,73873,9306,711691,0
7,3,710786,250455,1378465,74809,9602,688623,0
7,3,706837,248512,1371625,73925,8719,685454,0
7,3,736035,257499,1456725,76421,9827,727984,0
7,-1,641106,219988,1256902,66019,7015,628020,0
7,3,706253,247932,1624938,73578,9996,812156,0
7,3,708511,247852,1335834,73618,8814,667544,0
7,3,709352,247979,1454809,73614,9326,727060,0
7,-1,664030,224265,1255350,69332,8537,627171,0
7,3,707699,248198,1414577,73723,8351,706919,0
7,3,710851,249202,1339487,74060,9437,669375,0
7,3,709881,249266,1353498,74010,9765,676497,0
7,3,711908,248404,1478043,73559,9251,738644,0
7,-1,643595,219363,1147437,65940,7730,573187,0
7,3,714078,248809,1435223,73749,9873,717247,0
7,3,708278,248763,1522974,73652,8732,761266,0
7,3,710791,248472,1456240,73642,9066,727817,0
7,3,708847,248349,1379878,73613,9016,689596,0
7,3,711402,248607,1380859,73785,10082,689976,0
7,-1,642530,219561,1274154,65828,7588,636494,0
7,3,710588,248882,1364103,73875,9056,681515,0
7,3,707179,248246,1413333,73682,9744,706282,0
7,3,709252,247984,1333247,73535,9237,666175,0
7,-1,642430,219780,1236792,65982,7576,617955,0
7,3,708654,247795,1466635,73474,9916,732915,0
7,3,711127,248142,1294945,73593,10405,647105,0
7,3,709283,248902,1479482,73904,9903,739318,0
7,3,711763,248526,1379336,73765,9320,689253,0
7,-1,636807,218972,1246874,65763,7154,623093,2
7,3,710364,247994,1639074,73600,9653,818719,0
7,3,709769,248116,1403102,73632,9503,700985,0
7,3,710174,248025,1369357,73552,9385,684339,0
7,-1,640152,219058,1299736,65807,7532,649469,0
7,3,736622,253125,1406367,76979,10753,702857,0
7,3,709613,247768,1502113,73486,9360,750610,0
7,3,713515,248269,1335522,73687,9665,667449,0
7,3,709583,248417,1427596,73712,8837,713429,0
7,3,712274,248189,1401724,73667,9100,700017,0
7,-1,644570,221454,1352664,66857,7908,675729,2
7,3,715630,248831,1411763,73867,8420,705305,0
7,3,703420,248298,1377883,73226,8493,688599,0
7,-1,639149,219270,1406360,65842,7551,702832,0
7,3,705554,248620,1353065,73309,8772,675988,0
7,-1,643623,220366,1150516,66255,7196,574890,2
7,3,702006,247952,1414356,73046,9445,707002,0
7,3,706193,248579,1512739,73297,8939,756015,0
7,3,710218,249538,1495129,73789,8937,747062,0
7,-1,665395,224217,1318804,69443,8581,658914,0
7,3,702970,248208,1419812,73200,9240,709700,0
7,-1,636717,219398,1363133,66052,7789,681118,2
7,3,705782,248434,1439944,73262,8886,719501,0
7,3,706487,247987,1711873,73134,10567,855628,0
7,3,710937,249732,1425715,74893,10295,712225,0
7,-1,639286,219333,1300513,66097,7487,649914,2
7,3,712921,248339,1593729,74157,10475,796597,0
7,-1,642897,219488,1269220,66032,7206,634229,0
7,3,711439,247988,1339504,74044,10558,669429,0
7,3,705310,247977,1464070,74015,9365,731728,0
7,-1,641221,219023,1344353,65898,7543,671884,0
7,3,714862,250615,1336010,75238,8357,667459,0
7,3,708625,248987,1484005,74540,10146,741499,0
7,3,709949,249321,1373555,74655,8620,686295,0
7,3,731093,252900,1518040,77513,9967,758498,0
7,-1,642638,219227,1247936,66025,8125,623599,0
7,3,712111,249697,1262641,74923,8960,630789,0
7,-1,642166,220352,1223967,66399,7520,611645,2
7,3,711025,248220,1473346,74126,9933,736348,0
7,3,710316,247920,1425522,74029,9481,712474,0
7,3,710199,249077,1486806,74445,9740,742679,0
7,3,708882,248050,1415522,74121,8638,707340,0
7,-1,642708,219780,1288186,66210,8046,643617,2
7,3,714323,248491,1476599,74278,9998,737639,0
7,-1,642996,219681,1344885,66145,8098,671803,0
7,3,706150,248533,1433597,74271,9098,716286,0
7,3,707707,248065,1422783,74045,9100,711043,0
7,3,707904,248001,1429211,74071,8702,714103,0
7,-1,641281,218818,1353351,65848,7503,676374,2
7,3,708819,248474,1391047,74215,10296,695078,0
7,-1,644599,219041,1210540,65948,7027,604975,0
7,3,709364,247897,1415664,74013,8802,706767,0
7,3,708783,249606,1433752,74834,10096,715911,0
7,3,711570,249227,1366671,74702,9148,682710,0
7,3,708620,248180,1634060,74131,10123,816532,0
7,3,710909,248964,1290791,74373,9407,645121,0
7,3,713714,248619,1364982,74249,8823,682072,0
7,-1,635714,219617,1224537,66125,7714,611795,2
7,3,717563,249819,1726851,74760,11509,862915,0
7,-1,631876,218430,1202603,65661,8148,600935,0
7,3,706207,247763,1388552,73882,8793,693798,0
7,3,711580,249387,1443962,74426,9661,721642,0
7,3,732554,253013,1486960,77372,10372,743122,0
7,3,713140,247942,1320390,73928,8924,659878,0
7,3,710617,248087,1612259,74092,10847,805433,0
7,3,714207,249588,1340370,74793,9316,669370,0
7,-1,636500,218678,1238645,65800,7344,619038,0
7,3,709290,248333,1457941,74041,9579,728622,0
7,-1,634846,218872,1336745,65945,7603,667966,2
7,3,718058,249874,1390469,74892,10504,694447,0
7,3,736592,253215,1527571,77493,10876,763455,0
7,3,717674,249535,1385840,74740,9592,692409,0
7,-1,636055,219956,1246498,66265,7869,622879,2
7,3,708371,249075,1472387,74300,10127,735880,0
7,-1,655043,223140,1207464,69060,8170,603303,0
7,3,711505,249536,1537687,74528,9471,768202,0
7,3,711059,248910,1444113,74456,8844,721784,0
7,3,715554,249420,1448688,74518,9592,723995,0
7,3,712777,249268,1482467,74602,10019,740852,0
7,3,711507,249777,1546555,74792,10961,772841,0
7,-1,635944,219409,1294544,66053,7216,646871,0
7,3,709820,248437,1521354,74278,10185,760264,0
7,3,713163,249553,1439415,74604,9893,719388,0
7,3,714033,249132,1417654,74424,10224,708185,0
7,3,714405,249738,1356988,74694,9716,677854,0
7,-1,639668,219833,1225646,66182,7176,612423,0
7,3,720287,250514,1387431,75127,9593,693111,0
7,3,715035,251400,1399633,75557,9213,698844,0
7,3,714162,249820,1342250,74703,9575,670673,0
7,3,717699,250062,1412056,74678,9876,705582,0
7,-1,641576,219782,1317651,66202,7593,658366,0
7,3,718059,250898,1306555,75205,9412,652544,0
7,3,718883,250505,1396131,74965,9827,697446,0
7,3,735551,254418,1458688,77808,10200,728964,0
7,3,717801,250809,1355985,75106,8796,677368,0
7,3,717579,250331,1367194,74972,9344,682849,0
7,3,737070,254067,1535811,77746,10719,767457,0
7,-1,637069,219660,1194817,66200,7338,596870,2
7,3,716194,249038,1510174,74354,9696,753482,0
7,-1,637174,219229,1282372,65977,7555,640968,0
7,3,708918,249382,1353474,74419,9690,676408,0
7,3,711528,249249,1481056,74443,9157,740115,0
7,-1,634841,218578,1134780,65834,7115,566905,0
7,3,733828,254423,1485254,77906,9885,742288,0
7,-1,639419,220106,1325169,66225,8443,661982,2
7,3,714049,250196,1320031,74928,8667,659251,0
7,3,718299,250535,1452207,74829,9424,725700,0
7,3,713065,249730,1341196,74565,8164,670131,0
7,3,717308,249848,1434642,74682,10094,716803,0
7,3,714058,248666,1490074,74287,8648,744687,0
7,-1,635791,219840,1344975,66164,8930,672012,2
7,3,715721,250398,1308265,74896,8825,653496,0
7,-1,633628,218469,1277176,65589,7395,638226,0
7,3,716259,248873,1389056,74147,9300,694177,0
7,3,713147,249108,1392646,74321,8569,695962,0
7,3,710926,248763,1379304,74216,8893,689292,0
7,-1,637780,219539,1246955,66007,7026,623190,2
7,-1,639289,219169,1347915,65943,6825,673082,0
7,3,731191,252987,1668569,77399,11320,833899,0
7,3,715386,249342,1355992,74390,9208,677229,0
7,3,716891,249311,1543748,74388,10794,771241,0
7,3,712513,248633,1530352,74167,9548,764673,0
7,3,710361,247857,1444180,73977,9395,721767,0
7,-1,637588,218854,1248883,65736,7659,624062,0
7,3,712826,247668,1501915,74051,9408,750318,0
7,3,715124,248648,1360072,74448,9544,679690,0
7,3,712754,248498,1503319,74408,9808,751085,0
7,3,707415,249263,1510861,74659,9841,754906,0
7,3,709848,249942,1505531,75159,9998,752065,0
7,-1,645428,220640,1375666,66564,8891,686887,0
7,-1,643360,220383,1339519,66309,8723,669754,2
7,3,708776,249203,1512994,74823,8826,756017,0
7,3,710933,248477,1605173,74392,11560,803316,0
7,3,730445,252243,1543100,77430,9699,771174,0
7,-1,637428,219621,1320786,66058,8027,659930,0
7,-1,634466,219467,1285758,66022,8624,642533,2
7,3,707219,247089,1500235,73831,9562,749770,0
7,3,709920,248225,1450396,74204,9211,724451,0
7,-1,656953,223536,1214704,69101,7953,606861,0
7,3,707349,248128,1336626,74176,8414,667901,0
