2,0,0.0314083
2,1,0.0309017
2,2,0.0309017
2,3,0.0309017
2,4,0.0309017
2,5,0.0309017
2,6,0.0309017
2,7,0.0309017
2,8,0.0309017
2,9,0.0309017
2,10,0.0309017
2,11,0.0314083
2,12,0.0314083
2,13,0.0314083
2,14,0.0314083
2,15,0.0314083
2,16,0.0314083
2,17,0.0314083
2,18,0.0314083
2,19,0.0314083
2,20,0.0314083
2,21,0.0314083
2,22,0.0314083
2,23,0.0314083
2,24,0.0314083
2,25,0.0314083
2,26,0.0314083
2,27,0.0314083
2,28,0.0314083
2,29,0.0314083
2,30,0.0314083
2,31,0.0314083
