0,0,20,645303.000000,220841.250000,1258495.550000,66541.750000,7760.450000,629233.500000,16335.485282,4942.024766,78533.178862,1865.864032,678.251537,39264.421346
0,1,13,714696.307692,250393.153846,1371248.307692,74598.615385,9056.692308,685547.076923,13860.190349,4762.736864,64914.210014,1255.908347,491.470538,32492.454874
1,0,19,642786.631579,220017.947368,1291608.526316,66344.473684,7914.157895,645737.210526,6739.994512,1444.395720,61573.159595,1066.324399,616.806484,30720.898107
1,1,12,711728.500000,249202.000000,1409575.000000,74424.250000,9312.416667,704656.416667,6937.629332,1297.907033,97188.149452,990.441158,687.730502,48434.829748
2,0,19,642369.368421,219823.736842,1294766.789474,66179.736842,7854.684211,647331.736842,5571.242101,1363.810368,90184.572620,843.062328,407.101701,45122.815455
2,1,12,714702.250000,249832.416667,1385256.583333,74806.583333,9336.416667,692598.166667,9168.164076,2210.549308,78247.097626,1267.968155,748.190089,39290.822437
3,0,19,645087.894737,220342.736842,1272546.052632,66601.789474,7720.947368,636227.473684,9661.820265,2132.079510,65863.459446,1414.166951,501.833006,32927.714520
3,1,12,711114.500000,248894.416667,1412979.750000,74197.666667,9099.333333,706425.500000,4194.902353,775.188628,65804.372527,365.854783,405.416521,32917.031300
4,0,19,641806.421053,219974.421053,1266672.736842,66227.684211,7531.000000,633292.263158,5901.244644,1211.592963,50977.958223,745.164698,477.358962,25435.273174
4,1,12,713993.666667,249578.500000,1440750.083333,74602.166667,9411.000000,720349.416667,7831.832824,1686.429932,68872.105122,897.298058,537.849576,34443.135914
5,0,19,644484.631579,220559.368421,1294083.105263,66606.052632,7745.736842,647029.631579,8560.922652,1864.602264,59417.600333,1229.210507,610.188741,29740.726183
5,1,12,712367.916667,249425.166667,1439808.083333,74568.833333,9457.250000,719862.833333,6216.805577,1465.067680,119323.558758,940.905843,609.796978,59679.349531
6,0,19,644594.578947,220499.157895,1285646.631579,66650.105263,7891.894737,642807.947368,8621.833523,1816.278852,46696.264803,1347.710686,543.356905,23364.690860
6,1,12,714404.583333,249418.500000,1404491.083333,74707.750000,9154.666667,702123.000000,6455.817641,1801.735575,84271.577385,1240.100206,477.554244,42154.350345
7,0,19,643833.052632,220284.684211,1245853.789474,66536.368421,7731.105263,622872.842105,7083.694579,1511.792838,55722.319869,1055.440652,616.487751,27870.274380
7,1,12,713929.416667,249460.083333,1385619.000000,74582.416667,9253.583333,692814.083333,5998.232552,1271.365766,60984.231026,953.845066,405.032398,30515.715734
8,0,19,643473.210526,220333.157895,1273323.263158,66474.789474,7865.315789,636624.210526,7285.237269,1717.205878,64015.614214,1027.865677,537.178207,31970.592011
8,1,12,715424.583333,249793.250000,1391786.166667,74721.083333,9353.750000,695817.250000,7751.169594,1596.860103,66237.813763,1240.453913,674.521451,33127.327390
9,0,19,643170.368421,219859.578947,1270103.105263,66227.000000,7841.263158,634994.368421,6397.229961,1299.557468,66714.612873,983.196559,554.514092,33372.377002
9,1,12,712910.416667,249299.250000,1389927.750000,74442.666667,9275.000000,694895.333333,5585.618072,1511.237745,78665.704095,978.909966,692.875049,39297.193100
10,0,19,643361.368421,220192.000000,1263843.578947,66312.263158,7764.947368,631859.684211,5929.436862,1481.033672,54688.045458,856.272266,529.032331,27289.514190
10,1,12,713951.500000,249428.083333,1430181.666667,74499.333333,9471.916667,714902.250000,7821.030745,1521.659700,83301.737756,1092.782254,573.112621,41415.520867
11,0,19,644381.684211,220355.789474,1294808.894737,66564.842105,7758.000000,647362.473684,7423.690620,1703.853267,81892.933078,1187.328459,469.889909,40931.043241
11,1,12,713912.333333,249348.916667,1403714.000000,74477.750000,9327.916667,701750.083333,6183.646084,1587.759714,88437.932824,1024.529252,680.194759,44104.769756
12,0,19,640664.210526,219668.000000,1262895.894737,66063.473684,7666.736842,631443.421053,3784.760238,1125.262402,70004.365670,499.986460,505.348639,35008.525955
12,1,12,714844.500000,250148.833333,1391746.250000,74586.250000,9459.416667,695862.000000,9410.380124,3267.332751,45554.099020,1097.006618,507.087510,22773.081844
13,0,19,643594.894737,220525.421053,1276189.263158,66427.210526,7664.631579,638076.421053,8550.839712,2417.938777,55194.701598,946.824809,440.402114,27588.984370
13,1,12,714409.916667,249719.666667,1402417.333333,74707.500000,9362.000000,701107.000000,8534.883767,1556.719539,73176.527826,1239.948420,755.565572,36564.161424
14,0,19,645406.157895,220899.578947,1271849.631579,66818.052632,7687.263158,635877.105263,8246.067256,1766.401108,59281.176171,1308.811211,278.246926,29609.716954
14,1,12,713094.416667,249551.666667,1440194.083333,74526.416667,9674.000000,720084.166667,5706.139522,1593.629104,101767.375645,937.645407,736.372754,50822.445602
15,0,19,641757.052632,219955.315789,1274114.473684,66196.210526,7529.473684,636938.368421,6931.351797,1353.891508,46212.706332,821.284782,545.904307,23108.174120
15,1,12,716939.500000,250327.000000,1428187.500000,75063.250000,9587.833333,714054.000000,8234.397392,1866.369917,59922.213468,1361.668286,649.521726,29950.978075
16,0,19,641242.368421,219590.947368,1274984.421053,66047.736842,7399.052632,637418.631579,5844.882496,1179.117488,52345.132129,810.040535,484.690837,26173.768110
16,1,12,712554.416667,249268.500000,1428096.166667,74462.750000,9533.166667,713897.333333,9268.288681,1704.531387,56542.607372,1339.152849,552.365494,28242.393092
17,0,19,643002.315789,220039.473684,1276372.263158,66328.105263,7686.684211,638162.789474,7878.789889,1659.863703,67428.332709,1063.184140,565.725436,33780.502225
17,1,12,712444.750000,248928.166667,1386925.000000,74234.083333,9389.166667,693425.250000,7078.288872,1294.854614,41205.403100,985.339659,609.672020,20557.753355
18,0,19,641061.263158,219699.947368,1299643.684211,65992.157895,7787.421053,649705.263158,4092.385572,964.541750,94069.241067,487.954513,603.463540,46927.559258
18,1,12,713404.916667,249405.583333,1387311.666667,74478.333333,9461.333333,693520.416667,7339.900050,1662.325252,44369.886662,982.632038,459.925417,22156.174100
19,0,19,642911.789474,220199.631579,1283673.684211,66334.421053,7611.421053,641781.105263,5663.912555,1122.831862,94380.286006,736.777429,612.278859,47181.151493
19,1,12,716652.083333,250715.666667,1393549.500000,75034.916667,9415.416667,696654.833333,10499.723563,2892.017126,67529.485773,1409.676645,672.028082,33769.534322
20,0,19,644512.052632,220350.368421,1262065.842105,66505.789474,7638.947368,630969.000000,9120.808537,1806.488254,62397.506627,1218.956265,375.699554,31190.641140
20,1,12,722190.166667,252100.083333,1421236.916667,75497.583333,9401.500000,710570.250000,15697.750852,4771.465419,86964.395163,1977.198795,607.669249,43477.126563
21,0,19,645441.052632,220860.842105,1309231.105263,66621.105263,7682.210526,654588.631579,9303.508475,2988.386631,55381.843820,1289.203830,735.106335,27679.031996
21,1,12,712836.416667,249488.416667,1404566.166667,74481.250000,9354.750000,702107.750000,6651.166332,1261.510435,73698.075230,976.506454,543.799002,36645.569746
22,0,19,643559.736842,220258.263158,1296745.789474,66413.263158,7642.421053,648284.631579,5900.366597,1387.537760,67431.044864,909.433881,696.936629,33670.953736
22,1,12,713466.666667,249724.750000,1407001.000000,74717.166667,9370.083333,703389.333333,8099.966896,1878.944168,80942.801034,1333.538390,622.044406,40456.921234
23,0,19,642788.368421,220088.105263,1259232.947368,66361.894737,7353.789474,629592.473684,5756.573946,1488.766246,62922.542099,1066.856617,474.568677,31445.733737
23,1,12,710957.833333,249109.333333,1414635.000000,74300.166667,9123.416667,707282.666667,6713.318887,1421.318597,80205.030146,935.825646,408.077701,40133.539225
24,0,19,644580.157895,220467.631579,1265106.894737,66603.894737,7719.105263,632459.947368,8295.216988,1969.932839,71552.779967,1301.017169,627.102182,35703.194282
24,1,12,711390.000000,248934.083333,1443298.500000,74158.166667,9329.083333,721666.083333,3449.280650,636.992734,75834.503567,478.726755,726.029781,37905.702375
25,0,19,642948.210526,219976.368421,1277504.105263,66308.473684,7586.052632,638749.894737,7448.723632,1460.463633,66842.580484,1041.707978,516.817536,33421.446836
25,1,12,712565.750000,248983.500000,1405893.583333,74274.750000,9206.250000,702908.000000,6342.142029,1644.889586,63690.126578,1024.393001,347.361033,31863.816734
26,0,19,643860.315789,220601.578947,1316296.000000,66525.526316,7726.421053,658081.631579,8413.697786,2551.096943,78423.071625,1149.421611,563.543798,39160.985994
26,1,12,713919.666667,249840.833333,1408494.916667,74723.833333,9368.250000,704166.750000,8745.347805,1753.866768,66953.551165,1366.158839,832.744671,33448.790903
27,0,19,640190.578947,219539.473684,1292854.736842,65978.736842,7637.157895,646366.631579,3666.738524,932.345563,101901.805480,378.643540,442.683119,50869.091306
27,1,12,711035.500000,249108.666667,1388194.416667,74210.916667,9355.000000,693858.750000,3308.172015,806.981034,70660.967678,497.615055,681.195395,35202.885820
28,0,19,643891.526316,220515.789474,1280226.052632,66619.263158,7696.157895,640090.315789,7179.609016,1498.415675,97762.108073,1104.984965,674.894086,48911.290745
28,1,12,715763.166667,250426.250000,1412312.500000,74827.916667,9500.583333,706082.833333,7670.857186,2486.384561,78734.817634,1106.010056,808.303930,39346.870945
29,0,19,641237.473684,220081.105263,1264346.947368,66176.052632,7462.157895,632065.789474,4369.237334,1340.362987,48573.998838,490.284394,436.338626,24322.591494
29,1,12,713224.750000,249422.000000,1393335.833333,74479.416667,9168.583333,696604.250000,5135.389049,1557.954107,73234.808570,749.161249,599.962146,36610.665778
30,0,19,647972.315789,221420.842105,1276836.105263,67005.947368,7707.526316,638432.263158,14154.395665,3879.493988,69931.527363,1784.226103,455.935403,35073.589225
30,1,12,710975.000000,249036.250000,1431364.083333,74174.416667,9652.166667,715466.250000,3315.265927,857.649805,61454.372484,321.215519,637.018031,30876.679636
31,0,19,642797.263158,220435.526316,1281947.315789,66333.000000,7554.789474,640884.368421,8530.984986,2915.020003,80977.585259,1049.587538,523.493184,40535.798356
31,1,12,710943.166667,249014.416667,1370933.250000,74184.500000,9093.833333,685425.333333,3884.118172,759.091283,88764.733465,428.353728,641.384938,44373.308152
32,0,19,648412.894737,221666.210526,1284786.105263,67000.052632,7654.894737,642280.210526,13352.794740,4404.133233,80730.542173,1669.062185,592.093333,40249.092950
32,1,12,715077.083333,249832.250000,1371068.500000,74867.583333,9194.166667,685439.250000,9471.635854,2239.463408,66260.399467,1629.862032,447.223068,33137.580218
33,0,19,645682.157895,221257.684211,1290315.947368,66705.000000,7670.631579,645129.526316,16206.284701,5198.048815,59394.276781,1986.260888,569.143328,29714.441290
33,1,12,713806.416667,249405.666667,1365897.250000,74522.416667,9099.166667,682860.666667,5807.150570,1330.898590,56426.220396,989.730557,646.500559,28227.106031
34,0,19,647572.473684,221502.842105,1303003.526316,66937.684211,7818.473684,651460.526316,13396.572411,4151.296656,61435.041713,1520.418469,611.837471,30646.009251
34,1,12,714283.500000,249550.583333,1366589.416667,74549.000000,8747.500000,683240.333333,6543.959715,1364.700300,68725.206409,978.183521,661.963431,34383.155715
35,0,19,644141.789474,220765.789474,1253986.578947,66346.894737,7464.157895,626862.210526,11454.474647,4187.145310,74273.085377,1193.851040,564.972963,37078.909929
35,1,12,712405.416667,249018.083333,1413204.583333,74360.083333,9199.916667,706497.750000,6562.731983,1412.565483,56283.457744,1026.772407,661.725076,28074.371014
36,0,19,648244.684211,221780.947368,1294169.894737,66980.263158,7986.368421,646969.421053,13681.971365,4524.930095,52916.608914,1704.456846,686.071671,26425.825549
36,1,12,716912.916667,250245.750000,1403526.166667,75083.916667,9523.000000,701602.416667,9841.946856,1915.002878,76528.929457,1527.465409,542.274684,38181.009124
37,0,19,647893.157895,221718.736842,1265389.842105,67033.736842,7677.157895,632691.842105,12891.965435,4150.830035,57122.571859,1562.107310,519.226881,28565.285771
37,1,13,713899.384615,249513.461538,1390412.846154,74543.538462,9100.538462,695110.846154,4732.581220,1167.954465,93095.763692,780.612246,669.986178,46505.434139
38,0,19,645397.526316,221090.157895,1256982.368421,66646.526316,7447.000000,628466.421053,12102.542492,3936.796885,48247.237897,1360.421621,601.852229,24142.600556
38,1,13,710324.923077,248667.538462,1389013.846154,74093.538462,8933.692308,694406.076923,3696.771096,871.440683,67146.434952,442.164713,607.912112,33441.502270
39,0,19,646285.526316,221320.368421,1277709.789474,66813.421053,7621.894737,638835.894737,13161.171286,4237.460029,73670.797626,1535.200803,528.001385,36844.337861
39,1,13,713937.307692,249728.076923,1428932.230769,74649.692308,9662.538462,714360.538462,6460.443226,1301.171157,75340.663012,855.081767,860.604673,37642.065135
40,0,19,646033.473684,221315.947368,1281152.105263,66706.315789,7497.842105,640483.315789,13546.309299,3997.996978,66680.768106,1304.821224,674.422034,33396.631415
40,1,13,715985.153846,249755.538462,1422029.769231,74833.384615,9413.461538,710960.538462,6871.573729,1832.408949,85624.281723,1246.648957,639.097755,42773.479313
41,0,19,645976.105263,221127.842105,1265672.789474,66633.473684,7757.105263,632802.105263,14721.096240,4529.532301,66209.866363,1579.353111,450.434281,33066.218387
41,1,13,712418.846154,249458.846154,1433343.076923,74417.615385,9259.076923,716607.307692,4148.561379,1129.904478,160572.559106,509.685052,675.795880,80319.429362
42,0,19,645797.894737,220941.789474,1263947.210526,66591.210526,7658.736842,631891.578947,18400.956826,5433.024171,66226.084227,2009.330226,687.278603,33074.388443
42,1,13,713169.230769,249342.769231,1425141.384615,74476.000000,9288.846154,712406.538462,6587.168262,1666.788767,66369.974588,936.139618,577.817092,33164.191063
43,0,19,646611.368421,221329.000000,1304803.473684,66747.315789,7799.894737,652345.631579,13410.359606,4089.403032,78660.852127,1404.887261,495.306274,39370.116840
43,1,13,714353.769231,249855.846154,1396112.000000,74785.000000,9714.307692,698125.153846,7928.019242,1716.255533,101655.485221,1228.197804,822.653809,50904.964556
44,0,19,645511.105263,221022.578947,1315811.473684,66590.157895,7585.684211,657882.368421,14006.995879,4284.814979,70100.636345,1440.708826,522.847976,35054.651970
44,1,13,712782.307692,249211.846154,1351539.230769,74383.307692,9136.384615,675718.538462,6327.821540,1594.425233,45629.349415,909.522815,613.945567,22836.285204
45,0,19,645086.105263,220984.210526,1279822.210526,66596.473684,7641.631579,639889.315789,12568.194033,3969.145852,82656.452731,1372.277529,548.491252,41339.183641
45,1,13,712937.692308,249521.153846,1371347.153846,74454.461538,8946.846154,685614.615385,3238.800974,978.809155,109859.426085,489.217682,470.214165,54989.799336
46,0,19,651576.210526,222387.578947,1302358.947368,67536.789474,7977.684211,651071.315789,18444.283212,5242.375710,86478.338557,2179.800802,846.894765,43249.171210
46,1,13,714762.307692,249627.153846,1404994.846154,74665.461538,8948.538462,702489.692308,8590.234656,1765.268332,125867.368368,1273.207858,837.136384,62968.522358
47,0,19,643305.789474,220607.157895,1290178.368421,66376.789474,7664.578947,645046.157895,12931.224546,4077.889073,59900.213018,1283.610147,612.669510,29969.532921
47,1,13,715937.230769,249988.076923,1435827.615385,74832.461538,9230.461538,717838.153846,8728.511717,1864.174862,80337.111122,1200.759030,785.254355,40060.445604
48,0,19,646491.578947,221575.684211,1272779.842105,66731.315789,7696.315789,636304.105263,13315.517249,4705.447381,66860.540329,1497.770731,470.117796,33378.757402
48,1,13,715944.384615,249949.000000,1396691.307692,74926.076923,9093.076923,698293.076923,8576.944288,2111.003043,71567.096129,1432.103212,617.248169,35748.719778
49,0,19,648345.842105,222121.473684,1300507.578947,67151.000000,8055.368421,650174.631579,14437.453188,4319.109196,98978.523520,1549.918572,697.171368,49475.187077
49,1,13,713700.230769,249958.923077,1426150.615385,74606.230769,9139.076923,713058.000000,7718.487039,2528.245529,126095.138396,1022.085361,537.660811,63043.669561
50,0,19,645241.000000,221081.526316,1285104.421053,66605.631579,7837.105263,642521.947368,12719.597134,4034.441374,67582.991280,1382.838926,538.655529,33765.237880
50,1,13,714485.692308,249627.769231,1388269.846154,74714.000000,9463.076923,694079.769231,7704.705080,1785.578732,65276.687893,1133.001052,504.077598,32645.051976
51,0,19,645696.526316,221312.578947,1295106.421053,66738.842105,7909.210526,647489.000000,16421.096359,4991.546995,107387.760021,1868.954401,607.430531,53690.334165
51,1,13,711485.461538,248995.153846,1405092.615385,74205.000000,9257.230769,702532.000000,2634.376546,737.004315,90236.238407,394.544918,675.806544,45117.164332
52,0,19,646959.947368,221754.578947,1276827.473684,66869.894737,7701.052632,638362.578947,13832.425975,4549.592131,57914.008227,1501.767727,649.055952,28924.064058
52,1,13,715004.461538,249705.307692,1412971.769231,74733.076923,9437.307692,706449.923077,7838.653756,1776.897745,75607.220481,1171.678839,823.215215,37818.980651
53,0,19,644327.947368,220744.052632,1279061.210526,66471.894737,7746.894737,639538.947368,12426.620981,4112.941699,74651.976367,1463.557019,588.674058,37351.831109
53,1,13,710736.461538,249160.461538,1367480.538462,74300.846154,9053.461538,683734.384615,2531.300050,795.756884,52705.819976,462.279943,622.889373,26353.509031
54,0,19,645208.578947,221019.421053,1297662.263158,66594.789474,7793.368421,648771.789474,12744.812700,4070.800132,93479.137524,1388.320780,598.321354,46674.344841
54,1,13,715172.846154,250371.307692,1402694.769231,74811.384615,9268.153846,701290.153846,8297.414916,2538.351354,106354.335212,1128.236509,803.237952,53212.485036
55,0,19,645476.736842,221224.684211,1303872.157895,66645.894737,7854.421053,651918.789474,13352.177653,4097.028012,69014.982362,1420.172595,579.204020,34499.137589
55,1,13,712102.076923,249189.230769,1370444.538462,74269.076923,9262.461538,685164.846154,3692.504267,839.835254,73452.809202,318.711700,661.766240,36713.456889
56,0,19,647972.684211,221773.789474,1274439.526316,67118.210526,7781.736842,637173.894737,13889.271911,4171.797588,83988.899974,1711.774628,823.354297,42009.996823
56,1,13,711472.076923,249273.615385,1405570.076923,74313.153846,9101.076923,702584.000000,2439.182128,585.402891,57073.732885,409.409302,383.784487,28406.721935
57,0,19,644566.052632,220911.473684,1300264.368421,66467.842105,7808.578947,650086.263158,13686.668748,4582.897915,61813.768059,1476.138321,538.223815,30892.042324
57,1,13,715783.615385,250656.000000,1410281.153846,74776.846154,9059.153846,705105.769231,14997.431609,5194.404386,68222.395799,1579.505076,612.896007,34105.339517
58,0,19,645718.368421,220925.578947,1280608.368421,66581.631579,7797.210526,640254.052632,16968.802551,5061.359858,66199.940026,1912.855215,605.026105,33061.068955
58,1,13,720114.692308,251141.769231,1408057.923077,75218.230769,9349.923077,703966.923077,14262.532262,4773.707447,53911.972089,1615.439028,585.005518,26935.449132
59,0,19,645851.210526,220943.000000,1289976.684211,66565.736842,7840.157895,644980.578947,13436.530303,4256.428253,65254.684497,1559.524889,590.660403,32644.483466
59,1,13,716665.153846,250602.538462,1412195.076923,74690.384615,9248.692308,706001.153846,13987.378744,4864.241179,62076.457817,1286.281255,932.608615,30984.210587
60,0,19,644494.000000,220714.263158,1234513.210526,66412.947368,7565.315789,617219.894737,12927.698831,4487.909370,58480.695927,1478.597040,452.297882,29275.386288
60,1,13,716592.846154,250751.538462,1428087.846154,74724.000000,9262.846154,713990.846154,13965.998765,4764.670424,86395.387820,1243.318945,550.803727,43278.520693
61,0,19,648541.894737,221355.578947,1278478.736842,66847.368421,7750.368421,639233.473684,13562.953435,4015.656443,65849.931127,1595.468161,698.406171,32891.315970
61,1,13,716297.153846,250494.846154,1400096.153846,74737.692308,9264.000000,700031.615385,16254.139425,5355.112034,55056.332124,1676.710488,558.203712,27521.443837
62,0,20,646215.750000,221143.950000,1291276.850000,66714.950000,7584.500000,645613.750000,13061.606126,4066.167587,103092.355037,1412.909320,589.848074,51543.635152
62,1,13,717307.692308,251022.846154,1399326.000000,74748.153846,9320.615385,699639.615385,15316.347463,5078.055001,57572.649457,1384.221961,418.190155,28759.206423
63,0,33,642179.393939,220324.575758,1298295.424242,66266.303030,7706.000000,649147.393939,10341.416232,3571.932446,69584.904230,1069.429343,462.226955,34791.027464
63,1,13,721342.000000,251636.461538,1400209.923077,75539.076923,9418.230769,700042.307692,14765.419950,4794.821431,85461.762187,1838.679981,700.692202,42713.815658
