0,-1,698476,238550,1323258,71467,8397,661620,0
0,-1,632403,217831,1163045,65502,6758,581521,2
0,-1,648889,220211,1339106,66325,7620,669884,0
1,-1,635471,217840,1251533,65365,7384,625770,2
1,-1,643865,218488,1192664,65473,6332,596385,0
2,-1,640715,220459,1296417,66492,8247,647712,2
2,-1,642709,218121,1142869,65250,5841,571211,0
3,-1,638741,218455,1213553,65563,7886,606813,2
3,-1,648602,220162,1161114,66204,6772,580616,0
4,-1,637284,218387,1310606,65666,7731,655308,2
4,-1,641246,217911,1228064,65237,6591,614084,0
5,-1,633935,219128,1145853,65879,6453,572849,2
5,-1,639311,217470,1271386,65027,6913,635711,0
6,-1,634661,218182,1285152,65492,7273,642678,2
6,-1,641112,217872,1183057,65223,6778,591543,0
7,-1,634937,218188,1131942,65407,7081,566094,2
7,-1,640645,218192,1254561,65300,7121,627330,0
8,-1,638509,218235,1235021,65526,7685,617556,2
8,-1,640170,217771,1189300,65231,6992,594757,0
9,-1,638088,218570,1240083,65644,7806,620091,2
9,-1,638229,217746,1240859,65154,7163,620350,0
10,-1,639596,218877,1165770,65913,6798,583025,2
10,-1,647740,219975,1221479,66129,8537,610743,0
11,-1,645917,221127,1269315,66729,7560,634394,2
11,-1,642600,218636,1249801,65509,7300,624798,0
12,-1,636126,218877,1159533,65684,7020,579818,2
12,-1,641322,218343,1261770,65429,7362,630664,0
13,-1,635853,218373,1201862,65622,7174,600940,2
13,-1,642493,219364,1310966,65885,6945,655513,0
14,-1,635156,218219,1152314,65541,6668,576214,2
14,-1,641882,218845,1470302,65626,8364,735091,0
15,-1,641319,219313,1120595,66034,6641,560352,2
15,-1,641919,218433,1120299,65566,6880,560103,0
16,-1,637468,218521,1218211,65827,6424,609158,2
16,-1,661548,223093,1301307,68824,8372,650586,0
17,-1,640462,219533,1255964,66130,7986,628028,2
17,-1,641989,219054,1267248,65726,7538,633672,0
18,-1,639390,217908,1230075,65573,7201,615089,2
18,-1,641277,219068,1234901,65719,7413,617496,0
19,-1,632747,218511,1135818,65825,6979,567963,2
19,-1,647631,220064,1216542,66325,8084,608362,0
20,-1,634464,219200,1221776,66036,7234,610978,2
20,-1,641347,218008,1193758,65352,7604,596827,0
21,-1,636621,220121,1243678,66614,7566,621834,2
21,-1,642951,218922,1292327,65674,8537,646071,0
22,-1,633882,218969,1271487,65918,8701,635854,2
22,-1,641473,217914,1260235,65370,8091,630036,0
23,-1,632593,218613,1231114,65765,7743,615519,2
23,-1,642761,218699,1388015,65566,7701,693676,0
24,-1,634711,218965,1271225,65905,6578,635640,2
24,-1,644405,220124,1423988,66450,9102,711142,0
25,-1,634967,218762,1229988,65773,7513,614983,2
25,-1,642659,218595,1240407,65528,7920,620219,0
26,-1,636595,218878,1227033,65858,7634,613735,2
26,-1,640521,218435,1261190,65479,7487,630569,0
27,-1,634891,218927,1173361,65817,7028,586652,2
27,-1,638827,217967,1182347,65346,7161,591063,0
28,-1,638026,218802,1228938,65816,7044,614386,2
28,-1,639800,218027,1251621,65346,7424,625851,0
29,-1,643044,220723,1267659,66691,7649,633936,2
29,-1,643587,219937,1187935,66290,7171,593935,0
30,-1,639936,219626,1256095,66100,7907,628071,2
30,-1,661643,223496,1283905,68967,8275,642018,0
31,-1,636525,218961,1153543,65917,5990,576812,2
31,-1,643628,219087,1215933,65715,7961,607946,0
32,-1,638186,218822,1171215,65843,6408,585582,2
32,-1,639974,218025,1235352,65343,7952,617732,0
33,-1,635733,219201,1176042,65932,7047,588037,2
33,-1,646160,221050,1197467,66629,7776,598461,0
34,-1,635606,218553,1219345,65714,6482,609730,2
34,-1,640424,218487,1271443,65550,7313,635645,0
35,-1,639142,219403,1147511,65861,6189,573817,2
35,-1,638913,217968,1173804,65330,7291,586935,0
36,-1,640933,221224,1211869,66721,7289,605925,2
36,-1,639003,218510,1281281,65518,7631,640655,0
37,-1,643677,219696,1383375,66008,8928,691501,2
37,-1,659638,222434,1264076,68637,7929,632007,0
38,-1,643665,220603,1279242,66198,7893,639761,2
38,-1,638216,218282,1292768,65487,7119,646281,0
39,-1,640564,221582,1244448,66885,8297,622254,2
39,-1,637587,218153,1264381,65378,8187,632316,0
40,-1,641395,220197,1241199,66067,8150,620649,2
40,-1,644484,220485,1153537,66457,7404,576817,0
41,-1,640511,219926,1146552,66085,6823,573323,2
41,-1,664721,222806,1255365,68678,8878,627706,0
42,-1,637557,219768,1231088,65969,7409,615578,2
42,-1,640692,217732,1143151,65261,7941,571575,0
43,-1,636608,218557,1160574,65691,7299,580312,2
43,-1,642031,218800,1467273,65614,9617,733629,0
44,-1,643343,221241,1263936,66757,7075,632081,2
44,-1,661284,222754,1255778,68722,9116,627828,0
45,-1,638864,218809,1279071,65749,7952,639405,2
45,-1,638752,218008,1264210,65380,8154,632011,0
46,-1,643256,220797,1274682,66622,7352,637226,2
46,-1,641598,218368,1191775,65447,7834,595804,0
47,-1,635313,218287,1255106,65607,8187,627553,2
47,-1,642017,218386,1249592,65430,8391,624809,0
48,-1,637613,218424,1246612,65671,8253,623307,2
48,-1,661308,222967,1305080,68786,8571,652520,0
49,-1,637847,219210,1143498,65794,7462,571777,2
49,-1,642379,220316,1190419,66315,7328,595277,0
50,-1,642285,220265,1293971,66461,7847,647090,2
50,-1,642129,218494,1246373,65534,7867,623224,0
51,-1,638724,219239,1163904,65677,8638,581830,2
51,-1,640947,218341,1172339,65506,7680,586175,0
52,-1,636396,218299,1251920,65449,8329,626080,2
52,-1,645447,220535,1194100,66458,7583,596872,0
53,-1,640721,220506,1241352,66488,7942,620677,2
53,-1,643175,220031,1200225,66233,7600,600076,0
54,-1,638269,218182,1254332,65464,8334,627420,2
54,-1,638143,218146,1175480,65388,7411,587533,0
55,-1,634920,218268,1140514,65486,7059,570236,2
55,-1,637859,218181,1220764,65394,7068,610431,0
56,-1,638659,217966,1144970,65327,7355,572522,2
56,-1,637478,218315,1152882,65503,7715,576467,0
57,-1,641970,220412,1254122,66439,7480,626951,2
57,-1,640985,220154,1190088,66345,8189,595166,0
58,-1,644956,219610,1135470,66092,7654,567762,0
58,-1,642306,219168,1363067,65769,8552,681239,2
59,-1,637995,217870,1262227,65308,7710,631078,0
59,-1,637463,218025,1251832,65415,7346,625863,2
60,-1,640779,218347,1207652,65503,8011,603822,0
60,-1,644115,220590,1225825,66510,7446,612983,2
61,-1,687079,232170,1312513,71489,8343,656147,0
61,-1,637399,218472,1312449,65557,7743,656216,2
62,-1,637317,218016,1236317,65405,7340,618126,0
62,-1,648368,221514,1185424,66773,6617,592796,2
63,-1,636553,217635,1158100,65214,7551,578916,0
63,-1,632529,218731,1142295,65142,6633,571199,2
64,-1,640614,218704,1178125,65573,7413,588822,0
64,-1,630205,218510,1232869,65077,7414,616531,2
65,-1,638912,218220,1341546,65398,8027,670699,0
65,-1,641357,220864,1151972,66260,6840,576059,2
66,-1,637330,217968,1323942,65347,7829,661988,0
66,-1,637745,218700,1236636,66103,7769,618449,2
67,-1,662470,223382,1246169,68949,8766,623067,0
67,-1,634369,218011,1220449,65911,7154,610282,2
68,-1,636942,217817,1241601,65332,7583,620703,0
68,-1,633782,218432,1207160,66040,7029,603620,2
69,-1,637497,218235,1293392,65469,7543,646557,0
69,-1,641350,220171,1166364,66876,7657,583257,2
70,-1,639949,219518,1232882,66061,7440,616244,0
70,-1,636435,218243,1237039,65912,7608,618574,2
71,-1,639298,219569,1254069,65869,7434,627023,0
71,-1,637777,218146,1241212,65941,7213,620660,2
72,-1,637016,217592,1245725,65211,7477,622719,0
72,-1,638527,218963,1271367,66179,7613,635671,2
73,-1,641072,218735,1198694,65607,7788,599264,0
73,-1,641759,218900,1247694,66205,8089,623816,2
74,-1,643244,220075,1292517,66343,7797,646110,0
74,-1,634711,218050,1148679,65862,8277,574518,2
75,-1,660317,223050,1254941,68815,7887,627501,0
75,-1,636621,218312,1242060,65918,7431,621018,2
76,-1,638064,218279,1218761,65482,7767,609437,0
76,-1,637668,218658,1112413,66121,6948,556192,2
77,-1,638252,218243,1223861,65444,7285,611993,0
77,-1,633849,217810,1198452,65830,7481,599291,2
78,-1,636180,218084,1171748,65455,7209,585859,0
78,-1,637044,218446,1236126,66027,7542,617984,2
79,-1,635617,218289,1260224,65406,7775,629771,0
79,-1,642249,219937,1166680,66807,7346,583335,2
80,-1,637233,218221,1311516,65410,7330,655745,0
80,-1,635699,218424,1217323,66054,7726,608721,2
81,-1,637351,218576,1281355,65579,7555,640668,0
81,-1,639633,218866,1221268,66036,8433,610670,2
82,-1,639048,219326,1213242,65999,7453,606671,0
82,-1,643374,218929,1270426,66053,7589,635202,2
83,-1,638468,219038,1226432,65719,7623,613246,0
83,-1,638805,218293,1230848,65956,7773,615419,2
84,-1,635977,218130,1169595,65420,7578,584729,0
84,-1,643369,219771,1251851,66651,7752,625883,2
85,-1,633573,217417,1235858,65082,8041,618027,0
85,-1,633693,218993,1216131,66119,6871,608113,2
86,-1,641911,220595,1215350,66455,7929,607736,0
86,-1,637764,219171,1289067,66278,7555,644700,2
87,-1,644155,218100,1163376,65379,7445,581659,0
87,-1,644823,220698,1165077,67085,7181,582483,2
88,-1,642532,218094,1220784,65419,8168,610391,0
88,-1,638089,219128,1166350,66202,7744,583120,2
89,-1,646563,220040,1158999,66164,8106,579460,0
89,-1,640525,219316,1279264,66475,7012,639634,2
90,-1,644234,218884,1126716,65676,7677,563287,0
90,-1,639224,218919,1154872,66303,7375,577363,2
91,-1,642394,218448,1176361,65480,8285,588128,0
91,-1,641939,219493,1241145,66393,7466,620631,2
92,-1,641783,218629,1117355,65590,7949,558621,0
92,-1,640637,219684,1162160,66459,7490,581125,2
93,-1,639819,217554,1211359,65196,8206,605691,0
93,-1,643315,219536,1148856,66432,7104,574474,2
94,-1,647005,220534,1152375,66520,8140,576087,0
94,-1,645009,222033,1147943,67464,7860,574021,2
95,-1,661465,222425,1190579,68625,8954,595203,0
95,-1,641211,219550,1241691,66350,7501,620778,2
96,-1,640265,218176,1197750,65378,8359,598758,0
96,-1,645408,221163,1224635,66985,8363,612157,2
97,-1,644354,218993,1233643,65701,7474,616908,0
97,-1,638627,218512,1215688,65976,7418,607855,2
98,-1,642141,219252,1207844,66064,8284,603960,0
98,-1,640253,219101,1265881,66177,8294,633005,2
99,-1,639089,217799,1136219,65265,8433,568110,0
99,-1,642374,220633,1175569,66951,7718,587686,2
100,-1,640382,218945,1258137,65686,8203,629118,0
100,-1,644518,219862,1193045,66417,7571,596563,2
101,-1,647972,220979,1211589,66608,8258,605798,0
101,-1,639483,220006,1299056,66461,7526,649507,2
102,-1,640208,218363,1135288,65453,7440,567622,0
102,-1,645641,220946,1139185,67141,7915,569533,2
103,-1,639080,218255,1267235,65421,7890,633633,0
103,-1,641946,219493,1233622,66379,6972,616712,2
104,-1,638058,217778,1232014,65290,7899,615951,0
104,-1,644287,219171,1256811,66220,7160,628326,2
105,-1,642518,220244,1277313,66356,7827,638307,0
105,-1,641993,219550,1153066,66357,7107,576475,2
106,-1,660699,222869,1237343,68791,8629,618707,0
106,-1,641851,218880,1290433,66107,7455,645319,2
107,-1,644477,220472,1207993,66366,7406,603855,0
107,-1,644233,220064,1159351,66438,6877,579674,2
108,-1,637122,218142,1247996,65376,7532,624054,0
108,-1,637011,217503,1133752,65643,6794,566840,2
109,-1,637489,218475,1222080,65566,7807,611130,0
109,-1,643052,220341,1202678,67118,8783,600991,2
110,-1,645969,219953,1163318,66192,7949,581635,0
110,-1,640449,218050,1228984,66069,8511,614651,2
111,-1,638752,217516,1181183,65138,8403,590559,0
111,-1,640476,218056,1285097,66064,8538,642528,2
112,-1,639043,217939,1198638,65318,8411,599289,0
112,-1,630627,217448,1203635,65915,7716,601821,2
113,-1,640536,218606,1221488,65588,7663,610732,0
113,-1,638599,219888,1271214,66942,7797,635579,2
114,-1,638599,218134,1249320,65381,7208,624572,0
114,-1,634378,217753,1234338,65912,6867,617238,2
115,-1,641074,218957,1344399,65647,7839,672152,0
115,-1,634533,218362,1212996,66192,6734,606539,2
116,-1,665919,227994,1284100,68567,7452,642207,0
116,-1,638551,220115,1267404,66999,7427,634222,2
117,-1,640794,218046,1252408,65342,8659,626240,0
117,-1,636071,218228,1142503,65970,7446,571162,2
118,-1,644348,220375,1243106,66421,7750,621453,0
118,-1,635670,218086,1239811,65917,7296,619995,2
119,-1,660376,223187,1207776,68834,7910,603899,0
120,-1,636769,217603,1152885,65210,7296,576473,0
121,-1,638633,218414,1259116,65508,8106,629660,0
122,-1,637199,218576,1167291,65591,7432,583577,0
123,-1,639288,218074,1187557,65367,7650,593679,0
124,-1,639452,218499,1345185,65524,7798,672419,0
125,-1,637659,218207,1249642,65457,6894,624860,0
126,-1,636097,218018,1259122,65416,7989,629661,0
127,-1,638069,218360,1249852,65499,7698,624957,0
128,-1,639993,219399,1216743,66022,7254,608405,0
129,-1,638715,218776,1156534,65636,7261,578204,0
130,-1,634329,217502,1231133,65120,7648,615441,0
131,-1,637634,218056,1255728,65362,7916,627818,0
132,-1,658740,223731,1171440,69019,8314,585785,0
133,-1,633970,217691,1094916,65187,7371,547418,0
134,-1,634652,218373,1167721,65473,7707,583832,0
135,-1,642198,219486,1165316,66041,7554,582579,0
136,-1,640850,218308,1145046,65492,8147,572476,0
137,-1,643900,220056,1242837,66325,7962,621381,0
138,-1,641824,218526,1302578,65551,8196,651153,0
139,-1,639521,218036,1156795,65386,7799,578445,0
140,-1,642461,219408,1224455,66025,7675,612226,0
141,-1,638773,218520,1148619,65493,7761,574318,0
142,-1,636816,218073,1220612,65357,8025,610122,0
143,-1,640402,218278,1132217,65467,7701,566120,0
144,-1,639939,218109,1251607,65378,8088,625637,0
145,-1,644781,220544,1236634,66499,7328,618399,0
146,-1,660102,222709,1219945,68716,8517,610021,0
147,-1,638234,218383,1348843,65502,7955,674384,0
148,-1,637811,218530,1247909,65525,7970,623901,0
149,-1,635116,217659,1238229,65168,7639,618926,0
150,-1,639084,218300,1146116,65428,7417,572937,0
151,-1,640048,218500,1288957,65585,7897,644308,0
152,-1,641234,219473,1299640,66057,7288,649820,0
153,-1,638312,218552,1265024,65500,7214,632611,0
154,-1,639909,218769,1179590,65671,7702,589782,0
154,-1,637420,217573,1236922,65709,8846,618062,0
155,-1,636369,217668,1236799,65230,7387,618355,0
155,-1,637221,217361,1224510,65578,6975,612324,0
156,-1,643488,220761,1225677,66534,7657,612899,0
156,-1,641499,219605,1232171,66556,6657,616168,0
157,-1,658774,223093,1194478,68828,8070,597109,0
157,-1,639283,218608,1218043,66070,6544,609032,0
158,-1,635469,217992,1243657,65324,7383,621774,0
158,-1,636343,217811,1122256,65759,6336,561161,0
159,-1,634654,217804,1183030,65270,7631,591489,0
159,-1,644163,220214,1275862,66855,8161,638041,0
160,-1,643150,220232,1190979,66304,7901,595490,0
160,-1,635983,217558,1457658,65722,8763,728857,0
161,-1,636920,217840,1226601,65279,7998,613190,0
161,-1,639677,219052,1244139,66441,7157,622129,0
162,-1,633171,217413,1168493,65103,7590,584212,0
162,-1,638633,218681,1221139,66063,6919,610744,0
163,-1,643733,220892,1171506,66581,7744,585804,0
163,-1,636812,218378,1228639,66024,7092,614349,0
164,-1,639513,220096,1155855,66200,7729,577931,0
164,-1,638989,219668,1247470,66702,7204,623852,0
165,-1,636721,218220,1107815,65498,7189,553958,0
165,-1,639741,218019,1136110,65935,6865,568080,0
166,-1,639837,217932,1207051,65309,8105,603636,0
166,-1,638730,218697,1346873,66147,7285,673426,0
167,-1,639078,218289,1315932,65425,8215,657896,0
167,-1,636222,218024,1165638,65918,7075,582824,0
168,-1,646118,220893,1312001,66634,8160,655991,0
168,-1,655951,222142,1183586,69075,8104,591858,0
169,-1,638555,218368,1245107,65500,7647,622629,0
169,-1,633220,217282,1102328,65705,6912,551204,0
170,-1,642757,220424,1244081,66343,7037,622182,0
170,-1,636005,218183,1125744,65957,7284,562880,0
171,-1,637610,218383,1242791,65403,7923,621445,0
171,-1,642920,220213,1165860,66801,6943,583035,0
172,-1,637185,218670,1148233,65465,7045,574189,0
172,-1,635114,217554,1174296,65710,6771,587212,0
173,-1,667399,228377,1304861,68366,8429,652486,0
173,-1,635253,217871,1129240,65821,6412,564664,0
174,-1,640303,219266,1351648,65707,8128,675790,0
174,-1,636468,218139,1260326,65982,8483,630185,0
175,-1,636522,218163,1240252,65317,8044,620031,0
175,-1,634501,217760,1095663,65884,7042,547878,0
176,-1,636641,218199,1259573,65333,7976,629753,0
176,-1,632549,217400,1137866,65789,6820,568841,0
177,-1,640295,218863,1320458,65523,8108,660320,0
177,-1,635216,218102,1104896,66044,7532,552556,0
178,-1,643817,220436,1259805,66279,7979,629935,0
178,-1,639243,220037,1166326,66872,7902,583261,0
179,-1,638186,218732,1146822,65519,7279,573482,0
179,-1,633698,218226,1173893,66077,7567,586866,0
180,-1,638728,218631,1256339,65446,7805,628202,0
180,-1,658474,222031,1296295,69144,7689,648178,0
181,-1,644559,221310,1262100,66632,7836,630998,0
181,-1,635676,217577,1247938,65729,7313,623875,0
182,-1,636529,218585,1153945,65431,8127,576983,0
182,-1,642469,218979,1219453,66224,7225,609800,0
183,-1,640230,219393,1172968,65729,8290,586577,0
183,-1,638418,217230,1121525,65525,6949,560740,0
184,-1,637041,218445,1106965,65430,7816,553395,0
184,-1,639289,217955,1253052,65855,6694,626476,0
185,-1,637057,218602,1177244,65442,8286,588642,0
185,-1,639234,217919,1219534,65797,7125,609800,0
186,-1,636215,218759,1188699,65494,8483,594477,0
186,-1,643739,220159,1280398,66901,7127,640244,0
187,-1,639250,220000,1173148,66064,8009,586507,0
187,-1,638877,218259,1203381,65962,7375,601698,0
188,-1,637699,219769,1119880,65778,7633,559733,0
188,-1,637852,217920,1092860,65868,6924,546311,0
189,-1,636997,218778,1305760,65404,7596,653189,0
189,-1,638146,217293,1105651,65612,7647,552783,0
190,-1,644160,218165,1232512,65212,7180,616120,0
190,-1,642483,219652,1175349,66688,8304,587684,0
191,-1,644207,218407,1300146,65299,8175,650106,0
191,-1,636440,217549,1187003,65765,7118,593492,0
192,-1,644518,219093,1275643,65588,8390,637782,0
192,-1,636217,217625,1306840,65744,7695,653295,0
193,-1,644324,218780,1296747,65412,8310,648496,0
193,-1,637530,218526,1203853,66086,6994,601986,0
194,-1,647172,220185,1239186,66121,8128,619695,0
194,-1,637811,218442,1134946,66136,6602,567393,0
195,-1,644485,219423,1180688,65681,8191,590344,0
195,-1,636270,218123,1227545,66069,7086,613876,0
196,-1,643941,219088,1254502,65522,8628,627266,0
196,-1,639261,217925,1133093,66019,7068,566530,0
197,-1,641850,218663,1308512,65387,8348,654308,0
197,-1,642203,219465,1387257,66675,8425,693414,0
198,-1,641100,218311,1183067,65270,7590,592189,0
198,-1,635838,217494,1194597,65765,8259,597040,0
199,-1,637378,217300,1289059,64995,9147,644292,0
199,-1,643070,220631,1354920,67155,9122,677190,0
200,-1,663833,224169,1426245,69022,9339,713221,0
200,-1,631343,216596,1157145,65616,7384,578332,0
201,-1,640747,219119,1329362,65630,8422,664370,0
201,-1,634884,217920,1332445,65957,7794,666195,0
202,-1,643099,218614,1306728,65405,8608,653313,0
202,-1,635200,217580,1351604,65830,7620,675805,0
203,-1,641533,218589,1183410,65515,7617,591698,0
203,-1,634487,217607,1173861,65849,6546,586895,0
204,-1,641766,219041,1267415,65572,8330,633686,0
204,-1,633690,217504,1188973,65818,7017,594269,0
205,-1,641376,218616,1173339,65394,7827,586660,0
205,-1,659103,223037,1311193,69474,9151,655696,0
206,-1,641422,219193,1254392,65631,8324,627324,0
206,-1,632369,217006,1184062,65646,7691,592274,0
207,-1,642519,220144,1175264,66133,7840,587625,0
207,-1,632861,217504,1274739,65822,7789,637200,0
208,-1,642567,218810,1117022,65533,8399,558540,0
208,-1,635892,218355,1209250,66148,8149,604802,0
209,-1,641082,218311,1184884,65251,8288,592361,0
209,-1,641587,218497,1269575,66192,7234,634785,0
210,-1,642366,219081,1134384,65599,8372,567109,0
210,-1,637235,217041,1144913,65648,7091,572476,0
211,-1,640936,218512,1202552,65382,9056,601140,0
211,-1,635747,217210,1159940,65759,7319,579961,0
212,-1,662280,223623,1205683,68871,9493,602780,0
212,-1,642138,219518,1178848,66665,6850,589314,0
213,-1,641376,218817,1115579,65444,7968,557749,0
213,-1,636978,217435,1141552,65797,6694,570768,0
214,-1,639795,218650,1208499,65464,8581,604268,0
214,-1,637751,218188,1210271,66094,7177,605196,0
215,-1,644679,220801,1356933,66341,8949,678656,0
215,-1,634996,217593,1156509,65868,7257,578285,0
216,-1,644660,218629,1548174,65446,10152,773852,0
216,-1,644277,220265,1290213,67035,7469,645196,0
217,-1,663460,223167,1241729,68776,8922,620597,0
217,-1,636253,217311,1213535,65799,6827,606766,0
218,-1,639709,218064,1153432,65342,6812,576651,0
218,-1,635757,217772,1196510,65971,6542,598203,0
219,-1,641560,218628,1352695,65550,7885,676335,0
219,-1,636194,217498,1119050,65837,6611,559487,0
220,-1,640088,218455,1417756,65572,9229,708414,0
220,-1,634594,217583,1143878,65853,6450,571924,0
221,-1,641279,218794,1269468,65586,7947,634418,0
221,-1,642735,220533,1240871,67123,7499,620444,0
222,-1,643377,218866,1257320,65658,8890,628731,0
222,-1,655511,222323,1298715,69229,7524,649389,0
223,-1,667936,227711,1190344,68149,8211,595187,0
223,-1,640126,218090,1309653,66022,7044,654839,0
224,-1,643355,219453,1259755,66038,8721,630143,0
224,-1,641040,219455,1236325,66629,6985,618219,0
225,-1,640262,218719,1175758,65625,7863,587687,0
225,-1,637353,217807,1213895,65997,7083,606925,0
226,-1,638933,218087,1296741,65383,8012,648416,0
226,-1,635723,217881,1233644,65993,6577,616830,0
227,-1,644309,220644,1365833,66457,8393,682685,0
227,-1,636124,217637,1147112,65873,6881,573550,0
228,-1,662689,224139,1197441,69175,8409,598763,0
228,-1,643397,220460,1266585,67121,8057,633268,0
229,-1,640062,219336,1249841,65827,8034,624902,0
229,-1,636423,218247,1134913,66051,6661,567461,0
230,-1,637305,218344,1135781,65519,7293,567856,0
230,-1,634748,217672,1215127,65863,6731,607599,0
231,-1,641083,219194,1252005,65827,7993,625644,0
231,-1,639298,219609,1227098,66819,7450,613538,0
232,-1,661867,222981,1254152,68884,9396,627060,0
232,-1,656630,223222,1253108,69520,7795,626571,0
233,-1,637246,218104,1132504,65378,7516,566256,0
233,-1,634194,217477,1219679,65809,7298,609781,0
234,-1,640918,219693,1180064,66206,7811,590115,0
234,-1,636025,218601,1158347,66227,6936,579086,0
235,-1,638892,219250,1145825,65858,7357,572936,0
235,-1,634091,218345,1161543,66148,6355,580686,0
236,-1,640825,218958,1183253,65758,8611,591313,0
236,-1,634286,217652,1180005,65932,7437,589921,0
237,-1,637631,217826,1248383,65291,8890,624201,0
237,-1,643867,220176,1169563,67066,7413,584670,0
238,-1,643302,220426,1268830,66512,8171,634313,0
238,-1,637491,217907,1102285,65998,6914,551104,0
239,-1,661565,223975,1185183,69170,7633,592422,0
239,-1,635710,217493,1147858,65830,7147,573889,0
240,-1,638549,218903,1239978,65761,7612,619922,0
240,-1,634637,217519,1140662,65814,6626,570324,0
241,-1,639744,218812,1534235,65737,9754,767124,0
241,-1,636688,218174,1267556,66049,6937,633857,0
242,-1,640495,219630,1240536,66181,7807,620350,0
242,-1,633962,217340,1236053,65769,6775,618003,0
243,-1,646425,220278,1299297,66532,8078,649149,0
243,-1,639165,219843,1329451,66912,7894,664771,0
244,-1,641573,218394,1272580,65511,8476,636381,0
244,-1,636685,217878,1138247,65984,7029,569182,0
245,-1,641531,218686,1258332,65659,7950,629223,0
245,-1,635822,217569,1223388,65843,7132,611724,0
246,-1,644991,220069,1302598,66303,8023,651299,0
246,-1,633839,217269,1182850,65748,7258,591395,0
247,-1,642229,218691,1292667,65635,8460,646280,0
247,-1,639995,219563,1233430,66730,7958,616692,0
248,-1,640739,218508,1174092,65616,7893,586960,0
248,-1,636683,218616,1240952,66228,7561,620510,0
249,-1,661069,223393,1224374,69053,8989,612004,0
249,-1,636490,218042,1207949,66058,7474,603996,0
250,-1,643255,218802,1192688,65745,8674,596407,0
250,-1,635479,218030,1168282,65991,7426,584114,0
251,-1,642138,219489,1250565,66134,8083,625326,0
251,-1,655963,222523,1321538,69237,8804,660847,0
252,-1,641685,219162,1182958,65886,7749,591432,0
252,-1,631629,217646,1195954,65865,7068,598013,0
253,-1,638399,219049,1268901,66018,7649,634463,0
253,-1,636864,217925,1125616,66010,7211,562737,0
254,-1,637352,217369,1219409,65249,8957,609778,0
254,-1,635912,218118,1200185,66045,6913,600082,0
255,-1,659803,223453,1417360,69071,9284,708719,0
255,-1,634134,217488,1115447,65788,6641,557696,0
256,-1,637812,218684,1156968,65707,7653,578478,0
256,-1,658546,223209,1259618,69504,8029,629896,0
257,-1,659933,223487,1360952,69007,9185,680547,0
257,-1,633971,217628,1213132,65926,7413,606677,0
258,-1,641805,219586,1258121,66200,8192,629134,0
258,-1,632157,217219,1263116,65730,7204,631551,0
259,-1,636788,218341,1140532,65594,7320,570287,0
259,-1,637493,219486,1257775,66713,8182,629028,0
260,-1,637389,218652,1254812,65574,8349,627418,0
260,-1,635572,217568,1182731,65843,7173,591439,0
261,-1,642307,221118,1247783,66746,8612,624092,0
261,-1,633623,217714,1123859,65881,6487,561920,0
262,-1,659865,222782,1244627,68794,8668,622177,0
262,-1,637655,219223,1255296,66642,7184,627671,0
263,-1,635103,217945,1174721,65362,6976,587359,0
263,-1,655758,222931,1282934,69433,8598,641517,0
264,-1,639868,218659,1253623,65647,7800,626825,0
264,-1,632788,217686,1130951,65943,6607,565396,0
265,-1,644088,220267,1444138,66349,8981,721937,0
265,-1,637104,219414,1194156,66692,6996,597000,0
266,-1,640293,219014,1450139,65801,10066,724484,0
266,-1,633531,218331,1196173,66156,6968,598063,0
267,-1,643613,220863,1200553,66616,8078,600211,0
267,-1,630610,217291,1101999,65715,6451,550983,0
268,-1,642385,220874,1277490,66550,8111,638567,0
268,-1,632495,217714,1142712,65900,5978,571344,0
269,-1,642442,219070,1550776,65734,9530,775419,0
269,-1,655175,221517,1167182,67504,7293,583537,0
270,-1,639513,218338,1401620,65667,9300,700388,0
270,-1,666630,222687,1198389,69371,8398,599212,0
271,-1,637036,218029,1230893,65403,7936,615249,0
271,-1,646320,219614,1178636,66744,7579,589304,0
272,-1,643324,220367,1278783,66461,8325,639429,0
272,-1,644728,218195,1173546,66096,7786,586688,0
273,-1,658420,222930,1196364,68762,8021,598155,0
273,-1,643946,218385,1294492,66162,7627,647260,0
274,-1,637810,218436,1132970,65528,7890,566529,0
274,-1,641049,217341,1179743,65775,6957,589893,0
275,-1,640317,219614,1253316,66168,8086,626790,0
275,-1,641886,217901,1144634,66024,7330,572298,0
276,-1,637463,218816,1169458,65684,7687,584778,0
276,-1,642702,217936,1230310,65982,7802,615114,0
277,-1,636100,218530,1375534,65541,8258,687816,0
277,-1,642694,217768,1328862,65908,8117,663845,0
278,-1,636619,218697,1267970,65693,7772,634014,0
278,-1,638707,217290,1271189,65683,8135,635563,0
279,-1,638703,220000,1261908,66337,7922,630959,0
279,-1,648993,220441,1326334,66990,9095,662656,0
280,-1,636656,218358,1156904,65652,7836,578307,0
280,-1,642308,217435,1191672,65843,8490,595655,0
281,-1,637756,218930,1254258,65780,8308,627099,0
281,-1,641061,217509,1256144,65773,8535,628082,0
282,-1,636153,218698,1124443,65739,8060,562141,0
282,-1,641170,217660,1279586,65923,7784,639431,0
283,-1,656064,223174,1353465,68997,8547,676430,0
283,-1,640713,217499,1231812,65816,8237,615699,0
284,-1,642740,218250,1157202,65577,7345,578526,0
284,-1,641027,218441,1222368,66201,7683,611206,0
285,-1,642169,218336,1288132,65669,8469,643945,0
285,-1,639716,217870,1286971,66004,8813,643446,0
286,-1,644781,219698,1280430,66255,8229,640187,0
286,-1,639166,217942,1144576,65965,8236,572114,0
287,-1,644292,219347,1163950,65922,8186,581947,0
287,-1,640564,218285,1189056,66121,8498,594458,0
288,-1,640456,218238,1307648,65513,8563,653440,0
288,-1,636136,217008,1235032,65652,8442,617118,0
289,-1,641460,217999,1261632,65478,8662,630778,0
289,-1,665589,222251,1254551,69176,9529,627296,0
290,-1,646646,220620,1246590,66639,8272,623347,0
290,-1,645041,218649,1179856,66191,7747,589637,0
291,-1,663756,223977,1160255,69278,8654,580082,0
291,-1,642007,217826,1300212,65870,7612,649730,0
292,-1,641447,218807,1223774,65787,8146,611868,0
292,-1,643233,218131,1221002,66020,8021,610521,0
293,-1,639479,218691,1385790,65782,10333,692825,0
293,-1,643125,218742,1415772,66190,8658,707521,0
294,-1,640027,218021,1184512,65475,8618,592268,0
294,-1,640433,217328,1183015,65728,8122,591509,0
295,-1,639740,218602,1139376,65684,7516,569551,0
295,-1,642725,218300,1255191,66069,8097,627608,0
296,-1,644341,220294,1474078,66419,8879,736877,0
296,-1,640320,217452,1182060,65767,8227,590880,0
297,-1,638743,218765,1410383,65668,9722,704860,0
297,-1,644821,219619,1238156,66770,8103,618949,0
298,-1,632956,216849,1250599,65026,7926,625196,0
298,-1,662108,222668,1322610,69293,8787,661168,0
299,-1,642184,218677,1185899,65708,8028,592656,0
299,-1,640503,217552,1193552,65674,7228,596615,0
300,-1,641346,218435,1256741,65537,7848,628285,0
300,-1,637407,217296,1237211,65555,7813,618504,0
301,-1,646629,220832,1264137,66630,8553,631959,0
301,-1,638865,217711,1146461,65812,7233,573137,0
302,-1,662507,223526,1202190,69003,8215,601002,0
302,-1,639224,217861,1219223,65766,7357,609622,0
303,-1,641181,219139,1313361,65812,8296,656623,0
303,-1,639006,218193,1156305,65935,6922,578144,0
304,-1,638259,218108,1291715,65495,8243,645761,0
304,-1,643816,220076,1236893,66655,7127,618428,0
305,-1,643027,219700,1264549,66167,7798,632300,0
305,-1,640192,217881,1207724,65768,6761,603764,0
306,-1,638405,218431,1368651,65515,7720,684744,0
306,-1,663731,223642,1277794,69435,7622,638928,0
307,-1,639211,218632,1245494,65646,6847,622800,0
307,-1,640335,217484,1235843,65616,7077,617959,0
308,-1,639860,218649,1232501,65674,7178,616305,0
308,-1,641868,218924,1286303,66100,8007,643136,0
309,-1,637804,218249,1135023,65460,6204,567570,0
309,-1,638700,218043,1163188,65776,7012,581157,0
310,-1,639882,218852,1239793,65700,7155,620017,0
310,-1,641593,218560,1260258,66298,8375,630113,0
311,-1,640510,219565,1248600,66124,7157,624358,0
311,-1,664790,223885,1313676,69539,9170,656815,0
312,-1,638034,218926,1150498,65678,6893,575285,0
312,-1,639602,218516,1246203,66001,7597,622790,0
313,-1,637620,218256,1245897,65463,7578,622993,0
313,-1,639970,218924,1287494,66265,8444,643723,0
314,-1,659948,223771,1197747,69090,7858,598919,0
314,-1,638988,218069,1217544,65753,7585,608590,0
315,-1,643224,218849,1241501,65702,7228,620819,0
315,-1,639285,218066,1236426,65741,7326,618499,0
316,-1,643633,219437,1237401,66105,7554,618768,0
316,-1,644225,220580,1237396,66929,7887,618685,0
317,-1,639412,218578,1208510,65667,7291,604279,0
317,-1,644130,218289,1207478,65878,7428,603877,0
318,-1,639445,218578,1147653,65613,6935,573872,0
318,-1,645358,218434,1330428,65859,8231,665244,0
319,-1,638098,218572,1158666,65653,6951,579333,0
319,-1,650019,220528,1229259,66782,8178,614799,0
320,-1,641156,219722,1169973,66170,7304,584954,0
320,-1,646990,219776,1256649,66341,8082,628406,0
321,-1,641687,218856,1165110,65716,7636,582576,0
321,-1,642275,217778,1156413,65658,7076,578066,0
322,-1,639020,218577,1162118,65615,7612,581101,0
322,-1,647555,220227,1244290,66742,8099,622152,0
323,-1,637894,217818,1161208,65385,7381,580653,0
323,-1,645866,219357,1328526,66190,7643,664291,0
324,-1,640018,219155,1232659,65878,7259,616431,0
324,-1,643585,218778,1245130,65996,7767,622570,0
325,-1,640923,219977,1181826,66322,7206,590981,0
325,-1,642953,218769,1161002,65977,7721,580472,0
326,-1,638702,218896,1114753,65775,6743,557429,0
326,-1,640633,217945,1138200,65792,7111,569101,0
327,-1,636843,218674,1151868,65754,6931,575976,0
327,-1,640843,218509,1145349,65935,7009,572794,0
328,-1,639151,218517,1216189,65498,7269,608137,0
328,-1,645103,220119,1218112,66634,7750,608939,0
329,-1,645011,220540,1264847,66570,7819,632500,0
329,-1,639709,218293,1307654,65908,7503,653919,0
330,-1,641616,219509,1239496,65957,7737,619798,0
330,-1,639629,218103,1213340,65727,7203,606791,0
331,-1,638585,218725,1212995,65678,7136,606537,0
331,-1,645164,218681,1353534,65978,8264,676790,0
332,-1,656795,223112,1157815,68915,7974,578919,0
332,-1,663713,222711,1222818,69113,8920,611426,0
333,-1,638180,218959,1239624,65733,7494,619891,0
333,-1,643249,218954,1133890,66084,7262,566946,0
334,-1,658704,223631,1193435,68996,8177,596739,0
334,-1,640446,217864,1185106,65666,7630,592570,0
335,-1,641066,220221,1239909,66136,7774,619960,0
335,-1,672730,229202,1296127,69333,8166,648114,0
336,-1,638298,219497,1161368,65818,7356,580724,0
336,-1,663131,222945,1282563,69114,7885,641357,0
337,-1,642700,219148,1279880,65732,7253,639906,0
337,-1,642921,218977,1172179,66076,7448,586114,0
338,-1,641896,219336,1225667,65814,7676,612921,0
338,-1,641033,218456,1255174,65849,7950,627639,0
339,-1,639404,218948,1153034,65720,7113,576561,0
339,-1,641101,218445,1187754,65912,7787,593916,0
340,-1,641004,218691,1158738,65654,7224,579436,0
340,-1,642725,218819,1188558,65928,7397,594283,0
341,-1,664674,224222,1359860,69281,9093,679882,0
341,-1,642405,218648,1256699,65966,7704,628359,0
342,-1,641715,219571,1237625,65999,7710,618552,0
342,-1,641902,218054,1196924,65759,7429,598445,0
343,-1,638524,218818,1103050,65722,6825,551563,0
343,-1,647241,219981,1215010,66605,7267,607284,0
344,-1,640079,218632,1165692,65644,8023,582884,0
344,-1,643542,218847,1143326,65975,6639,571622,0
345,-1,645184,220709,1207969,66571,7819,604060,0
345,-1,641578,218628,1186740,65915,6804,593252,0
346,-1,643795,220496,1125388,66282,7318,562747,0
346,-1,647555,220464,1207173,66771,7359,603610,0
347,-1,636985,218570,1152928,65589,7314,576511,0
347,-1,663300,223214,1294674,69262,8361,647469,0
348,-1,644255,220976,1190352,66698,7855,595246,0
348,-1,639188,218261,1184465,65860,7361,592087,0
349,-1,639985,218555,1239757,65549,7299,619926,0
349,-1,642241,218999,1220587,66105,7216,610391,0
350,-1,641919,219806,1151936,66015,7092,575995,0
350,-1,640613,218299,1154737,65817,7469,577341,0
351,-1,644099,220934,1230649,66676,6925,615439,0
351,-1,662645,223619,1215592,69381,8322,607756,0
352,-1,662226,224670,1198269,69382,7774,599039,0
352,-1,641818,219193,1117061,66177,7192,558459,0
353,-1,640432,219178,1324850,65786,7173,662563,0
353,-1,640788,218511,1207827,65811,7422,603873,0
354,-1,643826,220657,1324317,66488,7023,662217,0
354,-1,643121,220113,1144210,66645,7261,572056,0
355,-1,642335,220314,1263557,66165,7140,631817,0
355,-1,642701,219588,1272677,66271,7957,636387,0
356,-1,638449,219340,1344196,65824,7442,672142,0
356,-1,638114,218292,1190639,65822,6836,595364,0
357,-1,645503,221508,1262960,66854,7490,631553,0
357,-1,642230,218021,1203251,65729,7635,601678,0
358,-1,640610,220952,1257098,66519,8037,628606,0
358,-1,645519,219969,1179215,66601,7334,589707,0
359,-1,641859,219080,1351412,65613,7561,675740,0
359,-1,664105,223916,1295570,69445,8455,647869,0
360,-1,643805,220128,1291331,66082,6957,645724,0
360,-1,642441,218888,1139190,66050,7358,569646,0
361,-1,641245,219151,1249572,65718,7484,624842,0
361,-1,639626,218120,1249707,65745,7744,624857,0
362,-1,664924,225065,1207448,69455,8048,603784,0
362,-1,641741,219273,1203469,66150,7551,601780,0
363,-1,640873,219687,1228740,65904,6831,614421,0
363,-1,639778,218411,1182835,65834,6868,591467,0
364,-1,644901,221485,1255672,66664,7423,627914,0
364,-1,642603,220144,1169883,66677,7281,585024,0
365,-1,643550,220680,1187644,66228,7545,593868,0
365,-1,663525,224437,1293056,69556,8805,646406,0
366,-1,641949,219307,1262038,65728,7131,631122,0
366,-1,640904,218512,1252185,65841,7411,626112,0
367,-1,641731,220040,1181898,66035,7491,590994,0
367,-1,644917,220157,1182053,66664,6896,591177,0
368,-1,637630,218877,1116215,65559,6811,558146,0
368,-1,639616,218990,1168394,66034,7261,584245,0
369,-1,639040,219630,1167806,65880,7442,583947,0
369,-1,637635,217793,1228044,65618,7806,614075,0
370,-1,643698,221114,1183895,66554,7381,592013,0
370,-1,645649,221262,1218784,67160,7492,609531,0
371,-1,667258,229242,1175207,68727,7186,587593,0
371,-1,661882,223834,1302219,69484,8422,651051,0
372,-1,638036,219146,1194439,65619,7286,597253,0
372,-1,642649,219303,1175915,66170,6641,587991,0
373,-1,639389,219820,1167639,65892,7925,583886,0
373,-1,647956,219467,1257462,66182,7724,628823,0
374,-1,641781,221328,1212170,66697,7417,606159,0
374,-1,645760,218736,1243897,65996,8135,621952,0
375,-1,659609,224412,1227234,69213,8341,613704,0
375,-1,643755,218745,1199669,65945,8602,599846,0
376,-1,644833,220522,1317185,66150,8237,658628,0
376,-1,648014,220595,1208039,66809,7108,604035,0
377,-1,640824,219766,1134176,65912,7728,567141,0
377,-1,646382,220177,1299196,66432,7453,649478,0
378,-1,639260,220229,1270096,66066,7942,635148,0
378,-1,644473,218627,1198338,65850,7734,599105,0
379,-1,637856,219649,1296715,65862,7868,648401,0
379,-1,650518,221253,1255077,67075,8992,627822,0
380,-1,637648,219222,1155970,65698,7491,578029,0
380,-1,643672,219200,1338587,66078,8152,669265,0
381,-1,637738,219959,1239217,65962,7473,619644,0
381,-1,645449,219326,1447032,66226,8759,723273,0
382,-1,639954,221109,1367373,66541,7602,683716,0
382,-1,646828,220257,1197331,66610,7399,598584,0
383,-1,644071,220134,1227318,65999,7042,613723,0
383,-1,640176,218499,1201459,65863,7335,600816,0
384,-1,651500,221735,1284954,66819,7901,642539,0
384,-1,650356,221058,1220801,67003,8082,610367,0
385,-1,667512,224325,1221871,69176,8226,611004,0
385,-1,669898,224728,1308487,69734,8928,654236,0
386,-1,644542,219444,1163253,65740,7478,581672,0
386,-1,643307,218384,1252913,65880,7530,626477,0
387,-1,648870,221014,1180976,66506,7822,590534,0
387,-1,644647,219359,1191816,66273,6984,595946,0
388,-1,645191,219983,1260818,65983,7872,630483,0
388,-1,646313,220016,1337224,66700,8052,668546,0
389,-1,643038,219552,1254527,65802,7790,627256,0
389,-1,670547,228500,1289905,68950,7790,644816,0
390,-1,650686,221534,1281519,66766,7724,640715,0
390,-1,662568,223387,1298493,69384,8577,649262,0
391,-1,667316,224439,1215337,69220,8482,607756,0
391,-1,645227,218854,1269819,66081,8679,634881,0
392,-1,645602,220020,1265263,65938,7573,632670,0
392,-1,644075,219273,1251196,66297,7959,625609,0
393,-1,644427,219520,1135106,65781,7374,567579,0
393,-1,642323,218972,1224181,66150,7538,612133,0
394,-1,647154,220921,1257008,66504,7879,628524,0
394,-1,647294,220987,1129900,67162,8045,565003,0
395,-1,663843,224354,1232741,69192,8289,616397,0
395,-1,642738,219472,1141116,66330,8133,570468,0
396,-1,646292,219391,1171198,65745,6947,585634,0
396,-1,646120,218856,1261628,66175,8648,630974,0
397,-1,645352,219884,1152279,65934,7054,576158,0
397,-1,648227,220740,1427437,67079,9039,713669,0
398,-1,643990,219578,1238332,65801,7286,619207,0
398,-1,663706,223431,1317362,69440,8382,658587,0
399,-1,663321,223735,1312194,69115,8058,656175,0
399,-1,645446,219372,1151978,66333,7795,575966,0
400,-1,643703,220004,1366075,66074,7167,683374,0
400,-1,646225,220217,1201063,66735,7502,600702,0
401,-1,641689,219209,1170217,65775,6577,585153,0
401,-1,643970,219452,1371324,66331,9222,685242,0
402,-1,644446,220669,1272209,66562,7257,636167,0
402,-1,644682,219068,1297301,66161,7933,648431,0
403,-1,645797,219844,1187108,66138,7106,593602,0
403,-1,647180,220507,1300299,66976,8591,650098,0
404,-1,642632,218971,1230912,65801,7806,615500,0
404,-1,641869,218868,1234593,66141,7355,617294,0
405,-1,643015,219443,1176163,66044,7276,588136,0
405,-1,641446,218678,1232412,66127,7784,616226,0
406,-1,639644,218403,1184585,65670,6914,592194,0
406,-1,641983,219150,1131964,66242,7707,566019,0
407,-1,642050,219772,1268130,66287,7399,634136,0
407,-1,642801,218566,1288422,66050,7723,644182,0
408,-1,642671,220242,1174647,66315,6787,587363,0
408,-1,640807,218247,1270295,65954,7135,635104,0
409,-1,640066,219154,1256517,65905,7549,628323,0
409,-1,645711,220165,1196397,66794,7267,598259,0
410,-1,642275,219399,1191958,66028,7137,595964,0
410,-1,641194,218954,1143013,66177,7383,571597,0
411,-1,665256,224000,1203644,69263,7838,601850,0
411,-1,642473,219853,1247770,66325,7449,623748,0
412,-1,647277,220464,1330980,66501,7218,665559,0
412,-1,637985,218043,1250253,65842,7264,625171,0
413,-1,644282,219762,1270027,66103,7036,634849,0
413,-1,663868,224317,1281528,69692,8112,640743,0
414,-1,642641,219463,1187219,65918,7011,593645,0
414,-1,640245,219186,1168155,66203,6835,583876,0
415,-1,646229,220676,1255283,66660,7901,627693,0
415,-1,639313,218878,1236591,66062,7339,618298,0
416,-1,640471,218852,1267864,65757,7058,634041,0
416,-1,646931,219672,1521177,66356,9963,760549,0
417,-1,663042,224142,1210545,69219,7932,605238,0
417,-1,667002,224301,1290979,69682,8531,645472,0
418,-1,644352,219664,1218403,66026,8982,609186,0
418,-1,644464,219556,1163964,66341,7164,581877,0
419,-1,642932,219389,1253354,65960,8302,627460,0
419,-1,644261,219170,1228870,66176,7706,614477,0
420,-1,641917,218970,1330761,65790,8466,665544,0
420,-1,648302,220851,1178786,66910,7675,589433,0
421,-1,642527,219687,1288035,65972,9393,644095,0
421,-1,645338,220105,1328530,66514,8263,664223,0
422,-1,640531,218874,1358077,65723,8573,679014,0
422,-1,668420,224869,1297615,69807,8264,648885,0
423,-1,646191,221182,1408975,66769,8676,704554,0
423,-1,644116,219830,1255418,66329,7116,627754,0
424,-1,640452,219212,1254223,65761,8011,627194,0
424,-1,642445,219524,1266351,66231,7642,633201,0
425,-1,638831,218617,1316466,65634,8894,657774,0
425,-1,644730,219540,1184488,66165,8238,592312,0
426,-1,642697,220539,1297026,66485,8352,648397,0
426,-1,644750,219815,1202877,66292,8305,601533,0
427,-1,639649,218130,1354359,65528,8905,676806,0
427,-1,640908,218652,1135096,65992,7361,567472,0
428,-1,642489,219702,1147451,66139,7284,573369,0
428,-1,642098,218558,1154035,65958,7802,576946,0
429,-1,645392,221219,1289490,66948,8521,644734,0
429,-1,641841,219376,1117757,66238,7530,558866,0
430,-1,640696,220009,1327923,66158,8062,663768,0
430,-1,640271,219517,1312104,66261,7334,655576,0
431,-1,641410,220167,1286300,66401,7917,642950,0
431,-1,642846,219849,1192415,66559,8192,596296,0
432,-1,638453,219258,1348412,65705,9145,673935,0
432,-1,639562,218394,1148958,65891,7380,574586,0
433,-1,637569,219201,1246419,65822,8971,622697,0
433,-1,644552,221212,1185064,67125,7645,592471,0
434,-1,637734,218902,1260120,65668,8274,629948,0
434,-1,660045,223509,1305478,69408,8985,652631,0
435,-1,650100,221237,1332292,66739,8935,666130,0
435,-1,638447,218607,1473177,65962,9425,736462,0
436,-1,663740,223257,1334151,68935,9786,666981,0
436,-1,642637,220271,1228540,66716,7624,614346,0
437,-1,642664,218751,1251243,65631,7361,624790,0
437,-1,637806,218900,1387577,66034,9079,693804,0
438,-1,642618,219218,1172946,65776,6974,586521,0
438,-1,637629,219264,1198410,66186,8148,599237,0
439,-1,665070,224430,1174591,69787,8621,587236,0
439,-1,662813,223309,1313110,69323,9488,656490,0
440,-1,641828,219505,1180149,65895,7660,589731,0
440,-1,638062,217844,1231797,65662,7845,615871,0
441,-1,640393,218710,1178246,65642,6362,589217,0
441,-1,640755,218827,1250313,66089,8161,624940,0
442,-1,645079,220687,1320013,66464,6973,660078,0
442,-1,642349,219410,1316191,66262,8327,658111,0
443,-1,641674,219324,1261469,65829,7045,630755,0
443,-1,639625,218745,1371804,66040,8344,685936,0
444,-1,639920,218969,1287934,65605,6859,644044,0
444,-1,663657,223376,1295149,69358,9093,647533,0
445,-1,640544,218558,1232398,65534,7252,616281,0
445,-1,641892,219263,1158676,66202,7937,579340,0
446,-1,660113,223603,1190602,68990,7660,595336,0
446,-1,641430,219207,1254635,66194,7886,627147,0
447,-1,637025,218721,1229458,65647,6656,614850,0
447,-1,639556,218940,1294196,66131,7600,646979,0
448,-1,642886,219908,1271704,66197,7640,635943,0
448,-1,639647,218946,1320555,66053,7951,660468,0
449,-1,640976,218762,1310545,65598,7497,655312,0
449,-1,642686,220602,1279065,66961,10085,638385,0
450,-1,636074,217279,1219952,65143,6830,610027,0
450,-1,638484,219265,1143730,66151,8095,571820,0
451,-1,642943,220310,1291360,66396,7990,645739,0
451,-1,641578,218694,1231967,66046,8389,616022,0
452,-1,660921,223747,1219909,69093,8422,609990,0
452,-1,639004,218803,1219057,66072,7522,609461,0
453,-1,642443,219540,1261319,65934,8028,630666,0
453,-1,636750,218316,1246772,65827,7415,623461,0
454,-1,638817,219038,1147604,65706,6998,573846,0
454,-1,639795,219169,1235442,66135,7611,617691,0
455,-1,639380,219625,1239235,65932,7285,619709,0
455,-1,639288,219384,1233230,66244,7873,616734,0
456,-1,639138,219312,1229336,65837,7146,614749,0
456,-1,635496,217250,1293951,65545,8462,647017,0
457,-1,636694,218440,1159981,65422,6701,580043,0
457,-1,637569,218685,1285725,66008,8000,643046,0
458,-1,638005,218942,1206719,65725,7037,603445,0
458,-1,639199,219803,1211131,66609,8404,605555,0
459,-1,634701,218168,1176738,65397,6902,588408,0
459,-1,635962,218706,1123079,65976,7961,561575,0
460,-1,664304,223548,1212563,69014,8216,606376,0
460,-1,646685,219577,1170043,66294,7552,584911,0
461,-1,643368,219604,1212057,65923,7020,606066,0
461,-1,643204,218244,1234717,65852,8205,617456,0
462,-1,640994,219028,1145288,65723,6774,572707,0
462,-1,644721,219202,1276352,66174,7815,638213,0
463,-1,639133,218858,1102478,65613,7148,551419,0
463,-1,647171,220716,1139252,66971,8006,569633,0
464,-1,639062,218381,1181336,65478,7583,590703,0
464,-1,645112,218933,1203187,66067,8079,601471,0
465,-1,639645,218884,1101860,65722,6754,551021,0
465,-1,647745,220418,1163940,66771,7410,581920,0
466,-1,659476,223377,1128818,68957,7141,564454,0
466,-1,644283,219441,1293129,66293,8494,646596,0
467,-1,635980,218271,1194521,65428,6554,597259,0
467,-1,639884,218015,1448094,65783,9168,724048,0
468,-1,637342,218741,1187778,65569,6806,593920,0
468,-1,641590,218251,1258627,65843,7467,629256,0
469,-1,637988,218286,1220445,65431,7115,610259,0
469,-1,664443,224159,1304389,69601,8307,652124,0
470,-1,638498,218995,1153767,65745,6428,576930,0
470,-1,640165,218516,1255240,65919,7570,627699,0
471,-1,636189,218449,1207706,65472,6034,603933,0
471,-1,649683,220420,1202091,66759,8395,600983,0
472,-1,637543,218957,1234489,65726,6582,617239,0
472,-1,643073,218613,1263969,66010,8297,631864,0
473,-1,663485,228266,1323267,68464,7191,661677,0
473,-1,646264,220523,1432599,66953,10015,716418,0
474,-1,637053,219294,1291373,66146,6651,645725,0
474,-1,641969,218573,1278833,65937,8642,639522,0
475,-1,639752,218628,1263737,65707,6887,631883,0
475,-1,664999,227205,1209199,68497,7060,604620,0
476,-1,642621,220304,1247242,66568,7399,623671,0
476,-1,644066,219111,1253834,66130,7747,626838,0
477,-1,658872,223395,1187694,69095,7494,593922,0
477,-1,641940,218672,1285676,65996,7572,642646,0
478,-1,640095,219025,1188536,65837,6651,594275,0
478,-1,640127,219026,1233526,66100,7004,616773,0
479,-1,641073,220448,1250233,66487,6881,625225,0
479,-1,642245,219046,1247046,66099,7492,623543,0
480,-1,637485,218907,1106789,65834,6521,553435,0
480,-1,643959,220001,1176093,66669,6730,588041,0
481,-1,637016,219371,1191072,65959,6620,595563,0
481,-1,640838,219037,1264050,66146,8296,631963,0
482,-1,643656,220989,1280787,66811,7600,640437,0
482,-1,640576,219312,1277729,66230,8095,638891,0
483,-1,636916,218824,1239546,65826,6913,619858,0
483,-1,646183,220799,1210128,66979,7932,605074,0
484,-1,638063,219299,1185927,65907,6076,592766,0
484,-1,645406,219390,1130580,66267,8051,565279,0
485,-1,635683,218706,1162509,65756,6184,581311,0
485,-1,644470,219315,1249740,66177,8168,624881,0
486,-1,637414,218823,1137742,65798,7284,568624,0
486,-1,645183,219984,1150810,66668,7767,575456,0
487,-1,634992,218223,1202426,65552,7224,601188,0
487,-1,643193,218542,1136513,65885,7157,568176,0
488,-1,639921,218343,1119998,65655,7148,559923,0
488,-1,640989,218728,1166052,66020,7733,583100,0
489,-1,640355,218389,1207840,65620,7992,603838,0
489,-1,645798,220452,1122849,66864,7614,561400,0
490,-1,640898,218900,1197379,65765,7072,598638,0
490,-1,642495,218850,1195025,65998,7985,597524,0
491,-1,642246,218909,1215857,65769,7305,607958,0
491,-1,642874,219263,1480487,66213,8984,740231,0
492,-1,645743,220750,1247735,66689,7310,623913,0
492,-1,640982,218965,1239255,66080,8269,619770,0
493,-1,661175,223290,1255427,69029,7398,627633,0
493,-1,640575,218891,1252829,65992,8064,626428,0
494,-1,644547,219549,1237694,66166,7778,618892,0
494,-1,662185,223483,1303981,69330,8790,652107,0
495,-1,640171,218492,1139952,65690,6975,569992,0
495,-1,639324,218317,1263295,65831,6957,631542,0
496,-1,641802,219397,1259522,65931,7642,629673,0
496,-1,643049,219025,1265354,66087,8061,632751,0
497,-1,639932,218684,1170071,65776,6739,584950,0
497,-1,642561,219075,1466189,66122,9296,733293,0
498,-1,642468,220229,1247503,66562,7155,623757,0
498,-1,646003,220868,1189006,66977,7934,594286,0
499,-1,641021,219266,1273792,65969,7499,637025,0
499,-1,643602,220023,1146441,66393,7382,573256,0
500,-1,637924,218855,1126126,65846,6712,563035,0
500,-1,641994,219406,1218433,66204,7227,609216,0
501,-1,638554,218991,1251951,65825,7384,625842,0
501,-1,642089,219890,1174579,66565,7339,587240,0
502,-1,641539,218870,1171744,65796,7294,585851,0
502,-1,639831,219167,1149767,66104,7194,574859,0
503,-1,641692,219591,1240799,66068,7481,620474,0
503,-1,642456,218728,1393740,65973,9360,696932,0
504,-1,635620,217605,1174354,65387,6954,587207,0
504,-1,645405,220653,1408259,66933,9485,704201,0
505,-1,642490,219938,1316399,66391,7313,658159,0
505,-1,662245,223810,1326887,69460,8786,663355,0
506,-1,637007,218176,1203574,65629,6948,601775,0
506,-1,641983,219429,1161763,66226,7350,580995,0
507,-1,639479,218960,1220279,65823,6882,610183,0
507,-1,639761,218907,1274895,66018,8102,637563,0
508,-1,637227,218476,1195642,65735,6821,597809,0
508,-1,642426,219978,1166234,66602,7645,582976,0
509,-1,637342,218498,1257760,65681,6549,628933,0
509,-1,639521,218857,1227027,65974,7364,613516,0
510,-1,642728,220037,1254882,66226,7738,627442,0
510,-1,638197,218236,1117565,65722,7488,558816,0
511,-1,636863,218071,1167113,65617,6659,583440,0
511,-1,641992,219906,1215743,66241,8126,607861,0
512,-1,640963,219986,1288251,66411,7381,644207,0
512,-1,645696,221740,1182377,67160,8129,591113,0
513,-1,638756,218572,1206098,65672,6996,603053,0
513,-1,643507,219530,1114041,66126,7218,556930,0
514,-1,636252,218224,1151999,65664,6464,575868,0
514,-1,645242,219383,1172318,66168,8575,586105,0
515,-1,636610,218658,1114375,65766,6304,557131,0
515,-1,643216,218770,1174154,65842,8618,587153,0
516,-1,641517,220409,1175138,66628,7079,587439,0
516,-1,665850,224385,1243558,69550,9304,621780,0
517,-1,657739,223338,1161221,69120,7254,580495,0
517,-1,642820,219308,1226044,66095,8554,613065,0
518,-1,636849,219234,1177084,65976,7147,588487,0
518,-1,648272,220731,1200304,66772,8540,600144,0
519,-1,639924,218286,1135274,65617,7555,567609,0
519,-1,641861,219040,1247949,65987,7792,623963,0
520,-1,642245,219394,1203784,66186,7705,601621,0
520,-1,642019,219333,1453468,66130,8400,726785,0
521,-1,641466,219241,1272241,65895,7717,636131,0
521,-1,642298,218576,1276807,65914,7900,638388,0
522,-1,637137,218127,1197900,65575,7359,598909,0
522,-1,647653,221173,1201289,66983,7932,600453,0
523,-1,643837,220170,1447840,66490,9668,723866,0
523,-1,641732,219247,1142843,66090,7360,571458,0
524,-1,640029,218977,1243836,65820,7821,621849,0
524,-1,643790,219798,1216631,66295,7297,608292,0
525,-1,638755,219087,1265715,65896,8214,632882,0
525,-1,642113,219740,1505475,66345,9347,752712,0
526,-1,639624,218779,1221193,65802,8356,610531,0
526,-1,639317,219111,1338767,66091,7868,669232,0
527,-1,638253,218444,1273693,65684,7918,636453,0
527,-1,649832,222087,1189260,67441,8270,594745,0
528,-1,658603,223308,1245596,69072,7604,622360,0
528,-1,691121,233220,1355924,72247,9626,677933,0
529,-1,639507,219622,1169392,66056,7060,584588,0
529,-1,641713,219296,1288773,66164,8360,644170,0
530,-1,634103,218018,1257204,65533,7549,628480,0
530,-1,643797,220551,1164071,66769,8021,582140,0
531,-1,640870,218600,1214562,65689,7898,607305,0
531,-1,641908,219655,1276605,66296,8402,638477,0
532,-1,638096,218385,1298297,65691,8003,649134,0
532,-1,647220,219878,1186028,66341,8410,592952,0
533,-1,638468,219182,1387738,65974,8875,693888,0
533,-1,643494,219091,1182773,66134,8192,591431,0
534,-1,635437,217921,1259640,65420,7477,629814,0
534,-1,645622,220411,1172636,66692,7856,586410,0
535,-1,636967,218715,1408836,65765,9174,704742,0
535,-1,643724,219373,1185915,66244,8089,593008,0
536,-1,641314,220805,1274522,66791,8195,637179,0
536,-1,642532,219243,1131735,66136,7797,565829,0
537,-1,636311,218693,1357493,65842,10120,678058,0
537,-1,643709,220026,1247942,66443,8037,623929,0
538,-1,638702,219358,1156346,66014,7644,578176,0
538,-1,663574,223900,1425359,69489,9655,712712,0
539,-1,637518,218996,1169068,65822,7310,584501,0
539,-1,642194,219817,1235024,66473,8125,617503,0
540,-1,639748,220392,1247340,66528,7763,623508,0
540,-1,643627,220406,1176181,66858,7985,588110,0
541,-1,656525,223131,1253978,69008,8918,626974,0
541,-1,641951,219025,1160484,66206,7115,580270,0
542,-1,638496,217966,1133520,65498,7433,566789,0
542,-1,641920,219159,1245379,66205,7633,622776,0
543,-1,638055,218687,1218210,65630,6454,608954,0
543,-1,647519,221954,1180946,67432,7205,590488,0
544,-1,639169,218852,1159053,65783,7486,579751,0
544,-1,660318,223789,1290433,69557,8162,645355,0
545,-1,637136,218744,1143411,65754,7216,571716,0
545,-1,639227,219043,1404422,66218,7947,702211,0
546,-1,640451,219082,1239114,65878,7290,619564,0
546,-1,642108,220176,1174082,66734,7246,587097,0
547,-1,638987,218475,1286932,65617,7412,643513,0
547,-1,637573,218670,1146364,66048,7097,573238,0
548,-1,660207,223645,1239753,69137,8375,619803,0
548,-1,642498,219089,1272726,66188,7270,636253,0
549,-1,634269,218414,1156666,65637,6597,578354,0
549,-1,644659,220379,1145650,66647,6457,572873,0
550,-1,644156,220571,1257048,66653,7873,628677,0
550,-1,638979,218711,1257477,66068,6938,628769,0
551,-1,660783,223406,1368976,69089,8173,684446,0
551,-1,644195,220143,1228676,66780,6873,614364,0
552,-1,637451,218268,1199531,65614,7150,599914,0
552,-1,639639,219332,1152692,66262,6498,576388,0
553,-1,638145,218881,1164539,65857,6939,582112,0
553,-1,639040,219185,1294409,66217,7774,647239,0
554,-1,640729,219983,1259227,66379,7424,629682,0
554,-1,641714,220243,1142928,66786,6770,571524,0
555,-1,637541,218807,1132244,65790,7236,565977,0
555,-1,657245,222671,1227037,69157,8312,613411,0
556,-1,636108,218121,1146717,65596,7227,573314,0
556,-1,634656,218638,1165853,66041,7128,582928,0
557,-1,635782,218376,1346290,65576,9793,673157,0
557,-1,648211,220307,1146435,66818,7429,573271,0
558,-1,636947,217912,1294008,65500,7133,646359,0
558,-1,645191,219377,1164174,66228,7629,582091,0
559,-1,638838,219115,1341363,65947,9062,670047,0
559,-1,645015,219565,1262253,66391,7945,631208,0
560,-1,656979,223160,1195990,69040,8391,598031,0
560,-1,643786,219216,1308082,66216,7683,654136,0
561,-1,636584,219256,1250074,65893,7489,624984,0
561,-1,666412,224089,1271440,69652,8620,635694,0
562,-1,639805,218859,1255550,65774,7400,627746,0
562,-1,644771,219713,1145626,66429,7355,572824,0
563,-1,638354,218819,1234555,65800,7559,617285,0
563,-1,647780,219907,1180352,66513,7615,590223,0
564,-1,637841,218675,1239639,65718,7165,619767,0
564,-1,644701,219526,1231562,66379,7471,615817,0
565,-1,640522,220072,1243284,66371,7403,621702,0
565,-1,643713,219485,1251963,66301,7641,626055,0
566,-1,636361,218881,1147836,65827,6822,573961,0
566,-1,647396,220835,1212293,67031,7664,606230,0
567,-1,637670,219041,1298368,65927,7769,649268,0
567,-1,663672,223780,1368723,69587,8587,684439,0
568,-1,635774,217595,1191921,65445,7112,596044,0
568,-1,643225,219748,1219541,66470,7434,609814,0
569,-1,656056,222733,1228522,68833,8153,614255,0
569,-1,642041,218914,1246271,66144,7476,623150,0
570,-1,641220,220159,1259075,66406,7807,629471,0
570,-1,640928,219466,1230158,66361,7884,615056,0
571,-1,636837,218986,1137269,65816,7582,568491,0
571,-1,640208,219036,1259524,66165,7620,629769,0
572,-1,633775,218208,1151293,65531,6848,575593,0
572,-1,643094,218942,1258902,66091,7478,629633,0
573,-1,637828,220302,1325325,66553,9109,662517,0
573,-1,641994,219136,1266443,66274,7318,633275,0
574,-1,656388,222967,1161281,68899,8469,580617,0
574,-1,645764,221209,1161336,67185,7143,580774,0
575,-1,637662,219319,1175204,66060,7290,587655,0
575,-1,662622,223869,1259300,69619,8595,629694,0
576,-1,655390,222725,1312823,68820,8374,656374,0
576,-1,643504,219959,1167715,66506,7364,583848,0
577,-1,634021,219050,1219405,65830,6706,609642,0
577,-1,642109,218756,1233487,66085,7434,616778,0
578,-1,636191,218583,1200898,65739,7385,600551,0
578,-1,646098,220983,1128800,67014,7058,563974,0
579,-1,640595,220293,1264237,66480,8055,632217,0
579,-1,646510,221226,1129560,67193,7710,564748,0
580,-1,634158,218629,1234216,65691,7308,617129,0
580,-1,639747,219148,1183239,66145,7718,591624,0
581,-1,634362,218583,1152274,65692,7636,576075,0
581,-1,644533,219265,1219627,66240,7254,609897,0
582,-1,638712,220515,1282139,66632,8029,641363,0
582,-1,644329,219560,1308796,66389,7125,654450,0
583,-1,655792,223160,1245378,69005,8281,622704,0
583,-1,646189,220799,1168217,67001,7176,584150,0
584,-1,634182,218946,1361985,65828,7762,681023,0
584,-1,663230,223765,1286598,69554,8140,643353,0
585,-1,636000,219994,1257668,66372,7636,628835,0
585,-1,643661,219217,1152219,66310,7175,576159,0
586,-1,643184,218310,1251255,65597,7556,625554,0
586,-1,643278,219419,1216983,66318,7016,608644,0
587,-1,645140,219702,1224596,66097,7829,612287,0
587,-1,640270,218966,1207315,66145,7077,603742,0
588,-1,647475,220852,1280494,66741,8888,640201,0
588,-1,640553,219142,1183759,66253,7205,592005,0
589,-1,642021,218961,1255566,65821,8100,627650,0
589,-1,646520,221022,1305022,67125,7825,652600,0
590,-1,641669,218927,1166545,65852,8066,583255,0
590,-1,665087,224458,1317329,69804,9285,658609,0
591,-1,644359,220032,1613173,66416,10010,806514,0
591,-1,640974,219150,1252058,66169,7983,626003,0
592,-1,639223,218425,1268099,65588,7938,634031,0
592,-1,640516,219154,1249807,66282,7438,624856,0
593,-1,639074,218489,1198023,65690,8090,598915,0
593,-1,637771,218588,1243445,65982,7584,621686,0
594,-1,661172,223016,1242291,68959,8490,621185,0
594,-1,642638,219117,1241995,66323,7020,621025,0
595,-1,641568,218859,1244909,65779,7307,622669,0
595,-1,641950,219223,1250310,66350,7467,625162,0
596,-1,642196,220192,1192827,66451,7724,596346,0
596,-1,640741,219200,1253304,66298,7617,626647,0
597,-1,640816,218899,1143523,65830,7022,571715,0
597,-1,640028,218715,1295962,66151,7388,647926,0
598,-1,639152,219003,1213862,65887,7077,606717,0
598,-1,645210,221135,1163405,67322,6961,581658,0
599,-1,640064,219715,1171692,66331,7633,585950,0
599,-1,661996,223970,1361544,69724,7677,680763,0
600,-1,640346,218500,1122828,65728,7789,561446,0
600,-1,638348,218830,1208259,66204,6508,604094,0
601,-1,640172,218364,1251080,65627,7352,625554,0
601,-1,640395,218406,1184725,66126,7689,592260,0
602,-1,644724,220825,1377241,66797,8649,688844,0
602,-1,641807,219299,1116657,66370,7355,558348,0
603,-1,642227,220034,1275320,66412,8105,637557,0
603,-1,660142,223305,1277324,69534,8108,638643,0
604,-1,656472,222790,1267689,68902,7880,633847,0
604,-1,640244,219590,1158799,66501,7069,579359,0
605,-1,640641,219389,1391973,66019,8236,695853,0
605,-1,639385,219140,1213333,66311,7417,606650,0
606,-1,637226,218504,1272339,65702,7370,636140,0
606,-1,638715,219179,1297403,66387,7870,648708,0
607,-1,635521,218476,1191135,65660,7876,595539,0
607,-1,636052,218440,1235754,66300,7273,617891,0
608,-1,637161,219406,1332443,65968,8454,666264,0
608,-1,640634,219145,1326117,66371,7268,662997,0
609,-1,640202,218361,1208481,65648,7950,604216,0
609,-1,646095,219380,1200339,66400,7057,600184,0
610,-1,640415,219141,1411472,65939,8728,705765,0
610,-1,644612,219062,1226416,66366,7429,613205,0
611,-1,639410,218887,1210036,65852,6723,604416,0
611,-1,644410,219228,1239356,66385,7670,619724,0
612,-1,639444,219209,1238376,65894,7274,619079,0
612,-1,648764,220859,1168107,67243,6779,583905,0
613,-1,641617,220157,1220879,66456,7675,610246,0
613,-1,665278,224028,1304829,69801,7983,652490,0
614,-1,636174,218432,1131082,65646,7007,565500,0
614,-1,643533,219352,1303100,66499,7485,651531,0
615,-1,636046,218156,1146987,65557,6619,573464,0
615,-1,640939,219031,1323362,66347,7667,661618,0
616,-1,641696,220687,1241732,66726,7273,620888,0
616,-1,642585,218936,1251570,66300,7546,625845,0
617,-1,658590,223657,1189669,69198,7103,594818,0
617,-1,648615,221175,1172063,67321,6734,585977,0
618,-1,636667,219194,1235690,65885,6315,617890,0
618,-1,643085,219436,1142056,66487,6711,570945,0
619,-1,638736,218535,1263333,65711,6569,631609,0
619,-1,642312,219085,1221165,66325,6887,610559,0
620,-1,638985,219261,1288355,65964,6711,644284,0
620,-1,641139,219010,1233589,66373,7378,616715,0
621,-1,635621,218457,1240102,65616,6185,620126,0
621,-1,641242,219052,1162709,66330,6680,581408,0
622,-1,643436,220749,1265802,66788,7400,632930,0
622,-1,659900,223502,1270664,69437,9291,635284,0
623,-1,634211,217877,1128040,65474,7154,563969,0
623,-1,644482,219782,1171228,66492,7983,585777,0
624,-1,637647,218368,1198809,65622,7470,599416,0
624,-1,639534,218485,1178670,66029,7887,589266,0
625,-1,638375,219005,1243122,65878,7506,621589,0
625,-1,641553,218870,1198112,66172,8013,599042,0
626,-1,638053,219941,1255145,66370,7013,627684,0
626,-1,662661,224070,1297877,69700,8775,648936,0
627,-1,645039,220375,1284466,66619,7715,642240,0
627,-1,642899,219870,1178095,66526,7966,589053,0
628,-1,640296,218848,1321997,65832,7213,660966,0
628,-1,669032,229813,1224797,69735,7373,612400,0
629,-1,639147,218835,1149007,65833,6523,574478,0
629,-1,640023,219244,1150866,66278,7073,575410,0
630,-1,639694,218417,1117705,65734,7155,558768,0
630,-1,641409,220058,1311809,66534,7311,655874,0
631,-1,657223,223163,1175144,69016,7464,587656,0
631,-1,644628,219475,1237973,66360,7504,618987,0
632,-1,636895,218479,1213695,65655,6427,606831,0
632,-1,639968,218740,1153194,66188,7154,576633,0
633,-1,638544,218830,1138051,65800,6813,569078,0
633,-1,640449,219198,1222569,66322,7089,611328,0
634,-1,656923,223107,1206393,69007,7485,603134,0
634,-1,641041,218808,1255759,66193,7022,627913,0
635,-1,637451,218849,1206292,65834,6840,603107,0
635,-1,642065,220024,1227940,66649,6973,613949,0
636,-1,636634,218929,1235027,65809,7230,617552,0
636,-1,644211,220764,1160738,67155,7763,580331,0
637,-1,639590,218864,1240546,65846,7136,620304,0
637,-1,660860,222970,1294775,69282,8229,647399,0
638,-1,637194,218455,1358644,65649,7885,679331,0
638,-1,641296,219453,1232391,66416,7649,616188,0
639,-1,637210,218597,1236384,65740,7654,617945,0
639,-1,640518,219691,1155606,66628,7836,577791,0
640,-1,638706,219192,1253576,65892,7237,626811,0
640,-1,640325,219480,1317597,66449,7497,658633,0
641,-1,639305,218983,1314126,65822,7756,657021,0
641,-1,634908,217970,1236162,65877,7197,618115,0
642,-1,635452,218259,1175629,65585,6450,587818,0
642,-1,640778,220116,1176479,66868,7586,588215,0
643,-1,639124,219918,1271087,66358,6851,635536,0
643,-1,635234,218616,1175818,66046,6586,587921,0
644,-1,633215,218313,1142115,65624,7001,571056,0
644,-1,640727,219200,1176121,66487,7554,588091,0
645,-1,639982,220245,1210637,66572,7629,605224,0
645,-1,642795,220198,1143865,66995,7972,571925,0
646,-1,639297,218713,1172485,65812,7523,586180,0
646,-1,634625,218068,1241243,65896,7741,620617,0
647,-1,639194,219087,1158828,65862,7253,579450,0
647,-1,636024,219129,1140511,66434,7476,570302,0
648,-1,638113,218860,1161626,65870,7021,580813,0
648,-1,637016,218244,1217781,65952,7449,608796,0
649,-1,642250,220845,1238363,66753,7557,619092,0
649,-1,635738,217810,1129955,65679,7073,564995,0
650,-1,657188,223329,1269176,69128,7975,634539,0
650,-1,655665,222678,1477270,69196,9620,738359,0
651,-1,637793,218738,1226464,65775,7408,613302,0
651,-1,634774,218269,1326161,65995,8429,662830,0
652,-1,636576,218337,1154375,65627,6732,577185,0
652,-1,634606,218121,1337070,65955,8712,667798,0
653,-1,641070,220106,1254918,66423,7243,627400,0
653,-1,639296,220348,1137186,66722,7691,568495,0
654,-1,636466,218689,1139955,65781,7015,569944,0
654,-1,633113,218171,1157121,65775,7133,578535,0
655,-1,635572,218261,1247253,65629,7126,623648,0
655,-1,663956,222578,1328190,69012,8490,664098,0
656,-1,640955,220360,1238836,66537,7030,619406,0
656,-1,644947,218800,1322450,65954,7859,661163,0
657,-1,657197,223415,1197873,69089,7234,599011,0
657,-1,642701,218374,1308750,65864,7700,654330,0
658,-1,635098,218377,1276530,65639,6834,638395,0
658,-1,644996,219256,1237081,66142,8024,618509,0
659,-1,637782,218861,1158175,65841,6940,579147,0
659,-1,641605,218046,1230903,65722,8004,615524,0
660,-1,667373,229937,1273191,69523,6877,636461,0
660,-1,641985,217831,1229223,65625,8304,614596,0
661,-1,657193,223326,1175814,69085,7722,587833,0
661,-1,641184,218568,1139655,65933,7833,569791,0
662,-1,635828,218362,1264755,65605,6969,632304,0
662,-1,639539,217460,1255228,65485,8071,627589,0
663,-1,635028,218615,1209703,65763,6922,604795,0
663,-1,644904,219919,1218489,66691,8312,609253,0
664,-1,655507,223119,1179643,69028,7600,589601,0
664,-1,660870,222442,1285734,69032,8544,642726,0
665,-1,633464,218248,1248898,65594,7762,624599,0
665,-1,640332,218405,1245958,65853,7850,622970,0
666,-1,634950,219211,1196662,65974,7422,598203,0
666,-1,640315,217956,1255465,65776,8383,627621,0
667,-1,634063,218515,1364539,65630,8364,682148,0
667,-1,647196,219610,1197773,66476,7518,598849,0
668,-1,634273,218906,1336358,65878,7927,667903,0
668,-1,643330,218743,1161332,65979,7688,580656,0
669,-1,635374,219416,1155446,65955,8083,577855,0
669,-1,640080,217676,1300362,65634,7858,650192,0
670,-1,643068,219114,1211444,65912,8135,605718,0
670,-1,638020,217859,1230955,65724,7757,615449,0
671,-1,640041,218367,1238373,65584,8445,619142,0
671,-1,641528,218344,1147405,65843,7694,573682,0
672,-1,638060,218618,1273693,65695,8000,637082,0
672,-1,644368,219802,1256962,66631,7732,628514,0
673,-1,641764,219244,1320413,65963,8073,660304,0
673,-1,640852,218859,1174567,66024,7148,587267,0
674,-1,642592,220403,1541858,66567,8374,770834,0
674,-1,647074,219907,1183737,66697,8216,591941,0
675,-1,638635,219050,1251346,65887,7565,625682,0
675,-1,641786,217989,1168407,65726,7937,584165,0
676,-1,636514,218306,1238983,65612,7139,619684,0
676,-1,642695,218197,1156909,65826,7564,578378,0
677,-1,643044,219911,1295856,66356,8526,647758,0
677,-1,643104,218890,1177616,66077,7836,588730,0
678,-1,636975,217980,1200196,65502,7030,600054,0
678,-1,645167,219717,1163320,66540,7986,581542,0
679,-1,637232,218565,1190194,65654,7709,595106,0
679,-1,643414,218975,1187460,66100,8150,593647,0
680,-1,660040,223158,1272050,69030,8180,635433,0
680,-1,641770,217986,1138506,65804,7351,569240,0
681,-1,636645,218712,1269554,65682,7686,634786,0
681,-1,639828,217977,1239971,65809,8238,619941,0
682,-1,637914,219006,1209321,65912,7333,605098,0
682,-1,644433,219640,1183177,66712,8196,591580,0
683,-1,638078,218589,1244325,65699,8079,622121,0
683,-1,643487,219420,1186404,66442,7482,593172,0
684,-1,645098,221353,1276564,66941,7822,637986,0
684,-1,641198,218334,1257535,65972,7860,628826,0
685,-1,658850,223163,1246430,69048,7980,623042,0
685,-1,642107,219282,1220129,66268,7934,610075,0
686,-1,637054,218577,1271076,65736,8101,635527,0
686,-1,645827,220533,1175365,66876,7893,587674,0
687,-1,638207,219229,1377649,65898,7884,688327,0
687,-1,639194,218393,1148956,65821,7426,574484,0
688,-1,637166,218525,1196999,65674,7428,598403,0
688,-1,642937,218469,1361718,65912,8118,680808,0
689,-1,638127,219109,1314621,65841,8032,657244,0
689,-1,640684,217885,1173276,65662,7483,586611,0
690,-1,636096,218831,1217363,65843,7269,607976,0
690,-1,641158,218162,1284235,65735,8109,642133,0
691,-1,640714,218781,1262161,65745,7937,631063,0
691,-1,659534,222684,1307575,69082,9382,653804,0
692,-1,640310,219618,1340502,66203,7756,670291,0
692,-1,640074,218595,1244531,65981,7662,622271,0
693,-1,636897,218279,1278606,65595,7685,639308,0
693,-1,640612,218947,1158379,66206,7563,579291,0
694,-1,643279,220945,1371879,66768,8262,685892,0
694,-1,637156,217950,1221230,65665,7498,610600,0
695,-1,636916,218778,1260125,65759,7354,630035,0
695,-1,658698,222445,1256010,68961,7983,628055,0
696,-1,636121,218022,1244554,65578,7713,622013,0
696,-1,639717,218940,1147004,65995,6801,573502,0
697,-1,639525,220053,1429218,66574,7709,714358,0
697,-1,635780,217805,1164750,65656,7224,582420,0
698,-1,636793,218842,1181071,65879,7210,590501,0
698,-1,640819,220152,1201756,66707,8079,600895,0
699,-1,635229,218569,1170364,65822,7917,585473,0
699,-1,660311,222322,1273966,68975,8273,637011,0
700,-1,633197,218235,1142037,65713,7402,570874,0
700,-1,641634,217646,1235389,65604,8062,617750,0
701,-1,634388,218507,1238468,65767,9151,618886,0
701,-1,639025,217613,1150371,65645,6733,575195,0
702,-1,642522,220663,1239869,66832,8189,619821,0
702,-1,643854,218671,1198861,66036,7272,599389,0
703,-1,656056,222535,1363534,68880,8374,681784,0
703,-1,640993,218035,1238856,65741,8273,619458,0
704,-1,636131,218260,1330912,65713,6656,665347,0
704,-1,639860,218622,1203592,65943,6910,601785,0
705,-1,637750,219236,1273297,65978,7206,636667,0
705,-1,644756,219494,1168311,66554,6908,584209,0
706,-1,635425,218345,1175019,65764,6972,587519,0
706,-1,640062,217996,1220511,65921,6531,610202,0
707,-1,637469,220064,1293664,66599,7589,646849,0
707,-1,637737,217171,1144979,65531,6789,572493,0
708,-1,634485,218041,1312248,65626,7094,656055,0
708,-1,642529,219463,1164117,66655,7847,582077,0
709,-1,634046,218048,1227109,65679,7565,613584,0
709,-1,638755,217946,1168861,65849,7416,584368,0
710,-1,633692,218312,1151433,65714,7187,575673,0
710,-1,640126,218708,1243567,66036,7663,621814,0
711,-1,655266,223033,1205199,69032,8837,602677,0
711,-1,643131,218360,1166705,65808,7052,583318,0
712,-1,637116,218301,1148146,65758,6824,574066,0
712,-1,641177,218451,1303699,65841,7158,651821,0
713,-1,635154,217934,1231500,65590,7404,615859,0
713,-1,639800,218612,1146768,65984,6988,573402,0
714,-1,638845,219711,1244696,66417,7547,622403,0
714,-1,636992,217679,1130486,65554,6851,565230,0
715,-1,637883,218046,1185664,65626,6840,592798,0
715,-1,637211,218037,1218689,65714,7895,609372,0
716,-1,636966,218326,1194349,65750,7467,597125,0
716,-1,660832,222794,1282658,69104,8049,641320,0
717,-1,641723,220485,1174200,66723,7087,587143,0
717,-1,638303,217766,1209877,65568,6513,604953,0
718,-1,655546,222546,1134344,68891,7262,567162,0
718,-1,640192,219499,1155274,66416,7206,577642,0
719,-1,635870,218799,1137887,65944,6727,568786,0
719,-1,639085,218409,1311400,65901,7391,655702,0
720,-1,635997,218405,1164912,65700,7744,582386,0
720,-1,639099,218634,1218123,65910,6333,609031,0
721,-1,644747,220980,1486463,66908,8337,743579,0
721,-1,638642,218207,1182289,65806,7665,591153,0
722,-1,637923,219732,1269106,66380,7750,634162,0
722,-1,637869,217555,1167309,65547,7600,583671,0
723,-1,636446,218484,1194740,65815,7710,597400,0
723,-1,635825,217353,1163767,65474,6975,581879,0
724,-1,634369,217886,1259664,65551,7475,629724,0
724,-1,638851,218810,1203478,66047,7282,601734,0
725,-1,636234,218933,1310695,65940,7139,655053,0
725,-1,641419,219094,1164883,66320,7530,582608,0
726,-1,633923,218046,1184614,65600,7184,592254,0
726,-1,639423,218135,1167177,65772,7301,583623,0
727,-1,632725,217862,1398022,65612,7660,699096,0
727,-1,642200,220068,1201384,66655,7592,600652,0
728,-1,637662,218949,1270304,65917,7380,635229,0
728,-1,658948,222969,1404735,69200,8691,702192,0
729,-1,632970,217512,1199299,65521,7079,599668,0
729,-1,638087,217875,1255624,65838,7949,627842,0
730,-1,636759,219349,1272045,66258,7569,636001,0
730,-1,635450,218068,1122360,65833,8141,561120,0
731,-1,634103,217864,1135431,65547,7264,567753,0
731,-1,658373,222158,1271699,69091,7950,635904,0
732,-1,633046,218317,1245035,65751,7056,622611,0
732,-1,636524,217678,1222775,65702,6412,611366,0
733,-1,633481,218795,1268370,65791,7287,634181,0
733,-1,641419,219348,1164144,66496,7092,582122,0
734,-1,635675,217735,1254965,65527,7439,627558,0
734,-1,638580,218706,1212889,66119,7431,606449,0
735,-1,639769,220133,1234647,66525,7889,617393,0
735,-1,638251,218221,1154155,65931,7524,577172,0
736,-1,654817,222556,1201610,68934,7971,600849,0
736,-1,637851,218309,1258673,65960,7686,629343,0
737,-1,636538,218303,1242469,65735,7318,621282,0
737,-1,639055,219236,1203084,66457,7269,601472,0
738,-1,632540,217802,1163407,65528,7478,581755,0
738,-1,635861,217756,1157264,65743,7809,578611,0
739,-1,631159,217658,1167923,65493,7616,584009,0
739,-1,640437,220042,1159481,66805,8244,579719,0
740,-1,634676,217819,1117743,65483,6995,558855,0
740,-1,637484,218776,1155509,66073,7123,577776,0
741,-1,639380,220178,1199881,66605,7963,599754,0
741,-1,644754,218471,1246924,66017,7146,623409,0
742,-1,633895,218334,1151648,65759,7706,575924,0
742,-1,638895,216633,1243616,65272,7739,621721,0
743,-1,632781,218049,1154783,65554,7143,577445,0
743,-1,645003,219464,1232636,66247,7462,616335,0
744,-1,636312,219460,1336156,66109,8556,668653,0
744,-1,638673,217696,1221154,65562,7536,610573,0
745,-1,631111,217890,1226592,65503,7326,613218,0
745,-1,645849,219794,1154939,66592,7404,577437,0
746,-1,636875,218682,1218250,65856,7242,609075,0
746,-1,661919,222546,1299466,69025,8662,649690,0
747,-1,636304,218918,1242129,65885,7580,621158,0
747,-1,643719,219287,1181958,66104,7176,591017,0
748,-1,637297,219546,1250823,66344,7818,625491,0
748,-1,640853,218931,1157992,66164,6599,579019,0
749,-1,632109,217907,1132404,65527,7111,566163,0
749,-1,642826,218531,1170572,65858,6726,585275,0
750,-1,632489,217730,1232418,65512,7317,616257,0
750,-1,642472,218763,1171265,65997,7507,585595,0
751,-1,659576,227211,1293601,68322,6998,647051,0
751,-1,638819,217641,1197323,65625,7951,598357,0
752,-1,652789,222514,1167822,68908,7654,583923,0
752,-1,638935,218532,1186717,65852,6803,593375,0
753,-1,629000,217244,1206343,65302,7341,603270,0
753,-1,638755,217632,1269328,65599,8307,634751,0
754,-1,635997,218803,1143459,65889,6804,571593,0
754,-1,639024,218124,1295043,65795,8030,647268,0
755,-1,637777,219894,1229346,66449,7255,614744,0
755,-1,640712,219023,1236930,66207,8056,618379,0
756,-1,632329,218284,1210250,65735,6764,605207,0
756,-1,641805,218654,1332959,65946,8324,666487,0
757,-1,631858,218586,1139821,65743,6981,569972,0
757,-1,639323,218043,1249931,65725,7529,624936,0
758,-1,637077,220021,1278785,66553,7593,639483,0
758,-1,641014,219520,1198991,66524,7925,599351,0
759,-1,632325,218573,1319408,65835,6654,659757,0
759,-1,657489,222566,1276416,69000,8865,638240,0
760,-1,635602,218183,1129844,65678,6138,565033,0
760,-1,639085,217932,1228264,65753,7972,614411,0
761,-1,643799,218605,1162076,65834,6898,581093,0
761,-1,640081,218535,1309940,66081,7996,654203,0
762,-1,647433,220243,1251545,66637,7688,625757,0
762,-1,638518,218432,1314432,66023,8750,657177,0
763,-1,645325,220029,1166954,66472,7886,583564,0
763,-1,637242,217627,1325442,65729,7870,662762,0
764,-1,642154,218554,1112328,65807,7657,556255,0
764,-1,642779,220254,1220315,66901,7467,609774,0
765,-1,640364,218149,1155794,65630,7289,577929,0
765,-1,665245,227787,1251023,68838,7677,625484,0
766,-1,647476,220564,1174018,66755,7696,587102,0
766,-1,635270,217696,1133130,65753,7344,566564,0
767,-1,662936,222908,1156216,69023,8429,578199,0
767,-1,643894,218724,1247316,66263,7708,623768,0
768,-1,640853,218363,1143663,65753,7177,571881,0
768,-1,643873,220157,1128586,66881,7526,564154,0
769,-1,641403,218910,1149969,65940,7316,575033,0
769,-1,638772,217827,1146417,65859,7361,573139,0
770,-1,642126,218568,1247495,65825,7756,623811,0
770,-1,639290,218119,1104421,65898,6814,552203,0
771,-1,640868,218387,1258282,65728,7805,629189,0
771,-1,641063,219091,1162850,66257,7879,581378,0
772,-1,645392,220891,1258343,66909,8003,629243,0
772,-1,641882,219489,1125842,66590,7827,562811,0
773,-1,642512,218494,1235488,65742,7463,617837,0
773,-1,639848,218333,1228972,65952,7100,614438,0
774,-1,638627,217983,1335071,65575,7458,667599,0
774,-1,637868,218219,1194377,65985,6628,597177,0
775,-1,642634,218979,1167448,65899,7709,583757,0
775,-1,638616,218199,1254490,65907,7469,627296,0
776,-1,638901,218486,1234120,65733,7551,617176,0
776,-1,636785,217935,1213634,65794,7851,606829,0
777,-1,637338,217275,1271403,65473,8556,635628,0
777,-1,642906,220434,1217103,66967,7491,608750,0
778,-1,643152,220240,1438368,66627,8824,719774,0
778,-1,661036,222635,1255164,69137,7859,627577,0
779,-1,658969,222450,1203283,68830,8436,601620,0
779,-1,638714,217962,1201164,65849,6602,600574,0
780,-1,639973,219050,1234552,65960,8225,617329,0
780,-1,637583,217791,1138386,65734,6321,569195,0
781,-1,642186,220032,1332964,66481,8659,666737,0
781,-1,641440,219616,1147875,66567,7021,573931,0
782,-1,642966,218334,1293752,65725,7712,646584,0
782,-1,638320,217709,1233141,65656,7236,616603,0
783,-1,642521,218372,1204324,65754,6962,602130,0
783,-1,637517,218052,1154710,65884,7285,577437,0
784,-1,662354,222828,1251066,68989,8457,625575,0
784,-1,642300,220136,1178310,66813,7927,589155,0
785,-1,641659,218800,1295536,65912,8023,647790,0
785,-1,657182,222606,1396113,69134,8460,698053,0
786,-1,640029,218588,1195838,65767,7985,597963,0
786,-1,636225,218348,1303338,66008,7984,651633,0
787,-1,640665,218195,1144122,65665,7630,571960,0
787,-1,639779,218902,1245030,66127,7193,622614,0
788,-1,644305,220437,1345073,66699,8848,672311,0
788,-1,636723,218458,1151187,66009,6942,575560,0
789,-1,640494,218833,1392962,65854,8286,696529,0
789,-1,641394,219850,1147382,66688,7524,573739,0
790,-1,638982,218135,1333551,65693,8190,666825,0
790,-1,658092,223011,1271007,69274,8575,635556,0
791,-1,642650,219814,1366140,66412,8498,682994,0
791,-1,637544,219082,1236650,66257,8403,618298,0
792,-1,637449,217334,1223854,65336,7274,611948,0
792,-1,638610,217091,1151964,65569,7519,576021,0
793,-1,635750,217518,1251619,65473,6767,626073,0
793,-1,642494,218760,1127571,66207,7565,563778,0
794,-1,644933,221115,1260513,66955,7012,630343,0
794,-1,643465,219723,1110322,66722,6957,554988,0
795,-1,642950,219357,1295039,66277,7641,647564,0
795,-1,659720,222459,1192157,69112,8490,595997,0
796,-1,640018,218450,1223210,65746,7359,611681,0
796,-1,637427,217359,1149280,65691,7482,574650,0
797,-1,640881,219276,1254924,66057,7727,627509,0
797,-1,640056,218108,1100976,65788,6849,550396,0
798,-1,637948,218143,1153391,65646,7043,576778,0
798,-1,640366,218569,1163728,66055,7129,581804,0
799,-1,644686,220269,1270196,66566,7429,635128,0
799,-1,640054,218501,1210783,66017,7686,605303,0
800,-1,639550,219203,1149445,66025,6538,574769,0
800,-1,640756,218015,1162891,65854,7061,581480,0
801,-1,641981,219280,1146230,66056,6882,573125,0
801,-1,643525,219783,1160212,66694,6742,580116,0
802,-1,643901,220944,1266494,66852,7166,633305,0
802,-1,638572,218052,1210182,65917,6543,604918,0
803,-1,637452,218411,1215959,65783,6944,608027,0
803,-1,637435,218211,1237356,65966,7247,618621,0
804,-1,635433,217890,1145742,65581,6710,572913,0
804,-1,640491,219029,1172066,66434,7281,586004,0
805,-1,640415,220042,1228402,66493,6941,614263,0
805,-1,638669,218766,1278920,66174,7904,639408,0
806,-1,637194,218439,1154210,65806,7276,577160,0
806,-1,643203,220975,1153043,67180,7316,576498,0
807,-1,636213,218483,1200908,65753,7446,600535,0
807,-1,639885,218260,1258083,65867,8473,629448,0
808,-1,643470,218145,1171391,65678,7078,585744,0
808,-1,642557,219443,1214517,66560,8453,607425,0
809,-1,646709,220271,1248790,66591,7739,624510,0
809,-1,635231,217512,1245094,65692,7656,622496,0
810,-1,660962,222565,1162526,68984,8400,581319,0
810,-1,636101,218107,1289492,65952,7839,644068,0
811,-1,643234,219422,1185822,66293,6835,593028,0
811,-1,636103,218008,1240643,65875,8525,620285,0
812,-1,639908,218482,1268624,65785,7286,634339,0
812,-1,635827,217814,1300260,65836,8689,650044,0
813,-1,659699,222956,1275691,69054,7399,637824,0
813,-1,641647,219376,1261774,66518,8340,630524,0
814,-1,639588,218416,1268016,65749,7530,634089,0
814,-1,637303,218092,1283269,65872,8232,641875,0
815,-1,639763,218580,1254812,65740,6756,627434,0
815,-1,635873,218127,1280123,65953,8829,640094,0
816,-1,642818,220324,1266235,66623,6857,633306,0
816,-1,639275,218529,1286818,66028,8381,643636,0
817,-1,638120,218738,1261215,65875,6325,630696,0
817,-1,640159,218668,1339686,66100,7890,669965,0
818,-1,635465,217738,1321321,65477,6582,660709,0
818,-1,640191,219177,1152476,66469,7082,576172,0
819,-1,639344,218164,1123028,65583,6503,561620,0
819,-1,637154,218415,1150054,66009,7174,574998,0
820,-1,637678,217824,1220575,65406,7066,610334,0
820,-1,635535,218284,1237131,65944,7578,618706,0
821,-1,661485,222974,1183358,68938,8412,591655,0
821,-1,658809,222618,1269545,69190,8258,634769,0
822,-1,638803,218500,1208088,65676,7653,604093,0
822,-1,635748,217685,1185258,65748,6908,592789,0
823,-1,636420,217932,1237295,65387,6894,618744,0
823,-1,637301,218638,1253717,66103,7821,626804,0
824,-1,640217,219181,1231787,65878,7162,615977,0
824,-1,637627,218415,1234641,65993,7197,617318,0
825,-1,637238,218627,1229032,65730,7001,614604,0
825,-1,635925,218225,1132531,65982,6965,566251,0
826,-1,637630,218025,1199690,65481,7360,599946,0
826,-1,634808,218058,1297131,65808,7144,648507,0
827,-1,640328,218970,1230437,65807,7124,615252,0
827,-1,638430,217732,1118026,65741,8233,558942,0
828,-1,644041,220870,1283403,66697,7109,641771,0
828,-1,638763,218620,1297427,66089,8169,648727,0
829,-1,645192,220315,1187478,66521,8063,593783,0
829,-1,635734,217780,1297662,65779,7991,648686,0
830,-1,640428,218579,1155045,65605,7455,577596,0
830,-1,658472,223000,1308199,69327,9337,654108,0
831,-1,641323,219407,1224739,66102,7126,612438,0
831,-1,634587,217896,1129889,65777,7357,564920,0
832,-1,639225,218575,1144528,65653,6995,572321,0
832,-1,636012,218971,1150183,66355,7668,575094,0
833,-1,657627,222722,1190757,68791,7866,595384,0
833,-1,637773,218485,1215615,65955,8263,607901,0
834,-1,642201,219643,1144997,66005,6828,572588,0
834,-1,655722,223110,1275336,69348,8825,637690,0
835,-1,638789,218604,1156520,65668,7306,578306,0
835,-1,634543,217942,1161620,65849,8084,580772,0
836,-1,639524,219411,1224337,65936,7115,612260,0
836,-1,636272,218869,1249335,66191,8551,624642,0
837,-1,644123,221055,1314202,66786,7668,657177,0
837,-1,631430,217462,1216286,65689,7846,608148,0
838,-1,639555,219422,1235543,65795,6949,617820,0
838,-1,643625,218215,1259186,65915,7632,629571,0
839,-1,641070,220282,1258751,66286,7425,629497,0
839,-1,645969,219553,1174988,66669,7738,587522,0
840,-1,641445,218980,1222615,65667,6803,611349,0
840,-1,643339,218541,1317024,66092,8175,658428,0
841,-1,639510,218837,1310624,65608,7322,655476,0
841,-1,638054,216865,1224976,65576,7915,612600,0
842,-1,639086,219035,1245612,65717,6697,622902,0
842,-1,639384,217786,1250333,65768,7878,625129,0
843,-1,640559,219764,1262982,66127,6864,631524,0
843,-1,641816,219441,1166526,66635,7365,583007,0
844,-1,665292,228426,1254932,68463,7057,627558,0
844,-1,661538,222513,1316218,69164,8819,658007,0
845,-1,640179,219021,1156517,65642,6763,578274,0
845,-1,639171,217970,1262116,65817,8472,630944,0
846,-1,645513,221429,1285821,66762,7786,642745,0
846,-1,658398,221935,1232663,68941,9016,616237,0
847,-1,658775,223212,1202414,68861,7920,601240,0
847,-1,638106,218634,1187950,66073,7258,593835,0
848,-1,639535,219209,1187482,65740,6677,593882,0
848,-1,642080,218310,1301227,65996,9147,650589,0
849,-1,644818,220954,1231605,66524,7846,615864,0
849,-1,645353,219620,1283573,66603,8653,640984,0
850,-1,637674,218691,1174932,65628,7494,587510,0
850,-1,637793,217072,1234450,65490,7900,617258,0
851,-1,634851,218286,1125163,65501,7400,562648,0
851,-1,640027,218315,1226984,66008,7759,612974,0
852,-1,636375,218685,1165417,65615,7905,582770,0
852,-1,643422,219805,1288577,66779,8861,644129,0
853,-1,659654,222763,1157102,68766,7742,578635,0
853,-1,639432,218185,1234756,65964,8023,617362,0
854,-1,642450,218400,1140725,65594,7219,570406,0
854,-1,638504,217942,1279819,65830,8200,639913,0
855,-1,661872,223050,1228383,68800,8070,614160,0
855,-1,641883,219605,1183297,66604,8118,591841,0
856,-1,637714,218226,1261870,65499,7144,630967,0
856,-1,637058,217538,1255827,65705,8000,627890,0
857,-1,638842,218226,1167167,65610,6338,583596,0
857,-1,637142,218050,1223687,65884,7842,611798,0
858,-1,636772,217389,1165190,65305,6791,582681,0
858,-1,639768,218710,1257003,66121,7987,628486,0
859,-1,636890,217776,1263479,65418,7546,631774,0
859,-1,641335,219577,1163890,66550,7473,581953,0
860,-1,636726,217712,1231567,65348,6783,615866,0
860,-1,637715,218414,1255811,65999,7452,627919,0
861,-1,640378,219537,1259170,66119,7503,629647,0
861,-1,639735,219499,1181992,66365,6981,591000,0
862,-1,641494,218131,1192781,65456,6769,596522,0
862,-1,674271,229446,1275180,69579,7935,637644,0
863,-1,639739,218486,1133998,65554,6586,567084,0
863,-1,661909,222634,1323871,69216,8570,661984,0
864,-1,658815,222504,1272741,68671,6931,636366,0
864,-1,642358,219687,1177556,66625,6959,588763,0
865,-1,642298,219729,1247547,66275,7405,623823,0
865,-1,638321,217987,1174465,65922,6619,587183,0
866,-1,636955,218078,1158636,65552,6681,579364,0
866,-1,638778,218037,1235396,65864,8015,617653,0
867,-1,636387,218116,1227292,65597,6808,613676,0
867,-1,639463,218484,1197690,66069,7636,598807,0
868,-1,640306,219539,1162058,65975,6494,581076,0
868,-1,638714,217597,1101207,65731,6599,550562,0
869,-1,645425,220305,1273889,66614,7587,637015,0
869,-1,639979,218414,1220312,66037,7047,610155,0
870,-1,661359,223221,1201490,69100,7886,600653,0
870,-1,640062,218581,1220592,66087,7115,610184,0
871,-1,641117,219999,1176672,66406,7363,588396,0
871,-1,635404,217291,1238931,65569,6900,619436,0
872,-1,637435,217780,1124669,65541,6887,562390,0
872,-1,642667,219680,1181693,66583,7989,590842,0
873,-1,638641,218857,1158826,65865,7009,579470,0
873,-1,640975,218636,1260450,66071,8127,630245,0
874,-1,639392,219005,1109189,65900,6633,554639,0
874,-1,638257,217596,1229102,65680,8247,614576,0
875,-1,641328,220344,1167099,66565,6960,583612,0
875,-1,638984,218329,1254480,65940,7601,627204,0
876,-1,656875,222875,1191210,68958,7791,595622,0
876,-1,658231,222623,1286588,69170,8485,643279,0
877,-1,638750,218696,1191531,65803,7257,595780,0
877,-1,639277,218296,1236912,65959,7255,618524,0
878,-1,640409,218581,1248574,65700,7233,624338,0
878,-1,635415,217866,1345445,65785,8031,672746,0
879,-1,638126,217982,1195411,65363,7839,597813,0
879,-1,637830,218014,1246770,65854,8111,623409,0
880,-1,640105,218287,1166740,65474,6715,583993,0
880,-1,641565,219891,1173298,66768,7078,586664,0
881,-1,642093,219773,1253357,66326,7303,626607,0
881,-1,634161,217455,1152041,65637,7275,576055,0
882,-1,659011,223068,1211572,68950,7522,605687,0
882,-1,635770,218089,1174581,65969,7180,587312,0
883,-1,637171,218481,1182303,65779,6619,591209,0
883,-1,640742,218008,1160314,65909,7866,580114,0
884,-1,633784,217756,1220286,65452,7631,610212,0
884,-1,638341,217507,1101654,65688,7355,550821,0
885,-1,632421,217544,1216325,65359,7842,608218,0
885,-1,642008,218696,1191358,66119,7962,595619,0
886,-1,637098,217828,1406856,65538,8646,703518,0
886,-1,641268,218730,1198472,66111,7215,599264,0
887,-1,639030,218378,1318806,65601,7337,656472,0
887,-1,640176,218418,1305947,65983,7291,653012,0
888,-1,641575,219753,1516864,66372,9618,758340,0
888,-1,659012,222478,1293865,69145,7936,646884,0
889,-1,658940,222891,1255901,68883,8417,627864,0
889,-1,636158,217712,1163628,65756,6787,581878,0
890,-1,635397,217803,1290024,65382,8059,645229,0
890,-1,637130,217895,1156020,65855,6629,578059,0
891,-1,637697,218775,1184123,65810,7785,591999,0
891,-1,635764,217550,1107984,65695,7227,554027,0
892,-1,636171,218175,1217264,65561,8130,608715,0
892,-1,639574,219567,1153166,66521,6621,576618,0
893,-1,633385,217447,1223732,65288,7651,611941,0
893,-1,636113,217745,1246183,65823,7403,623136,0
894,-1,633653,217833,1140428,65355,7666,570554,0
894,-1,639591,217915,1216419,65816,7469,608266,0
895,-1,637550,218532,1314292,65695,8644,657290,0
895,-1,639732,218594,1238218,66037,7534,619149,0
896,-1,639342,219882,1264425,66215,7727,632054,0
896,-1,642901,219741,1147676,66723,7288,573917,0
897,-1,633024,217774,1229165,65332,7542,614656,0
897,-1,636438,217894,1218476,65875,6926,609281,0
898,-1,634907,218228,1260464,65510,7376,629918,0
898,-1,636227,218006,1227567,65816,7674,613762,0
899,-1,640460,220700,1252394,66569,7710,626240,0
899,-1,636647,217775,1227885,65787,7108,613869,0
900,-1,633176,218245,1188843,65535,7203,594485,0
900,-1,642494,220072,1169713,66810,6817,584961,0
901,-1,630956,217071,1340887,65026,7481,670543,0
901,-1,638227,218603,1241745,66096,7071,620862,0
902,-1,640121,217993,1321547,65488,8603,660660,0
902,-1,639775,220277,1121544,66875,7115,560719,0
903,-1,634420,217158,1143571,65056,6777,571835,0
903,-1,655071,222864,1195755,69178,8327,597827,0
904,-1,644114,220326,1263903,66444,7917,632093,0
904,-1,640517,218481,1118351,65969,6845,559211,0
905,-1,664322,224005,1276249,69673,7992,638240,0
905,-1,642533,219684,1115859,66619,6722,557969,0
906,-1,638030,218361,1251893,65486,7263,626054,0
906,-1,637825,218004,1194244,65868,7137,597167,0
907,-1,634781,217452,1258299,65231,7343,629215,0
907,-1,637456,217982,1200436,65791,7604,600192,0
908,-1,638786,218589,1350726,65594,8033,675498,0
908,-1,636875,217890,1279954,65775,8179,640091,0
909,-1,643522,220611,1282035,66555,8207,641053,0
909,-1,657599,222612,1190490,69196,8045,595314,0
910,-1,635251,217808,1153382,65334,6685,576732,0
910,-1,637284,218103,1154869,65922,7623,577479,0
911,-1,642018,220791,1255651,66482,7296,627953,0
911,-1,637311,217908,1177269,65854,7319,588659,0
912,-1,636281,218330,1239405,65505,7018,619813,0
912,-1,636616,217938,1262842,65884,8017,631123,0
913,-1,633663,217963,1297989,65384,7627,649043,0
913,-1,644129,221444,1434880,67372,9607,717206,0
914,-1,635724,217659,1091508,65183,6916,545808,0
914,-1,656909,222409,1260016,69075,8116,630039,0
915,-1,657701,222200,1189863,68624,8145,594973,0
915,-1,636630,218244,1215325,66008,7148,607767,0
916,-1,636339,217850,1103428,65413,7540,551776,0
916,-1,634740,217920,1227939,65872,7437,613889,0
917,-1,637002,218019,1149683,65444,7562,574719,0
917,-1,637868,218070,1277911,65853,8028,638975,0
918,-1,635756,217996,1239241,65387,6712,619609,0
918,-1,658741,222570,1383708,69181,8884,691854,0
919,-1,640284,220450,1513683,66495,8724,756913,0
919,-1,640391,219652,1148557,66599,7397,574333,0
920,-1,635367,217686,1268313,65279,7733,634225,0
920,-1,635261,218017,1221784,65870,7881,610882,0
921,-1,633473,217906,1134994,65404,6098,567525,0
921,-1,632808,217545,1132424,65735,7263,566259,0
922,-1,636651,217678,1235089,65406,7266,617592,0
922,-1,633500,217750,1210864,65748,7095,605469,0
923,-1,635749,217662,1173627,65353,6733,586859,0
923,-1,640234,220308,1155693,66890,7421,577794,0
924,-1,637652,218266,1282861,65596,7365,641451,0
924,-1,655877,222080,1273686,68932,8145,636880,0
925,-1,655465,221918,1262341,68515,8357,631264,0
925,-1,634205,217847,1247574,65744,7140,623841,0
926,-1,634920,217665,1349626,65229,7738,674852,0
926,-1,633665,217170,1213635,65537,7572,606864,0
927,-1,636986,218753,1256849,65637,7581,628496,0
927,-1,635621,218346,1125495,66060,7114,562797,0
928,-1,635202,218525,1223164,65576,6757,611632,0
928,-1,638410,219917,1196700,66758,8048,598429,0
929,-1,632939,217701,1139503,65307,6866,569800,0
929,-1,642321,218557,1295298,66001,8364,647753,0
930,-1,634991,217341,1251308,65163,7316,625476,0
930,-1,638664,217818,1116406,65822,8070,558257,0
931,-1,634458,218101,1188834,65453,7653,594332,0
931,-1,639635,218079,1158574,65848,7459,579398,0
932,-1,632115,217564,1229243,65243,7785,614487,0
932,-1,636704,217555,1215600,65750,7627,607850,0
933,-1,638132,219460,1375199,66081,8396,687466,0
933,-1,640297,218116,1270601,65918,7872,635341,0
934,-1,633648,218015,1194383,65390,6922,597185,0
934,-1,637375,217978,1207229,65875,7887,603665,0
935,-1,639818,220337,1263722,66456,7975,632370,0
935,-1,637174,217519,1137621,65631,7278,568896,0
936,-1,658313,222786,1272367,68745,7823,636219,0
936,-1,639924,219328,1174283,66496,7567,587203,0
937,-1,634985,217967,1259803,65381,7867,629905,0
937,-1,642803,218794,1360528,66073,8225,680310,0
938,-1,637381,219233,1257628,66032,7652,628807,0
938,-1,643068,219464,1408088,66617,9283,703668,0
939,-1,634625,217572,1208439,65192,6650,604146,0
939,-1,660706,222933,1260138,69300,8596,629992,0
940,-1,633520,218138,1167423,65473,6198,583742,0
940,-1,639464,218255,1221762,65970,7376,610943,0
941,-1,637792,219778,1249239,66429,6852,624632,0
941,-1,642323,219615,1150229,66612,7300,575255,0
942,-1,655607,223187,1263181,69022,7872,631669,0
942,-1,637235,217880,1200903,65802,7465,600489,0
943,-1,631937,218067,1129852,65552,6419,564907,0
943,-1,636857,218073,1151833,65906,7375,575981,0
944,-1,631883,217306,1232673,65301,7038,616277,0
944,-1,659180,223502,1346683,69427,8474,673371,0
945,-1,663693,228298,1306550,68846,8014,653319,0
945,-1,636166,217465,1159563,65563,7651,579810,0
946,-1,631958,217483,1137081,65373,6477,568572,0
946,-1,638779,218452,1157004,66209,7378,578570,0
947,-1,639099,220153,1296966,66527,7593,648483,0
947,-1,637852,218569,1232847,66031,8099,616525,0
948,-1,631903,217708,1276160,65415,7145,638150,0
948,-1,637568,218442,1217678,65885,7881,608892,0
949,-1,631027,218003,1156371,65570,6260,578169,0
949,-1,640783,220147,1129615,66771,8292,564894,0
950,-1,636920,220717,1234249,66604,6434,617086,0
950,-1,653823,222503,1214730,68247,8080,607375,0
951,-1,640472,218141,1159167,65562,7323,579553,0
951,-1,632269,218117,1189725,65029,7410,594707,0
952,-1,639036,217948,1156872,65487,7482,578429,0
952,-1,631949,217859,1160886,64931,7330,580489,0
953,-1,639229,218252,1117342,65534,7227,558586,0
953,-1,636608,218955,1291466,65375,8267,645773,0
954,-1,636687,217591,1176351,65341,7406,588178,0
954,-1,640781,219236,1146323,65638,7220,573224,0
955,-1,640905,218092,1248149,65396,7346,623449,0
955,-1,634824,217511,1138742,64845,6571,569406,0
956,-1,645144,220456,1332315,66436,9425,666038,0
956,-1,639264,219010,1094455,65378,6597,547272,0
957,-1,639956,218557,1182950,65579,7211,591387,0
957,-1,661035,226796,1230004,67587,7009,615043,0
958,-1,643877,220288,1326995,66329,8549,663122,0
958,-1,660406,223445,1295952,68613,7881,648069,0
959,-1,637143,217804,1257929,65228,8453,628767,0
959,-1,631717,217019,1140741,64638,6542,570413,0
960,-1,637372,218235,1324819,65481,8414,662378,0
960,-1,634888,218001,1274722,65068,7437,637395,0
961,-1,635929,217761,1211784,65270,7943,605679,0
961,-1,637660,219448,1247783,65714,6877,623745,0
962,-1,640307,218112,1252546,65419,8565,625801,0
962,-1,633722,218205,1388505,65129,8288,694265,0
963,-1,636236,217923,1256189,65344,8261,628085,0
963,-1,654954,222406,1266053,68294,7842,633130,0
964,-1,638752,218215,1313897,65448,8172,656273,0
964,-1,633540,218073,1133417,65014,6937,566747,0
965,-1,636140,217464,1220439,65167,8224,610097,0
965,-1,639097,220171,1159860,65943,6824,579999,0
966,-1,637006,218336,1316792,65449,8439,658096,0
966,-1,632817,218200,1417749,65124,8778,709014,0
967,-1,643645,220090,1289297,66265,9538,644378,0
967,-1,642332,220643,1166890,66137,7099,583559,0
968,-1,638574,218388,1215564,65464,8029,607594,0
968,-1,633164,217396,1129819,64775,6372,564831,0
969,-1,636214,217829,1257883,65357,8734,628956,0
969,-1,635042,218172,1222334,65010,7424,611161,0
970,-1,636182,218209,1126714,65517,7315,562807,0
970,-1,631960,217582,1299702,64800,7576,649889,0
971,-1,636822,217666,1284057,65284,8463,642349,0
971,-1,634114,217507,1144205,64810,7106,572131,0
972,-1,639186,217982,1300307,65462,8905,650271,0
972,-1,634839,218228,1228835,65076,7606,614433,0
973,-1,637878,217583,1238548,65181,8743,619266,0
973,-1,633111,218174,1216545,65009,7487,608320,0
974,-1,645662,220846,1461043,66623,8991,730458,0
974,-1,631770,217744,1321881,64872,7335,661015,0
975,-1,637673,218062,1168863,65426,7274,584408,0
975,-1,638811,220621,1264461,66125,7374,631798,0
976,-1,636039,218026,1257728,65409,7999,628902,0
976,-1,630697,217800,1223068,64902,8315,611306,0
977,-1,643429,220198,1249773,66446,7772,624956,0
977,-1,638063,217989,1210378,65020,7191,605240,0
978,-1,637340,218228,1218208,65557,6318,609118,0
978,-1,636146,217676,1207409,64842,7556,603778,0
979,-1,636493,218286,1164093,65609,7428,582011,0
979,-1,636490,217824,1245956,64791,7062,622977,0
980,-1,636931,218059,1112965,65469,6914,556408,0
980,-1,636546,218165,1291656,64957,7264,645935,0
981,-1,636013,218162,1181005,65551,7387,590540,0
981,-1,636383,218308,1202218,64919,6370,601197,0
982,-1,634272,217803,1115842,65334,7108,557927,0
982,-1,637283,218990,1419626,65226,7864,709795,0
983,-1,637557,217390,1291542,65321,7676,645745,0
983,-1,636700,218850,1144162,65325,6845,572227,0
984,-1,634178,217187,1143145,65250,6722,571588,0
984,-1,633439,217903,1201361,64838,7139,600743,0
985,-1,636175,218054,1188460,65539,6835,594215,0
985,-1,631348,216908,1119519,64594,6652,559790,0
986,-1,640438,219827,1287265,66431,7473,643645,0
986,-1,660399,223772,1259729,69023,8245,629854,0
987,-1,635003,218003,1147993,65521,7037,573979,0
987,-1,636347,218567,1211054,65102,6945,605577,0
988,-1,636314,219081,1311500,66079,6951,655745,0
988,-1,634943,218406,1151736,64996,6524,575868,0
989,-1,636099,217675,1325674,65415,7220,662980,0
989,-1,639395,219618,1258195,65640,7165,629128,0
990,-1,635089,217622,1184083,65424,7016,592004,0
990,-1,635159,218436,1453880,65127,8581,726933,0
991,-1,647767,223383,1291538,67164,7635,645771,0
991,-1,633047,218105,1221104,64910,7118,610600,0
992,-1,687674,234589,1360861,71846,8828,680395,0
992,-1,635493,218464,1224807,64983,7088,612406,0
993,-1,673190,231356,1232346,68946,7032,616138,0
993,-1,638402,219594,1154432,65606,6717,577291,0
994,-1,683241,234788,1304638,69886,7594,652332,0
994,-1,634163,218261,1269988,64975,7107,635039,0
995,-1,690455,237853,1304195,70896,7895,652116,0
995,-1,634971,218452,1236111,65016,7152,618138,0
996,-1,684781,235857,1277243,70326,7347,638636,0
996,-1,654736,222661,1281271,68137,7429,640648,0
997,-1,690875,236916,1418315,70685,7678,709205,0
997,-1,636927,219998,1264107,65847,9493,631395,0
998,-1,700147,239043,1324251,71607,8790,662162,0
998,-1,653863,222583,1216314,68170,8373,608188,0
999,-1,690926,236127,1260461,70369,8195,630095,0
999,-1,631360,218030,1122573,64855,7116,561367,0
1000,-1,696933,237724,1268906,71121,9077,634441,0
1000,-1,634741,219251,1253347,65230,7867,626714,0
1001,-1,690007,236143,1226842,70377,7263,613406,0
1001,-1,634449,219547,1163040,65566,7351,581575,0
1002,-1,691334,236406,1331274,70409,8540,665578,0
1002,-1,656816,223255,1352296,68392,7587,676250,0
1003,-1,713639,241278,1345078,73923,9615,672524,0
1003,-1,635501,218623,1220425,65093,6897,610278,0
1004,-1,692091,236482,1335388,70453,8621,667665,0
1004,-1,643084,221274,1196877,66264,6705,598528,0
1005,-1,709466,240372,1400164,73554,8364,700027,0
1005,-1,633120,217814,1225092,64805,6625,612597,0
1006,-1,690854,237377,1294215,70803,7137,647204,0
1006,-1,632193,218064,1362902,64867,7909,681481,0
1007,-1,685536,235814,1363056,70276,7960,681592,0
1007,-1,637123,220411,1160748,65849,7385,580443,0
1008,-1,692476,236936,1298018,70676,7928,648973,0
1008,-1,632808,218113,1225966,64885,6783,613033,0
1009,-1,691079,236410,1235556,70465,7803,617782,0
1009,-1,631776,218089,1242526,64852,7809,621299,0
1010,-1,691075,236836,1299687,70579,7820,649882,0
1010,-1,653344,223213,1269203,68405,8349,634672,0
1011,-1,712536,241348,1326081,73874,8040,663105,0
1011,-1,631816,218129,1204155,64943,7284,602129,0
1012,-1,688339,236234,1351972,70380,7117,676026,0
1012,-1,634096,217919,1123499,64821,6155,561801,0
1013,-1,694004,238643,1353521,71372,7671,676762,0
1013,-1,637190,219839,1214256,65674,6640,607175,0
1014,-1,688876,236148,1167677,70450,7223,583779,0
1014,-1,640503,221285,1161343,66209,6724,580728,0
1015,-1,694802,238546,1254767,71444,8039,627265,0
1015,-1,652299,222788,1247746,68218,7588,623936,0
1016,-1,709173,240808,1256805,73658,8679,628341,0
1016,-1,632356,218093,1200905,64924,6512,600516,0
1017,-1,688193,236576,1179114,70556,7483,589507,0
1017,-1,632746,218178,1264739,64938,7336,632428,0
1018,-1,688427,236161,1230416,70368,8015,615010,0
1018,-1,631706,218170,1261160,65045,8102,630038,0
1019,-1,688769,236556,1195052,70552,7428,597473,0
1019,-1,651429,222826,1173027,68275,7991,586567,0
1020,-1,692009,237912,1308659,71177,7827,654312,0
1020,-1,631468,218090,1138069,64926,6253,569089,0
1021,-1,687564,236530,1365545,70573,7872,682795,0
1021,-1,635586,220120,1156883,65774,6155,578424,0
1022,-1,686054,236262,1311513,70470,7759,655804,0
1022,-1,628273,217889,1198704,64817,6344,599643,0
1023,-1,681785,234545,1212071,69844,7266,606068,0
1023,-1,627752,218047,1208952,64856,6406,604514,0
