0,0,236,643348.377119,219777.330508,1224384.809322,66422.775424,7478.114407,612225.627119,11187.525499,3250.764836,67226.695325,1396.012398,636.350046,33623.637117
0,1,0,-nan,-nan,-nan,-nan,-nan,-nan,-nan,-nan,-nan,-nan,-nan,-nan
1,0,236,643367.978814,219773.144068,1229810.186441,66420.855932,7469.500000,614935.813559,10384.623302,2920.108529,71250.126651,1310.288248,621.764401,35640.159920
1,1,0,-nan,-nan,-nan,-nan,-nan,-nan,-nan,-nan,-nan,-nan,-nan,-nan
2,0,236,643182.720339,219688.500000,1225069.186441,66396.224576,7485.021186,612563.461864,9680.553038,2744.395467,66061.203615,1268.753354,640.850656,33019.203062
2,1,0,-nan,-nan,-nan,-nan,-nan,-nan,-nan,-nan,-nan,-nan,-nan,-nan
3,0,236,643664.461864,219816.703390,1230506.737288,66469.199153,7510.186441,615277.474576,9903.324317,2696.900504,63755.103626,1273.270961,651.129787,31859.787845
3,1,0,-nan,-nan,-nan,-nan,-nan,-nan,-nan,-nan,-nan,-nan,-nan,-nan
4,0,236,643261.961864,219789.474576,1229614.470339,66420.737288,7386.707627,614830.737288,10497.322005,3028.927834,68121.651252,1306.296252,596.465475,34045.189426
4,1,0,-nan,-nan,-nan,-nan,-nan,-nan,-nan,-nan,-nan,-nan,-nan,-nan
5,0,236,643597.084746,219817.716102,1232659.567797,66453.686441,7475.300847,616361.084746,10971.782540,3095.857733,67467.399317,1376.102019,644.411963,33720.923729
5,1,0,-nan,-nan,-nan,-nan,-nan,-nan,-nan,-nan,-nan,-nan,-nan,-nan
6,0,236,643528.703390,219789.745763,1229674.237288,66427.902542,7466.394068,614864.097458,10024.346429,2832.964304,66556.544512,1265.810226,629.473523,33267.522721
6,1,0,-nan,-nan,-nan,-nan,-nan,-nan,-nan,-nan,-nan,-nan,-nan,-nan
7,0,335,642062.498507,219603.850746,1221511.134328,66307.289552,7450.185075,610780.650746,9095.066403,2621.792132,62947.683466,1125.261741,577.403779,31467.554396
7,1,0,-nan,-nan,-nan,-nan,-nan,-nan,-nan,-nan,-nan,-nan,-nan,-nan
