-1,0,0.0598893
-1,1,0.059386
-1,2,0.059386
-1,3,0.059386
-1,4,0.059386
-1,5,0.059386
-1,6,0.059386
-1,7,0.059386
-1,8,0.059386
-1,9,0.0598893
-1,10,0.0598893
-1,11,0.0598893
-1,12,0.0598893
-1,13,0.0598893
-1,14,0.0598893
-1,15,0.105687
