0,0,9,658977.222222,225071.222222,1345260.222222,68247.777778,8411.444444,672629.666667,20223.026973,7359.194699,112139.362371,2150.995004,832.229283,56093.492546
0,1,0,-nan,-nan,-nan,-nan,-nan,-nan,-nan,-nan,-nan,-nan,-nan,-nan
1,0,8,650496.000000,222667.125000,1313263.375000,67240.625000,7786.000000,656572.375000,18836.277445,6769.127001,98618.702184,2067.433792,802.560590,49317.621569
1,1,0,-nan,-nan,-nan,-nan,-nan,-nan,-nan,-nan,-nan,-nan,-nan,-nan
2,0,8,641128.000000,219806.750000,1318635.375000,66194.375000,7945.500000,659295.375000,3434.843519,930.699300,44755.097989,375.894911,645.442290,22364.944315
2,1,0,-nan,-nan,-nan,-nan,-nan,-nan,-nan,-nan,-nan,-nan,-nan,-nan
3,0,8,644012.000000,220263.875000,1274997.750000,66586.250000,7800.250000,637470.750000,7274.302028,1732.748931,43236.626221,1141.929261,619.027413,21664.734315
3,1,0,-nan,-nan,-nan,-nan,-nan,-nan,-nan,-nan,-nan,-nan,-nan,-nan
4,0,8,641529.375000,220002.750000,1258552.250000,66325.125000,7652.375000,629354.500000,4363.839363,1182.917870,46276.217193,454.158408,476.309232,23150.224135
4,1,0,-nan,-nan,-nan,-nan,-nan,-nan,-nan,-nan,-nan,-nan,-nan,-nan
5,0,8,642455.750000,220042.500000,1302416.375000,66429.500000,7709.125000,651187.250000,5610.377388,1681.392280,56555.501430,899.641178,575.784777,28255.096424
5,1,0,-nan,-nan,-nan,-nan,-nan,-nan,-nan,-nan,-nan,-nan,-nan,-nan
6,0,8,642967.625000,220330.250000,1270388.375000,66637.875000,7888.875000,635205.500000,7931.780159,1572.119886,58233.566433,1157.283504,706.464868,29090.912395
6,1,0,-nan,-nan,-nan,-nan,-nan,-nan,-nan,-nan,-nan,-nan,-nan,-nan
7,0,8,640910.750000,219722.500000,1258933.125000,66214.375000,7835.750000,629401.750000,5523.448781,1431.244476,35150.921462,715.284024,650.797540,17663.410350
7,1,0,-nan,-nan,-nan,-nan,-nan,-nan,-nan,-nan,-nan,-nan,-nan,-nan
8,0,8,645430.750000,220457.125000,1318376.500000,66729.125000,7858.375000,659176.250000,6597.039919,1783.657229,62649.727112,1204.145282,979.145283,31327.352520
8,1,0,-nan,-nan,-nan,-nan,-nan,-nan,-nan,-nan,-nan,-nan,-nan,-nan
9,0,8,642701.750000,219610.375000,1299309.500000,66162.500000,7653.375000,649594.625000,2274.759424,745.067436,39741.625511,357.080523,670.916153,19803.509689
9,1,0,-nan,-nan,-nan,-nan,-nan,-nan,-nan,-nan,-nan,-nan,-nan,-nan
10,0,8,646733.625000,220583.250000,1256666.000000,66982.000000,7516.625000,628337.250000,8593.724934,1981.125801,66474.316783,1383.576705,824.102078,33234.088944
10,1,0,-nan,-nan,-nan,-nan,-nan,-nan,-nan,-nan,-nan,-nan,-nan,-nan
11,0,8,647000.250000,220405.250000,1308141.125000,66896.000000,7733.750000,654128.125000,9737.175267,1670.110457,65084.190209,1179.250821,639.661385,32518.455984
11,1,0,-nan,-nan,-nan,-nan,-nan,-nan,-nan,-nan,-nan,-nan,-nan,-nan
12,0,8,642786.250000,219774.750000,1294340.375000,66256.750000,7549.375000,647070.625000,4015.455695,1026.424346,40930.835802,368.424941,529.999985,20416.179729
12,1,0,-nan,-nan,-nan,-nan,-nan,-nan,-nan,-nan,-nan,-nan,-nan,-nan
13,0,8,642446.500000,219713.000000,1330243.500000,66246.125000,7795.750000,665009.125000,2291.563658,977.999617,70303.872801,490.468510,469.698507,35121.518082
13,1,0,-nan,-nan,-nan,-nan,-nan,-nan,-nan,-nan,-nan,-nan,-nan,-nan
14,0,8,647079.750000,220603.000000,1350976.750000,66948.875000,7911.375000,675494.000000,10499.811412,1872.087071,72100.571693,1351.753439,543.416263,36039.489959
14,1,0,-nan,-nan,-nan,-nan,-nan,-nan,-nan,-nan,-nan,-nan,-nan,-nan
15,0,8,642282.500000,219790.750000,1277067.625000,66448.625000,7628.125000,638544.625000,7694.898391,1775.694565,76644.729943,1248.861375,770.236236,38297.224455
15,1,0,-nan,-nan,-nan,-nan,-nan,-nan,-nan,-nan,-nan,-nan,-nan,-nan
16,0,8,641771.375000,220053.750000,1293073.500000,66417.375000,7584.750000,646545.875000,3318.155321,719.441928,40614.368590,341.000344,465.683033,20289.467042
16,1,0,-nan,-nan,-nan,-nan,-nan,-nan,-nan,-nan,-nan,-nan,-nan,-nan
17,0,8,640154.125000,219267.750000,1284910.250000,66049.500000,7523.500000,642383.750000,1838.026349,515.698010,68532.553093,276.080604,489.396567,34156.081881
17,1,0,-nan,-nan,-nan,-nan,-nan,-nan,-nan,-nan,-nan,-nan,-nan,-nan
18,0,8,642760.250000,219804.125000,1312369.000000,66432.250000,7723.750000,656173.000000,7031.643651,1592.698531,63921.659226,1121.429306,695.701040,31939.781719
18,1,0,-nan,-nan,-nan,-nan,-nan,-nan,-nan,-nan,-nan,-nan,-nan,-nan
19,0,8,639853.875000,219139.125000,1272821.750000,66031.375000,7425.750000,636411.000000,2348.463564,580.676855,59870.834118,413.469146,639.030076,29979.913813
19,1,0,-nan,-nan,-nan,-nan,-nan,-nan,-nan,-nan,-nan,-nan,-nan,-nan
20,0,8,644768.500000,220695.500000,1301327.875000,66869.125000,7723.375000,650729.750000,6471.918900,1560.575855,76213.458519,1107.745169,781.123860,38099.956082
20,1,0,-nan,-nan,-nan,-nan,-nan,-nan,-nan,-nan,-nan,-nan,-nan,-nan
21,0,8,640567.375000,219581.250000,1284737.125000,66154.500000,7885.625000,642265.250000,2374.849781,791.816385,68339.750809,404.952775,531.236044,34146.844063
21,1,0,-nan,-nan,-nan,-nan,-nan,-nan,-nan,-nan,-nan,-nan,-nan,-nan
22,0,8,644829.250000,220012.625000,1246998.625000,66496.750000,7619.750000,623468.875000,6802.170991,1724.935212,33045.431897,1108.242161,331.340365,16539.420496
22,1,0,-nan,-nan,-nan,-nan,-nan,-nan,-nan,-nan,-nan,-nan,-nan,-nan
23,0,8,642044.625000,219836.125000,1285145.375000,66313.000000,7537.250000,642613.000000,5604.187317,1081.242392,75179.303061,529.074191,525.388368,37620.481619
23,1,0,-nan,-nan,-nan,-nan,-nan,-nan,-nan,-nan,-nan,-nan,-nan,-nan
24,0,8,647111.500000,220587.000000,1307655.500000,66903.750000,7915.625000,653781.375000,9898.539665,2039.150129,82571.080564,1586.949255,746.121628,41204.836160
24,1,0,-nan,-nan,-nan,-nan,-nan,-nan,-nan,-nan,-nan,-nan,-nan,-nan
25,0,8,644984.500000,220427.625000,1288825.000000,66677.750000,7756.375000,644426.125000,6574.024661,1427.446403,71998.094027,1028.473474,534.337192,35980.737959
25,1,0,-nan,-nan,-nan,-nan,-nan,-nan,-nan,-nan,-nan,-nan,-nan,-nan
26,0,8,641782.625000,219715.125000,1277294.875000,66126.750000,7505.750000,638664.750000,3421.473072,574.473767,71091.530147,322.138848,469.894071,35558.824706
26,1,0,-nan,-nan,-nan,-nan,-nan,-nan,-nan,-nan,-nan,-nan,-nan,-nan
27,0,8,641287.250000,219396.000000,1292697.500000,66083.750000,7873.375000,646318.250000,4096.407351,704.598822,64955.146153,342.280130,585.107883,32473.105067
27,1,0,-nan,-nan,-nan,-nan,-nan,-nan,-nan,-nan,-nan,-nan,-nan,-nan
28,0,8,645565.500000,220312.500000,1308813.250000,66641.375000,7782.375000,654355.125000,7844.481707,1751.350979,115324.572904,1273.691970,960.746577,57618.248191
28,1,0,-nan,-nan,-nan,-nan,-nan,-nan,-nan,-nan,-nan,-nan,-nan,-nan
29,0,8,646566.375000,220600.375000,1297379.125000,66903.125000,7851.500000,648672.750000,10239.537916,1853.162495,79015.992142,1413.540187,616.887956,39500.129616
29,1,0,-nan,-nan,-nan,-nan,-nan,-nan,-nan,-nan,-nan,-nan,-nan,-nan
30,0,8,645165.250000,220543.625000,1284494.125000,66709.375000,7541.125000,642224.750000,7423.949046,1568.070705,53077.143363,984.969154,507.829311,26399.512523
30,1,0,-nan,-nan,-nan,-nan,-nan,-nan,-nan,-nan,-nan,-nan,-nan,-nan
31,0,8,641002.750000,219539.625000,1296409.125000,66101.625000,7437.625000,648132.500000,3008.577187,530.999750,53177.628135,296.828628,572.878900,26547.027494
31,1,0,-nan,-nan,-nan,-nan,-nan,-nan,-nan,-nan,-nan,-nan,-nan,-nan
32,0,8,648491.625000,221782.875000,1293584.375000,67100.000000,7692.000000,646798.375000,10108.501285,3181.889236,64521.852699,1293.623593,720.955442,32227.242206
32,1,0,-nan,-nan,-nan,-nan,-nan,-nan,-nan,-nan,-nan,-nan,-nan,-nan
33,0,8,645244.125000,220538.125000,1333526.375000,66721.000000,7956.250000,666752.750000,8560.808117,1477.213461,57014.389576,955.408290,646.614017,28497.459333
33,1,0,-nan,-nan,-nan,-nan,-nan,-nan,-nan,-nan,-nan,-nan,-nan,-nan
34,0,8,647768.000000,221658.875000,1341532.250000,67071.250000,7839.000000,670746.625000,12051.316194,3391.508714,74870.625872,1373.983420,546.400037,37493.066595
34,1,0,-nan,-nan,-nan,-nan,-nan,-nan,-nan,-nan,-nan,-nan,-nan,-nan
35,0,8,641735.875000,219667.250000,1310675.000000,66164.375000,7670.125000,655442.625000,2707.033082,685.170371,72828.435861,335.867138,501.225108,36531.770231
35,1,0,-nan,-nan,-nan,-nan,-nan,-nan,-nan,-nan,-nan,-nan,-nan,-nan
36,0,8,647091.375000,220938.125000,1308394.375000,67019.125000,7936.875000,654166.125000,7914.432796,1839.486643,50803.505221,1436.060535,437.955887,25382.029979
36,1,0,-nan,-nan,-nan,-nan,-nan,-nan,-nan,-nan,-nan,-nan,-nan,-nan
37,0,8,641612.250000,219717.500000,1333442.500000,66199.125000,7904.375000,666716.500000,2025.299962,685.561996,69744.495290,301.914490,464.276571,34897.909013
37,1,0,-nan,-nan,-nan,-nan,-nan,-nan,-nan,-nan,-nan,-nan,-nan,-nan
38,0,8,641131.625000,219683.000000,1242470.375000,66181.375000,7391.000000,621236.500000,2509.099786,687.027656,63112.007508,469.034364,539.252724,31541.092827
38,1,0,-nan,-nan,-nan,-nan,-nan,-nan,-nan,-nan,-nan,-nan,-nan,-nan
39,0,8,646954.500000,221444.250000,1312186.750000,66967.125000,7996.000000,656102.000000,11884.034994,3298.757939,82042.366940,1351.310238,544.760498,41072.795002
39,1,0,-nan,-nan,-nan,-nan,-nan,-nan,-nan,-nan,-nan,-nan,-nan,-nan
40,0,8,641328.000000,219587.750000,1307614.500000,66112.250000,7419.750000,653773.250000,2861.497554,604.290028,83325.093221,216.235260,697.027394,41596.218797
40,1,0,-nan,-nan,-nan,-nan,-nan,-nan,-nan,-nan,-nan,-nan,-nan,-nan
41,0,8,645959.375000,220558.125000,1315601.125000,66702.000000,8221.125000,657791.375000,7140.456742,1921.874244,65817.644051,1286.533035,611.198298,32888.592342
41,1,0,-nan,-nan,-nan,-nan,-nan,-nan,-nan,-nan,-nan,-nan,-nan,-nan
42,0,8,646738.750000,220760.000000,1274191.250000,66953.500000,8003.125000,637047.000000,7451.086309,1760.945130,65741.536512,1299.703332,451.792939,32852.609767
42,1,0,-nan,-nan,-nan,-nan,-nan,-nan,-nan,-nan,-nan,-nan,-nan,-nan
43,0,8,644362.625000,220554.875000,1303471.500000,66669.125000,7820.125000,651705.625000,7976.450400,1635.769501,60734.242160,1023.018015,552.420455,30384.421781
43,1,0,-nan,-nan,-nan,-nan,-nan,-nan,-nan,-nan,-nan,-nan,-nan,-nan
44,0,8,641907.125000,219903.375000,1350239.250000,66291.125000,7945.625000,675116.875000,3082.585824,960.372446,59247.948266,480.808288,504.577778,29620.132572
44,1,0,-nan,-nan,-nan,-nan,-nan,-nan,-nan,-nan,-nan,-nan,-nan,-nan
45,0,8,647440.750000,220975.625000,1294710.250000,67046.125000,7866.000000,647308.625000,9511.283559,2076.339805,88163.191538,1578.269182,1046.747224,44033.205201
45,1,0,-nan,-nan,-nan,-nan,-nan,-nan,-nan,-nan,-nan,-nan,-nan,-nan
46,0,8,641400.250000,219399.750000,1267361.500000,66089.375000,7468.375000,633590.875000,3558.532484,600.375664,57203.742268,233.723628,356.731670,28540.686705
46,1,0,-nan,-nan,-nan,-nan,-nan,-nan,-nan,-nan,-nan,-nan,-nan,-nan
47,0,8,643011.375000,219941.625000,1257052.375000,66289.500000,7662.000000,628510.500000,4142.077013,706.784610,68983.101132,347.203471,459.546244,34397.248357
47,1,0,-nan,-nan,-nan,-nan,-nan,-nan,-nan,-nan,-nan,-nan,-nan,-nan
48,0,8,644465.375000,220713.000000,1323518.125000,66801.875000,7961.375000,661697.625000,5607.688159,1230.272734,172616.566401,928.270494,903.408122,86342.277029
48,1,0,-nan,-nan,-nan,-nan,-nan,-nan,-nan,-nan,-nan,-nan,-nan,-nan
49,0,8,640395.125000,219478.500000,1289750.000000,66062.375000,7755.375000,644880.500000,2903.801450,727.823468,55145.261705,318.341380,544.636103,27566.219563
49,1,0,-nan,-nan,-nan,-nan,-nan,-nan,-nan,-nan,-nan,-nan,-nan,-nan
50,0,8,643526.875000,220276.625000,1287877.250000,66572.375000,7766.500000,644029.000000,4643.987523,1143.755867,73433.069641,1070.643141,731.886774,36728.941446
50,1,0,-nan,-nan,-nan,-nan,-nan,-nan,-nan,-nan,-nan,-nan,-nan,-nan
51,0,8,640389.125000,219631.125000,1292445.250000,66114.625000,7712.250000,646166.375000,3154.925492,887.134071,87826.864610,377.272759,628.037569,43869.630512
51,1,0,-nan,-nan,-nan,-nan,-nan,-nan,-nan,-nan,-nan,-nan,-nan,-nan
52,0,8,644974.375000,220912.750000,1304352.000000,66859.875000,8252.000000,652202.000000,8010.829029,1576.257415,98038.184708,1008.076812,920.057335,48955.350813
52,1,0,-nan,-nan,-nan,-nan,-nan,-nan,-nan,-nan,-nan,-nan,-nan,-nan
53,0,8,649065.375000,221417.375000,1281055.875000,67410.125000,7887.875000,640539.375000,9911.651199,2071.418592,46585.097506,1497.487265,335.745602,23359.456152
53,1,0,-nan,-nan,-nan,-nan,-nan,-nan,-nan,-nan,-nan,-nan,-nan,-nan
54,0,8,640080.750000,219585.000000,1304139.500000,66092.750000,7620.625000,652086.375000,3535.034751,811.834805,52895.725283,391.878728,629.868625,26437.534316
54,1,0,-nan,-nan,-nan,-nan,-nan,-nan,-nan,-nan,-nan,-nan,-nan,-nan
55,0,8,643313.000000,220176.500000,1295872.125000,66524.875000,7818.375000,647937.000000,8343.642835,1707.403950,45834.845256,1074.455960,564.259678,22895.232681
55,1,0,-nan,-nan,-nan,-nan,-nan,-nan,-nan,-nan,-nan,-nan,-nan,-nan
56,0,8,642191.250000,220207.125000,1326694.750000,66544.000000,7559.125000,663375.000000,8294.981431,1872.473994,95879.537471,1322.859214,425.842822,47948.311633
56,1,0,-nan,-nan,-nan,-nan,-nan,-nan,-nan,-nan,-nan,-nan,-nan,-nan
57,0,8,641805.250000,219517.000000,1278184.125000,66071.625000,7734.250000,639135.375000,3816.038939,725.157224,61049.092054,443.431206,566.122502,30509.982505
57,1,0,-nan,-nan,-nan,-nan,-nan,-nan,-nan,-nan,-nan,-nan,-nan,-nan
58,0,8,644230.125000,220207.875000,1333021.500000,66554.625000,7836.375000,666453.750000,7408.113009,1190.404914,115898.557743,1083.290120,648.854170,57943.536248
58,1,0,-nan,-nan,-nan,-nan,-nan,-nan,-nan,-nan,-nan,-nan,-nan,-nan
59,0,8,644920.000000,220492.250000,1305750.750000,66713.750000,8483.000000,652904.750000,8434.659448,1832.807597,99897.466905,1120.638964,1365.468235,49921.818025
59,1,0,-nan,-nan,-nan,-nan,-nan,-nan,-nan,-nan,-nan,-nan,-nan,-nan
60,0,8,646946.750000,220816.250000,1302953.125000,66969.000000,8187.250000,651511.000000,9634.852590,2194.332800,54816.448183,1442.193555,672.261621,27502.271256
60,1,0,-nan,-nan,-nan,-nan,-nan,-nan,-nan,-nan,-nan,-nan,-nan,-nan
61,0,8,644778.500000,219950.500000,1281503.375000,66447.125000,7824.250000,640698.375000,8606.016427,1648.660062,99414.660394,1042.689484,735.149772,49670.803056
61,1,0,-nan,-nan,-nan,-nan,-nan,-nan,-nan,-nan,-nan,-nan,-nan,-nan
62,0,8,645539.125000,220335.375000,1312945.250000,66596.375000,7983.250000,656459.750000,7188.312362,1879.142886,49053.275114,1304.069011,529.480583,24491.554574
62,1,0,-nan,-nan,-nan,-nan,-nan,-nan,-nan,-nan,-nan,-nan,-nan,-nan
63,0,8,641605.250000,219636.250000,1292700.000000,66116.375000,7794.500000,646348.750000,2517.587623,665.733759,67521.549605,357.510817,646.172771,33723.941109
63,1,0,-nan,-nan,-nan,-nan,-nan,-nan,-nan,-nan,-nan,-nan,-nan,-nan
64,0,8,644507.875000,219874.875000,1291834.250000,66418.625000,7778.000000,645843.875000,6458.986849,1546.827918,49039.581729,1101.570803,420.396539,24409.321193
64,1,0,-nan,-nan,-nan,-nan,-nan,-nan,-nan,-nan,-nan,-nan,-nan,-nan
65,0,8,644314.375000,219919.625000,1330043.750000,66406.250000,7746.875000,664994.250000,7566.799752,1753.301524,109633.575649,1122.592841,522.328067,54825.042601
65,1,0,-nan,-nan,-nan,-nan,-nan,-nan,-nan,-nan,-nan,-nan,-nan,-nan
66,0,8,643080.375000,219865.125000,1298063.125000,66267.000000,8275.250000,648987.000000,2083.759159,1144.013050,76120.873845,553.917864,685.276176,37974.067210
66,1,0,-nan,-nan,-nan,-nan,-nan,-nan,-nan,-nan,-nan,-nan,-nan,-nan
67,0,8,645170.000000,220869.000000,1258693.750000,66753.875000,7786.000000,629236.125000,7881.324286,1564.623916,65430.541032,1179.196701,690.180773,32782.951985
67,1,0,-nan,-nan,-nan,-nan,-nan,-nan,-nan,-nan,-nan,-nan,-nan,-nan
68,0,8,639770.000000,219212.875000,1336838.000000,65883.375000,8196.250000,668377.250000,3546.110686,255.506085,77133.859695,329.209256,433.099224,38535.777418
68,1,0,-nan,-nan,-nan,-nan,-nan,-nan,-nan,-nan,-nan,-nan,-nan,-nan
69,0,8,642719.625000,219887.375000,1251329.000000,66233.625000,7833.125000,625551.375000,3576.756874,796.567156,62748.686901,464.212758,313.510541,31213.281844
69,1,0,-nan,-nan,-nan,-nan,-nan,-nan,-nan,-nan,-nan,-nan,-nan,-nan
70,0,8,642431.875000,219639.750000,1309161.000000,66069.000000,8020.375000,654576.625000,4320.445100,890.379378,93768.442447,583.954193,360.996862,46835.119899
70,1,0,-nan,-nan,-nan,-nan,-nan,-nan,-nan,-nan,-nan,-nan,-nan,-nan
71,0,8,642611.875000,219658.125000,1265959.625000,66107.500000,7752.125000,632994.750000,4008.534035,1157.567756,62825.795431,547.106023,246.814423,31434.395643
71,1,0,-nan,-nan,-nan,-nan,-nan,-nan,-nan,-nan,-nan,-nan,-nan,-nan
72,0,8,644732.375000,220090.500000,1322891.625000,66544.625000,8088.625000,661368.000000,7104.226452,1374.408782,42803.271846,963.150292,387.676391,21266.357434
72,1,0,-nan,-nan,-nan,-nan,-nan,-nan,-nan,-nan,-nan,-nan,-nan,-nan
73,0,8,642203.875000,220073.000000,1262131.625000,66390.000000,7564.000000,630973.500000,3048.205843,815.838832,56039.401803,394.548793,546.368694,27954.866513
73,1,0,-nan,-nan,-nan,-nan,-nan,-nan,-nan,-nan,-nan,-nan,-nan,-nan
74,0,8,642507.125000,219704.500000,1276747.875000,66230.500000,8002.500000,638370.000000,2335.186900,619.138312,57273.616708,315.025396,439.318791,28607.120809
74,1,0,-nan,-nan,-nan,-nan,-nan,-nan,-nan,-nan,-nan,-nan,-nan,-nan
75,0,8,641913.125000,219812.250000,1257636.000000,66260.000000,7416.500000,628794.000000,3609.844922,750.575238,30444.794379,466.513933,608.557516,15207.568979
75,1,0,-nan,-nan,-nan,-nan,-nan,-nan,-nan,-nan,-nan,-nan,-nan,-nan
76,0,8,647882.250000,221053.875000,1289246.000000,67154.375000,7989.875000,644618.000000,8683.839455,1774.307149,78049.893648,1264.611990,751.097603,39009.046265
76,1,0,-nan,-nan,-nan,-nan,-nan,-nan,-nan,-nan,-nan,-nan,-nan,-nan
77,0,8,644677.000000,220242.125000,1301374.000000,66616.875000,7903.875000,650685.000000,7074.121253,1457.486230,66577.562219,991.645153,566.101457,33252.949084
77,1,0,-nan,-nan,-nan,-nan,-nan,-nan,-nan,-nan,-nan,-nan,-nan,-nan
78,0,8,650845.125000,221711.875000,1309706.875000,67576.500000,8359.875000,654767.750000,8576.533936,2003.193603,50848.322134,1474.763371,698.788494,25322.261025
78,1,0,-nan,-nan,-nan,-nan,-nan,-nan,-nan,-nan,-nan,-nan,-nan,-nan
79,0,8,643292.875000,219873.750000,1296320.500000,66305.875000,7995.125000,648147.250000,1814.008713,804.543776,72606.707052,416.523240,454.341952,36350.864157
79,1,0,-nan,-nan,-nan,-nan,-nan,-nan,-nan,-nan,-nan,-nan,-nan,-nan
80,0,8,648591.750000,221440.375000,1346285.750000,66971.125000,8016.000000,673028.125000,12006.128943,3429.377128,71437.123624,1410.436496,548.725569,35610.085936
80,1,0,-nan,-nan,-nan,-nan,-nan,-nan,-nan,-nan,-nan,-nan,-nan,-nan
81,0,8,647716.125000,221019.625000,1291126.500000,67194.500000,8139.500000,645544.500000,10203.764911,1859.720338,50853.043427,1262.916961,526.381278,25448.951732
81,1,0,-nan,-nan,-nan,-nan,-nan,-nan,-nan,-nan,-nan,-nan,-nan,-nan
82,0,8,645417.625000,220304.125000,1259397.125000,66658.000000,7778.625000,629646.000000,10241.202809,1998.401639,68615.724811,1249.475390,553.373729,34346.503588
82,1,0,-nan,-nan,-nan,-nan,-nan,-nan,-nan,-nan,-nan,-nan,-nan,-nan
83,0,8,642349.250000,219657.375000,1229036.250000,66217.500000,7641.750000,614465.125000,3115.853605,577.236940,63523.307994,351.554050,465.612970,31772.457921
83,1,0,-nan,-nan,-nan,-nan,-nan,-nan,-nan,-nan,-nan,-nan,-nan,-nan
84,0,8,643874.250000,220010.625000,1287176.375000,66340.250000,7881.000000,643530.375000,3298.502264,1021.171379,39989.077171,352.353782,740.799737,20034.369549
84,1,0,-nan,-nan,-nan,-nan,-nan,-nan,-nan,-nan,-nan,-nan,-nan,-nan
85,0,8,646617.875000,220573.750000,1258642.625000,66765.500000,7572.250000,629326.500000,6513.836839,1773.665185,83892.278733,1102.672435,576.623306,42004.704460
85,1,0,-nan,-nan,-nan,-nan,-nan,-nan,-nan,-nan,-nan,-nan,-nan,-nan
86,0,8,645248.625000,220144.500000,1276742.000000,66579.875000,8110.125000,638307.625000,8260.573511,2163.943045,72680.144221,1395.328137,988.471476,36345.908587
86,1,0,-nan,-nan,-nan,-nan,-nan,-nan,-nan,-nan,-nan,-nan,-nan,-nan
87,0,8,642214.000000,219680.625000,1320869.625000,66220.250000,7959.125000,660305.250000,2890.337437,949.955912,93305.713709,489.971364,652.426708,46424.870101
87,1,0,-nan,-nan,-nan,-nan,-nan,-nan,-nan,-nan,-nan,-nan,-nan,-nan
88,0,8,645386.625000,220331.875000,1280603.250000,66671.375000,7924.875000,640240.250000,6362.198970,1399.954681,108379.087156,1186.375145,759.350452,54167.110567
88,1,0,-nan,-nan,-nan,-nan,-nan,-nan,-nan,-nan,-nan,-nan,-nan,-nan
89,0,8,646348.375000,221079.875000,1289232.875000,66592.750000,7870.375000,644653.625000,9973.177502,3230.974792,63885.172081,991.612040,553.661661,31957.941364
89,1,0,-nan,-nan,-nan,-nan,-nan,-nan,-nan,-nan,-nan,-nan,-nan,-nan
90,0,8,644534.375000,220285.125000,1297042.250000,66654.375000,7767.000000,648506.000000,8499.679405,1941.174930,89728.460358,1102.694874,621.691644,44813.027715
90,1,0,-nan,-nan,-nan,-nan,-nan,-nan,-nan,-nan,-nan,-nan,-nan,-nan
91,0,8,648023.750000,221571.250000,1323087.625000,67008.000000,8039.625000,661493.000000,12016.509994,3932.388198,76603.111794,1670.749981,589.461181,38272.131783
91,1,0,-nan,-nan,-nan,-nan,-nan,-nan,-nan,-nan,-nan,-nan,-nan,-nan
92,0,8,642254.500000,219718.000000,1300789.125000,66205.875000,7890.750000,650240.125000,3237.823768,747.086842,98638.898455,312.344536,547.303332,49154.674667
92,1,0,-nan,-nan,-nan,-nan,-nan,-nan,-nan,-nan,-nan,-nan,-nan,-nan
93,0,8,647701.500000,221156.625000,1293409.250000,67171.250000,7973.000000,646657.750000,8551.112530,1807.650266,67023.172821,1151.280998,592.996417,33526.525251
93,1,0,-nan,-nan,-nan,-nan,-nan,-nan,-nan,-nan,-nan,-nan,-nan,-nan
94,0,8,642614.875000,220363.375000,1280280.250000,66531.000000,7762.250000,640065.750000,2697.346540,1024.715075,81885.460310,407.862722,550.524239,40841.289572
94,1,0,-nan,-nan,-nan,-nan,-nan,-nan,-nan,-nan,-nan,-nan,-nan,-nan
95,0,8,647454.000000,221067.000000,1285064.875000,67146.000000,7622.125000,642423.250000,9661.511722,2163.508320,86241.905519,1508.752713,520.127734,43128.375624
95,1,0,-nan,-nan,-nan,-nan,-nan,-nan,-nan,-nan,-nan,-nan,-nan,-nan
96,0,8,644206.750000,220287.625000,1242438.000000,66634.125000,7768.625000,621242.125000,8711.885412,1751.269963,49060.229514,1257.894117,695.680770,24539.726733
96,1,0,-nan,-nan,-nan,-nan,-nan,-nan,-nan,-nan,-nan,-nan,-nan,-nan
97,0,8,642557.000000,219645.875000,1308319.750000,66179.375000,7820.375000,654127.625000,2525.063564,536.645003,63738.442654,292.317010,435.439989,31894.016974
97,1,0,-nan,-nan,-nan,-nan,-nan,-nan,-nan,-nan,-nan,-nan,-nan,-nan
98,0,8,645188.125000,220500.500000,1298471.500000,66682.125000,7667.000000,649211.000000,6673.249610,1359.270117,51777.834135,912.549237,574.774738,25911.367264
98,1,0,-nan,-nan,-nan,-nan,-nan,-nan,-nan,-nan,-nan,-nan,-nan,-nan
99,0,8,645058.625000,220562.875000,1285449.625000,66774.125000,7833.250000,642610.000000,7940.025912,1730.567569,45928.034140,1095.774205,805.203196,22847.715537
99,1,0,-nan,-nan,-nan,-nan,-nan,-nan,-nan,-nan,-nan,-nan,-nan,-nan
100,0,8,645224.250000,220876.625000,1282157.125000,66864.875000,7657.000000,641090.750000,7980.143040,1596.746531,41778.195424,1145.142834,783.277409,20828.837340
100,1,0,-nan,-nan,-nan,-nan,-nan,-nan,-nan,-nan,-nan,-nan,-nan,-nan
101,0,8,644716.250000,220760.750000,1303945.375000,66816.375000,7969.500000,651985.375000,8318.825965,2133.559277,64241.666177,1221.880000,458.646923,32129.065630
101,1,0,-nan,-nan,-nan,-nan,-nan,-nan,-nan,-nan,-nan,-nan,-nan,-nan
102,0,8,644956.875000,220533.125000,1285274.500000,66726.875000,7785.375000,642614.625000,7757.960048,1540.631318,71213.599516,1118.452216,965.326103,35534.362461
102,1,0,-nan,-nan,-nan,-nan,-nan,-nan,-nan,-nan,-nan,-nan,-nan,-nan
103,0,8,642282.875000,219977.125000,1287229.875000,66359.875000,7681.750000,643611.875000,2620.852888,818.870172,69722.345226,361.415771,526.138230,34880.508767
103,1,0,-nan,-nan,-nan,-nan,-nan,-nan,-nan,-nan,-nan,-nan,-nan,-nan
104,0,8,647329.625000,221284.000000,1291445.375000,67219.625000,8127.250000,645717.500000,7874.154668,1692.232032,69691.584573,1348.531603,765.944474,34778.912810
104,1,0,-nan,-nan,-nan,-nan,-nan,-nan,-nan,-nan,-nan,-nan,-nan,-nan
105,0,8,645564.125000,221025.125000,1269602.500000,66937.000000,8054.500000,634789.875000,8082.067007,1948.735580,76100.008229,1114.492598,587.549785,38076.947332
105,1,0,-nan,-nan,-nan,-nan,-nan,-nan,-nan,-nan,-nan,-nan,-nan,-nan
106,0,8,643363.000000,220088.500000,1299886.625000,66505.500000,8025.875000,649950.250000,8331.881045,1665.414813,71218.436165,1181.367851,399.206537,35598.627339
106,1,0,-nan,-nan,-nan,-nan,-nan,-nan,-nan,-nan,-nan,-nan,-nan,-nan
107,0,8,641478.875000,220284.625000,1266741.875000,66452.750000,7791.250000,633431.500000,3465.881541,838.422170,64732.262048,289.362554,434.476337,32340.890390
107,1,0,-nan,-nan,-nan,-nan,-nan,-nan,-nan,-nan,-nan,-nan,-nan,-nan
108,0,8,647014.750000,221047.500000,1290881.250000,67117.375000,7937.875000,645434.000000,8866.003662,1979.137438,57921.492097,1287.457566,613.633326,29009.729265
108,1,0,-nan,-nan,-nan,-nan,-nan,-nan,-nan,-nan,-nan,-nan,-nan,-nan
109,0,8,648620.750000,221092.500000,1302942.750000,67163.750000,7922.000000,651483.000000,8203.447915,1727.597248,76087.074894,1449.029999,683.524506,38027.677332
109,1,0,-nan,-nan,-nan,-nan,-nan,-nan,-nan,-nan,-nan,-nan,-nan,-nan
110,0,8,646068.250000,220533.250000,1284740.125000,66734.875000,8131.125000,642333.250000,8062.849771,1681.731232,46405.331672,1022.707734,318.879851,23233.976708
110,1,0,-nan,-nan,-nan,-nan,-nan,-nan,-nan,-nan,-nan,-nan,-nan,-nan
111,0,8,641469.625000,219662.875000,1241719.375000,66247.250000,7501.875000,620886.750000,2878.315651,1110.691501,61433.578709,503.906427,548.807898,30723.326174
111,1,0,-nan,-nan,-nan,-nan,-nan,-nan,-nan,-nan,-nan,-nan,-nan,-nan
112,0,8,644090.250000,220321.375000,1315162.375000,66646.875000,8027.500000,657612.750000,6478.826876,1749.631885,38877.745224,1108.538389,406.370828,19381.774188
112,1,0,-nan,-nan,-nan,-nan,-nan,-nan,-nan,-nan,-nan,-nan,-nan,-nan
113,0,8,646712.000000,220747.375000,1321987.375000,67014.125000,8132.500000,660913.000000,7520.914705,2225.112072,44804.649198,1374.414824,337.058600,22401.013247
113,1,0,-nan,-nan,-nan,-nan,-nan,-nan,-nan,-nan,-nan,-nan,-nan,-nan
114,0,8,645230.250000,220425.500000,1294399.875000,66691.250000,7911.875000,647135.500000,7031.135324,1795.091014,68625.654916,1230.774832,887.159433,34249.570760
114,1,0,-nan,-nan,-nan,-nan,-nan,-nan,-nan,-nan,-nan,-nan,-nan,-nan
115,0,8,642778.125000,220141.125000,1304105.500000,66440.500000,8032.000000,652057.375000,2857.304781,954.456447,73171.447842,507.531034,355.338219,36504.478174
115,1,0,-nan,-nan,-nan,-nan,-nan,-nan,-nan,-nan,-nan,-nan,-nan,-nan
116,0,8,643028.125000,220018.375000,1325730.625000,66625.750000,7987.000000,662821.125000,7095.383507,1903.704871,87125.782638,1062.637491,463.675533,43588.355591
116,1,0,-nan,-nan,-nan,-nan,-nan,-nan,-nan,-nan,-nan,-nan,-nan,-nan
117,0,7,642327.142857,220035.285714,1256660.714286,66555.285714,7679.571429,628310.142857,7863.674994,1503.778642,54672.666210,1228.988052,752.009091,27293.955811
117,1,0,-nan,-nan,-nan,-nan,-nan,-nan,-nan,-nan,-nan,-nan,-nan,-nan
118,0,7,640458.285714,219327.142857,1320157.571429,66057.571429,7975.857143,660100.000000,1709.286377,781.410890,70665.150825,334.559778,462.957705,35338.695796
118,1,0,-nan,-nan,-nan,-nan,-nan,-nan,-nan,-nan,-nan,-nan,-nan,-nan
119,0,7,643799.714286,220570.142857,1295070.714286,66599.857143,7695.857143,647499.428571,2888.016656,1312.472631,60320.417611,575.945292,557.882074,30200.854259
119,1,0,-nan,-nan,-nan,-nan,-nan,-nan,-nan,-nan,-nan,-nan,-nan,-nan
120,0,7,646444.000000,220837.571429,1268408.714286,67103.857143,7681.857143,634168.428571,7872.206480,1619.504497,82091.782132,1428.967202,809.336312,40985.687170
120,1,0,-nan,-nan,-nan,-nan,-nan,-nan,-nan,-nan,-nan,-nan,-nan,-nan
121,0,7,644204.714286,220422.428571,1277206.428571,66730.714286,7672.142857,638567.428571,7643.622659,1970.816499,50295.006082,1152.575466,532.884182,25145.727162
121,1,0,-nan,-nan,-nan,-nan,-nan,-nan,-nan,-nan,-nan,-nan,-nan,-nan
122,0,7,641112.285714,219711.142857,1281956.571429,66226.000000,7618.571429,640967.857143,3216.788936,526.650719,82198.949466,357.015806,434.062490,41099.278601
122,1,0,-nan,-nan,-nan,-nan,-nan,-nan,-nan,-nan,-nan,-nan,-nan,-nan
123,0,7,638698.571429,219296.857143,1278933.857143,65995.857143,7521.428571,639473.142857,2995.341948,740.313916,63639.334228,268.568389,357.353309,31808.029918
123,1,0,-nan,-nan,-nan,-nan,-nan,-nan,-nan,-nan,-nan,-nan,-nan,-nan
124,0,7,644368.714286,220008.142857,1255593.142857,66348.571429,7524.857143,627828.285714,4908.492486,967.134417,46942.758192,590.173306,304.367461,23485.921143
124,1,0,-nan,-nan,-nan,-nan,-nan,-nan,-nan,-nan,-nan,-nan,-nan,-nan
125,0,7,651195.000000,221413.428571,1315312.714286,67493.428571,8027.000000,657642.000000,12840.778503,2429.426791,85995.007742,1718.780120,663.529524,43013.543236
125,1,0,-nan,-nan,-nan,-nan,-nan,-nan,-nan,-nan,-nan,-nan,-nan,-nan
126,0,7,645152.428571,220284.285714,1261072.714286,66616.000000,7891.714286,630530.714286,8310.126299,1689.920346,50693.774872,992.892743,406.762027,25329.127269
126,1,0,-nan,-nan,-nan,-nan,-nan,-nan,-nan,-nan,-nan,-nan,-nan,-nan
127,0,7,640445.571429,219323.714286,1334065.857143,66005.714286,7602.428571,667027.857143,4532.294526,828.864579,105733.679892,390.573101,457.718209,52811.629124
127,1,0,-nan,-nan,-nan,-nan,-nan,-nan,-nan,-nan,-nan,-nan,-nan,-nan
128,0,7,643040.714286,219871.000000,1291491.857143,66207.857143,7588.857143,645762.000000,4394.336313,903.679305,58623.981264,337.982007,548.730074,29310.336977
128,1,0,-nan,-nan,-nan,-nan,-nan,-nan,-nan,-nan,-nan,-nan,-nan,-nan
129,0,7,643404.428571,219708.571429,1300619.714286,66165.285714,7915.285714,650307.857143,4306.061072,1111.498455,106508.741637,537.666310,993.740655,53208.340929
129,1,0,-nan,-nan,-nan,-nan,-nan,-nan,-nan,-nan,-nan,-nan,-nan,-nan
130,0,7,650491.428571,221607.571429,1262580.857143,67416.714286,7725.428571,631282.000000,11942.743485,2472.275982,61359.109284,1743.874808,458.366309,30615.850624
130,1,0,-nan,-nan,-nan,-nan,-nan,-nan,-nan,-nan,-nan,-nan,-nan,-nan
131,0,7,645583.428571,220060.142857,1280885.285714,66479.571429,7884.428571,640450.285714,6686.851872,1473.931713,61492.857459,1198.671510,539.522767,30763.547314
131,1,0,-nan,-nan,-nan,-nan,-nan,-nan,-nan,-nan,-nan,-nan,-nan,-nan
132,0,7,643601.142857,220000.285714,1274360.142857,66290.428571,7899.285714,637177.428571,4154.910328,1111.486741,72098.796726,435.921637,582.491622,36023.409150
132,1,0,-nan,-nan,-nan,-nan,-nan,-nan,-nan,-nan,-nan,-nan,-nan,-nan
133,0,7,646984.857143,220925.142857,1248603.714286,66898.142857,7897.285714,624340.142857,10065.632042,2324.062111,78992.825171,1217.291658,539.435079,39486.470368
133,1,0,-nan,-nan,-nan,-nan,-nan,-nan,-nan,-nan,-nan,-nan,-nan,-nan
134,0,7,644489.285714,220171.000000,1275993.000000,66521.571429,7829.285714,637992.285714,7467.796897,2005.693895,65048.360686,1245.730980,646.405603,32464.379507
134,1,0,-nan,-nan,-nan,-nan,-nan,-nan,-nan,-nan,-nan,-nan,-nan,-nan
135,0,7,648667.000000,221086.000000,1294824.285714,67139.142857,7954.285714,647427.142857,8429.562724,1486.110936,83619.363495,1345.037698,548.473652,41795.296326
135,1,0,-nan,-nan,-nan,-nan,-nan,-nan,-nan,-nan,-nan,-nan,-nan,-nan
136,0,7,649318.000000,221752.000000,1271316.285714,67083.142857,7773.428571,635644.285714,10628.880212,3474.384385,64284.909166,1369.841746,369.017559,32214.598446
136,1,0,-nan,-nan,-nan,-nan,-nan,-nan,-nan,-nan,-nan,-nan,-nan,-nan
137,0,7,641777.000000,219650.857143,1231146.142857,66135.142857,7373.857143,615584.857143,4425.550619,1146.699167,55953.487769,485.782852,544.075738,27978.581249
137,1,0,-nan,-nan,-nan,-nan,-nan,-nan,-nan,-nan,-nan,-nan,-nan,-nan
138,0,7,644186.571429,220180.857143,1261974.714286,66538.571429,7593.714286,630958.857143,8431.629852,1708.422617,42056.729296,1045.143443,571.818581,21024.292191
138,1,0,-nan,-nan,-nan,-nan,-nan,-nan,-nan,-nan,-nan,-nan,-nan,-nan
139,0,7,641214.857143,219673.857143,1278357.571429,66157.285714,7462.285714,639301.571429,4412.676396,724.805083,48180.076113,432.491689,505.583034,24121.199626
139,1,0,-nan,-nan,-nan,-nan,-nan,-nan,-nan,-nan,-nan,-nan,-nan,-nan
140,0,7,648456.428571,221844.285714,1386834.000000,67112.000000,8006.142857,693426.000000,12949.402389,3771.758730,77545.712668,1430.565722,373.168070,38765.065606
140,1,0,-nan,-nan,-nan,-nan,-nan,-nan,-nan,-nan,-nan,-nan,-nan,-nan
141,0,7,644236.428571,220046.428571,1272097.857143,66494.285714,7561.857143,636096.285714,7709.115770,1613.870579,62409.660842,1110.841600,432.536845,31185.009062
141,1,0,-nan,-nan,-nan,-nan,-nan,-nan,-nan,-nan,-nan,-nan,-nan,-nan
142,0,7,648491.571429,221468.000000,1324081.000000,66962.000000,7804.285714,662020.142857,10259.989806,3067.867943,36277.444590,1432.934850,674.063099,18125.220451
142,1,0,-nan,-nan,-nan,-nan,-nan,-nan,-nan,-nan,-nan,-nan,-nan,-nan
143,0,7,646160.714286,221398.428571,1286764.714286,66774.428571,7304.857143,643364.714286,10123.721079,3984.848728,63130.864853,1306.732988,417.411215,31522.230766
143,1,0,-nan,-nan,-nan,-nan,-nan,-nan,-nan,-nan,-nan,-nan,-nan,-nan
144,0,7,640881.142857,219571.428571,1293730.142857,66135.571429,7354.142857,646835.000000,3910.201326,890.270401,68055.353879,470.040684,379.502091,33994.190420
144,1,0,-nan,-nan,-nan,-nan,-nan,-nan,-nan,-nan,-nan,-nan,-nan,-nan
145,0,7,640258.000000,219296.285714,1308493.000000,65979.857143,7485.428571,654129.571429,3049.176235,986.320249,94729.756806,247.114449,618.329976,47192.122765
145,1,0,-nan,-nan,-nan,-nan,-nan,-nan,-nan,-nan,-nan,-nan,-nan,-nan
146,0,7,642429.714286,220469.142857,1325114.142857,66528.714286,7656.142857,662531.714286,2181.037218,830.223280,86687.459916,298.685077,582.623483,43326.059670
146,1,0,-nan,-nan,-nan,-nan,-nan,-nan,-nan,-nan,-nan,-nan,-nan,-nan
147,0,7,650565.428571,222039.285714,1286289.142857,67785.285714,7608.000000,643082.000000,7775.804614,1561.617816,60516.630133,1323.463607,686.199888,30239.553091
147,1,0,-nan,-nan,-nan,-nan,-nan,-nan,-nan,-nan,-nan,-nan,-nan,-nan
148,0,7,644466.428571,220607.285714,1231340.285714,66708.571429,7531.000000,615736.571429,7077.283778,1499.632880,14511.249151,1014.269175,457.616496,7295.857844
148,1,0,-nan,-nan,-nan,-nan,-nan,-nan,-nan,-nan,-nan,-nan,-nan,-nan
149,0,7,642588.571429,220017.571429,1258491.714286,66448.571429,7719.857143,629268.000000,10155.550992,2009.145082,70558.003723,1327.825705,835.200135,35262.034886
149,1,0,-nan,-nan,-nan,-nan,-nan,-nan,-nan,-nan,-nan,-nan,-nan,-nan
150,0,7,641161.428571,219476.857143,1253196.142857,66051.142857,7629.428571,626615.000000,3532.510393,678.856481,69955.283853,388.803450,488.079284,34936.815502
150,1,0,-nan,-nan,-nan,-nan,-nan,-nan,-nan,-nan,-nan,-nan,-nan,-nan
151,0,7,640555.714286,219443.000000,1287041.428571,66087.285714,7949.285714,643488.857143,2885.394685,520.383650,76700.271407,231.374597,750.750047,38309.858423
151,1,0,-nan,-nan,-nan,-nan,-nan,-nan,-nan,-nan,-nan,-nan,-nan,-nan
152,0,7,643358.857143,220153.000000,1307915.142857,66596.714286,8095.285714,653982.428571,5032.949360,1497.744304,71440.262252,971.060056,234.098096,35698.757181
152,1,0,-nan,-nan,-nan,-nan,-nan,-nan,-nan,-nan,-nan,-nan,-nan,-nan
153,0,7,641990.571429,219875.714286,1316422.857143,66281.285714,8201.285714,658052.000000,3707.643682,1091.250229,118735.249936,587.414848,764.924219,59109.019172
153,1,0,-nan,-nan,-nan,-nan,-nan,-nan,-nan,-nan,-nan,-nan,-nan,-nan
154,0,7,651811.714286,221667.714286,1288822.571429,67582.142857,8269.857143,644369.857143,10214.431188,2220.845316,63478.448619,1632.837095,656.284222,31742.120500
154,1,0,-nan,-nan,-nan,-nan,-nan,-nan,-nan,-nan,-nan,-nan,-nan,-nan
155,0,7,643635.428571,219954.428571,1241834.142857,66495.857143,7559.714286,620954.285714,9939.600665,2079.273833,46606.521063,1302.384783,440.302725,23309.005346
155,1,0,-nan,-nan,-nan,-nan,-nan,-nan,-nan,-nan,-nan,-nan,-nan,-nan
156,0,7,642850.571429,219909.571429,1274287.285714,66286.428571,7782.285714,637141.857143,2747.313798,988.981996,49798.039860,438.907038,358.240428,24890.807101
156,1,0,-nan,-nan,-nan,-nan,-nan,-nan,-nan,-nan,-nan,-nan,-nan,-nan
157,0,7,643607.285714,220231.857143,1308105.285714,66412.571429,7731.285714,654046.285714,3274.094279,955.487374,60857.382888,431.436755,378.414253,30371.215036
157,1,0,-nan,-nan,-nan,-nan,-nan,-nan,-nan,-nan,-nan,-nan,-nan,-nan
158,0,7,643782.571429,220090.857143,1257651.000000,66563.714286,7905.000000,628819.142857,6897.185634,1548.428552,46308.944748,1027.734640,539.239676,23153.768860
158,1,0,-nan,-nan,-nan,-nan,-nan,-nan,-nan,-nan,-nan,-nan,-nan,-nan
159,0,7,640905.857143,219587.428571,1246048.571429,66130.142857,7427.571429,622950.142857,1800.879184,614.865573,17399.181597,388.145933,407.563792,8740.818929
159,1,0,-nan,-nan,-nan,-nan,-nan,-nan,-nan,-nan,-nan,-nan,-nan,-nan
160,0,7,640580.000000,219470.142857,1311430.714286,66107.428571,7778.714286,655706.142857,3902.593131,1087.482207,77286.224198,507.818825,557.762549,38656.144200
160,1,0,-nan,-nan,-nan,-nan,-nan,-nan,-nan,-nan,-nan,-nan,-nan,-nan
161,0,7,643473.000000,219991.000000,1294533.285714,66499.714286,7978.571429,647279.000000,9645.529816,2150.354257,55288.012373,1290.559426,680.181668,27654.271951
161,1,0,-nan,-nan,-nan,-nan,-nan,-nan,-nan,-nan,-nan,-nan,-nan,-nan
162,0,7,639980.000000,219277.571429,1271982.000000,65998.857143,7667.714286,636036.000000,3671.014924,1087.265358,55758.016077,558.602191,512.178461,27906.191049
162,1,0,-nan,-nan,-nan,-nan,-nan,-nan,-nan,-nan,-nan,-nan,-nan,-nan
163,0,7,644512.285714,220512.857143,1326890.142857,66692.000000,7890.714286,663343.714286,6528.235130,1466.804927,61294.439341,1104.079319,595.492525,30568.230042
163,1,0,-nan,-nan,-nan,-nan,-nan,-nan,-nan,-nan,-nan,-nan,-nan,-nan
164,0,7,644615.142857,220540.714286,1346837.571429,66759.571429,8188.571429,673479.285714,6447.769635,1464.200095,135946.834847,1045.187182,458.476626,67989.651416
164,1,0,-nan,-nan,-nan,-nan,-nan,-nan,-nan,-nan,-nan,-nan,-nan,-nan
165,0,7,640861.857143,219739.285714,1262135.571429,66186.571429,7344.000000,631073.285714,4376.194904,872.905610,59732.430088,426.263787,398.979412,29878.565249
165,1,0,-nan,-nan,-nan,-nan,-nan,-nan,-nan,-nan,-nan,-nan,-nan,-nan
166,0,7,641972.714286,220005.142857,1331096.428571,66498.857143,7872.142857,665584.428571,7635.322478,1390.522145,51981.065181,1143.353392,457.214994,25990.754867
166,1,0,-nan,-nan,-nan,-nan,-nan,-nan,-nan,-nan,-nan,-nan,-nan,-nan
167,0,7,644984.142857,220838.857143,1252463.571429,67046.571429,7663.142857,626133.428571,10430.930768,2292.311835,49658.753226,1602.673914,679.157762,24764.252248
167,1,0,-nan,-nan,-nan,-nan,-nan,-nan,-nan,-nan,-nan,-nan,-nan,-nan
168,0,7,639455.000000,219341.571429,1275157.857143,66021.000000,7702.857143,637585.714286,2683.375114,794.137242,64651.235501,334.300549,482.275389,32282.146568
168,1,0,-nan,-nan,-nan,-nan,-nan,-nan,-nan,-nan,-nan,-nan,-nan,-nan
169,0,7,644684.285714,220510.000000,1238761.714286,66748.428571,8125.285714,619379.285714,6512.242465,1335.994012,27542.597158,982.818812,427.748830,13729.899456
169,1,0,-nan,-nan,-nan,-nan,-nan,-nan,-nan,-nan,-nan,-nan,-nan,-nan
170,0,7,643449.000000,219959.000000,1291920.857143,66553.285714,8372.000000,645910.000000,5597.995840,1647.451538,131315.319459,1055.961270,1019.009884,65604.916604
170,1,0,-nan,-nan,-nan,-nan,-nan,-nan,-nan,-nan,-nan,-nan,-nan,-nan
171,0,7,642099.428571,219482.142857,1291132.428571,66113.714286,8111.000000,645592.857143,4019.400554,1393.555825,89347.917101,514.139424,375.315867,44699.750269
171,1,0,-nan,-nan,-nan,-nan,-nan,-nan,-nan,-nan,-nan,-nan,-nan,-nan
172,0,7,643343.285714,220117.142857,1242212.571429,66422.285714,8029.857143,621040.285714,2894.907288,739.104754,51242.168845,492.275972,657.669789,25613.288731
172,1,0,-nan,-nan,-nan,-nan,-nan,-nan,-nan,-nan,-nan,-nan,-nan,-nan
173,0,7,646312.714286,220683.428571,1301940.714286,66998.285714,7996.571429,650945.285714,10316.826169,2101.172248,91612.020574,1630.519787,1054.578705,45782.343863
173,1,0,-nan,-nan,-nan,-nan,-nan,-nan,-nan,-nan,-nan,-nan,-nan,-nan
174,0,7,643552.714286,220194.714286,1266959.428571,66646.428571,7750.285714,633470.285714,4911.078721,1718.390669,40768.280625,1065.609665,492.766161,20390.037348
174,1,0,-nan,-nan,-nan,-nan,-nan,-nan,-nan,-nan,-nan,-nan,-nan,-nan
175,0,7,639596.857143,219208.571429,1234996.714286,65983.000000,7493.142857,617507.142857,3198.688411,888.456584,68978.820469,296.746645,606.533341,34481.703154
175,1,0,-nan,-nan,-nan,-nan,-nan,-nan,-nan,-nan,-nan,-nan,-nan,-nan
176,0,8,642282.000000,220014.750000,1292652.500000,66550.625000,7816.375000,646315.625000,6664.386187,1404.819450,53717.461528,1120.666536,609.016202,26838.837381
176,1,0,-nan,-nan,-nan,-nan,-nan,-nan,-nan,-nan,-nan,-nan,-nan,-nan
177,0,8,642516.625000,219966.250000,1273483.625000,66572.375000,7640.500000,636704.750000,8767.914132,2003.297391,108391.118125,1140.418666,749.037382,54086.554683
177,1,0,-nan,-nan,-nan,-nan,-nan,-nan,-nan,-nan,-nan,-nan,-nan,-nan
178,0,8,645306.625000,220836.000000,1295190.750000,66745.625000,7857.250000,647580.250000,12053.074099,3414.212208,53756.897296,1341.849464,901.622253,26848.994580
178,1,0,-nan,-nan,-nan,-nan,-nan,-nan,-nan,-nan,-nan,-nan,-nan,-nan
179,0,8,642224.125000,220201.750000,1353237.125000,66461.875000,8038.625000,676642.000000,2211.747637,887.825117,64014.420300,387.136099,323.600038,32004.971383
179,1,0,-nan,-nan,-nan,-nan,-nan,-nan,-nan,-nan,-nan,-nan,-nan,-nan
180,0,8,641764.750000,219916.000000,1254707.500000,66557.125000,7622.500000,627326.500000,6658.690294,1691.244290,43460.704409,1068.448342,526.046814,21689.570103
180,1,0,-nan,-nan,-nan,-nan,-nan,-nan,-nan,-nan,-nan,-nan,-nan,-nan
181,0,8,642046.750000,219796.500000,1297655.250000,66447.625000,7720.500000,648840.000000,9025.871589,1775.810449,53785.581078,1209.211927,707.776978,26845.728967
181,1,0,-nan,-nan,-nan,-nan,-nan,-nan,-nan,-nan,-nan,-nan,-nan,-nan
182,0,8,643185.375000,219693.375000,1334709.000000,66271.125000,7843.875000,667438.000000,4425.881238,901.960495,48543.570043,412.138762,544.388060,24301.666404
182,1,0,-nan,-nan,-nan,-nan,-nan,-nan,-nan,-nan,-nan,-nan,-nan,-nan
183,0,8,644434.250000,220050.375000,1336817.250000,66626.125000,8096.250000,668428.250000,5516.913398,1467.438324,78936.808169,1031.128682,848.093413,39531.348069
183,1,0,-nan,-nan,-nan,-nan,-nan,-nan,-nan,-nan,-nan,-nan,-nan,-nan
184,0,8,643378.125000,219805.250000,1314361.625000,66482.125000,7941.625000,657145.625000,7922.345382,1526.189024,66661.751138,1164.615649,513.537228,33395.303730
184,1,0,-nan,-nan,-nan,-nan,-nan,-nan,-nan,-nan,-nan,-nan,-nan,-nan
185,0,8,641475.875000,219352.750000,1272089.500000,66141.875000,7483.250000,636032.000000,3448.833188,767.657435,75015.615839,427.024718,466.155218,37480.893793
185,1,0,-nan,-nan,-nan,-nan,-nan,-nan,-nan,-nan,-nan,-nan,-nan,-nan
186,0,8,645118.875000,220730.125000,1366976.125000,66566.500000,8041.375000,683380.375000,8955.199334,3445.029406,87464.494897,1065.276959,360.197494,43415.206584
186,1,0,-nan,-nan,-nan,-nan,-nan,-nan,-nan,-nan,-nan,-nan,-nan,-nan
187,0,8,640558.250000,219221.750000,1277620.625000,66083.125000,7875.125000,638831.125000,2596.702368,1048.801310,52948.379668,289.504938,598.263202,26504.412229
187,1,0,-nan,-nan,-nan,-nan,-nan,-nan,-nan,-nan,-nan,-nan,-nan,-nan
188,0,8,640248.000000,219218.375000,1256356.375000,66050.875000,7522.375000,628200.500000,3365.638424,787.737415,87312.166788,412.935055,210.080305,43709.476615
188,1,0,-nan,-nan,-nan,-nan,-nan,-nan,-nan,-nan,-nan,-nan,-nan,-nan
189,0,8,643752.875000,220262.500000,1318103.750000,66673.750000,7717.500000,659044.000000,8622.832053,1974.817650,82043.883548,1291.881743,501.345440,41026.539337
189,1,0,-nan,-nan,-nan,-nan,-nan,-nan,-nan,-nan,-nan,-nan,-nan,-nan
190,0,8,645199.750000,220520.000000,1294898.125000,66813.625000,7673.500000,647435.000000,9584.283642,1670.278121,93128.563632,1456.624946,471.407997,46569.758983
190,1,0,-nan,-nan,-nan,-nan,-nan,-nan,-nan,-nan,-nan,-nan,-nan,-nan
191,0,8,640588.750000,219466.875000,1274675.750000,66040.875000,7653.375000,637309.375000,2414.395822,557.006831,80496.108657,390.733425,457.741176,40213.476998
191,1,0,-nan,-nan,-nan,-nan,-nan,-nan,-nan,-nan,-nan,-nan,-nan,-nan
192,0,8,644298.875000,220180.875000,1286772.125000,66687.875000,7902.250000,643360.125000,8994.306358,2016.975424,57969.532199,1517.499377,875.075390,28958.068808
192,1,0,-nan,-nan,-nan,-nan,-nan,-nan,-nan,-nan,-nan,-nan,-nan,-nan
193,0,8,639950.375000,219320.875000,1295399.000000,65989.500000,7750.875000,647719.000000,3899.859995,1091.249792,63267.560167,365.224931,597.084885,31626.561867
193,1,0,-nan,-nan,-nan,-nan,-nan,-nan,-nan,-nan,-nan,-nan,-nan,-nan
194,0,8,645751.875000,220707.125000,1328286.875000,66893.250000,8341.875000,664123.000000,9507.474657,1924.086500,69203.546521,1523.260299,621.040747,34558.733618
194,1,0,-nan,-nan,-nan,-nan,-nan,-nan,-nan,-nan,-nan,-nan,-nan,-nan
195,0,8,645977.875000,220407.125000,1311385.000000,66779.625000,7859.125000,655653.500000,9624.931603,2070.447683,50162.018620,1400.927009,423.231154,25173.635023
195,1,0,-nan,-nan,-nan,-nan,-nan,-nan,-nan,-nan,-nan,-nan,-nan,-nan
196,0,8,641457.875000,219274.250000,1286972.000000,65918.625000,7800.000000,643527.625000,2528.132089,661.990512,84447.587115,276.472394,916.323224,42241.778144
196,1,0,-nan,-nan,-nan,-nan,-nan,-nan,-nan,-nan,-nan,-nan,-nan,-nan
197,0,8,648900.500000,222172.125000,1299134.750000,66909.125000,7963.000000,649520.125000,10752.385933,3576.935610,63363.682028,1213.544132,453.241106,31641.891854
197,1,0,-nan,-nan,-nan,-nan,-nan,-nan,-nan,-nan,-nan,-nan,-nan,-nan
198,0,8,648995.375000,221241.250000,1273178.875000,67293.375000,7845.875000,636620.500000,7975.814832,1947.805416,71917.455205,1480.209608,404.654617,35959.014089
198,1,0,-nan,-nan,-nan,-nan,-nan,-nan,-nan,-nan,-nan,-nan,-nan,-nan
199,0,8,642143.875000,219621.625000,1291019.625000,66262.250000,7687.500000,645554.125000,7549.191802,1673.807257,65822.675323,1139.710901,460.439193,32895.933383
199,1,0,-nan,-nan,-nan,-nan,-nan,-nan,-nan,-nan,-nan,-nan,-nan,-nan
200,0,8,640379.875000,219605.750000,1277567.500000,66139.625000,7600.250000,638818.000000,3935.917156,780.973391,76054.657895,599.387174,569.581809,37998.090988
200,1,0,-nan,-nan,-nan,-nan,-nan,-nan,-nan,-nan,-nan,-nan,-nan,-nan
201,0,8,648890.250000,221314.625000,1347657.375000,67231.875000,8049.750000,673758.000000,11261.965734,2059.788456,61184.827118,1348.965477,442.557835,30640.230115
201,1,0,-nan,-nan,-nan,-nan,-nan,-nan,-nan,-nan,-nan,-nan,-nan,-nan
202,0,8,649332.500000,221233.500000,1306825.625000,67307.375000,7990.625000,653389.250000,7671.473571,1824.153776,51000.923746,1282.751918,399.565682,25564.479135
202,1,0,-nan,-nan,-nan,-nan,-nan,-nan,-nan,-nan,-nan,-nan,-nan,-nan
203,0,8,642671.625000,219759.625000,1291847.125000,66319.750000,7809.125000,645944.625000,6016.525823,1542.614415,77240.875441,1309.758733,500.287527,38566.216537
203,1,0,-nan,-nan,-nan,-nan,-nan,-nan,-nan,-nan,-nan,-nan,-nan,-nan
204,0,8,640981.500000,219562.625000,1294129.875000,66104.125000,7605.000000,647044.500000,3312.737652,775.849847,76634.196615,508.442336,576.880837,38275.593206
204,1,0,-nan,-nan,-nan,-nan,-nan,-nan,-nan,-nan,-nan,-nan,-nan,-nan
205,0,8,640102.625000,219464.875000,1261366.625000,66110.000000,7660.625000,630687.250000,3418.834521,909.678850,77481.613077,463.737534,539.263372,38735.028342
205,1,0,-nan,-nan,-nan,-nan,-nan,-nan,-nan,-nan,-nan,-nan,-nan,-nan
206,0,8,642239.500000,220043.000000,1309307.500000,66470.375000,7978.500000,654656.625000,6378.927731,1610.271716,70417.816226,879.807356,597.382206,35143.195461
206,1,0,-nan,-nan,-nan,-nan,-nan,-nan,-nan,-nan,-nan,-nan,-nan,-nan
207,0,8,644317.750000,220344.125000,1316781.625000,66601.250000,7945.875000,658355.750000,8773.043240,2061.179604,104745.302028,1183.668529,554.467636,52428.828026
207,1,0,-nan,-nan,-nan,-nan,-nan,-nan,-nan,-nan,-nan,-nan,-nan,-nan
208,0,8,646656.125000,220948.000000,1277147.500000,67012.500000,8009.375000,638579.125000,10509.280559,2115.918063,67964.103111,1568.206938,608.180059,33969.736014
208,1,0,-nan,-nan,-nan,-nan,-nan,-nan,-nan,-nan,-nan,-nan,-nan,-nan
209,0,8,642310.125000,220142.250000,1294277.500000,66345.375000,8010.125000,647050.875000,3828.360401,923.823001,42732.377888,603.046420,541.170361,21311.018215
209,1,0,-nan,-nan,-nan,-nan,-nan,-nan,-nan,-nan,-nan,-nan,-nan,-nan
210,0,8,643405.875000,220222.500000,1295318.000000,66493.000000,7983.375000,647647.875000,8158.321678,1583.709254,60665.341415,1276.003135,562.908060,30312.505721
210,1,0,-nan,-nan,-nan,-nan,-nan,-nan,-nan,-nan,-nan,-nan,-nan,-nan
211,0,8,641255.000000,220111.250000,1283027.000000,66319.125000,7766.250000,641552.250000,2971.525029,1254.773062,53244.255106,505.183738,403.766873,26638.212833
211,1,0,-nan,-nan,-nan,-nan,-nan,-nan,-nan,-nan,-nan,-nan,-nan,-nan
212,0,8,643029.875000,220438.125000,1309434.625000,66654.375000,7986.875000,654602.500000,7029.618009,1678.994077,99430.484634,1183.403243,375.857166,49615.164826
212,1,0,-nan,-nan,-nan,-nan,-nan,-nan,-nan,-nan,-nan,-nan,-nan,-nan
213,0,8,645352.625000,220809.125000,1282434.375000,66940.250000,8087.375000,641211.875000,10375.775356,1919.335851,53452.686801,1509.182871,826.204414,26663.357222
213,1,0,-nan,-nan,-nan,-nan,-nan,-nan,-nan,-nan,-nan,-nan,-nan,-nan
214,0,8,639938.125000,219408.250000,1292565.750000,66064.375000,7684.750000,646295.875000,3930.811635,1247.635238,38924.141566,662.596962,448.338530,19346.424175
214,1,0,-nan,-nan,-nan,-nan,-nan,-nan,-nan,-nan,-nan,-nan,-nan,-nan
215,0,8,642000.375000,219817.750000,1333494.250000,66331.875000,8073.000000,666669.625000,7304.158232,1742.073603,114170.205774,902.804857,964.681813,57011.184414
215,1,0,-nan,-nan,-nan,-nan,-nan,-nan,-nan,-nan,-nan,-nan,-nan,-nan
216,0,8,639488.750000,219302.500000,1313056.875000,65945.000000,8127.750000,656500.500000,4359.680228,1078.085920,57954.145739,433.734942,449.162206,29002.185974
216,1,0,-nan,-nan,-nan,-nan,-nan,-nan,-nan,-nan,-nan,-nan,-nan,-nan
217,0,8,638784.250000,219256.125000,1289271.875000,65931.500000,7806.125000,644507.500000,3250.253288,824.976278,90354.969304,472.529100,370.112968,45205.967515
217,1,0,-nan,-nan,-nan,-nan,-nan,-nan,-nan,-nan,-nan,-nan,-nan,-nan
218,0,8,638786.875000,219132.125000,1285703.625000,65904.750000,7730.625000,642758.625000,2506.456983,714.468235,51142.869513,231.640211,594.676369,25460.995699
218,1,0,-nan,-nan,-nan,-nan,-nan,-nan,-nan,-nan,-nan,-nan,-nan,-nan
219,0,8,643113.250000,220508.375000,1299953.750000,66686.625000,7995.250000,649932.500000,6960.089524,1660.497361,79466.960065,1264.121527,729.637367,39797.153978
219,1,0,-nan,-nan,-nan,-nan,-nan,-nan,-nan,-nan,-nan,-nan,-nan,-nan
220,0,8,645174.000000,220827.125000,1282976.125000,66955.375000,8067.250000,641459.875000,8325.919634,1822.675262,50214.129870,1438.262401,831.096678,25096.129056
220,1,0,-nan,-nan,-nan,-nan,-nan,-nan,-nan,-nan,-nan,-nan,-nan,-nan
221,0,8,647834.500000,221147.000000,1324299.625000,67283.500000,8239.000000,662174.875000,10298.379569,2353.723646,50126.993843,1776.846715,659.448823,25011.055573
221,1,0,-nan,-nan,-nan,-nan,-nan,-nan,-nan,-nan,-nan,-nan,-nan,-nan
222,0,8,640383.875000,219450.000000,1306751.750000,66077.125000,7854.250000,653340.500000,2953.868922,886.504935,103599.395781,441.189992,928.559604,51756.226862
222,1,0,-nan,-nan,-nan,-nan,-nan,-nan,-nan,-nan,-nan,-nan,-nan,-nan
223,0,8,639615.125000,219286.000000,1277116.875000,65929.875000,7651.875000,638609.375000,3318.040892,716.224127,61042.860019,352.671036,568.709161,30571.877837
223,1,0,-nan,-nan,-nan,-nan,-nan,-nan,-nan,-nan,-nan,-nan,-nan,-nan
224,0,8,639155.875000,219383.250000,1243446.500000,66013.500000,7753.125000,621694.000000,2711.778450,510.944652,70854.545526,455.425900,656.763930,35449.908286
224,1,0,-nan,-nan,-nan,-nan,-nan,-nan,-nan,-nan,-nan,-nan,-nan,-nan
225,0,8,639519.125000,219618.375000,1292560.000000,66124.250000,7717.000000,646263.250000,4880.266756,1015.062675,72739.444660,451.069770,745.492287,36350.570332
225,1,0,-nan,-nan,-nan,-nan,-nan,-nan,-nan,-nan,-nan,-nan,-nan,-nan
226,0,8,644903.625000,220351.125000,1275528.625000,66555.750000,8006.750000,637751.875000,6922.337592,1598.607006,57173.974284,1212.415538,558.212493,28562.140971
226,1,0,-nan,-nan,-nan,-nan,-nan,-nan,-nan,-nan,-nan,-nan,-nan,-nan
227,0,8,645679.750000,220423.250000,1282723.375000,66651.125000,7866.750000,641356.500000,10120.754959,1635.083771,73428.572831,1254.283903,658.945891,36735.232557
227,1,0,-nan,-nan,-nan,-nan,-nan,-nan,-nan,-nan,-nan,-nan,-nan,-nan
228,0,8,643997.875000,220050.375000,1283276.250000,66468.750000,7742.500000,641555.125000,7773.010765,1645.789927,88568.342381,1072.746679,706.061789,44180.267893
228,1,0,-nan,-nan,-nan,-nan,-nan,-nan,-nan,-nan,-nan,-nan,-nan,-nan
229,0,8,648546.625000,221304.125000,1293838.750000,67096.125000,8337.625000,646887.375000,5328.424297,2065.711950,54813.637821,1104.078851,452.777798,27410.189469
229,1,0,-nan,-nan,-nan,-nan,-nan,-nan,-nan,-nan,-nan,-nan,-nan,-nan
230,0,8,644340.125000,220762.125000,1284289.375000,66355.750000,8003.750000,642146.750000,9804.699223,3775.573117,48301.178707,1065.844941,394.709624,24140.073839
230,1,0,-nan,-nan,-nan,-nan,-nan,-nan,-nan,-nan,-nan,-nan,-nan,-nan
231,0,8,650799.625000,222442.625000,1298738.000000,67175.250000,8216.125000,649373.375000,18396.404839,5542.727824,90544.531694,1724.908530,655.551378,45285.144134
231,1,0,-nan,-nan,-nan,-nan,-nan,-nan,-nan,-nan,-nan,-nan,-nan,-nan
232,0,8,650060.125000,222523.375000,1315373.000000,66988.625000,8115.125000,657598.500000,17475.762340,5668.470273,63996.730668,1532.717842,275.651699,31980.162945
232,1,0,-nan,-nan,-nan,-nan,-nan,-nan,-nan,-nan,-nan,-nan,-nan,-nan
233,0,8,651007.875000,222406.000000,1244794.750000,67112.500000,8055.375000,622396.000000,18018.004603,5676.261622,101009.852393,1776.529130,534.550497,50487.505529
233,1,0,-nan,-nan,-nan,-nan,-nan,-nan,-nan,-nan,-nan,-nan,-nan,-nan
234,0,8,648420.750000,221998.125000,1276158.000000,66748.625000,8026.125000,637909.000000,17231.228698,5752.623563,63226.489275,1572.844631,548.910611,31367.699689
234,1,0,-nan,-nan,-nan,-nan,-nan,-nan,-nan,-nan,-nan,-nan,-nan,-nan
235,0,8,647391.125000,221392.750000,1273364.250000,66510.750000,7702.000000,636578.000000,17317.782887,6023.812222,83086.312698,1611.519140,457.897368,41400.859614
235,1,0,-nan,-nan,-nan,-nan,-nan,-nan,-nan,-nan,-nan,-nan,-nan,-nan
236,0,8,655142.875000,223689.875000,1335486.625000,67879.500000,8388.500000,667630.875000,19586.183953,6693.589143,124762.230183,2194.422475,962.464805,62179.825344
236,1,0,-nan,-nan,-nan,-nan,-nan,-nan,-nan,-nan,-nan,-nan,-nan,-nan
237,0,8,653258.250000,223132.750000,1289122.625000,67637.750000,8083.250000,644496.500000,19291.017416,6123.471723,95003.281955,2149.568314,679.788156,47468.521646
237,1,0,-nan,-nan,-nan,-nan,-nan,-nan,-nan,-nan,-nan,-nan,-nan,-nan
238,0,8,649734.000000,222952.875000,1305121.000000,67055.000000,7752.625000,652532.375000,16687.149539,6072.134992,47164.059709,1606.478369,520.769128,23548.644621
238,1,0,-nan,-nan,-nan,-nan,-nan,-nan,-nan,-nan,-nan,-nan,-nan,-nan
239,0,8,651053.125000,222518.375000,1315639.750000,67319.500000,7907.500000,657814.125000,16514.115814,5931.869223,59893.537840,1932.945615,412.005158,30001.992348
239,1,0,-nan,-nan,-nan,-nan,-nan,-nan,-nan,-nan,-nan,-nan,-nan,-nan
240,0,8,650892.875000,222722.875000,1278708.250000,67269.375000,7707.250000,639281.375000,23894.444827,7216.099248,41442.368163,2596.032210,624.860334,20827.700215
240,1,0,-nan,-nan,-nan,-nan,-nan,-nan,-nan,-nan,-nan,-nan,-nan,-nan
241,0,8,649468.875000,222332.000000,1280148.375000,67061.375000,7736.000000,640045.375000,17512.173176,5980.240714,68575.007328,1671.596986,400.066245,34288.004961
241,1,0,-nan,-nan,-nan,-nan,-nan,-nan,-nan,-nan,-nan,-nan,-nan,-nan
242,0,8,648199.500000,222190.750000,1301463.875000,66843.625000,7891.250000,650816.375000,16809.228886,5922.333952,71610.652452,1581.119535,377.895736,35775.415651
242,1,0,-nan,-nan,-nan,-nan,-nan,-nan,-nan,-nan,-nan,-nan,-nan,-nan
243,0,8,651987.125000,222829.625000,1298755.875000,67439.250000,7819.750000,649273.500000,16856.156964,5881.009606,61674.010113,1870.060477,441.869820,30752.964190
243,1,0,-nan,-nan,-nan,-nan,-nan,-nan,-nan,-nan,-nan,-nan,-nan,-nan
244,0,8,647439.250000,222248.375000,1296781.500000,66887.375000,8039.500000,648372.750000,18059.805867,6356.514983,42789.708135,1779.677986,506.876711,21402.970972
244,1,0,-nan,-nan,-nan,-nan,-nan,-nan,-nan,-nan,-nan,-nan,-nan,-nan
245,0,8,651760.625000,223209.375000,1310765.875000,67289.125000,7821.625000,655331.375000,24374.953430,7324.386236,97251.562965,2541.259404,1004.758421,48611.175477
245,1,0,-nan,-nan,-nan,-nan,-nan,-nan,-nan,-nan,-nan,-nan,-nan,-nan
246,0,8,651972.000000,222638.375000,1319804.250000,67380.500000,7886.125000,659873.500000,18487.692927,5926.443430,45503.664116,2069.958876,599.428569,22777.179857
246,1,0,-nan,-nan,-nan,-nan,-nan,-nan,-nan,-nan,-nan,-nan,-nan,-nan
247,0,8,651999.250000,223022.375000,1289272.000000,67391.750000,8077.125000,644594.750000,19095.447519,6511.971724,63502.655330,1986.120764,507.487546,31738.893663
247,1,0,-nan,-nan,-nan,-nan,-nan,-nan,-nan,-nan,-nan,-nan,-nan,-nan
248,0,8,652896.250000,223021.500000,1331204.500000,67520.000000,8047.250000,665571.625000,22519.233978,7136.344267,66104.704456,2650.993823,541.103906,33057.159130
248,1,0,-nan,-nan,-nan,-nan,-nan,-nan,-nan,-nan,-nan,-nan,-nan,-nan
249,0,8,647882.500000,221853.875000,1280820.125000,66764.625000,7626.875000,640515.000000,15890.251587,5750.066400,78070.176813,1509.927890,400.799962,39011.284573
249,1,0,-nan,-nan,-nan,-nan,-nan,-nan,-nan,-nan,-nan,-nan,-nan,-nan
250,0,8,649206.000000,222081.875000,1315633.125000,66977.125000,8205.375000,657717.625000,16046.218051,5735.797251,55949.481241,1811.132342,879.946154,27972.019586
250,1,0,-nan,-nan,-nan,-nan,-nan,-nan,-nan,-nan,-nan,-nan,-nan,-nan
251,0,8,650568.875000,222287.750000,1300015.750000,67080.125000,8083.125000,649985.125000,15028.370740,5902.320979,74476.738292,1611.338453,546.001016,37239.220307
251,1,0,-nan,-nan,-nan,-nan,-nan,-nan,-nan,-nan,-nan,-nan,-nan,-nan
252,0,8,651238.625000,222272.500000,1291731.125000,67269.000000,8044.750000,645890.875000,15079.657704,5358.767209,44896.386972,1808.526057,872.932665,22412.531274
252,1,0,-nan,-nan,-nan,-nan,-nan,-nan,-nan,-nan,-nan,-nan,-nan,-nan
253,0,8,650133.750000,222342.750000,1289992.875000,66919.750000,8010.125000,644899.125000,20080.754585,6839.453263,84051.149227,1958.820803,676.053518,42034.535862
253,1,0,-nan,-nan,-nan,-nan,-nan,-nan,-nan,-nan,-nan,-nan,-nan,-nan
254,0,8,648415.875000,221838.500000,1263241.500000,66728.750000,7812.500000,631651.250000,17248.217875,5789.818585,60251.921376,1550.438789,488.159042,30081.762713
254,1,0,-nan,-nan,-nan,-nan,-nan,-nan,-nan,-nan,-nan,-nan,-nan,-nan
255,0,8,647648.250000,221749.500000,1244975.125000,66711.125000,7748.875000,622506.750000,16750.781584,5736.237159,72643.678587,1555.227993,498.675355,36352.274020
255,1,0,-nan,-nan,-nan,-nan,-nan,-nan,-nan,-nan,-nan,-nan,-nan,-nan
