0,0,281,643328.629893,219996.419929,1238176.277580,66320.996441,7688.992883,618549.046263,11653.469252,3534.833692,66295.002639,1350.648637,659.457833,33097.363691
0,1,1,763423.000000,267818.000000,1491066.000000,79344.000000,9454.000000,744814.000000,0.000000,0.000000,0.000000,0.000000,0.000000,0.000000
1,0,280,642984.203571,219921.246429,1239898.325000,66282.775000,7644.860714,619398.996429,11910.896873,3496.814925,62205.243634,1418.820477,652.057024,31088.186098
1,1,1,758226.000000,265936.000000,1389162.000000,78574.000000,9515.000000,694098.000000,0.000000,0.000000,0.000000,0.000000,0.000000,0.000000
2,0,281,642935.459075,219877.035587,1240678.626335,66272.996441,7680.430605,619785.199288,10848.993719,3239.016300,63857.625592,1335.787252,703.841313,31881.553064
2,1,1,778979.000000,270140.000000,1455823.000000,81651.000000,10117.000000,727398.000000,0.000000,0.000000,0.000000,0.000000,0.000000,0.000000
3,0,354,642102.152542,219821.104520,1241739.669492,66203.070621,7656.203390,620302.723164,10315.304296,3068.336093,64612.572260,1205.493583,654.822664,32271.218335
3,1,813,712179.735547,248887.362854,1429258.697417,74321.110701,9484.230012,714052.137761,8982.660334,2542.004252,89276.635202,1131.905218,811.548436,44608.859323
