0,-1,724204,250901,1430971,74758,9481,715141,0
0,-1,723174,251011,1391481,74792,8958,695631,2
0,-1,667522,230837,1263726,69061,9055,631741,0
0,-1,669092,230482,1503602,68787,8061,751178,0
0,-1,674734,232899,1344313,70220,8095,672221,0
1,-1,720392,249073,1305970,73932,8720,653013,2
1,-1,670496,232398,1564336,69742,9857,781960,0
1,-1,669584,230194,1254858,68732,7543,627463,0
1,-1,669017,231099,1356169,69340,7453,678112,0
2,-1,662831,230692,1312275,69024,7445,655980,2
2,-1,664613,230742,1462587,69075,9794,731402,0
2,-1,669670,230644,1397173,68764,8268,698575,0
2,-1,670659,231950,1293105,69687,8209,646640,0
3,-1,661744,230928,1218553,69086,7335,609113,2
3,-1,665844,231524,1359919,69224,8801,679906,0
3,-1,689787,235113,1405426,72066,8996,702860,0
3,-1,674065,233277,1287026,70444,7301,643567,0
4,-1,667631,230460,1313809,68950,8493,656865,2
4,-1,664700,230651,1241830,68962,7988,620875,0
4,-1,669339,230976,1397619,68957,7273,698847,0
4,-1,689023,235901,1392922,72867,8321,696510,0
5,-1,666731,232169,1412175,69711,9214,706030,2
5,-1,685455,235470,1351417,72339,9239,675565,0
5,-1,667994,230653,1451797,68796,7338,725944,0
5,-1,670041,231361,1245915,69579,7730,623381,0
6,-1,665995,231219,1316362,69201,8235,657981,2
6,-1,663799,230946,1372450,69127,8986,685891,0
6,-1,670230,230420,1337336,68728,7662,668457,0
6,-1,668347,231335,1410344,69574,7722,705219,0
7,-1,668373,230984,1379712,69197,7831,689555,2
7,-1,663545,230202,1207730,68874,7790,603805,0
7,-1,676341,232206,1300087,69605,7918,650060,0
7,-1,670993,232344,1254871,70016,7744,627502,0
8,-1,666105,230986,1267023,68983,8497,633582,2
8,-1,673895,232237,1350280,69690,8900,675103,0
8,-1,694875,235742,1391756,72280,9091,695896,0
8,-1,666521,230897,1225362,69372,7858,612674,0
9,-1,673545,232886,1285564,69908,9197,642725,2
9,-1,671323,231736,1395507,69343,7796,697878,0
9,-1,669307,229889,1239460,68547,7613,619784,0
9,-1,671291,232272,1345071,69894,8017,672492,0
10,-1,670255,231844,1362289,69193,8435,681134,2
10,-1,669205,231172,1259785,69130,8106,629863,0
10,-1,673251,231845,1230450,69341,7956,615189,0
10,-1,689659,235491,1358725,72677,8209,679332,0
11,-1,666235,231073,1278185,69079,9019,639039,2
11,-1,665136,230213,1352535,68782,7415,676186,0
11,-1,670597,230203,1403232,68716,7759,701657,0
11,-1,672607,232537,1181420,69962,7409,590748,0
12,-1,664685,230634,1295220,68895,8232,647517,2
12,-1,667533,230877,1287429,69074,8150,643589,0
12,-1,697880,239953,1413146,71546,7935,706610,0
12,-1,667117,230902,1320406,69373,7825,660230,0
13,-1,669380,230544,1372304,69009,7806,686200,2
13,-1,667507,230739,1377937,68957,8445,688926,0
13,-1,674046,232612,1240933,69765,7485,620513,0
13,-1,670794,232445,1297251,70105,7139,648667,0
14,-1,662736,231088,1170108,69268,7538,585112,2
14,-1,669828,231408,1319945,69273,8088,659661,0
14,-1,689365,235408,1284893,72197,7940,642413,0
14,-1,668550,231262,1400510,69543,8000,700018,0
15,-1,665981,233047,1320663,70171,8471,660243,2
15,-1,667106,230448,1365462,68878,8238,682539,0
15,-1,670240,230292,1250088,68672,7982,625093,0
15,-1,667904,232084,1247554,69793,7721,623830,0
16,-1,663775,230895,1306638,69215,7645,653375,2
16,-1,687137,235146,1341207,72250,9572,670454,0
16,-1,669854,230538,1216549,68813,7350,608317,0
16,-1,674543,231710,1258017,69582,8184,629053,0
17,-1,662882,231183,1303922,69283,7791,652016,2
17,-1,670039,231802,1261699,69347,8337,630573,0
17,-1,667842,230190,1255944,68657,7408,628031,0
17,-1,672281,231204,1487526,69473,8742,743793,0
18,-1,665591,230927,1316753,69203,7783,658243,2
18,-1,662831,230514,1268696,68928,7392,634284,0
18,-1,673303,232419,1262853,69653,7411,631490,0
18,-1,670627,230944,1319345,69438,8044,659682,0
19,-1,664263,231093,1197724,69240,7517,598863,2
19,-1,667608,231463,1304753,69434,8777,652206,0
19,-1,689818,235459,1404792,72209,8363,702384,0
19,-1,671367,231160,1292218,69463,7819,646002,0
20,-1,666345,232590,1329446,69979,8153,664783,2
20,-1,667030,231222,1205978,69182,7968,603100,0
20,-1,671605,231124,1245445,68987,7401,622719,0
20,-1,674348,232684,1236471,70178,7854,618366,0
21,-1,664267,230689,1215376,68977,6973,607483,2
21,-1,664431,230542,1413790,68884,9739,706800,0
21,-1,668016,230107,1327448,68633,7304,663756,0
21,-1,675817,231813,1274099,69725,8248,637089,0
22,-1,669254,232613,1296813,69892,8092,648392,2
22,-1,667035,231090,1403998,69147,9576,701393,0
22,-1,689417,234804,1364711,71940,8192,682379,0
22,-1,673637,231653,1325430,69672,8268,662763,0
23,-1,670522,231741,1381384,69367,9389,690743,2
23,-1,669011,232324,1328636,69646,8089,664205,0
23,-1,672449,232344,1234360,69565,7151,617253,0
23,-1,675786,232856,1315012,70266,8085,657799,0
24,-1,664843,230789,1263545,69071,8596,632100,2
24,-1,666774,231214,1250127,69194,7832,624906,0
24,-1,666606,229735,1318335,68509,7522,659222,0
24,-1,693014,236100,1542149,72925,9548,771078,0
25,-1,670694,233146,1410995,70067,9023,704825,2
25,-1,666792,231525,1389898,69247,8637,694861,0
25,-1,689382,234965,1343185,72037,7984,671638,0
25,-1,670465,231194,1298932,69521,8136,649505,0
26,-1,664004,231013,1307010,69130,8841,653435,2
26,-1,685307,235288,1380394,72281,10098,689881,0
26,-1,667097,230244,1327430,68655,7768,663734,0
26,-1,673051,232312,1252279,70059,8193,626176,0
27,-1,668398,231557,1353010,69324,8494,676429,2
27,-1,664160,231272,1374362,69224,8451,686880,0
27,-1,671396,232003,1317510,69440,7465,658801,0
27,-1,670586,231559,1347620,69633,8080,673843,0
28,-1,663274,230798,1324484,69019,8278,662270,2
28,-1,665556,230457,1294971,68902,7452,647532,0
28,-1,667316,230707,1370987,68831,7265,685541,0
28,-1,677465,232855,1207935,70291,8239,604054,0
29,-1,695497,240947,1260631,72098,7769,630364,2
29,-1,666383,231155,1218751,69171,6956,609389,0
29,-1,665342,230336,1224432,68746,7550,612263,0
29,-1,671996,231140,1296227,69406,8042,648170,0
30,-1,670595,233039,1343347,70029,8532,671521,2
30,-1,665725,231253,1327165,69172,6944,663663,0
30,-1,673233,232675,1246946,69737,7148,623402,0
30,-1,670838,231315,1265804,69577,8218,632936,0
31,-1,666049,231281,1241175,69189,7610,620709,2
31,-1,664364,229626,1210686,68719,6846,605391,0
31,-1,671636,230664,1215787,68817,7783,608026,0
31,-1,672152,231713,1275151,69639,8359,637617,0
32,-1,668663,231569,1365405,69337,8390,682748,2
32,-1,669842,232418,1308611,69835,7675,654382,0
32,-1,670464,230180,1376696,68695,8296,688391,0
32,-1,691111,235980,1305734,72896,9372,652781,0
33,-1,668572,230940,1419020,69112,8721,709543,2
33,-1,667790,231610,1336379,69325,7666,668272,0
33,-1,669312,229570,1270579,68404,7884,635344,0
33,-1,672949,232343,1191172,69882,8257,595627,0
34,-1,660743,231122,1224047,69184,6766,611753,2
34,-1,663134,230233,1268886,68837,7510,634477,0
34,-1,670359,230537,1212331,68801,7974,606191,0
34,-1,697906,240679,1464243,72349,8598,732149,0
35,-1,664673,230855,1192200,69045,7126,596082,0
35,-1,665324,231609,1405881,69338,8585,702855,2
35,-1,676811,233225,1220662,69970,8591,610365,0
35,-1,690967,236263,1416928,72955,9636,708450,0
36,-1,665031,231271,1228120,69132,7536,614069,0
36,-1,665967,231287,1276961,69172,8336,638269,2
36,-1,689839,234959,1290558,72029,8782,645282,0
36,-1,669204,231294,1241757,69546,8423,620929,0
37,-1,663945,230885,1220550,68985,7136,610326,0
37,-1,665039,230922,1222862,69099,8161,611370,2
37,-1,670375,230561,1167447,68764,8072,583759,0
37,-1,668346,231439,1297957,69551,8903,649023,0
38,-1,666740,232471,1336589,69800,8721,668346,0
38,-1,667335,231055,1260655,69174,7628,630225,2
38,-1,669016,230364,1367304,68740,7956,683477,0
38,-1,674609,232583,1266182,70148,8445,633143,0
39,-1,686922,235710,1326503,72400,9411,663242,0
39,-1,669010,233100,1372493,69898,8684,685781,2
39,-1,668611,230548,1303955,68798,7552,652025,0
39,-1,673483,231434,1384564,69608,8303,692321,0
40,-1,695503,240946,1425084,72045,8863,712581,0
40,-1,674290,232488,1395885,69500,9560,697738,2
40,-1,675391,232723,1318124,69689,7913,659127,0
40,-1,673878,232540,1257281,70133,7757,628711,0
41,-1,666930,231361,1330017,69225,8223,664868,0
41,-1,666088,231144,1255004,69147,7456,627328,2
41,-1,689979,235179,1356188,72111,8272,678106,0
41,-1,673037,231554,1241095,69655,7553,620605,0
42,-1,664980,231079,1382047,69095,8627,691053,0
42,-1,673415,231985,1341329,69208,7995,670645,2
42,-1,666626,230345,1329340,68762,7509,664715,0
42,-1,675761,232986,1284258,70258,7756,642177,0
43,-1,667681,231618,1355192,69308,7797,677328,0
43,-1,670404,232360,1337067,69382,8726,668573,2
43,-1,670232,232104,1292172,69488,7095,645944,0
43,-1,668658,231049,1256129,69495,7950,628106,0
44,-1,664748,230890,1353211,69064,7577,676700,0
44,-1,674592,233289,1340500,70057,8050,670302,2
44,-1,670045,230554,1376461,68765,8279,688279,0
44,-1,674179,232194,1392611,69836,8542,696353,0
45,-1,684918,235163,1537168,72213,8909,769198,0
45,-1,667758,231531,1236677,69239,7866,618395,2
45,-1,668024,230365,1456312,68748,7877,728197,0
45,-1,671097,231009,1396051,69435,8491,698063,0
46,-1,668347,232023,1376434,69606,8655,688111,0
46,-1,693246,240304,1373397,71765,7952,686746,2
46,-1,668920,230747,1275966,68863,7515,638013,0
46,-1,692332,236048,1386594,72885,9575,693296,0
47,-1,665574,231340,1304723,69234,8079,652090,0
47,-1,670303,231414,1167321,69156,7541,583707,2
47,-1,669611,230198,1322269,68666,7819,661182,0
47,-1,669435,231258,1231865,69541,7471,615957,0
48,-1,663987,231167,1363692,69110,8460,681235,0
48,-1,670004,232589,1340636,69771,7842,670379,2
48,-1,668399,230636,1386400,68829,7371,693240,0
48,-1,669193,231219,1310682,69553,8675,655371,0
49,-1,663284,231160,1373074,69138,8122,686576,0
49,-1,667662,230909,1317903,69012,8091,658997,2
49,-1,669855,231751,1384165,69184,7688,692129,0
49,-1,673490,232548,1246188,70126,7893,623160,0
50,-1,672484,230637,1465550,68968,9061,732770,0
50,-1,669537,231098,1212332,69129,9109,606077,2
50,-1,665545,230137,1231048,68708,7561,615559,0
50,-1,670235,231594,1319213,69672,8017,659661,0
51,-1,673998,231836,1321352,69392,8482,660325,0
51,-1,668070,231891,1407690,69376,8472,703915,2
51,-1,670496,232439,1239184,69624,7694,619409,0
51,-1,667768,230870,1231790,69392,7231,615943,0
52,-1,669375,230465,1338544,68901,8744,668872,0
52,-1,668288,230588,1268176,68916,8588,633924,2
52,-1,686480,234975,1373398,72043,7989,686718,0
52,-1,672736,232617,1350165,69976,8451,675141,0
53,-1,668647,230724,1392024,69030,8697,696041,0
53,-1,665750,230358,1337649,68882,8732,668882,2
53,-1,667932,229516,1217388,68395,7953,608730,0
53,-1,695167,236270,1347465,72962,9195,673727,0
54,-1,670711,231086,1366799,69100,8969,683439,0
54,-1,665655,230996,1248962,68981,7625,624175,2
54,-1,669091,230356,1186689,68754,8090,593371,0
54,-1,668382,230584,1172513,69355,7641,586311,0
55,-1,670180,230968,1371971,69111,8869,686412,0
55,-1,672111,232734,1256742,69836,8345,628021,2
55,-1,715693,244293,1309306,74805,8317,654758,0
55,-1,668826,230884,1325627,69458,7616,662635,0
56,-1,667574,230443,1368534,68871,8683,684337,0
56,-1,669442,231043,1300149,68848,9608,649936,2
56,-1,666751,230390,1242288,68767,7652,621186,0
56,-1,673935,233277,1220749,70581,7520,610442,0
57,-1,667486,230528,1263408,68958,8603,631613,0
57,-1,671437,231729,1323970,69088,8703,662130,2
57,-1,672637,231772,1257644,69369,7699,628833,0
57,-1,667931,231312,1388376,69584,7752,694232,0
58,-1,668686,230803,1177864,69046,7242,588983,0
58,-1,679444,233633,1339969,69974,8675,670070,2
58,-1,669487,230912,1295615,68887,7339,647863,0
58,-1,674127,233162,1247504,70496,7806,623823,0
59,-1,667826,231098,1387566,69172,7414,693828,0
59,-1,664748,230268,1355698,68690,8835,677829,2
59,-1,670113,231213,1323229,69019,7460,661689,0
59,-1,670424,232238,1218973,69943,7554,609533,0
60,-1,666997,230640,1228559,68967,7198,614307,0
60,-1,665437,230490,1300287,68795,8890,649796,2
60,-1,666641,230287,1328057,68698,7644,664059,0
60,-1,667103,230921,1326914,69493,8017,663468,0
61,-1,688138,235663,1285064,72453,7989,642588,0
61,-1,663827,230493,1273360,68801,7876,636726,2
61,-1,691349,235678,1318413,72276,8662,659079,0
61,-1,666868,231296,1309199,69790,7691,654665,0
62,-1,671108,231136,1313194,69132,8263,656642,0
62,-1,666033,230751,1277846,68910,7693,638950,2
62,-1,667631,230628,1339126,68829,7651,669593,0
62,-1,673519,231092,1252100,69546,7851,626071,0
63,-1,669108,230695,1209484,69016,7681,604754,0
63,-1,667204,230412,1341388,68815,7736,670744,2
63,-1,665838,230226,1295256,68712,7469,647668,0
63,-1,673673,231399,1343501,69672,8146,671797,0
64,-1,670673,231601,1339080,69485,8191,669817,0
64,-1,663002,230642,1368197,68847,7836,684147,2
64,-1,668454,230337,1281452,68746,7666,640772,0
64,-1,673045,231478,1350442,69641,8356,675271,0
65,-1,666476,230261,1322853,68792,8017,661471,0
65,-1,666197,230796,1238339,68863,7259,619201,2
65,-1,666847,229680,1409640,68467,8036,705020,0
65,-1,693958,236267,1388779,73065,8760,694465,0
66,-1,672722,232689,1388591,69961,8645,694404,0
66,-1,666989,230488,1325761,68796,8110,662898,0
66,-1,670508,231137,1280272,69014,8443,640192,2
66,-1,671188,231649,1420911,69762,8462,710508,0
67,-1,665590,230734,1201457,69042,7231,600759,0
67,-1,665107,229952,1208211,68583,7052,604114,0
67,-1,674553,233349,1246880,69969,7439,623522,2
67,-1,678256,233640,1287574,70683,7486,643848,0
68,-1,671007,232177,1351672,69690,8101,676135,0
68,-1,667491,230229,1338563,68732,7848,669322,0
68,-1,669290,230747,1199261,68902,7307,599675,2
68,-1,675154,232700,1253076,70131,7329,626560,0
69,-1,668802,231525,1326702,69300,8108,663388,0
69,-1,666282,230086,1330848,68661,7488,665415,0
69,-1,671282,230668,1421165,68812,8821,710626,2
69,-1,672063,231579,1351231,69746,7469,675662,0
70,-1,665390,230272,1214976,68836,7262,607564,0
70,-1,665480,230438,1261642,68821,7391,630976,0
70,-1,661264,230855,1298914,68437,8073,649335,2
70,-1,669899,231138,1331545,69639,8342,665704,0
71,-1,668899,232066,1369832,69682,7974,684974,0
71,-1,672455,232394,1253025,69659,8161,626580,0
71,-1,662406,230678,1374443,68378,8151,687262,2
71,-1,671956,231375,1335001,69751,8350,667535,0
72,-1,686228,235369,1322549,72348,8437,661280,0
72,-1,666120,230651,1290367,68865,7567,645229,0
72,-1,669981,232962,1304261,69495,8061,652201,2
72,-1,670975,231499,1248504,69714,7298,624292,0
73,-1,669651,232100,1345948,69615,8490,673037,0
73,-1,667793,231323,1291409,69200,7751,645810,0
73,-1,668675,231456,1370544,69611,8814,685079,2
73,-1,674303,233315,1283625,70579,8839,641883,0
74,-1,665783,231113,1213084,69060,7502,606580,0
74,-1,666928,231107,1248931,68994,7548,624500,0
74,-1,663936,230384,1247769,69291,8169,623895,2
74,-1,671356,230894,1255033,69431,8060,627545,0
75,-1,663607,230730,1345509,68967,8159,672798,0
75,-1,664835,229873,1305170,68563,8095,652621,0
75,-1,664569,230669,1244066,69398,7988,622017,2
75,-1,671286,231314,1250789,69557,8437,625441,0
76,-1,669102,230523,1225974,68925,7745,613021,0
76,-1,666414,230835,1263955,68906,7949,632028,0
76,-1,663910,229927,1372321,69063,8189,686206,2
76,-1,673826,232288,1239127,70039,8371,619627,0
77,-1,669280,231302,1280162,69218,8596,640123,0
77,-1,669745,232447,1307910,69636,8132,654038,0
77,-1,666052,231822,1234025,69995,8187,617100,2
77,-1,670280,231266,1287977,69589,8221,644033,0
78,-1,671637,232059,1310143,69653,7684,654918,0
78,-1,684679,234950,1299432,72052,8631,649679,0
78,-1,667629,230029,1310367,69168,7682,655119,2
78,-1,690382,235873,1412612,72852,9889,706363,0
79,-1,666419,230407,1232122,68982,7539,616073,0
79,-1,671710,229753,1277168,68513,7781,638600,0
79,-1,665579,230435,1404494,69290,8475,702343,2
79,-1,667810,230982,1328361,69434,7840,664250,0
80,-1,668473,231138,1324317,69190,8063,662208,0
80,-1,670236,230309,1282101,68700,8390,641096,0
80,-1,671982,232362,1262225,70211,8124,630926,2
80,-1,669026,231300,1241079,69465,7595,620620,0
81,-1,691507,235778,1310507,72477,8449,655247,0
81,-1,671447,230718,1429445,68817,8568,714772,0
81,-1,671218,231293,1265385,69561,8826,632709,2
81,-1,667905,230709,1344121,69361,8128,672103,0
82,-1,670068,231594,1381953,69309,8005,690823,0
82,-1,676091,232808,1274058,69831,8229,637088,0
82,-1,663055,230667,1299973,69355,8079,649974,2
82,-1,668126,231251,1337664,69494,7358,668878,0
83,-1,665334,230716,1443312,68993,9560,721447,0
83,-1,667853,230173,1375792,68696,8909,687925,0
83,-1,664908,230264,1411602,69184,9258,705873,2
83,-1,670272,232490,1271572,70098,7911,635839,0
84,-1,667090,230973,1313952,69067,7738,657016,0
84,-1,670236,230102,1505271,68698,9774,752360,0
84,-1,665534,229896,1329660,69121,8332,664995,2
84,-1,671444,231174,1305829,69455,7841,652952,0
85,-1,664438,230973,1318666,69061,7314,659390,0
85,-1,667397,229807,1234511,68535,8164,617272,0
85,-1,667858,231324,1253690,69559,7934,626898,2
85,-1,693006,235804,1398278,72840,8986,699031,0
86,-1,663586,230444,1324486,68872,7654,662269,0
86,-1,666938,229987,1355747,68648,8526,677823,0
86,-1,663023,230141,1302182,69166,8300,651134,2
86,-1,669216,231309,1337639,69591,7868,668854,0
87,-1,666874,231060,1387568,69137,7323,693838,0
87,-1,666053,229976,1413640,68592,9418,706819,0
87,-1,667904,231308,1407894,69541,8694,703839,2
87,-1,673320,232604,1280689,70150,7254,640396,0
88,-1,665155,230902,1428289,69023,8236,713971,0
88,-1,668813,230647,1424315,68865,10167,712043,0
88,-1,671502,232213,1237960,70109,7804,618866,2
88,-1,669592,231412,1365353,69630,7925,682527,0
89,-1,687464,235362,1271777,72335,8189,635860,0
89,-1,670723,230364,1317956,68732,8778,658970,0
89,-1,669062,231170,1296789,69541,8265,648409,2
89,-1,668749,231546,1351296,69706,7674,675673,0
90,-1,664074,230274,1347336,68833,7611,673701,0
90,-1,675425,232656,1270877,69717,8426,635496,0
90,-1,666491,230237,1224488,69051,8754,612280,2
90,-1,691161,235609,1418147,72793,9029,709050,0
91,-1,663719,230270,1209656,68827,7803,604701,0
91,-1,667415,230481,1547628,68735,9354,773851,0
91,-1,670137,230360,1350417,69254,8667,675651,2
91,-1,670371,231445,1223509,69697,7598,611715,0
92,-1,666475,230919,1345699,69067,8281,672804,0
92,-1,673026,233107,1505165,69879,9821,752080,0
92,-1,668606,232296,1270672,70124,9013,635394,2
92,-1,669501,231267,1321923,69661,8265,661004,0
93,-1,667377,231523,1306286,69226,7721,653185,0
93,-1,689460,234986,1340480,72090,8961,670282,0
93,-1,668808,230901,1312717,69356,9106,655983,2
93,-1,670547,232056,1215390,70063,8421,607668,0
94,-1,671276,232930,1412839,69986,8727,706197,0
94,-1,671894,232174,1266844,69490,7663,633495,0
94,-1,665809,230535,1422442,69164,9674,710769,2
94,-1,668620,230754,1206937,69298,8011,603386,0
95,-1,667749,231862,1267986,69418,8753,633927,0
95,-1,666160,230404,1305972,68714,7610,652909,0
95,-1,671987,231799,1483520,69926,9419,741638,2
95,-1,666248,230992,1244493,69433,8049,622285,0
96,-1,664653,230916,1338980,69061,9410,669285,0
96,-1,667487,230298,1181037,68718,7888,590511,0
96,-1,671371,230757,1264202,69372,8893,632148,2
96,-1,688222,236094,1316556,72939,9066,658247,0
97,-1,665759,232011,1431995,69442,9322,716116,0
97,-1,664535,230017,1482195,68676,9005,740929,0
97,-1,668178,231016,1250278,69492,8368,625115,0
97,-1,677191,233841,1244456,70650,7586,622338,2
98,-1,667197,230702,1394544,68907,9317,697282,0
98,-1,670003,230588,1337191,68824,8455,668646,0
98,-1,667331,230365,1293529,69213,8259,646789,0
98,-1,665686,230866,1299351,69391,8156,649733,2
99,-1,692786,236169,1472534,72541,11152,735942,0
99,-1,669141,230254,1387296,68625,8611,693683,0
99,-1,670514,231662,1240192,69855,8075,620182,0
99,-1,669785,231709,1298377,69826,7952,649165,2
100,-1,685740,235189,1375350,72270,9167,687832,0
100,-1,668216,230287,1285227,68734,8096,642659,0
100,-1,669095,231379,1325370,69590,8027,662656,0
100,-1,672288,232867,1321286,70082,7932,660579,2
101,-1,667781,230616,1357951,68967,9005,679021,0
101,-1,667267,230140,1384564,68663,8210,692307,0
101,-1,669660,231943,1377396,69721,8273,688788,0
101,-1,670828,231783,1347787,69725,8514,673942,2
102,-1,670707,232183,1424274,69659,8702,711959,0
102,-1,666857,230173,1355876,68633,7534,677975,0
102,-1,666349,230769,1376902,69293,8763,688493,0
102,-1,675901,233893,1258634,70440,8217,629377,2
103,-1,666137,230750,1304849,69039,8270,652354,0
103,-1,669859,231105,1567302,68968,9486,783659,0
103,-1,686698,234873,1394622,72601,9967,697300,0
103,-1,667179,231292,1365586,69448,7322,682853,2
104,-1,665987,230697,1391451,68973,8299,695588,0
104,-1,695148,240328,1376529,71875,8050,688314,0
104,-1,663697,229650,1257600,68999,7682,628823,0
104,-1,670741,231290,1213139,69486,8060,606619,2
105,-1,666728,231160,1391597,69119,8114,695738,0
105,-1,667705,230147,1309268,68684,8235,654637,0
105,-1,664517,230239,1329509,69150,8674,664786,0
105,-1,675045,233147,1300805,70391,7769,650452,2
106,-1,665110,230188,1244968,68844,7867,622454,0
106,-1,666517,230075,1403098,68615,8182,701590,0
106,-1,667948,231984,1267443,69985,8438,633380,0
106,-1,671820,231087,1243398,69425,8582,621658,2
107,-1,666106,230876,1341495,69085,8415,670764,0
107,-1,673396,232555,1353177,69700,8352,676596,0
107,-1,684636,234914,1438858,72498,9409,719501,0
107,-1,665889,231314,1230187,69451,8410,615182,2
108,-1,670908,231477,1397217,69366,9684,698723,0
108,-1,670283,231739,1455213,69354,8666,727075,0
108,-1,663152,230340,1264210,69253,7731,632130,0
108,-1,665916,230819,1351474,69338,8173,675787,2
109,-1,666948,230725,1392322,68983,8993,696200,0
109,-1,667547,230883,1496400,68938,9835,747925,0
109,-1,662834,229842,1340346,69007,7527,670210,0
109,-1,675118,232535,1182062,69946,7512,590948,2
110,-1,664666,230626,1344741,69015,8735,672485,0
110,-1,663419,229541,1340507,68385,8321,670245,0
110,-1,663377,230266,1309986,69244,8448,655023,0
110,-1,669480,232517,1373404,69895,7537,686745,2
111,-1,668966,232247,1369354,69670,8845,684448,0
111,-1,663607,229717,1367888,68504,8400,683947,0
111,-1,665138,231391,1270934,69760,7954,635525,0
111,-1,674433,233122,1270588,70397,7662,635547,2
112,-1,662061,230012,1457909,68759,9061,728877,0
112,-1,690730,235489,1328439,72192,9317,664253,0
112,-1,663064,230368,1326332,69256,8185,663614,0
112,-1,671827,230866,1358128,69387,7373,679084,2
113,-1,666703,230984,1340126,69038,8174,670245,0
113,-1,669769,230857,1280614,68856,8296,640335,0
113,-1,672383,229301,1365609,68927,8110,682842,0
113,-1,672934,231816,1330706,69657,7601,665411,2
114,-1,664168,230708,1423601,69034,8013,711834,0
114,-1,665864,229815,1473147,68549,8736,736537,0
114,-1,694688,235316,1379842,72673,8882,689854,0
114,-1,679000,233523,1366483,70400,8350,683247,2
115,-1,667692,231945,1342838,69571,7616,671454,0
115,-1,668852,231904,1341253,69435,8108,670715,0
115,-1,672450,230195,1243647,69209,8053,621862,0
115,-1,665628,229887,1291876,68978,8132,645974,2
116,-1,663159,230506,1285098,68968,7434,642595,0
116,-1,666755,230149,1273295,68637,8037,636691,0
116,-1,671017,230010,1333231,69079,9076,666669,0
116,-1,672158,231896,1301534,69615,7232,650812,2
117,-1,666567,232123,1368505,69478,7586,684567,0
117,-1,669293,231762,1346740,69355,7892,673434,0
117,-1,690899,234967,1378031,72519,9271,688953,0
117,-1,669265,230681,1265381,69160,8577,632650,2
118,-1,669404,232687,1404631,69905,8355,702505,0
118,-1,667345,230897,1263173,68920,7678,631616,0
118,-1,670137,230317,1267520,69204,8588,633792,0
118,-1,671296,232269,1343469,70329,9233,671568,2
119,-1,668074,230916,1344958,69105,8216,672529,0
119,-1,670925,232666,1439913,69706,8182,719825,0
119,-1,671589,230512,1255142,69266,8624,627532,0
119,-1,660139,229852,1232727,69279,8455,616184,2
120,-1,668504,231451,1352681,69222,7694,676379,0
120,-1,686852,235657,1390552,72256,9091,695239,0
120,-1,675233,232539,1254409,70169,8550,627291,0
120,-1,664430,230137,1333320,69330,9837,666080,2
121,-1,667361,230809,1239344,69087,7732,619716,0
121,-1,665075,230511,1333180,68802,8400,666636,0
121,-1,689720,234667,1359092,72411,9002,679481,0
121,-1,664318,230281,1339166,69298,8303,669636,2
122,-1,669811,232162,1454925,69640,9165,727473,0
122,-1,663335,230076,1234243,68565,7888,617012,0
122,-1,669897,230982,1237602,69421,7754,618848,0
122,-1,666715,230598,1329834,69464,7953,665075,2
123,-1,671438,233115,1380158,70025,9281,690134,0
123,-1,671303,231763,1333457,69356,7915,666598,0
123,-1,667380,229883,1308066,68951,8380,654079,0
123,-1,667171,230641,1248592,69508,8526,624002,2
124,-1,665122,231229,1524064,69172,8971,760376,0
124,-1,669846,230229,1398500,68653,9165,699219,0
124,-1,670369,230643,1329011,69193,8813,664536,0
125,-1,666767,230976,1386240,69077,8711,693143,0
125,-1,670482,230782,1270521,68889,8377,635222,0
125,-1,674541,231737,1296562,69500,7835,648323,0
126,-1,665658,230608,1272208,68928,8068,636178,0
126,-1,668493,230076,1503779,68611,10299,751810,0
126,-1,672262,230772,1402830,69226,8360,701382,0
127,-1,670684,232538,1387242,69756,8422,693633,0
127,-1,688904,235073,1402925,72058,9738,701449,0
127,-1,669336,230050,1337051,68976,8139,668566,0
128,-1,665317,230725,1369874,69007,8126,684980,0
128,-1,669613,230677,1263806,68822,8939,631950,0
128,-1,670751,230671,1216483,69205,7286,608325,0
129,-1,664404,230724,1430089,68980,7810,715054,0
129,-1,668732,231097,1282564,68927,8149,641203,0
129,-1,668020,229856,1309031,68995,8289,654552,0
130,-1,666901,231158,1357064,69157,7733,678675,0
130,-1,666502,230555,1369078,68760,8765,684587,0
130,-1,667857,230377,1314417,69148,7666,657260,0
131,-1,663701,230172,1292249,68811,7273,646193,0
131,-1,668649,230262,1268448,68721,8551,634240,0
131,-1,671442,230880,1281021,69252,8152,640540,0
132,-1,662630,229871,1340889,68715,7923,670476,0
132,-1,668296,230159,1268885,68625,9339,634417,0
132,-1,667276,229407,1350047,68738,7964,675060,0
133,-1,667827,232423,1481252,69721,8391,740684,0
133,-1,665159,229858,1275793,68477,7876,637977,0
133,-1,673337,232026,1291690,69922,8238,645906,0
134,-1,664001,230815,1398928,69056,7867,699575,0
134,-1,666445,230397,1416414,68755,8574,708146,0
134,-1,690763,235201,1373118,72489,8528,686556,0
135,-1,663462,231012,1327983,69067,7527,664033,0
135,-1,668906,231271,1273282,69024,8050,636856,0
135,-1,666663,229976,1323399,68983,7881,661713,0
136,-1,667289,231179,1249286,69139,7440,624626,0
136,-1,664716,230128,1375803,68559,8784,687944,0
136,-1,670834,231522,1325378,69661,8036,662524,0
137,-1,665762,231838,1480667,69526,9218,739947,0
137,-1,668434,230335,1345565,68765,8841,672888,0
137,-1,667230,229937,1295425,69042,8414,647532,0
138,-1,664160,231208,1340908,69198,8713,670497,0
138,-1,666628,230063,1253144,68604,8484,626475,0
138,-1,666978,230294,1417380,69243,9013,708753,0
139,-1,662529,230626,1552546,68867,9434,775128,0
139,-1,671868,232712,1336471,69738,8511,668116,0
139,-1,671506,230359,1397685,69225,8829,698877,0
140,-1,662312,230749,1583046,69054,8934,790926,0
140,-1,687657,235281,1373485,72137,9616,686636,0
140,-1,673577,231679,1347740,69801,8683,673834,0
141,-1,682917,235202,1381653,72278,9307,690841,0
141,-1,665882,230741,1387448,68779,8773,693710,0
141,-1,669196,229599,1341224,68978,8444,670188,0
142,-1,670925,230962,1444765,69097,9655,722529,0
142,-1,663588,230011,1293088,68576,8985,646071,0
142,-1,673532,231903,1255565,69941,9060,627851,0
143,-1,672910,232102,1458279,69626,9889,729138,0
143,-1,668259,230488,1415554,68776,9979,707078,0
143,-1,669446,230320,1355235,69202,9139,677665,0
144,-1,666940,230994,1331521,69127,7197,665811,0
144,-1,672444,232584,1369019,69634,9132,683825,0
144,-1,668173,230133,1325497,69008,8240,663025,0
145,-1,664462,230204,1289031,68843,6938,644563,0
145,-1,666112,230150,1539600,68621,8981,770295,0
145,-1,667933,230009,1387630,68987,8992,693856,0
146,-1,667594,231167,1266782,69171,7849,633425,0
146,-1,662776,229867,1400546,68462,8879,700033,0
146,-1,675347,232991,1362266,70194,8995,681126,0
147,-1,667229,230675,1234561,68959,7496,617315,0
147,-1,672628,233087,1362035,69862,8474,680255,0
147,-1,667677,230475,1255177,69075,8061,627335,0
148,-1,666444,230933,1285203,69030,7325,642649,0
148,-1,665376,230678,1381665,68836,8773,690678,0
148,-1,669106,231000,1332606,69230,8926,665909,0
149,-1,664967,230722,1233650,68937,7806,616861,0
149,-1,664752,230168,1388274,68686,9292,693699,0
149,-1,666355,230250,1371439,69059,8771,685411,0
150,-1,666904,231667,1217576,69500,7763,608851,0
150,-1,668577,230513,1261047,68791,9190,630468,0
150,-1,672483,230860,1432928,69260,9341,716462,0
151,-1,663803,230678,1156054,69031,7626,578054,0
151,-1,667058,230183,1353546,68640,9483,676736,0
151,-1,690133,235535,1453881,72585,10120,726324,0
152,-1,668911,231200,1238261,69202,7076,619176,0
152,-1,687788,234885,1268313,72005,9253,634136,0
152,-1,670230,230729,1276667,69240,8562,637881,0
153,-1,673610,233382,1244431,70173,8072,622209,0
153,-1,667788,230115,1256515,68637,7853,628256,0
153,-1,669133,230578,1350508,69177,8626,675616,0
154,-1,665863,230734,1287958,69032,7864,644018,0
154,-1,668630,230998,1361651,68939,8731,680963,0
154,-1,668340,230573,1342824,69208,8745,671781,0
155,-1,664632,230244,1343567,68834,7299,671810,0
155,-1,664506,229967,1404984,68572,8813,702538,0
155,-1,670760,231545,1272085,69624,8928,636180,0
156,-1,667879,232031,1320446,69464,7332,660270,0
156,-1,665328,230706,1243492,68779,7850,621765,0
156,-1,666507,230212,1589010,69071,9381,794556,0
157,-1,668136,231353,1315752,69480,8746,657831,0
157,-1,671689,232260,1356141,69568,8391,678015,0
157,-1,671858,232000,1306091,69915,7913,652494,0
158,-1,687957,235479,1295159,72376,9056,647552,0
158,-1,671694,232285,1509388,69283,9157,754492,0
158,-1,670839,231406,1267696,69624,8597,634375,0
159,-1,665104,230743,1363142,68988,8093,681609,0
159,-1,666907,230967,1342028,68878,8694,670912,0
159,-1,666877,230416,1362446,69136,8733,680962,0
160,-1,665562,231365,1357350,69220,7742,678283,0
160,-1,669807,232680,1330719,69680,8597,665591,0
160,-1,666205,230339,1332075,69062,9228,665755,0
161,-1,661574,230121,1317817,68731,8053,659580,0
161,-1,686146,235781,1375578,72223,9972,687740,0
161,-1,665122,230086,1297841,69001,9250,649544,0
162,-1,668677,231625,1440338,69417,8492,719856,0
162,-1,668204,230876,1483506,68834,9251,741660,0
162,-1,691157,235197,1352376,72504,9434,675831,0
163,-1,666042,230499,1463147,68977,8556,731555,0
163,-1,668360,231285,1296758,68911,8468,648348,0
163,-1,671183,230233,1306178,69092,8375,652906,0
164,-1,671014,232618,1399919,69946,8466,699376,0
164,-1,672469,233108,1336935,69800,8385,668371,0
164,-1,669823,230005,1325213,69093,8185,662649,0
165,-1,686413,235010,1362494,72333,8588,681198,0
165,-1,688404,235961,1286309,72265,8702,643242,0
165,-1,669256,230288,1307912,69185,8285,654024,0
166,-1,664321,230356,1453948,68915,8560,726921,0
166,-1,667449,231264,1398480,68931,8844,699265,0
166,-1,673391,231079,1461271,69515,8866,730671,0
167,-1,665889,231291,1312857,69266,8081,656477,0
167,-1,666034,231036,1300194,68823,8561,649985,0
167,-1,690178,234623,1490441,72356,9566,745255,0
168,-1,664446,230125,1261055,68881,7840,630632,0
168,-1,670460,231966,1259423,69126,8788,629939,0
168,-1,668686,230446,1487668,69224,8537,744758,0
169,-1,684104,234912,1380735,72253,9005,690408,0
169,-1,666624,230868,1236509,68825,9050,618228,0
169,-1,669217,230999,1359031,69371,8877,679557,0
170,-1,661769,230184,1779571,68875,9500,889817,0
170,-1,667737,231626,1256699,69053,9210,628403,0
170,-1,670823,230455,1316027,69234,8513,657726,0
171,-1,665245,231083,1485679,69219,8719,742755,0
171,-1,666060,230974,1203053,68764,8753,601595,0
171,-1,668787,230108,1383160,69118,8432,691611,0
172,-1,666766,230496,1484010,69023,7227,741800,0
172,-1,666312,231413,1274485,68948,9301,637233,0
172,-1,667965,229835,1372201,68928,8296,685956,0
173,-1,684356,234638,1387106,72161,7913,693668,0
173,-1,669356,232662,1350094,69494,8471,674728,0
173,-1,667639,230074,1381760,69077,8319,690564,0
174,-1,665502,230597,1447185,69087,7092,723644,0
174,-1,672767,231630,1329342,68986,9362,664779,0
174,-1,671398,230942,1348146,69269,8814,673704,0
175,-1,665887,231147,1336385,69218,7603,668224,0
175,-1,676119,232898,1429470,69648,9024,714617,0
175,-1,668933,230271,1418599,69022,8604,709338,0
176,-1,697705,241757,1382656,72610,8373,691393,0
176,-1,672337,231042,1325966,68810,9167,662909,0
176,-1,690268,235165,1464611,72495,9642,732335,0
177,-1,665313,230876,1230419,69172,7397,615241,0
177,-1,670364,230675,1274614,68647,8183,637204,0
177,-1,669198,230901,1293698,69327,8781,646446,0
178,-1,662995,230639,1251727,69042,7374,625859,0
178,-1,672807,231373,1381524,68892,9260,690803,0
178,-1,667519,229866,1298764,68940,8107,649115,0
179,-1,666489,232292,1341785,69872,8231,670956,0
179,-1,670914,230871,1228082,68801,8410,614075,0
179,-1,670792,231341,1259813,69644,6968,629774,0
180,-1,684211,234879,1292482,72258,8603,646091,0
180,-1,665281,229122,1331782,68238,8961,665801,0
180,-1,666014,229914,1174717,68918,7402,587394,0
181,-1,667071,231927,1289438,69529,7629,644763,0
181,-1,669233,231141,1425715,68877,8951,712789,0
181,-1,666967,229912,1326242,68853,8064,663167,0
182,-1,663634,230911,1221999,69143,7814,611049,0
182,-1,672285,230894,1378848,68746,9775,689260,0
182,-1,667635,230686,1380514,69197,8400,690004,0
182,-1,685914,235051,1359601,72675,9087,679738,0
183,-1,668336,231029,1220491,69219,7544,610416,0
183,-1,670437,230570,1377401,68654,9415,688599,0
183,-1,668407,230704,1337917,69214,8442,668984,0
183,-1,668833,230303,1221142,69384,7949,610559,0
184,-1,670380,231496,1320082,69540,8654,660280,0
184,-1,672584,231537,1294588,69048,9045,647232,0
184,-1,667120,230481,1436574,69105,7613,718191,0
184,-1,666665,229897,1332163,69123,8151,666102,0
185,-1,666190,230553,1213355,69050,7318,606577,0
185,-1,676693,232943,1277719,69648,9280,638783,0
185,-1,667175,230865,1385884,69208,8269,692993,0
185,-1,668985,231356,1403058,69717,8279,701633,0
186,-1,669767,232196,1235334,69839,8045,617505,0
186,-1,669812,230517,1338737,68576,9329,669225,0
186,-1,673290,231628,1383799,69482,9302,691747,0
186,-1,668141,230779,1367458,69505,8984,683731,0
187,-1,665728,230748,1181995,69069,7313,591009,0
187,-1,676115,233606,1368954,69904,9242,684272,0
187,-1,672389,231662,1311261,69673,9708,655863,0
187,-1,685718,234724,1355985,72604,9258,678118,0
188,-1,667590,230443,1377117,68951,7742,688578,0
188,-1,691177,235863,1357266,72197,10291,678332,0
188,-1,670541,230684,1423163,69182,9812,712202,0
188,-1,662398,229711,1334791,69089,8356,667423,0
189,-1,666365,230738,1419634,69112,7462,709861,0
189,-1,669015,231010,1407874,68820,9537,703859,0
189,-1,670993,230702,1438148,69185,9101,718644,0
189,-1,664408,229879,1357060,69169,8009,678517,0
190,-1,682971,234225,1263764,72021,7846,631933,0
190,-1,667801,230826,1381667,68733,9615,690805,0
190,-1,688319,234884,1422476,72411,10589,711310,0
190,-1,688090,235281,1372899,72782,9744,686405,0
191,-1,663245,230448,1332492,69048,7139,666300,0
191,-1,677804,233002,1386352,69770,9063,693120,0
191,-1,667767,230393,1324446,69139,8476,662260,0
191,-1,662917,230513,1310357,69425,8852,655127,0
192,-1,662787,229868,1309619,68794,7938,654831,0
192,-1,671262,230846,1330467,68885,8762,665135,0
192,-1,666113,230004,1335397,68923,8312,667516,0
192,-1,665606,229776,1262116,69154,7972,631094,0
193,-1,668749,232251,1327695,69773,8249,663768,0
193,-1,676023,232822,1363151,69689,8857,681475,0
193,-1,672429,232013,1290897,69838,9146,645576,0
193,-1,668319,229926,1308716,69234,8836,654319,0
194,-1,662745,230293,1236696,68984,7640,618442,0
194,-1,670630,230962,1354198,68866,7784,677391,0
194,-1,668171,230154,1396774,69222,8753,698436,0
194,-1,668184,229974,1272205,69144,8552,635991,0
195,-1,662107,230045,1322060,68807,7837,661260,0
195,-1,669333,230742,1371395,68819,8624,685521,0
195,-1,668472,230718,1408658,69312,8585,704355,0
195,-1,666796,230043,1190250,69290,8095,595051,0
196,-1,662802,230742,1341512,69141,7331,670573,0
196,-1,674716,232553,1348484,69591,9723,674215,0
196,-1,669842,231762,1277305,69880,8821,638615,0
196,-1,666929,229718,1202422,69168,8031,601304,0
197,-1,688335,235599,1253546,72498,8063,626772,0
197,-1,669219,230943,1306686,68925,8662,653219,0
197,-1,686916,234778,1604151,72450,10136,802066,0
197,-1,664572,230040,1209125,69255,8295,604505,0
198,-1,666523,230789,1334809,69108,7359,667439,0
198,-1,668989,231274,1344295,68986,9056,672141,0
198,-1,667595,230251,1395470,69174,8945,697783,0
198,-1,673378,232507,1433165,70313,8891,716704,0
199,-1,664447,230680,1249140,69063,6844,624348,0
199,-1,670460,231128,1279950,68999,8425,640142,0
199,-1,669774,231653,1280637,69674,8542,639903,0
199,-1,664205,229389,1299796,69022,7706,649938,0
200,-1,665678,230774,1218144,69180,7389,609150,0
200,-1,668512,230588,1296043,68773,8792,648044,0
200,-1,664838,230473,1245040,69087,9369,622386,0
200,-1,665266,229497,1353447,69084,8763,676765,0
201,-1,663425,230113,1326827,68889,7799,663428,0
201,-1,670879,232096,1324531,69572,8833,661914,0
201,-1,688115,234754,1322687,72433,9053,661108,0
201,-1,663478,229811,1231837,69151,7712,615748,0
202,-1,665136,231114,1348051,69241,7831,674076,0
202,-1,689147,235488,1294863,72278,10099,647234,0
202,-1,665988,230138,1239872,69139,8107,619547,0
202,-1,671209,232623,1345099,70336,8822,672020,0
203,-1,663424,230471,1230507,68986,6887,615304,0
203,-1,666095,230521,1203969,68814,8452,602112,0
203,-1,664078,229428,1497081,68831,8077,748047,0
203,-1,668158,229943,1404257,69211,8146,702090,0
204,-1,666770,231253,1311939,69270,7458,656009,0
204,-1,668865,231044,1252054,69029,8998,626008,0
204,-1,665072,229907,1337139,69064,8223,668616,0
204,-1,693390,239535,1328476,72103,7572,664059,0
205,-1,661486,229581,1174525,68797,6620,587287,0
205,-1,669822,230959,1288576,68971,9658,644321,0
205,-1,664025,229810,1304147,68959,8341,652045,0
205,-1,664614,230066,1332300,69280,8065,666185,0
206,-1,666252,231730,1349764,69606,8346,674868,0
206,-1,667837,230561,1267840,68845,8815,633982,0
206,-1,662909,229598,1333911,68857,8286,666963,0
206,-1,672281,232702,1343840,70365,9000,671935,0
207,-1,663372,230434,1223163,69034,7439,611628,0
207,-1,690736,235193,1377275,72214,9325,688624,0
207,-1,688634,234580,1429507,72429,10247,714856,0
207,-1,665171,230409,1248019,69319,7999,624133,0
208,-1,661051,229953,1305660,68775,7416,652866,0
208,-1,669816,231344,1412141,69131,8437,705981,0
208,-1,667418,230504,1293127,69282,8850,646607,0
208,-1,664204,230048,1336168,69231,8037,668064,0
209,-1,668127,232611,1335448,69995,8559,667803,0
209,-1,668477,230854,1394312,68916,8594,697161,0
209,-1,668240,231463,1491820,69785,9175,745874,0
209,-1,663434,230135,1239245,69324,7811,619606,0
210,-1,682412,235062,1269540,72317,8676,634807,0
210,-1,667292,230300,1243210,68795,8635,621624,0
210,-1,665581,230238,1335951,69164,9348,667997,0
210,-1,665191,230012,1254157,69254,7896,626811,0
211,-1,662627,230761,1374023,69137,7547,687053,0
211,-1,689588,235833,1356619,72375,9071,678265,0
211,-1,666487,230726,1338287,69365,8639,669220,0
211,-1,668654,231959,1336657,70135,8552,668168,0
212,-1,660531,230322,1260312,68892,7402,630102,0
212,-1,667780,231263,1314962,69047,8029,657370,0
212,-1,669871,232378,1325139,70097,9243,662156,0
212,-1,664946,230211,1244468,69334,8586,622198,0
213,-1,667280,231629,1255032,69583,8576,627567,0
213,-1,666299,230508,1332506,68806,8756,666284,0
213,-1,672650,230339,1436187,69237,8664,717792,0
213,-1,664457,230285,1328460,69352,8690,664125,0
214,-1,665403,230213,1265141,68939,8442,632493,0
214,-1,665608,230871,1224621,68976,7986,612170,0
214,-1,668295,228935,1428329,68772,8913,714183,0
214,-1,666196,230031,1330103,69268,8786,664385,0
215,-1,667798,231930,1272040,69697,8644,636063,0
215,-1,663884,230605,1386368,68858,8115,693312,0
215,-1,671551,230760,1432914,69415,8848,715976,0
215,-1,671071,231555,1394779,69923,9308,696953,0
216,-1,684981,235203,1282994,72376,8930,641544,0
216,-1,695270,236156,1361146,72468,10250,680394,0
216,-1,668545,230153,1326483,69110,8571,663140,0
216,-1,666915,230647,1351962,69468,8914,675567,0
217,-1,662173,230205,1281175,68849,8052,640634,0
217,-1,670456,230542,1247498,68849,8619,623608,0
217,-1,669933,230573,1327626,69202,8563,664146,0
217,-1,665157,230204,1342025,69269,8802,670468,0
218,-1,663011,230625,1316636,69089,7929,658339,0
218,-1,669916,231013,1233838,69075,8150,616990,0
218,-1,671430,231019,1339046,69300,8975,669466,0
218,-1,663303,229634,1413723,69098,8620,706805,0
219,-1,662379,230372,1313926,68893,7726,656997,0
219,-1,666404,229911,1346550,68649,8550,673283,0
219,-1,669271,230673,1401923,69225,8546,700993,0
219,-1,667939,231930,1591043,70107,10171,794668,0
220,-1,664236,231129,1230249,69242,8046,615148,0
220,-1,673642,232472,1331737,69806,9178,665588,0
220,-1,672148,231987,1283986,69756,8367,641556,0
220,-1,666018,230205,1450341,69305,9850,724935,0
221,-1,665264,231176,1340724,69460,8381,670474,0
221,-1,669765,231080,1218731,69102,8304,609114,0
221,-1,669247,230508,1431003,69190,9145,714865,0
221,-1,665625,230793,1408746,69521,9123,704685,0
222,-1,662660,230603,1246430,69083,8093,623238,0
222,-1,666481,229945,1256341,68712,8415,628078,0
222,-1,667797,229853,1356873,68918,9406,677936,0
222,-1,686008,235079,1517217,72651,10241,758574,0
223,-1,661836,230490,1391822,69002,8250,696007,0
223,-1,672524,232479,1258116,69810,8937,628852,0
223,-1,698432,237503,1339067,73762,10418,669179,0
223,-1,665224,229898,1296324,69237,9064,647776,0
224,-1,665884,231889,1426098,69506,8800,712992,0
224,-1,688949,235387,1264812,72310,9228,632536,0
224,-1,672121,231166,1242572,69350,8348,621193,0
224,-1,669870,231621,1443245,69951,9482,721587,0
225,-1,686625,234947,1260998,72292,9048,630536,0
225,-1,665711,230263,1234819,68794,7955,617298,0
225,-1,667863,229828,1503291,69032,9389,751493,0
225,-1,663319,229333,1315872,68996,9248,657913,0
226,-1,661673,230342,1215238,68919,7775,607707,0
226,-1,662333,229017,1180973,68394,7715,590467,0
226,-1,691250,234938,1411640,72520,9931,704582,0
226,-1,664353,230194,1364812,69325,9129,682695,0
227,-1,663797,230760,1310135,69087,7932,655091,0
227,-1,664746,230236,1226951,68822,7857,613366,0
227,-1,668750,230533,1310749,69326,8268,655398,0
227,-1,662442,229535,1280162,69086,8547,639572,0
228,-1,683774,235480,1276574,72452,8359,638290,0
228,-1,668540,231655,1343487,69459,8208,671746,0
228,-1,669616,231142,1256919,69587,7930,628393,0
228,-1,668758,232034,1374333,70158,9157,686424,0
229,-1,658884,229719,1299989,68708,8494,650031,0
229,-1,670387,230725,1313991,68970,9286,657082,0
229,-1,670330,230736,1331700,69355,7755,665872,0
229,-1,687309,235322,1348659,72788,8889,673969,0
230,-1,665633,231684,1341736,69608,8079,670930,0
230,-1,667452,229979,1348758,68684,9216,674310,0
230,-1,667360,229945,1279426,69062,7586,639719,0
230,-1,661481,229540,1293121,69056,8576,646563,0
231,-1,660289,230160,1219495,68952,7839,609705,0
231,-1,671787,232312,1431584,69726,8663,715604,0
231,-1,684788,234213,1400938,72224,8954,700435,0
231,-1,663565,230171,1264437,69271,8789,632130,0
232,-1,666814,232441,1332874,69924,8234,666612,0
232,-1,687992,235445,1376145,72291,8828,687930,0
232,-1,670306,230847,1342225,69331,7960,671110,0
232,-1,665535,230642,1272504,69474,8809,636186,0
233,-1,659556,230241,1294856,68917,7875,647468,0
233,-1,666791,230102,1334171,68767,8704,667125,0
233,-1,669567,231099,1219558,69642,7630,609698,0
233,-1,661846,229732,1200573,69125,8066,600340,0
234,-1,661099,231164,1196212,69252,6917,598134,0
234,-1,666159,230410,1315849,68872,7920,657963,0
234,-1,666512,230286,1319600,69193,8325,659712,0
234,-1,666717,231478,1268402,69917,8282,633998,0
235,-1,663963,230174,1206091,68928,6737,603081,0
235,-1,669936,231819,1350102,69416,8878,674980,0
235,-1,665898,230190,1268817,69124,8258,634433,0
235,-1,685845,235513,1381956,72864,9444,691036,0
236,-1,672926,230722,1328886,69148,8190,664503,0
236,-1,665767,230588,1263762,68926,7857,631899,0
236,-1,667816,230462,1335433,69215,8029,667719,0
236,-1,663030,230340,1273281,69364,8031,636561,0
237,-1,674134,231310,1194101,69305,7452,597118,0
237,-1,663563,229737,1350364,68608,8612,675287,0
237,-1,670930,232197,1246322,70068,7373,623299,0
237,-1,663502,230869,1388382,69546,8157,694169,0
238,-1,676675,232482,1345489,69928,8784,672717,0
238,-1,665691,230357,1244966,68849,8574,622298,0
238,-1,694892,240265,1346962,72192,8070,673461,0
238,-1,659367,229436,1221809,69003,7291,610843,0
239,-1,672013,230362,1447162,68970,8567,723608,0
239,-1,687578,235278,1410396,72208,9148,705256,0
239,-1,665082,230241,1242394,69155,8323,621214,0
239,-1,660345,230106,1313987,69298,7517,656872,0
240,-1,672306,231504,1376123,69523,8597,688127,0
240,-1,667963,230912,1393867,69028,9082,696990,0
240,-1,671239,230737,1618769,69351,10659,809375,0
240,-1,660239,229478,1273198,69067,6718,636503,0
241,-1,671271,230738,1241409,69086,8149,620550,0
241,-1,664488,230004,1261160,68696,8805,630661,0
241,-1,671656,230965,1234535,69470,8392,617282,0
241,-1,672812,230381,1214972,69383,7629,607454,0
242,-1,668939,230591,1304118,69087,8110,652129,0
242,-1,666673,231150,1428801,68985,8893,714365,0
242,-1,668349,230216,1344339,69139,8916,672115,0
242,-1,676137,232044,1437996,70083,8511,718811,0
243,-1,670242,230453,1204699,68949,7823,602370,0
243,-1,669924,230725,1381932,68910,9043,690963,0
243,-1,673880,232690,1279825,70247,8186,639850,0
243,-1,673863,230418,1354085,69399,9274,677170,0
244,-1,676118,232629,1313685,69985,8759,656862,0
244,-1,668345,230873,1249608,68949,8614,625167,0
244,-1,687905,234342,1388871,72289,9797,694445,0
244,-1,671297,230031,1471830,69268,9091,735882,0
245,-1,668414,230071,1329570,68919,8197,664775,0
245,-1,666721,230338,1362356,68746,8890,681201,0
245,-1,670016,231435,1196340,69782,8548,598231,0
245,-1,669831,229476,1288611,69071,8276,644309,0
246,-1,669124,230284,1322465,68938,8598,661262,0
246,-1,667074,230261,1363382,68721,8942,681614,0
246,-1,668985,230315,1361179,69173,8098,680616,0
246,-1,690778,234349,1376517,72480,9568,688163,0
247,-1,669992,230951,1309428,69190,8433,654705,0
247,-1,695303,240245,1377673,71682,9270,688821,0
247,-1,667638,230139,1344211,69136,8344,672140,0
247,-1,670705,230036,1245940,69271,8571,622866,0
248,-1,670642,230602,1273770,69088,8429,636911,0
248,-1,665791,230446,1241521,68771,7907,620733,0
248,-1,665276,229883,1302361,69123,7421,651202,0
248,-1,672691,230028,1361887,69222,9435,680916,0
249,-1,669875,230722,1327752,69072,8228,663915,0
249,-1,666073,230520,1344512,68811,8257,672225,0
249,-1,664302,229822,1232519,69043,7757,616304,0
249,-1,675527,231814,1346872,69995,9043,673615,0
250,-1,672946,232542,1338739,70019,8760,669437,0
250,-1,670719,232391,1346183,69697,8656,673081,0
250,-1,667761,230499,1368442,69231,8102,684258,0
250,-1,671435,230095,1339626,69239,9090,669739,0
251,-1,686853,234775,1293806,72235,9267,646925,0
251,-1,688048,235304,1344331,72175,9642,672005,0
251,-1,666617,230447,1306421,69225,8465,653255,0
251,-1,677071,232695,1493724,70368,8863,746292,0
252,-1,672066,230886,1319627,69121,7821,659833,0
252,-1,664355,230269,1290603,68717,8183,645058,0
252,-1,666342,230805,1288068,69394,7661,643922,0
252,-1,695748,236000,1409345,73544,9936,704544,0
253,-1,673025,231622,1242095,69421,8074,621018,0
253,-1,669726,230690,1500272,68820,8876,750188,0
253,-1,671077,232286,1364954,70156,8182,682178,0
253,-1,668991,229785,1277889,69207,8902,638903,0
254,-1,668386,230259,1220045,68972,8389,610044,0
254,-1,669079,230841,1399658,68993,8445,699946,0
254,-1,665783,229420,1295636,68819,7331,647751,0
254,-1,669520,230526,1334549,69425,8637,667145,0
255,-1,668215,230316,1275905,68943,8357,637980,0
255,-1,673100,232814,1366800,69818,9264,683199,0
255,-1,667332,230569,1252728,69288,7795,626398,0
255,-1,672044,230033,1338719,69294,9202,669345,0
256,-1,671896,231262,1194414,69256,8285,597248,0
256,-1,667261,230937,1368557,68975,8909,684216,0
256,-1,686507,235005,1484235,72505,9260,742187,0
256,-1,671858,230321,1266310,69328,9477,632878,0
257,-1,670649,231327,1256183,69330,8621,628047,0
257,-1,665773,230814,1238001,68933,7962,618883,0
257,-1,667363,230567,1341574,69228,8132,670875,0
257,-1,669257,229701,1259084,69117,9443,629536,0
258,-1,674796,232028,1354603,69662,8954,677327,0
258,-1,665418,230671,1346664,68788,8568,673239,0
258,-1,664278,229879,1269578,69056,7110,634813,0
258,-1,675687,232145,1253927,70118,8894,626871,0
259,-1,670418,230860,1232290,69170,8344,616177,0
259,-1,664212,230495,1478253,68802,9074,738809,0
259,-1,664843,230571,1321069,69240,8050,660580,0
259,-1,667408,229549,1256842,69051,9415,628524,0
260,-1,671178,232079,1432130,69808,9348,715690,0
260,-1,673767,233145,1373786,69932,8529,686909,0
260,-1,686196,234954,1400211,72530,9551,700130,0
260,-1,673393,231621,1274330,70015,8599,636692,0
261,-1,688428,234847,1272402,72201,8987,636226,0
261,-1,686393,234862,1288829,72116,9400,644354,0
261,-1,667159,232052,1311171,69934,9806,655338,0
261,-1,691315,234867,1361636,72648,9765,680731,0
262,-1,668523,230726,1376115,69157,8569,688105,0
262,-1,666230,230530,1279482,68911,8080,639736,0
262,-1,669161,230238,1355564,69193,8620,677646,0
262,-1,671743,231314,1361377,69697,8152,680537,0
263,-1,667379,230368,1306740,68987,8299,653411,0
263,-1,665734,231490,1343510,69418,8816,671905,0
263,-1,688951,234758,1520392,72425,10623,759926,0
263,-1,666909,229479,1453197,68985,8880,726655,0
264,-1,669007,231300,1278897,69318,8416,639489,0
264,-1,667846,231436,1256096,69221,8455,627926,0
264,-1,669751,230630,1321468,69187,8822,660300,0
264,-1,668279,229966,1317413,69262,8669,658795,0
265,-1,666632,230705,1233385,69137,8298,616747,0
265,-1,666532,231083,1325053,69086,8603,662539,0
265,-1,670989,231442,1240011,69781,7465,620023,0
265,-1,669090,230415,1380979,69383,8952,690482,0
266,-1,691356,235019,1399229,72322,8315,699592,0
266,-1,666384,231954,1326600,69642,9099,663297,0
266,-1,667331,230175,1294794,69200,7066,647441,0
266,-1,673609,230716,1267430,69487,8359,633738,0
267,-1,670206,230908,1460956,69190,8000,730486,0
267,-1,684268,235250,1376898,72271,9601,687828,0
267,-1,669779,231363,1250194,69745,7949,625216,0
267,-1,670173,229769,1349518,69151,8173,674573,0
268,-1,668846,230240,1204031,68911,7584,601660,0
268,-1,667899,231306,1330025,69190,8747,664717,0
268,-1,663765,229668,1362426,68988,8141,681240,0
268,-1,671913,230274,1253833,69327,8822,626600,0
269,-1,671941,231553,1331328,69543,8075,665734,0
269,-1,671602,230491,1215935,68887,8013,607899,0
269,-1,686205,234960,1365893,72536,9892,682930,0
269,-1,669231,229484,1250019,69008,8654,624849,0
270,-1,667889,230319,1242252,69005,7940,621292,0
270,-1,671018,230800,1230789,68992,9385,615365,0
270,-1,667959,229764,1323912,69107,8331,661999,0
270,-1,670231,230031,1238740,69183,8633,619389,0
271,-1,667882,230265,1305756,68935,7929,652904,0
271,-1,668614,230193,1264614,68745,8967,632345,0
271,-1,667656,230584,1372925,69323,8749,686319,0
271,-1,673998,231947,1318734,70091,8468,659189,0
272,-1,669426,231269,1306002,69287,7397,653046,0
272,-1,671791,230692,1268558,68939,9710,634321,0
272,-1,668565,230845,1282706,69392,8405,641381,0
272,-1,669833,230422,1351757,69310,8860,675967,0
273,-1,668664,230771,1418518,69089,8208,709335,0
273,-1,674717,232475,1258834,69822,9117,628906,0
273,-1,665170,229607,1317311,68911,8577,658616,0
273,-1,672173,230379,1272990,69326,8372,636365,0
274,-1,671547,232000,1363472,69706,8356,681660,0
274,-1,670212,230997,1315894,69087,8935,657990,0
274,-1,669846,231820,1276458,69961,8322,638258,0
274,-1,669961,229876,1360022,69145,7902,679994,0
275,-1,667869,230694,1363700,69120,7438,681834,0
275,-1,673537,232090,1320534,69629,8817,660332,0
275,-1,687449,234949,1349378,72530,9827,674665,0
275,-1,669875,230525,1430984,69380,8643,715421,0
276,-1,665567,230032,1336432,68877,7495,668123,0
276,-1,671445,231165,1235840,69153,8035,617958,0
276,-1,665682,230369,1264487,69208,8261,632242,0
276,-1,669000,230353,1243105,69237,8328,621576,0
277,-1,665277,230503,1290377,69052,7735,645166,0
277,-1,670847,230933,1345563,69032,8534,672801,0
277,-1,670122,231395,1267542,69745,8003,633825,0
277,-1,668899,230336,1349806,69158,9050,674766,0
278,-1,668089,230390,1247535,68964,8451,623805,0
278,-1,670044,230954,1252721,69097,8201,626402,0
278,-1,667605,230942,1227957,69441,7218,613997,0
278,-1,671210,231713,1342880,69747,8993,671260,0
279,-1,666228,230160,1230078,68895,8565,614702,0
279,-1,690018,235798,1347820,72452,8873,673925,0
279,-1,663078,229588,1285470,68988,7358,642745,0
279,-1,672302,230453,1198535,69239,7894,599242,0
280,-1,694348,239717,1537976,71719,9940,769098,0
280,-1,673451,232452,1383270,69656,8566,691702,0
280,-1,663499,229765,1378820,69015,7875,689100,0
280,-1,668437,229847,1236222,69005,7819,618117,0
281,-1,667193,230244,1381546,68905,8160,690826,0
281,-1,674251,232527,1362895,69762,8695,681502,0
281,-1,665330,229285,1355867,68775,8406,677979,0
281,-1,674170,231914,1373125,69939,8675,686603,0
282,-1,668193,230799,1447882,69126,8793,723949,0
282,-1,692415,236079,1308957,72437,8547,654415,0
282,-1,669191,230920,1487598,69410,8843,743215,0
282,-1,670010,229977,1349201,69050,8338,674437,0
283,-1,664714,229695,1294552,68757,8276,647183,0
283,-1,668577,230762,1295100,68945,8048,647568,0
283,-1,672165,232323,1343327,70123,9624,671674,0
283,-1,670558,230829,1250755,69369,7939,625169,0
284,-1,665559,230388,1371595,69025,8349,685725,0
284,-1,671933,231841,1348011,69453,8009,674069,0
284,-1,687524,234707,1466171,72455,10199,732789,0
284,-1,667728,230296,1278179,69115,7588,639022,0
285,-1,666680,230476,1367081,68990,8681,683588,0
285,-1,669369,231201,1328459,69074,7281,664274,0
285,-1,663856,229600,1281025,68949,8726,640339,0
285,-1,666065,230096,1348833,69019,8701,674406,0
286,-1,666036,230700,1221555,69060,7450,610602,0
286,-1,664304,229777,1324038,68536,7861,662066,0
286,-1,668039,231419,1580695,69724,9678,790024,0
286,-1,670689,230873,1397922,69576,8594,698909,0
287,-1,669185,232131,1349847,69711,8501,674872,0
287,-1,691011,235354,1296805,72226,8663,648373,0
287,-1,663980,230071,1566218,69154,9382,782074,0
287,-1,691163,235213,1523800,72556,9959,761742,0
288,-1,666191,230624,1254162,69103,8087,627007,0
288,-1,668175,230602,1336612,68892,8082,668341,0
288,-1,662785,229930,1354710,69011,7667,677404,0
288,-1,667787,230054,1446644,69066,8802,723211,0
289,-1,663407,230072,1358964,68865,8907,679392,0
289,-1,668231,230827,1305958,68951,7836,652893,0
289,-1,682568,234318,1341733,72352,8452,670840,0
289,-1,670191,231625,1330355,69678,8852,665257,0
290,-1,676188,232637,1453175,69915,9337,726494,0
290,-1,671026,232282,1346815,69590,8040,673473,0
290,-1,668993,231110,1300459,69491,8634,650223,0
290,-1,667578,230194,1371872,69046,8511,685413,0
291,-1,672935,231845,1347524,69660,8696,673453,0
291,-1,665791,230302,1288531,68733,7984,644156,0
291,-1,667072,230827,1217397,69484,8141,608782,0
291,-1,687878,235377,1502249,72468,10003,751127,0
292,-1,668813,230434,1279085,69047,7414,639329,0
292,-1,672456,233200,1322798,70012,9219,661566,0
292,-1,665844,230167,1347423,69189,8611,673519,0
292,-1,671415,230622,1237860,69138,9101,618855,0
293,-1,670521,230970,1317906,69123,7588,658798,0
293,-1,664725,230622,1252560,68823,8481,626316,0
293,-1,664000,230134,1299982,69164,8292,650029,0
293,-1,672865,231080,1274231,69337,9327,637153,0
294,-1,668568,230682,1300897,69126,7974,650381,0
294,-1,663851,230147,1198777,68704,7874,599448,0
294,-1,665032,230557,1248735,69230,7982,624254,0
294,-1,670752,230552,1223706,69145,9316,611777,0
295,-1,669411,231024,1261180,69123,7609,630423,0
295,-1,673175,231365,1275627,69123,8446,637685,0
295,-1,665013,231089,1313255,69452,7930,656624,0
295,-1,677851,233691,1277352,70400,9709,638370,0
296,-1,675170,233513,1425956,70203,8051,712982,0
296,-1,673274,231900,1233628,69448,8453,616872,0
296,-1,666576,231725,1237418,69839,7930,618854,0
296,-1,669979,230252,1206891,69112,8942,603492,0
297,-1,688706,235236,1450484,72333,9056,725014,0
297,-1,668123,230667,1297791,68901,7667,648929,0
297,-1,666431,230288,1296968,69199,9232,648527,0
297,-1,671544,230940,1344903,69244,9654,672396,0
298,-1,668610,230923,1200262,69144,8694,600162,0
298,-1,671013,232241,1308842,69566,7792,654488,0
298,-1,667787,231943,1302327,70008,8793,650927,0
298,-1,693920,235427,1463723,72546,10404,731792,0
299,-1,670141,231172,1278074,69225,8969,638980,0
299,-1,668743,231211,1213648,69123,7712,606867,0
299,-1,664160,230288,1229888,69190,8460,614980,0
299,-1,669845,230188,1340661,68996,9223,670202,0
300,-1,668559,230820,1256286,69055,8028,628097,0
300,-1,667786,230517,1226686,68902,7705,613387,0
300,-1,664934,231132,1248946,69631,8612,624536,0
300,-1,701822,241439,1418438,72590,9697,709572,0
301,-1,671521,232438,1257840,69818,8239,628886,0
301,-1,667087,230700,1501180,69002,9633,750646,0
301,-1,662733,230516,1309101,69305,8681,654509,0
301,-1,669407,230425,1361430,69132,8545,680411,0
302,-1,687874,235135,1311868,72202,8677,655823,0
302,-1,671040,232578,1344746,69734,7851,672425,0
302,-1,660254,229607,1309734,69008,8302,654852,0
302,-1,672599,231631,1301225,69456,8601,650131,0
303,-1,666936,230803,1401233,69012,7861,700597,0
303,-1,666490,231122,1217659,69154,7410,608874,0
303,-1,667753,230998,1224387,69490,7478,612116,0
303,-1,670938,231243,1342209,69321,8782,671202,0
304,-1,665941,230539,1408072,68881,7977,704093,0
304,-1,670443,231666,1373872,69258,8457,686967,0
304,-1,672397,230340,1329221,69205,8031,664657,0
304,-1,671128,231025,1333720,69331,9275,667273,0
305,-1,669201,231407,1368189,69183,8579,683794,0
305,-1,667821,231114,1311148,69089,7888,655592,0
305,-1,676421,232239,1245447,70108,8203,622503,0
305,-1,672350,232001,1344086,69802,8855,671937,0
306,-1,668392,230426,1280065,68823,8277,640061,0
306,-1,668699,231615,1388336,69361,9086,694223,0
306,-1,689548,234141,1427711,72253,9035,713868,0
306,-1,670502,230618,1299092,69106,8467,648974,0
307,-1,669808,231394,1280663,69154,8677,640239,0
307,-1,668526,230906,1392193,69049,9378,695570,0
307,-1,671389,230382,1393356,69291,8654,696653,0
307,-1,668266,231140,1434581,69403,10499,717068,0
308,-1,668095,230762,1318762,68993,9022,659131,0
308,-1,668103,231128,1346672,69053,7810,673357,0
308,-1,668266,229974,1232922,69089,8369,616502,0
308,-1,671046,230597,1231027,69197,8085,615614,0
309,-1,665479,230168,1364958,68719,8109,682528,0
309,-1,667242,230802,1311683,68937,7634,655882,0
309,-1,670900,231140,1258444,69478,8258,629259,0
309,-1,668874,230237,1192791,69033,7585,596344,0
310,-1,669796,231916,1438788,69524,9109,719413,0
310,-1,670826,232848,1297267,69888,7750,648720,0
310,-1,672031,232046,1193971,70028,8009,596868,0
310,-1,675158,232165,1242579,69889,7958,621363,0
311,-1,667415,231269,1331723,69169,8514,665655,0
311,-1,685017,235204,1270761,72190,8385,635321,0
311,-1,691073,234928,1299822,72536,9299,649906,0
311,-1,693233,235870,1424572,72684,9058,712041,0
312,-1,668012,230694,1315433,68977,8359,657517,0
312,-1,668332,230822,1235205,68892,7544,617642,0
312,-1,668987,229853,1330432,69028,7909,665082,0
312,-1,670298,230583,1454422,69132,8270,727125,0
313,-1,667762,230698,1260171,68868,7852,629820,0
313,-1,668282,231271,1291649,69075,7482,645872,0
313,-1,670749,230897,1406048,69362,8116,703069,0
313,-1,669789,231370,1268038,69629,8181,633839,0
314,-1,670704,232225,1361778,69674,8728,680819,0
314,-1,671670,232567,1390438,69681,8249,695284,0
314,-1,669005,230608,1332276,69366,7980,666056,0
314,-1,671461,230842,1336371,69283,8815,668226,0
315,-1,665333,230566,1335426,68870,8691,667751,0
315,-1,667980,231475,1302749,69145,7606,651423,0
315,-1,666761,229957,1311970,69092,8115,656018,0
315,-1,670965,230711,1236896,69127,7713,618214,0
316,-1,669642,231626,1240463,69221,7692,620257,0
316,-1,669285,231638,1387974,69182,9776,694029,0
316,-1,666795,229699,1399210,69015,7862,699707,0
316,-1,669702,231117,1281331,69364,7655,640720,0
317,-1,669983,232129,1379576,69563,8741,689939,0
317,-1,672509,233394,1238941,70048,8290,619538,0
317,-1,669039,229867,1328304,69090,9065,664186,0
317,-1,670681,231869,1348242,69787,8293,673694,0
318,-1,674935,232801,1386644,69856,9771,693349,0
318,-1,688176,236084,1293922,72402,8619,646802,0
318,-1,673257,231455,1339903,69764,8242,670011,0
318,-1,671448,231755,1407870,69565,8349,703983,0
319,-1,669012,230632,1349694,68870,8429,674786,0
319,-1,669766,232317,1331944,69404,8208,666021,0
319,-1,670539,230622,1435026,69339,8352,717458,0
319,-1,666905,230364,1228794,69110,7674,614441,0
320,-1,671539,231995,1371949,69522,8850,686001,0
320,-1,677865,232754,1331684,69629,7807,665903,0
320,-1,668573,229954,1311727,69021,8226,655913,0
320,-1,671314,230281,1350434,69058,9427,674768,0
321,-1,667453,230226,1323524,68777,8396,661769,0
321,-1,673076,231841,1394774,69191,8063,697429,0
321,-1,672783,232027,1222962,70006,8379,611556,0
321,-1,673452,231758,1235099,69768,8041,617622,0
322,-1,667351,230824,1273381,68878,8831,636555,0
322,-1,672695,231522,1221322,69132,7882,610727,0
322,-1,690924,235093,1414459,72568,9374,707169,0
322,-1,691822,235671,1361526,72633,8696,680763,0
323,-1,688499,235586,1260483,72314,9444,630111,0
323,-1,672600,231711,1362003,69171,7928,681037,0
323,-1,669388,231017,1225270,69417,8082,612707,0
323,-1,669772,230511,1238291,69187,8147,619167,0
324,-1,670429,231610,1198249,69224,8385,599019,0
324,-1,670172,230999,1262186,68940,7915,631134,0
324,-1,667851,229434,1390063,68968,8715,695008,0
324,-1,668868,230823,1248356,69274,8100,624051,0
325,-1,667899,230876,1255822,68881,8113,627961,0
325,-1,673762,232678,1346348,69679,8265,673328,0
325,-1,668468,230327,1288064,69260,7795,644476,0
325,-1,673376,232133,1263169,69869,8369,631634,0
326,-1,668827,231518,1278155,69113,8423,638976,0
326,-1,668947,231365,1234907,69102,7547,617491,0
326,-1,667574,230251,1351346,69172,8846,675721,0
326,-1,670414,231204,1367727,69339,7555,683902,0
327,-1,675218,233768,1344100,70116,9218,671916,0
327,-1,670055,231714,1326869,69170,8111,663459,0
327,-1,665697,230156,1297353,69189,8605,648619,0
327,-1,669202,230719,1338245,69202,7408,669163,0
328,-1,667753,231249,1337772,69002,8338,669028,0
328,-1,670653,230857,1211961,68876,7756,606019,0
328,-1,669145,231067,1335358,69508,8343,667716,0
328,-1,666863,230237,1251353,69046,8180,625650,0
329,-1,671046,232789,1354212,69686,8720,677170,0
329,-1,671213,231379,1335361,69101,7641,667703,0
329,-1,669334,231388,1233674,69760,7994,616904,0
329,-1,671818,232459,1274579,70031,8109,637228,0
330,-1,671018,231114,1261997,68987,8518,631119,0
330,-1,692699,236126,1433748,72514,8213,716795,0
330,-1,664331,229788,1319587,69090,7972,659849,0
330,-1,670961,230933,1230923,69298,7745,615484,0
331,-1,669497,230902,1331845,68867,8380,665739,0
331,-1,667269,230917,1216975,69000,7210,608526,0
331,-1,664202,229804,1449947,69025,8136,725010,0
331,-1,670896,231774,1248539,69611,8206,624318,0
332,-1,669441,230853,1270981,68858,8428,635519,0
332,-1,670431,231378,1296899,69131,8428,648500,0
332,-1,702330,241263,1383657,72770,8530,691902,0
332,-1,666905,230625,1177377,69199,7967,588719,0
333,-1,688491,235715,1368910,72253,9305,684238,0
333,-1,672485,232327,1314202,69675,8142,657173,0
333,-1,666794,229714,1223326,68997,8416,611776,0
333,-1,669914,231184,1306333,69328,8647,653416,0
334,-1,693334,240390,1351641,71691,7898,675840,0
334,-1,670632,231983,1263346,69375,7928,631722,0
334,-1,667937,230039,1240892,69087,7840,620484,0
334,-1,673705,233098,1506575,70373,10445,753296,0
335,-1,667187,231027,1311525,68946,8942,655777,0
335,-1,668163,231292,1221195,69239,7172,610648,0
335,-1,666677,229900,1266754,69059,8724,633394,0
335,-1,691174,236190,1448038,72831,9669,724061,0
336,-1,668394,230917,1265454,68866,7979,632607,0
336,-1,667323,231134,1304943,69081,8043,652508,0
336,-1,687067,234674,1354070,72478,9313,677002,0
336,-1,666317,230631,1329586,69207,8381,664832,0
337,-1,674309,233606,1367157,70002,8684,683404,0
337,-1,673418,233108,1317554,70034,8123,658780,0
337,-1,667055,230230,1273517,69209,7763,636637,0
337,-1,669393,230735,1235272,69274,7570,617687,0
338,-1,688313,235739,1352539,72321,9312,676236,0
338,-1,670997,231559,1539119,69223,9726,769609,0
338,-1,667866,229887,1189109,69053,7465,594588,0
338,-1,675660,231256,1349326,69379,8852,674706,0
339,-1,666182,230697,1273287,68881,8014,636581,0
339,-1,673707,233063,1314482,69846,7799,657257,0
339,-1,666635,229994,1253509,69122,7592,626714,0
339,-1,673763,230949,1244417,69266,8017,622290,0
340,-1,663502,230096,1423524,68682,8378,711784,0
340,-1,671029,231481,1319951,69090,7992,660009,0
340,-1,664931,229711,1340445,68946,7612,670257,0
340,-1,698068,236205,1448854,72796,9375,724451,0
341,-1,668295,231638,1377441,69217,8796,688514,0
341,-1,671551,232209,1243712,69401,7690,621904,0
341,-1,666021,229463,1341158,68922,7949,670616,0
341,-1,675368,231547,1294581,69437,8473,647339,0
342,-1,668411,232845,1351176,69824,8815,675476,0
342,-1,669096,231402,1190354,69098,7636,595224,0
342,-1,673545,233050,1273700,70429,7471,636902,0
342,-1,673169,231597,1357998,69514,7826,679015,0
343,-1,690596,235626,1338146,72271,8947,668922,0
343,-1,668669,231117,1288202,69023,7812,644147,0
343,-1,686183,234698,1408170,72476,8911,704031,0
343,-1,674065,231075,1335559,69344,8078,667831,0
344,-1,672037,230822,1277105,68923,8081,638639,0
344,-1,670871,232302,1378413,69454,9940,689252,0
344,-1,667829,230884,1334668,69440,7957,667391,0
344,-1,674461,231899,1294424,69638,8253,647261,0
345,-1,671993,230809,1348188,68875,9027,674122,0
345,-1,667696,231145,1254791,69041,8295,627432,0
345,-1,662114,229105,1314531,68763,7595,657208,0
345,-1,675804,232482,1277549,69921,7674,638819,0
346,-1,669538,230757,1385306,68902,8285,692504,0
346,-1,668188,231732,1187550,69251,7802,593797,0
346,-1,665509,230828,1415761,69414,7850,707722,0
346,-1,671959,230831,1215904,69262,7524,607884,0
347,-1,668382,230233,1201683,68735,8048,600798,0
347,-1,675182,233950,1326529,70186,8318,663350,0
347,-1,668700,230366,1333289,69258,8844,666639,0
347,-1,673142,231864,1393854,69591,8009,697060,0
348,-1,665669,230167,1262641,68751,8178,631348,0
348,-1,666900,231688,1307495,69249,8621,653796,0
348,-1,666828,230071,1246718,69157,8392,623408,0
348,-1,670345,231156,1259198,69335,7447,629632,0
349,-1,668888,230375,1252457,68898,8339,626178,0
349,-1,669201,233017,1346011,69774,9045,673073,0
349,-1,668555,230755,1332716,69330,8061,666400,0
349,-1,697077,236319,1396449,72870,8799,698103,0
350,-1,667934,230318,1294277,68753,7707,647093,0
350,-1,670363,231425,1326232,69040,8432,663153,0
350,-1,669842,231738,1281326,69851,8074,640935,0
350,-1,673194,231052,1242788,69294,7835,621457,0
351,-1,689162,235003,1357409,72098,9195,678703,0
351,-1,675244,233650,1333249,70049,8648,666472,0
351,-1,668538,230604,1305382,69323,8099,652853,0
351,-1,672302,230675,1333640,69182,7840,666863,0
352,-1,667772,230829,1221112,68878,8041,610600,0
352,-1,668721,231814,1354607,69156,8100,677359,0
352,-1,664854,229633,1255646,68972,7443,627853,0
352,-1,671854,231020,1242183,69333,6969,621137,0
353,-1,669263,231769,1353049,69412,8328,676532,0
353,-1,670448,232141,1334236,69300,8129,667158,0
353,-1,671834,232084,1372473,69912,8138,686345,0
353,-1,676455,232636,1340988,69837,9366,670457,0
354,-1,669877,230222,1300075,68725,7760,650164,0
354,-1,672890,233389,1353819,69864,8040,676970,0
354,-1,663763,230132,1393850,69136,8229,696976,0
354,-1,670580,231215,1494655,69510,9876,747339,0
355,-1,669644,230674,1313455,68982,8012,656546,0
355,-1,696631,241547,1270291,72081,7576,635192,0
355,-1,686747,234767,1347209,72483,8856,673655,0
355,-1,677205,233522,1268582,70560,8294,634345,0
356,-1,668295,230539,1228109,68899,7898,613839,0
356,-1,666393,231075,1390248,68873,8097,695141,0
356,-1,664926,230225,1304828,69209,8410,652422,0
356,-1,692535,235850,1390925,72817,9212,695457,0
357,-1,673384,232402,1396044,69769,8267,697738,0
357,-1,671327,233738,1359547,70050,7901,679836,0
357,-1,669112,231705,1235389,69860,7181,617754,0
357,-1,673222,232405,1258030,70065,8412,629057,0
358,-1,667504,230738,1383092,69004,7633,691267,0
358,-1,690555,237315,1440008,72761,8973,719742,0
358,-1,664777,230394,1347626,69290,7560,673822,0
358,-1,677587,233104,1487724,70380,9335,743744,0
359,-1,670960,231657,1280217,69335,8078,640125,0
359,-1,668815,231252,1221617,68915,8221,610759,0
359,-1,663920,230411,1348736,69157,8374,674414,0
359,-1,672604,231619,1252237,69614,7922,626169,0
360,-1,667128,230391,1272423,69010,7832,636111,0
360,-1,669305,232028,1246111,69283,8180,623097,0
360,-1,669330,230061,1321322,69173,8117,660686,0
360,-1,672201,231437,1348991,69576,8448,674587,0
361,-1,667958,230706,1292043,68972,7785,645951,0
361,-1,670156,232077,1233501,69278,8093,616777,0
361,-1,670838,230799,1346131,69390,8132,673092,0
361,-1,672761,230938,1304204,69397,7953,652067,0
362,-1,668414,231370,1253910,69192,8093,626856,0
362,-1,668848,231701,1323053,69116,8263,661566,0
362,-1,671311,231379,1235455,69740,7300,617546,0
362,-1,676729,232910,1298151,70316,8028,649152,0
363,-1,675504,232862,1361390,69975,8846,680462,0
363,-1,667864,232329,1268987,69349,8606,634450,0
363,-1,667619,229882,1332576,69072,7903,666364,0
363,-1,670658,231042,1334950,69438,7498,667516,0
364,-1,666604,230915,1304697,69099,7773,652199,0
364,-1,664390,231075,1235988,68929,8647,618052,0
364,-1,668519,230266,1239943,69226,8206,619925,0
364,-1,675795,232376,1239795,70063,8084,619900,0
365,-1,667099,230972,1234338,69089,7809,617112,0
365,-1,666716,231775,1423858,69196,10415,711979,0
365,-1,668949,230525,1278494,69261,8542,639288,0
365,-1,671758,231348,1371143,69577,8634,685770,0
366,-1,669622,232538,1328716,69763,8021,664350,0
366,-1,667844,231853,1195942,69157,8030,598001,0
366,-1,666176,230342,1183794,69197,7378,591946,0
366,-1,670787,231344,1229063,69546,8312,614561,0
367,-1,684390,234690,1242938,72096,8992,621462,0
367,-1,668132,232155,1239435,69248,8379,619650,0
367,-1,668080,230250,1219774,69170,7913,609928,0
367,-1,673483,233038,1267560,70369,8192,633732,0
368,-1,669997,230498,1304919,68794,9633,652525,0
368,-1,690701,236976,1230337,72661,9062,615212,0
368,-1,668021,230793,1178154,69394,7330,589072,0
368,-1,675576,232211,1322657,69835,7986,661374,0
369,-1,672933,232307,1333846,69597,9146,667126,0
369,-1,665243,231606,1382670,69126,8158,691476,0
369,-1,686591,234366,1417076,72371,9397,708557,0
369,-1,671306,230646,1435154,69291,8304,717624,0
370,-1,666607,229883,1243469,68732,8384,621698,0
370,-1,664930,232136,1493300,69333,9533,746248,0
370,-1,666361,230448,1448485,69257,8182,724295,0
370,-1,670151,230652,1404514,69302,7950,702282,0
371,-1,667253,230239,1234222,68776,8931,617008,0
371,-1,680203,233797,1332345,70084,8429,666112,0
371,-1,668242,231687,1232318,69787,7361,616132,0
371,-1,669980,230910,1315270,69423,7560,657688,0
372,-1,669707,230718,1206047,69037,8180,603062,0
372,-1,676255,232526,1356039,69414,8498,678062,0
372,-1,669154,230719,1225254,69335,8052,612658,0
372,-1,691273,235474,1336535,72648,8748,668243,0
373,-1,686318,234624,1259114,72133,8842,629443,0
373,-1,676716,232357,1339335,69386,8485,669711,0
373,-1,671320,231828,1222129,69918,7802,611122,0
373,-1,674306,232367,1303057,70082,7812,651432,0
374,-1,665245,229864,1224885,68808,8455,612449,0
374,-1,674908,231942,1396006,69181,8755,698044,0
374,-1,667140,229910,1324797,69075,7356,662436,0
374,-1,669000,230653,1232703,69203,7051,616380,0
375,-1,664799,230470,1261017,68955,8108,630280,0
375,-1,680406,233982,1316819,70117,8300,658471,0
375,-1,667332,230582,1463051,69326,8302,731456,0
375,-1,669274,231249,1294014,69410,7615,646926,0
376,-1,665055,230150,1365060,68877,7669,682758,0
376,-1,674917,232289,1359651,69291,8563,679858,0
376,-1,666074,230374,1299977,69257,7873,650032,0
376,-1,693201,236775,1368174,72977,8211,684075,0
377,-1,669300,232184,1367762,69796,8911,683855,0
377,-1,671721,231440,1322359,69077,8215,661219,0
377,-1,665868,230860,1285926,69346,7860,643011,0
377,-1,671421,232688,1288837,70104,7852,644126,0
378,-1,665372,230316,1420655,68836,8952,710133,0
378,-1,673617,232218,1259871,69314,7912,629977,0
378,-1,664161,230122,1381310,69180,8187,690705,0
378,-1,676212,231508,1328092,69520,7663,664085,0
379,-1,667809,231398,1368022,69412,9274,683897,0
379,-1,674152,232097,1332495,69349,8989,666285,0
379,-1,666838,231259,1324192,69621,8400,661990,0
379,-1,675538,231736,1434036,69628,8924,717063,0
380,-1,660812,229558,1285794,68612,8339,642944,0
380,-1,678571,234157,1458604,70173,9470,729029,0
380,-1,665742,230133,1396674,69155,8837,698382,0
380,-1,696513,236912,1378270,73073,8842,689172,0
381,-1,664685,229562,1343953,68685,8541,671884,0
381,-1,675313,231614,1234104,69080,7190,617093,0
381,-1,663295,229774,1322252,68999,7684,661150,0
381,-1,672142,231453,1228958,69508,7405,614576,0
382,-1,669722,231735,1425603,69582,8665,712621,0
382,-1,673255,231753,1316921,69320,8288,658524,0
382,-1,666710,230273,1365735,69245,7905,682913,0
382,-1,674106,231663,1339207,69529,8257,669648,0
383,-1,666210,230742,1271533,69019,7657,635486,0
383,-1,673425,231625,1243253,69084,7663,621667,0
383,-1,672601,232796,1192071,70263,7518,596112,0
383,-1,673989,231759,1305050,69618,8265,652567,0
384,-1,662626,229388,1327068,68504,8650,663547,0
384,-1,672800,232082,1249148,69266,7273,624624,0
384,-1,664235,229968,1196600,69134,8296,597511,0
384,-1,675482,232591,1383237,69907,8257,691670,0
385,-1,666307,230871,1281133,69061,8476,640301,0
385,-1,677616,233746,1302564,70034,8405,651253,0
385,-1,664597,229874,1353530,69065,8396,676776,0
385,-1,671296,231072,1266220,69352,7644,633138,0
386,-1,663284,229784,1278453,68725,8691,639020,0
386,-1,693131,236190,1271622,72503,8779,635639,0
386,-1,665351,230018,1288395,69156,8148,644165,0
386,-1,672961,231953,1280306,69696,8058,640231,0
387,-1,664136,230319,1308249,68823,8304,654020,0
387,-1,671113,231618,1199216,69199,7285,599648,0
387,-1,664050,229775,1563578,69046,9668,781693,0
387,-1,671130,231385,1272834,69472,8433,636449,0
388,-1,662055,229867,1256209,68621,7922,627902,0
388,-1,673925,233075,1243140,69898,7991,621608,0
388,-1,673510,233785,1384909,70709,9350,692231,0
388,-1,697139,237030,1290454,73121,8770,645109,0
389,-1,663401,230051,1317385,68740,8030,658742,0
389,-1,672822,231533,1267706,69226,8599,633890,0
389,-1,684981,234402,1350972,72331,8906,675425,0
389,-1,674047,232225,1248553,69793,7548,624357,0
390,-1,663024,229805,1236652,68694,7957,618352,0
390,-1,673331,231834,1405905,69359,8387,702914,0
390,-1,664062,229986,1230547,69105,7256,615264,0
390,-1,672728,231658,1169754,69542,6708,584917,0
391,-1,662577,229882,1250680,68753,7582,625334,0
391,-1,672235,232621,1245130,69680,7045,622512,0
391,-1,663876,230199,1302439,69220,8290,651062,0
391,-1,673987,232548,1267612,69816,7775,633856,0
392,-1,662101,229858,1327756,68750,8181,663928,0
392,-1,667989,230990,1339943,69109,8234,669992,0
392,-1,663395,230381,1310240,69269,7718,655179,0
392,-1,672447,231965,1232934,69612,7571,616521,0
393,-1,668774,230141,1245006,68833,8214,622453,0
393,-1,672834,230873,1300347,69060,8723,650215,0
393,-1,667077,230053,1233098,69113,8543,616542,0
393,-1,673675,232974,1296152,70174,7353,648104,0
394,-1,666809,229777,1286226,68677,7814,643141,0
394,-1,693458,236025,1353105,72527,8590,676518,0
394,-1,688671,235157,1450694,72645,9183,725379,0
394,-1,671522,231614,1313940,69576,7624,657062,0
395,-1,673205,232581,1366579,69857,9453,683187,0
395,-1,673536,231648,1382404,69346,8104,691218,0
395,-1,665938,230518,1374353,69332,9333,687139,0
395,-1,675251,231937,1348342,69586,8581,674020,0
396,-1,665872,230266,1310770,68900,7459,655346,0
396,-1,677622,233143,1553564,69910,8540,776850,0
396,-1,666419,230448,1346044,69241,9021,673037,0
396,-1,674870,232343,1324905,69694,8420,662505,0
397,-1,664680,229739,1340821,68664,8239,670204,0
397,-1,672651,231712,1393241,69336,8046,696667,0
397,-1,670046,232071,1292797,69982,8693,646361,0
397,-1,671654,230969,1269103,69202,7952,634600,0
398,-1,669765,231991,1417044,69585,9243,708485,0
398,-1,671129,231547,1321559,69184,7842,660841,0
398,-1,664201,230179,1364377,69219,8827,682189,0
398,-1,674506,232816,1221577,70114,8012,611113,0
399,-1,667484,230243,1293453,68822,8885,646605,0
399,-1,675581,233785,1386260,70228,8230,693512,0
399,-1,663862,229988,1379143,69079,8430,689534,0
399,-1,691252,236078,1370286,72781,8875,685089,0
400,-1,685453,234597,1346300,72083,9139,673095,0
400,-1,672606,231556,1338379,69269,8280,669233,0
400,-1,664432,230629,1282303,69317,8668,641134,0
400,-1,669401,231040,1215597,69402,7431,607844,0
401,-1,664475,230148,1282463,68838,7658,641195,0
401,-1,670481,231157,1357603,69146,8531,678851,0
401,-1,669742,232673,1239569,70234,8331,619776,0
401,-1,695608,240183,1387599,72062,8005,693899,0
402,-1,664050,230046,1312912,68809,7806,656390,0
402,-1,674330,232888,1300672,69754,8278,650306,0
402,-1,663937,230296,1336171,69176,8023,668099,0
402,-1,668400,231162,1390656,69465,7789,695360,0
403,-1,663961,229610,1248672,68573,7748,624340,0
403,-1,670640,231618,1471009,69273,8642,735555,0
403,-1,664664,230625,1307793,69372,8788,653793,0
403,-1,672510,232195,1245450,69938,8134,622755,0
404,-1,673571,232907,1373456,69925,9028,686639,0
404,-1,671904,231922,1381011,69348,8428,690524,0
404,-1,666637,231788,1241933,69929,8817,620906,0
404,-1,670586,231223,1321363,69437,8196,660734,0
405,-1,666053,230373,1361027,68851,8158,680516,0
405,-1,689789,235582,1308815,72298,8899,654156,0
405,-1,665793,229772,1250213,69009,8367,625121,0
405,-1,669419,230882,1250322,69268,7712,625203,0
406,-1,664261,230201,1245263,68854,7478,622571,0
406,-1,672302,231682,1408399,69279,8268,704241,0
406,-1,667609,229632,1347522,68987,9189,673687,0
406,-1,670930,231773,1327389,69602,8132,663722,0
407,-1,664627,230136,1375905,68788,8367,687564,0
407,-1,670979,231781,1309698,69249,8762,654892,0
407,-1,668606,230334,1280027,69255,8864,640028,0
407,-1,672473,233029,1231737,70258,7846,615957,0
408,-1,681434,234180,1307414,71964,8297,653544,0
408,-1,669995,231309,1330964,69102,8432,665534,0
408,-1,669550,230906,1391004,69387,9142,695515,0
408,-1,670855,231697,1253352,69591,7748,626718,0
409,-1,666078,230509,1206621,68882,8287,603380,0
409,-1,691096,235802,1323942,72339,8872,661985,0
409,-1,672882,231613,1283026,69864,8742,641490,0
409,-1,668278,231084,1352703,69360,7988,676283,0
410,-1,668504,231891,1262984,69538,8822,631463,0
410,-1,670523,231562,1398299,69153,8997,699101,0
410,-1,668379,230155,1224809,69156,8369,612438,0
410,-1,671084,232242,1311394,69959,7974,655816,0
411,-1,664844,230453,1214616,68946,7328,607282,0
411,-1,667708,230773,1323662,68931,8335,661881,0
411,-1,667793,229810,1416380,69100,9053,708145,0
411,-1,667648,231819,1238065,69628,8003,619048,0
412,-1,679053,233309,1370002,71698,8093,685114,0
412,-1,670076,232238,1363676,69624,8541,681690,0
412,-1,668244,230071,1465973,69058,8700,732998,0
412,-1,675592,232899,1251832,70226,8383,625980,0
413,-1,661954,230057,1327447,68806,7435,663791,0
413,-1,669787,230740,1339184,68988,8729,669472,0
413,-1,668701,230515,1485155,69311,10055,742573,0
413,-1,692515,235803,1425671,72725,9925,712844,0
414,-1,660819,229955,1296034,68745,7742,647988,0
414,-1,666549,230491,1426173,68905,8314,713142,0
414,-1,669416,230816,1440221,69382,9809,720069,0
414,-1,667511,230193,1303444,69029,8161,651755,0
415,-1,669820,231066,1351945,69243,8485,676086,0
415,-1,687596,235271,1446815,72215,8613,723451,0
415,-1,665827,229955,1355295,69149,9051,677585,0
415,-1,675255,232824,1241160,70128,8100,620648,0
416,-1,663876,229623,1306460,68605,8115,653303,0
416,-1,667708,231553,1488581,69257,8581,744249,0
416,-1,665732,229582,1232925,68909,8554,616451,0
416,-1,667503,230526,1283916,69238,8115,642003,0
417,-1,665474,230373,1247028,68851,7803,623456,0
417,-1,666899,231243,1269578,69124,8743,634602,0
417,-1,667197,230570,1359568,69353,9093,679778,0
417,-1,670691,231360,1176549,69491,8008,588328,0
418,-1,663402,229695,1444302,68636,8646,722188,0
418,-1,665985,231304,1294158,69081,8881,647083,0
418,-1,670032,230328,1391081,69204,9199,695560,0
418,-1,668659,230914,1228367,69355,8093,614226,0
419,-1,663555,229434,1339229,68493,8037,669626,0
419,-1,672492,232352,1269793,69582,8430,634839,0
419,-1,688908,234928,1372305,72551,9716,686144,0
419,-1,672020,232908,1284133,70243,8491,642146,0
420,-1,666764,230968,1362137,68984,8255,681014,0
420,-1,672285,231715,1262666,69147,8422,631274,0
420,-1,665927,229856,1250117,69086,8362,625052,0
420,-1,688431,235666,1380398,72702,9193,690202,0
421,-1,663138,230109,1211681,68730,7319,605477,0
421,-1,669058,230889,1252017,68912,8724,626087,0
421,-1,669210,231091,1344680,69688,8454,672348,0
421,-1,666856,231278,1245904,69413,7714,623008,0
422,-1,667864,231945,1438360,69555,8721,719128,0
422,-1,672968,232764,1266220,69717,8880,632874,0
422,-1,666891,230269,1296532,69191,8432,648162,0
422,-1,669892,230603,1333578,69272,8530,666833,0
423,-1,661851,230447,1339978,68926,7921,669888,0
423,-1,693553,236494,1284427,73059,9673,642037,0
423,-1,665525,230161,1191671,69210,8405,595744,0
423,-1,666005,230567,1301710,69159,7753,650930,0
424,-1,666010,231557,1364437,69520,8878,682291,0
424,-1,667839,230062,1190062,68614,7579,594908,0
424,-1,668767,231895,1232854,69982,8811,616372,0
424,-1,669633,231843,1339070,69677,7640,669598,0
425,-1,684967,234271,1364623,71923,8809,682173,0
425,-1,667738,230371,1307899,68770,8115,653711,0
425,-1,665604,229749,1281629,68922,8814,640826,0
425,-1,667655,230955,1323815,69339,8035,661945,0
426,-1,662958,229606,1255472,68681,7836,627598,0
426,-1,671796,232129,1343378,69511,8540,671811,0
426,-1,670033,231430,1291335,69760,8769,645613,0
426,-1,666277,230857,1290190,69339,8145,645135,0
427,-1,666359,231054,1240343,69110,8230,620222,0
427,-1,668482,231063,1286846,68893,8731,643227,0
427,-1,665060,230205,1337008,69183,8837,668468,0
427,-1,668324,231446,1328186,69527,8431,664136,0
428,-1,666311,231427,1355488,69409,8342,677424,0
428,-1,689634,236067,1256761,72369,8733,628452,0
428,-1,663857,230056,1351895,69110,9113,675915,0
428,-1,667251,230731,1322964,69304,8464,661526,0
429,-1,662494,229423,1251480,68510,7686,625947,0
429,-1,670465,231975,1250951,69260,8359,625385,0
429,-1,666142,230311,1237765,69243,8718,618824,0
429,-1,688788,235978,1377414,72797,9166,688760,0
430,-1,662587,230033,1311276,68813,8520,655508,0
430,-1,669308,230677,1369327,68900,8907,684612,0
430,-1,682932,234700,1397215,71582,8970,698529,0
430,-1,664212,229415,1366491,68866,8500,683279,0
431,-1,683728,235161,1266709,72255,8678,633378,0
431,-1,671388,231504,1511594,69105,9395,755647,0
431,-1,661433,230307,1406782,68378,8075,703263,0
431,-1,667849,231400,1376527,69504,8117,688310,0
432,-1,693774,240944,1325648,72233,9533,662700,0
432,-1,671907,232501,1358317,69694,8909,678795,0
432,-1,662399,230602,1316958,68439,7826,658414,0
432,-1,668192,232093,1231867,69703,7791,615976,0
433,-1,663781,230736,1219420,68997,8227,609696,0
433,-1,667445,230641,1308193,68824,9021,654052,0
433,-1,670331,231592,1287470,68953,7911,643739,0
433,-1,662743,230486,1322027,69160,7774,661058,0
434,-1,662342,230564,1252254,68928,8181,626144,0
434,-1,665464,230525,1292862,68775,8254,646655,0
434,-1,665165,230066,1374137,68240,7951,687091,0
434,-1,669831,230551,1308530,69192,7547,654287,0
435,-1,660778,229936,1330749,68762,8090,665192,0
435,-1,666218,231160,1358352,69003,8839,679098,0
435,-1,664426,230427,1343297,68438,7676,671651,0
435,-1,679986,233085,1245851,70292,7635,622994,0
436,-1,668231,232470,1428785,69783,8935,714260,0
436,-1,674200,233501,1456481,70061,9182,728223,0
436,-1,662374,230291,1444742,68393,8085,722421,0
436,-1,673347,230866,1278022,69308,8881,639054,0
437,-1,660395,229756,1409830,68626,8372,704869,0
437,-1,664336,230227,1233369,68618,7925,616494,0
437,-1,662958,229766,1323428,68185,8216,661753,0
437,-1,671601,230641,1266695,69272,7911,633391,0
438,-1,663282,232022,1359046,69550,7701,679426,0
438,-1,666111,230944,1228829,68935,7557,614350,0
438,-1,669021,232684,1268364,69321,7849,634249,0
438,-1,673976,231730,1231289,69731,7959,615686,0
439,-1,668496,230195,1353174,68812,8057,676416,0
439,-1,666156,231067,1240386,68980,7641,620254,0
439,-1,658950,229741,1339191,68185,8334,669639,0
439,-1,672208,230793,1243734,69276,7937,621877,0
440,-1,669426,230052,1296796,68649,8341,648167,0
440,-1,672966,232053,1571181,69307,10157,785596,0
440,-1,664006,230647,1428022,68493,8691,713689,0
440,-1,674158,231736,1256249,69792,7764,628190,0
441,-1,673679,232488,1412485,69768,8929,706291,0
441,-1,667987,230538,1267127,68776,7918,633575,0
441,-1,662652,230217,1333021,68360,9229,666297,0
441,-1,670474,230762,1431819,69247,7812,715958,0
442,-1,689048,234722,1436626,72087,9572,718271,0
442,-1,669454,231079,1306635,68998,8118,653286,0
442,-1,663392,230333,1337581,68435,8423,668845,0
442,-1,675062,232704,1293934,70179,7631,646859,0
443,-1,667271,230004,1335140,68711,8017,667475,0
443,-1,671225,232032,1353708,69480,8385,676826,0
443,-1,665486,231658,1268773,68949,7995,634443,0
443,-1,669281,230511,1229160,69221,7061,614587,0
444,-1,667659,229870,1354813,68584,9266,677429,0
444,-1,669273,231031,1342162,68927,8920,671128,0
444,-1,663039,230587,1329260,68508,7835,664684,0
444,-1,669310,230806,1350315,69275,7735,675202,0
445,-1,672188,232187,1353416,69471,8574,676796,0
445,-1,667177,230552,1302748,68780,8662,651411,0
445,-1,661099,230012,1322505,68267,8159,661298,0
445,-1,672965,231230,1341420,69451,7960,670739,0
446,-1,668717,230606,1403866,68843,8895,701842,0
446,-1,688489,235605,1271529,72269,8733,635513,0
446,-1,661380,230478,1293303,68467,7631,646676,0
446,-1,675460,232844,1314299,70215,8583,657231,0
447,-1,666634,230201,1267504,68650,8609,633755,0
447,-1,665660,230719,1269840,68855,7651,634855,0
447,-1,660265,230554,1282969,68431,8180,641523,0
447,-1,693324,235764,1400934,72691,8975,700397,0
448,-1,670127,230376,1334561,68693,8074,667187,0
448,-1,666709,231004,1275737,69039,7903,637772,0
448,-1,664194,231960,1219857,69057,8016,609990,0
448,-1,671202,230944,1346929,69327,8304,673506,0
449,-1,673506,232532,1397422,69651,9685,698837,0
449,-1,667948,230414,1417092,68964,9878,708663,0
449,-1,668234,230655,1238796,68482,7810,619439,0
449,-1,670541,230987,1290676,69338,8488,645369,0
450,-1,665327,229738,1424779,68518,8251,712437,0
450,-1,672218,232318,1351958,69744,8911,675992,0
450,-1,671862,233054,1238859,69502,7318,619496,0
450,-1,672180,231915,1309245,69671,7932,654568,0
451,-1,672928,232518,1369136,69624,8408,684535,0
451,-1,667426,230648,1347910,68856,8539,673746,0
451,-1,683976,234654,1349599,71507,8255,674818,0
451,-1,694525,239540,1284693,71858,7630,642353,0
452,-1,666130,230057,1345562,68712,7874,672763,0
452,-1,664426,230415,1309384,68817,7273,654786,0
452,-1,663035,230345,1280731,68243,7701,640408,0
452,-1,672755,231239,1329703,69429,8100,664895,0
453,-1,664812,229596,1259337,68442,8303,629561,0
453,-1,691527,236840,1354944,72787,9610,677291,0
453,-1,670660,232854,1245304,69383,7519,622565,0
453,-1,670645,230794,1328772,69274,7298,664394,0
454,-1,665622,230239,1258870,68703,7712,629468,0
454,-1,665231,230691,1267720,68975,7324,633639,0
454,-1,689248,236030,1433989,72336,9823,716832,0
454,-1,692410,235719,1502501,72709,8106,751289,0
455,-1,670622,232632,1388859,69758,9005,694556,0
455,-1,692206,240354,1330867,71902,7927,665417,0
455,-1,667017,231412,1336691,68575,8169,667718,0
455,-1,669227,230890,1340719,69340,7463,670389,0
456,-1,669157,230344,1306982,68771,8820,653294,0
456,-1,668911,232474,1423274,69755,7790,711779,0
456,-1,666602,231276,1429622,68718,8669,714439,0
456,-1,670885,231161,1290928,69380,7989,645507,0
457,-1,665701,229971,1254747,68663,8743,627538,0
457,-1,667833,230478,1366057,68918,8103,683019,0
457,-1,665348,231111,1477196,68528,8534,738675,0
457,-1,673165,232281,1217399,70003,7183,608723,0
458,-1,666308,230006,1253664,68667,8362,626749,0
458,-1,669476,231534,1296674,69299,8232,648147,0
458,-1,661633,230173,1333688,68187,8271,666912,0
458,-1,668294,230702,1309361,69289,7942,654717,0
459,-1,664881,229635,1185051,68507,7679,592533,0
459,-1,665980,230345,1298019,68875,8779,648977,0
459,-1,662492,230635,1325154,68337,8678,662601,0
459,-1,667051,230466,1329501,69166,8108,664620,0
460,-1,670070,232074,1279381,69520,9007,639715,0
460,-1,686681,235229,1327285,72275,9262,663339,0
460,-1,685352,235161,1440194,71647,9482,720131,0
460,-1,675102,232479,1212228,70063,7908,605964,0
461,-1,667397,231112,1196776,69020,7858,598389,0
461,-1,668838,231149,1292937,69130,7934,646554,0
461,-1,664759,230362,1337623,68303,8141,668445,0
461,-1,673144,231117,1172072,69316,6960,586082,0
462,-1,663662,229779,1251991,68543,8104,625991,0
462,-1,667003,231058,1320281,69141,8019,659998,0
462,-1,664127,230543,1357742,68255,8484,679470,0
462,-1,673702,231927,1225696,69677,7538,612891,0
463,-1,664849,229921,1326868,68620,7936,663216,0
463,-1,666684,231174,1320733,69180,8068,660214,0
463,-1,668483,232220,1319299,69022,7947,659178,0
463,-1,672708,231506,1264867,69528,7984,632467,0
464,-1,666730,230546,1418800,68830,8870,709318,0
464,-1,665709,231411,1559740,69252,9927,779998,0
464,-1,661685,230176,1536276,68128,8479,767554,0
464,-1,669469,230397,1329070,69136,7415,664182,0
465,-1,686788,234529,1390964,71931,9180,695269,0
465,-1,665339,230581,1274823,68965,8062,637364,0
465,-1,666156,231149,1390246,68508,8337,694904,0
465,-1,670777,231146,1391087,69413,8024,695584,0
466,-1,666270,230713,1250829,68847,8118,625319,0
466,-1,663595,230283,1342369,68820,8653,671062,0
466,-1,663947,230654,1321654,68348,8118,660794,0
466,-1,670764,231129,1226713,69383,7607,613397,0
467,-1,664800,230666,1341805,69152,8810,670532,0
467,-1,664922,230798,1334321,68989,8378,667162,0
467,-1,661922,230510,1351269,68337,8598,675687,0
467,-1,692222,236140,1383068,72783,8798,691563,0
468,-1,666211,230094,1256807,68730,8203,628336,0
468,-1,668944,233008,1360254,69988,9297,679958,0
468,-1,659964,230119,1324779,68140,8192,662330,0
468,-1,670257,231280,1323758,69390,6749,661913,0
469,-1,670931,231233,1381098,69144,9269,690565,0
469,-1,684377,235883,1240600,72458,8412,620121,0
469,-1,664884,231240,1282724,68535,8035,641369,0
469,-1,671427,232745,1270901,70053,7268,635518,0
470,-1,672515,232381,1441639,69752,9335,720699,0
470,-1,669767,230650,1262230,68929,8542,631014,0
470,-1,661741,230312,1223673,68262,9060,611842,0
470,-1,670445,230905,1335387,69279,8164,667745,0
471,-1,689116,235247,1376876,72233,9604,688412,0
471,-1,674676,232356,1272715,69668,9383,636274,0
471,-1,661987,230504,1387477,68284,8091,694070,0
471,-1,674404,232854,1272617,70184,7781,636366,0
472,-1,667197,230698,1429181,68833,9368,714413,0
472,-1,670689,231349,1222937,69139,8225,611425,0
472,-1,660617,230381,1353386,68219,8908,676736,0
472,-1,671111,231659,1261390,69554,7584,630741,0
473,-1,665804,229955,1274191,68575,8487,637146,0
473,-1,673180,232451,1371608,69844,8330,685526,0
473,-1,665620,230197,1365041,68145,8243,681979,0
473,-1,671540,231838,1313242,69607,7386,656621,0
474,-1,664955,230613,1361899,68800,8497,680768,0
474,-1,670416,231341,1530081,69229,9535,765164,0
474,-1,665003,230473,1283394,68286,8253,641740,0
474,-1,669268,231160,1319815,69403,7851,659955,0
475,-1,672477,232482,1387503,69697,8917,693697,0
475,-1,666367,230215,1286524,68806,7549,643142,0
475,-1,666033,231181,1389632,68480,7776,694471,0
475,-1,671270,230881,1375142,69269,7599,687703,0
476,-1,665177,230105,1274485,68625,6878,637316,0
476,-1,674216,231970,1354625,69563,9154,677264,0
476,-1,663216,230638,1445466,68343,8032,722745,0
476,-1,673147,232472,1324207,70057,8028,662185,0
477,-1,663397,229404,1333852,68401,8340,666797,0
477,-1,670266,231184,1274127,69208,7895,637090,0
477,-1,664047,231069,1405455,68497,8253,702543,0
477,-1,688550,235194,1366092,72514,8624,683039,0
478,-1,666529,231005,1253166,68945,8066,626505,0
478,-1,668113,230656,1261113,69009,7760,630666,0
478,-1,659945,229919,1459059,68079,8525,729275,0
478,-1,666458,230357,1240423,69084,7461,620214,0
479,-1,667146,231224,1341232,69185,8494,670552,0
479,-1,672378,232714,1343789,69905,8125,671916,0
479,-1,664897,232185,1353424,69008,8837,677094,0
479,-1,666253,230610,1264924,69187,8633,632490,0
480,-1,664886,230358,1324590,68783,8069,662186,0
480,-1,670179,231507,1696264,69299,10794,848184,0
480,-1,661799,230261,1370417,68227,7950,684776,0
480,-1,688847,235817,1306967,72661,8488,653543,0
481,-1,665566,230216,1245241,68695,7602,622684,0
481,-1,668446,230399,1275562,68896,8526,637741,0
481,-1,660063,230132,1313191,68179,8136,656479,0
481,-1,676684,231929,1236505,69557,8158,618284,0
482,-1,663711,229936,1355635,68749,8372,677881,0
482,-1,669506,231352,1365183,69228,9031,682591,0
482,-1,666243,232904,1292417,69258,8892,645661,0
482,-1,673672,231086,1246540,69187,8565,623318,0
483,-1,668338,231829,1323082,69615,8752,661408,0
483,-1,668292,230699,1315972,68983,7597,657965,0
483,-1,680526,234871,1408151,71521,10022,704068,0
483,-1,677407,232638,1219928,69959,8342,610027,0
484,-1,666874,229766,1262986,68678,8322,631511,0
484,-1,671614,232235,1459474,69692,7996,729693,0
484,-1,661669,230722,1277236,68362,8284,638721,0
484,-1,673020,231431,1251757,69421,8028,625914,0
485,-1,667506,231002,1265685,69241,8402,632935,0
485,-1,667082,230778,1496062,69050,9158,747804,0
485,-1,666157,231571,1254681,68630,8168,627695,0
485,-1,673911,231502,1249229,69454,8246,624656,0
486,-1,664360,229644,1231112,68701,8437,615609,0
486,-1,673086,233266,1362968,70140,8514,681506,0
486,-1,660422,229979,1364631,68071,7896,682355,0
486,-1,671670,230890,1219973,69127,8437,610021,0
487,-1,665028,230075,1204475,68698,8000,602068,0
487,-1,669632,231543,1383428,69309,8743,691741,0
487,-1,662614,230213,1354614,68183,7711,676905,0
487,-1,677159,233342,1201552,70260,8406,600843,0
488,-1,669995,232282,1268516,69721,8645,634241,0
488,-1,665818,230408,1266427,68895,7530,633250,0
488,-1,682239,235324,1395007,71668,9207,697817,0
488,-1,693289,236034,1301793,72691,9218,650895,0
489,-1,683867,238222,1345033,70988,8395,672481,0
489,-1,666248,230438,1290122,68956,7586,644959,0
489,-1,660807,230363,1337529,68260,7781,668749,0
489,-1,672032,231821,1244441,69540,7322,622285,0
490,-1,690236,239109,1368488,70958,8284,684273,0
490,-1,668813,231796,1336304,69544,8964,667975,0
490,-1,657930,229540,1295172,67911,8372,647772,0
490,-1,672042,231628,1383736,69440,7995,691906,0
491,-1,721024,250211,1421133,74488,8903,710448,0
491,-1,667214,230587,1447504,68910,9946,723828,0
491,-1,660259,230758,1365263,68429,8787,682670,0
491,-1,672082,231241,1314681,69309,7821,657389,0
492,-1,718081,249250,1379434,73968,7943,689792,0
492,-1,666766,230947,1384193,69150,9766,691771,0
492,-1,662252,230596,1403543,68308,7390,701797,0
492,-1,672357,231527,1227232,69449,7964,613664,0
493,-1,718028,249528,1435976,74059,8792,717760,0
493,-1,664777,230577,1276293,68972,7460,638147,0
493,-1,659321,229951,1307469,68087,7630,653772,0
493,-1,670714,231199,1385286,69289,8328,692681,0
494,-1,720051,249216,1540168,73948,9196,769303,0
494,-1,670162,232513,1369402,69853,8452,684558,0
494,-1,681575,235469,1408017,71718,9113,704018,0
494,-1,699857,237500,1387526,73690,9268,693716,0
495,-1,721978,248126,1294774,73590,8699,647429,0
495,-1,669681,230829,1305229,69041,8850,652646,0
495,-1,661921,230804,1342910,68395,7381,670757,0
495,-1,671837,231721,1231451,69484,7422,615774,0
496,-1,726886,250468,1432170,74585,9980,716019,0
496,-1,668895,230924,1301335,69094,8644,650452,0
496,-1,659372,230256,1266141,68180,7239,632888,0
496,-1,672012,231428,1246012,69371,8002,623035,0
497,-1,721645,248618,1299174,73690,8575,649447,0
497,-1,666666,230465,1361813,68862,8388,680822,0
497,-1,672661,230019,1507147,68531,7503,753243,0
497,-1,671878,231095,1331320,69211,8086,665693,0
498,-1,719727,248210,1397131,73595,8805,698610,0
498,-1,689676,235664,1348064,72426,9365,673888,0
498,-1,678169,232542,1408105,69627,7303,703563,0
498,-1,695416,236978,1383157,72992,8903,691648,0
499,-1,722190,249145,1468779,73957,9039,734427,0
499,-1,665809,230672,1302806,69027,7763,651253,0
499,-1,670405,229878,1302825,68423,7309,651092,0
499,-1,671804,231882,1236681,69557,7263,618422,0
500,-1,719891,248752,1346309,73798,7933,673106,0
500,-1,668370,230985,1257469,69129,7815,628741,0
500,-1,677922,232476,1307887,69542,8315,653794,0
500,-1,674350,232735,1248630,69932,6917,624380,0
501,-1,719554,248607,1502310,73709,9462,751130,0
501,-1,668090,230814,1360229,68947,9070,680179,0
501,-1,671788,230435,1384054,68694,7788,691498,0
501,-1,669939,231007,1317377,69224,7597,658726,0
502,-1,719837,248238,1377196,73595,9334,688632,0
502,-1,671228,232838,1418126,69958,7828,708868,0
502,-1,670726,230231,1276126,68646,7261,637919,0
502,-1,671666,232208,1415070,69654,7825,707264,0
503,-1,719171,248468,1268453,73730,8551,634203,0
503,-1,665045,230988,1361375,69065,8573,680701,0
503,-1,671251,230354,1292487,68681,8107,646266,0
503,-1,667675,231110,1351211,69340,7887,675644,0
504,-1,723992,250415,1444428,74447,8828,722005,0
504,-1,668074,230179,1273643,68828,8559,636736,0
504,-1,674361,231943,1231816,69352,7783,615574,0
504,-1,669499,231107,1241717,69323,7756,620865,0
505,-1,727032,250963,1448645,74730,9161,724137,0
505,-1,668921,231608,1375694,69274,7522,687839,0
505,-1,670467,230262,1295286,68594,7916,647867,0
505,-1,670795,231576,1378495,69499,8373,689285,0
506,-1,718210,247958,1321234,73567,8447,660705,0
506,-1,669940,232106,1345657,69644,8982,672870,0
506,-1,672207,231013,1211176,68879,7373,605887,0
506,-1,669842,231307,1175960,69396,7477,588002,0
507,-1,719518,248882,1399805,73817,8942,700100,0
507,-1,665891,230573,1242091,68979,9031,620972,0
507,-1,674614,232533,1245368,69604,7689,622287,0
507,-1,667679,231051,1307449,69250,8763,653766,0
508,-1,718283,248417,1327957,73703,8229,663771,0
508,-1,664289,230157,1255195,68751,8280,627634,0
508,-1,666820,229846,1429738,68449,7718,714971,0
508,-1,673942,233465,1342862,70399,7767,671485,0
509,-1,718665,248750,1367156,73862,7358,683603,0
509,-1,666837,231244,1237291,69207,8383,618586,0
509,-1,675884,231926,1302185,69335,8878,651210,0
509,-1,673806,231227,1314452,69399,8004,657265,0
510,-1,717390,248470,1470635,73729,8034,735328,0
510,-1,664587,230544,1381771,68942,10435,691070,0
510,-1,675550,232167,1318820,69491,8307,659283,0
510,-1,671343,231285,1219843,69435,7842,609971,0
511,-1,719532,249056,1307771,73960,8302,653667,0
511,-1,670871,233264,1281639,70122,9300,640601,0
511,-1,673441,232322,1470170,69474,8530,734321,0
511,-1,672925,232332,1324500,69785,7778,662296,0
