0,0,225,644437.964444,220447.533333,1257717.542222,66551.848889,7670.191111,628307.671111,10057.613890,3079.418377,72012.151593,1226.426543,604.965185,36006.304411
0,1,0,-nan,-nan,-nan,-nan,-nan,-nan,-nan,-nan,-nan,-nan,-nan,-nan
1,0,224,645133.375000,220644.741071,1268321.995536,66657.977679,7741.544643,633586.330357,10765.068525,3208.167975,75580.287883,1314.081905,676.823983,37746.133809
1,1,0,-nan,-nan,-nan,-nan,-nan,-nan,-nan,-nan,-nan,-nan,-nan,-nan
2,0,224,644584.214286,220469.089286,1270155.000000,66551.464286,7708.187500,634524.843750,9966.208894,2955.692775,72342.708181,1195.010127,604.978594,36152.031365
2,1,0,-nan,-nan,-nan,-nan,-nan,-nan,-nan,-nan,-nan,-nan,-nan,-nan
3,0,224,645683.062500,220714.254464,1268269.000000,66713.723214,7713.937500,633573.401786,11479.834754,3348.411831,76922.033046,1390.158783,630.513726,38448.926025
3,1,0,-nan,-nan,-nan,-nan,-nan,-nan,-nan,-nan,-nan,-nan,-nan,-nan
4,0,224,644940.084821,220537.401786,1261576.160714,66633.375000,7699.392857,630237.825893,10549.107384,3027.576257,69525.299644,1299.495504,611.249589,34742.525299
4,1,0,-nan,-nan,-nan,-nan,-nan,-nan,-nan,-nan,-nan,-nan,-nan,-nan
5,0,225,644675.128889,220488.422222,1258998.626667,66602.248889,7679.088889,628942.342222,9797.239171,2869.888680,72405.296646,1227.388889,615.832590,36177.873614
5,1,0,-nan,-nan,-nan,-nan,-nan,-nan,-nan,-nan,-nan,-nan,-nan,-nan
6,0,225,644729.551111,220525.080000,1265512.431111,66600.493333,7740.017778,632186.093333,10270.271014,3108.326917,73354.487427,1248.871028,650.439803,36656.528179
6,1,0,-nan,-nan,-nan,-nan,-nan,-nan,-nan,-nan,-nan,-nan,-nan,-nan
7,0,350,643354.028571,220323.151429,1252845.951429,66524.048571,7640.100000,625844.262857,9019.394576,2573.226608,67408.513314,1117.068516,597.777028,33672.195908
7,1,0,-nan,-nan,-nan,-nan,-nan,-nan,-nan,-nan,-nan,-nan,-nan,-nan
