-1,0,0.119718
-1,1,0.118545
-1,2,0.118545
-1,3,0.118545
-1,4,0.118545
-1,5,0.119718
-1,6,0.119718
-1,7,0.166667
3,0,0.125109
3,1,0.12424
3,2,0.125109
3,3,0.125109
3,4,0.125109
3,5,0.125109
3,6,0.125109
3,7,0.125109
