0,0,61,644014.901639,220006.016393,1240404.327869,66494.508197,7676.737705,620196.393443,11338.004888,3513.051453,58273.600400,1430.328583,739.799262,29149.872611
0,1,0,-nan,-nan,-nan,-nan,-nan,-nan,-nan,-nan,-nan,-nan,-nan,-nan
1,0,61,643124.655738,219726.622951,1236301.868852,66406.737705,7691.721311,618161.655738,9582.365680,2789.460193,67755.673422,1211.013583,646.340927,33885.164941
1,1,0,-nan,-nan,-nan,-nan,-nan,-nan,-nan,-nan,-nan,-nan,-nan,-nan
2,0,61,643127.606557,219472.704918,1243491.032787,66408.213115,7716.196721,621732.557377,8868.617717,1908.313180,69092.028898,1273.352038,693.343735,34500.027638
2,1,0,-nan,-nan,-nan,-nan,-nan,-nan,-nan,-nan,-nan,-nan,-nan,-nan
3,0,61,643063.983607,219476.147541,1231236.688525,66417.262295,7664.573770,615633.245902,8190.080831,1739.008487,66246.711259,1221.802872,668.915135,33121.829565
3,1,0,-nan,-nan,-nan,-nan,-nan,-nan,-nan,-nan,-nan,-nan,-nan,-nan
4,0,61,642650.131148,219512.475410,1245687.262295,66325.459016,7641.016393,622855.934426,8051.585970,1945.674004,76658.545817,1103.618052,718.490209,38330.459746
4,1,0,-nan,-nan,-nan,-nan,-nan,-nan,-nan,-nan,-nan,-nan,-nan,-nan
5,0,61,642109.754098,219321.327869,1257357.721311,66274.475410,7803.491803,628669.098361,7150.428447,1619.728390,76625.141923,991.676600,865.480131,38291.394979
5,1,0,-nan,-nan,-nan,-nan,-nan,-nan,-nan,-nan,-nan,-nan,-nan,-nan
6,0,61,642124.491803,219411.754098,1237877.704918,66257.557377,7631.573770,618937.688525,7478.734678,1823.416489,67267.247431,971.767994,555.009746,33644.779123
6,1,0,-nan,-nan,-nan,-nan,-nan,-nan,-nan,-nan,-nan,-nan,-nan,-nan
7,0,61,641309.032787,219169.704918,1241617.918033,66168.901639,7694.311475,620817.770492,6325.103887,1504.810487,62384.033320,985.831191,609.489965,31211.445130
7,1,0,-nan,-nan,-nan,-nan,-nan,-nan,-nan,-nan,-nan,-nan,-nan,-nan
8,0,61,644544.803279,219902.393443,1240410.721311,66592.688525,7837.196721,620208.459016,8970.200405,2014.127589,61011.857025,1257.754485,657.629918,30498.404358
8,1,0,-nan,-nan,-nan,-nan,-nan,-nan,-nan,-nan,-nan,-nan,-nan,-nan
9,0,61,641405.967213,219121.278689,1244041.672131,66132.081967,7722.491803,622015.983607,5999.237061,1423.804925,69610.509257,944.843318,625.843264,34775.471608
9,1,0,-nan,-nan,-nan,-nan,-nan,-nan,-nan,-nan,-nan,-nan,-nan,-nan
10,0,61,643518.737705,219839.606557,1249185.803279,66480.885246,7802.016393,624551.967213,8557.069594,2107.413311,66023.234302,1149.940656,730.667278,32979.019234
10,1,0,-nan,-nan,-nan,-nan,-nan,-nan,-nan,-nan,-nan,-nan,-nan,-nan
11,0,61,645178.377049,220327.655738,1242148.180328,66711.639344,7811.229508,621056.426230,12383.882170,3634.644271,62781.934980,1608.649755,722.090122,31347.807180
11,1,0,-nan,-nan,-nan,-nan,-nan,-nan,-nan,-nan,-nan,-nan,-nan,-nan
12,0,61,642255.885246,219563.016393,1223863.393443,66232.311475,7641.426230,611940.737705,9459.342983,2983.285149,59465.084606,1118.255822,576.813561,29714.267282
12,1,0,-nan,-nan,-nan,-nan,-nan,-nan,-nan,-nan,-nan,-nan,-nan,-nan
13,0,61,642267.409836,219626.508197,1237191.524590,66249.409836,7757.327869,618565.114754,9713.885710,3003.773166,68401.945785,1125.988577,614.750428,34157.445442
13,1,0,-nan,-nan,-nan,-nan,-nan,-nan,-nan,-nan,-nan,-nan,-nan,-nan
14,0,61,643188.049180,219815.213115,1237197.885246,66371.409836,7664.918033,618610.409836,12911.974443,3668.888835,60992.899204,1542.921100,575.383501,30460.900357
14,1,0,-nan,-nan,-nan,-nan,-nan,-nan,-nan,-nan,-nan,-nan,-nan,-nan
15,0,61,642139.508197,219513.360656,1223978.918033,66257.147541,7574.737705,612000.213115,8786.985161,2537.576442,68191.717491,1045.019191,600.350851,34064.643726
15,1,0,-nan,-nan,-nan,-nan,-nan,-nan,-nan,-nan,-nan,-nan,-nan,-nan
16,0,61,642084.983607,219525.049180,1244003.704918,66241.393443,7722.000000,622001.573770,9028.102485,2703.415996,77484.857549,1120.483345,777.018809,38720.149494
16,1,0,-nan,-nan,-nan,-nan,-nan,-nan,-nan,-nan,-nan,-nan,-nan,-nan
17,0,61,642835.295082,219723.672131,1230414.836066,66349.278689,7725.655738,615189.754098,9432.011355,2846.405560,70009.867572,1183.780788,686.964787,34969.451130
17,1,0,-nan,-nan,-nan,-nan,-nan,-nan,-nan,-nan,-nan,-nan,-nan,-nan
18,0,61,643274.852459,219756.180328,1241227.360656,66431.639344,7764.213115,620606.459016,9886.833805,2731.370193,68600.520415,1320.180092,651.108969,34297.508350
18,1,0,-nan,-nan,-nan,-nan,-nan,-nan,-nan,-nan,-nan,-nan,-nan,-nan
19,0,61,643602.590164,219834.524590,1251084.606557,66487.524590,7759.196721,625520.737705,10351.734282,2770.575354,64455.261162,1389.870363,712.225347,32211.660068
19,1,0,-nan,-nan,-nan,-nan,-nan,-nan,-nan,-nan,-nan,-nan,-nan,-nan
20,0,61,643467.032787,220021.131148,1236282.229508,66454.590164,7674.442623,618152.459016,10362.188483,3108.404005,76216.187883,1225.677362,672.485493,38122.446501
20,1,0,-nan,-nan,-nan,-nan,-nan,-nan,-nan,-nan,-nan,-nan,-nan,-nan
21,0,61,642493.147541,219638.032787,1236109.786885,66328.213115,7677.442623,618047.967213,10359.843250,3175.656989,57759.802512,1329.404725,666.829236,28881.542717
21,1,0,-nan,-nan,-nan,-nan,-nan,-nan,-nan,-nan,-nan,-nan,-nan,-nan
22,0,61,643108.754098,219731.459016,1234704.327869,66396.836066,7710.459016,617358.377049,9091.366433,2635.051003,64713.169690,1154.649989,680.540999,32380.280176
22,1,0,-nan,-nan,-nan,-nan,-nan,-nan,-nan,-nan,-nan,-nan,-nan,-nan
23,0,61,643200.836066,219744.950820,1239012.688525,66381.245902,7657.819672,619475.049180,10330.939035,3013.478973,64986.227358,1252.009083,615.155225,32479.233206
23,1,0,-nan,-nan,-nan,-nan,-nan,-nan,-nan,-nan,-nan,-nan,-nan,-nan
24,0,61,641639.295082,219369.885246,1248856.540984,66152.655738,7767.344262,624413.868852,8035.549446,2464.703900,77863.870425,983.226120,820.592766,38924.976345
24,1,0,-nan,-nan,-nan,-nan,-nan,-nan,-nan,-nan,-nan,-nan,-nan,-nan
25,0,61,642519.557377,219520.311475,1239676.704918,66269.721311,7792.885246,619836.639344,9066.368886,2591.519945,85481.951341,1111.893646,706.250039,42726.658651
25,1,0,-nan,-nan,-nan,-nan,-nan,-nan,-nan,-nan,-nan,-nan,-nan,-nan
26,0,61,644004.245902,220004.049180,1241531.491803,66552.114754,7738.819672,620739.852459,10217.231913,2823.613894,73036.906854,1320.854829,651.642754,36444.020065
26,1,0,-nan,-nan,-nan,-nan,-nan,-nan,-nan,-nan,-nan,-nan,-nan,-nan
27,0,61,642749.803279,219590.000000,1246971.737705,66300.524590,7735.508197,623490.934426,11491.800301,3219.057168,75464.266409,1429.848595,796.958020,37723.617851
27,1,0,-nan,-nan,-nan,-nan,-nan,-nan,-nan,-nan,-nan,-nan,-nan,-nan
28,0,61,644254.163934,220147.262295,1246185.295082,66515.278689,7826.819672,623086.049180,10739.976025,3329.341267,71287.051092,1353.166852,778.994066,35614.505403
28,1,0,-nan,-nan,-nan,-nan,-nan,-nan,-nan,-nan,-nan,-nan,-nan,-nan
29,0,61,641875.229508,219483.704918,1238332.934426,66222.065574,7732.524590,619149.508197,8754.372070,2649.041858,54954.120491,1022.179171,723.484592,27428.477191
29,1,0,-nan,-nan,-nan,-nan,-nan,-nan,-nan,-nan,-nan,-nan,-nan,-nan
30,0,61,641818.344262,219364.245902,1244848.573770,66167.295082,7651.098361,622392.852459,8635.514126,2591.703229,71484.309341,1081.249753,763.119218,35715.473707
30,1,0,-nan,-nan,-nan,-nan,-nan,-nan,-nan,-nan,-nan,-nan,-nan,-nan
31,0,158,641874.892405,219653.050633,1231110.158228,66310.379747,7672.177215,615532.816456,9302.837697,2647.799659,65098.817279,1106.105699,711.915134,32540.554722
31,1,0,-nan,-nan,-nan,-nan,-nan,-nan,-nan,-nan,-nan,-nan,-nan,-nan
