0,0,9,658244.222222,224718.333333,1281211.777778,68041.777778,7754.111111,640571.555556,21967.991744,7152.793316,56239.398918,2129.824029,646.263181,28100.613537
0,1,0,-nan,-nan,-nan,-nan,-nan,-nan,-nan,-nan,-nan,-nan,-nan,-nan
1,0,8,647848.750000,222342.375000,1286389.500000,67024.625000,8058.625000,643185.000000,16020.779466,6363.385124,67397.567543,1762.795077,321.450205,33698.310013
1,1,0,-nan,-nan,-nan,-nan,-nan,-nan,-nan,-nan,-nan,-nan,-nan,-nan
2,0,8,646673.250000,221462.250000,1304689.000000,66577.625000,7957.000000,652322.625000,16521.084390,6247.932973,51063.176808,1674.834689,376.869009,25505.479494
2,1,0,-nan,-nan,-nan,-nan,-nan,-nan,-nan,-nan,-nan,-nan,-nan,-nan
3,0,8,650987.125000,222783.125000,1310745.875000,67378.375000,8285.000000,655326.250000,13073.347022,4910.910823,64476.440997,1453.747995,596.300050,32208.692195
3,1,0,-nan,-nan,-nan,-nan,-nan,-nan,-nan,-nan,-nan,-nan,-nan,-nan
4,0,8,644867.875000,220237.625000,1271843.875000,66626.000000,7753.375000,635960.000000,5506.668013,1418.592519,45185.886675,1018.504909,615.863609,22568.844593
4,1,0,-nan,-nan,-nan,-nan,-nan,-nan,-nan,-nan,-nan,-nan,-nan,-nan
5,0,8,645015.125000,220232.125000,1290398.750000,66606.750000,7993.625000,645248.625000,7181.778791,1538.782915,40270.453476,1110.485564,768.027333,20136.636325
5,1,0,-nan,-nan,-nan,-nan,-nan,-nan,-nan,-nan,-nan,-nan,-nan,-nan
6,0,8,643119.625000,219415.625000,1223483.125000,66257.375000,7663.750000,611667.250000,7930.673568,1757.721532,64752.024133,1048.210849,476.054290,32383.192966
6,1,0,-nan,-nan,-nan,-nan,-nan,-nan,-nan,-nan,-nan,-nan,-nan,-nan
7,0,8,648559.625000,221553.000000,1339998.750000,67048.625000,8250.000000,669806.125000,15549.938110,3949.797526,108507.728567,1935.448071,856.542176,53862.165663
7,1,0,-nan,-nan,-nan,-nan,-nan,-nan,-nan,-nan,-nan,-nan,-nan,-nan
8,0,8,643251.875000,219943.750000,1317624.625000,66359.125000,8091.375000,658734.750000,2564.855183,1226.916027,123270.643811,545.806614,1075.443506,61359.625709
8,1,0,-nan,-nan,-nan,-nan,-nan,-nan,-nan,-nan,-nan,-nan,-nan,-nan
9,0,8,645158.375000,220040.250000,1322987.250000,66708.000000,8089.500000,661230.125000,8070.246913,1939.699510,55924.599958,1454.661645,597.166643,27674.846772
9,1,0,-nan,-nan,-nan,-nan,-nan,-nan,-nan,-nan,-nan,-nan,-nan,-nan
10,0,8,641818.125000,219399.375000,1293789.750000,66064.125000,7970.500000,646871.375000,2957.056283,947.303006,29627.057898,372.963617,496.346653,14778.201074
10,1,0,-nan,-nan,-nan,-nan,-nan,-nan,-nan,-nan,-nan,-nan,-nan,-nan
11,0,8,646703.750000,221018.750000,1310261.875000,66804.375000,8014.125000,655138.500000,12355.304678,3323.561559,79479.310757,1251.959558,640.252575,39716.205140
11,1,0,-nan,-nan,-nan,-nan,-nan,-nan,-nan,-nan,-nan,-nan,-nan,-nan
12,0,8,644606.375000,220354.375000,1305022.875000,66811.750000,7903.000000,652493.875000,9965.600947,2328.118389,59592.419890,1542.620477,513.974951,29842.362098
12,1,0,-nan,-nan,-nan,-nan,-nan,-nan,-nan,-nan,-nan,-nan,-nan,-nan
13,0,8,640278.750000,219504.250000,1331146.500000,66165.500000,8318.750000,665572.375000,1787.711858,1116.971547,95183.463583,488.724360,863.662658,47507.892626
13,1,0,-nan,-nan,-nan,-nan,-nan,-nan,-nan,-nan,-nan,-nan,-nan,-nan
14,0,8,643954.875000,220024.125000,1281082.875000,66503.625000,7919.250000,640539.625000,6471.544279,1753.509156,116179.464936,1104.401301,702.465079,58102.455307
14,1,0,-nan,-nan,-nan,-nan,-nan,-nan,-nan,-nan,-nan,-nan,-nan,-nan
15,0,8,642455.625000,220120.500000,1267169.125000,66374.750000,7924.750000,633582.750000,3026.748583,1019.723860,59062.069819,546.311209,578.027194,29521.995655
15,1,0,-nan,-nan,-nan,-nan,-nan,-nan,-nan,-nan,-nan,-nan,-nan,-nan
16,0,8,643698.500000,220031.125000,1283316.250000,66501.125000,7989.875000,641693.500000,7670.985905,1829.179491,48131.735918,1188.416850,385.218586,24086.226936
16,1,0,-nan,-nan,-nan,-nan,-nan,-nan,-nan,-nan,-nan,-nan,-nan,-nan
17,0,8,649271.250000,220963.500000,1314148.875000,67044.750000,8189.000000,657043.375000,10312.164755,2024.918949,53688.363694,1433.898772,861.884998,26729.142275
17,1,0,-nan,-nan,-nan,-nan,-nan,-nan,-nan,-nan,-nan,-nan,-nan,-nan
18,0,8,643692.125000,220043.875000,1299814.125000,66498.625000,7979.875000,649914.750000,8722.330228,1684.513167,80919.458853,1138.187917,921.275534,40470.917814
18,1,0,-nan,-nan,-nan,-nan,-nan,-nan,-nan,-nan,-nan,-nan,-nan,-nan
19,0,8,641671.125000,219777.250000,1281716.875000,66270.625000,7774.375000,640808.875000,3500.529440,1414.684130,69656.467556,648.963970,483.113583,34917.782831
19,1,0,-nan,-nan,-nan,-nan,-nan,-nan,-nan,-nan,-nan,-nan,-nan,-nan
20,0,8,643884.125000,220171.000000,1281563.000000,66578.625000,7926.750000,640791.875000,7716.235375,1617.750444,74812.131917,1023.313972,1023.054098,37399.910730
20,1,0,-nan,-nan,-nan,-nan,-nan,-nan,-nan,-nan,-nan,-nan,-nan,-nan
21,0,8,644019.000000,220236.250000,1271727.500000,66625.875000,8134.250000,635837.250000,6508.524161,1450.065839,71109.935013,1110.770165,957.199006,35506.533236
21,1,0,-nan,-nan,-nan,-nan,-nan,-nan,-nan,-nan,-nan,-nan,-nan,-nan
22,0,8,639487.875000,219039.750000,1254849.375000,65918.625000,7799.750000,627369.750000,2571.704903,726.090000,64908.478237,293.047751,754.246768,32351.654891
22,1,0,-nan,-nan,-nan,-nan,-nan,-nan,-nan,-nan,-nan,-nan,-nan,-nan
23,0,8,643366.750000,220312.000000,1253368.500000,66659.625000,7979.125000,626701.000000,7302.150278,1555.883350,78298.545528,1054.773072,395.357255,39167.443451
23,1,0,-nan,-nan,-nan,-nan,-nan,-nan,-nan,-nan,-nan,-nan,-nan,-nan
24,0,8,642021.375000,219676.000000,1245905.125000,66178.500000,7864.750000,622916.000000,5256.995124,1017.038593,61519.963090,406.804314,710.345646,30740.310103
24,1,0,-nan,-nan,-nan,-nan,-nan,-nan,-nan,-nan,-nan,-nan,-nan,-nan
25,0,8,641668.000000,219784.500000,1247926.375000,66224.500000,7956.500000,623934.750000,3343.060649,883.232274,44654.255231,395.861403,374.804949,22296.651519
25,1,0,-nan,-nan,-nan,-nan,-nan,-nan,-nan,-nan,-nan,-nan,-nan,-nan
26,0,8,641693.625000,219311.250000,1286646.750000,66004.750000,7975.250000,643279.750000,2641.504824,491.339178,88003.501470,234.823737,664.808948,44026.231904
26,1,0,-nan,-nan,-nan,-nan,-nan,-nan,-nan,-nan,-nan,-nan,-nan,-nan
27,0,8,644438.500000,220125.500000,1301154.750000,66543.250000,8052.250000,650614.375000,9505.736413,1845.270034,57602.212908,1251.901928,601.174424,28775.201194
27,1,0,-nan,-nan,-nan,-nan,-nan,-nan,-nan,-nan,-nan,-nan,-nan,-nan
28,0,8,644785.875000,220192.000000,1287972.875000,66545.875000,8088.000000,643897.375000,8109.478473,1639.777729,86823.836736,1235.393706,777.157320,43265.565684
28,1,0,-nan,-nan,-nan,-nan,-nan,-nan,-nan,-nan,-nan,-nan,-nan,-nan
29,0,8,643885.250000,219978.000000,1271738.750000,66484.000000,8358.625000,635738.625000,7477.432008,1369.359887,62986.296422,1036.523275,683.716670,31373.071283
29,1,0,-nan,-nan,-nan,-nan,-nan,-nan,-nan,-nan,-nan,-nan,-nan,-nan
30,0,8,644513.500000,220406.375000,1321123.500000,66669.875000,7886.500000,660560.125000,7776.995596,1544.493520,34148.682998,952.788859,410.565464,17051.118588
30,1,0,-nan,-nan,-nan,-nan,-nan,-nan,-nan,-nan,-nan,-nan,-nan,-nan
31,0,8,642093.375000,219791.875000,1328089.375000,66250.750000,7910.375000,664002.000000,3072.373835,964.267654,62226.945701,473.883622,413.818480,31063.733533
31,1,0,-nan,-nan,-nan,-nan,-nan,-nan,-nan,-nan,-nan,-nan,-nan,-nan
32,0,8,644004.625000,220300.000000,1269719.500000,66634.125000,7778.375000,634873.500000,8609.273067,1832.335122,81502.750516,1130.166961,819.935049,40855.898898
32,1,0,-nan,-nan,-nan,-nan,-nan,-nan,-nan,-nan,-nan,-nan,-nan,-nan
33,0,8,641144.375000,219624.625000,1289489.500000,66155.375000,7569.750000,644714.125000,3105.470976,720.047904,61445.754469,195.798964,418.736716,30669.869112
33,1,0,-nan,-nan,-nan,-nan,-nan,-nan,-nan,-nan,-nan,-nan,-nan,-nan
34,0,8,641765.750000,219684.625000,1307443.375000,66223.250000,7832.875000,653716.500000,3573.019058,942.531291,125731.935657,530.677103,423.297601,62848.067200
34,1,0,-nan,-nan,-nan,-nan,-nan,-nan,-nan,-nan,-nan,-nan,-nan,-nan
35,0,8,643419.125000,220437.875000,1288216.875000,66332.375000,7809.125000,644081.625000,7827.457161,3295.482113,73662.835109,929.234892,406.246365,36870.846932
35,1,0,-nan,-nan,-nan,-nan,-nan,-nan,-nan,-nan,-nan,-nan,-nan,-nan
36,0,8,644841.125000,220478.750000,1287748.000000,66667.375000,7943.375000,643833.875000,7815.454280,1117.478160,66629.842006,840.183155,324.541191,33323.033717
36,1,0,-nan,-nan,-nan,-nan,-nan,-nan,-nan,-nan,-nan,-nan,-nan,-nan
37,0,8,641698.125000,219850.125000,1299499.375000,66256.500000,7956.375000,649732.500000,2897.557827,738.318941,68888.641350,274.638399,476.651061,34363.365078
37,1,0,-nan,-nan,-nan,-nan,-nan,-nan,-nan,-nan,-nan,-nan,-nan,-nan
38,0,8,639989.000000,219479.625000,1273306.375000,66096.375000,7928.750000,636537.500000,2638.528046,668.227120,39485.602927,307.891595,406.373520,19602.364991
38,1,0,-nan,-nan,-nan,-nan,-nan,-nan,-nan,-nan,-nan,-nan,-nan,-nan
39,0,8,648265.000000,220956.375000,1251779.125000,67092.375000,8117.500000,625926.250000,8284.334071,1884.578994,45126.013885,1418.963525,794.246970,22573.481581
39,1,0,-nan,-nan,-nan,-nan,-nan,-nan,-nan,-nan,-nan,-nan,-nan,-nan
40,0,8,641227.500000,219418.000000,1296024.500000,66144.375000,7983.625000,647975.500000,1655.765457,1278.686142,47989.127912,504.034210,348.818340,23980.781279
40,1,0,-nan,-nan,-nan,-nan,-nan,-nan,-nan,-nan,-nan,-nan,-nan,-nan
41,0,8,641418.125000,219727.500000,1288925.625000,66220.375000,8115.375000,644489.625000,2316.931939,699.809081,81758.425323,419.799338,493.887370,40889.908134
41,1,0,-nan,-nan,-nan,-nan,-nan,-nan,-nan,-nan,-nan,-nan,-nan,-nan
42,0,8,643468.875000,220212.125000,1330315.500000,66408.625000,8395.000000,664972.250000,3349.880611,944.538967,75148.179950,323.230544,841.101213,37495.375054
42,1,0,-nan,-nan,-nan,-nan,-nan,-nan,-nan,-nan,-nan,-nan,-nan,-nan
43,0,8,640537.000000,219284.375000,1235022.375000,66049.625000,7723.125000,617437.875000,2588.824637,852.894328,73472.025307,430.752811,422.406628,36707.592070
43,1,0,-nan,-nan,-nan,-nan,-nan,-nan,-nan,-nan,-nan,-nan,-nan,-nan
44,0,8,641095.500000,219535.000000,1261591.750000,66137.000000,8342.375000,630838.125000,3974.627310,724.516735,36431.638330,380.166411,553.637954,18240.319223
44,1,0,-nan,-nan,-nan,-nan,-nan,-nan,-nan,-nan,-nan,-nan,-nan,-nan
45,0,8,644914.250000,220411.625000,1265837.500000,66720.500000,8329.750000,632905.625000,5949.669040,1679.675708,52604.852927,1097.187769,788.450339,26293.031424
45,1,0,-nan,-nan,-nan,-nan,-nan,-nan,-nan,-nan,-nan,-nan,-nan,-nan
46,0,8,644956.500000,220305.750000,1309226.875000,66638.375000,8416.375000,654634.750000,7099.620254,1821.881428,42408.640745,1266.091716,585.825473,21192.639251
46,1,0,-nan,-nan,-nan,-nan,-nan,-nan,-nan,-nan,-nan,-nan,-nan,-nan
47,0,8,646105.375000,220804.500000,1261374.625000,67038.375000,8360.125000,630631.750000,10449.138959,1971.672894,46739.096383,1462.750315,579.976387,23304.026314
47,1,0,-nan,-nan,-nan,-nan,-nan,-nan,-nan,-nan,-nan,-nan,-nan,-nan
48,0,8,643974.375000,220569.000000,1246529.500000,66450.750000,8003.875000,623278.625000,8515.471933,3178.045351,73553.690149,945.830554,408.087441,36788.525235
48,1,0,-nan,-nan,-nan,-nan,-nan,-nan,-nan,-nan,-nan,-nan,-nan,-nan
49,0,8,641956.625000,219746.500000,1270952.750000,66221.875000,8240.375000,635379.125000,3844.743097,697.842568,82967.730059,345.769228,510.728386,41476.402696
49,1,0,-nan,-nan,-nan,-nan,-nan,-nan,-nan,-nan,-nan,-nan,-nan,-nan
50,0,8,643423.875000,220073.625000,1281136.500000,66392.250000,8080.750000,640518.500000,1989.633913,1124.003774,69269.710390,426.465928,338.863450,34649.384645
50,1,0,-nan,-nan,-nan,-nan,-nan,-nan,-nan,-nan,-nan,-nan,-nan,-nan
51,0,8,646583.625000,220354.375000,1277804.500000,66841.875000,8061.375000,638931.375000,10144.095437,2104.200260,73029.536122,1624.851335,600.027278,36527.989104
51,1,0,-nan,-nan,-nan,-nan,-nan,-nan,-nan,-nan,-nan,-nan,-nan,-nan
52,0,8,643878.875000,220009.000000,1322374.375000,66511.250000,8184.000000,661096.375000,7824.894687,1480.452549,101113.266815,1122.881533,827.086755,50319.311166
52,1,0,-nan,-nan,-nan,-nan,-nan,-nan,-nan,-nan,-nan,-nan,-nan,-nan
53,0,8,641359.250000,219594.625000,1249242.000000,66176.875000,7706.375000,624556.500000,3784.178040,1211.017954,44199.715811,504.782487,345.947228,22141.518472
53,1,0,-nan,-nan,-nan,-nan,-nan,-nan,-nan,-nan,-nan,-nan,-nan,-nan
54,0,8,640555.500000,219478.500000,1311756.125000,66094.375000,8222.000000,655900.125000,1627.646000,792.709909,74704.797686,307.773430,396.235094,37398.099612
54,1,0,-nan,-nan,-nan,-nan,-nan,-nan,-nan,-nan,-nan,-nan,-nan,-nan
55,0,8,645017.875000,220444.375000,1299345.500000,66677.500000,7899.000000,649505.750000,7256.055306,1693.841561,66311.106741,1008.604605,488.475178,33029.938710
55,1,0,-nan,-nan,-nan,-nan,-nan,-nan,-nan,-nan,-nan,-nan,-nan,-nan
56,0,8,641536.375000,219401.125000,1305545.500000,66041.125000,7972.000000,652713.125000,1996.925946,509.018526,67930.714323,269.616597,559.095922,33921.199313
56,1,0,-nan,-nan,-nan,-nan,-nan,-nan,-nan,-nan,-nan,-nan,-nan,-nan
57,0,8,642500.125000,220024.125000,1299127.250000,66390.750000,8279.125000,649405.125000,2899.288595,956.366357,76283.352817,537.647131,818.771250,38172.464845
57,1,0,-nan,-nan,-nan,-nan,-nan,-nan,-nan,-nan,-nan,-nan,-nan,-nan
58,0,8,644111.250000,220010.250000,1271839.625000,66480.500000,8162.750000,635911.625000,7403.396885,1435.234193,61169.440076,1173.415314,404.126141,30638.071435
58,1,0,-nan,-nan,-nan,-nan,-nan,-nan,-nan,-nan,-nan,-nan,-nan,-nan
59,0,8,644378.500000,220541.500000,1311462.125000,66569.375000,8348.625000,655652.375000,3190.213903,937.235563,114933.129013,342.217014,676.863342,57335.576569
59,1,0,-nan,-nan,-nan,-nan,-nan,-nan,-nan,-nan,-nan,-nan,-nan,-nan
60,0,8,641863.125000,219759.125000,1295591.500000,66372.125000,8091.000000,647741.375000,8009.361233,2032.741034,92756.326857,1209.329508,524.004294,46395.101007
60,1,0,-nan,-nan,-nan,-nan,-nan,-nan,-nan,-nan,-nan,-nan,-nan,-nan
61,0,8,641030.625000,219707.625000,1267536.250000,66197.125000,8025.750000,633728.750000,2622.399947,854.278927,88657.903736,461.938697,507.701130,44285.637584
61,1,0,-nan,-nan,-nan,-nan,-nan,-nan,-nan,-nan,-nan,-nan,-nan,-nan
62,0,8,640522.250000,219537.250000,1279645.625000,66104.250000,8126.625000,639809.750000,1640.210257,900.064685,58546.642606,305.323087,262.696563,29156.562794
62,1,0,-nan,-nan,-nan,-nan,-nan,-nan,-nan,-nan,-nan,-nan,-nan,-nan
63,0,8,643767.125000,219970.125000,1338066.000000,66481.000000,8228.875000,669023.250000,8836.053622,1854.636584,85148.070351,1297.249301,590.539465,42579.385642
63,1,0,-nan,-nan,-nan,-nan,-nan,-nan,-nan,-nan,-nan,-nan,-nan,-nan
64,0,8,643544.125000,219942.250000,1307007.250000,66436.750000,7888.500000,653493.625000,6912.488200,1441.335470,89617.325361,1166.762160,646.214748,44789.270827
64,1,0,-nan,-nan,-nan,-nan,-nan,-nan,-nan,-nan,-nan,-nan,-nan,-nan
65,0,8,645122.250000,220540.375000,1283022.000000,66709.500000,8014.375000,641423.375000,8363.411695,1789.724067,40862.218194,1147.710983,499.408635,20316.906328
65,1,0,-nan,-nan,-nan,-nan,-nan,-nan,-nan,-nan,-nan,-nan,-nan,-nan
66,0,8,649344.625000,221434.375000,1298986.875000,67402.250000,8130.000000,649428.875000,9619.531602,2311.282649,63025.448179,1709.520675,600.090410,31505.857727
66,1,0,-nan,-nan,-nan,-nan,-nan,-nan,-nan,-nan,-nan,-nan,-nan,-nan
67,0,8,641266.500000,219917.125000,1284800.375000,66248.750000,7904.750000,642433.375000,2507.435144,871.227788,62951.667238,308.366158,411.595296,31392.128468
67,1,0,-nan,-nan,-nan,-nan,-nan,-nan,-nan,-nan,-nan,-nan,-nan,-nan
68,0,8,641235.125000,219559.750000,1288478.875000,66108.750000,7870.750000,644213.625000,2137.941384,932.290560,62997.535891,523.702862,500.793558,31516.518439
68,1,0,-nan,-nan,-nan,-nan,-nan,-nan,-nan,-nan,-nan,-nan,-nan,-nan
69,0,8,644554.250000,220270.250000,1323828.750000,66563.375000,8134.500000,661868.125000,7544.256918,1445.656404,84846.310599,1159.475952,678.815697,42474.542427
69,1,0,-nan,-nan,-nan,-nan,-nan,-nan,-nan,-nan,-nan,-nan,-nan,-nan
70,0,8,643295.750000,220057.250000,1291979.125000,66499.750000,7863.000000,645962.250000,8437.217014,1802.577512,66099.360567,1068.220220,617.770791,32978.732923
70,1,0,-nan,-nan,-nan,-nan,-nan,-nan,-nan,-nan,-nan,-nan,-nan,-nan
71,0,8,643184.500000,220336.625000,1277409.750000,66608.125000,8064.250000,638759.875000,8430.301033,1384.253403,72079.501491,1167.196903,607.861775,36023.599735
71,1,0,-nan,-nan,-nan,-nan,-nan,-nan,-nan,-nan,-nan,-nan,-nan,-nan
72,0,8,643259.625000,219980.625000,1287752.625000,66427.125000,8303.000000,643833.875000,9384.549229,1975.470889,65795.733712,1366.810927,384.735624,32879.719735
72,1,0,-nan,-nan,-nan,-nan,-nan,-nan,-nan,-nan,-nan,-nan,-nan,-nan
73,0,8,641667.000000,219723.625000,1285276.750000,66150.625000,7774.750000,642604.750000,2437.827209,742.180897,53057.880079,397.511930,565.291905,26393.569107
73,1,0,-nan,-nan,-nan,-nan,-nan,-nan,-nan,-nan,-nan,-nan,-nan,-nan
74,0,8,641564.500000,219807.500000,1259308.625000,66158.250000,7705.625000,629642.750000,2430.751067,1185.486398,58389.142625,462.345582,362.036579,29207.356431
74,1,0,-nan,-nan,-nan,-nan,-nan,-nan,-nan,-nan,-nan,-nan,-nan,-nan
75,0,8,644827.125000,220588.750000,1318818.375000,66754.625000,8231.125000,659270.000000,7178.563548,1861.898812,72390.167169,1090.049877,421.098099,35863.601513
75,1,0,-nan,-nan,-nan,-nan,-nan,-nan,-nan,-nan,-nan,-nan,-nan,-nan
76,0,8,647013.125000,220841.625000,1280594.750000,67017.375000,7976.500000,640221.250000,9015.435270,1799.885409,48773.128282,1356.365174,806.773822,24384.103981
76,1,0,-nan,-nan,-nan,-nan,-nan,-nan,-nan,-nan,-nan,-nan,-nan,-nan
77,0,8,642608.000000,220213.000000,1299400.500000,66425.625000,7897.000000,649630.500000,4448.019700,1146.692962,40770.629738,563.483349,558.263603,20337.660331
77,1,0,-nan,-nan,-nan,-nan,-nan,-nan,-nan,-nan,-nan,-nan,-nan,-nan
78,0,8,648462.000000,222044.125000,1262492.625000,67214.500000,8031.000000,631202.000000,10844.808136,3203.998144,55969.123946,1268.869379,523.921511,27967.217850
78,1,0,-nan,-nan,-nan,-nan,-nan,-nan,-nan,-nan,-nan,-nan,-nan,-nan
79,0,8,641595.375000,219880.500000,1319579.000000,66256.250000,7952.250000,659925.625000,3419.711133,993.953595,51806.898932,590.681757,513.142707,26077.438932
79,1,0,-nan,-nan,-nan,-nan,-nan,-nan,-nan,-nan,-nan,-nan,-nan,-nan
80,0,8,643287.375000,220294.625000,1298592.625000,66602.625000,8093.500000,649227.875000,6122.525601,1538.222346,25148.298108,992.403514,325.134972,12618.133622
80,1,0,-nan,-nan,-nan,-nan,-nan,-nan,-nan,-nan,-nan,-nan,-nan,-nan
81,0,8,642295.125000,220189.625000,1324487.875000,66431.750000,8088.250000,662236.375000,3487.093576,1281.112206,74134.615829,552.859555,449.254313,37085.175775
81,1,0,-nan,-nan,-nan,-nan,-nan,-nan,-nan,-nan,-nan,-nan,-nan,-nan
82,0,8,642478.500000,219817.500000,1278443.875000,66222.625000,7862.875000,639260.250000,2209.970927,687.693064,115745.786950,347.074897,625.793184,57888.636864
82,1,0,-nan,-nan,-nan,-nan,-nan,-nan,-nan,-nan,-nan,-nan,-nan,-nan
83,0,8,643723.250000,220253.000000,1277368.000000,66582.625000,8430.625000,638720.000000,7158.407395,1804.842860,32966.178661,1226.320201,725.018610,16474.257980
83,1,0,-nan,-nan,-nan,-nan,-nan,-nan,-nan,-nan,-nan,-nan,-nan,-nan
84,0,8,643440.625000,219975.875000,1267815.000000,66490.500000,8039.125000,633917.750000,6664.022114,1487.649525,67599.262892,1181.878166,499.625469,33806.225909
84,1,0,-nan,-nan,-nan,-nan,-nan,-nan,-nan,-nan,-nan,-nan,-nan,-nan
85,0,8,643008.375000,220462.500000,1279916.750000,66553.125000,7926.125000,639984.000000,2467.249072,1025.232657,54690.325549,474.480621,387.159992,27332.803460
85,1,0,-nan,-nan,-nan,-nan,-nan,-nan,-nan,-nan,-nan,-nan,-nan,-nan
86,0,8,643395.500000,220275.875000,1291934.000000,66623.000000,8230.875000,645990.125000,6781.731361,1475.835648,122464.001067,1040.346937,919.856434,61222.227600
86,1,0,-nan,-nan,-nan,-nan,-nan,-nan,-nan,-nan,-nan,-nan,-nan,-nan
87,0,8,643508.875000,220213.250000,1298545.750000,66550.250000,8013.375000,649292.750000,7171.469191,1382.075409,49189.834752,918.423343,640.209329,24582.127414
87,1,0,-nan,-nan,-nan,-nan,-nan,-nan,-nan,-nan,-nan,-nan,-nan,-nan
88,0,8,645095.500000,220319.500000,1332765.875000,66551.000000,8283.375000,666416.500000,6671.924310,1453.759867,71115.614471,1002.491521,649.703767,35563.123517
88,1,0,-nan,-nan,-nan,-nan,-nan,-nan,-nan,-nan,-nan,-nan,-nan,-nan
89,0,8,641261.875000,219582.500000,1286470.250000,66146.125000,8034.750000,643209.750000,3625.145081,713.618771,76107.406160,422.421424,498.736842,38040.111802
89,1,0,-nan,-nan,-nan,-nan,-nan,-nan,-nan,-nan,-nan,-nan,-nan,-nan
90,0,8,645169.250000,220709.000000,1284349.250000,66759.750000,7991.250000,642053.250000,9517.043734,1664.758166,67754.313084,1195.584559,520.213838,33920.083047
90,1,0,-nan,-nan,-nan,-nan,-nan,-nan,-nan,-nan,-nan,-nan,-nan,-nan
91,0,8,644328.000000,220188.375000,1318754.125000,66528.750000,8315.125000,659352.500000,7218.308424,1645.792434,88005.726473,1240.159037,744.066435,43972.869323
91,1,0,-nan,-nan,-nan,-nan,-nan,-nan,-nan,-nan,-nan,-nan,-nan,-nan
92,0,8,642222.750000,219693.875000,1310616.125000,66159.500000,7752.250000,655364.500000,2998.609292,588.687828,48468.796886,337.059342,477.205341,24190.834664
92,1,0,-nan,-nan,-nan,-nan,-nan,-nan,-nan,-nan,-nan,-nan,-nan,-nan
93,0,8,645327.250000,220342.125000,1270060.625000,66634.125000,7848.875000,634915.625000,7639.901893,1971.841933,54253.686886,1167.553579,367.877506,27042.916734
93,1,0,-nan,-nan,-nan,-nan,-nan,-nan,-nan,-nan,-nan,-nan,-nan,-nan
94,0,8,644797.000000,220703.250000,1334532.125000,66798.500000,8115.500000,667328.125000,6753.255326,1311.121824,72903.483342,848.391419,560.552183,36454.528331
94,1,0,-nan,-nan,-nan,-nan,-nan,-nan,-nan,-nan,-nan,-nan,-nan,-nan
95,0,8,644053.500000,220393.250000,1255611.875000,66651.000000,7906.625000,627767.375000,6551.132211,1328.641576,49722.429882,1111.623475,367.670007,24780.557030
95,1,0,-nan,-nan,-nan,-nan,-nan,-nan,-nan,-nan,-nan,-nan,-nan,-nan
96,0,8,643604.625000,220319.000000,1244782.375000,66658.000000,7853.125000,622304.875000,7177.075901,1794.418778,56108.166213,1081.319795,502.483442,27964.393903
96,1,0,-nan,-nan,-nan,-nan,-nan,-nan,-nan,-nan,-nan,-nan,-nan,-nan
97,0,8,644141.000000,220902.375000,1257820.125000,66554.625000,7654.875000,628937.750000,11050.256626,3969.879814,39560.529519,1393.227722,367.068603,19777.384652
97,1,0,-nan,-nan,-nan,-nan,-nan,-nan,-nan,-nan,-nan,-nan,-nan,-nan
98,0,8,649397.500000,221414.000000,1282252.625000,67263.000000,8147.375000,641079.500000,8864.367067,1945.458622,51143.356501,1355.897673,465.175219,25575.182673
98,1,0,-nan,-nan,-nan,-nan,-nan,-nan,-nan,-nan,-nan,-nan,-nan,-nan
99,0,8,644941.875000,220302.875000,1283716.000000,66620.625000,7777.000000,641790.500000,9406.230162,1712.221031,53221.696760,1198.365443,560.451158,26674.746461
99,1,0,-nan,-nan,-nan,-nan,-nan,-nan,-nan,-nan,-nan,-nan,-nan,-nan
100,0,8,642204.750000,219918.750000,1297708.250000,66280.875000,7764.125000,648882.625000,4021.493496,1034.558088,81093.688247,508.713435,597.045944,40539.667672
100,1,0,-nan,-nan,-nan,-nan,-nan,-nan,-nan,-nan,-nan,-nan,-nan,-nan
101,0,8,643532.500000,219985.500000,1280409.125000,66308.250000,7749.375000,640254.750000,3164.478117,687.937315,68436.801228,495.739788,547.415048,34219.530976
101,1,0,-nan,-nan,-nan,-nan,-nan,-nan,-nan,-nan,-nan,-nan,-nan,-nan
102,0,8,647933.125000,220841.375000,1317313.375000,66971.500000,8075.875000,658729.000000,8281.893963,1806.258490,69587.031283,1396.942554,506.278441,34838.216982
102,1,0,-nan,-nan,-nan,-nan,-nan,-nan,-nan,-nan,-nan,-nan,-nan,-nan
103,0,8,647035.875000,221155.750000,1249643.000000,66806.875000,7991.875000,624844.875000,13203.165979,3516.099144,83458.429249,1436.901566,400.760352,41738.737192
103,1,0,-nan,-nan,-nan,-nan,-nan,-nan,-nan,-nan,-nan,-nan,-nan,-nan
104,0,8,643437.375000,220390.875000,1269412.250000,66453.000000,7845.125000,634757.250000,4231.959060,1001.634719,55897.609512,410.543238,482.065980,27976.087002
104,1,0,-nan,-nan,-nan,-nan,-nan,-nan,-nan,-nan,-nan,-nan,-nan,-nan
105,0,8,645074.000000,220322.000000,1289857.375000,66631.625000,7737.000000,644981.000000,7410.529890,1667.161660,37466.182738,1124.064938,579.002375,18720.787564
105,1,0,-nan,-nan,-nan,-nan,-nan,-nan,-nan,-nan,-nan,-nan,-nan,-nan
106,0,8,643808.375000,220290.000000,1310010.250000,66439.000000,7908.625000,655050.875000,2573.687381,995.701637,57887.033852,560.148641,460.491840,28970.773529
106,1,0,-nan,-nan,-nan,-nan,-nan,-nan,-nan,-nan,-nan,-nan,-nan,-nan
107,0,8,642281.125000,219755.125000,1302345.500000,66225.500000,7908.750000,651178.125000,3969.391025,861.382238,69783.088902,380.229865,573.133874,34865.570838
107,1,0,-nan,-nan,-nan,-nan,-nan,-nan,-nan,-nan,-nan,-nan,-nan,-nan
108,0,8,651988.125000,222456.125000,1304189.250000,67706.375000,8065.625000,652099.125000,16584.057084,4375.092040,68732.768753,2092.069008,567.433022,34308.047541
108,1,0,-nan,-nan,-nan,-nan,-nan,-nan,-nan,-nan,-nan,-nan,-nan,-nan
109,0,8,641734.750000,219773.125000,1259385.500000,66225.875000,7908.875000,629760.375000,4036.634512,925.787427,74409.272362,510.511615,540.290995,37366.200793
109,1,0,-nan,-nan,-nan,-nan,-nan,-nan,-nan,-nan,-nan,-nan,-nan,-nan
110,0,8,644095.750000,220196.500000,1302217.000000,66594.625000,7806.375000,651114.000000,8417.383170,1752.142474,68618.316720,1229.939423,559.866711,34267.775497
110,1,0,-nan,-nan,-nan,-nan,-nan,-nan,-nan,-nan,-nan,-nan,-nan,-nan
111,0,8,648019.750000,221185.750000,1276188.750000,67159.625000,7833.500000,638105.750000,8821.733315,1990.102306,53337.183183,1300.048358,535.648205,26681.617144
111,1,0,-nan,-nan,-nan,-nan,-nan,-nan,-nan,-nan,-nan,-nan,-nan,-nan
112,0,8,641772.500000,219983.500000,1270261.125000,66288.625000,7624.500000,635119.250000,3978.273401,906.769816,51419.255808,453.267564,312.195452,25709.510433
112,1,0,-nan,-nan,-nan,-nan,-nan,-nan,-nan,-nan,-nan,-nan,-nan,-nan
113,0,8,643939.250000,220257.750000,1259021.625000,66582.750000,7513.500000,629525.250000,6225.289065,1793.629055,59708.133527,1101.714091,526.958490,29823.788151
113,1,0,-nan,-nan,-nan,-nan,-nan,-nan,-nan,-nan,-nan,-nan,-nan,-nan
114,0,8,643990.125000,220406.000000,1298939.500000,66630.625000,7667.875000,649379.250000,6752.373591,1530.419632,38784.233891,1252.706065,555.079597,19485.603915
114,1,0,-nan,-nan,-nan,-nan,-nan,-nan,-nan,-nan,-nan,-nan,-nan,-nan
115,0,8,644005.500000,220353.875000,1282596.125000,66639.500000,7568.000000,641280.875000,9311.307494,1918.021731,78291.453634,1118.027951,443.969594,39131.121149
115,1,0,-nan,-nan,-nan,-nan,-nan,-nan,-nan,-nan,-nan,-nan,-nan,-nan
116,0,8,643726.625000,220255.375000,1258476.375000,66641.750000,7913.500000,629265.125000,6204.559210,1440.775220,81424.844232,954.587575,520.458932,40735.842165
116,1,0,-nan,-nan,-nan,-nan,-nan,-nan,-nan,-nan,-nan,-nan,-nan,-nan
117,0,8,640689.125000,219381.125000,1286778.750000,66072.250000,7740.250000,643409.125000,3698.563317,768.806289,54981.405086,418.065710,380.426652,27468.808849
117,1,0,-nan,-nan,-nan,-nan,-nan,-nan,-nan,-nan,-nan,-nan,-nan,-nan
118,0,8,645133.000000,220711.000000,1281371.500000,66893.250000,7752.375000,640721.625000,8878.500760,1786.207085,64200.195058,1253.555618,308.554670,32085.566295
118,1,0,-nan,-nan,-nan,-nan,-nan,-nan,-nan,-nan,-nan,-nan,-nan,-nan
119,0,8,644012.750000,220301.750000,1302371.000000,66651.625000,7967.500000,651198.000000,5527.066938,1342.375297,58049.790260,1040.701679,701.748887,29048.731848
119,1,0,-nan,-nan,-nan,-nan,-nan,-nan,-nan,-nan,-nan,-nan,-nan,-nan
120,0,8,645351.750000,220404.875000,1243582.750000,66628.750000,7750.875000,621889.250000,9289.497669,2392.536282,42593.866453,1272.301335,435.934467,21224.925835
120,1,0,-nan,-nan,-nan,-nan,-nan,-nan,-nan,-nan,-nan,-nan,-nan,-nan
121,0,8,647044.375000,221245.750000,1273314.875000,66920.875000,7936.375000,636644.375000,12584.400303,2924.533884,59063.392796,1356.123744,419.359910,29489.845934
121,1,0,-nan,-nan,-nan,-nan,-nan,-nan,-nan,-nan,-nan,-nan,-nan,-nan
122,0,8,645239.000000,220588.625000,1252024.375000,66777.125000,7918.000000,626022.000000,5139.081387,1470.878219,84135.863343,1083.925094,556.794621,42079.623231
122,1,0,-nan,-nan,-nan,-nan,-nan,-nan,-nan,-nan,-nan,-nan,-nan,-nan
123,0,8,648657.500000,221008.125000,1285478.750000,67095.125000,8158.875000,642704.750000,10910.298747,2259.850185,71322.684377,1550.439650,655.447831,35674.508300
123,1,0,-nan,-nan,-nan,-nan,-nan,-nan,-nan,-nan,-nan,-nan,-nan,-nan
124,0,8,642495.375000,219704.875000,1259699.125000,66149.125000,7950.125000,629799.000000,4542.609436,864.774889,78254.903408,360.908381,583.319260,39074.904997
124,1,0,-nan,-nan,-nan,-nan,-nan,-nan,-nan,-nan,-nan,-nan,-nan,-nan
125,0,8,644970.250000,220312.375000,1290435.250000,66510.000000,8037.500000,645157.500000,4885.849638,1491.196159,43002.721887,531.999530,482.826573,21457.159370
125,1,0,-nan,-nan,-nan,-nan,-nan,-nan,-nan,-nan,-nan,-nan,-nan,-nan
126,0,8,646157.625000,220667.125000,1277710.000000,66761.625000,7689.375000,638820.625000,8921.799355,1842.329330,77653.812466,1063.911643,593.056266,38851.296056
126,1,0,-nan,-nan,-nan,-nan,-nan,-nan,-nan,-nan,-nan,-nan,-nan,-nan
127,0,8,645160.500000,220381.625000,1318135.750000,66680.625000,8043.875000,658964.250000,6538.631107,1404.879260,89360.035726,1135.017284,587.266855,44832.281098
127,1,0,-nan,-nan,-nan,-nan,-nan,-nan,-nan,-nan,-nan,-nan,-nan,-nan
128,0,8,644824.250000,220163.750000,1288060.375000,66559.125000,7743.625000,643973.750000,7718.648372,1574.400025,42787.168649,1091.250709,760.337744,21326.698454
128,1,0,-nan,-nan,-nan,-nan,-nan,-nan,-nan,-nan,-nan,-nan,-nan,-nan
129,0,8,643349.000000,220125.000000,1282818.250000,66375.875000,7814.750000,641436.375000,4649.410715,990.430967,63930.262532,528.568453,496.005985,31929.738223
129,1,0,-nan,-nan,-nan,-nan,-nan,-nan,-nan,-nan,-nan,-nan,-nan,-nan
130,0,8,645828.875000,220551.000000,1277148.125000,66788.250000,7717.125000,638532.875000,8606.826236,2060.709829,59570.277886,1336.954725,442.783931,29852.751990
130,1,0,-nan,-nan,-nan,-nan,-nan,-nan,-nan,-nan,-nan,-nan,-nan,-nan
131,0,8,643289.500000,220192.375000,1310113.125000,66434.625000,7949.375000,655015.750000,3684.815769,963.452118,111242.731229,518.144994,1047.753303,55626.674062
131,1,0,-nan,-nan,-nan,-nan,-nan,-nan,-nan,-nan,-nan,-nan,-nan,-nan
132,0,7,644420.428571,220208.571429,1334560.142857,66568.857143,7921.000000,667319.857143,7111.482443,1638.787867,86325.744201,1218.320792,686.083918,43155.882815
132,1,0,-nan,-nan,-nan,-nan,-nan,-nan,-nan,-nan,-nan,-nan,-nan,-nan
133,0,7,646312.571429,221030.000000,1315510.571429,66979.428571,7791.714286,657778.571429,7806.845986,1682.985358,68575.410382,1124.010785,343.666663,34314.130154
133,1,0,-nan,-nan,-nan,-nan,-nan,-nan,-nan,-nan,-nan,-nan,-nan,-nan
134,0,7,645441.000000,220568.428571,1277532.714286,66915.857143,7706.571429,638777.428571,7781.523501,1686.843109,41803.798094,1212.510080,331.817014,20898.313718
134,1,0,-nan,-nan,-nan,-nan,-nan,-nan,-nan,-nan,-nan,-nan,-nan,-nan
135,0,7,641522.857143,219867.000000,1270981.571429,66201.000000,7696.142857,635530.714286,2011.547125,382.756543,78728.051105,298.842529,358.720117,39368.881191
135,1,0,-nan,-nan,-nan,-nan,-nan,-nan,-nan,-nan,-nan,-nan,-nan,-nan
136,0,7,645120.857143,221341.000000,1273977.571429,66712.000000,7475.000000,636996.000000,11947.568233,3485.309537,65278.848666,1171.105949,485.520928,32655.591589
136,1,0,-nan,-nan,-nan,-nan,-nan,-nan,-nan,-nan,-nan,-nan,-nan,-nan
137,0,7,641380.000000,219782.428571,1280825.000000,66206.571429,8023.857143,640461.000000,2894.531593,729.471992,62354.958533,316.046496,601.622907,31172.384560
137,1,0,-nan,-nan,-nan,-nan,-nan,-nan,-nan,-nan,-nan,-nan,-nan,-nan
138,0,7,650441.571429,221591.428571,1285730.000000,67342.714286,8051.571429,642854.428571,9374.492350,1871.582971,70983.078392,1371.006274,610.605989,35494.581417
138,1,0,-nan,-nan,-nan,-nan,-nan,-nan,-nan,-nan,-nan,-nan,-nan,-nan
139,0,7,648535.571429,221138.142857,1287379.571429,67181.571429,7993.285714,643558.142857,10561.686173,1850.300549,83055.804018,1549.421353,1080.900909,41509.988152
139,1,0,-nan,-nan,-nan,-nan,-nan,-nan,-nan,-nan,-nan,-nan,-nan,-nan
140,0,7,643935.000000,220066.714286,1261821.000000,66535.714286,8047.285714,630943.428571,8547.403716,1926.797766,47481.743589,1123.718281,477.452979,23737.716793
140,1,0,-nan,-nan,-nan,-nan,-nan,-nan,-nan,-nan,-nan,-nan,-nan,-nan
141,0,7,641537.142857,219888.000000,1214441.571429,66254.857143,7812.142857,607222.428571,3827.868837,954.526659,48721.006393,377.336314,439.065055,24381.141540
141,1,0,-nan,-nan,-nan,-nan,-nan,-nan,-nan,-nan,-nan,-nan,-nan,-nan
142,0,7,641682.714286,219840.142857,1228016.714286,66230.714286,7907.285714,613979.428571,3084.883870,855.743024,62700.443835,519.192151,779.342161,31397.174754
142,1,0,-nan,-nan,-nan,-nan,-nan,-nan,-nan,-nan,-nan,-nan,-nan,-nan
143,0,7,647547.142857,221127.142857,1240346.428571,67186.857143,7964.428571,620134.714286,8880.330776,1835.158259,49147.881509,1370.412808,927.933627,24543.899037
143,1,0,-nan,-nan,-nan,-nan,-nan,-nan,-nan,-nan,-nan,-nan,-nan,-nan
144,0,7,641612.571429,219924.285714,1314687.857143,66251.428571,7895.857143,657403.428571,2022.401603,593.100019,93183.113108,214.007248,575.024826,46618.276878
144,1,0,-nan,-nan,-nan,-nan,-nan,-nan,-nan,-nan,-nan,-nan,-nan,-nan
145,0,8,645647.125000,220774.750000,1303907.000000,66897.375000,7894.625000,651912.125000,7434.710913,1664.341443,65721.349621,875.704707,378.299464,32903.853230
145,1,0,-nan,-nan,-nan,-nan,-nan,-nan,-nan,-nan,-nan,-nan,-nan,-nan
146,0,8,643651.250000,219727.625000,1242590.375000,66385.875000,7787.625000,621281.250000,10192.625162,2153.889153,45225.966289,1190.177659,683.937486,22613.976916
146,1,0,-nan,-nan,-nan,-nan,-nan,-nan,-nan,-nan,-nan,-nan,-nan,-nan
147,0,8,644645.125000,220668.500000,1281109.500000,66464.375000,7828.625000,640504.125000,8898.000104,2964.431227,54824.967855,753.009286,709.812288,27303.417343
147,1,0,-nan,-nan,-nan,-nan,-nan,-nan,-nan,-nan,-nan,-nan,-nan,-nan
148,0,8,641092.625000,219548.750000,1272206.500000,66149.375000,7769.125000,636085.250000,3010.992566,652.275201,62014.807943,296.254509,443.118054,30950.219913
148,1,0,-nan,-nan,-nan,-nan,-nan,-nan,-nan,-nan,-nan,-nan,-nan,-nan
149,0,8,642583.125000,220175.125000,1246431.625000,66456.000000,7601.125000,623193.125000,3914.322688,1022.225811,44013.294733,515.633106,752.410034,21987.148618
149,1,0,-nan,-nan,-nan,-nan,-nan,-nan,-nan,-nan,-nan,-nan,-nan,-nan
150,0,8,643152.750000,219998.875000,1224533.625000,66501.625000,7568.250000,612222.625000,7426.032651,1656.911844,42876.834698,1083.354275,503.857061,21390.440154
150,1,0,-nan,-nan,-nan,-nan,-nan,-nan,-nan,-nan,-nan,-nan,-nan,-nan
151,0,8,643069.125000,219879.750000,1304938.125000,66460.625000,7902.250000,652406.250000,5580.690178,1461.401532,35295.160860,1019.826816,357.795245,17783.866872
151,1,0,-nan,-nan,-nan,-nan,-nan,-nan,-nan,-nan,-nan,-nan,-nan,-nan
152,0,8,640805.750000,219406.625000,1287580.250000,66093.875000,7962.875000,643754.375000,2741.365342,616.889159,51200.287027,400.333435,736.187211,25722.199196
152,1,0,-nan,-nan,-nan,-nan,-nan,-nan,-nan,-nan,-nan,-nan,-nan,-nan
153,0,8,645227.125000,220674.000000,1264646.875000,66841.250000,8296.875000,632265.875000,9977.882058,2252.276570,89837.827230,1437.503543,1021.098727,44907.954063
153,1,0,-nan,-nan,-nan,-nan,-nan,-nan,-nan,-nan,-nan,-nan,-nan,-nan
154,0,8,641952.625000,220047.000000,1265008.750000,66418.500000,7834.875000,632429.750000,3767.337752,895.669303,71241.500379,444.673757,692.642122,35693.805379
154,1,0,-nan,-nan,-nan,-nan,-nan,-nan,-nan,-nan,-nan,-nan,-nan,-nan
155,0,8,643304.125000,220082.250000,1264977.875000,66555.125000,7922.000000,632429.875000,7579.020409,1533.986045,79337.912522,1147.844114,768.112785,39747.307363
155,1,0,-nan,-nan,-nan,-nan,-nan,-nan,-nan,-nan,-nan,-nan,-nan,-nan
156,0,8,648015.625000,221210.000000,1277553.000000,67371.000000,7862.500000,638727.750000,10309.590328,2576.432951,38154.220854,1680.727893,654.316628,18954.750584
156,1,0,-nan,-nan,-nan,-nan,-nan,-nan,-nan,-nan,-nan,-nan,-nan,-nan
157,0,8,644803.750000,220567.125000,1281831.000000,66956.250000,8017.000000,640851.500000,9610.067908,2285.490343,36838.540925,1507.246973,640.218713,18463.093701
157,1,0,-nan,-nan,-nan,-nan,-nan,-nan,-nan,-nan,-nan,-nan,-nan,-nan
158,0,8,642852.000000,220029.250000,1250032.500000,66514.625000,7856.875000,624984.375000,7263.193099,1776.941104,48817.760608,1066.355585,792.308090,24433.115581
158,1,0,-nan,-nan,-nan,-nan,-nan,-nan,-nan,-nan,-nan,-nan,-nan,-nan
159,0,8,644756.125000,220404.000000,1312037.625000,66693.750000,7999.750000,656000.125000,7690.551499,1502.139474,46477.127641,1050.167219,659.721295,23276.516859
159,1,0,-nan,-nan,-nan,-nan,-nan,-nan,-nan,-nan,-nan,-nan,-nan,-nan
160,0,8,641043.750000,219192.625000,1293974.375000,66001.750000,7954.875000,646860.750000,3022.997881,537.643687,73087.967893,251.123351,661.968360,36544.170420
160,1,0,-nan,-nan,-nan,-nan,-nan,-nan,-nan,-nan,-nan,-nan,-nan,-nan
161,0,8,642493.250000,219893.500000,1323315.500000,66343.125000,8420.125000,661580.250000,2440.343252,841.585112,70090.401310,291.265960,645.859202,34955.908570
161,1,0,-nan,-nan,-nan,-nan,-nan,-nan,-nan,-nan,-nan,-nan,-nan,-nan
162,0,8,643851.625000,219836.125000,1282395.000000,66466.375000,8108.000000,641059.500000,7270.897502,1445.757279,56758.623180,1154.859184,923.693131,28324.091115
162,1,0,-nan,-nan,-nan,-nan,-nan,-nan,-nan,-nan,-nan,-nan,-nan,-nan
163,0,8,642566.000000,219865.125000,1256078.750000,66317.875000,7908.000000,627909.750000,3368.820528,970.691691,76229.647457,463.379282,701.068649,37929.023336
163,1,0,-nan,-nan,-nan,-nan,-nan,-nan,-nan,-nan,-nan,-nan,-nan,-nan
164,0,8,643581.375000,220016.250000,1299656.500000,66537.625000,7875.875000,649764.750000,6125.823005,1516.000227,62584.093748,1000.735097,412.884196,31294.603100
164,1,0,-nan,-nan,-nan,-nan,-nan,-nan,-nan,-nan,-nan,-nan,-nan,-nan
165,0,8,640385.375000,219359.250000,1283505.500000,66113.125000,7836.125000,641770.000000,2685.899381,858.929093,27256.981230,233.928642,742.527346,13673.185090
165,1,0,-nan,-nan,-nan,-nan,-nan,-nan,-nan,-nan,-nan,-nan,-nan,-nan
166,0,8,655016.375000,222795.625000,1302440.125000,68089.125000,8468.625000,651078.500000,12486.228093,3807.900765,82419.408206,1661.112537,653.735409,41268.460515
166,1,0,-nan,-nan,-nan,-nan,-nan,-nan,-nan,-nan,-nan,-nan,-nan,-nan
167,0,8,640516.750000,219700.250000,1264175.375000,66222.000000,7989.000000,632032.000000,3876.750725,1219.918004,46882.696621,589.671731,685.537745,23400.112003
167,1,0,-nan,-nan,-nan,-nan,-nan,-nan,-nan,-nan,-nan,-nan,-nan,-nan
168,0,8,639936.250000,219712.000000,1282355.875000,66205.750000,7940.875000,640998.000000,2026.368534,874.731530,40345.495778,377.101694,737.307846,20015.069198
168,1,0,-nan,-nan,-nan,-nan,-nan,-nan,-nan,-nan,-nan,-nan,-nan,-nan
169,0,8,645376.750000,220981.000000,1315425.625000,66993.000000,7929.250000,657645.375000,7083.950130,1616.436126,66970.208772,1108.846924,410.650323,33533.195870
169,1,0,-nan,-nan,-nan,-nan,-nan,-nan,-nan,-nan,-nan,-nan,-nan,-nan
170,0,8,642714.500000,219998.250000,1285241.375000,66409.500000,7821.750000,642605.125000,6795.110135,1316.183949,63468.890366,1032.975314,547.149602,31802.292462
170,1,0,-nan,-nan,-nan,-nan,-nan,-nan,-nan,-nan,-nan,-nan,-nan,-nan
171,0,8,646423.000000,220335.000000,1299452.750000,66696.625000,8034.375000,649707.250000,11294.792362,2608.862108,43166.282237,1696.657297,496.565690,21634.061874
171,1,0,-nan,-nan,-nan,-nan,-nan,-nan,-nan,-nan,-nan,-nan,-nan,-nan
172,0,8,649396.250000,221361.750000,1267914.000000,67131.125000,8154.000000,633822.500000,9694.440942,1880.177967,48291.516954,1272.547881,555.136695,24115.322266
172,1,0,-nan,-nan,-nan,-nan,-nan,-nan,-nan,-nan,-nan,-nan,-nan,-nan
173,0,8,644266.000000,220239.500000,1256917.750000,66506.750000,7904.375000,628471.875000,8015.211928,1641.270087,69625.815539,1184.083480,809.233424,34870.513692
173,1,0,-nan,-nan,-nan,-nan,-nan,-nan,-nan,-nan,-nan,-nan,-nan,-nan
174,0,8,640493.125000,219365.750000,1264237.750000,65942.875000,7872.500000,632052.625000,3823.376696,762.339450,43455.371577,416.963559,462.760467,21703.131698
174,1,0,-nan,-nan,-nan,-nan,-nan,-nan,-nan,-nan,-nan,-nan,-nan,-nan
175,0,8,641062.125000,219698.625000,1280892.500000,66129.750000,8028.375000,640384.625000,4400.760827,942.770510,62557.364327,617.974059,406.381575,31403.909939
175,1,0,-nan,-nan,-nan,-nan,-nan,-nan,-nan,-nan,-nan,-nan,-nan,-nan
176,0,8,645021.500000,220497.250000,1293352.625000,66597.875000,8155.000000,646615.375000,6589.944821,1316.595681,33937.973551,1135.399978,671.094814,16909.100611
176,1,0,-nan,-nan,-nan,-nan,-nan,-nan,-nan,-nan,-nan,-nan,-nan,-nan
177,0,8,642754.250000,219825.250000,1254971.375000,66199.625000,8004.750000,627327.500000,2593.039035,880.588830,58088.676921,510.524715,320.814101,29140.305455
177,1,0,-nan,-nan,-nan,-nan,-nan,-nan,-nan,-nan,-nan,-nan,-nan,-nan
178,0,8,640754.750000,219363.875000,1247145.875000,65975.625000,7717.000000,623533.125000,3447.565545,922.765333,59596.197403,602.519489,568.114205,29843.328017
178,1,0,-nan,-nan,-nan,-nan,-nan,-nan,-nan,-nan,-nan,-nan,-nan,-nan
179,0,8,644607.625000,220207.500000,1302936.250000,66574.125000,8302.125000,651421.125000,9659.450074,1969.435325,160076.190184,1544.415783,959.626807,80023.144885
179,1,0,-nan,-nan,-nan,-nan,-nan,-nan,-nan,-nan,-nan,-nan,-nan,-nan
180,0,8,640526.375000,219571.625000,1275839.375000,66082.875000,7814.500000,637843.500000,3133.639974,754.988235,27794.300818,405.607087,421.193245,13918.609575
180,1,0,-nan,-nan,-nan,-nan,-nan,-nan,-nan,-nan,-nan,-nan,-nan,-nan
181,0,8,639587.250000,219389.500000,1301576.250000,65963.125000,7875.500000,650728.375000,2664.735669,615.598286,96138.782188,389.835362,717.870462,47983.650510
181,1,0,-nan,-nan,-nan,-nan,-nan,-nan,-nan,-nan,-nan,-nan,-nan,-nan
182,0,8,647980.625000,221393.125000,1322890.625000,67165.750000,8179.500000,661391.500000,8616.345498,1757.126094,63423.329582,1164.242216,609.322370,31689.080572
182,1,0,-nan,-nan,-nan,-nan,-nan,-nan,-nan,-nan,-nan,-nan,-nan,-nan
183,0,8,647663.000000,221211.375000,1285426.250000,67231.000000,7965.875000,642660.375000,11702.270164,2511.206978,91165.914137,1715.224256,888.570824,45503.806959
183,1,0,-nan,-nan,-nan,-nan,-nan,-nan,-nan,-nan,-nan,-nan,-nan,-nan
184,0,8,640014.250000,219503.000000,1280106.250000,66045.875000,7789.500000,639951.875000,2290.820363,555.166191,48879.278365,388.103864,565.732932,24369.494581
184,1,0,-nan,-nan,-nan,-nan,-nan,-nan,-nan,-nan,-nan,-nan,-nan,-nan
185,0,8,643119.125000,220109.875000,1319181.625000,66441.125000,8105.750000,659518.125000,7836.601901,1781.659229,47105.843154,1242.438574,1123.488957,23482.672364
185,1,0,-nan,-nan,-nan,-nan,-nan,-nan,-nan,-nan,-nan,-nan,-nan,-nan
186,0,8,641533.375000,219600.750000,1279306.750000,66083.375000,7811.625000,639513.875000,4197.464173,711.282776,41416.656377,469.059148,576.434718,20764.430425
186,1,0,-nan,-nan,-nan,-nan,-nan,-nan,-nan,-nan,-nan,-nan,-nan,-nan
187,0,8,641937.250000,219684.750000,1325097.625000,66072.625000,8178.875000,662477.750000,4480.288209,947.035869,70977.005269,557.311838,764.106576,35507.347087
187,1,0,-nan,-nan,-nan,-nan,-nan,-nan,-nan,-nan,-nan,-nan,-nan,-nan
188,0,8,642623.125000,219746.750000,1275579.875000,66281.250000,7917.000000,637707.125000,7729.672575,1794.238470,87298.516542,1216.391975,631.964991,43590.063763
188,1,0,-nan,-nan,-nan,-nan,-nan,-nan,-nan,-nan,-nan,-nan,-nan,-nan
189,0,8,641315.000000,219658.500000,1302666.875000,66121.750000,8149.625000,651179.125000,4362.314867,1144.587917,117204.038678,546.284438,1195.854918,58467.237098
189,1,0,-nan,-nan,-nan,-nan,-nan,-nan,-nan,-nan,-nan,-nan,-nan,-nan
190,0,8,645692.125000,220940.500000,1281042.625000,66984.250000,8023.250000,640463.250000,9819.732283,1977.630843,56623.899448,1372.246311,991.863240,28320.604080
190,1,0,-nan,-nan,-nan,-nan,-nan,-nan,-nan,-nan,-nan,-nan,-nan,-nan
191,0,8,647051.500000,221040.625000,1288085.000000,67167.250000,8073.875000,643934.000000,9651.419041,2164.212555,62913.267758,1552.518740,1222.053440,31424.141738
191,1,0,-nan,-nan,-nan,-nan,-nan,-nan,-nan,-nan,-nan,-nan,-nan,-nan
192,0,8,643817.500000,220806.375000,1262138.125000,66449.625000,7856.875000,631039.750000,9303.511125,2961.933319,42408.261779,947.907424,837.076077,21174.107146
192,1,0,-nan,-nan,-nan,-nan,-nan,-nan,-nan,-nan,-nan,-nan,-nan,-nan
193,0,8,645673.375000,220737.875000,1297073.500000,66888.625000,8164.625000,648372.375000,10143.687593,2184.453618,62304.954737,1418.569873,734.892328,31000.473512
193,1,0,-nan,-nan,-nan,-nan,-nan,-nan,-nan,-nan,-nan,-nan,-nan,-nan
194,0,8,640869.500000,219671.875000,1275984.250000,66274.000000,7884.500000,637936.000000,6506.728671,1658.135432,28161.093244,1093.626879,619.404956,13863.548581
194,1,0,-nan,-nan,-nan,-nan,-nan,-nan,-nan,-nan,-nan,-nan,-nan,-nan
195,0,8,641024.375000,219815.375000,1263626.875000,66182.000000,7737.750000,631627.375000,3747.722406,658.473222,59358.082189,424.263479,772.930907,29821.054156
195,1,0,-nan,-nan,-nan,-nan,-nan,-nan,-nan,-nan,-nan,-nan,-nan,-nan
196,0,8,647983.500000,221089.625000,1267301.875000,67057.125000,8174.375000,633635.125000,7180.756106,1975.892832,64499.611597,1526.066466,768.230587,32171.338325
196,1,0,-nan,-nan,-nan,-nan,-nan,-nan,-nan,-nan,-nan,-nan,-nan,-nan
197,0,8,643511.375000,219987.875000,1279908.500000,66404.375000,8187.625000,639861.875000,9284.244368,2026.214416,58970.255280,1360.615847,1033.249841,29577.733709
197,1,0,-nan,-nan,-nan,-nan,-nan,-nan,-nan,-nan,-nan,-nan,-nan,-nan
198,0,8,647063.625000,220865.000000,1268015.000000,66960.000000,7929.375000,633902.250000,9995.280123,2002.474469,51056.471079,1301.943163,448.186049,25435.210839
198,1,0,-nan,-nan,-nan,-nan,-nan,-nan,-nan,-nan,-nan,-nan,-nan,-nan
199,0,8,646304.375000,220528.625000,1300320.750000,66767.375000,7976.500000,650048.500000,9391.775870,2340.668170,75303.567986,1325.358531,651.446659,37652.995213
199,1,0,-nan,-nan,-nan,-nan,-nan,-nan,-nan,-nan,-nan,-nan,-nan,-nan
200,0,8,641996.875000,219721.000000,1213536.250000,66172.250000,7716.375000,606683.500000,1916.805770,379.469696,36993.465341,392.171439,641.026313,18554.634718
200,1,0,-nan,-nan,-nan,-nan,-nan,-nan,-nan,-nan,-nan,-nan,-nan,-nan
201,0,8,644519.625000,220777.875000,1275065.000000,66419.500000,7805.000000,637372.500000,9395.944576,2856.493455,67209.564673,715.947449,515.550434,33545.010810
201,1,0,-nan,-nan,-nan,-nan,-nan,-nan,-nan,-nan,-nan,-nan,-nan,-nan
202,0,8,642957.500000,219944.000000,1269329.250000,66423.500000,7926.250000,634588.500000,7464.295312,1721.697781,73816.370244,1127.317502,628.033190,36924.387050
202,1,0,-nan,-nan,-nan,-nan,-nan,-nan,-nan,-nan,-nan,-nan,-nan,-nan
203,0,8,643171.500000,220261.375000,1247210.250000,66568.750000,7904.500000,623415.125000,7833.663255,1656.106197,73786.671413,1109.686865,289.793030,36921.982634
203,1,0,-nan,-nan,-nan,-nan,-nan,-nan,-nan,-nan,-nan,-nan,-nan,-nan
204,0,8,648532.000000,221279.500000,1305982.000000,67325.125000,8496.875000,652906.875000,10420.536371,1969.764961,74782.796849,1593.909536,739.858675,37423.775586
204,1,0,-nan,-nan,-nan,-nan,-nan,-nan,-nan,-nan,-nan,-nan,-nan,-nan
205,0,8,641432.500000,219707.750000,1270714.250000,66290.250000,8057.500000,635238.750000,6784.466615,1265.458291,65800.107492,1183.654378,688.999093,32860.485696
205,1,0,-nan,-nan,-nan,-nan,-nan,-nan,-nan,-nan,-nan,-nan,-nan,-nan
206,0,8,644403.375000,220365.375000,1294673.125000,66719.500000,8024.000000,647164.625000,10125.723801,2033.657293,33353.624906,1349.038824,340.407476,16634.612108
206,1,0,-nan,-nan,-nan,-nan,-nan,-nan,-nan,-nan,-nan,-nan,-nan,-nan
207,0,8,643293.875000,220341.125000,1311960.750000,66599.500000,7962.000000,655711.500000,8896.267327,1758.539055,111228.598574,998.547320,728.407166,55432.230160
207,1,0,-nan,-nan,-nan,-nan,-nan,-nan,-nan,-nan,-nan,-nan,-nan,-nan
208,0,8,639330.750000,219396.000000,1321408.125000,65983.125000,8122.500000,660617.375000,3450.336605,690.852010,69187.682752,440.479125,813.671770,34591.585657
208,1,0,-nan,-nan,-nan,-nan,-nan,-nan,-nan,-nan,-nan,-nan,-nan,-nan
209,0,8,642536.125000,220208.125000,1314092.250000,66475.750000,7991.250000,657021.250000,6638.505393,1292.339394,69502.030056,1213.378728,703.484852,34757.171216
209,1,0,-nan,-nan,-nan,-nan,-nan,-nan,-nan,-nan,-nan,-nan,-nan,-nan
210,0,8,643396.125000,220255.750000,1281004.000000,66498.875000,7866.375000,640438.250000,7940.367757,1729.084566,66737.196454,1202.425823,624.223906,33296.415456
210,1,0,-nan,-nan,-nan,-nan,-nan,-nan,-nan,-nan,-nan,-nan,-nan,-nan
211,0,8,640840.875000,219759.750000,1332360.250000,66122.375000,8060.375000,665903.500000,2879.384415,728.877176,94877.401740,541.925719,1141.803720,47157.248974
211,1,0,-nan,-nan,-nan,-nan,-nan,-nan,-nan,-nan,-nan,-nan,-nan,-nan
212,0,8,645662.875000,220493.875000,1334908.375000,66765.250000,8176.250000,667376.500000,9787.235264,1995.980927,119494.089196,1314.201445,653.432045,59744.733080
212,1,0,-nan,-nan,-nan,-nan,-nan,-nan,-nan,-nan,-nan,-nan,-nan,-nan
213,0,8,642862.000000,220157.250000,1264332.500000,66464.750000,7995.000000,632040.875000,8097.328603,1428.154294,52697.289093,1212.318517,632.963269,26282.870065
213,1,0,-nan,-nan,-nan,-nan,-nan,-nan,-nan,-nan,-nan,-nan,-nan,-nan
214,0,8,640481.875000,219925.500000,1293408.500000,66203.500000,7948.375000,646627.125000,4057.575829,961.397550,37753.446912,525.527116,472.284061,18758.754219
214,1,0,-nan,-nan,-nan,-nan,-nan,-nan,-nan,-nan,-nan,-nan,-nan,-nan
215,0,8,641678.750000,219747.875000,1260803.250000,66294.625000,7920.750000,630378.625000,6156.953686,1516.425191,41776.597871,868.880737,712.127227,20918.586992
215,1,0,-nan,-nan,-nan,-nan,-nan,-nan,-nan,-nan,-nan,-nan,-nan,-nan
216,0,8,640358.875000,219700.000000,1279396.875000,66102.875000,8204.375000,639722.375000,4991.304951,996.836998,54072.790041,600.623101,573.606777,27037.396093
216,1,0,-nan,-nan,-nan,-nan,-nan,-nan,-nan,-nan,-nan,-nan,-nan,-nan
217,0,8,640232.000000,219790.250000,1245193.250000,66109.375000,7812.375000,622627.000000,3395.062776,907.609325,95693.552655,473.542220,585.525178,47878.677809
217,1,0,-nan,-nan,-nan,-nan,-nan,-nan,-nan,-nan,-nan,-nan,-nan,-nan
218,0,8,642439.875000,219876.750000,1258904.500000,66367.000000,8002.500000,629450.500000,7234.331801,1923.495175,38398.836639,1248.747873,629.070346,19202.180143
218,1,0,-nan,-nan,-nan,-nan,-nan,-nan,-nan,-nan,-nan,-nan,-nan,-nan
219,0,8,644947.500000,220415.125000,1236909.125000,66812.250000,8034.875000,618471.875000,12670.423266,2584.542872,48161.991114,1844.948627,785.551150,24095.431960
219,1,0,-nan,-nan,-nan,-nan,-nan,-nan,-nan,-nan,-nan,-nan,-nan,-nan
220,0,8,641836.625000,219889.125000,1296085.375000,66376.000000,7934.125000,647757.875000,6547.533218,1546.454690,56764.911953,934.031450,665.968550,28297.710709
220,1,0,-nan,-nan,-nan,-nan,-nan,-nan,-nan,-nan,-nan,-nan,-nan,-nan
221,0,8,639366.375000,219255.625000,1254363.625000,65931.250000,7615.875000,627194.500000,2955.459395,422.500869,66922.800371,335.542006,622.587230,33477.066049
221,1,0,-nan,-nan,-nan,-nan,-nan,-nan,-nan,-nan,-nan,-nan,-nan,-nan
222,0,8,647199.500000,221706.500000,1318280.250000,67015.875000,8044.500000,659022.750000,9848.804242,3035.237058,85488.387113,1143.054180,584.840149,42686.203912
222,1,0,-nan,-nan,-nan,-nan,-nan,-nan,-nan,-nan,-nan,-nan,-nan,-nan
223,0,8,640050.250000,219529.625000,1296102.125000,66050.500000,8092.500000,648018.000000,2658.657168,814.473900,90995.728497,472.662141,643.158223,45411.764550
223,1,0,-nan,-nan,-nan,-nan,-nan,-nan,-nan,-nan,-nan,-nan,-nan,-nan
224,0,8,644602.125000,220767.750000,1308433.375000,66917.250000,8122.000000,653938.375000,9486.700157,2170.922313,47356.350609,1552.810094,350.571319,23326.741087
224,1,0,-nan,-nan,-nan,-nan,-nan,-nan,-nan,-nan,-nan,-nan,-nan,-nan
225,0,8,641588.000000,220100.750000,1262707.750000,66537.750000,8008.500000,631294.000000,7451.308627,1589.494475,82988.326513,1052.394383,545.582716,41459.139345
225,1,0,-nan,-nan,-nan,-nan,-nan,-nan,-nan,-nan,-nan,-nan,-nan,-nan
226,0,8,642413.625000,220018.250000,1303223.250000,66443.375000,7998.875000,651414.125000,9269.224657,2030.679428,61358.399524,1212.260898,719.394613,30856.158111
226,1,0,-nan,-nan,-nan,-nan,-nan,-nan,-nan,-nan,-nan,-nan,-nan,-nan
227,0,8,648168.125000,221382.125000,1319189.875000,67068.250000,8131.125000,659590.000000,8408.251846,2807.826893,69504.648860,1450.498513,544.608446,34718.711230
227,1,0,-nan,-nan,-nan,-nan,-nan,-nan,-nan,-nan,-nan,-nan,-nan,-nan
228,0,8,654231.000000,223306.750000,1327278.500000,67835.250000,8329.250000,663338.000000,23453.799687,7202.934970,94468.822909,2804.318043,883.339933,47179.186383
228,1,0,-nan,-nan,-nan,-nan,-nan,-nan,-nan,-nan,-nan,-nan,-nan,-nan
229,0,8,649604.625000,222561.000000,1367348.875000,67180.500000,8414.750000,683600.250000,17507.796049,5709.030369,100705.585398,1697.234957,649.254524,50271.359773
229,1,0,-nan,-nan,-nan,-nan,-nan,-nan,-nan,-nan,-nan,-nan,-nan,-nan
230,0,8,647049.250000,221913.375000,1280885.375000,66726.125000,8195.000000,640388.625000,17579.276718,6089.939099,106342.755349,1589.411403,650.839842,52967.631243
230,1,0,-nan,-nan,-nan,-nan,-nan,-nan,-nan,-nan,-nan,-nan,-nan,-nan
231,0,8,648097.875000,222083.875000,1333124.250000,67003.750000,8153.375000,666619.250000,23801.874477,7519.336348,85214.849911,2677.587709,612.747080,42637.023981
231,1,0,-nan,-nan,-nan,-nan,-nan,-nan,-nan,-nan,-nan,-nan,-nan,-nan
232,0,8,647072.000000,221945.750000,1275352.250000,66788.250000,7970.875000,637692.875000,17550.188923,6029.325455,70774.748683,1646.503018,429.081996,35381.591889
232,1,0,-nan,-nan,-nan,-nan,-nan,-nan,-nan,-nan,-nan,-nan,-nan,-nan
233,0,8,650658.750000,222614.375000,1293251.375000,67400.750000,8132.875000,646608.500000,17195.740016,5804.559758,80522.596774,1951.319345,524.842700,40248.681488
233,1,0,-nan,-nan,-nan,-nan,-nan,-nan,-nan,-nan,-nan,-nan,-nan,-nan
234,0,8,650431.000000,222802.000000,1283145.500000,67328.250000,8457.500000,641517.500000,17097.703216,6133.041843,72756.734839,1707.874538,525.967917,36399.680929
234,1,0,-nan,-nan,-nan,-nan,-nan,-nan,-nan,-nan,-nan,-nan,-nan,-nan
235,0,8,649689.625000,222994.750000,1240021.875000,67057.500000,7782.750000,619962.250000,17697.771371,6309.689151,76911.197323,1781.125978,502.001183,38429.287698
235,1,0,-nan,-nan,-nan,-nan,-nan,-nan,-nan,-nan,-nan,-nan,-nan,-nan
236,0,8,650010.000000,222661.125000,1266232.375000,67275.250000,8146.500000,633191.500000,15524.606726,5602.248955,41145.919664,1674.138715,526.342332,20592.820235
236,1,0,-nan,-nan,-nan,-nan,-nan,-nan,-nan,-nan,-nan,-nan,-nan,-nan
237,0,8,647737.250000,221630.250000,1277210.750000,66630.000000,7987.250000,638584.250000,16195.638284,5949.993335,61875.721975,1556.189979,502.493470,30889.742730
237,1,0,-nan,-nan,-nan,-nan,-nan,-nan,-nan,-nan,-nan,-nan,-nan,-nan
238,0,8,650591.500000,222551.875000,1279887.625000,67199.375000,8051.625000,639906.875000,16734.866118,6000.394454,49680.149552,1655.867442,494.926746,24834.402557
238,1,0,-nan,-nan,-nan,-nan,-nan,-nan,-nan,-nan,-nan,-nan,-nan,-nan
239,0,8,648412.125000,222039.500000,1293045.000000,66967.875000,7800.875000,646612.750000,16443.274700,6030.201551,86258.933481,1905.420586,595.538294,43120.360660
239,1,0,-nan,-nan,-nan,-nan,-nan,-nan,-nan,-nan,-nan,-nan,-nan,-nan
240,0,8,652245.875000,223427.250000,1283943.875000,67380.500000,7965.250000,641974.625000,25652.713631,8949.966058,87239.314581,2570.765450,682.466071,43641.434116
240,1,0,-nan,-nan,-nan,-nan,-nan,-nan,-nan,-nan,-nan,-nan,-nan,-nan
241,0,8,646027.625000,221766.000000,1273746.125000,66710.125000,7869.500000,636797.875000,16325.914537,5814.341493,50537.551745,1546.422277,495.926406,25266.204045
241,1,0,-nan,-nan,-nan,-nan,-nan,-nan,-nan,-nan,-nan,-nan,-nan,-nan
242,0,8,649275.500000,222524.375000,1253368.875000,67175.250000,7877.750000,626704.000000,16821.232609,5846.791448,64401.493248,1784.492978,606.206390,32214.516666
242,1,0,-nan,-nan,-nan,-nan,-nan,-nan,-nan,-nan,-nan,-nan,-nan,-nan
243,0,8,645483.625000,221543.750000,1280481.125000,66578.625000,7794.250000,640232.750000,15427.319704,5792.973324,67135.677727,1543.545346,541.039913,33536.843097
243,1,0,-nan,-nan,-nan,-nan,-nan,-nan,-nan,-nan,-nan,-nan,-nan,-nan
244,0,8,649122.750000,222532.250000,1314752.375000,67164.750000,7801.250000,657347.875000,20409.396137,6322.351021,87024.964188,1917.723830,522.251795,43533.538561
244,1,0,-nan,-nan,-nan,-nan,-nan,-nan,-nan,-nan,-nan,-nan,-nan,-nan
245,0,8,646816.875000,221506.125000,1302396.125000,66594.125000,7655.000000,651132.750000,18384.110867,6190.353230,74870.171154,1620.487615,866.515291,37237.644101
245,1,0,-nan,-nan,-nan,-nan,-nan,-nan,-nan,-nan,-nan,-nan,-nan,-nan
246,0,8,653324.000000,222669.500000,1347078.750000,67345.500000,8272.125000,673450.750000,24647.391647,7805.449763,146129.425201,2769.391404,1242.314316,72942.371626
246,1,0,-nan,-nan,-nan,-nan,-nan,-nan,-nan,-nan,-nan,-nan,-nan,-nan
247,0,8,653478.750000,222857.500000,1286697.000000,67408.000000,7597.500000,643351.500000,16383.737415,5586.001790,79225.492513,1620.067205,681.880305,39593.203662
247,1,0,-nan,-nan,-nan,-nan,-nan,-nan,-nan,-nan,-nan,-nan,-nan,-nan
248,0,8,651041.750000,222066.500000,1281420.750000,67048.625000,7706.625000,640705.750000,18515.850532,6373.216182,72700.930429,1917.809358,656.929779,36370.085179
248,1,0,-nan,-nan,-nan,-nan,-nan,-nan,-nan,-nan,-nan,-nan,-nan,-nan
249,0,8,649851.125000,222085.250000,1293139.125000,66891.875000,7771.125000,646526.125000,16512.782696,5680.067028,49532.801744,1411.318040,452.872067,24796.655034
249,1,0,-nan,-nan,-nan,-nan,-nan,-nan,-nan,-nan,-nan,-nan,-nan,-nan
250,0,8,650490.375000,222230.875000,1252562.750000,67121.875000,7489.000000,626346.750000,15392.901748,5515.551705,52188.907523,1566.082807,834.090673,26097.120190
250,1,0,-nan,-nan,-nan,-nan,-nan,-nan,-nan,-nan,-nan,-nan,-nan,-nan
251,0,8,650322.500000,222032.250000,1263967.875000,67008.125000,7758.875000,631913.625000,24103.247748,7562.636606,70160.351452,2666.383854,758.238986,35101.830127
251,1,0,-nan,-nan,-nan,-nan,-nan,-nan,-nan,-nan,-nan,-nan,-nan,-nan
252,0,8,651328.375000,222324.750000,1350310.875000,67149.125000,7825.250000,675209.500000,16980.924731,5845.862207,68410.026576,1808.043724,655.763439,34228.901527
252,1,0,-nan,-nan,-nan,-nan,-nan,-nan,-nan,-nan,-nan,-nan,-nan,-nan
253,0,8,652578.750000,222661.875000,1308602.125000,67323.000000,7993.250000,654315.125000,15348.208876,5553.219369,91028.869946,1646.930175,892.074513,45524.941267
253,1,0,-nan,-nan,-nan,-nan,-nan,-nan,-nan,-nan,-nan,-nan,-nan,-nan
254,0,8,650015.125000,222058.000000,1281679.625000,67022.750000,7806.500000,640800.125000,17402.661904,6044.666244,44356.807107,1828.228907,419.410300,22115.051551
254,1,0,-nan,-nan,-nan,-nan,-nan,-nan,-nan,-nan,-nan,-nan,-nan,-nan
255,0,8,649811.875000,222357.875000,1268412.500000,67009.375000,7778.250000,634232.500000,17351.732114,6322.285335,62804.849064,1707.108223,309.633957,31371.260550
255,1,0,-nan,-nan,-nan,-nan,-nan,-nan,-nan,-nan,-nan,-nan,-nan,-nan
