0,-1,709402,241118,1351434,73716,8905,675607,0
0,-1,692570,237493,1299451,70876,7522,649692,2
0,-1,667932,223748,1414204,68941,8425,707115,0
1,-1,637948,218988,1247611,65722,7223,623826,2
1,-1,641904,217872,1325106,65293,8065,662605,0
2,-1,642534,221289,1299630,66874,7420,649869,2
2,-1,643247,218795,1229168,65494,7153,614529,0
3,-1,641804,219738,1201081,65971,7163,600603,2
3,-1,643484,219371,1291825,65672,7032,645935,0
4,-1,638602,219000,1312457,65744,8815,656147,2
4,-1,644193,219336,1211114,65720,7065,605508,0
5,-1,634391,218863,1249445,65792,7035,624697,2
5,-1,640511,218692,1275568,65463,7148,637869,0
6,-1,641393,220963,1250253,66826,7689,625180,2
6,-1,648568,220071,1371593,65934,8150,685763,0
7,-1,634234,219441,1183448,65989,6915,591771,2
7,-1,643279,218473,1343721,65454,8094,671782,0
8,-1,639234,220703,1297416,66669,8008,648628,2
8,-1,642623,219349,1251719,65670,7246,625808,0
9,-1,638762,219794,1217799,66115,7688,608955,2
9,-1,647555,220586,1224753,66477,7783,612239,0
10,-1,640586,219874,1207638,66168,7530,603875,2
10,-1,642280,218971,1277495,65671,7908,638794,0
11,-1,647802,221940,1329690,66946,8094,664832,2
11,-1,643567,219773,1239737,65957,7680,619875,0
12,-1,637732,219696,1265285,65965,8021,632816,2
12,-1,643482,219946,1192943,66121,7312,596349,0
13,-1,637003,219067,1186894,65779,6904,593513,2
13,-1,642773,219378,1241635,65819,7768,620852,0
14,-1,644265,220570,1200550,66322,7042,600313,2
14,-1,642907,218567,1209527,65549,8069,604806,0
15,-1,638170,218927,1267718,65961,7035,633761,2
15,-1,642964,219032,1147262,65740,7272,573611,0
16,-1,638657,219051,1181876,65999,7423,590994,2
16,-1,642867,219282,1212936,65700,8143,606421,0
17,-1,646588,221011,1254911,66875,6971,627434,2
17,-1,663138,223892,1283349,69025,8771,641605,0
18,-1,642057,219062,1228742,65916,7652,614434,2
18,-1,640870,218150,1160025,65397,7909,579957,0
19,-1,635790,219867,1270927,66228,7949,635514,2
19,-1,641935,219454,1317478,65815,8262,658789,0
20,-1,640015,221499,1288635,67026,7811,644398,2
20,-1,644274,219148,1300358,65723,8612,650274,0
21,-1,636357,220050,1211774,66216,8043,605936,2
21,-1,642297,218502,1241763,65467,8131,620800,0
22,-1,637036,219316,1147965,65907,7140,574067,2
22,-1,642958,218843,1183118,65583,7756,591554,0
23,-1,641750,219840,1219162,66134,7574,609628,2
23,-1,643479,219444,1290565,65806,7950,645189,0
24,-1,634912,219654,1183128,66057,7813,591575,2
24,-1,643653,219904,1260079,65976,7336,629983,0
25,-1,636569,219526,1288340,66047,7465,644235,2
25,-1,640495,218687,1288495,65534,8117,644279,0
26,-1,642087,220385,1190319,66333,8050,595160,2
26,-1,641664,219121,1198330,65682,7768,598877,0
27,-1,637486,219920,1280033,66106,8131,640058,2
27,-1,647342,221428,1237585,66737,7960,618842,0
28,-1,665963,228723,1222806,68756,7492,611362,2
28,-1,639931,218772,1380259,65624,7947,690152,0
29,-1,642480,221293,1242863,66879,9016,621279,2
29,-1,642713,219201,1327280,65702,7947,663571,0
30,-1,637691,219447,1142418,66024,7410,571044,2
30,-1,640078,218394,1317798,65447,7774,658948,0
31,-1,645237,221553,1373732,66647,8233,686450,2
31,-1,662240,223375,1386245,68852,9122,692761,0
32,-1,642279,219913,1302440,66184,8089,651264,2
32,-1,640847,218799,1200109,65572,7690,600084,0
33,-1,638084,220190,1293394,66271,7608,646675,2
33,-1,641256,219225,1289242,65773,8213,644592,0
34,-1,637267,219297,1299956,65937,7313,649986,2
34,-1,644584,220750,1176851,66429,7803,588443,0
35,-1,663497,228950,1299613,68837,7500,649853,2
35,-1,639248,218837,1221776,65603,7925,610747,0
36,-1,640244,219942,1318771,66158,7527,659443,2
36,-1,641183,218432,1156105,65493,7760,577841,0
37,-1,636500,219132,1307081,65891,6642,652997,2
37,-1,640739,219381,1205260,65776,7640,602423,0
38,-1,645746,221328,1329212,66892,9212,664794,2
38,-1,645486,221064,1323321,66540,7843,661870,0
39,-1,641598,220423,1224366,66176,6426,612151,2
39,-1,639415,218973,1270715,65625,8280,635295,0
40,-1,641220,221463,1344941,66796,8133,672477,2
40,-1,664578,222962,1348716,68712,9199,674203,0
41,-1,640106,219792,1260907,66005,7451,630407,2
41,-1,644165,219142,1239089,65692,8284,619418,0
42,-1,638864,219793,1304387,66009,8386,652209,2
42,-1,643502,219197,1287052,65743,8067,643603,0
43,-1,672733,231182,1389225,69772,8372,694342,2
43,-1,642170,219045,1379208,65645,8441,689624,0
44,-1,645618,220806,1369106,66464,7817,684445,2
44,-1,650337,222076,1217385,67016,8669,608877,0
45,-1,643968,220898,1219661,66408,8555,609720,2
45,-1,662467,223441,1397046,68919,9706,698616,0
46,-1,643790,222805,1336890,67263,8731,668412,2
46,-1,642202,218749,1267083,65558,8823,633462,0
47,-1,643024,221097,1221246,66361,9114,610482,2
47,-1,640374,218307,1285350,65470,8405,642914,0
48,-1,648274,222186,1350660,67146,8191,675391,2
48,-1,641423,219124,1300509,65728,8158,650177,0
49,-1,638611,220346,1305142,66158,7751,652564,2
49,-1,647895,221185,1316701,66596,7984,658317,0
50,-1,665155,228602,1347918,68611,8518,673917,2
50,-1,640684,218745,1268255,65558,7934,633879,0
51,-1,643183,219957,1291334,66125,7997,645687,2
51,-1,641604,218391,1316284,65395,8768,658118,0
52,-1,642435,221107,1310262,66731,7614,655193,2
52,-1,641359,218560,1337622,65500,8908,668767,0
53,-1,640191,220220,1343684,66220,8184,671761,2
53,-1,641565,219163,1240391,65738,8285,620210,0
54,-1,646730,222162,1219077,67063,7814,609462,2
54,-1,642170,219462,1212441,65823,8205,606227,0
55,-1,638071,219284,1256895,65833,7799,628440,2
55,-1,640363,219061,1204561,65669,8320,602289,0
56,-1,644096,221077,1317217,66712,7785,658701,2
56,-1,641884,218621,1243628,65501,8655,621983,0
57,-1,639311,219674,1220144,65907,8460,610140,2
57,-1,647284,221275,1176832,66586,8582,588329,0
58,-1,642940,219840,1295619,65851,8246,647843,2
58,-1,641232,219230,1254567,65760,8043,627174,0
59,-1,644655,220566,1231198,66075,7712,615650,2
59,-1,642061,220086,1421923,66031,8134,711110,0
60,-1,638120,219443,1198523,65786,7285,599313,2
60,-1,638244,218475,1319211,65470,8213,659893,0
61,-1,639115,219384,1190145,65763,8113,595131,2
61,-1,640801,219735,1337354,65854,8336,668665,0
62,-1,641696,220316,1329921,66106,7349,665017,2
62,-1,660402,223961,1339924,69082,8440,669819,0
63,-1,643163,221519,1252574,66789,7875,626236,2
63,-1,644584,219167,1320576,65756,8503,659966,0
64,-1,640209,219082,1203765,65725,8249,601827,2
64,-1,639602,218646,1295821,65533,8455,647817,0
65,-1,636208,219375,1318632,65842,7720,659368,2
65,-1,642383,219120,1221396,65715,8578,610617,0
66,-1,639609,219623,1137695,65847,6974,568879,2
66,-1,647675,221676,1248407,66892,8004,624223,0
67,-1,688102,232715,1372958,71652,8985,686222,0
67,-1,641178,219580,1304623,65878,7629,652246,2
68,-1,639839,219095,1298870,65705,7855,649403,0
68,-1,642174,219164,1426145,65764,8894,712926,2
69,-1,639550,218851,1229075,65591,8097,614338,0
69,-1,642359,219343,1298434,65813,7915,649069,2
70,-1,645301,220343,1242099,66315,7849,621007,0
70,-1,638766,218725,1197378,65567,7393,598647,2
71,-1,640919,219128,1427559,65677,8619,713656,0
71,-1,648724,221808,1209902,66863,7307,605002,2
72,-1,639779,219277,1320297,65760,8525,659918,0
72,-1,633438,219286,1253509,65287,7631,626579,2
73,-1,639410,219680,1219580,65909,7549,609536,0
73,-1,635320,219345,1304750,65324,7780,652555,2
74,-1,639557,218680,1285450,65529,8094,642715,0
74,-1,633818,219276,1273013,65424,8031,636366,2
75,-1,639819,218407,1321578,65401,8180,660829,0
75,-1,634005,218788,1273209,65254,7936,636670,2
76,-1,645233,220911,1210241,66604,8132,604892,0
76,-1,640790,219869,1295343,66498,8267,647723,2
77,-1,663110,224185,1297464,69166,8812,648545,0
77,-1,637517,219297,1269625,66287,7652,634859,2
78,-1,638479,218490,1200322,65513,7289,600185,0
78,-1,635385,219255,1178920,66260,7154,589583,2
79,-1,636737,218886,1240461,65595,7502,620284,0
79,-1,642863,220851,1182931,67081,7953,591525,2
80,-1,645302,221035,1220755,66609,7830,610432,0
80,-1,637069,218727,1302772,66053,7962,651438,2
81,-1,662526,224051,1351792,69132,8359,675845,0
81,-1,639276,218801,1320010,66142,7557,660080,2
82,-1,637528,218802,1250114,65635,7420,624997,0
82,-1,639622,220756,1121493,67072,7774,560827,2
83,-1,639940,219769,1240336,65939,7394,620109,0
83,-1,640333,218608,1274674,66079,7645,637130,2
84,-1,637833,218509,1255980,65495,8183,628041,0
84,-1,640187,219743,1361710,66417,8335,680877,2
85,-1,637734,218954,1172281,65678,7184,586202,0
85,-1,645247,221172,1272328,67200,7812,636181,2
86,-1,657171,223428,1262644,68937,8171,631281,0
86,-1,643903,219884,1276314,66481,8504,638254,2
87,-1,645852,219432,1434472,65818,8216,717271,0
87,-1,637128,219098,1199670,66193,8882,599814,2
88,-1,647664,220591,1237808,66332,7904,618615,0
88,-1,636690,219564,1243564,66384,7858,621751,2
89,-1,645687,219530,1286299,65878,7750,643204,0
89,-1,636287,218343,1294210,65951,8310,646968,2
90,-1,642594,218725,1289475,65546,8402,644802,0
90,-1,641169,220969,1184744,67061,7664,592451,2
91,-1,642932,219119,1181406,65759,7633,590754,0
91,-1,640666,219329,1297002,66297,8201,648397,2
92,-1,643776,219103,1343354,65663,8444,671654,0
92,-1,637483,219251,1273877,66253,8021,636856,2
93,-1,663727,223489,1289457,68936,8929,644766,0
93,-1,638942,219273,1290067,66298,8267,644820,2
94,-1,640782,218453,1187244,65463,8129,593766,0
94,-1,638974,219750,1289633,66409,8719,644756,2
95,-1,661572,223653,1325167,68979,9139,662620,0
95,-1,638902,218710,1226973,66026,7670,613532,2
96,-1,645289,220746,1198059,66379,8563,598776,0
96,-1,642581,218820,1202581,66138,8260,601130,2
97,-1,642321,219807,1236959,65934,9092,618026,0
97,-1,641507,220980,1217020,67017,8099,608469,2
98,-1,643116,218790,1300340,65594,8908,649967,0
98,-1,641580,219413,1364178,66375,8674,681805,2
99,-1,642425,219015,1326078,65684,7949,663139,0
99,-1,640550,219340,1169916,66286,7386,584928,2
100,-1,646062,220333,1217532,66311,8263,608832,0
100,-1,638061,219051,1263061,66106,7719,631464,2
101,-1,641485,219279,1258787,65744,8181,629424,0
101,-1,641458,219048,1198755,66147,7848,599352,2
102,-1,640142,218693,1212813,65582,7564,606290,0
102,-1,640597,219128,1178576,66270,8137,589274,2
103,-1,662886,223800,1276629,69079,8630,638326,0
103,-1,643674,219211,1344389,66237,8741,672194,2
104,-1,642174,219237,1190285,65737,7560,595168,0
104,-1,638081,219443,1297252,66421,7763,648513,2
105,-1,639104,218546,1272437,65477,7795,636127,0
105,-1,639229,219721,1191651,66386,8226,595778,2
106,-1,639062,218900,1215438,65658,7310,607816,0
106,-1,644878,220414,1198617,66755,7446,599247,2
107,-1,637418,218646,1359247,65611,8035,679594,0
107,-1,642828,220382,1195362,66746,8041,597639,2
108,-1,636937,218856,1215630,65584,7122,607787,0
108,-1,644996,222196,1193685,67510,8030,596837,2
109,-1,642859,219138,1256585,65624,8501,628317,0
109,-1,646984,221844,1256927,67212,8121,628398,2
110,-1,641591,219111,1131985,65725,7635,566051,0
110,-1,646727,220374,1267018,66477,8181,633535,2
111,-1,662880,223495,1279756,68942,8507,639848,0
111,-1,642944,220725,1459682,66627,9453,729568,2
112,-1,641608,219245,1268459,65769,7942,634246,0
112,-1,642827,219649,1296215,66299,8115,648100,2
113,-1,643768,220103,1439099,66017,9512,719432,0
113,-1,647818,221788,1308225,67362,7833,654044,2
114,-1,640586,219069,1208007,65668,7954,603937,0
114,-1,639924,219120,1269597,66153,7787,634655,2
115,-1,646548,221286,1192938,66715,8215,596351,0
115,-1,645815,220123,1315064,66487,8308,657516,2
116,-1,639268,219015,1278034,65701,8201,638991,0
116,-1,639494,220196,1201235,66475,8304,600592,2
117,-1,638900,218549,1279740,65489,8195,639849,0
117,-1,641575,219723,1266065,66371,8114,633011,2
118,-1,642700,220205,1315416,66261,8222,657353,0
118,-1,644379,221556,1214002,67232,7975,607036,2
119,-1,640829,219701,1380158,65893,8279,690635,0
119,-1,646756,221032,1142196,66686,7146,570975,2
120,-1,637940,218755,1330908,65483,8329,665538,0
120,-1,644069,221608,1380195,66981,7424,690107,2
121,-1,637182,218561,1308656,65492,8263,654473,0
121,-1,646809,221673,1229771,67294,7466,614704,2
122,-1,639165,218803,1346387,65584,8137,673101,0
122,-1,645170,219709,1275654,66383,6934,637785,2
123,-1,642460,220525,1262163,66383,7780,630400,0
123,-1,644548,220638,1191765,66746,6873,595867,2
124,-1,644373,220457,1360460,66149,7863,679991,0
124,-1,640283,219827,1248412,66355,8651,624181,2
125,-1,640062,218907,1390115,65616,8157,694662,0
125,-1,643291,219881,1270978,66365,6692,635460,2
126,-1,639510,219363,1330767,65815,8687,665213,0
126,-1,641834,219766,1296200,66316,8662,647991,2
127,-1,640727,219647,1339283,65897,8101,669654,0
127,-1,643754,220513,1271969,66571,7899,635969,2
128,-1,642199,219860,1296355,65919,8167,648223,0
128,-1,639324,218502,1114737,65939,7157,557306,2
129,-1,645008,221676,1357269,66808,7751,678243,0
129,-1,642780,219102,1204780,66378,7714,602363,2
130,-1,660588,224522,1294054,69274,8360,647080,0
130,-1,641524,218647,1305003,66225,8156,652474,2
131,-1,635361,218381,1230161,65370,7594,615103,0
131,-1,645750,219090,1214354,66365,6984,607315,2
132,-1,643889,220306,1250558,66278,7672,625282,0
132,-1,632518,218359,1346187,66180,8677,673099,2
133,-1,641833,218885,1162987,65654,7717,581554,0
133,-1,641541,221129,1402217,67292,9138,700972,2
134,-1,642076,218877,1344536,65597,8573,672137,0
134,-1,637041,218718,1276498,66263,8461,637958,2
135,-1,644786,220577,1338235,66475,8076,669212,0
135,-1,638070,219222,1270247,66342,7684,635241,2
136,-1,663113,224125,1278236,69141,8782,638991,0
137,-1,643132,219123,1247821,65739,8565,624044,0
138,-1,641186,218774,1126796,65598,7837,563541,0
139,-1,640338,219309,1211474,65726,7533,605791,0
140,-1,639497,219172,1276618,65704,7953,638364,0
141,-1,641301,218825,1295897,65582,8070,648002,0
142,-1,646417,221263,1240383,66721,7515,620269,0
143,-1,636893,218013,1270571,65276,6799,635332,0
144,-1,643048,220057,1244009,66250,7434,622064,0
145,-1,636708,218402,1278905,65405,7745,639504,0
146,-1,664015,223614,1231659,68987,8050,615869,0
147,-1,642951,219739,1326832,65948,8138,663464,0
148,-1,638576,218604,1284531,65514,7457,642326,0
149,-1,645755,221720,1263501,66841,7774,631824,0
150,-1,660684,223896,1225448,69063,7910,612684,0
151,-1,638157,219097,1274862,65658,7492,637467,0
152,-1,637968,219038,1162108,65666,7024,581093,0
153,-1,641068,219009,1300361,65701,8211,650241,0
154,-1,638208,219243,1283079,65785,7479,641583,0
155,-1,636793,218729,1192190,65553,7180,596140,0
156,-1,640381,218284,1192380,65410,7385,596227,0
157,-1,642425,219474,1170005,65836,7760,585081,0
158,-1,648564,221974,1247850,66954,8278,623730,0
159,-1,642540,219364,1147851,65674,7387,573963,0
160,-1,639317,219161,1275778,65616,7651,637757,0
161,-1,667670,228671,1368183,68435,8529,684127,0
162,-1,661897,223906,1472827,69003,8576,735656,0
163,-1,642430,220189,1387278,65994,8381,693592,0
164,-1,639630,219237,1199798,65649,7114,599952,0
165,-1,641682,220523,1267329,66236,7779,633737,0
166,-1,639435,219325,1326141,65643,7932,663122,0
167,-1,640248,219658,1288922,65746,7714,644490,0
168,-1,660590,224967,1244543,69304,8432,622277,0
169,-1,641295,219577,1395480,65782,8370,697791,0
170,-1,641098,220008,1188779,65920,7110,594403,0
171,-1,641028,219749,1312042,65790,8187,656076,0
172,-1,640024,219272,1320202,65643,7896,660151,0
173,-1,661483,224579,1269990,69215,7823,634848,0
174,-1,640734,219968,1295298,65847,7724,647761,0
175,-1,643953,220312,1366334,66091,8515,683208,0
176,-1,639163,219363,1308631,65596,8267,654343,0
177,-1,641441,220079,1189086,65895,7330,594231,0
178,-1,644023,221818,1272647,66714,8392,636376,0
179,-1,661042,224479,1246853,69023,8602,623570,0
180,-1,638544,219804,1193567,65797,8521,597043,0
181,-1,639134,219717,1239763,65727,7199,619935,0
182,-1,647767,219632,1195718,65676,7537,597871,0
183,-1,670064,225046,1228364,69281,8377,614219,0
184,-1,647487,220313,1211829,65947,8080,605984,0
185,-1,644256,219506,1148242,65641,7424,574159,0
186,-1,645921,219545,1250458,65649,8034,625276,0
187,-1,648142,220677,1238453,66255,8167,619312,0
188,-1,647355,220665,1180722,66050,7987,590410,0
189,-1,644301,219383,1209899,65623,8103,605015,0
190,-1,643759,219498,1160963,65734,8090,580537,0
191,-1,643463,219412,1242983,65646,8126,621528,0
191,-1,638514,218348,1260237,65949,7910,630015,0
192,-1,673765,226089,1285551,70087,8574,642715,0
192,-1,642582,220170,1384261,66805,7578,692154,0
193,-1,643615,219370,1207342,65630,7222,603723,0
193,-1,660784,223979,1321078,69623,8284,660429,0
194,-1,645183,219827,1306384,65816,8230,653240,0
194,-1,639824,219205,1315885,66206,7739,657972,0
195,-1,647000,220884,1295505,66380,8127,647868,0
195,-1,636391,218579,1224416,66060,7717,612262,0
196,-1,648142,221519,1305377,66655,8250,652706,0
196,-1,643520,219480,1272194,66379,7480,636080,0
197,-1,644492,219305,1313075,65605,8092,656588,0
197,-1,662660,223966,1403928,69610,8366,701924,0
198,-1,646536,220436,1207071,66026,7743,603582,0
198,-1,641672,219451,1299219,66331,7911,649665,0
199,-1,642465,219384,1277616,65630,7854,638848,0
199,-1,637177,218356,1196532,65941,6834,598192,0
200,-1,644384,219895,1276182,65782,7918,638133,0
200,-1,636581,218005,1331029,65939,7669,665555,0
201,-1,642401,219033,1283906,65452,8044,641992,0
201,-1,638300,218717,1331132,66162,7786,665623,0
202,-1,642739,219369,1312443,65625,8324,656147,0
202,-1,636563,218123,1176203,66015,7119,588158,0
203,-1,648749,222155,1277138,66864,8722,638642,0
203,-1,636066,218337,1195183,66060,6492,597746,0
204,-1,641684,219464,1223125,65839,8124,611615,0
204,-1,640748,220513,1286521,67087,7547,642922,0
205,-1,640722,218761,1138568,65529,7930,569336,0
205,-1,640821,218663,1214190,66222,7708,607125,0
206,-1,645655,219154,1395644,65688,9655,697858,0
206,-1,636835,218391,1119232,66125,7242,559672,0
207,-1,649910,221355,1313859,66775,8179,657000,0
207,-1,640023,219070,1194899,66332,8182,597497,0
208,-1,643995,219369,1287570,65805,7982,643680,0
208,-1,643669,221097,1217272,67258,8789,608618,0
209,-1,642957,219339,1409799,65756,7829,704947,0
209,-1,657675,222925,1235787,69417,8565,617822,0
210,-1,644180,220055,1528896,66055,9490,764000,0
210,-1,632839,217316,1113053,65829,6917,556459,0
211,-1,647250,221758,1319323,66809,7522,659693,0
211,-1,644464,220919,1304272,67111,7317,652153,0
212,-1,669347,228464,1272343,68441,8647,636210,0
212,-1,638355,218827,1312255,66208,7287,656146,0
213,-1,645467,220421,1334474,66423,8744,667304,0
213,-1,635552,218188,1365122,66001,7448,682614,0
214,-1,642116,219637,1220865,65945,7906,610466,0
214,-1,657705,222736,1311187,69342,8914,655602,0
215,-1,640813,219607,1299824,65897,7885,649911,0
215,-1,633370,217874,1260319,65909,7634,630247,0
216,-1,642513,219564,1219193,65926,7842,609613,0
216,-1,641716,218773,1368824,66232,7771,684474,0
217,-1,641432,219283,1378578,65783,7979,689327,0
217,-1,638691,217740,1275612,65817,6976,637914,0
218,-1,641904,220167,1289491,66132,7975,644657,0
218,-1,641705,219432,1209034,66456,7127,604512,0
219,-1,647391,220820,1304837,66528,8201,652474,0
219,-1,639700,218827,1291537,66226,8165,645817,0
220,-1,641298,218911,1165189,65669,7951,582646,0
220,-1,639278,218958,1271429,66296,7659,635785,0
221,-1,639506,218718,1303997,65605,7937,652035,0
221,-1,635200,217861,1199757,65926,7420,599939,0
222,-1,640474,219435,1191276,65797,7170,595675,0
222,-1,661727,223470,1370809,69565,8448,685519,0
223,-1,641676,219449,1224707,65899,7870,612393,0
223,-1,637572,218162,1288288,65985,6914,644194,0
224,-1,640645,219088,1309599,65660,8130,654840,0
224,-1,636801,218260,1189146,66083,7189,594636,0
225,-1,645653,221420,1273280,66787,7990,636681,0
225,-1,643793,220875,1295722,67114,7383,647780,0
226,-1,640347,219774,1289776,66019,7583,644922,0
226,-1,637400,218130,1228795,65987,7498,614443,0
227,-1,642630,220547,1284806,66452,7977,642467,0
227,-1,637090,218692,1211438,66166,6751,605742,0
228,-1,636242,218096,1309477,65496,8108,654787,0
228,-1,641781,218827,1230181,66239,7484,614956,0
229,-1,638359,219517,1216452,65993,7390,608273,0
229,-1,643532,220558,1303586,66941,7418,651844,0
230,-1,666174,224130,1263568,69260,8741,631815,0
230,-1,640242,219013,1270792,66331,7749,635437,0
231,-1,642269,218830,1223342,65724,7920,611708,0
231,-1,638493,219027,1294551,66311,7272,647314,0
232,-1,644052,220005,1426606,66332,8429,713356,0
232,-1,639717,219109,1188314,66298,7371,594222,0
233,-1,643522,219778,1462788,66126,9880,731209,0
233,-1,659032,223210,1350521,69494,8618,675297,0
234,-1,642574,219084,1319558,65799,8352,659790,0
234,-1,638191,219053,1224265,66284,7539,612327,0
235,-1,662949,224290,1231568,69303,8822,615756,0
235,-1,637933,219313,1188258,66404,7631,594187,0
236,-1,643741,219163,1173311,65822,8602,586706,0
236,-1,639906,220138,1334679,66875,7330,667393,0
237,-1,643184,219838,1278381,66066,8401,639201,0
237,-1,658033,223903,1292281,69703,8728,646444,0
238,-1,637659,218561,1265550,65611,7537,632777,0
238,-1,637597,218918,1325921,66239,8336,662557,0
239,-1,635283,217608,1187336,65314,7043,593226,0
239,-1,637230,219192,1250636,66384,8067,625313,0
240,-1,645608,221224,1373926,66782,8020,686978,0
240,-1,636044,218485,1472975,66166,8250,736406,0
241,-1,661146,224094,1302985,69243,8134,651443,0
241,-1,646287,221194,1371512,67359,8749,686305,0
242,-1,641228,219745,1313655,66065,7586,656906,0
242,-1,640251,219321,1334164,66372,8759,667059,0
243,-1,640041,219662,1197799,66011,7679,598641,0
243,-1,637223,218661,1245223,66141,8028,622630,0
244,-1,641103,219687,1181068,65963,7730,590525,0
244,-1,636434,218226,1399027,66045,8382,699373,0
245,-1,641283,219046,1298426,65701,8185,649230,0
245,-1,636020,218261,1245684,66051,8241,622835,0
246,-1,646602,221491,1345184,66809,8556,672666,0
246,-1,640954,220600,1315145,67135,8871,657273,0
247,-1,663471,224802,1441861,69364,8901,720963,0
247,-1,660538,223819,1234077,69688,9083,617028,0
248,-1,638516,219208,1326500,65764,8419,663269,0
248,-1,638975,219617,1307296,66521,8459,653363,0
249,-1,638301,219250,1336089,65784,8180,667994,0
249,-1,635438,218841,1384643,66326,8202,692128,0
250,-1,662365,223936,1234859,69133,8545,617265,0
250,-1,634981,219022,1349328,66268,8389,674416,0
251,-1,642922,219336,1205177,65821,8212,602547,0
251,-1,638560,218655,1231232,66223,8080,615600,0
252,-1,648373,221815,1209308,66859,8215,604637,0
252,-1,640226,219561,1318780,66518,7984,659363,0
253,-1,640759,219257,1166908,65838,8115,583368,0
253,-1,637039,218795,1308838,66263,8009,654415,0
254,-1,644186,220057,1138892,66079,7819,569452,0
254,-1,642270,220939,1338615,67221,8792,668978,0
255,-1,642319,219644,1232188,65902,8181,616075,0
255,-1,660026,223935,1339394,69711,8790,669508,0
256,-1,639477,219305,1202090,65832,8304,601003,0
256,-1,635891,218453,1317906,66159,8521,658912,0
257,-1,642205,219668,1252860,65941,7763,626419,0
257,-1,634998,218306,1347269,66059,8193,673204,0
258,-1,641661,219714,1312835,65956,7435,656449,0
258,-1,636712,218163,1296019,66014,7884,648003,0
259,-1,638832,219113,1194384,65723,7697,597188,0
259,-1,639184,219996,1438669,66868,8532,719005,0
260,-1,644136,221200,1300986,66734,7890,650488,0
260,-1,634248,218281,1262470,66057,7334,631385,0
261,-1,640129,219755,1314601,65975,7808,657341,0
261,-1,635190,218701,1163171,66227,6775,581586,0
262,-1,641809,219375,1288306,65903,7805,644176,0
262,-1,633202,218690,1224177,66238,7170,612028,0
263,-1,638691,218848,1429020,65645,8944,714563,0
263,-1,633952,218449,1167257,66104,6268,583620,0
264,-1,645677,221321,1295792,66761,8708,647773,0
264,-1,644534,218030,1274040,65905,8072,636970,0
265,-1,640402,219956,1326000,66132,7936,662999,0
265,-1,647858,220375,1293066,66950,7478,646471,0
266,-1,639149,219105,1248296,65836,8007,624362,0
266,-1,644015,218583,1378802,66175,8475,689240,0
267,-1,639536,219296,1339239,65938,8095,669445,0
267,-1,643397,218372,1193721,66085,7564,596812,0
268,-1,640766,220124,1252995,66188,8159,626295,0
268,-1,644014,218088,1301086,65987,8668,650553,0
269,-1,637149,218853,1314182,65689,8344,657031,0
269,-1,643907,218501,1204187,66187,8420,602026,0
270,-1,646269,221540,1431983,66955,8554,715897,0
270,-1,643472,218416,1285911,66080,8232,642944,0
271,-1,661814,224325,1284670,69349,9211,642876,0
271,-1,642329,218231,1180830,66048,7870,590444,0
272,-1,639857,219409,1285278,65917,8059,641914,0
272,-1,643931,218383,1238133,66085,7714,619067,0
273,-1,640557,220779,1278035,66589,8249,638640,0
273,-1,668464,224571,1363764,70469,9138,681793,0
274,-1,642256,221540,1236994,66932,8507,618424,0
274,-1,642368,218594,1269696,66216,7760,634822,0
275,-1,643961,218852,1145878,65749,7922,572729,0
275,-1,642941,219343,1194141,66440,7898,596906,0
276,-1,647507,220862,1258255,66630,8446,629104,0
276,-1,645896,218994,1353212,66347,8588,676402,0
277,-1,644573,219608,1197124,66001,8344,598456,0
277,-1,644077,218277,1241892,66094,8398,620810,0
278,-1,641938,218975,1292677,65715,8225,646624,0
278,-1,643355,218495,1198236,66063,8029,599109,0
279,-1,644534,219211,1316855,65869,8859,658285,0
279,-1,647310,220514,1343189,67083,8523,671698,0
280,-1,665618,224896,1290397,69552,8943,645189,0
280,-1,689143,231866,1440178,72074,9560,719982,0
281,-1,642800,219506,1337769,66018,7947,668897,0
281,-1,645554,219227,1303350,66399,8207,651475,0
282,-1,640107,218841,1235583,65647,7354,617758,0
282,-1,644189,218939,1321458,66267,8296,660757,0
283,-1,646389,220706,1282853,66513,8946,641437,0
283,-1,646941,220182,1274519,66914,8253,637231,0
284,-1,645368,220118,1205554,66130,8012,602840,0
284,-1,642319,218234,1146756,66032,7928,573199,0
285,-1,661818,223969,1248005,69172,8470,624020,0
285,-1,663585,223307,1369199,69520,8944,684515,0
286,-1,644106,220366,1361964,66411,8468,680874,0
286,-1,645790,220037,1331515,66819,8564,665819,0
287,-1,639599,219374,1300394,65803,7622,650195,0
287,-1,639304,218388,1249806,66022,7998,625014,0
288,-1,634256,217556,1281772,65245,8245,640824,0
288,-1,668563,223592,1375577,69560,9204,687797,0
289,-1,641496,219362,1287529,65884,7818,643745,0
289,-1,642635,218228,1266901,65980,7459,633438,0
290,-1,638887,218427,1175661,65465,7380,587815,0
290,-1,644201,218681,1178329,66176,7817,589171,0
291,-1,640642,219092,1293546,65786,8447,646814,0
291,-1,644036,219257,1325791,66263,8402,662858,0
292,-1,639776,218968,1304061,65739,7587,652064,0
292,-1,643428,218587,1206865,65991,7784,603466,0
293,-1,637761,218663,1295180,65554,7594,647591,0
293,-1,643988,218923,1250725,66081,7812,625392,0
294,-1,664237,224123,1232466,69197,8421,616259,0
294,-1,642579,219116,1195355,66134,7364,597668,0
295,-1,641751,219464,1272123,65919,8109,636083,0
295,-1,642494,218956,1308188,66118,8121,654102,0
296,-1,642099,220257,1187939,66346,8025,593916,0
296,-1,643384,218716,1234893,66031,7335,617471,0
297,-1,641122,220138,1142458,66073,7552,570988,0
297,-1,641292,218647,1335230,66047,7769,667652,0
298,-1,639677,219227,1187030,65861,7933,593546,0
298,-1,665333,224237,1329681,69660,9000,664725,0
299,-1,645750,221870,1391802,67064,8723,695243,0
299,-1,641782,218925,1267964,66074,7807,633992,0
300,-1,662303,224780,1312646,69440,9030,656208,0
300,-1,641768,219260,1166056,66211,7325,583030,0
301,-1,645309,219619,1312810,66006,8250,656426,0
301,-1,644530,218796,1282651,66075,6745,641341,0
302,-1,647819,221023,1309975,66630,8190,654996,0
302,-1,643654,218885,1323171,66096,7703,661573,0
303,-1,647168,221312,1287113,66821,8415,643587,0
303,-1,663955,223859,1244005,69515,7993,622004,0
304,-1,641474,219531,1396219,65973,8119,698105,0
304,-1,642085,218297,1185707,65856,7613,592854,0
305,-1,640780,219622,1293900,65983,7592,646946,0
305,-1,642922,219296,1154089,66256,7199,577029,0
306,-1,644262,220957,1289570,66551,8111,644825,0
306,-1,645103,220476,1185217,66805,7383,592566,0
307,-1,641182,219751,1409317,66041,7938,704721,0
307,-1,643568,219681,1200246,66348,7797,600108,0
308,-1,643385,221024,1317167,66639,7987,658613,0
308,-1,641111,218949,1124221,65996,7094,562114,0
309,-1,639491,218913,1297300,65680,8145,648643,0
309,-1,639868,218904,1177677,65976,7378,588802,0
310,-1,647332,221492,1344358,66860,8519,672123,0
310,-1,645878,220247,1209186,66733,7954,604434,0
311,-1,663846,224266,1271576,69285,9031,635742,0
311,-1,643830,219720,1293777,66286,7543,646897,0
312,-1,641186,219432,1187306,65804,7629,593586,0
312,-1,642845,219394,1284487,66122,7425,642223,0
313,-1,645310,220755,1206465,66292,7971,603146,0
313,-1,643756,220351,1274991,66625,7925,637501,0
314,-1,660191,224475,1202194,69255,8485,601036,0
314,-1,641931,219268,1176276,66088,6980,588174,0
315,-1,642911,219975,1237464,65959,7258,618713,0
315,-1,646450,221663,1285126,67239,8203,642508,0
316,-1,642938,220786,1390566,66215,8148,695180,0
316,-1,646435,219357,1292859,66168,7815,646435,0
317,-1,640866,219763,1374585,65891,8225,687270,0
317,-1,646153,218870,1392910,65959,8955,696431,0
318,-1,644851,221806,1319840,66949,8668,659832,0
318,-1,650548,220927,1279448,66884,8423,639694,0
319,-1,639498,220076,1203201,65987,7942,601645,0
319,-1,648192,220146,1221597,66343,7755,610238,0
320,-1,645905,220131,1208493,66065,7851,604235,0
320,-1,668195,225043,1386137,69810,9533,693032,0
321,-1,645874,220209,1222648,66164,7942,611315,0
321,-1,645813,219739,1344362,66308,8323,672130,0
322,-1,644146,219855,1367579,66037,8142,683799,0
322,-1,647931,220233,1398757,66472,8732,698880,0
323,-1,663993,223999,1233189,69095,8839,616530,0
323,-1,645922,219834,1206992,66284,7921,603644,0
324,-1,647616,221173,1311670,66476,8454,655763,0
324,-1,643502,219134,1225426,66063,8019,612524,0
325,-1,641961,220004,1235688,66136,7415,617877,0
325,-1,643274,219155,1296478,66056,7924,648173,0
326,-1,642508,220204,1323008,66166,8529,661449,0
326,-1,642695,219237,1237461,66138,7881,618743,0
327,-1,643524,219752,1327348,66026,7891,663707,0
327,-1,642726,219540,1302890,66281,8306,651538,0
328,-1,665542,224771,1429125,69480,8524,714476,0
328,-1,647858,219806,1352621,66320,10317,676130,0
329,-1,645838,221360,1408065,66525,7769,703978,0
329,-1,644556,218997,1160908,66016,7725,580391,0
330,-1,647817,221963,1306859,66904,8487,653445,0
330,-1,644326,219493,1138937,66225,7426,569346,0
331,-1,643511,220736,1236811,66312,7759,618408,0
331,-1,642836,219294,1275021,66129,8443,637506,0
332,-1,641789,220094,1356235,66074,8110,678010,0
332,-1,645222,219715,1154585,66241,8157,577153,0
333,-1,642174,220456,1200617,66292,7251,600356,0
333,-1,643383,219696,1316785,66283,8796,658406,0
334,-1,664300,224124,1251841,69177,8638,625803,0
334,-1,641626,219121,1278900,66052,7778,639490,0
335,-1,644881,220577,1281126,66279,8196,640489,0
335,-1,641979,218982,1318587,66018,8598,659267,0
336,-1,647101,221874,1221413,66877,8125,610508,0
336,-1,648302,220572,1211918,66748,7538,605895,0
337,-1,642674,219660,1240285,65898,8133,620012,0
337,-1,643768,219160,1315051,66113,7598,657536,0
338,-1,642594,220235,1145804,66167,7827,572705,0
338,-1,641847,218890,1195801,65996,7207,597830,0
339,-1,664553,225677,1286162,69680,8538,643155,0
339,-1,643370,219200,1378856,66071,7715,689443,0
340,-1,640295,220121,1316452,66120,8213,658229,0
340,-1,642155,219400,1429070,66242,9462,713960,0
341,-1,642756,220174,1351969,66087,8055,675935,0
341,-1,643756,219299,1212392,66053,6921,606204,0
342,-1,646023,221605,1416842,66757,7791,708365,0
342,-1,646412,221119,1286976,67029,7704,643508,0
343,-1,644094,221139,1345748,66370,7965,672887,0
343,-1,662975,223915,1294710,69455,8650,647292,0
344,-1,641085,220382,1255095,66130,7717,627570,0
344,-1,642017,219523,1188593,66209,7661,594253,0
345,-1,647450,222390,1311973,67064,8645,656013,0
345,-1,643429,218677,1161901,65910,8017,580809,0
346,-1,640140,219951,1203746,65934,7866,601872,0
346,-1,649179,221347,1183506,67000,8275,591656,0
347,-1,640039,220506,1306948,66145,8608,653552,0
347,-1,667131,224977,1249597,69723,8661,624622,0
348,-1,641080,221358,1333188,66624,8817,666552,0
348,-1,644572,219618,1162426,66226,8052,581208,0
349,-1,642465,219516,1398506,65719,8522,699246,0
349,-1,644621,219961,1214062,66306,8444,606954,0
350,-1,643581,220285,1307498,66105,7654,653782,0
350,-1,648525,221413,1235849,67075,8102,617919,0
351,-1,666402,225857,1287190,69658,8923,643597,0
351,-1,645156,220356,1331899,66460,7584,665604,0
352,-1,643451,220838,1202989,66259,7809,601568,0
352,-1,642418,219307,1269523,66140,7240,634680,0
353,-1,642069,220542,1321946,66092,8235,660879,0
353,-1,644111,220208,1457181,66477,8752,728569,0
354,-1,643097,220779,1346978,66253,7973,673547,0
354,-1,664287,224941,1331906,69796,9393,665940,0
355,-1,640966,220191,1214707,65963,7463,607368,0
355,-1,644201,219494,1192366,66254,7511,596114,0
356,-1,641170,220397,1315462,66003,8147,657698,0
356,-1,643145,219486,1331817,66158,8310,665871,0
357,-1,639564,220029,1254016,65976,8685,627012,0
357,-1,647705,221305,1239027,66987,7358,619390,0
358,-1,644591,222486,1243685,67070,8030,621811,0
358,-1,645429,220934,1350988,66707,8055,675538,0
359,-1,660901,225159,1264561,69453,8977,632247,0
359,-1,640591,219704,1295472,66259,7973,647699,0
360,-1,646996,221629,1277586,66522,8989,638776,0
360,-1,646167,220715,1215611,66626,7236,607849,0
361,-1,639600,220313,1222254,66043,8482,611093,0
361,-1,651880,220825,1268841,66857,7468,634434,0
362,-1,642613,220773,1190361,66230,7697,595170,0
362,-1,649050,220028,1298021,66340,8435,648974,0
363,-1,641525,220457,1312549,66071,8092,656263,0
363,-1,646654,219954,1321520,66324,8174,660705,0
364,-1,645220,222399,1291419,66978,8279,645297,0
364,-1,647209,220074,1227377,66416,7127,613671,0
365,-1,661636,225208,1247990,69446,8836,623963,0
365,-1,648577,221116,1325593,66738,7274,662742,0
366,-1,641447,221218,1375160,66367,8860,687557,0
366,-1,651387,221777,1254788,67236,8757,626999,0
367,-1,638110,220016,1267061,65953,8511,633550,0
367,-1,646384,220161,1227238,66463,8183,613541,0
368,-1,640550,220769,1421557,66236,8345,710765,0
368,-1,648994,220695,1381529,66797,9829,690257,0
369,-1,645170,221809,1320082,66750,8570,660051,0
369,-1,643209,219727,1155026,66353,7330,577413,0
370,-1,641729,220984,1202151,66313,7952,601100,0
370,-1,645602,219584,1254722,66339,7355,627336,0
371,-1,638526,220148,1384132,65996,8182,692060,0
371,-1,670710,228736,1307182,69061,7827,653598,0
372,-1,662971,225422,1265341,69507,8652,632720,0
372,-1,665324,224543,1336088,69769,8184,668044,0
373,-1,640256,221392,1383813,66638,7999,691908,0
373,-1,646171,219406,1292924,66272,8109,646429,0
374,-1,635864,220105,1317907,66036,7216,658974,0
374,-1,646975,220294,1243575,66597,7557,621718,0
375,-1,646207,219504,1316467,65709,7782,658231,0
375,-1,646111,220571,1217525,66862,7149,608677,0
376,-1,652740,222374,1324320,67011,8407,662280,0
376,-1,646545,220420,1306828,66664,7865,653450,0
377,-1,669077,225124,1275401,69415,8657,637737,0
377,-1,649659,222044,1241051,67482,7918,620537,0
378,-1,651375,222099,1347049,66823,8391,673474,0
378,-1,643926,220089,1218415,66515,8058,609077,0
379,-1,646972,220870,1287258,66247,7988,643608,0
379,-1,645693,220951,1204378,67001,7520,602244,0
380,-1,644961,220483,1286407,66089,8025,643156,0
380,-1,647177,219400,1304041,66320,8012,652040,0
381,-1,651973,222193,1325803,66946,8182,662715,0
381,-1,646628,220492,1237540,66657,7096,618665,0
382,-1,669517,225407,1270730,69526,8906,635409,0
382,-1,646103,220395,1213414,66785,7371,606618,0
383,-1,646338,220343,1194147,66049,7685,597055,0
383,-1,645377,220253,1209990,66548,7576,604981,0
384,-1,648283,221493,1297181,66668,8421,648508,0
384,-1,645748,219599,1190613,66348,7494,595299,0
385,-1,647227,220688,1248116,66171,8775,623970,0
385,-1,664410,223912,1417189,69573,9911,708622,0
386,-1,646845,220699,1178163,66294,8074,589021,0
386,-1,647107,220579,1327194,66774,9347,663092,0
387,-1,649541,222159,1274348,66967,8607,637176,0
387,-1,645318,220237,1198743,66627,8030,599298,0
388,-1,665280,225017,1200943,69535,8824,600310,0
388,-1,644233,220144,1143662,66572,7657,571733,0
389,-1,648861,220416,1144115,66212,7250,572008,0
389,-1,641609,219349,1180097,66281,7505,590041,0
390,-1,647139,220442,1193516,66259,7085,596707,0
390,-1,647232,220467,1243618,66594,7450,621793,0
391,-1,647119,220553,1159342,66353,7645,579588,0
391,-1,647073,220689,1309179,66589,7699,654549,0
392,-1,644943,219960,1317207,66130,8364,658554,0
392,-1,643514,219732,1255822,66318,8033,627925,0
393,-1,645554,220686,1367589,66371,7855,683844,0
393,-1,644851,220907,1253255,66734,7552,626679,0
394,-1,642380,219542,1206823,66006,6883,603540,0
394,-1,644282,219900,1254787,66422,7685,627221,0
395,-1,644463,220137,1327931,66242,8377,663979,0
395,-1,648182,221553,1313903,67130,7403,656915,0
396,-1,647338,220125,1366505,66136,8554,683227,0
396,-1,640888,219282,1261774,66193,7440,630848,0
397,-1,652444,222611,1364464,67259,8627,682278,0
397,-1,666536,225421,1345346,70033,8291,672582,0
398,-1,647218,220608,1370000,66348,7925,684947,0
398,-1,644981,220879,1206061,66763,6831,602987,0
399,-1,648544,221205,1451050,66620,7970,725554,0
399,-1,642098,220136,1311213,66421,7509,655547,0
400,-1,644369,220072,1304339,66167,7805,652078,0
400,-1,642523,220169,1277758,66416,7885,638880,0
401,-1,649032,222560,1356373,67234,8175,677728,0
401,-1,650432,220423,1363632,66547,7777,681865,0
402,-1,644197,219923,1341331,66027,8515,670660,0
402,-1,647783,220279,1256127,66497,7998,628067,0
403,-1,648440,221887,1275266,66924,8605,637029,0
403,-1,651927,221853,1213993,67267,8159,607011,0
404,-1,644592,220698,1295917,66372,8591,647911,0
404,-1,647485,220752,1236190,66652,7197,617947,0
405,-1,641248,219613,1342970,65971,8928,671432,0
405,-1,646235,219974,1361559,66332,8362,680858,0
406,-1,663117,224446,1331492,69198,8677,665620,0
406,-1,648341,220857,1262861,66647,8117,631293,0
407,-1,640834,219830,1368381,65985,8242,684147,0
407,-1,650169,221734,1252389,67137,8026,626074,0
408,-1,644132,219893,1322699,66096,8759,660500,0
408,-1,643003,219340,1146345,66134,7312,573063,0
409,-1,641319,219128,1328484,65823,8252,664253,0
409,-1,644099,220058,1387659,66450,9911,693626,0
410,-1,647505,221790,1526676,66988,8825,763362,0
410,-1,668980,225425,1278265,69926,8710,639080,0
411,-1,663381,224291,1310284,69369,8889,654803,0
411,-1,644492,220787,1228710,66812,7351,614283,0
412,-1,639056,218975,1333721,65763,8308,666903,0
412,-1,642562,219268,1212182,66223,6546,606042,0
413,-1,642540,220768,1355234,66579,8567,677079,0
413,-1,642172,219563,1245745,66283,7420,622855,0
414,-1,641509,220573,1405483,66206,7863,702683,0
414,-1,644633,221012,1245332,67006,7278,622598,0
415,-1,641142,219919,1243308,65948,7926,621667,0
415,-1,645082,219609,1308817,66252,8259,654383,0
416,-1,640414,219768,1321187,65973,7679,660594,0
416,-1,645107,220506,1220633,66758,7524,610289,0
417,-1,643893,221108,1297288,66584,8116,648617,0
417,-1,643945,220117,1217414,66431,7329,608783,0
418,-1,650295,221552,1319345,66791,8461,659669,0
418,-1,645723,221047,1222518,67000,7786,611278,0
419,-1,666563,224565,1316229,69283,8873,657839,0
419,-1,642620,219624,1183241,66268,7106,591600,0
420,-1,642218,219593,1201366,65887,8177,600625,0
420,-1,643693,220442,1309500,66582,7955,654700,0
421,-1,644443,220588,1206256,66220,8514,603070,0
421,-1,645752,221797,1215480,67302,7858,607697,0
422,-1,642446,219580,1269945,65896,7035,634966,0
422,-1,660697,224020,1342701,69538,8868,671271,0
423,-1,645462,221057,1413317,66584,7421,706566,0
423,-1,644012,220477,1199431,66576,7543,599719,0
424,-1,642458,219740,1276769,65958,7609,638434,0
424,-1,641677,219874,1326543,66344,8229,663251,0
425,-1,642938,220305,1342954,66013,7646,671447,0
425,-1,643574,220761,1200268,66861,7657,600197,0
426,-1,646039,221507,1306501,66795,7720,653352,0
426,-1,639765,219764,1379785,66314,9014,689880,0
427,-1,637207,218718,1156514,65525,6539,578277,0
427,-1,643473,219446,1298979,66261,8449,649158,0
428,-1,640690,220153,1248235,66103,7215,624047,0
428,-1,646416,220241,1283688,66476,8774,641862,0
429,-1,646412,221328,1369970,66633,8759,684983,0
429,-1,648378,221496,1155465,67209,8336,577247,0
430,-1,643216,219701,1273805,65945,7844,636903,0
430,-1,639992,218657,1197032,65921,8242,598488,0
431,-1,642261,219743,1272861,65951,7980,636413,0
431,-1,646016,220754,1195232,66866,7944,597563,0
432,-1,641416,219324,1248568,65827,7137,624247,0
432,-1,641578,219598,1451689,66297,9216,725858,0
433,-1,645523,221364,1305646,66759,8255,652800,0
433,-1,645338,220593,1189928,66641,7482,594948,0
434,-1,660479,223788,1250563,69090,8385,625336,0
434,-1,641606,219522,1278744,66255,7876,639357,0
435,-1,644662,220979,1328818,66513,8627,664373,0
435,-1,644293,220858,1202290,66887,7744,601099,0
436,-1,640584,220260,1288264,66076,8041,644092,0
436,-1,642516,219924,1215901,66398,7780,607619,0
437,-1,638323,219212,1197450,65666,7267,598726,0
437,-1,660276,223912,1429980,69511,9121,714971,0
438,-1,642752,220641,1293946,66430,7701,646976,0
438,-1,639342,219809,1226986,66339,7842,613495,0
439,-1,639952,219949,1242185,66008,7125,621069,0
439,-1,646436,221111,1206514,67003,8193,603061,0
440,-1,666313,224417,1234918,69335,8601,617404,0
440,-1,642843,219722,1199823,66290,7857,599924,0
441,-1,645057,220336,1244703,66256,8119,622377,0
441,-1,638057,218944,1223202,65986,7550,611593,0
442,-1,640428,219048,1130848,65797,7060,565498,0
442,-1,662462,224279,1410940,69621,8706,705432,0
443,-1,661010,224091,1306209,69192,8147,653040,0
443,-1,639443,219200,1260764,66146,7842,630422,0
444,-1,640868,219123,1336661,65765,7802,668316,0
444,-1,639282,219291,1298704,66193,8171,649329,0
445,-1,640230,219222,1305607,65743,7951,652780,0
445,-1,660390,224142,1281956,69579,9250,640929,0
446,-1,640144,219749,1253871,66015,7051,626848,0
446,-1,637581,218146,1221986,65832,8347,610919,0
447,-1,638628,219483,1294764,65805,6811,647402,0
447,-1,639570,219608,1271387,66317,8285,635675,0
448,-1,645737,221833,1326053,66874,8160,662880,0
448,-1,641835,220925,1155325,66936,8299,577554,0
449,-1,639735,219888,1287319,66009,7313,643610,0
449,-1,635484,219042,1231505,66082,7843,615511,0
450,-1,636914,218931,1224903,65646,6846,612413,0
450,-1,643290,219396,1282703,66200,7247,641146,0
451,-1,639761,220400,1333373,66475,7404,666687,0
451,-1,651381,221216,1210189,67110,7489,605112,0
452,-1,639022,219528,1276906,65919,7100,638372,0
452,-1,646070,219450,1309348,66237,8598,654703,0
453,-1,641648,219476,1297298,65913,7714,648668,0
453,-1,648198,220152,1613046,66503,9614,806378,0
454,-1,641993,220031,1226629,66151,7075,613330,0
454,-1,644239,219068,1291379,66105,7910,645677,0
455,-1,639911,219354,1251016,65913,7711,625500,0
455,-1,650016,221912,1212175,67346,7796,606096,0
456,-1,659331,223750,1246524,69163,8052,623206,0
456,-1,665104,224483,1345732,69627,9179,672802,0
457,-1,642991,220271,1188531,66180,6945,594257,0
457,-1,646539,219680,1216601,66341,7282,608258,0
458,-1,637574,219774,1314791,66063,7085,657315,0
458,-1,646896,219791,1313034,66341,8280,656503,0
459,-1,638253,219200,1288084,65790,7031,644010,0
459,-1,649790,221351,1249444,67059,8090,624691,0
460,-1,661117,224274,1238220,69319,8275,619147,0
460,-1,643457,219190,1274342,66210,7205,637263,0
461,-1,637684,219318,1289635,65957,7266,644678,0
461,-1,642999,219293,1480519,66158,9410,740246,0
462,-1,638263,219527,1221694,65960,6611,610863,0
462,-1,647168,221120,1200787,67079,7089,600432,0
463,-1,639765,220571,1276458,66498,7482,638332,0
463,-1,665884,224880,1350644,69830,8154,675373,0
464,-1,638106,219193,1148968,65950,7524,574426,0
464,-1,642265,219508,1294789,66231,7510,647376,0
465,-1,636082,218806,1259565,65758,8296,629624,0
465,-1,650251,220790,1221752,66887,8533,610875,0
466,-1,643183,222022,1275416,67027,8113,637659,0
466,-1,645770,219843,1332281,66383,8075,666071,0
467,-1,656477,224241,1184292,69213,7801,592054,0
467,-1,645796,220144,1221545,66499,7603,610668,0
468,-1,645197,219778,1167090,65909,7706,583512,0
468,-1,643610,219378,1400114,66189,8906,700024,0
469,-1,644885,219953,1219790,66022,7810,609869,0
469,-1,644515,219984,1283036,66355,8374,641507,0
470,-1,647653,221113,1324402,66568,8721,662203,0
470,-1,665310,224340,1586588,69634,9501,792971,0
471,-1,644418,220164,1215036,66088,7529,607503,0
471,-1,641524,219737,1285726,66324,7296,642879,0
472,-1,643839,220113,1204070,66052,7337,601990,0
472,-1,643247,219576,1284776,66241,7735,642314,0
473,-1,642892,219277,1264725,65843,7707,632452,0
473,-1,646665,219997,1202411,66465,7887,601208,0
474,-1,646978,221374,1326591,66867,7553,663255,0
474,-1,645739,219777,1408229,66319,8856,704124,0
475,-1,644465,220392,1340862,66269,8111,670496,0
475,-1,648217,221213,1227150,67006,7995,613558,0
476,-1,645758,220149,1297177,66389,8231,648542,0
476,-1,643450,218818,1236001,65908,7651,618035,0
477,-1,642180,219577,1210737,66071,7073,605377,0
477,-1,644694,219920,1280676,66366,7620,640361,0
478,-1,645139,221330,1339079,66880,8002,669398,0
478,-1,663103,223923,1361769,69469,8811,680920,0
479,-1,661504,223762,1304572,69119,9127,652167,0
479,-1,648448,221344,1300677,67012,7137,650383,0
480,-1,642570,220000,1412894,66167,8478,706263,0
480,-1,644095,219882,1248266,66347,7999,624111,0
481,-1,643879,221035,1285626,66658,8208,642551,0
481,-1,640153,218928,1322606,66018,8337,661477,0
482,-1,640303,219836,1310579,66015,8574,655215,0
482,-1,664120,224419,1358412,69605,8645,679163,0
483,-1,641785,219133,1232475,65813,8130,616187,0
483,-1,643299,219880,1281742,66319,7088,640839,0
484,-1,663823,224193,1254116,69319,8540,626904,0
484,-1,640372,219473,1261861,66246,7540,630929,0
485,-1,638984,218554,1139673,65661,7105,569886,0
485,-1,642900,220894,1166621,66882,7813,583220,0
486,-1,644130,220703,1349192,66601,7944,674627,0
486,-1,644246,219861,1389210,66370,9432,694354,0
487,-1,640153,219477,1375382,65990,7700,687661,0
487,-1,643235,219501,1218660,66206,8534,609154,0
488,-1,639567,219550,1293197,66015,7763,646596,0
488,-1,647696,221639,1193286,67223,8281,596496,0
489,-1,644868,221511,1208554,66978,7992,604047,0
489,-1,663583,224272,1246707,69568,8619,623140,0
490,-1,643338,220489,1205113,66324,8179,602608,0
490,-1,644039,220299,1167381,66504,8063,583636,0
491,-1,640262,219511,1203968,66016,7525,601897,0
491,-1,642254,219337,1211612,66080,7592,605759,0
492,-1,643215,220961,1270249,66663,8480,634638,0
492,-1,643009,219918,1187644,66399,7897,593660,0
493,-1,640772,219590,1347392,65910,7714,673692,0
493,-1,644964,219730,1434552,66215,8428,717310,0
494,-1,637629,219238,1205528,65908,6744,602842,0
494,-1,663748,224491,1328069,69583,8877,664022,0
495,-1,643639,221398,1325990,66896,7520,663073,0
495,-1,642818,220392,1271906,66465,8241,635819,0
496,-1,659262,224241,1266205,69328,7712,633157,0
496,-1,642242,219944,1302082,66263,8109,651071,0
497,-1,641141,219508,1238309,65976,7288,619222,0
497,-1,639592,218953,1177889,65948,7308,588785,0
498,-1,641452,219037,1237385,65858,7605,618749,0
498,-1,641734,220081,1283513,66357,8213,641743,0
499,-1,645815,220830,1317876,66612,8017,658972,0
499,-1,663565,225083,1615697,69799,10053,807791,0
500,-1,639430,219094,1313128,65849,7513,656586,0
500,-1,650983,221004,1484417,66705,10254,741127,0
501,-1,639237,219503,1218190,66023,6735,609145,0
501,-1,645225,219264,1306574,65998,8542,653275,0
502,-1,640972,220391,1330090,66533,7176,665105,0
502,-1,647858,220524,1313915,66513,8172,656967,0
503,-1,641056,219495,1203311,66031,7117,601713,0
503,-1,644805,219512,1282084,66065,8536,641033,0
504,-1,641214,219500,1320282,65908,7647,660202,0
504,-1,649731,221862,1198644,67215,8136,599322,0
505,-1,640254,219413,1205209,66005,7031,602685,0
505,-1,668090,225329,1354448,69836,9204,677061,0
506,-1,639083,218872,1216346,65810,6728,608269,0
506,-1,644063,220140,1202459,66359,7325,601228,0
507,-1,644631,221689,1321809,66995,7071,660944,0
507,-1,644358,220031,1357198,66301,8009,678513,0
508,-1,660504,224120,1406567,69307,7986,703368,0
508,-1,649284,221268,1236675,66948,8384,618325,0
509,-1,637823,219555,1303860,66016,7457,651983,0
509,-1,646449,220551,1280616,66509,7822,640338,0
510,-1,641201,218926,1216767,65786,7468,608423,0
510,-1,643457,220159,1314841,66327,8237,657422,0
511,-1,640224,219680,1216845,65979,7725,608470,0
511,-1,643609,220111,1302849,66369,8218,651411,0
512,-1,637909,219204,1206537,65887,7563,603314,0
512,-1,646861,221624,1217758,67062,7868,608812,0
513,-1,639152,219708,1198838,66005,7448,599324,0
513,-1,644373,220887,1360174,66640,9353,680054,0
514,-1,659294,224265,1300854,69345,8698,650361,0
514,-1,643759,219603,1148126,66240,7775,574064,0
515,-1,642563,220280,1317817,66238,7833,658905,0
515,-1,645130,219721,1209381,66353,8046,604629,0
516,-1,640061,219754,1267059,65967,7677,633371,0
516,-1,649582,222038,1202627,67313,7705,600910,0
517,-1,641832,220492,1400115,66512,8250,700161,0
517,-1,643455,220024,1353032,66371,8335,676478,0
518,-1,641908,220699,1257111,66422,7471,628571,0
518,-1,645900,220981,1216338,66849,6759,608128,0
519,-1,658777,224257,1261920,69338,8626,630879,0
519,-1,644047,220090,1347222,66381,7583,673543,0
520,-1,636134,219376,1297959,65975,8212,648953,0
520,-1,640751,219835,1366174,66335,7940,683056,0
521,-1,638204,220113,1276156,66161,7734,638058,0
521,-1,643884,220298,1312981,66485,8226,656478,0
522,-1,642646,219630,1211314,66001,7655,605489,0
522,-1,641702,219589,1231108,66244,7140,615575,0
523,-1,645018,220620,1329342,66386,7190,664696,0
523,-1,648128,222531,1485981,67545,8191,743008,0
524,-1,639821,218988,1208400,65813,7128,604191,0
524,-1,645807,220300,1314135,66625,8186,657039,0
525,-1,662941,223831,1286803,69211,8470,643353,0
525,-1,644409,220032,1246872,66506,7767,623414,0
526,-1,637271,218982,1220880,65874,7121,610418,0
526,-1,642835,219964,1465707,66470,9581,732744,0
527,-1,641076,219621,1316295,65967,8327,658136,0
527,-1,643999,220348,1312781,66617,7697,656302,0
528,-1,644019,220515,1282050,66381,7560,640957,0
528,-1,645560,220169,1208028,66588,8375,603910,0
529,-1,639455,218821,1252663,65776,7233,626285,0
529,-1,648248,222454,1204818,67578,7029,602303,0
530,-1,660582,223945,1302534,69252,8059,651205,0
530,-1,663126,224980,1326764,69916,8447,663287,0
531,-1,639289,219785,1251402,66057,7318,625666,0
531,-1,642904,220174,1422493,66551,8076,711224,0
532,-1,642113,220624,1340500,66546,7546,670077,0
532,-1,643735,220924,1210968,66954,7527,605340,0
533,-1,639178,219437,1296238,65915,7342,648120,0
533,-1,642417,220582,1356205,66713,8313,678123,0
534,-1,634819,218795,1202665,65761,6923,601413,0
534,-1,644260,220996,1311204,66862,8049,655537,0
535,-1,646024,221460,1262132,66931,8047,631096,0
535,-1,644378,219926,1253536,66433,7280,626737,0
536,-1,662396,224132,1225931,69331,7807,612810,0
536,-1,648440,221952,1209539,67402,7240,604818,0
537,-1,640437,219464,1175363,66006,7639,587606,0
537,-1,641464,219759,1280420,66384,7548,640202,0
538,-1,639508,219654,1152961,66093,7356,576472,0
538,-1,641834,219878,1491825,66493,8453,745845,0
539,-1,641096,219866,1219147,66094,8535,609505,0
539,-1,642169,220119,1272181,66503,8316,636158,0
540,-1,636354,218406,1174993,65715,7783,587455,0
540,-1,645116,222154,1222067,67540,7442,610871,0
541,-1,637003,219023,1167717,65788,7521,583781,0
541,-1,642021,220576,1282924,66688,8268,641529,0
542,-1,640575,219912,1311165,66157,7319,655575,0
542,-1,642155,220183,1398335,66573,7963,699207,0
543,-1,638743,219471,1169935,66019,6969,584918,0
543,-1,640763,219944,1281052,66471,8201,640545,0
544,-1,638487,219732,1281409,66074,7734,640705,0
544,-1,657374,222956,1367385,69231,8787,683625,0
545,-1,640127,220628,1270604,66386,6912,635043,0
545,-1,640307,220516,1197816,66670,7422,598925,0
546,-1,638172,219531,1230439,65952,7206,615247,0
546,-1,637771,219885,1302594,66445,7707,651265,0
547,-1,658304,223832,1265525,69182,8315,632675,0
547,-1,650066,221089,1215419,67061,8152,607644,0
548,-1,638112,219974,1292496,66070,7480,646222,0
548,-1,647471,220593,1254033,66708,9050,626957,0
549,-1,638918,220620,1387876,66531,7762,694001,0
549,-1,647434,220751,1216031,66769,7841,608024,0
550,-1,641252,219268,1288704,65928,7299,644387,0
550,-1,644634,219888,1290210,66493,8178,645059,0
551,-1,641173,219613,1326857,66012,7564,663430,0
551,-1,647357,221358,1255109,67160,7761,627290,0
552,-1,639483,219021,1230997,65835,6937,615535,0
552,-1,648486,220319,1217926,66638,8142,608917,0
553,-1,640527,219786,1294070,66108,7890,647054,0
553,-1,665346,224571,1505773,69823,9464,752804,0
554,-1,639744,219568,1256455,65985,7444,628171,0
554,-1,644734,220055,1286826,66500,8057,643403,0
555,-1,638853,219958,1215237,66186,6711,607611,0
555,-1,647005,221114,1326401,67091,8282,663004,0
556,-1,638628,219629,1323815,66111,7749,661869,0
556,-1,643858,220191,1210183,66474,7794,605058,0
557,-1,638527,218721,1198714,65800,6833,599361,0
557,-1,666757,224400,1338575,69753,9153,669290,0
558,-1,644302,221590,1309126,66961,7759,654453,0
558,-1,644900,220113,1390613,66575,8288,695293,0
559,-1,635711,218786,1231384,65744,6980,615690,0
559,-1,646795,221255,1251040,67133,8011,625493,0
560,-1,642368,220719,1294777,66615,8283,647147,0
560,-1,647258,220899,1190851,66760,7375,595408,0
561,-1,637752,219863,1325407,66080,7767,662708,0
561,-1,643341,219813,1302129,66471,7763,650810,0
562,-1,635764,219160,1240939,65860,7034,620719,0
562,-1,648476,222257,1226615,67516,7728,613254,0
563,-1,641748,221904,1240377,67049,8102,620024,0
563,-1,645938,220184,1292020,66540,8284,646033,0
564,-1,658655,223960,1173374,69270,8262,586695,0
564,-1,643553,219840,1313934,66454,8150,656957,0
565,-1,666659,228949,1233001,68856,7713,616397,0
565,-1,671597,229525,1285441,69358,8720,642695,0
566,-1,638459,219234,1186410,65887,7270,593182,0
566,-1,641160,219489,1150246,66279,7707,575060,0
567,-1,640453,220253,1142290,66246,7773,570996,0
567,-1,643091,219406,1214287,66285,9202,607130,0
568,-1,637235,219523,1191684,65934,7420,595855,0
568,-1,662535,224415,1250771,69748,9635,625170,0
569,-1,639725,219955,1206617,66147,7736,603204,0
569,-1,643290,220285,1163000,66619,8455,581487,0
570,-1,638138,219695,1290371,65993,7213,645215,0
570,-1,641471,219907,1217575,66377,8885,608736,0
571,-1,636240,219538,1367317,65998,8039,683716,0
571,-1,647349,220400,1229842,66652,8710,614864,0
572,-1,638247,220720,1268658,66328,7164,634393,0
572,-1,664346,224387,1351716,69744,8837,675717,0
573,-1,641358,220743,1305121,66601,8076,652527,0
573,-1,646004,220203,1224739,66613,7735,612272,0
574,-1,636582,219263,1426730,65889,8255,713355,0
574,-1,648561,221643,1210032,67231,7622,604951,0
575,-1,636720,219671,1262894,65994,8032,631423,0
575,-1,641331,219561,1247375,66422,7597,623644,0
576,-1,636768,219999,1296133,66138,7634,648180,0
576,-1,645545,220155,1299523,66541,8707,649720,0
577,-1,633780,218926,1279184,65779,6858,639326,0
577,-1,649750,222367,1273626,67554,8465,636703,0
578,-1,647811,220815,1287568,66444,8303,643747,0
578,-1,644320,220426,1309327,66610,8690,654307,0
579,-1,648424,221374,1316518,66919,9170,658298,0
579,-1,643053,220051,1290944,66607,8952,645279,0
580,-1,644802,220128,1279023,66176,8306,639517,0
580,-1,640500,219379,1180509,66351,7355,590243,0
581,-1,642658,219527,1159805,66024,7951,579878,0
581,-1,643816,220479,1294749,66739,8353,647350,0
582,-1,642166,219669,1265934,66113,7688,633015,0
582,-1,666502,224229,1565561,69778,9270,782820,0
583,-1,647684,221191,1292565,66830,8096,646275,0
583,-1,644804,220057,1320323,66607,7635,660145,0
584,-1,640549,219370,1174730,65953,6841,587398,0
584,-1,643194,219659,1285308,66474,7614,642629,0
585,-1,643432,220829,1295649,66635,7930,647872,0
585,-1,640903,219002,1195538,66257,7644,597783,0
586,-1,643635,220809,1232219,66440,7250,615845,0
586,-1,643825,220272,1310850,66696,7551,655446,0
587,-1,639729,219312,1124554,65877,6963,562354,0
587,-1,645972,221586,1201356,67487,7408,600657,0
588,-1,660007,224003,1202892,69262,8182,601304,0
588,-1,661484,224035,1390654,69739,8167,695346,0
589,-1,640134,219378,1202571,65952,8271,601221,0
589,-1,643591,220756,1210294,66851,7961,605109,0
590,-1,639290,218899,1328384,65657,8341,664204,0
590,-1,663938,224783,1286919,70023,8678,643401,0
591,-1,645322,221251,1408472,66853,8650,704118,0
591,-1,642222,220397,1229078,66798,7466,614611,0
592,-1,640396,219748,1321608,65930,8471,660818,0
592,-1,640084,219514,1261659,66456,7443,630800,0
593,-1,640680,219483,1355464,65953,8360,677376,0
593,-1,641844,220407,1271433,66797,8424,635745,0
594,-1,637587,218694,1255896,65704,7889,628330,0
594,-1,647807,220104,1225260,66652,7789,612630,0
595,-1,642211,220890,1388595,66670,8485,693872,0
595,-1,647590,220279,1310202,66744,8051,655073,0
596,-1,658938,223950,1434928,69264,8850,717681,0
596,-1,647945,220719,1273944,66818,7827,636897,0
597,-1,642312,220166,1488004,66242,8884,743887,0
597,-1,665894,224464,1344997,69925,8170,672472,0
598,-1,637015,219532,1417964,65953,9575,709026,0
598,-1,647582,220129,1298191,66659,7735,649072,0
599,-1,648097,221896,1313929,67047,8431,657087,0
599,-1,646434,220367,1258073,66782,7738,629071,0
600,-1,662220,223865,1242590,69216,7981,621559,0
600,-1,647720,221302,1249318,67277,7979,624637,0
601,-1,642698,220106,1383519,66218,8644,691762,0
601,-1,643353,220065,1385047,66635,8081,692495,0
602,-1,639663,219026,1353825,65762,7376,677093,0
602,-1,644067,219646,1257493,66497,7597,628778,0
603,-1,639341,219015,1244338,65865,7157,622226,0
603,-1,648833,221582,1207125,67383,7343,603562,0
604,-1,641184,219696,1258802,66103,7968,629536,0
604,-1,643671,219968,1196322,66528,7259,598070,0
605,-1,639696,219237,1307743,65912,7679,653872,0
605,-1,645512,220424,1298366,66710,7691,649169,0
606,-1,638167,219315,1298709,65889,7716,649169,0
606,-1,642901,219928,1252749,66452,7165,626358,0
607,-1,638014,219000,1221181,65809,7737,610632,0
607,-1,642853,219785,1332898,66411,7777,666471,0
608,-1,659105,223998,1285633,69264,7944,642689,0
608,-1,644117,219512,1277729,66331,7572,638865,0
609,-1,636527,219154,1275821,65804,7470,637839,0
609,-1,643976,219873,1283309,66467,7945,641642,0
610,-1,642127,219507,1254293,66013,8269,627127,0
610,-1,646492,220936,1230339,66988,7579,615160,0
611,-1,642956,220232,1336173,66209,7582,667954,0
611,-1,642741,219716,1284787,66459,7792,642390,0
612,-1,638720,219346,1322409,65957,7194,661247,0
612,-1,641361,219356,1234958,66239,8209,617479,0
613,-1,639922,220163,1301018,66109,6824,650384,0
613,-1,642486,219426,1258312,66282,8145,629126,0
614,-1,659705,223783,1245095,69184,8529,622487,0
614,-1,648317,222196,1202394,67517,7742,601127,0
615,-1,638869,219581,1311081,66032,8405,655323,0
615,-1,663468,224610,1277228,69774,9503,638520,0
616,-1,640283,220551,1300716,66508,7869,650330,0
616,-1,644733,220677,1197431,66704,8245,598631,0
617,-1,636451,218761,1213535,65674,7856,606746,0
617,-1,645589,221095,1152171,66807,7798,576083,0
618,-1,640434,219619,1306085,65988,8524,653095,0
618,-1,641381,219919,1214723,66441,8274,607320,0
619,-1,640780,220024,1340331,66181,8301,670102,0
619,-1,639732,219494,1185842,66415,7121,592920,0
620,-1,658530,224082,1257062,69294,8529,628429,0
620,-1,639491,219370,1325388,66373,7371,662702,0
621,-1,638666,219145,1322537,65841,8520,661263,0
621,-1,641558,220369,1322902,66719,7732,661442,0
622,-1,639885,220730,1321899,66585,8464,660871,0
622,-1,639729,219655,1265254,66446,7841,632592,0
623,-1,636795,219457,1315566,65942,8589,657777,0
623,-1,643733,219487,1302108,66406,7490,651047,0
624,-1,637390,218400,1203686,65568,7653,601821,0
624,-1,666561,224700,1412468,69887,8647,706174,0
625,-1,647551,221471,1283187,66907,8812,641285,0
625,-1,642190,220026,1296742,66528,7418,648348,0
626,-1,662504,223670,1275686,69151,9002,637879,0
626,-1,642201,219505,1266614,66334,7055,633278,0
627,-1,640474,219466,1154083,65997,7206,577120,0
627,-1,641520,219604,1223575,66459,7369,611694,0
628,-1,641858,219416,1140960,66011,7376,570541,0
628,-1,638759,219009,1307257,66160,8389,653478,0
629,-1,643023,221049,1252101,66801,7658,626096,0
629,-1,661436,223470,1333313,69421,8551,666690,0
630,-1,660350,224481,1297531,69414,8049,648814,0
630,-1,640805,219430,1188612,66277,7618,594327,0
631,-1,641310,219496,1378664,65952,7830,689407,0
631,-1,640763,219611,1261379,66274,7642,630714,0
632,-1,638407,219152,1280026,65857,7219,639723,0
632,-1,642047,219939,1258259,66465,7840,629140,0
633,-1,640468,220113,1308107,66149,7268,654039,0
633,-1,642863,220619,1209696,66923,8249,604889,0
634,-1,643723,221365,1281889,66881,7803,641171,0
634,-1,639175,218494,1250545,66028,7769,625310,0
635,-1,659448,224204,1224335,69314,7709,612191,0
635,-1,640319,219704,1361998,66528,8142,680987,0
636,-1,639359,219675,1295429,66074,7367,647858,0
636,-1,640671,219610,1277652,66337,8085,638771,0
637,-1,637944,219537,1315099,65989,7605,657594,0
637,-1,639471,218797,1239745,66043,7863,619907,0
638,-1,644872,220484,1374404,66459,8442,687299,0
638,-1,638791,219400,1223078,66151,8516,611522,0
639,-1,641421,219913,1342643,66144,8084,671381,0
639,-1,658932,223427,1236460,69343,9550,618178,0
640,-1,637256,218656,1303198,65704,7354,651561,0
640,-1,638689,219192,1232513,66104,8263,616224,0
641,-1,643292,221363,1293861,66942,8096,646987,0
641,-1,638338,219623,1233962,66291,8583,616930,0
642,-1,640211,219879,1269770,66102,6849,634921,0
642,-1,638277,218907,1179380,66021,8249,589624,0
643,-1,641189,220644,1310359,66563,8037,655244,0
643,-1,640575,220209,1201197,66425,7808,600525,0
644,-1,634012,218159,1164634,65586,7120,582355,0
644,-1,641254,220881,1264998,66933,8248,632240,0
645,-1,635927,218987,1322206,65796,7930,661257,0
645,-1,643938,217472,1259027,65714,7587,629500,0
646,-1,637894,219022,1188718,65806,6991,594413,0
646,-1,646315,219400,1368191,66287,8170,684067,0
647,-1,660738,224247,1250415,69338,8213,625184,0
647,-1,643501,218828,1393463,66139,8131,696486,0
648,-1,637955,219973,1284225,66103,7448,642139,0
648,-1,663836,223631,1350132,69452,9404,675101,0
649,-1,638284,219424,1198237,65938,7468,599206,0
649,-1,648965,220252,1204816,66542,8156,602312,0
650,-1,640386,220502,1301800,66538,7596,650931,0
650,-1,647813,220301,1328075,66762,8106,663902,0
651,-1,635595,219013,1185265,65880,6866,592652,0
651,-1,643430,219103,1429468,66186,8754,714695,0
652,-1,635643,218977,1285124,65801,7284,642609,0
652,-1,643491,218794,1268018,66109,8477,634038,0
653,-1,638521,220413,1276951,66295,7556,638612,0
653,-1,664061,223802,1390624,69506,8986,695281,0
654,-1,641365,221051,1270800,66777,8586,635458,0
654,-1,641656,219246,1199468,66218,7300,599532,0
655,-1,639819,219122,1374685,65779,7816,687360,0
655,-1,641775,219121,1337240,66032,8511,668600,0
656,-1,640648,220717,1370844,66404,8374,684972,0
656,-1,648366,220275,1214794,66642,7424,607262,0
657,-1,638546,219239,1302255,65870,8671,651157,0
657,-1,644009,218970,1387730,65964,8288,693852,0
658,-1,638374,219186,1193506,65850,7245,597045,0
658,-1,644642,219181,1253490,66120,8234,626706,0
659,-1,641966,220602,1341248,66552,7995,670653,0
659,-1,642212,219055,1206343,66057,7798,603144,0
660,-1,637932,219360,1215874,65947,7810,607980,0
660,-1,643749,219540,1214331,66274,8324,607095,0
661,-1,638074,219831,1283627,66133,7590,641653,0
661,-1,644585,220178,1160341,66667,7757,580050,0
662,-1,635963,218882,1368445,65766,7331,684007,0
662,-1,639818,218652,1239698,65997,8046,619838,0
663,-1,635878,219470,1304313,65995,7381,652196,0
663,-1,641907,218569,1336254,65953,7952,668078,0
664,-1,638954,219597,1332470,66048,7018,666183,0
664,-1,664093,223955,1344804,69585,8555,672360,0
665,-1,637257,218967,1360406,65810,7343,680248,0
665,-1,643780,220082,1232414,66746,7511,616223,0
666,-1,670484,231176,1350569,69884,7882,675354,0
666,-1,639405,218257,1222098,65917,7292,611110,0
667,-1,658681,224144,1254226,69298,7927,627119,0
667,-1,665547,223302,1526219,69400,9979,763092,0
668,-1,636879,219372,1239662,65915,7453,619839,0
668,-1,646433,220309,1185497,66781,7900,592726,0
669,-1,637833,219707,1331744,66090,8262,665935,0
669,-1,644487,219500,1380025,66316,8492,690015,0
670,-1,636918,220129,1129665,66197,7173,564887,0
670,-1,641466,218782,1209827,66072,7456,604902,0
671,-1,640112,220954,1187271,66661,7446,593701,0
671,-1,642367,219558,1260564,66332,8340,630232,0
672,-1,635503,219545,1345568,66060,8194,672843,0
672,-1,642730,219233,1268930,66197,8547,634444,0
673,-1,656250,223971,1220823,69248,7494,610503,0
673,-1,645899,220741,1172906,67003,7907,586186,0
674,-1,643415,219398,1309136,65990,7700,654599,0
674,-1,638308,218280,1178974,65872,7536,589450,0
675,-1,645279,220573,1296029,66545,8149,648047,0
675,-1,641578,219378,1286681,66235,8172,643364,0
676,-1,640912,219457,1182850,66007,7355,591440,0
676,-1,644464,220629,1195213,66879,8854,597628,0
677,-1,640424,219655,1272835,66003,7433,636444,0
677,-1,643329,218968,1159712,66105,8350,579869,0
678,-1,642870,219918,1277095,66133,6947,638565,0
678,-1,643380,219027,1215832,66142,8500,607843,0
679,-1,665746,225058,1278612,70111,8186,639139,0
679,-1,660738,223393,1255639,69284,9334,627794,0
680,-1,639993,219655,1291517,66077,6902,645814,0
680,-1,642428,219108,1134685,66087,7792,567300,0
681,-1,639863,219646,1263666,66012,6688,631951,0
681,-1,642559,219433,1195517,66139,7466,597727,0
682,-1,641291,220074,1204281,66194,7676,602195,0
682,-1,638084,218489,1239573,65860,7330,619763,0
683,-1,639405,219182,1299791,65877,7839,649947,0
683,-1,645026,220668,1186558,66915,7032,593169,0
684,-1,638705,219237,1190107,65856,7075,595067,0
684,-1,660879,223517,1337594,69290,8422,668738,0
685,-1,661624,223988,1310210,69250,8077,655043,0
685,-1,641314,219661,1268556,66245,7405,634253,0
686,-1,639010,219673,1188617,66077,6675,594360,0
686,-1,641374,219529,1293034,66224,7838,646542,0
687,-1,641379,219703,1269637,66074,6976,634834,0
687,-1,641722,220558,1279727,66980,8045,640000,0
688,-1,644940,221530,1292551,66999,7598,646364,0
688,-1,664526,223951,1325554,69597,8687,662775,0
689,-1,639813,219736,1260263,66072,7769,630197,0
689,-1,645171,219128,1173013,66244,7721,586508,0
690,-1,641912,220582,1201884,66555,7647,601002,0
690,-1,640616,218342,1168537,65969,6969,584283,0
691,-1,635317,219002,1125746,65804,7090,562921,0
691,-1,641574,218418,1333366,65956,8517,666683,0
692,-1,641305,220138,1204203,66488,8332,602277,0
692,-1,641871,219161,1279646,66247,7148,639649,0
693,-1,641026,220328,1210056,66207,7476,604997,0
693,-1,641700,219447,1242913,66299,7349,621467,0
694,-1,637184,219094,1189017,65832,6967,594471,0
694,-1,645914,220126,1239176,66748,7425,619591,0
695,-1,635513,219116,1141059,65780,7270,570574,0
695,-1,642689,219121,1246479,66235,6998,623253,0
696,-1,643234,219888,1191778,66083,7622,595947,0
696,-1,642032,219228,1277488,66216,7091,638747,0
697,-1,641680,220309,1194650,66403,7288,597446,0
697,-1,645568,220679,1206616,67008,7957,603320,0
698,-1,639812,219452,1134461,66003,7230,567289,0
698,-1,665370,224313,1365055,69664,9247,682533,0
699,-1,661824,224631,1176181,69490,7734,588158,0
699,-1,640513,218749,1169556,66089,7766,584752,0
700,-1,636994,219344,1132448,66026,6714,566277,0
700,-1,641458,218728,1308282,66072,7660,654132,0
701,-1,638199,218955,1271117,65853,7473,635490,0
701,-1,645754,220503,1210229,66946,7637,604967,0
702,-1,641739,221009,1505009,66851,8628,752493,0
702,-1,641029,218875,1288110,66167,7581,643931,0
703,-1,656942,223586,1257260,69231,7862,628623,0
703,-1,642540,219518,1333883,66586,6726,666962,0
704,-1,637258,219103,1333550,65943,7072,666825,0
704,-1,641028,219185,1353408,66258,7632,676653,0
705,-1,638073,219447,1279529,66019,7118,639812,0
705,-1,639668,218767,1180555,66024,7248,590234,0
706,-1,640514,220730,1373557,66608,7792,686853,0
706,-1,647476,221013,1208045,67090,7574,604046,0
707,-1,635281,219137,1202078,65978,6686,601082,0
707,-1,662523,223605,1308876,69477,8301,654485,0
708,-1,644629,221586,1362710,67134,7391,681531,0
708,-1,664741,227840,1384062,68691,7883,692007,0
709,-1,658086,223521,1379196,69159,7720,689572,0
709,-1,639774,219741,1211516,66602,7930,605747,0
710,-1,637768,219437,1274984,66033,7396,637531,0
710,-1,659184,223492,1327808,69410,9403,663867,0
711,-1,669038,229866,1351305,69394,7771,675715,0
711,-1,643636,219371,1265711,66265,8492,632837,0
712,-1,637536,219306,1195603,66024,7312,597856,0
712,-1,644290,219454,1462180,66290,9074,730458,0
713,-1,635256,218885,1270771,65870,7405,635359,0
713,-1,641200,218894,1257066,66212,8386,628434,0
714,-1,639901,221117,1325051,66892,7706,662615,0
714,-1,642132,219238,1272100,66225,8267,636456,0
715,-1,657922,223814,1266643,69295,8365,633261,0
715,-1,643391,220599,1276090,66925,9120,637991,0
716,-1,633233,218602,1207292,65825,6679,603683,0
716,-1,639564,218882,1272649,66123,8054,636009,0
717,-1,636054,219398,1203348,66008,7654,601708,0
717,-1,635599,218293,1329754,65910,9655,664844,0
718,-1,655018,223193,1263385,69055,9094,631745,0
718,-1,642546,219297,1304161,66259,7792,652119,0
719,-1,644718,220652,1245102,66647,8631,622593,0
719,-1,661114,223448,1360078,69448,8714,679947,0
720,-1,639255,219229,1138339,66002,6930,569213,0
720,-1,637702,218350,1323177,65762,6981,661564,0
721,-1,643428,221116,1202355,66894,7796,601240,0
721,-1,643264,220498,1409025,66551,7651,704488,0
722,-1,661018,223881,1188245,69327,8049,593983,0
722,-1,643672,220369,1217477,66712,7734,608720,0
723,-1,638801,219198,1375842,66018,9745,687960,0
723,-1,640843,219766,1252284,66335,7560,626111,0
724,-1,636334,218560,1179855,65748,7861,589972,0
724,-1,636758,218583,1311090,65833,7806,655310,0
725,-1,638736,219178,1430919,66011,8123,715487,0
725,-1,639895,219010,1235497,66087,7698,617729,0
726,-1,656650,223174,1252521,69024,7489,626262,0
726,-1,639634,219384,1244958,66145,7544,622508,0
727,-1,637313,219080,1279197,65886,7617,639678,0
727,-1,638778,218851,1367606,66029,8201,683740,0
728,-1,635125,219167,1294546,66005,7361,647328,0
728,-1,641315,220227,1301644,66681,8052,650482,0
729,-1,659519,223689,1274589,69245,7831,637330,0
729,-1,637825,219128,1318294,66071,8558,658970,0
730,-1,639837,219577,1261028,66072,7204,630506,0
730,-1,637263,218437,1174391,65869,8571,587091,0
731,-1,639655,219785,1190604,66210,6953,595135,0
731,-1,658933,223773,1309541,69419,10349,654685,0
732,-1,637218,219061,1285630,65917,7242,642845,0
732,-1,635215,218602,1202964,65900,8776,601564,0
733,-1,637127,219451,1266327,66113,7200,632991,0
733,-1,637723,219098,1200229,66076,7914,600119,0
734,-1,636150,219023,1216257,65891,7103,608286,0
734,-1,645779,219067,1228155,66091,7918,613737,0
735,-1,637161,219643,1592091,66166,9244,795969,0
735,-1,645612,219572,1189669,66512,8184,594318,0
736,-1,637610,219535,1198556,66110,7193,599339,0
736,-1,640675,217407,1236025,65649,7710,618057,0
737,-1,633992,218599,1281884,65708,7232,640998,0
737,-1,644811,219512,1307500,66395,8004,653744,0
738,-1,640593,221099,1353731,66893,8308,676991,0
738,-1,648540,220892,1301445,67066,7742,650781,0
739,-1,634026,218878,1277346,65891,7727,638719,0
739,-1,641610,218926,1285504,66144,8342,642774,0
740,-1,633231,219164,1435475,66001,10033,717760,0
740,-1,644853,219766,1263767,66388,7584,631917,0
741,-1,639236,219152,1128237,66008,8026,564184,0
741,-1,640992,218564,1328140,65966,8408,664175,0
742,-1,639993,219451,1191647,66056,7672,595753,0
742,-1,647478,220962,1246062,67059,7736,623101,0
743,-1,640044,219809,1200262,66210,7938,600274,0
743,-1,667903,224888,1382725,70359,9471,691379,0
744,-1,637972,219025,1142210,65937,7830,571031,0
744,-1,643364,220198,1216818,66721,7925,608070,0
745,-1,656315,223286,1177399,69139,8638,588712,0
745,-1,640890,219065,1322500,66156,8091,661259,0
746,-1,639188,219373,1187014,66075,7609,593401,0
746,-1,639175,218735,1244405,66020,7255,622250,0
747,-1,640262,220354,1373426,66598,10010,686657,0
747,-1,641524,219845,1231823,66394,7697,615915,0
748,-1,635007,219262,1224811,65970,8357,612338,0
748,-1,641457,218663,1467869,65993,9715,733978,0
749,-1,636003,218513,1174273,65736,8038,586958,0
749,-1,662904,223109,1471016,69275,9612,735340,0
750,-1,641354,221056,1212667,66858,8048,606221,0
750,-1,642508,219133,1463183,66232,9819,731155,0
751,-1,656888,223462,1218461,69185,8814,609202,0
751,-1,641733,218909,1232634,66080,7160,616365,0
752,-1,633923,218885,1408408,65866,8338,704245,0
752,-1,641754,219203,1304690,66250,8411,652391,0
753,-1,637913,219284,1293187,66023,8445,646645,0
753,-1,657362,222726,1377626,69131,8701,688810,0
754,-1,635849,218933,1202994,65912,7511,601550,0
754,-1,642404,219266,1276975,66250,8063,638502,0
755,-1,633386,218561,1205216,65713,7580,602668,0
755,-1,642744,219286,1216353,66230,8008,608228,0
756,-1,661082,227914,1372741,68527,7223,686285,0
756,-1,643185,219899,1172976,66689,7884,586448,0
757,-1,640822,221459,1588011,67006,9647,794065,0
757,-1,639476,218920,1216209,66147,8044,608007,0
758,-1,655711,223779,1221884,69268,8022,610883,0
758,-1,638769,218623,1154797,65989,8168,577404,0
759,-1,634662,219499,1290770,66107,8551,645456,0
759,-1,640231,218932,1194825,66067,8029,597288,0
760,-1,639233,220585,1322214,66634,8087,661233,0
760,-1,658551,223213,1264647,69334,9387,632367,0
761,-1,655989,224039,1366210,69348,8026,683063,0
761,-1,637786,218753,1140669,66040,8079,570306,0
762,-1,634669,220067,1180248,66277,6792,590136,0
762,-1,643742,219161,1735417,66232,11204,867728,0
763,-1,645215,218822,1268140,65834,7199,634159,0
763,-1,641683,218954,1349402,66085,8798,674703,0
764,-1,666398,224306,1204738,69422,8399,602459,0
764,-1,641453,218981,1242711,66158,8044,621403,0
765,-1,644533,218863,1251942,65874,8173,625921,0
765,-1,638800,218810,1340226,66084,7896,670019,0
766,-1,645986,220027,1341949,66292,9826,670892,0
766,-1,639153,218814,1329873,66033,8385,665078,0
767,-1,644151,219438,1140336,66077,8007,570251,0
767,-1,637042,218400,1197529,65924,7350,598899,0
768,-1,643241,219100,1135765,65864,7781,567920,0
768,-1,640589,219087,1293174,66109,8461,646606,0
769,-1,641988,218882,1324383,65872,8073,662208,0
769,-1,639323,219013,1339617,66188,8853,669865,0
770,-1,643273,219770,1269640,66195,7690,634831,0
770,-1,639206,219317,1417196,66258,8688,708404,0
771,-1,643332,219536,1496310,66084,9755,747712,0
771,-1,645846,221618,1427099,67382,9714,713234,0
772,-1,647366,221750,1319479,67175,8669,659789,0
772,-1,662042,223217,1363535,69300,8937,681806,0
773,-1,642454,218719,1287042,65799,7742,643166,0
773,-1,641349,219069,1244678,66208,7328,622202,0
774,-1,645490,220090,1202479,66327,7795,601298,0
774,-1,639048,218437,1245777,65964,7682,622893,0
775,-1,645720,220236,1338869,66513,8642,669488,0
775,-1,642033,219974,1214683,66690,7539,607133,0
776,-1,641100,218792,1352750,65824,7759,676429,0
776,-1,637689,217651,1245578,65654,7263,622953,0
777,-1,640321,218626,1412514,65789,8468,706257,0
777,-1,640542,219332,1191208,66285,7532,595675,0
778,-1,662364,223865,1297154,69344,8834,648603,0
778,-1,638604,219006,1298875,66146,7698,649485,0
779,-1,644014,219688,1182133,66158,7957,591093,0
779,-1,641870,220107,1275928,66820,8155,638309,0
780,-1,641588,219157,1290881,65932,8161,645485,0
780,-1,657402,222967,1355712,69199,8951,677610,0
781,-1,644729,220959,1564225,66854,9887,782072,0
781,-1,641440,219599,1212849,66246,7856,606518,0
782,-1,660366,223163,1256179,69029,8457,628168,0
782,-1,637962,219283,1222021,66188,8343,611028,0
783,-1,640410,219000,1268939,65942,8119,634506,0
783,-1,636844,218381,1258133,65942,8549,628858,0
784,-1,638570,218953,1179133,65952,7927,589632,0
784,-1,637984,219413,1442474,66323,9570,721487,0
785,-1,645885,219592,1265959,66097,7585,633086,0
785,-1,643490,219303,1255569,66353,8158,627820,0
786,-1,642172,219573,1206124,66068,7787,603118,0
786,-1,645348,220574,1213354,66965,7468,606362,0
787,-1,641353,219156,1181160,65976,8084,590719,0
787,-1,636908,217345,1237963,65704,7610,619083,0
788,-1,639948,219003,1198374,65903,6705,599224,0
788,-1,641006,218984,1551712,66198,9902,775623,0
789,-1,645739,221107,1289061,66897,8096,644585,0
789,-1,638039,218368,1246929,65934,7675,623508,0
790,-1,642403,219432,1327450,66075,8132,663780,0
790,-1,642961,219042,1293089,66140,7610,646548,0
791,-1,642024,219409,1442927,66098,9634,720862,0
791,-1,661951,223765,1353802,69545,9170,676870,0
792,-1,641087,218887,1279389,65776,7648,639713,0
792,-1,639551,218899,1211071,66100,7224,605453,0
793,-1,644966,221252,1305857,66991,7816,652912,0
793,-1,642158,219794,1208669,66640,7979,604260,0
794,-1,642831,219709,1278461,66158,8257,639277,0
794,-1,638469,218546,1338480,65981,7766,669330,0
795,-1,641275,219147,1483418,66009,9669,741725,0
795,-1,637951,218314,1315332,65928,8416,657708,0
796,-1,639909,218675,1301820,65785,7850,650692,0
796,-1,641825,220136,1539200,66569,9856,769500,0
797,-1,638952,218695,1200418,65802,7408,600228,0
797,-1,642375,220827,1194176,67098,8023,596999,0
798,-1,667323,228398,1332788,68683,8326,666439,0
798,-1,659518,223728,1317298,69498,9483,658528,0
799,-1,643012,221223,1315411,66839,7667,657762,0
799,-1,643524,219324,1253020,66350,8002,626564,0
800,-1,639041,218487,1385044,65705,7558,692559,0
800,-1,641202,218880,1183263,66048,7657,591697,0
801,-1,644935,221459,1320882,67011,8223,660420,0
801,-1,644693,220334,1202385,66845,7635,601204,0
802,-1,659492,223614,1284197,69231,8275,641952,0
802,-1,638641,218561,1270002,66044,8478,635064,0
803,-1,639837,219479,1367718,66093,8149,683911,0
803,-1,637313,218492,1177872,65970,7683,589002,0
804,-1,642498,220911,1316288,66752,7907,658079,0
804,-1,644014,220884,1482576,67118,11357,740371,0
805,-1,638722,219165,1198942,66015,8011,599478,0
805,-1,639055,219147,1227083,66202,8828,613488,0
806,-1,636396,218697,1261440,65787,8055,630509,0
806,-1,643498,220272,1192644,66731,7553,596224,0
807,-1,644702,218736,1238779,65813,7785,619163,0
807,-1,639252,219010,1279888,66096,7670,639819,0
808,-1,642948,219124,1233001,65949,7119,616497,0
808,-1,636761,218315,1249422,65860,7841,624653,0
809,-1,645893,220574,1316427,66573,7448,658242,0
809,-1,640448,219587,1173666,66332,7520,586779,0
810,-1,642547,219380,1189130,66014,6407,594625,0
810,-1,637502,218831,1301901,66058,7940,651053,0
811,-1,641843,219407,1272932,66069,7049,636523,0
811,-1,660458,223535,1467933,69399,9903,733874,0
812,-1,640803,219133,1215017,65896,6846,607613,0
812,-1,637904,219090,1289739,66189,8905,645039,0
813,-1,644013,220748,1278619,66732,6892,639382,0
813,-1,638740,219770,1232489,66583,8697,616127,0
814,-1,661296,223753,1360265,69224,7808,680174,0
814,-1,638681,218555,1345701,65984,8395,672880,0
815,-1,643722,219478,1320979,66053,7339,660533,0
815,-1,643241,219531,1237972,66368,8251,618679,0
816,-1,640737,218721,1250707,65670,6902,625389,0
816,-1,661632,223681,1333942,69449,9536,666765,0
817,-1,640288,219151,1203351,65843,7429,601726,0
817,-1,640026,219214,1323317,66209,8469,661420,0
818,-1,640932,219106,1302045,65841,7802,651073,0
818,-1,642233,219605,1511471,66350,9170,755593,0
819,-1,640724,218866,1196456,65701,6875,598283,0
819,-1,642486,220161,1190650,66729,7817,595166,0
820,-1,640527,219013,1240962,65759,7283,620556,0
820,-1,638572,218484,1280591,65960,8348,640336,0
821,-1,641918,219754,1213607,66004,7534,606850,0
821,-1,637004,218595,1201133,66065,7840,600528,0
822,-1,664427,224302,1210091,69282,8456,605040,0
822,-1,637449,219207,1315825,66190,8278,657813,0
823,-1,641027,219370,1257384,65902,7740,628702,0
823,-1,660942,223564,1355934,69463,9179,678030,0
824,-1,637449,218456,1289709,65504,7176,644902,0
824,-1,638534,218822,1272354,66067,8089,636074,0
825,-1,641700,219625,1296464,65967,7421,648381,0
825,-1,637869,218634,1209078,66035,7892,604475,0
826,-1,639660,218999,1180876,65654,6813,590553,0
826,-1,640854,220135,1381286,66761,8568,690219,0
827,-1,662255,224349,1169058,69303,8261,584552,0
827,-1,638227,219139,1200710,66238,8032,600464,0
828,-1,635763,218184,1150750,65514,6964,575404,0
828,-1,635741,218593,1416679,65953,8284,708368,0
829,-1,639031,219285,1281822,65817,7048,640968,0
829,-1,642393,221091,1205409,67198,7115,602801,0
830,-1,664420,224074,1251119,69225,9047,625533,0
830,-1,656889,223518,1357218,69441,8746,678570,0
831,-1,640701,218820,1273395,65672,8060,636578,0
831,-1,641865,219074,1150374,66168,8549,575158,0
832,-1,645306,220979,1364194,66584,8545,681843,0
832,-1,640739,219344,1212666,66301,9061,606232,0
833,-1,641705,219662,1244065,65957,7908,622064,0
833,-1,637179,218878,1324001,66155,10525,661301,0
834,-1,640721,219323,1289338,65872,8540,644527,0
834,-1,639638,219368,1194676,66217,8845,597393,0
835,-1,662790,224602,1367078,69297,9032,683576,0
835,-1,635191,218244,1176288,65859,8320,588167,0
836,-1,642967,219354,1274935,65773,8157,637453,0
836,-1,638263,219896,1221105,66433,8107,610560,0
837,-1,644911,220954,1358508,66421,8749,678890,0
837,-1,638906,220142,1165853,66739,8267,582882,0
838,-1,643228,220119,1245845,66049,8266,622848,0
838,-1,638742,218743,1223392,66093,9163,611631,0
839,-1,640896,219438,1362949,65781,8066,681428,0
839,-1,638673,219133,1423902,66183,9485,711922,0
840,-1,640621,219417,1250239,65766,7278,625154,0
840,-1,640903,220676,1733507,67030,11785,866356,0
841,-1,661967,224249,1347241,69191,8352,673616,0
841,-1,638490,219328,1281617,66254,8732,640854,0
842,-1,639334,219368,1272479,65756,7327,636286,0
842,-1,637281,219417,1328395,66304,9049,664013,0
843,-1,640564,219822,1356182,65909,7567,678139,0
843,-1,637023,219530,1188712,66478,8348,594280,0
844,-1,643419,221254,1319425,66593,7995,659732,0
844,-1,636592,219529,1329165,66321,8883,664603,0
845,-1,641939,219365,1259585,65766,7140,629864,0
845,-1,644688,218807,1299498,66046,8528,649798,0
846,-1,646316,221676,1286073,66814,8387,643141,0
846,-1,644002,218906,1370208,66194,8505,685212,0
847,-1,660733,224125,1231317,69130,7879,615659,0
847,-1,646862,219879,1256627,66684,8856,628068,0
848,-1,641982,219838,1304594,65969,7326,652343,0
848,-1,643559,219713,1308702,66359,8532,654345,0
849,-1,640954,220019,1183788,66068,7190,591934,0
849,-1,640942,218164,1360180,65813,8217,680131,0
850,-1,641256,220318,1210359,66327,7769,605251,0
850,-1,642647,219242,1434179,66185,8263,717095,0
851,-1,639155,218897,1185548,65666,7923,592701,0
851,-1,642374,219638,1305207,66289,8035,652584,0
852,-1,658361,223414,1313315,68951,8971,656603,0
852,-1,642901,219220,1219370,66207,7969,609561,0
853,-1,646976,222044,1469126,66886,9230,733847,0
853,-1,641226,218924,1401627,66057,8007,700688,0
854,-1,635874,218740,1378101,65625,8946,688878,0
854,-1,639862,219464,1245248,66243,7721,622078,0
855,-1,661609,223778,1331466,69159,8748,665582,0
855,-1,646224,220176,1293304,66702,8349,646731,0
856,-1,645840,220595,1350661,66486,8371,674408,0
856,-1,640227,218149,1319300,65763,8026,659684,0
857,-1,642307,218886,1413033,65690,7544,706656,0
857,-1,640844,218740,1340433,66018,8525,670259,0
858,-1,662681,223420,1274434,68891,8378,637123,0
858,-1,662241,223230,1373019,69302,9100,686502,0
859,-1,641267,219368,1223655,65839,7031,611883,0
859,-1,641283,219046,1247515,66154,8247,623763,0
860,-1,646827,220921,1298909,66520,7664,649550,0
860,-1,640747,219120,1272645,66141,8112,636348,0
861,-1,642963,219730,1195548,65970,6829,597824,0
861,-1,643904,220546,1256693,66858,8657,628256,0
862,-1,639705,218463,1271651,65527,7737,635862,0
862,-1,640807,218090,1313785,65897,8147,656401,0
863,-1,640322,219048,1287221,65772,8456,643649,0
863,-1,642648,219392,1478865,66297,8398,739475,0
864,-1,646650,221693,1371555,67042,8272,685867,0
864,-1,643952,220331,1291650,66841,7937,646174,0
865,-1,640904,219296,1216431,65941,7467,608305,0
865,-1,642355,220033,1331883,66720,8483,665493,0
866,-1,638670,218615,1303849,65693,7801,651903,0
866,-1,640122,219451,1313085,66317,7979,656596,0
867,-1,641641,219728,1215954,66050,7429,608037,0
867,-1,637945,218703,1300012,65966,7269,649994,0
868,-1,644047,219518,1183566,66100,7036,591853,0
868,-1,640065,219840,1287390,66480,7689,643584,0
869,-1,643172,219659,1159633,66033,7160,579884,0
869,-1,638254,218915,1424222,66093,8257,712020,0
870,-1,663762,224251,1251734,69332,7434,625909,0
870,-1,675341,229980,1422448,69769,8611,711424,0
871,-1,641211,219476,1199304,66056,7073,599629,0
871,-1,663513,223435,1394152,69429,9065,697050,0
872,-1,638865,219325,1207916,65885,6898,603994,0
872,-1,643300,218986,1262567,66125,8239,631305,0
873,-1,644962,220508,1279065,66603,7466,639559,0
873,-1,640265,218845,1336652,66145,7620,668403,0
874,-1,661834,223790,1287224,69186,8106,643552,0
874,-1,661802,223947,1381001,69550,9589,690540,0
875,-1,639265,219335,1433807,65794,7648,716653,0
875,-1,641580,218834,1186812,66078,7527,593271,0
876,-1,642000,220700,1387982,66484,7740,694009,0
876,-1,640786,218930,1249133,66169,7829,624386,0
877,-1,638908,218973,1219687,65806,6725,609733,0
877,-1,644000,220469,1194419,66868,8370,597156,0
878,-1,638461,219156,1231292,65981,6692,615708,0
878,-1,638214,218474,1181292,65893,7743,590689,0
879,-1,639525,219300,1213629,66008,6928,606821,0
879,-1,658339,223099,1468613,69306,9172,734175,0
880,-1,637136,218493,1225740,65733,7227,612951,0
880,-1,643870,220245,1292191,66792,9073,645996,0
881,-1,640400,218298,1307540,65595,8511,653773,0
881,-1,660277,223648,1369576,69482,9404,684599,0
882,-1,641582,219216,1227697,65925,7684,613964,0
882,-1,637971,218384,1338593,65934,8361,669294,0
883,-1,642594,219887,1417758,66345,8642,708939,0
883,-1,643212,220322,1501924,66786,9210,749367,0
884,-1,639055,218399,1277552,65676,7592,638839,0
884,-1,636636,218510,1395766,65989,8727,697464,0
885,-1,643836,220637,1294095,66696,7325,647019,0
885,-1,640403,219133,1320482,66175,8488,660259,0
886,-1,638683,218775,1255422,65857,7523,627770,0
886,-1,642338,220390,1323273,66921,7761,661203,0
887,-1,635079,217780,1335323,65397,7800,667678,0
887,-1,637459,218710,1316158,66101,8288,658070,0
888,-1,638253,218464,1214908,65704,7648,607505,0
888,-1,634710,218094,1210052,65870,7836,605047,0
889,-1,642015,220751,1286239,66676,8171,643123,0
889,-1,637879,219071,1170793,66246,7333,585430,0
890,-1,637997,218490,1169094,65659,7710,584586,0
890,-1,642471,218763,1215075,66113,7876,607575,0
891,-1,641563,220348,1317531,66465,8141,658778,0
891,-1,640899,218616,1127300,66004,7471,563697,0
892,-1,634069,218296,1247934,65580,7719,624080,0
892,-1,639708,218655,1273297,66022,7703,636707,0
893,-1,637205,218034,1297203,65588,7826,648654,0
893,-1,640902,218611,1333147,66037,7464,666583,0
894,-1,639879,218978,1215688,65780,7030,607892,0
894,-1,662162,223808,1317764,69530,8402,658925,0
895,-1,659843,223506,1272281,69076,8339,636108,0
895,-1,638116,218504,1289128,65963,7785,644626,0
896,-1,635981,218156,1282539,65487,8171,641293,0
896,-1,637262,218277,1177715,65912,7087,588918,0
897,-1,641167,219915,1316282,66326,7936,658209,0
897,-1,643858,219576,1345944,66382,8045,673032,0
898,-1,635632,218434,1251403,65593,7244,625819,0
898,-1,643561,219885,1189862,66668,7196,594936,0
899,-1,640355,220459,1295973,66454,7815,648055,0
899,-1,641418,219057,1279742,66136,6938,639900,0
900,-1,636700,219071,1276188,65829,7656,638145,0
900,-1,639284,219029,1364594,66207,7889,682361,0
901,-1,636955,218971,1180685,65787,7349,590297,0
901,-1,639650,219614,1253995,66390,7614,627047,0
902,-1,654622,222929,1213981,68907,8731,606947,0
902,-1,640967,218558,1305463,66003,7882,652787,0
903,-1,634812,218636,1298733,65621,7298,649381,0
903,-1,641153,218983,1198318,66212,7546,599228,0
904,-1,642141,218869,1281526,65841,7301,640828,0
904,-1,639043,219038,1287043,66216,7322,643527,0
905,-1,638395,218471,1279209,65683,7303,639658,0
905,-1,638789,219541,1189963,66306,7663,595026,0
906,-1,635428,217695,1201435,65336,7066,600798,0
906,-1,639483,219859,1181351,66599,8077,590748,0
907,-1,647378,221649,1350675,66976,8027,675426,0
907,-1,653641,222569,1212167,69100,8410,606126,0
908,-1,639052,218981,1205051,65845,7088,602581,0
908,-1,641071,219079,1193251,66210,7160,596682,0
909,-1,637880,218493,1307922,65628,7507,654007,0
909,-1,641522,218980,1213885,66081,7182,606999,0
910,-1,636447,218163,1325558,65542,7702,662818,0
910,-1,644049,220389,1207048,66796,6864,603590,0
911,-1,638089,218651,1222145,65683,7253,611115,0
911,-1,640681,219498,1294367,66345,7887,647248,0
912,-1,639668,218891,1298376,65722,7484,649225,0
912,-1,638616,218836,1259527,66126,7344,629815,0
913,-1,637175,218712,1201992,65714,6775,601040,0
913,-1,637291,218553,1345611,65985,8052,672713,0
914,-1,636337,218531,1256317,65660,7386,628214,0
914,-1,643598,221475,1351618,67318,7871,675784,0
915,-1,637185,219063,1222096,65757,6831,611120,0
915,-1,635775,218868,1294921,66163,7570,647370,0
916,-1,644150,220715,1332892,66651,7791,666498,0
916,-1,639793,218599,1210145,66013,8076,605168,0
917,-1,660097,223304,1283921,69059,8095,642197,0
917,-1,638550,218465,1304930,65989,8336,652491,0
918,-1,638782,218891,1154042,65837,7531,577072,0
918,-1,638039,218852,1317843,66146,8714,658964,0
919,-1,636997,218726,1193188,65753,6489,596642,0
919,-1,644960,221469,1180279,67161,7741,590207,0
920,-1,641807,220709,1241378,66522,7642,620721,0
920,-1,636201,218475,1234531,65968,7787,617319,0
921,-1,635757,218193,1273846,65551,6870,636982,0
921,-1,659030,223358,1349329,69356,8452,674709,0
922,-1,641801,221164,1404056,66805,7374,702115,0
922,-1,638142,219120,1224191,66222,7751,612023,0
923,-1,637028,218500,1139451,65587,7000,569766,0
923,-1,636050,218682,1158110,65948,7479,579091,0
924,-1,641533,220555,1342656,66489,7941,671371,0
924,-1,639234,220155,1151111,66710,7480,575674,0
925,-1,637583,219026,1175888,65835,6673,587985,0
925,-1,637634,219284,1169931,66291,7892,584927,0
926,-1,652533,222162,1303029,68666,7781,651558,0
926,-1,655397,223245,1295979,69328,9129,648042,0
927,-1,634494,218865,1295666,65763,7363,647867,0
927,-1,635888,219566,1320683,66321,8198,660393,0
928,-1,657133,222737,1308413,68789,8499,654201,0
928,-1,642911,218953,1355062,66080,8297,677587,0
929,-1,636664,218454,1374586,65614,7993,687322,0
929,-1,646046,220163,1299287,66771,8188,649709,0
930,-1,638956,219641,1459187,66040,8032,729639,0
930,-1,642488,218989,1386509,66197,8696,693256,0
931,-1,640770,219932,1209128,66093,7347,604517,0
931,-1,641690,218691,1305047,66053,8806,652570,0
932,-1,658335,223346,1307385,69068,8349,653693,0
932,-1,640621,218918,1275523,66106,8839,637812,0
933,-1,634804,218448,1190744,65670,6616,595353,0
933,-1,646179,220439,1196173,66863,8069,597872,0
934,-1,640653,220536,1388360,66512,7150,694218,0
934,-1,642738,220546,1209207,66855,7566,604628,0
935,-1,635620,218958,1294286,65823,7033,647201,0
935,-1,641485,218771,1341014,66127,8616,670552,0
936,-1,634371,218465,1331456,65614,8146,665719,0
936,-1,641290,219070,1289572,66216,8215,644838,0
937,-1,635452,219221,1319566,65846,8572,659797,0
937,-1,641559,219202,1314762,66203,8419,657395,0
938,-1,640269,220717,1347590,66659,8816,673360,0
938,-1,660334,223318,1368984,69392,9406,684389,0
939,-1,657780,222884,1309396,68865,8348,654891,0
939,-1,641323,219168,1190362,66139,7510,595220,0
940,-1,635916,218292,1255616,65628,7738,627807,0
940,-1,637381,218673,1357044,66022,8027,678573,0
941,-1,635113,218219,1266553,65541,8059,633198,0
941,-1,661429,223438,1342750,69425,9280,671292,0
942,-1,639053,220015,1313225,66336,8288,656584,0
942,-1,639227,219047,1137677,66175,7674,568904,0
943,-1,636602,218973,1219526,65740,7763,609729,0
943,-1,638945,219004,1212106,66095,7955,605996,0
944,-1,662932,228232,1349168,68746,8623,674452,0
944,-1,641714,219249,1391128,66223,8742,695620,0
945,-1,637761,219749,1267388,66043,7740,633711,0
945,-1,641567,219606,1192460,66609,7893,596284,0
946,-1,633069,218043,1167033,65477,7163,583568,0
946,-1,639687,219132,1212556,66279,8174,606337,0
947,-1,634067,218764,1259002,65729,7831,629442,0
947,-1,642142,220828,1241671,66998,8429,620911,0
948,-1,633777,218612,1233634,65691,7972,617220,0
948,-1,636134,219639,1260323,65545,7896,630213,0
949,-1,653703,222807,1332972,68668,9357,666380,0
949,-1,637917,219632,1361875,65566,7991,680980,0
950,-1,638183,221315,1247713,66623,8261,623591,0
950,-1,637322,218582,1243346,65166,6958,621729,0
951,-1,641495,218329,1144733,65363,7619,572378,0
951,-1,639453,219257,1179336,65408,7040,589721,0
952,-1,642399,219005,1290056,65684,8842,644677,0
952,-1,659940,223476,1295058,68594,8101,647546,0
953,-1,640851,218566,1333300,65542,9072,666449,0
953,-1,637658,218923,1275015,65316,7109,637341,0
954,-1,639764,218606,1202909,65559,7645,601165,0
954,-1,636101,218668,1368580,65241,7327,684297,0
955,-1,645226,220839,1303059,66506,8452,651430,0
955,-1,641007,220848,1311732,66136,7313,655928,0
956,-1,640601,218977,1241422,65722,7941,620722,0
956,-1,635447,219020,1324630,65360,7640,662452,0
957,-1,637226,218294,1307848,65524,7384,653855,0
957,-1,636896,218753,1172299,65300,7348,586169,0
958,-1,638060,218718,1198608,65584,6789,599221,0
958,-1,657019,223395,1331742,68569,8129,665852,0
959,-1,659294,223501,1330385,69009,8527,665174,0
959,-1,636301,218708,1250094,65256,7114,625103,0
960,-1,642315,218984,1191298,65736,7454,595702,0
960,-1,634752,219184,1214448,65409,7036,607309,0
961,-1,640239,219147,1342337,65749,8543,671214,0
961,-1,636807,219284,1219679,65438,7952,609895,0
962,-1,639256,218599,1284547,65586,7271,642325,0
962,-1,635688,218988,1256531,65346,7901,628299,0
963,-1,659098,223220,1288767,68904,8063,644325,0
963,-1,640818,221230,1355039,66295,8000,677095,0
964,-1,638005,218864,1100162,65706,6726,550142,0
964,-1,656012,223883,1378908,68662,9160,689141,0
965,-1,637130,218193,1235967,65399,7113,618003,0
965,-1,639217,220681,1262347,65976,8088,631090,0
966,-1,637655,218521,1180708,65673,7425,590410,0
966,-1,634923,218887,1330689,65288,8241,665428,0
967,-1,661884,223914,1292437,69270,8679,646232,0
967,-1,632764,218618,1210560,65242,7659,605269,0
968,-1,636829,218707,1184031,65714,6778,592079,0
968,-1,633137,218373,1327011,65060,8130,663409,0
969,-1,637590,219226,1315238,66119,7828,657669,0
969,-1,653979,223145,1510707,68460,9139,755247,0
970,-1,634703,218460,1267590,65631,7823,633815,0
970,-1,632060,218863,1324035,65149,8439,661930,0
971,-1,641047,218834,1291234,65769,8591,645818,0
971,-1,638165,220954,1331955,66014,8056,665551,0
972,-1,640895,218822,1234790,65645,7436,617435,0
972,-1,639131,218943,1277307,65131,7234,638698,0
973,-1,646542,221409,1546534,66852,9794,773260,0
973,-1,644263,221664,1187968,66337,7037,594051,0
974,-1,638748,218702,1190096,65708,7668,595092,0
974,-1,656667,223332,1315885,68370,8462,658011,0
975,-1,640936,219139,1186435,65853,7416,593035,0
975,-1,638309,218941,1303412,65187,7946,651753,0
976,-1,638529,218453,1157439,65548,7054,578763,0
976,-1,637020,218689,1458198,65033,7970,729093,0
977,-1,638062,219306,1394539,65830,9517,697164,0
977,-1,635906,218952,1340788,65140,8335,670256,0
978,-1,645050,220988,1289559,66725,7922,644794,0
978,-1,639240,219356,1415093,65253,8574,707589,0
979,-1,638153,218601,1296462,65639,7658,648304,0
979,-1,663387,225094,1421075,69403,9885,710264,0
980,-1,639402,219538,1173200,65979,6837,586332,0
980,-1,638534,219295,1318304,65290,7879,658940,0
981,-1,639508,219667,1259944,66215,7686,630042,0
981,-1,637141,218863,1309960,65083,7660,654708,0
982,-1,636315,217999,1220409,65455,7154,610260,0
982,-1,636482,218819,1298910,65152,7848,649458,0
983,-1,637260,218803,1292246,65766,7503,646062,0
983,-1,637026,219332,1348981,65277,8443,674033,0
984,-1,636916,218936,1139975,65716,7065,570035,0
984,-1,656006,223306,1382566,68332,8503,691319,0
985,-1,640587,220246,1219982,66497,7687,609886,0
985,-1,634804,219145,1343895,65239,8530,671841,0
986,-1,640031,218531,1238221,65606,7897,619138,0
986,-1,638475,219948,1278933,65693,7891,639208,0
987,-1,641334,219597,1210158,66002,7788,604832,0
987,-1,635693,218922,1357636,65087,8662,678894,0
988,-1,640425,219669,1210054,66158,8191,605094,0
988,-1,637888,220553,1373366,65967,8442,687131,0
989,-1,636778,218718,1276690,65781,8647,638367,0
989,-1,656426,223684,1399995,68478,9758,699923,0
990,-1,637915,218759,1194556,65763,7707,597319,0
990,-1,633174,218900,1289256,65103,8465,644457,0
991,-1,658522,226687,1299599,67993,8712,649616,0
991,-1,638721,218885,1219462,65093,7702,609882,0
992,-1,669212,230345,1174712,68544,7522,586379,0
992,-1,638061,219149,1175017,65235,7852,587389,0
993,-1,696020,239602,1376822,71761,8145,688472,0
993,-1,638435,219661,1256468,65372,8024,628231,0
994,-1,711305,242479,1404946,74186,8618,702709,0
994,-1,641264,220808,1264964,65951,8634,632342,0
995,-1,691047,237254,1277172,70754,7417,638539,0
995,-1,663229,228391,1334482,67892,8505,667213,0
996,-1,690121,237160,1345739,70645,7701,672907,0
996,-1,636736,219623,1348121,65405,8448,673975,0
997,-1,692430,238460,1349340,71223,8293,674475,0
997,-1,633278,218671,1451359,65031,8518,725432,0
998,-1,695518,236991,1309543,70587,8248,654682,0
998,-1,644488,221970,1255001,66461,7682,627271,0
999,-1,700543,239391,1421523,71700,9238,710677,0
999,-1,635252,218802,1422234,65089,8161,710661,0
1000,-1,717801,242670,1408751,74289,9495,704252,0
1000,-1,637545,220734,1304833,65927,8406,652033,0
1001,-1,693124,237012,1341227,70616,8005,670646,0
1001,-1,634007,218737,1311746,65060,7714,655758,0
1002,-1,698543,238567,1400688,71371,8937,700373,0
1002,-1,633637,218994,1315353,65149,8314,657579,0
1003,-1,698186,238928,1335848,71266,8509,667951,0
1003,-1,637885,221071,1207800,66098,7958,603752,0
1004,-1,693198,237260,1367743,70707,8252,683906,0
1004,-1,633681,219017,1307062,65198,7673,653317,0
1005,-1,692203,237159,1323512,70672,7985,661809,0
1005,-1,636207,218907,1285006,65102,7343,642340,0
1006,-1,693929,237312,1354398,70690,8536,677205,0
1006,-1,639448,220772,1347308,65950,7624,671678,0
1007,-1,692243,237514,1359120,70822,8033,679564,0
1007,-1,635490,219133,1701337,65221,8725,850686,0
1008,-1,691344,237258,1292536,70704,7667,646268,0
1008,-1,654215,223592,1293708,68470,7984,646838,0
1009,-1,693411,237447,1334952,70849,8467,667531,0
1009,-1,631572,218403,1118990,64905,7310,559454,0
1010,-1,690909,236926,1219981,70612,7686,609947,0
1010,-1,633807,219645,1194160,65440,8451,597218,0
1011,-1,712378,241628,1462877,73891,8854,731374,0
1011,-1,633974,218829,1223391,65127,7408,611559,0
1012,-1,689475,237037,1297497,70652,7377,648751,0
1012,-1,637907,221226,1148081,66134,7198,574006,0
1013,-1,688980,237155,1342606,70640,7642,671260,0
1013,-1,653565,223793,1242874,68550,8767,621416,0
1014,-1,694317,237402,1273849,70791,7684,636937,0
1014,-1,632559,218996,1141792,65155,6908,570964,0
1015,-1,692206,236996,1326638,70669,7962,663131,0
1015,-1,638408,221322,1153946,66114,7021,577104,0
1016,-1,692748,237119,1246517,70630,7880,623329,0
1016,-1,643726,218944,1223013,65536,5942,611431,0
1017,-1,691161,237009,1394987,70634,7631,697482,0
1017,-1,645826,218721,1357536,65481,6934,678801,0
1018,-1,713556,241928,1401390,74074,8348,700598,0
1018,-1,651138,221203,1256893,66581,6769,628384,0
1019,-1,692488,237673,1273969,70921,6382,636947,0
1019,-1,667322,223799,1305049,68955,7757,652673,0
1020,-1,689173,236791,1375521,70561,7331,687762,0
1020,-1,643339,218647,1274537,65492,7364,637187,0
1021,-1,696681,239774,1343635,71733,7457,671791,0
1021,-1,649976,220843,1204049,66414,7287,602007,0
1022,-1,694071,237224,1244559,70714,7206,622304,0
1022,-1,644635,219068,1271497,65641,7424,635776,0
1023,-1,692731,237507,1340354,70817,7999,670261,0
1023,-1,641744,218503,1321515,65348,7176,660725,0
