0,-1,710867,241678,1394522,73931,9003,697306,0
0,-1,690572,236870,1335911,70543,7929,667999,0
0,-1,696692,239015,1356497,71442,7581,678166,0
0,-1,695231,236933,1254769,70585,7881,627378,0
0,-1,692980,238783,1408748,71371,7078,704376,0
0,-1,634879,218926,1187577,65748,6806,593838,2
0,-1,636873,218167,1199387,65409,7032,599722,0
0,-1,638750,218543,1187692,65600,7237,593873,0
0,-1,638089,218304,1123341,65426,6445,561717,0
0,-1,643906,220505,1307911,66384,7562,654003,0
0,-1,662472,223471,1383211,69047,9012,691624,0
0,-1,664169,228700,1352404,68922,8676,676252,0
0,-1,634646,218624,1291832,65697,6970,645981,0
0,-1,657555,222864,1214927,68815,8402,607512,0
0,-1,637588,218649,1184694,65690,7117,592258,0
0,-1,659532,223166,1302204,68993,8349,651139,0
0,-1,638682,219090,1156498,65859,7350,578208,0
0,-1,634838,218222,1128780,65614,7105,564317,0
0,-1,637650,218170,1315448,65635,8028,657652,0
0,-1,641528,218681,1325016,65754,8275,662465,0
0,-1,638535,219095,1280681,65718,6802,640187,0
0,-1,661959,223572,1339014,69167,7330,669270,0
0,-1,661664,223683,1275846,69103,8126,637850,0
0,-1,641868,220175,1338447,66085,7018,669163,0
0,-1,644754,220841,1299652,66440,8430,649787,0
0,-1,647602,221338,1315416,66837,8573,657633,0
0,-1,642542,220558,1385990,66483,8361,693018,0
0,-1,646385,221543,1339594,67001,7212,669635,0
0,-1,636762,218652,1197942,65825,6582,598767,0
0,-1,661758,223794,1167141,69314,8472,583369,0
0,-1,660099,223795,1187419,69321,7810,593730,0
0,-1,643306,218850,1186514,65895,6478,593261,0
0,-1,646350,220983,1301137,66875,8654,650482,0
0,-1,643527,219264,1197755,65917,7820,598951,0
0,-1,633989,219800,1181305,66197,6629,590689,0
0,-1,655591,223789,1178721,69288,8063,589388,0
0,-1,637006,219725,1239670,66061,7257,619870,0
0,-1,641390,221198,1202128,66845,7724,600866,0
0,-1,638452,219056,1258767,65915,7363,629364,0
0,-1,636263,219154,1276814,66023,6767,638301,0
0,-1,638051,219477,1322524,66115,7447,661194,0
0,-1,637722,218786,1306863,65828,7809,653439,0
0,-1,641643,219721,1200933,66104,7103,600442,0
0,-1,637158,218764,1342017,65752,7216,670982,0
0,-1,640994,219798,1195345,66133,7389,597387,0
0,-1,643760,219567,1289419,66052,8470,644528,0
0,-1,638674,220340,1388860,66507,8229,694364,0
0,-1,641547,220326,1208173,66213,7166,604036,0
0,-1,641782,221195,1365576,66837,7679,682737,0
0,-1,633659,218086,1217924,65572,7656,608834,0
0,-1,658686,223959,1220894,69259,7382,610347,0
0,-1,640433,219201,1191932,65940,6700,595957,0
0,-1,637425,219531,1207507,66053,7466,603645,0
0,-1,639902,219133,1313526,65879,7101,656763,0
0,-1,638578,219037,1222744,65824,7088,611281,0
0,-1,639642,219081,1270638,65865,7134,635304,0
0,-1,641603,219877,1324960,66167,7858,662582,0
0,-1,663207,223829,1213968,69149,9009,606854,0
0,-1,636206,219528,1406698,66011,7660,703274,0
0,-1,642395,220764,1293826,66646,7678,646590,0
0,-1,637427,219705,1261952,66012,7127,630865,0
0,-1,641493,219981,1249872,66107,7368,624769,0
0,-1,642124,219827,1253242,66130,7511,626629,0
0,-1,636678,219593,1245106,66013,7486,622637,0
0,-1,643994,220766,1291034,66657,7845,645381,0
0,-1,640255,220175,1395654,66334,7512,697666,0
0,-1,639168,219278,1208253,65760,6806,604027,0
0,-1,640889,219435,1272226,65821,7586,635681,0
0,-1,641693,221658,1364036,66911,8109,681883,0
0,-1,641385,220508,1301634,66213,6633,650445,0
0,-1,645189,221581,1292974,66835,7702,646390,0
0,-1,640844,219152,1215228,65713,6919,607396,0
0,-1,644859,221011,1293816,66550,8467,646821,0
0,-1,642352,220075,1191328,65950,7190,595620,0
0,-1,642744,219325,1183553,65873,7203,591596,0
0,-1,640474,219456,1363325,65928,8286,681406,0
0,-1,648039,221330,1281017,66757,8495,639851,0
0,-1,644491,220363,1317434,66209,6912,658731,0
0,-1,663833,224830,1320754,69569,8422,660124,0
0,-1,650080,222145,1292242,67190,8424,645411,0
0,-1,653795,222827,1301688,67175,7894,650775,0
0,-1,647913,220067,1182943,66012,7275,591511,0
0,-1,661438,225153,1267673,69453,9101,633716,0
0,-1,644949,221736,1276917,66773,7573,638425,0
0,-1,646510,221403,1269606,66460,7067,634805,0
0,-1,641958,220043,1197416,66032,7523,598730,0
0,-1,648303,222553,1316612,67180,8835,658348,0
0,-1,643278,219486,1360753,65903,7897,680432,0
0,-1,661684,224894,1196766,69394,8643,598294,0
0,-1,640327,219255,1288055,65813,8632,644066,0
0,-1,663399,225151,1304790,69544,8831,652319,0
0,-1,643759,219394,1182823,65931,7571,591436,0
0,-1,645555,220399,1307302,66421,8400,653820,0
0,-1,661911,224403,1241573,69368,7990,620728,0
0,-1,642829,219409,1371262,65831,7879,685657,0
0,-1,640525,219375,1310642,65806,7966,655288,0
0,-1,640289,219721,1205246,66012,7450,602809,0
0,-1,637740,218645,1215175,65650,7215,607503,0
0,-1,645171,221479,1308267,66769,7537,654114,0
0,-1,642441,219992,1300057,66090,7585,650000,0
0,-1,641835,219020,1213645,65654,7114,606823,0
0,-1,644446,219690,1239701,65824,8383,619841,0
0,-1,643630,218934,1275186,65463,8020,637570,0
0,-1,647357,219438,1205124,65642,7459,602486,0
0,-1,639839,219601,1288813,65710,8069,644390,0
0,-1,642249,220009,1203794,65967,6910,601878,0
0,-1,637137,218845,1190758,65610,6829,595357,0
0,-1,637843,218350,1281178,65464,7487,640608,0
0,-1,637732,218682,1282805,65580,7611,641400,0
0,-1,646078,221047,1256204,66527,7029,628219,0
0,-1,639830,219234,1351682,65843,9102,674788,0
0,-1,638759,218884,1298263,65670,7500,649172,0
0,-1,659831,223292,1361691,68822,7903,680625,0
0,-1,641643,219169,1224443,65756,7839,612273,0
0,-1,646528,221110,1214982,66581,7989,607544,0
0,-1,642849,221138,1223385,66619,7484,611703,0
0,-1,664418,224361,1331315,69208,8734,665627,0
0,-1,638169,218461,1332835,65465,7484,666369,0
0,-1,647976,221585,1218836,66797,7133,609456,0
0,-1,640207,218422,1293325,65483,7540,646600,0
0,-1,644360,219011,1288105,65720,7851,644010,0
0,-1,645525,221038,1230861,66543,7045,615471,0
0,-1,641825,219264,1218526,65789,6855,609212,0
0,-1,643030,219027,1235612,65665,7439,617760,0
0,-1,644140,220030,1339565,66038,7168,669821,0
0,-1,641035,218928,1512576,65606,7625,755481,0
0,-1,643891,218950,1159471,65634,6560,579604,0
0,-1,635037,219520,1356514,65429,7475,678246,0
0,-1,634257,219198,1270382,65280,7510,635063,0
0,-1,634062,219047,1231512,65231,7817,615847,0
0,-1,634538,218850,1153590,65210,7694,576729,0
0,-1,640190,220056,1297254,65780,7637,648286,0
0,-1,655379,223691,1449193,68513,8715,724584,0
0,-1,636047,219059,1201121,65343,7836,600623,0
0,-1,634121,218443,1126848,65142,7433,563455,0
0,-1,632504,218250,1282869,65061,7069,641493,0
0,-1,638563,218548,1246717,65993,7622,623382,0
0,-1,642528,219516,1424138,66343,8808,712104,0
0,-1,656422,223638,1436715,69486,9472,718353,0
0,-1,640929,220489,1243442,66867,8552,621695,0
0,-1,645373,221442,1199127,67267,6900,599211,0
0,-1,636547,218498,1286057,65976,7360,643051,0
0,-1,640608,219410,1313330,66341,7440,656608,0
0,-1,639058,219165,1313288,66167,7404,656598,0
0,-1,636975,218732,1330516,66112,7660,665219,0
0,-1,641259,219195,1311292,66256,7623,655556,0
0,-1,645576,221408,1281352,67318,7666,641196,0
0,-1,674353,229664,1261499,69687,7949,630742,0
0,-1,646333,220996,1161615,67132,7791,580785,0
0,-1,664523,223796,1396463,69497,9068,698325,0
0,-1,635314,219105,1268076,66231,8443,633940,0
0,-1,638332,218840,1252049,66094,8836,626030,0
0,-1,660713,223458,1336443,69397,9012,668247,0
0,-1,641689,219048,1209135,66249,7405,604614,0
0,-1,659739,223359,1276706,69414,8949,638383,0
0,-1,642151,220265,1431171,66607,8825,715635,0
0,-1,644484,219659,1206457,66449,7453,603261,0
0,-1,644786,221168,1195691,67162,7661,597880,0
0,-1,637262,218744,1222191,66110,6955,611127,0
0,-1,641567,218728,1174985,66059,7176,587517,0
0,-1,640622,218724,1192619,66034,6904,596344,0
0,-1,642241,219106,1185430,66244,7609,592753,0
0,-1,636713,219069,1175513,66189,7540,587802,0
0,-1,639767,219324,1183739,66333,7132,591889,0
0,-1,659122,223164,1359593,69349,8695,679813,0
0,-1,661143,223475,1238767,69415,8644,619272,0
0,-1,641108,219363,1268866,66169,7907,634337,0
0,-1,643783,220576,1204281,66769,7905,601773,0
0,-1,642220,218034,1332243,65738,9056,666093,0
0,-1,661596,223727,1322144,69364,8687,661019,0
0,-1,642304,218736,1357120,65890,8250,678506,0
0,-1,641433,218805,1273378,65912,8694,636333,0
0,-1,647567,220314,1296409,66783,8422,648098,0
0,-1,666280,223814,1320457,69398,9781,659992,0
0,-1,643422,218603,1317052,65823,9236,658520,0
0,-1,646091,219095,1277519,66070,8797,638723,0
0,-1,643734,220847,1315776,66987,8126,657881,0
0,-1,642354,219877,1290583,66535,8529,645111,0
0,-1,639746,219475,1269283,66401,7750,634838,0
0,-1,644070,219902,1300309,66511,8304,650202,0
0,-1,646536,220687,1323622,66865,7834,661854,0
0,-1,640608,220006,1207705,66685,8102,603877,0
0,-1,641450,219404,1318815,66370,7316,659437,0
0,-1,642757,220142,1155530,66564,7102,577812,0
0,-1,643204,220536,1283709,66560,8449,641844,0
0,-1,643979,219971,1294289,66437,8222,647157,0
0,-1,643995,220068,1259483,66545,7899,629724,0
0,-1,644469,219649,1438831,66343,8504,719099,0
0,-1,642868,220630,1202153,66674,6878,601096,0
0,-1,643041,220615,1381918,66700,8284,690865,0
0,-1,648738,220631,1349842,66578,8778,675080,0
0,-1,641887,220158,1314979,66348,7735,657552,0
0,-1,646007,220468,1208042,66478,7863,603892,0
0,-1,650022,220701,1247929,66588,8191,623916,0
0,-1,642489,220010,1281503,66284,7596,640724,0
0,-1,644992,219940,1337629,66383,7671,668721,0
0,-1,644781,220709,1198167,66621,7486,598945,0
0,-1,641650,219388,1311199,66257,6882,655383,0
0,-1,644898,219741,1335872,66299,8209,668098,0
0,-1,648499,220865,1158648,66950,7763,579303,0
0,-1,642393,219081,1279115,66103,7156,639527,0
0,-1,642424,220755,1186253,66809,7952,593032,0
0,-1,660606,224106,1334821,69562,8834,667320,0
0,-1,644607,220341,1197380,66540,7908,598358,0
0,-1,645474,221712,1212819,67289,7570,606290,0
0,-1,644383,220342,1298953,66547,7358,649177,0
0,-1,647103,220802,1295817,66689,7755,648178,0
0,-1,648475,221609,1295665,67174,7311,647825,0
0,-1,666309,224593,1365090,69797,8657,682577,0
0,-1,647347,219798,1295476,66426,7996,647683,0
0,-1,649668,221711,1230403,67341,7421,615254,0
0,-1,646678,219892,1255603,66462,7081,627800,0
0,-1,646572,219861,1215308,66346,6969,607589,0
0,-1,640991,219069,1206803,66013,8222,603384,0
0,-1,665770,224628,1339139,69699,8069,669417,0
0,-1,643362,219393,1207901,66222,6771,603904,0
0,-1,664390,223674,1374280,69309,8541,687131,0
0,-1,641806,219256,1342009,66180,8022,670660,0
0,-1,643446,218748,1320158,65915,8168,660115,0
0,-1,643304,219253,1225817,66102,7242,612937,0
0,-1,641432,218499,1250667,65912,6848,625213,0
0,-1,643706,218559,1200486,66020,7140,600296,0
0,-1,639174,218341,1315571,66009,7562,657896,0
0,-1,644298,218450,1183744,66165,8210,591877,0
0,-1,647887,220349,1313527,66938,7348,656685,0
0,-1,638749,219028,1312219,66370,7345,656053,0
0,-1,637414,218256,1271030,66027,7616,635546,0
0,-1,640678,220405,1372152,66977,7159,686113,0
0,-1,639385,218882,1185598,66231,6622,592861,0
0,-1,637735,218097,1179870,66024,7570,589981,0
0,-1,637009,218392,1269327,66071,7514,634213,0
0,-1,636925,218643,1161052,66162,6236,580536,0
0,-1,640634,218624,1451628,66028,8114,726054,0
1,-1,697611,239688,1376078,71797,7688,687914,0
1,-1,691890,237430,1329276,70797,8114,664673,0
1,-1,699582,239007,1396481,71557,8731,698080,0
1,-1,711361,242537,1353445,74235,8074,676731,0
1,-1,638051,219113,1265235,65775,7213,632481,0
1,-1,641701,219048,1275016,65728,8524,637540,0
1,-1,642530,221270,1304517,66844,7307,652328,2
1,-1,659742,223461,1214995,68966,8359,607439,0
1,-1,642034,219724,1293571,65919,8172,646806,0
1,-1,641214,218694,1369950,65674,8608,684975,0
1,-1,633704,218659,1181079,65724,7595,590577,0
1,-1,634015,218320,1182217,65550,6759,591119,0
1,-1,637878,218899,1182507,65765,7141,591277,0
1,-1,638072,219227,1210732,65936,7398,605345,0
1,-1,637936,218670,1205528,65771,7486,602539,0
1,-1,639490,219277,1316152,65847,8058,658145,0
1,-1,656316,223485,1308156,69082,8758,653808,0
1,-1,638976,218660,1280770,65712,7068,640406,0
1,-1,643502,220216,1265598,66494,8505,632616,0
1,-1,641441,220476,1303331,66453,7222,651606,0
1,-1,641940,219618,1303993,66141,6505,651931,0
1,-1,647034,220990,1377296,66600,8100,688597,0
1,-1,642141,220563,1317699,66407,7857,658847,0
1,-1,640666,219402,1187230,65786,7514,593525,0
1,-1,663755,223829,1268411,69170,9017,634190,0
1,-1,641050,220143,1301502,66176,7272,650730,0
1,-1,661263,223770,1374681,69241,7954,687318,0
1,-1,638240,219069,1170238,66002,7478,585129,0
1,-1,639088,219215,1220104,66022,6929,609779,0
1,-1,637408,218899,1181308,65942,7222,590389,0
1,-1,642619,219361,1413049,66089,7683,706499,0
1,-1,639673,218892,1290298,65891,8013,645178,0
1,-1,641689,218866,1342379,65868,8963,671225,0
1,-1,637919,219203,1234935,65990,6823,617490,0
1,-1,633783,219173,1172632,66029,7998,586332,0
1,-1,635138,219126,1175053,65977,7236,587556,0
1,-1,655576,223802,1243851,69301,8450,621825,0
1,-1,638420,220147,1320722,66516,7607,660196,0
1,-1,637375,219065,1271058,65904,7784,635510,0
1,-1,635613,219417,1201478,66094,6873,600713,0
1,-1,636328,219155,1173783,65992,6668,586781,0
1,-1,642208,220430,1286480,66465,7351,643253,0
1,-1,639443,220237,1283882,66272,7123,641983,0
1,-1,662748,224300,1267296,69376,8388,633604,0
1,-1,642103,219567,1224300,66061,8063,612053,0
1,-1,640957,220144,1272902,66175,8245,636981,0
1,-1,637697,219303,1187885,65972,7109,593919,0
1,-1,660630,223428,1242218,69027,8645,621096,0
1,-1,635957,219062,1428770,65818,8076,714344,0
1,-1,644438,220311,1425580,66419,8364,712684,0
1,-1,658940,223915,1220127,69244,7628,609935,0
1,-1,635472,219051,1278405,65830,7737,639189,0
1,-1,644919,221513,1316984,66983,8063,658343,0
1,-1,663032,223931,1267393,69251,8097,633597,0
1,-1,643751,221419,1306449,66879,7636,653201,0
1,-1,643219,219466,1271652,65976,8062,635811,0
1,-1,641723,219111,1245569,65880,8074,622736,0
1,-1,638312,219590,1232992,66018,7320,616431,0
1,-1,638289,220100,1297561,66178,7991,648570,0
1,-1,639780,220898,1374527,66635,7732,687082,0
1,-1,636533,218406,1258143,65695,7469,629092,0
1,-1,639300,218782,1270042,65726,6987,635005,0
1,-1,638388,219455,1187294,66018,6968,593601,0
1,-1,640211,219411,1273122,66005,7884,636496,0
1,-1,642344,220019,1225037,66054,7441,612444,0
1,-1,642209,220021,1409778,65936,8166,704858,0
1,-1,641089,219804,1445278,66044,8939,722328,0
1,-1,644927,220540,1180577,66145,7737,590249,0
1,-1,637077,219178,1357170,65737,6963,678558,0
1,-1,638301,219422,1191407,65800,6367,595640,0
1,-1,639730,219254,1215716,65770,7004,607830,0
1,-1,639217,219460,1187385,65831,7297,593649,0
1,-1,641855,219205,1226138,65753,7783,613047,0
1,-1,641135,219204,1254781,65791,7466,627467,0
1,-1,640333,219505,1629620,65884,10265,814774,0
1,-1,642883,219725,1215241,66085,7934,607581,0
1,-1,649906,222830,1322435,67348,7173,661126,0
1,-1,643302,219743,1403481,66127,8379,701533,0
1,-1,666116,224774,1424152,69559,8960,712312,0
1,-1,646722,220508,1379928,66093,8837,689909,0
1,-1,646576,219623,1278259,65766,7699,639149,0
1,-1,640242,220778,1249788,66250,8536,624762,0
1,-1,641392,220466,1274486,66030,7445,637200,0
1,-1,648256,222457,1293123,67049,8035,646514,0
1,-1,642132,219996,1370244,66024,7992,685112,0
1,-1,644715,220402,1239864,66201,7903,619991,0
1,-1,646414,220822,1331448,66355,8487,665799,0
1,-1,643087,220192,1263653,66023,7719,631769,0
1,-1,640937,219649,1345967,66015,7751,672997,0
1,-1,638444,219401,1335919,65818,8791,667900,0
1,-1,646256,220919,1294684,66630,7990,647096,0
1,-1,642523,219122,1291822,65762,8235,645918,0
1,-1,639881,219852,1255538,66085,7821,627808,0
1,-1,639621,219096,1313840,65735,7508,656956,0
1,-1,642589,219456,1216865,65902,7600,608240,0
1,-1,642560,219547,1314552,65876,7877,657270,0
1,-1,641875,220499,1312046,66500,7500,656099,0
1,-1,634984,218669,1349617,65700,7585,674769,0
1,-1,643769,220885,1303917,66584,7248,651878,0
1,-1,662039,223951,1258894,69128,8145,629428,0
1,-1,642983,219153,1265532,65529,8020,632775,0
1,-1,643295,219413,1186532,65718,7706,593245,0
1,-1,645690,219050,1227084,65517,8264,613525,0
1,-1,640979,219943,1236395,65860,7269,618110,0
1,-1,640533,219737,1301629,65794,8153,650707,0
1,-1,641604,221009,1257613,66498,7576,628817,0
1,-1,644766,221326,1252761,66731,7829,626308,0
1,-1,639508,219166,1180105,65751,7381,590076,0
1,-1,643115,218934,1269872,65631,8407,634964,0
1,-1,637840,218530,1329184,65494,7752,664591,0
1,-1,639792,218990,1332307,65702,7861,666283,0
1,-1,642421,219067,1304806,65715,7781,652422,0
1,-1,639008,218639,1332395,65528,7481,666126,0
1,-1,642389,219063,1290345,65737,7929,645213,0
1,-1,657916,223683,1242442,69053,7925,621188,0
1,-1,639734,219064,1259837,65702,7482,629774,0
1,-1,642344,220854,1287494,66561,7763,643945,0
1,-1,662386,223676,1375597,69013,7915,687762,0
1,-1,641375,219168,1266755,65758,7135,633384,0
1,-1,643437,218900,1188882,65636,7223,594427,0
1,-1,638473,218671,1245979,65602,6915,623014,0
1,-1,662467,224033,1335237,69121,7678,667561,0
1,-1,665058,223429,1259534,68909,8880,629675,0
1,-1,644601,219170,1294700,65726,7514,647393,0
1,-1,646995,219578,1404256,65869,8415,702146,0
1,-1,645790,219578,1258676,65830,7088,629321,0
1,-1,632969,218763,1257363,65139,7077,628623,0
1,-1,636102,218809,1221691,65104,7515,610721,0
1,-1,633424,218679,1294388,65066,7947,647344,0
1,-1,635098,219194,1270799,65254,7727,634880,0
1,-1,635641,219085,1253112,65216,7893,626370,0
1,-1,639293,219003,1356511,65168,7841,678186,0
1,-1,634744,218779,1376665,65160,8159,688351,0
1,-1,634727,218483,1315462,65112,8242,658090,0
1,-1,661390,224014,1335181,68741,8172,667551,0
1,-1,641281,219023,1446908,66200,8882,723482,0
1,-1,644730,220930,1214386,67132,8130,607141,0
1,-1,645370,219876,1230637,66686,8415,615498,0
1,-1,636495,219148,1289335,66239,7542,644665,0
1,-1,638298,218690,1281498,66099,8078,640766,0
1,-1,641546,221042,1236195,67116,7186,618124,0
1,-1,641812,220216,1180460,66812,6973,590296,0
1,-1,643673,220353,1233569,66973,7251,616675,0
1,-1,645036,219677,1264472,66407,8047,631888,0
1,-1,642859,220188,1399182,66762,8534,698721,0
1,-1,658665,223223,1356008,69366,8568,678006,0
1,-1,643085,219332,1206946,66319,7735,603478,0
1,-1,641623,219759,1247856,66657,7890,623769,0
1,-1,642978,218846,1309091,66109,8015,654554,0
1,-1,633343,218326,1284696,65958,8038,642354,0
1,-1,640371,220661,1310864,66911,8351,655054,0
1,-1,637807,218574,1239384,65998,7858,619557,0
1,-1,639343,218330,1380675,65851,8131,690262,0
1,-1,637846,218902,1160498,66195,7537,580248,0
1,-1,637355,218556,1435005,66003,7946,717441,0
1,-1,640599,218300,1302269,65924,7763,651002,0
1,-1,658415,223292,1368343,69355,8502,684108,0
1,-1,639449,219443,1327206,66249,8103,663631,0
1,-1,642910,219843,1251608,66462,7596,625800,0
1,-1,637611,217567,1238217,65722,6503,619147,0
1,-1,641397,218678,1314820,66038,7992,657418,0
1,-1,638493,219327,1219370,66278,7283,609711,0
1,-1,661294,223167,1309144,69352,8532,654685,0
1,-1,643103,220311,1204714,66763,7206,602410,0
1,-1,640766,219041,1131431,66170,7344,565924,0
1,-1,640818,219719,1310247,66248,7612,655217,0
1,-1,644533,219580,1362755,66224,8241,681359,0
1,-1,647019,220011,1306282,66381,7905,653064,0
1,-1,639248,218570,1219083,65948,7313,609216,0
1,-1,661115,223522,1347526,69294,9674,673609,0
1,-1,647679,221018,1300387,66971,8753,650112,0
1,-1,665817,223536,1489018,69320,9954,744357,0
1,-1,644156,219494,1133735,66152,7399,566828,0
1,-1,646452,219823,1357802,66532,8500,678898,0
1,-1,648185,220278,1224382,66642,8721,612118,0
1,-1,659383,223599,1404329,69378,10313,702208,0
1,-1,644042,221067,1241809,67155,8754,620897,0
1,-1,642859,220794,1245894,66860,8093,622894,0
1,-1,644049,220331,1224080,66549,7558,612072,0
1,-1,644808,219978,1272677,66562,7766,636279,0
1,-1,642247,219846,1230331,66595,7672,615208,0
1,-1,645510,221446,1219869,67418,7099,609937,0
1,-1,643782,219554,1295162,66359,8362,647627,0
1,-1,647595,221243,1239975,67124,7810,620034,0
1,-1,664034,224610,1426478,69815,9545,713316,0
1,-1,648151,221598,1279728,67219,8544,639602,0
1,-1,652254,222625,1323376,67623,9056,661678,0
1,-1,640221,219450,1328019,66292,8697,664067,0
1,-1,640035,219768,1297736,66422,8337,648594,0
1,-1,645138,220757,1305271,66769,8070,652509,0
1,-1,650592,222578,1173369,67581,8652,586596,0
1,-1,643036,219042,1360710,66130,8781,680294,0
1,-1,651401,221654,1211348,67052,7991,605637,0
1,-1,642408,220240,1276534,66423,7567,638247,0
1,-1,642779,219358,1277249,66146,7808,638637,0
1,-1,644414,219681,1278834,66273,7798,639412,0
1,-1,645589,220780,1225768,66903,7047,612763,0
1,-1,649398,221844,1318065,67309,8164,659024,0
1,-1,645417,220027,1235634,66491,8138,617635,0
1,-1,668458,224153,1348232,69597,8874,674118,0
1,-1,639594,219526,1282793,66307,8141,641365,0
1,-1,638094,219064,1321326,66106,8494,660673,0
1,-1,641789,219343,1287065,66136,7994,643631,0
1,-1,643701,220328,1181788,66560,7177,590878,0
1,-1,642630,219828,1203186,66376,7517,601576,0
1,-1,644286,219843,1174265,66281,7005,587074,0
1,-1,667066,225624,1343663,70108,8202,671666,0
1,-1,645621,219867,1338726,66359,7748,669267,0
1,-1,649001,221246,1302260,67191,7460,651161,0
1,-1,644132,219288,1253408,66292,7532,626625,0
1,-1,647592,220690,1257507,66856,7154,628765,0
1,-1,649296,221252,1241861,67022,7057,620966,0
1,-1,664864,225129,1262017,69850,9062,630936,0
1,-1,642837,219742,1196801,66323,7556,598358,0
1,-1,641077,218604,1209926,65908,7011,604693,0
1,-1,642693,219258,1406323,66095,8731,703110,0
1,-1,641205,218875,1286481,65961,7684,642377,0
1,-1,644299,218754,1193594,65929,7163,596827,0
1,-1,644632,219728,1303669,66576,7678,651899,0
1,-1,647793,220792,1331089,67003,7282,665607,0
1,-1,642924,218588,1165184,65986,7295,582600,0
1,-1,665994,222664,1361493,69277,8845,680825,0
1,-1,646198,219499,1233819,66463,9086,616875,0
1,-1,645357,218616,1299283,66210,8055,649673,0
1,-1,635089,218209,1230377,66084,7540,615096,0
1,-1,642525,219702,1295423,66744,7869,647742,0
1,-1,640148,219062,1347450,66346,7266,673726,0
1,-1,642902,219244,1453807,66364,7395,726766,0
1,-1,639015,218361,1120109,66061,6859,560095,0
1,-1,635703,218236,1344802,66027,6937,672499,0
1,-1,637458,217899,1282806,65869,6674,641398,0
1,-1,662515,223866,1373497,69594,8771,686631,0
2,-1,712534,241529,1367658,73906,8374,683850,0
2,-1,691053,236988,1231344,70603,7223,615694,0
2,-1,719507,243254,1411953,74428,9421,705933,0
2,-1,689990,237112,1347231,70652,7121,673636,0
2,-1,637056,218982,1185667,65635,6883,592883,0
2,-1,639197,218236,1326643,65346,7661,663333,0
2,-1,645304,220929,1228586,66601,7588,614313,0
2,-1,640396,219225,1184332,65783,7682,591994,2
2,-1,637091,217954,1215956,65278,7223,608021,0
2,-1,640565,218895,1264331,65718,7706,632205,0
2,-1,642596,221566,1343543,66897,7991,671820,0
2,-1,632140,218130,1271739,65548,6616,635868,0
2,-1,636379,219113,1239903,65838,6542,619962,0
2,-1,635156,218631,1248646,65569,7057,624344,0
2,-1,636691,218199,1275047,65563,7596,637531,0
2,-1,637763,218499,1215395,65619,7155,607513,0
2,-1,642039,218874,1227108,65829,7690,613548,0
2,-1,637095,218631,1203281,65722,7019,601644,0
2,-1,658441,223117,1291908,69001,8179,645883,0
2,-1,637188,218145,1181173,65599,6893,590603,0
2,-1,646105,221062,1310242,66771,7956,655083,0
2,-1,641680,219067,1227125,65810,7823,613633,0
2,-1,639501,219022,1206396,65723,7294,603171,0
2,-1,647099,222064,1283966,67020,8173,642106,0
2,-1,641225,218983,1333479,65751,7746,666707,0
2,-1,643985,221019,1345779,66728,7645,672837,0
2,-1,641180,219453,1190226,65957,7490,595077,0
2,-1,645198,219011,1272531,65920,7242,636109,0
2,-1,639123,218501,1296478,65717,7578,648219,0
2,-1,641139,219136,1236143,65977,8004,617724,0
2,-1,642639,219685,1329768,66132,7656,664755,0
2,-1,640369,218754,1299800,65830,8325,649864,0
2,-1,659566,223310,1176594,69150,8689,588054,0
2,-1,645340,219196,1294132,66024,7920,647066,0
2,-1,631791,218409,1180268,65656,7682,590174,0
2,-1,637241,219536,1308671,66337,7859,654321,0
2,-1,639955,219843,1307981,66225,7847,654060,0
2,-1,636516,218840,1319401,65861,7721,659671,0
2,-1,638464,219699,1185800,66172,6849,592878,0
2,-1,641716,219869,1288272,66238,7207,644143,0
2,-1,635913,219263,1297422,65984,7741,648676,0
2,-1,638721,218756,1205010,65892,7041,602519,0
2,-1,639751,219908,1295373,66113,7492,647593,0
2,-1,637850,219182,1194584,65966,6761,597239,0
2,-1,642609,219812,1235633,66100,8144,617793,0
2,-1,641638,221109,1396348,66746,8330,698267,0
2,-1,637993,219337,1265716,65960,7242,632854,0
2,-1,640494,219717,1287026,66014,7395,643386,0
2,-1,642033,220147,1414481,66164,8092,707151,0
2,-1,641026,219579,1320665,66082,7597,660260,0
2,-1,641263,219910,1326388,66159,7210,663232,0
2,-1,638323,218781,1201513,65694,7143,600717,0
2,-1,638232,219416,1296260,66004,7345,648059,0
2,-1,642854,220842,1408159,66648,7307,703950,0
2,-1,643131,220489,1228764,66362,7651,614364,0
2,-1,642727,219704,1171163,66109,7472,585544,0
2,-1,641390,219375,1296212,65983,7325,648068,0
2,-1,635754,218968,1289006,65774,7591,644450,0
2,-1,640748,221512,1381109,66939,8116,690442,0
2,-1,641569,220180,1277907,66248,7835,638936,0
2,-1,636371,218795,1323686,65704,7169,661880,0
2,-1,643837,221075,1396429,66764,8365,698219,0
2,-1,647004,220976,1320559,66717,8274,660314,0
2,-1,639112,219619,1170297,66085,7198,585115,0
2,-1,640692,219358,1308733,65732,7957,654257,0
2,-1,639667,219697,1333390,65942,7860,666145,0
2,-1,642764,220630,1292996,66464,7769,646464,0
2,-1,646699,221347,1367648,66755,7712,683368,0
2,-1,637880,219083,1431760,65680,8862,715465,0
2,-1,665577,229222,1364375,68768,6958,682151,0
2,-1,641089,219315,1304029,65768,7946,652032,0
2,-1,641142,219442,1215618,65859,7204,607805,0
2,-1,645741,221461,1213811,66788,7697,606745,0
2,-1,644707,220991,1257646,66583,7945,628663,0
2,-1,641082,219779,1418956,65942,8701,709410,0
2,-1,642245,219442,1255687,65951,7978,627823,0
2,-1,666384,224984,1316804,69538,8258,658350,0
2,-1,644063,220162,1409527,66208,7833,704403,0
2,-1,644173,220209,1517890,66242,8457,758783,0
2,-1,665549,225116,1296586,69523,9479,648243,0
2,-1,653520,222642,1326127,67100,8125,663071,0
2,-1,639547,220502,1274967,66126,8180,637395,0
2,-1,641631,220769,1252957,66225,8327,626373,0
2,-1,642255,220191,1273096,66097,7734,636546,0
2,-1,646827,221926,1355813,66846,7654,677961,0
2,-1,642583,219844,1284995,66022,8141,642502,0
2,-1,643142,220483,1317748,66203,8149,658927,0
2,-1,641747,220360,1240527,66147,7489,620323,0
2,-1,642136,220614,1341082,66514,7866,670583,0
2,-1,665377,224817,1418182,69450,8823,709061,0
2,-1,642957,219947,1307239,66070,7934,653647,0
2,-1,641551,219145,1190233,65834,7462,595004,0
2,-1,637925,219507,1190354,66005,7430,595221,0
2,-1,659168,223393,1239964,69002,7786,619861,0
2,-1,646495,221305,1341141,66656,7625,670414,0
2,-1,647025,221680,1331248,66880,8045,665554,0
2,-1,645041,219959,1249161,66131,7900,624533,0
2,-1,641978,218792,1230740,65721,7620,615365,0
2,-1,639848,218921,1291179,65699,7460,645479,0
2,-1,641721,219483,1203128,65932,7678,601497,0
2,-1,645139,220266,1282364,65974,8469,641072,0
2,-1,638988,217983,1293943,65229,7816,646956,0
2,-1,644000,219372,1131499,65625,7515,565751,0
2,-1,639652,219637,1286419,65703,7899,643213,0
2,-1,640598,218997,1201800,65577,7944,600783,0
2,-1,636504,218311,1181608,65519,7009,590778,0
2,-1,660692,223950,1285574,69117,7841,642714,0
2,-1,663437,223398,1250052,68933,8227,624856,0
2,-1,663224,224215,1235098,69176,8701,617612,0
2,-1,659961,223884,1239107,69096,7998,619662,0
2,-1,641264,219782,1444003,65986,9145,721425,0
2,-1,646490,220328,1232636,66313,7859,616327,0
2,-1,643614,220929,1288475,66589,7444,644139,0
2,-1,642691,219615,1290568,65890,8094,645334,0
2,-1,644693,218449,1212872,65482,6770,606470,0
2,-1,639415,218593,1272813,65514,7794,636160,0
2,-1,658155,223235,1430522,68850,8465,715115,0
2,-1,642103,219407,1418357,65822,7786,709271,0
2,-1,649227,221728,1439182,66810,9039,718831,0
2,-1,643532,218936,1311761,65673,8082,655943,0
2,-1,640266,218601,1280098,65533,7485,640085,0
2,-1,647036,219997,1239039,66207,7421,619577,0
2,-1,643918,219118,1144255,65669,7346,572190,0
2,-1,643191,219085,1194875,65767,6594,597461,0
2,-1,646946,219969,1244535,66211,7564,622302,0
2,-1,648356,220974,1229581,66457,6815,614771,0
2,-1,632244,218874,1219356,65126,7023,609226,0
2,-1,638365,220141,1397286,65573,7669,698146,0
2,-1,636653,219263,1401429,65262,7502,700772,0
2,-1,637943,220548,1381916,65980,9105,690840,0
2,-1,634484,218947,1339312,65183,8587,669561,0
2,-1,638565,219080,1391003,65242,8246,695436,0
2,-1,654933,223457,1350669,68545,8633,675180,0
2,-1,634428,219026,1441269,65356,9156,720170,0
2,-1,635435,218542,1191555,65048,7207,595782,0
2,-1,639030,218583,1210839,65954,7773,605363,0
2,-1,639400,218835,1285998,66144,8370,643030,0
2,-1,641526,218645,1254478,66032,8441,627232,0
2,-1,635089,218333,1315723,65962,8921,657825,0
2,-1,638578,219163,1218068,66224,7710,609009,0
2,-1,640488,218901,1295450,66177,7505,647593,0
2,-1,637869,218596,1312765,66091,7585,656305,0
2,-1,639245,219009,1326901,66206,8076,663432,0
2,-1,643500,219785,1269591,66634,7893,634431,0
2,-1,637704,218861,1558271,66123,8761,779086,0
2,-1,640445,219466,1338399,66361,8031,669145,0
2,-1,640838,218653,1202929,66046,7678,601450,0
2,-1,639396,218591,1285954,66012,7830,642948,0
2,-1,641144,219008,1359902,66213,8737,679896,0
2,-1,649322,220922,1224459,67090,8161,612169,0
2,-1,638293,218572,1445704,66050,9938,722701,0
2,-1,640803,220110,1379631,66728,7901,689449,0
2,-1,661676,223703,1423270,69447,10031,711652,0
2,-1,637269,218631,1138073,66044,7476,569033,0
2,-1,659102,223563,1345746,69475,8797,672851,0
2,-1,646093,220825,1280881,67045,7530,640386,0
2,-1,638239,219273,1283102,66275,7851,641491,0
2,-1,643772,220867,1314756,67091,8370,656679,0
2,-1,643514,220285,1207252,66804,7580,603665,0
2,-1,645848,221397,1195539,67236,6862,597821,0
2,-1,639522,218562,1263065,66062,6958,631562,0
2,-1,646730,219871,1162040,66667,7595,581070,0
2,-1,638366,218443,1193419,65986,7300,596739,0
2,-1,641025,218869,1201178,66119,7335,600633,0
2,-1,640008,219410,1175370,66294,7392,587715,0
2,-1,659831,223803,1398149,69479,9079,699085,0
2,-1,665091,224550,1405814,69619,8954,702910,0
2,-1,642454,218741,1194855,65981,7917,597377,0
2,-1,643668,220047,1193812,66600,7647,596923,0
2,-1,642346,219606,1288059,66258,7885,644152,0
2,-1,644734,219013,1459917,65994,8790,729845,0
2,-1,644237,218953,1306432,65995,7947,653064,0
2,-1,641771,218870,1248156,65974,8485,623993,0
2,-1,643784,219217,1450782,66146,9013,725244,0
2,-1,643796,218718,1279066,65903,8640,639422,0
2,-1,638503,219108,1397093,66063,8943,698643,0
2,-1,641488,219738,1320529,66322,8383,660348,0
2,-1,641164,220137,1243689,66605,7814,621813,0
2,-1,643050,219913,1339463,66412,9214,669842,0
2,-1,643960,220351,1273912,66623,7812,637003,0
2,-1,646992,220127,1196555,66698,7803,598302,0
2,-1,662227,224321,1325216,69829,7808,662630,0
2,-1,648784,221997,1239531,67430,8058,619782,0
2,-1,646368,220107,1336591,66570,8427,668342,0
2,-1,644401,220524,1250897,66667,8334,625245,0
2,-1,668072,224876,1406531,69910,9205,703219,0
2,-1,669429,225353,1373489,70033,9812,686705,0
2,-1,644242,221783,1235130,67421,7980,617365,0
2,-1,641454,220201,1258457,66538,8234,629190,0
2,-1,643528,219750,1282618,66406,8108,641405,0
2,-1,693146,234200,1367534,72573,9673,683648,0
2,-1,650672,222408,1222358,67439,7900,611052,0
2,-1,646767,220138,1317717,66416,8107,658772,0
2,-1,646292,221404,1224021,66964,7481,611897,0
2,-1,663665,224319,1353988,69591,8268,676833,0
2,-1,643444,219360,1330090,66136,7546,664914,0
2,-1,640307,219053,1176370,66105,7091,588077,0
2,-1,666062,224396,1361112,69628,8684,680424,0
2,-1,642549,219183,1391846,66121,7530,695849,0
2,-1,649608,220761,1235625,66696,7735,617753,0
2,-1,640324,219386,1273631,66256,8288,636791,0
2,-1,644056,219775,1287258,66372,8288,643528,0
2,-1,643076,219879,1351718,66408,8066,675815,0
2,-1,639082,218996,1295205,66089,7710,647565,0
2,-1,645091,220017,1204977,66424,7808,602418,0
2,-1,644077,220119,1300471,66410,7515,650260,0
2,-1,642177,219897,1195184,66459,6754,597588,0
2,-1,644404,219799,1334006,66265,7103,666899,0
2,-1,647516,220286,1198133,66613,7408,599024,0
2,-1,645581,220009,1296237,66540,8162,647938,0
2,-1,645340,219587,1223027,66340,7449,611449,0
2,-1,645934,220266,1299353,66466,7080,649621,0
2,-1,640778,219732,1151852,66329,7644,575875,0
2,-1,646461,220691,1254037,66830,7789,627001,0
2,-1,648017,220785,1247790,66870,7428,623825,0
2,-1,642110,219729,1255694,66254,7401,627845,0
2,-1,666612,224002,1392882,69463,9251,696477,0
2,-1,649994,220620,1300317,66781,8044,650208,0
2,-1,643879,219767,1214597,66291,7281,607340,0
2,-1,664291,224062,1329088,69538,7681,664598,0
2,-1,642504,219060,1262658,66189,7867,631288,0
2,-1,647399,219706,1189137,66497,7030,594692,0
2,-1,647844,220492,1345341,67011,8211,672733,0
2,-1,644494,218471,1297561,66115,7693,648821,0
2,-1,638159,219870,1331922,66804,8287,665910,0
2,-1,636780,218480,1179593,66109,6669,589799,0
2,-1,637010,218233,1209534,66029,7406,604787,0
2,-1,642183,220086,1275211,66825,6744,637632,0
2,-1,636197,218214,1154016,66045,7119,577046,0
2,-1,635842,218457,1241845,66115,6783,620998,0
2,-1,639969,219330,1363203,66446,7013,681631,0
2,-1,639692,218804,1220524,66165,7653,610810,0
3,-1,690690,237126,1329429,70628,6975,664751,0
3,-1,712212,241631,1411667,73883,8436,705680,0
3,-1,693818,237332,1358662,70683,7873,679283,0
3,-1,690835,237887,1267854,70963,6336,633951,0
3,-1,637165,218225,1268621,65568,7905,634368,0
3,-1,660617,223362,1320212,68898,8822,660072,0
3,-1,637842,218348,1192836,65568,7410,596276,0
3,-1,637534,218504,1227486,65485,7170,613772,0
3,-1,638930,219190,1263934,65782,7981,631989,2
3,-1,645232,220813,1325006,66593,7892,662546,0
3,-1,633186,218954,1209019,65796,6825,604546,0
3,-1,638219,219729,1287646,66249,7299,643864,0
3,-1,636035,218934,1201584,65760,6899,600542,0
3,-1,640595,220751,1489207,66579,8267,744526,0
3,-1,642113,220815,1347140,66526,7651,673469,0
3,-1,657983,223131,1278166,68957,8858,639358,0
3,-1,640061,218508,1281057,65660,7159,640607,0
3,-1,634145,217946,1208204,65456,7156,604091,0
3,-1,636251,218100,1317152,65512,7629,658562,0
3,-1,636995,218294,1199079,65609,6638,599516,0
3,-1,639499,218970,1219006,65787,6784,609517,0
3,-1,643522,219509,1180364,65879,7843,590086,0
3,-1,646014,221921,1320283,66935,7963,659923,0
3,-1,660792,223857,1347215,69110,8014,673367,0
3,-1,641670,219374,1281251,65871,7414,640577,0
3,-1,661620,224145,1231721,69253,8256,615771,0
3,-1,641463,219284,1305860,65907,7978,652914,0
3,-1,663836,223728,1264647,69292,8638,632363,0
3,-1,639566,219043,1413412,65983,7844,706694,0
3,-1,640748,218690,1199418,65798,6821,599634,0
3,-1,642241,219462,1197209,66110,7382,598587,0
3,-1,646093,221468,1388911,67035,8351,694403,0
3,-1,643751,219163,1209347,65954,7753,604623,0
3,-1,646452,219693,1260212,66151,7374,630148,0
3,-1,640229,220476,1136593,66412,7193,568303,0
3,-1,634834,219197,1321721,65955,7590,660812,0
3,-1,637940,218983,1287774,65926,7913,643827,0
3,-1,634865,218603,1156629,65806,7049,578198,0
3,-1,640270,220403,1315600,66597,7673,657657,0
3,-1,643828,220374,1409806,66575,8318,704826,0
3,-1,643861,221333,1314664,67079,7279,656995,0
3,-1,639092,219058,1171301,65969,7529,585545,0
3,-1,642339,221370,1453369,66845,8081,726618,0
3,-1,640989,220755,1310662,66613,7619,655205,0
3,-1,643080,220671,1255615,66666,7861,627507,0
3,-1,635783,219069,1264033,65877,7534,632022,0
3,-1,637929,219756,1168664,66125,7222,584212,0
3,-1,641012,220108,1267484,66244,7354,633812,0
3,-1,659007,223728,1294542,69190,8393,647164,0
3,-1,638659,218963,1340824,65774,8376,670366,0
3,-1,644217,221062,1331284,66715,7999,665432,0
3,-1,648748,221853,1302668,67049,8041,651390,0
3,-1,636857,218999,1215592,65817,7553,607775,0
3,-1,639828,219562,1271012,65987,7197,635494,0
3,-1,642674,220830,1211122,66616,8079,605376,0
3,-1,646509,221667,1414448,67054,8008,707271,0
3,-1,640177,219020,1313471,65766,7788,656713,0
3,-1,636225,219496,1319645,65934,7986,659835,0
3,-1,658701,223927,1234482,69254,8001,617171,0
3,-1,641856,220678,1419307,66590,7819,709635,0
3,-1,645441,222164,1307501,67244,7562,653603,0
3,-1,639683,219746,1278224,66093,7229,639066,0
3,-1,640396,219230,1168425,65890,6658,584207,0
3,-1,639032,219319,1143283,65986,7735,571643,0
3,-1,642222,220185,1185910,66127,7154,592897,0
3,-1,638568,219647,1257259,65904,6447,628589,0
3,-1,637489,218493,1186858,65515,7399,593265,0
3,-1,662857,224160,1509808,69160,8508,755417,0
3,-1,644342,221485,1292464,66840,7871,645907,0
3,-1,641145,220950,1453885,66528,7777,726846,0
3,-1,640989,219562,1216822,65927,6935,608451,0
3,-1,641800,219731,1334206,65902,7319,666917,0
3,-1,661482,224284,1179921,69221,7727,589833,0
3,-1,668878,225942,1258507,70251,8781,629209,0
3,-1,640126,219653,1597755,66022,9688,798794,0
3,-1,641559,219634,1272486,65997,8290,636167,0
3,-1,643474,220083,1292186,66077,7916,646067,0
3,-1,642887,220231,1570496,66235,7799,784669,0
3,-1,642129,219772,1362044,66162,7941,680943,0
3,-1,646734,219678,1200116,65965,7471,599844,0
3,-1,669001,225156,1288678,69434,8345,644364,0
3,-1,643980,221410,1274036,66634,8505,637003,0
3,-1,643518,222109,1229625,66958,7804,614180,0
3,-1,645511,221888,1303472,66792,7753,651659,0
3,-1,642045,220768,1290937,66249,7734,645121,0
3,-1,643033,219794,1224874,65905,8258,612434,0
3,-1,644249,219738,1206424,65939,7537,603245,0
3,-1,641108,219873,1426448,65933,7487,713283,0
3,-1,640051,219589,1184832,65976,7050,592439,0
3,-1,642331,219804,1435479,66032,8345,717808,0
3,-1,641409,219412,1282066,65873,7956,641079,0
3,-1,640545,218725,1318146,65621,7906,659130,0
3,-1,644235,218936,1151134,65775,7110,575573,0
3,-1,641610,220371,1302281,66257,7587,651159,0
3,-1,639634,219042,1276922,65745,7244,638491,0
3,-1,660510,223809,1360899,69073,8229,680260,0
3,-1,639996,218489,1351397,65622,8415,675684,0
3,-1,641747,218782,1295615,65729,8233,647821,0
3,-1,641356,219367,1191847,65891,7399,595922,0
3,-1,641520,219360,1386186,65823,7960,693108,0
3,-1,648919,222262,1220261,66889,8684,609937,0
3,-1,649268,221925,1329422,66799,8210,664666,0
3,-1,644211,218983,1200111,65484,8130,600018,0
3,-1,643383,221603,1271617,66660,8185,635665,0
3,-1,641383,220101,1212944,65966,6842,606446,0
3,-1,641629,218780,1337334,65594,8014,668445,0
3,-1,644420,220819,1284362,66507,7797,642123,0
3,-1,639215,218535,1201153,65501,7421,600528,0
3,-1,640076,219215,1130970,65743,7575,565306,0
3,-1,639902,219226,1299201,65758,7784,649563,0
3,-1,647424,221009,1257099,66619,7626,628530,0
3,-1,641272,218999,1234134,65709,7253,617175,0
3,-1,662710,223767,1295396,69075,8230,647705,0
3,-1,639414,218892,1408872,65597,7490,704470,0
3,-1,643880,218750,1315596,65626,7622,657850,0
3,-1,644300,220595,1384494,66492,8011,691217,0
3,-1,641595,219021,1420732,65705,7984,709838,0
3,-1,640595,218824,1273797,65671,7292,636917,0
3,-1,640583,219348,1319149,65822,7032,659600,0
3,-1,643747,218737,1337865,65505,7557,668949,0
3,-1,639441,218649,1261961,65525,7509,631029,0
3,-1,644480,219537,1240371,65864,7425,620216,0
3,-1,644634,219994,1151106,66159,7557,575583,0
3,-1,647196,221002,1245522,66653,7341,622281,0
3,-1,644110,218852,1268239,65597,7280,634037,0
3,-1,644109,219315,1259191,65720,6864,629489,0
3,-1,652449,221669,1395301,66749,6833,697524,0
3,-1,632858,218499,1266569,64957,7196,633188,0
3,-1,633834,218822,1462677,65085,8023,731282,0
3,-1,634277,219090,1288842,65252,8203,644539,0
3,-1,639588,221204,1320596,66230,8417,659997,0
3,-1,637078,218687,1278114,65057,7000,639366,0
3,-1,637331,218835,1209469,65221,7324,604753,0
3,-1,632274,218476,1246290,65108,7700,623159,0
3,-1,635805,219148,1566168,65416,8848,783072,0
3,-1,641351,219558,1212648,66591,7748,606501,0
3,-1,640260,219272,1310586,66306,8143,655335,0
3,-1,642389,219293,1209413,66283,8455,604733,0
3,-1,639906,218935,1336952,66125,8753,668452,0
3,-1,644749,220408,1227238,66799,8267,613561,0
3,-1,642211,219187,1173919,66221,7111,586913,0
3,-1,637811,218718,1246018,66064,8181,623065,0
3,-1,639928,219937,1225311,66637,6915,612633,0
3,-1,639605,218618,1308639,66012,7878,654087,0
3,-1,641299,219378,1258321,66310,8323,628868,0
3,-1,643336,220111,1297715,66774,8158,648961,0
3,-1,641087,219042,1183136,66171,8033,591664,0
3,-1,643950,220345,1224886,66847,7326,612373,0
3,-1,640937,218751,1328653,66085,7842,664282,0
3,-1,661584,222489,1455584,69082,8835,727732,0
3,-1,639415,219415,1321409,66280,9106,660597,0
3,-1,637092,218799,1218773,66136,7798,609293,0
3,-1,637996,218613,1191225,66020,6931,595646,0
3,-1,639436,219288,1194070,66285,8146,597055,0
3,-1,641723,218726,1243047,66142,7654,621546,0
3,-1,661995,223497,1322901,69400,8412,661529,0
3,-1,638865,219067,1177537,66216,7485,588799,0
3,-1,641438,219087,1259035,66237,7101,629558,0
3,-1,640235,218303,1256566,65925,8369,628276,0
3,-1,658180,223064,1299663,69224,7952,649765,0
3,-1,639910,219362,1253797,66222,7150,626879,0
3,-1,640753,217433,1195761,65665,7578,597903,0
3,-1,638392,218882,1233584,66138,6689,616842,0
3,-1,642395,219275,1311473,66192,7767,655802,0
3,-1,643807,220057,1153149,66740,7689,576307,0
3,-1,643899,219373,1286886,66269,8401,643479,0
3,-1,641098,218796,1309823,65921,8086,654737,0
3,-1,641305,218675,1162501,65831,7652,581179,0
3,-1,640725,219376,1288125,66191,8194,644107,0
3,-1,643083,219991,1195559,66521,7951,597441,0
3,-1,643786,219485,1318839,66187,8878,659374,0
3,-1,646187,220191,1291642,66419,8028,645660,0
3,-1,641617,218587,1366135,65822,8010,683091,0
3,-1,641883,218493,1274447,65809,8441,637151,0
3,-1,646332,219403,1231853,66174,8349,615607,0
3,-1,637392,219286,1241167,66174,8890,620487,0
3,-1,638181,218186,1285837,65925,7873,642880,0
3,-1,646445,220215,1320658,66632,8260,660273,0
3,-1,663355,224558,1525608,69752,10127,762665,0
3,-1,643631,220609,1203205,66874,7219,601658,0
3,-1,645174,219699,1197145,66510,7777,598601,0
3,-1,640093,219610,1134097,66422,6655,567058,0
3,-1,644992,220571,1180075,66970,7638,589979,0
3,-1,646297,220062,1162179,66476,7501,581120,0
3,-1,644774,219831,1436904,66401,8764,718427,0
3,-1,644105,219322,1313437,66211,7641,656663,0
3,-1,648549,221093,1269463,66824,8408,634750,0
3,-1,662288,224338,1367148,69702,9264,683699,0
3,-1,647627,221629,1224634,67280,8555,612184,0
3,-1,641752,219850,1317698,66494,9030,658735,0
3,-1,642361,219772,1160818,66283,7785,580437,0
3,-1,666475,224987,1368453,69818,8849,684196,0
3,-1,644451,219471,1281735,66057,8304,640885,0
3,-1,640873,219427,1211434,66099,6975,605693,0
3,-1,640798,218872,1258359,65931,6650,629129,0
3,-1,646287,220689,1422885,66659,7930,711588,0
3,-1,667902,224390,1345138,69602,9172,672491,0
3,-1,644337,219684,1184496,66342,7306,592248,0
3,-1,644402,219462,1267512,66232,7567,633681,0
3,-1,645005,219525,1216013,66302,7713,607932,0
3,-1,637871,218266,1339584,65873,8216,669824,0
3,-1,645233,220672,1231024,66873,8022,615457,0
3,-1,640204,219307,1264473,66119,7285,632186,0
3,-1,644081,220982,1309641,66954,7598,654930,0
3,-1,645882,220808,1164708,66871,7838,582468,0
3,-1,651021,221706,1325098,67222,7790,662454,0
3,-1,641450,219983,1305978,66362,7597,652982,0
3,-1,647172,221091,1239445,66914,6857,619735,0
3,-1,646903,220687,1230578,66871,7033,615225,0
3,-1,642217,219481,1253085,66357,7738,626520,0
3,-1,670560,225150,1341899,69967,8265,670834,0
3,-1,647168,219842,1210679,66322,7559,605341,0
3,-1,640723,219753,1207963,66291,7880,603944,0
3,-1,642884,219483,1245207,66206,6892,622553,0
3,-1,643001,219144,1300145,66072,7060,650144,0
3,-1,646897,221485,1217156,67205,7669,608445,0
3,-1,642923,219351,1336040,66132,7577,668046,0
3,-1,645718,219702,1343078,66267,8678,671560,0
3,-1,644659,219934,1292319,66355,7373,646194,0
3,-1,643886,218954,1308504,66059,7510,654303,0
3,-1,639888,218426,1136389,65872,7368,568227,0
3,-1,642791,218282,1279101,66001,6970,639587,0
3,-1,642485,218955,1333443,66240,8412,666727,0
3,-1,645336,219053,1411924,66335,8193,705909,0
3,-1,634069,218118,1130842,65996,6663,565451,0
3,-1,636955,218650,1252629,66160,7076,626344,0
3,-1,635278,218525,1181518,66185,7062,590673,0
3,-1,638402,218384,1240535,66149,7130,620306,0
3,-1,645637,220936,1336310,67236,7499,667999,0
3,-1,635895,218744,1316084,66183,8207,658041,0
3,-1,635810,217711,1314848,65822,8354,657103,0
3,-1,640779,219357,1359575,66437,7493,679439,0
3,-1,639733,219055,1282849,66188,6928,641454,0
4,-1,694572,239101,1359321,71553,7683,679734,0
4,-1,690626,237555,1302468,70814,7009,651278,0
4,-1,695824,238077,1336445,70973,8315,668255,0
4,-1,691204,238046,1357567,71150,7678,678813,0
4,-1,638943,219174,1199889,65786,6642,599933,0
4,-1,644479,220926,1289951,66491,7514,644964,0
4,-1,637655,218736,1199780,65739,7176,599921,0
4,-1,642836,220993,1278966,66640,7472,639551,0
4,-1,640128,218731,1255247,65728,8158,627647,0
4,-1,636872,220832,1325509,66589,6965,662701,0
4,-1,636778,219166,1428884,65898,7199,714476,0
4,-1,633902,218737,1245031,65767,6731,622550,2
4,-1,658196,223307,1270243,69041,7997,635147,0
4,-1,653326,222410,1298901,68692,7905,649523,0
4,-1,638684,218824,1234387,65692,7674,617165,0
4,-1,638901,218638,1256836,65668,8106,628455,0
4,-1,637612,218427,1214435,65581,7455,607195,0
4,-1,637938,219112,1192244,65858,7457,596120,0
4,-1,641152,219705,1330673,66357,8489,665261,0
4,-1,637104,218648,1276792,65846,6936,638308,0
4,-1,639158,219265,1298074,65951,7159,649024,0
4,-1,639779,218895,1346123,65749,8002,672982,0
4,-1,660059,223986,1294822,69137,8448,647297,0
4,-1,637965,219254,1204597,65810,6970,602310,0
4,-1,643008,220416,1322968,66059,7549,661480,0
4,-1,636472,218437,1251307,65625,7205,625627,0
4,-1,644429,221092,1294430,66767,7645,647107,0
4,-1,643878,219468,1262930,66067,7181,631456,0
4,-1,640225,219257,1199967,65995,6985,599899,0
4,-1,644543,220155,1265965,66521,8345,632673,0
4,-1,640954,218950,1290865,65890,7282,645407,0
4,-1,640459,218973,1298070,65954,8123,649105,0
4,-1,642092,219191,1128902,66030,7607,564378,0
4,-1,648928,220996,1288935,66848,8361,644521,0
4,-1,638371,220296,1196553,66551,7548,598360,0
4,-1,637172,219943,1366335,66260,8536,683326,0
4,-1,640690,220613,1377300,66672,9033,688555,0
4,-1,639611,220799,1251019,66762,7799,625318,0
4,-1,635614,218979,1335479,65840,7597,667813,0
4,-1,643601,221220,1277227,66937,7784,638541,0
4,-1,636550,219046,1281207,65927,7125,640664,0
4,-1,658816,223490,1202643,69228,7646,601266,0
4,-1,637708,219619,1256652,66055,7192,628329,0
4,-1,641908,219898,1316204,66155,7236,658052,0
4,-1,666800,225427,1217207,70241,8382,608447,0
4,-1,637577,220343,1175971,66276,7155,587901,0
4,-1,638213,219204,1205848,65938,7024,602858,0
4,-1,637877,219257,1194043,65931,6880,597015,0
4,-1,638822,219929,1261297,66152,7458,631056,0
4,-1,638047,218978,1143198,65828,7246,571157,0
4,-1,638238,219090,1191671,65906,6970,595797,0
4,-1,662780,223764,1338415,69210,8184,669141,0
4,-1,639947,219760,1241588,66114,7653,620694,0
4,-1,640006,219775,1265751,66128,6781,632776,0
4,-1,638425,219708,1137048,66012,7476,568486,0
4,-1,638708,218755,1304137,65836,7543,652012,0
4,-1,662855,223769,1239627,69163,8405,619656,0
4,-1,638889,221118,1347312,66723,8171,673577,0
4,-1,667010,229122,1331794,68899,7386,665768,0
4,-1,638470,219822,1355662,66083,6978,677863,0
4,-1,639616,219095,1304933,65842,7190,652525,0
4,-1,640129,219434,1205460,65982,6836,602713,0
4,-1,663786,224151,1249630,69287,8011,624728,0
4,-1,637298,219107,1189203,65864,7214,594592,0
4,-1,640787,219566,1247112,65899,6889,623254,0
4,-1,642418,219414,1215230,65833,7654,607629,0
4,-1,640971,219794,1387317,65990,8641,693584,0
4,-1,640179,219216,1227218,65738,7097,613667,0
4,-1,659133,223699,1273761,69080,8192,636755,0
4,-1,639188,219598,1458303,65903,8767,728730,0
4,-1,639901,219093,1269390,65702,7553,634699,0
4,-1,640246,219897,1298001,66011,7568,648978,0
4,-1,638937,219533,1256350,65899,6773,628221,0
4,-1,643676,219689,1234794,65889,6465,617392,0
4,-1,643346,220991,1342292,66607,7998,671090,0
4,-1,641010,219336,1491598,65898,8240,745680,0
4,-1,644743,220159,1351893,66286,9963,675034,0
4,-1,645651,221336,1374060,66708,8545,687087,0
4,-1,647960,220801,1253086,66486,8010,626288,0
4,-1,647170,220517,1205677,66268,7392,602785,0
4,-1,647968,220426,1289271,66148,7906,644584,0
4,-1,640004,220395,1236889,66116,7516,618508,0
4,-1,662014,225530,1255513,69598,8571,627689,0
4,-1,644150,220252,1302613,66024,7328,651355,0
4,-1,640448,220310,1354822,66065,8439,677351,0
4,-1,643331,220475,1180253,66228,8020,590295,0
4,-1,644321,220191,1354283,66097,7509,677178,0
4,-1,647045,222561,1303995,67182,8321,652064,0
4,-1,640082,219900,1313604,66014,7915,656724,0
4,-1,641476,219446,1258285,65876,8125,628895,0
4,-1,664733,224284,1335210,69227,9358,667567,0
4,-1,645057,220879,1294088,66585,8394,646962,0
4,-1,641242,218718,1295915,65638,7867,647777,0
4,-1,638947,219071,1180540,65817,7236,590247,0
4,-1,638698,219064,1189544,65707,7453,594767,0
4,-1,641960,220202,1177995,66136,7142,588990,0
4,-1,643078,220326,1346898,66516,7748,673251,0
4,-1,642406,219391,1175517,65967,7264,587735,0
4,-1,640758,219155,1300343,65708,7839,650155,0
4,-1,637455,218615,1157250,65615,7571,578527,0
4,-1,642337,219752,1332606,65943,8467,666272,0
4,-1,665404,224906,1431789,69273,8957,715833,0
4,-1,645865,220129,1145541,65926,7768,572726,0
4,-1,638131,219300,1287304,65659,7982,643605,0
4,-1,639670,219259,1281959,65664,7710,640950,0
4,-1,640748,218843,1271606,65673,7409,635724,0
4,-1,637690,218883,1280080,65687,7218,639614,0
4,-1,644687,220908,1324651,66498,6977,662271,0
4,-1,640826,218617,1197179,65554,8016,598508,0
4,-1,640662,219790,1246667,66167,6985,623343,0
4,-1,638612,218567,1305973,65520,7427,653025,0
4,-1,648967,222037,1260011,67012,8307,630057,0
4,-1,642870,219486,1272164,65858,7616,636156,0
4,-1,641516,219213,1289468,65753,7800,644728,0
4,-1,648515,220922,1213572,66450,7408,606854,0
4,-1,638556,218796,1273602,65566,7286,636830,0
4,-1,640357,218934,1316909,65612,7778,658449,0
4,-1,645857,221183,1160533,66569,7419,580322,0
4,-1,641977,220380,1249471,66310,6864,624400,0
4,-1,643473,219516,1427715,65809,8547,713874,0
4,-1,645414,221083,1202175,66548,6823,601140,0
4,-1,641738,218766,1206206,65623,7290,603126,0
4,-1,643875,218941,1269855,65687,7630,634826,0
4,-1,663202,223931,1367571,69065,7684,683719,0
4,-1,649235,221173,1250594,66662,7267,625408,0
4,-1,641620,218493,1468744,65433,7747,735092,0
4,-1,668287,224139,1380986,69082,8236,690175,0
4,-1,634797,218586,1321674,65018,7263,660833,0
4,-1,639345,221365,1346095,66152,7954,672568,0
4,-1,631880,218430,1198088,64963,7685,599088,0
4,-1,639093,220020,1242734,65776,7151,621354,0
4,-1,637483,219496,1303479,65381,7436,651586,0
4,-1,635525,218738,1282156,65251,8086,640639,0
4,-1,643890,221438,1200360,66384,7236,600148,0
4,-1,635711,218377,1273248,65116,7602,636635,0
4,-1,636790,218703,1286049,66070,8342,643068,0
4,-1,637041,218547,1233851,66004,7588,616964,0
4,-1,645093,220043,1189003,66749,7715,594520,0
4,-1,635796,218337,1163489,65939,8050,581742,0
4,-1,638452,218423,1303311,66039,8109,651656,0
4,-1,665937,227579,1327059,68746,7551,663497,0
4,-1,657720,222441,1234529,69163,8388,617146,0
4,-1,641652,219869,1294174,66478,7980,647057,0
4,-1,642115,219075,1367430,66185,7756,683655,0
4,-1,641453,219515,1304870,66305,8365,652211,0
4,-1,639400,218151,1310514,65879,8294,655222,0
4,-1,643718,220633,1127179,66955,7893,563429,0
4,-1,660739,223410,1335011,69435,9094,667421,0
4,-1,661855,223463,1334802,69382,8362,667365,0
4,-1,643623,218769,1340012,66145,7960,669897,0
4,-1,641551,220886,1306405,67074,9015,653362,0
4,-1,642488,221138,1196720,67206,7458,598351,0
4,-1,641973,219576,1350328,66321,7971,675292,0
4,-1,644326,220515,1154293,66873,6881,577350,0
4,-1,640480,218682,1198262,65981,7282,599184,0
4,-1,641181,218372,1269825,65909,7361,634855,0
4,-1,637946,219248,1215060,66229,7946,607760,0
4,-1,641121,219286,1221041,66277,6809,610610,0
4,-1,641293,219056,1259968,66167,7222,630018,0
4,-1,640141,218853,1270744,66064,7192,635393,0
4,-1,649780,221760,1243353,67434,7344,621747,0
4,-1,648237,220748,1156775,67030,7407,578443,0
4,-1,639152,218898,1298145,66175,7271,649138,0
4,-1,644895,220760,1201427,67054,7278,600765,0
4,-1,639939,218428,1193028,66057,7241,596571,0
4,-1,642368,218841,1309126,66121,8289,654545,0
4,-1,643124,219797,1388029,66514,7522,693955,0
4,-1,640319,218740,1210263,65896,7664,605130,0
4,-1,639081,219084,1227680,66075,7908,613721,0
4,-1,640957,219464,1356980,66223,8130,678370,0
4,-1,644877,220478,1314286,66508,8604,657238,0
4,-1,646410,220308,1226880,66665,7797,613328,0
4,-1,642559,219613,1277755,66283,7937,638684,0
4,-1,647255,220907,1240693,66989,8611,620235,0
4,-1,643410,218879,1303477,65953,8814,651746,0
4,-1,638073,220152,1141812,66669,7709,570858,0
4,-1,641081,219943,1483476,66604,8463,741694,0
4,-1,642734,219863,1245732,66501,7905,622944,0
4,-1,642951,220168,1235040,66502,7963,617347,0
4,-1,642544,219382,1253601,66371,8032,626845,0
4,-1,652392,222294,1154794,67667,7325,577426,0
4,-1,644761,220695,1252172,67046,7657,626148,0
4,-1,667748,224629,1439422,69896,8813,719699,0
4,-1,643828,219556,1188623,66336,8023,594367,0
4,-1,670387,229235,1484364,69239,9180,742184,0
4,-1,645657,220376,1370639,66667,8440,685354,0
4,-1,646424,221076,1252439,67043,8208,626068,0
4,-1,641060,219902,1258297,66427,7449,629121,0
4,-1,645960,220997,1176126,66840,7597,588045,0
4,-1,642787,219669,1297606,66360,7837,648848,0
4,-1,641450,219818,1234175,66364,7933,616948,0
4,-1,643595,220110,1182432,66435,7162,591301,0
4,-1,666140,224622,1379876,69624,9223,689905,0
4,-1,641546,220008,1299374,66341,7604,649673,0
4,-1,644485,220923,1208194,66897,6918,604027,0
4,-1,644452,220041,1208653,66414,7318,604334,0
4,-1,645888,219724,1251765,66338,7487,625897,0
4,-1,643275,219969,1300246,66413,7629,650060,0
4,-1,665316,224699,1345765,69760,7967,672838,0
4,-1,647440,220588,1209411,66779,7897,604617,0
4,-1,641845,220469,1387000,66575,7783,693037,0
4,-1,640399,219435,1260096,66271,7602,630069,0
4,-1,645697,221315,1165710,67065,7952,582702,0
4,-1,639120,219953,1220051,66402,7442,610039,0
4,-1,643492,219441,1263212,66199,8060,631594,0
4,-1,644451,219637,1306619,66087,7404,653222,0
4,-1,650772,220536,1293018,66589,7386,646578,0
4,-1,644042,220147,1294764,66421,7120,647262,0
4,-1,644738,220151,1290683,66585,7826,645280,0
4,-1,648214,221532,1158939,67353,7812,579245,0
4,-1,645483,219439,1199498,66250,7213,599482,0
4,-1,646632,219660,1234574,66167,7678,617243,0
4,-1,648117,219738,1205165,66268,8304,602547,0
4,-1,664146,224866,1350162,69775,8966,674976,0
4,-1,643213,220208,1235314,66674,7489,617645,0
4,-1,662017,223963,1279879,69486,8672,639853,0
4,-1,644822,219566,1256981,66181,7849,628508,0
4,-1,640942,218272,1203544,65871,7146,601789,0
4,-1,645965,221486,1263066,67189,7840,631525,0
4,-1,642092,218975,1190033,66130,6676,595045,0
4,-1,648418,221048,1197595,67108,7655,598724,0
4,-1,647329,220150,1298863,66862,7887,649447,0
4,-1,663111,223133,1404925,69471,8608,702430,0
4,-1,644684,218762,1184801,66268,7860,592442,0
4,-1,633758,218475,1190152,66152,7506,595124,0
4,-1,638721,218801,1262184,66211,7491,631110,0
4,-1,636750,219165,1302058,66525,6739,651186,0
4,-1,637497,218680,1332467,66231,7023,666268,0
4,-1,660674,223093,1375382,69464,8321,687728,0
4,-1,636622,218821,1201566,66267,7645,600847,0
4,-1,644066,221222,1332595,67312,8435,665966,0
4,-1,637129,218332,1266170,66052,7340,632591,0
4,-1,637325,218217,1202553,65863,6739,601301,0
5,-1,692690,236846,1223276,70571,7241,611668,0
5,-1,687823,236784,1371020,70528,7782,685517,0
5,-1,691063,236539,1322561,70432,8632,661289,0
5,-1,689510,237697,1403610,70896,8068,701745,0
5,-1,652295,224610,1319852,67461,7622,659930,0
5,-1,659182,222971,1347809,68798,8106,673931,0
5,-1,637966,219049,1209057,65830,7069,604591,0
5,-1,660340,223845,1329439,69091,8470,664691,0
5,-1,642243,218739,1260386,65554,7134,630253,0
5,-1,639899,217724,1233769,65323,7264,616879,0
5,-1,655258,223352,1284703,69013,8008,642367,0
5,-1,634944,218765,1287095,65718,6574,643596,0
5,-1,634477,219567,1158842,65927,6465,579313,2
5,-1,634687,218952,1303989,65688,7495,651984,0
5,-1,636213,218319,1212706,65486,6776,606250,0
5,-1,635847,218549,1270940,65631,6787,635362,0
5,-1,646182,221178,1313280,66838,8349,656463,0
5,-1,635734,218911,1254453,65803,7680,627209,0
5,-1,637676,218179,1236471,65664,8260,618188,0
5,-1,638444,218938,1192171,65925,6837,596045,0
5,-1,640787,219967,1214038,66117,6858,607023,0
5,-1,643633,220687,1321871,66656,8307,661006,0
5,-1,645444,221460,1413887,66700,8644,706934,0
5,-1,641043,220434,1300588,66347,7838,650302,0
5,-1,662744,224519,1285170,69276,8413,642641,0
5,-1,641908,219997,1185388,66101,6873,592634,0
5,-1,638942,219263,1230544,65872,7338,615221,0
5,-1,642577,219639,1199641,66112,7063,599772,0
5,-1,645060,221565,1334930,67076,7517,667456,0
5,-1,641758,219274,1198981,66049,7551,598772,0
5,-1,640979,219458,1290149,66105,7093,644996,0
5,-1,639930,218858,1320393,65859,8243,660142,0
5,-1,640027,218401,1278175,65734,7665,638802,0
5,-1,664374,223607,1243530,69204,8266,621762,0
5,-1,636125,219300,1262374,66005,6915,631232,0
5,-1,631810,218361,1326919,65646,7523,663612,0
5,-1,656322,223348,1291884,69157,8565,645989,0
5,-1,636206,219286,1260163,66081,7691,629853,0
5,-1,636736,219726,1319079,66193,7043,659524,0
5,-1,637337,218841,1267666,65854,7484,633801,0
5,-1,634958,218638,1272909,65796,7672,636457,0
5,-1,637896,219278,1287290,65965,7349,643572,0
5,-1,637655,219248,1278826,65911,6828,639431,0
5,-1,660464,224000,1267733,69305,7534,633808,0
5,-1,640587,219951,1227301,66160,7375,613612,0
5,-1,638897,220565,1314751,66532,7906,657313,0
5,-1,671272,231496,1336914,70018,7246,668378,0
5,-1,643516,221498,1338727,66936,7511,669322,0
5,-1,636476,218905,1198653,65781,6556,599334,0
5,-1,659740,223832,1254671,69166,8910,627855,0
5,-1,637032,218747,1256334,65730,6893,628151,0
5,-1,642241,219709,1266025,66045,7420,633008,0
5,-1,658674,224131,1254374,69350,8361,627103,0
5,-1,638124,219906,1291091,66092,6823,645505,0
5,-1,646320,221247,1267867,66866,7509,633935,0
5,-1,639754,219565,1285297,65946,7925,642550,0
5,-1,644099,220055,1288539,66116,7258,644253,0
5,-1,645459,219310,1296625,65871,7617,648273,0
5,-1,639447,219574,1282896,65982,7367,641452,0
5,-1,640030,220132,1281392,66259,7394,640689,0
5,-1,640274,219846,1272553,66145,7247,636293,0
5,-1,642306,220704,1301130,66570,7412,650542,0
5,-1,640451,219734,1243630,65962,6508,621787,0
5,-1,639470,219563,1186266,65947,7521,593073,0
5,-1,640931,220275,1407113,66123,7720,704119,0
5,-1,647627,221467,1326834,66686,8186,663078,0
5,-1,641374,219865,1355280,65952,7583,677703,0
5,-1,641673,219563,1287080,65887,7898,643539,0
5,-1,638155,219276,1206803,65843,7176,603479,0
5,-1,640993,219290,1303607,65770,7482,651542,0
5,-1,642095,219540,1425264,65926,9323,712496,0
5,-1,640535,220073,1310147,66092,7700,655122,0
5,-1,645791,221144,1337204,66583,8247,668624,0
5,-1,643927,220115,1259441,66088,6721,629717,0
5,-1,638176,219335,1269275,65755,8113,634668,0
5,-1,645644,221227,1487356,66856,8764,743662,0
5,-1,642147,219784,1249481,65994,8005,624690,0
5,-1,643442,220201,1285293,66201,7876,642648,0
5,-1,644418,219752,1364546,66088,8648,682286,0
5,-1,646717,220692,1270183,66364,8083,635036,0
5,-1,650985,221969,1357890,66812,8005,678838,0
5,-1,639256,220354,1410435,66069,8129,705180,0
5,-1,645066,221475,1196742,66661,8173,598321,0
5,-1,647064,222064,1378311,66868,8049,689035,0
5,-1,646932,222294,1257659,67023,8003,628725,0
5,-1,641680,220207,1238441,66088,8070,619257,0
5,-1,665255,224755,1345934,69400,7907,672942,0
5,-1,650159,221180,1341279,66518,7720,670687,0
5,-1,638853,218709,1333620,65603,7917,666709,0
5,-1,639736,219333,1389031,65885,8352,694439,0
5,-1,640915,219477,1225141,65878,8651,612599,0
5,-1,640841,218860,1280187,65739,7783,640119,0
5,-1,644065,219082,1287159,65812,8334,643575,0
5,-1,639478,219338,1268007,65936,7426,633977,0
5,-1,644220,221303,1322322,66759,7761,661205,0
5,-1,638246,219126,1271469,65745,7742,635720,0
5,-1,661604,224257,1378962,69314,7910,689412,0
5,-1,644805,220540,1283777,66601,8159,641850,0
5,-1,662538,224531,1242293,69356,7716,621053,0
5,-1,644590,219973,1143662,66166,7781,571810,0
5,-1,642588,219908,1237298,65986,7857,618645,0
5,-1,645730,220091,1223792,65921,7894,611860,0
5,-1,643709,219180,1301843,65554,7932,650853,0
5,-1,636833,218825,1170787,65448,7291,585381,0
5,-1,639927,219254,1290806,65641,7152,645388,0
5,-1,641169,219130,1362037,65630,8010,680972,0
5,-1,644370,221290,1274814,66728,7805,637415,0
5,-1,639618,219186,1313432,65706,6879,656738,0
5,-1,663515,224187,1246676,69173,8062,623141,0
5,-1,641904,220606,1319203,66501,7063,659241,0
5,-1,641530,220164,1280236,66295,6992,640089,0
5,-1,668850,229238,1235355,68942,7457,617733,0
5,-1,645323,220971,1220454,66514,7072,610292,0
5,-1,662365,223342,1282784,68840,8387,641385,0
5,-1,643927,219481,1200287,65875,7518,600187,0
5,-1,636807,218892,1345211,65599,7837,672597,0
5,-1,639768,218982,1141018,65632,7313,570541,0
5,-1,641735,219309,1176454,65787,7265,588159,0
5,-1,641231,218288,1272809,65369,7783,636379,0
5,-1,663151,223642,1334714,68965,8699,667200,0
5,-1,638383,218683,1267047,65546,7715,633529,0
5,-1,641116,218787,1252062,65563,6949,626050,0
5,-1,642364,218752,1517784,65548,8632,758941,0
5,-1,642763,220003,1186238,66233,6738,593011,0
5,-1,663745,223356,1341156,68854,7874,670617,0
5,-1,649285,221804,1285025,66792,7365,642441,0
5,-1,644635,218963,1290503,65624,6688,645245,0
5,-1,640563,221472,1318954,66288,7804,659414,0
5,-1,635046,219484,1242410,65352,7894,621463,0
5,-1,638809,219834,1239948,65432,6888,619995,0
5,-1,632612,218655,1220789,65089,7334,610373,0
5,-1,635854,218957,1271469,65182,7656,635494,0
5,-1,639514,220745,1311579,66008,7949,656016,0
5,-1,635268,218363,1173474,65093,6686,586768,0
5,-1,644395,221981,1218585,66635,7453,609404,0
5,-1,638091,218612,1172231,66111,7904,586148,0
5,-1,645069,219771,1303847,66368,8851,651875,0
5,-1,661314,223020,1346803,69306,9171,673402,0
5,-1,658136,223048,1361546,69223,8806,680913,0
5,-1,637596,218549,1347852,66017,8202,673957,0
5,-1,644927,220568,1203414,66854,7311,601731,0
5,-1,637908,218727,1225006,66026,6712,612410,0
5,-1,640512,218440,1295814,65971,8197,647862,0
5,-1,643485,219733,1331879,66388,7884,666061,0
5,-1,643993,221003,1323219,67100,7838,661360,0
5,-1,640172,218904,1249962,66164,8263,624650,0
5,-1,639260,218415,1254815,66017,7344,627319,0
5,-1,642046,219632,1247281,66343,7535,623676,0
5,-1,638986,219175,1195654,66233,6868,597768,0
5,-1,642305,218683,1226985,66043,7909,613469,0
5,-1,637273,218870,1303985,66163,8821,651858,0
5,-1,640194,218513,1211142,66008,8127,605644,0
5,-1,642043,219814,1273002,66354,8189,636281,0
5,-1,637758,218504,1164956,65981,7201,582523,0
5,-1,641984,219643,1188953,66401,7761,594494,0
5,-1,643750,220084,1199166,66749,7092,599439,0
5,-1,659256,223619,1394105,69497,8990,696962,0
5,-1,639117,218133,1216986,65822,6590,608525,0
5,-1,639128,218831,1220035,66181,6632,610009,0
5,-1,642650,220415,1172697,66888,6599,586405,0
5,-1,643072,219375,1213680,66242,6573,606833,0
5,-1,666886,224408,1246365,69745,8594,623177,0
5,-1,636170,218046,1187440,65849,7983,593759,0
5,-1,638480,218635,1203950,66036,6644,602003,0
5,-1,641967,219157,1153887,66210,7474,577043,0
5,-1,640992,218807,1205442,66009,7504,602779,0
5,-1,640650,219124,1424605,66085,8133,712267,0
5,-1,645560,220764,1168821,66890,8535,584350,0
5,-1,636988,218369,1440968,65832,8601,720456,0
5,-1,638466,218543,1304014,65888,7715,651739,0
5,-1,646004,220808,1160069,66906,8320,579928,0
5,-1,643374,219204,1328092,66099,8097,663948,0
5,-1,668950,228224,1349262,68811,7335,674662,0
5,-1,648522,220296,1163464,66649,7729,581638,0
5,-1,646549,220638,1210570,66835,7830,605246,0
5,-1,639314,219292,1237565,66167,8926,618739,0
5,-1,641239,220425,1217000,67020,8177,608314,0
5,-1,641632,219859,1301254,66457,7986,650591,0
5,-1,643150,220278,1340022,66603,8950,670006,0
5,-1,660383,223949,1390555,69546,10257,695298,0
5,-1,666206,224564,1251837,69951,8220,625897,0
5,-1,640496,219844,1251769,66481,7549,625923,0
5,-1,643589,219656,1251904,66461,7236,625881,0
5,-1,645354,220056,1156565,66530,7439,578324,0
5,-1,643977,219784,1273630,66393,8752,636846,0
5,-1,646608,221163,1237996,67088,8161,619036,0
5,-1,648871,221570,1294769,67252,9032,646874,0
5,-1,640707,220036,1365746,66533,8577,682852,0
5,-1,642784,220180,1239046,66512,8228,619519,0
5,-1,647751,222227,1203500,67500,7279,601625,0
5,-1,641545,219781,1324164,66367,8922,661951,0
5,-1,644025,220221,1289604,66410,8395,644754,0
5,-1,649317,221236,1245369,66940,8753,622642,0
5,-1,642312,220240,1301448,66350,7895,650715,0
5,-1,642275,219796,1260211,66333,7544,630090,0
5,-1,644333,220418,1311346,66518,8363,655642,0
5,-1,645848,220072,1315752,66383,7730,657569,0
5,-1,666361,227778,1239027,68689,7655,619550,0
5,-1,643893,219802,1170559,66378,6796,585256,0
5,-1,646873,220020,1194812,66394,7871,597348,0
5,-1,640810,220571,1220377,66826,7768,610506,0
5,-1,662804,224393,1487075,69670,8602,743365,0
5,-1,641600,219852,1368272,66420,7663,684088,0
5,-1,645033,219697,1327592,66302,8320,663768,0
5,-1,663663,224679,1392456,69757,8500,696105,0
5,-1,644647,220848,1204893,66871,7134,602322,0
5,-1,650367,220849,1404943,66761,8183,702426,0
5,-1,644992,220657,1180213,66536,6857,590026,0
5,-1,643745,219613,1299128,66394,7843,649527,0
5,-1,643848,219962,1152307,66463,7837,575980,0
5,-1,646463,219741,1283979,66351,7188,641965,0
5,-1,651634,221827,1268661,67250,8455,634470,0
5,-1,647326,219680,1157671,66243,7571,578833,0
5,-1,645425,219972,1222156,66415,7514,611003,0
5,-1,644560,219578,1168565,66155,6892,584296,0
5,-1,642110,220141,1166412,66420,7809,583149,0
5,-1,673364,229586,1377005,69440,8558,688563,0
5,-1,643185,219147,1296898,66032,7997,648488,0
5,-1,646203,219257,1338888,66133,8174,669476,0
5,-1,644168,220182,1274475,66703,7004,637334,0
5,-1,641833,218962,1146118,66138,7458,572982,0
5,-1,648259,221009,1257247,67091,7816,628677,0
5,-1,643808,219602,1313465,66505,7320,656658,0
5,-1,647932,220313,1297968,66950,8145,649017,0
5,-1,633800,218131,1294164,66027,7142,647075,0
5,-1,640734,220045,1268020,66879,8134,634177,0
5,-1,636406,219332,1235647,66429,6702,617837,0
5,-1,658759,223137,1319921,69497,8316,659982,0
5,-1,638691,218532,1306672,66122,6999,653369,0
5,-1,642839,219116,1469405,66359,8040,734623,0
5,-1,658361,223196,1311559,69482,8658,655786,0
5,-1,638124,218560,1191334,66126,7373,595719,0
5,-1,638866,219080,1265771,66185,7866,632914,0
6,-1,692184,237433,1357224,70810,7977,678646,0
6,-1,693361,237085,1247925,70666,8024,623863,0
6,-1,716181,242416,1343614,74187,10160,671486,0
6,-1,686691,236701,1320625,70546,6837,660228,0
6,-1,692209,235261,1386459,72055,8592,693194,0
6,-1,638224,218714,1268257,65621,6195,634141,0
6,-1,636918,219071,1292485,66059,7422,646277,0
6,-1,642615,219121,1156572,65751,7859,578320,0
6,-1,643368,219977,1358527,66002,6765,679272,0
6,-1,640169,218239,1274263,65577,7731,637192,0
6,-1,633600,218871,1204508,65753,6838,602190,0
6,-1,638305,219552,1187432,65986,6396,593735,0
6,-1,639197,218789,1222384,65660,7161,611229,0
6,-1,641882,221235,1366242,66821,7437,683134,0
6,-1,636536,218122,1228323,65440,7312,614145,0
6,-1,665713,224616,1278983,70016,8130,639488,0
6,-1,639068,218644,1237705,65766,8016,618943,2
6,-1,634744,218248,1204809,65595,7259,602404,0
6,-1,638511,218572,1309940,65668,7663,655008,0
6,-1,658310,223581,1286815,69208,7756,643350,0
6,-1,646144,220872,1301965,66733,7816,651099,0
6,-1,644485,219718,1279382,66147,7519,639654,0
6,-1,637730,219330,1273875,65808,8010,636888,0
6,-1,643233,219771,1281680,65915,7107,640888,0
6,-1,642341,219116,1304526,65713,7560,652161,0
6,-1,639049,219298,1338404,65856,6988,669125,0
6,-1,642145,219827,1287478,66050,7654,643739,0
6,-1,645163,220289,1302612,66534,7347,651236,0
6,-1,658075,223117,1251584,69085,7763,625694,0
6,-1,640003,218680,1201986,65814,7945,600820,0
6,-1,641950,219375,1310805,66078,7830,655281,0
6,-1,641382,219761,1176742,66212,7804,588355,0
6,-1,642762,219548,1359386,66087,8057,679681,0
6,-1,644767,219683,1310886,66165,7810,655434,0
6,-1,640436,221371,1278684,66988,7995,639428,0
6,-1,659133,223477,1230868,69191,8352,615365,0
6,-1,640593,220746,1290234,66788,7619,645104,0
6,-1,638418,219377,1227962,66059,7534,613737,0
6,-1,637012,219735,1305097,66163,7054,652394,0
6,-1,640528,220519,1298030,66652,7704,649068,0
6,-1,639741,221116,1311013,66905,7872,655545,0
6,-1,637118,219362,1191467,66054,7008,595715,0
6,-1,655822,223635,1239278,69157,8411,619581,0
6,-1,638538,219304,1384241,65974,7665,691900,0
6,-1,643672,220358,1244834,66521,7963,622270,0
6,-1,634528,218863,1288389,65709,8298,644147,0
6,-1,637561,219462,1277483,66042,7652,638754,0
6,-1,659094,224156,1311673,69352,7841,655638,0
6,-1,640143,220463,1277202,66548,7168,638621,0
6,-1,639206,219557,1298524,66014,6927,649251,0
6,-1,639389,219800,1253361,66065,6822,626670,0
6,-1,639702,219215,1185311,65948,6468,592650,0
6,-1,637139,218618,1247652,65709,7534,623869,0
6,-1,643700,220087,1189407,66211,7193,594755,0
6,-1,641981,219858,1306085,66171,7934,653000,0
6,-1,645141,221227,1331590,66786,7723,665614,0
6,-1,643052,220708,1294077,66608,7544,647063,0
6,-1,645304,219951,1272457,66137,7801,636181,0
6,-1,636018,219147,1324951,65837,7087,662454,0
6,-1,640583,220193,1217249,66273,8412,608270,0
6,-1,638592,219511,1210137,66048,6701,605017,0
6,-1,639007,219423,1290037,65916,6982,645121,0
6,-1,644576,221247,1334000,66762,7973,666893,0
6,-1,642918,220904,1340883,66684,7878,670307,0
6,-1,640365,220108,1217388,66226,6764,608417,0
6,-1,641628,219851,1210558,65990,7513,605287,0
6,-1,637996,219022,1481830,65732,8413,740648,0
6,-1,643362,219955,1217846,66079,7082,609035,0
6,-1,638360,219637,1308001,65933,7454,654017,0
6,-1,660025,224035,1260786,69132,7692,630334,0
6,-1,643781,220555,1304166,66440,7973,651936,0
6,-1,644577,221358,1324873,66654,7607,662370,0
6,-1,661302,224145,1308478,69208,8373,654179,0
6,-1,645119,220951,1239408,66556,7324,619598,0
6,-1,642571,218942,1293513,65694,7006,646704,0
6,-1,662189,223900,1303311,69228,9015,651652,0
6,-1,639920,219921,1204071,65976,7729,602021,0
6,-1,650739,221690,1392532,66932,7662,696212,0
6,-1,645984,220392,1491330,66300,8700,745251,0
6,-1,644840,220295,1223725,66273,7590,611754,0
6,-1,648610,220827,1370095,66187,8097,685093,0
6,-1,638989,220582,1326436,66156,7613,663184,0
6,-1,640904,220786,1201842,66196,8285,600929,0
6,-1,666402,226278,1262027,69803,7984,630981,0
6,-1,639811,220455,1287935,66144,7967,644002,0
6,-1,665878,226116,1255908,69835,8216,627820,0
6,-1,647823,221984,1301784,66922,8494,650920,0
6,-1,646700,220387,1207899,66139,7234,603966,0
6,-1,647395,221587,1323325,66890,8978,661667,0
6,-1,644631,221119,1268122,66579,8316,633693,0
6,-1,641049,219655,1177167,66024,8098,588288,0
6,-1,640189,219554,1279347,65866,7661,639718,0
6,-1,647623,221151,1287185,66821,7873,643509,0
6,-1,638638,219454,1168582,65970,6990,584318,0
6,-1,660606,223782,1261304,69081,7866,630552,0
6,-1,662705,224065,1258733,69173,7962,629077,0
6,-1,642971,219858,1289106,66081,7868,644532,0
6,-1,662029,223975,1272583,69234,8169,636261,0
6,-1,638078,218969,1287784,65721,6892,643876,0
6,-1,664680,224167,1330167,69260,8832,665085,0
6,-1,665573,224183,1220354,69155,8786,610094,0
6,-1,644087,219658,1221714,65841,7752,610814,0
6,-1,643028,219285,1350251,65583,8289,674984,0
6,-1,640308,220451,1317254,66014,8149,658628,0
6,-1,644162,221342,1283784,66663,7852,641914,0
6,-1,639484,219169,1259247,65664,7856,629604,0
6,-1,659663,223697,1250290,69015,7946,625122,0
6,-1,640719,219149,1282162,65731,8197,641074,0
6,-1,638056,218370,1244375,65424,6938,622124,0
6,-1,637754,219040,1307249,65703,8039,653639,0
6,-1,642141,219644,1306935,65910,7099,653304,0
6,-1,641178,218981,1129200,65688,7621,564653,0
6,-1,637587,218535,1283341,65496,7139,641673,0
6,-1,639747,218432,1177950,65465,6808,589021,0
6,-1,643263,218903,1322005,65609,7800,661028,0
6,-1,663470,224414,1573838,69241,8890,786889,0
6,-1,642522,219578,1236665,65846,6678,618375,0
6,-1,660404,223247,1271455,68854,7579,635747,0
6,-1,643281,219326,1199110,65807,7096,599584,0
6,-1,644755,219664,1202337,65850,7667,601183,0
6,-1,636044,218201,1286796,65398,7478,643428,0
6,-1,662343,223450,1282620,68873,7848,641257,0
6,-1,647210,221342,1574954,66799,9057,787068,0
6,-1,641457,219316,1359385,65787,7140,679521,0
6,-1,644362,219646,1293976,65879,7095,646956,0
6,-1,664280,224026,1442121,69009,8483,721858,0
6,-1,643684,218656,1175433,65426,6012,587428,0
6,-1,634567,219300,1298417,65302,7498,649120,0
6,-1,632980,218779,1317301,65075,8090,658667,0
6,-1,657115,223575,1667817,68477,8848,833879,0
6,-1,640977,220881,1189015,66004,6896,594405,0
6,-1,642325,221015,1261729,66240,7711,630051,0
6,-1,636126,219265,1301131,65427,7982,650610,0
6,-1,640221,220648,1243615,66054,7581,621852,0
6,-1,656366,223151,1328640,68485,8307,664304,0
6,-1,655970,223438,1348153,68574,8024,673998,0
6,-1,661027,223337,1273146,69393,8987,636499,0
6,-1,642404,220425,1183598,66854,7420,591810,0
6,-1,638132,219414,1281482,66344,8240,640822,0
6,-1,636577,218310,1392363,65895,8184,696147,0
6,-1,638817,218656,1308386,66034,7721,654175,0
6,-1,637760,218976,1338046,66188,7796,669022,0
6,-1,641593,219475,1283067,66308,8007,641550,0
6,-1,662343,223865,1309230,69596,8095,654618,0
6,-1,639419,219433,1255062,66341,8114,627460,0
6,-1,640288,218978,1349032,66151,8572,674556,0
6,-1,637077,218078,1304255,65807,7523,652110,0
6,-1,637380,218467,1288375,65905,7123,644165,0
6,-1,642506,219023,1366658,66225,7848,683280,0
6,-1,640352,217917,1301198,65835,8976,650609,0
6,-1,636982,218897,1241659,66119,8933,620701,0
6,-1,641722,219687,1278227,66444,8850,639086,0
6,-1,637243,219136,1291834,66129,7938,645977,0
6,-1,636597,218527,1218464,66009,7219,609131,0
6,-1,639117,218639,1248932,65968,8056,624405,0
6,-1,638360,218806,1267151,66127,7389,633611,0
6,-1,640891,218455,1292322,66028,7187,646190,0
6,-1,639783,219065,1194584,66214,6849,597308,0
6,-1,638257,218731,1280738,66126,7161,640424,0
6,-1,659144,223436,1314653,69408,7837,657318,0
6,-1,641497,219204,1248336,66204,7564,624214,0
6,-1,642999,219182,1142287,66204,7023,571220,0
6,-1,639721,219477,1229152,66365,7640,614635,0
6,-1,640252,219401,1344937,66276,7572,672505,0
6,-1,641083,219239,1261833,66228,8116,631215,0
6,-1,643561,219196,1266016,66167,8104,633055,0
6,-1,640122,218954,1233693,65921,7598,616648,0
6,-1,640108,218654,1217392,65968,8354,608644,0
6,-1,641717,220630,1204776,66890,8045,602140,0
6,-1,643118,220114,1427581,66428,8359,714099,0
6,-1,661901,223399,1255994,69272,9108,627988,0
6,-1,644335,219097,1215817,66084,7486,607879,0
6,-1,644188,220287,1209886,66699,7020,604744,0
6,-1,644194,218998,1235995,65972,8035,617841,0
6,-1,664256,223784,1388941,69382,9756,694500,0
6,-1,640179,220082,1305713,66421,8512,652866,0
6,-1,638395,218807,1318172,66089,8434,659068,0
6,-1,642298,219533,1304223,66330,7602,651943,0
6,-1,671457,230911,1292032,70087,8439,645764,0
6,-1,646606,220696,1213972,66768,8120,606977,0
6,-1,646497,219783,1313419,66549,8836,656548,0
6,-1,647886,221987,1216736,67570,7561,608019,0
6,-1,642235,219523,1208374,66393,7349,604211,0
6,-1,647095,221134,1216774,67069,7499,608431,0
6,-1,647558,221841,1203143,67362,8060,601677,0
6,-1,645748,220281,1292995,66589,8182,646391,0
6,-1,645418,220730,1316195,66778,8508,658114,0
6,-1,643552,220626,1487038,66726,8745,743420,0
6,-1,647961,221646,1315138,67244,7592,657438,0
6,-1,663422,225103,1430682,69967,9064,715295,0
6,-1,643526,220605,1383937,66610,8277,691926,0
6,-1,646552,221126,1278283,66910,7604,638956,0
6,-1,643752,219940,1257072,66238,8167,628471,0
6,-1,646551,222310,1193815,67361,7823,596765,0
6,-1,641842,220053,1195752,66370,6863,597841,0
6,-1,647455,221265,1164706,67039,7142,582351,0
6,-1,643961,219007,1135932,65979,7062,567866,0
6,-1,646610,220222,1305978,66465,7742,652965,0
6,-1,649720,220586,1253802,66844,8216,626899,0
6,-1,665089,224463,1250032,69649,8988,624940,0
6,-1,639438,219822,1291835,66407,7984,645875,0
6,-1,641992,220295,1277865,66561,7197,638981,0
6,-1,643674,220499,1365054,66555,7847,682496,0
6,-1,647530,221233,1205289,67119,7909,602635,0
6,-1,643813,220370,1186789,66567,7167,593149,0
6,-1,640770,218655,1217061,66042,6184,608539,0
6,-1,671538,226111,1341131,70189,8525,670518,0
6,-1,645533,220208,1268191,66496,7436,634050,0
6,-1,645606,219594,1282051,66342,7664,641001,0
6,-1,643736,220304,1191551,66623,8159,595734,0
6,-1,647246,220550,1310889,66862,7442,655226,0
6,-1,668542,224912,1374521,69759,9173,687190,0
6,-1,646104,219424,1223844,66164,7518,611990,0
6,-1,644354,220619,1201191,66619,7311,600481,0
6,-1,642558,219295,1282076,66179,7145,641012,0
6,-1,643775,219207,1186425,66159,7412,593151,0
6,-1,644514,219894,1348612,66347,7953,674330,0
6,-1,642500,219249,1243235,66137,7478,621635,0
6,-1,651152,221144,1320403,66939,8367,660248,0
6,-1,642874,219413,1279603,66260,7343,639982,0
6,-1,640665,218955,1192186,66116,7261,596129,0
6,-1,641485,218720,1161382,66024,7146,580760,0
6,-1,640836,218480,1270728,66107,7476,635402,0
6,-1,641572,217892,1196712,65951,7719,598373,0
6,-1,638066,219944,1356993,66826,7511,678520,0
6,-1,636381,219154,1256864,66403,7299,628443,0
6,-1,645442,220947,1207328,67280,7576,603697,0
6,-1,635951,218306,1264835,66063,7065,632447,0
6,-1,636834,217712,1258411,65893,7380,629305,0
6,-1,639271,217958,1346826,65885,7161,672692,0
6,-1,633930,217684,1209751,65927,7259,605360,0
6,-1,638877,218919,1158363,66238,6725,579222,0
6,-1,660863,223988,1409212,69623,8323,704258,0
7,-1,698034,239981,1382756,71883,8261,691447,0
7,-1,692994,237312,1347154,70739,7879,673532,0
7,-1,692428,236755,1329269,70539,8545,664638,0
7,-1,692994,237893,1416005,70953,7577,708039,0
7,-1,672239,231376,1252380,68871,7342,626255,0
7,-1,638688,218837,1303846,65640,7167,651964,0
7,-1,635550,218755,1260344,65752,7687,630222,0
7,-1,636340,218092,1128542,65437,7225,564225,0
7,-1,639196,218676,1439968,65561,7607,720004,0
7,-1,646227,220947,1326346,66721,7872,663154,0
7,-1,637587,219341,1233704,65872,7604,616897,0
7,-1,639575,220141,1379264,66414,7108,689645,0
7,-1,643148,221110,1241134,66802,8017,620581,0
7,-1,655401,223261,1264245,68998,7375,632093,0
7,-1,647056,221803,1326974,66950,8146,663191,0
7,-1,638579,218856,1176591,65821,7166,588282,0
7,-1,634546,218292,1250740,65646,7684,624961,0
7,-1,639830,220912,1219786,66764,8421,609729,2
7,-1,636819,219035,1223490,65826,7287,611914,0
7,-1,638234,218962,1224680,65877,8664,612384,2
7,-1,637548,218687,1248888,65800,7177,624420,0
7,-1,640151,219452,1326142,65976,7129,662843,2
7,-1,662127,223893,1246964,69234,8020,623393,0
7,-1,648370,221497,1328516,67002,7169,664220,0
7,-1,641287,221474,1317490,66870,7995,658543,0
7,-1,644769,221175,1294401,66683,8164,647220,0
7,-1,643250,220485,1276012,66158,7629,638002,2
7,-1,643723,220280,1228320,66156,7313,614091,0
7,-1,637574,219296,1368956,65882,7565,684416,0
7,-1,637793,219383,1206079,65896,7031,603062,2
7,-1,638216,218773,1317952,65622,7315,658940,0
7,-1,641838,219048,1239686,65836,6890,619905,0
7,-1,640013,219582,1240330,66151,7340,620111,0
7,-1,639504,218873,1140637,65873,7306,569845,0
7,-1,639236,218182,1203074,65609,7460,601465,0
7,-1,639462,219358,1135278,66117,7252,567565,2
7,-1,646810,221033,1311664,66906,6966,655807,2
7,-1,638937,219051,1287021,65929,8101,643459,0
7,-1,644375,219770,1225944,66158,7937,612918,0
7,-1,644647,219635,1223065,66149,8143,611660,0
7,-1,633510,219199,1297505,66007,7142,648771,0
7,-1,637890,219960,1231947,66263,7528,616009,0
7,-1,639024,221757,1283916,67180,7820,642006,2
7,-1,656655,223418,1210471,69184,8116,605364,0
7,-1,635693,219828,1203812,66246,7973,601810,2
7,-1,634226,218211,1120225,65744,6449,559865,0
7,-1,638370,219503,1280868,66156,7294,640118,2
7,-1,659419,223608,1257286,69240,7709,628634,0
7,-1,638595,219485,1216102,66067,6919,607544,0
7,-1,635698,219222,1246655,66050,7189,623215,2
7,-1,658342,223929,1289086,69301,8177,644461,0
7,-1,639230,220037,1321233,66206,7556,660597,2
7,-1,639085,220195,1329612,66500,7980,664636,0
7,-1,642370,219515,1280433,65998,7811,640162,0
7,-1,635669,219806,1315794,66157,8126,657831,2
7,-1,638569,219555,1383299,65999,7696,691696,0
7,-1,642531,221319,1225525,66899,7712,612743,2
7,-1,640362,219395,1153411,65939,7438,576626,0
7,-1,654709,223409,1280070,69085,7838,639960,0
7,-1,634783,219579,1325494,66052,8353,662688,2
7,-1,637740,219301,1263271,65918,6846,631610,0
7,-1,638148,219134,1285574,65856,7734,642735,0
7,-1,638432,219701,1194306,66124,7278,597110,2
7,-1,637117,219526,1277075,66008,7076,638552,0
7,-1,640850,220525,1323649,66542,8115,662317,0
7,-1,638056,218825,1200754,65785,7036,600299,0
7,-1,641453,220196,1250295,66281,7426,625133,2
7,-1,642704,220457,1278418,66485,7527,639209,0
7,-1,640636,220561,1207004,66390,6838,603457,0
7,-1,644307,220857,1325537,66643,7687,662742,0
7,-1,642761,221402,1319117,66940,7861,659541,2
7,-1,639864,219495,1329048,65987,7235,664461,0
7,-1,640262,219290,1197261,65990,6292,598653,0
7,-1,641362,219372,1215137,66030,6656,607508,0
7,-1,641953,219759,1312445,66098,7433,656232,2
7,-1,647919,221221,1227914,66842,8964,613777,0
7,-1,658244,223909,1344084,69159,7955,671960,0
7,-1,640374,221257,1357823,66924,7438,678808,2
7,-1,637775,219488,1220772,65931,6752,610052,0
7,-1,638798,219265,1251277,65964,7809,625605,2
7,-1,657904,223764,1267658,69165,8424,633765,0
7,-1,637755,220084,1379438,66225,7462,689654,2
7,-1,647262,221893,1293590,67020,7878,646584,0
7,-1,638500,219408,1170534,65962,6990,585258,0
7,-1,637021,219214,1298351,65947,7281,649129,0
7,-1,638183,219621,1212462,66101,7135,606042,2
7,-1,643138,219594,1207861,66013,7373,603952,0
7,-1,640141,219908,1271872,66024,7429,635940,2
7,-1,639488,219202,1337069,65738,7439,668500,0
7,-1,637924,219640,1186236,65948,7007,593078,2
7,-1,642493,220182,1308134,66103,7921,653928,0
7,-1,646981,221766,1339610,66888,8723,669653,2
7,-1,646056,221688,1343688,66888,7710,671770,0
7,-1,637789,219412,1340184,65848,7284,669985,0
7,-1,637840,220143,1267275,66132,7149,633521,2
7,-1,640060,219811,1208518,65981,6786,604349,0
7,-1,637212,219357,1266284,65803,7308,633187,2
7,-1,639584,219610,1207109,65943,6313,603493,0
7,-1,641103,220255,1207096,66128,6478,603514,2
7,-1,665112,224102,1350896,69188,8270,675322,0
7,-1,641030,221389,1339455,66782,8038,669625,2
7,-1,638456,219204,1274379,65843,7417,637168,2
7,-1,643994,220281,1305921,66163,8694,652992,0
7,-1,642172,220376,1136123,66229,6641,567963,2
7,-1,642788,219879,1186865,66022,7986,593868,0
7,-1,642084,219331,1398262,65819,9396,699111,0
7,-1,638293,219628,1310270,65986,7383,655102,2
7,-1,641247,219541,1362577,66016,8668,681347,0
7,-1,643027,219496,1245227,65974,8586,622447,0
7,-1,644248,220019,1372264,66170,7941,686096,0
7,-1,645936,220924,1374581,66527,6672,687278,2
7,-1,648873,222218,1391752,67245,8475,695764,0
7,-1,645030,219967,1282810,66134,7993,641111,0
7,-1,644440,220287,1297561,66032,7721,648814,0
7,-1,645068,220294,1287927,66041,7720,643990,2
7,-1,640312,221407,1371757,66635,7807,685833,0
7,-1,643487,222748,1278323,67244,8611,639054,2
7,-1,641856,220618,1200504,66134,8031,600227,0
7,-1,641791,220691,1200255,66264,8224,600065,2
7,-1,643184,220792,1284285,66261,7647,642078,0
7,-1,642220,221731,1312519,66750,8379,656233,0
7,-1,640566,220791,1273370,66312,7441,636635,2
7,-1,639823,219979,1289913,66071,7947,644686,0
7,-1,642299,220756,1134679,66343,7193,567345,2
7,-1,641621,220291,1176574,66211,6916,588352,0
7,-1,647368,221960,1327427,67001,7882,663755,2
7,-1,646773,220770,1329442,66202,7926,664746,0
7,-1,637439,219864,1293710,65994,7585,646604,2
7,-1,641636,220408,1126591,66212,7629,563343,2
7,-1,642955,220619,1265090,66362,8484,632447,0
7,-1,665042,228558,1339639,68570,8188,669832,2
7,-1,643625,219755,1312599,65990,8434,656263,0
7,-1,645598,220843,1315762,66369,7866,657869,2
7,-1,641588,219843,1450429,65974,8798,725250,0
7,-1,643310,221399,1310833,66808,7741,655820,2
7,-1,634760,217725,1255293,65293,7725,627691,0
7,-1,641085,219463,1425296,65971,7675,712668,0
7,-1,641042,219169,1239567,65921,7252,619813,2
7,-1,637516,219176,1351292,65833,7987,675682,0
7,-1,641742,220305,1261782,66159,7571,630947,0
7,-1,642250,219161,1305355,65740,7081,652687,0
7,-1,638154,219409,1285978,65886,8213,642996,2
7,-1,641303,219891,1284947,66235,7684,642320,0
7,-1,639196,218936,1185339,65796,7051,592496,0
7,-1,641364,219593,1427739,65953,7634,713829,0
7,-1,637443,218383,1183300,65490,6747,591536,0
7,-1,643269,220082,1379821,66155,8054,689839,2
7,-1,648623,221383,1311548,66644,8320,655735,0
7,-1,641098,219230,1381298,65659,8080,690635,0
7,-1,642865,219112,1171988,65581,6986,585976,0
7,-1,640933,220815,1245304,66319,7871,622453,0
7,-1,638021,219962,1308850,65931,7659,654397,2
7,-1,637447,219082,1176953,65605,7632,588445,0
7,-1,641489,220159,1333923,65982,7726,666924,0
7,-1,640055,219873,1285081,65992,7735,642530,0
7,-1,639351,219532,1296854,65892,7432,648292,2
7,-1,640481,219147,1231876,65788,7575,615910,0
7,-1,643512,220222,1251118,66325,7358,625457,0
7,-1,641085,219351,1212222,65847,8000,606031,2
7,-1,633792,217901,1202577,65236,7014,601327,0
7,-1,636653,219098,1179163,65755,6756,589606,2
7,-1,640265,218972,1342761,65659,7557,671391,0
7,-1,641365,219500,1317487,65851,7521,658745,2
7,-1,640235,219002,1236296,65648,7393,618155,0
7,-1,640641,219978,1140458,66013,6891,570184,2
7,-1,639429,218866,1298298,65597,7440,649158,0
7,-1,647596,220931,1213942,66502,7837,607013,0
7,-1,642128,219314,1132325,65765,7235,566142,2
7,-1,652247,222594,1233111,67181,7855,616593,0
7,-1,634798,218863,1255868,65667,6868,628097,2
7,-1,638143,219055,1381804,65720,7774,690863,0
7,-1,638934,219379,1280422,65789,7030,640182,2
7,-1,640349,218944,1303467,65613,7590,651777,0
7,-1,639637,219010,1325296,65630,7244,662137,0
7,-1,641889,218803,1335461,65580,7844,667752,0
7,-1,641198,219551,1292642,65872,7352,646302,2
7,-1,648462,221189,1197373,66581,6809,598462,0
7,-1,664467,222989,1305932,68727,8091,652870,0
7,-1,638868,218117,1225005,65381,6752,612527,0
7,-1,639761,219495,1290093,65873,7125,645078,2
7,-1,662769,224212,1320667,69184,7759,660403,0
7,-1,638272,218380,1312433,65469,7210,656158,0
7,-1,639548,218995,1266813,65661,6892,633427,2
7,-1,641130,218566,1181925,65530,6700,590986,0
7,-1,643845,219285,1297281,65840,7427,648693,2
7,-1,640257,218672,1302565,65458,7248,651231,0
7,-1,644273,218975,1258378,65640,6857,629191,0
7,-1,634673,219043,1336183,65186,7239,667655,0
7,-1,652846,223322,1350018,68414,9134,675009,0
7,-1,634444,219035,1351396,65253,7683,675604,2
7,-1,638913,220360,1418698,65648,7858,709424,0
7,-1,635345,218997,1228726,65218,7346,614401,0
7,-1,639968,221171,1208502,66248,7686,604222,2
7,-1,662321,224665,1381850,69308,9216,690882,0
7,-1,634287,219114,1203472,65386,7258,601772,0
7,-1,635274,218408,1316598,65078,8127,658320,0
7,-1,635962,219107,1237726,65396,7502,618881,0
7,-1,641719,221205,1212461,66327,7219,606203,2
7,-1,633887,218818,1282377,65288,7288,641173,0
7,-1,643322,220138,1186954,66783,7467,593428,0
7,-1,643952,219634,1369480,66400,8261,684757,0
7,-1,641337,219414,1283775,66390,7960,641922,2
7,-1,639800,220549,1274350,66926,8803,637056,0
7,-1,635020,219075,1394171,66192,7749,697139,2
7,-1,637125,219005,1316590,66207,8051,658212,0
7,-1,636725,219072,1326700,66247,7683,663338,2
7,-1,638844,218481,1270353,65998,7422,635320,0
7,-1,639952,220164,1202565,66593,7699,601303,2
7,-1,639754,219203,1438353,66223,8474,719210,0
7,-1,644317,220519,1182806,66957,7498,591349,0
7,-1,639998,218549,1272299,66022,6893,636102,0
7,-1,640102,219124,1271239,66253,7335,635591,2
7,-1,639819,219603,1231206,66585,7200,615383,0
7,-1,638867,219239,1384274,66293,8152,692015,2
7,-1,642422,220306,1280078,66858,7836,640022,0
7,-1,641867,219166,1433992,66220,7777,716710,0
7,-1,639228,219296,1225172,66348,7903,612179,2
7,-1,641972,219178,1199993,66290,7463,599957,2
7,-1,636769,218367,1327638,65952,8004,663814,0
7,-1,641460,218903,1302773,66121,8245,651374,0
7,-1,642782,219427,1292229,66253,8595,646112,0
7,-1,643705,219835,1297038,66463,8157,648466,2
7,-1,637936,219837,1194369,66614,8275,597024,0
7,-1,641679,220107,1175174,66684,8514,587275,0
7,-1,634134,218663,1271139,66109,7835,635442,2
7,-1,643812,220555,1209278,66943,7976,604694,0
7,-1,638063,218320,1258037,65950,7634,629054,0
7,-1,641788,221171,1175781,67186,7167,588313,2
7,-1,643668,220791,1348671,67096,10074,673927,0
7,-1,639372,218855,1294167,66177,7937,647128,2
7,-1,642575,219962,1199951,66684,7498,600047,0
7,-1,639160,219377,1188408,66318,7284,594272,2
7,-1,641576,218285,1251350,65916,7394,625691,0
7,-1,636461,218901,1252292,66176,7437,626247,2
7,-1,639661,219425,1258540,66272,7028,629293,0
7,-1,638413,219079,1267983,66266,7299,633949,2
7,-1,638173,218619,1262524,66022,7716,631227,0
7,-1,644750,219569,1370616,66337,9539,685320,0
7,-1,641739,218811,1303607,66100,6817,651835,0
7,-1,644048,220255,1145066,66729,6664,572593,0
7,-1,657464,223183,1336926,69361,8960,668374,0
7,-1,644340,220555,1192125,66842,7114,596183,0
7,-1,640697,219697,1240566,66657,7400,620084,0
7,-1,646582,221014,1301282,67123,9163,650527,0
7,-1,646454,220604,1332027,66838,8420,666002,0
7,-1,639554,219459,1346730,66205,9056,673397,2
7,-1,640481,218970,1441556,66010,7719,720375,0
7,-1,662729,223353,1387247,69281,8977,693454,0
7,-1,637324,218775,1291336,66026,7872,645691,2
7,-1,640613,218530,1286450,65882,7031,643080,0
7,-1,640302,219020,1148283,65998,7818,574027,0
7,-1,641405,219521,1204309,66289,8070,602152,2
7,-1,642577,218960,1307936,66091,8420,653915,0
7,-1,641008,218879,1232853,65996,7803,616447,0
7,-1,638261,218616,1289952,65920,7742,644966,2
7,-1,644873,219423,1230640,66147,8521,615240,0
7,-1,647276,219708,1254766,66273,8631,627346,0
7,-1,635641,219870,1333729,66343,7722,666750,2
7,-1,636570,218886,1303220,65900,7909,651473,0
7,-1,637788,219404,1192062,66226,8275,596104,2
7,-1,641253,220246,1378652,66498,8491,689147,0
7,-1,636775,218945,1378006,66240,8022,688926,2
7,-1,644078,220503,1543654,66877,8728,771751,0
7,-1,639969,219601,1266782,66434,7375,633331,0
7,-1,640042,219971,1295056,66452,8509,647513,2
7,-1,644197,219434,1328621,66266,8291,664632,0
7,-1,641713,220081,1260049,66576,7248,630115,2
7,-1,645615,220011,1217425,66652,8445,608826,0
7,-1,645127,220557,1140516,66772,7313,570349,2
7,-1,643195,220687,1141957,66885,7169,571005,0
7,-1,644843,220576,1286587,66797,7047,643419,0
7,-1,641573,219634,1309498,66349,7457,654763,0
7,-1,642144,219779,1247947,66485,7788,623827,2
7,-1,643039,220196,1215953,66577,8008,608012,0
7,-1,644823,220351,1308695,66612,8035,654374,0
7,-1,644704,220084,1364312,66489,8590,682093,0
7,-1,643331,220278,1374081,66624,9279,686876,2
7,-1,636532,219428,1346963,66297,8423,673679,0
7,-1,646334,222657,1273736,67651,8827,636935,2
7,-1,643721,220528,1426230,66680,7812,713134,0
7,-1,643416,220209,1405569,66549,8381,702726,0
7,-1,639556,220040,1186940,66428,8093,593381,2
7,-1,647321,222279,1390516,67451,8458,695155,0
7,-1,643326,220387,1363616,66487,7847,681623,0
7,-1,646893,221616,1337872,67030,8262,668723,0
7,-1,646771,221799,1232957,67183,8442,616383,2
7,-1,646229,220221,1298964,66422,8158,649401,2
7,-1,664082,225294,1273689,69867,8447,636676,0
7,-1,663544,224412,1343489,69567,8562,671656,0
7,-1,641882,220057,1249264,66414,7074,624603,0
7,-1,644799,220214,1198561,66454,7427,599217,0
7,-1,644344,220231,1189020,66497,7835,594447,2
7,-1,641711,218805,1317106,66014,7191,658368,0
7,-1,645228,219661,1244520,66287,6892,622272,0
7,-1,646674,219721,1146367,66372,7748,573095,0
7,-1,638552,219820,1183442,66340,7473,591722,0
7,-1,640609,219674,1261757,66301,7598,630931,0
7,-1,643780,221193,1320650,67127,7908,660335,0
7,-1,643253,221122,1202707,67099,7728,601145,2
7,-1,666646,224903,1408503,69811,9434,704130,0
7,-1,640180,219948,1310956,66463,7772,655456,2
7,-1,639791,219475,1372113,66292,7583,686011,0
7,-1,641358,219848,1227304,66408,7769,613582,2
7,-1,642327,219564,1404783,66344,7262,702301,0
7,-1,647227,220702,1212500,66642,7352,606301,0
7,-1,644308,221689,1364735,67005,7560,682327,2
7,-1,643555,220470,1139043,66609,7355,569477,0
7,-1,664807,224025,1395611,69564,8852,697698,0
7,-1,647679,220051,1193550,66497,7293,596760,0
7,-1,644181,220510,1229995,66703,7026,614985,2
7,-1,645805,220023,1312148,66487,7836,655935,0
7,-1,643689,219422,1347268,66165,7904,673548,0
7,-1,673799,225875,1384812,70086,8583,692363,0
7,-1,650521,221753,1305247,67268,7719,652561,2
7,-1,641400,219794,1189736,66267,7568,594787,0
7,-1,640056,218914,1199179,66080,7637,599551,2
7,-1,639352,219462,1322132,66232,7788,661071,2
7,-1,646683,221223,1220717,67045,7163,610397,0
7,-1,645148,219674,1122946,66234,6676,561425,0
7,-1,642097,219336,1307826,66138,8580,653878,0
7,-1,647918,221305,1272069,66987,7964,635992,0
7,-1,646150,219713,1316614,66266,8383,658274,0
7,-1,639889,218646,1172805,65942,6515,586428,0
7,-1,643005,219955,1300686,66566,7494,650380,0
7,-1,644419,219733,1246219,66410,7585,623149,2
7,-1,640454,218238,1281733,65900,7528,640767,0
7,-1,646115,221518,1275642,67474,8165,637601,2
7,-1,641880,219135,1179829,66275,7256,589949,0
7,-1,648945,220652,1281418,67044,8088,640751,0
7,-1,642562,219054,1352417,66363,7884,676338,2
7,-1,644281,218516,1217683,66167,7102,608598,0
7,-1,645720,219066,1181759,66352,6862,590916,2
7,-1,638181,218611,1241823,66201,7555,620948,0
7,-1,639467,220420,1295917,67065,7956,648011,2
7,-1,638127,218269,1207492,66110,7099,603710,0
7,-1,634670,218227,1169482,66085,6780,584762,0
7,-1,638334,218879,1233384,66299,6836,616725,0
7,-1,662452,223694,1216242,69656,7724,608144,0
7,-1,638148,219082,1305897,66338,7854,653024,0
7,-1,639360,219022,1183192,66371,7293,591616,2
7,-1,636441,218421,1256950,66151,7026,628512,0
7,-1,641883,219104,1421238,66229,7764,710651,0
7,-1,636873,218797,1243854,66153,7903,621853,2
