0,0,133,642667.390977,220098.488722,1240109.390977,66368.879699,7452.766917,619516.887218,13756.557923,4330.836011,57239.469142,1482.465641,631.595532,28584.697244
0,1,1,755271.000000,265145.000000,1491766.000000,78184.000000,9190.000000,745404.000000,0.000000,0.000000,0.000000,0.000000,0.000000,0.000000
1,0,133,642851.962406,220069.639098,1235316.353383,66403.631579,7411.857143,617130.917293,14255.175888,4394.404180,63164.301225,1592.671145,657.756807,31551.486120
1,1,1,757144.000000,265744.000000,1618828.000000,78528.000000,9604.000000,808712.000000,0.000000,0.000000,0.000000,0.000000,0.000000,0.000000
2,0,133,642453.218045,220076.375940,1246007.406015,66388.353383,7469.338346,622419.338346,11898.755536,3874.896428,70228.311401,1328.307330,688.092327,35030.231770
2,1,1,763731.000000,267905.000000,1607629.000000,79362.000000,10141.000000,803070.000000,0.000000,0.000000,0.000000,0.000000,0.000000,0.000000
3,0,167,641398.185629,219863.065868,1240990.838323,66291.000000,7445.245509,619933.221557,11574.317432,3625.412049,62948.803176,1283.403004,604.553782,31428.684936
3,1,1437,712814.826722,249073.069589,1420397.090466,74408.524704,9289.949896,709627.299235,10150.935691,2955.979094,92703.616285,1255.704975,775.073341,46334.666167
