0,2,764821,268369,1441291,79519,9830,720444,0
0,-1,687109,236367,1207043,70371,7075,603607,0
0,-1,692525,237453,1317271,70827,8359,658645,2
0,-1,641578,220078,1179433,66307,6943,589790,0
0,-1,642055,221340,1282500,66846,7727,641474,0
0,2,708667,248102,1344200,73800,9168,672135,0
0,-1,641890,221198,1387701,66815,7257,693808,0
0,-1,636313,218256,1263026,65545,7681,631569,0
0,2,709239,248305,1411876,73918,9395,705363,0
0,-1,646637,221689,1405628,66952,8115,702443,0
0,-1,642013,219817,1135980,66070,7332,567924,0
0,-1,660667,223947,1252879,69372,7892,626527,0
0,2,704973,248958,1309528,74126,9364,654814,0
0,-1,642185,219073,1197354,65985,7969,598677,0
0,-1,634266,218537,1333493,65747,8198,666314,0
0,2,713142,250072,1417491,74450,9004,708722,0
0,-1,642520,220964,1300875,66852,7835,650273,0
0,-1,657488,224137,1195270,69317,8521,597596,0
0,2,713889,250109,1380444,74290,8822,690267,0
0,-1,641732,220845,1325718,66669,7344,662888,0
0,-1,640689,220575,1222240,66395,7077,611166,0
0,2,733616,253878,1454641,77244,10758,727312,0
0,-1,641174,219524,1320498,65950,7306,660221,0
0,-1,639962,219629,1246400,66015,7112,623218,0
0,-1,641958,220688,1179189,66372,7572,589560,0
0,2,708303,248594,1397513,73940,9878,698741,0
0,-1,639223,219453,1335618,65786,6743,667869,0
0,-1,641949,221147,1254532,66695,7133,627338,0
0,2,709191,249824,1424826,74027,9553,712221,0
0,-1,642151,219115,1189403,65811,6317,594852,0
0,-1,644959,220945,1271338,66635,7610,635735,0
0,2,707220,247564,1468838,73425,8909,734432,0
0,-1,642880,220891,1188900,66249,7418,594546,0
0,-1,644646,220678,1286034,66520,8578,643102,0
0,2,709915,250317,1394069,74056,8437,697036,0
0,-1,641097,219266,1211153,65809,8432,605542,0
0,-1,640491,219917,1305527,66016,8178,653122,0
0,2,713682,250961,1457029,75392,9048,728648,0
0,-1,643003,220720,1309458,66499,7628,654820,0
0,-1,643329,219330,1199026,65686,8208,599581,0
0,2,709858,248817,1306076,74359,8329,652969,0
0,-1,644726,220943,1191504,66433,7504,595786,0
0,-1,641313,219583,1353021,65861,8102,676476,0
0,-1,642569,218821,1270847,65592,8419,635429,0
0,2,714850,248643,1392221,74197,9013,696058,0
0,-1,650255,221854,1216428,66955,8656,608333,0
0,-1,642420,220851,1250641,66557,7733,624751,0
0,2,714884,250015,1435301,74845,9416,717655,0
0,-1,642304,219030,1255440,65698,7109,627718,0
0,-1,637342,220923,1143963,66008,6407,572039,0
0,-1,634450,218661,1171697,65056,7044,585902,0
0,2,715426,248842,1418311,74257,10037,709193,0
0,-1,638739,218909,1182687,65226,7365,591400,0
0,-1,634572,217947,1269466,65821,7490,634767,0
0,-1,637406,218614,1478167,65947,8200,739106,0
0,2,712021,248941,1324800,74277,9034,662182,0
0,-1,663967,223602,1292076,69509,9205,646070,0
0,2,705341,247776,1310159,74118,9205,655057,0
0,-1,638781,219161,1396380,66195,8822,698145,0
0,-1,645409,220630,1275309,66876,8354,637149,0
1,-1,637680,218690,1125102,65671,6494,562566,0
1,-1,636204,218368,1264025,65497,7578,632063,2
1,-1,633067,218327,1345906,65538,7430,673001,0
1,2,714592,250542,1441520,74841,9732,720837,0
1,-1,636351,218247,1175559,65557,6602,587744,0
1,-1,640490,219680,1314286,66278,7713,657161,0
1,2,709815,248201,1258582,73930,8809,629280,0
1,-1,663684,224112,1263775,69207,8194,631927,0
1,-1,641975,219744,1158238,66032,7716,579057,0
1,-1,640031,219582,1253714,66151,7398,626818,0
1,2,713355,250581,1404071,74863,8824,702112,0
1,-1,641263,219302,1311783,65992,7990,655933,0
1,-1,638350,220086,1358654,66286,7937,679330,0
1,2,729690,253498,1482943,77372,9313,741414,0
1,-1,658438,223809,1285552,69237,8516,643437,0
1,-1,644254,220192,1189016,66169,7585,594553,0
1,2,709096,248661,1308634,73780,7655,654346,0
1,-1,636091,219561,1286053,66031,6844,643086,0
1,-1,639472,220584,1360194,66578,8030,679828,0
1,2,737349,254647,1492278,77693,9601,746115,0
1,-1,659731,223902,1246884,69278,7471,623367,0
1,-1,638135,219392,1188025,65987,6773,593993,0
1,-1,636764,218982,1140328,65763,6896,570149,0
1,2,710165,249330,1426558,74049,9624,713164,0
1,-1,642166,220203,1208395,66080,6598,604249,0
1,2,714950,250110,1343081,74169,8783,671599,0
1,-1,636906,218815,1183714,65713,7023,591911,0
1,-1,643988,220030,1248708,66158,6528,624406,0
1,-1,645494,221375,1153961,66655,6924,577040,0
1,2,709647,248735,1514256,73778,9527,757165,0
1,-1,640649,220191,1272734,65977,7824,636421,0
1,2,714777,248703,1333775,73715,7885,666850,0
1,-1,643108,220394,1340997,66174,8749,670451,0
1,-1,643397,220738,1200299,66479,7986,600041,0
1,-1,641396,220725,1286588,66494,7874,643319,0
1,2,706919,247984,1409665,74138,8774,704873,0
1,-1,637661,219429,1379780,65842,7461,689821,0
1,-1,642391,219378,1198069,65611,7822,599071,0
1,2,709412,249727,1308676,74974,8563,654369,0
1,-1,642635,220473,1130571,66069,7024,565335,0
1,-1,637646,218299,1392417,65359,7673,695529,0
1,-1,642806,219510,1202530,65871,7886,601199,0
1,2,712222,248457,1351516,74087,8621,675838,0
1,-1,666032,224237,1229653,69208,8825,614822,0
1,-1,643967,219025,1298592,65706,8221,649039,0
1,2,731529,253348,1407878,77761,9625,703979,0
1,-1,646252,220609,1193277,66397,6991,596709,0
1,-1,632320,219497,1188811,65306,6784,594453,0
1,-1,637748,219009,1313466,65229,7659,656899,0
1,2,709875,248567,1316721,74211,9318,658371,0
1,-1,639643,219293,1128208,65427,6973,564166,0
1,-1,636680,219071,1163641,66209,7489,581886,0
1,-1,645486,220982,1283420,67147,7863,642248,0
1,2,715467,250695,1349411,75141,8972,674689,0
1,-1,641210,218285,1202075,65919,7536,600873,0
1,2,707206,248239,1393608,74308,9113,696729,0
1,-1,637316,219485,1281949,66349,9119,640701,0
1,-1,639942,219052,1348062,66154,8545,674117,0
2,-1,643164,220941,1254782,66740,6861,627512,0
2,-1,639584,218891,1241628,65846,7078,620784,2
2,-1,636395,220705,1278850,66539,6896,639536,0
2,2,707955,247714,1399966,73517,8820,700014,0
2,-1,635826,218047,1285846,65492,7506,642990,0
2,-1,637758,218916,1233729,65819,7677,616913,0
2,2,709394,248028,1384802,73798,8810,692379,0
2,-1,641959,219636,1224855,65955,7610,612490,0
2,-1,640092,219056,1212326,65806,8604,606038,0
2,2,706748,248732,1322807,74000,8155,661451,0
2,-1,639485,219097,1264515,65922,7700,632245,0
2,-1,645210,221111,1385766,66897,8931,692916,0
2,-1,659434,227334,1450543,68349,8321,725370,0
2,2,731646,252984,1322015,77221,9115,660903,0
2,-1,636502,218827,1262453,65823,7691,631194,0
2,-1,642806,220686,1297450,66527,7005,648787,0
2,2,708352,248909,1313222,73878,7886,656550,0
2,-1,639502,221178,1330596,66767,8061,665392,0
2,-1,637325,219484,1201108,66024,7655,600554,0
2,2,713511,249371,1479847,74172,8785,739978,0
2,-1,640439,219465,1297417,66020,7778,648725,0
2,-1,640198,220144,1271399,66377,7184,635696,0
2,-1,658419,224077,1230157,69243,8577,615022,0
2,2,708131,248191,1338507,73770,8864,668946,0
2,-1,642294,220067,1314801,65929,6553,657447,0
2,2,713534,248883,1250109,73822,9238,625105,0
2,-1,640055,218921,1200176,65666,7060,600140,0
2,-1,642637,219841,1230460,65998,7061,615287,0
2,-1,642612,220270,1225489,66228,8447,612910,0
2,2,716622,249772,1348833,74359,9925,673416,0
2,-1,644765,222212,1301102,66910,8206,650587,0
2,-1,643636,219434,1250503,65871,7804,625234,0
2,2,718203,248943,1484549,73782,8558,742284,0
2,-1,638245,218747,1382088,65604,8584,691040,0
2,-1,643550,219684,1386434,65895,7863,693299,0
2,2,706573,248565,1428166,74290,9005,714167,0
2,-1,667194,224338,1274265,69305,8349,637116,0
2,-1,641579,219488,1323833,65736,8138,661968,0
2,2,730332,252838,1546069,77468,10143,773001,0
2,-1,639669,219280,1205173,65672,7987,602604,0
2,-1,639135,218997,1170472,65689,7399,585302,0
2,-1,639352,218695,1291888,65558,7717,645867,0
2,2,709340,247715,1418133,73814,8804,709113,0
2,-1,640315,218401,1196732,65468,8432,598398,0
2,-1,640996,218235,1173953,65344,7814,587028,0
2,2,736464,253925,1554345,77964,10871,777189,0
2,-1,644091,220021,1271248,66021,6667,635564,0
2,-1,629840,218971,1259282,65151,6954,629661,0
2,-1,638621,219719,1294277,65361,7594,647177,0
2,2,713324,248552,1460609,74166,9801,730340,0
2,-1,662937,227657,1221812,67800,7446,610958,0
2,-1,637215,218846,1253764,66139,6991,626924,0
2,2,713153,249591,1391090,74534,9194,695509,0
2,-1,639796,219594,1337294,66385,8003,668707,0
2,-1,645196,220948,1301589,67011,7210,650751,0
2,2,704514,248095,1339361,74263,9250,669616,0
2,-1,638784,220156,1200697,66712,7882,600393,0
2,-1,641758,219566,1341057,66369,8322,671068,0
3,-1,635605,218450,1254060,65686,7143,627086,0
3,-1,638105,218868,1265349,65724,7697,632784,2
3,-1,642302,218975,1295024,65750,7900,647528,0
3,2,704541,247492,1425018,73574,8211,712543,0
3,-1,638022,219238,1162025,65938,7025,581057,0
3,-1,636147,218939,1181126,65728,6881,590600,0
3,2,710590,248749,1498578,74112,10251,749260,0
3,-1,640376,219421,1197292,65825,6992,598791,0
3,-1,646159,221462,1393629,66825,8044,696735,0
3,-1,638413,219143,1191293,65973,7077,595652,0
3,2,710376,248812,1291739,74125,8676,645962,0
3,-1,661217,223398,1299697,69135,9144,649653,0
3,-1,640531,221386,1427627,66977,8600,714346,0
3,2,707578,248342,1317442,73815,9061,658681,0
3,-1,638171,219542,1221699,66115,7556,610298,0
3,-1,638883,219197,1316086,65883,7117,658087,0
3,2,709620,248454,1368737,73758,8502,684350,0
3,-1,639560,219748,1294747,66095,7212,647475,0
3,-1,636125,219269,1314824,65901,7955,657404,0
3,2,718488,250410,1355434,74541,8551,677770,0
3,-1,644901,220122,1256908,66180,7770,628460,0
3,-1,637718,219602,1167164,66057,6253,583596,0
3,-1,636329,219463,1180397,65933,7638,590249,0
3,2,708454,247696,1447387,73539,9340,723684,0
3,-1,639236,219542,1300185,65879,6499,650156,0
3,2,719780,251103,1317255,74685,9678,658741,0
3,-1,645860,221665,1295259,66831,7667,647685,0
3,-1,641070,219593,1277967,65814,6799,639014,0
3,-1,651001,222138,1232944,67085,7986,616245,0
3,2,711445,248356,1458290,73715,9838,728631,0
3,-1,661908,225269,1275021,69475,8310,637521,0
3,-1,643742,220652,1377827,66275,8259,688856,0
3,2,716515,249166,1388299,73899,8366,694158,0
3,-1,661565,224479,1313729,69314,8837,656328,0
3,-1,643023,219814,1340234,66051,7914,670227,0
3,2,715877,251335,1416039,75405,9647,708098,0
3,-1,644429,219627,1311715,65916,8017,656035,0
3,-1,641616,219580,1289608,65821,7639,644694,0
3,2,715533,250450,1340347,75170,8730,670220,0
3,-1,642227,220086,1209142,65905,7546,604573,0
3,-1,663311,223325,1312556,68895,8000,656233,0
3,-1,641078,219708,1317382,65922,7788,658673,0
3,2,709719,248940,1397894,74288,9801,698997,0
3,-1,642227,218979,1168134,65657,8233,583992,0
3,-1,639696,218667,1216436,65547,7988,608165,0
3,2,712949,249311,1572380,74636,10660,786067,0
3,-1,640108,218501,1295462,65497,7145,647774,0
3,-1,645723,219350,1293934,65741,6320,646640,0
3,-1,636461,219349,1347091,65263,7797,673600,0
3,2,712497,248382,1386792,74099,9856,693439,0
3,-1,637647,218948,1209741,65301,7133,604919,0
3,-1,638703,219978,1172368,66716,6828,586242,0
3,-1,639035,218986,1292485,66184,8205,646121,0
3,2,710539,248946,1318979,74256,9007,659323,0
3,-1,640542,218949,1174943,66204,7122,587404,0
3,2,701158,247058,1337526,73845,8341,668856,0
3,-1,638249,218830,1138413,66163,7587,569261,0
3,-1,637232,217994,1334311,65763,8449,667217,0
4,-1,646792,223419,1303494,67029,7101,651793,0
4,-1,645770,220838,1295527,66564,7698,647834,0
4,-1,642648,221410,1296567,66913,7406,648380,2
4,2,705323,247091,1297082,73391,8396,648592,0
4,-1,636798,219053,1237183,65919,6888,618642,0
4,-1,686023,232307,1396527,71730,8263,698319,0
4,2,706478,248166,1303969,73887,9600,651917,0
4,-1,641615,220183,1312615,66321,7787,656379,0
4,-1,660951,224083,1264987,69217,8213,632412,0
4,2,704332,248106,1396615,73826,8955,698350,0
4,-1,642292,220890,1285905,66764,8022,642882,0
4,-1,640129,218937,1279284,65887,8090,639832,0
4,-1,655641,223740,1286643,69268,8665,643099,0
4,2,710774,248904,1561028,74024,8974,780431,0
4,-1,639456,220134,1296292,66504,7859,647897,0
4,-1,640025,220001,1325129,66189,7184,662617,0
4,2,708783,248328,1467048,73765,9576,733572,0
4,-1,670713,231302,1331845,69920,7485,665979,0
4,-1,638452,220582,1273738,66393,7810,637025,0
4,2,711533,248737,1372693,73984,8212,686375,0
4,-1,643196,219800,1168182,66113,7408,584013,0
4,-1,638303,220096,1306539,66131,7494,653289,0
4,-1,642983,219978,1331952,66134,7002,666039,0
4,2,715180,249507,1322637,74234,9242,661306,0
4,-1,639942,220539,1292384,66206,7157,646203,0
4,2,712047,248586,1292417,73659,9439,646257,0
4,-1,641396,219715,1226527,65896,7116,613308,0
4,-1,645398,221264,1269603,66718,7054,634847,0
4,-1,646093,220322,1274372,66229,6819,637238,0
4,2,734297,253599,1413304,77235,9932,706639,0
4,-1,639491,220400,1362151,66107,8446,681126,0
4,-1,643132,220605,1198399,66274,8321,599176,0
4,2,712819,248059,1398106,73534,8206,699051,0
4,-1,646574,220568,1308088,66483,8473,653793,0
4,-1,639092,218927,1303092,65668,7678,651570,0
4,2,708133,248143,1432632,74089,10074,715487,0
4,-1,642705,218908,1316611,65678,7807,658352,0
4,-1,642109,219970,1330148,65934,8688,664993,0
4,2,708605,248206,1320886,74175,8998,660532,0
4,-1,645236,221688,1192540,66756,7760,596339,0
4,-1,640680,219083,1188356,65668,7178,594236,0
4,-1,639811,218891,1178755,65629,7187,589485,0
4,2,711140,248647,1459618,74198,9234,729839,0
4,-1,641238,218957,1349513,65692,9162,674687,0
4,-1,647284,221561,1161850,66865,7299,580645,0
4,2,713370,249537,1483554,74680,10517,741549,0
4,-1,640954,218635,1304277,65532,7149,652167,0
4,-1,642549,218267,1235065,65283,6463,617272,0
4,-1,656189,223324,1349755,68342,8224,674843,0
4,2,713609,249064,1394109,74341,10119,697109,0
4,-1,641104,220873,1282502,66114,7226,641294,0
4,-1,635629,219082,1272272,66185,7559,636181,0
4,-1,641003,218613,1262136,66028,8128,630678,0
4,2,721426,251474,1380326,75408,9445,690038,0
4,-1,639990,218698,1340536,66062,8280,670049,0
4,2,708882,246943,1316789,73791,9764,658289,0
4,-1,648676,220660,1147709,67008,7618,573934,0
4,-1,661230,223819,1311851,69553,9021,655922,0
5,-1,675715,232020,1341833,69105,8213,670913,0
5,-1,642281,218699,1242695,65600,7042,621495,0
5,2,706571,247985,1281775,73759,7921,640951,0
5,-1,635172,219783,1106756,66106,6555,553436,2
5,-1,633590,218120,1222567,65522,6425,611329,0
5,-1,636143,218298,1244205,65634,6839,622218,0
5,2,712532,249147,1565328,74153,10479,781663,0
5,-1,644141,219280,1253949,65817,7037,627015,0
5,-1,642900,219429,1280775,65849,7775,640367,0
5,2,705147,248443,1305158,74017,8457,652631,0
5,-1,647037,219674,1180660,66163,7486,590291,0
5,-1,638610,218923,1229823,65947,8552,614757,0
5,-1,633189,218946,1354735,65943,8803,677446,0
5,2,710430,249377,1587349,74206,9056,793650,0
5,-1,637031,219773,1334230,66160,7276,667175,0
5,-1,640111,219548,1192717,66036,7171,596398,0
5,2,731937,253430,1440267,77321,9849,720063,0
5,-1,636576,218953,1299321,65792,7095,649706,0
5,-1,646734,221157,1340776,66819,8518,670428,0
5,2,738865,255012,1351484,77730,9258,675728,0
5,-1,640964,218871,1170478,65817,7489,585215,0
5,-1,640447,221437,1431937,66878,8486,715934,0
5,2,710003,248480,1363513,73806,9864,681608,0
5,-1,662570,223664,1233789,69186,7963,616863,0
5,-1,645408,220688,1275076,66478,7854,637596,0
5,2,714241,249286,1429823,73839,9745,714905,0
5,-1,639145,219714,1291192,65948,6672,645595,0
5,-1,642887,220414,1301622,66163,6837,650856,0
5,-1,645193,220290,1214008,66199,6598,607057,0
5,2,733123,253548,1387838,77233,8858,693896,0
5,-1,639673,220222,1200868,66068,7915,600464,0
5,-1,641696,220271,1177377,66220,7629,588653,0
5,2,737465,252952,1549653,76952,9661,774796,0
5,-1,643903,219423,1347119,65857,9055,673369,0
5,-1,645979,221525,1301325,66804,8581,650653,0
5,2,708372,248737,1376330,74338,9052,688225,0
5,-1,641851,219239,1286170,65925,7650,643131,0
5,-1,645938,219242,1405845,65719,8074,702965,0
5,2,712614,249612,1275680,74812,9113,637861,0
5,-1,661940,224767,1159711,69263,8019,579844,0
5,-1,642391,219512,1312605,65905,7674,656352,0
5,-1,641350,219543,1311194,65876,7906,655538,0
5,2,711208,249077,1322018,74329,8475,661050,0
5,-1,645224,219411,1425321,65899,9383,712117,0
5,-1,689675,233240,1259621,71847,8259,629805,0
5,2,714359,250165,1426902,74954,9899,713381,0
5,-1,645201,220733,1217860,66520,6864,608996,0
5,-1,651492,221389,1186901,66587,6923,593616,0
5,-1,639022,220131,1172080,65773,6613,586097,0
5,2,710458,248503,1305669,74137,8711,652767,0
5,-1,634040,218420,1262043,65173,7366,631309,0
5,-1,646887,220453,1191966,66852,8203,596055,0
5,2,716223,249726,1343683,74539,9266,671844,0
5,-1,641050,219282,1224965,66210,8624,612519,0
5,-1,659771,223227,1479743,69365,9177,739741,0
5,2,719875,250360,1379685,75179,10539,689864,0
5,-1,644245,219073,1225340,66230,7978,612601,0
5,-1,638922,219098,1276559,66227,8159,638320,0
6,-1,688333,236451,1287616,70502,7724,643682,0
6,-1,661073,223409,1348511,68975,8508,674290,0
6,2,727597,252266,1325048,76836,9803,662517,0
6,-1,640145,220597,1321571,66636,7367,660867,0
6,-1,636799,219114,1316661,65904,7025,658246,2
6,-1,636530,218780,1288681,65738,7265,644383,0
6,2,709472,248072,1393983,73710,9165,696965,0
6,-1,641744,218986,1270287,65797,7097,635196,0
6,-1,642344,219880,1155504,66077,7248,577814,0
6,2,708471,250344,1392452,74902,9134,696294,0
6,-1,648321,221048,1362369,66868,10269,681140,0
6,-1,646579,219844,1280647,66182,7736,640239,0
6,-1,634721,218784,1308650,65818,7825,654383,0
6,2,709163,249359,1617731,74103,9672,808891,0
6,-1,660581,223961,1261321,69361,7993,630632,0
6,-1,639968,220067,1288690,66135,7029,644410,0
6,2,713792,250446,1450745,74694,9678,725447,0
6,-1,637613,219786,1325774,66095,7108,662764,0
6,-1,663267,223875,1320898,69259,10168,660379,0
6,2,716754,250075,1399616,74445,8680,699903,0
6,-1,644636,221112,1281952,66748,7623,640973,0
6,-1,658006,223709,1226219,69144,7858,613037,0
6,2,712172,249375,1409016,74151,9728,704414,0
6,-1,641130,219605,1300572,66087,7281,649799,0
6,-1,642577,220213,1163096,66119,7658,581600,0
6,2,718930,251661,1433135,74931,10123,716637,0
6,-1,637452,219341,1373054,65753,6913,686296,0
6,-1,639003,219590,1228149,65920,6825,614126,0
6,2,713539,248909,1435476,73914,10132,717696,0
6,-1,643846,219994,1279838,66118,7264,639935,0
6,-1,640716,221034,1291985,66306,7732,646028,0
6,-1,640353,219938,1310473,66007,9084,655215,0
6,2,717227,250024,1321132,74377,8191,660470,0
6,-1,640551,219286,1294985,65756,8417,647449,0
6,-1,640120,219529,1314540,65920,8026,657520,0
6,2,727288,253341,1419130,77652,10196,709521,0
6,-1,642464,219261,1368190,65907,8533,684106,0
6,-1,649551,221280,1295829,66758,8185,648000,0
6,2,707958,248456,1289086,74272,8475,644377,0
6,-1,642170,220562,1184648,66090,7269,592365,0
6,-1,643718,220561,1313445,66396,7085,656719,0
6,-1,637979,218831,1310103,65594,8033,655038,0
6,2,710488,248518,1327387,74112,9155,663596,0
6,-1,643029,219012,1295406,65657,8384,647673,0
6,-1,641855,219817,1187979,65941,7399,594015,0
6,2,714794,249130,1474473,74425,10951,737337,0
6,-1,646382,220188,1271570,66058,8427,635682,0
6,-1,644638,219160,1209863,65699,6631,604602,0
6,-1,635725,219125,1279264,65229,7352,639995,0
6,2,716569,249496,1567522,74500,9793,783368,0
6,-1,636136,218684,1230831,65255,6978,615473,0
6,-1,641852,218784,1181093,66084,8317,590596,0
6,2,715666,248684,1280136,74111,9252,639853,0
6,-1,645010,220701,1210190,67006,8361,604183,0
6,-1,639855,218815,1338613,66149,7455,669295,0
6,2,716134,248456,1344009,74412,10116,671992,0
6,-1,642275,218676,1122993,66059,7536,561431,0
6,-1,642470,219899,1166517,66688,7134,583301,0
7,-1,689833,237019,1369405,70620,7886,684720,0
7,-1,639602,218843,1309362,65656,7206,654729,0
7,2,703990,247762,1310784,73655,8062,655438,0
7,-1,651885,221871,1304484,68633,7211,652284,0
7,-1,636367,218900,1179742,65674,7318,589922,2
7,-1,636929,218774,1168178,65786,7032,584140,0
7,2,712890,249131,1408564,74086,9679,704283,0
7,-1,642638,219598,1184568,65943,6812,592555,0
7,-1,642675,220610,1285189,66207,7839,642638,0
7,2,710404,248773,1397118,74116,8932,698583,0
7,-1,664895,224123,1200066,69464,8676,600124,0
7,-1,644611,219297,1238157,66028,7520,619027,0
7,-1,640116,221313,1385356,66939,8522,692444,0
7,2,706270,248159,1394252,73774,9539,697075,0
7,-1,639014,219513,1160639,66083,6987,580288,0
7,-1,640681,220731,1329647,66664,7581,664831,0
7,2,707818,248421,1428746,73786,8967,714396,0
7,-1,639813,219736,1201395,66059,6785,600812,0
7,-1,641008,219297,1332590,65969,9284,666237,0
7,2,716246,249863,1406451,74385,8799,703286,0
7,-1,640142,219207,1166431,65941,6225,583213,0
7,-1,666541,228958,1318920,68804,7415,659476,0
7,2,709804,248913,1331428,73984,8714,665537,0
7,-1,639840,219521,1307209,65928,7591,653657,0
7,-1,644915,220741,1360702,66653,8365,680438,0
7,2,715177,250569,1540661,74504,9992,770344,0
7,-1,638506,220147,1307018,66101,6967,653545,0
7,-1,637288,217890,1202801,65327,6663,601450,0
7,2,710096,248476,1497805,73704,9806,748771,0
7,-1,643774,220067,1270397,66171,6660,635236,0
7,-1,637656,220217,1184665,65935,7719,592376,0
7,2,733457,253092,1611107,76962,9692,804408,0
7,-1,648492,222602,1242703,67199,8777,621507,0
7,-1,642691,219932,1390382,66077,8108,695202,0
7,-1,643616,220927,1321594,66634,8560,660828,0
7,2,703543,248093,1334956,74159,8962,667528,0
7,-1,639275,218635,1229842,65667,7889,615113,0
7,-1,664967,223881,1272235,69075,8527,636176,0
7,2,707376,247945,1488317,74030,9629,744198,0
7,-1,644570,220588,1327072,66246,8316,663598,0
7,-1,639556,218690,1293312,65555,7967,646702,0
7,-1,646543,220708,1246161,66529,7822,622800,0
7,2,713644,248308,1298009,74052,9434,649045,0
7,-1,644756,220423,1217010,66451,7882,608449,0
7,-1,638230,218421,1132855,65468,7262,566452,0
7,2,713592,249374,1540438,74582,11010,770131,0
7,-1,641198,218661,1183111,65526,7873,591610,0
7,-1,642116,218686,1500965,65414,7616,750474,0
7,-1,639064,221013,1155560,66114,7728,577860,0
7,2,714291,249419,1408485,74416,8942,704287,0
7,-1,639999,220638,1202582,66089,6908,601270,0
7,-1,642511,219591,1191558,66322,8351,595834,0
7,2,717296,250032,1337812,74787,8529,668908,0
7,-1,659614,223090,1337156,69323,9302,668571,0
7,-1,640594,218454,1196348,65986,7059,598194,0
7,2,711674,247463,1285868,74022,8878,642980,0
7,-1,647803,220309,1141616,66806,8202,570748,0
7,-1,638188,218651,1280998,66035,7094,640548,0
8,-1,692721,238570,1425550,71270,8683,712569,0
8,-1,643813,220486,1289327,66417,7650,644699,0
8,2,727757,252295,1405258,76888,9291,702621,0
8,-1,634449,218490,1215885,65684,6542,607994,0
8,-1,640766,220574,1287552,66565,7839,644101,0
8,-1,640427,221104,1358081,66838,8028,679049,2
8,2,714728,250665,1468483,74846,9465,734191,0
8,-1,645812,220909,1303928,66723,7147,651983,0
8,-1,662857,224443,1412902,69264,9179,706287,0
8,2,712600,250210,1462186,74838,9783,731079,0
8,-1,643208,219257,1175287,66045,7427,587747,0
8,-1,665005,223894,1368176,69305,8910,683692,0
8,-1,654124,223279,1426971,69125,8449,713355,0
8,2,705532,248614,1501967,73919,9805,750930,0
8,-1,636305,219112,1181991,65937,6326,590873,0
8,-1,638187,219064,1272221,65896,6813,636150,0
8,2,710912,249742,1432847,74309,9190,716519,0
8,-1,641710,221157,1315114,66764,7242,657632,0
8,-1,641534,219825,1123368,66133,6982,561580,0
8,2,716235,249849,1294813,74333,8659,647455,0
8,-1,638566,219016,1163131,65826,6882,581509,0
8,-1,639251,219811,1182567,66095,7057,591262,0
8,2,710299,248969,1548550,74009,9884,774243,0
8,-1,640845,219345,1411325,65930,7591,705614,0
8,-1,639858,219128,1228934,65867,7078,614513,0
8,2,708501,248730,1313803,73870,9614,656945,0
8,-1,646811,222313,1312597,67124,8187,656469,0
8,-1,644297,221007,1281605,66587,7332,640750,0
8,2,718871,250731,1375251,74682,9966,687612,0
8,-1,668599,225554,1237326,69801,8196,618781,0
8,-1,642114,222042,1391912,66831,7993,695723,0
8,2,710908,248209,1541131,73544,8696,769386,0
8,-1,644172,220196,1375566,66121,9060,687823,0
8,-1,640124,218997,1202271,65757,7253,601198,0
8,-1,638115,219560,1203011,66011,7587,601350,0
8,2,711339,248182,1268340,74136,9020,634252,0
8,-1,645342,221080,1351798,66739,8141,675907,0
8,-1,641294,218609,1231643,65518,7762,615833,0
8,2,710230,248659,1404277,74303,10132,702188,0
8,-1,637944,219066,1281485,65505,7912,640739,0
8,-1,635909,218339,1172465,65463,7282,586280,0
8,-1,664502,224383,1272580,69231,8845,636158,0
8,2,730516,252733,1543885,77328,10854,771854,0
8,-1,662041,223748,1330725,69047,9009,665237,0
8,-1,641676,219309,1273558,65763,6950,636884,0
8,2,712067,248968,1495417,74362,11101,747581,0
8,-1,640743,218666,1212524,65537,7568,606212,0
8,-1,642453,218106,1430202,65408,7911,715051,0
8,-1,656108,223556,1222262,68471,8414,610893,0
8,2,711037,248622,1364964,74153,9735,682174,0
8,-1,632045,218451,1233930,65154,7632,617014,0
8,-1,645539,220222,1127710,66818,7731,563877,0
8,2,715274,248750,1301886,74264,8798,650919,0
8,-1,641613,219157,1357819,66139,7900,678999,0
8,-1,640350,218812,1297772,66139,8064,648748,0
8,2,712069,248440,1491748,74335,9341,745908,0
8,-1,639570,217654,1189960,65787,8160,594742,0
8,-1,637862,218714,1233696,66055,7318,616893,0
9,-1,687526,236930,1415998,70594,7870,707978,0
9,-1,638234,218836,1284565,65703,7200,642341,0
9,2,702359,248081,1329981,73734,8314,665038,0
9,-1,639007,218960,1195674,65851,7270,597877,0
9,-1,635304,218431,1193785,65636,6993,596882,0
9,2,711335,248570,1316711,73881,9033,658095,0
9,-1,637805,219461,1158837,65981,7681,579401,2
9,-1,640171,219186,1271342,65908,6432,635695,0
9,-1,641767,220262,1324571,66046,7496,662325,0
9,2,707404,248353,1333755,73930,8789,665990,0
9,-1,642492,219173,1226359,65965,8039,612889,0
9,-1,643109,219862,1221645,66171,7871,610839,0
9,-1,633789,219344,1454954,66046,7658,727064,0
9,2,711645,249049,1411723,74046,9199,705715,0
9,-1,640118,221014,1334476,66814,7337,667279,0
9,-1,640232,220571,1344127,66699,7289,672073,0
9,2,707791,248623,1249074,73890,8716,624497,0
9,-1,657205,223897,1236194,69243,7222,618047,0
9,-1,642123,219470,1123010,66047,7095,561557,0
9,2,709179,248529,1348804,73858,8859,674429,0
9,-1,643469,221349,1346604,66837,7639,673277,0
9,-1,640488,220548,1282764,66446,7234,641421,0
9,2,713767,250799,1416503,74817,9390,708173,0
9,-1,644755,221384,1479555,66916,8987,739329,0
9,-1,639220,219473,1273069,66004,6884,636630,0
9,2,713998,249228,1430792,73980,9798,715450,0
9,-1,640164,220153,1328108,66139,7873,663971,0
9,-1,643022,219954,1281071,66013,7915,640599,0
9,2,716917,251457,1645122,75016,10660,821375,0
9,-1,642774,220203,1338551,66108,7479,669329,0
9,-1,638239,220965,1252037,66288,7067,626125,0
9,-1,646699,221751,1354645,66812,8279,676969,0
9,2,717105,249409,1397644,74171,9590,698867,0
9,-1,639687,219271,1303952,65860,7728,651975,0
9,-1,660058,223757,1344769,69174,9572,672453,0
9,2,711436,248529,1539886,74267,11227,770200,0
9,-1,637434,218551,1261144,65589,7182,630460,0
9,-1,649459,221725,1341581,66734,7988,670833,0
9,2,707648,248552,1327861,74234,9476,663929,0
9,-1,641980,221125,1269325,66512,8133,634730,0
9,-1,640469,218827,1206827,65650,8261,603621,0
9,-1,639604,218956,1280418,65655,7466,640172,0
9,2,713711,249480,1419727,74779,9884,709954,0
9,-1,641717,219276,1297808,65783,8534,648888,0
9,-1,639520,218655,1341674,65528,7406,670891,0
9,2,713869,249319,1503089,74470,10590,751547,0
9,-1,663282,223685,1373414,68937,8747,686742,0
9,-1,645044,219326,1293803,65738,7243,646871,0
9,-1,633051,218848,1156053,65095,7592,578024,0
9,2,734411,253999,1521578,77710,10081,760234,0
9,-1,642410,220843,1177726,66250,7107,588930,0
9,-1,640993,218626,1288693,66078,8484,644401,0
9,2,741657,258488,1415403,77170,9655,707664,0
9,-1,641624,219763,1464005,66393,7884,732499,0
9,-1,644816,220788,1253691,66985,7387,626785,0
9,2,714346,248741,1441293,74391,9443,720686,0
9,-1,643580,219128,1260976,66225,7696,630543,0
9,-1,637267,219132,1178301,66153,6814,589200,0
10,-1,718051,242816,1342669,74298,9529,671296,0
10,-1,637353,218400,1192325,65626,6599,596209,0
10,2,712343,248580,1399348,73912,8371,699454,0
10,-1,638350,219028,1124241,65786,6801,562176,0
10,-1,634178,218006,1171602,65538,7017,585919,0
10,2,713249,250679,1433752,74640,9561,716944,0
10,-1,640568,218951,1277033,65797,7542,638563,0
10,-1,638164,219346,1184104,65835,7176,592080,2
10,-1,638067,219257,1209182,65811,7108,604641,0
10,2,705655,248636,1341218,74079,9152,670628,0
10,-1,644127,220222,1147587,66362,7467,573685,0
10,-1,641095,218634,1175849,65789,7806,587969,0
10,-1,632295,218809,1286188,65833,7831,643049,0
10,2,709227,248583,1404844,73951,8467,702578,0
10,-1,636254,219309,1368985,66045,7214,684537,0
10,-1,638717,219758,1251327,66122,6474,625695,0
10,2,716166,250135,1346935,74618,9568,673431,0
10,-1,636077,219884,1161445,66126,6811,580772,0
10,-1,640807,219331,1221373,65909,8062,610668,0
10,2,735200,253394,1371049,77206,9853,685548,0
10,-1,642793,220364,1597028,66309,9191,798542,0
10,-1,637084,219507,1280479,65941,7243,640204,0
10,2,711989,249257,1418091,73968,9614,708990,0
10,-1,638459,219298,1272616,65965,6947,636244,0
10,-1,640056,220056,1302372,66453,7282,651254,0
10,2,712094,248947,1330461,73917,8891,665268,0
10,-1,640798,220935,1407707,66488,8316,703901,0
10,-1,639330,218931,1178919,65683,7360,589536,0
10,2,710982,248231,1300591,73654,8986,650305,0
10,-1,642809,220027,1288936,66062,7201,644515,0
10,-1,646322,221074,1338516,66306,7270,669299,0
10,-1,643557,220539,1258936,66257,7901,629196,0
10,2,734402,253012,1580899,77025,9979,789910,0
10,-1,642198,220222,1289948,66309,8353,644849,0
10,-1,637616,219238,1305348,65844,7784,652609,0
10,2,712282,248893,1605489,74342,11054,802558,0
10,-1,634519,217358,1155742,65235,6809,577924,0
10,-1,642056,219061,1258973,65666,6492,629529,0
10,2,703785,247965,1373307,74060,9624,686684,0
10,-1,660970,224446,1247677,69022,8611,623837,0
10,-1,638861,218732,1346826,65567,7596,673484,0
10,-1,643516,220184,1209287,66072,7301,604509,0
10,2,709794,248215,1417333,74191,9216,708596,0
10,-1,643921,220269,1254106,66244,8163,626979,0
10,-1,640021,219115,1326940,65684,7905,663552,0
10,2,734176,253235,1518697,77691,10426,759375,0
10,-1,640056,218538,1415532,65481,7330,707806,0
10,-1,643210,219258,1301373,65658,6689,650710,0
10,-1,636947,220589,1206884,65902,8613,603531,0
10,2,710790,248729,1376066,74231,8932,688012,0
10,-1,636226,218689,1205488,65183,6669,602788,0
10,-1,645299,221115,1205779,67203,8250,602534,0
10,2,718226,250643,1350862,75216,9052,675417,0
10,-1,641642,220211,1292187,66795,7487,646094,0
10,-1,646254,221671,1319019,67390,7344,659370,0
10,2,735199,253489,1347067,77647,10192,673562,0
10,-1,643696,219734,1188160,66633,6978,594159,0
10,-1,662962,228313,1327175,68988,8456,663589,0
11,-1,693816,236953,1310652,70564,8568,655341,0
11,2,707508,247502,1293690,73434,8754,646890,0
11,-1,643162,221099,1307933,66825,7326,654004,0
11,-1,642226,220788,1197785,66662,7685,598979,0
11,-1,639521,220593,1292052,66636,7732,646079,0
11,2,711877,248714,1410826,73791,9018,705533,0
11,-1,645113,220809,1278588,66650,8066,639356,0
11,-1,646499,221542,1285572,66894,7870,642811,2
11,-1,644608,220005,1181866,66024,7667,590468,0
11,2,706309,248562,1394700,74050,8698,697241,0
11,-1,640467,218585,1164650,65705,7063,582478,0
11,-1,639350,218425,1252810,65702,7872,626433,0
11,-1,638138,219302,1222349,66007,6885,611240,0
11,2,708178,248730,1390500,73959,8517,695201,0
11,-1,634724,218353,1163618,65765,6036,581921,0
11,-1,636922,219409,1176871,66042,6519,588496,0
11,2,712539,249430,1399566,74243,9004,698617,0
11,-1,636064,219526,1168214,66038,7193,584108,0
11,-1,639696,218954,1151674,65837,6812,575876,0
11,2,717949,250795,1462172,74586,9310,731146,0
11,-1,639795,219558,1261598,65970,7399,630739,0
11,-1,636418,219127,1300119,65830,7060,649915,0
11,2,716270,249604,1332960,74121,9711,666539,0
11,-1,640783,219661,1216136,66091,6924,608034,0
11,-1,640591,219375,1215532,65995,7307,607822,0
11,2,714960,250497,1381255,74699,9747,690687,0
11,-1,639012,219573,1201071,65927,8208,600437,0
11,-1,646280,221521,1283026,66748,7845,641572,0
11,2,710980,248366,1242247,73755,8812,620867,0
11,-1,662896,224249,1247700,69278,7830,623875,0
11,-1,649405,220643,1203143,66187,7203,601822,0
11,2,710152,247284,1303448,73372,8044,651764,0
11,-1,639942,219592,1297349,65896,7751,648543,0
11,-1,639915,219044,1309878,65755,8261,654937,0
11,-1,639214,220331,1325442,66446,8075,662705,0
11,2,712651,249008,1392458,74402,9173,696276,0
11,-1,637883,218981,1258658,65792,7379,629366,0
11,-1,642108,219325,1304949,65811,7178,652526,0
11,2,714669,248221,1305439,74116,9092,652804,0
11,-1,639594,219797,1296818,65777,7930,648518,0
11,-1,636694,218555,1237442,65571,7115,618612,0
11,-1,639952,219286,1515473,65881,9295,757318,0
11,2,730076,252931,1649287,77496,11125,824572,0
11,-1,640519,219164,1296633,65766,7892,648309,0
11,-1,639830,219272,1288004,65789,7292,644014,0
11,2,713848,249824,1445170,74951,9974,722747,0
11,-1,644329,220670,1242890,66428,7440,621363,0
11,-1,643051,218975,1185527,65652,6427,592725,0
11,-1,636553,218608,1210599,65067,7714,605037,0
11,2,709845,249268,1597221,74408,9628,797809,0
11,-1,636172,218717,1313141,65186,7602,656626,0
11,-1,660126,223207,1348485,69366,9226,673976,0
11,2,712123,248820,1421732,74333,9307,710638,0
11,-1,638882,218956,1326672,66184,8172,663192,0
11,-1,638751,218832,1330153,66169,8082,665106,0
11,2,710567,248274,1241372,74169,9057,620734,0
11,-1,640925,218889,1293896,66125,7504,646885,0
11,-1,639498,218854,1232913,66122,7599,616506,0
12,-1,695296,237885,1391490,70915,8780,695699,0
12,2,716547,250638,1423389,74770,9485,711682,0
12,-1,657854,222887,1305712,68938,8196,652927,0
12,-1,637519,218756,1209399,65729,6673,604785,0
12,-1,654415,222824,1307051,68871,8398,653579,0
12,2,709247,248987,1306523,73928,8533,653321,0
12,-1,640394,219123,1238823,65872,7051,619516,0
12,-1,641315,219176,1204674,65699,7168,602659,0
12,-1,638128,219327,1270993,65909,7809,635556,2
12,2,705775,248794,1527598,74104,9218,763851,0
12,-1,640754,219094,1189464,65973,7391,594688,0
12,-1,642926,220109,1272261,66297,7387,636129,0
12,-1,645601,218996,1335708,65894,7750,666767,0
12,2,713388,250829,1400018,75004,9293,700083,0
12,-1,638577,220202,1308796,66518,7647,654455,0
12,-1,637990,219866,1286785,66334,7462,643455,0
12,2,706857,248604,1306791,73975,8394,653161,0
12,-1,635946,219804,1143729,66077,7225,571878,0
12,-1,643708,221292,1230934,66864,7565,615110,0
12,2,712867,248452,1378056,73757,8410,689147,0
12,-1,638597,220038,1281844,66142,7700,640893,0
12,-1,636928,220309,1177046,66221,7146,588513,0
12,2,714630,249408,1532440,74020,10091,766212,0
12,-1,639160,219481,1267047,65985,6802,633567,0
12,-1,639796,219002,1284121,65756,7401,642121,0
12,2,709855,248308,1439875,73737,9118,719970,0
12,-1,637055,219192,1447503,65757,8031,723891,0
12,-1,641946,219733,1162609,65945,6898,581386,0
12,2,711562,248413,1570666,73714,11216,785074,0
12,-1,641356,219988,1289542,66150,7061,644832,0
12,-1,668302,224788,1257399,69325,8209,628701,0
12,2,709785,248329,1457997,73681,8376,729028,0
12,-1,663244,225193,1259398,69539,8328,629663,0
12,-1,648033,222156,1276638,67066,8061,638632,0
12,-1,638244,219128,1195367,65894,7771,597611,0
12,2,710110,248681,1401263,74297,9982,700662,0
12,-1,640001,218439,1358541,65578,9136,678978,0
12,-1,643040,219602,1279040,65827,7685,639568,0
12,2,713015,248821,1493402,74293,8944,746743,0
12,-1,640301,220439,1269696,65998,8115,634906,0
12,-1,635241,218331,1324238,65364,7501,662163,0
12,-1,638726,218867,1287842,65608,8003,643859,0
12,2,710573,248337,1487979,74205,9950,743875,0
12,-1,641273,218655,1311564,65621,7743,655778,0
12,-1,641544,220266,1210198,66304,7280,605095,0
12,2,708212,248140,1408278,74140,9407,704196,0
12,-1,641704,218700,1230063,65580,7598,614926,0
12,-1,648537,221539,1201868,66717,6957,600842,0
12,-1,640415,220482,1248345,65870,7770,623876,0
12,2,710881,248810,1317272,74122,8837,658637,0
12,-1,634470,218686,1380594,65123,7762,690334,0
12,-1,640753,219352,1311047,66309,8838,655574,0
12,2,713023,249434,1380857,74594,9684,690470,0
12,-1,635743,218003,1283007,65818,8200,641472,0
12,-1,637731,218715,1403290,65981,7795,701575,0
12,2,708149,247805,1401682,73925,8632,700880,0
12,-1,639468,218550,1272615,65982,7501,636239,0
12,-1,643174,219444,1174716,66380,7629,587407,0
13,-1,691859,237025,1335620,70658,7809,667847,0
13,2,709298,247645,1419244,73559,8748,709662,0
13,-1,638975,218688,1142402,65669,6929,571254,0
13,-1,636503,218401,1347602,65552,7688,673847,0
13,-1,633812,218288,1316458,65480,7167,658278,0
13,2,710845,249285,1435974,74016,9956,718044,0
13,-1,641954,219999,1337913,66262,7299,668953,0
13,-1,660921,224088,1243253,69121,8370,621629,0
13,-1,636889,219040,1179761,65785,7134,589824,2
13,2,714964,250694,1508167,75038,9654,754124,0
13,-1,641496,219364,1237137,65974,6961,618531,0
13,-1,638985,218663,1244490,65810,7051,622019,0
13,2,712252,250686,1424514,74917,9388,712311,0
13,-1,644903,219080,1292468,65992,8232,646287,0
13,-1,636403,219157,1176212,66014,6952,588159,0
13,-1,634811,219045,1152747,65928,6451,576286,0
13,2,712168,250073,1430129,74639,8863,715218,0
13,-1,638885,221355,1186686,66873,7756,593395,0
13,-1,657907,223602,1186135,69150,7997,593029,0
13,2,711685,248752,1353659,73954,8821,676872,0
13,-1,647313,221602,1278018,66991,7598,638957,0
13,-1,636366,219236,1122526,65981,6849,561225,0
13,2,718955,251681,1517178,75028,10170,758710,0
13,-1,640090,220374,1233664,66315,6542,616836,0
13,-1,639717,219306,1220234,65974,7061,610166,0
13,2,710872,248875,1427921,73947,9240,713990,0
13,-1,641360,221514,1411654,66840,8130,705437,0
13,-1,645970,221779,1255093,66927,7630,627633,0
13,2,711673,248580,1319253,73744,8848,659645,0
13,-1,640332,220096,1200668,66101,6512,600385,0
13,-1,648584,220655,1231921,66221,7958,615995,0
13,2,713924,248475,1396780,73765,9284,698429,0
13,-1,643012,220257,1326844,66126,7713,663468,0
13,-1,661027,223898,1326798,69162,9322,663406,0
13,-1,639580,219742,1292914,66034,8372,646363,0
13,2,707128,247712,1301627,74056,9555,650835,0
13,-1,642099,219265,1335976,65822,8486,668037,0
13,-1,647859,222015,1282056,66891,7404,641090,0
13,2,709707,247788,1495156,73980,9028,747584,0
13,-1,646901,219318,1411142,65574,7585,706063,0
13,-1,643874,221147,1246696,66639,7512,623375,0
13,-1,641558,220531,1264609,66423,7280,632142,0
13,2,711856,248494,1513100,74210,9429,756526,0
13,-1,641889,219218,1171834,65715,6874,585932,0
13,-1,639505,219757,1222944,65949,6914,611255,0
13,2,709715,248847,1445691,74199,10068,722888,0
13,-1,642065,219231,1364577,65724,7994,682447,0
13,-1,646968,219465,1461354,65769,7977,730750,0
13,-1,657078,223538,1639792,68449,9394,819413,0
13,2,717332,249751,1428662,74501,9676,714371,0
13,-1,635580,218768,1277323,65283,7628,638716,0
13,-1,639701,218668,1217700,65982,7891,608887,0
13,2,717928,249482,1317233,74540,8658,658628,0
13,-1,643665,220633,1247133,66987,7674,623086,0
13,-1,643872,220286,1333565,66775,8621,666415,0
13,2,710650,248196,1391210,73972,9005,695647,0
13,-1,660168,222803,1410564,69183,8215,705363,0
13,-1,661885,223791,1300637,69542,8855,650227,0
14,-1,715654,242186,1275426,74137,10145,637566,0
14,2,709920,248459,1346736,73904,9534,673389,0
14,-1,638430,219046,1103085,65851,6291,551585,0
14,-1,635437,218772,1225812,65728,6587,613062,0
14,-1,644809,220366,1285224,66447,8119,642662,0
14,2,709659,248368,1339795,73672,8581,669864,0
14,-1,648450,221492,1408892,66939,7892,704473,0
14,-1,643416,220370,1338773,66087,8000,669248,0
14,2,706435,248430,1246481,73941,8276,623292,0
14,-1,642814,220023,1201178,66277,7101,600390,2
14,-1,643922,219521,1479002,66097,9019,739510,0
14,-1,645101,220935,1329444,66831,8317,664762,0
14,2,707745,249147,1442100,74096,8335,721093,0
14,-1,648763,220851,1375965,66799,8724,688449,0
14,-1,636002,218745,1176692,65826,7380,588347,0
14,-1,658089,223461,1318824,69154,7401,659367,0
14,2,707901,249546,1421138,74288,8800,710574,0
14,-1,642818,219196,1220520,65927,8104,610433,0
14,2,730996,253544,1386592,77195,8986,693240,0
14,-1,639966,219006,1221333,65818,7864,610680,0
14,-1,641452,219783,1417489,66150,8875,707944,0
14,-1,636807,219318,1195462,65926,7753,597688,0
14,2,736395,254239,1435446,77350,11166,717786,0
14,-1,645699,221283,1313362,66886,7746,656595,0
14,-1,639578,219087,1258289,65879,6829,629311,0
14,2,710785,248572,1321905,73875,9160,660997,0
14,-1,644101,219771,1274035,65942,7059,637007,0
14,-1,662299,224358,1199237,69250,7823,599555,0
14,2,711479,249352,1283464,74052,8604,641750,0
14,-1,644092,219802,1266528,66087,8092,633305,0
14,-1,649498,221465,1245690,66628,8006,622682,0
14,2,709135,248260,1352776,73645,8463,676366,0
14,-1,643944,221048,1248983,66416,7448,624552,0
14,-1,640083,219372,1399156,65919,8313,699525,0
14,-1,638699,219812,1188295,66096,7768,594190,0
14,2,707305,248815,1353713,73515,9142,676907,0
14,-1,639131,218690,1169351,65636,7369,584732,0
14,-1,661563,223726,1226975,69032,7961,613473,0
14,2,712750,248145,1445776,74172,9944,722929,0
14,-1,669247,224685,1293567,69181,8901,647114,0
14,-1,640826,220733,1255624,66385,7706,627823,0
14,-1,660433,224019,1245629,69143,8063,622835,0
14,2,711079,249184,1297422,74490,8936,648588,0
14,-1,641808,219176,1253999,65785,7884,626913,0
14,-1,640561,219027,1271602,65668,7453,635910,0
14,2,709599,250103,1268811,74870,9032,634496,0
14,-1,662715,223741,1370240,69025,8319,684951,0
14,-1,643167,218474,1314504,65393,7778,657165,0
14,-1,633476,218802,1202897,65154,7711,601366,0
14,2,738000,254678,1471411,77872,10994,735520,0
14,-1,635065,218868,1277336,65321,7506,638684,0
14,-1,641069,219509,1295352,66352,8160,647757,0
14,2,715898,249809,1303811,74713,9555,651837,0
14,-1,658344,222636,1344395,69219,8512,672314,0
14,-1,640724,218673,1265602,66015,8182,633105,0
14,2,716921,251205,1387971,75314,9523,693964,0
14,-1,640485,219264,1258193,66281,7258,628890,0
14,-1,638707,219202,1115337,66261,7216,557717,0
14,2,712527,248759,1468732,74339,9374,733982,0
15,-1,694946,237645,1325930,70842,9364,662941,0
15,2,712961,250067,1304825,74609,8916,652957,0
15,-1,638108,218912,1191092,65742,7147,595599,0
15,-1,633923,218249,1174470,65540,6828,587259,0
15,-1,639561,218351,1160747,65551,6439,580415,0
15,2,709036,248732,1363199,73876,8980,681497,0
15,-1,644370,221311,1351165,66842,7219,675656,0
15,-1,640492,219681,1266169,65924,7122,633124,0
15,2,725839,252936,1451609,77301,9106,725874,0
15,-1,639949,218429,1289609,65625,7491,644535,0
15,-1,638752,219079,1320862,65991,7704,660164,2
15,-1,642236,219393,1423364,66061,8217,711430,0
15,2,730895,252827,1324641,77081,10443,662326,0
15,-1,664897,223834,1342452,69283,9100,671247,0
15,-1,641052,221274,1321826,66983,8280,660988,0
15,2,708540,249173,1302113,74142,8928,651016,0
15,-1,638020,219125,1355205,65992,6718,677656,0
15,-1,641086,218987,1179835,65761,8007,589951,0
15,2,711459,248458,1383267,73769,9261,691682,0
15,-1,637973,219072,1221506,65892,6899,610790,0
15,-1,640521,219547,1274444,66065,7367,637209,0
15,-1,634126,218746,1164251,65756,7636,582111,0
15,2,732083,252760,1299704,76959,10117,649811,0
15,-1,661633,223886,1279305,69263,7378,639638,0
15,-1,643687,221371,1326527,66930,6641,663389,0
15,2,707835,248808,1290180,73899,8387,644888,0
15,-1,647009,220290,1190029,66084,7267,595057,0
15,-1,637151,218741,1187640,65570,6917,593897,0
15,2,712761,250313,1356790,74621,8984,677591,0
15,-1,644416,220152,1174741,66051,7042,587398,0
15,-1,653064,222528,1311798,67062,8373,655402,0
15,2,717570,249646,1355964,74303,9507,677648,0
15,-1,640027,219621,1274638,65932,7917,637364,0
15,-1,641769,220420,1294767,66169,8009,647344,0
15,-1,635613,218682,1292614,65665,8476,646370,0
15,2,730765,253181,1328707,76698,9595,664265,0
15,-1,640858,219763,1322229,66169,7617,661179,0
15,-1,668170,227965,1198902,68237,7954,599504,0
15,2,716107,249521,1445213,74780,9185,722526,0
15,-1,645265,219574,1365346,65714,8649,682311,0
15,-1,637169,218581,1185767,65598,6939,592825,0
15,-1,640669,219080,1185088,65683,7291,592543,0
15,2,712173,250561,1227778,75214,9352,613724,0
15,-1,640763,219061,1283913,65687,7962,641923,0
15,-1,640107,218456,1406365,65449,8081,703116,0
15,2,706484,248691,1310416,74214,9229,655248,0
15,-1,637374,218564,1264634,65482,7000,631589,0
15,-1,643176,219052,1231949,65642,7071,615967,0
15,-1,657424,223725,1301262,68516,8050,650640,0
15,2,714311,249050,1335684,74233,9343,667757,0
15,-1,633762,218623,1260366,65163,7621,630221,0
15,-1,640548,219413,1326895,66329,8574,663526,0
15,2,714209,249474,1326753,74519,9274,663251,0
15,-1,639207,219236,1303246,66270,7589,651730,0
15,-1,641235,219294,1359433,66241,8109,679797,0
15,2,716632,248820,1406326,74221,9231,703198,0
15,-1,640447,219670,1217282,66361,6945,608546,0
15,-1,644789,220875,1218975,67102,7404,609559,0
15,2,709349,248105,1404874,74155,9620,701937,0
16,-1,693172,237445,1301504,70785,8415,650748,0
16,2,708932,248579,1227341,73916,8843,613717,0
16,-1,639761,219184,1372974,65757,7906,686536,0
16,-1,639130,219372,1263780,65876,6990,631973,0
16,-1,640726,219288,1291340,65892,7151,645706,0
16,2,707059,248526,1294111,73785,9583,647109,0
16,-1,638010,218275,1218134,65681,6961,609061,0
16,-1,643536,220988,1288329,66482,7765,644141,0
16,2,707412,248458,1406603,74008,8454,703338,0
16,-1,642410,219563,1281015,66091,8067,640461,0
16,-1,639487,219390,1242625,66128,7639,620972,2
16,-1,641317,219346,1304689,66005,7637,652018,0
16,2,728973,253526,1472098,77372,9659,736084,0
16,-1,645284,219105,1320436,65941,8246,660221,0
16,-1,655469,223698,1230474,69262,7942,615305,0
16,2,711523,250453,1316247,74849,9044,658057,0
16,-1,636254,219087,1251139,65933,7336,625628,0
16,-1,645592,221559,1385035,66916,7512,692308,0
16,2,713024,249423,1390214,74073,9072,695303,0
16,-1,642345,220904,1283698,66751,7420,642267,0
16,-1,638158,218853,1175605,65750,7036,587813,0
16,-1,658416,224199,1235211,69367,7833,617096,0
16,2,713462,249687,1553403,74131,9782,776184,0
16,-1,641075,219809,1358295,66070,7992,678973,0
16,-1,659129,223728,1378589,69189,7453,689324,0
16,2,709167,249141,1296889,74041,8581,648495,0
16,-1,644518,219804,1217868,65999,7666,608991,0
16,-1,639978,219903,1308431,66040,7451,654264,0
16,2,707045,248801,1429826,73832,9532,714965,0
16,-1,643889,219914,1272098,65964,7100,636103,0
16,-1,668841,224999,1290494,69361,9225,644985,0
16,2,711795,248155,1274967,73651,9514,637531,0
16,-1,639450,219766,1177024,66000,7028,588561,0
16,-1,639242,219686,1264259,66066,8129,632020,0
16,-1,642064,220372,1272857,66272,7775,636281,0
16,2,706573,248108,1380337,73259,9065,690209,0
16,-1,640298,219775,1164724,66049,7272,582423,0
16,-1,641559,219871,1271965,65960,8018,636034,0
16,2,712571,248897,1340926,74378,9317,670442,0
16,-1,644556,219562,1227280,65658,8060,613472,0
16,-1,642767,219169,1284038,65696,7800,642111,0
16,-1,639639,219089,1335142,65735,8161,667568,0
16,2,709905,248359,1262088,74202,8895,631035,0
16,-1,640271,219083,1339109,65690,7751,669539,0
16,-1,645717,221092,1473564,66687,9121,736412,0
16,2,736312,252986,1450570,77366,9553,725241,0
16,-1,643740,218720,1425688,65490,8076,712740,0
16,-1,642353,219202,1291854,65639,7219,646019,0
16,2,715444,250192,1349747,74825,8096,674951,0
16,-1,636886,220470,1182148,65868,7649,590914,0
16,-1,639745,221154,1159186,66300,7501,579655,0
16,-1,643797,219293,1349304,66225,8240,674648,0
16,2,714850,248886,1374467,74380,9591,687234,0
16,-1,638878,219145,1247418,66205,7621,623747,0
16,-1,642551,219627,1239913,66376,7672,620342,0
16,2,717292,248672,1618905,74126,10204,809408,0
16,-1,642845,219103,1358088,66237,7961,679087,0
16,-1,660571,223467,1332225,69434,8305,666054,0
16,2,714291,249809,1590187,74916,11299,794719,0
17,-1,692611,237669,1339153,70860,8129,669498,0
17,2,731065,253096,1432453,77065,9852,716172,0
17,-1,637908,218666,1186018,65598,7502,593065,0
17,-1,635858,218874,1248155,65762,6380,623956,0
17,-1,637541,218462,1192509,65550,7178,596283,0
17,2,713167,248240,1256711,73719,8610,628406,0
17,-1,641208,219697,1278318,66042,7275,639256,0
17,-1,646740,222083,1379086,66987,9209,689446,0
17,2,705042,248614,1519282,74004,10289,759686,0
17,-1,643809,220916,1310432,66757,7668,655043,0
17,-1,641348,219184,1161215,66008,7454,580664,0
17,-1,647332,221248,1277731,66962,7219,638767,2
17,2,728240,253345,1378266,77288,9071,689110,0
17,-1,644960,219725,1352066,66171,8605,675582,0
17,-1,636263,219646,1287175,66139,7261,643613,0
17,2,712554,249104,1636100,74165,10822,817374,0
17,-1,637433,219814,1233658,66157,6478,616870,0
17,-1,666238,225210,1268564,70169,8085,634213,0
17,2,730694,253272,1366799,77129,9466,683348,0
17,-1,659228,224106,1244060,69302,7579,622003,0
17,-1,642878,220218,1320422,66257,7242,660173,0
17,-1,637218,220201,1345927,66226,7865,672930,0
17,2,711508,249215,1331504,74008,8974,666271,0
17,-1,640789,219574,1244844,66047,7300,622435,0
17,-1,640024,219920,1389759,66147,7091,694928,0
17,2,712101,248511,1476615,73881,9200,738307,0
17,-1,642572,219499,1166226,65922,6987,583171,0
17,-1,642683,220629,1284005,66460,7287,642054,0
17,2,712632,248518,1410670,73786,9905,704887,0
17,-1,664918,224818,1277958,69540,8124,638998,0
17,-1,646469,220523,1326770,66079,8510,663304,0
17,2,712061,248708,1489886,73833,8885,744635,0
17,-1,647612,222521,1308281,67099,8408,654070,0
17,-1,665092,224738,1270901,69459,9426,635276,0
17,2,705680,248241,1438219,73295,8531,719158,0
17,-1,644606,219094,1243997,65808,8381,622051,0
17,-1,638423,218924,1195968,65766,8139,598212,0
17,-1,640336,218911,1266213,65669,7844,633101,0
17,2,709018,247485,1417684,73904,9896,708755,0
17,-1,646884,219929,1344763,65772,8520,672384,0
17,-1,642169,219377,1199980,65804,7377,600030,0
17,-1,642835,220609,1278527,66410,7514,639265,0
17,2,708803,248780,1338983,74349,8664,669490,0
17,-1,663200,223936,1263954,69115,8349,632027,0
17,-1,641851,219793,1295500,65950,8066,647548,0
17,2,718980,250009,1340801,74789,9573,670474,0
17,-1,643565,219282,1492799,65776,7925,747055,0
17,-1,643114,219696,1221660,65922,7011,610610,0
17,2,712170,248853,1443265,74233,8536,721283,0
17,-1,635883,219310,1261034,65310,7041,630473,0
17,-1,633165,218896,1109620,65141,7366,554824,0
17,-1,661629,223463,1348251,69412,8998,674084,0
17,2,715136,249994,1257230,74662,8985,628547,0
17,-1,637472,218773,1250808,66087,7308,625459,0
17,-1,638462,218499,1287071,65981,7775,643591,0
17,2,714896,248410,1295620,74037,8637,647848,0
17,-1,640586,218218,1271916,65840,7657,636425,0
17,-1,636176,218022,1222672,65841,7014,611302,0
17,2,732637,253662,1534739,77729,10768,766959,0
18,-1,690489,236747,1280503,70516,7375,639353,0
18,2,705706,247775,1424582,73445,8855,712286,0
18,-1,637324,219338,1247968,65812,7713,624080,0
18,-1,636911,219052,1196478,65789,6557,598300,0
18,-1,665888,224701,1299155,69996,7956,649558,0
18,2,710937,248208,1427470,73699,9122,713334,0
18,-1,640706,219974,1314110,66168,7114,657110,0
18,-1,636615,218785,1294107,65637,7505,647089,0
18,2,707523,249307,1471509,74140,9561,735599,0
18,-1,659293,223199,1258751,68997,7775,629282,0
18,-1,644429,220687,1388872,66669,8694,694362,0
18,2,707995,248966,1417742,74085,9154,708927,0
18,-1,641570,220181,1225978,66337,7357,612535,2
18,-1,647996,221184,1212192,66832,8603,605982,0
18,-1,632866,219060,1321103,65983,7117,660498,0
18,2,709850,248592,1323478,73930,8031,661712,0
18,-1,638868,220823,1267767,66808,7596,633934,0
18,-1,644363,220583,1318407,66564,7664,659265,0
18,2,710833,248747,1358992,73815,8548,679537,0
18,-1,644912,220476,1422930,66475,8202,711362,0
18,-1,638379,218861,1311962,65805,7326,655975,0
18,-1,635755,219594,1376288,66001,8408,687829,0
18,2,715849,250915,1475519,74785,8903,737834,0
18,-1,638234,219087,1174155,65902,6565,587057,0
18,-1,639495,219750,1238771,66053,7115,619470,0
18,2,711239,248046,1429101,73706,9452,714626,0
18,-1,642639,219381,1279805,65849,7619,639912,0
18,-1,638901,219485,1184054,65906,7242,592058,0
18,2,711111,248985,1405563,73865,9506,702834,0
18,-1,641590,219977,1194442,66093,6981,597277,0
18,-1,647874,220930,1275606,66229,8157,637845,0
18,2,708919,248087,1436593,73591,9183,718142,0
18,-1,663517,225485,1243971,69606,8334,621901,0
18,-1,645384,220999,1312920,66396,8408,656450,0
18,2,727565,252331,1498063,76491,9638,749071,0
18,-1,646650,220573,1316121,66508,8542,658092,0
18,-1,638366,218865,1179461,65642,7691,589764,0
18,-1,663673,224662,1208071,69391,8163,604022,0
18,2,715301,250618,1323721,75184,9106,661919,0
18,-1,645207,219724,1323436,65733,8880,661835,0
18,-1,640401,219014,1341336,65629,8119,670723,0
18,-1,636759,218501,1209177,65455,8015,604501,0
18,2,715168,248221,1383316,74175,8941,691762,0
18,-1,641802,219130,1266473,65751,8090,633215,0
18,-1,641815,219352,1305903,65831,7435,652958,0
18,2,713649,248081,1405233,73928,9522,702664,0
18,-1,642262,218762,1294818,65560,8373,647868,0
18,-1,642271,219246,1243938,65758,7194,622006,0
18,2,714437,250391,1500080,74771,9136,750096,0
18,-1,635427,219213,1265543,65209,7481,632670,0
18,-1,633508,219362,1192970,65314,7943,596508,0
18,-1,643708,220297,1187829,66799,7695,593975,0
18,2,716656,251082,1268918,75261,9087,634195,0
18,-1,644800,220637,1201626,66902,7051,600879,0
18,-1,642373,220029,1414639,66707,8236,705845,0
18,2,714351,248981,1335344,74224,9580,667710,0
18,-1,645881,220801,1169806,67066,7671,584696,0
18,-1,640943,220068,1359069,66504,7775,679584,0
18,2,706847,247607,1478819,74066,9964,738975,0
19,-1,711401,241212,1445435,73789,8823,722609,0
19,2,706573,248020,1313913,73614,8597,656955,0
19,-1,638719,218565,1182718,65512,7295,591429,0
19,-1,633959,218695,1185956,65695,7092,592992,0
19,-1,637538,218479,1191427,65663,6990,595776,0
19,2,711902,248200,1482209,73736,8650,741144,0
19,-1,658813,223827,1282788,69192,8134,641464,0
19,-1,638935,219474,1246392,65916,8310,623271,0
19,2,707526,249387,1598203,74304,10475,798369,0
19,-1,642522,220197,1350428,66195,8783,675208,0
19,-1,644577,221119,1359076,66980,8103,679440,0
19,2,710619,250357,1528192,74675,9480,764156,0
19,-1,640519,219036,1277694,65974,7879,638891,2
19,-1,641031,218552,1182868,65749,7491,591516,0
19,-1,639676,219348,1282962,66022,7922,641540,0
19,2,708319,249246,1468937,74110,8772,734393,0
19,-1,638799,219732,1298574,66174,6928,649362,0
19,-1,639838,219181,1192149,65863,7011,595966,0
19,2,712491,250080,1393932,74312,8770,697019,0
19,-1,638545,218999,1296179,65816,7599,648388,0
19,-1,640696,219726,1220956,66094,7427,610442,0
19,-1,638213,220978,1289759,66663,7453,644923,0
19,2,708940,249613,1393335,74161,8993,696681,0
19,-1,638417,219285,1191388,65974,6749,595684,0
19,-1,640346,220241,1273329,66392,7556,636716,0
19,2,713724,249265,1291455,74152,8627,645780,0
19,-1,643263,219930,1198265,65993,7016,599198,0
19,-1,664846,223901,1385367,69162,8654,692820,0
19,2,712312,248550,1434427,73790,9865,717263,0
19,-1,642870,220760,1307261,66612,7226,653690,0
19,-1,645768,220316,1311525,66153,8354,655816,0
19,2,710356,248780,1551069,73840,8520,774578,0
19,-1,639589,220313,1268699,66104,8540,634401,0
19,-1,640451,219254,1215491,65822,8259,607520,0
19,2,724334,252578,1433125,76518,9724,716630,0
19,-1,644602,219614,1231919,65995,8877,616227,0
19,-1,643420,220311,1304014,66337,8317,652042,0
19,-1,641278,219513,1209700,65923,8075,604912,0
19,2,709477,247983,1427140,74124,9111,713552,0
19,-1,645408,220088,1261558,65921,8469,630835,0
19,-1,647272,221517,1329800,66842,8015,664777,0
19,-1,660381,224411,1229139,69212,8785,614320,0
19,2,734208,252938,1559002,77523,10329,779485,0
19,-1,641087,219271,1283059,65722,7728,641546,0
19,-1,638344,218454,1269416,65530,7039,634722,0
19,2,712208,247535,1514690,73756,10417,757710,0
19,-1,639074,217871,1188373,65336,7770,594287,0
19,-1,644115,219434,1193267,65892,6555,596642,0
19,2,715203,249450,1414178,74589,9155,707125,0
19,-1,633741,218956,1186938,65205,7235,593372,0
19,-1,636384,220338,1128780,65840,7151,564497,0
19,-1,638691,218569,1254757,65959,7559,627423,0
19,2,716430,250291,1422271,74999,9040,711065,0
19,-1,639058,218714,1263473,66001,6490,631774,0
19,-1,635480,218308,1200900,65937,8022,600504,0
19,2,713205,248959,1399961,74197,9115,700017,0
19,-1,662596,223230,1323767,69374,8575,661813,0
19,-1,641149,220242,1292347,66785,7297,646252,0
19,2,713031,250174,1525097,75224,11031,761666,0
20,-1,689291,237269,1393026,70669,8469,696508,0
20,2,708754,248251,1402054,73676,9360,701074,0
20,-1,639473,218356,1237040,65413,7671,618520,0
20,-1,635475,218145,1142584,65609,6360,571346,0
20,-1,638026,218557,1333788,65619,7348,666939,0
20,2,708154,248131,1371670,73771,8696,685811,0
20,-1,640129,219475,1276571,65923,7684,638330,0
20,-1,637684,219373,1130518,65920,7518,565442,0
20,2,703627,248839,1405697,74029,9497,702889,0
20,-1,646348,220623,1336005,66540,8642,667911,0
20,-1,659391,223508,1278745,69224,8246,639175,0
20,2,703149,248455,1384362,73934,8962,692342,0
20,-1,643293,219130,1168599,65883,7875,584338,0
20,-1,634065,219193,1250576,66015,7687,625376,2
20,-1,640302,219915,1300561,66264,8082,650321,0
20,2,707382,247680,1313683,73708,8050,656985,0
20,-1,636015,218762,1172420,65814,6916,586258,0
20,-1,637941,218952,1172836,65774,7014,586418,0
20,2,708946,249019,1365057,73981,8409,682534,0
20,-1,638423,219078,1288247,65838,7192,644157,0
20,-1,638490,219415,1458257,65978,9223,728870,0
20,-1,644954,219153,1343600,65866,7653,671741,0
20,2,715519,250414,1362169,74367,8509,681132,0
20,-1,641187,219863,1289950,66098,8062,644990,0
20,-1,639644,219847,1184404,66086,7003,592258,0
20,2,709180,247820,1416602,73585,9345,708348,0
20,-1,642256,219172,1262303,65782,7364,631260,0
20,-1,640938,219181,1210074,65764,6969,604771,0
20,2,712426,249240,1379056,74211,8890,689544,0
20,-1,641973,219208,1258943,65859,7517,629513,0
20,-1,648572,220365,1384450,66026,8166,692060,0
20,2,709324,248380,1372376,73688,9356,685665,0
20,-1,644061,220074,1379939,65902,8405,690018,0
20,-1,642040,220359,1261425,66362,8691,630633,0
20,2,707819,249510,1290693,73865,8816,645375,0
20,-1,643217,218775,1288461,65712,8821,644225,0
20,-1,641397,219998,1243621,66057,8319,621840,0
20,-1,647857,220996,1236775,66614,8329,618496,0
20,2,706851,247399,1388990,73821,9030,694164,0
20,-1,672604,225614,1318932,69975,8228,659366,0
20,-1,640158,218563,1207742,65496,6844,603917,0
20,2,738543,254495,1477938,78515,10787,739167,0
20,-1,638379,219229,1242316,65774,8265,621189,0
20,-1,645585,221060,1250350,66552,7544,625112,0
20,-1,638355,219022,1199758,65748,6949,599742,0
20,2,714627,249002,1542814,74301,10325,771637,0
20,-1,640962,218999,1155666,65692,7560,577603,0
20,-1,662030,223434,1327361,68889,7637,663719,0
20,2,714928,250776,1341080,75132,8790,670593,0
20,-1,633731,218983,1254806,65141,7764,627440,0
20,-1,640970,219174,1178961,65240,7310,589528,0
20,-1,638491,218518,1308841,65947,7648,654467,0
20,2,720883,250529,1525337,74854,9950,762504,0
20,-1,639530,218712,1253451,66043,6935,626630,0
20,-1,640738,219153,1189355,66229,7997,594561,0
20,2,713256,247992,1329530,73918,8734,664764,0
20,-1,639909,218570,1248937,66060,7471,624506,0
20,-1,639116,219520,1402120,66347,7697,701106,0
20,2,704076,247116,1476920,73998,9908,737616,0
21,-1,692782,236918,1293875,70612,8516,646891,0
21,2,707793,248187,1415237,73723,9130,707651,0
21,-1,645877,221166,1396069,66697,8493,698080,0
21,-1,638549,219442,1180452,65990,7170,590129,0
21,-1,637485,218695,1220319,65728,7055,610162,0
21,2,708724,248153,1414123,73658,9037,707101,0
21,-1,645528,220518,1298032,66224,7995,649174,0
21,-1,641906,221692,1208304,66873,7924,604195,0
21,2,704111,249267,1409934,74243,8883,705555,0
21,-1,641393,219727,1260550,66048,7757,630261,0
21,-1,637341,218848,1310423,65905,7591,655146,0
21,2,704635,248312,1429248,73812,9041,714667,0
21,-1,643357,219761,1273229,66194,7692,636673,0
21,-1,639795,221928,1335398,67204,8718,667850,2
21,-1,639898,220319,1331214,66584,8765,665930,0
21,-1,639006,220417,1211799,66537,7379,605843,0
21,2,713055,250575,1409680,74886,9121,704712,0
21,-1,661725,223997,1354312,69282,7771,677138,0
21,-1,639620,219316,1382023,65900,7736,691197,0
21,2,706115,248259,1427311,73626,9039,713697,0
21,-1,640666,219808,1277183,66082,7464,638565,0
21,-1,647417,220734,1263547,66431,8013,631766,0
21,2,712854,249350,1420061,73968,9335,710075,0
21,-1,637003,218585,1240874,65778,7524,620466,0
21,-1,645807,221373,1315631,66812,7718,657860,0
21,2,714471,249820,1406112,74582,9867,703301,0
21,-1,642277,219437,1121061,65991,6973,560563,0
21,-1,641962,219511,1247271,65919,7266,623695,0
21,2,712526,250733,1389944,74779,9272,695053,0
21,-1,642774,220177,1200322,66262,7006,600207,0
21,-1,647958,220752,1437722,66220,8096,718604,0
21,2,715798,250594,1388845,74703,8869,694048,0
21,-1,666341,225829,1283705,69672,8636,641813,0
21,-1,642662,219882,1224592,66049,8428,612238,0
21,2,703528,247930,1440725,73161,9526,720394,0
21,-1,645294,220401,1306660,66456,8800,653317,0
21,-1,644467,222053,1294190,67036,8968,647028,0
21,-1,642517,219506,1239657,65873,8381,619810,0
21,2,729137,252765,1539586,77467,10120,769755,0
21,-1,643687,219434,1193957,65666,7120,596995,0
21,-1,644232,221059,1257017,66463,6995,628813,0
21,2,710964,247928,1436907,74050,9332,718663,0
21,-1,635418,218413,1192203,65399,7814,595848,0
21,-1,638554,218874,1286534,65606,7187,643381,0
21,-1,664755,224813,1358012,69389,7950,679017,0
21,2,733515,253071,1507482,77405,10872,753787,0
21,-1,648534,221444,1506776,66687,8194,751802,0
21,-1,643060,219678,1237175,65905,6954,618640,0
21,2,717285,250814,1338258,75213,8352,669154,0
21,-1,640370,221962,1219302,66383,7674,609642,0
21,-1,638085,218529,1167842,65019,7543,583969,0
21,-1,639341,219184,1277314,66145,7547,638733,0
21,2,717684,250353,1441940,74777,9229,720958,0
21,-1,659865,223565,1303264,69480,8113,651622,0
21,-1,636555,218406,1172626,65918,8177,586354,0
21,2,713959,249372,1481905,74391,9910,740994,0
21,-1,640183,218929,1171505,66140,7268,585304,0
21,-1,642020,221012,1178113,67159,6657,589113,0
21,2,708959,248649,1545377,74449,9447,771751,0
22,-1,698340,238952,1453755,71467,8715,727102,0
22,2,710255,249300,1321017,74123,8127,660579,0
22,-1,660603,223348,1314730,68965,8924,657410,0
22,-1,639778,220275,1271432,66455,7437,635729,0
22,-1,638338,218893,1183039,65727,7774,591570,0
22,2,710121,248448,1413358,73982,8853,706736,0
22,-1,646044,221049,1415609,66619,8403,707821,0
22,-1,661733,223621,1189228,68995,8049,594538,0
22,2,705945,249969,1490528,74684,9472,745370,0
22,-1,642080,220336,1504293,66453,9971,752202,0
22,-1,642106,219508,1322826,66084,8213,661237,0
22,2,715507,250083,1464864,74625,9642,732447,0
22,-1,642924,219842,1381397,66356,8261,690744,0
22,-1,637321,219794,1347853,66219,7734,673622,2
22,-1,638542,219636,1321347,66096,8100,660513,0
22,2,707071,248697,1378482,73902,8570,689233,0
22,-1,634775,219102,1111011,65992,6589,555563,0
22,-1,636424,218853,1244038,65722,7172,622059,0
22,2,711487,249293,1384169,74004,9189,692071,0
22,-1,637453,219434,1268048,66003,7258,634071,0
22,-1,642026,221057,1264089,66810,8083,631818,0
22,-1,647979,221217,1284736,66869,8663,642159,0
22,2,711815,249118,1329026,73843,8564,664160,0
22,-1,643503,221496,1310027,67044,7351,654919,0
22,-1,660347,223819,1279716,69176,8100,639808,0
22,2,712553,249017,1290668,74075,8442,645377,0
22,-1,642454,219791,1184498,66068,7565,592286,0
22,-1,641959,219607,1261213,65881,7602,630632,0
22,2,708366,247987,1379566,73562,8992,689819,0
22,-1,659996,223742,1240527,69056,7719,620257,0
22,-1,645253,220151,1319363,66274,8216,659964,0
22,2,711448,248650,1393887,73798,9691,696999,0
22,-1,641351,219872,1297347,65973,7841,648525,0
22,-1,641219,219674,1256230,65878,8483,628188,0
22,2,705193,248647,1429839,73286,9573,714891,0
22,-1,642101,218994,1284196,65782,8758,642128,0
22,-1,663563,224302,1249463,69246,8488,624765,0
22,-1,643856,219684,1229085,66046,7650,614594,0
22,2,709823,248336,1380709,74152,9902,690389,0
22,-1,646234,220177,1286534,65939,8416,643349,0
22,-1,640682,219464,1266746,65747,7467,633428,0
22,2,707974,247477,1379012,73907,9110,689523,0
22,-1,643556,220208,1246005,66265,7252,622757,0
22,-1,640760,218987,1224298,65700,7368,612202,0
22,-1,637117,218343,1378643,65443,8071,689280,0
22,2,711455,247796,1559031,73834,9805,779559,0
22,-1,639852,218541,1224064,65485,7287,612006,0
22,-1,643264,220209,1233460,66259,6597,616796,0
22,2,710350,249374,1395086,74538,9641,697623,0
22,-1,636215,219316,1368263,65314,7247,684019,0
22,-1,642903,221184,1176936,66184,6880,588544,0
22,-1,642115,220721,1199199,66992,8074,599821,0
22,2,715616,249672,1335340,74422,8561,667675,0
22,-1,638775,218893,1237005,66142,7747,618545,0
22,-1,639672,219665,1300445,66418,8348,650208,0
22,2,711036,248701,1555973,74111,9238,778020,0
22,-1,639445,218490,1276985,65961,7579,638528,0
22,-1,658565,224037,1308841,69639,7912,654393,0
22,2,728341,252346,1431168,77467,10387,715702,0
23,-1,693909,237613,1352540,70832,8345,676194,0
23,2,728073,252584,1410026,77068,9530,704987,0
23,-1,638795,218608,1175762,65576,7069,587924,0
23,-1,635977,218173,1258703,65440,6611,629360,0
23,-1,658942,223343,1287027,68939,8906,643503,0
23,2,709508,248622,1472844,73931,8983,736367,0
23,-1,640140,218780,1322538,65743,7572,661128,0
23,-1,641941,218447,1213366,65534,8076,606379,0
23,2,716149,249076,1410283,74164,9233,704698,0
23,-1,639459,219571,1353843,66057,9245,676733,0
23,-1,640736,218689,1251104,65793,7436,625435,0
23,2,710177,248938,1434116,74013,8749,716921,0
23,-1,642341,219124,1276275,65966,7996,638224,0
23,-1,641007,220592,1550194,66671,9138,774199,0
23,-1,635083,219609,1319525,66162,7659,659823,2
23,-1,636878,219680,1148725,66124,7255,574407,0
23,2,711269,249796,1451126,74533,9296,725537,0
23,-1,639701,219343,1298103,65922,7790,649111,0
23,-1,636442,218793,1183431,65731,6308,591778,0
23,2,710894,248894,1403437,73872,9629,701766,0
23,-1,637904,219673,1279895,66008,7120,639958,0
23,-1,662901,223591,1213769,69107,8418,606728,0
23,2,714006,250776,1401484,74650,9516,700658,0
23,-1,639791,219651,1188126,66096,7448,593857,0
23,-1,641553,219839,1300727,66088,7758,650420,0
23,2,708346,248020,1253152,73750,8506,626620,0
23,-1,639362,218706,1196292,65767,6694,598195,0
23,-1,641738,219779,1231599,66004,7112,615852,0
23,2,714617,250348,1396600,74574,9346,698362,0
23,-1,640596,220200,1221248,66094,7215,610542,0
23,-1,647248,221011,1286836,66358,7296,643447,0
23,2,718178,250479,1327178,74580,9345,663623,0
23,-1,664120,225356,1188749,69514,7916,594354,0
23,-1,660312,224475,1262437,69270,8971,631083,0
23,2,706821,248119,1319832,73107,8312,659950,0
23,-1,640241,218622,1295174,65616,8429,647702,0
23,-1,643065,219456,1324288,65884,8100,662175,0
23,-1,643785,220344,1408481,66200,7743,704382,0
23,2,705708,247856,1476589,74030,9069,738933,0
23,-1,642931,218704,1276644,65384,7876,638383,0
23,-1,638447,218857,1287790,65532,7515,643940,0
23,2,729548,252896,1447311,77532,9804,723662,0
23,-1,646587,220329,1257769,66113,7865,628927,0
23,-1,640757,219342,1287589,65770,7542,643766,0
23,-1,637305,218349,1182161,65460,7053,590963,0
23,2,709171,247899,1536079,73857,9692,767421,0
23,-1,647069,221312,1271316,66699,7803,635819,0
23,-1,643791,219293,1301939,65730,7180,651000,0
23,2,708528,249564,1462322,74534,9574,731364,0
23,-1,653607,223326,1340735,68429,8350,670429,0
23,-1,638871,219150,1313543,65242,7214,656830,0
23,-1,658423,223339,1428466,69415,8635,714278,0
23,2,712582,248793,1293280,74130,7634,646612,0
23,-1,638039,218792,1194762,66076,7863,597432,0
23,-1,637390,218896,1401757,66164,7515,701323,0
23,2,712461,248252,1444771,74051,9630,722947,0
23,-1,641890,219780,1179098,66635,7696,589628,0
23,-1,639334,218222,1185958,65909,7753,593055,0
23,2,709653,248706,1368939,74462,8393,684508,0
24,-1,692589,237105,1282295,70615,8590,641090,0
24,2,760900,267554,1531366,79034,9919,765654,0
24,-1,645083,220966,1354596,66787,7651,677377,0
24,-1,638744,220319,1271144,66562,7141,635442,0
24,-1,638265,219096,1186236,65762,6539,593177,0
24,2,708171,248345,1364421,73845,8950,682256,0
24,-1,639735,218704,1238609,65678,7911,619364,0
24,-1,644110,219495,1200583,65899,7582,600170,0
24,2,710574,248170,1325567,73927,9706,662838,0
24,-1,659714,223422,1213667,69034,8407,606536,0
24,-1,645789,220578,1539507,66639,9223,769588,0
24,2,711227,249505,1309704,74260,8794,654909,0
24,-1,642179,219136,1366418,65940,8132,683227,0
24,-1,636256,219360,1353344,65987,7955,676752,0
24,-1,638353,219553,1216576,66148,7302,608345,2
24,2,705270,248571,1387200,73832,7973,693615,0
24,-1,656268,223505,1268160,69182,8919,634046,0
24,-1,645024,221528,1281718,67014,6950,640906,0
24,-1,637915,220248,1223345,66227,7241,611697,0
24,2,714909,250839,1474530,74875,9402,737333,0
24,-1,640868,219088,1236558,65904,7533,618320,0
24,-1,643783,219790,1316823,66075,8195,658415,0
24,2,713271,250147,1273876,74259,8678,637087,0
24,-1,636876,219469,1169467,66035,6724,584459,0
24,-1,638796,219519,1272867,66007,7281,636526,0
24,2,711148,248621,1406441,73840,9661,703196,0
24,-1,640014,219108,1273747,65809,7276,636966,0
24,-1,661315,224079,1263659,69336,7497,631799,0
24,2,706693,248561,1425503,73783,8958,712788,0
24,-1,639940,219658,1168464,65951,7526,584276,0
24,-1,650481,222346,1307577,67162,7585,653911,0
24,2,711873,248415,1339112,73703,9542,669601,0
24,-1,642602,220611,1180294,66205,7430,590202,0
24,-1,642468,219854,1255028,65952,8242,627196,0
24,2,703157,248270,1284468,73155,8729,642387,0
24,-1,646622,221225,1330967,66707,8507,665512,0
24,-1,640566,218587,1279719,65569,7678,639939,0
24,-1,637139,218257,1175992,65445,6712,587809,0
24,2,705057,247819,1436434,73951,9903,718254,0
24,-1,643501,219466,1213403,65724,7770,606676,0
24,-1,637304,218908,1195524,65532,6957,597811,0
24,2,713127,248918,1426732,74357,9777,713373,0
24,-1,641337,218652,1416002,65531,8479,707924,0
24,-1,660957,223679,1280926,68992,8179,640418,0
24,2,709734,247895,1373776,73857,9129,686931,0
24,-1,637158,218684,1284295,65615,7417,641965,0
24,-1,662132,223518,1530456,68960,8355,765313,0
24,-1,648866,220669,1220107,66532,7670,610165,0
24,2,718504,249710,1492256,74649,11064,746138,0
24,-1,633879,219040,1271510,65218,7484,635814,0
24,-1,637469,218849,1252168,65111,6408,626019,0
24,-1,642330,219403,1368123,66334,8665,684112,0
24,2,734716,254470,1437679,77899,10306,718654,0
24,-1,636910,218415,1297078,65953,8093,648360,0
24,-1,638295,219196,1389185,66302,7579,694623,0
24,2,735266,253510,1493797,77585,10027,746787,0
24,-1,641145,218221,1342645,65925,7885,671366,0
24,-1,642053,219846,1257207,66463,8403,628655,0
24,2,710160,248135,1315117,74222,8924,657548,0
24,-1,639475,218887,1163114,66120,6555,581570,0
25,-1,693139,237715,1426677,70819,8410,713061,0
25,2,766684,268372,1539473,79446,9667,769211,0
25,-1,659491,222991,1332432,68931,7657,666152,0
25,-1,633100,218670,1183009,65724,6377,591553,0
25,-1,639870,220238,1293377,66358,7145,646747,0
25,2,707736,247977,1521036,73831,9852,760549,0
25,-1,658162,222884,1250503,68949,7819,625288,0
25,-1,646141,220579,1312976,66416,8108,656536,0
25,2,713290,248821,1414462,74122,9348,706918,0
25,-1,635638,218145,1267461,65517,7675,633452,0
25,-1,643632,220316,1270498,66322,7986,635116,0
25,2,709504,248618,1399431,73937,8874,699762,0
25,-1,647527,221797,1309049,67199,8302,654339,0
25,-1,639182,219825,1356590,66192,8097,678054,0
25,2,711095,249803,1454219,74318,8670,727137,0
25,-1,635218,219492,1282926,66114,8352,641511,0
25,-1,638954,219951,1297351,66190,7476,648712,2
25,-1,638644,219554,1338578,65982,7256,669332,0
25,-1,640051,219283,1219056,65947,8077,609571,0
25,2,714552,250733,1452203,74876,9277,726152,0
25,-1,642927,220392,1282512,66518,7836,641261,0
25,-1,643882,219910,1285919,66155,7898,642872,0
25,2,717801,251669,1367459,74974,9515,684516,0
25,-1,636239,218803,1134609,65783,6805,567203,0
25,-1,639527,219512,1210264,65999,7780,605159,0
25,2,709774,248678,1480409,73917,9347,740300,0
25,-1,643042,220671,1281744,66550,7276,640988,0
25,-1,636896,218782,1289824,65750,6805,645065,0
25,2,711017,249708,1422639,74234,8976,711333,0
25,-1,642623,220780,1194345,66528,7275,597153,0
25,-1,646032,221385,1324771,66858,7123,662234,0
25,2,714684,248933,1481853,73897,9243,741160,0
25,-1,639881,219783,1119523,65846,6951,559820,0
25,-1,641213,220220,1419039,66041,8273,709399,0
25,2,704816,248388,1264247,73272,9163,631927,0
25,-1,635125,217864,1262030,65349,8203,631005,0
25,-1,646101,221047,1204542,66606,8160,602055,0
25,-1,643759,220862,1309462,66579,7876,654790,0
25,2,709373,250059,1413806,75064,9595,706646,0
25,-1,664022,224357,1235571,69099,8513,617757,0
25,-1,667463,228584,1318199,68436,8061,659142,0
25,2,711615,248567,1303289,74257,9291,651669,0
25,-1,662632,223914,1428410,69070,9084,714192,0
25,-1,637844,218727,1283482,65673,8606,641698,0
25,2,712753,248527,1500508,74132,10067,750246,0
25,-1,638722,219266,1184709,65788,7246,592061,0
25,-1,640679,218597,1220133,65453,7760,610109,0
25,-1,665909,223711,1318475,68991,8552,659273,0
25,2,714751,249755,1424430,74677,9357,711745,0
25,-1,632515,218728,1132909,65003,7487,566295,0
25,-1,639273,219943,1188529,65703,6998,594111,0
25,-1,638369,218327,1209917,65891,7987,605001,0
25,2,711752,249083,1323069,74380,8406,661535,0
25,-1,657485,222833,1345906,69195,8551,672869,0
25,-1,643566,219201,1252447,66244,8108,626263,0
25,2,711960,248203,1336363,73991,8949,668164,0
25,-1,643387,219687,1313248,66420,7363,656381,0
25,-1,637947,218529,1290226,66040,8154,645169,0
25,2,707310,247916,1416220,74154,8966,707918,0
25,-1,639741,219214,1295250,66263,7693,647401,0
26,-1,697353,239641,1360918,71754,8239,680526,0
26,2,763675,266865,1559522,78875,10149,779717,0
26,-1,640119,219886,1293184,66280,7680,646713,0
26,-1,634406,218395,1276900,65609,6834,638500,0
26,-1,639005,219499,1254349,65920,7170,627235,0
26,2,711616,249288,1453836,74354,10317,727015,0
26,-1,638476,218626,1218687,65795,7317,609386,0
26,-1,643138,219527,1218594,65955,7729,609223,0
26,2,710452,248114,1486517,73858,9338,743306,0
26,-1,638461,219312,1258557,65846,7778,629233,0
26,-1,645612,220812,1373789,66748,8513,686323,0
26,2,709623,249003,1502076,74081,8796,751088,0
26,-1,660322,223550,1221110,69230,8326,610450,0
26,-1,639219,219673,1247148,66094,8150,623702,0
26,2,716946,250298,1433264,74797,9563,716612,0
26,-1,643613,220575,1201660,66429,7592,600879,0
26,-1,642487,220808,1268450,66628,7244,634208,0
26,-1,636774,219908,1316880,66168,6803,658692,2
26,-1,641205,220043,1189950,66123,7626,595029,0
26,2,731487,253882,1462473,77432,9885,731145,0
26,-1,637819,219292,1314447,65968,7836,656989,0
26,-1,645989,220818,1488888,66651,9406,744309,0
26,2,713060,251383,1483958,74943,9023,742045,0
26,-1,658440,223861,1176321,69265,8169,587921,0
26,-1,637430,219088,1298676,65834,7058,649385,0
26,2,710217,248204,1443658,73717,9954,721837,0
26,-1,638063,219086,1180034,65867,6690,590078,0
26,-1,638028,219120,1298201,65855,6985,649144,0
26,2,730636,254253,1406027,77326,10166,702770,0
26,-1,638883,219593,1113982,65916,7447,557050,0
26,-1,644496,219798,1278724,66093,7573,639412,0
26,2,712156,248062,1402565,73517,9569,701318,0
26,-1,642368,220918,1188293,66263,7444,594189,0
26,-1,640938,220219,1276197,66036,7399,638072,0
26,2,704553,248408,1329485,73207,9055,664781,0
26,-1,646237,220794,1323147,66591,8692,661443,0
26,-1,641346,219330,1202545,65795,8121,601354,0
26,2,709403,248650,1353398,74275,8478,676290,0
26,-1,642008,220532,1181191,66248,6649,590634,0
26,-1,642857,219007,1152198,65525,7905,576128,0
26,-1,641067,219681,1381717,65841,7965,690858,0
26,2,731323,252663,1373459,77426,9666,686712,0
26,-1,644058,219516,1378948,65859,8439,688543,0
26,-1,636354,218610,1132403,65554,7003,565889,0
26,2,709156,248028,1465679,73907,9890,732840,0
26,-1,635082,218143,1256585,65306,7906,628287,0
26,-1,645220,220961,1287980,66501,7717,644323,0
26,-1,642520,218557,1163845,65514,7082,581963,0
26,2,713493,249581,1417433,74517,10241,708828,0
26,-1,635306,219295,1257089,65300,7458,628263,0
26,-1,635535,218819,1252377,65125,7442,626233,0
26,-1,640805,219383,1213469,66544,7814,606591,0
26,2,716891,250895,1409900,75155,9792,704850,0
26,-1,636316,218385,1163615,65954,6440,581871,0
26,-1,640381,218382,1272611,65921,8307,636585,0
26,2,711977,248812,1323840,74261,9144,661878,0
26,-1,661425,223575,1329141,69501,8643,664289,0
26,-1,639366,219250,1332297,66226,8351,666195,0
26,2,709092,247295,1413360,73986,9151,706750,0
26,-1,639083,218765,1437509,66056,8309,718213,0
27,-1,692448,237660,1278088,70886,6417,638999,0
27,2,761497,266572,1475920,78706,9363,737326,0
27,-1,637972,218956,1272238,65804,7138,636184,0
27,-1,636417,218891,1169378,65758,7214,584829,0
27,2,708187,248258,1399302,73869,8923,699547,0
27,-1,636361,219133,1370087,65903,7296,684995,0
27,-1,638290,219285,1170211,65937,7225,585165,0
27,-1,638276,218463,1208495,65685,6897,604300,0
27,2,717727,250094,1466055,74666,10121,732973,0
27,-1,641646,219956,1184458,66074,7395,592200,0
27,-1,661776,223761,1284336,69285,9081,641996,0
27,2,711279,250326,1408807,74693,8870,704477,0
27,-1,647494,220915,1303003,66754,8165,651477,0
27,-1,641326,221027,1355052,66865,8492,677537,0
27,2,712195,249250,1415005,74194,9103,707488,0
27,-1,639360,218962,1325800,65893,8051,662832,0
27,-1,637923,219024,1254655,65817,6594,627366,0
27,2,708801,249269,1584555,73985,10886,791825,0
27,-1,636804,218066,1173117,65456,7367,586599,0
27,-1,639258,220019,1138300,66217,7434,569208,2
27,-1,640457,220628,1213870,66400,7253,606897,0
27,2,710771,250177,1438126,74196,10222,718974,0
27,-1,642492,219728,1328012,66177,8562,663653,0
27,-1,637102,219622,1269839,66017,7296,634896,0
27,-1,643534,221825,1353372,67097,7987,676752,0
27,2,729693,252988,1539848,77089,10583,769956,0
27,-1,644167,219724,1212546,66030,7534,606325,0
27,-1,641004,219094,1380422,65908,7455,690194,0
27,2,711060,248735,1335135,73700,9093,667617,0
27,-1,638858,219564,1184171,65819,7630,592055,0
27,-1,644615,219933,1366261,66143,7508,683222,0
27,2,710772,248328,1436269,73718,9491,718405,0
27,-1,642310,220764,1229543,66122,7592,614801,0
27,-1,641198,219918,1410256,65933,8153,705136,0
27,2,704988,248719,1333748,73371,9830,666828,0
27,-1,641911,219572,1319129,65929,8002,659491,0
27,-1,638651,219292,1190197,65780,7091,595060,0
27,2,709649,248510,1502131,74275,10045,751109,0
27,-1,638723,218426,1314600,65476,7857,657325,0
27,-1,645536,220104,1160248,65905,7743,580054,0
27,-1,640127,219762,1253857,65858,7244,626983,0
27,2,710189,248657,1287239,74346,8651,643579,0
27,-1,642300,219250,1234419,65738,8339,617125,0
27,-1,641315,218643,1160589,65605,7907,580297,0
27,2,712370,249115,1336122,74238,9658,667939,0
27,-1,644744,219027,1364127,65739,9399,681977,0
27,-1,642312,218814,1321955,65568,8248,661310,0
27,-1,644852,219822,1312027,65941,7997,656036,0
27,2,715855,250153,1455269,74795,9937,727791,0
27,-1,633353,218577,1265625,65054,7862,632700,0
27,-1,634573,218293,1211564,65016,7123,605824,0
27,2,707328,248099,1375937,73955,8877,688059,0
27,-1,636985,218809,1259084,66106,8282,629569,0
27,-1,636336,218758,1263471,66131,7851,631928,0
27,-1,638772,218309,1297210,65919,7795,648636,0
27,2,712468,249321,1274842,74622,9309,637566,0
27,-1,638183,218632,1270489,66079,7617,635309,0
27,2,707509,248860,1360380,74658,9224,680125,0
27,-1,641862,220447,1180760,66949,7521,590443,0
27,-1,639292,218811,1389610,66078,8454,694711,0
28,-1,690881,237299,1343485,70715,7034,671687,0
28,2,783019,271048,1488801,81990,9976,744411,0
28,-1,637511,218897,1263679,65818,7344,631890,0
28,-1,664464,228787,1336452,68964,8518,668293,0
28,2,708730,248197,1402233,73838,9176,701153,0
28,-1,645438,221146,1293216,66798,8069,646678,0
28,-1,635034,218442,1147657,65604,7315,573887,0
28,2,712158,249406,1351135,74307,9944,675483,0
28,-1,639893,218763,1219222,65733,6812,609873,0
28,-1,638104,218942,1221734,65736,7434,610822,0
28,-1,667448,228424,1350093,68697,8702,675023,0
28,2,708003,247839,1392021,73615,8554,696069,0
28,-1,641550,218994,1298093,65946,7815,649076,0
28,-1,636635,219528,1350886,66096,8248,675400,0
28,2,712753,250288,1402112,74715,8777,700982,0
28,-1,660420,223689,1265902,69267,8663,632109,0
28,-1,661635,224387,1221985,69405,8313,610945,0
28,2,717386,250377,1407438,74611,9343,703862,0
28,-1,638367,219358,1151650,65952,7036,575896,0
28,-1,642602,220627,1178896,66392,7491,589204,2
28,-1,641368,220997,1326853,66696,7995,663375,0
28,2,707700,249237,1531282,73903,9989,765578,0
28,-1,642695,220169,1281986,66254,7768,640975,0
28,-1,642237,219916,1322077,66128,7188,660962,0
28,-1,639466,219127,1332356,65890,7862,666244,0
28,2,708145,248467,1338895,73755,9534,669481,0
28,-1,643239,220337,1264026,66252,7105,632066,0
28,-1,645288,221055,1344638,66755,7851,672391,0
28,2,711702,248783,1262866,73745,8953,631453,0
28,-1,638533,219353,1261567,65828,7211,630798,0
28,-1,648414,222045,1271299,67197,7515,635733,0
28,2,711959,248787,1425823,73847,9309,712954,0
28,-1,642678,221016,1178624,66345,7742,589364,0
28,-1,646224,222298,1327133,67078,8499,663530,0
28,2,709018,248373,1357881,73170,9382,678698,0
28,-1,642589,219732,1198239,65863,7565,599052,0
28,-1,642436,219806,1377101,65992,7969,688357,0
28,2,724489,252240,1431136,77223,10036,715550,0
28,-1,645629,221488,1293405,66854,7648,646729,0
28,-1,664596,224194,1196194,69037,8924,598141,0
28,-1,643398,220533,1204072,66135,6757,602080,0
28,2,707784,248362,1461730,74223,8780,730876,0
28,-1,645422,220637,1277908,66393,7886,638622,0
28,-1,641433,218653,1186786,65520,8355,593301,0
28,2,713465,249727,1420145,74673,10418,710513,0
28,-1,648354,220885,1180696,66446,7862,590086,0
28,-1,638854,218597,1366836,65497,7666,683445,0
28,2,715204,250197,1427052,74831,9679,713518,0
28,-1,644700,220012,1199421,66153,7509,599784,0
28,-1,634164,219254,1140600,65335,6864,570211,0
28,-1,640405,219778,1369657,65393,7291,684870,0
28,2,729311,253091,1420364,77477,10528,710087,0
28,-1,642081,220822,1147991,66975,8139,574020,0
28,-1,642212,220942,1235866,67007,8032,617870,0
28,-1,641540,218973,1217431,66181,7957,608513,0
28,2,733486,253422,1363466,77554,10265,681585,0
28,-1,637318,218472,1294012,65916,6913,647041,0
28,2,709215,247503,1443611,74044,9469,721989,0
28,-1,659446,223536,1340532,69502,9439,670320,0
28,-1,640613,219691,1451668,66420,8748,724662,0
29,2,767622,269161,1450789,79885,9653,725366,0
29,-1,690904,237167,1286614,70661,6751,643109,0
29,-1,640406,220185,1255877,66509,7244,628097,0
29,-1,634999,218767,1142669,65708,7138,571382,0
29,2,709721,248252,1340410,73763,8211,670249,0
29,-1,636991,218295,1302629,65578,7467,651364,0
29,-1,637787,218283,1283449,65646,7462,641786,0
29,-1,640357,218808,1245608,65686,7240,622809,0
29,2,712392,249699,1461158,74591,10118,730587,0
29,-1,638205,219687,1120869,66013,7468,560385,0
29,-1,641994,220789,1312213,66722,8015,655733,0
29,2,730570,253377,1372142,77341,8744,686070,0
29,-1,641031,218817,1307147,65833,7528,653623,0
29,-1,635250,219153,1181777,65982,7762,590786,0
29,2,705673,247157,1383373,73537,9223,691701,0
29,-1,637032,218810,1291499,65849,8080,645799,0
29,-1,637411,219178,1191010,65863,6803,595601,0
29,2,712291,248766,1319843,73937,8862,659972,0
29,-1,640321,220180,1202771,66226,7118,601442,0
29,-1,639741,219992,1285098,66117,7040,642389,0
29,-1,642475,221303,1315030,66911,8045,657454,2
29,2,722478,251665,1443965,75034,9527,722046,0
29,-1,665570,224770,1223804,69513,8587,611810,0
29,-1,643945,221315,1318558,66890,7392,659241,0
29,-1,642867,220889,1262492,66651,8071,631265,0
29,2,709420,247794,1483516,73558,9914,741807,0
29,-1,634294,217370,1195809,65254,7026,597924,0
29,-1,639763,219647,1260910,66039,6566,630469,0
29,2,709720,248840,1248533,73766,8884,624300,0
29,-1,640773,218896,1288745,65704,7093,644424,0
29,-1,665588,225393,1213639,69753,7515,606772,0
29,2,717079,250644,1354587,74678,9315,677716,0
29,-1,662991,225778,1339096,69636,8539,669570,0
29,-1,638955,219886,1205012,65922,8190,602455,0
29,2,731865,257341,1518565,75805,9695,759172,0
29,-1,641850,219577,1306407,65930,8616,653132,0
29,-1,647398,221603,1353217,66760,8211,676527,0
29,2,709769,248057,1431158,74120,8796,715751,0
29,-1,662362,224434,1236917,69302,8005,618439,0
29,-1,641525,218870,1301602,65477,7576,650924,0
29,-1,639170,219273,1247853,65652,7556,624018,0
29,2,710946,248570,1406020,74299,8773,702991,0
29,-1,638078,218715,1323882,65554,8272,661964,0
29,-1,647675,221596,1228970,66869,8033,614361,0
29,2,731896,253123,1559362,77404,11414,779633,0
29,-1,641863,218518,1232816,65511,8536,616321,0
29,-1,641417,219858,1430519,65941,7811,715500,0
29,2,713989,249837,1443270,74597,10228,721641,0
29,-1,646455,219873,1275903,65972,7331,637906,0
29,-1,633917,219192,1197701,65219,7187,598907,0
29,-1,636143,219007,1164739,65161,6533,582393,0
29,2,710704,249949,1282345,74618,9375,641005,0
29,-1,657171,223880,1265559,68672,8181,632828,0
29,-1,636187,218745,1308198,66074,8103,654134,0
29,-1,641789,219156,1368758,66192,8125,684148,0
29,2,712082,248964,1304467,74273,9258,652196,0
29,-1,639395,219543,1200397,66394,6985,600121,0
29,2,731769,253190,1454967,77687,10281,727477,0
29,-1,635239,218363,1284838,65937,7869,642465,0
29,-1,638457,218906,1354311,66088,7411,677173,0
30,2,781802,271387,1497470,82069,10637,748508,0
30,-1,692036,236588,1224274,70496,7390,612100,0
30,-1,638976,218148,1226943,65506,7658,613508,0
30,-1,633215,218526,1198460,65680,7388,599193,0
30,2,713498,250196,1441633,74745,8898,720881,0
30,-1,636348,218381,1146368,65615,6578,573233,0
30,-1,659173,223189,1224212,69020,7960,612076,0
30,2,732751,252840,1470035,77157,10508,735007,0
30,-1,639176,218654,1314842,65571,7869,657463,0
30,-1,663247,223680,1210564,69121,9389,605029,0
30,-1,639301,218946,1183178,65898,6946,591736,0
30,2,710058,248894,1410956,74050,7711,705599,0
30,-1,641477,219205,1366583,66010,7686,683344,0
30,-1,636965,219354,1322446,66000,8301,661238,0
30,2,708791,248603,1391692,73872,9084,695874,0
30,-1,639591,218822,1302549,65841,7548,651281,0
30,-1,638725,220081,1191622,66220,7019,595881,0
30,2,733033,253306,1380051,77249,9095,689986,0
30,-1,637018,218944,1266332,65824,7365,633244,0
30,-1,642432,221012,1451803,66773,8605,725863,0
30,-1,638386,219724,1176993,66068,7146,588471,2
30,2,714781,249454,1399386,74049,9933,699718,0
30,-1,643889,219936,1258322,66114,7365,629053,0
30,-1,660612,224344,1241787,69424,8170,620836,0
30,-1,638071,219559,1186017,66043,7046,593628,0
30,2,708008,248472,1346158,73761,9086,672800,0
30,-1,641470,219422,1278680,65906,6926,639374,0
30,-1,638604,219506,1294419,66005,7061,647263,0
30,2,708035,248487,1403166,73654,9861,701627,0
30,-1,644746,220763,1270150,66629,7051,635057,0
30,-1,643349,219737,1283564,66127,7474,641815,0
30,2,732120,253285,1520060,77088,9914,759662,0
30,-1,645904,221083,1433748,66338,8615,716892,0
30,-1,645008,219923,1246506,65991,8380,623194,0
30,2,723547,252820,1503199,76492,10971,751556,0
30,-1,641713,219635,1313349,65930,7696,656782,0
30,-1,640963,219454,1345736,65878,8090,672912,0
30,2,711630,248381,1307261,74180,8503,653664,0
30,-1,640544,219801,1301408,66028,7380,650751,0
30,-1,643597,220160,1401281,65935,8044,700767,0
30,-1,637800,218805,1309379,65496,7678,654724,0
30,2,706470,247981,1418807,74130,9293,709395,0
30,-1,639717,218294,1316788,65417,8242,658094,0
30,-1,662028,223121,1257947,68855,8422,628930,0
30,2,709817,249014,1460343,74398,9288,730226,0
30,-1,642984,219203,1142650,65803,7836,571284,0
30,-1,638395,218555,1320032,65501,7666,660086,0
30,2,716296,250622,1358997,75202,9353,679418,0
30,-1,668831,227887,1347140,68264,7559,673609,0
30,-1,653052,223588,1217679,68494,8133,608908,0
30,-1,636465,219148,1382505,65264,7525,691227,0
30,2,711652,250172,1329622,74886,9709,664558,0
30,-1,632879,218379,1146148,65083,7056,573120,0
30,-1,638449,218408,1276954,65915,8400,638514,0
30,-1,662653,224016,1425312,69603,8959,712671,0
30,2,709580,248960,1438521,74316,9402,719268,0
30,-1,637883,218772,1236006,66056,7687,618058,0
30,2,706701,247737,1446999,74118,9074,723494,0
30,-1,636900,219389,1301347,66318,7771,650716,0
30,-1,642713,220997,1186138,67128,7479,593151,0
31,2,758805,266251,1290084,78658,8566,645085,0
31,-1,688349,236805,1295344,70618,8151,647697,0
31,-1,642263,219959,1211043,66151,6812,605570,0
31,-1,634009,218671,1165767,65721,7100,582987,0
31,2,706557,248045,1447589,73782,9253,723852,0
31,-1,637634,218848,1289016,65769,6983,644390,0
31,-1,636769,218585,1200192,65742,6503,600099,0
31,2,711650,248643,1746055,74116,11726,871842,0
31,-1,638812,218536,1271840,65541,6893,635963,0
31,-1,640133,218646,1241867,65634,8746,620806,0
31,-1,643931,221179,1282788,66922,7955,641332,0
31,2,706647,248540,1292215,73910,7927,646145,0
31,-1,640197,219067,1271681,65927,7725,635884,0
31,-1,634764,219101,1235537,65872,8231,617673,0
31,2,708139,248639,1319211,74018,8409,659613,0
31,-1,640583,219838,1337751,66198,7493,668922,0
31,-1,640225,220810,1198046,66729,7548,599138,0
31,2,732941,253541,1369710,77148,8860,684897,0
31,-1,636091,219144,1283938,65927,7290,641994,0
31,-1,638982,219275,1302098,65876,8083,651046,0
31,2,719011,251221,1482176,74793,10331,741141,0
31,-1,641132,219294,1162442,65929,6566,580932,0
31,-1,634166,219871,1183671,66122,6413,591841,2
31,-1,642155,221937,1257014,67130,7551,628420,2
31,-1,636024,219556,1203094,66028,6694,601552,2
31,-1,641156,220009,1257036,66178,7438,628510,0
31,-1,639806,219620,1257057,66056,6855,628524,2
31,-1,635899,219170,1187676,65863,7605,593835,0
31,-1,637084,219249,1169221,65964,7009,584412,2
31,-1,663352,228918,1275911,68780,7539,638001,2
31,2,729344,252854,1378739,76981,10174,689477,0
31,-1,642640,220731,1325995,66428,7347,663123,2
31,-1,638516,219847,1244534,65997,6227,622285,2
31,-1,639528,219342,1307287,65814,6982,653759,0
31,-1,639132,219355,1137620,66027,6605,568852,2
31,-1,637466,219415,1289979,65803,6923,645052,2
31,-1,665268,229110,1417586,68842,6948,708844,0
31,-1,639449,219608,1151503,66078,6378,575853,2
31,2,708569,248836,1298246,73665,8542,649173,0
31,-1,640527,221181,1323321,66741,7602,661699,2
31,-1,638774,219350,1250739,65883,7175,625443,2
31,-1,640740,219857,1186203,66058,6436,593169,2
31,-1,643192,219622,1246312,65979,6895,623205,0
31,-1,642136,219888,1397545,66162,6836,698824,0
31,-1,642509,219719,1188546,66070,6901,594321,2
31,2,709147,247919,1487850,73578,8753,743982,0
31,-1,645553,221473,1416866,66446,9335,708493,2
31,-1,640779,220785,1325435,66179,8142,662745,0
31,-1,642920,220938,1390205,66377,8033,695188,2
31,-1,646996,221760,1298582,66963,8370,649185,2
31,-1,644104,220273,1295363,66200,8368,647721,0
31,-1,638616,220317,1301493,66130,8352,650784,2
31,2,704075,248520,1371168,73288,8885,685608,0
31,-1,642031,220483,1146279,66230,8166,573173,2
31,-1,644174,220259,1235905,66203,7710,618002,2
31,-1,642704,221200,1229853,66752,8353,615004,2
31,-1,637435,218526,1287765,65509,8003,643806,0
31,-1,640751,219696,1349289,66013,8147,674403,2
31,-1,641630,219435,1176008,65994,7647,588073,2
31,-1,637434,219660,1261905,66011,7438,630836,2
31,-1,638912,219151,1297885,65748,7950,649055,0
31,-1,646431,222104,1225965,67009,7863,613057,2
31,-1,638302,219420,1288634,65881,8453,644588,2
31,2,737499,257629,1411399,76950,9164,705739,0
31,-1,639434,219456,1305600,65861,7006,652838,0
31,-1,644620,221271,1319887,66782,7703,660197,2
31,-1,643751,220154,1318907,66100,8184,659528,2
31,-1,645895,221509,1288274,66557,8100,644197,0
31,-1,642139,219634,1261788,65808,8384,631016,2
31,-1,651676,222071,1323675,66892,8219,661206,2
31,-1,636597,219482,1234350,65783,7456,617096,2
31,-1,642805,221316,1306136,66613,7690,653181,0
31,2,709784,249024,1243640,74465,8715,621805,0
31,-1,637594,218867,1253726,65632,7661,626600,2
31,-1,647227,221583,1267145,66803,7694,633731,0
31,-1,640979,219322,1341796,65809,8671,670588,2
31,-1,639902,219052,1289464,65727,8087,644751,2
31,-1,639432,219572,1180938,65906,6642,590551,2
31,-1,638490,218324,1283885,65449,6894,641916,0
31,-1,645087,221732,1217115,66895,7211,608172,2
31,2,708480,248266,1419588,74132,9566,709885,0
31,-1,642255,218615,1348017,65533,9670,673978,0
31,-1,636166,219375,1203655,65840,7509,601763,2
31,-1,643725,221140,1228233,66672,7079,614128,2
31,-1,638868,218948,1236191,65694,7419,618157,0
31,-1,638486,219068,1278643,65776,7901,639502,2
31,-1,639883,219101,1296545,65739,7477,648311,2
31,-1,641990,219089,1409737,65743,8553,704617,2
31,2,712688,249464,1470669,74599,9591,735209,0
31,-1,647516,221427,1237794,66786,6924,618973,0
31,-1,645481,219778,1329926,65908,7866,665011,2
31,-1,632400,219401,1237275,65334,7732,618617,2
31,-1,633384,218935,1159695,65178,6676,579885,0
31,-1,636067,219561,1301662,65399,7669,650861,2
31,-1,631495,219146,1225166,65267,8249,612533,2
31,-1,639145,220885,1170411,66105,7416,585054,2
31,-1,634212,218648,1300168,65072,7549,649531,0
31,-1,636460,219777,1238826,65483,7048,619467,2
31,-1,636415,218533,1111436,65029,7227,555603,2
31,2,717175,249325,1324369,74460,8795,662232,0
31,-1,642419,219934,1137937,65825,7306,569198,0
31,-1,640058,219674,1258154,66430,8057,629128,2
31,-1,636387,218879,1330890,66186,8096,665111,2
31,-1,641209,219392,1178141,66351,8322,589086,2
31,-1,634501,218916,1242602,66174,7116,621351,2
31,-1,638586,219138,1348732,66198,8861,674419,0
31,-1,639116,219368,1339937,66235,8489,669711,2
31,-1,640738,218785,1246367,66072,7055,622987,0
31,2,714708,248491,1347066,74091,9532,673520,0
31,-1,637246,218651,1261332,66148,8062,630623,2
31,-1,641036,218852,1210616,66177,7461,605253,2
31,-1,676025,230211,1332019,69850,8935,665797,0
31,-1,639061,219284,1353835,66299,7928,676930,2
31,-1,646438,221555,1192389,67355,7437,596264,2
31,-1,644469,220069,1222582,66555,8126,611272,2
31,2,707136,248244,1293588,74280,8524,646873,0
31,-1,635499,218520,1275733,66019,8281,637425,2
31,-1,637704,218666,1283623,66043,8488,641859,0
31,-1,635505,219176,1253564,66262,7289,626829,2
31,-1,637719,218902,1172982,66140,7694,586540,2
31,-1,642880,219102,1244832,66221,8034,622464,0
