0,0,0,-nan,-nan,-nan,-nan,-nan,-nan,-nan,-nan,-nan,-nan,-nan,-nan
0,1,125,714102.232000,249894.992000,1402580.376000,74589.608000,9489.680000,700804.464000,9520.026283,2820.300218,76565.405580,1228.284175,693.392767,38238.218611
1,0,0,-nan,-nan,-nan,-nan,-nan,-nan,-nan,-nan,-nan,-nan,-nan,-nan
1,1,124,713996.500000,249813.153226,1409213.217742,74601.951613,9443.604839,704151.137097,8405.771789,2465.890774,92860.318925,1223.498005,681.707236,46362.644383
2,0,0,-nan,-nan,-nan,-nan,-nan,-nan,-nan,-nan,-nan,-nan,-nan,-nan
2,1,124,714157.508065,250019.838710,1402365.540323,74638.080645,9417.096774,700717.362903,9881.973090,2839.027041,74442.696434,1227.896875,626.905346,37216.709348
3,0,0,-nan,-nan,-nan,-nan,-nan,-nan,-nan,-nan,-nan,-nan,-nan,-nan
3,1,124,714123.983871,250002.620968,1414005.491935,74620.830645,9459.572581,706523.919355,10975.796395,3242.874689,77525.106931,1377.715177,681.821708,38688.619044
4,0,0,-nan,-nan,-nan,-nan,-nan,-nan,-nan,-nan,-nan,-nan,-nan,-nan
4,1,124,713944.774194,249921.701613,1409364.338710,74612.266129,9457.177419,704205.322581,9403.524389,2757.381346,81758.308727,1217.494327,682.803189,40832.894973
5,0,0,-nan,-nan,-nan,-nan,-nan,-nan,-nan,-nan,-nan,-nan,-nan,-nan
5,1,124,715062.395161,250309.330645,1405723.177419,74764.580645,9495.016129,702396.088710,10874.581405,3218.761091,81390.159304,1376.951179,701.400097,40679.054036
6,0,0,-nan,-nan,-nan,-nan,-nan,-nan,-nan,-nan,-nan,-nan,-nan,-nan
6,1,124,713546.056452,249865.040323,1407474.370968,74494.782258,9434.362903,703292.814516,9675.433273,3068.354585,78364.955004,1231.650607,708.011064,39174.051327
7,0,0,-nan,-nan,-nan,-nan,-nan,-nan,-nan,-nan,-nan,-nan,-nan,-nan
7,1,124,712690.701613,249633.056452,1406246.395161,74408.604839,9396.040323,702673.959677,8864.015812,2735.261075,87089.299712,1067.403594,700.221341,43541.863982
8,0,0,-nan,-nan,-nan,-nan,-nan,-nan,-nan,-nan,-nan,-nan,-nan,-nan
8,1,124,713651.056452,249838.443548,1412968.266129,74524.346774,9427.161290,705968.725806,9307.380164,2868.197923,82628.114115,1142.958986,629.165440,41272.615797
9,0,0,-nan,-nan,-nan,-nan,-nan,-nan,-nan,-nan,-nan,-nan,-nan,-nan
9,1,124,714384.330645,249963.637097,1411283.322581,74598.419355,9433.298387,705147.911290,9774.540975,2934.457356,84122.961089,1208.292417,626.311269,42018.498485
10,0,0,-nan,-nan,-nan,-nan,-nan,-nan,-nan,-nan,-nan,-nan,-nan,-nan
10,1,124,713105.161290,249627.403226,1407940.427419,74427.427419,9473.225806,703508.854839,8692.139346,2611.940803,90748.811239,1115.731094,674.532357,45353.284050
11,0,0,-nan,-nan,-nan,-nan,-nan,-nan,-nan,-nan,-nan,-nan,-nan,-nan
11,1,124,714476.669355,250046.225806,1384120.975806,74666.419355,9352.766129,691621.427419,10430.489583,3119.747464,75923.543528,1270.251163,689.916195,37949.451402
12,0,0,-nan,-nan,-nan,-nan,-nan,-nan,-nan,-nan,-nan,-nan,-nan,-nan
12,1,125,714151.208000,249985.832000,1402793.928000,74618.072000,9445.784000,700943.936000,10076.863817,3061.638598,85957.390380,1293.285591,656.216471,42939.719406
13,0,0,-nan,-nan,-nan,-nan,-nan,-nan,-nan,-nan,-nan,-nan,-nan,-nan
13,1,125,714740.368000,250118.192000,1398107.400000,74734.496000,9443.232000,698599.336000,10232.139671,2917.514753,72939.639179,1312.150160,651.571984,36457.173013
14,0,0,-nan,-nan,-nan,-nan,-nan,-nan,-nan,-nan,-nan,-nan,-nan,-nan
14,1,125,713313.296000,249704.728000,1407000.472000,74511.944000,9566.208000,703057.048000,9851.594373,3000.890677,87656.937650,1313.014067,703.794235,43789.350653
15,0,0,-nan,-nan,-nan,-nan,-nan,-nan,-nan,-nan,-nan,-nan,-nan,-nan
15,1,125,713106.048000,249754.144000,1417264.960000,74487.704000,9496.304000,708158.248000,9315.691340,2891.999828,81549.925591,1208.705893,637.780278,40728.625322
