0,-1,720141,249987,1474639,74244,8716,735975,0
0,-1,724913,251068,1407888,74824,8354,703358,0
0,-1,724051,251295,1412112,74903,8021,705455,2
0,-1,726625,251789,1487136,75109,8835,742991,0
0,-1,717584,248560,1329139,73735,8025,664180,0
0,-1,665716,230204,1265898,68671,7128,632590,0
0,-1,688151,234829,1403871,72011,9194,701528,0
0,-1,669936,231362,1298789,69406,8080,648862,0
0,-1,687776,234616,1382299,71992,8670,690699,0
0,-1,668223,229940,1177297,68704,7979,588265,0
0,-1,663274,230635,1181157,68961,6433,590265,0
0,-1,666322,231330,1389373,69394,8031,693738,0
0,-1,664540,230064,1290262,68786,8551,644766,0
0,-1,664061,230381,1317233,68931,7820,658229,0
0,-1,662819,229816,1296200,68712,8145,647401,0
0,-1,659826,229246,1428756,68423,7702,714209,0
0,-1,665380,230512,1254685,68964,8260,626853,0
0,-1,684325,234414,1350302,72076,8707,674717,0
0,-1,671470,231740,1438595,69479,8787,718560,0
0,-1,668092,230391,1422701,68938,7505,711125,0
0,-1,668391,230765,1303851,68938,8246,651545,0
0,-1,669144,233058,1374702,69939,8798,686689,0
0,-1,666938,231180,1287430,69032,7728,643350,0
0,-1,666927,230491,1268090,68902,8521,633637,0
0,-1,668527,231221,1263633,69119,7803,631285,0
0,-1,669743,231338,1275588,69160,8332,637450,0
0,-1,670686,231908,1360582,69740,7949,679529,0
0,-1,667957,230858,1435191,69143,9107,717159,0
0,-1,669015,230649,1433357,69128,10597,728023,0
0,-1,669145,230692,1371951,69074,8070,685559,0
0,-1,669472,231032,1400542,69176,8014,699865,0
0,-1,686895,234729,1302473,72227,8937,650827,0
0,-1,669967,230349,1246800,69006,8343,622919,0
0,-1,666860,232462,1379809,69922,8575,689384,0
0,-1,666617,231892,1387282,69687,8516,693005,0
0,-1,664141,231028,1309406,69224,7848,654321,0
0,-1,665376,231135,1301537,69239,7796,650317,0
0,-1,672323,232657,1378953,70050,9380,688999,0
0,-1,668374,232088,1304298,69742,8101,651551,0
0,-1,663464,230417,1441848,69038,9714,720198,0
0,-1,665911,230811,1489856,69124,7884,744487,0
0,-1,668638,232297,1411339,69871,7940,705228,0
0,-1,683592,235210,1293809,72288,8816,646403,0
0,-1,669148,231678,1212540,69582,8268,605751,0
0,-1,666427,230559,1336987,68933,8118,668137,0
0,-1,671867,231703,1411671,69484,9777,705283,0
0,-1,665197,230803,1337908,69023,7660,668608,0
0,-1,669271,232043,1358553,69621,7801,678696,0
0,-1,663589,230671,1260265,69025,7357,629713,0
0,-1,671955,231797,1431293,69492,8483,715112,0
0,-1,670711,232550,1350128,69854,7948,674441,0
0,-1,672034,233166,1602128,70058,8995,800486,0
0,-1,665260,231266,1342177,69143,6751,670837,0
0,-1,664068,230883,1295120,69050,7800,647276,0
0,-1,688429,235486,1211427,72395,8274,605254,0
0,-1,667099,230532,1214778,68953,7150,606833,0
0,-1,671965,231101,1344356,69168,7961,671797,0
0,-1,666105,231086,1328482,69169,7107,663834,0
0,-1,668629,231939,1321804,69389,7964,660588,0
0,-1,667965,230863,1211452,69042,7069,605461,0
0,-1,664872,230632,1242974,68913,7500,621242,0
0,-1,670590,232230,1406912,69775,8251,702825,0
0,-1,670298,231194,1245370,69129,7541,622331,0
0,-1,685749,235337,1259333,72364,8623,629223,0
0,-1,668247,231874,1359941,69548,8322,679434,0
0,-1,669330,232219,1259419,69773,7604,629091,0
0,-1,666630,230648,1327374,68982,7337,663358,0
0,-1,689150,235301,1264099,72264,8032,631605,0
0,-1,668649,230247,1232031,68719,7572,615631,0
0,-1,666639,230895,1270029,69065,7292,634617,0
0,-1,667754,230732,1328834,68986,8035,664017,0
0,-1,670138,231215,1289949,69145,7592,644622,0
0,-1,665226,230382,1261560,68772,7691,630454,0
0,-1,690628,236373,1226948,72501,7980,613097,0
0,-1,668660,230505,1332821,68765,8250,666086,0
0,-1,670611,231877,1242773,69221,7498,621068,0
0,-1,676573,233362,1264037,70093,8641,631639,0
0,-1,673676,231142,1322339,69178,8413,660781,0
0,-1,672639,231648,1285120,69089,8029,642241,0
0,-1,679697,233733,1332742,70054,8365,665848,0
0,-1,666459,231347,1261062,68975,8682,630045,0
0,-1,695937,241312,1364915,71993,8368,681885,0
0,-1,673925,233255,1341272,69928,8755,670044,0
0,-1,690033,234814,1268753,72102,8497,633968,0
0,-1,670015,231688,1463923,69126,9782,731573,0
0,-1,689313,236357,1321166,72486,9070,660242,0
0,-1,668043,230792,1222726,68938,7592,611042,0
0,-1,670481,231006,1361815,69020,8426,680648,0
0,-1,671594,232892,1399249,69942,8591,699089,0
0,-1,674049,232467,1333361,69745,8518,665746,0
0,-1,672180,231436,1240961,69254,7694,619984,0
0,-1,670912,230178,1213590,68793,7709,606461,0
0,-1,672664,232636,1285046,69757,8007,641812,0
0,-1,668388,231478,1308787,69159,7690,653952,0
0,-1,674319,232690,1361973,69710,8118,680470,0
0,-1,669124,231223,1310098,69324,8206,654514,0
0,-1,661757,228711,1228766,68324,7216,614005,0
0,-1,690719,235845,1283927,72459,8804,641481,0
0,-1,665923,230584,1334441,68858,7516,666873,0
0,-1,670363,231486,1297421,69209,7718,648334,0
0,-1,696698,239809,1260432,71448,8367,629927,0
0,-1,673530,230790,1424504,68732,8290,711852,0
0,-1,670505,230660,1237793,68638,8340,618514,0
0,-1,670502,230562,1261566,68663,8353,630437,0
0,-1,670923,230593,1378877,68621,8815,689060,0
0,-1,668065,232225,1282184,69361,8019,640579,0
0,-1,668815,231461,1226213,69012,8392,612656,0
0,-1,665316,230289,1343213,68623,8079,671276,0
0,-1,686864,234526,1266333,71915,8784,632794,0
0,-1,671615,232163,1306163,69467,8275,652464,0
0,-1,669195,230533,1321323,68811,8743,660135,0
0,-1,672271,232042,1271818,69534,8137,635451,0
0,-1,667489,230914,1238857,68944,7415,618948,0
0,-1,691348,235674,1306311,72280,8951,652636,0
0,-1,666473,230062,1279013,68631,8311,639133,0
0,-1,670295,231500,1270599,69291,7571,634686,0
0,-1,667674,230116,1222635,68653,7338,610736,0
0,-1,669275,230086,1257177,68645,8735,628266,0
0,-1,684828,234974,1311912,72085,8639,655515,0
0,-1,669569,231501,1260079,69298,7498,629359,0
0,-1,667417,230276,1242466,68736,7431,620772,0
0,-1,669198,230539,1385442,68814,8067,692147,0
0,-1,665479,229716,1326126,68528,7980,662737,0
0,-1,668372,230873,1267151,68936,8042,633201,0
0,-1,690717,235127,1387162,72111,9148,693168,0
0,-1,666643,230752,1237243,68882,7465,618291,0
0,-1,667868,230129,1240498,68658,7657,619876,0
0,-1,671801,231865,1333621,69500,7672,665828,0
0,-1,670450,230127,1340126,68710,7803,669688,0
0,-1,668646,230266,1388353,68665,8058,693847,0
0,-1,675023,231193,1430724,68927,8281,714936,0
0,-1,671116,230186,1379946,68644,7549,689591,0
0,-1,661487,230609,1316420,68344,7255,657906,0
0,-1,666649,232100,1298007,68997,7108,648411,0
0,-1,670763,233007,1241182,69428,7750,619892,0
0,-1,685401,235339,1483812,71662,8403,741459,0
0,-1,662907,230822,1363706,68418,8734,681471,0
0,-1,666938,232666,1308467,69258,8407,653479,0
0,-1,666046,230536,1396592,68328,8140,697951,0
0,-1,685321,235993,1450256,71885,9338,724707,0
0,-1,667348,232007,1303616,69096,8388,651280,0
0,-1,663791,230050,1258455,68285,8281,628856,0
0,-1,665679,230374,1347497,69273,8942,673443,0
0,-1,667671,230205,1271938,69206,8226,635618,0
0,-1,668805,230279,1337156,69181,9212,668150,0
0,-1,663667,230227,1347159,69144,7941,673303,0
0,-1,666009,229919,1351447,69073,8808,675351,0
0,-1,671587,231647,1298226,69788,8331,648595,0
0,-1,666395,231049,1262403,69400,8158,630802,0
0,-1,666319,230548,1421928,69203,8418,710673,0
0,-1,668444,231405,1276283,69766,7821,637524,0
0,-1,666899,229732,1355949,69018,8535,677579,0
0,-1,703174,241538,1374226,72876,8364,686487,0
0,-1,667853,230185,1233211,69169,8369,616245,0
0,-1,669035,230632,1321488,69317,8223,660345,0
0,-1,663927,230271,1228661,69181,8305,614018,0
0,-1,685428,234584,1369760,72453,9766,684248,0
0,-1,665263,230514,1459073,69317,7949,729103,0
0,-1,667888,230653,1329346,69320,8045,664256,0
0,-1,687457,234923,1306591,72476,9546,652907,0
0,-1,665124,229717,1294216,69020,7815,646807,0
0,-1,671311,230829,1237190,69442,7894,618196,0
0,-1,663482,229930,1351465,69098,8337,675466,0
0,-1,664574,229865,1232298,69063,7804,615837,0
0,-1,669241,230467,1373006,69201,8715,686156,0
0,-1,672372,232517,1243703,70162,7765,621228,0
0,-1,669084,231030,1232132,69643,7883,615626,0
0,-1,669781,230451,1242750,69294,7480,620858,0
0,-1,667352,231014,1269369,69474,7988,634337,0
0,-1,688184,234659,1392710,72454,8640,696009,0
0,-1,666694,229939,1247185,69122,7823,623167,0
0,-1,669018,231574,1171771,69811,7377,585227,0
0,-1,672770,231399,1291509,69410,7708,645412,0
0,-1,667798,229735,1214206,68919,7036,606795,0
0,-1,688065,234854,1386444,72323,8770,692824,0
0,-1,672894,230833,1443933,69395,8744,721529,0
0,-1,688739,234629,1399943,72444,8929,699608,0
0,-1,690280,234957,1411389,72506,8565,705221,0
0,-1,670101,229897,1351154,69061,8137,675239,0
0,-1,671655,230252,1221742,69179,8329,610505,0
0,-1,684743,234992,1471049,72513,9029,735206,0
0,-1,667866,230539,1341996,69279,8100,670679,0
0,-1,669321,231138,1216739,69602,7744,608047,0
0,-1,675136,232611,1267246,70159,7935,633117,0
0,-1,671042,230755,1228810,69430,7906,614104,0
0,-1,673572,232147,1341591,69980,7308,670432,0
0,-1,671953,232378,1223228,70261,7813,611002,0
0,-1,668256,230900,1235909,69444,8083,617601,0
0,-1,675511,233221,1238849,70409,8120,618816,0
0,-1,674896,232655,1260402,70197,8361,629703,0
0,-1,674517,233268,1242010,70441,7743,620396,0
0,-1,670801,231048,1321230,69451,8342,660288,0
0,-1,663507,230742,1375076,69337,7894,687132,0
0,-1,671685,231920,1243088,69769,7034,621036,0
0,-1,670809,231795,1393748,69694,8000,696569,0
0,-1,672148,232058,1311433,69719,8015,655392,0
0,-1,669399,231731,1262925,69488,7774,631041,0
0,-1,672681,232153,1346862,69640,8222,673039,0
0,-1,672038,230957,1331983,69159,8577,665673,0
0,-1,668945,231446,1193807,69450,7094,596565,0
0,-1,668939,230904,1316033,69288,8037,657662,0
0,-1,694291,235421,1429392,72533,9158,714349,0
0,-1,697579,240567,1283187,72185,8016,641277,0
0,-1,674553,232531,1250390,70125,7183,624657,0
0,-1,674255,231876,1340009,69781,7860,669414,0
0,-1,673258,232317,1255174,69982,8742,627086,0
0,-1,667342,230144,1252132,68997,8670,625758,0
0,-1,669786,231161,1215254,69436,7432,607247,0
0,-1,672658,231586,1239611,69537,6738,619524,0
0,-1,676990,232917,1263797,70207,8213,631451,0
0,-1,671563,231604,1430161,69664,7771,714752,0
0,-1,692689,235643,1311342,72753,9423,655253,0
0,-1,674899,232330,1235205,70006,7264,616949,0
0,-1,672779,231728,1318477,69614,7920,658990,0
0,-1,671988,231462,1349274,69484,8021,674228,0
0,-1,673691,230753,1256913,69227,7742,628130,0
0,-1,671696,232017,1240339,69606,8012,619724,0
0,-1,667431,230560,1204741,69180,7488,602069,0
0,-1,675383,231906,1250920,69777,7631,625062,0
0,-1,691111,234782,1277739,72308,8799,638460,0
0,-1,669801,230634,1299151,69178,7838,649269,0
0,-1,673269,231257,1329518,69393,8570,664387,0
0,-1,672180,230274,1273552,69159,7957,636361,0
0,-1,669926,230774,1318496,69320,7579,658859,0
0,-1,669427,230465,1211609,69284,7870,605445,0
0,-1,671216,230301,1241504,69321,7968,620348,0
0,-1,668532,229345,1327041,69040,8153,663173,0
0,-1,672257,230249,1198397,69361,8490,598705,0
0,-1,662593,230579,1398052,69448,8352,697847,0
0,-1,668882,232108,1380200,70188,8883,689857,0
0,-1,663436,229759,1324964,69144,7641,662209,0
0,-1,663908,230073,1426728,69296,8144,713016,0
0,-1,663728,229861,1309319,69179,7586,654371,0
0,-1,684889,234690,1276849,72590,8561,638109,0
0,-1,665554,229686,1326472,69156,7960,662944,0
0,-1,661935,229414,1235845,69033,7569,617484,0
0,-1,670012,232119,1235875,70205,8527,617422,0
0,-1,662940,229632,1219561,69008,6612,609414,0
0,-1,668547,230197,1326964,69172,7608,663168,0
1,-1,741042,253386,1326191,77121,8675,662677,0
1,-1,742318,253386,1410553,77147,9953,704877,0
1,-1,719269,248685,1322601,73848,7590,660822,2
1,-1,718397,249410,1321898,74145,8278,660469,0
1,-1,668197,231246,1351089,69276,7989,675346,0
1,-1,667793,230701,1229210,68856,8520,613907,0
1,-1,666271,230146,1237488,68801,7922,618372,0
1,-1,666401,230085,1341189,68674,7400,670203,0
1,-1,688245,234337,1445877,71958,8812,722623,0
1,-1,667571,232232,1307281,69765,7322,653120,0
1,-1,663693,230617,1402867,68996,7519,700726,0
1,-1,665509,230801,1235026,69063,8019,617047,0
1,-1,663700,230521,1337105,68857,7750,667922,0
1,-1,665746,230230,1393263,68833,8269,696236,0
1,-1,668761,230051,1310450,68797,7870,654653,0
1,-1,667852,231142,1352507,69344,8153,675762,0
1,-1,664888,229845,1306459,68758,8034,652834,0
1,-1,667508,230181,1248348,68848,7853,623734,0
1,-1,665212,229584,1246601,68761,7568,622934,0
1,-1,670737,232250,1334318,69590,8149,666671,0
1,-1,672136,230841,1368982,68906,8740,684113,0
1,-1,668998,231114,1310317,68954,7865,654823,0
1,-1,666463,230542,1325692,68862,8148,662430,0
1,-1,690924,235202,1297495,72218,9778,648295,0
1,-1,664103,229731,1370265,68597,7969,684669,0
1,-1,687526,234763,1339004,72221,8849,669109,0
1,-1,665810,230550,1412432,69035,9181,705834,0
1,-1,668351,230444,1304309,68988,9227,651700,0
1,-1,668205,230820,1382022,69157,8224,690616,0
1,-1,670858,231945,1501695,69785,10550,750123,0
1,-1,669683,230058,1340816,68858,8498,669669,0
1,-1,669446,230133,1331972,68826,8193,665901,0
1,-1,662567,231211,1589080,69293,9553,794219,0
1,-1,662217,230251,1369611,68924,8223,684655,0
1,-1,664105,230808,1276898,69363,7858,637827,0
1,-1,661073,229932,1318404,68778,7542,658891,0
1,-1,664548,230721,1158593,69067,6856,578914,0
1,-1,665280,230310,1403237,69020,7847,701194,0
1,-1,664224,231100,1311842,69198,8639,655565,0
1,-1,666416,231322,1315078,69257,8327,657181,0
1,-1,680876,233841,1316995,71983,8471,658066,0
1,-1,668761,230613,1326844,68950,8028,663118,0
1,-1,686948,235142,1226365,72275,8963,612758,0
1,-1,672181,232883,1319712,70041,7462,659238,0
1,-1,668841,231039,1308399,69144,8829,653812,0
1,-1,664425,230925,1224243,69050,7920,611776,0
1,-1,665776,230971,1276017,69104,7687,637619,0
1,-1,664649,231438,1335472,69257,7677,667433,0
1,-1,667032,230797,1359453,69015,8090,679397,0
1,-1,667894,230656,1346650,68978,7953,672871,0
1,-1,685256,235266,1370774,72295,9763,685184,0
1,-1,663709,230507,1289345,68908,7078,644363,0
1,-1,668043,230179,1230914,68838,7271,615056,0
1,-1,665569,230434,1224318,68848,8068,611911,0
1,-1,668700,231383,1362064,69269,7045,680604,0
1,-1,675868,232811,1323417,69955,8753,661070,0
1,-1,684223,234868,1331541,72153,8220,665376,0
1,-1,670711,232504,1339636,69752,7909,669351,0
1,-1,685125,234921,1288295,72214,8361,643801,0
1,-1,672002,233267,1269569,70199,7603,633938,0
1,-1,665425,230598,1332027,69005,7513,665592,0
1,-1,668035,230755,1245390,69016,7082,622347,0
1,-1,667505,230775,1320404,69070,7637,659797,0
1,-1,666621,231141,1234903,69148,7059,617129,0
1,-1,668860,230459,1222079,68943,7977,610664,0
1,-1,668739,231315,1412675,69149,8159,705975,0
1,-1,668110,231089,1314359,69171,7024,656765,0
1,-1,672492,231163,1189685,69013,7633,594516,0
1,-1,665874,230899,1290660,69083,6927,644497,0
1,-1,665196,230365,1214874,68954,6936,607082,0
1,-1,672547,232440,1343460,69732,7752,671471,0
1,-1,666238,231101,1372412,69017,8141,685807,0
1,-1,668846,231381,1253405,69093,7739,626335,0
1,-1,670625,230964,1175571,68962,7714,587410,0
1,-1,669267,231838,1312998,69499,8220,655973,0
1,-1,671489,231943,1316524,69378,9034,657185,0
1,-1,677690,233191,1355957,70116,8321,677339,0
1,-1,670366,231325,1234011,69106,7109,616649,0
1,-1,674603,232169,1329873,69208,8192,664548,0
1,-1,667089,231736,1245440,69154,8652,622203,0
1,-1,667402,231670,1394674,69118,9247,696305,0
1,-1,668810,231023,1229196,68851,7320,614243,0
1,-1,670352,231515,1265427,69166,7600,632403,0
1,-1,672190,231334,1283405,69024,9360,640774,0
1,-1,668177,231734,1345431,69222,8646,672370,0
1,-1,667233,230767,1313674,68922,7931,656613,0
1,-1,666282,230164,1327743,68755,7988,663361,0
1,-1,673710,232045,1352200,69504,8441,675487,0
1,-1,667425,230351,1180902,68734,7790,590197,0
1,-1,668931,230271,1343504,68816,8724,671403,0
1,-1,670935,230495,1312912,68961,8125,655934,0
1,-1,686581,234875,1211775,72077,8518,605517,0
1,-1,664675,230362,1232927,68762,7268,616174,0
1,-1,668976,231050,1243569,69027,7897,621465,0
1,-1,666656,230858,1250795,69023,7548,625030,0
1,-1,688285,235475,1289169,72316,8321,644190,0
1,-1,669339,230003,1229553,68753,8475,614449,0
1,-1,668384,231475,1301075,69394,7561,650029,0
1,-1,667335,230716,1157205,68859,6949,578344,0
1,-1,673098,231926,1326417,69440,8887,662705,0
1,-1,670719,230589,1324496,68833,7956,661919,0
1,-1,670476,230969,1190628,68828,8352,594938,0
1,-1,672710,231424,1236096,68979,7873,617686,0
1,-1,670427,230734,1222387,68736,8088,610402,0
1,-1,665724,231596,1276779,68991,7524,637848,0
1,-1,665123,230465,1263555,68680,8769,631235,0
1,-1,668669,231021,1443706,68898,9017,721239,0
1,-1,668149,230270,1218049,68684,7153,608692,0
1,-1,664617,230210,1437947,68729,9062,718564,0
1,-1,666061,229819,1274957,68549,8099,637089,0
1,-1,691387,235787,1319781,72322,9407,659536,0
1,-1,664009,229932,1348450,68548,8060,673799,0
1,-1,668576,230960,1328450,68914,7815,663812,0
1,-1,671531,231895,1249480,69507,8473,623997,0
1,-1,667231,230648,1272285,68866,7562,635869,0
1,-1,668999,230554,1273168,68836,8172,636072,0
1,-1,688336,234881,1253809,72051,9257,626663,0
1,-1,672721,230155,1327533,68669,7375,663383,0
1,-1,665959,230545,1209363,68877,7456,604016,0
1,-1,690408,235345,1259734,72228,9468,629359,0
1,-1,666041,229748,1344451,68528,8189,671855,0
1,-1,669115,230023,1329167,68610,7773,664080,0
1,-1,669559,230173,1274049,68707,7678,636793,0
1,-1,668146,230428,1321841,68778,8272,660205,0
1,-1,665604,230442,1366374,68732,8051,682771,0
1,-1,668415,230594,1360199,68853,7992,679600,0
1,-1,692453,236383,1363087,72526,8716,681083,0
1,-1,695879,239242,1413702,71331,8184,706481,0
1,-1,669643,230830,1396404,68903,8137,697782,0
1,-1,675295,231702,1308919,69282,8322,653901,0
1,-1,669362,229861,1378165,68482,7536,688718,0
1,-1,660266,230542,1248412,68263,7281,623876,0
1,-1,680692,234730,1416306,71489,8191,707733,0
1,-1,663305,230455,1218364,68260,7303,608947,0
1,-1,663048,230549,1425969,68329,7917,712600,0
1,-1,661244,229780,1324149,67998,8049,661695,0
1,-1,685112,235064,1415455,71582,8781,707357,0
1,-1,665331,230821,1426857,68413,7971,712908,0
1,-1,661135,230586,1292729,68289,8515,645942,0
1,-1,663881,230229,1379183,68299,8533,689289,0
1,-1,683617,234531,1354149,71563,8799,676681,0
1,-1,667439,230750,1277497,69410,8798,638415,0
1,-1,666994,230262,1223179,69197,8395,611354,0
1,-1,669370,231652,1407537,69821,9689,703170,0
1,-1,663746,230286,1196411,69285,8350,597851,0
1,-1,686081,234171,1478378,72322,9281,738784,0
1,-1,667359,230432,1338198,69290,8200,668688,0
1,-1,666030,230384,1257857,69223,7427,628623,0
1,-1,666189,230216,1247897,69171,8508,623637,0
1,-1,694412,235477,1358962,72734,9129,679104,0
1,-1,667465,229830,1312948,69014,8741,656158,0
1,-1,668907,229875,1225412,69059,7869,612365,0
1,-1,668477,230677,1178774,69271,8033,589075,0
1,-1,670364,230708,1225098,69350,7768,612182,0
1,-1,664739,231047,1237105,69597,8256,618013,0
1,-1,663879,230183,1310162,69147,8116,654739,0
1,-1,665325,230223,1301157,69181,7511,650228,0
1,-1,666264,229537,1411004,68894,8166,705194,0
1,-1,665903,230444,1219086,69209,7807,609310,0
1,-1,671145,231490,1214590,69814,7200,606747,0
1,-1,667911,229712,1305349,69003,7933,652299,0
1,-1,665487,229904,1244493,69049,8229,621925,0
1,-1,665913,230267,1317653,69235,8501,658470,0
1,-1,672504,232195,1232593,70080,7914,615656,0
1,-1,669198,230571,1264400,69287,7756,631795,0
1,-1,667412,230215,1320808,69206,7917,659740,0
1,-1,670425,230649,1262255,69308,7314,630862,0
1,-1,668238,231825,1220096,69957,8665,609412,0
1,-1,665379,229904,1225724,69082,7088,612470,0
1,-1,671727,231711,1227818,69862,8065,613408,0
1,-1,667135,230447,1195190,69224,7015,597173,0
1,-1,690584,235253,1386872,72508,8545,693007,0
1,-1,690486,234680,1540973,72426,9311,770025,0
1,-1,671200,231540,1242931,69646,7627,620866,0
1,-1,673538,232335,1237847,70171,8100,618318,0
1,-1,671674,230224,1358022,69175,8359,678911,0
1,-1,670356,231129,1241887,69464,7455,620552,0
1,-1,668495,229612,1381786,68991,8312,690536,0
1,-1,672445,230308,1176777,69262,8161,588035,0
1,-1,664133,230655,1297629,69337,7731,648427,0
1,-1,672889,232481,1233903,70129,8019,616421,0
1,-1,668293,231099,1321342,69531,8463,660366,0
1,-1,671062,231816,1326956,69746,8114,663150,0
1,-1,668770,230663,1343161,69409,8119,671176,0
1,-1,668201,230603,1410465,69444,8121,704870,0
1,-1,667189,231302,1310661,69682,8106,654956,0
1,-1,669292,231048,1245553,69515,7587,622406,0
1,-1,669619,231235,1233376,69445,8461,616422,0
1,-1,673797,231513,1359892,69638,8539,679648,0
1,-1,671487,231073,1322419,69458,8090,660869,0
1,-1,670953,231363,1313302,69580,8036,656233,0
1,-1,672711,231119,1305867,69508,7781,652610,0
1,-1,671130,231976,1231509,69804,7242,615388,0
1,-1,670231,231966,1354621,69777,7897,676945,0
1,-1,675513,233158,1319404,70302,7622,659134,0
1,-1,679068,234375,1196940,70750,8316,597806,0
1,-1,673115,232869,1477049,69865,8767,738183,0
1,-1,695058,236657,1376142,72893,9081,687663,0
1,-1,671523,230970,1280298,69284,7994,639815,0
1,-1,675873,233054,1254019,70176,7532,626364,0
1,-1,672899,231124,1405425,69421,8612,702047,0
1,-1,673692,231591,1391847,69521,8198,695559,0
1,-1,671029,230554,1211633,69208,7415,605457,0
1,-1,675246,231504,1408077,69541,8681,703674,0
1,-1,669047,231638,1307625,69610,7280,653428,0
1,-1,692989,235720,1395645,72723,9605,697505,0
1,-1,669104,231396,1398809,69520,7895,699074,0
1,-1,672704,232093,1338681,69673,7827,668764,0
1,-1,675216,232527,1329441,69901,8279,664331,0
1,-1,669287,230685,1220763,69221,7019,610089,0
1,-1,674915,231978,1220967,69763,7506,610176,0
1,-1,672516,231564,1261038,69603,8097,630267,0
1,-1,668675,230565,1327615,69274,8212,663508,0
1,-1,676994,232884,1259524,70101,7956,629213,0
1,-1,673037,230703,1299981,69202,8097,649211,0
1,-1,667103,230680,1213620,69108,8321,606476,0
1,-1,674536,232149,1287873,69886,8054,643359,0
1,-1,670992,230947,1343853,69300,7084,671317,0
1,-1,671996,231836,1204626,69776,8232,601821,0
1,-1,670167,230287,1215271,69035,8066,607284,0
1,-1,669406,230030,1217653,68999,8283,608467,0
1,-1,674113,230916,1342147,69296,8729,670734,0
1,-1,666731,230209,1286414,69099,7486,642899,0
1,-1,667517,230151,1212478,69164,7611,605903,0
1,-1,669983,229876,1191196,69136,8106,595284,0
1,-1,672671,231015,1323681,69796,8506,661304,0
1,-1,676253,232376,1428510,70280,8340,713736,0
1,-1,660873,229644,1193173,69113,6227,596262,0
1,-1,663214,229897,1302214,69235,8880,650642,0
1,-1,668033,231402,1265595,69915,8498,632152,0
1,-1,667232,229821,1313765,69183,8217,656533,0
1,-1,664170,230348,1201447,69377,7319,600296,0
1,-1,666966,229509,1317493,69093,7606,658488,0
1,-1,666000,229612,1214653,69115,7279,606981,0
1,-1,661354,229553,1301335,69098,7589,650351,0
1,-1,659962,228623,1186432,68868,7218,592807,0
1,-1,667449,231638,1320318,69938,7779,659671,0
1,-1,690625,235489,1456344,72709,8559,727871,0
2,-1,718329,248596,1261594,73789,6618,630215,0
2,-1,723492,250198,1402679,74386,8020,700864,0
2,-1,718006,248438,1520512,73731,7890,759668,0
2,-1,707836,245720,1283351,72861,8165,641429,2
2,-1,665853,230438,1228788,68902,7070,614003,0
2,-1,665377,229997,1340936,68583,8907,670172,0
2,-1,664424,229800,1184235,68764,7882,591691,0
2,-1,666584,230220,1283434,68751,7401,641288,0
2,-1,667828,230145,1302879,68809,7699,651075,0
2,-1,681925,234506,1328206,72067,7960,663723,0
2,-1,661383,230218,1345508,68859,7759,672237,0
2,-1,661841,229866,1305761,68756,7126,652547,0
2,-1,680084,233605,1374929,71773,8297,687085,0
2,-1,664182,230031,1243689,68804,7481,621372,0
2,-1,668429,230875,1338996,69042,8087,669017,0
2,-1,664261,230197,1333317,68884,8436,666176,0
2,-1,664535,229979,1392685,68760,8740,695971,0
2,-1,669021,230403,1184975,68967,7622,592030,0
2,-1,666599,230429,1251256,68933,7197,625220,0
2,-1,669844,231054,1222071,69074,7383,610716,0
2,-1,674020,232153,1395154,69514,8658,697117,0
2,-1,665710,230559,1294524,68868,7716,646919,0
2,-1,674017,233276,1454240,70021,8900,726436,0
2,-1,669546,231249,1256633,69128,8185,627921,0
2,-1,669607,231452,1349827,69227,8437,674373,0
2,-1,666993,229717,1345753,68672,9140,672321,0
2,-1,670505,232605,1470024,69906,9582,734435,0
2,-1,668710,231045,1294265,69232,8821,646639,0
2,-1,673037,232500,1374549,69926,8882,686713,0
2,-1,666857,230798,1258887,69150,8580,629086,0
2,-1,674230,232123,1391128,69735,9234,694930,0
2,-1,676346,232660,1395602,69990,9172,697074,0
2,-1,660481,230529,1337453,69029,8133,668381,0
2,-1,665179,231382,1342373,69323,8198,670833,0
2,-1,662336,230444,1218236,69037,8126,608711,0
2,-1,682237,234959,1309832,72299,8693,654539,0
2,-1,665578,231472,1235533,69554,7447,617271,0
2,-1,684966,234892,1232416,72234,7735,615780,0
2,-1,662899,231009,1321885,69225,9122,660550,0
2,-1,663131,230351,1404894,68940,8549,702038,0
2,-1,665340,230859,1373824,69141,7788,686586,0
2,-1,667930,230797,1265477,69055,7705,632369,0
2,-1,666726,231155,1407113,69123,8178,703308,0
2,-1,668745,231740,1322973,69375,7874,661181,0
2,-1,670536,231459,1539772,69241,8828,767548,0
2,-1,664515,231014,1358811,69125,7764,678969,0
2,-1,662781,230377,1313716,68880,7923,656564,0
2,-1,663155,230839,1347565,69023,7518,673402,0
2,-1,664813,230206,1531331,68862,9904,765301,0
2,-1,667648,231251,1280957,69205,7459,640101,0
2,-1,663674,230557,1286964,68973,8922,642823,0
2,-1,665913,230696,1385289,69035,7014,692243,0
2,-1,673703,232700,1315352,69908,7761,657089,0
2,-1,671198,232103,1241297,69659,7849,620133,0
2,-1,665994,230295,1234664,68868,7035,617014,0
2,-1,690338,235141,1295143,72216,8817,647151,0
2,-1,668592,232134,1231890,69661,7685,615360,0
2,-1,664757,230848,1214301,69045,7315,606792,0
2,-1,664119,229891,1297862,68713,7447,648630,0
2,-1,667307,230597,1270839,68963,7756,635132,0
2,-1,666870,231279,1314953,69188,7156,657107,0
2,-1,668359,230937,1326297,69135,7614,662636,0
2,-1,666317,230833,1319028,68976,7698,659131,0
2,-1,664574,230716,1362068,68962,7961,680694,0
2,-1,672813,232110,1267862,69659,8271,633435,0
2,-1,665995,230632,1317977,68929,7401,658562,0
2,-1,667877,231304,1349482,69127,7963,674346,0
2,-1,672526,232143,1354699,69752,7300,676781,0
2,-1,672308,233062,1310369,70044,7704,654563,0
2,-1,665539,230734,1287430,68974,6732,643384,0
2,-1,667677,230397,1350902,68899,8239,675352,0
2,-1,672951,232981,1389873,69947,8316,694350,0
2,-1,665354,230393,1144083,68694,6810,571749,0
2,-1,668742,230748,1215192,68893,7891,607264,0
2,-1,673506,233096,1357187,70103,8520,677885,0
2,-1,669023,232048,1257782,69332,8171,628633,0
2,-1,694282,236277,1281156,72616,8408,640082,0
2,-1,674952,233483,1366104,70009,7899,682322,0
2,-1,673255,231977,1287648,69244,8263,643381,0
2,-1,688639,236180,1349038,72415,9927,674390,0
2,-1,673273,232502,1554866,69391,9966,778132,0
2,-1,669388,231646,1308681,69147,7733,654002,0
2,-1,669903,231081,1322754,68967,8393,660991,0
2,-1,667131,230843,1350008,68976,8682,674720,0
2,-1,677302,232516,1432389,69568,9186,715715,0
2,-1,670901,232851,1344955,69887,7777,671921,0
2,-1,689207,235724,1295774,72377,8420,647522,0
2,-1,669618,230395,1338774,68785,8205,669046,0
2,-1,669059,230959,1257380,69008,8505,628321,0
2,-1,671373,231931,1317617,69589,8675,658240,0
2,-1,674246,232033,1341220,69618,8185,670173,0
2,-1,665218,230147,1188133,68779,7298,593684,0
2,-1,667975,231871,1326150,69480,8114,662574,0
2,-1,667075,230450,1316279,68790,8008,657808,0
2,-1,664199,230160,1339156,68749,8150,669289,0
2,-1,668135,231005,1218435,69088,7298,608804,0
2,-1,666915,229672,1290094,68680,8615,644683,0
2,-1,664859,230927,1399439,68980,7532,699349,0
2,-1,670575,232098,1221423,69572,7454,610099,0
2,-1,667995,230812,1303175,68867,8174,651265,0
2,-1,675684,232725,1330752,69687,8254,664922,0
2,-1,669838,230704,1240025,68694,8553,619687,0
2,-1,672078,231329,1215506,69000,7870,607386,0
2,-1,669566,230426,1344920,68572,8673,672140,0
2,-1,665364,230745,1369924,68673,7570,684713,0
2,-1,666880,230987,1168845,68858,7792,584125,0
2,-1,669215,231711,1221881,69113,7195,610525,0
2,-1,666001,230289,1225643,68701,7888,612421,0
2,-1,671495,232659,1306559,69750,7736,652693,0
2,-1,669718,230909,1315633,68981,8346,657537,0
2,-1,670406,230588,1344805,68842,9984,672576,0
2,-1,667703,230646,1459926,68810,8914,729920,0
2,-1,668997,231619,1334072,69358,7843,666286,0
2,-1,689255,235446,1273554,72198,8661,636325,0
2,-1,668072,230401,1264722,68777,8111,631903,0
2,-1,667342,230249,1357291,68707,8486,678287,0
2,-1,668012,230653,1337812,68864,8302,668634,0
2,-1,674336,231799,1281267,69332,8155,640051,0
2,-1,672576,232400,1267855,69661,8177,633190,0
2,-1,662992,229463,1188682,68417,7660,593912,0
2,-1,670627,230855,1244816,68917,7863,622056,0
2,-1,667624,230344,1374712,68753,7653,687062,0
2,-1,668922,230172,1199577,68700,7650,599453,0
2,-1,668931,230026,1245172,68600,7916,622320,0
2,-1,672569,230764,1309478,68882,8340,654383,0
2,-1,666616,230379,1311696,68778,7342,655410,0
2,-1,666134,230138,1186764,68673,7256,593001,0
2,-1,673483,232349,1331981,69694,7592,665446,0
2,-1,670319,231498,1310907,69285,7357,654944,0
2,-1,671361,230185,1380915,68577,7977,690089,0
2,-1,669028,230129,1336241,68548,7223,667699,0
2,-1,657593,230179,1335931,68169,7135,667488,0
2,-1,662100,230834,1314828,68433,7411,657031,0
2,-1,660886,230182,1254124,68168,7572,626591,0
2,-1,689398,239388,1277589,70865,7582,638471,0
2,-1,660288,229882,1443077,68100,8228,721274,0
2,-1,665358,230500,1357734,68314,7950,678477,0
2,-1,668352,232011,1269682,68905,7726,634382,0
2,-1,661563,230727,1200525,68362,8163,599889,0
2,-1,664501,230896,1282684,68457,8259,641030,0
2,-1,661443,229718,1400764,68169,7893,700059,0
2,-1,666250,230565,1325580,69231,8789,662565,0
2,-1,670101,231374,1309924,69775,8407,654560,0
2,-1,668176,229963,1508253,69117,10442,753724,0
2,-1,666905,231865,1268882,69996,8884,633759,0
2,-1,665294,230261,1465350,69225,8901,732233,0
2,-1,664399,229764,1345782,69042,8200,672626,0
2,-1,663472,229847,1360401,69102,7997,679839,0
2,-1,666506,231022,1210137,69581,7541,604614,0
2,-1,670497,230413,1330021,69274,8796,664712,0
2,-1,667030,230123,1222503,69152,8580,610757,0
2,-1,666545,229606,1312297,68965,8373,655757,0
2,-1,666464,229799,1245868,68989,8406,622334,0
2,-1,666372,229505,1423405,68900,8249,711311,0
2,-1,660511,229713,1311381,69038,8381,655524,0
2,-1,664632,230950,1292992,69441,7929,646063,0
2,-1,663879,230019,1223908,69138,7675,611364,0
2,-1,672638,232374,1249952,70153,7787,624368,0
2,-1,669379,231171,1214061,69692,7492,606629,0
2,-1,665502,229824,1295128,69029,8095,647185,0
2,-1,672670,231973,1233893,70020,7372,616327,0
2,-1,667842,230708,1341684,69273,7962,670409,0
2,-1,666038,230587,1357336,69310,8698,678286,0
2,-1,668850,230455,1312205,69294,7840,655712,0
2,-1,668407,230151,1339433,69148,7530,669447,0
2,-1,665686,229884,1251272,69066,7142,625051,0
2,-1,670153,231200,1249672,69650,7031,624287,0
2,-1,661774,229685,1243972,68992,8084,621605,0
2,-1,670329,231518,1250355,69765,7546,624705,0
2,-1,669176,230534,1345967,69338,8053,672646,0
2,-1,667811,231055,1346506,69276,8012,672843,0
2,-1,670420,231358,1219913,69430,7596,609554,0
2,-1,667768,230122,1290809,69192,7061,644997,0
2,-1,664299,229853,1197382,68910,7771,598296,0
2,-1,689371,235116,1391220,72556,9061,695218,0
2,-1,670690,230986,1222008,69577,7845,610493,0
2,-1,667882,230318,1330160,69164,7886,664761,0
2,-1,693841,235170,1398289,72624,9098,698875,0
2,-1,674348,230948,1193540,69420,8509,596443,0
2,-1,664712,230505,1301604,69212,7754,650461,0
2,-1,665423,230110,1204524,69077,7675,601859,0
2,-1,669885,231378,1224078,69697,8354,611669,0
2,-1,668825,231259,1324470,69481,8097,661908,0
2,-1,669982,231250,1236659,69510,7608,618024,0
2,-1,672310,231377,1336395,69696,7888,667821,0
2,-1,666439,231114,1292902,69742,7870,646001,0
2,-1,673141,232943,1191547,70473,7787,595076,0
2,-1,674500,232926,1191475,70229,7968,595031,0
2,-1,673607,231473,1297424,69578,7648,648416,0
2,-1,671190,231387,1343176,69591,8017,671183,0
2,-1,668820,231071,1228673,69440,8578,613990,0
2,-1,679047,233071,1240687,70276,8412,619843,0
2,-1,668090,230924,1302417,69406,7096,650842,0
2,-1,670894,232297,1251997,69995,7692,625467,0
2,-1,670717,231674,1343105,69528,7553,671206,0
2,-1,720030,245397,1336003,75563,9623,667675,0
2,-1,671334,230787,1325843,69245,7890,662537,0
2,-1,672970,232159,1237526,69643,7554,618422,0
2,-1,689496,235410,1300653,72577,9182,650050,0
2,-1,669540,230964,1314811,69307,7115,656834,0
2,-1,670268,230078,1186971,68996,7228,593157,0
2,-1,671785,231198,1281914,69394,7874,640680,0
2,-1,671454,230846,1371331,69291,8489,685322,0
2,-1,672673,230823,1226655,69290,8190,613060,0
2,-1,666133,230450,1306034,69166,7986,652668,0
2,-1,672409,231989,1233855,69693,7695,616551,0
2,-1,669116,230778,1243161,69248,7698,621301,0
2,-1,672669,232613,1305788,70043,7181,652137,0
2,-1,671612,231525,1276004,69555,8347,637586,0
2,-1,670670,231640,1312232,69578,8065,655680,0
2,-1,670597,230404,1369963,69229,8317,684638,0
2,-1,673150,231704,1334319,69695,8598,666741,0
2,-1,669871,231295,1303004,69559,8474,651185,0
2,-1,672794,230997,1192263,69285,7812,595749,0
2,-1,698340,236262,1479957,72832,8987,739555,0
2,-1,673764,233134,1366896,70324,8592,682581,0
2,-1,692695,235924,1411821,72716,8353,705525,0
2,-1,671081,231047,1349974,69286,7625,674663,0
2,-1,671328,230902,1260286,69200,8611,629553,0
2,-1,703770,242083,1377010,72817,8350,687928,0
2,-1,676846,233263,1299365,70284,8589,648948,0
2,-1,671949,230514,1221146,69138,7939,610272,0
2,-1,669212,230309,1202541,69130,7666,600905,0
2,-1,670234,230771,1329415,69383,7786,664302,0
2,-1,667526,229693,1207570,69075,7443,603471,0
2,-1,669780,229695,1215461,69127,7793,607420,0
2,-1,666970,229634,1209424,69181,7897,604228,0
2,-1,670973,229137,1239977,68887,8445,619545,0
2,-1,662590,229961,1542389,69199,8916,770286,0
2,-1,663855,230133,1313368,69329,8205,656308,0
2,-1,671668,231959,1313845,70209,7985,656352,0
2,-1,665490,230927,1377773,69749,7496,688191,0
2,-1,666303,229808,1364388,69179,7396,681341,0
2,-1,665341,229975,1327556,69276,7619,663440,0
2,-1,665205,230603,1206212,69464,8037,602744,0
2,-1,661854,229453,1304849,69059,7338,652099,0
2,-1,686527,235353,1375424,72707,8708,687384,0
2,-1,667332,230268,1314386,69220,7849,656757,0
3,-1,718386,248853,1358734,73797,7908,679016,0
3,-1,720549,249287,1369956,73980,8115,684596,0
3,-1,722870,248459,1316142,73710,8031,657937,0
3,-1,669481,232068,1341969,69698,7715,670436,0
3,-1,662533,230480,1296055,68820,7078,647527,2
3,-1,669685,231559,1360402,69345,8019,679631,0
3,-1,686990,234606,1242326,72130,8541,620811,0
3,-1,663416,229458,1193832,68492,6834,596567,0
3,-1,668793,230220,1321290,68677,8286,660376,0
3,-1,662018,229940,1308615,68687,7642,653951,0
3,-1,663425,230847,1294081,69007,8738,646531,0
3,-1,661519,229732,1249121,68694,7285,624121,0
3,-1,660539,229838,1329240,68723,8304,664157,0
3,-1,664023,229894,1316034,68739,7656,657561,0
3,-1,673904,232759,1371848,69934,8558,685277,0
3,-1,712249,243392,1465485,74699,9155,732195,0
3,-1,660469,229436,1298844,68560,8162,649033,0
3,-1,672128,232216,1274967,69833,7654,636725,0
3,-1,666286,230777,1311876,69062,7124,655525,0
3,-1,668869,230759,1303020,69012,7787,651043,0
3,-1,669189,230527,1292564,68894,8511,645799,0
3,-1,664056,230311,1334476,68775,8035,666891,0
3,-1,689226,235541,1473837,72262,9034,736601,0
3,-1,671123,231820,1390092,69484,8691,694210,0
3,-1,668929,231582,1443970,69440,8598,721370,0
3,-1,671320,231598,1433510,69350,9479,715892,0
3,-1,665591,230427,1357578,69064,9351,677983,0
3,-1,671946,231880,1347488,69677,8847,673209,0
3,-1,667974,230250,1359855,68968,8531,679581,0
3,-1,673951,231278,1372769,69243,8338,686170,0
3,-1,669515,230637,1277232,69088,8318,638202,0
3,-1,692394,235318,1350628,72393,9546,674977,0
3,-1,665064,230568,1309214,69046,7272,654226,0
3,-1,688246,239295,1382229,71614,7945,690653,0
3,-1,660595,230055,1371981,68871,8412,685633,0
3,-1,664272,230079,1268164,68917,8041,633764,0
3,-1,664831,230491,1167247,69076,7406,583263,0
3,-1,665094,231102,1305549,69269,6862,652341,0
3,-1,668060,230854,1559374,69207,10196,779168,0
3,-1,664679,231191,1267896,69232,7759,633328,0
3,-1,662631,230249,1211402,68976,7180,605184,0
3,-1,666049,230589,1370951,68958,7667,685182,0
3,-1,663851,230501,1422254,68956,8111,710707,0
3,-1,665452,230818,1258064,69019,7799,628689,0
3,-1,671401,232471,1614192,69800,10037,806001,0
3,-1,663102,231165,1235673,69171,7465,617407,0
3,-1,668917,232207,1354835,69706,7943,676875,0
3,-1,688934,235161,1350063,72224,9179,674696,0
3,-1,667087,231161,1319169,69136,7343,659270,0
3,-1,665908,230657,1352594,68949,7200,675954,0
3,-1,664828,229880,1364359,68669,8483,681643,0
3,-1,665176,230640,1207324,68967,7287,603340,0
3,-1,670140,231561,1337086,69312,8246,668174,0
3,-1,667630,230703,1168137,69042,6754,583703,0
3,-1,667355,230724,1353219,69052,7718,676267,0
3,-1,673190,232188,1365742,69632,8376,682388,0
3,-1,662039,230362,1199779,68897,8031,599509,0
3,-1,687066,235792,1285081,72445,8340,642254,0
3,-1,668975,232070,1334015,69551,7133,666506,0
3,-1,666097,230712,1229693,69036,7554,614574,0
3,-1,667637,230943,1241594,69125,7170,620438,0
3,-1,665480,230333,1286950,68826,6838,643210,0
3,-1,667471,231514,1214127,69303,7768,606679,0
3,-1,667231,230606,1417364,69023,8249,708302,0
3,-1,668832,230904,1233171,69122,7762,616203,0
3,-1,672208,232876,1325300,69992,8046,662048,0
3,-1,668863,230527,1225459,68906,7954,612354,0
3,-1,671271,231616,1419601,69320,7751,709366,0
3,-1,687925,235501,1270808,72351,8443,634982,0
3,-1,672148,232840,1334166,69930,7950,666594,0
3,-1,670637,231751,1242940,69374,7478,621129,0
3,-1,688313,235361,1263847,72237,8416,631545,0
3,-1,670397,231113,1424577,68970,8311,711924,0
3,-1,693965,236596,1239943,73099,9102,619643,0
3,-1,667577,230995,1236694,69063,7872,618019,0
3,-1,675041,232520,1417600,69529,9866,708860,0
3,-1,672968,231421,1362660,69302,7582,681005,0
3,-1,675593,233390,1354301,70220,8531,676502,0
3,-1,676682,233298,1332414,69849,8498,665732,0
3,-1,664751,232080,1284291,69272,7650,641806,0
3,-1,667483,230762,1281350,68751,8824,640284,0
3,-1,671809,232888,1329122,69735,8174,664037,0
3,-1,673465,233231,1322886,69981,8007,660952,0
3,-1,670071,231161,1473934,69051,10425,736619,0
3,-1,673284,231863,1484706,69175,9689,741478,0
3,-1,670086,231898,1319377,69277,7637,659394,0
3,-1,668362,231123,1468265,69109,7948,733720,0
3,-1,667071,230462,1330963,68766,7889,665157,0
3,-1,667407,230583,1267263,68871,7910,633204,0
3,-1,689257,235483,1257904,72348,8706,628564,0
3,-1,673426,231593,1251306,69267,8431,625281,0
3,-1,663928,230368,1235622,68852,7366,617419,0
3,-1,672508,231683,1261657,69160,7863,630506,0
3,-1,664795,230348,1225067,68763,7277,612194,0
3,-1,671746,233460,1323873,70072,8547,661339,0
3,-1,667855,231022,1217926,69193,7828,608453,0
3,-1,669269,231036,1352553,69223,8098,675742,0
3,-1,670414,230443,1218577,68841,8003,608960,0
3,-1,669872,231313,1243110,69077,7654,621203,0
3,-1,668093,230278,1406262,68687,8230,702770,0
3,-1,669602,230550,1317689,68757,6963,658472,0
3,-1,674528,233002,1236177,69731,8423,617545,0
3,-1,668159,230343,1353350,68605,8327,676356,0
3,-1,676839,233136,1386998,69727,8585,692850,0
3,-1,674686,230905,1358003,68716,7592,678595,0
3,-1,666908,231197,1258852,68885,8242,629068,0
3,-1,667094,230912,1217716,68839,7454,608500,0
3,-1,671837,232267,1324253,69620,8063,661419,0
3,-1,664744,230391,1320021,68765,8226,659610,0
3,-1,671307,232080,1358414,69498,7697,678572,0
3,-1,668516,230287,1198533,68746,8344,598594,0
3,-1,662873,229872,1238564,68512,7962,618941,0
3,-1,669682,231159,1331872,69016,7888,665635,0
3,-1,668371,230849,1285340,68918,8445,642103,0
3,-1,667475,230048,1217962,68688,7810,608477,0
3,-1,666206,230064,1371923,68626,8208,685699,0
3,-1,664839,229587,1409435,68480,8468,704388,0
3,-1,671369,230446,1261863,68821,7948,630525,0
3,-1,664707,230198,1296235,68726,7661,647779,0
3,-1,666730,231206,1232681,69033,7477,615862,0
3,-1,674261,232810,1228326,69849,7642,613403,0
3,-1,666096,230093,1306075,68639,7569,652676,0
3,-1,669944,230494,1359681,68750,8402,679554,0
3,-1,675174,232415,1275121,69568,7358,637061,0
3,-1,669689,229948,1210739,68597,7891,604972,0
3,-1,665533,229839,1323985,68571,7707,661606,0
3,-1,673952,231252,1214785,69230,8162,606638,0
3,-1,691718,236152,1384957,72440,8308,691914,0
3,-1,675706,231942,1351065,69515,8916,674756,0
3,-1,669785,230247,1266344,68650,7646,632825,0
3,-1,672008,230938,1271018,68862,7144,635194,0
3,-1,657020,230371,1314527,68232,7038,656886,0
3,-1,660702,230492,1225380,68220,7045,612355,0
3,-1,663778,230895,1316337,68444,7108,657632,0
3,-1,663085,230338,1359860,68260,7852,679516,0
3,-1,664903,231853,1315934,68998,8435,657354,0
3,-1,664394,230249,1268064,68179,7664,633733,0
3,-1,660251,229150,1211209,67924,7736,605266,0
3,-1,660232,230579,1260403,68353,8700,629780,0
3,-1,667508,232439,1368371,69179,8029,683514,0
3,-1,660316,230174,1352179,68298,8320,675733,0
3,-1,662238,230584,1409960,68486,8203,704426,0
3,-1,665382,229747,1342964,69016,8448,671103,0
3,-1,666010,229277,1464177,68796,9283,731526,0
3,-1,670800,230507,1343700,69247,8866,671457,0
3,-1,664630,230408,1263025,69244,8038,631194,0
3,-1,666501,230384,1253128,69257,8506,626184,0
3,-1,666344,231103,1358190,69598,8776,678600,0
3,-1,665587,230110,1258241,69192,8106,628758,0
3,-1,668533,230022,1253311,69051,8641,626177,0
3,-1,689209,235554,1325922,72701,10274,662021,0
3,-1,666363,229771,1345155,69026,8475,672039,0
3,-1,670191,231537,1191015,69776,8320,594972,0
3,-1,666147,230095,1281821,69133,7656,640401,0
3,-1,673065,230595,1356307,69294,8205,677772,0
3,-1,665964,230113,1341560,69189,9087,670400,0
3,-1,667247,229781,1216382,69039,8374,607814,0
3,-1,665967,230147,1338722,69187,8197,669010,0
3,-1,666557,230432,1311464,69210,7347,655394,0
3,-1,664300,229802,1264549,69031,7628,631743,0
3,-1,688888,234682,1354106,72474,8934,676674,0
3,-1,666534,230541,1310947,69281,7787,655049,0
3,-1,671442,232435,1261131,70225,8090,630163,0
3,-1,669487,231232,1251947,69689,8183,625489,0
3,-1,667908,230344,1376103,69228,8073,687656,0
3,-1,692551,235274,1381304,72666,9414,690385,0
3,-1,669823,230695,1352417,69276,8443,675834,0
3,-1,672604,230293,1321304,69237,7902,660166,0
3,-1,665675,230122,1294296,69150,7854,646808,0
3,-1,666432,229985,1303892,69115,8257,651520,0
3,-1,668413,231695,1211555,69716,7989,605173,0
3,-1,668417,230380,1347120,69149,8081,673230,0
3,-1,670852,230434,1331989,69275,8183,665592,0
3,-1,669629,232211,1209377,69968,8627,604140,0
3,-1,668000,230396,1313808,69162,8141,656502,0
3,-1,667764,229900,1223991,69074,7479,611602,0
3,-1,696587,239667,1356620,71996,7280,677927,0
3,-1,670541,230539,1248805,69226,7441,624017,0
3,-1,669732,229561,1242355,68889,8584,620806,0
3,-1,660549,229753,1197957,69008,7383,598698,0
3,-1,671158,232213,1306910,70141,8217,652867,0
3,-1,670810,232159,1178217,70097,8295,588403,0
3,-1,667495,230950,1203854,69431,7394,601576,0
3,-1,669529,231058,1315914,69433,8597,657549,0
3,-1,676553,232969,1251531,70478,7477,625232,0
3,-1,668368,230927,1439351,69540,7632,719293,0
3,-1,667617,231132,1181176,69530,7121,590259,0
3,-1,669860,231539,1261852,69638,8462,630378,0
3,-1,675249,232964,1240292,70281,7698,619554,0
3,-1,673212,232500,1361928,70108,7717,680343,0
3,-1,679746,233678,1197138,70560,8297,598042,0
3,-1,672803,231410,1441060,69540,8334,720235,0
3,-1,667425,230997,1273308,69408,7470,636315,0
3,-1,668688,231663,1340009,69672,8251,669575,0
3,-1,670398,231501,1306370,69508,7667,652841,0
3,-1,672271,232077,1281952,69647,8380,640598,0
3,-1,671076,230763,1325408,69108,8112,662312,0
3,-1,670338,230998,1383730,69247,8097,691472,0
3,-1,671259,231794,1166221,69606,7230,582700,0
3,-1,670427,232385,1226015,69955,7063,612495,0
3,-1,675294,232826,1266213,70210,7686,632474,0
3,-1,693246,235878,1332441,72773,8210,665786,0
3,-1,675181,232680,1333651,70181,8301,666207,0
3,-1,675446,232638,1255390,70177,7768,627137,0
3,-1,668470,231495,1334346,69544,8288,666739,0
3,-1,669131,231025,1342334,69360,8076,670607,0
3,-1,671687,232730,1263253,70157,7778,630877,0
3,-1,673130,231123,1342294,69340,8376,670835,0
3,-1,680674,233848,1272051,70530,8596,635385,0
3,-1,669866,231602,1225279,69492,6812,612227,0
3,-1,670861,230822,1361264,69348,7741,680150,0
3,-1,692273,235520,1468485,72667,9152,733838,0
3,-1,675567,231202,1354523,69529,8376,676874,0
3,-1,671282,230855,1263542,69280,8246,631375,0
3,-1,673344,230812,1292412,69220,8153,645392,0
3,-1,693101,236799,1395830,73033,9382,697501,0
3,-1,670089,230598,1225246,69215,8119,612208,0
3,-1,677053,232804,1265079,70088,7965,632051,0
3,-1,670665,231158,1301275,69375,8738,649847,0
3,-1,671436,231111,1349586,69364,8099,674430,0
3,-1,691196,234880,1388684,72328,9128,694022,0
3,-1,672750,230821,1336047,69221,8510,667645,0
3,-1,670984,230920,1324289,69625,7781,661583,0
3,-1,671636,230165,1202999,69180,6581,601144,0
3,-1,668652,229978,1323709,69206,7769,661479,0
3,-1,674237,231856,1301757,70113,7782,650368,0
3,-1,672631,230208,1341327,69359,8600,670315,0
3,-1,670141,229370,1196020,69077,7635,597659,0
3,-1,665120,229978,1281276,69230,8529,640285,0
3,-1,662788,229583,1221134,69097,8214,610178,0
3,-1,687559,234656,1343066,72553,9049,671253,0
3,-1,663891,229508,1216735,69092,7671,608084,0
3,-1,667412,230360,1300730,69426,8015,650018,0
3,-1,672399,232146,1352098,70218,7758,675476,0
3,-1,667373,231950,1307546,70099,8350,653297,0
3,-1,670594,231899,1320526,70049,7500,659692,0
3,-1,670411,231392,1288873,69898,7854,643869,0
3,-1,665927,229472,1323422,68892,7701,661375,0
4,-1,716956,248172,1258546,73595,7248,629100,0
4,-1,718434,248614,1269865,73734,7757,634596,0
4,-1,722110,248936,1409907,73806,8340,704605,0
4,-1,685447,234635,1356333,72114,8537,677723,0
4,-1,665387,230340,1390782,68798,8282,694990,0
4,-1,664816,230485,1240721,68800,7853,620043,0
4,-1,668832,232379,1262729,69831,7947,630672,2
4,-1,671158,232690,1352422,69798,8173,675625,0
4,-1,666094,229669,1193866,68499,7610,596345,0
4,-1,665863,231106,1208958,69052,7579,604105,0
4,-1,667445,232082,1385266,69684,9262,691576,0
4,-1,664671,229786,1329906,68683,7817,664467,0
4,-1,670658,231323,1352732,69341,8068,675683,0
4,-1,668702,232403,1452627,69814,8273,724909,0
4,-1,664449,229762,1288579,68731,7870,643892,0
4,-1,662640,229730,1275055,68707,8123,637028,0
4,-1,663401,229068,1323159,68505,8160,661177,0
4,-1,684989,234099,1298273,72000,8175,648783,0
4,-1,668373,231396,1228744,69249,7323,613967,0
4,-1,668020,230686,1245619,69098,7247,622339,0
4,-1,667587,229984,1365177,68657,8256,682116,0
4,-1,665669,230673,1377020,68951,8610,687937,0
4,-1,670162,232477,1369644,69622,8535,684181,0
4,-1,667638,230534,1364996,68916,8725,682119,0
4,-1,666361,230871,1369184,69054,8166,684173,0
4,-1,668928,230858,1441296,69079,8556,720318,0
4,-1,691488,235293,1361832,72459,9600,680443,0
4,-1,693302,239373,1390491,71642,8654,694990,0
4,-1,668134,230556,1440773,69022,8668,719946,0
4,-1,669780,230714,1715936,69149,10500,857581,0
4,-1,668314,230207,1422356,68922,8433,710865,0
4,-1,668685,230065,1343610,68871,8909,671454,0
4,-1,672382,230228,1345139,68917,7770,672304,0
4,-1,661370,230688,1351663,69138,8514,675434,0
4,-1,663766,231093,1467418,69262,9238,733368,0
4,-1,665001,230361,1355048,69025,8036,677127,0
4,-1,663914,230261,1247550,68935,7327,623351,0
4,-1,664109,230322,1335193,68942,7677,667241,0
4,-1,665580,229987,1339942,68846,8134,669667,0
4,-1,667366,232582,1423591,69946,9395,711273,0
4,-1,667268,231967,1355571,69612,8457,677217,0
4,-1,667880,231102,1246457,69168,7741,622986,0
4,-1,667791,232096,1458934,69639,8982,728967,0
4,-1,666527,230536,1253005,69017,8976,625946,0
4,-1,670628,232149,1327026,69450,9018,663132,0
4,-1,664072,231144,1197501,69190,7765,598319,0
4,-1,685402,235343,1322458,72330,8314,660846,0
4,-1,667615,230772,1368057,69052,8332,683643,0
4,-1,667942,231841,1353383,69570,7980,676108,0
4,-1,669662,232162,1367433,69387,7523,683336,0
4,-1,670581,231483,1642324,69280,10332,821243,0
4,-1,668647,232353,1234998,69719,7584,616953,0
4,-1,672771,232409,1360645,69755,7174,679785,0
4,-1,687375,235718,1340023,72473,8308,669567,0
4,-1,670654,230879,1293474,69063,8115,646343,0
4,-1,668293,230738,1330640,68926,7848,665030,0
4,-1,667142,232577,1338543,69876,7712,668684,0
4,-1,693758,240283,1337701,71848,7431,668507,0
4,-1,665668,231220,1217056,69146,6708,608156,0
4,-1,663299,230169,1172389,68818,7048,585932,0
4,-1,688781,235248,1410503,72316,7860,704989,0
4,-1,672666,232871,1339531,69915,8453,669306,0
4,-1,664093,230367,1280512,68885,7221,639944,0
4,-1,667458,231045,1376775,69104,7406,688123,0
4,-1,667080,230646,1368678,68990,7962,683968,0
4,-1,689272,235171,1256361,72198,8053,627787,0
4,-1,690436,235366,1278110,72307,8381,638654,0
4,-1,666271,230193,1284436,68818,6993,641886,0
4,-1,665087,230731,1320689,69003,7130,660030,0
4,-1,689901,236199,1276355,72566,8155,637611,0
4,-1,666520,230228,1321347,68835,8196,660353,0
4,-1,667020,231080,1326433,69046,7950,662858,0
4,-1,672035,232581,1336806,69694,8378,667967,0
4,-1,670785,231722,1231314,69207,8187,615025,0
4,-1,670975,232480,1406169,69745,8280,702503,0
4,-1,676787,233193,1352151,69909,9152,675927,0
4,-1,677704,233142,1391620,69948,8099,695309,0
4,-1,692436,236600,1285422,72791,8306,642305,0
4,-1,674040,231939,1338249,69179,8589,668730,0
4,-1,696385,236516,1421057,72504,9530,709586,0
4,-1,674136,233264,1402723,69816,9225,701525,0
4,-1,670442,231347,1360827,68997,7862,680085,0
4,-1,668087,231222,1314387,69063,8260,656866,0
4,-1,673714,232738,1403448,69802,9162,701544,0
4,-1,672711,231508,1380781,69109,9654,689847,0
4,-1,672112,232631,1320502,69696,8501,659737,0
4,-1,667113,230928,1233866,69021,7686,616509,0
4,-1,692247,236106,1432052,72495,8461,715618,0
4,-1,665494,230188,1229258,68671,7821,614301,0
4,-1,670495,231110,1342627,69143,7899,670927,0
4,-1,668590,230164,1304070,68740,7944,651690,0
4,-1,665643,230578,1231814,68971,7891,615479,0
4,-1,667163,231248,1242163,69075,7205,620629,0
4,-1,674216,232858,1389616,69765,8293,694285,0
4,-1,688443,234857,1286926,72076,8367,643161,0
4,-1,666662,229877,1304395,68665,8133,651900,0
4,-1,669058,230784,1335647,69043,7647,667800,0
4,-1,670004,230919,1343663,69086,8172,671398,0
4,-1,668273,230630,1182120,68929,7606,590676,0
4,-1,669484,231722,1284539,69260,8036,641912,0
4,-1,669486,230494,1461217,68774,7989,730209,0
4,-1,668364,230685,1250645,68744,8489,624929,0
4,-1,691962,235658,1304559,72124,9400,651951,0
4,-1,674059,232265,1316424,69389,8195,657760,0
4,-1,673247,230641,1377808,68654,8090,688568,0
4,-1,687969,235887,1253076,72180,8785,626108,0
4,-1,666788,230481,1314749,68660,7791,657004,0
4,-1,665317,230211,1228402,68679,7259,613830,0
4,-1,663615,230003,1188798,68612,7469,594054,0
4,-1,667039,230182,1402825,68678,8582,701015,0
4,-1,689634,235164,1256040,72111,8886,627512,0
4,-1,670576,231471,1312795,69281,7791,655856,0
4,-1,668571,231802,1309937,69417,7786,654322,0
4,-1,668665,231284,1344845,69067,8331,671964,0
4,-1,690218,234860,1428139,72040,9504,713748,0
4,-1,672225,232748,1352392,69766,8023,675470,0
4,-1,668901,230664,1340808,68886,8467,669886,0
4,-1,669318,229979,1315887,68627,8416,657593,0
4,-1,667186,231165,1270821,69196,7642,634800,0
4,-1,671893,232148,1362933,69605,8170,680098,0
4,-1,717513,244837,1430482,74980,8575,714435,0
4,-1,666771,230712,1401473,68834,7803,700332,0
4,-1,668963,230642,1380498,68854,7942,689816,0
4,-1,667187,230029,1233019,68659,7712,616143,0
4,-1,672756,230879,1356166,68914,8402,677631,0
4,-1,668725,230016,1231099,68633,7574,615199,0
4,-1,672395,231190,1250303,69034,8235,624669,0
4,-1,670239,230277,1261405,68705,7877,629790,0
4,-1,671694,230644,1338200,68869,8596,668722,0
4,-1,669455,230549,1345350,68638,7254,672531,0
4,-1,668916,229944,1378667,68509,7895,688811,0
4,-1,672513,230892,1248432,68780,6441,623877,0
4,-1,660981,230962,1324281,68496,8037,661733,0
4,-1,680058,234625,1348076,71446,9131,673686,0
4,-1,666851,231889,1298875,68912,7540,648906,0
4,-1,661766,230574,1359918,68344,8652,679402,0
4,-1,666527,231505,1224583,68797,7594,611779,0
4,-1,671000,232934,1271399,69412,7593,635075,0
4,-1,665641,232501,1277108,69117,7859,638018,0
4,-1,663519,229882,1279810,68084,8195,639507,0
4,-1,685439,234619,1381129,71574,8696,690225,0
4,-1,660285,229818,1308869,68188,7883,654186,0
4,-1,666598,230167,1338999,69159,8370,669192,0
4,-1,672202,232318,1389412,70170,9895,694001,0
4,-1,672908,231402,1353808,69778,9098,676306,0
4,-1,664596,229833,1322007,69043,8582,660537,0
4,-1,669489,232355,1337268,70064,8507,668102,0
4,-1,681732,234271,1401534,72279,9283,700455,0
4,-1,671959,232033,1293199,70028,8056,645925,0
4,-1,668084,229994,1354809,69104,8122,677000,0
4,-1,666755,229924,1264107,69071,9247,631674,0
4,-1,670927,232023,1240304,69987,8117,619277,0
4,-1,670304,230935,1372401,69442,8080,685858,0
4,-1,666009,230488,1188177,69255,7276,593587,0
4,-1,669187,229948,1247197,69092,8165,623311,0
4,-1,665932,230428,1370192,69223,9015,684829,0
4,-1,669464,231264,1334435,69563,8821,666821,0
4,-1,666453,230146,1304785,69137,8205,652031,0
4,-1,664660,229902,1310431,69073,7692,654788,0
4,-1,685907,234713,1275630,72498,9362,637387,0
4,-1,668117,229947,1222431,69029,7429,610871,0
4,-1,664634,229938,1281346,69091,7170,640326,0
4,-1,687483,233929,1274954,72207,8808,637042,0
4,-1,665384,229816,1369412,68998,8348,684330,0
4,-1,669878,231170,1233519,69664,7350,616245,0
4,-1,668487,230127,1239542,69190,7393,619441,0
4,-1,670829,230734,1338934,69267,7834,668953,0
4,-1,673507,231107,1245445,69636,8107,622179,0
4,-1,666577,230157,1278289,69188,8175,638799,0
4,-1,688078,235128,1483347,72609,9518,741251,0
4,-1,671586,230935,1346474,69399,8904,672891,0
4,-1,672653,231551,1240271,69894,8104,619559,0
4,-1,689871,234843,1432315,72400,9588,715718,0
4,-1,671103,230172,1161336,69070,7844,580275,0
4,-1,666875,230355,1334661,69152,8066,666933,0
4,-1,670587,231306,1289798,69554,8077,644619,0
4,-1,667492,230474,1300734,69280,7957,650028,0
4,-1,667648,229748,1341618,69002,7522,670531,0
4,-1,670599,230467,1327471,69254,8742,663365,0
4,-1,692617,234654,1381821,72412,8735,690518,0
4,-1,687023,234869,1387600,72601,9875,693176,0
4,-1,671180,232396,1346272,69940,8155,672788,0
4,-1,669625,232280,1238434,70009,7808,618840,0
4,-1,670108,230953,1322841,69441,8500,661087,0
4,-1,670653,231063,1324922,69575,7601,662203,0
4,-1,672336,230917,1337131,69543,8072,668130,0
4,-1,668667,231579,1293050,69677,7733,646183,0
4,-1,667067,230867,1241986,69333,8498,620616,0
4,-1,693345,236314,1381898,72977,9465,690589,0
4,-1,668879,231078,1216840,69387,7687,608123,0
4,-1,671998,231675,1457827,69694,8442,728544,0
4,-1,676438,232973,1364794,70344,8334,681739,0
4,-1,671528,232687,1238338,70180,7233,618632,0
4,-1,670973,232223,1326415,69870,7917,662761,0
4,-1,672628,231550,1331400,69573,8106,665375,0
4,-1,670137,231605,1234812,69525,8494,617025,0
4,-1,696051,237191,1412082,73061,8876,705788,0
4,-1,676094,232503,1248727,69943,8303,623841,0
4,-1,669844,231799,1212250,69620,7911,605679,0
4,-1,672314,231288,1333177,69346,7482,666181,0
4,-1,691858,235851,1410072,72758,8620,704677,0
4,-1,669485,230969,1224512,69373,7807,612009,0
4,-1,694566,236171,1408712,72828,8843,703963,0
4,-1,692436,235915,1363224,72717,9331,681373,0
4,-1,672733,232996,1234784,70325,8336,616881,0
4,-1,665786,230389,1359372,69153,8610,679185,0
4,-1,673215,232482,1273582,69845,7857,636430,0
4,-1,675521,232890,1225500,70104,7624,612134,0
4,-1,697192,236955,1371866,73128,9060,685517,0
4,-1,668941,231450,1374264,69445,8280,686804,0
4,-1,671751,231662,1239747,69649,7490,619395,0
4,-1,672912,231506,1293824,69650,7313,646522,0
4,-1,674061,231114,1241183,69456,7520,620193,0
4,-1,699608,240771,1359317,72285,8255,679304,0
4,-1,671586,230550,1368628,69142,8381,683903,0
4,-1,667176,230872,1228401,69312,8268,613860,0
4,-1,671276,231393,1234208,69632,8453,616608,0
4,-1,669853,231022,1328463,69334,7839,663915,0
4,-1,669853,231284,1369510,69354,8083,684396,0
4,-1,670074,230717,1252345,69202,7666,625842,0
4,-1,670358,230548,1328635,69128,7900,663926,0
4,-1,693834,235721,1383676,72653,8994,691459,0
4,-1,669091,230479,1333788,69222,7651,666534,0
4,-1,670294,230060,1342493,69128,7517,670864,0
4,-1,671622,230146,1252156,69292,7464,625735,0
4,-1,668021,229829,1350211,69228,7567,674720,0
4,-1,672683,230086,1207434,69297,8510,603424,0
4,-1,675550,231836,1250191,70034,7803,624565,0
4,-1,663917,229995,1329563,69259,8544,664015,0
4,-1,662981,230276,1340802,69392,7759,670027,0
4,-1,666559,230077,1199977,69298,7324,599670,0
4,-1,663796,229469,1213616,69063,7939,606494,0
4,-1,692719,239341,1265714,72043,7023,632465,0
4,-1,664516,229431,1301361,69049,7210,650208,0
4,-1,663309,230625,1304583,69478,8066,651965,0
4,-1,663409,229525,1299374,69081,7328,649347,0
4,-1,666963,230601,1259880,69492,7287,629568,0
4,-1,668837,231008,1284137,69445,7048,641778,0
5,-1,720521,249077,1291999,73937,8231,645435,0
5,-1,720312,249086,1276004,73891,7671,637625,0
5,-1,723428,249557,1389533,74068,8644,694457,0
5,-1,665519,231630,1272556,69347,7232,635712,0
5,-1,664880,229972,1304377,68592,6852,651601,0
5,-1,663879,230039,1175055,68783,7586,587127,0
5,-1,668319,229977,1242609,68677,8010,620845,0
5,-1,672597,232279,1316505,69541,7881,657747,0
5,-1,661272,230631,1150103,68986,7312,574670,2
5,-1,664668,231036,1315605,69086,7648,657600,0
5,-1,686052,234611,1343256,72041,8572,671753,0
5,-1,667471,231126,1317418,69126,7641,657917,0
5,-1,665725,229870,1308357,68774,7957,653836,0
5,-1,683736,235014,1368013,72227,8523,683456,0
5,-1,664890,230132,1267413,68842,7939,633304,0
5,-1,665644,230693,1225985,69036,8050,612516,0
5,-1,669436,231604,1478016,69545,8415,738355,0
5,-1,669734,231540,1347019,69484,8860,672962,0
5,-1,667221,231691,1321548,69517,7556,660124,0
5,-1,667281,230417,1252720,68931,7061,625936,0
5,-1,689876,234875,1338491,72058,8847,668864,0
5,-1,662942,230134,1318321,68748,8413,658900,0
5,-1,669077,230804,1303254,68858,8170,651259,0
5,-1,666858,230646,1281526,68847,8335,640347,0
5,-1,665587,229824,1349375,68682,8474,674358,0
5,-1,672555,232792,1391859,69972,8917,694911,0
5,-1,668172,230001,1368469,68860,8131,683817,0
5,-1,665104,230132,1251577,68953,7788,625414,0
5,-1,672721,232851,1413155,70115,8512,705608,0
5,-1,669779,231083,1355598,69184,8180,677486,0
5,-1,670150,230685,1296178,69063,8816,647702,0
5,-1,671390,231432,1287312,69338,8432,643255,0
5,-1,677388,232713,1366570,70011,8737,682731,0
5,-1,659007,229811,1371769,68729,8358,685486,0
5,-1,687565,235234,1335994,72390,8994,667587,0
5,-1,668720,232120,1486691,69772,8830,742843,0
5,-1,664599,230922,1293450,69199,7000,646346,0
5,-1,666103,231178,1221553,69274,7416,610451,0
5,-1,672883,233269,1324243,70186,7654,661444,0
5,-1,664138,230459,1335765,69038,8497,667471,0
5,-1,666010,231368,1362603,69307,8721,679743,0
5,-1,688863,235839,1290658,72594,7868,644949,0
5,-1,664024,230660,1338333,69047,10040,668626,0
5,-1,670418,232422,1238962,69754,7600,618939,0
5,-1,689968,235705,1334839,72433,8609,666628,0
5,-1,663447,231263,1235180,69168,7796,617321,0
5,-1,666943,232686,1384532,69837,8088,691754,0
5,-1,668523,231707,1378200,69522,8261,688544,0
5,-1,688459,235875,1340865,72499,8278,670077,0
5,-1,666808,230765,1283195,69006,7593,641241,0
5,-1,669683,231142,1338557,69118,7890,668977,0
5,-1,664525,230542,1170858,68929,7399,584928,0
5,-1,667953,231131,1343494,69144,7351,671453,0
5,-1,669794,231685,1439350,69375,7716,719243,0
5,-1,672809,232346,1310862,69732,7998,654895,0
5,-1,667593,230539,1209801,68947,7677,604589,0
5,-1,663824,231360,1346286,69216,7693,672791,0
5,-1,667709,231639,1185213,69280,7314,592221,0
5,-1,664642,229756,1206721,68731,6815,603034,0
5,-1,671036,233189,1246274,70074,7936,622483,0
5,-1,666116,230720,1181574,69058,6983,590404,0
5,-1,664933,230559,1228217,69007,6948,613716,0
5,-1,663337,230732,1316110,69054,8148,657669,0
5,-1,666999,230975,1263893,69104,8003,631554,0
5,-1,668249,230816,1356751,68938,8086,678098,0
5,-1,668561,231165,1327475,69166,8120,663337,0
5,-1,669964,231534,1351190,69262,7960,675248,0
5,-1,673154,231587,1312403,69461,7977,655630,0
5,-1,667071,231984,1313054,69415,7341,656024,0
5,-1,666613,231704,1455775,69500,7257,727378,0
5,-1,671281,232432,1259323,69839,8176,629056,0
5,-1,670617,232256,1322347,69587,7743,660693,0
5,-1,689924,236006,1279869,72390,8704,639300,0
5,-1,671571,231323,1178852,69028,7141,589066,0
5,-1,665830,230884,1356552,68861,8393,677943,0
5,-1,671716,231450,1339755,69209,7891,669573,0
5,-1,671938,231796,1373008,69295,8528,686094,0
5,-1,672430,231803,1375531,69415,8291,687392,0
5,-1,669369,230903,1399883,68807,8417,699599,0
5,-1,677597,233105,1357963,69753,8973,677769,0
5,-1,669502,232488,1390132,69333,9589,694673,0
5,-1,669534,231832,1380498,69198,9058,689830,0
5,-1,666621,231011,1234410,68978,8201,616841,0
5,-1,670930,232066,1212500,69412,7784,605877,0
5,-1,670707,230999,1464512,68931,9797,731559,0
5,-1,666443,231073,1402990,68972,7878,701167,0
5,-1,667517,231326,1324461,69126,7813,661876,0
5,-1,666566,230528,1277875,68901,7450,638574,0
5,-1,666601,230310,1234020,68804,7954,616588,0
5,-1,666547,230631,1321958,68849,8021,660556,0
5,-1,674927,232502,1322647,69829,8248,660731,0
5,-1,666428,231045,1330223,69088,7833,664767,0
5,-1,666128,230530,1216113,68856,7364,607700,0
5,-1,667853,230728,1347450,68907,7410,673277,0
5,-1,670094,230782,1376128,68923,8042,687711,0
5,-1,670441,231779,1325139,69572,8335,661919,0
5,-1,666681,230089,1383564,68767,7708,691420,0
5,-1,668437,230341,1215066,68884,7858,607283,0
5,-1,667052,230213,1257136,68678,7858,628242,0
5,-1,670792,231245,1290885,69057,8415,645111,0
5,-1,668853,230609,1334814,68840,7588,667029,0
5,-1,668815,230458,1243955,68591,8413,621707,0
5,-1,670226,230749,1247167,68712,7994,623320,0
5,-1,671705,230665,1319411,68594,8300,659457,0
5,-1,671234,230514,1322312,68660,8515,660736,0
5,-1,665498,230823,1244072,68814,8615,621665,0
5,-1,671673,232817,1316772,69711,7844,657791,0
5,-1,668471,231579,1310976,69077,7688,655191,0
5,-1,664542,230684,1249175,68859,8041,624210,0
5,-1,668266,230729,1241539,68917,7898,620412,0
5,-1,666582,230274,1364980,68720,7950,682114,0
5,-1,671341,230856,1278576,68951,7704,638937,0
5,-1,687089,235247,1266829,72169,8721,633110,0
5,-1,665140,230091,1353303,68583,8552,676198,0
5,-1,668083,230383,1380664,68787,8277,689862,0
5,-1,690369,235307,1343965,72191,9201,671566,0
5,-1,675916,232802,1284418,69780,8619,641500,0
5,-1,671573,230731,1382749,68831,8766,690987,0
5,-1,667281,231217,1280570,69050,7851,639900,0
5,-1,691054,235863,1304277,72371,8148,651755,0
5,-1,673508,232058,1252086,69455,7961,625340,0
5,-1,685399,234544,1361169,71899,8236,680203,0
5,-1,668225,230319,1316792,68765,7491,658240,0
5,-1,675262,232609,1246578,69658,7941,622332,0
5,-1,675314,232346,1279154,69577,8486,639049,0
5,-1,672092,232285,1349599,69541,7564,674212,0
5,-1,668882,230224,1247868,68699,8358,623459,0
5,-1,670780,231297,1314011,69081,7319,656393,0
5,-1,670822,230407,1241062,68763,7795,620101,0
5,-1,670359,230963,1318176,68896,7957,658600,0
5,-1,675823,232937,1317952,69764,7431,658334,0
5,-1,678941,232820,1291671,69718,7037,645248,0
5,-1,661176,230208,1433984,68190,7574,716744,0
5,-1,660441,230274,1300571,68243,7659,649811,0
5,-1,666809,231965,1351342,68786,7839,675258,0
5,-1,667084,230674,1356476,68321,8066,677886,0
5,-1,664688,230554,1291093,68350,7908,645181,0
5,-1,662890,230197,1476498,68199,8111,737794,0
5,-1,667038,230538,1337687,68278,8471,668526,0
5,-1,663284,230354,1352705,68290,8554,675959,0
5,-1,663321,230019,1330717,68228,7783,664964,0
5,-1,664710,230032,1322280,68271,7795,660753,0
5,-1,666813,230596,1396330,69268,8290,697836,0
5,-1,668858,231112,1389871,69478,9344,694181,0
5,-1,667189,229867,1234497,69109,8847,616915,0
5,-1,665810,230723,1384958,69374,8708,691995,0
5,-1,662631,230124,1321770,69187,7756,660439,0
5,-1,668370,230505,1334866,69306,7611,667062,0
5,-1,686931,234558,1407803,72415,9305,703609,0
5,-1,669732,230735,1373775,69347,8816,686470,0
5,-1,671188,231975,1555068,69885,9810,777391,0
5,-1,672502,232280,1253517,70043,7960,625749,0
5,-1,671321,231755,1247305,69883,8215,622993,0
5,-1,673196,231426,1227109,69763,8659,613093,0
5,-1,666009,229236,1332674,68854,8254,665997,0
5,-1,667642,231045,1412481,69410,9065,705874,0
5,-1,668608,231421,1215954,69717,8403,607410,0
5,-1,665241,230345,1214030,69257,7495,606693,0
5,-1,669137,231429,1220367,69617,7637,609792,0
5,-1,669158,230572,1175210,69208,7861,587272,0
5,-1,668560,230416,1318593,69287,7734,658856,0
5,-1,685721,234671,1377661,72467,9381,688406,0
5,-1,668178,230562,1306810,69324,7581,652860,0
5,-1,667801,229799,1304702,69008,7728,651807,0
5,-1,666072,230098,1324798,69149,7966,662025,0
5,-1,668111,230217,1234463,69177,8134,616891,0
5,-1,667920,229886,1404476,68951,8629,701911,0
5,-1,672927,231230,1342628,69534,7901,671037,0
5,-1,665707,230322,1254042,69202,7431,626718,0
5,-1,668501,230517,1331702,69312,8369,665554,0
5,-1,673242,231920,1253555,69887,8401,626286,0
5,-1,689840,235033,1394554,72566,8989,696919,0
5,-1,667942,230294,1239805,69100,7847,619500,0
5,-1,671225,230524,1229083,69159,7912,614105,0
5,-1,669648,231234,1409372,69410,8442,704276,0
5,-1,668214,229972,1329817,69124,8275,664585,0
5,-1,666586,230519,1353554,69236,8531,676546,0
5,-1,668707,230031,1324990,69143,8226,662033,0
5,-1,689612,234549,1382319,72417,9012,690870,0
5,-1,672703,230233,1240523,69179,8065,619904,0
5,-1,663532,230130,1296718,69295,8305,647951,0
5,-1,664714,230433,1296722,69272,7980,648033,0
5,-1,673829,231749,1334482,69619,7809,666860,0
5,-1,674756,233267,1315546,70501,7998,657212,0
5,-1,672072,231424,1312348,69756,8190,655810,0
5,-1,692873,235833,1387413,72965,8544,693321,0
5,-1,672575,232284,1267845,70122,7752,633351,0
5,-1,671766,231504,1244279,69632,7610,621680,0
5,-1,674344,232513,1264211,70126,7660,631621,0
5,-1,675678,233449,1244201,70484,8275,621569,0
5,-1,672609,231692,1319625,69674,8083,659494,0
5,-1,673823,231882,1226994,69744,8041,613064,0
5,-1,668489,231706,1366089,69673,8177,682677,0
5,-1,672014,231434,1302617,69563,7427,650785,0
5,-1,670674,231194,1217461,69413,7217,608434,0
5,-1,689331,236099,1362345,72788,9596,680776,0
5,-1,670923,231543,1231489,69441,7388,615257,0
5,-1,673781,232048,1227426,69616,7763,613349,0
5,-1,671625,232166,1186551,69885,7905,592728,0
5,-1,672071,231426,1430030,69479,7823,714637,0
5,-1,670327,231487,1238840,69545,7526,619043,0
5,-1,668975,230452,1206901,69166,7892,603122,0
5,-1,671106,230864,1367040,69309,8246,683201,0
5,-1,673907,231181,1253038,69449,7535,626168,0
5,-1,662435,230400,1219055,69142,8052,609140,0
5,-1,669946,231343,1223835,69484,7776,611626,0
5,-1,671331,232350,1291303,69978,7831,644980,0
5,-1,673552,231895,1349426,69566,8603,674367,0
5,-1,673352,231934,1312074,69717,7663,655738,0
5,-1,668266,231085,1314445,69389,8153,656836,0
5,-1,671687,231972,1243166,69775,7939,621231,0
5,-1,671449,231310,1308108,69525,7706,653783,0
5,-1,694573,236345,1390075,72989,8574,694572,0
5,-1,691270,235498,1391120,72689,8802,695156,0
5,-1,674339,231167,1332789,69398,7959,666013,0
5,-1,667525,231025,1377925,69311,8630,688611,0
5,-1,667393,230466,1203831,69129,8003,601586,0
5,-1,670131,230713,1263558,69179,7863,631458,0
5,-1,673956,232781,1348690,70196,8359,673320,0
5,-1,670156,230971,1358472,69315,8560,678801,0
5,-1,671881,231377,1210312,69432,7801,604733,0
5,-1,668392,229732,1326144,68876,7952,662711,0
5,-1,667874,230039,1318308,69052,7286,658827,0
5,-1,677203,232952,1400751,70296,7749,699676,0
5,-1,665431,229215,1213286,68893,7602,606324,0
5,-1,670876,229963,1233527,69226,7530,616423,0
5,-1,668978,229353,1224033,68953,8219,611676,0
5,-1,671782,229847,1224031,69197,7804,611769,0
5,-1,662111,229725,1315817,69135,8079,656478,0
5,-1,659975,229632,1315450,69127,7902,657354,0
5,-1,669643,231089,1316987,69798,8184,657966,0
5,-1,685291,235321,1369493,72815,8583,684264,0
5,-1,666306,230641,1321923,69475,7523,660604,0
5,-1,664992,229371,1308357,69061,7635,653847,0
5,-1,669655,230343,1342521,69375,7644,670892,0
5,-1,662426,229440,1274451,69060,6926,636887,0
5,-1,663795,229661,1165538,69172,7385,582454,0
5,-1,666814,230615,1220609,69271,6876,609902,0
5,-1,664385,229940,1300371,69107,7199,649876,0
6,-1,716116,248402,1285732,73701,9251,642394,0
6,-1,738884,252758,1489217,76894,8849,744278,0
6,-1,720067,248524,1394491,73680,8668,696801,0
6,-1,695714,240841,1306251,71442,7612,652756,0
6,-1,668359,231688,1348938,69294,8180,673799,0
6,-1,663319,230283,1221323,68825,8295,610136,0
6,-1,666339,229579,1304678,68455,7903,652046,0
6,-1,667896,230588,1222660,68781,7834,611007,0
6,-1,664189,232295,1218316,69641,7128,608655,0
6,-1,661175,230083,1305411,68832,7491,652102,2
6,-1,665503,230684,1296290,69012,8096,646972,0
6,-1,660824,229679,1322670,68657,7414,661016,0
6,-1,666199,230318,1337477,68896,7847,668187,0
6,-1,666398,231056,1297359,69110,8193,648125,0
6,-1,670172,232066,1464422,69627,9111,731528,0
6,-1,668489,232133,1282758,69663,8593,640674,0
6,-1,686181,234525,1354549,72066,8936,676830,0
6,-1,665155,229761,1376154,68729,8092,687728,0
6,-1,686745,235465,1342274,72360,8576,670835,0
6,-1,668329,231305,1266524,69200,7181,632888,0
6,-1,667726,230547,1299386,68929,7796,649237,0
6,-1,663704,230244,1347658,68747,8355,673601,0
6,-1,688631,235697,1266571,72283,8801,632930,0
6,-1,671135,231774,1300676,69300,7977,649821,0
6,-1,667570,230496,1348656,68911,8083,673963,0
6,-1,665287,230269,1501956,68812,8661,750412,0
6,-1,672925,231840,1354726,69646,8212,676957,0
6,-1,667792,230734,1373757,69125,8638,686512,0
6,-1,689339,235763,1289048,72579,8607,644104,0
6,-1,668820,230172,1268924,68893,7895,634106,0
6,-1,688319,234801,1315601,72275,9255,657390,0
6,-1,671674,230946,1486385,69195,9898,742795,0
6,-1,670662,229819,1310232,68788,8442,654776,0
6,-1,665118,230992,1252874,69202,7916,626065,0
6,-1,665327,230757,1355330,69136,8338,677342,0
6,-1,669907,232882,1384947,70049,8250,691838,0
6,-1,662963,230296,1217364,68941,6837,608381,0
6,-1,663688,230659,1217333,69124,7468,608197,0
6,-1,666846,230865,1532375,69199,9666,765702,0
6,-1,665580,231563,1356831,69514,8567,677788,0
6,-1,670332,232497,1448041,69971,8589,723251,0
6,-1,666073,230960,1334143,69151,7772,666779,0
6,-1,666040,231087,1303262,69099,7145,651351,0
6,-1,664991,230345,1229952,68868,7130,614715,0
6,-1,666506,230789,1450597,69077,9063,724941,0
6,-1,670863,230865,1349784,69087,8347,674577,0
6,-1,665508,230758,1341792,69050,7561,670464,0
6,-1,670661,232790,1287336,69913,8292,643083,0
6,-1,664617,230798,1361788,69072,7606,680512,0
6,-1,670790,232736,1362525,69880,7490,680571,0
6,-1,670014,231104,1289466,69171,7714,644354,0
6,-1,665154,230087,1228299,68803,8076,613861,0
6,-1,665819,230343,1297844,68916,7513,648502,0
6,-1,666417,230744,1298329,69021,7323,648703,0
6,-1,669199,230811,1234123,69073,7804,616749,0
6,-1,689150,234882,1256337,72178,8687,627772,0
6,-1,661116,230338,1302229,68864,7143,650755,0
6,-1,669273,232363,1319353,69634,7508,659095,0
6,-1,672174,233198,1319301,70036,7600,659067,0
6,-1,663711,230803,1251596,69008,7415,625539,0
6,-1,669027,231885,1341398,69586,7735,669782,0
6,-1,666137,230190,1353657,68817,8365,676504,0
6,-1,665055,231361,1317270,69205,7864,658186,0
6,-1,665130,230363,1359287,68843,7847,679334,0
6,-1,687184,235373,1336937,72316,7699,667998,0
6,-1,666109,230510,1192421,68877,7034,595855,0
6,-1,668151,230625,1315461,68930,7364,657372,0
6,-1,667462,230411,1241132,68956,7215,620247,0
6,-1,668183,231719,1224274,69194,7368,611761,0
6,-1,668269,230687,1332633,68945,7637,666018,0
6,-1,687865,235297,1222838,72337,7937,611093,0
6,-1,666469,230986,1249913,69026,7503,624588,0
6,-1,670393,231386,1337956,69105,8871,668596,0
6,-1,669680,231145,1216160,69041,7328,607737,0
6,-1,664178,230211,1284830,68687,7698,642040,0
6,-1,670173,231435,1224983,69161,8054,612146,0
6,-1,674808,233484,1330620,70132,7787,664683,0
6,-1,669900,231497,1345195,69308,7389,672208,0
6,-1,692341,236380,1307059,72465,8738,653105,0
6,-1,675841,232254,1449221,69270,9265,724658,0
6,-1,667646,231244,1444184,68965,8854,721760,0
6,-1,668601,231747,1294479,69095,8287,646703,0
6,-1,672725,232344,1252800,69386,8037,626020,0
6,-1,669443,231501,1317093,69178,8191,658274,0
6,-1,675325,233331,1487131,69912,9247,743412,0
6,-1,667414,230993,1440525,68942,8031,719844,0
6,-1,674152,232737,1365127,69860,8665,682027,0
6,-1,670685,232018,1315906,69512,8150,657467,0
6,-1,669096,231592,1242003,69368,7873,620559,0
6,-1,662943,229460,1323456,68506,8276,661264,0
6,-1,693329,236473,1306581,72668,9079,652930,0
6,-1,664329,230539,1424327,68919,8050,711827,0
6,-1,670409,232189,1227567,69577,8222,613340,0
6,-1,665879,230458,1340420,68813,7656,669959,0
6,-1,669742,230582,1337483,68829,7414,668358,0
6,-1,688142,235440,1377437,72282,8740,688403,0
6,-1,666038,230160,1307891,68835,7497,653511,0
6,-1,666148,229772,1297866,68608,7913,648610,0
6,-1,688493,235430,1248395,72285,8015,623875,0
6,-1,671117,231106,1208215,69138,7975,603721,0
6,-1,667952,230187,1311348,68660,7674,655383,0
6,-1,667962,230572,1369028,68733,8666,684137,0
6,-1,668986,230882,1268765,68794,8008,633984,0
6,-1,670211,230703,1211278,68707,7878,605272,0
6,-1,670376,230502,1216146,68587,7731,607763,0
6,-1,664704,230510,1185394,68634,7827,592388,0
6,-1,689460,236299,1299695,72383,8206,649419,0
6,-1,669874,232301,1320226,69415,8051,659521,0
6,-1,668728,232341,1217713,69520,8125,608191,0
6,-1,686022,234703,1324693,71962,8029,661881,0
6,-1,664995,229664,1294675,68457,7647,646984,0
6,-1,670074,230288,1320963,68699,8480,660120,0
6,-1,668661,230738,1276932,68834,8194,637904,0
6,-1,665377,230539,1223930,68838,7793,611400,0
6,-1,669441,230973,1259852,68917,8712,629353,0
6,-1,668639,230392,1349376,68783,8790,674301,0
6,-1,690837,235183,1320590,72079,9499,660023,0
6,-1,691557,235018,1351545,72081,9570,675370,0
6,-1,666954,231007,1272088,68963,7798,635582,0
6,-1,665566,230107,1232071,68624,7182,615623,0
6,-1,668669,230634,1214630,68807,7628,606864,0
6,-1,672744,230883,1336310,68935,8221,667731,0
6,-1,673569,232712,1232725,69671,7593,615585,0
6,-1,690154,235215,1269880,72131,8484,634646,0
6,-1,669000,229423,1355228,68351,8037,677215,0
6,-1,666879,230645,1373240,68863,7206,686230,0
6,-1,668952,230130,1170991,68706,7736,585034,0
6,-1,668386,230224,1353387,68679,8135,676360,0
6,-1,672999,231509,1325077,69110,8579,662256,0
6,-1,671548,231632,1296290,69255,7623,647533,0
6,-1,667383,230009,1355981,68514,7288,677527,0
6,-1,694163,235064,1316573,71991,8547,657872,0
6,-1,664717,232484,1298537,69129,7653,648193,0
6,-1,662574,229940,1190324,68093,6907,594772,0
6,-1,660410,230093,1246640,68218,7796,622995,0
6,-1,664568,230313,1240517,68242,7696,619956,0
6,-1,663281,230379,1299427,68275,8264,649360,0
6,-1,661563,230122,1316112,68171,7816,657727,0
6,-1,664907,229802,1322148,68044,7807,660814,0
6,-1,660255,229782,1358615,68023,8477,678981,0
6,-1,662330,229586,1252517,68053,7304,625961,0
6,-1,663574,230092,1356058,68338,7877,677638,0
6,-1,669859,232272,1254496,70130,8927,626741,0
6,-1,671195,230741,1423858,69326,8639,711689,0
6,-1,672484,231468,1356044,69791,9688,677351,0
6,-1,663516,230276,1279092,69225,8314,639253,0
6,-1,662675,229885,1339689,69075,8471,669461,0
6,-1,669135,230462,1258485,69241,7936,628890,0
6,-1,668047,230240,1378156,69157,7795,688757,0
6,-1,668264,230941,1333549,69344,8515,666098,0
6,-1,667020,230256,1352795,69174,9182,675881,0
6,-1,665892,230007,1312879,69013,7885,656060,0
6,-1,689321,235287,1366243,72657,9245,682798,0
6,-1,670710,231165,1177749,69477,7899,588449,0
6,-1,689907,234557,1365611,72422,9513,682438,0
6,-1,683300,234825,1360634,72517,9470,679934,0
6,-1,664955,230016,1284385,69109,8480,641739,0
6,-1,665440,230106,1217834,69125,7615,608600,0
6,-1,687605,234868,1443132,72512,9180,721071,0
6,-1,670542,231277,1177235,69698,7721,588012,0
6,-1,670114,231372,1354861,69762,8081,676983,0
6,-1,665672,230297,1309854,69207,8563,654558,0
6,-1,665587,229314,1279272,68842,7454,639296,0
6,-1,689690,235065,1371264,72585,8484,685219,0
6,-1,667976,229858,1308502,69046,8014,653907,0
6,-1,669173,230275,1231640,69231,7706,615350,0
6,-1,671526,230940,1251376,69392,7567,624776,0
6,-1,675238,232077,1242466,70006,7815,620552,0
6,-1,668493,231497,1303458,69806,8093,651197,0
6,-1,669129,231299,1233837,69721,7482,616425,0
6,-1,667568,229916,1251926,68989,7997,625688,0
6,-1,666507,229647,1300148,68939,7225,649757,0
6,-1,667545,230453,1376610,69094,8177,687811,0
6,-1,674392,231779,1206998,69783,8316,603076,0
6,-1,667919,229891,1288478,68907,6931,643992,0
6,-1,689707,234914,1378071,72554,8532,688543,0
6,-1,670551,230050,1178594,69137,8131,588942,0
6,-1,669283,230821,1301597,69404,7883,650419,0
6,-1,668863,230587,1235492,69343,7732,617367,0
6,-1,674551,231125,1350033,69419,8344,674743,0
6,-1,664168,229886,1287094,69052,8013,643092,0
6,-1,670766,232690,1231743,70248,8100,615309,0
6,-1,669959,231091,1235819,69527,7400,617591,0
6,-1,691274,236166,1499055,72970,9608,749237,0
6,-1,671982,231855,1202600,69816,7565,601009,0
6,-1,672748,230907,1311865,69521,7663,655615,0
6,-1,669307,230975,1226829,69525,7693,613038,0
6,-1,671782,231810,1240849,69715,8021,619992,0
6,-1,669049,231159,1239102,69548,7754,619244,0
6,-1,690718,236131,1400007,72920,9599,699635,0
6,-1,673436,232135,1218019,69778,7564,608641,0
6,-1,675017,232952,1237817,70244,7636,618443,0
6,-1,685357,234627,1394593,72402,8988,696920,0
6,-1,675067,233114,1287453,70360,7302,643055,0
6,-1,689743,236142,1356381,72935,8173,677829,0
6,-1,673695,231707,1316611,69596,8431,657930,0
6,-1,670711,231431,1330130,69360,7803,664717,0
6,-1,671802,231616,1299418,69404,8176,649453,0
6,-1,666665,230466,1224721,69120,7846,612030,0
6,-1,669404,230543,1314364,69162,8153,656828,0
6,-1,671883,231477,1467719,69573,8224,733455,0
6,-1,671452,231637,1163173,69781,7352,580969,0
6,-1,670679,231021,1316627,69357,8630,657896,0
6,-1,676207,232454,1250258,70033,7633,624593,0
6,-1,680193,233109,1203520,70249,7449,601136,0
6,-1,671761,232807,1304959,70225,8529,651858,0
6,-1,666008,231206,1197292,69434,8422,598221,0
6,-1,671662,230966,1318901,69194,8221,659119,0
6,-1,674311,232739,1260164,70128,7856,629627,0
6,-1,670374,232282,1250027,69987,8237,624398,0
6,-1,668650,231115,1345894,69457,8525,672613,0
6,-1,670311,231169,1181877,69509,7653,590624,0
6,-1,673462,231225,1228238,69528,7926,613637,0
6,-1,675306,231339,1356252,69470,8587,677831,0
6,-1,672325,230470,1258062,69074,8007,628634,0
6,-1,670624,231114,1263756,69393,7692,631464,0
6,-1,689196,235666,1296711,72641,9494,648014,0
6,-1,668294,230166,1310445,68951,7814,654907,0
6,-1,687831,234855,1524672,72388,8725,761909,0
6,-1,669185,230607,1373900,69143,7889,686614,0
6,-1,676439,233066,1307414,70151,8566,653239,0
6,-1,675851,231408,1374151,69584,8555,686600,0
6,-1,667771,230437,1241299,69193,7686,620288,0
6,-1,691547,235417,1354365,72668,8083,676663,0
6,-1,674962,232116,1294556,70080,7987,646721,0
6,-1,674857,231558,1274877,69921,8484,636912,0
6,-1,676696,232635,1427162,70365,8787,712883,0
6,-1,670813,229784,1289480,69211,8443,644307,0
6,-1,661296,229985,1267468,69250,8437,632527,0
6,-1,665594,230037,1234063,69296,7544,616640,0
6,-1,662689,229380,1214507,69048,7556,606961,0
6,-1,662412,229472,1337262,69060,7931,668318,0
6,-1,670904,232189,1319013,70234,8491,658905,0
6,-1,664834,230029,1297805,69312,7216,648498,0
6,-1,666817,229456,1302953,69001,7461,651018,0
6,-1,663018,229867,1221366,69199,6975,610353,0
6,-1,667035,230346,1217061,69376,8041,608208,0
6,-1,671110,231684,1316918,69872,8626,657828,0
6,-1,687418,235117,1383212,72618,8198,691291,0
7,-1,717970,248661,1330122,73746,9135,664699,0
7,-1,717278,248675,1369139,73800,7860,684197,0
7,-1,719793,248667,1348268,73753,8305,673814,0
7,-1,738884,254000,1334676,77250,8730,666910,0
7,-1,666318,230823,1302197,68866,7742,650730,0
7,-1,667395,230017,1314640,68578,7834,657048,0
7,-1,665045,229650,1391646,68575,8289,695481,0
7,-1,674625,232864,1335763,69848,8384,667268,0
7,-1,670398,230653,1240596,68969,7845,620016,0
7,-1,663158,229622,1543171,68575,7964,771186,0
7,-1,664537,230543,1194325,68933,7175,596755,0
7,-1,668260,231682,1391682,69598,8709,694921,0
7,-1,667536,231536,1380207,69401,8732,689515,0
7,-1,667194,230523,1388137,68996,8589,693613,0
7,-1,666140,230018,1325257,68801,8477,662232,2
7,-1,660481,229858,1290917,68718,8099,644957,0
7,-1,666274,231937,1389064,69703,8589,693920,2
7,-1,663834,229770,1358675,68645,8360,678957,0
7,-1,665304,230097,1468036,68887,9260,733561,0
7,-1,669944,230889,1282119,68972,7944,640656,0
7,-1,667662,230731,1338654,69137,7228,668923,2
7,-1,675513,232778,1308213,70002,7977,653387,0
7,-1,668040,230621,1327999,68821,8025,663645,0
7,-1,664987,230757,1281722,68995,8266,640440,0
7,-1,669873,231509,1394350,69097,8685,696800,0
7,-1,669892,231658,1399355,69157,8170,699215,2
7,-1,668858,231381,1382871,69287,8908,690858,0
7,-1,672396,232770,1366478,69876,8422,682488,0
7,-1,669353,230697,1262975,68933,7850,630963,0
7,-1,669311,230601,1251414,69052,7265,625143,0
7,-1,671391,232606,1470513,69982,9147,734332,0
7,-1,665962,230374,1371879,69033,8133,685566,2
7,-1,669309,230511,1235624,69002,7867,617405,0
7,-1,666868,229922,1297724,68875,8454,648509,0
7,-1,674487,232650,1388775,69997,7987,693843,2
7,-1,672980,231376,1375467,69444,8954,687243,0
7,-1,669021,230850,1359757,69168,8706,679509,2
7,-1,670948,230974,1376784,69170,8989,687903,0
7,-1,673321,231876,1313694,69671,9169,656283,0
7,-1,660767,230377,1327552,69016,7930,663447,0
7,-1,665728,231224,1273451,69286,7655,636330,0
7,-1,686437,235675,1342764,72541,8955,670862,0
7,-1,663544,230774,1327123,69172,7719,663192,2
7,-1,683573,235093,1378214,72362,8169,688787,0
7,-1,661058,229690,1328584,68709,7985,663968,0
7,-1,662565,230471,1219451,69070,7028,609245,2
7,-1,664383,230212,1353706,68930,7631,676831,0
7,-1,665237,232188,1399137,69843,9040,698777,2
7,-1,661992,230533,1376283,69006,8394,687637,0
7,-1,685900,235058,1490330,72265,9201,744800,0
7,-1,668016,230947,1219522,69203,7797,609483,0
7,-1,662540,231053,1321991,69184,8284,660613,2
7,-1,662892,230564,1214030,68879,7484,606677,0
7,-1,661019,229848,1165532,68717,7053,582481,0
7,-1,668770,232337,1321598,69726,7622,660341,0
7,-1,671000,231900,1285902,69446,8144,642594,2
7,-1,669211,230654,1357678,68926,8663,678506,0
7,-1,697554,242529,1403904,72907,7748,701349,0
7,-1,664306,231375,1351585,69258,7272,675303,2
7,-1,666395,230852,1367942,69038,8410,683629,0
7,-1,665578,231103,1233526,69189,7731,616308,2
7,-1,667730,231967,1343190,69625,7543,671027,0
7,-1,687104,235740,1281051,72408,8169,640090,0
7,-1,668662,231584,1350349,69336,7972,674810,2
7,-1,666012,230054,1394961,68793,8211,697128,0
7,-1,666932,231368,1328704,69189,7247,664077,0
7,-1,692643,239917,1274299,71782,7393,636778,2
7,-1,664700,230479,1268566,68912,7254,633888,0
7,-1,670222,232848,1321510,69990,8044,660182,2
7,-1,664922,230815,1249886,69024,7541,624577,0
7,-1,674105,233101,1261481,70098,7881,630012,0
7,-1,669316,231716,1316276,69388,8017,657714,2
7,-1,670512,231131,1293318,69126,7573,646432,0
7,-1,671995,230476,1320191,68920,7552,659668,0
7,-1,663358,230562,1338427,68937,7462,668848,0
7,-1,684302,234745,1265796,72057,7858,632523,0
7,-1,662584,230371,1337099,68885,7419,668149,0
7,-1,663244,229684,1262424,68763,7787,630872,0
7,-1,670001,231489,1314196,69305,7559,656691,0
7,-1,673531,232066,1333587,69652,8447,666240,0
7,-1,670494,233078,1367082,70082,8199,682558,0
7,-1,668383,231670,1438585,69299,7811,718697,0
7,-1,668797,231748,1346637,69387,7686,672973,2
7,-1,667275,230635,1280021,68911,7429,639510,0
7,-1,663896,230584,1215393,69002,6626,607372,2
7,-1,672124,232357,1413778,69718,7505,706261,0
7,-1,672597,232542,1323545,69844,8960,661139,2
7,-1,672913,232916,1309837,69986,7635,654292,0
7,-1,667576,231150,1220024,69218,7077,609615,2
7,-1,664854,230762,1350209,68896,7248,674809,0
7,-1,668641,231240,1242709,69174,7337,621040,0
7,-1,668317,231551,1211387,69324,6898,605217,2
7,-1,671766,232202,1325956,69715,8267,662491,0
7,-1,666473,229981,1219373,68725,7342,609412,0
7,-1,671620,232209,1322364,69564,8514,660720,0
7,-1,673508,232958,1264453,69841,7971,631668,0
7,-1,691711,235281,1308709,72146,8962,653893,0
7,-1,665860,230995,1242750,69107,7347,620813,2
7,-1,670558,231559,1327614,69171,8507,663496,0
7,-1,702298,243283,1396293,73047,8200,697590,2
7,-1,694408,236657,1303169,72728,8966,651066,0
7,-1,670676,231583,1349976,69308,7200,674586,2
7,-1,670338,231718,1363254,69516,8275,681102,0
7,-1,674027,231882,1177339,69214,7653,588512,0
7,-1,674137,233339,1353697,69686,8493,676459,2
7,-1,674259,232181,1293253,69282,8053,646275,0
7,-1,672373,231710,1251432,69107,7989,625319,2
7,-1,672112,234579,1318786,70404,9529,658347,2
7,-1,666639,231766,1404860,69168,9034,701492,0
7,-1,668113,231827,1414616,69179,8775,706904,0
7,-1,667027,231885,1263718,69233,7597,631482,2
7,-1,671601,231852,1326839,69192,8292,663054,0
7,-1,669874,232211,1245142,69433,7366,622090,2
7,-1,674825,233558,1331746,70167,8567,665290,0
7,-1,670006,231206,1435706,69024,9899,717599,0
7,-1,667275,232135,1451554,69328,9327,725123,2
7,-1,672237,233258,1372723,69998,8819,685675,0
7,-1,669412,231281,1331546,69139,8342,665376,0
7,-1,691999,239848,1414932,71641,8430,707153,2
7,-1,670093,231665,1224303,69259,7737,611812,0
7,-1,671208,231714,1228764,69252,7545,614066,2
7,-1,666601,230969,1226010,68959,7427,612638,0
7,-1,670479,230698,1331509,68893,7993,665435,0
7,-1,666718,230624,1384246,68942,8089,691672,2
7,-1,667605,230639,1437813,68983,8098,718554,0
7,-1,669127,230883,1224428,69081,7885,611788,2
7,-1,684267,235107,1393477,72247,8109,696249,0
7,-1,666143,231146,1229504,69086,7432,614285,2
7,-1,666061,231252,1172106,69078,7182,585680,0
7,-1,663715,230777,1260025,68959,7836,629591,2
7,-1,689161,235642,1277290,72299,8364,638248,0
7,-1,666540,229760,1379727,68588,8086,689430,0
7,-1,663961,230341,1288154,68903,7980,643737,2
7,-1,667124,230540,1411399,68944,8400,705129,0
7,-1,667998,230528,1264472,68945,7983,631834,2
7,-1,689212,235380,1280792,72324,8342,640049,0
7,-1,665145,230043,1321127,68814,8086,660183,2
7,-1,672714,232071,1309128,69699,8488,653819,0
7,-1,666498,231288,1208774,69084,7005,603999,2
7,-1,667526,231088,1350538,69072,7441,674921,0
7,-1,691365,235405,1274583,72287,8881,636982,0
7,-1,671266,232430,1299567,69760,7984,649187,2
7,-1,669548,231054,1308224,69017,8126,653665,2
7,-1,673441,231460,1357126,69104,8868,678215,0
7,-1,668941,230966,1293673,68828,8329,646469,0
7,-1,672048,232499,1230749,69477,7954,614883,0
7,-1,668567,230903,1416643,68810,8278,707811,0
7,-1,669348,231091,1236028,68857,7689,617570,2
7,-1,671846,231061,1240560,68824,8351,619951,0
7,-1,667741,231888,1259976,69092,8726,629709,0
7,-1,673362,232560,1290114,69474,8709,644293,0
7,-1,666451,230678,1333231,68737,8031,666256,0
7,-1,664344,230133,1311799,68651,8313,655573,2
7,-1,668747,230553,1247963,68826,8011,623577,0
7,-1,669671,230774,1335649,68835,8730,667527,0
7,-1,667855,230905,1248561,68933,8153,623918,0
7,-1,667036,230301,1237686,68776,8740,618304,2
7,-1,669751,230547,1213984,68835,8021,606400,0
7,-1,667309,230605,1359519,68850,8450,679377,0
7,-1,673488,231985,1331483,69528,8281,665069,0
7,-1,671697,230951,1259805,68917,9378,629572,0
7,-1,667095,230211,1307623,68673,8276,653368,0
7,-1,669175,231091,1322226,69025,7977,660400,2
7,-1,669909,230545,1330649,68830,8020,664829,0
7,-1,668446,230397,1185685,68740,7840,592068,2
7,-1,673444,232337,1270481,69579,9017,634617,0
7,-1,661698,229334,1342031,68359,8533,670628,0
7,-1,667493,230173,1324321,68738,7830,661705,0
7,-1,669644,232131,1241769,69598,8167,620059,2
7,-1,666946,230170,1290357,68652,8073,644848,0
7,-1,667745,229469,1241204,68370,7671,620248,0
7,-1,666578,230710,1233722,68953,7370,616538,2
7,-1,668216,230452,1291758,68786,7724,645563,0
7,-1,668614,230452,1198855,68738,7360,599150,0
7,-1,670076,230346,1326248,68768,7898,662598,0
7,-1,666971,230513,1295385,68760,7998,647370,0
7,-1,668580,230459,1341676,68811,7864,670432,0
7,-1,668488,230409,1234237,68735,7402,616774,0
7,-1,672113,231448,1242431,69219,8202,620668,0
7,-1,668141,230862,1363522,68858,7974,681515,2
7,-1,669731,229841,1333959,68564,8528,666593,0
7,-1,672397,231082,1374269,68942,8118,686711,2
7,-1,667488,229975,1312980,68517,7195,656224,0
7,-1,671793,230367,1276702,68571,6973,638110,0
7,-1,679855,234813,1421138,71530,9035,710170,0
7,-1,663963,230777,1342556,68394,7501,670481,0
7,-1,664427,231388,1342268,68597,8280,670678,2
7,-1,661601,230459,1379496,68273,8184,689220,0
7,-1,665773,231119,1335481,68465,7700,667473,0
7,-1,683515,234809,1437668,71426,8491,718426,0
7,-1,661591,230055,1262006,68128,7687,630289,0
7,-1,684967,235042,1392324,71589,8639,695682,0
7,-1,661652,230278,1361172,68191,8413,680102,0
7,-1,662451,230070,1358412,68317,8047,678831,0
7,-1,663499,230699,1323075,68527,8274,660948,0
7,-1,668805,230537,1494736,69307,9375,747000,0
7,-1,687578,234482,1309239,72412,9414,654271,0
7,-1,663026,230031,1248474,69174,7867,623757,2
7,-1,688911,234573,1479653,72431,10512,739473,0
7,-1,669069,232420,1248432,70161,8316,623703,0
7,-1,666917,229972,1247817,69081,8514,623534,0
7,-1,663709,230366,1345057,69272,7832,672130,2
7,-1,673576,233110,1220008,70366,7548,609464,0
7,-1,667158,231510,1284926,69658,8402,642121,2
7,-1,669802,231918,1280568,69941,7567,639646,0
7,-1,663896,229903,1381192,69059,8274,690206,2
7,-1,665995,230019,1253977,69140,7802,626557,0
7,-1,666839,230321,1338474,69261,8608,668857,2
7,-1,667164,231122,1338473,69513,9214,668811,0
7,-1,666570,230462,1303684,69259,8395,651299,0
7,-1,665320,230282,1241721,69248,7834,620364,2
7,-1,668186,230211,1328158,69219,7702,663738,2
7,-1,669660,231487,1252736,69777,8273,625788,0
7,-1,691375,235269,1291075,72606,9143,645177,0
7,-1,671778,232323,1255195,70151,7948,627176,2
7,-1,669258,230403,1425590,69176,8115,712158,0
7,-1,669362,230665,1336281,69368,8442,667750,2
7,-1,664577,230319,1287262,69242,8831,643246,0
7,-1,669198,231875,1247535,69991,8165,622855,0
7,-1,662434,230452,1295336,69308,7942,647266,2
7,-1,669143,231895,1322179,69911,7966,660536,0
7,-1,691831,240276,1374592,72224,9161,687019,0
7,-1,668191,232173,1233952,70098,7620,616387,2
7,-1,665543,230192,1250591,69121,7892,624735,0
7,-1,667354,230531,1239642,69283,8452,619512,2
7,-1,670055,231090,1455270,69492,8214,727239,0
7,-1,670640,230666,1304502,69357,7691,651863,0
7,-1,669751,231755,1245596,69948,8550,622151,0
7,-1,665391,230407,1331424,69305,8002,665387,2
7,-1,666015,230114,1292336,69211,7174,645846,0
7,-1,671750,232275,1241840,70127,7945,620170,2
7,-1,669167,230054,1217719,69177,8052,608446,0
7,-1,665469,229184,1251341,68840,7291,625337,0
7,-1,669081,231176,1209056,69499,8183,604295,2
7,-1,667917,230163,1332711,69211,7932,665998,0
7,-1,691681,234947,1359398,72537,9175,679353,0
7,-1,663584,229551,1284089,68974,8459,641675,0
7,-1,662811,229522,1301692,68907,8337,650503,0
7,-1,666986,231016,1286046,69516,8455,642609,2
7,-1,671424,230792,1430388,69337,8530,715028,0
7,-1,667847,230501,1341507,69336,7973,670229,2
7,-1,665655,229910,1253167,69127,7713,626029,0
7,-1,669584,231388,1245424,69595,7807,622363,2
7,-1,665917,229698,1423360,68844,7953,711291,0
7,-1,669413,230190,1258091,69083,8012,628577,0
7,-1,665611,230519,1295403,69180,7774,647355,2
7,-1,672770,232224,1212204,69959,7196,605519,0
7,-1,669058,230560,1278018,69255,7478,638687,2
7,-1,667725,230371,1293667,69218,7928,646527,0
7,-1,670300,230673,1238972,69266,8585,619171,0
7,-1,669968,230317,1231787,69217,7727,615595,0
7,-1,666830,229671,1313221,69011,8466,656256,0
7,-1,670485,230398,1248052,69265,8841,623607,2
7,-1,671061,230279,1281195,69198,8375,640197,0
7,-1,662548,231136,1341506,69524,6989,670394,2
7,-1,666414,231054,1316368,69473,7959,657875,0
7,-1,664504,230404,1216719,69383,8135,607948,2
7,-1,664928,231049,1226630,69530,7148,612893,0
7,-1,669825,231051,1308595,69431,7636,653789,0
7,-1,666166,230994,1292046,69444,8128,645612,2
7,-1,670111,231397,1297603,69558,8068,648463,0
7,-1,674630,232288,1186867,70030,7946,593069,0
7,-1,670419,231919,1278979,69892,7806,639099,2
7,-1,671573,231080,1315135,69587,7523,657165,0
7,-1,666153,230809,1293007,69396,7441,646136,0
7,-1,671457,231578,1241174,69607,7930,620278,0
7,-1,672465,233471,1234905,70516,8594,616723,2
7,-1,674718,232327,1336979,69892,8681,668072,0
7,-1,670790,231659,1306206,69693,8079,652559,2
7,-1,668675,231324,1350211,69446,8977,674806,0
7,-1,671174,231535,1327229,69642,7954,663303,0
7,-1,676290,231924,1256992,69782,8406,628190,0
7,-1,667405,231821,1231030,69721,7425,615052,0
7,-1,669458,231882,1301803,69758,8029,650577,2
7,-1,691071,236006,1366215,72825,8327,682750,0
7,-1,670072,231385,1244316,69591,7602,621781,0
7,-1,671031,232020,1314573,69657,7648,656815,2
7,-1,674517,232541,1235588,69976,7500,617314,0
7,-1,667771,231773,1232472,69570,7880,615930,2
7,-1,672633,232626,1272733,69832,7327,636007,2
7,-1,671950,231349,1299205,69388,7456,649290,0
7,-1,698898,237183,1394549,73592,9452,696818,0
7,-1,674538,233403,1236091,70293,8048,617330,2
7,-1,673399,231543,1352693,69460,8263,676043,0
7,-1,670467,231453,1228350,69485,7579,613771,0
7,-1,671121,231612,1328633,69537,8336,664019,0
7,-1,670752,231323,1320788,69490,8109,659973,2
7,-1,667773,230579,1167915,69224,7779,583684,0
7,-1,674467,232928,1231782,70324,7481,615295,2
7,-1,674757,232656,1314928,70076,7789,656921,0
7,-1,671682,230974,1322522,69392,7547,660941,0
7,-1,672442,230947,1344588,69370,8112,671927,0
7,-1,666164,231379,1211742,69464,8313,605512,2
7,-1,673115,231769,1293533,69627,8528,646388,0
7,-1,672099,231778,1202820,69629,8582,601003,0
7,-1,667259,231332,1324024,69488,7999,661394,2
7,-1,691793,236289,1415090,72842,8835,707093,0
7,-1,675265,232502,1365705,69872,8146,682466,0
7,-1,675385,232610,1274348,69980,7526,636701,2
7,-1,694496,236125,1390324,72832,8899,694754,0
7,-1,668454,232164,1413249,69786,8241,706136,2
7,-1,672901,231626,1305749,69679,8169,652630,0
7,-1,668832,230771,1217811,69345,7859,608601,0
7,-1,672157,231235,1295351,69546,7432,647338,0
7,-1,672720,231170,1361579,69471,7513,680355,2
7,-1,673547,231432,1315252,69555,8232,657199,0
7,-1,671019,231139,1318192,69438,7772,658651,2
7,-1,677886,232877,1281811,70184,8836,640206,0
7,-1,677784,233091,1370604,70279,8400,684679,2
7,-1,675751,231250,1315198,69387,8679,657231,0
7,-1,665174,229799,1183993,68951,8251,591619,2
7,-1,672052,231293,1186389,69416,7864,592814,0
7,-1,669765,231151,1427285,69399,8210,713168,0
7,-1,670434,230513,1373693,69157,8274,686532,0
7,-1,674116,232348,1282759,70012,8382,640882,0
7,-1,674681,231081,1399178,69348,8692,699206,0
7,-1,671473,230594,1221551,69158,8013,610519,0
7,-1,666538,230398,1311857,69241,7753,655578,2
7,-1,669951,230684,1331518,69298,7632,665395,0
7,-1,669910,230547,1223753,69300,7369,611546,0
7,-1,667622,230272,1228306,69158,7480,613730,2
7,-1,692071,235387,1373966,72662,8930,686649,0
7,-1,671013,230482,1281634,69377,8373,640431,0
7,-1,716115,243105,1532198,75101,10016,765747,0
7,-1,669153,230157,1396565,69343,8457,697803,2
7,-1,669663,229653,1167021,69161,7924,583164,0
7,-1,665042,231234,1482980,69816,9022,740262,0
7,-1,659160,229493,1344022,69171,8615,671410,2
7,-1,662953,229692,1309711,69151,8169,654736,0
7,-1,664880,230098,1361283,69251,7794,680251,0
7,-1,664322,230078,1205202,69309,8292,602234,2
7,-1,664839,230870,1302270,69668,7392,650666,0
7,-1,664602,230138,1206771,69268,7155,603001,0
7,-1,671620,232680,1245441,70381,8315,621896,0
7,-1,665723,230224,1287972,69381,7048,643649,2
7,-1,688689,234587,1342481,72579,7742,670863,0
7,-1,685245,234261,1329901,72474,8907,664460,0
7,-1,668069,232528,1334326,70352,7208,666589,2
7,-1,663048,229073,1187292,68882,8016,593337,0
7,-1,666472,230265,1214125,69395,7763,606642,2
7,-1,665107,229823,1376743,69032,7746,688171,0
7,-1,664598,230295,1300202,69231,7938,649746,2
7,-1,666484,230393,1345615,69241,7804,672448,0
