0,0,30,672623.666667,232312.900000,1337492.166667,69648.600000,8533.633333,668117.600000,13270.589649,4519.351778,88918.013053,1359.952833,600.307670,44392.698918
0,1,0,-nan,-nan,-nan,-nan,-nan,-nan,-nan,-nan,-nan,-nan,-nan,-nan
1,0,29,673066.000000,231924.758621,1332248.137931,69894.034483,8714.724138,665551.793103,9033.026438,1922.539424,74565.388864,1453.779177,725.776345,37301.854217
1,1,0,-nan,-nan,-nan,-nan,-nan,-nan,-nan,-nan,-nan,-nan,-nan,-nan
2,0,29,672149.793103,231639.862069,1303389.724138,69741.034483,8535.517241,651172.793103,8356.129790,1798.441849,54593.968515,1285.653879,494.299896,27262.088803
2,1,0,-nan,-nan,-nan,-nan,-nan,-nan,-nan,-nan,-nan,-nan,-nan,-nan
3,0,29,671369.724138,231555.827586,1317667.068966,69521.551724,8465.413793,658257.862069,7417.616142,2012.861389,83273.151033,973.399822,612.138114,41628.397291
3,1,0,-nan,-nan,-nan,-nan,-nan,-nan,-nan,-nan,-nan,-nan,-nan,-nan
4,0,29,670943.724138,231440.241379,1336137.758621,69557.172414,8388.758621,667511.172414,6885.991001,1602.162088,66096.154037,1045.779500,723.681662,33081.324664
4,1,0,-nan,-nan,-nan,-nan,-nan,-nan,-nan,-nan,-nan,-nan,-nan,-nan
5,0,29,670193.448276,231320.448276,1327942.896552,69465.965517,8546.758621,663354.241379,6177.698107,1353.516992,78867.277186,948.488070,773.014192,39423.408567
5,1,0,-nan,-nan,-nan,-nan,-nan,-nan,-nan,-nan,-nan,-nan,-nan,-nan
6,0,29,669923.586207,231164.793103,1317308.310345,69397.206897,8518.206897,658070.034483,6850.979369,1558.090573,88031.224613,927.258710,674.985945,44030.383754
6,1,0,-nan,-nan,-nan,-nan,-nan,-nan,-nan,-nan,-nan,-nan,-nan,-nan
7,0,29,670223.896552,231488.344828,1300682.413793,69528.551724,8313.344828,649737.965517,6302.194207,1497.694764,66922.619945,853.479474,707.448854,33380.522512
7,1,0,-nan,-nan,-nan,-nan,-nan,-nan,-nan,-nan,-nan,-nan,-nan,-nan
8,0,30,669864.766667,231362.566667,1320030.700000,69503.933333,8442.166667,659420.266667,6980.252425,1389.811083,75509.117993,1014.590293,784.821172,37651.809658
8,1,0,-nan,-nan,-nan,-nan,-nan,-nan,-nan,-nan,-nan,-nan,-nan,-nan
9,0,30,668915.866667,231184.333333,1308638.233333,69313.166667,8363.600000,653687.666667,3365.779055,942.183823,72297.049636,414.943778,546.026410,36116.279822
9,1,0,-nan,-nan,-nan,-nan,-nan,-nan,-nan,-nan,-nan,-nan,-nan,-nan
10,0,30,672237.866667,231758.800000,1341663.400000,69841.133333,8607.466667,670267.566667,8838.600552,1848.758888,71054.722378,1372.064739,633.474847,35479.561498
10,1,0,-nan,-nan,-nan,-nan,-nan,-nan,-nan,-nan,-nan,-nan,-nan,-nan
11,0,30,670360.466667,231349.600000,1366875.833333,69487.133333,8666.800000,682828.500000,6415.997972,1366.440988,111249.554223,863.983554,827.070670,55630.567612
11,1,0,-nan,-nan,-nan,-nan,-nan,-nan,-nan,-nan,-nan,-nan,-nan,-nan
12,0,30,670992.200000,231485.333333,1325818.066667,69616.233333,8522.333333,662331.266667,7612.048434,1570.993833,108348.640705,1092.286156,857.337947,54139.563087
12,1,0,-nan,-nan,-nan,-nan,-nan,-nan,-nan,-nan,-nan,-nan,-nan,-nan
13,0,30,669774.200000,231212.200000,1333406.766667,69375.100000,8500.000000,666108.433333,6351.512410,1372.443184,61291.372357,893.465513,620.382678,30634.071704
13,1,0,-nan,-nan,-nan,-nan,-nan,-nan,-nan,-nan,-nan,-nan,-nan,-nan
14,0,30,669763.300000,231408.100000,1311477.900000,69424.466667,8303.766667,655114.100000,5472.711584,1275.722576,59889.765199,710.841836,638.187260,29863.962692
14,1,0,-nan,-nan,-nan,-nan,-nan,-nan,-nan,-nan,-nan,-nan,-nan,-nan
15,0,30,672200.800000,231748.333333,1331262.733333,69783.000000,8567.500000,665115.266667,9410.370695,1953.941271,89115.147610,1407.307737,716.451568,44552.593808
15,1,0,-nan,-nan,-nan,-nan,-nan,-nan,-nan,-nan,-nan,-nan,-nan,-nan
16,0,30,670452.266667,231452.300000,1312192.566667,69535.800000,8485.700000,655494.233333,7894.755225,1606.422903,67212.281701,1061.640755,568.124878,33684.161393
16,1,0,-nan,-nan,-nan,-nan,-nan,-nan,-nan,-nan,-nan,-nan,-nan,-nan
17,0,30,670213.366667,231477.966667,1323235.966667,69457.033333,8307.900000,661058.033333,7309.874680,1952.926974,73582.083036,998.123689,526.102167,36800.501908
17,1,0,-nan,-nan,-nan,-nan,-nan,-nan,-nan,-nan,-nan,-nan,-nan,-nan
18,0,30,670652.466667,231444.533333,1343378.233333,69483.166667,8580.233333,671051.033333,6634.367791,1456.676691,111378.267513,953.780760,815.367144,55650.773019
18,1,0,-nan,-nan,-nan,-nan,-nan,-nan,-nan,-nan,-nan,-nan,-nan,-nan
19,0,30,670900.333333,231753.166667,1335778.366667,69436.266667,8502.933333,667295.366667,7071.372395,2367.730785,81981.767495,712.328058,639.673142,40929.089701
19,1,0,-nan,-nan,-nan,-nan,-nan,-nan,-nan,-nan,-nan,-nan,-nan,-nan
20,0,30,669767.633333,231124.266667,1334496.500000,69321.866667,8553.366667,666683.233333,6470.096344,1397.335916,91130.941133,862.703145,830.255442,45654.376801
20,1,0,-nan,-nan,-nan,-nan,-nan,-nan,-nan,-nan,-nan,-nan,-nan,-nan
21,0,30,670627.200000,231369.800000,1306221.300000,69489.300000,8559.133333,652600.366667,6213.218717,1408.434175,59159.590411,911.983704,754.159388,29590.081584
21,1,0,-nan,-nan,-nan,-nan,-nan,-nan,-nan,-nan,-nan,-nan,-nan,-nan
22,0,30,669590.100000,231421.766667,1320193.500000,69334.800000,8297.966667,659474.033333,5924.413160,1990.753537,97560.416773,681.859487,716.282462,48764.453728
22,1,0,-nan,-nan,-nan,-nan,-nan,-nan,-nan,-nan,-nan,-nan,-nan,-nan
23,0,30,670304.033333,231546.166667,1334431.266667,69497.266667,8518.200000,666607.633333,8073.245586,2077.431027,95289.253653,1067.624526,738.243880,47558.354830
23,1,0,-nan,-nan,-nan,-nan,-nan,-nan,-nan,-nan,-nan,-nan,-nan,-nan
24,0,30,670937.100000,231675.066667,1345098.833333,69570.100000,8409.500000,671962.100000,7506.253697,2026.876381,88672.834433,1029.769565,776.996257,44342.951614
24,1,0,-nan,-nan,-nan,-nan,-nan,-nan,-nan,-nan,-nan,-nan,-nan,-nan
25,0,30,671084.700000,231486.300000,1349749.333333,69617.433333,8631.300000,674287.200000,7078.467424,1666.017250,85103.033291,1134.690257,780.793876,42572.978717
25,1,0,-nan,-nan,-nan,-nan,-nan,-nan,-nan,-nan,-nan,-nan,-nan,-nan
26,0,30,669576.966667,231326.900000,1328134.166667,69412.800000,8296.300000,663418.400000,5841.255707,1180.210443,86632.993606,709.984009,751.666821,43221.934470
26,1,0,-nan,-nan,-nan,-nan,-nan,-nan,-nan,-nan,-nan,-nan,-nan,-nan
27,0,30,672581.266667,231639.500000,1326388.733333,69715.833333,8327.300000,662635.266667,8515.265766,1762.651861,69053.958587,1248.121951,735.624911,34460.136697
27,1,0,-nan,-nan,-nan,-nan,-nan,-nan,-nan,-nan,-nan,-nan,-nan,-nan
28,0,30,671791.000000,231514.733333,1324756.133333,69627.533333,8372.100000,661795.166667,8611.840307,1744.839800,69003.767283,1162.314293,719.882321,34544.820073
28,1,0,-nan,-nan,-nan,-nan,-nan,-nan,-nan,-nan,-nan,-nan,-nan,-nan
29,0,30,671725.133333,231679.200000,1327598.600000,69704.266667,8509.766667,663233.033333,7636.054984,1719.863665,60022.051277,1149.671574,685.465277,30001.329672
29,1,0,-nan,-nan,-nan,-nan,-nan,-nan,-nan,-nan,-nan,-nan,-nan,-nan
30,0,30,671080.533333,231552.566667,1327037.466667,69591.700000,8482.266667,662903.033333,6803.494008,1697.052281,90086.839506,1056.687060,624.741596,44994.768524
30,1,0,-nan,-nan,-nan,-nan,-nan,-nan,-nan,-nan,-nan,-nan,-nan,-nan
31,0,30,673005.900000,232075.333333,1339487.400000,69739.933333,8252.566667,669190.966667,8689.979890,2452.830886,88745.798328,1160.012814,619.453667,44374.231794
31,1,0,-nan,-nan,-nan,-nan,-nan,-nan,-nan,-nan,-nan,-nan,-nan,-nan
32,0,30,671613.766667,231585.366667,1341934.600000,69593.466667,8273.166667,670322.566667,8154.512668,2527.257453,68087.561060,1069.708488,514.439117,33941.011602
32,1,0,-nan,-nan,-nan,-nan,-nan,-nan,-nan,-nan,-nan,-nan,-nan,-nan
33,0,30,672885.600000,232041.800000,1311691.366667,69839.200000,8218.733333,655270.000000,9929.399010,2515.702796,89016.334257,1380.447184,739.978240,44525.120525
33,1,0,-nan,-nan,-nan,-nan,-nan,-nan,-nan,-nan,-nan,-nan,-nan,-nan
34,0,30,671758.100000,231786.733333,1335587.933333,69732.466667,8339.600000,667206.100000,7204.178599,1589.409721,73310.621023,1140.636715,669.858124,36624.414089
34,1,0,-nan,-nan,-nan,-nan,-nan,-nan,-nan,-nan,-nan,-nan,-nan,-nan
35,0,30,670299.133333,231370.533333,1313258.166667,69523.433333,8292.100000,656086.500000,7019.568860,1564.482507,58604.842619,1051.137754,453.344633,29389.300298
35,1,0,-nan,-nan,-nan,-nan,-nan,-nan,-nan,-nan,-nan,-nan,-nan,-nan
36,0,30,673377.300000,232287.000000,1320026.300000,69872.166667,8317.966667,659412.533333,10015.263013,2679.657752,84669.548602,1301.951051,700.026213,42286.060042
36,1,0,-nan,-nan,-nan,-nan,-nan,-nan,-nan,-nan,-nan,-nan,-nan,-nan
37,0,30,672397.666667,232109.833333,1319336.866667,69901.300000,8423.500000,659146.200000,10629.960807,3103.786742,79658.610247,1533.380213,740.105432,39870.562194
37,1,0,-nan,-nan,-nan,-nan,-nan,-nan,-nan,-nan,-nan,-nan,-nan,-nan
38,0,30,671656.166667,231917.066667,1324721.600000,69589.166667,8469.233333,661802.433333,10234.521865,3259.862317,63120.440291,1156.314781,632.584312,31521.139718
38,1,0,-nan,-nan,-nan,-nan,-nan,-nan,-nan,-nan,-nan,-nan,-nan,-nan
39,0,30,671738.733333,231941.100000,1305234.900000,69628.166667,8301.800000,652055.000000,9894.252867,3460.801385,61290.850594,1074.880988,553.459146,30663.422381
39,1,0,-nan,-nan,-nan,-nan,-nan,-nan,-nan,-nan,-nan,-nan,-nan,-nan
40,0,30,672784.800000,232014.300000,1305818.933333,69691.600000,8277.133333,652334.700000,10501.929535,3401.889868,59689.160352,1294.476692,576.351498,29782.800107
40,1,0,-nan,-nan,-nan,-nan,-nan,-nan,-nan,-nan,-nan,-nan,-nan,-nan
41,0,30,672410.466667,232021.700000,1323536.133333,69708.400000,8412.200000,661201.566667,11491.289776,3552.967512,75878.199298,1310.883941,614.776024,37890.112703
41,1,0,-nan,-nan,-nan,-nan,-nan,-nan,-nan,-nan,-nan,-nan,-nan,-nan
42,0,30,673777.033333,232338.500000,1342251.966667,69874.200000,8482.600000,670497.266667,12470.399196,3623.480829,69273.072133,1430.151144,647.540351,34515.691522
42,1,0,-nan,-nan,-nan,-nan,-nan,-nan,-nan,-nan,-nan,-nan,-nan,-nan
43,0,30,674624.100000,232480.133333,1371237.333333,69992.266667,8605.933333,685084.866667,12180.638173,3849.391950,114378.497481,1525.965878,797.083263,57201.839409
43,1,0,-nan,-nan,-nan,-nan,-nan,-nan,-nan,-nan,-nan,-nan,-nan,-nan
44,0,30,673961.033333,232536.566667,1342405.033333,69841.533333,8590.533333,670529.800000,14595.922457,4353.496669,89118.407069,1586.951769,679.811431,44533.404585
44,1,0,-nan,-nan,-nan,-nan,-nan,-nan,-nan,-nan,-nan,-nan,-nan,-nan
45,0,30,673290.633333,232224.500000,1332321.033333,69772.566667,8580.800000,665567.466667,11310.644598,3488.809919,92893.885122,1286.022335,788.920545,46415.772512
45,1,0,-nan,-nan,-nan,-nan,-nan,-nan,-nan,-nan,-nan,-nan,-nan,-nan
46,0,30,672766.566667,232085.633333,1323617.000000,69738.166667,8496.166667,661219.966667,11791.094285,3651.903316,67647.972572,1451.777923,644.336252,33815.067762
46,1,0,-nan,-nan,-nan,-nan,-nan,-nan,-nan,-nan,-nan,-nan,-nan,-nan
47,0,30,670755.766667,231574.333333,1308786.066667,69468.200000,8339.966667,653851.200000,10673.122513,3403.384211,54662.920343,1155.231302,663.501745,27340.213701
47,1,0,-nan,-nan,-nan,-nan,-nan,-nan,-nan,-nan,-nan,-nan,-nan,-nan
48,0,30,675735.200000,233029.133333,1316887.833333,70223.266667,8534.600000,657818.566667,14690.696222,4263.633831,58489.638065,1727.897102,607.424541,29273.715567
48,1,0,-nan,-nan,-nan,-nan,-nan,-nan,-nan,-nan,-nan,-nan,-nan,-nan
49,0,30,674275.200000,232662.233333,1334410.000000,70084.066667,8492.433333,666543.233333,12271.231950,3770.493555,78771.007199,1467.040830,747.297874,39390.458734
49,1,0,-nan,-nan,-nan,-nan,-nan,-nan,-nan,-nan,-nan,-nan,-nan,-nan
50,0,30,672536.233333,231977.200000,1331121.066667,69672.733333,8431.266667,664979.766667,10851.617258,3429.564398,61527.280876,1254.630170,674.083572,30705.990384
50,1,0,-nan,-nan,-nan,-nan,-nan,-nan,-nan,-nan,-nan,-nan,-nan,-nan
51,0,30,672478.333333,232340.500000,1356494.300000,69708.600000,8545.466667,677591.500000,10942.584796,3731.051530,77863.938386,1220.346989,723.215216,38905.803031
51,1,0,-nan,-nan,-nan,-nan,-nan,-nan,-nan,-nan,-nan,-nan,-nan,-nan
52,0,30,672277.300000,232232.733333,1334067.633333,69709.633333,8374.133333,666447.833333,12147.050520,4031.663411,75125.839467,1392.048406,598.108002,37491.945451
52,1,0,-nan,-nan,-nan,-nan,-nan,-nan,-nan,-nan,-nan,-nan,-nan,-nan
53,0,30,674643.966667,232596.066667,1354120.266667,70070.766667,8668.333333,676443.466667,14757.227216,4226.839449,72721.077863,1696.060586,707.530227,36337.229007
53,1,0,-nan,-nan,-nan,-nan,-nan,-nan,-nan,-nan,-nan,-nan,-nan,-nan
54,0,30,670659.600000,231656.533333,1312953.266667,69512.466667,8424.200000,655907.133333,10194.845150,3363.230557,60751.618513,1182.593639,585.961853,30379.102503
54,1,0,-nan,-nan,-nan,-nan,-nan,-nan,-nan,-nan,-nan,-nan,-nan,-nan
55,0,30,671169.933333,231912.166667,1327103.800000,69559.233333,8442.100000,662926.700000,10845.093560,3734.892654,74029.115811,1218.363785,690.600866,36975.080845
55,1,0,-nan,-nan,-nan,-nan,-nan,-nan,-nan,-nan,-nan,-nan,-nan,-nan
56,0,30,672126.766667,231989.466667,1343874.366667,69557.200000,8498.800000,671415.200000,11203.238715,3543.929944,53705.917535,1086.442157,604.961178,26856.255115
56,1,0,-nan,-nan,-nan,-nan,-nan,-nan,-nan,-nan,-nan,-nan,-nan,-nan
57,0,30,671790.900000,231985.633333,1337214.066667,69646.733333,8473.566667,668043.233333,11916.176986,3564.908409,79965.062017,1275.310627,630.935796,40040.427613
57,1,0,-nan,-nan,-nan,-nan,-nan,-nan,-nan,-nan,-nan,-nan,-nan,-nan
58,0,30,671630.300000,231972.066667,1340256.033333,69679.300000,8440.266667,669518.933333,10735.225267,3496.726354,60983.921905,1323.293295,534.330917,30475.473007
58,1,0,-nan,-nan,-nan,-nan,-nan,-nan,-nan,-nan,-nan,-nan,-nan,-nan
59,0,30,670781.366667,231710.700000,1338931.900000,69531.600000,8586.800000,668863.733333,10213.372944,3363.350999,84327.407043,1181.091377,575.280824,42072.748074
59,1,0,-nan,-nan,-nan,-nan,-nan,-nan,-nan,-nan,-nan,-nan,-nan,-nan
60,0,30,671625.766667,231890.333333,1336550.766667,69651.633333,8497.833333,667668.300000,11160.622915,3788.373559,78777.314531,1286.004963,759.162832,39335.672746
60,1,0,-nan,-nan,-nan,-nan,-nan,-nan,-nan,-nan,-nan,-nan,-nan,-nan
61,0,30,670528.366667,231607.033333,1322738.366667,69450.866667,8392.166667,660771.466667,10335.802367,3419.496751,69211.986408,1090.244215,686.291196,34535.781204
61,1,0,-nan,-nan,-nan,-nan,-nan,-nan,-nan,-nan,-nan,-nan,-nan,-nan
62,0,30,672795.833333,232256.833333,1309971.700000,69678.700000,8419.200000,654397.466667,9515.534135,3387.853530,41724.077748,1027.641025,520.011500,20893.298627
62,1,0,-nan,-nan,-nan,-nan,-nan,-nan,-nan,-nan,-nan,-nan,-nan,-nan
63,0,85,669708.870588,231451.141176,1318893.835294,69526.270588,8390.058824,658845.258824,7424.512720,2388.546145,85107.855254,859.460000,588.812791,42502.135531
63,1,0,-nan,-nan,-nan,-nan,-nan,-nan,-nan,-nan,-nan,-nan,-nan,-nan
