0,0,35,671972.457143,232274.971429,1325182.000000,69517.200000,8369.028571,662021.285714,12210.449818,4291.882973,72502.625421,1322.636216,697.890760,36244.973203
0,1,25,713333.960000,249259.560000,1379395.440000,74290.720000,9161.520000,689109.360000,12040.132898,4043.492620,66283.419692,1393.712238,808.054410,33149.750768
1,0,34,674637.176471,232758.470588,1320266.558824,70083.000000,8516.705882,659524.264706,12714.095558,3779.515634,71489.637083,1697.471805,716.187969,35605.637577
1,1,25,712055.880000,248841.080000,1400841.440000,74257.640000,9369.920000,699772.320000,6815.223766,1263.036181,95396.667315,1004.656713,750.094976,47644.645552
2,0,34,672298.823529,232113.764706,1318677.029412,69534.852941,8440.882353,658802.794118,11231.818975,3595.530019,60331.214495,1322.570873,684.685319,30163.497484
2,1,25,711905.840000,248742.440000,1371081.720000,74240.600000,9144.040000,684983.120000,7433.484280,1618.663821,54610.526745,1094.022376,587.902474,27319.229679
3,0,34,670204.794118,231717.647059,1300312.205882,69419.176471,8331.882353,649596.294118,8100.978669,2619.195396,53770.705358,1070.949949,633.046916,26861.739819
3,1,25,712470.760000,248923.920000,1368972.760000,74237.760000,9150.720000,683919.440000,8425.200414,2067.671288,74270.972182,1070.747637,782.949118,37125.579487
4,0,34,671176.823529,231996.676471,1316952.500000,69578.676471,8360.911765,657858.558824,8742.781949,2286.486435,72937.161336,1144.987406,602.176707,36437.432087
4,1,25,710431.320000,248357.760000,1380918.920000,74007.840000,9128.080000,689818.960000,5472.136173,1310.660758,60666.333122,756.157004,553.572898,30279.473573
5,0,34,672273.058824,232162.323529,1305451.941176,69623.647059,8333.764706,652212.235294,12058.871462,3725.789436,65226.485738,1400.272450,591.845323,32559.255756
5,1,25,714878.960000,249490.840000,1386685.280000,74746.400000,9159.560000,692809.160000,9248.209788,2021.979539,73024.673616,1398.584055,682.062524,36576.443311
6,0,34,670261.382353,231713.882353,1291889.411765,69352.117647,8207.352941,645386.294118,12661.488873,3965.343118,68145.396779,1508.372921,563.525712,34035.250639
6,1,25,710903.680000,248589.480000,1371480.560000,74100.240000,9062.320000,685147.080000,6414.266921,1291.242971,63566.618652,845.109095,598.462946,31768.180133
7,0,34,672709.676471,232271.264706,1309244.470588,69571.558824,8352.029412,654060.323529,12329.236269,3900.460541,96055.989789,1439.094634,712.539967,47987.165461
7,1,25,710281.040000,248315.240000,1396197.640000,73893.960000,9089.280000,697503.360000,4226.759586,976.932353,91658.987518,450.531640,789.793164,45844.061554
8,0,34,672356.352941,232173.705882,1311403.588235,69631.323529,8427.764706,655067.882353,10435.106803,3307.957834,69937.973494,1301.849108,761.429811,34926.642669
8,1,25,712771.480000,248893.280000,1365917.120000,74323.480000,9098.280000,682372.680000,7761.098912,1690.649095,65703.453885,1124.281855,872.256271,32795.843436
9,0,34,672476.470588,232279.705882,1310770.323529,69672.735294,8455.205882,654800.500000,11044.921240,3393.681885,66127.603327,1342.577379,612.076205,33077.390166
9,1,25,713418.320000,248979.160000,1380406.480000,74399.960000,9086.520000,689642.760000,8532.120668,1850.575320,62041.781886,1273.253988,660.468084,30954.960849
10,0,34,672222.911765,231965.294118,1329904.588235,69573.529412,8436.058824,664372.735294,14396.738484,4025.124671,59000.448562,1668.945057,659.267059,29487.614262
10,1,25,714354.160000,249364.360000,1390779.920000,74528.480000,9370.920000,694796.720000,10171.563761,2284.109680,80799.440635,1224.266903,614.150986,40391.642669
11,0,34,669836.617647,231702.941176,1316921.764706,69280.735294,8318.735294,657857.500000,9526.028939,3164.507386,65106.424079,876.508659,528.856553,32493.065188
11,1,25,712714.240000,248921.880000,1386739.480000,74376.480000,9273.440000,692756.040000,7964.055195,1907.691806,93532.562312,1241.964995,897.177623,46651.596029
12,0,34,671675.617647,232154.911765,1326845.470588,69569.205882,8371.676471,662824.529412,10665.702467,3245.898012,53438.043447,1189.178851,563.403978,26615.746546
12,1,25,710477.360000,248351.560000,1376927.120000,73981.400000,9107.920000,687920.360000,5822.229819,1308.673377,54736.955748,778.347943,567.475033,27353.431011
13,0,34,673041.411765,232456.911765,1319953.058824,69733.352941,8482.676471,659364.647059,12241.321125,3738.066993,77928.479128,1418.237740,677.654680,38883.698083
13,1,25,713824.480000,249131.120000,1377249.560000,74604.080000,9316.720000,688084.800000,8396.867097,1939.994089,51163.306842,1445.007347,868.676028,25546.969444
14,0,34,674185.823529,232653.205882,1311791.176471,69753.911765,8465.117647,655293.382353,14716.610762,4410.358968,65434.729978,1694.350342,759.751808,32659.302329
14,1,25,710293.480000,248574.640000,1378001.400000,74104.480000,8992.000000,688435.520000,6802.780403,1733.697987,98728.689263,964.156175,791.615260,49332.616266
15,0,34,669192.352941,231391.088235,1318542.470588,69135.235294,8398.235294,658696.029412,9743.533306,3171.105609,72277.082571,912.555464,604.849231,36127.137828
15,1,25,713557.000000,249112.320000,1358536.800000,74340.080000,8929.040000,678644.040000,6306.717346,1417.309895,55537.058595,923.050028,617.761992,27749.983950
16,0,34,670258.441176,231733.411765,1311645.529412,69318.882353,8223.735294,655177.588235,9822.710684,3151.960008,57575.496000,995.439919,541.750231,28794.007982
16,1,25,714550.160000,249117.480000,1374583.160000,74556.480000,9266.960000,686731.400000,8936.560966,1988.430861,52782.846506,1389.102505,803.275170,26316.325823
17,0,34,672032.970588,232226.705882,1302926.323529,69692.205882,8367.205882,650892.676471,11083.670324,3317.985432,58926.411518,1363.722065,597.574154,29392.799814
17,1,25,710511.480000,248353.080000,1374813.720000,73951.560000,9080.760000,686885.040000,4706.819003,1115.657292,58858.146635,656.289453,607.399261,29358.781346
18,0,34,672299.352941,232356.705882,1336375.764706,69695.500000,8450.588235,667523.176471,10390.510758,3231.462804,66026.423477,1210.750867,599.103503,32992.519264
18,1,25,709829.240000,248414.880000,1389252.120000,73955.840000,8930.080000,693984.560000,3945.836634,984.151546,71434.115741,414.299957,638.465217,35649.204238
19,0,35,673879.400000,232438.114286,1339420.514286,69892.971429,8513.514286,669095.228571,11749.376217,3400.523050,80579.349271,1563.460749,608.548126,40183.907601
19,1,25,711233.160000,248653.560000,1388593.920000,74128.040000,9143.360000,693713.280000,10362.190219,2839.624357,57295.004138,1293.585698,635.127696,28591.365266
20,0,35,672701.742857,232278.657143,1319862.371429,69700.714286,8320.857143,659343.257143,13368.270364,3977.386938,70183.425347,1628.590724,657.112130,35052.346150
20,1,25,712853.200000,248919.600000,1392003.800000,74373.440000,9242.960000,695422.120000,8551.281364,1976.269799,64230.826924,1276.830767,724.490579,32039.598836
21,0,35,670036.600000,231721.714286,1304646.371429,69358.685714,8164.257143,651750.257143,10092.953721,3210.101107,61832.320324,1136.136354,626.160378,30882.306766
21,1,25,712472.400000,249109.080000,1392134.880000,74220.840000,9087.080000,695519.240000,11222.363804,3852.893717,65051.097517,1287.228579,602.197703,32486.379752
22,0,35,673795.457143,232750.600000,1324358.942857,69835.257143,8244.342857,661600.085714,11608.453359,3587.814904,71772.395824,1377.391289,549.436488,35871.830905
22,1,25,714974.360000,249716.080000,1384404.880000,74581.880000,9165.160000,691586.240000,13720.877010,4065.346636,71705.044749,1649.276019,744.494388,35801.298646
23,0,35,671626.371429,232259.628571,1322341.657143,69585.800000,8348.514286,660526.857143,11626.454603,3523.556208,61518.246066,1276.932123,760.900796,30730.681859
23,1,25,712715.880000,249160.040000,1390130.480000,74257.520000,9164.680000,694459.760000,11799.389290,3659.002940,66255.818876,1272.240767,681.334967,33081.491326
24,0,35,671591.371429,232041.914286,1308132.257143,69576.457143,8185.114286,653503.971429,10976.744680,3341.637232,51656.010979,1344.645431,656.014363,25817.563515
24,1,25,712144.600000,249165.240000,1386505.240000,74265.880000,9000.480000,692649.840000,13146.213891,3969.496727,68143.286062,1398.170156,681.894075,34032.911817
25,0,35,670987.457143,231838.285714,1313714.914286,69453.685714,8338.885714,656280.371429,10157.558448,3138.061381,60231.971845,1143.761158,754.064975,30084.817350
25,1,25,713706.040000,249541.760000,1395353.120000,74284.800000,9135.480000,697082.920000,13320.354777,4339.496923,74885.894723,1403.795056,542.668895,37346.828399
26,0,35,672691.057143,232298.200000,1339805.028571,69727.400000,8396.400000,669327.742857,11240.458697,3221.523019,57231.384538,1345.119861,685.876632,28606.967085
26,1,25,714355.360000,249506.960000,1392683.200000,74502.320000,9358.360000,695712.560000,11899.328663,3763.174952,64980.620827,1432.843431,799.098086,32451.349634
27,0,35,671195.000000,231855.485714,1334868.857143,69515.057143,8257.885714,666912.885714,11317.235581,3658.561047,58558.490501,1394.520152,668.464029,29274.052346
27,1,25,713438.160000,249252.480000,1379861.880000,74265.000000,9061.720000,689334.520000,11168.226472,3663.702653,58346.181962,1127.838073,549.993638,29175.380181
28,0,35,672581.257143,232428.685714,1312076.714286,69742.371429,8319.371429,655462.257143,13715.536376,4130.961422,66356.269674,1672.891049,777.296012,33185.544433
28,1,25,714903.160000,249846.760000,1412671.480000,74592.840000,9320.560000,705734.520000,13123.665752,4031.748804,59150.157795,1474.815315,638.870007,29586.673019
29,0,35,672627.428571,232267.000000,1336690.971429,69609.771429,8394.542857,667742.171429,10552.890294,3389.023306,68935.044269,1231.971314,578.755282,34433.447559
29,1,25,713645.680000,249451.840000,1374742.280000,74401.240000,8970.640000,686806.680000,11006.023601,3611.981436,78461.100184,1267.004729,745.832736,39287.207738
30,0,35,671281.628571,231924.057143,1318319.085714,69489.400000,8341.657143,658581.885714,10215.354488,3220.243362,61524.694964,1215.033385,616.854229,30755.930360
30,1,25,711968.440000,249007.720000,1389496.720000,74150.280000,9147.320000,694247.200000,12199.252466,4061.063580,73962.767655,1334.401095,613.294756,36960.197777
31,0,87,669861.632184,231905.275862,1319761.448276,69363.471264,8440.712644,659261.057471,7951.230324,2696.325813,61454.179711,907.528117,637.482259,30672.004631
31,1,40,712337.525000,248949.225000,1370386.550000,74318.450000,9038.850000,684638.400000,10165.258361,3136.723541,61994.060805,1153.804510,582.345883,30971.862547
