0,0,9,656157.444444,224355.555556,1299034.777778,67541.666667,8322.777778,649048.111111,21383.735003,7143.795134,66411.779059,2022.144901,809.878012,33133.105695
0,1,8,720823.250000,251675.000000,1417252.875000,75156.750000,9501.500000,708225.375000,17735.643270,5964.052796,54614.796506,1731.497527,514.819143,27338.497979
1,0,8,649467.500000,222442.375000,1315368.125000,67038.500000,8276.750000,657084.375000,16880.604677,5922.090719,69867.538762,1818.035684,725.291105,34803.058759
1,1,7,714535.571429,249642.571429,1403421.714286,74733.285714,9343.000000,701273.000000,7450.118271,1790.021936,57128.970301,1271.595703,887.329380,28605.334972
2,0,8,647094.625000,222130.375000,1377705.125000,66774.000000,8166.750000,688324.500000,18863.515539,6710.859426,74316.495454,1941.994400,503.808930,37123.902203
2,1,7,709584.857143,248767.142857,1443884.000000,74146.142857,9454.857143,721571.285714,2681.279462,676.238848,37468.160323,380.597811,472.220115,18758.378522
3,0,8,649680.375000,222701.250000,1337304.500000,67132.875000,8289.625000,668303.750000,18244.412226,5766.144504,84176.875690,1670.424904,730.568090,42085.186294
3,1,7,717058.285714,250254.428571,1457718.714286,75132.285714,9540.142857,728506.714286,12127.509858,2517.443650,72043.706851,1455.688125,464.636088,35940.596727
4,0,8,639560.625000,219857.250000,1301784.375000,66125.500000,8093.625000,650463.875000,3005.992720,1022.491045,121548.710138,455.426723,522.658095,60613.964031
4,1,7,712758.857143,249511.428571,1425239.571429,74642.142857,9100.428571,712227.000000,7204.355060,1692.845690,54876.159333,1150.477842,496.822721,27390.887416
5,0,8,639123.750000,219380.500000,1393774.875000,65931.500000,8580.625000,696255.250000,3866.666353,795.047640,202525.008096,348.131082,1006.348963,101182.278607
5,1,7,714288.857143,249353.857143,1472341.857143,74590.571429,9455.571429,735776.428571,7912.785611,1765.905873,98667.063816,1214.999101,895.286524,49307.397016
6,0,8,645571.250000,220713.750000,1305257.375000,66830.625000,8018.250000,652096.625000,10546.071185,2013.750590,55688.496936,1408.969032,542.507546,27781.761031
6,1,7,714324.000000,249618.428571,1425701.285714,74684.714286,9260.857143,712253.428571,7235.236278,1818.681301,46397.900266,1148.180388,451.538459,23170.201589
7,0,8,642290.750000,219725.250000,1329764.375000,66243.125000,7961.000000,664321.250000,10023.199735,1963.125298,98685.277397,1181.009678,571.454504,49273.341075
7,1,7,715637.142857,250208.857143,1455465.428571,74951.714286,9386.428571,727265.142857,6917.436404,1454.481491,86898.612188,1164.488081,451.674933,43469.901861
8,0,8,644142.750000,219903.125000,1303573.750000,66310.125000,8152.250000,651256.000000,6939.756223,1613.859461,74056.667228,1087.473268,621.971010,37033.237696
8,1,7,716107.428571,249673.714286,1412719.285714,74684.428571,9396.571429,705885.571429,9172.421691,2107.561673,77028.210531,1387.681814,842.893123,38428.197377
9,0,8,643960.125000,220164.000000,1379235.875000,66446.125000,8247.375000,689087.250000,8728.599908,1717.315783,128940.057377,1137.140651,485.148157,64252.315434
9,1,7,713279.714286,249442.000000,1381020.714286,74437.714286,8914.285714,689872.000000,2022.814780,887.106694,59135.428636,522.860734,421.997534,29589.868807
10,0,8,646000.375000,220834.500000,1347968.375000,66880.500000,8312.625000,673491.000000,8349.364002,1662.345331,106716.359474,1260.954896,566.048350,53297.013155
10,1,8,714015.875000,249293.500000,1424083.500000,74568.625000,9355.500000,711577.125000,7638.178553,1757.509388,70072.900909,1251.374638,558.574301,35057.313846
11,0,8,649348.625000,221955.375000,1296999.500000,67224.750000,8285.000000,648029.500000,16434.268389,4382.991927,50418.829080,2068.995877,353.609955,25268.980342
11,1,8,715959.500000,250528.750000,1451835.500000,74783.375000,9590.750000,725420.250000,8912.715369,3115.742558,125841.840454,886.130625,841.572301,62917.050280
12,0,8,646413.125000,220457.250000,1308516.500000,66729.625000,8085.250000,653823.000000,11471.629575,2429.221570,34585.508381,1506.457429,783.818657,17263.407022
12,1,8,716796.625000,249809.750000,1449267.625000,74890.375000,9766.250000,724231.625000,10489.895804,2307.874658,70940.323040,1537.891571,567.279417,35436.583600
13,0,8,640755.625000,219281.000000,1273034.750000,65882.750000,8154.125000,636121.000000,4019.912435,1121.881233,65847.900611,391.319483,663.230435,32915.041246
13,1,8,715080.250000,249672.750000,1527430.875000,74697.625000,9950.875000,763242.000000,7926.516034,1800.339603,139814.602337,1123.983089,1024.067678,70003.225856
14,0,8,641963.250000,219886.250000,1291259.125000,66139.625000,8249.750000,645089.625000,4926.092588,1209.308558,45178.535062,506.079524,433.840048,22557.074533
14,1,8,711841.750000,249118.875000,1457557.625000,74310.750000,9763.500000,728306.125000,4510.957153,971.610446,89306.166681,549.645283,443.972409,44670.070972
15,0,8,642713.500000,219901.375000,1286433.500000,66135.125000,8222.375000,642756.875000,3502.301458,1169.377712,50279.690020,456.176621,314.916234,25024.020173
15,1,8,710341.125000,248643.500000,1478699.250000,74062.375000,9572.875000,738945.875000,2903.256036,577.151410,34799.825900,241.895606,323.375725,17358.450409
16,0,8,645170.875000,220622.375000,1303001.875000,66658.500000,8108.375000,651010.250000,8318.711671,1761.222511,35198.702595,1307.801495,390.532309,17552.717915
16,1,8,715417.500000,250636.875000,1535142.625000,74788.750000,9695.500000,766865.375000,10034.964063,3055.348320,95733.753686,919.336004,544.240526,47685.894515
17,0,8,644216.250000,220447.750000,1359516.750000,66521.375000,8537.625000,679274.625000,7214.434918,1747.714275,60373.071782,1152.576021,678.504963,30243.453031
17,1,8,713307.750000,249651.250000,1486856.875000,74669.750000,9653.125000,743073.625000,7246.143815,1831.603379,101566.385870,1082.572486,490.927550,50920.624468
18,0,8,644298.875000,220268.625000,1314748.375000,66451.625000,8269.875000,656937.875000,7357.454985,1528.080490,51201.669147,1008.026778,733.456106,25588.259263
18,1,8,710888.375000,249370.250000,1471878.375000,74406.000000,9660.000000,735207.500000,4194.591695,1011.992558,82405.707619,413.413836,755.567998,40863.077711
19,0,8,643389.500000,220206.875000,1308700.875000,66449.875000,8042.875000,653761.375000,8496.379641,1928.098444,60909.066705,1146.078688,561.951163,30291.655893
19,1,8,714645.375000,249467.625000,1447271.625000,74577.625000,9843.625000,723284.625000,6873.589654,1443.462152,68808.653711,1194.439820,615.314947,34357.371898
20,0,8,641716.500000,219712.000000,1350610.125000,66098.250000,8143.500000,674686.125000,3266.712147,909.926783,124198.225252,420.312904,444.031812,61901.115088
20,1,8,715936.500000,250075.000000,1477158.000000,74842.875000,9993.750000,737980.375000,7319.837105,1410.024291,126551.917020,1029.208244,453.941282,63301.194580
21,0,8,645940.125000,220746.000000,1328282.000000,66868.375000,7963.875000,663709.500000,10729.528128,2454.509880,88985.236969,1500.911301,503.676344,44428.619360
21,1,8,717615.000000,249951.375000,1461273.125000,74935.125000,9856.375000,730226.250000,8046.785383,1679.693866,70546.007469,1507.615952,633.315272,35316.701211
22,0,8,645641.625000,220816.750000,1358957.750000,66852.250000,8592.750000,679034.625000,8648.891532,1837.698408,58041.458023,1335.483690,542.540263,29040.073441
22,1,8,715037.500000,249706.375000,1417486.250000,74625.750000,9512.500000,708390.625000,7705.093461,1739.671875,56876.327024,1072.286080,592.687523,28480.692684
23,0,8,646685.625000,221553.500000,1287187.750000,66893.000000,7801.000000,643188.000000,13067.630092,4273.239901,60504.247005,1633.931532,598.905460,30215.442443
23,1,8,717217.500000,250569.375000,1427588.375000,74935.125000,9835.500000,713376.250000,10180.586906,3299.263514,61924.106949,1317.967416,393.566386,30999.814926
24,0,8,640912.000000,220304.500000,1334353.250000,66371.000000,8038.250000,666633.875000,3514.005158,1153.671422,44932.360256,479.094197,351.487109,22533.736887
24,1,8,711408.875000,248911.125000,1430735.125000,74146.875000,9885.750000,714940.000000,2240.098348,782.304678,69295.308873,372.363209,598.065371,34632.625882
25,0,8,641820.500000,219844.375000,1340952.375000,66121.625000,8233.500000,669974.875000,3244.977388,757.203727,108821.932152,294.194637,695.595788,54330.539530
25,1,8,718962.000000,250653.875000,1434961.750000,75377.000000,9976.375000,717034.875000,11472.935610,2468.050873,51175.095862,1665.829898,949.910382,25561.514193
26,0,8,643549.250000,220226.375000,1323994.375000,66458.500000,8085.875000,661553.500000,8854.125927,1794.226640,82102.641839,1165.757050,284.896664,40971.133512
26,1,8,713330.000000,249382.625000,1418864.375000,74345.250000,9627.500000,708930.875000,2396.296100,935.812473,101359.705606,269.754402,668.811446,50770.980497
27,0,8,642349.000000,219975.000000,1372483.125000,66378.250000,8356.375000,685805.750000,6464.474979,1738.124708,193836.864240,1158.308762,1091.093939,96848.475032
27,1,8,713124.375000,249364.500000,1461585.375000,74535.750000,9460.625000,730338.750000,6648.367430,1598.294012,50273.828644,1037.398519,547.440165,25130.880495
28,0,8,640408.750000,219882.000000,1269607.375000,66188.750000,7868.500000,634296.750000,2943.868660,665.028571,45390.139152,308.317105,438.132400,22636.021817
28,1,8,710410.625000,248684.750000,1483424.250000,74039.250000,9729.750000,741308.750000,2320.926697,714.562935,127554.137711,272.884018,696.100523,63783.459262
29,0,8,642822.750000,220384.875000,1302500.625000,66504.625000,7903.250000,650788.125000,7401.469343,1388.333933,55514.991304,997.968930,499.477665,27609.571322
29,1,8,713115.375000,249829.625000,1451387.750000,74585.625000,9655.250000,725161.125000,3582.460221,1400.754612,89111.336937,510.515900,623.746293,44343.026897
30,0,8,645927.750000,221041.875000,1315124.625000,66946.000000,7760.000000,657094.500000,10813.088455,2080.599519,63125.948411,1458.550822,602.870011,31538.867343
30,1,8,713671.000000,249540.750000,1465804.375000,74607.625000,9676.500000,732419.250000,5720.520562,1340.951038,108191.604783,1079.691152,777.114374,54108.776219
31,0,8,640412.000000,219619.500000,1291373.250000,66023.000000,7737.000000,645437.750000,2727.352150,608.564499,93472.062239,238.212090,430.042149,46768.158441
31,1,8,710287.375000,249016.875000,1428556.375000,74234.875000,9765.875000,713834.000000,3105.188076,885.827218,56339.506174,443.946629,459.138170,28201.609963
32,0,8,643881.750000,220658.500000,1292396.625000,66701.750000,7947.625000,645687.500000,5469.890601,1069.882470,51160.819674,873.748927,240.666750,25534.955262
32,1,8,716361.625000,250824.875000,1415214.500000,75280.750000,9773.375000,707076.000000,8307.068525,1626.889627,49286.973639,1316.374733,340.942788,24615.519094
33,0,8,645514.750000,221552.000000,1290399.375000,66898.125000,7838.875000,644737.250000,12826.356164,3310.587372,54723.383176,1318.721771,573.453232,27337.353885
33,1,8,711756.375000,249526.000000,1412166.750000,74444.500000,9455.500000,705487.875000,2773.509912,1027.766632,76640.109172,355.510197,389.268866,38246.912181
34,0,8,642338.875000,219906.250000,1310301.250000,66165.125000,7819.250000,654665.500000,4188.687158,791.500908,68504.705626,365.700847,262.055695,34209.003709
34,1,8,709954.500000,248702.875000,1455226.750000,74085.125000,9821.125000,727110.125000,3489.409477,427.239522,77041.955829,168.859733,419.811695,38453.041835
35,0,8,645424.250000,221146.625000,1288471.000000,66596.000000,8039.125000,643762.750000,8358.038402,3095.192156,56752.737454,959.614245,528.295002,28344.063914
35,1,8,712190.375000,249096.375000,1449472.625000,74238.750000,9598.500000,724279.000000,1086.258595,729.177094,78311.937591,464.751748,584.443539,39083.566982
36,0,8,647646.500000,221050.500000,1307489.875000,67004.750000,8326.875000,653210.375000,8433.112548,1759.769090,53217.812557,1251.384209,510.895889,26554.020693
36,1,8,714404.875000,249910.750000,1438983.750000,74787.375000,9739.250000,719077.000000,7740.645006,1638.937289,94387.588301,1113.655460,848.157083,47279.468818
37,0,8,644969.125000,220503.875000,1311576.875000,66612.750000,8118.500000,655230.625000,5415.205431,1192.745094,94734.534021,928.458635,549.225591,47147.585802
37,1,8,713224.875000,249445.000000,1384646.000000,74581.750000,9439.625000,691896.500000,8190.460693,1625.942803,73730.724127,1215.947753,449.085164,36906.974178
38,0,8,640014.000000,219549.875000,1276351.000000,66026.625000,7634.875000,637690.375000,3625.233303,1104.248550,54788.875931,451.855878,544.131289,27262.900630
38,1,8,713946.125000,250095.250000,1367625.625000,74546.250000,8992.875000,683386.875000,9195.282995,3424.807613,40631.388467,932.964596,595.751718,20285.808016
39,0,8,640783.125000,219548.625000,1292326.500000,66032.250000,7969.125000,645718.750000,3434.231626,963.014919,81755.895359,445.965736,564.517811,40893.786370
39,1,8,710237.875000,248582.625000,1367111.875000,74072.250000,9413.125000,683106.000000,2978.744972,923.617337,59698.253242,454.763056,376.167329,29837.825327
40,0,8,640458.500000,219514.000000,1280749.250000,65998.875000,7620.000000,640057.750000,2803.241918,475.216267,60780.697377,222.865676,491.779930,30486.907365
40,1,8,714522.375000,250066.125000,1397928.125000,74724.125000,9685.500000,698263.125000,3808.143476,884.287628,102334.225751,532.488600,873.820348,50882.616424
41,0,8,649376.125000,221724.000000,1286243.000000,67482.875000,7904.375000,642605.875000,12001.141221,2575.153733,30126.942883,1717.439696,397.579532,14863.937058
41,1,8,713377.125000,249326.750000,1417499.375000,74553.875000,9427.375000,708331.000000,7110.609809,1374.748136,88082.676581,907.430085,718.443619,44031.825873
42,0,8,644438.875000,220295.125000,1328749.125000,66520.250000,7999.375000,663926.375000,5955.210711,1275.573345,99784.574902,1016.898317,708.611131,49812.646938
42,1,8,714794.000000,250054.875000,1448872.875000,74704.625000,9860.375000,723945.250000,6558.867604,1512.813309,107375.973021,1104.357272,780.197882,53696.221275
43,0,8,643794.375000,220446.625000,1316804.125000,66521.500000,7712.875000,657925.250000,8609.822413,1745.652452,71466.182502,1177.804844,894.255897,35681.572397
43,1,8,713414.875000,249423.000000,1421355.500000,74468.500000,9493.125000,710182.625000,6782.144359,1730.739654,65625.568398,1180.092369,513.692135,32844.692509
44,0,8,645283.250000,220995.625000,1334104.125000,66458.000000,7778.500000,666635.500000,9020.574064,2940.529541,52564.751634,886.894018,504.510158,26221.399629
44,1,8,712323.625000,249292.125000,1431192.750000,74442.625000,9479.500000,715161.625000,7838.228131,1707.684649,85342.370411,1181.308484,678.277229,42733.720043
45,0,8,643420.000000,220270.250000,1314902.000000,66446.125000,7797.875000,657019.000000,6687.788536,1611.812392,74965.660604,1126.861841,389.116126,37593.376468
45,1,8,711376.875000,249216.750000,1540332.125000,74196.750000,9870.125000,769635.875000,4878.261382,1111.833143,202625.576730,463.303828,1048.083303,101156.253188
46,0,8,641094.625000,219899.000000,1282019.500000,66117.750000,7630.125000,640546.500000,3878.551145,1094.947259,76551.587080,393.884421,684.838930,38175.084781
46,1,8,712764.750000,249116.000000,1404118.375000,74206.125000,9575.750000,701540.250000,4615.264124,1192.266644,55175.394640,427.176321,506.882321,27620.154108
47,0,8,640393.000000,219762.625000,1251658.750000,66077.625000,7758.875000,625374.625000,4709.029173,1417.829586,76795.503681,556.149022,607.458525,38380.659267
47,1,8,716499.500000,250022.375000,1428751.750000,74927.500000,9651.375000,713873.375000,8098.907612,1709.623492,92482.267804,1120.450802,709.603752,46284.742100
48,0,8,639702.250000,219454.375000,1293999.125000,65965.000000,7920.875000,646588.625000,3347.380870,930.262589,43691.592648,370.783967,709.098801,21821.640869
48,1,8,711825.000000,249028.500000,1426635.500000,74314.250000,9441.750000,712876.750000,6733.398863,1633.381232,55868.927185,1307.142757,677.625772,27934.680859
49,0,8,641582.750000,220570.500000,1296158.000000,66391.125000,7682.500000,647527.625000,2898.241309,854.423636,46911.656563,364.549872,497.938500,23471.182746
49,1,8,710224.500000,248508.500000,1424486.750000,73935.500000,9400.000000,711853.500000,3504.330071,621.675357,102833.661509,416.711231,671.410828,51329.958233
50,0,8,639699.375000,219646.125000,1250690.250000,66032.875000,7784.125000,624904.750000,2668.944030,923.630938,78243.964703,440.143283,400.275042,39027.843416
50,1,8,711148.250000,249327.750000,1382255.750000,74277.125000,9287.375000,690613.250000,6416.873046,1422.829290,70757.824058,614.757765,743.022028,35429.647955
51,0,8,639383.750000,219260.375000,1284016.250000,65882.375000,7882.875000,641653.750000,1851.943692,461.354511,62840.471475,150.362842,520.696754,31374.238890
51,1,8,715581.500000,249995.750000,1430030.875000,74770.750000,9648.625000,714462.125000,6955.707531,1318.798388,89448.239019,1031.126781,308.347587,44736.855498
52,0,8,640207.500000,220193.500000,1285218.625000,66310.625000,7598.125000,642029.375000,2298.506689,739.802170,49487.790292,345.870257,339.037401,24650.133762
52,1,8,716273.000000,249815.375000,1447040.375000,74829.375000,9627.125000,723045.875000,8481.352177,1759.826407,122501.342935,1472.572404,559.468149,61211.157276
53,0,8,645435.000000,220997.125000,1329958.250000,66957.625000,7907.375000,664577.500000,8743.959944,2032.949670,97631.433043,1372.140293,547.252670,48697.013972
53,1,8,712268.125000,249263.875000,1515829.625000,74200.375000,10133.000000,757203.375000,4329.267532,1075.572689,131397.402709,493.325181,810.823501,65382.715776
54,0,8,641170.750000,219955.500000,1281755.625000,66200.125000,7845.875000,640451.125000,3989.668838,905.767492,80425.872149,361.043778,500.681645,40275.632026
54,1,8,715651.500000,249800.250000,1442933.500000,74867.375000,9758.000000,721073.875000,9087.656450,2233.863176,77913.211370,1411.359003,454.169021,39009.524989
55,0,8,643129.125000,220588.875000,1289860.125000,66324.000000,8111.500000,644509.000000,8307.742705,3127.476316,43308.607246,1013.477059,699.033797,21616.655084
55,1,8,712222.000000,249353.875000,1460166.500000,74289.000000,9703.875000,729556.500000,4329.520557,800.940609,90963.772487,483.586342,780.874100,45431.628875
56,0,8,645743.750000,220478.875000,1314535.750000,66713.375000,8321.250000,656770.750000,10771.602872,2319.582206,112379.575179,1558.696325,902.536253,55973.642886
56,1,8,711825.125000,248848.750000,1460355.375000,74098.000000,9406.500000,729763.625000,3475.480486,887.411932,47124.026762,441.023525,440.390736,23525.995266
57,0,8,640275.250000,219551.750000,1266042.500000,65981.875000,7679.125000,632476.500000,4310.649944,966.361960,45350.126885,367.644338,419.024593,22716.240336
57,1,8,711216.125000,248871.625000,1434617.125000,74094.500000,9032.875000,716886.000000,4865.427331,689.235616,70101.251224,573.148759,597.438791,35069.438953
58,0,9,644770.111111,220314.666667,1289367.666667,66477.000000,7887.333333,644193.111111,7258.749088,1591.318321,64731.523116,991.394416,636.936941,32307.573252
58,1,8,716217.750000,250256.875000,1406425.750000,74734.750000,9312.500000,702700.625000,16352.813701,4175.517286,89860.433199,2044.215299,947.265142,44930.434757
59,0,9,645596.777778,220469.555556,1306137.777778,66656.777778,8006.333333,652614.777778,8497.537065,1846.313330,97169.097918,1373.749757,1113.219954,48599.178893
59,1,8,717665.000000,250521.500000,1402236.750000,75136.875000,9555.875000,700501.875000,9071.878967,2075.767027,63940.433856,1239.173660,637.086815,31930.326656
60,0,9,643696.444444,220466.666667,1343191.666667,66278.777778,8075.444444,671119.555556,8219.390044,3048.345963,131295.008236,944.304539,645.438544,65617.724206
60,1,8,713221.500000,249535.000000,1416175.875000,74547.125000,9578.000000,707619.750000,8414.460589,1334.055659,50142.802154,1209.089372,710.399008,25127.986762
61,0,9,640377.777778,219243.333333,1268991.444444,65847.333333,7839.111111,634057.777778,2723.349685,555.729151,57632.189713,297.911993,550.206516,28756.305217
61,1,8,710596.875000,248902.125000,1432052.250000,74104.125000,9362.375000,715671.000000,2589.908417,758.503368,71575.123064,301.863975,563.357333,35782.895512
62,0,9,651358.222222,222143.666667,1328208.111111,67427.444444,8175.111111,663596.555556,10702.093469,2935.631070,49419.556000,1493.781340,720.757386,24728.619848
62,1,8,710848.125000,249321.125000,1460190.500000,74326.250000,9489.250000,729565.375000,3634.198035,1408.049488,65545.287880,547.039704,525.868746,32780.881299
63,0,9,643658.666667,220065.888889,1305497.777778,66360.111111,7847.222222,652149.666667,6766.657209,1615.604836,139695.956929,1037.999084,661.965890,69685.343882
63,1,8,714809.375000,249825.125000,1497240.000000,74792.875000,9603.875000,748168.250000,11509.522209,2153.473963,46504.993264,1645.936697,568.371014,23238.268103
64,0,9,642002.555556,219876.888889,1327404.888889,66281.666667,8011.888889,663371.777778,7317.812562,1621.357966,98513.378763,1074.846346,702.846347,49163.140818
64,1,8,713247.125000,249474.000000,1405448.625000,74525.125000,9308.125000,702230.750000,6489.496445,1691.682890,50153.533896,1093.731621,420.169441,25023.453053
65,0,9,642483.444444,219949.000000,1308634.222222,66142.666667,7967.333333,653787.555556,1961.284733,708.831746,50111.066136,293.208307,333.084907,25010.948958
65,1,8,710829.375000,249097.625000,1434186.000000,74186.625000,9343.125000,716632.250000,3929.033753,730.186267,39931.147304,403.938404,368.328467,19902.037256
66,0,9,642907.666667,219875.888889,1337774.666667,66264.444444,7867.777778,668423.000000,6970.970441,1439.485359,96220.108119,973.749467,532.038173,48157.771481
66,1,8,712231.875000,249230.625000,1474438.250000,74397.250000,9440.000000,736797.750000,6484.125316,1485.129703,89275.891688,1116.430668,631.573234,44672.105118
67,0,9,645747.222222,220869.888889,1313297.222222,66807.777778,7963.222222,656132.000000,7200.867599,1853.706224,71576.623679,1332.016581,388.457284,35666.629187
67,1,8,709073.875000,248433.625000,1429459.375000,73880.500000,9347.125000,714332.625000,2698.753807,380.920575,41492.951651,370.295490,317.412365,20774.380815
68,0,8,640183.125000,219622.500000,1275482.000000,65981.500000,7753.375000,637326.375000,2654.373252,756.373254,69653.506505,331.601794,484.440641,34809.625587
68,1,8,717628.625000,250929.250000,1415309.625000,74953.500000,9043.375000,707080.625000,7852.911688,2981.721304,41353.943334,1107.013098,281.831039,20807.619493
69,0,8,643476.125000,220220.375000,1308014.500000,66437.125000,8058.750000,653563.750000,6642.294077,1317.917480,60073.201900,975.855962,555.790372,29978.404889
69,1,8,717813.000000,250540.750000,1436440.250000,74825.500000,9259.125000,717744.000000,13360.706334,3678.923917,72729.545198,1672.122902,692.907901,36369.049974
70,0,8,643537.750000,220386.750000,1263319.500000,66522.875000,7823.750000,631189.750000,6630.987535,1503.655026,61472.299524,1039.557531,600.441452,30717.955245
70,1,8,715188.500000,249989.625000,1449663.875000,74525.125000,9734.250000,724181.750000,1924.532021,838.755319,65154.461327,423.982735,502.058948,32613.146631
71,0,8,643537.250000,220331.125000,1298936.250000,66461.875000,8086.500000,649027.000000,5680.750627,1476.054152,48531.333767,1067.004269,509.283320,24201.780534
71,1,8,711662.250000,249350.125000,1457399.125000,74265.125000,9743.375000,728194.750000,3594.658042,1124.698786,72960.706458,618.582945,630.934017,36489.057640
72,0,8,639210.000000,219292.000000,1294295.750000,65840.125000,7752.750000,646731.500000,2272.305162,411.329248,86554.508139,176.472687,463.009382,43243.105144
72,1,8,712778.625000,249146.875000,1436822.375000,74296.125000,9508.125000,717918.750000,8037.268954,1772.414133,56004.299060,1188.276845,431.413212,27946.556674
73,0,8,642207.375000,219996.125000,1292298.750000,66327.750000,7922.250000,645595.875000,7887.079132,1529.879116,77330.357085,1058.411162,525.934585,38595.780185
73,1,8,713507.125000,249814.250000,1468753.750000,74599.875000,9341.125000,733816.875000,5534.922254,1288.610080,58713.385613,949.779506,499.988609,29276.034130
74,0,8,640291.750000,219457.750000,1311946.750000,65917.625000,8066.000000,655599.500000,3780.177038,840.179408,71018.594607,378.156032,457.974071,35479.088570
74,1,8,710317.000000,248958.125000,1420928.125000,74061.000000,9495.625000,709978.000000,2856.379001,622.702866,86892.408084,394.484791,719.362207,43518.315001
75,0,8,646814.250000,220959.000000,1274382.625000,66872.125000,7964.875000,636719.500000,9253.933241,1978.331241,58002.499877,1368.581240,509.647289,28993.335023
75,1,8,710027.250000,249042.000000,1460707.750000,74077.250000,9519.750000,729858.250000,3680.333264,746.431678,53810.133478,446.428256,559.303529,26947.234152
76,0,8,643356.125000,220246.000000,1327077.250000,66423.625000,8102.000000,663054.750000,7410.183946,1815.789016,73034.266598,1125.799709,792.298713,36421.675822
76,1,8,712230.750000,249346.000000,1447137.125000,74384.750000,9436.750000,723117.875000,5365.243558,1694.946533,67887.194285,910.436674,708.480019,33941.791763
77,0,8,644051.625000,220347.375000,1318232.750000,66481.000000,8302.750000,658606.625000,7902.623646,1641.509590,136291.319385,1134.880390,710.393333,68018.817409
77,1,8,712886.750000,249412.875000,1458312.875000,74401.125000,9091.875000,728663.625000,8602.579333,1625.504109,44437.490997,1187.314768,644.665308,22203.661004
78,0,8,643072.750000,219765.375000,1327276.375000,66222.250000,8553.125000,663334.625000,6835.027263,1523.064094,93991.422918,1112.632548,1042.529548,47072.034601
78,1,8,715223.625000,249979.250000,1459303.625000,74710.125000,9657.625000,729127.875000,9058.503173,1699.111514,68340.763300,1044.711974,570.794389,34127.233650
79,0,8,643183.625000,220099.625000,1318164.750000,66310.375000,8228.250000,658644.125000,7008.023383,1315.757951,71243.571459,996.698793,629.951933,35576.897467
79,1,8,714514.625000,249769.500000,1457085.125000,74461.250000,9403.000000,728042.375000,4073.191652,963.495459,53758.878805,312.139292,494.869175,26983.704893
80,0,8,641257.500000,220070.000000,1316560.125000,66198.500000,8290.875000,657743.125000,4061.575526,1141.303531,68701.088409,458.697340,511.214837,34268.234797
80,1,8,715535.375000,250363.250000,1472765.250000,74592.500000,9305.750000,735894.250000,7984.575567,3218.129416,59007.211533,960.270014,693.776576,29505.971551
81,0,8,646960.125000,220936.875000,1350105.500000,66903.125000,8798.125000,674560.625000,9178.091978,1946.777173,114487.108074,1426.565494,495.611349,57234.538941
81,1,8,713205.750000,249179.500000,1477268.000000,74369.625000,9516.875000,738036.750000,8731.623757,1944.056198,70722.130893,1314.781345,663.320895,35358.159227
82,0,8,644313.375000,220241.875000,1266629.875000,66390.875000,7937.625000,632865.500000,7827.837727,1368.473916,47380.782287,1038.620893,557.588320,23670.430024
82,1,8,712093.625000,249371.250000,1443841.875000,74346.125000,9251.250000,721295.750000,5262.071382,1014.196326,92834.935211,495.420891,604.900560,46385.159073
83,0,8,641196.625000,219382.875000,1292265.000000,65857.125000,8035.625000,645800.625000,3001.977346,558.439889,90064.408089,277.231148,636.062485,45065.060523
83,1,8,713241.625000,249692.000000,1415054.375000,74641.500000,9382.875000,707071.500000,9148.743178,1851.471509,67028.715346,1102.777743,778.050358,33513.823271
84,0,8,644074.500000,220164.125000,1269129.500000,66360.250000,8050.375000,634083.625000,9841.665090,1752.436478,96428.829029,1063.450839,660.822392,48222.693387
84,1,8,720236.625000,251495.750000,1456896.875000,75426.125000,9652.625000,727901.125000,11440.857736,3373.987802,52770.323617,1453.090967,761.109377,26414.426037
85,0,8,640231.875000,219377.375000,1286320.375000,65857.500000,7954.000000,642741.500000,3195.304737,456.868947,56658.175403,266.547838,398.749922,28284.180176
85,1,8,713077.000000,249298.500000,1441496.875000,74484.250000,9288.125000,720328.750000,7462.367537,1907.448361,72093.498964,1191.814137,538.774173,36008.202884
86,0,8,644362.375000,220056.250000,1275190.000000,66342.750000,8136.875000,637153.000000,6940.231047,1497.556072,47392.442024,1097.349847,404.821083,23662.450137
86,1,8,712882.250000,249540.500000,1429078.125000,74565.375000,9448.875000,714042.500000,7657.460851,1420.097972,68486.338507,1176.928305,654.823151,34174.470559
87,0,8,641814.125000,219789.875000,1312131.250000,66069.625000,8263.625000,655569.500000,4129.092074,1079.717027,83562.421796,449.647622,464.993532,41691.701773
87,1,8,713308.875000,249407.625000,1447334.250000,74495.125000,9556.500000,723186.750000,5241.910373,1342.310316,68265.521528,1041.705385,1060.649683,34176.826702
88,0,8,643167.375000,220137.125000,1337270.625000,66371.875000,8299.250000,668171.375000,5204.275741,1385.557689,67696.375773,1092.019967,617.163825,33908.000991
88,1,8,715899.625000,250157.625000,1412459.625000,75009.375000,9370.625000,705770.000000,7966.843430,1484.673780,80755.180744,1158.186183,889.426492,40423.602208
89,0,8,645366.875000,220601.625000,1348024.500000,66548.625000,8527.875000,673558.375000,6019.327214,1799.017575,99488.123917,1164.225487,636.094615,49759.466104
89,1,8,712127.375000,249399.125000,1459081.875000,74543.750000,9324.875000,729056.500000,9962.794311,1739.567003,65799.599867,1207.155308,493.410944,32827.416785
90,0,8,645936.000000,220795.875000,1296303.875000,66669.250000,8144.000000,647673.500000,6280.065227,1499.184231,56259.322997,1031.171391,635.287533,27996.471193
90,1,8,712541.875000,249029.375000,1439240.000000,74177.875000,9595.000000,719216.875000,2299.059288,603.983844,50391.094116,286.133027,679.501104,25204.659011
91,0,8,640306.375000,219336.000000,1302176.000000,65832.500000,7849.500000,650685.000000,1683.047232,482.238530,66606.603727,222.773989,519.483397,33331.663835
91,1,8,715941.750000,249898.875000,1424636.750000,74912.500000,9594.500000,711926.875000,7450.131438,2067.563568,66174.397211,1429.388593,501.195072,33110.619269
92,0,8,640659.625000,219644.125000,1291898.125000,66033.875000,7851.000000,645369.875000,2352.847686,1041.120843,71073.874070,529.567379,667.414227,35491.278807
92,1,8,714476.625000,249592.750000,1454638.000000,74669.875000,9673.000000,726804.625000,7699.709799,1695.364913,164741.857655,1162.503595,1080.502776,82425.936105
93,0,8,641292.125000,219849.250000,1323644.000000,66110.625000,8094.500000,661301.250000,4441.810651,1208.613643,120737.955840,429.815931,676.539171,60270.489891
93,1,8,717920.750000,250390.625000,1473214.875000,75136.750000,9713.500000,736081.500000,9559.839836,1885.359577,131985.946422,1407.197992,640.386797,66096.777626
94,0,8,646932.375000,221136.000000,1324736.125000,66982.875000,8119.375000,661821.625000,9192.875529,2093.380818,42093.445316,1366.444880,504.829906,21093.000954
94,1,8,711970.750000,248680.750000,1425928.625000,74052.875000,9371.875000,712557.125000,2210.999194,574.827528,53405.008747,312.099518,435.259531,26734.078212
95,0,8,646261.000000,220918.250000,1315002.500000,66898.875000,8284.000000,657031.375000,7850.399019,1859.747412,65589.622239,1368.869738,481.247078,32892.277323
95,1,8,714789.375000,249781.250000,1435106.250000,74648.375000,9445.500000,717109.375000,8041.095960,1769.612722,100263.259893,1066.801638,628.342462,50163.708024
96,0,8,646968.000000,220954.500000,1316212.875000,66874.500000,8033.875000,657636.125000,8250.020212,1801.546003,83753.209051,1337.687837,638.411199,41873.553146
96,1,8,712021.375000,249242.500000,1405697.375000,74294.750000,9271.500000,702324.250000,2549.843178,984.189514,70430.201737,523.074983,439.490899,35120.431449
97,0,8,640431.250000,219694.500000,1284232.625000,66008.750000,7739.000000,641790.250000,3272.377719,591.697769,75397.640455,244.277378,271.494935,37911.515143
97,1,8,712367.625000,249299.625000,1477101.250000,74469.375000,9562.875000,738124.375000,8242.757047,1735.448857,71362.545500,1277.915386,690.619004,35613.834812
98,0,8,644624.750000,220430.625000,1321692.625000,66657.875000,7975.625000,660427.625000,9886.408053,1972.282874,71970.094485,1408.401260,673.457114,36026.772621
98,1,8,713608.625000,249962.250000,1467558.000000,74435.625000,9326.375000,733311.750000,11289.826913,3722.869214,130075.578218,1249.835283,480.493220,65000.028523
99,0,8,644102.250000,220250.625000,1319676.875000,66444.500000,8062.500000,659384.125000,5476.065918,1521.940040,59051.245972,1081.148810,475.421918,29548.587912
99,1,8,712612.875000,249844.875000,1456076.500000,74548.625000,9704.375000,727440.250000,3163.020646,861.633831,73388.849039,395.292593,721.595444,36726.562519
100,0,8,641594.250000,219647.500000,1310513.375000,65995.875000,7914.500000,654752.875000,3883.972025,952.533070,69634.286325,451.217918,558.268529,34823.370380
100,1,8,713070.375000,249235.375000,1435631.750000,74468.375000,9473.250000,717459.125000,5750.270058,1546.275763,54021.907590,1103.718934,493.250634,26993.580827
101,0,8,643161.250000,220555.875000,1367267.750000,66191.500000,8281.375000,683015.500000,6002.619319,2504.742374,99523.345991,623.803455,582.184021,49513.988056
101,1,8,717428.500000,250562.625000,1473506.000000,75184.250000,9672.625000,736259.875000,10193.194286,1992.274074,98774.952378,1355.497856,949.652691,49343.038079
102,0,8,654622.625000,223568.500000,1336456.750000,67634.500000,8320.000000,667748.125000,24367.169850,7174.660915,69489.230575,2629.446757,690.444422,34746.848981
102,1,8,714820.875000,249756.750000,1480198.000000,74848.125000,9872.375000,739653.625000,11758.412206,2435.147724,77379.085551,1685.496176,742.376073,38737.691577
103,0,8,651964.875000,222654.625000,1307319.250000,67088.000000,8069.250000,653264.375000,16906.479811,5608.199732,32350.528070,1724.893040,437.411062,16171.806987
103,1,8,711007.875000,249260.500000,1448006.750000,74346.750000,9448.875000,723352.500000,2615.063930,1065.235185,68971.213625,568.761099,745.477437,34141.874176
104,0,8,648951.250000,222024.500000,1336599.750000,66666.625000,8026.750000,667832.750000,16782.613323,5745.153501,58056.154004,1572.878407,422.478328,29016.087119
104,1,8,715928.875000,250060.625000,1486897.250000,74973.250000,9506.625000,743071.500000,9578.665544,1752.419894,148044.870330,1263.890200,471.854039,74172.067566
105,0,8,654046.500000,222877.250000,1366150.750000,67346.750000,8566.250000,682542.125000,19799.428710,6334.881446,134497.257942,2040.559589,837.232905,67321.455843
105,1,8,710951.875000,249153.125000,1410945.375000,74302.250000,9667.250000,705005.500000,3076.621745,566.997230,75266.935385,277.886555,373.718728,37686.808395
106,0,8,651307.500000,222819.750000,1288123.250000,67187.750000,7813.000000,643452.625000,16325.414964,5479.446705,38285.756887,1641.106620,381.421683,19025.047772
106,1,8,712871.125000,249632.375000,1467666.625000,74668.000000,9994.625000,733441.375000,6296.650289,1555.156338,98512.067036,1044.404615,684.006385,49415.173254
107,0,8,650289.375000,222565.000000,1339746.875000,67036.125000,8132.250000,669373.000000,17982.898820,5793.749045,90206.847019,1775.506649,657.549000,45003.170483
107,1,8,716989.000000,250231.250000,1476201.375000,75231.750000,9948.875000,737682.750000,11802.523925,2320.394350,94669.145956,1579.826395,691.409148,47296.838514
108,0,8,651316.000000,222772.500000,1367723.750000,67168.625000,8412.125000,683326.750000,19264.874682,6795.515672,73291.997515,2176.683885,798.280251,36704.024547
108,1,8,710791.000000,248940.125000,1486189.250000,74224.125000,9677.375000,742599.500000,3824.935228,812.628673,76274.132845,400.635569,428.274718,38369.963239
109,0,8,649031.500000,222346.375000,1321954.250000,66838.000000,8154.875000,660419.750000,18056.442984,6021.222300,64689.877299,1636.715996,482.045236,32398.882769
109,1,8,715433.750000,249773.750000,1469270.750000,74862.125000,9822.250000,734270.500000,8318.222778,1970.002839,68925.083964,1492.235859,615.521273,34451.196013
110,0,8,648506.625000,222023.000000,1320241.625000,66841.375000,8086.000000,659756.375000,17408.853631,5945.551131,99832.818628,1861.576344,567.787372,49897.903974
110,1,8,710522.000000,248901.750000,1441580.875000,74163.875000,9735.250000,720375.500000,5070.229334,960.436457,37568.474648,399.389045,756.870324,18839.013854
111,0,8,647850.250000,222446.875000,1325247.875000,66836.500000,7884.125000,661990.625000,16473.120468,5562.662839,85095.714763,1473.926983,396.755730,42335.922637
111,1,8,714887.125000,250483.500000,1433626.375000,74584.875000,9047.625000,716348.000000,10142.799594,3879.029163,60294.723424,991.123786,305.081521,30138.079202
112,0,8,650152.000000,222771.750000,1399486.250000,67168.500000,8518.625000,698898.500000,17498.780129,5616.375227,83381.686181,1676.159897,750.105982,41539.151550
112,1,8,721765.750000,252076.625000,1442118.375000,75348.625000,9647.875000,720628.375000,17052.557856,5543.854637,53327.431421,1623.848279,494.659842,26627.058559
113,0,8,650498.625000,222987.000000,1329474.000000,66899.500000,8046.875000,664318.000000,18381.668402,6281.690000,64225.551601,1686.428771,537.360781,32181.605853
113,1,8,721873.750000,251964.125000,1478928.375000,75256.375000,9552.750000,739046.250000,19795.859761,6537.613717,78430.397136,1956.461342,698.304509,39129.930503
114,0,8,649632.500000,222582.750000,1315670.500000,67073.625000,8184.250000,657435.250000,16774.043058,5831.733399,78955.044179,1713.454474,607.472582,39512.796129
114,1,8,722680.750000,252308.750000,1466426.625000,75594.000000,9557.375000,732805.875000,18988.329875,5939.930129,73815.610275,1928.489564,516.236607,36934.557055
115,0,8,652808.250000,223294.000000,1306905.500000,67551.125000,7997.375000,653093.000000,19465.533500,6321.685416,77402.261877,2003.561107,610.819723,38643.873163
115,1,8,725197.375000,252910.875000,1447023.250000,76070.250000,9786.375000,722971.375000,23943.741311,7312.539956,98348.199906,2646.996919,964.035650,49117.976057
116,0,8,647599.250000,221804.750000,1300346.500000,66593.500000,7892.875000,649762.250000,17164.357283,5840.905811,46886.342382,1578.284749,399.251311,23413.483299
116,1,8,722153.875000,252327.750000,1487465.375000,75604.000000,9719.125000,743340.625000,18092.880509,5575.991072,81466.740100,1775.164359,595.960241,40768.055264
117,0,8,654125.375000,223407.000000,1329349.625000,67585.375000,8233.750000,664287.875000,16538.444349,5351.555662,71719.899494,1765.587858,473.053578,35820.263436
117,1,8,724311.375000,253637.750000,1463546.750000,75553.625000,9466.125000,731349.375000,21256.762806,7236.279236,114030.814310,2148.329173,569.150779,56921.173670
118,0,8,650648.875000,222331.500000,1302176.125000,66989.375000,8033.625000,650666.000000,17005.189079,5794.488243,60982.328583,1762.234727,613.061363,30476.589204
118,1,8,718885.000000,251561.125000,1482288.125000,74951.125000,9538.375000,740640.125000,17081.229347,5974.832141,93374.667138,1544.018737,583.147910,46711.357892
119,0,8,647255.000000,221917.500000,1348470.250000,66659.625000,8051.750000,673834.250000,16262.607417,5736.372111,24914.002487,1532.864144,536.582647,12423.027467
119,1,8,720232.000000,251553.000000,1485450.250000,75091.500000,9828.000000,742249.625000,18780.197283,6161.188420,85164.438797,1847.593773,684.669628,42512.533561
120,0,8,649882.125000,222908.375000,1312844.250000,67090.000000,7976.750000,655903.500000,16640.828280,5414.640730,40717.203526,1386.945745,585.234942,20256.172510
120,1,8,724013.000000,252667.875000,1466702.625000,75792.750000,9956.750000,732772.500000,23139.188615,7041.521417,94679.906865,2546.454876,776.138156,47429.319716
121,0,8,649586.625000,222653.750000,1339162.375000,67123.500000,7851.875000,669080.000000,17226.471925,5781.471628,77554.916973,1740.604636,398.719964,38785.791280
121,1,8,721873.875000,252038.375000,1458110.250000,75322.875000,9762.750000,728593.125000,23460.145915,7285.988899,74692.670525,2562.091452,438.028467,37373.464746
122,0,8,649166.750000,222311.875000,1385538.000000,66982.000000,8655.625000,692283.875000,17108.806656,5868.153211,261380.536972,1807.794997,1059.343657,130508.689825
122,1,8,722385.250000,252245.250000,1450233.500000,75570.375000,9635.625000,724875.125000,17399.288561,5883.406555,56882.534576,1904.297504,684.491588,28612.599360
123,0,8,647403.875000,222288.875000,1324469.000000,66860.750000,8175.750000,661732.625000,16566.734752,5779.197186,96798.225166,1530.501695,776.074215,48408.674943
123,1,8,721004.000000,251586.125000,1403730.750000,75100.375000,9514.750000,701469.125000,17392.224434,5978.791442,75726.889141,1744.352168,649.298804,37888.505323
124,0,8,649040.750000,222321.500000,1363427.750000,66994.500000,8157.250000,681375.500000,15947.055087,5724.771480,64726.671896,1760.105395,451.173401,32412.221962
124,1,8,722439.750000,252019.250000,1413229.875000,75518.750000,9347.625000,706180.250000,23256.664334,7337.713042,60463.224235,2670.600857,653.677470,30206.680762
125,0,8,647326.875000,222066.375000,1345201.000000,66670.375000,8126.750000,672182.125000,19954.775258,6538.645787,102874.803736,1896.747607,782.144608,51376.718931
125,1,8,719829.000000,251538.750000,1444146.750000,75114.125000,9303.000000,721667.500000,16030.047918,5783.451084,106500.040805,1792.435455,683.469458,53251.922437
126,0,8,647566.500000,222225.500000,1324153.375000,66744.500000,8023.750000,661559.000000,18402.982449,6430.740412,82292.708287,1840.974470,634.392968,41110.025058
126,1,8,722803.625000,252365.875000,1431191.000000,75605.000000,9295.500000,715204.500000,16707.100466,5744.182153,74554.770310,1776.092340,543.869699,37270.114056
127,0,8,653514.500000,223713.500000,1333259.625000,67730.250000,8354.000000,666106.000000,17423.660042,5562.122100,89043.379811,1716.748070,417.096512,44514.576565
127,1,8,719596.375000,251683.625000,1431870.000000,75170.375000,9424.500000,715532.000000,16099.391735,5823.927711,63953.606878,1824.173644,422.064865,31887.021937
