0,0,4,693482.250000,240226.750000,1288043.250000,71632.500000,7824.000000,643441.500000,27936.620987,9377.978257,82125.936806,2624.076742,755.551123,40902.594371
0,1,7,725971.000000,253985.142857,1408803.142857,75686.428571,8831.000000,703892.142857,22302.618379,7784.554679,40875.215269,2183.229839,614.998722,20364.635330
1,0,3,667508.333333,231543.000000,1269221.333333,69303.000000,7840.666667,634038.000000,3377.195714,1389.688694,74926.816923,515.319965,317.259445,37385.630858
1,1,6,718439.666667,251315.000000,1373781.166667,74666.333333,8900.000000,686397.166667,19071.552241,6648.227308,71228.039672,1751.948503,698.444939,35629.162678
2,0,3,670746.666667,232016.666667,1229648.000000,70002.666667,7961.333333,614340.333333,12245.225038,2482.400764,10516.663476,1587.630170,654.535628,5251.743985
2,1,6,717979.000000,251330.000000,1371661.166667,74725.500000,8849.000000,685262.833333,18469.003384,6640.764188,84983.964192,1775.555476,585.350892,42427.017043
3,0,3,664213.333333,230577.666667,1268139.333333,68978.000000,7742.000000,633585.666667,1237.224133,523.785155,33129.944706,217.188091,414.403990,16542.148376
3,1,6,712153.000000,248764.333333,1346730.666667,74301.666667,8951.333333,672809.833333,6514.518759,1520.044261,50536.398360,1215.748009,335.462699,25263.208733
4,0,3,665037.666667,230675.666667,1321890.666667,69048.666667,8063.666667,660391.666667,1651.624722,831.277865,74573.737139,231.497060,352.821327,37247.203406
4,1,6,710938.666667,248831.500000,1335968.333333,74359.333333,9089.833333,667453.166667,7447.141368,1645.243827,59935.557904,1329.485448,856.089251,30012.215049
5,0,3,666476.000000,230928.333333,1268313.000000,69087.666667,7934.000000,633690.666667,687.352893,412.314066,19326.509117,165.042082,638.005225,9731.721819
5,1,6,708792.833333,247840.666667,1338014.000000,73713.666667,8644.500000,668452.500000,4891.418725,874.589364,47332.980264,474.901627,380.682173,23555.402217
6,0,3,664408.000000,230450.000000,1269995.666667,68950.333333,7582.000000,634561.333333,2177.384823,661.906841,61153.427739,133.457442,684.025341,30678.281583
6,1,6,713215.666667,248861.000000,1341270.500000,74343.333333,8828.333333,670096.000000,6201.314502,1836.015886,48267.492220,1258.860817,514.357744,23997.391115
7,0,3,664363.666667,230838.333333,1307419.000000,69073.333333,7866.666667,653177.000000,516.749671,321.903022,42668.739072,310.026164,75.021478,21339.409739
7,1,6,709822.166667,248578.333333,1361607.500000,73969.333333,8703.666667,680243.166667,5098.764406,519.625079,72741.979835,428.016614,593.735257,36410.636795
8,0,3,669043.333333,231218.666667,1279968.666667,69105.333333,7569.333333,639492.333333,4389.696446,560.300118,38684.184170,41.266074,519.476874,19328.474510
8,1,6,712132.500000,248531.166667,1327543.166667,74176.166667,8820.333333,663304.333333,9744.737157,1778.961159,43733.484888,1226.353459,640.926066,21859.685867
9,0,3,666660.333333,230939.333333,1322934.666667,69032.666667,7789.333333,660959.000000,4472.532790,815.731301,95787.019101,204.054459,537.845290,47940.616204
9,1,6,713251.166667,249246.500000,1372187.666667,74458.166667,8972.333333,685561.166667,9451.383804,1566.988380,77199.658230,1263.970914,848.596619,38595.132700
10,0,3,666810.333333,231110.666667,1321011.666667,69233.333333,7744.333333,659948.000000,3478.954760,749.727654,23744.734017,333.992349,402.883220,11757.244660
10,1,6,717063.666667,249937.333333,1368104.666667,74995.166667,9191.666667,683490.000000,5527.241798,1587.545975,88616.894263,1183.488687,775.625482,44359.390028
11,0,3,669364.666667,231837.000000,1325732.333333,69573.000000,7911.000000,662200.333333,2511.447038,864.317457,23848.185316,291.823006,418.918449,11837.617337
11,1,6,713683.833333,249003.166667,1378395.500000,74395.500000,8899.166667,688652.333333,8633.373875,1496.481364,45056.632914,1337.287647,598.142518,22418.589531
12,0,3,667853.333333,230935.000000,1218984.333333,69122.666667,7969.000000,609038.333333,1488.291489,415.040560,32236.743935,94.369251,217.955653,16147.716977
12,1,6,708688.833333,248106.500000,1337247.000000,73767.666667,8678.166667,668109.166667,2918.567138,304.071675,72445.436597,394.717058,292.868808,36196.156557
13,0,3,668069.000000,230633.000000,1280787.000000,69012.333333,8146.333333,639913.333333,1274.924573,149.374250,45799.955830,156.111783,128.502486,22953.998698
13,1,6,707592.333333,247736.000000,1353082.833333,73633.333333,8704.166667,676053.666667,2019.311984,427.546099,63137.690791,349.402665,612.383436,31539.064241
14,0,3,674581.333333,231924.666667,1281849.333333,70033.333333,7983.666667,640445.333333,11544.616995,2545.238867,56513.343394,1556.168229,410.931733,28198.385111
14,1,6,712506.833333,249206.500000,1367461.833333,74487.333333,8975.666667,683157.500000,6234.846093,1756.472483,75091.458306,840.005093,548.856893,37393.886251
15,0,3,666082.000000,231237.666667,1292638.333333,69288.666667,8052.333333,645771.333333,4382.659086,794.046318,66450.241682,283.302351,310.192772,33182.432153
15,1,6,712660.333333,249563.333333,1356619.500000,74180.500000,8828.333333,677805.833333,8423.094278,3317.800409,40179.134663,695.373461,696.309957,19962.815912
16,0,3,665780.000000,231112.333333,1265633.000000,69270.333333,7916.333333,632231.333333,1605.498054,965.277968,23997.189183,522.571420,338.712595,12190.510854
16,1,6,712425.333333,248857.000000,1394091.166667,74290.166667,9152.500000,696552.666667,11239.070701,1708.215931,57421.003664,1404.549206,818.361320,28721.333155
17,0,3,664880.333333,230857.333333,1335280.333333,69083.666667,7676.666667,667231.666667,1491.968796,244.636238,22459.930785,183.329091,46.348918,11205.149481
17,1,6,712609.833333,249313.500000,1371483.000000,74475.333333,8819.833333,685147.333333,9596.441466,1900.950968,79604.829860,1212.307808,596.237485,39778.875079
18,0,3,665303.000000,230779.666667,1309556.333333,69040.333333,7651.666667,654306.666667,2563.670936,377.226133,68421.136580,95.381107,312.499956,34236.719959
18,1,6,711742.666667,249175.166667,1368242.500000,74399.333333,8654.166667,683574.833333,6231.576143,1352.430087,65273.750022,1049.825806,589.204666,32713.704847
19,0,3,665019.333333,231104.333333,1321570.000000,69276.000000,7877.000000,660243.333333,3953.261466,909.253296,41849.064960,331.111260,469.856006,20768.558052
19,1,6,710372.333333,248850.166667,1360755.333333,74088.666667,8628.166667,679647.500000,3633.305871,1163.015394,37162.483756,622.354311,668.848617,18670.326963
20,0,3,665891.666667,231110.666667,1293473.666667,69207.333333,7486.000000,646301.333333,2102.298795,211.485749,69776.434347,107.843508,260.930387,34894.474848
20,1,6,708241.666667,248542.333333,1295186.500000,73877.666667,8216.166667,647030.666667,3770.891215,1230.392981,76045.215049,327.519295,737.778516,37933.599999
21,0,3,663184.000000,230793.000000,1247797.666667,69126.333333,7833.333333,623434.000000,1675.159893,414.834907,46365.723089,100.207562,313.566934,23201.414885
21,1,6,708938.333333,248417.500000,1356374.833333,73862.333333,8693.666667,677575.666667,4591.272651,744.790295,59527.648387,519.850833,715.642757,29765.642513
22,0,3,666518.666667,231183.333333,1272317.666667,69265.000000,8092.666667,635655.333333,4663.432236,1196.569913,54648.352011,525.037776,209.816322,27229.813812
22,1,6,708750.500000,248207.666667,1348194.333333,73809.833333,8602.833333,673479.000000,5012.729355,1040.903240,59292.264385,653.621301,684.697358,29611.359048
23,0,3,669284.000000,231396.333333,1234416.333333,69346.000000,8016.333333,616691.000000,4019.005433,899.003275,46663.544153,298.851134,148.086311,23242.098198
23,1,6,708275.166667,248122.166667,1360038.500000,73742.333333,8528.833333,679516.833333,3499.815539,907.833762,75839.100381,521.397055,613.955323,37879.068364
24,0,3,666018.000000,230767.666667,1215786.333333,69095.000000,7760.000000,607418.666667,2419.491269,252.477502,14495.027983,79.158070,159.476226,7261.293243
24,1,6,709049.500000,248269.333333,1383784.833333,73743.166667,9097.833333,691355.833333,5622.983928,1436.789322,71357.615261,626.634773,658.132564,35589.158056
25,0,3,664042.666667,230561.000000,1269971.000000,68990.666667,7921.333333,634541.666667,4370.648947,658.954222,41920.239511,211.699997,192.686850,20977.127613
25,1,6,708972.166667,248631.833333,1356986.166667,73927.500000,8878.000000,677911.666667,4018.710466,807.826387,46950.699971,546.219355,568.943758,23542.817692
26,0,3,667926.666667,231574.000000,1318302.000000,69414.666667,8168.333333,658620.000000,4489.332121,651.274136,28348.675207,214.695650,468.003086,14299.512323
26,1,6,711063.333333,248859.666667,1346453.833333,74268.666667,8804.500000,672729.666667,6750.116065,1808.645134,71949.006343,1300.788692,448.780477,35944.062123
27,0,3,666233.000000,231691.666667,1305408.333333,69516.666667,7831.666667,652049.000000,1426.605996,531.266621,48214.494787,325.670931,333.586904,24133.301680
27,1,6,713209.333333,250195.833333,1358001.000000,74388.333333,8687.833333,678360.500000,10861.666242,3611.331814,52000.712505,997.906253,610.088359,26034.896676
28,0,3,680916.000000,235267.333333,1288120.666667,71059.000000,7855.666667,643587.000000,10687.257740,3893.408475,72998.645418,1406.477396,392.983743,36539.323229
28,1,6,709330.000000,248506.333333,1339457.833333,74106.500000,8576.166667,669221.166667,6144.427231,1719.401802,62940.487932,950.859041,373.493604,31546.124212
29,0,3,665737.666667,231271.000000,1307089.000000,69304.333333,7543.000000,652967.333333,4177.358522,1013.637345,82193.128744,448.967210,341.646991,41078.169582
29,1,6,709698.333333,248829.166667,1322373.666667,73966.166667,8874.000000,660624.833333,5358.509048,1131.533240,17340.831522,593.143158,729.596235,8709.024906
30,0,3,666628.000000,231544.000000,1295308.000000,69381.666667,7417.333333,647100.666667,4577.722214,918.245065,27631.677075,324.610878,416.500767,13905.698504
30,1,6,720060.166667,250540.666667,1403116.500000,75431.000000,9384.833333,701026.166667,10120.622172,1970.520800,74889.632342,1721.281983,1049.947366,37367.059649
31,0,3,666608.666667,230786.666667,1304061.000000,69057.000000,7284.666667,651544.333333,2246.847470,565.235251,87429.367907,122.673007,483.560636,43757.315741
31,1,6,713671.000000,249318.000000,1396666.500000,74447.000000,8944.666667,697774.000000,6780.904217,1942.823289,86145.656878,1237.602656,958.578403,43058.785267
32,0,3,670293.666667,231811.000000,1270261.333333,69424.666667,7452.000000,634592.333333,2894.096789,1078.486285,50542.707158,538.088179,65.741920,25119.092026
32,1,6,711919.833333,249107.500000,1387986.833333,74123.000000,9164.833333,693338.833333,5010.096054,1189.209366,89929.448546,471.207668,798.728869,44966.516441
33,0,3,675726.000000,232651.666667,1266927.000000,70288.333333,7919.000000,633017.333333,11628.295003,1813.861872,47510.934517,1462.799219,622.501941,23701.698847
33,1,6,714226.166667,249527.500000,1347519.666667,74533.166667,9019.333333,673150.833333,6808.959671,1573.280622,89146.607009,1252.209436,826.310205,44545.509162
34,0,3,668480.000000,231190.000000,1310141.000000,69174.333333,7572.000000,654604.666667,3171.244656,394.590927,80159.616479,118.665730,370.292677,40078.852498
34,1,6,716609.500000,250215.000000,1413118.333333,74655.166667,9357.666667,706088.500000,9739.743610,3565.054651,56735.784398,1461.838274,955.184217,28376.609040
35,0,3,667747.000000,230701.666667,1249824.333333,68969.333333,7744.000000,624422.666667,2664.857219,133.562303,47729.978674,130.642855,327.233861,23924.543247
35,1,6,710320.833333,248259.666667,1367528.333333,73855.166667,9103.833333,683184.333333,2957.247054,437.134864,84560.511885,181.587827,461.305906,42302.048357
36,0,3,684428.000000,235967.333333,1275982.000000,71200.000000,8111.666667,637426.666667,8768.650333,3950.986065,42936.582126,1316.608775,341.896996,21451.729291
36,1,6,713610.333333,248986.166667,1366366.833333,74372.666667,9130.500000,682632.666667,6840.050991,1798.753218,64265.099493,1227.035814,831.891569,32072.852657
37,0,3,668362.000000,230909.333333,1229648.333333,69123.333333,7941.000000,614305.666667,1552.327929,426.286549,11188.223938,97.366433,334.611217,5666.191686
37,1,6,716705.000000,250237.166667,1391573.666667,74939.833333,9315.333333,695026.833333,6219.293985,948.057913,51357.403266,978.605030,594.099505,25730.022363
38,0,3,666049.000000,230396.666667,1270812.333333,68947.333333,7486.000000,634903.000000,2390.410983,625.973553,33514.689778,236.961788,721.582058,16736.261072
38,1,6,712776.333333,248785.333333,1333991.333333,74311.000000,8894.666667,666451.333333,9140.022259,1505.119449,60249.914746,1077.004333,479.148434,30105.236370
39,0,3,667825.000000,231152.000000,1298670.333333,69123.666667,7914.333333,648848.000000,2740.930864,130.187045,51597.178220,135.598263,298.757799,25780.799522
39,1,6,709088.000000,248189.500000,1375476.500000,73841.166667,8721.000000,687233.166667,4952.475677,827.090231,49301.711582,319.221666,628.722514,24639.288135
40,0,3,675754.666667,233170.666667,1257242.333333,70524.333333,8059.333333,628011.666667,7301.097741,1542.388047,7668.513386,1324.765220,578.528209,3945.228539
40,1,6,710689.833333,248576.333333,1369630.333333,73985.000000,8785.500000,684287.833333,3011.826988,757.821146,69982.689356,269.227908,627.717758,34928.440987
41,0,3,673971.333333,232799.333333,1266117.333333,70347.333333,8480.333333,632505.666667,10147.138064,1929.058550,51548.780945,1498.796480,529.461571,25686.314415
41,1,6,715335.000000,249707.333333,1381631.666667,74271.500000,9085.500000,690287.166667,6297.827456,2903.765697,30518.376020,851.961805,616.579476,15235.434743
42,0,3,668976.666667,231368.000000,1264345.666667,69308.000000,7627.333333,631636.000000,3048.721080,233.625056,46849.782471,230.542838,589.147595,23361.139199
42,1,6,712835.666667,249097.833333,1394309.000000,74451.333333,9044.166667,696573.500000,9561.429176,1686.089106,60425.106289,1176.286341,731.579437,30205.488413
43,0,3,678413.333333,234663.333333,1308939.333333,70308.666667,8007.000000,653895.666667,15575.469973,5677.940726,19764.787449,1782.958278,335.637701,9973.195186
43,1,6,713905.333333,249225.500000,1356496.666667,74474.500000,8938.833333,677704.833333,7256.394850,1423.509367,45418.509302,966.043262,473.129798,22650.658331
44,0,2,668312.500000,230888.000000,1248197.000000,69115.000000,7820.500000,623642.500000,2281.500000,117.000000,2065.000000,9.000000,434.500000,966.500000
44,1,6,710179.333333,248026.166667,1336988.666667,73729.500000,8534.500000,668009.333333,4191.086242,595.608209,58431.161143,126.300897,901.245943,29184.702132
45,0,2,672085.000000,231835.500000,1302389.500000,69578.500000,8169.000000,650545.000000,1685.000000,490.500000,33385.500000,324.500000,500.000000,16575.000000
45,1,6,710799.333333,248296.666667,1365214.166667,73823.166667,8868.166667,682007.166667,5213.274552,926.786143,88049.156079,274.513762,675.885941,43874.173984
46,0,2,680613.000000,233221.500000,1268587.500000,70799.500000,8249.000000,633784.500000,10589.000000,2302.500000,44518.500000,1599.500000,175.000000,22270.500000
46,1,6,716874.666667,250552.166667,1380257.666667,74571.000000,8609.500000,689395.666667,12334.936774,3701.522453,56518.397838,1246.176686,732.244665,28213.427552
47,0,2,670805.000000,231219.500000,1283698.000000,69327.000000,8004.500000,641175.000000,3711.000000,661.500000,53376.000000,306.000000,546.500000,26556.000000
47,1,6,718756.666667,249910.166667,1366729.166667,74565.166667,9135.166667,682874.166667,10907.743208,3313.248628,74116.391908,1411.861350,912.047041,36970.742155
48,0,2,667737.000000,230514.500000,1269817.500000,69007.000000,7646.500000,634401.000000,848.000000,289.500000,53287.500000,24.000000,680.500000,26696.000000
48,1,6,711193.333333,247922.833333,1377014.500000,73670.333333,8626.500000,687984.833333,2389.173474,465.965098,58732.502605,188.759694,754.015860,29347.089642
49,0,2,666101.500000,230345.500000,1253198.000000,68899.500000,7596.000000,626202.500000,1782.500000,84.500000,45812.000000,103.500000,343.000000,23014.500000
49,1,6,712074.000000,248396.333333,1383319.500000,73901.833333,8831.833333,691145.500000,3461.775412,882.346430,29240.667068,436.763634,314.592550,14590.847094
50,0,2,667491.000000,230450.500000,1275353.500000,68899.000000,7652.000000,637246.500000,58.000000,56.500000,15698.500000,85.000000,164.000000,7876.500000
50,1,6,714143.166667,249083.500000,1335546.000000,74174.666667,8845.833333,667072.000000,3170.337070,1441.428892,56687.637970,579.204531,864.409513,28280.895395
51,0,2,667200.000000,231017.000000,1264028.000000,69100.500000,7686.500000,631615.500000,980.000000,30.000000,36166.000000,103.500000,539.500000,18116.500000
51,1,6,720464.666667,250568.500000,1381576.333333,75410.166667,9081.333333,690264.500000,12069.942925,2439.468573,85298.155382,1831.124374,840.760106,42594.696829
52,0,2,667585.000000,230905.500000,1252079.000000,69069.500000,7932.000000,625580.000000,2294.000000,793.500000,49919.000000,166.500000,369.000000,25019.000000
52,1,6,715371.000000,249311.333333,1354118.500000,74583.833333,8909.000000,676523.500000,7926.950780,1943.127519,76189.863999,1178.673607,691.620561,38118.705346
53,0,2,670887.000000,231380.000000,1321845.500000,69311.000000,7630.500000,660358.500000,966.000000,846.000000,4724.500000,270.000000,75.500000,2279.500000
53,1,6,711940.500000,248467.333333,1393750.333333,74024.500000,8972.833333,696405.666667,3279.422752,921.884784,58034.441644,402.346762,535.602594,28988.648690
54,0,2,667928.500000,230369.000000,1268049.500000,68901.500000,7064.500000,633603.500000,2395.500000,142.000000,49390.500000,71.500000,124.500000,24687.500000
54,1,6,715140.000000,249157.333333,1339483.333333,74566.166667,8668.833333,669242.000000,8784.433258,1927.331114,49271.064618,1261.012083,619.740380,24680.066849
55,0,2,668032.500000,230590.500000,1391224.500000,69040.000000,7498.000000,695099.000000,347.500000,368.500000,6972.500000,37.000000,177.000000,3524.000000
55,1,6,711002.500000,248176.333333,1359733.333333,73914.833333,8467.166667,679349.500000,3077.870517,958.031431,37116.335755,421.344442,484.867479,18575.251705
56,0,2,668186.000000,230485.000000,1263683.500000,68991.500000,7740.500000,631430.500000,1064.000000,159.000000,41134.500000,29.500000,183.500000,20628.500000
56,1,6,716438.833333,249424.000000,1328938.000000,74944.000000,9063.500000,663940.333333,10573.247726,1940.538499,73659.035687,1506.647493,571.085735,36953.471784
57,0,2,668967.000000,231244.000000,1325800.000000,69329.000000,7575.000000,662360.000000,1321.000000,1081.000000,14760.000000,409.000000,75.000000,7268.000000
57,1,6,713918.833333,248857.000000,1319529.333333,74426.000000,8887.166667,659240.333333,10412.171442,2336.961917,26499.897149,1367.309524,720.953400,13246.482598
58,0,2,666532.500000,230372.000000,1269143.500000,68943.000000,7645.000000,634104.500000,1119.500000,620.000000,68620.500000,142.000000,656.000000,34314.500000
58,1,6,710159.500000,247924.333333,1363776.333333,73815.833333,8661.833333,681384.000000,3295.209844,731.272787,47943.577021,248.913249,412.699009,24021.829045
59,0,2,670748.500000,232074.500000,1278828.000000,69684.000000,7720.000000,638708.500000,1776.500000,1397.500000,31538.000000,564.000000,382.000000,15579.500000
59,1,6,713075.666667,249079.166667,1328946.333333,74282.333333,8650.000000,663765.000000,2455.627799,1042.535118,55450.332799,504.512526,532.071111,27708.721190
60,0,2,679064.500000,233790.000000,1266164.500000,71077.000000,7980.000000,632506.500000,7021.500000,1638.000000,19392.500000,1301.000000,8.000000,9744.500000
60,1,6,719300.000000,249979.000000,1316098.833333,75091.333333,9278.500000,657563.666667,9871.182097,1802.974857,43450.281600,1337.064529,730.895056,21748.278994
61,0,2,667296.000000,230229.000000,1294968.500000,68878.500000,7519.500000,647051.500000,1249.000000,805.000000,74373.500000,229.500000,47.500000,37202.500000
61,1,6,711485.166667,248174.666667,1311918.333333,73879.166667,9123.333333,655458.333333,1636.882954,572.248101,46976.841953,233.609658,555.285712,23485.385744
62,0,2,667980.000000,231009.000000,1255186.000000,69188.500000,7463.500000,627148.500000,1260.000000,105.000000,24791.000000,79.500000,82.500000,12397.500000
62,1,6,712757.666667,248802.500000,1347957.000000,74178.666667,9095.166667,673333.666667,2522.344588,1104.158616,55919.811924,438.622338,599.333357,28045.320398
63,0,2,666300.000000,230737.500000,1293428.000000,69144.500000,7450.000000,646149.000000,2020.000000,1219.500000,68644.000000,401.500000,95.000000,34181.000000
63,1,6,715146.666667,249405.333333,1404189.666667,74657.333333,9161.333333,701497.666667,7277.024361,1571.683563,68246.264376,1184.247816,296.299211,34000.191522
64,0,2,677203.000000,233341.500000,1302895.500000,70811.000000,7832.000000,650934.000000,9625.000000,1573.500000,43541.500000,1498.000000,327.000000,21737.000000
64,1,6,713183.666667,249009.500000,1387544.000000,74484.166667,9250.666667,693269.333333,7925.549059,1712.406469,93743.348054,1335.633610,702.981666,46933.180976
65,0,2,667513.500000,231129.500000,1329428.500000,69189.000000,7524.000000,664282.500000,2825.500000,66.500000,34681.500000,68.000000,420.000000,17387.500000
65,1,6,708809.666667,247673.833333,1355162.666667,73719.666667,9029.166667,677075.000000,1222.734731,169.943536,60744.395694,145.903697,569.918830,30354.383368
66,0,2,669329.500000,231434.000000,1279832.000000,69369.000000,7756.500000,639360.500000,3302.500000,296.000000,75042.000000,269.000000,704.500000,37347.500000
66,1,6,715534.166667,249341.833333,1373899.166667,74690.500000,9192.666667,686321.166667,7047.855523,1637.091060,49673.618670,1078.388729,432.546594,24770.234385
67,0,2,666905.500000,230884.000000,1291103.000000,69096.500000,7701.500000,645153.000000,819.500000,717.000000,8352.000000,128.500000,81.500000,4190.000000
67,1,6,712357.500000,248542.333333,1378935.833333,74300.833333,8901.166667,688979.000000,7125.704380,1836.045539,51641.707409,1159.078573,426.626463,25808.281132
68,0,2,682109.500000,235406.500000,1285962.500000,70448.500000,8062.000000,642610.000000,12209.500000,4243.500000,77105.500000,1303.500000,403.000000,38568.000000
68,1,6,716684.166667,249512.833333,1368859.500000,74742.666667,9087.833333,683719.500000,7316.940991,1401.354513,43816.178818,1093.714568,235.042136,22017.996153
69,0,2,668519.000000,231219.500000,1264482.500000,69215.000000,7837.000000,631786.000000,895.000000,522.500000,34790.500000,126.000000,169.000000,17357.000000
69,1,6,718125.666667,249911.500000,1433334.000000,75063.500000,9329.500000,716313.833333,9438.090196,1829.824012,90010.743224,1418.225858,508.251496,45053.400162
70,0,2,665979.000000,230379.000000,1295608.500000,68925.500000,7511.000000,647366.500000,387.000000,36.000000,2817.500000,44.500000,218.000000,1413.500000
70,1,6,714583.333333,248784.000000,1368533.333333,74401.166667,9059.166667,683836.500000,7268.814362,1541.223324,55783.737752,1067.685568,563.878952,28007.731592
71,0,2,665500.000000,230617.000000,1229653.500000,69023.000000,7208.000000,614379.500000,454.000000,3.000000,34120.500000,39.000000,55.000000,17078.500000
71,1,6,710433.666667,248308.833333,1380289.500000,73969.500000,8831.833333,689589.000000,2066.751853,575.039540,48480.874936,371.882934,606.543600,24264.832831
72,0,2,667400.500000,231620.500000,1284312.500000,69443.500000,7615.000000,641587.000000,2292.500000,638.500000,41927.500000,363.500000,299.000000,20877.000000
72,1,6,711020.500000,248578.333333,1390284.833333,74094.000000,9466.666667,694511.500000,2846.459892,1127.162169,63450.645968,590.099992,930.502493,31580.613160
73,0,2,666827.500000,231244.500000,1292171.000000,69203.000000,7623.000000,645720.500000,660.500000,158.500000,79572.000000,39.000000,312.000000,39816.500000
73,1,6,715292.333333,249241.500000,1361640.000000,74536.500000,9105.000000,680230.166667,7393.487532,1511.969328,40838.267413,1080.776071,400.940977,20363.237262
74,0,2,669697.000000,230868.000000,1343895.500000,69108.500000,7813.000000,671450.500000,3118.000000,351.000000,48288.500000,82.500000,111.000000,24131.500000
74,1,6,710807.833333,248499.666667,1355640.833333,74045.833333,8949.166667,677259.833333,1873.601382,764.617261,56305.157003,511.466981,355.930900,28217.581094
75,0,2,667604.500000,230506.000000,1209306.500000,69009.500000,7138.500000,604217.500000,2643.500000,680.000000,1288.500000,243.500000,149.500000,654.500000
75,1,6,710769.166667,248122.666667,1381887.833333,73837.166667,9188.000000,690482.166667,2707.436698,745.330725,66626.314680,376.158839,779.597332,33289.102333
76,0,2,671045.500000,231980.500000,1330678.500000,69664.000000,7680.000000,664633.500000,590.500000,599.500000,11286.500000,185.000000,86.000000,5574.500000
76,1,6,708662.000000,247802.333333,1363516.500000,73741.500000,8646.000000,681295.833333,3167.173609,699.809180,23009.480037,274.074655,520.857626,11476.782801
77,0,2,668249.500000,231139.500000,1305098.000000,69195.000000,7693.500000,652143.000000,1480.500000,79.500000,11477.000000,31.000000,214.500000,5737.000000
77,1,6,710015.333333,247945.000000,1342108.666667,73774.666667,8587.833333,670573.166667,2298.560322,497.603925,63611.699835,286.148951,527.045987,31837.118904
78,0,2,676777.500000,233022.000000,1250030.500000,70699.500000,7755.500000,624497.500000,11159.500000,1868.000000,39479.500000,1529.500000,690.500000,19732.500000
78,1,6,714524.333333,249033.833333,1373119.000000,74499.333333,8693.166667,685964.333333,6916.467443,1720.778353,66841.166420,1110.611193,474.692678,33429.771321
79,0,2,666455.000000,230645.000000,1274850.000000,68919.500000,7727.500000,636734.500000,2510.000000,222.000000,39497.000000,109.500000,37.500000,19431.500000
79,1,6,713957.500000,248869.000000,1375392.333333,74405.000000,8933.333333,687279.833333,7839.775034,1929.121648,38606.469305,1170.328729,479.220084,19381.915569
80,0,2,667675.500000,231660.500000,1317752.500000,69453.000000,8495.500000,658220.000000,538.500000,1267.500000,112432.500000,542.000000,397.500000,56055.000000
80,1,6,710013.333333,248060.500000,1397153.500000,73819.333333,9153.666667,698005.500000,3209.474187,657.681471,94588.651239,209.519026,690.248184,47150.010780
81,0,2,679831.500000,235250.000000,1296978.500000,70357.000000,7658.000000,647993.500000,14922.500000,5347.000000,56888.500000,1647.000000,82.000000,28406.500000
81,1,6,709787.000000,247875.666667,1349250.833333,73787.500000,8855.666667,674092.833333,2926.198045,674.232568,63763.408105,380.294075,367.205513,31867.531697
82,0,2,668549.500000,231223.500000,1308879.000000,69188.000000,7985.000000,653989.500000,5.500000,649.500000,67075.000000,236.000000,374.000000,33608.500000
82,1,6,722182.500000,251233.833333,1443094.500000,75463.666667,9578.500000,720910.500000,18012.861995,5029.143480,77474.823835,2198.786382,331.421056,38815.156029
83,0,2,666000.500000,230637.500000,1260298.000000,68976.000000,7215.000000,629723.500000,3125.500000,333.500000,45487.000000,58.000000,491.000000,22788.500000
83,1,6,714560.666667,249467.833333,1366751.666667,74700.666667,9300.000000,682766.500000,11009.144906,2138.553593,77003.400576,1443.454383,692.334457,38500.988043
84,0,2,667234.500000,231376.500000,1310780.000000,69330.000000,7533.000000,654806.500000,4162.500000,972.500000,2826.000000,429.000000,207.000000,1554.500000
84,1,6,710429.333333,248301.000000,1337479.000000,74026.833333,8668.833333,668157.500000,3124.969582,843.998618,46807.643140,512.751212,757.167180,23387.623114
85,0,2,666366.000000,230906.500000,1330861.000000,69090.500000,7221.500000,664927.500000,107.000000,185.500000,32030.000000,76.500000,129.500000,16007.500000
85,1,6,715855.000000,249735.333333,1362052.333333,75047.166667,9372.333333,680430.166667,10896.408430,2079.880258,24071.636987,1479.393954,741.134191,12053.097671
86,0,2,664216.500000,230263.500000,1338224.000000,68824.500000,7391.500000,668725.500000,1053.500000,36.500000,43995.000000,19.500000,133.500000,21927.500000
86,1,6,714205.166667,249400.000000,1375453.833333,74687.333333,9346.833333,687024.500000,9228.654171,1776.994373,58499.280159,1242.696486,694.771765,29145.041875
87,0,2,665416.000000,230444.000000,1277077.000000,68888.000000,7560.500000,638107.500000,2817.000000,162.000000,84248.000000,92.000000,136.500000,42177.500000
87,1,6,708950.333333,247842.833333,1385302.166667,73818.000000,9003.000000,692095.833333,2646.024607,526.677136,57778.958712,230.545729,543.386603,28951.655574
88,0,2,677308.000000,232795.500000,1228087.500000,70573.000000,8168.500000,613611.500000,11876.000000,1906.500000,39461.500000,1503.000000,801.500000,19671.500000
88,1,6,714710.833333,249091.833333,1398070.166667,74593.333333,9331.833333,698427.000000,9810.150227,2187.963011,69275.850226,1377.796268,884.282273,34613.348504
89,0,2,669447.500000,232067.000000,1349516.000000,69589.500000,8172.000000,674122.000000,617.500000,145.000000,33246.000000,60.500000,372.000000,16620.000000
89,1,6,713742.166667,249223.666667,1377249.833333,74620.833333,8531.500000,688039.666667,8764.387741,1888.086656,73002.455861,1392.130671,991.999286,36483.716284
90,0,2,665599.000000,230945.500000,1245740.500000,69091.000000,7674.500000,622357.000000,774.000000,87.500000,31931.500000,55.000000,290.500000,15945.000000
90,1,5,710611.400000,248369.400000,1370835.000000,73942.400000,9179.600000,684698.600000,1881.371904,920.147510,51644.254639,364.570213,595.201680,25642.883571
91,0,2,665554.500000,230813.000000,1233551.500000,68963.500000,7613.000000,616306.500000,1835.500000,271.000000,11389.500000,148.500000,224.000000,5687.500000
91,1,5,715195.800000,249482.400000,1337492.000000,74715.000000,9041.000000,668167.600000,8171.118195,2104.777860,62338.806164,1316.310602,748.773664,31081.233680
92,0,2,671442.500000,231336.500000,1281286.500000,69299.500000,7843.500000,640057.500000,1021.500000,725.500000,40671.500000,364.500000,11.500000,20152.500000
92,1,5,714925.200000,249609.000000,1372159.600000,74763.800000,8822.000000,685430.600000,6245.694498,1599.076483,38489.482832,1083.415784,769.063847,19296.387606
93,0,2,667247.000000,230400.000000,1323851.500000,68879.500000,7989.500000,661480.000000,3878.000000,756.000000,41519.500000,235.500000,453.500000,20823.000000
93,1,5,721464.200000,251231.000000,1414310.400000,75187.400000,9357.200000,706640.600000,9003.629766,3367.964727,91180.823476,1288.319308,541.472585,45622.928935
94,0,2,669800.500000,231530.000000,1346601.000000,69315.500000,7994.500000,672708.000000,3033.500000,531.000000,24105.000000,281.500000,385.500000,11886.000000
94,1,5,712504.000000,248682.000000,1414696.000000,74099.400000,8920.200000,706675.600000,3863.854500,1092.186248,25302.094617,541.688324,525.946157,12823.569684
95,0,2,668794.500000,231019.500000,1247678.000000,69094.500000,7598.500000,623295.000000,57.500000,220.500000,6713.000000,44.500000,202.500000,3304.000000
95,1,5,711730.600000,248489.400000,1374797.800000,73981.200000,9094.200000,686832.200000,3334.628471,642.061866,36987.443996,429.418863,387.893491,18543.136114
96,0,2,667815.000000,230971.000000,1327245.000000,69077.500000,7616.000000,663205.000000,1745.000000,413.000000,15029.000000,207.500000,219.000000,7508.000000
96,1,5,710757.000000,248336.600000,1353344.200000,73932.000000,8913.200000,676056.000000,1720.339153,1134.910675,24794.413656,499.417661,457.233157,12345.674044
97,0,2,665658.500000,230444.500000,1227447.500000,68931.000000,7868.500000,613308.500000,1197.500000,243.500000,6983.500000,44.000000,121.500000,3486.500000
97,1,5,709396.000000,247823.200000,1382553.200000,73719.800000,8694.200000,690806.200000,2305.560843,194.625178,74009.407333,193.349838,719.940386,37000.296320
98,0,2,678846.000000,232749.500000,1226406.500000,70556.000000,8280.500000,612692.000000,12465.000000,2516.500000,37295.500000,1691.000000,1145.500000,18750.000000
98,1,5,710775.000000,248715.400000,1406992.600000,74056.800000,9195.800000,702831.600000,2333.591909,1182.802198,120967.881103,325.214022,534.540326,60280.887643
99,0,2,669719.000000,231367.000000,1302171.000000,69272.000000,7839.000000,650500.500000,290.000000,600.000000,685.000000,343.000000,308.000000,410.500000
99,1,5,716411.600000,249568.600000,1366058.800000,74941.600000,9092.800000,682522.400000,10432.092036,2659.479994,47367.572956,1776.032049,527.791777,23717.306176
100,0,2,669522.000000,231160.000000,1219579.500000,69148.000000,7367.000000,609321.500000,472.000000,234.000000,12389.500000,34.000000,216.000000,6166.500000
100,1,5,714898.800000,249792.000000,1376762.400000,74287.200000,9083.200000,688033.800000,8977.611161,3292.844788,51749.483115,1154.712674,605.255450,25937.565625
101,0,2,669338.500000,231257.500000,1266904.000000,69222.500000,7495.500000,632931.500000,2897.500000,847.500000,45767.000000,340.500000,238.500000,22829.500000
101,1,5,709000.400000,247534.800000,1397592.200000,73607.000000,9167.000000,698289.200000,2186.437523,611.496983,59328.781388,135.019999,511.957420,29585.225241
102,0,2,678369.500000,233193.000000,1249237.500000,70685.500000,8092.500000,624144.500000,9872.500000,2454.000000,19609.500000,1744.500000,170.500000,9785.500000
102,1,5,716290.800000,249743.400000,1347935.600000,74777.200000,8885.600000,673350.400000,6483.520167,1340.869061,42633.748456,1058.871928,738.957536,21252.281464
103,0,2,669732.500000,230727.500000,1309189.000000,68948.500000,7908.000000,654211.500000,1508.500000,407.500000,39060.000000,158.500000,151.000000,19559.500000
103,1,5,712668.200000,248580.000000,1416092.400000,74008.200000,9301.400000,707484.800000,3268.627688,761.716220,36388.569467,315.742553,549.322346,18214.830083
104,0,2,669625.500000,231070.500000,1229302.000000,69018.000000,7810.500000,614235.500000,916.500000,68.500000,13763.000000,145.000000,59.500000,6901.500000
104,1,5,717060.400000,249687.800000,1404322.200000,74702.800000,9323.200000,701444.200000,11402.115849,2482.545178,48520.119330,1626.884311,388.455094,24410.903944
105,0,2,679729.000000,233365.000000,1219861.500000,70727.000000,8273.500000,609480.000000,9831.000000,2297.000000,3058.500000,1554.000000,371.500000,1581.000000
105,1,5,711471.000000,248270.400000,1381272.800000,73880.000000,9307.400000,689805.200000,2574.864890,1239.957999,56039.299058,477.379514,1191.232908,27368.718358
106,0,2,668359.500000,230416.500000,1274851.000000,68798.000000,7807.500000,637043.000000,1219.500000,52.500000,48309.000000,77.000000,30.500000,24119.000000
106,1,5,712156.200000,248441.600000,1365379.600000,73933.400000,9133.200000,682182.600000,3273.993977,955.301125,57604.113775,429.639197,270.360796,28711.485511
107,0,2,679621.000000,233619.000000,1255259.500000,70866.000000,8555.000000,627018.500000,8717.000000,1809.000000,18676.500000,1529.000000,2.000000,9471.500000
107,1,5,716440.800000,249676.200000,1373688.200000,74719.000000,9061.400000,686250.800000,8687.732671,2055.198034,64425.936667,1230.891059,463.072608,32262.628910
108,0,2,667026.000000,230360.500000,1270976.500000,68878.000000,7896.500000,635031.500000,1587.000000,434.500000,55054.500000,37.000000,53.500000,27591.500000
108,1,5,713231.200000,248995.200000,1380434.800000,74103.400000,8969.000000,689599.400000,1997.372214,606.782795,83492.224410,162.267187,502.013944,41760.203532
109,0,2,668168.000000,231283.000000,1344833.000000,69091.500000,7742.000000,672022.000000,1381.000000,444.000000,28210.000000,102.500000,165.000000,14031.000000
109,1,5,714454.400000,249073.200000,1404868.600000,74414.600000,8904.600000,701951.000000,8300.848453,1488.824556,46634.749407,1356.365821,634.373896,23314.748542
110,0,2,668728.500000,231416.000000,1337691.000000,69255.000000,7778.500000,668353.500000,2031.500000,619.000000,9706.000000,402.000000,315.500000,4986.500000
110,1,5,711008.400000,248309.400000,1368463.800000,73828.200000,8538.000000,683777.600000,2024.551466,581.101919,13613.858225,354.364445,403.661740,6766.192566
111,0,2,667375.500000,230982.500000,1260469.000000,69018.500000,7519.000000,629811.000000,1794.500000,651.500000,83418.000000,127.500000,281.000000,41686.000000
111,1,5,710088.200000,248417.800000,1415966.400000,73896.000000,8880.000000,707429.000000,3275.554756,1166.465327,44297.784471,420.299417,396.256987,22150.905291
112,0,2,668058.000000,231645.500000,1251620.000000,69373.000000,7610.500000,625183.500000,1579.000000,645.500000,17041.000000,369.000000,98.500000,8314.500000
112,1,5,714806.000000,249672.000000,1371572.600000,74739.600000,9119.400000,685062.000000,6677.782776,1566.001916,46015.990741,1321.331541,564.293044,23161.692235
113,0,2,678974.500000,233276.000000,1257969.500000,70700.000000,8243.500000,628513.500000,7730.500000,2144.000000,10909.500000,1687.000000,109.500000,5536.500000
113,1,5,709946.400000,248219.000000,1332380.200000,73838.800000,8937.200000,665653.800000,2264.850423,1061.274140,45797.041277,455.275477,343.043088,22862.849537
114,0,2,667350.000000,230598.500000,1242431.500000,68892.000000,7577.000000,620679.000000,1656.000000,137.500000,66297.500000,40.000000,17.000000,33043.000000
114,1,5,715304.200000,249614.600000,1337645.200000,74677.000000,9081.800000,668294.000000,7973.303642,1895.962616,86400.047677,1272.044811,449.554624,43306.048903
115,0,2,666155.000000,230751.000000,1328189.500000,68942.500000,8146.000000,663668.000000,2479.000000,395.000000,109356.500000,83.500000,640.000000,54694.000000
115,1,5,708536.400000,247554.400000,1316064.200000,73575.200000,8313.200000,657528.400000,2699.857967,624.298518,64904.631106,208.256957,497.409047,32444.362885
116,0,2,666337.500000,231157.500000,1364500.500000,69107.500000,8134.000000,681821.000000,200.500000,496.500000,12856.500000,184.500000,389.000000,6411.000000
116,1,5,719756.800000,251887.400000,1408654.200000,74957.000000,8807.000000,703800.000000,12051.284436,4379.896008,81367.465718,1172.072353,578.162607,40649.218940
117,0,2,669336.500000,231364.000000,1357870.500000,69264.500000,8606.000000,678261.000000,778.500000,291.000000,36003.500000,106.500000,650.000000,17798.000000
117,1,5,709411.200000,248375.400000,1343635.000000,73931.000000,8767.800000,671226.200000,2703.908090,1021.059371,52939.237898,443.661132,384.527450,26348.814390
118,0,2,666434.000000,230332.000000,1255204.500000,68854.500000,7826.000000,627110.000000,1217.000000,337.000000,31240.500000,54.500000,376.000000,15526.000000
118,1,5,717338.200000,249736.200000,1379611.000000,75018.800000,8764.000000,689383.400000,10819.965054,2118.538685,20980.571146,1642.952635,531.543037,10493.246945
119,0,2,669556.500000,231571.500000,1314643.000000,69388.500000,8287.000000,656546.500000,3908.500000,1014.500000,7120.000000,488.500000,515.000000,3609.500000
119,1,5,708618.200000,248107.800000,1367462.200000,73845.600000,8885.400000,683041.800000,3345.388133,736.994545,48535.894327,451.662529,472.052794,24097.782142
120,0,2,667830.000000,230776.000000,1266798.000000,68970.000000,7863.000000,632972.500000,1799.000000,652.000000,71562.000000,284.000000,262.000000,35753.500000
120,1,5,708555.400000,248142.800000,1408493.800000,73841.800000,9055.400000,703687.200000,2007.228995,598.084074,44003.559408,384.236073,717.198327,21984.543510
121,0,2,669006.000000,231465.000000,1345511.500000,69301.500000,7405.000000,672158.500000,3523.000000,1582.000000,25818.500000,610.500000,473.000000,13065.500000
121,1,5,711571.000000,248439.000000,1380095.200000,74269.400000,8537.000000,689596.600000,9053.017442,1834.215364,49563.716622,1258.177348,610.620340,24753.988871
122,0,2,669201.500000,231501.500000,1304076.500000,69346.500000,7917.000000,651411.000000,1689.500000,805.500000,87253.500000,263.500000,498.000000,43533.000000
122,1,5,711593.200000,248959.400000,1328353.600000,74240.200000,8570.800000,663520.400000,2257.831739,684.920317,43468.224995,343.267476,419.439340,21629.266530
123,0,2,666279.000000,230959.000000,1267564.000000,69073.000000,7729.000000,633381.000000,2074.000000,392.000000,58214.000000,132.000000,315.000000,29068.000000
123,1,5,713801.800000,248787.400000,1350400.800000,74435.800000,8742.600000,674620.400000,8185.006522,1835.090581,42323.533309,1476.970061,577.225294,21241.080336
124,0,2,667020.500000,231596.000000,1266015.500000,69373.500000,7717.000000,632342.000000,1664.500000,1369.000000,51528.500000,549.500000,179.000000,25512.000000
124,1,5,714165.000000,249075.200000,1329289.600000,74512.400000,8818.200000,664086.400000,8463.062070,1581.286742,51824.489275,1076.176305,500.481928,25908.045103
125,0,2,680260.000000,232781.500000,1248485.000000,70602.000000,7965.500000,623780.500000,9932.000000,2478.500000,5446.000000,1716.000000,137.500000,2741.500000
125,1,5,712189.600000,248417.400000,1349705.200000,74251.800000,9202.600000,674378.600000,8170.197564,1972.545827,56461.054731,1531.465102,647.551882,28226.229416
126,0,2,668331.500000,230988.000000,1320418.000000,69145.000000,8009.000000,659629.500000,3452.500000,503.000000,63593.000000,235.000000,268.000000,31948.500000
126,1,5,710614.200000,248264.800000,1355667.800000,73899.000000,8643.600000,677301.600000,3037.361118,804.901584,66008.085588,323.314707,375.164284,32979.851841
127,0,2,669315.500000,230965.500000,1309339.000000,69031.500000,7816.500000,654222.000000,1537.500000,173.500000,36259.000000,103.500000,73.500000,18167.000000
127,1,5,709775.400000,248246.800000,1321794.600000,73901.600000,8385.000000,660270.200000,1469.957768,368.065972,75727.231479,326.365194,372.457783,37885.305950
128,0,2,667751.000000,230887.500000,1263080.500000,69048.000000,7345.000000,631026.000000,73.000000,429.500000,65415.500000,191.000000,21.000000,32713.000000
128,1,5,709259.200000,248232.200000,1324337.600000,73899.400000,8750.600000,661596.000000,2760.748623,674.892703,71570.324659,500.690963,515.958758,35696.175050
129,0,2,665898.000000,230409.000000,1244208.500000,68849.500000,7628.500000,621689.500000,532.000000,43.000000,13080.500000,54.500000,147.500000,6515.500000
129,1,5,718484.800000,250093.600000,1438528.800000,75230.600000,9207.800000,718677.800000,7944.161413,1953.043430,42185.639061,1516.507646,520.587898,20905.375380
130,0,2,668874.000000,231548.000000,1347810.500000,69379.000000,7940.000000,673311.000000,2159.000000,1404.000000,28291.500000,600.000000,378.000000,13971.000000
130,1,5,713295.800000,249149.800000,1340270.400000,74559.000000,9008.600000,669555.400000,9194.692412,1708.351533,43686.393285,1175.407163,704.572665,21726.988476
131,0,2,667184.000000,231103.000000,1295025.500000,69135.500000,7523.000000,647011.000000,1734.000000,191.000000,46516.500000,47.500000,311.000000,23272.000000
131,1,5,709217.600000,248103.400000,1374346.400000,73834.600000,9002.000000,686660.200000,2890.177614,688.950971,119011.456468,409.303115,874.767855,59484.614123
132,0,2,677563.500000,232981.000000,1304183.500000,70659.500000,8215.500000,651634.500000,9836.500000,2317.000000,23262.500000,1676.500000,356.500000,11641.500000
132,1,5,710810.200000,248165.800000,1358523.600000,73863.800000,8606.200000,678681.200000,2586.341617,673.783764,48763.609085,158.189001,326.115562,24289.566257
133,0,2,667838.500000,231311.500000,1330323.500000,69333.500000,8047.000000,664525.000000,2011.500000,423.500000,3678.500000,231.500000,120.000000,1770.000000
133,1,5,712579.200000,248812.600000,1380139.200000,74396.600000,8506.400000,689492.600000,8954.791933,1801.210993,67347.810650,1315.445871,450.112697,33561.304269
134,0,2,667589.000000,230559.000000,1308662.000000,69007.000000,7676.000000,653821.500000,2734.000000,5.000000,7269.000000,71.000000,140.000000,3645.500000
134,1,5,707836.400000,247940.000000,1395324.800000,73798.600000,8630.000000,697170.000000,1561.041012,588.604111,32929.468459,251.820253,735.639858,16443.868450
135,0,2,672053.500000,232620.000000,1377228.000000,69880.000000,7616.000000,687823.500000,4890.500000,805.000000,5827.000000,303.000000,363.000000,3015.500000
135,1,5,712322.800000,249017.800000,1371169.000000,74464.600000,8751.400000,685032.800000,8227.502450,1584.920995,41624.481590,1361.288889,586.862710,20827.611302
136,0,2,667581.000000,230517.500000,1338538.500000,68952.500000,8301.500000,668822.500000,1129.000000,8.500000,11695.500000,15.500000,123.500000,5913.500000
136,1,5,712390.600000,248985.000000,1376844.600000,74482.400000,8970.400000,687957.400000,9902.462231,1702.564419,45693.094890,1127.326324,846.622135,22801.414084
137,0,2,668071.500000,230990.000000,1293816.500000,69130.000000,7819.500000,646410.000000,2217.500000,323.000000,35450.500000,111.000000,406.500000,17693.000000
137,1,5,707699.600000,248192.400000,1329372.000000,73878.400000,8711.000000,664103.400000,3498.189623,1096.307001,28859.772743,596.521450,612.717880,14481.955097
138,0,2,666923.500000,230880.000000,1260034.000000,69089.500000,7449.500000,629560.500000,884.500000,157.000000,29434.000000,2.500000,131.500000,14783.500000
138,1,5,706314.200000,247934.400000,1391308.200000,73778.200000,8773.400000,695111.600000,2658.425579,841.983515,62119.364534,352.552634,300.256291,31062.141231
139,0,2,677265.000000,233444.000000,1315233.500000,70826.500000,8010.000000,657165.000000,9328.000000,2240.000000,5.500000,1626.500000,682.000000,69.000000
139,1,5,708455.600000,247698.800000,1360971.200000,73719.600000,8715.600000,679987.400000,4672.441828,1298.695407,44329.969485,467.438809,424.607866,22154.570405
140,0,2,677020.000000,232676.500000,1330264.000000,70555.500000,8405.500000,664722.000000,11187.000000,2160.500000,30290.000000,1616.500000,23.500000,15245.000000
140,1,5,709401.400000,247866.400000,1378133.800000,73737.400000,8662.400000,688541.000000,3049.549842,919.357950,27952.804048,297.625671,562.146814,13983.782979
141,0,2,665994.500000,230782.500000,1349230.000000,69075.000000,7760.500000,674033.500000,51.500000,918.500000,13740.000000,447.000000,195.500000,6967.500000
141,1,5,713365.600000,248664.000000,1345775.400000,74386.000000,8834.400000,672416.200000,9130.530491,2006.422388,31125.433006,1236.072975,697.476767,15455.123673
142,0,2,664461.000000,230356.500000,1219139.500000,68937.500000,7970.500000,609087.500000,431.000000,301.500000,26803.500000,79.500000,254.500000,13429.500000
142,1,5,714126.800000,249303.000000,1336557.600000,74693.400000,8658.000000,667671.000000,9829.552572,2038.529078,72942.823564,1465.931049,692.736602,36495.422951
143,0,2,669920.000000,230763.500000,1314375.000000,69169.500000,8728.500000,656569.500000,2667.000000,1249.500000,67104.000000,533.500000,13.500000,33405.500000
143,1,5,713180.000000,248945.600000,1330107.000000,74443.000000,8901.600000,664578.800000,6955.417658,1690.891079,93240.611446,1256.142826,1014.319792,46598.332010
144,0,2,678830.500000,232668.500000,1353281.000000,70563.000000,8652.500000,676175.500000,11801.500000,2640.500000,106991.000000,1751.000000,651.500000,53543.500000
144,1,5,712148.200000,249255.800000,1352556.600000,74315.600000,8825.600000,675619.400000,2175.443532,864.892687,75211.238343,541.902796,482.777216,37765.589621
145,0,2,666836.000000,230161.500000,1341462.000000,68819.000000,8083.500000,670293.500000,1549.000000,526.500000,146695.000000,220.000000,51.500000,73356.500000
145,1,5,716995.600000,249628.400000,1375278.400000,74985.600000,9334.400000,687175.000000,12480.039465,2645.238182,66188.229378,1810.584171,520.946293,33134.015410
146,0,2,667981.500000,230283.000000,1238234.500000,68873.500000,7757.500000,618652.500000,102.500000,25.000000,30734.500000,22.500000,181.500000,15309.500000
146,1,5,712937.400000,248883.800000,1348850.400000,74403.000000,9045.800000,673834.800000,8582.591487,2007.915277,67725.172598,1310.178003,360.682353,33814.905124
147,0,2,668170.500000,230866.000000,1372317.500000,69143.000000,8618.500000,685608.500000,1577.500000,663.000000,1080.500000,349.000000,318.500000,402.500000
147,1,5,712599.200000,249554.000000,1339759.400000,74204.600000,8516.400000,669465.600000,11549.073978,3580.462093,33275.312390,1183.934897,222.692254,16628.628598
148,0,2,666396.500000,230151.500000,1307631.500000,68831.500000,7663.500000,653362.500000,989.500000,347.500000,47142.500000,121.500000,67.500000,23547.500000
148,1,5,712746.200000,249184.000000,1329235.000000,74579.200000,8556.000000,664057.400000,8612.758638,1677.770902,39957.129587,1237.933019,248.521226,20015.531335
149,0,2,669068.500000,231608.000000,1308877.500000,69453.000000,7951.500000,653717.500000,2599.500000,1283.000000,63618.500000,519.000000,85.500000,31532.500000
149,1,5,708368.800000,247837.800000,1351925.400000,73711.600000,8947.600000,675457.600000,1732.966520,597.986421,54796.096505,179.058203,642.391345,27407.281672
150,0,2,667932.000000,231000.000000,1368202.500000,69199.500000,8215.500000,683544.000000,1512.000000,164.000000,34418.500000,49.500000,138.500000,17280.000000
150,1,5,709071.200000,248487.200000,1375002.600000,74038.200000,8842.800000,686836.400000,2895.007731,868.369368,62385.771248,548.117652,648.901348,31274.394348
151,0,2,667330.500000,230395.000000,1347292.000000,68875.500000,7866.000000,673247.500000,1502.500000,502.000000,21760.000000,137.500000,256.000000,10895.500000
151,1,5,710658.000000,248456.200000,1412059.600000,74295.200000,9409.600000,705401.000000,7076.754086,1856.214039,139065.371256,1400.144764,1475.005844,69179.590219
152,0,2,676737.500000,232634.500000,1276769.500000,70565.500000,8006.000000,637897.000000,9244.500000,1733.500000,7344.500000,1467.500000,485.000000,3688.000000
152,1,5,713937.200000,249829.400000,1377866.400000,74816.000000,9183.000000,688185.600000,8896.547384,1981.226852,71267.373437,1113.427321,1089.232941,35488.185068
153,0,2,664402.000000,230100.500000,1278577.000000,68827.000000,7785.000000,638810.000000,150.000000,58.500000,23146.000000,4.000000,147.000000,11591.000000
153,1,5,713156.800000,249151.400000,1375327.200000,74520.200000,8894.800000,687107.400000,6534.857991,1527.990916,66642.221138,1182.864726,278.887361,33308.377322
154,0,2,674928.000000,232701.500000,1285453.500000,70581.500000,8375.500000,642247.000000,9997.000000,2269.500000,12822.500000,1633.500000,80.500000,6472.000000
154,1,5,718858.200000,250300.600000,1309044.200000,75277.000000,9122.000000,653973.600000,12073.958446,2323.580220,36261.826426,1452.206046,601.222089,18213.241223
155,0,2,665943.000000,230621.500000,1276741.500000,68964.500000,7736.500000,637930.000000,2166.000000,198.500000,50907.500000,120.500000,334.500000,25411.000000
155,1,5,708205.400000,247584.600000,1343781.600000,73601.600000,8826.800000,671475.400000,3964.220206,281.973474,56742.524535,198.727552,518.490270,28339.090011
156,0,2,691035.500000,237540.500000,1392097.500000,72005.000000,8486.000000,695593.500000,23396.500000,6535.500000,54061.500000,2902.000000,319.000000,27013.500000
156,1,5,712738.200000,249205.000000,1341464.200000,74292.600000,8667.200000,670075.800000,2332.451706,747.506522,80291.598887,430.831568,358.331355,40157.419038
157,0,2,665479.500000,230395.500000,1321824.500000,68908.500000,7584.000000,660411.000000,845.500000,298.500000,25352.500000,105.500000,192.000000,12692.000000
157,1,5,710057.000000,247885.400000,1307242.800000,73713.600000,8564.000000,653114.000000,3144.906104,620.354931,51264.873281,299.342346,513.678109,25636.409000
158,0,2,666437.000000,231170.500000,1341290.000000,69319.000000,7972.000000,669968.500000,5119.000000,1907.500000,18913.000000,765.000000,154.000000,9219.500000
158,1,5,709914.400000,247884.400000,1294970.800000,73739.600000,8895.000000,646946.600000,4042.296357,853.894279,54822.213970,356.023932,683.831851,27375.305709
159,0,2,678061.000000,233709.500000,1316582.000000,70970.500000,8433.000000,657700.000000,10220.000000,1840.500000,22276.000000,1386.500000,274.000000,11037.000000
159,1,5,714335.200000,249157.400000,1324858.800000,74534.000000,8759.400000,661894.200000,9427.218877,2025.153881,68461.415403,1412.839835,548.822230,34207.674235
160,0,2,664517.500000,230455.500000,1303434.500000,68931.500000,7495.000000,651245.500000,1232.500000,259.500000,10832.500000,88.500000,426.000000,5438.500000
160,1,5,713975.000000,248846.200000,1344820.200000,74375.800000,8915.800000,671915.400000,7764.395070,2068.043172,62857.673713,1381.378355,461.711772,31417.753660
161,0,2,664079.000000,230332.500000,1220285.000000,68903.000000,7638.000000,609642.000000,693.000000,242.500000,13027.000000,97.000000,105.000000,6606.000000
161,1,5,708800.800000,247935.000000,1437565.200000,73723.400000,9232.800000,718238.600000,3604.477127,443.701702,53167.807803,237.310430,749.182862,26586.873706
162,0,2,675829.500000,233344.500000,1297595.500000,70846.000000,8301.500000,648213.500000,6996.500000,1170.500000,30412.500000,1162.000000,618.500000,15067.500000
162,1,5,709649.600000,248554.400000,1331510.600000,74020.800000,8935.600000,665133.600000,5975.322204,1143.891533,89845.747609,506.986548,946.470623,44816.949198
163,0,2,666439.000000,230359.000000,1284961.000000,68918.500000,7910.500000,642051.000000,1955.000000,473.000000,67679.000000,135.500000,56.500000,33854.000000
163,1,5,711481.000000,248657.800000,1386688.600000,74328.200000,9295.200000,692831.600000,9028.401542,2248.432111,111823.944671,1443.341041,939.774101,55914.198689
164,0,2,668662.500000,231042.500000,1239342.500000,69216.000000,7916.500000,619052.000000,3063.500000,541.500000,11033.500000,282.000000,532.500000,5372.000000
164,1,5,711463.400000,248594.600000,1386432.200000,74021.400000,9021.800000,692640.600000,2341.393312,871.719359,69806.629795,522.484296,1167.837215,34968.018929
165,0,2,667103.000000,230920.500000,1226515.000000,69053.000000,7392.500000,612814.000000,1322.000000,629.500000,59699.000000,201.000000,60.500000,29833.000000
165,1,5,719371.800000,250383.400000,1371482.600000,75373.600000,9269.600000,685204.200000,8939.659085,1956.205163,68759.853873,1623.922732,764.000681,34482.535831
166,0,2,664858.500000,230207.500000,1179680.500000,68801.500000,7255.500000,589330.000000,206.500000,459.500000,4243.500000,182.500000,333.500000,2062.000000
166,1,5,708305.200000,247885.200000,1373939.600000,73696.600000,8892.600000,686492.400000,2853.569162,498.733757,53172.425066,219.364172,644.978945,26558.470879
167,0,2,670645.500000,232266.000000,1285400.000000,69746.500000,8103.000000,641918.500000,2256.500000,101.000000,29753.000000,74.500000,547.000000,14988.500000
167,1,5,714721.400000,249900.800000,1422749.000000,74868.600000,9471.800000,710734.200000,8616.810886,2045.123996,108634.919828,1402.468766,962.176366,54451.559784
168,0,2,665402.000000,230631.000000,1198569.000000,69020.000000,7479.000000,598815.500000,966.000000,265.000000,19508.000000,85.000000,196.000000,9742.500000
168,1,5,722673.400000,250925.400000,1367137.200000,75752.200000,9495.400000,683153.400000,8822.333129,2282.445496,83746.429319,1434.573163,1212.333057,41931.949278
169,0,2,663895.500000,230067.000000,1307893.000000,68803.500000,7563.000000,653552.000000,787.500000,392.000000,53614.000000,130.500000,354.000000,26844.000000
169,1,5,708414.400000,247893.600000,1360045.800000,73699.200000,8758.200000,679550.600000,3640.922114,774.338582,126102.789703,344.147875,885.702749,63106.740219
170,0,2,667770.500000,231855.500000,1346170.000000,69484.500000,7924.500000,672494.500000,2410.500000,211.500000,36482.000000,148.500000,687.500000,18110.500000
170,1,5,717274.200000,249759.400000,1321748.800000,74833.000000,9108.000000,660327.400000,12263.504873,2666.433618,79398.906407,1857.327542,805.369232,39734.417170
171,0,2,668712.000000,231522.000000,1288887.500000,69393.000000,8104.500000,643786.500000,1836.000000,1508.000000,53878.500000,628.000000,97.500000,26786.500000
171,1,5,709371.800000,248020.000000,1350655.800000,73794.800000,8539.400000,674811.800000,3558.245770,999.452450,71891.293018,325.229396,648.920827,35926.338096
172,0,2,666751.500000,230553.000000,1306278.000000,68967.000000,8139.500000,652678.000000,375.500000,354.000000,52032.000000,86.000000,0.500000,26050.000000
172,1,5,711820.200000,248882.200000,1364857.400000,74156.400000,9241.000000,681888.600000,4395.674392,1286.966262,62595.990426,614.543928,805.599652,31364.502901
173,0,2,667534.000000,230834.000000,1295154.500000,69059.000000,7878.500000,647107.000000,971.000000,653.000000,44829.500000,244.000000,27.500000,22384.000000
173,1,5,714210.400000,248773.000000,1319768.400000,74375.000000,9024.600000,659373.600000,8901.725936,1830.979301,27203.975383,1246.777446,721.171991,13607.476498
174,0,2,675542.500000,233242.500000,1370418.500000,70765.000000,8328.000000,684721.500000,11853.500000,2686.500000,19395.500000,1783.000000,329.000000,9742.500000
174,1,5,708798.800000,247654.600000,1376918.400000,73646.400000,8575.000000,688003.600000,3531.451905,614.308913,74059.585669,217.408004,656.712723,37035.953238
175,0,2,665201.500000,230573.500000,1357761.500000,68948.500000,8118.000000,678444.000000,456.500000,748.500000,39850.500000,286.500000,140.000000,19956.000000
175,1,5,714820.000000,249937.800000,1399794.600000,74353.400000,8751.200000,699328.200000,11697.640668,3620.187697,23001.991606,963.963194,505.243070,11544.792530
176,0,2,666438.500000,230881.500000,1295095.000000,69148.000000,7568.500000,646838.500000,3129.500000,1239.500000,68380.000000,507.000000,357.500000,34210.500000
176,1,5,719187.400000,250068.200000,1373758.800000,75186.800000,9276.400000,686407.200000,12401.302296,2808.757690,34525.558547,1812.555809,473.835668,17272.082299
177,0,2,666973.500000,231592.500000,1296519.000000,69413.000000,7830.500000,647576.000000,1300.500000,655.500000,85081.000000,310.000000,226.500000,42277.000000
177,1,5,708530.400000,247923.800000,1403345.800000,73763.200000,8803.800000,701151.400000,2414.072874,341.520951,48500.414243,161.432834,509.603140,24290.102409
178,0,2,665415.500000,230717.000000,1356064.000000,68997.000000,8273.000000,677610.000000,22.500000,474.000000,37980.000000,219.000000,544.000000,19061.000000
178,1,5,710031.400000,248458.600000,1331291.000000,73989.000000,8161.600000,665046.600000,3084.404811,757.486528,46697.852302,518.017374,516.243199,23436.026460
179,0,2,666602.000000,231253.500000,1339201.500000,69272.000000,8169.500000,668891.000000,1900.000000,764.500000,12030.500000,379.000000,282.500000,5994.000000
179,1,5,713692.400000,249076.000000,1378533.200000,74525.600000,8625.200000,688778.600000,7508.279393,1508.275704,78573.213594,1330.766786,566.847563,39257.237904
180,0,2,665960.000000,231097.500000,1367741.500000,69208.500000,8185.000000,682955.000000,1537.000000,398.500000,11147.500000,212.500000,455.000000,6036.000000
180,1,5,712555.200000,248973.800000,1411431.000000,74491.800000,9060.800000,705237.400000,10349.288756,1830.039497,85003.755503,1233.265000,680.213908,42489.741819
181,0,2,661998.500000,230165.000000,1283540.000000,68806.500000,7334.500000,641358.000000,328.500000,404.000000,31822.000000,183.500000,155.500000,15928.000000
181,1,5,711818.600000,248940.800000,1350885.800000,74257.800000,8620.000000,674769.200000,3985.890094,1265.274737,31406.759880,639.640962,489.297864,15775.822760
182,0,2,667313.500000,232330.000000,1310543.000000,69758.500000,8170.500000,654626.000000,1071.500000,41.000000,17170.000000,9.500000,125.500000,8573.000000
182,1,5,718830.600000,250753.600000,1385883.600000,75001.000000,8799.000000,692458.200000,21529.619120,6031.591120,70469.130037,2656.107377,1118.571947,35159.527906
183,0,2,687952.500000,237740.000000,1308750.000000,72276.500000,8085.500000,653657.000000,8618.500000,4417.000000,45746.000000,539.500000,78.500000,22672.000000
183,1,5,709552.600000,248443.400000,1389629.000000,74043.600000,8686.400000,694242.000000,3207.339620,1027.189681,57696.761913,362.645061,215.229738,28756.359930
184,0,2,674096.000000,232776.500000,1237229.500000,70616.000000,7751.000000,618110.000000,10703.000000,2274.500000,38749.500000,1648.000000,576.000000,19343.000000
184,1,5,709122.000000,247979.200000,1305058.800000,73820.800000,8560.200000,651952.800000,2663.305165,1095.395892,71997.144042,500.145339,591.633468,35943.790887
185,0,2,665168.000000,230389.500000,1296144.000000,68905.000000,7947.500000,647620.500000,439.000000,545.500000,9068.000000,141.000000,167.500000,4594.500000
185,1,5,708381.400000,247672.400000,1343536.000000,73690.000000,8679.400000,671278.600000,1866.285787,685.244949,43709.615697,260.378186,537.658107,21859.713069
186,0,2,669011.500000,232384.500000,1367335.000000,69776.000000,8500.000000,682845.500000,404.500000,273.500000,37824.000000,47.000000,107.000000,18924.500000
186,1,5,712849.800000,249191.800000,1376250.800000,74589.200000,8895.000000,687579.600000,9547.042566,2097.519144,62596.430385,1283.635057,532.703295,31335.753373
187,0,2,664426.000000,230466.500000,1281146.500000,68947.000000,7503.000000,640108.000000,146.000000,405.500000,5412.500000,134.000000,114.000000,2720.000000
187,1,5,709445.800000,248179.200000,1371988.600000,73860.000000,8978.400000,685510.000000,4680.929711,793.743888,63505.045748,323.835761,574.850798,31779.552627
188,0,3,666452.333333,231097.333333,1302383.000000,69194.666667,7695.000000,650709.666667,3676.207496,582.492537,62482.402904,260.364275,152.848509,31146.687040
188,1,5,714509.400000,249410.200000,1403564.800000,74682.200000,9078.400000,701121.400000,8917.119122,1681.052575,83011.618571,1229.614639,628.572860,41642.078155
189,0,3,668781.666667,231390.000000,1273999.000000,69320.333333,7478.000000,636489.333333,6167.666027,1249.456682,43684.061174,500.945994,498.024765,21658.677127
189,1,5,707238.600000,247812.600000,1395809.600000,73746.000000,9050.400000,697430.000000,4221.913102,697.487663,73016.422686,284.118285,511.021174,36522.007650
190,0,3,674320.666667,232288.666667,1331232.666667,70173.333333,7996.000000,665156.666667,9123.895452,1774.590720,10442.349938,1437.603639,412.384125,5226.234740
190,1,5,710358.400000,248629.800000,1399970.400000,74132.400000,9197.200000,699288.000000,3516.125174,1132.586138,53316.186430,578.342667,699.625443,26507.174402
191,0,3,666793.666667,231146.333333,1224526.666667,69169.000000,7016.333333,611775.000000,4135.723422,573.170326,25091.096486,181.858920,261.526714,12592.446810
191,1,5,713953.000000,249111.400000,1441256.400000,74569.200000,9458.600000,720081.800000,10182.333406,2233.905334,48070.149418,1541.688088,983.435529,23944.041341
192,0,3,673966.666667,232814.666667,1301089.333333,70333.666667,7995.333333,650068.666667,15039.793822,3012.043861,19157.255237,1755.462396,657.691586,9497.015578
192,1,5,706878.200000,247497.400000,1402710.600000,73639.400000,9095.600000,700892.400000,1644.525634,657.716839,45518.307339,297.761381,498.850920,22771.876186
193,0,3,673909.000000,232418.333333,1306506.000000,70144.000000,8134.333333,652828.333333,9458.016001,1587.619672,45269.291600,1367.652003,273.259746,22685.458798
193,1,5,710798.000000,248973.400000,1400225.600000,74279.400000,8753.200000,699476.800000,3957.965791,934.357876,88701.260899,473.493654,869.810416,44255.282909
194,0,3,667633.333333,231544.333333,1315204.000000,69327.333333,8285.333333,656962.333333,5161.617081,1023.341694,101537.424828,388.132566,518.757704,50614.048408
194,1,5,721273.000000,251085.400000,1404589.800000,75951.400000,9185.000000,701735.000000,9316.791680,2017.736018,96294.635120,1478.148247,875.345189,48149.731472
195,0,3,667977.666667,230864.000000,1318065.666667,69117.666667,8524.666667,658618.333333,2249.174713,424.217711,72580.043668,133.157384,181.744020,36438.720453
195,1,6,708797.166667,248219.666667,1414496.666667,73985.000000,9008.000000,706620.500000,3541.654012,1020.596666,51377.884538,528.832362,807.929246,25371.621961
196,0,3,668135.000000,230752.333333,1316199.000000,69006.666667,7798.666667,657998.000000,3802.369875,845.543744,77511.499667,317.419106,475.959615,39330.473707
196,1,6,708853.000000,248289.666667,1384475.166667,73980.500000,8905.000000,691740.666667,3095.193801,690.684845,64635.405237,354.667802,729.319089,32276.267358
197,0,3,676188.000000,233410.000000,1298784.000000,70580.000000,7935.666667,648647.666667,10660.332578,1861.355599,88466.288235,1259.367301,467.920459,43990.233919
197,1,6,708608.666667,248183.666667,1374161.333333,73971.666667,8667.166667,686578.666667,4252.976239,1271.987116,50424.985737,478.189177,518.693364,25307.037425
198,0,3,674822.666667,232548.666667,1242947.000000,70366.000000,8212.666667,620949.000000,13996.578399,2944.171681,34126.461180,2057.067330,729.149886,16992.998342
198,1,6,707534.333333,248144.333333,1340564.666667,73934.166667,8804.333333,669743.333333,3616.233154,1116.214834,66957.948484,484.497477,990.721398,33469.226595
199,0,3,665308.333333,230198.333333,1310084.333333,68824.666667,7719.666667,654609.666667,2573.856035,250.426747,51037.909390,108.598138,550.851664,25472.788937
199,1,6,706052.166667,247799.833333,1333405.000000,73795.500000,9096.166667,666120.666667,2624.486960,708.866799,57116.927167,439.414288,1111.779567,28512.598821
200,0,3,669401.000000,231835.333333,1350682.000000,69423.333333,8482.000000,674769.666667,419.965078,647.704837,93510.888803,285.013840,947.650076,46620.840121
200,1,6,708987.500000,248839.000000,1406953.166667,74211.333333,9198.500000,702893.666667,2259.578040,800.871817,91349.863000,387.453080,610.790403,45665.258898
201,0,3,674759.000000,232978.666667,1315677.000000,70359.000000,8232.333333,657286.000000,7224.042082,1866.682321,73420.903567,1278.117626,623.677980,36586.153556
201,1,6,715710.166667,250038.166667,1420132.833333,74560.666667,9239.500000,709360.833333,9071.014008,3065.420548,69608.057865,1005.480758,474.007999,34766.306104
202,0,3,665437.000000,230555.000000,1387157.333333,68928.666667,8280.666667,693124.666667,2748.527363,344.488994,31767.198201,180.104291,200.042218,15871.821831
202,1,6,717983.166667,250056.500000,1507363.833333,75123.000000,9857.333333,753200.500000,10302.986418,2152.254612,129576.258550,1520.131135,822.615071,64871.831657
203,0,3,668401.000000,231192.666667,1270596.000000,69187.666667,7529.000000,634797.666667,326.626188,905.389910,45354.308924,406.579499,152.400787,22573.622074
203,1,6,713246.000000,249047.166667,1407117.666667,74239.166667,9478.666667,702906.000000,1986.429544,486.461858,79882.984823,212.585212,290.164130,39964.152216
204,0,3,666894.333333,230090.000000,1289775.333333,68724.333333,8042.666667,644455.666667,1183.681357,302.730904,41374.718064,181.952985,108.398442,20665.620344
204,1,6,716103.833333,249456.833333,1425953.666667,74917.166667,9675.500000,712451.666667,10276.803709,1989.257099,61618.839667,1487.439009,892.814044,30792.700556
205,0,3,667512.000000,230219.666667,1325029.666667,68772.000000,8333.333333,662055.666667,1485.029517,277.121313,44374.907056,57.521011,727.700641,22129.443167
205,1,6,707334.000000,247481.000000,1389562.166667,73661.000000,9495.000000,694303.500000,2906.256412,406.061982,64188.963892,290.556936,760.968681,32095.003379
206,0,3,676903.333333,233078.333333,1275369.333333,70420.666667,7949.333333,637127.666667,7706.035312,1606.278169,49693.275443,1371.765853,306.126699,24736.475852
206,1,6,713447.833333,249138.666667,1415959.333333,74574.500000,9530.333333,707407.833333,10327.821123,2217.885980,41879.862622,1401.162702,802.437052,20953.983403
207,0,3,669460.666667,231583.000000,1345049.000000,69299.333333,8303.000000,671965.000000,3150.665785,673.605720,15473.135192,357.696644,412.238604,7752.622309
207,1,6,713120.833333,248596.000000,1471389.500000,74390.333333,9700.833333,735120.833333,7508.995370,1695.081316,94859.246518,1328.847078,848.913309,47407.011680
208,0,3,668455.000000,231146.666667,1288579.666667,69205.666667,7889.333333,643651.000000,3214.034225,1325.992794,65882.192811,568.437820,601.143540,32694.743747
208,1,6,708324.666667,247847.500000,1391028.833333,73850.833333,8870.666667,694971.166667,2559.132514,924.059657,77772.018399,373.617637,650.080679,38844.204636
209,0,3,670804.666667,232579.666667,1387114.666667,69719.000000,8091.666667,692973.666667,2234.551310,824.572751,50923.952611,401.796798,321.803598,25594.019358
209,1,6,712450.833333,248942.500000,1374292.000000,74527.000000,9212.166667,686543.166667,7908.271459,1664.673517,47160.202480,1096.109788,530.488271,23645.012846
210,0,3,672815.000000,231972.000000,1329492.333333,69975.000000,8101.000000,664311.333333,9009.571355,1751.096990,22516.764974,1450.449815,811.813197,11262.232589
210,1,6,711655.666667,248676.000000,1403943.166667,74388.333333,9582.166667,701464.166667,7830.629682,1679.008735,74736.694393,1364.677333,577.706505,37325.751720
211,0,3,667918.000000,231216.666667,1314788.333333,69150.666667,7684.000000,656871.000000,2165.577213,1207.361954,19540.612620,513.717389,425.737791,9687.391909
211,1,6,708400.666667,247777.500000,1412292.166667,73792.333333,9381.000000,705643.333333,2697.670209,572.884732,95340.157187,245.370242,682.629231,47662.883637
212,0,3,673681.000000,232248.333333,1360139.000000,70012.333333,8771.666667,679612.333333,10032.051070,2204.760657,82787.115644,1666.414981,198.746628,41469.042159
212,1,6,710366.500000,248380.000000,1393542.000000,74285.833333,9024.666667,696254.333333,10369.914878,2142.631404,75360.361389,1459.637445,801.659459,37680.723687
213,0,3,665140.000000,230518.000000,1222604.000000,68863.000000,7663.666667,610789.333333,591.181867,391.500532,11190.652558,197.693365,395.947247,5603.071558
213,1,6,708972.833333,248400.833333,1352016.500000,74058.833333,8949.333333,675456.500000,4352.475136,974.747218,84627.752526,430.578068,482.868397,42297.586624
214,0,3,674072.666667,232739.333333,1290730.000000,70234.666667,8174.333333,644888.666667,9646.816274,1717.977946,32967.312427,1339.415876,339.004753,16544.452370
214,1,6,712327.000000,248824.333333,1423142.666667,74404.000000,8959.833333,711074.833333,6006.797566,1544.003850,33167.143323,1273.110234,537.752241,16603.177873
215,0,3,667531.000000,231092.333333,1294546.000000,69082.666667,7676.333333,646764.000000,4263.073070,1136.385302,38388.051587,435.446387,265.330402,19169.218920
215,1,6,708278.000000,247862.333333,1396466.000000,73826.500000,8610.333333,697697.333333,2800.062380,631.630078,88368.117497,323.686448,308.514541,44133.511284
216,0,3,666687.333333,230857.333333,1273274.666667,69024.666667,7999.333333,636107.000000,4589.096232,1284.504920,77427.554545,501.299866,556.591013,38661.635385
216,1,6,708043.166667,247934.500000,1369947.166667,73830.833333,9155.166667,684523.000000,3528.183358,366.070462,42827.393599,240.921437,717.124912,21399.530618
217,0,3,668858.666667,231470.000000,1333352.000000,69269.000000,8218.000000,666091.000000,1044.298914,896.737420,124633.160839,512.453575,830.613027,62418.407947
217,1,6,713542.500000,248933.333333,1360241.833333,74520.333333,9334.500000,679557.166667,8193.011183,1806.018057,57802.771325,1110.522650,486.703109,28837.555320
218,0,3,669538.333333,231220.333333,1256859.666667,69183.000000,7972.666667,627905.000000,2099.850524,618.230989,25219.642270,252.374061,231.115171,12475.569406
218,1,6,709780.166667,248004.166667,1405262.500000,73892.000000,9131.333333,702064.666667,2750.040449,869.434187,53578.400737,461.358501,350.241663,26818.181380
219,0,3,669164.666667,231215.666667,1383677.666667,69193.666667,8363.666667,691245.333333,3124.299424,982.625847,143734.351441,370.765275,1156.901129,71640.050183
219,1,6,717805.333333,250203.000000,1463522.500000,75273.166667,9678.833333,731101.666667,10054.536417,1970.164968,72104.054978,1425.818293,756.044844,35939.767332
220,0,3,674713.666667,232154.666667,1357531.000000,70024.666667,8199.666667,678268.000000,9904.882915,2016.793219,62790.238116,1454.710586,989.279311,31391.902087
220,1,6,708714.666667,248088.333333,1390383.166667,73935.333333,9055.000000,694695.333333,2254.814898,982.710990,45124.440227,360.643715,309.966665,22427.951925
221,0,3,667662.333333,230900.666667,1313957.000000,69002.333333,7970.666667,656507.666667,1709.529435,633.214199,24190.239409,192.707608,525.289973,12102.022099
221,1,6,711689.500000,248642.666667,1370628.333333,74399.666667,8983.166667,684812.333333,7120.044680,1914.849835,73207.388035,1213.681131,466.915202,36672.697490
222,0,3,674209.666667,232246.000000,1238656.333333,70042.333333,7585.000000,618906.666667,9621.155590,2239.775138,25734.372945,1721.965995,373.031723,12867.283224
222,1,6,708989.000000,247694.166667,1363236.000000,73774.500000,8790.000000,681196.333333,3384.826239,664.178043,43025.681517,327.332018,523.971691,21511.345763
223,0,3,665418.666667,230400.666667,1279711.333333,68851.000000,7572.000000,639286.666667,829.063863,519.870069,18930.538332,193.328736,362.568614,9446.361639
223,1,6,708946.333333,248123.000000,1374820.833333,73936.500000,9328.833333,686902.000000,4592.957169,1013.506290,70165.820823,485.806117,681.517282,35048.974811
224,0,3,666606.666667,230815.000000,1303986.000000,69067.666667,8103.666667,651487.666667,3989.453290,955.197711,49110.810466,345.743964,651.011691,24580.076544
224,1,6,712649.333333,248823.833333,1384586.166667,74489.000000,9208.666667,691803.000000,7895.053001,1611.240456,60565.583432,1231.237589,777.014729,30227.382040
225,0,3,666538.333333,230517.000000,1378185.333333,68891.000000,8596.666667,688687.333333,2202.855470,337.472962,118819.558326,33.891985,1019.251141,59399.750894
225,1,6,709340.666667,248149.833333,1401257.000000,73948.500000,9132.833333,700112.833333,1845.279082,886.635855,40371.962544,564.782480,533.894939,20130.009914
226,0,3,669378.000000,231292.000000,1332231.666667,69241.666667,7996.333333,665561.000000,3652.989004,1130.601905,57907.387729,447.410575,718.034973,28950.346423
226,1,6,709652.500000,248260.666667,1402949.166667,73970.000000,9454.333333,700986.833333,1918.651849,459.156715,56886.558141,342.597431,677.080662,28472.152596
227,0,3,667620.666667,231062.333333,1399489.666667,69182.000000,8212.333333,699078.000000,1934.343874,916.558903,74599.522127,501.651273,741.501779,37344.725652
227,1,6,710430.333333,248801.333333,1430409.000000,74247.166667,9293.000000,714577.000000,1578.448042,644.241328,62904.060725,407.084928,684.547783,31531.865856
228,0,3,670949.666667,231253.666667,1297833.666667,69751.000000,7907.000000,648490.666667,8531.990363,2327.969406,30314.771870,1733.226086,366.536037,15173.431480
228,1,6,714771.500000,249378.666667,1409642.166667,74913.833333,9233.833333,704312.833333,8796.557125,2007.975902,77209.537700,1365.524248,596.850740,38587.429673
229,0,3,667658.000000,231220.333333,1300666.666667,69215.666667,7994.333333,649738.666667,2739.243083,765.002977,58649.499920,312.169114,553.154188,29203.632266
229,1,6,712501.833333,249277.166667,1361049.666667,74662.500000,8749.666667,679940.333333,10012.291187,1966.502938,62702.424152,1168.055043,558.761925,31321.728330
230,0,3,665387.666667,230441.333333,1284760.666667,68849.333333,7487.666667,641902.666667,1123.871088,627.226877,22624.781168,291.303202,509.655003,11383.581784
230,1,6,711537.166667,248882.833333,1390382.333333,74487.166667,8958.000000,694618.166667,8948.216366,2002.226129,75864.657344,1494.207863,410.597126,37776.920584
231,0,3,666609.000000,230960.333333,1322946.333333,69085.333333,7809.666667,660961.333333,2111.948074,690.604244,19475.979296,359.955861,182.020756,9834.439226
231,1,6,710819.333333,248985.166667,1382670.666667,74555.666667,9266.333333,690773.333333,6848.565194,1644.739637,85735.028628,1342.069753,430.316034,42929.871864
232,0,3,679406.000000,233544.666667,1355656.333333,71138.000000,7984.666667,677346.000000,10789.596471,2388.616661,34173.073770,1522.860685,848.611546,17118.628820
232,1,6,712873.000000,249098.000000,1407728.500000,74610.166667,9383.666667,703300.833333,9075.694078,2090.452184,76552.092760,1418.820334,569.509340,38315.560279
233,0,3,666086.333333,230486.666667,1337512.333333,68915.000000,7986.666667,668281.000000,1294.859151,611.426928,81613.288503,169.534657,660.088041,40821.993198
233,1,6,711487.833333,249319.500000,1350539.333333,74227.333333,9234.666667,674761.333333,7478.900018,2612.924399,39137.998040,543.403676,345.860119,19536.717514
234,0,3,665277.000000,230634.333333,1353834.666667,68972.000000,8154.333333,676529.666667,2621.503767,625.212675,54353.584980,92.793678,255.250639,27248.210392
234,1,6,716677.000000,250923.333333,1419214.000000,74808.500000,9088.500000,709191.833333,17104.444257,5850.429319,41224.140157,1609.572485,364.852824,20645.214945
235,0,3,691623.000000,238584.000000,1289492.000000,71812.000000,8321.000000,644269.666667,34953.840428,10607.104914,31938.850668,3761.991582,720.984050,16046.645679
235,1,6,720466.500000,251713.000000,1421956.833333,75107.666667,9142.333333,710442.833333,18199.678640,6129.124434,118665.805037,1795.812320,695.241605,59269.184726
236,0,3,683477.000000,236796.000000,1304136.000000,70632.333333,7867.666667,651597.000000,24060.639684,8110.063173,77891.079802,2133.860404,464.385855,38940.017908
236,1,6,721415.333333,251448.333333,1396212.333333,75002.166667,9263.166667,697554.166667,17264.418078,6278.474753,25500.673100,1685.923230,755.161443,12741.267734
237,0,3,685342.333333,237365.000000,1380110.333333,70850.000000,8101.333333,689525.333333,25967.910920,8331.311101,65242.602525,2168.191873,263.322785,32623.472954
237,1,6,723511.666667,252724.833333,1400251.666667,75551.500000,9221.000000,699410.000000,25241.953079,8225.766599,67559.568468,2866.922319,368.199221,33790.789391
238,0,3,683187.333333,236407.666667,1315616.666667,70479.000000,8427.333333,657370.000000,25169.368319,8499.827462,29421.879323,2280.184349,151.926152,14668.354668
238,1,6,725128.333333,252678.333333,1418279.000000,75694.500000,9001.166667,708693.500000,19309.892678,6800.441816,59215.638588,1902.509899,668.814228,29640.830520
239,0,3,693573.333333,240170.000000,1316765.000000,71601.333333,8200.333333,657903.000000,38986.589885,13080.588366,39232.134864,3646.407578,164.360038,19679.654536
239,1,6,717020.166667,251408.166667,1377422.166667,74745.000000,8856.000000,687926.166667,18448.490068,6502.395544,103658.978822,1784.949206,738.380435,51306.660118
240,0,3,685264.666667,237957.000000,1363164.000000,71174.333333,8704.666667,680908.000000,26402.936419,8916.628959,32005.925420,2469.404427,234.836586,15898.962377
240,1,6,716278.666667,250940.000000,1382696.833333,74562.000000,8893.666667,690882.000000,19102.726740,7004.874707,81769.789235,1879.869765,766.164618,40921.634132
241,0,3,687999.000000,237936.000000,1360439.000000,71583.666667,8569.333333,679777.666667,23458.062196,7568.343192,57991.779711,2005.997729,92.033810,29019.810846
241,1,6,722316.666667,252378.000000,1383876.833333,75369.666667,9211.666667,691388.666667,28775.963909,8544.234918,95383.135932,2975.138465,770.616997,47769.363926
242,0,3,684685.666667,237209.666667,1370084.333333,70804.666667,8178.000000,684538.666667,23219.190918,8503.415797,36826.550081,2259.247269,510.776533,18278.605569
242,1,6,722629.500000,252128.500000,1376765.166667,75260.833333,9405.500000,687821.000000,21132.015141,6983.361148,65436.744788,1922.736367,756.790757,32663.587693
243,0,3,692580.333333,238494.000000,1443360.333333,71783.000000,8596.333333,721210.000000,21570.470963,8009.364394,103340.424141,2133.636489,542.985778,51641.779546
243,1,6,718562.833333,251505.833333,1395690.666667,74765.000000,9014.833333,697222.000000,20357.477442,6741.881696,99431.509407,1817.864040,784.561112,49740.167615
244,0,3,685033.333333,236413.000000,1347446.666667,70480.666667,8346.333333,673243.000000,26680.366331,8468.605119,34553.984867,2259.752395,420.641838,17288.731359
244,1,6,720770.166667,251754.166667,1413370.500000,75071.500000,9661.666667,706266.500000,29177.520356,8783.422879,84700.955982,3127.628055,1158.001391,42342.505101
245,0,3,685074.666667,236930.000000,1358083.333333,70721.333333,8271.333333,678501.333333,29243.214111,9431.671220,52316.925766,2697.982127,1008.410410,25974.748203
245,1,6,717504.833333,251134.000000,1400113.166667,74670.000000,9775.833333,699461.666667,20106.640722,6584.359372,70542.323762,1729.873406,823.807101,35288.061946
246,0,3,684250.000000,236920.333333,1283534.666667,70652.666667,7575.333333,641299.333333,24884.589729,8229.019275,20251.701695,2210.748038,263.496152,10086.719729
246,1,6,716430.833333,250857.500000,1375067.833333,74450.833333,9267.833333,686993.000000,20654.217724,6762.920123,51729.558856,1804.885907,609.597249,25923.767300
247,0,3,685322.000000,237542.666667,1410232.333333,70990.333333,8304.333333,704496.666667,24796.584214,7882.559412,29261.047991,1961.517496,554.061569,14662.310876
247,1,6,716936.666667,251122.833333,1390091.333333,74583.000000,9305.500000,694481.333333,20293.665914,6731.583752,24516.182477,1850.547577,464.695868,12310.318039
248,0,3,685418.000000,236841.000000,1347716.333333,70637.666667,7924.666667,673389.333333,23176.798326,7995.829455,55288.493501,2100.685973,523.124799,27679.470736
248,1,6,717211.833333,251737.000000,1377137.000000,74809.166667,9311.166667,687976.833333,19494.816759,6491.689662,80356.415940,1697.470512,733.033064,40177.848982
249,0,3,687533.666667,238185.666667,1431571.333333,71278.333333,8986.000000,715157.666667,27456.833665,9546.971085,148912.756271,2725.180646,1537.153430,74294.654955
249,1,6,715645.833333,251133.333333,1381008.500000,74543.166667,9088.000000,690084.166667,19777.367565,6581.456163,75044.847444,1762.753095,889.203389,37614.848803
250,0,3,683401.666667,236896.000000,1370253.333333,70731.666667,8466.666667,684537.333333,22273.551989,7861.570963,45406.173217,2025.392363,287.930933,22621.779481
250,1,6,717600.833333,251198.666667,1381384.333333,74607.166667,9198.833333,690084.833333,20178.597551,6685.772572,92272.952909,1842.729806,717.390042,46236.058927
251,0,3,692145.333333,238786.000000,1317327.000000,71951.666667,8566.000000,658237.333333,26335.591030,8677.472712,75430.419381,2324.806706,292.035386,37697.545087
251,1,6,718509.333333,251492.000000,1401061.333333,74981.000000,9271.000000,700052.666667,20393.983342,6581.578787,64076.879940,1982.371307,678.716681,32159.812197
252,0,3,683509.333333,236566.000000,1324954.666667,70523.000000,8225.666667,662063.000000,26535.621522,8710.106123,25115.261686,2371.656102,360.577623,12556.168285
252,1,6,722311.166667,251607.000000,1398547.000000,75015.000000,9178.666667,698756.666667,26346.870582,8397.958184,75814.802567,3000.172439,772.992813,37852.016880
253,0,3,685688.333333,237908.000000,1306852.333333,71074.000000,7870.000000,652819.666667,27934.261548,9385.763830,50451.275599,2673.795928,340.529979,25047.268758
253,1,6,719457.500000,251687.000000,1420030.333333,74824.500000,8891.333333,709410.833333,17775.582417,6491.000514,80881.566634,1662.972514,488.917739,40506.192676
254,0,3,683131.666667,237153.666667,1284183.666667,70785.333333,7499.333333,641524.333333,24126.972739,7853.519353,60896.114169,2011.143843,193.494760,30410.923151
254,1,6,725017.000000,252880.833333,1395499.666667,75768.000000,8888.166667,697211.166667,26101.136757,8007.233593,57016.578895,2812.010609,349.808241,28460.929672
255,0,3,691711.000000,238862.000000,1300360.666667,71980.666667,7857.000000,649663.333333,23166.515707,8442.713584,82215.214530,2313.328098,302.790357,41025.165954
255,1,6,718195.833333,251680.500000,1336084.333333,74842.000000,8416.666667,667395.000000,19007.818351,6332.203165,64532.719018,1739.073508,774.560234,32242.244670
