0,0,7,683170.000000,236150.428571,1289191.571429,70569.285714,7872.857143,644046.285714,20976.996142,8029.246484,56123.938012,2098.378198,541.534177,28066.941839
0,1,3,728225.666667,254679.333333,1397092.333333,75632.666667,8956.333333,697934.333333,26661.227858,9591.395252,38068.326908,2732.925945,318.126111,18926.639433
1,0,6,679184.166667,234228.833333,1332921.333333,70387.166667,8228.833333,665893.833333,20859.112904,7623.241905,73105.269374,2341.833286,544.190045,36342.154524
1,1,2,709645.000000,247576.500000,1362922.000000,73711.500000,9343.000000,680971.000000,1948.000000,100.500000,59351.000000,198.500000,896.000000,29657.000000
2,0,6,677478.666667,233738.333333,1307937.000000,69875.333333,8077.166667,653458.000000,19047.413024,6783.905185,62931.578914,1811.370905,736.869373,31459.467886
2,1,2,709914.500000,248299.000000,1268455.500000,73828.000000,8289.500000,633718.000000,1547.500000,724.000000,14509.500000,44.000000,155.500000,7146.000000
3,0,6,674050.500000,232940.666667,1326071.666667,69610.166667,8196.333333,662539.166667,14080.305995,5320.969795,45150.073144,1361.483188,573.124381,22600.315436
3,1,2,708511.500000,247645.500000,1295056.500000,73861.500000,8615.000000,646937.000000,1048.500000,185.500000,3520.500000,58.500000,109.000000,1832.000000
4,0,6,672126.500000,231935.333333,1370311.500000,69844.666667,8358.166667,684546.500000,8342.779388,1691.292569,47800.799333,1168.753847,594.661925,23989.490760
4,1,2,708274.000000,247834.500000,1261813.500000,73890.500000,8646.000000,630393.500000,572.000000,563.500000,22621.500000,67.500000,118.000000,11281.500000
5,0,6,671945.666667,231717.833333,1356777.333333,69697.000000,8381.166667,677948.166667,7972.216937,1552.171320,88599.609827,1008.457072,634.273710,44454.739595
5,1,2,706972.000000,248379.500000,1353785.000000,74176.000000,8736.500000,676216.500000,670.000000,962.500000,27403.000000,337.000000,72.500000,13499.500000
6,0,6,668215.166667,230898.833333,1276876.833333,69161.000000,7835.166667,637818.500000,4288.247016,724.146950,69681.139685,439.905293,578.646529,34885.507625
6,1,2,717988.500000,250784.500000,1385569.000000,75816.500000,10022.000000,692128.000000,7041.500000,800.500000,45698.000000,1222.500000,176.000000,23009.000000
7,0,6,670667.666667,231128.166667,1299055.833333,69485.666667,8275.000000,649000.166667,8572.599405,1724.228950,60259.249701,1365.819494,861.039875,30184.533387
7,1,2,706106.500000,247883.500000,1322292.000000,73849.500000,8590.000000,660627.000000,163.500000,122.500000,5715.000000,115.500000,296.000000,2939.000000
8,0,6,669759.500000,231324.000000,1319954.000000,69349.666667,8083.666667,659323.833333,4680.721374,982.827893,62590.492659,417.817211,581.212717,31334.904582
8,1,2,709285.500000,248422.500000,1430900.000000,74014.500000,8884.000000,714857.000000,3392.500000,280.500000,2078.000000,94.500000,248.000000,1240.000000
9,0,6,674602.833333,232142.000000,1283854.833333,70135.666667,8514.500000,641347.666667,10174.489298,2308.462620,75545.666634,1556.868831,793.303588,37741.500075
9,1,2,727457.500000,254169.500000,1351270.500000,75828.500000,8873.000000,674837.000000,15365.500000,6227.500000,31337.500000,1808.500000,675.000000,15402.000000
10,0,6,673870.500000,231681.333333,1324881.833333,69943.833333,8402.500000,661856.166667,10268.423585,1970.257569,40568.697356,1446.652851,396.053342,20277.686648
10,1,2,710641.000000,248190.500000,1342483.000000,73934.000000,8538.500000,670871.500000,2784.000000,992.500000,31406.000000,128.000000,238.500000,15646.500000
11,0,6,667048.666667,230744.666667,1340083.166667,69088.666667,8393.833333,669491.500000,1488.366181,868.133374,88480.351969,316.734203,622.586384,44156.482487
11,1,2,708200.000000,247409.500000,1351374.500000,73671.000000,9134.500000,675145.000000,801.000000,274.500000,42895.500000,63.000000,247.500000,21532.000000
12,0,6,668248.833333,230843.000000,1284106.666667,69096.333333,8054.666667,641621.500000,2919.082871,504.072415,32066.075946,109.864563,557.521499,16061.885316
12,1,2,711659.500000,248963.000000,1351974.500000,74219.500000,8643.000000,675343.000000,3829.500000,1973.000000,70023.500000,568.500000,451.000000,34733.000000
13,0,6,668432.833333,230972.166667,1277212.833333,69229.666667,8180.666667,637957.166667,2529.984547,713.554113,56908.646146,406.917136,688.676670,28563.695684
13,1,2,714636.500000,249365.500000,1307190.000000,74319.500000,9389.000000,652766.000000,6913.500000,1797.500000,20777.000000,421.500000,458.000000,10044.000000
14,0,6,667083.500000,230479.333333,1293370.833333,68994.000000,8201.333333,646196.500000,2500.764533,325.767640,71726.067673,173.402230,475.150386,35898.317666
14,1,2,708686.500000,249312.000000,1275611.500000,74437.500000,9190.500000,636955.500000,2433.500000,698.000000,26587.500000,18.500000,128.500000,13134.500000
15,0,6,667102.333333,230609.000000,1331857.500000,69054.833333,8458.833333,665308.833333,3402.815632,928.439551,92590.994241,440.100146,732.936199,46256.433219
15,1,2,718115.500000,249996.500000,1388925.500000,75619.500000,9469.500000,693863.000000,11907.500000,1927.500000,38241.500000,1523.500000,484.500000,19298.000000
16,0,6,673024.666667,231825.333333,1358339.833333,69756.000000,8357.333333,678592.833333,6852.542075,1619.512855,73831.503792,1302.766032,871.811460,36919.029910
16,1,2,707180.000000,247590.500000,1332876.000000,73919.000000,8552.500000,666001.000000,1277.000000,735.500000,46017.000000,258.000000,424.500000,23050.000000
17,0,6,666423.666667,230287.333333,1280675.833333,68884.666667,7913.500000,639835.333333,1348.995635,363.925206,50726.260689,223.225347,484.655806,25362.781963
17,1,2,707722.000000,247903.500000,1378100.000000,74051.500000,8824.000000,688572.000000,1098.000000,578.500000,17196.000000,191.500000,172.000000,8627.000000
18,0,6,673591.000000,232177.333333,1289719.666667,69933.500000,8411.000000,644268.833333,9148.139191,1943.374614,46577.558121,1137.864777,503.689388,23256.697096
18,1,2,709633.000000,248814.000000,1293647.000000,74333.000000,8981.000000,646215.000000,2743.000000,312.000000,7750.000000,247.000000,152.000000,3799.000000
19,0,6,675118.000000,232238.166667,1291839.166667,70167.166667,8467.000000,645358.666667,10540.823640,2101.046994,46320.630823,1469.323588,483.007936,23215.047675
19,1,2,711342.000000,248903.500000,1337922.000000,74395.000000,9034.000000,668273.500000,1258.000000,1185.500000,22780.000000,539.000000,219.000000,11538.500000
20,0,6,668170.333333,230564.500000,1281634.500000,68989.833333,8005.666667,640302.666667,1653.126298,751.801115,80216.184237,342.547523,508.180633,40063.892995
20,1,2,708426.000000,248617.000000,1448093.000000,74207.500000,8827.000000,723504.500000,3162.000000,1392.000000,65616.000000,469.500000,704.000000,32685.500000
21,0,6,667223.500000,230558.666667,1292900.500000,69017.333333,8058.333333,645894.333333,2517.812791,211.249984,59803.287359,167.295813,568.091738,29922.343545
21,1,2,710475.000000,248937.000000,1393598.000000,74407.500000,9565.500000,696092.500000,5572.000000,1702.000000,82027.000000,603.500000,1076.500000,41167.500000
22,0,6,678111.333333,233724.166667,1401316.666667,70393.666667,8480.166667,699997.166667,10700.345129,2908.964330,65429.592878,1219.893939,963.741912,32835.892671
22,1,2,709977.500000,248203.500000,1467174.500000,74045.500000,9360.500000,733168.500000,185.500000,66.500000,67213.500000,32.500000,137.500000,33635.500000
23,0,6,671371.166667,231598.000000,1337231.000000,69675.833333,8364.500000,668040.500000,8113.360862,1301.697994,45782.407385,1070.282738,492.664101,22828.850152
23,1,2,710358.500000,248255.500000,1324355.500000,74128.000000,9168.000000,661441.000000,792.500000,670.500000,40801.500000,370.000000,543.000000,20123.000000
24,0,6,667164.666667,230801.500000,1345665.166667,69121.000000,8400.666667,672270.333333,2538.509383,933.907695,25646.203672,458.569878,548.718102,12803.056610
24,1,1,705975.000000,247911.000000,1403876.000000,73946.000000,9441.000000,701205.000000,0.000000,0.000000,0.000000,0.000000,0.000000,0.000000
25,0,6,666725.833333,230440.500000,1267390.666667,68984.833333,8214.833333,633222.666667,2996.545089,269.077281,63267.220722,239.195469,636.663024,31641.346419
25,1,1,709404.000000,248557.000000,1387865.000000,74331.000000,9248.000000,693311.000000,0.000000,0.000000,0.000000,0.000000,0.000000,0.000000
26,0,6,667679.666667,231245.500000,1346325.500000,69292.333333,8222.666667,672563.666667,2431.249930,1014.453014,33584.649801,421.605924,579.755887,16846.546250
26,1,1,707191.000000,247809.000000,1441167.000000,73938.000000,10360.000000,720150.000000,0.000000,0.000000,0.000000,0.000000,0.000000,0.000000
27,0,6,674704.666667,232421.000000,1353323.666667,70271.166667,8642.333333,676107.166667,9301.835888,2201.033545,77647.506405,1570.395642,1174.179666,38788.949876
27,1,1,706208.000000,247715.000000,1386009.000000,73955.000000,9874.000000,692524.000000,0.000000,0.000000,0.000000,0.000000,0.000000,0.000000
28,0,6,666824.500000,230810.000000,1275544.500000,69104.333333,7992.666667,637224.666667,2302.170769,379.792487,55770.181414,146.548816,561.093773,27871.316693
28,1,1,705956.000000,248349.000000,1305452.000000,74294.000000,9499.000000,652154.000000,0.000000,0.000000,0.000000,0.000000,0.000000,0.000000
29,0,6,671143.833333,231688.000000,1284748.666667,69762.000000,8213.333333,641781.000000,8045.882247,1712.414572,71151.297064,1175.817588,708.682267,35637.148123
29,1,1,710186.000000,247703.000000,1436268.000000,73917.000000,9998.000000,717756.000000,0.000000,0.000000,0.000000,0.000000,0.000000,0.000000
30,0,6,671812.166667,231946.833333,1322191.333333,69795.000000,8509.166667,660549.000000,8497.535769,1597.781109,69638.991486,1132.079797,740.069235,34902.181785
30,1,1,712539.000000,248465.000000,1354061.000000,74381.000000,9139.000000,676496.000000,0.000000,0.000000,0.000000,0.000000,0.000000,0.000000
31,0,6,667603.166667,230962.000000,1309945.166667,69158.333333,8189.833333,654426.000000,2148.651082,959.170475,61983.706201,407.716677,716.049211,30886.474737
31,1,1,707127.000000,247759.000000,1311849.000000,73933.000000,8483.000000,655402.000000,0.000000,0.000000,0.000000,0.000000,0.000000,0.000000
32,0,6,668255.833333,231148.333333,1313244.166667,69230.500000,8170.666667,656007.500000,3022.713649,258.844655,50758.157654,277.552848,281.480412,25322.884109
32,1,1,709455.000000,247374.000000,1354784.000000,73813.000000,10416.000000,676948.000000,0.000000,0.000000,0.000000,0.000000,0.000000,0.000000
33,0,6,670609.333333,231894.166667,1339823.166667,69788.500000,8403.000000,669289.000000,8460.491941,1514.570502,93818.006021,1141.798837,523.087628,46962.950156
33,1,1,713028.000000,249213.000000,1345017.000000,74584.000000,9334.000000,671475.000000,0.000000,0.000000,0.000000,0.000000,0.000000,0.000000
34,0,6,671924.833333,232665.500000,1294501.666667,69699.000000,8214.166667,646659.333333,10306.067297,3282.468215,51357.584749,990.729025,465.965813,25666.831123
34,1,1,711330.000000,248583.000000,1280863.000000,74422.000000,9815.000000,639268.000000,0.000000,0.000000,0.000000,0.000000,0.000000,0.000000
35,0,6,669112.333333,231443.333333,1293821.166667,69588.166667,8317.000000,646397.000000,7172.157919,1823.999604,63032.391343,1252.986754,728.976223,31553.058975
35,1,1,707405.000000,247878.000000,1386412.000000,74011.000000,9433.000000,692550.000000,0.000000,0.000000,0.000000,0.000000,0.000000,0.000000
36,0,6,670597.166667,231802.833333,1294880.666667,69771.000000,8118.333333,646865.833333,7815.275585,1688.874321,64615.679278,1166.129352,581.053832,32429.591288
36,1,1,711523.000000,247615.000000,1406283.000000,73887.000000,9547.000000,702573.000000,0.000000,0.000000,0.000000,0.000000,0.000000,0.000000
37,0,6,670953.666667,231382.666667,1342504.666667,69578.500000,8543.333333,670744.166667,6726.779062,1752.789459,86195.796390,1370.379601,641.105209,43076.978745
37,1,1,710255.000000,247661.000000,1422146.000000,73890.000000,9094.000000,710199.000000,0.000000,0.000000,0.000000,0.000000,0.000000,0.000000
38,0,6,672518.666667,232274.333333,1325421.333333,69538.166667,8602.166667,662127.333333,9822.511129,3711.734306,45101.753775,1108.475592,636.277040,22531.380810
38,1,1,708553.000000,247288.000000,1391855.000000,73776.000000,8760.000000,695420.000000,0.000000,0.000000,0.000000,0.000000,0.000000,0.000000
39,0,6,667744.000000,230738.833333,1292667.166667,69095.666667,8383.833333,645827.166667,1995.826813,943.786773,63379.606987,352.139493,755.537428,31680.987113
39,1,1,713980.000000,249687.000000,1366947.000000,74866.000000,9470.000000,682516.000000,0.000000,0.000000,0.000000,0.000000,0.000000,0.000000
40,0,6,674453.666667,232741.166667,1305597.000000,70382.666667,8647.666667,652114.000000,8696.419832,1983.194092,52562.469938,1360.911786,576.281374,26146.001517
40,1,1,708953.000000,248548.000000,1319714.000000,74172.000000,9426.000000,659203.000000,0.000000,0.000000,0.000000,0.000000,0.000000,0.000000
41,0,6,667767.500000,231112.833333,1302474.500000,69205.833333,8415.166667,650632.666667,3508.646688,966.127048,64802.716769,243.968179,557.960398,32415.578151
41,1,1,706467.000000,247203.000000,1437133.000000,73800.000000,9816.000000,718017.000000,0.000000,0.000000,0.000000,0.000000,0.000000,0.000000
42,0,6,667927.000000,230901.666667,1275479.166667,69080.500000,8248.500000,637124.166667,3780.510856,746.236260,57936.672489,197.239913,423.189378,29000.921212
42,1,1,710937.000000,249974.000000,1389892.000000,74911.000000,9310.000000,694143.000000,0.000000,0.000000,0.000000,0.000000,0.000000,0.000000
43,0,6,668989.333333,231552.666667,1273507.666667,69403.666667,8462.000000,636132.166667,4625.516608,1112.038618,54202.821767,364.494018,309.732680,26903.597779
43,1,1,726275.000000,251631.000000,1510536.000000,76999.000000,9942.000000,754722.000000,0.000000,0.000000,0.000000,0.000000,0.000000,0.000000
44,0,6,672789.666667,232655.333333,1320383.000000,69658.333333,8812.333333,659576.000000,9503.564290,3792.240132,34199.079583,1155.222297,671.941879,16985.127151
44,1,1,715049.000000,249237.000000,1385411.000000,74659.000000,9693.000000,691972.000000,0.000000,0.000000,0.000000,0.000000,0.000000,0.000000
45,0,6,670380.833333,231670.333333,1350714.000000,69471.166667,8526.666667,674595.500000,3508.191767,1348.853175,37093.316060,604.625343,506.283408,18434.344412
45,1,1,706881.000000,246847.000000,1365392.000000,73580.000000,9057.000000,682236.000000,0.000000,0.000000,0.000000,0.000000,0.000000,0.000000
46,0,6,670260.333333,231230.333333,1307811.000000,69246.166667,8585.166667,653352.000000,4001.230963,976.325367,44788.885515,393.819509,610.388242,22354.175143
46,1,1,708594.000000,247901.000000,1454349.000000,74025.000000,9674.000000,726659.000000,0.000000,0.000000,0.000000,0.000000,0.000000,0.000000
47,0,6,668985.500000,231256.833333,1329309.166667,69242.000000,8454.500000,664092.166667,4372.902078,1000.833555,61535.268162,374.193800,553.116850,30793.584377
47,1,1,708559.000000,247352.000000,1272367.000000,73858.000000,8621.000000,635700.000000,0.000000,0.000000,0.000000,0.000000,0.000000,0.000000
48,0,6,670947.333333,231363.000000,1297182.000000,69245.333333,8015.833333,648019.000000,3648.937182,707.946796,44594.848608,267.756523,412.154266,22356.115576
48,1,1,708733.000000,249243.000000,1363375.000000,73795.000000,8252.000000,681008.000000,0.000000,0.000000,0.000000,0.000000,0.000000,0.000000
49,0,6,673831.333333,232016.833333,1282597.333333,69781.000000,8163.500000,640745.166667,7441.731646,1392.076796,41780.209209,1064.789181,569.393464,20952.097090
49,1,1,704224.000000,247039.000000,1362388.000000,72884.000000,8378.000000,680774.000000,0.000000,0.000000,0.000000,0.000000,0.000000,0.000000
50,0,6,674215.666667,232511.666667,1362423.000000,70059.833333,8536.000000,680492.000000,7477.553135,1156.735733,44102.386523,1087.618563,814.400598,22126.909409
50,1,1,707415.000000,249196.000000,1232913.000000,73677.000000,8788.000000,615797.000000,0.000000,0.000000,0.000000,0.000000,0.000000,0.000000
51,0,6,670039.833333,230871.166667,1348568.500000,69110.500000,8401.500000,673762.000000,1700.191795,716.143239,73754.597576,204.070862,436.491218,36821.717292
51,1,1,705599.000000,246864.000000,1402285.000000,72721.000000,8255.000000,700704.000000,0.000000,0.000000,0.000000,0.000000,0.000000,0.000000
52,0,6,674464.166667,231987.500000,1340138.500000,69766.166667,8549.833333,669458.166667,6979.755283,1536.573000,31918.525946,1067.267448,502.731014,16158.212828
52,1,1,706951.000000,248233.000000,1451201.000000,73171.000000,8482.000000,725132.000000,0.000000,0.000000,0.000000,0.000000,0.000000,0.000000
53,0,6,669825.000000,230847.000000,1296433.000000,69084.000000,8582.833333,647709.333333,2595.275901,1334.284203,64137.796839,423.422169,539.196753,32007.963007
53,1,1,706534.000000,247621.000000,1323066.000000,72936.000000,8425.000000,660982.000000,0.000000,0.000000,0.000000,0.000000,0.000000,0.000000
54,0,6,670534.000000,231330.666667,1277935.500000,69243.000000,8571.333333,638324.333333,2364.640706,950.592038,47442.495904,259.462907,409.199897,23603.818608
54,1,1,710373.000000,249364.000000,1386356.000000,73711.000000,8582.000000,692560.000000,0.000000,0.000000,0.000000,0.000000,0.000000,0.000000
55,0,6,671154.833333,231830.833333,1299572.666667,69479.666667,8594.500000,649134.666667,2075.296960,779.416324,57643.900824,409.711552,727.102182,28865.158275
55,1,1,704764.000000,247200.000000,1281334.000000,72780.000000,7843.000000,640324.000000,0.000000,0.000000,0.000000,0.000000,0.000000,0.000000
56,0,6,675166.166667,232420.833333,1310193.833333,70139.500000,8517.666667,654532.333333,10835.466755,2455.556109,44705.578945,1583.000605,218.316793,22290.788229
56,1,1,700709.000000,247199.000000,1271492.000000,72760.000000,8338.000000,635259.000000,0.000000,0.000000,0.000000,0.000000,0.000000,0.000000
57,0,6,667682.000000,230827.833333,1355776.833333,69014.833333,8281.500000,677437.500000,1798.589355,879.251844,32865.205605,306.066124,582.576676,16401.991370
57,1,1,707152.000000,248036.000000,1279741.000000,73089.000000,8097.000000,639379.000000,0.000000,0.000000,0.000000,0.000000,0.000000,0.000000
58,0,6,672368.666667,231979.500000,1353712.833333,69722.166667,8539.333333,676292.666667,7230.074104,1752.710163,59268.747246,1189.408174,624.357181,29532.018927
58,1,1,725757.000000,252292.000000,1453905.000000,76251.000000,9154.000000,726413.000000,0.000000,0.000000,0.000000,0.000000,0.000000,0.000000
59,0,6,668163.166667,230892.833333,1332999.500000,69077.000000,8389.500000,665927.833333,2831.162565,590.657661,31828.482275,290.554642,419.544098,16088.382366
59,1,1,702810.000000,247820.000000,1290400.000000,73017.000000,8113.000000,644724.000000,0.000000,0.000000,0.000000,0.000000,0.000000,0.000000
60,0,6,668485.500000,231089.333333,1317597.000000,69148.833333,8214.666667,658215.333333,2489.680485,968.711974,72560.356550,331.037469,482.691988,36411.637470
60,1,1,701491.000000,247419.000000,1373826.000000,72824.000000,8634.000000,686582.000000,0.000000,0.000000,0.000000,0.000000,0.000000,0.000000
61,0,6,676881.666667,233192.166667,1335539.500000,70105.000000,8630.333333,667193.333333,10044.489097,3405.462887,38226.506108,1412.133492,529.460312,19101.950264
61,1,1,704039.000000,248403.000000,1375452.000000,73228.000000,7659.000000,687187.000000,0.000000,0.000000,0.000000,0.000000,0.000000,0.000000
62,0,6,667961.666667,230853.500000,1300174.000000,69072.000000,7944.833333,649511.166667,1489.833063,949.265988,47128.225725,410.027235,390.014280,23508.659982
62,1,1,735578.000000,252075.000000,1530104.000000,76623.000000,9386.000000,764618.000000,0.000000,0.000000,0.000000,0.000000,0.000000,0.000000
63,0,6,668837.833333,231182.166667,1318836.333333,69237.166667,8513.833333,658799.833333,2818.788476,1093.558628,69103.055050,426.388484,582.766224,34465.781013
63,1,1,713328.000000,247891.000000,1388177.000000,73446.000000,8289.000000,693576.000000,0.000000,0.000000,0.000000,0.000000,0.000000,0.000000
64,0,6,674563.166667,232341.666667,1325150.666667,70134.500000,8760.500000,662023.333333,10596.886530,2287.327091,48503.383441,1654.391907,950.406711,24257.883074
64,1,1,716439.000000,249954.000000,1314219.000000,74347.000000,7869.000000,656320.000000,0.000000,0.000000,0.000000,0.000000,0.000000,0.000000
65,0,6,671008.000000,231418.333333,1310690.833333,69545.000000,8491.000000,654837.666667,6653.623023,1764.532485,63231.733809,1235.338550,323.227990,31621.384556
65,1,1,715725.000000,249073.000000,1304438.000000,74149.000000,8373.000000,651285.000000,0.000000,0.000000,0.000000,0.000000,0.000000,0.000000
66,0,6,671484.833333,231795.500000,1295783.333333,69621.000000,8225.833333,647354.333333,8859.110798,2386.893291,94293.257065,1394.476963,616.331463,47148.987853
66,1,1,711484.000000,247907.000000,1368896.000000,73536.000000,7854.000000,684029.000000,0.000000,0.000000,0.000000,0.000000,0.000000,0.000000
67,0,7,675134.285714,232571.714286,1340172.571429,70237.714286,8767.000000,669502.142857,10076.654571,1987.996171,61837.389912,1489.598672,705.103235,30869.157291
67,1,1,711190.000000,248018.000000,1321460.000000,73582.000000,7915.000000,660241.000000,0.000000,0.000000,0.000000,0.000000,0.000000,0.000000
68,0,7,671480.571429,231695.571429,1359326.142857,69625.571429,8581.857143,679090.285714,8473.893233,1876.930690,70892.916738,1136.359583,638.997301,35351.752354
68,1,1,709866.000000,247022.000000,1288341.000000,73225.000000,7935.000000,643770.000000,0.000000,0.000000,0.000000,0.000000,0.000000,0.000000
69,0,7,668541.857143,231326.000000,1353886.285714,69252.142857,8388.000000,676343.714286,3015.817938,639.019785,23804.804459,329.966851,338.056208,11922.653416
69,1,1,710825.000000,248054.000000,1377741.000000,73583.000000,7717.000000,688401.000000,0.000000,0.000000,0.000000,0.000000,0.000000,0.000000
70,0,7,671627.571429,231780.428571,1328531.714286,69622.142857,8526.000000,663750.857143,7387.456586,1432.270710,75534.222975,1228.713082,897.722356,37801.614774
70,1,1,712090.000000,247616.000000,1390001.000000,73433.000000,8665.000000,694553.000000,0.000000,0.000000,0.000000,0.000000,0.000000,0.000000
71,0,7,672073.857143,231660.285714,1297070.714286,69633.142857,8515.285714,647948.000000,8394.448666,1713.420949,40624.012166,1167.773147,495.739769,20435.442433
71,1,1,710724.000000,248252.000000,1446248.000000,73616.000000,8126.000000,722562.000000,0.000000,0.000000,0.000000,0.000000,0.000000,0.000000
72,0,7,669658.000000,231403.428571,1332765.285714,69340.857143,8581.857143,665668.142857,2068.486887,760.750542,70884.287023,356.732164,557.227173,35303.575915
72,1,1,729865.000000,251772.000000,1353238.000000,76523.000000,9107.000000,676192.000000,0.000000,0.000000,0.000000,0.000000,0.000000,0.000000
73,0,7,675447.000000,232635.000000,1309003.428571,70222.142857,8584.142857,653872.000000,10632.466345,2450.367145,36162.832565,1491.923536,440.315286,17990.977429
73,1,1,730954.000000,252271.000000,1341394.000000,76739.000000,8967.000000,670206.000000,0.000000,0.000000,0.000000,0.000000,0.000000,0.000000
74,0,7,666562.000000,230219.571429,1333766.428571,68851.857143,8293.714286,666356.142857,1988.484563,572.092115,41408.971184,300.818136,588.060423,20766.113870
74,1,1,706426.000000,247152.000000,1367131.000000,73263.000000,8392.000000,683109.000000,0.000000,0.000000,0.000000,0.000000,0.000000,0.000000
75,0,7,668022.428571,231048.000000,1350000.000000,69192.714286,8326.428571,674512.000000,2718.538991,500.010857,39406.808502,231.531987,297.281424,19718.456162
75,1,1,707852.000000,247976.000000,1294851.000000,73557.000000,8404.000000,646962.000000,0.000000,0.000000,0.000000,0.000000,0.000000,0.000000
76,0,7,674477.571429,233097.571429,1345528.857143,69858.428571,8460.857143,672055.714286,11964.213315,3604.413043,51992.486890,1303.596219,572.826932,25851.230630
76,1,1,717392.000000,250030.000000,1300831.000000,74357.000000,8183.000000,649698.000000,0.000000,0.000000,0.000000,0.000000,0.000000,0.000000
77,0,7,671414.285714,231832.000000,1277749.142857,69710.000000,8487.000000,638247.714286,7435.950582,1725.878575,54402.349840,1160.471210,521.298653,27220.383233
77,1,1,711186.000000,249235.000000,1324924.000000,74126.000000,7823.000000,661798.000000,0.000000,0.000000,0.000000,0.000000,0.000000,0.000000
78,0,7,669301.142857,231503.857143,1296758.857143,69360.714286,8321.857143,647730.714286,1772.053726,517.122375,39484.723539,387.952027,713.712913,19784.799372
78,1,1,717037.000000,250460.000000,1312944.000000,74601.000000,8582.000000,655771.000000,0.000000,0.000000,0.000000,0.000000,0.000000,0.000000
79,0,7,668775.142857,231088.857143,1325525.571429,69165.000000,8558.000000,662192.142857,2589.333694,868.191787,66217.405782,297.306960,280.036732,33100.318718
79,1,1,709411.000000,247806.000000,1412405.000000,73508.000000,8440.000000,706130.000000,0.000000,0.000000,0.000000,0.000000,0.000000,0.000000
80,0,7,668545.142857,231008.428571,1291348.428571,69157.142857,8095.857143,645034.714286,2573.767413,819.694343,45122.109981,383.498716,567.116372,22579.059924
80,1,1,709246.000000,247328.000000,1429103.000000,73315.000000,8764.000000,713997.000000,0.000000,0.000000,0.000000,0.000000,0.000000,0.000000
81,0,7,673499.000000,232493.571429,1311220.285714,69984.142857,8578.857143,654901.714286,5460.097043,1382.141905,51637.665294,915.702919,757.520283,25888.537181
81,1,1,714124.000000,249659.000000,1332591.000000,74403.000000,8644.000000,665414.000000,0.000000,0.000000,0.000000,0.000000,0.000000,0.000000
82,0,7,674907.714286,232542.142857,1345250.714286,70137.428571,8534.000000,672032.857143,11247.404827,2377.022233,58731.324156,1698.968330,515.910568,29301.830569
82,1,1,707556.000000,247490.000000,1370572.000000,73397.000000,8346.000000,684812.000000,0.000000,0.000000,0.000000,0.000000,0.000000,0.000000
83,0,7,668402.142857,230881.571429,1356509.285714,69005.142857,8369.285714,677712.857143,3197.096291,549.938401,87465.125896,351.335179,499.632355,43683.569436
83,1,1,711375.000000,248406.000000,1358276.000000,73638.000000,7698.000000,678715.000000,0.000000,0.000000,0.000000,0.000000,0.000000,0.000000
84,0,7,675783.285714,232872.857143,1336198.000000,70253.714286,8661.142857,667329.000000,8545.846656,2127.841591,79105.092043,1420.362802,703.810126,39624.888088
84,1,1,714218.000000,248627.000000,1393196.000000,73870.000000,9732.000000,695603.000000,0.000000,0.000000,0.000000,0.000000,0.000000,0.000000
85,0,7,667469.571429,230853.714286,1325712.142857,69061.857143,8352.142857,662292.285714,3655.124343,835.000721,49409.218982,486.958616,478.501359,24745.587149
85,1,1,710514.000000,247553.000000,1394360.000000,73355.000000,9705.000000,696610.000000,0.000000,0.000000,0.000000,0.000000,0.000000,0.000000
86,0,7,671320.428571,232234.571429,1315646.142857,69453.714286,8391.428571,657314.857143,8602.958210,3245.961661,64762.227557,908.781714,504.665337,32481.174519
86,1,1,714143.000000,249532.000000,1557311.000000,74213.000000,9930.000000,777425.000000,0.000000,0.000000,0.000000,0.000000,0.000000,0.000000
87,0,7,677973.142857,233414.000000,1354888.571429,70836.428571,8998.000000,676693.000000,10381.148525,2146.177998,29914.489713,1627.755585,488.239988,15028.376778
87,1,1,709181.000000,247581.000000,1357760.000000,73375.000000,9867.000000,677899.000000,0.000000,0.000000,0.000000,0.000000,0.000000,0.000000
88,0,7,667514.428571,230951.285714,1308258.285714,69191.000000,8449.000000,653587.285714,2719.963700,928.502591,51430.572936,377.582536,695.421147,25676.275312
88,1,1,729134.000000,251717.000000,1382801.000000,76591.000000,9619.000000,691008.000000,0.000000,0.000000,0.000000,0.000000,0.000000,0.000000
89,0,7,667539.142857,231303.000000,1318793.571429,69320.285714,8524.285714,658802.000000,3630.764281,810.975779,59522.578712,374.580800,751.389706,29684.618162
89,1,1,716466.000000,249486.000000,1269733.000000,74217.000000,8900.000000,634171.000000,0.000000,0.000000,0.000000,0.000000,0.000000,0.000000
90,0,7,669041.857143,231401.714286,1318826.857143,69328.142857,8693.285714,658958.571429,2495.894997,858.901078,64346.812625,264.404684,813.301159,32137.077629
90,1,1,708937.000000,247259.000000,1405841.000000,73285.000000,8971.000000,702479.000000,0.000000,0.000000,0.000000,0.000000,0.000000,0.000000
91,0,7,667380.714286,230871.428571,1331183.000000,69157.285714,8847.000000,664950.000000,2348.843893,814.601192,66211.297316,346.582381,364.799358,33128.099191
91,1,1,709185.000000,247822.000000,1468799.000000,73440.000000,9238.000000,733470.000000,0.000000,0.000000,0.000000,0.000000,0.000000,0.000000
92,0,7,677276.571429,233594.000000,1340377.000000,70886.714286,9381.000000,669584.142857,10457.548823,1945.874611,78022.827469,1353.955656,1074.636949,39144.359924
92,1,1,710298.000000,249205.000000,1411083.000000,74126.000000,8752.000000,704942.000000,0.000000,0.000000,0.000000,0.000000,0.000000,0.000000
93,0,7,671786.428571,231804.571429,1358831.000000,69743.428571,8948.285714,678889.000000,6583.259307,1289.816582,57011.398697,1144.680100,501.742311,28564.469538
93,1,1,706716.000000,246907.000000,1426750.000000,73154.000000,9187.000000,712978.000000,0.000000,0.000000,0.000000,0.000000,0.000000,0.000000
94,0,7,668446.000000,231024.142857,1297951.857143,69232.142857,8513.857143,648427.000000,2659.938829,819.711348,44265.302624,508.509707,239.320722,22086.614893
94,1,1,704521.000000,247288.000000,1440104.000000,73196.000000,10085.000000,719583.000000,0.000000,0.000000,0.000000,0.000000,0.000000,0.000000
95,0,7,670297.571429,230970.000000,1292626.000000,69209.000000,8602.857143,645671.000000,3656.750347,721.197417,56512.133494,222.060481,630.203692,28181.889331
95,1,1,731728.000000,252755.000000,1497206.000000,76877.000000,11654.000000,748141.000000,0.000000,0.000000,0.000000,0.000000,0.000000,0.000000
96,0,7,669949.428571,231354.857143,1335119.571429,69372.142857,8769.285714,666930.285714,3875.582163,904.647908,63582.543298,550.545036,440.962491,31909.444870
96,1,1,707073.000000,247504.000000,1483765.000000,73332.000000,9148.000000,741167.000000,0.000000,0.000000,0.000000,0.000000,0.000000,0.000000
97,0,7,672168.428571,232138.285714,1374129.571429,69901.142857,8828.714286,686231.142857,7619.505006,1856.361858,78975.853986,1075.271584,405.264539,39034.515212
97,1,1,707452.000000,247445.000000,1479528.000000,73322.000000,9450.000000,739163.000000,0.000000,0.000000,0.000000,0.000000,0.000000,0.000000
98,0,7,668336.142857,230790.571429,1295071.714286,69170.285714,8455.285714,646944.428571,3385.156440,1068.194185,53751.416406,520.806713,466.762624,26914.057441
98,1,1,703802.000000,247057.000000,1426758.000000,73139.000000,9066.000000,712896.000000,0.000000,0.000000,0.000000,0.000000,0.000000,0.000000
99,0,7,668467.428571,230817.285714,1289760.428571,69123.714286,8438.714286,644358.714286,2026.780900,639.223572,42232.612161,322.431705,534.787198,21136.049595
99,1,1,712887.000000,250530.000000,1413472.000000,74499.000000,9284.000000,705924.000000,0.000000,0.000000,0.000000,0.000000,0.000000,0.000000
100,0,7,670607.285714,231729.000000,1310292.857143,69704.000000,8484.000000,654579.857143,8798.638153,2001.690214,81284.925145,1343.169705,827.284888,40642.890450
100,1,1,708879.000000,248533.000000,1313636.000000,73621.000000,9306.000000,655986.000000,0.000000,0.000000,0.000000,0.000000,0.000000,0.000000
101,0,7,671258.428571,231832.571429,1321688.857143,69765.857143,8623.285714,660292.285714,10474.209972,2094.542763,58728.346218,1160.986702,573.003793,29381.474750
101,1,1,707025.000000,248143.000000,1445087.000000,73429.000000,9861.000000,722045.000000,0.000000,0.000000,0.000000,0.000000,0.000000,0.000000
102,0,7,668710.571429,231473.857143,1289081.857143,69383.428571,8298.285714,643939.285714,3798.632305,822.806596,93537.510307,434.696235,506.638985,46811.402652
102,1,1,707839.000000,248767.000000,1401875.000000,73661.000000,10052.000000,700079.000000,0.000000,0.000000,0.000000,0.000000,0.000000,0.000000
103,0,7,669300.000000,231110.714286,1254570.571429,69255.142857,8334.000000,626741.857143,2529.852847,630.885707,70160.633392,295.577125,502.112110,35059.611555
103,1,1,715505.000000,248122.000000,1445849.000000,73361.000000,9146.000000,721636.000000,0.000000,0.000000,0.000000,0.000000,0.000000,0.000000
104,0,7,669737.428571,230850.857143,1316621.571429,69168.000000,8490.857143,657733.714286,2769.833355,837.184299,101223.404562,248.252176,706.495663,50579.868677
104,1,1,717526.000000,249721.000000,1358463.000000,74107.000000,9575.000000,678457.000000,0.000000,0.000000,0.000000,0.000000,0.000000,0.000000
105,0,7,671666.571429,231720.142857,1324752.714286,69584.000000,8482.571429,661674.714286,2563.308903,952.968060,56589.848559,457.833095,458.722405,28338.541387
105,1,1,710795.000000,247725.000000,1452789.000000,73243.000000,9911.000000,725946.000000,0.000000,0.000000,0.000000,0.000000,0.000000,0.000000
106,0,7,676244.000000,232526.714286,1299446.285714,70261.142857,8491.857143,649149.285714,8230.445154,1540.536800,88674.852748,1253.320097,702.604833,44300.190492
106,1,1,742682.000000,255011.000000,1496319.000000,77879.000000,11011.000000,747780.000000,0.000000,0.000000,0.000000,0.000000,0.000000,0.000000
107,0,7,668092.142857,230523.714286,1351645.285714,69038.714286,8593.571429,675210.285714,1615.831270,488.180796,45993.001231,182.982212,660.896114,22914.444239
107,1,1,713028.000000,247902.000000,1419140.000000,73267.000000,9781.000000,709061.000000,0.000000,0.000000,0.000000,0.000000,0.000000,0.000000
108,0,7,669639.571429,231377.285714,1319985.142857,69408.428571,8303.714286,659340.000000,3873.689819,1379.833294,64186.310831,575.128522,528.231474,31885.597631
108,1,1,718816.000000,250219.000000,1413766.000000,74306.000000,9389.000000,705688.000000,0.000000,0.000000,0.000000,0.000000,0.000000,0.000000
109,0,7,675652.428571,232492.857143,1353533.142857,70221.714286,8896.142857,676207.428571,9738.560334,2068.635950,115001.709813,1444.743745,714.792763,57423.924245
109,1,1,707952.000000,247643.000000,1310598.000000,73368.000000,10505.000000,654587.000000,0.000000,0.000000,0.000000,0.000000,0.000000,0.000000
110,0,6,674592.833333,232827.333333,1327578.666667,69777.000000,8281.166667,663093.166667,9982.406347,3506.355357,85405.683585,1024.492395,537.262635,42675.350705
110,1,1,711986.000000,248259.000000,1415990.000000,73571.000000,9033.000000,707685.000000,0.000000,0.000000,0.000000,0.000000,0.000000,0.000000
111,0,6,668720.166667,230772.666667,1307670.500000,69123.166667,8606.833333,653339.333333,2613.490668,721.349122,75626.492606,396.772570,619.038345,37954.439423
111,1,1,730887.000000,252955.000000,1348073.000000,77016.000000,10287.000000,673603.000000,0.000000,0.000000,0.000000,0.000000,0.000000,0.000000
112,0,6,669187.666667,231252.500000,1265349.166667,69279.500000,8307.833333,631992.000000,3198.729262,729.417976,54971.828687,163.081524,362.433174,27285.690487
112,1,1,707840.000000,247926.000000,1355717.000000,73549.000000,8965.000000,677362.000000,0.000000,0.000000,0.000000,0.000000,0.000000,0.000000
113,0,6,672348.000000,231951.333333,1304356.500000,69834.333333,8494.666667,651636.666667,8051.170453,1578.657306,42655.066439,1162.094756,543.593496,21430.696797
113,1,1,717056.000000,249841.000000,1418443.000000,74394.000000,9622.000000,708362.000000,0.000000,0.000000,0.000000,0.000000,0.000000,0.000000
114,0,6,669513.000000,231154.833333,1377679.000000,69328.166667,8725.166667,688101.666667,3602.033685,1409.339611,82791.129356,526.637578,347.424052,41324.736017
114,1,1,709923.000000,248059.000000,1293051.000000,73649.000000,8996.000000,645987.000000,0.000000,0.000000,0.000000,0.000000,0.000000,0.000000
115,0,6,676360.333333,232926.333333,1357084.833333,70489.000000,8910.000000,677809.333333,10509.002929,2188.206622,82209.275323,1422.878304,609.799421,40826.892447
115,1,1,708422.000000,248293.000000,1346432.000000,73731.000000,9173.000000,672563.000000,0.000000,0.000000,0.000000,0.000000,0.000000,0.000000
116,0,6,670189.000000,231330.333333,1315732.000000,69635.666667,8582.166667,657280.333333,7565.328325,1632.031318,73288.347405,1278.187736,614.454071,36601.940676
116,1,1,707013.000000,247803.000000,1313208.000000,73504.000000,9023.000000,656058.000000,0.000000,0.000000,0.000000,0.000000,0.000000,0.000000
117,0,6,666085.666667,230571.500000,1292400.000000,69040.666667,8381.500000,645622.500000,3884.185357,654.979580,28353.586399,235.887450,605.625503,14220.775585
117,1,1,710461.000000,247437.000000,1436600.000000,73444.000000,9777.000000,717565.000000,0.000000,0.000000,0.000000,0.000000,0.000000,0.000000
118,0,6,670692.333333,231553.333333,1317955.833333,69692.500000,8563.500000,658311.833333,6891.339605,1438.887495,56101.373113,1062.259659,367.338967,27994.284288
118,1,1,713441.000000,248918.000000,1459389.000000,74155.000000,9593.000000,728861.000000,0.000000,0.000000,0.000000,0.000000,0.000000,0.000000
119,0,6,672599.166667,232385.833333,1286222.166667,70045.166667,8396.166667,642232.333333,9040.127330,1728.198235,73421.251384,1092.217533,712.690540,36587.745643
119,1,1,708369.000000,248286.000000,1281114.000000,73755.000000,9520.000000,639885.000000,0.000000,0.000000,0.000000,0.000000,0.000000,0.000000
120,0,6,675001.833333,232506.833333,1322001.500000,70316.166667,8739.500000,660373.166667,10528.318644,2319.733132,64074.907621,1621.018036,656.364165,32027.435783
120,1,1,705480.000000,247531.000000,1496088.000000,73386.000000,10144.000000,747635.000000,0.000000,0.000000,0.000000,0.000000,0.000000,0.000000
121,0,6,666119.666667,230321.333333,1318535.000000,68931.333333,8378.166667,658743.500000,2105.558490,482.303731,95953.835074,165.884163,442.724676,47916.460685
121,1,1,710465.000000,247761.000000,1460408.000000,73463.000000,9348.000000,729280.000000,0.000000,0.000000,0.000000,0.000000,0.000000,0.000000
122,0,6,670568.000000,231575.833333,1369444.500000,69719.500000,8584.833333,684234.666667,7059.237376,1790.869753,36491.699429,1271.921611,737.531336,18317.916163
122,1,1,729304.000000,252607.000000,1401065.000000,76870.000000,10462.000000,699728.000000,0.000000,0.000000,0.000000,0.000000,0.000000,0.000000
123,0,6,666867.333333,230968.000000,1332192.833333,69235.833333,8475.333333,665437.000000,2954.507893,983.681690,56174.624192,498.840795,330.608866,28210.549965
123,1,1,712504.000000,248529.000000,1364048.000000,73724.000000,9639.000000,681340.000000,0.000000,0.000000,0.000000,0.000000,0.000000,0.000000
124,0,6,668130.166667,231200.833333,1319507.500000,69261.000000,8383.333333,659129.166667,3677.424208,1225.373061,40139.872316,424.533862,331.125186,20339.823208
124,1,1,708637.000000,248544.000000,1309338.000000,73771.000000,8906.000000,654206.000000,0.000000,0.000000,0.000000,0.000000,0.000000,0.000000
125,0,6,667395.333333,230800.666667,1362902.833333,69081.833333,8619.166667,680810.000000,2951.867977,532.494027,78387.004640,224.423273,438.984592,39142.350053
125,1,1,705121.000000,247584.000000,1379365.000000,73490.000000,9023.000000,689144.000000,0.000000,0.000000,0.000000,0.000000,0.000000,0.000000
126,0,6,667752.166667,231128.166667,1357257.500000,69267.166667,8588.000000,678014.000000,2995.467544,1108.653450,70230.679347,416.289730,327.759566,35005.889266
126,1,1,710176.000000,247828.000000,1318599.000000,73664.000000,9609.000000,658700.000000,0.000000,0.000000,0.000000,0.000000,0.000000,0.000000
127,0,6,672305.500000,232246.666667,1318499.833333,70157.333333,8897.333333,658571.166667,10370.362606,2090.903925,76338.642518,1552.267875,744.946680,37945.465559
127,1,1,715106.000000,249675.000000,1334911.000000,74380.000000,9650.000000,666627.000000,0.000000,0.000000,0.000000,0.000000,0.000000,0.000000
128,0,6,669139.666667,231088.333333,1299942.666667,69299.166667,8476.333333,649289.666667,4726.498869,1133.497488,36148.990681,550.366974,394.062883,18141.467826
128,1,1,708176.000000,247986.000000,1422883.000000,73495.000000,9679.000000,710978.000000,0.000000,0.000000,0.000000,0.000000,0.000000,0.000000
129,0,6,677117.333333,232478.333333,1310592.333333,70242.833333,8884.333333,654663.500000,12097.947287,2405.463342,61854.089430,1668.101357,676.305322,30974.475066
129,1,1,731157.000000,253556.000000,1407369.000000,77193.000000,10338.000000,703064.000000,0.000000,0.000000,0.000000,0.000000,0.000000,0.000000
130,0,6,671981.000000,231381.333333,1282153.666667,69597.000000,8771.833333,640589.333333,7324.819793,1722.971239,99788.071314,1114.883252,472.525631,49982.248758
130,1,1,709855.000000,247748.000000,1317508.000000,73584.000000,9332.000000,658044.000000,0.000000,0.000000,0.000000,0.000000,0.000000,0.000000
131,0,6,669856.000000,231356.000000,1350009.166667,69350.333333,9139.500000,674120.333333,4116.502925,1094.990868,134929.283145,615.277354,858.068713,67197.729958
131,1,1,716738.000000,250323.000000,1442134.000000,74651.000000,9665.000000,720265.000000,0.000000,0.000000,0.000000,0.000000,0.000000,0.000000
132,0,6,671411.000000,231528.166667,1325123.833333,69665.833333,8829.166667,661819.000000,6479.204709,1358.266471,69668.601525,1156.787422,314.966885,34691.005511
132,1,1,710780.000000,249280.000000,1332091.000000,74242.000000,9477.000000,665270.000000,0.000000,0.000000,0.000000,0.000000,0.000000,0.000000
133,0,6,670641.833333,231567.500000,1297236.833333,69660.666667,8643.166667,648175.833333,9382.392293,1964.657625,71052.410110,1287.523808,622.327196,35477.380678
133,1,1,707764.000000,248386.000000,1256657.000000,73809.000000,9046.000000,627611.000000,0.000000,0.000000,0.000000,0.000000,0.000000,0.000000
134,0,6,667952.833333,231066.666667,1303368.500000,69226.166667,8542.666667,651155.166667,2738.792521,911.043480,52434.006528,390.948171,365.925615,26150.241314
134,1,1,707518.000000,247816.000000,1411853.000000,73591.000000,9287.000000,705383.000000,0.000000,0.000000,0.000000,0.000000,0.000000,0.000000
135,0,6,674540.833333,232703.500000,1366264.000000,69951.666667,8773.000000,682675.166667,17537.943070,4924.691962,93464.752427,2094.763524,517.041262,46695.857858
135,1,1,709475.000000,248498.000000,1505357.000000,73691.000000,9223.000000,752505.000000,0.000000,0.000000,0.000000,0.000000,0.000000,0.000000
136,0,6,674529.000000,232154.333333,1349238.000000,70120.166667,9133.500000,674052.333333,11129.114954,2037.902162,66987.351025,1519.002240,802.342144,33485.188336
136,1,1,705909.000000,248005.000000,1336704.000000,73524.000000,9276.000000,667873.000000,0.000000,0.000000,0.000000,0.000000,0.000000,0.000000
137,0,6,670928.833333,231336.166667,1349160.166667,69595.166667,8895.000000,674073.000000,7654.347292,1567.649133,94135.873953,1274.927111,392.772623,47092.381348
137,1,1,713553.000000,248673.000000,1349178.000000,73760.000000,9599.000000,673977.000000,0.000000,0.000000,0.000000,0.000000,0.000000,0.000000
138,0,6,667710.833333,230754.166667,1363974.166667,69101.333333,8514.833333,681415.166667,3533.346733,339.471853,71207.262236,304.843494,632.152781,35597.261638
138,1,1,717139.000000,250814.000000,1520462.000000,74671.000000,9469.000000,759586.000000,0.000000,0.000000,0.000000,0.000000,0.000000,0.000000
139,0,6,666323.000000,230373.500000,1277500.333333,68995.333333,8135.166667,638201.500000,3414.912981,503.629742,35445.667491,205.373373,316.118868,17810.364985
139,1,1,713807.000000,249093.000000,1426023.000000,73911.000000,9853.000000,712429.000000,0.000000,0.000000,0.000000,0.000000,0.000000,0.000000
140,0,6,669187.666667,231598.166667,1327582.833333,69454.166667,8565.666667,663118.833333,2728.486984,856.840790,38694.583137,445.070188,415.306982,19305.523212
140,1,1,708691.000000,248234.000000,1267556.000000,73748.000000,8852.000000,633201.000000,0.000000,0.000000,0.000000,0.000000,0.000000,0.000000
141,0,6,672330.166667,232806.333333,1318749.333333,69827.333333,8658.500000,658610.333333,12358.184527,4619.383424,74488.701107,1496.259187,253.231613,37031.333065
141,1,1,709112.000000,247696.000000,1331209.000000,73552.000000,10096.000000,664963.000000,0.000000,0.000000,0.000000,0.000000,0.000000,0.000000
142,0,6,677755.166667,232651.500000,1310077.333333,70586.833333,8791.166667,654478.833333,11916.781464,2742.522729,68534.746440,1816.895376,680.920068,34226.424847
142,1,1,709459.000000,248693.000000,1302284.000000,73910.000000,8510.000000,650523.000000,0.000000,0.000000,0.000000,0.000000,0.000000,0.000000
143,0,6,666006.000000,230283.833333,1291993.000000,68927.000000,8491.000000,645393.833333,2413.435725,389.475038,49685.647005,257.448377,417.010392,24755.496982
143,1,1,714839.000000,250344.000000,1498038.000000,74523.000000,9005.000000,748495.000000,0.000000,0.000000,0.000000,0.000000,0.000000,0.000000
144,0,6,666074.500000,230479.500000,1296820.833333,69007.666667,8302.500000,647759.166667,3332.049157,732.413533,60107.997786,397.189991,456.018549,30142.916135
144,1,1,709427.000000,248967.000000,1339407.000000,73922.000000,9068.000000,669098.000000,0.000000,0.000000,0.000000,0.000000,0.000000,0.000000
145,0,6,671255.500000,231923.500000,1315242.166667,69795.333333,8673.166667,657025.500000,7793.982160,1691.544043,79758.269892,1053.619898,437.391669,39795.698795
145,1,1,714554.000000,250504.000000,1398848.000000,74654.000000,9624.000000,698569.000000,0.000000,0.000000,0.000000,0.000000,0.000000,0.000000
146,0,6,666202.833333,230505.333333,1344550.333333,68969.666667,8684.833333,671690.166667,1856.371498,614.027596,109884.198076,325.078794,557.878546,55020.971921
146,1,1,709830.000000,249611.000000,1409223.000000,73986.000000,9902.000000,703973.000000,0.000000,0.000000,0.000000,0.000000,0.000000,0.000000
147,0,6,670282.333333,231531.833333,1360310.166667,69691.500000,8865.000000,679510.500000,7503.379542,1990.196759,97431.901881,1307.829340,328.368695,48632.112542
147,1,1,707655.000000,249097.000000,1451123.000000,73831.000000,10057.000000,725219.000000,0.000000,0.000000,0.000000,0.000000,0.000000,0.000000
148,0,6,668328.833333,231280.500000,1319866.000000,69331.166667,8525.500000,659346.500000,4060.516938,1082.100696,27775.835769,377.236626,385.618443,13712.384703
148,1,2,707794.000000,248541.000000,1436039.000000,73980.000000,9156.500000,717554.000000,1718.000000,1235.000000,20483.000000,107.000000,580.500000,10248.000000
149,0,6,668525.666667,230999.666667,1308843.000000,69232.500000,8531.000000,653733.166667,4693.759498,1157.694212,49455.586520,496.248510,299.222882,24785.743936
149,1,2,714760.000000,249502.500000,1483252.000000,74456.500000,10135.000000,740757.500000,4451.000000,997.500000,114406.000000,12.500000,129.000000,57163.500000
150,0,6,671356.666667,231551.500000,1319713.333333,69680.166667,8550.000000,659242.166667,8202.305726,1879.376736,57308.365465,1159.342977,504.152093,28602.277138
150,1,2,710764.500000,248596.500000,1397843.500000,74181.000000,8801.000000,698290.000000,3263.500000,1263.500000,47547.500000,341.000000,282.000000,23606.000000
151,0,6,667419.166667,230692.500000,1338299.000000,69081.000000,8791.500000,668600.833333,3267.603934,479.770344,122054.948396,216.594090,1186.727679,61041.156945
151,1,2,711127.500000,248180.500000,1304776.500000,73976.000000,7897.000000,651876.000000,2142.500000,627.500000,7360.500000,76.000000,203.000000,3612.000000
152,0,6,666148.833333,230250.833333,1324905.666667,68860.666667,8475.833333,661983.333333,3264.348910,674.265629,57692.165287,322.249213,564.377952,28899.534637
152,1,2,714616.500000,249524.500000,1380581.500000,74565.000000,8591.000000,689535.000000,3480.500000,590.500000,808.500000,49.000000,518.000000,331.000000
153,0,6,672853.000000,232126.333333,1350160.333333,69880.666667,8818.333333,674481.166667,8652.084219,1767.211143,55212.252374,1295.790964,513.133403,27622.693469
153,1,2,712544.500000,249005.000000,1458478.000000,74350.500000,9455.500000,728574.500000,3849.500000,1242.000000,81658.000000,231.500000,257.500000,40943.500000
154,0,6,676226.000000,232945.333333,1332909.000000,70478.333333,8778.333333,665850.666667,9327.542853,1919.762717,77014.875425,1402.702590,389.931903,38359.142737
154,1,2,708711.000000,247741.500000,1304402.000000,73808.500000,8691.000000,651667.000000,2465.000000,888.500000,25231.000000,5.500000,478.000000,12630.000000
155,0,6,670512.666667,231263.833333,1273876.500000,69525.333333,8288.666667,636401.000000,6190.055834,1992.961399,22613.557186,1294.056499,325.465137,11369.549566
155,1,2,709157.500000,248083.500000,1391872.500000,73910.500000,9345.000000,695363.500000,2473.500000,589.500000,28369.500000,99.500000,56.000000,14246.500000
156,0,6,671620.000000,231534.833333,1336383.666667,69643.333333,8673.166667,667623.333333,8100.840368,1678.340392,70015.728492,1294.628733,692.389442,34952.480840
156,1,2,723301.000000,251868.500000,1403490.000000,76396.000000,9799.500000,701142.000000,13200.000000,2477.500000,18737.000000,1544.000000,517.500000,9258.000000
157,0,6,673874.333333,232893.000000,1325266.000000,69781.000000,8679.000000,661958.166667,10236.809898,3468.736513,61737.344109,917.954247,658.471715,30799.977362
157,1,2,711177.500000,248101.500000,1492483.500000,73953.000000,9248.500000,745673.000000,1824.500000,1404.500000,26146.500000,286.000000,212.500000,12837.000000
158,0,6,669159.166667,231050.833333,1313432.500000,69223.000000,8669.166667,656200.000000,2797.483418,949.431131,90591.158992,411.718755,663.574265,45253.053160
158,1,2,709682.000000,247294.000000,1392365.000000,73633.000000,9293.500000,695830.500000,2568.000000,344.000000,34072.000000,160.000000,23.500000,16994.500000
159,0,6,668609.000000,230866.666667,1336091.500000,69117.333333,8748.666667,667505.333333,1834.561619,527.625709,95732.802023,257.711510,734.583707,47893.396454
159,1,2,712715.000000,248840.000000,1393904.000000,74285.000000,9249.000000,696100.500000,767.000000,1509.000000,21701.000000,365.000000,29.000000,10406.500000
160,0,6,669731.000000,231643.333333,1298120.333333,69499.000000,8509.000000,648339.833333,3103.990067,878.052517,59710.914624,562.118018,322.948396,29946.830647
160,1,2,709729.000000,248091.000000,1418195.500000,73964.000000,8627.000000,708503.000000,3004.000000,641.000000,21926.500000,59.000000,167.000000,11171.000000
161,0,6,676725.166667,232888.000000,1316890.166667,70659.000000,8862.666667,657958.166667,10658.853994,2371.265485,35980.327766,1606.078039,686.009394,18032.606203
161,1,2,709798.500000,247766.000000,1444910.500000,73825.500000,9472.500000,721912.000000,1005.500000,736.000000,22779.500000,3.500000,49.500000,11363.000000
162,0,6,667694.000000,230824.000000,1322190.833333,69100.166667,8465.166667,660644.500000,1864.690770,565.923729,63534.627780,203.770636,456.629104,31648.880558
162,1,2,718793.500000,249588.500000,1410223.000000,75253.500000,9413.000000,704666.000000,14971.500000,3165.500000,88174.000000,2086.500000,704.000000,44140.000000
163,0,6,669794.833333,231094.000000,1327750.833333,69443.666667,8296.166667,663423.833333,4774.535908,1073.531866,39040.864371,1013.266281,443.611473,19525.827284
163,1,2,714042.500000,248969.000000,1371274.500000,74207.000000,9491.500000,685092.000000,1830.500000,2.000000,47458.500000,269.000000,60.500000,23609.000000
164,0,6,668146.500000,231147.333333,1335721.333333,69246.000000,8694.500000,667273.000000,3985.531573,837.866470,58364.278612,455.953214,1061.354912,29130.770873
164,1,2,709767.000000,248114.500000,1365031.000000,73876.500000,8675.000000,682020.000000,1199.000000,324.500000,15674.000000,51.500000,112.000000,7856.000000
165,0,6,670935.666667,231646.833333,1281866.000000,69680.666667,8205.000000,640431.833333,7977.568837,2028.811098,66491.500978,1189.556033,559.199726,33224.365980
165,1,2,709648.000000,248598.500000,1429811.500000,74156.000000,9358.000000,714247.000000,1672.000000,63.500000,23803.500000,85.000000,376.000000,11970.000000
166,0,6,666531.000000,230653.166667,1318110.333333,69040.333333,8528.166667,658589.000000,1228.269786,326.374742,90087.595771,249.175083,798.169033,45025.889882
166,1,2,711440.000000,249388.500000,1419692.000000,74486.000000,9870.500000,708880.000000,2865.000000,589.500000,1518.000000,342.000000,11.500000,1099.000000
167,0,6,667171.000000,230733.333333,1316012.500000,69074.666667,8369.833333,657454.333333,2462.105197,926.948878,96260.647779,145.399068,728.993008,48000.424671
167,1,2,718890.000000,249843.500000,1382708.500000,75277.000000,9469.000000,690896.000000,12863.000000,2040.500000,25220.500000,1649.000000,615.000000,12701.000000
168,0,6,665926.000000,230389.166667,1330203.000000,68906.500000,8385.000000,664618.333333,1160.478206,215.053805,86045.614872,245.504073,725.904034,43009.251697
168,1,2,707082.000000,247728.000000,1393510.000000,73684.000000,9090.000000,696281.000000,3146.000000,118.000000,38618.000000,131.000000,396.000000,19286.000000
169,0,6,671797.333333,231957.166667,1345979.166667,69822.666667,8550.166667,672399.333333,6608.752673,1734.228783,66458.444591,1255.656225,470.985639,33231.892010
169,1,2,719927.000000,250173.000000,1390264.500000,75387.500000,9174.500000,694517.500000,12735.000000,2020.000000,39731.500000,1637.500000,147.500000,20019.500000
170,0,6,670919.000000,231763.333333,1295163.833333,69723.000000,8564.666667,646910.333333,7909.998083,1792.915379,41868.580652,1073.216505,651.050604,21023.109956
170,1,2,710013.500000,248099.500000,1423817.500000,73815.500000,9424.000000,711411.000000,869.500000,0.500000,2257.500000,136.500000,347.000000,1235.000000
171,0,6,667983.166667,231171.333333,1312658.500000,69236.833333,8326.666667,655812.333333,1556.464735,847.546787,44910.354258,317.169469,328.408621,22476.218570
171,1,2,709563.000000,248392.500000,1382761.000000,74015.000000,8864.000000,690748.000000,131.000000,503.500000,21531.000000,159.000000,162.000000,10535.000000
172,0,6,670570.333333,231653.166667,1295689.333333,69614.000000,8296.000000,647366.666667,7034.041031,1595.607660,65803.819896,1101.819556,625.437980,32911.521618
172,1,2,709187.000000,248612.500000,1424984.000000,74088.500000,8754.000000,711809.000000,2917.000000,624.500000,22363.000000,394.500000,221.000000,11253.000000
173,0,6,675688.500000,232517.166667,1297994.333333,70275.333333,8867.500000,648371.333333,12316.902868,2503.433470,52961.361411,1489.163822,764.134968,26518.421325
173,1,2,708977.000000,247674.000000,1376372.000000,73664.500000,8716.000000,687740.500000,2752.000000,524.000000,32381.000000,237.500000,133.000000,16231.500000
174,0,6,667485.833333,230891.833333,1310569.166667,68975.833333,8236.000000,654690.000000,3773.682570,428.993169,48371.111456,343.661372,575.347142,24057.115808
174,1,2,708929.000000,248649.500000,1395553.000000,74028.500000,8456.500000,697221.000000,4778.000000,903.500000,5661.000000,435.500000,139.500000,2858.000000
175,0,6,666694.000000,230714.833333,1273137.333333,68912.333333,8133.000000,636111.500000,4470.676981,750.427970,54241.937855,357.554036,510.984018,27140.129850
175,1,2,707824.500000,248299.000000,1352495.000000,73885.500000,8564.500000,675691.000000,1213.500000,92.000000,72284.000000,82.500000,16.500000,35991.000000
176,0,6,669299.500000,231162.166667,1329386.500000,69354.500000,8342.333333,664171.166667,9176.206746,2005.300262,44544.463591,1345.795273,689.226539,22246.271309
176,1,2,719515.500000,250610.000000,1431981.500000,75534.500000,9041.500000,715454.000000,6702.500000,1865.000000,100491.500000,1382.500000,796.500000,50146.000000
177,0,6,667813.500000,231338.166667,1276267.833333,69216.000000,7997.500000,637540.166667,3470.437136,686.704793,35173.355680,463.930670,535.523031,17465.315050
177,1,2,709545.000000,248272.500000,1395006.500000,73865.000000,9203.000000,696872.000000,4186.000000,457.500000,89690.500000,46.000000,13.000000,44749.000000
178,0,6,675907.333333,233410.333333,1328217.666667,70116.833333,8528.333333,663508.500000,9035.730051,3247.050388,57071.918070,1230.627132,644.845632,28534.909928
178,1,2,722480.000000,251800.000000,1449627.000000,76045.000000,9723.500000,724219.500000,15262.000000,1987.000000,24334.000000,1563.000000,639.500000,12292.500000
179,0,6,674630.666667,232197.666667,1311568.166667,70002.833333,8270.833333,655229.333333,8947.184523,1998.188735,53843.768520,1401.284341,583.904506,26960.279176
179,1,2,710850.500000,248142.500000,1398221.500000,73897.500000,8837.500000,698625.500000,471.500000,109.500000,19719.500000,137.500000,466.500000,9778.500000
180,0,6,667319.000000,230820.666667,1283390.166667,68986.666667,7790.500000,641171.500000,3936.739090,975.081991,54987.108769,378.193807,728.458361,27431.174472
180,1,2,715336.500000,249505.000000,1365416.500000,74463.500000,9049.500000,681841.500000,6098.500000,1249.000000,28046.500000,677.500000,282.500000,13993.500000
181,0,6,671428.833333,232106.333333,1344499.166667,69737.500000,8384.833333,671623.500000,9961.128156,2104.176931,72155.443392,1249.965433,559.005193,36101.583441
181,1,2,710629.500000,248173.000000,1386144.000000,73857.000000,8774.000000,692339.000000,2998.500000,128.000000,81573.000000,106.000000,405.000000,40530.000000
182,0,6,670841.000000,231733.333333,1338116.333333,69577.833333,8207.833333,668489.333333,8066.018225,1760.540037,100882.777930,1330.937316,647.394886,50422.951017
182,1,2,720727.000000,250359.000000,1430410.000000,75510.500000,9219.000000,714263.000000,6313.000000,2201.000000,28056.000000,1471.500000,1067.000000,13504.000000
183,0,6,671605.500000,232567.500000,1303347.333333,69482.666667,8004.000000,651077.333333,10036.151616,3771.808574,64286.025461,1100.952265,763.728573,32256.335913
183,1,2,710023.500000,247757.000000,1448680.000000,73785.000000,9466.000000,723736.000000,3164.500000,220.000000,50373.000000,94.000000,364.000000,25078.000000
184,0,6,674982.500000,232748.333333,1302737.166667,70252.000000,8491.666667,650677.166667,7683.071104,1797.445935,52921.159153,1279.282742,876.170392,26377.081519
184,1,2,710925.500000,248538.000000,1462248.500000,74064.500000,9043.000000,730569.500000,364.500000,224.000000,27320.500000,95.500000,303.000000,13684.500000
185,0,6,669654.666667,231375.166667,1251382.333333,69438.666667,8101.500000,625171.333333,9270.083363,2074.291398,54202.133140,1352.587233,674.788794,27044.521587
185,1,2,709971.500000,248047.000000,1358395.500000,73884.500000,9051.500000,678594.000000,5857.500000,85.000000,10011.500000,228.500000,22.500000,5103.000000
186,0,6,665864.333333,230598.000000,1273431.833333,68901.166667,8028.000000,636039.833333,3235.338708,338.698981,44088.182984,254.784495,411.747900,22132.760074
186,1,2,730791.000000,252251.500000,1446942.500000,77011.500000,9964.000000,722838.500000,745.000000,131.500000,80573.500000,137.500000,358.000000,40383.500000
187,0,6,670473.333333,231610.000000,1284764.500000,69542.833333,8003.166667,641892.333333,8093.648449,1730.892641,78972.669244,1072.101895,529.768319,39537.348047
187,1,2,708994.000000,247976.000000,1328010.000000,73863.000000,8380.000000,663462.000000,963.000000,35.000000,11003.000000,184.000000,140.000000,5600.000000
188,0,6,674151.500000,232983.166667,1293969.500000,69933.666667,8429.833333,646446.833333,12494.946735,3779.346479,84604.947999,1510.686231,734.595448,42251.364627
188,1,2,709403.500000,248101.000000,1350550.500000,73801.000000,9058.500000,674780.500000,1981.500000,97.000000,32010.500000,126.000000,238.500000,16011.500000
189,0,6,669521.500000,231403.833333,1343543.166667,69446.000000,8214.166667,671182.833333,8281.776656,1596.799029,84780.064766,1408.298146,599.911776,42499.270239
189,1,2,709174.500000,248842.000000,1429432.500000,74179.000000,9292.000000,714095.500000,4.500000,585.000000,122950.500000,152.000000,603.000000,61237.500000
190,0,6,670833.833333,231959.500000,1337743.333333,69724.166667,8684.000000,668182.333333,8505.831714,1891.067401,89643.553555,1256.346743,773.447693,44841.968027
190,1,2,710184.000000,249241.500000,1351961.000000,74283.000000,8936.000000,675377.500000,528.000000,110.500000,94270.000000,95.000000,329.000000,46997.500000
191,0,6,670526.666667,231854.166667,1314863.500000,69691.500000,8402.333333,656842.500000,5574.997957,1320.813060,53960.377287,1057.731338,747.060610,27056.365528
191,1,2,722773.000000,251432.000000,1376051.500000,75973.000000,9331.000000,687331.500000,9055.000000,926.000000,48314.500000,1227.000000,742.000000,24023.500000
192,0,6,665315.666667,230590.333333,1350043.833333,68871.666667,8541.666667,674493.166667,2853.531827,558.835595,119765.239336,321.819653,804.040767,59857.656601
192,1,2,709328.500000,248373.000000,1415561.000000,73958.500000,8754.000000,707298.500000,1290.500000,192.000000,36969.000000,84.500000,177.000000,18458.500000
193,0,6,664620.666667,230636.333333,1283655.833333,68918.500000,8249.500000,641216.333333,2688.546861,395.892943,67189.113750,306.136544,812.657318,33619.281733
193,1,2,710762.000000,248730.500000,1339408.500000,74187.500000,8671.500000,669004.000000,3317.000000,739.500000,34750.500000,441.500000,290.500000,17579.000000
194,0,6,666082.833333,230468.666667,1361627.000000,68834.500000,8455.333333,680258.833333,3373.625469,522.881333,96958.832099,377.602414,765.444461,48449.389334
194,1,2,722782.500000,253294.500000,1383766.000000,75597.500000,8636.000000,691230.500000,13466.500000,4753.500000,6333.000000,1418.500000,380.000000,3046.500000
195,0,6,669100.500000,231835.000000,1352964.500000,69439.000000,8534.000000,675791.000000,2757.747737,761.111687,82916.416124,442.270656,565.267783,41443.099952
195,1,2,704716.000000,247512.500000,1332071.500000,73729.500000,8825.500000,665567.500000,1971.000000,470.500000,16028.500000,258.500000,476.500000,8004.500000
196,0,6,675007.000000,232798.333333,1336936.000000,70291.000000,8843.000000,667831.333333,7772.399973,2096.430114,105543.988802,1359.708547,546.260622,52848.838435
196,1,2,719490.500000,250217.500000,1395244.000000,75505.500000,9672.500000,697058.500000,3356.500000,1358.500000,32065.000000,1243.500000,543.500000,16023.500000
197,0,6,668062.833333,230749.166667,1306186.000000,68964.333333,8468.833333,652596.000000,3960.517198,791.155993,47067.075456,386.958941,639.482191,23500.998596
197,1,2,709595.500000,247536.000000,1338102.500000,73724.000000,8294.500000,668541.500000,2618.500000,233.000000,38867.500000,138.000000,88.500000,19423.500000
198,0,6,666410.166667,230455.166667,1258124.000000,68836.500000,8064.166667,628637.833333,2935.222389,545.338554,45717.315243,268.900694,508.289096,22932.644167
198,1,2,720138.500000,250439.500000,1377960.000000,75584.000000,9126.000000,688469.500000,6598.500000,1173.500000,38851.000000,1208.000000,214.000000,19500.500000
199,0,6,666924.666667,230641.500000,1358121.166667,68912.000000,8577.166667,678454.666667,3423.894793,661.141878,126544.585356,472.792414,807.145054,63181.046772
199,1,2,713792.000000,249923.500000,1311547.500000,74770.000000,8702.000000,655012.500000,2652.000000,280.500000,61765.500000,163.000000,146.000000,30769.500000
200,0,6,672142.000000,231943.000000,1349365.833333,69654.000000,8914.333333,674071.500000,9745.534020,1781.517799,66739.680604,1400.923386,494.896173,33295.152584
200,1,2,719761.500000,250137.000000,1292384.500000,75479.000000,8796.000000,645726.500000,5112.500000,1637.000000,21208.500000,1319.000000,69.000000,10543.500000
201,0,6,667927.500000,231316.166667,1327614.500000,69182.666667,8282.333333,663119.333333,4580.324688,1095.917031,64606.252630,287.455311,678.745084,32268.890089
201,1,2,709020.500000,248141.500000,1342971.500000,73872.500000,8717.500000,670963.500000,2544.500000,159.500000,46259.500000,129.500000,94.500000,23125.500000
202,0,6,670734.166667,231589.666667,1351726.166667,69534.333333,8448.333333,675223.000000,5010.313477,1464.379808,96825.474216,939.041473,627.830303,48465.873155
202,1,2,718405.000000,250031.000000,1402870.500000,75442.000000,8567.000000,700986.000000,12759.000000,2406.000000,38337.500000,1747.000000,744.000000,19249.000000
203,0,6,666787.833333,230785.833333,1321066.333333,68963.666667,8218.000000,659823.333333,3580.897533,673.925173,67940.397827,472.161225,445.193965,33723.048022
203,1,2,709168.500000,248321.500000,1376355.500000,73952.000000,8479.500000,687713.500000,1860.500000,29.500000,19121.500000,56.000000,255.500000,9562.500000
204,0,6,670377.666667,231793.500000,1298170.000000,69604.500000,8239.166667,648620.166667,8853.390851,1777.106708,62235.142768,1206.428441,263.352373,30990.390045
204,1,2,708432.500000,248106.000000,1382665.000000,73906.500000,8996.000000,690843.000000,4879.500000,408.000000,61795.000000,186.500000,67.000000,30844.000000
205,0,6,668900.833333,231289.833333,1292664.166667,69205.500000,8270.000000,645657.666667,3733.654752,908.014944,56156.193575,404.601759,660.827764,28067.949074
205,1,2,708385.000000,248107.000000,1389788.500000,73914.500000,8869.000000,694419.000000,1413.000000,56.000000,6177.500000,25.500000,15.000000,3100.000000
206,0,6,676435.500000,233067.666667,1291195.500000,69920.666667,8392.833333,645008.000000,12058.010750,3417.275702,58944.550596,1428.709169,741.069366,29572.398646
206,1,2,708233.000000,247923.000000,1347221.500000,73800.500000,8780.000000,673198.500000,5127.000000,559.000000,9618.500000,219.500000,278.000000,4769.500000
207,0,6,671746.333333,231730.000000,1315177.833333,69607.166667,8194.833333,657053.666667,8711.242308,1568.368473,71422.652166,1293.773991,651.724230,35664.215341
207,1,2,715850.500000,250332.000000,1436090.500000,75458.000000,9237.000000,717465.500000,15501.500000,3185.000000,51554.500000,2014.000000,383.000000,25714.500000
208,0,6,670373.666667,231429.500000,1304710.333333,69477.000000,8294.166667,651833.666667,7194.644181,1778.159418,70084.948906,1013.598704,681.980796,35029.898428
208,1,2,709246.000000,248969.000000,1372259.500000,74280.500000,8709.000000,685354.500000,8123.000000,1410.000000,81945.500000,593.500000,532.000000,41211.500000
209,0,6,667164.666667,230849.666667,1259839.000000,69036.333333,8204.000000,629346.500000,1656.512669,566.757052,55484.128806,338.068862,536.689544,27597.466253
209,1,2,711808.000000,249232.000000,1318689.000000,74435.000000,8586.500000,658658.500000,6946.000000,1864.000000,26646.000000,830.000000,912.500000,13190.500000
210,0,6,666326.833333,230589.500000,1337256.833333,68947.333333,8241.666667,668154.000000,2926.908803,654.804742,76936.557859,327.892089,555.839505,38547.199098
210,1,2,713294.500000,248592.500000,1391560.000000,74073.500000,9353.000000,695275.000000,168.500000,987.500000,35822.000000,364.500000,598.000000,17959.000000
211,0,6,671824.500000,232013.833333,1289604.500000,69788.166667,8338.333333,644256.833333,8458.613731,1910.848801,46425.683861,1222.958900,640.696149,23264.569717
211,1,2,723473.000000,250919.000000,1384825.500000,75768.000000,9486.500000,691909.500000,10555.000000,1743.000000,84406.500000,1364.000000,343.500000,42261.500000
212,0,6,668005.500000,230993.166667,1305406.500000,69103.666667,7972.500000,652086.500000,2287.703124,808.722535,68186.406335,498.160840,308.992853,33991.614509
212,1,2,713770.500000,249281.500000,1276779.500000,74469.000000,8649.000000,637735.000000,2487.500000,1608.500000,17913.500000,750.000000,533.000000,9096.000000
213,0,6,667844.166667,230995.333333,1302574.666667,69105.666667,8001.166667,650704.833333,4350.342646,900.741670,57171.738253,663.688096,617.443227,28605.606527
213,1,2,710391.000000,248188.500000,1306762.000000,73911.000000,9250.500000,652937.000000,1038.000000,514.500000,23063.000000,301.000000,147.500000,11492.000000
214,0,6,673714.333333,232135.166667,1355312.666667,70010.500000,8558.166667,677079.833333,11050.446185,2334.093644,105232.559954,1626.074081,833.048501,52520.263418
214,1,2,720849.500000,250325.000000,1464063.500000,75523.500000,9559.000000,731331.500000,10155.500000,2506.000000,19284.500000,1821.500000,82.000000,9384.500000
215,0,6,666038.333333,230545.333333,1356346.333333,68876.000000,8414.333333,677669.666667,3149.184427,447.209372,68849.768859,388.192822,873.068853,34334.971102
215,1,2,711258.500000,248471.000000,1348369.500000,74086.000000,9228.500000,673682.000000,1882.500000,187.000000,87604.500000,160.000000,235.500000,43831.000000
216,0,6,668148.500000,231423.333333,1276249.833333,69273.666667,7853.500000,637489.500000,3429.107014,742.081008,43182.393918,519.266363,462.430445,21553.133800
216,1,2,713668.000000,248921.000000,1474699.000000,74348.000000,9031.500000,736107.000000,3428.000000,1197.000000,47814.000000,588.000000,268.500000,24050.000000
217,0,6,669560.333333,231201.166667,1307675.833333,69405.000000,8118.333333,653241.666667,7784.375926,1933.584359,56532.861572,1039.711659,795.198857,28274.798111
217,1,2,710333.000000,248097.500000,1409543.500000,73973.000000,9227.500000,704181.500000,2717.000000,1044.500000,41669.500000,459.000000,484.500000,20781.500000
218,0,6,673268.833333,231768.166667,1339800.333333,69891.666667,8209.333333,669412.833333,11602.464845,2647.922986,62737.897480,1769.240672,1021.691191,31347.546748
218,1,2,712166.500000,248861.000000,1383497.500000,74259.500000,9234.000000,690997.500000,307.500000,27.000000,11259.500000,37.500000,420.000000,5471.500000
219,0,6,668895.833333,231019.333333,1344167.500000,69374.500000,7927.000000,671625.166667,6545.276399,1590.972519,62247.491287,912.442281,248.334452,31143.050078
219,1,2,721783.500000,250779.500000,1437056.000000,75712.000000,9256.000000,717950.000000,8853.500000,1888.500000,7887.000000,1378.000000,134.000000,3894.000000
220,0,6,668643.166667,231227.166667,1313898.500000,69423.166667,8072.000000,656471.500000,6790.651967,1842.362109,42752.172104,1362.037128,433.988863,21345.509034
220,1,2,710365.500000,248465.000000,1340072.000000,74038.500000,8973.500000,669611.000000,3456.500000,994.000000,1381.000000,478.500000,590.500000,738.000000
221,0,6,670640.666667,231602.333333,1354649.500000,69604.166667,8435.166667,676800.000000,7117.317207,1762.419612,75473.426926,1273.245907,421.691600,37736.786252
221,1,2,714311.500000,249536.000000,1356469.000000,74490.500000,8644.000000,677555.000000,858.500000,380.000000,37769.000000,57.500000,203.000000,18568.000000
222,0,6,666482.000000,230608.000000,1315754.666667,68979.000000,8256.500000,657274.833333,3431.683455,739.667268,48777.951931,585.991183,495.289057,24490.289922
222,1,2,720545.000000,250266.000000,1336021.000000,75505.500000,9464.500000,667505.500000,9459.000000,1650.000000,5.000000,1258.500000,376.500000,165.500000
223,0,6,665808.000000,230332.833333,1296159.500000,68856.500000,8222.333333,647654.333333,1951.073636,432.113957,40074.461143,328.767268,215.960387,20085.416149
223,1,2,721523.500000,250966.000000,1409591.500000,75756.000000,9044.500000,704340.000000,11292.500000,2680.000000,44787.500000,2012.000000,566.500000,22467.000000
224,0,6,674540.333333,232885.833333,1305823.833333,69973.666667,8493.333333,652321.833333,10261.320848,3375.673583,64880.092908,1289.638795,742.467657,32373.223042
224,1,2,714809.500000,250086.000000,1393275.000000,74774.000000,9015.000000,695662.500000,1208.500000,239.000000,49899.000000,282.000000,126.000000,24807.500000
225,0,6,673753.166667,232303.333333,1317292.833333,70105.833333,8590.166667,658107.833333,10265.539301,2182.736254,51164.117369,1632.284740,735.510575,25632.852575
225,1,2,711356.500000,248289.000000,1328073.000000,73956.000000,9009.500000,663556.500000,418.500000,365.000000,42780.000000,375.000000,221.500000,21359.500000
226,0,6,670850.666667,231508.500000,1326229.666667,69555.500000,8773.166667,662591.833333,8148.344713,1803.695443,44272.088553,1308.683276,550.233107,22052.505923
226,1,2,707098.500000,248027.000000,1309757.000000,73838.500000,8548.000000,654322.000000,411.500000,97.000000,7132.000000,250.500000,297.000000,3516.000000
227,0,6,670158.166667,231760.666667,1291059.666667,69696.666667,8335.500000,644936.000000,8326.757140,1239.189072,53646.494811,1164.019425,830.351281,26790.986811
227,1,2,720541.000000,250485.000000,1377530.000000,75551.500000,9532.000000,688282.000000,9482.000000,2261.000000,100055.000000,1945.500000,1028.000000,50099.000000
228,0,6,672856.333333,232704.166667,1318394.500000,69466.500000,8007.166667,658613.666667,11174.278898,3906.416748,65094.891942,1014.316478,211.854051,32584.293597
228,1,2,719145.000000,250026.500000,1370213.000000,75426.000000,9446.500000,684639.000000,9755.000000,1511.500000,15859.000000,1144.000000,43.500000,7958.000000
229,0,6,675841.833333,234161.500000,1311938.000000,69982.500000,8151.166667,655438.833333,21602.381724,7619.835841,60373.319554,2172.517645,466.005871,30045.659478
229,1,2,710969.500000,248379.500000,1334919.000000,74139.500000,8861.500000,666805.500000,3998.500000,1130.500000,3785.000000,694.500000,357.500000,1736.500000
230,0,6,682724.000000,235762.666667,1306082.833333,71111.000000,8270.333333,652387.333333,25959.018080,8159.345371,72398.201592,2963.023568,540.362121,36137.372454
230,1,2,712538.000000,249118.500000,1394563.000000,74310.500000,8739.500000,696629.000000,1877.000000,1130.500000,50083.000000,738.500000,643.500000,24926.000000
231,0,6,682222.000000,235958.833333,1299731.166667,70790.333333,7941.166667,649278.000000,17692.572896,6152.194715,59919.716044,1713.800909,373.520823,29975.156185
231,1,2,721081.500000,250273.500000,1320467.500000,75450.500000,9676.500000,659757.000000,9196.500000,1854.500000,5956.500000,1316.500000,116.500000,2990.000000
232,0,6,677400.500000,234225.333333,1300554.833333,70269.500000,8074.000000,649768.666667,19112.809516,6818.981978,85932.703874,2085.216835,799.191884,43021.409088
232,1,2,727239.500000,254539.500000,1354318.000000,76101.500000,9062.000000,676390.000000,12639.500000,4821.500000,18308.000000,1630.500000,22.000000,9193.000000
233,0,6,673631.500000,233629.500000,1326203.333333,69732.166667,8214.333333,662634.666667,19240.443487,6835.331125,43826.847117,1884.116098,349.665872,21924.063299
233,1,2,708600.500000,247929.500000,1371705.000000,73901.500000,8775.000000,685303.000000,245.500000,725.500000,62499.000000,384.500000,109.000000,31085.000000
234,0,6,676958.000000,234031.500000,1360601.166667,70157.166667,8619.166667,679829.666667,29783.889543,8719.788238,75354.896685,3151.403889,1027.946078,37635.650261
234,1,2,710766.000000,248155.000000,1394992.000000,73963.500000,9030.000000,697118.500000,2182.000000,858.000000,97358.000000,489.500000,542.000000,48601.500000
235,0,6,676458.666667,234295.333333,1319849.333333,70013.833333,8288.500000,659264.333333,20735.354942,6727.156721,67481.371147,1777.915954,440.529511,33663.842070
235,1,2,710034.000000,248238.500000,1409755.500000,73922.000000,8757.000000,704358.000000,1880.000000,197.500000,11488.500000,316.000000,222.000000,5650.000000
236,0,6,678215.666667,234491.166667,1340894.666667,70350.500000,8488.833333,669864.166667,20941.232212,6604.637447,61248.728672,1991.297546,767.089177,30649.085486
236,1,2,711979.000000,249467.000000,1403471.500000,74430.000000,9410.000000,701069.500000,196.000000,0.000000,15971.500000,107.000000,41.000000,8076.500000
237,0,6,674221.500000,233592.333333,1371411.666667,69724.166667,8398.166667,685231.166667,19365.703152,6390.047331,61632.700224,1727.131284,681.142769,30783.402126
237,1,2,707866.000000,248002.500000,1307208.500000,73834.000000,8807.500000,653202.500000,3906.000000,853.500000,6625.500000,536.000000,463.500000,3351.500000
238,0,6,681287.833333,235563.000000,1342706.333333,70814.333333,8928.000000,670777.666667,27634.151163,8096.095767,74743.667046,2899.515343,1297.500546,37471.815176
238,1,2,709869.500000,246846.500000,1392516.000000,73417.000000,8891.000000,695781.000000,2469.500000,653.500000,50158.000000,56.000000,237.000000,25116.000000
239,0,6,678594.166667,234497.500000,1312999.000000,70347.166667,8553.166667,655808.833333,21323.767643,6616.981279,45935.701787,2086.239233,749.663795,23000.386927
239,1,2,707308.000000,246918.500000,1331023.000000,73498.000000,8703.500000,665111.500000,2643.000000,116.500000,50895.000000,125.000000,1050.500000,25538.500000
240,0,6,674997.000000,233947.000000,1337525.833333,69865.833333,8215.166667,668100.166667,20034.226198,6656.801284,45705.218650,1781.652268,456.929760,22832.760538
240,1,2,712860.500000,249112.500000,1406473.500000,74367.000000,8982.500000,702344.000000,3155.500000,213.500000,21399.500000,87.000000,422.500000,10695.000000
241,0,6,676786.000000,234316.833333,1293155.000000,70234.500000,8157.333333,646012.833333,20405.593163,6785.645693,57859.066020,2143.763727,565.059486,28851.420343
241,1,2,713701.000000,249916.000000,1449324.000000,74667.000000,9761.000000,723797.000000,1714.000000,492.000000,118447.000000,59.000000,44.000000,59273.000000
242,0,6,675705.333333,234204.500000,1329389.333333,69993.000000,8218.500000,664064.666667,19286.352262,6485.707973,51830.204430,1739.056066,761.606143,25997.536067
242,1,2,708320.500000,247524.500000,1380285.000000,73605.000000,8760.000000,689752.500000,2431.500000,114.500000,63833.000000,102.000000,351.000000,31898.500000
243,0,6,679033.833333,234999.000000,1342893.666667,70562.333333,8263.833333,670717.166667,18728.840642,6163.908717,49645.062409,1854.900327,478.399908,24708.453934
243,1,2,717714.500000,249805.500000,1369918.000000,75258.000000,9153.500000,684520.000000,13816.500000,2456.500000,71630.000000,1918.000000,857.500000,35843.000000
244,0,6,680348.833333,235331.166667,1328767.333333,70874.166667,8281.666667,663845.333333,27489.400663,8190.268278,81505.508560,2925.560540,716.273380,40847.818769
244,1,2,724699.000000,252313.000000,1405801.000000,75006.000000,8944.000000,702487.000000,13973.000000,4954.000000,27326.000000,1769.000000,128.000000,13655.000000
245,0,6,677119.333333,234725.166667,1280811.000000,70460.833333,7986.500000,639805.833333,19548.911467,6413.242067,73200.802129,1933.982628,845.989509,36547.575202
245,1,2,711129.000000,248669.000000,1406461.500000,74105.500000,9086.500000,702563.500000,1702.000000,639.000000,13049.500000,31.500000,296.500000,6402.500000
246,0,6,678321.166667,234659.666667,1322181.666667,70389.333333,8100.833333,660570.833333,18068.836786,6251.538442,80392.760903,1939.104318,815.234407,40286.439958
246,1,2,712575.500000,248501.500000,1441351.000000,74067.500000,9636.500000,720049.000000,2097.500000,1071.500000,21868.000000,203.500000,92.500000,10901.000000
247,0,6,674328.666667,233801.333333,1306708.666667,69819.500000,7980.666667,652822.333333,20922.756715,6702.130325,46448.449596,1841.179943,628.768550,23258.828687
247,1,2,708255.500000,247680.000000,1349121.500000,73697.000000,9080.000000,673963.000000,1624.500000,215.000000,51373.500000,340.000000,356.000000,25487.000000
248,0,6,677267.500000,233803.000000,1298931.833333,69904.500000,7759.833333,648985.166667,18676.116207,6722.381770,43851.981131,1805.108376,680.173364,21948.575864
248,1,2,708495.000000,247601.500000,1303300.500000,73718.000000,8711.000000,651111.000000,2129.000000,671.500000,27375.500000,508.000000,28.000000,13780.000000
249,0,6,683010.666667,235173.666667,1313455.333333,70742.000000,8237.000000,656031.333333,15829.342402,5808.818746,51847.446982,1526.863888,1012.747418,25894.932906
249,1,2,709293.500000,248145.000000,1427885.500000,73919.500000,9954.500000,713300.000000,5.500000,26.000000,64355.500000,156.500000,1021.500000,32038.000000
250,0,6,680721.666667,234394.333333,1323969.000000,70402.166667,8379.500000,661397.833333,19219.503537,6426.806145,26126.211729,1808.173242,442.418637,13138.181006
250,1,2,708287.000000,247530.500000,1326024.000000,73699.500000,8175.500000,662653.000000,1234.000000,231.500000,24671.000000,109.500000,440.500000,12283.000000
251,0,6,681258.333333,234722.500000,1323187.500000,70516.666667,8029.166667,661106.166667,21334.313446,7476.684331,68160.762754,2291.716509,774.911482,34023.544066
251,1,2,734133.000000,256991.500000,1409953.000000,76271.000000,8784.500000,704283.000000,25931.000000,9851.500000,71505.000000,2629.000000,991.500000,35553.000000
252,0,6,680028.333333,234438.666667,1273089.333333,70394.666667,7993.666667,635971.833333,25695.539786,8225.706123,78976.117556,2935.267431,802.037336,39524.657508
252,1,2,734809.500000,257336.500000,1409001.000000,76413.000000,8842.000000,703936.500000,24080.500000,8325.500000,107974.000000,2017.000000,591.000000,54037.500000
253,0,6,681046.666667,234551.833333,1344000.833333,70461.666667,8515.166667,671328.833333,17779.678631,6409.075893,78394.629728,1866.361672,531.085497,39058.426540
253,1,2,737390.500000,257094.000000,1425753.000000,76219.500000,9383.000000,712462.500000,26883.500000,8735.000000,7029.000000,2188.500000,1045.000000,3531.500000
254,0,6,682366.500000,234964.000000,1312592.500000,70603.166667,8373.166667,655740.666667,16666.299387,6248.060286,52945.818320,1753.591687,770.750590,26565.006190
254,1,2,735721.000000,256874.500000,1368045.500000,76101.500000,8859.500000,683560.000000,27631.000000,9185.500000,31008.500000,2357.500000,1133.500000,15402.000000
255,0,6,677666.666667,233992.833333,1345177.666667,69995.666667,8491.666667,672029.666667,18090.255191,6833.278896,67883.022717,1837.214437,795.571632,33862.103334
255,1,2,744297.000000,258975.500000,1404167.500000,77744.500000,9464.000000,701632.500000,17111.000000,6904.500000,18496.500000,678.500000,676.000000,9222.500000
