0,3,761808,266978,1479019,78906,9885,738678,0
0,3,761154,266279,1472843,78695,9431,735964,0
0,3,759889,266349,1625868,78606,10160,812479,0
0,3,759722,266188,1591556,78598,8898,795235,0
0,3,763422,266721,1520657,78765,9811,759669,0
0,3,763215,266758,1520136,78857,10257,759325,0
0,3,763067,266840,1523001,78850,9911,761040,0
0,3,759481,265618,1495130,78451,8972,747086,0
0,3,743869,260085,1504482,76746,9655,751845,0
0,3,707040,249142,1504670,74121,9437,751897,0
0,3,709683,248511,1393839,73881,9241,696378,0
0,3,710259,249027,1350715,73960,8400,674973,0
0,3,711141,248918,1382220,74043,8580,690644,0
0,3,707390,248204,1445437,73793,9360,722336,0
0,3,707987,248645,1754389,73796,12084,876560,0
0,3,710003,248486,1429475,73775,10807,714440,0
0,3,704641,247456,1438185,73327,9128,718784,0
0,3,706990,247913,1399615,73541,8546,699224,0
0,3,707572,247994,1360076,73599,8959,679674,0
0,3,714006,250824,1493559,74830,9607,746187,0
0,3,710335,248327,1380197,73730,8620,689812,0
0,3,708482,247819,1356644,73547,9048,678012,0
0,3,710600,247960,1457393,73603,8867,728191,0
0,3,705824,248814,1425013,73955,9091,712073,0
0,3,724540,252349,1465150,76982,9961,732151,0
0,3,727878,252293,1334706,76867,9383,666978,0
0,3,704324,247883,1461994,73684,9303,730385,0
0,3,708861,248632,1422231,73748,8668,710805,0
0,3,727829,252350,1451717,76794,10318,725460,0
0,3,703143,247799,1432903,73513,8861,716049,0
0,3,706921,247779,1426167,73592,9617,712737,0
0,3,706104,247631,1333750,73565,8595,666291,0
0,3,708194,248062,1400821,73819,9362,699923,0
0,3,707930,248436,1452931,73915,9367,726087,0
0,3,707942,248013,1337829,73687,8860,668397,0
0,3,704519,248344,1457048,73849,9405,727876,0
0,3,705523,247758,1400535,73657,8930,699829,0
0,3,729769,252795,1450921,77170,9963,724985,0
0,3,727530,252434,1416194,77081,9748,707710,0
0,3,709736,248258,1352003,73836,9707,675736,0
0,3,712177,248599,1474675,74013,9338,736566,0
0,3,713021,250563,1373544,74852,9711,686125,0
0,3,710925,248861,1684627,73936,9836,841708,0
0,3,717676,251523,1766512,75177,11647,881270,0
0,3,713203,248711,1350696,73908,8948,674644,0
0,3,713557,251559,1575391,74993,10039,787139,0
0,3,710372,249067,1371892,73933,9183,685553,0
0,3,709400,248836,1401734,73893,8975,700522,0
0,3,729808,253078,1420110,77156,10072,709567,0
0,3,711862,248451,1431570,73776,9306,715433,0
0,3,714075,249929,1446383,74496,9447,722554,0
0,3,708642,248501,1466620,73834,8619,732986,0
0,3,707705,248384,1507333,73802,9546,753386,0
0,3,712405,249457,1399205,74198,9049,699228,0
0,3,711352,248611,1313635,73984,9137,656278,0
0,3,711650,248838,1485202,74028,9144,742195,0
0,3,711156,248188,1475281,73809,9255,737283,0
0,3,715323,248431,1487412,73982,9316,743444,0
0,3,708221,248103,1457297,73846,9346,728337,0
0,3,708056,248237,1360240,73956,8624,679546,0
0,3,710191,247863,1376180,73762,8929,687690,0
0,3,710433,248199,1494879,73940,9682,746867,0
0,3,712669,248607,1354793,73986,9036,677045,0
0,3,715653,248921,1403702,74113,9269,701525,0
0,3,713918,250053,1493969,74785,9884,746363,0
0,3,711028,248308,1355805,73891,9470,677555,0
0,3,714466,248874,1443311,74069,9138,721339,0
0,3,714291,248950,1447069,74142,9454,723124,0
0,3,712655,248450,1419481,73949,9317,709424,0
0,3,714092,248108,1533463,73868,9330,766004,0
0,3,713929,247819,1443107,73739,8771,721160,0
0,3,704402,248628,1393596,74070,8714,696576,0
0,3,705055,249070,1342581,74212,9850,670817,0
0,3,705495,248747,1346725,74001,9176,672825,0
0,3,707613,249506,1442983,74342,10348,721096,0
0,3,710032,249941,1562609,74768,10831,780330,0
0,3,706235,248759,1459172,74148,9425,729355,0
0,3,709673,248647,1505616,73997,10296,752586,0
0,3,705595,248825,1463616,74116,9867,731255,0
0,3,703651,247311,1382849,73670,8929,691202,0
0,3,709287,249852,1449086,74633,9822,724024,0
0,3,704632,248350,1532847,73975,9500,765605,0
0,3,708324,248756,1376657,74053,9063,687864,0
0,3,709145,248643,1404017,74043,9989,701404,0
0,3,703358,248646,1428224,73998,9791,713699,0
0,3,704682,248460,1446614,73950,9421,722912,0
0,3,706887,248516,1537386,73948,9566,768464,0
0,3,708542,249095,1462920,74130,9151,731355,0
0,3,707068,248927,1398099,74066,9301,698470,0
0,3,708474,249251,1389731,74144,9820,694428,0
0,3,729682,253257,1424811,77297,10209,711968,0
0,3,710467,248848,1416155,74075,9367,707631,0
0,3,711217,250542,1501826,74835,10051,750241,0
0,3,709542,249702,1584454,74505,10040,791684,0
0,3,708712,248964,1492546,74017,9577,745703,0
0,3,710398,249960,1342987,74588,9715,670856,0
0,3,714956,250163,1482974,74610,10289,741117,0
0,3,737267,255012,1507543,78317,10490,753322,0
0,3,713564,249831,1427481,74387,10141,713221,0
0,3,706155,248819,1408483,73964,9399,703792,0
0,3,710088,250176,1555322,74653,10133,777018,0
0,3,709342,249128,1378859,74111,9641,689016,0
0,3,706315,248451,1488356,73849,8898,743828,0
0,3,708362,248939,1415962,74069,9445,707452,0
0,3,710100,249435,1458877,74181,9653,729090,0
0,3,710065,248670,1487936,73935,10135,743506,0
0,3,711249,250273,1455777,74666,9539,727360,0
0,3,708233,248461,1336749,73864,8998,668025,0
0,3,708209,248893,1299181,74048,9682,649082,0
0,3,712817,249801,1515488,74349,9938,757351,0
0,3,707871,248386,1374021,73894,9504,686270,0
0,3,713331,250540,1508306,74854,8969,753298,0
0,3,709691,248577,1347117,73951,8215,673272,0
0,3,705809,248543,1354297,73898,9761,676796,0
0,3,709135,249537,1378359,74273,8833,688764,0
0,3,711833,248831,1310085,74009,8711,654647,0
0,3,711265,249653,1511903,74452,9415,755707,0
0,3,710492,249177,1437479,74098,8223,718355,0
0,3,708365,248381,1334027,73836,8585,666729,0
0,3,708481,248091,1495127,73813,9841,747150,0
0,3,712501,249061,1333686,74104,8993,666341,0
0,3,729956,253369,1375565,77335,9095,687430,0
0,3,733072,253289,1466199,77278,11326,732422,0
0,3,712419,248695,1426672,73945,10069,712705,0
0,3,727682,253357,1427831,77301,10104,713725,0
0,3,710955,250011,1611036,74610,10790,804440,0
0,3,711641,251153,1449599,75142,9053,723853,0
0,3,728648,253327,1419685,77298,9779,709521,0
0,3,711293,249838,1341849,74380,9706,670432,0
0,3,709816,249431,1462629,74269,9403,730756,0
0,3,712009,249680,1460760,74275,9422,729953,0
0,3,712058,249238,1528235,74125,9434,763739,0
0,3,708819,249234,1523230,74316,9336,761141,0
0,3,715054,251399,1521925,75244,9424,760297,0
0,3,711240,249693,1434262,74512,9729,716592,0
0,3,708621,248907,1376918,74017,8619,688119,0
0,3,710373,248707,1431415,73917,9417,715421,0
0,3,714130,250695,1473629,74929,9741,736241,0
0,3,707565,248531,1419718,73926,9588,709277,0
0,3,707074,248936,1420495,73993,9838,709892,0
0,3,727491,252939,1520367,77153,10487,759759,0
0,3,707057,248065,1478426,73633,9262,738839,0
0,3,711952,248606,1341059,73886,9075,670109,0
0,3,710882,249599,1534793,74232,9163,767025,0
0,3,711196,249909,1459870,74574,8889,729396,0
0,3,711751,248951,1476358,73993,9649,737791,0
0,3,708902,249532,1397424,74215,9213,698387,0
0,3,710546,248844,1545849,73882,8907,772645,0
0,3,730661,252696,1420808,77009,9438,710108,0
0,3,715051,250437,1509410,74728,9110,754045,0
0,3,712017,248352,1381787,73820,9399,690376,0
0,3,714909,250648,1447060,74920,9214,722836,0
0,3,716993,249964,1435169,74465,9913,716906,0
0,3,714834,249901,1382097,74196,9267,690725,0
0,3,714229,249256,1511233,73962,9602,754973,0
0,3,708423,249262,1350252,74075,8263,674478,0
0,3,709839,250012,1408548,74250,8689,703852,0
0,3,712547,249579,1301670,74060,8716,650504,0
0,3,711697,250602,1428807,74617,9194,713857,0
0,3,715518,250574,1406343,74665,9815,702372,0
0,3,710080,248724,1324545,73841,8955,661911,0
0,3,737345,254229,1586213,77497,10268,792716,0
0,3,707774,248354,1366468,73666,8722,682987,0
0,3,713469,249275,1419152,73979,10053,709215,0
0,3,707514,248156,1327590,73615,8138,663501,0
0,3,711790,248569,1419749,73792,9038,709478,0
0,3,711538,248760,1481777,73882,10275,740397,0
0,3,712372,248798,1580916,73934,9851,789783,0
0,3,708998,248865,1529296,74066,9956,764239,0
0,3,715243,249548,1531601,74183,10382,765380,0
0,3,713470,249576,1575061,74208,10544,787262,0
0,3,714676,249812,1459822,74329,10070,729519,0
0,3,713116,249957,1530634,74402,9536,764793,0
0,3,713812,249965,1404217,74379,9395,701675,0
0,3,714446,249884,1466746,74450,9268,732844,0
0,3,713624,249932,1548217,74325,8999,773602,0
0,3,713373,249558,1363606,74042,9072,681373,0
0,3,715954,250341,1591378,74266,9690,795152,0
0,3,715194,250752,1478664,74469,10268,738914,0
0,3,719567,251307,1407678,74873,10326,703162,0
0,3,715794,249826,1388716,74185,10145,693485,0
0,3,715344,249239,1399243,73957,9478,699265,0
0,3,715606,252650,1487855,75432,10513,743195,0
0,3,716270,251370,1467984,74850,10467,733282,0
0,3,712670,250216,1369944,74303,9631,684663,0
0,3,740231,259786,1353857,77169,9585,676284,0
0,3,716209,251141,1555043,74813,9764,776721,0
0,3,711585,248948,1367463,73866,8983,683289,0
0,3,710144,249767,1440038,74254,9478,719523,0
0,3,712515,249897,1516130,74277,9462,757563,0
0,3,733954,254789,1424928,77669,9956,711988,0
0,3,733530,253127,1391956,77131,10258,695470,0
0,3,714239,250237,1379917,74338,9723,689484,0
0,3,717864,251488,1501456,75042,10167,750049,0
0,3,712617,248809,1355229,73816,9177,677088,0
0,3,713322,250789,1489992,74871,10068,744224,0
0,3,709553,248420,1322478,73771,9004,660884,0
0,3,712358,249899,1490410,74436,9814,744531,0
0,3,710383,249392,1413343,74064,9262,706349,0
0,3,731406,253485,1420671,77250,9811,709980,0
0,3,712003,249422,1314874,74105,8677,657010,0
0,3,709070,248289,1417183,73636,9219,708358,0
0,3,706735,248163,1312442,73672,8707,655913,0
0,3,710037,248603,1267136,73827,8310,633285,0
0,3,710336,248591,1331885,73863,8960,665573,0
0,3,708105,247595,1402355,73514,8990,700817,0
0,3,710198,248019,1439143,73764,9336,719163,0
0,3,717262,250429,1447445,74800,9785,723169,0
0,3,727531,253221,1472293,77250,9444,735877,0
0,3,730760,253383,1335134,77173,10021,667236,0
0,3,707621,248446,1498633,73679,9505,749047,0
0,3,714440,250332,1453127,74664,10076,725776,0
0,3,707011,248125,1443221,73640,9209,721250,0
0,3,736254,257582,1360828,76457,9881,680074,0
0,3,708602,247970,1283350,73723,9012,641304,0
0,3,706768,248194,1562839,73730,9611,781131,0
0,3,708592,248130,1576248,73757,10027,787740,0
0,3,709219,248537,1353388,73874,9219,676337,0
0,3,709415,248182,1375324,73735,8931,687387,0
0,3,709848,248211,1333195,73809,9455,666416,0
0,3,710065,248252,1487176,73780,9714,743246,0
0,3,710672,248998,1342973,74011,9670,671044,0
0,3,715707,249890,1480654,74482,9376,739854,0
0,3,707909,248990,1584153,73957,9222,791727,0
0,3,732567,253912,1392660,77360,9032,695984,0
0,3,713630,249200,1453299,73950,9446,726368,0
0,3,733809,254013,1409517,77366,9776,704395,0
0,3,716366,250105,1396472,74478,10048,697802,0
0,3,712897,248941,1477307,73735,8891,738379,0
0,3,715194,249200,1401942,73862,9282,700713,0
0,3,712457,249106,1465989,73848,9788,732707,0
0,3,713145,248819,1468098,73691,9201,733741,0
0,3,714048,248581,1321815,73580,9367,660509,0
0,3,716562,249673,1427251,73993,9417,713579,0
0,3,716639,249802,1388903,74093,9382,694112,0
0,3,716209,248590,1464682,73637,8742,732071,0
0,3,708257,248840,1363709,73746,9052,681544,0
0,3,714360,249937,1407675,74275,10051,703346,0
0,3,708780,248556,1442274,73665,9529,720724,0
0,3,707848,248134,1340554,73590,8400,669533,0
0,3,707969,248124,1537958,73594,9972,768695,0
0,3,731029,252904,1582032,76995,10329,790607,0
0,3,706804,248517,1332303,73763,9094,665798,0
0,3,705799,247773,1396187,73480,8840,697567,0
0,3,714522,250240,1448636,74527,8852,723823,0
0,3,707743,248123,1445559,73578,8943,722483,0
0,3,719296,251683,1398847,75066,9394,698911,0
0,3,733040,253441,1408464,77168,10561,703846,0
0,3,714115,248858,1364893,73907,8976,682012,0
0,3,710427,248778,1471051,73849,9563,735168,0
0,3,707866,247965,1451113,73528,9905,725162,0
0,3,709205,248431,1464587,73733,9333,731873,0
0,3,710404,249245,1267589,74024,8370,633379,0
0,3,712917,248632,1479823,73818,9666,739482,0
0,3,711306,248547,1397391,73804,9185,698220,0
0,3,708474,247862,1682146,73512,10880,840691,0
0,3,715362,250193,1360596,74418,9686,679751,0
0,3,716848,250683,1469672,74651,10235,734244,0
0,3,712744,248221,1485319,73595,10215,743020,0
0,3,727646,253013,1378442,77031,10187,688859,0
0,3,710460,249401,1360033,74039,9396,679150,0
0,3,708455,248481,1291343,73785,9128,645667,0
0,3,711341,248402,1494374,73721,9728,747080,0
0,3,713155,250420,1337687,74670,8504,668133,0
0,3,709016,248263,1422223,73683,8884,710782,0
0,3,712337,248813,1446443,73866,9360,722889,0
0,3,709398,248176,1403870,73609,9524,701637,0
0,3,711563,248623,1488396,73802,9911,743903,0
0,3,711401,247967,1575774,73545,10308,787485,0
0,3,732446,252932,1463976,77001,9932,731689,0
0,3,717452,250214,1524819,74496,9852,761774,0
0,3,712301,247634,1514389,73360,11293,756814,0
0,3,710872,249057,1629063,73945,9948,813922,0
0,3,718137,251628,1510786,75052,10687,754518,0
0,3,732870,252916,1405479,76942,9800,702173,0
0,3,716806,249305,1374932,74209,9235,686829,0
0,3,732419,253311,1420009,77128,9572,709572,0
0,3,715467,249670,1389300,74296,9022,694226,0
0,3,712681,248940,1457449,73921,8781,728360,0
0,3,713339,249079,1425782,73862,8781,712373,0
0,3,734800,253086,1461368,76981,9526,730319,0
0,3,733141,252907,1424282,76912,9618,711703,0
0,3,713630,248173,1455599,73595,9358,727383,0
0,3,712925,248131,1420698,73521,8462,709931,0
0,3,699013,248071,1358664,73088,8080,678929,0
0,3,702302,248029,1521093,73091,9367,760142,0
0,3,708964,250360,1389020,74061,9165,694043,0
0,3,710308,250728,1312542,74258,9650,655601,0
0,3,704566,248698,1423049,73354,9298,711117,0
0,3,703111,247957,1514368,73052,9231,756309,0
0,3,703711,247976,1474329,73007,9338,736600,0
0,3,712383,250608,1362513,74126,8723,680540,0
0,3,704829,248340,1328129,73271,9441,663302,0
0,3,727567,253114,1483241,76517,9892,741099,0
0,3,706573,248757,1471378,73329,8975,735176,0
0,3,712733,250565,1382693,74303,8953,690538,0
0,3,709526,249279,1470040,73531,9202,734583,0
0,3,708256,248008,1432886,73106,9336,716146,0
0,3,710553,250819,1468327,74299,9551,733638,0
0,3,702017,248058,1445000,73266,9718,722152,0
0,3,728768,252808,1500693,76595,10287,749980,0
0,3,704801,248439,1519238,73383,9994,759109,0
0,3,706719,248097,1439231,73267,9269,719198,0
0,3,703531,247281,1312604,72939,9201,655974,0
0,3,707300,248034,1447442,73225,9048,723446,0
0,3,725650,252695,1596474,76559,10673,797799,0
0,3,712384,249761,1483285,74644,10473,741143,0
0,3,712832,249403,1353540,74768,9428,676212,0
0,3,706186,247614,1461209,73892,9705,730271,0
0,3,714950,250322,1294682,75167,10222,646572,0
0,3,712000,248453,1324218,74204,9459,661692,0
0,3,703743,248192,1405041,74136,9834,702120,0
0,3,707893,248456,1484065,74215,9815,741726,0
0,3,729139,252787,1412137,77404,10936,705749,0
0,3,729648,252931,1471917,77500,10232,735677,0
0,3,714724,249972,1401801,74888,9364,700276,0
0,3,731191,252968,1499512,77552,10189,749366,0
0,3,706743,247872,1335280,74033,9833,667357,0
0,3,710015,249373,1257878,74657,8991,628549,0
0,3,732369,253353,1524927,77667,10635,762126,0
0,3,712060,248506,1441719,74263,10062,720135,0
0,3,713320,248670,1466404,74299,9895,732797,0
0,3,704214,247355,1546908,73867,9360,773080,0
0,3,710555,248544,1478130,74156,10546,738476,0
0,3,710508,248266,1325996,74152,9999,662637,0
0,3,711097,248240,1478451,74144,10943,738855,0
0,3,716405,251068,1357265,75429,8713,678070,0
0,3,730815,252961,1581962,77517,10055,790666,0
0,3,706166,247458,1396478,73808,8508,697819,0
0,3,712216,249360,1396022,74687,9322,697478,0
0,3,713649,249237,1342160,74479,9253,670714,0
0,3,715789,250739,1362382,75328,9141,680829,0
0,3,712512,248565,1519891,74229,8992,759659,0
0,3,712902,248832,1446816,74341,9625,723068,0
0,3,713520,249144,1472230,74464,9668,735795,0
0,3,708744,249526,1307874,74716,9802,653424,0
0,3,708101,249289,1419074,74702,9874,708945,0
0,3,707890,248545,1410601,74279,9636,704725,0
0,3,713779,250960,1397866,75384,8719,698239,0
0,3,707836,247995,1318119,74053,8833,658624,0
0,3,711519,249207,1328351,74686,9348,663202,0
0,3,707651,247852,1532321,73993,9795,765825,0
0,3,710444,248593,1495710,74283,10849,747223,0
0,3,712559,250265,1362097,75178,9542,680053,0
0,3,709804,248060,1268029,74121,8062,633616,0
0,3,711320,248431,1351418,74262,8925,675269,0
0,3,708193,248989,1501761,74367,10162,750485,0
0,3,706364,248015,1442357,74106,9398,720712,0
0,3,710097,248528,1323378,74279,8688,661314,0
0,3,733360,253050,1541148,77485,10091,770162,0
0,3,713643,249791,1327602,74869,8896,663257,0
0,3,710283,248059,1391581,74026,9328,695171,0
0,3,708726,249086,1516803,74425,10340,758675,0
0,3,710646,248407,1510366,74242,9903,754024,0
0,3,709231,247588,1399285,73940,8127,699262,0
0,3,713701,249005,1333006,74344,8408,666157,0
0,3,714365,248956,1352733,74372,9578,676033,0
0,3,717904,250006,1402081,75036,9796,699959,0
0,3,727408,252495,1503371,77389,11208,751174,0
0,3,709955,248419,1363647,74146,9716,681153,0
0,3,710681,249035,1615312,74303,9768,806806,0
0,3,711419,248433,1411373,74121,9621,705005,0
0,3,712269,248983,1347879,74249,9843,673533,0
0,3,710943,248255,1486039,74107,9425,742672,0
0,3,712132,249065,1502966,74393,9908,751132,0
0,3,729298,252864,1600187,77361,11634,799771,0
0,3,710502,248715,1312893,74150,8373,656099,0
0,3,709571,248441,1442239,74106,9966,720765,0
0,3,711591,248752,1326698,74255,8821,662991,0
0,3,710663,248528,1500796,74083,9954,750138,0
0,3,717018,250515,1565091,75145,10254,781085,0
0,3,712288,247410,1312989,73882,9531,656209,0
0,3,711372,249028,1439112,74371,8817,719292,0
0,3,709059,248186,1447042,73957,8922,723110,0
0,3,713577,248459,1464303,74163,10028,731766,0
0,3,711310,248207,1444101,74006,9576,721737,0
0,3,710318,248547,1307363,74234,9819,653006,0
0,3,714765,249110,1314663,74331,9877,656887,0
0,3,711361,248505,1417685,74229,8991,708483,0
0,3,712137,248107,1377244,74096,8937,688159,0
0,3,712043,248708,1359265,74354,8932,679206,0
0,3,712024,247978,1617182,74086,10966,808169,0
0,3,714197,248145,1348077,74035,10452,673275,0
0,3,713287,246701,1432164,73550,9084,715534,0
0,3,728491,253159,1599819,77659,11272,799253,0
0,3,708303,248065,1452326,74200,9820,725729,0
0,3,708988,249445,1315720,74613,8697,657522,0
0,3,716570,251307,1343167,75460,10458,670743,0
0,3,734929,253452,1522273,77667,10092,760865,0
0,3,711791,249578,1493286,74560,9059,746244,0
0,3,711698,249013,1473914,74475,9930,736519,0
0,3,710224,248824,1460252,74359,9181,729753,0
0,3,718669,250768,1343507,75151,9466,671280,0
0,3,714396,249472,1300610,74745,9022,649750,0
0,3,714975,249298,1468720,74627,9453,733940,0
0,3,713713,248668,1436167,74377,10113,717433,0
0,3,710368,249600,1498057,74866,9443,748436,0
0,3,711077,249220,1424928,74585,9505,712137,0
0,3,714536,250049,1443991,74773,8846,721471,0
0,3,710068,248867,1390432,74305,10254,694822,0
0,3,713353,249607,1310316,74646,9246,654793,0
0,3,711089,248870,1382488,74423,9415,690810,0
0,3,716447,249768,1379118,74715,9344,689051,0
0,3,716550,249532,1441053,74554,9274,719785,0
0,3,713183,250161,1422144,74863,9276,710629,0
0,3,715607,249938,1335587,74667,8996,667374,0
0,3,717405,250853,1287350,75226,9207,642909,0
0,3,719040,251039,1467366,75331,9797,733035,0
0,3,716055,249694,1365400,74677,9167,682363,0
0,3,715035,248882,1341112,74309,9639,670139,0
0,3,709723,249379,1424020,74515,8835,711605,0
0,3,717276,250836,1423048,75227,8764,710917,0
0,3,713604,249333,1323023,74427,8912,661005,0
0,3,717892,250972,1425464,75253,9049,712017,0
0,3,713668,250071,1464497,74657,9189,731872,0
0,3,710576,249140,1499098,74236,9537,749123,0
0,3,717399,250863,1396315,74981,8247,697536,0
0,3,714275,248853,1399556,74256,8872,699281,0
0,3,714760,249799,1387121,74476,9022,693225,0
0,3,714638,249490,1501230,74409,9903,750199,0
0,3,716702,250178,1321175,74567,8554,660104,0
0,3,710626,249230,1442466,74381,9271,720626,0
0,3,713435,249580,1347264,74523,9436,673170,0
0,3,718073,251204,1320471,75297,9166,659443,0
0,3,735037,254160,1450493,77793,9788,724837,0
0,3,714245,249909,1350488,74646,9129,674826,0
0,3,718901,250869,1371674,75184,9387,685391,0
0,3,713465,249084,1344509,74341,9385,671762,0
0,3,737651,257667,1416220,76876,9236,707774,0
0,3,718107,250723,1357245,75200,9988,677776,0
0,3,710068,248632,1404833,74257,9028,702031,0
0,3,715667,249322,1409980,74395,9010,704605,0
0,3,713834,248825,1526980,74321,10676,763002,0
0,3,717405,249354,1274735,74479,9348,636889,0
0,3,707645,247595,1515077,73891,10161,757141,0
0,3,712607,248986,1341389,74315,9087,670126,0
0,3,709322,248624,1449325,74214,9606,724295,0
0,3,713999,250803,1314310,75243,9896,656362,0
0,3,735237,253705,1540628,77667,11127,769918,0
0,3,708035,248917,1433177,74308,9629,716155,0
0,3,712123,249432,1489516,74414,9792,744449,0
0,3,739359,258649,1548947,76988,9789,774044,0
0,3,715253,249667,1390482,74521,8637,694812,0
0,3,715671,249564,1254118,74562,8122,626665,0
0,3,740328,255191,1599415,78164,10878,799398,0
0,3,716659,249478,1404911,74413,9404,702144,0
0,3,710775,249130,1461417,74319,9044,730528,0
0,3,715898,249709,1425362,74678,9023,711958,0
0,3,714019,249004,1368295,74377,9263,683745,0
0,3,713834,249395,1366490,74565,9831,682794,0
0,3,716494,249909,1357485,74856,8801,677968,0
0,3,719684,250761,1566790,75328,11044,782073,0
0,3,713484,249373,1336943,74472,9405,668077,0
0,3,716210,250036,1291897,74881,8885,645217,0
0,3,714421,248591,1278665,74153,9095,638799,0
0,3,716455,249159,1602882,74297,9494,800260,0
0,3,721106,251065,1357996,75244,10040,678434,0
0,3,715529,248907,1471853,74235,9410,735637,0
0,3,713884,249346,1346514,74407,8580,672835,0
0,3,712057,248665,1331338,74082,9114,665320,0
0,3,715546,249895,1436577,74775,9832,717803,0
0,3,712206,248986,1363446,74256,9099,681371,0
0,3,712758,248426,1470871,74062,9123,735106,0
0,3,716279,249383,1321558,74345,8221,660493,0
0,3,716795,250861,1427092,75215,9450,712732,0
0,3,734677,253103,1497767,77356,10214,748561,0
0,3,713884,248570,1358489,74089,9321,679031,0
0,3,715695,248755,1421013,74162,9325,710203,0
0,3,713010,248293,1365826,74130,8952,682360,0
0,3,717661,249563,1546981,74468,9345,773054,0
0,3,717688,249386,1354258,74703,10213,676634,0
0,3,730138,253214,1668172,77467,10691,833645,0
0,3,708794,247638,1308916,73910,8601,654113,0
0,3,710732,248394,1408234,74146,8920,703753,0
0,3,710703,248336,1330448,74291,8767,664861,0
0,3,712914,247957,1542108,74126,9600,770751,0
0,3,710948,247858,1395148,74108,9793,696793,0
0,3,713728,247873,1323676,74195,9125,661445,0
0,3,708317,247509,1418347,74020,9379,708732,0
0,3,717624,250197,1439918,75199,9149,719350,0
0,3,711833,248154,1369776,74301,9418,684489,0
0,3,710256,247804,1280126,74202,9267,639679,0
0,3,712721,247551,1493936,74035,9970,746609,0
0,3,714226,248100,1367099,74227,9036,682850,0
0,3,714031,247788,1339330,74182,8771,669193,0
0,3,706930,248930,1535491,74741,9008,766794,0
0,3,704475,247610,1390633,74066,8943,695022,0
0,3,706616,248041,1397502,74209,9782,698299,0
0,3,708970,248512,1574800,74384,10278,785745,0
0,3,707191,247662,1503007,74062,10037,751095,0
0,3,713405,249446,1550961,74894,9940,774862,0
0,3,709240,247540,1631620,74044,9856,814928,0
0,3,708883,248292,1478532,74268,10013,738821,0
0,3,707299,247637,1335470,74073,8456,667393,0
0,3,710988,247955,1452414,74174,8825,725809,0
0,3,709528,248737,1396765,74486,9123,698037,0
0,3,713575,249572,1408816,74874,10149,703714,0
0,3,707490,247535,1360128,74031,9042,679800,0
0,3,705867,247899,1481449,74145,9755,740316,0
0,3,710882,249083,1522995,74494,9548,761025,0
0,3,707641,248262,1463540,74196,9683,731392,0
1,3,766612,268727,1548943,79676,11907,773538,0
1,3,760323,266689,1458385,78774,9214,728691,0
1,3,762071,266847,1526795,78865,10057,762936,0
1,3,761269,266453,1636549,78655,9814,817913,0
1,3,765828,268913,1566897,79812,10520,782766,0
1,3,766396,268295,1608885,79462,10010,804174,0
1,3,762667,266436,1594805,78677,10259,796999,0
1,3,755678,264102,1602727,77896,10059,800900,0
1,3,706540,248035,1599612,73817,9398,799560,0
1,3,708441,248326,1368544,73824,9193,683898,0
1,3,728430,252626,1438418,77035,10137,718847,0
1,3,706895,247482,1402819,73597,9569,700851,0
1,3,705112,247706,1428104,73567,9194,713570,0
1,3,707667,247919,1892475,73580,11292,945489,0
1,3,712524,249073,1394394,73959,9281,696777,0
1,3,705703,248183,1451827,73658,9726,725511,0
1,3,708360,248097,1372595,73649,8495,686026,0
1,3,709866,248236,1418993,73726,8818,709074,0
1,3,729213,252749,1466191,77003,10174,732702,0
1,3,708646,247904,1445848,73583,9126,722243,0
1,3,708141,248334,1444077,73755,9642,721681,0
1,3,710943,247513,1361007,73367,8898,680150,0
1,3,710669,250333,1534489,74715,9466,766735,0
1,3,705113,248771,1308266,73974,7985,653602,0
1,3,708956,248947,1320024,74032,9208,659366,0
1,3,704474,247911,1283034,73627,8506,641215,0
1,3,712434,250747,1466519,74821,9122,732663,0
1,3,709124,248681,1420335,73836,8413,709950,0
1,3,708866,248013,1405311,73617,8919,702228,0
1,3,710555,249590,1467856,74313,9872,733336,0
1,3,706176,247678,1344102,73615,8897,671671,0
1,3,708093,248078,1476469,73757,9239,737825,0
1,3,705420,247098,1374573,73405,8701,686866,0
1,3,715575,250931,1490796,74920,10431,745058,0
1,3,709046,247537,1378783,73564,8385,689040,0
1,3,707451,248297,1419678,73882,9554,709391,0
1,3,708911,248631,1400809,74051,8457,700135,0
1,3,706368,247574,1442537,73623,9677,720842,0
1,3,707549,247474,1404671,73618,9095,701946,0
1,3,709958,248726,1437592,74038,10421,718399,0
1,3,731043,253795,1373665,77533,10026,686291,0
1,3,707144,247656,1365698,73463,8543,682420,0
1,3,711526,248347,1410270,73766,9150,704609,0
1,3,712942,249060,1376486,73986,8467,687836,0
1,3,711297,248181,1280094,73691,9134,639753,0
1,3,709334,249054,1498801,73883,9517,749080,0
1,3,711331,249654,1423635,74300,9200,711285,0
1,3,708009,248607,1408594,73825,9379,703690,0
1,3,713737,249737,1305327,74256,8641,652226,0
1,3,711857,248826,1393609,73894,8874,696528,0
1,3,708926,249323,1388795,74148,9108,694013,0
1,3,712131,249464,1373326,74179,8881,686297,0
1,3,709203,248183,1328153,73673,8795,663787,0
1,3,711436,248899,1328745,74086,9286,664012,0
1,3,731010,253133,1368649,77280,9366,683836,0
1,3,730323,252788,1445549,77211,9332,722516,0
1,3,717579,250195,1574653,74780,10115,787174,0
1,3,708078,248444,1344611,73998,8510,671889,0
1,3,709552,248054,1717009,73792,10403,858087,0
1,3,710935,248861,1390669,74145,9824,694753,0
1,3,710648,248053,1493447,73760,9433,746357,0
1,3,710331,248137,1436490,73872,9139,717854,0
1,3,717557,250712,1567526,75023,8793,783149,0
1,3,709790,248260,1390713,73881,9531,695166,0
1,3,715291,250046,1337504,74784,9849,668248,0
1,3,713189,248364,1409435,73914,8559,704294,0
1,3,711331,248687,1481671,74104,9363,740397,0
1,3,733696,252770,1409779,77189,10391,704581,0
1,3,714824,249103,1467572,74204,9147,733546,0
1,3,714919,248538,1384775,74011,8664,692053,0
1,3,711156,251054,1422191,75115,9557,710543,0
1,3,702128,247921,1316365,73724,9770,657661,0
1,3,709452,249882,1437310,74441,9277,718235,0
1,3,729698,253000,1347171,77271,10434,672824,0
1,3,726724,252849,1423662,77234,10192,711429,0
1,3,704602,248168,1407591,73851,9539,702954,0
1,3,710600,249344,1471635,74269,10102,735356,0
1,3,704334,248708,1449418,73995,9524,724008,0
1,3,710814,250399,1460604,74806,9949,729604,0
1,3,706682,248272,1418003,73906,9209,708614,0
1,3,705961,248767,1494007,74077,9646,746479,0
1,3,710269,249772,1462602,74609,9884,730226,0
1,3,709242,248870,1341760,74052,9800,670561,0
1,3,711950,249291,1514002,74266,9965,756329,0
1,3,707272,248745,1430839,74088,9955,714745,0
1,3,708339,249419,1517541,74318,9515,758273,0
1,3,705356,248199,1448951,73847,9396,723917,0
1,3,708704,249608,1516949,74422,9988,757765,0
1,3,712572,250854,1393293,74939,9452,695911,0
1,3,706249,248164,1437405,73773,9306,718326,0
1,3,708321,248454,1475395,73858,9237,737286,0
1,3,727245,253460,1465569,77319,10887,732259,0
1,3,706503,248651,1498169,73958,9571,748670,0
1,3,712112,250063,1473191,74611,9791,735941,0
1,3,713065,249679,1357606,74294,9463,678361,0
1,3,710291,248892,1427921,73998,9831,713645,0
1,3,708077,248398,1492406,73896,9741,745763,0
1,3,714994,249871,1483698,74551,10531,741255,0
1,3,703559,247948,1536180,73642,9971,767691,0
1,3,711608,249806,1420513,74292,9285,709859,0
1,3,706307,248172,1302463,73751,8500,650503,0
1,3,707461,249868,1480085,74565,10307,739358,0
1,3,707883,248656,1429754,73972,9294,714520,0
1,3,713621,250976,1603488,74970,10361,800937,0
1,3,710224,249071,1428403,74048,9534,713843,0
1,3,707797,249520,1462899,74223,9320,731108,0
1,3,713521,251183,1529954,75101,10049,764286,0
1,3,710563,249827,1368893,74548,9765,683720,0
1,3,713887,250956,1511875,75049,10241,755324,0
1,3,708900,248508,1417063,73895,9353,707944,0
1,3,729041,253351,1408199,77278,9831,703757,0
1,3,711687,248760,1327618,74021,8775,663422,0
1,3,708248,248086,1343543,73710,8717,671564,0
1,3,706844,249035,1448858,74071,10859,724534,0
1,3,710420,248703,1398848,73948,8937,698914,0
1,3,709107,248885,1428430,74021,8346,713932,0
1,3,708112,248236,1467228,73789,9363,732755,0
1,3,712318,250086,1412355,74637,9158,705755,0
1,3,708578,248906,1448907,74034,9501,723930,0
1,3,711743,249709,1540424,74351,9802,769718,0
1,3,712755,248749,1449735,73949,9546,724503,0
1,3,712987,249044,1404436,74047,9243,701867,0
1,3,715856,250166,1509631,74666,11257,754057,0
1,3,704997,248563,1478890,73970,9480,739143,0
1,3,707105,248865,1294751,74085,8450,646993,0
1,3,726567,252696,1540793,77055,9952,770061,0
1,3,711205,250131,1457795,74582,9220,728279,0
1,3,711552,249848,1352246,74598,9794,675253,0
1,3,708286,247959,1402588,73797,8541,700942,0
1,3,708790,248568,1403610,73869,9107,701507,0
1,3,709077,248793,1449454,73987,8888,724310,0
1,3,708720,249235,1562019,74138,9960,780698,0
1,3,728616,253368,1401839,77311,9266,700536,0
1,3,709010,248869,1433960,74056,9725,716055,0
1,3,705443,248432,1324142,73868,8438,661734,0
1,3,709042,248074,1434667,73750,8493,717009,0
1,3,732975,253155,1429623,77240,9837,714479,0
1,3,716029,250016,1618076,74632,11025,808304,0
1,3,710749,249737,1404124,74295,9271,701677,0
1,3,710681,248975,1490732,74033,9807,745074,0
1,3,709882,249365,1549534,74150,10074,774413,0
1,3,729623,252959,1374479,77140,9593,686876,0
1,3,709643,248670,1374988,73847,8619,687167,0
1,3,712184,249246,1437180,74015,9390,718223,0
1,3,710479,248907,1372202,74014,8939,685705,0
1,3,709824,248487,1292212,73825,8817,645788,0
1,3,707739,248683,1433777,73929,8835,715930,0
1,3,711521,249231,1449630,74144,9467,724456,0
1,3,709174,248506,1400050,73917,8709,699667,0
1,3,734123,253714,1426085,77367,9318,712497,0
1,3,732386,253503,1368778,77267,9612,683944,0
1,3,713830,249699,1456096,74264,9905,727696,0
1,3,712572,248627,1465935,73813,9910,732542,0
1,3,713730,248925,1375251,73928,9514,687229,0
1,3,708716,248810,1344370,73938,9504,671842,0
1,3,707275,248250,1448084,73637,8963,723631,0
1,3,710025,249176,1344295,73998,8729,671651,0
1,3,711941,249042,1488286,73884,10027,743572,0
1,3,711075,248919,1383039,73851,10280,691075,0
1,3,708884,248114,1580781,73644,9712,790015,0
1,3,715621,250025,1594054,74305,10135,796614,0
1,3,715161,250889,1449094,74757,9058,723975,0
1,3,712006,249878,1435857,74233,9020,717702,0
1,3,707502,248428,1406828,73803,8625,703057,0
1,3,715379,250588,1476383,74765,9359,737591,0
1,3,715151,250488,1531200,74647,10856,764859,0
1,3,716156,250654,1579126,74797,10216,788798,0
1,3,711610,249758,1560185,74229,10308,779778,0
1,3,719298,252073,1537923,75405,10912,768244,0
1,3,713125,249789,1459161,74219,9336,729092,0
1,3,714867,249824,1558137,74292,9585,778717,0
1,3,719815,251032,1551395,74973,10438,775126,0
1,3,715701,249909,1549463,74386,9152,774258,0
1,3,717201,251296,1443548,75180,10356,720681,0
1,3,714937,250717,1409624,74666,8558,704449,0
1,3,716273,250010,1527369,74231,9806,763322,0
1,3,713465,249461,1425095,73993,8657,712202,0
1,3,715637,250158,1353108,74266,8524,676096,0
1,3,718024,250369,1464126,74274,10287,731699,0
1,3,723707,252163,1396675,75207,10232,697370,0
1,3,719701,250937,1542334,74690,10103,770446,0
1,3,709595,250229,1523537,74287,9789,761385,0
1,3,709501,249201,1371960,73927,9632,685583,0
1,3,711620,250260,1486517,74257,10167,742620,0
1,3,709382,249426,1351537,74030,10134,675308,0
1,3,710083,249295,1293304,73945,8694,646291,0
1,3,712002,249514,1461991,74185,9196,730567,0
1,3,709255,249428,1440457,74143,10230,719824,0
1,3,710773,249232,1510396,74026,9743,754700,0
1,3,711971,249362,1388297,74080,9057,693617,0
1,3,712555,248913,1382433,73928,9918,690398,0
1,3,710795,249187,1381305,74046,8934,690223,0
1,3,711518,249505,1416867,74079,9053,707944,0
1,3,716509,250755,1452576,74689,10086,725697,0
1,3,729329,253614,1427176,77294,10447,713303,0
1,3,709224,248753,1397459,73942,9040,698234,0
1,3,708867,248896,1316755,74030,9666,658060,0
1,3,709409,248293,1445944,73681,9950,722624,0
1,3,735686,258186,1500836,76699,9683,750039,0
1,3,711105,248679,1387084,73923,9249,693112,0
1,3,732376,253222,1504327,77151,9308,751923,0
1,3,716748,250123,1440682,74510,9584,719874,0
1,3,709809,249015,1332878,73934,9253,666091,0
1,3,707516,247904,1375606,73556,9127,687464,0
1,3,716146,250306,1473320,74599,9373,735995,0
1,3,709165,248541,1493480,73954,9443,746365,0
1,3,709571,248044,1393650,73672,8672,696515,0
1,3,714690,248550,1359671,73876,9011,679477,0
1,3,707912,248095,1267950,73638,8873,633679,0
1,3,708034,248881,1362595,73945,8743,680898,0
1,3,710946,249491,1456108,74110,9489,727617,0
1,3,711718,250154,1551536,74534,10076,774886,0
1,3,709088,248633,1580644,73814,9694,789560,0
1,3,717343,251758,1424842,75137,9580,711858,0
1,3,713598,251268,1524124,75079,10093,761452,0
1,3,706802,247769,1356039,73602,9528,677654,0
1,3,708929,247755,1476766,73567,9901,738056,0
1,3,712974,249798,1441213,74396,9758,719982,0
1,3,714517,250178,1588386,74709,9593,793069,0
1,3,707037,248015,1481064,73736,9376,740152,0
1,3,714361,248702,1278135,73875,9621,638696,0
1,3,712647,248378,1449932,73751,10394,724653,0
1,3,719642,250951,1447834,74965,9532,723219,0
1,3,709954,248982,1409422,74009,8452,704312,0
1,3,712552,249406,1410236,74121,9248,704782,0
1,3,708240,248242,1353650,73632,8806,676550,0
1,3,710973,248959,1345403,73865,9305,672411,0
1,3,717259,251155,1440047,74747,8708,719425,0
1,3,713410,248985,1470343,73782,9860,734785,0
1,3,713315,249587,1453798,73980,9600,726475,0
1,3,712213,249038,1547011,73812,9356,773191,0
1,3,718499,250244,1301530,74403,9065,650294,0
1,3,708922,247461,1369631,73257,8876,684469,0
1,3,714512,248845,1465303,73683,9569,732223,0
1,3,715435,248441,1527981,73617,9638,763694,0
1,3,707943,249045,1418990,73862,9735,709085,0
1,3,711505,249401,1476864,73962,9786,738127,0
1,3,711480,248818,1454726,73766,9309,727033,0
1,3,710073,249475,1453766,74212,9046,726344,0
1,3,707233,248344,1337733,73662,8390,668370,0
1,3,708735,248649,1491345,73800,10026,745467,0
1,3,711616,250423,1327690,74534,9621,663300,0
1,3,713198,249280,1415482,73982,9811,707321,0
1,3,710823,248550,1461971,73736,9586,730665,0
1,3,708714,248253,1357787,73665,8995,678531,0
1,3,707304,247552,1455103,73372,8677,727154,0
1,3,712108,248187,1403490,73671,10362,701337,0
1,3,712206,248107,1459441,73580,10098,729384,0
1,3,711260,249294,1338523,74026,8534,668914,0
1,3,710325,249451,1392306,74289,9227,695568,0
1,3,711758,249412,1404934,74053,9154,701987,0
1,3,714268,248863,1326512,73824,9986,662907,0
1,3,711085,248298,1338873,73713,9353,669070,0
1,3,709694,248290,1449529,73662,9386,724261,0
1,3,714555,250641,1884179,74714,11197,941429,0
1,3,709427,248208,1369878,73611,9885,684828,0
1,3,713233,248443,1444833,73675,9740,722117,0
1,3,719813,251128,1508972,74930,10444,752466,0
1,3,704664,248277,1481437,73722,9209,739865,0
1,3,708707,248269,1477703,73632,10117,738421,0
1,3,709030,248425,1607472,73672,9551,802258,0
1,3,708301,248083,1408091,73587,9034,703584,0
1,3,710426,248626,1441420,73800,9100,720314,0
1,3,710320,248558,1332216,73730,8749,665820,0
1,3,716276,249654,1403873,74330,9352,701047,0
1,3,730103,253270,1508509,77093,9580,753869,0
1,3,709772,248842,1450276,73959,9971,724254,0
1,3,717969,251024,1502093,74835,9960,750349,0
1,3,714403,250556,1374106,74599,9409,686513,0
1,3,708222,246969,1472962,73277,9974,735942,0
1,3,714587,248988,1492604,73873,10972,745629,0
1,3,707970,248334,1430061,73676,9984,714588,0
1,3,732371,252990,1601564,76988,11505,800077,0
1,3,712912,249260,1427106,74022,9589,712028,0
1,3,716729,249728,1425062,74157,9301,712170,0
1,3,711483,248692,1414361,73816,8911,706752,0
1,3,712002,248670,1306756,73777,8382,652978,0
1,3,712781,248291,1518556,73641,9186,758657,0
1,3,710807,248627,1496672,73765,9062,747954,0
1,3,714232,249362,1457882,73973,8800,728506,0
1,3,716800,248715,1423110,73734,9673,710993,0
1,3,712861,248128,1485346,73539,9466,742341,0
1,3,711653,247901,1462214,73401,8988,730776,0
1,3,718232,248910,1441077,73775,8527,720180,0
1,3,706772,250288,1335747,74057,8698,667432,0
1,3,705216,248695,1612497,73337,9317,805906,0
1,3,703827,248392,1362503,73246,9697,680862,0
1,3,705224,248244,1516891,73168,9214,758089,0
1,3,707649,250174,1401239,74002,9322,700085,0
1,3,703321,248072,1445496,73094,9414,722418,0
1,3,726373,252651,1610066,76426,9915,804381,0
1,3,701055,248421,1475271,73265,9816,737122,0
1,3,702312,247945,1387978,73047,9414,693644,0
1,3,704707,248206,1496919,73129,9329,747952,0
1,3,708013,248820,1449332,73369,9460,724115,0
1,3,705962,248343,1424447,73226,8738,711878,0
1,3,714189,250936,1393276,74393,8725,695876,0
1,3,702533,248074,1306299,73109,9567,652662,0
1,3,706309,247857,1337909,73150,9113,668419,0
1,3,703830,247685,1416590,73148,9396,707873,0
1,3,704383,247762,1552110,73152,9143,775576,0
1,3,713231,250959,1461359,74534,9916,730155,0
1,3,707266,248445,1459815,73415,9475,729572,0
1,3,711332,249283,1333935,73686,8654,666603,0
1,3,703457,248055,1454497,73291,9429,726859,0
1,3,712123,249231,1357606,74674,10046,678282,0
1,3,712691,250305,1407213,75099,10450,702665,0
1,3,705298,247886,1412603,74053,9191,705909,0
1,3,709809,248357,1326668,74191,10433,662944,0
1,3,712368,249793,1399620,74839,9821,698915,0
1,3,710453,247649,1404470,73949,10777,701797,0
1,3,707429,248688,1359045,74338,9612,679100,0
1,3,708200,248347,1323607,74231,9442,661457,0
1,3,710815,248629,1443804,74296,10242,721537,0
1,3,709309,248212,1554348,74197,9834,776706,0
1,3,726350,252855,1549091,77424,11180,774088,0
1,3,708753,248877,1396806,74330,10141,697994,0
1,3,711600,248191,1365362,74115,10685,682352,0
1,3,707507,247806,1359345,74038,9608,679261,0
1,3,713069,248946,1589818,74354,9707,794517,0
1,3,716411,250204,1425360,74995,9524,712200,0
1,3,707814,248413,1454485,74267,9164,726879,0
1,3,707441,248100,1449103,74142,9836,724067,0
1,3,710399,249269,1332672,74489,10214,665706,0
1,3,711754,248357,1449534,74130,10354,724251,0
1,3,728442,252475,1442525,77360,9676,720815,0
1,3,710184,247719,1325065,73964,8657,662168,0
1,3,711545,248408,1415541,74163,9521,707282,0
1,3,712872,248862,1314409,74268,9168,656856,0
1,3,710189,247881,1434182,74020,9610,716774,0
1,3,731995,252801,1477471,77416,9603,738348,0
1,3,709761,248027,1415610,74069,9192,707409,0
1,3,714374,249892,1327817,75000,8955,663284,0
1,3,717174,249423,1329853,74755,9702,664398,0
1,3,705915,248653,1366138,74269,10424,682710,0
1,3,709199,248217,1419211,74138,10429,709216,0
1,3,730076,253146,1719777,77602,12538,858939,0
1,3,727987,253206,1503324,77598,9672,751240,0
1,3,705733,247695,1559334,74023,9226,779204,0
1,3,708365,247921,1348284,74046,9812,673813,0
1,3,710917,250235,1376361,75112,9801,686551,0
1,3,708610,248310,1410158,74163,9464,704667,0
1,3,713242,248685,1393656,74345,9772,696371,0
1,3,709582,248549,1335639,74274,9075,667517,0
1,3,708238,247799,1295205,73997,8996,647276,0
1,3,714782,249152,1331354,74483,8998,665292,0
1,3,709707,248400,1433686,74133,9305,716528,0
1,3,710434,249083,1439045,74405,8694,719225,0
1,3,710837,248344,1367510,74202,8436,683363,0
1,3,708268,248139,1420737,74158,9333,709970,0
1,3,713411,249640,1423798,74783,10133,711105,0
1,3,712568,248282,1410555,74206,9977,705311,0
1,3,710173,248600,1575137,74277,10306,786590,0
1,3,713347,249891,1319128,74995,8546,659071,0
1,3,710559,248242,1403172,74137,9302,701223,0
1,3,711034,247966,1541054,73998,10182,770770,0
1,3,712099,248293,1382765,74232,9071,690879,0
1,3,716567,249178,1384674,74686,9477,691314,0
1,3,710601,249315,1482403,74679,9583,739583,0
1,3,708948,248575,1406995,74058,9193,702987,0
1,3,712182,248644,1449904,74119,10196,724548,0
1,3,708610,247982,1498365,73896,9973,748812,0
1,3,711232,248375,1370109,74066,9086,684702,0
1,3,713674,248653,1564955,74131,10226,782155,0
1,3,710474,248430,1390715,74121,9507,694998,0
1,3,734035,257017,1397390,76668,9205,698292,0
1,3,733221,253225,1477402,77469,10209,737599,0
1,3,712299,248742,1504186,74236,9318,751719,0
1,3,712841,249613,1350501,74729,9155,674024,0
1,3,711013,248548,1388147,74208,8778,693715,0
1,3,714402,248638,1329088,74256,9335,664009,0
1,3,710236,249179,1429152,74495,9162,714219,0
1,3,716376,250623,1362666,75093,8407,680292,0
1,3,711811,248269,1407457,74152,9492,703364,0
1,3,709412,248114,1305202,73960,8887,652068,0
1,3,713951,248089,1401403,74001,9343,700258,0
1,3,715870,249386,1376882,74454,10150,687978,0
1,3,709608,247994,1460006,73918,9319,729694,0
1,3,711150,248011,1435008,74065,9246,717074,0
1,3,713046,248551,1466804,74283,10088,732939,0
1,3,710487,247349,1486216,73762,10206,742560,0
1,3,716424,249307,1331086,74427,10001,665016,0
1,3,716396,248638,1328140,74221,9777,663365,0
1,3,706708,248551,1664256,74398,11521,831619,0
1,3,708503,248150,1345404,74174,9092,672338,0
1,3,711903,249268,1421549,74497,9715,710447,0
1,3,734015,253719,1420681,77753,10662,709550,0
1,3,712584,249129,1337434,74463,8873,668223,0
1,3,714871,251172,1405336,75303,9463,702103,0
1,3,711239,249107,1418439,74441,9580,708871,0
1,3,718808,250886,1403433,75251,10043,701062,0
1,3,714507,249296,1457582,74675,9820,728388,0
1,3,714713,249842,1350146,74851,9652,674578,0
1,3,714648,249594,1417537,74678,9276,708382,0
1,3,719614,250880,1402738,75430,9066,700762,0
1,3,712041,249248,1742538,74612,10693,870785,0
1,3,716249,250995,1380001,75435,9732,689525,0
1,3,709520,248864,1380372,74416,8756,689729,0
1,3,715053,251412,1441731,75520,9734,720154,0
1,3,711493,248895,1397232,74322,10493,698017,0
1,3,718135,250448,1625401,74841,10517,812308,0
1,3,716123,249979,1451920,74736,9382,725568,0
1,3,714552,249086,1504236,74424,10034,751767,0
1,3,718483,251482,1424471,75526,9776,711524,0
1,3,714114,249622,1537905,74572,9989,768449,0
1,3,713773,249728,1331532,74676,9404,665309,0
1,3,735715,254092,1508603,77882,11083,753837,0
1,3,715327,249538,1437050,74564,9268,718129,0
1,3,716430,249648,1518370,74642,9755,758672,0
1,3,727875,252431,1491685,77317,9837,745436,0
1,3,711993,249731,1357848,74632,8412,678568,0
1,3,712117,249264,1397337,74451,9414,698030,0
1,3,735780,254216,1670944,77828,10818,835076,0
1,3,719904,250336,1474034,74697,9943,736580,0
1,3,762328,263237,1498705,80419,10403,748924,0
1,3,713725,250072,1493879,74625,8538,746469,0
1,3,718592,251102,1429986,75208,9091,714415,0
1,3,712805,249322,1401760,74306,9396,700599,0
1,3,716125,249855,1336820,74502,9026,667955,0
1,3,713270,248401,1397232,73968,9781,698266,0
1,3,709401,248695,1415148,74157,9172,707149,0
1,3,714254,248956,1520586,74249,9587,759952,0
1,3,713987,249654,1320518,74550,8960,659854,0
1,3,711845,249448,1321982,74518,8656,660522,0
1,3,712454,248392,1436684,74145,9399,718045,0
1,3,713241,249266,1406659,74454,9327,702807,0
1,3,714707,249854,1271277,74840,8924,634932,0
1,3,717310,249860,1453551,74589,9824,726442,0
1,3,736293,253796,1532539,77673,10393,765799,0
1,3,720860,250371,1364696,74990,9477,681841,0
1,3,717043,250461,1330360,75098,8537,664535,0
1,3,714012,248396,1425928,74116,9836,712371,0
1,3,715800,249075,1463772,74402,9452,731361,0
1,3,713686,248876,1416199,74273,8807,707742,0
1,3,712118,250159,1369420,74854,9507,684065,0
1,3,710805,248908,1515192,74326,9205,757048,0
1,3,736802,253993,1405348,77796,11160,702282,0
1,3,715137,249917,1501986,74673,10334,750368,0
1,3,713803,248964,1480999,74364,10101,740046,0
1,3,709092,248977,1472162,74330,9431,735452,0
1,3,714661,249954,1466760,74693,9530,732942,0
1,3,713480,249783,1432209,74574,9452,715660,0
1,3,736861,255037,1689129,78085,11198,844154,0
1,3,717141,250373,1457177,74880,9913,727788,0
1,3,720156,250862,1497955,75143,10927,748026,0
1,3,711771,249359,1441500,74329,9180,720342,0
1,3,717553,250512,1389591,75095,9131,694196,0
1,3,718624,250858,1320543,75190,8620,659332,0
1,3,716547,251135,1384545,75402,9284,691186,0
1,3,713654,248962,1468292,74423,9832,733697,0
1,3,717390,249684,1371607,74667,9270,685056,0
1,3,713576,249610,1419408,74601,9729,709137,0
1,3,715521,249666,1517390,74546,9133,758311,0
1,3,741005,258343,1361327,77037,9698,680167,0
1,3,715235,249126,1418697,74277,9282,709158,0
1,3,717432,249653,1538394,74506,8918,768868,0
1,3,719083,250522,1381592,75022,8465,690183,0
1,3,721222,250062,1399948,74873,9015,699430,0
1,3,709237,248590,1306272,74117,9174,652729,0
1,3,714151,249568,1439486,74404,8614,719413,0
1,3,713444,249449,1550281,74454,9510,774774,0
1,3,713840,248685,1426735,74195,9742,712957,0
1,3,711957,248326,1347444,74024,8487,673390,0
1,3,732616,253529,1620505,77568,10185,809877,0
1,3,715378,250050,1335486,74827,9497,667171,0
1,3,713335,248829,1445860,74246,9338,722680,0
1,3,720138,251180,1466885,75220,9193,732640,0
1,3,713040,248456,1464284,74064,10059,731824,0
1,3,715375,249022,1480185,74281,10137,739743,0
1,3,714608,248439,1349610,74050,9615,674513,0
1,3,713807,247959,1518043,74036,9636,758642,0
1,3,710806,248204,1486558,74041,9146,742777,0
1,3,712717,247920,1405962,73993,9092,702625,0
1,3,714017,249145,1451622,74453,9273,725260,0
1,3,717807,250195,1416667,75189,9240,707708,0
1,3,713714,247961,1279050,74180,8901,639194,0
1,3,713880,248335,1430600,74337,9491,714956,0
1,3,716850,251295,1493458,75674,9878,746022,0
1,3,733686,252759,1527943,77552,10354,763669,0
1,3,715274,249001,1421023,74751,9583,709903,0
1,3,714233,247891,1427454,74192,9769,713242,0
1,3,710623,247017,1267667,73900,9540,633570,0
1,3,716919,249795,1458028,75017,9277,728303,0
1,3,717561,249615,1486741,74937,9215,742827,0
1,3,737869,252738,1471254,77585,9817,735164,0
1,3,708570,249198,1420092,74832,8852,709476,0
1,3,710347,249624,1428471,75042,10271,713981,0
1,3,709491,249754,1560192,75103,10339,779498,0
1,3,711992,249881,1496515,75045,10317,747845,0
1,3,707397,247976,1540578,74173,9774,769580,0
1,3,715953,250524,1550908,75367,9899,774684,0
1,3,727400,253073,1515679,77693,10118,757494,0
1,3,705724,247600,1437067,74056,8720,718190,0
1,3,709724,248250,1436323,74345,9089,717654,0
1,3,708025,247740,1482412,74099,9462,740897,0
1,3,709691,248656,1327741,74485,8775,663411,0
1,3,711303,247999,1416573,74236,9964,707713,0
1,3,707759,248412,1364832,74334,9262,681809,0
1,3,707643,248093,1346948,74136,9421,673141,0
1,3,706382,247873,1382033,74025,8230,690747,0
2,3,764847,267310,1507482,79018,10710,753317,0
2,3,771314,269082,1608944,79826,11223,803613,0
2,3,767000,268911,1594036,79764,10266,796305,0
2,3,760881,266492,1470008,78774,8434,734339,0
2,3,759881,266862,1446841,78783,10128,722938,0
2,3,761642,266748,1595850,78810,10088,797252,0
2,3,761137,266150,1524200,78569,9783,761630,0
2,3,761663,266671,1478056,78800,9410,738540,0
2,3,710096,247697,1478058,73676,9525,738594,0
2,3,706589,248170,1342422,73847,9140,670687,0
2,3,704634,247429,1249297,73520,8631,624019,0
2,3,706575,247696,1343158,73528,8341,671118,0
2,3,711195,249883,1470261,74622,9057,734432,0
2,3,709989,249134,1314957,73973,8391,657047,0
2,3,708039,247760,1451476,73481,9591,725411,0
2,3,708217,247333,1311931,73284,9424,655578,0
2,3,713085,250921,1458108,74825,9292,728152,0
2,3,714916,250748,1439213,74869,9336,719028,0
2,3,709533,248338,1349060,73784,8643,674097,0
2,3,709120,248396,1424982,73774,8188,712431,0
2,3,711270,247773,1492783,73526,8665,746024,0
2,3,709976,247670,1482523,73489,10029,740980,0
2,3,704847,248925,1385642,74069,8739,692220,0
2,3,734128,258052,1534767,76912,10224,766877,0
2,3,708371,249192,1450780,74283,9541,724828,0
2,3,703657,248079,1342983,73748,8886,671150,0
2,3,705640,248130,1333793,73636,7965,666086,0
2,3,706190,248393,1423482,73736,8354,711242,0
2,3,709775,248658,1451884,73839,9237,725570,0
2,3,706314,248226,1383823,73733,8757,691407,0
2,3,711292,250426,1445370,74795,9562,721092,0
2,3,707161,248170,1324038,73810,8205,661537,0
2,3,714630,250288,1503133,74771,10006,750931,0
2,3,708879,248048,1461200,73652,9244,730254,0
2,3,712407,249303,1498832,74147,9415,748661,0
2,3,711478,250871,1442576,74979,9779,720472,0
2,3,705910,247515,1554077,73588,10450,776533,0
2,3,707548,248720,1366802,74047,9100,682974,0
2,3,709384,248422,1562157,74011,10847,780642,0
2,3,714948,250357,1486818,74767,9608,742530,0
2,3,712882,248243,1471657,73848,10474,735428,0
2,3,716170,250307,1462630,74780,9500,730606,0
2,3,715764,250242,1466448,74637,9067,732408,0
2,3,710969,248285,1436482,73706,8999,717742,0
2,3,733382,253093,1404612,77029,10733,701561,0
2,3,708951,249149,1499665,73931,9871,748725,0
2,3,735871,258250,1436434,76610,9183,717731,0
2,3,709239,248063,1452094,73661,9069,725667,0
2,3,708451,248244,1361673,73716,9014,680504,0
2,3,710405,248812,1474276,73826,9261,736761,0
2,3,733395,253105,1413237,77137,10265,706196,0
2,3,712996,250220,1480436,74619,9397,739764,0
2,3,715139,250781,1447574,74898,9569,723078,0
2,3,714354,250668,1459412,74970,10062,729054,0
2,3,709388,248729,1375142,73995,9435,686560,0
2,3,713732,248762,1443430,74121,9265,721432,0
2,3,735081,253557,1498215,77518,10213,748996,0
2,3,712405,250316,1484136,74777,9301,741461,0
2,3,714413,250744,1489607,75004,9294,744164,0
2,3,714811,249913,1364301,74693,9936,681416,0
2,3,712767,249414,1477305,74308,8996,738288,0
2,3,716763,250826,1492414,75041,9523,745550,0
2,3,734305,253096,1490305,77312,9450,745217,0
2,3,713158,249918,1459036,74660,9991,728695,0
2,3,713122,248770,1274197,74121,9759,636693,0
2,3,712328,248715,1294928,74073,9117,647103,0
2,3,713013,248889,1362022,74066,9240,680622,0
2,3,712789,248537,1489154,73985,9851,744243,0
2,3,716962,250271,1478566,74759,9834,738803,0
2,3,719095,250384,1456667,74888,9797,727818,0
2,3,702241,248155,1418994,73860,8847,709163,0
2,3,708615,249773,1336125,74621,9380,667451,0
2,3,709828,250620,1409913,74971,9866,704467,0
2,3,708244,248758,1543971,74096,10567,770315,0
2,3,705053,248358,1491804,73862,10321,745475,0
2,3,708483,248996,1464851,74180,9940,732032,0
2,3,707479,248181,1299624,73894,9067,649485,0
2,3,704956,249093,1405898,74207,10276,702590,0
2,3,706016,249387,1478124,74314,9628,738662,0
2,3,705843,248305,1372675,73910,8833,685545,0
2,3,707334,248037,1484435,73816,9334,741420,0
2,3,706651,248679,1440944,74079,9855,719921,0
2,3,705173,248394,1261100,74010,8960,630020,0
2,3,714445,249971,1547217,74664,10405,772832,0
2,3,706463,248934,1399380,74095,9935,699214,0
2,3,708641,249646,1471669,74515,9540,735271,0
2,3,706050,248747,1399225,74019,9333,699338,0
2,3,705849,248880,1341452,74062,8660,670362,0
2,3,725698,252649,1402464,77098,10793,700885,0
2,3,710755,250197,1430469,74623,9911,714734,0
2,3,711609,249897,1473405,74388,9142,736208,0
2,3,705736,249280,1516461,74199,10499,757696,0
2,3,706906,248355,1469409,73845,8969,734366,0
2,3,704989,247957,1361825,73727,8718,680737,0
2,3,715415,251116,1439835,75081,9403,719254,0
2,3,731829,253379,1427118,77303,10603,713120,0
2,3,707509,248252,1434116,73796,8849,716562,0
2,3,712638,249147,1459848,74156,9740,729613,0
2,3,705158,248822,1555475,74057,9885,776935,0
2,3,712696,250877,1427821,74896,9519,713230,0
2,3,741661,261027,1465628,78075,9694,731795,0
2,3,710736,249490,1361672,74233,10136,680365,0
2,3,712827,250632,1495946,74815,9579,747252,0
2,3,728819,253510,1522786,77365,9959,760946,0
2,3,712756,250225,1461760,74664,10058,730309,0
2,3,711385,250421,1561031,74786,10092,779618,0
2,3,729808,253293,1398633,77288,9810,698932,0
2,3,705433,248083,1299686,73792,9534,649526,0
2,3,728512,252675,1410768,77045,10132,705096,0
2,3,713808,249502,1541469,74377,10636,770144,0
2,3,711430,248916,1484448,74008,9058,741852,0
2,3,711944,249720,1431436,74357,9599,715372,0
2,3,732864,253136,1527019,77238,9822,763133,0
2,3,708527,248515,1342380,73893,10160,670951,0
2,3,709277,249185,1527212,74143,9217,763243,0
2,3,712999,250763,1452178,74898,9411,725438,0
2,3,714230,251394,1442364,75147,10051,719409,0
2,3,707277,248600,1308764,73911,8668,653978,0
2,3,711814,249201,1468514,74154,9071,733348,0
2,3,711196,248342,1630664,73831,9786,814882,0
2,3,711866,248642,1386885,73979,8976,693041,0
2,3,712451,249888,1462557,74517,9365,730725,0
2,3,712744,249167,1638509,74205,12449,817958,0
2,3,717246,250033,1428261,74418,9530,713608,0
2,3,705374,248583,1347039,73903,9757,673061,0
2,3,706411,249020,1541562,74091,9744,770309,0
2,3,707199,248848,1306127,74066,7967,652567,0
2,3,706462,248797,1341974,73966,9383,670558,0
2,3,712953,250487,1487164,74874,10399,742763,0
2,3,707210,248765,1369847,73985,8955,684524,0
2,3,710072,248651,1378992,73898,9130,688991,0
2,3,709382,249333,1445620,74111,9564,722272,0
2,3,708623,249811,1453075,74361,9227,726079,0
2,3,710477,249068,1671365,74043,11358,835170,0
2,3,710536,249055,1517064,74063,8966,758133,0
2,3,715201,250937,1578060,74993,9680,788278,0
2,3,710661,248887,1414318,74086,8892,706742,0
2,3,712305,248907,1475494,74001,9801,737107,0
2,3,711788,250703,1442713,74808,9885,720670,0
2,3,709175,249334,1400415,74159,9672,699794,0
2,3,707601,248554,1444125,73860,9411,721730,0
2,3,710586,249222,1418024,74074,8633,708558,0
2,3,710767,249622,1356461,74266,8277,677620,0
2,3,710607,248865,1368001,74006,8480,683484,0
2,3,709741,248584,1439098,73871,8994,719174,0
2,3,714642,249798,1384280,74505,9602,691259,0
2,3,713655,250773,1508951,74886,9831,753904,0
2,3,709250,248621,1330914,73874,8238,665141,0
2,3,708867,248671,1384508,73953,8816,691852,0
2,3,713321,249711,1424666,74255,9600,711597,0
2,3,709422,248614,1502402,73952,8878,750689,0
2,3,712879,249181,1382930,74185,8715,690997,0
2,3,716337,250534,1383716,74758,9586,691258,0
2,3,712381,248879,1354737,73895,9114,677050,0
2,3,708664,249799,1317484,74271,8816,658490,0
2,3,730254,253320,1390254,77182,9605,694586,0
2,3,710726,249696,1466447,74168,8740,732821,0
2,3,711982,249454,1403724,74086,9310,701374,0
2,3,706251,248094,1323116,73567,9079,661219,0
2,3,714667,250695,1500745,74763,9882,749844,0
2,3,710713,248565,1398768,73772,8612,699078,0
2,3,708683,248930,1313627,73959,8786,656388,0
2,3,710174,248508,1443461,73788,9280,721337,0
2,3,716457,250714,1385064,74686,10070,692073,0
2,3,730164,253241,1435266,77135,9637,717174,0
2,3,712967,248836,1528388,73833,9196,763961,0
2,3,713986,249187,1476869,74086,9700,738161,0
2,3,707768,248360,1526407,73841,9446,762800,0
2,3,711926,249883,1468857,74249,10048,733887,0
2,3,712040,249365,1524273,74082,9923,761740,0
2,3,718895,251606,1613687,75166,10549,805720,0
2,3,715143,249608,1506188,74327,9614,752680,0
2,3,712568,249290,1562785,74106,9750,780807,0
2,3,713580,249430,1621894,74174,10242,810487,0
2,3,711283,249133,1479722,74049,9782,739416,0
2,3,720544,252397,1485882,75320,9469,742208,0
2,3,714823,250254,1448592,74314,8882,723885,0
2,3,722049,252367,1526181,75238,9987,762229,0
2,3,718787,251309,1537993,74910,10143,768306,0
2,3,740031,254868,1360466,77611,11030,679622,0
2,3,715281,249793,1502374,74117,9625,750716,0
2,3,722767,251740,1475012,75046,10154,736838,0
2,3,711586,250210,1507953,74233,10526,753444,0
2,3,712759,250097,1446712,74196,9885,722949,0
2,3,713600,251569,1404486,75023,9960,701475,0
2,3,711338,250019,1416291,74233,9404,707627,0
2,3,714345,250492,1340265,74413,9304,669717,0
2,3,711955,250964,1506696,74801,10451,752758,0
2,3,711541,249920,1360361,74299,8961,679782,0
2,3,712681,249540,1597781,74141,10042,798459,0
2,3,712936,249892,1485625,74301,9751,742493,0
2,3,710472,249248,1442792,74040,9638,721031,0
2,3,713705,249534,1436840,74055,10043,718060,0
2,3,711617,249263,1507584,73984,10503,753377,0
2,3,708162,249600,1473291,74162,9855,736226,0
2,3,712424,250010,1448649,74548,9729,723679,0
2,3,711112,249190,1356824,74000,9501,678149,0
2,3,713953,249845,1480122,74270,10092,739808,0
2,3,711092,249170,1543086,74057,9505,771055,0
2,3,709902,248537,1446358,73805,9300,722850,0
2,3,709372,248752,1468108,73902,8856,733623,0
2,3,712929,249370,1349102,74107,8516,674157,0
2,3,709037,248328,1334519,73710,9891,666914,0
2,3,713186,250755,1333227,74844,9409,666029,0
2,3,711858,249039,1342933,74015,8830,671071,0
2,3,705658,247426,1423951,73520,9667,711643,0
2,3,713761,248983,1345610,74065,9169,672675,0
2,3,711416,248160,1463981,73703,9707,731698,0
2,3,708152,248528,1261019,73833,9274,630108,0
2,3,706734,248331,1437574,73702,9269,718380,0
2,3,708716,248361,1291481,73739,8470,645336,0
2,3,707965,249216,1449560,74091,9845,724374,0
2,3,713934,250556,1439062,74733,10122,718933,0
2,3,707617,248361,1399057,73706,8435,698745,0
2,3,729809,252482,1400305,76988,9668,699766,0
2,3,712493,249457,1443277,74362,9821,721118,0
2,3,715100,250505,1481109,74787,9700,739857,0
2,3,709795,248908,1404274,73985,8982,701757,0
2,3,731874,253741,1538887,77381,9773,768850,0
2,3,711920,249796,1390029,74513,9306,694456,0
2,3,714797,249883,1378911,74425,9708,688926,0
2,3,718455,251066,1389644,74930,10141,694245,0
2,3,736939,253653,1394514,77294,10328,696940,0
2,3,710906,248844,1546997,73938,9322,773119,0
2,3,713573,250190,1426629,74585,8857,712740,0
2,3,711292,248832,1430774,73851,9560,715024,0
2,3,711760,248735,1355078,73779,9233,677157,0
2,3,733785,253831,1373249,77190,9496,686307,0
2,3,718305,250646,1440985,74517,9588,720058,0
2,3,717128,249067,1505763,73777,9382,752543,0
2,3,716297,251018,1467943,74652,9398,733577,0
2,3,733733,253251,1444877,76962,10276,722143,0
2,3,734958,254069,1597919,77204,10461,798527,0
2,3,718667,250814,1515381,74624,9867,757130,0
2,3,712454,248308,1307302,73597,8644,653381,0
2,3,708469,249651,1455143,74045,8966,727211,0
2,3,707884,248412,1464751,73636,9557,732088,0
2,3,712390,249802,1346824,74108,8682,673043,0
2,3,711221,249211,1323006,74020,8059,661161,0
2,3,736555,257773,1529428,76483,9474,764453,0
2,3,711096,248284,1352232,73650,8754,675719,0
2,3,707335,248011,1281386,73639,8875,640283,0
2,3,708406,248526,1465212,73785,9050,732262,0
2,3,709421,248310,1428641,73647,8859,713940,0
2,3,712231,250601,1411710,74738,9494,705293,0
2,3,710250,248735,1536962,73837,9399,768103,0
2,3,709425,248326,1305438,73655,9209,652367,0
2,3,712980,248649,1338041,73819,9648,668542,0
2,3,729667,253616,1492500,77218,9550,745907,0
2,3,730306,253387,1442351,77141,9706,720814,0
2,3,707180,247793,1447094,73433,9330,723168,0
2,3,714966,250158,1333551,74568,9525,665969,0
2,3,718225,251176,1437112,74965,10801,717837,0
2,3,708197,248292,1555851,73739,9586,777594,0
2,3,712184,248624,1558659,73804,11678,778946,0
2,3,711400,248931,1429023,73936,9274,714141,0
2,3,732465,253270,1415468,77104,10211,707280,0
2,3,736111,253657,1395354,77227,10545,697314,0
2,3,713290,248357,1573617,73665,10358,786480,0
2,3,707759,248338,1397376,73726,9665,698219,0
2,3,708353,248535,1413667,73792,9629,706447,0
2,3,709599,249015,1493641,73884,9323,746486,0
2,3,707660,248117,1326145,73538,8238,662698,0
2,3,715329,249726,1383159,74340,9101,691154,0
2,3,711243,248266,1439588,73698,9164,719486,0
2,3,714680,248657,1450614,73836,9532,724959,0
2,3,732786,253470,1658924,77139,10578,828764,0
2,3,709316,247448,1428690,73319,9938,713416,0
2,3,713437,248513,1401417,73764,9244,700248,0
2,3,711457,248515,1325699,73767,9143,662421,0
2,3,710933,247949,1440216,73549,10341,719696,0
2,3,714844,248578,1524013,73773,10986,761604,0
2,3,709239,248240,1534609,73672,10150,766572,0
2,3,709659,248510,1390622,73768,8906,694834,0
2,3,712070,248191,1321831,73642,9018,660561,0
2,3,709711,248430,1453444,73699,8902,726180,0
2,3,712255,248491,1431491,73716,9021,715448,0
2,3,735670,254493,1479204,77519,9870,739157,0
2,3,713493,248357,1317927,73685,8623,658606,0
2,3,713318,248915,1517151,73813,8632,758119,0
2,3,714262,248705,1331277,73800,9583,665201,0
2,3,713949,248690,1423236,73737,9056,711151,0
2,3,738424,253170,1847860,77017,11582,923536,0
2,3,737854,253372,1487740,77055,9729,743611,0
2,3,703491,248357,1420773,73233,8641,710119,0
2,3,703908,248164,1481332,73134,8806,740265,0
2,3,701246,247716,1378983,72929,8921,688944,0
2,3,710892,250650,1443545,74141,8717,721013,0
2,3,706831,249018,1479803,73436,9370,739297,0
2,3,716554,252075,1359430,74742,8892,679078,0
2,3,706765,248899,1560156,73383,9499,779765,0
2,3,707746,247927,1440162,73036,9381,719639,0
2,3,707295,248834,1450057,73395,9207,724647,0
2,3,707914,248707,1549068,73352,9602,773441,0
2,3,705067,248050,1345649,73076,8719,672603,0
2,3,703749,247321,1343373,72927,9111,671097,0
2,3,708953,248574,1485658,73324,9290,742485,0
2,3,703060,248610,1345900,73306,9860,672649,0
2,3,710047,250401,1336918,73998,9475,667858,0
2,3,712454,251158,1519796,74497,9806,759077,0
2,3,703371,248041,1451330,73252,8897,725122,0
2,3,727507,252857,1462727,76645,9882,730869,0
2,3,711131,250294,1476085,74176,9660,737408,0
2,3,731180,253245,1467726,76761,10895,733390,0
2,3,712530,249392,1417167,73902,9835,708083,0
2,3,707231,248268,1433537,74110,10446,716266,0
2,3,728789,252839,1678925,77445,11546,838967,0
2,3,715698,249959,1452192,74910,9906,725574,0
2,3,711814,249136,1346797,74429,10133,672882,0
2,3,711836,248236,1499151,74153,10274,749162,0
2,3,712160,248865,1458530,74321,10167,729067,0
2,3,704386,247531,1426978,73874,9234,712857,0
2,3,707088,248763,1345834,74323,9743,672371,0
2,3,706960,247728,1484978,73967,9570,742207,0
2,3,709334,248291,1506682,74133,9270,752949,0
2,3,710567,248291,1424423,74222,9349,711675,0
2,3,708277,247898,1500908,74028,9888,750194,0
2,3,711220,248715,1339382,74271,10039,669503,0
2,3,708607,248190,1315184,74106,9792,657249,0
2,3,707434,247699,1351602,73960,9006,675361,0
2,3,709942,248185,1463262,74088,9749,731213,0
2,3,735258,252870,1569330,77502,10925,784179,0
2,3,704761,247220,1371044,73785,9853,685262,0
2,3,706665,247904,1492723,73991,9930,745829,0
2,3,709331,248023,1416806,74072,9828,708190,0
2,3,707548,248538,1470827,74257,9378,734976,0
2,3,715457,250367,1336185,75067,8894,667506,0
2,3,710143,248104,1439421,74082,9529,719432,0
2,3,709384,247951,1345985,74005,9812,672719,0
2,3,710768,248530,1344095,74183,9095,671701,0
2,3,708063,248250,1351365,74154,7923,675457,0
2,3,713266,248699,1371568,74325,8987,685341,0
2,3,734238,253037,1525931,77535,10556,762645,0
2,3,709900,247088,1431231,73850,9894,715271,0
2,3,703939,247945,1307960,74011,9653,653680,0
2,3,706171,248157,1424904,74135,10151,712029,0
2,3,705103,247713,1475175,73948,10549,737173,0
2,3,708664,248287,1488249,74156,9842,743216,0
2,3,707440,248314,1393667,74189,9029,696518,0
2,3,706780,248371,1452121,74170,9563,725730,0
2,3,709184,247591,1500577,73857,10007,749950,0
2,3,708302,248255,1410281,74193,10589,704573,0
2,3,710262,247970,1315712,73996,9093,657284,0
2,3,709446,248325,1548232,74131,10127,773821,0
2,3,714804,249939,1309302,74919,8429,654053,0
2,3,732109,252862,1495173,77487,9876,747296,0
2,3,711868,249366,1288161,74708,8498,643583,0
2,3,713556,250115,1341749,75083,9525,670211,0
2,3,709503,247964,1301576,74053,8480,650488,0
2,3,707477,248218,1395099,74175,8685,697139,0
2,3,709161,248205,1385495,74132,10658,692538,0
2,3,712741,249333,1390774,74755,9834,694195,0
2,3,710297,248616,1493878,74226,9787,745548,0
2,3,710702,248053,1517811,74111,9435,758480,0
2,3,711052,247964,1415309,74046,8809,707259,0
2,3,737003,253968,1573558,78297,11671,786264,0
2,3,713710,248813,1421875,74334,9592,710485,0
2,3,710975,246838,1463440,73727,9534,731300,0
2,3,706447,247973,1714803,74065,11464,856985,0
2,3,706988,248062,1385136,73879,9880,692178,0
2,3,732979,253444,1466713,77547,10098,732938,0
2,3,706826,248029,1483468,73896,9887,741313,0
2,3,710140,248375,1383233,74122,8970,691184,0
2,3,715187,249959,1447892,74925,9320,723377,0
2,3,715062,249653,1393643,74703,9651,696012,0
2,3,710856,249107,1354285,74282,9588,676765,0
2,3,708791,247467,1394881,73736,8307,696863,0
2,3,711433,248557,1413321,74399,8083,706198,0
2,3,715685,249347,1437928,74421,9251,718608,0
2,3,716342,249614,1357622,74778,8770,678427,0
2,3,713461,248643,1354547,74277,9415,676826,0
2,3,708058,248177,1358905,74125,8913,679077,0
2,3,730564,252708,1498105,77350,9879,748589,0
2,3,713072,249044,1438518,74264,9178,718893,0
2,3,711021,248614,1379626,74147,9042,689582,0
2,3,715670,249860,1437209,74736,9173,717724,0
2,3,712613,248579,1334602,74076,10454,666803,0
2,3,740498,258156,1455637,76982,9180,727450,0
2,3,711115,247710,1491925,73865,10104,745422,0
2,3,714945,248610,1666977,74320,11202,832893,0
2,3,716314,249985,1443615,75007,9935,720878,0
2,3,716209,248602,1299036,74321,10140,649125,0
2,3,716549,248925,1353920,74296,9425,676486,0
2,3,706765,248198,1430685,74084,9307,714991,0
2,3,710599,249398,1412366,74684,9322,705675,0
2,3,710948,249792,1328231,74628,9491,663625,0
2,3,711038,249694,1381215,74772,10097,689947,0
2,3,711678,248581,1368697,74219,9209,683844,0
2,3,709292,248898,1381057,74318,9373,690096,0
2,3,732085,253672,1501595,77702,10151,750303,0
2,3,713578,249448,1497387,74602,10187,748195,0
2,3,714770,249832,1484475,74683,10482,741805,0
2,3,714170,249590,1283878,74733,8990,641352,0
2,3,712528,249157,1614112,74608,11952,806377,0
2,3,736761,254174,1576247,78032,10670,787360,0
2,3,717368,249476,1434883,74630,9218,717135,0
2,3,712048,249900,1383065,74797,8942,691057,0
2,3,712868,248853,1573286,74480,9990,786057,0
2,3,714149,249288,1609242,74553,10202,804284,0
2,3,712554,249332,1326694,74580,10222,662858,0
2,3,717900,251098,1595962,75429,11360,796640,0
2,3,714202,249878,1441603,74728,10002,720394,0
2,3,719564,251507,1420353,75468,8972,709202,0
2,3,734518,254473,1495366,78009,10710,747195,0
2,3,716499,250079,1490643,74718,9397,744877,0
2,3,735252,253417,1408565,77674,10547,703813,0
2,3,716145,250329,1513064,74962,12147,755698,0
2,3,717383,250788,1382635,75205,9028,690746,0
2,3,715367,249300,1472056,74490,9960,735588,0
2,3,710935,250120,1339234,74807,8532,669283,0
2,3,716877,252097,1358553,75762,9101,678320,0
2,3,711617,249482,1427957,74610,9446,713579,0
2,3,713352,249824,1388099,74639,9726,693583,0
2,3,716127,249525,1419899,74503,9881,709598,0
2,3,713801,249632,1438743,74417,9497,718926,0
2,3,712298,248841,1447300,74150,8674,723230,0
2,3,737474,254719,1477650,77883,9815,738463,0
2,3,717425,251237,1308514,75175,9280,653539,0
2,3,718057,251672,1410624,75397,9542,704461,0
2,3,714807,249816,1344334,74522,8523,671753,0
2,3,713285,250682,1384552,75130,9184,691750,0
2,3,717456,250913,1591660,75250,11319,794502,0
2,3,711969,248992,1319170,74327,8667,659180,0
2,3,711726,248761,1477799,74215,8269,738488,0
2,3,713165,248640,1393470,74187,9029,696366,0
2,3,712501,248704,1398293,74217,9078,698674,0
2,3,711570,248885,1377120,74341,9333,688097,0
2,3,734670,253378,1371467,77609,9325,685158,0
2,3,712841,248518,1443662,74148,9728,721559,0
2,3,712428,248050,1349994,74009,8655,674545,0
2,3,735324,254110,1468768,77809,9581,733887,0
2,3,717884,250538,1407343,75146,9969,702850,0
2,3,717406,249992,1411009,74801,9408,704827,0
2,3,721300,250554,1290070,75160,9547,644176,0
2,3,716137,251244,1422657,75411,9962,710568,0
2,3,711512,249048,1596771,74279,10070,798064,0
2,3,713344,249320,1273771,74479,9143,636072,0
2,3,716426,250251,1363076,74964,9637,680925,0
2,3,713362,248463,1459128,74145,10122,729120,0
2,3,712796,249869,1496398,74790,9320,747565,0
2,3,733333,254142,1509861,77806,10876,754512,0
2,3,719593,251633,1383970,75390,9045,691271,0
2,3,717638,249730,1465979,74491,9559,732603,0
2,3,715666,249320,1461379,74342,9722,729855,0
2,3,717114,250319,1425627,74740,10136,712471,0
2,3,710087,249819,1515352,74545,8989,757276,0
2,3,710783,248297,1317584,74108,8114,658399,0
2,3,712995,249186,1404666,74444,9037,701905,0
2,3,735614,253743,1575579,77769,10670,787761,0
2,3,733813,252965,1694265,77494,11285,846787,0
2,3,715885,249074,1557201,74411,9614,778287,0
2,3,717997,249497,1364532,74541,9041,681915,0
2,3,713935,249478,1693702,74551,10878,846396,0
2,3,718672,250832,1290356,75152,9215,644526,0
2,3,718633,250572,1457344,74967,10264,727442,0
2,3,718614,250503,1539230,74898,9528,769013,0
2,3,716222,248945,1384107,74248,8891,691756,0
2,3,720522,251180,1396465,75327,9445,697702,0
2,3,711889,248804,1421107,74208,9400,710212,0
2,3,714099,250269,1318692,74980,9395,658875,0
2,3,710446,248584,1320546,74155,8752,659921,0
2,3,732770,253165,1498199,77445,10139,748793,0
2,3,735542,253574,1566291,77600,10175,782786,0
2,3,710798,249025,1453010,74297,9312,726137,0
2,3,714122,248891,1283837,74170,8937,641460,0
2,3,710830,248229,1502187,73994,9496,750781,0
2,3,715261,249203,1330094,74370,8734,664616,0
2,3,718812,250947,1472801,75090,9914,735864,0
2,3,712875,248334,1341529,74047,9577,670399,0
2,3,714515,248506,1434530,74055,10195,716820,0
2,3,715799,248309,1494533,74054,10303,746981,0
2,3,714308,249338,1485522,74450,9458,742038,0
2,3,713792,249463,1453579,74742,8705,726280,0
2,3,713488,247855,1350319,74050,8002,674892,0
2,3,733655,252891,1471871,77590,10248,735499,0
2,3,716655,249420,1339016,74842,9462,668950,0
2,3,734832,253161,1514706,77715,10176,756935,0
2,3,736772,252255,1476989,77428,10625,738162,0
2,3,715241,249236,1446526,74822,10449,722660,0
2,3,715695,248885,1500654,74496,9175,749581,0
2,3,711290,247177,1330300,73862,9463,664846,0
2,3,713456,247632,1348470,74053,9432,673746,0
2,3,735317,252910,1537450,77635,10242,768406,0
2,3,716715,248448,1484448,74380,9866,741907,0
2,3,713920,247833,1357012,74185,8528,678043,0
2,3,727252,253096,1465719,77691,10205,732453,0
2,3,702392,247717,1402573,74210,9247,700834,0
2,3,707561,247763,1457765,74169,9505,727375,0
2,3,708594,248892,1592797,74500,10156,796020,0
2,3,730202,253055,1550511,77676,10561,774724,0
2,3,730701,252836,1510962,77561,10790,755042,0
2,3,705678,248024,1427652,74258,9943,713008,0
2,3,705256,247805,1319031,74200,8680,658814,0
2,3,734314,256869,1384353,76859,8167,691626,0
2,3,705385,247526,1316573,74027,8681,657991,0
2,3,707492,247858,1461115,74188,9702,730257,0
2,3,709233,247398,1368171,73899,9466,683766,0
2,3,706347,247841,1485149,74127,8725,741891,0
2,3,708055,247940,1410562,74106,9770,704819,0
2,3,708455,247545,1525038,73873,9915,762136,0
2,3,707980,248334,1416965,74213,9277,708001,0
3,3,762879,266806,1538778,78801,9840,768524,0
3,3,783522,270700,1657508,81862,11317,828316,0
3,3,759654,266643,1491312,78775,9771,745110,0
3,3,762165,267202,1621294,78897,9406,810229,0
3,3,768283,268345,1472983,79527,10251,735986,0
3,3,761870,266857,1508800,78807,9166,754038,0
3,3,768739,269588,1692219,80096,10637,845334,0
3,3,767204,267972,1616422,79125,10599,807904,0
3,3,718888,251796,1531738,74955,10407,765166,0
3,3,705232,248192,1392883,73849,8815,696043,0
3,3,708230,249332,1387674,74376,9052,693217,0
3,3,708735,248828,1454125,73964,8888,726651,0
3,3,710821,248194,1524626,73740,9400,761912,0
3,3,708274,248538,1418848,73902,9129,708960,0
3,3,707586,248155,1569740,73648,10367,784444,0
3,3,717492,251131,1536182,74873,11317,767451,0
3,3,731442,253183,1448346,77099,9679,723648,0
3,3,708089,248214,1307218,73673,8642,653148,0
3,3,714917,249899,1516488,74434,9712,757758,0
3,3,716472,250814,1483629,74715,9209,741276,0
3,3,731489,252927,1386783,77059,10594,692914,0
3,3,711609,248645,1440139,73881,9830,719673,0
3,3,706339,250104,1450028,74466,8760,723847,0
3,3,707793,249205,1416019,74078,9034,707558,0
3,3,705732,247625,1427222,73489,8448,713313,0
3,3,704975,248473,1315818,73811,9263,657530,0
3,3,707695,248713,1320379,73812,8077,659713,0
3,3,705309,248028,1347831,73581,8555,673541,0
3,3,709187,248767,1333025,73824,8564,666199,0
3,3,722709,251549,1539390,76598,9047,769307,0
3,3,724832,252294,1341394,76931,9590,670247,0
3,3,707863,247878,1408269,73707,9618,703741,0
3,3,730148,252621,1451768,77106,10263,725505,0
3,3,711297,250042,1513075,74634,9935,755903,0
3,3,715779,250464,1433009,74811,9633,715890,0
3,3,704808,247537,1352421,73558,9456,675778,0
3,3,708751,248758,1682618,74087,11101,840794,0
3,3,708333,247803,1486426,73729,8329,742562,0
3,3,713116,250290,1477285,74873,9843,737888,0
3,3,729456,252752,1444737,77097,9519,722018,0
3,3,715814,249778,1534197,74368,9642,766660,0
3,3,732829,253462,1416264,77345,10122,707609,0
3,3,732399,253237,1520544,77056,8838,759968,0
3,3,709372,248095,1381006,73637,9593,690108,0
3,3,709654,248447,1440833,73773,9215,719938,0
3,3,709076,249174,1590686,73983,10130,794958,0
3,3,710242,248577,1304862,73745,8600,652102,0
3,3,712512,249607,1574963,74068,9965,788088,0
3,3,714994,250979,1412518,74956,10147,705666,0
3,3,708336,248825,1382823,73988,9361,690959,0
3,3,712646,249317,1376957,74119,9084,688132,0
3,3,705625,247980,1350720,73698,8561,674682,0
3,3,730202,253013,1417447,77137,9949,708393,0
3,3,708689,248309,1462231,73680,9068,730759,0
3,3,711873,249290,1347166,74221,9661,673238,0
3,3,711569,248684,1449856,74031,9642,724542,0
3,3,712206,248277,1402124,73960,8599,700729,0
3,3,706589,248199,1412079,73884,9322,705504,0
3,3,729822,253039,1435886,77308,9737,717528,0
3,3,709940,248846,1350247,74172,8863,674656,0
3,3,711528,248630,1570331,74037,10046,784540,0
3,3,713737,249261,1522406,74259,9653,760834,0
3,3,711532,248773,1492260,74036,9037,745728,0
3,3,708929,248428,1342971,73956,9536,670965,0
3,3,708869,247470,1442191,73734,9664,720740,0
3,3,710344,247989,1382023,73798,9108,690644,0
3,3,716501,250810,1463733,75106,9505,731316,0
3,3,713314,249131,1401174,74242,9354,700202,0
3,3,713539,248643,1350562,74055,9503,674885,0
3,3,734664,253111,1413573,77290,9980,706442,0
3,3,703754,249092,1303752,74204,8120,651448,0
3,3,705631,248546,1372046,73964,8686,685612,0
3,3,725001,252901,1327605,77234,9709,663381,0
3,3,706797,248608,1380670,74067,9829,689245,0
3,3,705920,248727,1390382,74084,9968,694800,0
3,3,707317,248337,1380499,73898,9816,689788,0
3,3,711016,250076,1442092,74751,10145,720421,0
3,3,710843,249069,1437614,74218,10341,718298,0
3,3,705377,247933,1333113,73796,9460,666143,0
3,3,727223,253322,1620937,77381,11351,809784,0
3,3,707406,248774,1289052,74049,8529,644131,0
3,3,704823,248057,1602779,73759,10224,800962,0
3,3,708621,248470,1527867,74008,9582,763686,0
3,3,730129,252939,1384931,77248,10723,691996,0
3,3,707926,250149,1466702,74843,9881,732709,0
3,3,703699,248088,1382373,73890,9101,690760,0
3,3,709109,250341,1482162,74871,9926,740733,0
3,3,709134,248461,1523022,73938,8625,761308,0
3,3,707313,248629,1343012,73979,9228,670975,0
3,3,709573,248602,1279608,73974,9402,639258,0
3,3,714270,250863,1432437,74964,9299,715326,0
3,3,713085,249289,1423754,74082,9546,711526,0
3,3,709204,249630,1464506,74276,9211,731750,0
3,3,711616,249599,1441191,74551,10630,719999,0
3,3,732052,253900,1404917,77488,9573,701887,0
3,3,709081,249179,1334730,74021,9360,666863,0
3,3,710217,249132,1402661,74116,9913,700899,0
3,3,714319,250591,1564629,74825,9724,781377,0
3,3,726392,253325,1398821,77305,9446,698998,0
3,3,706758,248850,1463129,74008,9611,731184,0
3,3,709537,249558,1448172,74256,9620,723612,0
3,3,710193,249079,1364748,73997,9209,682079,0
3,3,726972,252910,1419180,77159,10053,709152,0
3,3,708922,248779,1414978,73973,9529,707048,0
3,3,711425,249594,1462280,74289,9609,730732,0
3,3,732744,253460,1504454,77227,11174,751687,0
3,3,709378,249900,1404498,74303,9210,701860,0
3,3,707021,248799,1383008,73965,9934,691049,0
3,3,709603,249086,1411761,74087,8793,705441,0
3,3,712783,249489,1464251,74264,9336,731746,0
3,3,714387,250439,1462661,74701,9809,730919,0
3,3,711125,248835,1354684,74015,8387,677040,0
3,3,712748,249248,1428534,74128,9066,714021,0
3,3,708733,249771,1340306,74558,9380,669740,0
3,3,707875,248632,1440453,73921,8924,719765,0
3,3,726971,252658,1404995,77044,8899,702073,0
3,3,712337,249416,1516384,74193,9829,757094,0
3,3,713096,249121,1384800,74140,9069,691980,0
3,3,712999,249985,1460065,74391,9549,729658,0
3,3,716637,251049,1568863,75078,10426,782552,0
3,3,715652,250422,1493742,74735,9585,746440,0
3,3,712487,250210,1444550,74676,9087,721621,0
3,3,710205,248452,1360973,73920,9708,680141,0
3,3,713578,249011,1345953,74053,8889,672349,0
3,3,710135,250678,1508432,74927,9662,753558,0
3,3,705334,249125,1651261,74079,9685,825357,0
3,3,710822,249681,1457832,74320,8635,728481,0
3,3,705644,248603,1408732,73867,8103,704341,0
3,3,729734,253675,1322654,77356,9296,660895,0
3,3,709304,249508,1425202,74191,9054,712285,0
3,3,729117,253249,1413246,77268,9691,706164,0
3,3,705562,248399,1444284,73831,9374,721191,0
3,3,710513,248741,1463104,73972,9285,731210,0
3,3,706446,248245,1457200,73741,9027,728288,0
3,3,710141,248773,1305399,74002,9043,652182,0
3,3,730868,253435,1418139,77318,9676,708496,0
3,3,709437,248737,1380312,73928,8184,689759,0
3,3,712987,249320,1417647,74204,8826,708420,0
3,3,705856,248674,1414276,73944,9062,706742,0
3,3,713818,250638,1542727,74750,10954,770382,0
3,3,713327,251060,1615460,75039,10977,807008,0
3,3,708375,248710,1333759,73980,8712,666543,0
3,3,733265,258265,1442382,76831,9321,720865,0
3,3,730177,253474,1532993,77314,8949,766055,0
3,3,711080,249588,1433834,74250,9028,716466,0
3,3,713143,249403,1375543,74203,9189,687410,0
3,3,729053,253370,1506785,77296,9535,753087,0
3,3,712642,250211,1613688,74632,9424,806303,0
3,3,707483,248274,1495548,73759,8656,747452,0
3,3,708400,248119,1275558,73688,8700,637474,0
3,3,714788,250638,1484695,74779,9635,741794,0
3,3,711518,248859,1407790,74048,8657,703319,0
3,3,709366,248279,1310517,73699,8636,654841,0
3,3,711782,248543,1486654,73760,9852,743072,0
3,3,711700,251061,1481037,74881,9780,739957,0
3,3,708336,248974,1352616,73951,8149,675954,0
3,3,706226,248343,1438770,73667,9250,718990,0
3,3,706572,248466,1428459,73718,9566,713021,0
3,3,714781,250793,1353168,74780,9579,675734,0
3,3,710539,249454,1442076,74038,8764,720518,0
3,3,711987,248993,1407367,73968,8915,703162,0
3,3,710082,250410,1523754,74723,9743,760584,0
3,3,716475,251312,1584496,75050,9748,791521,0
3,3,712980,249018,1307754,73941,9342,653217,0
3,3,711530,249289,1457688,74066,9124,728157,0
3,3,717214,251104,1613253,74801,9509,805877,0
3,3,716142,250059,1610408,74247,9813,804948,0
3,3,719873,250669,1564315,74896,10904,781423,0
3,3,711190,249116,1445684,73970,10041,722367,0
3,3,711055,249754,1471226,74318,9735,735028,0
3,3,735523,254236,1599489,77563,10569,799403,0
3,3,715374,249676,1579645,74287,9797,789469,0
3,3,744943,261248,1541797,78067,9937,770114,0
3,3,717528,250950,1542966,74897,10267,770957,0
3,3,736380,253995,1501513,77524,10591,750337,0
3,3,734674,254641,1410690,77585,9737,704934,0
3,3,716294,249970,1462173,74167,10059,730758,0
3,3,735912,254232,1572907,77368,10435,786100,0
3,3,734824,254242,1410072,77385,10121,704679,0
3,3,717110,250085,1361741,74213,10029,680463,0
3,3,718013,250049,1520563,74185,10269,759887,0
3,3,719138,250612,1469735,74416,10198,734449,0
3,3,712207,250311,1338132,74329,9617,668609,0
3,3,713231,250967,1509274,74514,10496,754146,0
3,3,712724,249655,1396682,74013,9537,697948,0
3,3,714912,251152,1464158,74810,9610,731414,0
3,3,709463,249754,1316999,74204,8984,657965,0
3,3,713854,249572,1443911,74128,9846,721427,0
3,3,709562,249343,1520891,74043,9825,760023,0
3,3,715845,250900,1552029,74800,9276,775514,0
3,3,715614,250874,1459165,74943,9396,728858,0
3,3,717769,251627,1472051,75163,10309,735198,0
3,3,716609,250807,1492742,74726,9982,745686,0
3,3,714033,248989,1318008,73882,9134,658558,0
3,3,717796,251256,1519110,74931,10089,759005,0
3,3,709471,249179,1507032,74021,9450,753216,0
3,3,712218,250332,1345596,74723,9322,672284,0
3,3,710090,248522,1331531,73817,8533,665400,0
3,3,712763,250237,1426262,74617,9450,712643,0
3,3,717702,251337,1463891,75047,9640,731234,0
3,3,709910,248952,1436027,74096,9505,717476,0
3,3,708249,247561,1349868,73544,9046,674630,0
3,3,730514,253491,1407808,77248,9753,703506,0
3,3,712166,249010,1379244,73997,9706,689102,0
3,3,709940,248553,1409955,73804,9395,704633,0
3,3,713316,249430,1484497,74234,9260,741874,0
3,3,734032,254099,1426839,77528,9968,712972,0
3,3,711595,248790,1320306,74028,9232,659731,0
3,3,710735,250434,1478566,74757,9460,738541,0
3,3,715426,250733,1415363,74831,9746,707126,0
3,3,707403,248340,1386727,73784,8932,692948,0
3,3,712818,249150,1545745,74058,9756,772584,0
3,3,711816,249705,1588727,74183,10242,793578,0
3,3,711767,248906,1490072,73946,9292,744679,0
3,3,715664,250394,1351303,74703,9770,675101,0
3,3,705662,247716,1361144,73597,9036,680207,0
3,3,731253,253540,1602267,77252,10353,800885,0
3,3,707782,248242,1443497,73712,9254,721431,0
3,3,711844,248827,1462233,74000,9727,730682,0
3,3,711293,248316,1456986,73799,9834,728103,0
3,3,709736,248412,1456792,73840,9169,728004,0
3,3,735423,254386,1381650,77506,10390,690487,0
3,3,712710,248255,1328022,73724,9140,663759,0
3,3,712506,249935,1420665,74497,8967,709754,0
3,3,712513,249116,1331265,74045,9027,665299,0
3,3,717138,250040,1391650,74456,9567,695333,0
3,3,714044,250078,1416370,74491,9553,707522,0
3,3,739229,257690,1364996,76369,9342,682195,0
3,3,712327,248516,1540644,73626,9214,769869,0
3,3,719607,250712,1390369,74680,9462,694638,0
3,3,714674,249111,1373890,73869,9762,686601,0
3,3,713887,249611,1492483,74019,9807,745813,0
3,3,711735,249036,1456085,73790,10111,727618,0
3,3,715148,248996,1416234,73770,9452,707750,0
3,3,716829,249697,1450604,74255,9614,724761,0
3,3,708185,248802,1544462,73721,8733,771925,0
3,3,708989,248734,1335213,73764,8778,667064,0
3,3,714155,250728,1437841,74726,8983,718375,0
3,3,707152,248596,1374223,73789,8697,686720,0
3,3,731037,253000,1534484,77028,9434,766923,0
3,3,712723,249975,1375213,74437,8446,687115,0
3,3,710729,247811,1386648,73514,9474,693039,0
3,3,715769,251168,1383501,74901,9151,691158,0
3,3,729302,252887,1417352,76976,9557,708401,0
3,3,711164,248498,1492740,73801,9483,746022,0
3,3,709545,248456,1359228,73719,8099,679286,0
3,3,711187,248093,1326530,73651,9439,662527,0
3,3,710837,247856,1380232,73511,10065,689701,0
3,3,704476,247444,1324191,73333,8655,661776,0
3,3,708996,248605,1442719,73830,9317,721010,0
3,3,708332,248301,1437151,73649,9629,718054,0
3,3,731657,253260,1397396,77083,9502,698320,0
3,3,710562,248278,1572812,73691,10315,786000,0
3,3,707983,248558,1411643,73746,9184,705401,0
3,3,709238,247580,1323188,73459,9475,661170,0
3,3,717520,250297,1362820,74530,9855,680990,0
3,3,712552,248981,1406189,73901,10043,702668,0
3,3,713362,248858,1385086,73830,9683,692150,0
3,3,712731,248473,1512382,73774,10329,756504,0
3,3,713813,250866,1457014,74757,10013,727910,0
3,3,711430,249775,1543197,74357,9789,770614,0
3,3,709576,248279,1357139,73660,9448,678253,0
3,3,711496,249888,1347547,74211,8613,673420,0
3,3,711899,248744,1405881,73808,8607,702522,0
3,3,711907,248488,1477943,73671,9143,738647,0
3,3,711216,247692,1348899,73403,9182,674150,0
3,3,711257,248652,1553518,73791,10201,776333,0
3,3,714843,250174,1431674,74506,9444,715259,0
3,3,711452,247747,1424616,73414,9634,712043,0
3,3,711423,248719,1564423,73784,9662,782035,0
3,3,733531,253113,1530511,77081,10950,764830,0
3,3,713113,248861,1568945,73879,11822,784127,0
3,3,711867,248920,1545369,73805,10823,772286,0
3,3,711099,248310,1501609,73670,9639,750403,0
3,3,717650,251149,1331125,74890,9118,664916,0
3,3,707632,248199,1445749,73679,9180,722327,0
3,3,715517,250199,1317809,74587,8827,658240,0
3,3,712486,248472,1420311,73752,8993,709783,0
3,3,739052,257362,1523063,76330,9690,761178,0
3,3,709765,248491,1436875,73620,8647,718020,0
3,3,718286,250203,1373627,74522,8950,686190,0
3,3,714162,248725,1477872,73744,9756,738480,0
3,3,712166,247348,1534619,73380,9603,766818,0
3,3,713202,247858,1410459,73389,8576,704806,0
3,3,699221,247786,1451922,73010,8772,725536,0
3,3,704007,248569,1497884,73332,9007,747775,0
3,3,704243,249165,1431093,73517,9712,715076,0
3,3,704291,247805,1317501,73006,8946,658379,0
3,3,703407,247916,1401689,73040,9066,700362,0
3,3,706139,248430,1493413,73219,9167,746223,0
3,3,706174,248416,1444790,73247,9418,722073,0
3,3,707574,248758,1474437,73314,9258,736863,0
3,3,704572,247942,1354686,73012,9405,677064,0
3,3,708630,249302,1402079,73503,9328,700787,0
3,3,705425,248501,1421420,73237,9076,710223,0
3,3,709770,248939,1455986,73355,9128,727758,0
3,3,706471,247889,1455992,73023,8660,727547,0
3,3,708604,250525,1275360,74104,9164,636951,0
3,3,704525,248365,1492984,73176,9949,746052,0
3,3,725342,252914,1605601,76626,11168,802577,0
3,3,713431,250617,1401845,74351,9439,700203,0
3,3,710049,250051,1396099,74137,9528,697395,0
3,3,703942,247843,1616234,73227,9628,807787,0
3,3,706732,248003,1348356,73273,9318,673812,0
3,3,708638,248253,1467390,73315,9523,733235,0
3,3,710146,248789,1382124,74339,9931,690627,0
3,3,710558,248175,1603755,74118,10737,801296,0
3,3,711404,248555,1422209,74250,9740,710398,0
3,3,712773,249864,1422385,74848,10293,710430,0
3,3,711320,248453,1341667,74226,10063,670299,0
3,3,711778,248945,1438713,74445,9930,718780,0
3,3,710803,250262,1389428,75067,9852,693991,0
3,3,705573,247857,1320539,74042,9953,659995,0
3,3,709826,248618,1421225,74291,9399,710156,0
3,3,713733,250204,1381133,75093,9043,689775,0
3,3,712242,248601,1346063,74238,8825,672652,0
3,3,712763,249694,1384369,74914,8931,691481,0
3,3,731451,252997,1426701,77540,11351,712838,0
3,3,711427,249555,1355390,74599,10281,677306,0
3,3,709401,247717,1427593,73951,9178,713431,0
3,3,711372,248299,1467956,74161,9299,733674,0
3,3,712516,248183,1436473,74170,9478,717861,0
3,3,709023,248838,1466786,74379,9945,733064,0
3,3,711751,248800,1409095,74276,10307,704160,0
3,3,730469,253022,1525978,77503,11236,762469,0
3,3,713824,249653,1407141,74788,10554,702724,0
3,3,710213,248246,1438225,74177,9101,718752,0
3,3,714058,250190,1361339,75018,9154,680165,0
3,3,708624,248214,1319611,74116,9376,659424,0
3,3,708848,247660,1495920,73901,9090,747504,0
3,3,712437,248331,1502889,74208,9531,751016,0
3,3,710947,248177,1470482,74122,9131,734962,0
3,3,712522,248192,1416268,74101,9119,707771,0
3,3,711422,248131,1394801,74120,9246,697033,0
3,3,715990,248637,1434091,74229,9252,716652,0
3,3,710881,250028,1408417,75029,10216,703049,0
3,3,705754,247869,1292457,74017,9080,645913,0
3,3,707265,247834,1493585,74003,9830,746319,0
3,3,705841,248005,1495842,74011,8948,747616,0
3,3,714629,250241,1374409,75116,9221,686538,0
3,3,730147,252535,1422194,77361,10729,710698,0
3,3,714009,249857,1426991,74887,9674,712947,0
3,3,714004,249502,1408210,74800,10301,703202,0
3,3,711282,248890,1471864,74328,9979,734147,0
3,3,731765,253145,1339224,77566,9683,669194,0
3,3,711954,248379,1305225,74132,8434,652326,0
3,3,706931,248334,1463879,74117,9185,731646,0
3,3,729168,252910,1572063,77463,10121,785695,0
3,3,711875,249319,1357872,74721,8751,678421,0
3,3,714073,250371,1503209,75193,9573,750901,0
3,3,707983,248138,1257368,74086,9029,628364,0
3,3,711394,248354,1456540,74211,9425,727852,0
3,3,709460,248454,1463348,74187,9804,731273,0
3,3,711930,248463,1435394,74205,8971,716335,0
3,3,710632,248156,1340454,74103,8335,669966,0
3,3,714465,248943,1440206,74334,9714,719426,0
3,3,711655,248302,1392459,74186,9531,695849,0
3,3,710617,247852,1505160,73992,10144,752078,0
3,3,712169,250239,1457588,75102,10919,728097,0
3,3,710092,249809,1353955,74890,10431,676077,0
3,3,707655,247753,1457487,73778,8422,728330,0
3,3,705083,247652,1391900,73805,10096,695602,0
3,3,711255,248764,1393108,74167,9291,696201,0
3,3,710276,248294,1339046,74090,9075,669130,0
3,3,714530,249028,1496743,74327,10310,748002,0
3,3,712486,250215,1335341,74893,9581,666964,0
3,3,710451,248474,1457894,74159,9838,728561,0
3,3,707995,247992,1434822,74005,9007,716510,0
3,3,716286,250115,1383330,74941,9450,691104,0
3,3,711964,248782,1386888,74193,9469,693055,0
3,3,712720,248431,1274405,74167,8531,636818,0
3,3,733396,252834,1336994,77476,9851,668216,0
3,3,709499,248015,1310671,74102,8388,654967,0
3,3,710095,248295,1437884,74027,9387,718683,0
3,3,714992,248681,1495200,74333,10470,747174,0
3,3,712341,248352,1419934,74116,10098,709581,0
3,3,733427,253348,1413075,77516,10768,705774,0
3,3,737175,253319,1563460,77484,12868,781226,0
3,3,733512,253082,1546416,77515,9980,772713,0
3,3,713806,248542,1525144,74245,10197,762202,0
3,3,732325,252590,1509276,77352,10454,754142,0
3,3,714278,248741,1385419,74383,10436,692180,0
3,3,718251,249684,1332734,74754,10167,665547,0
3,3,707243,249870,1440933,74586,8697,720036,0
3,3,707322,248060,1415980,74177,10049,707591,0
3,3,707085,248408,1416499,74218,9979,707896,0
3,3,731425,254073,1515363,77919,10558,757284,0
3,3,711670,249366,1383152,74514,10565,691072,0
3,3,714178,249075,1431876,74392,9068,715471,0
3,3,710919,249208,1366504,74499,8618,682907,0
3,3,713913,249925,1382157,74670,9328,690708,0
3,3,714299,249326,1587966,74576,10696,793547,0
3,3,731116,253498,1559661,77788,11379,779077,0
3,3,714734,249171,1399703,74601,10301,699439,0
3,3,714567,249855,1342092,74772,9036,670497,0
3,3,716491,249374,1492616,74661,9910,745635,0
3,3,708443,248405,1451625,74297,9422,725374,0
3,3,716059,250563,1426527,75200,9008,712811,0
3,3,715789,250591,1360194,75130,8883,679695,0
3,3,717150,250810,1267250,75222,9319,632858,0
3,3,735925,254355,1465731,77976,11073,732461,0
3,3,716827,250463,1355726,75097,9289,677192,0
3,3,734840,253827,1531928,77815,10715,765529,0
3,3,717346,250554,1359073,75151,9614,678872,0
3,3,714482,249688,1500466,74654,9255,749768,0
3,3,713824,249299,1277415,74589,9247,638113,0
3,3,715419,250003,1345135,74763,9352,671964,0
3,3,714779,249372,1492846,74495,9888,746023,0
3,3,737381,253936,1553625,77846,10862,776335,0
3,3,719062,250112,1367753,74991,9458,683351,0
3,3,711797,249256,1440268,74483,8347,719784,0
3,3,712470,249441,1391699,74544,8729,695412,0
3,3,714494,250287,1344272,74712,9175,671546,0
3,3,712523,248749,1320858,74209,9027,660032,0
3,3,712906,249417,1358265,74409,8522,678693,0
3,3,712235,249369,1646657,74364,9905,822837,0
3,3,713716,249030,1431551,74269,8728,715387,0
3,3,714763,249337,1296216,74317,9320,647734,0
3,3,742763,255591,1569212,78688,10602,784211,0
3,3,715432,249865,1455226,74481,9197,727310,0
3,3,718982,250270,1361599,74918,9415,680178,0
3,3,709355,248450,1402865,74088,8919,700974,0
3,3,714713,250405,1306761,74951,8905,652641,0
3,3,711463,249248,1409388,74394,8425,704156,0
3,3,713376,249010,1509175,74384,10310,754177,0
3,3,734291,253711,1470956,77683,9968,735162,0
3,3,717668,250066,1516947,74647,9243,758148,0
3,3,711303,249105,1365617,74337,8858,682397,0
3,3,712555,248709,1401689,74262,9714,700490,0
3,3,714089,248804,1555661,74237,10185,777349,0
3,3,714272,249315,1313730,74456,8276,656470,0
3,3,714730,249136,1544276,74404,10124,771284,0
3,3,714732,248551,1346533,74163,9571,672863,0
3,3,738471,253455,1419761,77635,10862,709655,0
3,3,730867,253614,1490096,77658,10927,744592,0
3,3,713690,249017,1416065,74374,9906,707654,0
3,3,712660,249208,1331513,74429,9783,665355,0
3,3,711960,249114,1504775,74401,10896,751860,0
3,3,718771,251010,1416380,75277,9836,707517,0
3,3,708905,248876,1589388,74221,10282,794175,0
3,3,713820,249695,1418653,74555,9344,708840,0
3,3,714396,249812,1432394,74477,9201,715465,0
3,3,718979,250727,1486410,74852,9847,742777,0
3,3,717919,250408,1427820,74860,9735,712855,0
3,3,715614,250119,1559601,74676,9989,779384,0
3,3,717901,249080,1460874,74259,9336,730103,0
3,3,708997,247882,1403611,74058,9007,701171,0
3,3,732413,252896,1569167,77446,10180,784144,0
3,3,714332,248723,1430725,74258,9870,715007,0
3,3,718189,250222,1350825,75019,9535,674217,0
3,3,714276,249029,1408613,74439,8990,703830,0
3,3,716595,248869,1476628,74369,9440,737863,0
3,3,734474,253417,1529531,77663,10644,764348,0
3,3,715778,248640,1388570,74229,10342,693878,0
3,3,717206,249869,1520362,74626,12256,758579,0
3,3,739813,254342,1655259,77828,11061,826745,0
3,3,718091,249498,1448119,74446,8833,723671,0
3,3,743525,255096,1631802,78084,9684,815478,0
3,3,734402,254350,1475934,77739,10549,737583,0
3,3,732665,253869,1401919,77655,11030,700655,0
3,3,712580,248690,1405075,74109,9223,702306,0
3,3,712935,249244,1339340,74403,8705,669312,0
3,3,714390,249654,1462223,74519,8406,730737,0
3,3,713347,248111,1337127,73972,9004,668198,0
3,3,711485,248486,1332856,74132,9412,665978,0
3,3,718269,250822,1498268,75169,9958,748492,0
3,3,711583,248298,1468255,74028,9749,733760,0
3,3,715236,249792,1461260,74572,9542,730312,0
3,3,719435,251251,1421167,75269,10051,709926,0
3,3,713478,248566,1513007,74092,9615,756216,0
3,3,714545,248237,1323141,74108,10094,661120,0
3,3,709194,248388,1501783,74197,9027,750541,0
3,3,713616,249132,1497440,74448,9620,748337,0
3,3,735926,254036,1555666,77797,10091,777462,0
3,3,711541,248224,1310454,74309,8705,654932,0
3,3,712634,248468,1465888,74362,9216,732355,0
3,3,710019,247623,1282544,74013,9018,640856,0
3,3,712914,247747,1532941,74096,9324,765973,0
3,3,711186,248116,1508187,74259,9524,753718,0
3,3,712736,247771,1383787,74110,9345,691567,0
3,3,758892,261184,1655595,80079,11349,827624,0
3,3,712588,248020,1285907,74266,9498,642535,0
3,3,714093,247945,1364874,74235,9660,681814,0
3,3,713951,248028,1595003,74230,9712,797205,0
3,3,714526,247415,1488422,73943,9619,743899,0
3,3,705659,248261,1347163,74313,8701,673233,0
3,3,707012,247663,1339288,74099,8580,669141,0
3,3,707475,248274,1502156,74320,10101,750705,0
3,3,703529,247211,1439880,73944,9531,719593,0
3,3,707514,247744,1389643,74171,9412,693793,0
3,3,709603,248175,1428690,74287,9292,713159,0
3,3,704962,248075,1447584,74219,9460,723811,0
3,3,707514,247704,1434463,74064,9738,717067,0
3,3,707922,248206,1402027,74295,8695,700630,0
3,3,712853,250203,1420060,75224,9354,709385,0
3,3,712204,249760,1414471,74987,9022,706682,0
3,3,731358,252563,1376623,77536,9998,687884,0
3,3,708952,249584,1433462,74926,10445,716023,0
3,3,714016,250564,1460850,75333,10500,729831,0
3,3,710423,248863,1361711,74408,9520,680359,0
3,3,712392,249571,1448327,74811,9444,723583,0
