-1,0,0.0052356
-1,1,0.0034904
-1,2,0.0034904
-1,3,0.0034904
-1,4,0.0034904
-1,5,0.0034904
-1,6,0.0034904
-1,7,0.0034904
-1,8,0.0034904
-1,9,0.0034904
-1,10,0.0034904
-1,11,0.0034904
-1,12,0.0034904
-1,13,0.0034904
-1,14,0.0034904
-1,15,0.0034904
-1,16,0.0034904
-1,17,0.0034904
-1,18,0.0034904
-1,19,0.0034904
-1,20,0.0034904
-1,21,0.0034904
-1,22,0.0034904
-1,23,0.0034904
-1,24,0.0034904
-1,25,0.0034904
-1,26,0.0034904
-1,27,0.0034904
-1,28,0.0034904
-1,29,0.0034904
-1,30,0.0034904
-1,31,0.0034904
-1,32,0.0034904
-1,33,0.0034904
-1,34,0.0034904
-1,35,0.0034904
-1,36,0.0034904
-1,37,0.0017452
-1,38,0.0017452
-1,39,0.0017452
-1,40,0.0017452
-1,41,0.0017452
-1,42,0.0017452
-1,43,0.0017452
-1,44,0.0017452
-1,45,0.0017452
-1,46,0.0017452
-1,47,0.0017452
-1,48,0.0017452
-1,49,0.0017452
-1,50,0.0017452
-1,51,0.0017452
-1,52,0.0017452
-1,53,0.0017452
-1,54,0.0017452
-1,55,0.0017452
-1,56,0.0017452
-1,57,0.0017452
-1,58,0.0017452
-1,59,0.0017452
-1,60,0.0017452
-1,61,0.0017452
-1,62,0.0017452
-1,63,0.0017452
-1,64,0.0017452
-1,65,0.0017452
-1,66,0.0017452
-1,67,0.0017452
-1,68,0.0017452
-1,69,0.0017452
-1,70,0.0017452
-1,71,0.0017452
-1,72,0.0017452
-1,73,0.0017452
-1,74,0.0017452
-1,75,0.0017452
-1,76,0.0017452
-1,77,0.0017452
-1,78,0.0017452
-1,79,0.0017452
-1,80,0.0017452
-1,81,0.0017452
-1,82,0.0017452
-1,83,0.0017452
-1,84,0.0017452
-1,85,0.0017452
-1,86,0.0017452
-1,87,0.0017452
-1,88,0.0017452
-1,89,0.0017452
-1,90,0.0017452
-1,91,0.0017452
-1,92,0.0017452
-1,93,0.0017452
-1,94,0.0017452
-1,95,0.0017452
-1,96,0.0017452
-1,97,0.0017452
-1,98,0.0017452
-1,99,0.0017452
-1,100,0.0017452
-1,101,0.0017452
-1,102,0.0017452
-1,103,0.0017452
-1,104,0.0017452
-1,105,0.0017452
-1,106,0.0017452
-1,107,0.0017452
-1,108,0.0017452
-1,109,0.0017452
-1,110,0.0017452
-1,111,0.0017452
-1,112,0.0017452
-1,113,0.0017452
-1,114,0.0017452
-1,115,0.0017452
-1,116,0.0017452
-1,117,0.0017452
-1,118,0.0017452
-1,119,0.0017452
-1,120,0.0017452
-1,121,0.0017452
-1,122,0.0017452
-1,123,0.0017452
-1,124,0.0017452
-1,125,0.0017452
-1,126,0.0017452
-1,127,0.0017452
-1,128,0.0017452
-1,129,0.0017452
-1,130,0.0017452
-1,131,0.0017452
-1,132,0.0017452
-1,133,0.0017452
-1,134,0.0017452
-1,135,0.0017452
-1,136,0.0017452
-1,137,0.0017452
-1,138,0.0017452
-1,139,0.0017452
-1,140,0.0017452
-1,141,0.0017452
-1,142,0.0017452
-1,143,0.0017452
-1,144,0.0017452
-1,145,0.0017452
-1,146,0.0017452
-1,147,0.0017452
-1,148,0.0017452
-1,149,0.0017452
-1,150,0.0017452
-1,151,0.0017452
-1,152,0.0017452
-1,153,0.0017452
-1,154,0.0017452
-1,155,0.0017452
-1,156,0.0017452
-1,157,0.0017452
-1,158,0.0017452
-1,159,0.0017452
-1,160,0.0017452
-1,161,0.0017452
-1,162,0.0017452
-1,163,0.0017452
-1,164,0.0017452
-1,165,0.0017452
-1,166,0.0017452
-1,167,0.0017452
-1,168,0.0017452
-1,169,0.0017452
-1,170,0.0017452
-1,171,0.0017452
-1,172,0.0017452
-1,173,0.0017452
-1,174,0.0017452
-1,175,0.0017452
-1,176,0.0017452
-1,177,0.0017452
-1,178,0.0017452
-1,179,0.0017452
-1,180,0.0017452
-1,181,0.0017452
-1,182,0.0017452
-1,183,0.0017452
-1,184,0.0017452
-1,185,0.0017452
-1,186,0.0017452
-1,187,0.0017452
-1,188,0.0017452
-1,189,0.0017452
-1,190,0.0017452
-1,191,0.0017452
-1,192,0.0017452
-1,193,0.0017452
-1,194,0.0017452
-1,195,0.0017452
-1,196,0.0017452
-1,197,0.0017452
-1,198,0.0017452
-1,199,0.0017452
-1,200,0.0017452
-1,201,0.0017452
-1,202,0.0017452
-1,203,0.0017452
-1,204,0.0017452
-1,205,0.0017452
-1,206,0.0017452
-1,207,0.0017452
-1,208,0.0017452
-1,209,0.0017452
-1,210,0.0017452
-1,211,0.0017452
-1,212,0.0017452
-1,213,0.0017452
-1,214,0.0017452
-1,215,0.0017452
-1,216,0.0017452
-1,217,0.0017452
-1,218,0.0017452
-1,219,0.0017452
-1,220,0.0017452
-1,221,0.0017452
-1,222,0.0017452
-1,223,0.0017452
-1,224,0.0017452
-1,225,0.0017452
-1,226,0.0017452
-1,227,0.0017452
-1,228,0.0017452
-1,229,0.0017452
-1,230,0.0017452
-1,231,0.0017452
-1,232,0.0017452
-1,233,0.0017452
-1,234,0.0017452
-1,235,0.0017452
-1,236,0.0017452
-1,237,0.0017452
-1,238,0.0017452
-1,239,0.0017452
-1,240,0.0017452
-1,241,0.0017452
-1,242,0.0017452
-1,243,0.0017452
-1,244,0.0017452
-1,245,0.0017452
-1,246,0.0017452
-1,247,0.0017452
-1,248,0.0017452
-1,249,0.0017452
-1,250,0.0017452
-1,251,0.0017452
-1,252,0.0017452
-1,253,0.0017452
-1,254,0.0017452
-1,255,0.0017452
-1,256,0.0017452
-1,257,0.0017452
-1,258,0.0017452
-1,259,0.0017452
-1,260,0.0017452
-1,261,0.0017452
-1,262,0.0017452
-1,263,0.0017452
-1,264,0.0017452
-1,265,0.0017452
-1,266,0.0017452
-1,267,0.0017452
-1,268,0.0017452
-1,269,0.0017452
-1,270,0.0017452
-1,271,0.0017452
-1,272,0.0017452
-1,273,0.0017452
-1,274,0.0017452
-1,275,0.0017452
-1,276,0.0017452
-1,277,0.0017452
-1,278,0.0017452
-1,279,0.0017452
-1,280,0.0017452
-1,281,0.0017452
-1,282,0.0017452
-1,283,0.0017452
-1,284,0.0017452
-1,285,0.0017452
-1,286,0.0017452
-1,287,0.0017452
-1,288,0.0017452
-1,289,0.0017452
-1,290,0.0017452
-1,291,0.0017452
-1,292,0.0017452
-1,293,0.0017452
-1,294,0.0017452
-1,295,0.0017452
-1,296,0.0017452
-1,297,0.0017452
-1,298,0.0017452
-1,299,0.0017452
-1,300,0.0017452
-1,301,0.0017452
-1,302,0.0017452
-1,303,0.0017452
-1,304,0.0017452
-1,305,0.0017452
-1,306,0.0017452
-1,307,0.0017452
-1,308,0.0017452
-1,309,0.0017452
-1,310,0.0017452
-1,311,0.0017452
-1,312,0.0017452
-1,313,0.0017452
-1,314,0.0017452
-1,315,0.0017452
-1,316,0.0017452
-1,317,0.0017452
-1,318,0.0017452
-1,319,0.0017452
-1,320,0.0017452
-1,321,0.0017452
-1,322,0.0017452
-1,323,0.0017452
-1,324,0.0017452
-1,325,0.0017452
-1,326,0.0017452
-1,327,0.0017452
-1,328,0.0017452
-1,329,0.0017452
-1,330,0.0017452
-1,331,0.0017452
-1,332,0.0017452
-1,333,0.0017452
-1,334,0.0017452
-1,335,0.0017452
-1,336,0.0017452
-1,337,0.0017452
-1,338,0.0017452
-1,339,0.0017452
-1,340,0.0017452
-1,341,0.0017452
-1,342,0.0017452
-1,343,0.0017452
-1,344,0.0017452
-1,345,0.0017452
-1,346,0.0017452
-1,347,0.0017452
-1,348,0.0017452
-1,349,0.0017452
-1,350,0.0017452
-1,351,0.0017452
-1,352,0.0017452
-1,353,0.0017452
-1,354,0.0017452
-1,355,0.0017452
-1,356,0.0017452
-1,357,0.0017452
-1,358,0.0017452
-1,359,0.0017452
-1,360,0.0017452
-1,361,0.0017452
-1,362,0.0017452
-1,363,0.0017452
-1,364,0.0017452
-1,365,0.0017452
-1,366,0.0017452
-1,367,0.0017452
-1,368,0.0017452
-1,369,0.0017452
-1,370,0.0017452
-1,371,0.0017452
-1,372,0.0017452
-1,373,0.0017452
-1,374,0.0017452
-1,375,0.0017452
-1,376,0.0017452
-1,377,0.0017452
-1,378,0.0017452
-1,379,0.0017452
-1,380,0.0017452
-1,381,0.0017452
-1,382,0.0017452
-1,383,0.0017452
-1,384,0.0017452
-1,385,0.0017452
-1,386,0.0017452
-1,387,0.0017452
-1,388,0.0017452
-1,389,0.0017452
-1,390,0.0017452
-1,391,0.0017452
-1,392,0.0017452
-1,393,0.0017452
-1,394,0.0017452
-1,395,0.0017452
-1,396,0.0017452
-1,397,0.0017452
-1,398,0.0017452
-1,399,0.0017452
-1,400,0.0017452
-1,401,0.0017452
-1,402,0.0017452
-1,403,0.0017452
-1,404,0.0017452
-1,405,0.0017452
-1,406,0.0017452
-1,407,0.0017452
-1,408,0.0017452
-1,409,0.0017452
-1,410,0.0017452
-1,411,0.0017452
-1,412,0.0017452
-1,413,0.0017452
-1,414,0.0017452
-1,415,0.0017452
-1,416,0.0017452
-1,417,0.0017452
-1,418,0.0017452
-1,419,0.0017452
-1,420,0.0017452
-1,421,0.0017452
-1,422,0.0017452
-1,423,0.0017452
-1,424,0.0017452
-1,425,0.0017452
-1,426,0.0017452
-1,427,0.0017452
-1,428,0.0017452
-1,429,0.0017452
-1,430,0.0017452
-1,431,0.0017452
-1,432,0.0017452
-1,433,0.0017452
-1,434,0.0017452
-1,435,0.0017452
-1,436,0.0017452
-1,437,0.0017452
-1,438,0.0017452
-1,439,0.0017452
-1,440,0.0017452
-1,441,0.0017452
-1,442,0.0017452
-1,443,0.0017452
-1,444,0.0017452
-1,445,0.0017452
-1,446,0.0017452
-1,447,0.0017452
-1,448,0.0017452
-1,449,0.0017452
-1,450,0.0017452
-1,451,0.0017452
-1,452,0.0017452
-1,453,0.0017452
-1,454,0.0017452
-1,455,0.0017452
-1,456,0.0017452
-1,457,0.0017452
-1,458,0.0017452
-1,459,0.0017452
-1,460,0.0017452
-1,461,0.0017452
-1,462,0.0017452
-1,463,0.0017452
-1,464,0.0017452
-1,465,0.0017452
-1,466,0.0017452
-1,467,0.0017452
-1,468,0.0017452
-1,469,0.0017452
-1,470,0.0017452
-1,471,0.0017452
-1,472,0.0017452
-1,473,0.0017452
-1,474,0.0017452
-1,475,0.0017452
-1,476,0.0017452
-1,477,0.0017452
-1,478,0.0017452
-1,479,0.0017452
-1,480,0.0017452
-1,481,0.0017452
-1,482,0.0017452
-1,483,0.0017452
-1,484,0.0017452
-1,485,0.0017452
-1,486,0.0017452
-1,487,0.0017452
-1,488,0.0017452
-1,489,0.0034904
-1,490,0.0034904
-1,491,0.0034904
-1,492,0.0034904
-1,493,0.0034904
-1,494,0.0034904
-1,495,0.0034904
-1,496,0.0034904
-1,497,0.0034904
-1,498,0.0034904
-1,499,0.0034904
-1,500,0.0034904
-1,501,0.0034904
-1,502,0.0034904
-1,503,0.0034904
-1,504,0.0034904
-1,505,0.0034904
-1,506,0.0034904
-1,507,0.0034904
-1,508,0.0034904
-1,509,0.0034904
-1,510,0.0034904
-1,511,0.0034904
2,0,0.00217234
2,1,0.00144823
2,2,0.00144823
2,3,0.00144823
2,4,0.00144823
2,5,0.00144823
2,6,0.00144823
2,7,0.00144823
2,8,0.00144823
2,9,0.00144823
2,10,0.00144823
2,11,0.00144823
2,12,0.00144823
2,13,0.00144823
2,14,0.00144823
2,15,0.00144823
2,16,0.00144823
2,17,0.00144823
2,18,0.00144823
2,19,0.00144823
2,20,0.00144823
2,21,0.00144823
2,22,0.00144823
2,23,0.00144823
2,24,0.00144823
2,25,0.00144823
2,26,0.00144823
2,27,0.00144823
2,28,0.00144823
2,29,0.00144823
2,30,0.00144823
2,31,0.00144823
2,32,0.00144823
2,33,0.00144823
2,34,0.00144823
2,35,0.00144823
2,36,0.00144823
2,37,0.00144823
2,38,0.00144823
2,39,0.00144823
2,40,0.00144823
2,41,0.00144823
2,42,0.00144823
2,43,0.00144823
2,44,0.00144823
2,45,0.00144823
2,46,0.00144823
2,47,0.00144823
2,48,0.00144823
2,49,0.00144823
2,50,0.00144823
2,51,0.00144823
2,52,0.00144823
2,53,0.00144823
2,54,0.00144823
2,55,0.00144823
2,56,0.00144823
2,57,0.00144823
2,58,0.00144823
2,59,0.00144823
2,60,0.00144823
2,61,0.00144823
2,62,0.00144823
2,63,0.00144823
2,64,0.00144823
2,65,0.00144823
2,66,0.00144823
2,67,0.00144823
2,68,0.00144823
2,69,0.00144823
2,70,0.00144823
2,71,0.00144823
2,72,0.00144823
2,73,0.00144823
2,74,0.00144823
2,75,0.00144823
2,76,0.00144823
2,77,0.00144823
2,78,0.00144823
2,79,0.00144823
2,80,0.00144823
2,81,0.00144823
2,82,0.00144823
2,83,0.00144823
2,84,0.00144823
2,85,0.00144823
2,86,0.00144823
2,87,0.00144823
2,88,0.00144823
2,89,0.00144823
2,90,0.00144823
2,91,0.00144823
2,92,0.00144823
2,93,0.00144823
2,94,0.00144823
2,95,0.00144823
2,96,0.00144823
2,97,0.00144823
2,98,0.00144823
2,99,0.00144823
2,100,0.00144823
2,101,0.00144823
2,102,0.00144823
2,103,0.00144823
2,104,0.00144823
2,105,0.00144823
2,106,0.00144823
2,107,0.00144823
2,108,0.00144823
2,109,0.00144823
2,110,0.00144823
2,111,0.00144823
2,112,0.00144823
2,113,0.00144823
2,114,0.00144823
2,115,0.00144823
2,116,0.00144823
2,117,0.00144823
2,118,0.00144823
2,119,0.00144823
2,120,0.00144823
2,121,0.00144823
2,122,0.00144823
2,123,0.00144823
2,124,0.00144823
2,125,0.00144823
2,126,0.00144823
2,127,0.00144823
2,128,0.00144823
2,129,0.00144823
2,130,0.00144823
2,131,0.00144823
2,132,0.00144823
2,133,0.00144823
2,134,0.00144823
2,135,0.00144823
2,136,0.00144823
2,137,0.00144823
2,138,0.00144823
2,139,0.00144823
2,140,0.00144823
2,141,0.00144823
2,142,0.00144823
2,143,0.00144823
2,144,0.00144823
2,145,0.00144823
2,146,0.00144823
2,147,0.00144823
2,148,0.00144823
2,149,0.00144823
2,150,0.00144823
2,151,0.00144823
2,152,0.00144823
2,153,0.00144823
2,154,0.00144823
2,155,0.00144823
2,156,0.00217234
2,157,0.00217234
2,158,0.00217234
2,159,0.00217234
2,160,0.00217234
2,161,0.00217234
2,162,0.00217234
2,163,0.00217234
2,164,0.00217234
2,165,0.00217234
2,166,0.00217234
2,167,0.00217234
2,168,0.00217234
2,169,0.00217234
2,170,0.00217234
2,171,0.00217234
2,172,0.00217234
2,173,0.00217234
2,174,0.00217234
2,175,0.00217234
2,176,0.00217234
2,177,0.00217234
2,178,0.00217234
2,179,0.00217234
2,180,0.00217234
2,181,0.00217234
2,182,0.00217234
2,183,0.00217234
2,184,0.00217234
2,185,0.00217234
2,186,0.00217234
2,187,0.00217234
2,188,0.00217234
2,189,0.00217234
2,190,0.00217234
2,191,0.00217234
2,192,0.00217234
2,193,0.00217234
2,194,0.00217234
2,195,0.00217234
2,196,0.00217234
2,197,0.00217234
2,198,0.00217234
2,199,0.00217234
2,200,0.00217234
2,201,0.00217234
2,202,0.00217234
2,203,0.00217234
2,204,0.00217234
2,205,0.00217234
2,206,0.00217234
2,207,0.00217234
2,208,0.00217234
2,209,0.00217234
2,210,0.00217234
2,211,0.00217234
2,212,0.00217234
2,213,0.00217234
2,214,0.00217234
2,215,0.00217234
2,216,0.00217234
2,217,0.00217234
2,218,0.00217234
2,219,0.00217234
2,220,0.00217234
2,221,0.00217234
2,222,0.00217234
2,223,0.00217234
2,224,0.00217234
2,225,0.00217234
2,226,0.00217234
2,227,0.00217234
2,228,0.00217234
2,229,0.00217234
2,230,0.00217234
2,231,0.00217234
2,232,0.00217234
2,233,0.00217234
2,234,0.00217234
2,235,0.00217234
2,236,0.00217234
2,237,0.00217234
2,238,0.00217234
2,239,0.00217234
2,240,0.00217234
2,241,0.00217234
2,242,0.00217234
2,243,0.00217234
2,244,0.00217234
2,245,0.00217234
2,246,0.00217234
2,247,0.00217234
2,248,0.00217234
2,249,0.00217234
2,250,0.00217234
2,251,0.00217234
2,252,0.00217234
2,253,0.00217234
2,254,0.00217234
2,255,0.00217234
2,256,0.00217234
2,257,0.00217234
2,258,0.00217234
2,259,0.00217234
2,260,0.00217234
2,261,0.00217234
2,262,0.00217234
2,263,0.00217234
2,264,0.00217234
2,265,0.00217234
2,266,0.00217234
2,267,0.00217234
2,268,0.00217234
2,269,0.00217234
2,270,0.00217234
2,271,0.00217234
2,272,0.00217234
2,273,0.00217234
2,274,0.00217234
2,275,0.00217234
2,276,0.00217234
2,277,0.00217234
2,278,0.00217234
2,279,0.00217234
2,280,0.00217234
2,281,0.00217234
2,282,0.00217234
2,283,0.00217234
2,284,0.00217234
2,285,0.00217234
2,286,0.00217234
2,287,0.00217234
2,288,0.00217234
2,289,0.00217234
2,290,0.00217234
2,291,0.00217234
2,292,0.00217234
2,293,0.00217234
2,294,0.00217234
2,295,0.00217234
2,296,0.00217234
2,297,0.00217234
2,298,0.00217234
2,299,0.00217234
2,300,0.00217234
2,301,0.00217234
2,302,0.00217234
2,303,0.00217234
2,304,0.00217234
2,305,0.00217234
2,306,0.00217234
2,307,0.00217234
2,308,0.00217234
2,309,0.00217234
2,310,0.00217234
2,311,0.00217234
2,312,0.00217234
2,313,0.00217234
2,314,0.00217234
2,315,0.00217234
2,316,0.00217234
2,317,0.00217234
2,318,0.00217234
2,319,0.00217234
2,320,0.00217234
2,321,0.00217234
2,322,0.00217234
2,323,0.00217234
2,324,0.00217234
2,325,0.00217234
2,326,0.00217234
2,327,0.00217234
2,328,0.00217234
2,329,0.00217234
2,330,0.00217234
2,331,0.00217234
2,332,0.00217234
2,333,0.00217234
2,334,0.00217234
2,335,0.00217234
2,336,0.00217234
2,337,0.00217234
2,338,0.00217234
2,339,0.00217234
2,340,0.00217234
2,341,0.00217234
2,342,0.00217234
2,343,0.00217234
2,344,0.00217234
2,345,0.00217234
2,346,0.00217234
2,347,0.00217234
2,348,0.00217234
2,349,0.00217234
2,350,0.00217234
2,351,0.00217234
2,352,0.00217234
2,353,0.00217234
2,354,0.00217234
2,355,0.00217234
2,356,0.00217234
2,357,0.00217234
2,358,0.00217234
2,359,0.00217234
2,360,0.00217234
2,361,0.00217234
2,362,0.00217234
2,363,0.00217234
2,364,0.00217234
2,365,0.00217234
2,366,0.00217234
2,367,0.00217234
2,368,0.00217234
2,369,0.00217234
2,370,0.00217234
2,371,0.00217234
2,372,0.00217234
2,373,0.00217234
2,374,0.00217234
2,375,0.00217234
2,376,0.00217234
2,377,0.00217234
2,378,0.00217234
2,379,0.00217234
2,380,0.00217234
2,381,0.00217234
2,382,0.00217234
2,383,0.00217234
2,384,0.00217234
2,385,0.00217234
2,386,0.00217234
2,387,0.00217234
2,388,0.00217234
2,389,0.00217234
2,390,0.00217234
2,391,0.00217234
2,392,0.00217234
2,393,0.00217234
2,394,0.00217234
2,395,0.00217234
2,396,0.00217234
2,397,0.00217234
2,398,0.00217234
2,399,0.00217234
2,400,0.00217234
2,401,0.00217234
2,402,0.00217234
2,403,0.00217234
2,404,0.00217234
2,405,0.00217234
2,406,0.00217234
2,407,0.00217234
2,408,0.00217234
2,409,0.00217234
2,410,0.00217234
2,411,0.00217234
2,412,0.00217234
2,413,0.00217234
2,414,0.00217234
2,415,0.00217234
2,416,0.00217234
2,417,0.00217234
2,418,0.00217234
2,419,0.00217234
2,420,0.00217234
2,421,0.00217234
2,422,0.00217234
2,423,0.00217234
2,424,0.00217234
2,425,0.00217234
2,426,0.00217234
2,427,0.00217234
2,428,0.00217234
2,429,0.00217234
2,430,0.00217234
2,431,0.00217234
2,432,0.00217234
2,433,0.00217234
2,434,0.00217234
2,435,0.00217234
2,436,0.00217234
2,437,0.00217234
2,438,0.00217234
2,439,0.00217234
2,440,0.00217234
2,441,0.00217234
2,442,0.00217234
2,443,0.00217234
2,444,0.00217234
2,445,0.00217234
2,446,0.00217234
2,447,0.00217234
2,448,0.00217234
2,449,0.00217234
2,450,0.00217234
2,451,0.00217234
2,452,0.00217234
2,453,0.00217234
2,454,0.00217234
2,455,0.00217234
2,456,0.00217234
2,457,0.00217234
2,458,0.00217234
2,459,0.00217234
2,460,0.00217234
2,461,0.00217234
2,462,0.00217234
2,463,0.00217234
2,464,0.00217234
2,465,0.00217234
2,466,0.00217234
2,467,0.00217234
2,468,0.00217234
2,469,0.00217234
2,470,0.00217234
2,471,0.00217234
2,472,0.00217234
2,473,0.00217234
2,474,0.00217234
2,475,0.00217234
2,476,0.00217234
2,477,0.00217234
2,478,0.00217234
2,479,0.00217234
2,480,0.00217234
2,481,0.00217234
2,482,0.00217234
2,483,0.00217234
2,484,0.00217234
2,485,0.00217234
2,486,0.00217234
2,487,0.00217234
2,488,0.00217234
2,489,0.00217234
2,490,0.00217234
2,491,0.00217234
2,492,0.00217234
2,493,0.00217234
2,494,0.00217234
2,495,0.00217234
2,496,0.00217234
2,497,0.00217234
2,498,0.00217234
2,499,0.00217234
2,500,0.00217234
2,501,0.00217234
2,502,0.00217234
2,503,0.00217234
2,504,0.00217234
2,505,0.00217234
2,506,0.00217234
2,507,0.00217234
2,508,0.00217234
2,509,0.00217234
2,510,0.00217234
2,511,0.00217234
