0,-1,719486,248401,1397528,73730,8786,698434,0
0,1,761268,266186,1368281,78495,8761,683771,0
0,1,757184,265990,1471999,78563,8563,735512,1
0,-1,661473,229604,1326283,68635,7489,662737,2
0,-1,666802,231553,1340292,69467,8178,669199,0
0,-1,666558,230551,1338555,69036,8215,668994,0
0,-1,663465,230615,1231096,69016,7794,615189,0
0,-1,662793,230697,1297793,69058,7741,648479,0
0,1,711279,249233,1340248,74165,9531,669404,0
0,-1,687896,235238,1602151,72102,9441,800461,0
0,-1,667911,230480,1309696,68840,7809,654472,0
0,-1,665914,230049,1420521,68617,7719,709884,0
0,-1,670837,230565,1348844,68794,8217,674065,0
0,1,711688,248214,1519960,74072,9351,759636,0
0,-1,670976,232855,1350652,70371,8270,674767,0
0,-1,668775,231087,1264138,69434,8055,631407,0
0,-1,671048,230631,1414768,69330,9350,706761,0
1,1,761364,266267,1429910,78609,8788,714725,1
1,-1,670158,232768,1345396,69890,7901,672097,2
1,-1,662254,229741,1210790,68699,7187,604988,0
1,-1,672254,230654,1326693,69092,7761,662977,0
1,-1,664375,231593,1173540,69307,7331,586385,0
1,-1,666214,231989,1397081,69605,7789,697964,0
1,1,706384,247199,1395218,73321,10338,696887,0
1,-1,668461,231109,1309223,68993,8770,654249,0
1,-1,669777,230825,1317348,69013,8663,658277,0
1,-1,661887,229584,1335764,68411,7387,667517,0
1,-1,692319,234778,1455205,71988,9583,727154,0
1,1,705734,246987,1381875,73739,8209,690557,0
1,-1,664014,229914,1293226,69112,7505,646283,0
1,-1,665269,230134,1310775,69191,7859,654723,0
1,-1,673445,231972,1297240,70011,8370,647945,0
2,-1,666260,230166,1224590,68772,7660,611982,2
2,-1,667110,232053,1333022,69700,8163,665636,0
2,1,711890,249667,1383375,74547,8931,691084,1
2,-1,669788,229993,1236205,68884,6879,617822,0
2,-1,662620,230635,1254715,69021,7586,626348,0
2,-1,668940,230813,1352495,69070,7438,675847,0
2,1,710223,248333,1396596,73657,9735,698146,0
2,-1,666144,230943,1311722,69083,8611,655185,0
2,-1,672157,232221,1310534,69701,8652,654430,0
2,-1,665411,230678,1240548,68851,8005,619885,0
2,-1,670269,230164,1247185,68659,7912,623321,0
2,1,727665,252480,1356669,77282,10067,677936,0
2,-1,664228,230292,1317371,69197,8315,658280,0
2,-1,664161,230099,1242852,69177,7386,621074,0
2,-1,698289,240219,1413970,72204,8104,706574,0
3,-1,665191,230193,1367972,68842,8261,683604,2
3,-1,682714,234602,1306950,72080,9589,653071,0
3,1,709437,248027,1289809,73839,8029,644478,1
3,-1,691234,234912,1438437,72305,8319,718668,0
3,-1,665028,232335,1330214,69742,8133,664501,0
3,-1,669080,231172,1344891,69139,8086,672051,0
3,1,708540,248331,1499243,73764,9577,749214,0
3,-1,664600,230686,1257182,69008,7931,628240,0
3,-1,688639,235255,1291756,72300,8817,645536,0
3,-1,669936,230503,1348909,68765,7944,674129,0
3,-1,673043,231760,1293102,69321,8330,646094,0
3,1,708428,246897,1350033,73631,8550,674635,0
3,-1,663153,230314,1317431,69218,7903,658298,0
3,-1,669279,231578,1232655,69861,8118,615703,0
3,-1,670578,231337,1320014,69729,7753,659496,0
4,-1,660686,230417,1224048,68968,7481,611495,2
4,-1,669119,230208,1185503,68882,7534,592363,0
4,1,709694,247929,1378243,73803,9184,688787,1
4,-1,671122,231497,1328841,69339,7743,664105,0
4,-1,684320,235679,1287257,72392,7797,643268,0
4,-1,667192,230588,1231666,68940,7494,615537,0
4,1,732193,252448,1422835,76860,9685,711106,0
4,-1,664584,230273,1322438,68831,7964,660880,0
4,-1,671469,231836,1405107,69581,9164,701770,0
4,-1,670243,231053,1242366,68981,7957,621032,0
4,-1,671431,230459,1385523,68805,8410,692247,0
4,1,711652,248209,1353603,74121,8305,676452,0
4,-1,664160,230402,1310849,69213,8472,654908,0
4,-1,666552,231362,1437931,69579,9543,718532,0
4,-1,667338,229980,1285978,68952,8238,641624,0
5,-1,661559,230200,1300260,68882,6991,649603,2
5,-1,673740,232288,1278171,69669,8776,638696,0
5,1,706503,248093,1386671,73857,8160,692913,1
5,-1,672962,231894,1337815,69692,7729,668418,0
5,-1,669411,230394,1341712,68895,8311,670429,0
5,-1,670980,232630,1335025,69891,7952,666888,0
5,1,713791,249779,1459317,74397,9472,729158,0
5,-1,693576,235690,1282801,72425,9059,640936,0
5,-1,667424,230923,1346133,69055,9141,672456,0
5,-1,689141,235219,1299478,72133,8777,649242,0
5,-1,669801,230254,1502429,68695,8673,750335,0
5,1,715622,249498,1396233,74789,9933,697565,0
5,-1,667659,230236,1257879,69116,8408,628530,0
5,-1,669821,230429,1354924,69291,7535,677138,0
5,-1,668463,231279,1423790,69336,9139,711576,0
6,-1,663554,230298,1347216,68913,7455,673192,2
6,-1,664085,229555,1215856,68555,7825,607655,0
6,1,707685,249906,1392970,74676,8806,695799,1
6,-1,668160,230339,1243000,69003,7826,621145,0
6,-1,669078,230621,1350362,68875,8804,674823,0
6,-1,666239,230622,1327118,68967,7537,663239,0
6,1,710911,248115,1481710,73644,9492,740497,0
6,-1,669744,230281,1226913,68811,7642,613095,0
6,-1,662719,229439,1305405,68583,8405,652279,0
6,-1,667229,229897,1215603,68565,7249,607464,0
6,-1,674852,232817,1469552,69872,10064,733955,0
6,1,710331,248082,1353029,74068,9423,676107,0
6,-1,664099,230069,1237939,69139,8630,618579,0
6,-1,669904,230122,1295426,69112,7646,647352,0
6,-1,676744,232449,1372056,70002,9051,685480,0
6,-1,674068,232638,1303989,70178,7323,651720,0
7,-1,663552,230299,1227069,68860,7578,613086,2
7,-1,673570,232719,1250753,69911,8436,624830,0
7,-1,667071,229928,1339928,68853,7775,669691,0
7,1,737269,258397,1350242,76833,8249,674346,1
7,-1,669246,231011,1318170,69118,7420,658835,0
7,-1,667151,231403,1340912,69393,8053,669903,0
7,1,714155,250368,1479063,74608,9705,738920,0
7,-1,695051,236925,1335121,73249,9084,667243,0
7,-1,670841,230736,1249854,69089,8045,624330,0
7,-1,665179,230190,1297878,68644,7617,648601,0
7,-1,670071,230261,1372752,68674,8549,686165,0
7,1,711466,247727,1301618,74025,8721,650473,0
7,-1,662414,229917,1218381,69142,7798,608863,0
7,-1,670246,230528,1238542,69359,7726,618883,0
7,-1,669042,229669,1537270,68821,9122,766770,0
7,-1,669616,231447,1380633,69605,7945,689930,0
8,-1,665410,230065,1175752,68811,7156,587474,0
8,-1,666520,232134,1353554,69765,8370,676183,2
8,-1,673137,232557,1329758,69963,8125,664326,0
8,1,709322,250125,1449307,74705,8471,723533,1
8,-1,693737,236689,1345080,73271,8928,671984,0
8,-1,664336,230693,1222543,69036,6715,610988,0
8,1,711766,250719,1384079,74633,8576,691447,0
8,-1,670112,230933,1239612,68953,8182,619518,0
8,-1,670667,231359,1339855,69318,8682,669075,0
8,-1,662591,229728,1206771,68505,6967,603059,0
8,-1,670247,231054,1339925,68993,7709,669652,0
8,1,713910,249590,1316395,74796,8450,657534,0
8,-1,666264,230816,1337578,69405,7625,668398,0
8,-1,671731,231645,1263722,69918,7702,631243,0
8,-1,673251,231566,1291918,69692,9010,645134,0
8,-1,671622,233208,1235970,70474,7939,617334,0
9,-1,666108,230218,1257166,68824,8191,628283,0
9,-1,667360,230784,1337328,69084,8836,668221,2
9,-1,669489,230749,1404721,69138,8065,702044,0
9,-1,673094,232497,1361710,69766,8383,680302,0
9,1,713807,250007,1472830,74151,10798,736506,1
9,-1,664402,230752,1360934,69028,7486,680184,0
9,1,705328,248592,1411004,73600,10572,704704,0
9,-1,689117,235832,1253012,72334,8001,626037,0
9,-1,666694,230434,1553181,68803,9216,776150,0
9,-1,692436,239322,1360880,71376,8099,680118,0
9,-1,667221,229966,1282063,68609,7641,640712,0
9,1,710925,248544,1326905,74409,8856,662853,0
9,-1,665525,230740,1398878,69407,8061,699069,0
9,-1,668367,230365,1306796,69272,7755,653048,0
9,-1,670666,230559,1377966,69187,9319,688096,0
9,-1,690858,236095,1391253,72926,9353,695247,0
10,-1,665491,230337,1182972,68917,7201,591108,0
10,-1,665505,230201,1346477,68873,7062,672920,2
10,-1,667826,230437,1368432,69002,7910,683846,0
10,-1,668823,231214,1228742,69126,7633,613919,0
10,-1,670421,232568,1337823,69874,8166,668235,0
10,1,707815,249396,1465373,73936,10051,731952,0
10,1,708293,248751,1408298,73843,8379,703756,1
10,-1,665827,230580,1179131,68749,7072,589179,0
10,-1,668780,231030,1548690,69039,10557,773929,0
10,-1,671477,232141,1345943,69581,7982,672442,0
10,-1,667819,229889,1370113,68580,7917,684668,0
10,1,707468,247544,1406413,73902,8558,702853,0
10,-1,664357,229941,1308641,69044,8418,653981,0
10,-1,666431,230152,1292384,69151,7765,645820,0
10,-1,673380,231917,1322040,69838,9264,660426,0
10,-1,671980,232285,1228405,69894,7183,613349,0
11,-1,668838,231619,1452473,69485,8754,725709,0
11,-1,664625,230415,1337097,68802,8568,668076,2
11,-1,671351,231929,1313105,69684,8026,655873,0
11,-1,670834,232077,1333946,69464,8032,666554,0
11,-1,686602,235558,1305686,72353,7753,652373,0
11,1,704633,248961,1362109,73806,8570,680762,0
11,-1,673017,232496,1266149,69632,8618,632607,0
11,1,708111,247619,1363771,73447,8570,681452,1
11,-1,665191,230082,1403118,68662,8787,700957,0
11,-1,662812,229289,1201505,68393,6901,600463,0
11,-1,689742,235329,1461654,72178,8691,730283,0
11,1,707710,247452,1328072,73863,7575,663390,0
11,-1,663719,230238,1216659,69294,8128,607872,0
11,-1,668841,229903,1305838,69070,7411,652615,0
11,-1,687789,234409,1436542,72201,9836,718031,0
11,-1,668058,230916,1345852,69406,7244,672732,0
12,-1,663777,229614,1351248,68616,8234,675203,0
12,-1,666650,231558,1358226,69151,8086,678728,2
12,-1,668366,230860,1320963,69171,7498,660068,0
12,-1,666871,230968,1582116,69104,8739,788788,0
12,1,712919,248960,1596776,73701,10642,797847,0
12,-1,662948,230174,1308807,68837,7057,654081,0
12,-1,671672,231568,1396170,69110,8681,697603,0
12,-1,665431,230029,1229045,68689,7995,614111,0
12,1,704675,247075,1298956,72886,9075,648963,1
12,-1,665437,230548,1281394,68815,7319,640393,0
12,-1,667950,230461,1503883,68799,8580,751289,0
12,1,708404,247513,1369900,73846,8382,684584,0
12,-1,663170,230559,1357505,69274,8301,678433,0
12,-1,667544,230138,1293816,69144,7233,646500,0
12,-1,671185,230116,1448596,68968,9469,723312,0
12,-1,670054,231715,1391330,69687,8188,695175,0
13,-1,664860,229875,1300764,68715,7227,650052,0
13,-1,669331,231591,1243425,69147,7815,621333,2
13,-1,665189,229871,1332094,68850,7391,665686,0
13,-1,667753,231515,1315159,69298,7801,657141,0
13,1,712172,248862,1463099,73856,9141,730911,0
13,-1,669858,232222,1336510,69687,8142,667714,0
13,-1,670308,231396,1341141,69108,8259,670237,0
13,-1,672816,233278,1481870,70044,9792,739332,0
13,-1,666710,231244,1310773,69154,7681,654910,0
13,1,705232,247700,1352575,73972,8535,675866,1
13,-1,665959,230049,1223815,68623,7389,611478,0
13,1,712330,249176,1313667,74596,8338,656304,0
13,-1,667471,232057,1256760,70064,8683,627779,0
13,-1,666797,230531,1332566,69327,7520,665860,0
13,-1,672874,231373,1439612,69413,8847,719017,0
13,-1,668455,231520,1248194,69606,8450,623741,0
14,-1,671602,232494,1341846,69902,8495,670201,0
14,-1,665877,230922,1298336,69049,8143,648810,2
14,-1,665229,230468,1337663,69050,7207,668455,0
14,-1,665885,230054,1429160,68715,8307,713713,0
14,1,712182,248782,1554937,73942,9863,777121,0
14,-1,664282,230646,1241516,68988,7418,620348,0
14,-1,664886,229455,1288520,68445,7272,643908,0
14,-1,687444,235447,1360401,72244,9658,680092,0
14,-1,667095,230752,1238423,68918,7080,618761,0
14,1,705088,247063,1266331,73804,8216,632821,1
14,-1,674226,231420,1299074,69255,8252,649002,0
14,1,706095,247321,1332582,73810,9220,666059,0
14,-1,665811,229751,1219476,69029,7773,609346,0
14,-1,669301,231151,1237252,69692,7996,618287,0
14,-1,671501,231327,1329579,69515,8447,663945,0
14,-1,685976,234750,1282877,72446,8965,641161,0
15,-1,684118,234052,1361637,71925,8884,680398,0
15,-1,663552,230210,1222458,68810,7309,610860,2
15,-1,667562,230163,1228891,68912,7926,614185,0
15,-1,672132,232827,1399704,70011,8360,698918,0
15,1,711143,249377,1454120,74267,9838,726672,0
15,-1,662023,230179,1296071,68808,7202,647683,0
15,-1,673546,233089,1329431,69832,8450,664130,0
15,-1,664282,230437,1350771,68772,9153,674964,0
15,-1,664622,230139,1316406,68650,7482,657879,0
15,1,703776,247148,1306661,73724,9160,653038,1
15,-1,670410,230637,1210976,68872,8414,605031,0
15,1,706052,246267,1354124,73561,8325,676750,0
15,-1,672842,231370,1296675,69757,8931,647882,0
15,-1,665332,229759,1331065,69008,7840,665157,0
15,-1,669902,231127,1360019,69387,8954,679588,0
15,-1,675147,231836,1360252,69760,8952,679729,0
16,-1,666181,230083,1339367,68773,7738,669343,0
16,-1,666041,230540,1225178,69085,7319,612148,2
16,-1,666154,230150,1182883,68905,7586,590991,0
16,-1,690728,236339,1326943,72661,9274,662906,0
16,1,706830,247998,1437771,73604,9445,718503,0
16,-1,684822,234993,1272735,72233,8419,635935,0
16,-1,688783,235603,1307175,72259,8907,653276,0
16,-1,665013,230547,1315712,68844,8606,657287,0
16,-1,683639,235085,1277262,72071,8879,638258,0
16,-1,668407,230318,1372905,68711,7706,686201,0
16,1,711172,248283,1499966,74161,10788,749280,0
16,1,712996,249554,1280173,74809,8484,639394,1
16,-1,666819,229331,1322724,68882,9177,661015,0
16,-1,666036,230407,1479619,69236,8354,739448,0
16,-1,666593,230069,1331841,68979,8496,666070,0
16,-1,673954,231608,1400387,69659,8989,699892,0
17,-1,667794,231842,1325506,69563,7511,662270,0
17,-1,665425,230306,1264802,69006,7244,632026,0
17,-1,662477,230943,1340708,69211,8623,669723,2
17,-1,670454,232407,1379639,69753,8183,688665,0
17,1,711808,248222,1282466,73691,8268,640877,0
17,-1,665665,230930,1160131,69103,7254,579805,0
17,-1,671706,231827,1350276,69265,8876,674780,0
17,-1,673827,232581,1477326,69766,9390,736773,0
17,-1,667298,230636,1416399,68847,7965,707745,0
17,-1,666711,230024,1625809,68701,9625,812496,0
17,1,729638,252164,1435883,77217,9629,717527,0
17,1,707239,247258,1291687,73781,8465,645462,1
17,-1,668132,230188,1234887,69211,8489,616801,0
17,-1,685036,234447,1371932,72397,9539,685594,0
17,-1,669351,231153,1472686,69674,9846,734606,0
17,-1,673205,231551,1392595,69591,8455,695823,0
18,-1,673686,232932,1350325,69940,8266,674639,0
18,-1,666569,229918,1351102,68777,7715,675241,0
18,-1,664771,232589,1387597,70020,9080,693119,2
18,-1,665923,230655,1363619,68974,7943,681482,0
18,1,712993,249096,1327306,73929,8784,663255,0
18,-1,667442,231526,1389672,69287,7275,694530,0
18,-1,666570,230360,1300240,68770,7986,649476,0
18,-1,665769,230355,1396122,68822,8910,697062,0
18,-1,667817,231041,1350237,68886,7828,674623,0
18,-1,667050,230426,1341312,68750,8109,670307,0
18,1,708119,247028,1225454,73652,8638,612281,0
18,1,710382,247811,1414088,73900,9351,706199,1
18,-1,668953,230732,1346253,69330,8695,672772,0
18,-1,663845,229602,1237720,68976,8109,618440,0
18,-1,672069,230633,1603413,69356,9699,800394,0
18,-1,675788,232665,1345746,70259,8552,672222,0
19,-1,686772,234459,1318981,72076,8445,659051,0
19,-1,666583,230331,1400297,69008,8057,699706,0
19,-1,663194,231346,1347955,69338,7734,673583,2
19,-1,662939,230510,1297584,68909,8177,648105,0
19,1,712022,248654,1374959,73831,7797,687149,0
19,-1,665844,231295,1321360,69194,7289,660255,0
19,-1,670366,231767,1364178,69432,8563,681557,0
19,-1,669729,231808,1394118,69373,8791,696053,0
19,-1,672495,233105,1310380,69833,7815,654643,0
19,-1,667781,230667,1390005,68866,7886,694523,0
19,1,708732,247738,1368512,73937,9926,683898,0
19,1,709320,248031,1293893,73955,9831,646343,1
19,-1,669999,230606,1356176,69300,8806,677751,0
19,-1,668344,230744,1226234,69362,9251,612702,0
19,-1,669017,229857,1293021,69058,8366,646443,0
19,-1,669739,230592,1313889,69287,7729,656450,0
20,-1,667466,230829,1237469,69085,7690,618367,0
20,-1,673063,233273,1327845,70178,7701,663357,0
20,-1,662854,230582,1172045,69089,7534,585642,2
20,-1,668681,231540,1394572,69539,9267,696665,0
20,1,709525,248000,1307779,73598,8532,653531,0
20,-1,684512,234985,1414801,72169,8180,707153,0
20,-1,666655,230273,1365092,68750,7831,682202,0
20,-1,668448,230384,1337257,68777,9052,667698,0
20,-1,688011,235787,1246607,72257,8187,622931,0
20,-1,671148,231948,1472981,69441,7932,735959,0
20,1,707597,248566,1296193,74410,8953,647623,0
20,-1,667904,229933,1363255,68967,8473,681311,0
20,1,708194,248833,1258913,74243,8911,628922,1
20,-1,666442,230051,1366500,69048,8842,683330,0
20,-1,669439,230032,1438191,69098,9001,718751,0
20,-1,673072,232229,1261831,70027,7821,630440,0
21,-1,664015,230054,1255418,68822,6946,627376,0
21,-1,664619,230203,1234452,68930,6986,616768,0
21,-1,662720,230526,1369416,69042,9281,684345,2
21,-1,687227,235142,1360539,72277,9860,679929,0
21,1,709514,249026,1316995,73935,7615,658131,0
21,-1,663438,230911,1447635,69092,7944,723412,0
21,-1,674990,233666,1446252,70171,8444,722495,0
21,-1,668041,230747,1376896,68947,8569,688004,0
21,-1,670056,231425,1372911,69143,8443,685941,0
21,-1,666609,230497,1542117,68862,9620,770666,0
21,1,705904,247885,1376327,73958,8863,687807,0
21,-1,667314,230563,1323853,69284,8332,661520,0
21,-1,688044,235020,1407918,72576,10397,703550,0
21,1,707685,248236,1499495,74033,8769,749331,1
21,-1,674079,232519,1285101,70192,8969,641559,0
21,-1,675474,231627,1254128,69695,8265,626719,0
22,-1,666526,230416,1278206,68933,7879,638717,0
22,-1,663900,230254,1326962,68939,8089,663205,0
22,-1,665252,231117,1318549,69114,7738,658811,2
22,-1,664640,230451,1394574,68888,8730,696526,0
22,1,707079,248908,1424626,73849,8056,712024,0
22,-1,662598,231103,1337034,69096,7157,668219,0
22,-1,689442,235751,1281080,72358,8536,640167,0
22,-1,689195,235719,1297144,72376,8862,648209,0
22,-1,668344,231573,1334090,69035,8409,666687,0
22,-1,667052,230916,1312911,68954,8144,656027,0
22,1,712285,249202,1326398,74695,8768,662554,0
22,-1,665192,230235,1318053,69140,8585,658653,0
22,-1,664781,230216,1318960,69222,7896,659145,0
22,1,715606,250185,1408288,74976,8541,703444,1
22,-1,689211,235079,1425944,72556,10131,712186,0
22,-1,673916,231713,1362927,69710,8590,681079,0
23,-1,664109,229696,1240096,68609,7232,619678,0
23,-1,690873,235100,1281603,72384,9100,640545,0
23,-1,667826,231562,1328231,69252,8378,663260,0
23,-1,671080,233198,1399351,70063,9152,698422,2
23,1,710727,248456,1376685,73700,8658,688008,0
23,-1,665221,230824,1192407,69022,7426,595713,0
23,-1,669160,231851,1349053,69268,7973,674054,0
23,-1,669237,231369,1544076,69201,9778,771583,0
23,-1,670132,232867,1221954,69728,8323,610441,0
23,1,701599,246984,1341641,73709,8816,670497,0
23,-1,692199,234514,1363065,71877,9255,680946,0
23,-1,671169,230711,1313412,69330,9473,656353,0
23,-1,664725,230065,1316484,69150,8439,657891,0
23,1,710284,249675,1338640,74445,8481,668917,1
23,-1,668628,230122,1298370,69142,8955,648644,0
23,-1,671686,231263,1324811,69515,8344,662026,0
24,-1,662966,229376,1300705,68536,7856,650022,0
24,-1,670081,230471,1269667,69050,7303,634436,0
24,-1,664823,230856,1279771,69075,7784,639324,0
24,-1,665916,231180,1248888,69202,7810,624054,2
24,1,710282,248513,1393524,73869,8217,696369,0
24,-1,668846,232202,1361891,69625,8538,680421,0
24,-1,663841,229978,1242174,68590,7672,620695,0
24,-1,667334,230991,1226890,69069,7321,613100,0
24,-1,666142,231059,1239511,68894,8121,619398,0
24,1,708293,246834,1371737,73640,8888,685515,0
24,-1,670162,230058,1293528,68647,8489,646335,0
24,-1,689027,234890,1318599,72555,10061,658910,0
24,-1,666418,230333,1344708,69172,8066,671920,0
24,-1,668902,230431,1379769,69205,8328,688764,0
24,1,708605,248433,1483605,74061,9246,741359,1
24,-1,675517,232696,1299147,70214,8213,648968,0
25,-1,666636,231101,1199111,69151,7483,599182,0
25,-1,671257,231537,1209132,69388,7264,604219,0
25,-1,664464,230806,1459744,69055,8740,729670,0
25,1,705131,246871,1301677,73280,8298,650567,0
25,-1,663460,230841,1483144,69018,9561,740790,2
25,-1,666296,232261,1316749,69773,8017,657779,0
25,-1,666930,231086,1279091,69063,7997,639133,0
25,-1,668200,231571,1344725,69189,7990,671961,0
25,-1,665192,230681,1264230,68729,7659,631800,0
25,1,711257,247562,1317279,73912,9045,658251,0
25,-1,674999,232215,1330004,69541,8831,664496,0
25,-1,667657,230415,1158907,69261,8383,578995,0
25,-1,665421,230201,1296531,69117,8092,647944,0
25,-1,669591,231093,1283202,69557,8916,641089,0
25,-1,693164,236166,1631749,72950,10504,815439,0
26,-1,666253,231075,1331582,69297,8262,665389,0
26,-1,671470,231345,1308600,69503,7458,653548,0
26,-1,664708,230578,1376854,68955,8146,688160,0
26,1,710031,249289,1390146,74308,8897,694499,0
26,-1,669629,232738,1353756,69941,8465,676258,2
26,-1,684366,235148,1280000,72286,7906,639597,0
26,-1,670083,232095,1334890,69533,7847,666965,0
26,-1,665841,230876,1258817,69079,7432,628987,0
26,-1,665019,231035,1291688,68909,8076,645445,0
26,1,711303,247850,1269748,74009,8206,634530,0
26,-1,666960,229508,1335225,68488,8167,667222,0
26,-1,671012,231665,1179561,69858,8433,589198,0
26,-1,662955,229589,1354416,68994,8125,677422,0
26,-1,667591,230568,1384137,69272,9108,692059,0
26,-1,671621,231791,1557535,69723,9599,778387,0
27,-1,661726,229686,1211741,68647,6674,605615,0
27,-1,668641,230354,1221802,69018,6755,610549,0
27,-1,667733,232291,1372812,69781,8769,685226,0
27,1,709161,247977,1599629,73652,9410,799133,0
27,-1,664524,230705,1214435,69038,7460,606852,2
27,-1,666105,232199,1391930,69456,7814,695606,0
27,-1,665670,230739,1234188,68953,7344,616728,0
27,-1,666057,230077,1303221,68675,8231,651234,0
27,-1,668180,232268,1366396,69445,8013,682616,0
27,1,727880,251127,1420711,76833,9451,710010,0
27,-1,670215,230745,1345596,68862,8386,672390,0
27,-1,665558,229878,1242662,69036,8394,620922,0
27,-1,662831,229521,1327116,68926,8044,663219,0
27,-1,669030,230322,1313980,69153,7833,656876,0
27,-1,670848,231046,1391842,69422,9545,695523,0
28,-1,661526,229749,1321155,68650,7241,660052,0
28,-1,665737,229281,1276630,68573,7299,637972,0
28,-1,683380,235115,1382461,72244,9631,690758,0
28,1,713677,250164,1543745,74648,9527,770176,0
28,-1,668797,231596,1380907,69360,8615,690089,2
28,-1,664793,232107,1326604,69651,7796,662774,0
28,-1,665414,230746,1251203,68936,7556,625145,0
28,-1,673419,232505,1323598,69785,8557,661162,0
28,-1,665648,231676,1297458,69110,7629,648342,0
28,1,709106,246946,1380053,73612,8790,689694,0
28,-1,669437,230820,1335915,68900,8086,667570,0
28,-1,663974,230009,1331606,69151,8775,665408,0
28,-1,665528,230842,1240643,69342,7301,620047,0
28,-1,686661,234231,1392178,72278,9027,695802,0
28,-1,674124,232486,1423689,69911,8465,711420,0
29,-1,664774,230403,1205281,68934,7055,602270,0
29,-1,667103,230161,1323283,68967,7477,661220,0
29,-1,668776,231129,1174819,69156,7215,586967,0
29,1,711191,249469,1478799,74277,9545,738473,0
29,-1,673181,230870,1374071,69037,7943,686683,0
29,-1,665512,231646,1268392,69361,7976,633722,2
29,-1,663346,230263,1339641,68668,7977,669491,0
29,-1,668030,231085,1315529,69053,9054,657408,0
29,-1,672690,230303,1374657,68604,7605,686898,0
29,1,729890,251473,1459878,77010,9833,729537,0
29,-1,675102,232549,1558850,69670,10455,778759,0
29,-1,666783,230497,1224494,69358,8445,611854,0
29,-1,665975,230761,1327398,69410,8721,663430,0
29,-1,667694,230345,1355146,69254,8030,677203,0
29,-1,675778,233278,1390703,70338,8804,694616,0
30,-1,667068,231923,1392954,69652,7886,695874,0
30,-1,670395,231322,1281603,69276,7052,640489,0
30,-1,668626,231530,1319624,69411,7684,659222,0
30,1,710463,249812,1402201,74542,8770,700471,0
30,-1,673345,231592,1315160,69321,8098,657229,0
30,-1,665573,231054,1375269,69080,8208,687082,2
30,-1,695136,236450,1419845,72557,8808,709498,0
30,-1,686591,235670,1363596,72369,9474,681198,0
30,-1,675114,231420,1388100,68962,8038,693735,0
30,1,710067,248092,1387827,74013,9272,693562,0
30,-1,691302,235486,1360471,72239,8661,679711,0
30,-1,665985,230452,1316495,69191,8776,657927,0
30,-1,690461,239810,1373911,72104,9197,686652,0
30,-1,667536,230748,1453282,69319,9084,725842,0
30,-1,669219,231356,1374322,69558,9308,686176,0
31,-1,678969,233286,1394277,71702,7977,696721,0
31,-1,670237,230597,1391019,69083,7639,695158,0
31,-1,665841,230493,1413653,68919,7679,706239,0
31,1,707081,248756,1400300,73917,8774,699877,0
31,-1,690032,235071,1290754,72189,8761,644894,0
31,-1,691102,240486,1334403,71964,7663,666762,2
31,-1,669085,230904,1330980,68938,7730,665072,0
31,-1,671936,232762,1375109,69790,9278,686941,0
31,-1,671591,230917,1234942,68741,7701,617151,0
31,1,728141,251708,1519469,77062,10457,759180,0
31,-1,667049,229874,1289409,68565,7761,644323,0
31,-1,668347,231808,1234521,69941,8942,616628,0
31,-1,667860,229998,1226087,69192,7742,612632,0
31,-1,665348,230116,1389083,69125,9245,694125,0
31,-1,669928,231515,1369430,69581,9137,684401,0
32,-1,664969,229910,1184111,68717,7170,591693,0
32,-1,667367,229880,1286506,68772,7464,642869,0
32,-1,667869,231594,1413162,69345,7866,706075,0
32,1,702080,247244,1418635,73408,7634,709114,0
32,-1,669441,230969,1345112,69118,8086,672264,0
32,-1,668329,231583,1321884,69340,7537,660571,2
32,-1,668763,230884,1363856,68875,8457,681563,0
32,-1,666911,231195,1474287,69068,8936,736667,0
32,-1,672967,230926,1308412,68710,8359,653855,0
32,1,709316,248360,1410700,74162,9194,705041,0
32,-1,667071,230381,1338200,68790,8156,668538,0
32,-1,683506,234935,1355828,71688,8976,677544,0
32,-1,668342,230937,1345130,69437,8093,671897,0
32,-1,673050,230816,1262996,69273,8574,630898,0
32,-1,693406,235816,1476583,72823,10025,737795,0
33,-1,665510,230080,1252671,68812,7753,626036,0
33,-1,669124,230741,1348379,69094,7937,673815,0
33,1,705596,248165,1292922,73772,7896,646116,0
33,-1,686709,235213,1276755,72343,7688,637906,0
33,-1,667679,230489,1338319,68858,8181,668820,0
33,-1,672816,232571,1309298,69885,8724,654024,2
33,-1,687567,235239,1260778,72176,7901,630070,0
33,-1,664608,230536,1379445,68844,8266,688865,0
33,-1,677101,232722,1328766,69513,8398,663827,0
33,1,727417,251874,1437959,77136,9553,718618,0
33,-1,669885,231960,1300666,69437,8052,649494,0
33,-1,659818,229741,1324915,68249,7813,661900,0
33,-1,664449,229778,1271487,69048,7305,635461,0
33,-1,674593,231909,1262255,69757,9258,630684,0
33,-1,674026,232863,1323195,70219,9370,661029,0
34,-1,665099,230284,1193541,68833,7551,596462,0
34,-1,670962,232208,1333844,69799,7802,666274,0
34,1,703826,247498,1387546,73526,8663,693303,0
34,-1,668848,231417,1237166,69280,7632,618316,0
34,-1,690060,235214,1294242,72277,8738,646731,0
34,-1,668363,231483,1266174,69166,7135,632719,2
34,-1,665677,230732,1344921,68836,7661,672137,0
34,-1,687148,235692,1334739,72329,8910,667205,0
34,-1,672436,231256,1269708,68889,8153,634549,0
34,1,708838,247158,1395873,73744,9500,697589,0
34,-1,668766,229801,1366476,68485,8808,682814,0
34,-1,660091,229761,1285358,68209,7764,642214,0
34,-1,669232,230960,1370643,69438,7746,684922,0
34,-1,669312,230226,1285257,69048,8508,642068,0
34,-1,672081,231589,1385453,69644,8465,691838,0
35,-1,669397,232111,1283476,69738,8331,641130,0
35,-1,666468,230684,1324559,69089,7215,661951,0
35,1,705792,248623,1366904,73848,8645,683036,0
35,-1,664640,230185,1320377,68821,7616,659884,0
35,-1,669991,230947,1321226,69057,7636,660157,0
35,-1,665095,230971,1283480,68974,7082,641418,2
35,-1,665050,230520,1226316,68779,7432,612891,0
35,-1,669644,232296,1377761,69410,9077,688536,0
35,-1,670962,230896,1262944,68783,8088,631148,0
35,1,708463,247451,1319422,73876,9019,659409,0
35,-1,667909,229918,1263140,68529,8336,631157,0
35,-1,669913,231434,1252282,68953,7876,625485,0
35,-1,664895,229640,1318097,68990,8094,658782,0
35,-1,669483,230403,1281111,69078,7876,640190,0
35,-1,672666,231902,1395956,69686,8827,697052,0
36,-1,684767,234242,1343653,71907,9191,671468,0
36,-1,672688,231593,1233317,69560,8417,616219,0
36,1,702592,247699,1340426,73563,7786,669869,0
36,-1,665040,230384,1246027,68890,7429,622769,0
36,-1,667611,230722,1211316,69003,7174,605053,0
36,-1,669560,232054,1185305,69310,6685,592031,2
36,-1,671977,232310,1273340,69600,8748,636205,0
36,-1,676422,232231,1349398,69487,8503,674267,0
36,-1,670781,230871,1408952,68708,8657,704135,0
36,1,704482,247231,1481076,73780,8895,740632,0
36,-1,668699,230537,1339427,68795,8354,669178,0
36,-1,664462,229727,1323785,68176,7943,661527,0
36,-1,686596,234351,1367455,72365,8699,683331,0
36,-1,690303,234742,1618057,72271,9865,808789,0
36,-1,670523,231296,1457848,69502,9100,728197,0
37,-1,664739,230156,1304033,68810,7085,651589,0
37,-1,669734,231315,1249462,69235,7838,624308,0
37,1,716149,250062,1506381,74529,9483,752557,0
37,-1,668964,232519,1300894,69858,7928,649742,0
37,-1,667577,230432,1288686,68944,8285,643469,0
37,-1,666818,230478,1252475,68760,8192,625936,0
37,-1,667093,231082,1272214,69063,7684,635753,2
37,-1,672633,231667,1391441,69166,8641,695341,0
37,-1,676571,233012,1370957,69689,8664,684932,0
37,1,733065,251874,1501700,77112,9845,751034,0
37,-1,668424,230736,1379048,68885,8560,689215,0
37,-1,689406,238787,1363399,70839,7924,681324,0
37,-1,665704,230610,1257398,69343,8083,628210,0
37,-1,667590,230458,1364716,69115,8190,682091,0
37,-1,674869,233556,1333363,70507,8999,666155,0
38,-1,664447,230056,1396776,68722,8121,698115,0
38,-1,690174,235062,1263952,72228,9150,631634,0
38,1,711262,249270,1383818,74289,9021,691428,0
38,-1,666274,231190,1255150,69192,8051,627212,0
38,-1,666354,230192,1247287,68815,7782,623305,0
38,-1,666186,231029,1228483,68914,6831,613841,0
38,-1,672008,231562,1361445,69320,8510,680328,2
38,-1,672216,231344,1278555,69113,8601,638882,0
38,-1,671098,231030,1263495,68831,8208,631433,0
38,1,707294,247298,1383477,73828,8813,691151,0
38,-1,673760,232504,1301531,69629,8445,649742,0
38,-1,686283,234512,1354149,71585,8495,676709,0
38,-1,668192,231561,1214202,69809,7874,606607,0
38,-1,670678,230827,1375047,69276,8563,686185,0
38,-1,691163,236097,1519786,72929,10268,759480,0
39,-1,662975,230306,1288928,68858,6972,644092,0
39,-1,668441,230939,1303331,69039,8294,651272,0
39,1,729279,252921,1318076,77162,9403,658580,0
39,-1,666284,231375,1235078,69207,7474,617080,0
39,-1,669968,231838,1254348,69409,7704,626786,0
39,-1,689182,235968,1349356,72410,8615,674343,0
39,-1,668284,231738,1321121,69346,8229,659801,2
39,-1,675021,233225,1466364,69895,8857,732616,0
39,-1,665829,229331,1400216,68264,8261,699695,0
39,1,707367,247350,1490131,73809,8563,744747,0
39,-1,666489,230068,1285239,68645,7967,642263,0
39,-1,663210,229749,1294760,68226,7834,647011,0
39,-1,665776,230697,1287749,69354,7768,643477,0
39,-1,668651,230086,1342321,68932,8534,670868,0
39,-1,671735,231317,1431432,69514,9114,715036,0
40,-1,662922,230249,1244699,68790,7499,622146,0
40,-1,665085,230005,1311309,68664,7640,655351,0
40,1,713837,249615,1394140,74404,9248,696771,0
40,-1,661612,230261,1182677,68954,7136,590998,0
40,-1,667328,230769,1182727,69019,7360,590987,0
40,-1,665496,230792,1284904,68898,6878,642114,0
40,-1,701726,243119,1435248,73028,8474,716927,2
40,-1,692531,235904,1341398,72283,9375,670282,0
40,-1,675102,232832,1401850,69623,8735,700422,0
40,1,707007,247438,1381519,73894,8749,690445,0
40,-1,669838,231412,1255598,69295,8438,627191,0
40,-1,668860,232426,1312068,69257,7835,655443,0
40,-1,663800,229652,1218730,69000,7642,608968,0
40,-1,669336,230774,1372938,69273,8518,685998,0
40,-1,673681,232871,1324400,70201,8710,660878,0
41,-1,666090,230708,1308643,68928,7292,653921,0
41,-1,668739,230926,1319410,69056,7783,659321,0
41,1,709385,249023,1452499,74239,8718,725692,0
41,-1,663018,230628,1246538,69018,8161,622915,0
41,-1,670734,232545,1243000,69820,8006,620581,0
41,-1,669780,231577,1261736,69172,7448,630546,0
41,-1,671717,231877,1436640,69448,8698,718123,2
41,-1,672852,231913,1402217,69260,9115,700715,0
41,-1,690981,235777,1467080,72160,9056,733359,0
41,1,708483,247927,1401715,74028,8674,700472,0
41,-1,667254,230478,1286089,68785,8330,642676,0
41,-1,664297,230229,1296938,68349,8127,648029,0
41,-1,665481,230579,1173664,69325,7515,586430,0
41,-1,666755,229834,1347195,68971,8508,672975,0
41,-1,698386,240896,1455950,72416,9501,727451,0
42,-1,684595,234320,1339542,71999,8379,669442,0
42,-1,662477,229357,1280773,68545,7620,639973,0
42,1,707277,248681,1489946,73914,10407,744705,0
42,-1,664590,229837,1212203,68772,7163,605796,0
42,-1,668106,230995,1246965,69161,8692,622748,0
42,-1,666202,230440,1275688,68815,7818,637533,0
42,-1,670399,231420,1407401,69009,9339,703149,2
42,-1,671282,231666,1361576,69172,8853,680426,0
42,-1,669180,231148,1456277,68861,8510,727824,0
42,1,703638,246919,1224750,73674,8993,612019,0
42,-1,664907,229918,1201231,68661,8247,600028,0
42,-1,669723,232644,1239021,69452,8091,618500,0
42,-1,663580,230122,1242797,69080,7767,621079,0
42,-1,665968,229736,1402917,68867,8575,702831,0
42,-1,668080,230792,1240752,69291,8563,620057,0
42,1,714481,249772,1350851,74890,8783,674637,0
43,-1,660541,229598,1319153,68590,7324,659260,0
43,-1,665369,230530,1292973,68888,7864,646074,0
43,1,706436,247282,1332342,73383,8883,665859,0
43,-1,686120,235176,1397456,72303,9452,697957,0
43,-1,668474,230458,1246136,68979,7948,622587,0
43,-1,671949,232600,1338286,69763,8345,668649,0
43,-1,670551,233850,1414255,70165,9721,706350,2
43,-1,672521,232275,1410594,69555,8945,704829,0
43,-1,671132,230795,1285084,68688,8469,642200,0
43,1,703525,247174,1361091,73739,8655,680166,0
43,-1,669832,232274,1260238,69619,8074,629439,0
43,-1,684892,234923,1372576,71717,8517,685826,0
43,-1,685130,235180,1284620,72632,8486,641815,0
43,-1,670555,230827,1383496,69251,8467,691318,0
43,-1,671713,231321,1302623,69515,9140,650737,0
43,1,707707,247296,1313321,73830,9891,656230,0
44,-1,665112,230792,1177326,68968,6981,588297,0
44,-1,669610,231543,1196020,69241,7292,597646,0
44,1,710786,248416,1486887,73808,9062,743153,0
44,-1,666571,231067,1643958,69196,8445,821805,0
44,-1,666768,230301,1317160,68830,8249,658290,0
44,-1,687268,235406,1293228,72227,8308,646264,0
44,-1,668535,231711,1333723,69181,8636,666498,2
44,-1,671496,231481,1375065,69073,8526,687192,0
44,-1,673081,231157,1344080,68797,8779,671668,0
44,1,724226,252032,1389487,77173,10062,694341,0
44,-1,686557,235028,1349588,72075,8668,674347,0
44,-1,668134,232335,1240351,69203,7506,619370,0
44,-1,667667,231101,1262634,69597,8436,630755,0
44,-1,673282,231997,1246132,69935,7801,622352,0
44,-1,674990,233235,1253662,70425,9421,625307,0
44,1,706717,246969,1326200,73819,7820,662700,0
45,-1,666231,231337,1394643,69342,7740,696530,0
45,-1,669896,232102,1323347,69583,7880,661181,0
45,1,708970,247907,1451269,73621,9323,725226,0
45,-1,666758,231495,1424238,69291,8410,710811,0
45,-1,664912,229723,1315343,68761,7857,657326,0
45,-1,669134,231309,1269955,69070,7471,634634,0
45,-1,667979,232178,1199436,69352,7900,599276,2
45,-1,669832,231837,1243522,69203,7776,621441,0
45,-1,672643,231442,1257855,68943,8247,628555,0
45,1,701543,247246,1354448,73809,9349,676878,0
45,-1,668368,229627,1238941,68435,8298,619138,0
45,-1,663525,230097,1288829,68245,8312,643785,0
45,-1,665315,230145,1364219,69149,8391,681511,0
45,-1,668986,230781,1247124,69405,7542,623164,0
45,-1,689637,235724,1312287,72805,10036,655332,0
45,1,709115,247758,1253870,74124,8153,626628,0
46,-1,662275,230122,1362634,68792,7451,680834,0
46,-1,665834,230530,1372843,68883,7556,686118,0
46,1,707823,247492,1499658,73505,9457,749500,0
46,-1,696366,241369,1434946,72434,9068,716917,0
46,-1,666261,230698,1327767,68935,7983,663424,0
46,-1,665671,230637,1250457,68896,7102,624763,0
46,-1,666412,231547,1396382,69228,8448,697806,2
46,-1,670574,231397,1314255,69024,9255,656747,0
46,-1,668448,230411,1340834,68609,8294,670036,0
46,1,703255,247781,1307322,73146,9451,652888,0
46,-1,666934,230098,1411446,68623,8767,705345,0
46,-1,664056,230663,1258294,68469,8384,628590,0
46,-1,663831,230111,1322497,69187,8121,660844,0
46,-1,668505,230185,1304909,69154,7623,652091,0
46,-1,668709,231599,1303496,69659,8791,651343,0
46,1,709957,248706,1372740,74579,8467,685857,0
47,-1,661118,229647,1256094,68600,7567,627675,0
47,-1,664355,230464,1396076,68896,7969,697588,0
47,1,708390,248173,1278856,73746,8080,639092,0
47,-1,665066,230820,1194870,69138,7431,597055,0
47,-1,665826,230067,1339382,68799,7728,669373,0
47,-1,666055,231189,1366549,69004,7341,682821,0
47,-1,670588,232006,1285689,69293,8132,642500,0
47,-1,669184,232342,1299150,69724,8524,649236,2
47,-1,691176,235378,1289946,72038,9609,644498,0
47,1,727009,251977,1336133,76295,9422,667603,0
47,-1,669153,230953,1361280,68942,8449,680189,0
47,-1,667559,232063,1195299,69092,8378,597065,0
47,-1,666988,230809,1315466,69356,8673,657412,0
47,-1,668697,230463,1330858,69502,7117,664872,0
47,-1,672053,230915,1329940,69387,7754,664653,0
47,1,709494,247968,1473780,74174,9235,736489,0
48,-1,662413,230497,1234918,68898,7747,617125,0
48,-1,673847,232419,1340766,69753,9013,669807,0
48,1,706645,247496,1381693,73537,8682,690459,0
48,-1,663410,230608,1306406,69055,7820,652871,0
48,-1,670115,231764,1424460,69404,8014,711721,0
48,-1,664630,230356,1383704,68658,7479,691574,0
48,-1,668014,231032,1360248,68925,8435,679751,0
48,-1,664666,231071,1423576,69050,8515,710559,2
48,-1,671675,231166,1397258,68797,10090,697597,0
48,1,703320,247284,1338105,72956,9242,668560,0
48,-1,672028,231540,1340365,69296,8317,669628,0
48,-1,667453,232340,1404416,69268,8663,701302,0
48,-1,668227,231548,1219835,69891,8013,609301,0
48,-1,666635,230033,1256418,69060,7367,627845,0
48,-1,674439,232128,1420952,69826,8204,710071,0
48,1,706896,247374,1290453,73965,8447,644906,0
49,-1,687519,235045,1364846,72178,8555,682001,0
49,-1,668654,230519,1287324,68839,8102,643343,0
49,1,707985,247909,1307051,73647,8534,653216,0
49,-1,664216,231038,1242386,69146,7276,620740,0
49,-1,664562,230073,1309450,68802,7694,654440,0
49,-1,666779,231386,1259380,69070,6785,629455,0
49,-1,675453,233786,1365604,70215,8941,682243,0
49,-1,674186,233667,1381682,70088,8380,689857,2
49,-1,672176,232550,1411067,69496,9126,705210,0
49,1,703555,247357,1395989,72974,9590,697664,0
49,-1,667875,230353,1317367,68738,7606,658212,0
49,-1,662911,230179,1399293,68377,9134,699508,0
49,-1,664813,230997,1306462,69475,7676,652844,0
49,-1,666045,230184,1280055,69223,7640,639659,0
49,-1,675530,233063,1259226,70321,7756,629072,0
49,1,711783,248613,1321318,74555,9382,659997,0
50,-1,661770,229372,1318198,68543,7964,658791,0
50,-1,669775,231323,1221545,69134,7615,610419,0
50,1,707099,247971,1246429,73657,8000,622900,0
50,-1,666435,232365,1315427,69873,7985,657101,0
50,-1,663580,230337,1228773,68826,7532,613890,0
50,-1,664484,230889,1251439,68952,6947,625280,0
50,-1,671396,231456,1429566,69209,8614,714402,0
50,-1,663972,230356,1303842,68886,8271,651544,2
50,-1,670137,230543,1349950,68586,8592,674707,0
50,1,721959,251589,1561014,76177,10295,780019,0
50,-1,691041,235492,1322126,72238,9300,660762,0
50,-1,662908,230408,1363367,68430,8824,681263,0
50,-1,665566,231336,1243190,69743,8107,621158,0
50,-1,689593,234873,1375499,72519,8275,687351,0
50,1,704058,247307,1433720,73917,8825,716456,0
50,-1,690557,235413,1364210,72710,8991,681501,0
51,-1,664858,230495,1236710,68967,7577,618035,0
51,-1,670552,231667,1321900,69430,8158,660447,0
51,1,705739,248430,1312718,73795,8928,656016,0
51,-1,666170,231774,1335241,69576,7743,667069,0
51,-1,664372,230955,1379278,69025,8205,689301,0
51,-1,667163,231353,1241074,69074,7692,620167,0
51,-1,672021,231840,1454961,69326,8399,727075,0
51,-1,668175,230567,1250292,68967,8590,624737,2
51,-1,668934,230443,1308262,68587,8642,653741,0
51,1,707920,248672,1315464,73394,8901,656804,0
51,-1,666975,231250,1296568,69041,7968,647811,0
51,-1,660842,229935,1310811,68225,8555,655117,0
51,-1,666820,230443,1306660,69257,8976,652995,0
51,-1,664944,229131,1291105,68734,6825,645246,0
51,1,712852,247273,1273671,73963,9098,636464,0
51,-1,672472,231331,1219695,69586,7585,609530,0
52,-1,666500,231504,1340925,69435,7891,669951,0
52,-1,669171,231093,1245357,69070,7895,622358,0
52,1,705474,247678,1225688,73546,8031,612429,0
52,-1,663546,231055,1230388,69222,7093,614802,0
52,-1,671426,231524,1329719,69280,8174,664416,0
52,-1,662982,230170,1291941,68673,7708,645642,0
52,-1,669562,231289,1255747,69201,8015,627500,0
52,-1,668613,231246,1382464,69120,9560,691313,2
52,-1,672711,232707,1444790,69570,8995,721922,0
52,1,712871,250418,1365750,74197,8768,682224,0
52,-1,673256,232628,1442112,69795,11087,719290,0
52,-1,669036,233205,1278181,69573,8826,638342,0
52,-1,665261,230212,1322906,69135,8643,660978,0
52,-1,667865,230734,1250909,69335,8062,625081,0
52,1,711476,246919,1364639,73786,9070,681996,0
52,-1,674867,232709,1251994,70184,7759,625552,0
53,-1,663005,230527,1223205,68918,6935,611229,0
53,-1,667717,230316,1310618,68802,7673,654482,0
53,1,704795,247925,1400943,73658,8390,700173,0
53,-1,664002,230563,1331861,69066,8305,665443,0
53,-1,668887,230435,1253061,68919,7971,626178,0
53,-1,666024,231205,1310643,68992,7303,654979,0
53,-1,690181,236494,1367002,72592,8700,683080,0
53,-1,666900,231374,1302400,69107,8614,650583,2
53,-1,668900,230966,1366871,68828,8705,683034,0
53,1,701634,246900,1248949,72655,8730,623843,0
53,-1,689658,235409,1293723,72201,9019,646512,0
53,-1,664738,232087,1301417,69139,8279,649978,0
53,-1,666050,230625,1393629,69253,9188,696451,0
53,-1,667935,230552,1260711,69299,7686,629949,0
53,1,736330,253028,1453098,78161,10123,726071,0
53,-1,671518,231145,1391633,69485,8476,695481,0
54,-1,662275,230733,1221307,68984,7016,610177,0
54,-1,667284,230483,1335916,68903,8352,667554,0
54,1,707999,248088,1363678,73708,8671,681465,0
54,-1,683165,234888,1289090,72235,9114,644177,0
54,-1,673972,232772,1326759,69934,8140,662851,0
54,-1,682846,235268,1268772,72195,7804,633944,0
54,-1,667457,231496,1374159,69179,8567,686771,0
54,-1,673781,233239,1366484,69933,8087,682602,2
54,-1,667944,230866,1370589,68741,9771,684951,0
54,1,706454,247810,1315088,72976,8729,657039,0
54,-1,667047,230495,1311390,68806,8868,655252,0
54,-1,666948,230373,1323181,68377,8735,661180,0
54,-1,665522,230624,1314343,69336,8780,656831,0
54,-1,691340,239067,1466494,71700,10158,732833,0
54,1,716087,248812,1398596,74597,9462,698747,0
54,-1,693650,236517,1403609,73034,9269,701401,0
55,-1,661855,229826,1304412,68717,7711,651866,0
55,-1,672584,232648,1427065,69815,8138,712960,0
55,1,709307,248760,1266826,73928,8281,633103,0
55,-1,660288,230473,1329807,69003,8427,664578,0
55,-1,690368,235584,1295013,72409,8125,647073,0
55,-1,671508,231261,1329121,69039,7689,664174,0
55,-1,672967,232876,1458481,69785,8315,728845,0
55,-1,671140,231562,1357862,69192,8180,678504,2
55,-1,677683,233017,1434041,69768,9434,716526,0
55,1,701584,247494,1309153,72850,8719,653948,0
55,-1,665885,230260,1227732,68697,7969,613525,0
55,-1,670570,232577,1249803,69398,8023,624102,0
55,-1,663804,230576,1355051,69356,8581,677012,0
55,-1,669678,232119,1196756,69851,8109,597768,0
55,1,714128,247920,1401873,74165,9533,700322,0
55,-1,671469,232008,1316586,69768,8522,657844,0
56,-1,663485,230234,1203445,68804,7589,601329,0
56,-1,687255,235100,1295542,72169,8630,647491,0
56,1,704571,248045,1295306,73673,8758,647332,0
56,-1,666397,230610,1344891,69072,7573,672108,0
56,-1,667910,230821,1410305,68965,7499,704977,0
56,-1,671189,231064,1250335,69006,7724,624745,0
56,-1,670259,232022,1367832,69316,8358,683676,0
56,-1,692727,235480,1442628,72097,10406,720785,0
56,1,702482,247088,1406786,72686,8924,702915,0
56,-1,669818,231250,1289194,68905,7883,644185,2
56,-1,667991,230393,1332496,68787,8884,665747,0
56,-1,684700,234875,1352693,71676,8947,675779,0
56,-1,665984,231458,1244293,69726,8559,621632,0
56,-1,688089,235538,1287337,72591,9411,643261,0
56,1,736367,251900,1411016,77268,10108,705187,0
56,-1,668500,231190,1242751,69496,7170,621034,0
57,-1,663459,230542,1305051,68965,7955,652191,0
57,-1,668710,230297,1329555,68780,7816,664522,0
57,1,709847,248806,1251532,73978,8596,625131,0
57,-1,669614,232148,1332877,69821,8064,665917,0
57,-1,667374,230679,1321631,69036,7565,660411,0
57,-1,673642,232048,1313801,69496,8369,656383,0
57,-1,666042,231092,1375045,69017,8496,687264,0
57,-1,672644,231338,1465913,68941,9600,731668,0
57,1,706147,247692,1286533,72971,8763,642865,0
57,-1,664215,231051,1326753,68936,7650,663007,2
57,-1,666456,230152,1381630,68676,8506,689541,0
57,-1,664019,229719,1347060,68232,8185,672959,0
57,-1,672967,230566,1340721,69272,7843,670077,0
57,-1,668217,230642,1199342,69200,8274,599264,0
57,1,715293,249172,1373988,74766,8592,686456,0
57,-1,670961,231987,1314911,69776,8422,657091,0
58,-1,669240,232740,1298067,69920,8235,648431,0
58,-1,670215,231467,1233904,69223,7604,616527,0
58,1,731319,253046,1641630,77131,10218,820213,0
58,-1,688691,235446,1276896,72443,8276,638085,0
58,-1,667317,231009,1319350,69089,7879,659287,0
58,-1,669604,230725,1233176,68856,8123,616271,0
58,-1,690610,236681,1376707,72685,9026,687944,0
58,-1,669756,230457,1375362,68601,9763,687220,0
58,1,701818,247091,1363526,72672,8761,681465,0
58,-1,664369,230590,1210723,68848,7489,604979,2
58,-1,666872,230891,1348843,68949,8808,674015,0
58,-1,664403,230066,1331979,68268,7480,665403,0
58,-1,675636,231969,1237307,70008,7998,618125,0
58,-1,672490,230852,1200106,69263,8270,599745,0
58,1,711558,247271,1599010,73846,9222,798181,0
58,-1,694030,235852,1396587,72844,9052,697832,0
59,-1,682691,234816,1260221,72100,8932,629754,0
59,-1,666226,230421,1316033,68812,7919,657660,0
59,1,707348,247714,1381841,73619,7799,690499,0
59,-1,667631,231825,1242863,69676,8016,620889,0
59,-1,665513,230332,1250368,68842,7997,624783,0
59,-1,667867,230805,1252029,68841,7067,625692,0
59,-1,667086,231171,1297166,69033,8713,648382,0
59,-1,671096,231176,1373023,68882,9757,686179,0
59,1,725498,252236,1533688,76240,10182,766451,0
59,-1,665583,230532,1330371,68784,7900,664751,2
59,-1,666175,230403,1573910,68704,8900,785428,0
59,-1,666805,231350,1468878,68680,8266,733958,0
59,-1,672453,230778,1379272,69411,8554,689298,0
59,-1,671560,231344,1207725,69616,8212,603317,0
59,1,708994,247525,1235500,73992,8063,617338,0
59,-1,671421,231572,1339446,69607,7960,669416,0
60,-1,661573,230143,1336051,68798,7641,667627,0
60,-1,667241,231171,1317728,69101,7866,658497,0
60,1,707244,248755,1393569,73942,8577,696400,0
60,-1,666244,230676,1329881,69109,8101,664521,0
60,-1,690975,235580,1288880,72421,8190,644075,0
60,-1,671963,232616,1328907,69734,7527,663846,0
60,-1,667198,231782,1396844,69266,9226,698088,0
60,-1,670990,231022,1555490,68799,9258,777060,0
60,1,721481,251921,1410797,76197,9959,705022,0
60,-1,664704,230248,1338601,68730,7667,668900,2
60,-1,668628,231694,1338095,69340,8757,667518,0
60,-1,661689,229808,1319129,68138,8022,659060,0
60,-1,670822,230475,1227924,69261,8021,613654,0
60,-1,670235,230494,1248668,69173,8556,623973,0
60,1,712906,247715,1414099,73752,9547,706701,0
60,-1,668979,230905,1218426,69386,7477,609021,0
61,-1,660819,230475,1176194,68968,6968,587681,0
61,-1,671978,232802,1310211,69912,8540,654380,0
61,1,706930,247639,1322135,73622,8596,660746,0
61,-1,666199,230984,1246553,69171,7309,622947,0
61,-1,665055,230038,1269148,68826,7463,634224,0
61,-1,690933,235984,1299838,72340,8451,649468,0
61,-1,670740,231193,1320217,68953,9002,659067,0
61,-1,670199,231092,1584925,68860,9163,791679,0
61,1,705580,248160,1406492,73151,8317,702977,0
61,-1,663614,230352,1217009,68780,7201,608151,2
61,-1,667917,231438,1338026,69089,8769,668355,0
61,-1,662567,230170,1353357,68208,8496,676304,0
61,-1,673762,231120,1238590,69672,8766,618718,0
61,-1,667151,229885,1269554,68911,8140,634453,0
61,1,732139,252029,1433898,76988,9960,716429,0
61,-1,670433,231600,1330669,69654,7499,664945,0
62,-1,668570,230240,1305159,68885,7222,652277,0
62,-1,665917,230861,1286049,68942,7772,642658,0
62,1,725293,252341,1286814,76958,9132,642845,0
62,-1,670557,232587,1308023,69959,7386,653591,0
62,-1,667940,231061,1219830,69149,7568,609516,0
62,-1,666709,230331,1316593,68760,7318,657938,0
62,-1,675787,233767,1242515,70152,8494,620607,0
62,-1,668493,230396,1492049,68598,9472,745295,0
62,1,709671,250065,1351700,73901,8020,675278,0
62,-1,665577,230496,1222433,68837,7283,610819,2
62,-1,667178,230680,1388907,68806,9368,693608,0
62,-1,660719,229224,1272195,67991,8288,635675,0
62,-1,667593,229264,1304721,68933,8621,652006,0
62,-1,670116,230351,1417946,69092,9101,708510,0
62,1,714112,249513,1340922,74656,9190,669533,0
62,-1,674146,233480,1232428,70571,7281,615639,0
63,-1,668940,230103,1367205,68851,8060,683267,0
63,-1,666882,231163,1217491,69051,7956,608404,0
63,1,706426,248351,1304192,73887,9246,651754,0
63,-1,684197,234643,1319231,72146,8010,658962,0
63,-1,670157,232246,1307525,69695,8162,653316,0
63,-1,669563,231659,1273122,69213,7303,636141,0
63,-1,667559,230774,1248216,68983,8064,623791,0
63,-1,672002,230952,1377983,68938,9782,688629,0
63,1,709381,250295,1275749,74045,8126,637170,0
63,-1,671007,232688,1272609,69770,8083,635600,2
63,-1,665822,230647,1288675,68823,8884,643903,0
63,-1,689843,236125,1415313,72425,9607,707016,0
63,-1,671144,231752,1202485,69959,8033,600592,0
63,-1,665335,229715,1260990,68851,7570,630155,0
63,1,712567,248848,1380771,74214,8956,689866,0
63,-1,671486,231431,1318816,69662,8119,658975,0
64,-1,668215,229893,1270903,68712,8000,635085,0
64,-1,667589,231760,1230463,69430,7955,614693,0
64,1,712977,250297,1491125,74791,10199,745258,0
64,-1,663431,230082,1295117,68852,7804,647185,0
64,-1,669037,231637,1268561,69287,7814,634052,0
64,-1,671404,232465,1327381,69664,7789,663214,0
64,-1,669655,231705,1237108,69223,7747,618194,0
64,-1,672152,231539,1268529,69307,9443,633769,0
64,1,702531,247860,1677712,73084,10259,838492,0
64,-1,669112,231113,1301618,69016,8112,650440,2
64,-1,663607,229956,1380666,68514,9054,689919,0
64,-1,663681,230179,1358436,68221,8223,678751,0
64,-1,690062,234626,1321675,72440,9406,660417,0
64,-1,670128,231168,1245438,69590,8195,622189,0
64,1,717953,250160,1415906,74808,9306,707222,0
64,-1,667273,231016,1307611,69491,7947,653430,0
65,-1,672796,232357,1324864,69673,8071,661844,0
65,-1,668093,230498,1217439,68770,7691,608380,0
65,1,702576,247547,1369700,73609,7943,684618,0
65,-1,667522,231834,1324680,69658,7853,661571,0
65,-1,665630,230608,1320159,69001,7093,659700,0
65,-1,666637,230979,1220397,68995,7306,609814,0
65,-1,672966,233288,1239533,69876,8186,619265,0
65,1,714192,248099,1342573,73518,8544,670698,0
65,-1,669549,230796,1192602,68884,8159,595999,0
65,-1,665088,231375,1342176,69088,8163,670310,2
65,-1,670607,232671,1379290,69697,9547,688330,0
65,-1,663749,230553,1261623,68288,7897,630258,0
65,-1,670096,230678,1260737,69294,8084,630031,0
65,-1,668322,230339,1233440,69106,7662,616496,0
65,1,731152,252976,1574728,77297,10950,786874,0
65,-1,668290,231646,1412571,69785,8631,705828,0
66,-1,668174,229674,1365422,68614,7528,682347,0
66,-1,669506,231057,1184426,68956,7613,591924,0
66,1,708079,247754,1372112,73736,8498,685645,0
66,-1,663389,230563,1341006,68960,7713,670137,0
66,-1,665580,230530,1217677,68923,7190,608606,0
66,-1,666962,230948,1326835,68984,7884,663147,0
66,-1,671568,232476,1209524,69433,7842,604366,0
66,1,716015,249344,1366823,74083,8625,682773,0
66,-1,671447,232160,1429165,69512,8803,713272,0
66,-1,671720,229818,1414747,68524,8368,706855,0
66,-1,670652,232498,1340985,69696,7999,669790,2
66,-1,662156,230521,1290120,68272,9370,644513,0
66,-1,668751,230495,1230306,69312,8159,614742,0
66,-1,667278,230306,1269341,69131,7777,634287,0
66,1,721371,249845,1345936,74722,9664,672337,0
66,-1,665375,230763,1390787,69625,8202,694894,0
67,-1,688859,234985,1356384,72067,9152,677825,0
67,-1,689087,235834,1221963,72332,8338,610713,0
67,1,707226,247872,1419386,73781,8654,709289,0
67,-1,673861,233173,1394143,70201,7986,696428,0
67,-1,669946,232641,1350746,69902,8097,674837,0
67,-1,669519,230482,1298159,68927,8045,648672,0
67,-1,667611,231365,1233448,69031,8161,616404,0
67,1,709227,247114,1442315,73154,8380,720637,0
67,-1,690571,235906,1296075,72357,8882,647645,0
67,-1,673185,230896,1558740,68906,9331,778984,0
67,-1,666508,230729,1302674,68949,8122,650829,2
67,-1,665897,232260,1192301,69119,8598,594965,0
67,-1,669218,230573,1234330,69345,8124,616754,0
67,-1,670829,231526,1333723,69477,7824,666675,0
67,1,738218,253908,1545368,77618,10953,772111,0
67,-1,669002,231164,1437464,69605,8095,718188,0
68,-1,665825,229929,1359780,68616,8020,679373,0
68,-1,668378,230986,1419813,68912,7909,709581,0
68,1,704502,247732,1375008,73734,7915,687101,0
68,-1,664619,230073,1309876,68867,7451,654607,0
68,-1,671226,232085,1348808,69639,8538,673815,0
68,-1,690067,235213,1252809,72293,8110,626151,0
68,-1,671522,231622,1293424,69081,7834,646385,0
68,1,732252,252787,1385625,76907,9681,692506,0
68,-1,668969,230902,1323760,68938,8463,661461,0
68,-1,676117,232501,1356490,69531,8748,676796,0
68,-1,665785,230035,1257830,68631,7763,628560,2
68,-1,664590,230289,1195588,68201,7721,597510,0
68,-1,667401,229819,1330969,69036,8550,665107,0
68,-1,670531,232019,1308525,69864,8049,653610,0
68,1,715520,249089,1465997,74280,9895,732556,0
68,-1,673431,231281,1364892,69658,8530,682162,0
69,-1,685477,234460,1374160,71968,8752,686761,0
69,-1,667372,230950,1284080,68950,7405,641708,0
69,1,722814,251661,1478257,76829,8795,738810,0
69,-1,664495,230682,1198590,69059,6801,598934,0
69,-1,667446,231220,1535867,69196,7995,767209,0
69,-1,668271,230665,1260771,68936,7255,630060,0
69,-1,675862,233883,1404813,70021,8617,701810,0
69,1,709172,247895,1521628,73482,8748,760396,0
69,-1,674736,232140,1320855,69519,8450,659945,0
69,-1,669110,229864,1386303,68548,9163,692360,0
69,-1,672183,230954,1364897,68931,8169,682005,2
69,-1,662898,230392,1439227,68259,8260,719184,0
69,-1,668384,230436,1318530,69273,8253,658803,0
69,-1,665641,229887,1231324,68970,7747,615378,0
69,1,713518,248573,1455150,74186,9787,726966,0
69,-1,672781,230937,1348563,69520,8138,673894,0
70,-1,671437,231069,1278123,69027,8288,638729,0
70,-1,670385,232220,1324756,69483,7974,661810,0
70,1,705929,247720,1295662,73662,8892,647445,0
70,-1,665890,231589,1309253,69569,7637,654124,0
70,-1,664181,230536,1550202,68865,8286,774621,0
70,-1,670772,231896,1379689,69563,7169,689329,0
70,-1,691604,236923,1288952,72655,8382,644239,0
70,1,717936,249551,1357411,74288,9314,678017,0
70,-1,670260,230760,1193303,68973,7907,596264,0
70,-1,667992,229937,1343466,68559,9469,671249,0
70,-1,676729,233431,1257846,69974,7495,628320,2
70,-1,661554,230063,1448924,68137,8546,724172,0
70,-1,666111,229671,1348677,68977,8664,674086,0
70,-1,669042,231275,1245372,69617,7754,622175,0
70,1,713419,249295,1393644,74623,9506,696282,0
70,-1,674822,232773,1321480,70280,8130,660261,0
71,-1,667604,229998,1376575,68592,8308,688033,0
71,-1,666595,231019,1226360,68962,7488,612789,0
71,1,702831,247498,1326178,73646,8595,662705,0
71,-1,665621,230737,1237525,69136,7483,618401,0
71,-1,672314,232925,1378453,70004,9008,687555,0
71,-1,667737,231011,1359223,69080,7191,679254,0
71,-1,670322,232137,1316189,69334,7976,657794,0
71,1,713659,248564,1474285,73720,9670,736705,0
71,-1,690818,235143,1365648,72182,9104,682357,0
71,-1,669195,230613,1405407,68823,10072,701976,0
71,-1,661710,230446,1409974,68307,8405,704564,2
71,-1,665063,230740,1348198,68404,8084,673322,0
71,-1,670528,231657,1294659,69833,8883,646798,0
71,-1,663427,229962,1251359,68995,8472,625272,0
71,1,712730,248379,1581262,74088,9310,789410,0
71,-1,667963,230663,1468888,69411,8566,734015,0
72,-1,666641,230185,1299461,68738,8651,649363,0
72,-1,692489,239983,1349569,71577,7935,674467,0
72,1,704851,247733,1383281,73717,10070,690840,0
72,-1,663177,229987,1317465,68850,7650,658361,0
72,-1,665685,230821,1476849,69044,9267,738096,0
72,-1,668544,231179,1306563,69107,7575,652944,0
72,-1,668162,231614,1255738,69053,7153,627478,0
72,1,736779,256380,1502711,75972,9734,750985,0
72,-1,668435,230796,1380644,68972,8165,689966,0
72,-1,674768,232905,1464882,69729,9509,731350,0
72,-1,660478,231206,1330319,68549,8447,664767,2
72,-1,664123,230681,1302915,68358,8182,651065,0
72,-1,671689,231886,1264962,69932,8113,631971,0
72,-1,689770,235232,1393247,72664,8456,696187,0
72,1,713468,248918,1404511,74329,8591,701855,0
72,-1,670382,230726,1322421,69441,8189,660908,0
73,-1,667969,230488,1254851,68838,7573,627040,0
73,-1,667127,230939,1364547,68944,8239,681950,0
73,1,716985,249447,1584233,74503,10771,791594,0
73,-1,664690,231005,1322214,69222,7233,660677,0
73,-1,664048,230246,1372137,68823,8693,685583,0
73,-1,664838,230206,1293738,68791,7040,646424,0
73,-1,671215,232818,1328794,69695,8039,663909,0
73,1,709964,247752,1475910,73519,8739,737494,0
73,-1,665911,230211,1322956,68679,7570,661125,0
73,-1,670776,230263,1586934,68720,9267,793083,0
73,-1,683305,234707,1373742,71394,8553,686318,0
73,-1,666695,232394,1248847,69168,8529,623910,2
73,-1,665571,230055,1360341,69159,9020,679760,0
73,-1,665930,230083,1242530,69175,6918,620917,0
73,1,714930,248879,1288658,74258,9191,643796,0
73,-1,693418,235918,1402648,73003,8708,700960,0
74,-1,665992,230009,1247520,68666,7385,623496,0
74,-1,668399,230836,1285121,68864,7480,642166,0
74,1,715903,249294,1426258,74487,9349,712385,0
74,-1,666275,231984,1330869,69728,7759,664696,0
74,-1,668441,232308,1476871,69706,8904,737717,0
74,-1,673344,233315,1324672,70127,7776,661748,0
74,-1,667694,231520,1313531,68989,7981,656422,0
74,1,709086,248097,1401724,73606,8714,700400,0
74,-1,670870,232204,1349039,69594,8114,673944,0
74,-1,671684,230846,1377315,68849,9129,688220,0
74,-1,661582,230348,1372785,68249,8645,685907,0
74,-1,659102,230006,1335803,68303,8576,667589,2
74,-1,667257,230369,1350886,69293,9054,674904,0
74,-1,667207,230687,1439065,69355,8481,719074,0
74,1,740323,255001,1455045,78055,9633,727151,0
74,-1,672696,231851,1248478,69880,7612,623769,0
75,-1,687479,234952,1373375,72075,8563,686375,0
75,-1,674247,233275,1470945,69853,8962,734920,0
75,1,712300,248617,1378999,73989,8629,689081,0
75,-1,666658,231169,1331485,69231,7389,665307,0
75,-1,664981,230668,1251654,68948,8492,625558,0
75,-1,689586,235327,1286759,72246,7843,643050,0
75,-1,670754,232727,1243539,69526,8124,621398,0
75,1,705727,246832,1424249,73124,9360,711767,0
75,-1,668942,230831,1397843,68969,9702,697768,0
75,-1,670705,230869,1299634,68921,9710,649596,0
75,-1,666412,231462,1311041,68644,8048,654977,0
75,-1,661455,230256,1345209,68328,8449,672004,2
75,-1,664101,229660,1266719,68911,7614,633004,0
75,-1,670795,231618,1244160,69840,7526,621661,0
75,1,712854,248159,1392951,73916,8507,696111,0
75,-1,671346,231300,1373167,69647,8030,686247,0
76,-1,666325,230619,1253440,68924,7227,626358,0
76,-1,667672,231225,1416202,69045,8541,707704,0
76,1,712209,247768,1374669,73677,8778,686979,0
76,-1,664478,230759,1223164,69136,7463,611191,0
76,-1,667332,231226,1401438,69192,8938,699921,0
76,-1,670256,231765,1344463,69347,7858,671882,0
76,-1,687913,236371,1376110,72467,8684,687696,0
76,1,732291,252835,1498219,76936,9634,748619,0
76,-1,671459,232410,1355781,69732,8789,676308,0
76,-1,669181,230372,1337617,68648,9617,668182,0
76,-1,667467,231931,1236810,68952,7534,617794,0
76,-1,661433,230150,1286329,69204,7697,642783,2
76,-1,667147,231085,1222556,69536,7469,610914,0
76,-1,664506,229934,1247364,69039,7544,623338,0
76,1,736591,254765,1540696,77945,9501,770036,0
76,-1,670580,231325,1327439,69704,8372,663440,0
77,-1,665439,230249,1243995,68891,7786,621599,0
77,-1,666918,231310,1368005,69006,8607,683428,0
77,1,711911,247579,1378356,73619,8413,688819,0
77,-1,666453,232046,1346972,69808,8693,672889,0
77,-1,665076,230325,1362313,68860,8804,681240,0
77,-1,666269,230562,1264984,68916,6976,632201,0
77,-1,668411,231668,1236953,69163,8048,618136,0
77,1,707331,247423,1343666,73329,8766,671312,0
77,-1,689096,235606,1342004,72308,9452,670943,0
77,-1,672705,232226,1392300,69434,9820,695136,0
77,-1,661610,230084,1331787,68161,8195,665403,0
77,-1,672179,232944,1237592,70306,8567,618139,2
77,-1,691272,234987,1382454,72562,9391,690812,0
77,1,732226,252425,1514541,77215,11094,756828,0
77,-1,688447,234486,1376011,72397,9144,687494,0
77,-1,671433,232066,1278939,70068,7817,638893,0
78,-1,665188,229943,1338044,68710,7562,668702,0
78,-1,669053,233029,1352534,69915,8304,675640,0
78,1,711959,248038,1285527,73836,8737,642403,0
78,-1,664326,231383,1347560,69339,7296,673431,0
78,-1,667862,232355,1396399,69724,8370,697651,0
78,-1,669816,232118,1366914,69612,7844,682906,0
78,-1,668433,232122,1357421,69229,8560,678375,0
78,1,711284,248022,1710758,73498,10634,854958,0
78,-1,666725,230838,1320432,68991,8228,660251,0
78,-1,667558,230558,1471505,68804,9422,735255,0
78,-1,661791,230421,1437308,68255,8528,718285,0
78,-1,671710,232066,1192329,69982,7375,595569,0
78,-1,664978,230201,1402954,69227,9099,701056,2
78,1,709947,247900,1522252,73835,9495,760184,0
78,-1,667893,230654,1242363,69318,7867,620759,0
78,-1,673395,233015,1422620,70497,8733,710730,0
79,-1,666090,230236,1452522,68851,8147,725827,0
79,-1,670078,230113,1393067,68689,8667,695999,0
79,1,709452,247615,1298869,73685,9426,649014,0
79,-1,661445,230914,1286294,69195,7454,642767,0
79,-1,664655,231630,1265969,69339,8380,632605,0
79,-1,670878,232808,1224740,69914,7336,611847,0
79,-1,669483,231847,1250042,69204,7999,624636,0
79,1,757865,261808,1496151,79579,9615,747548,0
79,-1,665386,230399,1503810,68783,9027,751593,0
79,-1,665819,229952,1411914,68570,9001,704712,0
79,-1,661744,230561,1301549,68343,8578,650337,0
79,-1,667981,229863,1270007,69104,8101,634641,0
79,-1,671251,232097,1242076,70121,7707,620343,2
79,1,711634,248790,1376519,74199,9824,688078,0
79,-1,667223,230874,1216290,69349,7554,607833,0
79,-1,689634,235934,1472993,72953,10275,736017,0
80,-1,665658,230311,1282752,68880,7951,641046,0
80,-1,673322,231884,1388806,69454,8829,693831,0
80,1,711252,249020,1441195,74342,8967,720004,0
80,-1,666743,230619,1168165,69108,8271,583675,0
80,-1,673507,232363,1303838,69803,8906,651360,0
80,-1,686624,235580,1236707,72380,7562,618049,0
80,-1,669669,231987,1315849,69193,8123,657589,0
80,1,714357,249927,1393846,74401,9864,696340,0
80,-1,669417,231811,1424382,69461,8659,711792,0
80,-1,668604,230579,1292509,68807,9035,645728,0
80,-1,660923,230483,1268127,68253,8373,633720,0
80,-1,667985,230024,1322661,69107,7666,661028,0
80,-1,669578,230721,1330811,69389,8105,664974,2
80,1,706386,247730,1426044,73854,10073,712490,0
80,-1,669935,232083,1195956,69954,7993,597501,0
80,-1,672152,231452,1285140,69748,8367,642155,0
81,-1,665193,229221,1272831,68450,8283,635956,0
81,-1,670165,230792,1290419,68974,8330,644881,0
81,1,709486,247705,1341649,73722,8870,670475,0
81,-1,667642,231314,1240711,69350,8438,619917,0
81,-1,669329,231027,1467898,69135,8172,733593,0
81,-1,666862,231801,1230877,69347,7356,615066,0
81,-1,668161,232164,1433509,69296,9050,716263,0
81,1,711083,247198,1413728,73296,10088,705834,0
81,-1,666067,230354,1391999,68778,9394,695276,0
81,-1,670944,230427,1346946,68749,8965,673031,0
81,-1,664750,232171,1243663,69019,8377,621401,0
81,-1,667072,230018,1341705,69109,8500,670447,0
81,-1,662045,230297,1211111,69251,7976,605185,2
81,1,714954,249766,1431953,74716,10478,714355,0
81,-1,664592,229882,1178496,69026,8444,588871,0
81,-1,674678,232468,1280309,70235,8753,639589,0
82,-1,665453,229916,1261502,68761,8593,630363,0
82,-1,669095,230429,1353528,68817,8016,676482,0
82,1,712296,249533,1415407,74582,8593,707398,0
82,-1,685608,235428,1294891,72456,8660,647025,0
82,-1,668866,231026,1288546,69126,7475,643868,0
82,-1,669414,230680,1184386,68965,7955,591815,0
82,-1,668654,232221,1570492,69300,9735,784508,0
82,1,733172,252438,1527795,76777,11643,763468,0
82,-1,665226,230684,1301141,68919,8905,650074,0
82,-1,688707,234437,1358829,71811,9971,679009,0
82,-1,667140,231686,1273018,68850,7946,635862,0
82,-1,686616,234443,1452027,72402,9249,725633,0
82,-1,665029,230299,1351837,69195,7973,675473,2
82,1,730528,252799,1675721,77327,10475,837021,0
82,-1,666680,230784,1189528,69367,8106,594295,0
82,-1,670630,231036,1377852,69581,9000,688458,0
83,-1,668025,230440,1278799,68928,7911,639046,0
83,1,708609,247089,1243864,73476,7953,621633,0
83,-1,670583,230578,1448143,68892,8077,723750,0
83,-1,665402,230495,1253778,69056,7769,626374,0
83,-1,671740,232931,1411173,69974,8056,704799,0
83,-1,673408,232286,1248241,69679,8011,623493,0
83,-1,673060,233224,1412646,69799,9999,705808,0
83,1,709933,247855,1486975,73474,10878,742743,0
83,-1,664423,230735,1432512,68908,8476,715946,0
83,-1,667219,229910,1264932,68572,7981,631932,0
83,-1,684987,235193,1550139,71615,9116,774797,0
83,-1,666797,229904,1330064,69120,7560,664612,0
83,-1,666990,230335,1238454,69266,8565,618864,2
83,1,713368,250056,1444171,74930,9534,720710,0
83,-1,663719,229700,1212703,68964,8769,605987,0
83,-1,673211,232657,1305187,70401,8334,651898,0
84,-1,664998,230227,1270899,68701,8336,635100,0
84,1,709139,247537,1310106,73672,8656,654678,0
84,-1,668817,230311,1256276,68768,8003,627870,0
84,-1,665014,230707,1247773,69075,8103,623526,0
84,-1,669202,231143,1405196,69120,8196,702243,0
84,-1,688063,235054,1289980,72266,8243,644610,0
84,-1,669956,232607,1494266,69373,10061,746415,0
84,1,713083,249902,1349030,74407,8702,673866,0
84,-1,695018,235929,1429504,72424,10560,714514,0
84,-1,674859,232263,1290915,69522,9309,644681,0
84,-1,665301,231338,1279346,68730,7632,639067,0
84,-1,668119,230521,1346529,69311,7914,672882,0
84,-1,663721,230338,1287284,69254,8029,643215,2
84,1,730052,253101,1438625,77427,10581,718986,0
84,-1,669297,232185,1181713,70051,8590,590343,0
84,-1,688674,235133,1567052,72738,9973,783243,0
85,-1,664923,230565,1270784,68778,7953,634993,0
85,-1,689993,234880,1349916,71993,8863,674563,0
85,1,710156,248361,1274514,73921,8570,636953,0
85,-1,667172,231539,1420290,69594,8666,709515,0
85,-1,666470,230600,1303535,69004,6988,651380,0
85,-1,667791,230783,1270080,69042,7491,634650,0
85,-1,672713,232181,1448785,69269,8649,723774,0
85,1,706820,246930,1478408,73147,9948,738621,0
85,-1,669943,230307,1367133,68755,9489,683007,0
85,-1,666714,229862,1359274,68552,8346,679329,0
85,-1,663941,231000,1338101,68479,7888,668634,0
85,-1,664648,229581,1310033,68916,7886,654611,0
85,1,708354,248428,1496481,74089,9451,747642,0
85,-1,670716,230560,1287857,69313,7772,643582,2
85,-1,662369,229886,1175037,69037,8292,587139,0
85,-1,670547,231607,1389247,69693,8487,694252,0
86,-1,687598,234689,1459872,71960,8690,729435,0
86,1,711043,249723,1415554,74528,8521,707289,0
86,-1,671195,231690,1315831,69206,7880,657526,0
86,-1,663078,230633,1301307,69058,7881,650574,0
86,-1,665258,230441,1242350,68951,7662,620784,0
86,-1,666614,231218,1319810,69419,7607,659211,0
86,-1,676735,232046,1293340,69251,8702,646072,0
86,1,714047,249700,1365355,74265,8921,681987,0
86,-1,670744,231104,1555997,69065,9720,775087,0
86,-1,666334,230113,1378403,68632,8555,688963,0
86,-1,660223,230069,1262969,68164,7845,631191,0
86,-1,668073,230118,1335743,69187,8504,667379,0
86,1,706766,248359,1370726,74031,9332,684992,0
86,-1,666130,230883,1202317,69375,7617,600813,0
86,-1,667392,231808,1226551,69994,7913,612736,2
86,-1,670947,231480,1369813,69651,8598,684510,0
87,-1,665220,230085,1387959,68629,7433,693577,0
87,1,709758,247987,1295352,73802,8341,647351,0
87,-1,667664,230129,1300964,68697,7864,650151,0
87,-1,666654,231280,1304969,69302,7961,652152,0
87,-1,666072,230689,1363220,68969,7470,681181,0
87,-1,668295,230862,1341061,68998,7980,670217,0
87,-1,696239,236394,1515865,72469,10282,757071,0
87,1,708370,247681,1394226,73408,9035,696694,0
87,-1,670324,230920,1237168,68996,8851,618083,0
87,-1,668124,230241,1276681,68677,8755,637775,0
87,-1,661647,230481,1495961,68263,8919,747724,0
87,-1,669707,231655,1295631,69860,8618,646712,0
87,1,713978,248366,1364598,74089,9491,681837,0
87,-1,673165,230492,1236653,69266,7729,617927,0
87,-1,667110,231076,1309002,69406,8236,654068,2
87,-1,668733,231179,1296958,69458,8084,648138,0
88,-1,666275,230836,1255318,68910,7411,627299,0
88,-1,666292,229982,1316719,68692,8539,658029,0
88,1,707445,247523,1274041,73615,8086,636661,0
88,-1,684689,235059,1305120,72351,8732,652126,0
88,-1,666796,231174,1313028,69128,7333,656138,0
88,-1,671365,232860,1348845,70000,7095,673819,0
88,-1,676767,232710,1444075,69472,9311,721381,0
88,1,705583,247584,1291800,73386,8047,645635,0
88,-1,669941,230107,1362305,68720,9586,680007,0
88,-1,665713,230217,1335855,68655,8485,667709,0
88,-1,662436,230146,1480308,68162,8275,739016,0
88,-1,668683,230662,1339370,69341,8348,669101,0
88,1,711677,247877,1379220,73893,9291,689251,0
88,-1,673951,231248,1197020,69667,7978,598019,0
88,-1,664405,229981,1305863,69045,8440,652540,2
88,-1,689769,235802,1408638,72783,9247,703821,0
89,-1,668173,231571,1382826,69315,8437,690896,0
89,-1,665041,229558,1264759,68552,7781,632028,0
89,1,707781,248012,1369275,73800,8549,684272,0
89,-1,661742,230168,1298895,68964,7776,649158,0
89,-1,671500,232952,1337475,69992,7808,667837,0
89,-1,687927,235624,1354348,72443,7811,676816,0
89,-1,673441,231592,1341226,69063,9256,671012,0
89,1,712023,248157,1461716,73588,9274,730521,0
89,-1,668992,230969,1348181,69196,8966,673852,0
89,-1,686114,234299,1329754,71792,8768,664572,0
89,-1,663288,231073,1486055,68450,9308,741120,0
89,-1,667157,230388,1285511,69243,8043,642435,0
89,1,712017,248281,1400373,74044,9445,699845,0
89,-1,673680,231420,1499782,69657,9618,749507,0
89,-1,664925,230271,1340289,69239,8125,669766,2
89,-1,667932,231095,1257273,69517,7595,628311,0
90,-1,665401,230089,1261287,68622,7641,630269,0
90,-1,676399,233958,1375524,70291,8950,687084,0
90,1,709370,248253,1404173,73841,8419,701739,0
90,-1,665184,231164,1326167,69462,7788,662563,0
90,-1,664107,230574,1299827,68940,7833,649565,0
90,-1,666129,230865,1282228,69106,7223,640790,0
90,-1,672262,231547,1483621,69105,9183,740814,0
90,1,736544,257615,1378674,76582,8450,688801,0
90,-1,666071,230118,1289893,68820,7905,644195,0
90,-1,675082,232191,1271835,69502,8234,635444,0
90,-1,663605,230892,1236643,68452,7669,617790,0
90,-1,670229,231634,1441812,69840,9411,720250,0
90,1,714737,248826,1398089,74182,8837,698613,0
90,-1,675687,232177,1236426,70096,7762,617660,0
90,-1,665545,229927,1342008,69055,8196,670663,2
90,-1,668200,231229,1417047,69502,7701,708179,0
91,-1,663612,229881,1307906,68591,7878,653528,0
91,1,729260,252241,1453066,76992,8715,726135,0
91,-1,690235,235263,1337321,72233,9214,668181,0
91,-1,661734,230317,1244970,68995,7743,622077,0
91,-1,667707,230755,1355120,69075,7769,677205,0
91,-1,667230,231354,1225899,69239,7305,612573,0
91,-1,696141,236590,1415022,72525,10599,707185,0
91,1,706389,247471,1366010,73357,8461,682704,0
91,-1,667580,230352,1357796,68841,8688,678605,0
91,-1,669639,230436,1294127,68781,8515,646778,0
91,-1,660507,230262,1311194,68292,7691,655104,0
91,-1,663568,229744,1526575,69011,9200,761939,0
91,1,710769,248464,1367901,74133,8637,683613,0
91,-1,691287,234822,1399273,72539,8996,699169,0
91,-1,671811,231607,1375318,69989,9344,686565,2
91,-1,666680,230984,1282437,69378,7914,640925,0
92,-1,664609,230497,1262713,68697,7531,631031,0
92,1,707042,247472,1336609,73565,8481,667968,0
92,-1,668909,230974,1310854,69056,8182,654978,0
92,-1,661743,230453,1365401,68993,8229,682402,0
92,-1,669143,231465,1381219,69270,8019,690098,0
92,-1,664017,230564,1362946,68974,7679,681159,0
92,-1,676223,232784,1413995,69430,9495,706102,0
92,1,710210,249180,1357995,74125,8195,678417,0
92,-1,661281,228545,1251909,68265,7725,625635,0
92,-1,667880,229778,1338045,68496,8464,668676,0
92,-1,662828,230009,1220606,68167,7150,609913,0
92,-1,668190,230591,1360117,69326,8748,679795,0
92,1,715979,249599,1312645,74693,8956,655906,0
92,-1,669046,230226,1387885,69174,8771,693595,0
92,-1,671827,230883,1336746,69436,8824,668017,2
92,-1,673710,231603,1378940,69529,8036,689198,0
93,-1,685252,235065,1367299,72069,8227,683254,0
93,1,729820,252557,1359901,77057,8813,679734,0
93,-1,665185,230001,1234491,68707,8096,616938,0
93,-1,664037,231221,1405485,69302,8991,702395,0
93,-1,672155,233298,1329074,70154,8189,663779,0
93,-1,669322,230624,1260781,68974,7796,630068,0
93,-1,676324,233191,1398566,69786,9546,698341,0
93,1,710047,247104,1282259,73252,8872,640788,0
93,-1,669094,231826,1333595,69540,8131,666238,0
93,-1,667664,229969,1396337,68583,8960,697831,0
93,-1,663695,230888,1535520,68461,9362,767466,0
93,-1,663098,229617,1226207,68936,8637,612717,0
93,1,714870,249255,1361572,74543,8020,680306,0
93,-1,694261,235954,1378641,73396,9020,688753,0
93,-1,662726,231148,1431501,69534,8875,715374,2
93,-1,670013,230594,1349136,69242,8206,674223,0
94,-1,668225,230266,1448249,68683,7911,723789,0
94,1,714114,250211,1387780,74620,8722,693212,0
94,-1,669956,230179,1318881,68710,7981,659122,0
94,-1,666745,231863,1439480,69665,9194,719250,0
94,-1,686052,234797,1289983,72101,8425,644721,0
94,-1,665385,230662,1337393,69041,7805,668208,0
94,-1,678076,234006,1513982,70110,9825,756178,0
94,1,707361,247475,1418386,73407,8212,708720,0
94,-1,668767,230365,1359761,68853,9300,679223,0
94,-1,690479,234963,1325810,72064,8656,662573,0
94,-1,660642,230304,1300422,68253,7543,649864,0
94,-1,665634,230602,1378876,69326,8111,688778,0
94,1,713613,248951,1280625,74276,8332,639953,0
94,-1,670546,230444,1267448,69209,7483,633371,0
94,-1,667093,231431,1286204,69548,8643,642777,2
94,-1,692924,235839,1445987,72793,9142,722583,0
95,-1,668005,230820,1340415,68888,7811,669847,0
95,1,728386,252243,1328756,76847,9611,663826,0
95,-1,669120,230496,1345543,68826,7862,672103,0
95,-1,662295,230240,1406495,68922,8428,702501,0
95,-1,667427,231326,1353877,69204,7206,676622,0
95,-1,671747,232684,1419404,69803,9402,710395,0
95,-1,692422,236392,1382436,72439,10584,690637,0
95,1,708173,247377,1402343,73346,8861,700867,0
95,-1,688587,235557,1284660,72363,8254,641917,0
95,-1,668081,230353,1259969,68764,7855,629575,0
95,-1,659937,230655,1348182,68410,8481,673915,0
95,-1,665416,230537,1399233,69347,8326,699409,0
95,1,709322,247531,1356416,73695,7794,677862,0
95,-1,667086,230642,1258639,69328,7554,628981,0
95,-1,667377,231366,1391166,69698,8243,695178,2
95,-1,671066,231572,1290420,69611,7824,644868,0
96,-1,667954,231184,1358138,69122,7976,678595,0
96,1,708618,247964,1304574,73620,9037,651842,0
96,-1,670957,231452,1266552,69101,7576,632946,0
96,-1,686911,238823,1548830,71458,8772,774131,0
96,-1,665746,230985,1246408,69121,7352,622744,0
96,-1,666983,230992,1295430,69099,8532,647066,0
96,-1,675172,232099,1445655,69272,8428,721757,0
96,1,705433,247449,1218837,73327,7979,609066,0
96,-1,666878,230040,1318480,68808,8136,658880,0
96,-1,668244,230254,1248176,68731,8264,623710,0
96,-1,662131,230583,1395863,68347,7799,697509,0
96,-1,672508,231406,1388009,69545,8894,693513,0
96,1,717166,250356,1376143,74845,9229,687382,0
96,-1,668700,230149,1368621,69121,8523,683861,0
96,-1,670092,231556,1355576,69578,7784,677401,0
96,-1,669633,231516,1363172,69760,7846,681154,2
97,-1,664885,229747,1369266,68639,8700,684278,0
97,1,706753,247421,1296690,73402,8670,647992,0
97,-1,688433,234908,1447817,72043,7864,723499,0
97,-1,669788,233479,1468277,70253,9051,731951,0
97,-1,662058,229918,1294286,68768,7628,646793,0
97,-1,666813,231225,1372129,69180,8464,685566,0
97,-1,674502,232382,1464377,69301,9157,731832,0
97,1,704193,247455,1282408,73386,8265,640777,0
97,-1,669083,231443,1312205,69347,7821,655341,0
97,-1,666411,229973,1348780,68597,7584,674057,0
97,-1,665636,232742,1286161,69211,7696,642173,0
97,-1,672870,231926,1269551,69873,8166,634107,0
97,1,711580,248635,1405289,74055,9295,702234,0
97,-1,693049,235470,1545738,72733,10304,772543,0
97,-1,671647,231559,1333019,69561,7607,666128,0
97,-1,671015,231430,1270854,69594,8029,635071,2
98,-1,663861,229726,1250452,68611,7237,624940,0
98,1,711879,248379,1248902,73691,8820,624105,0
98,-1,667339,230276,1326428,68738,7850,662841,0
98,-1,659886,230092,1323729,68808,8692,661599,0
98,-1,663346,230478,1262640,68919,7817,631023,0
98,-1,664151,230379,1363695,68843,7929,681537,0
98,-1,674269,232641,1364855,69425,8390,682062,0
98,1,716000,250283,1430492,74582,8871,714591,0
98,-1,664928,230001,1276579,68754,7737,637975,0
98,-1,688858,235221,1278025,72117,7751,638655,0
98,-1,679954,234880,1424125,71540,9013,711659,0
98,-1,670822,231062,1311181,69452,8962,655225,0
98,1,708892,248268,1353340,73948,9675,676242,0
98,-1,669458,230494,1270119,69270,7031,634701,0
98,-1,669298,231250,1375689,69626,8404,687322,0
98,-1,668599,231300,1239209,69636,8109,619189,2
99,-1,666630,230736,1292786,68985,7308,646081,0
99,1,708306,248152,1320543,73572,8230,659930,0
99,-1,671183,231923,1355029,69483,8187,677044,0
99,-1,660047,230080,1356432,68922,8039,677875,0
99,-1,666017,231331,1227649,69221,7381,613437,0
99,-1,669962,232893,1408061,70006,9110,703274,0
99,-1,673781,232053,1444912,69206,9109,721504,0
99,1,710511,248443,1370461,73702,8296,684882,0
99,-1,667123,230065,1352541,68739,8447,675890,0
99,-1,669813,231510,1375630,69297,8134,687220,0
99,-1,660589,230284,1311145,68257,7322,655196,0
99,-1,667782,230009,1479631,69091,8565,739210,0
99,1,713931,248777,1304635,74197,9395,651911,0
99,-1,666554,229725,1305481,69073,7879,652371,0
99,-1,671089,232201,1292812,70121,8769,645988,0
99,-1,671652,233208,1369440,70428,8497,684127,2
100,-1,670191,232307,1363655,69781,7763,681309,0
100,1,707861,247719,1436433,73499,8586,717818,0
100,-1,664952,229902,1265362,68587,6999,632307,0
100,-1,660546,230725,1295558,69039,8533,647459,0
100,-1,668039,232046,1282432,69625,7693,640548,0
100,-1,686265,235525,1292542,72374,9231,645649,0
100,-1,694399,236656,1448861,72533,10204,723732,0
100,1,710220,249750,1395855,74354,8713,697279,0
100,-1,688658,235594,1477302,72308,9622,738207,0
100,-1,664480,229871,1307915,68498,7468,653548,0
100,-1,658828,230062,1254076,68143,7161,626574,0
100,-1,669024,230908,1458992,69676,8690,729064,0
100,1,711580,248740,1292242,74215,8510,645646,0
100,-1,670739,231554,1243298,69745,7686,621091,0
100,-1,668788,230688,1356124,69354,8238,677781,0
100,-1,670770,231679,1332127,69690,7941,665662,2
101,-1,685934,234795,1355755,72163,8772,677394,0
101,1,730002,252359,1369169,76906,9385,684239,0
101,-1,673246,232242,1352507,69756,8176,675668,0
101,-1,667354,232630,1375474,69965,9070,687182,0
101,-1,664545,231001,1214125,69121,7088,606709,0
101,-1,667296,230725,1299295,69005,9031,648676,0
101,-1,672232,232056,1672097,69214,9430,834771,0
101,1,708627,248354,1283092,73608,7894,641158,0
101,-1,664126,229786,1241915,68647,7675,620707,0
101,-1,665537,230592,1217133,68851,7496,608165,0
101,-1,656375,230127,1335922,68163,7189,667547,0
101,-1,686893,234337,1463590,72372,9630,731319,0
101,1,731454,252927,1460624,77404,9312,729936,0
101,-1,668237,229967,1297998,69139,7081,648615,0
101,-1,669829,231732,1445978,69800,8531,722590,0
101,-1,669949,232011,1300065,69816,8759,649683,2
102,-1,666736,231792,1415350,69533,7467,707136,0
102,1,707835,247586,1360400,73623,7881,679923,0
102,-1,666440,230612,1365510,68958,7173,682379,0
102,-1,660877,230658,1253391,69055,8342,625886,0
102,-1,664691,231486,1365888,69276,7274,682552,0
102,-1,666707,230921,1289865,68979,8313,644512,0
102,-1,672632,232114,1384518,69222,8727,691362,0
102,1,708801,248480,1234916,73613,8324,616996,0
102,-1,669691,231426,1360041,69371,8345,679409,0
102,-1,668230,230282,1213811,68682,7728,606593,0
102,-1,672677,230948,1265753,68815,6793,632406,0
102,-1,666114,230217,1305001,69163,8073,652170,0
102,1,713742,250254,1285658,74952,7860,642376,0
102,-1,667474,229991,1280086,69108,7198,639652,0
102,-1,667890,231369,1349694,69647,8421,674545,0
102,-1,670625,231717,1356330,69709,8516,677934,2
103,-1,690256,238878,1263509,71440,7530,631339,0
103,1,708329,247324,1347609,73440,8957,673495,0
103,-1,665529,229652,1263314,68780,7289,631224,0
103,-1,661688,231330,1312296,69312,7970,655087,0
103,-1,662994,230807,1279176,69003,7006,639218,0
103,-1,669501,232085,1289764,69609,8595,644309,0
103,-1,672109,232239,1357506,69314,8511,678395,0
103,1,728904,253014,1289626,76813,9522,644489,0
103,-1,662526,229652,1285495,68594,7586,642099,0
103,-1,667755,230862,1301308,68966,7590,650251,0
103,-1,674551,230628,1484713,68733,7546,741943,0
103,-1,671038,231391,1315849,69748,8455,657435,0
103,1,708375,248489,1415924,74228,8991,707580,0
103,-1,670594,231816,1280939,69981,7537,639870,0
103,-1,668370,231057,1362039,69465,8718,680813,0
103,-1,667608,231236,1335947,69559,8270,667506,2
104,-1,728958,251248,1426908,74793,9237,712736,0
104,1,710512,247875,1298337,73606,8696,648737,0
104,-1,670177,231802,1222927,69402,7277,611135,0
104,-1,663641,232037,1438713,69680,8767,718429,0
104,-1,667904,232113,1432698,69705,8191,715802,0
104,-1,668082,231721,1218257,69371,8061,608737,0
104,1,712425,247868,1359381,73354,9061,679302,0
104,-1,675808,232510,1342607,69402,8993,670987,0
104,-1,687416,234565,1296224,72037,8488,647683,0
104,-1,665480,230100,1325901,68644,8006,662647,0
104,-1,679104,232804,1621671,69738,9622,810163,0
104,-1,667357,229965,1316972,69089,7736,657869,0
104,1,711684,249870,1391619,74598,8427,695416,0
104,-1,666007,230083,1238954,69163,7793,619143,0
104,-1,671394,232319,1323973,70162,8411,661202,0
105,-1,721028,248695,1411625,73776,8432,705488,0
105,1,713430,249558,1327638,74440,8736,663232,0
105,-1,669548,232200,1368514,69724,7690,683646,0
105,-1,673042,230467,1394713,69000,8697,696907,0
105,-1,688710,234999,1273377,72121,8741,636215,0
105,-1,684032,234890,1247364,72183,8880,623183,0
105,1,710689,248349,1716737,73520,10492,857004,0
105,-1,671827,231451,1412489,69036,8880,705794,0
105,-1,669916,230785,1271191,69003,8256,635172,0
105,-1,686802,235157,1266545,72131,8469,632719,0
105,-1,672802,230651,1362945,68784,7271,681067,0
105,-1,674486,232987,1360739,70375,8379,679374,0
105,1,735436,253096,1455098,77510,10355,727237,0
105,-1,665187,229757,1201229,68989,7978,600157,0
105,-1,665722,230924,1350716,69396,8802,674969,0
106,-1,726300,250138,1421555,74412,9169,710298,0
106,1,711935,249013,1433627,74117,9720,716088,0
106,-1,671052,230629,1392885,68984,8993,696084,0
106,-1,691660,234999,1393233,72295,10162,695799,0
106,-1,666987,230526,1330077,68969,8050,664604,0
106,-1,664004,231045,1222962,69107,7926,611119,0
106,1,711761,247973,1377374,73432,9733,688289,0
106,-1,694635,237526,1379407,72928,9303,689365,0
106,-1,665983,229617,1315105,68605,8591,657077,0
106,-1,667890,230474,1226900,68750,7728,613214,0
106,-1,669475,229555,1256483,68325,6837,627880,0
106,-1,665486,230088,1409455,69135,8569,703460,0
106,1,715230,249176,1281715,74442,8446,640501,0
106,-1,667760,230824,1182732,69306,7810,590956,0
106,-1,667288,232099,1340094,70010,8000,669559,0
107,-1,718722,248043,1430259,73538,8536,714748,0
107,1,702907,246842,1332934,73305,8379,665660,0
107,-1,672905,231796,1292453,69362,8114,645855,0
107,-1,670818,230666,1221407,69114,7963,610333,0
107,-1,668249,231126,1229129,69170,7639,614227,0
107,-1,664928,230596,1189935,69005,7297,594576,0
107,1,718150,251115,1455240,74670,9850,726958,0
107,-1,672567,232011,1437765,69353,8997,718577,0
107,-1,672223,232138,1248091,69621,8254,623367,0
107,-1,669842,231903,1316961,69416,7473,657858,0
107,-1,673904,231192,1352153,68955,7999,675476,0
107,-1,667314,231110,1415485,69455,8745,707321,0
107,1,712260,249001,1402496,74262,9928,700741,0
107,-1,686027,234727,1269333,72457,8513,634304,0
107,-1,670158,232656,1275912,70308,8975,637384,0
108,-1,718695,248292,1355085,73628,8353,677170,0
108,1,704466,247467,1402732,73539,8892,700961,0
108,-1,672842,232038,1406323,69688,9055,702737,0
108,-1,669086,230181,1316157,68928,7819,657799,0
108,-1,668684,231763,1321345,69537,8153,659994,0
108,-1,675156,232674,1340239,69839,8537,669177,0
108,1,710777,248355,1521731,73572,9610,760529,0
108,-1,671620,232195,1462821,69423,7939,731397,0
108,-1,665069,229752,1203293,68671,8225,601293,0
108,-1,663955,229919,1344789,68524,7574,672051,0
108,-1,677977,232498,1232470,69562,7973,615530,0
108,-1,667433,230709,1364468,69359,9030,681540,0
108,1,713475,248823,1401173,74292,8761,700059,0
108,-1,691941,239222,1243795,71905,8014,621569,0
108,-1,662881,230178,1341213,69230,8260,670399,0
109,-1,721478,248824,1328717,73837,9231,664057,0
109,1,707598,247404,1305929,73513,8508,652642,0
109,-1,688805,235516,1252335,72359,8538,625853,0
109,-1,670106,230996,1342629,69215,8098,670995,0
109,-1,668859,231670,1327434,69354,7920,663375,0
109,-1,671630,231845,1359182,69388,7428,679049,0
109,1,716037,249719,1474972,74123,10403,736383,0
109,-1,669277,231437,1495997,69214,9657,746694,0
109,-1,667300,230553,1259539,68825,8436,629415,0
109,-1,669531,232122,1367160,69566,7651,682991,0
109,-1,670812,230255,1283093,68656,7091,640965,0
109,-1,668747,230447,1342574,69261,9024,670319,0
109,1,710112,248518,1396360,74165,8743,697853,0
109,-1,663911,229816,1177044,69058,7956,588235,0
109,-1,671686,229043,1385736,68839,8627,692286,0
110,-1,719976,248339,1448081,73636,8828,723766,0
110,1,721975,251209,1375655,76559,8606,687479,0
110,-1,665824,230625,1244195,68904,7692,621774,0
110,-1,692794,235407,1297255,72444,9137,648179,0
110,-1,671320,233059,1395367,70018,8123,697135,0
110,-1,691145,235562,1352074,72392,9582,675641,0
110,1,711804,248218,1572514,73419,10253,785883,0
110,-1,671702,231819,1363773,69365,9612,681339,0
110,-1,687952,234830,1336758,71999,9480,668122,0
110,-1,686251,235417,1299227,72222,8115,649355,0
110,-1,669486,229411,1454780,68447,8701,726916,0
110,-1,689665,235421,1448291,72680,10256,723338,0
110,1,730288,252908,1438536,77458,8823,718842,0
110,-1,673239,231044,1316754,69598,8133,657908,0
110,-1,692327,234522,1494956,72390,10126,747276,0
111,-1,724782,250712,1447470,74562,8053,723191,0
111,1,705453,247640,1431995,73554,8734,715609,0
111,-1,667455,230414,1291652,68909,8946,645418,0
111,-1,669403,230355,1355507,68977,8619,677413,0
111,-1,665708,231365,1445738,69237,8417,722548,0
111,-1,668504,231013,1388427,69161,8183,693746,0
111,1,737024,256793,1304237,76054,9216,651802,0
111,-1,678898,233606,1432020,70225,9665,715382,0
111,-1,667732,231098,1381453,69026,8747,690241,0
111,-1,664360,230445,1209328,68694,7536,604331,0
111,-1,671357,230405,1375105,68692,8031,686926,0
111,-1,667457,229987,1184417,69090,7594,591911,0
111,1,710529,248277,1233158,74175,8581,616190,0
111,-1,671140,230692,1465862,69366,9760,732529,0
111,-1,670475,229810,1343538,69044,8997,671369,0
112,-1,718761,248662,1385684,73792,8012,692461,0
112,1,703664,246621,1360544,73154,7893,679905,0
112,-1,665519,229985,1372955,68869,8680,686106,0
112,-1,669565,230217,1384470,68976,8492,691872,0
112,-1,666122,230782,1226307,68996,7408,612817,0
112,-1,666056,230541,1337091,68882,7446,668761,0
112,1,711174,248400,1239542,73675,8928,619346,0
112,-1,693925,236072,1423595,72565,9959,711455,0
112,-1,694654,240040,1445066,71610,9479,721982,0
112,-1,690272,235412,1379138,72204,9043,689226,0
112,-1,670039,230093,1381621,68584,7916,690454,0
112,-1,667942,231263,1171285,69736,6973,585066,0
112,1,729439,252528,1454862,77444,9778,727004,0
112,-1,668030,229901,1298378,69103,7619,648892,0
112,-1,669857,229874,1350624,69058,8897,674914,0
113,-1,719884,248542,1382960,73757,8433,691145,0
113,1,707793,249161,1379095,74321,8412,688977,0
113,-1,666022,230241,1321104,68931,7244,660213,0
113,-1,669511,230576,1391483,69037,8479,695445,0
113,-1,669901,232215,1359620,69682,7830,679299,0
113,-1,665568,230743,1257241,69040,7837,628393,0
113,1,715837,249981,1354281,74482,9826,676046,0
113,-1,672922,231420,1497150,69288,9142,747860,0
113,-1,664375,230295,1343077,68718,7991,671142,0
113,-1,672291,231815,1303408,69404,7890,651186,0
113,-1,670380,230407,1286828,68711,7276,642979,0
113,-1,663692,229603,1231161,68971,8271,615284,0
113,1,717117,249807,1352687,74983,8487,675715,0
113,-1,668497,230316,1283753,69268,7688,641407,0
113,-1,674668,232176,1297588,70064,8164,648221,0
114,-1,719010,248625,1280921,73720,7830,640165,0
114,1,714296,249592,1399084,74380,9317,698889,0
114,-1,664431,229896,1351174,68730,8667,675220,0
114,-1,673138,231665,1372966,69603,8595,685978,0
114,-1,665028,230716,1231711,69056,7454,615543,0
114,-1,667578,230699,1387367,68944,8752,692581,0
114,1,732440,253116,1447823,77054,11071,723918,0
114,-1,672063,231423,1426988,69256,8558,712954,0
114,-1,668511,232031,1414418,69516,8974,706253,0
114,-1,667310,230600,1225113,68770,7722,612286,0
114,-1,669565,230131,1329563,68585,7650,664428,0
114,-1,666671,231135,1207439,69432,7955,603369,0
114,1,713328,249121,1366230,74500,8545,682739,0
114,-1,669195,230619,1220031,69294,7137,609656,0
114,-1,691209,235024,1399593,72573,9571,699369,0
115,-1,715209,248239,1317695,73608,8299,658470,0
115,1,705734,247083,1401297,73253,8348,700339,0
115,-1,667137,231135,1351280,69331,8549,675054,0
115,-1,669233,230522,1304404,69072,8007,651810,0
115,-1,664623,230475,1357087,68943,7949,677998,0
115,-1,670789,231751,1324610,69384,7908,661938,0
115,1,711376,248072,1510327,73679,10836,754593,0
115,-1,677748,233105,1501296,69991,9101,749333,0
115,-1,669783,231042,1471235,69060,8660,734924,0
115,-1,664494,229821,1294996,68551,8024,647186,0
115,-1,691864,235427,1420189,72133,8523,709629,0
115,-1,666223,230195,1273455,69154,7704,636364,0
115,1,711927,248624,1376745,74351,8917,688033,0
115,-1,668960,230885,1304137,69425,8193,651742,0
115,-1,672040,230677,1360648,69276,8988,679789,0
116,-1,719869,248558,1386895,73765,8155,693151,0
116,1,703436,246828,1412188,73198,8430,705761,0
116,-1,660784,229522,1319502,68619,8196,659122,0
116,-1,668660,230305,1326607,68951,7997,663048,0
116,-1,664215,230826,1331723,69086,7837,665496,0
116,-1,666320,230866,1367674,69060,8132,683058,0
116,1,712269,249306,1414766,74322,9295,706786,0
116,-1,673121,231781,1498731,69449,8763,748466,0
116,-1,666590,230417,1383746,68773,8804,691202,0
116,-1,669013,230365,1236405,68749,7946,617773,0
116,-1,674067,230801,1685998,68845,9989,842479,0
116,-1,685584,234048,1374714,72304,8082,687105,0
116,1,709956,248496,1425855,74172,9234,712590,0
116,-1,665360,229805,1319699,69016,7993,659543,0
116,-1,667809,229374,1363760,68843,8622,681621,0
117,-1,718648,248096,1318326,73568,8315,658788,0
117,1,715270,250114,1492990,74632,9655,745859,0
117,-1,665959,229925,1277885,68786,7014,638538,0
117,-1,670452,230786,1214581,69110,8550,606843,0
117,-1,669246,232309,1330603,69733,7912,664712,0
117,-1,665173,231013,1327030,69098,7648,663240,0
117,1,703931,246955,1366735,73270,8772,683070,0
117,-1,674906,233429,1483307,70185,9131,740730,0
117,-1,670481,232207,1334745,69598,8524,666903,0
117,-1,667508,230566,1347997,68830,7393,673638,0
117,-1,674407,231354,1299128,69202,8455,648874,0
117,-1,664610,229684,1427137,69054,8267,713121,0
117,1,712113,249923,1400002,74837,9060,699535,0
117,-1,668314,230370,1335911,69221,7736,667654,0
117,-1,672811,231688,1306358,69943,8927,652598,0
118,-1,716941,247932,1410352,73501,8004,704760,0
118,1,715145,250206,1380531,74567,9181,689694,0
118,-1,672822,232771,1465362,69963,8314,732082,0
118,-1,690125,235374,1230701,72473,9088,614680,0
118,-1,685446,235348,1270427,72335,7978,634840,0
118,-1,662834,230483,1290154,68892,7681,644566,0
118,1,708916,247278,1301974,73374,8528,650615,0
118,-1,694497,236605,1432693,72750,10308,716523,0
118,-1,665926,230874,1346885,68850,8225,672961,0
118,-1,669737,231235,1307294,69240,7579,653090,0
118,-1,669111,230019,1261441,68610,7531,629983,0
118,1,706444,248407,1368272,74206,8161,683759,0
118,-1,664947,230315,1319644,69221,7281,659528,0
118,-1,664914,230040,1211033,69107,7385,605205,0
118,-1,671170,230869,1352467,69419,8979,675918,0
119,-1,717519,248110,1330749,73589,7736,665098,0
119,1,705356,246925,1459291,73168,8750,729298,0
119,-1,686435,234585,1294483,72123,8374,646862,0
119,-1,672963,231333,1309546,69430,9076,654302,0
119,-1,664237,230632,1384571,68947,7432,691995,0
119,-1,668005,231083,1545562,69041,8887,771159,0
119,1,705942,247630,1364691,73416,8670,681363,0
119,-1,676266,233481,1465012,70052,9315,731910,0
119,-1,664533,230699,1247016,68912,7323,623073,0
119,-1,666621,230524,1213327,68819,7600,606324,0
119,-1,674581,231836,1247072,69417,8411,623016,0
119,1,710676,248787,1466226,74298,9403,732660,0
119,-1,682513,234489,1350527,72349,8630,674806,0
119,-1,689891,234758,1357160,72455,8430,678186,0
119,-1,671672,230654,1280386,69311,8469,639774,0
120,-1,726284,251609,1422806,74989,8458,710776,0
120,1,704252,247103,1411912,73411,8064,705575,0
120,-1,666352,230754,1260938,69061,7203,630105,0
120,-1,667080,229951,1311843,68850,8225,655568,0
120,-1,665417,230614,1234885,69006,7476,617103,0
120,-1,668577,231205,1335632,69158,8092,667027,0
120,1,709232,248269,1279215,73598,8281,639278,0
120,-1,673034,232593,1298119,69591,8851,648685,0
120,-1,664424,230486,1365872,68792,8294,682688,0
120,-1,691075,234973,1279008,72053,8376,639203,0
120,-1,669306,230207,1290313,68605,7484,644793,0
120,1,704836,247467,1390271,73803,8502,694846,0
120,-1,667819,230322,1328748,69258,7461,664000,0
120,-1,668045,230286,1290988,69198,7224,645175,0
120,-1,669836,229842,1340362,69088,8783,669642,0
121,-1,718734,249003,1434276,73874,7417,716838,0
121,1,727307,253210,1395064,77096,9119,697135,0
121,-1,667102,231161,1291475,69168,7758,645524,0
121,-1,666051,229350,1357213,68748,8477,678295,0
121,-1,666414,231085,1314093,69152,7397,656461,0
121,-1,669174,231958,1411607,69592,8408,705089,0
121,1,712579,247930,1361401,73699,9483,680288,0
121,-1,691049,235964,1318247,72474,8464,658718,0
121,-1,664672,230622,1349320,68833,7963,674340,0
121,-1,669452,230642,1360197,68864,8212,679722,0
121,-1,671295,231313,1331663,69006,7812,665521,0
121,1,713774,247659,1367673,73971,9259,683539,0
121,-1,692539,238782,1339919,71746,7368,669566,0
121,-1,671057,231561,1298857,69601,7223,649002,0
121,-1,669645,230059,1543496,69105,9277,771292,0
122,-1,718056,248627,1404289,73753,7603,701788,0
122,1,726097,256070,1436997,75572,8756,718132,0
122,-1,667512,231002,1342850,69295,8202,670858,0
122,-1,669343,231002,1269049,69173,7712,634238,0
122,-1,663944,230206,1364386,68831,7175,681866,0
122,-1,664130,230389,1291918,68817,8284,645672,0
122,1,711268,248187,1414794,73765,9046,706937,0
122,-1,670493,231919,1395347,69388,8166,697347,0
122,-1,666291,230841,1213118,68962,7847,606152,0
122,-1,665968,229787,1206008,68530,7514,602672,0
122,-1,670574,231264,1296938,69105,7603,647682,0
122,1,711095,247428,1553295,73777,9662,776208,0
122,-1,672484,232180,1244372,70012,7288,621654,0
122,-1,669963,231602,1224706,69787,7668,611822,0
122,-1,692431,234706,1517456,72468,10443,758353,0
123,-1,719715,248188,1269702,73641,8156,634602,0
123,1,741208,260927,1402122,76886,8411,700702,0
123,-1,664985,230395,1256958,68916,7962,628079,0
123,-1,672030,232368,1378188,69904,8518,688381,0
123,-1,685409,235311,1307262,72351,8217,653284,0
123,-1,667230,231100,1260913,69152,7472,630326,0
123,1,709728,247975,1270660,73646,8459,634735,0
123,-1,669058,231761,1245779,69293,7527,622608,0
123,-1,664554,230733,1196769,68918,8232,598063,0
123,-1,667755,230239,1379241,68761,7888,689267,0
123,-1,670461,230412,1248046,68752,7388,623611,0
123,1,709804,247425,1386705,73701,9186,693010,0
123,-1,667395,230409,1330611,69287,7882,664889,0
123,-1,665898,229443,1299518,68818,7652,649493,0
123,-1,671400,230737,1383566,69263,9138,691205,0
124,-1,717723,248555,1410924,73715,8777,705036,0
124,1,759255,264173,1426174,77861,9391,712782,0
124,-1,664077,230116,1319204,68826,8065,659246,0
124,-1,688073,234712,1323175,72187,8846,661189,0
124,-1,666746,231943,1305882,69589,8611,652230,0
124,-1,667378,231688,1337928,69457,7771,668303,0
124,1,734440,253589,1363248,77281,9362,681237,0
124,-1,675475,232431,1345940,69625,8713,672562,0
124,-1,663699,230361,1288492,68748,8663,643946,0
124,-1,664794,229880,1262191,68536,7383,630746,0
124,-1,669087,229874,1244838,68608,7673,622093,0
124,1,707924,247518,1498176,73874,9492,748631,0
124,-1,666444,229962,1305552,69105,7303,652406,0
124,-1,666385,230219,1229712,69186,7431,614514,0
124,-1,669001,230157,1556799,69129,9823,778557,0
125,-1,722613,250629,1441754,74573,8350,720383,0
125,1,760471,265112,1393584,78165,9246,696583,0
125,-1,663595,229791,1308513,68734,7239,653869,0
125,-1,668323,230631,1336336,69104,8429,667812,0
125,-1,662188,230565,1244939,68953,7448,621797,0
125,-1,665502,230765,1255082,69057,7231,627260,0
125,1,709519,247985,1459834,73618,10444,729447,0
125,-1,672155,231932,1257665,69398,8117,628409,0
125,-1,670416,230025,1274047,68760,7828,636591,0
125,-1,664867,230324,1312939,68689,7442,656098,0
125,-1,671407,231947,1265105,69436,7202,632040,0
125,1,714592,249637,1399121,74695,10017,698952,0
125,-1,686144,234684,1390847,72466,8388,695020,0
125,-1,665685,230332,1322368,69164,7409,660849,0
125,-1,670550,230733,1381329,69396,8994,690279,0
126,-1,715258,248237,1292000,73596,7676,645627,0
126,1,779115,270258,1543870,81623,10061,771543,0
126,-1,662778,229840,1354500,68695,8245,676915,0
126,-1,669998,231703,1236516,69439,8158,617845,0
126,-1,670184,232975,1262541,69935,8018,630622,0
126,-1,666193,231304,1348182,69186,7903,673933,0
126,1,733445,253080,1381946,77061,10857,690705,0
126,-1,671213,231826,1313177,69382,8860,655883,0
126,-1,674053,232002,1324021,69594,8517,661549,0
126,-1,662337,229531,1223438,68468,7219,611309,0
126,-1,668544,230659,1354239,68867,7744,676685,0
126,1,715134,249334,1352697,74729,8725,675752,0
126,-1,667009,230305,1314455,69237,7856,656832,0
126,-1,671064,232246,1229299,70072,8032,613845,0
126,-1,667788,230284,1443991,69213,9375,721487,0
127,-1,721004,248676,1350891,73757,8393,675064,0
127,1,782149,270070,1493442,81617,10248,746503,0
127,-1,666994,231193,1198026,69167,7573,598661,0
127,-1,665709,230368,1249035,69035,8124,624236,0
127,-1,683981,235132,1245773,72274,7806,622398,0
127,-1,685228,235118,1309976,72287,8923,654647,0
127,1,711047,248674,1359162,73828,9668,678878,0
127,-1,668052,230932,1442556,69006,8427,720465,0
127,-1,669570,229859,1341670,68709,8936,670272,0
127,-1,670278,231109,1327418,69025,8463,663372,0
127,-1,664976,229841,1489904,68578,9310,744505,0
127,1,707632,247828,1311967,73811,8533,655645,0
127,-1,665585,230210,1337542,69177,8079,668533,0
127,-1,665124,229829,1187497,69030,7900,593385,0
127,-1,671664,230898,1381233,69366,9324,689738,0
