0,0,117,645030.658120,220612.393162,1303220.273504,66576.504274,8051.521368,651141.649573,10060.460126,3191.902741,76063.202301,1247.400686,622.091463,38027.747535
0,1,0,-nan,-nan,-nan,-nan,-nan,-nan,-nan,-nan,-nan,-nan,-nan,-nan
1,0,116,645424.698276,220633.577586,1304276.982759,66653.344828,7992.327586,651713.103448,10826.091677,3061.654613,69692.232227,1336.756491,606.120006,34849.206886
1,1,0,-nan,-nan,-nan,-nan,-nan,-nan,-nan,-nan,-nan,-nan,-nan,-nan
2,0,116,644192.206897,220394.525862,1306414.931034,66512.637931,8071.344828,652737.862069,9421.815103,2644.679817,86515.268824,1188.005460,641.029212,43227.190862
2,1,0,-nan,-nan,-nan,-nan,-nan,-nan,-nan,-nan,-nan,-nan,-nan,-nan
3,0,116,644710.017241,220467.956897,1301056.965517,66602.724138,7933.551724,650077.336207,9150.090947,2417.834313,82563.626286,1224.582164,649.889664,41277.420322
3,1,0,-nan,-nan,-nan,-nan,-nan,-nan,-nan,-nan,-nan,-nan,-nan,-nan
4,0,116,645208.405172,220621.767241,1288138.060345,66634.517241,7915.310345,643637.732759,10592.958801,2982.947857,79253.898267,1310.566464,634.784343,39604.117440
4,1,0,-nan,-nan,-nan,-nan,-nan,-nan,-nan,-nan,-nan,-nan,-nan,-nan
5,0,116,644632.025862,220491.905172,1305137.724138,66580.310345,7982.181034,652104.767241,8824.670675,2407.990030,77240.224782,1085.676322,598.492151,38614.551232
5,1,0,-nan,-nan,-nan,-nan,-nan,-nan,-nan,-nan,-nan,-nan,-nan,-nan
6,0,117,645316.914530,220652.316239,1303230.188034,66705.923077,8018.008547,651156.017094,10031.300251,2667.232698,79290.079414,1357.602595,642.625856,39630.969372
6,1,0,-nan,-nan,-nan,-nan,-nan,-nan,-nan,-nan,-nan,-nan,-nan,-nan
7,0,117,645417.709402,220656.897436,1304819.914530,66655.076923,8053.495726,651965.239316,10413.603839,3070.576834,80061.271244,1309.566994,678.151518,40022.039052
7,1,0,-nan,-nan,-nan,-nan,-nan,-nan,-nan,-nan,-nan,-nan,-nan,-nan
8,0,117,645528.641026,220668.025641,1297166.957265,66708.213675,7996.504274,648118.811966,10624.190303,3000.650851,68299.398327,1367.100824,634.484307,34134.867647
8,1,0,-nan,-nan,-nan,-nan,-nan,-nan,-nan,-nan,-nan,-nan,-nan,-nan
9,0,117,644389.965812,220560.017094,1299819.931624,66547.367521,8006.675214,649476.632479,9552.721969,2968.912679,77836.384419,1178.676663,695.158960,38907.259862
9,1,0,-nan,-nan,-nan,-nan,-nan,-nan,-nan,-nan,-nan,-nan,-nan,-nan
10,0,117,645534.401709,220741.350427,1304969.820513,66731.888889,8044.829060,652014.547009,10419.639514,2922.583199,75024.533356,1312.445416,619.666043,37499.397480
10,1,0,-nan,-nan,-nan,-nan,-nan,-nan,-nan,-nan,-nan,-nan,-nan,-nan
11,0,117,645098.085470,220689.777778,1306972.367521,66676.581197,7969.649573,653018.128205,11253.970094,3125.046358,66235.299471,1377.416715,628.398362,33079.446102
11,1,0,-nan,-nan,-nan,-nan,-nan,-nan,-nan,-nan,-nan,-nan,-nan,-nan
12,0,117,643898.692308,220383.598291,1297163.495726,66508.777778,7946.615385,648130.418803,9289.368350,2685.168021,72890.254434,1124.761818,681.215679,36396.456411
12,1,0,-nan,-nan,-nan,-nan,-nan,-nan,-nan,-nan,-nan,-nan,-nan,-nan
13,0,117,645304.008547,220578.256410,1305645.000000,66652.641026,8059.666667,652367.427350,10554.368328,3033.405852,77369.501146,1366.217596,709.421806,38703.763377
13,1,0,-nan,-nan,-nan,-nan,-nan,-nan,-nan,-nan,-nan,-nan,-nan,-nan
14,0,117,645219.068376,220634.632479,1288728.529915,66651.452991,7968.880342,643921.974359,10735.385500,3078.578453,70346.257188,1343.769717,633.870180,35154.427763
14,1,0,-nan,-nan,-nan,-nan,-nan,-nan,-nan,-nan,-nan,-nan,-nan,-nan
15,0,228,643424.105263,220436.048246,1295681.802632,66533.399123,7923.872807,647354.250000,7879.264970,2306.933423,72760.689951,970.531625,591.275388,36365.345015
15,1,0,-nan,-nan,-nan,-nan,-nan,-nan,-nan,-nan,-nan,-nan,-nan,-nan
