-1,0,0.0598504
-1,1,0.0592269
-1,2,0.0592269
-1,3,0.0592269
-1,4,0.0592269
-1,5,0.0592269
-1,6,0.0592269
-1,7,0.0592269
-1,8,0.0592269
-1,9,0.0592269
-1,10,0.0592269
-1,11,0.0592269
-1,12,0.0592269
-1,13,0.0592269
-1,14,0.0592269
-1,15,0.110973
2,0,0.0636792
2,1,0.0613208
2,2,0.0613208
2,3,0.0613208
2,4,0.0613208
2,5,0.0613208
2,6,0.0613208
2,7,0.0613208
2,8,0.0613208
2,9,0.0636792
2,10,0.0636792
2,11,0.0636792
2,12,0.0636792
2,13,0.0636792
2,14,0.0636792
2,15,0.0636792
