0,0,9,653642.222222,224019.666667,1316836.777778,67496.666667,7744.666667,657877.555556,21062.264497,7006.396221,93303.944230,1893.838372,922.013618,46699.787894
0,1,0,-nan,-nan,-nan,-nan,-nan,-nan,-nan,-nan,-nan,-nan,-nan,-nan
1,0,8,646487.125000,221788.875000,1276667.500000,66719.375000,7599.875000,637749.500000,16019.403379,5761.170160,51380.137658,1568.065045,551.773830,25709.289595
1,1,0,-nan,-nan,-nan,-nan,-nan,-nan,-nan,-nan,-nan,-nan,-nan,-nan
2,0,8,647821.750000,221595.750000,1300213.125000,66655.375000,7394.500000,649542.875000,18848.996311,7017.304268,109763.429694,2010.236798,808.474026,54595.109684
2,1,0,-nan,-nan,-nan,-nan,-nan,-nan,-nan,-nan,-nan,-nan,-nan,-nan
3,0,8,650954.750000,222398.125000,1303910.750000,67164.875000,7595.125000,651422.125000,18132.040472,6037.844368,53474.820990,1884.342355,455.939261,26744.783937
3,1,0,-nan,-nan,-nan,-nan,-nan,-nan,-nan,-nan,-nan,-nan,-nan,-nan
4,0,8,644756.500000,220593.250000,1282021.250000,66765.875000,7593.000000,640369.875000,6594.391007,1508.385374,37137.479615,971.873248,639.673550,18469.087555
4,1,0,-nan,-nan,-nan,-nan,-nan,-nan,-nan,-nan,-nan,-nan,-nan,-nan
5,0,8,645053.250000,220325.000000,1297936.250000,66806.125000,7571.500000,648445.125000,10524.517694,2196.277931,100397.517581,1556.542518,879.554006,50231.752895
5,1,0,-nan,-nan,-nan,-nan,-nan,-nan,-nan,-nan,-nan,-nan,-nan,-nan
6,0,8,640396.500000,219585.250000,1340381.375000,66167.375000,7723.125000,669608.000000,2893.519440,992.504503,26814.874613,548.264520,496.743001,13287.414807
6,1,0,-nan,-nan,-nan,-nan,-nan,-nan,-nan,-nan,-nan,-nan,-nan,-nan
7,0,8,643417.250000,220220.000000,1291285.625000,66596.500000,7666.875000,645071.250000,7248.926761,1625.553367,53977.481981,1108.794503,577.151938,27024.349815
7,1,0,-nan,-nan,-nan,-nan,-nan,-nan,-nan,-nan,-nan,-nan,-nan,-nan
8,0,8,640089.250000,219414.875000,1290283.250000,66090.625000,7515.750000,644611.875000,3412.696505,892.630584,50389.014876,403.641839,743.362084,25193.052383
8,1,0,-nan,-nan,-nan,-nan,-nan,-nan,-nan,-nan,-nan,-nan,-nan,-nan
9,0,8,646315.500000,220944.625000,1322131.000000,66632.500000,7835.500000,660444.000000,8889.960306,3004.908274,63865.576275,919.874584,585.201034,31987.016808
9,1,0,-nan,-nan,-nan,-nan,-nan,-nan,-nan,-nan,-nan,-nan,-nan,-nan
10,0,8,643322.625000,219805.875000,1297808.000000,66431.500000,7853.625000,648322.125000,7805.088259,1673.279821,63203.480660,1102.595461,725.201168,31465.584324
10,1,0,-nan,-nan,-nan,-nan,-nan,-nan,-nan,-nan,-nan,-nan,-nan,-nan
11,0,8,641592.375000,219516.375000,1325063.500000,66108.250000,7677.250000,661932.625000,4104.166174,480.850792,79435.163846,371.167668,672.651795,39607.081065
11,1,0,-nan,-nan,-nan,-nan,-nan,-nan,-nan,-nan,-nan,-nan,-nan,-nan
12,0,8,644484.500000,220255.375000,1312137.000000,66443.125000,7667.750000,655462.375000,2882.053912,891.027909,89676.939845,394.078811,652.903276,44887.166824
12,1,0,-nan,-nan,-nan,-nan,-nan,-nan,-nan,-nan,-nan,-nan,-nan,-nan
13,0,8,643769.875000,219928.875000,1281959.375000,66479.375000,7704.500000,640380.500000,7907.611546,1561.377712,97250.875614,1237.757240,694.315850,48567.605204
13,1,0,-nan,-nan,-nan,-nan,-nan,-nan,-nan,-nan,-nan,-nan,-nan,-nan
14,0,8,642848.000000,219336.875000,1313900.750000,66053.750000,7722.875000,656412.625000,2890.948763,622.116636,73183.327660,164.648679,690.420241,36655.133324
14,1,0,-nan,-nan,-nan,-nan,-nan,-nan,-nan,-nan,-nan,-nan,-nan,-nan
15,0,8,645900.875000,220223.875000,1280771.750000,66646.625000,7856.125000,639738.750000,7037.127334,1618.513163,74891.315007,1033.264842,479.588219,37464.669082
15,1,0,-nan,-nan,-nan,-nan,-nan,-nan,-nan,-nan,-nan,-nan,-nan,-nan
16,0,8,642603.125000,219487.375000,1279179.250000,66152.500000,7754.500000,638932.375000,2035.433273,974.981402,56867.699265,324.857276,636.730909,28335.899425
16,1,0,-nan,-nan,-nan,-nan,-nan,-nan,-nan,-nan,-nan,-nan,-nan,-nan
17,0,8,641815.375000,219139.500000,1313462.750000,65965.000000,7537.625000,656224.500000,1758.027512,602.863583,63357.783345,261.168528,366.636720,31747.753074
17,1,0,-nan,-nan,-nan,-nan,-nan,-nan,-nan,-nan,-nan,-nan,-nan,-nan
18,0,8,643182.625000,220266.750000,1275243.500000,66493.375000,7553.625000,636925.000000,4853.083580,1182.248150,58684.957082,522.072777,300.982532,29245.740198
18,1,0,-nan,-nan,-nan,-nan,-nan,-nan,-nan,-nan,-nan,-nan,-nan,-nan
19,0,8,646936.500000,220849.875000,1363074.500000,67060.125000,7966.125000,680890.625000,9817.948220,1839.075341,71071.849758,1312.786201,684.110451,35669.594303
19,1,0,-nan,-nan,-nan,-nan,-nan,-nan,-nan,-nan,-nan,-nan,-nan,-nan
20,0,8,643669.250000,220160.750000,1293940.250000,66577.875000,7536.875000,646423.250000,7712.433496,1346.590022,94934.435975,1015.801462,540.669131,47521.988876
20,1,0,-nan,-nan,-nan,-nan,-nan,-nan,-nan,-nan,-nan,-nan,-nan,-nan
21,0,8,642674.875000,219991.000000,1376943.250000,66365.250000,8177.750000,687638.750000,2340.708356,980.922525,103232.959591,440.166659,567.380549,51620.359801
21,1,0,-nan,-nan,-nan,-nan,-nan,-nan,-nan,-nan,-nan,-nan,-nan,-nan
22,0,8,643079.375000,219968.375000,1319314.500000,66495.750000,7735.000000,659044.375000,7488.366643,1559.359880,112649.192665,971.469731,699.697971,56200.896650
22,1,0,-nan,-nan,-nan,-nan,-nan,-nan,-nan,-nan,-nan,-nan,-nan,-nan
23,0,8,646915.875000,220814.750000,1349172.375000,67066.250000,8090.750000,673851.875000,10288.925702,1993.281073,105273.442554,1253.793220,697.003004,52396.696192
23,1,0,-nan,-nan,-nan,-nan,-nan,-nan,-nan,-nan,-nan,-nan,-nan,-nan
24,0,8,647730.375000,221586.500000,1351752.875000,67025.750000,8057.000000,675317.500000,15959.993092,3949.581149,101851.967108,1922.924904,822.867699,50852.549936
24,1,0,-nan,-nan,-nan,-nan,-nan,-nan,-nan,-nan,-nan,-nan,-nan,-nan
25,0,8,641623.125000,220051.250000,1335698.625000,66404.375000,7613.625000,666985.750000,3535.414029,1050.329442,92228.961936,529.224654,730.024989,46086.679252
25,1,0,-nan,-nan,-nan,-nan,-nan,-nan,-nan,-nan,-nan,-nan,-nan,-nan
26,0,8,643801.250000,220319.500000,1323396.125000,66690.250000,7756.625000,661098.875000,5768.184978,1521.464426,96804.207390,1046.302866,901.474755,48424.313615
26,1,0,-nan,-nan,-nan,-nan,-nan,-nan,-nan,-nan,-nan,-nan,-nan,-nan
27,0,8,647754.000000,221306.750000,1337046.250000,66915.000000,7784.625000,667866.125000,10818.312831,3150.854041,78154.277035,1152.305298,266.276143,39148.337824
27,1,0,-nan,-nan,-nan,-nan,-nan,-nan,-nan,-nan,-nan,-nan,-nan,-nan
28,0,8,648108.125000,221450.000000,1328646.000000,66984.375000,8092.125000,663755.875000,9409.822706,3211.775444,145484.768304,1321.528087,643.283848,72931.986785
28,1,0,-nan,-nan,-nan,-nan,-nan,-nan,-nan,-nan,-nan,-nan,-nan,-nan
29,0,8,642660.000000,219676.625000,1312574.000000,66210.000000,7672.250000,655561.000000,3434.677678,864.045129,72970.093394,362.670994,695.827161,36248.511142
29,1,0,-nan,-nan,-nan,-nan,-nan,-nan,-nan,-nan,-nan,-nan,-nan,-nan
30,0,8,648537.750000,221132.375000,1303165.375000,67190.375000,7916.750000,650959.500000,8657.658412,1911.323163,57861.103342,1427.747959,913.326304,28906.708542
30,1,0,-nan,-nan,-nan,-nan,-nan,-nan,-nan,-nan,-nan,-nan,-nan,-nan
31,0,8,645134.125000,220881.500000,1312744.750000,66582.250000,7656.250000,655911.250000,9057.266398,3162.376440,47726.473816,925.031452,244.681298,23853.844076
31,1,0,-nan,-nan,-nan,-nan,-nan,-nan,-nan,-nan,-nan,-nan,-nan,-nan
32,0,8,644757.250000,220234.500000,1286339.000000,66634.375000,7887.375000,642604.625000,9005.788524,1314.146301,73911.233275,1116.071787,898.089770,36984.360171
32,1,0,-nan,-nan,-nan,-nan,-nan,-nan,-nan,-nan,-nan,-nan,-nan,-nan
33,0,8,642492.875000,219545.500000,1340327.875000,66154.750000,7997.500000,669540.750000,2812.733788,890.188604,92199.400969,256.560787,515.567891,46257.120586
33,1,0,-nan,-nan,-nan,-nan,-nan,-nan,-nan,-nan,-nan,-nan,-nan,-nan
34,0,8,641119.375000,219242.875000,1315077.750000,66012.750000,8134.875000,656954.250000,3089.825761,501.243563,80248.425757,259.238187,662.001027,40085.792171
34,1,0,-nan,-nan,-nan,-nan,-nan,-nan,-nan,-nan,-nan,-nan,-nan,-nan
35,0,8,642718.750000,220017.750000,1296952.000000,66344.875000,7818.750000,647765.750000,2753.464670,1349.233834,65796.502496,530.755225,483.698705,32893.406800
35,1,0,-nan,-nan,-nan,-nan,-nan,-nan,-nan,-nan,-nan,-nan,-nan,-nan
36,0,8,644670.000000,220363.500000,1280797.375000,66686.625000,7868.625000,639794.750000,6931.300744,1810.537973,38461.528028,1102.307799,452.507441,19311.825715
36,1,0,-nan,-nan,-nan,-nan,-nan,-nan,-nan,-nan,-nan,-nan,-nan,-nan
37,0,8,646721.250000,220851.625000,1338277.250000,67038.375000,8016.375000,668628.750000,9877.982205,1989.263553,37243.507964,1285.840964,406.277288,18592.459464
37,1,0,-nan,-nan,-nan,-nan,-nan,-nan,-nan,-nan,-nan,-nan,-nan,-nan
38,0,8,644730.875000,220608.875000,1314581.250000,66822.125000,7954.125000,656626.875000,5205.845979,1501.240607,70052.104276,953.395568,306.800602,34960.008819
38,1,0,-nan,-nan,-nan,-nan,-nan,-nan,-nan,-nan,-nan,-nan,-nan,-nan
39,0,8,643334.875000,220851.250000,1295152.500000,66542.875000,7804.000000,646980.500000,8339.104050,3085.762578,81819.937977,1059.766064,876.506560,40926.503570
39,1,0,-nan,-nan,-nan,-nan,-nan,-nan,-nan,-nan,-nan,-nan,-nan,-nan
40,0,8,645030.250000,220684.000000,1324340.375000,66500.875000,8077.500000,661605.375000,9216.548673,3336.843793,72065.142090,959.862417,539.803205,36004.894584
40,1,0,-nan,-nan,-nan,-nan,-nan,-nan,-nan,-nan,-nan,-nan,-nan,-nan
41,0,8,645495.750000,220118.625000,1351472.500000,66586.000000,8056.375000,675137.000000,7029.799566,1547.531174,77233.613173,1051.332963,515.843469,38590.879450
41,1,0,-nan,-nan,-nan,-nan,-nan,-nan,-nan,-nan,-nan,-nan,-nan,-nan
42,0,8,645335.375000,220108.375000,1352163.250000,66568.625000,7714.125000,675542.000000,7295.590225,1275.239187,47114.246372,857.443283,420.135525,23565.476300
42,1,0,-nan,-nan,-nan,-nan,-nan,-nan,-nan,-nan,-nan,-nan,-nan,-nan
43,0,8,644652.000000,220274.000000,1300864.375000,66697.125000,7797.875000,649705.750000,6394.472789,1699.861833,98241.251694,1025.314152,587.363907,49069.538692
43,1,0,-nan,-nan,-nan,-nan,-nan,-nan,-nan,-nan,-nan,-nan,-nan,-nan
44,0,8,640977.500000,219233.125000,1287140.375000,66025.875000,7617.125000,643052.000000,1911.666681,600.650780,74188.153470,286.633231,520.694353,37080.923647
44,1,0,-nan,-nan,-nan,-nan,-nan,-nan,-nan,-nan,-nan,-nan,-nan,-nan
45,0,8,643748.250000,219765.750000,1311067.375000,66441.250000,8017.750000,654958.250000,7620.240888,1987.039428,60111.727849,1319.522428,640.034325,30066.445308
45,1,0,-nan,-nan,-nan,-nan,-nan,-nan,-nan,-nan,-nan,-nan,-nan,-nan
46,0,8,643252.750000,220218.875000,1306337.750000,66416.500000,7997.625000,652624.875000,3043.543730,845.751358,43590.144863,291.970889,517.501434,21791.052220
46,1,0,-nan,-nan,-nan,-nan,-nan,-nan,-nan,-nan,-nan,-nan,-nan,-nan
47,0,8,646977.750000,220650.750000,1295650.000000,66933.375000,7820.750000,647239.000000,8965.211023,2071.649388,51702.681727,1328.516742,503.190011,25931.723574
47,1,0,-nan,-nan,-nan,-nan,-nan,-nan,-nan,-nan,-nan,-nan,-nan,-nan
48,0,8,642781.875000,219951.375000,1315408.500000,66292.625000,7892.625000,657012.000000,3176.157601,909.475115,36513.466187,601.753674,525.931302,18457.375105
48,1,0,-nan,-nan,-nan,-nan,-nan,-nan,-nan,-nan,-nan,-nan,-nan,-nan
49,0,8,646009.250000,220774.625000,1326200.250000,66957.000000,7972.750000,662503.000000,10994.994551,2139.576532,72521.331020,1613.136541,855.949436,36142.822303
49,1,0,-nan,-nan,-nan,-nan,-nan,-nan,-nan,-nan,-nan,-nan,-nan,-nan
50,0,8,640778.500000,219392.000000,1304700.875000,66076.375000,7616.375000,651770.000000,3594.338569,676.036427,53987.177092,253.356931,594.331754,26988.889191
50,1,0,-nan,-nan,-nan,-nan,-nan,-nan,-nan,-nan,-nan,-nan,-nan,-nan
51,0,8,641516.625000,219792.375000,1283628.750000,66230.250000,7634.500000,641110.125000,2855.775417,686.613417,86320.371891,387.082275,731.833485,42979.385083
51,1,0,-nan,-nan,-nan,-nan,-nan,-nan,-nan,-nan,-nan,-nan,-nan,-nan
52,0,8,645711.875000,220251.375000,1297379.250000,66761.750000,8152.625000,648148.250000,9462.657732,2349.285047,66642.467083,1628.070772,718.688204,33299.702599
52,1,0,-nan,-nan,-nan,-nan,-nan,-nan,-nan,-nan,-nan,-nan,-nan,-nan
53,0,8,640511.500000,219305.375000,1283389.125000,66034.750000,7711.375000,641119.625000,3140.918934,906.108567,83527.441916,400.126777,667.637240,41642.258572
53,1,0,-nan,-nan,-nan,-nan,-nan,-nan,-nan,-nan,-nan,-nan,-nan,-nan
54,0,8,639774.625000,219305.500000,1283591.000000,65993.000000,7643.625000,641299.375000,3015.642632,635.906047,88226.631783,362.890824,757.204553,44107.386827
54,1,0,-nan,-nan,-nan,-nan,-nan,-nan,-nan,-nan,-nan,-nan,-nan,-nan
55,0,8,641977.750000,220124.500000,1244579.250000,66369.625000,7760.625000,621563.375000,3891.238484,1241.484293,45507.390413,503.869015,452.576772,22749.449553
55,1,0,-nan,-nan,-nan,-nan,-nan,-nan,-nan,-nan,-nan,-nan,-nan,-nan
56,0,8,646427.750000,220687.250000,1303269.875000,66953.250000,7882.000000,651063.250000,8342.103358,1652.725987,67497.604514,1325.337009,778.262809,33784.118520
56,1,0,-nan,-nan,-nan,-nan,-nan,-nan,-nan,-nan,-nan,-nan,-nan,-nan
57,0,8,644565.625000,220442.375000,1289955.000000,66644.250000,7831.875000,644361.125000,8750.690500,1862.033763,104480.659386,1267.639514,758.471067,52310.135850
57,1,0,-nan,-nan,-nan,-nan,-nan,-nan,-nan,-nan,-nan,-nan,-nan,-nan
58,0,8,642090.875000,219814.875000,1297433.000000,66410.250000,7768.750000,648230.250000,7413.740949,1672.333731,44993.807913,1078.616678,348.354615,22506.494856
58,1,0,-nan,-nan,-nan,-nan,-nan,-nan,-nan,-nan,-nan,-nan,-nan,-nan
59,0,8,642111.375000,220052.750000,1304335.000000,66504.125000,7584.000000,651550.500000,7487.445608,1429.360587,51392.476966,1001.892514,499.673894,25716.926347
59,1,0,-nan,-nan,-nan,-nan,-nan,-nan,-nan,-nan,-nan,-nan,-nan,-nan
60,0,8,641002.000000,219639.125000,1321121.500000,66108.875000,7985.500000,659893.750000,2552.702392,504.460711,52776.146994,283.980386,545.591422,26400.986619
60,1,0,-nan,-nan,-nan,-nan,-nan,-nan,-nan,-nan,-nan,-nan,-nan,-nan
61,0,8,639090.250000,219609.125000,1293597.625000,66062.375000,7747.500000,646162.625000,3923.402278,588.315060,60148.879927,366.554886,612.322423,29955.062823
61,1,0,-nan,-nan,-nan,-nan,-nan,-nan,-nan,-nan,-nan,-nan,-nan,-nan
62,0,8,639774.375000,219571.125000,1293425.375000,66062.375000,7901.625000,646195.375000,1934.679362,869.419266,48824.969524,487.236579,675.217731,24382.040029
62,1,0,-nan,-nan,-nan,-nan,-nan,-nan,-nan,-nan,-nan,-nan,-nan,-nan
63,0,8,642609.750000,220373.875000,1306029.875000,66593.125000,8124.500000,652365.500000,6607.058361,1631.800343,31092.855717,1180.776062,502.389789,15395.260992
63,1,0,-nan,-nan,-nan,-nan,-nan,-nan,-nan,-nan,-nan,-nan,-nan,-nan
64,0,8,641209.250000,219508.125000,1320287.500000,66166.250000,7871.625000,659494.375000,4182.331549,836.242255,60759.717601,466.814136,429.537524,30426.648480
64,1,0,-nan,-nan,-nan,-nan,-nan,-nan,-nan,-nan,-nan,-nan,-nan,-nan
65,0,8,642296.250000,220264.875000,1366865.125000,66512.500000,8098.375000,682749.500000,4558.092851,745.365252,162196.339729,320.126147,757.048700,80873.346620
65,1,0,-nan,-nan,-nan,-nan,-nan,-nan,-nan,-nan,-nan,-nan,-nan,-nan
66,0,8,643833.250000,219903.250000,1302632.875000,66497.250000,8004.250000,650719.375000,7008.970248,1583.127107,54153.070422,1027.671488,331.223018,27108.100920
66,1,0,-nan,-nan,-nan,-nan,-nan,-nan,-nan,-nan,-nan,-nan,-nan,-nan
67,0,8,642736.750000,219706.375000,1297521.875000,66224.125000,7759.750000,648136.250000,2452.249414,719.853794,60893.810793,446.219239,446.818685,30554.692298
67,1,0,-nan,-nan,-nan,-nan,-nan,-nan,-nan,-nan,-nan,-nan,-nan,-nan
68,0,8,644724.875000,220183.125000,1312600.500000,66657.000000,8129.625000,655535.500000,8137.259343,1431.316565,45322.700981,1152.625264,598.215876,22594.463453
68,1,0,-nan,-nan,-nan,-nan,-nan,-nan,-nan,-nan,-nan,-nan,-nan,-nan
69,0,8,644097.500000,220319.375000,1359043.125000,66541.875000,8222.250000,678751.625000,4284.184753,1350.989446,103908.762459,510.257640,444.952455,51834.031765
69,1,0,-nan,-nan,-nan,-nan,-nan,-nan,-nan,-nan,-nan,-nan,-nan,-nan
70,0,8,647946.500000,220668.125000,1323718.500000,66944.625000,7921.000000,661281.500000,8303.792372,1909.289229,71879.148524,1314.095405,402.005286,35983.236079
70,1,0,-nan,-nan,-nan,-nan,-nan,-nan,-nan,-nan,-nan,-nan,-nan,-nan
71,0,8,647487.375000,221199.375000,1312164.375000,66848.125000,7864.750000,655525.750000,15725.061287,4394.745526,64650.744522,1847.906818,301.014846,32288.813464
71,1,0,-nan,-nan,-nan,-nan,-nan,-nan,-nan,-nan,-nan,-nan,-nan,-nan
72,0,8,644272.000000,220137.375000,1291686.000000,66422.500000,7953.250000,645140.250000,3087.123135,1135.820181,36959.138532,563.785198,343.363783,18487.039465
72,1,0,-nan,-nan,-nan,-nan,-nan,-nan,-nan,-nan,-nan,-nan,-nan,-nan
73,0,8,651215.625000,221265.625000,1312431.125000,67356.375000,8235.375000,655693.875000,10166.344647,2148.533042,68343.557113,1497.018198,673.952694,34218.841065
73,1,0,-nan,-nan,-nan,-nan,-nan,-nan,-nan,-nan,-nan,-nan,-nan,-nan
74,0,8,641784.500000,219348.500000,1289789.625000,66083.375000,7851.125000,644347.875000,2624.722319,777.881739,70426.320229,367.261466,658.676977,35172.869020
74,1,0,-nan,-nan,-nan,-nan,-nan,-nan,-nan,-nan,-nan,-nan,-nan,-nan
75,0,8,645343.500000,220413.375000,1319881.875000,66624.000000,8270.875000,659343.625000,8252.235061,1785.671368,104648.803253,1082.862526,811.824094,52306.994568
75,1,0,-nan,-nan,-nan,-nan,-nan,-nan,-nan,-nan,-nan,-nan,-nan,-nan
76,0,8,642746.250000,219826.750000,1281918.250000,66261.125000,7937.375000,640401.500000,3320.045322,848.994663,51663.759338,351.539983,587.471901,25836.456128
76,1,0,-nan,-nan,-nan,-nan,-nan,-nan,-nan,-nan,-nan,-nan,-nan,-nan
77,0,8,646930.750000,220648.750000,1262992.375000,66972.875000,7711.875000,630907.625000,10588.459611,2262.420924,44650.858418,1481.388490,638.789957,22326.317783
77,1,0,-nan,-nan,-nan,-nan,-nan,-nan,-nan,-nan,-nan,-nan,-nan,-nan
78,0,8,644961.250000,220257.125000,1295684.875000,66567.875000,7790.750000,647234.250000,8630.735394,1796.864730,72248.494151,1326.080544,661.535099,36190.741156
78,1,0,-nan,-nan,-nan,-nan,-nan,-nan,-nan,-nan,-nan,-nan,-nan,-nan
79,0,8,646159.375000,220730.500000,1291405.000000,66773.250000,7665.250000,645107.250000,7298.494912,1687.685101,76044.316979,1007.466718,443.344040,38031.004095
79,1,0,-nan,-nan,-nan,-nan,-nan,-nan,-nan,-nan,-nan,-nan,-nan,-nan
80,0,8,642544.000000,219927.750000,1306263.625000,66298.250000,7891.625000,652492.500000,2961.129725,998.046185,85791.641600,422.411751,353.616649,42874.977950
80,1,0,-nan,-nan,-nan,-nan,-nan,-nan,-nan,-nan,-nan,-nan,-nan,-nan
81,0,8,642876.000000,220130.125000,1287871.000000,66356.000000,8039.625000,643319.125000,1921.464936,1101.926544,69064.692320,433.964572,556.103394,34521.031033
81,1,0,-nan,-nan,-nan,-nan,-nan,-nan,-nan,-nan,-nan,-nan,-nan,-nan
82,0,8,643762.500000,220343.125000,1303223.375000,66533.250000,8106.750000,651006.000000,3340.255080,1061.970390,76198.720740,588.365267,749.071717,38260.791546
82,1,0,-nan,-nan,-nan,-nan,-nan,-nan,-nan,-nan,-nan,-nan,-nan,-nan
83,0,8,644035.250000,219974.500000,1306439.250000,66481.125000,7940.250000,652714.000000,6624.605738,1653.522377,81515.918525,1251.871643,955.704943,40801.077642
83,1,0,-nan,-nan,-nan,-nan,-nan,-nan,-nan,-nan,-nan,-nan,-nan,-nan
84,0,8,642831.375000,219821.625000,1218383.750000,66293.875000,7648.625000,608564.625000,2207.083706,678.711451,25064.849515,386.082063,458.857259,12566.921659
84,1,0,-nan,-nan,-nan,-nan,-nan,-nan,-nan,-nan,-nan,-nan,-nan,-nan
85,0,8,642843.375000,219834.625000,1300534.875000,66288.000000,7884.250000,649564.125000,3637.604464,1075.205322,40089.577465,522.377258,493.452569,19994.861886
85,1,0,-nan,-nan,-nan,-nan,-nan,-nan,-nan,-nan,-nan,-nan,-nan,-nan
86,0,8,643362.125000,220254.500000,1346454.125000,66604.375000,7974.750000,672669.875000,7586.527210,1581.983960,62433.754862,1002.706579,521.091103,31184.404241
86,1,0,-nan,-nan,-nan,-nan,-nan,-nan,-nan,-nan,-nan,-nan,-nan,-nan
87,0,8,645658.500000,220661.125000,1432588.750000,66808.375000,8391.250000,715650.000000,7811.821507,1993.600978,208584.079054,1342.264312,1433.524219,104340.408185
87,1,0,-nan,-nan,-nan,-nan,-nan,-nan,-nan,-nan,-nan,-nan,-nan,-nan
88,0,8,641995.250000,219854.250000,1295977.125000,66291.125000,7938.125000,647333.000000,2881.138219,856.429616,32623.278428,437.845132,608.959448,16299.012102
88,1,0,-nan,-nan,-nan,-nan,-nan,-nan,-nan,-nan,-nan,-nan,-nan,-nan
89,0,8,641794.750000,219804.000000,1269208.375000,66281.125000,7585.125000,633998.375000,2148.594468,906.529233,53546.100397,412.764593,452.976665,26718.984196
89,1,0,-nan,-nan,-nan,-nan,-nan,-nan,-nan,-nan,-nan,-nan,-nan,-nan
90,0,8,643724.375000,220145.500000,1314642.125000,66543.625000,7834.625000,656825.250000,6006.277423,1557.243639,52760.096563,1040.358464,447.734279,26300.523197
90,1,0,-nan,-nan,-nan,-nan,-nan,-nan,-nan,-nan,-nan,-nan,-nan,-nan
91,0,8,644712.875000,220644.250000,1303679.750000,66765.750000,7921.500000,651271.125000,7731.759040,2016.198139,53870.147672,1169.948904,388.692681,26888.109544
91,1,0,-nan,-nan,-nan,-nan,-nan,-nan,-nan,-nan,-nan,-nan,-nan,-nan
92,0,8,647512.250000,221775.125000,1337804.625000,67113.500000,7878.000000,668167.125000,11458.569476,3709.076955,106071.791250,1602.818767,680.032904,53033.323822
92,1,0,-nan,-nan,-nan,-nan,-nan,-nan,-nan,-nan,-nan,-nan,-nan,-nan
93,0,8,643215.500000,219789.125000,1280796.250000,66233.625000,7774.250000,639835.750000,2521.802728,557.137648,39620.036635,210.224842,310.981812,19815.011126
93,1,0,-nan,-nan,-nan,-nan,-nan,-nan,-nan,-nan,-nan,-nan,-nan,-nan
94,0,8,644135.125000,220067.375000,1322828.250000,66506.250000,7874.375000,660709.875000,6370.149909,1362.026242,76189.199052,909.401830,554.458506,38238.855254
94,1,0,-nan,-nan,-nan,-nan,-nan,-nan,-nan,-nan,-nan,-nan,-nan,-nan
95,0,8,646419.375000,220768.250000,1259922.750000,66810.875000,7600.500000,629258.625000,7315.564451,1573.729627,63689.845895,1207.846165,747.807963,31882.847328
95,1,0,-nan,-nan,-nan,-nan,-nan,-nan,-nan,-nan,-nan,-nan,-nan,-nan
96,0,8,646796.625000,220686.875000,1291299.375000,66945.000000,7974.625000,645083.750000,8462.534534,1791.191464,44989.589446,1476.099167,546.060422,22501.049157
96,1,0,-nan,-nan,-nan,-nan,-nan,-nan,-nan,-nan,-nan,-nan,-nan,-nan
97,0,8,643103.750000,220193.750000,1301230.375000,66435.750000,7536.625000,650036.500000,3804.904097,984.229870,70018.243830,435.432759,159.040040,34948.308872
97,1,0,-nan,-nan,-nan,-nan,-nan,-nan,-nan,-nan,-nan,-nan,-nan,-nan
98,0,8,641790.875000,219808.000000,1303693.500000,66233.125000,7758.625000,651273.500000,1483.419313,690.725705,66331.552490,420.167954,577.918450,33221.079054
98,1,0,-nan,-nan,-nan,-nan,-nan,-nan,-nan,-nan,-nan,-nan,-nan,-nan
99,0,8,645848.000000,220745.750000,1267528.750000,66824.625000,7868.375000,633149.375000,6214.955933,1605.017426,43903.572417,1056.479642,561.921021,21959.828813
99,1,0,-nan,-nan,-nan,-nan,-nan,-nan,-nan,-nan,-nan,-nan,-nan,-nan
100,0,8,645379.875000,220169.000000,1288104.125000,66593.500000,7898.875000,643550.750000,8156.064867,2086.776102,48704.043709,1205.395060,616.562738,24368.353995
100,1,0,-nan,-nan,-nan,-nan,-nan,-nan,-nan,-nan,-nan,-nan,-nan,-nan
101,0,8,643606.375000,220029.750000,1325030.250000,66525.750000,8030.875000,661993.875000,8039.268638,1758.577817,46596.908478,1229.605501,599.887997,23288.581808
101,1,0,-nan,-nan,-nan,-nan,-nan,-nan,-nan,-nan,-nan,-nan,-nan,-nan
102,0,8,642991.750000,220254.250000,1280338.625000,66448.625000,7641.250000,639432.250000,3301.838948,812.038292,69005.250242,359.917677,334.406844,34515.460510
102,1,0,-nan,-nan,-nan,-nan,-nan,-nan,-nan,-nan,-nan,-nan,-nan,-nan
103,0,8,648568.250000,221386.125000,1345176.875000,67443.000000,8155.875000,672074.625000,9267.424693,1867.944689,56895.630883,1440.585124,565.131276,28460.154062
103,1,0,-nan,-nan,-nan,-nan,-nan,-nan,-nan,-nan,-nan,-nan,-nan,-nan
104,0,8,645084.500000,220574.250000,1279688.875000,66787.750000,7975.000000,639068.125000,6069.222932,1747.025096,96219.543695,1046.577726,570.302113,48065.091572
104,1,0,-nan,-nan,-nan,-nan,-nan,-nan,-nan,-nan,-nan,-nan,-nan,-nan
105,0,8,641080.625000,219607.500000,1297597.375000,66209.500000,7913.500000,648140.125000,2927.636886,1148.183239,63467.009420,526.367742,353.028327,31798.133870
105,1,0,-nan,-nan,-nan,-nan,-nan,-nan,-nan,-nan,-nan,-nan,-nan,-nan
106,0,8,641519.125000,219855.250000,1368895.375000,66310.000000,8106.125000,683629.250000,2717.742328,1014.687113,119768.961353,404.974691,812.700350,59619.223527
106,1,0,-nan,-nan,-nan,-nan,-nan,-nan,-nan,-nan,-nan,-nan,-nan,-nan
107,0,8,646161.000000,221596.625000,1312418.750000,67074.000000,7923.375000,655572.125000,11591.432720,3688.739857,67616.554415,1475.431123,693.364251,33696.843552
107,1,0,-nan,-nan,-nan,-nan,-nan,-nan,-nan,-nan,-nan,-nan,-nan,-nan
108,0,8,639607.500000,219389.625000,1313408.250000,66099.000000,7768.875000,656244.000000,1895.834842,584.955113,69540.296271,296.308539,518.806910,34838.781849
108,1,0,-nan,-nan,-nan,-nan,-nan,-nan,-nan,-nan,-nan,-nan,-nan,-nan
109,0,8,644119.625000,220403.625000,1354038.125000,66690.750000,7799.750000,676461.375000,7420.417979,1367.779673,69672.439121,905.179644,617.563306,34892.316765
109,1,0,-nan,-nan,-nan,-nan,-nan,-nan,-nan,-nan,-nan,-nan,-nan,-nan
110,0,8,641470.000000,219651.625000,1298035.500000,66238.625000,7705.625000,648437.375000,2927.501196,799.567999,80849.262753,471.323386,548.906626,40322.360518
110,1,0,-nan,-nan,-nan,-nan,-nan,-nan,-nan,-nan,-nan,-nan,-nan,-nan
111,0,8,642871.375000,220121.875000,1343722.750000,66585.250000,8173.750000,671325.125000,6823.346667,1534.659607,64075.340761,1048.659591,366.389734,31991.343765
111,1,0,-nan,-nan,-nan,-nan,-nan,-nan,-nan,-nan,-nan,-nan,-nan,-nan
112,0,7,647806.285714,221086.857143,1309678.571429,67127.428571,8041.857143,654311.285714,9616.315997,1849.060258,44580.626948,1447.698850,505.624488,22363.896458
112,1,0,-nan,-nan,-nan,-nan,-nan,-nan,-nan,-nan,-nan,-nan,-nan,-nan
113,0,7,640552.571429,219358.428571,1304184.000000,66019.857143,7891.571429,651583.571429,3483.256475,570.184646,31243.887727,238.650628,502.456496,15599.067517
113,1,0,-nan,-nan,-nan,-nan,-nan,-nan,-nan,-nan,-nan,-nan,-nan,-nan
114,0,7,643584.714286,220215.428571,1305151.428571,66625.142857,7874.142857,652009.714286,8044.696562,1765.596852,75597.557439,1270.290566,564.974444,37747.690134
114,1,0,-nan,-nan,-nan,-nan,-nan,-nan,-nan,-nan,-nan,-nan,-nan,-nan
115,0,7,647577.571429,221273.000000,1351575.571429,67262.000000,8188.428571,675146.857143,8910.522157,1992.674441,52173.042757,1177.292536,311.404127,25974.227641
115,1,0,-nan,-nan,-nan,-nan,-nan,-nan,-nan,-nan,-nan,-nan,-nan,-nan
116,0,7,639187.571429,219010.000000,1289314.714286,65909.857143,7940.285714,644131.285714,3502.751566,777.595929,64591.989500,320.344203,441.728008,32294.198005
116,1,0,-nan,-nan,-nan,-nan,-nan,-nan,-nan,-nan,-nan,-nan,-nan,-nan
117,0,7,641105.142857,219629.285714,1336900.000000,66158.000000,8080.571429,667969.857143,4229.615161,742.104289,88747.468724,326.412097,255.081420,44478.398257
117,1,0,-nan,-nan,-nan,-nan,-nan,-nan,-nan,-nan,-nan,-nan,-nan,-nan
118,0,7,644020.000000,220082.285714,1342108.000000,66558.857143,8006.571429,670381.857143,6476.610644,1558.319490,117532.407097,1285.195864,903.438172,58665.590259
118,1,0,-nan,-nan,-nan,-nan,-nan,-nan,-nan,-nan,-nan,-nan,-nan,-nan
119,0,7,641072.142857,219677.571429,1248003.714286,66201.571429,7810.142857,623445.714286,3786.497493,887.570658,45332.706464,379.447289,406.545175,22717.203838
119,1,0,-nan,-nan,-nan,-nan,-nan,-nan,-nan,-nan,-nan,-nan,-nan,-nan
120,0,7,641867.000000,220265.571429,1306313.142857,66429.285714,7963.428571,652471.000000,4777.654954,1112.300044,45707.840804,449.168347,154.773435,22971.374105
120,1,0,-nan,-nan,-nan,-nan,-nan,-nan,-nan,-nan,-nan,-nan,-nan,-nan
121,0,7,640387.142857,219421.285714,1281524.714286,66032.285714,7615.142857,640139.857143,2865.486766,1242.588165,84545.803957,395.516557,382.496098,42237.421679
121,1,0,-nan,-nan,-nan,-nan,-nan,-nan,-nan,-nan,-nan,-nan,-nan,-nan
122,0,7,642175.000000,219346.142857,1248137.428571,66003.000000,7439.285714,623600.428571,4292.038177,703.029044,75898.993522,245.227591,425.331371,37906.496578
122,1,0,-nan,-nan,-nan,-nan,-nan,-nan,-nan,-nan,-nan,-nan,-nan,-nan
123,0,7,645857.714286,220170.285714,1326618.571429,66526.714286,7698.571429,662795.428571,8003.499230,1825.237809,12036.642909,1115.300307,295.604396,6036.125386
123,1,0,-nan,-nan,-nan,-nan,-nan,-nan,-nan,-nan,-nan,-nan,-nan,-nan
124,0,7,644055.000000,220184.142857,1276490.428571,66378.000000,7709.000000,637586.714286,2825.115522,831.612449,64354.725987,362.926990,507.134809,32203.072110
124,1,0,-nan,-nan,-nan,-nan,-nan,-nan,-nan,-nan,-nan,-nan,-nan,-nan
125,0,7,644883.571429,220176.142857,1282090.857143,66562.142857,7975.857143,640476.857143,8743.542431,1608.409368,72662.849650,1241.817266,708.346652,36410.873013
125,1,0,-nan,-nan,-nan,-nan,-nan,-nan,-nan,-nan,-nan,-nan,-nan,-nan
126,0,7,641568.714286,219326.428571,1297394.428571,65983.000000,7842.428571,648078.857143,4750.721200,845.582108,64924.655849,310.477512,606.088126,32472.082477
126,1,0,-nan,-nan,-nan,-nan,-nan,-nan,-nan,-nan,-nan,-nan,-nan,-nan
127,0,7,646102.714286,220397.571429,1327323.571429,66666.714286,8005.142857,662989.142857,8946.871484,1984.845000,67632.017853,1274.355043,692.875464,33643.556940
127,1,0,-nan,-nan,-nan,-nan,-nan,-nan,-nan,-nan,-nan,-nan,-nan,-nan
128,0,7,643672.428571,219989.857143,1270260.285714,66293.000000,7890.428571,634494.285714,3808.453186,1148.550817,51448.249327,428.527712,393.887895,25813.096066
128,1,0,-nan,-nan,-nan,-nan,-nan,-nan,-nan,-nan,-nan,-nan,-nan,-nan
129,0,7,649099.714286,221236.428571,1265511.857143,67176.285714,7917.714286,632150.714286,11842.524607,2447.834078,67498.975102,1442.667838,555.363900,33819.741326
129,1,0,-nan,-nan,-nan,-nan,-nan,-nan,-nan,-nan,-nan,-nan,-nan,-nan
130,0,7,645949.285714,220740.428571,1252999.714286,66797.428571,7789.571429,625931.428571,8509.531021,1829.318363,69134.647011,1315.488053,718.925161,34595.377568
130,1,0,-nan,-nan,-nan,-nan,-nan,-nan,-nan,-nan,-nan,-nan,-nan,-nan
131,0,7,644884.285714,220419.428571,1287033.000000,66695.857143,7884.000000,642923.000000,6169.764147,1242.064509,57004.569333,1142.786873,350.438908,28651.248280
131,1,0,-nan,-nan,-nan,-nan,-nan,-nan,-nan,-nan,-nan,-nan,-nan,-nan
132,0,7,646300.142857,220309.714286,1312613.142857,66622.571429,7955.285714,655764.857143,7518.496761,1910.179701,83274.016912,1131.173835,699.278550,41588.792527
132,1,0,-nan,-nan,-nan,-nan,-nan,-nan,-nan,-nan,-nan,-nan,-nan,-nan
133,0,7,642256.000000,219549.142857,1289355.428571,66088.857143,7508.428571,644176.428571,3866.548258,703.374200,62057.510704,231.470102,364.686502,31063.022757
133,1,0,-nan,-nan,-nan,-nan,-nan,-nan,-nan,-nan,-nan,-nan,-nan,-nan
134,0,7,641781.714286,219418.571429,1323981.285714,66071.428571,7803.000000,661360.000000,2699.122858,601.689730,66766.165411,298.387982,540.902685,33375.595841
134,1,0,-nan,-nan,-nan,-nan,-nan,-nan,-nan,-nan,-nan,-nan,-nan,-nan
135,0,7,644921.285714,219981.571429,1361740.857143,66495.857143,8306.857143,680271.714286,9002.009930,1561.995505,100565.080553,1184.043005,342.755402,50293.572397
135,1,0,-nan,-nan,-nan,-nan,-nan,-nan,-nan,-nan,-nan,-nan,-nan,-nan
136,0,7,643630.000000,219864.571429,1322539.142857,66436.142857,7981.000000,660611.000000,10026.667442,2242.899836,93009.055634,1277.760701,714.554007,46341.385395
136,1,0,-nan,-nan,-nan,-nan,-nan,-nan,-nan,-nan,-nan,-nan,-nan,-nan
137,0,7,644847.571429,220216.857143,1306903.428571,66604.714286,7987.428571,652839.428571,6626.629241,1685.012796,27806.321732,1068.897926,390.014233,13903.867097
137,1,0,-nan,-nan,-nan,-nan,-nan,-nan,-nan,-nan,-nan,-nan,-nan,-nan
138,0,7,645241.857143,220682.571429,1298720.285714,66826.714286,7699.000000,648672.428571,6404.021358,1470.101926,69276.378971,1076.022399,617.180455,34740.199041
138,1,0,-nan,-nan,-nan,-nan,-nan,-nan,-nan,-nan,-nan,-nan,-nan,-nan
139,0,7,649984.714286,221707.428571,1330761.571429,67588.285714,7917.857143,664806.714286,10372.260034,2242.086264,97927.839840,1657.581777,1031.102105,48996.137634
139,1,0,-nan,-nan,-nan,-nan,-nan,-nan,-nan,-nan,-nan,-nan,-nan,-nan
140,0,7,647671.428571,221600.000000,1404760.714286,67037.000000,8187.142857,701566.142857,11582.019104,2988.247408,162819.680067,1358.932249,807.514958,81147.596803
140,1,0,-nan,-nan,-nan,-nan,-nan,-nan,-nan,-nan,-nan,-nan,-nan,-nan
141,0,7,642573.000000,219732.428571,1270855.285714,66164.000000,7492.285714,634840.000000,4681.482702,1029.228540,75261.182001,458.684766,462.151402,37671.907957
141,1,0,-nan,-nan,-nan,-nan,-nan,-nan,-nan,-nan,-nan,-nan,-nan,-nan
142,0,7,641319.285714,219409.571429,1247481.285714,66057.000000,7692.714286,623175.857143,2880.283305,870.168433,51779.375102,506.996760,310.934864,25985.676590
142,1,0,-nan,-nan,-nan,-nan,-nan,-nan,-nan,-nan,-nan,-nan,-nan,-nan
143,0,7,651146.714286,222012.857143,1298672.714286,67341.000000,7901.142857,648841.714286,11100.066547,3303.843581,79764.430712,1650.558607,744.230269,39885.961790
143,1,0,-nan,-nan,-nan,-nan,-nan,-nan,-nan,-nan,-nan,-nan,-nan,-nan
144,0,7,645454.714286,220728.857143,1290426.571429,66816.285714,7630.571429,644611.285714,8618.340621,2143.298021,63059.166335,1220.083336,484.020619,31557.918561
144,1,0,-nan,-nan,-nan,-nan,-nan,-nan,-nan,-nan,-nan,-nan,-nan,-nan
145,0,7,642721.428571,219868.142857,1304682.000000,66428.714286,7864.428571,651854.714286,8439.910457,1581.609888,80560.106611,1227.449471,738.208034,40265.813670
145,1,0,-nan,-nan,-nan,-nan,-nan,-nan,-nan,-nan,-nan,-nan,-nan,-nan
146,0,7,641228.714286,219359.142857,1273715.857143,66070.285714,7520.428571,636262.285714,3753.856064,501.365971,62136.977835,386.338754,334.724986,31051.488415
146,1,0,-nan,-nan,-nan,-nan,-nan,-nan,-nan,-nan,-nan,-nan,-nan,-nan
147,0,7,647676.142857,220872.142857,1409630.285714,67064.571429,8271.857143,704325.714286,10517.903817,1973.081233,127865.338339,1408.578600,717.399755,63827.248363
147,1,0,-nan,-nan,-nan,-nan,-nan,-nan,-nan,-nan,-nan,-nan,-nan,-nan
148,0,7,644762.285714,220918.142857,1305911.000000,66731.571429,7710.285714,652133.714286,3738.380769,1176.228407,27157.399818,645.121662,234.452380,13631.955606
148,1,0,-nan,-nan,-nan,-nan,-nan,-nan,-nan,-nan,-nan,-nan,-nan,-nan
149,0,7,647822.142857,221104.571429,1309724.428571,67203.714286,8006.285714,654222.857143,9560.394738,2064.539787,66177.951425,1561.480681,658.050522,33039.448601
149,1,0,-nan,-nan,-nan,-nan,-nan,-nan,-nan,-nan,-nan,-nan,-nan,-nan
150,0,7,639181.428571,219069.285714,1273702.714286,65916.142857,7486.285714,636381.285714,2183.864913,456.850621,38696.868643,210.274262,616.133964,19375.268372
150,1,0,-nan,-nan,-nan,-nan,-nan,-nan,-nan,-nan,-nan,-nan,-nan,-nan
151,0,7,640466.571429,219611.714286,1264349.285714,66160.571429,7638.428571,631594.428571,3262.979833,552.969055,52489.005419,369.120134,468.545731,26311.672303
151,1,0,-nan,-nan,-nan,-nan,-nan,-nan,-nan,-nan,-nan,-nan,-nan,-nan
152,0,7,641297.285714,219576.285714,1274202.428571,66135.285714,7836.571429,636454.428571,2746.512735,775.416886,67995.136072,386.249259,496.122352,34004.181956
152,1,0,-nan,-nan,-nan,-nan,-nan,-nan,-nan,-nan,-nan,-nan,-nan,-nan
153,0,7,646422.714286,220832.857143,1272684.714286,67048.714286,7935.142857,635766.714286,9522.108016,2061.815665,60510.146941,1386.674616,521.954686,30267.091321
153,1,0,-nan,-nan,-nan,-nan,-nan,-nan,-nan,-nan,-nan,-nan,-nan,-nan
154,0,7,644426.285714,220047.857143,1316757.857143,66508.571429,8047.571429,657775.285714,7851.058322,1527.071561,61105.386659,1241.920271,848.596969,30437.254887
154,1,0,-nan,-nan,-nan,-nan,-nan,-nan,-nan,-nan,-nan,-nan,-nan,-nan
155,0,7,642807.142857,219993.571429,1326929.428571,66336.285714,7942.428571,662813.142857,3891.695900,1003.537580,67241.099570,452.878323,762.455780,33632.467406
155,1,0,-nan,-nan,-nan,-nan,-nan,-nan,-nan,-nan,-nan,-nan,-nan,-nan
156,0,7,644364.428571,220502.571429,1305809.428571,66753.857143,7830.285714,652013.857143,6818.247091,1468.667409,66458.841520,952.241480,421.499607,33287.112283
156,1,0,-nan,-nan,-nan,-nan,-nan,-nan,-nan,-nan,-nan,-nan,-nan,-nan
157,0,7,647469.857143,220880.285714,1319904.000000,67073.714286,8417.285714,659441.571429,11033.110757,2475.986021,40703.293496,1511.669627,335.380259,20350.025306
157,1,0,-nan,-nan,-nan,-nan,-nan,-nan,-nan,-nan,-nan,-nan,-nan,-nan
158,0,7,641922.142857,219730.428571,1269907.714286,66216.000000,7645.571429,634358.428571,2911.237362,756.168888,74877.173057,406.150219,401.347679,37551.756629
158,1,0,-nan,-nan,-nan,-nan,-nan,-nan,-nan,-nan,-nan,-nan,-nan,-nan
159,0,7,641669.714286,219844.428571,1334147.714286,66267.857143,8045.142857,666451.428571,4347.002307,1150.653213,62205.307318,441.449052,691.101900,31146.791675
159,1,0,-nan,-nan,-nan,-nan,-nan,-nan,-nan,-nan,-nan,-nan,-nan,-nan
160,0,7,641726.428571,220129.428571,1279198.285714,66381.857143,7691.428571,639072.000000,4386.196265,1000.046836,68108.649249,406.283303,328.256806,34043.960916
160,1,0,-nan,-nan,-nan,-nan,-nan,-nan,-nan,-nan,-nan,-nan,-nan,-nan
161,0,7,646038.571429,220820.714286,1364207.142857,67032.714286,8190.428571,681543.285714,11760.731778,2473.252613,95425.811398,1686.946922,698.742924,47648.707714
161,1,0,-nan,-nan,-nan,-nan,-nan,-nan,-nan,-nan,-nan,-nan,-nan,-nan
162,0,7,648662.571429,222205.285714,1291478.857143,67293.857143,7935.428571,644938.142857,10260.176048,3718.415089,65743.425856,1365.006167,356.645425,32920.107283
162,1,0,-nan,-nan,-nan,-nan,-nan,-nan,-nan,-nan,-nan,-nan,-nan,-nan
163,0,7,639885.142857,219271.000000,1266605.142857,65999.571429,7586.142857,632710.571429,3905.285555,728.044543,46391.034967,276.559917,522.660619,23261.354290
163,1,0,-nan,-nan,-nan,-nan,-nan,-nan,-nan,-nan,-nan,-nan,-nan,-nan
164,0,7,640559.857143,219664.142857,1272636.000000,66171.142857,7810.285714,635792.142857,3871.056682,972.845521,27824.864615,453.158890,457.689138,13967.632384
164,1,0,-nan,-nan,-nan,-nan,-nan,-nan,-nan,-nan,-nan,-nan,-nan,-nan
165,0,7,643365.428571,220043.428571,1262292.428571,66509.857143,7507.571429,630556.000000,7658.812587,1580.067165,63060.881338,1020.144448,619.630963,31515.929999
165,1,0,-nan,-nan,-nan,-nan,-nan,-nan,-nan,-nan,-nan,-nan,-nan,-nan
166,0,7,650523.571429,221991.000000,1374523.714286,67753.571429,8469.428571,686463.714286,10298.934617,1631.991509,114200.903023,1349.022912,746.222842,56795.005932
166,1,0,-nan,-nan,-nan,-nan,-nan,-nan,-nan,-nan,-nan,-nan,-nan,-nan
167,0,7,640166.428571,219433.285714,1282668.142857,66071.857143,7633.571429,640692.285714,970.620105,549.653843,54664.950726,236.333559,372.740376,27162.600084
167,1,0,-nan,-nan,-nan,-nan,-nan,-nan,-nan,-nan,-nan,-nan,-nan,-nan
168,0,7,643444.000000,220302.714286,1312857.142857,66665.857143,7844.714286,655875.857143,6555.986490,1472.105559,30811.046337,970.075907,291.633191,15427.410665
168,1,0,-nan,-nan,-nan,-nan,-nan,-nan,-nan,-nan,-nan,-nan,-nan,-nan
169,0,7,639147.571429,219365.857143,1255937.571429,66078.571429,7624.000000,627349.142857,1660.782506,405.016553,60470.976677,291.333808,574.380909,30284.651820
169,1,0,-nan,-nan,-nan,-nan,-nan,-nan,-nan,-nan,-nan,-nan,-nan,-nan
170,0,7,640376.571429,219610.428571,1319955.571429,66147.714286,7801.571429,659643.000000,4316.501853,932.643226,61359.518665,427.207449,426.915467,30532.188677
170,1,0,-nan,-nan,-nan,-nan,-nan,-nan,-nan,-nan,-nan,-nan,-nan,-nan
171,0,7,640539.000000,220003.714286,1278162.142857,66348.571429,7683.857143,638407.714286,1189.049080,978.823450,72496.456123,391.987922,545.926847,36125.320897
171,1,0,-nan,-nan,-nan,-nan,-nan,-nan,-nan,-nan,-nan,-nan,-nan,-nan
172,0,7,646161.000000,220666.000000,1295861.285714,66943.857143,7930.857143,647332.857143,10206.342524,2301.514905,86163.241774,1528.421261,767.773856,43043.442572
172,1,0,-nan,-nan,-nan,-nan,-nan,-nan,-nan,-nan,-nan,-nan,-nan,-nan
173,0,7,641592.857143,219872.857143,1358223.428571,66274.857143,8112.285714,678449.000000,5315.286618,1092.209220,105609.845440,556.692382,315.148362,52734.584003
173,1,0,-nan,-nan,-nan,-nan,-nan,-nan,-nan,-nan,-nan,-nan,-nan,-nan
174,0,7,644664.142857,220320.142857,1353490.428571,66653.142857,8028.428571,676081.571429,8654.099960,1684.602999,49137.073114,1199.597007,666.222583,24672.473973
174,1,0,-nan,-nan,-nan,-nan,-nan,-nan,-nan,-nan,-nan,-nan,-nan,-nan
175,0,7,645550.571429,220554.857143,1305291.857143,66907.571429,8009.428571,652040.857143,9313.608428,1855.456542,148794.656853,1414.048479,934.314700,74468.554294
175,1,0,-nan,-nan,-nan,-nan,-nan,-nan,-nan,-nan,-nan,-nan,-nan,-nan
176,0,7,641786.000000,219748.285714,1251511.857143,66228.285714,7621.571429,625125.000000,3526.127418,1090.518057,50131.186385,410.348881,491.909358,25000.289747
176,1,0,-nan,-nan,-nan,-nan,-nan,-nan,-nan,-nan,-nan,-nan,-nan,-nan
177,0,7,643013.428571,219988.000000,1324935.428571,66472.000000,7788.714286,661935.857143,7928.938766,1884.193651,41968.780437,1157.115255,591.078123,20935.618408
177,1,0,-nan,-nan,-nan,-nan,-nan,-nan,-nan,-nan,-nan,-nan,-nan,-nan
178,0,7,644105.142857,220159.000000,1299747.000000,66522.714286,7709.285714,649314.428571,5050.999772,1544.343041,41049.640447,988.819746,723.112857,20590.709978
178,1,0,-nan,-nan,-nan,-nan,-nan,-nan,-nan,-nan,-nan,-nan,-nan,-nan
179,0,7,640587.428571,219539.857143,1311120.714286,66112.285714,7764.428571,654931.857143,3871.415129,978.131371,69852.424880,310.334711,466.155050,34861.878945
179,1,0,-nan,-nan,-nan,-nan,-nan,-nan,-nan,-nan,-nan,-nan,-nan,-nan
180,0,7,640819.285714,220102.000000,1283702.285714,66407.000000,7775.428571,641274.571429,3767.144266,1113.265467,52700.219327,428.963202,534.222227,26497.723821
180,1,0,-nan,-nan,-nan,-nan,-nan,-nan,-nan,-nan,-nan,-nan,-nan,-nan
181,0,7,639986.714286,219373.142857,1260416.285714,66050.714286,7430.000000,629579.571429,2093.526807,580.705096,62615.953005,391.291530,549.390571,31358.575300
181,1,0,-nan,-nan,-nan,-nan,-nan,-nan,-nan,-nan,-nan,-nan,-nan,-nan
182,0,7,642209.857143,219716.571429,1266330.428571,66168.714286,7782.571429,632530.714286,3603.841777,1086.655532,52245.475199,482.114602,360.338673,25946.235718
182,1,0,-nan,-nan,-nan,-nan,-nan,-nan,-nan,-nan,-nan,-nan,-nan,-nan
183,0,7,643653.571429,219944.714286,1311037.857143,66476.714286,8199.142857,654938.000000,6951.586764,1545.078982,82654.464383,1107.584723,391.631178,41169.354719
183,1,0,-nan,-nan,-nan,-nan,-nan,-nan,-nan,-nan,-nan,-nan,-nan,-nan
184,0,7,643691.571429,220431.714286,1293708.857143,66678.571429,7937.571429,646232.571429,8482.194188,1644.954078,71206.029112,1157.684124,708.268685,35628.396752
184,1,0,-nan,-nan,-nan,-nan,-nan,-nan,-nan,-nan,-nan,-nan,-nan,-nan
185,0,7,641831.428571,219533.428571,1308355.428571,65972.142857,8015.285714,653570.857143,4040.741652,737.154153,104426.340545,350.618812,875.392274,52270.449951
185,1,0,-nan,-nan,-nan,-nan,-nan,-nan,-nan,-nan,-nan,-nan,-nan,-nan
186,0,7,643948.428571,220115.285714,1280316.571429,66426.000000,7909.714286,639540.000000,10993.178493,2179.802331,59655.206914,1290.094570,387.498466,29864.529472
186,1,0,-nan,-nan,-nan,-nan,-nan,-nan,-nan,-nan,-nan,-nan,-nan,-nan
187,0,7,643630.714286,220047.714286,1292623.142857,66401.142857,7830.285714,645669.000000,7358.611044,1689.092547,62991.827886,1193.185943,559.602337,31554.543481
187,1,0,-nan,-nan,-nan,-nan,-nan,-nan,-nan,-nan,-nan,-nan,-nan,-nan
188,0,7,643507.857143,219785.857143,1355021.142857,66289.714286,8102.857143,677271.000000,7798.075943,1888.882242,137846.565357,1385.938332,661.584986,69230.679566
188,1,0,-nan,-nan,-nan,-nan,-nan,-nan,-nan,-nan,-nan,-nan,-nan,-nan
189,0,7,641598.285714,219764.857143,1318554.857143,66056.714286,7775.285714,658672.142857,3109.419225,747.974489,37329.698336,468.422494,584.643900,18618.805144
189,1,0,-nan,-nan,-nan,-nan,-nan,-nan,-nan,-nan,-nan,-nan,-nan,-nan
190,0,7,647873.857143,221504.714286,1334211.285714,66885.857143,7947.857143,666557.714286,10142.964464,3073.050960,91188.741538,1306.813292,628.016476,45815.621324
190,1,0,-nan,-nan,-nan,-nan,-nan,-nan,-nan,-nan,-nan,-nan,-nan,-nan
191,0,7,639838.428571,219343.571429,1294407.000000,65868.714286,7677.428571,646764.857143,2895.065203,458.447024,65859.942200,290.000352,489.806042,32823.854089
191,1,0,-nan,-nan,-nan,-nan,-nan,-nan,-nan,-nan,-nan,-nan,-nan,-nan
192,0,7,640638.285714,219497.285714,1329113.285714,65958.714286,7989.857143,664064.142857,2785.049254,988.602869,65133.722955,534.037643,583.321139,32585.094675
192,1,0,-nan,-nan,-nan,-nan,-nan,-nan,-nan,-nan,-nan,-nan,-nan,-nan
193,0,7,643878.142857,220102.285714,1283679.285714,66359.571429,7895.714286,641302.285714,7930.153024,1775.564274,46066.709454,1242.943150,620.435726,23030.019997
193,1,0,-nan,-nan,-nan,-nan,-nan,-nan,-nan,-nan,-nan,-nan,-nan,-nan
194,0,7,644282.857143,220515.000000,1363168.571429,66563.857143,8042.428571,680954.714286,6757.334923,1523.112227,37378.222792,908.820024,468.699373,18610.709434
194,1,0,-nan,-nan,-nan,-nan,-nan,-nan,-nan,-nan,-nan,-nan,-nan,-nan
195,0,7,641661.285714,219991.142857,1355207.714286,66178.857143,7922.571429,676972.571429,4666.717620,1220.635599,71563.214019,660.041650,567.248713,35853.023379
195,1,0,-nan,-nan,-nan,-nan,-nan,-nan,-nan,-nan,-nan,-nan,-nan,-nan
196,0,8,647194.125000,221238.500000,1329337.875000,67066.625000,7918.000000,663933.750000,8006.302555,1753.438337,76318.515886,1451.073046,578.725971,37946.340673
196,1,0,-nan,-nan,-nan,-nan,-nan,-nan,-nan,-nan,-nan,-nan,-nan,-nan
197,0,8,643558.750000,220067.000000,1312019.750000,66384.375000,7916.125000,655469.625000,6583.256826,1665.977041,60015.363455,947.614497,432.723768,29969.244731
197,1,0,-nan,-nan,-nan,-nan,-nan,-nan,-nan,-nan,-nan,-nan,-nan,-nan
198,0,8,641778.375000,219841.125000,1332556.375000,66129.500000,7786.625000,665581.625000,3398.231486,961.020868,51892.029939,404.461370,360.012131,25927.714636
198,1,0,-nan,-nan,-nan,-nan,-nan,-nan,-nan,-nan,-nan,-nan,-nan,-nan
199,0,8,641971.500000,219643.625000,1264530.625000,66087.875000,7538.625000,631538.500000,3417.947557,792.637202,61226.912569,376.818072,513.547208,30588.120668
199,1,0,-nan,-nan,-nan,-nan,-nan,-nan,-nan,-nan,-nan,-nan,-nan,-nan
200,0,8,642466.250000,219883.500000,1292116.000000,66197.000000,7775.625000,645375.000000,2639.748792,971.900329,52865.936862,453.110086,416.722611,26384.623344
200,1,0,-nan,-nan,-nan,-nan,-nan,-nan,-nan,-nan,-nan,-nan,-nan,-nan
201,0,8,644625.125000,220342.750000,1311861.750000,66547.375000,7999.375000,655336.750000,5070.653716,1642.747527,66399.270028,866.949961,477.915510,33172.675211
201,1,0,-nan,-nan,-nan,-nan,-nan,-nan,-nan,-nan,-nan,-nan,-nan,-nan
202,0,8,647146.625000,220957.250000,1263618.375000,67012.000000,7939.375000,631233.375000,9272.164957,2084.019239,79649.890303,1388.334434,525.522582,39893.285914
202,1,0,-nan,-nan,-nan,-nan,-nan,-nan,-nan,-nan,-nan,-nan,-nan,-nan
203,0,8,645214.625000,220590.875000,1340943.125000,66792.125000,8060.500000,669930.250000,9415.526219,1943.533987,107986.056619,1588.618774,730.935531,53984.113473
203,1,0,-nan,-nan,-nan,-nan,-nan,-nan,-nan,-nan,-nan,-nan,-nan,-nan
204,0,8,640648.250000,219417.875000,1299433.375000,66006.875000,7456.625000,649148.625000,4444.004381,654.346513,71963.960346,425.954351,430.627721,36006.761309
204,1,0,-nan,-nan,-nan,-nan,-nan,-nan,-nan,-nan,-nan,-nan,-nan,-nan
205,0,8,642777.875000,220053.000000,1353434.625000,66431.875000,7715.750000,676224.125000,5838.183503,1648.791679,149560.550176,963.142050,635.805346,74588.170182
205,1,0,-nan,-nan,-nan,-nan,-nan,-nan,-nan,-nan,-nan,-nan,-nan,-nan
206,0,8,640567.000000,219685.500000,1282046.375000,66105.500000,7654.250000,640382.750000,4101.388271,982.701760,37625.375300,468.605111,642.489640,18689.468089
206,1,0,-nan,-nan,-nan,-nan,-nan,-nan,-nan,-nan,-nan,-nan,-nan,-nan
207,0,8,641078.125000,219734.875000,1324133.250000,66126.000000,7802.375000,661451.875000,4294.106759,968.334322,101450.315636,509.693045,482.832512,50703.200627
207,1,0,-nan,-nan,-nan,-nan,-nan,-nan,-nan,-nan,-nan,-nan,-nan,-nan
208,0,8,645735.125000,220665.000000,1263671.750000,66844.125000,7644.875000,631296.375000,9786.936937,2072.204382,69114.320782,1494.459638,816.390139,34619.807177
208,1,0,-nan,-nan,-nan,-nan,-nan,-nan,-nan,-nan,-nan,-nan,-nan,-nan
209,0,8,647127.625000,221256.375000,1296279.125000,66813.500000,7815.750000,647451.625000,10215.818579,3440.726956,55186.830033,1434.971341,475.544622,27469.821500
209,1,0,-nan,-nan,-nan,-nan,-nan,-nan,-nan,-nan,-nan,-nan,-nan,-nan
210,0,8,643577.875000,220343.625000,1291234.625000,66572.875000,7678.250000,644931.125000,5653.567335,1523.926912,78353.928614,1023.147281,663.248775,39125.832542
210,1,0,-nan,-nan,-nan,-nan,-nan,-nan,-nan,-nan,-nan,-nan,-nan,-nan
211,0,8,642525.625000,219697.125000,1310419.750000,66244.500000,7769.750000,654664.000000,9635.400445,1899.222370,70221.513669,1328.574800,697.495833,35105.810844
211,1,0,-nan,-nan,-nan,-nan,-nan,-nan,-nan,-nan,-nan,-nan,-nan,-nan
212,0,8,639751.125000,219400.375000,1257836.500000,65985.625000,7739.750000,628342.125000,3568.100595,932.867480,76931.649217,344.749162,630.634948,38424.427473
212,1,0,-nan,-nan,-nan,-nan,-nan,-nan,-nan,-nan,-nan,-nan,-nan,-nan
213,0,8,643727.000000,220486.875000,1280825.125000,66658.375000,7958.250000,639666.500000,8545.826642,1677.208577,52619.181644,1096.556991,671.651835,26316.230453
213,1,0,-nan,-nan,-nan,-nan,-nan,-nan,-nan,-nan,-nan,-nan,-nan,-nan
214,0,8,646688.500000,220855.250000,1344143.750000,67092.750000,8188.375000,671585.375000,9307.439994,2230.736243,52830.157942,1731.144184,737.848382,26439.139036
214,1,0,-nan,-nan,-nan,-nan,-nan,-nan,-nan,-nan,-nan,-nan,-nan,-nan
215,0,8,643884.000000,220239.375000,1355993.375000,66539.250000,7872.375000,677369.625000,7751.982940,1493.576909,66670.189491,1162.423842,811.342859,33401.567931
215,1,0,-nan,-nan,-nan,-nan,-nan,-nan,-nan,-nan,-nan,-nan,-nan,-nan
216,0,8,639161.000000,219290.125000,1330674.500000,65941.875000,7694.375000,664832.250000,2364.274466,612.509477,40730.532430,306.403915,858.944547,20367.710615
216,1,0,-nan,-nan,-nan,-nan,-nan,-nan,-nan,-nan,-nan,-nan,-nan,-nan
217,0,8,639481.000000,219319.250000,1273113.250000,65959.250000,7442.125000,635991.375000,2633.288913,495.665651,41485.398385,190.442741,522.629754,20662.695056
217,1,0,-nan,-nan,-nan,-nan,-nan,-nan,-nan,-nan,-nan,-nan,-nan,-nan
218,0,8,640961.875000,219678.375000,1290515.250000,66293.375000,7575.875000,644705.000000,6691.922901,1529.743111,41675.566417,1087.472981,611.861185,20870.869118
218,1,0,-nan,-nan,-nan,-nan,-nan,-nan,-nan,-nan,-nan,-nan,-nan,-nan
219,0,8,640124.875000,219517.625000,1312432.125000,66059.125000,7910.125000,655638.250000,3259.642482,604.682135,79796.258190,549.560606,683.168983,39963.398941
219,1,0,-nan,-nan,-nan,-nan,-nan,-nan,-nan,-nan,-nan,-nan,-nan,-nan
220,0,8,644195.750000,220049.625000,1336819.875000,66647.500000,8002.875000,667821.250000,10662.223487,2092.363731,71110.785839,1624.618186,755.893749,35481.700247
220,1,0,-nan,-nan,-nan,-nan,-nan,-nan,-nan,-nan,-nan,-nan,-nan,-nan
221,0,8,641133.250000,219969.875000,1339481.000000,66290.875000,7934.250000,668978.500000,4551.326064,1022.658721,59548.025704,658.986046,586.128559,29696.053509
221,1,0,-nan,-nan,-nan,-nan,-nan,-nan,-nan,-nan,-nan,-nan,-nan,-nan
222,0,8,649707.125000,221810.375000,1309102.500000,67242.125000,7538.000000,653997.625000,11049.443181,2972.683465,30313.234865,1511.855684,320.381803,15127.707460
222,1,0,-nan,-nan,-nan,-nan,-nan,-nan,-nan,-nan,-nan,-nan,-nan,-nan
223,0,8,643896.625000,219870.625000,1312945.000000,66406.625000,7757.875000,655854.375000,6640.770756,1675.574747,54837.012364,1099.729164,926.892582,27293.684388
223,1,0,-nan,-nan,-nan,-nan,-nan,-nan,-nan,-nan,-nan,-nan,-nan,-nan
224,0,8,643386.875000,220129.250000,1322846.375000,66522.500000,7669.000000,660743.875000,8234.316144,1370.253786,51855.674892,1194.843295,568.655871,25920.999120
224,1,0,-nan,-nan,-nan,-nan,-nan,-nan,-nan,-nan,-nan,-nan,-nan,-nan
225,0,8,643795.000000,220294.250000,1304817.500000,66569.125000,7747.375000,651856.250000,8523.390156,1928.938876,58379.113699,1154.356795,547.764077,29143.944855
225,1,0,-nan,-nan,-nan,-nan,-nan,-nan,-nan,-nan,-nan,-nan,-nan,-nan
226,0,8,645343.250000,220437.250000,1328486.250000,66770.125000,7864.375000,663846.000000,10547.473557,2210.052248,75588.827142,1535.413579,656.127262,37892.989741
226,1,0,-nan,-nan,-nan,-nan,-nan,-nan,-nan,-nan,-nan,-nan,-nan,-nan
227,0,8,642089.125000,219844.750000,1304062.125000,66356.500000,7731.875000,651391.500000,6410.842270,1544.879425,71493.194532,831.702471,638.052983,35711.808684
227,1,0,-nan,-nan,-nan,-nan,-nan,-nan,-nan,-nan,-nan,-nan,-nan,-nan
228,0,8,640907.875000,219800.125000,1269052.375000,66235.500000,7328.625000,633789.875000,5334.298207,1095.347141,72989.924176,675.588262,518.534940,36411.934734
228,1,0,-nan,-nan,-nan,-nan,-nan,-nan,-nan,-nan,-nan,-nan,-nan,-nan
229,0,8,643618.875000,220357.000000,1305704.250000,66491.500000,7778.750000,652301.125000,7578.511570,2038.279667,77950.136152,1054.413463,848.264515,39032.266676
229,1,0,-nan,-nan,-nan,-nan,-nan,-nan,-nan,-nan,-nan,-nan,-nan,-nan
230,0,8,646543.250000,221633.875000,1257230.750000,66936.375000,7571.125000,627956.500000,9994.389911,3850.714753,60254.466423,1258.981427,534.292157,30169.022507
230,1,0,-nan,-nan,-nan,-nan,-nan,-nan,-nan,-nan,-nan,-nan,-nan,-nan
231,0,8,649992.250000,222489.000000,1397908.875000,67334.500000,7821.250000,698321.750000,16998.762343,5393.351671,101408.164832,1915.249200,528.060070,50548.287859
231,1,0,-nan,-nan,-nan,-nan,-nan,-nan,-nan,-nan,-nan,-nan,-nan,-nan
232,0,8,647501.625000,221571.750000,1290876.250000,66619.250000,7530.625000,644838.125000,17515.655383,5689.962714,85784.966735,1457.149079,525.071409,42942.337359
232,1,0,-nan,-nan,-nan,-nan,-nan,-nan,-nan,-nan,-nan,-nan,-nan,-nan
233,0,8,649835.875000,222358.625000,1295699.125000,67113.250000,7806.500000,647269.750000,17870.110705,5893.874319,29421.251645,1621.535673,428.612296,14720.013925
233,1,0,-nan,-nan,-nan,-nan,-nan,-nan,-nan,-nan,-nan,-nan,-nan,-nan
234,0,8,649679.250000,222140.875000,1292528.750000,67002.875000,7671.875000,645811.000000,18473.537396,5894.491781,55402.462251,1791.640550,341.715319,27668.545539
234,1,0,-nan,-nan,-nan,-nan,-nan,-nan,-nan,-nan,-nan,-nan,-nan,-nan
235,0,8,647726.875000,222055.750000,1312785.500000,66834.125000,7980.000000,655779.125000,19980.120610,6428.176953,81914.938140,1853.443581,628.392194,40897.144562
235,1,0,-nan,-nan,-nan,-nan,-nan,-nan,-nan,-nan,-nan,-nan,-nan,-nan
236,0,8,648965.750000,222353.875000,1308521.250000,67052.125000,7612.500000,653694.125000,18628.397655,5953.799846,59903.827840,1798.348231,634.365234,29967.246964
236,1,0,-nan,-nan,-nan,-nan,-nan,-nan,-nan,-nan,-nan,-nan,-nan,-nan
237,0,8,647794.250000,222357.375000,1369575.375000,66972.125000,7790.500000,684088.625000,18901.727228,6607.463676,81265.752510,1896.410586,712.967917,40536.834669
237,1,0,-nan,-nan,-nan,-nan,-nan,-nan,-nan,-nan,-nan,-nan,-nan,-nan
238,0,8,652262.500000,222983.750000,1406522.750000,67547.875000,8235.625000,702718.500000,25377.716554,7529.970597,121187.314467,2820.486059,931.633906,60599.902040
238,1,0,-nan,-nan,-nan,-nan,-nan,-nan,-nan,-nan,-nan,-nan,-nan,-nan
239,0,8,648306.000000,222463.125000,1302528.750000,67015.375000,7736.375000,650653.500000,17074.604344,5629.896456,76051.173755,1477.784316,711.913256,38122.287736
239,1,0,-nan,-nan,-nan,-nan,-nan,-nan,-nan,-nan,-nan,-nan,-nan,-nan
240,0,8,650582.750000,222573.125000,1355550.375000,67356.750000,8255.875000,677205.625000,18837.513621,5824.341109,74399.649482,1888.616938,993.185587,37112.238463
240,1,0,-nan,-nan,-nan,-nan,-nan,-nan,-nan,-nan,-nan,-nan,-nan,-nan
241,0,8,648753.875000,222070.625000,1290535.125000,66983.750000,7771.000000,644674.500000,18791.933878,6152.456297,70275.294794,1923.596355,797.889717,35002.361274
241,1,0,-nan,-nan,-nan,-nan,-nan,-nan,-nan,-nan,-nan,-nan,-nan,-nan
242,0,8,645863.250000,221699.750000,1311932.875000,66649.125000,7638.125000,655370.375000,17698.758542,5926.157223,39096.187168,1606.003381,320.800342,19620.642038
242,1,0,-nan,-nan,-nan,-nan,-nan,-nan,-nan,-nan,-nan,-nan,-nan,-nan
243,0,8,651294.375000,223040.750000,1366932.250000,67588.125000,8029.500000,682671.000000,17497.931099,5716.682577,80914.842631,1655.997542,604.201125,40381.453936
243,1,0,-nan,-nan,-nan,-nan,-nan,-nan,-nan,-nan,-nan,-nan,-nan,-nan
244,0,8,652712.750000,223019.500000,1290934.750000,67543.500000,7854.625000,644888.250000,20091.107397,6691.201219,70839.790896,2224.242961,974.942811,35372.986543
244,1,0,-nan,-nan,-nan,-nan,-nan,-nan,-nan,-nan,-nan,-nan,-nan,-nan
245,0,8,652846.250000,223067.750000,1325824.375000,67569.875000,8157.625000,662350.125000,23871.209714,7355.917817,50716.507495,2718.472431,533.104103,25285.140930
245,1,0,-nan,-nan,-nan,-nan,-nan,-nan,-nan,-nan,-nan,-nan,-nan,-nan
246,0,8,649899.250000,222596.500000,1294561.750000,67231.500000,7781.750000,646496.375000,16972.547339,5663.103191,52532.891606,1701.395016,567.423508,26065.943585
246,1,0,-nan,-nan,-nan,-nan,-nan,-nan,-nan,-nan,-nan,-nan,-nan,-nan
247,0,8,648226.875000,222028.875000,1329814.500000,66974.000000,7978.625000,664232.750000,17319.270282,5857.338078,82000.877972,1818.760979,658.052038,40727.434963
247,1,0,-nan,-nan,-nan,-nan,-nan,-nan,-nan,-nan,-nan,-nan,-nan,-nan
248,0,8,646009.125000,221862.875000,1294335.625000,66771.375000,7886.625000,646506.625000,16978.308952,5823.343293,58651.406281,1503.820213,375.856667,29388.359222
248,1,0,-nan,-nan,-nan,-nan,-nan,-nan,-nan,-nan,-nan,-nan,-nan,-nan
249,0,8,647948.250000,222201.375000,1300430.125000,66879.500000,7606.500000,649517.500000,16441.978035,5832.914536,25921.975882,1547.875076,512.948584,13094.088790
249,1,0,-nan,-nan,-nan,-nan,-nan,-nan,-nan,-nan,-nan,-nan,-nan,-nan
250,0,8,649459.000000,222148.000000,1351039.375000,66994.500000,7962.250000,675041.500000,16941.076058,5831.569857,58100.082870,1794.716691,761.307059,29066.975311
250,1,0,-nan,-nan,-nan,-nan,-nan,-nan,-nan,-nan,-nan,-nan,-nan,-nan
251,0,8,652601.375000,223078.500000,1386680.250000,67581.375000,8156.375000,692705.375000,16182.317162,5650.783862,94562.707172,1816.106958,557.031852,47221.656835
251,1,0,-nan,-nan,-nan,-nan,-nan,-nan,-nan,-nan,-nan,-nan,-nan,-nan
252,0,8,648599.875000,222164.000000,1248196.250000,67037.625000,7619.875000,623556.500000,15008.624158,5476.664701,38778.351992,1465.468009,367.922695,19393.106501
252,1,0,-nan,-nan,-nan,-nan,-nan,-nan,-nan,-nan,-nan,-nan,-nan,-nan
253,0,8,648442.000000,221910.750000,1283591.250000,66945.625000,7746.500000,641205.500000,25476.743665,7550.623977,85136.928732,2710.670302,764.110103,42538.431606
253,1,0,-nan,-nan,-nan,-nan,-nan,-nan,-nan,-nan,-nan,-nan,-nan,-nan
254,0,8,649612.250000,222420.875000,1287623.000000,67167.375000,7573.125000,643253.750000,18523.755328,5894.830096,42407.499369,1773.092774,600.561079,21145.235254
254,1,0,-nan,-nan,-nan,-nan,-nan,-nan,-nan,-nan,-nan,-nan,-nan,-nan
255,0,8,652050.125000,222840.875000,1323066.625000,67497.250000,7905.875000,660995.875000,18297.972404,6223.131536,80034.890655,2126.838308,712.574985,40055.275341
255,1,0,-nan,-nan,-nan,-nan,-nan,-nan,-nan,-nan,-nan,-nan,-nan,-nan
