0,0,42,671098.023810,232069.428571,1332148.428571,69402.119048,8566.809524,666070.761905,11707.352074,4100.821730,68647.331058,1171.392277,691.215639,34328.419969
0,1,19,714742.684211,249954.631579,1409826.421053,74388.210526,9378.421053,704808.578947,16401.375453,5544.077620,91144.783397,1620.259160,837.829232,45544.791167
1,0,41,671341.536585,231641.804878,1339463.146341,69565.926829,8774.341463,669640.439024,7757.748803,1771.604223,74584.205201,1186.828473,702.541922,37242.867990
1,1,18,713385.333333,249179.333333,1400564.555556,74499.444444,9428.555556,700224.611111,8545.010441,1971.955347,67818.245175,1439.497760,628.860806,33783.127620
2,0,41,670709.804878,231692.024390,1330134.853659,69535.219512,8594.609756,664931.048780,8111.793249,1966.928254,66645.578264,1184.234064,712.553562,33194.018539
2,1,18,714072.166667,249011.666667,1381670.500000,74412.833333,9485.111111,690802.555556,7637.199001,1755.312729,64978.585743,1232.589967,739.423566,32484.073907
3,0,41,669310.219512,231442.000000,1314932.219512,69201.170732,8430.829268,657373.268293,8612.516132,2799.638783,69276.292665,795.932860,748.896160,34591.728153
3,1,18,716793.555556,249939.111111,1374684.500000,74887.055556,9469.722222,687317.055556,11881.895435,3050.179537,94910.038572,1752.853086,1002.907762,47446.589143
4,0,41,671080.609756,231695.707317,1334525.000000,69456.121951,8627.365854,667239.536585,10321.683501,3009.821543,62850.466539,1180.929382,843.062442,31397.949155
4,1,18,711246.277778,248295.888889,1412544.666667,73960.111111,9389.166667,706204.722222,6006.767968,1445.326333,77319.614311,844.599832,797.424134,38550.461183
5,0,41,672221.414634,232012.414634,1329677.073171,69661.317073,8758.000000,664807.073171,10868.551201,3113.886278,66920.388742,1326.649336,745.026534,33434.927995
5,1,18,712025.055556,248633.666667,1407170.666667,74198.222222,9484.444444,703572.277778,7512.887694,1375.771985,71337.840536,1081.957976,716.153710,35670.033233
6,0,41,671888.926829,232089.585366,1317914.243902,69608.878049,8607.634146,658910.268293,11238.962035,3684.371356,71192.856973,1384.562204,816.966631,35627.364128
6,1,18,717227.333333,249816.000000,1404089.555556,75013.333333,9435.777778,701984.888889,9929.216143,2190.047488,80001.415774,1559.864987,925.799148,39962.770726
7,0,41,672109.560976,232035.853659,1338878.804878,69639.000000,8736.439024,669365.804878,13058.345142,3780.649438,64736.942021,1589.916105,799.513207,32299.394284
7,1,18,712164.277778,248759.388889,1404436.555556,74270.333333,9371.611111,702149.055556,6817.685497,1539.774267,63172.774572,1013.751942,574.457729,31565.030620
8,0,41,671335.560976,232006.804878,1328118.658537,69586.243902,8688.390244,663979.219512,9920.609290,2923.206644,67485.215908,1199.102058,825.498722,33718.499891
8,1,18,714878.722222,249733.666667,1425966.722222,74603.055556,9558.444444,712883.333333,8549.921538,2470.359173,67349.009443,1140.918220,680.781758,33626.526416
9,0,41,670542.756098,231889.463415,1318583.243902,69430.390244,8579.658537,659223.048780,10035.143551,3281.860285,55659.438307,1117.483756,682.592819,27804.883698
9,1,19,712376.947368,248933.157895,1400429.578947,74415.000000,9487.894737,700168.105263,9514.655750,1939.349355,81894.964302,1262.213553,838.269012,40901.396109
10,0,41,673091.439024,232473.439024,1314751.585366,69865.658537,8493.804878,657326.707317,11544.785014,3660.974874,58927.065630,1461.320429,729.090152,29457.780673
10,1,19,710050.578947,248301.684211,1385243.000000,73979.526316,9477.421053,692559.315789,5780.679438,1351.164568,72743.929141,876.258516,801.931702,36335.563971
11,0,41,670734.560976,231797.243902,1350242.219512,69462.756098,8674.926829,675142.439024,9690.995443,2979.121075,62680.464134,1121.095344,762.242820,31396.879881
11,1,19,711335.526316,248675.368421,1389257.578947,74131.315789,9550.263158,694577.263158,4335.993401,939.862096,72077.855356,682.925676,680.517747,36040.192107
12,0,41,670262.902439,231650.512195,1318735.073171,69404.073171,8447.536585,659358.243902,9816.055374,3067.492931,56335.359008,1164.434782,596.309017,28144.764999
12,1,19,710992.947368,248765.157895,1419253.894737,74045.789474,9243.631579,709569.263158,3306.558880,1058.212359,86256.292907,485.849292,725.423666,43104.911590
13,0,41,671399.731707,232136.341463,1321771.975610,69603.317073,8384.097561,660836.756098,10922.854842,3414.090913,85122.887034,1282.502041,715.466991,42492.397987
13,1,19,711684.421053,248511.473684,1356555.842105,74093.368421,9250.052632,678246.842105,7108.446054,1616.835908,73767.617163,1036.244343,783.006384,36850.060115
14,0,41,670620.829268,231835.195122,1309555.414634,69502.804878,8436.365854,654755.195122,10345.956865,3106.778154,69249.776218,1202.676471,697.726753,34559.514881
14,1,19,709673.526316,248369.684211,1386081.315789,73919.315789,9151.263158,693049.105263,3748.488472,977.144177,61375.119174,516.415689,618.453916,30657.678464
15,0,41,669739.341463,231640.024390,1310534.634146,69438.365854,8498.536585,655209.170732,10740.097939,3100.359283,71815.441249,1216.702255,578.206061,35896.902633
15,1,19,710232.631579,248413.842105,1396895.368421,73942.210526,9345.842105,698389.157895,3515.252079,1156.370422,78480.703262,520.579695,694.790863,39222.918053
16,0,41,670374.243902,231879.365854,1329849.097561,69486.804878,8458.975610,664902.682927,12869.216924,3718.798900,85514.555508,1463.485552,699.626782,42758.972768
16,1,19,709388.526316,248158.473684,1390407.526316,73800.789474,9181.000000,695134.526316,3417.998651,855.889034,83526.009232,373.795410,747.203981,41712.231476
17,0,41,670869.195122,231857.146341,1321205.170732,69559.365854,8576.146341,660522.048780,11624.100251,3343.971084,77488.202882,1369.733618,729.744578,38749.327301
17,1,19,711950.210526,248850.526316,1402942.105263,74237.421053,9376.631579,701500.368421,7813.868525,1591.852293,86321.914508,1029.741629,1007.583937,43215.444067
18,0,41,671510.536585,231875.390244,1332815.390244,69474.219512,8660.390244,666336.414634,11075.535517,3330.716695,69362.313762,1211.763792,713.145450,34626.640245
18,1,19,711523.947368,248655.947368,1405240.578947,74175.894737,9573.315789,702527.526316,6667.252006,1459.827260,59987.652784,1060.018217,623.710801,29993.333386
19,0,41,670765.097561,231665.902439,1344533.414634,69377.853659,8584.878049,672195.585366,9349.939921,2996.612851,71102.724033,1087.343789,636.243710,35520.116982
19,1,19,711703.105263,248962.894737,1407525.368421,74199.631579,9606.894737,703715.789474,6421.041290,1671.135665,75534.412039,968.975379,716.655235,37736.198381
20,0,41,671192.975610,231878.951220,1309633.341463,69446.146341,8482.439024,654744.731707,10288.411728,3131.749951,72235.093705,1074.123319,617.851156,36103.652839
20,1,19,713917.526316,249046.315789,1378494.315789,74364.842105,9447.473684,689158.526316,13227.295409,3611.534242,86120.649751,1779.113803,786.880943,42876.113855
21,0,41,672614.292683,232138.975610,1342165.365854,69672.463415,8678.268293,671028.414634,11794.104580,3381.046695,70386.416319,1411.130668,710.077942,35172.239706
21,1,19,710755.842105,248500.421053,1397642.157895,74041.631579,9650.421053,698748.473684,5249.941897,1218.807844,90381.201576,745.399590,792.073981,45173.647106
22,0,41,672830.048780,232195.024390,1335912.975610,69812.243902,8655.048780,667876.682927,13256.158902,3694.969451,57227.367074,1668.112893,693.577469,28546.402278
22,1,19,710951.315789,248810.000000,1385742.052632,74273.315789,9482.631579,692797.684211,6920.904048,1500.108628,71367.673628,1001.410324,558.959203,35666.707462
23,0,42,671773.595238,231964.904762,1328120.761905,69648.333333,8630.761905,664004.619048,11332.321229,3401.852771,68135.601616,1391.775308,796.342646,34056.452718
23,1,19,711508.000000,248583.473684,1382977.052632,74089.736842,9378.578947,691394.052632,5808.692606,1306.363912,79902.599211,823.708421,688.238967,39995.902591
24,0,42,670912.000000,231765.404762,1312710.809524,69388.523810,8508.000000,656334.809524,10123.423390,3198.817915,57429.351102,1125.389673,630.741514,28713.763915
24,1,19,712301.894737,248918.368421,1399148.000000,74319.526316,9322.684211,699427.736842,8246.047991,1832.406620,76374.564921,1051.686484,486.656915,38159.781899
25,0,42,670863.928571,231756.880952,1330710.738095,69451.642857,8672.619048,665320.571429,9929.565996,3004.094961,60147.281026,1148.404811,719.902174,30062.928792
25,1,19,710384.052632,248456.263158,1422690.368421,74044.789474,9539.052632,711303.000000,6283.525992,1258.176410,112083.692055,816.317249,1014.039939,55974.817564
26,0,42,672630.380952,232044.047619,1321692.500000,69704.928571,8531.690476,660779.309524,10674.253483,3155.311448,55834.620126,1364.360960,702.715159,27836.504294
26,1,19,714386.052632,249607.526316,1417193.157895,74503.052632,9512.736842,708523.000000,13206.126196,3798.447541,104452.717217,1585.542692,927.062982,52176.739269
27,0,42,673148.404762,232387.690476,1318442.761905,69707.857143,8572.095238,659168.095238,11041.201852,3543.897978,70609.240989,1405.468445,740.894305,35296.582523
27,1,19,710936.315789,248463.421053,1390162.315789,74040.894737,9563.526316,695014.210526,5862.427242,1389.374578,66626.923027,853.137485,778.060502,33282.931732
28,0,42,671013.357143,231787.833333,1313935.047619,69468.357143,8575.333333,656926.761905,10532.371887,3002.077510,62529.638391,1147.112624,748.784465,31240.920730
28,1,19,711102.052632,248617.736842,1403006.736842,74102.210526,9525.789474,701514.947368,6857.884962,1451.913505,79220.128282,821.766235,681.787402,39619.674311
29,0,42,671510.595238,231927.238095,1319983.928571,69583.452381,8515.357143,659956.047619,10177.613510,2951.261246,63204.967454,1195.394759,706.205313,31573.309106
29,1,19,717608.842105,250155.000000,1434185.736842,74822.947368,9921.052632,717022.789474,14493.259781,4250.074674,67048.979481,1622.907899,754.924219,33506.664474
30,0,42,673329.690476,232444.404762,1342540.500000,69833.404762,8800.047619,671229.000000,11947.300786,3360.006194,63581.016270,1453.147324,760.881880,31754.032699
30,1,19,715827.210526,250061.684211,1421206.052632,74653.368421,9725.684211,710534.368421,12061.371396,3857.808269,89853.056164,1307.434700,1039.559626,44833.923782
31,0,99,668869.474747,231558.515152,1311825.070707,69263.575758,8381.262626,655845.474747,7983.435972,2488.707227,72333.887197,822.912935,741.865143,36146.676156
31,1,26,714343.153846,249650.230769,1410513.153846,74524.000000,9486.115385,705208.961538,11825.881440,3592.804907,84907.062966,1229.570188,757.123825,42436.969470
