0,0,757889,266025,1758021,78548,11274,879366,11
0,-1,686046,235926,1318842,70217,8051,659270,0
0,-1,686201,236239,1287575,70449,7023,643831,2
0,-1,645305,220502,1263595,66633,7734,631733,0
0,-1,636529,217493,1153416,65474,6821,576718,0
0,-1,635783,218035,1162490,65632,6891,581288,0
0,-1,633193,218018,1251338,65609,7684,625630,0
0,-1,637498,218920,1349591,65776,7095,674767,0
0,-1,637443,218837,1246972,65827,7340,623531,0
0,-1,664865,228145,1261938,68604,7322,631003,0
0,-1,638051,218523,1253557,65738,6873,626821,0
0,-1,644319,220375,1277999,66383,7456,639120,0
0,-1,637901,219103,1232957,65597,7093,616568,0
0,-1,664078,224073,1194377,69165,7890,597191,0
1,0,776850,269488,1637508,81449,11499,818605,11
1,-1,695977,239366,1332366,71715,7615,666152,2
1,-1,638636,218082,1187691,65581,6390,593865,0
1,-1,638467,218484,1187078,65686,6600,593466,0
1,-1,636115,218056,1182450,65687,7527,591263,0
1,-1,631852,217886,1254602,65570,7853,627326,0
1,-1,639025,218889,1245375,65831,6431,622732,0
1,-1,643665,219873,1350675,66303,8100,674995,0
1,-1,637412,218618,1225621,65708,6501,612859,0
1,-1,639338,218898,1223214,65813,6740,611647,0
1,-1,642692,219237,1240223,65793,7046,620157,0
1,-1,638825,219620,1228028,65838,7754,614054,0
1,-1,637608,217850,1103820,65266,6900,551976,0
2,0,760235,265794,1562948,78518,11634,781497,11
2,-1,634778,217624,1253901,65411,6894,627038,2
2,-1,636780,217951,1263357,65574,7103,631069,0
2,-1,641003,218234,1176950,65498,8170,588471,0
2,-1,643650,218243,1234995,65695,7454,617581,0
2,-1,638754,219949,1266681,66554,7362,633432,0
2,-1,640104,219733,1258707,66322,7283,629433,0
2,-1,640245,219040,1238130,65921,7302,618992,0
2,-1,638632,219393,1173502,66008,7135,586799,0
2,-1,636868,218380,1222419,65687,6680,611237,0
2,-1,640156,218710,1165072,65667,7544,582610,0
2,-1,644207,220802,1179906,66442,7876,590021,0
2,-1,637882,218468,1156781,65501,6936,578452,0
3,0,759428,265588,1585206,78387,10523,792585,11
3,-1,637902,218050,1196721,65412,7029,598305,0
3,-1,636411,218107,1297718,65593,8061,648843,2
3,-1,641813,219553,1275718,66402,7157,637797,0
3,-1,640439,218059,1139307,65650,7131,569701,0
3,-1,656223,223046,1186258,69107,8272,593151,0
3,-1,636065,218162,1218511,65575,6738,609278,0
3,-1,636752,218135,1262428,65582,7622,631086,0
3,-1,637825,219342,1254386,66120,7000,627256,0
3,-1,636174,218136,1282603,65545,6620,641481,0
3,-1,640220,218688,1205702,65626,7272,602905,0
3,-1,641081,220077,1137232,66020,7727,568586,0
3,-1,640606,218865,1157114,65721,7303,578594,0
4,0,760309,265514,1526761,78341,10193,763409,11
4,-1,638713,218371,1129849,65410,6922,564928,0
4,-1,633590,217790,1286344,65389,7557,643224,2
4,-1,633365,216923,1219773,65128,7436,609902,0
4,-1,644356,219716,1281624,66375,7094,640892,0
4,-1,633688,218386,1180071,65792,7434,589452,0
4,-1,639332,219975,1232511,66202,6625,616273,0
4,-1,641948,219871,1295017,66150,7699,647473,0
4,-1,635825,218816,1164997,65835,6319,582528,0
4,-1,642634,220507,1240139,66707,7279,620140,0
4,-1,664936,224278,1237649,69807,8645,618755,0
4,-1,638627,219281,1220905,65712,8698,610509,0
4,-1,639281,218632,1165029,65635,7240,582584,0
5,0,762096,265842,1469740,78532,9413,734848,11
5,-1,634714,217356,1163633,65127,6489,581806,0
5,-1,633079,217534,1160253,65334,7995,580145,2
5,-1,636714,218539,1149685,65744,6565,574715,0
5,-1,643350,220290,1230305,66655,6974,615190,0
5,-1,633267,218204,1160906,65729,7489,580410,0
5,-1,635030,218702,1165567,65729,7006,582866,0
5,-1,637327,218472,1236503,65666,7191,618192,0
5,-1,635218,218636,1249856,65710,7068,624972,0
5,-1,641008,219450,1235312,66038,7596,617702,0
5,-1,640966,219180,1245072,65832,7526,622572,0
5,-1,640187,220538,1302878,66150,8907,651528,0
5,-1,636966,218123,1166224,65517,7101,583169,0
6,0,779180,269637,1612087,81525,10343,806061,11
6,-1,642749,220798,1262442,66583,7160,631240,0
6,-1,636785,218873,1284418,65868,7966,641043,2
6,-1,639816,219039,1251971,66086,7964,625982,0
6,-1,658998,222726,1238656,68951,7899,619420,0
6,-1,632293,218264,1236474,65636,7467,618248,0
6,-1,659697,223431,1196912,69142,8354,598431,0
6,-1,657917,222847,1202120,68883,8119,600840,0
6,-1,639066,219527,1243339,66039,6639,621722,0
6,-1,638769,218879,1178292,65794,6414,589197,0
6,-1,639422,218795,1295441,65596,6868,647753,0
6,-1,638587,219865,1513202,65942,9237,756589,0
6,-1,637955,218471,1299876,65535,7482,650029,0
7,0,758901,265406,1477879,78307,9430,738969,11
7,-1,638095,218198,1310273,65506,8425,655097,0
7,-1,639595,219669,1275623,66456,7899,637785,0
7,-1,637028,218110,1233495,65675,8081,616736,2
7,-1,639383,217982,1356277,65496,8144,678180,0
7,-1,659013,223152,1216656,69119,8591,608345,0
7,-1,638875,219382,1234259,65953,7302,617131,0
7,-1,637413,218995,1266702,65878,8132,633492,0
7,-1,655009,222548,1274702,68776,7573,637364,0
7,-1,640571,219895,1248497,66345,7544,624286,0
7,-1,657645,222713,1183721,68890,7373,591935,0
7,-1,642968,220918,1325752,66465,8832,663183,0
7,-1,643323,220949,1315178,66734,7808,657426,0
8,0,759866,265865,1514872,78525,9699,757384,11
8,-1,634986,217492,1135824,65244,7042,567970,0
8,-1,633481,217706,1226466,65431,7840,613253,0
8,-1,641767,219610,1231597,66160,6703,616257,2
8,-1,644865,220136,1358265,66479,9093,678958,0
8,-1,634341,218144,1164776,65702,6979,582385,0
8,-1,634944,218357,1189869,65697,7028,594850,0
8,-1,632294,217372,1281204,65356,8104,640498,0
8,-1,633587,218437,1323233,65707,7330,661654,0
8,-1,638691,218533,1345996,65621,6838,673047,0
8,-1,640053,219217,1254976,65938,7108,627591,0
8,-1,639727,220075,1224784,66005,8295,612161,0
8,-1,637447,218697,1159735,65670,7129,580039,0
9,0,762032,265843,1558325,78517,9985,779147,11
9,-1,638972,218320,1214744,65555,6741,607401,0
9,-1,632465,217541,1196262,65349,7969,598039,0
9,-1,645106,220828,1196450,66674,7626,598314,2
9,-1,640671,218756,1369604,65830,8530,684892,0
9,-1,632498,218051,1152063,65605,7536,575992,0
9,-1,635349,218280,1150304,65610,6797,575104,0
9,-1,634151,218177,1408156,65579,8277,703959,0
9,-1,635661,218403,1195604,65689,7046,597847,0
9,-1,637917,218847,1294558,65841,6639,647422,0
9,-1,636767,218590,1215075,65764,6815,607588,0
9,-1,637006,219414,1426934,65761,8711,713611,0
9,-1,644686,219256,1243230,65888,7410,621526,0
10,0,761163,266162,1475432,78670,9335,737609,11
10,-1,636221,217533,1129127,65234,6644,564541,0
10,-1,635050,217140,1300136,65317,8229,650109,0
10,-1,641202,219563,1252377,65885,7280,626234,2
10,-1,640312,218795,1368770,65801,7636,682992,0
10,-1,635449,218835,1279949,65922,7617,640037,0
10,-1,636815,219206,1164536,65955,6702,582241,0
10,-1,639409,219040,1364403,65841,8030,681395,0
10,-1,639113,219769,1251197,66323,7532,625657,0
10,-1,636062,218506,1170198,65698,6308,585147,0
10,-1,642601,219749,1276218,66313,7792,638163,0
10,-1,640420,220724,1274426,66201,8583,637630,0
10,-1,640199,218458,1163239,65665,7423,581661,0
11,0,767586,267525,1575618,79346,10708,787807,11
11,-1,657692,222453,1233432,68676,7728,616833,0
11,-1,657763,222412,1259840,68774,8670,629794,0
11,-1,636162,218454,1227974,65652,7607,614048,2
11,-1,658954,222824,1344161,68950,8757,671590,0
11,-1,640105,221068,1361892,66912,8061,680871,0
11,-1,631031,217372,1111287,65277,6894,555585,0
11,-1,637450,218600,1177618,65708,7263,588835,0
11,-1,634543,218848,1223732,65762,7477,611919,0
11,-1,637338,219352,1174269,65989,7101,587187,0
11,-1,641229,218822,1345756,65755,7647,672923,0
11,-1,635446,219271,1261875,65658,8264,631020,0
11,-1,646430,220832,1299339,66695,8047,649750,0
12,0,757644,265955,1562360,78691,9727,781118,11
12,-1,636134,218020,1112987,65450,6407,556523,0
12,-1,637369,218596,1209394,65714,7950,604716,0
12,-1,642143,220347,1268531,66547,7825,634338,2
12,-1,637627,218568,1336553,65705,7808,668112,0
12,-1,655950,223589,1224829,69252,7908,612366,0
12,-1,656328,223503,1178321,69138,8507,589123,0
12,-1,635930,218709,1255641,65808,7287,627859,0
12,-1,633551,218355,1135412,65618,7492,567754,0
12,-1,641737,218947,1147021,65846,7487,573559,0
12,-1,639910,218708,1259839,65753,7531,629946,0
12,-1,634528,219509,1261345,65824,7283,630176,0
12,-1,662654,223599,1321008,69083,7749,660702,0
13,0,786448,274933,1525523,81190,9161,762818,11
13,-1,637004,218227,1162158,65530,6881,581069,0
13,-1,635022,217991,1247084,65468,7687,623496,0
13,-1,636286,218092,1356980,65469,7705,678475,0
13,-1,637390,218378,1212241,65753,6828,606223,2
13,-1,636899,219505,1250092,66329,7296,625043,0
13,-1,638092,218261,1281244,65646,8352,640647,0
13,-1,635622,218332,1167068,65623,6561,583565,0
13,-1,631914,218102,1210345,65525,6724,605097,0
13,-1,643294,219731,1197720,66311,7635,598922,0
13,-1,635470,217089,1214121,65074,6825,607108,0
13,-1,651491,221731,1299322,66805,8554,649677,0
13,-1,638475,218228,1329681,65551,7116,664912,0
14,0,751277,263684,1543868,77823,9056,771921,11
14,-1,642157,219613,1176640,66158,7211,588165,0
14,-1,635057,218332,1207927,65520,7457,603820,0
14,-1,639713,218735,1179030,65707,7475,589609,0
14,-1,636566,218090,1192354,65722,8253,595994,2
14,-1,635274,218813,1256294,65846,7505,628128,0
14,-1,640484,219645,1334890,66219,7970,667117,0
14,-1,639942,220176,1270523,66439,7263,635223,0
14,-1,639614,217973,1130671,65499,7446,565356,0
14,-1,639409,218495,1172339,65738,7070,586203,0
14,-1,644116,220723,1254775,66517,7710,627452,0
14,-1,666909,224058,1285027,69109,8729,642566,0
14,-1,638692,218283,1143799,65529,6766,571955,0
14,-1,640052,218277,1232739,65552,7626,616427,0
15,0,742486,260093,1436044,76765,9268,717989,11
15,-1,637138,218414,1140319,65566,6860,570104,0
15,-1,684889,231657,1268947,71520,8523,634516,0
15,-1,639717,218722,1277726,65726,8969,638765,0
15,-1,646846,220952,1324377,66908,7147,662199,2
15,-1,630814,218203,1126173,65649,7272,563090,0
15,-1,639462,218941,1280020,65885,7926,640093,0
15,-1,635027,218606,1149287,65747,6900,574607,0
15,-1,661788,223050,1109748,68936,8085,554951,0
15,-1,640114,218779,1232379,65764,7232,616238,0
15,-1,638245,218327,1131115,65490,7508,565608,0
15,-1,648910,221028,1309666,66494,8792,654178,0
15,-1,638255,218575,1211259,65672,6898,605679,0
15,-1,640354,218423,1283018,65583,7841,641611,0
16,0,738954,258761,1535340,76428,8695,767639,11
16,-1,633736,217557,1229261,65198,6998,614636,0
16,-1,633362,217631,1245350,65402,7891,622676,0
16,-1,637433,218279,1251570,65481,7963,626017,0
16,-1,640258,218208,1289572,65684,7454,644749,2
16,-1,630402,217882,1249281,65569,7064,624659,0
16,-1,637424,218789,1372433,65868,7514,685414,0
16,-1,635880,219282,1311137,65969,7115,655563,0
16,-1,642198,219041,1257963,65862,7786,628943,0
16,-1,638710,218588,1181598,65736,7502,590845,0
16,-1,643715,220381,1197969,66390,7909,599056,0
16,-1,650976,221619,1267303,66786,8249,633589,0
16,-1,640324,218401,1293046,65583,7460,646618,0
16,-1,658096,222853,1295442,68859,7732,647807,0
17,0,710273,249172,1498748,74424,9059,749345,11
17,-1,635340,218271,1241944,65762,7279,620932,0
17,-1,633437,217525,1244135,65384,7706,621892,0
17,-1,640570,219586,1269076,66207,8943,634472,0
17,-1,634805,217899,1132978,65604,6443,566509,0
17,-1,632776,218519,1157177,65835,7393,578486,2
17,-1,657760,222893,1208027,69054,7357,604002,0
17,-1,632771,218115,1244004,65560,6817,622003,0
17,-1,643508,219784,1352516,66334,7906,676357,0
17,-1,637457,218240,1269055,65595,7310,634461,0
17,-1,637254,218507,1123439,65552,7250,561767,0
17,-1,643688,219529,1278003,65848,8403,639041,0
17,-1,639742,218621,1154481,65666,7261,577288,0
17,-1,637255,217798,1177955,65379,6892,589016,0
18,0,706957,247671,1410980,73588,8756,705509,11
18,-1,639079,217924,1231704,65439,8059,615894,0
18,-1,644210,219921,1299226,66368,8600,649665,0
18,-1,638546,218426,1176327,65524,6751,588203,0
18,-1,643116,218175,1322915,65682,7680,661521,0
18,-1,635719,218977,1205326,65997,7922,602600,2
18,-1,635366,218141,1234599,65592,6983,617268,0
18,-1,640971,220669,1346082,66680,7930,673042,0
18,-1,641371,219167,1237218,65961,7432,618602,0
18,-1,644244,220329,1305709,66529,8303,652943,0
18,-1,638874,219406,1180487,65866,7495,590229,0
18,-1,646614,220266,1254467,66026,8029,627270,0
18,-1,639154,218587,1236130,65619,7351,618119,0
18,-1,639295,219029,1267382,65962,7237,633757,0
19,0,705741,246930,1373059,73463,9636,686498,11
19,-1,658873,222513,1260178,68777,8366,630048,0
19,-1,663502,223639,1280422,69704,8016,640144,0
19,-1,640859,219724,1261206,66301,7393,630807,0
19,-1,644681,219789,1267144,66436,8551,633578,0
19,-1,633504,218877,1267950,65961,8129,633742,2
19,-1,638612,219266,1251390,65980,7401,625748,0
19,-1,638759,218600,1250998,65764,7665,625544,0
19,-1,637981,218054,1240911,65495,7515,620509,0
19,-1,638320,218488,1192226,65695,6654,596159,0
19,-1,640454,218958,1135844,65750,7164,567975,0
19,-1,645222,219921,1174992,66046,7745,587537,0
19,-1,659769,223306,1182683,69000,7647,591400,0
19,-1,636083,218059,1218510,65467,7225,609308,0
20,0,703171,247504,1342056,73612,8683,671066,11
20,-1,640594,218783,1149240,65817,6922,574757,0
20,-1,657627,222693,1257853,68845,8601,628911,0
20,-1,633898,217346,1196189,65262,7137,598154,0
20,-1,640818,218049,1146766,65574,7437,573373,0
20,-1,637558,219052,1331469,65994,8297,665739,2
20,-1,636685,218188,1229779,65646,7309,614911,0
20,-1,638785,218734,1167262,65831,7485,583720,0
20,-1,643800,220345,1220351,66333,7485,610169,0
20,-1,636549,218472,1145881,65721,6940,572989,0
20,-1,642549,220299,1346868,66516,7615,673433,0
20,-1,643205,219651,1287062,65789,7662,643564,0
20,-1,639221,218291,1215838,65534,7222,607964,0
20,-1,636780,218122,1151365,65540,7041,575720,0
21,0,709802,249196,1374206,74415,8444,687193,11
21,-1,640189,219183,1239302,66150,6899,619652,0
21,-1,636691,217679,1251558,65345,7847,625811,0
21,-1,637186,218615,1260282,65632,7663,630132,0
21,-1,641003,218391,1262670,65787,7892,631421,0
21,-1,634414,218526,1144852,65858,6604,572464,2
21,-1,636515,218255,1266959,65662,6769,633328,0
21,-1,641171,219895,1196560,66177,7477,598237,0
21,-1,637824,217959,1150442,65500,7283,575329,0
21,-1,638802,219356,1184858,65992,6791,592477,0
21,-1,635911,218142,1162569,65367,6984,581326,0
21,-1,645758,219760,1210102,65909,7566,605232,0
21,-1,640646,219825,1240588,66259,7300,620406,0
21,-1,637520,217617,1231837,65329,7563,616002,0
22,0,704279,246858,1360141,73412,8278,680044,11
22,-1,637848,218572,1264891,65733,7150,632451,0
22,-1,636359,218235,1192623,65600,7420,596154,0
22,-1,636643,218937,1180904,65815,7222,590501,0
22,-1,642227,219188,1211742,66026,7999,605947,0
22,-1,637614,220490,1246549,66750,7486,623224,2
22,-1,640696,220526,1328134,66714,7058,664125,0
22,-1,641578,220593,1233999,66677,7703,616906,0
22,-1,644793,219879,1220749,66419,7566,610382,0
22,-1,637244,218130,1232588,65601,7404,616407,0
22,-1,638386,218992,1227053,65751,7356,613631,0
22,-1,644441,219790,1239381,66170,8394,619530,0
22,-1,641336,219383,1219827,65911,8401,609887,0
22,-1,640585,219130,1218994,65794,7688,609546,0
23,0,705387,246916,1296812,73392,7873,648409,11
23,-1,635763,218357,1197417,65581,6835,598692,0
23,-1,641433,220562,1275506,66537,7650,637646,0
23,-1,646561,220830,1334239,66679,9008,667249,0
23,-1,640843,218347,1229542,65739,8054,614751,0
23,-1,635830,218381,1219413,65748,6959,609728,0
23,-1,636891,218996,1279535,65932,7183,639770,2
23,-1,657635,223477,1297455,69154,8240,648693,0
23,-1,660419,222779,1204362,68896,8218,602083,0
23,-1,636978,218378,1143149,65684,7575,571661,0
23,-1,665188,223787,1320603,69267,8466,660362,0
23,-1,644011,219365,1225860,65898,8050,612726,0
23,-1,638408,218397,1142092,65556,7915,571007,0
23,-1,637293,218262,1102252,65489,7148,551077,0
24,0,708736,248623,1380944,74100,8840,690590,11
24,-1,639436,219346,1158870,65898,6721,579438,0
24,-1,634897,217814,1221037,65467,7269,610493,0
24,-1,640366,218471,1254102,65581,7748,627105,0
24,-1,645261,220815,1286413,66904,8057,643249,0
24,-1,635022,218539,1175525,65821,6623,587733,0
24,-1,633262,218765,1224324,65836,7961,612167,2
24,-1,637136,218522,1245583,65694,7606,622740,0
24,-1,642068,219079,1225026,65872,7014,612507,0
24,-1,642028,221072,1196374,66874,7490,598239,0
24,-1,641427,218908,1365003,65854,7243,682426,0
24,-1,644814,219926,1289795,66021,8449,644772,0
24,-1,639633,219185,1279358,65837,8358,639727,0
24,-1,637606,218701,1157973,65637,7178,579025,0
25,0,706346,247287,1365094,73443,7671,682675,11
25,-1,636722,218394,1225144,65641,7024,612639,0
25,-1,634091,217743,1216139,65391,7432,607203,0
25,-1,640254,218970,1167851,65787,7141,583976,0
25,-1,641597,218189,1251993,65663,7288,625929,0
25,-1,636113,218987,1244527,66100,7251,622320,0
25,-1,641000,220610,1305101,66683,7703,652558,2
25,-1,636716,218405,1155374,65617,6947,577654,0
25,-1,640054,219321,1301818,66011,6880,650994,0
25,-1,657869,223519,1158883,69179,8231,579405,0
25,-1,639665,219054,1167493,65827,7399,583797,0
25,-1,643007,219214,1272333,65825,7916,636360,0
25,-1,639199,218760,1262769,65606,7968,631343,0
25,-1,659858,222789,1152785,68786,7645,576454,0
26,0,706816,247138,1300254,73485,8429,650145,11
26,-1,634609,217859,1140874,65388,6637,570454,0
26,-1,637363,218210,1149985,65645,8008,574956,0
26,-1,640900,219108,1167683,65834,7253,584015,0
26,-1,643645,219248,1163067,66082,7792,581564,0
26,-1,634466,218673,1156168,65871,6614,578088,0
26,-1,640222,219067,1179091,65924,7544,589511,2
26,-1,640292,219804,1263219,66340,7412,631584,0
26,-1,637945,218392,1148315,65655,6629,574176,0
26,-1,638783,218690,1156314,65785,7216,578211,0
26,-1,639960,218651,1243995,65713,7569,622033,0
26,-1,648177,221398,1355741,66842,8346,678041,0
26,-1,660807,224488,1272066,69267,8872,635635,0
26,-1,641345,218674,1205407,65588,6733,602746,0
27,0,705920,247025,1379414,73443,9231,689744,11
27,-1,655402,222503,1263288,68790,7464,631630,0
27,-1,637346,218242,1264513,65574,7784,632139,0
27,-1,658445,222987,1240701,68887,8306,620438,0
27,-1,639793,218198,1167586,65724,7892,583615,0
27,-1,636422,218912,1246887,65949,7828,623512,0
27,-1,635353,219228,1296904,65977,6612,648466,2
27,-1,636609,218719,1154669,65803,7111,577363,0
27,-1,641220,220150,1228918,66497,7127,614475,0
27,-1,638163,218891,1173859,65740,7133,586973,0
27,-1,639054,218620,1108977,65772,6842,554528,0
27,-1,664927,224176,1397962,69322,9123,699324,0
27,-1,640493,219736,1409257,65884,8211,704675,0
27,-1,638004,218175,1151153,65473,7259,575628,0
28,0,708488,247752,1294132,73698,9095,647075,11
28,-1,638054,217623,1214831,65373,7361,607545,0
28,-1,638419,219351,1365218,66104,7856,682347,0
28,-1,639814,218110,1246416,65459,7784,623260,0
28,-1,640103,218247,1234564,65695,7896,617259,0
28,-1,636709,217963,1259505,65593,6622,629838,0
28,-1,635220,218119,1247454,65601,7533,623696,0
28,-1,640786,220580,1280716,66705,7791,640338,2
28,-1,641098,218546,1221927,65710,7564,611058,0
28,-1,639888,219602,1281748,66263,7490,640927,0
28,-1,642463,220358,1255753,66546,7506,627961,0
28,-1,643292,219723,1461202,66053,8554,730615,0
28,-1,636735,218559,1345265,65508,7718,671920,0
28,-1,640441,218555,1143408,65610,7110,571754,0
29,0,706058,246330,1311207,73037,8669,655501,11
29,-1,638207,218263,1167389,65633,6884,583676,0
29,-1,636298,218167,1197444,65453,7442,598732,0
29,-1,636750,218004,1186511,65427,7545,593257,0
29,-1,640799,218318,1130612,65716,7816,565303,0
29,-1,641465,220324,1315486,66754,7092,657827,0
29,-1,636460,219076,1254453,65934,7187,627254,0
29,-1,633510,218248,1334817,65605,9131,667348,2
29,-1,641278,218874,1171672,65844,7137,585746,0
29,-1,640008,219844,1219830,66157,7432,609959,0
29,-1,635209,217899,1250108,65444,6868,625062,0
29,-1,642003,219217,1241554,65888,7743,620510,0
29,-1,639524,219121,1279832,65693,7351,640027,0
29,-1,639452,218490,1231656,65536,7280,615862,0
30,0,704357,247021,1305096,73374,8443,652521,11
30,-1,639399,219093,1185481,66022,7583,592586,0
30,-1,637398,218390,1280907,65618,7885,640467,0
30,-1,639001,219207,1178928,65822,7409,589403,0
30,-1,659695,222638,1255998,69000,8572,628081,0
30,-1,656136,222514,1291878,68875,7713,645964,0
30,-1,655330,222724,1204977,68892,7536,602514,0
30,-1,641054,220631,1258820,66713,7755,629474,2
30,-1,636819,218587,1141858,65750,6544,570930,0
30,-1,638459,219993,1269331,66395,7432,634742,0
30,-1,641400,219060,1326593,65864,7085,663353,0
30,-1,641058,219204,1252271,65982,7521,626102,0
30,-1,646913,219809,1242685,66113,7315,621396,0
30,-1,636936,218285,1231338,65544,6979,615770,0
31,0,706242,247294,1278183,73459,8885,639103,11
31,-1,634180,217268,1128848,65258,6817,564254,0
31,-1,632452,217479,1269395,65325,7242,634653,0
31,-1,644404,220922,1220849,66653,7778,610509,0
31,-1,640010,218484,1228765,65834,7750,614316,0
31,-1,636055,218212,1335778,65734,6745,667867,0
31,-1,633807,217933,1354083,65496,6994,676955,0
31,-1,636080,218686,1124963,65825,7456,562411,2
31,-1,640359,219067,1157733,65917,6307,578832,0
31,-1,656603,223214,1193072,69008,8029,596591,0
31,-1,643337,220130,1246124,66438,7569,623245,0
31,-1,642681,219040,1449174,65882,8671,724626,0
31,-1,644114,219474,1142355,65872,7307,571233,0
31,-1,644832,220544,1318540,66434,7554,659384,0
32,0,707821,247695,1406214,73581,10009,703064,11
32,-1,655794,222117,1306376,68703,8094,653186,0
32,-1,639508,220177,1262771,66479,8044,630983,0
32,-1,661949,223922,1248379,69127,8326,624276,0
32,-1,642884,218792,1261779,66054,8731,630846,0
32,-1,637137,218950,1185579,65945,7174,592778,0
32,-1,635940,219711,1264153,66324,7387,632052,0
32,-1,658512,223500,1237891,69179,7669,619053,0
32,-1,639889,219411,1253031,66050,7547,626548,2
32,-1,634700,218689,1244836,65731,7652,622476,0
32,-1,637074,217941,1262170,65497,7345,631124,0
32,-1,647376,221528,1326445,67029,8418,663158,0
32,-1,644192,219665,1329618,65902,7440,664821,0
32,-1,640433,219091,1217159,65775,6877,608685,0
33,0,705646,246985,1270390,73337,8443,635104,11
33,-1,634956,218465,1174153,65713,6124,587077,0
33,-1,651068,221305,1252664,68424,7604,625999,0
33,-1,641316,220289,1266565,66310,7983,633354,0
33,-1,638763,217878,1258407,65532,8146,629193,0
33,-1,634486,218270,1206385,65685,7003,603168,0
33,-1,637246,218443,1231262,65607,6816,615771,0
33,-1,641449,219713,1325771,66139,7453,662907,0
33,-1,639584,218759,1207740,65833,7150,603884,2
33,-1,661443,223038,1196266,68977,7987,598227,0
33,-1,635617,218196,1188779,65550,6274,594429,0
33,-1,644407,219890,1271830,66155,8358,635720,0
33,-1,646160,221119,1314249,66635,7521,657199,0
33,-1,665313,227612,1282119,68215,7558,641084,0
34,0,707033,247281,1288569,73403,8630,644215,11
34,-1,646678,223095,1350170,66971,6766,675010,0
34,-1,632641,217929,1304613,65480,7695,652353,0
34,-1,641134,218921,1236865,65630,7081,618542,0
34,-1,637125,217193,1266165,65440,8281,633067,0
34,-1,634516,218564,1131677,65789,6572,565723,0
34,-1,635562,218232,1276970,65585,6731,638493,0
34,-1,634902,218221,1117522,65596,7336,558690,0
34,-1,631584,218803,1176265,65833,6236,588217,2
34,-1,640757,219402,1134440,65964,6931,567279,0
34,-1,638572,219316,1140489,65921,6511,570287,0
34,-1,644978,220737,1322027,66594,8607,660828,0
34,-1,643014,219421,1236866,65854,7745,618479,0
34,-1,637324,218413,1224522,65536,6648,612305,0
35,0,704970,247066,1374137,73319,8117,687146,11
35,-1,694254,238741,1326708,71573,7605,663358,0
35,-1,642171,219298,1323993,66075,8484,661919,0
35,-1,639335,218309,1161835,65445,7096,581005,0
35,-1,641799,219849,1288547,66458,7955,644237,0
35,-1,638799,220561,1182431,66768,7771,591092,0
35,-1,668595,230353,1290616,69658,7199,645370,0
35,-1,643540,219741,1243141,66141,7514,621547,0
35,-1,640949,221321,1302429,66963,6974,651274,2
35,-1,637945,218316,1228463,65539,7326,614271,0
35,-1,635432,218047,1254781,65510,6999,627448,0
35,-1,642461,220124,1258489,66271,8406,629139,0
35,-1,641924,219015,1132474,65684,7017,566290,0
35,-1,643418,220776,1221161,66594,7350,610694,0
36,0,712717,248926,1446891,74151,9422,723432,11
36,-1,689836,236652,1205565,70593,6890,602762,0
36,-1,636261,217820,1173065,65400,7388,586499,0
36,-1,643278,220452,1268484,66447,7931,634299,0
36,-1,637895,218533,1189628,65849,8100,594702,0
36,-1,657235,223281,1188849,69157,8569,594444,0
36,-1,657171,223325,1202101,69087,7741,601035,0
36,-1,640079,218320,1197455,65647,7279,598644,0
36,-1,637321,219756,1245508,66143,7055,622810,2
36,-1,658802,223142,1192880,69019,7726,596396,0
36,-1,637050,218476,1165511,65678,6911,582810,0
36,-1,640542,219302,1358662,65946,8855,679430,0
36,-1,645250,220696,1245733,66556,7662,622937,0
36,-1,658264,222685,1185247,68753,7678,592686,0
37,0,706007,246300,1343776,73020,8439,671884,11
37,-1,688024,236179,1299474,70395,6906,649678,0
37,-1,636005,217676,1254654,65460,7469,627263,0
37,-1,661164,223929,1241503,69105,7827,620758,0
37,-1,637076,218181,1236262,65680,7793,618138,0
37,-1,636209,218641,1207075,65813,6944,603515,0
37,-1,635206,218369,1246554,65720,7627,623320,0
37,-1,659952,222760,1208711,68920,7658,604286,0
37,-1,636275,218763,1153627,65782,6845,576866,2
37,-1,636973,218552,1231185,65701,6428,615566,0
37,-1,638842,219418,1228858,66037,6715,614483,0
37,-1,644350,220152,1264841,66259,8789,632479,0
37,-1,641062,219449,1165529,65977,7055,582746,0
37,-1,638503,219027,1231956,65761,7078,616034,0
38,0,710394,247555,1288546,73523,8650,644263,11
38,-1,687760,236522,1243613,70538,6900,621764,0
38,-1,637240,218449,1175003,65701,7708,587452,0
38,-1,664792,228253,1296033,68399,7357,648061,0
38,-1,643074,218380,1253369,65757,7793,626776,0
38,-1,632730,218158,1153257,65718,6570,576557,0
38,-1,635479,218687,1262627,65725,7047,631156,0
38,-1,641674,219509,1252707,66075,7805,626456,0
38,-1,638685,219222,1209760,65860,6544,604935,0
38,-1,637732,219242,1158691,65978,6826,579380,2
38,-1,636680,219246,1273139,65956,6659,636580,0
38,-1,646295,219546,1275479,65978,8644,637475,0
38,-1,641037,219444,1235047,65902,7609,617549,0
38,-1,637225,218549,1239011,65554,7240,619561,0
39,0,728304,252196,1390015,76857,9426,695076,11
39,-1,686806,236437,1201574,70442,6698,600865,0
39,-1,635524,217802,1358160,65448,8677,679021,0
39,-1,640198,219462,1283258,65867,8115,641377,0
39,-1,662881,222941,1239358,69060,7848,619674,0
39,-1,632941,218268,1212776,65692,6942,606405,0
39,-1,639735,220497,1384981,66543,7801,692485,0
39,-1,638140,218716,1226305,65769,6916,613124,0
39,-1,636973,218424,1223871,65645,6645,611971,0
39,-1,661920,228103,1248116,68554,7261,624163,2
39,-1,638403,219074,1271349,65790,7132,635513,0
39,-1,665167,224068,1171806,69232,7873,586216,0
39,-1,641660,218556,1126622,65617,7317,563355,0
39,-1,642771,219195,1310341,65766,7154,655351,0
40,0,706208,247282,1362736,73413,8294,681371,11
40,-1,690330,236668,1384913,70573,7213,692522,0
40,-1,637438,218878,1293258,65850,8987,646586,0
40,-1,635112,218059,1213030,65415,7614,606559,0
40,-1,639322,217782,1183653,65547,7133,591804,0
40,-1,635101,218377,1240204,65783,7803,620056,0
40,-1,634292,218333,1260189,65666,7237,630071,0
40,-1,639469,218900,1222284,65874,7016,611067,0
40,-1,638246,219554,1197069,66057,6308,598624,0
40,-1,638572,218901,1124784,65893,6597,562445,2
40,-1,657210,222657,1203556,68865,7964,601867,0
40,-1,644381,219757,1262628,66038,8041,630839,0
40,-1,662347,223331,1267591,69019,7730,633853,0
40,-1,640015,218599,1227480,65666,7240,613776,0
41,-1,695120,236595,1254039,70488,8057,627044,0
41,0,729397,252055,1411845,76905,9729,705974,11
41,-1,636168,217755,1265653,65371,7805,632704,0
41,-1,636798,218485,1205233,65642,7742,602661,0
41,-1,641411,219363,1280067,66084,7188,640033,0
41,-1,633541,218256,1172524,65695,7492,586276,0
41,-1,632979,218283,1234239,65629,6973,617117,0
41,-1,637651,218341,1247621,65668,6988,623770,0
41,-1,644759,220800,1218571,66740,7739,609379,0
41,-1,635345,219058,1193478,65911,6816,596802,2
41,-1,636325,218945,1148690,65852,6561,574448,0
41,-1,646320,221284,1241600,66914,8089,620119,0
41,-1,641562,219817,1172076,66031,7398,586090,0
41,-1,657265,222501,1167452,68641,7340,583861,0
42,-1,693119,236466,1218914,70451,7714,609466,0
42,0,706380,246865,1294883,73402,8742,647469,11
42,-1,636742,218282,1393188,65567,8249,696538,0
42,-1,634148,217854,1229796,65378,7911,614957,0
42,-1,643416,220106,1288386,66615,8639,644252,0
42,-1,653978,222498,1167105,68878,8773,583614,0
42,-1,638487,219044,1213340,65870,6766,606670,0
42,-1,637700,218400,1168892,65703,7010,584454,0
42,-1,639624,219090,1266293,65846,6984,633203,0
42,-1,638204,219054,1167331,65890,7164,583717,0
42,-1,636957,219018,1233762,65806,6857,616935,2
42,-1,645341,219931,1265111,66176,8577,632559,0
42,-1,639639,219386,1131680,65962,6711,565918,0
42,-1,639479,219455,1230069,65896,6834,615090,0
43,-1,696691,237670,1323713,71066,8427,661789,0
43,0,708799,247306,1421135,73578,9528,710470,11
43,-1,655791,222151,1261850,68731,8221,630837,0
43,-1,634216,217949,1217048,65475,7698,608569,0
43,-1,639670,218471,1352277,65758,9036,675882,0
43,-1,630781,218117,1267220,65641,7813,633585,0
43,-1,638479,219793,1238455,66374,7090,619314,0
43,-1,638902,218997,1256362,65843,6954,628095,0
43,-1,637835,218362,1214635,65664,6790,607385,0
43,-1,635394,218404,1252843,65631,7272,626416,0
43,-1,638963,219239,1171385,65957,6475,585744,2
43,-1,644168,219469,1254599,65988,8206,627237,0
43,-1,639429,219434,1235579,65859,7308,617758,0
43,-1,637674,218485,1223706,65590,6793,612058,0
44,-1,693460,236993,1318317,70661,7990,659159,0
44,0,715925,250109,1377088,74690,9229,688521,11
44,-1,632714,217665,1131364,65373,6610,565704,0
44,-1,642233,218298,1235299,65472,7659,617694,0
44,-1,639626,218382,1429828,65797,9443,715069,0
44,-1,643067,219873,1320142,66449,8571,659981,0
44,-1,635302,218680,1239977,65809,7226,620061,0
44,-1,637006,219059,1250664,65827,6993,625289,0
44,-1,641142,220130,1251650,66433,7087,625882,0
44,-1,654954,223406,1215186,69077,7217,607689,0
44,-1,638631,218898,1157078,65867,6599,578595,2
44,-1,644158,220308,1366479,66238,8356,682844,0
44,-1,641904,219231,1205260,65842,7458,602683,0
44,-1,640337,219598,1248265,66232,7468,624251,0
45,-1,692928,236897,1271891,70586,8193,635916,0
45,0,709028,246664,1223378,73233,8356,611697,11
45,-1,631624,217752,1210402,65449,6284,605178,0
45,-1,641072,218220,1169740,65489,7259,584921,0
45,-1,642924,219870,1344676,66443,8816,672329,0
45,-1,637300,218021,1224387,65621,7370,612194,0
45,-1,636541,219787,1176835,66147,7186,588431,0
45,-1,640635,218817,1175159,65840,7267,587567,0
45,-1,634293,217471,1228012,65426,7125,614060,0
45,-1,641733,218758,1239891,65708,7185,620048,0
45,-1,643764,219702,1317333,66021,7933,658735,2
45,-1,640170,219072,1460730,65770,8077,730061,0
45,-1,640595,219080,1152086,65765,6897,576110,0
45,-1,656822,222417,1191921,68780,7876,596068,0
46,-1,714425,241565,1357245,74009,9427,678665,0
46,0,701462,247506,1243893,73611,8018,621840,11
46,-1,633735,218419,1153665,65599,6960,576814,0
46,-1,641070,218634,1140635,65665,7798,570369,0
46,-1,640771,219118,1264199,66015,7586,632104,0
46,-1,636119,218415,1162897,65765,6955,581448,0
46,-1,633491,218355,1145756,65701,7285,572809,0
46,-1,641500,219684,1248851,66303,7471,624467,0
46,-1,633677,217684,1280827,65352,6997,640289,0
46,-1,644567,219306,1189093,65879,7343,594586,0
46,-1,644576,219873,1388108,66135,7803,694127,0
46,-1,641640,219424,1295203,65991,7951,647599,2
46,-1,641303,219560,1163771,65953,6936,581933,0
46,-1,635572,218367,1216625,65592,6860,608399,0
47,-1,690886,236489,1200563,70509,7741,600276,0
47,0,701617,246957,1383659,73391,9462,691823,11
47,-1,655593,221833,1235380,68572,7386,617606,0
47,-1,639948,218273,1134717,65477,7188,567402,0
47,-1,636074,217560,1128080,65495,6823,563974,0
47,-1,641233,220277,1311816,66673,7427,655961,0
47,-1,636498,220328,1267025,66585,7937,633552,0
47,-1,634767,218146,1229382,65507,6233,614525,0
47,-1,643162,221134,1260302,66928,7059,630269,0
47,-1,641985,219110,1151485,65868,7138,575785,0
47,-1,641777,219438,1262968,65879,7798,631260,0
47,-1,641681,219153,1251331,65930,8408,625620,2
47,-1,645276,221304,1226419,66782,6989,613278,0
47,-1,637643,219584,1223645,66235,7156,611896,0
48,-1,688355,236023,1210603,70290,7291,605300,0
48,0,701299,247436,1210084,73609,8280,605081,11
48,-1,634990,217768,1119438,65482,6304,559762,0
48,-1,636878,218075,1209294,65548,7639,604637,0
48,-1,645995,221401,1216033,67072,7968,607994,0
48,-1,638445,219570,1259074,66353,7321,629523,0
48,-1,639383,218124,1216250,65508,8238,608060,0
48,-1,658892,223200,1286276,69062,8729,642601,0
48,-1,637226,218054,1267974,65532,7210,633993,0
48,-1,639477,218093,1228582,65526,7708,614336,0
48,-1,641115,219638,1289959,66050,8103,644854,0
48,-1,642886,220286,1225431,66103,8191,612768,2
48,-1,661680,224504,1213993,69333,7672,607118,0
48,-1,636288,218218,1143628,65616,7196,571865,0
49,-1,690834,236292,1302080,70463,7982,651047,0
49,0,710596,250021,1514833,74685,9658,757507,11
49,-1,634410,217754,1221570,65399,7218,610832,0
49,-1,644158,219896,1362563,66288,8312,680923,0
49,-1,636408,218316,1338513,65739,8172,669254,0
49,-1,634194,218255,1202647,65751,7119,601357,0
49,-1,637701,218478,1212759,65659,7307,606386,0
49,-1,637859,219455,1211552,66030,8350,605824,0
49,-1,635291,218291,1142701,65597,6647,571424,0
49,-1,641616,218728,1190575,65764,7282,595337,0
49,-1,640309,219853,1246692,66043,7808,623190,0
49,-1,640503,219886,1171718,65988,7996,585912,2
49,-1,640528,220043,1233683,66069,7189,616982,0
49,-1,637494,218883,1231992,65771,7193,616031,0
50,-1,689079,236730,1281394,70577,7048,640578,0
50,0,701874,246893,1266276,73374,7859,633130,11
50,-1,637551,219296,1249243,66120,7087,624626,0
50,-1,636567,217281,1240173,65229,7755,620354,0
50,-1,640750,218757,1362120,65858,8646,681052,0
50,-1,631972,217489,1229743,65386,7352,614934,0
50,-1,640879,218917,1234815,65879,7434,617407,0
50,-1,638457,219306,1424641,65922,8258,711933,0
50,-1,636113,219314,1158456,65985,7382,579278,0
50,-1,644337,220281,1269587,66591,7068,634875,0
50,-1,643879,219494,1335678,65974,9336,667806,0
50,-1,638554,219876,1160064,65965,6954,580129,2
50,-1,640497,219165,1290383,65779,7214,645216,0
50,-1,638010,219904,1258089,66420,7557,629177,0
51,-1,685433,235696,1290937,70219,7593,645531,0
51,0,704942,247963,1385494,73761,8663,692775,11
51,-1,635117,218375,1361305,65674,7726,680681,0
51,-1,638431,218183,1361311,65445,8224,680701,0
51,-1,638895,217800,1206005,65532,7529,603043,0
51,-1,635547,218993,1169489,65947,7264,584736,0
51,-1,637355,218599,1213686,65751,7154,606836,0
51,-1,642405,220768,1450792,66729,8291,724035,0
51,-1,639112,218287,1259179,65654,7175,629652,0
51,-1,643048,219717,1241017,66117,7327,620554,0
51,-1,645690,220242,1326957,66399,8611,663104,0
51,-1,643727,220632,1294645,66477,6968,647397,0
51,-1,641278,220170,1151106,66153,6928,575615,2
51,-1,637680,218688,1313080,65748,6738,656604,0
52,-1,699046,239038,1306052,71533,7781,653026,0
52,0,703458,247525,1281761,73572,7756,640861,11
52,-1,638052,219870,1228668,66404,6802,614320,0
52,-1,639064,218452,1157724,65610,7194,578798,0
52,-1,639205,218179,1186786,65702,7470,593382,0
52,-1,636678,218194,1360784,65665,7467,680353,0
52,-1,635391,217947,1216880,65506,6632,608502,0
52,-1,657850,223501,1301802,69154,9020,650834,0
52,-1,640920,219284,1263755,65914,7000,631903,0
52,-1,646182,220112,1212688,66387,7668,606406,0
52,-1,642901,219437,1287579,65855,8616,643847,0
52,-1,640059,219406,1261049,65866,7451,630572,0
52,-1,638717,219173,1200871,65820,8130,600322,2
52,-1,643437,218852,1226258,65812,7751,613197,0
53,-1,690745,236253,1304161,70436,7691,652156,0
53,0,703163,246461,1342825,73151,7762,671415,11
53,-1,655040,222962,1237498,68922,7482,618782,0
53,-1,641601,219988,1255612,66272,7502,627769,0
53,-1,640280,219009,1231156,65972,7085,615659,0
53,-1,635381,218178,1288732,65679,8137,644266,0
53,-1,640405,219596,1169844,66071,7602,584882,0
53,-1,637282,219621,1281027,66277,8244,640309,0
53,-1,636828,218308,1222888,65596,6925,611508,0
53,-1,640419,218926,1261211,65694,7464,630642,0
53,-1,641274,218828,1322823,65635,8490,661321,0
53,-1,637280,218920,1279292,65691,7490,639716,0
53,-1,663879,227966,1282640,68407,7758,641365,2
53,-1,640112,218150,1229800,65485,7241,614974,0
54,-1,695123,238581,1432674,71456,8438,716165,0
54,0,702274,247349,1346227,73570,7971,673083,11
54,-1,631410,217844,1153922,65454,6616,576979,0
54,-1,640477,218333,1226134,65609,6884,613031,0
54,-1,636884,217777,1157665,65530,7106,578865,0
54,-1,636120,218894,1324659,65964,7563,662085,0
54,-1,643183,220015,1251777,66390,7444,625943,0
54,-1,635893,219490,1300254,66053,7899,649819,0
54,-1,639445,219686,1335601,66237,6998,667870,0
54,-1,639408,218542,1161679,65606,7019,580865,0
54,-1,641426,219307,1254762,65784,8425,626990,0
54,-1,646480,221890,1288966,66934,7665,644530,0
54,-1,638834,218826,1281130,65742,7239,640609,2
54,-1,645322,220153,1226865,66494,7699,613501,0
55,-1,690347,236698,1315768,70596,7605,658104,0
55,0,706847,248003,1337594,73734,8773,668806,11
55,-1,632557,218097,1224519,65570,6863,612294,0
55,-1,640837,218858,1147528,65755,6715,573698,0
55,-1,644125,220070,1286343,66523,7633,643261,0
55,-1,633691,217926,1215789,65587,7680,607609,0
55,-1,638191,218407,1139894,65635,7131,569958,0
55,-1,636936,218027,1229088,65463,8139,614555,0
55,-1,636392,218904,1169488,65852,6387,584787,0
55,-1,642796,220346,1254472,66465,7036,627322,0
55,-1,640001,218767,1371711,65672,8022,685869,0
55,-1,638937,219338,1153294,65759,7736,576679,0
55,-1,664388,224180,1182627,69340,8184,591265,0
55,-1,637899,219204,1253282,65930,6620,626744,2
56,-1,688145,236156,1330148,70341,7486,665114,0
56,0,707397,248935,1386573,74352,8962,693301,11
56,-1,631346,217512,1198718,65384,6913,599436,0
56,-1,645615,220573,1295921,66644,7287,647923,0
56,-1,660213,222972,1263222,69049,8233,631853,0
56,-1,636925,219633,1264222,66414,7766,631709,0
56,-1,659157,222842,1309299,68919,8052,654677,0
56,-1,640397,218859,1277511,65787,7790,638701,0
56,-1,637255,218921,1182701,65884,7161,591402,0
56,-1,658221,222414,1183815,68622,7859,591943,0
56,-1,644452,220621,1368449,66601,8587,683017,0
56,-1,641964,219450,1243065,65787,7460,621588,0
56,-1,638036,217977,1192135,65426,6642,596072,0
57,-1,689424,236447,1224929,70435,7136,612519,0
57,0,702885,247165,1463037,73508,8653,732324,11
57,-1,638879,217707,1148077,65383,6647,574014,0
57,-1,639024,218608,1222210,65740,6584,611127,0
57,-1,665312,227426,1284223,68357,7794,642155,0
57,-1,633980,218310,1503950,65762,8317,751335,0
57,-1,636436,218661,1235412,65662,7267,617750,0
57,-1,638427,218301,1355826,65597,8779,677803,0
57,-1,637594,218157,1113434,65632,6435,556753,0
57,-1,642058,219657,1316878,65971,7171,658474,0
57,-1,639981,219193,1128180,65862,6975,564221,0
57,-1,639418,218994,1212260,65699,7213,606167,0
57,-1,644059,219718,1239469,66279,8057,619823,0
58,-1,691056,236036,1226384,70346,7254,613152,0
58,0,705442,247694,1382983,73619,8814,691466,11
58,-1,639275,217704,1119558,65419,7361,559773,0
58,-1,641795,219364,1181701,66007,7075,590840,0
58,-1,637581,218486,1158901,65809,6908,579488,0
58,-1,637096,218799,1262598,65879,7462,631047,0
58,-1,637301,218804,1176133,65836,6798,588050,0
58,-1,640863,219125,1201479,65933,7781,600674,0
58,-1,642343,220691,1196190,66688,7388,598148,0
58,-1,639156,218607,1262127,65590,7369,631127,0
58,-1,640868,218461,1295118,65639,8937,647491,0
58,-1,640218,219037,1136444,65585,6626,568272,0
58,-1,643395,219315,1174278,65939,7454,587194,0
59,-1,689219,236220,1244536,70459,8376,621870,0
59,0,701149,246644,1435016,73247,9187,717442,11
59,-1,660615,222638,1353959,68831,8715,677024,0
59,-1,639706,218679,1171311,65861,6627,585684,0
59,-1,640838,220183,1255603,66542,7142,627861,0
59,-1,637514,219814,1323024,66534,9277,661234,0
59,-1,636210,218963,1147159,65886,7280,573558,0
59,-1,657658,223243,1200906,69048,8010,600457,0
59,-1,656217,222845,1164771,68879,7259,582482,0
59,-1,641968,220082,1267089,66300,7323,633660,0
59,-1,658664,223072,1288849,68920,8864,644295,0
59,-1,643899,221105,1251061,66559,7531,625651,0
59,-1,641260,218518,1253832,65637,7796,626953,0
60,-1,696990,239311,1363761,71701,9233,681647,0
60,0,708563,249144,1645516,74480,9857,822123,11
60,-1,639068,217757,1255035,65444,7637,627532,0
60,-1,638968,218424,1199675,65667,6865,599813,0
60,-1,638647,218149,1281779,65611,7112,640994,0
60,-1,631348,218270,1328761,65742,8046,663863,0
60,-1,640490,219165,1230745,65931,7021,615376,0
60,-1,637790,218495,1200913,65717,6662,600494,0
60,-1,634874,218316,1233483,65614,6737,616717,0
60,-1,636603,218359,1118535,65545,7023,559310,0
60,-1,637513,218440,1244128,65509,8507,621832,0
60,-1,644506,220950,1288915,66517,7453,644533,0
60,-1,638462,217823,1232803,65372,7607,616460,0
61,-1,686442,235994,1278104,70381,8155,639006,0
61,0,702869,247005,1330950,73450,9046,665277,11
61,-1,643558,220038,1220124,66379,7234,609892,0
61,-1,641265,219759,1155123,66096,6544,577469,0
61,-1,637198,217979,1158983,65599,6826,579574,0
61,-1,637563,218728,1263976,65899,8274,632181,0
61,-1,644823,221309,1269205,66962,7160,634485,0
61,-1,636371,218252,1174923,65618,7121,587417,0
61,-1,635530,218556,1159072,65741,6804,579583,0
61,-1,638839,217966,1133402,65493,7403,566738,0
61,-1,641152,220046,1246592,66297,8555,623164,0
61,-1,663969,225131,1200402,69443,7821,600166,0
61,-1,661991,223778,1196897,69128,8238,598477,0
62,-1,688448,236410,1349819,70508,8447,674897,0
62,0,703760,247354,1264235,73597,8217,632258,11
62,-1,638099,217804,1244929,65534,7773,622567,0
62,-1,661550,223176,1217887,69130,8074,609028,0
62,-1,644515,221200,1259431,66942,7186,629802,0
62,-1,657957,223719,1237558,69300,9785,618824,0
62,-1,659868,223469,1197631,69157,7406,598813,0
62,-1,640110,219773,1167388,66085,6812,583680,0
62,-1,636726,219305,1237774,65932,7057,618944,0
62,-1,660243,222763,1206779,68893,8063,603492,0
62,-1,664322,223487,1217824,69011,8428,608835,0
62,-1,638948,219294,1129898,65692,6727,564993,0
62,-1,641263,218754,1225211,65711,7233,612642,0
63,-1,691889,237858,1380914,71137,8501,690433,0
63,0,708162,247561,1382837,73622,9070,691417,11
63,0,702516,248029,1398936,73766,8980,699296,11
63,0,706018,247654,1359189,73652,8519,679599,11
63,0,703063,246903,1333846,73489,8560,666891,11
63,0,708674,248713,1461692,74208,10373,730750,11
63,0,704402,246734,1355898,73338,9253,677831,11
63,0,723327,251526,1379764,76762,9223,689882,11
63,0,704762,247059,1352511,73321,8751,676217,11
63,0,707589,247680,1366844,73564,9258,683232,11
63,0,705571,246947,1325623,73315,9976,662947,11
63,0,714569,250341,1440534,74839,10129,719977,11
63,0,704360,246498,1519367,73235,9356,759263,11
63,0,704752,246803,1402815,73367,8896,701492,11
63,0,706424,247455,1352981,73626,9127,676062,11
63,0,705812,246931,1415710,73376,9427,707382,11
63,0,716230,250421,1425002,74829,10162,712063,11
63,0,705572,246925,1429129,73348,9276,714348,11
63,0,709281,247958,1443685,73766,9718,721797,11
63,0,710497,247501,1575195,73654,9723,787569,11
63,0,701401,246578,1524025,73250,9247,761902,11
63,0,702284,247311,1366184,73568,9562,683065,11
63,0,722973,251509,1427783,76705,10178,713507,11
63,0,709482,249721,1514147,74571,10354,757030,11
63,0,701989,246803,1357221,73356,8938,678592,11
63,0,708316,248881,1474634,74232,10291,737332,11
63,0,706374,247761,1333047,73672,9060,665702,11
63,0,704372,247197,1332248,73448,9303,666002,11
63,0,708016,249446,1391284,74535,9691,695575,11
63,0,705172,247297,1415777,73528,9636,708447,11
63,0,705854,247511,1364757,73598,9527,682448,11
63,0,705618,247247,1410382,73536,9383,705227,11
63,0,711717,249276,1523262,74475,9607,761258,11
63,0,707820,248141,1431199,74027,10061,715177,11
63,0,706135,247011,1299453,73550,8459,649678,11
63,0,725053,251493,1337172,76793,9393,668613,11
63,0,704890,246483,1429814,73332,8831,715046,11
63,0,707652,247374,1301307,73559,9239,650671,11
63,0,708727,247860,1311790,73805,8390,655903,11
63,0,727125,251660,1386100,76846,9143,692970,11
63,0,711179,248005,1293518,73813,8536,646690,11
63,0,705214,246394,1298342,73198,8945,649225,11
63,0,709076,247588,1383623,73633,8678,691615,11
63,0,712787,249096,1513781,74286,9588,756871,11
63,0,712290,248567,1296915,73860,8874,648472,11
63,0,707274,247672,1247969,73625,8732,623926,11
63,0,725236,251791,1287669,76812,9229,643803,11
63,0,708295,248147,1286299,73833,8068,643129,11
63,0,708186,248279,1355965,73887,8174,678023,11
63,0,709062,248254,1370274,73862,8070,685021,11
63,0,715765,249819,1389652,74661,9327,694800,11
63,0,707426,247618,1380368,73753,8222,690198,11
63,0,729477,252079,1556478,76882,9149,778314,11
63,-1,640809,218002,1314396,65535,8001,656599,0
63,0,708022,247639,1396273,73524,8957,698165,11
63,0,714528,250184,1510146,74706,10043,755001,11
63,0,709775,247900,1363779,73705,8625,681617,11
63,0,709961,247557,1382886,73601,9869,691404,11
63,0,708375,247018,1244985,73382,8525,622541,11
63,0,713502,248517,1328015,73858,8799,664040,11
63,0,712691,247825,1327738,73610,8809,663919,11
63,0,730902,252558,1379743,76912,9375,689909,11
63,0,711109,250684,1411954,74771,9356,706043,11
63,0,703901,247261,1373886,73421,9264,686967,11
63,0,704477,247787,1236347,73651,8552,618135,11
63,0,706021,247365,1242982,73431,8176,621252,11
63,0,716972,251336,1533533,74952,9856,766824,11
63,0,709692,248194,1398480,73628,8956,699284,11
63,0,708751,248591,1441303,73797,9152,720697,11
63,0,711404,249453,1558139,74226,9745,779139,11
63,0,710123,248789,1484723,73872,9179,742426,11
63,0,713434,248840,1432284,73867,9629,716173,11
63,0,709198,248549,1513758,73735,9299,756919,11
63,0,707999,247802,1341125,73513,9514,670573,11
63,0,707801,247701,1403058,73585,9743,701589,11
63,0,710340,248695,1524438,74047,10320,762289,11
63,0,708165,247927,1410834,73571,9222,705428,11
63,0,707414,247339,1488120,73491,10080,744109,11
63,0,709208,247705,1466111,73566,9089,733140,11
63,0,712167,249076,1452419,74252,9233,726167,11
63,0,706811,247713,1473745,73568,9001,736943,11
63,0,711044,249349,1507007,74308,9059,753569,11
63,0,710210,248659,1406884,73883,8880,703469,11
63,0,729191,252487,1437097,76956,10115,718600,11
63,0,709159,247982,1468986,73714,9016,734503,11
63,0,708164,247603,1508530,73547,9962,754488,11
63,0,706957,247902,1572150,73713,9823,785500,11
63,0,712048,249194,1445161,74077,11378,722113,11
63,0,731071,252188,1548590,76884,11976,774225,11
63,0,709040,247456,1373191,73496,8793,686695,11
63,0,710358,248641,1399558,73911,9188,699787,11
63,0,712841,249781,1627403,74646,10894,814259,11
63,0,709090,248184,1592530,73812,10474,796299,11
63,0,708955,247880,1571915,73755,11051,785942,11
63,0,711889,248023,1499298,73824,9143,749736,11
63,0,710515,248230,1402766,73884,8624,701430,11
63,0,708510,247149,1453180,73487,8792,726676,11
63,0,710797,248257,1412856,73940,9104,706477,11
63,0,709960,247473,1460710,73662,8975,730490,11
63,0,731392,252067,1324214,77053,10395,662140,11
63,0,716522,249606,1425835,74609,9998,712983,11
63,0,705638,248169,1528756,73954,9263,764402,11
63,0,705839,247781,1426555,73773,9206,713317,11
63,0,711626,249852,1512078,74644,9143,756139,11
63,0,706196,247127,1489864,73543,9207,745019,11
63,0,707444,247780,1459149,73800,9033,729653,11
63,0,709056,248020,1555343,73869,9509,777711,11
63,0,709412,247883,1403504,73832,9135,701745,11
63,0,714057,249130,1582660,74412,10562,791390,11
63,0,727108,251823,1589849,76907,11246,794031,11
63,0,707864,246897,1365377,73432,9183,682635,11
63,0,730625,251811,1570531,76846,11479,784871,11
63,0,714433,249276,1517570,74482,9628,758788,11
63,0,712945,247964,1425932,73852,8721,712919,11
63,0,708205,247446,1500598,73720,9819,750248,11
63,0,712678,249444,1550637,74614,10321,775334,11
63,0,710659,248285,1470078,73915,9554,735042,11
63,0,710379,248956,1421176,74204,9589,710589,11
63,0,706630,247029,1492275,73526,9877,746352,11
63,0,715057,249687,1492647,74672,10372,746316,11
63,0,709334,247554,1413107,73682,9898,706410,11
63,0,716092,249598,1475876,74590,10218,737886,11
63,0,711585,247627,1503803,73696,9577,751830,11
63,0,728711,252161,1428871,77045,10310,714412,11
63,0,708474,247564,1465502,73750,9681,732791,11
63,0,711151,247622,1491047,73758,9947,745479,11
63,0,710275,248044,1575107,74024,10375,787520,11
63,0,710870,247712,1523193,73719,10468,761549,11
63,0,717017,249711,1517774,74719,10313,758834,11
63,0,711216,247621,1419033,73776,9540,709517,11
63,0,712931,248203,1455047,73934,9536,727469,11
63,0,732763,252239,1474866,77032,10358,737436,11
63,0,718720,249997,1519229,74775,9758,759571,11
63,0,713936,248018,1427150,73860,9017,713326,11
63,0,713501,247767,1499349,73833,9238,749693,11
63,0,713811,247551,1473807,73694,9080,736860,11
63,0,703840,249082,1478868,74409,8869,739429,11
63,0,701232,247969,1363239,73884,8641,681678,11
63,0,700506,247316,1468694,73685,9008,734337,11
63,0,706780,249275,1398099,74579,9962,698922,11
63,0,702875,247924,1459448,73854,9754,729801,11
63,0,699366,246769,1488449,73390,9493,744301,11
63,0,703956,248419,1484665,74021,9807,742370,11
63,0,727378,255803,1497891,76115,9442,748583,11
63,0,706096,248247,1490652,73893,9300,745414,11
63,0,705314,248482,1579135,74051,10127,789366,11
63,0,704188,247842,1482413,73832,9559,741227,11
63,0,708633,248812,1480741,74136,9410,740372,11
63,0,709865,249540,1592358,74571,11744,796295,11
63,0,707454,247719,1575752,73748,11039,787853,11
63,0,709356,249212,1604567,74464,11370,802303,11
63,0,704395,248197,1529372,73938,10286,764621,11
63,0,701708,246980,1582224,73441,10754,791123,11
63,0,704811,247708,1448269,73785,10108,724119,11
63,0,701133,246317,1436354,73362,9077,718253,11
63,0,723961,251976,1660503,76967,11560,830316,11
63,0,706562,247948,1502427,73878,10496,750594,11
63,0,706846,248761,1518389,74317,10033,758926,11
63,0,705685,247935,1462903,73790,9798,731129,11
63,0,713007,249765,1525623,74787,10957,762607,11
63,0,704641,248189,1454753,73945,9164,727324,11
63,0,708334,248798,1392717,74140,8946,696371,11
63,0,704611,247298,1475935,73589,9479,737977,11
63,0,705268,247989,1478921,73887,8676,739464,11
63,0,708119,248123,1527298,73916,8989,763565,11
63,0,708649,247693,1486082,73733,9008,743038,11
63,0,708462,249003,1520404,74397,9979,760275,11
63,0,707727,248265,1399239,73919,8950,699632,11
63,0,705313,247351,1476710,73631,9168,738345,11
63,0,728963,252375,1462130,77085,9944,731028,11
63,0,711196,249545,1508977,74669,9342,754458,11
63,0,708198,248080,1408649,73901,8778,704317,11
63,0,705492,247107,1454112,73594,9131,727057,11
63,0,703013,247920,1500843,73855,10118,750471,11
63,0,704194,247673,1498923,73750,9092,749465,11
63,0,735372,257785,1529933,76987,9471,764898,11
63,0,702786,247404,1385542,73700,9060,692769,11
63,0,706201,248085,1481775,73861,8748,740931,11
63,0,707116,248339,1490830,73946,8794,745404,11
63,-1,640199,219686,1234425,66340,6854,617307,0
63,0,704643,247660,1398304,73761,8639,699119,11
63,0,707390,248680,1375179,74007,9517,687551,11
63,0,710415,249853,1463252,74610,9704,731517,11
63,0,706019,246940,1395932,73351,9117,697928,11
63,0,710154,248712,1473653,74014,9003,736834,11
63,0,712841,249784,1581810,74573,9047,790832,11
63,0,712297,248925,1481210,74056,9048,740625,11
63,0,709347,248138,1413911,73849,9492,706956,11
63,0,711321,247883,1377024,73767,9806,688512,11
63,0,726042,253013,1371094,77220,9420,685535,11
63,0,703214,248001,1416676,73713,9137,708320,11
63,0,703566,248063,1558522,73833,9511,779180,11
63,0,709325,249849,1530475,74563,9256,765268,11
63,0,706299,248667,1497596,73959,9379,748734,11
63,0,706390,247939,1536142,73706,9018,768073,11
63,0,704269,248099,1492802,73809,8688,746220,11
63,0,709292,249190,1516855,74388,9144,758407,11
63,0,704535,247847,1401950,73678,9103,700977,11
63,0,707002,248093,1348408,73796,9027,674174,11
63,0,709967,249055,1501568,74317,9458,750847,11
63,0,707734,248012,1477565,73745,9223,738784,11
63,0,730462,252465,1486281,76994,10732,743079,11
63,0,728661,252706,1470999,77125,10035,735584,11
63,0,710090,249488,1600971,74436,11103,800072,11
63,0,709378,248845,1493753,73994,9607,746871,11
63,0,712426,250312,1503091,74848,9921,751315,11
63,0,704653,248131,1451313,73857,9321,725583,11
63,0,706452,248272,1497845,73811,9317,748671,11
63,0,706895,247837,1410801,73748,9596,705401,11
63,0,712675,249702,1554289,74525,9568,777108,11
63,0,710210,248277,1551116,73847,9571,775536,11
63,0,712763,248910,1499048,74086,10620,749608,11
63,0,709110,248200,1491821,73843,9939,745322,11
63,0,708983,247784,1748120,73707,11227,873360,11
63,0,732150,252631,1526088,77110,11955,762773,11
63,0,707345,248536,1499300,73989,10187,749422,11
63,0,707473,247894,1537997,73715,10635,768981,11
63,0,708646,248134,1596350,73766,11483,797983,11
63,0,706032,247767,1428691,73662,10397,714381,11
63,0,707047,248070,1490378,73833,10232,744803,11
63,0,713233,250067,1604905,74770,11134,802430,11
63,0,706608,247833,1561777,73726,8959,780963,11
63,0,735638,257813,1447483,76720,9399,723646,11
63,0,705902,248296,1474945,73848,8394,737432,11
63,0,711255,249912,1530415,74687,9799,765286,11
63,0,706936,247903,1408743,73700,8716,704363,11
63,0,707352,248021,1471363,73820,8557,735779,11
63,0,705573,247533,1497791,73607,9113,748704,11
63,0,709419,248318,1413698,73937,8874,706834,11
63,0,712135,249107,1491852,74358,8819,745989,11
63,0,707758,247618,1496131,73668,8813,748075,11
63,0,715579,250190,1460306,74781,9281,730183,11
63,0,705211,248064,1431294,73787,9705,715645,11
63,0,709623,248947,1390586,74293,9896,695210,11
63,0,729378,252622,1350186,77117,9477,675088,11
63,0,715856,250646,1470153,74979,8737,734857,11
63,0,711662,248329,1370054,73841,8452,685049,11
63,0,707021,247239,1392255,73454,8950,695988,11
63,0,711643,248824,1374038,74267,8728,687015,11
63,0,708393,247902,1383234,73762,8791,691562,11
63,0,728313,252533,1334078,77095,8985,667043,11
63,0,708407,247705,1412820,73661,8018,706385,11
63,0,709735,247986,1275296,73797,8081,637635,11
63,0,710926,249089,1382880,74356,8982,691441,11
63,0,708525,247815,1279910,73710,8078,639997,11
63,0,711016,248096,1398480,73815,9316,699208,11
63,0,712981,247684,1455947,73615,9799,728019,11
63,0,705827,249295,1499104,74390,9152,749625,11
63,0,705651,248799,1537568,74003,9581,768773,11
63,0,726333,252733,1460611,77113,9528,730277,11
63,0,704208,247608,1486167,73603,9121,743130,11
63,0,706534,248475,1384192,73943,8795,692191,11
63,0,727665,252797,1451019,77128,9934,725589,11
63,0,707289,249506,1575038,74537,9527,787516,11
63,0,703784,247891,1423530,73655,8236,711804,11
63,0,710954,249470,1506047,74452,9368,753099,11
63,0,705054,248428,1406547,73931,8479,703329,11
63,0,706701,248386,1403178,73850,8783,701724,11
63,0,706452,247992,1413959,73771,8830,706787,11
63,0,729270,253111,1463021,77250,9858,731522,11
63,0,711326,249608,1487707,74562,8928,743936,11
63,0,706393,247632,1417005,73659,8632,708636,11
63,0,704480,247823,1442031,73636,8992,721072,11
63,0,710612,249829,1490946,74653,9078,745555,11
63,-1,659026,223172,1206723,69119,7731,603315,0
63,0,707882,248224,1474097,73835,8877,737086,11
63,0,726534,252459,1470472,77040,9517,735309,11
63,0,708118,247999,1478562,73729,9772,739317,11
63,0,708082,248400,1394042,73901,8836,697075,11
63,0,707028,247890,1387079,73747,8485,693597,11
63,0,729810,252435,1425347,77026,9387,712779,11
63,0,703817,247657,1314009,73630,8410,657038,11
63,0,710544,249273,1514116,74396,8881,757131,11
63,0,711406,249433,1572779,74489,9447,786429,11
63,0,707706,247465,1427164,73528,8808,713516,11
63,0,712380,249153,1426453,74129,8901,713272,11
63,0,709598,248285,1494069,73844,8701,746861,11
63,0,712746,250048,1491714,74700,9186,745866,11
63,0,709156,247996,1400820,73704,8586,700430,11
63,0,708850,247631,1518233,73585,9238,759146,11
63,0,708853,247528,1371732,73572,8938,685960,11
63,0,705533,247714,1395631,73652,8840,697905,11
63,0,706201,247993,1412745,73693,8837,706416,11
63,0,705586,247923,1458555,73753,8964,729351,11
63,0,710538,249379,1352891,74226,9202,676501,11
63,0,711441,249407,1514039,74434,9742,757076,11
63,0,707373,248184,1461127,73837,8850,730554,11
63,0,705824,248004,1495285,73748,8922,747704,11
63,0,708346,248789,1492444,74211,9613,746292,11
63,0,727979,252498,1478387,77033,9101,739228,11
63,0,713294,250383,1495876,74841,8483,748013,11
63,0,708383,248015,1412021,73797,8806,706025,11
63,0,708045,247573,1488710,73534,9422,744388,11
63,0,706933,247868,1407447,73732,8408,703823,11
63,0,708515,247828,1418327,73698,8849,709212,11
63,0,708985,248610,1480262,74004,8973,740190,11
63,0,729018,252154,1434655,76935,9912,717386,11
63,0,707743,247502,1315644,73579,8987,657852,11
63,0,725644,252122,1394305,76933,9111,697190,11
63,0,711148,249773,1499058,74640,8728,749624,11
63,0,707025,248502,1435955,73956,7990,718028,11
63,0,709950,248596,1428519,73988,8664,714314,11
63,0,712131,249224,1552266,74399,8878,776164,11
63,0,709523,247901,1407939,73711,8810,703863,11
63,0,711042,248777,1477509,74038,9161,738858,11
63,0,714416,250017,1490543,74705,10263,745254,11
63,0,708903,248526,1501314,73776,9095,750725,11
63,0,709658,247892,1415462,73641,8786,707863,11
63,0,730989,252593,1483157,77057,9321,741621,11
63,0,711679,248565,1420522,73857,9140,710313,11
63,0,714994,249380,1500301,74378,9860,750222,11
63,0,711872,248076,1418499,73774,9401,709363,11
63,0,710077,250282,1580548,74810,9288,790238,11
63,0,705950,247982,1518489,73715,9219,759223,11
63,0,706921,248781,1487044,74166,8998,743643,11
63,0,706272,248085,1393133,73767,8185,696648,11
63,0,704782,247539,1540971,73575,8542,770536,11
63,0,709335,249271,1472467,74369,8509,736287,11
63,0,729134,252880,1454053,77102,9703,727136,11
63,0,710753,248794,1419506,74016,8919,709872,11
63,0,708542,249199,1475838,74361,8404,737944,11
63,0,705970,247760,1422816,73739,8805,711465,11
63,0,730068,253128,1459832,77237,9890,730048,11
63,0,711413,249469,1487045,74535,9178,743574,11
63,0,707984,248124,1455146,73822,8541,727612,11
63,0,705922,247622,1520129,73564,8737,760130,11
63,0,729864,252813,1441716,77124,9380,720891,11
63,0,712743,249381,1501480,74431,9163,750765,11
63,0,709356,247762,1461799,73717,8896,730941,11
63,0,709228,247750,1405697,73667,8611,702952,11
63,0,710027,250234,1517393,74791,9304,758790,11
63,0,704615,247517,1473024,73536,8995,736595,11
63,0,707170,248179,1378327,73836,8378,688989,11
63,0,706554,248088,1479304,73762,8908,739608,11
63,0,706909,247905,1388501,73754,8726,694289,11
63,0,709517,248783,1489880,73916,9319,744984,11
63,0,730663,253042,1455030,77082,9998,727454,11
63,0,708371,247690,1523348,73542,8955,761700,11
63,0,707927,248219,1361730,73767,9180,680913,11
63,0,713421,249742,1477892,74601,9107,739010,11
63,0,709429,247510,1479941,73596,8677,740008,11
63,0,710249,248136,1533927,73734,9232,767013,11
63,0,713414,249540,1545466,74377,8878,772788,11
63,0,711924,248581,1425810,73844,8254,713029,11
63,0,712140,249247,1494952,74284,9696,747444,11
63,0,712141,248349,1413436,73763,9346,706763,11
63,0,710992,247566,1400672,73472,8668,700523,11
63,0,717545,249834,1495578,74527,9935,747826,11
63,0,706144,248079,1485814,73674,10904,743300,11
63,0,709102,248854,1722631,73889,10796,861453,11
63,0,713976,250217,1559233,74832,10885,778940,11
63,0,711360,248829,1445474,74032,10049,722852,11
63,0,706038,247911,1442197,73737,9912,721123,11
63,0,709167,247982,1585674,73754,11365,792780,11
63,0,731935,252908,1578678,77152,11926,789366,11
63,0,744032,260830,1585327,77846,10347,792985,11
63,0,716741,250395,1583171,74702,10893,791058,11
63,0,713311,249045,1575111,74026,10928,787686,11
63,0,736915,254141,1491418,77573,12333,745784,11
63,0,713254,248892,1563850,74019,10565,781363,11
63,0,715303,249399,1588714,74242,9603,792306,11
63,0,715016,249157,1554590,74084,10416,777003,11
63,0,719641,250847,1545100,74915,10462,771939,11
63,0,710740,248612,1736739,73997,10005,868046,11
63,0,712507,248744,1497004,73955,10273,748066,11
63,0,734815,254375,1529575,77659,10686,764667,11
63,0,714978,249179,1559687,74110,10727,779648,11
63,0,715461,249142,1492645,74170,10423,746341,11
63,0,714923,250194,1564165,74694,10381,781719,11
63,0,711900,248602,1463457,73874,9867,731763,11
63,0,734837,254063,1492073,77326,10452,746081,11
63,0,718659,251092,1560153,74830,9996,780150,11
63,0,713416,248972,1382863,73878,9423,691512,11
63,0,714826,249010,1442596,73847,9973,721172,11
63,0,715188,249288,1446235,73919,9867,723052,11
63,0,713490,249105,1548837,73873,10500,774305,11
63,0,714781,249292,1521565,73986,10160,760772,11
63,0,716020,249126,1621768,73895,10429,810891,11
63,0,713448,248847,1506676,73822,9728,752984,11
63,0,716427,249048,1504880,73933,10325,752198,11
63,0,713236,248323,1337941,73641,9251,668502,11
63,0,717436,249865,1429813,74169,10286,714918,11
63,0,716100,248610,1527548,73647,10524,763668,11
63,0,717404,249112,1469980,73935,9649,735174,11
63,0,707273,249188,1651171,73967,9932,825270,11
63,0,708324,249054,1473768,73863,10444,737172,11
63,0,707408,249031,1518562,73881,9911,759314,11
63,0,731577,254393,1434911,77409,11441,717554,11
63,0,710658,249882,1306195,74139,9352,653145,11
63,0,729317,253675,1351443,77226,9552,675699,11
63,0,711858,250760,1383863,74746,8909,691968,11
63,0,708793,248894,1426324,73875,8693,713213,11
63,0,712491,249752,1355381,74162,8642,677693,11
63,0,712102,248741,1451281,73781,8608,725692,11
63,0,733021,253812,1366292,77273,9805,683066,11
63,0,711590,248426,1472331,73626,8793,736158,11
63,-1,636401,218604,1216209,65811,8197,608006,0
63,0,708414,249156,1345331,74045,8452,672715,11
63,0,731668,254015,1390320,77371,9485,695218,11
63,0,709181,248167,1290788,73629,8861,645437,11
63,0,708074,248133,1404566,73687,8401,702381,11
63,0,709556,247789,1368614,73553,8776,684382,11
63,0,711734,248746,1406316,73912,8712,703197,11
63,0,710163,248762,1381859,73876,8755,691003,11
63,0,715092,250211,1360099,74604,9036,680113,11
63,0,710963,248454,1409297,73770,9511,704704,11
63,0,711329,249315,1291342,74073,8022,645727,11
63,0,713566,249776,1502169,74240,8752,751338,11
63,0,715479,250460,1402432,74789,9206,701040,11
63,0,711674,248332,1408452,73772,8579,704316,11
63,0,712169,248747,1396769,73921,9289,698438,11
63,0,733020,252896,1355132,76941,10063,677617,11
63,0,714402,248763,1301984,73864,8765,651046,11
63,0,707280,249060,1412591,73983,8661,706365,11
63,0,707383,248518,1306888,73745,8865,653498,11
63,0,708714,248473,1509731,73786,9725,754905,11
63,0,713074,249873,1477960,74435,10161,739031,11
63,0,710370,248811,1474957,73895,9576,736864,11
63,0,711976,249953,1478876,74543,9620,738542,11
63,0,709635,248066,1363629,73727,9176,681446,11
63,0,708853,247899,1398688,73557,9199,699413,11
63,0,707843,248410,1287409,73908,8446,643752,11
63,0,708049,248362,1386420,73777,8238,693251,11
63,0,707389,247868,1316332,73669,8138,658220,11
63,0,715517,250438,1397995,74772,8509,699048,11
63,0,711380,248943,1330932,74006,8771,665498,11
63,0,710070,248768,1415690,74102,8558,707907,11
63,0,708263,247660,1410447,73482,8625,705268,11
63,0,714664,249088,1382409,74226,8929,691283,11
63,0,706680,247989,1369133,73662,9231,684616,11
63,0,733322,253009,1303809,77059,9833,651961,11
63,0,707599,247553,1336626,73478,8725,668366,11
63,0,709776,248180,1291302,73715,8186,645665,11
63,0,714464,249515,1360258,74418,9039,680216,11
63,0,704970,247001,1362277,73332,9077,681165,11
63,0,707592,247846,1369409,73590,8513,684756,11
63,0,712470,248991,1491528,74253,9390,745793,11
63,0,709746,247999,1282390,73648,8593,641241,11
63,0,710036,247816,1264436,73732,9031,632256,11
63,0,709038,247414,1383033,73577,8524,691567,11
63,0,710753,247120,1390917,73435,9330,695532,11
63,0,709141,247715,1292211,73696,8645,646113,11
63,0,712212,247489,1290640,73553,8496,645362,11
63,0,726322,252625,1403415,77084,9243,701713,11
63,0,705118,247649,1434664,73607,8872,717390,11
63,0,706115,248116,1295690,73798,8439,647950,11
63,0,714390,250190,1373907,74750,8760,687033,11
63,0,707201,247619,1287876,73520,8480,643995,11
63,0,706938,247382,1378356,73422,8618,689223,11
63,0,705045,248069,1382240,73713,8694,691145,11
63,0,709431,249186,1434312,74258,8901,717111,11
63,0,705657,247583,1324396,73472,8102,662183,11
63,0,709434,247938,1445758,73640,8579,722975,11
63,0,705441,247439,1295445,73432,7895,647760,11
63,0,729885,252353,1340256,76833,9039,670211,11
63,0,716195,251182,1374238,74984,8440,687231,11
63,0,707990,247593,1400008,73480,9024,700078,11
63,0,715458,250073,1386861,74532,8889,693486,11
63,0,707891,247060,1482307,73336,9069,740814,11
63,0,713837,248915,1410922,73940,8922,705366,11
63,0,711521,250291,1363716,74726,9290,681862,11
63,0,704801,247252,1435852,73363,8902,717994,11
63,0,707402,248045,1356020,73633,8939,678057,11
63,0,710077,248793,1295995,73909,8423,648082,11
63,0,705056,247523,1300178,73518,8998,650134,11
63,0,706721,247694,1283869,73633,8691,641984,11
63,0,705944,247064,1373649,73469,8246,686870,11
63,0,709103,247741,1365104,73653,8730,682607,11
63,0,707355,247121,1286967,73474,8771,643531,11
63,0,708603,248516,1383413,74108,8608,691858,11
63,0,706662,247738,1405573,73656,8543,702837,11
63,0,707895,247320,1394721,73442,8571,697437,11
63,0,712920,248977,1377742,74066,8324,689027,11
63,0,709332,248405,1369748,73903,8944,684909,11
63,0,710487,247778,1484557,73636,8745,742325,11
63,0,705768,247712,1281004,73591,9345,640561,11
63,0,708320,247447,1444187,73405,9743,721903,11
63,0,709797,248014,1389613,73678,10022,694858,11
63,0,709717,248252,1451978,73758,9891,726199,11
63,0,715442,250789,1486467,74854,9626,743021,11
63,0,711567,248109,1352495,73814,9461,676301,11
63,0,710672,248082,1436971,73651,10276,718574,11
63,0,710551,247846,1318768,73580,9189,659412,11
63,0,709339,247979,1471627,73675,10510,735602,11
63,0,729324,252304,1417947,76905,10242,709061,11
63,0,709906,248409,1473898,73742,10408,736706,11
63,0,709511,247812,1398392,73554,9782,699072,11
63,0,714445,249203,1420599,74188,10309,710053,11
63,0,713071,248171,1432906,73670,10383,716481,11
63,0,710506,247929,1458925,73592,9870,729214,11
63,0,712419,248336,1433205,73689,9879,716620,11
63,0,710508,247730,1317172,73478,8597,658633,11
63,0,710704,247642,1398348,73435,9861,698919,11
63,0,713867,247735,1601259,73467,9998,800540,11
63,0,707710,247556,1483616,73426,10892,741810,11
63,0,713665,249886,1486205,74295,10323,743216,11
63,0,711663,248166,1429480,73492,10298,714525,11
63,0,710369,247516,1479450,73215,10101,739796,11
63,0,712677,248240,1388594,73585,10593,694067,11
63,0,711397,248008,1534568,73443,9636,767146,11
63,0,732196,252559,1414042,76750,10928,707010,11
63,0,712612,248734,1469943,73697,9580,734983,11
63,0,713296,248576,1412258,73726,9673,705771,11
63,0,714447,248875,1384577,73766,9761,692637,11
63,0,711223,247330,1313440,73177,9976,656684,11
63,0,712828,249142,1285428,73874,9368,642743,11
63,0,712142,247949,1470430,73479,10240,735253,11
63,0,710252,247432,1389120,73261,9372,694172,11
63,0,713223,248216,1483739,73554,10530,741903,11
63,0,716959,249961,1450225,74394,10034,725039,11
63,0,712617,248307,1348135,73580,9662,674112,11
63,0,712936,248138,1463937,73454,10466,731995,11
63,0,706576,248719,1329458,73672,9123,664520,11
63,0,708130,249065,1416554,73977,9270,708020,11
63,0,705888,247682,1365105,73300,9432,682596,11
63,-1,638471,219067,1394752,65911,7833,697377,0
63,0,710185,248845,1542104,73790,9830,771499,11
63,0,708237,248400,1383534,73646,9510,691479,11
63,0,714309,250630,1341522,74665,9507,670845,11
63,0,708305,248128,1229781,73548,8831,614695,11
63,0,709503,248445,1312101,73623,9769,655927,11
63,0,710825,249090,1257384,73891,8947,628681,11
63,0,709781,248225,1480547,73591,10399,740123,11
63,0,708279,248550,1389122,73864,9353,694047,11
63,0,707911,248104,1435390,73585,9478,717712,11
63,0,707951,247827,1381848,73447,9197,690463,11
63,0,712247,249330,1688319,73955,10078,843360,11
63,0,713287,249534,1453122,74322,9754,726409,11
63,0,708477,248365,1431610,73697,10111,715580,11
63,0,707688,247228,1490808,73308,9972,745111,11
63,0,712208,248164,1462973,73615,9893,731519,11
63,0,704298,246799,1356120,73242,9362,678103,11
63,0,710494,249763,1379349,74320,9358,689850,11
63,0,706261,247779,1378534,73552,9444,689177,11
63,0,708380,247744,1365722,73475,9504,682887,11
63,0,709434,247711,1387688,73531,10090,694128,11
63,0,704197,246919,1387397,73229,9234,693742,11
63,0,713886,250247,1406110,74614,9433,703094,11
63,0,712163,249136,1429876,74125,8868,714721,11
63,0,732159,252119,1403598,76743,10308,701835,11
63,0,704561,246918,1413292,73148,9534,706509,11
63,0,709075,247877,1376385,73811,8883,688180,11
63,0,705617,246817,1474960,73116,8928,737043,11
63,0,716195,250404,1389722,74688,9106,694488,11
63,0,712619,248853,1396987,74086,9373,698765,11
63,0,709970,247502,1371308,73411,9728,685735,11
63,0,730721,252393,1533820,76843,10690,766998,11
63,0,712587,249685,1402874,74357,8884,701538,11
63,0,707982,247344,1336724,73358,8889,668109,11
63,0,729251,252818,1398681,76973,10136,699142,11
63,0,706995,247366,1453527,73320,9906,726435,11
63,0,708558,247639,1329643,73502,9084,664850,11
63,0,708064,247576,1440921,73437,9140,720371,11
63,0,707367,248034,1392741,73636,9393,696416,11
63,0,706119,247283,1417898,73277,9281,708752,11
63,0,707195,247194,1343955,73292,9344,672491,11
63,0,708498,247609,1438061,73425,9489,718725,11
63,0,709454,247526,1341909,73470,9953,670559,11
63,0,711252,247661,1431318,73447,10437,715476,11
63,0,707151,247033,1355480,73261,8782,677770,11
63,0,709935,247876,1356554,73571,9381,678323,11
63,0,732811,252642,1365180,76913,10781,682455,11
63,0,710453,247921,1242777,73588,8565,621136,11
63,0,708930,246986,1314974,73218,9975,657502,11
63,0,705072,247405,1383721,73377,8782,691899,11
63,0,713241,250295,1394329,74659,9183,696037,11
63,0,707158,247527,1430534,73411,9688,715125,11
63,0,708003,247750,1384592,73552,9058,691978,11
63,0,712693,249811,1581741,74450,9722,790867,11
63,0,709512,247683,1355211,73488,9463,677808,11
63,0,709527,248052,1478176,73651,9733,739125,11
63,0,708739,247449,1477717,73415,10728,738811,11
63,0,710907,247801,1333778,73549,10446,666950,11
63,0,712098,247578,1540598,73500,9644,770136,11
63,0,709573,247609,1466347,73486,10607,733048,11
63,0,711771,247901,1414956,73611,10271,707437,11
63,0,710810,247283,1406749,73328,9742,703138,11
63,0,716917,249535,1391520,74251,9785,695412,11
63,0,704828,247299,1424634,73269,9828,712480,11
63,0,705780,247421,1358682,73432,9491,679534,11
63,0,708604,248353,1479899,73699,9827,739986,11
63,0,708365,247960,1394276,73545,8966,696919,11
63,0,706639,247365,1592206,73357,9265,795851,11
63,0,730938,252701,1662506,76943,10284,831307,11
63,0,706880,247230,1301500,73322,9035,651093,11
63,0,713553,248907,1336502,74091,9436,668124,11
63,0,708783,247664,1410710,73497,10026,705391,11
63,0,711008,247903,1399922,73582,9438,699998,11
63,0,714979,249056,1472612,74127,9713,736367,11
63,0,711564,248351,1526552,73737,10180,763300,11
63,0,705157,246857,1406964,73289,9104,703528,11
63,0,706422,247090,1509087,73277,9436,754372,11
63,0,706983,247271,1496341,73326,9280,748209,11
63,0,711030,248671,1440291,74043,9506,720392,11
63,0,707320,247234,1463521,73315,9000,731806,11
63,0,709940,248029,1527723,73615,9497,764034,11
63,0,728865,251960,1551908,76667,9759,775964,11
63,0,714810,249756,1435784,74374,9438,717946,11
63,0,707804,247305,1398142,73370,8831,699117,11
63,0,708023,246799,1280767,73141,8693,640405,11
63,0,708702,247401,1472361,73426,8715,736175,11
63,0,707099,247300,1312798,73415,8847,656437,11
63,0,710130,247826,1246681,73492,8376,623385,11
63,0,730485,252083,1335155,76745,9131,667634,11
63,0,714323,249174,1283897,74220,8817,642007,11
63,0,708421,246905,1365069,73267,8642,682626,11
63,0,709560,247364,1448179,73368,9224,724142,11
63,0,711095,247010,1455549,73197,9028,727779,11
63,0,709283,247362,1442290,73428,9356,721246,11
63,0,713702,247964,1385703,73579,9101,692892,11
63,0,707610,247918,1292850,73581,8487,645981,11
63,0,707122,247652,1272624,73448,7924,636351,11
63,0,714322,250118,1328976,74586,8697,664619,11
63,0,707800,247523,1370411,73421,8609,685203,11
63,0,707520,247624,1358894,73493,8189,679500,11
63,0,714703,250003,1357544,74439,8494,678899,11
63,0,714671,249952,1311434,74518,8462,655791,11
63,0,708143,246954,1390085,73242,8398,695144,11
63,0,707174,247848,1324175,73586,9010,661679,11
63,0,709927,247922,1323989,73594,8516,662017,11
63,0,710152,247610,1322353,73443,8549,661227,11
63,0,709101,247369,1365329,73356,8699,682698,11
63,0,712077,248327,1289382,73926,8659,644693,11
63,0,709889,247046,1471913,73274,8813,736023,11
63,0,736753,256381,1466892,76023,8830,733490,11
63,0,712268,247692,1374376,73511,9306,687298,11
63,0,709134,247621,1460772,73510,8445,730428,11
63,0,710411,247898,1374160,73594,8275,687130,11
63,-1,641758,220478,1179523,66639,7268,589606,0
63,0,712315,248557,1398586,73812,8570,699338,11
63,0,709580,247207,1287140,73331,7929,643621,11
63,0,710677,246839,1293891,73205,8584,646984,11
63,0,716000,248383,1340371,73680,8591,670260,11
63,0,713119,248218,1302965,73607,7655,651538,11
63,0,710654,247179,1386898,73234,8050,693487,11
63,0,736902,252503,1502239,76809,9368,751160,11
63,0,711884,247514,1311756,73380,7520,655927,11
63,0,711262,247333,1380989,73281,7572,690669,11
63,0,711104,247256,1374415,73263,7277,687249,11
63,0,704634,249099,1282463,73616,7251,641308,11
63,0,705503,249651,1282475,73886,8107,641306,11
63,0,702541,247571,1415218,73009,7772,707657,11
63,0,706783,249444,1335225,73778,8122,667813,11
63,0,721726,251891,1415750,76191,9395,707890,11
63,0,703932,247769,1344727,73041,8707,672370,11
63,0,700799,246961,1519674,72731,9135,758825,11
63,0,704979,248388,1507217,73261,9729,754059,11
63,0,724840,252007,1524794,76214,10304,762448,11
63,0,704056,247494,1450140,72965,9538,725215,11
63,0,731710,257053,1398391,75735,9027,699084,11
63,0,724802,251989,1617088,76187,10062,808720,11
63,0,705501,247422,1338402,72945,8799,669077,11
63,0,704415,248811,1398778,73528,9968,699045,11
63,0,702340,247452,1553127,72937,9189,776613,11
63,0,701334,246654,1332801,72622,8435,666441,11
63,0,706456,248432,1227751,73484,7942,613939,11
63,0,727262,252617,1335309,76443,9544,667724,11
63,0,706962,248203,1337506,73190,8003,668762,11
63,0,701308,246311,1256403,72620,8300,628255,11
63,0,703705,247377,1346298,72901,8456,673190,11
63,0,705747,248075,1348477,73158,8113,674352,11
63,0,707671,248537,1489195,73290,8141,744652,11
63,0,726140,252289,1395638,76295,9153,697931,11
63,0,706506,247204,1361741,72856,8187,680958,11
63,0,700253,247396,1375690,72940,9016,687888,11
63,0,701453,247506,1273807,72948,8673,636938,11
63,0,703622,247680,1363434,73046,8524,681717,11
63,0,703563,246730,1280572,72831,8788,640304,11
63,0,704345,247651,1329291,73172,8828,664717,11
63,0,703433,247331,1285573,73053,8642,642825,11
63,0,704764,247356,1244459,72994,8093,622265,11
63,0,702876,247083,1479086,72945,8235,739667,11
63,0,708332,249272,1295693,73898,8244,647917,11
63,0,725562,252037,1441044,76390,9118,720572,11
63,0,701277,246266,1290129,72658,8161,645084,11
63,0,708941,249412,1298529,74040,8386,649343,11
63,0,705893,247296,1360777,73012,8107,680429,11
63,0,709521,248176,1403102,73546,8904,701619,11
63,0,705846,248133,1552853,73335,9254,776440,11
63,0,702936,247625,1432630,73060,9088,716339,11
63,0,707599,247836,1512348,73913,9972,756211,11
63,0,709247,248208,1399346,74167,9730,699722,11
63,0,706943,247717,1482275,73966,10121,741176,11
63,0,708311,247644,1360998,73912,9247,680538,11
63,0,709831,247820,1420295,74056,9172,710196,11
63,0,730864,252425,1520244,77352,10300,760169,11
63,0,711274,247622,1507282,73939,9661,753684,11
63,0,705481,247184,1464387,73799,9523,732215,11
63,0,709369,248063,1480171,74120,9862,740107,11
63,0,713677,249741,1411252,74997,9873,705669,11
63,0,710655,248079,1542710,74097,9729,771406,11
63,0,709325,247644,1460564,74012,9612,730176,11
63,0,730441,251958,1571437,77201,10416,785718,11
63,0,713792,248873,1374772,74594,9801,687460,11
63,0,709440,247765,1487398,73981,10297,743727,11
63,0,710251,247435,1447770,73878,9940,723924,11
63,0,715101,249032,1451985,74634,10193,726056,11
63,0,701687,247278,1478995,73888,9628,739545,11
63,0,724023,251977,1400398,77198,10607,700232,11
63,0,703883,247683,1400024,73949,9352,700039,11
63,0,706876,248604,1405471,74498,8857,702786,11
63,0,705279,247395,1456959,73892,8926,728525,11
63,0,702911,247007,1462560,73709,8867,731415,11
63,0,704383,247404,1402136,73885,9449,701117,11
63,0,729482,252196,1543656,77299,10446,771811,11
63,0,702971,246791,1485872,73661,9561,742999,11
63,0,705992,247851,1470444,74059,9433,735227,11
63,0,710516,249630,1507898,74979,9585,754064,11
63,0,705915,247176,1481311,73800,9500,740700,11
63,0,714399,249548,1348584,74722,9655,674354,11
63,0,713096,249291,1407436,74718,8681,703785,11
63,0,709840,247602,1416661,73916,8969,708376,11
63,0,706994,248302,1420953,74275,9229,710518,11
63,0,707130,247404,1612112,73941,9682,806161,11
63,0,710977,248923,1403750,74674,8933,701936,11
63,0,707566,247538,1467032,73914,9128,733552,11
63,0,712847,249196,1336480,74759,9288,668290,11
63,0,709976,247440,1449640,73883,9402,724863,11
63,-1,634026,218329,1212745,65623,6843,606439,0
63,0,708307,247811,1472614,73996,9220,736314,11
63,0,707906,246811,1481940,73699,9110,741020,11
63,0,711537,248291,1410585,74396,9039,705371,11
63,0,711476,247580,1459178,73971,9460,729619,11
63,0,709077,249766,1375267,74982,9408,687694,11
63,0,706795,247884,1457954,74108,8971,728998,11
63,0,710350,249010,1331923,74617,8656,666024,11
63,0,711325,249225,1294210,74786,8637,647181,11
63,0,704478,246915,1454100,73745,9243,727076,11
63,0,711055,248773,1513000,74532,10736,756496,11
63,0,708910,247198,1569888,73801,11190,784765,11
63,0,709137,247354,1564127,73892,11313,781950,11
63,0,703978,246597,1608133,73546,10649,803836,11
63,0,709934,247958,1617371,74076,10582,808589,11
63,0,708383,247526,1572990,73956,9134,786579,11
63,0,710688,247980,1473829,74103,8996,736961,11
63,0,743820,258647,1550223,77575,9759,775181,11
63,0,709397,247991,1486288,74139,9253,743201,11
63,0,708231,247206,1482567,73853,9198,741318,11
63,0,731450,252106,1510513,77226,10220,755321,11
63,0,708189,246986,1490630,73741,9859,745317,11
63,0,715215,248964,1453984,74598,9674,727081,11
63,0,708263,247030,1511450,73754,9089,755765,11
63,0,708644,247498,1492753,73883,9291,746410,11
63,0,713221,248750,1422724,74545,9199,711424,11
63,0,710745,247928,1512377,74051,9640,756238,11
63,0,709585,247180,1402401,73777,9643,701191,11
63,0,708064,246752,1490061,73663,9585,745066,11
63,0,712571,247664,1527958,74029,9993,764146,11
63,0,707970,247993,1400958,74121,9187,700500,11
63,0,703568,247665,1463945,74006,9823,732021,11
63,0,706013,248355,1383993,74370,9877,691770,11
63,0,708666,249109,1479356,74740,10159,739935,11
63,0,705884,248189,1372430,74132,9425,686107,11
63,0,705110,247474,1317493,73841,9323,658783,11
63,0,705554,247137,1606957,73766,9967,803511,11
63,0,709013,247317,1413071,73814,10116,706574,11
63,0,706128,247703,1405157,74006,8925,702617,11
63,0,706861,247556,1474593,73947,9050,737342,11
63,0,708482,248532,1457756,74462,9229,728927,11
63,0,707583,247752,1473177,73963,9201,736640,11
63,0,729406,252315,1531589,77291,10254,765785,11
63,0,705574,247334,1429612,73903,9144,714859,11
63,0,708999,247947,1486296,74034,9529,743194,11
63,0,704868,247069,1531797,73768,9902,765951,11
63,0,705735,246988,1414038,73771,8919,707065,11
63,0,728359,251800,1562670,77144,10657,781420,11
63,0,711406,248091,1322384,74177,9718,661228,11
63,0,706475,247770,1488845,74056,10006,744474,11
63,0,711372,248694,1417700,74492,9197,708900,11
63,0,704554,246910,1403775,73711,9430,701881,11
63,0,711973,248647,1440718,74524,9199,720327,11
63,0,728327,252441,1544708,77359,11163,772345,11
63,0,710529,249399,1408562,74894,9294,704355,11
63,0,705778,247184,1535367,73793,8925,767770,11
63,0,705563,246700,1498031,73649,9980,749052,11
63,0,706240,247257,1510632,73847,9156,755364,11
63,0,708526,246711,1425284,73606,9252,712682,11
63,0,712220,248991,1402032,74573,9677,701091,11
63,0,728084,251293,1528706,76980,10372,764344,11
63,0,713526,249170,1391813,74758,8632,696126,11
63,0,710025,246970,1438841,73705,9292,719516,11
63,0,706379,248570,1397670,74494,9899,698905,11
63,0,706707,248270,1558464,74172,10339,779232,11
63,0,705760,247227,1434048,73834,10038,717063,11
63,0,704877,246880,1436111,73703,8778,718159,11
63,0,707244,247659,1491536,74024,9183,745861,11
63,0,729807,252890,1614601,77424,10707,807312,11
63,0,711230,249158,1413595,74734,9600,706866,11
63,0,707136,247712,1522393,73942,8889,761372,11
63,0,707526,247376,1405072,73852,9018,702571,11
63,0,710648,248345,1486125,74187,9206,743113,11
63,0,707707,248060,1417382,74045,10271,708736,11
63,0,708429,247554,1484625,73869,9572,742365,11
63,0,708013,247737,1445868,74001,8651,722967,11
63,0,711522,249118,1400466,74719,9392,700284,11
63,0,710742,248093,1499245,74040,9328,749616,11
63,0,710143,247482,1485205,73861,9212,742649,11
63,0,711281,248690,1431175,74494,9732,715651,11
63,0,712815,249146,1410795,74658,9593,705471,11
63,0,710716,247471,1420120,73947,9862,710103,11
63,0,710053,247483,1436201,73890,9303,718131,11
63,0,707923,247350,1501364,73803,9384,750720,11
63,0,707894,247676,1420721,73920,9423,710409,11
63,0,712220,248876,1618549,74426,11160,810015,11
63,0,710025,247650,1369906,73852,9966,684830,11
63,0,711913,249270,1232375,74642,8701,616241,11
63,0,707221,246728,1283239,73542,8615,641437,11
63,0,710919,248150,1482475,74053,9447,741300,11
63,0,708591,248138,1442154,73966,9196,721130,11
63,0,712974,249316,1440216,74554,9578,720185,11
63,0,710422,247851,1475381,73909,9281,737783,11
63,0,712804,248212,1429283,73988,9015,714728,11
63,0,735879,253415,1554393,78058,10973,777185,11
63,0,712126,247641,1411878,73828,8841,705973,11
63,0,709771,247260,1416434,73769,9039,708273,11
63,0,717480,249832,1432160,74817,9552,716182,11
63,0,716370,249321,1574082,74402,10074,787130,11
63,0,710668,246692,1431322,73497,9657,715662,11
63,0,711825,247876,1477690,73906,9545,738887,11
63,0,708058,248174,1340996,74015,9865,670551,11
63,0,705109,246950,1262535,73578,9833,631308,11
63,0,704915,247336,1404802,73670,10648,702355,11
63,0,730110,251868,1404615,77053,10055,702355,11
63,0,710316,248845,1299127,74248,8351,649650,11
63,0,708134,247867,1388094,73924,8410,694086,11
63,-1,634042,217067,1173848,65207,7017,586972,0
63,0,728115,251542,1431929,76960,8955,716103,11
63,0,714896,249994,1289873,74927,8732,645003,11
63,0,709383,247434,1507936,73759,9640,754008,11
63,0,706422,247808,1305350,73899,9478,652717,11
63,0,708926,248575,1359068,74181,9262,679588,11
63,0,708614,247512,1492409,73819,10376,746215,11
63,0,708874,247740,1402897,73837,8889,701491,11
63,0,709619,248501,1368468,74128,8730,684309,11
63,0,710866,248368,1315641,74059,8506,657916,11
63,0,709454,248236,1213158,74062,8179,606629,11
63,0,707859,246808,1355472,73529,8654,677783,11
63,0,730337,252004,1398205,77081,9153,699183,11
63,0,715015,249545,1331008,74739,8645,665582,11
63,0,710078,247531,1415489,73769,8564,707846,11
63,0,709795,248436,1328449,74322,9088,664285,11
63,0,710108,248122,1433976,73971,8902,717038,11
63,0,707095,246758,1367249,73577,8123,683715,11
63,0,712154,248549,1365388,74202,8560,682795,11
63,0,707564,246545,1280205,73427,8293,640140,11
63,0,714283,248825,1297698,74416,8511,648900,11
63,0,714171,248178,1372244,74097,8785,685772,11
63,0,711364,246945,1405894,73601,10030,703064,11
63,0,712750,247562,1396839,73793,9731,698459,11
63,0,711030,249544,1418755,74727,9891,709465,11
63,0,707199,247313,1311631,73776,9411,655865,11
63,0,712613,248841,1280107,74418,9126,639905,11
63,0,706011,246974,1493787,73572,9380,746864,11
63,0,712257,248908,1391011,74379,9955,695488,11
63,0,711227,248108,1407047,73958,9240,703396,11
63,0,710892,247755,1363750,73919,9475,681654,11
63,0,730212,252303,1520466,77206,11214,760122,11
63,0,708622,247861,1525300,73912,10428,762639,11
63,0,709681,247936,1428920,73952,10193,714318,11
63,0,711871,248024,1448147,73998,10428,723915,11
63,0,712506,248555,1376174,74271,9421,688222,11
63,0,711038,247107,1397698,73708,9649,698755,11
63,0,710750,247442,1430181,73777,10176,715080,11
63,0,710540,246862,1325049,73567,9612,662502,11
63,0,707609,246946,1337481,73570,8970,668988,11
63,0,705725,246874,1411255,73549,8944,705479,11
63,0,713602,248955,1443024,74585,9324,720317,11
63,0,711425,247692,1353764,73851,9766,676629,11
63,0,714411,249363,1363808,74609,9173,680723,11
63,0,710749,247668,1464410,73922,10064,732265,11
63,0,713833,249199,1415571,74776,9950,707083,11
63,0,711198,247227,1524682,73746,9826,762470,11
63,0,711862,247631,1514249,73841,9496,757165,11
63,0,712588,248223,1489551,74029,10551,744717,11
63,0,733932,253000,1483714,77358,10847,741711,11
63,0,711549,247397,1485405,73776,10606,742678,11
63,0,711929,247764,1506328,73950,10337,753051,11
63,0,712295,247356,1462138,73706,10686,731008,11
63,0,715745,248342,1371864,74108,10044,685652,11
63,0,712773,247885,1324281,73949,10054,662134,11
63,0,716652,248908,1300913,74491,10132,650346,11
63,0,711989,247528,1350386,73854,9638,674878,11
63,0,713795,247562,1438645,73856,9562,718978,11
63,0,703713,248410,1418890,74112,8674,709373,11
63,0,701838,247153,1382337,73644,9390,691854,11
63,0,706104,248135,1421925,74019,10077,711060,11
63,0,709458,249456,1425515,74696,10112,712092,11
63,0,707435,247773,1395232,74039,9616,697438,11
63,0,706360,248667,1371160,74553,9551,685363,11
63,0,726315,251701,1413191,77100,10317,706716,11
63,0,706221,247288,1308482,73887,8852,653745,11
63,0,711050,248619,1346315,74589,9462,672695,11
63,0,704432,247707,1321198,74102,8266,660138,11
63,0,708295,247906,1386686,74112,9986,693119,11
63,0,713185,250013,1289535,75012,9809,644858,11
63,0,708249,248036,1426816,74075,10244,713496,11
63,0,709791,248131,1354742,74218,9267,677369,11
63,0,711251,248798,1633986,74402,9381,817027,11
63,0,711612,248554,1268138,74396,8568,634151,11
63,0,712003,248161,1383909,74228,8346,691997,11
63,0,713357,248413,1403119,74276,8736,701660,11
63,0,707297,247851,1430743,74085,8393,715460,11
63,0,709124,248279,1289913,74261,8087,644819,11
63,0,741981,260171,1342400,78076,8782,671279,11
63,0,714284,249734,1325204,74647,9113,662626,11
63,0,716027,250616,1386748,75266,9127,693439,11
63,0,712234,248515,1414943,74221,9133,707516,11
63,0,710154,247943,1349336,74144,8787,674713,11
63,0,712775,248263,1389731,74175,8961,694949,11
63,0,714348,250295,1396334,75135,9294,698215,11
63,0,717543,249311,1432202,74636,9232,716149,11
63,0,713569,249191,1362075,74589,8948,681308,11
63,0,714832,248518,1485183,74427,9883,742664,11
63,0,710934,248601,1433432,74461,8797,716760,11
63,0,707418,248060,1347719,74120,8252,673893,11
63,-1,638635,217908,1310681,65370,7302,655388,0
63,0,709352,247929,1373048,74134,8654,686497,11
63,0,713979,249628,1216597,74896,8369,608368,11
63,0,711875,248446,1271535,74304,8431,635817,11
63,0,711051,248233,1272182,74242,8617,636131,11
63,0,712045,249056,1372737,74522,9241,686410,11
63,0,711731,248788,1425190,74427,8636,712391,11
63,0,715925,250072,1334279,75006,8922,667148,11
63,0,712511,248211,1410382,74162,9750,705211,11
63,0,712143,247737,1665660,74015,10194,833164,11
63,0,715067,248803,1522045,74391,10755,760872,11
63,0,709141,248536,1477135,74314,10939,738215,11
63,0,710117,248663,1389472,74232,9902,694780,11
63,0,710972,248696,1366207,74375,9450,683095,11
63,0,738570,257762,1556678,77075,10396,777910,11
63,0,713838,249457,1268929,74579,9209,634450,11
63,0,711158,248206,1403471,74184,10128,701749,11
63,0,712324,248605,1303279,74349,9246,651576,11
63,0,714193,249089,1402688,74512,10093,701219,11
63,0,714291,248664,1433000,74350,9708,716419,11
63,0,712425,248355,1413213,74246,9219,706563,11
63,0,714054,248781,1338598,74384,9317,669279,11
63,0,717725,250236,1385188,75105,9722,692666,11
63,0,711633,247812,1568978,74013,9925,784529,11
63,0,708343,248443,1355657,74248,9312,677888,11
63,0,709355,248202,1501934,74130,8499,751023,11
63,0,708858,248146,1481119,74113,9953,740579,11
63,0,731664,253030,1627428,77462,11438,813141,11
63,0,716584,250492,1454465,75144,9692,727253,11
63,0,710214,249053,1475120,74439,9580,737564,11
63,0,732464,253939,1553187,77835,9527,776613,11
63,0,713592,250001,1406824,75026,8950,703439,11
63,0,712577,248748,1487774,74304,9358,743929,11
63,0,709711,248380,1456809,74258,10248,728604,11
63,0,714723,249802,1518873,74588,9562,759480,11
63,0,709635,249312,1406401,74440,9420,703217,11
63,0,708903,248304,1524393,74020,9600,762240,11
63,0,711660,249037,1504597,74334,9794,752376,11
63,0,712539,249027,1519132,74298,9891,759613,11
63,0,761476,262779,1611467,80343,11255,805508,11
63,0,708648,248287,1509638,74048,9370,754859,11
63,0,711075,248306,1399305,74020,9144,699680,11
63,0,713122,249636,1495419,74553,8936,747769,11
63,0,710501,248210,1489027,74000,9639,744557,11
63,0,717485,250456,1389513,74993,9084,694739,11
63,0,712663,248192,1381820,73885,9481,690958,11
63,0,712616,248996,1384385,74239,9828,692289,11
63,0,740739,254726,1590662,78401,11046,795320,11
63,0,713573,248532,1506211,74058,9793,753146,11
63,0,718704,250175,1415701,74846,9904,707669,11
63,0,711052,248093,1527523,73930,9347,763795,11
63,0,712513,248770,1397445,74171,8943,698598,11
63,0,712665,248563,1445122,74049,9170,722588,11
63,0,714111,248650,1508878,74155,9948,754566,11
63,0,731239,253371,1640788,77504,10343,820442,11
63,0,711766,249238,1522854,74266,9967,761465,11
63,0,709098,248006,1422150,73863,8855,711001,11
63,0,714583,250012,1429004,74748,9482,714598,11
63,0,710784,248559,1486300,74051,9642,743168,11
63,0,730829,252718,1443728,77323,10528,721922,11
63,0,715801,250238,1386083,74982,9654,692898,11
63,0,708554,248587,1520517,74182,9173,760437,11
63,0,731307,252686,1570135,77300,10029,785021,11
63,0,715366,250095,1388447,74937,9398,694296,11
63,0,713915,248733,1436493,74104,9047,718272,11
63,0,713811,248665,1521184,74197,9572,760680,11
63,0,714010,250421,1391321,74914,8982,695717,11
63,0,709519,247786,1508602,73894,8559,754355,11
63,0,711021,249020,1409179,74322,9083,704637,11
63,0,712870,248709,1567512,74248,9658,783815,11
63,0,711311,248709,1419642,74201,9168,709902,11
63,0,711983,248639,1395215,74254,9476,697697,11
63,0,715352,249404,1343678,74715,9415,671933,11
63,0,715566,249926,1525321,74925,10586,762292,11
63,0,717396,250873,1394703,75316,9010,697443,11
63,0,710182,247469,1505478,73816,9117,752805,11
63,0,713652,249093,1406728,74580,9205,703430,11
63,0,712940,248423,1401212,74176,8983,700706,11
63,0,716283,249969,1527945,74948,10081,764045,11
63,0,710329,248004,1365335,73984,8837,682709,11
63,0,711257,248077,1315703,74056,8643,657897,11
63,0,733492,253280,1498093,77545,9413,749130,11
63,0,713422,248386,1490119,74099,9088,745102,11
63,0,710467,247634,1611734,73862,9653,805963,11
63,0,714427,248101,1621637,74018,11154,810769,11
63,0,733716,253132,1558705,77433,10409,779310,11
63,0,713603,248173,1491379,74019,9369,745709,11
63,0,712085,248090,1478651,74072,9585,739368,11
63,0,713805,248076,1405633,73999,9652,702870,11
63,0,715777,249258,1414483,74578,9512,707295,11
63,0,713488,247758,1529696,73918,10142,764889,11
63,0,710489,247660,1484532,73866,8769,742291,11
63,0,705502,246673,1542838,73597,9819,771442,11
63,0,706596,248365,1412727,74122,9692,706406,11
63,0,729460,252938,1511878,77432,10710,755943,11
63,0,709940,248745,1368526,74243,9592,684309,11
63,0,710593,249469,1422676,74639,9902,711376,11
63,0,708264,248405,1464343,74174,9292,732223,11
63,0,708237,248040,1480234,73994,8935,740211,11
63,0,711822,248206,1490453,74091,10262,745266,11
63,0,707498,248418,1404488,74117,9541,702280,11
63,0,709963,248514,1513018,74210,9303,756595,11
63,0,707456,247824,1469950,73946,9598,735072,11
63,0,708152,247561,1510181,73868,9493,755137,11
63,0,735075,253270,1537029,77555,10180,768617,11
63,0,709920,247900,1509027,73871,9723,754559,11
63,-1,643441,221048,1229414,66554,6972,614781,0
63,0,732473,252531,1439880,77304,11024,720018,11
63,0,708573,247680,1441020,73857,9487,720821,11
63,0,712430,249161,1470640,74612,9750,735123,11
63,0,735090,257078,1619004,76647,9793,809223,11
63,0,709570,248066,1369452,74075,8835,684777,11
63,0,733124,253705,1429661,77650,9255,714901,11
63,0,714047,249010,1386572,74310,9231,693361,11
63,0,713902,248180,1426416,74084,9031,713251,11
63,0,711303,248538,1347109,74234,8461,673582,11
63,0,712451,248930,1381390,74205,8416,690791,11
63,0,714441,249273,1442363,74375,8548,721290,11
63,0,713341,248990,1370194,74320,8370,685185,11
63,0,720549,250741,1495320,75141,9057,747694,11
63,0,712370,248271,1302022,73987,8377,651002,11
63,0,710253,248598,1309554,74225,7544,654835,11
63,0,734483,253989,1467252,77787,9196,733711,11
63,0,713627,248843,1480095,74344,10292,739651,11
63,0,713383,249117,1511242,74372,10352,755254,11
63,0,710613,248231,1482715,74156,10229,741526,11
63,0,711250,248035,1525026,74107,10549,762513,11
63,0,734909,253161,1696748,77545,12510,848201,11
63,0,713466,248040,1477385,74083,9745,738753,11
63,0,712178,248388,1488326,74254,9367,744144,11
63,0,717536,249500,1420646,74598,9719,710349,11
63,0,713591,249376,1441031,74761,9692,720560,11
63,0,712426,248705,1420818,74265,9876,710368,11
63,0,715043,249366,1433683,74709,9197,716854,11
63,0,713984,247830,1539018,74012,10005,769507,11
63,0,717175,249975,1466380,75018,9394,733186,11
63,0,713318,247992,1426213,74023,9106,713082,11
63,0,714831,248831,1482948,74353,9622,741346,11
63,0,715613,249234,1385055,74719,9299,692397,11
63,0,709009,247422,1429121,73862,9207,714524,11
63,0,713033,248600,1509089,74211,9526,754561,11
63,0,715107,248601,1469495,74195,8868,734774,11
63,0,712754,248122,1388615,74064,9856,694299,11
63,0,736805,253359,1531695,77530,10942,765793,11
63,0,720066,250526,1332800,75081,9800,666410,11
63,0,712841,247461,1312136,73719,8854,655981,11
63,0,716554,248726,1356821,74246,8606,678283,11
63,0,713560,248035,1390768,73982,8931,695427,11
63,0,714208,247947,1328128,73933,8778,664128,11
63,0,709462,248515,1305020,74156,8772,652526,11
63,0,733201,253593,1432599,77594,9898,716320,11
63,0,716367,250729,1403304,75172,9331,701572,11
63,0,709295,247753,1401533,73824,9098,700662,11
63,0,713431,248436,1247996,74173,8845,623955,11
63,0,715232,250360,1280079,75066,9146,639976,11
63,0,712037,248379,1321606,74009,8396,660564,11
63,0,713977,249220,1341305,74590,9287,670600,11
63,0,712009,247382,1320742,73754,9052,660342,11
63,0,711776,249028,1393610,74551,8795,696791,11
63,0,710087,247935,1356494,73951,8825,678180,11
63,0,711447,247965,1379325,73972,7974,689683,11
63,0,711384,247248,1305530,73713,8791,652789,11
63,0,710091,248653,1364787,74185,8856,682289,11
63,0,715554,250210,1415320,75053,9210,707748,11
63,0,710237,248423,1383391,74139,9504,691728,11
63,0,711078,247915,1382332,73899,9185,691246,11
63,0,712733,248239,1315320,74029,8841,657647,11
63,0,709407,247485,1284653,73786,9131,642229,11
63,0,710179,247578,1292232,73864,8824,646073,11
63,0,741017,258014,1402151,77175,9415,701104,11
63,0,712097,247855,1294492,73882,8929,647271,11
63,0,710793,247835,1403022,73909,9306,701630,11
63,0,711808,247890,1312177,73942,8379,655963,11
63,0,718957,250671,1380448,75141,8592,690314,11
63,0,714864,248002,1422661,73984,9487,711317,11
63,0,716820,250128,1374612,74847,9372,687278,11
63,0,710940,247921,1313664,73969,8940,656851,11
63,0,711252,247349,1290964,73751,8846,645447,11
63,0,711581,247683,1398232,73837,8883,699050,11
63,0,717695,249656,1372742,74822,9384,686344,11
63,0,714684,248052,1313105,73969,8526,656762,11
63,0,714817,248391,1396129,74122,9560,698112,11
63,0,714390,247803,1394665,73937,9741,697396,11
63,0,714472,247473,1451782,73781,9617,725775,11
63,0,709660,247566,1374450,73802,9044,687215,11
63,0,709110,247481,1412627,73770,8848,706238,11
63,0,709439,247351,1380961,73767,9082,690478,11
63,0,710008,247546,1325706,73849,9316,662741,11
63,0,711549,248485,1378150,74395,8483,689046,11
63,0,706600,246761,1304097,73613,8485,652098,11
63,0,732816,252722,1427706,77367,8965,713938,11
63,0,710968,247200,1431476,73806,8730,715779,11
63,0,712608,247378,1293370,73877,7505,646572,11
63,0,711756,248223,1415471,74167,8931,707850,11
63,-1,643162,219041,1257191,65738,7147,628644,0
63,0,709727,247416,1392086,73859,8976,695980,11
63,0,733583,252682,1427376,77412,10064,713750,11
63,0,707930,246895,1299279,73645,8963,649677,11
63,0,714387,248512,1383417,74451,9270,691796,11
63,0,733248,252519,1432434,77429,9926,716269,11
63,0,713971,247800,1329628,74137,8818,664847,11
63,0,712489,249511,1298653,75087,9392,649533,11
63,0,707555,246962,1310836,73823,9053,655447,11
63,0,731807,251829,1433626,77296,10199,716943,11
63,0,710783,246980,1328466,73855,8772,664197,11
63,0,711106,246983,1407677,73925,8487,703887,11
63,0,714326,248011,1408044,74265,8941,704109,11
63,0,709497,246340,1348856,73625,9258,674515,11
63,0,713620,247304,1313175,74022,9519,656632,11
63,0,711484,247460,1332309,74094,9142,666207,11
63,0,715140,248078,1322156,74297,9010,661120,11
63,0,732548,251784,1403798,77301,9986,701958,11
63,0,713192,247189,1358658,73954,8750,679358,11
63,0,715944,248872,1400126,74715,8623,700140,11
63,0,722901,250149,1306244,75282,8685,653162,11
63,0,726620,252599,1485380,77538,10378,742770,11
63,0,705082,247625,1338684,74075,8569,669240,11
63,0,703889,247150,1548693,73904,9937,774398,11
63,0,705203,247467,1454892,74083,9542,727480,11
63,0,709295,248988,1454809,74787,10240,727327,11
63,0,704015,246921,1358490,73876,8917,679117,11
63,0,705191,247362,1445468,74033,9874,722686,11
63,0,704601,246634,1349466,73750,9637,674920,11
63,0,725301,251503,1630528,77153,11154,814984,11
63,0,709554,249607,1558919,75034,10577,779494,11
63,0,705936,247289,1379956,74005,9157,690020,11
63,0,705755,246938,1282953,73910,8521,641530,11
63,0,704150,246842,1384160,73819,8553,692111,11
63,0,703841,246627,1307324,73771,8396,653702,11
63,0,706208,247043,1279555,73904,8543,639826,11
63,0,708498,247631,1213059,74110,8270,606560,11
63,0,729788,252290,1330423,77416,9934,665266,11
63,0,712936,249286,1369370,74994,8761,684731,11
63,0,703294,247480,1423335,74071,7965,711721,11
63,0,706305,247531,1260970,74111,8535,630538,11
63,0,705453,246863,1296184,73837,8930,648152,11
63,0,704470,247162,1338686,73932,8288,669386,11
63,0,709302,247988,1478842,74241,8479,739466,11
63,0,708384,248807,1393528,74701,8349,696826,11
63,0,703773,247067,1255192,73957,8201,627637,11
63,0,705856,246949,1285855,73871,8242,642938,11
63,0,710593,249194,1464347,74912,9443,732167,11
63,0,706066,246874,1356141,73838,8241,678236,11
63,0,710305,248870,1442496,74715,9125,721381,11
63,0,705103,246294,1402626,73694,8870,701226,11
63,0,705452,246612,1301520,73750,8675,650813,11
63,0,713851,249575,1358571,75027,9081,679358,11
63,0,707385,247005,1282910,73870,8096,641488,11
63,0,706844,247531,1347399,74128,7742,673746,11
63,0,707338,247082,1306688,73981,7974,653389,11
63,0,702763,247258,1440417,74009,9775,720338,11
63,0,707561,248874,1469622,74722,10383,734777,11
63,0,703617,246926,1416098,73914,10156,708326,11
63,0,702160,246626,1463431,73773,9363,731752,11
63,0,704067,247000,1334204,73868,8998,667236,11
63,0,705220,247225,1478782,73962,8784,738954,11
63,0,705377,247030,1459979,73886,9404,730035,11
63,0,704658,247051,1411635,73933,9954,705774,11
63,0,712664,249895,1469728,75121,10390,735176,11
63,0,703846,246173,1424382,73561,10086,711861,11
63,0,707400,247226,1494785,73989,9962,747438,11
63,0,706510,247273,1390997,74037,9806,695418,11
63,0,709249,249174,1320672,74880,9463,660103,11
63,0,705457,247269,1528046,74017,9827,763906,11
63,0,708359,248063,1406277,74185,9258,703119,11
63,0,704403,246357,1476487,73687,9266,738330,11
63,0,712897,249217,1385384,74764,9680,692676,11
63,0,709432,247918,1313612,74127,8188,656838,11
63,0,731309,252605,1495809,77425,9508,747881,11
63,0,709327,247390,1362564,73871,8336,681315,11
63,0,709072,246899,1294935,73648,8422,647511,11
63,0,705932,247613,1303671,73984,9005,651874,11
63,0,705971,247665,1285691,74014,8315,642900,11
