0,0,185,644704.664865,220630.978378,1277932.475676,66581.902703,7782.724324,638954.032432,10797.608110,3313.233747,79334.047869,1286.287762,609.477946,39664.211010
0,1,52,714104.134615,249954.519231,1411128.000000,74591.711538,9267.288462,705549.173077,11892.866417,3460.619928,67043.041247,1307.498865,472.187843,33484.723010
1,0,184,645192.500000,220683.945652,1278910.804348,66655.250000,7832.461957,639412.771739,11254.766854,3416.143565,79454.749214,1392.899557,682.716926,39665.400710
1,1,51,713863.901961,249847.274510,1413997.980392,74527.529412,9299.019608,706978.666667,10544.532322,3107.495398,85356.452969,1170.279292,731.699325,42660.433324
2,0,184,644925.728261,220621.815217,1275957.945652,66610.809783,7840.114130,637948.641304,10849.520397,3189.305988,71426.462133,1313.720882,680.399390,35688.466531
2,1,51,714492.529412,249818.803922,1408613.941176,74598.156863,9494.823529,704305.254902,9972.843081,2807.013248,79517.937785,1188.001161,740.535517,39779.521857
3,0,184,644649.728261,220593.429348,1275735.576087,66594.168478,7775.010870,637857.500000,11267.466325,3272.154820,75934.192703,1399.439806,633.105699,37968.610308
3,1,51,715463.431373,250092.882353,1395688.901961,74775.843137,9475.529412,697777.000000,12406.491173,3367.724225,87673.901211,1562.707384,826.045680,43815.653008
4,0,184,644836.527174,220699.836957,1277835.798913,66626.271739,7781.793478,638879.500000,12115.997749,3597.712020,79980.709266,1424.978208,653.254262,39972.922218
4,1,51,715332.176471,250016.725490,1413953.980392,74722.333333,9454.803922,706972.450980,10104.255331,3080.600617,76045.976911,1335.295072,711.496215,38051.502089
5,0,185,644984.859459,220709.924324,1276569.924324,66657.735135,7756.848649,638265.508108,11491.629705,3396.835156,83415.242050,1432.272615,635.258950,41721.774214
5,1,51,714029.647059,249730.156863,1391851.647059,74505.980392,9251.176471,695898.490196,9361.631835,2987.483106,87086.908467,1092.095871,610.132120,43495.770752
6,0,185,644998.216216,220660.075676,1275417.108108,66643.724324,7757.551351,637652.870270,10453.573389,3100.289818,74853.686130,1319.772230,636.947534,37378.959057
6,1,52,714619.538462,249860.038462,1402925.519231,74612.346154,9323.000000,701404.807692,9741.112331,2957.872026,79360.739022,1147.805329,652.120594,39620.666461
7,0,284,643031.718310,220356.440141,1272053.781690,66421.760563,7731.742958,636005.341549,8641.468974,2692.653809,72154.558938,1020.224481,616.891395,36068.096438
7,1,52,714525.826923,249893.673077,1396857.230769,74680.865385,9318.461538,698336.923077,10359.994926,2999.610665,93737.046368,1294.785296,671.426766,46703.517183
