-1,0,0.00148075
-1,1,0.000987167
-1,2,0.000987167
-1,3,0.000987167
-1,4,0.000987167
-1,5,0.000987167
-1,6,0.000987167
-1,7,0.000987167
-1,8,0.000987167
-1,9,0.000987167
-1,10,0.000987167
-1,11,0.000987167
-1,12,0.000987167
-1,13,0.000987167
-1,14,0.000987167
-1,15,0.000987167
-1,16,0.000987167
-1,17,0.000987167
-1,18,0.000987167
-1,19,0.000987167
-1,20,0.000987167
-1,21,0.000987167
-1,22,0.000987167
-1,23,0.000987167
-1,24,0.000987167
-1,25,0.000987167
-1,26,0.000987167
-1,27,0.000987167
-1,28,0.000987167
-1,29,0.000987167
-1,30,0.000987167
-1,31,0.000987167
-1,32,0.000987167
-1,33,0.000987167
-1,34,0.000987167
-1,35,0.000987167
-1,36,0.000987167
-1,37,0.000987167
-1,38,0.000987167
-1,39,0.000987167
-1,40,0.000987167
-1,41,0.000987167
-1,42,0.000987167
-1,43,0.000987167
-1,44,0.000987167
-1,45,0.000987167
-1,46,0.000987167
-1,47,0.000987167
-1,48,0.000987167
-1,49,0.000987167
-1,50,0.000987167
-1,51,0.000987167
-1,52,0.000987167
-1,53,0.000987167
-1,54,0.000987167
-1,55,0.000987167
-1,56,0.000987167
-1,57,0.000987167
-1,58,0.000987167
-1,59,0.000987167
-1,60,0.000987167
-1,61,0.000987167
-1,62,0.000987167
-1,63,0.000987167
-1,64,0.000987167
-1,65,0.000987167
-1,66,0.000987167
-1,67,0.000987167
-1,68,0.000987167
-1,69,0.000987167
-1,70,0.000987167
-1,71,0.000987167
-1,72,0.000987167
-1,73,0.000987167
-1,74,0.000987167
-1,75,0.000987167
-1,76,0.000987167
-1,77,0.000987167
-1,78,0.000987167
-1,79,0.000987167
-1,80,0.000987167
-1,81,0.000987167
-1,82,0.000987167
-1,83,0.000987167
-1,84,0.000987167
-1,85,0.000987167
-1,86,0.000987167
-1,87,0.000987167
-1,88,0.000987167
-1,89,0.000987167
-1,90,0.000987167
-1,91,0.000987167
-1,92,0.000987167
-1,93,0.000987167
-1,94,0.000987167
-1,95,0.000987167
-1,96,0.000987167
-1,97,0.000987167
-1,98,0.000987167
-1,99,0.000987167
-1,100,0.000987167
-1,101,0.000987167
-1,102,0.000987167
-1,103,0.000987167
-1,104,0.000987167
-1,105,0.000987167
-1,106,0.000987167
-1,107,0.000987167
-1,108,0.000987167
-1,109,0.000987167
-1,110,0.000987167
-1,111,0.000987167
-1,112,0.000987167
-1,113,0.000987167
-1,114,0.000987167
-1,115,0.000987167
-1,116,0.000987167
-1,117,0.000987167
-1,118,0.000987167
-1,119,0.000987167
-1,120,0.000987167
-1,121,0.000987167
-1,122,0.000987167
-1,123,0.000987167
-1,124,0.000987167
-1,125,0.000987167
-1,126,0.000987167
-1,127,0.000987167
-1,128,0.000987167
-1,129,0.000987167
-1,130,0.000987167
-1,131,0.000987167
-1,132,0.000493583
-1,133,0.000493583
-1,134,0.000493583
-1,135,0.000493583
-1,136,0.000493583
-1,137,0.000493583
-1,138,0.000493583
-1,139,0.000493583
-1,140,0.000493583
-1,141,0.000493583
-1,142,0.000493583
-1,143,0.000493583
-1,144,0.000493583
-1,145,0.000493583
-1,146,0.000493583
-1,147,0.000493583
-1,148,0.000493583
-1,149,0.000493583
-1,150,0.000493583
-1,151,0.000493583
-1,152,0.000493583
-1,153,0.000493583
-1,154,0.000493583
-1,155,0.000987167
-1,156,0.000987167
-1,157,0.000987167
-1,158,0.000987167
-1,159,0.000987167
-1,160,0.000987167
-1,161,0.000987167
-1,162,0.000987167
-1,163,0.000987167
-1,164,0.000987167
-1,165,0.000987167
-1,166,0.000987167
-1,167,0.000987167
-1,168,0.000987167
-1,169,0.000987167
-1,170,0.000987167
-1,171,0.000987167
-1,172,0.000987167
-1,173,0.000987167
-1,174,0.000987167
-1,175,0.000987167
-1,176,0.000987167
-1,177,0.000987167
-1,178,0.000987167
-1,179,0.000987167
-1,180,0.000987167
-1,181,0.000987167
-1,182,0.000987167
-1,183,0.000987167
-1,184,0.000987167
-1,185,0.000987167
-1,186,0.000987167
-1,187,0.000987167
-1,188,0.000987167
-1,189,0.000987167
-1,190,0.000987167
-1,191,0.000987167
-1,192,0.000987167
-1,193,0.000987167
-1,194,0.000987167
-1,195,0.000987167
-1,196,0.000987167
-1,197,0.000987167
-1,198,0.000987167
-1,199,0.000987167
-1,200,0.000987167
-1,201,0.000987167
-1,202,0.000987167
-1,203,0.000987167
-1,204,0.000987167
-1,205,0.000987167
-1,206,0.000987167
-1,207,0.000987167
-1,208,0.000987167
-1,209,0.000987167
-1,210,0.000987167
-1,211,0.000987167
-1,212,0.000987167
-1,213,0.000987167
-1,214,0.000987167
-1,215,0.000987167
-1,216,0.000987167
-1,217,0.000987167
-1,218,0.000987167
-1,219,0.000987167
-1,220,0.000987167
-1,221,0.000987167
-1,222,0.000987167
-1,223,0.000987167
-1,224,0.000987167
-1,225,0.000987167
-1,226,0.000987167
-1,227,0.000987167
-1,228,0.000987167
-1,229,0.000987167
-1,230,0.000987167
-1,231,0.000987167
-1,232,0.000987167
-1,233,0.000987167
-1,234,0.000987167
-1,235,0.000987167
-1,236,0.000987167
-1,237,0.000987167
-1,238,0.000987167
-1,239,0.000987167
-1,240,0.000987167
-1,241,0.000987167
-1,242,0.000987167
-1,243,0.000987167
-1,244,0.000987167
-1,245,0.000987167
-1,246,0.000987167
-1,247,0.000987167
-1,248,0.000987167
-1,249,0.000987167
-1,250,0.000987167
-1,251,0.000987167
-1,252,0.000987167
-1,253,0.000987167
-1,254,0.000987167
-1,255,0.000987167
-1,256,0.000987167
-1,257,0.000987167
-1,258,0.000987167
-1,259,0.000987167
-1,260,0.000987167
-1,261,0.000987167
-1,262,0.000987167
-1,263,0.000987167
-1,264,0.000987167
-1,265,0.000987167
-1,266,0.000987167
-1,267,0.000987167
-1,268,0.000987167
-1,269,0.000987167
-1,270,0.000987167
-1,271,0.000987167
-1,272,0.000987167
-1,273,0.000987167
-1,274,0.000987167
-1,275,0.000987167
-1,276,0.000987167
-1,277,0.000987167
-1,278,0.000987167
-1,279,0.000987167
-1,280,0.000987167
-1,281,0.000987167
-1,282,0.000987167
-1,283,0.000987167
-1,284,0.000987167
-1,285,0.000987167
-1,286,0.000987167
-1,287,0.000987167
-1,288,0.000987167
-1,289,0.000987167
-1,290,0.000987167
-1,291,0.000987167
-1,292,0.000987167
-1,293,0.000987167
-1,294,0.000987167
-1,295,0.000987167
-1,296,0.000987167
-1,297,0.000987167
-1,298,0.000987167
-1,299,0.000987167
-1,300,0.000987167
-1,301,0.000987167
-1,302,0.000987167
-1,303,0.000987167
-1,304,0.000987167
-1,305,0.000987167
-1,306,0.000987167
-1,307,0.000987167
-1,308,0.000987167
-1,309,0.000987167
-1,310,0.000987167
-1,311,0.000987167
-1,312,0.000987167
-1,313,0.000987167
-1,314,0.000987167
-1,315,0.000987167
-1,316,0.000987167
-1,317,0.000987167
-1,318,0.000987167
-1,319,0.000987167
-1,320,0.000987167
-1,321,0.000987167
-1,322,0.000987167
-1,323,0.000987167
-1,324,0.000987167
-1,325,0.000987167
-1,326,0.000987167
-1,327,0.000987167
-1,328,0.000987167
-1,329,0.000987167
-1,330,0.000987167
-1,331,0.000987167
-1,332,0.000987167
-1,333,0.000987167
-1,334,0.000987167
-1,335,0.000987167
-1,336,0.000987167
-1,337,0.000987167
-1,338,0.000987167
-1,339,0.000987167
-1,340,0.000987167
-1,341,0.000987167
-1,342,0.000987167
-1,343,0.000987167
-1,344,0.000987167
-1,345,0.000987167
-1,346,0.000987167
-1,347,0.000987167
-1,348,0.000987167
-1,349,0.000987167
-1,350,0.000987167
-1,351,0.000987167
-1,352,0.000987167
-1,353,0.000987167
-1,354,0.000987167
-1,355,0.000987167
-1,356,0.000987167
-1,357,0.000987167
-1,358,0.000987167
-1,359,0.000987167
-1,360,0.000987167
-1,361,0.000987167
-1,362,0.000987167
-1,363,0.000987167
-1,364,0.000987167
-1,365,0.000987167
-1,366,0.000987167
-1,367,0.000987167
-1,368,0.000987167
-1,369,0.000987167
-1,370,0.000987167
-1,371,0.000987167
-1,372,0.000987167
-1,373,0.000987167
-1,374,0.000987167
-1,375,0.000987167
-1,376,0.000987167
-1,377,0.000987167
-1,378,0.000987167
-1,379,0.000987167
-1,380,0.000987167
-1,381,0.000987167
-1,382,0.000987167
-1,383,0.000987167
-1,384,0.000987167
-1,385,0.000987167
-1,386,0.000987167
-1,387,0.000987167
-1,388,0.000987167
-1,389,0.000987167
-1,390,0.000987167
-1,391,0.000987167
-1,392,0.000987167
-1,393,0.000987167
-1,394,0.000987167
-1,395,0.000987167
-1,396,0.000987167
-1,397,0.000987167
-1,398,0.000987167
-1,399,0.000987167
-1,400,0.000987167
-1,401,0.000987167
-1,402,0.000987167
-1,403,0.000987167
-1,404,0.000987167
-1,405,0.000987167
-1,406,0.000987167
-1,407,0.000987167
-1,408,0.000987167
-1,409,0.000987167
-1,410,0.000987167
-1,411,0.000987167
-1,412,0.000987167
-1,413,0.000987167
-1,414,0.000987167
-1,415,0.000987167
-1,416,0.000987167
-1,417,0.000987167
-1,418,0.000987167
-1,419,0.000987167
-1,420,0.000987167
-1,421,0.000987167
-1,422,0.000987167
-1,423,0.000987167
-1,424,0.000987167
-1,425,0.000987167
-1,426,0.000987167
-1,427,0.000987167
-1,428,0.000987167
-1,429,0.000987167
-1,430,0.000987167
-1,431,0.000987167
-1,432,0.000987167
-1,433,0.000987167
-1,434,0.000987167
-1,435,0.000987167
-1,436,0.000987167
-1,437,0.000987167
-1,438,0.000987167
-1,439,0.000987167
-1,440,0.000987167
-1,441,0.000987167
-1,442,0.000987167
-1,443,0.000987167
-1,444,0.000987167
-1,445,0.000987167
-1,446,0.000987167
-1,447,0.000987167
-1,448,0.000987167
-1,449,0.000987167
-1,450,0.000987167
-1,451,0.000987167
-1,452,0.000987167
-1,453,0.000987167
-1,454,0.000987167
-1,455,0.000987167
-1,456,0.000987167
-1,457,0.000987167
-1,458,0.000987167
-1,459,0.000987167
-1,460,0.000987167
-1,461,0.000987167
-1,462,0.000987167
-1,463,0.000987167
-1,464,0.000987167
-1,465,0.000987167
-1,466,0.000987167
-1,467,0.000987167
-1,468,0.000987167
-1,469,0.000987167
-1,470,0.000987167
-1,471,0.000987167
-1,472,0.000987167
-1,473,0.000987167
-1,474,0.000987167
-1,475,0.000987167
-1,476,0.000987167
-1,477,0.000987167
-1,478,0.000987167
-1,479,0.000987167
-1,480,0.000987167
-1,481,0.000987167
-1,482,0.000987167
-1,483,0.000987167
-1,484,0.000987167
-1,485,0.000987167
-1,486,0.000987167
-1,487,0.000987167
-1,488,0.000987167
-1,489,0.000987167
-1,490,0.000987167
-1,491,0.000987167
-1,492,0.000987167
-1,493,0.000987167
-1,494,0.000987167
-1,495,0.000987167
-1,496,0.000987167
-1,497,0.000987167
-1,498,0.000987167
-1,499,0.000987167
-1,500,0.000987167
-1,501,0.000987167
-1,502,0.000987167
-1,503,0.000987167
-1,504,0.000987167
-1,505,0.000987167
-1,506,0.000987167
-1,507,0.000987167
-1,508,0.000987167
-1,509,0.000987167
-1,510,0.000987167
-1,511,0.000987167
-1,512,0.000987167
-1,513,0.000987167
-1,514,0.000987167
-1,515,0.000987167
-1,516,0.000987167
-1,517,0.000987167
-1,518,0.000987167
-1,519,0.000987167
-1,520,0.000987167
-1,521,0.000987167
-1,522,0.000987167
-1,523,0.000987167
-1,524,0.000987167
-1,525,0.000987167
-1,526,0.000987167
-1,527,0.000987167
-1,528,0.000987167
-1,529,0.000987167
-1,530,0.000987167
-1,531,0.000987167
-1,532,0.000987167
-1,533,0.000987167
-1,534,0.000987167
-1,535,0.000987167
-1,536,0.000987167
-1,537,0.000987167
-1,538,0.000987167
-1,539,0.000987167
-1,540,0.000987167
-1,541,0.000987167
-1,542,0.000987167
-1,543,0.000987167
-1,544,0.000987167
-1,545,0.000987167
-1,546,0.000987167
-1,547,0.000987167
-1,548,0.000987167
-1,549,0.000987167
-1,550,0.000987167
-1,551,0.000987167
-1,552,0.000987167
-1,553,0.000987167
-1,554,0.000987167
-1,555,0.000987167
-1,556,0.000987167
-1,557,0.000987167
-1,558,0.000987167
-1,559,0.000987167
-1,560,0.000987167
-1,561,0.000987167
-1,562,0.000987167
-1,563,0.000987167
-1,564,0.000987167
-1,565,0.000987167
-1,566,0.000987167
-1,567,0.000987167
-1,568,0.000987167
-1,569,0.000987167
-1,570,0.000987167
-1,571,0.000987167
-1,572,0.000987167
-1,573,0.000987167
-1,574,0.000987167
-1,575,0.000987167
-1,576,0.000987167
-1,577,0.000987167
-1,578,0.000987167
-1,579,0.000987167
-1,580,0.000987167
-1,581,0.000987167
-1,582,0.000987167
-1,583,0.000987167
-1,584,0.000987167
-1,585,0.000987167
-1,586,0.000987167
-1,587,0.000987167
-1,588,0.000987167
-1,589,0.000987167
-1,590,0.000987167
-1,591,0.000987167
-1,592,0.000987167
-1,593,0.000987167
-1,594,0.000987167
-1,595,0.000987167
-1,596,0.000987167
-1,597,0.000987167
-1,598,0.000987167
-1,599,0.000987167
-1,600,0.000987167
-1,601,0.000987167
-1,602,0.000987167
-1,603,0.000987167
-1,604,0.000987167
-1,605,0.000987167
-1,606,0.000987167
-1,607,0.000987167
-1,608,0.000987167
-1,609,0.000987167
-1,610,0.000987167
-1,611,0.000987167
-1,612,0.000987167
-1,613,0.000987167
-1,614,0.000987167
-1,615,0.000987167
-1,616,0.000987167
-1,617,0.000987167
-1,618,0.000987167
-1,619,0.000987167
-1,620,0.000987167
-1,621,0.000987167
-1,622,0.000987167
-1,623,0.000987167
-1,624,0.000987167
-1,625,0.000987167
-1,626,0.000987167
-1,627,0.000987167
-1,628,0.000987167
-1,629,0.000987167
-1,630,0.000987167
-1,631,0.000987167
-1,632,0.000987167
-1,633,0.000987167
-1,634,0.000987167
-1,635,0.000987167
-1,636,0.000987167
-1,637,0.000987167
-1,638,0.000987167
-1,639,0.000987167
-1,640,0.000987167
-1,641,0.000987167
-1,642,0.000987167
-1,643,0.000987167
-1,644,0.000987167
-1,645,0.000987167
-1,646,0.000987167
-1,647,0.000987167
-1,648,0.000987167
-1,649,0.000987167
-1,650,0.000987167
-1,651,0.000987167
-1,652,0.000987167
-1,653,0.000987167
-1,654,0.000987167
-1,655,0.000987167
-1,656,0.000987167
-1,657,0.000987167
-1,658,0.000987167
-1,659,0.000987167
-1,660,0.000987167
-1,661,0.000987167
-1,662,0.000987167
-1,663,0.000987167
-1,664,0.000987167
-1,665,0.000987167
-1,666,0.000987167
-1,667,0.000987167
-1,668,0.000987167
-1,669,0.000987167
-1,670,0.000987167
-1,671,0.000987167
-1,672,0.000987167
-1,673,0.000987167
-1,674,0.000987167
-1,675,0.000987167
-1,676,0.000987167
-1,677,0.000987167
-1,678,0.000987167
-1,679,0.000987167
-1,680,0.000987167
-1,681,0.000987167
-1,682,0.000987167
-1,683,0.000987167
-1,684,0.000987167
-1,685,0.000987167
-1,686,0.000987167
-1,687,0.000987167
-1,688,0.000987167
-1,689,0.000987167
-1,690,0.000987167
-1,691,0.000987167
-1,692,0.000987167
-1,693,0.000987167
-1,694,0.000987167
-1,695,0.000987167
-1,696,0.000987167
-1,697,0.000987167
-1,698,0.000987167
-1,699,0.000987167
-1,700,0.000987167
-1,701,0.000987167
-1,702,0.000987167
-1,703,0.000987167
-1,704,0.000987167
-1,705,0.000987167
-1,706,0.000987167
-1,707,0.000987167
-1,708,0.000987167
-1,709,0.000987167
-1,710,0.000987167
-1,711,0.000987167
-1,712,0.000987167
-1,713,0.000987167
-1,714,0.000987167
-1,715,0.000987167
-1,716,0.000987167
-1,717,0.000987167
-1,718,0.000987167
-1,719,0.000987167
-1,720,0.000987167
-1,721,0.000987167
-1,722,0.000987167
-1,723,0.000987167
-1,724,0.000987167
-1,725,0.000987167
-1,726,0.000987167
-1,727,0.000987167
-1,728,0.000987167
-1,729,0.000987167
-1,730,0.000987167
-1,731,0.000987167
-1,732,0.000987167
-1,733,0.000987167
-1,734,0.000987167
-1,735,0.000987167
-1,736,0.000987167
-1,737,0.000987167
-1,738,0.000987167
-1,739,0.000987167
-1,740,0.000987167
-1,741,0.000987167
-1,742,0.000987167
-1,743,0.000987167
-1,744,0.000987167
-1,745,0.000987167
-1,746,0.000987167
-1,747,0.000987167
-1,748,0.000987167
-1,749,0.000987167
-1,750,0.000987167
-1,751,0.000987167
-1,752,0.000987167
-1,753,0.000987167
-1,754,0.000987167
-1,755,0.000987167
-1,756,0.000987167
-1,757,0.000987167
-1,758,0.000987167
-1,759,0.000987167
-1,760,0.000987167
-1,761,0.000987167
-1,762,0.000987167
-1,763,0.000987167
-1,764,0.000987167
-1,765,0.000987167
-1,766,0.000987167
-1,767,0.000987167
-1,768,0.000987167
-1,769,0.000987167
-1,770,0.000987167
-1,771,0.000987167
-1,772,0.000987167
-1,773,0.000987167
-1,774,0.000987167
-1,775,0.000987167
-1,776,0.000987167
-1,777,0.000987167
-1,778,0.000987167
-1,779,0.000987167
-1,780,0.000987167
-1,781,0.000987167
-1,782,0.000987167
-1,783,0.000987167
-1,784,0.000987167
-1,785,0.000987167
-1,786,0.000987167
-1,787,0.000987167
-1,788,0.000987167
-1,789,0.000987167
-1,790,0.000987167
-1,791,0.000987167
-1,792,0.000987167
-1,793,0.000987167
-1,794,0.000987167
-1,795,0.000987167
-1,796,0.000987167
-1,797,0.000987167
-1,798,0.000987167
-1,799,0.000987167
-1,800,0.000987167
-1,801,0.000987167
-1,802,0.000987167
-1,803,0.000987167
-1,804,0.000987167
-1,805,0.000987167
-1,806,0.000987167
-1,807,0.000987167
-1,808,0.000987167
-1,809,0.000987167
-1,810,0.000987167
-1,811,0.000987167
-1,812,0.000987167
-1,813,0.000987167
-1,814,0.000987167
-1,815,0.000987167
-1,816,0.000987167
-1,817,0.000987167
-1,818,0.000987167
-1,819,0.000987167
-1,820,0.000987167
-1,821,0.000987167
-1,822,0.000987167
-1,823,0.000987167
-1,824,0.000987167
-1,825,0.000987167
-1,826,0.000987167
-1,827,0.000987167
-1,828,0.000987167
-1,829,0.000987167
-1,830,0.000987167
-1,831,0.000987167
-1,832,0.000987167
-1,833,0.000987167
-1,834,0.000987167
-1,835,0.000987167
-1,836,0.000987167
-1,837,0.000987167
-1,838,0.000987167
-1,839,0.000987167
-1,840,0.000987167
-1,841,0.000987167
-1,842,0.000987167
-1,843,0.000987167
-1,844,0.000987167
-1,845,0.000987167
-1,846,0.000987167
-1,847,0.000987167
-1,848,0.000987167
-1,849,0.000987167
-1,850,0.000987167
-1,851,0.000987167
-1,852,0.000987167
-1,853,0.000987167
-1,854,0.000987167
-1,855,0.000987167
-1,856,0.000987167
-1,857,0.000987167
-1,858,0.000987167
-1,859,0.000987167
-1,860,0.000987167
-1,861,0.000987167
-1,862,0.000987167
-1,863,0.000987167
-1,864,0.000987167
-1,865,0.000987167
-1,866,0.000987167
-1,867,0.000987167
-1,868,0.000987167
-1,869,0.000987167
-1,870,0.000987167
-1,871,0.000987167
-1,872,0.000987167
-1,873,0.000987167
-1,874,0.000987167
-1,875,0.000987167
-1,876,0.000987167
-1,877,0.000987167
-1,878,0.000987167
-1,879,0.000987167
-1,880,0.000987167
-1,881,0.000987167
-1,882,0.000987167
-1,883,0.000987167
-1,884,0.000987167
-1,885,0.000987167
-1,886,0.000987167
-1,887,0.000987167
-1,888,0.000987167
-1,889,0.000987167
-1,890,0.000987167
-1,891,0.000987167
-1,892,0.000987167
-1,893,0.000987167
-1,894,0.000987167
-1,895,0.000987167
-1,896,0.000987167
-1,897,0.000987167
-1,898,0.000987167
-1,899,0.000987167
-1,900,0.000987167
-1,901,0.000987167
-1,902,0.000987167
-1,903,0.000987167
-1,904,0.000987167
-1,905,0.000987167
-1,906,0.000987167
-1,907,0.000987167
-1,908,0.000987167
-1,909,0.000987167
-1,910,0.000987167
-1,911,0.000987167
-1,912,0.000987167
-1,913,0.000987167
-1,914,0.000987167
-1,915,0.000987167
-1,916,0.000987167
-1,917,0.000987167
-1,918,0.000987167
-1,919,0.000987167
-1,920,0.000987167
-1,921,0.000987167
-1,922,0.000987167
-1,923,0.000987167
-1,924,0.000987167
-1,925,0.000987167
-1,926,0.000987167
-1,927,0.000987167
-1,928,0.000987167
-1,929,0.000987167
-1,930,0.000987167
-1,931,0.000987167
-1,932,0.000987167
-1,933,0.000987167
-1,934,0.000987167
-1,935,0.000987167
-1,936,0.000987167
-1,937,0.000987167
-1,938,0.000987167
-1,939,0.000987167
-1,940,0.000987167
-1,941,0.000987167
-1,942,0.000987167
-1,943,0.000987167
-1,944,0.000987167
-1,945,0.000987167
-1,946,0.000987167
-1,947,0.000987167
-1,948,0.000987167
-1,949,0.000987167
-1,950,0.000987167
-1,951,0.000987167
-1,952,0.000987167
-1,953,0.000987167
-1,954,0.000987167
-1,955,0.000987167
-1,956,0.000987167
-1,957,0.000987167
-1,958,0.000987167
-1,959,0.000987167
-1,960,0.000987167
-1,961,0.000987167
-1,962,0.000987167
-1,963,0.000987167
-1,964,0.000987167
-1,965,0.000987167
-1,966,0.000987167
-1,967,0.000987167
-1,968,0.000987167
-1,969,0.000987167
-1,970,0.000987167
-1,971,0.000987167
-1,972,0.000987167
-1,973,0.000987167
-1,974,0.000987167
-1,975,0.000987167
-1,976,0.000987167
-1,977,0.000987167
-1,978,0.000987167
-1,979,0.000987167
-1,980,0.000987167
-1,981,0.000987167
-1,982,0.000987167
-1,983,0.000987167
-1,984,0.000987167
-1,985,0.000987167
-1,986,0.000987167
-1,987,0.000987167
-1,988,0.000987167
-1,989,0.000987167
-1,990,0.000987167
-1,991,0.000987167
-1,992,0.000987167
-1,993,0.000987167
-1,994,0.000987167
-1,995,0.000987167
-1,996,0.000987167
-1,997,0.000987167
-1,998,0.000987167
-1,999,0.000987167
-1,1000,0.000987167
-1,1001,0.000987167
-1,1002,0.000987167
-1,1003,0.000987167
-1,1004,0.000987167
-1,1005,0.000987167
-1,1006,0.000987167
-1,1007,0.000987167
-1,1008,0.000987167
-1,1009,0.000987167
-1,1010,0.000987167
-1,1011,0.000987167
-1,1012,0.000987167
-1,1013,0.000987167
-1,1014,0.000987167
-1,1015,0.000987167
-1,1016,0.000987167
-1,1017,0.000987167
-1,1018,0.000987167
-1,1019,0.000987167
-1,1020,0.000987167
-1,1021,0.000987167
-1,1022,0.000987167
-1,1023,0.000987167
