0,0,119,644343.764706,220381.596639,1299395.344538,66516.747899,8049.361345,649244.823529,11242.126742,3438.779841,83066.958555,1335.165506,608.881268,41525.259177
0,1,0,-nan,-nan,-nan,-nan,-nan,-nan,-nan,-nan,-nan,-nan,-nan,-nan
1,0,118,643545.525424,220155.457627,1296645.576271,66477.084746,8052.516949,647875.974576,9168.888742,2499.670309,74201.604901,1247.186804,637.962856,37065.483906
1,1,0,-nan,-nan,-nan,-nan,-nan,-nan,-nan,-nan,-nan,-nan,-nan,-nan
2,0,118,644066.720339,220289.237288,1290946.186441,66538.203390,8034.152542,644998.228814,8775.348961,2518.745321,77609.796565,1180.329784,586.752231,38752.321967
2,1,0,-nan,-nan,-nan,-nan,-nan,-nan,-nan,-nan,-nan,-nan,-nan,-nan
3,0,118,643608.423729,220219.364407,1297358.406780,66448.118644,8047.364407,648218.711864,8195.485188,2204.441909,72880.191856,979.105595,634.906595,36428.918459
3,1,0,-nan,-nan,-nan,-nan,-nan,-nan,-nan,-nan,-nan,-nan,-nan,-nan
4,0,118,643939.957627,220390.771186,1300001.677966,66556.593220,8078.347458,649540.593220,8159.601197,2286.937933,72373.709923,1044.463111,576.714899,36165.761479
4,1,0,-nan,-nan,-nan,-nan,-nan,-nan,-nan,-nan,-nan,-nan,-nan,-nan
5,0,118,644181.991525,220293.025424,1297070.398305,66513.042373,8020.830508,648077.127119,10303.483572,2880.508490,72769.190313,1281.601470,643.174796,36363.489965
5,1,0,-nan,-nan,-nan,-nan,-nan,-nan,-nan,-nan,-nan,-nan,-nan,-nan
6,0,118,644589.533898,220545.449153,1284573.118644,66582.313559,8057.127119,641807.864407,9523.008536,2947.355855,78167.330927,1164.149837,592.305086,39064.410132
6,1,0,-nan,-nan,-nan,-nan,-nan,-nan,-nan,-nan,-nan,-nan,-nan,-nan
7,0,118,646613.355932,220890.745763,1296914.279661,66888.779661,8115.847458,648006.474576,11805.054944,3321.227268,87572.636731,1585.145992,679.508691,43798.147606
7,1,0,-nan,-nan,-nan,-nan,-nan,-nan,-nan,-nan,-nan,-nan,-nan,-nan
8,0,118,644085.483051,220358.932203,1300891.652542,66521.635593,8034.627119,650007.932203,9368.233619,2649.211385,86625.732468,1093.457133,612.859452,43300.872139
8,1,0,-nan,-nan,-nan,-nan,-nan,-nan,-nan,-nan,-nan,-nan,-nan,-nan
9,0,118,645747.601695,220683.889831,1287183.440678,66741.949153,8053.923729,643110.457627,9829.395280,2886.338129,74986.861479,1280.908151,626.333901,37469.588074
9,1,0,-nan,-nan,-nan,-nan,-nan,-nan,-nan,-nan,-nan,-nan,-nan,-nan
10,0,119,644297.680672,220338.084034,1290940.857143,66525.781513,8045.563025,644983.873950,9004.840680,2688.489609,82226.599533,1122.492673,659.920222,41105.633489
10,1,0,-nan,-nan,-nan,-nan,-nan,-nan,-nan,-nan,-nan,-nan,-nan,-nan
11,0,119,643246.806723,220018.672269,1288852.966387,66334.663866,7947.815126,644002.042017,9425.785339,2779.342665,70538.749414,1093.894955,581.520941,35284.042606
11,1,0,-nan,-nan,-nan,-nan,-nan,-nan,-nan,-nan,-nan,-nan,-nan,-nan
12,0,119,644223.714286,220452.008403,1288784.714286,66523.705882,7990.571429,643918.512605,9392.599346,2930.126302,68930.348321,1136.988831,607.525185,34486.653172
12,1,0,-nan,-nan,-nan,-nan,-nan,-nan,-nan,-nan,-nan,-nan,-nan,-nan
13,0,119,645700.386555,220720.327731,1297993.184874,66739.714286,8096.840336,648524.714286,10380.588613,2874.325763,74441.002463,1290.818496,628.813141,37174.916751
13,1,0,-nan,-nan,-nan,-nan,-nan,-nan,-nan,-nan,-nan,-nan,-nan,-nan
14,0,119,645300.436975,220652.134454,1290360.252101,66649.168067,8045.613445,644728.092437,10646.735782,3112.041355,84912.548492,1317.871778,690.000866,42424.431956
14,1,0,-nan,-nan,-nan,-nan,-nan,-nan,-nan,-nan,-nan,-nan,-nan,-nan
15,0,221,643389.710407,220394.122172,1284478.361991,66552.352941,8012.574661,641759.502262,8801.773595,2468.577801,82120.131392,1090.850348,641.011206,41061.629901
15,1,0,-nan,-nan,-nan,-nan,-nan,-nan,-nan,-nan,-nan,-nan,-nan,-nan
