-1,0,0.0305281
-1,1,0.029703
-1,2,0.029703
-1,3,0.029703
-1,4,0.029703
-1,5,0.029703
-1,6,0.029703
-1,7,0.029703
-1,8,0.029703
-1,9,0.029703
-1,10,0.029703
-1,11,0.029703
-1,12,0.029703
-1,13,0.029703
-1,14,0.0305281
-1,15,0.0305281
-1,16,0.0305281
-1,17,0.0305281
-1,18,0.0305281
-1,19,0.0305281
-1,20,0.0305281
-1,21,0.0305281
-1,22,0.0305281
-1,23,0.0305281
-1,24,0.0305281
-1,25,0.0305281
-1,26,0.0305281
-1,27,0.0305281
-1,28,0.0305281
-1,29,0.0305281
-1,30,0.0305281
-1,31,0.0643564
3,0,0.0313676
3,1,0.0301129
3,2,0.0301129
3,3,0.0301129
3,4,0.0313676
3,5,0.0313676
3,6,0.0313676
3,7,0.0313676
3,8,0.0313676
3,9,0.0313676
3,10,0.0313676
3,11,0.0313676
3,12,0.0313676
3,13,0.0313676
3,14,0.0313676
3,15,0.0313676
3,16,0.0313676
3,17,0.0313676
3,18,0.0313676
3,19,0.0313676
3,20,0.0313676
3,21,0.0313676
3,22,0.0313676
3,23,0.0313676
3,24,0.0313676
3,25,0.0313676
3,26,0.0313676
3,27,0.0313676
3,28,0.0313676
3,29,0.0313676
3,30,0.0313676
3,31,0.0313676
