0,0,5,659002.000000,226365.200000,1267264.800000,67875.000000,7604.200000,633546.800000,25809.907020,8684.083887,40626.534823,2284.173286,568.093443,20288.894838
0,1,13,716629.076923,250841.076923,1395543.769231,74734.000000,9522.615385,697791.769231,13759.818690,4514.966896,65663.201309,1168.277167,460.315534,32860.449215
1,0,4,642332.750000,220043.750000,1288048.000000,66636.500000,7818.500000,644023.000000,8798.571713,2060.144943,58326.635609,1509.215276,914.564787,29174.103268
1,1,12,715914.666667,250072.750000,1386734.833333,74893.500000,9561.583333,693328.333333,9220.142753,1882.441328,68128.651842,1176.146214,596.723758,34059.273841
2,0,4,638378.500000,219385.250000,1258415.000000,65954.750000,7548.750000,629144.000000,1206.460629,230.576858,65120.714297,138.474501,498.929542,32612.086847
2,1,12,711759.250000,249262.500000,1402062.333333,74295.250000,9432.000000,700961.750000,4427.929391,980.947714,94423.137815,444.276964,630.927096,47146.907020
3,0,4,644313.750000,221026.750000,1293216.250000,67068.000000,8201.250000,646503.250000,7554.034266,1492.635484,31316.713520,1172.622275,306.464007,15636.419705
3,1,12,713933.500000,249650.166667,1378203.166667,74594.583333,9595.500000,689058.333333,6496.809839,1687.400754,42525.184599,974.047437,596.438667,21240.182318
4,0,4,639491.250000,219524.000000,1330185.250000,66049.500000,8484.250000,665028.500000,3271.844310,411.067513,113925.050462,224.794907,524.149967,57017.326728
4,1,12,715157.666667,249620.416667,1418427.583333,74661.250000,9528.916667,709170.583333,8096.340370,1862.517313,47217.342763,1209.597256,468.610794,23598.807934
5,0,4,644503.500000,220248.500000,1252818.500000,66659.750000,8154.000000,626384.000000,9425.631981,2098.857606,32162.077253,1505.999730,826.296254,16048.157324
5,1,12,711753.000000,249146.166667,1386831.833333,74351.583333,9396.583333,693352.750000,6893.092617,1692.848774,36357.090193,951.583545,719.501269,18169.408292
6,0,4,636538.250000,219065.500000,1268533.000000,65873.500000,7727.500000,634191.750000,2525.237848,619.074107,85080.074615,253.533528,550.836863,42586.683672
6,1,12,712694.166667,249352.416667,1389902.916667,74359.333333,9512.166667,694956.833333,2108.999124,972.850148,65566.713301,448.473770,606.215423,32784.933287
7,0,4,637670.500000,219658.250000,1276329.500000,66137.000000,8112.750000,638118.500000,2244.385272,818.343563,48374.905548,341.487189,491.338160,24137.067402
7,1,12,712172.166667,249468.666667,1434066.500000,74410.250000,9583.500000,716939.500000,4820.965945,1213.070164,102914.796162,577.602101,434.964079,51426.360281
8,0,4,639136.500000,219976.500000,1296937.000000,66296.500000,8279.250000,648414.750000,2127.343237,543.263058,23937.589718,299.423195,628.712325,11997.986506
8,1,12,714658.500000,249912.083333,1397002.000000,74803.500000,9580.833333,698513.250000,7139.985977,1615.835875,52318.471708,1127.339604,469.439175,26143.841276
9,0,4,636397.500000,219142.500000,1273076.750000,65881.000000,7959.750000,636500.000000,1728.112048,621.068635,18536.411902,231.356867,425.448807,9245.968121
9,1,12,711068.666667,248986.666667,1375695.000000,74163.250000,9445.083333,687807.166667,2630.208209,677.625798,60364.320552,351.312569,542.151033,30123.917681
10,0,4,639855.250000,219756.250000,1294419.000000,66217.250000,8553.000000,647133.000000,4036.284453,1123.649940,57062.819660,526.695061,524.535985,28587.997027
10,1,12,713297.333333,249445.583333,1402792.250000,74475.166667,9694.750000,701276.333333,7867.251101,1300.573621,77813.163302,980.392254,668.079602,38826.016268
11,0,4,644422.500000,220493.000000,1363491.500000,66787.500000,8684.250000,681644.000000,7080.163716,2138.794403,92124.713792,1509.610297,446.592306,46048.750314
11,1,12,712901.833333,249868.916667,1379474.583333,74451.166667,9453.333333,689677.916667,7394.382055,2709.542257,80999.126494,774.208180,468.670875,40502.936185
12,0,4,638283.000000,219548.000000,1331056.750000,66111.000000,8124.250000,665625.750000,2963.948633,800.607582,69051.493041,380.911407,196.884960,34662.491986
12,1,12,712631.750000,249382.833333,1438044.583333,74456.166667,9953.833333,718980.250000,5493.804467,1256.349927,131790.241160,891.682850,659.665930,65981.749022
13,0,4,637229.500000,219332.250000,1211446.250000,65942.500000,7654.750000,605691.250000,3418.179523,459.356275,31883.553397,144.956028,511.869307,15963.283659
13,1,12,712296.916667,249105.583333,1423469.166667,74331.000000,9774.083333,711743.666667,6778.961234,1397.477696,74702.863684,1018.548068,509.774698,37416.462467
14,0,4,645432.750000,221315.000000,1264161.000000,67133.500000,7957.500000,632078.500000,8674.749604,1785.107140,24777.714332,1257.154028,414.124076,12406.355115
14,1,12,713490.166667,249997.500000,1452473.166667,74717.083333,9784.500000,726105.833333,6018.586418,1570.842157,74330.537180,831.811924,407.685234,37032.564903
15,0,4,645300.750000,220568.750000,1267912.000000,66751.250000,7632.750000,633948.750000,9081.253283,1920.933286,57851.477220,1377.533371,684.981158,28936.920295
15,1,12,713584.333333,249738.666667,1375362.083333,74708.000000,9458.916667,687614.166667,7859.414242,1917.279858,56478.321243,1258.728327,381.133498,28149.578987
16,0,4,641690.000000,219684.000000,1263552.250000,66052.750000,8013.750000,631635.250000,2538.528412,445.326285,52599.051143,116.282791,637.211650,26129.239315
16,1,12,710449.583333,249275.916667,1440313.583333,74309.333333,9831.250000,720174.250000,3749.540026,1007.873294,105544.925442,360.676063,622.628317,52759.940285
17,0,4,645708.250000,220659.750000,1195994.750000,66841.750000,7619.250000,597951.750000,12067.532668,2142.065986,30392.602014,1507.300629,608.042094,15182.369452
17,1,12,714141.666667,249884.333333,1443522.833333,74773.916667,9887.750000,721707.916667,8818.236401,1732.836083,134461.366892,1324.550959,812.933589,67205.318167
18,0,4,653024.000000,222692.500000,1288341.250000,67474.750000,7891.500000,644106.750000,19542.717685,5680.059881,87911.699271,2483.087531,590.228981,43951.831323
18,1,12,714717.583333,250624.250000,1394881.916667,74677.250000,9602.666667,697294.083333,8529.136000,3027.330401,66644.041711,962.539188,396.979289,33211.134713
19,0,4,645848.750000,220599.500000,1265829.250000,66851.500000,7931.000000,632895.000000,8497.256804,2139.512853,29321.325741,1442.362732,204.374656,14627.658237
19,1,12,711615.083333,249383.083333,1390909.666667,74450.666667,9729.333333,695405.333333,6377.902744,1653.561785,111770.496621,939.947191,607.018579,55894.558843
20,0,4,642804.250000,219818.500000,1266876.500000,66234.250000,8061.750000,633380.500000,1547.604338,810.008796,37179.934901,298.880725,465.626124,18613.252087
20,1,12,719000.583333,251226.333333,1413048.250000,75344.166667,9691.833333,706387.333333,12696.075466,3557.273402,83515.574138,1711.508634,728.153696,41695.618635
21,0,4,638300.750000,219089.750000,1248211.000000,65901.500000,8080.000000,624025.750000,2439.935283,465.115241,25642.372082,206.741989,290.675936,12832.774824
21,1,12,714833.666667,249815.083333,1408678.833333,74641.583333,9710.500000,704247.666667,7825.551741,1670.990897,70042.069547,884.243599,588.820077,34913.337588
22,0,4,639151.750000,219505.000000,1283305.500000,66085.750000,8185.750000,641547.250000,2905.506787,946.760529,131078.872665,475.798999,885.034286,65567.896094
22,1,12,715346.583333,249563.333333,1378303.916667,74655.000000,9747.000000,689001.583333,10285.184591,1897.496918,85004.250591,1131.933891,663.660933,42372.140074
23,0,4,644160.500000,220375.250000,1274456.000000,66786.000000,7855.750000,637170.750000,9747.359194,1909.587308,57192.172878,1364.928203,664.165407,28557.276738
23,1,12,711887.166667,248959.083333,1387647.500000,74145.416667,9664.916667,693790.166667,4135.781140,738.412538,59751.255271,425.949813,306.517661,29900.701324
24,0,4,647460.250000,221093.250000,1266934.000000,67103.750000,8054.000000,633380.000000,9718.639909,1411.500332,46232.890862,1221.231218,662.907610,23178.983897
24,1,12,715078.083333,249721.416667,1427798.250000,74669.916667,9874.000000,713902.916667,9204.091911,1678.110369,78150.654869,1271.991513,671.896197,39051.063322
25,0,4,642794.000000,220605.000000,1291435.500000,66486.500000,8143.500000,645644.250000,2604.603905,841.286218,43402.634980,337.180590,563.206223,21671.515041
25,1,12,712286.666667,249139.583333,1403414.333333,74353.166667,9583.583333,701667.750000,5455.451224,1585.335372,41725.777351,935.611105,489.037227,20869.201499
26,0,4,646364.500000,221100.750000,1258916.000000,67161.750000,7882.500000,629429.000000,12370.454670,2398.931781,82752.997701,1705.399568,539.328518,41393.487658
26,1,12,712096.833333,249170.583333,1432169.250000,74259.083333,9751.500000,716017.916667,3027.513689,1022.114186,65245.733959,488.012373,473.260763,32591.658556
27,0,3,640985.333333,219332.666667,1323520.333333,65955.333333,8328.666667,661780.333333,2115.089491,675.177672,87043.140761,207.904358,370.005706,43538.926586
27,1,12,716473.750000,250183.750000,1425135.916667,75038.333333,9818.666667,712372.583333,10943.956621,2249.358839,66202.592700,1465.480429,821.016274,32925.860711
28,0,3,639894.666667,219421.000000,1293590.333333,65955.333333,8109.666667,646778.666667,2715.923948,617.683306,15149.090101,230.138123,221.955451,7499.186904
28,1,12,712716.666667,249149.833333,1407224.583333,74246.166667,9432.666667,703603.083333,3125.110807,618.718007,57980.152655,432.736608,571.922829,28905.485781
29,0,3,641492.666667,219984.000000,1229211.000000,66297.000000,7859.333333,614363.000000,4429.720257,1252.816294,53469.110827,627.688352,674.562739,26942.354067
29,1,12,712817.750000,249105.750000,1438629.416667,74226.750000,9671.083333,719227.333333,2739.833849,959.060489,112518.065608,383.820949,925.506659,56145.838629
30,0,3,642641.000000,220239.666667,1282204.000000,66355.333333,7969.666667,641072.666667,4139.287861,1034.169662,5344.325277,490.370155,593.881208,2669.406468
30,1,12,712894.083333,249204.083333,1437857.500000,74259.333333,9663.083333,718885.333333,3779.891124,996.980897,60586.200639,449.038108,487.712425,30287.352868
31,0,3,638774.666667,219284.000000,1314028.333333,65959.000000,7824.333333,657043.333333,3495.418557,454.288455,18656.833196,146.485494,608.183269,9365.748247
31,1,12,716342.166667,249960.083333,1432843.833333,74929.083333,9622.083333,716394.083333,8834.275351,1930.549121,89373.604486,1451.395906,730.564104,44708.353704
32,0,3,638702.000000,218979.333333,1223263.333333,65828.333333,7613.000000,611617.666667,3949.344334,453.847503,70414.731727,253.201281,412.097885,35192.529116
32,1,12,715690.833333,249761.250000,1433751.250000,74727.500000,9981.166667,716735.916667,8186.298867,1808.338331,79741.669679,1334.668592,744.504738,39783.073472
33,0,3,644735.000000,220555.666667,1282214.000000,66514.666667,8176.333333,641039.333333,2276.129610,813.994403,44722.808148,343.379609,283.198792,22287.298047
33,1,12,711635.333333,248904.416667,1435043.750000,74143.583333,9862.750000,717543.250000,2671.225946,670.845295,108605.922663,219.738655,631.666595,54319.651981
34,0,3,640529.666667,219566.000000,1192552.666667,66147.666667,7962.333333,596195.333333,4393.039520,1107.494770,45753.520173,544.748464,796.461480,22797.043921
34,1,12,714163.250000,249684.250000,1392306.666667,74590.416667,9584.250000,696096.000000,5898.390941,1474.613177,62017.394786,852.697822,424.750343,31023.583784
35,0,3,641571.666667,220330.666667,1243814.333333,66412.333333,8155.333333,621882.000000,1135.807887,919.469533,39995.249471,377.806241,349.228038,19972.151478
35,1,12,712280.833333,249230.750000,1422970.250000,74365.750000,9916.666667,711434.833333,6221.050016,1304.923122,70897.239252,902.425632,652.819696,35487.944410
36,0,3,637231.000000,218560.333333,1239788.333333,65735.333333,7778.333333,619894.000000,1355.334153,498.759350,70652.597411,163.758630,590.628103,35361.020244
36,1,12,715821.666667,249899.166667,1400315.750000,74770.833333,9853.333333,700146.250000,6553.903917,1541.667703,86235.952633,1203.114419,593.635457,43138.629636
37,0,3,646335.666667,221090.000000,1284582.000000,67236.333333,7909.333333,642186.000000,8574.570828,2128.191251,81011.704714,1466.281540,528.667087,40559.087818
37,1,12,713853.166667,249924.666667,1365542.750000,74686.250000,9682.666667,682705.833333,6373.631001,1274.614604,71440.431739,835.213458,490.593065,35680.939122
38,0,3,639845.000000,219862.000000,1378281.333333,66212.000000,8262.333333,688997.666667,2039.405796,922.045914,141632.117531,407.689424,854.808491,70724.948627
38,1,12,716522.166667,249981.750000,1372441.333333,74941.250000,9740.916667,686148.333333,10927.137738,2287.003138,79253.081782,1450.448846,722.417061,39550.504599
39,0,3,638329.333333,219386.333333,1264200.666667,65973.666667,8041.666667,631959.666667,1861.090063,90.753635,93278.702129,121.768451,471.693639,46555.833185
39,1,12,711970.666667,249108.750000,1379184.500000,74297.333333,9475.750000,689558.083333,6539.050866,1364.434994,116834.144995,847.135303,657.204322,58420.467042
40,0,3,638109.666667,219454.000000,1314229.666667,66051.666667,8170.333333,657060.000000,1382.237880,1142.083476,20087.378082,499.247656,180.008025,10021.422487
40,1,12,715770.833333,250062.000000,1382086.333333,74838.916667,9709.333333,690974.750000,7574.600736,1988.289843,68774.992618,1199.451365,614.604932,34389.523735
41,0,3,640901.666667,219513.333333,1242796.000000,66019.333333,7346.666667,621442.333333,1982.375903,507.498659,42652.581782,112.505802,249.947106,21323.252431
41,1,12,713402.166667,249596.333333,1378291.250000,74503.083333,9699.916667,689169.500000,6415.488911,1565.699808,59394.207375,923.419231,521.631488,29722.539681
42,0,3,646576.333333,220732.333333,1304561.666667,67047.000000,7969.333333,652201.000000,12635.150450,2110.108423,68481.654041,1587.648786,684.953689,34161.070212
42,1,13,712489.923077,249340.769231,1393222.384615,74337.000000,9387.769231,696592.923077,4986.185307,1317.871778,102640.280915,758.211255,702.867659,51331.324634
43,0,3,650555.000000,223547.000000,1316930.333333,67490.666667,7722.666667,658410.666667,13645.789851,5254.694346,33512.968080,1657.822132,196.184154,16738.290600
43,1,13,714015.769231,249864.615385,1397935.307692,74700.846154,9566.230769,698948.384615,9148.910226,2049.391750,60764.026375,1241.414073,643.229491,30381.184302
44,0,3,644207.666667,220430.000000,1296804.666667,66958.666667,7978.333333,648366.666667,5274.754044,966.852971,22805.977935,1148.538879,92.579095,11309.078664
44,1,13,715862.846154,249874.846154,1419789.538462,74782.923077,9521.000000,709823.307692,9149.783561,1924.806837,69595.024127,1423.735901,581.111137,34738.376583
45,0,3,638855.666667,219329.666667,1277342.000000,65974.666667,8175.333333,638639.333333,2793.236156,682.302637,37642.679642,217.480012,556.744306,18783.676767
45,1,13,713156.615385,249436.076923,1440331.461538,74302.384615,9495.153846,720145.384615,3198.730987,979.096480,72033.865255,441.742448,492.666035,35969.164813
46,0,3,645827.000000,220690.333333,1244854.000000,66990.666667,7417.000000,622331.000000,8907.097432,2600.521144,36066.389626,1701.212378,225.753553,18070.389278
46,1,13,712750.846154,249074.076923,1386798.307692,74235.000000,9381.307692,693394.384615,5360.586705,1458.270918,52769.762538,957.788237,595.522961,26391.746718
47,0,3,640496.666667,219782.666667,1294619.666667,66136.333333,7505.666667,647314.000000,2234.203263,464.097930,24856.670202,200.450049,141.991393,12454.964499
47,1,13,710743.615385,248715.615385,1418162.384615,73989.076923,9504.846154,709092.153846,3066.849211,652.822692,104410.569797,253.195413,692.518464,52194.004717
48,0,3,637915.333333,219194.000000,1205691.333333,65906.000000,7061.000000,603000.666667,1801.706845,289.918379,29906.289242,96.778097,471.024416,15066.561924
48,1,13,716221.461538,250458.230769,1402971.538462,74786.076923,9369.153846,701430.384615,8140.341031,2506.454565,65270.482996,969.893687,503.978303,32654.667730
49,0,3,647020.333333,221229.000000,1260242.000000,67282.666667,8025.333333,630070.666667,11692.850418,1740.998181,39467.827919,1375.463397,534.928240,19638.723386
49,1,13,713829.538462,249496.076923,1392910.538462,74539.153846,9400.615385,696434.923077,8378.223766,1746.746490,70168.481197,1208.991687,729.941466,35047.404013
50,0,3,638840.000000,219276.000000,1343806.333333,65906.333333,8200.666667,671870.666667,3365.771927,307.669736,9677.661230,186.462388,55.138210,4931.281938
50,1,13,712434.000000,249427.000000,1419381.076923,74399.846154,9539.000000,709521.000000,5967.252196,1285.297751,95471.975685,740.551338,714.960892,47446.056691
51,0,3,637396.333333,219201.000000,1334202.000000,65944.000000,7698.666667,667091.666667,2613.847016,289.942523,70545.995455,123.946225,615.930912,35114.778288
51,1,13,714590.153846,249695.384615,1389996.230769,74615.000000,9537.000000,694980.230769,8353.223771,1735.900544,79807.209051,1236.942198,589.145666,39971.916765
52,0,3,638465.666667,219803.000000,1237016.666667,66212.666667,7681.000000,618609.333333,3640.819535,945.581655,44970.434564,515.361577,311.783044,22404.727482
52,1,13,711541.923077,249284.615385,1378445.000000,74283.846154,9356.153846,689085.692308,2615.028444,914.169950,73121.530118,406.254154,451.990784,36516.609147
53,0,3,645820.666667,221630.666667,1263673.666667,67489.333333,8141.333333,631792.666667,10141.841823,1518.072755,5478.061721,1283.674500,192.690310,2799.066551
53,1,13,718870.923077,251256.153846,1451136.538462,75083.307692,9765.615385,725407.846154,10229.655340,3641.260535,90645.729440,1413.598811,560.676451,45249.055383
54,0,3,642689.333333,220471.000000,1226670.666667,66937.000000,7474.000000,613325.666667,9701.962184,2515.157782,17049.720630,1660.840952,80.452885,8517.863282
54,1,13,712263.000000,249297.615385,1418306.846154,74285.153846,9674.538462,709056.846154,3807.065496,919.858312,88515.708370,519.921273,471.762100,44303.685518
55,0,3,639183.000000,218955.000000,1224619.666667,65808.666667,7899.666667,612303.333333,2487.967979,241.660919,48097.045788,61.645942,382.530464,24080.886270
55,1,13,716144.461538,250088.769231,1433499.692308,74916.153846,9768.615385,716594.000000,9064.087154,1898.410353,58060.791450,1358.953944,655.511725,28890.464509
56,0,3,640677.666667,219675.333333,1231103.000000,66198.333333,8341.000000,615234.333333,143.799243,883.213954,49153.689919,359.837309,500.565680,24358.777150
56,1,13,712430.769231,249447.076923,1440851.846154,74412.230769,9475.538462,720317.846154,6404.918797,1563.599470,89422.171114,1021.390015,624.058382,44587.491198
57,0,3,639749.666667,219013.333333,1258997.666667,65878.333333,8635.000000,629553.333333,2964.018031,668.643070,73804.949447,231.806433,857.650667,36812.204175
57,1,13,714365.846154,249843.384615,1389674.384615,74692.846154,9592.000000,694758.692308,8128.653487,1904.246289,83429.221429,1262.778429,690.067890,41612.306082
58,0,3,642106.333333,220278.666667,1265562.333333,66386.666667,8528.333333,632558.333333,2114.673550,679.501942,96428.717135,338.555100,526.994202,47928.713985
58,1,13,713216.307692,249664.846154,1387151.461538,74592.307692,9447.461538,693594.923077,7789.378551,1662.262399,61002.426610,1127.178805,681.005774,30586.483318
59,0,3,641668.333333,220197.333333,1226458.666667,66401.666667,8091.666667,613095.666667,3218.685688,526.586703,38470.409601,270.727826,453.375733,19226.978135
59,1,13,712124.615385,249351.307692,1362887.461538,74382.076923,9302.000000,681519.538462,5242.709525,1215.041777,58429.537734,859.642006,368.836215,29281.096290
60,0,3,647749.333333,221438.333333,1269459.000000,67261.333333,8263.333333,634597.000000,10658.848260,1956.931328,105201.349766,1512.841330,946.682042,52532.017082
60,1,13,711869.384615,249570.076923,1421552.384615,74481.461538,9815.923077,710663.461538,5598.067971,1466.364340,80619.920111,880.231404,426.554255,40188.718395
61,0,3,648174.000000,222498.333333,1303722.333333,66986.666667,8092.666667,651799.333333,12954.905274,3981.167110,67320.319252,1158.808967,248.242265,33600.716583
61,1,13,713998.230769,249702.230769,1444731.615385,74635.846154,9741.692308,722252.923077,9357.035676,1893.084506,125196.882216,1259.141823,852.016286,62528.853981
62,0,3,644093.666667,220515.333333,1210268.000000,66930.666667,7716.000000,605130.000000,8257.258477,2096.435281,66404.266615,1507.842240,454.242226,33166.632117
62,1,13,710850.076923,249178.538462,1407213.923077,74292.615385,9475.769231,703547.384615,7348.510131,1490.332622,73783.307959,1036.518547,588.014018,36781.386945
63,0,3,637822.000000,219343.000000,1328109.666667,65931.666667,7968.000000,664108.000000,2357.548444,575.747051,85209.891266,123.694067,462.779285,42669.396746
63,1,13,709527.384615,249029.461538,1428271.615385,74153.692308,9402.307692,714121.076923,2578.271381,585.920396,118668.953091,404.109160,737.368646,59323.952978
64,0,3,637693.333333,219030.666667,1234358.000000,65855.666667,7429.333333,617214.333333,1919.276310,401.889150,73473.601604,184.934823,655.685561,36712.850632
64,1,13,714299.769231,250321.538462,1444092.307692,74690.923077,9806.153846,722015.000000,9424.245900,2999.188342,87617.615790,1285.993747,569.558513,44003.627097
65,0,3,640280.000000,220428.000000,1329926.000000,66479.000000,7996.333333,664983.000000,4458.642020,1162.884632,38394.107083,538.535669,436.425124,19206.631164
65,1,13,712291.230769,249072.692308,1405049.846154,74262.846154,9659.923077,702385.923077,6119.909038,1396.899115,64346.979378,954.883227,494.122915,32129.527860
66,0,3,643892.000000,220713.666667,1290594.333333,67013.333333,8036.000000,645412.666667,11722.498397,2304.105949,60393.367750,1638.257272,101.364030,30362.405069
66,1,13,713945.923077,249541.076923,1459553.615385,74467.846154,9749.846154,729701.076923,7618.428310,1405.893007,96192.042027,1024.406533,547.496378,48033.893701
67,0,3,643080.333333,221211.666667,1338866.666667,66840.666667,7976.666667,669457.333333,1655.144774,247.017318,52224.183238,120.358723,518.082576,26103.275584
67,1,13,713310.769231,249460.692308,1419031.538462,74410.230769,9579.615385,709560.000000,5111.814026,1008.922150,48028.881274,801.375755,406.918918,24054.908388
68,0,3,643758.000000,220536.666667,1219004.000000,66953.000000,7419.666667,609464.666667,11554.033177,2202.913878,33972.520690,1585.204719,282.968000,16905.667025
68,1,13,714103.461538,249783.307692,1404514.769231,74575.538462,9526.923077,702207.538462,7572.936598,1818.300322,82687.568979,1144.113000,496.445591,41287.420915
69,0,3,641918.000000,219432.333333,1301371.000000,65956.333333,7917.666667,650672.000000,1809.616718,246.968734,40604.914341,176.533912,220.018686,20252.906475
69,1,13,714075.461538,249226.692308,1407303.538462,74278.461538,9622.923077,703610.000000,8866.467926,1761.472652,96844.991098,1096.447102,631.048025,48442.371847
70,0,3,642089.666667,219664.666667,1367233.333333,66060.333333,8314.666667,683416.666667,1744.048610,593.808237,54795.205540,343.812287,293.419306,27231.955547
70,1,13,712388.307692,248914.615385,1386102.692308,74222.692308,9666.923077,692971.384615,7123.540556,1551.725766,52841.633129,1028.415015,556.309192,26396.417177
71,0,3,641140.333333,219528.333333,1346997.000000,66066.666667,8378.666667,673150.000000,2389.394670,1056.093851,87602.223035,534.829776,425.586915,43567.584196
71,1,13,711884.461538,249111.307692,1399113.230769,74176.846154,9643.000000,699478.230769,5191.804305,1160.668467,123073.056528,526.301003,723.948149,61562.597939
72,0,3,646747.333333,220693.000000,1286336.666667,66900.666667,7814.666667,643148.666667,9973.776160,2089.912917,107047.010017,1572.412442,681.324364,53537.228171
72,1,13,713650.307692,249353.923077,1381493.461538,74272.307692,9569.923077,690669.846154,3193.470632,855.369238,57906.121136,342.545760,488.835581,28998.242620
73,0,3,644468.333333,220705.000000,1354045.000000,66423.000000,8253.666667,676840.000000,2917.910935,877.493400,81788.051662,342.684500,944.466104,40668.195370
73,1,13,717778.076923,250238.153846,1455021.461538,75018.769231,10080.615385,727466.846154,10591.453089,2299.698771,77082.653848,1501.707702,732.918984,38515.056940
74,0,3,640205.666667,219488.000000,1250181.333333,65980.666667,7926.000000,624894.666667,3894.985865,721.134292,81621.098948,370.708631,741.938003,40758.199456
74,1,13,712259.076923,249056.153846,1410983.076923,74149.153846,9717.230769,705430.538462,4294.008715,1123.938395,75357.639610,473.838961,789.599134,37813.620874
75,0,3,648277.333333,221252.666667,1340287.666667,67098.666667,8550.333333,669662.666667,8829.652478,2028.367214,90173.333724,1549.307444,592.756461,44781.105274
75,1,13,713783.923077,249540.615385,1405741.846154,74453.153846,9592.000000,702868.076923,6452.571288,1417.311460,64608.899811,938.345995,398.797037,32301.879439
76,0,3,649624.666667,222057.333333,1329488.333333,67494.000000,8656.000000,664684.666667,8760.773418,1469.839296,86315.959862,1248.184548,147.261672,43149.782791
76,1,13,713474.230769,249403.153846,1401213.230769,74284.000000,9521.000000,700582.384615,4476.736932,1194.577997,86894.973845,566.669216,579.619637,43441.015763
77,0,3,639413.666667,219554.333333,1265269.000000,66055.666667,7935.000000,632543.333333,1949.458443,1274.822428,51492.151564,618.062205,224.530622,25836.587266
77,1,13,715240.846154,249658.307692,1401465.000000,74579.230769,9448.769231,700619.461538,8062.722396,1582.849008,92481.877662,1189.784218,747.298123,46097.252664
78,0,3,641107.666667,219508.333333,1271236.666667,65966.333333,7861.666667,635749.666667,2331.533735,635.654169,31569.783764,241.967399,233.218543,15832.247773
78,1,13,715927.307692,250024.538462,1404450.384615,74768.923077,9530.384615,702139.076923,7928.725277,1767.241336,55850.574877,1231.224560,586.571596,27915.626981
79,0,3,654878.000000,222542.666667,1292978.333333,68202.000000,8411.333333,646393.000000,9732.085320,1828.443114,40654.325570,1284.867568,581.509721,20270.387219
79,1,13,711422.769231,249132.384615,1397831.692308,74164.769231,9352.923077,698893.230769,2713.543728,680.939796,72763.010267,387.860434,644.739597,36389.673821
80,0,3,639156.333333,218906.000000,1294145.666667,65769.666667,7871.000000,646973.333333,900.317475,167.250311,56536.156628,152.160734,391.251837,28239.273661
80,1,13,713036.076923,249683.769231,1435019.307692,74545.230769,9610.307692,717408.076923,7203.710833,1572.405514,93800.383363,1031.387203,725.074148,46747.092309
81,0,3,638904.333333,218963.666667,1197016.333333,65803.333333,7533.000000,598413.000000,1568.787501,486.912267,39895.361847,177.824508,24.055491,19859.595078
81,1,13,713523.769231,249367.692308,1413703.000000,74389.307692,9590.461538,706778.230769,5679.486626,1361.103816,40968.702987,957.035518,439.147884,20485.861955
82,0,3,640831.333333,219536.666667,1274945.666667,66060.666667,8005.666667,637410.000000,1614.712427,932.559322,31748.758257,521.035721,92.651078,16047.398564
82,1,13,711053.615385,248992.538462,1377327.692308,74128.846154,9330.153846,688623.615385,3820.379271,997.656841,84857.978529,520.778536,510.713957,42406.043574
83,0,3,641363.333333,220276.000000,1283641.333333,66350.666667,8092.000000,641822.000000,1923.404331,555.188256,48237.843777,206.139651,330.975326,24137.362201
83,1,13,712253.307692,249284.692308,1387548.615385,74362.461538,9375.307692,693755.076923,4927.671511,1302.538078,46467.838551,745.569335,493.648175,23248.685566
84,0,3,638676.333333,219545.000000,1242557.000000,65989.000000,7668.000000,621168.333333,485.746390,349.497735,84859.984999,178.069275,261.963102,42450.793925
84,1,13,713326.615385,249780.461538,1405658.076923,74586.384615,9435.692308,702793.384615,6064.684538,1479.107663,94433.960303,1000.228092,743.990631,47218.249454
85,0,3,640676.666667,219211.000000,1253722.000000,65839.666667,8123.333333,626818.333333,1063.467390,536.787357,68453.920896,291.630283,184.467402,34296.029122
85,1,13,715994.384615,250282.461538,1359391.923077,74735.538462,9393.384615,679636.000000,10486.413566,2932.579637,66322.987226,1387.156672,674.144077,33167.287795
86,0,3,639320.666667,218994.666667,1213116.666667,65767.000000,7445.333333,606570.333333,1141.287674,162.674180,36155.024919,33.436507,239.683588,18100.077667
86,1,13,716294.461538,250284.846154,1367503.307692,75000.384615,9324.384615,683711.615385,9287.572695,1863.712707,49432.198438,1319.751232,506.839155,24717.739066
87,0,3,645721.666667,220499.333333,1323811.333333,66866.666667,8305.000000,661875.333333,7065.119265,1876.826459,100928.553774,1571.587379,792.227661,50484.146385
87,1,13,712328.846154,249306.538462,1388377.846154,74386.230769,9381.461538,694176.615385,6165.172552,1375.213305,64152.120937,801.922033,542.563518,32064.661292
88,0,3,647034.666667,220815.333333,1305030.333333,66970.666667,8321.000000,652428.333333,9252.770588,1718.471091,16324.971676,1350.822301,513.519230,8091.728877
88,1,13,712307.769231,249457.615385,1365246.384615,74438.846154,9217.384615,682562.230769,6293.916283,1488.933926,89947.983953,1027.803696,509.954076,44938.310930
89,0,3,640185.666667,219800.666667,1341620.666667,66074.333333,7986.333333,670738.333333,5015.167683,1399.469026,49386.110425,600.740839,745.446771,24726.394215
89,1,13,711122.769231,248953.615385,1375570.307692,74160.615385,9269.461538,687710.615385,3874.037809,936.903947,77555.773726,554.360274,594.208927,38801.308964
90,0,3,638448.333333,219186.333333,1211352.666667,65820.000000,7674.000000,605680.000000,3779.809725,169.175123,34976.559906,94.300937,709.347588,17477.835793
90,1,13,713396.769231,249840.230769,1418744.461538,74619.307692,9580.461538,709303.076923,7284.909304,1522.280483,81614.302526,1050.323788,671.241744,40818.221556
91,0,3,640328.333333,219450.333333,1250429.666667,65927.666667,8480.000000,625174.333333,4383.150034,672.369112,37201.239498,132.856648,503.326932,18563.715223
91,1,13,715682.230769,250008.538462,1419251.307692,74883.461538,9680.307692,709546.461538,8711.725610,1927.311743,81702.573219,1287.663932,695.682884,40847.441757
92,0,3,638805.666667,219183.000000,1314061.666667,65819.000000,9069.333333,656937.000000,1091.530526,620.949273,26244.241531,320.715866,778.566774,13016.120697
92,1,13,711875.769231,249283.769231,1418993.923077,74290.923077,9512.538462,709271.384615,3548.218885,1034.516324,76158.440703,456.332615,496.534547,37872.056987
93,0,3,646394.000000,220828.666667,1347308.333333,66992.666667,7855.333333,673634.333333,12122.344190,2758.432566,54066.566566,1666.424782,847.396929,27048.918331
93,1,13,710997.384615,249242.153846,1386087.923077,74245.538462,9397.307692,692996.692308,3747.938234,756.867720,74809.323996,454.058555,642.507394,37393.367776
94,0,3,637618.666667,218842.666667,1308783.666667,65768.000000,7374.000000,654396.666667,213.357811,174.541940,56756.487525,91.371038,288.528450,28369.271996
94,1,13,713238.615385,249638.461538,1417761.076923,74550.923077,9538.384615,708777.923077,6482.603864,1368.950896,66442.762374,877.916718,444.927053,33280.047255
95,0,3,649912.666667,222664.333333,1320378.666667,66948.666667,8080.000000,660136.333333,13629.606165,5087.183657,37611.005139,1725.126920,325.948871,18830.563849
95,1,13,713364.461538,249831.307692,1395785.153846,74611.769231,9371.923077,697816.692308,7386.118390,1762.483099,56327.421305,1012.050254,572.283478,28183.733209
96,0,3,638781.666667,219245.666667,1258215.000000,65873.333333,7488.333333,629053.333333,2598.713699,288.454888,6163.246763,99.305365,166.040825,3140.572064
96,1,13,718518.923077,250687.846154,1445076.615385,75383.846154,9905.538462,722603.076923,11839.094050,2415.544368,79573.370016,1657.551895,700.801696,39797.892160
97,0,3,640921.000000,220444.666667,1331499.000000,66467.000000,8232.666667,665738.666667,4904.891912,1587.806103,41393.454128,624.607076,655.166306,20660.890628
97,1,13,716060.230769,250221.076923,1405936.846154,74977.307692,9566.384615,702893.846154,8876.340758,1634.934036,74761.487485,1333.933189,679.718555,37320.660118
98,0,3,652237.000000,222337.333333,1307585.000000,68100.666667,8561.666667,653698.666667,10326.784043,2381.514131,18695.797727,1620.004595,451.259226,9494.014828
98,1,13,712574.384615,249572.153846,1393570.615385,74497.692308,9670.461538,696738.538462,4972.859950,1192.273320,60659.180975,726.529197,483.217042,30355.231445
99,0,3,637412.000000,219378.000000,1266660.000000,65980.000000,7848.000000,633306.000000,2547.946624,590.310653,64238.709000,263.155214,874.890850,32134.503896
99,1,13,710060.384615,248796.000000,1397020.769231,74061.769231,9620.769231,698493.000000,3698.487644,931.486901,57942.840034,414.225162,590.771354,28973.980630
100,0,3,645720.666667,221255.000000,1294406.666667,67243.666667,8339.000000,647097.000000,10325.820204,1968.046917,92100.561129,1346.094681,454.995238,46147.004807
100,1,13,711719.615385,249320.846154,1446679.923077,74376.307692,9559.846154,723231.384615,8082.193995,1726.540019,83627.586631,1096.104528,726.637551,41716.856035
101,0,3,641160.666667,219575.666667,1373028.333333,66034.333333,8316.000000,686376.000000,2267.455745,726.287516,88810.946241,412.114331,402.535299,44484.161346
101,1,13,712450.615385,249652.461538,1429827.153846,74421.769231,9489.461538,714885.923077,6246.841473,1666.052295,53906.163720,888.647646,425.671346,26972.562485
102,0,3,638399.333333,219380.333333,1274669.666667,65945.666667,8101.000000,637439.666667,1184.601855,304.741785,76588.451481,140.819822,101.826650,38665.238698
102,1,13,716176.230769,250897.384615,1411029.615385,74949.307692,9514.153846,705424.230769,15249.525835,4730.780722,70003.945950,1607.321680,626.057486,34945.439881
103,0,3,653014.000000,224446.000000,1286547.333333,67237.666667,8220.666667,643113.666667,21970.483290,7520.979059,59027.328836,1997.998054,325.419046,29478.898151
103,1,13,718991.000000,251414.769231,1420998.692308,75387.230769,9601.846154,710468.923077,20995.312422,6071.643982,62347.763638,2373.012242,554.758415,31153.437945
104,0,3,665888.000000,227451.333333,1342622.000000,68954.333333,8127.000000,671114.333333,23863.606028,8605.997766,54621.274250,2305.385049,428.673147,27071.306462
104,1,13,714509.692308,250354.384615,1417444.692308,74554.384615,9719.000000,708694.230769,14354.139936,5121.416699,102744.165714,1438.520797,935.263517,51370.712622
105,0,3,656391.333333,224966.333333,1226781.000000,67429.000000,7662.333333,613326.666667,23051.715169,8212.267829,59164.830888,2162.338086,551.937396,29521.944475
105,1,13,719626.846154,251615.615385,1425090.230769,75088.384615,9577.307692,712464.461538,14590.650789,5037.768318,97933.568813,1455.568857,633.900670,48959.831763
106,0,3,664629.333333,227078.666667,1303767.666667,68747.666667,8261.000000,651853.000000,19970.948773,7574.253993,66073.853287,1876.699467,331.162599,33026.715166
106,1,13,714275.307692,250179.153846,1395460.769231,74461.076923,9532.230769,697658.153846,13355.975611,4750.717433,70534.921879,1277.591572,491.849751,35321.291223
107,0,3,658717.666667,225752.000000,1201132.666667,67701.666667,7652.000000,600537.666667,23582.777336,8061.115597,20524.988515,2099.538097,363.164793,10224.294477
107,1,13,717185.923077,250972.923077,1407158.692308,74919.384615,9592.307692,703535.230769,15199.752303,5355.814532,51206.381744,1681.201381,437.301583,25594.933601
108,0,3,666741.000000,228584.666667,1258732.000000,68583.333333,7637.000000,629352.666667,37881.200588,13030.914942,23310.440980,3582.448728,291.329138,11669.339722
108,1,13,716809.846154,250789.153846,1417001.384615,74769.615385,9741.384615,708487.769231,18919.507112,6124.577547,55489.519902,2186.793210,506.314517,27741.683142
109,0,3,656270.666667,225097.000000,1243570.000000,67470.333333,8116.333333,621736.333333,23815.641503,8395.620803,43744.554229,2223.029814,386.802562,21833.215710
109,1,13,717879.538462,250945.000000,1370868.000000,74898.769231,9639.538462,685406.076923,14275.954365,4814.345630,72514.155954,1418.469281,599.224321,36256.848071
110,0,3,655434.333333,225018.000000,1201229.333333,67401.333333,7455.666667,600576.666667,23627.392638,8497.092209,56745.516224,2318.152473,298.702007,28428.627594
110,1,13,715779.538462,250648.923077,1410798.538462,74644.538462,9698.000000,705323.230769,14174.294472,5132.270669,110393.701649,1433.177997,855.438889,55176.978964
111,0,3,665326.666667,226818.000000,1269891.666667,68579.000000,8132.000000,634876.000000,24246.909526,7473.417469,39729.969816,1857.773398,712.793098,19923.398020
111,1,13,717269.000000,250888.615385,1392866.769231,74864.769231,9639.923077,696336.000000,14327.358568,5093.894891,115177.876290,1534.255578,890.033574,57476.354646
112,0,3,661817.000000,226483.333333,1329779.000000,68126.000000,8304.333333,664758.666667,27277.641186,9074.775455,92750.128435,2533.718743,397.200481,46272.638210
112,1,13,716434.384615,250464.846154,1397057.923077,74693.384615,9643.846154,698530.846154,13814.282295,4698.177549,63544.825002,1363.644469,611.262105,31842.681567
113,0,3,667626.333333,227581.333333,1283735.333333,68929.666667,7801.333333,641855.333333,19114.724208,6851.414712,51657.201475,1685.896464,60.256858,25848.804670
113,1,13,719228.000000,251311.000000,1420193.846154,75164.461538,9758.384615,710072.769231,21122.961968,6190.534859,62628.250816,2312.670837,526.277864,31296.603409
114,0,3,658787.333333,225690.333333,1252362.333333,67651.000000,7517.666667,626144.000000,26891.476448,8928.658814,69094.586890,2416.508363,734.551715,34532.282124
114,1,13,718553.538462,251199.230769,1466320.692308,74816.153846,9859.846154,733115.846154,16912.447522,5584.253674,128161.175001,1614.687197,1013.497133,64046.936898
115,0,3,657126.000000,225383.000000,1242863.666667,67606.000000,7527.000000,621421.333333,24340.089277,8203.315102,34002.376293,2155.275852,379.760451,16927.665272
115,1,13,715293.230769,250299.923077,1441348.153846,74537.923077,9519.538462,720553.384615,15917.440663,5656.380134,64348.614062,1652.472249,390.421787,32178.133566
116,0,3,657398.000000,225278.666667,1405002.333333,67494.000000,8530.333333,702527.000000,25038.282462,8394.971365,110375.452876,2215.723057,910.798307,55192.529664
116,1,13,722997.076923,252047.076923,1431412.692308,75698.923077,9931.769231,715610.769231,20298.471354,5945.961195,92389.028661,2325.098359,688.516371,46189.869567
117,0,3,657063.333333,225578.000000,1312473.000000,67730.000000,7730.333333,656244.000000,24310.425546,8019.309862,51864.478602,2032.695911,184.970869,25920.621790
117,1,13,722426.615385,251731.000000,1428009.846154,75579.692308,9841.692308,713885.615385,15731.794193,4910.065314,80513.481164,1824.728869,830.515909,39939.482310
118,0,3,656920.666667,225327.666667,1285147.333333,67565.000000,8087.666667,642586.333333,26348.270814,8506.769474,46770.974919,2242.948060,665.557577,23355.249293
118,1,13,716653.615385,250333.538462,1386069.923077,74642.769231,9338.461538,693064.307692,14674.705436,5016.519857,45900.930491,1546.745524,499.688921,23025.269501
119,0,3,657058.333333,225318.666667,1275632.666667,67659.000000,8026.000000,637824.000000,26288.261745,8514.627897,84301.025476,2172.933654,1100.007273,42156.519124
119,1,13,720135.153846,251423.923077,1411736.076923,75185.384615,9557.153846,705838.076923,14317.182737,4553.920905,70908.325040,1545.220499,662.029380,35408.026114
120,0,3,658975.333333,225761.333333,1269360.666667,67780.666667,7655.666667,634607.333333,27488.576856,9561.295077,50125.938770,2636.445882,38.904441,25023.380698
120,1,13,718873.076923,250904.076923,1384442.538462,75023.307692,9360.153846,692220.307692,14345.833131,4733.763708,82760.636563,1631.928608,582.683295,41381.228584
121,0,3,658852.666667,226044.666667,1295649.000000,67912.666667,7848.333333,647796.666667,25179.614193,8125.595623,41942.132047,2070.272500,454.070724,20960.944831
121,1,13,719349.000000,251522.923077,1446420.000000,75059.769231,9624.461538,723093.615385,16125.728000,5852.910038,69560.244991,1782.064885,646.828073,34634.640553
122,0,4,657813.500000,225138.500000,1326475.750000,68032.000000,8073.000000,663207.750000,30944.378346,9248.620992,114485.268147,3291.551078,573.648411,57245.687092
122,1,13,720862.384615,251531.846154,1439758.384615,75365.153846,9826.384615,719747.615385,17083.434763,5438.245020,108443.339033,1915.129955,961.300044,53918.133324
123,0,4,653525.500000,224360.750000,1313370.000000,67391.250000,8022.750000,656669.750000,21084.817778,7615.772166,75199.232666,1958.057376,639.407685,37563.104394
123,1,13,714785.692308,250344.153846,1432671.461538,74550.846154,9761.846154,716318.153846,14250.883014,4831.920383,90759.407967,1293.320345,841.126977,45311.174027
124,0,4,658956.500000,225275.500000,1251892.250000,68105.500000,7974.250000,625923.750000,21426.818435,7209.961876,26667.632482,2026.948260,751.711505,13346.297846
124,1,13,716837.769231,250534.692308,1402324.307692,74734.384615,9395.692308,701179.615385,13902.311646,4800.273348,64709.655245,1407.064349,677.100082,32339.953588
125,0,4,651548.250000,223666.500000,1331727.000000,67101.750000,7653.500000,665886.250000,22425.044664,7606.745050,32154.047412,1998.788555,447.619537,16176.127262
125,1,13,716131.230769,250641.230769,1387688.307692,74689.923077,9416.076923,693710.153846,13191.806182,4676.351226,69204.439264,1231.709535,652.116726,34562.637317
126,0,4,659857.250000,225837.000000,1340997.000000,68380.250000,8285.750000,670242.500000,23320.983056,8155.682436,76716.852428,2268.105749,673.479909,38068.941885
126,1,13,719109.000000,251535.538462,1408121.384615,75286.153846,9415.384615,703933.615385,14947.922727,5132.037841,89147.594137,1640.972406,482.573157,44424.333099
127,0,4,651639.750000,223863.500000,1288225.750000,67124.500000,7950.250000,643954.500000,22898.905404,7660.336497,79921.561857,2054.847744,1263.154063,39750.920156
127,1,13,717105.461538,250815.307692,1392475.923077,74838.846154,9549.076923,696198.307692,14559.164973,4885.740089,68583.880767,1691.669901,683.391144,34277.738228
