0,0,4,665716.250000,228954.500000,1217858.250000,68641.250000,7299.000000,608282.750000,27970.043407,9464.954583,30127.552078,2602.405846,369.723545,14924.923591
0,1,6,727063.500000,253145.666667,1418206.833333,75857.666667,9399.833333,708657.333333,26697.132260,8233.930039,66086.617365,3042.324203,503.350579,33050.172973
1,0,3,649071.000000,223810.333333,1305952.666667,67202.000000,7772.000000,652434.000000,14170.673261,5094.701649,6191.317594,1230.115713,388.800720,3208.927235
1,1,5,715600.400000,250183.400000,1424888.800000,74610.800000,9148.400000,711745.400000,3399.937505,1242.148397,44666.540436,536.296709,499.715359,22236.764617
2,0,3,646569.333333,220465.333333,1224606.666667,66903.333333,7673.333333,611678.000000,11909.566080,2387.009892,55024.879478,1598.491442,473.451394,27555.991145
2,1,5,713640.600000,248838.600000,1375549.200000,74036.200000,8935.400000,687265.800000,2229.389387,486.917899,34935.864451,182.931025,244.611202,17455.828682
3,0,3,641807.666667,219495.333333,1252522.666667,66063.333333,7717.666667,625721.666667,3316.988025,760.620945,20193.146846,186.869533,128.302594,10103.022859
3,1,5,718976.800000,250404.000000,1392232.200000,75034.200000,9136.800000,695454.200000,7468.520319,1460.245596,41798.875121,1089.751421,237.735483,20852.900780
4,0,3,646548.666667,220392.666667,1196496.000000,66904.333333,7693.333333,597758.666667,13075.594629,2363.606613,35813.404111,1669.140364,696.762194,17837.716545
4,1,5,713746.200000,249499.400000,1409890.000000,74315.200000,9480.000000,704414.400000,5034.974693,1144.340788,90305.470415,420.389058,280.170662,45102.933823
5,0,3,642972.666667,219582.000000,1269045.666667,66059.333333,7543.000000,633943.000000,2718.991153,319.449527,69521.977515,109.645895,371.699700,34675.467091
5,1,5,717721.600000,250143.800000,1333602.400000,74897.200000,9239.000000,666223.800000,11242.448356,2307.297501,77958.855352,1367.969503,509.638303,39081.190895
6,0,3,642221.333333,220045.000000,1306591.333333,66172.000000,8313.333333,652703.666667,3848.164786,413.657668,97606.406362,213.110300,837.844987,48809.760857
6,1,5,711906.400000,248586.800000,1368287.200000,73971.400000,9337.000000,683471.400000,2781.376896,629.980444,62541.749021,147.280141,363.588229,31312.099940
7,0,3,641338.000000,219133.000000,1280204.666667,65894.666667,8208.666667,639614.333333,2353.413266,213.995327,113607.296319,149.265610,791.349200,56807.460668
7,1,5,712049.600000,248790.800000,1447154.800000,74054.400000,9616.000000,723053.600000,3343.958708,618.591109,70112.941006,355.166215,942.805176,34853.928832
8,0,3,641576.000000,219472.333333,1296825.000000,65988.333333,7517.000000,647552.333333,2406.258645,597.243855,11875.719683,120.400258,353.543020,6453.913869
8,1,5,712288.400000,248661.000000,1369312.200000,74042.400000,8959.400000,684219.600000,3833.283219,738.405309,63348.037890,318.141855,443.651034,31721.517698
9,0,3,641001.333333,219436.000000,1270718.000000,66032.333333,7815.666667,634684.000000,4562.657802,1614.255453,57316.846546,640.069961,441.008188,28464.690981
9,1,5,721868.400000,251133.400000,1385669.800000,75667.000000,9315.200000,692289.600000,11622.027080,2444.282193,35397.857638,1698.231904,472.826987,17755.480197
10,0,3,641800.000000,220016.666667,1277758.333333,66144.333333,7694.666667,638162.000000,3122.888834,322.748956,10060.039176,92.312272,449.966912,5235.797233
10,1,5,716991.600000,249953.800000,1379573.600000,74867.800000,9306.600000,689219.800000,9205.041849,1954.112525,124901.755295,1326.137459,757.626715,62465.678872
11,0,3,642101.333333,220093.666667,1299454.666667,66271.333333,7787.666667,649018.666667,3079.110730,1190.114374,28443.947644,490.557732,640.196498,14174.409860
11,1,5,715630.800000,249718.200000,1469886.400000,74785.000000,9577.000000,734374.200000,6860.222778,1880.994992,44888.776622,1283.866816,572.340808,22439.497262
12,0,3,642916.333333,220315.000000,1243984.333333,66313.333333,7545.333333,621363.333333,2141.019435,805.323537,65147.461114,434.786027,463.423732,32451.562904
12,1,5,712410.400000,249038.800000,1468785.200000,74195.800000,9289.800000,733704.000000,3604.950629,625.193218,156320.701382,279.300125,719.745344,78058.605909
13,0,3,642232.333333,219771.000000,1253369.333333,66206.666667,8031.666667,626022.666667,653.386222,613.051928,35759.806602,252.720311,999.354903,17744.579648
13,1,5,722810.600000,252211.200000,1504772.200000,75640.000000,9681.600000,752251.000000,10285.021392,3611.767733,113792.599922,1280.913736,719.956832,57265.778147
14,0,3,642192.666667,220057.333333,1307981.666667,66331.666667,7635.000000,653327.000000,2332.284193,768.185018,48111.833294,479.348400,602.919563,24021.397350
14,1,5,716040.600000,249871.200000,1469106.400000,74849.600000,9527.400000,733898.600000,8994.757464,1905.500816,104601.518124,1440.145770,899.487765,52224.610848
15,0,3,640380.000000,219397.666667,1244451.333333,66073.666667,7297.666667,621684.333333,1522.146730,314.445897,85987.413770,43.698462,607.179454,42990.563076
15,1,5,713332.200000,249273.600000,1455357.200000,74331.800000,9718.800000,727023.000000,5357.664618,1461.986949,57698.950942,588.041291,431.935366,29041.078472
16,0,3,647327.666667,220821.000000,1285508.333333,67122.666667,7753.000000,642213.333333,10335.805156,2058.477755,44995.609166,1550.168235,567.020282,22476.922273
16,1,5,713169.600000,249431.400000,1420795.400000,74342.000000,9414.800000,709721.200000,3630.931924,608.670551,79289.807205,156.265159,380.431544,39613.925432
17,0,3,638951.333333,219311.666667,1235366.000000,66018.000000,7346.000000,617150.666667,3755.491475,414.166901,37718.496267,192.506277,339.320890,18882.857205
17,1,5,712138.600000,249178.200000,1393325.400000,74297.000000,9170.200000,696014.800000,3184.731863,685.790464,64868.811503,409.973658,646.226400,32338.796591
18,0,3,641735.666667,220114.000000,1286016.666667,66447.333333,8182.666667,642334.333333,3085.049144,1035.946266,27001.852311,522.037249,355.286113,13371.213466
18,1,5,711880.600000,249263.600000,1409653.200000,74368.600000,9258.000000,704208.000000,5817.336215,1445.208718,102162.997108,665.780024,956.739672,51017.626675
19,0,3,640653.000000,219593.333333,1323600.666667,66175.666667,8190.333333,661246.000000,3671.911037,886.361978,23823.346313,334.479031,94.008274,11878.804064
19,1,5,715536.400000,250001.200000,1346557.600000,74932.000000,9272.200000,672767.200000,5842.290359,1671.065576,53482.766202,1168.133383,814.555437,26765.765615
20,0,3,640620.333333,219401.333333,1301450.666667,66060.000000,7769.666667,650246.666667,2200.533925,648.840162,10037.055157,139.085106,466.048877,5057.513509
20,1,5,716336.400000,249498.600000,1390767.600000,74693.600000,9565.600000,694827.800000,6667.989340,1577.870286,107671.003581,1354.186634,1021.267565,53599.243593
21,0,3,642127.000000,220767.000000,1317985.666667,66687.666667,8184.333333,658304.333333,2273.105512,859.576640,82628.280959,443.941688,738.909256,41143.411010
21,1,5,715969.800000,249584.400000,1428345.600000,74759.000000,9363.400000,713641.800000,7883.874819,1924.238717,91705.674700,1330.069021,812.714119,45708.080276
22,0,3,638551.000000,219300.333333,1283833.333333,65997.666667,7804.333333,641418.000000,757.781411,738.138349,40190.582191,276.118735,168.547389,20056.613888
22,1,5,714180.200000,249429.000000,1418687.400000,74389.000000,9161.600000,708769.600000,4958.824595,1225.802921,53103.145024,367.443601,200.011600,26574.276333
23,0,3,640587.333333,219814.666667,1307949.666667,66158.333333,7851.666667,653292.333333,2256.312823,477.557908,55935.667937,348.644359,361.268444,27989.469750
23,1,5,716592.000000,250215.200000,1417929.200000,75002.600000,9433.600000,708397.200000,11525.835206,2544.304730,52019.178334,1488.369524,483.863038,26032.799561
24,0,3,641616.000000,220317.666667,1290967.333333,66400.000000,8110.000000,644834.666667,1822.000183,1117.165859,105266.768768,463.543597,830.738226,52412.052649
24,1,5,710469.600000,248920.600000,1386126.400000,74202.200000,9184.600000,692443.000000,3148.196347,811.905315,56898.320726,342.112496,532.698264,28343.330397
25,0,3,639367.666667,219174.000000,1273032.666667,65919.666667,7571.333333,635882.333333,4163.945591,223.230822,74011.210684,95.009941,455.810146,36826.670773
25,1,5,709382.400000,248653.800000,1385665.800000,74055.400000,9126.400000,692313.800000,3173.164452,575.058397,53635.444804,346.598673,788.286395,26916.305923
26,0,3,641928.666667,219876.666667,1215280.333333,66228.000000,7236.666667,607056.666667,2260.429802,1412.816179,67056.673992,604.192574,491.326323,33428.508565
26,1,5,716413.800000,249745.800000,1448252.000000,74799.400000,9315.600000,723684.000000,7972.008916,1731.024136,98541.679411,1412.766025,578.971018,49415.420913
27,0,3,648191.666667,221087.333333,1335805.000000,67170.333333,7901.666667,667178.000000,11038.883287,1660.637896,155852.579825,1436.082712,709.958841,77569.198221
27,1,5,723303.200000,251573.200000,1396869.400000,76069.000000,9188.400000,697920.200000,12855.277848,2599.803177,57021.281170,1620.767719,605.069120,28496.609513
28,0,3,640282.000000,219900.000000,1421889.000000,66208.333333,8402.666667,709884.333333,2435.455741,657.532255,93815.056119,262.823557,76.246676,46721.091613
28,1,5,710476.800000,249008.600000,1368226.400000,74260.200000,8861.800000,683642.600000,3495.151579,960.902201,45050.613765,497.628938,396.240028,22609.467173
29,0,3,648840.000000,222561.333333,1270359.333333,66928.666667,7348.666667,634742.666667,12035.138637,4336.537815,57015.300785,1286.529267,501.497314,28484.685878
29,1,5,710494.400000,249028.200000,1365059.400000,74228.600000,8933.000000,681992.800000,4462.236641,1337.499368,80710.196782,681.557804,494.722144,40261.261845
30,0,3,642351.333333,219884.333333,1256301.333333,66241.333333,7728.000000,627613.333333,464.614775,1141.960984,48867.612460,511.055335,74.993333,24357.877060
30,1,5,710753.000000,249001.200000,1375971.600000,74217.000000,9012.000000,687352.000000,3708.785408,720.036777,53045.273628,216.021295,438.481471,26509.467682
31,0,3,647417.333333,221100.666667,1250161.666667,67242.000000,7611.000000,624427.000000,9441.460916,1920.515614,63689.009488,1403.722907,606.244725,31677.464745
31,1,5,710097.600000,248928.200000,1383957.800000,74127.800000,8792.200000,691523.400000,2160.712160,280.571845,83768.958008,202.034057,552.884581,41925.860357
32,0,3,642157.333333,220371.666667,1257253.000000,66439.000000,7776.333333,628018.666667,987.465555,1075.913669,37900.613328,451.460593,132.222876,18858.254679
32,1,5,715975.000000,250394.200000,1417683.200000,75086.600000,9409.200000,708284.200000,7085.882838,1410.314773,107041.277672,1150.581696,389.842224,53378.772325
33,0,3,654098.666667,222254.000000,1274892.000000,68146.000000,8031.000000,636847.333333,9146.506813,1954.027124,19967.927000,1471.169829,366.740599,9933.037277
33,1,5,710245.200000,248915.400000,1386818.000000,74158.800000,9037.200000,692901.600000,2246.530961,781.660950,89087.034675,367.663651,750.658484,44527.473234
34,0,3,640006.333333,219724.000000,1308578.666667,66098.666667,7485.000000,653833.000000,2133.698094,324.777873,38973.414377,150.129574,141.282223,19436.041315
34,1,5,713703.800000,250026.000000,1429668.600000,74877.800000,9548.600000,714286.200000,8230.106619,1805.865222,101392.480602,1430.135574,942.715779,50655.578233
35,0,3,639828.666667,219810.000000,1241013.666667,66223.666667,7326.333333,619929.666667,3075.991475,547.871031,36292.700334,302.337927,263.520187,18000.062321
35,1,5,711869.200000,249402.400000,1341040.000000,74316.400000,9351.600000,670015.400000,5671.238115,1205.849344,75331.396286,566.273291,507.074985,37656.491980
36,0,3,647008.000000,222534.333333,1291937.666667,66933.666667,7626.666667,645374.000000,11835.284900,4512.982040,27900.827244,1324.342688,454.029612,14090.949176
36,1,5,710939.400000,249007.000000,1403518.200000,74187.600000,9184.400000,701276.400000,4684.712866,892.519356,25602.784266,465.085196,446.404122,12773.949344
37,0,3,646823.333333,221276.666667,1215072.333333,67241.666667,7592.666667,607007.000000,8680.008154,1500.574631,19725.503649,1369.819047,37.187214,9867.533430
37,1,5,716927.400000,249854.200000,1403193.800000,74776.200000,9092.800000,701156.400000,11338.346698,2432.840102,112490.921021,1598.163621,884.570947,56190.921045
38,0,3,641538.666667,220251.000000,1281051.666667,66388.000000,7856.333333,639825.000000,4152.821236,1169.081976,22349.935933,459.108557,699.432786,10882.524738
38,1,5,720556.600000,250675.000000,1403538.800000,75472.800000,9040.000000,701255.600000,8760.668664,2134.429385,112734.164655,1481.280851,777.690941,56476.962484
39,0,3,644393.333333,220421.333333,1313681.666667,66472.000000,7938.333333,656087.666667,3220.917502,655.978319,74934.604184,281.627413,848.414338,37280.907163
39,1,5,711555.800000,248751.200000,1341228.200000,74126.000000,8769.600000,670087.200000,4405.384769,869.017008,64710.164334,213.055861,571.380994,32326.729642
40,0,2,641399.000000,219226.500000,1390909.500000,65935.500000,7875.000000,694945.000000,575.000000,239.500000,130899.500000,3.500000,554.000000,65452.000000
40,1,5,711236.000000,248631.000000,1383854.800000,74060.200000,8959.600000,691429.200000,2846.522088,638.551486,72645.330141,396.640593,479.721002,36316.202309
41,0,2,639540.000000,218780.500000,1310307.500000,65754.500000,7823.500000,654704.000000,114.000000,229.500000,27983.500000,8.500000,244.500000,14058.000000
41,1,5,717634.800000,250580.600000,1413213.400000,75122.800000,9148.600000,706001.800000,10523.562503,2429.485098,96206.045653,1541.526438,458.513075,48118.316876
42,0,2,642454.500000,219991.500000,1272166.000000,66238.000000,7308.000000,635536.500000,1040.500000,325.500000,19686.000000,78.000000,47.000000,9854.500000
42,1,5,716275.400000,250125.800000,1440426.000000,75032.600000,9369.600000,719684.600000,11361.381247,2221.941979,29799.093006,1727.499766,572.715846,14883.071573
43,0,2,639319.000000,218877.000000,1270597.000000,65812.500000,7266.500000,634818.500000,12.000000,42.000000,88269.000000,54.500000,99.500000,44089.500000
43,1,5,710619.800000,248840.600000,1371932.600000,74133.800000,8887.600000,685440.200000,4799.150316,1109.592826,49762.422809,555.811983,221.122229,24999.109867
44,0,2,646549.000000,221557.500000,1322049.000000,66965.000000,8099.000000,660206.500000,134.000000,399.500000,33552.000000,115.000000,198.000000,16788.500000
44,1,5,721592.400000,251872.200000,1420583.200000,75389.400000,9288.000000,709822.600000,10348.526187,3313.876727,43885.929715,1273.279168,388.967865,21928.697769
45,0,2,638890.000000,218960.000000,1292268.500000,65864.000000,7161.500000,645621.500000,319.000000,587.000000,19612.500000,205.000000,137.500000,9861.500000
45,1,5,714612.200000,249530.800000,1398941.600000,74707.800000,8978.400000,698976.600000,6193.866527,1629.285659,62735.301123,1262.409030,651.705025,31352.484339
46,0,2,641317.500000,220055.500000,1353028.000000,66334.500000,7665.000000,675873.000000,688.500000,604.500000,60058.000000,256.500000,408.000000,30132.000000
46,1,5,711857.800000,248965.600000,1401320.400000,74180.200000,9233.000000,700164.600000,2086.834866,874.969851,22457.028037,414.035457,457.503224,11297.192299
47,0,2,642418.000000,220958.000000,1272595.500000,66675.000000,7131.000000,635636.500000,2014.000000,437.000000,18382.500000,328.000000,265.000000,9048.500000
47,1,5,711543.400000,249286.400000,1367406.800000,74311.400000,8974.000000,683290.000000,1814.603494,322.298992,66953.986962,137.290349,628.996343,33770.735834
48,0,2,652291.500000,222373.000000,1282597.500000,68041.500000,7799.000000,640683.000000,7856.500000,1483.000000,56108.500000,1292.500000,203.000000,27985.000000
48,1,5,710214.200000,248508.800000,1360269.000000,73967.800000,9602.200000,679633.400000,3015.530826,381.577463,45928.682816,245.718050,714.348766,22802.606304
49,0,2,650015.000000,221444.000000,1295516.000000,67597.000000,7233.500000,647256.500000,11587.000000,2443.000000,53869.000000,1644.000000,50.500000,26917.500000
49,1,5,718768.600000,250681.000000,1370438.000000,75472.800000,9456.800000,684631.000000,10811.307795,2093.959407,50231.778655,1474.607934,727.463924,25025.825509
50,0,2,639549.500000,219138.500000,1247745.000000,65914.000000,7356.000000,623443.500000,428.500000,187.500000,12535.000000,30.000000,13.000000,6386.500000
50,1,5,711406.400000,248902.400000,1326334.800000,74123.200000,8716.600000,662686.800000,2864.733817,750.911606,53125.121690,285.458508,108.538657,26582.071668
51,0,2,639113.500000,219404.000000,1186337.500000,66019.000000,7025.500000,592755.500000,216.500000,14.000000,4548.500000,30.000000,371.500000,2272.500000
51,1,5,710305.200000,249090.600000,1353096.000000,74215.200000,8821.200000,675951.400000,3192.909670,504.060552,53658.250613,378.446509,417.316379,26812.167093
52,0,2,637166.000000,218837.500000,1224964.000000,65829.500000,7622.500000,612036.000000,11.000000,142.500000,34250.000000,14.500000,5.500000,17165.000000
52,1,5,711465.600000,249368.800000,1431874.400000,74345.400000,9639.400000,715285.800000,4300.074074,835.268915,159590.179019,194.781519,990.372980,79704.714077
53,0,2,640332.000000,218738.000000,1191448.500000,65750.500000,7217.500000,595298.500000,4678.000000,155.000000,12489.500000,104.500000,130.500000,6250.500000
53,1,5,713767.000000,249337.600000,1424797.400000,74619.200000,9672.200000,711851.600000,8502.896730,1764.687689,84834.598601,1451.439616,743.287401,42311.542263
54,0,2,645612.000000,221181.500000,1295705.500000,66764.000000,7622.000000,647127.500000,3803.000000,265.500000,14576.500000,151.000000,451.000000,7307.500000
54,1,5,714881.600000,249818.000000,1429069.200000,74784.200000,10048.400000,714018.000000,10268.351194,2004.135624,144610.369467,1431.995726,1489.987597,72283.577858
55,0,2,651066.500000,221708.500000,1243895.500000,67662.000000,8052.000000,621473.500000,12703.500000,1972.500000,35995.500000,1598.000000,617.000000,18018.500000
55,1,5,710830.400000,248771.400000,1409536.000000,74122.800000,9454.000000,704209.600000,2126.963902,1050.915525,90606.986532,524.948150,857.149929,45307.340825
56,0,2,639798.500000,219580.500000,1193428.000000,66066.500000,6785.000000,596098.000000,2385.500000,103.500000,50030.000000,14.500000,64.000000,24990.000000
56,1,5,715277.200000,250121.200000,1360955.600000,74923.000000,9333.400000,679912.000000,8742.185663,1972.567200,84918.763429,1176.267317,431.087740,42352.646283
57,0,2,640012.000000,219354.500000,1152563.000000,65946.000000,6660.500000,575813.500000,2339.000000,12.500000,23558.000000,73.000000,138.500000,11806.500000
57,1,5,715041.400000,249646.600000,1393602.600000,74727.200000,9448.800000,696314.800000,10103.926655,1879.434447,94839.148888,1459.815660,717.802591,47365.712643
58,0,2,642440.500000,219680.000000,1290604.000000,66063.500000,7272.000000,644773.500000,351.500000,127.000000,3698.000000,15.500000,230.000000,1819.500000
58,1,5,710088.400000,248967.600000,1356842.200000,74186.400000,9235.200000,677863.800000,3253.568601,617.080416,66118.083413,388.116787,506.487275,33074.757701
59,0,2,643753.000000,220582.000000,1298231.500000,66454.500000,7250.500000,648492.000000,1417.000000,608.000000,21300.500000,325.500000,75.500000,10463.000000
59,1,5,709661.400000,248493.400000,1334111.600000,73962.000000,8914.800000,666526.000000,1825.836422,585.363340,57426.735156,299.723206,255.513914,28728.429466
60,0,2,649930.500000,221225.500000,1289986.000000,67439.500000,7191.000000,644491.500000,10491.500000,2247.500000,56214.000000,1612.500000,457.000000,28112.500000
60,1,5,709814.600000,249085.600000,1406537.600000,74260.000000,9030.400000,702756.000000,1541.655422,706.311433,29159.724900,285.306852,522.832899,14556.691217
61,0,2,643452.000000,220254.000000,1323450.000000,66379.000000,7383.500000,661042.500000,151.000000,834.000000,37596.000000,434.000000,30.500000,18948.500000
61,1,5,708536.600000,248553.000000,1357362.800000,74037.200000,8952.200000,678252.200000,3037.216002,380.290415,33795.680395,254.752743,534.185885,16917.684350
62,0,2,650648.000000,221566.000000,1266616.500000,67535.500000,7757.500000,632839.500000,9920.000000,2837.000000,18607.500000,1903.500000,497.500000,9328.500000
62,1,5,713147.000000,250096.800000,1448694.800000,74934.400000,9347.000000,723814.200000,8743.632243,1469.387546,73537.722792,999.519605,311.190617,36757.476363
63,0,2,642213.500000,219923.000000,1287150.500000,66214.000000,7741.500000,643005.500000,2974.500000,572.000000,35157.500000,284.000000,465.500000,17451.500000
63,1,5,722033.000000,251249.000000,1444569.200000,75981.200000,9408.600000,721802.800000,11115.434764,2215.322821,69014.696503,1662.083199,528.932737,34476.866003
64,0,2,638518.000000,219200.500000,1198556.000000,65905.500000,6703.000000,598781.000000,1493.000000,109.500000,19916.000000,68.500000,587.000000,9993.000000
64,1,5,710108.000000,248877.000000,1380888.800000,74116.200000,8878.400000,689935.000000,5052.056730,773.029107,62030.868565,313.768322,325.060979,31039.090322
65,0,2,638655.500000,219508.500000,1341323.000000,65945.500000,7113.500000,670023.500000,1136.500000,804.500000,6675.000000,291.500000,10.500000,3498.500000
65,1,5,715996.800000,250942.000000,1395052.200000,74799.600000,8742.600000,696990.000000,11726.998344,3943.023510,94420.115106,1134.422073,753.940740,47160.009054
66,0,2,641167.500000,220115.500000,1323251.000000,66211.000000,7398.000000,661112.500000,1456.500000,116.500000,2543.000000,11.000000,19.000000,1186.500000
66,1,5,710159.000000,248248.400000,1384509.400000,73921.600000,8949.400000,691767.800000,2202.090915,199.855548,73665.787312,260.430106,588.255591,36851.972264
67,0,2,640649.000000,219518.500000,1241592.000000,65983.500000,7210.500000,620253.000000,535.000000,490.500000,49024.000000,237.500000,551.500000,24513.000000
67,1,5,710229.800000,248485.400000,1372524.000000,74063.400000,9284.200000,685787.200000,4642.404308,1022.130637,62979.112947,482.176980,383.815789,31473.674265
68,0,2,639123.000000,219261.500000,1242571.500000,65862.000000,7035.500000,620782.500000,2132.000000,22.500000,13098.500000,45.000000,151.500000,6519.500000
68,1,5,714636.600000,249709.000000,1391910.000000,74805.600000,9495.800000,695438.200000,9637.704013,1857.008454,46284.425203,1183.752440,659.279728,23118.004329
69,0,2,641677.500000,220041.500000,1266555.000000,66260.000000,7725.000000,632588.500000,193.500000,373.500000,65440.000000,278.000000,414.000000,32621.500000
69,1,5,716383.400000,250004.200000,1363225.600000,74885.400000,9342.400000,681106.400000,9537.368035,1852.417167,55115.910097,1284.956279,510.941719,27458.068574
70,0,2,651701.000000,221789.000000,1230006.000000,67602.500000,7672.000000,614448.000000,11451.000000,1953.000000,50957.000000,1520.500000,671.000000,25458.000000
70,1,5,717880.600000,249979.200000,1370088.800000,74911.000000,9348.000000,684577.400000,7944.656433,2190.862424,64395.271216,1328.982769,504.835815,32109.088362
71,0,2,636931.500000,218863.000000,1276092.500000,65726.500000,6869.500000,637476.000000,442.500000,672.000000,65407.500000,310.500000,382.500000,32854.000000
71,1,5,721330.600000,251544.800000,1380618.000000,75351.800000,9228.400000,689843.600000,12238.818221,3907.945721,68323.776462,1489.590870,997.218251,34139.794033
72,0,2,639047.500000,219424.500000,1290206.500000,65928.500000,7265.000000,644557.500000,2440.500000,345.500000,5316.500000,101.500000,181.000000,2589.500000
72,1,5,712038.600000,248772.400000,1334625.000000,74066.600000,9022.800000,666771.400000,2126.661666,415.222639,64994.077998,94.122473,728.617979,32523.396475
73,0,2,650045.000000,222064.000000,1364127.500000,67781.500000,8031.500000,681404.500000,6689.000000,1292.000000,55327.500000,1275.500000,4.500000,27612.500000
73,1,5,719336.200000,250536.600000,1375067.000000,75410.600000,9285.600000,687010.200000,8723.602682,2038.608506,79043.297558,1446.788803,758.646321,39544.052167
74,0,2,636649.000000,219356.500000,1257856.500000,65905.000000,7111.000000,628444.500000,2151.000000,68.500000,8062.500000,63.000000,322.000000,4024.500000
74,1,5,712849.000000,249017.800000,1400378.000000,74263.600000,9031.600000,699586.000000,1903.693988,1022.226081,66819.293061,321.427815,441.028616,33531.188270
75,0,2,638227.000000,219170.000000,1258566.500000,65863.500000,7567.500000,628771.500000,497.000000,538.000000,38297.500000,253.500000,300.500000,19230.500000
75,1,5,712801.800000,249061.600000,1390436.400000,74223.600000,8834.400000,694687.600000,3578.380662,851.898022,25966.400471,473.098129,582.051407,13090.321396
76,0,2,639666.500000,219678.000000,1282765.500000,66015.000000,7394.000000,640883.500000,1539.500000,165.000000,21191.500000,73.000000,72.000000,10611.500000
76,1,5,714762.000000,249554.400000,1345930.000000,74679.400000,8989.800000,672444.400000,7651.182628,1947.056712,42369.233205,1249.646446,774.295396,21168.468689
77,0,2,639034.500000,219659.000000,1243030.500000,65950.000000,7189.500000,620997.500000,1598.500000,332.000000,27801.500000,178.000000,420.500000,13848.500000
77,1,5,712394.000000,249062.000000,1461419.400000,74294.800000,9184.400000,730106.600000,2634.591581,1005.637708,63122.135260,437.557493,655.526842,31633.969556
78,0,2,647739.500000,221363.000000,1211699.500000,67477.500000,7677.500000,605316.000000,13347.500000,2537.000000,7870.500000,1709.500000,296.500000,3731.000000
78,1,5,716620.600000,250218.200000,1429856.200000,74960.200000,9258.400000,714242.600000,8272.026610,2181.689565,50948.574902,1286.801989,149.819358,25449.374488
79,0,2,638919.000000,220106.000000,1305819.500000,66302.000000,7614.500000,652098.500000,1418.000000,1198.000000,14352.500000,587.000000,20.500000,6988.500000
79,1,5,713920.800000,249526.400000,1433431.400000,74683.800000,9381.800000,715921.800000,7155.601062,1561.981383,73510.758458,1334.793078,831.759436,36536.197100
80,0,2,650003.500000,222065.500000,1224994.000000,67710.500000,7326.000000,612131.000000,7941.500000,1974.500000,44733.000000,1589.500000,652.000000,22445.000000
80,1,5,711607.800000,248939.800000,1393778.800000,74125.000000,9015.200000,696446.000000,3533.483233,499.836133,63728.357818,225.783082,629.010461,31923.395158
81,0,2,637857.500000,219820.500000,1294405.000000,66173.000000,7293.000000,646617.500000,26.500000,940.500000,16225.000000,476.000000,316.000000,7967.500000
81,1,5,715530.800000,249646.200000,1383516.400000,74753.600000,9447.800000,691225.800000,9335.042762,2012.454462,42731.275715,1225.604602,347.186060,21289.050466
82,0,2,641653.000000,219367.500000,1279585.500000,65914.500000,7675.000000,639286.500000,3565.000000,109.500000,49551.500000,8.500000,184.000000,24817.500000
82,1,5,708939.200000,248540.000000,1385420.200000,74030.000000,9043.400000,692238.000000,2901.316970,652.696867,40281.532604,325.931895,361.817413,20182.243106
83,0,2,653676.000000,221591.000000,1221620.000000,67527.500000,8273.000000,610338.000000,10460.000000,2152.000000,40763.000000,1574.500000,702.000000,20414.000000
83,1,5,709955.200000,248348.000000,1438604.400000,73960.600000,9398.400000,718952.000000,2550.979216,179.664131,115565.029603,131.027631,457.196063,58085.875095
84,0,2,640639.500000,218898.000000,1251971.500000,65754.500000,7736.000000,625447.000000,123.500000,191.000000,26054.500000,146.500000,120.000000,12990.000000
84,1,5,711118.400000,248844.000000,1383118.600000,74107.800000,8981.800000,690991.600000,3091.570449,615.567056,84184.557436,347.449219,499.777310,41997.205177
85,0,2,642486.500000,219327.000000,1255349.000000,65873.500000,7692.500000,627211.000000,532.500000,290.000000,690.000000,195.500000,204.500000,404.000000
85,1,5,715330.200000,249445.400000,1380885.400000,74667.200000,9199.600000,689985.000000,7896.973076,1607.294696,70220.200298,1229.388368,526.299762,35302.459614
86,0,2,640760.500000,219156.000000,1196426.500000,65834.500000,7229.000000,597736.500000,1296.500000,382.000000,7732.500000,38.500000,125.000000,3855.500000
86,1,5,711920.200000,249487.000000,1411925.600000,74433.000000,9109.400000,705320.800000,4223.463100,1189.595562,71660.219499,689.514322,355.482545,35803.123883
87,0,2,652275.000000,221583.000000,1262372.000000,67515.500000,8288.500000,630813.000000,10150.000000,2004.000000,19203.000000,1647.500000,264.500000,9730.000000
87,1,5,717118.200000,250243.000000,1422905.600000,75027.400000,9215.400000,710890.000000,9502.941932,1942.347549,136760.833856,1328.057017,387.973504,68410.947139
88,0,2,643202.500000,220347.000000,1278836.000000,66349.000000,7238.000000,638803.000000,3754.500000,1232.000000,117393.000000,455.000000,172.000000,58625.000000
88,1,5,711002.800000,248803.600000,1340000.200000,74102.200000,8562.800000,669422.000000,2398.815658,578.642757,38590.043195,222.916487,307.060515,19231.651193
89,0,2,661560.500000,224293.000000,1215320.500000,69299.000000,7846.500000,607067.000000,1434.500000,241.000000,35822.500000,32.000000,204.500000,17975.000000
89,1,5,714146.400000,250063.000000,1349185.800000,74670.000000,8936.200000,673844.200000,3937.483796,1194.273503,57446.060684,439.863161,373.379378,28543.485894
90,0,2,642890.500000,220048.500000,1203618.000000,66131.000000,7301.500000,601308.500000,1627.500000,344.500000,4530.000000,27.000000,498.500000,2287.500000
90,1,5,716122.800000,250189.800000,1383334.600000,74984.000000,9605.000000,691045.000000,8967.085979,1906.315441,49414.918539,1124.298893,250.884834,24692.587819
91,0,2,643064.500000,219976.500000,1234219.500000,66166.000000,7669.000000,616548.500000,1127.500000,647.500000,66926.500000,182.000000,362.000000,33502.500000
91,1,5,715342.600000,249727.600000,1377177.200000,74750.200000,9581.600000,688105.800000,6354.620417,1684.966184,68430.995999,1412.037592,398.057584,34237.611046
92,0,2,651612.500000,221684.500000,1257660.500000,67580.000000,7733.500000,628359.000000,10322.500000,2442.500000,83456.500000,1607.000000,270.500000,41759.000000
92,1,5,716030.000000,249818.800000,1406264.800000,74786.000000,9313.600000,702564.400000,9032.190941,1929.315671,170285.123758,1304.105517,550.386991,85072.681153
93,0,2,638712.000000,218936.500000,1343873.500000,65701.000000,7421.500000,671391.000000,268.000000,167.500000,50343.500000,27.000000,331.500000,25152.000000
93,1,5,709580.400000,248423.600000,1363646.200000,73931.600000,9169.000000,681341.400000,3543.155294,383.108131,45956.563180,189.960627,612.583709,22952.621093
94,0,2,641916.500000,219741.000000,1274224.500000,65976.000000,7286.000000,636630.500000,493.500000,396.000000,18322.500000,34.000000,70.000000,9145.500000
94,1,5,713081.000000,249086.200000,1346394.200000,74282.600000,8779.600000,672593.400000,4035.810749,1100.768713,60054.111408,464.691554,391.574565,30083.213768
95,0,2,641455.000000,220170.000000,1283549.000000,66359.500000,7214.500000,640978.000000,4172.000000,1169.000000,96846.000000,615.500000,497.500000,48190.000000
95,1,5,712518.200000,249059.400000,1374900.600000,74182.200000,8863.200000,686978.600000,2856.170401,419.068300,60861.078034,209.772639,445.758859,30412.565131
96,0,2,640413.000000,219791.500000,1274076.500000,66141.500000,7857.000000,636420.500000,2134.000000,1168.500000,28730.500000,368.500000,128.000000,14231.500000
96,1,5,720659.400000,251020.800000,1406076.000000,75584.800000,9602.600000,702562.400000,11162.086859,2372.004334,46133.402779,1690.902765,603.298467,23017.738782
97,0,2,639013.500000,219267.000000,1252095.500000,65879.500000,7218.000000,625623.500000,1095.500000,41.000000,99696.500000,63.500000,564.000000,49804.500000
97,1,5,716240.600000,250674.800000,1434505.400000,75154.400000,9348.200000,716654.000000,6844.195398,1639.131160,38404.838506,1146.792850,361.386995,19269.062074
98,0,2,639676.000000,219352.000000,1276989.000000,65883.500000,7684.000000,638066.000000,13.000000,277.000000,10261.000000,39.500000,789.000000,5175.000000
98,1,5,715840.200000,249751.600000,1447420.400000,74806.400000,9816.800000,723053.400000,7267.642545,2356.928306,91952.416431,1254.240902,704.410789,45862.692937
99,0,2,644556.000000,221299.000000,1272233.000000,66666.500000,7587.000000,635488.000000,1173.000000,525.000000,9609.000000,244.500000,200.000000,4704.000000
99,1,5,715958.200000,249917.800000,1398366.000000,74810.400000,9207.800000,698671.800000,8869.631253,1998.105943,55526.427477,1358.660900,748.537080,27775.531940
100,0,2,639514.500000,219561.000000,1341387.000000,65969.500000,8312.000000,670228.500000,2940.500000,710.000000,60070.000000,318.500000,49.000000,29957.500000
100,1,5,711826.400000,249480.800000,1402381.200000,74377.800000,8892.200000,700686.000000,2980.556029,826.076849,48478.437390,442.880751,177.300197,24263.039694
101,0,2,635915.000000,219019.000000,1276991.500000,65796.000000,7740.500000,637932.500000,487.000000,307.000000,13470.500000,106.000000,170.500000,6755.500000
101,1,5,715915.800000,250255.400000,1486256.800000,75011.600000,9272.000000,742544.600000,9749.445121,2027.088612,78317.278067,1327.416980,376.278089,39154.764112
102,0,2,642818.000000,219218.500000,1267513.500000,65874.500000,7706.500000,633258.500000,766.000000,141.500000,15101.500000,103.500000,248.500000,7436.500000
102,1,5,712366.200000,249093.800000,1376470.200000,74201.600000,8859.200000,687704.200000,1862.057722,624.963167,89837.318837,387.173656,473.062533,44818.311599
103,0,2,643777.500000,219444.000000,1273670.000000,65885.000000,7985.000000,636299.000000,441.500000,494.000000,64513.000000,244.000000,933.000000,32168.000000
103,1,5,714424.400000,249228.000000,1434959.800000,74526.000000,9047.400000,717033.000000,8030.087536,2151.638538,62241.925997,1397.789970,659.204551,31079.936132
104,0,2,644270.000000,220079.500000,1276230.500000,66232.000000,7590.500000,637698.000000,1076.000000,888.500000,21406.500000,446.000000,704.500000,10707.000000
104,1,5,713396.200000,249626.200000,1407429.000000,74389.800000,9123.800000,703111.600000,2205.001896,1247.732247,58432.046577,405.334627,558.957029,29064.306457
105,0,2,644507.000000,220424.000000,1346594.500000,66334.500000,8215.000000,672894.000000,3203.000000,638.000000,121592.500000,191.500000,1207.000000,60848.000000
105,1,5,716010.000000,250072.400000,1413776.800000,74801.800000,9192.400000,706412.600000,8038.850067,2025.333415,82536.818479,1213.765117,689.804204,41226.730972
106,0,2,654418.000000,222006.500000,1360967.000000,67666.000000,8083.500000,679898.000000,10070.000000,2408.500000,99307.000000,1755.000000,37.500000,49607.000000
106,1,5,710956.400000,249034.400000,1464759.600000,74139.000000,9424.600000,731812.800000,2555.635467,525.547562,77466.866514,294.990847,1010.132981,38636.168187
107,0,2,652524.000000,221752.000000,1260093.000000,67559.500000,7776.000000,629470.000000,9783.000000,1567.000000,48332.000000,1320.500000,896.000000,24159.000000
107,1,5,711634.400000,249436.400000,1441636.800000,74312.000000,9381.000000,720241.400000,3898.762860,920.528891,30647.176277,494.029554,343.585797,15384.872942
108,0,2,640981.000000,219697.500000,1291556.500000,66031.500000,7405.000000,645196.500000,1008.000000,50.500000,37678.500000,59.500000,885.000000,18714.500000
108,1,5,710171.600000,248743.000000,1468797.200000,74001.600000,9200.000000,733894.000000,3225.654947,917.175229,31233.861198,267.482037,500.032799,15588.145906
109,0,2,652357.000000,222153.000000,1215087.500000,67762.500000,7639.000000,606890.000000,7878.000000,2291.000000,4470.500000,1640.500000,326.000000,2095.000000
109,1,5,716334.400000,250746.600000,1380551.400000,75120.200000,9189.000000,689684.200000,7527.761542,1616.953630,48950.799551,998.243938,363.125323,24444.586062
110,0,2,653207.500000,221746.500000,1252410.000000,67696.000000,7959.500000,625639.000000,11687.500000,2455.500000,23905.000000,1740.000000,936.500000,11860.000000
110,1,5,710320.600000,248989.400000,1435164.800000,74107.400000,9338.400000,717118.200000,3737.371194,890.165962,77309.725759,357.647089,357.825991,38657.855680
111,0,2,642584.500000,220004.500000,1281649.500000,66291.500000,7812.000000,640281.500000,789.500000,561.500000,1375.500000,260.500000,443.000000,615.500000
111,1,5,716442.000000,250926.600000,1415071.600000,74732.600000,9292.400000,706991.600000,14705.716127,4286.823187,80397.431448,1561.283395,570.464232,40118.993420
112,0,2,641382.000000,219160.000000,1292706.000000,65944.000000,7287.000000,645871.000000,3364.000000,37.000000,40503.000000,37.000000,545.000000,20245.000000
112,1,5,713212.200000,249274.200000,1416216.400000,74248.600000,9037.000000,707521.200000,2562.773763,918.567450,101351.927910,414.926307,573.394454,50541.236706
113,0,2,650679.000000,221949.500000,1211846.000000,67706.000000,7235.000000,605407.000000,11892.000000,1887.500000,46391.000000,1511.000000,565.000000,23177.000000
113,1,5,715331.400000,249724.000000,1413325.800000,74688.400000,9642.800000,706113.800000,6829.114045,1747.245718,102749.402703,1292.858631,661.291585,51269.103606
114,0,2,642045.000000,220148.500000,1315983.000000,66337.500000,7998.000000,657425.000000,835.000000,960.500000,120358.000000,475.500000,263.000000,60024.000000
114,1,5,718685.000000,250488.200000,1401001.000000,74986.000000,9702.000000,699934.800000,12093.645273,2448.173229,81258.449180,1296.716314,412.455088,40612.491553
115,0,2,641263.000000,220101.500000,1249316.500000,66226.500000,7524.500000,624148.000000,1111.000000,261.500000,64300.500000,89.500000,15.500000,32223.000000
115,1,5,713545.600000,249332.600000,1410108.200000,74253.400000,9021.400000,704497.600000,1234.447828,673.346746,86551.133244,471.248809,242.093040,43165.827691
116,0,2,641509.000000,220369.500000,1280505.500000,66359.000000,8562.500000,639505.000000,2890.000000,243.500000,41839.500000,198.000000,321.500000,20945.000000
116,1,5,718237.000000,250507.400000,1427141.600000,75068.800000,9165.800000,713301.400000,13038.969607,2583.023314,31975.549350,1564.357427,402.669790,16061.257343
117,0,2,637729.000000,219397.000000,1225789.500000,65896.000000,7518.500000,612381.000000,523.000000,744.000000,63702.500000,335.000000,291.500000,31695.000000
117,1,5,717845.400000,249982.400000,1432440.000000,74751.200000,9568.400000,715729.400000,8729.626718,1933.708623,42470.767236,1358.706797,585.100538,21221.477815
118,0,2,638678.500000,219024.500000,1231591.000000,65753.500000,7574.000000,615546.500000,408.500000,259.500000,16679.000000,89.500000,34.000000,8514.500000
118,1,5,713714.000000,249559.200000,1338379.800000,74347.000000,9067.600000,668661.800000,2966.282050,977.474174,64049.889937,503.795196,271.784915,32029.157650
119,0,2,642959.500000,220271.500000,1258989.500000,66320.500000,7810.000000,628788.500000,4413.500000,1068.500000,83067.500000,550.500000,603.000000,41182.500000
119,1,5,715985.400000,249877.000000,1387100.800000,74713.800000,9034.400000,693085.600000,9430.771604,2146.770132,79194.854513,1266.994617,495.543984,39566.793070
120,0,2,645098.000000,220592.000000,1382706.500000,66464.000000,8129.500000,690262.500000,2896.000000,911.000000,25025.500000,385.000000,171.500000,12849.500000
120,1,6,712672.500000,248893.333333,1358694.666667,74114.666667,9065.666667,678706.833333,2125.449109,573.909594,48630.673656,290.322043,472.529599,24031.400787
121,0,2,651426.500000,221532.000000,1239607.500000,67553.000000,8026.000000,619194.000000,9081.500000,1768.000000,20896.500000,1499.000000,403.000000,10487.000000
121,1,6,713125.500000,249433.500000,1402781.333333,74403.333333,9115.666667,700715.500000,3116.822781,961.065858,55540.358178,424.251367,502.679045,27619.003354
122,0,2,640106.500000,219100.500000,1232739.000000,65887.500000,7223.000000,615956.500000,490.500000,100.500000,79033.000000,20.500000,234.000000,39547.500000
122,1,6,719586.666667,251225.833333,1446234.000000,75132.000000,9340.666667,722734.166667,19513.511760,5550.891743,65413.479373,2462.445059,968.317212,32741.808418
123,0,2,640913.000000,219396.500000,1276342.500000,66030.000000,8130.500000,637867.500000,1784.000000,267.500000,39607.500000,66.000000,391.500000,20246.500000
123,1,6,718576.666667,250667.500000,1418831.666667,75393.500000,9436.333333,708813.000000,8280.768999,1905.294006,65896.517279,1461.775490,300.094244,32946.568896
124,0,2,640661.500000,219739.000000,1263217.000000,66230.500000,7282.000000,630769.000000,238.500000,495.000000,47805.000000,309.500000,43.000000,23468.000000
124,1,6,715305.666667,250222.000000,1370910.500000,74973.833333,8851.333333,684837.166667,8019.898621,1648.254531,84049.542259,1072.349199,767.228490,41764.229696
125,0,2,641670.500000,220768.500000,1274831.000000,66674.500000,7575.000000,636660.500000,2123.500000,556.500000,2191.000000,194.500000,493.000000,1169.500000
125,1,6,713950.666667,249839.000000,1354957.500000,74832.333333,8993.166667,676909.833333,8351.734763,1780.028371,37463.484158,1068.885817,964.701062,18756.526121
126,0,2,649795.500000,221126.000000,1359917.500000,67423.500000,8527.000000,679523.500000,8767.500000,2603.000000,79923.500000,1747.500000,250.000000,39998.500000
126,1,6,709661.333333,248858.000000,1379915.500000,74150.166667,8868.500000,689460.000000,2120.953690,586.342335,103344.560958,263.284014,527.877432,51684.458273
127,0,2,641986.000000,219531.000000,1309861.000000,66000.000000,7539.500000,654085.000000,675.000000,6.000000,14906.000000,33.000000,129.500000,7216.000000
127,1,6,719157.500000,250888.500000,1409583.833333,75453.333333,9602.833333,704140.666667,8838.584346,1845.090038,54908.146910,1396.243850,338.699679,27222.240954
128,0,2,640641.500000,219715.500000,1320573.000000,66181.000000,7517.000000,659680.500000,1679.500000,84.500000,80194.000000,166.000000,861.000000,39966.500000
128,1,6,714753.000000,249980.833333,1410036.333333,74892.833333,9400.833333,704429.500000,6979.376620,1822.017784,89674.103359,1081.869896,837.627088,44703.264574
129,0,2,648097.000000,220971.500000,1225527.500000,67320.500000,7623.500000,612312.500000,10500.000000,2906.500000,21002.500000,1908.500000,211.500000,10407.500000
129,1,6,711072.666667,249047.500000,1437409.833333,74291.333333,9468.500000,718086.333333,2998.649455,691.019959,70722.005409,361.800897,549.542158,35282.443144
130,0,2,640575.000000,219402.500000,1226084.500000,65941.500000,7200.000000,612572.500000,1002.000000,331.500000,17568.500000,168.500000,70.000000,8816.500000
130,1,6,710724.833333,248671.166667,1373361.166667,74136.000000,9020.500000,686161.166667,2705.274688,568.808526,76819.286091,198.715039,751.438343,38269.749391
131,0,2,638284.500000,218871.000000,1267014.500000,65679.500000,7376.500000,632970.000000,1127.500000,366.000000,926.500000,217.500000,225.500000,517.000000
131,1,6,713176.500000,249396.666667,1371337.833333,74704.166667,9105.166667,685129.500000,7078.701405,1806.781546,36541.662804,1176.788627,564.567509,18233.099963
132,0,2,640010.000000,219389.000000,1343110.500000,65938.000000,8068.000000,671074.000000,1247.000000,476.000000,51267.500000,204.000000,722.000000,25616.000000
132,1,6,720840.666667,251015.000000,1408456.500000,75749.166667,9564.000000,703658.833333,10892.651493,1999.531528,27763.980495,1653.339592,468.632763,13900.993651
133,0,2,647791.000000,221132.500000,1251837.000000,67393.000000,7600.000000,625389.000000,9072.000000,1818.500000,9127.000000,1434.000000,779.000000,4643.000000
133,1,6,709994.500000,248579.666667,1367892.666667,74080.000000,9209.500000,683531.166667,2611.031134,645.826000,72274.494479,250.615908,833.374016,36175.258103
134,0,2,638666.500000,219544.000000,1208607.500000,65942.500000,7195.000000,603849.500000,2225.500000,622.000000,38845.500000,245.500000,361.000000,19513.500000
134,1,6,711589.333333,249261.500000,1468001.666667,74377.833333,9238.333333,733213.666667,1071.012864,550.150207,88425.082996,376.487900,727.040271,44053.720753
135,0,2,636211.000000,219083.500000,1273226.500000,65791.500000,7662.000000,636122.000000,1278.000000,479.500000,74289.500000,192.500000,292.000000,37216.000000
135,1,6,711828.333333,249187.833333,1364406.500000,74305.166667,9076.666667,681616.166667,1791.084370,568.495212,74761.141223,236.003825,537.331266,37265.800700
136,0,2,641783.500000,220095.000000,1369276.500000,66311.500000,8629.000000,683850.500000,1065.500000,402.000000,13474.500000,297.500000,786.000000,6396.500000
136,1,6,711643.166667,249074.500000,1383271.833333,74296.000000,9132.000000,690817.833333,2871.919649,907.410005,75467.961139,372.078845,540.895862,37395.289616
137,0,2,639702.000000,219940.000000,1209397.500000,66270.500000,7369.500000,604110.000000,1710.000000,1028.000000,68779.500000,396.500000,311.500000,34346.000000
137,1,6,710770.166667,248844.666667,1381870.666667,74222.500000,9370.000000,690446.666667,2196.222091,785.870360,149086.496824,488.135825,1072.319138,74488.078844
138,0,2,635762.500000,218562.500000,1306891.500000,65662.000000,8288.000000,653029.500000,792.500000,768.500000,93409.500000,256.000000,200.000000,46888.500000
138,1,6,715244.833333,250186.833333,1414318.166667,75022.833333,9739.666667,706159.666667,7639.386546,1734.271357,92039.303339,1274.988028,523.447121,45276.162730
139,0,2,650741.000000,221681.000000,1266805.000000,67594.500000,8964.500000,632844.500000,11023.000000,2048.000000,133755.000000,1531.500000,1031.500000,66894.500000
139,1,6,714347.000000,249867.166667,1365333.000000,74908.666667,9138.333333,681958.166667,6225.344488,1520.227770,83011.844601,1034.175624,558.724341,41487.490904
140,0,2,638572.500000,218972.000000,1268537.000000,65853.000000,8284.500000,633660.500000,1380.500000,218.000000,118390.000000,59.000000,527.500000,59199.500000
140,1,6,709545.166667,248849.666667,1371914.000000,74250.000000,9167.000000,685429.333333,2994.706854,931.566184,99598.464898,416.958831,757.745780,49692.705859
141,0,2,636926.500000,218483.500000,1254472.500000,65617.000000,7781.000000,626663.000000,1392.500000,107.500000,95400.500000,0.000000,660.000000,47703.000000
141,1,6,710072.500000,249076.666667,1394420.666667,74354.666667,9215.000000,696604.000000,2816.397625,856.358700,107583.234404,259.332262,1053.210647,53668.300147
142,0,2,672623.000000,228216.500000,1476874.500000,70535.500000,8921.500000,737714.500000,13460.000000,4075.500000,45413.500000,1182.500000,273.500000,22521.500000
142,1,6,710377.333333,248880.666667,1355096.833333,74277.000000,9036.166667,676938.833333,2982.839233,648.195615,46772.872417,368.386572,464.386842,23408.149496
143,0,2,637635.500000,219608.500000,1396364.500000,66012.500000,8019.500000,697932.000000,2305.500000,921.500000,164782.500000,318.500000,673.500000,82622.000000
143,1,6,713668.666667,249812.166667,1452125.666667,74865.333333,9436.333333,725433.500000,6551.753039,1434.049908,93855.615390,1166.551994,614.741319,46932.601788
144,0,2,637214.000000,218992.500000,1322847.500000,65818.000000,7907.500000,660923.000000,1152.000000,152.500000,33504.500000,38.000000,320.500000,16756.000000
144,1,6,715073.500000,250116.000000,1408743.166667,75025.333333,9467.166667,703654.000000,7812.319625,1880.690831,63847.268700,1091.521517,306.145073,31890.834843
145,0,2,640142.500000,220285.500000,1281284.500000,66360.500000,8101.500000,640057.000000,1576.500000,1037.500000,25549.500000,489.500000,45.500000,12496.000000
145,1,6,714575.333333,250101.333333,1378731.666667,74544.333333,9314.166667,688838.166667,10547.857660,3809.154047,61644.663418,1103.318580,492.441677,30813.817298
146,0,2,642144.500000,219791.500000,1409436.500000,66208.500000,8587.500000,704011.500000,75.500000,928.500000,21536.500000,378.500000,478.500000,10793.500000
146,1,6,710044.500000,248463.166667,1427667.166667,74108.500000,9215.833333,713188.166667,3164.241233,959.342729,84382.901853,357.118444,516.873426,42106.212873
147,0,2,641879.000000,220247.000000,1295394.500000,66358.500000,7833.000000,647093.000000,3808.000000,429.000000,17089.500000,207.500000,64.000000,8352.000000
147,1,6,717718.333333,250416.666667,1440603.500000,75391.166667,9433.166667,719706.666667,11607.246683,2094.538268,73621.969685,1580.654655,1007.129322,36796.367156
148,0,2,641568.500000,219910.500000,1254212.500000,66209.500000,7401.500000,626498.500000,350.500000,963.500000,61474.500000,459.500000,785.500000,30633.500000
148,1,6,710311.833333,249103.833333,1406399.000000,74344.000000,8898.166667,702666.000000,3003.361917,763.785183,24071.809771,502.445354,414.991332,11935.457078
149,0,2,639001.000000,219321.000000,1323216.500000,65910.500000,7374.000000,661128.500000,829.000000,349.000000,45528.500000,96.500000,108.000000,22818.500000
149,1,6,713230.666667,249774.666667,1388872.166667,74872.000000,9441.833333,693760.833333,6503.451383,1727.584891,47164.594038,1088.742088,490.154539,23482.744129
150,0,2,640714.000000,220212.500000,1286221.000000,66365.000000,7654.500000,642411.500000,5400.000000,945.500000,66528.000000,429.000000,641.500000,33088.500000
150,1,6,711785.166667,249565.666667,1422085.666667,74559.833333,9668.666667,710216.833333,4791.054665,773.322845,104942.395101,406.168855,588.691109,52055.872360
151,0,2,638477.000000,218885.500000,1239965.000000,65727.000000,7055.500000,619524.500000,1275.000000,658.500000,33517.000000,198.000000,478.500000,16783.500000
151,1,6,710044.166667,248811.500000,1409173.166667,74248.000000,9482.666667,704019.833333,3140.231648,600.187124,78986.397167,227.711074,431.068311,39495.868457
152,0,2,638826.500000,219338.500000,1191828.500000,65961.000000,7057.500000,595341.000000,58.500000,228.500000,1199.500000,84.000000,32.500000,522.000000
152,1,6,714519.000000,249813.333333,1440103.500000,74887.833333,9573.666667,719387.833333,7946.894257,1729.063202,42982.276816,1105.846948,398.366107,21371.935277
153,0,2,655473.500000,225397.500000,1297859.500000,67934.500000,7659.000000,648050.500000,15960.500000,6147.500000,7292.500000,2081.500000,73.000000,3568.500000
153,1,6,708940.666667,248689.000000,1444754.166667,74160.500000,9558.333333,721885.833333,3164.909197,776.861635,115443.923477,343.983406,1038.138344,57820.215189
154,0,2,639694.500000,219846.500000,1330804.500000,66222.000000,7786.500000,664779.000000,1317.500000,1268.500000,48386.500000,494.000000,75.500000,24101.000000
154,1,6,713330.500000,249648.666667,1399396.333333,74818.000000,9607.500000,699056.666667,7151.223829,1347.256925,37776.652506,1097.965087,628.641326,18879.586936
155,0,2,637546.500000,218996.500000,1347896.000000,65821.000000,7939.000000,673140.500000,1058.500000,326.500000,86098.000000,140.000000,839.000000,42656.500000
155,1,6,711623.333333,248979.333333,1375220.166667,74268.333333,9481.000000,687097.500000,3294.388546,717.885940,68445.834374,459.644307,421.615148,34112.885526
156,0,2,640133.000000,220302.500000,1377623.500000,66416.000000,8378.000000,688175.500000,5482.000000,1244.500000,30973.500000,590.000000,203.000000,15624.500000
156,1,6,711235.000000,248973.666667,1402502.666667,74307.166667,9594.833333,700603.666667,3872.885617,1042.924840,64941.878496,499.983805,622.859379,32425.998688
157,0,2,639559.000000,219281.500000,1291173.000000,65903.500000,7555.500000,645149.000000,1654.000000,957.500000,25569.000000,315.500000,272.500000,12751.000000
157,1,6,715269.500000,250071.166667,1387008.666667,74999.166667,9371.166667,692744.000000,7815.178709,1291.297592,47709.440895,937.096476,548.050003,23635.442355
158,0,2,635937.500000,218872.000000,1307766.500000,65784.500000,7669.000000,653182.000000,1067.500000,90.000000,29478.500000,16.500000,400.000000,14704.000000
158,1,6,718654.666667,251247.666667,1436403.666667,75287.166667,9765.500000,717595.000000,11271.406947,3421.862488,65378.590432,1388.806972,701.774121,32687.932993
159,0,2,636738.500000,219666.500000,1261782.000000,66072.500000,7941.500000,630172.000000,387.500000,535.500000,4586.000000,160.500000,133.500000,2101.000000
159,1,6,710567.666667,249077.166667,1377181.666667,74317.500000,9338.333333,687924.833333,3375.416797,906.992359,63816.787973,353.855314,353.670594,31813.210948
160,0,2,636325.500000,218810.000000,1327431.000000,65690.000000,8082.000000,663140.000000,73.500000,797.000000,163000.000000,231.000000,678.000000,81473.000000
160,1,6,713886.833333,250047.000000,1434967.333333,74530.000000,9771.000000,716836.000000,12872.721771,4167.206098,154284.404544,1370.478870,974.497990,76988.513840
161,0,2,648287.000000,221552.000000,1318765.500000,67599.000000,8260.500000,658822.500000,12606.000000,1985.000000,115090.500000,1537.000000,140.500000,57591.500000
161,1,6,713425.333333,249658.666667,1396095.166667,74797.500000,9841.666667,697488.833333,9113.719963,2038.836978,89136.225577,1410.590272,854.263360,44571.999078
162,0,2,637120.000000,219273.000000,1208971.000000,65931.500000,7715.500000,603612.500000,1157.000000,524.000000,90573.000000,126.500000,358.500000,45199.500000
162,1,6,712992.666667,249455.000000,1414485.166667,74732.166667,9600.833333,706670.500000,7217.619637,1755.193722,90692.575822,1364.715284,615.967644,45330.579270
163,0,2,640338.000000,218945.500000,1306403.000000,65817.000000,8039.500000,652701.000000,2866.000000,442.500000,101403.000000,164.000000,394.500000,50679.000000
163,1,6,709659.833333,248952.333333,1399254.666667,74310.833333,9652.666667,699006.333333,2299.427858,896.102425,55316.142227,339.886950,644.713804,27720.675868
164,0,2,639104.500000,218844.000000,1222884.500000,65760.000000,7474.000000,610862.000000,1751.500000,9.000000,105006.500000,47.000000,902.000000,52428.000000
164,1,6,710786.000000,249058.833333,1415125.000000,74310.000000,9315.500000,706826.833333,3987.081765,946.440774,99047.699349,430.440085,596.852508,49517.073134
165,0,2,638335.000000,219024.000000,1291422.000000,65842.000000,7932.500000,645179.000000,1419.000000,449.000000,94561.000000,130.000000,629.500000,47273.000000
165,1,6,710315.333333,248843.500000,1403579.500000,74236.500000,9374.833333,701199.166667,4906.815011,1406.482936,75940.835536,454.915652,662.909852,38026.637525
166,0,2,639564.500000,219019.500000,1271180.000000,65837.000000,7852.500000,634962.500000,1668.500000,233.500000,55720.000000,111.000000,659.500000,27811.500000
166,1,6,712069.666667,249335.166667,1422029.666667,74408.000000,9308.833333,710417.833333,2086.123412,586.939922,62138.826308,371.125765,444.677942,30967.425495
167,0,2,640151.500000,219473.000000,1335076.500000,65985.000000,7840.500000,666879.500000,2241.500000,260.000000,28620.500000,102.000000,257.500000,14643.500000
167,1,6,714353.666667,249718.000000,1373304.666667,74789.333333,9459.833333,686063.666667,8523.052968,1986.657327,57913.880612,1453.655927,495.488115,28937.739549
168,0,2,640100.000000,219924.000000,1287199.000000,66273.500000,7598.500000,642945.500000,3368.000000,910.000000,64459.000000,411.500000,473.500000,32147.500000
168,1,6,711935.000000,249290.500000,1362390.500000,74419.833333,9297.833333,680582.500000,3635.489101,1062.334968,58499.732449,370.759318,542.550894,29046.910454
169,0,2,635995.500000,218654.000000,1339171.500000,65650.000000,7337.000000,668739.000000,1835.500000,329.000000,13264.500000,114.000000,249.000000,6273.000000
169,1,6,713913.833333,249628.833333,1370994.333333,74776.333333,9302.333333,684928.333333,5555.665319,1364.617580,87959.983382,1025.388490,835.750893,44042.622892
170,0,2,639535.500000,219600.500000,1253333.000000,66018.000000,7903.500000,626165.500000,2113.500000,649.500000,17667.000000,220.000000,476.500000,8925.500000
170,1,6,712011.333333,249183.666667,1336049.666667,74588.000000,9148.333333,667507.166667,9785.810010,1812.789992,40130.694228,1342.774863,753.625386,19947.687163
171,0,2,639842.500000,219935.000000,1405331.500000,66249.500000,8576.000000,702399.000000,373.500000,699.000000,9060.500000,368.500000,282.000000,4704.000000
171,1,6,709861.166667,248826.666667,1420323.000000,74259.333333,9332.833333,709604.333333,3156.431182,977.225779,84683.881784,537.018208,464.312544,42421.981141
172,0,2,648187.500000,221411.500000,1359937.000000,67540.500000,7720.500000,679046.500000,5878.500000,1169.500000,9780.000000,1294.500000,85.500000,4598.500000
172,1,6,713799.000000,249658.333333,1431920.833333,74828.500000,9534.333333,715384.333333,7490.860120,1940.717193,46198.719367,1208.912838,582.308242,23079.740125
173,0,2,636793.000000,218988.500000,1368137.500000,65791.500000,7990.000000,683242.500000,1937.000000,294.500000,34491.500000,55.500000,658.000000,16830.500000
173,1,6,713901.166667,249709.000000,1392060.000000,74887.666667,9604.333333,695484.333333,10141.883543,2096.719183,58198.697127,1440.125072,676.930244,29041.755897
174,0,2,647752.500000,221274.500000,1437189.000000,67461.000000,8430.500000,717844.500000,14921.500000,3023.500000,106537.000000,1879.000000,859.500000,53130.500000
174,1,6,709802.666667,248804.833333,1374296.333333,74247.333333,9234.666667,686522.333333,3725.490378,1045.077576,56463.607804,359.584328,410.508086,28087.245597
175,0,2,640429.500000,219491.000000,1337170.500000,65999.500000,7797.000000,667621.000000,654.500000,546.000000,54009.500000,199.500000,284.000000,26566.000000
175,1,6,714969.000000,249897.000000,1337975.333333,74992.833333,9267.666667,668296.833333,7984.822206,1775.263642,27531.905835,1170.516042,551.386938,13655.961499
176,0,2,638623.500000,219218.000000,1177138.000000,65889.500000,6608.500000,588138.500000,1168.500000,721.000000,20327.000000,290.500000,211.500000,10107.500000
176,1,6,721018.500000,250895.333333,1396585.666667,75782.166667,9785.666667,697821.500000,11792.442110,2280.486181,68532.312171,1731.278662,662.789476,34260.376320
177,0,2,640146.500000,219897.500000,1269793.500000,66215.500000,6947.000000,634335.000000,531.500000,736.500000,974.500000,352.500000,277.000000,378.000000
177,1,6,712644.500000,249256.333333,1341686.166667,74671.833333,8944.666667,670404.166667,7953.670657,1785.093524,48340.524912,1153.779502,799.164077,24186.536278
178,0,2,638047.500000,219360.500000,1186617.500000,65916.500000,7087.500000,592859.000000,1405.500000,62.500000,18051.500000,44.500000,246.500000,8952.000000
178,1,6,708505.666667,248440.500000,1360975.666667,74080.333333,9164.500000,680010.500000,2629.903970,500.087242,60407.971664,305.025500,478.444964,30169.041045
179,0,2,651031.500000,222100.000000,1289760.500000,67883.000000,7585.500000,644235.500000,6221.500000,634.000000,16824.500000,879.000000,469.500000,8204.500000
179,1,6,713793.000000,249906.333333,1365312.500000,74969.166667,9342.833333,681990.166667,7516.441046,1634.427389,46739.537349,1261.279961,466.388757,23333.503826
180,0,2,649102.500000,221344.500000,1246071.000000,67511.500000,6940.000000,622503.000000,11386.500000,2531.500000,2869.000000,1748.500000,413.000000,1456.000000
180,1,6,710348.500000,249186.666667,1396785.166667,74441.666667,9278.500000,697769.166667,3242.325130,1135.493970,102335.009331,576.506047,599.941039,51091.245902
181,0,2,638834.000000,219467.500000,1309760.000000,65986.500000,7552.000000,654271.000000,188.000000,163.500000,28395.000000,29.500000,37.000000,14349.000000
181,1,6,713647.666667,249664.000000,1479084.833333,74865.333333,9711.000000,738919.166667,9066.126087,1945.691822,135174.622512,1385.036662,863.266664,67215.093051
182,0,2,637156.000000,218858.000000,1384971.000000,65769.500000,7319.500000,691483.500000,2431.000000,413.000000,195146.000000,163.500000,510.500000,97004.500000
182,1,6,710584.833333,249138.333333,1370477.000000,74376.000000,9359.333333,684680.833333,3182.606972,812.378333,67729.882356,272.188660,507.184604,33837.602074
183,0,2,650251.500000,222208.500000,1322145.000000,67808.000000,7657.500000,660375.000000,10009.500000,1757.500000,57814.000000,1477.000000,400.500000,28587.000000
183,1,6,707244.166667,248277.333333,1444931.666667,74025.333333,9744.333333,721934.833333,3572.924172,817.393962,86161.038012,442.091117,671.717864,43103.620851
184,0,2,648472.500000,221407.500000,1216207.000000,67506.000000,7417.500000,607559.500000,11020.500000,2137.500000,37632.000000,1651.000000,1049.500000,18863.500000
184,1,6,710074.000000,248811.500000,1360180.833333,74217.500000,8910.500000,679620.166667,4813.367047,597.169085,64459.200816,309.375042,534.864079,32217.528642
185,0,2,638727.500000,219700.000000,1253464.500000,66136.500000,7034.500000,626136.500000,677.500000,395.000000,26445.500000,238.500000,4.500000,13309.500000
185,1,6,710775.833333,248842.500000,1363586.333333,74216.666667,9083.000000,681315.166667,3788.652241,760.554567,60770.307705,332.326981,709.847401,30326.924563
186,0,2,640776.500000,220572.000000,1236559.500000,66463.500000,7364.500000,617692.000000,899.500000,646.000000,40429.500000,358.500000,68.500000,20353.000000
186,1,6,709919.666667,248830.166667,1373179.000000,74262.333333,9019.666667,686025.500000,3560.129196,1112.696936,86989.650312,537.785480,574.550162,43607.851203
187,0,2,635618.500000,218491.500000,1243035.000000,65699.500000,6916.000000,621017.500000,517.500000,515.500000,110747.000000,172.500000,476.000000,55330.500000
187,1,6,709147.333333,249107.333333,1457393.166667,74174.500000,9250.666667,728209.333333,3807.511771,506.369650,176206.569640,414.222062,1446.726842,88088.915702
188,0,2,637524.500000,219289.000000,1191842.000000,65970.000000,6976.000000,595429.500000,274.500000,164.000000,56804.000000,106.000000,76.000000,28383.500000
188,1,6,713323.166667,249639.500000,1398104.833333,74636.833333,8623.333333,698588.333333,9936.720928,1780.785103,65738.788254,1375.230213,969.652286,32913.175420
189,0,2,655945.000000,223461.500000,1280751.000000,69055.000000,8312.500000,639788.000000,895.000000,272.500000,6779.000000,207.000000,135.500000,3332.000000
189,1,6,712469.666667,249423.500000,1378330.500000,74325.833333,9035.666667,688605.500000,6395.765465,1364.848313,40105.326649,702.054228,528.433744,20078.256280
190,0,2,638088.000000,219264.500000,1276470.500000,65948.000000,7430.500000,637666.000000,3992.000000,1005.500000,472.500000,522.000000,346.500000,326.000000
190,1,6,711407.500000,248780.833333,1365866.666667,74074.500000,8865.833333,682412.166667,4202.588954,1165.454334,57712.465305,678.520142,612.449567,28812.306447
191,0,2,635833.000000,218537.500000,1281813.000000,65645.500000,7314.500000,640327.000000,1558.000000,13.500000,74814.000000,93.500000,128.500000,37336.000000
191,1,6,718369.000000,250579.833333,1405290.666667,75287.166667,9343.666667,702124.166667,10343.618596,2264.790161,94181.108563,1517.695338,1056.291732,47068.942511
192,0,2,639370.500000,220045.500000,1313801.500000,66272.500000,7503.500000,656206.000000,5029.500000,1287.500000,14703.500000,658.500000,183.500000,7559.000000
192,1,6,711760.666667,249168.500000,1375078.000000,74225.166667,8870.833333,686989.500000,3820.213767,1041.391337,73944.753348,486.719090,686.893106,36932.585607
193,0,2,647828.500000,222089.000000,1290174.000000,67824.500000,7518.000000,644419.000000,11414.500000,1417.000000,25705.000000,1409.500000,236.000000,12760.000000
193,1,6,714030.166667,249394.333333,1366398.333333,74534.000000,9001.166667,682744.333333,7279.412257,1687.507597,58047.111196,962.135645,507.535029,29041.666956
194,0,2,639245.000000,218910.000000,1273226.500000,65755.500000,6963.500000,636103.500000,1637.000000,226.000000,17706.500000,155.500000,266.500000,8824.500000
194,1,6,710295.833333,248803.500000,1384646.666667,74053.833333,8955.166667,691778.000000,4090.809065,840.745651,112995.564140,511.488487,555.939870,56504.753776
195,0,2,640063.000000,219054.500000,1256799.500000,65796.500000,7527.000000,627948.500000,2015.000000,193.500000,35036.500000,173.500000,531.000000,17557.500000
195,1,6,714434.333333,250125.166667,1373896.000000,74851.500000,9149.000000,686420.000000,7302.839919,1881.714946,72919.762282,1172.216810,729.199790,36484.829624
196,0,2,641599.500000,220131.500000,1269441.500000,66317.000000,7564.500000,633997.500000,5504.500000,1118.500000,61775.500000,392.000000,677.500000,30720.500000
196,1,6,712831.833333,249642.500000,1385263.000000,74627.500000,9437.333333,692103.500000,8817.976798,1836.890557,105116.598986,1444.064028,855.610049,52471.297115
197,0,2,651368.500000,222045.000000,1354039.500000,67786.500000,8502.000000,676446.000000,11892.500000,1775.000000,55628.500000,1253.500000,648.000000,27861.000000
197,1,6,709444.666667,248836.666667,1367671.333333,74078.166667,9482.000000,683259.000000,4113.531762,1210.152975,53487.227456,712.951241,240.433636,26805.207367
198,0,2,640857.500000,219246.500000,1201931.500000,65918.500000,7681.500000,600433.000000,126.500000,252.500000,4947.500000,194.500000,36.500000,2500.000000
198,1,6,715697.333333,250352.333333,1439388.666667,74936.666667,9782.166667,718932.500000,9213.059113,1618.068464,102838.299331,1241.305988,567.453498,51529.708466
199,0,2,643607.500000,220971.000000,1336823.500000,66745.000000,7649.000000,667615.000000,1134.500000,339.000000,36811.500000,219.000000,557.000000,18503.000000
199,1,6,718149.000000,251040.833333,1393197.166667,75064.166667,9590.333333,696006.666667,18582.703499,4631.284718,66012.379161,2294.074426,769.742742,33024.909380
200,0,2,641052.500000,219771.500000,1262083.500000,66276.500000,7807.000000,630354.000000,4833.500000,1095.500000,11671.500000,418.500000,710.000000,5617.000000
200,1,6,710020.500000,248607.500000,1458609.500000,73988.333333,9510.166667,728677.500000,3982.036654,833.595176,154854.472711,518.720113,657.161933,77175.846219
201,0,2,648772.500000,221363.000000,1234841.000000,67582.000000,7971.000000,616775.500000,11988.500000,1922.000000,2301.000000,1343.000000,738.000000,1181.500000
201,1,6,709001.333333,248611.500000,1363104.500000,73972.833333,8934.000000,680710.166667,2917.131734,745.315761,86976.835098,530.775978,533.356666,42858.435052
202,0,2,637812.500000,219107.500000,1221147.500000,65861.500000,7301.000000,610125.000000,1614.500000,364.500000,27213.500000,231.500000,569.000000,13613.000000
202,1,6,713613.500000,249981.833333,1343894.500000,74761.166667,8970.333333,671385.833333,10132.617542,2189.145908,72615.482717,1299.872996,396.906650,36363.945103
203,0,2,637039.000000,219014.500000,1374601.000000,65821.500000,8464.500000,686818.500000,1238.000000,225.500000,33290.000000,140.500000,531.500000,16693.500000
203,1,6,707620.500000,248291.833333,1365244.666667,73851.500000,9111.500000,682134.500000,2903.838882,778.474880,68188.283878,555.351765,534.986215,34111.743534
204,0,2,648434.000000,221465.500000,1309617.500000,67554.000000,8452.500000,654362.000000,10116.000000,1677.500000,8113.500000,1359.000000,199.500000,3999.000000
204,1,6,714044.500000,250809.000000,1350869.833333,74748.666667,9230.166667,674839.500000,9937.604872,3419.559767,103945.326484,1217.839435,735.731023,51866.429566
205,0,2,643996.000000,220445.000000,1259428.000000,66456.000000,8050.000000,628975.000000,1268.000000,1374.000000,85366.000000,728.000000,224.000000,42493.000000
205,1,6,717718.166667,250642.500000,1394482.666667,75278.333333,9310.333333,696654.166667,11355.394040,1748.061283,66432.101243,1559.073942,721.221572,33259.767810
206,0,2,638218.500000,218732.500000,1295705.500000,65655.500000,7847.500000,647241.000000,730.500000,649.500000,12729.500000,348.500000,0.500000,6345.000000
206,1,6,716011.166667,250305.000000,1383703.166667,75050.000000,8955.000000,691362.333333,10896.542638,2348.358150,84238.165057,1414.449481,653.113058,42115.412486
207,0,2,638679.500000,219611.500000,1239555.500000,65974.000000,7530.500000,619342.000000,1915.500000,12.500000,65009.500000,110.000000,64.500000,32541.000000
207,1,6,710380.000000,248608.000000,1383835.333333,73886.833333,8941.500000,691464.833333,2561.875420,254.310178,50850.205692,305.070165,375.389908,25390.188475
208,0,2,649038.000000,221321.000000,1362595.000000,67460.500000,8667.000000,680708.500000,9043.000000,2470.000000,85927.000000,1818.500000,902.000000,43046.500000
208,1,6,714114.166667,249404.500000,1404991.000000,74503.166667,9483.666667,701954.500000,7858.360673,1959.769013,83504.780883,1408.962670,787.478606,41639.031620
209,0,2,640714.500000,220152.500000,1296887.500000,66308.500000,8005.500000,647784.000000,2691.500000,646.500000,7734.500000,198.500000,40.500000,3823.000000
209,1,6,715262.833333,250081.333333,1359282.333333,74786.833333,9246.666667,679035.166667,7321.117934,1656.643259,34098.366347,1153.046460,418.752380,17143.811278
210,0,2,638493.500000,219562.500000,1273336.000000,65983.000000,7460.500000,636094.500000,734.500000,259.500000,6736.000000,232.000000,323.500000,3324.500000
210,1,6,713198.500000,249654.333333,1343723.833333,74577.166667,9116.166667,671317.500000,10141.038223,1853.781870,58333.354214,1471.810610,562.349955,29111.416556
211,0,2,641004.500000,220009.000000,1289693.500000,66246.500000,8009.500000,644253.500000,4952.500000,1092.000000,10786.500000,319.500000,85.500000,5267.500000
211,1,6,713626.000000,249836.833333,1437135.666667,74653.833333,9272.166667,718017.666667,7349.717251,1624.096099,94829.918432,1341.641832,634.374605,47392.667723
212,0,2,636475.000000,218688.500000,1263841.500000,65681.500000,7595.000000,631457.000000,1205.000000,419.500000,27903.500000,235.500000,194.000000,13903.000000
212,1,6,710603.000000,249314.166667,1403202.333333,74180.666667,8788.000000,700967.500000,4472.070587,1328.263831,36078.228831,542.604419,417.402683,18033.460610
213,0,2,636057.500000,218854.500000,1273744.500000,65786.000000,7604.500000,636419.000000,1921.500000,272.500000,19033.500000,210.000000,552.500000,9454.000000
213,1,6,714003.333333,249950.666667,1356585.166667,74684.000000,9081.000000,677713.333333,8080.815154,1952.844819,38168.331111,1321.842023,414.590963,19051.595328
214,0,2,636083.500000,219013.000000,1349228.000000,65825.000000,8158.500000,674174.500000,3967.500000,266.000000,76138.000000,7.000000,184.500000,38011.500000
214,1,6,716187.000000,250007.500000,1365848.166667,74901.333333,9151.000000,682460.833333,11260.616798,2268.976403,70348.322878,1783.547277,489.795195,35138.842802
215,0,2,639883.000000,219267.000000,1209078.500000,65937.500000,7769.000000,603967.000000,1419.000000,455.000000,21214.500000,244.500000,559.000000,10542.000000
215,1,6,707972.333333,248499.166667,1370389.833333,73836.333333,8805.333333,684712.500000,2927.127071,744.300884,37656.266537,260.821565,235.333569,18829.980782
216,0,3,650192.000000,221617.000000,1253584.666667,67315.666667,8407.333333,626117.000000,8145.920247,1547.114949,40228.302386,1297.231497,154.950171,20142.955642
216,1,6,715639.833333,250264.666667,1409061.166667,74783.500000,9064.333333,703947.166667,9460.010138,2108.161416,69049.026644,1357.748473,277.412248,34582.311381
217,0,3,639754.333333,219652.666667,1239700.333333,66001.000000,7251.000000,619295.000000,597.829593,445.248495,44663.959687,106.470653,342.406192,22390.136057
217,1,6,710602.333333,248819.833333,1407956.333333,73924.333333,9213.666667,703511.000000,4005.612757,382.840009,96140.032249,353.535791,748.684995,48032.142773
218,0,3,638503.666667,218939.666667,1297056.000000,65736.666667,7265.333333,648074.000000,2566.826359,635.602252,52013.326453,318.959071,646.477807,25960.566108
218,1,6,710410.333333,248971.333333,1401884.166667,74012.166667,9554.666667,700495.666667,4812.870199,683.809103,97285.090760,432.740267,913.371532,48649.493354
219,0,3,641082.666667,220126.000000,1276343.666667,66274.000000,7431.666667,637618.333333,3542.714810,1130.375454,119107.780393,459.776757,430.702011,59511.965773
219,1,6,712299.333333,249035.666667,1393457.833333,74056.500000,9293.166667,696180.000000,3946.138689,811.113364,64496.645787,492.782491,649.038627,32196.025303
220,0,3,646510.333333,220763.666667,1200868.666667,66982.666667,7340.666667,599994.666667,10827.397174,2421.582173,15051.857744,1682.699485,399.280464,7536.351077
220,1,6,713863.500000,249467.666667,1431163.333333,74432.833333,9432.333333,714916.000000,10132.199922,1875.338340,64324.617371,1440.002132,456.447027,32309.670761
221,0,3,641498.333333,219961.333333,1252837.000000,66185.333333,7701.333333,625833.000000,1701.615768,706.164444,63216.399961,466.574277,813.832224,31523.017442
221,1,6,711631.000000,249183.000000,1381920.166667,74162.000000,9339.666667,690341.000000,4944.194744,762.814088,56774.257530,482.094389,564.511490,28332.934111
222,0,3,648299.666667,221668.666667,1258369.666667,67358.000000,7878.000000,628604.666667,7488.104403,1574.252486,15745.495215,1326.374256,662.222521,7708.411048
222,1,6,717681.166667,250039.666667,1389270.833333,74936.000000,9787.666667,694122.500000,9139.593088,2231.003187,101895.399084,1407.365032,724.793457,50937.370563
223,0,3,646769.000000,220952.000000,1286368.333333,67095.000000,8041.333333,642618.333333,10527.277236,1921.649985,27529.416804,1335.495663,962.375649,13705.154951
223,1,6,711403.500000,249209.333333,1386647.666667,74135.333333,9745.000000,692766.000000,3052.455391,599.852389,117839.588196,184.160860,785.770959,58975.295947
224,0,3,639159.333333,219460.666667,1201638.666667,65956.666667,7656.333333,600260.000000,1807.827671,1017.844891,16041.569465,447.933279,800.662365,7975.807712
224,1,6,715327.833333,250459.500000,1377467.333333,74906.666667,9678.000000,688078.000000,5373.019865,1582.684929,40582.973329,928.586142,530.420588,20424.515400
225,0,3,638880.666667,219580.000000,1283408.666667,66076.333333,7427.666667,641052.000000,2947.422641,552.800748,66202.685275,145.959660,342.195201,33009.424200
225,1,6,714515.500000,249709.000000,1396222.666667,74570.000000,9243.666667,697506.333333,9093.242596,1754.487390,111368.409882,1378.884936,831.456486,55612.118735
226,0,3,640980.666667,219898.333333,1294034.333333,66172.000000,7639.666667,646295.333333,4148.501122,1399.640271,74977.304150,728.578067,150.683627,37378.469028
226,1,6,711316.666667,249078.666667,1409158.166667,74055.833333,9404.666667,704006.833333,3785.124158,833.761090,68998.244798,440.332608,453.736585,34304.277384
227,0,3,647416.666667,221155.000000,1316398.666667,67176.666667,7358.333333,657504.666667,9762.887187,1691.158380,87298.516613,1266.834726,715.669539,43617.863377
227,1,6,711487.833333,249037.166667,1404544.666667,74067.000000,9201.833333,701569.000000,4038.152648,917.455797,77759.510442,449.231195,819.119938,38836.166160
228,0,3,638878.333333,219330.666667,1261566.666667,65900.666667,7336.333333,630233.333333,1605.763854,420.337431,58080.905734,236.701406,512.433627,28935.572125
228,1,6,711145.000000,249073.166667,1410538.500000,74056.166667,9203.666667,704698.500000,4346.297505,993.808401,50852.577132,552.273911,693.973503,25302.023422
229,0,3,640558.666667,220170.000000,1271730.000000,66352.666667,7398.666667,635156.666667,1573.591716,226.919957,53857.601265,203.319672,464.558093,26814.451083
229,1,6,724461.166667,252789.333333,1441303.833333,75647.666667,9467.000000,720062.000000,18465.583991,5475.549186,114806.838079,1928.243213,1066.470034,57380.172104
230,0,3,637782.000000,219279.333333,1307923.333333,65921.666667,7100.333333,653466.000000,1400.097378,262.945284,43130.189553,112.644968,224.870827,21569.076027
230,1,6,718613.500000,251947.666667,1399653.500000,74819.833333,9185.500000,699300.333333,20133.814929,6525.636104,58169.949845,1810.250850,659.949177,29052.225621
231,0,3,639318.000000,219133.666667,1252606.333333,65866.000000,6943.666667,625842.666667,1992.804222,579.614431,61329.765793,256.520305,169.305116,30630.602501
231,1,6,721609.500000,252302.333333,1383033.000000,75263.166667,9045.000000,690807.166667,19133.575051,6101.123166,52494.574631,1809.593363,457.009847,25833.621784
232,0,3,638730.333333,219441.333333,1268819.666667,66025.333333,7677.666667,633828.333333,1733.810896,694.454862,55579.926007,360.218761,143.875718,27882.058632
232,1,6,717256.833333,251545.000000,1431096.166667,74646.833333,8997.666667,715081.000000,20139.220909,6819.018893,74442.462245,1891.946301,520.412870,37251.929574
233,0,3,650734.333333,222950.666667,1239833.333333,67470.333333,7295.333333,619364.000000,19123.131845,5684.395736,61942.720241,2375.220458,755.086014,30859.991802
233,1,6,722281.166667,252956.500000,1409605.000000,75430.000000,9180.000000,704230.166667,19894.741997,6381.128682,87973.033416,2011.008619,632.995524,43901.457286
234,0,3,656502.333333,225710.000000,1314296.666667,67728.666667,7425.666667,656760.333333,26151.689841,8492.146843,72074.718089,2240.734602,911.032503,36384.418188
234,1,6,729484.666667,254347.666667,1458402.666667,76325.166667,9350.833333,728591.333333,15077.864379,5452.686636,83121.999418,1568.895516,811.224058,41592.652154
235,0,3,664824.666667,227826.333333,1340124.000000,69139.666667,8026.333333,669318.000000,22441.821321,7883.706587,93778.247033,2013.001463,644.858813,46687.903837
235,1,6,727221.500000,253333.833333,1479794.000000,75904.666667,9550.166667,739354.333333,19527.163506,6533.531394,84748.045073,2020.527131,609.681451,42213.706825
236,0,3,664183.000000,227319.666667,1314226.000000,68852.000000,7863.333333,656596.666667,35367.370678,10593.896744,65204.549289,3773.841279,1214.364123,32598.140625
236,1,6,720531.333333,252061.666667,1390182.833333,74936.333333,9142.833333,694570.166667,19101.841715,6459.820216,99381.045477,1668.904797,728.857649,49731.996023
237,0,3,657502.333333,226118.000000,1305145.333333,67931.333333,7583.333333,651845.000000,24999.727590,8819.510984,93096.989906,2400.543040,466.969188,46337.979614
237,1,6,729492.333333,254572.000000,1461374.333333,76010.833333,9559.833333,730111.333333,28748.721025,9893.959538,83899.775323,2777.303873,950.408932,41982.908255
238,0,3,663972.666667,227041.333333,1251246.333333,68696.333333,7696.333333,625188.333333,20823.442564,7458.617939,40640.950910,1976.651433,265.858776,20311.516968
238,1,6,722133.666667,253203.000000,1425021.833333,75412.166667,9558.833333,711115.833333,19699.759463,7053.390296,75105.523289,1971.376796,733.645559,36666.752312
239,0,3,656316.000000,225761.333333,1304346.000000,67792.333333,7469.333333,651329.666667,24597.742945,8662.172835,65245.207661,2338.423448,657.350913,32206.617605
239,1,6,727853.000000,253887.500000,1459024.000000,76144.500000,9718.833333,728854.833333,17176.004648,5988.983713,77541.861288,1627.102204,597.063206,38916.578800
240,0,3,655298.333333,225642.000000,1350194.000000,67686.333333,7509.000000,674272.666667,22999.329517,8065.129509,34999.041215,2091.207998,535.793493,17349.336401
240,1,6,721595.333333,252063.833333,1404247.000000,74872.000000,9335.833333,701751.500000,17440.362426,6800.727692,80224.315655,1843.234114,923.432802,40167.524999
241,0,3,659760.666667,226586.333333,1372544.000000,68124.333333,8290.666667,685347.000000,27948.923907,8734.700618,58671.974678,2410.197410,975.817720,29020.565225
241,1,6,722034.166667,252046.333333,1447324.000000,74920.000000,9389.500000,723026.500000,17202.165352,6431.827933,147711.923180,1692.840217,766.822394,73491.390119
242,0,3,665090.666667,227325.666667,1308946.333333,68798.000000,8064.000000,653942.666667,35895.340945,10372.187951,41253.495887,3702.791470,1010.189421,20615.846111
242,1,6,727602.166667,253470.000000,1412311.833333,75691.500000,9516.833333,705577.500000,19341.614647,6435.293803,80042.478454,1875.431306,801.953535,40047.973427
243,0,3,657872.666667,226135.333333,1326715.000000,67932.666667,8110.333333,662691.666667,25049.263094,7745.779252,44255.734664,1892.943798,244.461767,22279.350444
243,1,6,728950.166667,254302.333333,1387090.666667,75967.666667,9120.333333,692963.333333,19519.109828,6840.157885,88559.203903,2028.378964,1117.297434,44299.657804
244,0,3,657630.666667,225717.333333,1366179.666667,67835.000000,8346.000000,682356.333333,29279.289670,9155.768467,63940.205611,2495.490466,801.279394,31982.582909
244,1,6,720734.333333,252149.500000,1434931.333333,74930.166667,9400.166667,716969.166667,18880.915247,6648.328731,68597.511548,1787.139653,713.496885,34379.225148
245,0,3,656695.333333,226058.333333,1324101.333333,67913.000000,7732.333333,661285.000000,24862.741419,7753.726602,109942.787013,1915.377944,399.570047,54923.268973
245,1,6,725504.000000,253236.666667,1454863.833333,75678.166667,9778.666667,726816.833333,19512.723183,6538.403135,34223.856842,1908.039606,526.819914,17191.315835
246,0,3,671110.333333,229146.666667,1332559.000000,70147.666667,8259.333333,665553.333333,18866.502967,7553.552203,161803.697832,1241.751809,481.946286,80656.228874
246,1,6,723324.833333,252469.333333,1405346.833333,75353.666667,9362.500000,702169.666667,18727.948859,6348.532919,73537.348337,1814.650716,440.216519,36838.218405
247,0,3,664468.000000,226578.000000,1322939.666667,68579.000000,8310.666667,661012.666667,35723.932436,10861.448921,62914.852324,3865.590856,1180.704404,31472.111467
247,1,6,723692.500000,252682.666667,1393313.166667,75406.000000,9522.666667,696128.833333,19095.978885,6443.059979,70517.938719,1933.705596,795.554035,35173.359727
248,0,3,658842.000000,225473.333333,1253810.666667,67593.666667,8221.666667,626524.666667,24399.453122,8126.577481,49242.739068,2145.945997,832.599277,24688.918706
248,1,6,723843.500000,252898.833333,1375408.500000,75526.166667,9064.666667,687168.500000,19005.571821,6402.388341,48873.369506,1939.434232,440.016919,24343.214707
249,0,3,658830.333333,225714.666667,1297905.333333,67739.333333,8266.000000,648361.666667,25019.552958,8130.537101,85443.650415,2077.302150,522.751056,42758.415853
249,1,6,719616.000000,252137.833333,1435690.166667,74965.833333,9166.333333,717282.166667,19087.219930,6624.742546,120934.425648,1752.137021,666.228606,60488.553643
250,0,3,666611.000000,228662.666667,1340389.000000,68594.333333,7874.000000,669659.000000,22894.474282,8185.122167,52950.387370,2288.232263,379.879806,26359.834256
250,1,6,720356.833333,252505.000000,1498793.166667,75141.500000,9530.333333,748756.833333,20601.445462,7435.325301,99880.081617,2120.594472,554.436551,49816.782702
251,0,3,659245.333333,226405.666667,1342020.000000,67993.000000,8065.666667,670417.333333,23359.931526,7777.787446,150377.540885,1954.886697,1050.780768,75085.238782
251,1,6,722629.666667,252635.500000,1405491.833333,75372.500000,9440.500000,702234.500000,19359.872182,6701.502039,47455.934832,2048.901474,590.433951,23746.315923
252,0,3,670242.000000,228192.666667,1286560.000000,69688.666667,7908.666667,642443.666667,29576.162665,9418.423164,79247.746029,3215.482995,589.774156,39166.671174
252,1,6,721783.000000,253008.666667,1376598.833333,75414.666667,9447.333333,687558.666667,16748.693442,6229.520813,41460.982656,1539.427671,951.591941,20550.545748
253,0,3,658852.333333,226208.000000,1284684.000000,67997.666667,7696.333333,641680.000000,28343.144525,9077.393605,21337.843112,2508.958925,308.844441,10533.461634
253,1,6,727445.500000,253691.833333,1364739.000000,76070.833333,9278.333333,681830.000000,18615.133295,6152.193604,54722.918304,1955.886024,725.361213,27359.879587
254,0,3,664516.666667,227242.333333,1286141.333333,68891.000000,7680.333333,642445.000000,21469.854934,6875.072331,78516.111401,1525.851893,27.535835,39108.882299
254,1,6,719616.166667,251963.166667,1351865.833333,74890.333333,8849.333333,675385.666667,19306.765554,6557.317424,90680.662375,1767.237078,424.869261,45237.455866
255,0,3,654803.333333,225093.666667,1293789.000000,67481.000000,7572.000000,646478.666667,25263.783991,8289.818829,139322.128187,2180.312057,1109.111657,69610.641822
255,1,6,722442.833333,252366.833333,1368789.666667,75073.833333,8933.166667,683866.000000,17462.306925,6247.019300,40886.226865,1586.825386,410.061953,20542.462908
