-1,0,0.0594427
-1,1,0.0588235
-1,2,0.0588235
-1,3,0.0588235
-1,4,0.0588235
-1,5,0.0588235
-1,6,0.0588235
-1,7,0.0588235
-1,8,0.0588235
-1,9,0.0588235
-1,10,0.0588235
-1,11,0.0594427
-1,12,0.0594427
-1,13,0.0594427
-1,14,0.0594427
-1,15,0.114551
2,0,0.0645161
2,1,0.0620347
2,2,0.0620347
2,3,0.0620347
2,4,0.0620347
2,5,0.0620347
2,6,0.0620347
2,7,0.0620347
2,8,0.0620347
2,9,0.0620347
2,10,0.0620347
2,11,0.0620347
2,12,0.0620347
2,13,0.0620347
2,14,0.0645161
2,15,0.0645161
