-1,0,0.0589744
-1,1,0.0584615
-1,2,0.0584615
-1,3,0.0584615
-1,4,0.0584615
-1,5,0.0589744
-1,6,0.0589744
-1,7,0.0589744
-1,8,0.0589744
-1,9,0.0589744
-1,10,0.0589744
-1,11,0.0589744
-1,12,0.0589744
-1,13,0.0589744
-1,14,0.0589744
-1,15,0.117436
