0,0,460,672272.928261,231929.330435,1315357.958696,69717.793478,8451.245652,657649.341304,10542.527223,3058.200099,77335.610826,1329.506979,683.393284,38632.314845
0,1,0,-nan,-nan,-nan,-nan,-nan,-nan,-nan,-nan,-nan,-nan,-nan,-nan
1,0,459,671788.440087,231888.788671,1320152.555556,69667.830065,8441.193900,660038.845316,9919.623298,2875.600784,81206.198108,1207.733633,687.535338,40562.240058
1,1,0,-nan,-nan,-nan,-nan,-nan,-nan,-nan,-nan,-nan,-nan,-nan,-nan
2,0,460,671263.339130,231678.697826,1314560.373913,69582.276087,8477.054348,657238.095652,9112.077409,2644.819539,79584.663588,1160.225047,631.781662,39766.432521
2,1,0,-nan,-nan,-nan,-nan,-nan,-nan,-nan,-nan,-nan,-nan,-nan,-nan
3,0,587,670954.063032,231696.695060,1311632.122658,69580.098807,8452.231687,655777.519591,8683.856206,2534.419027,70450.019676,1106.001845,657.671812,35207.747426
3,1,0,-nan,-nan,-nan,-nan,-nan,-nan,-nan,-nan,-nan,-nan,-nan,-nan
