0,-1,714378,247995,1256943,73516,7927,628031,0
0,-1,718119,249530,1358443,74106,7649,678729,2
0,-1,670734,230161,1195536,68626,6763,597323,0
1,-1,722047,250661,1479795,74707,8538,738855,2
1,-1,669430,229366,1363552,68417,8148,681169,0
2,-1,719605,248840,1400059,73906,8977,699390,2
2,-1,674503,231969,1265580,69381,7078,632087,0
3,-1,705120,244811,1375523,72611,8408,687277,2
3,-1,669770,230383,1343447,68650,7026,671247,0
4,-1,661568,230164,1370309,68853,7832,684659,2
4,-1,670192,230376,1353595,68664,7509,676359,0
5,-1,670063,232763,1314127,69765,8143,656262,2
5,-1,689598,234709,1360021,71884,7849,679569,0
6,-1,660359,230282,1225060,68875,7644,611912,2
6,-1,668196,230304,1313614,68616,7192,656353,0
7,-1,663098,230688,1319290,68988,7159,659169,2
7,-1,667950,230128,1315302,68579,7131,657247,0
8,-1,661452,230760,1230510,68945,7292,614763,2
8,-1,675707,231439,1417741,69064,8094,708378,0
9,-1,662047,229746,1210415,68644,7659,604796,2
9,-1,673674,231174,1235925,69199,7929,617305,0
10,-1,668463,230829,1307244,68963,8666,653055,2
10,-1,690048,234543,1339564,71932,8081,669339,0
11,-1,667778,232540,1373827,69741,8944,686284,2
11,-1,669412,230309,1226842,68718,7134,612998,0
12,-1,666765,231435,1251853,69140,8309,625405,2
12,-1,670265,230979,1305604,68977,7198,652385,0
13,-1,664895,229988,1332512,68864,8965,665718,2
13,-1,670934,231431,1233892,69216,7023,616261,0
14,-1,667979,230964,1343874,69190,7480,671430,2
14,-1,670440,230092,1217197,68671,7622,608145,0
15,-1,665125,230569,1207539,68983,8159,602954,2
15,-1,667616,230321,1396090,68747,7172,697581,0
16,-1,672549,232586,1327681,69859,8365,662816,2
16,-1,667799,230553,1412358,68800,7173,705754,0
17,-1,664549,230966,1329545,69019,7919,664137,2
17,-1,665975,230263,1295987,68678,7315,647511,0
18,-1,667359,231389,1319994,69233,8222,659477,2
18,-1,674633,231543,1237650,69401,7793,618029,0
19,-1,664394,230457,1241316,68869,7727,620120,2
19,-1,692606,234898,1370591,72024,8746,684887,0
20,-1,670267,231491,1204643,69366,7354,601761,2
20,-1,669139,229758,1211885,68530,7438,605455,0
21,-1,663677,230636,1382532,69150,7838,690744,2
21,-1,672178,230739,1334396,68881,7688,666750,0
22,-1,674206,232482,1364621,69989,7494,681417,2
22,-1,697249,239654,1356624,71467,7958,677830,0
23,-1,668255,230538,1324740,69097,8932,661838,2
23,-1,673394,232320,1358938,69695,7349,678840,0
24,-1,665360,232798,1332855,70115,8454,665404,2
24,-1,670829,230490,1316224,68756,7627,657654,0
25,-1,663489,230725,1192690,69195,7758,595699,2
25,-1,669503,229969,1224003,68595,7467,611672,0
26,-1,663142,231312,1354471,69344,7911,676761,2
26,-1,669862,230476,1314005,68807,7321,656460,0
27,-1,663353,230097,1308172,68969,7683,653506,2
27,-1,671286,231424,1314840,69100,7124,656958,0
28,-1,663032,230635,1206865,69139,7225,602828,2
28,-1,670326,231043,1236549,68926,7513,617711,0
29,-1,661928,230189,1160948,69004,7638,579880,2
29,-1,672271,232029,1228620,69534,7125,613504,0
30,-1,663684,231511,1372284,69315,9432,685616,2
30,-1,689095,235208,1421926,72138,8100,710594,0
31,-1,669466,232605,1404642,69893,9031,701458,2
31,-1,666296,230189,1223670,68679,6939,611394,0
32,-1,669343,231309,1225951,69241,8290,612505,2
32,-1,672170,231097,1293993,68996,7844,646552,0
33,-1,664253,231362,1454227,69255,8080,726378,2
33,-1,673506,232613,1181593,69733,7505,589988,0
34,-1,665529,231005,1270297,69159,8428,634652,2
34,-1,669812,230846,1253101,68936,7218,626013,0
35,-1,664413,231140,1346924,69185,9452,672683,2
35,-1,666588,230364,1200767,68779,7262,599866,0
36,-1,669990,232014,1331151,69473,8645,665190,2
36,-1,667922,230686,1228530,68829,7394,613806,0
37,-1,663295,230699,1368594,68980,8785,683613,2
37,-1,668890,230009,1191842,68634,7466,595449,0
38,-1,694437,240543,1307461,71951,8507,653135,2
38,-1,668208,230213,1242282,68697,7326,620650,0
39,-1,668880,231026,1350872,69109,8827,674929,2
39,-1,665937,230078,1229214,68678,7083,614145,0
40,-1,669071,233209,1407861,70120,8470,703048,2
40,-1,670894,231839,1314236,69402,7476,656412,0
41,-1,665573,231692,1358276,69366,8784,678589,2
41,-1,671962,232159,1254464,69606,7432,626413,0
42,-1,663424,230329,1230605,68894,7762,614474,2
42,-1,672275,230599,1325720,68847,8259,662426,0
43,-1,665766,231122,1249076,69181,8244,624009,2
43,-1,677299,233356,1303389,70034,8532,650883,0
44,-1,692492,240903,1357239,72102,8386,678105,2
44,-1,669906,230252,1312835,68679,8217,655924,0
45,-1,668148,231541,1371520,69280,8484,685127,2
45,-1,665994,229129,1299423,68408,7767,649221,0
46,-1,672652,232543,1359631,69905,9524,678981,2
46,-1,669779,230588,1338303,68818,8047,668804,0
47,-1,668039,231304,1211003,69132,8105,604945,2
47,-1,666671,229992,1361686,68598,7750,680479,0
48,-1,664770,230822,1352636,68908,8120,675810,2
48,-1,676027,232860,1280270,69743,7994,639427,0
49,-1,669937,232124,1275766,69359,7911,637366,2
49,-1,689423,234856,1336437,72024,8308,667809,0
50,-1,667944,232654,1340557,69800,8692,669231,2
50,-1,670900,230568,1307699,68832,7592,653342,0
51,-1,673388,232129,1353426,69384,8676,676250,2
51,-1,669202,230195,1254531,68714,7628,626861,0
52,-1,672039,232171,1341781,69449,8007,670083,2
52,-1,689248,234908,1373187,72044,8157,686170,0
53,-1,672573,232722,1339787,69480,9278,669293,2
53,-1,667018,229623,1191198,68435,7951,595218,0
54,-1,673974,232260,1242096,69280,8945,620462,2
54,-1,669184,230770,1240878,68899,8040,620009,0
55,-1,669951,232173,1399675,69322,9782,699319,2
55,-1,673275,232321,1240199,69578,7985,619530,0
56,-1,666656,231747,1244216,69176,8581,621643,2
56,-1,690985,235825,1357122,72313,8097,678097,0
57,-1,668931,232477,1342274,69465,8524,670604,2
57,-1,665368,229725,1302201,68514,7373,650772,0
58,-1,671814,232905,1283758,69630,8604,641560,2
58,-1,667980,231061,1422388,68965,7898,710465,0
59,-1,665197,231466,1322845,69135,8593,660760,2
59,-1,666045,230091,1355016,68632,7647,677051,0
60,-1,668067,231481,1288837,69172,8789,643719,2
60,-1,667042,230788,1385017,68847,7728,692122,0
61,-1,692805,240106,1379729,71709,9084,689394,2
61,-1,672855,230926,1328201,68968,8222,663555,0
62,-1,669922,232539,1337542,69774,8503,667889,2
62,-1,668781,229749,1252497,68458,7884,625851,0
63,-1,664695,231114,1263254,69058,8871,631205,2
63,-1,668938,230264,1222337,68730,7970,610742,0
64,-1,665925,230969,1321296,69019,8786,660166,2
64,-1,668296,230178,1374208,68605,7831,686648,0
65,-1,665715,229711,1241477,68693,8437,620154,2
65,-1,669268,230980,1333464,68949,7879,666343,0
66,-1,666737,231376,1192589,69106,7809,595656,2
66,-1,666469,229932,1389387,68581,7665,694066,0
67,-1,671586,232587,1372307,69793,8498,685286,2
67,-1,667943,230413,1292901,68767,7397,646015,0
68,-1,670069,231221,1449025,68914,9393,723755,2
68,-1,691562,235700,1324449,72302,8684,661856,0
69,-1,664275,231007,1343858,68885,8724,671292,2
69,-1,666427,230196,1336047,68714,7791,667612,0
70,-1,668565,232005,1308938,69215,8485,653708,2
70,-1,665131,230191,1216666,68626,7125,607864,0
71,-1,666062,230697,1309690,68876,8573,654200,2
71,-1,665235,230023,1356773,68650,8481,677939,0
72,-1,667886,230604,1453499,68839,9603,725526,2
72,-1,669962,232018,1308788,69457,8148,653492,0
73,-1,667307,231045,1283798,68979,8018,641375,2
73,-1,672483,232307,1353219,69640,8876,675746,0
74,-1,668113,230267,1277471,68666,9482,637781,2
74,-1,664471,229758,1310023,68501,7908,654549,0
75,-1,662887,230587,1340028,68856,8075,669521,2
75,-1,669480,231422,1323955,69276,8322,661699,0
76,-1,667231,230410,1361513,68767,8158,679925,0
76,-1,667368,231183,1294911,68995,7572,646692,2
77,-1,662043,229614,1358191,68468,8645,678342,0
77,-1,666740,230727,1220057,68942,7489,609225,2
78,-1,671794,232156,1307859,69558,8774,652871,0
78,-1,667334,230547,1306239,68828,7178,652596,2
79,-1,664644,230177,1304835,68686,8399,651508,0
79,-1,672210,231502,1324994,69132,8526,662023,2
80,-1,670171,232586,1312963,69683,8678,655449,0
80,-1,666172,230178,1298646,68667,7101,648743,2
81,-1,684518,234838,1362362,72027,9565,680670,0
81,-1,677229,233596,1246977,70031,7115,622546,2
82,-1,669691,230098,1334922,68633,8634,666974,0
82,-1,660967,230747,1329466,68397,8096,664153,2
83,-1,669548,229960,1520326,68586,9310,759345,0
83,-1,664132,231307,1378057,68663,7900,688566,2
84,-1,678622,233665,1348668,70089,9294,673275,0
84,-1,664580,230232,1204078,68244,7740,601120,2
85,-1,668746,230208,1316586,68658,8981,657733,0
85,-1,659648,229617,1277857,68161,7978,638430,2
86,-1,669165,229976,1289042,68596,8835,643984,0
86,-1,669354,232723,1224716,69442,7671,611431,2
87,-1,671158,231478,1345384,69350,9138,671256,0
87,-1,667478,231057,1318922,69481,8381,658959,2
88,-1,668739,230218,1364101,68658,9569,681269,0
88,-1,664332,230519,1259835,69321,7969,629331,2
89,-1,669626,230857,1445265,68891,10124,721908,0
89,-1,661902,230324,1246653,69274,7606,622837,2
90,-1,672774,232223,1377394,69434,9837,688051,0
90,-1,666639,231342,1282194,69631,8307,640676,2
91,-1,665290,229709,1382802,68510,9547,690651,0
91,-1,665068,230289,1346524,69182,9075,672606,2
92,-1,689052,234558,1460786,71850,10714,729846,0
92,-1,667223,232223,1249651,70094,8766,624356,2
93,-1,671567,231124,1421627,68987,8934,710469,0
93,-1,667372,231104,1344500,69506,9214,671463,2
94,-1,667189,229924,1277096,68555,8291,638162,0
94,-1,671627,232221,1237964,70163,8558,618422,2
95,-1,673450,231836,1371774,69374,9731,684819,0
95,-1,670010,230876,1326982,69441,8945,662909,2
96,-1,667413,230244,1394934,68682,9241,697091,0
96,-1,664845,230693,1225495,69301,9294,612035,2
97,-1,672110,232741,1529838,69746,9016,762868,0
97,-1,662959,230617,1309938,69361,8813,654546,2
98,-1,668233,230254,1328478,68729,8316,663737,0
98,-1,669997,232862,1326791,70302,8835,662694,2
99,-1,667416,229929,1248166,68596,7793,623752,0
99,-1,668065,230764,1319482,69405,8448,659186,2
100,-1,668550,231140,1248901,68998,7162,623973,0
100,-1,662463,229894,1248548,69151,8167,623751,2
101,-1,668492,230563,1257299,68831,8089,628224,0
101,-1,664468,230521,1337174,69297,8524,668073,2
102,-1,663774,230084,1180639,68658,7408,590019,0
102,-1,667765,231963,1219485,70043,8079,608700,2
103,-1,671714,231117,1200467,69005,8345,599737,0
103,-1,669065,231229,1220641,69513,7463,609873,2
104,-1,667883,230174,1176134,68718,7560,587569,0
104,-1,666084,230525,1338378,69354,8468,668712,2
105,-1,675351,233135,1303657,69950,8228,651039,0
105,-1,673228,232211,1276552,70097,8217,637426,2
106,-1,689932,234718,1320316,71996,8708,659726,0
106,-1,670091,230924,1216342,69369,7595,607682,2
107,-1,669245,230782,1346146,68901,7833,672571,0
107,-1,669179,229977,1337982,69118,8980,668324,2
108,-1,666927,230132,1309128,68650,7216,654028,0
108,-1,667635,231010,1392425,69496,8453,695716,2
109,-1,669730,231075,1584257,68941,8850,791431,0
109,-1,668602,231269,1330459,69671,8876,664689,2
110,-1,696220,240652,1385744,71998,8064,691600,0
110,-1,670701,232245,1353678,69894,8489,676297,2
111,-1,668790,229882,1431515,68568,9417,715716,0
111,-1,671780,231366,1285931,69617,8270,642507,2
112,-1,672498,232254,1328220,69607,8401,663229,0
112,-1,671877,232124,1270473,69822,9124,634685,2
113,-1,667037,230645,1343334,68851,8361,671014,0
113,-1,671292,233278,1251435,70444,8770,624708,2
114,-1,666586,230199,1384167,68717,8567,691352,0
114,-1,668921,231751,1327289,69717,8259,663224,2
115,-1,668661,231252,1473208,69023,8789,735130,0
115,-1,670449,231761,1330434,69674,8259,664494,2
116,-1,665571,230225,1381093,68619,8398,690089,0
116,-1,668278,232069,1228463,69716,7895,613686,2
117,-1,665690,230605,1301501,68855,8312,650294,0
117,-1,673327,232902,1363612,69988,8066,681320,2
118,-1,673968,232142,1334916,69581,8448,666361,0
118,-1,675211,233184,1254772,70407,7812,626372,2
119,-1,690952,235551,1388482,72233,9845,693115,0
119,-1,670096,230521,1327670,69257,8576,663326,2
120,-1,669577,231822,1337882,69420,7886,667899,0
120,-1,665322,230633,1245402,69291,7885,622178,2
121,-1,668789,230853,1382240,68909,8398,690330,0
121,-1,668098,230993,1328753,69377,7969,663826,2
122,-1,666950,230562,1444419,68856,8549,721792,0
122,-1,670508,231425,1308795,69616,7447,653890,2
123,-1,664515,229740,1388242,68531,8357,693726,0
123,-1,670276,231532,1251964,69654,7302,625543,2
124,-1,669019,231617,1251533,69323,8098,624487,0
124,-1,673097,231837,1339131,69680,7521,669017,2
125,-1,667003,230376,1481796,68722,9106,740012,0
125,-1,667310,231133,1349530,69377,8122,674244,2
126,-1,668742,231848,1463276,69471,8371,730743,0
126,-1,670640,231372,1217424,69448,7094,608140,2
127,-1,686345,235404,1365826,72182,9533,682026,0
127,-1,674550,230931,1250638,69582,7800,624867,2
128,-1,663360,230445,1364265,68753,8890,681490,0
128,-1,663647,229946,1305307,69200,7451,652160,2
129,-1,673130,231446,1332717,69108,8937,665665,0
129,-1,665519,230155,1307985,69349,7169,653574,2
130,-1,668542,230043,1357216,68652,9410,678405,0
130,-1,665335,229927,1192641,69293,7775,595814,2
131,-1,668432,230195,1359468,68672,9446,678378,0
132,-1,671603,231629,1400066,69325,8847,698631,0
133,-1,668706,231069,1368012,68914,9216,683552,0
134,-1,668694,230212,1364431,68711,9274,681695,0
135,-1,669408,230487,1441676,68756,9341,720453,0
136,-1,689276,235057,1464015,72042,10271,731447,0
137,-1,666986,230410,1469917,68754,9277,734331,0
138,-1,667341,230654,1430065,68838,8578,714194,0
139,-1,669304,231067,1238014,69193,7956,618275,0
140,-1,666901,230728,1272821,68821,8791,635921,0
141,-1,666692,230476,1196367,68786,8443,597492,0
142,-1,669424,230606,1246939,68832,8762,622905,0
143,-1,666528,229923,1247075,68586,8209,623133,0
144,-1,668968,230634,1392850,68883,8763,695953,0
145,-1,687227,235093,1303767,72084,9175,651392,0
146,-1,664348,230156,1318238,68618,8282,658532,0
147,-1,668819,230668,1317148,68870,8957,658157,0
148,-1,673563,232882,1343583,69752,8650,670851,0
149,-1,666590,230889,1369059,68928,8556,683850,0
149,-1,688241,235373,1370316,72720,8242,684651,0
150,-1,688209,235557,1337469,72220,8703,668192,0
150,-1,665999,230215,1314647,69189,7911,656888,0
151,-1,665161,230526,1341722,68813,8813,670156,0
151,-1,666338,231320,1326868,69757,8578,662753,0
152,-1,665452,230625,1326601,68780,8454,662842,0
152,-1,669510,230456,1293635,69339,7863,646273,0
153,-1,668612,230497,1285263,68788,8790,642175,0
153,-1,673580,232594,1359334,70288,7493,678873,0
154,-1,675561,233302,1405482,69979,8652,701871,0
154,-1,689769,235129,1528542,72644,9369,763816,0
155,-1,668470,230362,1241950,68721,7718,620190,0
155,-1,666397,229964,1198152,69155,7576,598545,0
156,-1,666674,230280,1358044,68722,8670,678489,0
156,-1,670830,231893,1310902,69943,7100,654738,0
157,-1,695631,240335,1399263,71607,9123,699038,0
157,-1,669011,230102,1233317,69157,8350,616269,0
158,-1,672912,232546,1290577,69624,8827,644344,0
158,-1,666223,230183,1609619,69188,9619,804271,0
159,-1,667137,230801,1255101,68786,8392,627056,0
159,-1,669313,231429,1331640,69809,7743,665193,0
160,-1,666058,230540,1377253,68694,8890,688199,0
160,-1,667221,230752,1306582,69397,7435,652833,0
161,-1,686622,235906,1314084,72246,9963,656677,0
161,-1,663862,229574,1204684,69114,7280,601934,0
162,-1,668848,230753,1370900,68748,8919,685017,0
162,-1,667629,231675,1298507,70076,7505,648494,0
163,-1,667536,230953,1371746,68814,8758,685382,0
163,-1,687757,235696,1403543,72928,8972,701345,0
164,-1,668248,231023,1404394,68824,9164,701816,0
164,-1,665505,229455,1293782,69017,7553,646437,0
165,-1,688614,236015,1317784,72292,9136,658552,0
165,-1,669564,231036,1268061,69777,8111,633174,0
166,-1,666171,231053,1256909,68836,8507,627926,0
166,-1,663923,229705,1158239,69190,7605,578677,0
167,-1,671244,231809,1480067,69240,9389,739172,0
167,-1,662956,229020,1196735,68883,8007,597940,0
168,-1,665828,230680,1340512,68744,9112,669786,0
168,-1,671220,232510,1256057,70342,8809,627273,0
169,-1,671874,233452,1368155,69900,9150,683218,0
169,-1,670998,232022,1254517,70095,7467,626665,0
170,-1,687295,235582,1306235,72035,9896,652623,0
170,-1,663608,229563,1283599,69102,7415,641282,0
171,-1,668494,232335,1334465,69392,8632,666615,0
171,-1,664085,230002,1287628,69229,6957,643390,0
172,-1,666749,232009,1415582,69110,8976,707316,0
172,-1,665331,230304,1428321,69396,7767,713656,0
173,-1,696457,236083,1276299,72247,9759,637667,0
173,-1,661862,229422,1212675,69056,6709,605915,0
174,-1,673371,231241,1251285,68872,9204,625136,0
174,-1,686292,234625,1355595,72610,8897,677463,0
175,-1,673791,231799,1217447,69052,9142,608354,0
175,-1,664593,230330,1220148,69338,7504,609581,0
176,-1,671900,231059,1332191,68802,8968,665611,0
176,-1,662258,229857,1300990,69196,7630,650133,0
177,-1,673711,232115,1324179,69339,8574,661329,0
177,-1,663103,229915,1199814,69263,8006,599499,0
178,-1,671781,231188,1218529,68901,8433,608635,0
178,-1,666761,231738,1332007,70012,8390,665340,0
179,-1,667956,230042,1359832,68513,9330,679262,0
179,-1,666554,230116,1210318,69265,7309,604647,0
180,-1,675423,232860,1338663,69686,9042,668646,0
180,-1,687604,234179,1348213,72472,7824,673678,0
181,-1,692475,236258,1412167,72326,9394,705670,0
181,-1,666665,230101,1347489,69302,7937,673359,0
182,-1,669049,231059,1477613,68845,9268,738252,0
182,-1,667759,230016,1212605,69285,7214,605849,0
183,-1,671291,230838,1325693,68738,9333,662416,0
183,-1,667181,230632,1317448,69481,7903,658243,0
184,-1,673653,231759,1249427,69077,8604,624235,0
184,-1,663486,229630,1233771,69128,7885,616314,0
185,-1,671763,231070,1347976,68808,9264,673500,0
185,-1,687813,234406,1556317,72528,9408,777666,0
186,-1,671143,231025,1242915,68875,8393,620575,0
186,-1,666933,230306,1435067,69337,9616,716290,0
187,-1,669612,230809,1379276,68740,9001,689255,0
187,-1,664403,229190,1333155,69010,7613,666122,0
188,-1,690943,235281,1301751,72002,9697,650351,0
188,-1,669290,231653,1349154,69981,7283,673795,0
189,-1,670511,230901,1392993,68763,8879,695826,0
189,-1,664292,229845,1342765,69241,7879,670977,0
190,-1,672409,232621,1382025,69530,8877,690192,0
190,-1,665691,230369,1293237,69338,7090,646148,0
191,-1,671673,231154,1338676,68892,9596,668825,0
191,-1,662971,229561,1206531,69095,7285,602847,0
192,-1,670505,231008,1322266,68825,9456,660563,0
192,-1,671156,232567,1316581,70350,7842,657579,0
193,-1,668781,230843,1415425,68800,9629,707214,0
193,-1,684596,234585,1359197,72577,8299,679160,0
194,-1,669369,231025,1385220,68846,9519,692208,0
194,-1,669008,230213,1543481,69326,8880,771230,0
195,-1,671916,232403,1360743,69452,9364,679791,0
195,-1,668848,230662,1528673,69518,9577,763640,0
196,-1,677402,232848,1291534,69836,9072,644710,0
196,-1,667221,230291,1294226,69394,7526,646590,0
197,-1,671621,230900,1255257,68922,9240,626972,0
197,-1,692087,239082,1210869,71979,7118,604955,0
198,-1,670143,230540,1241114,68774,8487,620074,0
198,-1,664756,229723,1176106,69146,7496,587602,0
199,-1,671023,231137,1347739,68995,9543,673370,0
199,-1,663664,229814,1345102,69178,7437,672230,0
200,-1,677116,233199,1370506,69815,9299,684316,0
200,-1,683680,234744,1343958,72625,8432,671396,0
201,-1,672612,231599,1416675,69114,8930,707931,0
201,-1,664049,229865,1236073,69244,7763,617524,0
202,-1,670278,231062,1339183,68973,8080,668687,0
202,-1,662473,229478,1290132,69056,7799,644645,0
203,-1,668123,230269,1345643,68666,8974,672205,0
203,-1,662388,229853,1199092,69243,7561,599077,0
204,-1,675136,233417,1349511,69944,8287,673913,0
204,-1,665218,231011,1304348,69721,7204,651567,0
205,-1,671247,230674,1374826,68849,9654,686765,0
205,-1,662225,230167,1326675,69342,7312,662800,0
206,-1,696283,239673,1328789,71404,9251,663844,0
206,-1,661941,229986,1285686,69226,7303,642402,0
207,-1,667463,230783,1399471,68913,9214,699109,0
207,-1,687515,234672,1337694,72572,8903,668324,0
208,-1,668520,230855,1377337,68976,9081,688129,0
208,-1,662943,229536,1257185,69094,7786,628235,0
209,-1,669597,231134,1363099,69024,9274,680980,0
209,-1,688354,235426,1353441,72831,8615,676289,0
210,-1,671239,231796,1463623,69270,9058,731500,0
210,-1,665900,230147,1227513,69332,7747,613254,0
211,-1,669516,232030,1245445,69345,7718,622255,0
211,-1,664304,229974,1197669,69217,7709,598353,0
212,-1,667946,230616,1366508,68860,8610,682729,0
212,-1,667614,231219,1330274,69862,8515,664280,0
213,-1,667093,230218,1357419,68667,9023,678204,0
213,-1,664744,230498,1294024,69446,8593,646612,0
214,-1,689523,235792,1271279,72356,9017,635056,0
214,-1,662902,229961,1096685,69230,7464,547957,0
215,-1,667733,230733,1367757,68948,9393,683294,0
215,-1,662692,229527,1238079,69083,8804,618543,0
216,-1,671087,232380,1285305,69658,8565,641858,0
216,-1,686545,235215,1378758,72716,9766,688770,0
217,-1,666161,230385,1256080,68783,9450,627423,0
217,-1,659735,229519,1298374,69092,8295,648753,0
218,-1,694635,235835,1349924,72407,10244,674322,0
218,-1,666248,230209,1232210,69285,7851,615474,0
219,-1,668372,229826,1241554,68692,8306,620281,0
219,-1,668045,230989,1361877,69761,7923,680138,0
220,-1,667745,229967,1388814,68771,8720,693844,0
220,-1,667029,230772,1347813,69534,8031,673360,0
221,-1,671289,231362,1310751,69225,8563,654653,0
221,-1,663257,229782,1323497,69211,8152,661274,0
222,-1,668903,230141,1363612,68785,9243,681362,0
222,-1,686254,234925,1378803,72668,8890,688696,0
223,-1,667485,230231,1365492,68747,8650,682415,0
223,-1,664319,230345,1257848,69363,8302,628511,0
224,-1,673022,232203,1354603,69718,9077,676305,0
224,-1,663467,230178,1357613,69270,8442,678377,0
225,-1,690565,235832,1353347,72432,10088,676048,0
225,-1,662022,229723,1292001,69128,7613,645482,0
226,-1,669389,229984,1291685,68744,9187,645311,0
226,-1,666075,231178,1369493,69849,8146,683847,0
227,-1,670535,231462,1330195,69360,8899,664385,0
227,-1,661069,229923,1290334,69248,7953,644708,0
228,-1,670435,231260,1300167,69177,7705,649255,0
228,-1,663316,230258,1344626,69329,8047,671820,0
229,-1,667024,230542,1364496,68944,8721,681524,0
229,-1,666838,231868,1406004,70034,8073,702197,0
230,-1,688860,235304,1290114,72265,8953,644552,0
230,-1,663818,231031,1449683,69582,8198,724265,0
231,-1,665226,230097,1329424,68734,8252,664107,0
231,-1,660177,229751,1240190,69081,7408,619586,0
232,-1,661379,228621,1223062,68277,7506,611057,0
232,-1,681021,232624,1374202,70413,8436,686251,0
233,-1,666767,230966,1354666,69045,8561,676641,0
233,-1,695154,234753,1405360,72624,9104,702170,0
234,-1,668075,230198,1430128,68784,9702,714617,0
234,-1,671763,230004,1257252,69269,8016,628116,0
235,-1,668138,230689,1266700,68931,8010,632856,0
235,-1,676072,232022,1359572,70090,8168,679038,0
236,-1,667811,230924,1334008,69041,8493,666456,0
236,-1,670772,229478,1242929,69077,8408,621052,0
237,-1,666216,230222,1445169,68800,9167,721881,0
237,-1,670998,229865,1308401,69197,8080,653777,0
238,-1,670413,231585,1330424,69344,8844,664264,0
238,-1,675847,232289,1375567,70190,8653,687009,0
239,-1,667696,231104,1248515,69033,8324,623520,0
239,-1,691930,234784,1429221,72616,9794,714226,0
240,-1,663984,230014,1383369,68651,8992,691225,0
240,-1,670593,229949,1300154,69259,8210,649550,0
241,-1,666362,230858,1294886,68907,8543,646666,0
241,-1,672978,230115,1389415,69273,9137,694340,0
242,-1,669289,230514,1342453,68847,8941,670529,0
242,-1,672337,230241,1253081,69382,8790,626011,0
243,-1,674108,232741,1356004,69741,8507,677084,0
243,-1,670623,229728,1337476,69133,8765,668092,0
244,-1,668387,230936,1386023,68929,9274,692410,0
244,-1,667851,228981,1228253,68960,8597,613705,0
245,-1,670384,231100,1298002,69015,8732,648324,0
245,-1,668254,229681,1390320,69072,8750,694741,0
246,-1,666278,230868,1282546,68902,8293,640918,0
246,-1,676578,232116,1379329,70115,9006,688932,0
247,-1,666719,230817,1351516,68903,8756,675178,0
247,-1,671235,229682,1353004,69189,8831,676133,0
248,-1,668932,232168,1298531,69574,8843,648496,0
248,-1,670788,229450,1306817,69097,8720,652920,0
249,-1,687362,235161,1263816,72113,9680,631335,0
249,-1,670662,229928,1339682,69223,9239,669317,0
250,-1,669758,231956,1285956,69507,9341,641991,0
250,-1,675821,232255,1338982,70250,9161,668725,0
251,-1,664772,230429,1395989,68792,8918,697599,0
251,-1,669529,229738,1346670,69161,8988,672913,0
252,-1,663872,230496,1242867,68941,7961,620805,0
252,-1,672594,230995,1350539,69779,8760,674456,0
253,-1,673599,233034,1436980,70001,8599,717755,0
253,-1,667208,229493,1351618,69029,8850,675292,0
254,-1,686589,234870,1361009,72139,9819,680168,0
254,-1,670546,230029,1327637,69283,7964,663251,0
255,-1,665673,230354,1259281,68837,8340,629195,0
255,-1,673336,231593,1328942,70014,8587,663633,0
256,-1,669769,232893,1316024,69868,8456,657245,0
256,-1,668568,230040,1291088,69281,8206,645031,0
257,-1,664665,230297,1271421,68892,8572,635321,0
257,-1,672760,231352,1276422,69846,9025,637640,0
258,-1,665339,230674,1380363,68952,9050,689779,0
258,-1,669913,230755,1264390,69424,8283,631807,0
259,-1,665734,231158,1293577,69142,8888,646212,0
259,-1,670144,230657,1357000,69438,8488,678049,0
260,-1,668196,232496,1377879,69821,9003,688112,0
260,-1,674237,230901,1241751,69528,8368,620492,0
261,-1,667355,231147,1434231,69133,8431,716501,0
261,-1,671442,230047,1275181,69236,8355,637191,0
262,-1,674154,232047,1369371,69626,8869,683899,0
262,-1,673491,231185,1395966,69795,9081,697224,0
263,-1,672600,231245,1304523,69139,9281,651586,0
263,-1,670924,230080,1250009,69200,8341,624657,0
264,-1,674326,232355,1377647,69783,8784,688050,0
264,-1,669996,229865,1280361,69139,8421,639753,0
265,-1,690673,235516,1353165,72371,10105,675761,0
265,-1,673763,231821,1297706,70073,8271,648069,0
266,-1,665647,229663,1347745,68581,8092,673268,0
266,-1,672057,230332,1240837,69228,8133,620046,0
267,-1,667070,230450,1481325,68925,8977,739957,0
267,-1,670654,230118,1350335,69102,8156,674689,0
268,-1,672221,231488,1295136,69248,8789,647247,0
268,-1,668651,230092,1428720,69151,8078,713835,0
269,-1,667573,230091,1371518,68706,8949,685326,0
269,-1,691709,235277,1407697,72635,9345,703327,0
270,-1,669390,230689,1332424,68928,8494,665696,0
270,-1,668875,230293,1272891,69231,8107,636036,0
271,-1,661556,228929,1283898,68347,9044,641503,0
271,-1,669581,230503,1358081,69235,8522,678576,0
272,-1,671460,230934,1219965,69059,8708,609512,0
272,-1,667938,230325,1233756,69222,8040,616371,0
273,-1,668259,229905,1276235,68650,8795,637665,0
273,-1,672014,230317,1238295,69179,7202,618707,0
274,-1,692404,236052,1239902,72401,9239,619536,0
274,-1,670963,230341,1254477,69193,7925,626611,0
275,-1,667794,230469,1260344,68854,8575,629400,0
275,-1,692035,235622,1389023,72682,8678,694015,0
276,-1,665957,229818,1189234,68528,8181,594245,0
276,-1,670353,230097,1333069,69070,8355,666119,0
277,-1,667360,230309,1243387,68792,8750,621076,0
277,-1,671620,231659,1308511,69779,7965,653450,0
278,-1,667876,230857,1452529,68913,8661,725882,0
278,-1,667213,230435,1344633,69152,8447,671845,0
279,-1,668720,231058,1375555,68996,8488,686892,0
279,-1,668777,230124,1242163,69085,8198,620646,0
280,-1,668865,230795,1376464,68903,8965,687701,0
280,-1,695748,236691,1377948,72983,9498,688428,0
281,-1,668094,230771,1375760,68927,9396,687420,0
281,-1,670360,230849,1366243,69234,8161,682721,0
282,-1,666919,231110,1315093,68981,8316,656968,0
282,-1,669692,231038,1298454,69318,8083,648781,0
283,-1,672230,233008,1449899,69950,9283,724105,0
283,-1,668165,230249,1333859,69031,8510,666451,0
284,-1,665600,230620,1281494,68881,8458,640098,0
284,-1,674174,230891,1298888,69300,8107,649014,0
285,-1,672379,230977,1372644,69043,9334,685829,0
285,-1,673493,230644,1300942,69213,8776,650050,0
286,-1,670671,230656,1351785,68890,9255,675407,0
286,-1,670646,230057,1336546,68988,8633,667748,0
287,-1,667284,230441,1362513,68762,8856,680802,0
287,-1,673753,230890,1232604,69266,7867,615937,0
288,-1,668308,230731,1398298,68971,8641,698575,0
288,-1,675595,232016,1333708,69911,8426,666138,0
289,-1,667788,230914,1331456,69017,8728,665204,0
289,-1,692802,235441,1367083,72583,9171,683025,0
290,-1,669210,231296,1298780,69144,8631,649038,0
290,-1,670630,230335,1171965,69115,7666,585405,0
291,-1,668559,230794,1294889,68983,8750,647033,0
291,-1,677146,231933,1291428,69803,8844,645038,0
292,-1,687120,234992,1296006,72143,8850,647634,0
292,-1,671448,230554,1239577,69177,8678,619292,0
293,-1,669691,231905,1469176,69447,9275,734075,0
293,-1,671340,230728,1208595,69198,8528,603893,0
294,-1,668358,230759,1377106,68983,8917,687928,0
294,-1,674719,232528,1274201,70051,9222,636276,0
295,-1,670880,232692,1322055,69778,8556,660099,0
295,-1,669074,230417,1193966,69149,7990,596519,0
296,-1,686181,235434,1303977,72225,9235,651221,0
296,-1,674751,232480,1243118,69964,8235,620944,0
297,-1,672106,232182,1405248,69321,9079,702010,0
297,-1,669479,230744,1335983,69297,8202,667470,0
298,-1,671008,231724,1299848,69164,8776,649168,0
298,-1,672119,231202,1243929,69386,7626,621529,0
299,-1,672336,232747,1380066,69731,9024,689050,0
299,-1,700757,241048,1346839,72512,8341,672714,0
300,-1,667417,231186,1321990,69045,8895,660502,0
300,-1,670295,230711,1341409,69248,7949,670250,0
301,-1,672734,233349,1371545,70019,9264,684953,0
301,-1,669704,230537,1265424,69163,8163,632198,0
302,-1,677585,232644,1339757,69596,8710,669254,0
302,-1,673601,232425,1330822,69950,8228,664740,0
303,-1,673763,232011,1352230,69239,8917,675707,0
303,-1,669187,231071,1339094,69284,7674,669074,0
304,-1,671900,231541,1260194,69088,8277,629438,0
304,-1,669138,231482,1350264,69463,8012,674752,0
305,-1,670887,231482,1315537,69176,8952,657298,0
305,-1,669988,230399,1341714,69137,8075,670390,0
306,-1,674113,232836,1349690,69796,9290,673940,0
306,-1,670970,230300,1254659,69052,7797,626869,0
307,-1,669163,231380,1257213,69214,8316,628110,0
307,-1,670903,230925,1344993,69316,7273,671949,0
308,-1,671588,232184,1374856,69396,9188,687012,0
308,-1,675380,232203,1271873,69905,7994,635376,0
309,-1,670081,230919,1316840,68988,8328,658146,0
309,-1,670584,230669,1298761,69180,7257,648965,0
310,-1,673049,232660,1294011,69605,8530,646378,0
310,-1,670195,231113,1251032,69363,7825,624985,0
311,-1,673507,232666,1282039,69810,8978,640071,0
311,-1,671190,231887,1215010,69798,7969,606860,0
312,-1,667620,230836,1281094,68996,8753,640091,0
312,-1,668879,230252,1197162,69047,7756,598165,0
313,-1,667558,231335,1359713,69083,9125,679295,0
313,-1,674828,232933,1198506,70200,7640,598428,0
314,-1,670639,231329,1427524,69140,8932,713065,0
314,-1,670595,231406,1177811,69465,7768,588381,0
315,-1,669159,231084,1377126,69012,8785,688243,0
315,-1,667829,230039,1272659,68916,7921,635949,0
316,-1,673614,233013,1365927,69838,8575,682270,0
316,-1,673088,230920,1254668,69247,8397,626859,0
317,-1,669810,231610,1272945,69232,8262,635856,0
317,-1,691608,235578,1374293,72616,8474,686605,0
318,-1,668547,231469,1343371,69137,8209,671307,0
318,-1,671346,231009,1229024,69345,7951,614107,0
319,-1,673797,233337,1340059,70015,8301,669022,0
319,-1,669202,230547,1319459,69146,7947,659344,0
320,-1,690284,236513,1355987,72574,9929,677428,0
320,-1,669507,231024,1260715,69327,8131,629947,0
321,-1,668892,231535,1379806,69147,8969,689240,0
321,-1,676463,233102,1290034,70217,8364,644320,0
322,-1,691212,237003,1301590,72698,9310,650175,0
322,-1,670682,231103,1286594,69327,7307,642882,0
323,-1,668045,232096,1324093,69316,9061,661375,0
323,-1,668865,230745,1392595,69272,8076,695839,0
324,-1,668966,232918,1453476,69734,9517,725974,0
324,-1,668994,230900,1271683,69293,8059,635444,0
325,-1,672241,232227,1358559,69339,8315,678832,0
325,-1,673965,233156,1272999,70283,8050,635724,0
326,-1,671283,231445,1410403,68986,8744,704848,0
326,-1,691362,236263,1374501,72854,9405,686868,0
327,-1,670493,231499,1348366,69134,8363,673760,0
327,-1,672087,231185,1240178,69410,7876,619554,0
328,-1,670161,231379,1371300,69013,8836,685202,0
328,-1,669070,230660,1415613,69228,8547,707334,0
329,-1,692570,236894,1312216,72632,9179,655522,0
329,-1,670031,231164,1338077,69283,8389,668571,0
330,-1,668591,231237,1357927,69040,8835,678311,0
330,-1,675823,233816,1388049,70522,8435,693185,0
331,-1,669736,231796,1327846,69193,8197,663465,0
331,-1,668591,231367,1234761,69450,8186,616912,0
332,-1,674468,233829,1351914,70020,8824,675094,0
332,-1,668978,231522,1342862,69471,8075,670993,0
333,-1,671663,232526,1217101,69420,8611,608134,0
333,-1,675821,231261,1334278,69370,8526,666659,0
334,-1,667081,231181,1285858,68921,9510,642444,0
334,-1,675343,231128,1325311,69376,8960,662210,0
335,-1,671645,232613,1268782,69453,8837,633868,0
335,-1,675021,231461,1260943,69420,8019,630029,0
336,-1,667886,231483,1218575,69006,8393,608643,0
336,-1,698394,236287,1353279,72848,8870,676195,0
337,-1,668754,232076,1269990,69274,8904,634264,0
337,-1,674098,231399,1264512,69433,8770,631805,0
338,-1,672090,233086,1303322,69786,8465,650991,0
338,-1,674224,231406,1208500,69448,7632,603755,0
339,-1,667255,231370,1355677,68941,8829,677501,0
339,-1,676837,232782,1214323,70109,7531,606470,0
340,-1,687622,236266,1480850,72427,9996,739712,0
340,-1,674243,231937,1250483,69631,7626,624753,0
341,-1,668097,231555,1244510,69102,8509,621555,0
341,-1,675185,231400,1253070,69469,8105,626111,0
342,-1,667526,231448,1343485,69036,8924,671463,0
342,-1,671266,230689,1349166,69265,8442,674131,0
343,-1,688380,236436,1339583,72457,9691,669326,0
343,-1,670462,230546,1395295,69143,8523,697221,0
344,-1,672204,233134,1331429,69806,9229,665051,0
344,-1,672847,230950,1343118,69329,7474,671053,0
345,-1,667432,231695,1264856,69102,8535,631851,0
345,-1,672365,230909,1298625,69317,7920,648849,0
346,-1,670211,232855,1410728,69479,9448,704941,0
346,-1,697156,236281,1372916,72979,8705,685982,0
347,-1,667148,231748,1293203,69175,8616,645870,0
347,-1,674447,231835,1297148,69687,7159,648140,0
348,-1,689380,236413,1333307,72480,9916,666174,0
348,-1,673276,231089,1236972,69415,7670,618044,0
349,-1,666375,232030,1457869,69251,8982,728560,0
349,-1,670739,230572,1339559,69255,7972,669282,0
350,-1,664811,232116,1364023,69282,8193,681416,0
350,-1,699494,240693,1358798,72285,8043,678959,0
351,-1,676465,231875,1264924,69221,8038,631580,0
351,-1,676551,232941,1257066,70328,7779,627761,0
352,-1,674445,231208,1352497,68890,8636,675839,0
352,-1,671915,231106,1375892,69517,8178,687406,0
353,-1,680377,233855,1372829,70086,9097,685467,0
353,-1,671626,231375,1330522,69535,7509,664866,0
354,-1,675560,231925,1263108,69229,9180,630817,0
354,-1,669944,230507,1322349,69227,8356,660855,0
355,-1,673142,231800,1280088,69171,9213,639516,0
355,-1,676557,233268,1240547,70474,8024,619403,0
356,-1,672091,231795,1260607,69130,8936,629719,0
356,-1,673857,230889,1271044,69411,8363,635016,0
357,-1,695471,236358,1278195,72461,9711,638496,0
357,-1,675709,231967,1199269,69783,8077,599083,0
358,-1,675761,232639,1286334,69371,8860,642514,0
358,-1,670694,230281,1256487,69209,7627,627820,0
359,-1,673708,231848,1199747,69140,8186,599396,0
359,-1,672626,231406,1227859,69590,7451,613473,0
360,-1,675600,232844,1263591,69488,9123,631220,0
360,-1,673822,231961,1201662,69887,7478,600091,0
361,-1,673591,232256,1323494,69305,8600,661050,0
361,-1,671239,231238,1248356,69542,8047,623643,0
362,-1,675995,232719,1287775,69546,8709,643338,0
362,-1,672431,231339,1333165,69597,7255,666126,0
363,-1,669877,231025,1396869,68838,8803,697985,0
363,-1,670831,231058,1328815,69461,7541,664009,0
364,-1,677594,233839,1393296,70086,9012,695817,0
364,-1,670579,231218,1268243,69545,7902,633717,0
365,-1,691645,236117,1327518,72364,9411,663242,0
365,-1,672979,231204,1447247,69509,8440,723241,0
366,-1,674993,231460,1267239,69037,7597,633250,0
366,-1,670161,230948,1319227,69414,7437,659200,0
367,-1,674149,231741,1347027,69175,7892,672996,0
367,-1,671667,231669,1231693,69578,7567,615458,0
368,-1,674157,231962,1286648,69273,8202,642594,0
368,-1,672240,231225,1319419,69444,8205,659241,0
369,-1,673639,232385,1301893,69468,7797,650564,0
369,-1,671353,232049,1245000,69658,7831,621995,0
370,-1,676889,233448,1463351,70086,9011,730763,0
370,-1,669609,231591,1324822,69460,8305,661899,0
371,-1,695300,236866,1453722,72793,9890,726206,0
371,-1,672616,231672,1297990,69587,7801,648280,0
372,-1,670048,231412,1348486,69268,8488,673475,0
372,-1,670950,231534,1389789,69590,7554,694476,0
373,-1,674041,231776,1308682,69405,8714,653771,0
373,-1,668715,230640,1231554,69213,7058,615390,0
374,-1,672324,231509,1418543,69299,8968,708536,0
374,-1,670962,231733,1326313,69608,7690,662708,0
375,-1,676164,233624,1380780,70294,8542,689337,0
375,-1,665614,229678,1311811,68934,7774,655453,0
376,-1,692497,236655,1331615,72773,9283,665261,0
376,-1,673730,233231,1274976,70404,7680,636610,0
377,-1,668964,230803,1371843,69050,7937,685551,0
377,-1,671839,232768,1275691,70148,7749,637157,0
378,-1,669383,231245,1378239,69246,8152,688872,0
378,-1,676465,231415,1241112,69524,8026,620164,0
379,-1,672018,232285,1401485,69673,8871,700102,0
379,-1,676336,231894,1333163,69694,8671,665943,0
380,-1,673555,233085,1288780,69824,8140,643621,0
380,-1,674425,231659,1244506,69522,8217,621830,0
381,-1,673507,231908,1273971,69424,8224,636351,0
381,-1,679650,233443,1203019,70354,8326,600741,0
382,-1,670676,231096,1283247,69109,9031,640968,0
382,-1,676026,232551,1180266,69894,7498,589561,0
383,-1,671304,231543,1259326,69275,7744,629249,0
383,-1,677563,232739,1238594,69978,8096,618821,0
384,-1,675024,233345,1273064,70176,7808,635635,0
384,-1,677370,232938,1251310,70231,8008,624961,0
385,-1,694908,236723,1280011,72773,9344,639444,0
385,-1,677251,233180,1353016,70061,8035,675967,0
386,-1,675451,232506,1279591,69626,8791,639130,0
386,-1,671918,231611,1401154,69535,7939,700066,0
387,-1,673842,232365,1269911,69470,8920,634410,0
387,-1,671892,231578,1379920,69520,8066,689599,0
388,-1,671869,232174,1327146,69363,8975,663078,0
388,-1,696926,236989,1425363,73108,8680,712199,0
389,-1,690112,235610,1254304,72351,8832,626863,0
389,-1,675092,232634,1319741,69846,7393,659482,0
390,-1,669694,231763,1269361,69331,8429,634181,0
390,-1,670869,231057,1211195,69264,6701,605254,0
391,-1,667429,231464,1206696,69179,8133,603058,0
391,-1,669672,231122,1345142,69279,7886,672079,0
392,-1,672133,231510,1276086,69233,9493,637432,0
392,-1,668624,230676,1308180,69143,7690,653681,0
393,-1,675245,232665,1277357,69745,8881,637985,0
393,-1,670295,231921,1314745,69830,7272,656640,0
394,-1,668460,230871,1354120,69083,9170,676665,0
394,-1,670880,231452,1347211,69542,7818,673136,0
395,-1,667437,230624,1313769,68945,8573,656393,0
395,-1,673411,232085,1233914,69916,7899,616238,0
396,-1,670371,232235,1364266,69691,8583,681128,0
396,-1,672667,231663,1318670,69531,8174,658806,0
397,-1,673761,233209,1407563,70133,8956,702675,0
397,-1,668886,230717,1220543,69219,7388,609822,0
398,-1,688272,235513,1437139,72220,9296,717877,0
398,-1,669261,230254,1312527,69078,8070,655864,0
399,-1,666027,230479,1259965,68771,8385,629447,0
399,-1,691574,236343,1371324,72869,8513,685208,0
400,-1,666877,230943,1312955,68978,8506,655854,0
400,-1,668421,230909,1242994,69360,7389,621009,0
401,-1,671614,232812,1355253,69727,8407,676763,0
401,-1,669372,231696,1405300,69610,7471,702249,0
402,-1,665901,230890,1338356,68840,9300,668645,0
402,-1,671011,231839,1332710,69656,7729,665859,0
403,-1,665078,230533,1515620,68796,8878,757098,0
403,-1,668199,230881,1342247,69290,8445,670681,0
404,-1,670488,230548,1287436,68814,7724,643214,0
404,-1,671624,232719,1233260,70197,7978,615825,0
405,-1,674223,232909,1344171,69778,8691,671389,0
405,-1,688756,235635,1350966,72708,8885,674997,0
406,-1,671638,231440,1367691,69100,8415,683302,0
406,-1,671492,232403,1252568,69996,8082,625610,0
407,-1,670197,231524,1368542,69143,8927,683782,0
407,-1,665421,230674,1285121,69211,8018,642096,0
408,-1,670339,231225,1329204,69044,7371,664185,0
408,-1,672813,231586,1245363,69576,8283,622196,0
409,-1,672641,232389,1357066,69610,7933,677829,0
409,-1,670328,230436,1252869,69175,8619,626006,0
410,-1,688831,235727,1261348,72332,8927,630439,0
410,-1,676147,233071,1192346,70277,8221,595420,0
411,-1,669857,231678,1279316,69219,8651,639120,0
411,-1,670344,231119,1222651,69442,8338,610787,0
412,-1,666861,230917,1190079,68888,7838,594591,0
412,-1,667830,230276,1243839,69080,8076,621445,0
413,-1,673901,232808,1355516,69713,9043,676955,0
413,-1,671297,231550,1236150,69586,8364,617523,0
414,-1,669586,230839,1295662,68915,8518,647052,0
414,-1,669006,231075,1299018,69361,7883,649050,0
415,-1,669212,231042,1355687,68996,8576,677305,0
415,-1,669505,231256,1424801,69476,7860,711973,0
416,-1,673101,232912,1328485,69778,8729,663236,0
416,-1,667555,230722,1318813,69208,7579,659056,0
417,-1,688257,235435,1301333,72208,8995,650062,0
417,-1,692880,235658,1384900,72725,8833,692074,0
418,-1,670430,231348,1355423,69093,9249,677271,0
418,-1,670084,231130,1232285,69441,7483,615659,0
419,-1,666700,230365,1286369,68735,8636,642674,0
419,-1,670019,231369,1351808,69477,7811,675490,0
420,-1,671920,232328,1365862,69571,8948,682065,0
420,-1,669161,231117,1234312,69403,7897,616741,0
421,-1,669382,231186,1262302,69030,8270,630484,0
421,-1,667726,230829,1356384,69355,7895,677676,0
422,-1,667058,230406,1360001,68743,8157,679542,0
422,-1,687659,235364,1388185,72610,8896,693705,0
423,-1,669603,232051,1369623,69299,8704,684209,0
423,-1,670451,231252,1252529,69409,7862,625806,0
424,-1,664075,230096,1269621,68597,7981,634294,0
424,-1,673057,232694,1277981,70159,7560,638365,0
425,-1,671180,232459,1327483,69654,8089,663064,0
425,-1,690295,235884,1501589,72757,8727,750300,0
426,-1,665108,230485,1268452,68854,7885,633432,0
426,-1,667198,230858,1310164,69301,7656,654706,0
427,-1,666957,231439,1354168,69123,8479,676654,0
427,-1,667712,231236,1305923,69462,8598,652438,0
428,-1,668512,230700,1278816,68876,8259,638914,0
428,-1,668973,230956,1242223,69331,8959,620703,0
429,-1,672639,232537,1367819,69695,8617,683001,0
429,-1,668549,231131,1338157,69422,8807,668618,0
430,-1,667485,230836,1270414,68901,8471,634700,0
430,-1,668384,231419,1398546,69483,8396,698692,0
431,-1,669130,231195,1276273,69090,8072,637427,0
431,-1,665373,229773,1289557,68982,8607,644366,0
432,-1,688348,235505,1245114,72273,8991,622108,0
432,-1,667139,231119,1300583,69427,8538,649814,0
433,-1,665426,230613,1251161,68842,7894,625013,0
433,-1,668026,231940,1203702,69860,8456,601129,0
434,-1,672252,232342,1355568,69646,8881,676771,0
434,-1,664018,230831,1236466,69276,8301,617758,0
435,-1,667148,231144,1292820,69027,7488,646128,0
435,-1,679034,232757,1227527,70178,8152,612864,0
436,-1,664453,230359,1291399,68715,7255,645302,0
436,-1,697161,236004,1281638,72802,9350,640369,0
437,-1,672795,233132,1341627,69895,8456,669705,0
437,-1,673970,231514,1349424,69560,8078,674304,0
438,-1,667800,231634,1293488,69153,7339,646315,0
438,-1,675877,231673,1449774,69594,9029,724436,0
439,-1,692859,240653,1420245,71856,8321,709587,0
439,-1,673519,231162,1233809,69391,8285,616487,0
440,-1,670078,231699,1272804,69234,8017,635845,0
440,-1,692499,235929,1448210,72716,9522,723334,0
441,-1,688720,235922,1294632,72380,8695,646522,0
441,-1,673049,230802,1210408,69324,7666,604808,0
442,-1,668461,230994,1279214,68970,7796,639136,0
442,-1,672636,230599,1329273,69223,8337,664191,0
443,-1,665370,230755,1330346,68943,7406,664563,0
443,-1,671838,230800,1309213,69307,8635,654125,0
444,-1,665049,230882,1408763,68914,8057,703818,0
444,-1,673355,231689,1391347,69626,8736,695071,0
445,-1,664675,231137,1365944,69052,7593,682486,0
445,-1,671449,230889,1336744,69371,7751,667878,0
446,-1,687640,235394,1313740,72243,9023,656233,0
446,-1,669444,230393,1472092,69150,8054,735441,0
447,-1,665884,231049,1355294,69173,8178,677124,0
447,-1,670598,230485,1302952,69190,7750,650726,0
448,-1,666487,231266,1272032,69156,7231,635458,0
448,-1,676383,233246,1234103,70331,7179,616031,0
449,-1,665768,231314,1292816,69185,7653,645998,0
449,-1,692286,235985,1388675,72821,8651,693866,0
450,-1,666345,231031,1265543,69078,8305,632016,0
450,-1,671455,231285,1246744,69480,7384,622854,0
451,-1,664985,230835,1353571,68878,8516,676349,0
451,-1,672946,231160,1397219,69437,8367,698207,0
452,-1,667945,232713,1311241,69780,8737,654622,0
452,-1,671904,230931,1388868,69294,8767,694008,0
453,-1,671429,231107,1244397,69016,8853,621885,0
453,-1,674743,232506,1335506,70134,8724,667025,0
454,-1,670497,231191,1180142,69029,8174,589643,0
454,-1,694089,235971,1399283,72760,9532,699223,0
455,-1,669324,230915,1212931,68887,8192,605869,0
455,-1,670845,230767,1240555,69324,7513,619836,0
456,-1,668814,230328,1226774,68713,8625,612936,0
456,-1,670782,231018,1318921,69379,8919,659006,0
457,-1,672869,232272,1275244,69622,8274,636710,0
457,-1,672849,231208,1356334,69433,8546,677649,0
458,-1,668348,230758,1273540,68909,8870,636258,0
458,-1,670730,230788,1299278,69288,7839,649238,0
459,-1,669826,231059,1221457,69029,7863,610156,0
459,-1,692366,235521,1370051,72669,8531,684490,0
460,-1,667970,230564,1241307,68895,8330,620301,0
460,-1,669002,230780,1240076,69327,7510,619396,0
461,-1,671066,232257,1350522,69667,8421,674391,0
461,-1,669053,231190,1259952,69427,7614,629436,0
462,-1,689101,235345,1346520,72153,9466,672689,0
462,-1,672399,231641,1254675,69531,7958,626785,0
463,-1,666621,230223,1330942,68728,8215,664901,0
463,-1,674016,232497,1215444,70066,7652,607055,0
464,-1,667962,231120,1358509,69072,8097,678577,0
464,-1,668915,230902,1189340,69309,7703,594273,0
465,-1,666494,230929,1289855,69061,8065,643945,0
465,-1,669740,231584,1232286,69577,8040,615671,0
466,-1,667953,230185,1272830,68824,8601,635938,0
466,-1,672619,231231,1397485,69422,7790,698367,0
467,-1,669178,231235,1349807,69199,8746,674373,0
467,-1,672847,231121,1435391,69427,8921,717266,0
468,-1,666921,230706,1350287,69015,8062,674463,0
468,-1,670686,230208,1215776,69048,7209,607151,0
469,-1,668335,231131,1350743,69099,8207,674954,0
469,-1,672753,231564,1327731,69547,7719,663359,0
470,-1,688620,234952,1293705,72132,8684,646400,0
470,-1,676484,233278,1257970,70304,7733,628229,0
471,-1,669223,231365,1367370,69213,8763,683093,0
471,-1,669923,231301,1243022,69441,7969,621074,0
472,-1,667264,230891,1261380,69018,7576,630284,0
472,-1,671356,230945,1338871,69300,8070,669498,0
473,-1,668393,231171,1303998,69162,8131,651204,0
473,-1,669918,230450,1358466,69122,7957,678740,0
474,-1,667005,230535,1447894,68809,8093,723454,0
474,-1,671344,231341,1439077,69501,8207,719005,0
475,-1,666217,230817,1381367,69033,7512,690382,0
475,-1,669397,230932,1347533,69333,8542,673252,0
476,-1,665762,230954,1300279,69051,7628,649581,0
476,-1,669569,231045,1314795,69314,8232,656958,0
477,-1,685637,235307,1291575,72289,8184,645415,0
477,-1,690862,235549,1435755,72616,8946,717240,0
478,-1,665321,231244,1353529,69167,8407,676291,0
478,-1,670020,232210,1269282,69903,7287,633876,0
479,-1,666419,230221,1310758,68801,8131,655016,0
479,-1,669994,230817,1446637,69301,8066,722895,0
480,-1,669865,230853,1295080,69010,8992,647001,0
480,-1,670807,230997,1307755,69305,8658,653430,0
481,-1,666546,230483,1394909,68881,8291,697012,0
481,-1,674520,232931,1249118,70233,8028,623726,0
482,-1,673250,232538,1398720,69772,9378,698578,0
482,-1,690992,235729,1391415,72675,8992,695214,0
483,-1,667569,230661,1293196,68950,8127,646190,0
483,-1,670589,231469,1245763,69504,7606,622361,0
484,-1,670010,231713,1302301,69333,7961,650619,0
484,-1,671530,231751,1347906,69586,7718,673481,0
485,-1,667954,230903,1316121,69048,7863,657820,0
485,-1,670851,231959,1282781,69836,7450,640636,0
486,-1,671244,232824,1357481,69932,7731,677541,0
486,-1,669455,231613,1305031,69502,7128,652027,0
487,-1,687826,235621,1366125,72386,8019,682630,0
487,-1,674416,232848,1259903,70174,8103,629113,0
488,-1,666378,231005,1442418,69103,8394,720808,0
488,-1,690353,235702,1331013,72692,9128,665009,0
489,-1,665760,230733,1309317,69027,8260,654215,0
489,-1,668799,231085,1359943,69259,7944,679485,0
490,-1,662844,230095,1354266,68819,8378,676583,0
490,-1,668859,231376,1325718,69402,8063,662448,0
491,-1,672911,232661,1412819,69847,8613,705405,0
491,-1,669757,231690,1379124,69438,8433,689109,0
492,-1,687713,235243,1327102,72293,9489,662746,0
492,-1,672316,233101,1345385,70190,8091,672017,0
493,-1,666681,231096,1301488,69173,7735,650238,0
493,-1,672846,230756,1362560,69127,8963,680856,0
494,-1,669167,231859,1343942,69585,8680,671204,0
494,-1,678446,232962,1281210,70077,8503,639853,0
495,-1,666793,230889,1273005,69090,8673,635821,0
495,-1,674130,231524,1334968,69454,8668,666975,0
496,-1,664342,230092,1354886,68753,8422,677018,0
496,-1,676617,233072,1254431,70192,8703,626398,0
497,-1,667271,231341,1321897,69242,8114,660534,0
497,-1,693767,236146,1474490,72745,9945,736554,0
498,-1,670885,233196,1364769,70123,9120,681392,0
498,-1,673007,232100,1314669,69634,8326,656917,0
499,-1,669978,232182,1311505,69673,8634,654886,0
499,-1,670570,231041,1413356,69271,8302,706252,0
500,-1,664463,230625,1248287,68971,8345,623376,0
500,-1,672750,231728,1423953,69507,8964,711440,0
501,-1,683678,234754,1330672,72137,9221,664817,0
501,-1,676098,232445,1309805,69938,8550,654049,0
502,-1,664806,231254,1363999,69209,8822,681354,0
502,-1,673388,231899,1236062,69541,7834,617560,0
503,-1,663181,230701,1301309,69005,8060,650293,0
503,-1,673168,231739,1338316,69505,8172,668855,0
504,-1,665898,230987,1238620,69128,8023,618854,0
504,-1,699285,237442,1467361,73683,9828,733271,0
505,-1,673756,232166,1388558,69695,9093,693518,0
505,-1,672063,231895,1320281,69555,8426,659494,0
506,-1,667541,230237,1304919,68837,8344,651971,0
506,-1,674591,233149,1321790,70126,8104,659963,0
507,-1,670627,231475,1373445,69289,7648,686293,0
507,-1,670980,232055,1489778,69614,9803,744440,0
508,-1,667618,230641,1284925,68977,7799,642107,0
508,-1,672855,231317,1330880,69412,8214,664913,0
509,-1,690192,235284,1293140,72328,9032,646095,0
509,-1,669355,230887,1303954,69223,8886,651536,0
510,-1,668430,230983,1363688,69142,8303,681231,0
510,-1,672575,232116,1229652,69821,7082,613874,0
511,-1,670077,231962,1372423,69620,9338,685634,0
511,-1,669807,231522,1559029,69535,9711,778509,0
512,-1,667318,230468,1331473,68914,8124,665269,0
512,-1,719969,245360,1461914,75550,10121,730499,0
513,-1,666064,230983,1316959,69088,7332,658094,0
513,-1,672364,232117,1379462,69684,8757,689290,0
514,-1,667118,230726,1262006,69045,8007,630542,0
514,-1,669813,231598,1353620,69530,7983,676449,0
515,-1,664243,230021,1365127,68773,8453,682117,0
515,-1,673507,232964,1291780,70131,8475,645033,0
516,-1,688758,235220,1467138,72252,9045,733147,0
516,-1,668760,230930,1251515,69299,7405,625349,0
517,-1,667068,230684,1313069,68982,8036,656228,0
517,-1,675228,231703,1365171,69556,8841,682131,0
518,-1,666651,230910,1183542,69054,7752,591074,0
518,-1,674677,232657,1240610,69995,7758,619623,0
519,-1,663172,229646,1223745,68698,8400,611347,0
519,-1,672596,231548,1333206,69537,8701,666134,0
520,-1,670554,232762,1274823,70008,8251,636226,0
520,-1,671338,231385,1248513,69453,7858,623777,0
521,-1,685134,235111,1263474,72268,8772,631142,0
521,-1,671772,231499,1358723,69520,8412,678973,0
522,-1,667675,231266,1344817,69207,7993,671548,0
522,-1,668889,231010,1562029,69428,9755,780140,0
523,-1,666282,231005,1328284,69120,8356,663502,0
523,-1,689097,235890,1337401,72859,8972,668179,0
524,-1,662939,230423,1315495,68950,7441,657273,0
524,-1,671167,231809,1216026,69712,7781,607413,0
525,-1,665647,230975,1245333,69075,7894,622069,0
525,-1,671804,232586,1227658,70086,8591,613166,0
526,-1,663078,230508,1368141,68941,8589,683642,0
526,-1,671246,232297,1269097,69901,8252,633983,0
527,-1,666284,231973,1492746,69623,8920,745479,0
527,-1,671446,231830,1246806,69745,7284,622886,0
528,-1,668771,230785,1396333,69061,8116,697722,0
528,-1,669642,231451,1352045,69562,8164,675617,0
529,-1,666168,230219,1266236,68823,7663,632664,0
529,-1,673112,232340,1314478,70074,7394,656043,0
530,-1,671042,232627,1363458,69872,8509,681075,0
530,-1,669447,231394,1456178,69601,8996,727593,0
531,-1,686607,235435,1317833,72370,9054,658385,0
531,-1,671770,232635,1232138,69927,7332,615692,0
532,-1,669122,231650,1367340,69322,8627,683077,0
532,-1,669384,231487,1418478,69563,10134,707720,0
533,-1,666734,230862,1328043,69002,8260,663420,0
533,-1,671695,233282,1329442,70472,9335,663546,0
534,-1,668869,232002,1386507,69528,8285,692396,0
534,-1,668663,231094,1353846,69453,8037,676336,0
535,-1,665247,231092,1399386,69054,8300,699222,0
535,-1,671771,232760,1248009,70208,7715,623153,0
536,-1,663382,230309,1313882,68831,7779,656635,0
536,-1,668357,231662,1453804,69657,9052,726554,0
537,-1,661722,230295,1258284,68814,7852,628751,0
537,-1,668058,231818,1383909,69670,8340,691356,0
538,-1,668543,233111,1335560,70024,9019,667025,0
538,-1,686526,235019,1444098,72501,9786,721696,0
539,-1,686875,235656,1253604,72429,9719,626151,0
539,-1,674395,231702,1354612,69684,8643,676894,0
540,-1,667131,231408,1235954,69253,8559,617617,0
540,-1,674140,231505,1336968,69647,9556,667976,0
541,-1,668696,232195,1292273,69612,8580,645495,0
541,-1,671698,230655,1283039,69268,8716,641042,0
542,-1,663771,230709,1204697,69035,7766,601738,0
542,-1,674106,231820,1437231,69725,9827,718101,0
543,-1,667369,231468,1325027,69274,7724,661958,0
543,-1,694617,236021,1469902,72881,10428,734467,0
544,-1,662229,230940,1321254,69064,7814,659898,0
544,-1,670577,230848,1316209,69359,8269,657657,0
545,-1,665218,231256,1289294,69208,8268,643981,0
545,-1,671964,231423,1313866,69548,9068,656449,0
546,-1,668823,233115,1357957,70049,8382,677980,0
546,-1,694600,236666,1584659,73099,10805,791707,0
547,-1,684862,235467,1294194,72370,8452,646362,0
547,-1,673038,232292,1296982,70032,8874,647479,0
548,-1,662417,230669,1416355,69028,8562,707763,0
548,-1,669988,231630,1364260,69660,9400,681651,0
549,-1,672127,230544,1324614,68920,8572,661984,0
549,-1,669875,231478,1352954,69558,8994,676033,0
550,-1,667777,230431,1345069,68955,8707,671900,0
550,-1,671152,230633,1430440,69242,9317,714720,0
551,-1,669113,230454,1334025,68923,8713,666492,0
551,-1,674140,232657,1311967,70171,9193,655293,0
552,-1,671547,231425,1301544,69227,8720,650045,0
552,-1,669287,230644,1391980,69305,8645,695700,0
553,-1,668565,230762,1324064,69043,8548,661474,0
553,-1,673704,232970,1257371,70327,8263,627624,0
554,-1,671563,232117,1359755,69449,8622,679315,0
554,-1,692526,236378,1417124,73030,10390,708051,0
555,-1,669185,231066,1222940,69096,8447,611103,0
555,-1,673287,231619,1353949,69607,8573,676556,0
556,-1,675764,232814,1367848,69901,9125,682826,0
556,-1,672978,232004,1376845,69773,8578,687838,0
557,-1,670726,231167,1307050,69097,8057,652992,0
557,-1,671639,231281,1441138,69493,9959,720323,0
558,-1,667771,230743,1257194,68968,8393,627878,0
558,-1,690585,236071,1488096,72897,10919,743504,0
559,-1,671579,232544,1299103,69756,8581,648707,0
559,-1,670880,231773,1316109,69704,9678,657395,0
560,-1,669046,230921,1228921,69101,7550,613891,0
560,-1,668797,231297,1396670,69472,9877,697908,0
561,-1,667873,230671,1306214,68976,7895,652480,0
561,-1,667675,231222,1421804,69539,10063,710055,0
562,-1,670839,232511,1332937,69809,8279,665733,0
562,-1,675140,232735,1422121,70195,10097,709833,0
563,-1,667910,230924,1359937,69111,8886,679346,0
563,-1,674278,231699,1369742,69684,9709,684229,0
564,-1,672317,231464,1343795,69237,8788,671440,0
564,-1,672839,231157,1332483,69467,9029,665206,0
565,-1,669946,230969,1226444,69102,7980,612712,0
565,-1,674256,232042,1305879,69792,8636,652210,0
566,-1,670991,231733,1329811,69539,8701,663802,0
566,-1,691052,235529,1383315,72746,9819,691051,0
567,-1,668725,230671,1240597,69032,8167,619805,0
567,-1,673258,232019,1392925,69751,8670,696115,0
568,-1,666455,230200,1334784,68791,8451,666766,0
568,-1,674429,232555,1267984,70111,8177,633277,0
569,-1,669155,230610,1340141,68945,8286,669655,0
569,-1,670221,231507,1341056,69566,8387,669934,0
570,-1,688049,235342,1382480,72339,9675,690736,0
570,-1,670124,231499,1246257,69631,8112,622636,0
571,-1,665567,230413,1331822,68851,8388,665466,0
571,-1,674138,232159,1420177,69844,8997,709504,0
572,-1,665651,230815,1226765,69081,7767,612652,0
572,-1,673150,231672,1446582,69660,9244,722895,0
573,-1,670408,231910,1351305,69597,8755,674758,0
573,-1,691669,235807,1459379,72822,10318,729148,0
574,-1,668555,231026,1266033,69137,7219,632349,0
574,-1,669825,231320,1350744,69465,8873,674957,0
575,-1,666597,230375,1374851,68884,7784,686870,0
575,-1,671013,231836,1312949,69727,9000,656014,0
576,-1,668014,231263,1341485,69225,8092,670171,0
576,-1,673753,232648,1290828,70155,8857,644785,0
577,-1,685637,235170,1398743,72271,8599,698945,0
577,-1,669659,231373,1364139,69651,9132,681588,0
578,-1,668885,231374,1447118,69260,8462,723114,0
578,-1,667095,230677,1342063,69327,8607,670601,0
579,-1,670231,232269,1335996,69695,8492,667444,0
579,-1,694038,235701,1472132,72869,9871,735515,0
580,-1,665063,230829,1238354,69016,8176,618626,0
580,-1,671091,231123,1346565,69558,7770,672658,0
581,-1,664948,231180,1352868,69148,8798,675999,0
581,-1,671455,231583,1404466,69692,8304,701665,0
582,-1,670756,231306,1346536,69241,8545,672791,0
582,-1,671283,231369,1318697,69625,8327,658799,0
583,-1,670821,231174,1250559,69167,8076,624718,0
583,-1,672858,232361,1245071,70131,7965,621521,0
584,-1,674147,232881,1372607,69951,8808,685643,0
584,-1,667342,230523,1341342,69337,8683,670056,0
585,-1,691310,235839,1323481,72489,8848,661038,0
585,-1,669124,230797,1279671,69434,8396,639206,0
586,-1,664672,229681,1407837,68623,7823,703352,0
586,-1,668703,230808,1363749,69473,8240,681587,0
587,-1,667894,230875,1299303,69091,7841,649042,0
587,-1,671450,231357,1382322,69677,8504,690497,0
588,-1,673188,232560,1383913,69792,8291,691381,0
588,-1,668857,231434,1260082,69694,8789,629626,0
589,-1,669308,231392,1263024,69273,7939,630949,0
589,-1,672968,232758,1246497,70368,8766,622369,0
590,-1,667896,231171,1340072,69139,8287,669784,0
590,-1,669246,231844,1222628,69826,7779,610678,0
591,-1,665790,230417,1209212,68871,8017,604144,0
591,-1,669031,231058,1394656,69630,8662,696878,0
592,-1,665045,229957,1327807,68811,7732,663322,0
592,-1,673585,231229,1355633,69679,8897,677292,0
593,-1,666730,230665,1306797,69006,7966,652872,0
593,-1,671838,230820,1346363,69514,9099,672648,0
594,-1,669955,232152,1382621,69659,8118,690298,0
594,-1,693852,236081,1432344,73073,9600,715735,0
595,-1,665581,230823,1333966,68996,7888,666187,0
595,-1,674787,231497,1360958,69725,8429,680162,0
596,-1,667826,231190,1351461,69158,8082,675292,0
596,-1,672712,231404,1377514,69730,8543,688139,0
597,-1,666484,230916,1315298,69101,7427,657076,0
597,-1,672322,231552,1394745,69779,8591,696873,0
598,-1,666269,230759,1243000,68980,7866,621060,0
598,-1,669790,231129,1428467,69603,9026,713729,0
599,-1,669272,232433,1344496,69808,8436,670996,0
599,-1,693031,235777,1387782,72974,9267,693367,0
600,-1,664572,231017,1344068,69041,7735,671532,0
600,-1,670071,230901,1360865,69542,8166,680054,0
601,-1,663575,230474,1306767,68851,7790,652872,0
601,-1,672081,231878,1333247,69809,8619,666048,0
602,-1,669708,231036,1298997,69095,8148,649071,0
602,-1,670935,231612,1225722,69600,7806,612472,0
603,-1,671478,232197,1356682,69638,8612,677615,0
603,-1,670010,231118,1382488,69473,8503,690770,0
604,-1,665804,230863,1345369,69041,8154,672314,0
604,-1,689294,235882,1422482,72798,11033,710859,0
605,-1,667014,231837,1352411,69555,8501,675366,0
605,-1,671080,230894,1346124,69413,8706,672652,0
606,-1,664768,230637,1265898,68930,8313,632476,0
606,-1,671117,231205,1341251,69552,8651,669895,0
607,-1,666637,230588,1353140,68950,9168,676198,0
607,-1,669982,231231,1284920,69514,8230,641885,0
608,-1,665552,230796,1387223,69028,7855,693142,0
608,-1,674483,233181,1249086,70433,8824,623630,0
609,-1,685333,235284,1291809,72330,9140,645262,0
609,-1,672558,232324,1359276,69857,8950,679044,0
610,-1,664069,229940,1351151,68777,8483,675027,0
610,-1,666472,230524,1350161,69265,8385,674649,0
611,-1,666443,231354,1223086,69273,7931,610845,0
611,-1,668893,231231,1325119,69456,8630,662164,0
612,-1,666874,232014,1378897,69610,8826,688567,0
612,-1,691155,236276,1459658,72916,9908,729408,0
613,-1,665057,231094,1269084,69143,8594,634276,0
613,-1,668393,231366,1347012,69595,7775,673090,0
614,-1,665456,231858,1314757,69423,8274,656740,0
614,-1,668904,231907,1466220,69746,8952,732533,0
615,-1,665617,230114,1236634,68753,8112,617861,0
615,-1,666967,231451,1418972,69627,9273,708938,0
616,-1,668887,230881,1410700,69083,9558,704273,0
616,-1,669492,230400,1326192,69325,8052,662664,0
617,-1,668958,231041,1406436,69080,9458,703125,0
617,-1,673040,232352,1370774,70134,8258,684230,0
618,-1,671568,232821,1433154,69933,9178,715825,0
618,-1,669249,231196,1270818,69561,8157,634797,0
619,-1,667641,230556,1426824,68940,9474,712367,0
619,-1,667679,230971,1351323,69416,8996,675302,0
620,-1,667190,230805,1382742,69064,8361,690014,0
620,-1,673169,233152,1280455,70377,8755,639628,0
621,-1,665781,230608,1283319,68997,8742,641457,0
621,-1,689775,235284,1404954,72575,10004,701828,0
622,-1,666691,230989,1451280,69066,8862,725159,0
622,-1,670428,231635,1385431,69648,9041,692234,0
623,-1,667072,230816,1332463,69037,9069,665637,0
623,-1,669036,231693,1301943,69870,9143,650254,0
624,-1,668515,231003,1333619,69140,7991,665793,0
624,-1,665784,230782,1243305,69303,8490,621165,0
625,-1,668314,231183,1365072,69142,9154,682211,0
625,-1,667230,230640,1255325,69423,9036,627114,0
626,-1,670703,232790,1393145,70005,8975,695476,0
626,-1,666402,229928,1222491,69115,8396,610579,0
627,-1,685739,234684,1305021,72074,9122,652083,0
627,-1,666502,230478,1245531,69334,9233,622435,0
628,-1,668915,232199,1344181,69655,8700,671263,0
628,-1,665266,230050,1187168,69177,8379,593038,0
629,-1,661311,229649,1265987,68693,8219,632229,0
629,-1,664236,230081,1289266,69104,9390,644151,0
630,-1,663800,230512,1244393,68969,8002,621702,0
630,-1,664308,230572,1264228,69158,9092,631352,0
631,-1,665399,230820,1224639,69012,7981,611564,0
631,-1,665798,231691,1196096,69699,8426,597125,0
632,-1,665577,231364,1216672,69237,7756,607697,0
632,-1,666817,230754,1266110,69233,9132,632586,0
633,-1,663687,230675,1267233,68975,8439,633246,0
633,-1,663857,229778,1173112,68801,7985,586128,0
634,-1,667510,230709,1350519,69036,8609,674768,0
634,-1,685634,235354,1341865,72515,10149,670438,0
635,-1,668563,231422,1355293,69216,8440,677216,0
635,-1,662904,230263,1328192,69083,8573,663210,0
636,-1,669261,231976,1375466,69592,9015,687233,0
636,-1,664403,230493,1329047,69031,8156,664233,0
637,-1,666273,230980,1260724,69109,7910,629722,0
637,-1,663797,230499,1351613,69161,9040,675304,0
638,-1,671595,233199,1439382,70052,8965,719027,0
638,-1,662727,230348,1329688,69132,8659,664321,0
639,-1,665556,231352,1466024,69232,8917,731918,0
639,-1,663546,230926,1269283,69265,8704,634190,0
640,-1,665837,230644,1331708,68971,8853,665435,0
640,-1,675344,231257,1272281,69612,8722,635526,0
641,-1,665832,230649,1251599,68965,8186,625120,0
641,-1,692912,234790,1413536,72389,9803,706231,0
642,-1,665741,230914,1243621,69092,8080,621357,0
642,-1,670555,230228,1438883,69094,9121,719073,0
643,-1,665080,230649,1376867,68996,8656,687935,0
643,-1,675579,231693,1284675,69725,9519,641354,0
644,-1,665227,231199,1314531,69203,8273,656592,0
644,-1,671270,229987,1275177,69138,9054,636870,0
645,-1,661861,230015,1234348,68777,8139,616948,0
645,-1,671689,230836,1404351,69351,9382,701727,0
646,-1,670373,232747,1359805,69870,8402,679145,0
646,-1,670581,230844,1244440,69337,8481,621767,0
647,-1,662692,230100,1389863,68784,8084,694471,0
647,-1,671210,230432,1347779,69228,9303,673131,0
648,-1,664353,231283,1361179,69215,8186,679725,0
648,-1,690305,234820,1393919,72446,9870,696519,0
649,-1,665190,230459,1243876,68955,8359,621431,0
649,-1,668298,230155,1368875,69106,9189,684068,0
650,-1,666220,230657,1343094,68910,7679,671002,0
650,-1,674964,231381,1269937,69709,8354,634284,0
651,-1,664628,230433,1321743,68955,7967,660390,0
651,-1,671542,230587,1272505,69290,8482,635830,0
652,-1,664791,230533,1365653,68930,7759,682454,0
652,-1,673169,231047,1339111,69459,9130,668959,0
653,-1,698540,242831,1402939,73007,8540,700175,0
653,-1,669282,229911,1270563,69071,8897,634717,0
654,-1,686165,235525,1310281,72403,8830,654448,0
654,-1,693527,235068,1304524,72562,9842,651658,0
655,-1,664838,230853,1384209,69094,9260,691264,0
655,-1,670269,230615,1263245,69317,8799,630837,0
656,-1,663902,230695,1307919,68967,8487,653093,0
656,-1,671458,231462,1227420,69740,8585,613036,0
657,-1,664890,230982,1246477,69068,8685,622775,0
657,-1,670618,230602,1210751,69243,8480,604787,0
658,-1,667353,231278,1216224,69163,8079,607398,0
658,-1,669320,230041,1270325,69120,8488,634451,0
659,-1,685187,235646,1246636,72423,8537,622820,0
659,-1,674059,232233,1352463,70059,8902,675267,0
660,-1,665394,231218,1285769,69186,8831,642524,0
660,-1,667019,230046,1333808,69071,8505,666494,0
661,-1,663721,230882,1257792,69042,8523,628342,0
661,-1,675820,231951,1271968,70022,9039,634650,0
662,-1,662837,231102,1238700,69154,8089,618874,0
662,-1,668328,229660,1356413,69026,9194,677388,0
663,-1,663978,231125,1273949,69182,8075,636433,0
663,-1,671609,230407,1270642,69275,8642,634913,0
664,-1,661765,230295,1417112,68806,8754,708136,0
664,-1,669114,230268,1355418,69129,9171,677289,0
665,-1,664274,231422,1399520,69290,8653,699069,0
665,-1,690890,235437,1429100,72692,9678,714020,0
666,-1,667357,233125,1358848,70042,8862,678426,0
666,-1,670797,230601,1409321,69323,8676,704048,0
667,-1,683844,235511,1310738,72373,8627,654822,0
667,-1,667820,229933,1253480,69082,8307,626179,0
668,-1,671075,230950,1344191,69107,8875,671457,0
668,-1,689181,234728,1416890,72471,10004,707852,0
669,-1,671873,231715,1392294,69519,8866,695366,0
669,-1,666641,230255,1286884,69191,9273,642748,0
670,-1,670374,231410,1371315,69241,8023,685187,0
670,-1,670792,231686,1210552,69826,8893,605224,0
671,-1,671299,231869,1340255,69580,8589,669359,0
671,-1,669850,230149,1316636,69136,9263,657850,0
672,-1,667570,230771,1260870,69001,8073,629828,0
672,-1,673733,232413,1197224,70185,8135,597763,0
673,-1,667623,230909,1375288,69066,8942,687278,0
673,-1,687022,234265,1276956,72323,9136,638000,0
674,-1,666783,230980,1259437,69030,8000,629365,0
674,-1,668836,230118,1220378,69149,8109,609903,0
675,-1,664963,230699,1317483,68929,8118,658304,0
675,-1,668942,230408,1307159,69215,7477,653149,0
676,-1,666750,231219,1229103,69211,7491,613993,0
676,-1,668135,230428,1303792,69245,7956,651499,0
677,-1,667083,231749,1330841,69525,8339,664759,0
677,-1,667389,230440,1378182,69265,8157,688606,0
678,-1,664614,230970,1223688,69104,8002,611530,0
678,-1,668557,230805,1481694,69392,10161,740382,0
679,-1,666699,230614,1363534,68941,9087,681291,0
679,-1,664384,229752,1225958,69054,7787,612529,0
680,-1,667392,230611,1388531,68885,8544,693717,0
680,-1,666400,230466,1476626,69258,9450,737860,0
681,-1,667075,231126,1300641,69158,8806,649761,0
681,-1,671302,230132,1236087,69189,7844,617551,0
682,-1,666885,231289,1262973,69144,8177,630906,0
682,-1,673855,231538,1243176,69813,8179,620595,0
683,-1,669543,232098,1281527,69644,8744,640117,0
683,-1,670092,230368,1334291,69273,7807,666691,0
684,-1,667530,231924,1244508,69423,7879,621628,0
684,-1,669087,230185,1221726,69116,7265,610435,0
685,-1,687403,235316,1267975,72316,9562,633452,0
685,-1,668560,229683,1368594,68899,8796,683877,0
686,-1,665475,230784,1306462,69003,8421,652593,0
686,-1,670344,230652,1304900,69254,7386,651960,0
687,-1,667061,231301,1359927,69184,8376,679637,0
687,-1,667865,230239,1221715,69223,7821,610388,0
688,-1,664313,230781,1350150,69058,8931,674289,0
688,-1,666907,229974,1395232,69089,8311,697161,0
689,-1,667819,232307,1327474,69786,8801,662984,0
689,-1,669693,231447,1256547,69806,7871,627570,0
690,-1,684739,235584,1300174,72389,9656,649689,0
690,-1,667548,229719,1399960,69013,8357,699572,0
691,-1,667575,230640,1266001,69008,8353,632337,0
691,-1,670803,231469,1225691,69609,7742,612140,0
692,-1,667826,230899,1309017,69114,8554,653851,0
692,-1,667478,230330,1207251,69120,7379,603185,0
693,-1,667577,231044,1214239,69133,7724,606588,0
693,-1,667031,230548,1311726,69283,7880,655403,0
694,-1,687313,235382,1317486,72395,8160,658237,0
694,-1,673320,231948,1240001,69819,8292,619274,0
695,-1,665771,230968,1324363,69058,7696,661692,0
695,-1,666773,229694,1282204,68863,8014,640665,0
696,-1,663765,230544,1239393,69056,7279,619073,0
696,-1,673544,232341,1334535,70187,10190,665873,0
697,-1,667701,230806,1236151,69155,8061,617606,0
697,-1,666959,230082,1184390,69175,7691,591760,0
698,-1,664612,230464,1339653,69040,7619,669368,0
698,-1,666485,230496,1218327,69307,7678,608676,0
699,-1,665241,230842,1359729,69128,7667,679441,0
699,-1,671139,231504,1177477,69795,8106,588154,0
700,-1,665025,230965,1272787,69190,8616,635816,0
700,-1,667388,229957,1183955,69091,7797,591484,0
701,-1,667163,230692,1264650,69070,7399,631882,0
701,-1,687233,234852,1480797,72515,9030,739968,0
702,-1,671625,232848,1281942,70108,8487,640045,0
702,-1,668537,230560,1500133,69357,9672,749589,0
703,-1,666482,230910,1256889,69210,7281,627758,0
703,-1,668789,231125,1223811,69693,7842,611206,0
704,-1,665973,231129,1242371,69251,8055,620676,0
704,-1,663955,229869,1298661,69055,8278,648821,0
705,-1,665193,230795,1218850,69174,7727,608853,0
705,-1,664988,230433,1287513,69245,8688,643342,0
706,-1,663157,230641,1229936,69071,7262,614532,0
706,-1,668785,230365,1437824,69217,8552,718510,0
707,-1,665947,232086,1324425,69838,8133,661288,0
707,-1,671829,231971,1230382,70087,7605,614343,0
708,-1,686258,235597,1295535,72510,8880,647221,0
708,-1,667055,230660,1439506,69373,8396,719354,0
709,-1,662530,229923,1366079,68841,7533,682646,0
709,-1,665998,230200,1330610,69223,7705,664824,0
710,-1,664456,230960,1269975,69251,7432,634333,0
710,-1,663393,229544,1237122,68922,7381,618145,0
711,-1,665541,231545,1336337,69521,7759,667249,0
711,-1,666905,230691,1270182,69390,7581,634626,0
712,-1,662083,230497,1316878,69035,7929,658131,0
712,-1,689747,234947,1364957,72519,9255,682161,0
713,-1,659105,230121,1337499,68919,8287,668364,0
713,-1,666834,230491,1317104,69305,7894,658105,0
714,-1,668142,230951,1323249,69216,7941,660984,0
714,-1,668743,231644,1311102,69862,8081,654778,0
715,-1,666091,230470,1318639,69060,7637,658790,0
715,-1,667058,230869,1261869,69442,8102,630484,0
716,-1,666997,230971,1367979,69234,7825,683420,0
716,-1,664000,230443,1254976,69243,8284,627467,0
717,-1,664981,230343,1310276,69001,7977,654643,0
717,-1,674912,231618,1251343,69828,8047,625010,0
718,-1,666644,230967,1248160,69161,7611,623514,0
718,-1,674585,231806,1185613,69930,7875,591895,0
719,-1,667705,231169,1412106,69290,7692,705513,0
719,-1,690899,234693,1264088,72453,8843,631605,0
720,-1,663577,230490,1224070,69107,7336,611417,0
720,-1,669023,230176,1192657,69133,7645,595893,0
721,-1,667455,231752,1242587,69643,8289,620631,0
721,-1,668864,230333,1238543,69185,7908,618847,0
722,-1,663244,230859,1241297,69203,7332,620059,0
722,-1,667600,229735,1409748,69021,8357,704471,0
723,-1,662895,230735,1273716,69096,7535,636339,0
723,-1,670908,231663,1232239,69844,7904,615333,0
724,-1,672629,232764,1395918,70094,7928,697028,0
724,-1,666217,230327,1251405,69256,7773,625291,0
725,-1,664127,230544,1220568,69047,7155,609736,0
725,-1,675160,232379,1273871,70254,7971,635952,0
726,-1,666994,231200,1236290,69317,7480,617590,0
726,-1,668672,230211,1548358,69247,9950,773304,0
727,-1,663725,230154,1341040,68916,7616,670098,0
727,-1,669968,230663,1248439,69319,7278,623807,0
728,-1,665079,231079,1314486,69266,7304,656676,0
728,-1,669937,231245,1237479,69666,7646,617908,0
729,-1,661283,229666,1217415,68760,6895,608170,0
729,-1,668417,229959,1330668,69139,7617,664724,0
730,-1,683320,235029,1358451,72354,8513,678765,0
730,-1,664929,228983,1335272,68829,7298,667199,0
731,-1,663282,230609,1423359,69127,7794,711199,0
731,-1,669707,230669,1286277,69360,7925,642709,0
732,-1,683107,235272,1284792,72416,8401,641968,0
732,-1,668721,230280,1313255,69189,7670,656264,0
733,-1,667775,231760,1355567,69642,8783,677145,0
733,-1,668876,230695,1517419,69396,9081,758219,0
734,-1,666473,230553,1355592,69078,8175,677039,0
734,-1,670795,231414,1238302,69768,7837,618323,0
735,-1,667394,231197,1311400,69319,8026,655265,0
735,-1,666806,230270,1262636,69193,8028,630925,0
736,-1,665208,230332,1237782,69017,8297,618339,0
736,-1,692552,239399,1364785,71921,8393,681833,0
737,-1,684049,234880,1280667,72303,8781,639713,0
737,-1,673200,231047,1235091,69559,8322,616916,0
738,-1,664362,230098,1304070,68942,7757,651556,0
738,-1,670527,230960,1274732,69366,8572,636952,0
739,-1,668595,232125,1297074,69782,8629,647774,0
739,-1,687784,234179,1373295,72207,9465,686094,0
740,-1,663285,230710,1227398,69067,8081,613043,0
740,-1,668650,230379,1325327,69238,8366,662194,0
741,-1,660248,229852,1268369,68847,8296,633764,0
741,-1,668201,230557,1319825,69280,8577,659356,0
742,-1,665702,230966,1227932,69242,7971,613459,0
742,-1,669967,231352,1253425,69744,8258,626008,0
743,-1,668634,232406,1251243,69953,8279,624676,0
743,-1,667552,230690,1367535,69301,8230,683177,0
744,-1,684746,235039,1228363,72363,8986,613683,0
744,-1,669119,230273,1393803,69156,9119,696446,0
745,-1,662343,230420,1254805,69037,7990,626865,0
745,-1,668532,230419,1339617,69239,8538,669466,0
746,-1,662516,230520,1335511,68978,7827,667311,0
746,-1,663950,229645,1217353,69009,7568,608280,0
747,-1,662836,230660,1278502,69129,7980,638670,0
747,-1,666950,230167,1315137,69146,8368,657088,0
748,-1,660786,230113,1351378,68913,8426,675265,0
748,-1,669995,231468,1253836,69793,7694,626269,0
749,-1,664857,230931,1308376,69171,8053,653727,0
749,-1,667007,230918,1453402,69388,9078,726255,0
750,-1,666058,231311,1208048,69350,7955,603590,0
750,-1,672033,232655,1452515,70301,9988,726246,0
751,-1,667208,232053,1362948,69751,8296,680753,0
751,-1,688952,234443,1378228,72367,8726,688595,0
752,-1,665472,231460,1365898,69371,7780,682372,0
752,-1,668811,230567,1295473,69315,7591,647339,0
753,-1,683149,235271,1301616,72402,8765,650387,0
753,-1,665678,229657,1227105,68947,7291,613099,0
754,-1,661266,229975,1320967,68845,7484,660117,0
754,-1,669665,231092,1304837,69445,7852,651968,0
755,-1,681929,234927,1384684,72313,8431,691805,0
755,-1,669671,231490,1258816,69758,7700,628893,0
756,-1,661687,231358,1208634,69330,7159,603692,0
756,-1,666383,230567,1324585,69292,7564,661926,0
757,-1,662075,231617,1339627,69602,7469,669069,0
757,-1,670431,232030,1236387,70051,8262,617461,0
758,-1,672556,230233,1317578,68947,7592,658393,0
758,-1,686350,234930,1422070,72529,9111,710629,0
759,-1,676495,232392,1247618,69944,8409,622956,0
759,-1,664285,230229,1381322,69212,8273,690125,0
760,-1,671354,230814,1273163,69163,7816,636111,0
760,-1,666216,230136,1303123,69149,8019,651136,0
761,-1,672535,231569,1334605,69597,8798,666517,0
761,-1,669239,231381,1231334,69782,7619,614987,0
762,-1,669196,230661,1314762,69130,8167,656915,0
762,-1,666038,230385,1327254,69274,8183,663209,0
763,-1,691329,234873,1270089,72285,8961,634620,0
763,-1,664436,230209,1219664,69208,7553,609385,0
764,-1,670407,230743,1320985,69128,8470,659916,0
764,-1,669852,231816,1164452,69911,8267,581354,0
765,-1,669279,230311,1390997,68969,8885,694035,0
765,-1,664763,230025,1203148,69124,8538,601114,0
766,-1,673265,232139,1338407,69597,8118,668763,0
766,-1,671201,230884,1233022,69427,8041,615966,0
767,-1,670581,231333,1422658,69443,8842,710336,0
767,-1,672535,231329,1260589,69610,8209,629780,0
768,-1,670950,230680,1332240,69132,8460,665632,0
768,-1,670922,231326,1233682,69823,7731,616095,0
769,-1,688289,235146,1266855,72390,8983,632927,0
769,-1,664610,228920,1298946,68829,7800,648997,0
770,-1,669085,229836,1309924,68804,7972,654558,0
770,-1,669222,230385,1229690,69164,7379,614392,0
771,-1,670943,230859,1243499,69195,8124,621238,0
771,-1,668493,230412,1335257,69290,8279,667144,0
772,-1,674293,232101,1335248,69753,8723,666928,0
772,-1,669752,231255,1317700,69725,8037,658074,0
773,-1,669652,230682,1222962,69143,8082,610931,0
773,-1,667938,230322,1496254,69275,9746,748198,0
774,-1,668421,230186,1346905,68927,8265,673034,0
774,-1,671510,231664,1222769,69868,7289,610639,0
775,-1,668828,230240,1229553,69000,8501,614128,0
775,-1,688358,234822,1401922,72510,9178,700524,0
776,-1,667524,229931,1322901,68925,8703,660947,0
776,-1,668994,230697,1296102,69373,7378,647579,0
777,-1,669972,231227,1223356,69257,8205,611157,0
777,-1,666117,230078,1416794,69075,8417,707925,0
778,-1,686396,234134,1243177,72014,9109,621030,0
778,-1,664994,229653,1366744,68966,8474,682897,0
779,-1,667259,230277,1238708,69008,8677,618913,0
779,-1,664491,229887,1391513,69020,8275,695295,0
780,-1,668121,230600,1229168,69063,8164,614123,0
780,-1,669182,230133,1307384,69200,8427,653296,0
781,-1,670482,231913,1270170,69726,8452,634232,0
781,-1,671066,231435,1209852,69791,7801,604137,0
782,-1,666452,230586,1173421,69128,8699,586110,0
782,-1,665162,230037,1325168,69106,8324,662156,0
783,-1,672287,230617,1339172,69087,8106,669035,0
783,-1,669746,231245,1271700,69542,9352,635301,0
784,-1,669638,230964,1345415,69180,7794,672287,0
784,-1,687931,235130,1448287,72577,9988,723466,0
785,-1,668117,229901,1181993,68833,7570,590453,0
785,-1,665474,230470,1334059,69305,8219,666582,0
786,-1,672552,231778,1315746,69674,7903,657136,0
786,-1,663556,229675,1261568,69020,8800,630360,0
787,-1,669174,230746,1247360,69131,7908,623168,0
787,-1,670133,231424,1313591,69755,8792,656192,0
788,-1,668616,230479,1349393,69048,7832,674135,0
788,-1,665921,230191,1367312,69145,8602,683143,0
789,-1,666916,230288,1210024,68980,7137,604512,0
789,-1,666476,230518,1259021,69299,8677,628864,0
790,-1,672944,232476,1327663,69955,7997,662998,0
790,-1,687524,234874,1519956,72510,10486,759460,0
791,-1,688304,234163,1265056,72013,8496,632009,0
791,-1,664307,230417,1299711,69200,8622,649442,0
792,-1,668818,230528,1370606,69088,8475,684693,0
792,-1,665734,229889,1363960,69033,9104,681535,0
793,-1,668332,230422,1324499,69064,8231,661704,0
793,-1,669215,230461,1229108,69314,8585,614090,0
794,-1,670574,231613,1344946,69612,7931,671675,0
794,-1,667038,229851,1413878,68986,8838,706493,0
795,-1,666959,229748,1327363,68750,7760,663354,0
795,-1,687525,234593,1466064,72429,10285,732569,0
796,-1,668619,230950,1325752,69218,7596,662327,0
796,-1,666239,230204,1366653,69209,8605,682767,0
797,-1,687007,234971,1310498,72334,8516,654769,0
797,-1,664582,229767,1343509,69045,8087,671209,0
798,-1,670703,231008,1295870,69170,7535,647334,0
798,-1,672949,232589,1286586,70222,8967,642605,0
799,-1,670946,231350,1291361,69340,8048,645197,0
799,-1,664258,229719,1252458,69002,8541,625747,0
800,-1,669614,231300,1313721,69331,8189,656311,0
800,-1,667871,231513,1326248,69780,8246,662204,0
801,-1,688183,234909,1332932,72295,9113,665966,0
801,-1,664708,230311,1449437,69223,8724,724217,0
802,-1,694455,239704,1362280,71766,8460,680742,0
802,-1,663720,230027,1224595,69140,8166,611531,0
803,-1,665273,230213,1236864,68978,7562,617982,0
803,-1,664979,230682,1389289,69234,8424,694456,0
804,-1,666303,229867,1236456,68895,7712,617439,0
804,-1,669831,232589,1260786,70258,7547,629363,0
805,-1,666986,230091,1301883,68895,7986,650378,0
805,-1,684733,235048,1398919,72595,9176,698966,0
806,-1,667115,230469,1313195,69097,8740,655926,0
806,-1,669217,231231,1367415,69546,9416,683225,0
807,-1,665449,229878,1182560,68858,7745,590808,0
807,-1,666205,230305,1337277,69228,9379,668490,0
808,-1,686050,234833,1268612,72273,9003,633653,0
808,-1,662979,229707,1237352,69049,8982,618305,0
809,-1,666007,230222,1239287,68958,7943,619113,0
809,-1,662392,229660,1233508,68941,8705,616197,0
810,-1,665725,230536,1244993,69044,7630,621909,0
810,-1,663567,230105,1191954,69085,8442,595453,0
811,-1,665158,230234,1229775,69021,8010,614321,0
811,-1,664192,230791,1255800,69359,8515,627427,0
812,-1,664215,230276,1292917,68964,8158,645979,0
812,-1,666944,230501,1269469,69259,10093,634120,0
813,-1,676600,232773,1404112,69976,8633,701239,0
813,-1,668083,232063,1350634,70047,8955,674041,0
814,-1,668825,230241,1313497,68911,7727,656365,0
814,-1,664950,230623,1238484,69279,9110,618830,0
815,-1,672867,231805,1406679,69608,8024,702661,0
815,-1,660994,229885,1345154,69119,9350,672054,0
816,-1,669813,231076,1317917,69235,7479,658403,0
816,-1,674128,230958,1343154,69397,8675,671145,0
817,-1,668833,230817,1214651,69078,7222,606765,0
817,-1,676035,232151,1246979,70073,8693,622753,0
818,-1,671044,232019,1414481,69760,7589,706509,0
818,-1,690454,234482,1429174,72362,9774,714197,0
819,-1,670246,230547,1455378,69061,8118,727078,0
819,-1,670330,230052,1410926,69179,8785,704927,0
820,-1,667050,229752,1327375,68704,8031,663167,0
820,-1,674543,231446,1279837,69767,9128,638877,0
821,-1,673191,232051,1342138,69715,8737,670259,0
821,-1,666141,228798,1362191,68784,9223,680628,0
822,-1,667480,230514,1217618,69023,8076,608256,0
822,-1,668526,230047,1343199,69112,9136,671039,0
823,-1,668722,230830,1348812,68999,7650,673904,0
823,-1,672749,232324,1286114,70137,9005,642179,0
824,-1,689861,235797,1278920,72429,8495,638856,0
824,-1,669420,230120,1365027,69132,8729,681741,0
825,-1,665274,230254,1389463,68820,7730,694387,0
825,-1,669806,230566,1400869,69262,8651,699912,0
826,-1,669389,231428,1297568,69222,7948,648232,0
826,-1,666341,229812,1308559,69037,8179,653698,0
827,-1,673044,231752,1337530,69516,8847,668113,0
827,-1,669967,230551,1273658,69316,8077,635934,0
828,-1,668771,230440,1231133,68860,7714,614890,0
828,-1,667768,229999,1407903,69095,8715,703639,0
829,-1,666699,229965,1304859,68737,7975,652045,0
829,-1,688713,234636,1376198,72387,9484,687552,0
830,-1,665612,230177,1243248,68732,7918,621125,0
830,-1,666353,230161,1358353,69194,7936,678546,0
831,-1,669434,231697,1286041,69505,8632,642366,0
831,-1,669566,230306,1426476,69231,9525,712594,0
832,-1,666174,230808,1223242,69043,7809,611075,0
832,-1,688686,234319,1334686,72341,10116,666652,0
833,-1,667533,230526,1258494,68883,8476,628653,0
833,-1,669003,230588,1252161,69327,8586,625691,0
834,-1,668095,230775,1229594,68885,7554,614297,0
834,-1,667511,230313,1214422,69196,8555,606818,0
835,-1,687234,235005,1267931,72165,8933,633532,0
835,-1,666863,229931,1315848,69059,9117,657348,0
836,-1,665069,230450,1318989,68868,7884,659051,0
836,-1,668544,229628,1384425,68987,8649,691712,0
837,-1,669873,232037,1323109,69562,8118,660779,0
837,-1,670574,231052,1358297,69425,8666,678227,0
838,-1,665620,231082,1251623,69108,8087,625296,0
838,-1,688755,235065,1446859,72554,10369,722950,0
839,-1,691662,235478,1281788,72295,9609,640413,0
839,-1,667386,230390,1287248,69179,8540,643085,0
840,-1,669386,231220,1241117,69130,7739,620059,0
840,-1,668722,231199,1240704,69659,8256,619699,0
841,-1,669953,231390,1253087,69210,7931,626073,0
841,-1,665382,230173,1357552,69171,8841,678144,0
842,-1,667578,230202,1301299,68805,7942,650221,0
842,-1,663806,229584,1318059,68855,7826,658692,0
843,-1,669310,231094,1349176,69099,8798,674039,0
843,-1,665400,230205,1427370,69157,8548,713321,0
844,-1,667236,230747,1335995,68889,8117,667551,0
844,-1,702995,241520,1430374,72852,9475,714121,0
845,-1,687741,235236,1284129,72237,8943,641563,0
845,-1,669437,230571,1355245,69262,9016,677152,0
846,-1,670964,231877,1345971,69371,8776,672235,0
846,-1,670793,231751,1268685,69882,7949,633507,0
847,-1,669645,231778,1409384,69216,8532,704061,0
847,-1,668461,230077,1366816,69167,8933,682863,0
848,-1,668468,230999,1288947,68908,8000,644077,0
848,-1,668489,230627,1236868,69346,7870,617717,0
849,-1,673428,233069,1388940,69949,8457,693591,0
849,-1,671996,232391,1257113,70088,8946,627721,0
850,-1,689871,235751,1392731,72334,8811,695753,0
850,-1,667928,229880,1241349,69080,8014,620326,0
851,-1,669681,231004,1196247,68917,7933,597537,0
851,-1,667831,230210,1350334,69208,8296,674692,0
852,-1,687813,235451,1295082,72192,8601,647045,0
852,-1,671308,231902,1295733,69936,8372,646720,0
853,-1,669855,232029,1359074,69455,8275,678884,0
853,-1,667135,230099,1371915,69177,8704,685495,0
854,-1,692027,239863,1354114,71549,8071,676654,0
854,-1,665112,229744,1326699,68970,8347,662883,0
855,-1,668580,231454,1337125,69126,8591,668023,0
855,-1,687913,235263,1410928,72659,9482,704924,0
856,-1,666675,230380,1222444,68775,7684,610745,0
856,-1,666008,230490,1275066,69194,8791,637129,0
857,-1,671822,232797,1330316,69833,8506,664263,0
857,-1,666336,231096,1304451,69482,8490,651835,0
858,-1,664822,230566,1376271,68861,7783,687695,0
858,-1,668204,230178,1260482,69197,9524,629804,0
859,-1,665119,230765,1371746,68872,8509,685367,0
859,-1,667552,230274,1184836,69251,9067,591771,0
860,-1,670040,233357,1344890,70019,8549,671594,0
860,-1,670143,231862,1226154,69925,8535,611946,0
861,-1,672106,230854,1281377,68993,8329,640209,0
861,-1,686991,234789,1307909,72499,9972,653504,0
862,-1,670165,230214,1334418,68727,8676,666686,0
862,-1,669445,230852,1265013,69416,8915,631932,0
863,-1,670873,230757,1243514,68968,7982,621204,0
863,-1,664666,229627,1203128,68995,8126,601102,0
864,-1,673457,231977,1374756,69523,8710,686652,0
864,-1,669451,231385,1361846,69748,8825,680123,0
865,-1,667079,229930,1313299,68757,7868,656199,0
865,-1,664763,230217,1441918,69171,8917,720232,0
866,-1,666829,229767,1207328,68667,7544,603172,0
866,-1,667193,230262,1238485,69223,8444,618515,0
867,-1,667513,230046,1279549,68670,7947,639189,0
867,-1,667800,230597,1352833,69295,9109,675859,0
868,-1,666223,229986,1223825,68647,7733,611307,0
868,-1,666895,230998,1351614,69476,8656,675334,0
869,-1,674194,233175,1321133,70035,8905,659285,0
869,-1,662734,229751,1441925,68999,8765,720602,0
870,-1,667048,230552,1199475,68925,7934,599058,0
870,-1,672266,231314,1356663,69518,8581,678011,0
871,-1,669413,231749,1249808,69533,8406,624059,0
871,-1,668616,230267,1255725,69215,8553,627329,0
872,-1,670971,230529,1213859,68943,7686,606345,0
872,-1,669245,230603,1487497,69265,8989,743353,0
873,-1,668872,230299,1228267,68924,7947,613610,0
873,-1,668626,230747,1364089,69598,8670,681243,0
874,-1,669258,230742,1164735,69027,7556,581762,0
874,-1,687615,234567,1402984,72396,9540,700915,0
875,-1,668411,230730,1271176,69120,7433,635015,0
875,-1,664613,229625,1331197,68938,8636,664908,0
876,-1,668624,230364,1233953,68999,8179,616623,0
876,-1,666338,230339,1247897,69187,8150,623554,0
877,-1,671962,231853,1179101,69456,7462,588974,0
877,-1,672072,231244,1365124,69548,8928,681831,0
878,-1,669063,231116,1206240,69245,7741,602599,0
878,-1,670162,231112,1269538,69668,8382,633717,0
879,-1,666706,230256,1207267,68877,7932,603114,0
879,-1,666568,230248,1225808,69212,8188,612319,0
880,-1,668646,231432,1206350,69252,7823,602652,0
880,-1,665526,230082,1193953,69102,8940,596519,0
881,-1,689654,235215,1312964,72354,8796,655985,0
881,-1,668214,231640,1247551,69768,7824,622932,0
882,-1,667708,230428,1465845,68908,8229,732298,0
882,-1,668790,230136,1337075,69138,9173,668142,0
883,-1,670085,232341,1358633,69714,7953,678577,0
883,-1,671875,231937,1306394,69996,8473,652425,0
884,-1,664800,229668,1247659,68709,7739,623440,0
884,-1,686534,234428,1385805,72386,9789,692377,0
885,-1,666077,230746,1337838,68959,7365,668342,0
885,-1,665159,230572,1251126,69228,8289,624948,0
886,-1,683487,234406,1314669,72030,8384,656856,0
886,-1,666267,230179,1330986,69118,8487,665064,0
887,-1,666256,230560,1261096,68986,7685,630081,0
887,-1,671026,232069,1266240,70047,7898,632172,0
888,-1,668872,229979,1369130,68827,9060,684109,0
888,-1,686671,234467,1410600,72407,9320,704687,0
889,-1,665632,229663,1254984,68670,8236,626894,0
889,-1,665789,230156,1461798,69183,9274,730312,0
890,-1,670298,231755,1335349,69610,8048,666957,0
890,-1,663633,229830,1366276,69054,8002,682581,0
891,-1,665711,230088,1257800,68871,7849,628545,0
891,-1,667493,232010,1262145,70041,8762,629823,0
892,-1,662474,229186,1348934,68489,8274,674014,0
892,-1,670069,230848,1323285,69307,8617,661187,0
893,-1,666711,230606,1424252,68888,8896,711615,0
893,-1,667081,230435,1385061,69187,8539,691856,0
894,-1,665858,230111,1285467,68699,8135,642273,0
894,-1,666915,230167,1342485,69140,8367,670752,0
895,-1,660856,229559,1249766,68533,8431,624249,0
895,-1,686226,234696,1300774,72457,10055,649795,0
896,-1,665178,229684,1266066,68644,8441,632412,0
896,-1,670095,231155,1292272,69639,8144,645240,0
897,-1,667171,230387,1234436,68791,7836,616492,0
897,-1,668751,230875,1351255,69431,9200,675029,0
898,-1,686474,234699,1257068,72009,8990,627837,0
898,-1,665123,229898,1116543,69109,8239,557734,0
899,-1,664782,230189,1190339,68787,7752,594660,0
899,-1,671421,233045,1618795,70452,10544,807985,0
900,-1,664317,230150,1215029,68752,8597,606964,0
900,-1,684180,234030,1418794,72214,9229,708779,0
901,-1,662650,229748,1209179,68581,7569,604086,0
901,-1,668833,232127,1313227,69990,8721,655879,0
902,-1,664578,230263,1242861,68776,8605,620977,0
902,-1,663797,230571,1339313,69332,8065,669166,0
903,-1,713163,243667,1498636,74617,9100,748854,0
903,-1,663343,230071,1312934,69146,8677,656084,0
904,-1,663768,230111,1326888,68647,8197,662996,0
904,-1,667339,230145,1273341,69138,8784,636195,0
905,-1,663847,230092,1264299,68673,8386,631683,0
905,-1,686007,234236,1470637,72338,9278,734940,0
906,-1,664131,230722,1306836,68843,7879,652926,0
906,-1,665149,230240,1479793,69225,9429,739420,0
907,-1,663108,230072,1227608,68649,7660,613132,0
907,-1,661919,229458,1291363,68940,8173,645189,0
908,-1,669024,232739,1347601,69775,8480,672964,0
908,-1,670870,232307,1276045,70049,8651,637287,0
909,-1,661032,230075,1295023,68711,8276,647075,0
909,-1,664674,230336,1340041,69256,8839,669528,0
910,-1,666145,229503,1224645,68500,7696,611843,0
910,-1,662998,229694,1336936,69004,8321,668142,0
911,-1,666251,230055,1332992,68703,8026,665979,0
911,-1,662123,229778,1264472,69091,8267,631703,0
912,-1,662769,229172,1216012,68387,7390,607222,0
912,-1,662473,229971,1323769,69091,8084,661397,0
913,-1,670116,232048,1459424,69591,9273,728989,0
913,-1,663068,230004,1315781,69059,8019,657447,0
914,-1,663755,229585,1356929,68578,8369,677972,0
914,-1,666540,231082,1567230,69499,9591,783143,0
915,-1,664302,229706,1459724,68658,9464,729146,0
915,-1,664249,230405,1270270,69343,8452,634575,0
916,-1,671833,232568,1359211,69894,8900,678729,0
916,-1,661676,230421,1309389,69270,8543,654267,0
917,-1,665126,229672,1358914,68619,8093,679037,0
917,-1,665674,229695,1251154,69006,8284,625131,0
918,-1,665230,230501,1242112,68924,7803,620438,0
918,-1,671898,231049,1375895,69657,9096,687259,0
919,-1,663541,230108,1193944,68759,7191,596343,0
919,-1,670029,230465,1580995,69314,11101,789978,0
920,-1,662307,228979,1227139,68224,8310,612993,0
920,-1,667916,230113,1293960,69181,8795,646455,0
921,-1,673486,232883,1276983,69758,8879,637702,0
921,-1,667215,230130,1353030,69146,8977,676092,0
922,-1,666185,230428,1199538,68785,8122,599295,0
922,-1,688625,234489,1362917,72409,9431,681025,0
923,-1,664445,229840,1269030,68592,8052,634170,0
923,-1,668640,230259,1288745,69165,8377,643925,0
924,-1,670333,232605,1367526,69623,8075,683053,0
924,-1,665596,229729,1341572,69049,8577,670298,0
925,-1,664411,230077,1229818,68661,7327,614490,0
925,-1,670789,232168,1287821,69995,8442,643152,0
926,-1,664257,229882,1232144,68599,7867,615649,0
926,-1,667034,229942,1480345,69133,9887,739744,0
927,-1,665629,230807,1224921,68931,7658,611916,0
927,-1,668527,230532,1523949,69275,10014,761546,0
928,-1,666607,231141,1345839,69224,8413,672341,0
928,-1,671317,232083,1279051,70112,8814,638672,0
929,-1,663688,230324,1281396,68821,7711,640131,0
929,-1,667139,230489,1352284,69290,8429,675601,0
930,-1,666476,231619,1402398,69441,8237,700455,0
930,-1,664791,230126,1324609,69140,8277,661856,0
931,-1,679621,233454,1389669,71663,8139,694417,0
931,-1,671007,230685,1294079,69306,8649,646617,0
932,-1,660746,229895,1326974,68622,7937,663033,0
932,-1,673080,231991,1384203,70003,10671,691232,0
933,-1,665729,230179,1208593,68779,7217,603914,0
933,-1,667417,230312,1193494,69193,8111,596276,0
934,-1,665750,230117,1349205,68848,7678,674068,0
934,-1,667036,230568,1237165,69319,8664,618086,0
935,-1,666100,230561,1235692,68917,7429,617384,0
935,-1,664996,229613,1221201,68997,7823,610141,0
936,-1,664865,230178,1296970,68748,7373,647967,0
936,-1,666996,230304,1208958,69207,7850,604086,0
937,-1,664128,229908,1426796,68566,8436,712938,0
937,-1,685225,234666,1416713,72469,8976,707864,0
938,-1,667557,231585,1366992,69323,8591,682784,0
938,-1,664814,230101,1323155,69169,8660,661122,0
939,-1,665579,230101,1344986,68619,8041,672025,0
939,-1,667234,230687,1226514,69370,8257,612772,0
940,-1,686079,234831,1268106,72052,9100,633656,0
940,-1,665465,230270,1345398,69107,8297,672251,0
941,-1,660486,229576,1282476,68573,7411,640807,0
941,-1,668586,231908,1224803,69922,9060,611424,0
942,-1,666943,231593,1403246,69463,8182,700710,0
942,-1,661297,230245,1327108,68362,7752,663041,0
943,-1,661803,229895,1235810,68728,7726,617477,0
943,-1,660514,229860,1327652,68197,7661,663386,0
944,-1,660899,230086,1324026,68812,7507,661478,0
944,-1,663430,229568,1329606,68093,7346,664380,0
945,-1,662499,230537,1246624,68920,7588,622907,0
945,-1,667733,231010,1251622,68603,7257,625438,0
946,-1,667627,232122,1354005,69716,8324,676303,0
946,-1,691497,239507,1341070,71036,7519,670081,0
947,-1,686197,234680,1356700,72066,8285,677846,0
947,-1,688105,235211,1368365,71794,8427,683663,0
948,-1,663534,229787,1211864,68753,7192,605470,0
948,-1,665200,230689,1342147,68532,7321,670575,0
949,-1,667182,231680,1350120,69466,8148,674306,0
949,-1,661513,229976,1437116,68322,8707,718069,0
950,-1,663160,230205,1471042,68862,8642,734838,0
950,-1,664404,230172,1229068,68393,7546,614020,0
951,-1,661866,230142,1228024,68772,6769,613202,0
951,-1,671073,233110,1239555,69609,7891,618902,0
952,-1,681108,234217,1333169,71942,8377,666066,0
952,-1,687747,235930,1387095,72016,8483,692971,0
953,-1,661572,230519,1227388,68891,7507,613213,0
953,-1,661213,229852,1217757,68223,7391,608427,0
954,-1,662308,230032,1320137,68725,7926,659371,0
954,-1,662177,230577,1240345,68490,8756,619113,0
955,-1,663844,230345,1189211,68837,7608,594057,0
955,-1,687634,235405,1272548,71814,8231,635884,0
956,-1,692557,240458,1390803,72069,8898,694764,0
956,-1,663947,230356,1205758,68336,7514,602448,0
957,-1,664701,230988,1336051,69092,8207,667498,0
957,-1,662846,229853,1220824,68184,8177,609437,0
958,-1,661736,230010,1210486,68734,7143,604788,0
958,-1,663056,230324,1338134,68373,8902,668247,0
959,-1,682279,234638,1360640,71997,8603,680003,0
959,-1,668053,232249,1353871,69184,8914,676139,0
960,-1,661422,230041,1604736,68614,9540,801763,0
960,-1,663552,230229,1360197,68329,8690,679678,0
961,-1,659953,230118,1210303,68693,7195,604678,0
961,-1,663041,230315,1277028,68414,8605,637213,0
962,-1,668665,230242,1338216,68723,7872,668569,0
962,-1,660176,229508,1513023,68072,9222,755718,0
963,-1,670935,230840,1337264,68911,8606,668162,0
963,-1,668991,232875,1511402,69468,8980,754813,0
964,-1,668072,229863,1180916,68574,8125,590058,0
964,-1,683310,235109,1502884,71673,9848,751023,0
965,-1,672584,232242,1354248,69525,8513,676398,0
965,-1,664215,230123,1286525,68259,8969,642851,0
966,-1,666414,230068,1301099,68609,8150,649898,0
966,-1,663558,230428,1319292,68434,8761,659734,0
967,-1,668433,229759,1616257,68538,9644,807276,0
967,-1,660322,229802,1365281,68141,8744,682338,0
968,-1,673897,232573,1370149,69695,9193,683897,0
968,-1,661195,230114,1446931,68147,9185,722988,0
969,-1,667604,230329,1227391,68762,7115,613085,0
969,-1,668541,233085,1391774,69374,9194,694521,0
970,-1,667151,230371,1299834,68766,8046,649372,0
970,-1,681743,234752,1563449,71480,9672,781259,0
971,-1,670180,232064,1342911,69481,8146,670711,0
971,-1,659449,229984,1435879,68104,8586,716594,0
972,-1,687541,234998,1359764,72058,8675,679406,0
972,-1,660622,230368,1215483,68253,8034,607214,0
973,-1,665324,230285,1239056,68749,7877,619020,0
973,-1,665875,232562,1229962,69139,7644,614117,0
974,-1,665315,230243,1349226,68650,7672,674030,0
974,-1,666685,230372,1288865,68226,8482,644076,0
975,-1,666520,230639,1224833,68872,7862,612016,0
975,-1,671270,232873,1259627,69387,7343,629178,0
976,-1,667192,230585,1332950,68841,9174,666036,0
976,-1,685968,235351,1342739,71733,8432,670950,0
977,-1,665077,229986,1183583,68662,8168,591712,0
977,-1,665501,230964,1241367,68643,7520,619964,0
978,-1,665040,230733,1327843,69080,8320,663244,0
978,-1,662885,230229,1308200,68286,7782,653712,0
979,-1,668575,230322,1351209,68812,9178,675120,0
979,-1,689875,236098,1285211,72433,8949,642121,0
980,-1,668612,230666,1213087,68910,7728,605946,0
980,-1,665708,230880,1255234,68487,7734,627062,0
981,-1,670638,231871,1364324,69462,8285,681514,0
981,-1,661712,229829,1248523,68105,7366,623869,0
982,-1,666520,230697,1362938,68872,8575,680958,0
982,-1,661957,229959,1419306,68139,7643,709171,0
983,-1,664307,230347,1481681,68738,9549,740175,0
983,-1,661274,230010,1331791,68122,7887,665551,0
984,-1,672672,232460,1342273,69765,8404,670406,0
984,-1,662852,230485,1216576,68269,7626,607805,0
985,-1,666988,230636,1356374,68883,7992,677843,0
985,-1,686120,235390,1381520,71703,8625,690086,0
986,-1,664748,229846,1236859,68674,7149,617994,0
986,-1,664976,230381,1310402,68277,7959,654743,0
987,-1,663271,229741,1346994,68690,7908,672879,0
987,-1,682526,234454,1385454,71345,8117,692301,0
988,-1,663735,230112,1254402,68716,7664,626736,0
988,-1,662789,230778,1341849,68396,8349,670436,0
989,-1,666956,229844,1317101,68695,8188,658146,0
989,-1,663311,230646,1335484,68378,7812,667222,0
990,-1,667532,231038,1261582,69233,8152,630102,0
990,-1,659868,229258,1321911,67843,7725,660532,0
991,-1,664834,229744,1239833,68769,8323,619413,0
991,-1,661910,230334,1286838,68310,8176,642892,0
992,-1,663474,229613,1206977,68630,7014,603047,0
992,-1,683121,234915,1375716,71546,9187,687406,0
993,-1,665535,230697,1331502,69015,7733,665309,0
993,-1,662624,230881,1308241,68445,8326,653649,0
994,-1,686653,235063,1371755,72277,9178,685426,0
994,-1,660923,230408,1316416,68232,8567,657728,0
995,-1,662974,230370,1209794,68996,6801,604472,0
995,-1,663492,231767,1242804,68885,8092,620701,0
996,-1,697288,241387,1446496,71621,8103,722699,0
996,-1,667470,230776,1308678,68363,7827,653872,0
997,-1,723748,251141,1393353,74831,8131,695844,0
997,-1,667876,231974,1209464,68945,7319,604325,0
998,-1,737732,253656,1440730,77173,9022,719848,0
998,-1,662839,230474,1266815,68310,7687,632916,0
999,-1,715685,247909,1278397,73606,7537,638602,0
999,-1,688409,239030,1205663,70762,7330,602476,0
1000,-1,716882,248849,1275456,73885,7327,637194,0
1000,-1,665899,231565,1240227,68833,7112,619424,0
1001,-1,716344,248906,1394546,73875,8378,696873,0
1001,-1,662043,230333,1304269,68170,7559,651748,0
1002,-1,743377,253521,1448661,77177,10319,723733,0
1002,-1,660986,230210,1377688,68176,7921,688454,0
1003,-1,722326,249195,1406942,73936,9037,702853,0
1003,-1,665591,232400,1238996,69094,7723,618714,0
1004,-1,720724,248763,1459709,73770,9386,729277,0
1004,-1,662265,230436,1319335,68293,7445,659172,0
1005,-1,717427,247866,1387463,73507,8911,693428,0
1005,-1,663141,230521,1332572,68306,7445,665858,0
1006,-1,742922,253639,1396237,77241,11042,697468,0
1006,-1,667134,232329,1325072,69065,7059,661894,0
1007,-1,721697,248919,1314572,73897,9913,656245,0
1007,-1,659219,229577,1300726,67945,7387,649919,0
1008,-1,719627,248671,1256501,73799,8364,627462,0
1008,-1,667746,232878,1369028,69306,8142,683185,0
1009,-1,719382,248911,1391728,73907,8682,695071,0
1009,-1,658874,229863,1221698,68002,7549,610320,0
1010,-1,718204,248522,1405029,73749,8774,702151,0
1010,-1,664923,231928,1238281,68949,7140,618231,0
1011,-1,718355,248414,1411784,73699,8791,704816,0
1011,-1,660162,230240,1334569,68190,7520,666819,0
1012,-1,740307,253290,1451374,77076,8730,725320,0
1012,-1,680866,235211,1353701,71647,8618,676348,0
1013,-1,717173,248713,1341625,73817,7542,670290,0
1013,-1,658975,230137,1138553,68143,6693,568874,0
1014,-1,715090,248223,1375207,73650,8152,687096,0
1014,-1,664847,232450,1171690,69099,6635,585035,0
1015,-1,719143,248689,1266198,73755,7550,632689,0
1015,-1,656149,229980,1292289,68098,6836,645693,0
1016,-1,718674,248750,1296300,73883,6726,647779,0
1016,-1,672531,229963,1383854,68530,7132,691535,0
1017,-1,715951,247858,1341280,73529,7370,670192,0
1017,-1,679221,232907,1321139,69736,6862,659639,0
1018,-1,718272,248338,1365671,73744,8246,682176,0
1018,-1,693525,234789,1345252,71921,7996,672125,0
1019,-1,724538,251047,1394511,74852,8292,696447,0
1019,-1,671848,230302,1285427,68674,6803,642293,0
1020,-1,737232,252796,1410488,76892,9033,704614,0
1020,-1,671189,230140,1214819,68519,6432,607035,0
1021,-1,716659,248259,1403454,73641,8646,701358,0
1021,-1,671788,230398,1336286,68707,7391,667616,0
1022,-1,717327,248623,1333418,73818,8680,666156,0
1022,-1,677387,232285,1246011,69496,7278,622160,0
1023,-1,717856,249190,1423924,73994,9243,711609,0
1023,-1,669278,229789,1332191,68470,6978,665624,0
