0,2,760594,266927,1387606,78892,9130,693717,0
0,-1,691968,237477,1264839,70866,7556,632412,0
0,-1,689183,237568,1308886,70876,7498,654305,2
0,-1,692247,237194,1510170,70658,8751,755139,0
0,-1,649687,223709,1298815,67298,7012,649409,0
0,-1,635864,218481,1273804,65484,7475,636896,0
0,2,709644,247452,1387369,73428,9001,693448,0
0,-1,642579,219522,1261456,65910,8244,630694,0
0,-1,635150,218197,1272554,65540,7356,636262,0
0,-1,636738,219049,1241836,65870,6951,620890,0
0,2,707834,247664,1587233,73691,9672,794051,0
0,-1,638547,218745,1288021,65578,7795,644019,0
0,-1,642444,220346,1401394,66567,8248,701515,0
0,-1,637501,218503,1209594,65682,7059,604676,0
0,-1,641620,219240,1199612,65824,7134,599869,0
0,-1,642125,220607,1414154,66427,8413,706852,0
0,2,711602,248866,1566880,74075,9070,783450,0
0,-1,638586,219838,1245809,66059,7655,622850,0
0,-1,644880,221271,1227474,66832,8035,613591,0
0,-1,638041,218719,1200343,65822,6905,600186,0
0,-1,664450,223740,1359540,69303,7842,679672,0
0,-1,644444,220352,1404642,66533,7891,702364,0
0,-1,632310,218584,1201806,65734,7908,600873,0
0,2,730281,253286,1342548,77321,8640,671305,0
0,-1,638141,219099,1141532,65973,7433,570769,0
0,-1,639702,220067,1208664,66308,7468,604153,0
0,-1,638478,220221,1326708,66483,7925,663376,0
0,-1,639122,219160,1160769,65916,7381,580420,0
0,2,707548,248307,1317714,73810,8380,658867,0
0,-1,639630,219600,1541225,66043,8631,770699,0
0,2,712497,250250,1436944,74694,9083,718543,0
0,-1,641444,220607,1209411,66360,7041,604738,0
0,-1,634588,218419,1143594,65653,7489,571823,0
0,-1,640303,219169,1320894,65869,7605,660591,0
0,-1,638199,219598,1272825,65945,7652,636409,0
0,2,713944,249158,1352386,73932,9334,676240,0
0,-1,636296,218968,1194009,65795,7230,597062,0
0,-1,642447,220766,1264558,66678,6905,632390,0
0,-1,637063,219463,1200500,65967,7166,600296,0
0,-1,638419,219472,1190062,66011,6732,595105,0
0,2,715471,250406,1355038,74544,8376,677531,0
0,-1,643701,220970,1461577,66757,8687,730944,0
0,-1,638610,219755,1435343,66107,8896,717335,0
0,-1,641212,219515,1187202,65927,7035,593658,0
0,-1,641460,219470,1320096,65797,7153,660142,0
0,2,731226,254237,1409293,77445,9775,704663,0
0,-1,640906,220871,1234430,66513,7049,617278,0
0,-1,640469,220035,1239679,66069,7322,619901,0
0,-1,667154,225323,1264028,70097,8450,631998,0
0,-1,642042,219636,1294639,65950,7308,647370,0
0,2,706281,247888,1446756,73552,9586,723422,0
0,-1,647919,220818,1225649,66483,7935,612632,0
0,-1,650596,221825,1337879,66750,8509,668462,0
0,-1,647494,221600,1272571,66494,9822,636146,0
0,2,709887,249891,1316648,74226,9355,658130,0
0,-1,645382,220944,1284336,66315,7771,642256,0
0,-1,640708,220051,1313755,66062,8324,656846,0
0,-1,651092,221461,1302211,66622,8420,651097,0
0,-1,641534,219590,1280281,65879,7685,640103,0
0,2,711001,248322,1267766,73712,8533,633930,0
0,-1,646317,220950,1277626,66629,8118,638860,0
0,-1,638062,219429,1285526,65910,7589,642859,0
0,-1,641583,220024,1298877,66254,7605,649497,0
0,-1,665148,223737,1256499,69147,8605,628283,0
0,2,711655,248200,1393354,73668,8255,696649,0
0,-1,647280,221783,1372316,66829,7795,686209,0
0,-1,651298,222224,1305808,66812,8621,652962,0
0,-1,649292,221115,1271898,66407,7894,636018,0
0,-1,640417,219433,1121551,65789,7475,560832,0
0,-1,640911,219130,1246334,65690,7953,623216,0
0,-1,658501,223816,1246933,69051,7832,623437,0
0,-1,640708,218715,1365036,65546,7753,682560,0
0,-1,641070,218892,1289104,65668,8647,644533,0
0,2,710956,247902,1654799,74069,10885,827332,0
0,-1,641647,220301,1181073,66321,7411,590350,0
0,-1,645359,219487,1284764,65865,7853,642341,0
0,-1,639548,218628,1367531,65552,7531,683771,0
0,-1,662351,223572,1302348,68978,7703,651123,0
0,2,713702,249095,1315629,74671,8708,657736,0
0,-1,640756,218700,1278935,65561,7289,639417,0
0,-1,643759,219262,1125965,65723,6928,562819,0
0,-1,632608,218706,1344215,65090,7139,672162,0
0,-1,644281,221893,1299974,66473,7609,649806,0
0,2,708424,247982,1334400,74139,8563,667121,0
0,-1,638734,219900,1200200,65706,7242,600084,0
0,-1,655158,223575,1466792,68597,8808,733244,0
0,-1,638795,219617,1348979,65526,7547,674435,0
0,-1,641666,219225,1277143,66301,7637,638578,0
0,2,716552,249526,1429380,74472,9434,714619,0
0,-1,658366,223142,1232148,69321,8671,616073,0
0,-1,658824,223282,1327307,69372,8169,663607,0
0,-1,644400,220248,1273579,66771,8079,636741,0
0,-1,638692,217920,1305686,65821,8477,652857,0
0,2,710572,248515,1444944,74203,9363,722532,0
0,-1,637608,218587,1312524,65944,7039,656385,0
0,-1,643235,219419,1381410,66283,7862,690645,0
0,-1,640504,219692,1182347,66558,8224,591132,0
0,-1,635673,218151,1302935,65857,7560,651278,0
0,2,715577,250878,1358590,75302,9458,679163,0
0,-1,641438,219063,1239919,66246,7516,619920,0
0,-1,661479,222943,1338790,69210,8194,669333,0
0,-1,638394,218535,1249852,66031,7172,624933,0
0,2,711968,248779,1402907,74221,9845,701481,0
0,-1,637830,219101,1231198,66181,7130,615681,0
0,-1,640545,218714,1208939,65967,7561,604411,0
0,-1,641797,219265,1267442,66467,6767,633668,0
0,-1,641733,220646,1211348,66852,8175,605550,0
0,-1,643056,218618,1187684,65921,7294,593899,0
0,2,716414,249196,1349892,74352,9097,674890,0
0,-1,642275,218936,1214781,66014,8569,607322,0
0,-1,636570,218928,1261154,66152,8579,630562,0
0,-1,644721,219658,1224675,66408,7929,612260,0
0,-1,650092,221879,1187197,67544,7724,593493,0
0,2,715271,248546,1331696,74400,10540,665777,0
0,-1,660974,223810,1444513,69631,8756,722399,0
0,-1,641419,219607,1290081,66328,7750,644977,0
0,-1,641300,219757,1334503,66437,8063,667243,0
0,-1,641133,220265,1231633,66618,7909,615790,0
0,-1,647169,220695,1322150,66751,8330,660858,0
1,-1,698529,240159,1579744,72042,9085,788231,0
1,-1,692048,237301,1303102,70812,7967,651315,2
1,-1,689954,237598,1289731,70789,7307,644850,0
1,-1,638554,219632,1276215,66127,7699,638080,0
1,2,711525,248502,1415017,73771,8805,707489,0
1,-1,638940,218565,1182872,65514,7506,591413,0
1,-1,637686,219129,1196168,65885,7118,598103,0
1,-1,635032,218537,1210861,65616,6546,605409,0
1,2,708558,248249,1547031,73887,10298,773910,0
1,-1,637472,218545,1250072,65532,8109,625009,0
1,-1,660741,223824,1328930,69187,8742,664354,0
1,-1,638796,219041,1255303,65904,7909,627496,0
1,-1,639458,218691,1290195,65694,7929,645107,0
1,-1,665386,228814,1364975,68631,8167,682469,0
1,2,706479,247423,1419678,73664,8549,709819,0
1,-1,662988,223557,1389998,69064,9689,695556,0
1,-1,639329,219360,1257894,65981,7299,628929,0
1,-1,638977,218437,1285744,65707,7437,642797,0
1,-1,642636,219371,1353297,66089,7602,676582,0
1,-1,642367,218821,1286239,65907,8169,643095,0
1,-1,638797,219979,1147140,66268,7299,573568,0
1,2,710833,249148,1453305,74187,10080,726065,0
1,-1,637907,219356,1343826,66044,8044,671727,0
1,-1,636630,219622,1213078,66109,7216,606528,0
1,-1,633601,218728,1289453,65800,7741,644746,0
1,2,708805,248651,1400852,73907,9006,700467,0
1,-1,644588,221632,1218569,66964,7412,609305,0
1,-1,639946,219918,1193822,66181,6471,596970,0
1,2,705119,248535,1363232,73845,7835,681646,0
1,-1,637952,219288,1277067,65943,7449,638577,0
1,-1,640218,219512,1382948,65950,7747,691512,0
1,-1,646831,222383,1280930,67210,7323,640514,0
1,-1,659788,223830,1171714,69219,7731,585963,0
1,2,705757,247243,1338935,73341,8536,669480,0
1,-1,640992,219066,1271062,65893,7542,635414,0
1,-1,660507,224180,1258502,69372,7493,629317,0
1,-1,637272,219939,1170788,66098,7416,585423,0
1,-1,641211,220487,1287048,66484,7045,643588,0
1,2,714717,249626,1537367,74239,10304,768730,0
1,-1,660383,223898,1246897,69214,7729,623410,0
1,-1,636350,219262,1291580,65856,7413,645852,0
1,-1,639781,219311,1149416,65990,6875,574736,0
1,-1,645277,221191,1390465,66607,7013,695279,0
1,2,715416,250852,1387925,74751,10065,693843,0
1,-1,643029,220444,1175647,66163,6934,587860,0
1,-1,638905,219513,1172237,65900,7038,586162,0
1,-1,642082,219460,1262485,65921,6355,631313,0
1,-1,662471,223987,1220695,69269,7949,610318,0
1,2,714330,249314,1481681,74056,9349,740647,0
1,-1,644833,219984,1361322,66199,8318,680708,0
1,-1,647792,220583,1392523,66100,9030,696230,0
1,-1,642756,220250,1155146,65958,8411,577407,0
1,2,716276,249115,1421084,73739,9547,710566,0
1,-1,643468,219848,1371330,65836,8581,685577,0
1,-1,662739,223586,1274567,69017,8584,637288,0
1,-1,645004,219778,1196708,65965,7559,598271,0
1,-1,648591,221865,1337998,66987,8287,668813,0
1,2,712084,248985,1342981,73870,9172,671238,0
1,-1,642564,219890,1277011,66041,7762,638536,0
1,-1,635727,218749,1124865,65756,7645,562552,0
1,-1,637981,218731,1174386,65728,7410,587239,0
1,-1,641361,218551,1282642,65643,7997,641373,0
1,2,710050,247966,1278858,73578,8219,639431,0
1,-1,662836,224120,1398355,69153,7873,698611,0
1,-1,663623,223897,1325940,68936,9998,662986,0
1,-1,645249,219905,1174625,65829,7680,587357,0
1,-1,637276,218562,1316823,65511,8279,658607,0
1,-1,639907,218763,1291009,65579,7805,645549,0
1,-1,639293,219608,1328209,65889,8053,664171,0
1,-1,647559,221538,1252517,66838,7958,626329,0
1,-1,641436,218454,1226160,65497,8640,612987,0
1,2,714917,249401,1330595,74796,9244,665277,0
1,-1,640887,218814,1247920,65650,7370,623999,0
1,-1,642833,218867,1199705,65555,7632,599818,0
1,-1,662803,223773,1297132,69035,7995,648361,0
1,-1,639902,219134,1305711,65749,7288,652843,0
1,2,730670,252421,1448773,77266,9953,724384,0
1,-1,640452,218463,1250665,65500,6972,625439,0
1,-1,649410,221141,1139122,66585,7232,569432,0
1,-1,637702,221214,1193397,66142,7242,596708,0
1,2,707764,248781,1518331,74368,10379,759122,0
1,-1,656700,223451,1451561,68432,8852,725422,0
1,-1,634477,218632,1359271,65045,7820,679698,0
1,-1,632654,218654,1418925,65157,8348,708876,0
1,-1,636820,218762,1247234,65219,7471,623512,0
1,2,713416,248745,1463432,74199,10511,732118,0
1,-1,641010,219677,1266485,66429,8429,633234,0
1,-1,638741,220033,1250190,66732,7832,625128,0
1,-1,639060,218940,1272986,66188,7954,636604,0
1,-1,639587,218421,1300041,65965,7350,649964,0
1,-1,639111,218520,1229019,66050,8277,614442,0
1,2,706873,248771,1487131,74290,10058,743816,0
1,-1,637080,218441,1349877,65967,7866,674963,0
1,-1,641121,219008,1282042,66105,7634,641010,0
1,-1,637712,218602,1239990,66041,8143,619868,0
1,-1,639726,220131,1221521,66734,8069,610713,0
1,2,711029,249496,1437077,74521,10218,718560,0
1,-1,640413,219239,1285117,66233,7679,642533,0
1,-1,641948,219529,1263927,66370,6959,631973,0
1,-1,637750,218248,1198559,65880,7544,599308,0
1,2,717378,251025,1456429,75330,9710,728285,0
1,-1,646673,219806,1191170,66625,7667,595561,0
1,-1,641336,219409,1343320,66201,7934,671660,0
1,-1,640830,219166,1476840,66139,8459,738414,0
1,-1,662142,223158,1249357,69186,9047,624634,0
1,-1,642659,218235,1218782,65759,7790,609445,0
1,2,713491,248688,1540254,74132,10498,769847,0
1,-1,648775,220368,1236959,66679,7500,618373,0
1,-1,637413,218684,1198878,65853,7017,599366,0
1,-1,665128,224379,1311572,69779,8408,655663,0
1,-1,667301,224985,1266760,70099,8439,633408,0
1,2,714577,248881,1527104,74430,9684,763352,0
1,-1,642526,220490,1603079,66708,8578,801470,0
1,-1,645994,220323,1354235,66597,8428,677172,0
1,-1,642840,220170,1283496,66519,8326,641730,0
1,-1,642611,220302,1232559,66633,7358,616180,0
1,-1,643757,219816,1207631,66447,7450,603763,0
2,-1,694493,237536,1398764,70794,8822,699318,0
2,-1,692239,238469,1424710,71282,7765,712114,0
2,-1,635863,219247,1299504,65838,8017,649666,2
2,2,709976,248180,1406249,73724,8056,703145,0
2,-1,635602,218707,1277172,65622,7994,638633,0
2,-1,660526,223251,1359514,68924,8622,679788,0
2,-1,637273,219278,1233579,65938,7135,616832,0
2,-1,640087,220594,1213421,66564,7722,606714,0
2,2,708286,248254,1510120,73880,9145,754187,0
2,-1,639518,218579,1138418,65543,7670,569178,0
2,-1,639190,219500,1189708,65982,7292,594844,0
2,-1,641700,219198,1269023,65941,7887,634400,0
2,-1,640799,219172,1237403,65850,7163,618597,0
2,2,712016,248604,1306078,74026,8121,653040,0
2,-1,638401,219143,1263168,65824,8512,631616,0
2,-1,642954,220194,1285972,66161,8125,642812,0
2,-1,638892,219196,1247857,65843,7487,623903,0
2,-1,638326,218603,1219443,65798,7175,609419,0
2,-1,641392,219305,1305311,66017,7413,652703,0
2,-1,646961,221641,1326519,67148,8364,663333,0
2,2,710520,248894,1314771,74137,8840,657434,0
2,-1,635562,219106,1213734,65940,7367,606804,0
2,-1,642097,220954,1417294,66801,8703,708587,0
2,-1,645186,221298,1367790,67013,8070,683973,0
2,-1,641400,219732,1307458,66182,7909,653869,0
2,2,710758,248595,1683923,73969,10494,841988,0
2,-1,637288,219158,1173866,65845,7048,586931,0
2,-1,636651,219335,1164872,65981,7258,582476,0
2,2,707124,248931,1432347,74017,8611,716232,0
2,-1,639267,219392,1294001,65878,7418,647011,0
2,-1,636477,219479,1295242,65952,7262,647642,0
2,-1,658481,223815,1242744,69191,7731,621309,0
2,-1,638374,219426,1182038,65990,7054,591075,0
2,2,712406,250165,1440414,74662,9084,720257,0
2,-1,647788,221749,1291099,66981,7298,645629,0
2,-1,643969,219740,1242954,66056,7452,621521,0
2,-1,636070,219460,1150516,65943,7483,575297,0
2,2,713265,249688,1276684,74331,8402,638384,0
2,-1,637912,219661,1341117,66002,6865,670550,0
2,-1,638348,219196,1343047,65826,6900,671575,0
2,-1,637039,219048,1185245,65794,6933,592682,0
2,-1,639604,219083,1186791,65880,6612,593451,0
2,-1,640031,219429,1393785,65902,8047,696947,0
2,2,709373,249377,1298728,74023,9235,649304,0
2,-1,638880,219643,1252717,65930,6549,626563,0
2,-1,638748,219533,1187823,65919,6838,593965,0
2,-1,645124,220877,1336089,66560,7108,668106,0
2,-1,640782,219505,1275322,65957,7383,637697,0
2,2,710858,248279,1598608,73724,10995,799349,0
2,-1,642226,219887,1339677,66190,7365,670054,0
2,-1,644793,220400,1370591,66032,9809,685284,0
2,-1,640874,220158,1197487,66020,8028,598828,0
2,2,718551,251082,1456007,74734,9829,727924,0
2,-1,644044,220465,1306744,66188,9721,653143,0
2,-1,644210,220545,1204090,66208,7511,601079,0
2,-1,645759,220389,1309585,66102,8425,654737,0
2,-1,664909,224727,1359143,69432,7957,679675,0
2,2,708912,248072,1436669,73624,9301,718368,0
2,-1,639750,218759,1202041,65565,7215,600732,0
2,-1,635237,218522,1239918,65630,8107,619951,0
2,-1,658942,223322,1323717,68967,8167,661884,0
2,-1,642223,218954,1277329,65763,8244,638626,0
2,2,714436,248932,1301481,73924,9081,650711,0
2,-1,641324,219321,1182840,65795,7620,591290,0
2,-1,645352,221314,1203296,66492,8232,601715,0
2,-1,643043,219280,1378494,65572,8166,689159,0
2,-1,666398,228253,1357264,68355,8217,678688,0
2,-1,659279,223463,1215901,68945,7665,607934,0
2,-1,634882,218253,1211784,65354,7092,605964,0
2,-1,644398,219504,1214436,65780,8494,607267,0
2,2,715459,250515,1336808,75244,9680,668361,0
2,-1,645316,220598,1234917,66475,8460,617267,0
2,-1,644652,220764,1344927,66576,7592,672466,0
2,-1,645646,220037,1345100,66261,7908,672577,0
2,-1,640687,218825,1169563,65594,6953,584755,0
2,-1,637210,218498,1152355,65494,6586,576159,0
2,2,710321,247588,1417234,73896,9191,708610,0
2,-1,662217,223935,1281324,69120,7838,640630,0
2,-1,664396,223626,1231932,68931,7846,615792,0
2,-1,653238,223553,1316342,68467,8144,658142,0
2,2,711332,248013,1436131,74064,9396,718063,0
2,-1,637425,220687,1263158,65937,7909,631580,0
2,-1,637372,219123,1261884,65276,7133,630900,0
2,-1,633274,218882,1243673,65285,7835,621710,0
2,2,708254,248059,1411301,74121,8769,705587,0
2,-1,657333,223456,1232462,68572,8266,616136,0
2,-1,640531,219576,1281304,66336,7634,640658,0
2,-1,636068,218185,1317344,65862,8416,658553,0
2,-1,643816,220121,1219057,66688,7550,609485,0
2,-1,639421,219284,1362819,66188,7789,681400,0
2,-1,640917,219190,1334486,66237,8010,667103,0
2,2,709890,248254,1438107,74080,9977,719136,0
2,-1,663696,223483,1366937,69477,8805,683364,0
2,-1,641894,218906,1241524,66175,7007,620839,0
2,-1,637757,219122,1189243,66253,8105,594613,0
2,-1,663241,228431,1345910,68972,8837,672878,0
2,2,712231,249529,1463181,74556,9810,731580,0
2,-1,643038,219044,1290263,66167,7262,645100,0
2,-1,640103,218526,1258625,65961,7305,629320,0
2,-1,638964,218890,1199795,66098,7427,599870,0
2,2,716059,249309,1640080,74438,10640,819668,0
2,-1,641068,217529,1290496,65670,7868,645154,0
2,-1,643302,220626,1230960,66948,7642,615427,0
2,-1,638353,218690,1298331,65879,8653,649209,0
2,-1,642136,218032,1192853,65705,8220,596474,0
2,-1,641990,219190,1116117,66237,7384,558116,0
2,2,715554,248910,1372992,74268,9554,687056,0
2,-1,646033,219878,1216414,66281,7462,608602,0
2,-1,642204,221162,1252094,67007,8399,626105,0
2,-1,643458,220077,1186813,66631,7524,593406,0
2,2,711874,248292,1267489,74151,8933,633996,0
2,-1,644257,219862,1311818,66648,8019,655917,0
2,-1,643476,219667,1402068,66499,8339,701185,0
2,-1,648634,221967,1383301,67430,8219,691541,0
2,-1,645098,220216,1354662,66605,8091,677361,0
2,-1,640587,219937,1229827,66459,8178,614883,0
2,-1,643881,220010,1320015,66462,8293,660030,0
3,-1,697890,239478,1473882,71584,8207,736951,0
3,-1,689182,236307,1334640,70439,8124,667319,0
3,2,708357,247857,1321447,73528,8173,660711,0
3,-1,636687,218510,1268716,65519,7600,634273,2
3,-1,642487,219382,1325197,65836,8645,662532,0
3,-1,639042,218583,1325548,65588,7215,662809,0
3,-1,636098,219267,1136123,65874,6406,567965,0
3,-1,636725,219330,1186020,65848,6916,592962,0
3,2,704951,247971,1327051,73670,9673,663822,0
3,-1,638007,218608,1279538,65525,7382,639834,0
3,-1,638202,219135,1193249,65867,7898,596587,0
3,-1,642222,219789,1325009,66311,8447,662424,0
3,-1,647362,221967,1399223,67138,8361,699550,0
3,2,713318,248712,1435972,73976,9056,717991,0
3,-1,636917,218793,1383176,65717,8509,691534,0
3,-1,644796,220808,1347273,66541,8296,673652,0
3,-1,646683,220734,1210683,66570,8435,605343,0
3,-1,644052,221263,1310604,66949,7555,655292,0
3,-1,641091,218607,1199938,65780,7047,599966,0
3,-1,640785,218697,1232543,65823,8056,616242,0
3,2,707922,249124,1441369,74166,10116,720779,0
3,-1,640366,221394,1322233,66992,7702,661091,0
3,-1,634395,218730,1250693,65807,7383,625339,0
3,-1,639368,220474,1263320,66618,7837,631674,0
3,-1,644312,220513,1355342,66626,8590,677887,0
3,2,709556,248773,1326174,73950,9480,663106,0
3,-1,637069,219477,1119871,66010,6798,559928,0
3,-1,640306,220128,1452902,66164,7813,726438,0
3,2,704772,248560,1617592,73887,10233,808520,0
3,-1,638414,219554,1281947,65979,7387,641019,0
3,-1,639452,220223,1299851,66448,7230,649989,0
3,-1,641260,219519,1410640,65975,7871,705356,0
3,2,709824,248555,1253074,73896,8659,626686,0
3,-1,637487,219104,1187790,65852,7168,593956,0
3,-1,641888,219820,1317817,66105,7835,658961,0
3,-1,641890,219281,1170843,65972,7115,585466,0
3,-1,640973,221581,1201995,66959,7317,601083,0
3,2,707794,248628,1304963,73819,8594,652547,0
3,-1,643033,221225,1278652,66842,7592,639407,0
3,-1,639128,220053,1248554,66164,6583,624345,0
3,-1,636548,219540,1269773,65979,8017,634903,0
3,-1,660155,224078,1407140,69303,7359,703554,0
3,2,713054,249262,1401390,74097,10042,700657,0
3,-1,641071,219794,1298937,66024,7142,649513,0
3,-1,638468,219667,1196816,65944,6361,598453,0
3,-1,666720,224655,1426336,69388,8417,713234,0
3,-1,640185,219326,1270679,65763,6855,635392,0
3,-1,642929,220847,1289386,66638,7316,644732,0
3,2,709657,248839,1355067,73925,9276,677586,0
3,-1,643472,220061,1189770,66226,7459,594884,0
3,-1,646645,220598,1242830,66101,8646,621629,0
3,-1,643551,221813,1321493,66789,8606,660546,0
3,2,712202,248319,1341125,73476,9698,670594,0
3,-1,644226,220460,1323861,66067,8376,661933,0
3,-1,642845,219894,1262305,66056,7855,631160,0
3,-1,645172,220092,1384091,66006,8339,691960,0
3,-1,641127,219385,1352098,65917,8009,676039,0
3,2,717335,250412,1388984,74648,9555,694564,0
3,-1,642275,219786,1193805,65993,7190,596990,0
3,-1,643310,218669,1141862,65676,7215,570983,0
3,-1,638048,218765,1167529,65623,7385,583808,0
3,-1,663091,224340,1213130,69336,8137,606556,0
3,2,707503,248141,1312016,73656,8633,655943,0
3,-1,639704,219182,1305199,65773,8266,652435,0
3,-1,643505,219662,1194859,65787,8105,597485,0
3,-1,644657,219502,1336839,65695,8305,668461,0
3,-1,647872,221958,1300932,66851,7758,650546,0
3,-1,636301,218474,1271219,65476,7349,635306,0
3,-1,645912,220009,1292339,66019,7947,646228,0
3,-1,640797,218781,1151543,65626,8474,575823,0
3,2,708988,248147,1387052,74121,9708,693561,0
3,-1,662257,223921,1233848,69065,8798,616797,0
3,-1,638992,218789,1323587,65657,7797,661672,0
3,-1,641752,219114,1394620,65740,7644,697335,0
3,-1,642215,218700,1199352,65494,7975,599622,0
3,-1,641646,219408,1292110,65765,7531,646064,0
3,2,713116,249046,1326820,74457,9027,663349,0
3,-1,640276,218890,1243885,65672,6861,621874,0
3,-1,643456,219805,1312098,65952,6953,656019,0
3,-1,631063,218450,1164616,64990,6357,582037,0
3,2,710397,247843,1317356,73964,9011,658646,0
3,-1,636687,219603,1346992,65399,7828,673447,0
3,-1,656774,223565,1370098,68424,8103,685009,0
3,-1,638651,221098,1270420,66181,7973,635160,0
3,2,705043,247859,1313236,74003,9254,656633,0
3,-1,635585,218908,1165332,65306,7894,582664,0
3,-1,643023,221002,1203497,67141,8063,601736,0
3,-1,636300,218807,1245242,66194,8321,622518,0
3,-1,635763,217939,1330627,65814,7748,665321,0
3,-1,661753,223768,1358195,69566,8525,679012,0
3,-1,644290,220960,1264237,67042,8293,631926,0
3,2,713223,249610,1370654,74828,9852,685259,0
3,-1,642497,218762,1204265,66070,7827,602037,0
3,-1,639793,218360,1390095,65952,7736,695055,0
3,-1,638890,219082,1252510,66198,8601,626295,0
3,-1,640424,218683,1339349,65946,7894,669643,0
3,2,718733,249833,1345133,74715,9390,672576,0
3,-1,640403,218916,1262752,66187,7052,631389,0
3,-1,644482,221086,1188136,67156,7804,594007,0
3,-1,640911,219140,1293173,66142,7269,646584,0
3,2,718165,250572,1416374,75066,10036,708424,0
3,-1,643012,219332,1315978,66230,7542,657866,0
3,-1,659119,223145,1410007,69344,9120,704994,0
3,-1,648060,221213,1219297,67029,8219,609620,0
3,-1,643474,218975,1203807,65986,7267,601952,0
3,-1,642251,219540,1242718,66256,7772,621488,0
3,2,715659,248993,1429886,74341,9669,714936,0
3,-1,666489,223870,1336958,69428,8139,668499,0
3,-1,657537,223607,1445565,69339,9440,722706,0
3,-1,643172,219707,1261886,66465,7194,631003,0
3,2,713586,248907,1441150,74600,9320,720453,0
3,-1,641882,219432,1395480,66308,7780,697755,0
3,-1,642931,220533,1285561,66772,7912,642969,0
3,-1,666521,225225,1434593,70002,9394,717288,0
3,-1,645731,220258,1297177,66600,7942,648573,0
3,-1,646748,220170,1264392,66574,7756,632203,0
3,-1,643885,220326,1227167,66623,8400,613684,0
4,-1,691197,237034,1208799,70644,7136,604430,0
4,-1,723210,248012,1356588,73915,8133,678152,0
4,2,707884,248150,1325107,73694,8827,662557,0
4,-1,660877,223383,1330377,68933,8974,665115,0
4,-1,638279,218680,1270095,65647,6785,635002,0
4,-1,639012,219155,1330870,65774,8089,665407,2
4,-1,640062,220811,1204544,66705,7025,602219,0
4,-1,635043,219032,1210028,65750,7369,604924,0
4,2,706758,247940,1298513,73791,8454,649241,0
4,-1,647667,222280,1310700,67076,8304,655300,0
4,-1,637708,219025,1291587,65875,7646,645797,0
4,-1,639290,218489,1267433,65704,7431,633211,0
4,-1,663297,224011,1290139,69260,8750,645010,0
4,2,710503,248092,1426053,73653,8964,713024,0
4,-1,637418,219249,1323542,65775,8456,661695,0
4,-1,641232,219107,1377520,65759,7774,688716,0
4,-1,640487,218780,1142069,65695,7416,571022,0
4,-1,659605,223694,1249385,69282,7746,624644,0
4,-1,644936,220817,1315129,66824,7791,657510,0
4,2,708178,248331,1412776,73931,8878,706390,0
4,-1,639790,218510,1211847,65767,7788,605834,0
4,-1,633876,219372,1356674,66098,7093,678312,0
4,-1,633794,218798,1272322,65845,7703,636136,0
4,-1,636343,218773,1325405,65818,7829,662711,0
4,-1,639502,219094,1239810,66000,7421,619901,0
4,2,713443,250861,1326635,75023,9228,663381,0
4,-1,642145,221217,1483496,66920,8247,741853,0
4,-1,636846,218845,1263383,65718,7147,631737,0
4,2,704823,249571,1297829,74293,7803,648949,0
4,-1,635050,219220,1292621,65884,6673,646353,0
4,-1,636387,219319,1164697,65959,6661,582394,0
4,-1,639780,219372,1491335,66004,8958,745219,0
4,2,708430,248325,1324383,73783,8211,662236,0
4,-1,639527,220248,1163273,66280,7021,581661,0
4,-1,639563,218990,1385416,65708,7009,692762,0
4,-1,643643,220383,1282571,66496,7456,641350,0
4,-1,657102,223848,1171266,69209,7862,585603,0
4,2,713100,248528,1375966,73771,8441,687992,0
4,-1,638004,219940,1304791,66105,7571,652448,0
4,-1,636761,219487,1186330,65931,6343,593227,0
4,-1,639257,219814,1176533,66069,7077,588324,0
4,-1,641355,220668,1292397,66600,7416,646274,0
4,2,712770,249826,1312776,74272,9265,656354,0
4,-1,645476,221719,1298512,66999,7747,649347,0
4,-1,637338,219487,1207498,66000,6368,603856,0
4,-1,645581,220595,1436615,66247,8716,718397,0
4,-1,660857,224042,1209761,69129,7454,604854,0
4,2,710336,249232,1410852,74042,9261,705479,0
4,-1,647059,222053,1254802,67176,7673,627473,0
4,-1,647812,220320,1304105,66209,8246,652024,0
4,-1,645954,220593,1219319,66171,8512,609493,0
4,2,713436,249016,1455932,73932,10809,727985,0
4,-1,661326,225097,1237488,69406,8490,618553,0
4,-1,648773,222622,1294757,67088,8695,647236,0
4,-1,642573,219615,1261805,65867,8697,630692,0
4,-1,648321,222018,1365185,66920,8248,682452,0
4,2,713619,249586,1371705,74302,8726,686097,0
4,-1,640445,219148,1191179,65798,7175,595555,0
4,-1,639858,219155,1304472,65735,7867,652277,0
4,-1,645569,219788,1248514,66096,8705,624240,0
4,-1,638169,219259,1484769,65772,9167,742435,0
4,-1,643694,219163,1168365,65855,7842,584222,0
4,2,712971,248306,1308641,73738,8847,654085,0
4,-1,644425,220951,1374677,66604,8304,687318,0
4,-1,643635,219653,1391631,65726,9095,695860,0
4,-1,643263,219261,1166895,65612,6815,583497,0
4,-1,642766,221311,1283059,66645,8150,641373,0
4,-1,636738,218734,1249631,65537,7604,624866,0
4,-1,638176,218710,1202767,65556,8208,601341,0
4,2,710790,250169,1427055,74144,8975,713489,0
4,-1,639051,218608,1199268,65514,7636,599691,0
4,-1,641820,219324,1237116,65774,8961,618490,0
4,-1,642823,219726,1333529,65944,7317,666820,0
4,-1,643940,219833,1381334,65872,7552,690610,0
4,-1,663003,223854,1418006,69075,7816,708951,0
4,-1,639022,219029,1348273,65726,6711,674136,0
4,2,712145,249319,1329986,74727,9301,664991,0
4,-1,638672,218663,1110343,65564,6644,555136,0
4,-1,643710,220080,1242643,66188,6628,621177,0
4,-1,631457,219207,1247209,65216,6511,623647,0
4,2,709260,248226,1451315,74139,9311,725538,0
4,-1,635146,219156,1269502,65208,7630,634488,0
4,-1,633487,218653,1250972,65108,7728,625280,0
4,-1,639610,218797,1435280,65266,7968,717518,0
4,2,713814,249544,1319264,74739,7948,659632,0
4,-1,639347,220422,1242370,65998,7069,621137,0
4,-1,657154,222979,1450675,69309,8810,725462,0
4,-1,639031,220282,1340899,66545,8267,670342,0
4,-1,638676,218771,1250912,66142,7631,625459,0
4,-1,637659,218530,1315054,66058,7870,657558,0
4,2,705646,247978,1510929,73832,9081,755493,0
4,-1,658243,222927,1402275,69273,9206,700975,0
4,-1,640406,218526,1320817,65992,7153,660330,0
4,-1,640220,219202,1191612,66235,7269,595758,0
4,-1,641240,220272,1184791,66884,8277,592348,0
4,-1,644488,220685,1227279,66983,7539,613599,0
4,2,714753,249466,1429365,74532,9544,714688,0
4,-1,640463,219243,1206180,66238,6850,603167,0
4,-1,638463,218594,1219462,66053,7728,609710,0
4,-1,636653,218326,1172952,65969,7428,586475,0
4,2,734977,253991,1500389,77705,10636,750076,0
4,-1,648487,220834,1226144,67057,7616,613033,0
4,-1,640580,218934,1251900,66173,7920,625956,0
4,-1,639096,218317,1225667,65707,7853,612854,0
4,-1,642421,218836,1281406,66007,7458,640624,0
4,2,715463,249416,1551863,74563,10246,775654,0
4,-1,662793,223740,1296851,69368,8467,648423,0
4,-1,643099,219128,1181033,66062,6902,590577,0
4,-1,637202,219390,1264284,66175,7743,632136,0
4,-1,645486,220828,1286323,67076,7386,643107,0
4,2,710567,248120,1364954,73967,9383,682441,0
4,-1,645304,221438,1324206,67259,8322,662097,0
4,-1,636824,218691,1288947,66086,7810,644520,0
4,-1,642323,219909,1275943,66374,8238,637941,0
4,-1,643952,219982,1346393,66521,7902,673240,0
4,-1,650624,221228,1231187,67114,7985,615641,0
4,-1,643533,220331,1403648,66580,8313,701786,0
4,2,707477,248058,1501486,74070,9466,750481,0
5,-1,712417,241700,1450418,73940,8646,725221,0
5,-1,711045,242400,1404981,74164,8605,702524,0
5,2,706650,247500,1371953,73485,8376,685964,0
5,-1,639946,219057,1228204,65729,8136,614197,0
5,-1,639920,218993,1256522,65744,7204,628128,0
5,-1,655592,223430,1192084,69045,7838,595934,0
5,-1,640588,220682,1258971,66753,7018,629451,2
5,2,711502,248166,1448179,73734,8587,724085,0
5,-1,638466,218510,1240639,65691,7161,620296,0
5,-1,658830,223355,1293274,68915,8656,646618,0
5,-1,636573,219080,1177782,65765,6924,588892,0
5,-1,637355,217983,1266315,65470,8756,633008,0
5,2,707778,248467,1445623,73807,9598,722502,0
5,-1,644076,219521,1302917,66105,7809,651581,0
5,-1,637591,219410,1266712,65944,8156,633259,0
5,-1,646227,221390,1572162,66741,8576,786099,0
5,-1,639788,218739,1198860,65694,7486,599313,0
5,-1,639921,219508,1275556,66124,7666,637404,0
5,-1,663462,223688,1262992,69206,8095,631164,0
5,2,708750,247974,1473671,73816,9053,736878,0
5,-1,646714,221113,1241082,66891,8764,620530,0
5,-1,633363,219727,1277635,66375,6886,638831,0
5,-1,639920,220043,1248824,66289,7683,624424,0
5,-1,634672,218524,1238967,65747,7535,619257,0
5,2,728916,253621,1437791,77385,9371,718852,0
5,-1,639857,219129,1321426,65936,8223,660649,0
5,-1,656225,223339,1240441,69168,7791,620130,0
5,-1,637374,219419,1188734,65988,6818,594406,0
5,2,712557,248744,1308909,73936,8581,654501,0
5,-1,657910,224281,1262706,69343,7457,631391,0
5,-1,638065,219907,1314622,66126,7103,657369,0
5,-1,645427,221482,1336735,66832,7812,668435,0
5,2,708663,248775,1326834,74042,8286,663469,0
5,-1,639610,219700,1306575,66059,8210,653228,0
5,-1,641000,219614,1230428,66107,6703,615309,0
5,-1,640982,219106,1196694,65927,7432,598385,0
5,-1,636082,219580,1244585,66043,7396,622350,0
5,2,713059,249503,1443566,74143,8965,721837,0
5,-1,636705,219478,1257128,65946,6842,628669,0
5,-1,640338,219562,1536428,65958,8635,768260,0
5,-1,645961,220583,1355406,66540,8069,677761,0
5,-1,636949,219224,1282961,65924,7036,641540,0
5,2,714559,249717,1472985,74225,9970,736460,0
5,-1,661061,223468,1225941,69015,7567,612957,0
5,-1,638911,219580,1230325,66005,7356,615223,0
5,-1,640768,219119,1193492,65742,6839,596778,0
5,-1,641667,220011,1279975,66026,7011,640034,0
5,2,709144,248957,1412007,73864,8919,706039,0
5,-1,661031,224113,1230923,69163,7898,615413,0
5,-1,667013,225041,1282223,69513,7935,641045,0
5,-1,649297,221885,1217953,66775,8683,608982,0
5,2,718946,250874,1403503,74714,10037,701844,0
5,-1,640725,220934,1331358,66291,8640,665392,0
5,-1,665011,225393,1268428,69517,8867,634207,0
5,-1,640691,219852,1271026,65983,7824,635275,0
5,-1,665994,224844,1242631,69328,8798,620954,0
5,2,716618,250656,1332049,74729,9355,665878,0
5,-1,640894,219446,1291417,65880,8095,645717,0
5,-1,640585,219363,1222004,65871,7311,611050,0
5,-1,647020,220680,1199931,66556,8130,600101,0
5,-1,646388,221156,1272102,66641,7554,636104,0
5,-1,642169,219158,1229690,65886,8601,614821,0
5,2,710949,247897,1339525,73521,9648,669750,0
5,-1,642667,220494,1276768,66235,7822,638264,0
5,-1,649160,222308,1315851,66907,8777,657965,0
5,-1,645563,219913,1294243,65867,8132,647177,0
5,-1,661937,225399,1312732,69449,9089,656302,0
5,-1,640602,219332,1340062,65730,7498,670068,0
5,-1,642116,219044,1126974,65725,7508,563543,0
5,2,704793,247986,1460608,73184,8871,730286,0
5,-1,639738,219244,1326365,65771,7766,663221,0
5,-1,643201,218890,1291654,65629,8223,645882,0
5,-1,643301,220447,1261255,66359,7051,630690,0
5,-1,645689,220983,1197198,66691,6897,598788,0
5,-1,641091,219043,1372289,65715,7520,686108,0
5,2,713146,250057,1430595,75056,9436,715234,0
5,-1,638052,218519,1268825,65501,7737,634442,0
5,-1,648745,220606,1143886,66409,7483,571805,0
5,-1,642308,219193,1344829,65782,6826,672408,0
5,-1,630050,219071,1227523,65172,6490,613788,0
5,2,712366,248368,1430922,74204,9721,715426,0
5,-1,637492,220920,1279645,66058,8127,639654,0
5,-1,633146,218875,1190447,65106,7565,595228,0
5,2,712941,249459,1234521,74767,9046,617233,0
5,-1,637724,218322,1231906,65109,7754,615636,0
5,-1,634516,219022,1259658,65354,7238,629879,0
5,-1,638157,218232,1250942,65873,7905,625474,0
5,-1,656510,223658,1472109,69527,9849,736019,0
5,-1,657109,222741,1313049,69183,8704,656399,0
5,-1,640429,219487,1319237,66363,7748,659668,0
5,2,736425,253059,1514872,77384,10873,757478,0
5,-1,638830,218707,1258692,66035,7683,629521,0
5,-1,640536,218841,1295445,66111,8316,647710,0
5,-1,639386,219314,1174299,66252,7146,587101,0
5,-1,638829,220109,1249866,66548,7453,624945,0
5,-1,639826,219175,1294258,66248,7695,647147,0
5,2,713089,249142,1415081,74501,8869,707565,0
5,-1,639054,218977,1283099,66216,7332,641516,0
5,-1,640576,219331,1297064,66250,7510,648537,0
5,-1,645383,219397,1327930,66473,7854,663851,0
5,2,712899,248606,1517412,74128,9651,758695,0
5,-1,642815,219143,1236183,66213,7112,618182,0
5,-1,642862,220274,1203388,66763,7293,601639,0
5,-1,641031,219565,1333821,66206,7695,666962,0
5,-1,645537,219505,1251552,66266,7313,625832,0
5,2,716124,250511,1483827,75088,10058,741405,0
5,-1,639625,218999,1329288,66047,8007,664636,0
5,-1,643163,219286,1251923,66136,7449,625976,0
5,-1,638649,220313,1194437,66666,7690,596901,0
5,-1,645095,221236,1214302,67294,8073,607140,0
5,2,716675,249301,1595107,74368,10122,797309,0
5,-1,646045,220548,1235411,66715,7977,617721,0
5,-1,660870,223856,1329239,69668,8689,664318,0
5,-1,648286,221897,1256186,67326,7842,628084,0
5,-1,646630,221642,1162172,67353,7611,581040,0
5,-1,647486,220391,1299843,66656,8298,649785,0
5,-1,641189,219940,1392507,66495,8459,695938,0
5,2,709998,247760,1416065,73965,8712,707958,0
6,-1,689576,237184,1399912,70724,7767,698842,0
6,-1,691593,237674,1402633,70805,7822,701270,0
6,2,709174,248348,1499350,73780,9365,749664,0
6,-1,637466,218171,1194290,65507,7257,597138,0
6,-1,638880,218966,1293341,65702,7496,646669,0
6,-1,632652,218545,1119696,65666,6756,559837,0
6,2,709431,248157,1366624,73752,9154,683313,0
6,-1,636112,217974,1246457,65496,6889,623240,0
6,-1,635246,219793,1145620,66090,6815,572815,2
6,-1,638323,218457,1284230,65600,7206,642083,0
6,-1,636830,218534,1219176,65713,6866,609720,0
6,-1,638063,218594,1311741,65811,7892,654915,0
6,2,712518,249221,1389398,74017,9726,694672,0
6,-1,661216,223356,1296162,69074,7501,647851,0
6,-1,640595,221291,1320788,66815,8861,660295,0
6,-1,645395,220654,1171906,66240,7602,585705,0
6,-1,663977,224098,1285803,69233,8589,642854,0
6,-1,637598,218448,1289874,65734,7610,644946,0
6,-1,641916,219364,1302637,66068,7946,651192,0
6,2,709223,249455,1427013,74508,9450,713572,0
6,-1,645264,219844,1323363,66366,8468,661663,0
6,-1,636700,218754,1160581,65858,6083,580349,0
6,-1,658396,223987,1323411,69380,9036,661096,0
6,2,706917,248888,1591005,74082,10678,794986,0
6,-1,639404,220728,1323455,66700,8208,661606,0
6,-1,639130,219142,1251773,65990,7117,625913,0
6,-1,637681,219388,1269528,66006,6928,634825,0
6,-1,637135,219109,1300665,65844,6753,650356,0
6,2,713908,249560,1423448,74266,9193,711755,0
6,-1,637238,219731,1269652,65978,7714,634864,0
6,-1,642718,221519,1455259,66932,8591,727679,0
6,-1,639489,219716,1289546,66031,6850,644826,0
6,2,709285,248911,1415028,73915,8800,707490,0
6,-1,637938,219387,1384784,65923,7124,692438,0
6,-1,641772,220204,1278401,66187,6875,639266,0
6,-1,646697,221699,1299869,67081,8511,649895,0
6,-1,637496,220674,1271017,66567,7323,635613,0
6,2,711698,248493,1350241,73789,8627,675133,0
6,-1,657710,223641,1241636,69143,7755,620791,0
6,-1,640497,219885,1216575,66117,6575,608351,0
6,-1,641277,219157,1158118,65825,7031,578984,0
6,-1,642010,219209,1190172,65886,7358,595138,0
6,2,711543,250353,1449582,74351,10239,724857,0
6,-1,641431,219818,1312811,66126,7619,656188,0
6,-1,637603,219380,1287390,65895,7179,643746,0
6,-1,640123,219405,1164773,65806,7114,582444,0
6,-1,639113,219642,1231383,65914,6540,615759,0
6,2,710043,249581,1433526,74269,9091,716815,0
6,-1,640501,220223,1233230,66092,7162,616654,0
6,-1,645344,220324,1191507,66226,7804,595671,0
6,-1,646500,220449,1256682,66067,8816,628447,0
6,2,714985,248973,1716359,73923,11300,858149,0
6,-1,639960,220667,1331667,66158,8992,665811,0
6,-1,641396,219593,1206169,65759,7555,603083,0
6,-1,647399,222272,1226202,67089,7695,613121,0
6,-1,646817,220961,1333172,66333,8616,666242,0
6,2,733118,253499,1414686,77169,10327,707408,0
6,-1,647740,221992,1278855,67021,7739,639400,0
6,-1,639561,219251,1327211,65762,8006,663638,0
6,-1,644573,219659,1164749,66017,8556,582436,0
6,-1,640908,219407,1168528,65855,7495,584326,0
6,-1,643673,219964,1195879,66121,7103,597986,0
6,2,713045,249212,1389300,73999,8825,694630,0
6,-1,638900,219102,1138587,65765,7381,569450,0
6,-1,643058,219947,1294111,65856,8750,647054,0
6,-1,646027,220552,1291632,66275,8179,645882,0
6,-1,641436,219279,1160808,65663,7470,580053,0
6,-1,637651,218927,1269106,65672,7051,634599,0
6,-1,641054,218712,1209769,65548,8137,604841,0
6,2,705134,248500,1479632,73339,9648,739331,0
6,-1,640946,219255,1172634,65735,7285,586349,0
6,-1,647710,221051,1227328,66620,7929,613579,0
6,-1,662889,224158,1359112,69178,8049,679090,0
6,-1,688863,232988,1341793,71757,8069,670890,0
6,-1,641214,218747,1185307,65513,7248,592636,0
6,2,730490,253156,1501090,77561,10854,750371,0
6,-1,638377,219016,1265032,65657,7776,632677,0
6,-1,641814,218765,1125976,65634,7132,562992,0
6,-1,641405,218843,1310457,65616,7026,655226,0
6,-1,644939,218407,1348565,65388,6861,674348,0
6,2,711666,248493,1351445,74126,9301,675674,0
6,-1,654136,223736,1383283,68536,9595,691391,0
6,-1,638605,219896,1257085,65506,7442,628534,0
6,2,710683,248547,1310998,74452,8596,655414,0
6,-1,657299,223425,1390535,68572,9059,695183,0
6,-1,644177,221505,1195921,66441,7276,597939,0
6,-1,638552,218981,1284139,66210,8129,642101,0
6,-1,646454,220277,1343139,66821,8690,671505,0
6,-1,638310,219381,1279172,66329,8056,639524,0
6,-1,641266,218644,1278204,66029,8155,639094,0
6,2,716694,248831,1381463,74194,9746,690714,0
6,-1,643225,220299,1391413,66767,8607,694908,0
6,-1,639622,218752,1215854,66134,7893,607948,0
6,-1,643730,219104,1252871,66213,8742,626444,0
6,-1,638779,220113,1218927,66752,7679,609404,0
6,-1,638036,218583,1262609,66036,7148,631273,0
6,2,720341,250924,1359598,75336,9353,679765,0
6,-1,644327,220472,1216584,66863,7898,608335,0
6,-1,641543,219788,1204397,66654,7295,602149,0
6,-1,643927,219298,1357976,66291,8310,678934,0
6,2,713416,250020,1424182,74633,9969,712103,0
6,-1,641287,218939,1264001,66172,7268,631986,0
6,-1,638558,218675,1181165,66063,6988,590457,0
6,-1,641638,220188,1299520,66598,7920,649867,0
6,-1,641762,219551,1293240,66198,7172,646653,0
6,2,719248,249559,1501252,74597,10477,750990,0
6,-1,642243,219936,1310984,66523,8226,655538,0
6,-1,642397,219591,1262325,66256,7432,631221,0
6,-1,635977,219111,1316781,66085,8058,658299,0
6,2,712869,248800,1349527,74161,9788,674824,0
6,-1,665054,224606,1356317,69806,8711,678152,0
6,-1,646391,220829,1200447,66993,7771,600209,0
6,-1,638068,219375,1244352,66584,7968,622191,0
6,-1,640523,219520,1198019,66319,7198,599063,0
6,-1,664600,224752,1281765,69883,9366,640775,0
6,-1,645767,219784,1200435,66342,8047,600202,0
6,-1,640804,220051,1275209,66526,8591,637563,0
6,2,709592,248083,1292611,74140,9664,646049,0
7,-1,687051,236537,1397198,70483,8194,698590,0
7,-1,690261,237628,1282804,70845,7196,641322,0
7,2,730672,252881,1443221,77072,9724,721592,0
7,-1,637160,218567,1280895,65687,8142,640459,0
7,-1,637031,218310,1197819,65438,7142,598907,0
7,-1,636069,218750,1130988,65694,7401,565423,0
7,2,708302,248076,1447303,73755,9578,723595,0
7,-1,638018,218583,1269875,65709,7206,634965,0
7,-1,636412,218933,1254650,65825,7190,627346,2
7,-1,637420,218931,1233653,65790,7277,616803,0
7,-1,634673,218148,1316488,65539,7466,658277,0
7,-1,639496,219668,1495927,66124,8336,748085,0
7,2,713705,248918,1373626,73862,9773,686777,0
7,-1,641298,219015,1321232,65819,7929,660453,0
7,-1,662100,223865,1192058,69157,8191,595469,0
7,-1,640779,219864,1313079,65981,7908,656538,0
7,-1,642251,220059,1275885,66121,7344,637895,0
7,-1,639388,219381,1191590,66079,7435,595795,0
7,-1,640172,218510,1273676,65703,7308,636619,0
7,2,707035,248299,1331262,73972,9482,665640,0
7,-1,643393,219538,1177273,66127,7793,588191,0
7,-1,644494,218586,1283848,65774,7093,641936,0
7,-1,635594,219209,1325275,65905,7946,662582,0
7,2,710062,249993,1419934,74625,8559,709765,0
7,-1,635823,219162,1213012,65990,7760,606123,0
7,-1,644544,221540,1297214,67037,8008,648707,0
7,-1,635332,219215,1193129,65996,6414,596750,0
7,-1,639356,220328,1279589,66276,6859,639843,0
7,2,709172,248041,1417879,73721,8726,708975,0
7,-1,636573,219664,1184701,66076,7083,592396,0
7,-1,662906,224236,1247696,69275,8929,623831,0
7,-1,658720,223958,1276729,69251,7987,638296,0
7,2,708497,248891,1597543,73984,10132,798825,0
7,-1,643586,221436,1338593,66921,8584,669323,0
7,-1,640172,219351,1261221,65985,7240,630518,0
7,-1,638182,218606,1183241,65769,7381,591669,0
7,-1,646569,220414,1255982,66320,7594,628030,0
7,2,709076,248718,1278131,73756,7876,639153,0
7,-1,639844,220082,1193626,66206,7105,596873,0
7,-1,637733,219298,1436562,65825,8441,717830,0
7,-1,643454,219987,1210389,66147,7106,605062,0
7,-1,644030,220756,1288942,66645,7538,644539,0
7,2,711102,249772,1439115,74034,9611,719596,0
7,-1,638249,218915,1194865,65765,6557,597485,0
7,-1,641769,221682,1492200,66867,8407,746036,0
7,-1,660737,223960,1346311,69166,7365,672801,0
7,-1,641726,219169,1269730,65759,7675,634931,0
7,2,708223,248306,1299632,73774,8263,649853,0
7,-1,638794,219042,1128496,65684,7689,564367,0
7,-1,649199,221314,1271747,66773,7878,635358,0
7,-1,643405,219864,1355753,65843,8749,677847,0
7,-1,641134,220936,1542751,66296,10767,771365,0
7,2,739506,257792,1392477,76379,9761,696271,0
7,-1,644698,221264,1213819,66372,7878,607271,0
7,-1,663563,225327,1201052,69582,8384,600568,0
7,-1,643059,219567,1183466,65876,7831,591567,0
7,2,731947,253034,1333305,77030,10173,666621,0
7,-1,661458,224172,1233628,69256,8465,616743,0
7,-1,642337,220392,1350409,66376,8111,675239,0
7,-1,641108,219530,1429334,66007,7659,714723,0
7,-1,642653,219510,1142576,65902,7548,571323,0
7,2,708879,248132,1396795,73603,8814,698287,0
7,-1,640564,219088,1253408,65802,7688,626747,0
7,-1,640600,219137,1321601,65757,7644,660699,0
7,-1,642021,219752,1466729,65837,9029,733176,0
7,-1,642859,218673,1279459,65366,8079,639765,0
7,-1,640844,219773,1170592,65819,6778,585349,0
7,-1,644369,221290,1283907,66709,8418,642071,0
7,2,707100,247559,1427004,73052,9767,713531,0
7,-1,648514,222040,1198171,66963,7487,598934,0
7,-1,643436,220423,1336333,66354,7833,668070,0
7,-1,642807,219197,1256194,65768,7338,628156,0
7,-1,638130,219055,1285079,65733,7662,642559,0
7,-1,639675,219042,1292741,65718,7338,646393,0
7,-1,642122,219372,1297117,65850,7335,648559,0
7,2,705723,248084,1508390,74024,10291,754025,0
7,-1,645598,219433,1290057,65835,8111,644979,0
7,-1,642028,219095,1206718,65689,7404,603338,0
7,-1,662563,223717,1345276,69000,8044,672550,0
7,2,730080,252560,1474437,77345,10496,737192,0
7,-1,644025,218995,1174086,65629,6389,587030,0
7,-1,634019,219168,1263361,65251,7785,631548,0
7,-1,635659,219098,1252104,65238,7331,626009,0
7,2,711733,248170,1435626,74186,8722,717782,0
7,-1,638833,219722,1475061,65592,7928,737187,0
7,-1,636719,218952,1265943,65313,7354,632998,0
7,-1,636861,218661,1275349,66086,8397,637713,0
7,-1,642987,219553,1132523,66397,8281,566285,0
7,-1,641139,220585,1241066,66908,8056,620386,0
7,-1,646417,221237,1249745,67178,7625,624769,0
7,2,714314,248552,1634020,74094,10533,816988,0
7,-1,637781,218874,1363527,66115,8256,681220,0
7,-1,642490,219531,1225170,66363,7844,612448,0
7,-1,639728,218282,1320647,65917,8212,660360,0
7,-1,636909,218395,1327501,65969,8469,663679,0
7,2,716859,250728,1313383,74982,9891,656690,0
7,-1,637580,219244,1285465,66219,7751,642739,0
7,-1,639118,219119,1355892,66143,7322,677906,0
7,-1,639683,219345,1286290,66328,7596,643173,0
7,-1,642782,219381,1299733,66268,7806,649871,0
7,2,713305,249346,1496514,74370,9780,748022,0
7,-1,642599,218564,1217507,66020,6848,608748,0
7,-1,640751,219594,1266371,66346,7253,633152,0
7,-1,640189,219032,1342687,66094,8210,671216,0
7,-1,639791,218105,1233442,65798,7676,616763,0
7,2,720246,251053,1455667,75395,10795,727743,0
7,-1,645359,219485,1404418,66225,8455,702304,0
7,-1,663457,223853,1325744,69383,8083,662821,0
7,-1,644177,217622,1290891,65598,7704,645444,0
7,2,714406,249252,1368327,74321,9925,684297,0
7,-1,642134,219771,1200529,66479,7487,600293,0
7,-1,644185,220369,1229738,66601,7413,614836,0
7,-1,646445,219696,1234126,66489,7580,617083,0
7,-1,639370,219231,1272970,66215,8456,636433,0
7,-1,644676,219742,1223073,66424,8118,611497,0
7,-1,645996,220112,1361898,66566,8688,680892,0
7,-1,643564,220710,1291212,66752,8343,645571,0
7,2,710896,247887,1298773,74020,10126,649186,0
8,-1,698353,239008,1462048,71494,8666,730651,0
8,-1,690388,238007,1366367,71007,7818,683120,0
8,2,709045,248060,1358514,73601,8849,679243,0
8,-1,637592,218478,1180333,65686,6606,590028,0
8,-1,659732,223666,1318477,69014,8624,659207,0
8,2,722660,251603,1408910,76661,9522,704320,0
8,-1,664860,228918,1292871,68996,8789,646390,0
8,-1,638791,219163,1222776,65820,7135,611397,0
8,-1,635807,218936,1352277,65813,7451,676080,0
8,-1,635044,218388,1191981,65592,7442,596012,2
8,-1,635496,218737,1259241,65735,7348,629621,0
8,2,715735,250891,1574327,74816,10614,787165,0
8,-1,639190,218772,1279919,65836,8815,640175,0
8,-1,643911,220225,1262754,66273,7480,631341,0
8,-1,642182,219196,1198067,65845,7900,599066,0
8,-1,641279,219607,1339948,65853,7911,669856,0
8,-1,642736,220564,1442910,66492,8145,721422,0
8,-1,637751,219207,1275620,65932,7934,637788,0
8,2,710524,249979,1388526,74727,9968,694061,0
8,-1,645687,221485,1296455,67076,7683,648178,0
8,-1,641088,218989,1270901,65919,8104,635442,0
8,-1,647338,219915,1279541,66266,7431,639743,0
8,-1,634852,218987,1273864,65943,7922,636957,0
8,2,705826,249150,1314088,74137,8448,657121,0
8,-1,639931,219942,1199806,66227,7408,599949,0
8,-1,661046,223939,1243023,69334,8267,621571,0
8,-1,635116,218949,1314235,65880,7982,657153,0
8,-1,633913,218613,1206216,65628,6891,603089,0
8,2,710455,248713,1329410,73956,8399,664707,0
8,-1,634831,219325,1397309,66004,8051,698570,0
8,-1,641185,219661,1292701,66077,7714,646404,0
8,-1,639152,219593,1344918,66051,7406,672516,0
8,2,711436,249806,1701170,74505,10489,850197,0
8,-1,657793,223827,1258028,69227,8215,628821,0
8,-1,642643,220146,1273634,66225,6929,636883,0
8,-1,639625,219501,1195193,65924,7649,597643,0
8,-1,647881,221153,1335344,66841,8446,667713,0
8,2,709583,249035,1317798,73986,8294,658905,0
8,-1,639842,220271,1310553,66409,6973,655193,0
8,-1,644645,221869,1296646,67121,7233,648386,0
8,-1,639601,218972,1132773,65819,6581,566435,0
8,-1,660187,223773,1273179,69203,8125,636580,0
8,2,731287,254549,1389869,77478,10476,694881,0
8,-1,640094,219424,1235302,66013,6737,617696,0
8,-1,644412,220325,1233117,66173,7311,616607,0
8,-1,638061,219242,1389470,65762,7361,694859,0
8,-1,644333,220443,1176076,66162,7961,588055,0
8,2,709549,249086,1410558,74046,9710,705327,0
8,-1,640278,219787,1243733,65962,7427,621915,0
8,-1,645718,220418,1211484,66307,7252,605774,0
8,-1,644699,220001,1322899,66147,8284,661541,0
8,2,713434,249273,1437821,74019,9677,718947,0
8,-1,638632,219755,1207076,65848,8088,603566,0
8,-1,640048,219905,1295547,65900,8350,647673,0
8,-1,645137,221297,1383643,66675,7554,691880,0
8,-1,643445,219989,1335652,66130,8591,667822,0
8,2,706946,247583,1426403,73394,8569,713197,0
8,-1,641452,219207,1403456,65735,9012,701671,0
8,-1,639594,219091,1241136,65751,8273,620526,0
8,-1,642571,219167,1292481,65828,8240,646298,0
8,-1,638783,219143,1324282,65777,7579,662184,0
8,2,706917,247688,1296424,73550,8584,648221,0
8,-1,638598,218745,1220547,65798,8663,609635,0
8,-1,663258,223677,1387072,69099,8461,693511,0
8,-1,640242,219274,1361531,65745,9630,680856,0
8,-1,643017,219268,1212034,65675,7721,606060,0
8,-1,639780,219398,1173114,65737,7185,586609,0
8,-1,637638,219122,1274116,65722,7631,637089,0
8,2,708496,248365,1425764,73402,9342,712897,0
8,-1,640047,219084,1335569,65723,7684,667820,0
8,-1,640548,219574,1300989,65873,7513,650393,0
8,-1,641084,218910,1191125,65619,6735,595622,0
8,-1,637760,218530,1260215,65514,8077,630129,0
8,-1,640965,219188,1262460,65768,7718,631209,0
8,-1,645894,221154,1197713,66599,7364,598864,0
8,2,736706,253325,1563830,77642,10651,781850,0
8,-1,649341,221441,1192250,66681,7885,596050,0
8,-1,647304,221579,1151144,66825,7129,575528,0
8,-1,641419,219532,1208461,66072,6459,604245,0
8,2,712567,249157,1497664,74490,9007,748789,0
8,-1,668107,223795,1366811,68965,7945,683357,0
8,-1,637719,219766,1589787,65438,8267,794615,0
8,-1,634757,219051,1242861,65221,7408,621400,0
8,2,713042,249779,1287268,74954,8317,643634,0
8,-1,638351,218973,1322646,65320,7290,661232,0
8,-1,634551,218151,1168433,65072,6490,584287,0
8,-1,639784,219237,1180293,66328,7851,590072,0
8,-1,640492,218455,1335293,65921,7857,667641,0
8,-1,637230,219137,1237107,66206,8023,618547,0
8,-1,642573,220567,1169325,66917,7062,584616,0
8,2,715810,248693,1414665,74181,9889,707204,0
8,-1,639859,218916,1359556,66116,8872,679753,0
8,-1,637586,218215,1202178,65847,7561,600940,0
8,-1,645166,220582,1196836,67009,7687,598418,0
8,-1,656102,223398,1397394,69432,9313,698610,0
8,2,712384,249435,1441423,74556,10238,720719,0
8,-1,660506,223382,1345962,69433,8378,672897,0
8,-1,646117,220849,1238308,66963,7521,619177,0
8,-1,637107,218790,1172127,66142,7174,586077,0
8,-1,662396,223472,1332226,69374,8788,666129,0
8,2,713414,248982,1391528,74258,9521,695800,0
8,-1,643977,219428,1226267,66341,7440,613131,0
8,-1,636402,218254,1201056,65849,7014,600527,0
8,-1,639273,219189,1309211,66079,7820,654655,0
8,-1,644701,220398,1266968,66918,8704,633693,0
8,2,712208,248798,1440962,74274,9508,720450,0
8,-1,641914,218632,1350465,65878,7976,675274,0
8,-1,641353,219023,1187422,65995,6988,593832,0
8,-1,650252,220651,1245153,66791,7947,622502,0
8,2,715754,249222,1356687,74300,8988,678133,0
8,-1,642278,220024,1319989,66513,7940,659984,0
8,-1,641601,219480,1287004,66306,8392,643590,0
8,-1,645925,219813,1323516,66557,7854,661761,0
8,-1,643984,220077,1241853,66593,8189,620919,0
8,-1,644375,220089,1225728,66548,8013,612810,0
8,-1,651096,222237,1311104,67511,8329,655423,0
8,2,713653,250421,1475755,75288,10535,737913,0
8,-1,648134,221774,1193637,67322,8158,596845,0
9,-1,692461,237054,1350156,70615,8476,675092,0
9,-1,688557,237333,1340439,70739,8236,670182,0
9,2,713127,249336,1295799,74039,8845,647879,0
9,-1,637434,218360,1225780,65638,7647,612861,0
9,-1,641010,218525,1173110,65582,7498,586599,0
9,2,711827,250066,1491770,74700,9685,745775,0
9,-1,634034,218407,1123084,65616,6708,561358,0
9,-1,657365,222791,1291318,68816,8512,645514,0
9,-1,644663,220904,1299482,66676,7930,649618,0
9,-1,634744,218369,1293035,65623,7500,646457,0
9,-1,640168,220982,1336899,66819,8085,668406,2
9,2,708824,248686,1427369,73832,9437,713616,0
9,-1,644129,221514,1343533,66967,8347,671728,0
9,-1,644636,220574,1332151,66604,8263,665931,0
9,-1,643660,219382,1367690,65868,7549,683763,0
9,-1,645526,221517,1363783,66836,8662,681212,0
9,-1,639291,218802,1245686,65688,7663,622826,0
9,-1,644076,218585,1267559,65760,7224,633731,0
9,2,730494,253360,1370378,77379,9824,685172,0
9,-1,639047,219455,1187507,66110,7193,593705,0
9,-1,644195,220792,1413764,66827,8559,706762,0
9,-1,646328,219658,1232216,66156,7098,616090,0
9,-1,636176,219464,1282550,66096,8423,640962,0
9,2,704389,248718,1297616,73942,8615,648846,0
9,-1,632531,217586,1139073,65533,6566,569597,0
9,-1,638708,219203,1311657,66014,7715,655840,0
9,-1,656961,223092,1404575,69012,8057,702329,0
9,-1,656986,224010,1230277,69264,8115,615186,0
9,2,711355,248783,1289671,74031,7993,644889,0
9,-1,656654,224093,1220807,69301,7213,610359,0
9,-1,642610,220791,1333347,66617,7798,666738,0
9,-1,638544,219716,1307840,66041,7266,653528,0
9,2,709456,249874,1445580,74567,9235,722398,0
9,-1,637281,219612,1269341,66005,7847,634725,0
9,-1,640828,219922,1284731,66097,7071,642422,0
9,-1,642171,219972,1133856,66149,6300,567022,0
9,-1,662120,223417,1273228,69025,8372,636561,0
9,2,706248,247944,1313919,73511,8477,657013,0
9,-1,635348,218863,1178011,65805,6301,589069,0
9,-1,640940,219581,1305266,65944,7095,652505,0
9,-1,641420,219745,1176206,66122,6873,588157,0
9,-1,639857,219301,1307814,65973,7773,653925,0
9,2,712848,250314,1306624,74333,9650,653287,0
9,-1,636947,218986,1238065,65835,6751,619125,0
9,-1,643346,219448,1212163,65922,7235,606125,0
9,-1,639083,219538,1315783,65848,6957,657934,0
9,-1,640258,219303,1127860,65764,7523,563963,0
9,2,711072,249466,1388317,74218,9394,694064,0
9,-1,640070,219987,1257584,65911,7798,628837,0
9,-1,643782,219965,1308800,66142,8298,654370,0
9,-1,646105,220280,1203710,66073,7387,601870,0
9,2,711621,248855,1321905,73962,8806,660984,0
9,-1,639876,220404,1302158,66065,8587,651160,0
9,-1,648006,222352,1424159,66951,8559,712125,0
9,-1,643987,221034,1287594,66401,7594,643843,0
9,-1,642740,220256,1340665,66155,8447,670343,0
9,2,709364,248370,1424690,73674,8801,712384,0
9,-1,639818,219779,1330803,65972,8498,665389,0
9,-1,640728,219595,1218946,65985,7817,609462,0
9,-1,642092,219349,1215235,65977,7733,607610,0
9,-1,637968,218941,1274953,65629,7711,637540,0
9,-1,642591,220157,1193974,66478,7764,597029,0
9,2,710399,249025,1426254,73883,8881,713217,0
9,-1,644140,221059,1268265,66631,7510,634033,0
9,-1,649613,221292,1307502,66747,8477,653778,0
9,-1,642217,218821,1196027,65475,7587,598054,0
9,-1,639601,219565,1309266,65681,8174,654519,0
9,-1,639194,220146,1248362,66218,7477,624358,0
9,2,711855,250255,1424077,74126,9189,711989,0
9,-1,637390,218200,1255626,65356,6677,627853,0
9,-1,637440,218535,1284071,65432,7733,642082,0
9,-1,647773,220949,1237114,66513,8000,618609,0
9,-1,635253,218169,1295760,65334,8047,647823,0
9,-1,645474,220366,1154128,66322,7713,576967,0
9,-1,639984,218923,1275800,65636,7650,637903,0
9,2,710582,248083,1374522,74147,9924,687188,0
9,-1,643540,219245,1309845,65786,7270,654899,0
9,-1,661141,222978,1300912,68744,8557,650218,0
9,-1,638710,218844,1286543,65591,7192,643237,0
9,2,708216,247871,1440522,74036,9573,720302,0
9,-1,641842,218800,1260657,65521,6698,630279,0
9,-1,639701,220843,1373995,65998,7138,686731,0
9,-1,638629,220770,1189772,66066,7752,594668,0
9,2,713673,249162,1351346,74448,8724,675680,0
9,-1,662142,224546,1341035,69394,8907,670452,0
9,-1,636840,219261,1266719,65416,7475,633337,0
9,-1,642016,220736,1201225,66995,8208,600549,0
9,-1,640915,218979,1274793,66194,7957,637422,0
9,-1,637920,218185,1239176,65911,8406,619523,0
9,-1,638158,218837,1307840,66114,8202,653770,0
9,2,713270,248132,1457464,73931,9317,728781,0
9,-1,637539,218827,1291800,66129,8268,645849,0
9,-1,640801,218752,1306814,66070,7705,653443,0
9,-1,663655,223714,1345542,69528,8794,672614,0
9,-1,637586,219020,1249493,66202,8391,624723,0
9,2,712579,249427,1457431,74565,10410,728697,0
9,-1,638709,218970,1257665,66127,7325,628818,0
9,-1,640024,219043,1301636,66181,7990,650803,0
9,-1,659146,223555,1474837,69478,9891,737222,0
9,-1,642161,219292,1247410,66307,7402,623755,0
9,2,712007,249601,1337238,74449,8449,668689,0
9,-1,640200,218231,1372377,65916,8261,686210,0
9,-1,640946,219741,1223754,66418,7262,611878,0
9,-1,660306,223965,1446109,69474,10167,722751,0
9,-1,662573,223363,1419609,69385,9587,709793,0
9,2,713485,249775,1432183,74540,9616,715965,0
9,-1,642448,219799,1296624,66428,8667,647813,0
9,-1,640055,219111,1249137,66101,7584,624704,0
9,-1,643828,218717,1332189,65917,8799,666052,0
9,2,712674,248573,1447733,74150,8971,723809,0
9,-1,642855,220574,1327707,66775,7949,663882,0
9,-1,664560,224927,1465573,69917,9630,732751,0
9,-1,644213,219460,1285635,66400,8158,642934,0
9,-1,644052,220018,1256094,66553,8066,627509,0
9,-1,640360,219227,1223632,66172,7351,611821,0
9,-1,649675,221594,1214658,67026,7487,607352,0
9,2,706963,247815,1488957,74119,8924,744563,0
9,-1,646303,221126,1378417,67090,7763,689108,0
10,-1,690661,236858,1329259,70556,7748,664328,0
10,-1,698990,238838,1327777,71532,9274,663371,0
10,2,707653,248319,1301801,73892,9148,650444,0
10,-1,640358,219932,1251403,66370,8128,625171,0
10,-1,647441,221401,1236098,66672,8327,618128,0
10,2,709711,249401,1544150,74404,9136,772045,0
10,-1,633242,218526,1179840,65676,7749,589894,0
10,-1,634679,218473,1195646,65659,6798,597788,0
10,-1,659784,223236,1271118,69010,8109,635433,0
10,-1,634981,218285,1212213,65595,7228,606128,0
10,2,712606,248557,1327929,73925,9711,664005,0
10,-1,658801,223704,1317586,69162,9047,659053,0
10,-1,640083,219159,1307528,65948,7908,653725,0
10,-1,648666,222257,1312550,67070,7968,656384,2
10,-1,640865,218695,1192548,65615,7323,596210,0
10,-1,661745,224107,1410745,69158,8837,705117,0
10,-1,640940,219366,1270712,65906,7337,635359,0
10,2,711584,251150,1364006,75174,9800,681871,0
10,-1,650151,221665,1369270,66996,8295,684595,0
10,-1,641503,218942,1205048,65889,7362,602485,0
10,-1,639544,218786,1275966,65870,7983,638155,0
10,-1,646447,220657,1333715,66683,8441,666911,0
10,-1,635277,219327,1461214,66008,8809,730595,0
10,2,708526,250695,1421782,74883,9183,710852,0
10,-1,640193,220743,1196030,66702,7798,598075,0
10,-1,638234,219261,1271194,65968,7622,635646,0
10,-1,635525,219006,1319468,65905,7468,659598,0
10,-1,643118,219812,1278855,66062,7663,639480,0
10,2,710339,248657,1432911,73891,9031,716503,0
10,-1,642866,219244,1281671,65941,7650,640828,0
10,-1,638929,218790,1298150,65693,7128,649151,0
10,2,712117,250103,1411870,74603,8526,705840,0
10,-1,644445,220335,1284801,66411,8620,642198,0
10,-1,637584,220273,1260551,66297,7466,630338,0
10,-1,639075,219404,1238816,65997,6615,619455,0
10,-1,640059,219258,1210090,65905,6577,605100,0
10,2,708983,248465,1313062,73749,8874,656581,0
10,-1,642355,219289,1255070,65923,7966,627565,0
10,-1,640718,220346,1239849,66279,6972,619979,0
10,-1,640015,219761,1412185,66086,8571,706041,0
10,-1,639196,219290,1171143,65854,6624,585616,0
10,-1,638498,219382,1372933,65986,8135,686837,0
10,2,715182,251221,1440567,74807,10140,720125,0
10,-1,658098,223815,1265057,69225,7163,632479,0
10,-1,662002,223822,1380787,69213,7319,690308,0
10,-1,644931,220922,1308897,66585,7836,654511,0
10,-1,644606,220934,1182565,66519,7824,591353,0
10,2,716691,250206,1370727,74747,9692,685313,0
10,-1,638910,219940,1270558,65995,7709,635340,0
10,-1,668555,225563,1467914,69735,10278,734007,0
10,-1,645906,220525,1371000,66194,8754,685380,0
10,2,706971,248384,1305449,73787,8770,652771,0
10,-1,638283,220090,1393724,65955,9618,696675,0
10,-1,643128,220767,1283229,66240,8214,641655,0
10,-1,641608,220154,1302180,66078,7926,651072,0
10,-1,644036,219628,1192291,65967,7583,596135,0
10,2,711813,248778,1431851,73830,9683,715954,0
10,-1,664034,224381,1303394,69344,9180,651567,0
10,-1,638318,218788,1275674,65644,8014,637828,0
10,-1,642646,219445,1305827,65876,8232,652956,0
10,-1,644178,220251,1353421,66212,9327,675864,0
10,2,708702,248209,1298265,73652,8246,649120,0
10,-1,661648,223941,1177220,69189,7882,588575,0
10,-1,641735,220475,1196837,66215,6794,598404,0
10,-1,665454,224133,1241738,69132,8687,621109,0
10,-1,645413,219636,1304635,65707,8340,652357,0
10,-1,639538,219455,1221928,65690,8106,611077,0
10,-1,641106,218543,1313614,65512,7716,656809,0
10,2,704476,248168,1402654,73142,8778,701332,0
10,-1,638732,218800,1368669,65635,7412,684387,0
10,-1,662196,224675,1284584,69315,8307,642278,0
10,-1,642769,219486,1238645,65869,7720,619350,0
10,-1,645602,218796,1290821,65580,6748,645390,0
10,-1,640556,219036,1236073,65679,7593,617983,0
10,-1,641834,218637,1290247,65525,7734,645121,0
10,2,710159,248550,1464063,74311,9512,731995,0
10,-1,642040,218996,1350055,65663,7962,674922,0
10,-1,640976,218880,1199092,65694,7243,599521,0
10,-1,664534,223174,1341018,68863,8613,670433,0
10,2,708209,248459,1329853,74268,8814,664936,0
10,-1,642071,218665,1279664,65489,7008,639799,0
10,-1,632942,218524,1179401,64981,6932,589730,0
10,-1,635572,219514,1274679,65393,7693,637319,0
10,2,711014,247955,1364676,74071,8983,682282,0
10,-1,634680,218513,1200081,65011,6793,600061,0
10,-1,640118,220643,1186756,66039,7209,593367,0
10,-1,656796,223699,1332786,68672,8271,666442,0
10,-1,642177,219413,1358080,66301,8163,679104,0
10,-1,659591,223064,1307520,69336,8966,653691,0
10,-1,638521,219380,1199936,66273,7946,599954,0
10,2,714071,249476,1317822,74657,8418,658950,0
10,-1,634891,217898,1272348,65766,8249,636240,0
10,-1,647651,222174,1275503,67551,7635,637549,0
10,-1,640189,218931,1207009,66142,7539,603475,0
10,-1,646915,220052,1193764,66823,7492,596792,0
10,2,712422,249393,1466453,74568,10032,733226,0
10,-1,639029,219332,1305940,66285,7836,652899,0
10,-1,642017,219701,1189096,66379,7978,594603,0
10,-1,638047,218820,1180788,66100,8248,590420,0
10,-1,639841,218782,1321720,66138,7952,660850,0
10,2,734667,254893,1423947,77953,10046,711862,0
10,-1,638367,218440,1196399,65969,6548,598219,0
10,-1,636775,218545,1287051,65912,7043,643521,0
10,-1,642622,218544,1356477,65930,8954,677724,0
10,-1,642655,219817,1468336,66394,8457,733053,0
10,2,713755,250582,1433634,75044,9514,716797,0
10,-1,640332,219256,1424732,66098,8950,712571,0
10,-1,639800,219407,1293296,66109,8139,646689,0
10,2,712065,248911,1318062,74298,8875,658885,0
10,-1,648419,220562,1232621,66781,8434,615970,0
10,-1,637375,219042,1306276,66199,7668,653123,0
10,-1,640054,219406,1314409,66270,7664,657168,0
10,-1,651126,221868,1235110,67538,7420,617547,0
10,-1,644641,220666,1271013,66975,7778,635652,0
10,-1,663386,224747,1379709,69852,9370,689846,0
10,-1,645534,220318,1292098,66609,8007,646025,0
10,2,703243,247209,1414522,73944,9612,706831,0
10,-1,642190,219977,1435266,66510,8191,718408,0
11,-1,698596,240087,1402083,71932,8048,700823,0
11,-1,717126,242484,1330229,74234,9714,665078,0
11,2,711360,249937,1535157,74645,10172,767527,0
11,-1,637493,218842,1211001,65823,7737,605336,0
11,-1,636980,218295,1173447,65570,7252,586752,0
11,2,709089,249457,1410741,74388,8940,705298,0
11,-1,633399,219008,1189261,65747,7084,594688,0
11,-1,637596,218786,1266995,65753,7207,633488,0
11,-1,638269,218789,1169993,65782,7622,584966,0
11,2,718852,251150,1415508,75101,8845,707791,0
11,-1,656134,223426,1278738,69044,8509,639278,0
11,-1,638173,218608,1311482,65747,8083,655747,0
11,-1,638744,219284,1209332,65878,7423,604640,0
11,-1,664270,223991,1278605,69085,8712,639458,0
11,-1,637934,219799,1221075,66003,7561,610572,2
11,-1,640579,219861,1492722,65918,7971,746612,0
11,-1,640250,219192,1198280,65740,6878,598980,0
11,2,719598,250579,1397174,74981,9208,698593,0
11,-1,665151,224242,1256759,69446,8632,628286,0
11,-1,641725,219305,1166908,66063,7741,583378,0
11,-1,640761,219575,1217320,66148,7700,608637,0
11,-1,643518,219199,1195226,66024,7833,597572,0
11,-1,638849,219625,1275282,66155,7439,637591,0
11,2,711634,248517,1388209,73855,9429,694137,0
11,-1,634087,218652,1218071,65732,7724,609081,0
11,-1,638419,219323,1212944,65990,7691,606368,0
11,-1,634734,218604,1286521,65745,7529,643353,0
11,-1,639542,219014,1182478,65864,7092,591340,0
11,2,708891,248970,1247165,74078,8415,623635,0
11,-1,642018,219631,1310385,66050,6897,655242,0
11,-1,642383,220615,1265523,66379,7199,632811,0
11,2,728359,253319,1368082,77253,8722,683998,0
11,-1,640662,219664,1189102,66073,7571,594306,0
11,-1,638318,218757,1186438,65675,6810,593231,0
11,-1,643122,221429,1313522,66930,7413,656831,0
11,2,707472,248654,1392792,73868,8349,696433,0
11,-1,640588,219799,1238312,66127,7184,619213,0
11,-1,641013,219338,1197434,65950,7396,598759,0
11,-1,656850,223472,1243783,69074,7687,621864,0
11,-1,637062,219621,1242044,66012,7162,621003,0
11,-1,640065,219397,1194356,65989,6785,597199,0
11,2,714604,249659,1264581,74082,9593,632212,0
11,-1,642400,220586,1303550,66522,7835,651849,0
11,-1,642663,219929,1117659,66183,7126,558884,0
11,-1,641893,219786,1292648,65910,7303,646119,0
11,-1,637659,219160,1256330,65735,6211,628210,0
11,2,710364,248377,1389513,73745,8371,694801,0
11,-1,639642,219954,1228450,65975,7417,614246,0
11,-1,649831,221383,1294785,66755,7613,647459,0
11,-1,644925,219972,1256398,66126,8302,628453,0
11,2,709599,247851,1303144,73704,8870,651514,0
11,-1,645051,220505,1255162,66263,7209,627398,0
11,-1,661512,224863,1230407,69347,8663,615058,0
11,-1,642234,220675,1212460,66117,7132,606208,0
11,-1,640801,220227,1180641,66150,6994,590373,0
11,2,733127,253716,1472196,77185,9284,736089,0
11,-1,643524,219756,1309576,65993,7872,654785,0
11,-1,641390,219976,1374539,66118,8075,687266,0
11,-1,643876,221286,1264116,66837,8911,631951,0
11,-1,662321,224238,1256695,69244,8319,628366,0
11,2,727483,252966,1441717,77037,9606,720638,0
11,-1,644667,221065,1278477,66669,8072,639322,0
11,-1,641010,220077,1286559,66319,7682,643333,0
11,-1,644871,221202,1284550,66747,8079,642356,0
11,-1,643766,219533,1208789,65804,8138,604327,0
11,-1,648274,220797,1303143,66347,7689,651588,0
11,-1,640015,219774,1370053,65727,8375,684837,0
11,-1,641041,218984,1244083,65701,7543,622099,0
11,2,706247,248612,1506170,73329,8817,753086,0
11,-1,642743,219943,1245795,66217,7299,622958,0
11,-1,639311,219330,1263020,65824,7697,631331,0
11,-1,640692,218899,1246678,65638,7188,623380,0
11,-1,644314,218896,1373411,65667,8115,686794,0
11,-1,640679,219033,1209552,65711,7514,604523,0
11,-1,642240,220174,1422432,66066,7469,711223,0
11,2,707896,247919,1325840,74021,9745,662989,0
11,-1,642478,218848,1219998,65607,7669,609925,0
11,-1,641602,219369,1254311,65847,7596,627186,0
11,-1,644562,219705,1271511,65906,8165,635736,0
11,2,706818,247647,1312673,73959,8382,656404,0
11,-1,647726,221202,1190181,66611,6719,595130,0
11,-1,632928,218742,1154794,65132,7080,577398,0
11,-1,636598,220454,1222071,65872,7721,610980,0
11,2,711794,248027,1321502,74201,9061,660720,0
11,-1,634824,218780,1194297,65086,7110,597132,0
11,-1,635117,218783,1249052,65266,7386,624529,0
11,-1,638183,219746,1334332,65624,7283,667126,0
11,-1,661015,223581,1349224,69437,8946,674518,0
11,-1,638899,219223,1229725,66242,8565,614826,0
11,-1,638989,219078,1311160,66238,7840,655535,0
11,2,712518,248308,1468237,73985,8694,734153,0
11,-1,636257,218675,1364313,66071,8059,682129,0
11,-1,660984,224005,1377872,69621,8921,688855,0
11,-1,643279,219662,1248702,66372,7271,624378,0
11,2,717932,251544,1323346,75606,8829,661828,0
11,-1,663560,223210,1435800,69322,8864,717885,0
11,-1,641318,220341,1326826,66833,7569,663307,0
11,-1,641690,220097,1295662,66843,7934,647845,0
11,-1,642528,219009,1308705,66184,7403,654378,0
11,-1,639556,219065,1283430,66224,7466,641625,0
11,2,717566,249800,1310093,74513,9858,655047,0
11,-1,640282,219301,1183753,66230,7485,591919,0
11,-1,640113,219523,1207572,66280,6932,603796,0
11,-1,642641,219021,1281875,66085,9069,640765,0
11,2,710997,249411,1556946,74412,9581,778482,0
11,-1,642751,220163,1220833,66744,7390,610619,0
11,-1,640394,219241,1380883,66033,8267,690467,0
11,-1,648518,220614,1291321,66831,7825,645761,0
11,2,711840,248895,1353197,74250,9595,676567,0
11,-1,643139,219029,1277432,66106,8939,638611,0
11,-1,659129,224028,1434680,69671,9348,717290,0
11,-1,647781,221200,1230161,67058,8243,614968,0
11,-1,667794,225074,1387810,70114,8676,693867,0
11,-1,641721,219796,1341655,66439,8098,670833,0
11,-1,640887,219701,1301402,66317,8362,650764,0
11,-1,643998,219747,1274009,66382,7487,636974,0
11,2,707346,247433,1412150,74009,8868,705943,0
11,-1,641696,220222,1213225,66552,6689,606556,0
12,-1,715100,242460,1391855,74224,8507,695752,0
12,2,753455,264297,1549180,77968,9631,774622,0
12,-1,694449,237242,1247293,70696,8287,623529,0
12,-1,637535,218454,1187152,65643,7413,593398,0
12,-1,645491,221607,1320760,66778,7767,660399,0
12,2,705955,247661,1289750,73542,8415,644842,0
12,-1,640621,218019,1187834,65279,7152,593988,0
12,-1,639460,220126,1324853,66387,7123,662430,0
12,-1,637124,218777,1218718,65758,6627,609357,0
12,2,709486,248429,1450087,73823,8729,725074,0
12,-1,634432,218856,1278450,65707,7401,639209,0
12,-1,640749,219987,1320479,66362,8833,660190,0
12,-1,646674,221080,1270339,66765,8582,635126,0
12,-1,640315,219027,1217182,65769,7025,608629,0
12,-1,641934,220764,1326942,66441,8249,663238,0
12,-1,662014,224298,1251619,69300,8104,625709,0
12,2,736085,253617,1364794,77468,9725,682314,0
12,-1,643726,219404,1233239,66052,7196,616615,0
12,-1,639137,219255,1279551,66066,6840,639806,2
12,-1,641677,219301,1200194,66005,7940,600106,0
12,-1,641937,220136,1321644,66529,8205,660335,0
12,-1,643063,219231,1312606,65997,8093,656323,0
12,-1,635168,218871,1264102,65867,7442,632060,0
12,2,714778,249794,1425422,74540,9757,712784,0
12,-1,635755,218648,1112166,65803,7592,556050,0
12,-1,639766,219526,1401880,66120,7797,700861,0
12,-1,638201,220107,1223628,66243,6755,611879,0
12,-1,641812,220331,1309168,66401,7049,654642,0
12,2,714274,250381,1340853,74745,9094,670522,0
12,-1,643189,220713,1450761,66666,8417,725449,0
12,-1,637512,219062,1187881,65867,6940,593982,0
12,2,707634,248753,1239772,73966,8355,619933,0
12,-1,639379,219423,1389274,65966,9336,694474,0
12,-1,647139,221269,1378279,66873,8074,689244,0
12,-1,659818,224304,1225611,69349,7112,612836,0
12,2,712907,248703,1397717,73778,8958,698911,0
12,-1,657878,223516,1373195,69131,7671,686440,0
12,-1,647468,221092,1280163,66816,7669,640060,0
12,-1,636801,219788,1351530,66119,9012,675573,0
12,-1,636758,219760,1231865,66108,7372,615986,0
12,-1,645207,221435,1306230,66844,7897,653170,0
12,2,737097,255085,1394842,77629,10565,697275,0
12,-1,639102,219353,1202318,65933,7610,601210,0
12,-1,640785,219551,1180112,66043,7360,590035,0
12,-1,640635,219973,1310929,65956,7576,655585,0
12,-1,644537,221391,1280282,66794,7352,640042,0
12,2,713450,249701,1396143,74467,9943,698109,0
12,-1,642198,219814,1200850,65962,7123,600480,0
12,-1,667042,224772,1246405,69349,8324,623185,0
12,-1,645706,220663,1417012,66313,8793,708161,0
12,2,704221,246648,1282623,73240,8042,640912,0
12,-1,644678,219995,1321798,66047,8089,660867,0
12,-1,635883,219590,1238859,65748,7918,619361,0
12,-1,641237,220532,1342190,66158,8377,670945,0
12,-1,640024,220128,1371699,66045,8030,685880,0
12,2,709940,248739,1357620,73719,9346,678802,0
12,-1,664342,224298,1295056,69312,8047,647464,0
12,-1,643926,220513,1275359,66163,8174,637000,0
12,-1,636955,218943,1194530,65690,8216,596939,0
12,-1,641167,219198,1179326,65734,7212,589696,0
12,2,718664,250346,1371285,74501,9372,685577,0
12,-1,641539,220365,1276578,66166,7116,638332,0
12,-1,640968,218870,1320472,65708,8317,660281,0
12,-1,638733,219191,1305558,65781,7172,652798,0
12,-1,643020,219406,1310474,65775,7255,655167,0
12,-1,646839,220419,1203324,65978,7738,601692,0
12,-1,659884,224091,1242715,68907,8371,621302,0
12,2,703107,247959,1653374,73055,9561,826621,0
12,-1,647547,221565,1242112,66859,8072,621015,0
12,-1,638257,218657,1201539,65583,7255,600861,0
12,-1,640766,219119,1197386,65688,7459,598376,0
12,-1,642517,219367,1265755,65803,7769,632944,0
12,-1,642512,218734,1334548,65564,8688,667264,0
12,-1,663961,224193,1211302,69201,8547,605585,0
12,2,706757,247965,1425274,74062,9021,712629,0
12,-1,643518,220335,1282412,66336,7265,641197,0
12,-1,648304,221118,1197057,66582,6870,598528,0
12,-1,645399,221046,1142990,66555,6926,571351,0
12,-1,644950,219343,1281428,65822,7441,640739,0
12,2,705504,248566,1379497,74333,9267,689734,0
12,-1,662945,223539,1314372,68888,7670,657142,0
12,-1,634139,219724,1227702,65486,7762,613850,0
12,-1,640799,220638,1223882,65928,7172,611983,0
12,2,714131,249867,1317733,75002,8891,658854,0
12,-1,636145,219531,1301939,65325,7900,650991,0
12,-1,635137,218906,1326397,65221,7763,663317,0
12,-1,640372,219585,1176975,65562,6897,588434,0
12,-1,640964,219487,1265101,66318,8078,632609,0
12,-1,636758,218826,1142245,66096,7782,571047,0
12,2,712181,248227,1386994,74037,9340,693539,0
12,-1,637817,218688,1200799,66050,7323,600361,0
12,-1,636847,218674,1413409,66126,7983,706265,0
12,-1,639482,219150,1325037,66259,7815,662431,0
12,-1,645171,220788,1199407,66965,7336,599598,0
12,2,711683,249710,1348845,74757,8934,674478,0
12,-1,643700,218902,1363450,66188,8232,681700,0
12,-1,636859,218908,1375298,66075,7352,687642,0
12,-1,638433,218968,1204086,66177,7825,602068,0
12,-1,644722,219771,1166652,66477,7630,583359,0
12,-1,661907,223488,1228590,69474,7689,614300,0
12,2,719695,250808,1370199,75025,9607,684959,0
12,-1,649320,221526,1229415,67411,7564,614755,0
12,-1,639573,219137,1279749,66213,7846,639894,0
12,2,714294,248916,1436934,74259,9995,718459,0
12,-1,661525,223664,1359308,69376,9184,679634,0
12,-1,642566,218272,1204575,65817,7187,602345,0
12,-1,641317,219520,1594715,66189,9218,797238,0
12,-1,666193,223645,1436771,69335,9363,718314,0
12,2,708605,247832,1397337,73980,10249,698581,0
12,-1,645341,219500,1229543,66252,8845,614719,0
12,-1,641456,219830,1324911,66350,8589,662325,0
12,-1,671624,230955,1272698,70073,7602,636450,0
12,-1,645970,219558,1294920,66482,7874,647485,0
12,-1,643831,220070,1331457,66550,8338,665735,0
12,-1,640673,219888,1338882,66496,9138,669370,0
12,2,709687,248211,1409277,74338,9265,704637,0
12,-1,646712,221106,1190312,67072,7503,595192,0
12,-1,641135,219998,1275037,66450,7678,637499,0
12,-1,644480,220495,1238399,66577,8383,619220,0
13,-1,691005,237157,1256235,70740,7088,628358,0
13,2,760846,266974,1625257,78842,9869,812130,0
13,-1,693850,237309,1353527,70735,8480,676633,0
13,-1,636763,218867,1202774,65742,7472,601403,0
13,-1,660543,223788,1311924,69048,8232,655917,0
13,2,723610,252196,1457986,76714,9804,728697,0
13,-1,643313,219307,1325497,65801,8332,662592,0
13,-1,633165,218016,1239680,65470,6830,619890,0
13,-1,640832,220874,1350795,66685,7216,675229,0
13,2,707609,248089,1316982,73852,9056,658349,0
13,-1,646421,221017,1290369,66562,8013,645229,0
13,-1,633792,218023,1176846,65532,8115,588412,0
13,-1,661903,223847,1238240,69216,8894,618940,0
13,-1,639466,219044,1313809,65720,7704,656838,0
13,-1,643075,219444,1225296,65836,8344,612707,0
13,-1,640387,219506,1306740,65954,8053,653369,0
13,2,718065,250318,1458041,74922,9643,728949,0
13,-1,640236,218473,1225546,65659,6905,612820,0
13,-1,639657,218965,1181412,65926,7494,590705,0
13,-1,646926,221158,1435875,66944,7247,717917,2
13,-1,638955,219115,1203190,66018,7848,601493,0
13,-1,642823,219570,1301124,66141,7881,650486,0
13,-1,637120,219676,1285485,66189,7458,642639,0
13,2,710876,248835,1349768,74066,8659,674929,0
13,-1,633857,219147,1353335,65913,7237,676601,0
13,-1,638246,219342,1154193,66021,7000,577349,0
13,-1,641571,221723,1375222,67065,8421,687676,0
13,-1,640319,219432,1256848,65997,7496,628396,0
13,2,707690,249148,1417748,74091,9037,708923,0
13,-1,639253,219000,1123836,65816,6943,561935,0
13,-1,658062,223872,1413330,69247,8236,706690,0
13,2,707297,249150,1337870,74087,8491,668968,0
13,-1,658169,223212,1182438,68958,8182,590991,0
13,-1,662353,223583,1366968,69152,8214,683538,0
13,-1,638489,220067,1264004,66157,6516,632060,0
13,2,713304,249039,1430262,73939,9239,715170,0
13,-1,642411,220295,1606101,66306,9148,802985,0
13,-1,642556,219479,1245535,65968,7179,622859,0
13,-1,636235,220034,1174921,66144,6767,587512,0
13,-1,639834,220878,1468395,66643,8124,734253,0
13,-1,637299,218978,1192660,65876,6733,596336,0
13,2,717625,250001,1463097,74216,8708,731528,0
13,-1,642694,221525,1308683,66966,7840,654450,0
13,-1,645028,220723,1310208,66621,9277,654878,0
13,-1,642114,219289,1211447,65756,7400,605774,0
13,-1,661756,224559,1234526,69346,8001,617239,0
13,2,709860,248247,1405295,73729,9596,702553,0
13,-1,640767,219355,1321346,65773,7417,660703,0
13,-1,644528,220107,1268772,66046,7081,634436,0
13,-1,643021,220275,1338684,66135,8161,669378,0
13,2,707843,248266,1383088,73782,8611,691607,0
13,-1,666730,224983,1338016,69572,9320,669066,0
13,-1,646448,219531,1310012,65717,8398,654821,0
13,-1,643264,221242,1232990,66426,8373,616322,0
13,-1,646903,222215,1316227,67044,7935,658193,0
13,2,710951,248675,1442502,73675,9947,721143,0
13,-1,641198,219875,1187905,66092,7007,593959,0
13,-1,641264,219458,1137563,65829,7290,568668,0
13,-1,640142,219824,1126636,66027,7563,563229,0
13,-1,645915,221068,1408955,66654,8140,704548,0
13,2,709543,247950,1352485,73584,9485,676286,0
13,-1,640246,219496,1199053,65863,7146,599213,0
13,-1,643024,220330,1381322,66508,7984,690775,0
13,-1,643174,220255,1620031,66169,9388,810062,0
13,-1,642968,219323,1404962,65774,8116,702474,0
13,-1,643370,219180,1344930,65558,8305,672519,0
13,2,713193,248208,1298529,73568,7939,649254,0
13,-1,637272,219767,1193508,65778,7356,596666,0
13,-1,640648,218743,1131874,65550,7056,565958,0
13,-1,634915,217833,1312831,65219,7769,656461,0
13,-1,641999,220369,1264045,66309,7148,631882,0
13,-1,639079,219008,1253552,65645,6966,626818,0
13,-1,641526,218331,1369003,65445,8111,684574,0
13,-1,640302,219184,1188881,65771,7508,594351,0
13,2,707608,247609,1466489,73945,9289,733162,0
13,-1,639369,218930,1277162,65628,7106,638546,0
13,-1,638212,217594,1242723,65265,7324,621367,0
13,-1,639982,219174,1159066,65779,6683,579510,0
13,-1,642238,218719,1400035,65562,7508,699998,0
13,2,713127,249589,1383618,74624,10146,691807,0
13,-1,647112,219486,1234560,65781,7553,617250,0
13,-1,637501,220462,1173835,65890,6733,586842,0
13,-1,662043,227963,1288504,67797,7525,644271,0
13,2,711712,248620,1337148,74278,9113,668565,0
13,-1,659682,224319,1350297,68718,8430,675079,0
13,-1,640974,221212,1313103,66318,7605,656449,0
13,-1,661324,227115,1297764,67682,7188,648901,0
13,-1,641689,220122,1229091,66708,7974,614572,0
13,-1,642329,220464,1129869,66878,7988,564816,0
13,2,715893,249517,1357798,74425,9482,678934,0
13,-1,637754,219006,1291138,66207,7912,645546,0
13,-1,641583,219085,1326111,66165,8034,662730,0
13,-1,636600,218315,1438145,65878,8246,719441,0
13,-1,639735,218830,1204427,66102,7152,602187,0
13,2,718411,250926,1385719,75389,9761,692903,0
13,-1,640837,218501,1324205,66005,8098,662116,0
13,-1,641270,220750,1190573,67086,6689,595239,0
13,-1,638441,218944,1261031,66197,8335,630544,0
13,-1,645745,220710,1170750,67035,7257,585359,0
13,2,713544,249485,1418539,74385,9439,709378,0
13,-1,638640,218726,1153275,66136,6881,576632,0
13,-1,642252,219093,1255766,66239,7189,627896,0
13,-1,635933,218449,1376316,65942,7909,687876,0
13,2,711550,249989,1274819,74818,9324,637448,0
13,-1,641103,219877,1305577,66347,7917,652848,0
13,-1,645046,219733,1290173,66384,7364,645133,0
13,-1,640989,218632,1302854,65873,7290,651355,0
13,-1,642077,218318,1279629,65768,7470,639804,0
13,2,709579,248606,1353706,74142,9876,676850,0
13,-1,641582,218420,1255039,65798,8858,627455,0
13,-1,637069,218219,1190977,66008,7615,595478,0
13,-1,660813,223915,1351445,69481,8779,675714,0
13,-1,647580,221175,1307027,67045,7345,653514,0
13,-1,646190,221139,1433020,66939,8328,716950,0
13,-1,645743,219893,1364525,66488,8436,682210,0
13,2,710239,249527,1436488,75013,9475,718226,0
13,-1,646532,220224,1371190,66554,8051,685614,0
13,-1,646456,222612,1258759,67683,7675,629351,0
13,-1,643080,219577,1212864,66265,7990,606277,0
14,-1,689759,236996,1361144,70637,7753,679876,0
14,2,765812,266529,1382507,78713,10364,691225,0
14,-1,691815,237019,1307790,70655,7786,653835,0
14,-1,640947,218860,1407976,65637,8025,703927,0
14,-1,644298,220598,1329765,66406,7959,664778,0
14,2,704886,248391,1464840,73715,9020,732468,0
14,-1,647840,221512,1344691,66777,8185,672307,0
14,-1,639386,220380,1292025,66580,7686,645961,0
14,-1,638160,218925,1269635,65740,7380,634798,0
14,2,708605,249078,1516773,74402,9669,758227,0
14,-1,639141,218740,1259548,65662,7369,629684,0
14,-1,639302,218734,1251681,65784,8570,625631,0
14,-1,639352,219328,1351592,65797,6935,675943,0
14,-1,642083,218963,1208992,65734,7544,604504,0
14,-1,642075,219430,1334063,65773,8052,667051,0
14,2,714365,248645,1309341,74057,8035,654593,0
14,-1,642065,220530,1429446,66472,8540,714636,0
14,-1,642187,219596,1132921,66053,6533,566415,0
14,-1,644444,220402,1300039,66606,7883,650045,0
14,-1,639092,219063,1292318,65931,7925,646117,0
14,-1,640883,219899,1169906,66269,7487,584987,2
14,-1,643741,219260,1228770,65937,7351,614362,0
14,-1,655180,223623,1163010,69236,8154,581367,0
14,2,709942,249118,1395408,74137,8248,697747,0
14,-1,639075,219887,1290282,66441,8151,645134,0
14,-1,657781,223529,1224371,69163,7644,611846,0
14,-1,637630,219333,1313457,66041,7761,656069,0
14,-1,637088,218579,1322967,65688,7530,661564,0
14,2,715088,250319,1431523,74694,8782,715838,0
14,-1,637536,218808,1161455,65721,7137,580778,0
14,-1,639239,220217,1470479,66247,9553,735385,0
14,2,713435,250531,1418095,74852,8643,709120,0
14,-1,638874,219385,1189337,65979,7196,594675,0
14,-1,642498,219809,1266188,66070,7427,633132,0
14,-1,640523,219373,1238028,65937,6928,619056,0
14,2,714635,250153,1475295,74310,9014,737697,0
14,-1,638319,219064,1254494,65846,7032,627468,0
14,-1,643842,220968,1288924,66662,7300,644510,0
14,-1,637752,219358,1129329,65974,7042,564711,0
14,-1,644340,220283,1521200,66268,9271,760087,0
14,-1,638584,218716,1285718,65665,7340,642902,0
14,2,713390,249610,1456857,74291,9210,728476,0
14,-1,657961,223789,1265514,69173,8247,632748,0
14,-1,662437,224242,1222925,69356,8412,611437,0
14,-1,663749,224254,1244658,69184,7893,622386,0
14,-1,641997,220689,1294305,66307,6871,647199,0
14,2,717855,250460,1332832,74679,10063,666134,0
14,-1,661032,224049,1274603,69118,7806,637253,0
14,-1,641174,219183,1264854,65778,7556,632484,0
14,-1,644374,220587,1357066,66222,8262,678257,0
14,2,713749,248917,1315248,74001,9221,657666,0
14,-1,642989,219751,1199652,66061,7558,600000,0
14,-1,650419,221667,1338310,66498,8775,669153,0
14,-1,640753,220455,1320910,66099,8521,660407,0
14,-1,664084,225734,1254849,69655,8292,627354,0
14,2,708921,248361,1403562,73611,9396,701805,0
14,-1,640755,219739,1302608,65972,8076,651066,0
14,-1,641205,220262,1387916,66046,8031,693743,0
14,-1,645032,219536,1201634,65982,8090,600584,0
14,-1,635317,217886,1318221,65370,8141,659157,0
14,2,731096,252622,1377021,76933,9922,688528,0
14,-1,642033,220407,1284607,66422,7977,642341,0
14,-1,638343,218408,1166016,65570,7030,583050,0
14,-1,642962,220690,1266972,66501,7507,633529,0
14,-1,643747,219904,1334139,65978,7610,666117,0
14,2,720359,250609,1350586,74728,8982,675352,0
14,-1,645957,220370,1193627,66046,7444,596830,0
14,-1,638404,219461,1387741,65623,7655,694356,0
14,-1,639521,218952,1198941,65673,7622,599330,0
14,-1,662935,223253,1238337,68867,8019,619248,0
14,-1,639673,218960,1330403,65662,7769,665254,0
14,-1,660867,223601,1298605,68923,8097,649174,0
14,-1,650548,221922,1240617,66965,8101,619928,0
14,2,710683,248663,1424653,74322,9458,712328,0
14,-1,636323,218191,1138860,65365,6962,569380,0
14,-1,641412,220515,1227742,66477,7673,613902,0
14,-1,643427,219514,1320949,65827,7903,660414,0
14,-1,638535,218570,1228874,65532,7713,614463,0
14,-1,646205,220577,1214484,66396,7238,607200,0
14,2,715543,248499,1463233,74238,9101,731570,0
14,-1,648035,220286,1159956,66246,7742,580026,0
14,-1,633646,218693,1348192,65084,6758,674064,0
14,-1,637565,219947,1347645,65531,7771,673715,0
14,2,706907,248007,1405962,74135,8765,702962,0
14,-1,638239,219180,1268116,65279,7180,634049,0
14,-1,655350,223592,1357495,68610,8836,678838,0
14,-1,660052,223463,1340443,68612,8206,670172,0
14,-1,637583,218734,1254167,66054,7729,627083,0
14,-1,637593,219028,1189439,66219,8578,594665,0
14,2,711232,248688,1365059,74132,8890,682563,0
14,-1,639263,218968,1408172,66189,8328,704070,0
14,-1,660890,223361,1392117,69414,8850,696327,0
14,-1,639195,219763,1429569,66451,7553,714108,0
14,-1,642306,220045,1251910,66731,7544,625819,0
14,2,714972,250158,1488115,74782,9978,744038,0
14,-1,663640,223477,1357581,69450,8838,678751,0
14,-1,657908,223858,1347729,69579,8208,673763,0
14,-1,643013,220001,1211025,66716,7576,605588,0
14,-1,661398,223240,1261601,69393,8576,630698,0
14,2,715145,250442,1433136,74896,9498,716747,0
14,-1,642393,219748,1171964,66387,7346,585917,0
14,-1,642549,219214,1230700,66237,6589,615290,0
14,-1,639859,219468,1305568,66261,8472,652802,0
14,2,712376,250565,1333264,75036,9517,666716,0
14,-1,644685,220467,1233419,66764,7668,616423,0
14,-1,639894,218229,1342408,65863,7262,671247,0
14,-1,642687,220167,1291391,66368,7290,645794,0
14,-1,644045,218930,1259832,66009,7501,630021,0
14,2,719156,249534,1502542,74451,11136,751389,0
14,-1,647437,221045,1197794,67034,8109,598814,0
14,-1,643071,220586,1257578,67086,8204,628745,0
14,-1,640386,219617,1367801,66342,7310,683835,0
14,-1,641877,219545,1417025,66482,8049,708461,0
14,-1,641182,219319,1362857,66307,8017,681409,0
14,2,704132,247886,1422818,74152,8277,711256,0
14,-1,647410,220797,1404576,66780,7703,702269,0
14,-1,648192,221735,1226003,67267,7518,613007,0
14,-1,664562,225097,1333829,69960,8629,666847,0
14,-1,643160,220145,1414555,66433,9310,707311,0
15,-1,691193,236277,1177325,70448,7034,588598,0
15,2,762322,266488,1464869,78699,9752,732478,0
15,-1,692603,237124,1364475,70647,8669,682269,0
15,-1,637862,218470,1273535,65795,7499,636702,0
15,-1,639303,218890,1285809,65674,7903,642925,0
15,2,705892,249960,1430810,74452,8517,715410,0
15,-1,640802,218539,1263422,65521,8305,631705,0
15,-1,634689,217829,1167675,65519,6594,583788,0
15,-1,640601,220245,1317881,66421,7836,658897,0
15,2,707906,248247,1468394,73894,10321,734206,0
15,-1,638519,218826,1222408,65667,6982,611230,0
15,-1,640751,219291,1268239,65891,8028,634207,0
15,-1,641127,220428,1351171,66422,7795,675528,0
15,-1,647259,221048,1297212,66576,7756,648694,0
15,-1,642241,219505,1292985,65815,7882,646429,0
15,2,711424,249007,1395803,74181,8442,697859,0
15,-1,637787,218861,1502265,65683,8049,750973,0
15,-1,645835,220692,1346554,66565,8427,673343,0
15,-1,667361,228382,1337618,68693,8247,668791,0
15,-1,645809,219584,1272227,66110,7572,636145,0
15,-1,640809,219154,1258974,66019,8512,629492,2
15,-1,642458,219053,1293560,65993,7505,646704,0
15,-1,641894,219011,1299117,65933,7321,649580,2
15,-1,634853,219455,1142217,66132,7370,571008,2
15,-1,634817,219534,1195152,66147,8313,597501,0
15,2,709335,248324,1588644,73801,10525,794052,0
15,-1,639637,222011,1347950,67262,8136,673936,2
15,-1,637276,219754,1475988,66233,8339,737736,2
15,-1,639604,219269,1180089,66070,7900,589996,0
15,-1,635623,218894,1316417,65948,7683,658211,0
15,-1,636922,219668,1256951,66181,7692,628464,2
15,-1,636127,218837,1309472,65855,7281,654767,0
15,-1,636356,219497,1221495,66114,7353,610831,2
15,-1,638384,219728,1272320,66128,7704,636220,2
15,-1,640624,220191,1259173,66251,7504,629630,0
15,2,713167,250374,1609506,74715,9717,804720,0
15,-1,636744,220188,1311294,66267,8223,655701,2
15,-1,661813,224012,1370259,69272,8116,685166,0
15,-1,643234,221564,1228738,66977,7738,614438,2
15,-1,637593,220247,1296684,66267,7250,648294,2
15,-1,638314,219111,1267953,65835,7811,634018,0
15,2,707634,248180,1388960,73774,8472,694508,0
15,-1,643622,221875,1324250,67083,8036,662168,2
15,-1,638474,219578,1153161,66042,7029,576621,0
15,-1,642243,220517,1258436,66380,7568,629256,2
15,-1,641270,219771,1189058,66110,6639,594539,0
15,-1,637564,219944,1290391,66134,7643,645235,2
15,2,708665,248676,1316053,73856,8575,658072,0
15,-1,639162,219521,1218475,66007,7006,609275,0
15,-1,642581,221363,1293463,66909,7806,646777,2
15,-1,644164,221327,1308877,66789,7667,654406,0
15,-1,639051,220024,1198430,66196,6891,599270,2
15,-1,642602,220579,1329028,66426,8164,663913,2
15,-1,642293,220268,1383823,66278,7064,691955,0
15,-1,641111,220672,1192349,66582,7537,596240,0
15,-1,636229,219606,1182432,66073,6563,591271,2
15,-1,641485,219663,1338795,66012,7217,669482,0
15,-1,639489,220696,1329422,66371,7021,664766,2
15,-1,638573,219790,1181722,66066,6861,590959,2
15,-1,639939,219027,1291121,65785,6922,645602,0
15,2,712735,249082,1363978,74132,8795,681987,0
15,-1,643327,221079,1195651,66835,7468,597772,2
15,-1,639187,219453,1245192,65848,7462,622653,0
15,-1,664052,229101,1271145,68904,7261,635597,2
15,-1,638233,219113,1144949,65904,6635,572540,0
15,-1,643284,220341,1275628,66140,7432,637847,0
15,-1,645169,221125,1292668,66696,8208,646464,2
15,-1,640323,219743,1201990,66148,6835,600955,2
15,-1,637567,219478,1295953,65839,6998,648005,2
15,2,711439,249227,1697349,74097,10493,848670,0
15,-1,666451,229546,1316179,68881,7017,658146,0
15,-1,640775,221285,1332524,66772,7632,666330,2
15,-1,640313,219936,1289272,65995,7593,644735,0
15,-1,640882,219842,1186857,66099,6420,593459,2
15,-1,645380,221212,1280762,66671,7653,640358,0
15,-1,641575,220070,1321496,66170,8590,660748,0
15,-1,674019,231598,1336242,69866,8686,668165,2
15,2,710109,248157,1444845,73711,9746,722578,0
15,-1,642424,219703,1233931,66093,7741,617335,2
15,-1,646793,221710,1302787,66945,8004,651562,0
15,-1,645114,221314,1334670,66412,9008,667410,2
15,-1,648550,220678,1322920,66206,8435,661139,0
15,-1,644722,223140,1300562,67343,8927,650085,2
15,-1,642917,220880,1276501,66284,9244,638318,2
15,-1,644210,222394,1286178,67028,8352,643003,0
15,-1,639295,220307,1240956,66092,8005,620315,2
15,-1,640659,220091,1189617,65986,8367,594833,0
15,2,707005,248310,1360889,73567,9035,680462,0
15,-1,641816,220367,1189616,66257,7158,594801,0
15,-1,637862,220110,1325671,66069,7920,662883,2
15,-1,641328,219932,1374092,65960,7735,687028,0
15,-1,639754,219743,1206171,65999,7731,603070,2
15,-1,667156,229291,1384937,68807,8885,692468,2
15,-1,640939,218980,1206630,65850,7540,603299,0
15,2,713107,248687,1530671,73818,9745,764652,0
15,-1,641747,218832,1306727,65667,7821,653388,0
15,-1,638878,219049,1348799,65815,7659,674458,2
15,-1,641389,219289,1161932,65945,8036,581024,2
15,-1,637971,219539,1188762,65993,7159,594432,0
15,-1,638808,218925,1273047,65810,7062,636568,0
15,-1,641245,219308,1275527,65921,7632,637789,2
15,-1,637595,219566,1366688,65914,8996,683523,0
15,-1,644958,221393,1313208,66814,7536,656651,2
15,2,733124,253678,1432564,77271,8828,716229,0
15,-1,641558,219048,1336110,65658,7746,668107,0
15,-1,638245,219277,1216618,65796,8525,608263,2
15,-1,642633,219790,1487529,65841,8927,743828,2
15,-1,642099,219360,1316260,65658,7851,658086,0
15,-1,645529,220892,1189877,66189,7121,594927,2
15,-1,644796,219412,1297329,65659,8333,648562,0
15,-1,638609,220181,1328573,66006,7513,664343,2
15,-1,643729,221033,1183814,66515,6968,591630,0
15,-1,642559,219299,1294076,65806,8025,646964,0
15,-1,642994,221463,1280939,66780,8206,640573,2
15,-1,639727,218906,1186755,65690,7974,593422,2
15,-1,642611,220804,1306988,66537,7294,653637,0
15,-1,636928,219201,1194521,65772,6838,597360,2
15,-1,640606,219306,1311431,65802,8129,655768,2
15,-1,642988,219222,1314528,65778,8512,658156,0
15,-1,644895,221706,1230458,66879,7063,615301,2
15,-1,640451,218752,1190192,65590,7899,595018,2
15,-1,663997,223545,1304518,68975,9358,652247,0
15,2,713464,248463,1520531,74204,10497,760201,0
15,-1,636362,219469,1298170,65860,7165,649055,2
15,-1,638696,219292,1295038,65779,7516,647516,2
15,-1,638514,218837,1202707,65662,7406,601322,0
15,-1,659647,223745,1317469,69022,7702,658702,0
15,-1,639165,219251,1197960,65843,7190,598976,2
15,-1,639352,218942,1250137,65696,7025,625051,2
15,-1,641127,219075,1267716,65726,6913,633693,0
15,-1,642269,219202,1264393,65782,8077,632015,2
15,-1,646752,221743,1210496,66870,7028,605182,2
15,-1,641397,218976,1306633,65638,7458,653281,0
15,-1,639122,219300,1190153,65833,7113,594945,2
15,-1,643269,219731,1244963,65933,6805,622474,0
15,2,712769,248918,1413878,74422,9462,706935,0
15,-1,643817,219908,1284992,66020,6921,642453,2
15,-1,641082,219493,1274311,65825,6859,637044,2
15,-1,644958,219081,1197844,65622,7473,598896,0
15,-1,643829,219173,1201003,65745,7682,600456,2
15,-1,648381,221664,1190260,66835,6635,595118,2
15,-1,634492,219359,1303571,65359,6717,651732,0
15,-1,632712,218230,1322941,64878,7504,661309,0
15,2,714003,250410,1398521,75227,9265,699215,0
15,-1,632540,219557,1260104,65398,7672,630051,2
15,-1,635828,218370,1177375,64970,6375,588669,0
15,-1,636600,219145,1303019,65365,8353,651554,0
15,-1,633390,219123,1268237,65372,8060,634082,2
15,-1,637676,219014,1257226,65362,7313,628605,0
15,-1,643435,219157,1242612,66208,8090,621242,0
15,-1,636349,218842,1151715,66155,7321,575863,2
15,2,712090,248683,1337529,74204,8797,668853,0
15,-1,635336,219217,1299447,66276,7586,649595,2
15,-1,641078,220790,1128542,67067,7511,563883,0
15,-1,644117,221327,1194887,67244,8022,597359,2
15,-1,637235,219255,1280770,66304,7841,640286,2
15,-1,640725,220459,1221813,66713,7756,610952,2
15,-1,638240,218897,1303247,66132,8086,651335,0
15,-1,637090,218674,1318477,66060,7981,658977,2
15,-1,643804,219561,1338652,66383,8724,669159,0
15,-1,644322,220443,1293201,66853,8518,646786,0
15,-1,637934,218881,1178637,66205,8170,589293,2
15,2,711739,248860,1414066,74518,9311,706988,0
15,-1,638008,218705,1293042,66120,7446,646509,0
15,-1,637341,218670,1309450,66127,8083,654590,2
15,-1,642405,218745,1310746,66127,7770,655276,0
15,-1,635796,218632,1292455,66050,8698,646158,2
15,-1,642272,219210,1210577,66226,8032,605340,0
15,-1,637238,218720,1300921,66076,7387,650464,2
15,-1,637489,218513,1185817,66009,7565,592885,0
15,-1,637992,217720,1171864,65839,7462,585931,0
15,-1,638051,219454,1274746,66359,7925,637313,2
15,2,762049,263224,1517523,80445,11009,758697,0
15,-1,639626,219522,1275674,66407,7341,637849,2
15,-1,643185,220285,1207230,66800,7371,603721,0
15,-1,644369,220899,1154306,67117,7437,577092,2
15,-1,639682,219977,1314399,66525,7930,657209,2
15,-1,638512,217913,1270500,65841,6707,635260,0
15,-1,640211,219212,1219493,66286,7689,609723,2
15,-1,644680,219560,1335137,66364,7508,667544,2
15,-1,642225,220904,1208336,67038,8439,604131,0
15,2,714869,248834,1384395,74295,9188,692148,0
15,-1,641737,221012,1161302,67109,7666,580600,2
15,-1,641931,219150,1355968,66171,8336,677979,0
15,-1,640862,218830,1320155,66100,7559,660107,0
15,-1,638944,219133,1324176,66191,8118,662131,2
15,-1,645664,220765,1209798,66933,7898,604952,2
15,-1,643922,220129,1192344,66592,7235,596078,0
15,-1,641431,219087,1278364,66040,7207,639220,2
15,-1,640501,219202,1231949,66168,7674,616006,2
15,-1,645276,219955,1193789,66562,7295,597009,0
15,2,721355,251453,1486938,75387,9833,743809,0
15,-1,647142,221206,1183889,67128,7270,592036,2
15,-1,662345,223276,1298607,69245,9572,649232,0
15,-1,644270,219468,1275817,66248,8951,637905,2
15,-1,660342,223865,1273618,69635,9884,636769,0
15,-1,643771,221265,1283378,67133,7806,641738,0
15,-1,639513,219869,1277082,66402,8031,638537,2
15,-1,641493,220021,1374391,66558,7485,687201,2
15,-1,642694,219118,1325920,66333,8005,662937,0
15,-1,644483,220304,1229021,66723,7667,614461,2
15,-1,646729,221836,1342194,67531,8646,670686,0
15,2,715174,247715,1450541,74033,9809,725154,0
15,-1,644850,221847,1238564,67488,8369,618829,2
15,-1,643463,220235,1256435,66602,7952,628177,2
15,-1,664003,224242,1407739,69708,8934,703872,0
15,-1,643097,220750,1283419,66799,7817,641740,2
15,-1,643851,219820,1215934,66516,7579,607921,2
15,-1,642373,219859,1277364,66474,7704,638748,0
15,-1,644700,220811,1315923,66792,8208,657966,2
15,-1,643888,221839,1191379,67407,8047,595687,2
15,-1,641560,219785,1270736,66421,6984,635401,0
15,-1,642475,220532,1458424,66712,8523,729224,2
15,-1,644035,220688,1339067,66692,8040,669494,2
15,-1,645287,221220,1288409,67117,8552,644358,0
