0,-1,721926,250518,1405462,74602,8257,702658,0
0,1,756402,265814,1432969,78492,8648,715872,1
0,1,759159,265586,1512961,78287,10205,756079,0
0,-1,722706,250865,1449263,74770,9364,723593,2
0,1,706208,246845,1360910,73643,8582,680103,0
1,1,762045,266541,1470893,78687,10333,734735,1
1,-1,717640,248859,1422802,73801,9090,710997,2
1,1,707014,247497,1257000,73893,8765,628134,0
2,1,705471,247293,1398585,73412,8828,698744,1
2,-1,661917,230242,1186465,68966,7308,592793,2
2,1,711137,249568,1278415,74770,9196,638537,0
3,1,703513,247757,1349702,73609,8113,674481,1
3,-1,669965,232762,1359424,69809,8715,679166,2
3,1,709094,247463,1479530,73845,10115,739249,0
4,1,710591,249943,1312777,74621,8657,655605,1
4,-1,667141,230502,1259029,68841,8269,628996,2
4,1,706373,246891,1269513,73556,8910,634386,0
5,1,701069,247536,1310691,73557,8537,654877,1
5,-1,665909,230488,1372064,68865,8753,685623,2
5,1,706856,247640,1361982,73897,9060,680623,0
6,1,704415,247422,1277074,73466,9118,638146,1
6,-1,662074,230938,1248511,68964,8361,623645,2
6,1,706534,247222,1295243,73841,8870,647271,0
7,1,708368,247604,1352996,73579,9372,676152,1
7,-1,664153,230580,1345541,68925,8037,672371,2
7,1,706240,247407,1377048,73768,9045,688188,0
8,1,706724,248218,1253462,73745,9199,626234,1
8,1,710167,249323,1304107,74664,9553,651487,0
8,-1,666829,232194,1355746,69725,8679,677056,2
9,1,707066,247739,1393478,73648,9716,696261,1
9,1,703113,247741,1255829,73077,8397,627537,0
9,-1,666255,230771,1255673,69096,8332,627450,2
10,1,706569,247458,1361798,73560,8370,680358,1
10,1,710426,248426,1225498,73544,8176,612213,0
10,-1,667930,231396,1333825,69103,8573,666395,2
11,1,715126,250191,1417092,74530,9460,707965,1
11,1,707638,247704,1278055,73066,8043,638651,0
11,-1,665090,230725,1256539,68928,7902,627689,2
12,1,706692,248547,1347207,73821,8770,673181,1
12,1,728009,251998,1380309,76312,9098,689798,0
12,-1,671107,232567,1355503,69786,8890,676943,2
13,1,710291,248672,1353104,73726,8767,675868,1
13,1,704971,247509,1362737,73017,7925,681050,0
14,1,710618,248526,1326044,73832,8917,662528,1
14,1,708319,249092,1402896,73704,8386,700703,0
15,1,704673,247875,1399811,73733,9093,699424,1
15,1,705021,248109,1604147,73213,9881,801658,0
16,1,708021,248008,1480812,73832,9609,740203,1
16,1,705965,247689,1350419,73049,8378,674863,0
17,1,714941,249627,1487262,74568,9514,742942,1
17,1,705465,247401,1294699,73005,8146,647031,0
18,1,711326,248519,1451152,73958,10018,725152,1
18,1,704792,247208,1504791,72808,9631,751967,0
19,1,710547,247749,1464353,73665,9843,731634,1
19,1,711216,250085,1313175,74137,8374,656029,0
20,1,703572,248246,1373009,73880,9387,686125,1
20,1,725232,251984,1409415,76250,8955,704316,0
21,1,704781,248110,1440232,73847,9537,719587,1
21,1,703720,247528,1262281,72984,8224,630804,0
22,1,706584,248155,1481620,73846,9555,740412,1
22,1,701742,246722,1477881,72732,8484,738550,0
23,1,706999,249609,1451386,74561,9577,725089,1
23,1,704658,248033,1349347,73079,8429,674290,0
24,1,706048,248095,1373015,73786,9275,686092,1
24,1,702314,247364,1340770,72812,8425,670058,0
25,1,705424,248953,1539059,74039,11216,769045,1
25,1,702125,247283,1341984,72792,8591,670677,0
26,1,705849,248053,1473905,73687,9788,736776,1
26,1,707347,249498,1277523,73804,8748,638265,0
27,1,711694,250196,1469601,74685,10641,734091,1
27,1,700736,247261,1199534,72806,8328,599474,0
28,1,702218,247897,1474634,73697,9106,736686,1
28,1,700231,247403,1256661,72876,8631,627956,0
29,1,711480,250215,1412474,74690,8483,705844,1
29,1,704995,249061,1245796,73581,8027,622488,0
30,1,703496,247699,1382766,73575,8695,690991,1
30,1,706049,247039,1278346,72710,8931,638866,0
31,1,734740,257520,1330883,76536,8215,665075,1
31,1,708264,247823,1282571,72957,8167,640908,0
32,1,705019,247748,1278044,73633,7881,638684,1
32,1,712098,250014,1234898,73962,8045,616659,0
33,1,706702,248330,1309241,73844,7836,654288,1
33,1,708124,248101,1314038,73096,8242,656487,0
34,1,706285,248789,1452107,73924,9783,725688,1
34,1,705005,247835,1266552,73008,8128,632802,0
35,1,704291,247481,1450399,73468,8650,724780,1
35,1,703635,247388,1281470,72849,8672,640314,0
36,1,709554,250143,1497786,74498,8802,748261,1
36,1,708550,248341,1465011,73116,9240,731941,0
37,1,713573,249370,1349451,74141,7698,674348,1
37,1,705165,247545,1358219,72966,8199,678745,0
38,1,713352,249781,1369991,74291,8925,684602,1
38,1,704970,247788,1291901,72990,7798,645588,0
39,1,712789,251684,1373771,75034,9401,686278,1
39,1,704659,247728,1643207,73027,10225,821084,0
40,1,709638,249173,1362805,73916,9253,681118,1
40,1,702520,247291,1371924,72787,8581,685615,0
41,1,708833,249391,1420089,74020,8828,709599,1
41,1,701973,247059,1254968,72706,7902,627119,0
42,1,713171,249201,1359753,74035,9239,679539,1
42,1,706272,249271,1280172,73721,8534,639526,0
43,1,708145,247968,1401707,73601,9520,700417,1
43,1,707480,248685,1275478,73448,7890,637171,0
44,1,707575,248490,1380966,73868,8043,690160,1
44,1,705606,248040,1352707,73075,8184,675964,0
45,1,706617,248583,1495792,73812,9244,747525,1
45,1,700816,247261,1260210,72779,8253,629736,0
46,1,712856,249117,1292200,73801,8488,645739,1
46,1,702994,247538,1329430,72959,8657,664270,0
47,1,708337,248787,1364009,73722,8770,681363,1
47,1,701969,247300,1430232,72835,8242,714758,0
48,1,707079,247905,1337117,73559,9015,667935,1
48,1,702783,247779,1324271,73008,8584,661694,0
49,1,711004,250030,1397933,74472,9260,698395,1
49,1,702918,247933,1364097,72986,8899,681674,0
50,1,710588,248388,1449032,73676,11090,724129,1
50,1,704795,249074,1266355,73565,8474,632575,0
51,1,704610,247626,1369287,73445,9423,684062,1
51,1,705683,247008,1339543,72729,7881,669464,0
52,1,708508,247742,1551576,73480,10554,775398,1
52,1,704506,247923,1371012,73062,9075,685089,0
53,1,708837,247805,1540375,73517,10195,769748,1
53,1,706471,248635,1343580,73263,7936,671389,0
54,1,709258,247537,1437480,73354,10102,718402,1
54,1,703742,248060,1467353,73042,9424,733343,0
55,1,712052,248505,1469553,73761,9528,734268,1
55,1,704716,247810,1341532,72961,7712,670303,0
56,1,712472,248009,1344704,73607,8466,672042,1
56,1,702010,247434,1536551,72829,9081,767869,0
57,1,704844,248934,1272563,73542,8148,635840,0
57,1,702961,247682,1355113,72990,8031,677141,1
58,1,702107,247680,1253973,72967,7967,626626,0
58,1,707652,249562,1296570,73832,8444,647669,1
59,1,705239,248052,1417320,73095,7788,708296,0
59,1,707692,248012,1374472,74053,8994,686871,1
60,1,703751,247690,1576706,72994,9697,788065,0
60,1,709741,247988,1280419,74076,8783,639838,1
61,1,704154,247561,1353665,72876,7727,676525,0
61,1,702565,247462,1478831,73879,9690,738893,1
62,1,722664,252311,1383034,76262,8808,691125,0
62,1,713077,250121,1347971,74929,10521,673212,1
63,1,703125,248220,1269974,73024,7908,634509,0
63,1,706104,248033,1428748,74062,9536,713951,1
64,1,700416,247588,1356270,72976,8347,677685,0
64,1,708697,248883,1395413,74357,9878,697145,1
65,1,707523,249659,1272163,73766,7903,635642,0
65,1,707409,249163,1229341,74730,8757,614001,1
66,1,702109,247766,1580340,73042,9821,789560,0
66,1,708147,248243,1439753,74133,9976,719451,1
67,1,700984,247279,1332356,72840,7488,665754,0
67,1,713546,249738,1271786,74886,8549,635305,1
68,1,700386,247436,1266019,72851,7263,632716,0
68,1,704083,247214,1366134,73777,9262,682665,1
69,1,699069,247570,1353863,72866,7488,676511,0
69,1,706204,247530,1359451,73851,8373,679354,1
70,1,713380,247051,1324306,73146,7592,661787,0
70,1,705468,247812,1338309,74005,8581,668732,1
71,1,720410,250071,1434143,74419,9453,716324,0
71,1,706834,248242,1359400,74141,8889,679273,1
72,1,734673,252029,1308424,76590,8652,653799,0
72,1,709904,248359,1243474,74148,8610,621399,1
73,1,718770,249646,1299069,74200,8088,649010,0
73,1,707233,247252,1329412,73779,8506,664147,1
74,1,709902,246822,1333710,73074,7453,666544,0
74,1,709407,249413,1285508,74742,8592,642169,1
75,1,735009,251929,1460282,76560,9109,729535,0
75,1,709165,247793,1345785,73913,9064,672497,1
76,1,711122,247306,1296076,73301,7315,647715,0
76,1,708502,247896,1277422,73920,7959,638340,1
77,1,712153,247508,1338954,73371,7955,669058,0
77,1,715317,249840,1371768,74748,9063,685201,1
78,1,710569,247208,1374246,73253,8262,686839,0
78,1,710550,248013,1339344,73908,8200,669276,1
79,1,710436,247328,1278561,73350,7573,638944,0
79,1,714690,249535,1298698,74737,8593,648671,1
80,1,732388,252603,1432387,76827,8682,715765,0
80,1,712600,248033,1383665,73937,10429,691155,1
81,1,708988,247431,1363379,73330,7648,681313,0
81,1,709106,248475,1399621,74242,8156,699413,1
82,1,716007,248431,1510768,73701,9990,754976,0
82,1,711949,248937,1350470,74377,8361,674825,1
83,1,714625,248382,1286225,73855,8680,642567,0
83,1,711997,249522,1285117,74547,8562,642200,1
84,1,711655,247188,1350487,73254,8462,674894,0
84,1,707933,248807,1298274,74334,8573,648626,1
85,1,709583,247428,1352195,73271,7760,675840,0
85,1,712987,249601,1379454,74479,8031,689323,1
86,1,710938,248071,1417286,73599,8161,708297,0
86,1,714597,250264,1230088,74841,8771,614452,1
87,1,710137,247718,1547155,73465,9574,773204,0
87,1,712859,248294,1370318,74092,8892,684832,1
88,1,711855,247852,1279237,73531,7672,639218,0
88,1,707377,248656,1292861,74136,9529,646088,1
89,1,711380,248070,1365376,73524,8397,682396,0
89,1,710084,248426,1414499,74128,9501,706855,1
90,1,715702,249649,1542911,74347,10122,770862,0
90,1,708780,248700,1474705,74198,9611,736921,1
91,1,708084,246395,1308288,73022,7888,653835,0
91,1,710271,248657,1503769,74182,9865,751562,1
92,1,711906,248964,1246627,74020,7737,622844,0
92,1,712542,247988,1410921,73995,8152,705062,1
93,1,710136,248095,1338751,73578,8288,668987,0
93,1,718407,250230,1393831,74919,8796,696381,1
94,1,706032,247137,1312344,73250,8602,655706,0
94,1,707795,247297,1301761,73728,8709,650670,1
95,1,734005,252254,1482535,76725,10220,740831,0
95,1,709472,248097,1399106,73965,9658,699177,1
96,1,711052,247316,1373162,73279,9049,686068,0
96,1,719255,250701,1298635,75037,8881,648642,1
97,1,712395,247683,1426263,73473,8949,712729,0
97,1,712650,248286,1423638,74108,8392,711392,1
98,1,739466,257342,1518033,76284,9080,758490,0
98,1,710459,247488,1414944,74014,9579,707056,1
99,1,710563,247358,1497175,73296,9233,748173,0
99,1,714737,247907,1366700,74154,8695,682962,1
100,1,731345,252875,1415939,76944,9279,707455,0
100,1,708492,249235,1426199,74839,9852,713219,1
101,1,712475,247888,1451994,73475,9164,725478,0
101,1,706273,247719,1467600,74056,9699,733077,1
102,1,710934,247760,1442491,73463,8653,720769,0
102,1,707873,247861,1479247,74137,9074,739207,1
103,1,711450,248336,1415217,73663,8284,707165,0
103,1,706855,247348,1380606,74005,9656,689720,1
104,1,709634,247688,1341554,73420,8374,670246,0
104,1,705741,247563,1442572,74035,9927,720723,1
105,1,707987,247363,1477995,73344,8344,738443,0
106,1,708793,247938,1346345,73484,8480,672741,0
107,1,714909,248533,1381176,73875,9010,689746,0
108,1,710352,247543,1314473,73421,8478,656736,0
109,1,709085,247669,1400653,73497,9040,699759,0
110,1,710455,247411,1308118,73355,8676,653607,0
111,1,710624,247989,1403901,73502,8852,701464,0
112,1,731087,252325,1461385,76756,9718,730263,0
113,1,706891,247379,1413603,73323,9036,706418,0
114,1,707048,247764,1345883,73482,8772,672462,0
115,1,714249,249822,1368286,74395,8587,683479,0
116,1,712034,247567,1435911,73451,9539,717593,0
117,1,715387,249232,1385223,74122,9828,692062,0
118,1,710729,246854,1501821,73116,9290,750536,0
119,1,711157,247630,1444204,73444,9224,721735,0
120,1,709402,247296,1482084,73293,9333,740653,0
121,1,715930,249555,1363120,74223,8622,681039,0
122,1,709499,247358,1488862,73332,9124,743996,0
123,1,717098,250135,1347390,74446,9448,673047,0
124,1,730711,252258,1360016,76760,9734,679627,0
125,1,707754,247003,1342198,73211,8486,670742,0
126,1,709046,248001,1420958,73584,8713,710076,0
127,1,711586,247675,1398895,73462,8989,699080,0
128,1,710315,247168,1439700,73189,9535,719422,0
129,1,710563,247548,1497978,73365,9527,748265,0
130,1,710778,248166,1515639,73616,8986,757472,0
131,1,708032,247439,1429872,73339,8781,714666,0
132,1,711279,247623,1508552,73412,9108,753823,0
133,1,729773,252248,1467874,76728,9335,733525,0
134,1,708317,247439,1404493,73397,8723,701776,0
135,1,710171,248660,1546168,73793,8680,772723,0
136,1,712008,249032,1356108,74085,8762,677475,0
137,1,708106,247994,1428502,73511,8535,713858,0
138,1,710689,249412,1360382,74262,9105,679372,0
139,1,709346,246873,1350599,73085,9106,674926,0
140,1,715011,249019,1366930,74071,9732,682818,0
141,1,709267,247403,1377735,73406,9034,688468,0
142,1,711094,248044,1517689,73489,8872,758426,0
143,1,706842,247137,1349764,73250,8780,674468,0
144,1,710316,248043,1435633,73535,8452,717417,0
145,1,710262,248131,1477101,73591,8752,738025,0
146,1,707437,247399,1445099,73330,9077,722102,0
147,1,708448,247772,1440510,73480,9071,719838,0
148,1,705543,247159,1322975,73209,8433,661152,0
149,1,706861,247419,1425664,73374,8627,712522,0
150,1,708268,248524,1375058,73738,8703,687148,0
151,1,709105,247677,1437919,73433,9079,718566,0
152,1,708772,247338,1339213,73328,8960,669269,0
153,1,708099,246954,1502599,73174,9352,750956,0
154,1,707578,247530,1401871,73417,8945,700569,0
155,1,709155,247615,1415484,73466,8704,707349,0
156,1,707873,247538,1455231,73393,8603,727243,0
157,1,707062,247796,1342313,73537,8650,670721,0
158,1,705506,247647,1421524,73400,9161,710360,0
159,1,713500,249543,1321087,74300,9507,659810,0
160,1,731993,253047,1411569,77008,10126,705296,0
161,1,709608,248837,1317491,74001,9156,658052,0
162,1,707751,248166,1338105,73602,8844,668599,0
163,1,703698,246846,1440969,73087,9271,720048,0
164,1,726222,252192,1443448,76728,9813,721229,0
165,1,712893,247597,1574213,73454,9502,786787,0
166,1,711393,247811,1459214,73481,10763,729123,0
167,1,734134,252798,1487311,76905,11616,743346,0
168,1,708213,246884,1459748,73135,10610,729521,0
169,1,709890,247377,1448819,73302,10880,723958,0
170,1,714937,249817,1563135,74313,10577,780308,0
171,1,710192,247229,1429579,73281,10197,714261,0
172,1,713602,249212,1485592,74172,11342,742120,0
173,1,731175,252724,1586780,76857,11726,792937,0
174,1,709811,247467,1445404,73321,10665,721927,0
175,1,708747,247444,1555710,73370,10478,777100,0
176,1,718285,250441,1481589,74567,11467,739789,0
177,1,710895,247710,1522625,73449,9899,760473,0
178,1,707919,247086,1431213,73192,10010,715173,0
179,1,707921,247494,1584288,73327,10375,791695,0
180,1,713194,249950,1653005,74408,10295,825285,0
181,1,710372,247857,1467848,73512,10469,733439,0
182,1,708025,247040,1458808,73212,10461,728909,0
183,1,709440,248256,1463429,73620,10234,730914,0
184,1,710351,248046,1451999,73557,10570,725471,0
185,1,728294,251922,1608738,76565,11176,803875,0
186,1,706268,247799,1438052,73436,9952,718390,0
187,1,715878,249317,1448928,74147,11166,723364,0
188,1,709723,247279,1435456,73237,11014,717200,0
189,1,709931,247757,1395175,73470,9547,696492,0
190,1,708088,247008,1636511,73174,10587,817202,0
191,1,731808,252351,1487223,76743,11566,743021,0
192,1,710449,248070,1470482,73554,10370,734606,0
193,1,707392,247161,1440504,73244,9902,719898,0
194,1,709868,247972,1766994,73495,10259,883112,0
195,1,711017,247546,1465661,73354,10928,732440,0
196,1,709679,247594,1366054,73415,10196,682501,0
197,1,708425,247576,1576845,73365,10176,788072,0
198,1,705241,246961,1523035,73126,10261,761247,0
199,1,708764,247315,1433486,73268,10413,716227,0
200,1,711617,249432,1398709,74212,10027,698023,0
201,1,708013,247763,1508293,73500,9692,752852,0
202,1,706332,247205,1485126,73251,10343,742198,0
203,1,710192,249200,1474800,74122,9266,736413,0
204,1,707155,247047,1458252,73194,10459,728483,0
205,1,712023,249569,1450220,74212,9426,724710,0
206,1,709624,248505,1352240,73721,9572,675711,0
207,1,705350,247270,1453487,73216,9623,726046,0
208,1,708554,247820,1510468,73465,10508,754778,0
209,1,711340,249599,1546417,74305,9471,772330,0
210,1,712348,248050,1358803,73567,9813,678669,0
211,1,731194,252502,1661389,76764,11510,830316,0
212,1,711008,248733,1384989,73716,10193,691345,0
213,1,707117,247586,1522200,73366,10738,760475,0
214,1,708094,247630,1491074,73429,9707,745072,0
215,1,707281,247385,1312701,73254,8075,656049,0
216,1,708150,247820,1444129,73489,9068,721646,0
217,1,732908,252457,1412141,76790,9867,705632,0
218,1,713209,249598,1461911,74221,8623,730471,0
219,1,708108,247669,1456105,73375,9086,727351,0
220,1,709506,247759,1449092,73452,9988,724217,0
221,1,713089,249650,1386641,74254,9123,693163,0
222,1,706527,247090,1541253,73218,9232,769495,0
223,1,713758,250242,1303455,74510,9162,651234,0
224,1,704972,247658,1448763,73426,9686,723998,0
225,1,710287,247526,1430260,73365,9623,714768,0
226,1,708930,247536,1553275,73294,9789,776275,0
227,1,708169,247747,1382322,73365,9493,690383,0
228,1,710864,248829,1553974,73711,9669,776984,0
229,1,708340,247964,1399691,73403,9359,698913,0
230,1,711227,248970,1312180,73772,8197,655650,0
231,1,707552,247958,1459504,73401,9045,729281,0
232,1,711315,250006,1404315,74332,9246,701768,0
233,1,728432,253395,1426749,76983,10845,712665,0
234,1,709722,247874,1514569,73382,9560,755602,0
235,1,709451,248099,1563599,73497,9620,781373,0
236,1,708274,248042,1296063,73429,9353,647439,0
237,1,706862,247608,1201045,73269,8125,600117,0
238,1,709255,248158,1289777,73399,8320,644566,0
239,1,714263,250503,1345867,74464,8410,672413,0
240,1,706436,247908,1282224,73307,8711,640780,0
241,1,712694,249061,1440803,73849,9190,719917,0
242,1,712210,249415,1353131,73842,8881,676221,0
243,1,708706,248427,1291378,73515,8504,645316,0
244,1,707844,248363,1375083,73508,9155,687132,0
245,1,707697,248350,1280522,73466,8423,639938,0
246,1,706475,248296,1358536,73516,9018,678901,0
247,1,710016,249706,1376867,74111,8506,687935,0
248,1,715049,247845,1364156,73341,8249,681723,0
249,1,736962,253103,1343664,76889,9622,671468,0
250,1,716340,249218,1370028,74002,8948,684627,0
251,1,715301,249087,1285163,73786,8833,642112,0
252,1,712138,247794,1344416,73314,9175,671899,0
253,1,713163,248504,1402294,73535,8965,700779,0
254,1,717008,249989,1456714,74317,9351,727759,0
255,1,742142,254797,1356161,77859,9506,677742,0
256,1,714018,248465,1372060,73581,9028,685690,0
257,1,713428,248650,1221270,73634,8615,610267,0
258,1,707554,246719,1278183,73020,9083,638726,0
259,1,732948,253260,1315519,76924,9588,657482,0
260,1,711088,248642,1448133,73640,10081,723196,0
261,1,715516,249250,1287001,73806,9632,643107,0
262,1,710776,247534,1334735,73239,10191,667062,0
263,1,711267,248191,1344988,73458,10103,671699,0
264,1,732861,252762,1438584,76750,11221,718699,0
265,1,713664,248643,1358136,73689,9685,678559,0
266,1,716197,250451,1416683,74555,9990,707403,0
267,1,710671,247960,1374874,73436,9652,686821,0
268,1,710910,248394,1443976,73682,10499,721362,0
269,1,712303,249020,1499549,73859,9494,749325,0
270,1,707802,247685,1438093,73408,10078,718160,0
271,1,713163,247489,1434168,73338,9515,716241,0
272,1,733527,252656,1358792,76847,9584,679070,0
273,1,714456,248753,1372328,73789,8621,685791,0
274,1,711625,248127,1383937,73586,9287,691534,0
275,1,716748,249897,1389939,74343,9083,694324,0
276,1,710896,248196,1360899,73675,8415,680022,0
277,1,730289,252611,1361611,76913,9212,680382,0
278,1,735992,256522,1316668,76024,8953,657886,0
279,1,712964,249620,1349604,74319,9029,674280,0
280,1,709134,247935,1271306,73608,8551,635214,0
281,1,715345,249330,1306328,74224,8704,652562,0
282,1,709828,247641,1280610,73430,8480,640038,0
283,1,708441,247595,1367671,73460,8535,683536,0
284,1,705991,247075,1234380,73227,7753,616841,0
285,1,712082,249472,1352273,74278,8423,675605,0
286,1,708889,248688,1261351,73827,7858,630209,0
287,1,708445,247695,1357281,73477,8325,678330,0
288,1,707401,247231,1358560,73263,8447,678924,0
289,1,713090,249765,1339692,74427,8672,669252,0
290,1,706885,247817,1374292,73636,8013,686755,0
291,1,705158,247286,1313436,73404,8072,656353,0
292,1,708403,247850,1619282,73624,9653,808946,0
293,1,705915,247886,1304210,73638,8954,651503,0
294,1,702763,247072,1546897,73357,8915,772582,0
295,1,735227,253016,1409668,77083,10462,704412,0
296,1,708574,246928,1357372,73296,9052,678430,0
297,1,707490,247091,1361141,73269,8536,680226,0
298,1,713828,249291,1381153,74322,9183,690129,0
299,1,710996,248319,1221298,73767,8314,609427,0
300,1,707801,247389,1348788,73409,9118,673923,0
301,1,708713,247990,1269687,73648,8370,634401,0
302,1,712980,249489,1282287,74410,8630,640515,0
303,1,704555,246578,1224557,73156,7928,611952,0
304,1,710515,249175,1274799,74232,8331,637000,0
305,1,711369,247861,1221221,73626,8918,610230,0
306,1,730518,253092,1598240,77094,9811,798518,0
307,1,710639,248215,1455171,73662,9540,727033,0
308,1,709874,248055,1358730,73557,9192,678642,0
309,1,709838,248463,1425985,73853,9275,712170,0
310,1,707499,247808,1409864,73480,9202,704206,0
311,1,709878,247769,1447480,73491,9987,723423,0
312,1,729502,252647,1551295,76845,10288,775237,0
313,1,705799,247143,1345848,73280,9634,672594,0
314,1,713151,249426,1482713,74200,9717,739829,0
315,1,710740,248992,1367227,73903,9174,682743,0
316,1,711972,250434,1433557,74647,9978,716176,0
317,1,729925,252286,1448927,76772,9818,724113,0
318,1,707990,247108,1671453,73294,9866,835243,0
319,1,716330,250312,1426301,74514,9404,712654,0
320,1,708505,247735,1342263,73504,9740,670437,0
321,1,710094,247819,1365543,73542,9373,682246,0
322,1,710097,248118,1450918,73594,9646,725161,0
323,1,735452,257188,1413368,76254,10293,706232,0
324,1,707810,247957,1281248,73524,9281,640083,0
325,1,706462,247482,1429745,73386,9371,714524,0
326,1,709267,248676,1450556,73823,9539,724707,0
326,1,707462,247461,1337953,73803,8520,668649,0
327,1,712058,248330,1468457,73738,9271,733495,0
327,1,712306,249242,1410457,74653,9107,704574,0
328,1,707538,247606,1493366,73514,9118,745738,0
328,1,708406,248311,1312482,74122,8114,655813,0
329,1,713058,249661,1442296,74450,9492,720532,0
329,1,709741,248226,1402221,74145,8341,700710,0
330,1,728906,252482,1395103,76881,9882,697367,0
330,1,707735,247924,1431418,74008,8969,715297,0
331,1,706796,247468,1354539,73495,9488,676976,0
331,1,712078,249136,1494034,74617,8592,746663,0
332,1,707591,248227,1264831,73766,8452,631978,0
332,1,727564,252062,1482541,77208,9313,740844,0
333,1,728194,252263,1330041,76868,9523,664604,0
333,1,710342,247781,1380852,73989,7972,690073,0
334,1,706966,247617,1275555,73534,7862,637457,0
334,1,708614,247107,1379261,73742,8180,689302,0
335,1,708463,249244,1364102,74212,8564,681331,0
335,1,714314,249706,1410270,74907,8351,704497,0
336,1,708293,248475,1363265,73830,8629,681264,0
336,1,731252,252568,1488982,77356,9248,744110,0
337,1,712095,247356,1292142,73446,8461,645717,0
337,1,708836,247677,1416609,73943,8926,707863,0
338,1,714014,248434,1363176,73848,9107,681209,0
338,1,707764,247254,1346388,73765,8875,672637,0
339,1,714195,248689,1255781,73873,9285,627547,0
339,1,706164,247271,1363812,73761,8986,681572,0
340,1,716448,249899,1355026,74464,9897,677361,0
340,1,709468,247140,1327801,73854,10144,663231,0
341,1,710528,247860,1499617,73581,9752,749045,0
341,1,706301,247499,1396159,74002,9458,697547,0
342,1,712767,248660,1397620,74030,10014,698281,0
342,1,710624,248732,1482390,74567,10121,740287,0
343,1,711842,248082,1420197,73596,9932,709789,0
343,1,710950,247918,1369505,74152,9342,684161,0
344,1,708261,247446,1326407,73375,9113,662898,0
344,1,704964,246935,1349116,73825,9166,674103,0
345,1,713749,249413,1567908,74256,9629,782539,0
345,1,709088,247914,1440715,74133,10128,719990,0
346,1,702991,246352,1359017,73043,9471,678587,0
346,1,711262,249393,1459260,74877,10306,728963,0
347,1,708384,247502,1343265,73333,9012,670951,0
347,1,700876,245842,1347993,73511,9081,673544,0
348,1,709703,248002,1417959,73591,9795,708440,0
348,1,703933,247024,1445566,73794,9237,722403,0
349,1,708911,247877,1487576,73544,9261,743499,0
349,1,703444,246808,1336151,73720,9404,667852,0
350,1,733188,252990,1398707,76997,10702,698696,0
350,1,706009,247831,1321524,74109,10351,660310,0
351,1,707903,247705,1330735,73441,8565,665079,0
351,1,704252,247848,1445197,74106,10000,722124,0
352,1,710149,248191,1440943,73704,9598,719943,0
352,1,707909,247384,1463235,73967,9849,731354,0
353,1,711034,249016,1417595,74126,9439,708141,0
353,1,710048,247638,1377777,74053,9042,688390,0
354,1,708805,248451,1290852,73741,9643,645033,0
354,1,706256,247056,1519841,73866,10355,759212,0
355,1,707309,247580,1363038,73458,9215,681317,0
355,1,729114,251754,1544742,77209,10537,771830,0
356,1,713632,250304,1432054,74676,10101,715363,0
356,1,708741,247790,1440233,74044,9341,719514,0
357,1,707098,248165,1299540,73625,9608,649107,0
357,1,711467,249320,1509950,74744,9629,754114,0
358,1,713448,248243,1336313,73708,9689,667438,0
358,1,705526,246674,1303773,73715,8368,651365,0
359,1,710506,247993,1313533,73653,9317,656031,0
359,1,705406,247111,1461081,73823,9354,730119,0
360,1,707607,247488,1460883,73373,9566,730337,0
360,1,712037,249701,1443504,74955,10331,721028,0
361,1,709970,248169,1315140,73646,8707,656830,0
361,1,725838,251864,1521943,77229,10112,760577,0
362,1,711703,249309,1434137,74172,9450,716051,0
362,1,709949,247404,1543345,73936,9982,771208,0
363,1,711593,249054,1346921,73989,9156,672986,0
363,1,709444,247734,1516596,74040,9358,758003,0
364,1,709713,248049,1346096,73641,9206,672534,0
364,1,709089,247838,1363279,74136,10020,681332,0
365,1,717328,251038,1413369,74849,9305,705703,0
365,1,735737,257211,1383129,76901,9344,691263,0
366,1,710169,248610,1561556,73846,9308,779976,0
366,1,707051,247769,1458010,74105,9684,728366,0
367,1,710908,249372,1406212,74256,9195,702660,0
367,1,710771,249005,1462507,74736,10443,730701,0
368,1,707553,247904,1313593,73610,8296,656388,0
368,1,726196,251455,1516540,77114,11043,757754,0
369,1,708537,248571,1327252,73801,8998,663360,0
369,1,706297,247584,1413052,73978,9610,706117,0
370,1,710353,248318,1384105,73618,9390,691740,0
370,1,704326,246906,1457160,73785,9663,728121,0
371,1,711431,248578,1537713,73750,9360,768450,0
371,1,704603,247367,1376015,73969,9362,687378,0
372,1,728363,253010,1314853,76950,10179,656960,0
372,1,707809,247711,1368360,74032,9503,683794,0
373,1,709501,248783,1397466,73801,9679,697738,0
373,1,709791,249191,1485530,74802,10132,742345,0
374,1,709945,249198,1495767,73921,10783,747236,0
374,1,703501,246695,1467066,73696,10059,733101,0
375,1,718259,249678,1472335,74287,10076,736338,0
375,1,706939,248551,1492338,74447,9438,745534,0
376,1,713816,248565,1415529,73811,9833,707443,0
376,1,705509,247450,1544831,74006,10275,772162,0
377,1,713050,248608,1485896,73798,10099,742681,0
377,1,708173,246981,1452471,73802,10061,725899,0
378,1,712166,249404,1346939,74073,8948,673119,0
378,1,705578,246843,1480562,73747,9857,740032,0
379,1,712514,248782,1425962,73800,8952,712623,0
379,1,711877,248669,1444545,74553,9816,721652,0
380,1,713055,249636,1563827,74134,8958,781501,0
380,1,708566,248955,1414073,74734,9793,705948,0
381,1,712254,249541,1381769,74106,9041,690487,0
381,1,727831,252091,1353649,77306,10226,676518,0
382,1,708974,248330,1418355,73684,9049,708846,0
382,1,704807,247038,1343974,73803,9854,671556,0
383,1,715521,250876,1467898,74753,8890,733334,0
383,1,727132,252316,1523932,77316,10671,761073,0
384,1,732719,254313,1428762,77361,9894,714009,0
384,1,704435,247660,1408921,74102,9354,704193,0
385,1,708578,248859,1434590,73816,9152,716889,0
385,1,709511,248399,1409006,74475,9124,703699,0
386,1,714988,250511,1475974,74520,8788,737468,0
386,1,704007,246913,1345858,73803,8457,672285,0
387,1,710161,249003,1449173,73871,9102,724257,0
387,1,709193,249052,1411273,74754,9830,705050,0
388,1,707478,248546,1501760,73629,9140,750524,0
388,1,704254,247340,1464872,73913,9193,731789,0
389,1,707578,248324,1382342,73570,9322,690803,0
389,1,704315,247255,1498975,73880,9965,748068,0
390,1,712521,248750,1499723,73658,9447,749490,0
390,1,706295,248529,1547215,74507,9601,772536,0
391,1,709759,248505,1418890,73733,9168,709085,0
391,1,702207,247610,1396480,74033,8760,697890,0
392,1,709330,248100,1258711,73455,8236,629069,0
392,1,723608,250387,1350171,75264,9411,673887,0
393,1,712298,249516,1370998,74022,8440,685183,0
393,1,736800,252181,1350219,77336,10005,674660,0
394,1,712685,250030,1363439,74370,8706,681101,0
394,1,713309,246791,1431779,73685,9804,715540,0
395,1,712282,249583,1300435,74020,8747,649822,0
395,1,713258,247331,1361183,73962,9669,679778,0
396,1,715358,250608,1320387,74540,9286,659653,0
396,1,714129,247330,1430981,73963,9853,714931,0
397,1,711498,249418,1288891,73999,8730,643990,0
397,1,713131,247136,1519976,73876,9946,759624,0
398,1,707957,248363,1224217,73566,8006,611845,0
398,1,732957,251971,1458538,77283,10190,728914,0
399,1,709977,249303,1269618,73947,8358,634399,0
399,1,711652,247170,1383449,73918,9140,691209,0
400,1,729896,254100,1387445,77286,9522,693330,0
400,1,713302,247046,1450111,73822,10614,724826,0
401,1,710614,249480,1313371,73998,8854,656325,0
401,1,709773,246525,1366676,73692,9432,682854,0
402,1,709418,249002,1358957,73809,8681,679202,0
402,1,717960,249851,1568853,75006,10067,783025,0
403,1,712002,250396,1391550,74498,9230,695136,0
403,1,708418,246658,1416543,73641,9849,708004,0
404,1,708503,249047,1309982,73866,8468,654663,0
404,1,709324,247237,1309068,73935,9124,653691,0
405,1,710116,250059,1362179,74169,8783,680670,0
405,1,718075,249458,1426392,74762,10122,712667,0
406,1,707646,249331,1371551,73950,8564,685421,0
406,1,712836,247478,1436586,73998,10323,717280,0
407,1,705752,249318,1328337,73934,8020,663732,0
407,1,716922,249549,1522809,74927,10834,760846,0
408,1,715116,249836,1370063,74084,8345,684645,0
408,1,715550,248426,1426311,74305,9737,712764,0
409,1,722244,251350,1399824,74835,9020,699350,0
409,1,711184,247185,1434745,73871,10168,717053,0
410,1,716861,249608,1372744,74033,9036,686018,0
410,1,709278,247049,1389542,73764,10019,694400,0
411,1,716302,249252,1426575,73881,9203,712991,0
411,1,709639,247570,1289391,73953,9787,644081,0
412,1,719815,250591,1291538,74600,8695,645141,0
412,1,715290,249116,1328261,74754,9698,663567,0
413,1,737178,253778,1285957,77209,9457,642575,0
413,1,713941,248847,1322140,74413,8684,660895,0
414,1,715670,249410,1369751,73923,8980,684433,0
414,1,708310,246822,1549371,73633,9909,774029,0
415,1,714501,248894,1291859,73776,8526,645646,0
415,1,708332,247265,1437656,73821,9706,718090,0
416,1,715570,249600,1352982,74042,8988,676070,0
416,1,715501,248209,1338886,74087,9431,669053,0
417,1,714253,249244,1285428,73917,8660,642352,0
417,1,710766,246784,1392432,73568,8886,695552,0
418,1,716207,249533,1394445,74074,9186,696865,0
418,1,716931,249252,1517210,74575,9985,757306,0
419,1,716483,249788,1280644,74282,8614,639934,0
419,1,714400,248586,1458813,74145,9642,729110,0
420,1,716663,250291,1448880,74656,9142,723758,0
420,1,713300,247773,1331444,73889,9658,665224,0
421,1,732031,252987,1360104,77118,9564,679643,0
421,1,712538,247649,1416408,73896,9595,707839,0
422,1,716247,249232,1333923,74125,7623,666553,0
422,1,716310,249576,1344020,74773,8740,671364,0
423,1,713679,248458,1289048,73916,8304,644090,0
423,1,708801,247013,1305980,73647,8496,652510,0
424,1,718720,250786,1411418,74898,9046,705065,0
424,1,712592,247371,1347429,73823,8611,673371,0
425,1,734026,253238,1410820,77245,9421,705121,0
425,1,715990,249024,1351690,74520,9067,675273,0
426,1,714005,249281,1441661,74121,8425,720479,0
426,1,712377,247597,1381665,73797,8767,690550,0
427,1,710842,248189,1280266,73777,7689,639729,0
427,1,710784,247680,1444373,73878,8724,721759,0
428,1,712834,248536,1443787,73843,8579,721613,0
428,1,707490,246802,1269305,73495,8658,634238,0
429,1,717536,251073,1388061,74961,8438,693405,0
429,1,710415,247714,1299460,73913,8655,649288,0
430,1,710485,248700,1369911,73892,8343,684595,0
430,1,707963,246772,1361801,73541,8928,680620,0
431,1,720836,251031,1393106,74965,8589,696008,0
431,1,708710,247443,1297174,73794,8487,648113,0
432,1,713899,248896,1297463,74000,8170,648427,0
432,1,717487,249758,1303272,74727,8628,651137,0
433,1,716321,250934,1283349,74820,8084,641025,0
433,1,734375,253149,1313615,77383,8920,656303,0
434,1,713881,248958,1278937,74002,8503,639052,0
434,1,713979,249217,1276254,74464,8239,637617,0
435,1,714929,249866,1343761,74452,8739,671441,0
435,1,710359,247959,1274647,73850,7933,636941,0
436,1,708838,247824,1351456,73558,8563,675362,0
436,1,708081,247457,1339015,73705,8027,668910,0
437,1,728832,252138,1317366,76802,8810,658380,0
437,1,714520,248886,1339628,74444,8650,669176,0
438,1,708010,248555,1297193,73824,8101,648230,0
438,1,735249,253376,1465151,77457,10049,732125,0
439,1,712083,248375,1344814,73850,9196,672029,0
439,1,709389,247414,1408460,73678,8580,703825,0
440,1,716350,249947,1387517,74493,8966,693240,0
440,1,711132,248352,1357702,74001,8871,678490,0
441,1,709987,247893,1295971,73670,8282,647624,0
441,1,712563,248404,1409907,74044,9368,704602,0
442,1,709438,248159,1277205,73671,8613,638206,0
442,1,714806,250234,1351503,74934,8969,675134,0
443,1,714375,250022,1448620,74569,9094,723760,0
443,1,730045,252918,1456217,77249,9800,727725,0
444,1,710673,248620,1385096,73753,8787,692114,0
444,1,716099,248458,1343864,74053,8744,671614,0
445,1,708852,248257,1274692,73654,8051,637047,0
445,1,715699,247932,1596202,73850,11791,797795,0
446,1,709654,247651,1367428,73445,8923,683454,0
446,1,713949,247681,1478796,73815,10519,739288,0
447,1,714741,250411,1511260,74684,10071,754933,0
447,1,712472,247559,1371230,73720,9424,685179,0
448,1,728922,252583,1565980,76827,9807,782044,0
448,1,713756,248233,1269623,74001,8270,634397,0
449,1,710913,249363,1404621,74186,9273,701602,0
449,1,715049,248447,1513450,74061,9452,756322,0
450,1,705774,248041,1261982,73626,8546,630572,0
450,1,714415,248438,1387880,74051,9534,693606,0
451,1,706529,247838,1349772,73517,8581,674591,0
451,1,712895,248093,1304435,73917,9145,651820,0
452,1,717322,249694,1392741,74403,9031,695727,0
452,1,711088,247921,1272222,73882,8785,635848,0
453,1,711778,248376,1274485,73642,7882,636851,0
453,1,714832,247976,1374289,73923,10724,686783,0
454,1,708960,247648,1258429,73424,8768,628857,0
454,1,712124,247960,1229936,73900,8353,614532,0
455,1,713332,249703,1294468,74311,9059,646597,0
455,1,711921,248220,1310412,73934,9201,654951,0
456,1,709760,247849,1278671,73516,7621,638970,0
456,1,743774,258920,1341904,77368,9488,670494,0
457,1,713913,249712,1361360,74295,7984,680195,0
457,1,711651,248029,1360059,73919,8591,679411,0
458,1,711307,248619,1358476,73780,8265,678743,0
458,1,712442,248405,1300458,73984,8446,649835,0
459,1,709428,248252,1411953,73548,8062,705714,0
459,1,708803,247327,1383616,73665,8732,691467,0
460,1,711129,248164,1327501,73576,8439,663364,0
460,1,731731,251893,1402246,76945,9150,700678,0
461,1,728411,252464,1304856,76798,8548,652081,0
461,1,711312,247998,1376330,73865,9157,687868,0
462,1,713026,249686,1372189,74097,8180,685726,0
462,1,712031,248054,1332381,73835,8911,665880,0
463,1,706076,247539,1279734,73329,7335,639561,0
463,1,712600,248121,1395069,73944,8950,697130,0
464,1,713873,249660,1390295,74280,8893,694613,0
464,1,713916,248134,1299019,73925,8528,649106,0
465,1,711738,248413,1376780,73695,8668,687974,0
465,1,713307,248222,1348309,73983,8507,673758,0
466,1,712570,249030,1378206,73897,9279,688830,0
466,1,713913,248376,1280809,73984,7883,640254,0
467,1,707948,248119,1281173,73498,8305,640068,0
467,1,713029,248475,1376768,74066,8063,688037,0
468,1,708333,248700,1356841,73726,8618,678089,0
468,1,717029,249640,1327958,74624,8630,663231,0
469,1,709425,248058,1272935,73574,8151,636205,0
469,1,710387,247405,1468055,73678,8441,733683,0
470,1,709809,248203,1411603,73576,8526,705491,0
470,1,710036,247857,1509392,73900,10640,753939,0
471,1,713844,250218,1477351,74574,8670,738034,0
471,1,711146,247984,1359657,73929,8317,679398,0
472,1,729442,252615,1414092,76852,9498,706691,0
472,1,713613,249358,1323774,74597,8563,661358,0
473,1,709843,249007,1421952,73881,9104,710392,0
473,1,709119,247322,1386696,73613,8370,693070,0
474,1,705431,247417,1363362,73267,8715,681339,0
474,1,709988,248041,1382397,73894,8657,690830,0
475,1,705061,247745,1456055,73380,8837,727663,0
475,1,712147,249232,1322611,74511,8667,660507,0
476,1,708345,247541,1319858,73372,8177,659498,0
476,1,712653,248904,1359647,74277,9489,679517,0
477,1,713996,249868,1357087,74334,8865,678002,0
477,1,713544,248555,1232152,74129,8751,615782,0
478,1,709491,248423,1315159,73638,8698,657225,0
478,1,715642,249608,1320442,74647,8859,659735,0
479,1,709018,247827,1442520,73483,9298,720718,0
479,1,710326,248061,1316755,73931,8752,657903,0
480,1,709743,248307,1348310,73700,8484,673762,0
480,1,715810,250541,1329762,74980,8742,664359,0
481,1,729456,252751,1374593,76953,9631,686927,0
481,1,713042,249288,1374871,74349,8581,687045,0
482,1,705337,247446,1425740,73371,8295,712483,0
482,1,709364,247797,1370420,73757,9139,684827,0
483,1,713509,249618,1433186,74426,9184,716120,0
483,1,718744,251605,1598631,75402,11107,797759,0
484,1,708701,248463,1344889,73876,8122,672197,0
484,1,708957,248357,1282076,74054,8573,640697,0
485,1,705135,247455,1442867,73478,7933,721111,0
485,1,708346,248192,1371206,73949,8949,685294,0
486,1,732052,253822,1399729,77371,9710,699425,0
486,1,722193,250134,1326463,74771,8712,662747,0
487,1,732353,257260,1455952,76420,8620,727661,0
487,1,718287,248970,1376223,74175,9155,687758,0
488,1,708121,249072,1458776,74201,8147,728908,0
488,1,715027,248062,1301923,73903,8336,650687,0
489,1,709232,247827,1447005,73576,8815,723170,0
489,1,713037,247880,1387434,73851,9347,693437,0
490,1,710700,248778,1394105,73917,8267,696594,0
490,1,715961,248895,1309417,74199,8331,654336,0
491,1,713023,249836,1438941,74516,9067,718766,0
491,1,717005,249809,1375454,74493,8161,687314,0
492,1,710341,248558,1376778,73804,8457,688005,0
492,1,716939,248905,1391053,74233,8821,695044,0
493,1,709501,249302,1430095,74266,8431,714484,0
493,1,713553,247707,1322317,73830,8747,660778,0
494,1,707007,248148,1416825,73751,8271,707985,0
494,1,737898,253794,1425286,77693,10339,712320,0
495,1,704599,247469,1479833,73521,8342,739617,0
495,1,715122,248517,1395960,74238,10415,697050,0
496,1,707302,248901,1357625,74012,8237,678518,0
496,1,715625,249192,1264065,74508,8468,631600,0
497,1,705084,247305,1360218,73411,8597,679810,0
497,1,713957,248314,1234473,74100,8381,616819,0
498,1,714915,250852,1455161,74901,10238,727040,0
498,1,712332,248423,1301265,74154,8502,650251,0
499,1,729597,252975,1560302,77094,11415,779489,0
499,1,738249,253522,1404346,77654,9510,701770,0
500,1,707244,248377,1438965,73775,9232,719068,0
500,1,715426,248577,1383880,74183,8683,691694,0
501,1,708353,249317,1471717,74178,9678,735460,0
501,1,715847,249100,1541553,74378,9744,770388,0
502,1,706836,247993,1459608,73660,10094,729394,0
502,1,717455,250147,1293755,74985,8446,646209,0
503,1,704827,247542,1602549,73475,9775,801246,0
503,1,733007,252956,1412903,77449,9316,705899,0
504,1,724354,252679,1470193,76977,10219,734714,0
504,1,715070,249377,1311317,74620,8176,655160,0
505,1,709972,247572,1465173,73452,10027,731967,0
505,1,713800,248586,1403747,74250,9071,701489,0
506,1,714222,248593,1456217,73806,10125,727761,0
506,1,712718,248373,1382785,74127,9346,691083,0
507,1,715700,249588,1523718,74345,10819,761216,0
507,1,717128,250311,1297158,75074,8959,647884,0
508,1,711383,248337,1452509,73787,10298,725783,0
508,1,710182,247994,1360548,73994,8790,679895,0
509,1,712749,249008,1618320,74034,10022,808084,0
509,1,710031,248188,1344442,74111,8982,671841,0
510,1,707859,247547,1450529,73498,9616,724217,0
510,1,715761,248145,1373296,74096,8982,686259,0
511,1,711405,248311,1370158,73794,9595,684775,0
511,1,715717,248524,1279143,74162,8347,639277,0
512,1,709839,248105,1432699,73738,10558,715948,0
512,1,715370,248353,1416622,74116,9158,707888,0
513,1,712381,249611,1555276,74468,10025,777242,0
513,1,717411,249448,1305695,74509,8681,652469,0
514,1,711710,248897,1490913,73995,9650,744936,0
514,1,715322,248801,1381706,74252,8501,690578,0
515,1,708750,247848,1555516,73610,9708,777170,0
515,1,712522,248250,1328527,74127,7878,663844,0
516,1,711664,249398,1530438,74326,10248,764704,0
516,1,712104,248403,1356734,74191,8263,677976,0
517,1,708473,248380,1492507,73778,10199,746252,0
517,1,713490,248747,1274378,74248,8443,636875,0
518,1,711756,248075,1440692,73684,10271,719977,0
518,1,713179,247911,1292466,73993,8718,645907,0
519,1,709819,248070,1451242,73625,9782,725121,0
519,1,718290,250307,1296797,75044,8744,647725,0
520,1,708938,248213,1474806,73681,9821,737081,0
520,1,716950,249553,1296326,74725,8489,647621,0
521,1,708187,248226,1443833,73725,9843,721481,0
521,1,712489,248758,1276347,74291,8614,637856,0
522,1,713051,249551,1564437,74213,11218,781596,0
522,1,710466,248327,1334258,73977,8377,666725,0
523,1,707739,247601,1586494,73480,9383,792522,0
523,1,714617,250365,1275093,74931,8322,636952,0
524,1,707850,248225,1601921,73787,9822,800509,0
524,1,713758,248502,1422302,74054,8786,711268,0
525,1,725911,252215,1507877,76882,10346,753524,0
525,1,714059,249145,1334659,74550,7913,666771,0
526,1,713676,249571,1638235,74389,10873,818465,0
526,1,713461,248640,1379871,74194,8316,689621,0
527,1,709622,248230,1493374,73743,9827,746420,0
527,1,711770,248331,1337395,74046,8806,668407,0
528,1,707980,248269,1496050,73779,9663,747726,0
528,1,734381,253506,1404391,77454,9273,701812,0
529,1,708716,247900,1358081,73678,9360,678676,0
529,1,713364,249694,1297066,74484,8504,648156,0
530,1,708736,247900,1491176,73564,9848,744768,0
530,1,717010,250220,1363267,74874,8461,681053,0
531,1,707976,247841,1272660,73688,7951,635903,0
531,1,716672,250390,1465284,74769,7934,732186,0
532,1,711415,249728,1407576,74541,7633,703148,0
532,1,712827,249271,1336506,74375,8239,667745,0
533,1,728388,252639,1441241,77026,8458,720251,0
533,1,708894,247788,1379089,73875,8528,689261,0
534,1,710533,249345,1490436,74141,8017,744783,0
534,1,736722,254619,1481003,77940,9965,740159,0
535,1,707714,248262,1284127,73805,8038,641729,0
535,1,711545,248802,1355182,74241,8135,677179,0
536,1,704673,247603,1367062,73530,8189,683116,0
536,1,716160,250947,1475800,75077,10351,738388,0
537,1,711927,249215,1365705,74271,8552,682331,0
537,1,719237,249873,1640812,74507,10740,818831,0
538,1,729667,252829,1330699,77048,9183,665036,0
538,1,715909,248989,1409850,74172,10447,704529,0
539,1,709189,248229,1407547,73748,8551,703349,0
539,1,720123,250654,1359272,74913,10391,678773,0
540,1,708112,248125,1379092,73681,7846,689166,0
540,1,713575,248343,1537190,73966,10517,768372,0
541,1,708160,248217,1207623,73777,8664,603415,0
541,1,714918,249396,1533922,74302,10197,766536,0
542,1,705397,247308,1277410,73425,8172,638430,0
542,1,736137,253700,1552361,77576,10946,775868,0
543,1,708579,248062,1278198,73750,8350,638814,0
543,1,713170,248188,1479924,73975,10357,739618,0
544,1,707107,247972,1272968,73614,8201,636152,0
544,1,712576,248413,1440814,74095,9676,720030,0
545,1,705574,247934,1408881,73711,8205,704083,0
545,1,714976,249671,1500223,74661,10503,749260,0
546,1,704763,247492,1262537,73503,8015,630828,0
546,1,712590,248356,1476431,74028,10077,737951,0
547,1,705279,248260,1370447,73803,8565,684927,0
547,1,716898,250594,1409807,74995,11019,704684,0
548,1,709344,247668,1268067,73560,8125,633621,0
548,1,732350,253417,1560768,77495,12024,779510,0
549,1,709694,247871,1381449,73637,8690,690427,0
549,1,709300,248599,1601981,74162,9429,800223,0
550,1,711839,248727,1395880,73954,7979,697649,0
550,1,710869,248269,1477126,74046,10380,738194,0
551,1,708190,247717,1297388,73608,7741,648352,0
551,1,709522,247798,1358984,73851,9517,678914,0
552,1,707680,247590,1376776,73600,8009,687933,0
552,1,712304,249117,1460526,74318,9742,729377,0
553,1,708520,248037,1257198,73720,8115,628249,0
553,1,709135,248018,1579004,73917,9991,789001,0
554,1,706239,247850,1327346,73675,8175,663331,0
554,1,707197,247565,1505572,73778,10143,752405,0
555,1,712309,249713,1476095,74511,8755,737341,0
555,1,708526,248541,1765395,74085,11486,881892,0
556,1,706904,247989,1393073,73723,7701,696151,0
556,1,707399,248550,1436170,74097,10369,717542,0
557,1,708927,248203,1249464,73785,7740,624398,0
557,1,711721,247809,1453267,73841,10572,726240,0
558,1,706628,247796,1365637,73605,7702,682497,0
558,1,716557,250064,1412642,74859,10471,705572,0
559,1,708090,247910,1342965,73675,8549,671180,0
559,1,733107,252833,1615038,77304,11832,806903,0
560,1,706979,247854,1354090,73663,8782,676413,0
560,1,709226,247614,1512472,73734,10365,755487,0
561,1,706770,247971,1249746,73699,8217,624524,0
561,1,711413,248498,1480103,74143,10269,739641,0
562,1,709333,248493,1334382,73831,9640,666954,0
562,1,714850,249579,1347202,74635,9680,673078,0
563,1,705040,247173,1277047,73488,8742,638207,0
563,1,710310,248118,1471142,73998,10297,735733,0
564,1,713917,250857,1424471,74945,9112,711266,0
564,1,709019,248144,1403752,73904,9795,701606,0
565,1,707171,248500,1456461,73832,9675,727903,0
565,1,735321,253408,1613235,77513,11120,806160,0
566,1,709442,249537,1466121,74429,9376,732334,0
566,1,709751,248090,1457150,73975,9821,727857,0
567,1,706721,248721,1443716,73885,8878,721547,0
567,1,710965,248454,1503864,74093,9924,751333,0
568,1,707505,249275,1609741,74282,9479,804310,0
568,1,708020,247754,1483493,73845,10321,741146,0
569,1,708724,247967,1395578,73665,8590,696443,0
569,1,713288,250119,1587736,74929,11948,793294,0
570,1,712294,249918,1440366,74560,9147,718856,0
570,1,729585,252868,1493682,77350,10115,746479,0
571,1,707551,247958,1395471,73660,8459,697401,0
571,1,711752,248528,1387150,74093,9184,693256,0
572,1,709339,249017,1450009,74181,8902,723747,0
572,1,713321,249604,1320130,74729,8663,659473,0
573,1,706304,248301,1566448,73745,9315,782696,0
573,1,730712,252825,1567068,77344,9862,783145,0
574,1,707407,247515,1361990,73597,8260,680802,0
574,1,710267,249291,1361457,74485,9490,680256,0
575,1,710707,249518,1448305,74451,9456,723558,0
575,1,710728,248414,1363628,74061,9450,681469,0
576,1,708248,248592,1456936,73894,9543,727692,0
576,1,715061,250655,1328977,75109,9436,663842,0
577,1,705661,248007,1385205,73664,8532,691837,0
577,1,728360,252575,1384063,77263,10297,691690,0
578,1,711694,249789,1463904,74467,9627,732286,0
578,1,707016,247962,1457226,73965,9401,728223,0
579,1,706756,248363,1332128,73818,8477,665690,0
579,1,709806,249467,1369153,74611,9386,684040,0
580,1,704578,247932,1293789,73626,7899,646475,0
580,1,736645,252740,1405463,77337,9790,702395,0
581,1,734275,257292,1360452,76487,8722,679834,0
581,1,713817,247862,1378170,73910,9206,688677,0
582,1,706736,247778,1333599,73600,7915,666439,0
582,1,717441,249833,1409817,74674,8878,704270,0
583,1,709314,249265,1393636,74243,8356,696366,0
583,1,717946,249209,1459483,74356,10028,729311,0
584,1,726233,252446,1470561,76906,9360,734906,0
584,1,714110,248176,1287010,73993,8940,643169,0
585,1,704709,248223,1449034,73794,8590,724122,0
585,1,712160,247591,1346066,73808,8410,672716,0
586,1,709759,249340,1439224,74323,8808,719116,0
586,1,714277,248051,1365588,73975,8469,682429,0
587,1,709111,250139,1390132,74658,8901,694480,0
587,1,715034,249078,1391123,74341,9032,695192,0
588,1,725408,252427,1325752,76946,8902,662565,0
588,1,712527,248092,1395626,74011,8332,697433,0
589,1,704600,248477,1433501,73825,8516,716090,0
589,1,711963,248156,1649882,73987,10393,824544,0
590,1,703565,248118,1344672,73682,7887,671883,0
590,1,715994,249911,1311124,74826,7791,654902,0
591,1,706727,249599,1379332,74410,8294,689198,0
591,1,710468,248052,1350934,73944,8264,675144,0
592,1,713249,247727,1399230,73573,8871,699292,0
592,1,719294,249673,1285761,74681,8870,642318,0
593,1,711001,248119,1364480,73759,8881,681703,0
593,1,712619,247940,1317827,73928,8108,658574,0
594,1,712905,248905,1451506,74178,9266,725030,0
594,1,714459,248562,1403294,74169,8842,701234,0
595,1,711117,248804,1390581,73991,8681,694949,0
595,1,717914,250525,1342573,75008,10622,670717,0
596,1,709886,248113,1309648,73690,8916,654372,0
596,1,734598,253063,1328187,77362,9793,663805,0
597,1,732492,252867,1353021,77066,9813,676161,0
597,1,712040,248041,1244532,73992,8268,621892,0
598,1,711518,249362,1380235,74337,8532,689520,0
598,1,711977,248272,1363038,74041,9178,681205,0
599,1,709287,248034,1344477,73684,8302,671945,0
599,1,714801,249556,1303134,74628,8368,651087,0
600,1,707816,247765,1237954,73625,7953,618664,0
600,1,712483,248939,1356247,74276,8281,677847,0
601,1,708491,247991,1388272,73724,8875,693697,0
601,1,734899,256562,1327392,76454,8475,663381,0
602,1,711874,248866,1390303,74183,9125,694685,0
602,1,713472,248327,1394463,74038,8597,696879,0
603,1,709683,247888,1298156,73692,8485,648661,0
603,1,710729,248709,1391530,74158,7850,695448,0
604,1,705839,246916,1377757,73397,8856,688614,0
604,1,710697,247950,1364065,73898,8379,681603,0
605,1,707427,247954,1395705,73614,9207,697579,0
605,1,711347,248667,1384303,74175,8843,691793,0
606,1,705610,247639,1266792,73608,7847,633066,0
606,1,710498,248314,1283736,74031,8153,641475,0
607,1,711957,249292,1415620,74327,9090,707321,0
607,1,714647,248530,1294395,74102,8857,646704,0
608,1,709058,248061,1285819,73752,7366,642597,0
608,1,716675,249867,1297969,74718,8636,648427,0
609,1,710226,249399,1444989,74354,9017,721909,0
609,1,710989,248079,1357041,73936,8307,678141,0
610,1,727219,252562,1421042,77006,8699,710151,0
610,1,716020,249941,1281406,74785,8417,640084,0
611,1,709765,248466,1491438,73854,9299,745322,0
611,1,713116,248792,1700289,74226,10158,849740,0
612,1,710274,249145,1406246,74208,9077,702687,0
612,1,712619,248638,1355021,74121,8811,677122,0
613,1,711154,248239,1375252,73796,8854,687410,0
613,1,712831,249004,1421513,74229,10355,710419,0
614,1,711521,248231,1327772,73757,8506,663491,0
614,1,711003,248304,1312536,73999,8394,655801,0
615,1,716606,250546,1398957,74777,8761,698757,0
615,1,710151,248646,1284341,74108,8710,641496,0
616,1,710194,248439,1436361,73873,9467,717795,0
616,1,711657,249654,1293323,74614,8909,645839,0
617,1,712094,249059,1422199,74240,8225,710630,0
617,1,712403,248402,1674284,74085,11033,836779,0
618,1,709259,248266,1287637,73819,8000,643422,0
618,1,712661,249066,1341398,74260,8759,670006,0
619,1,708362,248207,1378606,73723,8637,688964,0
619,1,714655,249673,1385925,74412,8518,692082,0
620,1,706804,247628,1288616,73526,8383,643979,0
620,1,713961,249804,1346849,74601,8871,671554,0
621,1,731769,252726,1325527,77040,8691,662374,0
621,1,718786,251093,1489567,75124,11118,744038,0
622,1,708249,247944,1394970,73696,8179,697186,0
622,1,710808,248699,1364163,74030,8589,681634,0
623,1,712262,249771,1323996,74445,8451,661372,0
623,1,709511,248434,1364403,73955,8639,681927,0
624,1,705713,247699,1261829,73545,8176,630494,0
624,1,715257,251006,1343958,75062,8803,671307,0
625,1,704393,247562,1349110,73508,8005,674200,0
625,1,714855,248945,1390574,74157,8683,694935,0
626,1,710068,248004,1309033,73724,8207,654040,0
626,1,714749,248665,1417884,74097,8878,708616,0
627,1,711742,249150,1403780,74263,8696,701341,0
627,1,713563,249193,1256709,74243,7940,627998,0
628,1,729068,252731,1328318,77053,8872,663695,0
628,1,712711,248600,1317145,74056,9178,658193,0
629,1,705997,247713,1363070,73590,8352,681239,0
629,1,714232,248996,1253759,74175,8514,626560,0
630,1,707892,248915,1254973,74024,7984,627127,0
630,1,712576,248710,1268898,74043,8790,634065,0
631,1,704861,247501,1269398,73515,8294,634268,0
631,1,740536,254632,1384793,78308,10304,692120,0
632,1,707848,248243,1407277,73803,8680,703241,0
632,1,713595,249168,1238859,74199,8329,619045,0
633,1,712763,250295,1474613,74672,8748,736785,0
633,1,714496,249969,1335946,74727,8861,667447,0
634,1,708304,248262,1381753,73759,8791,690718,0
634,1,710994,248981,1431060,74244,8960,715158,0
635,1,708359,248947,1263882,74040,8081,631521,0
635,1,712706,248531,1307387,74060,8743,653390,0
636,1,704808,247976,1386237,73657,8901,692650,0
636,1,712376,248063,1382060,73987,8416,690621,0
637,1,706302,249015,1346289,74055,8262,672789,0
637,1,712837,248257,1348259,73938,8657,673877,0
638,1,706849,247462,1257492,73448,8123,628467,0
638,1,734825,253625,1465549,77573,9326,732219,0
639,1,708770,248111,1257081,73748,7625,628180,0
639,1,713093,249091,1307352,74279,8242,653290,0
640,1,709496,248172,1355907,73707,8949,677628,0
640,1,714263,249071,1352194,74280,7877,675651,0
641,1,713079,250238,1413198,74691,8425,705975,0
641,1,710244,247985,1358525,73909,8132,678912,0
642,1,709600,248112,1412830,73711,8642,705991,0
642,1,718007,250867,1305706,75220,8900,652255,0
643,1,708663,248694,1274738,73836,8092,637015,0
643,1,711123,248548,1258926,74088,8102,629160,0
644,1,707517,247846,1270983,73602,7994,635153,0
644,1,708087,248016,1407763,73916,9147,703561,0
645,1,710190,248709,1408526,73921,9168,703883,0
645,1,713537,248474,1342889,74213,8775,671141,0
646,1,713634,250581,1493386,74796,9872,745711,0
646,1,713538,248901,1263350,74315,8355,631320,0
647,1,726982,252018,1481553,76753,10163,739632,0
647,1,712964,249178,1367800,74428,8619,683477,0
648,1,709352,248735,1432810,73950,9125,716003,0
648,1,713138,248794,1291050,74297,8494,645145,0
649,1,706999,248029,1394637,73691,8228,696939,0
649,1,714223,250068,1272760,74901,8567,635853,0
650,1,707900,248554,1231195,73890,7912,615198,0
650,1,713860,248818,1365600,74338,8640,682413,0
651,1,706378,247635,1286140,73552,7988,642760,0
651,1,710596,248073,1360131,74042,8250,679701,0
652,1,708933,249214,1370307,74264,8135,684639,0
652,1,730406,253236,1411125,77577,8810,705150,0
653,1,705812,248669,1397721,73920,7996,698515,0
653,1,711526,248876,1392440,74294,8471,695876,0
654,1,702224,247368,1360847,73474,8206,680047,0
654,1,711841,249331,1369143,74513,8435,684204,0
655,1,710926,250040,1472333,74609,9060,735554,0
655,1,715391,249515,1353279,74480,7901,676289,0
656,1,708790,248023,1365849,73718,8676,682581,0
656,1,730908,252772,1440140,77332,9623,719674,0
657,1,708709,248306,1346832,73773,8415,673077,0
657,1,709581,248242,1431929,74099,9131,715609,0
658,1,709188,248288,1294653,73824,8520,646927,0
658,1,710957,248740,1547752,74280,9202,772784,0
659,1,710897,249435,1403016,74326,8926,701035,0
659,1,709630,248535,1422119,74175,9638,710398,0
660,1,706545,248524,1487701,73887,11007,743488,0
660,1,708601,248279,1307916,74095,8166,653614,0
661,1,707144,247948,1274922,73655,8883,637080,0
661,1,708587,248469,1282547,74212,8694,640914,0
662,1,706864,247866,1223949,73612,8076,611635,0
662,1,709555,249416,1211476,74510,8269,605384,0
663,1,710660,249349,1289659,74306,8530,644348,0
663,1,705439,248296,1263047,74109,8120,631145,0
664,1,708274,249097,1278923,74070,8393,639123,0
664,1,712881,248302,1390822,74108,9017,695107,0
665,1,704024,247426,1459372,73489,8170,729363,0
665,1,714712,249656,1323408,74744,8565,660968,0
666,1,705953,248622,1505479,73930,9390,752382,0
666,1,734523,253206,1521771,77578,9995,760435,0
667,1,708434,249984,1399956,74538,8665,699409,0
667,1,713920,249156,1361443,74458,8852,680438,0
668,1,706571,247979,1515201,73701,9464,756487,0
668,1,712950,248427,1380244,74151,8891,689817,0
669,1,707467,248574,1506611,73906,10212,754125,0
669,1,713033,248719,1343467,74274,8587,671320,0
670,1,705697,247809,1402336,73612,8709,700785,0
670,1,711778,248883,1364918,74340,9151,682026,0
671,1,704739,247888,1381707,73701,8696,690398,0
671,1,736853,253598,1428309,77665,9544,713740,0
672,1,702389,247466,1457719,73518,8551,728491,0
672,1,712416,247921,1415072,73928,8374,707179,0
673,1,708285,248403,1382145,73832,8574,690693,0
673,1,712722,248595,1468621,74282,8784,734086,0
674,1,709254,249391,1465242,74367,8749,731811,0
674,1,712529,248327,1370610,74173,8421,684925,0
675,1,725518,252632,1433584,77012,9155,716352,0
675,1,714333,249081,1287068,74351,8450,643251,0
676,1,705369,248342,1423965,73784,8992,711674,0
676,1,712915,248366,1312410,74125,8772,655963,0
677,1,704074,247955,1343435,73720,8633,671203,0
677,1,711792,248370,1286931,74191,8433,643035,0
678,1,704420,248331,1536942,73858,9281,767851,0
678,1,739279,257970,1370902,77034,9236,685065,0
679,1,712170,248195,1430621,73786,9213,714589,0
679,1,710735,248669,1262907,74264,9017,631090,0
680,1,709454,247559,1437357,73511,9312,718248,0
680,1,708947,248520,1274474,74226,9317,636843,0
681,1,710361,248448,1331756,73885,8864,665381,0
681,1,716586,250107,1314705,74916,8826,656840,0
682,1,710987,248362,1403458,73849,9150,701321,0
682,1,715292,248918,1401680,74362,9053,700511,0
683,1,707828,248238,1513052,73743,9247,756387,0
683,1,715180,248848,1358799,74278,8578,679349,0
684,1,714200,249710,1517317,74431,10271,758051,0
684,1,714399,249556,1284135,74732,8395,641570,0
685,1,709288,248386,1517484,73848,9712,757709,0
685,1,713572,248914,1400684,74326,8608,700076,0
686,1,729375,252303,1689374,76911,11351,844190,0
686,1,709390,248015,1267773,74152,8446,633581,0
687,1,707622,248385,1421647,73842,9461,710415,0
687,1,713716,248709,1426142,74359,9034,712731,0
688,1,709127,249308,1519494,74293,10122,759016,0
688,1,733156,253098,1421634,77568,9761,710477,0
689,1,707967,247932,1562786,73644,10878,780865,0
689,1,711930,248777,1375992,74287,8912,687631,0
690,1,707692,247530,1488011,73471,9432,743666,0
690,1,710771,248416,1343374,74267,9091,671353,0
691,1,728934,252621,1456699,77023,10580,727995,0
691,1,706566,247335,1355349,73826,8888,677318,0
692,1,707356,247999,1517310,73688,10906,758172,0
692,1,736339,253340,1484692,77681,9762,741957,0
693,1,708835,248189,1673297,73769,10176,836680,0
693,1,712404,248565,1364369,74302,8312,681767,0
694,1,709145,249307,1534185,74146,9370,767050,0
694,1,714678,249781,1290015,74897,8136,644295,0
695,1,708951,248485,1470775,74124,10904,734400,0
695,1,709534,247788,1302698,74034,8298,651044,0
696,1,706819,248088,1514257,73674,10497,756597,0
696,1,714420,249643,1355218,74658,8127,677233,0
697,1,705141,247857,1424828,73653,9760,711962,0
697,1,710591,248278,1361659,74192,8412,680560,0
698,1,705709,247793,1515075,73603,9865,757604,0
698,1,707971,248059,1266571,74120,7724,632832,0
699,1,702639,247329,1434152,73405,9694,716697,0
699,1,706335,247607,1359967,73980,8150,679645,0
700,1,708369,247801,1422978,73624,10258,711066,0
700,1,716785,250771,1335169,75314,8515,667073,0
701,1,711193,249312,1501326,74230,9763,749824,0
701,1,709289,248483,1346167,74315,8418,672784,0
702,1,709813,248410,1435462,73862,9382,716869,0
702,1,709437,248833,1365134,74463,9179,682182,0
703,1,707999,248126,1636084,73700,10079,817635,0
703,1,708037,248407,1380636,74460,8667,689835,0
704,1,709805,249103,1621922,74081,9624,810111,0
704,1,710178,248355,1429723,74294,8585,714414,0
705,1,706467,247993,1428970,73734,8744,714005,0
705,1,715118,248656,1375657,74392,9142,687399,0
706,1,708130,247875,1355114,73769,9029,677084,0
706,1,714203,248524,1398156,74297,8504,698731,0
707,1,706970,247729,1458443,73671,9314,728700,0
707,1,734944,253340,1409565,77732,9136,704444,0
708,1,706307,247612,1353124,73632,8685,676219,0
708,1,714497,249478,1288790,74812,8445,643892,0
709,1,707564,248885,1432448,74183,9246,715638,0
709,1,712358,248311,1370541,74140,9120,684924,0
710,1,704815,248227,1395353,73846,8415,697151,0
710,1,712026,248403,1361022,74220,8733,680126,0
711,1,702645,247316,1440330,73533,9190,719833,0
711,1,712067,248792,1265667,74277,8177,632513,0
712,1,707190,247539,1436935,73623,8432,717987,0
712,1,713487,248545,1357599,74163,8557,678432,0
713,1,712561,250110,1550267,74773,10024,774616,0
713,1,712071,248431,1313521,74160,8899,656348,0
714,1,706559,248191,1603800,73817,10573,801874,0
714,1,715262,249682,1250517,74724,8578,624621,0
715,1,704857,247923,1587991,73734,10519,793547,0
715,1,709304,247845,1291877,73933,8919,645586,0
716,1,705476,247799,1434866,73744,9064,717089,0
716,1,711840,248325,1395857,74132,9167,697601,0
717,1,706439,248554,1584989,74011,10904,792157,0
717,1,711608,248592,1368955,74302,9003,684081,0
718,1,702272,247670,1444255,73700,10005,721590,0
718,1,730154,252843,1425921,77459,9479,712606,0
719,1,709764,248435,1413196,73940,9282,706012,0
719,1,709146,248359,1288573,74266,7975,643860,0
720,1,712629,249099,1446791,74321,10299,722819,0
720,1,710598,249382,1291102,74758,8567,644928,0
721,1,708767,247998,1297475,73807,9157,648280,0
721,1,715125,249092,1374710,74370,8454,686991,0
722,1,708269,248123,1291896,73816,9019,645408,0
722,1,733833,253233,1448034,77542,9400,723696,0
723,1,709277,248427,1342821,73910,8982,670879,0
723,1,709636,247826,1402783,73984,7787,701028,0
724,1,710379,249277,1477425,74445,9860,737946,0
724,1,710372,248561,1449191,74263,8420,724143,0
725,1,729909,252802,1402829,77135,10436,700893,0
725,1,709757,248750,1358153,74254,7970,678672,0
726,1,706963,247765,1491527,73712,9382,745291,0
726,1,712223,249595,1283667,74854,8700,641253,0
727,1,706327,247776,1449535,73669,9537,724508,0
727,1,728241,251561,1404463,77012,9705,701881,0
728,1,707570,248259,1382659,73804,8999,691023,0
728,1,707137,247218,1286214,73904,8865,642647,0
729,1,708212,247574,1527498,73611,9503,763377,0
729,1,707219,247438,1328300,73993,8649,663698,0
730,1,710459,249413,1427927,74474,9546,713330,0
730,1,704229,247758,1227803,73964,7740,613532,0
731,1,725742,252099,1442287,76862,9727,720906,0
731,1,705246,246891,1269971,73619,8033,634558,0
732,1,708409,248891,1322911,74079,9086,660994,0
732,1,703615,246719,1413173,73582,9474,706161,0
733,1,709737,249486,1495836,74413,9629,747220,0
733,1,729262,252689,1414420,77394,10180,706886,0
734,1,705510,248405,1472778,73889,9515,735973,0
734,1,706717,247571,1368378,73829,9035,683780,0
735,1,705683,247293,1425937,73508,9180,712546,0
735,1,703863,247203,1373320,73802,8993,686218,0
736,1,707256,248508,1393318,73888,9046,696228,0
736,1,708236,249326,1290980,74664,8530,645089,0
737,1,708272,248538,1349439,73984,9332,674211,0
737,1,706692,247459,1366794,73891,8539,683036,0
738,1,704853,247432,1478231,73578,9511,738908,0
738,1,705299,247050,1277142,73649,8353,638253,0
739,1,703967,247500,1376377,73578,8791,687777,0
739,1,725362,251980,1465474,77156,9781,732349,0
740,1,725283,252537,1420668,77067,10058,709865,0
740,1,704500,247596,1339794,73943,8560,669541,0
741,1,706858,248110,1436422,73807,9109,717809,0
741,1,704727,247694,1338788,73843,8908,669083,0
742,1,702403,246719,1357604,73398,8469,678541,0
742,1,706161,248619,1272972,74325,8629,635922,0
743,1,702484,247233,1477069,73470,9545,738131,0
743,1,703088,247226,1342468,73699,8539,670931,0
744,1,708160,249432,1473241,74512,10440,735636,0
744,1,700737,246747,1289029,73497,8112,644151,0
745,1,703746,248013,1435582,73791,9121,717426,0
745,1,717600,248933,1301399,74385,8538,650146,0
746,1,703079,248099,1493139,73716,9214,746182,0
746,1,736827,252995,1454925,77322,10119,727204,0
747,1,701994,247974,1446258,73779,9335,722457,0
747,1,714913,248184,1645259,73920,9923,822165,0
748,1,710017,249508,1446205,74424,10284,722180,0
748,1,712628,247807,1483749,73830,9209,741547,0
749,1,708264,248071,1438819,73809,10489,718843,0
749,1,716089,248752,1383571,74318,9736,691289,0
750,1,709238,249335,1463134,74386,10458,730866,0
750,1,712586,247299,1349390,73728,9355,675060,0
751,1,707981,248234,1466319,73844,9823,732762,0
751,1,713261,248059,1415989,73954,9627,707390,0
752,1,708034,248593,1460360,73979,9903,729762,0
752,1,716980,249312,1380955,74510,9801,689922,0
753,1,704319,248067,1358244,73797,10028,678809,0
753,1,711614,247694,1389870,73837,9784,694586,0
754,1,705502,248121,1399225,74014,10289,699029,0
754,1,711955,247515,1373925,73787,9105,686474,0
755,1,703133,247605,1312116,73673,10168,655557,0
755,1,710833,247322,1381557,73627,9161,690391,0
756,1,701937,247364,1502677,73550,10425,750926,0
756,1,715186,249425,1310931,74660,9242,654872,0
757,1,700661,247168,1465790,73423,9915,732464,0
757,1,730626,251863,1429773,76981,9692,714490,0
758,1,706730,248101,1440321,73808,9802,719661,0
758,1,711529,248408,1290971,74071,8477,645141,0
759,1,709366,249730,1439523,74513,9864,719085,0
759,1,713859,248151,1443914,73983,9062,721506,0
760,1,703442,247521,1484449,73600,10046,741882,0
760,1,710621,247593,1341711,73755,8789,670468,0
761,1,706949,248848,1444874,74065,9545,722038,0
761,1,712687,248755,1275650,74312,8323,637320,0
762,1,707984,249380,1439135,74403,9549,718836,0
762,1,712097,247923,1450794,73897,8332,725078,0
763,1,702187,247681,1445746,73691,9337,722346,0
763,1,715200,249539,1397589,74678,8926,698231,0
764,1,701022,247742,1382288,73616,9335,690684,0
764,1,730726,252018,1406747,77023,9091,702942,0
765,1,707411,249459,1434258,74466,10194,716439,0
765,1,711554,248470,1270363,74091,8178,634822,0
766,1,723969,252507,1591743,77049,10759,795208,0
766,1,709091,247674,1349911,73790,8405,674580,0
767,1,703928,249129,1472509,74310,9056,735655,0
767,1,737230,256801,1383028,76542,7966,691121,0
768,1,714009,248089,1324859,73790,9554,662057,0
768,1,708589,247780,1348547,73853,8662,673898,0
769,1,713298,248748,1434104,74205,10150,716247,0
769,1,717181,249399,1361185,74581,9062,679840,0
770,1,711048,247572,1370151,73657,10044,684576,0
770,1,711433,247317,1379235,73618,8872,688981,0
771,1,710983,247749,1491040,73663,9939,745193,0
771,1,712005,247905,1276476,73866,8743,637883,0
772,1,710875,248104,1436882,73824,9723,718079,0
772,1,711595,247349,1227633,73712,8316,613576,0
773,1,715656,249221,1503367,74448,10749,750840,0
773,1,711114,247634,1267808,73776,8865,633588,0
774,1,732287,252071,1481215,76899,11068,739948,0
774,1,709153,247212,1272195,73553,9199,635756,0
775,1,711638,248023,1402476,73809,9459,700849,0
775,1,730473,252185,1312119,77053,9617,655728,0
776,1,709268,247164,1472303,73472,10332,735769,0
776,1,712036,247285,1410917,73642,8743,705184,0
777,1,711813,248632,1612321,74105,10607,805392,0
777,1,710810,247681,1373338,73801,8860,686262,0
778,1,729014,252326,1439971,76987,10947,719588,0
778,1,709167,247314,1276001,73644,8246,637626,0
779,1,712343,247845,1469567,73698,9422,734222,0
779,1,713999,249312,1288865,74565,8759,643836,0
780,1,709308,247431,1529804,73557,9664,764514,0
780,1,708667,247692,1290945,73738,8379,645133,0
781,1,711145,248205,1396825,73826,10560,697678,0
781,1,712429,247666,1470756,73836,9220,734982,0
782,1,708672,247680,1381863,73654,10098,690556,0
782,1,709137,246776,1413922,73501,9151,706431,0
783,1,710367,247628,1364289,73687,10205,681726,0
783,1,715297,249847,1304340,74818,8723,651633,0
784,1,730382,252356,1423842,76960,10930,711478,0
784,1,730828,252540,1418157,77220,9831,708666,0
785,1,709674,248019,1450436,73725,10149,724670,0
785,1,707879,247555,1395235,73805,8540,697253,0
786,1,711033,248865,1399141,74064,10162,698933,0
786,1,706463,247046,1341119,73585,8549,670213,0
787,1,706816,247537,1460333,73593,10023,729617,0
787,1,709656,248125,1531712,73971,9190,765499,0
788,1,733534,252638,1530412,77081,10309,764741,0
788,1,707923,247371,1337796,73701,8243,668639,0
789,1,712273,248770,1438194,73991,9528,718780,0
789,1,708965,248076,1423839,73869,8634,711669,0
790,1,709639,247345,1384699,73519,9344,691836,0
790,1,708687,247813,1437993,73841,9581,718645,0
791,1,708157,247211,1460202,73491,9702,729797,0
791,1,707158,247736,1280144,73792,8901,639787,0
792,1,707461,247338,1373165,73540,9043,686166,0
792,1,708339,247942,1361926,73840,9224,680677,0
793,1,709365,247569,1503721,73650,10204,751271,0
793,1,709884,249190,1255097,74534,9279,626961,0
794,1,710240,248158,1536806,73817,10178,767993,0
794,1,712836,247584,1230180,73766,8367,614682,0
795,1,709676,247837,1400686,73730,9989,699681,0
795,1,709966,246480,1270656,73416,9194,634991,0
796,1,712505,249245,1391934,74356,10441,695436,0
796,1,711087,247357,1280477,73691,8206,639821,0
797,1,709143,247392,1421658,73495,10303,710386,0
797,1,713968,248488,1230078,74274,8708,614572,0
798,1,710554,248478,1464487,73949,9439,731788,0
798,1,712617,248163,1270581,73987,8356,634956,0
799,1,705833,246900,1435972,73434,9034,717856,0
799,1,708641,247364,1369582,73698,7742,684448,0
800,1,714870,250506,1447799,74888,9829,723060,0
800,1,710298,247148,1339638,73626,8486,669458,0
801,1,730148,253032,1425295,77202,10085,712042,0
801,1,708899,247063,1281339,73531,8282,640401,0
802,1,710908,248306,1493347,73867,10060,746085,0
802,1,712624,248762,1342303,74208,8315,670893,0
803,1,709445,247678,1402430,73688,9283,700946,0
803,1,709967,247828,1371242,73822,7993,685310,0
804,1,710716,248157,1439528,73788,9719,719111,0
804,1,731316,252229,1414867,77111,9938,707137,0
805,1,710588,248567,1500288,73961,9951,749704,0
805,1,710831,248104,1286483,73942,8563,642839,0
806,1,736474,257222,1496409,76480,10318,747913,0
806,1,710113,248216,1402623,73954,8814,700988,0
807,1,706554,247577,1370627,73645,9185,684614,0
807,1,711257,248874,1289293,74401,8675,644057,0
808,1,709417,247848,1396820,73730,9970,698000,0
808,1,714251,248745,1334421,74148,8032,666923,0
809,1,714063,250392,1383358,74790,9386,690928,0
809,1,711069,247876,1359503,73800,8336,679431,0
810,1,706165,247825,1373235,73659,9607,686281,0
810,1,711959,248310,1327175,73948,8495,663188,0
811,1,712595,247332,1283066,73512,8924,641176,0
811,1,710976,248236,1359222,74170,7877,678971,0
812,1,712196,248099,1285549,73773,9125,642415,0
812,1,731136,252409,1394084,77162,9218,696706,0
813,1,709546,247346,1400074,73504,9489,699542,0
813,1,707694,246946,1314333,73506,7649,656821,0
814,1,711904,248585,1338854,73950,8801,668935,0
814,1,709438,248126,1351436,73983,8236,675344,0
815,1,715039,249433,1450885,74370,9489,724867,0
815,1,709580,248639,1274794,74304,8317,636927,0
816,1,710335,247828,1285503,73673,8086,642250,0
816,1,708504,248111,1300135,73939,8496,649630,0
817,1,709555,247892,1388825,73643,8906,693940,0
817,1,709928,249065,1253317,74424,8531,626161,0
818,1,709722,247971,1351222,73600,8887,675181,0
818,1,709396,247867,1233067,73867,8891,616209,0
819,1,714111,249997,1427421,74520,9196,712964,0
819,1,712043,247599,1254770,73769,9184,627072,0
820,1,729008,252221,1487472,76804,9896,743174,0
820,1,712260,248080,1303108,73929,9166,651201,0
821,1,712452,248239,1451399,73728,9010,725324,0
821,1,707829,246918,1285963,73489,8605,642708,0
822,1,708088,247593,1322157,73516,9625,660562,0
822,1,710937,247479,1427145,73735,9199,713327,0
823,1,706644,247391,1384734,73418,9584,691899,0
823,1,707835,247223,1308445,73774,8497,653916,0
824,1,709027,247657,1412065,73548,9673,705571,0
824,1,707114,247586,1349672,73884,8364,674439,0
825,1,729041,252336,1376997,76844,9916,688004,0
825,1,712132,248704,1319629,74405,8816,659294,0
826,1,709067,248494,1440313,73813,9036,719650,0
826,1,708834,247261,1401008,73832,8360,700276,0
827,1,706654,247629,1426769,73506,9049,712855,0
827,1,707600,247233,1298908,73783,8229,649116,0
828,1,710385,248663,1359453,73868,9003,679220,0
828,1,705882,247521,1322341,73814,9255,660877,0
829,1,708997,247480,1285084,73395,8776,641776,0
829,1,709950,247659,1287252,73957,8611,643272,0
830,1,708027,247372,1371938,73378,9236,685658,0
830,1,730151,252223,1412062,77256,8895,705717,0
831,1,709130,247636,1389926,73506,9691,694217,0
831,1,731167,252284,1409434,77220,10178,704420,0
832,1,709057,247958,1339774,73579,9196,669590,0
832,1,707673,247442,1225997,73835,8675,612571,0
833,1,732145,252713,1406926,76960,10905,703109,0
833,1,707636,247912,1236171,73947,8134,617747,0
834,1,709439,248060,1389722,73653,9881,694289,0
834,1,708645,248426,1288378,74353,8458,643672,0
834,-1,666413,230726,1284524,69078,8844,641721,0
835,1,709945,248433,1350639,73769,8873,675161,0
835,1,707286,247648,1244509,73866,9082,621904,0
835,-1,676140,232684,1309497,69877,8939,653768,0
836,1,710469,249006,1459233,74109,9876,729068,0
836,1,712546,247105,1333006,73771,8213,666145,0
836,-1,691002,235158,1262479,72356,10110,630787,0
837,1,706832,247920,1316163,73613,8778,657614,0
837,1,708816,245988,1370808,73384,8683,685077,0
837,-1,668205,230195,1323357,68727,8248,661400,0
838,1,707617,247479,1400402,73408,9900,699777,0
838,1,715599,249012,1281163,74627,8224,639974,0
838,-1,667168,229823,1333666,68596,8532,666465,0
839,1,709666,248219,1318361,73606,8502,658842,0
839,1,732168,251946,1417134,77165,9610,708287,0
839,-1,673021,232108,1336007,69592,9477,667295,0
840,1,709666,248409,1263145,73758,8730,631302,0
840,1,710924,247664,1306232,73944,8252,652780,0
840,-1,669083,230989,1317143,69011,7890,658035,0
841,1,710311,249081,1390732,74135,9451,694752,0
841,1,712424,248194,1313169,74079,8108,656315,0
841,-1,671880,232561,1374160,69794,8602,686345,0
842,1,714677,249540,1416849,74372,10463,707836,0
842,1,710490,247023,1313507,73711,7920,656437,0
842,-1,673618,232021,1353591,69551,9316,676296,0
843,1,732657,252665,1372902,76944,10963,686040,0
843,1,711964,247935,1355112,74042,8739,677111,0
843,-1,664454,229827,1349257,68562,8431,674302,0
844,1,712132,248920,1314354,73840,9179,656815,0
844,1,706239,246919,1327898,73677,7683,663592,0
844,-1,672106,232682,1325899,69827,8819,662370,0
845,1,714872,249954,1418465,74356,9560,708558,0
845,1,709082,247055,1371719,73708,8875,685479,0
845,-1,689340,235766,1249678,72376,9235,624483,0
846,1,711878,248783,1306383,73800,9052,652522,0
846,1,711078,247901,1364895,74030,8298,682050,0
846,-1,661458,229025,1244204,68398,8630,621653,0
847,1,712496,248989,1447343,73872,9755,723093,0
847,1,711348,247957,1305451,73969,7887,652431,0
847,-1,664689,230301,1252258,68787,8629,625720,0
848,1,709222,248236,1379606,73519,9248,689385,0
848,1,708864,247309,1234739,73772,8045,617028,0
848,-1,665584,230410,1361247,68804,8001,680270,0
849,1,713398,249202,1302842,73941,8758,650955,0
849,1,708086,246961,1273971,73674,7641,636663,0
849,-1,665587,230973,1440856,69017,8914,719693,0
850,1,712821,249361,1407636,74102,9853,703271,0
850,1,726162,251564,1318251,76912,9194,658724,0
850,-1,668596,230535,1313095,68834,8804,656019,0
851,1,710896,249035,1390928,73869,9289,694880,0
851,1,709402,247432,1242587,73878,8307,620855,0
851,-1,669663,230739,1300203,68855,8431,649746,0
852,1,710649,248622,1497621,73718,11238,747538,0
852,1,710002,247617,1388376,73893,8031,693886,0
852,-1,673422,232731,1500173,69742,9308,749354,0
853,1,716178,250906,1417534,74773,9759,708420,0
853,1,708617,247471,1454194,73909,8575,726717,0
853,-1,690134,235913,1324270,72322,8958,661650,0
854,1,706341,247833,1289909,73527,8813,644518,0
854,1,705400,247132,1309823,73747,8767,654546,0
854,-1,670530,231508,1234493,69107,8762,616821,0
855,1,711836,248258,1292792,73621,9251,645991,0
855,1,710804,247715,1341848,73941,8331,670567,0
855,-1,668063,230836,1299523,68848,8482,649498,0
856,1,709624,247745,1354932,73424,9005,677175,0
856,1,707905,247040,1302636,73691,8082,650968,0
856,-1,690338,236025,1402294,72382,9531,700743,0
857,1,728229,252609,1364745,76878,9668,682020,0
857,1,709069,247686,1354783,73960,8848,677034,0
857,-1,667322,230964,1335686,68879,8389,667460,0
858,1,710080,248562,1391631,73756,9760,695487,0
858,1,710877,248569,1301731,74448,8876,650395,0
858,-1,668727,231999,1331152,69448,8521,664819,0
859,1,707842,248087,1346087,73682,10998,672592,0
859,1,707471,247565,1375913,73906,8566,687552,0
859,-1,668885,230739,1258562,68832,8150,628820,0
860,1,710126,249118,1295779,74092,9236,647242,0
860,1,707467,247422,1386502,73823,8700,692877,0
860,-1,670396,232115,1344327,69609,9232,671594,0
861,1,706830,248084,1246145,73618,8818,622619,0
861,1,710618,248012,1378260,74005,8318,688641,0
861,-1,668348,231014,1345824,69039,8207,672570,0
862,1,708171,248302,1298229,73679,9608,648641,0
862,1,729867,251982,1406290,77169,8631,702784,0
862,-1,692098,240026,1284765,71597,8507,641951,0
863,1,707998,247711,1250510,73448,8686,624810,0
863,1,709267,248071,1302534,74262,8161,650701,0
863,-1,672027,232844,1248265,69818,8782,623647,0
864,1,727744,252370,1306925,76781,9996,652968,0
864,1,706993,247381,1364298,73808,8710,681795,0
864,-1,665287,230436,1240205,68769,8198,619625,0
865,1,709761,250248,1389589,74601,9388,694268,0
865,1,706781,247797,1293350,73973,8246,646299,0
865,-1,663466,230072,1363049,68667,8244,681212,0
866,1,727897,251646,1345326,76618,9648,672329,0
866,1,707097,247797,1333279,73959,9204,666362,0
866,-1,671386,232402,1459588,69633,9888,729252,0
867,1,711885,247615,1366985,73408,9692,683192,0
867,1,711509,249293,1292904,74776,8616,645762,0
867,-1,666390,230968,1409363,69084,10492,703651,0
868,1,712673,248221,1279241,73642,8933,639297,0
868,1,707379,247110,1225816,73688,7604,612532,0
868,-1,662074,229904,1301422,68668,8369,650374,0
869,1,710934,247924,1306162,73573,9130,652718,0
869,1,709232,247471,1305885,73739,7861,652634,0
869,-1,664473,230797,1237531,69009,8558,618398,0
870,1,709268,247375,1419962,73311,10055,709614,0
870,1,711518,249281,1299022,74649,8779,648908,0
870,-1,670687,230332,1248541,68793,8401,623782,0
871,1,712519,248144,1473822,73605,9130,736412,0
871,1,706714,247234,1270575,73748,8703,634981,0
871,-1,674721,232374,1390494,69558,9529,694673,0
872,1,710060,247453,1315560,73503,9355,657410,0
872,1,709708,248301,1342323,74042,8526,670793,0
872,-1,668916,230371,1256375,68736,8438,627772,0
873,1,710589,248063,1303313,73709,8284,651278,0
873,1,711068,249115,1284931,74597,8816,642008,0
873,-1,689243,234598,1322478,71920,9122,661144,0
874,1,709433,247610,1342619,73502,8861,670895,0
874,1,713797,249189,1269887,74676,8156,634437,0
874,-1,667760,230534,1277278,68874,7816,638159,0
875,1,709758,247937,1381616,73668,8708,690256,0
875,1,730494,252143,1420345,77210,9480,710052,0
875,-1,667354,230290,1364607,68825,8672,682031,0
876,1,710514,248052,1332476,73809,8850,665718,0
876,1,710097,247511,1272658,73800,8046,635968,0
876,-1,676129,233688,1399138,70325,9021,698712,0
877,1,708458,247445,1375035,73552,9256,687028,0
877,1,708815,247532,1460433,73890,8611,729814,0
877,-1,672777,230932,1260983,69140,7966,630238,0
878,1,713163,249381,1373631,74086,9576,686487,0
878,1,710166,248300,1242051,74098,7940,620604,0
878,-1,671849,231587,1212775,69294,8315,606034,0
879,1,711477,249088,1414359,74267,9616,706643,0
879,1,711300,248681,1234258,74430,8844,616629,0
879,-1,674064,232477,1262176,69871,7632,630585,0
880,1,712828,248437,1362846,73886,9050,681030,0
880,1,706718,247082,1309745,73712,8281,654513,0
880,-1,668047,230734,1219944,69069,7160,609585,0
881,1,732135,252937,1381154,77086,9743,690236,0
881,1,710372,249337,1215796,74773,8376,607189,0
881,-1,669640,231246,1212794,69192,8125,605955,0
882,1,709644,247866,1277492,73617,8716,638431,0
882,1,726534,251864,1319831,77102,9888,659516,0
882,-1,673549,232735,1246513,69803,8636,622564,0
883,1,708319,247888,1238451,73640,8634,618882,0
883,1,713009,249017,1235691,74524,8480,617321,0
883,-1,674253,232628,1336833,69793,8744,667768,0
884,1,706830,247393,1294481,73327,8279,646879,0
884,1,706638,247084,1303479,73745,8821,651361,0
884,-1,666287,229856,1341402,68776,7990,670413,0
885,1,708513,248353,1370404,73704,8758,684840,0
885,1,711121,248510,1321784,74172,8822,660552,0
885,-1,666705,230653,1339854,69015,7798,669649,0
886,1,707501,248070,1278703,73571,8156,639030,0
886,1,705339,246542,1436471,73455,8894,717907,0
886,-1,667202,231222,1333900,69425,8183,666375,0
887,1,728966,252061,1353742,76808,9699,676309,0
887,1,706155,247548,1328914,73878,8490,664083,0
887,-1,665056,230427,1305116,68967,7776,652007,0
888,1,704820,246421,1289711,73294,8682,644481,0
888,1,707167,247730,1357634,73933,8802,678451,0
888,-1,665451,230490,1242948,68952,7869,621202,0
889,1,707066,247583,1320433,73559,8133,659806,0
889,1,711082,248625,1312237,74372,8418,655640,0
889,-1,665273,231075,1307061,69355,7880,652896,0
890,1,724744,251720,1351855,76726,9681,675400,0
890,1,706903,247587,1326600,73853,8182,662972,0
890,-1,669394,230820,1305279,69055,8557,652167,0
891,1,705489,247183,1333642,73450,8821,666282,0
891,1,707699,247805,1259717,73951,7965,629419,0
891,-1,666974,230041,1324886,68814,8129,662073,0
892,1,707888,246698,1416566,73249,9687,708011,0
892,1,706054,247486,1345977,73815,7914,672615,0
892,-1,667257,230019,1272575,68772,7777,635758,0
893,1,712919,249273,1546654,74285,10289,772652,0
893,1,704857,247083,1387086,73705,8384,693139,0
893,-1,670404,231820,1351593,69600,8574,675182,0
894,1,706495,246973,1367294,73299,9618,683117,0
894,1,706334,247736,1357228,73991,8858,678270,0
894,-1,666158,230303,1281599,68899,8432,640340,0
895,1,726002,251524,1355902,76629,9367,677431,0
895,1,707810,248700,1276937,74449,8963,637989,0
895,-1,665224,230590,1216483,68988,7954,607958,0
896,1,704859,246920,1376178,73274,9039,687836,0
896,1,729690,256380,1394346,76558,9441,696668,0
896,-1,668379,231086,1330264,69312,9249,664712,0
897,1,708243,247963,1462941,73670,10085,730917,0
897,1,708226,247125,1376593,73655,8623,687972,0
897,-1,666183,230049,1251256,68818,8886,625382,0
898,1,707827,247940,1404954,73658,8677,702124,0
898,1,708241,247747,1364970,73931,8760,682054,0
898,-1,666000,230046,1368829,68801,8422,684002,0
899,1,711169,249725,1410131,74521,9383,704370,0
899,1,713906,249772,1311256,74879,8863,655010,0
899,-1,683635,234251,1279034,71973,8918,639121,0
900,1,705036,246995,1401774,73317,9518,700640,0
900,-1,664418,229660,1281803,68683,8494,640235,0
900,1,705580,246973,1355036,73618,8181,677183,0
901,1,708030,248304,1307190,73968,9529,653093,0
901,-1,667052,230372,1348511,68813,8105,673642,0
901,1,706370,247367,1259417,73835,8009,629437,0
902,1,704338,247404,1252993,73467,9136,625980,0
902,-1,665959,230629,1279509,68976,7977,639472,0
902,1,705139,247563,1310952,73819,8056,655047,0
903,1,704102,247545,1256257,73525,9086,627763,0
903,-1,667287,231225,1210875,69130,8137,605139,0
903,1,709661,247579,1265598,73882,9096,632398,0
904,1,706407,247001,1364611,73389,9402,681812,0
904,-1,669364,231728,1341962,69460,8454,670529,0
904,1,710347,248382,1361817,74192,9232,680557,0
905,1,711467,249249,1496753,74300,10009,747710,0
905,-1,665146,230435,1255379,68899,8463,627131,0
905,1,708850,248368,1308786,74287,9129,653909,0
906,1,726955,251753,1376660,76671,9695,687897,0
906,-1,662851,229829,1269390,68662,7720,634147,0
906,1,708333,247820,1428181,74005,9032,713830,0
907,1,705872,247386,1362650,73387,9148,680942,0
907,-1,662792,229669,1313176,68635,8749,656216,0
907,1,729647,252885,1417994,77463,10161,708579,0
908,1,703894,247379,1284748,73371,8386,641954,0
908,-1,664297,230010,1309169,68802,7935,654139,0
908,1,703604,246887,1310086,73656,8531,654569,0
909,1,756049,261582,1501357,79626,9753,750259,0
909,-1,664083,230197,1203564,68847,7822,601319,0
909,1,706605,248506,1341338,74211,8242,670339,0
910,1,702892,246713,1371600,73245,8924,685213,0
910,-1,667015,231655,1336687,69489,8692,667693,0
910,1,706572,248531,1293367,74394,8815,646148,0
911,1,705387,247717,1303809,73542,8806,651523,0
911,-1,662003,229936,1278303,68734,7887,638927,0
911,1,705829,247223,1360304,73778,9282,679832,0
912,1,703228,247075,1369581,73369,9004,684454,0
912,-1,663182,230001,1261038,68752,8112,630094,0
912,1,725041,252229,1401264,77234,9911,700272,0
913,1,723579,251773,1404377,76685,9867,701684,0
913,-1,669136,232782,1359426,69879,8860,679157,0
913,1,706196,248403,1278503,74315,9076,638726,0
914,1,703234,247728,1375714,73571,8998,687270,0
914,-1,658670,228878,1338622,68298,7754,668982,0
914,1,716911,249263,1275933,74653,8647,637430,0
915,1,713736,249170,1401905,74207,9544,700360,0
915,-1,669581,230329,1346780,68865,8431,673008,0
915,1,731309,251601,1427467,76963,9591,713323,0
916,1,708351,247661,1402971,73585,8918,700967,0
916,-1,667728,230141,1249914,68774,7910,624495,0
916,1,712107,247501,1439713,73892,9390,719475,0
917,1,705151,246831,1274779,73222,8420,636993,0
917,-1,672852,232467,1334170,69827,8812,666650,0
917,1,711057,247428,1281501,73801,8783,640402,0
918,1,707354,247519,1383341,73497,9076,691339,0
918,-1,694455,236610,1352075,73249,8836,675541,0
918,1,709700,246850,1345017,73719,8961,672140,0
919,1,705738,247147,1299732,73371,9026,649379,0
919,-1,666372,230449,1238805,68937,7635,619027,0
919,1,709313,247066,1255609,73698,8713,627371,0
920,1,706976,246911,1252478,73318,9042,625865,0
920,-1,664805,230132,1252115,68815,7884,625663,0
920,1,712660,248553,1398440,74193,9007,698903,0
921,1,713702,250102,1319180,74669,9618,658875,0
921,-1,669251,231770,1359863,69518,8954,679413,0
921,1,712899,249173,1229713,74680,8621,614284,0
922,1,706011,247531,1344079,73538,8745,671678,0
922,-1,666571,230360,1258034,68919,8862,628527,0
922,1,732204,252182,1321342,77225,9833,660286,0
923,1,710120,249488,1381796,74350,8626,690202,0
923,-1,663544,229399,1213323,68556,8109,606336,0
923,1,710263,247140,1274728,73790,8622,636940,0
924,1,705740,247563,1349420,73552,8660,674165,0
924,-1,684667,234306,1254616,71985,9452,626921,0
924,1,709551,246895,1253292,73636,8461,626198,0
925,1,702797,247182,1422524,73393,8712,710813,0
925,-1,665489,229796,1255289,68658,8104,627287,0
925,1,711204,247857,1335073,73946,8486,667175,0
926,1,704403,246654,1325449,73119,9147,662378,0
926,-1,662810,229917,1290621,68700,7880,645097,0
926,1,709645,247673,1360936,73973,8512,680084,0
927,1,714737,250221,1408361,74567,9328,703409,0
927,-1,687436,234796,1319296,72120,8784,659179,0
927,1,707746,247125,1348036,73727,8713,673690,0
928,1,709011,249026,1408812,74088,8773,703837,0
928,-1,664745,229905,1232293,68730,8454,615660,0
928,1,711825,248033,1261929,74062,8257,630566,0
929,1,706294,247164,1333886,73413,8852,666501,0
929,-1,666283,230433,1340120,68827,8448,669502,0
929,1,709541,247474,1377394,73840,8524,688411,0
930,1,710330,249872,1482831,74505,8948,740554,0
930,-1,664313,230183,1244949,68797,7520,622103,0
930,1,729775,251893,1425752,77041,9396,712485,0
931,1,705309,247115,1398203,73309,9277,698758,0
931,-1,663902,229952,1221333,68682,7738,610179,0
931,1,707072,247737,1312914,73945,7668,656090,0
932,1,708361,248663,1401009,74029,9571,699963,0
932,-1,663779,229876,1288475,68676,8060,643672,0
932,1,712930,248188,1364930,74300,8603,681932,0
933,1,704679,247510,1327750,73541,8390,663199,0
933,-1,681812,234347,1314079,71975,7985,656718,0
933,1,711256,247719,1465028,73964,8716,732026,0
934,1,703554,247277,1283976,73379,7884,641674,0
934,-1,663975,229796,1265885,68618,8308,632489,0
934,1,709929,247679,1286470,73961,8761,642848,0
935,1,708679,249336,1431687,74310,9258,715214,0
935,-1,666014,230904,1254710,69033,8252,626941,0
935,1,713241,249042,1300606,74661,8741,649654,0
936,1,719587,250315,1393331,76301,8595,696367,0
936,-1,664278,230771,1325724,68917,7843,662444,0
936,1,709252,247756,1302191,73932,8766,650743,0
937,1,703361,247377,1375752,73489,8264,687325,0
937,-1,664505,230301,1279059,68871,7455,639132,0
937,1,711172,248777,1321693,74463,8896,660385,0
938,1,710354,248111,1404090,73844,9303,701528,0
938,-1,661796,230307,1317519,68846,7745,658408,0
938,1,712716,249057,1333798,74587,8314,666300,0
939,1,707446,247336,1339401,73479,8721,669416,0
939,-1,666704,230518,1339668,68933,8028,669453,0
939,1,708835,247703,1275823,73928,8342,637613,0
940,1,706529,247330,1279832,73436,8157,639478,0
940,-1,665213,230331,1227600,68839,7825,613571,0
940,1,706463,247341,1387224,73841,8391,693314,0
941,1,710532,249367,1366450,74389,9683,682704,0
941,-1,686361,234817,1266252,72088,9337,632638,0
941,1,705422,247088,1403095,73727,8718,701223,0
942,1,705070,247127,1331507,73366,9235,665370,0
942,-1,665080,230291,1200217,68877,7728,599493,0
942,1,743644,258601,1429925,77474,8972,714222,0
943,1,704367,247563,1258364,73551,8044,628730,0
943,-1,665633,230832,1231560,69058,8322,615344,0
943,1,710570,247284,1225943,73775,8570,612825,0
944,1,706542,247338,1279865,73428,8662,639480,0
944,-1,669794,232471,1266590,69731,8237,632533,0
944,1,708427,247107,1285219,73713,8748,642261,0
945,1,709907,249494,1438929,74325,9148,718604,0
945,-1,661819,229874,1178513,68699,8098,588807,0
945,1,710022,247495,1281033,73892,8299,640275,0
946,1,702738,247122,1369270,73383,8164,684367,0
946,-1,666638,230895,1197844,69004,8061,598678,0
946,1,708062,246911,1260558,73673,7896,629927,0
947,1,701695,247207,1368505,73429,8319,683857,0
947,-1,687331,235235,1260691,72261,8899,630019,0
947,1,708332,247405,1266387,73871,7832,632919,0
948,1,703799,247831,1300611,73556,8840,649879,0
948,-1,663107,230258,1232289,68847,7212,615712,0
948,1,707961,247172,1359797,73741,8800,679559,0
949,1,704191,247097,1387391,73341,9150,693317,0
949,-1,660497,229645,1332948,68622,7591,666079,0
949,1,712107,249304,1274311,74652,8715,636548,0
950,1,707227,248613,1413744,74031,9340,706100,0
950,-1,661026,229685,1251200,68602,7868,625357,0
950,1,710225,248132,1393509,74095,8438,696458,0
951,1,703921,246745,1340089,73171,8237,669709,0
951,-1,667329,232045,1357929,69657,8534,678264,0
951,1,709677,247272,1273096,73773,8206,636189,0
952,1,703112,247393,1281852,73441,8075,640575,0
952,-1,685873,234575,1339222,71997,8398,669328,0
952,1,709096,247526,1339931,73882,8195,669537,0
953,1,707473,249075,1375175,74240,9063,687025,0
953,-1,663013,229644,1252018,68663,7610,625464,0
953,1,706962,247198,1341963,73630,7916,670669,0
954,1,722489,251586,1369023,76629,9124,684152,0
954,-1,665344,230618,1263036,68955,8536,631017,0
954,1,708128,247035,1414926,73690,8490,707117,0
955,1,701508,247304,1267723,73421,8391,633490,0
955,-1,663833,230493,1380578,68935,8232,689898,0
955,1,714824,250332,1288490,75108,8016,643658,0
956,1,703023,247121,1344721,73328,8871,672006,0
956,-1,663680,230314,1209639,68791,8457,604381,0
956,1,707758,247724,1407564,73988,8547,703372,0
957,1,733667,257681,1446589,76620,10203,722645,0
957,-1,661722,230013,1235147,68615,7662,617207,0
957,1,728503,252140,1466510,77199,10686,732903,0
958,1,706161,248374,1358394,73675,8846,678763,0
958,-1,662605,230640,1322833,68840,8547,660056,0
958,1,707083,247269,1316312,73766,8937,657824,0
959,1,709159,249535,1494859,74293,9837,746733,0
959,-1,662902,230645,1177256,68837,8019,588218,0
959,1,705756,247406,1537579,73803,9797,768441,0
960,1,702968,248074,1342072,73577,8676,670769,0
960,-1,681336,234352,1332881,71781,8989,666095,0
960,1,703863,246992,1445411,73676,9649,722071,0
961,1,704923,249376,1453207,74170,8939,726023,0
961,-1,662679,230532,1343448,68762,8169,671322,0
961,1,708081,247441,1381106,73866,9481,690034,0
962,1,710589,247539,1327717,73421,9701,663398,0
962,-1,667477,229891,1306670,68635,7909,652879,0
962,1,711754,249366,1329261,74721,9103,663695,0
963,1,711004,247663,1314910,73444,9428,657030,0
963,-1,668698,229678,1209723,68467,8390,604375,0
963,1,706203,247537,1332680,73906,8663,665843,0
964,1,715621,249915,1378335,74426,9953,688307,0
964,-1,690590,235241,1395121,72132,9471,697074,0
964,1,708135,248307,1385641,74160,8783,692456,0
965,1,709464,247520,1338674,73429,8801,668940,0
965,-1,667759,230247,1333433,68702,9643,666259,0
965,1,705804,247524,1300724,73889,8099,649983,0
966,1,709395,247314,1455722,73330,10396,727547,0
966,-1,671382,231839,1342175,69445,8710,670560,0
966,1,703225,246811,1306123,73659,8607,652442,0
967,1,708298,247272,1353443,73376,9353,676337,0
967,-1,669917,230307,1316018,68718,8099,657482,0
967,1,705662,247509,1278359,73924,8427,638757,0
968,1,708032,247496,1302712,73393,8892,651076,0
968,-1,667288,230157,1331266,68698,7612,665195,0
968,1,713097,248481,1311664,74214,8687,655521,0
969,1,714186,249542,1398506,74311,9737,698603,0
969,-1,666347,230121,1368652,68692,7921,683796,0
969,1,707454,247075,1349172,73716,8272,674221,0
970,1,729519,252110,1422024,76716,9964,710576,0
970,-1,666017,230429,1271518,68752,7738,635463,0
970,1,708356,247014,1339475,73705,8306,669449,0
971,1,706624,247354,1289466,73372,8298,644326,0
971,-1,670589,230786,1248781,68901,8691,623839,0
971,1,706481,247256,1279975,73760,8178,639638,0
972,1,712567,249260,1380794,74175,8860,689826,0
972,-1,666245,230142,1346929,68722,8512,673098,0
972,1,707603,247591,1395198,73868,10301,697214,0
973,1,708547,247703,1360176,73484,8864,679778,0
973,-1,664315,229763,1223409,68585,8200,611351,0
973,1,710511,248004,1390062,74037,10177,694658,0
974,1,705236,246528,1284168,73026,8838,641594,0
974,-1,667080,230210,1294658,68742,7845,646991,0
974,1,713512,249426,1368114,74720,9831,683210,0
975,1,707157,247660,1374785,73465,8701,686999,0
975,-1,665846,229983,1224477,68612,7788,611773,0
975,1,730338,252510,1457892,77288,10287,728589,0
976,1,712512,250113,1401672,74503,9219,700266,0
976,-1,665652,229907,1235442,68598,8431,617312,0
976,1,709446,247553,1377818,73836,9530,688563,0
977,1,727091,251976,1417777,76689,9884,708340,0
977,-1,665771,230184,1291816,68723,8727,645480,0
977,1,709620,248200,1586087,74121,9638,792596,0
978,1,708204,247105,1394271,73150,9311,696789,0
978,-1,688486,235128,1350871,72168,8943,675058,0
978,1,706197,247223,1456202,73801,9657,727659,0
979,1,713622,249294,1454148,74152,9778,726456,0
979,-1,665617,230419,1257376,68819,7691,628379,0
979,1,707242,248170,1343060,74016,10432,670989,0
980,1,727317,251835,1403170,76640,9361,701324,0
980,-1,665973,230777,1256686,68928,8169,627844,0
980,1,713914,249899,1340600,74871,9349,669585,0
981,1,707688,247991,1323004,73568,8821,660906,0
981,-1,664824,229120,1329461,68287,9766,664321,0
981,1,727408,251586,1517193,77045,10207,758229,0
982,1,705579,247256,1358829,73299,8468,679283,0
982,-1,674709,233048,1453485,69865,9665,725830,0
982,1,707272,247734,1347538,73898,8925,673047,0
983,1,707775,247937,1302473,73572,8946,650925,0
983,-1,688102,234795,1343907,72121,9182,671454,0
983,1,705585,247404,1440372,73859,9923,719869,0
984,1,705579,247039,1302440,73294,9158,650795,0
984,-1,667777,230384,1222474,68878,8123,610943,0
984,1,708441,247879,1596913,73985,10933,798074,0
985,1,705621,247794,1378403,73712,9232,688702,0
985,-1,670743,231921,1399822,69528,8613,699345,0
985,1,704543,246798,1369660,73658,9462,684569,0
986,1,704903,247716,1359777,73499,9239,679541,0
986,-1,665069,230235,1336031,68884,8553,667490,0
986,1,705914,247508,1402026,73843,9067,700631,0
987,1,708964,247890,1279559,73514,8941,638632,0
987,-1,663062,229957,1307374,68757,8030,652987,0
987,1,723647,251699,1491273,76989,10782,745240,0
988,1,710582,247852,1508959,73560,10605,753986,0
988,-1,674055,232983,1379824,70035,8566,689359,0
988,1,713204,249319,1378007,74620,9177,688550,0
989,1,706234,247011,1307950,73339,9784,653473,0
989,-1,688869,235167,1388503,72270,8859,693969,0
989,1,705832,246726,1416390,73608,9311,707744,0
990,1,706704,247309,1380242,73397,9910,689862,0
990,-1,664773,229866,1247567,68720,7096,623325,0
990,1,708971,248050,1427027,73987,8715,712872,0
991,1,707402,247316,1301496,73441,9166,650308,0
991,-1,666191,230828,1239995,69010,7670,619379,0
991,1,707503,247183,1483950,73724,9553,741584,0
992,1,705055,246810,1433814,73266,8981,716430,0
992,-1,666909,231158,1353738,69317,8600,676196,0
992,1,727235,251904,1517749,77109,10920,758447,0
993,1,703986,246457,1327385,73188,8706,663234,0
993,-1,665881,230708,1329610,69004,8265,664343,0
993,1,706265,247510,1372083,73856,9769,685709,0
994,1,704166,246941,1398719,73393,8824,699243,0
994,-1,664286,230401,1261387,68852,7855,629998,0
994,1,712409,248828,1405529,74413,9713,702054,0
995,1,723937,251538,1373036,76691,9576,686097,0
995,-1,683778,236976,1309487,70644,9183,654390,0
995,1,707268,247553,1315886,73876,9733,657515,0
996,1,710319,247906,1399561,73649,9941,699521,0
996,-1,682070,236358,1270445,70225,8920,634781,0
996,1,704276,246650,1499418,73575,10147,749145,0
997,1,708629,247813,1366167,73668,9058,682689,0
997,-1,724331,250834,1431252,74676,9332,714645,0
997,1,712075,250087,1386769,75040,10023,692313,0
998,1,743696,260527,1328908,76762,9812,663918,0
998,-1,739827,253222,1439948,77022,10057,719525,0
998,1,725959,251531,1430402,76930,11097,714880,0
999,1,752788,263819,1424859,77829,9931,711246,0
999,-1,738188,253729,1409321,77242,9183,704216,0
999,1,705606,247265,1329121,73844,9770,664014,0
1000,1,761581,266343,1436971,78529,9620,718096,0
1000,-1,716666,248769,1348597,73831,8761,673535,0
1000,1,705599,247384,1415654,73797,9115,707283,0
1001,1,756347,264970,1474237,78125,10502,736778,0
1001,-1,719207,249722,1474030,74254,9789,735536,0
1001,1,708205,247265,1431881,73714,10596,715603,0
1002,1,757856,265456,1545274,78327,9808,771761,0
1002,-1,723111,248566,1361724,73718,9726,680366,0
1002,1,706562,246959,1444957,73619,10495,722257,0
1003,1,760967,267077,1460657,78831,9291,729297,0
1003,-1,726941,250544,1520933,74642,10751,759354,0
1003,1,707002,247761,1558566,73925,10758,778648,0
1004,1,762343,267651,1628586,79194,10316,812975,0
1004,-1,720169,248589,1481645,73698,9601,740029,0
1004,1,706774,247448,1463433,73788,10538,731275,0
1005,1,760800,265723,1536965,78380,9260,767968,0
1005,-1,718285,248145,1341883,73581,9255,670938,0
1005,1,704648,247182,1432044,73702,9984,715306,0
1006,1,760458,265898,1419945,78424,10297,709185,0
1006,-1,719773,248262,1394733,73649,9231,696486,0
1006,1,711046,249999,1354420,74900,9680,676444,0
1007,1,790404,276267,1476056,81529,9739,737030,0
1007,-1,719640,248647,1367903,73793,9421,683284,0
1007,1,709349,249580,1345191,74784,10089,671907,0
1008,1,765526,268593,1519660,79586,10155,759236,0
1008,-1,718678,248697,1400028,73815,8950,699694,0
1008,1,724337,252101,1531299,77159,12046,765124,0
1009,1,759670,266095,1466641,78511,10147,733291,0
1009,-1,718149,248514,1321956,73710,9005,659727,0
1009,1,709373,247105,1303090,73745,10199,651201,0
1010,1,759192,266060,1507116,78482,9769,752835,0
1010,-1,720060,248630,1410248,73810,9202,705211,0
1010,1,732343,252585,1317814,77355,9562,658550,0
1011,1,758461,266479,1504816,78679,9464,752130,0
1011,-1,718168,248352,1377158,73670,9414,687743,0
1011,1,705553,246556,1354208,73606,9032,676682,0
1012,1,756066,265701,1474352,78393,9836,736454,0
1012,-1,738245,252578,1561188,76815,10126,780083,0
1012,1,709557,248605,1312046,74430,8553,655537,0
1013,1,759663,265911,1596826,78499,9738,797893,0
1013,-1,717066,248666,1530036,73818,9010,764983,0
1013,1,711352,247936,1419197,74003,9370,709265,0
1014,1,785095,270948,1497481,81892,10975,748324,0
1014,-1,715067,248239,1454645,73628,9465,727416,0
1014,1,706827,246383,1432549,73406,8888,715925,0
1015,1,762168,265965,1603657,78434,10406,801003,0
1015,-1,725642,250407,1448323,74540,10342,723512,0
1015,1,727977,251695,1427082,77027,10067,713123,0
1016,1,766338,266953,1589557,78940,11693,793956,0
1016,-1,720604,248805,1358620,73843,8693,678695,0
1016,1,707049,246879,1292757,73555,8606,646155,0
1017,1,764934,266995,1499173,78806,10085,748787,0
1017,-1,718420,247973,1236829,73538,8232,618099,0
1017,1,709321,248490,1300946,74335,8908,650039,0
1018,1,760971,265967,1398326,78453,9439,698454,0
1018,-1,717159,248000,1428560,73522,9080,714310,0
1018,1,708166,247777,1361080,73976,9222,680155,0
1019,1,768519,269349,1524326,79861,11083,760998,0
1019,-1,724919,251173,1410281,74851,8791,703371,0
1019,1,729469,251938,1403453,77145,9996,701419,0
1020,1,783583,270707,1432455,81840,11524,715613,0
1020,-1,740432,253153,1450144,77085,9344,724640,0
1020,1,708882,247526,1369362,73919,8550,684275,0
1021,1,763100,266261,1421943,78590,11383,710709,0
1021,-1,718866,248789,1337765,73876,8252,668503,0
1021,1,707307,247154,1304734,73762,8582,652038,0
1022,1,764228,267359,1512842,79046,10187,755384,0
1022,-1,717342,248544,1444412,73715,8501,721947,0
1022,1,709068,248100,1403420,74088,9322,701367,0
1023,1,762445,266065,1446788,78528,10235,722807,0
1023,-1,718053,248612,1451283,73768,9907,725039,0
1023,1,710702,248409,1319687,74392,8667,659359,0
