0,1,761484,266276,1369364,78613,9504,683999,1
0,1,783615,270639,1486659,81820,10385,742775,0
0,1,709124,247735,1334451,73393,9149,666597,0
1,1,756328,265776,1496152,78457,9162,747432,1
1,1,710398,248738,1527025,73801,10964,762683,0
2,1,764596,268322,1498529,79517,9230,748392,1
2,1,714883,250014,1328475,74443,9033,663190,0
3,1,703372,247583,1337510,73477,8707,668149,1
3,1,712621,247777,1427388,73472,9713,713159,0
4,1,706247,247507,1394112,73502,8576,696486,1
4,1,710604,247454,1655574,73389,10445,827326,0
5,1,710835,249850,1414922,74524,8731,706565,1
5,1,709067,247175,1690070,73267,11647,844435,0
6,1,707326,247378,1322692,73430,8442,660891,1
6,1,718236,250465,1415097,74645,10654,706512,0
7,1,707051,247673,1387515,73578,9402,693358,1
7,1,732787,252740,1495047,76858,11372,747099,0
8,1,702627,247948,1318837,73670,9102,658900,1
8,1,709726,247739,1483311,73456,10494,741179,0
9,1,703432,247701,1345753,73637,8249,672387,1
9,1,710773,247473,1387928,73321,10039,693574,0
10,1,704387,248707,1410600,73887,8896,704613,1
10,1,710771,247384,1471607,73313,10245,735287,0
11,1,703700,247202,1445082,73428,8974,721847,1
11,1,708367,246825,1430837,73165,9686,714930,0
12,1,709645,247981,1370685,73718,9257,684832,1
12,1,717426,250300,1687669,74453,12078,842562,0
13,1,707828,249406,1471364,74430,9594,734737,1
13,1,732524,252880,1502254,76898,10268,750478,0
14,1,707334,248158,1335176,73606,8890,667057,1
14,1,708056,247641,1445968,73447,9410,722323,0
15,1,708014,248901,1342905,73873,8442,670983,1
15,1,712514,247967,1439378,73533,9604,719164,0
16,1,705485,247562,1286090,73541,9069,642551,1
16,1,709117,246733,1465912,73060,10108,732571,0
17,1,706841,248249,1314841,73677,8609,656590,1
17,1,715016,249712,1328002,74344,9206,662988,0
18,1,711555,249541,1404620,74424,9328,701559,1
18,1,730409,252237,1546017,76718,10189,772485,0
19,1,706625,248475,1445315,73988,9512,722201,1
19,1,708740,247436,1549047,73368,10121,773665,0
20,1,707686,247917,1318952,73844,8214,658971,1
20,1,708507,247034,1381982,73136,10068,690561,0
21,1,709347,248551,1233974,74013,8790,616342,1
21,1,709064,247468,1385524,73405,9673,691966,0
22,1,708751,247638,1391893,73711,9429,695455,1
22,1,708944,247519,1406802,73388,10036,702921,0
23,1,710894,247829,1470300,73718,9347,734609,1
23,1,716032,250103,1390806,74397,9442,694413,0
24,1,705923,249839,1452988,74706,9421,725466,1
24,1,708919,247634,1463880,73437,9198,731396,0
25,1,705053,248185,1331289,73889,8258,665069,1
25,1,708991,247819,1485527,73445,9423,742172,0
26,1,705653,247809,1377484,73770,8601,688283,1
26,1,706719,247211,1367555,73242,8554,683287,0
27,1,704335,247913,1278052,73786,8089,638540,1
27,1,706387,246987,1421730,73189,8717,710421,0
28,1,703356,248185,1294055,73833,9265,646295,1
28,1,708785,248253,1374888,73592,8707,686907,0
29,1,712494,249255,1327246,74157,8960,663093,1
29,1,709862,247003,1311870,73126,9105,655432,0
30,1,707692,249396,1411467,74184,8158,705200,1
30,1,710879,247946,1464875,73538,8947,731718,0
31,1,711554,250258,1428745,74727,9262,713563,1
31,1,711275,247932,1312831,73536,8827,656096,0
32,1,709479,248713,1404907,74007,8799,701978,1
32,1,757078,261640,1495298,79497,9866,747268,0
33,1,705883,248008,1270072,73766,8449,634241,1
33,1,708134,247693,1361335,73451,8655,680214,0
34,1,711309,249267,1390497,74166,8974,694716,1
34,1,713953,249036,1338090,74060,8966,668316,0
35,1,711842,250962,1463906,74988,8566,730914,1
35,1,733244,253152,1393376,77017,10189,696237,0
36,1,706429,248220,1297103,73769,8131,647966,1
36,1,706910,247378,1435252,73347,9104,717069,0
37,1,704952,247655,1320822,73603,8655,659904,1
37,1,709213,248648,1361591,73924,8903,679983,0
38,1,731503,257412,1425586,76546,8645,712369,1
38,1,708472,248633,1345236,73756,8998,671944,0
39,1,705514,247975,1307952,73700,7182,653566,1
39,1,709299,247779,1328847,73440,8944,664013,0
40,1,714339,250000,1449142,74631,10038,723591,1
40,1,708009,246909,1378801,73143,9393,688809,0
41,1,709096,248535,1329582,73887,8651,664160,1
41,1,707016,247422,1321596,73326,8789,660299,0
42,1,705527,247963,1454209,73505,9192,726673,1
42,1,710022,247951,1415189,73537,9379,707085,0
43,1,710254,249081,1298496,73968,7758,648768,1
43,1,707839,247500,1399749,73371,8908,699401,0
44,1,709316,249995,1452442,74505,8929,725466,1
44,1,706679,247627,1331356,73477,8719,665098,0
45,1,708964,248598,1300668,73783,8776,649666,1
45,1,706490,247972,1427425,73502,9438,713237,0
46,1,744263,260660,1495718,77823,9788,746656,1
46,1,712655,249283,1349138,74212,9219,673304,0
47,1,714692,249782,1534858,74123,11240,766263,1
47,1,705404,246845,1450756,73123,8672,724857,0
48,1,712570,248510,1398931,73653,10239,698714,1
48,1,706512,247263,1315771,73288,8302,657345,0
49,1,708194,249130,1298618,73900,8473,648796,1
49,1,707111,247523,1367955,73358,9314,683603,0
50,1,707543,248787,1383835,73916,8765,691417,1
50,1,712195,250074,1374651,74429,9749,686393,0
51,1,710419,249145,1294184,73955,8305,646353,1
51,1,713362,247233,1416900,73256,8306,707826,0
52,1,710797,248406,1328517,73749,8894,663375,1
52,1,716082,249269,1365007,74075,9496,681650,0
53,1,712554,250324,1419375,74614,9409,708788,1
53,1,712619,247702,1345203,73457,9472,672143,0
54,1,710710,248302,1296880,73820,8737,647913,1
54,1,711330,247536,1411244,73354,9713,705194,0
55,1,707861,248606,1442686,73798,9164,720827,1
55,1,712137,248098,1327794,73594,9601,663188,0
56,1,707267,247672,1437765,73607,9711,718361,1
56,1,710081,247065,1553366,73192,10167,776134,0
57,1,707074,248013,1340151,73464,9342,669694,1
57,1,718177,250347,1346676,74587,9425,672308,0
58,1,720896,250944,1451437,74678,9927,725045,1
58,1,734134,252864,1462563,76908,10462,730660,0
59,1,705123,248131,1465847,73517,10382,732091,1
59,1,710675,247624,1338246,73396,9627,668785,0
60,1,707185,248289,1369791,73599,8880,684368,1
60,1,715513,249959,1376014,74374,9238,687388,0
61,1,711873,250280,1387786,74551,9186,693094,1
61,1,711622,247758,1448163,73422,9586,723647,0
62,1,708516,248433,1412258,73676,9373,705470,1
62,1,711714,248532,1349146,73973,9636,673614,0
63,1,712928,250238,1338625,74548,8815,668137,1
63,1,710051,247480,1309657,73356,9115,654291,0
64,1,713626,249381,1331776,74101,9794,665042,0
64,1,710176,247846,1326566,73449,9513,662852,1
65,1,708907,247796,1358180,73484,9675,678234,0
65,1,702976,247415,1465279,73383,8966,732237,1
66,1,714520,249000,1288831,74044,9812,643651,0
66,1,712082,249785,1331446,74392,8720,664596,1
67,1,711554,248322,1316136,73666,9708,657625,0
67,1,711395,248226,1436152,73636,9592,717535,1
68,1,706998,246954,1372284,73186,9657,685727,0
68,1,710395,247750,1451371,73471,9734,724785,1
69,1,713725,250066,1418367,74459,9054,708192,0
69,1,707898,248059,1344819,73587,8394,671738,1
70,1,731391,252498,1408257,76833,10330,703723,0
70,1,706486,247094,1365938,73224,8388,682337,1
71,1,710342,247814,1380924,73497,9792,689992,0
71,1,717023,250408,1322146,74556,8580,659935,1
72,1,709783,248019,1382241,73513,9163,690577,0
72,1,700172,247862,1345076,73026,8447,672071,1
73,1,706514,247357,1396783,73300,8910,697565,0
73,1,703412,247839,1435835,73029,8865,717340,1
74,1,709379,247725,1320027,73470,8961,659485,0
74,1,700198,247921,1311999,73077,9617,655433,1
75,1,727840,251847,1674974,76532,10368,836721,0
75,1,707718,249544,1367110,73819,10004,683339,1
76,1,705820,247299,1443359,73360,9064,721150,0
76,1,705821,248720,1409477,73396,8755,704173,1
77,1,710170,247436,1355586,73373,9679,677275,0
77,1,702377,247961,1355763,73199,8851,677400,1
78,1,710442,247529,1402626,73311,9708,700869,0
78,1,709658,248722,1416499,74300,9609,707721,1
79,1,709106,247394,1302971,73371,8898,650920,0
79,1,705497,247740,1343692,73969,8723,671293,1
80,1,715493,250001,1342071,74488,9571,669959,0
80,1,709870,248061,1414283,74126,9722,706311,1
81,1,708952,247535,1420994,73406,8993,710001,0
81,1,709245,249780,1337533,74913,8972,667883,1
82,1,708208,247422,1408990,73323,8552,703868,0
82,1,707347,247985,1448686,74077,8696,723884,1
83,1,736517,257645,1423453,76578,8887,710852,0
83,1,706757,247657,1235007,74017,8577,616941,1
84,1,710105,247758,1380832,73458,9956,689822,0
84,1,706618,247606,1569843,73929,10326,784812,1
85,1,713306,249347,1436693,74240,9855,717590,0
85,1,712955,249537,1378374,74848,9361,688214,1
86,1,729752,252515,1483196,76768,10285,741134,0
86,1,704817,247434,1545589,73849,10702,772300,1
87,1,709127,247956,1502609,73508,10410,750737,0
87,1,705000,248152,1360481,74091,8597,679845,1
88,1,709804,248359,1473729,73641,9552,735500,0
88,1,708483,249196,1302420,74720,8647,650270,1
89,1,718017,250422,1379269,74545,9852,688805,0
89,1,704188,247266,1346725,73872,8795,672829,1
90,1,732317,252864,1585849,76906,11756,792213,0
90,1,706369,247618,1430007,73977,9077,714553,1
91,1,709907,247669,1416157,73392,10091,707626,0
91,1,707576,247336,1280319,73781,9290,639589,1
92,1,707990,247567,1465561,73358,9625,731730,0
92,1,708078,248277,1307681,74057,9322,653313,1
93,1,712476,249711,1448124,74256,9368,722885,0
93,1,708904,247642,1356286,74002,9176,677488,1
94,1,711234,248564,1446491,73711,10191,722578,0
94,1,707787,248026,1312306,73938,9813,655520,1
95,1,708432,247901,2027277,73602,13061,1013245,0
95,1,713433,249168,1376469,74560,9088,687424,1
96,1,706286,247208,1554998,73254,10238,776947,0
96,1,710449,247966,1453179,73849,9099,726047,1
97,1,705895,247306,1452024,73334,9737,725704,0
97,1,709679,248098,1425961,74003,9563,712391,1
98,1,707300,247515,1403980,73400,9269,701468,0
98,1,707061,247379,1446672,73640,8959,722688,1
99,1,710338,248904,1435840,74003,8936,717238,0
99,1,713907,249255,1387467,74657,9433,692587,1
100,1,708707,248169,1369748,73605,8856,684424,0
100,1,712232,247897,1441291,73892,10049,720025,1
101,1,707542,247390,1532694,73335,9233,765782,0
101,1,708496,248642,1435155,74342,9238,717074,1
102,1,705960,247648,1476551,73439,9535,737832,0
102,1,716962,250584,1323058,75169,8584,660287,1
103,1,712810,249047,1407589,74053,8905,703123,0
103,1,710020,248549,1415044,74393,8559,707035,1
104,1,711860,248561,1319615,73902,9091,659087,0
104,1,712031,248740,1302806,74347,8377,650886,1
105,1,707087,247313,1334329,73274,9082,666586,0
105,1,713106,250568,1405629,75149,9091,701964,1
106,1,706531,247319,1430556,73306,9283,714870,0
106,1,710127,248273,1366621,74167,8892,682877,1
107,1,711311,247999,1340694,73556,9226,669841,0
107,1,712432,249679,1388201,74625,8526,693461,1
108,1,709532,247369,1465881,73318,9183,732480,0
108,1,711766,248394,1335832,74233,8600,667420,1
109,1,716978,250733,1433952,74676,8825,716140,0
109,1,712660,250553,1332428,75152,9153,665460,1
110,1,709637,248206,1572588,73578,10309,785716,0
110,1,707158,248455,1390794,74088,9896,694869,1
111,1,709604,248069,1411111,73796,8574,704892,0
111,1,712496,249434,1422446,74348,8847,710588,1
112,1,706091,247314,1468499,73300,9158,733857,0
112,1,715831,250620,1292061,74976,9894,645441,1
113,1,733022,252478,1440321,76791,9723,719815,0
113,1,714627,248834,1303051,74164,9763,651089,1
114,1,710693,247911,1484583,73521,9490,741793,0
114,1,712438,249524,1314706,74410,8647,656600,1
115,1,710201,247922,1410205,73565,9150,704513,0
115,1,712723,248863,1308134,74281,9133,653560,1
116,1,707948,247777,1608449,73407,10814,803783,0
116,1,716447,250440,1384066,75077,8487,691020,1
117,1,709316,247913,1317661,73567,8975,658400,0
117,1,706548,247097,1371897,73704,8862,685482,1
118,1,707027,247305,1404059,73286,8660,701618,0
118,1,712947,250171,1333707,74947,8765,665901,1
119,1,714998,250630,1417108,74638,9164,707824,0
119,1,710342,249652,1436485,74548,8264,717733,1
120,1,726608,251722,1365335,76584,9375,682211,0
120,1,714501,248625,1557400,74195,9547,778001,1
121,1,708877,247499,1372672,73398,9317,685829,0
121,1,713016,249274,1313294,74438,8568,656321,1
122,1,708263,247626,1526553,73384,8987,762794,0
122,1,718095,250011,1559889,74845,10287,778992,1
123,1,728277,252411,1351707,76771,9577,675535,0
123,1,707637,247482,1362343,73752,9635,680764,1
124,1,705574,247911,1353419,73517,8829,676153,0
124,1,707846,248152,1396745,74005,9153,697795,1
125,1,709337,249379,1412429,74134,9357,705499,0
125,1,710792,248588,1464871,74113,10088,731918,1
126,1,708072,248030,1341285,73595,8594,670148,0
126,1,707766,247695,1400802,73927,8560,699906,1
127,1,709268,247535,1365039,73398,9214,681948,0
127,1,710609,247485,1244353,74033,9388,621684,1
128,1,716169,250283,1519347,74569,9638,758876,0
128,1,710049,247285,1440013,73979,9233,719386,1
129,1,728739,251970,1443306,76640,9950,721150,0
129,1,703738,246884,1315885,73804,8835,657549,1
130,1,708839,247291,1395289,73286,8650,697254,0
130,1,703608,247366,1363005,74038,7990,680900,1
131,1,706910,247183,1426692,73280,8912,712788,0
132,1,710984,249151,1430410,74104,8438,714489,0
133,1,708447,247889,1354805,73486,9162,676914,0
134,1,706890,247575,1412036,73348,9164,705471,0
135,1,704969,247293,1310615,73211,8583,654811,0
136,1,730315,252636,1467033,76845,9561,733016,0
137,1,708241,248003,1596909,73554,10003,797726,0
138,1,706941,247892,1375761,73519,8596,687366,0
139,1,708979,248899,1421673,73946,9189,710134,0
140,1,710035,248565,1355204,73724,8303,677126,0
141,1,706646,247602,1421556,73324,9022,710307,0
142,1,709331,249282,1420312,74158,9115,709336,0
143,1,728385,253383,1452831,77024,10299,725905,0
144,1,708543,247487,1429154,73288,9388,714131,0
145,1,709845,248269,1628159,73581,11301,813618,0
146,1,711213,248950,1435642,73988,9218,717146,0
147,1,707726,247786,1525794,73373,10169,762264,0
148,1,708898,248437,1426046,73590,9818,712895,0
148,1,709330,247389,1373877,73842,8290,686645,0
149,1,731468,253788,1471910,77124,10809,735926,0
149,1,709120,247675,1349769,73937,8857,674291,0
150,1,707686,248136,1541744,73500,10066,770694,0
150,1,708304,247211,1433588,73734,9015,716222,0
151,1,712571,249074,1539565,73910,10825,769522,0
151,1,713505,249280,1406300,74686,10094,702371,0
152,1,707821,248213,1484107,73497,10365,741696,0
152,1,709111,247869,1278509,74028,8525,638888,0
153,1,707299,247930,1437149,73438,10169,718443,0
153,1,706243,247444,1323340,73888,8528,661111,0
154,1,706538,247821,1563078,73349,10530,781105,0
154,1,707117,247540,1267166,73899,8162,633189,0
155,1,707334,248236,1557031,73542,10783,777976,0
155,1,706699,247730,1357968,73977,8869,678523,0
156,1,706263,248297,1529433,73566,10697,764255,0
156,1,704816,247133,1324220,73746,7640,661661,0
157,1,709910,249683,1526073,74081,10059,762486,0
157,1,709992,249420,1376555,74774,8680,687337,0
158,1,705807,248454,1388718,73530,9574,693745,0
158,1,728467,252862,1418414,77444,9851,708823,0
159,1,705643,247640,1504509,73223,9580,751786,0
159,1,706887,246789,1366787,73584,8678,682892,0
160,1,714844,247780,1453585,73272,9784,726187,0
160,1,725659,251440,1421146,77137,9786,710056,0
161,1,715517,248273,1575125,73441,11158,787071,0
161,1,702106,246261,1277758,73682,7869,638471,0
162,1,737873,253464,1454064,76952,10204,726461,0
162,1,712849,249525,1406820,74856,8447,702779,0
163,1,711976,247879,1327575,73295,9532,663382,0
163,1,705173,247253,1348323,73900,7733,673779,0
164,1,712884,247685,1367531,73229,9879,683381,0
164,1,703666,246907,1233627,73798,7606,616270,0
165,1,716395,249300,1395385,73974,9986,697053,0
165,1,704318,247095,1219350,73860,8480,609357,0
166,1,712725,248074,1485909,73358,9760,742611,0
166,1,703782,247226,1358511,73889,9422,678862,0
167,1,712314,248212,1374147,73481,9457,686509,0
167,1,708882,249256,1385267,74771,10213,691548,0
168,1,713201,248160,1472524,73443,9749,735722,0
168,1,709692,247136,1464178,73898,9628,731552,0
169,1,716086,249712,1464996,74135,10141,731816,0
169,1,708133,247383,1372242,74008,8569,685158,0
170,1,711663,247429,1506226,73142,10411,752670,0
170,1,706535,246829,1469790,73801,9817,734478,0
171,1,708673,247123,1495762,73128,10226,747427,0
171,1,708287,246953,1373851,73869,8850,686475,0
172,1,716824,250248,1427174,74388,9803,712775,0
172,1,712277,248883,1515926,74584,9661,756665,0
173,1,733305,253348,1525721,76941,10220,762392,0
173,1,707390,246945,1377580,73805,9090,688234,0
174,1,710796,247487,1289968,73225,8825,644567,0
174,1,706481,247495,1418519,73992,9548,708605,0
175,1,711105,247600,1399025,73283,9068,699142,0
175,1,728502,251481,1527016,77135,9944,763042,0
176,1,713325,248630,1306562,73674,8662,652754,0
176,1,707197,247505,1294341,74038,8247,646731,0
177,1,709436,247554,1361250,73280,8895,680138,0
177,1,710914,249072,1383211,74700,8196,690920,0
178,1,732952,252769,1356098,76769,10046,677619,0
178,1,705754,247165,1373562,73957,8151,686290,0
179,1,710143,248102,1429545,73480,8974,714344,0
179,1,702551,246284,1279557,73620,7957,639335,0
180,1,709251,247230,1377670,73162,9338,688396,0
180,1,709447,247259,1444792,73920,8550,721770,0
181,1,731373,252715,1370195,76756,9843,684558,0
181,1,711181,248894,1415296,74584,8329,706976,0
182,1,709801,247976,1395077,73430,9279,697035,0
182,1,733918,256548,1363918,76742,7843,681566,0
183,1,708956,247314,1293468,73140,9080,646286,0
183,1,707655,247931,1391092,74169,8479,694978,0
184,1,713287,249704,1347811,74165,9442,673226,0
184,1,704663,246466,1321594,73662,8423,660351,0
185,1,712200,247953,1411317,73429,8957,705174,0
185,1,710696,248897,1428388,74729,9614,713385,0
186,1,711109,247823,1320143,73314,8916,659593,0
186,1,727084,251698,1462423,77219,9674,730742,0
187,1,710622,247809,1361791,73427,9342,680354,0
187,1,704327,247234,1351716,73946,8036,675309,0
188,1,716254,249699,1461041,74278,9659,729869,0
188,1,705976,247083,1244931,73884,8614,622029,0
189,1,710302,247598,1371569,73379,8287,685259,0
189,1,705767,246976,1263809,73818,9337,631511,0
190,1,710495,247677,1575890,73407,9617,787643,0
190,1,704288,246923,1352303,73799,9263,675884,0
191,1,711305,248215,1672087,73615,10099,835540,0
191,1,705662,247789,1259239,74145,8155,629066,0
192,1,711656,247636,1574064,73423,11370,786536,0
192,1,704447,247773,1389043,74076,8155,694036,0
193,1,710815,248719,1574268,73709,10874,786630,0
193,1,706685,247862,1507561,74136,9070,753375,0
194,1,710009,247900,1621854,73461,10747,810578,0
194,1,729432,252211,1440245,77331,9983,719756,0
195,1,712493,249440,1669484,74194,10373,833941,0
195,1,704696,246540,1383941,73701,9002,691586,0
196,1,707904,247918,1340460,73473,8693,669476,0
196,1,710466,248696,1424360,74408,9467,711668,0
197,1,715215,249215,1462378,74190,9551,730551,0
197,1,710127,249514,1439488,74916,9096,718952,0
198,1,710042,247635,1428350,73450,9526,713655,0
198,1,706240,247041,1385855,73845,8827,692533,0
199,1,713664,249091,1484493,73915,9843,741745,0
199,1,707265,248177,1381410,74248,8950,690418,0
200,1,711451,248646,1560808,73799,10261,779925,0
200,1,702376,246604,1285479,73714,8040,642356,0
201,1,708871,247975,1485297,73628,9676,742177,0
201,1,704030,246812,1291230,73766,9140,645085,0
202,1,711178,249157,1422207,74163,9074,710484,0
202,1,705693,248037,1374281,74230,8446,686617,0
203,1,710754,249286,1350550,74032,8493,674803,0
203,1,702216,247210,1372606,73912,8686,685928,0
204,1,709758,247959,1362418,73609,9114,680759,0
204,1,706818,247278,1298048,73971,8603,648581,0
205,1,708662,248384,1432258,73745,8958,715611,0
205,1,711551,248932,1421364,74656,8552,710037,0
206,1,707582,248013,1427469,73562,8973,713259,0
206,1,710115,248666,1380417,74433,8763,689743,0
207,1,710275,248369,1574686,73740,10710,786849,0
207,1,704460,246569,1281983,73693,8504,640588,0
208,1,710030,248898,1447923,74084,9264,723228,0
208,1,705501,247386,1363977,74020,8798,681530,0
209,1,706852,248420,1696424,73720,10725,847706,0
209,1,704809,246655,1265066,73733,8185,632086,0
210,1,712506,248069,1452635,73582,10048,725794,0
210,1,726720,252616,1327819,77497,9980,663584,0
211,1,710826,247761,1474968,73541,9234,736920,0
211,1,702021,247199,1258699,73835,7358,628919,0
212,1,710186,247342,1428613,73371,9667,713828,0
212,1,701875,246850,1369095,73780,7422,684082,0
213,1,706176,246645,1475181,73159,9286,737198,0
213,1,713737,247385,1377128,73950,8863,688142,0
214,1,711600,247621,1376334,73542,9475,687686,0
214,1,712377,247215,1474955,73949,9352,737021,0
215,1,712367,248934,1357129,74103,10066,677871,0
215,1,712571,247161,1273053,73948,9096,636132,0
216,1,710428,248096,1318994,73710,8910,659019,0
216,1,736383,253016,1465501,78157,10220,732155,0
217,1,706391,246818,1598525,73266,10072,798772,0
217,1,711767,247501,1297203,74052,9000,648129,0
218,1,707816,247282,1443361,73416,9039,721208,0
218,1,709169,246820,1373605,73717,8739,686347,0
219,1,713303,249539,1460713,74421,9673,729492,0
219,1,715071,247911,1399374,74163,9236,699308,0
220,1,730496,252677,1399514,76993,9753,699306,0
220,1,714157,247476,1324297,74019,9386,661729,0
221,1,707718,247771,1458218,73545,8800,728713,0
221,1,712698,247370,1420393,73981,10036,709715,0
222,1,704994,247133,1418151,73403,8997,708435,0
222,1,717434,249726,1409527,74986,9690,704042,0
223,1,710485,249118,1434478,74227,9533,716507,0
223,1,758338,260784,1442742,79908,10853,720865,0
224,1,709876,247680,1493929,73524,9799,746465,0
224,1,713622,247741,1308835,74118,9116,654051,0
225,1,708942,247612,1529920,73537,9721,764673,0
225,1,715395,248797,1376150,74615,9202,687431,0
226,1,707846,247462,1356602,73422,8573,677870,0
226,1,709963,247666,1315595,74033,8877,657415,0
227,1,708488,247993,1387935,73667,8850,693495,0
227,1,732085,251976,1499949,77268,10471,749577,0
228,1,710622,248871,1480931,74033,9441,739790,0
228,1,710965,247799,1513287,74116,9164,756259,0
229,1,707113,247642,1371721,73551,9486,685425,0
229,1,710428,247762,1294081,74081,8729,646553,0
230,1,713540,249729,1479733,74450,9913,739102,0
230,1,709460,247289,1408130,73963,9074,703543,0
231,1,729121,252608,1569500,76891,9920,784243,0
231,1,706633,246635,1339070,73703,8947,669118,0
232,1,708430,247895,1573994,73615,10575,786548,0
232,1,734732,251398,1443418,77106,10210,721235,0
233,1,704691,246843,1404126,73253,9031,701588,0
233,1,712586,247861,1421995,74032,9127,710571,0
234,1,708039,248372,1302848,73718,9232,650889,0
234,1,711245,247159,1406003,73873,8871,702507,0
235,1,705250,247508,1506721,73461,11380,752808,0
235,1,710798,246987,1274828,73773,8849,637008,0
236,1,729204,252046,1467428,76722,9877,733344,0
236,1,715169,249117,1345370,74760,8783,671916,0
237,1,711312,248028,1420821,73550,9053,709962,0
237,1,732344,252190,1430868,77308,9471,714909,0
238,1,716080,250254,1455917,74503,9851,727330,0
238,1,710357,247501,1278823,73930,8454,638951,0
239,1,708821,247945,1466485,73508,10078,732814,0
239,1,710119,247342,1386909,73910,8962,693042,0
240,1,711744,248441,1300450,73728,8577,649782,0
240,1,710489,247525,1449098,73992,8807,724078,0
241,1,708156,247428,1389619,73380,9040,694383,0
241,1,715239,249079,1352292,74741,8671,675339,0
242,1,729692,252303,1333919,76747,9068,666348,0
242,1,732288,252336,1410426,77268,9678,704742,0
243,1,707747,247950,1421970,73599,9254,709964,0
243,1,709187,247265,1233868,73819,8561,616510,0
244,1,734987,256909,1526453,76184,10228,762735,0
244,1,708641,247041,1286401,73686,8855,642745,0
245,1,707133,247756,1444375,73482,9189,721796,0
245,1,708434,247346,1251326,73798,8420,625193,0
246,1,713722,250262,1508565,74557,9851,752998,0
246,1,711071,247950,1300803,74038,8553,649907,0
247,1,707710,248238,1323569,73620,8746,661238,0
247,1,712802,247457,1296273,73852,7547,647721,0
248,1,711150,248329,1566283,73746,9297,782297,0
248,1,712338,247591,1409619,73903,8583,704292,0
249,1,707724,247658,1439354,73447,9608,719556,0
249,1,714695,248842,1479752,74556,8727,739065,0
250,1,727875,252119,1426446,76671,10001,712532,0
250,1,711760,247377,1399848,73785,8519,699593,0
251,1,708868,248354,1432046,73701,9108,715156,0
251,1,712502,248772,1362432,74456,8197,680520,0
252,1,705881,247645,1322164,73470,9787,661161,0
252,1,709108,247080,1292644,73647,8377,645897,0
253,1,706111,248092,1300759,73623,9167,649902,0
253,1,711997,248088,1431638,74254,8789,715044,0
254,1,704615,247344,1448110,73330,9431,723606,0
254,1,732461,252510,1539224,77248,9630,769086,0
255,1,713281,249751,1597589,74418,9739,796946,0
255,1,709051,247358,1383699,73742,8316,691467,0
256,1,707959,247951,1397895,73537,8984,698168,0
256,1,708605,247527,1295459,73843,8420,647267,0
257,1,705995,247932,1472048,73532,9445,735377,0
257,1,713228,248703,1390658,74216,8732,694855,0
258,1,707453,248068,1430659,73705,9388,714866,0
258,1,707456,246905,1431116,73591,8737,715140,0
259,1,706672,247935,1391122,73653,9226,694549,0
259,1,713253,249631,1427693,74779,8950,713137,0
260,1,704486,247494,1287341,73534,8847,643375,0
260,1,714672,247943,1437888,73945,8697,718488,0
261,1,705482,247737,1454071,73589,9223,726674,0
261,1,714365,247458,1477958,73699,9575,738597,0
262,1,709620,249847,1412030,74524,9342,704984,0
262,1,714506,247808,1361692,73847,9431,680504,0
263,1,725186,252296,1516705,76899,9274,757786,0
263,1,713652,247964,1388582,73856,9408,693817,0
264,1,711374,249335,1496304,74119,8433,747673,0
264,1,713283,247573,1313035,73732,8425,656025,0
265,1,713493,248277,1410733,73823,9602,704629,0
265,1,716569,249203,1393476,74566,9150,695959,0
266,1,714501,248934,1392982,74170,9463,695782,0
266,1,736852,253687,1453930,77572,10014,726674,0
267,1,708305,246845,1420134,73239,9351,709618,0
267,1,719043,249408,1394229,74535,9581,696414,0
268,1,716205,249821,1434685,74520,9748,716132,0
268,1,714732,248308,1351092,74015,9267,675117,0
269,1,710907,248057,1446684,73716,9069,722920,0
269,1,712131,247632,1258637,73779,8720,628874,0
270,1,712647,248418,1327162,73840,9017,663129,0
270,1,714490,248439,1304660,74063,9581,651837,0
271,1,711198,248200,1293604,73769,8863,646202,0
271,1,713242,248225,1245760,73957,9194,622436,0
272,1,708253,247124,1420169,73381,9158,709632,0
272,1,717602,250376,1359991,74919,9482,679266,0
273,1,713209,249511,1426752,74381,9559,712398,0
273,1,710999,247883,1291863,73892,8621,645487,0
274,1,709043,247745,1309089,73576,9059,654070,0
274,1,711855,248444,1531700,74087,10022,764560,0
275,1,713000,249162,1502030,74287,9431,750364,0
275,1,709080,247286,1503388,73645,9850,751420,0
276,1,704279,246711,1368405,73172,10504,683531,0
276,1,712391,247395,1408789,73687,9741,703940,0
277,1,712175,248110,1350932,73614,10030,675117,0
277,1,734939,252573,1508369,77200,10836,753570,0
278,1,733031,253061,1420540,77044,10214,709636,0
278,1,712023,247937,1379143,73911,9388,688435,0
279,1,709596,247867,1372040,73487,9443,685359,0
279,1,743314,258744,1494816,77319,10506,747098,0
280,1,709318,247853,1403483,73584,9619,701228,0
280,1,710146,247767,1454295,73853,10180,726698,0
281,1,710171,248258,1388481,73709,9060,693741,0
281,1,711106,247618,1420981,73712,9611,710032,0
282,1,708851,247989,1473851,73564,9549,736560,0
282,1,729453,252271,1621237,77095,10513,810155,0
283,1,732857,252794,1345457,76956,10033,672157,0
283,1,712316,247944,1467755,73897,9568,733432,0
284,1,706912,247320,1324859,73337,8165,661747,0
284,1,714053,248164,1338773,73946,9546,668693,0
285,1,712381,249576,1434594,74264,9628,716604,0
285,1,713071,248117,1343274,73956,9723,671228,0
286,1,707665,247715,1303596,73538,8858,650986,0
286,1,713772,248301,1328064,73957,8800,663317,0
287,1,713845,250470,1475279,74687,10172,736776,0
287,1,711501,247925,1348711,73893,8808,674167,0
288,1,706293,247802,1341857,73512,9183,670504,0
288,1,715747,249222,1352254,74480,9340,675100,0
289,1,712917,248111,1391804,73641,9217,695302,0
289,1,732426,252361,1434931,77163,10384,717009,0
290,1,709389,247674,1325653,73532,9353,662265,0
290,1,709851,247829,1571777,73858,9536,784254,0
291,1,715379,249930,1412299,74473,9975,705012,0
291,1,712278,249011,1415950,74419,9826,707160,0
292,1,731870,252898,1376444,76983,9378,687650,0
292,1,712850,248158,1412190,73850,9297,705374,0
293,1,709835,248192,1585357,73679,9855,792183,0
293,1,711112,247922,1435815,73842,9645,717437,0
294,1,710667,248910,1457256,74055,9539,727619,0
294,1,714608,249715,1404665,74711,9654,701783,0
295,1,710621,247886,1429341,73567,10296,713980,0
295,1,711129,248375,1483979,74052,9312,741491,0
296,1,710673,248364,1309612,73756,9831,654388,0
296,1,708541,247045,1523906,73525,9178,761519,0
297,1,716591,250788,1370284,74768,9749,683914,0
297,1,709948,247967,1385892,73881,9388,692431,0
298,1,729428,252550,1332066,76883,10165,665471,0
298,1,711597,248601,1499251,74117,9456,748198,0
299,1,710251,248630,1627106,73848,9940,813044,0
299,1,712816,247599,1302799,73746,9492,650961,0
300,1,706181,247849,1296621,73659,8409,647875,0
300,1,715570,249367,1362276,74541,9138,680451,0
301,1,711027,248645,1402800,73866,9380,700893,0
301,1,733971,253279,1458997,77401,9478,729160,0
302,1,708734,247853,1294752,73563,8475,646940,0
302,1,710980,247736,1309179,73870,8754,653992,0
303,1,708744,248277,1449762,73741,8767,724398,0
303,1,707781,247236,1310540,73698,8507,654726,0
304,1,710168,248914,1467609,74048,9431,732946,0
304,1,714887,249460,1358171,74569,9030,678630,0
305,1,710520,248805,1392841,73859,8934,696033,0
305,1,713649,249156,1391086,74226,8713,695069,0
306,1,708339,248006,1377548,73604,8697,688258,0
306,1,710110,247835,1280615,73820,8379,638997,0
307,1,726769,252579,1334021,76924,9143,666573,0
307,1,710572,248262,1588975,73984,9699,793975,0
308,1,710412,248555,1393058,73786,8901,696066,0
308,1,710012,248154,1436886,73950,9815,718087,0
309,1,713840,250133,1451043,74467,9255,724819,0
309,1,713407,248586,1384825,74109,9131,691687,0
310,1,707661,248122,1389984,73630,8691,694465,0
310,1,709059,247392,1446161,73621,9342,722050,0
311,1,708309,248542,1358947,73709,8516,678977,0
311,1,713494,249162,1348233,74399,9592,673718,0
312,1,708915,248310,1430082,73640,8722,714623,0
312,1,708671,248237,1462492,74023,9883,731028,0
313,1,713988,250713,1417198,74744,9188,708090,0
313,1,709341,248508,1479675,74075,10211,739690,0
314,1,710592,249476,1406112,74062,9328,702568,0
314,1,715753,248316,1367880,74005,9846,683499,0
315,1,718329,249718,1405207,74228,9199,701997,0
315,1,713948,247895,1412980,73861,9479,706055,0
316,1,714244,248731,1301868,73787,8827,650457,0
316,1,715285,248339,1595476,74004,11200,797261,0
317,1,713401,248740,1462146,73756,9134,730288,0
317,1,713806,248131,1440097,73932,9515,719495,0
318,1,714149,248859,1332915,73837,8956,666004,0
318,1,717807,249915,1374923,74737,8364,686852,0
319,1,715796,250315,1462748,74503,9341,730502,0
319,1,714181,248761,1421900,74168,8870,710507,0
320,1,733478,253121,1286744,76943,9984,642968,0
320,1,719816,250380,1352638,74936,9707,675170,0
321,1,713653,248985,1332170,73873,9637,665956,0
321,1,737866,253814,1469684,77622,10592,734446,0
322,1,711277,248176,1261417,73571,8957,630089,0
322,1,712583,248192,1451329,73935,9413,725217,0
323,1,713825,249609,1335794,74250,9607,667176,0
323,1,715113,249051,1319847,74390,8412,659360,0
324,1,710755,248793,1400862,73772,9352,700050,0
324,1,712613,248462,1471027,74068,9183,734259,0
325,1,712713,248371,1286030,73629,8836,642465,0
325,1,739887,254160,1471165,77722,9803,735130,0
326,1,714645,250045,1485702,74226,8949,742293,0
326,1,713506,248399,1375916,74039,8296,687521,0
327,1,710295,248804,1296139,73873,8477,647662,0
327,1,716764,249532,1401431,74411,10034,700042,0
328,1,710403,248123,1382894,73648,9672,691013,0
328,1,713899,248198,1279168,73953,9131,638945,0
329,1,715323,250129,1428928,74531,9147,713705,0
329,1,740235,257845,1433307,76880,9234,715974,0
330,1,712388,249366,1299665,74093,8624,649361,0
330,1,715382,248773,1399460,74226,8991,699189,0
331,1,710388,249043,1393948,73928,9179,696476,0
331,1,713584,248550,1436005,74190,9421,717418,0
332,1,714501,250253,1395586,74642,9347,696949,0
332,1,713415,248782,1403600,74229,9232,701238,0
333,1,712800,248808,1456099,73943,9136,727645,0
333,1,717509,250453,1373155,75098,9625,685122,0
334,1,710940,248341,1421339,73813,8900,710150,0
334,1,733864,253131,1491894,77486,10494,745395,0
335,1,710803,248148,1427524,73566,9352,713225,0
335,1,713905,249323,1309289,74412,9366,654027,0
336,1,709258,248594,1391866,73772,8839,695470,0
336,1,710444,248337,1411588,74158,10138,705181,0
337,1,714424,250400,1389105,74637,8865,693510,0
337,1,718647,249155,1459172,74407,10044,729039,0
338,1,732419,254064,1361167,77358,9305,680054,0
338,1,717040,248997,1363318,74313,9651,681000,0
339,1,708449,248733,1389840,73848,8892,694399,0
339,1,715048,248166,1434611,74084,9297,716683,0
340,1,710660,249081,1400842,73973,8712,699985,0
340,1,717992,250119,1490783,74978,9135,744426,0
341,1,709587,248625,1408818,73786,9098,703997,0
341,1,734837,253286,1501496,77547,9964,750252,0
342,1,708195,248633,1469491,73784,9122,734306,0
342,1,713830,248270,1447628,74085,9078,723428,0
343,1,706945,247916,1305711,73567,9101,652425,0
343,1,712344,248155,1387212,74101,8252,692834,0
344,1,707934,248814,1396129,73881,9565,697665,0
344,1,714532,249028,1340836,74498,9072,668919,0
345,1,709195,249713,1416898,74335,9963,707244,0
345,1,713194,248749,1403112,74313,9415,700900,0
346,1,712684,249094,1275524,73969,8385,637257,0
346,1,713240,248631,1298084,74215,9047,648581,0
347,1,711153,248068,1377080,73539,9335,687994,0
347,1,712614,247731,1400268,73930,8859,699532,0
348,1,732923,253813,1301954,77222,9475,650209,0
348,1,713856,248697,1464631,74295,9038,731635,0
349,1,714145,250559,1429326,74537,9069,714011,0
349,1,712453,248442,1369459,74211,9932,684020,0
350,1,712926,249803,1303522,74117,8732,651260,0
350,1,712164,248640,1319564,74238,9931,659422,0
351,1,717981,251549,1488196,74850,9156,743264,0
351,1,710065,248088,1309482,74050,8526,653609,0
352,1,710031,248863,1417532,73834,9050,708277,0
352,1,714845,250302,1312408,75051,8562,655506,0
353,1,710729,249324,1288508,73890,8234,643748,0
353,1,735172,253362,1424297,77575,10097,711746,0
354,1,710290,249429,1370328,73993,8823,684703,0
354,1,715042,248817,1312357,74316,8320,655583,0
355,1,737527,258692,1420034,76729,8549,709282,0
355,1,715267,249439,1342281,74701,8023,670342,0
356,1,708624,248881,1391785,73780,9664,695430,0
356,1,712192,248496,1391193,74207,8368,695140,0
357,1,729386,253676,1516270,77165,9834,757735,0
357,1,713438,248470,1393952,74223,8942,696498,0
358,1,709426,248270,1306336,73518,9090,652749,0
358,1,732169,252629,1438032,77310,9915,718479,0
359,1,714871,250389,1423094,74472,9680,710917,0
359,1,708244,247847,1392277,73971,9222,695738,0
360,1,710885,249354,1342249,73968,9052,670326,0
360,1,711355,247956,1335793,74078,8656,667385,0
361,1,711490,249376,1240373,73966,9037,619722,0
361,1,715459,249506,1345686,74688,8704,672190,0
362,1,712580,250421,1474073,74494,9916,735265,0
362,1,714040,249318,1492864,74451,9073,746008,0
363,1,711396,250133,1500112,74190,10706,749414,0
363,1,709795,248142,1381974,74029,8703,690534,0
364,1,708951,249024,1416573,73779,10090,707497,0
364,1,709256,248476,1408285,74040,8696,703775,0
365,1,708538,249435,1394079,73973,10799,696481,0
365,1,710055,248577,1362870,74121,8518,680952,0
366,1,705731,248684,1341841,73632,10256,670597,0
366,1,712330,249798,1366125,74745,8543,682412,0
367,1,709047,250143,1552797,74356,10543,775715,0
367,1,718131,249448,1632166,74482,10876,815622,0
368,1,703883,248584,1452430,73699,9266,725814,0
368,1,713284,248057,1372335,73997,8808,685732,0
369,1,721040,250871,1474389,74672,10418,736358,0
369,1,718427,250005,1301941,74820,9045,650212,0
370,1,738764,254259,1459577,77300,10765,729220,0
370,1,713439,248717,1319174,74195,8094,659099,0
371,1,718382,250080,1522570,74169,10604,760702,0
371,1,715714,249158,1368628,74363,8868,683826,0
372,1,714064,249017,1473272,73861,10078,736080,0
372,1,714550,248992,1295829,74263,8099,647465,0
373,1,722044,251356,1501457,74842,10159,749507,0
373,1,712621,248664,1327642,74164,9287,663369,0
374,1,713181,248409,1429752,73608,9504,714418,0
374,1,738938,254365,1342113,77864,9858,670670,0
375,1,716100,249504,1469631,73938,10921,734505,0
375,1,714326,249030,1277072,74259,7878,638136,0
376,1,715260,249318,1372008,73986,10651,684869,0
376,1,712318,248760,1470146,74237,10727,734192,0
377,1,711373,248293,1528416,73484,11133,763749,0
377,1,716471,250034,1272672,74747,8792,635796,0
378,1,732646,253310,1461357,77017,11026,729852,0
378,1,715547,250040,1329944,74782,8888,664137,0
379,1,716592,249488,1600070,73961,10317,798943,0
379,1,733270,253586,1465977,77558,9786,732487,0
380,1,713246,248638,1494952,73871,10319,746341,0
380,1,711129,248423,1315980,74132,8427,657486,0
381,1,715299,249178,1460460,73857,10700,729674,0
381,1,714865,249832,1306561,74744,8454,652583,0
382,1,714919,249387,1593615,73871,11278,795948,0
382,1,711973,249008,1392613,74279,8778,695876,0
383,1,714440,249099,1574240,73788,10978,786918,0
383,1,730432,253082,1452698,77395,10099,725878,0
384,1,734921,253689,1566853,77125,11809,782867,0
384,1,712578,249163,1304245,74226,8818,651672,0
385,1,713344,249192,1540502,73844,10364,769713,0
385,1,708322,247924,1405756,73804,9015,702485,0
386,1,714770,250259,1559183,74498,10377,778242,0
386,1,713226,248549,1565993,74164,10445,782465,0
387,1,713732,248888,1702797,73874,11659,851351,0
387,1,713301,248240,1449191,74023,9786,724162,0
388,1,735248,254602,1602710,77589,12048,800701,0
388,1,733331,252897,1447204,77370,10599,723233,0
389,1,713743,249775,1585749,74406,10790,792056,0
389,1,709415,247674,1406289,73788,9242,702704,0
390,1,714418,249070,1528899,74039,10134,763452,0
390,1,712130,248713,1374212,74226,9183,686644,0
391,1,718705,250254,1712758,74601,10995,855193,0
391,1,714958,249569,1300789,74646,9106,649738,0
392,1,714472,249054,1780215,74084,11092,890173,0
392,1,710221,248038,1454021,74013,8956,726522,0
393,1,710089,248086,1509314,73690,9412,754037,0
393,1,711768,248853,1381372,74225,8804,690166,0
394,1,713478,248879,1528491,73932,10108,763337,0
394,1,707641,247595,1376565,73781,8402,687818,0
395,1,713629,248936,1460617,73910,10269,730084,0
395,1,709702,248017,1393218,73979,8893,696235,0
396,1,716550,250384,1525290,74632,10206,761487,0
396,1,711697,248656,1350691,74208,8701,674857,0
397,1,711803,248952,1625029,73932,10532,811646,0
397,1,712646,249390,1310086,74614,8403,654319,0
398,1,714128,249003,1577823,74085,9795,788259,0
398,1,713773,250325,1534973,74971,12293,766706,0
399,1,713558,249214,1550427,74085,10428,773999,0
399,1,706964,248087,1329467,73949,9428,664249,0
400,1,732852,253280,1504068,77197,10241,751271,0
400,1,708494,248430,1415244,74065,10083,707051,0
401,1,714574,249030,1434480,74042,10256,716097,0
401,1,713297,248665,1433205,74187,9796,716095,0
402,1,717633,250222,1431041,74539,9839,714186,0
402,1,709396,248253,1487377,74062,9752,743294,0
403,1,711634,248372,1403500,73727,9346,701333,0
403,1,705420,247207,1438239,73632,9145,718683,0
404,1,711249,248598,1421329,73775,9140,710231,0
404,1,732191,253336,1610574,77496,10420,804630,0
405,1,711650,249022,1323425,73915,9578,661194,0
405,1,712803,249749,1591280,74558,10414,795280,0
406,1,708248,247899,1415544,73553,9101,707403,0
406,1,708639,248171,1468450,73969,9692,733865,0
407,1,714936,250375,1468338,74751,9739,733339,0
407,1,710107,249013,1451621,74295,9546,725273,0
408,1,709699,248953,1474511,73999,9147,736708,0
408,1,707285,247821,1397431,73888,9096,698313,0
409,1,708025,247928,1250656,73642,8833,624692,0
409,1,714196,250328,1405450,75013,9787,700803,0
410,1,705958,247684,1282219,73603,8803,640647,0
410,1,728157,252531,1491334,77246,10594,745277,0
411,1,707056,248071,1381046,73617,9126,690021,0
411,1,709567,249268,1313824,74578,8941,656234,0
412,1,706766,248304,1286751,73784,9049,642905,0
412,1,706950,248360,1299524,74062,8567,649300,0
413,1,705540,247403,1340157,73401,9034,669620,0
413,1,710623,247622,1383092,73828,8650,691168,0
414,1,733956,252834,1382640,76986,9619,690861,0
414,1,736092,252465,1454396,77267,10116,726724,0
415,1,711562,247786,1376871,73461,8130,687984,0
415,1,712631,247797,1324609,73922,8728,661858,0
416,1,711898,248255,1296350,73642,8723,647738,0
416,1,715520,249070,1340849,74438,8947,669726,0
417,1,709918,247950,1420204,73577,8858,709855,0
417,1,714386,248238,1262440,74008,9025,630799,0
418,1,713368,249620,1411753,74320,9268,705103,0
418,1,713192,247908,1304536,73926,8850,651782,0
419,1,735047,253799,1336871,77786,10018,667967,0
419,1,732125,252633,1346787,77233,10204,672964,0
420,1,710999,248567,1388918,73801,9195,694014,0
420,1,714981,248331,1245220,74094,8274,622100,0
421,1,709836,247655,1359148,73427,8772,679089,0
421,1,715209,248335,1329007,74072,8680,664065,0
422,1,712873,249523,1400506,74322,8970,699518,0
422,1,715507,249288,1369750,74397,9489,684204,0
423,1,729541,252798,1345888,76955,8649,672473,0
423,1,717022,250229,1316848,74949,7979,657515,0
424,1,706948,248032,1337144,73627,8411,668084,0
424,1,709848,247797,1372954,73876,8425,686023,0
425,1,712695,248747,1267374,73817,8774,633096,0
425,1,717886,249165,1383243,74513,9096,690962,0
426,1,711325,248331,1357040,73631,9340,678117,0
426,1,714826,248447,1383330,74128,8920,691312,0
427,1,714076,250101,1298287,74436,9128,648399,0
427,1,712724,247919,1309511,73923,8201,654338,0
428,1,729625,252782,1290606,76915,9583,644710,0
428,1,711777,247814,1454032,73893,9360,726562,0
429,1,711636,248572,1320425,73731,9850,659747,0
429,1,717936,250374,1452535,74955,10105,725545,0
430,1,706172,247575,1320797,73366,8635,659909,0
430,1,735032,253163,1465106,77391,10241,732084,0
431,1,708449,248763,1398727,73780,9023,698936,0
431,1,711864,248265,1400577,74028,9566,699733,0
432,1,729753,252745,1340971,76905,9203,669945,0
432,1,713835,249147,1335711,74515,9103,667214,0
433,1,705194,247376,1292295,73266,8286,645695,0
433,1,712925,249080,1409963,74308,8922,704526,0
434,1,709245,248793,1312114,73857,8500,655495,0
434,1,712104,248388,1369204,74048,8857,684204,0
435,1,706135,247816,1306836,73554,8535,653016,0
435,1,714554,249579,1358886,74666,8141,678734,0
436,1,704390,247460,1358792,73338,8861,679032,0
436,1,709473,247907,1395657,73958,8942,697352,0
437,1,710435,248177,1369665,73692,8495,684333,0
437,1,716125,250069,1357100,74894,8832,677749,0
438,1,709567,248339,1288216,73695,8469,643525,0
438,1,715723,248903,1336678,74280,8756,667831,0
439,1,710401,248512,1308192,73785,8427,653601,0
439,1,714206,248624,1422143,74129,8641,710608,0
440,1,707840,248236,1418568,73642,8430,708610,0
440,1,714507,248611,1394069,74179,9891,696506,0
441,1,706403,247747,1365948,73508,8202,682461,0
441,1,717865,250280,1280082,74912,8778,639348,0
442,1,712563,249295,1427508,74244,9284,713044,0
442,1,710255,247802,1281662,73891,8660,640314,0
443,1,706622,247963,1341120,73496,7412,670127,0
443,1,732219,252809,1370813,77329,9540,684927,0
444,1,729977,253077,1281361,77016,9448,640126,0
444,1,715178,249348,1298320,74581,8230,648400,0
445,1,706779,248036,1296289,73609,8371,647640,0
445,1,711718,248240,1544766,74081,9670,771893,0
446,1,706075,247843,1250051,73478,7767,624575,0
446,1,711789,248287,1345674,74032,9403,672391,0
447,1,710246,249862,1520747,74305,9605,760032,0
447,1,709960,248014,1479574,73926,10196,739158,0
448,1,711309,248610,1506966,73731,9740,753021,0
448,1,709893,248023,1388672,73905,9631,693877,0
449,1,710887,248889,1385126,73841,9333,691613,0
449,1,732477,253045,1492845,77355,10093,745881,0
450,1,714755,250452,1477725,74590,10127,737564,0
450,1,712674,248249,1476912,74020,10046,737926,0
451,1,707819,248198,1442713,73643,9341,720630,0
451,1,710384,247742,1540638,73856,9137,769747,0
452,1,711063,249886,1379140,74373,8597,688790,0
452,1,714189,249604,1370664,74435,9258,684604,0
453,1,706895,248124,1519045,73641,9228,758665,0
453,1,709577,247645,1409219,73717,8191,704231,0
454,1,706282,248559,1414204,73787,8244,706584,0
454,1,712679,248229,1542463,73938,9361,770603,0
455,1,706331,247979,1382010,73630,8785,690551,0
455,1,716737,250587,1464708,74973,9391,731259,0
456,1,710141,249171,1343339,73978,9081,671127,0
456,1,732097,253243,1484160,77426,10337,741339,0
457,1,713355,248560,1357103,73875,9487,678126,0
457,1,711798,248778,1325469,74174,8682,662205,0
458,1,710640,247837,1442424,73600,10037,720521,0
458,1,712680,249483,1301704,74573,9040,650301,0
459,1,731041,252687,1402668,76998,9512,700767,0
459,1,706737,247230,1332621,73628,9249,665713,0
460,1,708202,247708,1274192,73521,8602,636659,0
460,1,708806,248331,1441575,74029,10073,719927,0
461,1,714297,248848,1460143,74080,9990,729178,0
461,1,707998,248006,1490450,73886,9644,744676,0
462,1,711571,248363,1331630,73818,9269,665258,0
462,1,716560,248816,1333545,74181,9698,666043,0
463,1,710266,248248,1394660,73717,9334,696884,0
463,1,713485,247955,1344137,73817,10162,671711,0
464,1,709315,247678,1323008,73619,8289,660882,0
464,1,718939,249937,1315862,74658,10191,657047,0
465,1,713900,250041,1780335,74585,9072,889235,0
465,1,713365,248428,1360812,73997,9961,679596,0
466,1,730934,252742,1331046,76966,9499,665044,0
466,1,714461,248519,1349425,74036,10414,674012,0
467,1,710135,248283,1393365,73797,8951,696183,0
467,1,713389,248284,1333989,73858,10168,666378,0
468,1,708470,248048,1340208,73727,8209,669072,0
468,1,714018,249294,1342107,74270,9583,670284,0
469,1,709069,248620,1443024,73864,9504,720976,0
469,1,711782,248322,1405647,73930,9763,702121,0
470,1,710307,247848,1373439,73632,9715,686223,0
470,1,714675,249184,1281909,74217,9381,640413,0
471,1,731111,252421,1393504,76955,9538,696097,0
471,1,712553,248674,1338601,74032,10039,668919,0
472,1,703807,246359,1343604,73155,9084,671097,0
472,1,740142,254574,1397218,78288,11331,698127,0
473,1,707714,247792,1355646,73657,8273,677144,0
473,1,715348,250167,1500030,74674,10111,748762,0
474,1,709476,248287,1433974,73790,8675,716590,0
474,1,713275,249663,1493081,74351,10011,745884,0
475,1,707466,247976,1387323,73650,8161,693205,0
475,1,715768,249292,1398339,74181,9893,698616,0
476,1,729435,252130,1393293,76771,9096,696225,0
476,1,710622,248181,1448676,73867,10040,723920,0
477,1,707738,247900,1294239,73599,7762,646856,0
477,1,714846,249237,1391483,74249,9084,695233,0
478,1,708246,247918,1339257,73682,7927,669177,0
478,1,719234,251277,1381913,75231,10309,689953,0
479,1,711274,249518,1452702,74338,9276,725558,0
479,1,762044,262987,1602992,80243,11591,801000,0
480,1,708289,248259,1306508,73726,8324,652796,0
480,1,711302,248522,1320991,73973,9545,660042,0
481,1,705723,247775,1255345,73594,7617,627108,0
481,1,714064,250052,1358792,74762,9904,678484,0
482,1,712623,250190,1318483,74633,8340,658420,0
482,1,710746,248616,1464251,74135,10405,731802,0
483,1,726153,252303,1299257,76919,8809,649221,0
483,1,709597,248049,1330912,73922,9092,664972,0
484,1,707654,248865,1327712,74005,8759,663419,0
484,1,732339,253987,1491173,77668,11130,745333,0
485,1,708311,247803,1332114,73632,8576,665597,0
485,1,717177,249196,1494608,74267,11047,746799,0
486,1,707856,248185,1316757,73790,7932,657771,0
486,1,713915,248566,1409848,74115,10114,704524,0
487,1,708526,248712,1426254,74177,8612,712473,0
487,1,714344,248997,1441270,74251,10245,720163,0
488,1,710273,248436,1303670,73865,8279,651366,0
488,1,712728,248702,1348235,74143,9531,673529,0
489,1,707003,247389,1326230,73534,8010,662698,0
489,1,714623,249748,1421111,74515,9878,710110,0
490,1,727968,252418,1466665,76964,9004,732701,0
490,1,712432,248534,1345412,74125,9366,672211,0
491,1,708684,248650,1510138,73926,8600,754564,0
491,1,716934,250465,1326891,74976,9559,662085,0
492,1,706339,247328,1307975,73428,8284,653479,0
492,1,733973,253500,1389402,77528,10721,693683,0
493,1,706731,247907,1294529,73723,8057,646888,0
493,1,713852,249089,1296519,74305,8081,647851,0
494,1,709016,247310,1315085,73456,8838,657160,0
494,1,731142,253454,1479956,77639,9390,739558,0
495,1,709498,248335,1524232,73807,9907,761689,0
495,1,711963,248854,1287103,74326,8440,643176,0
496,1,708667,248357,1420136,73800,8343,709532,0
496,1,710803,248976,1531538,74382,9051,765218,0
497,1,705812,247477,1429292,73401,8987,713978,0
497,1,712030,249408,1317301,74581,8579,657931,0
498,1,706007,247826,1359252,73586,9202,678820,0
498,1,709054,248523,1394483,74228,8992,696559,0
499,1,711718,250356,1367270,74746,10051,682211,0
499,1,707752,248161,1314847,74081,8522,657008,0
500,1,708118,247858,1342671,73658,9336,670716,0
500,1,712407,249487,1411342,74561,8917,705175,0
501,1,707214,247967,1363019,73586,8735,680825,0
501,1,712279,248336,1407358,74125,8506,703291,0
502,1,710788,249308,1585308,74247,9938,792000,0
502,1,731306,252879,1457828,77385,9529,728494,0
503,1,706756,248248,1422190,73714,8812,710075,0
503,1,712744,249146,1320415,74438,7918,659774,0
504,1,704715,247822,1386578,73571,9123,693434,0
504,1,710626,248668,1390244,74227,8504,694793,0
505,1,709424,249013,1331717,74043,8386,665320,0
505,1,711279,248839,1503347,74339,9703,751108,0
506,1,709246,249609,1396249,74405,9054,697340,0
506,1,713834,250809,1315717,75264,8581,657066,0
507,1,725637,252313,1368806,76913,9407,683796,0
507,1,732314,253458,1431930,77629,9624,715512,0
508,1,704347,247894,1384554,73720,9225,691774,0
508,1,709314,248517,1353695,74186,7920,676333,0
509,1,705191,248246,1378505,73777,8887,688795,0
509,1,709388,248809,1424602,74325,8961,711810,0
510,1,708617,247866,1391096,73718,8500,694981,0
510,1,709949,249222,1375397,74402,8709,687035,0
511,1,707742,247715,1285859,73647,8280,642496,0
511,1,709270,248314,1583208,74174,10423,791178,0
512,1,707891,248407,1283264,73874,8080,641106,0
512,1,708678,248375,1386188,74168,8874,692635,0
513,1,708689,247922,1385860,73641,8703,692469,0
513,1,708605,249059,1284813,74409,8227,641955,0
514,1,708449,247691,1376413,73591,8155,687691,0
514,1,704467,247883,1393794,73990,8447,696466,0
515,1,713343,250045,1482177,74634,8891,740094,0
515,1,715487,248865,1352860,74342,8916,675868,0
516,1,729703,252869,1363163,77107,9054,681057,0
516,1,717766,249415,1329095,74692,9046,663866,0
517,1,706696,247888,1382406,73705,8134,690536,0
517,1,716829,249279,1297478,74493,9158,648266,0
518,1,710367,249201,1427786,74287,8343,713054,0
518,1,713467,248383,1349795,74196,9790,674355,0
519,1,709190,249238,1331372,74096,7892,665160,0
519,1,714023,248650,1332041,74233,8945,665668,0
520,1,704400,247843,1238639,73610,7933,618730,0
520,1,718888,250614,1440293,75161,11503,719362,0
521,1,710595,248846,1331794,73951,8577,665176,0
521,1,735089,253027,1332909,77492,10117,665937,0
522,1,708724,248043,1261176,73740,8515,630064,0
522,1,712668,248489,1310267,74221,8660,654672,0
523,1,707733,248104,1221255,73786,7821,609974,0
523,1,715039,249688,1328478,74779,8548,663685,0
524,1,710653,249328,1290086,74343,8452,644366,0
524,1,713395,248389,1393456,74187,8935,696319,0
525,1,706650,247868,1230021,73700,8197,614461,0
525,1,712758,248481,1371162,74177,9065,685124,0
526,1,708926,248271,1301800,73788,9263,650437,0
526,1,711473,248098,1392506,74051,8985,695965,0
527,1,709424,249202,1401707,74228,8532,700140,0
527,1,712498,248726,1373688,74310,8504,686341,0
528,1,704981,247575,1325499,73553,8007,662269,0
528,1,711069,248622,1384713,74203,9143,691995,0
529,1,710565,249848,1387642,74578,8803,692926,0
529,1,734856,253119,1462425,77513,9843,730841,0
530,1,726783,252537,1392970,77012,9937,696017,0
530,1,713877,248639,1450136,74172,8528,724641,0
531,1,705085,248082,1384217,73708,8459,691549,0
531,1,713727,249071,1287601,74346,8560,643493,0
532,1,705269,248095,1374735,73738,8504,686686,0
532,1,710901,248274,1453826,74118,9500,726494,0
533,1,709725,247890,1391945,73701,8468,695472,0
533,1,714233,250167,1315807,74995,8425,657110,0
534,1,710334,249204,1426039,74372,8804,712159,0
534,1,731847,253063,1406117,77528,9704,702568,0
535,1,727829,252742,1379355,77086,9171,689162,0
535,1,713196,248866,1394240,74346,9042,696645,0
536,1,710568,248940,1391975,74040,9090,695358,0
536,1,715466,250237,1313231,75026,9075,655805,0
537,1,706236,247471,1378824,73531,8384,688977,0
537,1,731683,253327,1451530,77577,10411,725246,0
538,1,708041,248872,1441797,73957,8290,720405,0
538,1,709915,248296,1307371,74179,9089,653138,0
539,1,709451,249099,1450469,74097,8993,724705,0
539,1,709543,248433,1399501,74099,9390,699330,0
540,1,706081,246990,1299890,73458,7940,649487,0
540,1,715529,249743,1323180,74806,9184,660856,0
541,1,708887,248783,1416171,73991,9337,707556,0
541,1,716894,250451,1271795,75042,8314,635130,0
542,1,703536,247529,1361246,73490,8444,680064,0
542,1,709629,248124,1410159,74047,8704,704591,0
543,1,703963,247905,1292022,73599,7898,645528,0
543,1,709670,248209,1321633,74132,8555,660445,0
544,1,708356,249847,1382846,74556,9545,690607,0
544,1,716427,250374,1577499,75095,10877,787494,0
545,1,735152,257595,1347364,76610,9089,672999,0
545,1,733411,253247,1435840,77570,9939,717401,0
546,1,706221,247485,1286748,73530,8324,642917,0
546,1,710801,248497,1288709,74226,8232,643770,0
547,1,707545,248352,1256633,73873,8764,627699,0
547,1,712808,249190,1411929,74342,9284,705588,0
548,1,708175,248786,1308482,74100,8914,653394,0
548,1,714977,249903,1307621,74831,8937,653060,0
549,1,704344,247706,1338389,73588,8605,668791,0
549,1,710841,248641,1401666,74299,8810,700189,0
550,1,708193,248621,1449967,73933,8138,724393,0
550,1,712642,249374,1413102,74503,9089,706033,0
551,1,705863,248146,1402623,73754,7986,700849,0
551,1,710132,248538,1430837,74186,8825,714977,0
552,1,724628,251893,1514159,76744,9552,756629,0
552,1,710859,248235,1286222,74140,8298,642707,0
553,1,703989,247925,1527299,73735,9098,763143,0
553,1,710623,248282,1498151,74166,8922,748625,0
554,1,704068,248441,1372770,73840,8226,685937,0
554,1,730707,253012,1514778,77533,9283,756970,0
555,1,705954,247878,1330328,73691,8494,664360,0
555,1,709278,248529,1285089,74250,7850,642071,0
556,1,709738,249331,1417851,74339,9325,708154,0
556,1,711854,248317,1431396,74234,9392,715249,0
557,1,705376,248063,1298612,73781,8381,648780,0
557,1,711314,249105,1405152,74492,8832,702102,0
558,1,703727,247462,1399771,73517,8600,699370,0
558,1,713485,249762,1317338,74967,8726,657939,0
559,1,727220,253083,1345895,77176,9122,672288,0
559,1,732200,253497,1473254,77740,9593,736182,0
560,1,703919,248205,1448594,73776,8677,723844,0
560,1,713124,248366,1322410,74216,8880,660630,0
561,1,701819,247427,1338607,73493,8246,668834,0
561,1,734104,253165,1397957,77632,9776,698513,0
562,1,712662,248557,1394817,73863,9529,696888,0
562,1,715715,249829,1318518,74953,8545,658353,0
563,1,710703,248001,1313078,73729,9072,656017,0
563,1,713457,248943,1385149,74515,8157,692190,0
564,1,715644,249537,1414062,74465,9611,706084,0
564,1,710946,248428,1600075,74318,10744,799365,0
565,1,731659,252559,1355713,77000,9735,677420,0
565,1,712144,249153,1308988,74686,8423,653702,0
566,1,710349,248181,1290328,73796,8208,644535,0
566,1,713100,248576,1396088,74407,9265,697579,0
567,1,708732,247785,1341789,73636,8554,670358,0
567,1,712891,248973,1301812,74468,8015,650466,0
568,1,730055,253116,1326613,77217,9535,662604,0
568,1,710697,248118,1493118,74178,9221,746021,0
569,1,709184,248142,1318073,73801,9432,658356,0
569,1,714077,250032,1526097,75115,11071,762001,0
570,1,708496,247650,1340449,73518,9053,669702,0
570,1,730902,253171,1466737,77621,11139,733122,0
571,1,714410,250019,1538047,74684,9091,767860,0
571,1,713319,248232,1406039,74231,9275,702511,0
572,1,728854,252501,1339003,77005,9402,669012,0
572,1,712066,248827,1299082,74294,8193,649035,0
573,1,709180,248541,1413718,73811,9179,706312,0
573,1,710867,248353,1396744,74145,9658,697779,0
574,1,712642,249475,1415025,74333,9214,706765,0
574,1,711893,248362,1520023,74162,9829,759595,0
575,1,709688,248591,1389990,73924,8771,694197,0
575,1,717841,251147,1330228,75378,9011,664121,0
576,1,726611,252311,1462107,76942,9302,730427,0
576,1,712586,249194,1518097,74487,11090,758006,0
577,1,707244,247847,1387325,73653,8646,693071,0
577,1,709148,248238,1395580,74121,8576,697416,0
578,1,704463,247438,1282150,73517,8475,640443,0
578,1,711025,248784,1239721,74239,8899,619401,0
579,1,707158,248738,1433434,73949,9268,716024,0
579,1,711144,248664,1297969,74315,9259,648499,0
580,1,714989,249969,1410555,74607,9040,704423,0
580,1,709058,248200,1314365,74092,9513,656669,0
581,1,707709,247567,1483084,73481,8261,741082,0
581,1,728581,252297,1451730,77192,10007,725428,0
582,1,712776,249271,1434904,74322,8721,716645,0
582,1,711304,249462,1543080,74499,9562,771074,0
583,1,710630,248956,1402830,74000,8900,700957,0
583,1,711483,249700,1310905,74751,8848,654771,0
584,1,708085,247830,1388378,73715,8763,693623,0
584,1,707518,248079,1319058,74014,8718,659179,0
585,1,711400,248888,1390437,74020,8972,694741,0
585,1,713244,248279,1417268,74069,9017,708172,0
586,1,711351,249510,1398616,74362,8691,698408,0
586,1,713097,248485,1398612,74164,8774,698891,0
587,1,706416,247601,1254818,73578,8481,626906,0
587,1,734621,253181,1456192,77543,9892,727704,0
588,1,712014,250179,1336474,74700,9320,667475,0
588,1,712336,248721,1327868,74301,9116,663422,0
589,1,710322,248094,1254202,73782,8777,626425,0
589,1,713084,249287,1441920,74659,8831,720306,0
590,1,712292,249314,1333820,74332,9129,666057,0
590,1,711790,249016,1686532,74437,10478,842780,0
591,1,708914,247980,1471107,73705,8399,735098,0
591,1,711930,249391,1404329,74590,8719,701664,0
592,1,707752,248168,1496714,73778,8416,747778,0
592,1,732406,252838,1453013,77462,10082,725993,0
593,1,706522,248142,1387078,73674,7931,692992,0
593,1,713286,249836,1314369,74898,9374,656460,0
594,1,714256,250382,1459459,74791,9127,728728,0
594,1,711719,249404,1579625,74534,10839,789286,0
595,1,706795,248051,1400300,73760,9056,699980,0
595,1,711134,249616,1339167,74828,8807,668762,0
596,1,708966,249328,1394461,74324,8872,696600,0
596,1,728224,252879,1499769,77461,10152,749471,0
597,1,708757,248539,1379174,73870,8875,689061,0
597,1,705787,248171,1275619,74162,7668,637408,0
598,1,728667,253321,1341558,77228,9358,670300,0
598,1,708415,247898,1412102,74071,9018,705625,0
599,1,704547,247878,1455572,73598,9477,727295,0
599,1,707863,247783,1275894,73875,8207,637557,0
600,1,706026,248898,1388908,73998,9028,693875,0
600,1,708083,248240,1394142,74091,9527,696626,0
601,1,707301,247597,1287702,73477,8471,643428,0
601,1,706937,247750,1339475,73880,10031,669379,0
602,1,731317,252442,1495817,76965,10030,747440,0
602,1,712292,249514,1410860,74826,11227,704389,0
603,1,708773,247645,1512121,73620,8744,755528,0
603,1,728300,252198,1380605,77305,11182,689762,0
604,1,709655,248396,1279444,73853,7846,639190,0
604,1,704963,247444,1286813,73975,9590,642981,0
605,1,708294,247622,1286998,73599,8113,642978,0
605,1,706475,248561,1249579,74517,8899,624042,0
606,1,726650,252286,1286480,76919,9418,642804,0
606,1,704619,247064,1300014,73669,9817,649587,0
607,1,710194,248303,1373866,73796,9242,686280,0
607,1,708872,249166,1455048,74603,11572,726597,0
608,1,706532,247696,1249590,73650,8717,624105,0
608,1,704133,247487,1718466,73766,10657,858832,0
609,1,710646,249483,1296420,74464,8482,647339,0
609,1,703016,247532,1457182,73746,10293,728013,0
610,1,727032,252533,1293638,77012,8926,646183,0
610,1,711783,247450,1494285,73783,9086,746568,0
611,1,709876,248536,1365069,73918,9222,682018,0
611,1,712639,247461,1465436,73742,10235,732153,0
612,1,706170,247486,1358998,73516,8229,679023,0
612,1,713954,247703,1395793,73877,9702,697485,0
613,1,728314,252505,1393559,76927,9514,696397,0
613,1,715245,248756,1463286,74164,9918,731011,0
614,1,707204,247953,1365652,73721,8603,682202,0
614,1,731893,252173,1510312,77081,10941,754817,0
615,1,709551,248895,1392894,73987,8185,695933,0
615,1,710895,246852,1446760,73462,10027,722970,0
616,1,702449,246857,1293502,73361,8325,646242,0
616,1,711103,247465,1524764,73764,9713,761861,0
617,1,708084,248300,1325450,73790,8454,662205,0
617,1,709330,246773,1462282,73420,9932,730648,0
618,1,727699,252451,1352099,76973,8799,675525,0
618,1,715131,249437,1369394,74627,9878,683720,0
619,1,705584,247952,1384833,73715,8381,691868,0
619,1,710714,248111,1338592,73957,9263,668768,0
620,1,708993,249197,1447175,74295,9038,722746,0
620,1,709063,247299,1360662,73649,9868,679915,0
621,1,706867,249012,1402587,74051,8208,700829,0
621,1,711706,247874,1450605,73857,10234,724666,0
622,1,704188,248023,1392502,73692,8548,695738,0
622,1,713681,248077,1460855,73861,9610,729757,0
623,1,711061,250033,1502722,74631,9267,750040,0
623,1,712743,247810,1566659,73848,9631,782827,0
624,1,709561,248599,1380234,73884,8655,689641,0
624,1,710987,247561,1353610,73720,9156,676277,0
625,1,709730,248785,1394054,74005,8851,696463,0
625,1,709717,247360,1447884,73666,9258,723427,0
626,1,712713,250404,1453564,74759,9320,725933,0
626,1,711738,248017,1439080,73928,9566,718951,0
627,1,727661,252846,1398750,77137,9447,698786,0
627,1,713624,249046,1325612,74445,8975,661958,0
628,1,707376,248000,1292487,73718,9276,645663,0
628,1,708972,247594,1460019,73816,9587,729603,0
629,1,705834,247802,1243034,73673,8478,621081,0
629,1,715520,249595,1479850,74683,9433,738977,0
630,1,706670,248504,1318563,73904,8538,658491,0
630,1,707959,247900,1445199,73814,9985,722106,0
631,1,709905,249349,1412958,74346,8665,705698,0
631,1,717100,249321,1370036,74580,9812,684046,0
632,1,705328,247836,1462878,73634,8453,730777,0
632,1,735191,252451,1620356,77143,11203,809690,0
633,1,706419,247767,1290750,73655,8684,644864,0
633,1,712756,247726,1459561,73751,9853,729202,0
634,1,707894,248114,1398631,73677,8253,698701,0
634,1,711739,247331,1410673,73683,9549,704817,0
635,1,726727,252660,1379632,77026,9039,689315,0
635,1,714274,248798,1344259,74341,9563,671142,0
636,1,705832,247950,1392213,73695,9028,695356,0
636,1,712043,247476,1372614,73743,9259,685855,0
637,1,706539,248459,1372911,73811,8455,685899,0
637,1,730293,252077,1469124,77034,10284,734252,0
638,1,703722,247925,1364996,73674,8079,682029,0
638,1,712998,247575,1539574,73731,9735,769395,0
639,1,710735,249932,1402962,74541,8475,700531,0
639,1,714209,248738,1539642,74127,9472,769293,0
640,1,725220,252412,1359939,76963,8831,679477,0
640,1,713236,248800,1362333,74286,9020,680201,0
641,1,703909,248134,1433276,73799,8916,716071,0
641,1,710260,247671,1481795,73759,9704,740378,0
642,1,704157,248325,1283900,73809,9031,641513,0
642,1,708909,247731,1462264,73814,9196,730556,0
643,1,706599,249640,1389889,74515,9357,694112,0
643,1,715335,249876,1348808,74809,9238,673320,0
644,1,712224,248190,1394059,73795,9287,696535,0
644,1,728645,251879,1523225,76960,10922,761127,0
645,1,709389,247490,1373999,73490,9162,686574,0
645,1,709301,248019,1452585,73950,10161,725674,0
646,1,713654,249202,1400481,74288,9380,699548,0
646,1,706901,247132,1417447,73613,10898,708215,0
647,1,706620,247473,1286317,73528,8968,642601,0
647,1,711792,248864,1820231,74212,11950,908947,0
648,1,710744,248266,1307556,73840,8870,653081,0
648,1,728454,251878,1613959,76906,11295,806520,0
649,1,712358,249624,1389001,74475,9350,693660,0
649,1,707519,247532,1515649,73698,9905,756763,0
650,1,706034,247559,1370837,73554,8010,685029,0
650,1,710088,248291,1470906,73989,10058,734890,0
651,1,707175,247450,1303374,73513,8344,651175,0
651,1,706122,247320,1245647,73657,8617,622383,0
652,1,709774,248453,1361251,73881,8527,680066,0
652,1,711197,249620,1490298,74720,11245,743803,0
653,1,708445,248349,1282327,73771,8329,640687,0
653,1,710284,247840,1585216,73868,10283,791606,0
654,1,728775,252117,1458678,76864,9515,728808,0
654,1,708696,247659,1364030,73767,8146,681505,0
655,1,709575,249364,1379815,74355,8571,689188,0
655,1,714468,248809,1296671,74346,8464,647517,0
656,1,706945,247247,1343299,73387,8350,671188,0
656,1,710015,247430,1284915,73645,8631,642071,0
657,1,728709,252505,1337351,77018,8611,668094,0
657,1,711229,248256,1338241,74042,8693,668526,0
658,1,707912,248231,1441879,73804,8944,720410,0
658,1,709019,247414,1415318,73714,8603,707179,0
659,1,709070,248204,1305492,73756,7666,652129,0
659,1,731379,252162,1356289,77104,10351,677558,0
660,1,705593,247378,1363458,73499,8275,681336,0
660,1,709911,247775,1280435,73885,9050,639571,0
661,1,707829,248831,1369018,74017,8105,683803,0
661,1,709244,247760,1393102,73790,9162,695919,0
662,1,710585,249024,1400936,74297,9552,699524,0
662,1,711634,247240,1259097,73631,8441,628990,0
663,1,728260,252416,1339137,76983,9811,669259,0
663,1,708550,246970,1339953,73548,8899,669412,0
664,1,706375,248324,1346574,73841,8617,672776,0
664,1,731483,252417,1367566,77169,9683,683240,0
665,1,706437,247989,1359243,73703,7961,679136,0
665,1,711093,248226,1364386,74188,8224,681452,0
666,1,706661,248526,1378657,73906,8106,688778,0
666,1,709094,247763,1529271,73858,9856,763941,0
667,1,702110,247116,1245227,73366,8350,622137,0
667,1,710885,248429,1324607,73947,8216,661758,0
668,1,712040,248613,1296433,73881,9036,647774,0
668,1,708365,247834,1354331,73871,8776,676621,0
669,1,707707,247839,1253678,73711,8431,626323,0
669,1,706859,247276,1374263,73658,9303,686631,0
670,1,713271,250276,1332242,74717,8814,665288,0
670,1,713491,248776,1328925,74433,9072,663622,0
671,1,728821,252748,1286689,77120,9008,642856,0
671,1,731838,252580,1392410,77169,9033,695721,0
672,1,705369,247634,1305283,73577,8620,652112,0
672,1,709141,247936,1340745,73878,8574,669864,0
673,1,705684,248211,1238797,73828,8121,618808,0
673,1,709625,248014,1415687,73947,8723,707333,0
674,1,708842,248218,1286179,73822,8429,642410,0
674,1,708886,247934,1375221,73852,7908,687131,0
675,1,709662,249493,1538831,74529,8736,768467,0
675,1,707721,247848,1413512,73851,9029,706230,0
676,1,707577,248884,1403150,74194,9150,700865,0
676,1,710353,249198,1373491,74539,9128,685939,0
677,1,703607,247795,1288138,73724,8128,643533,0
677,1,715372,249812,1621453,74883,10761,809424,0
678,1,708457,249052,1414885,74136,9232,706911,0
678,1,729782,252256,1458029,77217,9983,728485,0
679,1,707866,247818,1370045,73685,7966,684535,0
679,1,706948,247123,1328288,73646,8269,663683,0
680,1,710953,249528,1461458,74605,8711,729851,0
680,1,709007,248247,1377418,74105,8836,688168,0
681,1,705390,247820,1407734,73691,8891,703401,0
681,1,711522,248647,1321126,74077,9216,659975,0
682,1,703414,247447,1403454,73604,8719,701119,0
682,1,710955,249008,1299240,74426,9023,648594,0
683,1,705016,247808,1374296,73708,9160,686692,0
683,1,704283,246853,1285203,73500,9505,641992,0
684,1,708359,249781,1408891,74627,9067,703756,0
684,1,704328,247074,1230867,73596,9357,614945,0
685,1,726615,252589,1347686,77082,9500,673484,0
685,1,710820,248006,1329497,73880,9125,664189,0
686,1,705189,247661,1402922,73703,8546,700958,0
686,1,707156,247401,1337666,73753,7902,668308,0
687,1,707851,249218,1483678,74298,9192,741224,0
687,1,706350,247097,1366910,73574,7863,682938,0
688,1,702241,247440,1440620,73574,8988,719844,0
688,1,708569,247980,1377281,73909,8672,688113,0
689,1,705206,247874,1462600,73754,9386,730814,0
689,1,710384,248626,1341785,74205,8594,670395,0
690,1,704008,247900,1390643,73735,9652,694872,0
690,1,730296,251933,1435928,77165,10369,717524,0
691,1,703458,248068,1394218,73826,10506,696596,0
691,1,707570,247603,1400514,73952,8965,699766,0
692,1,701331,247680,1375174,73654,9638,687217,0
692,1,708470,248360,1372553,74373,9009,685594,0
693,1,709255,248200,1313807,73896,8375,656401,0
693,1,704181,246986,1539037,73718,10470,768970,0
694,1,707707,247602,1582298,73743,10461,790799,0
694,1,704508,246756,1395358,73635,9862,697120,0
695,1,707434,247450,1390788,73601,8633,695005,0
695,1,727839,252502,1434599,77360,10328,716649,0
696,1,707561,247999,1612435,73834,10448,805869,0
696,1,709185,247178,1394707,73686,9235,696901,0
697,1,705341,247362,1432745,73561,8836,715935,0
697,1,731279,251675,1474171,77059,10285,736611,0
698,1,708548,248575,1288947,73957,8171,643984,0
698,1,709174,247041,1328899,73756,8528,663949,0
699,1,707286,247864,1487039,73771,8876,743266,0
699,1,710329,247434,1362270,73812,8642,680719,0
700,1,707289,248170,1291912,73822,8137,645542,0
700,1,710879,247827,1371350,73999,9923,684845,0
701,1,709966,249199,1369420,74455,8213,684052,0
701,1,713083,248313,1326895,74144,9207,662855,0
702,1,706054,247819,1355300,73673,8788,677183,0
702,1,710154,247463,1379134,73828,9552,689270,0
703,1,706456,248125,1276967,73860,8049,638052,0
703,1,708632,247203,1297414,73772,8963,648165,0
704,1,709317,249302,1385785,74394,8568,692082,0
704,1,711636,248730,1273210,74433,9166,635778,0
705,1,705687,248133,1314389,73857,8269,656676,0
705,1,708804,247521,1317650,73891,9048,658178,0
706,1,703041,247294,1381115,73498,8552,690212,0
706,1,706435,246957,1264997,73655,8385,631982,0
707,1,702853,247560,1400347,73690,8377,699661,0
707,1,707407,247539,1288600,73890,8802,643694,0
708,1,702837,247543,1382885,73642,8051,691183,0
708,1,709879,247299,1413444,73811,8730,706191,0
709,1,714364,250121,1507043,74767,9747,752586,0
709,1,709627,247506,1332854,73831,8521,665885,0
710,1,705714,247297,1375244,73540,8447,687173,0
710,1,712267,249288,1310931,74726,8514,654697,0
711,1,707443,248970,1367330,74292,8719,683180,0
711,1,725922,251399,1423107,76915,9688,711092,0
712,1,707205,248139,1299888,73875,8333,649419,0
712,1,711639,248199,1456399,74076,9053,727801,0
713,1,705687,247706,1377072,73674,8717,688020,0
713,1,709281,247711,1487776,73996,9615,743217,0
714,1,705617,248142,1362785,73856,8260,680901,0
714,1,706669,247095,1330518,73701,8963,664804,0
715,1,703689,247341,1272050,73557,7483,635536,0
715,1,727635,252091,1442366,77170,9829,720668,0
716,1,723672,251954,1329108,76910,9365,664142,0
716,1,711785,247719,1644579,73974,11293,821544,0
717,1,705349,248196,1479192,73883,10338,739085,0
717,1,710797,247484,1319523,73938,9227,659257,0
718,1,705938,247754,1283874,73721,8295,641479,0
718,1,728919,251485,1472997,76932,10501,735935,0
719,1,703019,246931,1211065,73480,7654,604992,0
719,1,709559,247532,1358085,73918,8779,678495,0
720,1,701093,246830,1288358,73337,8201,643769,0
720,1,708834,247315,1307198,73806,8242,652768,0
721,1,723458,252252,1337533,76987,9318,668320,0
721,1,708181,247784,1331727,73980,9298,665179,0
722,1,708849,249035,1414561,74302,9633,706442,0
722,1,707046,247283,1314757,73793,9334,656728,0
723,1,708404,248446,1422009,73988,9270,710569,0
723,1,707763,247567,1340815,73947,8078,669741,0
724,1,708310,248315,1406177,73904,8485,702583,0
724,1,709900,247931,1419847,73943,9028,709210,0
725,1,703590,247582,1473012,73638,10832,735895,0
725,1,707022,247514,1418044,73884,9263,708248,0
726,1,702687,247598,1384962,73654,8755,692114,0
726,1,706387,247174,1375728,73714,9085,687334,0
727,1,704700,247288,1282363,73536,8401,640719,0
727,1,705747,247365,1415826,73830,8508,707391,0
728,1,703687,247705,1364960,73611,8862,682011,0
728,1,712357,249625,1495097,74876,10754,746152,0
729,1,704774,248115,1266616,73842,8523,632733,0
729,1,708784,247381,1346337,73823,8330,672541,0
730,1,704936,248200,1306684,73872,8487,652854,0
730,1,707676,247181,1287857,73756,8042,643479,0
731,1,699951,246861,1440075,73380,9643,719336,0
731,1,710185,248083,1411032,74109,8678,705010,0
732,1,728425,252363,1388756,76966,9963,693663,0
732,1,707981,246973,1378594,73640,8895,688943,0
733,1,706467,247912,1367711,73782,8916,683290,0
733,1,708041,247552,1319742,73876,8507,659428,0
734,1,705941,248165,1400181,73839,8963,700270,0
734,1,711296,249154,1311252,74688,8840,654658,0
735,1,704240,247513,1286048,73671,8249,642516,0
735,1,705164,247336,1425507,73852,9307,712116,0
736,1,707780,249134,1378980,74347,9407,688882,0
736,1,706325,247076,1305213,73756,8786,652077,0
737,1,723670,252254,1316386,76970,9817,657656,0
737,1,709348,248079,1403832,74030,9241,701310,0
738,1,703161,248149,1313849,73880,9534,656336,0
738,1,711146,248901,1322960,74522,8687,660696,0
739,1,706604,248377,1243116,73927,8345,621206,0
739,1,706154,247287,1368169,73854,8826,683529,0
740,1,702943,247938,1354118,73790,8726,676662,0
740,1,705162,246953,1357947,73708,8085,678685,0
741,1,707181,249461,1431739,74511,9117,714549,0
741,1,706829,247858,1293325,74022,8575,646150,0
742,1,705794,247634,1306707,73681,7685,652820,0
742,1,706231,248071,1523167,74090,10719,761067,0
743,1,714078,248078,1261557,73820,8241,630375,0
743,1,712253,248112,1396106,74096,9022,697515,0
744,1,713795,247798,1500169,73706,9379,749704,0
744,1,711216,247688,1236470,74020,8944,617622,0
745,1,713265,248316,1494830,73947,10094,746828,0
745,1,710428,247483,1325333,73856,9386,661978,0
746,1,710818,247543,1320060,73656,8947,659484,0
746,1,714194,249373,1243908,74757,8701,620878,0
747,1,709658,247650,1385628,73707,9186,692115,0
747,1,729919,251976,1358594,77180,10007,678854,0
748,1,717220,249773,1440731,74644,10178,719651,0
748,1,706208,246967,1369782,73701,8825,684083,0
749,1,731670,251895,1322971,76872,9911,661048,0
749,1,706987,247209,1433364,73756,8893,715935,0
750,1,709960,247380,1396746,73623,9126,697903,0
750,1,707204,247279,1422723,73779,9471,710814,0
751,1,712141,248718,1499064,74157,10079,748777,0
751,1,705591,247103,1435567,73715,9206,717033,0
752,1,711975,248094,1415695,73819,9589,707432,0
752,1,710311,247784,1322808,73902,9100,660967,0
753,1,729268,252427,1400883,77041,10155,700096,0
753,1,713620,249130,1317434,74623,8477,657911,0
754,1,711296,247393,1384259,73568,8487,691792,0
754,1,709307,247839,1375367,74030,9503,687160,0
755,1,714036,248833,1352175,74247,9665,675397,0
755,1,706856,247041,1479392,73677,10203,739275,0
756,1,710181,247671,1263731,73711,8952,631289,0
756,1,710629,248929,1514172,74636,10542,755700,0
757,1,710147,247649,1379510,73659,8891,689278,0
757,1,705682,247108,1408553,73784,9662,703796,0
758,1,707449,247260,1323171,73523,9654,661098,0
758,1,707961,247745,1386197,73944,8845,692613,0
759,1,715085,248936,1342650,74221,10169,670510,0
759,1,705955,247245,1374555,73771,9092,686796,0
760,1,710670,247746,1234321,73742,9000,616729,0
760,1,704486,246913,1311760,73682,8917,655268,0
761,1,709879,247760,1355885,73695,9784,677604,0
761,1,707553,248403,1300081,74134,8424,649408,0
762,1,729680,252072,1373256,76874,9964,685989,0
762,1,707132,247993,1373267,74087,9422,686120,0
763,1,710149,248118,1411561,73855,9307,705327,0
763,1,707690,248576,1350459,74437,9267,674435,0
764,1,707775,247303,1429258,73545,9569,714206,0
764,1,731661,257028,1426294,76775,10183,712591,0
765,1,709778,248363,1312948,73925,9042,656022,0
765,1,706503,246986,1391471,73712,9155,695235,0
766,1,711496,249135,1437371,74357,9353,717377,0
766,1,707726,246956,1483726,73604,9700,741436,0
767,1,708003,247993,1338411,73826,9207,668482,0
767,1,715798,250254,1390626,74990,9408,694468,0
768,1,707078,247509,1487882,73622,10045,743546,0
768,1,707689,247700,1348144,73952,8429,673550,0
769,1,714512,248317,1406049,73882,9093,702572,0
769,1,710268,248088,1513741,74101,9284,756447,0
770,1,711898,247538,1378458,73662,8801,687935,0
770,1,705335,246916,1352360,73670,8445,675678,0
771,1,709417,247202,1246945,73514,8480,622984,0
771,1,707843,248178,1384592,74138,8693,691633,0
772,1,708534,247335,1294001,73627,8615,646441,0
772,1,705147,246964,1358607,73723,8209,678788,0
773,1,710191,248284,1363251,73921,7728,681103,0
773,1,705614,247720,1513690,73834,9215,756346,0
774,1,710897,248332,1438254,73893,8829,718713,0
774,1,711337,249846,1317902,74938,8077,658128,0
775,1,711418,248742,1411952,74235,8578,705356,0
775,1,724550,251859,1425114,77100,9087,711970,0
776,1,710946,248606,1406933,74014,8919,702940,0
776,1,708421,247070,1297316,73695,9467,648160,0
777,1,706243,247021,1475727,73485,8698,737359,0
777,1,704537,246708,1467877,73583,9604,733474,0
778,1,715256,250432,1497921,74864,9579,747526,0
778,1,729509,252836,1456634,77423,10908,727732,0
779,1,711751,248487,1383385,73945,9472,691398,0
779,1,705451,247593,1280819,73841,9237,639954,0
780,1,708512,247029,1404370,73442,9095,701664,0
780,1,704708,247297,1247631,73749,9369,623332,0
781,1,708034,247532,1371816,73625,8931,685659,0
781,1,707108,248624,1313092,74224,8903,655820,0
782,1,713078,249055,1487223,74323,9870,742259,0
782,1,706328,248413,1264608,74382,9252,631360,0
783,1,730477,252493,1421394,77053,10613,710027,0
783,1,705581,247146,1373998,73743,9975,686368,0
784,1,712979,250304,1454822,74700,9553,726882,0
784,1,710487,249789,1412382,74912,11746,705247,0
785,1,707348,247087,1558806,73431,9295,778857,0
785,1,724228,251905,1437624,77159,10635,718421,0
786,1,709104,248056,1580057,73830,9484,789269,0
786,1,706369,247732,1361206,73990,9371,680020,0
787,1,707477,247455,1407448,73591,8966,703263,0
787,1,706051,248316,1284939,74313,9223,641728,0
788,1,706935,247464,1400728,73594,9026,699910,0
788,1,700923,246679,1373524,73643,9174,686187,0
789,1,706903,248094,1515443,73778,9848,757679,0
789,1,733682,252403,1578474,77214,10359,788626,0
790,1,712942,247382,1588814,73602,9841,794045,0
790,1,709093,247079,1389168,73736,9228,694135,0
791,1,717319,249884,1618096,74566,10390,808354,0
791,1,713387,249303,1295012,74728,9053,646542,0
792,1,711942,247967,1399465,73796,8966,699280,0
792,1,731275,251844,1447425,77122,10301,723126,0
793,1,709185,247207,1484446,73506,9116,741410,0
793,1,710878,247788,1526293,73953,9773,762725,0
794,1,712201,248661,1367667,74012,9204,683071,0
794,1,712364,248470,1329621,74387,8773,664104,0
795,1,710805,247947,1422463,73801,8208,710482,0
795,1,708896,247396,1443592,73891,8718,721230,0
796,1,708129,246942,1419429,73366,9178,708991,0
796,1,710829,247683,1290214,73940,8304,644569,0
797,1,709191,247720,1387196,73682,8683,693127,0
797,1,730251,252001,1431707,77116,9817,715349,0
798,1,713698,249790,1496022,74628,9268,747209,0
798,1,706992,247622,1282175,73926,8157,640569,0
799,1,728888,252086,1426516,76944,9689,712366,0
799,1,712437,247828,1396184,74012,10009,697588,0
800,1,709858,247593,1369457,73541,9176,684002,0
800,1,715013,248912,1408612,74490,10102,703270,0
801,1,705656,247246,1426475,73479,8377,712792,0
801,1,710980,247640,1464441,73937,9777,731916,0
802,1,709125,248196,1616233,73820,10214,807639,0
802,1,711229,248153,1411710,74092,9950,705370,0
803,1,713845,248887,1395168,74238,9394,696952,0
803,1,710214,247690,1499470,73900,10374,749151,0
804,1,709025,247435,1267237,73495,8089,633211,0
804,1,730199,251682,1568290,77051,10803,783105,0
805,1,708664,247528,1389418,73479,8785,694251,0
805,1,708742,247352,1442966,73861,9409,721262,0
806,1,731583,252479,1356326,76930,9713,677674,0
806,1,708973,247740,1433440,73921,9531,716245,0
807,1,709245,247946,1402946,73661,9389,700952,0
807,1,708203,247206,1493579,73720,9658,745612,0
808,1,703054,246395,1350702,73170,8468,674670,0
808,1,710761,247909,1634919,74037,11332,815169,0
809,1,704981,247228,1397782,73413,9183,698468,0
809,1,709213,247659,1473821,73890,9896,736507,0
810,1,705645,247330,1424687,73379,8695,711842,0
810,1,709587,248023,1451979,74006,9255,725196,0
811,1,704980,247557,1517549,73500,9746,758259,0
811,1,708350,247599,1455463,73961,9628,727214,0
812,1,730905,252047,1341802,76750,10178,670428,0
812,1,711734,249055,1457864,74556,9826,728128,0
813,1,708661,247386,1343839,73375,9140,671370,0
813,1,707651,247752,1466987,73981,9780,733031,0
814,1,709869,247702,1395883,73511,9127,697501,0
814,1,744483,258842,1880716,77555,13010,938872,0
815,1,711608,248864,1320217,73902,8527,659536,0
815,1,732439,252271,1530619,77247,10856,764843,0
816,1,712443,249162,1390405,74179,9186,694810,0
816,1,710171,247157,1387473,73737,9799,693057,0
817,1,708627,247765,1284116,73558,8574,641478,0
817,1,712013,248988,1467624,74535,8865,733119,0
818,1,708980,247572,1363665,73486,8741,681287,0
818,1,710430,247602,1452903,73912,9532,725763,0
819,1,710263,248322,1370704,73750,9717,684634,0
819,1,710330,247654,1417547,73897,9075,708459,0
820,1,708340,247975,1328963,73529,8910,663879,0
820,1,708360,247400,1256643,73892,8256,627514,0
821,1,727782,252115,1296457,76792,9860,647820,0
821,1,707696,247082,1360382,73708,9488,679780,0
822,1,710181,247622,1318273,73476,9421,658668,0
822,1,712948,249583,1334723,74738,9213,666700,0
823,1,710537,248358,1252843,73789,8262,625908,0
823,1,710660,248263,1420824,74158,9558,709868,0
824,1,706592,247419,1385792,73422,9030,692404,0
824,1,714473,250214,1315119,75096,8155,656556,0
825,1,708669,248508,1423749,73802,8959,711421,0
825,1,729004,252526,1423615,77339,9485,711368,0
826,1,730372,252956,1514147,76986,9944,756689,0
826,1,707456,248347,1499564,74169,8616,749299,0
827,1,709638,248762,1435461,73778,9005,717615,0
827,1,712125,248828,1329472,74510,9220,664001,0
828,1,710741,249515,1398615,74203,9040,698457,0
828,1,709140,247540,1392194,73897,8674,695543,0
829,1,711459,248092,1339103,73583,8896,669068,0
829,1,705218,247178,1433320,73768,8910,716050,0
830,1,710134,247886,1369115,73484,8437,684127,0
830,1,704871,247274,1398468,73813,9082,698776,0
831,1,710304,248048,1290107,73518,8421,644583,0
831,1,730672,252989,1421979,77494,9619,710474,0
832,1,714633,250290,1395823,74538,9532,697008,0
832,1,705901,247403,1351356,73905,8915,675142,0
833,1,730388,253213,1368169,77000,9559,683637,0
833,1,708845,248519,1400558,74258,8962,699686,0
834,1,709752,248169,1473664,73617,8719,736216,0
834,1,711094,249264,1297344,74641,7793,647870,0
835,1,708572,248290,1406321,73654,9588,702576,0
835,1,705262,247518,1394913,73887,8349,696951,0
836,1,715900,250881,1415816,74718,9233,707231,0
836,1,704375,247352,1380618,73771,9210,689768,0
837,1,729548,252890,1398357,76926,9772,698678,0
837,1,708492,246955,1285774,73687,8683,642440,0
838,1,715844,250687,1504515,74576,9839,751348,0
838,1,714092,249190,1301605,74620,8495,649840,0
839,1,709185,248610,1541866,73798,11021,770054,0
839,1,708523,247427,1426917,73811,9178,713012,0
840,1,711243,250643,1415642,74675,9281,707053,0
840,1,709777,247510,1380047,73924,9714,689474,0
841,1,730130,252251,1392844,76744,9881,696021,0
841,1,709765,247986,1375664,74313,9592,686441,0
842,1,712125,247625,1317980,73487,8625,658483,0
842,1,713196,248528,1430873,74243,9646,714560,0
843,1,712285,247675,1408608,73439,9594,703995,0
843,1,713729,249169,1407851,74602,9390,703008,0
844,1,711546,247771,1263915,73531,8806,631526,0
844,1,710034,247781,1451326,73928,8812,725201,0
845,1,711887,247944,1393862,73572,9589,696212,0
845,1,707756,247484,1403339,73907,9241,700787,0
846,1,710658,247778,1260183,73512,8547,629592,0
846,1,705127,246979,1526662,73627,9029,762689,0
847,1,708402,247660,1265292,73592,8413,632260,0
847,1,729157,252142,1697646,77225,10606,848730,0
848,1,706351,247306,1311443,73446,8816,655263,0
848,1,706475,247122,1411618,73739,10029,705178,0
849,1,710939,247870,1306073,73657,8697,652591,0
849,1,707961,248432,1365096,74315,9165,681687,0
850,1,713898,249120,1408718,74188,8868,703756,0
850,1,709766,247733,1392727,73983,9624,695619,0
851,1,708626,247501,1335454,73488,8441,667236,0
851,1,709144,247771,1461320,73950,9632,729966,0
852,1,707620,247044,1339247,73299,8435,669107,0
852,1,708593,247839,1555568,74010,9270,776655,0
853,1,709025,247739,1454489,73443,9576,726654,0
853,1,711326,249312,1422470,74664,8739,710807,0
854,1,731112,252428,1417871,76829,10125,708453,0
854,1,705627,247006,1414336,73759,9111,706346,0
855,1,709577,247942,1349959,73590,8807,674482,0
855,1,706852,248000,1383076,74013,9624,690668,0
856,1,708054,247645,1377306,73418,8848,688186,0
856,1,707072,247258,1486468,73796,9219,742497,0
857,1,708532,247856,1262024,73478,8642,630421,0
857,1,713803,249791,1418335,74875,9173,709048,0
858,1,711831,247620,1357274,73442,8689,678138,0
858,1,728473,251895,1546669,77163,10198,772834,0
859,1,712856,248597,1386653,73864,8809,692870,0
859,1,706756,247509,1401634,73924,8936,700315,0
860,1,728899,251953,1459580,76731,8419,729490,0
860,1,707674,247810,1460528,73970,9071,730012,0
861,1,707200,247382,1597514,73533,9752,798253,0
861,1,707007,247894,1326306,74077,9244,662576,0
862,1,711172,248568,1284205,73918,8183,641544,0
862,1,707284,248206,1414634,74248,10362,705370,0
863,1,707143,247180,1445783,73432,9091,722372,0
863,1,706580,247228,1445572,73821,10140,721846,0
864,1,708894,248165,1412769,73845,9017,705545,0
864,1,704794,247049,1354297,73762,8994,676634,0
865,1,732920,253171,1397311,77254,10142,698329,0
865,1,710896,247952,1402177,73999,9648,700709,0
866,1,709767,248520,1552584,73841,9152,776242,0
866,1,714631,249759,1441689,74796,9355,720092,0
867,1,710188,249092,1440565,74263,9518,719756,0
867,1,708997,247886,1529246,74052,9674,763670,0
868,1,707615,248081,1412080,73733,8702,705508,0
868,1,706872,247182,1606788,73765,9813,802679,0
869,1,726168,252076,1416284,76821,10329,707427,0
869,1,708092,247353,1473731,73809,9306,736536,0
870,1,712518,248632,1382883,73794,10033,690950,0
870,1,708427,247928,1465900,74023,9667,731835,0
871,1,713699,249356,1484354,74228,10829,741056,0
871,1,713168,249002,1280065,74461,9200,638416,0
872,1,708138,247719,1298916,73674,9189,648665,0
872,1,708827,247773,1436491,73948,9808,717585,0
873,1,710127,248560,1421850,74053,9956,710080,0
873,1,706845,247385,1535094,73848,9948,766589,0
874,1,706271,246840,1470731,73292,9307,734958,0
874,1,704664,246804,1551253,73601,9579,775059,0
875,1,711790,249932,1433619,74583,9738,715654,0
875,1,713064,250457,1630202,75119,10566,814107,0
876,1,726185,251979,1377313,76804,9778,688124,0
876,1,704506,246937,1415241,73777,9118,706961,0
877,1,707576,247601,1341879,73598,8834,670331,0
877,1,703477,247263,1464804,73827,9824,731819,0
878,1,709976,248966,1421184,74200,9544,709840,0
878,1,708645,247661,1500941,73903,10354,750215,0
879,1,702436,246677,1301560,73269,8944,650265,0
879,1,705914,247665,1427501,73933,9777,713103,0
880,1,703183,247199,1359342,73445,9381,679162,0
880,1,706223,247189,1359441,73771,10552,679115,0
881,1,706506,247021,1484666,73473,9680,741863,0
881,1,704876,247231,1366318,73841,10526,682606,0
882,1,727266,251779,1379947,76715,9936,689568,0
882,1,704827,247183,1380820,73780,9717,689917,0
883,1,707345,248047,1274445,73721,8986,636597,0
883,1,727492,252030,1501256,77144,10635,750185,0
884,1,755446,261388,1505046,79581,9675,751921,0
884,1,704977,247217,1403908,73821,8967,701229,0
885,1,703979,247051,1405595,73323,9057,702334,0
885,1,703457,246997,1567631,73675,9258,782939,0
886,1,706468,247861,1337594,73621,8826,668269,0
886,1,707724,248314,1585701,74175,9449,791491,0
887,1,709203,249231,1421341,74218,9321,709958,0
887,1,707703,248837,1401533,74525,9605,699387,0
888,1,703505,247328,1372708,73417,8542,685877,0
888,1,703487,246444,1395761,73511,9528,697692,0
889,1,704777,247451,1309746,73492,8756,654483,0
889,1,706779,248148,1375544,74173,10133,687168,0
890,1,710076,250004,1399568,74543,9626,698894,0
890,1,709865,249717,1453083,74862,10338,724861,0
891,1,722676,251403,1375506,76579,10212,687235,0
891,1,723619,251808,1525979,77114,11181,761638,0
892,1,711043,247713,1314269,73584,9091,656534,0
892,1,701888,247284,1432058,73843,9904,715444,0
893,1,714387,249446,1390704,74281,10186,694595,0
893,1,713828,248549,1720357,74424,11401,859587,0
894,1,705210,246837,1323533,73244,8541,661106,0
894,1,729631,251627,1552521,77061,10952,775584,0
895,1,705106,247067,1297104,73428,8830,648127,0
895,1,708882,247180,1382519,73758,9951,691171,0
896,1,706094,247265,1425784,73429,9158,712346,0
896,1,710360,247528,1481745,73912,10749,740356,0
897,1,706726,247303,1461593,73387,9382,730367,0
897,1,709501,248071,1399935,74093,10215,699378,0
898,1,713858,250138,1470418,74662,10506,734397,0
898,1,706369,246602,1238654,73540,8654,618908,0
899,1,727030,252003,1419509,76821,10040,709239,0
899,1,709532,248089,1371265,74103,9412,685054,0
900,1,706759,247117,1391820,73374,9019,695420,0
900,1,710973,248972,1268428,74523,9441,633473,0
901,1,704231,246907,1368461,73352,8390,683805,0
901,1,706097,247414,1301158,73814,9079,650105,0
902,1,710905,249760,1443530,74446,9277,720840,0
902,1,712330,248650,1393438,74423,9118,695770,0
903,1,705171,247366,1377970,73513,8913,688570,0
903,1,709390,247655,1363168,73936,8887,681032,0
904,1,703248,246918,1454324,73314,8576,726527,0
904,1,707541,247381,1398535,73795,9272,698558,0
905,1,703046,247159,1502302,73435,9227,750486,0
905,1,725955,251718,1488160,77063,10062,743623,0
906,1,704021,246414,1326844,73110,8946,662983,0
906,1,708469,247288,1434038,73798,9833,716331,0
907,1,712915,249484,1461899,74395,9752,730153,0
907,1,707061,247784,1377258,73953,9703,688113,0
908,1,728437,251931,1385896,76794,9428,692556,0
908,1,704410,246982,1382054,73748,9596,690546,0
909,1,705737,247396,1432824,73435,9201,715779,0
909,1,708187,247779,1282268,74038,9362,640552,0
910,1,709869,249590,1542644,74400,9080,770164,0
910,1,708785,248851,1334106,74543,9698,666139,0
911,1,724127,251939,1377270,76756,8836,688179,0
911,1,723708,251831,1427340,76285,9503,713169,0
912,1,703826,246498,1254852,73145,9194,626808,0
912,1,702165,247431,1358642,73053,8629,678819,0
913,1,704433,246734,1298291,73221,9071,648510,0
913,1,728163,252024,1437101,76339,9275,718068,0
914,1,708960,248864,1331911,74105,9853,665045,0
914,1,705394,247304,1364229,73035,8526,681625,0
915,1,705989,247668,1260833,73583,8355,629797,0
915,1,701769,246487,1296045,72664,8073,647613,0
916,1,707481,248835,1415604,74185,9365,707036,0
916,1,705632,247689,1401622,73143,8367,700336,0
917,1,704048,247560,1433855,73516,8586,716243,0
917,1,707672,248894,1323726,73707,8605,660927,0
918,1,702603,247455,1384727,73462,8796,691866,0
918,1,702699,247225,1394086,72992,8634,696482,0
919,1,711861,248661,1437073,73998,9602,717394,0
919,1,705410,247441,1277330,73031,8689,638110,0
920,1,709458,248053,1371859,73720,8795,685461,0
920,1,704471,247049,1244486,72961,8490,621641,0
921,1,706099,247179,1355322,73391,8700,677001,0
921,1,724853,251846,1335857,76286,9205,667334,0
922,1,706137,247152,1443562,73420,9197,721229,0
922,1,703674,248006,1384176,73235,8276,691628,0
923,1,708587,248267,1326014,73695,8967,662408,0
923,1,710417,249355,1281624,73929,8379,640023,0
924,1,710293,249321,1418938,74373,9742,708473,0
924,1,706613,248145,1365160,73187,8228,682039,0
925,1,725764,251423,1419198,76560,9916,708932,0
925,1,704268,247219,1289677,72917,7865,644396,0
926,1,706803,248149,1381238,73742,9128,690093,0
926,1,709297,249531,1288691,73856,8581,643667,0
927,1,702662,246973,1372789,73379,8379,685755,0
927,1,703426,247347,1382431,73016,8449,690754,0
928,1,703610,247304,1402586,73369,9674,700654,0
928,1,704738,247391,1478308,72963,9043,738727,0
929,1,706878,247406,1491484,73364,8921,745421,0
929,1,709159,249827,1385567,74024,8640,691838,0
930,1,728158,252472,1410944,76866,9597,705059,0
930,1,707979,249389,1296887,73759,8661,647666,0
931,1,703326,247189,1331393,73333,7914,664948,0
931,1,708335,249786,1312213,74013,8869,655165,0
932,1,704664,247439,1361881,73364,8850,680261,0
932,1,701888,247584,1286834,73046,8800,642984,0
933,1,707747,248704,1557728,73973,9750,778134,0
933,1,707334,249795,1308224,73922,8501,653304,0
934,1,704632,247178,1370256,73400,9072,684643,0
934,1,707299,247460,1458216,72912,8949,728413,0
935,1,703444,246575,1313587,73139,8479,656202,0
935,1,725789,252109,1565245,76236,10274,782029,0
936,1,707609,249108,1321198,74280,8842,659570,0
936,1,707553,247846,1460507,73063,9168,729510,0
937,1,723369,251841,1328516,76722,9572,663702,0
937,1,705207,247210,1374761,72832,8656,686924,0
938,1,735953,258479,1382152,76993,10385,690430,0
938,1,707320,248500,1419602,73364,10540,708711,0
939,1,705002,247965,1303533,73669,9257,651143,0
939,1,703262,247232,1479278,72852,10025,739064,0
940,1,701285,246628,1259456,73218,8929,629260,0
940,1,701906,246539,1284930,72644,8293,641921,0
941,1,704069,247967,1338831,73656,9211,668878,0
941,1,704474,247303,1348770,72864,8366,673796,0
942,1,709833,249732,1476810,74467,9904,736974,0
942,1,703979,247475,1292079,72869,8145,645172,0
943,1,701539,246896,1399424,73265,9190,699257,0
943,1,704039,247506,1452785,72969,8351,725837,0
944,1,704882,249299,1406180,74250,8516,702214,0
944,1,703671,247576,1331084,72923,8310,664951,0
945,1,710485,247535,1349383,73489,9364,674174,0
945,1,706457,249377,1341679,73769,8937,669934,0
946,1,715907,249979,1466730,74559,9979,732702,0
946,1,706152,247610,1432056,72964,9206,715515,0
947,1,730876,252116,1530748,76805,10555,764933,0
947,1,705759,247767,1521842,73013,9362,759793,0
948,1,709129,247195,1517492,73374,10139,758341,0
948,1,701886,247262,1429243,72857,9541,713925,0
949,1,713859,249511,1418500,74319,9483,708648,0
949,1,706642,248385,1475065,73216,9528,737080,0
950,1,708259,247212,1372953,73445,9444,685956,0
950,1,703696,247402,1398101,72820,9551,698720,0
951,1,707180,247118,1301639,73347,8750,650521,0
951,1,703209,247637,1430155,73000,9697,714193,0
952,1,714882,249690,1432235,74474,9635,715187,0
952,1,702715,247529,1592003,72910,9514,795452,0
953,1,728109,251640,1431458,76667,9696,715206,0
953,1,724099,252090,1492541,76180,10706,745962,0
954,1,708575,247485,1387022,73544,7879,692921,0
954,1,700722,247204,1267048,72794,9310,633229,0
955,1,706269,247176,1517921,73437,9374,758469,0
955,1,704353,248915,1377387,73540,10217,687380,0
956,1,707764,247406,1360321,73419,8682,679663,0
956,1,707127,247513,1278866,72877,9022,638954,0
957,1,706972,247117,1272496,73258,8457,635776,0
957,1,707370,248501,1322875,73209,8681,660777,0
958,1,706839,247446,1383645,73448,8783,691094,0
958,1,708962,249157,1254852,73568,7659,626561,0
959,1,705280,246966,1296092,73236,8087,647576,0
959,1,726813,252625,1446611,76376,9409,722918,0
960,1,711062,249522,1416821,74368,8973,707416,0
960,1,703532,247540,1560808,72918,9209,779764,0
961,1,728255,252335,1430302,76812,9800,714701,0
961,1,731325,256894,1325766,75648,8340,662233,0
962,1,707873,246925,1378185,73157,8780,688842,0
962,1,706162,248652,1433185,73273,9719,716102,0
963,1,709041,247711,1311500,73519,9015,655167,0
963,1,702780,247421,1405594,72772,8926,701576,0
964,1,706610,247606,1248312,73504,8455,623620,0
964,1,702462,247665,1352732,72956,9235,675860,0
965,1,705164,247117,1294983,73286,8416,646999,0
965,1,703421,247881,1427937,72944,9366,713574,0
966,1,706035,247288,1249071,73404,8903,623885,0
966,1,702431,247533,1463354,72858,8845,731280,0
967,1,713056,249263,1322884,74201,9189,660686,0
967,1,705761,249288,1332804,73656,9125,665804,0
968,1,706546,247274,1346391,73354,8342,672711,0
968,1,702703,247402,1395537,72876,8723,697221,0
969,1,729091,252161,1442478,76863,9482,720658,0
969,1,702417,247391,1387881,72825,8930,693488,0
970,1,705091,247069,1285104,73387,8098,641728,0
970,1,702454,247769,1301282,72993,8956,650109,0
971,1,703308,246757,1398375,73173,8648,698699,0
971,1,702253,247675,1412089,72914,9199,705596,0
972,1,707945,248246,1286176,73749,8270,642571,0
972,1,722554,252434,1414047,76301,10072,706503,0
973,1,706488,246926,1306619,73205,8827,652805,0
973,1,706498,248557,1415562,73217,8688,706971,0
974,1,712413,248497,1437344,73752,9921,718134,0
974,1,723953,252725,1454630,76384,9811,726685,0
975,1,713880,249631,1488734,74375,9611,743534,0
975,1,700924,247773,1364137,73036,9225,681684,0
976,1,728987,251959,1438849,76694,10223,718918,0
976,1,703027,247651,1390224,72895,8161,694777,0
977,1,710400,248541,1410419,74027,9111,704478,0
977,1,701306,247420,1210399,72930,7860,604711,0
978,1,706689,247550,1429178,73545,8897,714170,0
978,1,700379,247147,1310806,72747,9133,654964,0
979,1,711632,248897,1425814,74284,8946,712059,0
979,1,707062,250157,1259908,73947,8531,629114,0
980,1,728464,251939,1498707,76782,9528,749075,0
980,1,703235,248051,1284632,73079,8084,641656,0
981,1,706050,247140,1450242,73382,8520,724586,0
981,1,700620,247562,1322221,72874,8210,660536,0
982,1,706620,247767,1313130,73612,8133,655951,0
982,1,697390,247311,1388307,72798,7937,693722,0
983,1,708494,248460,1412893,73981,9093,705740,0
983,1,712060,247534,1450450,73273,7696,724411,0
984,1,706774,247805,1388008,73530,8683,693524,0
984,1,734337,251916,1469348,76542,9457,734257,0
985,1,706235,247677,1391124,73427,8686,695096,0
985,1,710984,246925,1334433,73043,7511,667133,0
986,1,705665,247679,1280844,73328,8067,639747,0
986,1,711918,247540,1369051,73298,8096,684216,0
987,1,724953,251876,1445946,76601,9387,722460,0
987,1,711689,247457,1344828,73265,8366,671910,0
988,1,708819,247308,1357688,73336,8970,678351,0
988,1,712742,247661,1428158,73367,9144,713378,0
989,1,705536,247122,1274715,73268,8642,636862,0
989,1,716620,249587,1321470,74139,8615,660004,0
990,1,705973,247357,1257737,73328,8459,628321,0
990,1,711003,247298,1366516,73197,8945,682793,0
991,1,705774,247704,1294133,73447,8708,647006,0
991,1,711502,247608,1324990,73352,8173,662155,0
992,1,706190,248393,1358500,73910,8354,678470,0
992,1,711946,247814,1377138,73400,8294,688092,0
993,1,706822,247365,1474836,73384,8902,736804,0
993,1,709054,247352,1441901,73237,8269,720203,0
994,1,717282,252597,1427211,75069,8508,712709,0
994,1,717316,249570,1319373,74223,9132,658813,0
995,1,743423,260861,1328029,76963,8211,663483,0
995,1,711304,247753,1373293,73398,8716,686120,0
996,1,751865,263740,1448504,77721,8955,723750,0
996,1,709382,247037,1248612,73152,8595,623825,0
997,1,759565,266918,1466357,78730,9133,732660,0
997,1,712453,248595,1329937,73746,8532,664312,0
998,1,764847,265968,1381546,78452,9131,690316,0
998,1,712168,248714,1318824,73883,8263,658948,0
999,1,768148,267708,1457424,79305,10176,727388,0
999,1,710807,247456,1266632,73421,8207,632636,0
1000,1,784932,270896,1486980,81901,10723,743196,0
1000,1,710142,248085,1451033,73569,8744,725158,0
1001,1,762198,265603,1335386,78351,9136,667170,0
1001,1,707732,247379,1485713,73323,8776,742440,0
1002,1,762410,266040,1484419,78472,9549,741621,0
1002,1,707271,247537,1466055,73350,9527,732422,0
1003,1,765301,267090,1500937,78845,9785,749950,0
1003,1,717789,249479,1313804,74271,8944,656179,0
1004,1,761173,265744,1481232,78358,10272,739990,0
1004,1,712445,247776,1381970,73464,9259,690656,0
1005,1,760475,265748,1364736,78380,9063,681858,0
1005,1,713944,248955,1348991,73971,9302,673696,0
1006,1,767064,268800,1530872,79715,9670,764488,0
1006,1,711738,247414,1404017,73370,9362,701458,0
1007,1,761701,265741,1450607,78382,9662,724894,0
1007,1,716194,250175,1700376,74558,11097,849318,0
1008,1,763840,267191,1476441,79034,8828,737465,0
1008,1,709450,246865,1387984,73128,9259,693436,0
1009,1,760228,266032,1468368,78539,9694,733673,0
1009,1,709893,247660,1271610,73349,8633,635356,0
1010,1,761711,266078,1457114,78553,9622,727737,0
1010,1,710772,247802,1399534,73415,8934,699312,0
1011,1,760273,265934,1347046,78454,8614,673107,0
1011,1,713698,249379,1309265,74240,8707,653738,0
1012,1,758910,266105,1399755,78539,9171,699317,0
1012,1,730905,252740,1538319,76880,9417,768744,0
1013,1,756691,265653,1365279,78364,9133,682013,0
1013,1,709756,247387,1422364,73306,9090,710873,0
1014,1,761928,265837,1296547,78460,9104,647684,0
1014,1,712327,248154,1336862,73592,9038,668040,0
1015,1,758715,264930,1327199,78149,9361,663027,0
1015,1,711123,248004,1373351,73525,8510,686032,0
1016,1,759806,265761,1391569,78381,9405,695130,0
1016,1,716423,250526,1322146,74601,8921,660114,0
1017,1,758768,265605,1427478,78418,8595,713257,0
1017,1,731290,252253,1486445,76668,10048,742835,0
1018,1,760407,266449,1542950,78616,8981,770949,0
1018,1,709432,247485,1378008,73406,8805,688625,0
1019,1,759680,265882,1434548,78520,9265,716752,0
1019,1,708471,247237,1278478,73280,8640,638807,0
1020,1,765722,268333,1531876,79501,10046,765102,0
1020,1,709585,247881,1474578,73554,10680,736611,0
1021,1,779227,270300,1569333,81682,10487,784126,0
1021,1,708743,247955,1274034,73535,8691,636415,0
1022,1,757600,265573,1393334,78399,9193,696075,0
1022,1,729731,251878,1344440,76612,9674,671712,0
1023,1,770565,268720,1624680,79588,11041,811457,0
1023,1,710020,248379,1290608,73677,8499,644707,0
