0,0,755745,265701,1336554,78529,8030,667906,11
1,0,763379,268255,1501383,79642,9263,750060,11
2,0,757626,265608,1348969,78378,8104,674130,11
3,0,757867,265652,1439899,78519,8686,719558,11
4,0,754640,265507,1394886,78457,8825,696991,11
5,0,758447,266121,1425499,78655,8231,712312,11
6,0,780248,270133,1535883,81741,9517,767499,11
7,0,764572,268956,1483161,79967,9082,740750,11
8,0,756190,265000,1408733,78244,8463,703986,11
9,0,761430,266517,1433378,78796,8632,716340,11
10,0,756336,264786,1358847,78207,8392,678993,11
11,0,765778,267802,1437817,79354,9017,718315,11
12,0,756126,265675,1382450,78517,8902,690883,11
13,0,754232,265662,1358729,78523,8599,678931,11
14,0,776985,270578,1484132,81884,9747,741715,11
15,0,756405,265537,1384943,78490,8931,692008,11
16,0,758040,266441,1415621,78733,9098,707429,11
17,0,757244,266002,1378807,78643,8674,688982,11
18,0,757489,265418,1471379,78313,9096,735331,11
19,0,761200,267824,1461851,79463,8667,730274,11
20,0,756405,265553,1514813,78456,9111,757129,11
21,0,764012,267416,1466980,79276,8680,732830,11
22,0,763021,266193,1388349,78609,8548,693851,11
23,0,754883,265715,1479290,78555,9710,739274,11
24,0,755748,265495,1388230,78412,8788,693794,11
25,0,759340,266657,1538786,78798,8585,768980,11
26,0,763021,268031,1542819,79419,8824,770766,11
27,0,758354,265551,1468210,78382,9459,733750,11
28,0,758147,265893,1397998,78570,8431,698529,11
29,0,763494,267802,1472727,79437,9319,735894,11
30,0,759492,265835,1429904,78566,9003,714569,11
31,0,758208,264948,1375834,78200,8439,687449,11
32,0,740384,260171,1374290,76833,7982,686568,11
33,0,749267,260301,1389018,78782,9347,693927,11
34,0,704855,247229,1291150,73446,8848,645090,11
35,0,706375,247672,1312706,73626,8499,655780,11
36,0,710723,248736,1357849,74150,9218,678173,11
37,0,706811,247115,1245401,73378,8870,622254,11
38,0,700332,247322,1317608,73510,8960,658414,11
39,0,723146,252247,1401692,76883,9963,700517,11
40,0,708339,249778,1378547,74574,9385,688608,11
41,0,730318,256924,1417395,76352,8925,708326,11
42,0,702204,246672,1301993,73198,8121,650623,11
43,0,701996,247684,1428991,73625,8633,713917,11
44,0,707462,249269,1419080,74317,9112,708867,11
45,0,703936,247383,1342810,73492,9108,671041,11
46,0,725010,251617,1420817,76688,9675,710045,11
47,0,701582,246566,1315627,73148,8216,657427,11
48,0,709600,249427,1435935,74290,8815,717272,11
49,0,701976,246380,1337460,73137,8174,668366,11
50,0,704581,247859,1428507,73584,8365,713746,11
51,0,726170,251741,1404338,76695,9732,701824,11
52,0,711267,250116,1407382,74639,8944,703128,11
53,0,705608,247241,1329913,73382,8382,664536,11
54,0,702297,247291,1431727,73354,8472,715554,11
55,0,702553,246900,1399436,73354,8315,699318,11
56,0,703428,247143,1302128,73539,7869,650555,11
57,0,704698,247332,1313473,73396,8915,656379,11
58,0,705420,247128,1470958,73405,9546,734967,11
59,0,710521,248751,1431634,74080,9440,715248,11
60,0,703523,247185,1305386,73374,8223,652248,11
61,0,724760,251616,1357807,76667,8910,678567,11
62,0,704663,246971,1262059,73299,8678,630668,11
63,0,705957,247425,1304893,73515,8540,651888,11
63,0,704118,245945,1366304,72961,9476,682708,11
63,0,705695,246855,1300277,73261,8254,649598,11
63,0,703356,247646,1392434,73573,8446,695804,11
63,0,706389,247786,1339820,73568,8560,669511,11
63,0,708079,249137,1420146,74124,9414,709581,11
63,0,704480,247605,1337830,73579,8430,668460,11
63,0,726600,251927,1524855,76740,9350,762018,11
63,0,705920,247366,1324742,73373,8667,661965,11
63,0,706934,247210,1419987,73428,8727,709647,11
63,0,713162,249928,1470179,74675,9167,734510,11
63,0,707157,247554,1403139,73503,8873,701143,11
63,0,706271,246731,1301683,73177,8603,650596,11
63,0,706218,247781,1374452,73506,9172,686865,11
63,0,709503,249288,1414886,74224,9299,706963,11
63,0,704714,247562,1234901,73494,8614,617004,11
63,0,729233,252621,1466561,76939,10420,732920,11
63,0,702187,246475,1295973,73148,7856,647656,11
63,0,705566,246728,1343220,73309,8152,671266,11
63,0,706671,247778,1402983,73707,8771,701023,11
63,0,703306,246492,1311131,73172,8816,655218,11
63,0,704858,247114,1237625,73491,8260,618300,11
63,0,729052,252494,1423049,77044,9802,711015,11
63,0,707647,247501,1421266,73551,8053,710211,11
63,0,706161,246789,1334562,73316,8641,666967,11
63,0,710262,248528,1494301,73860,9525,746748,11
63,0,708491,247402,1327768,73572,8815,663462,11
63,0,707562,247127,1415754,73418,9097,707486,11
63,0,708483,247121,1288037,73506,8603,643606,11
63,0,702339,247417,1419785,73614,9553,709407,11
63,0,704597,248042,1387684,73773,9401,693485,11
63,0,701347,246929,1443044,73444,8917,720996,11
63,0,723999,251785,1493132,76792,9970,746282,11
63,0,706623,248585,1418275,74280,9175,708474,11
63,0,705343,247434,1320749,73615,8674,660106,11
63,0,704135,247279,1365974,73594,8860,682470,11
63,0,699971,246644,1303220,73346,8844,651179,11
63,0,708053,248763,1415079,74239,9673,706861,11
63,0,705483,247452,1380452,73586,9041,689767,11
63,0,723980,251760,1520857,76784,9860,760112,11
63,0,706251,248287,1471021,74098,8830,734839,11
63,0,705106,247069,1291020,73397,8509,645301,11
63,0,708544,248790,1351621,74175,9386,675247,11
63,0,700984,246563,1301171,73191,9362,650100,11
63,0,704316,247614,1222613,73630,8522,610858,11
63,0,723334,251644,1312197,76728,9511,655678,11
63,0,704001,247654,1328724,73661,9134,663942,11
63,0,703379,247001,1257222,73350,8718,628057,11
63,0,704789,247200,1368581,73495,8742,683941,11
63,0,707945,248635,1432888,74166,9273,716018,11
63,0,704539,247309,1297764,73555,8719,648305,11
63,0,704458,246735,1378436,73317,8838,688746,11
63,0,708066,247740,1431002,73679,9101,714965,11
63,0,709830,249222,1390328,74370,9317,694517,11
63,0,707668,247409,1369588,73579,9110,684501,11
63,0,727465,251488,1457919,76717,9855,728482,11
63,0,699636,246116,1278083,73108,8401,638539,11
63,0,701895,246904,1279599,73301,8221,639469,11
63,0,705959,248272,1447106,73851,8724,723167,11
63,0,712909,250286,1411112,74772,9281,704982,11
63,0,704876,247184,1312231,73521,8373,655803,11
63,0,705268,247111,1386162,73456,9030,692723,11
63,0,707216,247215,1296747,73459,8349,648122,11
63,0,702649,247380,1371032,73563,8157,685118,11
63,0,707603,248767,1423727,74248,8711,711309,11
63,0,710615,249459,1347414,74533,9039,673045,11
63,0,705712,247371,1335869,73569,8831,667333,11
63,0,711945,249041,1320636,74348,9143,659851,11
63,0,726981,252014,1405065,76844,9726,702088,11
63,0,710203,249745,1419012,74649,8648,708944,11
63,0,706456,247256,1418380,73571,8918,708778,11
63,0,709161,247865,1306499,73747,9587,652894,11
63,0,711999,250006,1483096,74781,9668,739883,11
63,0,705168,246875,1422029,73396,8760,711673,11
63,0,705852,247337,1321563,73598,8343,660319,11
63,0,707021,247178,1359371,73473,8713,679363,11
63,0,707149,246972,1337165,73402,8621,668243,11
63,0,729366,252009,1472647,76870,10085,735884,11
63,0,706983,247944,1487223,73770,8753,743276,11
63,0,701251,246832,1362808,73382,8032,681005,11
63,0,703795,247792,1404707,73735,8724,701971,11
63,0,704920,247967,1409427,73912,8842,704173,11
63,0,703257,247300,1297906,73562,7688,648563,11
63,0,704989,247380,1308787,73555,8539,654006,11
63,0,708413,249063,1405901,74391,8717,702444,11
63,0,704922,247611,1410705,73581,8226,704964,11
63,0,706279,247392,1328268,73581,8306,663792,11
63,0,705578,248059,1583394,73877,8394,791629,11
63,0,703189,246681,1230976,73340,8245,615178,11
63,0,709584,248875,1308975,74388,8731,653969,11
63,0,706827,247619,1238149,73653,7948,618731,11
63,0,708175,248073,1312136,73956,8772,655569,11
63,0,709509,247419,1358117,73570,9185,678719,11
63,0,723973,251250,1347523,76699,9125,673484,11
63,0,709473,248828,1346890,74407,8473,672857,11
63,0,704649,247100,1306615,73479,8185,652927,11
63,0,710820,249150,1398716,74260,8908,698900,11
63,0,707078,247352,1393263,73416,8390,696291,11
63,0,708239,247832,1371076,73598,7688,685065,11
63,0,729012,251900,1530138,76821,9242,764718,11
63,0,706004,247634,1391927,73590,8309,695651,11
63,0,708267,247935,1368772,73770,8642,684081,11
63,0,708659,247541,1285278,73614,8494,642329,11
63,0,708541,248023,1391478,73801,8227,695351,11
63,0,712507,249046,1391346,74384,8220,695131,11
63,0,712953,248705,1291427,74011,8374,645404,11
63,0,709833,247890,1298698,73804,9173,649015,11
63,0,732189,252718,1419175,77182,9784,709239,11
63,0,712151,248002,1472381,73884,9294,735792,11
63,0,706993,248015,1352450,73856,8991,675809,11
63,0,707023,247669,1308408,73688,8567,653812,11
63,0,708426,248061,1271841,73791,8007,635588,11
63,0,729884,252254,1411817,76984,9369,705521,11
63,0,706644,247283,1297950,73550,8683,648679,11
63,0,707304,247370,1462283,73548,8539,730807,11
63,0,714912,249778,1421310,74400,8891,710160,11
63,0,709096,248209,1304294,73717,8555,651788,11
63,0,706428,247362,1376328,73412,8207,687939,11
63,0,729517,252353,1345870,76844,9302,672602,11
63,0,715797,250666,1310936,74710,8408,654898,11
63,0,708427,247495,1227278,73424,7707,613357,11
63,0,707431,246793,1372170,73282,8319,685732,11
63,0,710070,247427,1294473,73592,8498,646824,11
63,0,712435,249887,1403355,74598,8622,701064,11
63,0,708510,247920,1310618,73588,7930,654979,11
63,0,708935,248063,1374994,73673,8114,687168,11
63,0,714758,249794,1426231,74424,8519,712586,11
63,0,707894,247549,1336744,73518,7638,668019,11
63,0,708942,247593,1463136,73489,8679,731239,11
63,0,709509,247634,1362942,73551,7512,681167,11
63,0,708521,247424,1267586,73471,8502,633499,11
63,0,717084,250155,1465474,74593,8765,732130,11
63,0,714056,248411,1375574,73761,8803,687411,11
63,0,706982,249785,1397746,74385,8093,698331,11
63,0,704313,248184,1266263,73734,8246,632686,11
63,0,712866,250512,1703061,74702,10288,850344,11
63,0,705642,248112,1411908,73659,9447,705611,11
63,0,705134,248046,1429251,73632,9714,714149,11
63,0,706720,248213,1286390,73658,8168,642609,11
63,0,708874,248625,1357240,73763,10113,678164,11
63,0,710769,249847,1416456,74482,9593,707739,11
63,0,705619,248179,1336984,73699,8578,667606,11
63,0,706151,248051,1358774,73737,8917,679038,11
63,0,708798,249047,1327959,74243,9110,663596,11
63,0,709100,248683,1252466,73914,8557,625864,11
63,0,728971,252371,1327108,76875,9299,663190,11
63,0,709519,249621,1316319,74500,9395,657599,11
63,0,704448,247969,1271688,73643,8827,635519,11
63,0,704361,248064,1306354,73720,8162,652858,11
63,0,703104,247158,1245949,73384,8383,622687,11
63,0,704833,247787,1313532,73645,8133,656412,11
63,0,705797,247784,1427138,73611,7932,713194,11
63,0,704331,247669,1398003,73551,8194,698712,11
63,0,705464,247788,1316022,73648,7540,657722,11
63,0,704001,247355,1306111,73477,8535,652662,11
63,0,709108,248976,1404845,74220,8764,701892,11
63,0,707994,247428,1377058,73558,8875,688142,11
63,0,711858,248528,1409230,74052,9025,704118,11
63,0,703876,247792,1371973,73631,8697,685571,11
63,0,704735,247742,1392660,73655,8123,696001,11
63,0,722061,251064,1457545,76589,9042,728236,11
63,0,704264,247454,1398271,73520,8495,698777,11
63,0,709840,249111,1424965,74274,9071,712008,11
63,0,706297,247497,1446940,73637,8279,723096,11
63,0,707998,247653,1282119,73728,9071,640670,11
63,0,708424,247867,1267218,73818,8895,633156,11
63,0,715389,250267,1332471,74797,9266,665653,11
63,0,707262,247425,1253954,73526,8443,626591,11
63,0,706011,248107,1369155,73913,9040,684223,11
63,0,706638,247766,1322013,73823,8870,660578,11
63,0,711143,249683,1364211,74614,8548,681569,11
63,0,706689,246975,1394836,73516,8927,697068,11
63,0,704647,247404,1309966,73661,8679,654590,11
63,0,728181,252184,1411490,77037,10072,705464,11
63,0,715513,250611,1414464,75068,9495,706577,11
63,0,708395,247334,1330233,73623,8664,664807,11
63,0,707147,247356,1402321,73615,9028,700809,11
63,0,707732,247624,1314809,73769,8185,657022,11
63,0,705920,246992,1304713,73451,8626,651997,11
63,0,711121,247646,1455153,73788,9008,727258,11
63,0,704969,248214,1406379,73935,8646,702780,11
63,0,725602,252315,1417447,77062,9839,708242,11
63,0,709301,249592,1433826,74667,9121,716503,11
63,0,704299,247291,1403217,73661,9126,701259,11
63,0,705938,247774,1347292,73786,8290,673279,11
63,0,705443,247411,1348178,73688,8520,673746,11
63,0,704955,247277,1407089,73608,8925,703147,11
63,0,706805,247673,1430329,73769,8341,714816,11
63,0,756072,261436,1512761,79784,9574,755995,11
63,0,707520,249213,1487098,74594,9190,742990,11
63,0,704580,247527,1325555,73621,8346,662502,11
63,0,707175,247947,1261377,73851,8787,630372,11
63,0,728044,251959,1326129,76949,9754,662775,11
63,0,709611,247958,1408378,73803,9996,703718,11
63,0,704730,247637,1429583,73706,10732,714388,11
63,0,704895,247506,1481706,73663,9952,740552,11
63,0,708565,247835,1471763,73824,10115,735350,11
63,0,711325,249643,1491197,74713,10056,744773,11
63,0,709643,248489,1512874,73991,9917,756155,11
63,0,708108,247796,1633295,73810,11279,816356,11
63,0,707700,247387,1480497,73650,10038,739730,11
63,0,712115,249118,1571917,74416,11143,785385,11
63,0,708770,248597,1439593,74056,9457,719323,11
63,0,706957,247480,1544112,73540,10453,771560,11
63,0,707843,247613,1465131,73771,10096,732171,11
63,0,713173,249531,1565229,74630,10379,781955,11
63,0,708506,248131,1534371,73922,10989,766782,11
63,0,708980,247682,1458426,73670,10428,728702,11
63,0,713918,249550,1646812,74568,10986,822914,11
63,0,713600,248995,1447786,74176,10242,723485,11
63,0,707071,247674,1481367,73769,9913,740316,11
63,0,727362,252577,1531111,77139,10639,765143,11
63,0,707436,247880,1459529,73838,9670,729243,11
63,0,705953,247174,1377476,73573,9576,688360,11
63,0,705948,246896,1377094,73539,10244,688067,11
63,0,708688,248805,1553866,74311,9920,776531,11
63,0,707982,248236,1405185,73904,8957,702261,11
63,0,705965,247105,1458149,73490,9093,728685,11
63,0,708131,247907,1500230,73806,10686,749484,11
63,0,714084,249830,1630574,74623,11484,814172,11
63,0,711427,248692,1526667,74101,11302,763029,11
63,0,707369,247106,1554295,73546,10944,776329,11
63,0,713159,249194,1621571,74508,10660,810239,11
63,0,707867,247644,1527691,73700,10342,763594,11
63,0,708322,247650,1472183,73760,10360,735814,11
63,0,710866,247837,1373524,73812,10432,686209,11
63,0,708944,247790,1467704,73808,9876,733410,11
63,0,731841,252442,1516107,77034,10951,757542,11
63,0,715180,250302,1536602,74895,10347,767439,11
63,0,710281,247760,1537544,73743,10903,768416,11
63,0,711668,248237,1434042,73986,10422,716490,11
63,0,711618,247918,1457550,73825,10248,728425,11
63,0,710998,247393,1572325,73614,10696,785830,11
63,0,730514,252467,1507821,77096,10655,753493,11
63,0,703773,247201,1542825,73567,10891,770967,11
63,0,706476,247845,1546578,73857,10656,772889,11
63,0,704728,247913,1453671,73864,9996,726225,11
63,0,705034,247530,1535092,73663,9877,767222,11
63,0,705401,247295,1477838,73612,10035,738488,11
63,0,713812,250411,1551085,74909,10520,774775,11
63,0,707255,247487,1460935,73638,10177,730018,11
63,0,709576,249000,1566977,74342,10414,783121,11
63,0,727356,252286,1449117,77054,10833,724151,11
63,0,708652,248970,1446794,74365,11128,722572,11
63,0,703385,246972,1356310,73563,9855,677653,11
63,0,708074,248329,1435549,73939,10139,717352,11
63,0,705835,247555,1615907,73666,10341,807397,11
63,0,708088,248296,1519426,73962,10056,759234,11
63,0,707138,247570,1509842,73665,10040,754608,11
63,0,709213,248329,1568731,74109,10773,783713,11
63,0,711376,248700,1473419,74094,9984,736277,11
63,0,705712,247635,1509682,73780,10358,754416,11
63,0,727020,251844,1459410,76906,10971,729298,11
63,0,709198,247915,1529093,73835,10709,764321,11
63,0,707881,247124,1536463,73573,10123,767843,11
63,0,708607,247698,1454188,73759,10317,726560,11
63,0,712050,248962,1575592,74365,10655,787206,11
63,0,710419,248347,1407036,73991,9555,703118,11
63,0,709845,247728,1512067,73730,10440,755547,11
63,0,731583,252201,1555177,77046,11884,777266,11
63,0,716033,249891,1544168,74762,11161,771403,11
63,0,706380,248161,1431002,73930,9597,715057,11
63,0,706313,247996,1692344,73884,11352,845641,11
63,0,705324,247124,1511259,73549,9445,755214,11
63,0,711860,249563,1532209,74548,10172,765587,11
63,0,705867,247482,1420750,73652,10529,710119,11
63,0,708389,247669,1388317,73643,9942,693672,11
63,0,710818,249056,1572264,74402,10799,785340,11
63,0,710246,248503,1451975,74028,9966,725495,11
63,0,705228,246888,1505654,73405,9690,752366,11
63,0,731312,252294,1494238,77068,11241,746713,11
63,0,710788,248198,1543367,73920,10330,771268,11
63,0,709012,247641,1509062,73706,10180,753999,11
63,0,709569,247569,1433838,73683,9614,716530,11
63,0,714768,249221,1532105,74450,10897,765547,11
63,0,709999,248432,1533546,73996,10502,766360,11
63,0,706012,247337,1540215,73595,9986,769677,11
63,0,708456,248248,1516574,73958,9683,757861,11
63,0,729088,252307,1489101,77042,10642,744153,11
63,0,708631,247442,1514674,73682,10325,756832,11
63,0,708808,247783,1435081,73792,9967,717111,11
63,0,714672,249472,1537740,74532,10992,768435,11
63,0,711682,247933,1617577,73840,9998,808213,11
63,0,728591,251980,1495077,76953,10558,747148,11
63,0,713374,248851,1435989,74335,10278,717349,11
63,0,711778,248553,1373034,74034,9963,686020,11
63,0,734576,253171,1530198,77373,11585,764571,11
63,0,716627,249605,1798083,74623,12747,898331,11
63,0,704337,247696,1546215,73788,10364,772646,11
63,0,708553,247964,1568577,73790,10691,783894,11
63,0,729026,252683,1494546,77143,10490,746653,11
63,0,712955,250034,1548109,74777,10388,773369,11
63,0,707020,247327,1441370,73592,9780,720285,11
63,0,708128,247736,1675095,73761,10804,837168,11
63,0,707597,247214,1532798,73512,9954,766098,11
63,0,710346,249418,1562008,74485,10386,780446,11
63,0,736879,257433,1582317,76598,10595,790745,11
63,0,706545,247521,1524361,73708,9645,761654,11
63,0,709543,248198,1516726,73915,10237,757990,11
63,0,711767,248689,1565673,73963,10445,782524,11
63,0,712152,249207,1411202,74147,9851,705092,11
63,0,706725,247728,1440575,73728,9999,719608,11
63,0,712475,249298,1603338,74402,10694,801122,11
63,0,710123,247985,1521891,73754,10342,760542,11
63,0,731522,252332,1500998,76916,10757,750267,11
63,0,714026,249851,1560061,74641,10413,779906,11
63,0,708835,247968,1457890,73739,9317,728624,11
63,0,714846,249562,1561688,74466,10209,780140,11
63,0,711919,248246,1416956,73779,9663,708083,11
63,0,709969,248091,1513838,73745,10013,756641,11
63,0,712150,247820,1461612,73701,9189,730358,11
63,0,713342,247991,1512093,73744,9975,755482,11
63,0,712045,249462,1536511,74445,10751,767673,11
63,0,710409,248775,1440774,74008,10077,720018,11
63,0,709483,248041,1520448,73788,10362,759614,11
63,0,709180,247876,1472684,73684,9886,735931,11
63,0,707703,246956,1511397,73502,10565,755211,11
63,0,709054,247671,1523380,73615,10566,761343,11
63,0,714373,248783,1466886,74163,11348,732760,11
63,0,713751,248861,1426386,74237,9982,712578,11
63,0,710792,247436,1396134,73546,8995,697687,11
63,0,713269,249673,1394647,74669,9702,696618,11
63,0,711840,247947,1525733,73783,10877,762336,11
63,0,709207,247268,1468704,73506,9919,733952,11
63,0,711122,247995,1424329,73779,9519,711747,11
63,0,716426,249673,1443210,74605,10468,720777,11
63,0,711906,248217,1394932,73798,9177,697045,11
63,0,714702,249378,1444107,74407,9906,721463,11
63,0,714582,248867,1740626,74079,11676,869830,11
63,0,713618,247871,1488408,73698,9454,743794,11
63,0,711014,248009,1469517,73746,9662,734285,11
63,0,718351,250069,1437899,74722,9921,718409,11
63,0,713941,248058,1434533,73820,9616,716957,11
63,0,712847,247338,1428856,73521,9305,713910,11
63,0,705861,247837,1307747,73722,8468,653427,11
63,0,704634,249505,1412249,74447,9078,705777,11
63,0,701932,248363,1353033,73905,8448,676073,11
63,0,700702,247566,1402038,73595,9120,700729,11
63,0,724732,252904,1436121,77149,9416,717696,11
63,0,701646,248058,1319062,73709,8747,659137,11
63,0,707212,249211,1450238,74348,10693,724356,11
63,0,699576,246917,1507535,73316,10600,753312,11
63,0,710209,250581,1673123,74873,11389,835826,11
63,0,702677,247304,1553617,73518,10162,776349,11
63,0,706608,248857,1420403,74265,9931,709747,11
63,0,705543,248091,1357572,73810,9293,678214,11
63,0,700536,247199,1449894,73459,10978,724075,11
63,0,705712,248735,1516782,74041,10736,757706,11
63,0,703058,247676,1467740,73675,10301,733459,11
63,0,703955,247890,1484837,73739,10101,742018,11
63,0,726257,252554,1577345,77059,11976,788521,11
63,0,705696,247708,1460164,73643,10810,729821,11
63,0,707893,248685,1505472,73990,9949,752108,11
63,0,701968,247429,1574918,73552,11238,786954,11
63,0,704176,247861,1895452,73708,13021,946087,11
63,0,705787,248550,1461105,73987,10561,730264,11
63,0,706501,248204,1481577,73804,9863,740397,11
63,0,710556,249851,1570328,74588,11108,784735,11
63,0,701773,247931,1446147,73781,10349,722682,11
63,0,702180,247856,1522631,73635,8767,761012,11
63,0,701383,247035,1436192,73365,8631,717818,11
63,0,702259,246863,1414251,73444,8250,706745,11
63,0,707632,248495,1533770,73913,8494,766574,11
63,0,704632,248065,1552394,73803,8868,775860,11
63,0,707603,249452,1502887,74457,8702,750937,11
63,0,707935,249107,1495307,74136,8572,747298,11
63,0,705498,247826,1505281,73662,8825,752444,11
63,0,706832,248105,1380497,73836,8773,689836,11
63,0,706525,248358,1386352,73845,8394,692799,11
63,0,705933,247484,1472436,73579,8377,735891,11
63,0,713677,250117,1560807,74807,9120,779923,11
63,0,703852,247980,1457097,73750,8803,728107,11
63,0,708904,249301,1520607,74379,9143,759709,11
63,0,704117,247336,1486261,73476,9248,742884,11
63,0,705255,248106,1482901,73834,8525,741077,11
63,0,726787,252539,1463295,76984,9012,731225,11
63,0,707762,248478,1421596,73879,8874,710508,11
63,0,709317,248070,1433983,73766,8975,716645,11
63,0,704850,248249,1331761,73893,8908,665463,11
63,0,711954,249889,1518939,74658,9414,758835,11
63,0,708965,248417,1433499,73857,8644,716385,11
63,0,707106,247822,1473478,73671,8712,736434,11
63,0,708480,248003,1463262,73760,9564,731149,11
63,0,712307,249185,1559282,74318,9813,779229,11
63,0,709306,248343,1416670,73889,9276,707941,11
63,0,701671,247943,1489535,73712,9550,744506,11
63,0,703608,248245,1508950,73874,9852,754157,11
63,0,724386,252281,1453448,76934,10587,726247,11
63,0,707879,250091,1519072,74754,9398,759005,11
63,0,705890,248634,1422422,73934,9371,711309,11
63,0,705862,248128,1480213,73821,9649,739778,11
63,0,702541,247691,1490733,73630,8744,745049,11
63,0,707845,249367,1527488,74349,8919,763204,11
63,0,727265,252921,1490993,77153,9968,745155,11
63,0,709348,250256,1529041,74790,9203,763979,11
63,0,704982,248126,1516572,73785,9078,757913,11
63,0,705008,247726,1397295,73703,8757,698317,11
63,0,703766,247831,1420635,73754,8904,709918,11
63,0,726090,252106,1569094,76856,9395,784123,11
63,0,711249,249773,1446696,74698,8922,722667,11
63,0,707481,247824,1339703,73679,8519,669543,11
63,0,703290,247648,1406829,73637,9226,703110,11
63,0,703306,247829,1410084,73738,8285,704574,11
63,0,705048,248044,1404676,73788,8478,702058,11
63,0,706562,248308,1493685,73827,8278,746332,11
63,0,706718,248199,1487248,73826,8670,743147,11
63,0,711193,250225,1549192,74727,8942,774100,11
63,0,706889,247929,1412817,73667,8699,706111,11
63,0,706744,248469,1521311,73846,8994,760259,11
63,0,707106,247858,1520398,73670,8910,759924,11
63,0,708795,248134,1417575,73817,9213,708369,11
63,0,707958,248587,1458597,73889,9322,728901,11
63,0,706064,247935,1401330,73699,8491,700161,11
63,0,728465,252628,1370352,77098,8934,684669,11
63,0,708120,248501,1480795,73966,8554,740042,11
63,0,706712,247644,1434209,73635,8519,716670,11
63,0,709023,248127,1261439,73868,8616,630312,11
63,0,709449,248672,1379359,74144,8450,689088,11
63,0,710781,248166,1362001,73802,8921,680596,11
63,0,704100,248445,1410768,73986,9172,704996,11
63,0,708641,249451,1375424,74537,9124,687111,11
63,0,701378,246856,1306581,73333,8399,652940,11
63,0,706696,248543,1359541,73975,8291,679288,11
63,0,705866,248173,1395118,73847,8935,697187,11
63,0,709110,249360,1472208,74441,9313,735312,11
63,0,705588,247578,1399220,73629,8732,699289,11
63,0,708441,248289,1378022,74158,9682,688397,11
63,0,703267,247461,1293902,73579,8069,646544,11
63,0,710008,249122,1308821,74362,8727,653792,11
63,0,707611,247767,1279030,73737,7958,638999,11
63,0,706992,248154,1346402,73797,8756,672803,11
63,0,714114,250371,1473066,74902,9169,735881,11
63,0,708241,247999,1399707,73741,9090,699487,11
63,0,708128,248504,1330695,73971,8216,664870,11
63,0,706316,247992,1403276,73697,8909,701356,11
63,0,706789,247771,1498465,73731,8812,748914,11
63,0,708827,248145,1398052,73832,9151,698684,11
63,0,712683,249203,1384853,74374,9126,691786,11
63,0,707578,248110,1375816,73791,8017,687584,11
63,0,711383,248506,1466136,73990,9150,732719,11
63,0,709047,247935,1295022,73790,8869,646991,11
63,0,713826,249257,1393387,74382,9383,696169,11
63,0,711867,249041,1264048,74140,9139,631571,11
63,0,709709,247586,1409408,73576,9969,704122,11
63,0,712210,248210,1408400,73865,9555,703681,11
63,0,703036,247891,1435762,73711,9963,717177,11
63,0,704288,248281,1581853,73922,9714,790471,11
63,0,702283,247285,1444839,73469,9722,721741,11
63,0,703751,247845,1268011,73771,8695,633443,11
63,0,704988,247944,1565067,73778,10256,782087,11
63,0,724958,252354,1314906,77000,8988,656949,11
63,0,708781,249562,1396176,74515,9924,697966,11
63,0,726422,252481,1495945,77062,10600,747364,11
63,0,738855,259809,1541397,77723,9785,769797,11
63,0,706348,247904,1674675,73685,9557,836901,11
63,0,706621,247863,1453286,73719,9978,726082,11
63,0,704335,248036,1675275,73790,9579,837242,11
63,0,704036,247354,1466795,73514,8830,732400,11
63,0,703845,247530,1430730,73560,10119,714980,11
63,0,706253,248341,1471138,73877,9424,735132,11
63,0,705646,247604,1490213,73610,9880,744669,11
63,0,706192,247905,1311811,73737,8450,655502,11
63,0,709572,248931,1413720,74240,8938,706273,11
63,0,706172,247752,1338336,73666,8481,668758,11
63,0,709747,248369,1343414,73887,9017,671233,11
63,0,708426,248194,1401985,73763,8781,700557,11
63,0,709603,248220,1407015,73838,9445,703053,11
63,0,703390,247704,1558185,73604,9299,778776,11
63,0,705120,247957,1384174,73700,8607,691651,11
63,0,709064,249243,1401810,74372,8342,700354,11
63,0,706147,247571,1245047,73589,8573,622164,11
63,0,709382,248334,1371300,73829,9072,685165,11
63,0,705027,247832,1347461,73681,9016,673245,11
63,0,702095,246652,1319724,73344,8425,659420,11
63,0,708594,248475,1404842,73878,7959,702010,11
63,0,728335,252408,1345894,76925,9549,672572,11
63,0,713426,250598,1374913,74927,8981,686688,11
63,0,707628,247982,1328124,73700,8475,663746,11
63,0,713451,249120,1561753,74263,10424,779927,11
63,0,727320,252594,1498851,77066,9762,749052,11
63,0,712497,250118,1416507,74746,9128,707509,11
63,0,708476,248115,1317658,73818,8403,658444,11
63,0,707895,248378,1369232,73864,8111,684197,11
63,0,706677,247675,1385750,73656,8231,692498,11
63,0,707454,247966,1282543,73798,8412,640818,11
63,0,709388,248417,1440507,73936,8039,720014,11
63,0,709290,247969,1480520,73759,8765,739965,11
63,0,728870,253090,1381421,77214,9317,690311,11
63,0,711815,249751,1409995,74646,8593,704308,11
63,0,711279,249322,1382320,74138,8921,690683,11
63,0,709031,247903,1407429,73616,8978,703362,11
63,0,711071,248286,1309210,73802,8465,654219,11
63,0,707528,247617,1318776,73578,8284,658954,11
63,0,711670,248656,1410618,73866,8860,704901,11
63,0,710254,248191,1494065,73738,8784,746589,11
63,0,716004,250071,1466174,74632,9568,732335,11
63,0,708042,247794,1315855,73516,8560,657554,11
63,0,703757,247548,1403119,73569,9309,701166,11
63,0,706192,248236,1295529,73874,9210,647228,11
63,0,707102,248419,1230498,73969,8352,614646,11
63,0,706772,247660,1292228,73656,9320,645654,11
63,0,704499,247975,1319026,73783,9269,659045,11
63,0,727859,252928,1363050,77199,9639,681140,11
63,0,713074,250405,1538900,74855,8976,768838,11
63,0,707556,248374,1371736,73858,8098,685661,11
63,0,709454,249456,1454810,74462,9605,726516,11
63,0,705654,247604,1427804,73696,9336,713175,11
63,0,706328,248087,1534047,73727,8444,766049,11
63,0,712452,249332,1449533,74421,9761,724116,11
63,0,711257,248360,1507607,73919,9951,753528,11
63,0,725992,252094,1404023,76926,9520,701387,11
63,0,712161,250224,1507057,74805,9866,752642,11
63,0,706897,247757,1475982,73672,9672,738186,11
63,0,707554,248051,1460306,73819,9048,729622,11
63,0,705866,247610,1561659,73632,9311,779772,11
63,0,710054,248350,1453837,73912,9298,726497,11
63,0,710894,249921,1512457,74723,10056,755466,11
63,0,709483,248532,1564763,73919,10040,782048,11
63,0,712016,249071,1440795,74151,10253,719739,11
63,0,731859,252879,1370645,77169,10047,684999,11
63,0,710438,247841,1360638,73572,9960,679556,11
63,0,711026,249401,1352078,74416,9964,675229,11
63,0,707399,247857,1350955,73688,9529,674962,11
63,0,711924,249193,1449451,74160,10176,724202,11
63,0,708347,247751,1491322,73634,9684,745254,11
63,0,706776,248008,1409646,73772,9724,704298,11
63,0,727694,251990,1437530,76912,10387,719016,11
63,0,708844,247267,1624567,73522,9914,811976,11
63,0,709478,248606,1425649,74036,9531,712391,11
63,0,706886,247189,1399792,73437,9688,699004,11
63,0,710900,248295,1440592,73893,9504,719836,11
63,0,710321,247867,1428163,73764,10201,713293,11
63,0,708484,247893,1459227,73771,9679,729316,11
63,0,728434,252546,1336823,77092,9507,667625,11
63,0,707473,247575,1432768,73620,9597,715805,11
63,0,709302,248017,1496006,73707,9155,747628,11
63,0,708261,247733,1476591,73646,9523,737804,11
63,0,710122,248311,1531437,73863,10375,765237,11
63,0,731410,252469,1340089,76995,10055,669348,11
63,0,716842,250000,1454828,74679,10049,726744,11
63,0,711483,248860,1437804,74056,9731,718400,11
63,0,714166,249372,1443768,74379,9552,721321,11
63,0,710896,247992,1347865,73753,9256,673510,11
63,0,713146,248706,1385636,73948,9493,692364,11
63,0,709672,247818,1303182,73673,9169,651093,11
63,0,718242,250474,1385684,74837,10497,692155,11
63,0,713961,247974,1400521,73700,9063,699871,11
63,0,701551,248173,1287324,73826,7675,643154,11
63,0,704102,248248,1369988,73766,8109,684597,11
63,0,704192,248032,1439106,73790,8952,719225,11
63,0,726663,252788,1344568,77096,9361,671836,11
63,0,703042,247525,1318807,73610,9078,659003,11
63,0,704285,247590,1391451,73624,9036,695335,11
63,0,726834,252501,1367547,76933,9505,683365,11
63,0,708822,249984,1501372,74597,9740,750036,11
63,0,703261,247661,1357163,73498,7997,678127,11
63,0,704107,248033,1314502,73724,8259,656946,11
63,0,706043,248051,1365760,73655,8509,682407,11
63,0,708707,248717,1402538,73910,9271,700822,11
63,0,724851,251714,1349671,76643,8893,674376,11
63,0,706799,248425,1297844,73830,8235,648490,11
63,0,708581,248777,1401268,74094,8772,700076,11
63,0,707927,248471,1355565,73835,8343,677377,11
63,0,707101,247815,1372628,73574,8666,686003,11
63,0,708892,248435,1422485,73821,9136,710821,11
63,0,728482,252912,1397848,77078,9898,698468,11
63,0,709716,248239,1585815,73680,10278,792760,11
63,0,710745,248263,1395185,73705,8938,697230,11
63,0,706824,249044,1448154,74164,9420,723348,11
63,0,704407,248169,1342097,73696,9417,670683,11
63,0,703219,247463,1366638,73417,8812,682942,11
63,0,706877,248749,1499758,73825,9621,748970,11
63,0,707769,248707,1492322,73828,9520,745897,11
63,0,706773,248001,1360455,73647,8752,679651,11
63,0,708919,249071,1479599,74115,9347,738962,11
63,0,708742,247984,1433466,73582,9052,715995,11
63,0,726189,252292,1412887,76857,9699,705790,11
63,0,711931,250145,1509259,74726,9825,754044,11
63,0,705947,247461,1414571,73546,9351,706798,11
63,0,708980,248325,1539623,73712,10736,769437,11
63,0,707419,248116,1383499,73722,9001,691007,11
63,0,707719,248100,1398411,73661,9156,699030,11
63,0,708875,248129,1377482,73658,8861,688389,11
63,0,730716,252770,1558452,76968,9992,778939,11
63,0,703784,247642,1337989,73480,9618,668749,11
63,0,706500,247691,1332750,73484,9147,665913,11
63,0,710936,249415,1445974,74263,10189,722518,11
63,0,727960,252219,1544042,76789,10706,771496,11
63,0,707972,248430,1487009,73853,10226,742894,11
63,0,709115,248004,1429659,73811,9305,714552,11
63,0,713064,250034,1415577,74710,9577,707116,11
63,0,708513,247689,1332679,73646,8977,666021,11
63,0,710242,247917,1447886,73719,9465,723615,11
63,0,710463,247987,1258906,73704,8447,629077,11
63,0,715596,249569,1416630,74431,9776,707859,11
63,0,708660,249261,1428594,74049,10007,713956,11
63,0,711846,250408,1469354,74735,9968,734083,11
63,0,710040,249101,1367506,74101,9049,683579,11
63,0,708261,248840,1438969,73988,10073,719308,11
63,0,709347,249043,1315660,74089,8562,657444,11
63,0,713301,250089,1430484,74559,9574,714668,11
63,0,708390,248760,1440563,73974,8899,719791,11
63,0,711023,249136,1448777,73976,9151,724021,11
63,0,711735,248926,1453468,74021,9567,726438,11
63,0,714905,251214,1468713,75118,10231,733630,11
63,0,708704,248438,1349425,73853,9328,674266,11
63,0,709608,248426,1440779,73869,9726,719955,11
63,0,710377,248644,1436427,74040,9552,717832,11
63,0,715752,250524,1585464,74825,10345,791919,11
63,0,712584,249355,1654604,74171,10220,826942,11
63,0,715835,250379,1616855,74727,11184,807873,11
63,0,735532,258718,1419533,76964,8914,709403,11
63,0,708657,248854,1404589,73990,8611,701867,11
63,0,710057,248386,1321416,73845,8541,660342,11
63,0,730230,252993,1570981,77223,9568,784543,11
63,0,710187,248279,1327505,73871,8557,663372,11
63,0,711586,248519,1412094,73847,9144,705756,11
63,0,711539,249519,1412075,74546,9128,705492,11
63,0,732113,253040,1368945,77247,9737,684114,11
63,0,715668,249978,1517644,74686,10045,758092,11
63,0,717453,250379,1449438,74706,9412,724309,11
63,0,709955,249546,1333713,74184,8787,666516,11
63,0,715464,251126,1344905,74884,8964,671845,11
63,0,712114,249070,1347639,73818,8570,673498,11
63,0,710702,249649,1299684,74135,7777,649485,11
63,0,713614,250163,1384659,74470,9440,691729,11
63,0,711409,248973,1337777,73914,8393,668490,11
63,0,709360,248337,1336427,73654,7998,667913,11
63,0,713857,249606,1412128,74095,9010,705627,11
63,0,717342,251446,1408918,75032,9042,703741,11
63,0,710259,248858,1319911,73860,8431,659591,11
63,0,711724,249096,1421933,73928,8499,710278,11
63,0,716011,250479,1499249,74576,9513,749049,11
63,0,735115,253758,1375743,77216,9840,687497,11
63,0,713421,248852,1354543,73807,8925,676764,11
63,0,710684,249012,1423368,73856,9451,711195,11
63,0,711968,249542,1359442,74068,9173,679287,11
63,0,714690,250290,1488350,74516,9731,743595,11
63,0,712605,249012,1408294,73871,8783,703391,11
63,0,713869,249538,1504628,74097,9184,751817,11
63,0,734268,253827,1334838,77207,9572,666605,11
63,0,714331,249536,1404757,74062,9106,702021,11
63,0,714129,249287,1417394,74008,9341,708254,11
63,0,714615,249582,1556680,74039,11083,777911,11
63,0,714217,249132,1481816,73972,10208,740555,11
63,0,719062,250363,1480355,74512,10067,739469,11
63,0,733756,253494,1598429,77146,10740,798829,11
63,0,714388,248950,1423741,73840,11012,711634,11
63,0,714661,249454,1368898,74016,10071,683642,11
63,0,712901,248516,1453745,73720,11128,726537,11
63,0,718213,250325,1532229,74521,10815,765643,11
63,0,716463,249530,1560044,74085,11196,779564,11
63,0,716864,249394,1414005,73971,9813,706569,11
63,0,715284,249259,1600194,73940,10759,799560,11
63,0,710024,249727,1430556,74156,9382,714309,11
63,0,708802,248598,1508684,73730,10273,753720,11
63,0,711254,249968,1540045,74342,9793,769480,11
63,0,709885,248965,1464584,73956,9358,731837,11
63,0,717131,251214,1501864,74950,10160,750059,11
63,0,709392,248393,1675875,73622,10061,837186,11
63,0,709935,249502,1501286,74068,8799,750259,11
63,0,709319,248809,1744875,73778,10622,871995,11
63,0,710988,249165,1431682,73976,9580,715534,11
63,0,710946,248858,1440859,73889,9260,720046,11
63,0,732732,253803,1530224,77227,10930,764585,11
63,0,716313,250602,1510545,74700,10365,754589,11
63,0,713434,249402,1413199,74061,9195,706154,11
63,0,709516,248569,1605384,73709,9713,801515,11
63,0,712432,250171,1642656,74442,9594,820060,11
63,0,737899,258873,1484613,76826,10001,742109,11
63,0,716169,250738,1338693,74768,9472,668803,11
63,0,709474,248550,1289555,73729,7832,644443,11
63,0,712282,249448,1235039,74095,7940,617027,11
63,0,713165,248680,1337632,73893,8772,668510,11
63,0,710092,248572,1327926,73805,8379,663658,11
63,0,710425,248730,1353357,73853,8384,676403,11
63,0,712695,248480,1295154,73787,8360,647276,11
63,0,715466,250308,1409298,74619,8739,704100,11
63,0,711424,249024,1289565,73897,8241,644496,11
63,0,711330,248942,1421597,73994,8795,710489,11
63,0,732037,253031,1372722,77097,9282,685922,11
63,0,711943,248405,1467763,73774,8849,733602,11
63,0,716068,249573,1441282,74222,10238,720222,11
63,0,734901,253943,1377316,77433,9934,688051,11
63,0,715897,250064,1444637,74620,9922,721623,11
63,0,713464,248771,1394357,73889,9368,696813,11
63,0,714381,248786,1495407,73832,9189,747307,11
63,0,716779,250089,1435559,74474,9373,717189,11
63,0,709621,248438,1312218,73767,8288,655728,11
63,0,709190,247950,1242988,73528,8175,621186,11
63,0,714031,249447,1320793,74104,8852,660047,11
63,0,713983,248537,1317695,73743,8973,658375,11
63,0,712964,248868,1322086,73805,8735,660676,11
63,0,714917,249069,1458925,73961,7964,729093,11
63,0,715875,249721,1371203,74167,9240,685283,11
63,0,739376,254682,1428072,78087,10085,713671,11
63,0,713830,248408,1292833,73775,8825,646061,11
63,0,717100,250290,1386727,74562,9138,692903,11
63,0,712907,248268,1476174,73680,9006,737666,11
63,0,716637,249594,1408292,74176,9429,703719,11
63,0,734496,252628,1436801,76986,9636,717910,11
63,0,717922,249486,1406670,74472,9616,702686,11
63,0,708600,248271,1432858,73685,9495,716122,11
63,0,711924,249275,1384478,74326,9130,691750,11
63,0,708791,247856,1297795,73611,8876,648553,11
63,0,709586,248627,1466193,73920,8820,732769,11
63,0,728995,252250,1518180,76827,9418,758825,11
63,0,715680,250377,1450012,74870,9370,724409,11
63,0,712061,248671,1292007,73983,8511,645636,11
63,0,708664,248509,1303990,73893,8338,651666,11
63,0,709231,247694,1420307,73623,9253,709753,11
63,0,716199,250252,1460967,74704,9154,729994,11
63,0,710774,248250,1337586,73756,9082,668455,11
63,0,708151,248242,1235612,73731,8502,617542,11
63,0,730105,252281,1292999,76858,9289,646098,11
63,0,710573,247614,1290883,73650,8466,645058,11
63,0,709822,247757,1366120,73559,9100,682714,11
63,0,710847,247765,1358560,73597,8662,678867,11
63,0,734937,253561,1335625,77246,9359,667480,11
63,0,715859,249178,1489202,74241,8877,744217,11
63,0,709610,247321,1283891,73411,7897,641711,11
63,0,713064,248244,1366803,73770,8145,683063,11
63,0,716474,249527,1401418,74431,8935,700118,11
63,0,713074,247671,1431888,73529,8950,715666,11
63,0,711475,248486,1277371,73838,8200,638275,11
63,0,712298,249365,1322317,74124,8432,660752,11
63,0,709177,248028,1497832,73687,8274,748537,11
63,0,711444,248236,1397252,73758,8840,698226,11
63,0,730901,252903,1361540,77074,9049,680461,11
63,0,710784,247755,1471029,73587,8912,735186,11
63,0,710993,247839,1387691,73664,8882,693451,11
63,0,709993,248558,1314165,73954,9473,656664,11
63,0,708107,247149,1376934,73390,9414,688078,11
63,0,710526,247822,1412251,73696,9243,705812,11
63,0,710946,247872,1481745,73710,9773,740560,11
63,0,733359,252277,1471506,76966,10371,735452,11
63,0,709305,247574,1495677,73573,9571,747498,11
63,0,714128,248381,1563437,73832,10056,781347,11
63,0,709909,247510,1417945,73574,9157,708697,11
63,0,714687,248671,1497183,73982,9702,748307,11
63,0,733375,252182,1502618,76906,10123,750953,11
63,0,718253,249785,1520345,74591,9649,759584,11
63,0,714192,247834,1494721,73491,9329,747034,11
63,0,704519,248104,1496454,73687,9343,747883,11
63,0,701052,246961,1389454,73225,9344,694445,11
63,0,706371,248601,1505579,73864,9188,752447,11
63,0,708500,250025,1495939,74678,10009,747244,11
63,0,705855,248106,1500660,73632,9643,750094,11
63,0,704346,247341,1424637,73409,9382,711983,11
63,0,707326,248716,1447782,73902,10376,722937,11
63,0,706251,248392,1554575,73782,11866,777060,11
63,0,727092,252699,1523452,76951,11326,761303,11
63,0,707713,248143,1470034,73698,10355,734643,11
63,0,707684,248374,1440590,73799,9597,719914,11
63,0,711128,249219,1516634,74233,9880,757898,11
63,0,707591,248529,1396858,73887,9526,697993,11
63,0,731977,256808,1459567,76255,9191,729317,11
63,0,729547,253171,1489016,77106,9995,744161,11
63,0,706689,247778,1407522,73634,9336,703338,11
63,0,706224,247183,1439863,73356,8863,719580,11
63,0,705864,246869,1497445,73310,10794,748392,11
63,0,706962,246957,1574782,73278,11168,786554,11
63,0,711198,248937,1534178,73997,10686,766539,11
63,0,704492,248453,1481725,74058,10421,740149,11
63,0,704880,248081,1492513,73740,10512,745597,11
63,0,703629,247116,1377498,73388,10011,688492,11
63,0,703958,247861,1442622,73724,9391,720869,11
63,0,704261,247589,1529608,73551,9809,764642,11
63,0,702940,247044,1363886,73441,9090,681987,11
63,0,704921,247249,1477490,73447,9850,738349,11
63,0,707283,248229,1485375,73793,9450,742179,11
63,0,705584,247229,1386817,73436,9680,693029,11
63,0,705799,248123,1492660,73769,10374,745981,11
63,0,726558,252372,1440812,76952,10514,720102,11
63,0,705899,246739,1437928,73267,9758,718537,11
63,0,707399,248486,1282389,73919,8479,640893,11
63,0,711030,249215,1401930,74338,8915,700384,11
63,0,708396,247668,1597133,73656,10171,798126,11
63,0,712471,250047,1346341,74703,9180,672553,11
63,0,702931,246817,1382160,73321,8931,690737,11
63,0,704559,247032,1347639,73407,8746,673443,11
63,0,710098,248964,1315745,73984,8924,657473,11
63,0,705416,247487,1277391,73505,8186,638392,11
63,0,730410,252445,1563014,76911,10263,779555,11
63,0,708767,247638,1312683,73534,8613,656058,11
63,0,708298,248126,1232567,73726,8723,615862,11
63,0,711614,249114,1313461,74224,9704,656186,11
63,0,729281,251921,1306111,76705,9936,652656,11
63,0,713427,249786,1344759,74506,9106,671840,11
63,0,710525,248045,1364314,73668,8844,681781,11
63,0,710947,247827,1338504,73633,9067,668858,11
63,0,726041,252393,1325870,76889,9674,662631,11
63,0,711603,250145,1374236,74702,9147,686535,11
63,0,711333,249509,1428367,74360,9384,713659,11
63,0,707373,247568,1326858,73497,8548,663055,11
63,0,709407,248342,1376153,73723,8759,687714,11
63,0,710145,249575,1365651,74405,8934,682194,11
63,0,708539,248151,1400758,73611,8685,699986,11
63,0,706736,248032,1335179,73671,8871,667237,11
63,0,708473,247796,1397677,73498,9125,697675,11
63,0,710201,248408,1381547,73751,9837,690484,11
63,0,732151,252948,1382628,77022,9778,690947,11
63,0,714718,249858,1401888,74483,9245,700422,11
63,0,708773,247871,1383202,73468,8920,691384,11
63,0,706077,247823,1289777,73630,8445,644456,11
63,0,707365,248188,1379507,73622,8396,689375,11
63,0,712262,249891,1355049,74434,8994,676891,11
63,0,709550,248282,1407965,73541,9066,703731,11
63,0,710074,248708,1317411,73710,8734,658330,11
63,0,709267,247947,1264496,73433,8486,631891,11
63,0,731214,252675,1322692,76820,9064,661024,11
63,0,710484,248020,1312510,73534,8968,655828,11
63,0,710804,247679,1417159,73356,9131,708186,11
63,0,705901,247612,1291309,73340,8731,645349,11
63,0,713470,250347,1505030,74601,10717,751167,11
63,0,709654,248414,1301566,73659,8710,650383,11
63,0,707165,247464,1391228,73271,9180,695223,11
63,0,708647,248492,1304594,73600,8476,651921,11
63,0,710496,248457,1410752,73646,8940,705046,11
63,0,709338,247841,1353396,73460,8940,676413,11
63,0,733652,253114,1370336,76956,9793,684840,11
63,0,711421,249924,1391872,74395,8746,695342,11
63,0,710602,248539,1394218,73647,8822,696712,11
63,0,710790,248451,1379749,73650,8581,689522,11
63,0,714830,249636,1427940,74217,8938,713485,11
63,0,710292,248150,1406595,73541,9075,702921,11
63,0,707889,247317,1314731,73138,8451,657006,11
63,0,733578,253228,1363349,76917,9753,681334,11
63,0,715784,249924,1373170,74355,9359,686016,11
63,0,712065,248059,1388603,73428,8963,693983,11
63,0,714253,248760,1329992,73748,8707,664712,11
63,0,703575,246497,1396332,72939,9208,697851,11
63,0,708674,248195,1500354,73537,9181,749807,11
63,0,709791,247657,1348769,73309,9308,674161,11
63,0,712649,248688,1244313,73690,9067,621701,11
63,0,712975,248466,1320514,73547,9363,659894,11
63,0,713733,248726,1244767,73705,8867,621999,11
63,0,711751,248390,1452114,73636,8783,725790,11
63,0,711110,247913,1387065,73395,9163,693185,11
63,0,715976,249585,1366434,74213,9336,682780,11
63,0,713335,248245,1409433,73626,9272,704377,11
63,0,711602,247317,1310487,73284,8652,654888,11
63,0,708071,248446,1392972,73637,9118,696144,11
63,0,708305,249247,1356240,74110,8855,677642,11
63,0,708060,247975,1320223,73479,8536,659854,11
63,0,710488,249588,1399008,74076,8271,699126,11
63,0,727464,252091,1382354,76683,9524,690858,11
63,0,704428,247409,1493259,73309,8900,746267,11
63,0,706553,248298,1334531,73652,8076,666699,11
63,0,711338,249368,1412215,74226,9163,705585,11
63,0,708000,247986,1315608,73517,8581,657393,11
63,0,708151,248468,1394292,73700,8394,696796,11
63,0,727156,251894,1378920,76566,9137,688995,11
63,0,714024,250054,1441752,74493,9219,720420,11
63,0,707457,247721,1368714,73483,8907,683942,11
63,0,703789,247731,1331582,73563,8780,665387,11
63,0,707475,248630,1336732,74034,9089,667871,11
63,0,705153,247324,1281814,73350,9146,640510,11
63,0,726730,251768,1281133,76625,9557,640251,11
63,0,705845,247366,1233155,73351,8821,616183,11
63,0,734279,256867,1348369,76180,9108,673871,11
63,0,711979,249858,1388940,74499,8723,693715,11
63,0,708726,247780,1399378,73510,8802,699332,11
63,0,713965,249692,1433892,74380,8940,716374,11
63,0,706602,246756,1517843,73192,9055,758488,11
63,0,709605,247545,1394046,73480,9076,696680,11
63,0,710700,250103,1367016,74632,9542,682867,11
63,0,704056,247123,1503374,73287,9134,751371,11
63,0,705321,247472,1299706,73421,8635,649558,11
63,0,707280,247450,1489579,73445,9172,744469,11
63,0,713011,249634,1437227,74412,9432,717988,11
63,0,704910,247057,1405980,73277,8668,702666,11
63,0,707109,247888,1321888,73587,8756,660563,11
63,0,708439,248135,1430220,73804,8706,714504,11
63,0,706012,246821,1308556,73207,8411,653978,11
63,0,711583,249123,1463251,74245,9210,731090,11
63,0,710308,247850,1465313,73525,9433,732337,11
63,0,707217,247143,1319171,73367,8903,659191,11
63,0,710718,247956,1418835,73578,9289,709116,11
63,0,711060,247808,1329120,73560,8928,664206,11
63,0,710340,249170,1335969,74209,8806,667535,11
63,0,707851,247704,1259186,73514,8553,629282,11
63,0,711328,248130,1423545,73661,9820,711406,11
63,0,705966,247284,1334783,73411,8918,666961,11
63,0,711682,248479,1381655,73778,8837,690457,11
63,0,709886,247343,1415802,73352,9163,707584,11
63,0,704900,247004,1383669,73254,9273,691460,11
63,0,705803,248076,1305731,73610,8134,652516,11
63,0,707732,247705,1547376,73526,9015,773304,11
63,0,705359,246641,1413924,73078,8985,706625,11
63,0,706449,247971,1298136,73615,8147,648719,11
63,0,706982,247453,1424770,73439,8905,712076,11
63,0,705687,247164,1308637,73246,7997,653970,11
63,0,709344,248143,1484906,73660,8820,742040,11
63,0,711798,249629,1375987,74431,8894,687485,11
63,0,710311,247857,1244420,73648,8918,621822,11
63,0,711511,248490,1311075,73725,9412,655218,11
63,0,707765,247055,1251956,73264,8471,625613,11
63,0,708017,247453,1335041,73397,9077,667207,11
63,0,708313,248046,1323758,73592,9066,661547,11
63,0,708116,247615,1237645,73498,8710,618449,11
63,0,710955,248274,1387498,73917,9738,693233,11
63,0,733596,255859,1336351,75816,9162,667921,11
63,0,710575,247529,1393293,73480,9826,696303,11
63,0,714017,250128,1342602,74532,8649,670742,11
63,0,708654,247312,1338517,73338,8326,668909,11
63,0,715473,249704,1379674,74355,9298,689288,11
63,0,709735,247778,1410175,73543,9536,704704,11
63,0,731081,252013,1358403,76711,9714,678863,11
63,0,711686,249424,1493635,74256,9430,746443,11
63,0,708862,247501,1313851,73464,9068,656564,11
63,0,708848,247150,1423985,73230,9230,711624,11
63,0,709901,247435,1309767,73432,9297,654527,11
63,0,711440,249349,1389166,74243,8968,693988,11
63,0,707138,247304,1480848,73392,8732,740141,11
63,0,709568,247618,1400497,73446,8739,699966,11
63,0,731346,252458,1377991,76847,10172,688650,11
63,0,714682,249293,1333688,74249,9282,666204,11
63,0,708851,247556,1293170,73440,9060,646254,11
63,0,708578,246963,1268525,73237,9116,633920,11
63,0,709327,248301,1349234,73720,9230,674338,11
63,0,730804,252766,1355003,76951,9586,677205,11
63,0,706337,246552,1322744,73136,9558,661013,11
63,0,709535,246935,1401114,73188,9710,700459,11
63,0,709764,248244,1290445,73714,8441,644822,11
63,0,709636,247465,1289566,73393,8098,644464,11
63,0,712816,248241,1397319,73701,9281,698333,11
63,0,737798,253434,1447733,77629,9800,723486,11
63,0,709245,247389,1496005,73356,9491,747746,11
63,0,712923,248341,1372707,73676,9414,686021,11
63,0,711255,247880,1314485,73581,9146,656854,11
63,0,709399,247183,1300308,73306,8610,649810,11
63,0,735134,252672,1409504,76944,9833,704390,11
63,0,712085,247264,1436946,73335,9101,718099,11
63,0,706375,248688,1407197,74020,8936,702996,11
63,0,704660,247826,1427113,73580,9510,713080,11
63,0,705996,248011,1350899,73615,9126,675087,11
63,0,726738,252401,1352981,76773,9980,676000,11
63,0,708704,249362,1449380,74326,9450,724141,11
63,0,706013,247825,1435813,73513,9313,717543,11
63,0,705972,247657,1359161,73461,9419,679184,11
63,0,707922,248095,1423969,73629,9683,711609,11
63,0,706121,247718,1387544,73524,8564,693311,11
63,0,704896,247143,1240981,73319,8584,620105,11
63,0,708056,247757,1361404,73528,9369,680322,11
63,0,709665,249533,1333423,74373,9074,666112,11
63,0,705297,247226,1413979,73316,8892,706670,11
63,0,706177,248121,1298208,73668,8219,648775,11
63,0,706286,247947,1415244,73738,8818,707100,11
63,0,707985,248273,1479687,73695,8721,739503,11
63,0,705017,246971,1345774,73239,8410,672613,11
63,0,728009,251840,1477946,76678,9127,738630,11
63,0,734963,257042,1495906,76239,9582,747460,11
63,0,704823,247329,1298491,73353,8314,648849,11
63,0,710936,249208,1367479,74188,8400,683255,11
63,0,706411,247687,1409130,73488,9169,703964,11
63,0,708455,247279,1317378,73397,8919,658290,11
63,0,709933,247368,1388235,73354,8836,693720,11
63,0,705377,247403,1283419,73375,8156,641380,11
63,0,712881,249973,1374253,74535,9050,686635,11
63,0,704659,247330,1399249,73292,8607,699336,11
63,0,705061,247141,1365384,73384,8679,682404,11
63,0,707763,247483,1492911,73407,8920,746130,11
63,0,712165,249237,1395081,74236,9045,696990,11
63,0,708359,247281,1334685,73400,9740,666976,11
63,0,704979,247224,1210830,73324,8154,605108,11
63,0,709105,247799,1232424,73597,8826,615793,11
63,0,706510,247378,1274694,73352,8424,637021,11
63,0,709826,247584,1353471,73477,9442,676326,11
63,0,711832,250254,1379145,74637,9228,688968,11
63,0,705691,247237,1427439,73260,8973,713433,11
63,0,711290,248620,1354794,74043,8725,676897,11
63,0,708236,247763,1449043,73545,8970,724030,11
63,0,705418,246698,1375004,73097,8180,687329,11
63,0,731064,252480,1364119,76857,9514,681751,11
63,0,714783,249887,1364092,74531,8722,681511,11
63,0,709533,247398,1387910,73373,9052,693662,11
63,0,710195,247664,1293589,73515,8843,646463,11
63,0,709643,248258,1308392,73642,8836,653831,11
63,0,713266,249086,1372272,74154,8898,685614,11
63,0,710244,247654,1298210,73491,9074,648703,11
63,0,711864,247948,1443271,73594,9376,721233,11
63,0,731453,252741,1481681,76938,9946,740235,11
63,0,710023,247432,1282178,73436,9123,640760,11
63,0,711204,247501,1376166,73387,9448,687683,11
63,0,705547,248050,1412282,73605,8855,705899,11
63,0,703603,246939,1298473,73181,8671,648931,11
63,0,727340,252598,1341165,76895,9389,670206,11
63,0,707534,247414,1404099,73393,9332,701681,11
63,0,704184,247438,1274705,73450,8441,636887,11
63,0,710232,248904,1293506,74091,8551,646302,11
63,0,708269,247784,1306566,73545,9019,652982,11
63,0,708604,247597,1234586,73449,8612,616964,11
63,0,707816,247986,1284340,73632,8964,641815,11
63,0,709223,247794,1397792,73525,9166,698567,11
63,0,710144,248139,1343679,73663,8802,671493,11
63,0,707698,247426,1410202,73399,8697,704776,11
63,0,708931,247895,1401290,73593,9126,700251,11
63,0,730999,252367,1372728,76831,9748,685941,11
63,0,708963,248345,1429663,73661,9077,714448,11
63,0,706201,247590,1287026,73498,8464,643188,11
63,0,706018,247156,1391798,73258,8838,695566,11
63,0,708279,247934,1370595,73599,8967,684983,11
63,0,707149,247479,1403154,73444,9076,701125,11
63,0,713352,249332,1354138,74330,9166,676552,11
63,0,707790,247193,1403649,73302,8766,701494,11
63,0,710659,247924,1303892,73600,9087,651439,11
63,0,709689,247032,1408400,73260,9616,703868,11
63,0,736618,257617,1431830,76669,9007,715196,11
63,0,708959,247609,1473851,73473,8778,736509,11
63,0,709131,247709,1357206,73476,8355,678165,11
63,0,708698,247393,1402749,73423,8796,701032,11
63,0,716158,250230,1338839,74668,9518,668831,11
63,0,708402,247115,1443772,73275,9191,721533,11
63,0,708637,246869,1414597,73182,9316,706917,11
63,0,710941,247644,1343410,73508,9269,671309,11
63,0,711682,247970,1323468,73594,9165,661317,11
63,0,704422,247127,1257824,73305,8437,628608,11
63,0,704357,246721,1362416,73189,9224,680865,11
63,0,713055,250199,1330345,74582,8768,664356,11
63,0,708009,247443,1437361,73330,8733,718295,11
63,0,713136,249314,1330850,74166,8481,664812,11
63,0,730875,252254,1384320,76758,10027,691730,11
63,0,708421,247195,1313940,73262,8773,656475,11
63,0,708786,247475,1395884,73369,9222,697412,11
63,0,717607,250149,1348392,74506,9405,673533,11
63,0,710211,247880,1553448,73543,11234,777262,11
63,0,708473,247543,1478191,73367,9553,738653,11
63,0,713597,249300,1341195,74099,9381,670000,11
63,0,711777,247941,1386671,73561,9637,692910,11
63,0,712866,248879,1335435,74109,9303,667093,11
63,0,710939,247436,1385485,73327,9500,692276,11
63,0,710262,247787,1305434,73447,8545,652361,11
63,0,711888,247389,1577930,73405,10871,787711,11
63,0,711288,248080,1422385,73575,10248,710676,11
63,0,710169,247413,1258033,73305,9514,628648,11
63,0,709249,247131,1335927,73258,9851,667470,11
63,0,733321,252377,1325505,76781,10382,662332,11
63,0,710995,247286,1403578,73279,9630,701465,11
63,0,713215,247844,1332415,73535,9194,665779,11
63,0,714548,248008,1620800,73535,10709,810173,11
63,0,705378,247380,1436087,73247,9426,717531,11
63,0,706865,247707,1287560,73478,8607,643319,11
63,0,708157,248269,1362893,73645,8893,681023,11
63,0,709966,248911,1327651,74045,8609,663221,11
63,0,706239,247121,1313037,73248,8378,656148,11
63,0,704710,247297,1429321,73265,9270,714326,11
63,0,706860,247603,1293787,73471,8296,646436,11
63,0,707924,247406,1425443,73363,8770,712291,11
63,0,707605,247991,1324516,73516,8254,661576,11
63,0,711109,248861,1370751,74012,8650,684668,11
63,0,706013,246964,1317625,73183,8473,658337,11
63,0,731262,252757,1383299,76882,8894,691340,11
63,0,709054,247307,1336830,73342,9071,668057,11
63,0,709890,248869,1344592,74029,8668,671647,11
63,0,708509,247641,1318663,73465,9063,658908,11
63,0,732221,252692,1294277,76873,9631,646678,11
63,0,708079,247529,1376375,73365,9055,687805,11
63,0,708821,247506,1491702,73449,10544,745024,11
63,0,711872,248446,1392796,73672,8520,695926,11
63,0,713184,248669,1391371,73963,9056,695082,11
63,0,710503,248135,1520300,73599,9482,759701,11
63,0,707555,247425,1488228,73372,8999,743730,11
63,0,757248,261444,1621145,79452,10177,810226,11
63,0,710373,247729,1576190,73367,9518,787576,11
63,0,708017,247182,1508251,73240,9662,753752,11
63,0,710221,247657,1579132,73460,9751,789001,11
63,0,711598,248233,1528693,73642,9934,763945,11
63,0,711564,247239,1500647,73342,9658,749818,11
63,0,710115,249246,1432391,74243,9127,715511,11
63,0,704773,246615,1417314,73152,8847,708223,11
63,0,709116,247910,1525077,73468,9279,762161,11
63,0,706983,247128,1476851,73243,8889,737942,11
63,0,711594,248787,1426670,74071,9131,712688,11
63,0,707565,247196,1471343,73296,8967,735218,11
63,0,710577,247263,1524413,73318,9473,761863,11
63,0,707647,247770,1364513,73608,9112,681533,11
63,0,707952,247286,1400668,73330,9562,699880,11
63,0,708432,246826,1458372,73099,9452,728816,11
63,0,709870,247715,1718267,73465,10232,858686,11
63,0,715444,249838,1430968,74410,9158,714953,11
63,0,709945,246966,1506910,73125,9844,753080,11
63,0,712576,249684,1421840,74289,8784,710177,11
63,0,707875,246906,1412750,73174,8931,706080,11
63,0,731606,252465,1529770,76798,9990,764437,11
63,0,709564,247760,1574136,73436,9586,786644,11
63,0,709436,247494,1396496,73403,9163,697717,11
63,0,710513,247564,1517617,73383,9704,758409,11
63,0,712068,247811,1528658,73439,9927,764008,11
63,0,711141,247449,1516360,73506,9512,757591,11
63,0,711283,246893,1560201,73229,9621,779682,11
63,0,712935,248521,1457496,73867,9869,728329,11
63,0,716222,249371,1428272,74309,9705,713595,11
63,0,712485,247556,1432334,73529,9982,715625,11
63,0,733932,251820,1417295,76671,10441,708164,11
63,0,715722,250221,1346615,74662,9283,672592,11
63,0,704860,246873,1393397,73287,9512,696257,11
63,0,706894,247188,1443756,73370,9537,721582,11
63,0,713440,249478,1515626,74331,8934,757157,11
63,0,706852,247115,1500190,73459,8940,749690,11
63,0,729638,251674,1546871,76728,9456,773093,11
63,0,708069,247431,1509343,73456,9233,754300,11
63,0,729835,251602,1509464,76563,9819,754330,11
63,0,714459,249708,1411616,74499,8691,705193,11
63,0,706563,247482,1520312,73534,9300,759812,11
63,0,730967,252569,1631868,76961,10046,815444,11
63,0,715006,249646,1435472,74483,8713,716894,11
63,0,708990,247314,1437203,73411,9017,717951,11
63,0,708036,246759,1524467,73229,9708,761861,11
63,0,712609,248540,1483490,73863,9146,741324,11
63,0,710458,247391,1457628,73502,9423,728332,11
63,0,711972,247576,1382698,73528,9519,690915,11
63,0,714343,249348,1576867,74482,9451,787783,11
63,0,737255,256353,1450625,76135,9124,724857,11
63,0,711510,247172,1425425,73465,8866,712250,11
63,0,713582,248392,1375815,73813,9208,687497,11
63,0,710934,247065,1318391,73363,8768,658936,11
63,0,711817,247364,1386192,73517,9231,692735,11
63,0,734425,252197,1460254,76857,10068,729741,11
63,0,713058,248024,1424172,73658,8933,711715,11
63,0,730406,251922,1455648,76742,9262,727524,11
63,0,712317,248244,1372360,73723,8585,685817,11
63,0,711688,247186,1395398,73441,8906,697486,11
63,0,709091,246915,1297056,73333,8301,648257,11
63,0,711765,247088,1426994,73356,8954,713097,11
63,0,708310,247051,1383471,73373,8626,691227,11
63,0,729697,251465,1332268,76630,9044,665673,11
63,0,716245,249867,1252311,74586,8490,625329,11
63,0,710777,247331,1302994,73474,8582,651084,11
63,0,717292,249756,1304399,74447,8442,651476,11
63,0,711693,247216,1360093,73470,8595,679703,11
63,0,710470,246544,1440203,73293,8659,719731,11
63,0,715020,249641,1319468,74594,8176,659090,11
63,0,711034,247229,1399527,73407,8003,699460,11
63,0,717677,249187,1308310,74289,7972,653708,11
63,0,713711,247867,1460155,73664,8326,729566,11
63,0,734199,251781,1440025,76747,9265,719611,11
63,0,719343,249708,1400352,74525,7738,699348,11
63,0,714584,247404,1517261,73477,7919,758302,11
63,0,699234,247490,1429688,73152,8520,714381,11
63,0,706890,250058,1292210,74156,8053,645460,11
63,0,699655,246838,1369005,72843,8053,684083,11
63,0,702805,247891,1385095,73286,7736,692178,11
63,0,702612,247489,1464850,73127,8432,731825,11
63,0,700458,247153,1288796,72923,8187,644056,11
63,0,701921,247549,1385628,73148,8457,692370,11
63,0,722250,252080,1459747,76398,9389,729579,11
63,0,707852,249704,1283851,74125,8217,640951,11
63,0,703296,247175,1331863,73008,8420,665447,11
63,0,702189,247370,1305487,73008,8586,652290,11
63,0,703464,247048,1227037,72942,7883,613201,11
63,0,703123,247938,1397597,73271,9220,698421,11
63,0,706496,249730,1428118,74074,9791,713187,11
63,0,699962,246797,1380229,72847,8907,689583,11
63,0,700598,246616,1371212,72795,8604,685288,11
63,0,702811,247587,1544500,73100,9143,771870,11
63,0,702668,247487,1381205,73100,8447,690197,11
63,0,725521,252229,1439520,76446,9050,719521,11
63,0,710402,249621,1374879,74147,8242,686678,11
63,0,701440,247286,1331762,73058,8432,665591,11
63,0,707483,248858,1337496,73755,8243,668197,11
63,0,729655,256272,1345845,75657,8362,672564,11
63,0,703541,247457,1500824,73115,9183,750017,11
63,0,707661,248621,1332402,73680,8414,665633,11
63,0,706484,248129,1405979,73267,8452,702643,11
63,0,708791,248026,1414854,73238,9013,707163,11
63,0,699814,247694,1387980,73207,8580,693594,11
63,0,703010,248375,1300432,73594,9104,649704,11
63,0,703616,248003,1413956,73248,9373,706612,11
63,0,706618,249233,1563628,73973,11332,780739,11
63,0,702747,247327,1305492,73113,8815,652128,11
63,0,701135,247263,1240425,73000,8515,619922,11
63,0,702974,247592,1302121,73149,9082,650695,11
63,0,724556,251921,1369151,76286,9143,684249,11
63,0,705866,248058,1298763,73276,8647,649059,11
63,0,706010,247750,1528392,73277,11029,763427,11
63,0,703245,247378,1363077,73032,9375,681116,11
63,0,704629,247075,1231924,72948,7891,615595,11
63,0,726805,252406,1347717,76509,9430,673527,11
63,0,707236,249587,1264702,74060,9236,631935,11
63,0,702950,247538,1326779,73083,9339,663055,11
63,0,702291,247136,1283562,72958,8475,641514,11
63,0,703031,247063,1327269,72932,8225,663339,11
63,0,704802,247317,1393066,73059,8417,696212,11
63,0,729594,252800,1481191,77072,9868,740215,11
63,0,706997,247696,1647678,73116,9827,823505,11
63,0,704124,247393,1403062,73067,8523,701317,11
63,0,706122,247848,1670320,73210,9756,834913,11
63,0,707992,247332,1401919,73027,8902,700726,11
63,0,700791,247525,1426708,73097,9187,712969,11
63,0,722391,251749,1518032,76293,9442,758637,11
63,0,702558,247378,1419033,73027,9158,709170,11
63,0,703294,247438,1427173,73125,8769,713309,11
63,0,705340,248505,1303712,73586,8768,651364,11
63,0,704359,246948,1319382,72900,8749,659348,11
63,0,709425,249860,1671227,74186,10837,834796,11
63,0,704659,247391,1305306,73067,8512,652273,11
63,0,700232,247003,1318292,72927,8816,658828,11
63,0,703293,247797,1530115,73255,10687,764070,11
63,0,709078,249461,1273834,73951,8819,636431,11
63,0,702949,247260,1261760,72983,8700,630527,11
63,0,702100,246864,1294132,72938,9001,646734,11
63,0,724626,251679,1340701,76261,9515,669998,11
63,0,711440,250102,1269194,74277,8826,633857,11
63,0,706781,247818,1258121,73244,8608,628638,11
63,0,728217,252019,1468780,76396,9724,733952,11
63,0,708912,248239,1314601,73365,8037,656975,11
63,0,705803,247236,1414785,73000,8256,707023,11
63,0,707859,247737,1382504,73143,8401,690992,11
63,0,702678,247531,1445901,73132,8956,722662,11
63,0,710223,249317,1315119,74778,9679,656970,11
63,0,706187,247375,1403478,73842,9508,701360,11
63,0,706778,247324,1333621,73943,9151,666466,11
63,0,709038,247920,1337264,74316,9203,668161,11
63,0,708875,248418,1392270,74277,9397,695725,11
63,0,707217,247568,1330265,73971,9026,664814,11
63,0,707799,247416,1422042,73904,9158,710685,11
63,0,707661,247621,1418125,73943,9685,708747,11
63,0,707937,247434,1327790,73862,8785,663615,11
63,0,712697,248076,1545955,74042,9756,772591,11
63,0,705742,247844,1367929,74032,8693,683565,11
63,0,706866,247342,1333197,73882,9950,666272,11
63,0,709864,248312,1324052,74164,9633,661636,11
63,0,708872,247871,1337785,74014,10543,668553,11
63,0,710185,247607,1462295,73835,10016,730854,11
63,0,710948,247728,1509537,74004,10381,754464,11
63,0,707567,247239,1516544,73825,10224,757932,11
63,0,730885,252096,1558191,77193,10580,778688,11
63,0,709146,247616,1526585,73913,10465,762959,11
63,0,711518,247607,1503213,73929,10086,751183,11
63,0,709002,247699,1406373,73984,9366,702809,11
63,0,724024,251963,1468787,77222,10717,734125,11
63,0,708873,249431,1410019,74859,9797,704504,11
63,0,703512,246472,1507445,73539,10199,753377,11
63,0,706876,248602,1431675,74500,9230,715294,11
63,0,708388,248546,1568500,74307,9303,783841,11
63,0,702942,246779,1394485,73651,9029,696906,11
63,0,709694,249500,1420800,74876,9399,709769,11
63,0,706478,247346,1488062,73849,10365,743606,11
63,0,705547,247191,1445095,73856,10481,722128,11
63,0,702981,246830,1516770,73718,9713,757957,11
63,0,705022,247837,1532676,74068,9365,766056,11
63,0,704971,247501,1514459,73955,9873,756825,11
63,0,703695,246680,1400513,73653,8392,699950,11
63,0,705446,247222,1490294,73910,9445,744800,11
63,0,713396,250465,1605609,75218,10690,802545,11
63,0,707512,247584,1527719,73980,10887,763071,11
63,0,706529,247369,1533571,73849,10311,766627,11
63,0,713109,249011,1480099,74576,10005,739479,11
63,0,704590,246918,1425777,73694,9563,712500,11
63,0,708510,247904,1521021,74050,9652,760133,11
63,0,712914,249722,1446236,74918,8672,722515,11
63,0,706433,247131,1462563,73737,8572,730810,11
63,0,707218,247224,1510710,73776,9720,755035,11
63,0,708385,247675,1505680,73980,9281,752357,11
63,0,711029,248004,1436792,74023,9208,717961,11
63,0,708936,247499,1521710,73915,9428,760547,11
63,0,709145,249404,1407214,74786,9556,702746,11
63,0,705145,247207,1399455,73779,9310,699378,11
63,0,707855,248615,1345794,74316,9442,672554,11
63,0,704606,246827,1466789,73673,9745,733085,11
63,0,709141,248954,1486551,74539,9939,742702,11
63,0,704816,247124,1537468,73873,9133,768328,11
63,0,728027,251745,1550110,77165,9654,774751,11
63,0,712474,249360,1450869,74830,9110,724750,11
63,0,705270,247516,1423350,73901,9391,711377,11
63,0,706122,247171,1504701,73856,9344,752034,11
63,0,710213,248941,1428267,74635,8736,713568,11
63,0,729042,252150,1582608,77243,10872,790850,11
63,0,708593,247584,1445019,73935,9808,722133,11
63,0,707827,246664,1531501,73631,9846,765563,11
63,0,707270,248152,1429764,74305,8596,714262,11
63,0,707455,247557,1558176,73979,9616,778658,11
63,0,707167,247651,1547476,73868,9203,773369,11
63,0,712076,248545,1428847,74485,9385,713809,11
63,0,709598,247939,1380382,74367,9603,689577,11
63,0,710195,247743,1461105,73984,9728,730187,11
63,0,709172,247290,1331693,73888,9300,665495,11
63,0,714049,248763,1529356,74358,9686,764357,11
63,0,710167,247532,1417341,73904,9053,708343,11
63,0,711245,247575,1497260,73973,9507,748272,11
63,0,703858,247193,1522777,73709,10081,761042,11
63,0,709567,248681,1418083,74490,8925,708566,11
63,0,708190,248335,1523526,74202,9786,761362,11
63,0,703313,246506,1415241,73521,9261,707331,11
63,0,727211,251755,1549447,77128,10459,774249,11
63,0,710738,248986,1391233,74706,9144,695079,11
63,0,708417,247618,1549280,73954,10016,774287,11
63,0,704172,247088,1508988,73781,9869,754239,11
63,0,705449,247231,1562835,73829,9688,780912,11
63,0,711493,248870,1430295,74580,9688,714575,11
63,0,709045,248544,1508185,74312,9561,753643,11
63,0,706454,247021,1397291,73752,8712,698367,11
63,0,729732,252590,1563998,77407,10616,781575,11
63,0,711843,249259,1409572,74748,9265,704452,11
63,0,707784,247314,1508599,73868,9621,753914,11
63,0,708476,247462,1438583,73953,9668,718838,11
63,0,710422,248297,1296509,74433,9495,647720,11
63,0,727058,251771,1544027,77148,10422,771704,11
63,0,708593,247140,1552125,73800,9330,775692,11
63,0,707219,247804,1421491,74113,9258,710249,11
63,0,705220,246549,1511295,73543,9271,755166,11
63,0,713604,249509,1450826,74760,9280,724847,11
63,0,709801,247733,1525634,74040,9044,762473,11
63,0,708303,246855,1400689,73714,8664,700027,11
63,0,713180,249681,1470844,74886,9570,734785,11
63,0,706775,246724,1450812,73662,9519,725075,11
63,0,708633,247489,1443608,73973,8772,721515,11
63,0,709700,247481,1507567,73901,8731,753531,11
63,0,713015,249344,1420498,74734,8790,709753,11
63,0,708397,247040,1504397,73764,9564,751843,11
63,0,709240,246791,1441461,73684,9312,720404,11
63,0,708714,247254,1520303,73913,8870,759679,11
63,0,705261,246996,1562638,73738,9855,781015,11
63,0,705893,247011,1509931,73760,9760,754615,11
63,0,707117,246958,1477172,73702,9837,738180,11
63,0,712169,248451,1418103,74239,9271,708696,11
63,0,707209,247786,1470826,74021,10255,735026,11
63,0,712127,249051,1433428,74612,9777,716190,11
63,0,707472,247149,1422340,73765,9239,710855,11
63,0,732182,252354,1574003,77323,10483,786790,11
63,0,713780,249314,1427593,74825,9560,713186,11
63,0,708375,247009,1517950,73766,9802,758584,11
63,0,710789,247969,1430205,74129,9474,714530,11
63,0,707959,246518,1493528,73545,9484,746535,11
63,0,711967,247923,1573372,74091,9515,786342,11
63,0,713882,248449,1464460,74464,9491,731719,11
63,0,707747,247876,1428059,74036,8771,713662,11
63,0,706464,246999,1490327,73803,9086,744775,11
63,0,727391,250990,1483972,76847,9949,741648,11
63,0,706329,246621,1488628,73631,9464,743894,11
63,0,710640,247957,1522173,74123,9288,760820,11
63,0,711475,248043,1537734,74006,9197,768484,11
63,0,710521,247473,1445123,73775,9846,722256,11
63,0,708721,246959,1483653,73624,9611,741503,11
63,0,710268,247077,1508206,73742,9841,753721,11
63,0,715393,248548,1444421,74339,10080,721679,11
63,0,713220,248210,1426816,74010,9507,713017,11
63,0,711860,247420,1438560,73835,9615,718940,11
63,0,733569,252414,1476147,77173,10609,737592,11
63,0,716699,249216,1368555,74672,9692,683665,11
63,0,715580,248342,1511662,74048,9613,755511,11
63,0,706993,247599,1418169,73891,8672,708710,11
63,0,702706,247354,1480713,73763,9442,740099,11
63,0,704117,247902,1504805,73980,9890,752072,11
63,0,705154,248097,1434290,74183,9772,716503,11
63,0,707382,248744,1487920,74253,10008,743615,11
63,0,704211,247260,1417693,73712,9868,708486,11
63,0,705570,247511,1480636,73849,10009,739895,11
63,0,706838,247655,1500067,73843,10024,749722,11
63,0,708860,247989,1492357,74002,10284,745814,11
63,0,705929,248252,1490742,74136,8867,745037,11
63,0,707421,247829,1495369,73985,9688,747331,11
63,0,705327,247448,1475472,73915,9499,737380,11
63,0,704577,247369,1527222,73804,8755,763340,11
63,0,705102,247300,1426786,73890,9079,713144,11
63,0,708122,248301,1409422,74210,9179,704400,11
63,0,705568,247043,1372165,73719,9098,685716,11
63,0,729508,252263,1506404,77251,9971,752860,11
63,0,711738,248991,1449293,74701,9282,723987,11
63,0,705991,247873,1521962,73998,9552,760673,11
63,0,704782,247034,1420478,73816,9068,709845,11
63,0,704594,246981,1494314,73760,9015,746793,11
63,0,711655,249077,1426878,74646,8838,712796,11
63,0,706364,247235,1457614,73848,8755,728444,11
63,0,708020,247641,1504930,74005,9291,752154,11
63,0,729514,252014,1550965,77223,10271,775209,11
63,0,708294,247076,1498144,73721,9283,748765,11
63,0,707601,247383,1517545,73881,9589,758491,11
63,0,731880,257171,1549817,76853,10454,774510,11
63,0,708248,248792,1424848,74566,9639,711885,11
63,0,705955,247444,1473098,73878,9265,736230,11
63,0,705963,247282,1437007,73686,9215,718160,11
63,0,711079,248556,1425685,74335,9305,712251,11
63,0,706702,247663,1417433,73824,9597,708447,11
63,0,712866,249798,1518065,74837,9557,758391,11
63,0,706889,247087,1544057,73682,9477,771813,11
63,0,709927,248096,1412909,74100,9370,706082,11
63,0,708395,247725,1396321,73983,9769,697689,11
63,0,707494,247447,1387751,73936,9665,693482,11
63,0,710343,247375,1349032,73954,9633,674161,11
63,0,710580,249447,1411262,74927,9211,705039,11
63,0,705595,247115,1513417,73792,8373,756441,11
63,0,708334,248058,1497915,74160,9628,748564,11
63,0,706135,246875,1494453,73716,9552,746922,11
63,0,707346,247293,1490225,73842,8781,744747,11
63,0,712580,249148,1429656,74685,9308,714226,11
63,0,708308,247650,1411056,73951,8611,705149,11
63,0,728877,251934,1558572,77204,9903,778815,11
63,0,712855,248932,1405778,74646,8412,702168,11
63,0,708192,248259,1401851,74210,8657,700564,11
63,0,709217,247557,1550765,73986,9348,775091,11
63,0,705753,246155,1415738,73561,9091,707522,11
63,0,730836,252145,1549067,77272,10461,774106,11
63,0,710849,247554,1502255,73934,9161,750799,11
63,0,710687,247604,1494714,73931,8907,747059,11
63,0,706770,248321,1452412,74054,9546,725816,11
63,0,706640,248046,1608257,73913,10995,803638,11
63,0,704670,247226,1552262,73704,10550,776023,11
63,0,707068,247671,1492506,73803,10021,745922,11
63,0,708511,247815,1366520,73855,9362,682915,11
63,0,706965,247344,1351177,73738,9276,675309,11
63,0,706268,247770,1497618,73891,9638,748502,11
63,0,708228,247759,1407933,73930,8951,703657,11
63,0,707333,246832,1435424,73512,8734,717366,11
63,0,709447,247863,1500549,73947,8864,749915,11
63,0,709067,247523,1429855,73853,8740,714638,11
63,0,711581,249344,1537283,74771,9724,767789,11
63,0,706434,247705,1452664,73905,9255,725886,11
63,0,706199,247165,1447383,73692,9347,723382,11
63,0,707014,247502,1537313,73849,9518,768269,11
63,0,711046,248711,1423569,74411,9062,711598,11
63,0,731882,252683,1580148,77265,9794,789690,11
63,0,712294,249391,1409185,74717,9185,703972,11
63,0,711211,248248,1523778,73985,9577,761533,11
63,0,709466,247257,1494525,73668,9200,746845,11
63,0,707524,247427,1484073,73735,9629,741741,11
63,0,712170,248868,1537415,74210,10181,768356,11
63,0,708500,247243,1420088,73674,9026,709695,11
63,0,729373,251622,1561660,76988,10478,780483,11
63,0,713046,249218,1412103,74793,9413,705435,11
63,0,710330,247676,1449529,73968,9747,724534,11
63,0,711123,247579,1332024,74044,9573,665569,11
63,0,727818,252187,1524181,77260,9961,761644,11
63,0,711319,249186,1414164,74730,8608,706664,11
63,0,710107,248430,1440035,74159,9312,719611,11
63,0,707349,247360,1500717,73896,9538,749921,11
63,0,709595,247399,1507625,73882,8995,753441,11
63,0,709332,247392,1405899,73941,9370,702625,11
63,0,725984,251466,1553503,77005,9875,776581,11
63,0,711333,249017,1435486,74724,9019,717004,11
63,0,709712,248025,1437861,74251,9375,718347,11
63,0,708504,247299,1539588,73889,9349,769468,11
63,0,710871,247832,1448371,74013,8254,723856,11
63,0,717900,250275,1495256,75197,9505,747067,11
63,0,708454,247985,1444965,74035,9220,722102,11
63,0,705681,246713,1427714,73626,8561,713651,11
63,0,711386,248760,1436847,74517,9553,717787,11
63,0,710554,247845,1496191,74029,9020,747769,11
63,0,735121,253154,1567213,78052,10684,783292,11
63,0,715657,249538,1496916,74838,9582,747814,11
63,0,709165,247108,1469271,73744,10098,734373,11
63,0,710458,247715,1390419,73999,9803,694765,11
63,0,709887,247617,1409849,73959,8880,704650,11
63,0,710508,247494,1335177,73918,8631,667154,11
63,0,716563,249312,1303385,74767,8664,651141,11
63,0,712615,248017,1402390,74096,9029,700836,11
63,0,703712,247252,1303480,73875,9196,651414,11
63,0,709547,249030,1320689,74797,9685,659756,11
63,0,705207,246918,1388468,73835,9960,693844,11
63,0,707455,247525,1330112,74035,9580,664650,11
63,0,709580,248026,1315793,74056,8957,657571,11
63,0,709698,248328,1393960,74223,8801,696606,11
63,0,711045,248580,1348980,74327,8080,674218,11
63,0,712156,248165,1347677,74276,8915,673384,11
63,0,715031,249918,1323472,75001,8974,661292,11
63,0,711427,249191,1436497,74630,9756,717935,11
63,0,730823,252796,1558516,77498,10700,779006,11
63,0,713290,249072,1369377,74369,9275,684355,11
63,0,710236,248045,1276693,74189,8508,637977,11
63,0,713445,248584,1290037,74301,8992,644551,11
63,0,712892,249299,1389887,74521,9047,694510,11
63,0,732427,252927,1472975,77470,10342,736177,11
63,0,717387,250266,1449182,75111,8886,724015,11
63,0,711468,248319,1399698,74258,9170,699356,11
63,0,710804,247669,1319974,73912,9028,659623,11
63,0,711386,248266,1325832,74238,9336,662566,11
63,0,730794,253015,1432829,77566,10506,715930,11
63,0,711128,248239,1460039,74214,9495,729339,11
63,0,711414,248526,1535974,74310,10181,767439,11
63,0,710222,247557,1487567,73889,9185,743191,11
63,0,717282,249861,1409567,75002,9787,704138,11
63,0,711024,248403,1427384,74286,10375,713296,11
63,0,711338,248488,1526555,74429,10160,762949,11
63,0,713801,249009,1315595,74472,8541,657453,11
63,0,714763,249308,1340887,74701,8959,670040,11
63,0,718036,250111,1345701,75216,9096,672231,11
63,0,715639,248197,1310675,74269,8739,654966,11
63,0,714017,248952,1517270,74514,9023,758305,11
63,0,711592,248215,1411375,74282,9361,705284,11
63,0,713772,248697,1269020,74495,9085,634159,11
63,0,716871,249997,1278075,75175,9558,638503,11
63,0,715694,249390,1315231,74751,9106,657279,11
63,0,713856,248420,1323661,74353,8598,661392,11
63,0,715838,248726,1348223,74457,9093,673650,11
63,0,713161,248809,1312970,74417,8521,656188,11
63,0,712170,248113,1329049,74217,8433,664144,11
63,0,734080,252514,1453898,77441,10167,726393,11
63,0,716577,249889,1332974,75130,9437,665865,11
63,0,718654,249418,1376688,74708,9237,687937,11
63,0,715961,248356,1336605,74310,9076,667922,11
63,0,712064,248957,1425381,74430,9344,712330,11
63,0,716349,250232,1334555,75124,8496,666729,11
63,0,710482,248308,1300644,74194,8834,650051,11
63,0,713281,249298,1382570,74555,9529,690847,11
63,0,713133,248918,1358583,74436,9038,678835,11
63,0,732766,253115,1430585,77583,10191,715001,11
63,0,714023,249019,1357163,74438,8508,678118,11
63,0,713699,248213,1318088,74155,8726,658694,11
63,0,716788,249000,1503630,74493,9628,751291,11
63,0,712973,248974,1375436,74393,8962,687329,11
63,0,734095,253221,1412152,77631,9795,705779,11
63,0,713412,248563,1402154,74279,9354,700752,11
63,0,716627,249842,1256596,74866,8701,627610,11
63,0,712533,248983,1314754,74538,9285,656002,11
63,0,717538,250043,1311095,75071,9547,654815,11
63,0,714336,248577,1401986,74334,9695,700621,11
63,0,715209,248399,1308739,74279,8691,653937,11
63,0,714876,248725,1410153,74381,9254,704684,11
63,0,718493,250153,1343632,75024,8884,671125,11
63,0,714582,248181,1390977,74144,9486,695026,11
63,0,737870,253186,1544843,77614,10823,771890,11
63,0,711959,249146,1437916,74443,9451,718548,11
63,0,710233,248282,1384839,74196,8431,691943,11
63,0,714071,249384,1321591,74782,8062,660222,11
63,0,717207,250249,1393245,75132,9176,695906,11
63,0,715739,249256,1311936,74481,9007,655617,11
63,0,710709,248225,1405622,74216,8983,702464,11
63,0,715601,249809,1292028,74905,8586,645423,11
63,0,711045,247871,1384079,74061,8736,691706,11
63,0,716607,249534,1301288,74576,8661,650298,11
63,0,736301,252998,1445207,77570,9858,722213,11
63,0,717545,250564,1310978,75347,8704,654768,11
63,0,716180,249130,1399545,74461,8893,699298,11
63,0,714179,248234,1490878,74172,8954,745060,11
63,0,718505,249501,1321966,74811,8650,660379,11
63,0,715510,249302,1419654,74556,9774,709406,11
63,0,711087,248068,1440048,74107,9405,719711,11
63,0,714088,249017,1262344,74428,9145,630763,11
63,0,714587,248798,1375352,74399,9814,687169,11
63,0,712225,247385,1390564,73867,9735,694705,11
63,0,714196,248434,1415369,74217,9259,707330,11
63,0,715472,248897,1408813,74444,9304,704069,11
63,0,714268,248123,1372405,74133,9649,685766,11
63,0,716630,249216,1500820,74523,9155,750048,11
63,0,720623,250030,1330881,75005,8941,664825,11
63,0,714535,246958,1371660,73804,8448,685317,11
63,0,704440,248087,1276305,74064,8266,637693,11
63,0,709037,249733,1307609,74877,8888,653387,11
63,0,706439,248042,1383286,74055,8511,691315,11
63,0,707703,248839,1381281,74422,8820,690226,11
63,0,728070,253096,1535469,77598,9958,767324,11
63,0,709941,248728,1409285,74373,9096,704275,11
63,0,710025,250121,1285310,75005,8712,642141,11
63,0,706834,248372,1373304,74246,9278,686160,11
63,0,730262,253145,1471232,77600,10699,735318,11
63,0,713794,250147,1404769,75126,9471,701516,11
63,0,710555,249348,1448381,74574,9120,723757,11
63,0,709702,248192,1366375,74137,8827,682744,11
63,0,710464,248833,1289756,74268,9473,644564,11
63,0,728646,253255,1365639,77558,9625,682300,11
63,0,713041,250502,1245860,75132,9174,622173,11
63,0,708675,248896,1343885,74275,8815,671572,11
63,0,710293,249141,1499034,74410,8918,749082,11
63,0,710757,248804,1305295,74292,8592,652028,11
63,0,730711,252622,1457135,77280,10030,728247,11
63,0,714000,250465,1322036,75077,9091,660359,11
63,0,711399,249609,1415561,74524,8377,707407,11
63,0,709262,248460,1478929,74180,8817,739020,11
63,0,734283,253519,1431401,77586,9716,715368,11
63,0,711320,248269,1399811,74047,8388,699608,11
63,0,713789,248883,1390791,74238,8555,694951,11
63,0,707832,248540,1315662,74059,8695,657489,11
63,0,707216,248588,1370535,74130,9269,684716,11
63,0,710362,249647,1347615,74676,8846,673284,11
63,0,709369,248637,1385058,74090,8965,692124,11
63,0,710679,248568,1406385,74138,9207,702749,11
63,0,716041,250076,1322191,74793,9118,660434,11
63,0,708752,248424,1387406,74043,8729,693321,11
63,0,710973,248890,1403993,74231,9167,701492,11
63,0,714735,250409,1403349,75046,8934,700870,11
63,0,710507,248528,1299560,74067,9558,649298,11
63,0,713206,249103,1329299,74288,9320,664093,11
63,0,711810,248255,1305237,73987,8716,652249,11
63,0,713110,250205,1309336,74931,9660,653768,11
63,0,710829,248648,1335812,74122,8776,667454,11
63,0,709075,248707,1350200,74178,8670,674620,11
63,0,711370,248891,1277797,74181,8172,638358,11
63,0,713069,249084,1297142,74320,9064,648109,11
63,0,713588,249417,1300591,74391,8205,649852,11
63,0,716976,250483,1312150,75013,8125,655409,11
63,0,708603,248208,1452522,74043,8972,725958,11
63,0,711500,248798,1392508,74272,8216,695744,11
63,0,715027,250116,1362991,74876,8821,680969,11
63,0,711167,248230,1373617,74095,8516,686340,11
63,0,730981,252471,1450862,77267,9648,725080,11
63,0,709592,247554,1485119,73802,9401,742146,11
63,0,712228,248165,1399608,74054,9395,699292,11
63,0,704760,247869,1330931,74119,8705,665063,11
63,0,707545,248698,1479098,74235,10135,738971,11
63,0,712759,249678,1325999,74737,8935,662250,11
63,0,710010,248143,1482329,74030,9579,740933,11
63,0,708651,248838,1479576,74226,9056,739475,11
63,0,729290,252865,1461190,77369,9625,730120,11
63,0,714098,250613,1346896,75185,9077,672345,11
63,0,713676,249959,1296175,74822,9195,647488,11
63,0,710265,248221,1331156,74051,9362,665384,11
63,0,710212,248045,1609430,74052,10525,804144,11
63,0,710800,250046,1561341,74994,10146,779785,11
63,0,708434,248101,1504674,74089,9519,752110,11
63,0,711568,248288,1567682,74115,10135,783404,11
63,0,713057,248917,1546918,74325,10311,773094,11
63,0,711302,248398,1522093,74136,9591,760697,11
63,0,712885,249140,1448672,74610,10103,723855,11
63,0,707727,248122,1531064,73977,10001,765267,11
63,0,729957,253026,1563446,77465,10969,781299,11
63,0,713158,249770,1432022,74875,9953,715336,11
63,0,710528,249367,1505357,74513,9387,751859,11
63,0,710693,248761,1392695,74467,9453,695755,11
63,0,710793,248696,1355530,74261,9544,677394,11
63,0,712284,249642,1415076,74856,9220,706853,11
63,0,712080,248610,1430570,74188,9016,715017,11
63,0,711591,248307,1520407,74136,9730,759841,11
63,0,714095,249829,1446315,74794,10008,722638,11
63,0,711709,248511,1563574,74214,9954,781500,11
63,0,709930,247400,1499655,73750,9183,749490,11
63,0,717602,249913,1442117,74928,9836,720497,11
63,0,714628,249725,1430090,74782,9453,714538,11
63,0,711092,248328,1484986,74156,9253,742155,11
63,0,713096,249212,1696384,74468,12040,847349,11
63,0,732427,252794,1624101,77400,11045,811692,11
63,0,713660,248588,1518451,74227,9701,758833,11
63,0,716434,249898,1620005,74939,10348,809441,11
63,0,712523,247830,1343821,73834,9933,671626,11
63,0,713058,248184,1386441,74106,9211,692812,11
63,0,702938,247474,1421669,73835,9226,710519,11
63,0,725621,251651,1533395,76955,10474,766363,11
63,0,706769,247882,1500875,73964,9939,750056,11
63,0,709313,248332,1487415,74082,8329,743377,11
63,0,707898,247924,1492972,73963,9936,746175,11
63,0,714440,249708,1418353,74801,8749,708654,11
63,0,707450,248080,1480155,74090,9415,739774,11
63,0,714625,249912,1428586,74895,9257,713754,11
63,0,710722,249044,1553122,74392,9425,776321,11
63,0,707864,248076,1689505,74074,10037,844377,11
63,0,709879,247954,1434101,73970,9506,716804,11
63,0,709992,248587,1402244,74180,9267,700765,11
63,0,710734,248095,1344703,74064,8761,672020,11
63,0,711379,248059,1467973,74069,9673,733549,11
63,0,712451,249546,1415221,74713,9524,707202,11
63,0,708746,248099,1541924,74104,9964,770567,11
63,0,713106,249056,1431000,74460,9212,714965,11
63,0,713258,248482,1500034,74149,9716,749602,11
63,0,714894,248486,1531536,74126,9713,765439,11
63,0,728257,252631,1581133,77310,10829,790403,11
63,0,711593,248995,1504557,74418,9377,751938,11
63,0,710777,248337,1423156,73934,9396,711173,11
63,0,760436,262343,1614645,80139,10867,807005,11
63,0,717429,250624,1433648,75198,9905,716128,11
63,0,711325,248794,1618138,74247,9993,808536,11
63,0,715781,250012,1415070,74768,8604,707044,11
63,0,738054,254484,1472904,77908,10529,736067,11
63,0,714219,248357,1402349,74214,9368,700752,11
63,0,716306,249444,1464008,74469,9641,731828,11
63,0,714949,250080,1637616,74703,10207,818422,11
63,0,717335,250775,1417383,75113,9368,708159,11
63,0,741452,254774,1574576,78542,10963,786903,11
63,0,716517,250789,1439887,75248,9553,719346,11
63,0,710594,247920,1485834,73968,9329,742593,11
63,0,713903,248839,1497149,74308,9053,748081,11
63,0,713753,248814,1417877,74285,9213,708642,11
63,0,713709,248552,1504602,74175,9194,751931,11
63,0,711701,247543,1542038,73826,10016,770721,11
63,0,714294,249028,1442592,74239,8797,720953,11
63,0,719006,249983,1432450,74779,9553,715735,11
63,0,714879,248836,1519517,74257,10305,759326,11
63,0,713040,247482,1534361,73768,9985,766736,11
63,0,731225,253214,1633485,77638,10329,816437,11
63,0,709779,248265,1491259,74171,9643,745284,11
63,0,707503,247166,1426754,73820,9057,713000,11
63,0,709713,247971,1429960,74071,9071,714563,11
63,0,711349,248855,1281522,74420,8898,640362,11
63,0,731868,252734,1350083,77470,9639,674639,11
63,0,716901,250222,1531188,75181,11725,764272,11
63,0,710485,248412,1292570,74221,8098,646004,11
63,0,712272,248530,1375574,74295,8213,687433,11
63,0,732664,252805,1429436,77470,9226,714452,11
63,0,712453,247866,1444510,74089,8703,721898,11
63,0,712679,249127,1391504,74468,8431,695424,11
63,0,711767,248865,1303391,74413,8296,651368,11
63,0,710996,248029,1391214,74124,9287,695299,11
63,0,712288,247832,1449500,74014,8599,724371,11
63,0,712870,248927,1320561,74415,8677,659945,11
63,0,712805,248318,1392077,74201,8777,695685,11
63,0,714035,248528,1395368,74295,8289,697339,11
63,0,712492,247359,1308085,73821,7869,653612,11
63,0,734519,252001,1432186,77149,10273,715693,11
63,0,710653,248221,1304140,74111,9122,651698,11
63,0,711900,248842,1290671,74380,8834,644957,11
63,0,712171,248567,1311166,74270,9252,655160,11
63,0,715293,249499,1236174,74780,8295,617671,11
63,0,711372,247786,1382992,73972,8872,691124,11
63,0,711760,248711,1393489,74274,8221,696503,11
63,0,711823,248316,1481184,74114,8993,740200,11
63,0,733547,252532,1562672,77269,9008,781019,11
63,0,717301,250494,1432989,75166,8403,715770,11
63,0,716217,248900,1404658,74238,9502,702004,11
63,0,736355,256669,1346341,76519,8586,672750,11
63,0,713432,248945,1380096,74293,9088,689766,11
63,0,715665,249530,1362230,74672,8734,680618,11
63,0,713348,248515,1420341,74131,9204,709885,11
63,0,712826,247984,1401476,73938,9204,700433,11
63,0,714234,248538,1296173,74165,8439,647704,11
63,0,737626,253740,1431020,77609,10063,715252,11
63,0,718653,250432,1409522,75069,9337,704112,11
63,0,714812,248359,1452383,74110,9097,725786,11
63,0,719508,249410,1317629,74636,9312,658295,11
63,0,708535,247578,1375411,73875,8775,687279,11
63,0,711559,248107,1417317,73970,8506,708341,11
63,0,736041,253795,1403914,77662,9035,701654,11
63,0,713055,247925,1407221,73971,8727,703232,11
63,0,715230,248506,1413465,74156,9183,706401,11
63,0,715017,247979,1386579,73952,9027,692929,11
63,0,714008,248468,1384546,74192,9205,691922,11
63,0,719196,249443,1376409,74457,9776,687856,11
63,0,716177,249154,1301059,74535,8984,650005,11
63,0,716372,248475,1311832,74137,9500,655449,11
63,0,737257,252672,1449574,77338,10271,724504,11
63,0,720286,249777,1332328,74851,8727,665601,11
63,0,711401,247752,1392634,73845,8272,696027,11
63,0,704682,246230,1452725,73391,9462,726058,11
63,0,706209,247526,1375623,73822,9201,687435,11
63,0,715387,250231,1366648,74972,8412,682808,11
63,0,708224,247768,1379657,73911,8818,689417,11
63,0,709873,248251,1352042,74075,9329,675722,11
63,0,714376,249466,1332935,74656,9141,666096,11
63,0,706671,247710,1393104,73850,9757,696217,11
63,0,708272,248451,1288948,74072,8947,644103,11
63,0,707642,247424,1485847,73752,9251,742596,11
63,0,710400,248237,1311279,74034,8898,655320,11
63,0,711768,248990,1318429,74482,8674,658716,11
63,0,709804,247906,1357539,73961,8673,678391,11
63,0,712934,248902,1233449,74267,8463,616343,11
63,0,732332,252245,1338948,77180,9282,669113,11
63,0,708830,247749,1340218,73874,9123,669695,11
63,0,708389,247247,1397339,73627,9101,698343,11
63,0,711719,248375,1296555,74096,9117,647971,11
63,0,732847,252649,1443723,77271,10403,721572,11
63,0,715496,249568,1336995,74759,9089,668043,11
63,0,706697,248166,1316992,74007,9132,658228,11
63,0,705435,247345,1458241,73715,9204,728794,11
63,0,711464,249118,1410382,74519,8800,704685,11
63,0,707447,248097,1387429,74024,8632,693350,11
63,0,710497,248256,1323077,74061,8719,661183,11
63,0,711940,249609,1342946,74793,8846,670899,11
63,0,711553,248426,1406684,74112,9127,702987,11
63,0,707655,247834,1485392,73927,8493,742408,11
63,0,710636,248355,1322545,74097,8323,660924,11
63,0,715045,249850,1328629,74822,8869,663733,11
63,0,708935,248037,1411539,74008,8857,705333,11
63,0,709166,247515,1311706,73774,8069,655500,11
63,0,713610,248794,1405799,74187,8950,702522,11
63,0,714022,249239,1318101,74570,8560,658597,11
63,0,710743,247646,1371512,73873,8989,685244,11
63,0,711552,247479,1436144,73781,8767,717805,11
63,0,709619,247732,1282812,73898,8419,640994,11
63,0,711552,248466,1248786,74186,8326,624018,11
63,0,734375,253106,1347302,77431,9470,673391,11
63,0,716570,249427,1307442,74709,8951,653149,11
63,0,709060,247612,1423780,73858,8668,711481,11
63,0,713103,248765,1374207,74268,8782,686736,11
63,0,710182,247363,1348105,73854,9005,673825,11
63,0,709897,247167,1394293,73731,8727,696859,11
63,0,709699,247007,1386240,73675,8973,692767,11
63,0,711988,247414,1443583,73890,9290,721228,11
63,0,707170,248709,1390270,74291,8127,694805,11
63,0,712613,249801,1309723,75019,8493,654203,11
63,0,705468,246749,1365811,73666,8579,682656,11
63,0,708277,247898,1395243,74066,8348,697216,11
63,0,705839,246668,1290836,73557,7968,645115,11
63,0,705489,247204,1392993,73806,8872,696120,11
63,0,708699,248145,1296533,74131,8541,647951,11
63,0,708350,247226,1360450,73789,9281,679855,11
63,0,708672,247701,1305790,73959,8606,652544,11
63,0,708203,247094,1402114,73857,8256,700787,11
63,0,709635,247195,1499035,73894,9061,749110,11
63,0,729456,251686,1371892,77201,9870,685589,11
63,0,710719,249166,1223677,74872,8576,611148,11
63,0,707117,247100,1353758,73830,9704,676359,11
63,0,709019,247476,1512192,74040,11826,755711,11
63,0,708550,247438,1587099,73993,10408,792963,11
63,0,711221,248046,1658269,74237,9988,828739,11
63,0,713092,248797,1517153,74769,10789,757539,11
63,0,708787,246690,1480563,73775,9825,739873,11
63,0,707902,247037,1574335,73938,11244,786691,11
63,0,708879,247483,1458999,74038,10493,729089,11
63,0,709476,247569,1496348,74246,10123,747574,11
63,0,708533,247129,1473120,73962,9349,736150,11
63,0,711567,247737,1512639,74149,10835,755870,11
63,0,730211,251978,1656365,77331,11266,827754,11
63,0,711863,247473,1555607,74011,10234,777536,11
63,0,710058,248415,1477977,74576,10457,738350,11
63,0,707969,247488,1520594,74041,11222,759915,11
63,0,707828,247111,1443426,73932,9376,721342,11
63,0,709533,247160,1308581,73993,9184,653964,11
63,0,711385,247196,1355333,73943,10249,677260,11
63,0,706975,247464,1304059,74097,9102,651406,11
63,0,728488,251668,1390186,77241,10330,694720,11
63,0,712875,248828,1315477,74804,9282,657073,11
63,0,711081,247488,1367737,74045,9162,682967,11
63,0,711115,247825,1574190,74197,9857,786695,11
63,0,709227,246862,1376896,73873,9596,687966,11
63,0,708315,247294,1488296,74086,9223,743745,11
63,0,711853,247683,1532901,74170,8647,766057,11
63,0,731834,251933,1499239,77335,11149,749335,11
63,0,717195,249737,1424122,75066,10337,711731,11
63,0,711413,248058,1451311,74282,9126,725167,11
63,0,712900,248448,1317016,74636,8268,658020,11
63,0,709938,246994,1388337,73934,8809,693636,11
63,0,709437,246833,1521247,73841,10582,760565,11
63,0,710597,246976,1353125,73869,9256,674935,11
63,0,713309,247453,1440101,74031,10211,719468,11
63,0,718744,249239,1363594,74829,9793,681371,11
63,0,706841,247850,1329936,74162,9967,664772,11
63,0,705306,247283,1274663,74022,10010,637027,11
63,0,729453,252591,1364296,77556,10653,681879,11
63,0,712223,249605,1410938,75105,9967,704850,11
63,0,711320,248496,1418549,74605,9276,708143,11
63,0,704309,246352,1391950,73727,9827,695517,11
63,0,709611,247307,1424457,74031,10027,712074,11
63,0,708963,247519,1496626,74030,9134,747963,11
63,0,708891,247538,1448732,74049,9309,723755,11
63,0,713285,249016,1317908,74770,9377,658321,11
63,0,707958,247448,1381536,74066,9350,690442,11
63,0,708335,247216,1473201,73942,9902,736567,11
63,0,708709,247018,1378321,73966,9488,689121,11
63,0,730577,252131,1477807,77379,10366,738696,11
63,0,713994,248908,1463143,74751,9679,731020,11
63,0,709823,246653,1397102,73768,9794,698276,11
63,0,710204,248593,1538853,74659,9414,768465,11
63,0,709853,248040,1407744,74277,9188,703133,11
63,0,711215,248577,1404501,74707,9473,701665,11
63,0,707926,246827,1374067,73822,9281,686728,11
63,0,709620,247531,1519405,74098,9753,759318,11
63,0,708797,246875,1384988,73795,9164,692191,11
63,0,708332,246789,1475528,73801,9166,737250,11
63,0,709059,247701,1277731,74166,8441,638238,11
63,0,731102,251940,1380151,77348,10331,689650,11
63,0,709170,247287,1362327,73966,8896,680766,11
63,0,709451,247288,1480535,74010,8934,740019,11
63,0,710502,247266,1404763,73943,9026,701864,11
63,0,710265,247207,1428813,73993,9138,714201,11
63,0,713681,248237,1434781,74518,9113,717142,11
63,0,713838,249652,1454813,75119,9771,726485,11
63,0,705572,246640,1425479,73773,9021,712379,11
63,0,711036,247717,1397741,74065,9251,698582,11
63,0,709908,248037,1417745,74471,9732,708190,11
63,0,709024,247111,1407550,73961,9619,703271,11
63,0,711447,247978,1350947,74232,9476,675081,11
63,0,730257,251414,1481093,77121,10020,740240,11
63,0,714288,249296,1559191,74964,10021,778926,11
63,0,707362,246786,1419889,73873,10221,709509,11
63,0,710095,247563,1400165,74109,9446,699733,11
63,0,708143,246991,1454825,73904,9735,727059,11
63,0,709580,247101,1373544,73965,9686,686277,11
63,0,732408,251763,1500794,77276,10950,749605,11
63,0,712413,248595,1438891,74636,9970,718767,11
63,0,708503,246753,1383998,73791,10585,691677,11
63,0,729445,251186,1361521,77040,10446,680283,11
63,0,711600,247502,1346613,74076,10145,672815,11
63,0,716938,248833,1432834,74706,9849,715979,11
63,0,708923,246803,1492398,73809,10261,745721,11
63,0,712907,247993,1407939,74249,9522,703232,11
63,0,715771,249073,1459473,74868,10502,728873,11
63,0,711583,247047,1418646,73896,9540,708908,11
63,0,714172,248246,1428555,74346,10091,713905,11
63,0,716466,248743,1495155,74699,10432,747073,11
63,0,713512,249762,1468511,75148,10122,733698,11
63,0,706833,246717,1556886,73798,9917,777605,11
63,0,710242,248409,1457067,74526,9653,727909,11
63,0,706994,246581,1514613,73754,9644,756925,11
63,0,710918,247745,1526458,74459,9609,762360,11
63,0,706469,246953,1469171,73750,9682,734137,11
63,0,710878,247947,1469115,74106,9623,734252,11
63,0,711109,247134,1443284,73797,9796,721179,11
63,0,733113,252823,1512822,77494,10003,756068,11
63,0,717101,249764,1547554,74959,9882,773101,11
63,0,711728,247425,1341424,73954,9237,670129,11
63,0,710446,247718,1402017,74062,9912,700680,11
63,0,709922,247499,1349737,73991,9408,674377,11
63,0,712202,248143,1493435,74192,9610,746355,11
63,0,715064,248681,1446561,74532,10403,722505,11
63,0,709433,247087,1485099,73808,10284,742239,11
