0,-1,718375,248326,1265747,73620,8742,632865,0
0,-1,718684,248467,1240895,73736,8481,620371,2
0,1,753470,264567,1356333,78017,9091,677688,0
0,1,764439,268247,1506795,79449,9577,753329,1
0,-1,683884,235157,1347604,72303,8329,673838,0
0,1,704899,246818,1296889,73247,8517,648420,0
0,-1,667177,230405,1375794,68805,8752,687923,0
0,-1,666888,231381,1363001,69369,8182,681502,0
0,-1,663405,229598,1351907,68643,8150,675988,0
0,1,713525,249997,1319746,74551,9302,659784,0
0,-1,672759,232825,1389006,70012,8406,694657,0
0,1,705698,247409,1411825,73623,9435,705897,0
0,-1,667353,230059,1340790,68689,8984,670164,0
0,-1,667857,230767,1407173,69140,8902,703643,0
0,1,704808,247744,1415320,73609,8712,707685,0
0,-1,670223,230243,1317159,68919,8930,658625,0
0,-1,663886,230171,1253207,68890,8340,626213,0
0,1,710771,248836,1721776,74008,11331,860491,0
0,-1,668981,232319,1325395,69815,8919,662672,0
0,1,708672,248601,1253391,73909,8436,626746,0
0,-1,671827,232928,1253738,69925,8469,626754,0
0,1,710343,248681,1295561,73745,9104,647632,0
0,-1,668361,231668,1377868,69491,8868,688784,0
0,-1,666077,231062,1327200,69098,8155,663303,0
0,1,710104,248730,1407536,73873,9132,703593,0
0,-1,670203,231246,1338851,69197,8907,669331,0
0,1,707950,247617,1320361,73521,9763,660109,0
0,-1,665468,231442,1338109,69160,9043,668329,0
0,1,717511,249707,1433088,74108,9421,716551,0
0,-1,668390,231416,1344865,69184,7630,672397,0
0,-1,668206,231470,1270003,69103,9252,634883,0
0,1,708552,247345,1356462,73366,8304,678265,0
0,-1,671474,232153,1385990,69530,8786,692836,0
0,1,710209,246702,1313353,73057,8898,656638,0
0,-1,674692,233055,1457608,69967,9357,728681,0
0,-1,672650,231975,1268285,69197,9651,634049,0
0,1,709459,249071,1390352,73565,8326,695240,0
0,-1,667922,231621,1218357,69227,7964,609225,0
0,1,723226,251577,1322730,76957,9710,661391,0
0,-1,669712,231006,1388918,69022,8772,694187,0
0,-1,669984,230596,1360483,68919,9445,680245,0
0,1,715170,248654,1349982,74522,9835,674467,0
0,-1,669321,230753,1246025,68935,8239,622872,0
0,1,717477,250120,1317756,74952,8830,658790,0
0,-1,665213,229921,1238094,68593,7282,619052,0
0,-1,670722,230326,1348908,68480,9020,674353,0
0,1,716565,248784,1300862,74369,8702,650396,0
0,-1,663475,230036,1242592,68591,7454,621345,0
0,-1,690358,235452,1475105,72209,9930,737241,0
0,1,714996,248731,1446672,74308,9318,723343,0
0,-1,663838,230157,1150501,68664,7188,575289,0
0,-1,667467,231443,1283396,69106,8156,641378,0
0,1,716659,250464,1414961,74961,8894,707554,0
0,-1,668050,230406,1225279,68791,8262,612645,0
0,1,712290,248459,1301470,74032,8523,650851,0
0,-1,667665,230358,1344784,68765,8490,672082,0
0,1,712987,248450,1313675,74064,9214,656848,0
0,-1,660122,230115,1266688,68217,7255,633314,0
0,-1,664738,229979,1333788,68278,7994,666937,0
0,1,705446,246907,1302681,73759,9182,651341,0
0,-1,685094,234608,1309691,72459,9254,654844,0
1,-1,716301,248854,1298417,73887,8025,649245,2
1,-1,662805,229948,1334305,68733,8042,667280,0
1,1,701985,247738,1328385,73595,9093,664002,1
1,1,705616,246979,1447630,73318,9246,723768,0
1,-1,666145,229890,1309451,68640,8105,654772,0
1,-1,663717,230507,1315453,68906,7415,657774,0
1,-1,662230,229587,1240364,68604,7223,620252,0
1,1,708903,247341,1449702,73393,10032,724443,0
1,-1,667206,230501,1234909,68966,7739,617488,0
1,1,706028,247917,1377937,73745,9137,688926,0
1,-1,669893,231377,1277420,69160,8964,638231,0
1,-1,686721,235020,1335057,72302,9398,667492,0
1,1,707122,248173,1379638,73720,8647,689815,0
1,-1,672362,231446,1320392,69524,9141,660098,0
1,-1,669351,232658,1335262,69992,8790,667401,0
1,1,706770,247659,1351543,73597,8851,675807,0
1,-1,667720,230550,1376741,69025,8290,688447,0
1,1,712427,250641,1483494,74804,10180,741624,0
1,-1,666656,231593,1223994,69322,7636,611969,0
1,1,706743,248243,1283557,73790,9222,641681,0
1,-1,668169,231413,1325204,69272,8406,662736,0
1,-1,669954,232415,1438009,69822,8825,718748,0
1,1,708072,248597,1399565,73804,9487,699690,0
1,-1,672533,231926,1379804,69591,9039,689803,0
1,1,709536,248188,1400634,73650,8923,700115,0
1,-1,663444,230931,1299802,69112,8660,650189,0
1,1,712565,248351,1398323,73567,9148,699207,0
1,-1,667691,231459,1451544,69240,8832,725393,0
1,-1,691438,235746,1208740,72340,8305,604445,0
1,1,710475,247884,1281108,73517,8909,640601,0
1,-1,668329,231143,1298382,68953,8340,649175,0
1,1,712731,248150,1291538,73630,8703,645749,0
1,-1,669769,231463,1290509,69144,8385,645237,0
1,-1,696823,236783,1261366,72599,9758,630520,0
1,1,704100,247511,1453748,72926,8355,726923,0
1,-1,665926,231015,1535782,69003,10799,767791,0
1,1,713664,249403,1220273,74682,8222,610192,0
1,-1,670920,232535,1331281,69718,8717,665702,0
1,-1,670086,231008,1263532,69110,8828,631658,0
1,1,708997,247084,1453911,73710,9972,726955,0
1,-1,668074,230588,1330785,68819,9018,665427,0
1,1,731977,251965,1490075,77042,10054,745082,0
1,-1,667346,231282,1249220,69131,7570,624662,0
1,-1,692087,236131,1391149,72247,9099,695624,0
1,1,709515,247305,1325357,73681,8427,662660,0
1,-1,694149,239903,1380436,71544,8746,690255,0
1,-1,670511,230628,1493977,68857,9192,746964,0
1,1,713856,248379,1342655,74123,8472,671359,0
1,-1,669486,230378,1231227,68763,7839,615620,0
1,-1,667024,229705,1386539,68468,8608,694193,0
1,1,731175,252809,1428086,77310,9684,714045,0
1,-1,669360,230150,1258018,68661,8313,628884,0
1,1,718602,251046,1325165,75087,9689,662385,0
1,-1,667199,230381,1517655,68738,8508,758810,0
1,1,708918,247327,1379195,73605,9298,689636,0
1,-1,661144,230171,1343425,68203,7364,671760,0
1,-1,663554,229790,1267989,68183,6837,634072,0
1,1,704605,247436,1377222,73963,8822,688625,0
1,-1,665979,229908,1181200,69010,8439,590623,0
2,-1,662989,230293,1215195,68890,7646,607640,0
2,-1,661598,229674,1291166,68652,7765,645436,2
2,1,708178,248880,1606217,74124,10219,802546,0
2,-1,664938,229628,1263252,68514,7780,631616,0
2,-1,661426,229716,1212833,68682,8064,606462,0
2,1,708197,247941,1407355,73711,9453,703719,1
2,-1,664274,230209,1317273,68839,7895,658684,0
2,1,709493,247785,1388323,73537,9130,694227,0
2,-1,675214,232991,1283000,69854,7419,641613,0
2,1,706584,248115,1370028,73845,9291,685004,0
2,-1,671188,231779,1407518,69441,8979,703807,0
2,-1,664679,230219,1201803,68914,7724,600957,0
2,1,707436,248544,1376769,73896,9513,688277,0
2,-1,669957,230798,1212734,69137,8468,606100,0
2,-1,685941,235514,1310158,72482,9655,654918,0
2,1,706027,247980,1343581,73641,9083,671888,0
2,-1,666771,230845,1400785,69157,8390,700097,0
2,1,726458,252474,1536100,76934,11239,768072,0
2,-1,664528,231065,1210078,69100,8495,604962,0
2,1,710592,248020,1460946,73627,11441,730511,0
2,-1,665695,230801,1303074,69046,8400,651521,0
2,-1,667895,232387,1348019,69743,8686,673893,0
2,1,709361,248529,1381898,73751,9694,690801,0
2,-1,669330,231050,1297088,69157,7914,648376,0
2,1,712237,249727,1403287,74400,9479,701525,0
2,-1,665771,231813,1357979,69557,8890,678757,0
2,1,711707,248193,1447419,73431,9834,723747,0
2,-1,669908,232060,1356858,69586,9542,677829,0
2,1,708026,247045,1257103,73217,8138,628566,0
2,-1,666634,230623,1460624,68884,8179,730000,0
2,-1,668112,230637,1388175,68792,9584,694000,0
2,1,706328,246109,1346066,72973,8794,672985,0
2,-1,671639,232644,1331355,69741,8655,665704,0
2,-1,674354,232100,1276620,69222,9566,638304,0
2,1,702171,247125,1345640,72758,8626,672865,0
2,-1,673533,233376,1329330,70027,8594,664683,0
2,1,707311,247339,1305762,73854,8449,652938,0
2,-1,668105,231562,1341390,69181,8889,670580,0
2,-1,671107,231887,1343776,69577,9393,671913,0
2,1,712443,248182,1380857,74050,9616,690386,0
2,-1,688734,235062,1303716,72077,9047,651700,0
2,1,712440,249446,1267912,74599,8123,634018,0
2,-1,666590,230040,1353561,68611,8404,676829,0
2,-1,671557,230630,1336744,68627,8661,668433,0
2,1,732638,252621,1410047,77256,9282,704928,0
2,-1,671093,232014,1325069,69529,8392,662576,0
2,-1,669237,230511,1269693,68781,9032,634764,0
2,1,715529,249939,1285958,74875,8356,643048,0
2,-1,667825,229744,1307740,68486,7993,653920,0
2,-1,690408,235698,1313509,72294,8485,656763,0
2,1,716356,249232,1351268,74515,8919,675392,0
2,-1,671738,230932,1321359,68899,8636,660592,0
2,1,711532,248547,1349400,74152,9045,674632,0
2,-1,665397,230024,1474309,68597,8485,736828,0
2,1,711165,248825,1378234,74188,9212,689315,0
2,-1,658674,229699,1276634,68029,7158,638283,0
2,-1,665307,230742,1387318,68513,7896,693703,0
2,1,708316,248821,1359057,74663,8145,679567,0
2,-1,664786,230077,1215976,69172,8654,608036,0
2,-1,664873,230513,1265347,69306,8307,632741,0
3,-1,679765,236742,1254470,70583,8852,627223,0
3,-1,661681,230176,1208416,68823,7486,604062,2
3,1,723491,251917,1505490,76762,10315,753170,0
3,-1,670805,232303,1351606,69613,9034,675712,0
3,-1,665984,230640,1331614,68933,7823,665886,0
3,1,705226,247534,1306717,73483,8594,653459,1
3,-1,661801,229764,1189944,68598,7331,595049,0
3,1,709674,248099,1396839,73671,9855,698460,0
3,-1,669906,231336,1205696,69123,8004,602805,0
3,1,703453,247579,1381010,73681,9030,690308,0
3,-1,667828,230649,1251052,68927,8433,625571,0
3,-1,669468,232294,1359823,69800,9113,679848,0
3,1,705518,247719,1411477,73586,8682,705547,0
3,-1,668314,230189,1421477,68909,9031,710698,0
3,-1,663296,230812,1332015,69041,8457,665957,0
3,1,706123,248428,1441674,73820,9830,720869,0
3,-1,668764,231974,1326767,69770,7984,663326,0
3,1,710188,248567,1448113,73841,9718,724094,0
3,-1,687128,235104,1248030,72243,10100,623814,0
3,1,709699,247891,1381938,73514,9430,691034,0
3,-1,665838,231414,1388986,69243,8737,693919,0
3,-1,664884,231713,1324073,69364,9062,661908,0
3,1,713304,249321,1360565,74039,8917,680194,0
3,-1,667640,230522,1328207,68883,8695,664152,0
3,1,707300,248194,1318972,73593,9035,659513,0
3,-1,670626,231378,1386281,69245,9402,693721,0
3,1,710855,248353,1353564,73532,9977,676825,0
3,-1,667192,231082,1318268,69089,9543,659103,0
3,-1,665944,230553,1292821,68911,7969,646932,0
3,1,709968,248823,1360978,74016,8035,680543,0
3,-1,688594,235636,1363802,72279,9092,681808,0
3,1,709139,247557,1348461,73436,8154,674208,0
3,-1,668436,231019,1554256,69059,10919,776773,0
3,-1,674358,232352,1297982,69359,8862,648884,0
3,1,702750,247511,1347432,72877,8891,673756,0
3,-1,691240,236953,1339365,72752,9692,669460,0
3,1,707494,247351,1342848,73821,8700,671484,0
3,-1,666534,230283,1345436,68721,9112,672526,0
3,-1,670596,231146,1341856,69147,8730,670878,0
3,1,713136,248190,1490188,74090,9956,745095,0
3,-1,666971,230806,1350656,68964,8704,675270,0
3,1,713185,249212,1286612,74464,8583,643364,0
3,-1,689797,235925,1275521,72423,8547,637792,0
3,-1,671738,231123,1238647,68841,8384,619382,0
3,1,711877,248595,1291733,74122,8728,645843,0
3,-1,689150,235334,1347109,72172,8598,673524,0
3,-1,671467,231603,1292838,69317,7980,646770,0
3,1,715141,249969,1239014,74866,8766,619567,0
3,-1,668247,230293,1203286,68744,7518,601677,0
3,-1,666949,230331,1288232,68746,7186,644160,0
3,1,714573,249352,1285600,74306,8405,642876,0
3,-1,674836,232526,1287522,69658,8127,643545,0
3,1,737612,257840,1511389,76779,9373,755590,0
3,-1,692525,234839,1392638,72014,10005,696089,0
3,1,707033,247839,1257427,73858,9440,628705,0
3,-1,680258,235007,1302544,71613,8464,651279,0
3,-1,663693,230421,1290464,68417,7730,645294,0
3,1,703336,247479,1261865,74032,8595,631029,0
3,-1,666053,230246,1178619,69258,8577,589269,0
3,-1,670233,232613,1214278,70148,8405,607199,0
4,-1,726974,250527,1317376,74564,9923,658750,0
4,1,704715,247866,1493164,73642,10390,746737,0
4,-1,669678,232621,1346174,69722,8947,672586,2
4,-1,666234,230554,1200853,68860,8203,600267,0
4,-1,687217,235271,1358378,72330,9201,679143,0
4,-1,714567,244198,1443696,74932,8945,721873,0
4,1,713252,249723,1520460,74422,9754,759643,0
4,-1,671854,232092,1266786,69511,8509,633340,0
4,1,709585,247423,1393903,73579,9046,696948,1
4,-1,666778,230606,1435585,68811,8792,718388,0
4,1,703628,247726,1319815,73732,9193,659687,0
4,-1,662631,229697,1309767,68728,8778,654929,0
4,1,725936,252649,1261573,77020,9345,630776,0
4,-1,670166,230635,1283440,69059,8789,641674,0
4,1,709219,248332,1318398,73774,8788,659120,0
4,-1,662183,230404,1192526,69012,8709,596315,0
4,-1,684590,234789,1289833,72178,8825,644685,0
4,1,706817,248360,1611387,73817,10164,804763,0
4,-1,666321,231422,1270505,69265,7806,635078,0
4,1,710964,248230,1627382,73721,10421,814049,0
4,-1,666020,230694,1302270,68983,8534,651077,0
4,-1,666022,230282,1229517,68806,8030,614720,0
4,1,713380,249194,1414262,73951,9893,707135,0
4,-1,668042,230656,1231648,69006,8583,615731,0
4,1,706993,247571,1331073,73418,9327,665466,0
4,-1,669377,231274,1383768,69167,9309,691941,0
4,1,711992,248942,1544503,73722,10709,772120,0
4,-1,668084,231679,1293452,69297,8188,646582,0
4,1,706578,247208,1359355,73314,8634,679726,0
4,-1,672729,233064,1326807,70087,8679,663207,0
4,-1,664818,230433,1330035,68734,8174,665053,0
4,1,708025,247305,1422348,73316,8685,711089,0
4,-1,670707,232422,1662792,69455,10489,831378,0
4,-1,675862,233026,1344933,69748,9283,672712,0
4,1,706638,247758,1281705,73010,8323,640904,0
4,-1,669189,232895,1340939,69811,9479,670430,0
4,1,705678,247156,1366494,73698,8500,683283,0
4,-1,691473,235834,1320514,72424,10329,660113,0
4,-1,667276,230308,1237286,68838,8401,618548,0
4,1,712840,248682,1422016,74424,10018,711059,0
4,-1,664242,230165,1248714,68683,8211,624342,0
4,1,727178,251988,1398955,77021,9375,699598,0
4,-1,670530,231709,1563553,69253,9975,781706,0
4,-1,670396,231098,1343823,68829,8311,671943,0
4,1,712530,247661,1271344,73845,8553,635681,0
4,-1,664750,230002,1238696,68596,7617,619594,0
4,-1,669690,230571,1233322,68841,8159,616633,0
4,1,710810,248745,1356575,74315,9280,678325,0
4,-1,668663,230319,1378398,68697,8075,689255,0
4,-1,672478,232371,1249355,69660,8005,624780,0
4,1,732122,252562,1435717,77221,9982,717870,0
4,-1,689844,235022,1360478,72087,8771,680166,0
4,1,715354,249975,1319826,74725,9142,659724,0
4,-1,672341,230814,1355848,68913,9117,677299,0
4,1,720674,249660,1308929,74561,9902,654438,0
4,-1,661907,230799,1253476,68418,6764,626711,0
4,-1,660287,229025,1189446,68012,7418,594729,0
4,1,713057,247366,1270768,73996,9131,635418,0
4,-1,665224,230188,1227687,69117,8534,613867,0
4,-1,662703,230179,1291002,69211,7809,645558,0
5,-1,745165,254163,1366360,77299,10316,683126,0
5,1,703599,247442,1484973,73472,11120,742056,0
5,-1,671803,232063,1362072,69451,9165,681011,0
5,-1,666735,230720,1324201,68872,8875,661946,2
5,-1,661123,229830,1407711,68684,8156,703891,0
5,-1,673198,232505,1379384,69798,9524,689441,0
5,1,708939,247690,1291570,73480,8402,645857,0
5,-1,668067,230971,1169742,69013,7291,584933,0
5,1,705110,247923,1307513,73725,9653,653566,0
5,-1,688213,235473,1372463,72275,9579,685928,0
5,-1,672218,230341,1248192,69005,8674,624001,0
5,1,711380,250092,1390440,74642,9463,695215,1
5,1,704739,248588,1270006,73896,8588,634938,0
5,-1,675168,232944,1331946,70094,9424,665471,0
5,1,709857,248766,1364724,73894,9792,682400,0
5,-1,661264,230301,1329279,68944,9031,664601,0
5,-1,664282,230360,1323476,68921,8530,661640,0
5,1,708653,247526,1587022,73518,10367,792978,0
5,-1,668729,232410,1491037,69750,8987,745227,0
5,1,713216,249401,1394874,74226,9623,697456,0
5,-1,670821,232555,1355663,69772,8553,677758,0
5,-1,674272,232600,1359815,69867,9072,679788,0
5,1,733944,254012,1374356,77366,9908,687188,0
5,-1,674296,232333,1341190,69799,9056,670730,0
5,1,708056,248048,1368237,73611,9018,683905,0
5,-1,667265,230622,1293365,68973,8017,646177,0
5,1,720012,250636,1418711,74546,9942,709414,0
5,-1,664937,230602,1368422,68909,8403,683748,0
5,1,710961,249418,1298465,74266,8479,649308,0
5,-1,669374,231417,1372825,69231,8594,686462,0
5,-1,673265,232725,1348277,69720,8874,673909,0
5,1,710776,247672,1284001,73470,8405,641953,0
5,-1,667775,231151,1310682,69092,8220,655030,0
5,-1,673300,231712,1244308,69139,8397,622034,0
5,1,706658,249293,1334395,73724,8798,667301,0
5,-1,671164,231303,1434611,69016,9174,716980,0
5,1,705428,247288,1259369,73794,7770,629766,0
5,-1,666914,230834,1301377,68990,9130,650510,0
5,-1,670383,231431,1471891,69464,9092,735886,0
5,1,708246,247033,1342720,73715,9437,671223,0
5,-1,673391,232597,1379661,69677,8670,689650,0
5,1,708931,248052,1374574,74049,8804,687301,0
5,-1,670319,232134,1335970,69558,8413,668027,0
5,-1,676420,232834,1334364,69605,8908,667297,0
5,1,712778,248178,1323155,74006,9088,661590,0
5,-1,665395,230596,1336846,68817,7916,668174,0
5,-1,669415,230526,1374963,68751,8806,687069,0
5,1,712428,248933,1288768,74314,8634,644426,0
5,-1,675221,233072,1254410,69930,8291,627283,0
5,-1,688319,234947,1368340,72073,8412,684083,0
5,1,712688,248950,1271830,74212,8124,636029,0
5,-1,668408,230334,1235893,68721,7643,617931,0
5,1,706575,247797,1609385,73833,10543,804589,0
5,-1,670295,230164,1309827,68652,8625,654876,0
5,1,717363,248684,1377346,73994,10053,688583,0
5,-1,660135,230496,1192871,68270,6751,596427,0
5,-1,671191,232936,1220433,69551,7470,610302,0
5,1,718713,250090,1478554,75057,9011,739111,0
5,-1,683132,234765,1257211,71611,8596,628512,0
5,-1,666479,231183,1296853,69497,8481,648471,0
6,-1,718824,248352,1293170,73694,8287,646546,0
6,1,709400,249671,1701458,74400,11209,850581,0
6,-1,666061,230260,1376391,68719,8857,687989,0
6,-1,662119,230447,1288899,68949,7346,644430,2
6,-1,663690,230310,1349625,68850,8755,675336,0
6,-1,666037,230303,1308228,68860,7910,654339,0
6,1,712145,249667,1373389,74221,9082,686746,0
6,-1,665072,229928,1224297,68580,7146,612165,0
6,-1,669722,230655,1323405,68883,8763,661322,0
6,1,707000,248459,1283157,73955,9312,641435,0
6,-1,677163,232958,1305068,70023,9176,652576,0
6,1,705499,248848,1385682,73934,9230,693004,0
6,-1,690658,235578,1265229,72548,9554,632588,0
6,1,712344,250527,1430715,74812,9498,715292,1
6,1,709080,248627,1299288,73912,8628,649315,0
6,-1,664148,231219,1304565,69291,9474,652153,0
6,-1,665658,231014,1274234,69221,8671,637050,0
6,1,707358,247867,1351853,73550,8119,675907,0
6,-1,663911,230703,1328132,69019,8172,663687,0
6,1,712316,249470,1377892,74319,9444,688651,0
6,-1,664951,231078,1309000,69179,8042,654377,0
6,-1,669826,231189,1313296,69137,7967,656701,0
6,1,709342,248005,1314688,73502,9163,657449,0
6,-1,669132,231012,1233779,69140,7537,617004,0
6,1,728278,252320,1310439,76788,10613,655159,0
6,-1,666026,230588,1308117,68943,7987,654049,0
6,1,734627,253029,1422085,76837,10375,711072,0
6,-1,666581,230857,1294011,68978,8212,647061,0
6,1,728412,252995,1276218,76972,8892,638130,0
6,-1,665881,230459,1304922,68872,7920,652508,0
6,-1,668219,230924,1337361,68891,8443,668554,0
6,1,708719,247679,1359688,73443,8672,679792,0
6,-1,671131,232476,1341693,69706,8879,670937,0
6,-1,677192,233571,1423635,69987,9349,711865,0
6,1,724334,252145,1399546,76215,9758,699735,0
6,-1,674589,233384,1337396,70024,9054,668665,0
6,1,708233,249160,1237942,74678,9163,618875,0
6,-1,668348,231460,1367870,69306,9590,683865,0
6,-1,666289,230522,1516826,68924,10696,757948,0
6,1,707870,247303,1404964,73741,10184,702488,0
6,-1,666691,230765,1255899,68876,8238,628022,0
6,1,706574,247265,1357196,73707,9291,678643,0
6,-1,667630,230928,1357893,68957,8674,678988,0
6,-1,671092,231093,1339497,68817,8179,669770,0
6,1,715991,249652,1346871,74663,9615,673503,0
6,-1,668175,231786,1344808,69307,8416,672464,0
6,-1,675143,233104,1299606,69885,8276,649381,0
6,1,712674,249178,1416076,74444,8416,708076,0
6,-1,690162,234852,1286122,72032,8942,643130,0
6,-1,666347,230376,1211782,68732,7186,605939,0
6,1,710486,247935,1386867,73826,9006,693377,0
6,-1,667238,230514,1301674,68851,7686,650809,0
6,1,712625,248291,1413501,74051,10112,706716,0
6,-1,672492,231311,1362831,69052,9474,680905,0
6,1,716146,249348,1336669,74598,8487,668030,0
6,-1,658413,230461,1273105,68263,6851,636507,0
6,-1,665279,232045,1194844,69044,8117,597653,0
6,1,756902,260213,1565957,79757,10679,783098,0
6,-1,660657,230043,1232516,68336,7836,616305,0
6,-1,667839,230323,1207746,69181,8594,603953,0
6,1,710679,248673,1365267,74462,8284,682696,0
7,-1,718062,248067,1399508,73603,8994,699652,0
7,1,714722,249727,1416593,74341,10464,708532,0
7,-1,665153,230023,1205224,68669,8601,602515,0
7,-1,663565,230582,1411094,68925,7894,705580,0
7,-1,661868,230990,1190144,69077,7232,594722,2
7,1,711338,250534,1374332,74605,8989,687235,0
7,-1,669244,231706,1485801,69469,9443,742499,0
7,-1,667363,231160,1233399,69122,7074,616742,0
7,1,708426,249867,1509270,74642,9874,754293,0
7,-1,669737,231656,1341376,69376,9101,670610,0
7,-1,667582,229816,1301911,68810,7750,650992,0
7,1,713134,248560,1430363,73878,9800,714837,0
7,-1,667833,230290,1366963,68995,9187,683219,0
7,1,709341,248666,1293510,73985,8902,646864,1
7,1,728162,252874,1434894,77080,9871,717731,0
7,-1,658989,229712,1289364,68729,9072,644628,0
7,-1,662358,230548,1336546,69072,7974,668200,0
7,1,711057,248681,1291222,73959,8972,645496,0
7,-1,664003,230378,1326558,68894,7997,663284,0
7,1,707971,247672,1312095,73564,9291,655804,0
7,-1,668618,232067,1342998,69657,8468,671411,0
7,-1,667154,230704,1253116,69026,7746,626407,0
7,1,715323,250568,1407930,74565,10035,703734,0
7,-1,666272,230160,1378114,68809,8465,689099,0
7,1,706248,247365,1250753,73357,8855,625388,0
7,-1,666318,231045,1270640,69138,8443,635168,0
7,1,712978,248271,1431282,73504,9758,715687,0
7,-1,668196,231598,1442188,69474,9179,720791,0
7,1,705064,247878,1280491,73508,8342,640287,0
7,-1,669711,232107,1369193,69603,8856,683531,0
7,-1,666247,230794,1281121,68922,8250,640563,0
7,1,729827,252274,1371721,76737,8993,685775,0
7,-1,664461,230242,1317815,68837,8402,658943,0
7,-1,675249,233097,1628293,69542,10292,814074,0
7,1,701486,247532,1250072,72877,8341,625043,0
7,-1,667669,230803,1327993,68990,9023,663851,0
7,1,711537,247888,1414114,74008,9891,706862,0
7,-1,668972,231059,1723119,69102,11826,861131,0
7,-1,671206,230896,1304158,69126,9026,652156,0
7,1,711960,249039,1339769,74491,10048,669839,0
7,-1,666597,230723,1322413,68886,8514,661099,0
7,1,707474,247955,1464358,73871,9967,732242,0
7,-1,667689,231545,1258773,69194,8113,629440,0
7,-1,669386,231022,1591192,68864,10106,795636,0
7,1,711815,248018,1441566,73899,10044,720741,0
7,-1,664243,230053,1327507,68614,8271,663667,0
7,-1,691376,235732,1344004,72283,9364,672004,0
7,1,732576,253569,1516515,77751,10522,758228,0
7,-1,666200,229863,1333611,68547,7334,666857,0
7,1,713627,249858,1343812,74461,9497,671961,0
7,-1,666104,230652,1275798,68882,7263,637928,0
7,-1,670004,230270,1279109,68743,7943,639478,0
7,1,711830,248546,1291136,74145,9453,645572,0
7,-1,671824,231317,1328265,69187,9162,664013,0
7,1,713556,247674,1345939,73735,9472,672969,0
7,-1,673332,230186,1338214,68608,6813,669128,0
7,-1,684369,234741,1314259,71510,8545,657088,0
7,1,714208,247951,1379273,74170,9149,689686,0
7,-1,661277,230163,1260828,68308,7646,630425,0
7,-1,664875,230148,1366184,69208,8954,683162,0
7,1,709173,247847,1374705,73987,8467,687427,0
8,-1,741594,253124,1401898,77049,10487,700793,0
8,1,706671,247425,1374638,73321,8519,687589,0
8,-1,666031,230616,1255951,68826,8065,627882,0
8,-1,659866,229640,1487476,68691,7806,743815,0
8,1,716075,249700,1381609,74279,9376,690831,0
8,-1,663241,230180,1288148,68722,8564,643887,2
8,-1,666298,229808,1207350,68652,8307,603689,0
8,-1,689523,235344,1289726,72332,8427,644905,0
8,1,704260,248454,1403945,73927,9134,702035,0
8,-1,665120,230049,1261996,68699,8067,631071,0
8,-1,666298,229458,1255736,68641,7274,627906,0
8,1,712332,249656,1512256,74447,9135,755315,0
8,-1,669250,230420,1269694,69026,9187,634885,0
8,1,708133,247704,1606843,73598,9581,803191,0
8,1,735850,257951,1456096,76665,9896,727960,1
8,-1,687281,235125,1238564,72368,9656,619329,0
8,-1,663796,230998,1240130,69180,8388,620024,0
8,1,708837,247846,1344380,73621,9218,672032,0
8,-1,667958,232375,1330711,69787,8644,665374,0
8,1,713215,249553,1436028,74336,9982,718003,0
8,-1,664352,231290,1271041,69211,7767,635517,0
8,-1,672596,233175,1338259,70072,8543,669297,0
8,1,713096,250301,1313257,74434,9342,656460,0
8,-1,670331,232338,1338444,69750,8074,669213,0
8,1,706142,247906,1298421,73516,9311,649142,0
8,-1,667032,231376,1376917,69373,8614,687738,0
8,1,712356,248487,1437917,73572,10177,719005,0
8,-1,663723,230934,1319420,69070,8463,659738,0
8,-1,668725,231098,1479993,69009,8547,740503,0
8,1,707976,247685,1374823,73397,9351,687454,0
8,-1,691444,236779,1331435,72633,9618,665740,0
8,1,708124,247478,1368099,73375,8276,684048,0
8,-1,677821,232931,1311840,69983,8995,655726,0
8,-1,672013,232182,1369056,69302,8524,684335,0
8,1,704457,248048,1365501,73110,8480,682347,0
8,-1,673872,233593,1331919,69988,8712,666005,0
8,1,731925,252462,1408311,77312,9883,704144,0
8,-1,667892,231003,1349743,68999,9071,674846,0
8,-1,672834,232096,1364852,69708,9145,682118,0
8,1,705718,247089,1341214,73605,7825,670656,0
8,-1,688357,235375,1282527,72218,9100,641452,0
8,1,707972,248087,1371228,73872,8561,685658,0
8,-1,663584,230444,1533124,68838,10091,766596,0
8,-1,673025,232830,1362208,69598,8591,681146,0
8,1,707482,247233,1335498,73623,9010,667885,0
8,-1,668272,232208,1320923,69583,8451,660510,0
8,-1,665112,229721,1448960,68463,8173,723791,0
8,1,708794,248612,1415721,74316,9865,707854,0
8,-1,670111,231186,1364516,68987,7827,682345,0
8,1,718103,250790,1351226,75088,8981,675546,0
8,-1,669335,231951,1243578,69434,7418,621889,0
8,-1,668200,229653,1321181,68471,8301,660416,0
8,1,710955,248310,1371141,74091,9640,685582,0
8,-1,670435,230443,1277467,68793,8336,638699,0
8,1,713087,248339,1523833,73994,10030,761922,0
8,-1,677882,232425,1317635,69613,6998,658752,0
8,-1,664699,230664,1213047,68314,7733,606579,0
8,1,711639,247918,1396013,74164,8761,698112,0
8,-1,665437,230104,1341934,68297,7649,670852,0
8,-1,669353,231836,1223034,69892,8203,611586,0
8,1,705063,246764,1288033,73641,7871,644091,0
9,-1,719496,248186,1328964,73633,9514,664493,0
9,1,708017,247005,1425920,73147,9457,712956,0
9,-1,664008,230087,1207897,68694,8010,604096,0
9,-1,667177,231950,1349046,69661,9128,674585,0
9,1,710117,247633,1299229,73527,8874,649660,0
9,-1,673026,232985,1277813,70004,9404,638633,0
9,-1,667939,232571,1373922,69892,8003,687001,2
9,-1,667634,230347,1365140,68857,7391,682619,0
9,1,702770,248152,1535229,73848,9328,767403,0
9,-1,667733,231399,1319004,69186,8312,659549,0
9,-1,668662,230697,1290223,69152,7357,645130,0
9,1,706692,247739,1484571,73636,8853,742278,0
9,-1,666416,229497,1300410,68793,9225,650232,0
9,1,706956,248289,1582517,73718,11018,791282,0
9,-1,663695,230183,1246812,68942,9261,623252,0
9,-1,674193,233344,1325804,70243,8833,663026,0
9,1,706167,248225,1364759,73808,8330,682052,0
9,1,705719,247991,1352329,73717,9219,675143,1
9,-1,684015,235308,1292240,72310,9730,645941,0
9,1,710908,248566,1621515,73710,11443,810842,0
9,-1,668188,233093,1350400,69957,8879,675033,0
9,-1,684709,234822,1255201,72158,8933,627644,0
9,1,709424,248324,1298729,73540,9380,649198,0
9,-1,688561,235823,1307859,72508,9123,653756,0
9,1,705647,247920,1471261,73514,9491,735502,0
9,-1,664130,230689,1305114,69001,8594,652475,0
9,1,710909,247879,1337349,73326,8675,668687,0
9,-1,665979,231020,1336341,69137,8857,668672,0
9,-1,667135,231151,1437984,69119,7905,718994,0
9,1,706350,247272,1350176,73286,9248,674700,0
9,-1,668166,230647,1324437,68847,8443,662043,0
9,1,709282,248316,1447433,73672,8580,723685,0
9,-1,691971,235125,1222612,72253,9386,611237,0
9,-1,672122,231450,1365894,69018,8950,682977,0
9,1,702803,247497,1258478,72897,8218,629252,0
9,-1,669515,232052,1354823,69219,9125,677552,0
9,1,708280,246952,1309158,73675,8890,654627,0
9,-1,667873,231263,1328692,69139,8805,664387,0
9,1,708468,247308,1373624,73808,8742,686848,0
9,-1,691318,235683,1298731,72387,9635,649300,0
9,-1,667095,231088,1317641,69028,8578,658860,0
9,1,728187,252383,1477752,77108,9821,738899,0
9,-1,676147,232719,1363039,69872,8584,681613,0
9,-1,670498,230675,1276899,68748,8986,638464,0
9,1,708161,247940,1373435,74004,9672,686644,0
9,-1,666171,230094,1308699,68601,8788,654380,0
9,-1,669671,231198,1282920,69241,7641,641516,0
9,1,712068,247531,1459354,73957,9253,729693,0
9,-1,697028,240956,1316714,72098,7900,658398,0
9,1,711160,248860,1334962,74140,8389,667530,0
9,-1,665446,230105,1274655,68651,8085,637416,0
9,-1,675708,233051,1251696,69854,7557,625859,0
9,1,710489,248153,1534439,74022,10414,766629,0
9,-1,674156,232588,1225180,69783,7562,612611,0
9,1,711590,248185,1400342,73963,9174,700188,0
9,-1,693317,234739,1349201,71918,8243,674578,0
9,-1,665651,230852,1268026,68454,7269,634042,0
9,1,713386,248394,1354497,74496,9298,677304,0
9,-1,666342,230629,1306518,68472,7338,653351,0
9,-1,664398,230266,1298819,69241,8421,649464,0
9,1,705657,247260,1320504,73841,8431,660356,0
10,-1,720726,248547,1414510,73703,9428,707338,0
10,1,711389,248999,1309386,74081,9448,654517,0
10,-1,665576,230982,1341976,69205,8707,670985,0
10,-1,685972,234529,1347356,72026,8488,673670,0
10,1,710716,247786,1292845,73498,8466,646470,0
10,-1,685478,234564,1288568,72045,9337,644145,0
10,-1,666332,231235,1210663,69220,7775,605372,2
10,-1,668577,231293,1378617,69189,7205,689066,0
10,1,700538,247363,1353603,73571,9138,676752,0
10,-1,687430,235159,1421715,72235,9162,710832,0
10,-1,669672,231060,1201892,69188,7202,600952,0
10,1,707021,248185,1311842,73784,8539,656025,0
10,-1,667333,230339,1301566,68960,8738,650798,0
10,1,713979,250279,1389585,74755,9457,694927,0
10,-1,663442,230943,1212273,69111,8935,606060,0
10,-1,688795,235579,1221097,72482,9111,610461,0
10,1,730143,252518,1509436,76982,10153,754541,0
10,1,731213,257349,1339891,76504,9319,670207,1
10,-1,668448,231789,1418659,69388,8067,709246,0
10,1,708117,248388,1375331,73701,9825,687517,0
10,-1,667495,231097,1352737,69049,8406,676359,0
10,-1,668380,230849,1347309,69037,8068,673690,0
10,1,714440,250254,1445166,74406,10608,722295,0
10,-1,671363,231184,1326579,69161,8541,663343,0
10,-1,667226,231513,1345971,69301,8490,672799,0
10,1,713442,248219,1408972,73773,10066,704174,0
10,1,714936,249410,1447077,74161,10538,723453,0
10,-1,673136,231951,1372273,69605,9320,685732,0
10,-1,670768,232740,1361155,69900,8313,680081,0
10,1,707615,247429,1508471,73395,9422,754280,0
10,-1,668959,231379,1201093,69123,8133,600396,0
10,1,712563,249206,1311392,74135,8556,655676,0
10,-1,671503,230916,1274157,69010,8544,636826,0
10,-1,693053,237064,1277616,72806,8551,638616,0
10,1,706668,249809,1210767,73884,8634,605462,0
10,-1,691959,237059,1250887,72683,9740,625015,0
10,1,709028,247474,1351971,73856,9165,676329,0
10,-1,671358,232576,1327963,69741,9012,664063,0
10,-1,669368,231062,1257610,69047,9204,628814,0
10,1,711199,248982,1279490,74551,8812,639798,0
10,-1,668500,232071,1318671,69528,8491,659330,0
10,1,706589,247216,1269226,73627,8582,634657,0
10,-1,695993,236310,1371337,72553,9313,685652,0
10,-1,668194,229901,1411772,68387,8919,705905,0
10,1,712589,247473,1340780,73855,9667,670373,0
10,-1,668348,231204,1377113,68919,8283,688599,0
10,-1,666093,230262,1211596,68731,7284,605781,0
10,1,709768,248142,1470047,74128,9490,734739,0
10,-1,666345,229964,1321452,68595,7860,660761,0
10,1,713364,249725,1421121,74428,8385,710643,0
10,-1,662146,229451,1301846,68388,8203,650937,0
10,-1,689721,235093,1380118,72111,8148,689979,0
10,1,709241,248205,1439329,74060,9154,719738,0
10,-1,670104,230226,1232103,68673,8263,616017,0
10,1,719556,250180,1386801,74844,9961,693254,0
10,-1,672330,230519,1267618,68751,6842,633807,0
10,-1,664803,230894,1300801,68442,7839,650441,0
10,1,710480,247651,1381931,74082,8986,691035,0
10,-1,667686,230987,1213799,68626,7393,606943,0
10,-1,662959,230119,1286134,69136,7777,643196,0
10,1,727472,252487,1393700,77323,9899,696926,0
11,1,708925,248674,1424139,74076,9451,712299,0
11,-1,723245,249859,1315133,74177,9050,657585,0
11,-1,663549,230433,1296394,68812,8832,648171,0
11,-1,662857,229769,1326220,68662,8300,663107,0
11,1,731432,252189,1341129,76694,9511,670649,0
11,-1,665489,229791,1354775,68552,8834,677052,0
11,-1,664295,229227,1213930,68642,7455,607013,0
11,-1,667547,230860,1318925,69088,7198,659718,2
11,1,713795,247965,1286994,73792,8716,643565,0
11,-1,665735,230713,1385455,68911,7936,692750,0
11,-1,672166,232411,1329534,69920,7936,664866,0
11,1,707863,247867,1391900,73621,9298,695870,0
11,-1,668643,231183,1225041,69280,8940,612409,0
11,1,728526,252501,1392593,76970,9757,696198,0
11,-1,681596,234655,1293148,72189,9399,646395,0
11,-1,666325,230674,1273294,69075,8129,636680,0
11,1,711633,249640,1448858,74381,9792,723993,0
11,-1,670067,232369,1323054,69806,8244,661706,0
11,1,709176,248777,1311644,73815,8226,655793,1
11,1,707145,248073,1316460,73578,9286,658128,0
11,-1,686786,235801,1295104,72471,8910,647213,0
11,-1,667773,231064,1281958,69141,7577,641017,0
11,1,708825,249242,1656494,73896,11886,828226,0
11,-1,669239,230737,1231732,69052,8504,615605,0
11,1,716259,249880,1395067,74520,9804,697458,0
11,-1,665156,229878,1279015,68796,7943,638879,0
11,1,709107,248121,1437811,73538,9734,718948,0
11,-1,668912,230694,1328474,68951,9010,663959,0
11,-1,684894,234952,1322908,72181,8169,661301,0
11,1,707505,247507,1446562,73397,9106,723325,0
11,-1,687861,235593,1232745,72336,9096,616201,0
11,1,707230,247381,1351244,73322,8452,675630,0
11,-1,670862,231224,1337832,68996,8222,668762,0
11,1,703550,247437,1350233,72909,7959,675075,0
11,-1,671914,231772,1427871,69269,8888,713931,0
11,-1,667028,231332,1245512,68926,8949,622624,0
11,1,708850,247416,1397680,73854,9687,698891,0
11,-1,665901,230830,1299329,68995,8653,649679,0
11,-1,668582,230895,1260634,68979,8549,630501,0
11,1,729118,252177,1446868,77247,9535,723412,0
11,-1,671011,231191,1445010,68995,8831,722526,0
11,1,727929,252397,1559112,77145,11517,779578,0
11,-1,670358,230519,1341932,68814,8772,671018,0
11,-1,670440,230968,1267753,68829,8758,633903,0
11,1,714317,248595,1412553,74365,10260,706287,0
11,-1,667473,231028,1246067,68894,7932,623098,0
11,-1,663828,229746,1308112,68470,8120,654096,0
11,1,717328,250210,1404551,75099,8539,702144,0
11,-1,673483,232601,1287653,69714,8022,643855,0
11,1,729473,252972,1447051,77367,10173,723514,0
11,-1,671981,230428,1343597,68801,8122,671875,0
11,-1,668465,230472,1370937,68811,8043,685442,0
11,1,711325,247980,1353723,73973,9687,676872,0
11,-1,666715,229777,1208467,68548,7447,604251,0
11,1,713765,248069,1328173,73879,9322,664164,0
11,-1,670951,230074,1180959,68502,6750,590463,0
11,-1,666295,231518,1246494,68828,7132,623323,0
11,1,711887,247663,1327040,74057,9250,663559,0
11,-1,689285,238716,1337197,70821,7759,668641,0
11,1,726649,251817,1390439,77234,9847,695283,0
11,-1,669206,232463,1209443,70179,8200,604786,0
12,1,705535,247363,1391221,73512,8866,695503,0
12,-1,717936,248455,1286932,73697,8221,643285,0
12,-1,666796,230255,1253088,68709,8576,626576,0
12,-1,663884,230420,1406712,68946,9467,703308,0
12,1,711287,247844,1260104,73550,8667,630102,0
12,-1,663473,229754,1297323,68604,8779,647836,0
12,-1,667489,230548,1263852,69028,7404,631983,0
12,1,714120,249050,1446045,74314,10088,723054,0
12,-1,667937,231122,1313213,69051,8019,656650,2
12,-1,668360,231666,1321722,69217,8128,660895,0
12,-1,689475,235458,1273830,72468,8408,637114,0
12,1,707277,248026,1288458,73663,8792,644144,0
12,-1,670674,232035,1383704,69734,9148,691525,0
12,1,705585,247626,1387137,73559,8707,693659,0
12,-1,659432,229948,1288178,68778,8895,644051,0
12,-1,666123,231246,1204691,69239,7664,602411,0
12,1,707729,248266,1413600,73742,9852,706421,0
12,-1,687585,235538,1311824,72419,9033,655833,0
12,1,708965,247970,1445759,73497,10503,722929,0
12,-1,665202,231155,1336894,69118,8136,668211,0
12,1,708043,248549,1312320,73866,9011,655911,1
12,-1,666118,230729,1244676,69041,8083,622365,0
12,1,710019,249937,1428020,74142,9860,713988,0
12,-1,669440,230976,1227489,69123,8237,613713,0
12,-1,671543,232969,1352430,69993,8826,676300,0
12,1,733144,253155,1382626,77172,10538,691134,0
12,1,710579,248917,1436989,73822,9662,718536,0
12,-1,670327,231392,1346887,69257,7766,673498,0
12,-1,667868,230723,1286878,68951,8253,643059,0
12,1,732943,252490,1374214,76789,9734,687065,0
12,-1,666016,231617,1495520,69357,9748,747674,0
12,1,705996,247147,1318040,73324,8543,659034,0
12,-1,669587,231110,1292918,69020,8686,646486,0
12,1,701220,247945,1340737,73109,8634,670276,0
12,-1,671573,232101,1652311,69405,10892,826189,0
12,-1,670329,232595,1240980,69483,8620,620357,0
12,1,705635,246419,1302643,73446,8613,651752,0
12,-1,668139,231697,1401044,69229,8536,700526,0
12,-1,667642,230672,1415515,68928,10222,707759,0
12,1,709858,247777,1336479,73997,8255,668323,0
12,-1,667128,230651,1324881,68839,8668,662330,0
12,1,706258,248055,1586096,74065,11249,793074,0
12,-1,670959,231223,1556934,69138,10291,778373,0
12,-1,668128,230251,1184527,68521,8441,592300,0
12,1,709202,247771,1460831,73930,9692,730504,0
12,-1,666612,230517,1331489,68702,7811,665798,0
12,-1,669190,230725,1453449,68907,8968,726405,0
12,1,734690,253341,1496667,77671,10002,748302,0
12,-1,666134,230306,1331283,68747,7693,665690,0
12,1,717060,249178,1394358,74282,9184,697225,0
12,-1,670463,230314,1228311,68696,8029,614223,0
12,-1,668394,230361,1295568,68776,7741,647767,0
12,1,712487,248810,1340577,74166,9349,670132,0
12,-1,669793,230615,1389015,68801,8032,694433,0
12,1,714501,248711,1325877,74158,8376,663031,0
12,-1,671664,230356,1272723,68710,7209,636347,0
12,-1,664131,231033,1319417,68493,8263,659670,0
12,1,707482,246694,1259503,73643,8615,629789,0
12,-1,663896,230251,1293256,68363,7436,646665,0
12,-1,685987,234626,1337864,72411,8691,668918,0
12,1,701353,245918,1225805,73571,8221,612941,0
13,-1,721051,248977,1370396,73924,9269,685138,0
13,1,706314,247658,1417148,73588,9081,708606,0
13,-1,668917,230425,1371863,68824,10042,685941,0
13,-1,662411,230332,1270963,68841,8351,635136,0
13,1,706959,247403,1381842,73475,8595,690933,0
13,-1,668973,232264,1390872,69600,8387,695489,0
13,-1,668336,231135,1213969,69199,7326,607023,0
13,1,710392,247501,1372807,73603,9250,686273,0
13,-1,668319,230541,1268312,68841,7642,634224,0
13,-1,663887,230291,1203170,68808,8249,601161,2
13,-1,670370,230564,1447393,69093,8778,723764,0
13,1,708523,248622,1355036,73875,8690,677705,0
13,-1,666634,230734,1282027,69144,9246,640943,0
13,1,707596,248670,1268984,73971,8300,634511,0
13,-1,665972,231321,1220461,69317,8302,610140,0
13,-1,668071,232364,1260834,69813,8666,630323,0
13,1,709809,248614,1472608,73825,10535,735605,0
13,-1,667648,232107,1349944,69640,8937,674783,0
13,1,710660,248224,1725579,73655,11780,862335,0
13,-1,662353,230610,1324970,68955,8029,662531,0
13,1,742423,260206,1462888,77633,9543,731434,1
13,-1,665037,230543,1316570,68926,7635,658195,0
13,1,708479,249598,1474327,74029,9859,737180,0
13,-1,667586,230639,1298251,68920,8250,649276,0
13,-1,667985,231684,1362820,69349,9142,681061,0
13,1,708250,247202,1399102,73400,10000,699509,0
13,-1,689913,235141,1318320,72248,9734,659757,0
13,1,716593,249673,1444505,74256,9751,722305,0
13,-1,667804,230085,1304982,68790,8928,652382,0
13,1,708223,247397,1331669,73312,9443,665935,0
13,-1,665996,230750,1584290,68970,10215,791359,0
13,1,713074,247845,1367888,73549,9001,683978,0
13,-1,694873,236880,1331708,73180,10034,665934,0
13,1,707654,249729,1258292,73801,8044,629143,0
13,-1,670006,231928,1237395,69425,7719,618847,0
13,-1,668540,232145,1336029,69270,9286,667938,0
13,1,709127,248000,1375661,74061,9527,687879,0
13,-1,672352,233357,1336110,70076,9159,667894,0
13,-1,692296,235781,1227037,72354,9583,613603,0
13,1,708933,247276,1438368,73801,8369,719323,0
13,-1,673911,233158,1361524,69922,9108,680609,0
13,1,711540,247831,1309424,74033,9573,654746,0
13,-1,670083,230843,1285058,68973,8144,642578,0
13,-1,669212,230984,1258012,68831,8801,629033,0
13,1,712528,247906,1428630,74019,9967,714058,0
13,-1,671211,232666,1334184,69690,8193,667158,0
13,-1,664085,229643,1426089,68479,8308,713172,0
13,1,714154,249904,1357099,74902,8952,678590,0
13,-1,669825,231566,1340877,69316,7971,670494,0
13,1,712549,249177,1368198,74286,8630,684177,0
13,-1,670812,230455,1305637,68728,8174,652862,0
13,-1,671818,232073,1204131,69499,7742,602076,0
13,1,706604,247636,1333947,73751,9049,666884,0
13,-1,666148,230162,1243523,68673,7182,621727,0
13,1,716143,248574,1323037,74053,10147,661458,0
13,-1,668925,229885,1235529,68453,7265,617750,0
13,-1,661707,230367,1384585,68252,8356,692288,0
13,1,710061,247525,1276764,74006,8546,638460,0
13,-1,667979,232124,1283653,69122,7907,641872,0
13,-1,665191,230482,1294823,69286,7850,647449,0
13,1,711651,249112,1355766,74699,8390,677943,0
14,-1,716847,248591,1356210,73779,7757,677827,0
14,1,710237,249244,1401437,74293,9094,700497,0
14,-1,687823,234695,1303723,72016,10053,651730,0
14,-1,666937,232053,1346458,69659,9340,673116,0
14,1,710666,247343,1302362,73394,8203,651201,0
14,-1,662567,229759,1415549,68670,8326,707418,0
14,-1,688944,236010,1294109,72619,8576,647102,0
14,1,710598,247409,1308656,73522,9065,654236,0
14,-1,688245,235547,1267517,72241,8278,633702,0
14,-1,667941,230029,1322146,68823,8224,660532,0
14,-1,665065,231115,1373844,69291,8903,686885,2
14,1,710997,248249,1375662,73761,9406,687587,0
14,-1,672249,230652,1304209,69082,8518,652151,0
14,1,704813,247923,1411005,73646,9871,705630,0
14,-1,666568,231983,1357594,69693,8723,678806,0
14,-1,663833,230269,1256290,68925,8378,628037,0
14,1,709060,248128,1411446,73672,8911,705787,0
14,-1,664535,230119,1327204,68805,8309,663703,0
14,1,708680,248753,1461078,73821,9303,730385,0
14,-1,667447,232412,1339921,69721,8478,669842,0
14,1,712089,248873,1303677,73763,9161,651954,1
14,-1,665290,230241,1301904,68868,8304,650976,0
14,1,708909,250125,1505094,74368,9716,752171,0
14,-1,669392,230664,1236838,69001,8352,618378,0
14,1,703853,246694,1490927,73237,10223,745537,0
14,-1,665602,231102,1304722,69115,7785,652989,0
14,1,709703,247953,1379243,73487,9242,689594,0
14,-1,668626,231106,1391795,69120,8975,695541,0
14,1,706927,247859,1530091,73546,10758,764989,0
14,-1,672135,231869,1322976,69540,8801,661659,0
14,-1,665730,230926,1406504,69123,8543,703087,0
14,1,709223,247356,1323892,73382,8946,661884,0
14,-1,670021,230746,1469769,68881,9441,734928,0
14,1,703099,248048,1364580,73123,7887,682159,0
14,-1,668459,231149,1361547,69127,9031,680865,0
14,-1,671447,233786,1341226,70067,8513,670479,0
14,1,709437,248538,1296831,74391,8972,648517,0
14,-1,672593,231484,1268085,69147,8692,633839,0
14,-1,667675,230383,1256510,68831,9288,628144,0
14,1,726981,251731,1416351,77101,9358,708169,0
14,-1,667267,231235,1340069,69067,8402,669882,0
14,1,706248,246357,1411928,73550,9179,705993,0
14,-1,667933,230326,1349152,68714,8307,674626,0
14,-1,673199,232857,1341966,69602,8868,671038,0
14,1,715919,250016,1342219,74784,10492,671051,0
14,-1,666052,230797,1361859,68837,7893,680589,0
14,-1,666385,229945,1375047,68596,8828,687252,0
14,1,713824,248452,1453411,74279,9494,726636,0
14,-1,667243,230826,1276047,68897,7619,638047,0
14,1,713178,249666,1325543,74671,8738,662843,0
14,-1,690537,234671,1285413,71980,8962,642655,0
14,-1,667965,230346,1304233,68785,7965,652117,0
14,1,708285,248363,1458053,74112,9369,728909,0
14,-1,670580,230735,1226728,68897,7588,613312,0
14,1,714256,249118,1319335,74232,9216,659585,0
14,-1,695464,235151,1291097,72061,8595,645520,0
14,-1,662373,230823,1277147,68427,8091,638583,0
14,1,712472,247311,1252863,73939,7540,626477,0
14,-1,663899,230861,1389711,68553,8212,695040,0
14,-1,664306,230470,1181467,69342,7950,590363,0
14,1,704917,246872,1366988,73768,8498,683538,0
15,-1,715762,248454,1373044,73680,8510,686416,0
15,1,710421,248454,1490166,73824,10384,744799,0
15,-1,665807,230022,1196933,68674,9531,598023,0
15,-1,661947,230631,1305701,68933,8991,652911,0
15,1,729397,252056,1476237,76660,9918,738115,0
15,-1,662717,230232,1457137,68865,8715,728499,0
15,-1,668512,231061,1256520,69225,7783,628327,0
15,-1,668897,231090,1332408,68998,7740,666213,0
15,1,710809,247702,1413831,73710,10053,707058,0
15,-1,673583,232190,1392181,69785,9496,696191,0
15,1,708097,247728,1332676,73620,9235,666032,0
15,-1,667583,231018,1306758,69223,7894,653371,2
15,-1,670902,230424,1236458,69034,7725,618033,0
15,1,732275,252763,1418462,77059,10402,709311,0
15,-1,661056,230890,1244951,69087,8882,622409,0
15,-1,664879,231058,1242623,69221,8008,621308,0
15,1,709101,249114,1457832,74162,9303,728751,0
15,-1,665974,230763,1312380,68987,8064,656011,0
15,1,707164,248155,1571323,73604,10810,785139,0
15,-1,662377,230520,1336515,68868,9185,668415,0
15,-1,685322,235140,1300660,72249,8907,650350,0
15,1,704190,248734,1552300,73794,10855,775625,0
15,-1,673602,232971,1348476,70036,8792,674081,0
15,1,707756,247236,1255447,73332,8984,627669,0
15,-1,669277,232033,1387083,69637,8995,693590,0
15,1,707077,248340,1287638,73716,8960,643755,1
15,1,708505,247841,1407928,73553,9303,703986,0
15,-1,666984,230650,1318874,69027,8666,659694,0
15,1,727305,252054,1375136,76652,9598,687644,0
15,-1,668506,230716,1245178,69062,8449,622589,0
15,-1,664695,230932,1316926,69065,7782,658514,0
15,1,707159,246991,1273835,73214,8993,636919,0
15,-1,671672,232059,1457599,69538,8148,728810,0
15,1,705002,249421,1265717,73719,8047,632822,0
15,-1,678562,233531,1318207,70220,8741,659144,0
15,-1,687506,236235,1408050,72424,9716,704014,0
15,1,709334,247633,1386546,73945,8832,693314,0
15,-1,670778,231104,1431936,68989,9239,715854,0
15,-1,667639,230632,1241688,68893,8732,620954,0
15,1,709464,247394,1349713,73789,9054,674890,0
15,-1,668454,231504,1348081,69360,8916,674031,0
15,1,709457,247625,1512963,73918,9321,756463,0
15,-1,674944,232750,1335872,69826,9278,667999,0
15,-1,667893,230841,1363250,68747,9305,681706,0
15,1,709861,247891,1565338,73835,9662,782203,0
15,-1,663999,230302,1289148,68620,8368,644658,0
15,-1,670264,231434,1295942,69125,8848,647769,0
15,1,712085,249212,1314377,74357,9406,657138,0
15,-1,665944,230450,1309758,68749,7904,654908,0
15,1,711124,248557,1297217,74157,8877,648618,0
15,-1,667449,229662,1200196,68498,8407,600148,0
15,-1,674495,232730,1239640,69711,7923,619798,0
15,1,712783,248050,1455369,73960,9108,727673,0
15,-1,673426,232548,1230955,69646,7566,615254,0
15,1,711833,248077,1418395,74016,9823,708997,0
15,-1,669677,229425,1276407,68446,8538,637995,0
15,-1,665132,230440,1195716,68292,7278,597896,0
15,1,709328,246922,1333511,73756,8148,666850,0
15,-1,665568,230634,1197584,68505,7706,598832,0
15,-1,663353,230620,1234592,69268,8245,617333,0
15,1,704060,246945,1270534,73804,8455,635289,0
16,-1,721780,248938,1301473,73866,8461,650609,0
16,1,705827,246950,1366417,73414,9126,683089,0
16,-1,669856,231146,1185527,69042,8356,592778,0
16,-1,693616,240834,1534475,72211,10625,766336,0
16,1,708609,247814,1303884,73600,8404,651991,0
16,-1,663104,229308,1260577,68486,7790,630316,0
16,-1,671674,230811,1310705,69070,8810,655440,0
16,1,709748,247633,1510191,73630,9514,755002,0
16,-1,668701,231388,1285127,69082,7601,642599,0
16,-1,666273,230367,1316865,68987,8513,658510,0
16,1,705621,248161,1268874,73762,8448,634500,0
16,-1,692403,235393,1450201,72436,9256,725173,0
16,-1,675068,232768,1392952,70040,8451,696364,2
16,1,710851,248949,1338274,74147,9269,669116,0
16,-1,682739,235240,1450132,72375,9326,725061,0
16,-1,662118,230010,1182065,68854,7746,590867,0
16,1,706405,248198,1410262,73706,9893,705121,0
16,-1,663806,230806,1206565,69051,7481,603261,0
16,1,707593,248097,1360138,73770,8914,679940,0
16,-1,662608,230817,1388656,69105,8728,694379,0
16,-1,664889,230826,1327329,69026,8115,663680,0
16,1,720604,250757,1418894,74656,9905,709175,0
16,-1,687431,235133,1324539,72283,9531,662418,0
16,1,714526,249609,1364436,74286,9505,681837,0
16,-1,694444,240537,1362390,71962,8350,681178,0
16,1,705983,248419,1360039,73753,8778,679687,1
16,-1,669700,231833,1368619,69591,9376,684657,0
16,1,713285,249918,1422683,74401,9292,711401,0
16,1,730265,252529,1385870,76824,9947,692500,0
16,-1,668891,230922,1353938,69053,8523,677272,0
16,-1,664061,230493,1337973,68883,8076,669010,0
16,1,710573,248234,1314107,73633,9324,656856,0
16,-1,670900,231540,1597910,69225,10950,798290,0
16,1,712746,247774,1285746,73370,7069,642834,0
16,-1,695031,236521,1287725,72711,9169,643860,0
16,-1,674207,232876,1697994,69537,11307,848966,0
16,1,709567,248332,1357583,74131,9434,678829,0
16,-1,671896,231612,1341771,69161,9290,670774,0
16,1,708175,247627,1276934,73853,8435,638509,0
16,-1,670357,232061,1263198,69510,8520,631303,0
16,-1,666682,231088,1280404,69040,8398,640147,0
16,1,711850,248900,1270488,74485,8926,635259,0
16,-1,690956,235801,1257559,72376,9132,628872,0
16,-1,670881,230877,1249745,68750,8602,624909,0
16,1,708614,247284,1361278,73673,9610,680618,0
16,-1,669527,231741,1501752,69134,10874,750732,0
16,-1,665614,230002,1416831,68592,9060,708602,0
16,1,729589,252558,1484524,77287,10424,742323,0
16,-1,665878,230028,1282482,68626,7355,641300,0
16,1,714113,250241,1253554,74793,8760,626807,0
16,-1,671921,230673,1344896,68864,7937,672576,0
16,-1,669127,230875,1350964,68927,7762,675425,0
16,1,712605,247904,1417066,73886,9768,708671,0
16,-1,668737,230491,1340479,68828,7547,670210,0
16,1,714613,249685,1362514,74746,9541,680909,0
16,-1,671150,230471,1172710,68703,6976,586321,0
16,-1,667035,231644,1195166,68838,7168,597610,0
16,1,709761,247281,1260276,73753,8413,630210,0
16,-1,661521,229890,1218398,68199,7627,609230,0
16,-1,683993,235140,1262055,72638,9360,630984,0
16,1,704483,247438,1371078,73979,8678,685575,0
17,-1,726825,250889,1395125,74695,8885,697576,0
17,1,705155,246989,1307068,73347,8715,653195,0
17,-1,665758,230847,1289399,68917,9965,644661,0
17,-1,660641,229951,1486535,68779,9477,742586,0
17,1,709614,248027,1308596,73693,9265,654395,0
17,-1,672996,232671,1366056,69850,8923,683071,0
17,-1,671939,231769,1421244,69608,8566,710737,0
17,1,708667,247693,1407947,73663,9689,704050,0
17,-1,688623,235672,1312620,72268,8386,656356,0
17,-1,669279,230824,1414337,69152,8771,707149,0
17,1,709974,248556,1282050,73908,8937,640943,0
17,-1,669690,230474,1267333,69003,8490,633520,0
17,-1,669286,231719,1295199,69449,8601,647567,2
17,1,710584,248126,1241346,73780,9041,620693,0
17,-1,662028,231458,1195912,69361,7467,597882,0
17,-1,666776,232156,1319481,69766,8679,659739,0
17,1,704422,247830,1275936,73620,8589,638076,0
17,-1,664584,231158,1337284,69275,8539,668614,0
17,1,706081,247840,1376468,73680,8571,688117,0
17,-1,668380,230376,1337350,68829,9159,668633,0
17,-1,672585,231980,1402424,69548,9198,701243,0
17,1,718292,250132,1444976,74176,10312,722498,0
17,-1,670929,232074,1366643,69654,8978,683109,0
17,1,707892,248243,1279965,73633,8803,639858,0
17,-1,662679,230281,1314482,68862,8043,657270,0
17,1,707269,248408,1328690,73702,8362,664395,1
17,1,713682,250039,1457679,74496,9453,728850,0
17,-1,666165,230903,1230387,69099,8512,614604,0
17,1,708309,248107,1589822,73568,10123,794326,0
17,-1,688507,235214,1342885,72299,9407,671013,0
17,-1,667670,232547,1467899,69849,9180,733928,0
17,1,707594,247680,1441149,73455,8977,720294,0
17,-1,670400,231037,1297456,68972,8647,648706,0
17,1,711107,247320,1349857,73225,7808,674922,0
17,-1,672675,231305,1316230,69268,8306,658107,0
17,-1,667563,231777,1317550,69134,9292,658758,0
17,1,705856,246764,1359586,73622,8753,679841,0
17,-1,670745,231161,1280728,68975,9012,640232,0
17,1,704164,247059,1354631,73700,9110,677362,0
17,-1,667582,230760,1310945,68892,9200,655496,0
17,-1,673768,233160,1308432,69936,8854,654188,0
17,1,710374,248250,1309086,74167,9207,654473,0
17,-1,670559,230876,1262833,68990,9059,631373,0
17,-1,675320,232542,1352395,69486,8895,676272,0
17,1,708328,247688,1405565,73787,9417,702620,0
17,-1,666338,230779,1286697,68816,8128,643263,0
17,-1,671952,232717,1322866,69758,8556,661423,0
17,1,711447,249682,1349730,74766,10364,675056,0
17,-1,666340,230353,1307610,68798,7617,653833,0
17,1,710589,248632,1368302,74210,8349,684189,0
17,-1,668892,229888,1300882,68582,8265,650484,0
17,-1,667114,230801,1296581,68859,7744,648423,0
17,1,712396,248006,1463163,73928,9941,731133,0
17,-1,668498,230361,1316578,68739,7571,658249,0
17,1,718519,249110,1425801,74375,9849,712799,0
17,-1,670920,230184,1238223,68666,7464,619040,0
17,1,709188,247545,1331269,73794,8719,665685,0
17,-1,685726,235428,1392724,71696,8785,696293,0
17,-1,660608,229452,1339362,68063,7569,669768,0
17,-1,661318,230289,1232302,69262,8807,616194,0
17,1,702206,246977,1366269,73861,9312,682879,0
18,-1,719696,248522,1366399,73772,8742,683287,0
18,1,706543,247473,1301713,73506,8498,650824,0
18,-1,672706,232494,1263850,69754,8805,631819,0
18,-1,659807,230138,1248530,68821,7904,624332,0
18,1,710078,249045,1421897,74391,8911,711023,0
18,-1,665965,230284,1251175,68896,8068,625642,0
18,-1,669743,230778,1322100,69082,7801,661150,0
18,1,715292,249024,1454775,74235,10254,727171,0
18,-1,667443,231017,1253464,68936,7566,626769,0
18,-1,669121,230919,1469043,69161,8377,734609,0
18,1,709523,249554,1510119,74457,9070,754932,0
18,-1,670222,231460,1255284,69364,8386,627500,0
18,-1,670782,231519,1257186,69405,9193,628421,2
18,1,708772,247820,1300260,73613,9782,650140,0
18,-1,663923,232243,1329118,69778,8307,664628,0
18,-1,662078,230221,1423154,68961,8393,711592,0
18,1,709517,248651,1446099,73917,10123,723110,0
18,-1,665855,230283,1374766,68926,8055,687362,0
18,1,712628,249979,1432997,74658,9553,716830,0
18,-1,674046,232542,1333285,69754,9311,666535,0
18,-1,672674,233464,1317674,70202,8442,658908,0
18,1,721902,251328,1329714,74833,9835,664810,0
18,-1,667330,230567,1256942,68988,7537,628514,0
18,1,706632,247890,1273538,73528,8856,636403,0
18,-1,667578,231545,1311547,69306,7398,655757,0
18,-1,667940,230864,1299072,68992,9301,649517,0
18,1,708611,248394,1414568,73744,8943,707204,0
18,1,711409,248572,1427136,73739,9646,713552,1
18,1,725992,252710,1382858,76861,10294,691484,0
18,-1,667983,230810,1300932,69023,8558,649961,0
18,-1,683782,235579,1375690,72367,8934,687787,0
18,1,711007,249293,1376212,74136,9215,688137,0
18,-1,669304,231514,1363808,69171,8523,681894,0
18,1,711016,247462,1214275,73339,7883,607042,0
18,-1,671464,231204,1215110,69194,8118,607515,0
18,-1,669764,231907,1257116,69212,8580,628300,0
18,1,705949,247540,1283224,73920,9764,641633,0
18,-1,673364,232606,1349184,69636,9135,674482,0
18,1,707421,248060,1342379,74049,8729,671232,0
18,-1,667056,230692,1236529,68938,8023,618262,0
18,-1,666455,231759,1260766,69401,8688,630052,0
18,1,711352,249178,1393906,74711,10000,696627,0
18,-1,669703,230984,1226238,69094,8220,613084,0
18,-1,669282,230426,1530212,68632,9634,765197,0
18,1,707920,247892,1434325,73856,9836,716878,0
18,-1,665778,230711,1378476,68732,9279,689230,0
18,-1,665745,230009,1341412,68602,8620,670744,0
18,1,708273,248621,1336526,74230,10957,668010,0
18,-1,665367,230049,1282389,68626,7794,641315,0
18,1,709026,248402,1375641,74147,8293,687835,0
18,-1,688010,234707,1286751,71982,8846,643392,0
18,-1,668527,231856,1202560,69502,7843,601266,0
18,1,712271,248147,1354194,74006,10186,676801,0
18,-1,667769,230632,1296572,68854,7659,648346,0
18,1,715784,248599,1292587,74158,8814,646133,0
18,-1,669182,230231,1220848,68609,7159,610380,0
18,1,712677,247897,1248478,73929,8631,624201,0
18,-1,664787,231122,1375625,68510,7989,687897,0
18,-1,660112,229862,1285255,68247,7658,642675,0
18,-1,666345,229935,1149618,69092,7940,574863,0
18,1,715759,249898,1498115,75096,9351,748994,0
19,-1,719675,248486,1300059,73726,8365,649849,0
19,1,704008,247074,1270992,73424,8346,635500,0
19,-1,687078,234512,1484401,71953,9208,742206,0
19,-1,668923,229856,1223489,68601,7879,611432,0
19,1,713022,249710,1394256,74543,8879,697213,0
19,-1,663719,229808,1303728,68671,7676,651896,0
19,-1,666396,229832,1281034,68691,8429,640609,0
19,1,714168,249938,1520459,74664,10279,759776,0
19,-1,664824,230436,1321658,68747,7645,660896,0
19,-1,671202,232306,1424490,69827,8695,711723,0
19,1,724987,252210,1366370,76923,9940,683027,0
19,-1,666495,230172,1169804,68909,7822,584873,0
19,1,712035,249479,1428359,74359,9668,714203,0
19,-1,673503,230978,1352291,69229,8792,676225,0
19,-1,662393,230442,1320093,69044,8653,659730,2
19,-1,660257,229189,1223172,68672,7622,611443,0
19,1,705006,248164,1438761,73704,10057,719015,0
19,-1,666783,231096,1342417,69219,8251,670964,0
19,1,707650,248485,1339217,73797,8054,669653,0
19,-1,667292,230517,1242705,68985,8196,621140,0
19,-1,686131,234782,1336161,72092,9569,667947,0
19,1,714485,248912,1258354,73762,9309,628924,0
19,-1,687047,235577,1454032,72411,9405,726856,0
19,1,708115,248039,1380607,73612,9122,690132,0
19,-1,665011,230983,1301640,69083,7890,650745,0
19,-1,671925,232741,1467092,69920,9789,733204,0
19,1,707162,247896,1412703,73531,8738,706383,0
19,1,706797,248751,1434863,73722,9469,717468,1
19,1,708734,247720,1318239,73422,8941,659152,0
19,-1,667491,231216,1340113,69192,8264,670332,0
19,-1,672413,231093,1283044,69068,8601,641390,0
19,1,709287,247471,1459603,73379,9295,729874,0
19,-1,665987,230620,1242442,68793,7805,621162,0
19,1,731136,251986,1336125,76604,8772,667969,0
19,-1,670875,231490,1243655,69258,7706,621753,0
19,-1,668133,231455,1325938,69039,9387,662838,0
19,1,706523,248354,1446930,73362,8566,723510,0
19,-1,669294,230704,1335886,68839,8961,667989,0
19,1,709850,248822,1244956,74475,7903,622542,0
19,-1,666875,230682,1444217,68860,8765,722161,0
19,-1,665003,230403,1201978,68823,8881,600907,0
19,1,705035,247553,1282808,73811,8224,641388,0
19,-1,667184,230279,1319709,68821,8274,659884,0
19,-1,670057,231020,1515697,68880,10297,757822,0
19,1,727379,252110,1479010,77074,11665,739520,0
19,-1,664684,230871,1359000,68851,9022,679497,0
19,-1,663384,229997,1338967,68501,8165,669419,0
19,1,707275,248016,1258128,73992,9785,628714,0
19,-1,669734,232191,1292567,69542,7406,646326,0
19,1,714203,248479,1365144,74228,8673,682619,0
19,-1,668738,230572,1317404,68832,8532,658689,0
19,-1,686040,234874,1350252,72034,8332,675171,0
19,1,711589,248063,1418962,73923,10195,708752,0
19,-1,669506,230248,1227924,68720,7575,613971,0
19,1,713642,248208,1410198,74067,9073,705099,0
19,-1,669972,230043,1207414,68567,7561,603689,0
19,1,717715,248992,1557163,74394,10975,778194,0
19,-1,688968,239257,1241093,70844,7362,620543,0
19,-1,671067,232781,1222771,69412,7677,611449,0
19,-1,669924,230480,1309411,69254,9142,654606,0
19,1,707991,247355,1289915,74012,7803,645010,0
20,-1,717371,248096,1377353,73576,8727,688717,0
20,1,738376,260071,1282939,76695,8420,641495,0
20,-1,663828,229549,1322226,68614,8095,661134,0
20,-1,670406,230648,1339230,68963,8819,669612,0
20,1,710154,248737,1404501,74129,8557,702296,0
20,-1,664975,230054,1319904,68762,8606,660035,0
20,-1,671538,232076,1325489,69703,7918,662857,0
20,1,708856,247688,1385057,73711,9615,692396,0
20,-1,666428,230786,1339090,68929,8346,669800,0
20,-1,688014,235084,1306455,72296,9311,652999,0
20,1,725757,251855,1361462,76791,9152,680686,0
20,-1,668109,230549,1431990,69042,8717,715854,0
20,1,706547,247947,1373776,73688,8913,686834,0
20,-1,676083,232252,1334040,69859,9019,666930,0
20,-1,663191,230419,1214646,69022,7803,607207,0
20,-1,664746,230617,1245504,69107,8473,622680,2
20,1,703946,247666,1367697,73564,8399,683197,0
20,-1,665520,231093,1245784,69197,8107,622834,0
20,1,706406,248574,1427886,73979,9785,713694,0
20,-1,666740,230735,1352001,68986,8902,675921,0
20,-1,666541,231245,1223079,69209,8030,611682,0
20,1,734725,254030,1369896,77251,10162,685107,0
20,-1,668358,230274,1264394,68863,8594,632193,0
20,1,729626,252745,1354344,76961,9728,676781,0
20,-1,664813,230698,1186666,69028,8273,593222,0
20,-1,688595,235648,1438707,72417,10005,719316,0
20,1,713221,248767,1501365,74048,9743,750665,0
20,1,710054,248858,1350973,73743,8465,675582,0
20,-1,667937,231668,1370422,69569,8557,683913,0
20,-1,670923,230923,1291497,69074,8725,645720,0
20,1,714729,249985,1520176,74433,9708,759999,0
20,1,707907,247984,1288932,73635,8465,644466,1
20,-1,670260,231060,1425460,68983,9264,712906,0
20,1,708232,247181,1354299,73200,7797,677182,0
20,-1,675235,233594,1243499,70230,8073,621953,0
20,-1,672597,233578,1329014,69946,9165,664522,0
20,1,728544,252125,1421172,76380,9210,710544,0
20,-1,673293,232653,1269041,69679,9421,634393,0
20,-1,671111,232673,1392110,69864,9456,695953,0
20,1,705797,247516,1267064,73902,8220,633566,0
20,-1,665741,230834,1279140,68911,8915,639503,0
20,1,729263,252098,1441727,77171,10114,720838,0
20,-1,668789,230768,1352205,68983,8186,676157,0
20,-1,674216,233090,1332367,69795,8334,666298,0
20,1,709340,247866,1375459,73885,10117,687747,0
20,-1,668926,232516,1364949,69536,8471,682516,0
20,-1,672976,233159,1323808,69886,8274,662026,0
20,1,710549,248295,1222853,74179,8545,611466,0
20,-1,687309,235363,1258864,72196,8357,629397,0
20,1,715663,248888,1387066,74364,9300,693580,0
20,-1,668272,230723,1320965,68880,8063,660522,0
20,-1,667129,229189,1220018,68310,8305,609780,0
20,1,714362,248609,1399101,74133,9380,699568,0
20,-1,666878,230397,1291646,68804,7443,645830,0
20,1,711682,248238,1404321,74157,9231,701960,0
20,-1,675730,232883,1179143,69768,7433,589398,0
20,1,713218,248226,1421990,73947,11107,711367,0
20,-1,667015,231919,1210428,68948,7372,605184,0
20,-1,686274,234882,1403594,71696,8575,701772,0
20,-1,672091,231363,1234211,69753,8270,617137,0
20,1,706665,246900,1368454,73840,8872,684267,0
21,-1,719367,248928,1249024,73904,6729,624358,0
21,1,752947,263732,1411206,77796,9471,704778,0
21,-1,664861,229871,1254761,68718,8155,627393,0
21,-1,667797,229813,1227731,68665,8713,613843,0
21,1,705873,247422,1373007,73547,7975,686555,0
21,-1,666274,231000,1216984,69121,7813,608537,0
21,-1,687317,234961,1289426,72194,8338,644782,0
21,1,706785,247496,1372569,73613,9532,686071,0
21,-1,666228,231067,1212547,68953,8012,606316,0
21,-1,668183,231291,1406365,69284,7916,703666,0
21,1,705834,247924,1249129,73765,8980,624561,0
21,-1,668334,230481,1388205,69045,8754,693904,0
21,1,710698,248855,1478194,73989,9274,738997,0
21,-1,692136,235174,1337197,72352,9994,668592,0
21,-1,661442,230092,1354372,68821,8276,677157,0
21,1,709023,248934,1319635,74001,8898,659919,0
21,-1,661835,230248,1214949,69006,7692,607384,2
21,-1,695400,240941,1299214,72343,9255,649468,0
21,1,706878,248060,1318569,73707,9155,659125,0
21,-1,693415,236618,1302130,73239,9092,650916,0
21,-1,667377,231709,1354315,69523,8853,676959,0
21,1,713483,248816,1377017,73715,8988,688534,0
21,-1,669687,231426,1358772,69263,9413,679320,0
21,1,709574,248385,1606604,73787,11084,802845,0
21,-1,666950,231815,1209565,69382,8343,604713,0
21,-1,667880,231645,1296899,69291,7708,648978,0
21,1,710833,247578,1430008,73437,9812,715027,0
21,1,712407,249041,1519338,73879,10366,759651,0
21,-1,669432,231295,1296317,69220,8772,648195,0
21,-1,671122,231182,1379009,69142,9385,689514,0
21,1,709958,247915,1374682,73536,8724,687434,0
21,-1,687560,235132,1339740,72274,9467,669783,0
21,1,714367,248079,1415528,73462,9018,707763,0
21,1,716856,250272,1228127,74557,7891,614019,1
21,-1,694882,236791,1325194,72814,9386,662449,0
21,-1,688503,236221,1313328,72397,9980,656588,0
21,1,703375,247041,1272742,72837,8194,636463,0
21,-1,671587,232333,1210028,69394,8964,604978,0
21,-1,687811,235588,1279869,72312,9154,639897,0
21,1,714457,248878,1271878,74345,8471,635991,0
21,-1,665626,231130,1253025,69045,8976,626509,0
21,1,707263,247645,1342658,73873,8959,671310,0
21,-1,671969,231198,1235542,69156,8521,617816,0
21,-1,671185,230678,1353254,68851,9225,676667,0
21,1,713964,249071,1442495,74424,10816,721227,0
21,-1,665637,231636,1278744,69085,7948,639204,0
21,-1,664794,230381,1318690,68769,8581,659392,0
21,1,711486,248876,1383207,74364,9309,691637,0
21,-1,665289,230229,1279199,68746,7644,639653,0
21,1,714737,248838,1417398,74345,9649,708740,0
21,-1,666548,230134,1361068,68648,8340,680560,0
21,-1,673216,231531,1225462,69304,8488,612577,0
21,1,714956,249683,1315156,74714,8142,657530,0
21,-1,663940,229654,1241849,68508,7272,620840,0
21,1,718526,250393,1322456,75053,9145,661032,0
21,-1,668100,230170,1254568,68595,7236,627275,0
21,1,711071,247455,1375796,73783,9972,687941,0
21,-1,661074,229998,1295205,68062,7845,647590,0
21,-1,663567,230429,1300752,68403,7718,650406,0
21,-1,668037,229928,1363609,68988,8358,681496,0
21,1,710030,247630,1268883,74067,8268,634487,0
22,-1,715560,247819,1399314,73484,7974,699673,0
22,1,762319,265207,1291704,78195,9851,645896,0
22,-1,684533,234750,1325585,72049,8654,662819,0
22,-1,668756,230461,1349025,68896,8339,674349,0
22,1,708446,248909,1431707,74185,8900,715909,0
22,-1,661941,229822,1262034,68688,7380,631035,0
22,-1,664572,229862,1278513,68549,7882,639341,0
22,1,710131,247881,1326604,73769,9615,663315,0
22,-1,690370,235384,1283583,72162,8146,641796,0
22,-1,664443,229991,1353097,68816,8004,677108,0
22,1,703664,247706,1248544,73645,8515,624151,0
22,-1,669017,231083,1341145,69243,8360,670488,0
22,1,707998,248105,1398522,73716,8748,699216,0
22,-1,673529,230911,1414602,69169,8691,707056,0
22,-1,664063,230400,1248485,68978,8805,624133,0
22,1,704848,248260,1326561,73793,9174,663185,0
22,-1,664950,232066,1327258,69822,8830,663538,2
22,-1,662660,230326,1247268,68938,8614,623643,0
22,1,704915,247638,1388866,73520,9420,694579,0
22,-1,666956,230921,1313495,69105,7921,656728,0
22,-1,663580,230392,1284942,68924,8118,642338,0
22,1,713009,248696,1591078,73723,11576,795474,0
22,-1,667534,231044,1344326,69109,8357,672120,0
22,1,715638,250116,1410353,74566,9982,705285,0
22,-1,662559,230237,1231422,68846,8235,615642,0
22,-1,667335,230786,1264674,69063,8702,631819,0
22,1,710111,248168,1342066,73843,9781,671156,0
22,1,707291,248033,1469502,73449,9875,735367,0
22,-1,668242,230840,1404522,68968,9171,702301,0
22,-1,670922,231434,1260459,69218,8019,630236,0
22,1,705980,247361,1270577,73398,8095,635338,0
22,-1,669704,231124,1352605,69179,9611,676310,0
22,1,710244,247871,1432957,73518,9135,716288,0
22,-1,672645,231695,1345261,69367,8876,672534,0
22,-1,665478,231221,1336114,68965,9169,668014,0
22,1,701678,247153,1389002,72893,8957,694552,1
22,1,708307,249211,1307637,73757,8631,653883,0
22,-1,668802,231314,1233881,69020,8733,616985,0
22,-1,663850,230231,1317745,68711,9126,658952,0
22,1,711312,248213,1223006,74311,8156,611562,0
22,-1,666803,232056,1344677,69580,8905,672403,0
22,1,707011,247977,1475815,74057,10061,737858,0
22,-1,667096,230676,1322803,68989,8055,661415,0
22,-1,695527,239431,1297404,71315,8787,648752,0
22,1,728829,251932,1425116,77005,10721,712532,0
22,-1,664687,230589,1406726,68694,7609,703347,0
22,-1,663704,230009,1218609,68599,7588,609342,0
22,1,709243,247812,1562860,73943,10473,781377,0
22,-1,666086,229844,1222305,68546,7592,611194,0
22,1,716442,249669,1269595,74596,8760,634856,0
22,-1,674196,232180,1263728,69603,8370,631934,0
22,-1,671139,231062,1173197,68994,8277,586518,0
22,1,715509,249915,1314683,74845,8610,657216,0
22,-1,667410,230280,1352628,68684,8041,676224,0
22,1,717398,249749,1368218,74790,9193,684145,0
22,-1,674514,230938,1337609,68888,7883,668861,0
22,1,710910,247850,1416977,73854,10011,708368,0
22,-1,661138,230285,1384639,68223,8808,692351,0
22,-1,664726,231014,1302231,68520,7903,651102,0
22,-1,673694,232842,1230966,70360,8633,615525,0
22,1,706763,247505,1252380,74046,8284,626111,0
23,-1,717599,248426,1310533,73659,7967,655313,0
23,1,760150,264937,1369299,78130,9523,684659,0
23,-1,668911,230507,1493263,68869,8982,746417,0
23,-1,667519,230176,1267706,68747,8430,633789,0
23,1,704232,247293,1279599,73472,7970,639837,0
23,-1,662595,230122,1323634,68781,8067,661688,0
23,-1,666644,230954,1184510,68996,7384,592311,0
23,1,710769,249556,1445948,74461,9649,722924,0
23,-1,673034,231007,1251660,68981,7815,625887,0
23,-1,668877,231239,1415200,69236,8441,707630,0
23,1,705951,248474,1422308,74064,9419,711001,0
23,-1,664213,229514,1357555,68731,8225,678844,0
23,1,706789,247803,1321863,73611,9013,660804,0
23,-1,671687,230928,1346316,69184,8693,672686,0
23,-1,667610,232433,1337710,69922,8864,668631,0
23,1,701406,247056,1231651,73358,9237,615884,0
23,-1,667800,232806,1266278,70003,9282,633129,0
23,-1,663541,230826,1189047,69160,8279,594354,2
23,1,714404,249099,1431729,74226,10143,715786,0
23,-1,665523,230563,1287388,68947,7557,643677,0
23,1,712198,248595,1320165,73906,9971,660059,0
23,-1,667976,231081,1404953,69097,8118,702379,0
23,-1,665473,230289,1220752,68842,7984,610171,0
23,1,711868,250056,1417686,74540,9368,708675,0
23,-1,664597,231352,1230325,69191,8231,614856,0
23,-1,669898,232244,1362415,69683,8712,681087,0
23,1,708266,247815,1600161,73645,10757,799789,0
23,1,711516,250179,1435959,74417,10069,718041,0
23,-1,666920,230525,1300413,68970,8031,649876,0
23,-1,667942,230732,1299321,68975,7931,649714,0
23,1,705354,247272,1267082,73332,8391,633568,0
23,-1,668123,231750,1391911,69304,8970,695775,0
23,1,711754,248858,1351592,74008,8856,675515,0
23,-1,674821,232979,1358160,69895,8910,678992,0
23,-1,667387,231777,1602628,69196,10724,801354,0
23,1,706572,248927,1231797,73630,8981,615725,0
23,1,708301,248187,1280314,74176,9395,640109,1
23,-1,670881,231247,1387869,69136,9021,693967,0
23,1,713737,249564,1284260,74858,8413,642210,0
23,-1,671341,230712,1335754,68914,9005,667847,0
23,-1,683577,234873,1383452,72108,9031,691656,0
23,1,704470,247308,1428210,73745,9431,714067,0
23,-1,665632,230488,1263811,68905,8004,631954,0
23,-1,668962,230839,1258749,68902,8330,629419,0
23,1,708596,248022,1403531,73944,9166,701722,0
23,-1,675190,231117,1489106,68862,9097,744405,0
23,-1,663415,230321,1324203,68751,8191,662147,0
23,1,707712,248218,1354653,74154,9218,677211,0
23,-1,668780,231507,1287625,69301,8001,643852,0
23,1,714344,248756,1385126,74314,9273,692608,0
23,-1,667846,230141,1221830,68652,7285,610988,0
23,-1,668516,230990,1262516,68952,7989,630945,0
23,1,711044,248122,1359357,73994,8468,679724,0
23,-1,666734,230571,1343079,68856,7368,671264,0
23,1,715163,249462,1354056,74692,9412,676861,0
23,-1,673906,231189,1217391,69138,8080,608744,0
23,1,711209,247836,1378737,73866,9142,689395,0
23,-1,671188,233117,1231110,69490,7309,615496,0
23,-1,663459,230160,1308232,68197,7981,654140,0
23,-1,686954,234438,1384382,72414,9637,692156,0
23,1,708760,247683,1351420,74114,8799,675757,0
24,-1,723583,251083,1411576,74760,8264,705725,0
24,1,762742,266088,1454558,78487,9591,727333,0
24,-1,668222,231238,1348751,69264,8496,674313,0
24,-1,667590,230163,1318683,68788,9138,659255,0
24,1,704562,247494,1353298,73537,8652,676580,0
24,-1,665008,230454,1250677,68957,7425,625364,0
24,-1,670271,231655,1335285,69424,8954,667816,0
24,1,707614,247918,1395840,73779,9634,697776,0
24,-1,671678,230581,1317391,68776,8359,658481,0
24,-1,667860,230434,1327198,68932,8430,664038,0
24,1,709451,248240,1427001,73878,9437,713328,0
24,-1,673493,233117,1370932,70174,9014,685436,0
24,1,706435,247982,1272961,73647,8456,636276,0
24,-1,669388,230154,1284033,68946,8860,641941,0
24,-1,682302,235024,1315377,72307,9394,657445,0
24,1,703426,247791,1403329,73660,9162,701633,0
24,-1,664845,230765,1322301,69132,8528,661133,0
24,-1,665180,231071,1316306,69115,8315,658125,2
24,1,730061,252305,1482664,76902,9426,741113,0
24,-1,667707,230811,1252610,69015,8299,626156,0
24,1,713343,249585,1374675,74172,9110,687221,0
24,-1,687196,235324,1300599,72326,9371,649968,0
24,-1,689625,235133,1293379,72266,8928,646641,0
24,1,712292,249253,1411174,73969,9753,705285,0
24,-1,668870,233154,1250307,70047,8861,625245,0
24,-1,667020,230725,1495622,68981,8758,747283,0
24,1,712842,249391,1426862,74393,9551,713591,0
24,1,730241,253504,1398578,76948,10309,699288,0
24,-1,670351,232505,1343880,69875,7830,671979,0
24,-1,673007,231566,1317681,69321,9153,658627,0
24,1,711632,248255,1402914,73649,9194,701467,0
24,-1,669677,231230,1274755,69151,8609,637227,0
24,1,738152,256856,1398853,76147,9342,699385,0
24,-1,669520,231395,1490258,69144,9514,745143,0
24,-1,667595,231551,1265566,69039,9017,632641,0
24,1,702279,247099,1269078,72955,8538,634552,0
24,-1,670240,231219,1525327,69146,10521,762654,0
24,1,709244,247865,1366631,74042,9418,683391,1
24,1,730373,252437,1505390,77333,9528,752724,0
24,-1,667601,230238,1261719,68803,8665,630684,0
24,-1,670275,232124,1587368,69443,9578,793684,0
24,1,710060,247651,1288446,73914,9758,644214,0
24,-1,664098,229919,1349698,68671,8394,674891,0
24,1,705067,247383,1487531,73673,10656,743637,0
24,-1,668994,230609,1241532,68835,8322,620795,0
24,-1,696827,236276,1307491,72379,9278,653780,0
24,-1,667133,231758,1314180,69344,8363,657162,0
24,1,707099,248550,1285908,74334,8331,643112,0
24,-1,667332,230864,1207937,68916,7370,604021,0
24,1,715891,249765,1321586,74821,8945,660669,0
24,-1,669235,230638,1238774,68865,8081,619271,0
24,-1,667188,230365,1202130,68704,8171,601101,0
24,1,710995,248553,1287261,74161,8533,643679,0
24,-1,665686,230049,1286459,68633,8109,643297,0
24,1,713176,249004,1689970,74378,10043,844983,0
24,-1,675418,232120,1277187,69482,8850,638497,0
24,1,710733,248023,1437191,73935,10126,718618,0
24,-1,684206,234909,1344081,71602,8361,672004,0
24,-1,664202,230782,1189479,68452,8084,594861,0
24,-1,666314,230147,1295034,69188,8641,647563,0
24,1,706471,247623,1296113,74010,8852,648097,0
25,-1,719416,248069,1255154,73587,8268,627465,0
25,1,767545,267392,1501737,79113,10734,750997,0
25,-1,669454,232020,1316102,69701,8376,657994,0
25,-1,666749,230216,1245436,68666,8032,622288,0
25,1,709813,249806,1374663,74491,8967,687433,0
25,-1,668172,232223,1360371,69720,8463,680207,0
25,-1,666960,230234,1324987,68865,7689,662367,0
25,1,707790,247704,1375572,73680,9232,687642,0
25,-1,667863,230034,1322118,68691,7766,661136,0
25,-1,667742,230670,1222644,68876,8121,611361,0
25,1,710816,249388,1398949,74492,9437,699207,0
25,-1,665619,230586,1322118,69087,8252,660997,0
25,1,706156,248742,1302141,73953,8456,651128,0
25,-1,668832,230561,1349268,69073,8700,674689,0
25,-1,660219,230471,1293223,69043,8345,646883,0
25,1,733185,253157,1368189,77155,10572,684096,0
25,-1,662674,230112,1309466,68938,8892,654585,0
25,1,713090,249104,1560447,74079,10723,779508,0
25,-1,664626,230797,1165123,69015,7700,582562,2
25,-1,665423,230525,1252016,68889,8404,625971,0
25,1,731807,253098,1352646,77091,9409,676337,0
25,-1,664759,231185,1315730,69142,8006,657830,0
25,-1,670063,231605,1312426,69324,7928,656201,0
25,1,710081,249261,1439438,73984,10528,719704,0
25,-1,684778,235314,1240193,72324,9288,619923,0
25,-1,666823,230598,1293048,68987,8035,646508,0
25,1,732264,253345,1387198,77188,9908,693386,0
25,1,707259,248244,1414278,73551,9475,706932,0
25,-1,665404,230154,1232615,68766,8268,615987,0
25,-1,669893,230964,1218966,68982,8167,609514,0
25,1,712444,248739,1307487,74043,8860,653802,0
25,-1,689160,235654,1300702,72284,9433,650369,0
25,1,731788,252996,1316508,77014,8809,658129,0
25,-1,672730,231798,1498985,69440,10118,749141,0
25,-1,690952,236868,1295137,72645,9806,647529,0
25,1,701370,247283,1249473,73037,8098,624778,0
25,-1,674374,233155,1318727,69905,8540,659253,0
25,1,703822,247879,1257946,74027,8274,628997,1
25,1,707977,248118,1357642,74106,8529,678869,0
25,-1,675361,233107,1402243,69942,9215,701198,0
25,-1,671135,230269,1258823,68816,8262,629385,0
25,1,709914,248250,1361553,74166,9580,680698,0
25,-1,670071,231540,1359268,69404,8868,679697,0
25,1,705361,247477,1279862,73746,8192,640075,0
25,-1,669618,230944,1432614,68887,8796,716363,0
25,-1,670508,230622,1263767,68712,8321,631884,0
25,-1,668179,229942,1344513,68565,8714,672303,0
25,1,712286,249123,1393219,74457,9821,696543,0
25,-1,662045,229617,1146028,68440,7615,573064,0
25,1,711692,248198,1356326,74088,9146,678138,0
25,-1,689027,234850,1280304,72059,8771,640180,0
25,-1,672605,231777,1235542,69367,8818,617097,0
25,1,717044,250316,1355599,74894,9147,678442,0
25,-1,665884,230466,1223702,68816,7864,611799,0
25,1,709789,247761,1308763,73879,8529,654379,0
25,-1,690929,234770,1420044,71920,9345,710018,0
25,1,711454,249123,1325371,74263,9471,662682,0
25,-1,661640,230401,1294840,68285,7485,647358,0
25,-1,661448,229963,1269416,68219,8455,634825,0
25,-1,669578,230172,1344902,69154,8638,672541,0
25,1,708955,248851,1371970,74716,8842,686139,0
26,-1,718797,248481,1278749,73756,8694,639418,0
26,1,766980,268784,1546563,79681,9806,773305,0
26,-1,662311,229601,1333219,68649,8309,666627,0
26,-1,687849,234611,1286422,71936,9561,643211,0
26,1,725040,252228,1399290,76835,9661,699663,0
26,-1,662485,230214,1265077,68825,7890,632596,0
26,-1,666521,230312,1390681,68976,8324,695453,0
26,1,708139,248213,1304249,73877,9328,652152,0
26,-1,669549,230246,1426882,68806,8130,713463,0
26,1,707512,248256,1308828,73848,8802,654316,0
26,-1,666280,230845,1262158,68996,8634,631455,0
26,-1,668889,230723,1351433,69091,8892,675646,0
26,1,709057,248461,1383344,73810,8934,691700,0
26,-1,675335,232317,1364137,69896,9435,681815,0
26,-1,668190,231965,1353757,69691,9493,676839,0
26,1,710460,247957,1367980,73659,8830,683850,0
26,-1,662535,230480,1224045,69011,8367,611996,0
26,1,711991,249528,1316693,74251,9540,658348,0
26,-1,688920,235370,1447497,72324,9577,723584,0
26,-1,669525,231416,1316321,69263,9053,657971,2
26,1,710477,249146,1304560,74049,8637,652221,0
26,-1,668964,232385,1375592,69731,8592,687750,0
26,-1,664423,230737,1384926,68963,8315,692003,0
26,1,713371,248811,1406633,73766,9978,703232,0
26,-1,662881,231044,1336923,69106,8252,668441,0
26,-1,666360,230813,1276562,69018,8303,638185,0
26,1,706798,247812,1407700,73629,9077,703895,0
26,1,717514,249722,1444421,74098,9544,722279,0
26,-1,668664,231996,1249317,69620,8576,624700,0
26,-1,670521,231531,1350013,69128,9297,675059,0
26,1,708911,247159,1251453,73250,8712,625758,0
26,-1,668353,231560,1296799,69150,9029,648285,0
26,1,712143,248164,1276148,73625,8543,638078,0
26,-1,669945,231393,1355409,69143,8928,677300,0
26,-1,665025,231696,1243385,69032,8840,621651,0
26,1,702425,247310,1381437,72956,9025,690781,0
26,-1,671211,231372,1323268,69115,8646,661614,0
26,1,707503,247627,1353674,73929,8675,676905,0
26,-1,667223,230507,1624464,68855,10085,812253,0
26,-1,672263,231210,1300377,69128,9364,650182,0
26,1,704738,246772,1380988,73635,9690,690513,0
26,-1,667212,231022,1263644,69074,8131,631865,0
26,1,711169,248751,1294856,74201,8708,647493,1
26,1,709313,246224,1369470,73313,9041,684894,0
26,-1,672079,232368,1466636,69590,9177,733393,0
26,-1,671277,230307,1318285,68530,8396,659187,0
26,-1,668428,230665,1454181,68798,9138,727096,0
26,1,711814,248958,1406444,74415,9839,703249,0
26,-1,671225,231668,1217613,69352,8151,608869,0
26,1,714463,249844,1304934,74805,8917,652366,0
26,-1,668781,230354,1295512,68731,8145,647786,0
26,-1,665754,229689,1442233,68500,8420,721215,0
26,1,731242,252569,1457902,77261,10180,728983,0
26,-1,673410,232662,1221893,69744,7774,610948,0
26,1,733807,253556,1429782,77679,9623,714792,0
26,-1,670912,231167,1359210,68962,8016,678684,0
26,1,713989,248426,1254428,73994,8810,627196,0
26,-1,680040,234592,1259364,71473,8970,629627,0
26,-1,681273,234571,1239170,71586,8809,619466,0
26,1,708124,247718,1364775,74057,8810,682424,0
26,-1,673059,232059,1293301,69981,8284,646800,0
27,-1,725335,251273,1330411,74902,9294,665181,0
27,1,763910,267221,1441094,79034,9470,720441,0
27,-1,665040,231210,1398360,69345,7628,699084,0
27,-1,666974,230071,1274584,68668,8422,637219,0
27,1,706983,247199,1371895,73412,8749,685981,0
27,-1,669486,230921,1321287,69149,9022,660512,0
27,-1,666536,230432,1296135,68989,7478,648112,0
27,1,730943,251942,1263423,76939,9852,631653,0
27,-1,675127,232613,1325344,69682,7759,662774,0
27,-1,668143,231053,1195772,69102,8150,597206,0
27,1,706400,248411,1397407,73942,8681,698654,0
27,-1,669186,231198,1303625,69274,8325,651827,0
27,1,707048,247355,1398599,73397,9029,699187,0
27,-1,692899,235481,1316509,72463,10117,658043,0
27,-1,665927,230417,1332332,68987,8533,666079,0
27,1,711465,249351,1383425,74297,9277,691593,0
27,-1,682818,234743,1320022,72173,10190,659854,0
27,1,709332,248335,1416128,73668,9175,707863,0
27,-1,663948,230356,1343448,68831,8575,671707,0
27,-1,665648,231045,1272483,69159,8596,636183,2
27,1,733410,253354,1395557,77195,10176,697692,0
27,-1,666043,231526,1188718,69279,7969,594318,0
27,-1,669772,231600,1400395,69479,8962,700098,0
27,1,734194,253513,1507302,77128,10195,753593,0
27,-1,661356,230401,1303712,68883,8070,651953,0
27,-1,663521,230150,1362172,68707,8433,680371,0
27,1,709572,248807,1429256,74142,9168,714702,0
27,1,741755,254570,1425135,77765,10287,712458,0
27,-1,666553,231067,1228181,69142,8750,614124,0
27,-1,668648,230819,1246542,68959,8381,623222,0
27,1,709444,247670,1346369,73454,8952,673337,0
27,-1,669894,232044,1377041,69479,8664,688551,0
27,1,711625,248405,1330549,73702,7881,665238,0
27,-1,671559,232385,1343495,69552,8660,671637,0
27,-1,673563,232469,1387709,69368,8634,693774,0
27,1,724943,251774,1383338,76195,9093,691613,0
27,-1,673973,233473,1343654,70057,8393,671713,0
27,1,708669,246955,1383000,73650,8761,691544,0
27,-1,669065,231574,1370757,69302,9059,685482,0
27,-1,671194,230513,1334309,68886,9343,667029,0
27,1,708032,247999,1421601,74011,10153,710704,0
27,-1,664534,230292,1292191,68800,9138,646106,0
27,1,714698,248755,1479569,74202,10920,739337,0
27,1,712997,248159,1401218,73998,9098,700658,1
27,-1,690422,235849,1305304,72324,9198,652634,0
27,-1,673324,231571,1259398,68974,8490,629659,0
27,-1,675066,233139,1409754,69936,8774,704923,0
27,1,709121,248406,1473477,74204,10533,736609,0
27,-1,671211,230777,1170344,68917,7746,585204,0
27,1,715237,249392,1381334,74464,9043,690673,0
27,-1,667868,230145,1195461,68667,7775,597772,0
27,-1,669397,230951,1429283,68937,8397,714342,0
27,1,712568,249933,1342171,74756,9018,670829,0
27,-1,691764,234381,1332815,71820,8701,666460,0
27,1,711337,249347,1322109,74656,9301,660942,0
27,-1,670498,231205,1433953,69098,8084,717172,0
27,1,733154,252566,1343175,77219,10228,671768,0
27,-1,662869,230568,1377928,68344,7352,689061,0
27,-1,663362,230373,1213470,68454,8192,606750,0
27,1,710273,249562,1300273,74937,9317,650350,0
27,-1,688049,234600,1440054,72456,9498,720045,0
28,-1,736626,252529,1305663,76800,9282,652857,0
28,1,758645,265333,1374201,78259,9462,687154,0
28,-1,664973,229886,1413980,68747,8116,706851,0
28,-1,665422,229751,1214299,68461,8175,607213,0
28,1,705707,247488,1320109,73529,8177,660061,0
28,-1,668825,231951,1379657,69629,8835,689635,0
28,-1,666022,230107,1247746,68872,7608,623930,0
28,1,715609,249587,1368041,74510,8341,684081,0
28,-1,669683,230896,1238043,68958,7251,619106,0
28,-1,670658,232344,1282528,69669,8939,641314,0
28,1,707840,248744,1413985,74212,9353,707013,0
28,-1,666922,230369,1251598,68963,8254,625593,0
28,1,711284,249911,1437027,74576,9511,718477,0
28,-1,670751,231228,1273526,69285,9184,636714,0
28,-1,666613,230986,1334580,69238,8742,667280,0
28,1,709064,248219,1413792,73772,9496,706986,0
28,-1,668617,231124,1244291,69260,8296,622016,0
28,1,706608,247672,1536889,73562,8727,768433,0
28,-1,670192,231631,1322783,69321,7953,661376,0
28,1,711522,249099,1297709,73945,8696,648913,0
28,-1,662691,230688,1190522,68969,7311,595301,0
28,-1,663604,230837,1253766,69091,8069,627112,2
28,-1,669141,231862,1412434,69393,7858,705965,0
28,1,711862,249056,1600703,73898,10988,799983,0
28,-1,665143,232162,1304218,69685,8084,652083,0
28,-1,686178,235493,1264164,72344,8599,631760,0
28,1,708935,247259,1415074,73407,9908,707572,0
28,1,714778,248736,1439850,73609,9735,719604,0
28,-1,669274,230645,1234175,68966,9079,616908,0
28,-1,671542,232463,1259384,69741,8535,629532,0
28,1,711169,247335,1374704,73330,9245,687402,0
28,-1,666969,231298,1273900,69062,8151,636860,0
28,1,708939,247070,1354487,73225,8705,677219,0
28,-1,674117,232015,1296599,69474,9080,648289,0
28,-1,674979,231398,1363188,68946,9243,681603,0
28,1,706411,248086,1257839,73341,8439,628990,0
28,-1,692963,237453,1318591,72890,9761,659271,0
28,1,709258,247836,1347633,73958,8967,673811,0
28,-1,669419,230678,1320539,68887,9595,660290,0
28,-1,669739,230821,1341901,69050,8882,670871,0
28,1,706950,248652,1271698,74444,9474,635603,0
28,-1,669326,232693,1260892,69905,9347,630261,0
28,1,710862,247973,1253326,73898,8286,626698,0
28,-1,666240,230484,1249614,68736,8237,624842,0
28,-1,669961,230288,1325453,68539,8622,662745,0
28,-1,667094,229829,1240126,68554,7737,620058,0
28,1,711406,249891,1361192,74902,10550,680539,0
28,1,709227,248994,1385807,74387,9805,692863,1
28,-1,669956,230203,1303754,68668,9210,651925,0
28,1,715460,250276,1370157,74942,8469,685143,0
28,-1,672589,232355,1247485,69573,7532,623753,0
28,-1,665859,230041,1349663,68623,8312,674872,0
28,1,711979,248779,1284221,74181,9346,642142,0
28,-1,670236,229923,1287824,68646,8356,643872,0
28,1,736241,253529,1445297,77500,10312,722283,0
28,-1,670484,230059,1340699,68590,8500,670183,0
28,1,729316,251852,1439102,76979,9965,719420,0
28,-1,659579,229705,1261265,67985,7307,630661,0
28,-1,662084,230367,1303102,68374,8043,651318,0
28,1,706047,247030,1304610,73811,9236,652342,0
28,-1,666961,230243,1229019,69181,7899,614588,0
29,-1,716220,248240,1242498,73647,8405,621279,0
29,1,780365,270102,1568966,81585,10043,784516,0
29,-1,664133,229844,1224616,68732,7936,612199,0
29,-1,665019,229986,1334462,68620,8799,667150,0
29,1,706884,247831,1313736,73548,8333,656946,0
29,-1,686230,234758,1374983,72017,9555,687059,0
29,-1,663482,229570,1334044,68642,8326,667053,0
29,1,708805,247792,1319013,73748,9281,659961,0
29,-1,668625,230451,1232627,68798,7560,616359,0
29,-1,664303,230510,1426332,68920,8577,711946,0
29,1,706433,247876,1243135,73776,8759,621422,0
29,-1,672967,232216,1364139,69772,9360,682167,0
29,1,706102,247541,1274947,73523,8728,637320,0
29,-1,671688,231723,1304727,69547,9563,652382,0
29,-1,663288,229757,1248072,68809,8577,623663,0
29,1,712621,249194,1377866,74264,9325,688804,0
29,-1,670504,231521,1401555,69548,9446,700580,0
29,1,707318,248800,1401609,73941,8774,700609,0
29,-1,668037,230872,1353720,68970,8274,676547,0
29,1,715202,249346,1422538,74072,10173,711331,0
29,-1,688354,234953,1276396,72160,9538,638167,0
29,-1,665678,230812,1324060,69076,8568,662058,0
29,1,730803,251970,1365863,76702,9955,682974,0
29,-1,673111,230844,1345869,69032,8415,672961,0
29,-1,661052,231224,1239218,69214,7296,619551,2
29,-1,666410,230808,1366055,69019,8373,682522,0
29,1,709927,248621,1416823,73965,9285,708443,0
29,1,712559,248284,1319301,73431,8585,659693,0
29,-1,671938,232293,1291369,69685,9347,645926,0
29,-1,690201,235688,1240359,72271,9273,620019,0
29,1,716040,249517,1309354,74224,9073,654730,0
29,-1,664456,230673,1324097,68772,8766,661821,0
29,1,708580,247528,1442195,73455,8527,721093,0
29,-1,677123,233099,1327602,69977,9044,663698,0
29,-1,696127,236374,1344563,72453,10008,672246,0
29,1,707481,247857,1437070,73100,8201,718545,0
29,-1,669830,231605,1225150,69169,8208,612544,0
29,1,707814,246999,1349761,73691,8148,674956,0
29,-1,667065,230279,1226383,68824,8291,613229,0
29,-1,666920,230149,1309773,68742,7897,654631,0
29,1,708012,247678,1397789,73967,10820,698667,0
29,-1,689347,235292,1257204,72247,9536,627984,0
29,1,712000,248965,1226030,74380,8682,613093,0
29,-1,670414,231082,1273210,68924,9318,636609,0
29,-1,673772,231901,1198200,69091,8392,599147,0
29,-1,670851,232360,1331077,69552,7756,665601,0
29,1,703621,247448,1422418,73926,10057,711107,0
29,1,708653,248731,1475599,74253,9972,737641,1
29,-1,669271,230341,1285086,68757,9147,642620,0
29,1,712336,248355,1401587,74132,9665,700826,0
29,-1,667086,230618,1234919,68847,7256,617553,0
29,-1,690869,235421,1367759,72191,9960,683344,0
29,1,710708,248426,1462606,74055,9690,731614,0
29,-1,671568,230504,1278005,68833,8530,638851,0
29,1,712056,248600,1409493,74183,9619,704660,0
29,-1,669148,230032,1255752,68693,8030,627993,0
29,1,712133,248779,1306917,74176,8933,653393,0
29,-1,662617,230206,1274662,68183,7140,637334,0
29,-1,659395,230201,1290005,68346,8138,644997,0
29,1,704251,247581,1439615,74090,9057,719799,0
29,-1,666285,230442,1196230,69290,7960,598202,0
30,-1,716622,248828,1380746,73890,9090,690431,0
30,1,759678,265799,1319639,78477,8943,659768,0
30,-1,691930,239452,1256675,71615,7826,628387,0
30,1,704048,247292,1386639,73511,8746,693363,0
30,-1,672419,233193,1356343,69917,8897,678046,0
30,-1,664220,229991,1260893,68741,7728,630497,0
30,-1,663482,230233,1199714,68858,7723,599901,0
30,1,731305,252254,1393010,76952,10758,696467,0
30,-1,667016,230242,1329507,68701,8270,664813,0
30,-1,666327,231363,1291212,69190,8733,645355,0
30,1,707488,248277,1376182,73868,8419,687877,0
30,-1,693506,239403,1378178,71653,9028,689199,0
30,1,708519,248793,1313137,73967,9131,656436,0
30,-1,669280,230347,1282747,68978,9573,641269,0
30,-1,682651,234377,1294762,72110,9755,647383,0
30,1,708028,248152,1370529,73666,9234,685017,0
30,-1,687825,235197,1335086,72353,9554,667498,0
30,1,708731,248018,1282746,73737,8607,641411,0
30,-1,687273,235182,1229922,72309,8802,614901,0
30,1,712157,249016,1291582,74017,8558,645909,0
30,-1,668932,231204,1340143,69198,9018,670305,0
30,-1,667764,232110,1348595,69641,8525,674340,0
30,1,709642,248026,1412618,73596,9076,706047,0
30,-1,674434,231997,1337926,69440,8835,668649,0
30,-1,670565,233735,1285654,70292,8433,642902,2
30,-1,665189,230658,1281624,68973,8460,640515,0
30,1,707735,247880,1298704,73630,8859,649417,0
30,1,707338,246736,1427825,72965,9246,713952,0
30,-1,687942,235324,1248097,72283,9360,624018,0
30,-1,668305,230849,1248741,68929,8817,624374,0
30,1,709076,247685,1410504,73435,9118,705293,0
30,-1,672787,231970,1523521,69332,10080,761773,0
30,1,729066,251629,1378984,76551,9299,689465,0
30,-1,670997,231174,1230359,69209,7800,615281,0
30,-1,677473,232982,1322346,69742,9309,661140,0
30,1,705105,247499,1361274,72937,8253,680654,0
30,-1,669756,231485,1390485,69140,8848,695254,0
30,1,705029,246941,1350711,73672,8837,675392,0
30,-1,669516,231312,1348347,69099,9201,674020,0
30,-1,667705,230661,1493577,69013,10578,746811,0
30,1,705192,247861,1417493,74040,10439,708262,0
30,-1,668515,230320,1277196,68842,9242,638422,0
30,1,706684,247114,1227015,73585,7672,613559,0
30,-1,690518,234989,1364398,72125,9193,682163,0
30,-1,677912,233459,1332231,69833,9392,666188,0
30,-1,666024,230312,1265558,68702,8188,632827,0
30,1,702807,247448,1352379,73878,9282,676198,0
30,-1,668669,230063,1456203,68614,9219,728867,0
30,1,712289,248888,1360941,74369,9483,680526,1
30,1,709469,248664,1384227,74300,9882,692117,0
30,-1,666159,230041,1314271,68615,7523,657142,0
30,-1,665537,229912,1372852,68628,8310,686480,0
30,1,709662,248516,1405522,74058,8675,702459,0
30,-1,675963,232535,1240414,69628,8573,620006,0
30,1,720111,250602,1627698,75075,11461,812662,0
30,-1,670167,230716,1385344,68840,8455,692252,0
30,1,711699,248625,1516178,74138,10308,757966,0
30,-1,668049,232972,1201799,69360,7283,600900,0
30,-1,665205,229826,1296952,68187,8059,648532,0
30,1,699972,246440,1391761,73665,9363,695903,0
30,-1,666881,230666,1303095,69313,8066,651608,0
31,-1,715690,248751,1300486,73846,8737,650286,0
31,1,758622,265742,1351015,78355,9505,675512,0
31,-1,667320,231861,1327365,69648,8146,663640,0
31,1,706825,247155,1422922,73394,8976,711498,0
31,-1,672388,232007,1404088,69476,9228,701849,0
31,-1,666549,231167,1307077,69113,8435,653287,0
31,-1,665015,230260,1239210,68938,7284,619640,0
31,1,706821,247900,1433245,73628,9074,716663,0
31,-1,667148,230284,1281192,68742,7596,640636,0
31,-1,674956,232758,1371046,69878,9832,685427,0
31,1,707194,248875,1410102,74260,9401,704897,0
31,-1,667139,230216,1388264,68864,8406,694126,0
31,1,704359,247769,1309038,73595,8910,654433,0
31,-1,672560,232413,1254973,69976,9680,627593,0
31,-1,663284,230982,1358569,69184,9105,679417,0
31,1,709968,248709,1411281,73951,9148,705842,0
31,-1,665357,230587,1213198,69013,8091,606583,0
31,1,707774,247741,1355060,73660,8848,677612,0
31,-1,669289,231570,1240392,69294,7657,620242,0
31,1,716544,250930,1455054,74915,10010,727312,0
31,-1,668505,231218,1230491,69208,8317,615165,0
31,-1,666350,230834,1365031,69072,8498,682548,0
31,1,711244,248794,1327627,73929,9477,663837,0
31,-1,675231,232637,1357765,69905,9820,678854,0
31,-1,665480,230433,1297442,68943,7631,648676,2
31,1,708482,247046,1360559,73272,9557,679886,0
31,-1,665040,231207,1316479,69150,7648,658065,0
31,-1,664538,231276,1409113,69185,8852,704611,2
31,-1,663859,230523,1317589,68934,8608,658757,2
31,-1,669567,232103,1371604,69726,9193,686148,2
31,1,711070,248591,1543342,73610,10559,771712,0
31,-1,667449,230788,1306868,69004,9639,653394,0
31,-1,668081,231498,1345609,69297,8546,672834,2
31,-1,665785,231214,1339987,69168,7595,670432,2
31,-1,675250,233491,1224249,70069,8903,612081,2
31,-1,667513,230927,1402222,69023,10606,700563,0
31,-1,666984,230930,1238113,69090,7853,618881,2
31,1,707173,247237,1423557,73283,8534,711795,0
31,-1,664069,230592,1297169,68952,8421,648650,2
31,-1,668377,230611,1322836,68887,8349,661437,0
31,-1,668010,232723,1346069,69825,8969,673128,2
31,1,711255,247275,1281475,73315,8977,640696,0
31,-1,667974,231243,1220533,69177,7502,610378,2
31,-1,673169,231960,1317520,69449,9012,658644,2
31,-1,671703,231363,1362492,69210,8685,681251,0
31,-1,671854,232524,1352197,69413,9307,675877,2
31,-1,674378,232305,1382124,69380,11191,690419,0
31,-1,673182,231882,1266003,69135,9316,633018,2
31,1,703461,247265,1266960,72797,7868,633239,0
31,-1,669389,231958,1343537,69254,9725,671597,2
31,-1,666928,231842,1261886,69241,8493,630672,2
31,-1,669727,231936,1589178,69343,10778,794483,0
31,-1,668938,231786,1237761,69333,8515,618875,2
31,-1,676392,233932,1394325,70159,9166,696950,2
31,-1,665792,231747,1335911,69238,8989,667921,2
31,-1,667062,231315,1219699,69175,8363,609707,2
31,1,708772,249231,1243121,74695,8331,621643,0
31,-1,692401,239982,1429415,71658,9465,714574,2
31,-1,674323,233146,1329540,69977,8579,664565,0
31,-1,671210,231733,1263755,69246,8331,631876,2
31,-1,668941,232261,1250483,69676,8624,624989,2
31,-1,672362,231683,1319556,69495,9385,659894,0
31,-1,670230,231324,1240693,69228,8413,620349,2
31,1,703089,247470,1414389,73899,10439,706799,0
31,-1,673877,233557,1314923,70066,8141,657498,2
31,-1,664357,229093,1335247,68450,8906,667276,0
31,-1,663336,230130,1371345,68805,8950,685711,2
31,-1,666743,229996,1279265,68802,8567,639678,2
31,-1,668377,231118,1251820,69073,8840,625955,2
31,1,710747,247682,1429510,73812,9699,714790,0
31,-1,671654,231958,1491563,69332,9178,745821,0
31,-1,665625,230734,1238014,68782,8881,619060,2
31,-1,672563,231264,1338006,68891,8692,669040,0
31,-1,679572,233714,1347650,70076,8638,673892,2
31,-1,665665,230324,1341331,68695,8260,670677,0
31,1,717255,249128,1530737,74500,12393,765025,0
31,-1,667120,230299,1343875,68749,9447,671333,2
31,-1,673267,232382,1337831,69641,8595,668673,0
31,-1,666690,230278,1309260,68761,8050,654682,2
31,1,714970,249548,1307725,74746,8985,653930,0
31,-1,666673,230902,1200712,68952,7036,600393,2
31,1,713196,248869,1266048,74390,8458,633073,1
31,-1,663975,229777,1240628,68617,7629,620371,0
31,-1,667322,230418,1306432,68809,7468,653038,2
31,1,709974,248891,1361318,74374,8837,680669,1
31,-1,668372,230365,1196031,68730,7594,598062,2
31,-1,663107,230641,1328155,68881,7314,663952,2
31,1,712549,249433,1461213,74379,8218,730650,1
31,-1,666388,230834,1236545,68871,7001,618359,2
31,-1,664262,229886,1253754,68507,7599,627064,0
31,1,711948,247972,1440968,73867,9381,720439,0
31,-1,671605,231494,1282692,69158,8721,641293,2
31,1,711460,248401,1401623,74122,8510,700868,1
31,1,713780,248623,1456744,74193,10633,728392,1
31,-1,676152,232948,1194140,69924,8701,596890,0
31,-1,668613,230286,1228374,68784,8386,614105,2
31,-1,668691,231510,1321883,69158,7592,660945,2
31,1,708847,248441,1360694,74170,9365,680377,1
31,1,713749,248733,1286366,74259,7872,643183,0
31,1,713076,248905,1311891,74309,8855,655628,1
31,-1,689302,234923,1443457,72028,9130,722078,0
31,-1,671881,230876,1288250,68901,8228,644099,2
31,1,712185,248376,1407350,74109,9087,703491,1
31,1,710442,248318,1564493,74029,10565,782130,0
31,-1,681657,235058,1289395,71603,8107,644618,0
31,1,720678,251192,1420277,75163,10081,710361,1
31,-1,661831,230440,1297880,68369,7611,648886,2
31,-1,660099,230990,1297985,68490,7823,648908,2
31,-1,667029,232475,1231724,69197,8184,615931,2
31,1,710528,247531,1409135,74068,8217,704592,1
31,-1,664178,231363,1314582,68627,7651,657335,2
31,-1,665484,229939,1316950,68227,7566,658419,0
31,-1,659543,230100,1199892,68367,8158,599969,2
31,1,710640,247526,1389248,74061,8790,694780,1
31,-1,669294,232710,1224076,69426,7806,612098,2
31,1,709425,248237,1458945,74437,9551,729525,0
31,-1,669647,232169,1208032,70092,8532,604086,0
31,-1,664126,230456,1271860,69307,7724,636040,2
31,1,705436,247458,1350045,73964,8552,675050,1
31,1,705245,247898,1338581,74200,8198,669334,1
31,1,708720,249539,1360175,74930,8096,680151,1
31,-1,674170,233728,1236041,70606,8329,618142,2
