0,-1,685663,236853,1309996,70474,8425,654976,0
0,-1,687578,237002,1230084,70679,7253,614642,2
0,-1,643196,220978,1140503,66636,7603,569532,0
0,-1,637690,220015,1335643,66295,7948,667181,0
0,-1,669471,230704,1362097,69720,7764,680451,0
0,-1,639578,220179,1259079,66374,7075,628926,0
0,-1,646706,221280,1641844,66815,9589,820366,0
0,-1,647682,221315,1352237,66876,7940,675387,0
0,-1,635036,218931,1258440,65900,6985,628825,0
0,-1,638737,219766,1133462,66179,6702,566471,0
0,-1,661419,224006,1389026,69387,9314,694145,0
0,-1,647823,221593,1326180,67052,9227,662384,0
0,-1,641767,219967,1328871,66126,7771,663958,0
0,-1,639244,219224,1169548,65902,7578,584492,0
0,-1,635574,219431,1292102,65979,7612,645464,0
0,-1,689249,233576,1286957,72149,8650,642980,0
0,-1,643457,219855,1208636,66146,7937,603879,0
0,-1,640400,220028,1229210,66206,7968,614178,0
0,-1,641681,219410,1375443,65975,8058,687299,0
0,-1,641184,219179,1421159,65767,8458,710245,0
0,-1,640366,220008,1212118,66004,7311,605746,0
0,-1,644697,222133,1447026,66930,8200,722874,0
0,-1,645845,220634,1264860,66176,7190,632033,0
0,-1,639954,219915,1328505,65959,7760,663984,0
0,-1,645197,220636,1295742,66561,7339,647339,0
0,-1,639138,219864,1288162,66264,8036,643586,0
0,-1,640369,219619,1215413,65890,7392,607316,0
0,-1,641946,219617,1226796,65720,7272,613045,0
0,-1,646154,220429,1313147,66345,8680,656059,0
0,-1,644031,220654,1298792,66402,8495,648888,0
0,-1,640568,219014,1285597,65643,7781,642483,0
0,-1,645370,219539,1266483,65874,8267,632878,0
0,-1,637685,218322,1334894,65392,8032,667174,0
0,-1,644621,221119,1285647,66583,7409,642337,0
0,-1,638093,219216,1182650,65714,7530,590939,0
0,-1,639826,219186,1269729,65844,7387,634430,0
0,-1,639996,218725,1433803,65641,8095,716563,0
0,-1,642487,218773,1269273,65709,8094,634317,0
0,-1,642081,218793,1406934,65607,9045,702684,0
0,-1,659171,223943,1293782,69187,8800,646627,0
0,-1,641429,218546,1280978,65645,7431,640142,0
0,-1,638715,219314,1229428,65911,7322,614231,0
0,-1,640598,218910,1298635,65660,7578,648908,0
0,-1,663803,223310,1304862,68946,7952,652164,0
0,-1,658843,224152,1358790,68697,8504,679084,0
0,-1,644227,220345,1231171,65635,8185,615149,0
0,-1,638257,218962,1450676,65945,9679,724922,0
0,-1,642324,220187,1252033,66621,8723,625549,0
0,-1,642190,220148,1392264,66460,8142,695455,0
0,-1,643651,220159,1199708,66595,7056,599317,0
0,-1,640078,219695,1319064,66257,8637,659197,0
0,-1,641656,219528,1241576,66245,6979,620318,0
0,-1,641402,219945,1213778,66397,7850,606444,0
0,-1,664764,224725,1240551,69740,8141,619928,0
0,-1,646343,220899,1192101,67085,8022,595609,0
0,-1,644616,219095,1581171,66076,10799,789610,0
0,-1,638773,219100,1297946,66084,7668,648583,0
0,-1,634498,218346,1273409,66011,7139,636373,0
0,-1,640106,219432,1268580,66451,7947,633947,0
0,-1,643652,218853,1284219,66230,8494,641755,0
1,-1,691957,239480,1248894,71805,7781,623849,2
1,-1,659028,223882,1227594,69093,8167,613462,0
1,-1,637257,220062,1437122,66101,8579,718049,0
1,-1,660701,222675,1325265,68789,8460,662345,0
1,-1,636650,218178,1138492,65505,6871,568966,0
1,-1,662312,223999,1442169,69179,9201,720472,0
1,-1,645204,219975,1159390,66111,8358,579166,0
1,-1,632252,218433,1262858,65749,8133,631143,0
1,-1,634826,218643,1194605,65786,7087,596952,0
1,-1,637739,218869,1226556,65898,7772,612736,0
1,-1,637176,218498,1223406,65717,7729,611304,0
1,-1,666300,228668,1215604,68736,7654,607441,0
1,-1,640480,219066,1300380,65875,8079,649651,0
1,-1,636129,219523,1211162,65962,8557,605240,0
1,-1,642573,221324,1309804,66809,7933,654274,0
1,-1,662714,223707,1271060,69096,8555,635102,0
1,-1,640421,219260,1303792,65939,7619,651286,0
1,-1,646096,221379,1332707,66803,8166,665853,0
1,-1,645928,220204,1289405,65989,8406,643791,0
1,-1,640932,220867,1275156,66531,8109,637140,0
1,-1,640092,220529,1245676,66140,7620,622376,0
1,-1,646285,221542,1368694,66730,7620,683723,0
1,-1,642825,219888,1356379,65966,7296,677760,0
1,-1,640368,219084,1216305,65910,7477,607786,0
1,-1,637600,219515,1189393,65982,7117,594332,0
1,-1,643434,220286,1375015,66119,7464,687130,0
1,-1,660424,223854,1349302,68904,7845,674282,0
1,-1,641413,219166,1226817,65695,7879,613033,0
1,-1,645253,221333,1409141,66758,8653,703983,0
1,-1,638967,218481,1195412,65477,7305,597353,0
1,-1,643554,219113,1425242,65667,8891,712473,0
1,-1,637469,219088,1247015,65665,7626,623133,0
1,-1,659378,223699,1223136,68924,8013,611287,0
1,-1,639226,219739,1279082,65839,8081,638908,0
1,-1,638989,219254,1159683,65840,7505,579466,0
1,-1,643578,220667,1343798,66517,8338,671368,0
1,-1,642754,219155,1185180,65775,7002,592188,0
1,-1,639715,218638,1368533,65602,9578,683940,0
1,-1,637908,218911,1301231,65750,8869,650251,0
1,-1,640721,218609,1199803,65611,7216,599564,0
1,-1,639565,218490,1286175,65565,7838,642616,0
1,-1,640840,219493,1348957,65940,8625,674095,0
1,-1,643961,219404,1266555,65897,7284,633019,0
1,-1,635758,218890,1226270,65282,7408,612775,0
1,-1,640380,219326,1206403,65266,8408,602707,0
1,-1,635889,219593,1335133,65398,7738,667123,0
1,-1,640756,219950,1143856,66496,7743,571512,0
1,-1,640844,219492,1355866,66373,8218,677279,0
1,-1,663656,224690,1408208,69839,8978,703651,0
1,-1,644236,221982,1201471,67325,8803,599984,0
1,-1,638754,219276,1305965,66120,7193,652631,0
1,-1,643188,220832,1194930,66993,7009,596762,0
1,-1,642554,220078,1162781,66471,7348,580995,0
1,-1,665857,224368,1342828,69713,9304,671075,0
1,-1,646625,220208,1303484,66456,8369,651536,0
1,-1,637783,218804,1191276,65953,7107,595351,0
1,-1,657241,222994,1347993,69447,8657,673673,0
1,-1,664316,223891,1318834,69694,8577,659009,0
1,-1,640476,218232,1290358,66080,8146,644563,0
2,-1,634790,219003,1245938,65709,7380,622540,2
2,-1,636682,218820,1120436,65599,7086,559836,0
2,-1,635669,218352,1208717,65499,7625,603934,0
2,-1,638889,218616,1188092,65681,7832,593599,0
2,-1,635517,218664,1236004,65738,6422,617710,0
2,-1,638567,218401,1361513,65499,9028,680272,0
2,-1,642635,219202,1216856,65799,8196,608082,0
2,-1,635372,219027,1181332,65984,7175,590143,0
2,-1,636528,219200,1239529,66042,7363,619417,0
2,-1,641506,219237,1223028,66033,7946,611097,0
2,-1,643674,221329,1310484,66870,8573,654745,0
2,-1,639666,219860,1162628,66132,7567,580916,0
2,-1,644619,221333,1315089,66801,8299,656801,0
2,-1,659273,223408,1292724,69044,8314,645890,0
2,-1,637763,220132,1242004,66234,7649,620588,0
2,-1,640171,219229,1308130,65948,7682,653695,0
2,-1,645144,221497,1329112,66947,7800,663965,0
2,-1,640828,218889,1270206,65709,7720,634583,0
2,-1,649574,221582,1423312,66863,9565,710944,0
2,-1,658595,224296,1234756,69211,8423,616995,0
2,-1,643307,221722,1424619,66671,8492,711742,0
2,-1,669700,226125,1237442,70274,8490,618240,0
2,-1,641224,219595,1240756,65876,7199,620090,0
2,-1,640831,219608,1289624,65983,7229,644522,0
2,-1,634640,218482,1264461,65592,7368,631932,0
2,-1,640333,219620,1166210,65946,7067,582778,0
2,-1,641097,219534,1211851,65594,7300,605635,0
2,-1,644685,220555,1333588,66475,7745,666225,0
2,-1,638089,219025,1235037,65739,7531,617198,0
2,-1,642987,220595,1247734,66503,7067,623254,0
2,-1,648263,220930,1324340,66573,8346,660970,0
2,-1,640738,220102,1270151,66227,7900,634459,0
2,-1,638822,218522,1229723,65431,7248,614555,0
2,-1,638064,219618,1340810,65783,8221,670051,0
2,-1,639177,219086,1215375,65755,7809,607331,0
2,-1,636084,218166,1202404,65454,7341,600825,0
2,-1,643336,219223,1295178,65864,8075,647286,0
2,-1,648174,221655,1302421,66956,8876,650503,0
2,-1,634339,217839,1155959,65299,8122,577683,0
2,-1,638704,218019,1199261,65443,7423,599350,0
2,-1,645068,220774,1178584,66655,8102,588609,0
2,-1,637810,218689,1143821,65649,7194,571555,0
2,-1,643998,219784,1291185,66019,7317,645239,0
2,-1,633717,218735,1741241,65236,9930,870173,0
2,-1,644898,221828,1432165,66381,8642,715116,0
2,-1,635075,219223,1267456,65227,7433,633256,0
2,-1,641006,219474,1196923,66339,8393,597976,0
2,-1,642043,219865,1349161,66462,8580,674276,0
2,-1,643734,219726,1182633,66382,6998,590969,0
2,-1,660077,224904,1251415,69805,9209,625354,0
2,-1,645100,220731,1196545,66849,7414,597633,0
2,-1,661944,224667,1351998,69751,8572,675669,0
2,-1,641889,219990,1348931,66453,7517,674172,0
2,-1,643377,219954,1354874,66428,8371,677162,0
2,-1,645625,219910,1322172,66349,7724,660625,0
2,-1,640868,220215,1322731,66475,7794,660980,0
2,-1,636919,219460,1220228,66595,7260,609574,0
2,-1,641422,219241,1318305,66406,8149,658776,0
2,-1,638746,218120,1336996,66011,8276,667810,0
3,-1,634857,218438,1221214,65484,7264,610279,0
3,-1,637466,219312,1354954,65795,8634,677351,2
3,-1,639087,219303,1277083,65836,7875,638153,0
3,-1,642487,220381,1149709,66594,6894,574095,0
3,-1,637233,219473,1273468,65990,7230,636474,0
3,-1,640373,219341,1413231,65852,8659,706082,0
3,-1,643776,219932,1171107,66084,8361,584998,0
3,-1,638676,219197,1228410,65995,7011,613813,0
3,-1,642016,221550,1549137,67062,8948,773948,0
3,-1,644376,220707,1317324,66671,8775,657914,0
3,-1,641565,219799,1362374,66180,8908,680714,0
3,-1,636417,218891,1266296,65771,7597,632970,0
3,-1,639495,219544,1263390,66001,8055,631206,0
3,-1,641453,220472,1235964,66304,8383,617597,0
3,-1,635011,218753,1337868,65681,7626,668582,0
3,-1,646917,221146,1233020,66739,7985,615730,0
3,-1,660315,223809,1243959,69215,8274,621543,0
3,-1,647993,222461,1320742,67296,7831,659778,0
3,-1,643034,219452,1365270,65879,8874,682199,0
3,-1,641642,220962,1249217,66552,8322,624095,0
3,-1,642020,221073,1338979,66322,8375,668940,0
3,-1,644006,220760,1282756,66237,7271,641051,0
3,-1,639558,219666,1256846,65932,7308,628074,0
3,-1,640065,219085,1259298,65885,7372,629217,0
3,-1,635514,219179,1257314,65814,7650,628339,0
3,-1,639658,219493,1184620,65931,7038,591999,0
3,-1,640031,219591,1196810,65733,7542,598119,0
3,-1,661124,223429,1399261,68917,8049,699290,0
3,-1,641914,220272,1263459,66306,7568,631236,0
3,-1,641506,219037,1238210,65702,7621,618775,0
3,-1,664750,223825,1342006,69042,9418,670318,0
3,-1,636471,218741,1294444,65564,8133,646901,0
3,-1,637258,218386,1254687,65315,7549,627074,0
3,-1,639553,220798,1304891,66462,7962,651652,0
3,-1,638987,218292,1290115,65462,7987,644706,0
3,-1,663419,223809,1363351,69148,8561,681324,0
3,-1,643891,219928,1272271,66285,8013,635629,0
3,-1,638521,218429,1314495,65579,8103,656796,0
3,-1,644821,219506,1216196,65953,7895,607701,0
3,-1,639881,218801,1360976,65656,7894,680200,0
3,-1,640078,219055,1193784,65795,8172,596267,0
3,-1,637326,218514,1284598,65538,7385,642006,0
3,-1,641296,218773,1520094,65717,8678,759565,0
3,-1,637769,220760,1220356,66111,7728,609245,0
3,-1,639123,219227,1320135,65269,7920,659772,0
3,-1,644336,220747,1188286,65972,7360,593540,0
3,-1,641051,219988,1197007,66533,8316,598123,0
3,-1,646185,220517,1333073,66772,8399,666072,0
3,-1,643550,219982,1274408,66519,7649,636955,0
3,-1,641773,221135,1212314,66795,8854,605646,0
3,-1,641640,219856,1268726,66355,8158,633924,0
3,-1,638172,219113,1165326,66145,7635,582204,0
3,-1,639349,219495,1212762,66162,7191,606067,0
3,-1,645362,220960,1208383,67044,7556,603539,0
3,-1,645609,220189,1414476,66322,8345,706578,0
3,-1,636090,218534,1343238,65849,8561,671434,0
3,-1,642298,219053,1306360,66306,7677,652725,0
3,-1,643393,220361,1208390,66944,7985,603666,0
3,-1,644332,220466,1213756,67072,7241,605336,0
4,-1,635817,220213,1167468,66303,7597,583199,0
4,-1,635225,219237,1255901,65763,7528,627298,2
4,-1,641765,220662,1251796,66607,7787,625319,0
4,-1,637538,218233,1267324,65571,7619,633355,0
4,-1,632727,218107,1154303,65491,6475,576631,0
4,-1,638640,218847,1264258,65631,8597,631872,0
4,-1,644781,220500,1236609,66405,8173,617574,0
4,-1,633827,217579,1134715,65500,7189,566972,0
4,-1,637033,219272,1151248,66042,7987,575185,0
4,-1,639304,218724,1319645,65808,7659,659524,0
4,-1,638447,219215,1378904,66010,8105,689016,0
4,-1,636137,219180,1192425,65910,6993,595622,0
4,-1,640149,219643,1209464,66063,7980,604277,0
4,-1,642232,221590,1312837,66928,8023,655663,0
4,-1,644742,219893,1307423,66167,8008,653272,0
4,-1,641480,219289,1187298,65900,7902,593314,0
4,-1,637530,219048,1275633,65836,7780,637583,0
4,-1,642789,219873,1279995,66113,8496,639483,0
4,-1,641766,219013,1355411,65686,9065,677456,0
4,-1,634445,219208,1187888,65722,7924,593553,0
4,-1,649179,223212,1399505,67358,7887,698514,0
4,-1,644654,220962,1177141,66297,7721,588129,0
4,-1,640494,219745,1181348,65904,7096,590378,0
4,-1,637809,218314,1264774,65630,7142,632062,0
4,-1,638311,220454,1266619,66559,7560,632723,0
4,-1,637591,218979,1295198,65647,7163,647260,0
4,-1,638548,219442,1326839,65640,7908,663108,0
4,-1,642453,219636,1416198,65888,7857,707618,0
4,-1,637857,219002,1171879,65689,7333,585569,0
4,-1,641143,218914,1153743,65615,7338,576504,0
4,-1,641051,218568,1258121,65505,8072,628692,0
4,-1,635415,218759,1230856,65605,7266,615173,0
4,-1,660388,223339,1266266,68833,8795,632819,0
4,-1,656388,223677,1370340,68919,8395,684809,0
4,-1,643066,220337,1288220,66437,8255,643596,0
4,-1,641241,219469,1363930,65928,7873,681627,0
4,-1,646524,221006,1287705,66684,8205,643232,0
4,-1,643505,220742,1286667,66525,7803,642829,0
4,-1,641746,218669,1163485,65652,7991,580888,0
4,-1,641983,219066,1270835,65794,8166,635085,0
4,-1,641676,219745,1132880,66221,7178,565778,0
4,-1,647223,221537,1222199,66820,7377,610486,0
4,-1,645177,219610,1227195,66007,6696,613313,0
4,-1,635259,219128,1294878,65347,7770,647069,0
4,-1,638944,219344,1427515,65240,8342,713447,0
4,-1,641297,219963,1164222,65517,6821,581680,0
4,-1,640022,220033,1330698,66470,8139,664983,0
4,-1,664620,224645,1381736,69893,9662,690459,0
4,-1,642900,219879,1286296,66488,7273,642751,0
4,-1,640627,220946,1142725,66875,8229,570729,0
4,-1,643803,220511,1316097,66563,7847,657539,0
4,-1,647139,220290,1217480,66690,8185,608087,0
4,-1,665165,224606,1357473,69703,9269,678322,0
4,-1,646679,220204,1247929,66589,7336,623531,0
4,-1,647340,219763,1280839,66267,7728,640102,0
4,-1,644332,221183,1267398,67057,8299,633041,0
4,-1,640343,218600,1300739,66105,7587,650068,0
4,-1,640921,218909,1280568,66281,8022,639952,0
4,-1,661166,223363,1385634,69524,9439,692459,0
5,-1,677054,231109,1349665,70787,9173,674518,0
5,-1,658488,223792,1349407,69063,8707,674149,0
5,-1,638653,219131,1141456,65797,7215,570250,2
5,-1,642819,220175,1301982,66440,7777,650237,0
5,-1,634267,219006,1294993,65792,7325,647195,0
5,-1,637949,218976,1243502,65680,8468,620996,0
5,-1,643355,219373,1232365,65863,8210,615677,0
5,-1,658787,223409,1376135,69189,8142,687707,0
5,-1,635160,218465,1173499,65693,6757,586355,0
5,-1,639753,219513,1389052,66096,8015,694139,0
5,-1,643346,221562,1324878,67053,8671,661753,0
5,-1,639234,220423,1273056,66439,7892,635999,0
5,-1,640969,219660,1369927,66057,8392,684593,0
5,-1,634914,219352,1164064,65925,7233,581683,0
5,-1,642140,219914,1296213,66147,7704,647727,0
5,-1,643125,219093,1243355,65874,7649,621306,0
5,-1,641553,219986,1178755,66158,7099,589271,0
5,-1,645606,220593,1359952,66555,8512,679326,0
5,-1,644277,220217,1234333,66146,8233,616353,0
5,-1,637471,219197,1145215,65704,7300,572102,0
5,-1,661464,224649,1519060,69226,8890,759006,0
5,-1,649125,221923,1318074,66797,7848,658386,0
5,-1,643733,221184,1276841,66605,7278,637860,0
5,-1,644018,220791,1372763,66606,7496,685826,0
5,-1,636494,219682,1248657,65927,7601,624016,0
5,-1,658691,223796,1225168,69122,7846,612101,0
5,-1,642183,219041,1200939,65489,7869,600129,0
5,-1,639572,218899,1219344,65580,7176,609269,0
5,-1,636815,218790,1202563,65619,7063,600793,0
5,-1,640335,218985,1183218,65645,8027,591236,0
5,-1,646350,220861,1355273,66498,8685,676934,0
5,-1,634370,218460,1319954,65461,8117,659660,0
5,-1,638145,218693,1177365,65475,7292,588396,0
5,-1,643917,218981,1185127,65561,7396,592207,0
5,-1,637352,218499,1166651,65529,7709,583021,0
5,-1,636073,217927,1154690,65345,6878,577014,0
5,-1,661030,223511,1320768,69025,8233,659945,0
5,-1,638314,218531,1209559,65597,8111,604303,0
5,-1,642289,218849,1376948,65632,8841,688160,0
5,-1,638123,218552,1269745,65586,7178,634570,0
5,-1,638719,218435,1340119,65573,8284,669542,0
5,-1,643928,218648,1169623,65672,7691,584424,0
5,-1,662803,223633,1296339,69022,7589,647928,0
5,-1,633680,218919,1205491,65317,7916,602278,0
5,-1,636437,219121,1355761,65239,8457,677218,0
5,-1,633968,218104,1185442,64840,6739,592148,0
5,-1,644991,221898,1269075,67380,8460,633517,0
5,-1,643636,219467,1135581,66325,7568,567315,0
5,-1,640627,219428,1265709,66238,7279,632482,0
5,-1,665299,223950,1370865,69471,8760,684948,0
5,-1,644453,221278,1300838,67088,8069,649558,0
5,-1,642807,219429,1190557,66239,7840,594859,0
5,-1,641400,220211,1221396,66448,7223,610425,0
5,-1,643257,219220,1349252,66226,7905,674260,0
5,-1,648216,220767,1403006,66624,8578,701376,0
5,-1,660869,224185,1395694,69536,9532,697546,0
5,-1,661450,223465,1387641,69513,8319,693355,0
5,-1,642238,219467,1186577,66421,7420,592970,0
5,-1,638227,218476,1212520,66092,7623,605818,0
6,-1,678374,233628,1314903,69495,7515,657147,0
6,-1,637657,219589,1115853,65941,6894,557586,0
6,-1,636450,219527,1348357,66015,7099,673740,2
6,-1,637402,218785,1267881,65823,7978,633526,0
6,-1,635575,218000,1276873,65380,6766,637983,0
6,-1,640971,218977,1224696,65767,8129,611772,0
6,-1,647554,221220,1295665,66760,8628,646955,0
6,-1,637247,219189,1269973,65999,7030,634604,0
6,-1,662540,228453,1324281,68765,7912,661765,0
6,-1,663859,224936,1344719,69675,9369,672024,0
6,-1,658282,223661,1296240,69256,8462,647753,0
6,-1,637606,220067,1383157,66184,8450,691221,0
6,-1,638845,219056,1213650,65869,8448,606405,0
6,-1,637092,219407,1277462,65927,8107,638307,0
6,-1,668552,225711,1296665,70343,8276,647847,0
6,-1,642903,219652,1283629,66065,7483,641462,0
6,-1,638083,219542,1349424,65984,8062,674349,0
6,-1,642337,219582,1286098,66054,7613,642640,0
6,-1,643220,219237,1253094,65826,7998,626248,0
6,-1,642213,221474,1217469,66763,7868,608122,0
6,-1,643720,222503,1329887,67209,8567,663787,0
6,-1,646130,221221,1263918,66393,7337,631480,0
6,-1,645877,222056,1235537,66938,7720,617251,0
6,-1,638757,219010,1230107,65803,7408,614680,0
6,-1,638282,220703,1267302,66471,7826,633198,0
6,-1,641693,220035,1312039,66082,7306,655686,0
6,-1,646344,221217,1312760,66455,8264,655722,0
6,-1,646987,220514,1334965,66320,8371,666993,0
6,-1,664082,223628,1357158,69016,8705,678445,0
6,-1,639176,219013,1294858,65614,8227,647123,0
6,-1,642645,219132,1212302,65663,8824,605709,0
6,-1,635567,219221,1301286,65754,8648,650276,0
6,-1,639075,219421,1325987,65751,7733,662659,0
6,-1,643531,219066,1293500,65585,8387,646118,0
6,-1,643004,220186,1270935,66293,7917,635003,0
6,-1,639022,218840,1267889,65729,8039,633480,0
6,-1,640079,219139,1385346,65818,8164,692209,0
6,-1,637842,218574,1337617,65571,8474,668449,0
6,-1,645934,220817,1253469,66597,8300,625967,0
6,-1,660042,223238,1258564,68879,7989,629004,0
6,-1,639301,219217,1311189,65891,7918,655465,0
6,-1,642596,218162,1273681,65389,7811,636552,0
6,-1,645882,221039,1206746,66457,6596,602840,0
6,-1,633889,218980,1318368,65289,8602,658829,0
6,-1,635144,218438,1218366,65051,8252,608880,0
6,-1,640135,220583,1262540,65902,7383,630621,0
6,-1,662544,224326,1357361,69637,9180,677776,0
6,-1,644316,220504,1215962,66767,7384,607558,0
6,-1,643564,219825,1325774,66419,7986,662581,0
6,-1,647681,220407,1366339,66574,8182,682746,0
6,-1,640844,220202,1268155,66499,7265,633713,0
6,-1,644501,220177,1216325,66449,8511,607717,0
6,-1,641333,219890,1265608,66394,7974,632475,0
6,-1,649446,221675,1194501,67335,7365,596649,0
6,-1,643392,219428,1186772,66168,7479,592984,0
6,-1,640194,219797,1277170,66262,7933,638318,0
6,-1,640145,218988,1318124,66263,7701,658691,0
6,-1,639074,218554,1338620,66115,8420,668796,0
6,-1,641542,218855,1296555,66306,8340,647810,0
7,-1,690383,238080,1249005,71080,7272,624047,0
7,-1,635675,218911,1254631,65624,8149,626930,0
7,-1,644124,220975,1210215,66765,7019,604562,0
7,-1,641975,221731,1300599,66983,7558,649644,2
7,-1,644917,220998,1249173,66819,7574,623966,0
7,-1,639553,218873,1223679,65827,8197,611264,0
7,-1,666312,224922,1412995,69438,9174,706119,0
7,-1,635681,218990,1258344,65811,7117,628679,0
7,-1,640475,221228,1343968,66953,7958,671465,0
7,-1,638581,219195,1240621,66014,8523,619690,0
7,-1,637762,219152,1223346,66007,8717,611153,0
7,-1,640123,219174,1292553,65849,8129,645978,0
7,-1,640073,219701,1187498,66081,7507,593425,0
7,-1,639428,220029,1218691,66104,8141,609222,0
7,-1,640028,219417,1176574,65995,7152,587828,0
7,-1,644719,220898,1220167,66482,7497,609670,0
7,-1,638608,219935,1198534,66122,7278,599028,0
7,-1,641332,219297,1303082,65891,7991,651210,0
7,-1,643702,219685,1273103,65933,8195,636168,0
7,-1,636148,219529,1257469,65802,7609,628474,0
7,-1,660267,224509,1275378,69423,9517,637105,0
7,-1,642445,220222,1205651,65977,7473,602438,0
7,-1,646814,222092,1320390,66960,8165,659490,0
7,-1,636637,218855,1300325,65625,7474,649798,0
7,-1,643880,218531,1280326,65540,7702,639738,0
7,-1,641898,220710,1297370,66441,7883,648361,0
7,-1,662584,224287,1260912,69073,8645,630013,0
7,-1,642139,219229,1209279,65777,7422,604313,0
7,-1,642240,219312,1353717,65782,7857,676441,0
7,-1,639077,218753,1322563,65565,8359,660972,0
7,-1,639102,218494,1294168,65408,8497,646742,0
7,-1,637045,220209,1283852,66263,8812,641509,0
7,-1,640170,220046,1343665,66096,8011,671213,0
7,-1,663411,224186,1250637,69104,8653,624834,0
7,-1,660461,223247,1222481,68945,8082,610928,0
7,-1,638541,219313,1159612,65881,6712,579381,0
7,-1,644056,219248,1284487,65808,8418,641884,0
7,-1,637681,218994,1203340,65732,7558,601439,0
7,-1,642446,218830,1422415,65673,9034,710705,0
7,-1,637872,219070,1320589,65725,7968,659754,0
7,-1,638155,219231,1391836,65783,8509,695594,0
7,-1,644354,219390,1248251,65850,8894,623780,0
7,-1,640337,218994,1348496,65606,6747,673871,0
7,-1,637417,220854,1253769,66199,8315,626125,0
7,-1,638981,219286,1354401,65228,7829,676886,0
7,-1,636586,219450,1314063,65356,7571,656585,0
7,-1,642404,220369,1339437,66591,7938,669155,0
7,-1,642248,219904,1232175,66563,7665,615593,0
7,-1,639606,219462,1214826,66240,7530,606937,0
7,-1,645380,219911,1197733,66327,7784,598582,0
7,-1,639398,219567,1210699,66243,7643,605038,0
7,-1,647562,221807,1168502,67289,7817,583489,0
7,-1,637211,219113,1436900,66084,8810,718098,0
7,-1,665544,224422,1331986,69764,8215,665542,0
7,-1,665248,224455,1360630,69606,8571,679706,0
7,-1,637584,219431,1274900,66200,8022,637038,0
7,-1,660792,223291,1365220,69355,8250,682050,0
7,-1,660109,223502,1357126,69602,8903,678208,0
7,-1,637993,218029,1270673,65962,7858,634995,0
7,-1,639310,218911,1265744,66129,7752,632553,0
8,-1,689502,237272,1407832,70744,7571,703523,0
8,-1,634641,218374,1138495,65455,7164,568661,0
8,-1,657726,223170,1300950,68958,7704,650086,0
8,-1,661345,223729,1347618,69195,8457,673517,0
8,-1,634751,218902,1342117,65771,7508,670571,2
8,-1,643701,220881,1232894,66639,7351,615840,0
8,-1,644755,220587,1267859,66226,7658,633585,0
8,-1,637291,219437,1169853,66053,6612,584550,0
8,-1,657366,224450,1380466,69498,8908,689743,0
8,-1,637161,219080,1213249,65963,7807,606058,0
8,-1,642585,220987,1328370,66774,8817,663743,0
8,-1,641939,219926,1278332,66144,8334,638788,0
8,-1,638106,219367,1295472,65862,8237,647290,0
8,-1,635345,219291,1305582,65925,8148,652347,0
8,-1,644053,221204,1323232,66744,8738,661004,0
8,-1,643930,220708,1318032,66601,8282,658522,0
8,-1,665192,224455,1233790,69368,9068,616560,0
8,-1,661946,223958,1213397,69244,8517,606185,0
8,-1,644523,220119,1286877,66028,7916,643122,0
8,-1,635047,219391,1323772,65811,7814,661577,0
8,-1,641433,220998,1260581,66538,7939,629375,0
8,-1,643003,220424,1362161,66114,7748,680710,0
8,-1,642996,221041,1376119,66324,8491,687785,0
8,-1,641247,218923,1190772,65756,7363,595019,0
8,-1,646457,220093,1287978,66080,8011,643649,0
8,-1,640156,219726,1185951,66002,7162,592674,0
8,-1,639033,219289,1201875,65692,7757,600522,0
8,-1,641659,219308,1171368,65717,7230,585398,0
8,-1,640183,218783,1155703,65578,7106,577610,0
8,-1,639793,219552,1285428,65842,7661,642329,0
8,-1,648204,221773,1315902,66842,8619,656899,0
8,-1,641870,220049,1172861,66008,7780,586125,0
8,-1,640589,220725,1302627,66519,7745,650813,0
8,-1,641220,219070,1314372,65649,7641,657169,0
8,-1,642134,219140,1269853,65718,7408,634587,0
8,-1,640488,219230,1313349,65798,7662,656343,0
8,-1,646633,220292,1291175,66406,7876,645107,0
8,-1,644672,220756,1311769,66613,7884,655292,0
8,-1,640738,218516,1232966,65554,8814,616157,0
8,-1,642126,218812,1371612,65717,8666,685239,0
8,-1,644708,220696,1342159,66580,8744,670001,0
8,-1,662929,223454,1300442,68972,8543,649788,0
8,-1,638142,218563,1349762,65429,8175,674497,0
8,-1,654349,223661,1365423,68626,9345,682186,0
8,-1,637741,219269,1293342,65285,8058,645899,0
8,-1,637404,218992,1267014,65164,7697,633139,0
8,-1,642308,220989,1338063,67015,8354,668217,0
8,-1,640221,219356,1201089,66342,8048,600025,0
8,-1,639842,220051,1346377,66535,7669,672732,0
8,-1,644232,219383,1298597,66279,8150,648915,0
8,-1,640463,219659,1262238,66226,7210,630690,0
8,-1,662691,223835,1252640,69407,9554,625945,0
8,-1,644290,221784,1338243,67267,9608,668522,0
8,-1,645745,220369,1427073,66628,8653,713488,0
8,-1,642817,219706,1177591,66228,7340,588444,0
8,-1,639807,220844,1241388,66846,7624,620188,0
8,-1,637611,218232,1357164,65861,7509,678264,0
8,-1,640887,219516,1180288,66503,7505,589814,0
8,-1,641702,220184,1203003,66967,7256,600742,0
8,-1,640159,219569,1239255,66413,7787,619333,0
9,-1,686994,236713,1297891,70506,7968,648619,0
9,-1,634057,219035,1244852,65684,7578,622154,0
9,-1,636372,218350,1281512,65600,7031,640379,0
9,-1,638265,218761,1277189,65727,7493,638322,0
9,-1,639248,220085,1266093,66441,7312,632444,2
9,-1,639231,219143,1175066,65786,6664,587210,0
9,-1,640776,219193,1301705,65728,8083,650555,0
9,-1,640013,220889,1257254,66726,7220,628014,0
9,-1,635307,219789,1376135,66242,9289,687039,0
9,-1,638933,219414,1282786,66019,8084,641012,0
9,-1,635937,218654,1231129,65759,7968,615122,0
9,-1,640466,219684,1175570,66059,7139,587424,0
9,-1,637005,219283,1275028,65946,8457,637114,0
9,-1,636162,219478,1242847,66010,7974,620693,0
9,-1,640777,219134,1202141,65865,7880,600613,0
9,-1,641171,219861,1217050,66143,7267,608057,0
9,-1,644229,220677,1295855,66580,7871,647322,0
9,-1,640997,219307,1174840,65927,7183,586998,0
9,-1,649172,222526,1280132,67187,8223,639349,0
9,-1,637596,220206,1303850,66135,8625,651543,0
9,-1,641906,221352,1217797,66805,8199,608040,0
9,-1,643296,220958,1271647,66198,7318,635394,0
9,-1,641736,219802,1217589,65978,7250,608410,0
9,-1,644918,220754,1318115,66518,7896,658534,0
9,-1,643828,219422,1174124,65810,7694,586769,0
9,-1,639233,220016,1243671,66084,7102,621535,0
9,-1,640489,219491,1151950,65736,7931,576006,0
9,-1,642681,220183,1281610,66026,7426,640460,0
9,-1,641247,219195,1251715,65752,7530,625392,0
9,-1,642426,219282,1250228,65806,8567,624678,0
9,-1,645828,219478,1212813,65775,7481,606136,0
9,-1,637394,218473,1277899,65409,7648,638614,0
9,-1,638398,218919,1294269,65597,7590,646771,0
9,-1,637479,218070,1244758,65216,7364,621987,0
9,-1,645506,220921,1287900,66544,8022,643378,0
9,-1,637787,218134,1267134,65391,7831,633285,0
9,-1,643562,219478,1203647,65935,7839,601458,0
9,-1,661088,223470,1341566,69028,8306,670426,0
9,-1,642462,219899,1266989,65955,8633,632951,0
9,-1,643377,219206,1285874,65839,9404,642556,0
9,-1,662168,223798,1570878,69125,9452,785106,0
9,-1,641501,219059,1287600,65756,8058,643407,0
9,-1,644403,219404,1263112,65708,7147,631217,0
9,-1,634025,219080,1282036,65383,7590,640194,0
9,-1,640137,220118,1350615,65750,8150,673895,0
9,-1,638604,219339,1160870,65343,7701,579920,0
9,-1,640302,220465,1344500,66599,8565,671473,0
9,-1,642609,219755,1217133,66511,7652,608192,0
9,-1,647357,221638,1232367,67249,8233,615554,0
9,-1,643734,219698,1277685,66273,7823,638487,0
9,-1,640351,219992,1266318,66333,7153,632784,0
9,-1,644909,220781,1190877,66689,8497,594943,0
9,-1,660115,224369,1452502,69628,10373,725752,0
9,-1,643093,219845,1232468,66379,8175,615646,0
9,-1,642152,219825,1324770,66326,8750,662035,0
9,-1,637281,218627,1197052,65838,7491,598109,0
9,-1,638986,218562,1290636,66051,7743,644853,0
9,-1,636935,218265,1179174,65985,7103,589290,0
9,-1,639220,218931,1313210,66252,8455,656145,0
9,-1,638165,218666,1274821,66045,7797,636970,0
10,-1,685008,237073,1307821,70627,7976,653627,0
10,-1,657464,223422,1256193,68944,8648,627461,0
10,-1,639362,219114,1574874,65912,9729,786919,0
10,-1,637816,218981,1156005,65864,6817,577702,0
10,-1,637917,218898,1379737,65793,7836,689577,0
10,-1,638909,219102,1312819,65793,8891,656065,2
10,-1,639852,219052,1217932,65679,7362,608611,0
10,-1,636754,219811,1250336,66169,7259,624735,0
10,-1,636780,218630,1256785,65797,7343,628008,0
10,-1,641506,219661,1326844,66180,8399,662959,0
10,-1,633848,218327,1259890,65606,8228,629562,0
10,-1,640958,219664,1434818,66008,8747,717055,0
10,-1,640916,219425,1198013,65945,8814,598508,0
10,-1,655549,223482,1333365,69040,8584,666478,0
10,-1,641279,219720,1290217,66104,8015,644547,0
10,-1,638122,218818,1259941,65723,7083,629539,0
10,-1,640761,219366,1344274,65942,8364,671794,0
10,-1,641276,219413,1303941,65887,7570,651609,0
10,-1,644652,219602,1251667,65839,7021,625483,0
10,-1,638169,219886,1273682,65963,8039,636502,0
10,-1,635667,219351,1192161,65960,7431,595741,0
10,-1,642962,220692,1207816,66215,6920,603420,0
10,-1,645083,221103,1334107,66643,8464,666442,0
10,-1,641277,219314,1384876,65827,7527,692117,0
10,-1,664779,224125,1286504,69122,8711,642948,0
10,-1,643879,221571,1290025,66867,7668,644608,0
10,-1,639192,219155,1239106,65509,8346,619008,0
10,-1,642858,219076,1212642,65619,7932,605824,0
10,-1,644227,220624,1272985,66415,7623,636012,0
10,-1,641906,219368,1241077,65808,7697,620147,0
10,-1,643440,219198,1338123,65757,7382,668378,0
10,-1,640048,220236,1285760,66279,8117,642148,0
10,-1,638015,219262,1245031,65769,7353,622161,0
10,-1,638754,218845,1421400,65557,8254,710342,0
10,-1,640707,219357,1176224,65760,7872,587770,0
10,-1,643515,220739,1270743,66580,7772,634705,0
10,-1,648758,221418,1250812,66754,8384,624894,0
10,-1,639634,219170,1359189,65831,8329,679255,0
10,-1,639002,218899,1309928,65636,8680,654624,0
10,-1,641316,218475,1301262,65505,9232,650278,0
10,-1,638984,218854,1414867,65676,7893,707060,0
10,-1,641914,218511,1177285,65529,7745,588337,0
10,-1,650544,221205,1193223,66603,7781,595981,0
10,-1,635064,218400,1254434,65102,7234,626683,0
10,-1,638026,219697,1600447,65432,8987,799826,0
10,-1,636465,218559,1235025,64977,8350,617168,0
10,-1,661098,224901,1443741,69933,10164,721461,0
10,-1,642874,220175,1268767,66672,7538,633929,0
10,-1,643352,219645,1302868,66366,8427,651134,0
10,-1,667638,224996,1358281,69951,8813,678678,0
10,-1,663245,224738,1301168,69715,9027,650012,0
10,-1,640528,219611,1346763,66323,7544,672953,0
10,-1,637264,219495,1352478,66228,9232,675439,0
10,-1,643552,220044,1140949,66347,7314,570129,0
10,-1,644515,219380,1170987,66128,7160,585269,0
10,-1,641650,220676,1301637,66586,7534,650463,0
10,-1,641973,219587,1198857,66374,7726,599016,0
10,-1,639735,218609,1269457,66148,8449,634404,0
10,-1,638019,218947,1216170,66297,7853,607611,0
10,-1,644963,219053,1184401,66242,7726,591923,0
11,-1,694025,238042,1247168,71171,7484,623019,0
11,-1,634154,218433,1146903,65487,7238,572989,0
11,-1,658378,223298,1306281,69064,8185,652626,0
11,-1,641434,219892,1225444,66119,7733,612335,0
11,-1,638803,219572,1182889,66059,6977,591112,0
11,-1,645011,221439,1303477,66768,8157,650993,0
11,-1,644258,219906,1321302,66078,7544,660088,2
11,-1,637350,219193,1246948,65951,7509,623099,0
11,-1,639746,218866,1212665,65847,7218,605955,0
11,-1,640394,219132,1229822,65935,8500,614617,0
11,-1,634861,218954,1220895,65947,8369,609990,0
11,-1,644932,221821,1457690,67167,8671,727965,0
11,-1,649813,222622,1260685,67272,9018,629548,0
11,-1,636418,219574,1344327,65970,7953,671902,0
11,-1,638730,218928,1260749,65813,7234,629652,0
11,-1,646631,221288,1316461,66866,8136,657554,0
11,-1,640478,219607,1294039,65925,7658,646706,0
11,-1,639982,219283,1349881,65918,8219,674513,0
11,-1,642358,219430,1181459,65843,7668,590402,0
11,-1,639726,220785,1276324,66515,8203,637609,0
11,-1,643887,220500,1280690,66385,7730,639974,0
11,-1,645336,221966,1353538,66814,7696,676162,0
11,-1,642009,220228,1227767,66184,7438,613372,0
11,-1,636191,218601,1203670,65538,6697,601514,0
11,-1,642279,219371,1314766,65860,7919,657039,0
11,-1,660157,224206,1209563,69252,8674,604344,0
11,-1,642288,220484,1194947,66051,8022,597076,0
11,-1,642253,219142,1197924,65619,7993,598619,0
11,-1,639596,219154,1188560,65680,7422,593946,0
11,-1,640636,219305,1220589,65729,8072,609911,0
11,-1,641321,218845,1282152,65817,8352,640496,0
11,-1,636203,218767,1382953,65550,8841,691138,0
11,-1,637126,219207,1167407,65759,7815,583306,0
11,-1,639805,218276,1283319,65339,8493,641372,0
11,-1,638856,218816,1278236,65507,8035,638855,0
11,-1,638257,219052,1353271,65775,7581,676296,0
11,-1,639517,218217,1169639,65471,7635,584545,0
11,-1,639005,219554,1271382,66072,7925,635009,0
11,-1,641577,218774,1239156,65665,8644,619627,0
11,-1,639942,218375,1215143,65581,8131,607076,0
11,-1,639301,218920,1223614,65708,7079,611508,0
11,-1,640690,218412,1265684,65535,7826,632485,0
11,-1,643925,218993,1278796,65633,7510,639031,0
11,-1,638890,220514,1310832,65996,7425,655481,0
11,-1,634235,218603,1303835,65016,8410,651547,0
11,-1,637506,219659,1280025,65416,7969,639721,0
11,-1,647574,220499,1370112,66603,9447,684723,0
11,-1,641759,220074,1328159,66665,8037,663707,0
11,-1,645982,221464,1223764,67202,7883,611057,0
11,-1,647456,221202,1210726,67094,7354,604863,0
11,-1,640536,220114,1194771,66391,8529,596943,0
11,-1,640552,219522,1316307,66237,8055,657876,0
11,-1,640929,220428,1388625,66533,8502,693963,0
11,-1,642230,219869,1183631,66385,7992,591421,0
11,-1,644349,219355,1391244,66209,8952,695271,0
11,-1,646664,219684,1317322,66254,7702,658349,0
11,-1,639971,218550,1306611,65955,7608,652998,0
11,-1,642322,220221,1215891,66988,7982,607370,0
11,-1,640613,219940,1158349,66752,7946,578495,0
11,-1,641068,217925,1280157,65775,8385,639815,0
12,-1,691527,237318,1243647,70680,7186,621486,0
12,-1,634043,218741,1222113,65637,6751,610646,0
12,-1,639058,219477,1170748,66022,7024,585022,0
12,-1,658477,224275,1247825,69307,8462,623639,0
12,-1,642584,220104,1284313,66279,7663,641356,0
12,-1,665856,224790,1344073,69352,9178,671662,0
12,-1,632128,219140,1195683,65885,7255,597312,2
12,-1,644120,222197,1260721,67233,7663,629731,0
12,-1,644906,220948,1280835,66752,7722,639860,0
12,-1,642096,220899,1222839,66727,8382,610973,0
12,-1,639683,219421,1263491,66078,7943,631303,0
12,-1,637996,219016,1290148,65948,7948,644703,0
12,-1,662466,224079,1301996,69291,9492,650711,0
12,-1,634094,219307,1195267,65966,7449,597376,0
12,-1,648572,222678,1307092,67377,8459,652723,0
12,-1,661066,223688,1290174,69196,8388,644697,0
12,-1,662227,224598,1241766,69405,8633,620328,0
12,-1,660807,224123,1227794,69255,7982,613446,0
12,-1,647437,221562,1291283,66794,8543,645142,0
12,-1,635295,219354,1179559,65759,7574,589432,0
12,-1,645762,221954,1293194,67032,8090,646017,0
12,-1,640486,220350,1212182,66096,7489,605721,0
12,-1,640457,219550,1277642,65943,7762,638508,0
12,-1,638376,219125,1286735,65719,7346,642983,0
12,-1,642682,219259,1220387,65835,8061,609830,0
12,-1,637585,219451,1270319,65857,7385,634823,0
12,-1,645598,222221,1219791,66929,8486,609298,0
12,-1,664929,224414,1244356,69135,8216,621917,0
12,-1,639979,218818,1262628,65582,8000,630917,0
12,-1,639241,218666,1319856,65553,7793,659436,0
12,-1,643171,219312,1292259,65776,7908,645816,0
12,-1,641355,220260,1446003,66312,8449,721869,0
12,-1,635500,218796,1187203,65577,7248,593206,0
12,-1,642285,219493,1319688,65711,8036,659508,0
12,-1,641275,219133,1185917,65670,7570,592590,0
12,-1,640530,219855,1268740,66205,7692,633877,0
12,-1,638337,218351,1246119,65556,8082,622703,0
12,-1,640200,219350,1175535,65923,7035,587301,0
12,-1,641887,218888,1311670,65636,9207,655477,0
12,-1,641202,218960,1240283,65758,7922,619529,0
12,-1,637761,218784,1284249,65728,7588,641758,0
12,-1,662719,223528,1286506,69046,7998,642881,0
12,-1,642925,218650,1217272,65459,7288,608327,0
12,-1,634973,218607,1260999,65154,7127,630234,0
12,-1,640015,221393,1248863,66222,8703,623733,0
12,-1,635740,219064,1191573,65173,7561,595456,0
12,-1,647363,220606,1476077,66728,9369,737265,0
12,-1,641204,220164,1276317,66800,8115,637531,0
12,-1,665929,225445,1362275,70095,8763,680863,0
12,-1,643867,220019,1272557,66555,7557,635676,0
12,-1,643775,221631,1163903,67044,8343,581230,0
12,-1,644053,220256,1256239,66481,7577,627731,0
12,-1,646849,219607,1375585,66294,8492,687425,0
12,-1,665897,224814,1244128,69721,8647,621760,0
12,-1,664742,224555,1315040,69751,9057,657268,0
12,-1,646327,219936,1352824,66356,8065,676120,0
12,-1,641245,219381,1282294,66270,8132,640845,0
12,-1,637897,218668,1208824,66219,8046,603679,0
12,-1,636409,218594,1227411,66182,8496,613264,0
12,-1,642180,218961,1289922,66202,8141,644554,0
13,-1,690039,237171,1364241,70617,7718,681724,0
13,-1,637963,220197,1237703,66283,7878,618189,0
13,-1,637551,218562,1275004,65673,7442,637144,0
13,-1,636835,218421,1139317,65578,7062,569279,0
13,-1,640425,219675,1282060,66071,8288,640680,0
13,-1,643828,219458,1298362,65855,7083,648105,0
13,-1,634692,219458,1266618,65936,7474,632810,2
13,-1,636803,219181,1182697,65973,7317,590861,0
13,-1,638784,218998,1238488,65907,6697,618867,0
13,-1,637521,219149,1240352,65974,7951,620033,0
13,-1,639079,219557,1144374,66062,7622,571776,0
13,-1,637640,218922,1181756,65841,7471,590515,0
13,-1,643261,220035,1247561,66190,7722,623260,0
13,-1,639077,221707,1322376,66891,7983,660649,0
13,-1,661414,224335,1303659,69374,8963,651326,0
13,-1,641710,220815,1318014,66650,7658,658309,0
13,-1,640924,219643,1224386,66023,8063,611835,0
13,-1,640567,219870,1275703,66110,7571,637414,0
13,-1,640977,219470,1286688,65807,8046,643028,0
13,-1,638546,220299,1283949,66151,7878,641651,0
13,-1,641105,220258,1189001,66166,7116,594189,0
13,-1,646789,221265,1310467,66399,7073,654831,0
13,-1,641032,220255,1280011,66195,7829,639619,0
13,-1,639472,219877,1158151,66023,7113,578809,0
13,-1,645280,220316,1389842,66357,8210,694457,0
13,-1,637061,219576,1247119,65968,7777,623114,0
13,-1,641498,219547,1305509,65732,7989,652375,0
13,-1,641552,219725,1274264,65832,7510,636713,0
13,-1,640312,219188,1173782,65772,7269,586501,0
13,-1,644230,220705,1348648,66505,8378,673736,0
13,-1,646565,221051,1394081,66592,8608,696440,0
13,-1,659213,224039,1304295,69109,8751,651694,0
13,-1,642606,221493,1203081,66826,8300,600858,0
13,-1,643782,220563,1247763,66354,7895,623283,0
13,-1,639512,218746,1276275,65490,7881,637819,0
13,-1,636266,218755,1180195,65657,7670,589726,0
13,-1,643939,220881,1214838,66567,8349,606739,0
13,-1,636410,218240,1272394,65472,8067,635870,0
13,-1,640496,219084,1301958,65755,8104,650580,0
13,-1,640058,218685,1268335,65641,7503,633647,0
13,-1,639121,219273,1181715,65866,7596,590495,0
13,-1,639677,218224,1156507,65495,6878,577929,0
13,-1,645142,220078,1199518,66097,7585,599368,0
13,-1,633986,219082,1247222,65335,7145,623225,0
13,-1,658995,224056,1361570,68614,8907,680279,0
13,-1,636758,218955,1304728,65192,7632,651840,0
13,-1,644679,219583,1320693,66390,9284,659905,0
13,-1,643100,220019,1384508,66622,8332,691865,0
13,-1,640579,219166,1166534,66236,7319,582902,0
13,-1,641230,219290,1278097,66254,7785,638556,0
13,-1,642193,219837,1183323,66254,8109,591167,0
13,-1,639755,219301,1237425,66268,7052,618272,0
13,-1,648901,220876,1367745,66893,8824,683402,0
13,-1,642529,219455,1193440,66082,7659,596376,0
13,-1,644529,219673,1210172,66387,7813,604710,0
13,-1,646103,219580,1292815,66220,8203,646070,0
13,-1,639572,219091,1669934,66171,8125,834595,0
13,-1,637176,218717,1328184,66115,8313,663729,0
13,-1,658664,222857,1334186,69314,9074,666607,0
13,-1,641737,219171,1184610,66227,7138,591965,0
14,-1,689843,237196,1367773,70669,7400,683589,0
14,-1,634551,219029,1273840,65755,7656,636587,0
14,-1,636545,218618,1195983,65648,7031,597576,0
14,-1,637957,218788,1202043,65709,7825,600569,0
14,-1,638778,219102,1284279,65912,7831,641781,0
14,-1,643499,219672,1210749,65934,8019,604853,0
14,-1,641278,221354,1286345,66828,8097,642493,0
14,-1,634530,219212,1211496,66068,8177,605281,2
14,-1,638499,219164,1317496,66012,7059,658333,0
14,-1,636771,218300,1207196,65676,7700,603256,0
14,-1,658321,224048,1264070,69386,9329,631686,0
14,-1,640745,219504,1291713,66091,8336,645466,0
14,-1,643319,220522,1369464,66538,8462,684063,0
14,-1,642784,218828,1204605,65700,7782,601869,0
14,-1,643807,221707,1305688,66940,7676,652153,0
14,-1,639493,219778,1249939,66125,7534,624495,0
14,-1,644298,221403,1313580,66972,8315,656149,0
14,-1,639769,219290,1281060,65872,7962,640183,0
14,-1,642124,219765,1194964,65890,7542,597138,0
14,-1,660663,227881,1288885,68314,7389,644094,0
14,-1,643920,221615,1319858,66879,8042,659461,0
14,-1,642272,219620,1278156,65767,7373,638750,0
14,-1,640472,220084,1194184,66056,7598,596844,0
14,-1,637155,218801,1184750,65617,7564,591527,0
14,-1,641180,219136,1305042,65677,8199,652244,0
14,-1,640604,220906,1379214,66556,7687,689054,0
14,-1,639759,219396,1258660,65589,7699,629002,0
14,-1,642438,219967,1277301,65877,7775,638284,0
14,-1,638046,218344,1237483,65435,7791,618471,0
14,-1,640316,219241,1332213,65767,8219,665783,0
14,-1,662945,223848,1460658,69043,8927,729458,0
14,-1,637500,219078,1306847,65722,8442,652810,0
14,-1,656844,223643,1194335,69014,8459,596926,0
14,-1,644289,219705,1172577,65892,7201,585924,0
14,-1,639145,219290,1237964,65723,8072,618597,0
14,-1,635220,218688,1367569,65596,7566,683445,0
14,-1,641993,218932,1142780,65763,8272,571005,0
14,-1,637554,218649,1321300,65603,8257,660064,0
14,-1,637432,218065,1337969,65314,7929,668739,0
14,-1,641014,218715,1276200,65689,9090,637746,0
14,-1,643151,221102,1259066,66695,7860,628932,0
14,-1,641079,218364,1284157,65481,8127,641687,0
14,-1,663939,224489,1214003,69204,7164,606605,0
14,-1,630928,218182,1194341,64942,7205,596695,0
14,-1,638069,219109,1285772,65252,7692,642314,0
14,-1,642114,221403,1187296,66180,7360,593106,0
14,-1,644874,219974,1245033,66586,9047,622037,0
14,-1,640264,219298,1267493,66367,7667,633390,0
14,-1,646084,221287,1191161,67151,8109,594762,0
14,-1,646755,220713,1174357,66742,7143,586779,0
14,-1,642830,220263,1236749,66410,8022,617919,0
14,-1,639140,219373,1254691,66191,7461,626930,0
14,-1,642842,218386,1201570,65883,7951,600129,0
14,-1,643516,220398,1247413,66537,7806,623268,0
14,-1,645843,220432,1241717,66576,7471,620446,0
14,-1,644945,218974,1192431,66064,7527,595936,0
14,-1,659657,223652,1415614,69429,9473,707452,0
14,-1,643257,220023,1188349,66862,7569,593666,0
14,-1,636185,217989,1279308,65968,7772,639212,0
14,-1,642742,218834,1292757,66172,8402,645941,0
15,-1,711998,241955,1370508,74030,8213,684804,0
15,-1,656512,224305,1400820,69239,9401,700064,0
15,-1,639349,219863,1191035,66310,7404,594926,0
15,-1,637290,218891,1155098,65768,7691,577094,0
15,-1,641655,220738,1436022,66583,8671,716876,0
15,-1,641354,219269,1184793,65758,7358,592064,0
15,-1,635224,219153,1174644,65820,7071,586709,0
15,-1,637382,218719,1279935,65767,7582,639483,0
15,-1,636357,219501,1249204,66104,7399,623895,2
15,-1,640669,220803,1308335,66659,8255,653426,0
15,-1,639712,220139,1221959,66497,9030,610574,0
15,-1,638179,218933,1205848,65850,7975,602683,0
15,-1,639008,219331,1307689,65956,8279,653330,0
15,-1,644542,219847,1297485,66113,8664,648329,0
15,-1,640313,220038,1277212,66185,7691,638205,0
15,-1,639934,219729,1185301,66091,7846,592266,0
15,-1,638758,219585,1211912,66019,7694,605601,0
15,-1,636601,218900,1278205,65758,7727,638496,0
15,-1,641112,219365,1224952,65971,8446,612050,0
15,-1,642687,222257,1380181,67039,8221,689169,0
15,-1,642069,219635,1307474,65997,7537,653155,0
15,-1,650031,222952,1301478,67271,7338,649956,0
15,-1,645862,221707,1312593,66867,7802,655765,0
15,-1,638886,219341,1317047,65804,6972,658137,0
15,-1,641738,219424,1152990,65856,7908,576190,0
15,-1,642881,219554,1307629,65948,7473,653389,0
15,-1,643770,220923,1399310,66380,8215,699066,0
15,-1,639323,219206,1316987,65624,7818,658237,0
15,-1,643999,221008,1194797,66603,7886,596781,0
15,-1,638727,218815,1242918,65575,7724,621065,0
15,-1,642437,219809,1500203,65881,8171,749690,0
15,-1,663431,228333,1258442,68440,8047,628843,0
15,-1,645447,219978,1201754,66143,7836,600320,0
15,-1,641094,218643,1278639,65456,7601,639014,0
15,-1,638595,219408,1134398,65697,6905,567014,0
15,-1,641849,218626,1186924,65588,7544,593196,0
15,-1,640378,218324,1204439,65461,8387,601880,0
15,-1,658355,224142,1287046,69240,9530,643052,0
15,-1,639964,219101,1571555,65775,9071,785165,0
15,-1,645440,220748,1265816,66610,8063,632277,0
15,-1,659107,223969,1233300,69197,8251,616364,0
15,-1,648022,221494,1191956,66796,7136,595458,0
15,-1,644147,219202,1303192,65620,7362,651181,0
15,-1,638577,220780,1219638,66085,7081,609316,0
15,-1,638055,219144,1228687,65184,7726,613842,0
15,-1,633483,219022,1301373,65170,8242,650334,0
15,-1,644611,220091,1358991,66589,9237,679267,0
15,-1,643698,221510,1186217,67379,7356,592435,0
15,-1,641082,219929,1236094,66480,8418,617578,0
15,-1,643857,219892,1372627,66441,7829,685986,0
15,-1,641406,219921,1236576,66270,7285,617918,0
15,-1,640014,219574,1279386,66310,7707,639485,0
15,-1,646076,220122,1285672,66514,8020,642471,0
15,-1,642628,219808,1342229,66421,8236,670738,0
15,-1,644670,220552,1330149,66673,9725,664723,0
15,-1,647004,220191,1259893,66436,8204,629555,0
15,-1,641477,220029,1276087,66449,7913,637638,0
15,-1,642724,219148,1320261,66349,8274,659902,0
15,-1,636937,218646,1210083,66167,7572,604646,0
15,-1,644914,220254,1202051,66910,8176,600220,0
16,-1,688769,236913,1225003,70643,6591,612127,0
16,-1,641454,219042,1313530,65669,8389,656491,0
16,-1,638718,218608,1296167,65623,7123,647678,0
16,-1,639368,219783,1219420,66267,8371,609164,0
16,-1,660806,227655,1495031,68370,8929,746465,0
16,-1,643671,219701,1297599,65930,7553,648397,0
16,-1,631967,218826,1184630,65718,6998,591979,0
16,-1,644973,221253,1295823,66983,7826,647101,0
16,-1,635065,218983,1289651,65965,7765,644428,2
16,-1,640214,219900,1315755,66235,8046,657377,0
16,-1,634517,218695,1198225,65802,8144,598583,0
16,-1,659738,223647,1437779,69191,8987,718441,0
16,-1,638803,219652,1374920,65997,8115,686952,0
16,-1,642400,219038,1203508,65829,8163,601428,0
16,-1,637878,219370,1250567,65931,7012,624903,0
16,-1,642383,219550,1237484,66039,7865,618261,0
16,-1,641454,219219,1199764,65925,8052,599334,0
16,-1,646655,219625,1230413,66004,7393,614853,0
16,-1,640938,219410,1229927,65882,8166,614630,0
16,-1,656427,224117,1226664,69188,7997,612651,0
16,-1,660548,224287,1253309,69320,7669,626198,0
16,-1,664745,225081,1250809,69450,7703,625036,0
16,-1,642778,220130,1275613,66004,7122,637466,0
16,-1,644836,221517,1420641,66825,8007,709917,0
16,-1,663386,223749,1246242,69058,8550,622730,0
16,-1,643555,220167,1299417,66086,7602,649375,0
16,-1,639916,219913,1318798,65855,7858,658919,0
16,-1,647653,222265,1225784,66972,8262,612125,0
16,-1,643291,220274,1286871,66320,8295,642846,0
16,-1,640033,218484,1270160,65460,8380,634794,0
16,-1,639088,218557,1261950,65496,7652,630108,0
16,-1,635385,218586,1376760,65444,8940,688227,0
16,-1,641672,219127,1164227,65722,7977,581806,0
16,-1,664331,224410,1235440,69142,8275,617269,0
16,-1,644370,220639,1325046,66345,8336,662087,0
16,-1,642896,219560,1302255,65941,7802,650791,0
16,-1,640486,218645,1214889,65604,8418,607169,0
16,-1,640386,219255,1404302,65847,8695,701519,0
16,-1,639467,218911,1308191,65726,8464,653589,0
16,-1,639860,219111,1292614,65752,8255,645949,0
16,-1,645750,218691,1292762,65622,7106,646117,0
16,-1,642257,219285,1358007,65831,7967,678692,0
16,-1,642647,218700,1159566,65475,7127,579441,0
16,-1,633756,219155,1298896,65210,7046,649146,0
16,-1,638808,219786,1357202,65413,8556,678185,0
16,-1,643229,221200,1190988,66200,7491,594893,0
16,-1,648336,220891,1311364,67124,8980,655102,0
16,-1,647596,220730,1194570,66843,7173,596920,0
16,-1,644083,220347,1207951,66585,8300,603655,0
16,-1,664772,224478,1342638,69723,8550,670873,0
16,-1,645128,220768,1375406,66573,7628,687284,0
16,-1,639227,219246,1260222,66145,7829,629768,0
16,-1,642274,219358,1378009,66130,8611,688762,0
16,-1,669294,229415,1367719,69240,8232,683516,0
16,-1,643072,219258,1191667,66180,7068,595310,0
16,-1,643785,219077,1262147,66027,8298,630750,0
16,-1,636889,218763,1304356,66004,7510,651897,0
16,-1,641607,219078,1358662,66350,7705,678231,0
16,-1,637678,218932,1297378,66245,8011,648371,0
16,-1,662396,223473,1337435,69461,9134,668301,0
17,-1,687352,236747,1325043,70524,7837,662281,0
17,-1,640339,219697,1240124,66182,8556,619490,0
17,-1,641288,220370,1422835,66522,9367,710554,0
17,-1,634341,218363,1389703,65619,8979,694458,0
17,-1,634874,219095,1322081,65661,7977,660931,0
17,-1,642291,219339,1174603,65822,7320,586960,0
17,-1,644538,222026,1269248,67081,7910,633950,0
17,-1,638418,218940,1375140,65883,7859,687237,0
17,-1,635750,218675,1219082,65802,7585,609084,0
17,-1,633902,218769,1138633,65839,7759,569003,0
17,-1,636574,219378,1186220,66067,7578,592608,2
17,-1,637770,219385,1400547,66049,7892,699486,0
17,-1,662159,223989,1400437,69278,8769,699695,0
17,-1,642298,219391,1229517,65987,8228,614329,0
17,-1,637898,219755,1373572,66106,7811,686251,0
17,-1,640264,219145,1233315,65787,8106,616338,0
17,-1,640094,219117,1209414,65855,7267,604411,0
17,-1,644244,219760,1246732,66079,7625,622974,0
17,-1,642208,220168,1191763,66190,8041,595501,0
17,-1,634856,219728,1270632,65990,8164,634964,0
17,-1,642439,221081,1296299,66544,7207,647784,0
17,-1,643625,220725,1351078,66227,7618,675044,0
17,-1,641357,219981,1254270,66013,6929,626727,0
17,-1,659584,224016,1240089,69172,8424,619582,0
17,-1,641602,219443,1166361,65841,7244,582790,0
17,-1,641596,219966,1282457,66124,7792,640806,0
17,-1,637667,219449,1269775,65659,7899,634653,0
17,-1,642488,219913,1219331,65920,8195,609239,0
17,-1,638365,218518,1275417,65477,7883,637371,0
17,-1,638973,218964,1319382,65612,7808,659370,0
17,-1,641934,220121,1342852,66231,8226,671120,0
17,-1,638851,220801,1382263,66521,8135,690435,0
17,-1,641108,219215,1172215,65717,7671,585761,0
17,-1,638576,218473,1191537,65332,7636,595446,0
17,-1,665688,228074,1318468,68248,8159,658856,0
17,-1,640938,218826,1165874,65696,7324,582557,0
17,-1,662108,223857,1221491,69124,8723,610396,0
17,-1,641587,220116,1180834,66133,7222,590001,0
17,-1,638302,218872,1333071,65620,8696,665837,0
17,-1,639487,218568,1235120,65554,8124,617023,0
17,-1,644162,218667,1361916,65674,7631,680623,0
17,-1,639828,218692,1307088,65653,7614,653137,0
17,-1,642519,219008,1270172,65612,7018,634654,0
17,-1,633732,219040,1257151,65214,6861,628246,0
17,-1,637456,219571,1274802,65416,7725,636879,0
17,-1,660017,223870,1324179,68588,8607,661810,0
17,-1,644194,219572,1260968,66416,8890,629509,0
17,-1,671255,229071,1300074,69363,8006,649614,0
17,-1,646247,221629,1164920,67330,7543,581791,0
17,-1,641694,219797,1255931,66471,7386,627493,0
17,-1,642679,220122,1271120,66314,7996,635308,0
17,-1,646408,222004,1279441,67411,7859,638902,0
17,-1,665576,224224,1390134,69620,9218,694661,0
17,-1,645518,219590,1212147,66273,8277,605623,0
17,-1,647290,221341,1135104,67223,6981,566941,0
17,-1,647414,221018,1176305,66968,7364,587345,0
17,-1,635548,218193,1279843,65805,7989,639657,0
17,-1,643100,220081,1352037,66847,7138,675672,0
17,-1,659320,223303,1324695,69541,8987,662060,0
17,-1,644464,219668,1206705,66647,8067,602520,0
18,-1,691294,237629,1345414,70835,8887,672383,0
18,-1,637404,218333,1293345,65556,8696,646298,0
18,-1,634327,218098,1256892,65487,6978,628040,0
18,-1,640196,220619,1254563,66667,7426,626618,0
18,-1,642052,218954,1450761,65681,8554,725347,0
18,-1,641511,219839,1228241,65976,7542,613776,0
18,-1,658558,223751,1302686,69138,8410,650927,0
18,-1,640499,220780,1279438,66717,8147,639196,0
18,-1,640830,221229,1305585,66930,8173,652009,0
18,-1,639442,219868,1213770,66230,8224,606433,0
18,-1,645662,221112,1333907,66821,8608,666291,0
18,-1,639301,219496,1221714,66035,7830,610405,2
18,-1,639284,219216,1316648,65907,8413,657496,0
18,-1,646426,221341,1239715,66788,8547,619180,0
18,-1,661600,223820,1218922,69259,8667,608884,0
18,-1,643720,219965,1184639,66117,7215,591935,0
18,-1,644500,221393,1311230,66891,8351,655024,0
18,-1,644008,220245,1180423,66233,7164,589768,0
18,-1,644040,221007,1320369,66659,8240,659549,0
18,-1,632168,218696,1290377,65538,8045,644880,0
18,-1,640121,219830,1293348,66052,7804,646327,0
18,-1,644695,221325,1326883,66338,7588,663041,0
18,-1,642129,220593,1266080,66265,8012,632719,0
18,-1,639729,219241,1278261,65753,8116,638877,0
18,-1,641789,219877,1360246,66021,7173,679724,0
18,-1,637396,218525,1236693,65615,7418,618075,0
18,-1,638345,219194,1218551,65581,7705,608979,0
18,-1,640795,219563,1172274,65729,6977,585709,0
18,-1,644558,221286,1299379,66705,7812,649102,0
18,-1,658277,223089,1322068,68772,7957,660656,0
18,-1,644457,219788,1223604,65927,7932,611375,0
18,-1,656566,223811,1360114,69047,9444,679716,0
18,-1,639401,218678,1218584,65559,8026,608942,0
18,-1,645148,220725,1281126,66355,7548,640091,0
18,-1,637939,218845,1200293,65510,7581,599780,0
18,-1,639477,218576,1261870,65529,7767,630664,0
18,-1,640424,219140,1272519,65809,8265,635810,0
18,-1,638062,218703,1315303,65650,8360,657193,0
18,-1,663991,223481,1215458,68998,9087,606962,0
18,-1,640155,219650,1164480,65964,7895,581773,0
18,-1,647101,220269,1217202,66323,7599,608038,0
18,-1,643007,218864,1239254,65674,8017,619254,0
18,-1,642615,219366,1236047,65855,6825,617676,0
18,-1,632935,219104,1201303,65180,6634,600328,0
18,-1,634750,218738,1258120,65097,8004,628794,0
18,-1,636772,219285,1317294,65290,7771,658285,0
18,-1,641640,219230,1361527,66364,8814,680217,0
18,-1,649812,222030,1275567,67507,7460,637155,0
18,-1,662880,224488,1220104,69774,8675,609610,0
18,-1,645988,220062,1338343,66544,8591,668627,0
18,-1,642415,220673,1195804,66531,7472,597465,0
18,-1,643903,220463,1244404,66591,7203,621646,0
18,-1,643536,219921,1259385,66404,8397,629038,0
18,-1,647479,220670,1289016,66644,8996,643986,0
18,-1,662162,223747,1218257,69496,8404,608804,0
18,-1,645591,219959,1444722,66338,9035,721968,0
18,-1,656361,222706,1333306,69043,8475,666268,0
18,-1,661210,223624,1487573,69601,8550,742904,0
18,-1,640574,219525,1233796,66500,8259,616416,0
18,-1,642402,219250,1208046,66274,7881,603731,0
19,-1,687966,236884,1251173,70570,7678,625490,0
19,-1,638474,218973,1209078,65761,7340,604109,0
19,-1,636942,219212,1276271,65897,7622,637669,0
19,-1,633023,218324,1255249,65590,7410,627197,0
19,-1,640069,218879,1229746,65887,7484,614400,0
19,-1,639248,218809,1169173,65684,7022,584238,0
19,-1,636570,219546,1195622,65996,7498,597394,0
19,-1,641709,220050,1251212,66285,7715,625169,0
19,-1,640046,219224,1312440,66013,7351,655675,0
19,-1,640778,220791,1246586,66801,8898,622645,0
19,-1,636991,218583,1263223,65766,7846,631187,0
19,-1,637303,219393,1204919,65939,7604,602180,2
19,-1,640063,219433,1288618,65935,7652,643852,0
19,-1,641806,219335,1202568,65996,8495,600859,0
19,-1,641068,219700,1174523,66065,8142,586669,0
19,-1,641320,220025,1272101,66179,7368,635656,0
19,-1,640608,219756,1372776,66056,8236,686222,0
19,-1,642037,219344,1177895,65957,6671,588529,0
19,-1,640466,219740,1244937,66052,8118,622096,0
19,-1,641254,221839,1295348,66877,7881,647056,0
19,-1,644230,221709,1322331,66860,7935,660762,0
19,-1,647043,222049,1304181,66836,7465,651523,0
19,-1,643669,221588,1384730,66758,7997,691785,0
19,-1,640334,220107,1198837,66128,7180,599029,0
19,-1,660753,224014,1262273,69164,7891,630782,0
19,-1,637199,218901,1218208,65773,7047,608801,0
19,-1,637146,219438,1304489,65705,8634,651860,0
19,-1,641462,219690,1201980,65838,7466,600596,0
19,-1,662109,224569,1238770,69280,8343,618958,0
19,-1,637696,218570,1164038,65508,7842,581681,0
19,-1,641463,218931,1270852,65600,8380,634653,0
19,-1,642180,220517,1213846,66360,8821,606034,0
19,-1,641242,219420,1285491,65839,8216,642409,0
19,-1,641844,219830,1237959,65869,7154,618592,0
19,-1,638275,218987,1302453,65577,7539,650904,0
19,-1,645075,220526,1270213,66544,8380,634561,0
19,-1,639868,218532,1203980,65536,8305,601659,0
19,-1,636889,218425,1152225,65588,7246,575748,0
19,-1,641817,218954,1254117,65757,8912,626781,0
19,-1,636398,218126,1305926,65397,8164,652414,0
19,-1,644530,219065,1204977,65813,7310,602044,0
19,-1,660578,223154,1299053,68916,8041,649161,0
19,-1,640403,218317,1227154,65522,7045,613225,0
19,-1,645924,218723,1312082,65475,6749,655774,0
19,-1,634673,219020,1258487,65262,8309,628828,0
19,-1,641261,221103,1226941,66055,7779,612800,0
19,-1,644810,219688,1518943,66476,9511,759067,0
19,-1,643098,219710,1353338,66522,8215,676316,0
19,-1,641100,219911,1185538,66512,8114,592352,0
19,-1,644080,219957,1285964,66451,8502,642672,0
19,-1,647872,222058,1245788,67285,7896,622261,0
19,-1,644267,220961,1209663,66933,7380,604000,0
19,-1,644448,220551,1240251,66747,8079,619237,0
19,-1,650665,222366,1316979,67472,8567,657833,0
19,-1,642682,220004,1188012,66462,7125,593557,0
19,-1,643377,219599,1290670,66203,8354,645013,0
19,-1,638600,219253,1361736,66102,7268,680556,0
19,-1,637639,218501,1347263,66090,8124,673257,0
19,-1,637657,218808,1250570,66189,7849,624681,0
19,-1,668379,224774,1334629,70401,9386,666921,0
20,-1,694608,239248,1274133,71637,8566,636471,0
20,-1,636975,218803,1314660,65763,7815,656914,0
20,-1,634692,218655,1301026,65705,9248,649836,0
20,-1,640354,219376,1258419,66105,8052,628730,0
20,-1,644457,220334,1377865,66536,8028,688378,0
20,-1,639851,219450,1254482,65856,7112,626845,0
20,-1,641496,221417,1347178,66778,7930,672922,0
20,-1,639673,219699,1203149,66119,7317,600962,0
20,-1,639257,219277,1273801,66021,7894,636613,0
20,-1,636024,219268,1252624,66012,7770,625735,0
20,-1,637953,218855,1129218,65838,7276,564236,0
20,-1,639956,219859,1179870,66129,6967,589582,0
20,-1,640807,219445,1171920,66019,7519,585567,2
20,-1,645135,219780,1233104,66048,7884,616234,0
20,-1,659868,224844,1278733,69523,8438,638916,0
20,-1,644141,221562,1300257,67003,8310,649474,0
20,-1,639606,219725,1302462,66076,7490,650851,0
20,-1,642037,219287,1246578,65820,7317,622939,0
20,-1,637769,218764,1305087,65693,8402,652194,0
20,-1,656598,224408,1288513,69234,7739,643797,0
20,-1,640022,220428,1250355,66252,7783,624811,0
20,-1,638881,220165,1212096,65995,7067,605695,0
20,-1,640505,220206,1313439,66133,7452,656105,0
20,-1,639867,220421,1368588,66382,8482,683776,0
20,-1,644491,220371,1281404,66358,7814,640136,0
20,-1,641169,220321,1221228,66388,7398,610137,0
20,-1,639425,219593,1233813,65756,7209,616573,0
20,-1,642245,220454,1245855,66280,7911,622325,0
20,-1,636386,218596,1203454,65514,6945,601378,0
20,-1,638419,219274,1310150,65657,8396,654862,0
20,-1,640950,218805,1338182,65603,7779,668744,0
20,-1,636973,219496,1211315,65802,9053,605308,0
20,-1,640139,219053,1150816,65682,7671,575055,0
20,-1,644060,221551,1249470,66785,8315,624106,0
20,-1,643251,221047,1260735,66551,7928,629702,0
20,-1,660774,223383,1213707,69000,8238,606489,0
20,-1,640056,219096,1328113,65798,8239,663707,0
20,-1,638690,218790,1300911,65661,7832,649916,0
20,-1,645151,220946,1346887,66582,7717,672649,0
20,-1,647231,220794,1269713,66590,8216,634249,0
20,-1,642478,218520,1229289,65588,7773,614316,0
20,-1,642925,220027,1159486,66315,7380,578969,0
20,-1,646394,220982,1216408,66708,6884,607656,0
20,-1,644022,218860,1257291,65617,7291,628267,0
20,-1,634006,218353,1204224,64897,7899,601735,0
20,-1,637268,219543,1286024,65389,7997,642649,0
20,-1,644531,220134,1374541,66568,8475,686245,0
20,-1,650308,222739,1207851,67816,6982,603248,0
20,-1,640838,219836,1143483,66397,7883,571271,0
20,-1,649679,222271,1215341,67564,8017,607072,0
20,-1,641797,220121,1233378,66325,7348,616263,0
20,-1,641918,220083,1291616,66390,7458,645370,0
20,-1,643917,219210,1259119,66144,7927,629511,0
20,-1,666765,225297,1481773,69952,9845,740425,0
20,-1,641024,219619,1447742,66339,8966,723490,0
20,-1,644359,219229,1403017,66122,9044,701013,0
20,-1,640133,220275,1359890,66456,7664,679551,0
20,-1,636474,218183,1190463,66078,7393,594863,0
20,-1,636012,218734,1276488,66203,7807,637843,0
20,-1,639340,218713,1278892,66238,7776,638906,0
21,-1,688611,237131,1258369,70665,8382,628550,0
21,-1,636657,218789,1382966,65697,7916,691018,0
21,-1,639263,220765,1185940,66742,7579,592022,0
21,-1,638185,218923,1299577,65848,8000,649453,0
21,-1,639564,219201,1212217,65906,7081,605721,0
21,-1,642913,220737,1208423,66620,7499,603374,0
21,-1,634999,219077,1380350,65866,7895,689865,0
21,-1,637057,218882,1282225,65873,7362,640852,0
21,-1,638293,218929,1216532,65876,7634,607632,0
21,-1,637048,219613,1312126,66150,7965,655679,0
21,-1,644701,221645,1243699,67078,8583,621149,0
21,-1,642754,220858,1299098,66629,7938,648976,0
21,-1,648741,221998,1224850,67090,8841,611942,0
21,-1,639121,219276,1228768,65967,8377,614002,2
21,-1,639786,219497,1213652,65921,7381,606447,0
21,-1,660184,224196,1288895,69345,8551,643996,0
21,-1,641850,220769,1283062,66570,7725,641034,0
21,-1,642739,219937,1281270,66143,7396,640136,0
21,-1,645679,219671,1281609,65991,7826,640430,0
21,-1,634209,219643,1333423,65911,7056,666341,0
21,-1,637839,219698,1213946,65904,7571,606626,0
21,-1,641860,220491,1280331,66086,7352,639689,0
21,-1,644307,220874,1243232,66316,7199,621172,0
21,-1,638810,218597,1197138,65507,7285,598248,0
21,-1,643479,219747,1212149,65971,7646,605725,0
21,-1,636027,218827,1120450,65774,6673,559824,0
21,-1,647447,220807,1317649,66412,8505,658275,0
21,-1,641711,219653,1344654,65682,7669,671883,0
21,-1,664476,228725,1302309,68583,7515,650742,0
21,-1,664811,223805,1271807,69044,8468,635481,0
21,-1,645414,221207,1261961,66739,7384,630309,0
21,-1,637146,219013,1254847,65634,8408,627243,0
21,-1,637961,219029,1200610,65722,7414,599933,0
21,-1,660042,224152,1160580,69073,8073,579981,0
21,-1,639792,219760,1284900,65849,7953,642094,0
21,-1,644219,220360,1281236,66343,8020,640031,0
21,-1,638684,218694,1277096,65673,7698,638180,0
21,-1,641881,220508,1270792,66546,8088,634881,0
21,-1,637967,218520,1430348,65574,8097,714003,0
21,-1,663349,223860,1227641,69093,8904,613080,0
21,-1,643762,219267,1166222,65882,7782,582733,0
21,-1,638478,218410,1290080,65501,7661,644773,0
21,-1,641251,219053,1352493,65774,7811,675885,0
21,-1,649716,220701,1287313,66423,7581,642908,0
21,-1,634533,219036,1241009,65189,8119,620034,0
21,-1,635101,218390,1298501,64962,8092,648808,0
21,-1,648358,221958,1317338,67447,9398,657519,0
21,-1,664602,224895,1329681,70037,8851,664383,0
21,-1,644443,221199,1212914,66939,8204,605992,0
21,-1,648237,221497,1205387,66999,7958,602197,0
21,-1,645026,221683,1272244,67067,7577,635585,0
21,-1,639038,219355,1263396,66239,7696,631351,0
21,-1,647005,220989,1383775,67033,8290,690689,0
21,-1,642778,219771,1235309,66299,7506,617373,0
21,-1,644706,221467,1350964,67298,9472,675136,0
21,-1,665307,224439,1491586,69569,9414,745370,0
21,-1,637159,219446,1299336,66183,8374,649292,0
21,-1,640388,218704,1329539,66192,8151,664303,0
21,-1,635782,218973,1206383,66325,7534,602705,0
21,-1,640298,219560,1488124,66501,9037,743695,0
22,-1,691280,238517,1202103,71311,7589,600328,0
22,-1,636457,218753,1328439,65693,7993,663801,0
22,-1,655558,223376,1284947,69058,8064,642091,0
22,-1,637660,218998,1323350,65855,8013,661280,0
22,-1,636026,218176,1204247,65562,6989,601964,0
22,-1,641082,219939,1184333,66073,6679,591782,0
22,-1,635588,219153,1307068,65886,8372,653059,0
22,-1,635165,218585,1182038,65783,6519,590603,0
22,-1,637930,218970,1298236,65888,8555,648693,0
22,-1,639306,220308,1313020,66587,8435,655837,0
22,-1,637732,219058,1192372,65899,7145,595587,0
22,-1,639500,219652,1270055,66059,7522,634715,0
22,-1,663371,224309,1264036,69366,9236,631539,0
22,-1,636084,220002,1194505,66203,7743,596781,2
22,-1,638601,219061,1282963,65786,8287,641303,0
22,-1,642295,220015,1198241,66203,7588,598581,0
22,-1,637691,219374,1187674,65973,7355,593515,0
22,-1,642806,219902,1190962,66085,7134,595185,0
22,-1,642074,219284,1412142,65933,7791,705380,0
22,-1,634084,219574,1264333,65835,7285,631874,0
22,-1,640048,220856,1196052,66322,7357,597723,0
22,-1,642296,221011,1175526,66315,7314,587111,0
22,-1,660235,224544,1281612,69357,7749,640517,0
22,-1,664061,223924,1323955,69113,8704,661671,0
22,-1,640168,218959,1276354,65636,7449,637810,0
22,-1,638114,218402,1201823,65650,6879,600676,0
22,-1,642311,219174,1206633,65701,7481,602992,0
22,-1,639514,219377,1337709,65711,7095,668346,0
22,-1,639209,218575,1266658,65516,7504,632948,0
22,-1,642408,218812,1271062,65581,7031,635323,0
22,-1,660793,223889,1190156,69067,7907,594687,0
22,-1,637897,220001,1389751,65989,8984,694533,0
22,-1,639451,219635,1270409,65851,8190,634908,0
22,-1,635864,218804,1170222,65506,8163,584727,0
22,-1,636283,218669,1163124,65458,6788,581237,0
22,-1,641708,219277,1194624,65865,7567,596731,0
22,-1,642950,218314,1381176,65506,8025,690096,0
22,-1,658408,223531,1253650,69041,8582,626334,0
22,-1,640860,219144,1300712,65837,9119,649974,0
22,-1,638713,218467,1253927,65566,8000,626534,0
22,-1,663892,223309,1268444,68986,8688,633994,0
22,-1,637327,218219,1195818,65525,7549,597500,0
22,-1,639639,218732,1146798,65601,6556,573118,0
22,-1,642421,218533,1263404,65456,7238,631320,0
22,-1,638358,220716,1185370,66023,8448,592092,0
22,-1,634691,218563,1205066,65076,8023,602068,0
22,-1,641941,219618,1278387,66427,8935,638828,0
22,-1,645262,220757,1284267,66888,8015,641715,0
22,-1,639245,219640,1295911,66381,7721,647726,0
22,-1,664220,224747,1242388,69892,8934,620650,0
22,-1,639720,219778,1192773,66277,7478,595928,0
22,-1,638457,219670,1296150,66282,7702,647557,0
22,-1,645212,221048,1333946,66958,8479,666380,0
22,-1,645797,221301,1306708,66872,8123,652901,0
22,-1,648580,220371,1255893,66661,7385,627599,0
22,-1,643223,219899,1264749,66326,7973,632024,0
22,-1,644168,219831,1293793,66265,7302,646608,0
22,-1,637467,218419,1232307,66150,7125,615566,0
22,-1,633056,218324,1314356,66060,8137,656643,0
22,-1,641056,218818,1307444,66210,8342,653378,0
23,-1,685213,236572,1218706,70398,6586,608946,0
23,-1,636075,218939,1265328,65692,7792,632097,0
23,-1,642709,220098,1158525,66258,7927,578740,0
23,-1,634334,217994,1269065,65509,7415,634134,0
23,-1,638665,218930,1187414,65780,7201,593369,0
23,-1,639328,219498,1252523,65897,7350,625932,0
23,-1,643415,222338,1290055,67164,8826,644495,0
23,-1,640685,220869,1237904,66755,7545,618229,0
23,-1,646047,222091,1353764,67252,8757,676257,0
23,-1,637178,219807,1281071,66201,8447,639999,0
23,-1,643549,221595,1235390,66988,7945,617067,0
23,-1,658945,224052,1310649,69284,8345,654850,0
23,-1,642153,219781,1384060,66059,7969,691673,0
23,-1,641721,220746,1302704,66579,8547,650663,0
23,-1,638074,219638,1208631,66056,7991,603798,2
23,-1,638783,219161,1257941,65856,8370,628626,0
23,-1,663994,228553,1288661,68642,7714,643994,0
23,-1,644051,219696,1349516,66049,7714,674452,0
23,-1,641641,219502,1298663,65925,7899,649001,0
23,-1,634842,220279,1181598,66092,6730,590389,0
23,-1,648734,222597,1379833,67267,9455,689177,0
23,-1,641100,220653,1167016,66213,7841,583158,0
23,-1,638912,219872,1276278,66001,7660,637792,0
23,-1,642431,219537,1150438,65940,7070,574985,0
23,-1,641587,218843,1294694,65646,7501,646919,0
23,-1,639590,219708,1279721,66043,7842,639460,0
23,-1,644370,220093,1326028,66041,7364,662612,0
23,-1,644477,221445,1298409,66610,7727,648573,0
23,-1,639793,219599,1258120,65875,7406,628798,0
23,-1,639876,218586,1248671,65546,7806,623956,0
23,-1,640921,219105,1313402,65712,7991,656361,0
23,-1,637841,219873,1455155,65964,8827,726632,0
23,-1,639972,219047,1277527,65648,7618,638400,0
23,-1,642623,218943,1165439,65613,7616,582379,0
23,-1,636535,218626,1295749,65434,8092,647478,0
23,-1,638279,218309,1224796,65495,7993,612063,0
23,-1,649162,221261,1298690,66811,8191,648755,0
23,-1,638376,219215,1294131,65826,8221,646544,0
23,-1,637240,218688,1359782,65604,8345,679331,0
23,-1,640116,218799,1389435,65671,8269,694251,0
23,-1,641030,218494,1284164,65568,8428,641810,0
23,-1,640921,219674,1304320,65881,7558,651732,0
23,-1,642756,219100,1234689,65757,7118,617010,0
23,-1,667896,223683,1589726,68968,9399,794520,0
23,-1,634518,219136,1213175,65275,8409,606053,0
23,-1,640577,221125,1271655,66168,7831,634920,0
23,-1,663888,224127,1319783,69710,9210,659768,0
23,-1,644634,220207,1265939,66714,7886,632554,0
23,-1,668203,224343,1409951,69737,9347,704802,0
23,-1,643849,220688,1199296,66749,8148,599236,0
23,-1,660049,224668,1318831,69634,8130,659001,0
23,-1,660267,224173,1321806,69569,8977,660630,0
23,-1,641169,219924,1216266,66403,7601,607759,0
23,-1,647178,220910,1312093,66718,8382,655741,0
23,-1,666353,224307,1626823,69689,10506,812556,0
23,-1,641183,218981,1352324,65988,8631,675822,0
23,-1,662867,223820,1404862,69402,8480,702107,0
23,-1,639571,219194,1323287,66252,8263,661392,0
23,-1,647784,221174,1300955,67296,8769,649706,0
23,-1,664491,224396,1392303,69863,9267,695655,0
24,-1,686504,237397,1337316,70751,7660,668328,0
24,-1,638942,220087,1247095,66190,8185,622729,0
24,-1,638581,219184,1212115,65770,7544,605656,0
24,-1,658551,223790,1303295,69147,8226,651325,0
24,-1,640503,219867,1190711,66345,7361,594747,0
24,-1,640171,220151,1305659,66335,7917,652236,0
24,-1,636800,219008,1306641,65753,7461,652963,0
24,-1,639096,220159,1223824,66333,7545,611344,0
24,-1,658749,223738,1305145,69278,8013,652201,0
24,-1,634282,218877,1189849,65867,8055,594519,0
24,-1,639150,219210,1205846,66016,8476,602377,0
24,-1,642963,220230,1431526,66304,9053,714366,0
24,-1,646897,221615,1342316,66884,8155,670436,0
24,-1,637074,219337,1189811,65882,6722,594539,0
24,-1,637646,219467,1192074,65965,7579,595634,0
24,-1,640249,219667,1209605,66113,7138,604361,2
24,-1,638596,218909,1194859,65783,7270,597083,0
24,-1,640306,218676,1276323,65648,7641,637775,0
24,-1,643525,219589,1195305,65940,7576,597273,0
24,-1,638274,219496,1170822,65837,6315,585100,0
24,-1,640528,219786,1227796,65979,7334,613619,0
24,-1,641528,220963,1177185,66297,7254,588154,0
24,-1,641740,221347,1232583,66500,7245,615945,0
24,-1,645430,221493,1255644,66857,7330,627237,0
24,-1,646570,221386,1284051,66855,8058,641433,0
24,-1,636705,218936,1238067,65750,7116,618715,0
24,-1,640567,218981,1219692,65630,6963,609577,0
24,-1,640984,220592,1288665,66012,7584,643924,0
24,-1,639844,220159,1289882,66261,7048,644395,0
24,-1,644867,220917,1257553,66524,8331,628136,0
24,-1,639023,218897,1387994,65662,7472,693532,0
24,-1,641319,220522,1303101,66354,8839,650963,0
24,-1,661041,223638,1309030,68984,8074,654125,0
24,-1,639256,219051,1244280,65533,7210,621793,0
24,-1,638641,219801,1316889,66089,8072,657956,0
24,-1,640858,219094,1201200,65754,7736,600315,0
24,-1,641176,218519,1296318,65632,7814,647778,0
24,-1,634773,218131,1215725,65463,8139,607480,0
24,-1,638212,219064,1322271,65736,8717,660594,0
24,-1,637961,218365,1306170,65627,7645,652529,0
24,-1,641083,218397,1183878,65543,7994,591518,0
24,-1,660521,223954,1298063,69094,8171,648682,0
24,-1,640875,218542,1257538,65591,6603,628455,0
24,-1,642483,218073,1346986,65408,8439,673162,0
24,-1,636757,220506,1199229,65877,8018,599149,0
24,-1,655715,223722,1369744,68516,9004,684393,0
24,-1,638867,218609,1269163,66085,8099,634305,0
24,-1,643956,220240,1294152,66727,8024,646662,0
24,-1,644014,219603,1242970,66336,8375,621042,0
24,-1,644247,220526,1160166,66645,7757,579794,0
24,-1,643898,220548,1300448,66543,8452,649742,0
24,-1,637637,218912,1214057,66091,8283,606524,0
24,-1,644096,219992,1203824,66447,7332,601313,0
24,-1,644766,220088,1159041,66381,7723,579209,0
24,-1,645130,220205,1365614,66602,8286,682160,0
24,-1,666229,223830,1341034,69409,8762,670119,0
24,-1,641535,219687,1262125,66283,7691,630735,0
24,-1,640577,219428,1206583,66655,7389,602801,0
24,-1,641675,218808,1172276,66256,8348,585753,0
24,-1,639839,218886,1285943,66288,7945,642608,0
25,-1,686695,237282,1288630,70700,7952,643961,0
25,-1,639205,219090,1331258,65716,8303,665338,0
25,-1,635211,218313,1187338,65431,6952,593336,0
25,-1,635694,218666,1181010,65750,6670,590077,0
25,-1,637323,218711,1296255,65743,7221,647735,0
25,-1,642977,218673,1286810,65607,7908,643054,0
25,-1,635692,219125,1191765,65816,7635,595500,0
25,-1,660092,224219,1317269,69441,8075,658176,0
25,-1,643970,220689,1484004,66630,9192,741105,0
25,-1,635233,219165,1299833,66006,8648,649344,0
25,-1,643726,221336,1222141,66977,8410,610387,0
25,-1,639397,219064,1266904,65916,8026,633024,0
25,-1,642931,220118,1294077,66202,8090,646626,0
25,-1,655667,223292,1332028,69098,7961,665577,0
25,-1,636298,219181,1221126,65885,7674,610078,0
25,-1,639223,219927,1230067,66163,8075,614694,2
25,-1,657649,223391,1287938,69076,8292,643658,0
25,-1,645623,220706,1299763,66629,8635,649375,0
25,-1,645900,220766,1334900,66563,7937,666983,0
25,-1,644552,218809,1262975,65604,7265,631139,0
25,-1,641362,221199,1298375,66674,7667,648674,0
25,-1,644942,220761,1239414,66236,8475,618962,0
25,-1,643058,221520,1403496,66762,8070,701082,0
25,-1,641291,219557,1241086,65967,6987,620076,0
25,-1,640197,219423,1213181,65788,7889,606299,0
25,-1,637338,219285,1257411,65892,7328,628356,0
25,-1,642214,219653,1352242,65908,7906,675744,0
25,-1,642291,219641,1243512,65676,7607,621443,0
25,-1,639697,219843,1196485,65961,7081,597926,0
25,-1,640109,219176,1295427,65650,7871,647398,0
25,-1,641159,220077,1186181,66039,6906,592764,0
25,-1,636291,219111,1208075,65724,8057,603691,0
25,-1,637557,218403,1290825,65463,8485,645030,0
25,-1,644908,220755,1296707,66482,7879,647798,0
25,-1,641722,219454,1227410,65810,7372,613461,0
25,-1,644588,220746,1210716,66623,8082,604640,0
25,-1,640920,218538,1186012,65569,7841,592657,0
25,-1,636712,218708,1205924,65622,8458,602772,0
25,-1,638070,218293,1469418,65472,9004,734264,0
25,-1,639114,218840,1321574,65683,8452,660457,0
25,-1,642258,219200,1341751,65828,8444,670452,0
25,-1,639540,218497,1264424,65532,7793,631861,0
25,-1,645760,220959,1230328,66678,6968,614572,0
25,-1,641514,218605,1179329,65598,6829,589355,0
25,-1,639414,219996,1313828,65467,7898,656507,0
25,-1,635713,218855,1275832,65172,8137,637524,0
25,-1,642577,220865,1216143,67080,8197,607267,0
25,-1,640843,219424,1424639,66422,8420,712008,0
25,-1,647434,220679,1352804,66734,8193,675428,0
25,-1,643466,220333,1198320,66665,7904,598686,0
25,-1,641999,220024,1352189,66340,8286,675882,0
25,-1,639868,220817,1141167,66905,8260,570008,0
25,-1,641454,219335,1256330,66233,7795,627662,0
25,-1,646108,221607,1266793,67095,8005,632873,0
25,-1,643387,219991,1230477,66456,7006,614915,0
25,-1,644994,219829,1181670,66259,7012,590410,0
25,-1,640921,219628,1211440,66294,6915,605410,0
25,-1,636821,218367,1319449,66131,7669,659375,0
25,-1,640164,218468,1173940,66086,7870,586413,0
25,-1,640298,218528,1320008,66177,7657,659580,0
26,-1,690199,238380,1250136,71277,7572,624325,0
26,-1,638669,219296,1255447,65743,7366,627385,0
26,-1,638177,218775,1256830,65649,7695,628025,0
26,-1,633763,218703,1263181,65767,7652,631211,0
26,-1,634823,217772,1293559,65388,7571,646420,0
26,-1,642839,219240,1374155,65831,8494,686518,0
26,-1,635667,220010,1373499,66126,8121,686313,0
26,-1,637948,219029,1155287,65968,7253,577305,0
26,-1,640609,219725,1339351,66156,9168,669102,0
26,-1,665441,224021,1340550,69381,8530,669964,0
26,-1,658276,223637,1240264,69198,8742,619643,0
26,-1,639553,219399,1178928,65940,7101,589146,0
26,-1,640340,219597,1316219,66036,8310,657882,0
26,-1,638523,219972,1261723,66178,7117,630230,0
26,-1,641381,219533,1247606,65977,7171,623400,0
26,-1,636352,218956,1322335,65788,7925,660851,0
26,-1,639361,219419,1284747,65984,7499,641704,2
26,-1,641965,219541,1320566,66012,8267,659890,0
26,-1,642294,219582,1204764,66001,7742,601932,0
26,-1,648904,221082,1200466,66666,7874,599641,0
26,-1,641024,220771,1298294,66288,7450,648692,0
26,-1,646461,221858,1291398,66718,8274,644776,0
26,-1,638229,219978,1225333,66128,7909,612060,0
26,-1,646285,221392,1268796,66733,7432,633844,0
26,-1,639959,218927,1276799,65761,6964,638124,0
26,-1,657932,223538,1205643,69074,8329,602365,0
26,-1,642108,219933,1263922,65876,6924,631760,0
26,-1,644550,220314,1316648,65888,8105,658028,0
26,-1,644789,221504,1332660,66839,7899,665666,0
26,-1,641531,219843,1317536,65962,8182,658438,0
26,-1,639752,218921,1167271,65670,7291,583288,0
26,-1,656820,223257,1285289,68867,8906,642198,0
26,-1,641398,220121,1314795,66260,8145,656809,0
26,-1,662250,223954,1322186,69032,7948,660738,0
26,-1,639050,219605,1290782,65803,7539,645057,0
26,-1,637420,218370,1191816,65527,7287,595591,0
26,-1,645536,220379,1298998,66401,8075,648972,0
26,-1,635372,218806,1185594,65733,8167,592394,0
26,-1,636534,218656,1425477,65538,9317,712059,0
26,-1,641640,220389,1265584,66440,7909,632109,0
26,-1,646548,221034,1305067,66623,8202,651973,0
26,-1,642718,219271,1335309,65736,7602,667305,0
26,-1,641265,218832,1290751,65742,6854,645005,0
26,-1,641252,218093,1266010,65429,7271,632682,0
26,-1,635861,218940,1454424,65215,8889,726522,0
26,-1,636065,219285,1305839,65336,8362,652418,0
26,-1,640281,218694,1368775,65957,9243,683986,0
26,-1,644704,220937,1257486,66986,7487,628302,0
26,-1,644532,220245,1332324,66535,8089,665549,0
26,-1,646712,221758,1156232,67262,8203,577467,0
26,-1,642382,220347,1356604,66402,8294,677859,0
26,-1,645423,220213,1155927,66559,7861,577436,0
26,-1,643237,220276,1204938,66674,7405,601869,0
26,-1,663813,224785,1458731,69752,9226,729025,0
26,-1,646756,220064,1280050,66515,7662,639649,0
26,-1,643557,219913,1331261,66273,8161,665248,0
26,-1,643225,220967,1196495,66974,8148,597674,0
26,-1,640713,219814,1322456,66571,7996,660312,0
26,-1,643699,220172,1194383,66892,8375,595887,0
26,-1,641814,219579,1280803,66655,7445,639622,0
27,-1,687103,237027,1385972,70663,8717,692448,0
27,-1,657148,223889,1409165,69068,9254,704065,0
27,-1,634426,217474,1387234,65190,8952,693268,0
27,-1,636957,218675,1272288,65700,7928,635841,0
27,-1,660933,224630,1334868,69429,8518,667064,0
27,-1,642852,219651,1268535,65944,7634,634015,0
27,-1,633477,218894,1170646,65675,7225,584940,0
27,-1,639946,220167,1292948,66554,8005,645825,0
27,-1,641893,221246,1318168,66940,7949,658486,0
27,-1,640475,218891,1279244,65860,8136,639272,0
27,-1,636963,219228,1162890,66034,7681,580963,0
27,-1,643759,221273,1277912,66839,7699,638117,0
27,-1,660822,224014,1337796,69293,8926,668457,0
27,-1,644948,220536,1326554,66485,8332,662549,0
27,-1,637891,218934,1311922,65754,8208,655589,0
27,-1,638908,219671,1310344,66082,8275,654731,0
27,-1,638651,219806,1218336,66082,7354,608808,2
27,-1,642192,219775,1273197,66020,7798,636148,0
27,-1,640723,219011,1357270,65760,7999,678236,0
27,-1,665229,224059,1209156,69114,8633,604135,0
27,-1,639866,220921,1273511,66630,7686,636142,0
27,-1,643985,220561,1262481,66194,8194,630854,0
27,-1,640938,221145,1145282,66362,7683,572299,0
27,-1,640158,219384,1181029,65911,7010,590192,0
27,-1,637937,218519,1214903,65631,7141,607173,0
27,-1,638932,219228,1269548,65814,7057,634457,0
27,-1,642543,219940,1217119,65986,7626,608136,0
27,-1,641079,219350,1228189,65644,7627,613902,0
27,-1,635500,218753,1186103,65637,6827,592765,0
27,-1,641320,218923,1266755,65686,7510,633107,0
27,-1,642402,218498,1246120,65488,7972,622746,0
27,-1,631537,218084,1237387,65306,7917,618382,0
27,-1,637211,218830,1283037,65573,7759,641189,0
27,-1,639437,219035,1362355,65648,7719,680835,0
27,-1,637724,218849,1272473,65567,7423,635768,0
27,-1,635005,217469,1114870,65234,6774,557045,0
27,-1,640547,218645,1274499,65603,6861,636825,0
27,-1,635493,218499,1335724,65550,7076,667546,0
27,-1,645734,221629,1318205,66882,8203,658107,0
27,-1,641089,219798,1294431,66032,8293,646824,0
27,-1,646643,220905,1225262,66654,8144,612051,0
27,-1,640093,219049,1271842,65778,7580,635433,0
27,-1,641225,219084,1356454,65823,8004,677959,0
27,-1,642902,218849,1283581,65694,7286,641379,0
27,-1,638761,220160,1361713,65789,8430,679831,0
27,-1,633193,218451,1298425,65028,8116,648916,0
27,-1,639591,218850,1182459,65884,8235,590849,0
27,-1,641815,219893,1179558,66576,7116,589390,0
27,-1,645970,220383,1302465,66605,7919,650383,0
27,-1,639920,219434,1291072,66216,7051,645111,0
27,-1,643733,220906,1289843,66578,8495,644563,0
27,-1,642954,219344,1218441,66195,7911,608688,0
27,-1,640974,219009,1293907,66109,6938,646560,0
27,-1,644930,220387,1313307,66547,8434,656253,0
27,-1,648866,221059,1181527,67024,7337,590341,0
27,-1,646038,220047,1188986,66275,7674,594263,0
27,-1,640144,219570,1282400,66199,7681,640875,0
27,-1,662755,223365,1540077,69523,9301,769596,0
27,-1,644361,218997,1173491,66346,8539,585428,0
27,-1,640006,218916,1325943,66266,8731,662462,0
28,-1,687110,236947,1322264,70574,8234,660743,0
28,-1,638365,219507,1248191,65886,8130,623726,0
28,-1,639557,219994,1239648,66300,7425,619130,0
28,-1,633269,218657,1287143,65657,8249,643219,0
28,-1,638863,218312,1184275,65599,7090,591797,0
28,-1,641732,219634,1191439,65903,7038,595254,0
28,-1,655523,223976,1331440,69195,8435,665381,0
28,-1,636762,219350,1328758,66073,7668,664010,0
28,-1,657607,223365,1288863,69105,8462,644069,0
28,-1,641569,219181,1213883,65992,8155,606586,0
28,-1,636614,218776,1310688,65820,8348,655041,0
28,-1,637084,219009,1202472,65797,7506,600997,0
28,-1,643233,219420,1188376,65978,8345,593761,0
28,-1,659325,223521,1312910,69059,9107,655980,0
28,-1,642848,220607,1287402,66573,7931,643168,0
28,-1,636943,219384,1210931,65932,7993,605088,0
28,-1,644217,221328,1219581,66916,8365,609123,2
28,-1,638932,219303,1236485,65880,7795,617816,0
28,-1,640221,219218,1213713,65863,6924,606560,0
28,-1,645981,219544,1523322,65830,8906,760875,0
28,-1,640410,220166,1280428,66172,7253,639913,0
28,-1,645361,221731,1352951,66554,7618,676027,0
28,-1,642212,222151,1210877,66984,8114,604629,0
28,-1,640542,219527,1235687,65903,6705,617495,0
28,-1,644006,221225,1291065,66758,7759,644865,0
28,-1,639593,219805,1141991,66049,7546,570589,0
28,-1,644352,220793,1325999,66474,8535,662545,0
28,-1,641732,219644,1358231,65692,7756,678750,0
28,-1,637338,218891,1208579,65655,7719,603980,0
28,-1,642760,219509,1419007,65796,8581,709139,0
28,-1,647706,221030,1284064,66624,7853,641506,0
28,-1,646149,219480,1269041,65846,8188,634155,0
28,-1,637585,219211,1200811,65755,7223,600074,0
28,-1,638167,218996,1257986,65614,7250,628699,0
28,-1,640780,220069,1284158,66170,8403,641502,0
28,-1,643539,219366,1223291,65892,7582,611289,0
28,-1,641864,219078,1406359,65760,7820,702869,0
28,-1,644725,218666,1297522,65603,7230,648482,0
28,-1,659922,223649,1410792,69056,9776,704825,0
28,-1,638423,218141,1195039,65460,7735,597200,0
28,-1,660380,223024,1269861,68905,8529,634602,0
28,-1,642982,219607,1183043,65926,7516,591114,0
28,-1,638311,218493,1221491,65584,6944,610410,0
28,-1,648720,221531,1172509,66845,6934,585729,0
28,-1,638004,220059,1447418,65589,9023,723258,0
28,-1,639384,220999,1231686,66145,8118,614992,0
28,-1,643400,220284,1206598,66674,8146,602741,0
28,-1,640828,220007,1265603,66619,8018,632415,0
28,-1,647445,220919,1396368,66811,8726,697861,0
28,-1,642898,220891,1232697,66849,7121,615746,0
28,-1,645766,221962,1197908,67229,8030,598154,0
28,-1,638695,218216,1165211,65919,7656,582018,0
28,-1,643267,219839,1205199,66380,7542,602027,0
28,-1,642482,219959,1252579,66338,7752,625863,0
28,-1,644410,219620,1292995,66378,7125,646022,0
28,-1,645177,219724,1325620,66281,8754,662432,0
28,-1,640546,219640,1260063,66270,7995,629656,0
28,-1,639384,218949,1302266,66276,7485,650826,0
28,-1,661986,223478,1300507,69593,9317,649396,0
28,-1,638676,218872,1253497,66285,7986,626458,0
29,-1,709153,242544,1413267,74201,9121,706222,0
29,-1,636345,219240,1269652,65810,7624,634319,0
29,-1,640874,219926,1281497,66237,7484,640009,0
29,-1,639728,220663,1297942,66581,7555,648280,0
29,-1,641900,219876,1260467,66270,7217,629641,0
29,-1,641787,219337,1313649,65788,8046,656410,0
29,-1,631948,218810,1252266,65676,7147,625771,0
29,-1,659383,224951,1300925,69665,8459,650043,0
29,-1,635475,218648,1380403,65759,7928,689848,0
29,-1,644586,220625,1369374,66656,8450,684120,0
29,-1,637308,219508,1347297,66126,8008,673159,0
29,-1,637401,219110,1282330,65854,7659,640852,0
29,-1,640784,218869,1296673,65693,7885,648028,0
29,-1,639171,219096,1272318,65835,7892,635931,0
29,-1,639042,219449,1204003,66040,7790,601565,0
29,-1,641820,221886,1290651,67044,8021,644757,0
29,-1,642025,220113,1195413,66187,7924,597144,0
29,-1,643721,220501,1214615,66337,7653,606874,2
29,-1,646110,221360,1273557,66853,7976,636107,0
29,-1,646327,220363,1300994,66134,7684,650615,0
29,-1,633366,219123,1366566,65626,7409,682954,0
29,-1,642367,220187,1202833,66053,7503,601076,0
29,-1,659042,224576,1184671,69301,7992,591856,0
29,-1,659005,223652,1254377,69090,7681,626840,0
29,-1,638401,219371,1159125,65893,7739,579097,0
29,-1,635318,218693,1296112,65650,7415,647735,0
29,-1,642820,219796,1249713,65961,7731,624433,0
29,-1,640857,219132,1245235,65597,7314,622234,0
29,-1,635716,218624,1324484,65511,7359,661938,0
29,-1,640823,219110,1265737,65723,8132,632483,0
29,-1,663454,223763,1285078,68986,8248,642285,0
29,-1,643846,218690,1313421,65472,8343,656025,0
29,-1,636372,218931,1231986,65612,7899,615728,0
29,-1,641188,219903,1221475,65920,7200,610343,0
29,-1,635865,218506,1291997,65349,8108,645616,0
29,-1,641743,218992,1277471,65743,8124,638437,0
29,-1,661543,223833,1211181,69131,8101,605272,0
29,-1,643462,218979,1274363,65776,7984,636877,0
29,-1,637633,218905,1370747,65731,8792,684642,0
29,-1,638906,218661,1314705,65670,8300,656863,0
29,-1,640094,218192,1153703,65477,8048,576497,0
29,-1,639358,218721,1310983,65655,8124,655003,0
29,-1,642836,218917,1223085,65692,7283,611173,0
29,-1,647785,220096,1204834,66274,8094,601729,0
29,-1,634354,219128,1298503,65280,8313,649239,0
29,-1,632887,218803,1180988,65126,7923,590006,0
29,-1,638239,218979,1286462,66046,8331,642700,0
29,-1,639580,219960,1278609,66526,7551,638870,0
29,-1,665585,224901,1378264,69906,9176,688615,0
29,-1,667248,224820,1344132,69896,8886,671586,0
29,-1,662624,224785,1356541,69706,9593,677714,0
29,-1,641637,219123,1134715,66066,7140,567040,0
29,-1,644563,220154,1286070,66445,7351,642513,0
29,-1,639468,219553,1282290,66132,8100,640778,0
29,-1,644598,219674,1183813,66301,7079,591644,0
29,-1,665955,224546,1286612,69643,8861,642890,0
29,-1,641912,220531,1246955,66725,7897,622876,0
29,-1,636337,218323,1301719,66057,7541,650614,0
29,-1,640098,218552,1304129,66123,8100,651709,0
29,-1,636996,218015,1156888,65969,7038,578063,0
30,-1,687879,236724,1375421,70498,8144,687382,0
30,-1,634477,218686,1194597,65588,8529,597019,0
30,-1,635632,218457,1188593,65518,6907,593822,0
30,-1,632820,218381,1255671,65659,8076,627389,0
30,-1,658835,223391,1381075,69047,8449,690140,0
30,-1,639181,218941,1287090,65648,8628,643513,0
30,-1,647615,220208,1270710,66169,7521,634991,0
30,-1,641362,220746,1299492,66717,8169,649154,0
30,-1,640011,220654,1257281,66665,7665,627759,0
30,-1,639770,218776,1244411,65821,7967,621753,0
30,-1,635822,218973,1211670,65831,7916,605539,0
30,-1,638116,219886,1171361,66145,6460,585233,0
30,-1,646548,221157,1339316,66728,8595,669007,0
30,-1,635729,219145,1210468,65846,7826,604856,0
30,-1,639112,219617,1317287,66075,8286,658120,0
30,-1,662797,224249,1277139,69323,8246,638177,0
30,-1,642676,219754,1206675,66107,8366,602951,0
30,-1,636826,219548,1312588,66028,7786,655682,2
30,-1,662753,223501,1230111,69041,8128,614578,0
30,-1,644606,219791,1265151,65956,8589,632212,0
30,-1,633582,219400,1325821,65831,7860,662401,0
30,-1,644686,221609,1280577,66448,7288,639983,0
30,-1,649125,221559,1259311,66713,8354,629129,0
30,-1,643243,220140,1304709,66144,7966,651948,0
30,-1,662204,223561,1199802,69091,8157,599445,0
30,-1,635262,219532,1263063,65936,6702,631166,0
30,-1,640234,219186,1178045,65759,7215,588644,0
30,-1,642535,219680,1295717,65645,7991,647498,0
30,-1,639283,220765,1308569,66542,8157,653638,0
30,-1,638433,218228,1227724,65389,7090,613542,0
30,-1,640820,218766,1176470,65585,6853,587961,0
30,-1,644742,219729,1312792,65925,8683,656063,0
30,-1,639412,218891,1274701,65652,8033,637025,0
30,-1,639858,219105,1158626,65664,7374,578920,0
30,-1,644194,220939,1358913,66531,8021,678756,0
30,-1,641251,218834,1275381,65672,8186,637409,0
30,-1,643882,219428,1286030,65895,8676,642859,0
30,-1,642657,218477,1268420,65546,8089,633919,0
30,-1,636932,219027,1410792,65746,9484,705049,0
30,-1,641352,219895,1292497,66256,8280,645806,0
30,-1,641196,219287,1227473,65861,7788,613301,0
30,-1,640436,219094,1273917,65816,7990,636615,0
30,-1,661820,223289,1249187,68917,7614,624219,0
30,-1,643332,218414,1298713,65495,7416,649134,0
30,-1,634707,219141,1388129,65225,8370,693820,0
30,-1,633140,219228,1315371,65276,8566,657262,0
30,-1,636095,218451,1263783,65855,8702,631536,0
30,-1,639173,219532,1269536,66371,8038,634299,0
30,-1,642195,219812,1327697,66410,8272,663492,0
30,-1,648539,222246,1213511,67434,6997,606102,0
30,-1,640266,220701,1304711,66619,7825,651947,0
30,-1,644042,220291,1261326,66554,7536,630100,0
30,-1,642508,219894,1357832,66429,7865,678472,0
30,-1,639735,219839,1213043,66181,8362,606252,0
30,-1,645580,220438,1252948,66668,7476,626030,0
30,-1,642477,219602,1226569,66212,8136,612731,0
30,-1,641171,220248,1373014,66456,8019,686093,0
30,-1,637745,218583,1292472,66150,7475,645754,0
30,-1,642319,219802,1206787,66761,7524,602838,0
30,-1,635775,218140,1263907,65943,8279,631539,0
31,-1,688540,237515,1297544,70811,7645,648294,0
31,-1,636297,219071,1178037,65724,8403,588579,0
31,-1,635480,218682,1173250,65650,7302,586217,0
31,-1,632650,218706,1439303,65714,9884,719237,0
31,-1,637323,218884,1277107,65721,7417,638266,0
31,-1,638489,219096,1296863,65892,8776,647864,0
31,-1,642319,218705,1229040,65635,7631,614138,0
31,-1,635987,218984,1280354,65945,7138,639764,0
31,-1,638875,218863,1287657,65853,9107,644296,0
31,-1,645273,221356,1299536,67031,7668,648979,0
31,-1,631432,217463,1197699,65400,7563,598419,0
31,-1,640439,220819,1307385,66637,7234,653177,0
31,-1,640558,219301,1369487,65941,8640,684296,0
31,-1,637436,219629,1320585,66057,7283,659850,0
31,-1,638464,219831,1182217,66026,7296,590622,0
31,-1,647955,221389,1338675,66794,8261,668947,0
31,-1,643277,220848,1356780,66647,8515,677319,0
31,-1,639337,219474,1200399,66051,7489,599904,2
31,-1,641560,219555,1397897,65971,7899,698592,0
31,-1,642313,219806,1263594,66021,7888,631411,2
31,-1,642400,219166,1408457,65690,8921,703830,0
31,-1,639991,219642,1288509,65858,7985,643896,0
31,-1,640042,220048,1210438,66188,7789,604833,2
31,-1,642147,222178,1313543,67193,8650,656202,2
31,-1,639085,220374,1200219,66134,7274,599692,2
31,-1,643962,220700,1206284,66219,7362,602631,0
31,-1,639401,221005,1184540,66370,8230,591675,2
31,-1,640729,220463,1206201,66101,6817,602688,2
31,-1,646433,222368,1315951,67065,7783,657327,2
31,-1,642915,220167,1321090,66007,7745,660218,0
31,-1,648071,221672,1176330,66583,7915,587710,2
31,-1,647760,222783,1311051,67235,7994,654977,2
31,-1,643288,221021,1260154,66614,7365,629493,0
31,-1,636253,219131,1293977,65749,8151,646605,2
31,-1,668168,229200,1220334,68807,7489,609859,2
31,-1,641854,219527,1343108,65888,6878,671218,0
31,-1,637605,219177,1176249,65907,7464,587714,2
31,-1,641567,219903,1289161,66069,7988,644176,2
31,-1,642858,219831,1263204,66019,7501,631286,2
31,-1,638522,219470,1201607,65943,7309,600403,0
31,-1,640077,221070,1298030,66825,7334,648331,2
31,-1,635160,219048,1159016,65859,7111,579273,2
31,-1,639442,219291,1239868,65833,6870,619468,2
31,-1,643765,220926,1308343,66486,7829,653616,0
31,-1,664706,229080,1314775,68532,7878,657031,2
31,-1,641716,219634,1234658,65757,7123,617046,0
31,-1,642126,220299,1300493,65963,7838,649668,2
31,-1,638777,219694,1204749,65839,7016,602000,2
31,-1,641838,218885,1199942,65595,8124,599597,0
31,-1,637915,220044,1196895,66042,7507,598073,2
31,-1,637757,219467,1282621,65795,7443,640712,2
31,-1,639744,219584,1248423,65888,7552,623915,2
31,-1,644221,220254,1337471,66052,8887,668439,0
31,-1,670240,230382,1325806,69389,8165,662399,2
31,-1,646912,220560,1364885,66374,7690,681900,0
31,-1,640212,219639,1320069,65912,8594,659570,2
31,-1,642089,218827,1246452,65570,8189,622946,0
31,-1,639029,221198,1303373,66761,9050,650962,2
31,-1,634753,219018,1322867,65738,8091,661007,2
31,-1,638512,219766,1184449,65957,7464,591885,2
31,-1,642004,220517,1298057,66359,7763,648360,0
31,-1,644474,221351,1325989,66751,8166,662443,2
31,-1,639258,219904,1211198,65939,7639,605236,2
31,-1,637429,218449,1289813,65411,7602,644538,0
31,-1,642573,220007,1192556,65973,7277,595782,2
31,-1,638751,219153,1263577,65701,7367,631470,2
31,-1,641149,219316,1159872,65721,7743,579568,2
31,-1,634952,218426,1281851,65389,7568,640545,0
31,-1,635905,219175,1214522,65716,7295,606863,2
31,-1,645562,221820,1282852,66813,7589,640816,2
31,-1,637041,219032,1284178,65754,8163,641679,2
31,-1,641217,219162,1253485,65826,7738,626429,0
31,-1,640142,218798,1182486,65733,7866,590815,2
31,-1,639907,219321,1280798,65896,8294,640035,2
31,-1,638924,219825,1183714,65949,6809,591480,2
31,-1,644894,221433,1297852,66835,8140,648413,2
31,-1,640413,219084,1221869,65818,7725,610546,0
31,-1,637306,219035,1170135,65816,8131,584663,2
31,-1,640901,219271,1222908,65879,8283,611054,2
31,-1,640300,218071,1291960,65435,8039,645655,0
31,-1,651307,222002,1287748,67122,7981,643219,2
31,-1,637964,218882,1285375,65699,8443,642151,2
31,-1,640814,220634,1319821,66392,8474,658739,0
31,-1,643161,221392,1271415,66819,8524,635738,2
31,-1,641330,219346,1330399,65842,9355,664442,2
31,-1,636845,218460,1222294,65486,8046,610840,0
31,-1,640644,219158,1292343,65826,8405,645747,2
31,-1,643863,221270,1213661,66800,7148,606328,2
31,-1,642586,219819,1271076,66071,7385,635109,2
31,-1,648777,221298,1232983,66779,8105,615797,0
31,-1,643019,219432,1187308,65897,7709,593275,2
31,-1,639361,219368,1247499,65846,8248,622925,2
31,-1,636256,218036,1199809,65379,7304,599467,0
31,-1,640337,219062,1256490,65824,7290,627886,2
31,-1,643230,219379,1230147,65911,7892,614607,2
31,-1,641840,219634,1248290,65939,6713,623742,0
31,-1,644815,220860,1200391,66640,6978,599588,2
31,-1,642179,219253,1169527,65723,7116,584375,2
31,-1,638260,218416,1252991,65523,6646,626011,2
31,-1,642322,218672,1186567,65619,7126,592862,0
31,-1,643738,219081,1328342,65806,7796,663452,2
31,-1,632192,219412,1263452,65331,7260,631291,2
31,-1,634770,219092,1269382,65337,7640,634199,2
31,-1,644009,221757,1237259,66448,7577,617668,0
31,-1,632594,219526,1278826,65389,7869,638861,2
31,-1,640121,221195,1197685,66247,8066,598071,2
31,-1,636082,219685,1317192,65434,8317,658131,2
31,-1,637345,218919,1161812,65180,8218,580498,2
31,-1,638058,220920,1198875,66034,8065,598825,0
31,-1,640228,219436,1375491,66233,10188,687188,0
31,-1,637897,219311,1374610,66242,8419,686163,2
31,-1,643978,220084,1324993,66668,8855,662067,2
31,-1,648745,222702,1205823,67709,8307,602207,2
31,-1,642477,219287,1202921,66257,8254,600995,0
31,-1,642494,220289,1218578,66651,8364,609011,2
31,-1,640606,219325,1298194,66259,7706,648770,0
31,-1,642881,221793,1267097,67420,8948,632931,2
31,-1,641207,220157,1216323,66614,7512,607564,2
31,-1,645807,220452,1282496,66686,7868,640841,0
31,-1,643456,220560,1282804,66583,9005,641030,0
31,-1,639567,219654,1287690,66199,7932,643432,2
31,-1,643185,221844,1201660,67280,7438,600021,2
31,-1,664491,224895,1344096,69783,8634,671666,0
31,-1,641924,220642,1226963,66628,7308,613138,2
31,-1,638723,219933,1214178,66451,8203,606544,2
31,-1,644552,221198,1187977,67115,7399,593464,2
31,-1,640119,220391,1238961,66584,8739,618859,2
31,-1,640239,219346,1213321,66190,7881,606305,0
31,-1,642242,220095,1224732,66517,7892,611899,2
31,-1,640341,219459,1264539,66222,8387,632028,2
31,-1,645274,220007,1428203,66454,8571,714168,2
31,-1,641874,221261,1187060,67097,8026,592942,2
31,-1,646218,220743,1221188,66520,7883,610190,0
31,-1,643494,220969,1265364,66730,8175,632433,2
31,-1,647956,221579,1265271,66998,8877,632257,2
31,-1,643684,219751,1303606,66360,7590,651495,0
31,-1,648139,221451,1264476,67268,7928,631680,2
31,-1,643718,219779,1287834,66279,7006,643585,2
31,-1,644733,220547,1201185,66622,7930,600168,2
31,-1,669224,224589,1590821,69648,10407,794573,0
31,-1,645311,219906,1322453,66357,8881,660834,2
31,-1,635398,219886,1183229,66378,6841,591265,2
31,-1,641223,219951,1294319,66318,8012,646795,0
31,-1,646403,221636,1224158,67224,7274,611497,2
31,-1,638421,218794,1234621,66167,7226,616864,2
31,-1,639634,218828,1341027,66266,7649,670130,0
31,-1,639961,220550,1308197,67126,8078,653543,2
31,-1,638564,218830,1280166,66288,7497,639672,2
31,-1,640590,220208,1297221,66738,7398,648155,2
31,-1,640630,218878,1156183,66323,7167,577636,2
31,-1,640568,219266,1168498,66305,7417,583963,0
31,-1,638254,218605,1240897,66209,9159,620061,2
31,-1,637049,218771,1298207,66272,8084,648672,2
31,-1,638587,218877,1270493,66258,7695,634791,2
31,-1,659180,223727,1325781,69643,9292,662447,0
31,-1,639554,219346,1234804,66474,7619,616658,2
31,-1,642195,218932,1337473,66208,8895,668362,2
