0,0,25,645433.000000,221329.920000,1314562.960000,66558.160000,7682.080000,656642.600000,13868.313204,4650.028902,71270.991510,1246.673259,593.188262,35611.140132
0,1,39,713964.358974,249925.230769,1454285.641026,74650.641026,9367.128205,726601.538462,11055.789140,3127.833439,77384.790160,1266.800947,627.441454,38661.439118
1,0,24,645939.750000,221023.791667,1328176.416667,66664.583333,7777.000000,663565.041667,12195.553091,3788.292777,121898.598731,1397.209866,644.448343,60783.724644
1,1,38,711982.763158,249116.578947,1416109.789474,74321.500000,9115.157895,707520.105263,5971.765636,1503.411868,75847.765038,826.810318,705.809633,37897.861825
2,0,24,645102.916667,221044.291667,1313204.208333,66525.750000,7770.000000,656041.500000,12973.145458,4662.621084,87044.260066,1499.739234,558.297113,43473.798246
2,1,38,713570.842105,249555.842105,1443918.236842,74627.078947,9367.368421,721351.921053,7935.125458,1800.638432,92345.281657,1094.675424,682.024711,46122.398427
3,0,24,643649.291667,220780.416667,1304509.291667,66419.416667,7705.708333,651606.833333,10884.004316,3648.787355,64752.777546,1038.499716,571.750709,32441.876471
3,1,38,711615.789474,249079.289474,1448680.473684,74322.710526,9222.868421,723717.289474,6144.454569,1245.013018,75207.043564,754.460383,705.995608,37576.007391
4,0,25,643577.400000,220335.760000,1300103.200000,66581.040000,7756.600000,649489.200000,8158.013685,1938.585304,64277.258802,1233.968086,658.032704,32096.838840
4,1,38,712574.578947,249427.421053,1463912.473684,74399.605263,9307.447368,731356.842105,5359.647998,1784.164711,80138.946330,761.165987,650.364541,39998.947239
5,0,25,643593.600000,220478.280000,1293063.680000,66537.400000,7785.360000,645929.560000,8076.582852,1866.728529,57911.252086,1104.707817,661.245121,28988.139285
5,1,38,713869.736842,249586.894737,1465585.421053,74627.289474,9519.526316,732177.578947,7422.355736,1642.338349,111711.767730,1110.654854,933.760189,55767.793533
6,0,25,645588.880000,221204.760000,1321222.560000,66857.160000,7903.840000,659929.880000,8469.173619,2524.163850,56734.966619,1191.499750,462.725204,28305.451628
6,1,38,715539.263158,249898.236842,1458596.789474,74859.394737,9530.447368,728707.789474,9809.861378,2057.463620,84414.247154,1391.202387,867.279828,42231.988801
7,0,25,643089.880000,220537.840000,1321753.960000,66413.600000,7728.440000,660268.360000,10817.530048,3415.873882,95998.893005,1240.567548,566.401701,48048.968905
7,1,38,711894.973684,249110.578947,1448893.973684,74308.184211,9427.789474,723869.973684,5824.472443,1153.952239,79594.417606,754.346662,798.757955,39748.486159
8,0,25,646332.720000,221074.800000,1317491.520000,66713.600000,7940.920000,658073.920000,12102.937880,3582.927552,76345.487022,1308.902349,563.702469,38099.790449
8,1,38,713090.473684,249412.342105,1463112.578947,74406.473684,9367.894737,730963.447368,6932.257234,1935.235703,68665.206168,896.920132,636.322857,34330.926111
9,0,25,647666.120000,221403.400000,1314978.880000,66857.880000,7950.040000,656897.400000,13539.637715,4063.919369,67405.472611,1489.526645,609.075134,33707.993662
9,1,38,713056.078947,249442.815789,1433637.315789,74459.447368,9345.394737,716209.236842,6076.767364,1439.099149,95513.862579,918.714253,831.577497,47715.912917
10,0,25,646879.920000,221238.680000,1294533.320000,66822.680000,7666.280000,646653.280000,12204.026679,3613.739866,67671.897885,1410.471431,551.148076,33738.008524
10,1,38,715780.447368,249895.263158,1442012.184211,74826.184211,9357.605263,720436.710526,10125.050398,2497.397421,81556.903746,1474.709657,607.459444,40829.165460
11,0,25,644466.440000,220981.360000,1304636.600000,66500.040000,7607.400000,651723.280000,13277.976548,4314.233576,55213.182267,1352.404747,592.583699,27526.559091
11,1,38,714805.815789,249966.368421,1450671.236842,74607.868421,9261.131579,724692.710526,12752.709355,3823.189075,84630.892411,1414.382014,621.183682,42270.346846
12,0,25,642612.880000,220429.240000,1298548.920000,66260.800000,7559.720000,648690.960000,10806.480227,3562.786755,74912.090904,973.181997,610.056753,37405.698973
12,1,38,716475.394737,250059.000000,1462602.815789,74736.868421,9324.500000,730660.026316,10725.022210,3267.883397,81728.966415,1311.309815,615.508979,40873.874433
13,0,25,643231.000000,220510.240000,1335354.320000,66364.840000,7722.560000,667110.960000,12126.285980,4125.984782,126186.845444,1337.777281,614.272062,62985.727930
13,1,38,716222.868421,250321.684211,1491762.842105,74692.815789,9550.394737,745191.894737,11086.506244,3746.541515,100567.755769,1267.827127,634.644141,50242.254046
14,0,25,644197.680000,220778.200000,1316813.760000,66471.800000,7763.200000,657792.760000,14895.741106,4463.343410,65572.858473,1626.346728,605.030512,32757.732729
14,1,38,716954.342105,250473.578947,1476954.078947,74834.947368,9534.184211,737836.657895,11694.211945,3573.821975,94680.329603,1359.987925,645.087218,47341.067623
15,0,25,647573.120000,221507.320000,1298852.640000,67033.440000,7675.080000,648901.120000,12581.390229,3701.568281,84573.343271,1531.883470,474.341136,42255.018640
15,1,38,715719.026316,250198.684211,1459759.921053,74746.868421,9337.605263,729267.578947,11208.599587,3331.862330,89154.787721,1339.510578,733.809366,44566.100876
16,0,25,644058.120000,220827.600000,1301181.280000,66522.120000,7831.600000,650025.080000,11689.390935,3685.083760,76017.512006,1304.431503,742.739093,37959.235287
16,1,38,715903.184211,250193.394737,1453438.184211,74812.921053,9253.236842,726188.447368,11992.584224,3538.784199,94795.716442,1485.266366,689.256748,47464.129852
17,0,25,644333.760000,221027.400000,1295262.760000,66509.480000,7603.520000,647061.600000,12216.752512,4054.751642,59310.289486,1270.680987,594.572729,29598.797009
17,1,38,716054.342105,250295.263158,1445018.894737,74763.394737,9337.789474,721936.236842,11214.212782,3337.894465,73783.761200,1257.255376,637.302174,36919.227885
18,0,25,643743.000000,220664.960000,1313033.360000,66484.800000,7626.400000,655989.720000,11156.790815,3633.570272,64636.650214,1221.335957,630.906649,32331.319365
18,1,38,716144.868421,250433.894737,1445583.315789,74762.315789,9400.236842,722104.026316,10628.841245,3439.059118,75239.591858,1232.730220,612.177624,37629.275852
19,0,25,644415.040000,220972.240000,1331124.080000,66607.240000,7770.800000,664925.920000,11693.663031,3666.657107,85521.496673,1239.476931,475.042735,42700.915782
19,1,38,718119.263158,250759.684211,1456197.578947,75123.131579,9466.394737,727560.105263,15457.075727,4343.459772,91124.904594,1909.090527,762.216005,45547.936062
20,0,25,643484.960000,220723.920000,1271107.680000,66500.960000,7574.600000,635000.680000,13022.900385,4146.180960,64353.907602,1432.768718,534.801795,32176.149731
20,1,38,715924.368421,250299.447368,1445561.078947,74710.684211,9444.105263,722232.736842,11634.170139,3774.039492,104663.699917,1405.868342,696.565136,52244.164740
21,0,25,644178.440000,220870.400000,1315286.000000,66565.080000,7791.080000,656970.280000,14908.558922,4498.236268,87654.602455,1705.163028,618.197180,43743.068021
21,1,38,713540.236842,249822.605263,1457655.315789,74491.921053,9375.447368,728193.657895,9017.983038,3080.202510,130208.372052,1016.969812,793.559791,65035.760939
22,0,25,644155.720000,220685.840000,1281531.560000,66529.840000,7656.560000,640225.680000,11578.784308,3721.572578,78667.753007,1385.085923,645.699440,39264.298163
22,1,38,715571.000000,250162.315789,1433531.684211,74785.868421,9293.947368,716199.921053,11336.154827,3341.805863,80504.355508,1446.727999,675.616714,40235.479991
23,0,25,644602.640000,220835.920000,1301656.640000,66611.640000,7782.800000,650222.840000,11622.502068,3638.586318,89454.313635,1350.092675,562.250122,44615.642174
23,1,38,715661.710526,250368.131579,1449920.184211,74795.684211,9317.289474,724271.947368,10280.498070,3266.082735,73844.623857,1202.585572,519.372035,36849.211570
24,0,25,643155.840000,220656.120000,1296310.720000,66430.760000,7676.120000,647582.680000,10846.394659,3522.270192,62407.451211,1100.135093,493.057102,31217.967939
24,1,39,713280.794872,249709.897436,1443015.230769,74449.128205,9278.435897,720868.487179,9588.066742,3249.571055,80141.656853,1063.211540,677.478235,39990.097277
25,0,25,643917.680000,220835.360000,1292011.600000,66533.000000,7580.840000,645376.480000,11354.191232,3640.878871,71480.455708,1235.095494,685.609141,35793.368061
25,1,39,714081.769231,249824.333333,1446754.871795,74585.487179,9382.512821,722766.769231,10393.469692,3140.977460,85092.790411,1274.922841,659.611264,42474.036681
26,0,25,646079.080000,221152.120000,1290982.320000,66855.680000,7665.400000,644958.280000,12128.213946,3698.702587,84599.659194,1486.974182,713.029873,42273.028903
26,1,39,715398.205128,250213.641026,1450962.435897,74796.025641,9406.307692,724868.358974,13637.295461,4051.391964,98596.434306,1683.331152,893.536539,49278.387410
27,0,25,645329.280000,220983.520000,1336231.520000,66671.320000,7744.920000,667496.920000,11486.201097,3720.523900,68207.579608,1387.276951,502.945160,34046.207899
27,1,39,714281.461538,250056.487179,1454778.128205,74703.974359,9379.282051,726779.384615,10525.101312,3163.311077,69768.430648,1286.722959,671.480185,34843.291230
28,0,25,643958.760000,220845.800000,1318082.560000,66407.440000,7817.760000,658468.520000,10193.218570,3748.251507,104826.145294,1038.054761,568.325208,52540.180980
28,1,39,713588.333333,249740.076923,1441183.641026,74518.871795,9286.128205,719977.051282,10733.341450,3395.282197,77000.654126,1243.494006,578.773424,38423.377800
29,0,25,645903.800000,221173.080000,1314496.800000,66763.120000,7851.240000,656571.800000,15757.815793,4452.361395,63335.527418,1744.084042,659.148073,31608.794141
29,1,39,715223.230769,250066.589744,1445846.256410,74760.205128,9426.717949,722333.871795,10089.508350,3001.580837,75448.962530,1300.474355,588.623207,37737.167493
30,0,25,647452.880000,221379.760000,1317731.400000,66962.480000,7844.080000,658222.160000,12412.692134,3653.884030,53565.842803,1440.172715,640.577484,26869.947199
30,1,39,714014.384615,249886.666667,1460578.435897,74584.256410,9338.743590,729641.897436,11374.292809,3426.497624,78390.775742,1281.309101,534.815171,39113.986153
31,0,38,645307.421053,221148.736842,1318918.500000,66588.315789,7794.763158,658836.605263,10901.239863,3701.646914,67472.128251,1228.576371,554.396753,33783.687397
31,1,39,714795.717949,249952.256410,1449084.564103,74663.846154,9472.538462,723913.897436,10158.568067,3032.898873,76740.758993,1187.422840,629.645559,38349.352805
