-1,0,0.0025227
-1,1,0.00201816
-1,2,0.00201816
-1,3,0.00201816
-1,4,0.00201816
-1,5,0.00201816
-1,6,0.00201816
-1,7,0.00201816
-1,8,0.00201816
-1,9,0.00201816
-1,10,0.00201816
-1,11,0.00201816
-1,12,0.00201816
-1,13,0.00201816
-1,14,0.00201816
-1,15,0.00201816
-1,16,0.00201816
-1,17,0.00201816
-1,18,0.00201816
-1,19,0.00201816
-1,20,0.00201816
-1,21,0.00201816
-1,22,0.00201816
-1,23,0.00201816
-1,24,0.00201816
-1,25,0.00201816
-1,26,0.00201816
-1,27,0.00201816
-1,28,0.00201816
-1,29,0.00201816
-1,30,0.00201816
-1,31,0.00201816
-1,32,0.00201816
-1,33,0.00201816
-1,34,0.00201816
-1,35,0.00201816
-1,36,0.00201816
-1,37,0.00201816
-1,38,0.00201816
-1,39,0.00201816
-1,40,0.00201816
-1,41,0.00201816
-1,42,0.00201816
-1,43,0.00201816
-1,44,0.00201816
-1,45,0.00201816
-1,46,0.00201816
-1,47,0.00201816
-1,48,0.00201816
-1,49,0.00201816
-1,50,0.00201816
-1,51,0.00201816
-1,52,0.00201816
-1,53,0.00201816
-1,54,0.00201816
-1,55,0.00201816
-1,56,0.00201816
-1,57,0.00201816
-1,58,0.00201816
-1,59,0.00201816
-1,60,0.00201816
-1,61,0.00201816
-1,62,0.00201816
-1,63,0.00201816
-1,64,0.00201816
-1,65,0.00201816
-1,66,0.00201816
-1,67,0.00201816
-1,68,0.00201816
-1,69,0.00201816
-1,70,0.00201816
-1,71,0.00201816
-1,72,0.00201816
-1,73,0.00201816
-1,74,0.00201816
-1,75,0.00201816
-1,76,0.00201816
-1,77,0.00201816
-1,78,0.00201816
-1,79,0.00201816
-1,80,0.00201816
-1,81,0.00201816
-1,82,0.00201816
-1,83,0.00201816
-1,84,0.00201816
-1,85,0.00201816
-1,86,0.00201816
-1,87,0.00201816
-1,88,0.00201816
-1,89,0.00201816
-1,90,0.00201816
-1,91,0.00201816
-1,92,0.00201816
-1,93,0.00201816
-1,94,0.00201816
-1,95,0.00201816
-1,96,0.00201816
-1,97,0.00201816
-1,98,0.00201816
-1,99,0.00201816
-1,100,0.00201816
-1,101,0.00201816
-1,102,0.00201816
-1,103,0.00201816
-1,104,0.00201816
-1,105,0.00201816
-1,106,0.00201816
-1,107,0.00201816
-1,108,0.00201816
-1,109,0.00201816
-1,110,0.00201816
-1,111,0.00201816
-1,112,0.00201816
-1,113,0.00201816
-1,114,0.00201816
-1,115,0.00201816
-1,116,0.00201816
-1,117,0.00201816
-1,118,0.00201816
-1,119,0.00201816
-1,120,0.00201816
-1,121,0.00201816
-1,122,0.00201816
-1,123,0.00201816
-1,124,0.00201816
-1,125,0.00201816
-1,126,0.00201816
-1,127,0.00201816
-1,128,0.00201816
-1,129,0.00151362
-1,130,0.00151362
-1,131,0.00151362
-1,132,0.00151362
-1,133,0.00151362
-1,134,0.00151362
-1,135,0.00151362
-1,136,0.00151362
-1,137,0.00151362
-1,138,0.00151362
-1,139,0.00151362
-1,140,0.00151362
-1,141,0.00151362
-1,142,0.00151362
-1,143,0.00151362
-1,144,0.00151362
-1,145,0.00151362
-1,146,0.00151362
-1,147,0.00151362
-1,148,0.00151362
-1,149,0.00151362
-1,150,0.00151362
-1,151,0.00151362
-1,152,0.00151362
-1,153,0.00151362
-1,154,0.00151362
-1,155,0.00151362
-1,156,0.00151362
-1,157,0.00151362
-1,158,0.00151362
-1,159,0.00151362
-1,160,0.00151362
-1,161,0.00151362
-1,162,0.00151362
-1,163,0.00151362
-1,164,0.00151362
-1,165,0.00151362
-1,166,0.00151362
-1,167,0.00151362
-1,168,0.00151362
-1,169,0.00151362
-1,170,0.00151362
-1,171,0.00151362
-1,172,0.00151362
-1,173,0.00151362
-1,174,0.00151362
-1,175,0.00151362
-1,176,0.00151362
-1,177,0.00151362
-1,178,0.00151362
-1,179,0.00151362
-1,180,0.00151362
-1,181,0.00151362
-1,182,0.00151362
-1,183,0.00151362
-1,184,0.00151362
-1,185,0.00151362
-1,186,0.00151362
-1,187,0.00151362
-1,188,0.00151362
-1,189,0.00151362
-1,190,0.00151362
-1,191,0.00151362
-1,192,0.00151362
-1,193,0.00151362
-1,194,0.00151362
-1,195,0.00151362
-1,196,0.00201816
-1,197,0.00201816
-1,198,0.00201816
-1,199,0.00201816
-1,200,0.00201816
-1,201,0.00201816
-1,202,0.00201816
-1,203,0.00201816
-1,204,0.00201816
-1,205,0.00201816
-1,206,0.00201816
-1,207,0.00201816
-1,208,0.00201816
-1,209,0.00201816
-1,210,0.00201816
-1,211,0.00201816
-1,212,0.00201816
-1,213,0.00201816
-1,214,0.00201816
-1,215,0.00201816
-1,216,0.00201816
-1,217,0.00201816
-1,218,0.00201816
-1,219,0.00201816
-1,220,0.00201816
-1,221,0.00201816
-1,222,0.00201816
-1,223,0.00201816
-1,224,0.00201816
-1,225,0.00201816
-1,226,0.00201816
-1,227,0.00201816
-1,228,0.00201816
-1,229,0.00201816
-1,230,0.00201816
-1,231,0.00201816
-1,232,0.00201816
-1,233,0.00201816
-1,234,0.00201816
-1,235,0.00201816
-1,236,0.00201816
-1,237,0.00201816
-1,238,0.00201816
-1,239,0.00201816
-1,240,0.00201816
-1,241,0.00201816
-1,242,0.00201816
-1,243,0.00201816
-1,244,0.00201816
-1,245,0.00201816
-1,246,0.00201816
-1,247,0.00201816
-1,248,0.00201816
-1,249,0.00201816
-1,250,0.00201816
-1,251,0.00201816
-1,252,0.00201816
-1,253,0.00201816
-1,254,0.00201816
-1,255,0.00201816
-1,256,0.00201816
-1,257,0.00201816
-1,258,0.00201816
-1,259,0.00201816
-1,260,0.00201816
-1,261,0.00201816
-1,262,0.00201816
-1,263,0.00201816
-1,264,0.00201816
-1,265,0.00201816
-1,266,0.00201816
-1,267,0.00201816
-1,268,0.00201816
-1,269,0.00201816
-1,270,0.00201816
-1,271,0.00201816
-1,272,0.00201816
-1,273,0.00201816
-1,274,0.00201816
-1,275,0.00201816
-1,276,0.00201816
-1,277,0.00201816
-1,278,0.00201816
-1,279,0.00201816
-1,280,0.00201816
-1,281,0.00201816
-1,282,0.00201816
-1,283,0.00201816
-1,284,0.00201816
-1,285,0.00201816
-1,286,0.00201816
-1,287,0.00201816
-1,288,0.00201816
-1,289,0.00201816
-1,290,0.00201816
-1,291,0.00201816
-1,292,0.00201816
-1,293,0.00201816
-1,294,0.00201816
-1,295,0.00201816
-1,296,0.00201816
-1,297,0.00201816
-1,298,0.00201816
-1,299,0.00201816
-1,300,0.00201816
-1,301,0.00201816
-1,302,0.00201816
-1,303,0.00201816
-1,304,0.00201816
-1,305,0.00201816
-1,306,0.00201816
-1,307,0.00201816
-1,308,0.00201816
-1,309,0.00201816
-1,310,0.00201816
-1,311,0.00201816
-1,312,0.00201816
-1,313,0.00201816
-1,314,0.00201816
-1,315,0.00201816
-1,316,0.00201816
-1,317,0.00201816
-1,318,0.00201816
-1,319,0.00201816
-1,320,0.00201816
-1,321,0.00201816
-1,322,0.00201816
-1,323,0.00201816
-1,324,0.00201816
-1,325,0.00201816
-1,326,0.00201816
-1,327,0.00201816
-1,328,0.00201816
-1,329,0.00201816
-1,330,0.00201816
-1,331,0.00201816
-1,332,0.00201816
-1,333,0.00201816
-1,334,0.00201816
-1,335,0.00201816
-1,336,0.00201816
-1,337,0.00201816
-1,338,0.00201816
-1,339,0.00201816
-1,340,0.00201816
-1,341,0.00201816
-1,342,0.00201816
-1,343,0.00201816
-1,344,0.00201816
-1,345,0.00201816
-1,346,0.00201816
-1,347,0.00201816
-1,348,0.00201816
-1,349,0.00201816
-1,350,0.00201816
-1,351,0.00201816
-1,352,0.00201816
-1,353,0.00201816
-1,354,0.00201816
-1,355,0.00201816
-1,356,0.00201816
-1,357,0.00201816
-1,358,0.00201816
-1,359,0.00201816
-1,360,0.00201816
-1,361,0.00201816
-1,362,0.00201816
-1,363,0.00201816
-1,364,0.00201816
-1,365,0.00201816
-1,366,0.00201816
-1,367,0.00201816
-1,368,0.00201816
-1,369,0.00201816
-1,370,0.00201816
-1,371,0.00201816
-1,372,0.00201816
-1,373,0.00201816
-1,374,0.00201816
-1,375,0.00201816
-1,376,0.00201816
-1,377,0.00201816
-1,378,0.00201816
-1,379,0.00201816
-1,380,0.00201816
-1,381,0.00201816
-1,382,0.00201816
-1,383,0.00201816
-1,384,0.00201816
-1,385,0.00201816
-1,386,0.00201816
-1,387,0.00201816
-1,388,0.00201816
-1,389,0.00201816
-1,390,0.00201816
-1,391,0.00201816
-1,392,0.00201816
-1,393,0.00201816
-1,394,0.00201816
-1,395,0.00201816
-1,396,0.00201816
-1,397,0.00201816
-1,398,0.00201816
-1,399,0.00201816
-1,400,0.00201816
-1,401,0.00201816
-1,402,0.00201816
-1,403,0.00201816
-1,404,0.00201816
-1,405,0.00201816
-1,406,0.00201816
-1,407,0.00201816
-1,408,0.00201816
-1,409,0.00201816
-1,410,0.00201816
-1,411,0.00201816
-1,412,0.00201816
-1,413,0.00201816
-1,414,0.00201816
-1,415,0.00201816
-1,416,0.00201816
-1,417,0.00201816
-1,418,0.00201816
-1,419,0.00201816
-1,420,0.00201816
-1,421,0.00201816
-1,422,0.00201816
-1,423,0.00201816
-1,424,0.00201816
-1,425,0.00201816
-1,426,0.00201816
-1,427,0.00201816
-1,428,0.00201816
-1,429,0.00201816
-1,430,0.00201816
-1,431,0.00201816
-1,432,0.00201816
-1,433,0.00201816
-1,434,0.00201816
-1,435,0.00201816
-1,436,0.00201816
-1,437,0.00201816
-1,438,0.00201816
-1,439,0.00201816
-1,440,0.00201816
-1,441,0.00201816
-1,442,0.00201816
-1,443,0.00201816
-1,444,0.00201816
-1,445,0.00201816
-1,446,0.00201816
-1,447,0.00201816
-1,448,0.00201816
-1,449,0.00201816
-1,450,0.00201816
-1,451,0.00201816
-1,452,0.00201816
-1,453,0.00201816
-1,454,0.00201816
-1,455,0.00201816
-1,456,0.00201816
-1,457,0.00201816
-1,458,0.00201816
-1,459,0.00201816
-1,460,0.00201816
-1,461,0.00201816
-1,462,0.00201816
-1,463,0.00201816
-1,464,0.00201816
-1,465,0.00201816
-1,466,0.00201816
-1,467,0.00201816
-1,468,0.00201816
-1,469,0.00201816
-1,470,0.00201816
-1,471,0.00201816
-1,472,0.00201816
-1,473,0.00201816
-1,474,0.00201816
-1,475,0.00201816
-1,476,0.00201816
-1,477,0.00201816
-1,478,0.00201816
-1,479,0.00201816
-1,480,0.00201816
-1,481,0.00201816
-1,482,0.00201816
-1,483,0.00201816
-1,484,0.00201816
-1,485,0.00201816
-1,486,0.00201816
-1,487,0.00201816
-1,488,0.00201816
-1,489,0.00201816
-1,490,0.00201816
-1,491,0.00201816
-1,492,0.00201816
-1,493,0.00201816
-1,494,0.00201816
-1,495,0.00201816
-1,496,0.00201816
-1,497,0.00201816
-1,498,0.00201816
-1,499,0.00201816
-1,500,0.00201816
-1,501,0.00201816
-1,502,0.00201816
-1,503,0.00201816
-1,504,0.00201816
-1,505,0.00201816
-1,506,0.00201816
-1,507,0.00201816
-1,508,0.00201816
-1,509,0.00201816
-1,510,0.00201816
-1,511,0.00201816
