0,0,23,673911.391304,232584.173913,1322209.130435,69850.913043,8412.260870,660705.652174,16243.840186,4944.251362,80697.242013,1892.066984,863.104670,40370.704971
0,1,11,722046.272727,251824.272727,1391172.090909,75609.545455,9454.181818,695130.272727,20709.111912,6185.315412,61176.750571,2379.770897,823.109273,30569.698405
1,0,22,672839.590909,231947.136364,1303922.590909,69836.863636,8609.681818,651494.000000,9479.007752,1974.912111,59734.446655,1361.264696,814.377307,29818.310924
1,1,10,710670.500000,248394.400000,1404670.600000,74097.500000,9234.900000,701891.300000,6085.354719,1367.834654,54811.740122,982.591802,539.784485,27261.533123
2,0,22,669826.227273,231097.363636,1297088.409091,69388.318182,8371.227273,648115.000000,7946.170312,1605.420776,57405.838244,1197.796438,708.910235,28707.944013
2,1,10,712791.200000,248995.500000,1410532.300000,74329.300000,9677.200000,704670.700000,8081.043284,1460.281428,92179.195046,949.078716,478.013556,46032.772517
3,0,22,671617.772727,231700.636364,1316403.727273,69698.636364,8483.045455,657741.545455,8200.050210,1681.143484,72191.675029,1184.661384,617.715253,36066.806704
3,1,10,714055.300000,249177.400000,1375139.000000,74490.400000,9487.100000,687124.000000,8953.104099,1672.908079,98342.983925,1280.558956,957.713783,49166.390539
4,0,22,670723.136364,231575.409091,1327480.545455,69628.818182,8571.500000,663262.727273,8413.202629,1910.380939,91974.975670,1337.055912,833.241684,45931.931750
4,1,10,711053.600000,248617.400000,1396245.600000,73997.600000,9378.300000,697629.100000,4145.837725,1035.497967,69388.469120,423.411667,754.679939,34709.762026
5,0,22,669041.181818,231270.727273,1307511.863636,69206.545455,8347.181818,653274.636364,6488.853356,2217.390259,48715.075325,739.997526,652.151867,24319.626254
5,1,10,709390.400000,248278.100000,1369763.900000,73872.800000,8973.100000,684432.200000,3910.519843,990.698991,55755.577765,345.565855,731.054369,27912.672204
6,0,22,672082.090909,231973.136364,1317668.409091,69685.500000,8420.636364,658341.545455,8720.347100,2307.799784,70144.872043,1157.077107,661.711249,34983.509892
6,1,10,716507.800000,249466.500000,1438875.000000,74838.000000,9448.100000,718990.100000,10358.796038,2226.393148,77682.043258,1506.989914,636.708952,38716.263336
7,0,22,670578.000000,231626.590909,1314731.363636,69596.363636,8388.818182,656877.227273,7654.744678,1580.714357,85388.799288,1111.384744,914.883382,42676.821824
7,1,10,716356.700000,250088.100000,1354783.900000,74654.600000,9097.400000,676897.900000,9019.775231,2576.164337,50074.489083,1321.035972,763.266428,25062.641954
8,0,22,670564.136364,231557.090909,1341158.954545,69564.181818,8597.136364,670181.863636,8396.724893,1726.508192,122125.222577,1268.366976,1018.534522,60952.260240
8,1,10,714160.100000,249302.400000,1402339.000000,74439.700000,9416.700000,700691.100000,6858.129956,1179.626229,99222.290825,908.593644,865.719244,49607.868276
9,0,22,671572.909091,232166.954545,1332206.409091,69817.363636,8466.000000,665615.227273,10423.330308,2696.702574,58287.021349,1353.684888,727.844951,29064.427437
9,1,10,710534.600000,248490.000000,1367134.400000,74007.500000,9021.400000,683123.800000,3545.808291,926.235607,89576.016918,492.299553,722.865299,44810.500981
10,0,22,670182.181818,231406.045455,1315469.090909,69518.818182,8464.954545,657338.000000,8173.192926,1496.966371,73857.888274,1007.983028,713.496097,36998.465678
10,1,10,712077.400000,248761.300000,1353310.900000,74250.600000,9180.500000,676273.700000,7166.618969,1761.315761,59378.344122,1005.042109,625.379285,29799.930621
11,0,22,669863.272727,231605.772727,1305121.954545,69421.409091,8306.136364,652102.954545,7810.753864,2346.082575,97874.479275,1033.508616,974.722538,48936.420662
11,1,10,711673.800000,248638.000000,1353384.700000,74036.100000,9182.200000,676262.400000,3542.175061,852.220746,108879.921461,366.247034,408.876216,54441.280865
12,0,22,670099.545455,231323.000000,1285586.000000,69354.272727,8179.772727,642354.727273,5639.752394,1267.839214,79205.573996,991.763039,729.109852,39516.306839
12,1,10,715011.400000,249735.000000,1401118.200000,74545.000000,9395.100000,700136.100000,10380.222061,3549.927464,67901.106820,1560.338489,537.243976,33962.524598
13,0,22,668444.272727,231135.136364,1282325.000000,69153.818182,8095.863636,640711.954545,3713.339164,852.132421,60791.494518,439.551180,475.266939,30409.358746
13,1,10,708920.600000,248046.600000,1396829.700000,73791.900000,9363.800000,697992.500000,3163.122546,1024.577103,76346.580584,462.515611,804.640889,38196.601585
14,0,22,668636.136364,231245.454545,1309418.545455,69268.136364,8237.181818,654256.409091,5437.377044,1482.996773,52426.571135,827.366869,673.774081,26242.594648
14,1,10,711826.500000,248491.500000,1377106.600000,74141.800000,9378.800000,688062.800000,7586.485843,1390.225323,68321.922974,1117.800769,732.532156,34068.530537
15,0,22,669399.090909,231324.000000,1316750.863636,69363.090909,8391.318182,657894.181818,6601.200586,1471.312061,87868.639522,980.813295,833.071938,43703.323716
15,1,10,714052.700000,249471.800000,1409270.300000,74559.300000,9547.000000,703985.400000,7478.387300,1583.084192,91450.512468,931.538732,866.421606,45669.877314
16,0,22,670745.818182,231846.909091,1300255.681818,69480.090909,8215.272727,649696.318182,11725.890913,3329.126952,64803.844947,1437.743115,713.347434,32399.059732
16,1,10,712003.900000,248804.300000,1373322.000000,74290.200000,9068.400000,686152.300000,4780.964975,1554.761850,79257.341375,1022.445676,481.278547,39596.485016
17,0,22,671278.272727,231611.045455,1302790.136364,69619.272727,8502.863636,651000.045455,8756.147784,1776.010864,56947.928763,1326.435695,688.683348,28479.972552
17,1,10,711184.400000,248080.200000,1374035.900000,74004.900000,9250.500000,686591.600000,6271.470947,1544.798421,64819.596252,982.538595,807.943593,32371.241821
18,0,22,670441.409091,231675.000000,1301603.318182,69461.590909,8200.863636,650313.363636,8708.080577,2703.308293,81034.001607,1199.948016,661.582833,40410.314094
18,1,10,710693.500000,248555.000000,1369004.600000,74035.400000,9101.400000,683941.400000,3734.308001,897.688253,46693.860126,471.766510,640.583984,23301.758321
19,0,22,669435.409091,231341.454545,1287877.090909,69289.545455,8135.318182,643543.000000,5678.244004,1301.203280,65173.034661,822.568357,579.443180,32624.547653
19,1,10,711503.700000,249011.100000,1415362.400000,74304.100000,9426.800000,707106.200000,2995.706429,1208.403612,85602.376798,384.504213,349.193299,42727.458588
20,0,22,668361.500000,230865.318182,1312010.909091,69176.272727,8240.545455,655580.363636,7021.581949,1546.719384,87542.093578,1044.009935,699.728891,43795.112369
20,1,10,708090.800000,247929.800000,1382188.500000,73832.600000,9133.600000,690601.500000,3514.888300,1008.978771,65267.540100,426.015305,365.830343,32661.095974
21,0,22,670061.136364,231770.863636,1328838.181818,69562.909091,8459.454545,663930.000000,7020.987895,1534.763183,72638.472185,957.689070,638.068800,36314.407937
21,1,10,712026.800000,248730.800000,1391483.400000,74312.700000,9429.700000,695253.900000,7551.147076,1511.597817,85830.553434,909.472270,854.259334,42891.199063
22,0,22,671463.363636,231968.954545,1301907.772727,69820.136364,8419.545455,650492.272727,8075.597515,1844.025845,62800.285965,1253.171696,470.029953,31431.259689
22,1,10,709614.400000,248210.400000,1362994.100000,73934.000000,9239.400000,680990.900000,3762.703103,1096.087880,59419.037039,374.142486,641.804519,29629.625345
23,0,22,666104.318182,230616.954545,1323809.454545,68943.045455,8263.409091,661479.000000,2846.311718,764.876548,94995.469563,413.074446,669.535365,47395.051238
23,1,10,713814.600000,249131.400000,1369800.700000,74602.100000,9140.000000,684426.300000,9421.038607,1780.104334,66936.035205,1249.604293,878.219790,33425.235661
24,0,22,667578.545455,231016.181818,1299730.000000,69079.727273,8189.681818,649416.954545,3879.202258,830.186104,57152.903214,380.768026,474.303066,28581.399275
24,1,10,708741.600000,247916.500000,1392028.800000,73809.600000,9056.400000,695560.700000,3247.524787,687.661872,59709.113807,330.301135,561.142798,29840.046967
25,0,22,670301.045455,231625.000000,1332302.409091,69489.954545,8441.863636,665643.500000,5886.909735,1445.693196,73092.270382,1035.035989,742.876247,36524.524133
25,1,10,715373.700000,249247.000000,1357389.800000,74660.000000,9405.800000,678203.000000,8838.794783,1677.651573,72983.699900,1292.458897,556.686411,36484.800498
26,0,22,674192.454545,232477.363636,1316900.772727,69987.454545,8448.590909,657998.818182,10735.777127,2514.107316,84220.975907,1391.798337,781.902439,41944.986008
26,1,10,712503.700000,248577.000000,1422659.700000,74230.500000,9414.600000,710880.200000,6728.060390,1310.954233,79887.348191,1061.852273,592.896652,39938.476215
27,0,22,669435.863636,231212.318182,1305831.681818,69267.772727,8344.227273,652478.545455,5292.170806,1271.947983,67268.190082,775.250806,404.607546,33682.809842
27,1,10,711408.200000,248381.800000,1359866.500000,74003.900000,9253.300000,679454.000000,3148.455170,1088.541667,64230.059480,458.473652,646.207250,32055.554327
28,0,22,670077.000000,231410.772727,1333699.818182,69371.454545,8361.681818,666310.000000,5585.958443,1254.652394,72990.539922,842.375468,812.328213,36359.549566
28,1,10,717895.000000,250019.800000,1379764.100000,75252.500000,9407.700000,689396.000000,12306.906524,2424.933145,56123.450893,1747.452560,845.100828,28054.277642
29,0,22,669982.772727,231322.636364,1327488.318182,69377.636364,8376.681818,663304.181818,7716.861308,1660.989479,76743.262268,1025.469008,991.557654,38252.349588
29,1,10,710598.400000,248170.900000,1381844.400000,74076.000000,9155.400000,690517.000000,4656.837322,1156.819817,56527.482561,967.337273,847.991887,28262.725668
30,0,22,672856.363636,232233.181818,1320927.181818,69793.681818,8386.409091,660025.272727,9199.750938,2589.063900,97264.495201,1333.994664,915.687603,48530.343030
30,1,9,713191.888889,248948.000000,1375681.777778,74561.555556,9024.000000,687350.555556,8642.107850,1805.308776,79599.434236,1287.738510,632.976040,39761.384335
31,0,22,670035.545455,231279.136364,1339695.681818,69339.318182,8558.863636,669452.727273,7452.240119,1362.262299,66657.983372,900.289014,642.458226,33316.253905
31,1,9,709215.777778,248395.333333,1350929.888889,74013.888889,8784.333333,675003.777778,3284.845702,779.288422,81232.692992,447.962162,666.533653,40508.614828
32,0,22,668448.409091,230891.818182,1304169.863636,69192.590909,8224.000000,651692.863636,6953.931391,1380.507372,55916.516436,996.854264,654.419243,27928.686730
32,1,9,707552.222222,247906.222222,1394241.888889,73771.888889,9077.444444,696702.000000,2389.373036,585.023034,57057.439995,254.648535,694.795751,28533.965511
33,0,22,672329.681818,231942.090909,1302880.590909,69743.409091,8339.045455,650908.454545,8912.479628,1870.853595,97707.571921,1252.420045,776.045305,48766.215166
33,1,9,716474.777778,249624.666667,1395404.555556,74954.777778,9277.777778,697262.333333,11299.389293,2199.575262,89637.356991,1614.124722,792.547058,44856.863399
34,0,22,669527.272727,231204.409091,1307253.909091,69318.909091,8331.181818,653163.363636,5898.803378,1454.279005,69394.798305,979.925828,587.534652,34651.982920
34,1,9,712722.888889,248824.111111,1372841.000000,74347.888889,8987.444444,685880.111111,7571.837564,1548.027379,65266.682760,991.136659,542.659523,32708.918218
35,0,22,670440.954545,231303.272727,1263381.727273,69433.863636,8127.090909,631231.818182,7439.272713,1615.568551,52871.539755,1187.699583,777.584074,26454.861883
35,1,9,710609.222222,248328.111111,1376981.444444,73920.444444,9207.555556,688078.444444,2598.158655,646.975604,114244.565599,355.056838,621.573293,57151.142485
36,0,22,672417.318182,232458.681818,1297516.090909,69757.090909,8185.000000,648306.727273,9379.630926,2717.437687,67928.200849,1083.216125,625.458159,33931.074620
36,1,9,710531.888889,248415.000000,1378951.000000,74002.888889,9234.666667,689013.888889,4418.887025,1343.354177,91600.556022,452.110469,521.334186,45713.365805
37,0,22,672764.818182,232199.000000,1282826.181818,69753.500000,8372.000000,641005.636364,10031.709021,2916.651177,78145.358616,1348.330137,658.625566,39069.149970
37,1,9,711981.777778,248581.444444,1367463.666667,74236.777778,9057.444444,683217.222222,7831.084837,1739.113638,66091.948108,1116.890801,557.273743,33055.920232
38,0,22,673770.636364,232737.545455,1308234.090909,69790.500000,8186.636364,653658.590909,13677.999241,4422.204641,53180.732430,1589.683895,661.051473,26585.466058
38,1,9,715717.222222,249432.222222,1391433.555556,74873.111111,9649.222222,695279.555556,9443.335637,1971.048327,50966.473481,1582.515750,1037.137276,25506.929386
39,0,22,674431.272727,233129.090909,1318972.136364,69833.545455,8197.318182,659039.727273,13516.544704,4733.050303,56631.709520,1489.653643,475.423389,28298.104696
39,1,9,710608.777778,248459.888889,1415957.888889,73982.111111,9176.888889,707484.444444,3234.381987,804.418278,91281.146942,259.316814,705.548714,45644.912266
40,0,22,671313.818182,231963.681818,1308902.318182,69441.000000,8194.818182,654053.500000,12980.268959,4163.356495,55206.452169,1379.101618,815.628126,27587.589322
40,1,9,711406.111111,248684.888889,1358206.111111,74236.000000,9246.333333,678680.111111,6065.241049,1524.751087,73362.869200,1066.138515,796.102450,36735.789296
41,0,22,672052.636364,232262.000000,1329268.909091,69643.818182,8534.090909,664119.909091,11665.415102,3769.438384,70071.810176,1315.470073,519.806949,34943.351494
41,1,9,710933.333333,248527.444444,1367845.888889,74011.777778,9088.000000,683409.555556,3407.308844,971.673598,55733.067329,466.757319,808.844718,27803.115641
42,0,22,670879.772727,232020.136364,1314647.772727,69397.045455,8416.000000,656890.136364,11837.299857,3856.537428,80701.319802,1096.073964,721.286603,40336.855718
42,1,9,709338.111111,248170.777778,1368974.777778,73856.777778,9069.111111,683984.444444,3587.895002,715.853302,53492.036894,315.447399,571.851660,26711.493016
43,0,22,674544.500000,232800.181818,1346022.545455,69938.954545,8572.545455,672512.090909,12676.318751,4123.005111,67765.178030,1515.554548,752.388302,33866.938470
43,1,9,708062.222222,247895.444444,1393450.888889,73738.555556,8925.444444,696336.333333,2953.042227,861.775443,68729.672677,273.230514,519.390265,34375.308041
44,0,22,672788.681818,232475.454545,1311765.090909,69624.318182,8154.090909,655458.636364,12600.223787,4254.540780,84795.146486,1339.796470,719.547200,42401.007876
44,1,9,718048.888889,250832.444444,1433834.888889,75178.555556,9437.888889,716367.444444,17051.961988,4440.831807,71579.421033,2043.878617,1019.958000,35792.325236
45,0,22,674328.500000,232632.954545,1314663.454545,69943.409091,8352.409091,656830.409091,16255.068353,4786.941940,66787.111385,1895.650420,813.153830,33327.346004
45,1,9,708922.444444,247934.222222,1364346.333333,73759.888889,8948.666667,681682.333333,2923.358423,837.248374,68052.835839,358.376414,537.865948,33952.149920
46,0,22,670160.772727,231855.636364,1306331.590909,69348.909091,8202.045455,652710.318182,11677.943518,3834.900124,49096.926728,1090.425393,516.547408,24542.080756
46,1,9,710992.666667,248463.888889,1357116.222222,74134.555556,9137.666667,678221.777778,8349.255842,1646.746317,99818.505418,1185.485752,835.215741,49966.053362
47,0,22,671527.409091,231816.954545,1292279.545455,69412.045455,8217.272727,645736.090909,13008.225739,4195.139866,54707.020295,1340.454790,535.718819,27371.738887
47,1,9,710496.444444,248480.000000,1374398.222222,74115.777778,9171.111111,686804.888889,8083.346764,2015.620610,59808.770159,1250.601169,918.483587,29858.400294
48,0,22,672731.818182,232446.636364,1337806.272727,69674.818182,8420.227273,668421.136364,11355.162525,3676.715723,66177.807717,1157.759970,697.996088,33066.920745
48,1,9,713692.000000,249312.777778,1401789.111111,74656.777778,9204.666667,700461.111111,10032.600006,2277.255257,38868.457470,1422.928262,537.401567,19410.520375
49,0,22,673617.227273,232322.727273,1301024.454545,69806.454545,8295.772727,650087.136364,13480.632646,3881.293402,70912.594484,1504.699358,790.982182,35441.777019
49,1,9,717348.444444,249823.222222,1360653.111111,74920.888889,9194.888889,679864.555556,7711.127099,1780.978369,66229.806756,1313.088086,675.204898,33081.402003
50,0,22,672572.318182,232420.909091,1322980.000000,69615.363636,8430.227273,661054.545455,13907.559064,4676.892178,90489.090395,1583.659759,879.170111,45181.907323
50,1,9,708514.666667,248151.000000,1397015.444444,73755.111111,9125.444444,698030.777778,2436.222440,892.331777,50779.555031,446.248173,454.158834,25329.709959
51,0,22,673619.681818,232733.954545,1286526.818182,69990.590909,8142.090909,642817.045455,16250.620649,4788.212748,51863.795357,1938.566191,564.268062,25978.540689
51,1,9,707865.666667,247871.111111,1385540.777778,73629.111111,9291.777778,692349.555556,3378.543243,640.589563,85462.804975,374.611338,539.767188,42738.698465
52,0,23,671472.086957,231959.086957,1321906.608696,69568.695652,8223.521739,660478.217391,12117.346323,3924.961854,99846.934307,1315.621243,802.690144,49883.288345
52,1,9,713129.222222,249270.333333,1397126.000000,74372.777778,9350.666667,698008.555556,7380.398646,2004.413963,100209.874112,1206.909808,1038.310166,50027.796338
53,0,23,671970.217391,232234.260870,1317402.043478,69673.130435,8359.695652,658249.260870,11899.806644,3881.245992,80648.185188,1328.037660,642.036734,40383.280949
53,1,9,714544.777778,249562.777778,1366539.555556,74659.666667,9480.222222,682701.222222,7945.411880,1908.455383,73956.222682,1279.215645,833.164487,36905.991551
54,0,23,672974.173913,232463.478261,1313695.000000,69660.478261,8397.739130,656375.565217,12215.364554,3894.759186,86811.858432,1186.129836,935.687295,43362.934125
54,1,9,713029.777778,249109.888889,1378103.555556,74469.000000,9471.111111,688617.666667,9678.792783,2269.058857,74409.124311,1624.370442,887.864159,37183.574576
55,0,23,674120.086957,232615.304348,1308200.391304,69948.347826,8514.565217,653621.478261,13497.393262,4238.408258,81783.930863,1627.923447,914.949883,40799.616064
55,1,9,709400.111111,248597.666667,1371659.555556,73910.222222,8858.333333,685383.333333,4577.933120,913.134528,71652.126821,581.985066,524.163037,35844.430765
56,0,23,673211.173913,232530.695652,1305063.652174,69758.217391,8292.043478,652018.347826,13253.951003,4268.487375,82069.349968,1445.041806,993.318351,40826.463031
56,1,9,710869.666667,248572.111111,1391247.666667,73931.666667,9248.222222,695071.777778,5024.936086,1113.258525,53285.096392,577.853884,516.270983,26599.975985
57,0,23,670460.260870,231817.695652,1295170.652174,69423.826087,8197.434783,647219.130435,11478.122181,3807.297220,56243.890125,1240.117864,627.136545,28151.451817
57,1,10,717324.900000,250333.000000,1404442.700000,74825.300000,9473.000000,701687.100000,13366.131171,3887.720309,75695.207408,1691.098226,475.131350,37850.232151
58,0,23,672429.217391,232310.652174,1310436.608696,69788.521739,8263.434783,654671.391304,11912.628498,3740.252207,57201.807768,1432.108354,661.881956,28568.009536
58,1,10,715549.100000,250077.600000,1386515.200000,74348.200000,9005.800000,692793.400000,13566.330966,4819.895750,60939.231869,1289.101144,473.593877,30565.778564
59,0,23,671131.434783,231906.434783,1295978.304348,69466.565217,8317.956522,647545.652174,12166.020148,4074.883832,72497.927629,1320.088595,626.140245,36196.992172
59,1,10,717268.600000,250460.500000,1429412.400000,74572.000000,9485.200000,714376.800000,15286.561956,5099.690603,86081.710843,1556.405538,945.052358,42963.086639
60,0,23,673247.304348,232809.652174,1305111.391304,69745.217391,8313.434783,652096.391304,12521.077452,4381.472153,66928.429227,1343.368866,534.854456,33367.976227
60,1,10,718209.500000,250631.000000,1389943.400000,74679.700000,9393.800000,694491.200000,15498.694327,5163.439513,69993.389221,1564.360512,647.063335,34919.365214
61,0,23,671713.869565,232066.826087,1302439.478261,69591.782609,8298.043478,650807.217391,11095.954517,3733.816740,60422.553287,1281.590586,692.280257,30242.955263
61,1,10,720415.500000,251144.800000,1440991.300000,74997.800000,9662.000000,720030.000000,22971.233856,6728.331469,85992.950005,2595.752523,898.273010,42943.881788
62,0,23,671674.739130,232182.608696,1312406.478261,69595.478261,8349.565217,655693.304348,10813.293651,3751.457835,59051.018253,1183.944838,635.808340,29451.941662
62,1,10,717739.500000,250952.100000,1402304.800000,74815.100000,9420.400000,700660.500000,14126.580204,5145.642806,49108.547840,1621.999596,382.277962,24573.433599
63,0,50,669759.660000,231598.080000,1309386.340000,69511.540000,8506.200000,654219.420000,8895.352361,2865.199385,58842.939152,1014.440500,653.135545,29413.964687
63,1,10,714844.100000,250043.900000,1428306.000000,74331.300000,9537.400000,713663.000000,15865.522030,5468.803168,114924.926894,1516.035887,1162.890296,57461.284864
