0,3,761620,267550,1536791,79122,10629,768040,0
0,-1,687734,236793,1288957,70505,7512,644130,0
0,-1,688601,237229,1375025,70754,7663,687112,2
0,3,711230,248679,1431628,73910,9057,715468,0
0,-1,636349,218691,1303955,65669,7368,651565,0
0,3,709667,249176,1325042,74120,8446,662146,0
0,3,730867,253372,1407443,77164,9822,703344,0
0,-1,643205,219129,1252854,65983,7762,626124,0
0,3,715671,250161,1428963,74712,9873,713909,0
0,3,711391,248969,1368459,73942,9338,684146,0
0,-1,638540,219586,1233658,66055,7136,616381,0
0,3,730324,252741,1551499,77387,11306,775383,0
0,3,710213,247999,1417989,73996,8360,708276,0
0,-1,639903,219057,1361821,65760,8445,680527,0
0,3,715377,249838,1347634,74689,8585,673257,0
0,-1,651544,222074,1302819,66884,8390,650844,0
0,3,713322,248752,1358208,74252,9345,678653,0
1,-1,682566,234911,1404791,69991,7228,701921,2
1,3,713543,250475,1486127,74818,10017,742396,0
1,-1,640106,220346,1322150,66416,7697,660599,0
1,3,709461,248895,1390108,74032,8658,694687,0
1,3,709745,248454,1353113,73735,9207,676108,0
1,-1,641397,219094,1319757,65989,7990,659426,0
1,3,708684,247867,1529362,73670,9070,764364,0
1,3,711846,249128,1354238,73970,9657,676744,0
1,-1,640728,220494,1282381,66529,7848,640566,0
1,3,711337,249518,1358606,74800,8686,678504,0
1,-1,639955,219321,1315461,65977,7649,657118,0
1,3,736619,257843,1589212,77035,9718,794204,0
1,3,714052,250100,1394277,74759,9313,696760,0
1,-1,669043,225309,1278396,69478,8757,638726,0
1,3,710160,248389,1541174,74098,9424,770026,0
2,-1,640932,219459,1211874,65881,7341,605485,2
2,3,733140,253217,1428094,77217,10447,713372,0
2,-1,636208,219074,1245584,65812,7240,622396,0
2,3,706958,249028,1459477,74038,8965,729300,0
2,3,711439,249719,1417319,74187,9026,708243,0
2,-1,650506,221779,1323691,67124,8398,661198,0
2,3,710101,248520,1625659,73945,10954,812095,0
2,3,711707,248090,1441977,73613,9697,720538,0
2,-1,634607,218362,1228453,65668,7378,613803,0
2,3,707696,248063,1452035,74071,9783,725557,0
2,-1,640125,219265,1349371,65939,7453,673536,0
2,3,730748,253429,1520488,77656,11441,759778,0
2,3,713769,249369,1365747,74523,9639,682335,0
2,-1,647407,220859,1320263,66176,8297,659583,0
2,3,716233,251043,1375211,75293,9173,686908,0
3,-1,634510,218949,1269729,65841,7083,634474,2
3,3,710382,248548,1444109,73932,9619,721713,0
3,-1,635128,218490,1261131,65684,7198,630174,0
3,3,711688,250566,1549654,74878,9512,774066,0
3,3,707510,248218,1315509,73667,8707,657342,0
3,-1,663577,223334,1263477,69156,8694,631217,0
3,3,710265,248298,1457328,73790,9049,728370,0
3,3,732820,253220,1474697,77101,9607,736882,0
3,-1,641212,219856,1367080,66073,7740,683076,0
3,3,708805,248917,1407221,74324,9692,703030,0
3,-1,640241,219937,1345338,66158,9180,671851,0
3,3,709843,248211,1482153,74189,9769,740754,0
3,3,731484,253776,1424237,77816,9765,711657,0
3,-1,649577,221992,1318742,66808,8222,658779,0
3,3,712274,248599,1444978,74076,9272,722302,0
4,3,713812,250365,1566271,74665,10045,782247,0
4,-1,640904,220809,1301429,66727,7326,650055,2
4,-1,636369,218719,1201910,65778,7087,600626,0
4,3,710617,248989,1343622,74109,9110,671469,0
4,3,710719,248672,1342782,73899,8972,670917,0
4,-1,641462,218736,1278810,65890,7554,639009,0
4,3,731778,253317,1396494,77253,9664,697901,0
4,3,711531,248619,1637477,73782,10023,818137,0
4,-1,659100,223680,1308412,69188,7900,653750,0
4,3,714638,250314,1386376,75135,8918,692434,0
4,-1,637754,218594,1155266,65642,7213,577187,0
4,3,716101,250272,1616062,75058,10444,807166,0
4,3,714261,250027,1685647,74714,10262,842449,0
4,-1,645035,220306,1236145,66074,8085,617632,0
4,3,714817,250176,1381680,74718,9310,690413,0
5,3,711066,248744,1506265,73911,9394,752644,0
5,-1,636782,219075,1310651,65885,7529,654944,2
5,-1,640107,220779,1305640,66701,7559,652286,0
5,3,711315,249688,1453708,74486,9795,726370,0
5,3,708661,247961,1450971,73613,9070,724903,0
5,-1,641374,218675,1346040,65795,8506,672606,0
5,3,711311,248660,1313144,73944,9284,656152,0
5,3,709313,247452,1486297,73324,10288,742224,0
5,-1,641207,220867,1386284,66657,7721,692481,0
5,3,707746,248375,1521076,74225,9858,760178,0
5,3,712021,248552,1366042,74211,9542,682751,0
5,-1,641988,220872,1243271,66651,7888,621081,0
5,3,709602,248839,1475441,74336,9913,737350,0
5,-1,646751,220556,1304213,66097,8636,651841,0
5,3,714341,249528,1375293,74450,8554,687040,0
6,3,710470,248672,1318338,73808,8557,658764,0
6,-1,635717,218737,1141683,65736,7215,570454,2
6,-1,655361,223199,1299623,69010,8294,649400,0
6,3,708056,248682,1341446,73958,8527,670379,0
6,3,732237,253794,1449856,77339,9704,724661,0
6,-1,641082,218657,1299279,65809,8228,649198,0
6,3,709463,248853,1279304,73995,8776,639224,0
6,3,715275,250336,1676632,74541,11170,837781,0
6,-1,636129,219151,1354808,65871,7609,677155,0
6,3,710542,249667,1452467,74741,9973,725632,0
6,3,711958,249510,1340563,74765,10089,669407,0
6,-1,637799,219471,1240064,65971,7563,619700,0
6,3,713839,251041,1373962,75411,9167,686345,0
6,-1,647639,220957,1201012,66355,7866,600055,0
6,3,720259,249860,1443855,74508,10025,721228,0
7,3,706538,247813,1417252,73674,8650,708348,0
7,-1,640379,219107,1239096,65905,7580,619140,2
7,-1,645217,220471,1316658,66520,7705,657804,0
7,3,730475,254059,1618474,77540,9900,808862,0
7,3,709244,249293,1396281,74026,9041,697797,0
7,-1,643956,219722,1217153,66140,8071,608067,0
7,3,710601,248285,1369956,73749,9602,684436,0
7,3,711171,248452,1461322,73739,9615,730321,0
7,-1,634876,219086,1331829,65830,7435,665532,0
7,3,711151,250299,1382131,75119,9066,690168,0
7,3,709504,248283,1380153,74103,9680,689798,0
7,-1,646035,221429,1290357,66851,7758,644364,0
7,3,714029,250027,1374517,74762,8515,686751,0
7,-1,644044,220143,1410372,65905,8245,704827,0
7,3,718573,249346,1516453,74404,10621,757382,0
8,3,708734,248584,1455673,73851,9049,727425,0
8,-1,638809,218141,1204564,65541,6660,601812,0
8,-1,637903,220254,1353854,66532,7795,676226,2
8,3,709460,249753,1572803,74323,9981,785818,0
8,3,711059,249752,1337688,74212,8657,668498,0
8,-1,646088,221300,1245991,67031,8722,622176,0
8,3,730614,253312,1544472,77181,9909,771595,0
8,3,709694,248208,1440394,73625,9598,719676,0
8,-1,661529,223717,1304572,69134,8695,651876,0
8,3,736436,257184,1514156,76819,9437,756742,0
8,3,711270,248321,1463549,74171,9981,731261,0
8,-1,660192,223747,1273889,69203,8415,636643,0
8,3,712412,249425,1530153,74526,9718,763728,0
8,-1,650896,222704,1468884,67104,9217,733829,0
8,3,715757,248708,1408560,74150,9314,704197,0
9,3,710005,248773,1446606,73822,9205,723049,0
9,-1,646456,221299,1297149,66866,7746,648014,0
9,-1,638542,218984,1282120,65873,8336,640741,2
9,3,708215,248522,1495192,73891,9637,746641,0
9,3,711917,248921,1411107,73946,8998,705039,0
9,-1,645887,220244,1182475,66373,8147,590783,0
9,3,706740,247758,1398104,73600,9426,698672,0
9,3,710894,248456,1465082,73768,9362,732194,0
9,-1,640606,219457,1369459,66000,8263,684299,0
9,3,707798,247703,1561577,73944,9772,780419,0
9,-1,638795,218875,1430658,65823,8482,714950,0
9,3,712927,248893,1573827,74296,9855,786579,0
9,3,711482,249354,1425943,74549,9208,712539,0
9,-1,646536,220571,1377951,66319,8169,688516,0
9,3,720574,251186,1364654,75309,9473,681683,0
10,3,713178,250097,1407711,74248,9132,703458,0
10,-1,637916,218518,1282296,65646,6966,640794,0
10,3,709323,248985,1394024,74036,8760,696464,0
10,-1,642263,220180,1326042,66262,6847,662586,2
10,3,712174,249527,1364303,74087,9151,681677,0
10,-1,641445,218931,1151332,65943,7892,575238,0
10,3,713082,249620,1435793,74380,9672,717342,0
10,3,709539,248231,1484962,73627,9091,742045,0
10,-1,641157,220002,1312534,66119,7579,655870,0
10,3,709581,248069,1422774,74084,9048,711072,0
10,-1,641208,219945,1334723,66107,7280,667087,0
10,3,716480,250724,1412924,75257,9141,705539,0
10,3,707729,249226,1423925,74462,9250,711600,0
10,-1,647324,221045,1334886,66233,8311,667141,0
10,3,742336,254756,1654117,77954,10628,827615,0
11,3,731680,253543,1555207,77224,9685,776921,0
11,-1,637113,218553,1225414,65719,7064,612330,0
11,3,708593,249018,1388905,74107,8739,693980,0
11,-1,639625,219892,1230680,66079,7510,614966,2
11,3,711830,249146,1467311,73949,9328,733288,0
11,-1,641621,218993,1341089,65919,7985,670180,0
11,3,712054,249627,1336037,74163,8927,667689,0
11,3,709552,248401,1455864,73681,9270,727619,0
11,-1,641210,220130,1345096,66242,7920,672205,0
11,3,729710,252946,1476678,77515,10220,737960,0
11,-1,639105,219325,1188266,65974,7468,593795,0
11,3,710164,248758,1603726,74344,9483,801492,0
11,3,737953,254289,1429794,77923,10689,714689,0
11,-1,645749,220889,1470165,66320,8075,734691,0
11,3,719017,250569,1462609,75024,8964,730834,0
12,3,707587,248512,1319496,73806,8561,659174,0
12,-1,642047,220433,1400214,66495,8235,699590,0
12,3,706480,248159,1434782,73793,9173,716993,0
12,-1,646349,221534,1308718,66905,7437,653815,2
12,3,713734,250424,1468026,74686,9327,733270,0
12,-1,643042,219318,1260326,66002,7981,629735,0
12,3,713575,249027,1500413,73906,8906,749929,0
12,3,713622,248275,1441762,73719,9733,720477,0
12,-1,643256,221399,1371642,66892,8598,685109,0
12,3,714579,251150,1297252,75462,9846,648015,0
12,-1,636408,218430,1347682,65582,8039,673304,0
12,3,706645,247709,1433012,73946,9252,716214,0
12,3,716449,249792,1281761,74678,9388,640512,0
12,-1,647715,222068,1327512,66983,8208,663234,0
12,3,718229,250431,1437227,74762,8749,718451,0
13,3,713062,249187,1457828,73929,8923,728657,0
13,-1,647375,222148,1228932,67182,8425,613835,0
13,3,705615,248402,1397453,73860,8760,698325,0
13,-1,637684,219321,1322912,65881,7242,661071,2
13,3,709086,248924,1568748,73898,9491,783238,0
13,-1,661646,223587,1323443,69277,9082,661323,0
13,3,709913,247909,1684623,73606,11096,841953,0
13,3,713119,249088,1497466,73966,9886,748216,0
13,-1,643031,221045,1361622,66704,8457,680145,0
13,3,706806,247950,1394425,74126,9316,696871,0
13,-1,639468,219758,1319283,66114,7985,659229,0
13,3,711879,249413,1475443,74594,10166,737192,0
13,3,714896,249469,1328274,74515,9251,663804,0
13,-1,663873,224858,1306697,69586,8251,652947,0
13,3,715225,248563,1395984,74049,9288,697302,0
14,3,712612,249683,1415638,74113,9130,707456,0
14,-1,659257,223553,1211640,69122,8564,605387,0
14,3,711900,250267,1455902,74727,9344,727365,0
14,-1,642529,219994,1186297,66249,7196,592624,2
14,3,714799,250836,1461162,74869,9403,729938,0
14,-1,641372,219131,1356207,66001,8334,677491,0
14,3,712934,248967,1369483,73962,8989,684337,0
14,3,758108,262098,1495844,79709,9968,747524,0
14,-1,637109,219500,1309909,66019,7895,654525,0
14,3,707286,248161,1356416,74089,8844,677646,0
14,-1,643893,221898,1346439,67116,8309,672578,0
14,3,708298,248323,1677442,74148,11007,838057,0
14,3,718830,250966,1600999,75287,10355,799492,0
14,-1,643535,219851,1362476,66183,7968,680841,0
14,3,714678,248949,1466507,74322,9548,732808,0
15,3,714660,250525,1476085,74680,9764,737416,0
15,-1,637914,218254,1213305,65567,7780,606330,0
15,3,709010,250397,1392536,74760,9730,695466,0
15,3,712077,250706,1507375,74662,8652,753011,0
15,-1,639764,219372,1370181,66106,7613,684535,2
15,-1,638818,218579,1337685,65761,8291,668324,0
15,3,711554,249467,1479091,74118,9486,738967,0
15,3,712594,249059,1360829,73918,8837,679407,0
15,-1,635632,219367,1201216,65972,7136,600099,0
15,3,711433,250062,1419604,74939,10141,709487,0
15,-1,659618,224362,1246675,69406,8410,622917,0
15,3,708823,248195,1582585,74159,10836,790987,0
15,3,713703,249333,1473718,74534,9258,736359,0
15,-1,642928,219790,1225087,66107,7114,612198,0
15,3,713638,248679,1610927,74154,10176,805103,0
16,3,711504,249050,1519657,73941,9069,759343,0
16,-1,637440,218815,1148348,65770,6699,573747,0
16,3,706388,248206,1529880,73798,9538,764548,0
16,3,708654,248819,1409973,73779,8647,704147,0
16,-1,639491,219354,1220050,66110,7592,609636,2
16,-1,646921,220409,1394019,66530,8877,696395,0
16,3,707290,247950,1342598,73586,9030,670822,0
16,3,709784,248121,1406478,73630,9519,702712,0
16,-1,639647,219704,1277994,66087,7347,638473,0
16,3,708059,247737,1449266,73968,10204,724427,0
16,-1,640976,219670,1348763,66061,7650,673132,0
16,3,710878,249486,1583328,74764,11150,790233,0
16,3,713998,250089,1494672,74781,9922,746972,0
16,-1,642818,220174,1367637,66258,7232,683459,0
16,3,716606,249308,1484189,74413,8775,741541,0
17,3,713082,249758,1672225,74100,10233,835612,0
17,-1,642057,220919,1301961,66682,7393,649997,0
17,3,706276,249015,1427229,74060,8752,713179,0
17,3,715454,250913,1435873,74947,9456,717295,0
17,-1,646952,221120,1375734,66923,7179,687158,2
17,-1,640041,218670,1360302,65801,8533,679679,0
17,3,708705,248787,1430084,73841,8701,714692,0
17,3,710458,248583,1323835,73808,9547,661365,0
17,-1,639240,219708,1281149,66067,7027,640252,0
17,3,731259,253074,1656688,77541,11204,827962,0
17,-1,639097,219400,1305901,65880,7906,652605,0
17,3,706682,248143,1681926,74089,10507,840055,0
17,3,711905,249207,1482886,74465,9940,740939,0
17,-1,646359,221463,1402429,66804,8152,700544,0
17,3,716210,249308,1429443,74396,9279,714287,0
18,3,734627,257870,1444544,76483,8882,721912,0
18,-1,635476,218429,1280809,65616,6983,640033,0
18,3,709752,249190,1408498,74125,8463,703723,0
18,3,710633,249625,1386041,74267,8281,692599,0
18,-1,644815,221059,1465409,66893,8919,732188,0
18,-1,642125,219558,1304435,66147,8780,651686,2
18,3,711547,248647,1503676,73944,11126,751156,0
18,3,711657,248474,1459467,73763,9116,728726,0
18,-1,636353,218656,1257333,65719,6899,628305,0
18,3,706380,248121,1361947,74089,9661,680624,0
18,-1,641377,220544,1263962,66364,7599,631585,0
18,3,706306,247676,1525917,73941,10716,762714,0
18,3,721786,251383,1406079,75498,9537,702526,0
18,-1,641269,219762,1288556,66084,7534,643992,0
18,3,712924,249089,1366401,74290,8659,682738,0
19,3,709547,248877,1350444,73924,9153,674940,0
19,-1,663262,224411,1285130,69398,8431,642189,0
19,3,706314,248887,1407404,74005,9575,703179,0
19,3,708118,249377,1408486,74175,8752,703777,0
19,-1,640820,219138,1387086,66010,8525,693104,0
19,-1,633718,219059,1204797,66010,7564,602117,2
19,3,729396,252838,1333710,76962,9481,666321,0
19,3,709567,248415,1446222,73745,9537,722690,0
19,-1,669692,230911,1328431,69827,7718,663496,0
19,3,706545,248336,1345282,74231,9480,672258,0
19,-1,636755,218953,1196490,65805,7160,598064,0
19,3,714082,250955,1516217,75306,10409,757432,0
19,3,736803,253986,1563457,77879,10319,781364,0
19,-1,644181,220255,1252105,66293,7488,625720,0
19,3,715917,249022,1377570,74258,9291,687959,0
20,3,706333,248644,1345612,73900,9366,672426,0
20,-1,636523,218533,1182101,65707,6656,590565,0
20,3,707716,249829,1358471,74346,8598,678763,0
20,3,713561,250541,1363386,74939,9721,681039,0
20,-1,639197,218630,1291465,65778,8104,645340,0
20,-1,637966,221375,1370647,67068,8689,684716,2
20,3,708613,248319,1291189,73725,8800,645154,0
20,3,709534,248497,1312879,73701,8628,656016,0
20,-1,658475,224125,1282206,69296,7803,640665,0
20,3,705957,248021,1511339,74033,9767,755227,0
20,-1,642374,221590,1371859,66887,7877,685181,0
20,3,727919,252788,1556712,77447,11456,778017,0
20,3,713965,248869,1447661,74273,9565,723492,0
20,-1,651577,222164,1362469,67179,8067,680681,0
20,3,720152,250953,1418240,75242,9286,708386,0
21,3,707188,248547,1417627,73768,9505,708456,0
21,-1,640409,220257,1397998,66384,7309,698419,0
21,3,704112,248439,1542465,73930,9637,770839,0
21,3,709394,249265,1365988,74198,9650,682612,0
21,-1,641111,219642,1230720,66154,7897,614853,0
21,-1,635590,219148,1311760,66025,7634,655214,2
21,3,708391,249137,1340668,73995,8456,670057,0
21,3,710937,248430,1403222,73775,9034,701241,0
21,-1,638398,219870,1408026,66095,8347,703637,0
21,3,710603,249511,1618894,74602,9826,808862,0
21,-1,637600,219913,1274897,66087,8005,637049,0
21,3,707513,248426,1473655,74097,9997,736320,0
21,3,715935,249735,1452487,74653,9579,725893,0
21,-1,646864,220440,1290662,66339,7207,644864,0
21,3,716189,249458,1471595,74570,10320,735310,0
22,3,733646,253722,1414869,77250,9547,707077,0
22,-1,638238,218564,1234746,65734,7669,617024,0
22,3,705688,249090,1600664,74077,10478,799962,0
22,3,708303,249500,1391017,74375,9584,694899,0
22,-1,643575,220666,1368902,66698,8365,683874,0
22,3,731036,253383,1409302,77253,9989,704117,0
22,-1,635967,219940,1292649,66290,8570,645720,2
22,3,709188,248844,1395541,73846,9195,697313,0
22,-1,640258,220809,1406764,66639,8552,702174,0
22,3,707221,248462,1332285,74313,9553,665633,0
22,-1,645604,220638,1193635,66317,7303,596121,0
22,3,715960,248518,1439972,74165,10248,719569,0
22,3,714798,249710,1436644,74658,9232,717845,0
22,-1,643946,219835,1349066,66118,7314,673989,0
22,3,742489,258826,1465018,77298,9334,732083,0
23,3,715276,249510,1362831,74108,8978,681029,0
23,-1,642237,221308,1492105,66859,8058,745372,0
23,3,707251,250193,1472657,74766,9909,734673,0
23,3,715028,249050,1413599,74019,9127,706405,0
23,-1,639071,219114,1193192,66015,8169,596264,0
23,3,708500,248330,1337557,73792,8741,668425,0
23,-1,636816,218983,1320594,65960,7760,660095,2
23,3,708726,248242,1550221,73630,9410,774595,0
23,-1,638113,219804,1219130,66123,7599,609089,0
23,3,703564,248111,1445059,74159,9870,722192,0
23,-1,640828,219097,1350525,65835,7916,675030,0
23,3,716731,249581,1783678,74663,10995,890395,0
23,3,714467,249549,1468877,74593,9467,734060,0
23,-1,643882,220103,1309019,66135,8041,654148,0
23,3,719187,250944,1409452,75313,9719,704066,0
24,3,709749,248222,1503978,73643,9837,751562,0
24,-1,654894,222962,1266105,68884,7464,632558,0
24,3,712044,249250,1555870,74178,9970,777494,0
24,3,712550,248927,1353451,74050,8776,676313,0
24,-1,638381,218846,1361412,65856,8310,680368,0
24,3,708012,248432,1342880,73882,9216,671099,0
24,-1,639678,221397,1358248,67010,8218,678645,2
24,3,709317,248419,1425795,73694,9405,712416,0
24,-1,641420,221046,1338625,66748,7736,668631,0
24,3,709259,247980,1425569,74041,9554,712408,0
24,-1,643433,220068,1308627,66210,7158,653857,0
24,3,711067,248061,1488954,74021,9770,744111,0
24,3,711578,248981,1416794,74307,8941,708384,0
24,-1,644212,220340,1304237,66193,7353,651792,0
24,3,714435,250010,1383115,74744,8856,691130,0
25,3,711304,248747,1400602,73815,9092,699918,0
25,-1,636280,218218,1210319,65545,7155,604829,0
25,3,708859,248510,1551787,73885,9703,775035,0
25,3,713927,249137,1440238,73929,9663,721259,0
25,-1,643536,218965,1225678,65936,7099,612563,0
25,3,709585,249171,1459353,74064,9553,729313,0
25,-1,635356,219049,1205995,65984,7365,602483,2
25,3,710757,249487,1354965,74291,9176,676939,0
25,-1,657285,223967,1246056,69261,7697,622597,0
25,3,715904,249801,1333196,74868,9838,665762,0
25,-1,638974,218745,1238006,65730,6601,618706,0
25,3,717707,249981,1391080,75012,9268,694918,0
25,3,713966,250439,1492369,74914,9298,745737,0
25,-1,647646,222161,1312690,67145,7293,655720,0
25,3,717103,249129,1474650,74397,10053,736969,0
25,3,712857,249685,1503413,74821,9181,751056,0
26,3,718255,251670,1631830,75143,11504,814880,0
26,-1,636621,218327,1295963,65583,7956,647483,0
26,3,712140,249037,1607287,74103,9471,802872,0
26,3,716861,249926,1473814,74495,10013,736557,0
26,-1,640591,218399,1225993,65708,7358,612577,0
26,3,716005,249494,1362099,74207,9577,680811,0
26,-1,638604,219790,1368466,66131,8080,683791,2
26,3,709156,248413,1452116,73689,9915,725661,0
26,-1,636569,219301,1312908,65958,7928,655985,0
26,3,710505,248523,1324800,74293,9811,661895,0
26,-1,663436,223983,1288628,69267,8486,643962,0
26,3,712875,248541,1402384,74236,8606,700823,0
26,3,717191,251035,1427087,75374,10059,712536,0
26,-1,644290,219788,1258601,66072,7685,628983,0
26,3,735045,253724,1573056,77754,10894,786218,0
26,3,731372,253529,1481306,77693,9509,740359,0
27,3,733164,253351,1422803,77169,9773,710821,0
27,-1,638653,219449,1228537,65986,7192,613863,0
27,3,713190,250162,1514610,74712,10174,754795,0
27,3,711686,248930,1467743,74020,9715,733530,0
27,-1,646668,220872,1308390,66737,7847,653538,0
27,3,712475,248808,1503597,74018,9304,751475,0
27,-1,636676,219186,1193345,65874,6767,596151,2
27,3,706124,248742,1501817,73872,9784,750413,0
27,-1,636079,219473,1176730,66041,7157,587957,0
27,3,710873,249250,1292397,74724,9833,645722,0
27,-1,641339,219676,1355775,66095,7601,677550,0
27,3,710979,248249,1452959,74171,8963,726161,0
27,3,712977,249836,1507936,74591,10813,754253,0
27,-1,646735,220621,1201108,66463,7256,600069,0
27,3,712772,249041,1477409,74405,9640,738444,0
27,3,713445,248888,1434463,74428,9576,716659,0
28,3,709089,248247,1465823,73746,9006,732554,0
28,-1,635209,218673,1299253,65682,7386,649392,0
28,3,736280,254649,1334150,78222,9958,666469,0
28,3,710848,248580,1407602,73972,8876,703453,0
28,-1,640839,218899,1262358,65937,7709,630290,0
28,3,711776,249509,1482404,74154,11435,740281,0
28,-1,642939,221481,1370679,66962,8362,684578,2
28,3,713442,247981,1560989,73611,9819,780029,0
28,-1,632941,218381,1366043,65576,8113,682485,0
28,3,709751,247560,1619298,73871,10129,809297,0
28,-1,637587,219109,1158504,65862,7235,578857,0
28,3,712820,248450,1491467,74258,9241,744814,0
28,3,710402,249227,1407458,74542,10972,703117,0
28,-1,645697,220442,1275552,66251,8374,637347,0
28,3,712600,249301,1408962,74547,9929,704074,0
28,3,714290,249907,1485919,75040,8758,742319,0
29,3,710264,248760,1333771,73919,8750,666302,0
29,-1,640328,220665,1366871,66654,7835,682797,0
29,3,708101,248504,1316928,73888,8746,657951,0
29,3,711669,249038,1590627,74058,9737,795324,0
29,-1,639975,219036,1212338,65936,6953,605722,0
29,3,734046,253628,1340741,77266,9614,670066,0
29,3,713750,248258,1397722,73712,9643,698414,0
29,-1,644506,219822,1365201,66106,8537,682005,0
29,-1,634273,219425,1314568,66003,7964,656587,2
29,3,711897,248687,1610820,74295,10610,804975,0
29,-1,643554,220952,1613395,66721,8987,805977,0
29,3,737934,254342,1557901,78467,10805,778541,0
29,3,715544,249158,1404176,74501,10471,701610,0
29,-1,649742,221837,1341180,66849,8287,670041,0
29,3,714825,249970,1349400,74954,9385,674135,0
29,3,732692,253315,1487175,77617,9810,743325,0
30,3,712290,249235,1273434,74224,8547,636306,0
30,-1,652855,222255,1322613,68735,7725,660917,0
30,3,715227,250280,1399801,74704,9755,699269,0
30,3,714382,250519,1484930,74730,9407,741748,0
30,-1,645296,220947,1369717,66859,8063,684194,0
30,3,712506,249130,1373724,74078,8912,686443,0
30,3,715993,250360,1502345,74580,9910,749703,0
30,-1,640552,218712,1336048,65669,8708,667310,0
30,-1,638470,220472,1276704,66354,7333,637717,2
30,3,707941,247717,1499782,74031,10595,749593,0
30,-1,639528,219802,1242110,66027,7008,620737,0
30,3,720307,251279,1467228,75535,8996,732926,0
30,3,714519,248767,1354633,74332,9539,676871,0
30,-1,643739,219862,1344277,66066,7614,671649,0
30,3,719835,251053,1469077,75367,9251,733723,0
30,3,707674,248446,1475886,74288,9536,737074,0
31,3,711046,249194,1329650,74202,8294,664446,0
31,-1,635241,218770,1421352,65791,8327,709867,0
31,3,708273,248900,1447284,73944,8986,723368,0
31,3,710623,249277,1437308,74143,9360,718240,0
31,-1,640838,218926,1231553,65952,8436,615357,0
31,3,715812,250247,1449038,74566,9018,723982,0
31,3,714128,248480,1383364,73793,9484,691127,0
31,-1,644777,220405,1531371,66501,9578,764985,0
31,-1,638551,219716,1263325,66148,7591,631230,2
31,3,708758,247684,1454554,73879,10096,726799,0
31,-1,641430,219870,1201966,66102,7160,600655,0
31,3,712908,248719,1487284,74331,8865,743276,0
31,3,717825,250732,1400211,75183,9533,699431,0
31,-1,642434,219731,1318090,65997,7446,658656,0
31,3,712536,248753,1470189,74329,9276,734535,0
31,3,710464,247730,1364157,73992,9303,681822,0
31,-1,644349,219330,1378911,65959,8534,689090,0
32,3,717191,250540,1450745,74895,9173,724736,0
32,-1,643818,220067,1332495,66316,7638,665416,0
32,3,707508,248534,1266206,73947,8240,632641,0
32,3,710926,248247,1389967,73815,9114,694802,0
32,-1,639494,218273,1375016,65620,7763,687106,0
32,3,713493,249711,1438494,74185,8485,718851,0
32,3,714579,249736,1344541,74458,9774,671212,0
32,-1,643846,220208,1452798,66254,8586,726022,0
32,-1,642858,221568,1293259,66990,8026,645996,2
32,3,711497,249058,1479680,74432,10380,739508,0
32,-1,642790,220846,1360496,66593,7674,679497,0
32,3,713119,248782,1433807,74318,8525,716579,0
32,3,711669,249010,1495896,74400,9437,747558,0
32,-1,646885,221524,1377295,66896,8181,688075,0
32,3,711142,248814,1330407,74402,8939,664728,0
32,3,709313,248154,1405914,74178,8851,702343,0
32,-1,640490,218452,1264320,65557,7680,631857,0
33,3,709526,248124,1503731,73763,8509,751619,0
33,-1,640034,218978,1271718,65832,7392,635474,0
33,3,711919,250485,1456027,74761,8946,727399,0
33,3,732743,253204,1471465,77253,10158,735358,0
33,-1,646070,221678,1365330,67144,7964,682028,0
33,3,714497,251251,1446209,74958,9112,722537,0
33,3,711065,248091,1380364,73592,9452,689846,0
33,-1,638202,219061,1223815,65907,7667,611526,0
33,-1,641754,220327,1364168,66308,7862,681606,2
33,3,712930,249888,1414506,74888,10600,706476,0
33,-1,639146,219464,1356496,65896,7504,677946,0
33,3,711373,248491,1494156,74231,9407,746535,0
33,3,713630,248861,1466755,74374,9948,732940,0
33,-1,644839,220971,1224456,66310,7156,611795,0
33,3,717901,250177,1287319,75010,9205,642716,0
33,3,712231,249497,1448751,74901,9311,723920,0
33,-1,644204,219141,1298271,65821,8260,648781,0
34,3,710346,249489,1438003,74418,8648,718510,0
34,-1,638232,218977,1296229,65786,7106,647786,0
34,3,714917,250866,1438991,75044,8872,718763,0
34,3,712687,249520,1478212,74277,10088,737795,0
34,-1,637398,218920,1402372,65947,7309,700662,0
34,3,736133,254124,1434448,77417,9907,716975,0
34,3,713883,249696,1412853,74291,10686,705852,0
34,-1,640985,220043,1199253,66206,7720,598999,0
34,3,709897,248537,1478228,74296,10366,738750,0
34,-1,638126,219615,1134196,66070,7224,566615,2
34,-1,638619,219330,1254092,65955,7267,626699,0
34,3,712613,249235,1395189,74622,8959,696937,0
34,3,736636,254565,1531947,78032,10820,765639,0
34,-1,642993,220859,1288189,66588,7851,643387,0
34,3,712695,248952,1368527,74335,9970,683881,0
34,3,708592,248611,1441326,74458,9555,720313,0
34,-1,646982,220860,1337331,66712,8287,667897,0
35,3,708492,247994,1354440,73762,8261,676802,0
35,-1,658557,223159,1298998,68943,8779,648863,0
35,3,709642,249298,1494190,74152,8994,746659,0
35,3,707160,247769,1266876,73692,8754,633056,0
35,-1,642502,219253,1319442,65978,7006,658891,0
35,3,712909,250046,1476552,74483,9281,737816,0
35,3,712509,248457,1439929,73769,9612,719552,0
35,-1,639642,219149,1147343,65844,7239,573151,0
35,3,731354,252790,1587915,77441,10978,793590,0
35,-1,641354,220154,1316525,66247,7664,657775,2
35,-1,643604,221537,1314223,67032,7457,656619,0
35,3,713594,249989,1419386,74989,8803,709091,0
35,3,713856,249966,1494388,74736,10233,746653,0
35,-1,643268,220271,1249405,66289,7514,624184,0
35,3,712448,249080,1315860,74422,9160,657513,0
35,3,706082,247745,1327798,74110,7852,663391,0
35,-1,641784,219753,1765426,66094,9824,882314,0
36,3,710659,249899,1465286,74510,8322,732125,0
36,-1,637868,218881,1197461,65810,7174,598216,0
36,3,712632,250205,1416798,74696,8796,707816,0
36,3,714831,250411,1478513,74757,9469,738482,0
36,-1,644276,220036,1462755,66476,8714,730646,0
36,3,709236,248428,1456549,73718,9775,728000,0
36,3,709829,247802,1355995,73494,9012,677406,0
36,-1,639427,219181,1198628,65908,7975,598800,0
36,3,710066,248687,1510755,74311,10915,754940,0
36,-1,633125,219542,1121639,66055,6199,560310,2
36,-1,657859,223780,1289254,69204,7921,644322,0
36,3,709959,248442,1373924,74186,9330,686610,0
36,3,710020,248923,1466392,74312,9888,732714,0
36,-1,647121,221968,1333652,67169,7845,666104,0
36,3,716091,250934,1290384,75370,9187,644479,0
36,3,728467,253007,1461511,77678,10179,730358,0
36,-1,645808,220260,1277156,66238,7930,638215,0
37,3,710994,248318,1672984,73973,10953,836065,0
37,-1,638730,219196,1278937,65846,7835,639102,0
37,3,708740,249373,1469632,74240,9010,733157,0
37,3,709568,248681,1491681,73981,9159,745028,0
37,-1,645610,220791,1353360,66735,8357,676028,0
37,3,710578,248937,1367261,73996,8836,683224,0
37,3,711425,248547,1498438,73771,9392,747874,0
37,-1,641811,220063,1203831,66217,7724,601541,0
37,3,708803,247963,1496713,74037,10065,747977,0
37,-1,641689,221778,1385466,67047,7754,691940,2
37,-1,639609,219090,1346633,65818,7691,672797,0
37,3,709120,247931,1424214,74009,9248,711756,0
37,3,714499,249565,1494963,74645,9433,747058,0
37,-1,659459,223587,1411770,69079,7943,705524,0
37,3,715001,248922,1465778,74375,9852,732470,0
37,-1,642460,219407,1253562,65970,8144,626397,0
37,3,707419,247166,1370530,73865,9345,684724,0
38,3,710168,248707,1373902,74003,8849,686543,0
38,-1,634488,218452,1254838,65645,6531,627040,0
38,3,710420,249179,1446846,74431,10396,723158,0
38,3,710081,249060,1450032,74080,9142,725056,0
38,-1,667285,228393,1388695,68700,8795,693985,0
38,3,714729,251061,1592845,74971,10516,795909,0
38,3,712021,248603,1433180,73803,10023,716134,0
38,-1,638931,219330,1223231,65883,7542,611370,0
38,3,710216,248462,1452967,74190,9685,726265,0
38,-1,639317,219483,1637414,66031,9210,817504,0
38,-1,638890,220480,1326017,66327,7609,662658,2
38,3,737211,258113,1461679,77137,9574,730444,0
38,3,730887,253283,1498066,77685,9672,748638,0
38,-1,642452,220724,1355586,66591,7582,677205,0
38,3,715519,250072,1352294,74755,8822,675735,0
38,-1,641596,219395,1263297,65845,7402,631350,0
38,3,710805,249011,1447013,74563,9079,723166,0
39,3,708876,248065,1354785,73827,9535,676783,0
39,-1,635820,218870,1246637,65732,7142,622993,0
39,3,705256,249066,1444129,74141,9850,721476,0
39,3,714922,250902,1527258,75000,9880,761981,0
39,-1,640986,219499,1400213,66110,8337,699699,0
39,3,706442,247996,1352190,73635,8785,675709,0
39,3,709565,248099,1458911,73608,9584,729066,0
39,-1,661157,223716,1329224,69189,8082,664225,0
39,3,707683,247877,1433190,74083,10271,716154,0
39,-1,638954,219612,1277851,66041,6918,638442,0
39,3,706161,247573,1345813,73930,9184,672628,0
39,-1,640370,219991,1450622,66176,8272,725081,2
39,3,710849,249291,1350682,74543,8483,674891,0
39,-1,639142,219964,1197452,66050,7873,598250,0
39,3,711565,248340,1376113,74216,9588,687580,0
39,-1,635693,218059,1204361,65426,8225,601900,0
39,3,707765,248074,1342588,74251,8747,671001,0
40,3,708570,247902,1498160,73764,9362,748780,0
40,-1,657429,223005,1329022,68944,8112,664141,0
40,3,712972,249163,1442902,74098,9554,721091,0
40,3,707576,248918,1488064,74078,8643,743955,0
40,-1,659995,223824,1329268,69320,8028,664218,0
40,3,710303,248558,1460156,73759,9243,729797,0
40,3,708810,248197,1419177,73685,9308,709104,0
40,-1,637471,219525,1216152,66005,7495,607700,0
40,3,712118,250071,1372163,75065,9997,685418,0
40,-1,635730,219070,1203672,65837,7509,601611,0
40,3,713063,248352,1801822,74230,11541,900535,0
40,-1,646039,221414,1436203,66924,9734,717518,2
40,3,711602,249645,1457926,74653,9643,728522,0
40,-1,638583,219384,1274921,65825,7497,637109,0
40,3,711018,249029,1505233,74319,9708,752233,0
40,-1,642000,218806,1224432,65657,7664,611890,0
40,3,706008,247133,1325783,73860,9032,662585,0
41,3,708254,248155,1639091,73873,10033,818705,0
41,-1,634207,218274,1181562,65574,6324,590270,0
41,3,710419,248711,1365193,74007,8454,682024,0
41,3,707613,248288,1372257,73881,8376,685756,0
41,-1,638721,218790,1287754,65832,8199,643497,0
41,3,710714,248643,1365220,73868,8933,682339,0
41,3,708742,247999,1409506,73558,9351,704418,0
41,-1,639189,219158,1298092,65863,7896,648684,0
41,3,711977,248694,1591497,74328,10658,795347,0
41,-1,641910,219918,1255621,66075,7715,627638,0
41,3,710912,247923,1424797,74069,9219,711996,0
41,-1,640794,219899,1229563,66054,6951,614447,2
41,3,716876,250822,1318338,75326,9516,658561,0
41,-1,664870,223953,1292386,69152,8789,645806,0
41,3,714939,250015,1489787,74609,8967,744587,0
41,-1,646568,221011,1217765,66674,8323,608283,0
41,3,729368,252963,1505135,77653,10159,752005,0
42,3,710238,248926,1767435,74087,10322,882753,0
42,-1,634129,218499,1305603,65634,7270,652498,0
42,3,710218,249365,1365590,74286,9350,682338,0
42,3,707458,248527,1422069,73946,8270,710638,0
42,-1,638110,219025,1261807,65934,7113,630449,0
42,3,713314,249843,1386781,74262,9177,693022,0
42,3,728741,252290,1587087,76751,10247,792938,0
42,-1,643145,220293,1270365,66287,7060,634713,0
42,3,710360,248567,1415558,74508,10111,707169,0
42,-1,639845,219211,1171846,65839,7403,585602,0
42,3,714326,249898,1333746,74992,9097,666392,0
42,-1,638961,220498,1228806,66321,7325,613900,2
42,3,711688,249350,1359599,74687,9978,679248,0
42,-1,642018,219339,1684970,65798,9013,841465,0
42,3,709255,248119,1442637,74083,9100,720900,0
42,-1,639538,218709,1240493,65562,7301,619942,0
42,3,706687,247958,1368993,74213,9019,684133,0
43,3,707076,248574,1353166,74007,8988,676148,0
43,-1,636919,219053,1254387,65798,7225,626812,0
43,3,708528,248877,1390003,74059,9566,694539,0
43,3,712375,249167,1449914,74112,9251,724510,0
43,-1,639210,219314,1202754,66086,7738,600895,0
43,3,710974,248666,1390106,73903,9258,694741,0
43,3,707396,248429,1371088,73717,8826,685434,0
43,-1,638346,218529,1273373,65623,7087,636321,0
43,3,707759,248127,1504179,74048,10123,751724,0
43,-1,641337,220057,1227125,66150,7731,613069,0
43,3,711635,248443,1402014,74240,9209,700673,0
43,3,711851,249727,1365987,74775,9119,682544,0
43,-1,642317,220633,1215002,66294,6762,607062,2
43,-1,644745,220748,1367499,66501,8058,683661,0
43,3,735141,254408,1491080,77942,9942,745024,0
43,-1,638609,218681,1410032,65580,7472,704691,0
43,3,713418,249978,1510573,75036,8894,754743,0
44,3,704246,247552,1296163,73639,8722,647740,0
44,-1,633980,218796,1292201,65782,7165,645693,0
44,3,709126,249026,1341078,74134,9100,670143,0
44,3,710045,248597,1578606,73921,9682,789054,0
44,-1,637462,219072,1301884,65934,7982,650668,0
44,3,735005,257927,1447787,76610,9996,723555,0
44,3,717948,250217,1418325,74517,9505,708553,0
44,-1,638693,219394,1359303,65985,7523,679232,0
44,3,707961,248020,1372339,73219,9431,685781,0
44,-1,637579,218807,1187049,65693,7433,593174,0
44,3,708809,247529,1360446,73907,8939,679858,0
44,3,722320,251698,1429790,75709,8943,714061,0
44,-1,643364,222229,1214940,67077,8170,606752,2
44,-1,642684,219317,1321862,65849,8057,660302,0
44,3,712294,249472,1420792,74473,9268,709931,0
44,-1,638309,218817,1295483,65609,7317,647445,0
44,3,704571,247750,1503864,74117,9203,751648,0
45,3,707223,247445,1340926,73625,9265,669934,0
45,-1,658821,223232,1304248,68948,8235,651647,0
45,3,711057,249063,1398230,74226,8742,698698,0
45,3,710379,248705,1477616,73995,9515,738448,0
45,-1,645303,219009,1374359,65948,7852,686823,0
45,3,710051,248988,1411053,74007,9604,705062,0
45,-1,640937,219756,1289544,66112,6642,644295,0
45,3,712721,248529,1467948,73787,10460,733445,0
45,3,708056,248478,1422709,73386,9296,710999,0
45,-1,637295,219044,1142081,65843,7032,570587,0
45,3,715692,250702,1422580,75231,9605,710712,0
45,3,713878,249507,1385008,74702,9148,691993,0
45,-1,644181,220018,1376076,66034,8062,687750,0
45,-1,639463,219887,1267597,66151,7221,633294,2
45,3,710030,249808,1482295,74647,8966,740728,0
45,-1,641119,219246,1297122,65833,7859,648200,0
45,3,706606,248226,1366037,74319,9527,682450,0
46,3,708629,248585,1399614,73954,8482,699430,0
46,-1,639128,219599,1206705,66034,7109,602945,0
46,3,707677,248207,1454488,73864,8384,726764,0
46,3,713722,250760,1491110,74918,9143,744561,0
46,-1,664734,224020,1351517,69421,9187,675285,0
46,3,716974,250747,1588376,74861,11138,793576,0
46,-1,637895,219061,1260993,65814,7333,630108,0
46,3,711388,248302,1454677,73667,9951,726952,0
46,3,707030,248225,1481178,73266,9562,740238,0
46,-1,643470,221337,1332750,66841,7753,665645,0
46,3,732510,253072,1516407,77499,9773,757857,0
46,3,717766,250697,1368155,75302,9514,683495,0
46,-1,642505,219736,1267458,65986,8464,632786,0
46,-1,675099,231926,1299305,70027,8242,648855,2
46,3,717202,249606,1459135,74505,9612,729313,0
46,-1,638958,218810,1241404,65635,6807,620332,0
46,3,704171,247978,1437186,74229,9471,718107,0
47,3,706865,247918,1450346,73640,9091,724846,0
47,-1,638323,219756,1372534,66279,7831,685845,0
47,3,711469,250339,1557684,74874,9275,778187,0
47,3,729923,253370,1438072,77285,9550,718670,0
47,-1,641389,219311,1206016,66041,7687,602508,0
47,3,734162,253778,1562847,77384,11307,781056,0
47,-1,637108,219641,1400373,66013,8117,699828,0
47,3,719117,251505,1387176,75075,10204,692843,0
47,3,713416,250976,1472146,74518,9980,735074,0
47,-1,657754,223591,1256405,69040,7628,627878,0
47,3,712694,249492,1347183,74742,9081,672993,0
47,3,715680,249595,1467509,74704,9830,733408,0
47,-1,641032,219155,1311874,65769,8227,655610,0
47,-1,642613,219799,1253796,66104,7067,626424,2
47,3,719960,251137,1497121,75061,9563,747962,0
47,-1,640867,219429,1409359,65876,7965,704324,0
47,3,732018,252889,1478547,77616,9546,738954,0
48,3,710553,249106,1466484,74276,8687,732765,0
48,-1,637281,219293,1449362,65983,8255,724243,0
48,3,726502,252824,1462527,77231,9816,730871,0
48,3,709169,248947,1305866,74089,8773,652453,0
48,-1,641946,219524,1171722,66042,7039,585339,0
48,3,712315,249841,1595487,74414,10829,796976,0
48,-1,637584,219104,1269421,65841,7444,634284,0
48,3,713154,249313,1519759,73969,9889,759342,0
48,3,727955,253120,1486087,76658,10060,742737,0
48,-1,640528,220259,1304614,66249,8007,652014,0
48,3,709492,248540,1432622,74242,9748,715923,0
48,3,736976,254249,1542916,78089,10156,771149,0
48,-1,644535,220892,1250205,66581,8603,624032,0
48,3,715276,249411,1336030,74407,8679,667744,0
48,-1,646177,220653,1219756,66133,8018,609512,2
48,-1,638808,218947,1440175,65667,8236,719767,0
48,3,708335,247742,1457167,74125,9510,728232,0
49,3,705804,247651,1374574,73605,9013,686995,0
49,-1,635842,219159,1184514,65849,6412,591773,0
49,3,708919,249017,1438794,74179,9206,719018,0
49,3,711177,248390,1362363,73831,9228,680782,0
49,-1,662228,224037,1350797,69321,8391,674653,0
49,3,711852,249452,1507825,74105,10016,753672,0
49,-1,639459,219747,1314989,66056,7720,657063,0
49,3,738384,258508,1454746,76934,9206,726535,0
49,3,704061,247626,1592606,73097,9345,795466,0
49,-1,637882,219613,1256446,65973,7318,627838,0
49,3,709030,248740,1545273,74268,10087,772251,0
49,3,716187,250093,1413595,74923,9052,706329,0
49,-1,643157,219512,1263044,65871,7414,631108,0
49,3,715288,249694,1378143,74602,9657,688206,0
49,-1,643085,221018,1225366,66414,7205,612518,2
49,-1,660294,224129,1247574,69189,8267,623544,0
49,3,707705,248042,1406097,74250,8393,702765,0
50,3,705158,247719,1375808,73603,8560,687589,0
50,-1,640024,220717,1338007,66620,7513,668239,0
50,3,709809,249950,1485562,74580,9390,742196,0
50,3,711369,249629,1485579,74490,9538,742435,0
50,-1,643874,219477,1380525,66062,7592,689792,0
50,3,711666,249120,1406020,73936,9264,702462,0
50,-1,637417,219411,1303630,65985,7088,651308,0
50,3,709041,247961,1496131,73560,9274,747695,0
50,3,703948,248197,1466700,73349,9242,732686,0
50,-1,643098,221039,1340683,66698,8047,669907,0
50,3,713483,250184,1628644,75140,11384,813522,0
50,3,713687,249156,1442682,74569,9051,721043,0
50,-1,643037,219759,1323764,65995,7613,661529,0
50,3,740549,255203,1442836,78143,10425,720932,0
50,-1,647605,221949,1372004,67012,8292,685403,2
50,-1,637660,219238,1322765,65745,8213,661137,0
50,3,709872,248354,1502664,74289,8754,750814,0
51,3,707303,248334,1412034,73817,8801,705681,0
51,-1,636483,218936,1245763,65744,7359,622525,0
51,3,707741,247903,1485173,73784,8719,742296,0
51,3,707808,248627,1534249,73945,10529,765616,0
51,-1,642299,219237,1320047,65884,7702,659696,0
51,3,708234,249613,1438011,74138,8998,718598,0
51,-1,641263,220935,1387665,66700,7954,693175,0
51,3,717196,250922,1423293,74813,9633,711049,0
51,3,728907,252944,1471898,76531,10057,735502,0
51,-1,638766,219889,1223738,66088,6989,611448,0
51,3,711467,248772,1351954,74322,8883,675574,0
51,3,714894,250379,1411820,75159,9002,705295,0
51,-1,642692,219484,1319341,65819,8014,659144,0
51,3,715659,249943,1440421,74598,8883,719842,0
51,-1,638956,219514,1196062,65979,7988,597556,2
51,-1,645222,219733,1348537,65961,8023,673935,0
51,3,707922,247451,1492880,74048,9338,746155,0
52,3,704536,247775,1319163,73545,8371,659176,0
52,-1,633560,218201,1183502,65521,6765,591158,0
52,3,728503,253025,1609098,77251,9828,804219,0
52,3,707944,248864,1922823,74092,11361,959850,0
52,-1,645640,220638,1329461,66646,8647,663990,0
52,3,719395,250289,1496110,74469,9829,747401,0
52,-1,637607,219525,1312307,66026,8024,655628,0
52,3,710331,248527,1450721,73797,9659,724947,0
52,3,711272,250784,1472947,74271,9576,735770,0
52,-1,634788,219020,1308791,65739,6477,654086,0
52,3,713271,249832,1294072,74828,8878,646481,0
52,3,713688,249468,1403435,74674,8740,701367,0
52,-1,646099,221515,1367022,66792,8103,682727,0
52,3,713401,249397,1441427,74400,8820,720275,0
52,-1,644644,219688,1354229,65955,8184,676751,0
52,-1,643702,220228,1240507,66169,7257,619910,2
52,3,708847,248431,1351183,74384,8751,675159,0
53,3,704653,247616,1325350,73611,8087,662275,0
53,-1,633039,218348,1340650,65597,7232,670000,0
53,3,709535,249082,1630893,74213,8842,815030,0
53,3,707468,249042,1511129,74050,9454,755203,0
53,-1,639832,218959,1250747,65909,7738,624868,0
53,3,716532,249740,1368531,74169,9255,683927,0
53,-1,636191,218782,1305167,65736,6996,652140,0
53,3,711779,249368,1470793,74058,9295,735030,0
53,3,706587,248517,1366261,73296,10249,682683,0
53,-1,660074,224445,1315784,69396,8531,657578,0
53,3,708522,248580,1347250,74286,9199,673193,0
53,3,711851,249441,1484241,74725,9051,741628,0
53,-1,660662,223990,1297650,69115,8187,648390,0
53,3,736161,254987,1670314,77995,10278,834664,0
53,-1,647937,221562,1397971,66896,8686,698409,0
53,3,708268,247867,1266160,74121,8297,632730,0
53,-1,640485,219579,1339520,65966,7988,669330,2
54,3,703020,247430,1507020,73468,8630,753214,0
54,-1,633698,219101,1194045,65846,7423,596412,0
54,3,708066,249127,1451471,74161,9241,725370,0
54,3,727121,253079,1453086,77202,9873,726213,0
54,-1,639654,219495,1319854,65999,7088,659540,0
54,3,715905,249675,1338890,74125,9504,669114,0
54,-1,638940,220158,1260937,66221,7298,630051,0
54,3,707650,247950,1433077,73487,9575,716378,0
54,3,704914,248287,1346790,73236,9889,673152,0
54,-1,638353,219198,1343477,65850,7053,671491,0
54,3,729299,253008,1590570,77465,10131,795023,0
54,3,714186,248981,1418000,74417,9342,708728,0
54,-1,642968,220443,1372837,66159,8121,686010,0
54,3,715740,250248,1486303,74599,9179,742428,0
54,-1,643328,220112,1559200,66138,9665,779259,0
54,3,706114,248498,1400394,74415,8501,699809,0
54,-1,640661,219088,1191670,65887,7357,595488,2
55,3,710663,248686,1433974,73987,8598,716655,0
55,-1,640273,217874,1160285,65354,7735,579771,0
55,3,727497,253053,1476665,77288,10123,737904,0
55,3,705961,248635,1428571,73974,9568,713668,0
55,-1,638061,218876,1356239,65710,7658,677601,0
55,3,717992,251314,1735088,74897,10317,866920,0
55,-1,633966,218604,1209287,65616,7137,604252,0
55,3,710422,248580,1448610,73816,9850,723861,0
55,3,704074,248219,1332795,73109,9764,665910,0
55,-1,637076,219494,1222782,65952,6608,611075,0
55,3,711065,248911,1440245,74332,8811,719806,0
55,3,717653,250746,1323117,75189,9837,661015,0
55,-1,638773,219241,1228523,65697,6912,614471,0
55,3,714723,249151,1437739,74283,9680,718433,0
55,-1,639203,219095,1309045,65827,7415,654126,0
55,3,710323,248523,1428612,74415,9046,713866,0
56,3,705897,247288,1331298,73438,8381,665301,0
56,-1,641801,218809,1207877,65743,7845,603581,0
56,3,706228,248336,1430540,73982,9833,714759,0
56,-1,643210,220421,1341229,66276,7577,670302,0
56,3,708682,248971,1401404,74093,8950,700294,0
56,3,712860,248921,1332844,73850,9736,666156,0
56,-1,656809,223950,1302946,69252,8876,651098,0
56,3,712270,250114,1431859,74525,9260,714958,0
56,3,723676,252447,1734703,76365,11038,867005,0
56,-1,641850,220770,1274276,66353,7194,636803,0
56,3,728612,252805,1453280,77460,10812,726276,0
56,3,713350,249112,1504526,74466,10488,751921,0
56,-1,643284,219762,1406160,65899,8655,701926,0
56,3,715711,250019,1355500,74837,9096,677197,0
56,-1,641811,220110,1331971,66255,8235,665436,0
56,3,708028,248258,1436992,74312,8952,718147,0
57,3,735617,253988,1424408,78034,9403,711775,0
57,-1,640781,218484,1264558,65590,7390,631942,0
57,3,726716,253027,1465916,77240,10917,732480,0
57,3,714118,250464,1352446,74754,9873,675729,0
57,-1,641303,219013,1239934,65766,7287,619473,0
57,3,716694,250778,1332390,74696,9899,665518,0
57,-1,642653,220668,1354659,66519,7481,676706,0
57,3,710257,248324,1364616,73673,8932,681976,0
57,3,704264,248736,1672726,73296,9905,835886,0
57,-1,637074,219139,1197906,65883,7240,598600,0
57,3,706575,248303,1400549,74223,9674,699569,0
57,3,732913,253836,1553164,77814,11117,776143,0
57,-1,644309,220439,1349189,66157,8473,674180,0
57,3,719491,251625,1417587,75425,9649,708118,0
57,-1,649310,222534,1352718,67183,8021,675686,0
57,3,706207,247256,1373177,73975,8566,686207,0
58,3,708300,248137,1315937,73820,8083,657646,0
58,-1,641605,219065,1313915,65836,8645,656640,0
58,3,702497,248316,1366987,73917,9834,683107,0
58,3,713459,249717,1431557,74301,9192,715440,0
58,-1,642974,219790,1275972,66039,8084,637540,0
58,3,711992,249440,1388368,74080,10328,693870,0
58,-1,641036,219599,1280804,66046,7383,639925,0
58,3,712094,250108,1571680,74566,9679,785393,0
58,3,707782,248152,1569383,73186,9629,784110,0
58,-1,640886,220577,1297627,66530,8082,648369,0
58,3,707475,248002,1835947,74056,10861,917644,0
58,3,714102,249921,1459751,74692,9340,729477,0
58,-1,642458,220882,1314367,66318,7862,656816,0
58,3,712513,249240,1330256,74405,9090,664610,0
58,-1,660553,223833,1406193,69121,8308,702773,0
58,3,707853,248322,1478771,74274,8871,738931,0
59,3,708420,247589,1280265,73587,8822,639889,0
59,-1,645076,220789,1289188,66469,8146,644086,0
59,3,713686,249992,1338948,74506,9224,668957,0
59,3,709446,249004,1451595,74048,8764,725307,0
59,-1,640437,219187,1282972,65862,7828,641095,0
59,3,715463,250401,1493025,74685,10034,745975,0
59,-1,638535,219105,1273770,65834,7749,636433,0
59,3,707782,248432,1412771,73767,10177,705914,0
59,3,705456,248140,1396506,73115,9426,697797,0
59,-1,638463,220011,1204048,66177,7086,601499,0
59,3,708157,249399,1344178,74746,9672,671727,0
59,3,709622,248581,1393073,74234,9453,696141,0
59,-1,645076,221412,1391557,66842,7944,695057,0
59,3,736717,257857,1482218,76849,9638,740770,0
59,-1,643050,219796,1218727,65976,8041,609091,0
59,3,705740,247925,1346713,74216,8782,673005,0
60,3,708290,248142,1420467,73769,10581,709814,0
60,-1,642319,218743,1343091,65617,7656,671129,0
60,3,710066,248892,1290049,74146,8638,644584,0
60,3,707278,248714,1359728,73943,8459,679409,0
60,-1,640085,219105,1302823,65777,7963,651063,0
60,3,713815,250246,1360647,74403,9155,679923,0
60,-1,639131,219073,1173520,65987,7456,586288,0
60,3,705182,247722,1347828,73448,9469,673588,0
60,3,704184,248128,1484733,73083,9659,741998,0
60,-1,636247,219149,1320943,65854,7689,660186,0
60,3,713772,248795,1356919,74413,9019,678112,0
60,3,730965,253380,1479584,77576,9742,739372,0
60,-1,640549,219942,1287702,66040,7385,643492,0
60,3,712023,248848,1468436,74278,10299,733833,0
60,-1,641262,220292,1370248,66145,8317,684690,0
60,3,710445,248572,1503585,74411,9255,751293,0
61,3,708147,248563,1401729,73931,8926,700418,0
61,-1,639093,219027,1236334,65701,6942,617821,0
61,3,729808,252865,1425518,77230,9775,712284,0
61,3,708884,249342,1410561,74165,8580,704654,0
61,-1,645078,221418,1334769,66845,7847,666772,0
61,3,715251,249955,1447472,74297,9535,723315,0
61,-1,660189,223897,1233184,69368,8000,616222,0
61,3,716778,249781,1475949,74185,9409,737572,0
61,3,708687,249092,1426135,73403,9590,712543,0
61,-1,636674,219799,1334866,66091,7550,666993,0
61,3,716424,250380,1303328,75142,8539,651075,0
61,3,711627,249639,1371465,74607,9083,685308,0
61,-1,638216,219122,1240399,65688,7574,619891,0
61,3,715332,251042,1359584,75291,9151,678902,0
61,-1,640104,219127,1386330,65720,8543,692655,0
61,3,714771,250103,1452922,75233,9677,725878,0
62,3,706533,248575,1666625,73936,10095,832889,0
62,-1,638080,218311,1202652,65378,7128,600929,0
62,3,710308,249820,1474133,74666,9586,736461,0
62,3,706771,248935,1363830,73979,8187,681644,0
62,-1,638049,219128,1331922,65795,7978,665654,0
62,3,709953,249015,1431720,73941,8984,715567,0
62,-1,639513,220210,1191383,66309,7624,595190,0
62,3,712127,248388,1416351,73753,9778,707647,0
62,3,709355,249531,1329973,73793,8841,664285,0
62,-1,634695,219268,1410225,65925,8826,704453,0
62,3,706728,246720,1370438,73735,8800,684930,0
62,3,716644,250925,1480189,75374,9840,738956,0
62,-1,640054,219883,1285190,66051,7630,642149,0
62,3,714076,249029,1491785,74366,10199,745551,0
62,-1,643696,220358,1357926,66224,9154,678519,0
62,3,706905,248014,1377405,74271,9517,688307,0
63,3,706132,247363,1391004,73468,8724,695210,0
63,-1,637781,218615,1286134,65561,7474,642715,0
63,3,712918,250496,1489266,74935,9175,743981,0
63,-1,642248,220567,1394841,66480,7668,696756,0
63,3,717177,251239,1586083,75035,9797,791531,0
63,3,712086,249375,1509569,74075,9720,754190,0
63,-1,637595,218689,1315217,65774,7627,657127,0
63,3,715302,250114,1487955,74571,10041,743185,0
63,3,705664,248500,1379717,73225,9299,689306,0
63,-1,646080,219527,1217731,65988,7670,608505,0
63,3,711448,248458,1446082,74288,8776,722662,0
63,3,713870,249348,1569637,74557,9766,783789,0
63,-1,642201,220486,1314615,66401,7260,656673,0
63,3,733856,253320,1436600,77515,11134,717832,0
63,-1,639504,218912,1223953,65717,7829,611595,0
63,3,710848,249000,1510042,74549,9472,754696,0
64,3,707364,247856,1415739,73677,8837,707517,0
64,-1,637176,218369,1207206,65448,7054,603197,0
64,3,727726,252904,1431974,77203,9191,715525,0
64,-1,636921,218975,1233084,65794,7998,616106,0
64,3,731850,253406,1569175,77273,9157,784164,0
64,3,710540,249119,1465874,73992,9559,732564,0
64,-1,638885,219743,1279761,66140,7021,639544,0
64,3,733156,253584,1534380,77211,11311,766805,0
64,3,707383,248893,1456642,73370,9596,727802,0
64,-1,644125,219611,1179014,66023,7917,589150,0
64,3,710231,249114,1323280,74476,9313,661211,0
64,3,714284,249813,1482030,74808,9358,740157,0
64,-1,638410,219264,1232664,65852,7307,615914,0
64,3,713170,249323,1500482,74441,9827,749825,0
64,-1,640134,219527,1367029,65942,8437,683063,0
64,3,706281,247708,1431362,74094,8880,715198,0
65,3,706206,247674,1342556,73612,8175,670800,0
65,-1,645003,221702,1340072,66852,7751,669408,0
65,3,706084,248484,1499780,74037,8783,749398,0
65,-1,637401,219360,1154336,65927,7864,576827,0
65,3,710402,248970,1716900,73993,9895,858087,0
65,3,709281,249218,1694772,74025,11246,847084,0
65,-1,634738,218562,1243626,65806,6946,621263,0
65,3,716460,250359,1527279,74571,9811,762925,0
65,3,709637,250493,1358505,74190,9541,678454,0
65,-1,641237,218844,1172482,65745,7424,585934,0
65,3,731296,252939,1500625,77479,10054,749989,0
65,3,733479,253454,1533369,77666,10374,766098,0
65,-1,635058,218487,1205556,65487,7520,602377,0
65,3,714406,250257,1387492,74936,8988,692618,0
65,-1,639732,219268,1309974,65826,7891,654697,0
65,3,705922,247462,1407333,74038,9113,703535,0
66,3,709643,249304,1462701,74370,9178,730811,0
66,-1,660057,223711,1315037,69030,8638,657138,0
66,3,707617,248568,1413557,73964,9368,706357,0
66,3,704965,247771,1622415,73608,10224,810839,0
66,-1,663229,223670,1274334,69110,9581,636758,0
66,3,711506,250383,1430103,74471,9238,714614,0
66,-1,635173,219000,1309149,65874,7849,654220,0
66,3,712964,248763,1460035,73871,9507,729529,0
66,3,704164,248608,1396297,73241,9323,697798,0
66,-1,644078,219863,1325119,66097,8293,662336,0
66,3,708871,248060,1343739,74026,9712,671511,0
66,3,711580,249167,1340511,74533,9766,669853,0
66,-1,665458,224178,1343949,69248,9487,671618,0
66,3,709074,248582,1469515,74162,9487,734351,0
66,-1,644569,221708,1332818,66864,8439,665911,0
66,3,706498,247804,1345980,74120,9035,672617,0
67,3,706307,248240,1374443,73881,8565,686849,0
67,-1,636706,218405,1138095,65580,6883,568633,0
67,3,710519,249872,1499650,74665,9850,749179,0
67,-1,641382,219091,1233614,65768,8508,616468,0
67,3,711052,250044,1483757,74555,9150,741529,0
67,3,713427,251572,1448139,74909,10614,723564,0
67,-1,638463,219860,1370913,66209,8306,685117,0
67,3,713537,249012,1571474,73834,9782,785376,0
67,3,708707,249311,1472597,73544,9076,735776,0
67,-1,642882,219613,1324718,66028,7742,661995,0
67,3,711831,249481,1420027,74545,10856,709557,0
67,3,713750,250387,1300962,75075,9874,649938,0
67,-1,642877,219861,1251172,65975,7001,625268,0
67,3,713825,249767,1407475,74571,9277,703610,0
67,-1,660189,224478,1313057,69248,8410,656188,0
67,3,709220,249161,1425398,74585,9422,712431,0
68,3,707454,248354,1366001,73906,8377,682270,0
68,-1,636245,218268,1224683,65476,7274,611967,0
68,3,730164,253223,1426652,77346,9814,712896,0
68,-1,643432,220216,1187405,66161,7953,593384,0
68,3,708609,249196,1451914,74103,9201,725537,0
68,3,714128,249797,1444755,74200,9889,721318,0
68,-1,643708,221302,1443954,67037,7946,721386,0
68,3,718664,251434,1430773,74994,9524,714722,0
68,3,708473,250171,1444780,74082,9505,721436,0
68,-1,641736,219500,1512684,66067,9413,755956,0
68,3,711240,248753,1434663,74363,9244,716982,0
68,3,708670,249063,1354655,74483,9386,676874,0
68,-1,644686,220835,1359902,66523,7570,679373,0
68,3,715107,251013,1486505,75266,9987,742755,0
68,-1,641787,219634,1247067,65857,7542,623216,0
68,3,704137,247418,1318810,74007,8644,658965,0
69,3,704050,248112,1452831,73759,8850,725998,0
69,-1,637796,218492,1227213,65567,6901,613180,0
69,3,726486,253142,1668765,77348,10270,834077,0
69,-1,644391,220625,1287710,66475,7905,643284,0
69,3,706545,248327,1391923,73821,9087,695631,0
69,3,711449,250547,1595238,74366,10484,797296,0
69,-1,668379,229618,1380412,69328,8379,689731,0
69,3,709586,248575,1447770,73787,9563,723475,0
69,3,704536,248557,1445877,73301,10042,722606,0
69,-1,640218,219074,1337172,65793,7458,668267,0
69,3,706918,247298,1562046,73775,9636,780701,0
69,3,711454,249445,1486226,74636,9719,742775,0
69,-1,641027,219278,1287523,65785,7913,643373,0
69,3,708921,249056,1410432,74322,9439,704714,0
69,-1,642099,220225,1306402,66117,7533,652840,0
69,3,705171,247486,1367717,74025,9437,683447,0
70,3,704943,249052,1376499,74105,8163,687956,0
70,-1,639707,219172,1347399,65794,7865,673100,0
70,3,709251,249059,1507738,74185,9581,753533,0
70,-1,640732,218964,1319624,65751,7341,659455,0
70,3,713259,251001,1496913,75004,9638,747987,0
70,3,717514,251608,1680132,74944,10516,838717,0
70,-1,634259,218497,1332620,65752,8000,666031,0
70,3,713504,251084,1483316,74882,9943,740902,0
70,3,701577,247670,1430799,72950,10095,714849,0
70,-1,641825,219699,1234765,66056,7636,617029,0
70,3,728562,252379,1518667,77310,10672,758998,0
70,3,714234,250948,1343342,75340,9587,671112,0
70,-1,641842,219838,1211867,66006,7261,605535,0
70,3,716518,250592,1424682,75058,9681,711915,0
70,-1,645319,221385,1302358,66640,8508,650498,0
70,3,709664,249892,1480510,75135,9642,739590,0
71,3,709147,249088,1390884,74060,9892,695000,0
71,-1,637989,218834,1185442,65673,6839,592334,0
71,3,704045,247487,1544942,73736,9243,772149,0
71,-1,644139,220873,1503173,66655,9089,750872,0
71,3,728450,253386,1395273,77309,9638,697197,0
71,3,735160,255213,1544730,77672,10539,771997,0
71,-1,637302,219765,1260732,66135,6840,630045,0
71,3,710984,248171,1544705,73675,9931,771785,0
71,3,705898,249235,1422198,73437,10244,710718,0
71,-1,643975,221017,1321949,66688,7617,660420,0
71,3,710037,248862,1447578,74340,10095,723563,0
71,3,711868,249377,1716209,74438,11300,857671,0
71,-1,661159,224151,1259834,69192,7911,629518,0
71,3,710925,248915,1502963,74341,9728,751104,0
71,-1,641048,220154,1176889,66087,7678,588085,0
71,3,704953,247977,1388742,74282,9072,693755,0
72,3,711557,250132,1364226,74585,9244,681375,0
72,-1,636578,218743,1282894,65515,7316,641024,0
72,3,706828,248698,1357773,74098,9300,678431,0
72,-1,660878,224009,1265019,69189,8314,632132,0
72,3,709470,250197,1419485,74653,9503,709220,0
72,3,711447,249624,1579748,74096,10156,789416,0
72,-1,637098,219151,1365206,66015,7783,682128,0
72,3,710346,248337,1460373,73708,10710,729891,0
72,3,707382,248300,1360288,73218,8922,679628,0
72,-1,642108,219605,1231166,66040,6832,615127,0
72,3,706768,247907,1435911,74039,8985,717574,0
72,3,710802,248546,1527926,74192,10307,762952,0
72,-1,639699,219721,1308165,65892,7783,653622,0
72,3,706951,247952,1447023,73930,9093,723143,0
72,-1,642114,220570,1440857,66143,8718,720147,0
72,3,712894,249707,1437462,74972,9107,718140,0
73,3,708664,248284,1443165,73732,8895,721252,0
73,-1,639252,219847,1315387,66201,7661,657167,0
73,3,703736,247886,1404772,73736,9667,701932,0
73,-1,640906,218705,1321514,65630,8035,660480,0
73,3,713209,250530,1375931,74828,9321,687122,0
73,3,710276,249401,1420970,73932,9760,710210,0
73,-1,637412,219824,1335872,66369,7938,667326,0
73,3,707272,248187,1408449,73645,9404,703837,0
73,3,706090,248624,1578759,73316,9449,789012,0
73,-1,640919,219804,1374779,66117,7224,687018,0
73,3,710454,250115,1363224,75046,9203,680909,0
73,3,707923,247847,1429325,74117,9919,714026,0
73,-1,643965,220155,1441468,66127,7894,720290,0
73,3,712735,249957,1471454,74663,9030,735341,0
73,-1,639402,219759,1374703,65894,8062,687034,0
73,3,705154,247557,1344566,74061,8745,671978,0
74,3,707662,248255,1523946,73751,10109,761580,0
74,-1,636416,218957,1268133,65738,8008,633733,0
74,3,702869,248217,1439641,73836,8619,719034,0
74,-1,645810,221263,1317085,66518,8410,658004,0
74,3,729850,253551,1324718,77339,9471,661934,0
74,3,712172,250306,1478535,74297,9632,738914,0
74,-1,634142,218833,1197885,65927,6834,598433,0
74,3,706224,247900,1349730,73542,8722,674529,0
74,3,733179,257755,1545137,75930,9640,772038,0
74,-1,639319,219081,1239084,65833,6914,619243,0
74,3,707515,248291,1594816,74209,10664,797010,0
74,3,713487,250071,1404926,75143,9877,701521,0
74,-1,644551,220752,1332664,66563,7900,665689,0
74,3,716687,251403,1389197,75449,9964,694059,0
74,-1,641422,220003,1444700,65983,8109,722043,0
74,3,705844,247869,1393232,74198,9140,695698,0
75,3,707973,249028,1549373,74258,9296,774208,0
75,-1,641092,218854,1325749,65709,8265,662483,0
75,3,706936,247970,1335129,73853,9040,667195,0
75,-1,642355,219835,1193094,65957,7548,596209,0
75,3,711512,250011,1407370,74496,9097,702871,0
75,3,713967,250904,1433003,74549,9675,715889,0
75,-1,634613,219101,1328754,65960,7724,663834,0
75,3,707083,248266,1364032,73614,8747,681740,0
75,3,704557,247927,1510930,73078,9623,754982,0
75,-1,643481,221159,1314270,66749,7552,656541,0
75,3,709266,248157,1416713,74139,9534,708051,0
75,3,729584,253058,1537276,77590,11606,768196,0
75,-1,640855,219432,1274644,65854,7486,636930,0
75,3,712409,250553,1372418,75047,10329,685650,0
75,-1,661759,224911,1342973,69392,8450,671194,0
75,3,704594,247716,1563391,74070,9791,781370,0
76,3,705162,248167,1346638,73758,8324,673094,0
76,-1,645659,221039,1417182,66782,8296,707846,0
76,3,711015,249966,1531908,74708,10027,765164,0
76,-1,641327,219657,1313575,65846,7353,656585,0
76,3,710867,249927,1550602,74340,9554,774988,0
76,3,731964,254817,1544114,77574,10857,771760,0
76,-1,634986,218969,1229095,65913,7816,614106,0
76,3,705277,248047,1469648,73599,9835,734495,0
76,3,704124,248145,1423157,73060,9067,711186,0
76,-1,640427,219465,1335861,65997,7913,667507,0
76,3,716099,250690,1407716,75265,9191,703289,0
76,3,706025,248176,1437832,74128,10166,718470,0
76,-1,640077,219726,1200017,65995,6751,599513,0
76,3,709135,249058,1369207,74373,9895,684441,0
76,-1,637329,219314,1268307,65752,7675,633827,0
76,3,704869,247627,1586506,74059,9948,792415,0
77,3,706155,248875,1343691,73990,9007,671543,0
77,-1,640906,219386,1242930,65997,8136,621051,0
77,3,704303,248425,1491431,73968,9423,745235,0
77,-1,641640,219762,1494278,65908,9688,746181,0
77,3,705825,248853,1357777,74080,8549,678180,0
77,3,716686,250802,1614942,74434,10820,807122,0
77,-1,639911,219197,1213452,66047,7646,606157,0
77,3,711715,250547,1456730,74541,9838,727747,0
77,3,705844,248368,1368050,73203,9197,683524,0
77,-1,642725,219629,1248436,66047,7393,623937,0
77,3,708461,248163,1516301,74105,8944,758115,0
77,3,707364,249305,1350512,74710,9059,674634,0
77,-1,636747,218808,1268451,65609,6664,633844,0
77,3,709187,249372,1306680,74430,9612,653089,0
77,-1,645435,220290,1325245,66061,8167,662297,0
77,3,727972,253355,1447667,77773,10114,723368,0
78,3,708645,249517,1447438,74531,9498,723214,0
78,-1,642052,219505,1262272,66027,7178,630746,0
78,3,704974,248011,1386884,73869,9236,692967,0
78,-1,647169,222083,1399510,66987,8279,698974,0
78,3,706679,248845,1412155,73940,8571,705723,0
78,3,711298,249138,1534759,73823,11006,767072,0
78,-1,639050,218870,1217488,65865,7791,608464,0
78,3,707041,247926,1463025,73597,9868,730907,0
78,3,702417,247915,1481789,73045,9606,740455,0
78,-1,641835,219446,1270651,65997,7588,634969,0
78,3,711841,248854,1716521,74386,10127,857680,0
78,3,706317,247626,1353786,73821,8748,676574,0
78,-1,638717,219572,1270798,65913,7026,634916,0
78,3,738792,253686,1564655,77658,10791,781911,0
78,-1,643966,219779,1571471,65903,8870,785391,0
78,3,705879,248412,1343239,74348,8353,671343,0
79,3,704986,247565,1426557,73573,9167,712950,0
79,-1,641797,219844,1332452,66352,7475,665675,0
79,3,704564,248041,1376835,73852,9498,687911,0
79,-1,639324,219424,1550507,65791,9079,774642,0
79,3,709586,250525,1554261,74841,10254,776749,0
79,3,713103,250344,1538634,74317,10705,768886,0
79,-1,639589,219416,1212605,66065,7346,605632,0
79,3,710335,249264,1481536,73974,10671,740380,0
79,3,705675,249140,1414091,73464,9125,706611,0
79,-1,640636,219320,1317768,65856,7597,658522,0
79,3,707039,248078,1394288,74123,9195,696798,0
79,3,704739,248060,1435716,73978,9579,717354,0
79,-1,638052,219357,1194254,65777,6730,596905,0
79,3,714999,248899,1493986,74308,9258,746533,0
79,-1,648564,221556,1271897,66502,8780,635570,0
79,3,705114,248476,1658531,74372,10023,828837,0
80,3,705796,248298,1456432,73794,8934,727740,0
80,-1,637912,218321,1218357,65614,7283,608809,0
80,3,725550,253132,1345783,77327,10103,672336,0
80,-1,640774,219920,1331380,65927,7991,665357,0
80,3,706659,248746,1435854,73906,8764,717626,0
80,3,717289,251508,1618587,74860,10683,808770,0
80,-1,642024,220655,1260441,66757,8180,629554,0
80,3,709321,248542,1463511,73667,9047,731515,0
80,3,709471,250148,1544437,73997,9284,771676,0
80,-1,641962,219169,1264134,65880,7375,631648,0
80,3,706931,248362,1432770,74152,9736,715943,0
80,3,719831,249965,1378446,74792,9992,688532,0
80,-1,664679,228921,1376699,68657,7269,687954,0
80,3,717324,249983,1487368,74792,9649,742998,0
80,-1,645830,220894,1193429,66290,8382,596322,0
80,3,715945,247907,1335795,74092,9913,667595,0
81,3,703747,248059,1440322,73737,9096,719814,0
81,-1,639195,219307,1316738,65958,7510,657959,0
81,3,709576,249602,1390219,74369,9232,694708,0
81,-1,642164,219479,1254898,65801,7512,627064,0
81,3,726961,252964,1515812,77059,9253,757485,0
81,3,711876,249801,1566754,74092,10106,783080,0
81,-1,639228,219397,1337341,66093,7640,668272,0
81,3,709066,248617,1439867,73682,9685,719815,0
81,3,707285,249171,1537493,73479,8618,768023,0
81,-1,646328,221569,1448449,67014,8515,723297,0
81,3,713796,249959,1350391,75014,9286,674578,0
81,3,714426,248285,1430505,74014,10928,714655,0
81,-1,641673,219492,1314191,65802,7504,656702,0
81,3,734861,253851,1580046,77641,10765,789634,0
81,-1,643032,220390,1155685,66140,7376,577426,0
81,3,713351,247437,1561182,74032,9979,780362,0
82,3,712139,250850,1521678,74883,10230,760029,0
82,-1,638212,219366,1333390,65921,7421,666348,0
82,3,704575,248689,1408513,74087,9099,703636,0
82,-1,661231,224286,1311233,69181,8106,655366,0
82,3,706446,249093,1738152,74078,10816,868696,0
82,3,714607,251573,1576016,74909,10500,787482,0
82,-1,639192,219567,1361879,66077,7927,680573,0
82,3,713287,250874,1346795,74744,10186,672861,0
82,3,703790,248729,1389798,73370,9164,694338,0
82,-1,662031,224495,1286824,69431,8065,643112,0
82,3,708650,248293,1298470,74136,9223,649011,0
82,3,734477,253269,1543125,77497,11018,771162,0
82,-1,642602,220267,1209135,66230,7219,604170,0
82,3,715514,248794,1420992,74279,8751,710406,0
82,-1,645619,220132,1148717,66101,7479,574130,0
82,3,712526,247493,1536261,74021,9986,767692,0
83,3,703702,248545,1244450,73919,8857,621757,0
83,-1,638328,218690,1297040,65647,7167,648138,0
83,3,704065,248968,1341541,74089,9048,670358,0
83,-1,641679,220109,1576004,66069,9234,787187,0
83,3,704914,249034,1454915,73994,8621,727152,0
83,3,731086,254405,1471199,77403,10465,735252,0
83,-1,638475,219365,1210502,66015,7141,604862,0
83,3,712852,249201,1554447,73872,10040,776841,0
83,3,704192,247767,1387069,72988,8654,693168,0
83,-1,639069,219304,1291186,65840,7629,645260,0
83,3,706962,248114,1547119,74148,11091,773176,0
83,3,717200,249547,1452166,74673,9660,725362,0
83,-1,640371,219561,1251768,65965,7805,625519,0
83,3,713792,248996,1751524,74299,10659,875382,0
83,-1,643467,219723,1245869,65975,7907,622296,0
83,3,713546,247649,1774346,74048,10167,885765,0
84,3,703811,247970,1378352,73660,9550,688744,0
84,-1,639600,219579,1245987,65967,7035,622601,0
84,3,701325,247863,1426584,73773,9191,712873,0
84,-1,639446,219428,1276949,65834,8065,638112,0
84,3,707788,249543,1420592,74199,9119,709940,0
84,3,708620,249567,1476162,74042,10153,737782,0
84,-1,640013,219589,1347169,66137,7508,673086,0
84,3,714468,250268,1468799,74450,9356,733951,0
84,3,724085,252963,1503018,76505,9880,751083,0
84,-1,640019,219222,1299651,65865,7134,649498,0
84,3,708011,248213,1429291,74146,8709,714242,0
84,3,714440,248616,1479486,74183,10222,739339,0
84,-1,661685,224574,1307290,69408,8202,653271,0
84,3,734671,253891,1540025,77692,9509,769715,0
84,-1,640762,219766,1198794,66023,6896,598800,0
84,3,718314,250175,1579486,75200,9849,789076,0
85,3,706292,250083,1378669,74555,8820,688886,0
85,-1,636906,218597,1257898,65683,7476,628485,0
85,3,715660,248709,1564119,74118,9967,781577,0
85,-1,642371,219883,1194478,65913,7194,596937,0
85,3,705673,248705,1379243,73938,9050,689204,0
85,3,708902,249671,1541435,74072,11620,770356,0
85,-1,639474,219747,1276090,66159,7563,637725,0
85,3,708815,248766,1471714,73759,8997,735509,0
85,3,702102,248022,1344463,73023,8776,671932,0
85,-1,642135,220865,1253304,66667,7522,625886,0
85,3,706184,248152,1735119,74052,9997,867242,0
85,3,716874,250169,1343017,74989,9635,670824,0
85,-1,640503,219418,1235726,65931,6837,617439,0
85,3,711065,248420,1463670,74119,8759,731511,0
85,-1,641255,219230,1327846,65816,8719,663509,0
85,3,712609,248078,1485729,74274,10010,743169,0
86,3,716617,250582,1491877,74808,10094,745145,0
86,-1,637048,218712,1315252,65639,7281,657078,0
86,3,716608,249139,1470423,74220,9864,734739,0
86,-1,647783,222416,1338788,67065,8188,668836,0
86,3,727925,253462,1472123,77320,9348,735699,0
86,3,715741,252897,1408079,75490,10625,703502,0
86,-1,637876,219453,1250290,66092,7686,624724,0
86,3,707663,248545,1330886,73660,8878,665137,0
86,3,708898,250348,1406477,74043,9197,702614,0
86,-1,659143,224036,1265591,69257,8040,632401,0
86,3,726483,252749,1525234,77436,9777,762244,0
86,3,733651,253105,1547627,77426,10868,773446,0
86,-1,639035,219357,1237049,65965,6897,618068,0
86,3,721120,250540,1423497,75019,9466,711125,0
86,-1,641071,219823,1325222,65963,8026,662270,0
86,3,711003,247730,1452289,74040,9753,725274,0
87,3,709150,247738,1331614,73574,8716,665433,0
87,-1,640871,219385,1195202,65857,7125,597125,0
87,3,718881,250300,1619979,74877,10621,808673,0
87,-1,646301,221794,1408847,66857,10251,703941,0
87,3,708129,250345,1374579,74701,9340,686665,0
87,3,731797,254435,1403382,77431,10079,701053,0
87,-1,634970,218759,1231950,65767,7681,615646,0
87,3,713642,249723,1541735,74193,10299,770363,0
87,3,704443,248399,1511392,73241,8541,755372,0
87,-1,643729,220723,1347545,66417,8528,673347,0
87,3,704408,248193,1454879,74197,9401,727064,0
87,3,712499,248941,1375064,74278,9300,687075,0
87,-1,641679,220900,1360593,66621,6953,679670,0
87,3,717553,249633,1449833,74546,9321,724597,0
87,-1,640906,220044,1207639,66141,7250,603484,0
87,3,715438,248228,1418789,74337,9292,708975,0
88,3,709028,248043,1460564,73622,8818,729964,0
88,-1,641873,220208,1258747,66297,7288,628660,0
88,3,733808,252767,1551216,77198,10668,774727,0
88,-1,639712,219727,1300401,65980,7978,649391,0
88,3,718394,250808,1371046,74967,10219,684678,0
88,3,707979,249652,1434740,74077,9445,717009,0
88,-1,634379,218904,1273116,65921,7483,636205,0
88,3,709305,248898,1422447,73772,9678,710881,0
88,3,702186,248024,1479923,73064,9033,739514,0
88,-1,638888,219281,1178938,65901,7316,589171,0
88,3,708862,247486,1450802,73887,9755,725035,0
88,3,710427,247962,1450830,73953,9724,725016,0
88,-1,637484,219254,1377155,65853,7096,688198,0
88,3,713750,248834,1371206,74289,8584,684987,0
88,-1,640756,220109,1370078,66048,8466,684631,0
88,3,711116,247153,1332449,73863,9508,665898,0
89,3,716356,250754,1480995,74701,9213,739943,0
89,-1,636595,218023,1255531,65520,7759,627226,0
89,3,713414,248591,1471217,74052,9413,734945,0
89,-1,636737,219046,1183564,65782,7460,591415,0
89,3,712161,248999,1482441,74085,9573,740820,0
89,3,707196,250020,1533349,74241,10666,766522,0
89,-1,636394,219518,1254209,66075,7675,626531,0
89,3,713865,251232,1426538,74826,9931,712742,0
89,3,706760,250161,1406903,73985,8705,702806,0
89,-1,642648,220789,1219894,66606,7634,609421,0
89,3,709830,248566,1505026,74274,9923,752164,0
89,3,718363,249585,1365080,74817,9109,681994,0
89,-1,639605,219656,1249127,65940,7458,624184,0
89,3,712322,248625,1453618,74191,9906,726362,0
89,-1,663215,223760,1320238,69055,8443,660028,0
89,3,718850,250411,1427845,75279,10092,713344,0
90,3,709560,248248,1378757,73709,8894,689041,0
90,-1,636667,218382,1237706,65535,7289,618528,0
90,3,729063,252554,1350586,77132,10708,674758,0
90,-1,643968,222461,1303200,67079,8058,651001,0
90,3,717968,250640,1470465,74890,9563,734814,0
90,3,738949,254511,1426393,77447,10365,712933,0
90,-1,637938,218865,1272039,65858,7416,635621,0
90,3,730061,253682,1421195,77060,10376,710203,0
90,3,699634,247976,1444636,73053,8406,721865,0
90,-1,636988,219209,1160032,65862,7310,579647,0
90,3,705368,247917,1462668,74047,10045,730847,0
90,3,712216,247672,1548701,73943,9986,773763,0
90,-1,660408,224015,1284032,69287,8429,641493,0
90,3,713730,248888,1459699,74264,10167,729709,0
90,-1,642692,219965,1261037,66022,7429,630215,0
90,3,714489,248284,1461025,74314,10054,730234,0
91,3,714554,249771,1495675,74419,9641,747194,0
91,-1,641592,220424,1299949,66470,7243,649229,0
91,3,711739,247712,1329375,73748,9132,664144,0
91,-1,644409,219257,1240694,65800,7503,620004,0
91,3,711042,248912,1445769,74071,9065,722457,0
91,3,718611,250439,1446774,74340,10135,723016,0
91,-1,640767,220940,1348397,66743,8612,673578,0
91,3,707617,248621,1427985,73601,9425,712446,0
91,3,737150,253116,1607076,76988,9934,803201,0
91,-1,646127,221183,1219404,66844,7184,609126,0
91,3,708246,248405,1604568,74179,10599,801936,0
91,3,714346,248568,1477900,74272,9318,738176,0
91,-1,638441,219627,1234558,65993,7563,616890,0
91,3,719200,251703,1428967,75535,10272,713304,0
91,-1,644411,220441,1605062,66235,9609,802111,0
91,3,712793,247941,1544936,74155,10383,771997,0
92,3,710703,248681,1543567,73874,9727,771348,0
92,-1,657227,222935,1290580,68844,8294,644829,0
92,3,716095,249786,1387533,74644,10557,693147,0
92,-1,642570,218605,1317548,65594,8225,658470,0
92,3,710095,248500,1492103,73896,8652,745673,0
92,3,718791,250119,1501377,74253,10064,750349,0
92,-1,638728,219479,1284624,66103,7868,641555,0
92,3,708647,249614,1342335,73967,9031,670448,0
92,3,720331,250380,1312752,74479,9308,655842,0
92,-1,662720,224019,1212668,69272,7720,606042,0
92,3,704061,248004,1468621,74110,10047,733854,0
92,3,713414,248180,1490742,74177,9686,744190,0
92,-1,638007,219705,1257306,66084,7714,628264,0
92,3,711508,248811,1451860,74226,9607,725484,0
92,-1,646534,221665,1322880,66790,8106,660919,0
92,3,712404,247588,1261897,74023,9341,630639,0
93,3,707464,247864,1349357,73594,8767,674320,0
93,-1,636146,218609,1193722,65605,7239,596507,0
93,3,715853,250236,1479390,74849,10265,738835,0
93,-1,643840,219362,1199615,65897,7398,599421,0
93,3,730468,253507,1384993,77346,9479,692169,0
93,3,717168,250381,1442061,74328,9945,720620,0
93,-1,636215,219030,1299003,65905,7637,648554,0
93,3,716060,248459,1394934,73535,8930,696730,0
93,3,714446,248565,1359886,73717,8238,679581,0
93,-1,643550,220487,1281249,66331,7759,640262,0
93,3,710105,247654,1342630,73975,9879,670984,0
93,3,735002,252722,1536931,77416,10778,768045,0
93,-1,635827,218684,1244908,65673,7950,622109,0
93,3,713256,249859,1528360,74621,10217,763680,0
93,-1,643087,219850,1329251,65927,8313,664294,0
93,3,712423,248539,1300646,74413,8840,649955,0
94,3,711074,248677,1437417,73869,8947,718243,0
94,-1,635156,218299,1308198,65544,7149,653647,0
94,3,711444,248241,1358428,73933,9823,678756,0
94,-1,647254,220978,1348764,66586,8053,673863,0
94,3,708190,247986,1408487,73793,8798,703918,0
94,3,735094,254381,1346652,77433,9736,672907,0
94,-1,639797,220871,1419515,66764,8212,708557,0
94,3,739429,254258,1519506,77263,10453,759042,0
94,3,713359,248272,1440318,73558,8936,719409,0
94,-1,638778,218703,1319016,65675,7110,659156,0
94,3,713622,248560,1451769,74275,9788,725511,0
94,3,710702,247850,1495830,74003,9736,747568,0
94,-1,654949,223653,1305795,69122,7983,652404,0
94,3,736133,253120,1550221,77421,11465,774797,0
94,-1,642850,220357,1215921,66157,7348,607647,0
94,3,712054,248603,1441415,74363,10131,719805,0
95,3,708938,248103,1323507,73652,8158,661367,0
95,-1,637618,219579,1236963,66024,6366,618043,0
95,3,710132,247821,1552402,73863,10194,775650,0
95,-1,640927,218855,1231397,65790,7950,615360,0
95,3,708812,248959,1384750,74065,8667,692037,0
95,3,715808,251022,1410798,74518,10135,705002,0
95,-1,635618,219047,1350219,65969,7898,673938,0
95,3,715237,248996,1507382,73739,10619,753482,0
95,3,717724,250154,1397122,74398,9353,697796,0
95,-1,641561,219725,1470267,66123,9164,734576,0
95,3,708749,247672,1481335,73910,9576,740291,0
95,3,713946,248712,1579781,74202,9501,789481,0
95,-1,642967,219378,1398235,65890,7737,698760,0
95,3,714842,249361,1491006,74466,9507,745013,0
95,-1,645791,221702,1303343,66881,7818,651096,0
95,3,710995,248059,1451997,74267,10057,725622,0
96,3,713174,250166,1428909,74565,8994,713756,0
96,-1,636933,219999,1347201,66209,6740,672928,0
96,3,710963,248613,1474855,74003,9160,737206,0
96,-1,642112,218939,1446068,65819,7957,722622,0
96,3,714000,250271,1431294,74720,9009,715096,0
96,3,719364,250068,1442795,74163,8835,720901,0
96,-1,641509,221414,1327122,67002,8803,662890,0
96,3,713435,248615,1423018,73591,9662,711199,0
96,3,711774,248093,1438862,73489,8420,718997,0
96,-1,644525,220710,1299534,66611,7040,649306,0
96,3,713123,248715,1359695,74290,8755,679510,0
96,3,708792,247724,1468255,73908,9413,733791,0
96,-1,643309,219366,1236091,65960,7586,617603,0
96,3,717751,250711,1420672,75179,9467,709639,0
96,-1,664203,225546,1302954,69638,8613,651161,0
96,3,708206,247418,1320359,73976,9531,659845,0
97,3,729517,252749,1449390,76987,9635,724182,0
97,-1,672286,230901,1231859,68790,7432,615605,0
97,3,732039,253189,1448803,77278,10629,723965,0
97,-1,639423,218256,1176948,65560,6936,588204,0
97,3,709913,248540,1343284,73958,7946,671114,0
97,3,716889,249730,1507364,74130,8840,753278,0
97,-1,635465,219329,1334323,66017,7451,666760,0
97,3,718896,250404,1439428,74403,9736,718771,0
97,3,717532,250580,1504237,74625,9638,751247,0
97,-1,641292,219697,1203531,66118,6892,601475,0
97,3,714969,250438,1721989,75217,11879,860560,0
97,3,740729,258219,1448364,77022,10089,723650,0
97,-1,647614,221000,1390754,66653,9028,694818,0
97,3,713354,248691,1491876,74185,9747,745546,0
97,-1,645581,221352,1395396,66653,7673,697151,0
97,3,714699,250488,1469030,75370,10065,733799,0
98,3,709496,248712,1273134,73906,9059,636036,0
98,-1,713227,243222,1352550,74398,8045,675750,0
98,3,715914,248981,1444813,74140,9189,721957,0
98,-1,662766,223600,1256201,69001,8083,627767,0
98,3,711659,249595,1400877,74277,8866,700107,0
98,3,714947,249870,1333125,74152,8836,666167,0
98,-1,635328,219851,1243914,66224,7542,621531,0
98,3,717047,249907,1409696,74047,9575,704683,0
98,3,717294,249009,1618293,73827,9652,808688,0
98,-1,641349,220017,1300438,66097,6893,649854,0
98,3,708886,248153,1523108,74127,10056,761018,0
98,3,713329,249378,1286901,74597,8958,642655,0
98,-1,643968,220159,1177195,66015,7716,588182,0
98,3,716026,249900,1505440,74784,9230,752195,0
98,-1,642104,220664,1185482,66290,7495,592342,0
98,3,737703,252646,1570692,77500,10982,784955,0
99,3,713079,249511,1354392,74340,9205,676447,0
99,-1,690433,237154,1251187,70734,7173,625164,0
99,3,733308,252699,1649071,77212,9952,823946,0
99,-1,640628,219106,1204145,65783,7032,601784,0
99,3,708760,248490,1326815,73891,8218,663045,0
99,3,714233,249192,1439581,73936,9885,719433,0
99,-1,640672,220448,1359604,66631,8454,679259,0
99,3,713740,248905,1314368,73758,9775,656355,0
99,3,713908,248105,1425721,73524,9322,712388,0
99,-1,639482,219544,1299625,66028,7151,649435,0
99,3,713386,249072,1417812,74452,9852,708556,0
99,3,708473,248048,1378293,73939,9410,688631,0
99,-1,647821,221694,1439302,66835,8221,718253,0
99,3,714487,249411,1430735,74437,9166,714806,0
99,-1,647456,222378,1310240,67091,8229,654533,0
99,3,716668,248806,1336622,74445,8803,667878,0
100,3,708776,248054,1327816,73647,8957,663403,0
100,-1,689618,236974,1342339,70642,7352,670649,0
100,3,712223,248606,1582447,74091,9369,790717,0
100,-1,639060,218862,1274869,65650,7094,637157,0
100,3,713712,249443,1317039,74221,9142,658145,0
100,3,719754,251529,1543836,75082,10668,771326,0
100,-1,638739,218995,1319725,65923,8209,659390,0
100,3,712529,248513,1431203,73553,9926,715223,0
100,3,735488,253351,1542455,77035,9715,770825,0
100,-1,660060,224361,1252782,69387,7269,625933,0
100,3,717355,250771,1385700,75263,9807,691887,0
100,3,709556,247814,1269341,73900,8812,634336,0
100,-1,662423,223998,1419425,69085,8404,709365,0
100,3,716507,250305,1366392,74950,9138,682484,0
100,-1,663343,225385,1255717,69624,8167,627552,0
100,3,711290,247344,1275003,73954,9107,637154,0
101,3,729984,252663,1411794,76953,9540,705473,0
101,-1,692130,238351,1417518,71246,7907,708104,0
101,3,711095,248358,1501900,73949,9213,750498,0
101,-1,648200,221324,1336001,66628,7618,667562,0
101,3,709873,248622,1457824,73996,8707,728577,0
101,3,737805,254912,1539438,77703,10346,769306,0
101,-1,642166,221108,1296383,66848,8463,647570,0
101,3,710073,247897,1358941,73417,9631,679148,0
101,3,714578,249528,1501798,74015,9085,750558,0
101,-1,641816,219374,1194901,65993,7317,597071,0
101,3,712051,247906,1562547,74047,10567,780798,0
101,3,714586,248430,1470678,74217,9254,734904,0
101,-1,643036,219940,1448217,65982,8622,723606,0
101,3,713082,249819,1415082,74578,9349,707073,0
101,-1,639773,219758,1160059,65929,8079,579730,0
101,3,733838,252907,1504556,77570,10322,751980,0
102,3,707634,248334,1329330,73739,8675,664225,0
102,-1,691061,238217,1356442,71069,7799,677705,0
102,3,711898,249133,1459528,74242,8803,729327,0
102,-1,641843,219177,1261718,65714,7383,630489,0
102,3,709703,248799,1362102,73960,8781,680692,0
102,3,713604,249822,1554531,74287,9840,776722,0
102,-1,656514,223419,1269784,69204,8474,634388,0
102,3,713202,248544,1469389,73606,9690,734552,0
102,3,714309,249568,1359204,74164,8457,679008,0
102,-1,643664,220624,1367971,66587,7577,683400,0
102,3,713415,249057,1443621,74451,9368,720962,0
102,3,731743,252732,1504425,77438,10546,751845,0
102,-1,641659,219175,1220630,65906,7393,609921,0
102,3,715180,249337,1481891,74296,9414,740070,0
102,-1,647032,221541,1245550,66475,8082,622313,0
102,3,710245,247677,1368035,74028,8667,683488,0
103,3,707296,247664,1387593,73616,9443,693457,0
103,-1,687673,236997,1336944,70647,6949,668087,0
103,3,731743,252414,1534826,77055,9853,766996,0
103,-1,639948,218950,1246633,65739,7448,622971,0
103,3,711601,250331,1463938,74807,9324,731259,0
103,3,714573,249248,1419130,74109,9725,709287,0
103,-1,640375,219873,1316371,66223,7787,657797,0
103,3,713997,248886,1569616,73710,10022,784449,0
103,3,713756,248656,1431897,73788,9102,715221,0
103,-1,639669,219679,1377774,66059,6906,688553,0
103,3,713398,249529,1390155,74823,9306,694527,0
103,3,731893,252746,1584266,77443,10617,791710,0
103,-1,644782,221226,1397451,66842,8092,698174,0
103,3,712051,249532,1387609,74436,8782,693380,0
103,-1,643794,219956,1391619,65889,9708,695381,0
103,3,710397,247589,1490332,74041,9883,744836,0
104,3,706289,247734,1408889,73657,8603,704036,0
104,-1,692490,237687,1428651,70891,7592,713898,0
104,3,710542,248121,1504449,73928,9700,751189,0
104,-1,647434,221296,1364974,66872,7294,681966,0
104,3,712476,249440,1436824,74217,8767,718056,0
104,3,719259,251747,1478528,75345,9631,738561,0
104,-1,639538,219951,1347684,66210,8049,673510,0
104,3,712418,249150,1478054,73847,10569,738638,0
104,3,712939,248774,1512680,73782,9496,755760,0
104,-1,636660,219039,1392152,65774,8182,695211,0
104,3,710338,248749,1352519,74350,9951,675751,0
104,3,713631,249714,1487583,74857,9881,743170,0
104,-1,661556,223786,1356515,69140,8910,677943,0
104,3,716325,250536,1483434,75072,10445,740924,0
104,-1,643288,220104,1257758,66007,8758,628458,0
104,3,713517,248771,1589664,74347,9914,794551,0
105,3,714306,250082,1565132,74729,9321,781810,0
105,-1,694573,237243,1273851,70700,7896,636526,0
105,3,712029,249001,1378553,74122,9637,688795,0
105,-1,642189,219674,1461560,66155,7820,730452,0
105,3,707308,247822,1518850,73722,8627,758884,0
105,3,717206,249467,1416366,74228,9564,707828,0
105,-1,635170,218922,1326743,65866,7786,662861,0
105,3,710377,248038,1456304,73424,10108,727704,0
105,3,709133,248267,1450482,73647,8997,724730,0
105,-1,644707,221382,1364970,66943,7630,681816,0
105,3,710741,248646,1397097,74336,10817,698171,0
105,3,712377,248030,1343863,74086,9202,671500,0
105,-1,642579,220003,1474108,66169,8455,736630,0
105,3,734139,254212,1572771,77776,11079,785962,0
105,-1,665550,225438,1224063,69548,9259,611650,0
105,3,713368,248121,1713401,74051,9890,855588,0
106,3,730555,252851,1582715,77060,10007,791013,0
106,-1,692023,236678,1374595,70511,7854,686863,0
106,3,713373,249734,1411782,74616,9673,705228,0
106,-1,643436,219672,1290588,66109,7424,645062,0
106,3,710130,248821,1472725,74041,8582,735959,0
106,3,736460,254059,1456086,77517,9520,727613,0
106,-1,637911,219182,1239220,65944,7381,619261,0
106,3,709615,249167,1449866,73868,10466,724548,0
106,3,712323,248054,1337894,73593,9485,668713,0
106,-1,660673,224129,1290017,69298,7917,644565,0
106,3,707920,248091,1444089,74129,9846,721671,0
106,3,716355,250413,1439838,75099,9959,719287,0
106,-1,640637,219683,1247426,66074,7074,623324,0
106,3,713418,249559,1417759,74482,9790,708436,0
106,-1,641890,220019,1251477,66028,8866,625196,0
106,3,712716,248697,1411541,74316,9760,705398,0
107,3,711231,249720,1440582,74423,9265,719604,0
107,-1,693910,237383,1364002,70817,8311,681537,0
107,3,707496,247704,1442175,73748,8727,720652,0
107,-1,643515,220047,1195140,66223,6824,597205,0
107,3,710055,248979,1448597,74047,8499,723982,0
107,3,714176,249191,1377992,74158,8375,688482,0
107,-1,658696,224108,1308368,69418,8715,653737,0
107,3,715531,248504,1644230,73645,9949,821736,0
107,3,713234,249125,1340616,73959,9377,669824,0
107,-1,637977,219243,1319293,65959,7150,659294,0
107,3,707482,247979,1511984,74036,10206,755557,0
107,3,712311,248678,1498537,74193,9099,748872,0
107,-1,639605,219614,1230015,66062,7220,614482,0
107,3,710455,248692,1446367,74164,9794,722750,0
107,-1,641766,219707,1217179,65807,7780,608090,0
107,3,713461,248257,1357393,74160,9366,678159,0
108,3,708221,248142,1349795,73690,8163,674512,0
108,-1,692414,236993,1396405,70624,8231,697709,0
108,3,729861,253178,1418957,77328,9716,709010,0
108,-1,644457,220485,1213922,66600,7867,606478,0
108,3,713526,250958,1440793,75009,8864,719826,0
108,3,714693,249684,1495249,74292,9496,747266,0
108,-1,635539,219173,1290531,65905,7821,644944,0
108,3,721684,251434,1478684,75010,10233,738583,0
108,3,715694,249481,1569052,74043,10686,784113,0
108,-1,636543,218812,1298963,65729,7299,649278,0
108,3,745887,259585,1594689,77874,10452,796661,0
108,3,711534,248227,1345220,73998,8775,672218,0
108,-1,639812,218809,1194240,65767,7340,596647,0
108,3,711442,249421,1495721,74401,10231,747482,0
108,-1,646236,222089,1228604,66879,8607,613466,0
108,3,714405,249400,1495029,74461,9644,746694,0
109,3,710807,249786,1428983,74535,8972,713725,0
109,-1,715009,241980,1297844,74093,9862,648497,0
109,3,711509,248577,1559435,74062,9391,779306,0
109,-1,639792,219005,1164338,65811,6769,581972,0
109,3,708376,249415,1462184,74164,7970,730753,0
109,3,718384,251056,1527985,75001,9426,763380,0
109,-1,634898,218961,1237902,65957,7672,618526,0
109,3,719293,250978,1417547,74751,10075,708264,0
109,3,714493,249274,1442216,74160,9991,720276,0
109,-1,639819,219345,1292890,65922,7834,646154,0
109,3,711354,248597,1311296,74313,9001,655244,0
109,3,729123,252259,1552511,77130,10598,776153,0
109,-1,641538,219952,1316582,66073,7955,657906,0
109,3,715403,251247,1451966,75234,9695,724888,0
109,-1,641092,220205,1311165,65993,9092,655220,0
109,3,711846,248490,1427416,74199,9217,712792,0
110,3,709369,247692,1379449,73568,9156,689331,0
110,-1,694935,237641,1249111,70849,8695,624192,0
110,3,710382,248181,1533748,73881,9904,766384,0
110,-1,641944,220260,1242158,66211,6900,620842,0
110,3,706036,248356,1377028,73799,8171,688159,0
110,3,714937,250090,1481104,74473,9069,740096,0
110,-1,638107,219818,1370112,66435,7993,684488,0
110,3,713661,249001,1554642,73869,9760,776844,0
110,3,714313,248532,1492154,73772,10095,745708,0
110,-1,638345,219065,1228779,65820,7678,614061,0
110,3,709527,248011,1451212,74111,9475,725109,0
110,3,709360,248295,1448578,74067,8758,723909,0
110,-1,639196,219434,1555231,65900,8001,777335,0
110,3,715881,249312,1448204,74225,10448,723653,0
110,-1,644227,220279,1420401,66015,8184,709908,0
110,3,711841,249239,1418855,74557,9320,708941,0
111,3,708250,248365,1349373,73760,8078,674424,0
111,-1,693355,237086,1375823,70628,8370,687570,0
111,3,711050,248786,1375411,74091,8870,687209,0
111,-1,639731,219269,1223774,65831,6491,611569,0
111,3,713446,249829,1491680,74284,8533,745512,0
111,3,712927,249461,1401581,74228,9332,700427,0
111,-1,634228,218771,1261739,65889,7766,630383,0
111,3,711373,248454,1534134,73692,9561,766805,0
111,3,716755,250531,1510068,74740,9306,754401,0
111,-1,638826,219854,1194670,66160,6963,596839,0
111,3,715146,250631,1424401,75303,9368,711368,0
111,3,707917,248110,1362203,73990,9216,680660,0
111,-1,662026,223867,1357331,69140,8428,678561,0
111,3,716009,250170,1393672,74596,9382,696461,0
111,-1,645564,222007,1366723,66793,8217,682902,0
111,3,714063,249174,1456223,74400,9663,727756,0
112,3,781166,273445,1484928,80780,9059,742046,0
112,-1,694072,237807,1238652,70889,7909,618952,0
112,3,732521,253490,1427714,77439,10345,713548,0
112,-1,637968,219057,1261742,65784,6543,630575,0
112,3,710386,249926,1360669,74408,8272,679919,0
112,3,713810,249569,1358107,74219,9439,678570,0
112,-1,637475,220055,1356601,66289,9054,677850,0
112,3,738943,257696,1508233,76368,10380,753741,0
112,3,712390,248432,1608594,73722,9964,803979,0
112,-1,639633,220673,1389187,66590,7615,694055,0
112,3,706265,247563,1514194,73854,10288,756817,0
112,3,709824,248593,1464120,74145,9803,731483,0
112,-1,642728,220237,1347259,66256,8389,673083,0
112,3,713865,249277,1518329,74285,9610,758749,0
112,-1,639728,219917,1337880,65838,8095,668553,0
112,3,710863,248870,1490769,74271,9645,745028,0
113,3,758423,266402,1431868,78718,8112,715502,0
113,-1,691495,237249,1311318,70755,7866,655229,0
113,3,709787,248824,1383369,74155,9076,691048,0
113,-1,638733,219209,1226067,65818,6998,612683,0
113,3,711129,249847,1336572,74303,8381,667989,0
113,3,734323,254156,1446631,77457,9213,723108,0
113,-1,632023,218405,1293484,65652,7544,646335,0
113,3,711699,248837,1529542,73910,10510,764378,0
113,3,716185,249976,1372499,74418,9597,685696,0
113,-1,637995,218639,1274017,65644,7235,636711,0
113,3,708186,248759,1523348,74344,9297,761191,0
113,3,711255,249869,1389971,74866,9982,694196,0
113,-1,640393,219642,1297527,66001,7380,648428,0
113,3,721279,251283,1413725,75171,10651,706362,0
113,-1,641207,220578,1372702,66131,8546,686025,0
113,3,717410,248716,1452843,74127,10516,726053,0
114,3,770477,268788,1585983,79725,10360,792285,0
114,-1,691140,237199,1247943,70683,7214,623580,0
114,3,711755,250134,1529183,74743,9532,764037,0
114,-1,656616,223100,1287610,68958,8075,643378,0
114,3,713482,250766,1454131,74918,9976,726508,0
114,3,712240,249720,1400371,74268,8921,699802,0
114,-1,640207,220121,1292647,66301,7751,645858,0
114,3,712346,249485,1603094,73998,10187,801142,0
114,3,712616,248649,1495582,73741,10058,747439,0
114,-1,642398,220381,1379705,66444,8312,689231,0
114,3,714357,249866,1414064,74890,10250,706470,0
114,3,711755,247236,1458894,73717,9910,729095,0
114,-1,640806,219634,1335337,66079,7628,667207,0
114,3,713719,248669,1369011,74156,10108,684051,0
114,-1,642225,220680,1282951,66217,8382,641105,0
114,3,715572,248760,1425559,74149,10054,712154,0
115,3,762655,266918,1435779,78934,8945,717345,0
115,-1,694734,237851,1353534,70979,8516,676327,0
115,3,708789,247813,1528196,73720,9224,763706,0
115,-1,640652,218206,1316497,65639,8166,657949,0
115,3,728941,253618,1333271,77369,9631,666282,0
115,3,712887,250370,1322554,74406,8350,660856,0
115,-1,638629,219901,1303160,66183,8017,651236,0
115,3,712305,248805,1496304,73836,9885,747878,0
115,3,711113,248045,1442701,73550,9691,720886,0
115,-1,644119,220190,1263951,66250,7770,631636,0
115,3,713435,249410,1335531,74546,9553,667291,0
115,3,716556,250428,1614270,75062,10517,806319,0
115,-1,642562,220751,1306833,66612,8451,652423,0
115,3,714355,248975,1371159,74126,9840,685242,0
115,-1,643607,221611,1301227,66438,8659,650234,0
115,3,736770,253845,1535579,77648,11073,767400,0
116,3,767863,267723,1487472,79323,10095,743103,0
116,-1,692356,237429,1315974,70760,7315,657590,0
116,3,709246,248313,1429019,73944,8983,714043,0
116,-1,643234,219554,1307853,66083,7686,653641,0
116,3,707050,249180,1318849,74095,8977,659049,0
116,3,713744,249736,1361684,74217,9235,680534,0
116,-1,634917,219104,1185791,65919,7967,592383,0
116,3,731844,253459,1542448,77249,10512,770796,0
116,3,710844,248194,1436388,73610,9710,717477,0
116,-1,640876,219354,1381670,65905,8524,690491,0
116,3,709646,248895,1419946,74404,10404,709441,0
116,3,711971,248585,1456960,74181,8815,727641,0
116,-1,639904,219197,1402296,65823,7721,700722,0
116,3,713122,249337,1379310,74331,9257,689065,0
116,-1,642170,220414,1282726,66101,7978,641074,0
116,3,714983,249015,1326094,74258,9931,662343,0
117,3,760637,266017,1385348,78573,9362,692319,0
117,-1,712690,241690,1464349,73918,9243,731507,0
117,3,715693,251229,1479155,75180,9453,738913,0
117,-1,642760,219712,1442283,66349,8105,720540,0
117,3,706448,248588,1380806,73957,9149,690055,0
117,3,734895,254173,1431906,77437,10021,715608,0
117,-1,638642,220192,1245467,66336,8590,622297,0
117,3,710310,249049,1454925,74006,9713,727167,0
117,3,732761,253121,1516811,77059,10391,757994,0
117,-1,645451,221925,1391530,67042,8117,695256,0
117,3,710611,249348,1422690,74543,9894,710970,0
117,3,713120,248299,1474837,74104,9478,736968,0
117,-1,643850,221465,1317466,66923,7582,657790,0
117,3,714909,249924,1458003,74471,9739,728713,0
117,-1,641082,221090,1378992,66308,9079,689207,0
117,3,713279,248901,1342407,74240,10052,670602,0
118,3,769885,269950,1410531,80198,10012,704504,0
118,-1,697791,239705,1386438,71807,8294,692624,0
118,3,712992,250495,1482826,74861,9790,740729,0
118,-1,640752,218832,1181479,65767,7048,590436,0
118,3,705244,248341,1400912,73814,9262,700128,0
118,3,712532,249291,1424547,74064,9246,711933,0
118,-1,660435,227648,1253054,68466,7762,626035,0
118,3,716735,250014,1457766,74524,9836,728505,0
118,3,709589,248082,1547796,73558,10321,773559,0
118,-1,640544,219630,1595670,66055,9598,795814,0
118,3,707906,248445,1504889,74245,9415,752120,0
118,3,710316,248074,1443214,73936,9994,721185,0
118,-1,657434,223573,1258790,69154,7327,628745,0
118,3,715764,250234,1359961,74777,8334,679391,0
118,-1,639573,220370,1423405,66106,8905,711420,0
118,3,716282,248975,1453584,74216,10082,726351,0
119,3,766197,268221,1573539,79443,9257,786167,0
119,-1,714451,242211,1423186,74129,8626,711101,0
119,3,706950,248810,1421290,74174,9453,710223,0
119,-1,643154,220444,1311631,66589,7672,655230,0
119,3,706836,249429,1370106,74261,8879,684634,0
119,3,712278,248572,1440054,73932,9461,719617,0
119,-1,635692,219792,1221718,66231,8691,610194,0
119,3,714055,249194,1349944,74129,9346,674609,0
119,3,714377,250120,1547875,74475,9641,773336,0
119,-1,643626,220818,1297745,66587,8013,647921,0
119,3,705807,247891,1489948,74035,9422,744558,0
119,3,713671,248088,1345109,74059,9963,672161,0
119,-1,638715,220016,1326310,66188,7697,662683,0
119,3,713842,249478,1437970,74326,9255,718369,0
119,-1,639489,219997,1220100,65943,7862,609753,0
119,3,720203,251289,1504576,75304,10093,751774,0
120,3,769327,268767,1495929,79681,9715,747304,0
120,-1,690569,237159,1417964,70671,7610,708655,0
120,3,719375,250816,1500226,74979,10102,749406,0
120,-1,636245,218160,1303649,65493,7720,651438,0
120,3,717038,250711,1536565,74903,9597,767648,0
120,3,710623,248923,1474590,74020,9331,736834,0
120,-1,631560,218246,1239780,65623,8595,619456,0
120,3,712255,249204,1614254,74065,10238,806824,0
120,3,708406,248406,1454194,73730,10049,726789,0
120,-1,638554,219230,1297406,65887,7825,647431,0
120,3,706500,248349,1492205,74125,9992,745850,0
120,3,713654,248630,1381327,74258,10030,690197,0
120,-1,640628,219298,1213166,65922,7461,606140,0
120,3,720344,251881,1449735,75581,10722,724082,0
120,-1,640843,220598,1167143,66172,8197,583235,0
120,3,744366,259306,1551274,77531,10283,775031,0
121,3,762406,266475,1495940,78778,9516,747446,0
121,-1,695114,239184,1457068,71559,8346,727811,0
121,3,711205,248335,1296160,73936,8611,647638,0
121,-1,641606,220601,1309196,66731,8042,653847,0
121,3,711497,248840,1680753,74038,10555,840008,0
121,3,711019,249645,1556242,74260,9086,777788,0
121,-1,639648,220772,1353745,66716,8396,676210,0
121,3,709881,248562,1444490,73859,9312,721991,0
121,3,733628,252116,1489784,76680,10318,744620,0
121,-1,644215,221564,1501253,66948,8428,749261,0
121,3,710092,250294,1360427,75151,9532,679598,0
121,3,712054,248348,1380146,74116,9747,689545,0
121,-1,641407,219019,1267445,65863,7805,633282,0
121,3,711778,249227,1431248,74401,9435,715228,0
121,-1,636737,219844,1158052,65825,8038,578657,0
121,3,717626,251077,1529538,75295,10498,763614,0
122,3,760413,266130,1375719,78594,8841,687451,0
122,-1,690898,236852,1422848,70607,8899,711136,0
122,3,709473,247653,1327119,73628,8930,663202,0
122,-1,656839,222988,1267535,68990,7940,633012,0
122,3,729924,253687,1366904,77368,9900,683173,0
122,3,707471,248499,1391028,73911,9072,694781,0
122,-1,634121,218530,1261200,65759,7438,630255,0
122,3,709296,248712,1397895,73925,9099,698493,0
122,3,714324,248568,1337375,73750,9562,668241,0
122,-1,658160,223761,1194971,69182,7980,596543,0
122,3,713024,248356,1445875,74228,9630,722571,0
122,3,731934,252712,1460975,77398,10967,730040,0
122,-1,645667,220742,1332046,66615,8209,665447,0
122,3,711152,248753,1363956,74191,9042,681092,0
122,-1,646619,221204,1358083,66330,7673,678668,0
122,3,732239,253413,1902228,77515,11444,950737,0
123,3,762213,266979,1483220,78900,8457,741053,0
123,-1,698868,240147,1418160,71969,8651,708119,0
123,3,713738,250034,1390070,74744,9044,694066,0
123,-1,639311,218961,1246081,65900,7400,622789,0
123,3,709910,249335,1496429,74089,8992,746847,0
123,3,715236,249841,1464954,74286,10189,732176,0
123,-1,639696,221120,1364859,66899,7981,681748,0
123,3,738315,254202,1429464,77468,10043,714239,0
123,3,711827,248446,1509491,73769,9892,754303,0
123,-1,638045,219610,1300298,65989,7662,650218,0
123,3,714059,249335,1406372,74722,9514,702534,0
123,3,710849,248462,1300615,74230,10000,649766,0
123,-1,640743,219142,1235934,65946,7501,617502,0
123,3,716495,251347,1490636,75341,10056,744590,0
123,-1,652556,222275,1309297,66990,8238,654031,0
123,3,718466,250003,1497397,74789,9534,748082,0
124,3,759397,266064,1611159,78560,9379,804973,0
124,-1,712656,242245,1384440,74134,9278,691741,0
124,3,709542,248539,1441886,73941,9134,720507,0
124,-1,640564,219973,1337845,66382,8070,668390,0
124,3,709557,248741,1470038,73961,9380,734770,0
124,3,710299,249037,1472337,74045,8968,735493,0
124,-1,654360,223408,1398901,69179,8044,698952,0
124,3,713098,248476,1454612,73762,10073,726947,0
124,3,712363,248901,1513059,73883,10330,756060,0
124,-1,644397,220338,1393378,66408,8909,695197,0
124,3,709443,247885,1441223,74031,9493,720047,0
124,3,709834,248168,1591287,74107,10502,795184,0
124,-1,641853,219910,1238276,66157,7803,618738,0
124,3,732980,254426,1574143,77858,11694,786701,0
124,-1,645556,219979,1234614,65944,7570,616918,0
124,3,736616,254064,1447156,77726,10897,723149,0
125,3,763520,266511,1453013,78685,9311,726060,0
125,-1,689676,237340,1348934,70789,8348,674028,0
125,3,712104,248872,1486150,74090,9924,742632,0
125,-1,634504,218427,1182996,65637,7424,591195,0
125,3,711629,249133,1503187,74151,9331,751119,0
125,3,709694,249217,1428236,73995,8855,713495,0
125,-1,633016,219063,1396100,65972,7266,697470,0
125,3,714344,248862,1309951,73909,9333,654600,0
125,3,711496,247899,1442938,73518,10508,721088,0
125,-1,638815,219175,1189695,65878,7693,594440,0
125,3,711550,248399,1569523,74193,9908,784305,0
125,3,710713,248478,1411180,74140,9573,705289,0
125,-1,639814,219214,1286073,65902,7831,642599,0
125,3,711399,250148,1362441,74712,9462,680626,0
125,-1,652313,222411,1343904,66951,8562,671561,0
125,3,712332,248920,1803813,74287,11762,901254,0
126,3,760619,266384,1541303,78728,9904,770370,0
126,-1,689617,237069,1243813,70711,7652,621227,0
126,3,711016,248706,1403965,73909,8714,701549,0
126,-1,640836,219318,1193742,65909,6847,596507,0
126,3,708771,248429,1469937,73860,11260,734645,0
126,3,712636,248879,1578701,73909,10062,787974,0
126,-1,634609,220044,1225491,66278,7075,612224,0
126,3,716785,250366,1538715,74672,9577,768788,0
126,3,718399,250565,1482705,74610,10446,740716,0
126,-1,643980,221583,1221902,67011,8264,610208,0
126,3,707081,247886,1517713,73946,9100,758474,0
126,3,708857,248214,1436699,74167,9634,717936,0
126,-1,646520,221306,1381170,66814,9057,689667,0
126,3,716539,249680,1435445,74539,10606,717260,0
126,-1,646695,220755,1431059,66238,10028,715136,0
126,3,713496,249463,1431792,74465,9467,715806,0
127,3,759356,266178,1580221,78621,10281,789905,0
127,-1,694862,239155,1361363,71569,8485,680015,0
127,3,715323,249695,1455023,74488,9968,726975,0
127,-1,659682,223404,1317441,69054,8251,658400,0
127,3,712438,249785,1443696,74292,10412,721410,0
127,3,707326,247317,1422324,73373,8513,710792,0
127,-1,643506,218496,1324899,65760,8158,662104,0
127,3,711103,248311,1343445,73844,9050,671261,0
127,3,717296,250417,1394545,74585,9862,696368,0
127,-1,639969,219654,1247112,66064,7968,622888,0
127,3,708646,248092,1334980,74085,9848,667200,0
127,3,712151,249303,1403156,74520,9573,700863,0
127,-1,662516,224231,1335156,69354,8831,667218,0
127,3,712109,249199,1510598,74332,9321,754700,0
127,-1,643328,219936,1301316,65911,8096,650083,0
127,3,710517,248637,1342197,74188,8734,670785,0
