-1,0,0.00260078
-1,1,0.00130039
-1,2,0.00130039
-1,3,0.00130039
-1,4,0.00130039
-1,5,0.00130039
-1,6,0.00130039
-1,7,0.00130039
-1,8,0.00130039
-1,9,0.00130039
-1,10,0.00130039
-1,11,0.00130039
-1,12,0.00130039
-1,13,0.00130039
-1,14,0.00130039
-1,15,0.00130039
-1,16,0.00130039
-1,17,0.00130039
-1,18,0.00130039
-1,19,0.00130039
-1,20,0.00130039
-1,21,0.00130039
-1,22,0.00130039
-1,23,0.00130039
-1,24,0.00130039
-1,25,0.00130039
-1,26,0.00130039
-1,27,0.00130039
-1,28,0.00130039
-1,29,0.00130039
-1,30,0.00130039
-1,31,0.00130039
-1,32,0.00130039
-1,33,0.00130039
-1,34,0.00130039
-1,35,0.00130039
-1,36,0.00130039
-1,37,0.00130039
-1,38,0.00130039
-1,39,0.00130039
-1,40,0.00130039
-1,41,0.00130039
-1,42,0.00130039
-1,43,0.00130039
-1,44,0.00130039
-1,45,0.00130039
-1,46,0.00130039
-1,47,0.00130039
-1,48,0.00130039
-1,49,0.00130039
-1,50,0.00130039
-1,51,0.00130039
-1,52,0.00130039
-1,53,0.00130039
-1,54,0.00130039
-1,55,0.00130039
-1,56,0.00130039
-1,313,0.00130039
-1,314,0.00130039
-1,315,0.00130039
-1,316,0.00130039
-1,317,0.00130039
-1,318,0.00130039
-1,319,0.00130039
-1,320,0.00130039
-1,321,0.00130039
-1,322,0.00130039
-1,323,0.00130039
-1,324,0.00130039
-1,325,0.00130039
-1,326,0.00130039
-1,327,0.00130039
-1,328,0.00130039
-1,329,0.00130039
-1,330,0.00130039
-1,331,0.00130039
-1,332,0.00130039
-1,333,0.00130039
-1,334,0.00130039
-1,335,0.00130039
-1,336,0.00130039
-1,337,0.00130039
-1,338,0.00130039
-1,339,0.00130039
-1,340,0.00130039
-1,341,0.00130039
-1,342,0.00130039
-1,343,0.00130039
-1,344,0.00130039
-1,345,0.00130039
-1,346,0.00130039
-1,347,0.00130039
-1,348,0.00130039
-1,349,0.00130039
-1,350,0.00130039
-1,351,0.00130039
-1,352,0.00130039
-1,353,0.00130039
-1,354,0.00130039
-1,355,0.00130039
-1,356,0.00130039
-1,357,0.00130039
-1,358,0.00130039
-1,359,0.00130039
-1,360,0.00130039
-1,361,0.00130039
-1,362,0.00130039
-1,363,0.00130039
-1,364,0.00130039
-1,365,0.00130039
-1,366,0.00130039
-1,367,0.00130039
-1,368,0.00130039
-1,369,0.00130039
-1,370,0.00130039
-1,371,0.00130039
-1,372,0.00130039
-1,373,0.00130039
-1,374,0.00130039
-1,375,0.00130039
-1,376,0.00130039
-1,377,0.00130039
-1,378,0.00130039
-1,379,0.00130039
-1,380,0.00130039
-1,381,0.00130039
-1,382,0.00130039
-1,383,0.00130039
-1,384,0.00130039
-1,385,0.00130039
-1,386,0.00130039
-1,387,0.00130039
-1,388,0.00130039
-1,389,0.00130039
-1,390,0.00130039
-1,391,0.00130039
-1,392,0.00130039
-1,393,0.00130039
-1,394,0.00130039
-1,395,0.00130039
-1,396,0.00130039
-1,397,0.00130039
-1,398,0.00130039
-1,399,0.00130039
-1,400,0.00130039
-1,401,0.00130039
-1,402,0.00130039
-1,403,0.00130039
-1,404,0.00130039
-1,405,0.00130039
-1,406,0.00130039
-1,407,0.00130039
-1,408,0.00130039
-1,409,0.00130039
-1,410,0.00130039
-1,411,0.00130039
-1,412,0.00130039
-1,413,0.00130039
-1,414,0.00130039
-1,415,0.00130039
-1,416,0.00130039
-1,417,0.00130039
-1,418,0.00130039
-1,419,0.00130039
-1,420,0.00130039
-1,421,0.00130039
-1,422,0.00130039
-1,423,0.00130039
-1,424,0.00130039
-1,425,0.00130039
-1,426,0.00130039
-1,427,0.00130039
-1,428,0.00130039
-1,429,0.00130039
-1,430,0.00130039
-1,431,0.00130039
-1,432,0.00130039
-1,433,0.00130039
-1,434,0.00130039
-1,435,0.00130039
-1,436,0.00130039
-1,437,0.00130039
-1,438,0.00130039
-1,439,0.00130039
-1,440,0.00130039
-1,441,0.00130039
-1,442,0.00130039
-1,443,0.00130039
-1,444,0.00130039
-1,445,0.00130039
-1,446,0.00130039
-1,447,0.00130039
-1,448,0.00130039
-1,449,0.00130039
-1,450,0.00130039
-1,451,0.00130039
-1,452,0.00130039
-1,453,0.00130039
-1,454,0.00130039
-1,455,0.00130039
-1,456,0.00130039
-1,457,0.00130039
-1,458,0.00130039
-1,459,0.00130039
-1,460,0.00130039
-1,461,0.00130039
-1,462,0.00130039
-1,463,0.00130039
-1,464,0.00130039
-1,465,0.00130039
-1,466,0.00130039
-1,467,0.00130039
-1,468,0.00130039
-1,469,0.00130039
-1,470,0.00130039
-1,471,0.00130039
-1,472,0.00130039
-1,473,0.00130039
-1,474,0.00130039
-1,475,0.00130039
-1,476,0.00130039
-1,477,0.00130039
-1,478,0.00130039
-1,479,0.00130039
-1,480,0.00130039
-1,481,0.00130039
-1,482,0.00130039
-1,483,0.00130039
-1,484,0.00130039
-1,485,0.00130039
-1,486,0.00130039
-1,487,0.00130039
-1,488,0.00130039
-1,489,0.00130039
-1,490,0.00130039
-1,491,0.00130039
-1,492,0.00130039
-1,493,0.00130039
-1,494,0.00130039
-1,495,0.00130039
-1,496,0.00130039
-1,497,0.00130039
-1,498,0.00130039
-1,499,0.00130039
-1,500,0.00130039
-1,501,0.00130039
-1,502,0.00130039
-1,503,0.00130039
-1,504,0.00130039
-1,505,0.00130039
-1,506,0.00130039
-1,507,0.00130039
-1,508,0.00130039
-1,509,0.00130039
-1,510,0.00130039
-1,511,0.00130039
-1,512,0.00130039
-1,513,0.00130039
-1,514,0.00130039
-1,515,0.00130039
-1,516,0.00130039
-1,517,0.00130039
-1,518,0.00130039
-1,519,0.00130039
-1,520,0.00130039
-1,521,0.00130039
-1,522,0.00130039
-1,523,0.00130039
-1,524,0.00130039
-1,525,0.00130039
-1,526,0.00130039
-1,527,0.00130039
-1,528,0.00130039
-1,529,0.00130039
-1,530,0.00130039
-1,531,0.00130039
-1,532,0.00130039
-1,533,0.00130039
-1,534,0.00130039
-1,535,0.00130039
-1,536,0.00130039
-1,537,0.00130039
-1,538,0.00130039
-1,539,0.00130039
-1,540,0.00130039
-1,541,0.00130039
-1,542,0.00130039
-1,543,0.00130039
-1,544,0.00130039
-1,545,0.00130039
-1,546,0.00130039
-1,547,0.00130039
-1,548,0.00130039
-1,549,0.00130039
-1,550,0.00130039
-1,551,0.00130039
-1,552,0.00130039
-1,553,0.00130039
-1,554,0.00130039
-1,555,0.00130039
-1,556,0.00130039
-1,557,0.00130039
-1,558,0.00130039
-1,559,0.00130039
-1,560,0.00130039
-1,561,0.00130039
-1,562,0.00130039
-1,563,0.00130039
-1,564,0.00130039
-1,565,0.00130039
-1,566,0.00130039
-1,567,0.00130039
-1,568,0.00130039
-1,569,0.00130039
-1,570,0.00130039
-1,571,0.00130039
-1,572,0.00130039
-1,573,0.00130039
-1,574,0.00130039
-1,575,0.00130039
-1,576,0.00130039
-1,577,0.00130039
-1,578,0.00130039
-1,579,0.00130039
-1,580,0.00130039
-1,581,0.00130039
-1,582,0.00130039
-1,583,0.00130039
-1,584,0.00130039
-1,585,0.00130039
-1,586,0.00130039
-1,587,0.00130039
-1,588,0.00130039
-1,589,0.00130039
-1,590,0.00130039
-1,591,0.00130039
-1,592,0.00130039
-1,593,0.00130039
-1,594,0.00130039
-1,595,0.00130039
-1,596,0.00130039
-1,597,0.00130039
-1,598,0.00130039
-1,599,0.00130039
-1,600,0.00130039
-1,601,0.00130039
-1,602,0.00130039
-1,603,0.00130039
-1,604,0.00130039
-1,605,0.00130039
-1,606,0.00130039
-1,607,0.00130039
-1,608,0.00130039
-1,609,0.00130039
-1,610,0.00130039
-1,611,0.00130039
-1,612,0.00130039
-1,613,0.00130039
-1,614,0.00130039
-1,615,0.00130039
-1,616,0.00130039
-1,617,0.00130039
-1,618,0.00130039
-1,619,0.00130039
-1,620,0.00130039
-1,621,0.00130039
-1,622,0.00130039
-1,623,0.00130039
-1,624,0.00130039
-1,625,0.00130039
-1,626,0.00130039
-1,627,0.00130039
-1,628,0.00130039
-1,629,0.00130039
-1,630,0.00130039
-1,631,0.00130039
-1,632,0.00130039
-1,633,0.00130039
-1,634,0.00130039
-1,635,0.00130039
-1,636,0.00130039
-1,637,0.00130039
-1,638,0.00130039
-1,639,0.00130039
-1,640,0.00130039
-1,641,0.00130039
-1,642,0.00130039
-1,643,0.00130039
-1,644,0.00130039
-1,645,0.00130039
-1,646,0.00130039
-1,647,0.00130039
-1,648,0.00130039
-1,649,0.00130039
-1,650,0.00130039
-1,651,0.00130039
-1,652,0.00130039
-1,653,0.00130039
-1,654,0.00130039
-1,655,0.00130039
-1,656,0.00130039
-1,657,0.00130039
-1,658,0.00130039
-1,659,0.00130039
-1,660,0.00130039
-1,661,0.00130039
-1,662,0.00130039
-1,663,0.00130039
-1,664,0.00130039
-1,665,0.00130039
-1,666,0.00130039
-1,667,0.00130039
-1,668,0.00130039
-1,669,0.00130039
-1,670,0.00130039
-1,671,0.00130039
-1,672,0.00130039
-1,673,0.00130039
-1,674,0.00130039
-1,675,0.00130039
-1,676,0.00130039
-1,677,0.00130039
-1,678,0.00130039
-1,679,0.00130039
-1,680,0.00130039
-1,681,0.00130039
-1,682,0.00130039
-1,683,0.00130039
-1,684,0.00130039
-1,685,0.00130039
-1,686,0.00130039
-1,687,0.00130039
-1,688,0.00130039
-1,689,0.00130039
-1,690,0.00130039
-1,691,0.00130039
-1,692,0.00130039
-1,693,0.00130039
-1,694,0.00130039
-1,695,0.00130039
-1,696,0.00130039
-1,697,0.00130039
-1,698,0.00130039
-1,699,0.00130039
-1,700,0.00130039
-1,701,0.00130039
-1,702,0.00130039
-1,703,0.00130039
-1,704,0.00130039
-1,705,0.00130039
-1,706,0.00130039
-1,707,0.00130039
-1,708,0.00130039
-1,709,0.00130039
-1,710,0.00130039
-1,711,0.00130039
-1,712,0.00130039
-1,713,0.00130039
-1,714,0.00130039
-1,715,0.00130039
-1,716,0.00130039
-1,717,0.00130039
-1,718,0.00130039
-1,719,0.00130039
-1,720,0.00130039
-1,721,0.00130039
-1,722,0.00130039
-1,723,0.00130039
-1,724,0.00130039
-1,725,0.00130039
-1,726,0.00130039
-1,727,0.00130039
-1,728,0.00130039
-1,729,0.00130039
-1,730,0.00130039
-1,731,0.00130039
-1,732,0.00130039
-1,733,0.00130039
-1,734,0.00130039
-1,735,0.00130039
-1,736,0.00130039
-1,737,0.00130039
-1,738,0.00130039
-1,739,0.00130039
-1,740,0.00130039
-1,741,0.00130039
-1,742,0.00130039
-1,743,0.00130039
-1,744,0.00130039
-1,745,0.00130039
-1,746,0.00130039
-1,747,0.00130039
-1,748,0.00130039
-1,749,0.00130039
-1,750,0.00130039
-1,751,0.00130039
-1,752,0.00130039
-1,753,0.00130039
-1,754,0.00130039
-1,755,0.00130039
-1,756,0.00130039
-1,757,0.00130039
-1,758,0.00130039
-1,759,0.00130039
-1,760,0.00130039
-1,761,0.00130039
-1,762,0.00130039
-1,763,0.00130039
-1,764,0.00130039
-1,765,0.00130039
-1,766,0.00130039
-1,767,0.00130039
-1,768,0.00130039
-1,769,0.00130039
-1,770,0.00130039
-1,771,0.00130039
-1,772,0.00130039
-1,773,0.00130039
-1,774,0.00130039
-1,775,0.00130039
-1,776,0.00130039
-1,777,0.00130039
-1,778,0.00130039
-1,779,0.00130039
-1,780,0.00130039
-1,781,0.00130039
-1,782,0.00130039
-1,783,0.00130039
-1,784,0.00130039
-1,785,0.00130039
-1,786,0.00130039
-1,787,0.00130039
-1,788,0.00130039
-1,789,0.00130039
-1,790,0.00130039
-1,791,0.00130039
-1,792,0.00130039
-1,793,0.00130039
-1,794,0.00130039
-1,795,0.00130039
-1,796,0.00130039
-1,797,0.00130039
-1,798,0.00130039
-1,799,0.00130039
-1,800,0.00130039
-1,801,0.00130039
-1,802,0.00130039
-1,803,0.00130039
-1,804,0.00130039
-1,805,0.00130039
-1,806,0.00130039
-1,807,0.00130039
-1,808,0.00130039
-1,809,0.00130039
-1,810,0.00130039
-1,811,0.00130039
-1,812,0.00130039
-1,813,0.00130039
-1,814,0.00130039
-1,815,0.00130039
-1,816,0.00130039
-1,817,0.00130039
-1,818,0.00130039
-1,819,0.00130039
-1,820,0.00130039
-1,821,0.00130039
-1,822,0.00130039
-1,823,0.00130039
-1,824,0.00130039
-1,825,0.00130039
-1,826,0.00130039
-1,827,0.00130039
-1,828,0.00130039
-1,829,0.00130039
-1,830,0.00130039
-1,831,0.00130039
-1,832,0.00130039
-1,833,0.00130039
-1,834,0.00130039
-1,835,0.00130039
-1,836,0.00130039
-1,837,0.00130039
-1,838,0.00130039
-1,839,0.00130039
-1,840,0.00130039
-1,841,0.00130039
-1,842,0.00130039
-1,843,0.00130039
-1,844,0.00130039
-1,845,0.00130039
-1,846,0.00130039
-1,847,0.00130039
-1,848,0.00130039
-1,849,0.00130039
-1,850,0.00130039
-1,851,0.00130039
-1,852,0.00130039
-1,853,0.00130039
-1,854,0.00130039
-1,855,0.00130039
-1,856,0.00130039
-1,857,0.00130039
-1,858,0.00130039
-1,859,0.00130039
-1,860,0.00130039
-1,861,0.00130039
-1,862,0.00130039
-1,863,0.00130039
-1,864,0.00130039
-1,865,0.00130039
-1,866,0.00130039
-1,867,0.00130039
-1,868,0.00130039
-1,869,0.00130039
-1,870,0.00130039
-1,871,0.00130039
-1,872,0.00130039
-1,873,0.00130039
-1,874,0.00130039
-1,875,0.00130039
-1,876,0.00130039
-1,877,0.00130039
-1,878,0.00130039
-1,879,0.00130039
-1,880,0.00130039
-1,881,0.00130039
-1,882,0.00130039
-1,883,0.00130039
-1,884,0.00130039
-1,885,0.00130039
-1,886,0.00130039
-1,887,0.00130039
-1,888,0.00130039
-1,889,0.00130039
-1,890,0.00130039
-1,891,0.00130039
-1,892,0.00130039
-1,893,0.00130039
-1,894,0.00130039
-1,895,0.00130039
-1,896,0.00130039
-1,897,0.00130039
-1,898,0.00130039
-1,899,0.00130039
-1,900,0.00130039
-1,901,0.00130039
-1,902,0.00130039
-1,903,0.00130039
-1,904,0.00130039
-1,905,0.00130039
-1,906,0.00130039
-1,907,0.00130039
-1,908,0.00130039
-1,909,0.00130039
-1,910,0.00130039
-1,911,0.00130039
-1,912,0.00130039
-1,913,0.00130039
-1,914,0.00130039
-1,915,0.00130039
-1,916,0.00130039
-1,917,0.00130039
-1,918,0.00130039
-1,919,0.00130039
-1,920,0.00130039
-1,921,0.00130039
-1,922,0.00130039
-1,923,0.00130039
-1,924,0.00130039
-1,925,0.00130039
-1,926,0.00130039
-1,927,0.00130039
-1,928,0.00130039
-1,929,0.00130039
-1,930,0.00130039
-1,931,0.00130039
-1,932,0.00130039
-1,933,0.00130039
-1,934,0.00130039
-1,935,0.00130039
-1,936,0.00130039
-1,937,0.00130039
-1,938,0.00130039
-1,939,0.00130039
-1,940,0.00130039
-1,941,0.00130039
-1,942,0.00130039
-1,943,0.00130039
-1,944,0.00130039
-1,945,0.00130039
-1,946,0.00130039
-1,947,0.00130039
-1,948,0.00130039
-1,949,0.00130039
-1,950,0.00130039
-1,951,0.00130039
-1,952,0.00130039
-1,953,0.00130039
-1,954,0.00130039
-1,955,0.00130039
-1,956,0.00130039
-1,957,0.00130039
-1,958,0.00130039
-1,959,0.00130039
-1,960,0.00130039
-1,961,0.00130039
-1,962,0.00130039
-1,963,0.00130039
-1,964,0.00130039
-1,965,0.00130039
-1,966,0.00130039
-1,967,0.00130039
-1,968,0.00130039
-1,969,0.00130039
-1,970,0.00130039
-1,971,0.00130039
-1,972,0.00130039
-1,973,0.00130039
-1,974,0.00130039
-1,975,0.00130039
-1,976,0.00130039
-1,977,0.00130039
-1,978,0.00130039
-1,979,0.00130039
-1,980,0.00130039
-1,981,0.00130039
-1,982,0.00130039
-1,983,0.00130039
-1,984,0.00130039
-1,985,0.00130039
-1,986,0.00130039
-1,987,0.00130039
-1,988,0.00130039
-1,989,0.00130039
-1,990,0.00130039
-1,991,0.00130039
-1,992,0.00130039
-1,993,0.00130039
-1,994,0.00130039
-1,995,0.00130039
-1,996,0.00130039
-1,997,0.00130039
-1,998,0.00130039
-1,999,0.00130039
-1,1000,0.00130039
-1,1001,0.00130039
-1,1002,0.00130039
-1,1003,0.00130039
-1,1004,0.00130039
-1,1005,0.00130039
-1,1006,0.00130039
-1,1007,0.00130039
-1,1008,0.00130039
-1,1009,0.00130039
-1,1010,0.00130039
-1,1011,0.00130039
-1,1012,0.00130039
-1,1013,0.00130039
-1,1014,0.00130039
-1,1015,0.00130039
-1,1016,0.00130039
-1,1017,0.00130039
-1,1018,0.00130039
-1,1019,0.00130039
-1,1020,0.00130039
-1,1021,0.00130039
-1,1022,0.00130039
-1,1023,0.00130039
3,0,0.00161943
3,1,0.000809717
3,2,0.000809717
3,3,0.000809717
3,4,0.000809717
3,5,0.000809717
3,6,0.000809717
3,7,0.000809717
3,8,0.000809717
3,9,0.000809717
3,10,0.000809717
3,11,0.000809717
3,12,0.000809717
3,13,0.000809717
3,14,0.000809717
3,15,0.000809717
3,16,0.000809717
3,17,0.000809717
3,18,0.000809717
3,19,0.000809717
3,20,0.000809717
3,21,0.000809717
3,22,0.000809717
3,23,0.000809717
3,24,0.000809717
3,25,0.000809717
3,26,0.000809717
3,27,0.000809717
3,28,0.000809717
3,29,0.000809717
3,30,0.000809717
3,31,0.000809717
3,32,0.000809717
3,33,0.000809717
3,34,0.000809717
3,35,0.000809717
3,36,0.000809717
3,37,0.000809717
3,38,0.000809717
3,39,0.000809717
3,40,0.000809717
3,41,0.000809717
3,42,0.000809717
3,43,0.000809717
3,44,0.000809717
3,45,0.000809717
3,46,0.000809717
3,47,0.000809717
3,48,0.000809717
3,49,0.000809717
3,50,0.000809717
3,51,0.000809717
3,52,0.000809717
3,53,0.000809717
3,54,0.000809717
3,55,0.000809717
3,56,0.000809717
3,57,0.000809717
3,58,0.000809717
3,59,0.000809717
3,60,0.000809717
3,61,0.000809717
3,62,0.000809717
3,63,0.000809717
3,64,0.000809717
3,65,0.000809717
3,66,0.000809717
3,67,0.000809717
3,68,0.000809717
3,69,0.000809717
3,70,0.000809717
3,71,0.000809717
3,72,0.000809717
3,73,0.000809717
3,74,0.000809717
3,75,0.000809717
3,76,0.000809717
3,77,0.000809717
3,78,0.000809717
3,79,0.000809717
3,80,0.000809717
3,81,0.000809717
3,82,0.000809717
3,83,0.000809717
3,84,0.000809717
3,85,0.000809717
3,86,0.000809717
3,87,0.000809717
3,88,0.000809717
3,89,0.000809717
3,90,0.000809717
3,91,0.000809717
3,92,0.000809717
3,93,0.000809717
3,94,0.000809717
3,95,0.000809717
3,96,0.000809717
3,97,0.000809717
3,98,0.000809717
3,99,0.000809717
3,100,0.000809717
3,101,0.000809717
3,102,0.000809717
3,103,0.000809717
3,104,0.000809717
3,105,0.000809717
3,106,0.000809717
3,107,0.000809717
3,108,0.000809717
3,109,0.000809717
3,110,0.000809717
3,111,0.000809717
3,112,0.000809717
3,113,0.000809717
3,114,0.000809717
3,115,0.000809717
3,116,0.000809717
3,117,0.000809717
3,118,0.000809717
3,119,0.000809717
3,120,0.000809717
3,121,0.000809717
3,122,0.000809717
3,123,0.000809717
3,124,0.000809717
3,125,0.000809717
3,126,0.000809717
3,127,0.000809717
3,128,0.000809717
3,129,0.000809717
3,130,0.000809717
3,131,0.000809717
3,132,0.000809717
3,133,0.000809717
3,134,0.000809717
3,135,0.000809717
3,136,0.000809717
3,137,0.000809717
3,138,0.000809717
3,139,0.000809717
3,140,0.000809717
3,141,0.000809717
3,142,0.000809717
3,143,0.000809717
3,144,0.000809717
3,145,0.000809717
3,146,0.000809717
3,147,0.000809717
3,148,0.000809717
3,149,0.000809717
3,150,0.000809717
3,151,0.000809717
3,152,0.000809717
3,153,0.000809717
3,154,0.000809717
3,155,0.000809717
3,156,0.000809717
3,157,0.000809717
3,158,0.000809717
3,159,0.000809717
3,160,0.000809717
3,161,0.000809717
3,162,0.000809717
3,163,0.000809717
3,164,0.000809717
3,165,0.000809717
3,166,0.000809717
3,167,0.000809717
3,168,0.000809717
3,169,0.000809717
3,170,0.000809717
3,171,0.000809717
3,172,0.000809717
3,173,0.000809717
3,174,0.000809717
3,175,0.000809717
3,176,0.000809717
3,177,0.000809717
3,178,0.000809717
3,179,0.000809717
3,180,0.000809717
3,181,0.000809717
3,182,0.000809717
3,183,0.000809717
3,184,0.000809717
3,185,0.000809717
3,186,0.000809717
3,187,0.000809717
3,188,0.000809717
3,189,0.000809717
3,190,0.000809717
3,191,0.000809717
3,192,0.000809717
3,193,0.000809717
3,194,0.000809717
3,195,0.000809717
3,196,0.000809717
3,197,0.000809717
3,198,0.000809717
3,199,0.000809717
3,200,0.000809717
3,201,0.000809717
3,202,0.000809717
3,203,0.000809717
3,204,0.000809717
3,205,0.000809717
3,206,0.000809717
3,207,0.000809717
3,208,0.000809717
3,209,0.000809717
3,210,0.000809717
3,211,0.000809717
3,212,0.000809717
3,213,0.000809717
3,214,0.000809717
3,215,0.000809717
3,216,0.000809717
3,217,0.000809717
3,218,0.000809717
3,219,0.000809717
3,220,0.000809717
3,221,0.000809717
3,222,0.000809717
3,223,0.000809717
3,224,0.000809717
3,225,0.000809717
3,226,0.000809717
3,227,0.000809717
3,228,0.000809717
3,229,0.000809717
3,230,0.000809717
3,231,0.000809717
3,232,0.000809717
3,233,0.000809717
3,234,0.000809717
3,235,0.000809717
3,236,0.000809717
3,237,0.000809717
3,238,0.000809717
3,239,0.000809717
3,240,0.000809717
3,241,0.000809717
3,242,0.000809717
3,243,0.000809717
3,244,0.000809717
3,245,0.000809717
3,246,0.000809717
3,247,0.000809717
3,248,0.000809717
3,249,0.000809717
3,250,0.000809717
3,251,0.000809717
3,252,0.000809717
3,253,0.000809717
3,254,0.000809717
3,255,0.000809717
3,256,0.000809717
3,257,0.000809717
3,258,0.000809717
3,259,0.000809717
3,260,0.000809717
3,261,0.000809717
3,262,0.000809717
3,263,0.000809717
3,264,0.000809717
3,265,0.000809717
3,266,0.000809717
3,267,0.000809717
3,268,0.000809717
3,269,0.000809717
3,270,0.000809717
3,271,0.000809717
3,272,0.000809717
3,273,0.000809717
3,274,0.000809717
3,275,0.000809717
3,276,0.000809717
3,277,0.000809717
3,278,0.000809717
3,279,0.000809717
3,280,0.000809717
3,281,0.000809717
3,282,0.000809717
3,283,0.000809717
3,284,0.000809717
3,285,0.000809717
3,286,0.000809717
3,287,0.000809717
3,288,0.000809717
3,289,0.000809717
3,290,0.000809717
3,291,0.000809717
3,292,0.000809717
3,293,0.000809717
3,294,0.000809717
3,295,0.000809717
3,296,0.000809717
3,297,0.000809717
3,298,0.000809717
3,299,0.000809717
3,300,0.000809717
3,301,0.000809717
3,302,0.000809717
3,303,0.000809717
3,304,0.000809717
3,305,0.000809717
3,306,0.000809717
3,307,0.000809717
3,308,0.000809717
3,309,0.000809717
3,310,0.000809717
3,311,0.000809717
3,312,0.000809717
3,313,0.000809717
3,314,0.000809717
3,315,0.000809717
3,316,0.000809717
3,317,0.000809717
3,318,0.000809717
3,319,0.000809717
3,320,0.000809717
3,321,0.000809717
3,322,0.000809717
3,323,0.000809717
3,324,0.000809717
3,325,0.000809717
3,326,0.000809717
3,327,0.000809717
3,328,0.000809717
3,329,0.000809717
3,330,0.000809717
3,331,0.000809717
3,332,0.000809717
3,333,0.000809717
3,334,0.000809717
3,335,0.000809717
3,336,0.000809717
3,337,0.000809717
3,338,0.000809717
3,339,0.000809717
3,340,0.000809717
3,341,0.000809717
3,342,0.000809717
3,343,0.000809717
3,344,0.000809717
3,345,0.000809717
3,346,0.000809717
3,347,0.000809717
3,348,0.000809717
3,349,0.000809717
3,350,0.000809717
3,351,0.000809717
3,352,0.000809717
3,353,0.000809717
3,354,0.000809717
3,355,0.000809717
3,356,0.000809717
3,357,0.000809717
3,358,0.000809717
3,359,0.000809717
3,360,0.000809717
3,361,0.000809717
3,362,0.000809717
3,363,0.000809717
3,364,0.000809717
3,365,0.000809717
3,366,0.000809717
3,367,0.000809717
3,368,0.000809717
3,369,0.000809717
3,370,0.000809717
3,371,0.000809717
3,372,0.000809717
3,373,0.000809717
3,374,0.000809717
3,375,0.000809717
3,376,0.000809717
3,377,0.000809717
3,378,0.000809717
3,379,0.000809717
3,380,0.000809717
3,381,0.000809717
3,382,0.000809717
3,383,0.000809717
3,384,0.000809717
3,385,0.000809717
3,386,0.000809717
3,387,0.000809717
3,388,0.000809717
3,389,0.000809717
3,390,0.000809717
3,391,0.000809717
3,392,0.000809717
3,393,0.000809717
3,394,0.000809717
3,395,0.000809717
3,396,0.000809717
3,397,0.000809717
3,398,0.000809717
3,399,0.000809717
3,400,0.000809717
3,401,0.000809717
3,402,0.000809717
3,403,0.000809717
3,404,0.000809717
3,405,0.000809717
3,406,0.000809717
3,407,0.000809717
3,408,0.000809717
3,409,0.000809717
3,410,0.000809717
3,411,0.000809717
3,412,0.000809717
3,413,0.000809717
3,414,0.000809717
3,415,0.000809717
3,416,0.000809717
3,417,0.000809717
3,418,0.000809717
3,419,0.000809717
3,420,0.000809717
3,421,0.000809717
3,422,0.000809717
3,423,0.000809717
3,424,0.000809717
3,425,0.000809717
3,426,0.000809717
3,427,0.000809717
3,428,0.000809717
3,429,0.000809717
3,430,0.000809717
3,431,0.000809717
3,432,0.000809717
3,433,0.000809717
3,434,0.000809717
3,435,0.000809717
3,436,0.000809717
3,437,0.000809717
3,438,0.000809717
3,439,0.000809717
3,440,0.000809717
3,441,0.000809717
3,442,0.000809717
3,443,0.000809717
3,444,0.000809717
3,445,0.000809717
3,446,0.000809717
3,447,0.000809717
3,448,0.000809717
3,449,0.000809717
3,450,0.000809717
3,451,0.000809717
3,452,0.000809717
3,453,0.000809717
3,454,0.000809717
3,455,0.000809717
3,456,0.000809717
3,457,0.000809717
3,458,0.000809717
3,459,0.000809717
3,460,0.000809717
3,461,0.000809717
3,462,0.000809717
3,463,0.000809717
3,464,0.000809717
3,465,0.000809717
3,466,0.000809717
3,467,0.000809717
3,468,0.000809717
3,469,0.000809717
3,470,0.000809717
3,471,0.000809717
3,472,0.000809717
3,473,0.000809717
3,474,0.000809717
3,475,0.000809717
3,476,0.000809717
3,477,0.000809717
3,478,0.000809717
3,479,0.000809717
3,480,0.000809717
3,481,0.000809717
3,482,0.000809717
3,483,0.000809717
3,484,0.000809717
3,485,0.000809717
3,486,0.000809717
3,487,0.000809717
3,488,0.000809717
3,489,0.000809717
3,490,0.000809717
3,491,0.000809717
3,492,0.000809717
3,493,0.000809717
3,494,0.000809717
3,495,0.000809717
3,496,0.000809717
3,497,0.000809717
3,498,0.000809717
3,499,0.000809717
3,500,0.000809717
3,501,0.000809717
3,502,0.000809717
3,503,0.000809717
3,504,0.000809717
3,505,0.000809717
3,506,0.000809717
3,507,0.000809717
3,508,0.000809717
3,509,0.000809717
3,510,0.000809717
3,511,0.000809717
3,512,0.000809717
3,513,0.000809717
3,514,0.000809717
3,515,0.000809717
3,516,0.000809717
3,517,0.000809717
3,518,0.000809717
3,519,0.000809717
3,520,0.000809717
3,521,0.000809717
3,522,0.000809717
3,523,0.000809717
3,524,0.000809717
3,525,0.000809717
3,526,0.000809717
3,527,0.000809717
3,528,0.000809717
3,529,0.000809717
3,530,0.000809717
3,531,0.000809717
3,532,0.000809717
3,533,0.000809717
3,534,0.000809717
3,535,0.000809717
3,536,0.000809717
3,537,0.000809717
3,538,0.000809717
3,539,0.000809717
3,540,0.000809717
3,541,0.000809717
3,542,0.000809717
3,543,0.000809717
3,544,0.000809717
3,545,0.000809717
3,546,0.000809717
3,547,0.000809717
3,548,0.000809717
3,549,0.000809717
3,550,0.000809717
3,551,0.000809717
3,552,0.000809717
3,553,0.000809717
3,554,0.000809717
3,555,0.000809717
3,556,0.000809717
3,557,0.000809717
3,558,0.000809717
3,559,0.000809717
3,560,0.000809717
3,561,0.000809717
3,562,0.000809717
3,563,0.000809717
3,564,0.000809717
3,565,0.000809717
3,566,0.000809717
3,567,0.000809717
3,568,0.000809717
3,569,0.000809717
3,570,0.000809717
3,571,0.000809717
3,572,0.000809717
3,573,0.000809717
3,574,0.000809717
3,575,0.000809717
3,576,0.000809717
3,577,0.000809717
3,578,0.000809717
3,579,0.000809717
3,580,0.000809717
3,581,0.000809717
3,582,0.000809717
3,583,0.000809717
3,584,0.000809717
3,585,0.000809717
3,586,0.000809717
3,587,0.000809717
3,588,0.000809717
3,589,0.000809717
3,590,0.000809717
3,591,0.000809717
3,592,0.000809717
3,593,0.000809717
3,594,0.000809717
3,595,0.000809717
3,596,0.000809717
3,597,0.000809717
3,598,0.000809717
3,599,0.000809717
3,600,0.000809717
3,601,0.000809717
3,602,0.000809717
3,603,0.000809717
3,604,0.000809717
3,605,0.000809717
3,606,0.000809717
3,607,0.000809717
3,608,0.000809717
3,609,0.000809717
3,610,0.000809717
3,611,0.000809717
3,612,0.000809717
3,613,0.000809717
3,614,0.000809717
3,615,0.000809717
3,616,0.000809717
3,617,0.000809717
3,618,0.000809717
3,619,0.000809717
3,620,0.000809717
3,621,0.000809717
3,622,0.000809717
3,623,0.000809717
3,624,0.000809717
3,625,0.000809717
3,626,0.000809717
3,627,0.000809717
3,628,0.000809717
3,629,0.000809717
3,630,0.000809717
3,631,0.000809717
3,632,0.000809717
3,633,0.000809717
3,634,0.000809717
3,635,0.000809717
3,636,0.000809717
3,637,0.000809717
3,638,0.000809717
3,639,0.000809717
3,640,0.000809717
3,641,0.000809717
3,642,0.000809717
3,643,0.000809717
3,644,0.000809717
3,645,0.000809717
3,646,0.000809717
3,647,0.000809717
3,648,0.000809717
3,649,0.000809717
3,650,0.000809717
3,651,0.000809717
3,652,0.000809717
3,653,0.000809717
3,654,0.000809717
3,655,0.000809717
3,656,0.000809717
3,657,0.000809717
3,658,0.000809717
3,659,0.000809717
3,660,0.000809717
3,661,0.000809717
3,662,0.000809717
3,663,0.000809717
3,664,0.000809717
3,665,0.000809717
3,666,0.000809717
3,667,0.000809717
3,668,0.000809717
3,669,0.000809717
3,670,0.000809717
3,671,0.000809717
3,672,0.000809717
3,673,0.000809717
3,674,0.000809717
3,675,0.000809717
3,676,0.000809717
3,677,0.000809717
3,678,0.000809717
3,679,0.000809717
3,680,0.000809717
3,681,0.000809717
3,682,0.000809717
3,683,0.000809717
3,684,0.000809717
3,685,0.000809717
3,686,0.000809717
3,687,0.000809717
3,688,0.000809717
3,689,0.000809717
3,690,0.000809717
3,691,0.000809717
3,692,0.000809717
3,693,0.000809717
3,694,0.000809717
3,695,0.000809717
3,696,0.000809717
3,697,0.000809717
3,698,0.000809717
3,699,0.000809717
3,700,0.000809717
3,701,0.000809717
3,702,0.000809717
3,703,0.000809717
3,704,0.000809717
3,705,0.000809717
3,706,0.000809717
3,707,0.000809717
3,708,0.000809717
3,709,0.000809717
3,710,0.000809717
3,711,0.000809717
3,712,0.000809717
3,713,0.000809717
3,714,0.000809717
3,715,0.000809717
3,716,0.000809717
3,717,0.000809717
3,718,0.000809717
3,719,0.000809717
3,720,0.000809717
3,721,0.000809717
3,722,0.000809717
3,723,0.000809717
3,724,0.000809717
3,725,0.000809717
3,726,0.000809717
3,727,0.000809717
3,728,0.000809717
3,729,0.000809717
3,730,0.000809717
3,731,0.000809717
3,732,0.000809717
3,733,0.000809717
3,734,0.000809717
3,735,0.000809717
3,736,0.000809717
3,737,0.000809717
3,738,0.000809717
3,739,0.000809717
3,740,0.000809717
3,741,0.000809717
3,742,0.000809717
3,743,0.000809717
3,744,0.000809717
3,745,0.000809717
3,746,0.000809717
3,747,0.000809717
3,748,0.000809717
3,749,0.000809717
3,750,0.000809717
3,751,0.000809717
3,752,0.000809717
3,753,0.000809717
3,754,0.000809717
3,755,0.000809717
3,756,0.000809717
3,757,0.000809717
3,758,0.000809717
3,759,0.000809717
3,760,0.000809717
3,761,0.000809717
3,762,0.000809717
3,763,0.000809717
3,764,0.000809717
3,765,0.000809717
3,766,0.000809717
3,767,0.000809717
3,768,0.000809717
3,769,0.000809717
3,770,0.000809717
3,771,0.000809717
3,772,0.000809717
3,773,0.000809717
3,774,0.000809717
3,775,0.000809717
3,776,0.000809717
3,777,0.000809717
3,778,0.000809717
3,779,0.000809717
3,780,0.000809717
3,781,0.000809717
3,782,0.000809717
3,783,0.000809717
3,784,0.000809717
3,785,0.000809717
3,786,0.000809717
3,787,0.000809717
3,788,0.000809717
3,789,0.000809717
3,790,0.000809717
3,791,0.000809717
3,792,0.000809717
3,793,0.000809717
3,794,0.000809717
3,795,0.000809717
3,796,0.000809717
3,797,0.000809717
3,798,0.000809717
3,799,0.000809717
3,800,0.000809717
3,801,0.000809717
3,802,0.000809717
3,803,0.000809717
3,804,0.000809717
3,805,0.000809717
3,806,0.000809717
3,807,0.000809717
3,808,0.000809717
3,809,0.000809717
3,810,0.000809717
3,811,0.000809717
3,812,0.000809717
3,813,0.000809717
3,814,0.00161943
3,815,0.00161943
3,816,0.00161943
3,817,0.00161943
3,818,0.00161943
3,819,0.00161943
3,820,0.00161943
3,821,0.00161943
3,822,0.00161943
3,823,0.00161943
3,824,0.00161943
3,825,0.00161943
3,826,0.00161943
3,827,0.00161943
3,828,0.00161943
3,829,0.00161943
3,830,0.00161943
3,831,0.00161943
3,832,0.00161943
3,833,0.00161943
3,834,0.00161943
3,835,0.00161943
3,836,0.00161943
3,837,0.00161943
3,838,0.00161943
3,839,0.00161943
3,840,0.00161943
3,841,0.00161943
3,842,0.00161943
3,843,0.00161943
3,844,0.00161943
3,845,0.00161943
3,846,0.00161943
3,847,0.00161943
3,848,0.00161943
3,849,0.00161943
3,850,0.00161943
3,851,0.00161943
3,852,0.00161943
3,853,0.00161943
3,854,0.00161943
3,855,0.00161943
3,856,0.00161943
3,857,0.00161943
3,858,0.00161943
3,859,0.00161943
3,860,0.00161943
3,861,0.00161943
3,862,0.00161943
3,863,0.00161943
3,864,0.00161943
3,865,0.00161943
3,866,0.00161943
3,867,0.00161943
3,868,0.00161943
3,869,0.00161943
3,870,0.00161943
3,871,0.00161943
3,872,0.00161943
3,873,0.00161943
3,874,0.00161943
3,875,0.00161943
3,876,0.00161943
3,877,0.00161943
3,878,0.00161943
3,879,0.00161943
3,880,0.00161943
3,881,0.00161943
3,882,0.00161943
3,883,0.00161943
3,884,0.00161943
3,885,0.00161943
3,886,0.00161943
3,887,0.00161943
3,888,0.00161943
3,889,0.00161943
3,890,0.00161943
3,891,0.00161943
3,892,0.00161943
3,893,0.00161943
3,894,0.00161943
3,895,0.00161943
3,896,0.00161943
3,897,0.00161943
3,898,0.00161943
3,899,0.00161943
3,900,0.00161943
3,901,0.00161943
3,902,0.00161943
3,903,0.00161943
3,904,0.00161943
3,905,0.00161943
3,906,0.00161943
3,907,0.00161943
3,908,0.00161943
3,909,0.00161943
3,910,0.00161943
3,911,0.00161943
3,912,0.00161943
3,913,0.00161943
3,914,0.00161943
3,915,0.00161943
3,916,0.00161943
3,917,0.00161943
3,918,0.00161943
3,919,0.00161943
3,920,0.00161943
3,921,0.00161943
3,922,0.00161943
3,923,0.00161943
3,924,0.00161943
3,925,0.00161943
3,926,0.00161943
3,927,0.00161943
3,928,0.00161943
3,929,0.00161943
3,930,0.00161943
3,931,0.00161943
3,932,0.00161943
3,933,0.00161943
3,934,0.00161943
3,935,0.00161943
3,936,0.00161943
3,937,0.00161943
3,938,0.00161943
3,939,0.00161943
3,940,0.00161943
3,941,0.00161943
3,942,0.00161943
3,943,0.00161943
3,944,0.00161943
3,945,0.00161943
3,946,0.00161943
3,947,0.00161943
3,948,0.00161943
3,949,0.00161943
3,950,0.00161943
3,951,0.00161943
3,952,0.00161943
3,953,0.00161943
3,954,0.00161943
3,955,0.00161943
3,956,0.00161943
3,957,0.00161943
3,958,0.00161943
3,959,0.00161943
3,960,0.00161943
3,961,0.00161943
3,962,0.00161943
3,963,0.00161943
3,964,0.00161943
3,965,0.00161943
3,966,0.00161943
3,967,0.00161943
3,968,0.00161943
3,969,0.00161943
3,970,0.00161943
3,971,0.00161943
3,972,0.00161943
3,973,0.00161943
3,974,0.00161943
3,975,0.00161943
3,976,0.00161943
3,977,0.00161943
3,978,0.00161943
3,979,0.00161943
3,980,0.00161943
3,981,0.00161943
3,982,0.00161943
3,983,0.00161943
3,984,0.00161943
3,985,0.00161943
3,986,0.00161943
3,987,0.00161943
3,988,0.00161943
3,989,0.00161943
3,990,0.00161943
3,991,0.00161943
3,992,0.00161943
3,993,0.00161943
3,994,0.00161943
3,995,0.00161943
3,996,0.00161943
3,997,0.00161943
3,998,0.00161943
3,999,0.00161943
3,1000,0.00161943
3,1001,0.00161943
3,1002,0.00161943
3,1003,0.00161943
3,1004,0.00161943
3,1005,0.00161943
3,1006,0.00161943
3,1007,0.00161943
3,1008,0.00161943
3,1009,0.00161943
3,1010,0.00161943
3,1011,0.00161943
3,1012,0.00161943
3,1013,0.00161943
3,1014,0.00161943
3,1015,0.00161943
3,1016,0.00161943
3,1017,0.00161943
3,1018,0.00161943
3,1019,0.00161943
3,1020,0.00161943
3,1021,0.00161943
3,1022,0.00161943
3,1023,0.00161943
