0,-1,697967,240302,1379610,72027,8507,690000,0
0,3,760468,266283,1500630,78659,9136,750406,0
0,-1,690983,236881,1260836,70560,7155,630268,0
0,-1,687283,235314,1359752,70098,8260,679832,0
0,-1,635219,218566,1339916,65576,7327,670013,2
0,-1,645701,221192,1420882,66770,8191,710017,0
0,-1,636484,218332,1214601,65563,7236,606882,0
0,3,725402,252768,1375508,77012,10336,687941,0
0,-1,635983,218741,1211082,65715,7311,605589,0
0,-1,633389,218498,1296566,65650,7650,648244,0
0,3,755113,261375,1547120,79655,9728,773505,0
0,-1,637260,218621,1236817,65693,6885,618449,0
0,-1,638132,218463,1213717,65725,7261,606923,0
0,3,709863,249135,1516246,73965,9789,758179,0
0,-1,643239,220289,1272380,66363,7518,636482,0
0,-1,644931,222581,1419341,67108,7893,709749,0
0,-1,641634,219170,1260740,65838,7928,630294,0
0,-1,644152,221043,1318817,66750,7439,659446,0
0,-1,644319,218704,1243544,65841,7314,621756,0
0,3,717447,250247,1497363,74762,9773,748741,0
0,-1,661437,224240,1246547,69445,7629,623307,0
0,-1,641442,219434,1302754,66075,8200,651437,0
0,-1,645433,219211,1321509,66065,7639,660801,0
0,-1,635549,219292,1300962,65918,7565,650522,0
0,-1,636947,219050,1188052,65901,7632,594027,0
0,3,707175,248128,1352390,73750,8701,676242,0
0,-1,640029,219654,1383498,66144,7521,691796,0
0,-1,639284,219684,1434245,66093,7042,717028,0
0,3,710986,248686,1376132,73954,9637,688255,0
0,-1,640123,219324,1151856,65995,7005,575978,0
0,-1,637950,218654,1316383,65717,7435,658379,0
0,-1,637629,219739,1281698,66093,7249,640898,0
0,-1,658244,223928,1431366,69266,8982,715620,0
0,3,709748,249359,1478430,74374,8952,739185,0
0,-1,639315,219374,1281313,65924,7681,640429,0
0,-1,640437,220688,1303549,66591,8047,651725,0
0,-1,643838,220540,1335161,66347,8281,667315,0
0,3,712864,250020,1576397,74613,9496,788298,0
0,-1,643675,221220,1218314,66803,7327,609115,0
0,-1,636490,218905,1204542,65840,7262,602314,0
0,-1,640127,221003,1414055,66696,8565,706855,0
0,-1,645260,221136,1370650,66845,7757,685527,0
0,-1,640924,219030,1209893,65844,7111,604964,0
0,-1,643777,221365,1379428,66897,6975,689719,0
0,-1,635837,217902,1243730,65431,7237,621863,0
0,3,711123,249587,1520750,74065,9590,760227,0
0,-1,639401,220491,1353032,66330,7770,676572,0
0,-1,639202,218880,1207645,65743,7767,603883,0
0,-1,638560,218318,1348282,65485,7339,674178,0
0,3,711250,248479,1542054,73880,10308,771034,0
0,-1,642613,218919,1335876,65751,7585,667995,0
0,-1,644867,220869,1247379,66384,6781,623756,0
0,3,731828,253600,1385837,77281,9488,693049,0
0,-1,647918,221006,1390317,66251,8396,695169,0
0,-1,642147,220992,1316313,66249,8293,658210,0
0,-1,665915,225484,1283724,69637,8516,641922,0
0,-1,646183,221407,1374377,66749,8039,687251,0
0,3,706985,248139,1344685,73618,8614,672331,0
0,-1,646537,220677,1349709,66202,8588,674893,0
0,-1,638617,219470,1096001,65990,7233,547987,0
0,-1,639898,219272,1310864,65871,8248,655610,0
0,-1,644797,219166,1297782,65830,7902,648871,0
0,-1,638990,219224,1342009,65781,7809,671007,0
0,-1,636976,218799,1222717,65704,7512,611394,0
0,3,710832,248352,1356428,73735,9291,678250,0
0,-1,639867,219137,1266788,65876,7445,633116,0
0,-1,641764,219428,1226995,65828,8169,613471,0
0,-1,644126,219680,1218452,65854,7606,609254,0
0,3,703787,248782,1527826,73297,9399,764261,0
0,-1,637075,218969,1227702,65580,7899,613741,0
0,-1,643064,220802,1308182,66439,7934,654079,0
0,3,703839,247968,1346193,73241,9869,673098,0
0,-1,644704,220916,1376422,66496,7249,688044,0
0,-1,639043,218772,1364518,65580,7816,682281,0
0,-1,639670,218784,1323159,65564,7735,661634,0
0,-1,642242,219468,1676188,65876,10115,837779,0
0,-1,641428,220407,1274673,66311,7002,637411,0
0,3,705969,247941,1432547,74025,8736,716310,0
0,-1,639092,218498,1324173,65480,7521,662097,0
0,-1,640152,219182,1346795,65756,7756,673322,0
0,-1,640876,219147,1361333,65753,7386,680723,0
0,3,712812,248396,1392108,74171,9085,696091,0
0,-1,644587,219912,1172413,66105,8039,586233,0
0,-1,640896,218890,1310413,65520,7056,655366,0
0,-1,634523,219311,1627416,65338,7880,813026,0
0,-1,637741,219028,1223815,65213,6992,611992,0
0,-1,640069,220023,1217225,65852,7293,608655,0
0,3,713586,249306,1475181,74722,8694,737655,0
0,-1,636092,218356,1195400,65121,7683,597707,0
0,-1,634391,218636,1384043,65273,7438,691948,0
0,-1,643270,219144,1400260,66187,8276,700085,0
0,-1,642846,218887,1316248,66094,9141,657852,0
0,3,714548,250584,1551240,74963,9932,775611,0
0,-1,636465,218727,1292755,66124,7920,646420,0
0,-1,643558,220594,1196382,66962,7565,597802,0
0,-1,641240,218756,1315451,66086,7073,657576,0
0,-1,636763,218367,1219734,65894,7250,609913,0
0,3,715751,249904,1463083,74725,9286,731592,0
0,-1,643341,219605,1334098,66345,8024,667036,0
0,-1,642938,219339,1255896,66239,8458,627979,0
0,-1,639978,219150,1308477,66249,8984,654148,0
0,3,710269,249069,1432804,74337,9151,716427,0
0,-1,637681,219245,1291672,66223,7818,645911,0
0,-1,639478,218892,1260484,66157,8454,630143,0
0,-1,659916,223761,1394184,69545,9071,697050,0
0,-1,660236,222863,1388694,69250,8197,694047,0
0,3,712683,249089,1409557,74439,9547,704838,0
0,-1,643742,219469,1330580,66345,7211,665342,0
0,-1,658224,223462,1444908,69450,9345,722463,0
0,-1,640125,218842,1258404,66164,8815,629011,0
0,3,715221,249190,1370502,74378,8098,685228,0
0,-1,640870,218632,1291184,65978,8048,645594,0
0,-1,643369,218869,1321885,66122,7866,660914,0
0,-1,643565,219324,1322121,66297,8559,661313,0
0,3,737464,254051,1498879,77750,10551,749490,0
0,-1,643492,218752,1394820,66087,8426,697299,0
0,-1,649785,220409,1260357,66813,8160,630163,0
0,-1,642808,220020,1226296,66568,7788,612964,0
0,-1,645439,219840,1352056,66544,8488,676000,0
0,-1,640719,219526,1378754,66332,7795,689351,0
0,3,707254,247999,1421861,74170,8355,711032,0
0,-1,642435,219919,1226524,66392,7180,613276,0
1,-1,697638,239725,1438236,71813,9041,718674,0
1,-1,696302,238305,1342901,71031,8440,671432,0
1,-1,636830,219645,1216004,66059,7229,608187,2
1,-1,638561,218931,1309381,65671,6632,654694,0
1,-1,639155,219181,1153236,65883,7367,576741,0
1,3,711007,247950,1353627,73696,8839,677160,0
1,-1,664810,228889,1366516,68989,8435,683360,0
1,-1,640030,219060,1261529,65869,7136,630782,0
1,3,709281,248243,1464715,73807,8991,732335,0
1,-1,642186,220477,1406492,66496,8122,703319,0
1,-1,639190,219432,1313594,66204,7576,656848,0
1,3,710552,248028,1492616,73634,9139,746350,0
1,-1,640967,219558,1257545,65937,6964,628829,0
1,-1,645635,219606,1238760,65903,7342,619485,0
1,-1,642505,219792,1248772,65910,7288,624429,0
1,-1,660546,223695,1254024,69142,8218,627036,0
1,3,709443,248295,1425223,73868,9159,712775,0
1,-1,649579,221397,1297107,66921,8017,648480,0
1,-1,637435,218918,1289162,65925,6976,644503,0
1,-1,639590,218813,1300149,65821,8185,650252,0
1,-1,646076,219576,1285764,66115,7032,642929,0
1,-1,636967,219874,1309537,66226,8475,654399,0
1,-1,639176,220544,1323620,66721,8260,661887,0
1,3,731648,253315,1372130,77301,9497,686021,0
1,-1,636293,218515,1338869,65749,7697,669474,0
1,-1,637678,219944,1213767,66179,6788,607018,0
1,3,713263,250076,1386661,74571,9368,693300,0
1,-1,640092,220004,1350076,66188,7131,674924,0
1,-1,641000,220770,1190773,66616,7176,595414,0
1,-1,635958,219319,1295414,65903,7706,647737,0
1,-1,639468,219572,1301304,65982,7794,650588,0
1,3,709272,249219,1518092,74196,9441,758905,0
1,-1,639424,219547,1317693,66028,7499,658907,0
1,-1,635567,218572,1257277,65670,7654,628473,0
1,-1,640090,219170,1372577,65817,7351,686128,0
1,3,712163,248389,1418009,73877,9585,708987,0
1,-1,640405,219447,1203875,66044,7761,601882,0
1,-1,642520,221165,1358396,66764,7897,679135,0
1,-1,642524,219702,1484452,66122,8689,741634,0
1,-1,662431,224161,1403547,69336,7694,701741,0
1,-1,640572,218987,1392220,65817,7867,696216,0
1,-1,640525,220084,1635439,66171,8657,817790,0
1,3,716444,251681,1486289,74959,9553,743357,0
1,-1,641781,220017,1295306,66156,7109,647175,0
1,-1,639624,219791,1238351,65967,7578,619231,0
1,-1,639680,219600,1156260,66044,6961,578170,0
1,-1,644810,220965,1287807,66556,8086,643954,0
1,3,710386,249000,1640090,74086,10750,820084,0
1,-1,641685,219171,1418736,65822,7804,709425,0
1,-1,641858,219929,1396034,66039,7793,698066,0
1,-1,648103,220232,1241250,65997,6782,620592,0
1,3,708781,248633,1570192,73829,8960,785107,0
1,-1,639149,220139,1375395,65978,8342,687751,0
1,-1,644360,221322,1261664,66715,8075,630772,0
1,-1,639850,219572,1305526,65900,7540,652817,0
1,3,704177,247368,1338040,73297,8829,669153,0
1,-1,645636,220190,1234265,66116,7698,617182,0
1,-1,647728,221624,1243083,66909,8311,621627,0
1,-1,638605,218904,1429374,65655,8516,714828,0
1,-1,647331,220804,1299028,66595,8165,649526,0
1,-1,660278,223581,1399696,69035,9113,699916,0
1,3,711417,247838,1471060,73423,9544,735527,0
1,-1,636448,218705,1343186,65652,8051,671682,0
1,-1,639397,218570,1333257,65645,7835,666477,0
1,-1,640341,218822,1380305,65588,8456,689958,0
1,-1,649917,221750,1359999,66674,8860,680023,0
1,3,716105,249015,1422374,73851,8247,711231,0
1,-1,646237,219178,1294795,65636,7785,647368,0
1,-1,638036,218747,1304919,65563,7760,652269,0
1,3,701463,247658,1621998,73149,10082,811004,0
1,-1,638062,218664,1327377,65530,6957,663352,0
1,-1,642697,220906,1343403,66587,7206,671868,0
1,-1,644675,220660,1302949,66506,7927,651352,0
1,-1,641787,219094,1244497,65678,7126,622329,0
1,-1,639091,218977,1277375,65629,8007,638603,0
1,3,705596,248042,1428169,73975,9111,714318,0
1,-1,641949,219488,1241415,65846,7713,620969,0
1,-1,643768,219482,1244774,65846,7580,622471,0
1,-1,641043,218382,1229953,65474,7258,615030,0
1,3,727899,252492,1514976,77334,10541,757422,0
1,-1,643740,218940,1261044,65673,8009,630658,0
1,-1,640416,218613,1479409,65435,8247,740017,0
1,-1,632658,218711,1414293,65080,8047,707214,0
1,-1,637913,219886,1167763,65675,6732,583883,0
1,-1,634195,218503,1194669,65108,7124,597387,0
1,3,735018,257292,1678780,76872,9657,839316,0
1,-1,634725,218895,1248938,65267,8339,624456,0
1,-1,636176,218540,1288522,65177,7673,644163,0
1,-1,641874,219314,1289362,66227,7896,644671,0
1,-1,645735,220052,1509596,66735,9593,754812,0
1,3,709427,249079,1451306,74576,10498,725465,0
1,-1,636951,219354,1209158,66296,7352,604680,0
1,-1,639254,219195,1273030,66246,7750,636387,0
1,-1,641643,219016,1293710,66213,7459,646902,0
1,-1,638870,219578,1299632,66380,7309,650053,0
1,3,713177,249681,1456257,74629,10387,728478,0
1,-1,660062,223104,1310329,69316,9097,654846,0
1,-1,644039,219830,1228315,66659,7670,613942,0
1,-1,640508,219782,1409532,66342,9177,704748,0
1,-1,644842,220864,1231008,67085,7667,615434,0
1,3,708327,248056,1349950,73962,8368,675015,0
1,-1,638446,218890,1296122,66096,7909,648102,0
1,-1,637023,218450,1255246,65989,8404,627404,0
1,-1,640069,219210,1262995,66286,6842,631022,0
1,3,735585,253627,1397793,77686,10123,698644,0
1,-1,640053,218461,1248799,66030,7318,624335,0
1,-1,638023,219153,1308051,66210,7304,654080,0
1,-1,660203,223532,1375182,69409,9116,687626,0
1,3,716101,249209,1390588,74323,9020,695200,0
1,-1,640822,218799,1356927,66087,8334,678491,0
1,-1,647432,220449,1235404,66848,7981,617506,0
1,-1,641270,219117,1338452,66252,8407,669193,0
1,3,713187,248503,1441924,74092,9597,721095,0
1,-1,642898,218817,1369530,66051,8549,684657,0
1,-1,645945,219047,1207325,66177,8078,603606,0
1,-1,643258,220293,1368355,66627,8593,684190,0
1,-1,645114,220572,1259707,66756,8659,629781,0
1,-1,642360,219896,1411094,66436,8450,705533,0
1,3,709492,247971,1389230,74206,8133,694621,0
1,-1,645263,220140,1349857,66474,8813,674949,0
2,-1,712707,241551,1385747,73937,8446,692901,0
2,-1,688022,235785,1253840,70307,7507,626927,0
2,-1,641662,220415,1371440,66365,8946,685295,0
2,-1,636128,218321,1287565,65477,7329,643829,2
2,-1,639305,218969,1381564,65804,7760,690833,0
2,3,711197,248127,1511396,73713,10126,755769,0
2,-1,634665,218893,1345277,65827,7895,672545,0
2,-1,638176,218712,1186028,65714,6774,593066,0
2,3,736051,254192,1451555,78059,9338,725763,0
2,-1,638889,218783,1346331,65807,7607,673164,0
2,-1,638758,218580,1192097,65717,6580,596100,0
2,-1,639350,219388,1294046,65873,6745,647070,0
2,3,713064,248520,1637303,73845,9176,818704,0
2,-1,645383,219480,1282946,65810,7717,641515,0
2,-1,644924,221238,1320304,66686,7775,660175,0
2,-1,635969,218247,1305532,65583,7316,652876,0
2,3,712891,248730,1386382,74107,9491,692991,0
2,-1,663323,223527,1239182,69275,8816,619657,0
2,-1,641352,219221,1288321,65987,7682,644219,0
2,-1,642029,220197,1351199,66536,8144,675265,0
2,-1,665479,224034,1281888,69326,8355,641030,0
2,-1,632192,218464,1291154,65696,7493,645412,0
2,3,707103,248797,1354346,74037,9040,677173,0
2,-1,634630,219077,1339908,65989,7091,670034,0
2,-1,641738,219605,1411465,66095,7600,705776,0
2,-1,637140,219200,1305288,65992,7178,652641,0
2,3,710100,248495,1339570,73918,8177,669589,0
2,-1,644755,221656,1346557,66979,7811,673325,0
2,-1,637372,219558,1162125,66043,7306,581116,0
2,-1,635878,219794,1182490,66122,6826,591288,0
2,3,711160,250366,1434268,74531,8539,717076,0
2,-1,642281,220720,1445200,66597,7868,722720,0
2,-1,639362,219645,1329814,66021,7268,664831,0
2,-1,639298,219877,1169813,66073,6928,584887,0
2,-1,644891,220811,1288427,66634,7442,644021,0
2,3,716450,250905,1452454,75022,10171,726176,0
2,-1,644773,220036,1261413,66141,8280,630397,0
2,-1,657942,224055,1322816,69316,7679,661360,0
2,-1,639409,219053,1219632,65813,6904,609817,0
2,-1,639727,219331,1517724,65950,8536,758784,0
2,-1,663443,223949,1264131,69287,8025,632167,0
2,-1,638145,219263,1246904,65944,7130,623456,0
2,3,738935,259419,1425772,77012,9062,712933,0
2,-1,641866,220336,1243110,66248,7377,621569,0
2,-1,637296,219318,1309804,65742,7474,654987,0
2,-1,637843,219193,1209579,65817,6503,604845,0
2,-1,639738,219615,1214012,65879,7287,607102,0
2,3,714569,249970,1595091,74603,10863,797519,0
2,-1,646344,221278,1301974,66742,7624,651055,0
2,-1,663999,224648,1286417,69416,7777,643027,0
2,3,709395,248570,1487251,73811,10026,743728,0
2,-1,645423,220696,1171764,66187,6600,585763,0
2,-1,661597,224655,1306209,69281,8571,653104,0
2,-1,647279,222104,1421425,66897,8202,710792,0
2,3,713325,249881,1500898,74372,9396,750439,0
2,-1,646342,221868,1302239,66955,7671,651374,0
2,-1,645945,220524,1328553,66167,8144,664270,0
2,-1,662410,223801,1156531,69161,8800,578323,0
2,-1,660815,224194,1354343,69220,9282,676881,0
2,-1,643889,219359,1288847,65930,8589,644462,0
2,-1,637964,219159,1280164,65729,7387,639991,0
2,3,711178,248990,1536064,73901,9356,768010,0
2,-1,642549,221479,1309766,66933,8587,654757,0
2,-1,644498,220777,1319908,66690,8239,659942,0
2,-1,639482,219219,1233247,65703,7736,616634,0
2,-1,642192,219110,1284787,65558,7466,642435,0
2,3,711652,247721,1400924,73385,8019,700508,0
2,-1,670911,225308,1336719,69460,8672,668404,0
2,-1,636132,218579,1317598,65509,7721,658852,0
2,3,702894,248117,1349351,73292,9122,674733,0
2,-1,659714,223630,1258012,68981,7968,628969,0
2,-1,660038,224360,1316699,69221,8319,658391,0
2,-1,640830,219630,1280419,65890,7591,640139,0
2,-1,646568,220583,1260900,66377,8125,630492,0
2,-1,637381,218798,1197513,65623,7497,598683,0
2,3,714195,249416,1356378,74753,8725,678260,0
2,-1,640359,219233,1238798,65761,8082,619347,0
2,-1,639394,218076,1159264,65305,8010,579571,0
2,-1,662300,223554,1300703,68988,7592,650336,0
2,3,709284,248145,1414693,74039,10057,707288,0
2,-1,669423,228108,1376430,68337,8213,688187,0
2,-1,647232,219994,1405412,66142,9030,702218,0
2,-1,638252,221314,1324018,66168,7805,661347,0
2,-1,632288,218034,1288640,64799,7163,644260,0
2,-1,634713,218976,1306610,65266,8173,653346,0
2,3,709757,248123,1310317,74161,9273,655204,0
2,-1,641140,221564,1169535,66483,8031,584736,0
2,-1,639169,219454,1232231,65531,7409,616066,0
2,-1,638800,218532,1261652,66009,8042,630557,0
2,-1,641187,218585,1332250,66011,9209,666066,0
2,3,714481,250407,1362865,75202,9473,681314,0
2,-1,636579,218894,1274594,66113,8589,637320,0
2,-1,637677,218990,1403246,66170,8710,701640,0
2,-1,642469,219418,1363444,66292,7313,681758,0
2,-1,644454,220503,1241451,66866,7875,620798,0
2,3,714695,248856,1479013,74381,9698,739578,0
2,-1,642802,219880,1184984,66427,7107,592494,0
2,-1,639574,218567,1274346,66002,7745,637184,0
2,-1,638383,219809,1326093,66428,8749,663092,0
2,-1,660021,223227,1338931,69367,8602,669516,0
2,3,711276,249483,1437662,74448,9331,718883,0
2,-1,661347,223854,1249659,69578,9262,624602,0
2,-1,646626,220984,1213927,67103,7592,607131,0
2,3,708143,248548,1481176,74171,10920,740472,0
2,-1,638078,218744,1284195,66059,7851,642133,0
2,-1,641989,219414,1391660,66344,7782,695870,0
2,-1,646317,219695,1217095,66602,7886,607661,0
2,-1,641088,219086,1347739,66202,8453,673741,0
2,3,713171,248776,1362217,74284,10237,680985,0
2,-1,640807,219126,1406492,66229,8246,702989,0
2,-1,642174,218756,1294404,66112,8134,647164,0
2,-1,645910,220739,1248933,67032,7986,624372,0
2,3,714524,248707,1303299,74176,9058,651599,0
2,-1,643008,219041,1225923,66114,7406,612909,0
2,-1,648109,220243,1187932,66727,8721,593845,0
2,-1,645274,221326,1243350,67238,8799,621300,0
2,-1,642262,219351,1277676,66374,8334,638890,0
2,-1,661653,224214,1386605,69705,8041,693245,0
2,3,708520,247783,1419851,74210,8910,709936,0
2,-1,663608,224749,1419844,69848,9477,709885,0
2,-1,650621,221654,1232658,67330,8019,616419,0
3,-1,692706,237760,1316025,70943,6685,658004,0
3,-1,692488,237041,1299836,70640,8457,650135,0
3,-1,640291,220158,1327285,66508,7492,663658,0
3,-1,637074,218305,1199070,65582,7436,599385,0
3,3,710106,248146,1430833,73734,8843,715468,0
3,-1,640620,219312,1228762,65852,6843,614436,2
3,-1,640237,218454,1320733,65650,7363,660537,0
3,-1,638736,218899,1300936,65822,7435,650513,0
3,3,707719,247904,1379210,73718,8296,689692,0
3,-1,646273,221769,1328094,67079,8051,664103,0
3,-1,659366,223085,1216159,69011,7882,608068,0
3,3,711614,248559,1439890,73762,9060,719995,0
3,-1,661907,223790,1295726,69195,7900,647897,0
3,-1,644548,219593,1170129,65871,7615,585112,0
3,-1,661362,224237,1301856,69191,7986,650960,0
3,-1,641137,219709,1272828,66030,7241,636512,0
3,3,708360,248326,1456536,73986,9601,728314,0
3,-1,642746,219695,1293341,66186,7082,646750,0
3,-1,641555,218931,1277650,65863,6840,639036,0
3,-1,645681,219513,1354234,66081,7889,677130,0
3,-1,645395,219189,1262834,65976,7946,631461,0
3,-1,659623,223602,1344197,69233,8905,672112,0
3,3,708174,249308,1511317,74177,8899,755712,0
3,-1,635620,219753,1350773,66083,6968,675440,0
3,-1,642248,220882,1251229,66830,7649,625820,0
3,-1,635310,218539,1358101,65732,7606,679078,0
3,3,709676,249250,1461373,74114,8782,730726,0
3,-1,660133,224049,1244421,69323,7171,622201,0
3,-1,642079,219999,1204913,66175,6885,602505,0
3,-1,638052,220233,1307847,66446,7462,654031,0
3,3,704735,248747,1451959,73979,8983,725963,0
3,-1,638071,219355,1349489,65939,7473,674796,0
3,-1,641713,220919,1283760,66652,8039,641952,0
3,-1,658825,224127,1352557,69344,8036,676340,0
3,3,710654,249016,1436256,74081,8676,718120,0
3,-1,640616,219800,1287417,66070,7206,643740,0
3,-1,641699,219379,1148547,65998,7588,574208,0
3,-1,634128,219023,1500919,65836,7791,750326,0
3,-1,643359,221108,1325273,66808,7605,662888,0
3,-1,639933,219724,1203760,66089,6704,601870,0
3,-1,640483,219416,1310456,66022,6970,655242,0
3,-1,641041,220500,1303917,66537,7782,651948,0
3,3,711193,251098,1409019,74754,9442,704566,0
3,-1,639659,219593,1702711,65978,8856,850639,0
3,-1,646630,220250,1277473,66062,7810,638788,0
3,-1,662604,224896,1288761,69406,8072,644419,0
3,3,706627,248332,1552839,73701,10390,776360,0
3,-1,641884,219674,1239117,65954,7476,619617,0
3,-1,643313,219527,1233270,65929,7305,616672,0
3,-1,641300,220327,1197025,66235,6929,598654,0
3,3,737114,253664,1585540,77317,11185,792713,0
3,-1,649452,222073,1589195,66911,8896,794674,0
3,-1,637036,219979,1331516,65874,7504,665727,0
3,-1,664981,225627,1315529,69619,8490,657267,0
3,3,731243,254031,1340917,77306,9941,670351,0
3,-1,663730,225326,1251983,69590,8243,625751,0
3,-1,643395,219684,1243032,65866,7544,621550,0
3,-1,641552,219697,1140980,65966,7098,570340,0
3,-1,639255,219621,1310565,65891,8105,655267,0
3,-1,640492,218453,1357202,65556,8357,678691,0
3,-1,638214,219050,1384214,65688,8568,692053,0
3,3,707441,247797,1335652,73495,8202,667860,0
3,-1,660421,223310,1293744,68988,8357,646854,0
3,-1,662120,223958,1303400,69246,8552,651950,0
3,-1,641714,218974,1283745,65635,8053,641917,0
3,-1,642502,219772,1509627,65832,9536,754802,0
3,3,711697,247174,1392698,73340,9070,696393,0
3,-1,645739,219821,1363444,65868,8533,681777,0
3,-1,660025,223289,1411860,68887,8177,706215,0
3,3,708248,247929,1472291,73216,9466,736221,0
3,-1,637625,218938,1328752,65616,7810,664439,0
3,-1,635798,218969,1228692,65657,7553,614395,0
3,-1,638895,218552,1290670,65516,7243,645387,0
3,-1,639120,218680,1408456,65548,8137,704201,0
3,3,707129,247829,1328530,74001,10497,664189,0
3,-1,635561,218304,1283311,65364,8739,641512,0
3,-1,637715,218687,1195186,65509,7027,597644,0
3,-1,642144,219329,1248968,65819,8181,624281,0
3,-1,639148,218852,1254691,65654,7031,627384,0
3,3,709037,247569,1435843,73872,9363,717881,0
3,-1,646689,221193,1261360,66726,7059,630981,0
3,-1,649092,221085,1176911,66552,7356,588522,0
3,-1,634447,219307,1362906,65301,7154,681569,0
3,-1,634801,219287,1242635,65300,7037,621314,0
3,3,708556,247946,1392803,74013,9681,696407,0
3,-1,638796,219284,1255172,65421,7182,627642,0
3,-1,654612,223346,1398224,68575,8548,699126,0
3,-1,643368,221572,1224008,66537,7652,611958,0
3,-1,640129,219069,1299303,66137,7737,649601,0
3,-1,642031,219162,1255121,66250,8508,627594,0
3,3,708537,248910,1484936,74350,10175,742537,0
3,-1,661222,223543,1565563,69455,10068,782732,0
3,-1,639137,218963,1431923,66143,8679,715953,0
3,-1,660505,223254,1344273,69380,7978,672176,0
3,3,714820,249395,1502430,74523,9871,750902,0
3,-1,640799,218650,1258699,66037,8029,629404,0
3,-1,640588,219227,1292250,66294,7749,646026,0
3,-1,642634,219394,1347336,66245,8480,673647,0
3,-1,639531,220410,1228784,66756,8076,614376,0
3,-1,637403,218459,1274291,65969,7304,637085,0
3,3,709286,248679,1486470,74144,9334,743134,0
3,-1,638824,219284,1173680,66295,7424,586880,0
3,-1,662665,223653,1365215,69505,8579,682581,0
3,3,708441,248503,1419004,74079,9393,709528,0
3,-1,641297,219348,1350752,66236,8344,675422,0
3,-1,644851,220542,1216489,66886,7369,608316,0
3,-1,641539,218841,1221625,66041,7973,610858,0
3,-1,637969,218903,1315240,66058,8654,657631,0
3,3,717884,249357,1483520,74518,9667,741530,0
3,-1,638319,218655,1333394,66099,8075,666732,0
3,-1,641788,218729,1254654,66073,7137,627287,0
3,-1,663025,223727,1361153,69516,8934,680579,0
3,3,710546,248038,1448407,73937,8933,724085,0
3,-1,641288,219157,1291175,66216,8291,645693,0
3,-1,643602,218426,1190692,66043,8001,595300,0
3,-1,640864,219050,1198917,66191,8204,599623,0
3,-1,646827,221565,1436801,67454,8626,718633,0
3,-1,640966,219159,1220653,66298,8135,610321,0
3,3,729826,252934,1526155,77632,10053,763029,0
3,-1,646133,220015,1365520,66543,8381,682521,0
3,-1,666431,224465,1424122,69761,9151,712072,0
4,-1,689988,237021,1562829,70615,8336,781340,0
4,-1,693502,237596,1250152,70820,7855,625059,0
4,-1,641455,219656,1226637,66016,7102,613289,0
4,-1,634941,218174,1273550,65327,7397,636814,0
4,3,712248,248104,1396441,73724,8658,698162,0
4,-1,637440,218591,1310619,65713,8215,655355,2
4,-1,640498,218027,1192648,65399,7008,596376,0
4,-1,641139,220388,1324346,66588,8109,662235,0
4,3,707069,247696,1367855,73542,8729,683941,0
4,-1,658154,223131,1304441,68995,8733,652231,0
4,-1,639513,219587,1185001,66108,7370,592543,0
4,3,711905,249818,1547352,74440,9495,773722,0
4,-1,637479,217968,1171712,65626,7035,585919,0
4,-1,648861,221530,1334990,66725,7883,667564,0
4,-1,641714,219720,1320843,65936,7300,660471,0
4,-1,639170,219345,1355875,65886,7150,678029,0
4,3,734270,253092,1378996,77325,9171,689493,0
4,-1,644376,220007,1352698,66487,7308,676407,0
4,-1,641204,219085,1306937,65975,7461,653522,0
4,-1,643080,219501,1333094,66112,8224,666600,0
4,-1,644122,219448,1199440,66091,7474,599884,0
4,3,739615,259514,1524942,77493,9339,762487,0
4,-1,635768,218905,1225265,65904,7302,612573,0
4,-1,638728,218942,1190364,65957,7617,595246,0
4,-1,636771,218910,1226033,65842,8022,612943,0
4,-1,637225,219868,1327840,66354,7586,664029,0
4,3,714264,250999,1457906,75019,9144,728980,0
4,-1,636104,218732,1323567,65710,7178,661832,0
4,-1,637852,218405,1198351,65559,6980,599234,0
4,-1,636468,219649,1178665,66078,7073,589372,0
4,3,715780,248868,1458074,74008,8996,728993,0
4,-1,636013,219118,1195639,65851,7103,597860,0
4,-1,659807,223881,1219304,69259,8089,609490,0
4,-1,640305,220914,1389017,66647,7785,694717,0
4,3,709256,248861,1610265,74068,10900,804792,0
4,-1,638632,219052,1247847,65825,7288,623963,0
4,-1,639248,218855,1235922,65730,8030,617859,0
4,-1,641912,219004,1261105,65818,7509,630560,0
4,-1,637396,219450,1369502,65968,7266,684792,0
4,-1,635357,218461,1466019,65632,8869,732727,0
4,-1,638749,219078,1244619,65802,6716,622303,0
4,-1,639579,219804,1224174,66133,6842,612038,0
4,3,718398,250945,1519290,74739,9534,759675,0
4,-1,662199,223858,1251884,69142,7791,625688,0
4,-1,642942,219265,1271439,65799,8336,635782,0
4,-1,637533,219100,1259488,65730,6836,629795,0
4,3,710190,248133,1350968,73744,9159,675532,0
4,-1,661727,224212,1301600,69200,7871,650761,0
4,-1,642476,219679,1288114,65897,7715,643978,0
4,-1,649031,221330,1330612,66649,8297,665466,0
4,3,714329,248902,1409901,73903,10387,704997,0
4,-1,644099,220298,1358513,66023,7882,678859,0
4,-1,639465,220741,1349682,66218,7903,674548,0
4,-1,643298,220810,1353142,66271,8005,676443,0
4,3,714744,249203,1455237,73884,9977,727539,0
4,-1,639988,220064,1318226,66098,7781,659130,0
4,-1,643953,220215,1336963,66103,8239,668533,0
4,-1,639855,219450,1242164,65935,8005,621137,0
4,-1,643624,219153,1413482,65796,8282,705918,0
4,-1,643955,218988,1367467,65789,8941,683816,0
4,3,731429,252323,1456481,76777,10410,728199,0
4,-1,642489,219611,1360183,65986,8038,679941,0
4,-1,641365,218980,1273320,65793,8274,636611,0
4,-1,634271,217230,1203366,65217,7419,601400,0
4,-1,643160,219678,1355747,65836,8862,677837,0
4,-1,643936,219535,1233769,65770,8193,616883,0
4,3,712426,248380,1456368,73599,8372,728345,0
4,-1,645741,219513,1319452,65645,8378,659759,0
4,-1,640372,219513,1245933,65889,6891,622661,0
4,3,708744,248442,1523097,73438,9579,760124,0
4,-1,641192,219148,1313280,65761,8501,656702,0
4,-1,644314,220427,1209288,66342,7303,604676,0
4,-1,647025,220876,1289078,66573,7965,644586,0
4,-1,662247,223604,1308532,69021,8435,654314,0
4,3,729372,252367,1466327,77354,9874,733059,0
4,-1,642560,221035,1272482,66594,7966,636316,0
4,-1,638286,218709,1183250,65612,7644,591661,0
4,-1,638627,218439,1275812,65504,8450,637854,0
4,3,706937,248120,1325360,74149,9582,662205,0
4,-1,645434,221076,1371515,66539,7957,685153,0
4,-1,662346,223959,1358346,69122,8263,678846,0
4,-1,642230,218846,1247824,65563,7398,623964,0
4,-1,645408,218610,1386623,65426,6919,691929,0
4,-1,657352,223694,1306290,68514,7690,653172,0
4,3,712044,248508,1482957,74177,9435,741509,0
4,-1,636801,218682,1187000,65065,6646,593542,0
4,-1,637173,220568,1212764,66068,7292,606362,0
4,-1,657663,223566,1361225,68650,8440,680539,0
4,-1,638352,218446,1284008,65941,7785,641901,0
4,-1,640238,218437,1253149,65935,8751,626577,0
4,3,707938,248273,1506308,74240,10242,753186,0
4,-1,637558,218758,1305546,66122,8679,652721,0
4,-1,637080,218705,1328824,66036,7544,664304,0
4,-1,639198,218992,1237272,66144,7092,618688,0
4,3,713061,249646,1506854,74666,9824,753283,0
4,-1,640347,218955,1190950,66177,7670,595527,0
4,-1,638479,218867,1260344,66145,8043,630240,0
4,-1,662096,223433,1354392,69358,8788,677071,0
4,-1,633816,218471,1243257,66005,7962,621450,0
4,-1,638093,218625,1197148,66026,7502,598599,0
4,3,731234,253753,1669121,77665,9891,834613,0
4,-1,636593,218365,1212279,65979,7608,606189,0
4,-1,638326,217902,1249591,65871,7395,624883,0
4,3,707811,248955,1348446,74294,9138,674254,0
4,-1,638218,218713,1351512,66090,8392,676006,0
4,-1,638920,218698,1285667,66108,7445,642875,0
4,-1,664121,223468,1317723,69467,8929,658891,0
4,3,718863,250888,1397141,75224,8667,698828,0
4,-1,646535,221344,1270143,67241,8270,635098,0
4,-1,646024,220459,1223704,66932,8224,611885,0
4,-1,643749,219084,1266290,66212,7987,633198,0
4,-1,638301,218287,1226011,65925,7690,613053,0
4,3,717144,249027,1590670,74299,10060,795332,0
4,-1,643914,219289,1248805,66246,7932,624409,0
4,-1,646622,220021,1285557,66457,8887,642793,0
4,-1,643256,220558,1315265,66790,8689,657510,0
4,-1,646068,221270,1298521,66910,7947,649276,0
4,-1,638109,219080,1259654,66179,7792,629871,0
4,3,707956,248423,1360877,74324,8836,680497,0
4,-1,647893,220944,1585835,66825,9282,792964,0
4,-1,643133,219189,1326191,66162,7538,663138,0
5,-1,694771,239115,1515386,71530,8318,757621,0
5,-1,699198,240408,1325757,72106,8775,662758,0
5,-1,636759,218105,1274854,65544,7885,637482,0
5,3,708506,247880,1500814,73717,9427,750453,0
5,-1,637507,218884,1190880,65668,7231,595466,0
5,-1,647923,221504,1408873,66864,8197,704780,0
5,-1,633517,219020,1195032,65877,7597,597273,2
5,-1,636488,218066,1275187,65505,7232,637638,0
5,3,730596,252812,1445848,77048,9724,722990,0
5,-1,638525,219280,1221805,65943,7361,610702,0
5,-1,635515,218380,1219086,65609,6907,609593,0
5,3,707296,248494,1424160,73809,9470,712177,0
5,-1,641460,219635,1271678,66081,6949,635898,0
5,-1,642928,219413,1280137,65916,7745,640118,0
5,-1,642908,220202,1451668,66033,7826,725981,0
5,-1,663812,223873,1311051,69173,9077,655574,0
5,3,708445,248431,1323418,74042,8534,661666,0
5,-1,640301,218547,1266629,65711,6811,633369,0
5,-1,641283,219579,1365066,66135,7582,682556,0
5,-1,643204,219965,1230419,66205,8034,615674,0
5,-1,643047,219083,1188795,65970,7990,594104,0
5,3,706456,248877,1324911,74167,8485,662536,0
5,-1,637594,219902,1285699,66230,7611,642892,0
5,-1,638045,218805,1308664,65860,7639,654370,0
5,-1,635608,218913,1195732,65930,7951,597923,0
5,-1,635068,219232,1218161,66008,6662,609132,0
5,3,708376,248273,1457045,73830,9651,728526,0
5,-1,637759,219679,1219696,66073,6659,609888,0
5,-1,645317,221623,1213357,67032,7271,606740,0
5,-1,634511,219176,1359727,65941,7954,679917,0
5,3,719297,251122,1448317,75076,10065,724154,0
5,-1,641704,220802,1296831,66648,7262,648318,0
5,-1,637557,219441,1259604,66001,8077,629569,0
5,-1,636798,219479,1382470,65949,8528,691310,0
5,3,708235,249328,1336012,74186,9055,667933,0
5,-1,638423,218840,1301696,65802,7169,650893,0
5,-1,661799,224265,1328822,69398,8984,664425,0
5,-1,662465,223482,1271447,69087,8438,635787,0
5,-1,637064,218199,1207141,65645,6921,603586,0
5,-1,644427,221834,1330180,67141,7584,665061,0
5,-1,641200,219794,1260294,66123,7224,630151,0
5,3,717838,250310,1424121,74304,8885,712120,0
5,-1,636567,219051,1333462,65864,7404,666629,0
5,-1,642456,220083,1336750,66203,7976,668381,0
5,-1,642263,219267,1242089,65757,8295,620968,0
5,-1,640702,219211,1343571,65760,7697,671862,0
5,3,716042,250420,1437981,74719,9609,718959,0
5,-1,644238,221176,1336299,66585,7537,668346,0
5,-1,645013,221139,1315087,66605,8316,657530,0
5,-1,645798,220466,1235222,66341,7048,617665,0
5,3,712780,248457,1527337,73790,10387,763636,0
5,-1,644127,220229,1235182,66011,7221,617648,0
5,-1,636687,220396,1208205,66128,7582,604130,0
5,-1,638976,219667,1323448,65781,7890,661691,0
5,3,713194,248741,1537298,73667,9775,768637,0
5,-1,642348,220137,1202584,66073,7488,601331,0
5,-1,642526,220197,1235729,66113,7822,617854,0
5,-1,640271,219116,1172106,65828,7565,586077,0
5,-1,644872,219865,1305244,65952,8628,652408,0
5,-1,642159,219222,1310118,65924,8200,654965,0
5,3,712572,248495,1415029,73796,9216,707447,0
5,-1,645398,221272,1246311,66739,8567,623043,0
5,-1,644783,220705,1369543,66585,7978,684653,0
5,-1,638839,219236,1362770,65916,8163,681383,0
5,-1,644101,220423,1338827,66210,8167,669516,0
5,-1,643212,219541,1241415,65758,8057,620715,0
5,3,712362,247935,1523396,73462,9066,760921,0
5,-1,648251,220755,1324548,66312,8111,661972,0
5,-1,638332,219051,1334220,65685,7636,667090,0
5,3,708315,248390,1564732,73356,9056,781797,0
5,-1,640078,219122,1332329,65684,8498,666117,0
5,-1,640729,218479,1370744,65482,8548,685415,0
5,-1,663846,224105,1269403,69152,8302,634767,0
5,-1,645448,220999,1240475,66529,7063,620357,0
5,3,724331,252158,1489046,77204,10400,744498,0
5,-1,644682,218440,1308934,65462,7050,654373,0
5,-1,642479,220634,1199182,66395,7031,599648,0
5,-1,662051,223839,1453592,69035,9001,726483,0
5,3,725851,252447,1389422,77366,9985,694309,0
5,-1,638447,218710,1313193,65545,7951,656593,0
5,-1,641925,218500,1300593,65478,7949,650149,0
5,-1,643320,219821,1278268,66034,6829,639157,0
5,-1,652366,221631,1218141,66736,6183,608745,0
5,-1,637168,220540,1215736,65901,7271,607985,0
5,3,709552,248244,1346927,74153,9326,673342,0
5,-1,636729,219399,1298436,65333,7151,649212,0
5,-1,643585,220118,1291069,65736,7745,645534,0
5,-1,635722,218973,1281549,65375,7653,640801,0
5,-1,639420,219180,1235739,66232,7721,617875,0
5,-1,637984,218181,1271034,65891,9554,635639,0
5,3,703885,248051,1335628,74049,8635,667678,0
5,-1,636016,218556,1415999,66012,8979,707924,0
5,-1,643387,219635,1267217,66354,7575,633578,0
5,-1,644894,220395,1284858,66839,6861,642478,0
5,3,715605,250177,1523279,74786,9346,761571,0
5,-1,640558,219025,1280021,66175,7816,640049,0
5,-1,639437,219553,1321840,66397,7349,660879,0
5,-1,638081,218425,1282862,65970,7495,641442,0
5,-1,639161,219123,1191464,66260,7461,595721,0
5,3,716111,249815,1500858,74462,9581,750481,0
5,-1,639411,219532,1311389,66362,8287,655756,0
5,-1,639075,219144,1344880,66230,8400,672489,0
5,-1,640915,218862,1375279,66183,7645,687696,0
5,3,712808,248583,1462513,74180,9125,731059,0
5,-1,637802,218469,1298044,65985,8504,649037,0
5,-1,639334,218790,1222610,66093,7714,611306,0
5,-1,641571,218195,1232698,65892,7221,616391,0
5,3,714626,249076,1442054,74442,9366,721074,0
5,-1,638723,218682,1236487,65974,6792,618171,0
5,-1,662370,223487,1375885,69439,8506,687907,0
5,-1,644648,219634,1267480,66584,7499,633772,0
5,-1,639738,218737,1333401,66080,8207,666617,0
5,3,712379,248585,1474531,74156,9413,737226,0
5,-1,641765,218529,1255887,65926,8019,627997,0
5,-1,662379,223114,1307825,69323,9345,653866,0
5,-1,640385,219893,1289075,66531,7982,644538,0
5,-1,647220,220953,1269879,67039,8353,635017,0
5,3,705546,248034,1347554,74282,8807,673749,0
5,-1,663349,224669,1408879,69920,9178,704203,0
5,-1,648323,221754,1208359,67297,7178,603762,0
5,3,706550,247877,1272374,74037,8006,636247,0
5,-1,644388,220188,1396171,66598,7924,698134,0
6,-1,692488,237623,1370316,70867,8120,685174,0
6,-1,693172,237059,1200509,70695,8942,600326,0
6,-1,637764,219111,1301521,65810,7587,650474,0
6,3,712557,250700,1480338,74772,9255,740213,0
6,-1,637062,219251,1257851,65790,8157,628965,0
6,-1,662548,223606,1472003,69065,8914,736071,0
6,3,704896,249057,1355241,74126,8490,677677,0
6,-1,637610,218823,1254468,65716,7293,627231,0
6,-1,636506,218957,1336983,65814,7697,668542,2
6,-1,636027,218605,1274620,65688,6607,637337,0
6,-1,637758,218901,1291876,65825,6907,645996,0
6,3,714783,248978,1434178,73884,8924,717134,0
6,-1,640983,219639,1274442,66097,7197,637227,0
6,-1,662716,223409,1248021,68908,8348,624068,0
6,-1,640419,219678,1269377,65924,7277,634709,0
6,3,706720,248756,1498415,74139,9244,749252,0
6,-1,640082,218603,1276371,65596,7635,638238,0
6,-1,641717,219372,1381668,66088,6936,690894,0
6,-1,668402,228746,1349758,68800,8048,674863,0
6,-1,645282,220363,1237093,66585,7510,618459,0
6,-1,641558,219150,1216908,65996,8016,608407,0
6,3,726782,252587,1344125,77089,9108,672008,0
6,-1,659582,227413,1311615,68379,7125,655248,0
6,-1,641015,220238,1283058,66341,7737,641525,0
6,-1,636187,219207,1374021,65896,7812,687054,0
6,-1,633618,218740,1364948,65791,7660,682138,0
6,3,711013,249124,1487402,74123,9913,743720,0
6,-1,638282,219194,1271976,65871,6704,636029,0
6,-1,639096,219516,1276175,66022,7240,638131,0
6,3,709120,248290,1311129,73833,8306,655513,0
6,-1,636862,220097,1256073,66171,7388,628084,0
6,-1,658408,224064,1375064,69290,7780,687527,0
6,-1,638488,220153,1231194,66154,7755,615613,0
6,-1,636722,219977,1274872,66133,7739,637472,0
6,3,712844,249344,1491838,74125,9395,745958,0
6,-1,638476,219450,1196806,65945,6969,598443,0
6,-1,643015,220493,1351043,66572,7803,675523,0
6,-1,643340,219770,1337688,66116,7745,668580,0
6,-1,643363,221317,1336606,66885,7636,668194,0
6,-1,657194,223487,1367963,69140,7380,683940,0
6,-1,638528,219427,1211423,66015,6743,605749,0
6,3,713474,249468,1417292,74262,8898,708698,0
6,-1,641216,218942,1203311,65816,7406,601636,0
6,-1,642869,220870,1428573,66624,7855,714222,0
6,-1,646727,221320,1298490,66743,7568,649281,0
6,-1,642190,220155,1288955,66090,6911,644474,0
6,3,735029,257967,1471504,76622,9799,735790,0
6,-1,641134,220255,1218916,66117,6994,609157,0
6,-1,644198,220532,1350657,66196,8067,675442,0
6,-1,644825,220929,1293681,66350,7584,646909,0
6,3,717762,250906,1467255,74863,10228,733593,0
6,-1,643434,220355,1338538,66100,7169,669281,0
6,-1,646294,221094,1218803,66295,7472,609453,0
6,3,734872,254123,1559463,77219,9971,780623,0
6,-1,660834,225012,1420605,69409,8795,709582,0
6,-1,643641,220449,1369398,66196,7904,684791,0
6,-1,645288,221180,1342900,66348,8813,671500,0
6,-1,641522,219941,1224614,66038,8008,612339,0
6,-1,638426,218598,1340929,65511,7860,670542,0
6,3,729708,252666,1502852,76862,9894,751502,0
6,-1,640491,218979,1273023,65726,7430,636581,0
6,-1,640430,219990,1240009,66050,7720,620165,0
6,-1,639002,218765,1280952,65729,7990,640508,0
6,-1,643363,219308,1246483,65932,8405,623292,0
6,-1,640750,219424,1308384,65894,8174,654383,0
6,-1,647708,221817,1318312,66767,8658,659173,0
6,3,713908,248610,1693990,73767,11076,846308,0
6,-1,646297,220278,1242648,65969,7935,621113,0
6,-1,658801,224414,1272179,69257,8596,636140,0
6,3,703947,247873,1410056,73171,8966,705049,0
6,-1,644447,221340,1193934,66707,7887,596886,0
6,-1,645445,220822,1291028,66551,7959,645448,0
6,-1,640875,218816,1231052,65579,7153,615575,0
6,3,707361,247903,1522577,74032,9491,761335,0
6,-1,638452,218723,1216936,65630,6897,608457,0
6,-1,642231,218636,1323875,65531,7986,661916,0
6,-1,640520,218731,1273022,65603,7174,636608,0
6,-1,638792,218548,1301984,65509,7901,651099,0
6,3,710351,247915,1272644,74041,9957,636281,0
6,-1,638048,218891,1262523,65662,7548,631232,0
6,-1,643658,219138,1247884,65669,7629,623941,0
6,-1,644381,219019,1278865,65608,7750,639452,0
6,-1,666351,223460,1375398,68852,7620,687653,0
6,-1,634783,218958,1261477,65198,6809,630778,0
6,3,715587,249154,1336752,74511,9458,668394,0
6,-1,633763,218391,1381606,64972,7572,690854,0
6,-1,643073,221077,1198546,66343,6795,599232,0
6,-1,641399,221122,1241456,66271,7140,620577,0
6,-1,641203,220342,1186422,66903,8068,593114,0
6,3,712489,247916,1546789,73993,10586,773436,0
6,-1,639536,218115,1384007,65814,9021,692171,0
6,-1,638363,219255,1294781,66295,8504,647299,0
6,-1,665492,227386,1364230,68689,8361,682126,0
6,-1,640973,218943,1305968,66123,6701,653114,0
6,3,712219,249689,1375594,74731,9462,687867,0
6,-1,641695,220019,1234804,66753,7384,617354,0
6,-1,637673,218677,1290260,66043,7989,645167,0
6,-1,643525,219092,1365132,66192,9099,682561,0
6,-1,645346,219045,1302499,66161,7759,651208,0
6,3,716126,249925,1459568,74529,8650,729833,0
6,-1,637674,218987,1648267,66186,8908,824069,0
6,-1,643216,220099,1261513,66742,7660,630800,0
6,-1,641148,219058,1433758,66210,7947,716315,0
6,3,714652,248743,1420436,74273,9213,710263,0
6,-1,638725,219172,1411704,66222,8923,705905,0
6,-1,641695,219818,1195506,66409,7358,597811,0
6,-1,644298,219557,1332955,66387,7847,666371,0
6,3,714211,249926,1344818,74727,9786,672085,0
6,-1,640983,219693,1404676,66373,7702,702335,0
6,-1,640885,219406,1322221,66318,7717,661014,0
6,-1,639497,217924,1249633,65743,7814,624975,0
6,-1,642522,219929,1362296,66696,8786,680998,0
6,3,715160,249354,1411020,74308,9171,705191,0
6,-1,646711,220773,1246705,67034,7851,623274,0
6,-1,645639,219004,1284829,66184,8698,642158,0
6,-1,638377,219908,1241856,66490,7142,620960,0
6,-1,643448,220438,1227200,66575,8003,613617,0
6,3,705051,248095,1410882,74239,8688,705217,0
6,-1,641766,219755,1451771,66537,8534,725952,0
6,-1,664816,224472,1409785,69791,9030,704824,0
6,3,712868,249339,1480410,74752,9194,740268,0
6,-1,645486,220973,1245511,67035,8010,622797,0
7,-1,697765,239833,1456317,71871,8733,728054,0
7,-1,693591,237254,1301562,70687,9007,650748,0
7,-1,638999,219197,1287000,65783,6954,643525,0
7,3,713339,249891,1446284,74453,8990,723119,0
7,-1,639903,218970,1209747,65653,7785,604909,0
7,-1,640486,218881,1299715,65796,8372,649785,0
7,3,712130,248888,1449708,74198,8721,724929,0
7,-1,658057,223203,1343777,69002,8342,671914,0
7,-1,637599,218497,1298650,65602,7657,649370,0
7,-1,634447,218265,1168503,65578,7172,584282,2
7,-1,635729,218493,1278936,65657,7318,639471,0
7,3,707530,248157,1451790,73795,8469,725936,0
7,-1,660956,224350,1314839,69447,8112,657386,0
7,-1,641095,219256,1241442,65833,7323,620790,0
7,-1,642284,220478,1333942,66347,7519,667009,0
7,3,711104,248039,1484373,73831,9049,742215,0
7,-1,643221,220248,1220859,66174,7266,610448,0
7,-1,641546,219812,1307429,66172,7264,653752,0
7,-1,639103,219181,1224108,66027,6894,612103,0
7,-1,643249,219807,1163570,66218,7426,581796,0
7,3,704315,248125,1419781,73809,8207,709929,0
7,-1,642177,218724,1157074,65765,7672,578388,0
7,-1,640698,221524,1543926,67015,8734,771968,0
7,-1,641016,220707,1290612,66718,7916,644985,0
7,-1,636322,219631,1383245,66156,7752,691655,0
7,-1,635546,219164,1206638,65942,7445,603284,0
7,3,706383,248565,1757726,73869,11116,878031,0
7,-1,641451,221115,1353017,66815,7708,676599,0
7,-1,639631,219895,1309857,66084,7194,654970,0
7,3,712425,248783,1461573,73988,8667,730190,0
7,-1,640365,221863,1409212,67045,7869,704653,0
7,-1,636716,219729,1305164,66095,6796,652328,0
7,-1,640469,220548,1378417,66540,7888,688820,0
7,3,708137,248843,1681930,73997,10480,840891,0
7,-1,638001,218700,1255374,65624,7007,626657,0
7,-1,640062,219673,1242413,66039,7494,620696,0
7,-1,641898,219767,1257253,66124,6586,628589,0
7,-1,645728,220740,1551112,66622,9246,775541,0
7,-1,641276,220489,1336619,66324,7903,668327,0
7,-1,639744,219130,1237936,65877,7605,618853,0
7,-1,640339,219319,1287317,65902,7661,643643,0
7,3,737206,254308,1377161,77602,9139,688354,0
7,-1,643592,220566,1322274,66595,8078,661058,0
7,-1,644305,221651,1225560,66983,7698,612694,0
7,-1,664322,224580,1391362,69325,7447,695294,0
7,3,706141,248126,1328298,73684,9223,664124,0
7,-1,645876,221699,1329040,66837,8343,664202,0
7,-1,635989,218847,1279381,65544,7459,639743,0
7,-1,641253,219201,1329415,65789,6769,664759,0
7,-1,643571,219580,1291789,65976,8188,645688,0
7,3,707828,247964,1456939,73700,8948,728436,0
7,-1,648343,222348,1343662,66920,8081,671891,0
7,-1,648003,220063,1210506,65898,7688,605300,0
7,3,715587,249445,1365425,73963,9116,682543,0
7,-1,645920,221084,1504814,66328,9049,752465,0
7,-1,646122,221594,1461111,66774,8174,730718,0
7,-1,644747,220876,1265017,66304,8246,632546,0
7,-1,640685,219592,1216557,65933,7646,608321,0
7,-1,639190,218767,1115136,65639,7511,557655,0
7,3,706050,247908,1362830,73560,8448,681333,0
7,-1,643846,219650,1170176,66041,8088,584946,0
7,-1,640794,219808,1263962,65988,7924,631840,0
7,-1,638650,218719,1292078,65614,8352,645930,0
7,-1,644834,220908,1324711,66707,7988,662474,0
7,-1,643496,220808,1324122,66542,7928,662109,0
7,-1,663297,224209,1282942,69058,8593,641334,0
7,3,713737,248655,1266648,73745,8231,633358,0
7,-1,648915,221437,1438865,66635,8633,719012,0
7,-1,638862,218536,1369240,65446,8049,684510,0
7,3,709359,250494,1355133,74300,9297,677641,0
7,-1,659004,223532,1289543,68940,8466,644740,0
7,-1,642861,219729,1275442,66134,7690,637778,0
7,-1,642534,220563,1292626,66397,7362,646318,0
7,3,709678,247954,1276099,74061,9891,637780,0
7,-1,637734,218547,1264145,65503,7083,632057,0
7,-1,643748,219440,1259936,65863,8076,629568,0
7,-1,641637,218943,1433661,65602,7734,716881,0
7,-1,643569,220384,1261834,66356,7728,630708,0
7,3,726816,252974,1547657,77488,11254,773682,0
7,-1,638730,219141,1385695,65687,8059,692613,0
7,-1,643803,219548,1348875,65879,7925,674458,0
7,-1,643405,219089,1219945,65683,6904,609826,0
7,-1,644295,218979,1305233,65612,6992,652670,0
7,3,711008,248222,1452031,74175,8971,726065,0
7,-1,632443,218571,1324208,65018,7351,662139,0
7,-1,636984,218988,1318820,65231,7032,659357,0
7,-1,656217,223050,1342881,68461,8254,671399,0
7,-1,634010,218884,1237559,65323,7097,618603,0
7,-1,639422,218353,1326297,66009,8899,663163,0
7,3,712962,247776,1565171,73934,11062,782507,0
7,-1,640878,218941,1447346,66183,9064,722599,0
7,-1,634936,218435,1247152,66038,7519,623507,0
7,-1,640559,219243,1353141,66306,8082,676540,0
7,3,713220,248675,1462923,74427,9848,731182,0
7,-1,644932,220813,1220282,67113,7055,610257,0
7,-1,659582,223276,1444904,69402,8435,722475,0
7,-1,673986,229494,1255116,69618,8386,627441,0
7,-1,642995,219119,1425747,66193,8330,712852,0
7,-1,647583,220297,1239402,66879,8012,619687,0
7,3,712144,249396,1588556,74377,9220,794526,0
7,-1,635408,218433,1348584,65901,8628,674316,0
7,-1,636666,218309,1259141,65922,7588,629587,0
7,3,712134,248583,1433431,74211,8828,716991,0
7,-1,645907,220803,1209821,66990,7414,604975,0
7,-1,639826,218735,1237899,66078,6726,618993,0
7,-1,639531,218631,1227679,66019,7707,613886,0
7,-1,640863,218489,1354393,65986,8102,677237,0
7,3,715101,249363,1351890,74531,9505,675508,0
7,-1,636612,218578,1326120,65919,7901,663000,0
7,-1,641378,220104,1246949,66703,7498,623429,0
7,-1,638913,218154,1346502,65833,7897,673327,0
7,-1,643834,218922,1584577,66189,9213,792333,0
7,3,713034,248535,1566836,74135,9610,783405,0
7,-1,640531,218858,1243822,66097,7803,622069,0
7,-1,647497,220222,1240678,66773,8250,620313,0
7,-1,642819,220169,1332457,66548,8705,666164,0
7,3,705425,247698,1439621,74163,9171,719812,0
7,-1,672419,231158,1307041,70162,8158,652744,0
7,-1,665967,224512,1397191,69894,8939,698646,0
7,-1,646437,220418,1228656,66681,7473,614181,0
7,3,707285,247923,1377475,74097,8997,688785,0
7,-1,645656,220571,1191729,66642,7242,595914,0
8,-1,689810,237340,1310644,70807,8312,655413,0
8,-1,695637,238636,1406185,71327,8504,702942,0
8,3,706902,248078,1490872,73808,9322,745555,0
8,-1,637044,218911,1239348,65617,7639,619418,0
8,-1,641069,218901,1282159,65681,8407,641120,0
8,-1,646326,221067,1335605,66751,8223,667838,0
8,3,727864,252355,1430029,76917,9883,714677,0
8,-1,640126,220380,1373684,66440,7681,686629,0
8,-1,640042,220120,1324321,66308,7449,661800,0
8,-1,641437,220779,1342633,66609,7814,671372,0
8,-1,638975,220593,1358860,66680,7965,679503,2
8,3,711773,249873,1399603,74585,8867,699867,0
8,-1,641465,219684,1270698,66144,7327,635423,0
8,-1,647810,221249,1368679,66650,7181,684403,0
8,-1,640090,219884,1229162,65970,7117,614635,0
8,3,711940,248507,1428274,74039,8146,714159,0
8,-1,642400,219932,1334088,66299,7685,667107,0
8,-1,646500,220647,1335876,66623,8100,667974,0
8,-1,643454,221332,1338429,66881,7611,669321,0
8,-1,640366,218779,1224232,65817,7519,612136,0
8,3,726120,253269,1382708,77309,9449,691478,0
8,-1,649024,221269,1242703,66974,8297,621377,0
8,-1,632620,218659,1290056,65726,7910,645071,0
8,-1,657730,223838,1263031,69316,8108,631534,0
8,-1,635228,219127,1554531,65943,8063,777309,0
8,-1,634955,219464,1337091,66090,8643,668452,0
8,3,706478,248732,1437845,74001,8950,718742,0
8,-1,639128,219986,1210433,66139,6847,605263,0
8,-1,641300,219925,1303895,66143,6427,651954,0
8,3,710242,248675,1499339,73956,9064,749635,0
8,-1,643825,219621,1366526,66043,7756,683317,0
8,-1,638182,220729,1336584,66610,7736,668467,0
8,-1,635693,219360,1474568,65905,7803,737324,0
8,3,707147,248534,1278436,73925,8427,639132,0
8,-1,643034,219989,1224658,66098,7842,612380,0
8,-1,639387,219540,1192291,65989,6877,596108,0
8,-1,641904,220238,1307118,66267,7603,653454,0
8,-1,641338,219397,1575804,66033,9111,787394,0
8,-1,637257,219322,1255432,65948,7080,627761,0
8,-1,641757,220385,1393082,66352,9518,695443,0
8,3,712975,249460,1454495,74157,9049,727202,0
8,-1,643015,220210,1238274,66262,7024,619116,0
8,-1,638858,219259,1241652,65963,7825,620808,0
8,-1,658584,223901,1252549,69240,7994,626381,0
8,-1,643687,220151,1552659,66080,8728,776328,0
8,3,714427,249171,1497764,73944,9813,749006,0
8,-1,661257,224490,1329708,69289,7976,664732,0
8,-1,666293,224476,1428484,69289,8416,714008,0
8,-1,646386,221380,1402046,66683,7447,700619,0
8,-1,645458,220933,1221128,66462,7526,610381,0
8,3,712511,248709,1505323,73950,10391,752422,0
8,-1,650694,223004,1244666,67272,8006,622367,0
8,-1,651870,222019,1231019,66900,8037,615587,0
8,3,716723,251238,1454934,74723,9622,727741,0
8,-1,645601,221445,1361869,66649,8823,680943,0
8,-1,640512,220144,1221993,66119,7208,611248,0
8,-1,641368,220027,1236969,66010,7606,618581,0
8,-1,643310,221375,1246161,66809,7637,623186,0
8,-1,639125,219176,1223403,65810,7311,611788,0
8,3,710589,249348,1332419,74054,7862,666263,0
8,-1,662215,224105,1357041,69274,9627,678498,0
8,-1,643008,220736,1221741,66510,8370,610895,0
8,-1,642220,219421,1235435,65867,7895,617784,0
8,-1,661031,224060,1355299,69259,8100,677622,0
8,-1,639450,218765,1326420,65644,8055,663280,0
8,-1,642477,219752,1281454,65817,8598,640380,0
8,3,734136,252835,1506729,76899,9728,753195,0
8,-1,645521,219996,1405384,65849,8839,702675,0
8,-1,640356,219592,1310750,65765,8161,655455,0
8,3,707477,248942,1457368,73404,8954,728727,0
8,-1,637630,219419,1325458,65836,7973,662741,0
8,-1,638434,218844,1300455,65586,8166,650563,0
8,-1,641962,219604,1320639,65887,7262,660367,0
8,3,712874,250292,1475349,75113,10783,737142,0
8,-1,641590,219256,1192614,65801,7385,596138,0
8,-1,649972,221796,1297929,66929,8841,649063,0
8,-1,662761,224082,1305902,69164,7192,652987,0
8,-1,639368,218883,1370319,65622,7625,685349,0
8,3,705440,247819,1341037,73980,9979,670631,0
8,-1,646993,221553,1291781,66787,7586,645403,0
8,-1,645342,220309,1217585,66306,7534,608773,0
8,-1,643027,219338,1386839,65663,8083,693307,0
8,-1,645016,219349,1219597,65730,6149,609597,0
8,3,708026,247764,1368473,74012,9270,684286,0
8,-1,653131,223336,1355366,68421,8444,677731,0
8,-1,637716,219603,1317531,65419,7253,658798,0
8,-1,637217,218714,1346443,65211,7375,673290,0
8,-1,633490,218928,1315139,65302,8158,657560,0
8,-1,637795,218150,1221287,65841,7926,610484,0
8,3,714436,248630,1528346,74223,10157,764177,0
8,-1,642074,219380,1383823,66309,8805,692287,0
8,-1,643726,221716,1255148,67333,8422,627594,0
8,-1,638975,218678,1283787,66030,8050,641912,0
8,3,714822,249518,1542332,74679,9884,771185,0
8,-1,659318,222910,1437438,69314,8045,718718,0
8,-1,637300,218719,1348103,66033,7890,674108,0
8,-1,644367,220599,1209156,66880,8199,604899,0
8,-1,643003,219585,1218820,66354,7925,609458,0
8,3,715306,249594,1491740,74498,9581,745902,0
8,-1,642538,218743,1193827,66071,7781,597041,0
8,-1,642190,219866,1205874,66485,8591,602868,0
8,-1,661727,223852,1484129,69547,9256,742029,0
8,3,713820,248736,1496223,74219,9707,748115,0
8,-1,660899,223417,1371477,69437,8744,685822,0
8,-1,641857,219941,1277726,66680,7855,638927,0
8,-1,642673,220470,1325408,66934,7491,661977,0
8,-1,641080,218814,1308514,66144,7649,654317,0
8,3,716130,250017,1421434,74950,8996,710536,0
8,-1,662438,223466,1405599,69415,9676,702770,0
8,-1,640092,218984,1425157,66202,7693,712471,0
8,-1,663217,223577,1426639,69433,9589,713166,0
8,3,713012,248670,1458996,74200,8665,729514,0
8,-1,641285,219154,1206478,66247,8137,603326,0
8,-1,640157,219057,1323751,66233,8226,661926,0
8,-1,642102,218594,1545897,66028,9280,773130,0
8,-1,644126,220297,1365000,66544,8513,682609,0
8,3,701549,247219,1286390,73918,8198,643202,0
8,-1,641579,220367,1313543,66644,7834,656742,0
8,-1,645776,219567,1309080,66443,8190,654658,0
8,-1,644640,220136,1332609,66541,7860,666273,0
8,3,709311,248177,1460333,74180,9623,730211,0
8,-1,644062,220249,1367839,66596,8019,683245,0
9,-1,690602,237165,1422473,70691,8416,711123,0
9,-1,691374,237230,1334805,70755,8183,667411,0
9,3,726720,252596,1392018,77063,9594,695900,0
9,-1,636372,218746,1299175,65586,7449,649622,0
9,-1,639608,218403,1262322,65406,7409,631208,0
9,-1,638469,218811,1221386,65677,6588,610711,0
9,3,706008,247596,1315679,73652,8353,657872,0
9,-1,635033,219167,1343847,65862,6967,672009,0
9,-1,636874,218514,1224037,65610,7300,612104,0
9,-1,633952,218293,1256165,65583,7507,628134,0
9,3,715527,250528,1609140,74829,10668,804695,0
9,-1,639861,219288,1408404,65946,8945,704001,2
9,-1,645717,220768,1454436,66676,8017,727344,0
9,-1,647395,221962,1486955,67071,7939,743469,0
9,-1,667085,229287,1358227,68714,7531,679166,0
9,3,709899,247793,1471939,73715,9094,736016,0
9,-1,640543,219232,1359957,65867,8057,680027,0
9,-1,642492,219549,1353093,66081,7741,676573,0
9,-1,641349,219302,1198545,66062,6909,599335,0
9,-1,639709,218933,1172963,65885,6646,586535,0
9,3,708302,248532,1330542,74015,8887,665306,0
9,-1,664403,223646,1322992,69245,8640,661452,0
9,-1,638628,220376,1351817,66584,7654,675973,0
9,-1,638913,219319,1308997,66074,7190,654540,0
9,-1,644594,221127,1347690,66964,8035,674096,0
9,-1,632913,219132,1294825,65908,8012,647466,0
9,3,707092,249319,1501148,74192,9164,750417,0
9,-1,639130,220357,1220055,66419,7502,610086,0
9,-1,642516,220803,1288996,66629,7259,644558,0
9,3,709028,248552,1341055,73923,8450,670382,0
9,-1,645649,220731,1290168,66611,8381,645116,0
9,-1,638594,219480,1299810,66008,7149,649963,0
9,-1,642988,221611,1420819,66977,8273,709753,0
9,3,729991,253957,1351105,77511,9937,675568,0
9,-1,640695,219576,1183455,66028,7261,591757,0
9,-1,643968,221717,1358513,67027,7931,679297,0
9,-1,642418,220954,1379077,66726,7722,689522,0
9,-1,641956,219906,1271270,66186,7847,635581,0
9,-1,638271,219741,1235914,66108,7186,617960,0
9,-1,640364,220419,1225665,66457,8011,612612,0
9,3,713842,250541,1427915,74695,9287,714041,0
9,-1,639667,218914,1273471,65806,6950,636550,0
9,-1,658986,224113,1263627,69350,8649,631583,0
9,-1,641022,219489,1178115,65937,7304,589188,0
9,-1,642602,219895,1348496,66076,7922,674037,0
9,3,711451,249276,1471835,73969,9794,736099,0
9,-1,641376,219706,1240794,65920,7099,620466,0
9,-1,643739,219973,1437254,66005,7669,718663,0
9,-1,641836,219848,1357518,65878,7450,678815,0
9,-1,641767,220462,1362260,66180,7650,680970,0
9,3,709997,247867,1536671,73649,10534,767816,0
9,-1,643274,220051,1369295,66060,8201,684864,0
9,-1,667938,224698,1205614,69293,8303,602860,0
9,3,713290,248918,1528471,73747,9616,764033,0
9,-1,641479,220851,1342578,66178,8565,671146,0
9,-1,639975,220067,1430312,66048,8134,715199,0
9,-1,646249,221288,1293807,66654,8278,646960,0
9,-1,642210,220023,1216419,66059,7734,608253,0
9,-1,642844,220583,1340410,66375,7863,670231,0
9,3,709710,248319,1538049,73718,9283,769026,0
9,-1,643519,219362,1359185,65984,8194,679550,0
9,-1,638652,219339,1270593,65854,8096,635350,0
9,-1,641199,219280,1360661,65801,8370,680266,0
9,-1,640400,218908,1350449,65802,8409,675266,0
9,-1,644846,221215,1343681,66751,8413,671560,0
9,-1,652058,222173,1289270,66907,8620,644489,0
9,3,712309,248590,1545312,73714,8776,773145,0
9,-1,646196,220654,1307898,66278,8177,653909,0
9,-1,638584,219034,1231814,65645,7163,615882,0
9,3,702321,247957,1277890,73055,9015,638976,0
9,-1,640448,220613,1282880,66366,7886,641556,0
9,-1,641811,218970,1237361,65687,7496,618729,0
9,-1,640335,218979,1387482,65665,7584,693626,0
9,3,732860,252948,1491477,77535,10765,745859,0
9,-1,639967,219073,1284367,65660,7694,642169,0
9,-1,664166,223537,1355396,68986,8840,677798,0
9,-1,640632,219372,1306552,65820,7820,653329,0
9,-1,637297,218405,1268497,65523,7901,634274,0
9,3,704610,248250,1458200,74170,10132,728972,0
9,-1,666049,223541,1322504,68897,8738,661350,0
9,-1,643081,219705,1370829,65915,7822,685516,0
9,-1,662441,223608,1353851,68912,8402,676874,0
9,-1,642395,218741,1215147,65434,6718,607630,0
9,3,733471,252601,1565527,77418,10431,782639,0
9,-1,637062,219483,1206315,65366,6562,603183,0
9,-1,634787,218638,1305138,65000,7459,652621,0
9,-1,638570,219553,1336998,65528,7541,668585,0
9,-1,635075,218343,1282076,65112,7692,640592,0
9,-1,639818,218992,1277913,66438,7953,638870,0
9,3,711666,248180,1354604,74080,9009,677302,0
9,-1,645124,221024,1243202,67180,8098,621347,0
9,-1,636922,218722,1318100,66110,7682,659010,0
9,-1,638119,218546,1250104,65995,6699,625056,0
9,3,712561,249251,1558417,74562,9609,778828,0
9,-1,639733,219214,1381041,66265,7616,690565,0
9,-1,635920,218447,1306862,65987,7970,653467,0
9,-1,641578,218932,1271337,66106,7789,635718,0
9,-1,640370,218507,1326896,65992,8524,663323,0
9,3,715371,250866,1262868,75184,8492,631654,0
9,-1,647818,220263,1205791,66785,8239,602892,0
9,-1,640557,219732,1244816,66564,8609,622322,0
9,-1,640050,220201,1243305,66773,8248,621682,0
9,3,714240,249016,1330956,74364,8765,665246,0
9,-1,641010,219073,1246352,66197,6995,623072,0
9,-1,638924,218049,1285184,65803,7449,642729,0
9,-1,637456,218653,1201435,66062,8354,600684,0
9,-1,642985,220054,1219172,66717,7448,609789,0
9,3,716232,250002,1482469,74651,9244,741281,0
9,-1,638476,218905,1242230,66089,7596,621078,0
9,-1,643972,219860,1340702,66644,8869,669985,0
9,-1,640994,219221,1233281,66184,7876,616347,0
9,3,712702,248408,1638528,74087,10648,819087,0
9,-1,642704,219839,1224375,66600,8233,612130,0
9,-1,650569,221287,1448896,67191,9603,724032,0
9,-1,644246,219060,1497431,66180,9574,748606,0
9,-1,640915,219578,1395891,66384,8803,697945,0
9,3,719279,250144,1470186,75131,9999,735055,0
9,-1,642774,220966,1326997,67042,8651,663093,0
9,-1,645886,220782,1300258,67041,7932,650039,0
9,-1,648458,221611,1354591,67247,8008,677309,0
9,3,706305,247274,1352690,73829,8883,676392,0
9,-1,641441,219283,1343696,66238,7842,671891,0
10,-1,694839,239136,1414427,71554,9288,707220,0
10,-1,690854,237117,1250219,70663,7487,625122,0
10,3,705948,247556,1373805,73488,8424,686898,0
10,-1,638000,219696,1248630,65928,6705,623799,0
10,-1,646153,221275,1396322,66681,8547,697660,0
10,-1,644763,220774,1297210,66503,7603,648670,0
10,3,706261,247725,1383237,73607,9675,691648,0
10,-1,635297,218031,1247183,65574,6666,623635,0
10,-1,636590,218514,1321269,65623,6914,660611,0
10,-1,633792,217976,1237853,65510,6594,618918,0
10,3,708038,248115,1521590,73564,10022,760739,0
10,-1,640944,219054,1361703,65815,8720,680054,0
10,-1,639098,218792,1282964,65757,7505,641619,0
10,3,707704,248431,1473854,73823,9212,737005,0
10,-1,638983,220066,1213552,66040,7402,606827,2
10,-1,640576,219276,1243215,65731,7256,621659,0
10,-1,638741,218923,1337669,65656,7448,668928,0
10,-1,637978,218677,1306591,65701,6954,653273,0
10,-1,639541,218639,1314150,65757,7172,657123,0
10,-1,641686,219153,1368110,66008,7785,684106,0
10,3,708915,249073,1431823,74210,8901,716000,0
10,-1,644289,219759,1374492,66123,8262,687359,0
10,-1,634142,219161,1329502,66002,8251,664775,0
10,-1,639031,219808,1301808,66159,7485,650952,0
10,-1,660190,223809,1293600,69306,7738,646511,0
10,3,711727,249738,1419085,74340,9139,709596,0
10,-1,641716,219847,1341744,66216,7529,670755,0
10,-1,636346,219675,1123897,66082,6407,561952,0
10,-1,641667,220270,1294840,66531,7707,647504,0
10,3,710384,248809,1424708,74033,8391,712434,0
10,-1,641506,219670,1189911,66093,7571,595006,0
10,-1,637209,219023,1224636,65807,7019,612370,0
10,-1,661841,223790,1308563,69151,8617,654312,0
10,3,707144,248438,1340697,73954,8396,670426,0
10,-1,642758,219711,1212253,66097,7378,606375,0
10,-1,643084,219922,1278000,66153,8103,638470,0
10,-1,659664,224060,1373273,69327,8411,686526,0
10,-1,640356,219137,1183063,65889,7523,591538,0
10,-1,634693,218982,1272920,65785,6486,636427,0
10,3,711935,249515,1373813,74115,8911,686925,0
10,-1,638862,219575,1170391,66071,7005,585161,0
10,-1,645086,221425,1411342,66935,8926,705685,0
10,-1,638983,219388,1228639,65901,7697,614206,0
10,-1,641944,219252,1293704,65890,8227,646867,0
10,-1,642013,219498,1242886,66058,7020,621381,0
10,3,710764,249321,1485696,73993,9946,742887,0
10,-1,641485,220249,1288220,66143,7506,644132,0
10,-1,640829,219207,1315065,65825,8034,657584,0
10,-1,646907,221780,1247259,66873,7936,623676,0
10,-1,640515,219485,1258683,65848,8176,629392,0
10,3,710105,248688,1432482,73927,9916,715628,0
10,-1,645316,221202,1344174,66620,7929,672146,0
10,-1,648989,221180,1262025,66357,8248,630982,0
10,3,713506,249471,1366025,74112,9863,682886,0
10,-1,642101,220484,1361159,66088,7942,680628,0
10,-1,647402,222354,1350726,67092,8382,675198,0
10,-1,640844,219917,1256312,66054,7210,628065,0
10,-1,642555,220640,1240661,66533,8163,620376,0
10,3,709576,248115,1392094,73594,8839,695812,0
10,-1,642813,220310,1231088,66149,7461,615443,0
10,-1,639108,218584,1301007,65595,8171,650668,0
10,-1,637268,219335,1254704,65856,7463,627285,0
10,-1,639065,219201,1332108,65817,8068,665975,0
10,-1,640891,219959,1243225,66102,7885,621690,0
10,-1,640588,219847,1389960,66059,8037,694945,0
10,-1,667430,224767,1377214,69223,9258,688528,0
10,3,712286,247983,1330722,73591,8762,665349,0
10,-1,644115,219110,1348284,65474,8574,674113,0
10,-1,644666,221550,1320929,66740,8048,660495,0
10,3,705761,248534,1437802,73296,8713,718903,0
10,-1,638327,218998,1232247,65714,7103,616308,0
10,-1,661834,223503,1236299,68957,8041,618224,0
10,3,728548,252813,1582917,77476,10299,791400,0
10,-1,640013,219295,1406679,65833,7635,703381,0
10,-1,642648,219062,1238514,65735,7865,619229,0
10,-1,642050,219012,1275212,65646,8342,637754,0
10,-1,641464,219210,1328283,65783,7593,664188,0
10,-1,641773,220678,1368296,66482,8354,684655,0
10,3,732215,252113,1493511,77214,10202,746866,0
10,-1,644019,218988,1309668,65686,8117,654878,0
10,-1,646690,221263,1194433,66696,6982,597182,0
10,-1,642182,219802,1230836,66161,6752,615300,0
10,-1,666554,223243,1227772,68783,8239,613910,0
10,3,730010,253077,1558750,77567,10783,779183,0
10,-1,639654,220840,1159078,65972,6614,579589,0
10,-1,635576,219216,1266284,65330,7480,633240,0
10,-1,635469,218663,1300773,65261,7654,650242,0
10,-1,636663,218832,1184619,65256,6950,591743,0
10,3,712673,248383,1413989,74185,9533,707004,0
10,-1,656276,223532,1389009,68612,8897,694503,0
10,-1,661522,223728,1364746,69535,9182,682347,0
10,-1,639071,220143,1172905,66781,7136,586408,0
10,-1,645035,221294,1251851,67202,7002,626029,0
10,3,715776,249762,1463726,74829,9867,731668,0
10,-1,639200,219642,1276820,66541,6688,638503,0
10,-1,640422,219079,1187462,66228,7469,593790,0
10,-1,638873,218298,1369754,65921,8556,684637,0
10,-1,645482,220688,1198386,67013,7902,599135,0
10,3,717187,250979,1361491,75293,8560,680818,0
10,-1,639946,217766,1253013,65818,8399,626471,0
10,-1,637296,218490,1271456,65971,8525,635661,0
10,-1,663454,228456,1340247,69021,9051,670152,0
10,3,735459,253705,1449829,77685,9358,724764,0
10,-1,639079,218996,1266325,66150,7401,633214,0
10,-1,638315,218920,1279821,66122,7387,639957,0
10,-1,645403,219824,1535471,66410,8910,767793,0
10,3,718632,250619,1607354,74806,10309,803708,0
10,-1,639767,218683,1310111,66091,7371,654935,0
10,-1,639402,219057,1301766,66217,8046,650779,0
10,-1,644169,219362,1321901,66239,8580,660969,0
10,-1,638919,218403,1249672,65892,8065,624820,0
10,3,712970,249261,1356367,74413,8502,678220,0
10,-1,639336,218807,1374307,66076,7816,686811,0
10,-1,643922,218848,1284138,66079,7799,642255,0
10,-1,641619,218354,1471899,65855,9060,735708,0
10,-1,641452,220103,1435763,66638,8403,718040,0
10,3,719032,250080,1513516,75122,9746,756711,0
10,-1,638776,219334,1282816,66232,8151,641397,0
10,-1,644008,219575,1337781,66447,8166,668921,0
10,-1,641811,219740,1292111,66462,7972,645805,0
10,3,704723,247492,1413218,74077,8705,705693,0
10,-1,646370,221753,1250749,67361,7327,625444,0
11,-1,687600,236731,1239857,70507,7523,619849,0
11,-1,692629,237139,1418867,70738,8963,709319,0
11,3,708136,248784,1407497,73926,8414,703818,0
11,-1,639365,219048,1370603,65734,7476,685354,0
11,-1,636696,218155,1297183,65401,8279,648668,0
11,-1,639717,218957,1272181,65731,7223,636141,0
11,3,709954,249438,1294607,74221,9038,647353,0
11,-1,635368,218268,1332114,65561,7885,666045,0
11,-1,639169,219634,1211041,66054,7144,605435,0
11,-1,635021,218267,1142749,65642,6967,571401,0
11,3,709207,248333,1551087,73962,9442,775362,0
11,-1,644146,219948,1381064,66079,8210,690578,0
11,-1,639826,219238,1231648,65820,7547,615851,0
11,3,716878,250528,1501336,74820,10111,750694,0
11,-1,640153,219579,1322891,65843,7366,661495,0
11,-1,641359,220091,1269255,66109,7315,634621,2
11,-1,645725,221389,1360475,66834,7681,680280,0
11,-1,642919,220288,1292648,66286,7692,646383,0
11,-1,639172,218821,1404570,65908,8037,702340,0
11,3,703394,247738,1436790,73751,8617,718421,0
11,-1,641371,219333,1376671,66002,7564,688304,0
11,-1,642209,219079,1297982,65932,8031,649045,0
11,-1,655262,223673,1466596,69259,7937,733423,0
11,-1,642159,220984,1408359,66781,8584,704204,0
11,-1,637958,218863,1233685,65850,6960,616744,0
11,3,708791,248813,1373955,74041,8482,687012,0
11,-1,642982,220070,1370928,66480,8390,685583,0
11,-1,635681,219308,1205297,65903,7433,602590,0
11,3,714809,250853,1425470,75009,9878,712454,0
11,-1,661005,224101,1288676,69325,8221,644301,0
11,-1,643179,219979,1411101,66183,8674,705598,0
11,-1,672572,231897,1278034,70125,7916,639088,0
11,-1,640872,219524,1302282,66023,7776,651198,0
11,3,713842,249633,1520475,74318,8667,760153,0
11,-1,640566,219288,1369584,65897,7894,684784,0
11,-1,644829,221056,1432362,66694,8561,715727,0
11,-1,638909,219255,1291691,65892,7651,645923,0
11,-1,648685,221531,1372297,66971,8218,686105,0
11,-1,640410,220243,1220633,66257,7193,610298,0
11,3,714558,250468,1492478,74690,9315,746346,0
11,-1,637381,219626,1186017,66075,6914,592957,0
11,-1,659564,223568,1368270,69150,8105,684084,0
11,-1,635210,218868,1199013,65816,7842,599503,0
11,-1,643600,220210,1223924,66236,7383,611934,0
11,-1,642594,219983,1353650,66199,7837,676825,0
11,3,712790,249065,1496931,73912,10047,748510,0
11,-1,641680,220883,1392427,66545,7211,696269,0
11,-1,642746,220130,1208290,66203,6962,604247,0
11,-1,661721,224408,1210862,69257,7750,605496,0
11,3,708958,248988,1550251,73920,10222,774928,0
11,-1,639993,219566,1266888,65960,7575,633435,0
11,-1,640456,219502,1328682,65961,8168,664426,0
11,-1,645439,219878,1252680,65917,7766,626426,0
11,3,711322,249107,1496580,73910,10293,748285,0
11,-1,664491,225993,1342637,69702,8781,671152,0
11,-1,638587,219860,1362864,66037,8612,681423,0
11,-1,646757,221866,1315837,67000,8529,657420,0
11,-1,641122,220370,1373909,66159,8046,686839,0
11,3,707150,248673,1302589,73834,8185,651299,0
11,-1,641248,219366,1247795,65896,7619,623951,0
11,-1,637011,218340,1353134,65483,8147,676626,0
11,-1,644938,221234,1394825,66730,8188,697594,0
11,-1,638546,219308,1266509,65780,6917,633251,0
11,-1,636407,218347,1296683,65554,7893,648286,0
11,-1,636205,219040,1355771,65746,7744,677894,0
11,3,713627,248847,1344969,73870,8676,672439,0
11,-1,648639,221372,1355778,66526,8334,677936,0
11,-1,639290,218187,1375342,65254,8881,687703,0
11,-1,639011,219433,1214488,65771,7647,607192,0
11,3,726717,253228,1522914,76572,10457,761453,0
11,-1,640372,218749,1202174,65618,7587,601016,0
11,-1,640618,219275,1351877,65792,7745,675908,0
11,3,711084,248879,1297951,73785,9201,648946,0
11,-1,639999,219303,1275127,65726,7892,637600,0
11,-1,641940,218866,1324999,65568,8254,662488,0
11,-1,646426,221108,1254964,66570,8877,627537,0
11,-1,640765,219270,1290066,65776,7005,645071,0
11,-1,645543,219986,1279889,66198,8127,639556,0
11,3,714121,248394,1491317,74282,9715,745628,0
11,-1,644098,218840,1646258,65529,8651,822746,0
11,-1,641435,219282,1501137,65780,7463,749973,0
11,-1,642580,219676,1416945,65914,7955,708569,0
11,-1,644299,219038,1339117,65642,7164,669600,0
11,3,731730,252637,1513637,77305,10533,756720,0
11,-1,635455,218990,1197530,65169,6790,598818,0
11,-1,635666,219443,1363129,65317,7368,681764,0
11,-1,632381,217413,1180251,64893,7439,589607,0
11,-1,640695,220798,1200551,66135,7559,600327,0
11,3,709163,247414,1382365,73887,8941,691162,0
11,-1,635066,219126,1309832,65369,7313,654952,0
11,-1,641137,219468,1383350,66344,8693,691672,0
11,-1,637942,218819,1302104,66056,8179,651021,0
11,-1,637423,218734,1263875,66075,7779,631964,0
11,3,716415,251120,1382538,75510,9651,691297,0
11,-1,640450,218677,1175862,66099,7017,587988,0
11,-1,639792,218908,1326049,66101,8040,663040,0
11,-1,639876,218787,1298951,66130,7801,649527,0
11,3,715303,251544,1394810,75584,8927,697488,0
11,-1,663481,223578,1389426,69479,8922,694686,0
11,-1,640831,218357,1344716,65943,8982,672767,0
11,-1,640253,219522,1294619,66302,8441,647429,0
11,-1,641444,218841,1276270,66181,8159,638078,0
11,3,712470,249268,1445054,74432,9515,722564,0
11,-1,643331,220247,1215704,66749,7661,607826,0
11,-1,642810,220500,1209466,66953,8371,604358,0
11,-1,641129,218628,1281319,66010,7696,640678,0
11,3,715323,249318,1523234,74335,10048,761627,0
11,-1,639982,218153,1280925,65870,8121,640468,0
11,-1,641259,220176,1207765,66778,7890,603836,0
11,-1,639019,218623,1177975,65969,7868,589033,0
11,-1,643233,220365,1259320,66799,8045,629422,0
11,3,712672,248532,1349569,74167,8860,674816,0
11,-1,639917,218243,1295015,65901,7327,647524,0
11,-1,645724,219972,1297078,66459,8152,648550,0
11,-1,646808,220824,1455556,67064,9622,727516,0
11,3,713318,248062,1340637,74268,9455,670268,0
11,-1,661552,224212,1420933,69705,9707,710362,0
11,-1,643413,220347,1338405,66568,7984,669243,0
11,-1,667917,225142,1350414,70122,8695,675048,0
11,-1,649617,222316,1430835,67556,9773,714625,0
11,3,703801,247487,1431307,74038,9198,715407,0
11,-1,664554,224970,1401027,69945,9375,700558,0
12,-1,700696,239541,1375789,71765,8670,687897,0
12,-1,701152,240027,1400528,71845,8676,700262,0
12,3,749511,259842,1533405,78714,11304,766697,0
12,-1,658632,224521,1389634,69331,7949,694770,0
12,-1,643824,220216,1249099,66126,7229,624606,0
12,-1,638303,218722,1320910,65616,7174,660512,0
12,3,705076,248044,1304480,73781,7977,652281,0
12,-1,638357,219811,1379677,66291,7712,690146,0
12,-1,634300,218264,1238213,65587,6403,619138,0
12,3,703679,247562,1367496,73613,8732,683820,0
12,-1,631864,217610,1376271,65302,7129,687837,0
12,-1,643224,220294,1310723,66388,8057,655492,0
12,-1,643723,219689,1327274,65940,7216,663698,0
12,3,708727,248935,1549416,74007,9526,774731,0
12,-1,645332,221337,1424277,66595,8279,712196,0
12,-1,660994,224058,1325483,69204,8473,662700,0
12,-1,643144,220727,1307932,66554,8079,653956,0
12,-1,643036,220145,1252948,66333,7090,626568,2
12,-1,659098,223388,1281231,69193,8150,640653,0
12,3,719556,250549,1438968,74947,9702,719384,0
12,-1,641021,219092,1351514,65976,7752,675524,0
12,-1,647476,221741,1315830,67182,8394,658116,0
12,-1,633014,219461,1228967,66104,6930,614538,0
12,-1,633674,218774,1224976,65818,8007,612568,0
12,-1,636406,218999,1173162,65898,6508,586627,0
12,3,708447,248986,1395708,74018,8920,697913,0
12,-1,639464,219075,1285250,65990,7476,642230,0
12,-1,638896,220149,1235887,66208,8087,617680,0
12,3,709421,249635,1387551,74319,9107,693714,0
12,-1,641613,221060,1336114,66677,8246,668173,0
12,-1,642278,219694,1371530,66070,7690,685809,0
12,-1,658298,223957,1204992,69259,7579,602074,0
12,-1,640251,219694,1291330,66037,7387,645507,0
12,3,708584,248789,1483362,74025,8702,741732,0
12,-1,641574,219637,1438819,66004,8386,719162,0
12,-1,639406,219620,1320468,66042,7210,660408,0
12,-1,642500,220781,1339449,66621,8260,669696,0
12,-1,642854,220634,1322452,66573,7263,661199,0
12,-1,637268,219600,1210263,66057,6209,605038,0
12,3,708850,248773,1448583,73937,8742,724318,0
12,-1,641821,221129,1256387,66828,8043,628069,0
12,-1,641388,220388,1343977,66514,7354,671729,0
12,-1,640644,220303,1192066,66302,7702,595975,0
12,-1,662001,223970,1313406,69318,8152,656719,0
12,-1,640555,219288,1306110,65929,7455,653055,0
12,3,713183,250163,1523362,74354,9168,761717,0
12,-1,638575,219500,1354304,65926,7177,677215,0
12,-1,639645,219007,1272964,65776,7416,636528,0
12,-1,638778,219189,1141581,65685,6931,570833,0
12,3,716750,249659,1523524,74274,10653,761738,0
12,-1,643924,221119,1344093,66682,8054,671948,0
12,-1,650468,221869,1373142,67047,7968,686653,0
12,3,713726,249020,1433601,74013,9748,716430,0
12,-1,648080,220491,1335032,66153,7948,667578,0
12,-1,640278,220589,1265929,66114,8127,633065,0
12,-1,645658,220926,1302241,66387,7272,651087,0
12,-1,663816,223813,1276528,69113,8355,638235,0
12,-1,638385,219078,1245070,65769,7585,622591,0
12,3,710331,248520,1478828,73810,9497,739454,0
12,-1,641380,219216,1238718,65806,7519,619399,0
12,-1,664324,224183,1346696,69214,9298,673186,0
12,-1,662059,224417,1261916,69287,8477,630870,0
12,-1,640885,219192,1321463,65814,8230,660715,0
12,-1,640778,218978,1331085,65738,8560,665470,0
12,-1,648666,221243,1346951,66816,8523,673429,0
12,3,709092,248314,1432386,73716,8216,716220,0
12,-1,642200,219078,1292047,65517,7192,646074,0
12,-1,648549,221661,1371972,66674,8264,685842,0
12,-1,644107,220443,1310939,66230,8997,655378,0
12,3,727100,252973,1554992,76502,9175,777561,0
12,-1,639659,218672,1354691,65500,8494,677345,0
12,-1,641990,219687,1273768,66139,7589,636897,0
12,3,707360,248025,1365804,73265,8979,682902,0
12,-1,662484,224796,1292321,69353,8136,646093,0
12,-1,642451,219411,1273325,65835,7709,636431,0
12,-1,642342,218741,1200362,65593,8152,600180,0
12,-1,639250,219356,1228712,65855,6942,614410,0
12,-1,689218,233071,1490510,71784,8682,745237,0
12,3,711075,247980,1494195,74062,10544,746181,0
12,-1,647224,220776,1132001,66467,6800,566133,0
12,-1,638711,218686,1235893,65549,7047,618280,0
12,-1,641821,219865,1185365,65921,7231,592591,0
12,-1,642734,218866,1261785,65573,7277,631348,0
12,3,713168,249352,1442079,74505,9852,721155,0
12,-1,632921,218459,1201211,64963,6693,600643,0
12,-1,634958,219300,1273950,65316,7899,637020,0
12,-1,642219,220925,1315470,66340,7929,657960,0
12,-1,637009,219424,1265994,65509,7406,632695,0
12,3,710482,248660,1536141,74315,10251,767648,0
12,-1,639896,220319,1369519,65799,8231,684767,0
12,-1,638776,218314,1220982,65881,7893,610485,0
12,-1,639875,220561,1243607,66996,8275,621572,0
12,-1,639375,218829,1362296,66133,8798,681152,0
12,3,713186,249173,1379180,74642,10301,689656,0
12,-1,641931,219576,1274515,66311,7895,637304,0
12,-1,640877,219966,1138422,66682,6668,569162,0
12,-1,645640,221026,1225669,67054,7458,612893,0
12,3,712557,250126,1552374,74797,9356,776239,0
12,-1,641236,219247,1178446,66252,7610,589221,0
12,-1,642921,219510,1323544,66321,8782,661516,0
12,-1,660089,223809,1373537,69570,9568,686779,0
12,-1,645555,221034,1254734,67132,8000,627363,0
12,3,735062,252757,1529475,77313,10499,764762,0
12,-1,637986,218427,1370813,65906,7736,685436,0
12,-1,637221,218910,1238369,66170,8046,618324,0
12,-1,639072,218220,1230212,65865,6960,615084,0
12,3,713198,249469,1637708,74497,10233,818829,0
12,-1,649373,221527,1297960,67392,7926,648942,0
12,-1,636824,218661,1391574,66044,8869,695768,0
12,-1,638808,218986,1212090,66182,7911,606008,0
12,-1,644100,218829,1274949,66036,7811,637378,0
12,3,719217,249587,1415453,74473,10324,707712,0
12,-1,639257,218727,1297317,66095,8112,648447,0
12,-1,642784,218882,1345051,66112,8679,672497,0
12,-1,663282,223495,1539711,69450,9970,769700,0
12,3,711377,248073,1453308,74266,9612,726593,0
12,-1,640660,219757,1402593,66333,9256,701324,0
12,-1,642526,219451,1345827,66256,7829,672919,0
12,-1,646870,220864,1235768,66927,7933,617802,0
12,-1,665357,224796,1449966,69872,9828,724937,0
12,3,709975,248282,1359755,74371,7834,679638,0
12,-1,645935,221208,1207107,66899,7716,603602,0
13,-1,714617,241707,1386687,73998,8935,693209,0
13,-1,692821,237240,1345038,70737,8167,672526,0
13,3,770977,268856,1535769,79645,10419,767890,0
13,-1,634696,218657,1199926,65657,6931,599947,0
13,-1,637245,218080,1198045,65397,7267,599076,0
13,-1,636996,218320,1290784,65484,6811,645434,0
13,3,704680,247878,1387412,73697,8285,693588,0
13,-1,639380,220545,1351057,66620,7285,675587,0
13,-1,639142,219530,1245276,66040,6926,622418,0
13,3,707507,248180,1297098,73838,8299,648594,0
13,-1,639881,218475,1256897,65615,6880,628506,0
13,-1,638305,218404,1203197,65654,7977,601606,0
13,-1,639730,219025,1333600,65747,6532,666834,0
13,3,708833,248344,1536040,73757,9465,768106,0
13,-1,638004,219423,1319725,65793,7607,660081,0
13,-1,639725,219342,1338073,65840,7342,669086,0
13,-1,641138,220162,1200441,66183,7444,600267,0
13,-1,638745,219099,1279417,65986,7128,639804,0
13,3,711705,248335,1409110,73934,9325,704251,0
13,-1,643420,220328,1381629,66561,7774,690846,0
13,-1,646840,221111,1385506,66934,7259,692829,2
13,-1,641158,218897,1334189,65852,7659,667133,0
13,-1,635164,220346,1329051,66563,7195,664718,0
13,-1,636911,218837,1155210,65849,7571,577683,0
13,-1,637937,219986,1272898,66464,7341,636221,0
13,3,708646,249408,1513069,74163,8738,756538,0
13,-1,640187,219245,1331569,65968,7598,665753,0
13,-1,639057,219155,1323693,65853,6805,661898,0
13,3,705841,248723,1472581,73966,9735,735787,0
13,-1,639330,219875,1330614,66096,7205,664522,0
13,-1,644508,221251,1513186,66825,7934,756695,0
13,-1,634741,219084,1401083,65850,7193,700510,0
13,-1,641743,219983,1255926,66189,7800,628021,0
13,3,707038,248694,1346515,74011,8508,673058,0
13,-1,641793,219706,1355585,66017,7772,677909,0
13,-1,637910,219499,1199355,65905,6252,599672,0
13,-1,643080,219760,1345799,66093,8156,673062,0
13,-1,642398,219753,1249215,66116,6536,624443,0
13,3,710373,250037,1526077,74509,8744,763063,0
13,-1,657079,223536,1354552,69082,7896,677191,0
13,-1,658434,223852,1295413,69262,8292,647675,0
13,-1,638955,219373,1333227,65949,6959,666574,0
13,-1,641514,221256,1236645,66826,8054,618236,0
13,-1,640738,219462,1274466,65980,7126,637229,0
13,-1,640335,219499,1648899,66057,8856,823767,0
13,3,710990,249262,1507839,74040,9468,753972,0
13,-1,638273,219233,1352565,65720,7154,676327,0
13,-1,644697,221334,1352782,66850,7885,676230,0
13,-1,640390,220088,1209366,66070,6866,604730,0
13,3,710949,248598,1395890,73955,9729,697781,0
13,-1,639607,219754,1231208,66080,7734,615494,0
13,-1,646522,220319,1392518,66322,7373,696273,0
13,3,734101,253305,1503812,77143,10165,751772,0
13,-1,643775,220013,1314871,65942,8117,657492,0
13,-1,641911,221061,1464708,66321,8468,732401,0
13,-1,642249,219331,1453716,65759,8494,726905,0
13,-1,644875,220309,1354599,66216,7982,677376,0
13,-1,645597,222213,1261661,67157,8419,630676,0
13,3,708927,248297,1371009,73707,8957,685258,0
13,-1,642362,220603,1231645,66510,7816,615751,0
13,-1,640000,219240,1262557,65779,7253,631254,0
13,-1,640452,220777,1337870,66489,8199,669062,0
13,-1,646309,221256,1428463,66648,8388,714103,0
13,-1,645119,221130,1302426,66748,8424,651228,0
13,-1,664904,224816,1271749,69427,8826,635793,0
13,3,714188,248356,1402140,73733,9257,701119,0
13,-1,642951,219609,1318281,65732,7961,659224,0
13,-1,642858,220036,1368156,65897,8401,684066,0
13,-1,642593,220376,1511822,66078,10210,754825,0
13,3,706653,248856,1539625,73375,8617,769853,0
13,-1,662149,223961,1339912,69085,8690,669983,0
13,-1,640770,219518,1279482,65870,7660,639792,0
13,3,710007,248901,1259427,73562,8497,629646,0
13,-1,640271,219680,1337390,65926,7797,668785,0
13,-1,648623,221944,1256278,66976,8170,627993,0
13,-1,645269,220611,1183289,66506,8210,591452,0
13,-1,645433,221038,1254004,66621,7429,627233,0
13,-1,641022,219184,1365249,65758,8012,682739,0
13,3,710763,248276,1458367,74195,9391,729198,0
13,-1,641734,218883,1375723,65606,8258,687839,0
13,-1,641522,218791,1317976,65581,7393,658898,0
13,-1,644029,219373,1234895,65766,7613,617262,0
13,-1,642972,218977,1323906,65582,7310,662138,0
13,3,711778,248599,1525835,74209,9818,762100,0
13,-1,642229,222097,1193742,66472,6665,596912,0
13,-1,634709,219385,1287704,65275,8090,643671,0
13,-1,660783,224028,1410471,69259,9100,705355,0
13,-1,636228,218746,1334263,65240,8226,667161,0
13,3,712742,248565,1323539,74296,9286,661679,0
13,-1,638963,218943,1213207,65301,7697,606550,0
13,-1,641265,219956,1238025,66694,8149,618948,0
13,-1,656605,223689,1348973,69515,9666,674477,0
13,-1,636771,218274,1358801,65923,7996,678989,0
13,3,712412,249313,1515519,74552,10653,757815,0
13,-1,644904,220657,1323943,67007,7963,662055,0
13,-1,637191,218834,1202931,66103,7127,601515,0
13,-1,640605,218971,1295630,66195,7190,647863,0
13,3,715141,251716,1391260,75605,9511,695721,0
13,-1,641149,219039,1323774,66152,8043,661884,0
13,-1,646248,221133,1233967,67153,7854,617054,0
13,-1,636839,218914,1254444,66102,8041,627151,0
13,-1,638758,218786,1344584,66124,7818,672268,0
13,3,714516,248976,1513541,74304,8955,756816,0
13,-1,641489,218665,1248022,66109,8199,624040,0
13,-1,640010,219106,1241033,66172,8077,620564,0
13,-1,643818,220400,1243927,66818,7827,622029,0
13,3,710943,248668,1532762,74204,9747,766320,0
13,-1,643176,219432,1269852,66333,7352,634969,0
13,-1,639437,219359,1159457,66330,7702,579709,0
13,-1,645595,220702,1166447,66929,7954,583346,0
13,3,717639,250155,1411761,74822,8761,705863,0
13,-1,641179,218596,1286451,65964,7788,643123,0
13,-1,638359,218841,1237563,66092,7911,618724,0
13,-1,642020,218949,1349435,66022,8435,674768,0
13,-1,643913,219981,1473171,66518,9045,736302,0
13,3,715582,249535,1506894,74695,9477,752716,0
13,-1,657497,223431,1436665,69510,9284,718387,0
13,-1,644015,220396,1383709,66658,8094,691509,0
13,-1,644236,220292,1326687,66755,8394,663275,0
13,-1,646900,221384,1252601,67169,7729,626409,0
13,3,717603,251032,1479737,75477,10445,739879,0
13,-1,643744,219692,1332140,66362,8226,666028,0
14,-1,695945,239184,1408869,71559,8502,704552,0
14,3,761486,265885,1532052,78522,9609,766048,0
14,-1,692781,237189,1391546,70674,8933,695718,0
14,-1,637776,219859,1330023,66184,7478,665063,0
14,-1,636811,218437,1377405,65560,7855,688668,0
14,-1,643985,221396,1315073,66800,7730,657559,0
14,3,708259,248787,1347355,74003,8658,673569,0
14,-1,632418,218396,1216701,65641,6945,608424,0
14,-1,651439,221776,1300781,68582,7463,650447,0
14,3,710640,249150,1367238,74388,9018,683688,0
14,-1,636528,218086,1230156,65421,7416,615119,0
14,-1,638479,218434,1285700,65672,7142,642891,0
14,-1,641613,219314,1326718,65769,7560,663424,0
14,3,706772,248463,1423369,73859,9165,711618,0
14,-1,638359,219422,1262735,65792,7897,631410,0
14,-1,659055,223412,1310355,69019,8425,655126,0
14,-1,640766,219290,1204719,65911,7270,602421,0
14,-1,639172,218977,1290091,65885,7729,645076,0
14,3,713643,249308,1536294,74278,9508,768236,0
14,-1,640049,218477,1297830,65674,7406,648954,0
14,-1,640969,219975,1205384,66273,7492,602689,2
14,-1,663252,224074,1368576,69441,8575,684133,0
14,-1,636368,218692,1259636,65841,6547,629840,0
14,-1,656809,223462,1270579,69194,8758,635360,0
14,-1,638919,219548,1251292,66148,7212,625689,0
14,3,709544,248800,1621085,73952,10127,810587,0
14,-1,640270,219587,1180409,66119,6797,590250,0
14,-1,644375,221641,1396510,67047,7603,698333,0
14,3,709619,249543,1339459,74308,8163,669776,0
14,-1,636544,219551,1218737,65928,6830,609419,0
14,-1,639701,219587,1306147,66038,6965,653039,0
14,-1,639632,219669,1205979,66039,6596,602650,0
14,-1,637860,218433,1353907,65574,7488,677002,0
14,3,706346,247810,1362886,73772,8611,681464,0
14,-1,639437,219550,1225547,66044,7188,612829,0
14,-1,660448,223968,1301503,69266,8323,650652,0
14,-1,647551,221672,1321640,66986,8028,660807,0
14,3,707256,248651,1637471,73819,8927,818770,0
14,-1,639909,219031,1281608,65837,6666,640755,0
14,-1,636354,219592,1455066,66049,8558,727548,0
14,-1,639057,220263,1341754,66215,7641,670885,0
14,-1,638639,219905,1262302,66153,6903,630890,0
14,-1,635386,219121,1225248,65932,8180,612562,0
14,-1,641247,220477,1314628,66607,7333,657275,0
14,-1,663721,224156,1262451,69330,7958,630964,0
14,3,709099,249504,1488044,74204,9392,744072,0
14,-1,660441,224033,1301356,69183,8281,650663,0
14,-1,641042,219167,1245556,65863,7203,622835,0
14,-1,642585,219582,1432529,65841,8151,716315,0
14,3,710867,248786,1654238,74005,10479,827104,0
14,-1,637794,219400,1205925,65978,7527,603007,0
14,-1,645653,220348,1258434,66341,7205,629308,0
14,3,708825,248352,1356639,73676,8463,678181,0
14,-1,646517,220764,1322010,66228,7884,661037,0
14,-1,647454,222435,1372014,66943,8976,686139,0
14,-1,644029,220253,1316051,66186,7544,657908,0
14,-1,641454,219415,1264521,65870,7333,632303,0
14,-1,640578,220383,1362512,66248,8419,681254,0
14,3,712619,248771,1501273,73854,10068,750673,0
14,-1,640963,219864,1115321,66084,7376,557709,0
14,-1,643391,220809,1247192,66534,8186,623506,0
14,-1,639592,220694,1395820,66558,8448,698089,0
14,-1,667382,228651,1380336,68539,8065,690160,0
14,-1,660162,223713,1449030,69076,9499,724299,0
14,-1,644982,220570,1370397,66391,8269,685172,0
14,3,712711,248045,1339327,73597,8609,669783,0
14,-1,647051,221751,1327499,66686,7730,663714,0
14,-1,642772,218991,1203856,65495,7677,601898,0
14,3,706461,248294,1288062,73171,7806,644079,0
14,-1,638922,219382,1356552,65709,8271,678252,0
14,-1,639461,218331,1242004,65433,7149,620985,0
14,-1,665086,223915,1319167,69090,8113,659447,0
14,3,733211,257110,1401285,75921,8964,700614,0
14,-1,642822,220592,1274367,66415,7172,637052,0
14,-1,642407,218819,1292506,65578,8330,646288,0
14,-1,644145,219691,1243018,65947,8737,620993,0
14,-1,638628,218823,1208764,65576,6676,604474,0
14,-1,645562,220390,1279354,66335,7895,639564,0
14,3,709850,247757,1338442,73981,10162,669168,0
14,-1,642873,219536,1241766,65825,7153,620943,0
14,-1,661375,223027,1321062,68748,7885,660616,0
14,-1,642215,218464,1174326,65493,7724,587123,0
14,3,708210,248388,1442438,74279,9308,721289,0
14,-1,649204,221741,1306878,66759,7565,651768,0
14,-1,653796,223339,1327288,68414,7683,663506,0
14,-1,637298,220706,1250640,65940,7764,625515,0
14,-1,636329,218689,1319432,65265,7693,659539,0
14,-1,636682,219199,1340207,65454,8094,670097,0
14,3,711692,248935,1527678,74429,9657,763733,0
14,-1,635025,218383,1206612,65080,7138,603280,0
14,-1,642600,220137,1288417,66579,8451,644230,0
14,-1,633839,218826,1309249,66129,8384,654170,0
14,3,710618,249677,1460894,74624,10519,730440,0
14,-1,645611,222171,1330309,67561,7837,665267,0
14,-1,638530,218868,1212535,66128,8137,606207,0
14,-1,637715,218995,1294392,66188,7196,647248,0
14,-1,637313,218149,1262651,65789,6986,631359,0
14,3,720131,251281,1320689,75426,9823,660184,0
14,-1,642763,220068,1215747,66744,8158,607811,0
14,-1,646047,219952,1283000,66509,8433,641454,0
14,-1,636376,218657,1224571,66022,8022,612108,0
14,-1,642258,220037,1227583,66692,7613,613977,0
14,3,711712,248503,1328034,74047,8164,664062,0
14,-1,642159,219253,1196905,66169,7706,598396,0
14,-1,642810,220271,1199883,66796,7748,599825,0
14,-1,639335,218884,1298952,66064,8082,648719,0
14,3,715219,250992,1465421,75245,10224,733075,0
14,-1,639922,218604,1297081,66060,7800,648577,0
14,-1,637112,218506,1320875,65995,9284,660406,0
14,-1,641982,219126,1293313,66254,8945,646609,0
14,3,713233,249212,1410430,74309,9097,705195,0
14,-1,646962,220904,1310689,67038,8133,654929,0
14,-1,642472,220818,1301363,67063,8111,650569,0
14,-1,662687,223684,1369901,69467,9393,685033,0
14,-1,641903,218729,1375526,66107,9304,687631,0
14,3,715038,248445,1338769,74239,8360,668517,0
14,-1,636912,219182,1216193,66338,7484,608218,0
14,-1,643557,220133,1278404,66587,8245,639124,0
14,-1,646499,221009,1294675,66923,7820,646937,0
14,-1,640246,219650,1337564,66302,8028,668778,0
14,3,710177,248432,1339143,74323,8577,669646,0
14,-1,646366,221252,1292765,67118,7314,647102,0
15,-1,690314,236889,1411369,70641,8153,705674,0
15,3,761746,266270,1464648,78659,9821,732363,0
15,-1,691695,237253,1355582,70686,8187,677744,0
15,-1,635810,219350,1293605,65909,7666,646853,0
15,-1,637129,218963,1276806,65695,7320,638430,0
15,-1,643560,220875,1225177,66636,7727,612376,0
15,3,704363,248241,1418784,73846,8812,709436,0
15,-1,634242,218353,1287415,65576,7409,643749,0
15,-1,634455,218570,1296149,65720,6644,648128,0
15,3,707602,248374,1454956,73898,9081,727534,0
15,-1,645907,221137,1355191,66771,8492,677638,0
15,-1,641987,220554,1375976,66732,7824,688020,0
15,3,707830,248508,1557831,73709,8745,778902,0
15,-1,642497,219857,1213867,66028,7240,606993,0
15,-1,638558,219576,1237367,65900,7581,618673,0
15,-1,640396,220399,1268522,66410,7869,634313,0
15,-1,639500,218928,1205539,65679,6922,602833,0
15,-1,643561,221299,1400261,66864,7854,700195,0
15,3,715005,249295,1336907,74310,9144,668501,0
15,-1,637071,218142,1357192,65655,6778,678649,0
15,-1,646929,220388,1345039,66529,8675,672583,0
15,-1,647116,219472,1360873,66063,7974,680416,0
15,-1,634238,219290,1309652,66045,7673,654915,2
15,-1,636771,219635,1313141,66128,7633,656624,0
15,-1,637332,220408,1276288,66421,7387,638191,2
15,-1,638061,219822,1309845,66208,6937,655013,0
15,3,710424,248991,1454111,74089,8784,727097,0
15,-1,636678,218958,1247414,65957,6841,623771,2
15,-1,643029,220996,1334223,66863,7896,667186,0
15,-1,639748,221453,1385605,66998,8024,692875,2
15,-1,637429,219837,1222665,66194,7161,610931,2
15,-1,656844,223135,1382962,68968,7406,691469,0
15,3,734084,253491,1450332,77316,10112,725120,0
15,-1,638347,219823,1256881,66085,7290,628490,2
15,-1,634725,219456,1315598,66044,7942,657836,2
15,-1,657842,224244,1260345,69352,8327,630190,0
15,-1,636478,219098,1254623,65849,6712,627367,2
15,-1,644227,220587,1372284,66546,7653,686200,0
15,-1,642321,220038,1251186,66199,7644,625653,2
15,-1,640745,220841,1314955,66675,7233,657521,0
15,-1,637067,218907,1205514,65820,7169,602678,0
15,3,712204,249373,1508391,74161,9238,754059,0
15,-1,638745,219288,1325623,65901,7449,662851,0
15,-1,643377,220830,1283082,66477,7818,642037,2
15,-1,637530,219120,1315715,65837,7578,657689,0
15,-1,666650,228982,1454637,68830,8686,727356,2
15,-1,663303,224096,1293611,69316,8242,646820,0
15,-1,637869,219496,1213617,66038,7460,606851,2
15,-1,644000,220910,1279479,66490,7429,639679,0
15,3,708419,249496,1464979,74136,8412,732572,0
15,-1,634695,219459,1259569,65984,6862,629778,0
15,-1,636421,219716,1222264,66111,6852,611497,2
15,-1,637072,219860,1312896,66156,7551,656578,0
15,-1,637860,220119,1273032,66256,7557,636447,2
15,-1,634066,218556,1176362,65694,6550,588143,0
15,-1,644071,221352,1291930,66917,7339,645942,2
15,-1,647807,221247,1313255,66797,8150,656330,0
15,-1,638409,219690,1213935,66124,7159,606746,2
15,-1,641052,219510,1205358,66035,7218,602679,0
15,-1,641994,220530,1320282,66381,7557,660112,2
15,3,713795,250308,1368503,74330,8939,684349,0
15,-1,642778,220187,1340136,66236,7679,670119,0
15,-1,640323,219799,1261788,66033,6802,630916,2
15,-1,637960,220238,1269220,66121,7140,634289,2
15,-1,640384,220310,1318244,66154,7120,659178,0
15,-1,640384,219936,1146725,66137,6238,573508,2
15,-1,644916,220969,1252258,66686,7943,626186,0
15,-1,641458,221581,1278296,66832,7682,639329,2
15,-1,640840,219229,1289600,65813,7572,644429,0
15,3,712206,248734,1473691,73993,10895,736857,0
15,-1,646032,220649,1319430,66418,7939,659724,2
15,-1,649705,221223,1354263,66837,8377,677223,0
15,-1,673724,231476,1363958,69894,7769,681625,2
15,-1,642344,219487,1231648,65987,7222,615874,0
15,-1,643732,220229,1234698,66009,7231,617450,2
15,3,711806,248859,1414648,73964,9516,707135,0
15,-1,646062,220754,1237837,66229,7656,619001,0
15,-1,644886,220224,1362670,66029,7973,681381,2
15,-1,644989,223066,1343930,67326,8943,671998,2
15,-1,640006,219987,1247953,65922,7591,623990,0
15,-1,642380,220665,1335692,66180,8500,667837,2
15,-1,639170,220225,1272305,66094,7775,636190,2
15,-1,648463,222361,1352661,67111,8395,676227,0
15,-1,644529,220374,1424549,66232,7803,712331,0
15,-1,649213,220903,1363679,66470,8146,681892,0
15,3,711049,248632,1513452,73775,9807,756742,0
15,-1,638227,219284,1112341,65921,7667,556233,2
15,-1,639553,219597,1220541,65904,7670,610316,0
15,-1,639143,219466,1179796,65861,7637,589954,0
15,-1,642277,221104,1348772,66722,8030,674281,2
15,-1,641160,220093,1341237,66172,7721,670665,0
15,-1,641094,220566,1349333,66260,7883,674740,2
15,-1,637198,219569,1263163,65954,7885,631614,2
15,-1,638843,219115,1264641,65728,7681,632423,0
15,-1,646694,222182,1355094,67042,7849,677683,2
15,-1,637932,218792,1195269,65690,7994,597710,0
15,3,711824,248202,1441924,73595,10067,721008,0
15,-1,643831,219939,1372891,66073,7700,686370,0
15,-1,640679,219579,1352052,65960,8865,675978,2
15,-1,645961,221676,1420798,66830,8071,710535,2
15,-1,644559,219502,1262320,65840,9318,631070,0
15,-1,639475,219666,1337453,65800,9107,668679,2
15,-1,648789,220970,1321305,66415,8164,660572,0
15,3,702823,248660,1511982,73369,9262,756036,0
15,-1,652594,222405,1306722,67094,8237,653204,2
15,-1,640225,220051,1297841,65961,8124,648967,0
15,-1,637031,219212,1200360,65780,7084,600144,2
15,-1,640202,219130,1356223,65727,7995,677512,0
15,-1,642089,219385,1340405,65854,7840,670244,0
15,-1,642655,221358,1263379,66745,7855,631807,2
15,3,729906,252809,1497876,76638,9941,748869,0
15,-1,640580,219656,1224411,65906,6778,612055,0
15,-1,640251,219170,1340827,65756,8369,670169,2
15,-1,640391,218674,1210048,65587,7626,605080,0
15,-1,644504,220501,1257078,66318,8290,628488,0
15,-1,642205,219363,1185069,65786,7901,592436,2
15,-1,635688,219196,1343372,65786,7410,671663,2
15,-1,639188,219382,1294166,65841,7178,647143,0
15,-1,642819,220881,1267264,66573,7805,633720,2
15,-1,641439,219272,1339304,65749,7141,669694,0
15,-1,644084,220011,1348035,66027,8077,673984,2
15,3,712688,248601,1416225,74295,9629,708047,0
15,-1,648501,221446,1321140,66685,7908,660603,0
15,-1,641399,218842,1299126,65669,8152,649491,2
15,-1,647574,222018,1229391,66946,7087,614519,2
15,-1,640774,218787,1304852,65654,7112,652472,0
15,-1,638611,219123,1276442,65737,7530,638271,2
15,-1,641516,219086,1605208,65733,8482,802438,2
15,-1,644393,219628,1279930,65882,8677,639950,0
15,3,711708,249544,1325843,74848,9051,662667,0
15,-1,664260,223847,1379341,68921,8054,689535,0
15,-1,648749,221811,1130119,66874,6555,565451,2
15,-1,633160,219686,1386802,65435,7655,693042,2
15,-1,634688,219373,1321882,65312,6723,660996,0
15,-1,632336,218870,1205665,65198,6851,602891,2
15,-1,636021,219592,1367057,65396,7239,683433,2
15,-1,637519,218481,1286569,65004,7147,643325,0
15,-1,631025,218992,1313321,65231,7514,656624,2
15,-1,636124,219591,1280095,65598,7837,640045,2
15,-1,635192,218642,1312552,65194,7498,655753,0
15,-1,634217,219411,1274390,65530,7933,637193,2
15,-1,655505,223580,1323834,68639,8538,661852,0
15,3,709724,248534,1564134,74225,10185,782150,0
15,-1,641005,220765,1274895,66142,7120,637321,0
15,-1,642098,221310,1233721,66395,7695,616636,2
15,-1,637382,218657,1310595,66048,7903,655307,0
15,-1,642074,219689,1317315,66405,8681,658210,2
15,-1,639744,218827,1211570,66061,7848,605767,0
15,-1,635530,219296,1251092,66309,7197,625569,2
15,3,712550,249138,1396898,74454,9250,698371,0
15,-1,658915,223346,1341698,69368,8624,670838,0
15,-1,638114,219327,1186457,66219,7918,592787,0
15,-1,640918,219382,1311934,66350,7139,656021,2
15,-1,642898,218919,1319354,66135,7476,659736,0
15,-1,640755,221076,1234814,67116,7730,617488,2
15,-1,640299,218552,1331394,65961,7464,665740,0
15,-1,638153,218944,1192171,66185,7291,596124,2
15,3,712162,249434,1445843,74575,9551,722932,0
15,-1,641861,219231,1208161,66266,7845,603917,2
15,-1,640634,218012,1349081,65850,8165,674562,0
15,-1,638141,218947,1365813,66202,8209,682898,2
15,-1,641930,218533,1188191,66008,7614,594028,0
15,-1,642045,219241,1278655,66301,7982,639346,2
15,-1,636139,218765,1303785,66047,8395,652117,2
15,-1,637868,219805,1239986,66638,7980,620019,0
15,-1,639022,218671,1329064,66041,8086,664488,0
15,-1,638067,219032,1298199,66128,7720,649201,2
15,3,711771,249874,1484710,74625,8651,742378,0
15,-1,643858,220102,1164479,66759,7616,582328,0
15,-1,639964,219104,1273763,66235,8094,636930,2
15,-1,638267,219184,1261338,66249,7283,630731,0
15,-1,642345,219054,1251432,66113,7786,626381,0
15,3,719378,251273,1357865,75345,9341,679000,0
15,-1,638589,219641,1293109,66391,8931,646771,2
15,-1,642951,220005,1235207,66641,7278,617675,0
15,-1,642261,220810,1196970,67060,8336,598617,0
15,-1,640838,218728,1169852,66087,7992,584856,0
15,-1,642606,220062,1274139,66538,7885,637127,2
15,3,715017,248623,1468826,74141,9274,734483,0
15,-1,642793,219783,1217021,66430,7511,608525,0
15,-1,645219,220509,1367355,66968,8800,683541,2
15,-1,662653,223164,1413571,69351,9392,706892,0
15,-1,637782,218887,1307665,66177,7675,653832,2
15,-1,644505,219527,1387630,66366,7934,693979,0
15,-1,640337,219037,1270953,66231,8719,635377,2
15,-1,640251,219223,1379791,66223,8044,689944,2
15,3,710567,248072,1454980,74033,8627,727524,0
15,-1,648299,220149,1403987,66708,8669,702061,0
15,-1,635546,219815,1311670,66426,7250,655843,2
15,-1,636912,218964,1346307,66085,7467,672982,0
15,-1,640482,220271,1204298,66539,8288,601922,2
15,-1,646817,221926,1301854,67420,9227,650230,0
15,-1,639882,219924,1280805,66453,8712,640286,2
15,-1,661499,224208,1353510,69765,9861,676783,0
15,-1,668141,224983,1515301,69925,9095,757690,0
15,3,708398,247638,1419547,74102,9294,709857,0
15,-1,644220,220488,1318116,66722,8169,658795,2
15,-1,671840,229713,1419496,69414,8440,709826,0
