0,2,762544,266083,1378347,78565,8628,688686,0
0,2,712025,248303,1311447,73709,8727,655286,0
1,2,710076,247710,1358784,73438,9040,678819,0
2,2,711281,248436,1414954,73776,8799,707023,0
3,2,713503,249749,1318012,74385,8713,658386,0
4,2,712143,248089,1455707,73591,9252,727370,0
5,2,706988,247655,1323016,73546,8523,660898,0
6,2,710991,249196,1430647,73937,8686,714830,0
7,2,714794,251122,1333666,74884,8884,665970,0
8,2,728325,252655,1441009,76919,9423,719890,0
9,2,713865,248382,1417917,73767,9171,708449,0
10,2,711043,247646,1323494,73399,9046,661041,0
11,2,715317,249266,1450417,74220,9589,724601,0
12,2,711554,248257,1323902,73694,8938,660976,0
13,2,711061,248246,1474158,73625,9020,736621,0
14,2,716367,250653,1343412,74824,8576,670638,0
15,2,758834,262392,1486598,79786,10051,742753,0
16,2,710403,248664,1415152,73826,8859,706918,0
17,2,707996,247537,1497345,73439,8779,748194,0
18,2,708908,248146,1414946,73613,9133,706811,0
19,2,713886,250638,1345224,74760,8629,671768,0
20,2,709797,248380,1421127,73737,8687,710036,0
21,2,709822,248660,1425890,73830,8744,712406,0
22,2,711739,249748,1355394,74364,8788,676926,0
23,2,709263,249118,1332339,73983,8489,665593,0
24,2,709845,248208,1461267,73625,9762,730027,0
25,2,710859,248147,1615412,73573,9813,806472,0
26,2,710468,248761,1406260,73840,9477,702049,0
27,2,712672,249075,1525002,73964,9277,761984,0
28,2,710219,248475,1387269,73736,9380,693138,0
29,2,709187,248742,1368863,73899,9463,683710,0
30,2,706011,247983,1447255,73569,10349,723001,0
31,2,709130,248503,1759530,73718,10270,878801,0
32,2,709918,249065,1536050,73971,9577,767221,0
33,2,708774,248750,1286417,73879,8847,642763,0
34,2,712018,249427,1397883,74006,9507,698460,0
35,2,706467,248019,1435135,73508,9662,717064,0
36,2,716083,248946,1532234,73917,10407,765628,0
37,2,714542,248591,1362826,73810,9649,680860,0
38,2,712165,247991,1378835,73556,9685,688929,0
39,2,713297,248661,1299131,73852,9054,649094,0
40,2,718958,250815,1378419,74833,9501,688396,0
41,2,710439,247828,1400795,73508,9316,699845,0
42,2,717312,250828,1429622,74709,9582,714096,0
43,2,712773,248332,1373248,73654,9157,686305,0
44,2,731609,253079,1364796,77037,9624,681892,0
45,2,712374,248472,1408912,73778,9768,703622,0
46,2,710116,247741,1337426,73479,9252,668324,0
47,2,715923,250431,1362119,74492,9536,680423,0
48,2,711213,248825,1492616,73864,9709,745867,0
49,2,710445,248532,1398477,73724,9744,698806,0
50,2,709933,248057,1263974,73637,9607,631499,0
51,2,717502,250359,1286775,74637,9513,642520,0
52,2,708992,247825,1391196,73523,9602,695210,0
53,2,710095,248487,1602440,73680,11043,800296,0
54,2,714274,250551,1515741,74705,9594,757023,0
55,2,732537,253085,1479447,77072,10684,739151,0
56,2,711661,248454,1507604,73743,10067,753312,0
57,2,711358,248315,1394979,73680,9660,697018,0
58,2,708577,247769,1503970,73470,10044,751437,0
59,2,713959,249904,1386524,74390,9151,692521,0
60,2,709594,248492,1412208,73765,9076,705496,0
61,2,715777,251427,1452948,74993,9926,725589,0
62,2,730119,252801,1529364,76893,10615,764247,0
63,2,707536,248036,1579112,73639,10046,789040,0
64,2,706973,248212,1390556,73645,9090,694672,0
65,2,718183,250302,1450005,74532,9982,723869,0
66,2,711055,248255,1401634,73684,9643,700211,0
67,2,717820,251057,1446668,74906,10413,722319,0
68,2,709839,248161,1419654,73592,9517,709365,0
69,2,711430,248703,1436611,73780,10138,717370,0
70,2,738743,258654,1406910,76984,9697,702671,0
71,2,710739,249401,1398919,74063,9535,698813,0
72,2,712309,248117,1506534,73589,10669,752812,0
73,2,710208,248337,1516164,73655,9945,757629,0
74,2,731347,253187,1481381,77033,10132,740196,0
75,2,708093,247623,1407180,73440,9604,703062,0
76,2,713117,249748,1520807,74339,10118,759626,0
77,2,711371,249243,1444211,73984,9587,721614,0
78,2,707890,248092,1486839,73510,10042,743064,0
79,2,707520,248272,1408172,73711,10090,703551,0
80,2,707047,247871,1501190,73496,10672,750047,0
81,2,718024,250599,1472673,74720,9826,735599,0
82,2,711485,248424,1369624,73696,9785,684426,0
82,2,708311,247918,1290295,74002,8409,644742,0
83,2,708675,247966,1494700,73561,10044,746843,0
83,2,714989,250389,1416723,75131,9216,707624,0
84,2,713011,250115,1452853,74473,9133,725669,0
84,2,730783,253211,1435117,77579,9505,717141,0
85,2,711167,249761,1431342,74397,9242,714711,0
85,2,712984,249442,1402653,74750,8506,700482,0
86,2,732168,254061,1460487,77359,10375,729753,0
86,2,710587,248773,1458081,74353,8315,728516,0
87,2,709778,248123,1482058,73602,9984,740687,0
87,2,708354,247948,1308354,74065,8090,653697,0
88,2,710912,249291,1427168,74202,9366,712761,0
88,2,713396,249780,1421383,74903,9823,709890,0
89,2,714024,250261,1344600,74306,9349,671792,0
89,2,707189,248299,1314549,74221,8953,656790,0
90,2,705500,247831,1365430,73438,9861,682212,0
90,2,710346,247567,1295556,73869,8494,647191,0
91,2,705640,248306,1510649,73672,9730,754618,0
91,2,716017,250566,1456215,75293,8803,727348,0
92,2,712825,248631,1440357,73797,10184,719726,0
92,2,734645,254048,1579603,77859,10389,789407,0
93,2,711316,248074,1584453,73575,10593,791729,0
93,2,708113,248093,1292656,74135,7888,646140,0
94,2,714465,249712,1454001,74338,9687,726085,0
94,2,706510,248053,1404526,74279,8882,701837,0
95,2,709820,248535,1380427,73705,9533,689860,0
95,2,714175,249802,1402388,75051,9779,700391,0
96,2,712019,248458,1398353,73748,9873,698699,0
96,2,706582,247385,1599795,74001,10375,799454,0
97,2,716173,250632,1432500,74736,9349,715404,0
97,2,706119,247668,1309494,74040,7755,654305,0
98,2,710022,248470,1443618,73731,9806,721375,0
98,2,729025,253217,1463846,77717,10061,731913,0
99,2,710643,248867,1582942,73871,9791,790760,0
99,2,708397,247545,1407486,73995,9058,703499,0
100,2,709739,248534,1386207,73786,9257,692437,0
100,2,708213,248073,1332031,74297,8832,665462,0
101,2,734956,253329,1355313,77111,10669,677195,0
101,2,712644,249272,1474084,74828,9196,736251,0
102,2,712350,248826,1452616,73898,10274,725675,0
102,2,706894,247788,1421738,74162,9791,710428,0
103,2,710955,248709,1371983,73857,9572,685492,0
103,2,710762,248701,1657211,74437,11549,827567,0
104,2,708165,247905,1500793,73509,9839,749905,0
104,2,705189,246906,1302756,73815,9179,650454,0
105,2,714563,250671,1445666,74732,9929,722030,0
105,2,703990,247101,1369481,73991,9562,684126,0
106,2,710931,248444,1512945,73746,10596,755871,0
106,2,706844,248022,1422359,74254,9513,710203,0
107,2,714614,250331,1455179,74576,9864,726886,0
107,2,713102,249840,1482779,75025,9614,740945,0
108,2,709388,248907,1390446,73922,9096,694477,0
108,2,709286,248736,1603934,74502,9411,801370,0
109,2,706539,248223,1470475,73566,9189,734668,0
109,2,710201,250343,1522305,75298,9158,760483,0
110,2,714630,250783,1388213,74774,9104,693129,0
110,2,729163,252636,1510313,77559,10803,754614,0
111,2,713259,249165,1355317,73971,9706,677292,0
111,2,705878,247946,1415200,74235,9727,707001,0
112,2,709866,248201,1449970,73606,9718,724565,0
112,2,710259,250015,1480877,75096,10366,739282,0
113,2,730209,252706,1396406,76930,9956,697785,0
113,2,711818,248171,1512006,74313,9302,755333,0
114,2,712332,248726,1367651,73784,9154,683359,0
114,2,733390,253357,1484426,77777,9617,742339,0
115,2,710175,248502,1399439,73736,9541,699209,0
115,2,710072,248305,1350618,74365,8615,674701,0
116,2,714514,250527,1378871,74551,8764,688647,0
116,2,708476,247799,1560570,74158,9790,779775,0
117,2,709502,249005,1247929,73755,8900,623398,0
117,2,713259,248971,1407680,74553,9076,703318,0
118,2,737215,257949,1360338,76447,9949,679643,0
118,2,714025,249798,1474342,74944,9388,735946,0
119,2,716363,250804,1329560,74705,9488,664095,0
119,2,707806,247646,1615389,74069,9119,807163,0
120,2,731503,253147,1486987,77010,9934,743254,0
120,2,707755,247411,1566935,74041,9620,782881,0
121,2,713003,249801,1515493,74109,9448,757131,0
121,2,708559,248250,1477165,74316,9015,737515,0
122,2,708777,248339,1360687,73610,8663,679883,0
122,2,712852,249931,1582575,74999,9204,789878,0
123,2,713193,249760,1369469,74102,8514,684103,0
123,2,714843,250877,1405018,75445,9934,701591,0
124,2,709245,249242,1345702,73939,9259,672254,0
124,2,726993,252455,1480278,77481,9992,738756,0
125,2,708808,248561,1430812,73642,9324,714790,0
125,2,710029,248154,1464884,74261,8869,732356,0
126,2,712242,249107,1432668,73806,9680,715691,0
126,2,707412,248057,1464576,74274,9077,731298,0
127,2,711782,249146,1503502,73873,9423,751252,0
127,2,706336,247794,1506218,74123,9174,752700,0
128,2,715575,250679,1425467,74582,9163,712151,0
128,2,710640,248650,1580871,74433,9335,789386,0
129,2,709926,248901,1352074,73783,8977,675582,0
129,2,707942,247992,1459998,74214,9405,729381,0
130,2,714694,250873,1432726,74731,9661,715658,0
130,2,706294,248024,1472879,74226,9635,735272,0
131,2,708652,248704,1418391,73744,9340,708717,0
131,2,711534,249964,1534341,75163,9753,766200,0
132,2,708488,248863,1359449,73729,9702,679371,0
132,2,727502,253161,1458461,77723,9993,728761,0
133,2,707907,249279,1460212,73929,9397,729523,0
133,2,708384,248477,1574553,74405,9970,786264,0
134,2,711005,249178,1340832,73819,9555,670067,0
134,2,706412,247944,1484751,74171,9580,741873,0
135,2,709005,248717,1421160,73647,9807,710044,0
135,2,707361,249086,1450247,74571,8903,724651,0
136,2,709738,249232,1388674,73853,9605,693952,0
136,2,707173,248258,1472946,74325,9544,735301,0
137,2,711055,250288,1455327,74362,9498,726884,0
137,2,709581,247687,1346051,74116,9317,672504,0
138,2,709692,250037,1422040,74094,9179,710418,0
138,2,708819,248159,1423273,74251,8935,711300,0
139,2,716702,248644,1314706,73618,8953,656926,0
139,2,712431,249059,1490456,74784,10154,744479,0
140,2,740461,254555,1311163,77368,10281,655050,0
140,2,706452,247777,1300265,74117,9265,649856,0
141,2,715742,249157,1316800,73807,9788,657882,0
141,2,707399,247998,1355927,74206,9939,677175,0
142,2,712837,248371,1268223,73531,9622,633527,0
142,2,708451,248133,1374845,74303,9310,686412,0
143,2,715181,248700,1339905,73612,9827,669474,0
143,2,707468,247746,1485638,74102,9918,742676,0
144,2,743153,255329,1379122,78066,9998,688990,0
144,2,709198,249097,1506489,74579,10217,752737,0
145,2,715056,249009,1442531,73771,10018,720800,0
145,2,706536,247923,1411730,74182,9999,705581,0
146,2,714426,248991,1436180,73760,10239,717548,0
146,2,709445,249784,1543530,75104,10044,771173,0
147,2,717460,250434,1409050,74432,9575,703891,0
147,2,728830,253097,1537874,77630,10876,767917,0
148,2,713503,248300,1424029,73460,10024,711532,0
148,2,704832,248003,1339100,74299,8816,669053,0
149,2,713953,249020,1303129,73819,9173,651105,0
149,2,710694,248939,1387082,74754,8883,692741,0
150,2,717581,250727,1484987,74644,9760,741647,0
150,2,710245,248958,1408188,74576,9131,703513,0
151,2,712728,249395,1510945,73937,10026,754965,0
151,2,707198,247715,1299942,74093,8741,649485,0
152,2,714053,248852,1317247,73709,9506,658070,0
152,2,706061,247847,1371243,74207,8680,685113,0
153,2,713743,248407,1428662,73548,9934,713881,0
153,2,729599,253174,1486004,77724,9598,742540,0
154,2,715307,249403,1319709,73935,9289,659362,0
154,2,705277,247909,1463161,74167,9054,731079,0
155,2,718475,250641,1398358,74535,9997,698473,0
155,2,704032,247375,1371553,73997,8986,685147,0
156,2,732564,252878,1375136,76844,10550,687137,0
156,2,709556,249769,1421094,75012,9441,709750,0
157,2,714826,250516,1419042,74484,9863,708727,0
157,2,706763,248079,1364696,74267,8846,681828,0
158,2,711984,248582,1303304,73671,9762,651188,0
158,2,704990,248307,1355277,74337,8604,677069,0
159,2,732879,253409,1410919,77016,10964,705137,0
159,2,705271,248052,1443533,74217,8635,721331,0
160,2,713627,249555,1424519,74065,10423,711855,0
160,2,708472,249650,1330374,74767,8722,664588,0
161,2,710517,248018,1254285,73523,9707,626672,0
161,2,703114,248151,1315753,74306,8322,657330,0
162,2,712929,249426,1331070,74059,9754,664987,0
162,2,715942,248525,1317302,74398,8852,658009,0
163,2,715888,248635,1360037,73747,9795,679632,0
163,2,713518,247549,1434495,74071,9463,716556,0
164,2,712501,248412,1270203,73687,9912,634585,0
164,2,715885,248666,1627164,74445,10199,813198,0
165,2,712819,248686,1474846,73780,9522,736883,0
165,2,734173,252500,1455750,77482,10058,727276,0
166,2,711804,248631,1388843,73805,8990,693836,0
166,2,713884,247477,1403470,74045,9851,701357,0
167,2,712024,248678,1424182,73756,9562,711665,0
167,2,714790,248220,1334102,74344,9456,666428,0
168,2,718219,251507,1437983,74956,9335,718261,0
168,2,717874,249700,1414369,74992,9589,706246,0
169,2,715412,249225,1409753,74016,10128,704360,0
169,2,711337,247230,1320030,73988,9312,659566,0
170,2,714396,249539,1417782,74361,10366,708190,0
170,2,714365,247982,1407629,74180,8747,703344,0
171,2,711517,248830,1330287,73942,9200,664479,0
171,2,714777,248043,1417902,74305,9603,708403,0
172,2,710331,248349,1475987,73740,9959,737627,0
172,2,714412,248233,1378868,74306,9993,688862,0
173,2,714873,250521,1504321,74702,9888,751481,0
173,2,719246,250639,1476284,75365,9809,737346,0
174,2,733393,254016,1428078,77409,10231,713587,0
174,2,759400,261333,1575230,80160,10893,787211,0
175,2,711646,248451,1306390,73767,9306,652679,0
175,2,710694,247755,1329856,74196,9507,664379,0
176,2,714396,249342,1387567,74164,9677,693177,0
176,2,716837,249561,1419670,74943,9508,709078,0
177,2,709197,248088,1434025,73632,9448,716614,0
177,2,711245,248424,1307073,74321,8887,653025,0
178,2,711096,248672,1313237,73895,9234,656031,0
178,2,711778,248215,1297200,74276,8732,647963,0
179,2,714481,250509,1391155,74781,9542,694808,0
179,2,713590,248890,1328401,74497,9498,663581,0
180,2,733301,254175,1481816,77452,9830,740537,0
180,2,711141,248095,1296820,74236,9498,647740,0
181,2,710599,249219,1482095,74091,9403,740601,0
181,2,707258,247068,1294203,73855,9421,646546,0
182,2,708749,248590,1314288,73825,8885,656718,0
182,2,714789,250530,1309667,75426,9522,653738,0
183,2,712943,250102,1318417,74542,9242,658558,0
183,2,737952,252784,1400983,77549,10535,699840,0
184,2,707580,248638,1319568,73942,9152,659259,0
184,2,717134,248945,1310883,74506,8766,654800,0
185,2,718111,250565,1396645,74886,9195,697512,0
185,2,713891,248100,1407491,74181,8532,703268,0
186,2,737085,253927,1369520,77443,9938,684339,0
186,2,714124,248097,1310456,74228,9012,654691,0
187,2,712314,248644,1415031,73934,9124,707047,0
187,2,713082,247866,1319276,74006,9089,659148,0
188,2,715925,250027,1466434,74579,9520,732294,0
188,2,714341,248406,1396886,74197,9291,697988,0
189,2,712802,248916,1396156,74018,9192,697593,0
189,2,714792,248573,1348336,74156,9314,673735,0
190,2,712127,248258,1456211,73750,10027,727650,0
190,2,735395,253499,1477437,77643,10366,738380,0
191,2,712504,248860,1325202,74008,9249,662010,0
191,2,711688,248098,1414528,74093,9462,706815,0
192,2,709054,247814,1421543,73569,9576,710339,0
192,2,713311,248731,1437852,74343,8973,718325,0
193,2,716622,250539,1394987,74843,9847,696712,0
193,2,711751,247599,1412135,73910,8919,705539,0
194,2,708763,248166,1433959,73775,9152,716317,0
194,2,712112,248305,1483718,74174,9127,741250,0
195,2,707891,247532,1481536,73532,9621,740305,0
195,2,711358,248214,1330226,74142,9121,664554,0
196,2,714974,250394,1455340,74775,9596,726720,0
196,2,710395,247866,1404299,73945,9350,701684,0
197,2,705659,247141,1373744,73382,9120,686016,0
197,2,712683,248820,1434357,74318,9411,716613,0
198,2,711261,249646,1502338,74449,9441,749653,0
198,2,714416,248219,1320853,74120,7954,659808,0
199,2,710823,248161,1436824,73731,10446,717951,0
199,2,708934,247787,1305463,73946,8417,652171,0
200,2,711156,248701,1409883,73938,10304,704418,0
200,2,713707,249188,1422995,74422,9341,710985,0
201,2,713996,250105,1603565,74667,10185,802085,0
201,2,710263,248168,1246803,74044,8408,622850,0
202,2,712743,249172,1425640,74068,10410,712270,0
202,2,713119,248656,1271667,74140,8877,635310,0
203,2,708898,248019,1315771,73657,9789,657132,0
203,2,714589,249138,1316233,74644,9455,657207,0
204,2,710021,248819,1365580,74119,9677,681924,0
204,2,735798,253781,1540772,77663,10453,769818,0
205,2,709376,248839,1487274,73981,10059,742593,0
205,2,713061,248841,1450564,74245,8931,724785,0
206,2,707464,248124,1492701,73675,9904,745309,0
206,2,711173,249043,1441420,74330,9297,720161,0
207,2,711272,248516,1473226,73753,10149,735736,0
207,2,712249,248699,1484609,74153,9716,741800,0
208,2,714876,250366,1416133,74660,9909,707150,0
208,2,716709,251071,1404829,75300,9329,701381,0
209,2,731615,253564,1358539,77202,9646,678752,0
209,2,719097,249698,1491100,74516,9828,744848,0
210,2,708632,248408,1307431,73740,8954,653251,0
210,2,720066,250146,1420061,74883,9821,709337,0
211,2,711113,249356,1339201,74086,8960,669060,0
211,2,715527,248697,1325900,74096,9031,662573,0
212,2,709517,249006,1327312,73924,9342,663226,0
212,2,714341,248361,1447374,74030,9944,723158,0
213,2,708051,248619,1451603,73788,9882,725212,0
213,2,736646,253884,1603648,77685,10664,801271,0
214,2,714603,251541,1431004,75093,10278,714695,0
214,2,714983,248894,1316234,74274,8369,657502,0
215,2,712775,248717,1501142,73877,9764,750103,0
215,2,721037,250358,1528329,74927,10102,763250,0
216,2,710235,247842,1434889,73551,8805,717002,0
216,2,715840,249187,1339686,74306,9131,669304,0
217,2,717694,250934,1434938,74747,9658,716580,0
217,2,719391,251237,1427412,75282,9955,712812,0
218,2,710204,248565,1445842,73769,10246,722442,0
218,2,733289,252702,1451428,77234,10283,725282,0
219,2,712301,248818,1363363,73916,9724,681047,0
219,2,712449,248188,1302359,74078,8886,650541,0
220,2,709757,248228,1468923,73673,9772,733997,0
220,2,717960,250698,1412876,75038,9869,705514,0
221,2,708481,248714,1353644,73812,8661,676170,0
221,2,711421,248361,1314487,74029,9388,656667,0
222,2,711593,248893,1506741,73932,9421,752644,0
222,2,714367,248387,1273298,74064,9262,636010,0
223,2,710211,248645,1519752,73866,9506,759361,0
223,2,736282,253254,1465256,77481,10651,732154,0
224,2,737343,258025,1493403,76584,9929,746252,0
224,2,744520,259389,1521695,77629,10658,760038,0
225,2,706548,248002,1278113,73610,9006,638623,0
225,2,713162,248828,1434902,74252,9668,716649,0
226,2,709419,248849,1335589,73859,10044,667268,0
226,2,718015,250803,1479173,75161,9652,738723,0
227,2,709985,249644,1353200,74387,9661,675776,0
227,2,734955,253239,1513470,77415,10107,756364,0
228,2,705691,248475,1432446,73848,9574,715549,0
228,2,713726,249527,1364341,74670,9223,681489,0
229,2,713182,248939,1527051,73889,9643,763055,0
229,2,714363,249089,1352402,74223,9537,675712,0
230,2,711527,248709,1437719,73950,9012,718133,0
230,2,717530,251131,1445270,75321,9412,721647,0
231,2,715042,250556,1464029,74727,10222,731109,0
231,2,731777,253276,1535747,77494,10721,767059,0
232,2,729744,253012,1442704,77007,9711,720949,0
232,2,711756,249389,1477493,74438,9833,738363,0
233,2,709140,248613,1425727,73936,9649,712439,0
233,2,713978,248400,1345072,74067,8950,672011,0
234,2,711001,249424,1429673,74422,9678,714110,0
234,2,717675,249802,1364193,74759,8672,681361,0
235,2,708405,248919,1481337,73990,9602,740038,0
235,2,714081,248607,1441784,74148,9572,720412,0
236,2,714669,250452,1517784,74816,9488,758031,0
236,2,712979,248648,1435215,74205,8630,716864,0
237,2,708843,248904,1441053,73997,10058,720131,0
237,2,710667,247932,1371183,73925,8260,684908,0
238,2,711211,250685,1429477,74872,9489,713838,0
238,2,735918,253783,1502768,77672,10371,750864,0
239,2,711452,249622,1521170,74254,9321,759911,0
239,2,711754,248130,1553734,73979,9017,776003,0
240,2,715325,248759,1361225,73951,9553,679804,0
240,2,713528,249707,1318790,74739,9378,658644,0
241,2,713858,248565,1429598,73948,10069,714170,0
241,2,712813,248363,1282103,74006,9227,640108,0
242,2,711425,248230,1416966,73696,9920,707955,0
242,2,713103,248897,1334215,74290,9157,666544,0
243,2,711722,248843,1308819,74030,9058,653859,0
243,2,732454,253144,1388334,77457,10484,693558,0
244,2,717795,250619,1432430,74867,9932,715414,0
244,2,709904,247848,1369559,73815,9454,684293,0
245,2,712854,248947,1410101,74037,9509,704617,0
245,2,711308,248661,1274566,74154,8907,636757,0
246,2,709153,247898,1316176,73617,9035,657679,0
246,2,713824,249621,1477356,74497,9681,737791,0
247,2,713614,248946,1275607,73982,9531,637179,0
247,2,711329,248354,1415852,74071,8372,707507,0
248,2,712824,248665,1365485,73838,10498,682394,0
248,2,716421,251019,1323701,75236,9033,661184,0
249,2,713320,249115,1276041,74054,9872,637467,0
249,2,734887,254535,1477568,77896,10567,738340,0
250,2,714260,250050,1356179,74551,10214,677364,0
250,2,717929,250776,1377107,75055,8648,687891,0
251,2,708532,248322,1377105,73796,9634,688158,0
251,2,715018,250204,1388946,74701,8921,693927,0
252,2,704777,247104,1336676,73327,10247,667926,0
252,2,711459,249187,1336039,74309,8771,667583,0
253,2,712877,248473,1280667,73850,9319,639709,0
253,2,714171,249557,1466340,74482,9089,732664,0
254,2,711108,248694,1338451,73886,9509,668680,0
254,2,716914,251242,1422002,75359,9355,710191,0
255,2,715254,250056,1464752,74496,9391,731553,0
255,2,715231,249814,1351474,74545,8511,675252,0
256,2,709150,248217,1459574,73729,9308,729125,0
256,2,723980,250937,1361102,75058,8895,679806,0
257,2,707490,247961,1439593,73567,9657,719371,0
257,2,721143,251406,1359290,75373,9204,678825,0
258,2,735669,254061,1401070,77384,10277,699951,0
258,2,716607,248992,1276525,74234,9220,637867,0
259,2,713192,250075,1447816,74490,9740,722941,0
259,2,715464,248936,1323479,74237,9281,661245,0
260,2,710810,249418,1345852,74065,9327,671902,0
260,2,716508,249237,1251030,74362,8360,625010,0
261,2,709761,248598,1436567,73783,10007,717792,0
261,2,717309,250159,1447792,74666,8275,723400,0
262,2,709203,248363,1556430,73785,9425,777663,0
262,2,715934,248838,1349685,74226,8607,674437,0
263,2,732439,254178,1427915,77478,10181,713547,0
263,2,721048,251057,1354004,75231,9635,676191,0
264,2,714209,249716,1344526,74254,9061,671704,0
264,2,713489,248734,1513702,74156,9287,756410,0
265,2,709891,248390,1414762,73724,9320,706908,0
265,2,716363,249349,1312572,74498,8586,655811,0
266,2,712005,249483,1423000,74189,9261,710976,0
266,2,714999,248643,1408749,74227,8357,703926,0
267,2,711035,248658,1291309,73923,9394,645148,0
267,2,716031,249495,1455058,74562,8989,727027,0
268,2,710481,248693,1435345,73867,9685,717231,0
268,2,716184,249250,1316525,74451,8405,657868,0
269,2,731536,253567,1356129,77272,10168,677597,0
269,2,714872,249101,1423783,74415,9090,711378,0
270,2,735127,257975,1446025,76625,10120,722525,0
270,2,742139,258683,1400869,77268,9093,700045,0
271,2,711771,248744,1299366,73893,9728,649027,0
271,2,718553,250718,1308655,75261,8704,653537,0
272,2,709813,248684,1367232,73931,9426,683157,0
272,2,735081,253853,1440452,77785,9546,719740,0
273,2,710760,249647,1266324,74275,9127,632652,0
273,2,716530,250127,1251544,74922,8502,625057,0
274,2,717908,251145,1333749,74971,10090,666094,0
274,2,717208,249993,1341532,74731,9310,670298,0
275,2,733924,253675,1339681,77307,10822,669301,0
275,2,714413,249314,1295734,74481,8845,647446,0
276,2,712329,249250,1328158,73975,9096,663580,0
276,2,713865,249434,1349244,74573,8940,674180,0
277,2,714403,250488,1483964,74556,10181,741247,0
277,2,715289,249992,1255688,74685,9133,627310,0
278,2,715086,251251,1433066,74961,9524,715707,0
278,2,711706,248973,1294199,74420,9312,646627,0
279,2,731068,254108,1400484,77398,10486,699613,0
279,2,714760,249986,1254834,74929,8748,626771,0
280,2,712818,249526,1512264,74033,9896,755605,0
280,2,717332,249147,1478075,74439,9366,738601,0
281,2,711921,249059,1343457,73893,8865,671209,0
281,2,718550,250074,1337204,74763,8889,667629,0
282,2,715312,250808,1393663,74704,9577,696064,0
282,2,716331,249809,1427865,74666,8977,713471,0
283,2,710046,249105,1489853,73972,9983,744544,0
283,2,715028,249536,1364140,74541,8952,681627,0
284,2,712248,250011,1496144,74203,9664,747483,0
284,2,714126,249172,1443940,74459,9547,721397,0
285,2,710956,249609,1462398,74062,9196,730658,0
285,2,734996,253536,1617057,77629,10523,808070,0
286,2,711027,249255,1507672,73966,9322,753304,0
286,2,716236,249731,1627809,74708,10582,813442,0
287,2,731084,254059,1393571,77351,10292,696051,0
287,2,712584,249340,1392293,74557,9015,695634,0
288,2,711702,250020,1441562,74269,10223,720079,0
288,2,718209,250231,1370580,75007,9307,684654,0
289,2,708509,249723,1445113,74166,9705,722011,0
289,2,712954,248823,1425945,74386,10014,712507,0
290,2,721524,251074,1422873,74720,9604,710626,0
290,2,714018,249543,1345475,74587,8830,671941,0
291,2,716061,249864,1506764,74220,9775,752897,0
291,2,712479,248889,1490377,74323,9448,744734,0
292,2,715378,249786,1453594,74275,10021,726303,0
292,2,735092,253557,1492393,77678,10411,745579,0
293,2,714503,249449,1342677,74127,9605,670639,0
293,2,714613,248913,1455292,74250,9371,727149,0
294,2,713864,249550,1425907,74210,9928,712379,0
294,2,713007,249003,1396235,74312,9711,697668,0
295,2,713524,249953,1437718,74265,9871,718338,0
295,2,733162,253336,1468988,77525,9989,734031,0
296,2,713911,249357,1423192,74076,9454,711262,0
296,2,716027,249895,1374756,74665,9019,686886,0
297,2,709511,248867,1255091,73922,8685,627148,0
297,2,717229,250578,1312487,75052,9314,655249,0
298,2,716489,251349,1410371,75032,9709,704489,0
298,2,715253,250114,1425581,74720,9585,712291,0
299,2,715324,249985,1499818,74293,9893,749257,0
299,2,712763,249568,1332921,74537,9035,665851,0
300,2,713418,249372,1434724,74018,9488,716814,0
300,2,709044,248097,1315861,74056,9104,657393,0
301,2,715796,251120,1417708,74942,9220,707960,0
301,2,719127,252100,1296739,75734,9337,647400,0
302,2,709764,249371,1447943,74110,9565,723074,0
302,2,738885,255690,1375029,78367,10144,686880,0
303,2,715105,250694,1495374,74685,9185,746596,0
303,2,712452,249600,1350802,74472,9174,674925,0
304,2,710740,249778,1331142,74176,8962,665021,0
304,2,714905,251304,1479065,75119,9009,739051,0
305,2,716698,251550,1441965,75017,9813,720138,0
305,2,722968,251638,1365203,75444,9341,681458,0
306,2,733374,254860,1450804,77615,10626,724960,0
306,2,741172,255308,1509854,78186,10246,754419,0
307,2,710344,250005,1405000,74286,9482,701998,0
307,2,716049,249301,1449672,74342,9793,724374,0
308,2,710523,249485,1354442,74011,9926,676740,0
308,2,716392,249536,1379787,74486,9623,689387,0
309,2,708720,249429,1450155,74035,10322,724574,0
309,2,713080,248815,1377249,74196,8537,688194,0
310,2,712080,251144,1438230,74763,10435,718248,0
310,2,712879,249139,1494676,74348,9461,746844,0
311,2,713429,249256,1552493,73861,9871,775674,0
311,2,721416,251316,1455148,75319,9166,726671,0
312,2,714439,249944,1428016,74217,9213,713215,0
312,2,738043,254553,1498495,77855,10014,748663,0
313,2,713448,249725,1364070,74017,8869,681618,0
313,2,715652,249500,1441902,74266,9025,720482,0
314,2,714273,250847,1406060,74685,9417,702156,0
314,2,714078,249461,1394890,74392,8749,696833,0
315,2,713326,250170,1319172,74266,9647,659047,0
315,2,712812,249178,1417673,74447,8929,708279,0
316,2,711451,249758,1371235,74102,9877,684918,0
316,2,712015,248933,1386489,74308,8862,692715,0
317,2,717026,251377,1384869,74883,9535,691480,0
317,2,716494,250386,1336608,74954,8997,667597,0
318,2,709836,249471,1332547,74041,9344,665809,0
318,2,713125,249218,1307501,74362,8343,653292,0
319,2,738884,259394,1404384,76980,9218,701871,0
319,2,712965,248617,1395317,74194,9378,697133,0
320,2,709349,249183,1445957,73851,9983,722527,0
320,2,717626,251098,1335007,75270,8993,666357,0
321,2,712772,250462,1457956,74402,10577,728166,0
321,2,711770,249076,1423114,74399,8440,710863,0
322,2,709149,249365,1477288,73983,10408,737672,0
322,2,711292,249491,1378683,74516,9264,688822,0
323,2,714328,250107,1676597,74222,11197,838363,0
323,2,714378,249993,1266814,74888,9017,632525,0
324,2,710006,248939,1393790,73771,10279,696677,0
324,2,715583,251161,1345722,75334,8954,671991,0
325,2,711334,249954,1466549,74210,10711,732173,0
325,2,731134,253499,1470604,77617,10450,734719,0
326,2,709270,249707,1535910,74048,10509,767362,0
326,2,734435,253473,1478321,77592,11056,738620,0
327,2,710685,249620,1555782,74055,10405,777108,0
327,2,714067,249521,1331370,74526,9537,665322,0
328,2,732272,254835,1489664,77551,11296,744186,0
328,2,712780,249158,1395595,74419,9893,697184,0
329,2,710224,250187,1505354,74273,10644,752584,0
329,2,715492,249969,1339355,74866,9265,668966,0
330,2,710496,250135,1706155,74274,10741,852748,0
330,2,711603,248781,1475592,74303,9737,737235,0
331,2,710136,249706,1416086,74041,10015,706089,0
331,2,711899,249150,1440095,74368,8824,719479,0
332,2,733414,254970,1443931,77616,10752,721683,0
332,2,711314,248844,1404115,74288,8964,701545,0
333,2,705116,248723,1434862,73703,10427,716539,0
333,2,712269,249085,1388135,74398,9099,693611,0
334,2,709252,250048,1562718,74223,10364,779834,0
334,2,713301,249871,1318328,74848,8908,658400,0
335,2,719570,250096,1517226,74228,10345,758465,0
335,2,711791,249061,1370075,74379,9013,684591,0
336,2,718212,249631,1453604,73958,10990,726174,0
336,2,710953,248976,1456510,74293,9471,727689,0
337,2,722436,251590,1397053,74985,10410,697198,0
337,2,714634,250900,1442110,75242,9930,720010,0
338,2,739261,254603,1354374,77464,10415,676775,0
338,2,709404,249211,1333678,74372,9050,666304,0
339,2,716672,250184,1520302,74253,10291,760766,0
339,2,713745,249040,1372045,74386,9688,685579,0
340,2,737736,254186,1359167,77368,10041,679082,0
340,2,711118,249026,1405789,74383,9412,702380,0
341,2,715659,249837,1443773,74186,9682,721391,0
341,2,715348,250541,1274312,75145,8810,636259,0
342,2,714684,249617,1337506,74101,9388,668350,0
342,2,732188,253581,1370889,77650,9904,685045,0
343,2,718833,250617,1473868,74342,10444,736521,0
343,2,711017,249204,1299896,74386,9042,649448,0
344,2,717059,250127,1352963,74339,9910,675946,0
344,2,710174,249281,1283349,74462,9225,641204,0
345,2,713944,249537,1500133,73955,10105,749589,0
345,2,711662,248943,1266619,74312,9674,632778,0
346,2,735934,254689,1440674,77583,10636,719667,0
346,2,715397,251018,1409060,75344,10101,703515,0
347,2,716128,251040,1447015,74639,10285,723039,0
347,2,729854,253361,1509115,77562,10904,754094,0
348,2,717335,249328,1317319,74089,8752,658199,0
348,2,707240,247457,1568850,73849,10672,783436,0
349,2,715188,249501,1457980,74347,9723,728028,0
349,2,709502,249223,1457198,74441,10039,728058,0
350,2,716674,250099,1479036,74382,9897,739011,0
350,2,716219,248920,1476224,74284,10529,737667,0
351,2,714646,249278,1417893,74117,9230,708443,0
351,2,716290,249354,1480877,74446,9257,740590,0
352,2,719583,251342,1487433,75143,9946,742698,0
352,2,714696,249147,1408437,74422,9759,703678,0
353,2,716786,250532,1615607,74566,10230,807638,0
353,2,715175,248846,1410880,74261,9163,704934,0
354,2,713715,249376,1366832,74209,9000,682796,0
354,2,734426,253714,1477148,77613,10331,738067,0
355,2,713112,249567,1444610,74314,9093,721734,0
355,2,714935,249271,1445098,74469,9970,722006,0
356,2,717200,251230,1467945,75025,9491,733300,0
356,2,714620,249045,1338841,74386,8554,668873,0
357,2,713006,249253,1335868,74175,9052,667440,0
357,2,713251,248869,1424736,74246,9250,711804,0
358,2,713525,249317,1309779,74113,9149,654508,0
358,2,714082,248778,1404721,74240,8912,701908,0
359,2,716614,251087,1371680,74841,9849,684890,0
359,2,718585,251025,1307223,75287,8123,652796,0
360,2,712119,249609,1387089,74196,10243,692990,0
360,2,715346,249660,1331279,74570,8380,665170,0
361,2,717036,249430,1379173,74141,10379,689118,0
361,2,714236,248698,1307494,74231,8739,653282,0
362,2,720363,251286,1386069,75062,10048,691698,0
362,2,715716,249226,1389030,74457,9757,693862,0
363,2,718568,251768,1452713,75215,9359,725415,0
363,2,717519,250551,1283362,75144,9755,640717,0
364,2,737344,254755,1437390,77660,10489,718110,0
364,2,736561,253921,1361671,77710,10467,680299,0
365,2,714610,250151,1556757,74410,9782,778143,0
365,2,713870,248914,1258820,74344,8965,628750,0
366,2,714327,249413,1505656,74214,9041,751945,0
366,2,714906,249748,1256366,74803,8984,627256,0
367,2,713040,249508,1421863,74139,9123,710044,0
367,2,715824,249403,1391939,74450,9351,695562,0
368,2,741805,260282,1453301,77711,9047,725842,0
368,2,713360,248806,1444483,74254,8921,721804,0
369,2,731926,253429,1362186,77114,9142,680677,0
369,2,717915,251173,1402943,75410,8901,700571,0
370,2,711950,249644,1399596,74148,8548,699268,0
370,2,733038,252934,1599897,77431,9359,799460,0
371,2,711747,249124,1285501,74076,8984,642244,0
371,2,712492,248733,1385768,74215,9033,692426,0
372,2,709402,248137,1411355,73763,8584,705275,0
372,2,717812,250881,1327941,75116,8377,663223,0
373,2,733240,253607,1343605,77404,9521,671327,0
373,2,713462,249940,1393346,74651,9159,696117,0
374,2,708814,249114,1285912,74115,8235,642415,0
374,2,711008,248912,1393818,74253,9426,696387,0
375,2,712358,248723,1416275,73832,9484,707660,0
375,2,716628,250484,1339224,75125,8958,668798,0
376,2,717107,251487,1372511,75083,9317,685327,0
376,2,714489,248674,1308651,74265,9107,653807,0
377,2,708768,248484,1318273,73728,9105,658742,0
377,2,718196,250581,1344260,75050,9049,671317,0
378,2,719492,250665,1320128,74764,9074,659260,0
378,2,713259,248187,1319455,73940,8362,659242,0
379,2,735876,253713,1349175,77259,9917,674129,0
379,2,719058,251219,1333371,75298,8900,665777,0
380,2,714393,249565,1408457,74154,9024,703736,0
380,2,713438,249619,1297809,74514,8633,648447,0
381,2,712304,248264,1344920,73645,8297,671891,0
381,2,714178,249012,1426896,74288,9302,712928,0
382,2,710893,248355,1421115,73674,8551,710066,0
382,2,710288,248371,1385859,74067,9335,692430,0
383,2,715809,250561,1404552,74621,8622,701515,0
383,2,716865,250477,1326812,74998,8780,662591,0
384,2,712531,248724,1332238,73836,8591,665676,0
384,2,714656,249209,1333934,74379,9474,666332,0
385,2,712247,249091,1317752,73973,8766,658457,0
385,2,713392,248746,1304298,74157,8678,651620,0
386,2,714784,250422,1441758,74611,9657,720105,0
386,2,713426,249071,1412142,74324,9058,705440,0
387,2,738355,255098,1348273,78235,9951,673662,0
387,2,718228,251277,1307813,75349,8975,653286,0
388,2,712247,249327,1394669,74038,9101,696923,0
388,2,733991,253842,1477698,77684,9488,738298,0
389,2,712766,248789,1311257,73815,8137,655194,0
389,2,710692,248201,1373948,73963,7989,686556,0
390,2,712101,248872,1403355,73927,7958,701249,0
390,2,715159,250582,1340958,75009,8532,669761,0
391,2,714466,250107,1437879,74535,8516,718153,0
391,2,712818,249443,1512918,74448,9775,755979,0
392,2,712527,249177,1375862,74046,8334,687563,0
392,2,711522,249682,1573621,74473,9533,786483,0
393,2,711285,248391,1379810,73738,8679,689533,0
393,2,714985,249070,1477666,74210,9517,739219,0
394,2,730649,253400,1344940,77274,8945,672160,0
394,2,718557,251239,1546324,75234,9649,771747,0
395,2,707111,248278,1352731,73887,8273,675920,0
395,2,734732,254241,1488835,77758,10406,743798,0
396,2,712298,249098,1351357,74135,8957,674911,0
396,2,715770,250226,1466684,74648,9620,732367,0
397,2,707110,247186,1352425,73483,8278,675717,0
397,2,712500,249345,1462431,74300,9764,730736,0
398,2,730467,253164,1350677,77246,9782,674866,0
398,2,715656,250566,1498693,74910,10710,748607,0
399,2,713893,249720,1402772,74326,9841,700887,0
399,2,709720,248409,1546693,73993,10651,772712,0
400,2,709907,248536,1292928,73900,8892,646029,0
400,2,711485,249344,1592503,74277,10707,795137,0
401,2,706933,248009,1274820,73701,8714,636949,0
401,2,715281,251266,1437116,75225,10292,717776,0
402,2,708697,249003,1393291,74024,9191,696218,0
402,2,732810,254238,1913200,77755,11879,956408,0
403,2,709256,248119,1352097,73704,8757,675615,0
403,2,717645,249569,1559974,74306,11441,779188,0
404,2,712809,250115,1321530,74640,8795,660077,0
404,2,717184,249995,1551329,74556,10837,775427,0
405,2,708633,249052,1424173,74061,8935,711677,0
405,2,720764,251602,1413881,75341,11356,706110,0
406,2,711636,251021,1420067,75062,9040,709243,0
406,2,736085,254061,1509924,77653,11960,754570,0
407,2,734121,253110,1535784,77247,9942,767465,0
407,2,716446,250423,1464314,74666,10187,731155,0
408,2,711140,248681,1294899,73943,8254,647189,0
408,2,713983,249329,1678103,74305,10816,838599,0
409,2,712783,249182,1357517,74153,8644,678339,0
409,2,717395,250326,1503271,74632,10745,751432,0
410,2,714230,250111,1417605,74644,8949,708059,0
410,2,714585,249690,1500899,74366,10816,749917,0
411,2,711393,249197,1303992,74112,8663,651485,0
411,2,717145,251356,1425117,75280,10581,711758,0
412,2,711116,248722,1415438,73946,9300,707284,0
412,2,743256,255875,1684688,78743,12615,841675,0
413,2,709584,248339,1376156,73843,8992,687717,0
413,2,715555,250551,1365295,74923,9647,681895,0
414,2,729962,253098,1347734,77245,8733,673405,0
414,2,714640,250442,1628251,74674,11130,813459,0
415,2,707681,248458,1472694,73864,8372,735909,0
415,2,713634,249030,1527143,74193,11491,763098,0
416,2,711181,249650,1322192,74305,7852,660624,0
416,2,714282,248970,1428633,74220,9426,713849,0
417,2,714774,250838,1433800,74970,9118,716262,0
417,2,713566,249424,1492706,74345,10076,745461,0
418,2,731275,253747,1373422,77409,9430,686244,0
418,2,713578,249039,1432166,74310,8924,715336,0
419,2,709217,249087,1426963,74112,8633,712952,0
419,2,716119,250428,1520917,74895,8879,760040,0
420,2,706565,248190,1296991,73754,7736,648078,0
420,2,714725,250476,1517328,74838,9146,758076,0
421,2,710784,248579,1429693,73867,8715,714403,0
421,2,710004,248970,1414811,74269,8856,707013,0
422,2,709262,248490,1331962,73872,8575,665436,0
422,2,762680,263465,1427069,80577,10702,713066,0
423,2,714894,250718,1452351,74894,9179,725314,0
423,2,712996,249417,1247073,74423,8786,623045,0
424,2,707967,249021,1367957,74017,8444,683520,0
424,2,714773,250059,1306911,74657,9204,653042,0
425,2,710017,250007,1328975,74364,8148,664038,0
425,2,713035,249721,1301395,74591,8590,650117,0
426,2,710398,250207,1419674,74615,8998,708997,0
426,2,714443,250420,1363058,75001,9274,680805,0
427,2,708941,248916,1297101,74092,8610,647845,0
427,2,712270,249183,1308977,74356,8507,654067,0
428,2,707190,248603,1402884,73931,8794,701003,0
428,2,710163,248969,1646042,74235,10057,822954,0
429,2,707502,249360,1337667,74237,8683,668354,0
429,2,717785,251888,1698982,75554,9500,847881,0
430,2,705212,247864,1376468,73690,8492,687846,0
430,2,732900,254456,1577014,77908,11451,788012,0
431,2,716164,249472,1329136,74181,8780,664004,0
431,2,710140,249831,1367421,74610,9543,683073,0
432,2,713048,248667,1343719,74001,9004,671395,0
432,2,718240,250973,1446111,75192,9504,723042,0
433,2,710629,248229,1266722,73869,8209,632845,0
433,2,715732,249701,1494406,74631,9958,746798,0
434,2,713510,249084,1408865,74083,9518,703961,0
434,2,714114,249393,1463640,74538,9597,731149,0
435,2,711862,248395,1322472,73861,8427,660951,0
435,2,714776,250009,1536654,74753,10121,767742,0
436,2,716418,250604,1433818,74885,8822,716505,0
436,2,713643,249205,1493964,74491,9630,746485,0
437,2,712644,249137,1487720,74133,9165,743361,0
437,2,713158,249535,1466226,74563,9566,732495,0
438,2,710599,249314,1311664,74238,8079,654932,0
438,2,712318,249487,1408574,74600,9884,703421,0
439,2,715715,249544,1412906,74432,9280,705905,0
439,2,714696,250432,1399917,75080,9881,699349,0
440,2,714766,250071,1418504,74384,9175,708834,0
440,2,716270,251105,1391720,75373,9212,694945,0
441,2,715161,250761,1409869,74930,8748,704327,0
441,2,711532,248938,1393978,74411,9711,696197,0
442,2,709690,248363,1470289,73842,8877,734734,0
442,2,711275,249594,1502932,74620,9785,750788,0
443,2,710156,249227,1304814,74169,8203,652160,0
443,2,733275,253797,1494358,77742,10667,746660,0
444,2,716512,250982,1333895,75014,10104,666177,0
444,2,711682,249186,1386769,74445,9086,692790,0
445,2,733050,253336,1293783,77290,9261,646417,0
445,2,711004,249459,1355942,74598,9072,677434,0
446,2,712147,249381,1314751,74220,9118,656844,0
446,2,717566,250937,1413879,75267,8585,706257,0
447,2,710873,248650,1374000,73931,8929,686057,0
447,2,709725,249021,1458689,74385,9146,728932,0
448,2,714405,250214,1471229,74685,9083,734887,0
448,2,713953,251117,1308819,75455,8642,653540,0
449,2,709290,248879,1405448,74039,9068,702261,0
449,2,715357,250545,1318625,74947,8258,658869,0
450,2,710330,248918,1444256,74031,8891,721671,0
450,2,710902,249010,1371998,74411,7955,685573,0
451,2,713022,250353,1418934,74670,9466,708823,0
451,2,713508,250476,1305159,75093,8327,651830,0
452,2,708867,249408,1377489,74187,8194,688387,0
452,2,709870,249110,1395192,74439,9196,697118,0
453,2,709015,248808,1662067,74006,8813,830564,0
453,2,728041,252561,1455487,77341,9657,727271,0
454,2,707473,248597,1423860,73905,8617,711064,0
454,2,709509,249663,1335928,74633,8724,667430,0
455,2,711814,250206,1438500,74744,9164,718311,0
455,2,716863,249573,1424310,74639,8962,711585,0
456,2,708419,249406,1492055,74185,9334,745508,0
456,2,719573,250335,1319317,75066,9159,658887,0
457,2,711173,248970,1409085,74021,9149,704507,0
457,2,714945,248831,1367241,74283,9401,683117,0
458,2,711567,248923,1470018,73998,9740,734448,0
458,2,717474,250204,1290867,74817,9034,644920,0
459,2,709622,248617,1568208,73919,9575,783770,0
459,2,714373,249234,1396957,74516,8854,697989,0
460,2,731756,253433,1435870,77317,10329,717198,0
460,2,712890,248725,1383110,74298,8741,690978,0
461,2,709710,249359,1490888,74427,9209,744761,0
461,2,712846,249515,1381355,74621,9501,690164,0
462,2,711445,249086,1357151,74129,9305,677675,0
462,2,715647,249396,1375158,74569,9141,687075,0
463,2,712679,250347,1367460,74835,8990,683183,0
463,2,735294,253956,1518622,77877,11009,758854,0
464,2,729923,253396,1446883,77315,9473,722476,0
464,2,714549,249696,1389197,74665,8780,694127,0
465,2,708128,248621,1401474,73987,9025,699693,0
465,2,713529,249411,1389435,74562,9169,694210,0
466,2,711587,250122,1505854,74626,9887,752340,0
466,2,712073,249180,1370918,74497,9337,684955,0
467,2,711365,249848,1400720,74363,9177,700143,0
467,2,714431,249334,1312759,74595,8749,655761,0
468,2,733170,258206,1436107,76833,9293,717526,0
468,2,714706,249496,1485593,74626,9596,742306,0
469,2,712937,248965,1414694,74022,9947,706724,0
469,2,716296,250445,1367175,75101,9419,682844,0
470,2,730317,253227,1331895,77258,9395,665550,0
470,2,714724,249444,1334702,74523,8848,666867,0
471,2,709501,248839,1463441,73973,8538,731285,0
471,2,714481,249598,1390317,74640,9150,694638,0
472,2,712772,250125,1428180,74650,9514,713662,0
472,2,718823,251830,1333805,75629,8826,666045,0
473,2,706729,248025,1434502,73669,8943,716790,0
473,2,713936,249710,1354092,74674,9409,676321,0
474,2,727223,252991,1364799,77209,9562,681931,0
474,2,715192,249369,1409884,74496,9364,704430,0
475,2,707659,248845,1424045,74054,8784,711323,0
475,2,714224,249459,1474327,74580,9138,736659,0
476,2,706024,248097,1359474,73764,8726,679330,0
476,2,717676,251245,1324396,75431,9421,661323,0
477,2,705386,248572,1366620,73919,8974,682897,0
477,2,732871,253938,1480398,77821,10770,739687,0
478,2,707557,248628,1338628,73972,8213,668814,0
478,2,712617,249488,1373460,74604,9244,686213,0
479,2,715136,249742,1398525,74541,9366,698561,0
479,2,711104,249202,1427175,74395,9757,712978,0
480,2,710087,248274,1402855,73816,9293,701009,0
480,2,714815,248971,1403624,74361,9032,701322,0
481,2,712519,249206,1318772,74152,8509,658940,0
481,2,736271,254433,1384742,78004,10502,691917,0
482,2,710241,248623,1237985,73924,7903,618611,0
482,2,715099,249297,1247845,74571,8972,623244,0
483,2,714532,250898,1370404,74974,9881,684207,0
483,2,716699,250680,1327415,75258,9472,662774,0
484,2,733216,253381,1340757,77296,10159,669900,0
484,2,734452,253863,1398181,77818,10546,698575,0
485,2,710481,248970,1306969,74076,9339,652986,0
485,2,712297,249085,1321356,74430,9876,660158,0
486,2,711408,249110,1465168,74036,9782,731605,0
486,2,717659,250889,1288462,75273,9305,643193,0
487,2,730347,253320,1401145,77265,9646,700158,0
487,2,713545,249654,1322450,74744,9513,660641,0
488,2,709161,249165,1389838,74091,8313,694528,0
488,2,710082,248672,1259564,74360,8900,629216,0
489,2,711694,249402,1331038,74226,8894,665048,0
489,2,709814,248672,1398207,74252,9494,698648,0
490,2,713328,250511,1443377,74760,8915,720972,0
490,2,736278,253565,1621779,77782,10403,810544,0
491,2,706450,248456,1297921,73917,8386,648416,0
491,2,714731,249489,1461487,74642,9004,730233,0
492,2,707705,248341,1362139,73824,8308,680617,0
492,2,716312,250582,1349931,75241,8736,674354,0
493,2,707893,249031,1344313,74100,7988,671669,0
493,2,712652,249437,1400573,74628,9203,699777,0
494,2,711085,249188,1406425,74090,8226,702737,0
494,2,711979,248856,1306357,74441,8877,652651,0
495,2,708324,248524,1286923,73969,7838,643017,0
495,2,711305,248727,1426138,74402,9073,712459,0
496,2,711802,249962,1383299,74588,8254,690938,0
496,2,716774,251253,1333399,75609,8629,665670,0
497,2,706141,248171,1350346,73719,8491,674829,0
497,2,731845,253538,1473873,77819,9091,736447,0
498,2,713832,251030,1373666,75106,8675,685845,0
498,2,710467,249181,1463923,74530,8841,731467,0
499,2,728593,253436,1434578,77309,9595,716783,0
499,2,714990,250138,1330598,75083,8918,664573,0
500,2,708688,249825,1521021,74357,9475,760644,0
500,2,710152,249123,1366907,74499,8864,682981,0
501,2,707499,248524,1324425,73954,7865,661731,0
501,2,733873,254153,1457504,78076,10161,728564,0
502,2,713032,250929,1398586,74985,8752,698563,0
502,2,712777,249950,1330071,74892,9001,664425,0
503,2,728973,253581,1375824,77381,9650,687531,0
503,2,711067,249195,1390115,74607,9370,694582,0
504,2,708492,249604,1404086,74236,8161,701616,0
504,2,708895,248933,1410798,74728,9023,704448,0
505,2,707788,249619,1359535,74491,8565,679113,0
505,2,713031,249521,1533525,74744,9470,766145,0
506,2,711592,248837,1290837,74037,8536,644963,0
506,2,718341,249704,1334812,74744,8697,666926,0
507,2,711870,249213,1386083,74120,8633,692615,0
507,2,715606,249243,1419714,74610,9319,709428,0
508,2,707882,248374,1354051,73900,8186,676578,0
508,2,713757,249469,1319569,74681,8868,659225,0
509,2,709933,248565,1316392,73909,8110,657805,0
509,2,717187,249445,1454352,74682,9444,726749,0
510,2,711870,249716,1416022,74337,8670,707549,0
510,2,715419,249383,1384736,74691,9515,691792,0
511,2,707137,248410,1295491,73903,8085,647323,0
511,2,713224,248913,1342872,74553,9410,670875,0
512,2,712194,250265,1414904,74646,8186,706843,0
512,2,715457,249846,1301823,74865,8580,650058,0
513,2,708482,248942,1398761,74115,8745,698874,0
513,2,713271,249380,1388212,74686,9732,693389,0
514,2,709736,249351,1382084,74203,8882,690582,0
514,2,713692,248881,1309942,74494,9381,654446,0
515,2,706163,248313,1357675,73825,8034,678468,0
515,2,718254,250712,1276214,75352,8678,637235,0
516,2,708218,249142,1295503,74139,8101,647325,0
516,2,713261,249111,1325627,74450,8727,662365,0
517,2,706846,248978,1381144,74029,8455,690204,0
517,2,714102,250182,1245341,74997,8810,621715,0
518,2,709594,250560,1456007,74851,8960,727255,0
518,2,714382,249359,1311871,74611,9395,655371,0
519,2,727442,252947,1355151,77178,9286,677047,0
519,2,713670,249558,1281445,74579,8566,640164,0
520,2,710983,249842,1324847,74351,8462,661947,0
520,2,710814,249113,1458921,74477,8697,728903,0
521,2,709908,249707,1411141,74446,8089,704984,0
521,2,730728,253450,1458165,77650,10956,728566,0
522,2,706416,248604,1319713,73976,7603,659361,0
522,2,713776,248843,1424733,74345,9244,711845,0
523,2,705672,248255,1419013,73812,8277,709127,0
523,2,715275,249717,1399390,74666,9352,699137,0
524,2,711335,251071,1469493,75111,8285,733924,0
524,2,711381,248738,1402652,74390,9011,700804,0
525,2,706726,249137,1481391,74141,8745,740213,0
525,2,713773,249272,1454247,74477,9743,726664,0
526,2,706170,248573,1246729,73989,8329,622907,0
526,2,717134,251164,1393703,75440,9035,695842,0
527,2,706202,248548,1298440,73899,8311,648806,0
527,2,733996,254231,1526338,77894,10756,762578,0
528,2,706795,249099,1260246,74072,8857,629711,0
528,2,713653,249742,1450620,74645,9409,724627,0
529,2,711238,251098,1427440,75037,8587,713014,0
529,2,709761,249290,1401372,74467,9587,700127,0
530,2,726397,253021,1380547,77191,8898,689782,0
530,2,713087,249572,1374697,74556,9131,686905,0
531,2,704867,248573,1389068,73965,8363,694131,0
531,2,711972,249241,1413177,74546,9355,706061,0
532,2,707092,249568,1411376,74232,8480,705255,0
532,2,731571,253654,1481472,77713,10153,740172,0
533,2,703755,248316,1362951,73823,8101,680984,0
533,2,709890,248944,1307315,74490,8425,653021,0
534,2,706524,249775,1429170,74561,8281,713936,0
534,2,711755,249888,1501275,74803,9065,750112,0
535,2,714166,248305,1399163,73808,8694,699158,0
535,2,712925,250400,1323270,75181,9169,660983,0
536,2,715757,249531,1390619,74249,8790,694816,0
536,2,709152,249143,1400913,74574,9697,700047,0
537,2,713893,249216,1386749,74117,9085,693007,0
537,2,709397,248886,1335606,74450,9005,667271,0
538,2,711438,248757,1356968,74041,8705,677974,0
538,2,717439,251094,1349156,75504,8788,673790,0
539,2,711214,248805,1396675,73947,8504,697965,0
539,2,713553,249850,1381432,74711,8750,690264,0
540,2,711660,249191,1362073,74184,8872,680554,0
540,2,711800,248775,1403156,74318,8788,701017,0
541,2,709980,248413,1328450,73897,8762,663830,0
541,2,711807,249353,1324399,74541,8872,661680,0
542,2,733552,253445,1346187,77336,9639,672580,0
542,2,711618,249021,1257545,74524,8893,628201,0
543,2,709129,248201,1445485,73783,8041,722359,0
543,2,709001,248500,1311195,74257,9595,655073,0
544,2,709508,248606,1315396,73921,7963,657258,0
544,2,731519,252922,1347300,77483,10067,673130,0
545,2,728561,252893,1338011,77163,9115,668558,0
545,2,710973,248992,1308172,74337,9335,653616,0
546,2,713504,249252,1316379,74176,8742,657787,0
546,2,710597,248825,1331151,74338,9946,665043,0
547,2,707954,247800,1499269,73621,8961,749218,0
547,2,709166,247987,1497770,74103,9800,748449,0
548,2,711620,248505,1280324,73888,8743,639727,0
548,2,712139,250149,1382239,75186,9738,690423,0
549,2,716319,251026,1350974,75083,9020,674467,0
549,2,727054,252740,1552308,77530,10587,775216,0
550,2,730115,253168,1310648,77253,9381,654747,0
550,2,708922,248406,1474542,74184,9955,736975,0
551,2,710961,249271,1354351,74190,8696,676727,0
551,2,707785,247591,1437265,73901,9733,718112,0
552,2,708997,248547,1361915,73898,8059,680558,0
552,2,712837,249544,1409922,74758,9784,704074,0
553,2,711608,250102,1468481,74694,8670,733478,0
553,2,707807,248053,1464559,74081,10306,731276,0
554,2,712782,249772,1496703,74357,8740,747927,0
554,2,709230,249015,1502130,74317,9812,750538,0
555,2,711939,249972,1441955,74588,8949,720240,0
555,2,713560,250262,1618511,74974,10303,807772,0
556,2,709158,249686,1388859,74225,8537,693957,0
556,2,708144,248979,1485905,74266,10035,742469,0
557,2,715307,250302,1450833,74781,8599,724560,0
557,2,706034,248365,1351932,74146,8564,675428,0
558,2,714632,250246,1437811,74490,9062,718459,0
558,2,707732,248667,1393759,74127,8605,696371,0
559,2,714659,250132,1396817,74656,8288,697723,0
559,2,705636,248345,1376277,74129,9131,687664,0
560,2,711654,249255,1298337,74199,8395,648671,0
560,2,704009,248134,1306664,73987,8366,652782,0
561,2,709620,248820,1405713,73994,8159,702451,0
561,2,720792,250254,1325816,74940,9016,662030,0
562,2,710202,248788,1375278,74045,8565,687177,0
562,2,736501,253112,1433031,77454,9747,715869,0
563,2,712681,250785,1391069,74974,8910,694831,0
563,2,717211,249210,1348550,74350,8922,673684,0
564,2,707486,247871,1399317,73733,8262,699264,0
564,2,713404,247964,1306654,73910,9480,652694,0
565,2,710881,249104,1431972,74134,8396,715436,0
565,2,716879,250149,1257460,74934,8884,627707,0
566,2,709074,248727,1375429,73960,8206,687251,0
566,2,732918,252735,1357089,77334,10326,678091,0
567,2,707622,248303,1318581,73831,8173,658859,0
567,2,717273,249498,1310972,74636,9565,654724,0
568,2,712882,250709,1434937,74935,8917,716740,0
568,2,714239,248773,1382684,74255,9889,690804,0
569,2,729051,253414,1363916,77307,8754,681439,0
569,2,714108,248465,1290420,74179,9611,644671,0
570,2,709653,249250,1299284,74158,8350,649229,0
570,2,712287,248038,1301331,73924,9531,650206,0
571,2,711338,250387,1304964,74725,8671,651829,0
571,2,715790,249856,1327339,74887,9120,662742,0
572,2,708222,248849,1390461,73996,7976,694783,0
572,2,712216,248327,1386100,74103,9601,692491,0
573,2,729685,253969,1345279,77494,9497,672205,0
573,2,719350,250023,1331475,74840,8547,665030,0
574,2,708934,249332,1314117,74237,8185,656595,0
574,2,714282,248490,1488832,74122,9359,743883,0
575,2,710732,250496,1522712,74749,9618,760629,0
575,2,713057,248504,1322350,74062,8181,660599,0
576,2,707317,248914,1390456,74049,9659,694343,0
576,2,713594,248910,1422193,74277,9153,710484,0
577,2,707681,249209,1563667,74092,9918,781430,0
577,2,710098,248174,1391670,74030,9115,695278,0
578,2,707282,249553,1451615,74273,9403,725016,0
578,2,711138,247836,1424920,73807,9069,712001,0
579,2,716471,250459,1609691,74840,10199,804890,0
579,2,735321,253894,1462696,77638,9712,730836,0
580,2,712573,249237,1507882,74116,9308,753678,0
580,2,713873,249538,1299195,74689,8308,648816,0
581,2,709708,248580,1379166,73953,8673,689119,0
581,2,709184,248340,1394706,74076,8570,696822,0
582,2,709758,248446,1550370,73846,9715,774299,0
582,2,710208,248543,1349772,74205,8948,674371,0
583,2,711380,249604,1421488,74303,9112,710166,0
583,2,709592,248712,1446465,74170,9604,722794,0
584,2,710361,248563,1424878,73954,8683,711797,0
584,2,717019,249970,1339281,74799,8925,668660,0
585,2,729562,253597,1499111,77360,9753,748491,0
585,2,714761,248628,1298004,74163,8754,648532,0
586,2,710582,248639,1624864,73935,9764,811384,0
586,2,712485,248350,1349781,74086,9483,674402,0
587,2,711829,249081,1560350,74063,9222,778946,0
587,2,712062,248417,1306226,73997,9679,652595,0
588,2,710443,249017,1635319,74095,8900,817244,0
588,2,711710,249001,1244629,74367,9286,621689,0
589,2,713299,250140,1502822,74639,9544,749771,0
589,2,714147,248191,1373580,73986,9166,686304,0
590,2,709036,248846,1388193,74043,8941,693359,0
590,2,711947,248265,1404247,74060,9424,701608,0
591,2,708845,248922,1437622,74011,8870,718314,0
591,2,710156,247875,1316021,73882,8517,657574,0
592,2,709923,248866,1394487,74026,9243,696619,0
592,2,712618,248697,1396880,74163,9422,697951,0
593,2,710519,249480,1464091,74226,9415,731116,0
593,2,716561,250434,1331184,75047,9199,664683,0
594,2,707603,248883,1378723,74001,9093,688843,0
594,2,708169,247656,1300178,73832,8664,649568,0
595,2,710814,248862,1324854,74077,8677,661951,0
595,2,711302,248721,1385811,74194,9084,692435,0
596,2,708733,248526,1314603,73851,8587,656880,0
596,2,709554,248404,1385702,74140,9301,692294,0
597,2,728496,252792,1296111,77048,9401,647554,0
597,2,712300,248801,1375039,74217,8479,686963,0
598,2,708823,248770,1312451,74022,8613,655770,0
598,2,716281,250450,1325487,75106,8985,661689,0
599,2,708018,248814,1240894,74021,8467,619958,0
599,2,730942,252839,1431131,77329,9965,715275,0
600,2,707658,249032,1430511,74044,8869,714810,0
600,2,713116,249011,1359858,74258,8519,679461,0
601,2,711300,249309,1474805,74123,9053,736946,0
601,2,710652,248433,1387216,74101,8870,693150,0
602,2,708733,248669,1327329,73944,8306,663211,0
602,2,710294,248603,1461143,74154,8962,729942,0
603,2,712125,250698,1428204,74956,8932,713376,0
603,2,709226,248213,1378045,73987,8736,688563,0
604,2,729431,253272,1353779,77283,8924,676388,0
604,2,713436,249583,1460877,74480,9319,729886,0
605,2,707853,248972,1391604,74083,8413,695559,0
605,2,711331,248194,1391630,73975,8182,695285,0
606,2,706568,248281,1298435,73808,7995,648696,0
606,2,731083,252994,1430141,77340,9639,714576,0
607,2,707808,249216,1301834,74150,8208,650497,0
607,2,709065,248742,1381375,74242,8782,690143,0
608,2,707027,249303,1393982,74182,8235,696489,0
608,2,708127,248196,1293247,73975,8684,646076,0
609,2,704842,248504,1383072,73881,8469,691143,0
609,2,713468,250660,1294626,75097,9561,646423,0
610,2,711438,250422,1507727,74831,9091,752969,0
610,2,732765,252772,1326844,77316,9745,662893,0
611,2,731128,252985,1392150,77115,9951,695584,0
611,2,714925,248502,1241082,74130,8820,620030,0
612,2,710325,248764,1392116,74019,9034,695543,0
612,2,712562,248089,1282439,73948,8824,640702,0
613,2,710361,249126,1418348,74080,8878,708784,0
613,2,716586,249665,1274227,74687,9206,636281,0
614,2,711718,249407,1343105,74241,8505,671056,0
614,2,714760,249157,1316322,74329,8964,657531,0
615,2,710603,249350,1390894,74214,8824,695039,0
615,2,710765,247860,1240094,73898,8361,619636,0
616,2,713046,250746,1501846,74922,9112,750230,0
616,2,715217,249918,1397909,74959,9142,698054,0
617,2,727942,253265,1475492,77294,9481,737320,0
617,2,712473,248765,1383988,74333,8349,691436,0
618,2,712168,250102,1413116,74633,8949,705875,0
618,2,712464,248447,1386354,74246,8260,692636,0
619,2,707571,248605,1312623,73969,8533,655869,0
619,2,714879,249900,1341757,74994,9481,670001,0
620,2,708982,249104,1419381,74088,8611,709166,0
620,2,710813,248235,1314123,74201,9041,656514,0
621,2,705459,248327,1340304,73827,8584,669705,0
621,2,711624,248830,1442684,74326,9294,720887,0
622,2,729218,253753,1366032,77417,8985,682587,0
622,2,711419,248672,1519529,74239,9094,759316,0
623,2,706631,249245,1412575,74192,8173,705831,0
623,2,713992,250026,1308850,74936,9076,653644,0
624,2,710012,250804,1315038,74859,9331,656742,0
624,2,709030,248635,1389886,74309,9921,694378,0
625,2,710711,249313,1359221,74103,8597,679163,0
625,2,713235,247949,1325974,74008,8309,662563,0
626,2,708302,248736,1461743,74003,9002,730361,0
626,2,713473,248602,1392907,74274,8799,695767,0
627,2,740299,260479,1482469,77876,9420,740081,0
627,2,712196,249018,1301047,74453,8559,650040,0
628,2,728338,253464,1325383,77328,9131,662277,0
628,2,711153,248148,1380671,74068,9128,689843,0
629,2,707144,248529,1470450,73880,9035,734751,0
629,2,710686,248502,1529198,74281,9298,763971,0
630,2,709235,249942,1484165,74573,9360,741213,0
630,2,709863,248256,1310486,74072,8798,654782,0
631,2,707307,249026,1376272,74085,8704,687640,0
631,2,708818,248175,1376707,74178,8840,687816,0
632,2,704931,248593,1387316,73912,8159,693299,0
632,2,713872,249984,1329656,74645,8706,664289,0
633,2,707710,250089,1399637,74443,8857,699376,0
633,2,710447,248121,1363833,73961,7985,681452,0
634,2,709285,248947,1338650,74031,8355,668968,0
634,2,710793,248749,1315288,74213,8069,657102,0
635,2,726873,253255,1358856,77252,8942,678956,0
635,2,728745,252812,1349169,77362,10824,674217,0
636,2,705647,248661,1400586,73909,8936,699889,0
636,2,713549,249132,1326524,74554,9564,662469,0
637,2,705856,249170,1311911,74153,8240,655517,0
637,2,714105,248960,1431507,74295,10163,715275,0
638,2,704086,248183,1442076,73727,9167,720647,0
638,2,709389,247700,1301815,73809,9119,650437,0
639,2,704963,248744,1460940,74032,9078,730063,0
639,2,712313,248211,1486616,74004,9522,742925,0
640,2,707388,249743,1391355,74263,9047,695331,0
640,2,716667,250507,1434541,75159,9216,716459,0
641,2,725322,253048,1416224,77195,9286,707612,0
641,2,730449,252635,1469374,77414,10510,734228,0
642,2,712653,248599,1493004,73966,9701,745894,0
642,2,708305,247784,1353008,73947,8833,676055,0
643,2,715284,250028,1501173,74592,10289,749910,0
643,2,709920,248757,1420903,74372,9053,709870,0
644,2,709834,248852,1514685,73993,9445,756952,0
644,2,712260,248659,1417338,74346,9312,708127,0
645,2,713423,249566,1497462,74234,8955,748224,0
645,2,710738,248494,1319159,74233,8821,659110,0
646,2,736669,254797,1428353,78245,10542,713762,0
646,2,729007,252535,1574487,77390,10620,786820,0
647,2,707786,248396,1396900,73838,8983,698054,0
647,2,709533,248249,1337897,74159,8931,668373,0
648,2,713212,249632,1433798,74492,10305,716180,0
648,2,710543,249314,1419101,74572,9602,709045,0
649,2,709709,248607,1342090,73925,9257,670459,0
649,2,712999,249713,1342427,74862,8825,670521,0
650,2,707646,248282,1297157,73791,9655,648079,0
650,2,706608,247864,1402042,74024,9340,700386,0
651,2,713188,251022,1341000,75024,9757,669697,0
651,2,706634,248079,1333467,74076,9676,666275,0
652,2,709607,248944,1552050,74070,9230,775599,0
652,2,712120,248657,1354550,74292,8899,676634,0
653,2,708359,248692,1375487,73959,8448,687203,0
653,2,713398,249049,1506786,74336,9192,752926,0
654,2,707632,249082,1330506,74123,8971,664764,0
654,2,708775,248123,1385265,74113,8710,691754,0
655,2,712669,249537,1456640,74256,9188,727781,0
655,2,706356,247271,1515931,73749,8801,757239,0
656,2,710396,248677,1415053,73873,9032,707031,0
656,2,711084,249097,1651160,74438,9619,825062,0
657,2,708062,248530,1532114,73936,9434,765509,0
657,2,705823,247666,1317778,73852,9137,658429,0
658,2,709995,248807,1427088,74023,8468,712899,0
658,2,710623,248655,1297274,74292,9624,647801,0
659,2,706405,248495,1331148,73886,8862,665148,0
659,2,711861,250148,1444111,75038,10503,720800,0
660,2,708855,249426,1422345,74240,8734,710598,0
660,2,727471,252627,1513318,77414,10924,755791,0
661,2,705214,248370,1335165,73839,8957,667092,0
661,2,709249,249019,1422879,74414,9438,710713,0
662,2,710709,249363,1452918,74469,10396,725525,0
662,2,714480,247983,1427127,74097,9383,713179,0
663,2,731151,253552,1395763,77343,10298,697202,0
663,2,717980,249730,1415135,74860,9948,706830,0
664,2,711770,250474,1554284,74755,10378,776304,0
664,2,712280,248154,1394466,74159,9350,696330,0
665,2,707011,248787,1485124,74035,9942,741776,0
665,2,710283,247737,1444175,73966,9307,721604,0
666,2,706333,248267,1373981,73806,8205,686594,0
666,2,733648,252706,1443424,77455,10317,721100,0
667,2,704671,248234,1327365,73744,8996,663103,0
667,2,712993,248588,1384811,74246,8899,691824,0
668,2,710544,250213,1409372,74819,9916,703816,0
668,2,713103,248906,1439984,74375,9561,719877,0
669,2,726012,252959,1426330,77233,10553,712763,0
669,2,714566,249810,1393069,74812,9052,695567,0
670,2,713516,249247,1432405,74166,9412,715596,0
670,2,712317,247926,1404971,74016,9542,701919,0
671,2,710303,248562,1335025,74002,8902,667025,0
671,2,713724,248809,1453018,74386,9766,725749,0
672,2,709059,248452,1283879,74003,9270,641495,0
672,2,712006,248297,1443222,74143,9753,721102,0
673,2,713265,250434,1339542,74892,9445,668851,0
673,2,717125,250283,1404504,75131,8906,701432,0
674,2,706703,248182,1332083,73846,9113,665527,0
674,2,712929,248388,1362338,74217,8859,680746,0
675,2,710005,249842,1323310,74612,9906,660886,0
675,2,713108,248964,1397227,74417,8884,698080,0
676,2,709990,248641,1286913,74063,9496,642870,0
676,2,712466,249280,1328870,74729,8908,663654,0
677,2,708581,248464,1360021,73941,9800,679589,0
677,2,708684,247978,1327704,74061,8074,663311,0
678,2,708767,249231,1365184,74198,9518,682134,0
678,2,708824,248316,1341912,74182,8790,670443,0
679,2,709303,248805,1470265,74041,8755,734583,0
679,2,711062,248045,1298995,74142,8618,648948,0
680,2,726504,252753,1382047,77146,10287,690497,0
680,2,712637,248604,1264215,74292,8208,631587,0
681,2,707781,248594,1406197,74046,9107,702510,0
681,2,711057,248413,1298015,74245,9039,648433,0
682,2,704900,247991,1345747,73877,8748,672210,0
682,2,711044,248836,1262078,74436,9215,630487,0
683,2,709307,249709,1442879,74533,9466,720650,0
683,2,714996,250003,1324498,74961,8945,661549,0
684,2,704427,248237,1343307,73951,8947,671125,0
684,2,709614,248413,1392387,74257,8729,695699,0
685,2,704012,247976,1471594,73803,10055,735342,0
685,2,709404,248429,1349121,74212,8969,674092,0
686,2,708751,249343,1411168,74293,9846,704769,0
686,2,709669,248113,1389413,74116,8931,694199,0
687,2,707979,248006,1414938,73822,8879,706875,0
687,2,713507,250134,1315368,75067,8278,656891,0
688,2,714478,250968,1464884,75163,9505,731432,0
688,2,729585,253050,1444513,77557,9823,721716,0
689,2,727763,252819,1529747,77162,9788,764415,0
689,2,707415,248043,1314752,74097,8857,656940,0
690,2,707558,248751,1419025,74046,9054,709147,0
690,2,708429,248970,1464168,74444,9533,731514,0
691,2,738318,259013,1532423,77342,10786,765311,0
691,2,712846,248286,1490200,74197,9720,744630,0
692,2,708262,248950,1414342,74141,9771,706661,0
692,2,710861,247930,1370826,74060,8978,685094,0
693,2,705421,248226,1514426,73862,9998,756696,0
693,2,712428,248254,1303341,74253,9344,651159,0
694,2,706421,248339,1470104,73914,9236,734711,0
694,2,712463,248655,1406632,74267,9653,702847,0
695,2,708317,249401,1469513,74306,9229,734424,0
695,2,712920,249317,1332842,74788,8979,665577,0
696,2,706678,248623,1406106,74057,9462,702571,0
696,2,711562,248838,1416459,74365,9756,707619,0
697,2,705105,248459,1307751,73965,8656,653430,0
697,2,708389,247940,1437465,74034,9459,718281,0
698,2,708542,250398,1452353,74919,9521,725380,0
698,2,732757,253186,1462969,77554,9544,730946,0
699,2,701360,247932,1328086,73796,9717,663567,0
699,2,707291,247742,1356419,73952,9353,677814,0
700,2,709298,248361,1289018,74001,8983,644017,0
700,2,706551,247885,1258209,74087,8650,628578,0
701,2,707684,247788,1325661,73759,8917,662460,0
701,2,714797,250659,1316906,75298,9263,657503,0
702,2,709733,248800,1243638,74113,8079,621350,0
702,2,712928,249673,1249177,74859,8608,623740,0
703,2,712941,250347,1333603,74892,9268,665730,0
703,2,709081,248760,1305163,74407,9129,651898,0
704,2,729088,252661,1273852,77158,9532,636425,0
704,2,709658,248420,1308088,74236,9058,653600,0
705,2,707593,248222,1332889,73934,8747,665963,0
705,2,711537,249083,1415582,74409,9052,707225,0
706,2,708434,248760,1325665,74042,8462,662403,0
706,2,709447,248674,1388810,74333,8838,693797,0
707,2,706571,248796,1312669,74092,8555,655915,0
707,2,707201,248393,1409365,74193,9177,704154,0
708,2,709587,248870,1430547,74135,8626,714762,0
708,2,715170,250720,1337796,75215,9534,667979,0
709,2,712013,250171,1424278,74830,8883,711202,0
709,2,708076,248219,1404537,74147,9542,701814,0
710,2,726251,252403,1387170,77027,8763,693115,0
710,2,711120,247929,1397970,74096,8468,698418,0
711,2,707205,248857,1400313,74152,8288,699695,0
711,2,707971,247160,1355873,73894,8646,677384,0
712,2,707039,248400,1374403,73893,8820,686754,0
712,2,712405,249275,1365130,74684,9074,681865,0
713,2,710083,249645,1298526,74403,8384,648822,0
713,2,709720,247991,1520687,74091,9203,759676,0
714,2,711698,250336,1418877,74792,8940,708651,0
714,2,709194,248810,1314208,74360,8683,656441,0
715,2,705418,248587,1391491,74067,8537,695394,0
715,2,714944,249894,1325945,74946,8440,662101,0
716,2,706902,249121,1386676,74185,8692,692926,0
716,2,731176,252896,1452789,77509,10196,725890,0
717,2,729937,253214,1420366,77337,9179,709717,0
717,2,711028,249263,1310321,74531,9343,654577,0
718,2,707162,248581,1411162,74070,8430,705106,0
718,2,728233,252715,1375312,77427,10972,687077,0
719,2,708305,248439,1386269,73951,8456,692722,0
719,2,715498,250094,1292284,74952,9039,645297,0
720,2,707105,248645,1306748,74010,8043,652883,0
720,2,710732,248647,1428921,74283,9543,713781,0
721,2,726215,253065,1485329,77319,9383,742308,0
721,2,712102,249700,1427023,74900,9509,713035,0
722,2,708451,248812,1373475,74094,8507,686417,0
722,2,730551,253044,1489844,77487,10879,744393,0
723,2,704400,247634,1285926,73774,7625,642345,0
723,2,707061,247975,1293139,74068,9164,646118,0
724,2,705364,248201,1317851,73916,8357,658460,0
724,2,706701,247553,1382903,73905,9003,690991,0
725,2,708851,249940,1582716,74796,10118,790407,0
725,2,707127,247834,1395678,74008,8980,697408,0
726,2,724841,252893,1519529,77258,9276,759381,0
726,2,708811,249523,1303031,74914,8746,650620,0
727,2,702553,248355,1298340,73970,8890,648712,0
727,2,731211,253224,1567592,77592,10187,783237,0
728,2,709330,248607,1264988,74068,9434,631993,0
728,2,706200,248118,1315497,74100,8529,657294,0
729,2,707154,248113,1249258,73890,8526,624269,0
729,2,707862,248477,1416948,74277,9862,707963,0
730,2,727385,253123,1290979,77321,9863,645033,0
730,2,716198,250658,1340503,75264,8805,669320,0
731,2,707449,248279,1324374,73951,8615,661594,0
731,2,732034,253240,1442844,77587,10287,720884,0
732,2,705675,248555,1420325,74027,8359,709687,0
732,2,710774,248923,1427025,74389,9145,712943,0
733,2,702502,247723,1407525,73740,9103,703354,0
733,2,709704,248646,1394106,74284,8327,696548,0
734,2,711977,250693,1442491,74984,9229,720215,0
734,2,711622,248815,1479472,74363,8934,739174,0
735,2,704712,248339,1406865,73850,8597,703284,0
735,2,711933,249359,1306043,74765,8779,652198,0
736,2,704669,248353,1302314,73965,8814,650575,0
736,2,706966,247978,1399719,74076,9101,699269,0
737,2,704909,248451,1287453,74019,8777,643185,0
737,2,708549,247963,1367536,74052,9250,683321,0
738,2,704486,248472,1437667,73960,9209,718360,0
738,2,707386,248165,1288648,74171,8694,643846,0
739,2,708057,249689,1447247,74406,10129,723124,0
739,2,707251,248545,1407705,74238,9253,703388,0
740,2,708193,250934,1423411,75147,9635,710846,0
740,2,731282,253070,1465063,77521,9915,731973,0
741,2,704654,248090,1406036,73841,8663,702570,0
741,2,709756,249184,1302238,74660,8888,650282,0
742,2,708593,249621,1398473,74371,8766,698763,0
742,2,704904,248368,1363814,74220,9119,681426,0
743,2,727781,256270,1469595,76235,8527,734349,0
743,2,711029,248897,1439819,74386,9916,719343,0
744,2,708772,250250,1454904,74852,9278,726654,0
744,2,709033,248309,1438289,74179,9758,718562,0
745,2,725258,253027,1329128,77273,9181,664158,0
745,2,707244,247869,1481326,73983,9485,740192,0
746,2,701464,247714,1366981,73668,8850,683030,0
746,2,709506,248680,1405686,74288,9693,702276,0
747,2,704717,248855,1317624,74138,8655,658243,0
747,2,706087,248046,1370229,74068,9449,684572,0
748,2,703586,248642,1338111,74065,8255,668630,0
748,2,706272,248641,1312306,74523,9066,655371,0
749,2,703688,249133,1250327,74199,8134,624744,0
749,2,706182,247560,1431885,73924,10022,715504,0
750,2,706782,248182,1221202,73910,7567,610073,0
750,2,705042,247727,1401954,74022,9848,700379,0
751,2,714770,248076,1294645,73839,8440,646857,0
751,2,724678,252296,1427006,77321,10439,712952,0
752,2,716163,248994,1263481,74157,8587,631273,0
752,2,706076,248004,1307565,74077,9408,653249,0
753,2,734323,252992,1274993,77246,9538,637114,0
753,2,715048,248295,1420230,74138,9022,709789,0
754,2,710546,247931,1341962,73805,8451,670567,0
754,2,713494,248147,1464911,74206,9654,731803,0
755,2,717282,249934,1361908,74453,8822,680411,0
755,2,711668,247888,1323210,74051,9108,661070,0
756,2,712550,248299,1306552,73968,9048,652617,0
756,2,713346,249121,1416268,74482,9669,707597,0
757,2,712068,248313,1404288,73914,8819,701695,0
757,2,717003,249380,1357457,74753,9795,677979,0
758,2,713947,248754,1343319,74006,8777,671183,0
758,2,711827,247840,1386211,74102,9613,692584,0
759,2,711491,248184,1377467,73932,8856,688308,0
759,2,711458,248169,1364447,74106,9271,681804,0
760,2,712399,248872,1353752,74134,8771,676451,0
760,2,712740,248817,1346570,74342,9613,672820,0
761,2,714167,249704,1457175,74534,9371,728007,0
761,2,713893,249750,1236904,74968,9000,617491,0
762,2,712487,248545,1380747,74021,9155,689912,0
762,2,733083,252685,1367661,77430,10605,683144,0
763,2,716066,250715,1438335,75069,9456,718366,0
763,2,713884,248670,1338530,74333,9627,668669,0
764,2,731122,253322,1362043,77362,9772,680631,0
764,2,711627,247919,1321994,74053,8829,660771,0
765,2,712878,248266,1394464,73899,8983,696790,0
765,2,713142,248687,1309383,74343,8309,654163,0
766,2,716179,249788,1395827,74629,9205,697286,0
766,2,715199,250556,1328026,75293,9151,663140,0
767,2,712627,248594,1325896,74014,9038,662532,0
767,2,731299,252675,1460490,77368,9863,729746,0
768,2,716293,250379,1397986,74896,9492,698245,0
768,2,709108,248192,1397206,74183,8748,697989,0
769,2,707938,247662,1389213,73721,8883,694158,0
769,2,710472,247952,1439679,74047,9889,719407,0
770,2,714120,249146,1291749,74240,9092,645464,0
770,2,715224,250056,1336542,75058,9415,667409,0
771,2,708401,247234,1410426,73677,9232,704758,0
771,2,710065,248287,1325835,74180,9032,662451,0
772,2,711223,248685,1392735,74032,9013,695910,0
772,2,714464,250113,1362674,74977,9074,680463,0
773,2,730812,252751,1289817,77124,9876,644455,0
773,2,712909,248896,1393293,74415,8977,696072,0
774,2,710882,248583,1297737,74053,9643,648360,0
774,2,710831,248460,1459566,74209,9659,729358,0
775,2,711069,249135,1298645,74191,9786,648529,0
775,2,713770,249662,1308273,74854,8748,653235,0
776,2,709328,248644,1283524,74069,9816,641270,0
776,2,708893,248051,1397354,74170,9421,698166,0
777,2,708452,248323,1358754,73898,10006,679146,0
777,2,707382,247855,1343213,73947,8264,671214,0
778,2,713778,248483,1368163,73984,8587,683282,0
778,2,706735,247731,1522937,73942,9706,760945,0
779,2,735274,253470,1726934,77406,10231,862501,0
779,2,734228,252967,1510362,77429,10884,754216,0
780,2,712412,248675,1496232,74104,9124,746929,0
780,2,712340,248104,1393231,74034,10015,696203,0
781,2,711107,248562,1376731,73978,8559,687930,0
781,2,714004,249899,1371220,74865,9563,684323,0
782,2,713507,248811,1344594,74011,8567,671843,0
782,2,712617,248633,1399858,74271,9928,699613,0
783,2,711741,248650,1330219,74066,8688,664615,0
783,2,714504,250363,1338393,75081,9175,668511,0
784,2,709794,247971,1378446,73810,8647,688828,0
784,2,710485,248316,1424499,74205,9553,711653,0
785,2,711758,249136,1372788,74218,8161,685959,0
785,2,708253,247886,1378857,73954,8891,688911,0
786,2,710168,248474,1322426,73980,8017,660757,0
786,2,731802,253767,1484039,77758,10248,741522,0
787,2,715925,250609,1404142,74972,8859,701344,0
787,2,709863,248691,1454852,74340,9232,726989,0
788,2,711454,248515,1457008,74024,9151,728018,0
788,2,707777,248673,1479217,74312,9792,738778,0
789,2,712328,249049,1461531,74144,8642,730349,0
789,2,711599,248378,1449450,74225,10193,723988,0
790,2,716112,251097,1434496,75204,8644,716475,0
790,2,711182,248165,1403332,74108,10004,701257,0
791,2,708474,248642,1388428,74078,8005,693654,0
791,2,712281,249668,1322262,74850,9340,660217,0
792,2,711265,248245,1387725,73870,8345,693310,0
792,2,709341,247924,1423699,74083,9202,711201,0
793,2,716993,250430,1490960,74815,9315,744694,0
793,2,710607,249319,1406435,74547,9676,702736,0
794,2,710744,248302,1374104,73966,8705,686600,0
794,2,711842,249215,1445321,74677,9850,721943,0
795,2,711264,248991,1406835,74181,8739,702919,0
795,2,707250,248152,1962402,74077,12690,980448,0
796,2,714963,249964,1407661,74696,8904,703051,0
796,2,704936,247534,1462292,73887,9536,730664,0
797,2,737031,257661,1434373,76691,9138,716819,0
797,2,710442,248567,1364491,74252,9767,681680,0
798,2,712128,250218,1436596,74777,8791,717700,0
798,2,711084,248769,1429616,74262,9790,714293,0
799,2,709487,248056,1317395,73784,8753,658232,0
799,2,706832,248117,1405613,74142,8823,702251,0
800,2,708530,248664,1252098,74032,8574,625557,0
800,2,708632,248668,1494398,74401,11460,746787,0
801,2,713089,250532,1369419,74862,9262,684080,0
801,2,710657,250489,1295297,75220,9667,646880,0
802,2,709995,249082,1334412,74217,8930,666718,0
802,2,711806,247961,1282749,74103,9271,640839,0
803,2,707759,248649,1376054,74017,9137,687632,0
803,2,710782,247922,1246801,74033,9096,622841,0
804,2,713179,248648,1348475,74023,8461,673724,0
804,2,715057,249712,1269354,74869,9013,634107,0
805,2,714480,249490,1401247,74483,8642,700055,0
805,2,712118,248548,1306777,74288,9467,652916,0
806,2,711180,248315,1323227,73917,7981,661155,0
806,2,731051,252807,1385388,77462,10554,692168,0
807,2,709959,247752,1333525,73585,8217,666355,0
807,2,707680,247741,1291914,73978,9239,645467,0
808,2,710868,248750,1304444,73969,8672,651774,0
808,2,707853,247885,1266926,74024,8767,632957,0
809,2,709595,248574,1338095,73864,8425,668619,0
809,2,713446,248801,1342711,74377,9496,670894,0
810,2,711593,248877,1429349,73949,8476,714189,0
810,2,711152,248879,1290897,74421,9179,644804,0
811,2,711346,249454,1403236,74208,8149,701134,0
811,2,708124,248242,1417822,74073,10355,708414,0
812,2,708623,248494,1490637,73833,8706,744873,0
812,2,714203,249922,1279760,75075,8966,638979,0
813,2,717676,250471,1427926,74713,9485,713300,0
813,2,730286,252721,1483949,77452,10526,741591,0
814,2,711405,248668,1400912,73902,8686,700024,0
814,2,708293,248102,1505945,74148,9726,752425,0
815,2,710793,248399,1406163,73868,8874,702634,0
815,2,707017,247630,1320296,73966,9280,659688,0
816,2,713853,250575,1396978,74858,8971,697839,0
816,2,714794,250038,1382426,75007,9241,690344,0
817,2,732862,253121,1344032,77140,9918,671584,0
817,2,730303,252862,1470161,77415,10574,734554,0
818,2,711325,248950,1377015,73997,9149,687967,0
818,2,711119,248978,1742381,74407,10629,870713,0
819,2,708701,248317,1433194,73706,8447,716132,0
819,2,712244,249863,1306482,74894,8687,652491,0
820,2,712368,249859,1340490,74469,9324,669597,0
820,2,710117,248907,1326932,74297,8777,662870,0
821,2,710454,249319,1272016,74137,8866,635491,0
821,2,708847,248824,1401853,74354,9196,700440,0
822,2,710164,248547,1289589,73831,8897,644327,0
822,2,709317,248388,1798208,74196,12067,898322,0
823,2,710407,248608,1286559,73883,8579,642814,0
823,2,708416,248325,1428610,74148,9494,713633,0
824,2,709757,248443,1265424,73715,8201,632319,0
824,2,706296,247830,1422361,73987,9192,710799,0
825,2,706285,247748,1277749,73611,8221,638313,0
825,2,710132,249977,1339695,75011,9137,668808,0
826,2,711162,249131,1325146,74048,8369,662123,0
826,2,725316,252527,1473148,77318,10681,736123,0
827,2,708311,248938,1370709,73969,8243,684838,0
827,2,710523,248332,1396955,74216,9105,698066,0
828,2,707480,248822,1305905,73967,8471,652551,0
828,2,736633,257219,1411024,76849,9055,705017,0
829,2,717111,250590,1412841,74815,9595,705552,0
829,2,710454,248583,1525929,74310,9814,762537,0
830,2,712454,248832,1384420,73910,8791,691747,0
830,2,708919,248049,1447764,74063,9516,723482,0
831,2,711746,249095,1342512,74049,8411,670764,0
831,2,710027,248271,1325739,74149,8897,662364,0
832,2,712880,249301,1324541,74092,8500,661822,0
832,2,713883,250272,1261161,75114,8682,629516,0
833,2,710831,248917,1386038,73797,8765,692627,0
833,2,707515,248226,1279273,74159,9396,638791,0
834,2,716582,250814,1501200,74795,9004,749640,0
834,2,706432,248408,1324908,74246,9309,662005,0
835,2,710350,249281,1363482,74046,8652,681206,0
835,2,714846,249842,1268875,74825,9371,633719,0
836,2,714389,249150,1403563,73949,8682,701307,0
836,2,709716,248643,1370774,74297,9550,685002,0
837,2,715645,250211,1339606,74319,8269,669254,0
837,2,707839,248184,1670378,74121,10929,835094,0
838,2,712974,249421,1299685,74066,8958,649338,0
838,2,728639,252778,1460919,77383,10076,730006,0
839,2,711130,248925,1358078,73853,8483,678652,0
839,2,707029,248054,1298911,74067,8316,648976,0
840,2,711443,249513,1411878,74095,8487,705584,0
840,2,711028,249961,1321453,74919,9747,659880,0
841,2,716377,251146,1429939,74946,9140,714227,0
841,2,706467,248529,1404671,74261,9211,701906,0
842,2,732304,253727,1469746,77264,9648,734363,0
842,2,705233,247784,1410021,74020,9810,704594,0
843,2,710865,249363,1382601,74003,8738,690847,0
843,2,708384,247536,1291439,73894,9734,645236,0
844,2,711997,248791,1397840,73805,8691,698493,0
844,2,708022,248244,1519346,74207,10500,759344,0
845,2,712365,248976,1314206,73879,8570,656693,0
845,2,705616,247798,1320671,73999,9192,659754,0
846,2,712541,249377,1359051,74066,8520,679025,0
846,2,707305,248307,1396942,74135,9458,698143,0
847,2,711245,249679,1299403,74363,8627,649012,0
847,2,704792,247775,1313675,74036,9278,656344,0
848,2,709981,248583,1316481,73804,8546,657876,0
848,2,711949,250487,1316748,75173,9121,657434,0
849,2,715549,251139,1390984,74919,8779,694607,0
849,2,707192,248235,1441800,74170,8924,720311,0
850,2,729177,253077,1406672,77075,9408,702896,0
850,2,705212,247774,1397056,73952,8863,698040,0
851,2,707860,248954,1331367,73924,8810,665223,0
851,2,707908,249127,1309955,74679,8750,654237,0
852,2,706185,248288,1403241,73709,8880,701152,0
852,2,705595,248455,1379598,74178,9249,689295,0
853,2,731942,253255,1462437,77227,9942,730830,0
853,2,724646,252409,1487477,77334,10945,743171,0
854,2,711578,247886,1411033,73712,9395,704595,0
854,2,703398,248096,1402345,74139,9581,700682,0
855,2,711156,248007,1413711,73746,9359,706993,0
855,2,711902,247955,1426592,74034,10203,712788,0
856,2,714183,249471,1480448,74339,9974,738971,0
856,2,716110,249556,1328528,74816,10213,663355,0
857,2,717938,251380,1446696,75004,9151,722570,0
857,2,710551,247729,1307708,73977,10081,653373,0
858,2,709294,248422,1413363,73762,8889,706240,0
858,2,709997,248149,1309310,74098,10017,654185,0
859,2,712991,249198,1341915,74021,8295,670490,0
859,2,731518,252537,1341279,77369,10533,670215,0
860,2,711628,248554,1467639,73792,9466,733456,0
860,2,712100,248360,1346139,74225,10266,672611,0
861,2,709692,248374,1346630,73832,9053,672828,0
861,2,711572,248583,1839241,74312,12692,919155,0
862,2,712299,249380,1245561,74145,8748,622215,0
862,2,712748,249063,1600654,74415,10869,799911,0
863,2,713147,249935,1313856,74626,9258,656198,0
863,2,708583,247663,1339505,73879,9553,669215,0
864,2,709723,249034,1277834,74136,8936,638429,0
864,2,713425,249743,1422618,74655,9881,710706,0
865,2,717285,250581,1329057,74899,8484,663909,0
865,2,706887,247881,1388778,74016,9547,694010,0
866,2,731483,252821,1375507,77126,8935,687259,0
866,2,705987,248163,1360369,74177,9193,679766,0
867,2,711178,248723,1443093,74073,8216,721055,0
867,2,713184,248510,1679141,74176,11363,839132,0
868,2,710045,249019,1389197,74097,8396,694121,0
868,2,709349,248216,1418500,74113,9484,708838,0
869,2,707093,248028,1483711,73853,8983,741324,0
869,2,706847,248096,1413353,74115,10043,706107,0
870,2,708931,248557,1492752,74002,8679,745996,0
870,2,709891,248630,1353720,74344,9817,676340,0
871,2,708739,248408,1428690,73930,9271,713917,0
871,2,710889,249753,1315064,74872,10118,656694,0
872,2,711986,249170,1577329,74337,10311,787936,0
872,2,703352,247929,1412929,73170,9451,705860,0
873,2,709249,247867,1541630,73732,9693,769149,0
873,2,707412,248866,1569846,73538,10677,784129,0
874,2,707890,248207,1480562,73844,10286,739734,0
874,2,707479,247881,1317779,73147,9535,658431,0
875,2,712219,248785,1393320,73958,8826,696340,0
875,2,711715,250609,1300392,74356,9756,649251,0
876,2,706901,247750,1585383,73595,9617,792203,0
876,2,729809,252852,1400257,76603,10361,699599,0
877,2,709486,248243,1367750,73851,10050,683425,0
877,2,707033,248163,1367899,73283,9203,683362,0
878,2,708718,248177,1300573,73795,9652,649738,0
878,2,708062,248759,1404074,73457,9453,701486,0
879,2,710340,249338,1374239,74345,10085,686253,0
879,2,707448,249063,1795197,73589,11522,897111,0
880,2,707241,247472,1454071,73589,9018,726536,0
880,2,706293,247975,1402968,73197,9601,701034,0
881,2,710080,248445,1364599,73816,8318,681864,0
881,2,707691,248367,1337547,73413,9533,668303,0
882,2,712836,249838,1757575,74595,10688,878072,0
882,2,704811,247414,1591819,72987,10798,795775,0
883,2,727924,252242,1418831,76906,9958,708650,0
883,2,727933,253089,1450259,76688,10302,724643,0
884,2,706094,247601,1417858,73508,9557,708482,0
884,2,706789,248753,1421507,73465,9667,710266,0
885,2,709811,248863,1437401,74191,9308,718026,0
885,2,704195,247847,1348567,73143,9401,673928,0
886,2,707136,248123,1347254,73818,9324,673022,0
886,2,706867,248354,1441043,73343,9648,719931,0
887,2,706413,247993,1409528,73771,9580,704285,0
887,2,709832,249997,1338289,74080,9265,668271,0
888,2,704556,247733,1318393,73586,8693,658635,0
888,2,703401,248019,1430137,73193,9989,714493,0
889,2,709338,250140,1455890,74769,9705,727199,0
889,2,704082,247681,1539266,73087,9407,769144,0
890,2,757569,262249,1545309,79910,10602,772208,0
890,2,713572,250750,1341165,74394,9361,669853,0
891,2,708094,248372,1538488,73922,10383,768293,0
891,2,727825,252535,1455076,76491,9972,727013,0
892,2,706302,247931,1299977,73764,8573,649520,0
892,2,705630,247959,1411091,73158,9494,705105,0
893,2,710500,249886,1477765,74551,9248,738058,0
893,2,726337,253417,1552864,76646,11099,775952,0
894,2,703877,247693,1400198,73613,9071,699420,0
894,2,704579,248990,1418346,73444,9501,708618,0
895,2,704784,247694,1385265,73628,8745,692163,0
895,2,707909,248474,1336943,73228,9579,668084,0
896,2,712111,250818,1451465,74944,9346,724939,0
896,2,705955,248352,1441347,73244,10177,720258,0
897,2,705072,248494,1381732,73885,8712,690407,0
897,2,708456,249841,1336416,73834,9550,667449,0
898,2,710556,248528,1366158,73907,9470,682589,0
898,2,704384,248241,1439628,73122,10085,719397,0
899,2,710555,248701,1428014,73938,8869,713484,0
899,2,703459,248187,1331711,73177,8798,665348,0
900,2,707550,247862,1299226,73574,8631,649079,0
900,2,703235,247823,1405796,72998,10147,702448,0
901,2,735635,254053,1411571,78003,9357,705224,0
901,2,701087,247614,1381185,72951,9651,689619,0
902,2,707743,247965,1337087,73741,9112,668044,0
902,2,703091,248237,1428491,73190,9596,714131,0
903,2,707178,247675,1380670,73600,9756,689932,0
903,2,701769,248123,1463802,73170,10097,731186,0
904,2,710396,248311,1417452,73802,9127,708277,0
904,2,710401,248482,1527830,73285,9783,763865,0
905,2,709026,248258,1416424,73877,9029,707673,0
905,2,708571,248134,1402363,73098,9491,700672,0
906,2,708246,248098,1385173,73747,8361,692082,0
906,2,706721,248096,1400557,73121,9442,699526,0
907,2,703269,247244,1281842,73496,8514,640316,0
907,2,706975,247644,1505604,72957,9375,752344,0
908,2,707115,248102,1360741,73824,8244,679770,0
908,2,712633,250441,1425610,74222,8846,712021,0
909,2,711138,250026,1404749,74641,8708,701598,0
909,2,727032,252790,1578665,76497,10363,789221,0
910,2,705304,248139,1488280,73842,8859,743766,0
910,2,708401,248431,1457166,73313,9528,728061,0
911,2,713305,249892,1471501,74641,9619,734738,0
911,2,733747,254616,1615319,77499,10994,807191,0
912,2,729266,252435,1401945,77014,9699,700611,0
912,2,708793,249035,1450039,73455,9378,724350,0
913,2,709279,248518,1308963,73962,8785,653946,0
913,2,707237,249496,1473850,73654,9583,736125,0
914,2,708514,248590,1330556,73953,7915,664678,0
914,2,711604,249970,1520649,73945,9410,759160,0
915,2,708738,249090,1430242,74246,8864,714217,0
915,2,704038,248016,1448578,73083,9418,723457,0
916,2,709098,248345,1350623,73857,8929,674778,0
916,2,704133,247976,1386616,73070,9196,692743,0
917,2,708426,248538,1362081,73892,8498,680562,0
917,2,706444,249076,1479696,73404,10031,738991,0
918,2,713056,250971,1429142,74986,8664,713629,0
918,2,709319,250581,1417691,74229,9667,707547,0
919,2,724994,252444,1396994,77045,9162,697947,0
919,2,706394,247996,1382783,73068,8786,690542,0
920,2,707458,248451,1347259,73926,8926,673129,0
920,2,707277,248677,1502707,73287,9327,750869,0
921,2,711280,249809,1407639,74547,9350,703024,0
921,2,709369,249491,1458597,73810,9083,728391,0
922,2,706688,248439,1341842,73937,8439,670378,0
922,2,708774,249483,1617898,73588,10052,808081,0
923,2,703558,247443,1296773,73548,7659,647966,0
923,2,703957,247881,1431079,73047,9712,714841,0
924,2,709340,249059,1312166,74130,8183,655578,0
924,2,726270,252810,1654364,76383,10846,826703,0
925,2,710032,249916,1406717,74664,9505,702496,0
925,2,704916,248550,1490966,73282,9911,744937,0
926,2,723602,251910,1371508,76882,9585,685284,0
926,2,705844,248560,1556693,73302,9682,777125,0
927,2,706284,247470,1261000,73560,8321,629929,0
927,2,704864,248084,1458837,73056,9461,728733,0
928,2,708158,248070,1316881,73799,8889,657771,0
928,2,705235,248854,1459912,73410,10098,729347,0
929,2,707388,248097,1252997,73769,8447,626003,0
929,2,701443,247668,1423014,72968,9512,710657,0
930,2,705644,248228,1374457,73844,8205,686798,0
930,2,705291,248954,1481744,73375,10106,740129,0
931,2,705727,248300,1301971,73831,8552,650552,0
931,2,706532,249885,1424235,73925,10047,710933,0
932,2,712757,250862,1411678,75060,8938,704850,0
932,2,706644,248421,1539697,73222,9231,769400,0
933,2,704612,247822,1318554,73710,8055,658655,0
933,2,727949,253243,1654040,76608,10220,826071,0
934,2,703849,247769,1383437,73666,8382,691285,0
934,2,732271,257440,1420145,75846,9162,709981,0
935,2,706096,248181,1279827,73810,7890,639442,0
935,2,706529,248945,1451356,73475,9438,725063,0
936,2,705077,248159,1466197,73828,8546,732429,0
936,2,705355,248921,1375100,73411,9350,687024,0
937,2,703424,247514,1292761,73600,8096,645736,0
937,2,713345,251032,1516776,74427,9283,756608,0
938,2,704915,248454,1353242,73873,8785,676153,0
938,2,728459,253545,1606044,76690,10365,802594,0
939,2,727534,252219,1430319,76909,9378,714345,0
939,2,705475,248796,1474873,73394,9379,736802,0
940,2,708773,249303,1408603,74375,9134,703696,0
940,2,704920,248625,1463046,73282,9727,730453,0
941,2,704806,248425,1377459,73912,8410,688154,0
941,2,724262,253221,1392625,76605,9920,695853,0
942,2,704754,247258,1351751,73394,8177,675361,0
942,2,705687,248065,1287606,73104,7823,643272,0
943,2,707215,248735,1513876,73976,9276,756347,0
943,2,706644,248743,1389648,73366,8358,694334,0
944,2,711100,250558,1409531,74826,8621,704003,0
944,2,708955,250051,1421186,73995,8366,709650,0
945,2,703537,248240,1301754,73806,8176,650472,0
945,2,706043,248694,1502861,73363,8524,750909,0
946,2,708037,248889,1330480,73959,8740,664685,0
946,2,704085,248331,1409437,73154,8252,704099,0
947,2,735650,258584,1454738,77107,9941,726591,0
947,2,709239,250335,1316541,74115,8296,657379,0
948,2,705800,248502,1376575,73882,8999,687746,0
948,2,702307,248451,1394098,73306,9314,696552,0
949,2,703736,248072,1342397,73820,9118,670675,0
949,2,707935,250008,1287707,73964,8350,643133,0
950,2,703094,247723,1484146,73477,9088,741575,0
950,2,702287,248048,1385116,73087,8621,692129,0
951,2,703666,248516,1299848,73775,8390,649309,0
951,2,706752,250208,1297351,74066,8052,647798,0
952,2,711485,248316,1389602,73724,8810,694214,0
952,2,703478,248404,1394385,73257,8092,696671,0
953,2,710755,247512,1317439,73352,8715,658103,0
953,2,702727,248957,1417167,73454,8660,708052,0
954,2,716111,250369,1527921,74666,10046,762685,0
954,2,705971,249869,1302853,73909,8020,650760,0
955,2,711240,248358,1400145,73748,9010,699570,0
955,2,721359,250687,1406028,74685,7931,702225,0
956,2,710912,247968,1441681,73601,10450,720425,0
956,2,737523,253307,1475177,77056,9186,737081,0
957,2,712691,248291,1395037,73697,8576,697004,0
957,2,714546,248356,1402014,73658,8201,700495,0
958,2,717279,250755,1437496,74823,9831,717873,0
958,2,714653,248380,1302570,73561,7514,650738,0
959,2,708176,247711,1422920,73548,8681,711031,0
959,2,721400,250783,1330875,74625,8431,664700,0
960,2,709518,248548,1345421,73844,8102,672148,0
960,2,714151,248233,1400193,73642,8422,699519,0
961,2,708898,248044,1415244,73671,9004,707114,0
961,2,712632,247981,1411514,73491,8065,705171,0
962,2,707311,247878,1401598,73633,8655,700235,0
962,2,710702,247603,1335968,73338,8328,667439,0
963,2,707091,247769,1340287,73544,8380,669710,0
963,2,712513,247482,1386772,73444,9099,692766,0
964,2,713284,250590,1422480,74769,8812,710416,0
964,2,713684,248197,1444312,73623,9007,721521,0
965,2,712134,248300,1325910,73772,9113,662493,0
965,2,720556,251174,1320624,74731,8270,659591,0
966,2,717169,250755,1537183,74726,10578,767855,0
966,2,711890,248224,1398862,73564,7972,698911,0
967,2,714388,250578,1338393,74725,9319,668278,0
967,2,712680,248088,1397577,73520,8895,698340,0
968,2,729700,252844,1347746,77011,9850,673250,0
968,2,713430,248527,1297352,73729,8075,648208,0
969,2,706386,247740,1320006,73544,8871,659446,0
969,2,713122,248470,1418861,73683,8372,708947,0
970,2,715029,250191,1325231,74579,9230,661736,0
970,2,717086,250500,1288680,74696,8197,643528,0
971,2,708147,247865,1339448,73557,9168,669112,0
971,2,732551,252881,1443814,76983,8944,721453,0
972,2,708407,248142,1436266,73683,9707,717518,0
972,2,710019,248053,1429428,73587,8236,714080,0
973,2,707854,248017,1393972,73697,9289,696444,0
973,2,714534,248934,1460155,73951,9546,729377,0
974,2,708576,248483,1309353,73824,8667,654134,0
974,2,715475,248751,1459722,73785,9451,729413,0
975,2,705534,247752,1449024,73463,9652,723986,0
975,2,711790,248412,1465983,73629,8731,732510,0
976,2,708400,248956,1488666,74192,9654,743098,0
976,2,718214,250181,1378625,74579,9278,688619,0
977,2,708121,247739,1439361,73496,9710,719235,0
977,2,713050,248685,1512265,73815,9278,755568,0
978,2,708670,247462,1403163,73357,9675,700860,0
978,2,711799,248175,1385349,73639,8621,692049,0
979,2,716734,250882,1509354,74772,10344,752283,0
979,2,711539,248269,1666118,73697,9095,832455,0
980,2,708084,247825,1293478,73544,9387,646169,0
980,2,716409,250051,1504052,74569,9031,751029,0
981,2,708436,248136,1428627,73571,9946,713798,0
981,2,708888,248175,1458247,73626,8669,728552,0
982,2,707746,247651,1339426,73480,9069,669279,0
982,2,708656,247919,1521900,73541,9160,760354,0
983,2,707839,248210,1424501,73711,9485,711666,0
983,2,715869,249364,1374010,73980,9366,686556,0
984,2,709095,249093,1361524,73909,8717,680432,0
984,2,718677,249996,1351448,74543,9722,674819,0
985,2,709883,248694,1397425,73811,9040,698219,0
985,2,713908,248414,1384315,73759,10408,691575,0
986,2,710728,249559,1422213,74327,9277,710217,0
986,2,715326,249352,1333473,74034,9486,666268,0
987,2,707719,248342,1413041,73741,8906,705944,0
987,2,713956,249094,1324501,74112,9042,661631,0
988,2,708383,248838,1331146,73812,8163,665060,0
988,2,713515,248233,1415506,73694,8954,707230,0
989,2,712404,250270,1388284,74641,8955,693346,0
989,2,740299,257789,1532169,76481,9759,765612,0
990,2,704439,248164,1301310,73752,8411,650080,0
990,2,711120,248404,1408431,73761,8531,703644,0
991,2,709437,249102,1401880,74096,8614,700240,0
991,2,717416,250788,1417568,74826,8413,707758,0
992,2,742021,260187,1360896,76794,8748,679951,0
992,2,713022,248300,1355953,73659,8752,677588,0
993,2,762063,266694,1386927,78694,8486,693063,0
993,2,711358,248114,1389572,73660,8870,694181,0
994,2,756703,265212,1369654,78288,8862,684325,0
994,2,713996,249207,1331187,74204,8860,664911,0
995,2,760551,266531,1528941,78737,9368,763851,0
995,2,711262,248289,1425579,73659,9187,712335,0
996,2,761803,267505,1363519,79085,8018,681160,0
996,2,710045,248003,1314425,73592,8443,656564,0
997,2,758906,266285,1478070,78629,8765,738423,0
997,2,707121,247522,1319125,73413,8062,659083,0
998,2,759945,266511,1437076,78676,8807,718078,0
998,2,707788,248265,1388108,73712,8831,693534,0
999,2,758053,266260,1333855,78649,8151,666465,0
999,2,714228,248903,1379082,73914,9180,688986,0
1000,2,763273,268221,1538621,79416,9681,768531,0
1000,2,711008,248018,1420563,73565,9049,709851,0
1001,2,760498,267459,1473438,79019,9262,736215,0
1001,2,711221,247974,1284806,73626,8560,641807,0
1002,2,769183,268297,1463787,79601,10062,730935,0
1002,2,712026,248446,1400918,73714,8521,700021,0
1003,2,762560,265937,1414974,78534,9163,706831,0
1003,2,716665,250686,1330391,74714,8490,664272,0
1004,2,769552,268275,1482726,79482,10207,740626,0
1004,2,709516,248053,1499829,73654,8904,749385,0
1005,2,764826,267060,1460465,78909,9764,729704,0
1005,2,715423,250456,1329969,74600,8449,664186,0
1006,2,762061,266262,1415983,78614,9979,707441,0
1006,2,711160,249038,1375441,73963,8214,687218,0
1007,2,770084,270098,1501627,80247,10026,749820,0
1007,2,707793,247670,1403948,73485,8623,701526,0
1008,2,786551,271931,1531457,82292,11223,765231,0
1008,2,711944,248179,1393258,73683,8666,696116,0
1009,2,763254,266431,1475712,78656,9855,737412,0
1009,2,711129,248320,1419378,73692,8810,709214,0
1010,2,767726,268774,1512706,79586,9397,755703,0
1010,2,707583,248017,1359341,73572,8409,679132,0
1011,2,760305,266205,1452161,78636,9234,725536,0
1011,2,709924,248738,1343989,73895,8386,671335,0
1012,2,762642,266938,1422694,78810,8432,710874,0
1012,2,709596,248830,1234576,73888,8837,616599,0
1013,2,766674,269243,1506472,79897,9366,752402,0
1013,2,707132,247965,1340963,73562,9463,670023,0
1014,2,782793,271223,1591554,82010,10184,795282,0
1014,2,718585,251591,1265169,75042,8528,631791,0
1015,2,759886,266613,1475034,78788,8559,736974,0
1015,2,714116,248329,1327757,73737,9479,663308,0
1016,2,762069,266332,1424709,78624,9373,711910,0
1016,2,713368,248207,1328876,73661,9265,664175,0
1017,2,761453,266546,1448842,78714,9153,723918,0
1017,2,714515,248611,1404174,73813,9526,701618,0
1018,2,759504,265816,1338869,78471,8692,668987,0
1018,2,718003,250342,1351618,74563,9363,675130,0
1019,2,769299,269642,1504962,80021,9489,751655,0
1019,2,712369,248633,1458123,73853,9633,728543,0
1020,2,783430,271207,1529543,82068,9746,764196,0
1020,2,713407,247972,1500689,73524,9116,749745,0
1021,2,759898,266362,1526174,78639,8640,762594,0
1021,2,710987,248019,1468321,73585,9395,733725,0
1022,2,760510,266497,1433382,78671,8242,716190,0
1022,2,719535,251157,1339672,74983,9554,668952,0
1023,2,762968,267947,1508373,79406,9130,753322,0
1023,2,712998,248411,1385227,73780,8767,691942,0
