0,1,761425,266115,1449696,78480,10108,724109,0
0,1,765395,268596,1514459,79614,8896,756591,1
0,1,713315,249133,1379014,74132,9547,688761,0
0,1,705229,247072,1253379,73429,8483,626279,0
0,1,709740,248213,1409475,73577,10601,704132,0
0,1,714224,249749,1307682,74608,8813,653175,0
0,1,707536,248183,1360694,73803,8653,679765,0
0,1,706181,247724,1262978,73621,8061,631063,0
0,1,710875,248818,1460310,74003,9418,729752,0
0,1,707812,248803,1267129,73954,8195,633159,0
0,1,706102,247659,1419015,73382,8201,709113,0
0,1,736006,253982,1361984,77490,9756,680561,0
0,1,708070,248582,1475242,73778,9341,737262,0
0,1,706025,248007,1371269,73561,9057,685319,0
0,1,710150,248491,1527268,73654,10792,763126,0
0,1,709324,247805,1456454,73481,9281,727872,0
0,1,712376,246876,1377471,73138,8587,688078,0
0,1,715299,250161,1392069,74473,8570,695245,0
0,1,705119,247792,1588050,72967,9082,793483,0
0,1,704259,246877,1350796,73627,8437,675034,0
0,1,707860,247684,1393682,73951,9441,696389,0
0,1,710017,247789,1388929,74027,9110,693824,0
0,1,709084,247375,1260213,73833,9017,629552,0
0,1,733402,251909,1333161,77017,10062,666116,0
0,1,712252,248451,1440959,74279,9534,719771,0
0,1,712686,249751,1353280,74657,9623,675868,0
0,1,711434,247955,1500276,73908,9048,749778,0
0,1,711339,248388,1504725,74078,9249,751946,0
0,1,712661,248711,1381548,74304,9766,689954,0
0,1,714187,247912,1436488,74156,9665,717976,0
0,1,705163,247231,1258106,73939,8946,628591,0
1,1,761743,266376,1337078,78667,8420,668016,1
1,1,706047,247244,1261149,73347,8624,630193,0
1,1,705471,247005,1406101,73347,9039,702484,0
1,1,728613,252553,1534465,76805,11496,766518,0
1,1,730277,251744,1338308,76775,9217,668796,0
1,1,708654,249037,1406969,74311,9090,702682,0
1,1,707373,247925,1373302,73597,8289,686346,0
1,1,709853,249022,1329960,74205,9757,664190,0
1,1,704575,247924,1244935,73643,8088,621969,0
1,1,707787,248643,1239760,73752,7687,619317,0
1,1,712995,248575,1293645,73897,8757,646460,0
1,1,714500,250473,1413346,74646,9342,705988,0
1,1,707920,248177,1449704,73764,8382,724449,0
1,1,710210,247860,1481517,73489,11093,740333,0
1,1,707169,247352,1465654,73322,8866,732361,0
1,1,712558,247453,1449366,73368,9897,724582,0
1,1,710010,247759,1409689,73505,8589,704452,0
1,1,702025,247006,1352104,72688,8890,675654,0
1,1,706156,247850,1446336,73986,9348,722680,0
1,1,708302,247988,1402938,74062,9309,700776,0
1,1,709949,247803,1370090,73991,9670,684530,0
1,1,714036,249624,1307837,74851,8743,652817,0
1,1,710257,247558,1292369,73744,8647,645572,0
1,1,709120,247839,1654177,74049,9852,825672,0
1,1,709483,248736,1368109,74230,9272,683712,0
1,1,733738,252889,1665581,77356,9704,832141,0
1,1,737959,254170,1512900,77795,9866,755984,0
1,1,711782,248519,1454236,74006,9051,726702,0
1,1,709140,246987,1396529,73803,9715,697912,0
1,1,705519,247142,1318070,73836,8921,658643,0
2,1,705743,247329,1373952,73441,8519,686653,1
2,1,711768,249457,1318628,74266,9017,658456,0
2,1,706917,246844,1259645,73330,8576,629284,0
2,1,709581,248613,1537520,73695,10761,768073,0
2,1,710445,248078,1287343,73826,9002,643305,0
2,1,708867,247789,1405890,73689,8200,702586,0
2,1,706743,247994,1385094,73727,8305,692153,0
2,1,705836,247948,1280659,73659,9289,640000,0
2,1,713548,249748,1335651,74510,9698,666849,0
2,1,708872,249466,1307545,74158,8878,653146,0
2,1,711254,248383,1358963,73780,8984,679099,0
2,1,730857,253630,1350192,77278,9278,674627,0
2,1,713599,248518,1325450,73831,9363,662254,0
2,1,714067,249960,1555949,74360,11030,776435,0
2,1,713234,250020,1415641,74453,9305,707221,0
2,1,711500,247589,1372489,73387,9542,685895,0
2,1,709655,247913,1606965,73520,9900,803141,0
2,1,704700,248218,1472149,73083,9526,735817,0
2,1,706949,246783,1291125,73615,9737,645169,0
2,1,706608,247490,1656288,73850,9985,827845,0
2,1,707288,247263,1270770,73779,8654,634987,0
2,1,730368,252274,1418927,77242,9751,708982,0
2,1,709720,247840,1315964,73912,9295,657618,0
2,1,712573,248335,1447236,74233,9649,723250,0
2,1,711634,249245,1456596,74469,9778,727865,0
2,1,715269,249837,1371241,74753,8423,684961,0
2,1,713395,248943,1423029,74264,9053,711120,0
2,1,708793,247432,1391178,73688,8702,695392,0
2,1,710486,247867,1314930,74086,8884,657155,0
2,1,703768,246712,1332960,73731,8054,666061,0
3,1,705740,247281,1231618,73370,8279,615245,0
3,1,707197,247691,1395814,73606,8904,697388,1
3,1,708678,247908,1403224,73696,9152,701142,0
3,1,714858,250359,1548119,74473,10642,773046,0
3,1,708936,247304,1307484,73481,8592,653488,0
3,1,704264,247615,1375452,73700,7926,687348,0
3,1,707111,248530,1411229,73888,9202,704594,0
3,1,710854,247981,1272145,73676,9324,635582,0
3,1,731070,252929,1478225,77093,9647,738715,0
3,1,707675,248333,1238951,73686,8677,618981,0
3,1,710222,248550,1431752,73796,9276,715441,0
3,1,709328,248776,1320740,73836,9118,659940,0
3,1,709942,247481,1391335,73437,9083,695346,0
3,1,715312,249207,1436857,74137,9838,717780,0
3,1,707416,248052,1424790,73518,8981,711983,0
3,1,710921,247328,1464773,73285,9899,732022,0
3,1,713740,249640,1309175,74236,8750,653974,0
3,1,706942,249517,1351125,73786,9455,675318,0
3,1,729582,252344,1534039,77282,10371,766699,0
3,1,708254,246978,1304127,73690,9926,651360,0
3,1,712798,249193,1309226,74610,8967,654046,0
3,1,707377,247445,1313833,73850,8125,656402,0
3,1,712162,247955,1316588,73887,8896,657975,0
3,1,714468,250006,1369712,74962,8878,684259,0
3,1,715380,250043,1368271,74900,9084,682918,0
3,1,709827,248315,1421882,74006,9426,710543,0
3,1,717389,250102,1453927,74658,8922,726530,0
3,1,712348,248234,1305212,73992,9265,652278,0
3,1,709791,246550,1343276,73669,9307,671120,0
3,1,703791,246982,1292974,73816,8175,645985,0
4,1,706841,247362,1341293,73322,8428,669923,0
4,1,702526,247928,1281414,73736,8087,640223,1
4,1,713248,249894,1384501,74630,9432,691542,0
4,1,708675,248452,1634598,73692,11350,816295,0
4,1,706564,247178,1240496,73533,8315,619934,0
4,1,705419,247768,1284884,73737,7960,642089,0
4,1,705959,247891,1410125,73621,8616,704663,0
4,1,706656,247227,1412560,73377,8011,705885,0
4,1,707973,247811,1355078,73639,8602,676809,0
4,1,706214,248102,1312395,73557,9023,655729,0
4,1,714509,249252,1385765,74140,8248,692458,0
4,1,707929,248808,1377468,73872,9466,688283,0
4,1,733830,253412,1379005,77263,9932,688977,0
4,1,733280,252916,1497650,77034,10305,748422,0
4,1,704961,247286,1362607,73285,8817,680931,0
4,1,713902,249415,1318048,74177,10092,658525,0
4,1,707944,247648,1410149,73451,8570,704784,0
4,1,725279,252212,1412546,76163,9873,705747,0
4,1,704602,247253,1361604,73791,9208,680437,0
4,1,713038,249315,1305149,74673,9581,651634,0
4,1,707298,247330,1417406,73806,8682,708124,0
4,1,706278,247089,1421400,73555,7890,710247,0
4,1,711164,247545,1394222,73818,8869,696681,0
4,1,713207,248596,1478109,74396,9839,738146,0
4,1,731494,252954,1493769,77390,10079,745606,0
4,1,716207,250130,1377153,74901,9241,688011,0
4,1,715607,249393,1394950,74416,7941,697186,0
4,1,709315,247539,1396974,73664,9631,697928,0
4,1,715982,249330,1396097,74860,9446,697538,0
4,1,704858,247252,1310734,73894,9017,655007,0
5,1,706814,247403,1444951,73367,9115,721921,0
5,1,702617,247400,1333075,73511,8003,666020,1
5,1,726625,251774,1392831,76763,9840,695957,0
5,1,708226,248742,1559168,73723,10964,779097,0
5,1,728773,252475,1347386,77074,9843,673303,0
5,1,708116,248882,1379983,74277,8731,689105,0
5,1,706929,248600,1291455,73854,8778,645374,0
5,1,709651,248681,1399135,73893,8152,699139,0
5,1,707076,247867,1343059,73665,9062,671115,0
5,1,705076,247695,1414020,73446,8539,706597,0
5,1,711815,249286,1401279,74154,8456,700251,0
5,1,710869,248023,1460668,73537,9257,729913,0
5,1,709595,247630,1421263,73598,8642,710170,0
5,1,711372,248736,1528313,73851,9333,763568,0
5,1,707471,248033,1443715,73583,8815,721364,0
5,1,713979,248238,1425578,73622,9258,712060,0
5,1,707898,247541,1428023,73373,9584,713785,0
5,1,703265,247450,1403226,72919,8828,700663,0
5,1,710485,249038,1384309,74547,9435,691663,0
5,1,709611,247811,1356452,74015,8891,677141,0
5,1,706434,246931,1419168,73685,9451,709063,0
5,1,710872,248569,1315428,74318,8524,657135,0
5,1,732573,252695,1442378,77227,9766,720779,0
5,1,712070,248738,1415810,74368,8836,707645,0
5,1,708958,248071,1450142,74030,9080,724709,0
5,1,714569,248605,1502937,74159,9784,750829,0
5,1,713884,249160,1421427,74330,8815,710332,0
5,1,714469,249523,1406926,74558,9688,702656,0
5,1,731530,251728,1423242,77191,10401,711114,0
5,1,702218,246682,1360483,73718,9050,679828,0
6,1,706949,247512,1292292,73426,8836,645934,0
6,1,702094,247899,1235418,73694,7528,617270,1
6,1,706746,247732,1281088,73594,7927,640185,0
6,1,712749,251073,1486695,74769,10140,742698,0
6,1,705862,247555,1423068,73676,9571,711395,0
6,1,704844,247861,1242749,73777,8452,620955,0
6,1,704569,247791,1292332,73640,8570,645295,0
6,1,710580,248769,1332723,73984,8239,665958,0
6,1,706245,247753,1312302,73639,8417,655905,0
6,1,709458,250089,1545729,74499,9409,772011,0
6,1,710526,249236,1283261,74085,8198,641186,0
6,1,713104,249151,1389840,74034,8748,694517,0
6,1,708643,247544,1368430,73475,8314,683620,0
6,1,706824,247351,1340824,73336,8557,669975,0
6,1,704004,247134,1429341,73191,8633,714295,0
6,1,710416,247564,1382723,73414,9957,690990,0
6,1,710027,247755,1358030,73435,9093,678808,0
6,1,706284,247224,1431288,72763,8769,715348,0
6,1,704336,247419,1368551,73851,9002,683893,0
6,1,708000,247108,1428793,73674,9877,713988,0
6,1,711073,249582,1318879,74873,8740,658729,0
6,1,703110,246455,1371199,73484,8750,685203,0
6,1,708386,247175,1300378,73618,8479,649706,0
6,1,711682,248491,1541591,74303,9403,770411,0
6,1,710834,248827,1445729,74256,9967,722442,0
6,1,714855,249218,1364654,74560,9414,681658,0
6,1,715640,250344,1368755,74950,8792,683825,0
6,1,710092,248441,1414784,74074,9450,707082,0
6,1,710292,246647,1244063,73718,9333,621663,0
6,1,702310,247108,1380062,73897,9527,689598,0
7,1,728538,251908,1421965,76686,9839,710675,0
7,1,710491,249601,1394299,74393,8443,696558,0
7,1,709067,249841,1403129,74600,8952,700783,1
7,1,731220,252622,1526173,76820,11066,762157,0
7,1,711180,248335,1436295,73900,9724,717741,0
7,1,703780,247850,1308082,73759,8295,653525,0
7,1,709260,249468,1308146,74367,8699,653273,0
7,1,706287,247438,1261607,73496,8217,630415,0
7,1,709172,248398,1402118,73790,9526,700324,0
7,1,725131,252959,1543690,76965,11355,771340,0
7,1,714160,248848,1341775,74032,9207,670472,0
7,1,716343,250806,1416636,74764,9655,707620,0
7,1,709631,248197,1449317,73799,8829,724247,0
7,1,710303,248417,1480833,73755,9670,739990,0
7,1,713641,250248,1430147,74520,9113,714394,0
7,1,710018,247536,1326033,73339,9608,662804,0
7,1,730669,252282,1445659,76745,9373,722335,0
7,1,710021,249538,1341498,73719,8639,669878,0
7,1,707346,248106,1479803,74054,8598,739544,0
7,1,712183,249263,1360900,74594,10199,679770,0
7,1,727625,252156,1454935,77235,10394,727071,0
7,1,730226,251989,1448330,77161,10500,723568,0
7,1,708084,247604,1350735,73808,8896,674870,0
7,1,730878,253244,1489305,77629,11552,744113,0
7,1,709344,248613,1540499,74194,9428,769893,0
7,1,717138,250284,1349755,74950,9099,674220,0
7,1,734815,254191,1608572,77754,9980,803885,0
7,1,708168,248061,1358962,73857,10058,679051,0
7,1,734002,252780,1335941,77482,10119,667478,0
7,1,710689,247526,1391243,74031,9014,695218,0
8,1,705542,247264,1266284,73369,8160,632706,0
8,1,712838,249428,1385293,74353,8904,692033,0
8,1,706496,248195,1288810,73802,8442,643891,1
8,1,711670,247487,1518481,73370,11073,758728,0
8,1,709585,247756,1441349,73683,9700,720343,0
8,1,706110,247414,1271008,73571,8432,635172,0
8,1,705738,248930,1292127,74033,8078,645474,0
8,1,710178,249078,1531244,74245,8692,765082,0
8,1,727879,252900,1375415,77065,9647,686914,0
8,1,712784,248121,1461553,73549,10221,730541,0
8,1,714981,249326,1294487,74189,8401,646765,0
8,1,734389,254272,1334940,77444,9855,666946,0
8,1,714767,249349,1396651,74315,9855,697684,0
8,1,711088,249114,1464123,74179,9196,731214,0
8,1,704514,247123,1339388,73236,8824,669281,0
8,1,712341,248907,1341253,73954,9908,670035,0
8,1,707191,247404,1442883,73361,8670,721027,0
8,1,726399,252510,1607072,76322,10051,802672,0
8,1,706604,247964,1542662,74018,8728,770836,0
8,1,709114,247759,1545181,73975,9472,771064,0
8,1,709861,247251,1350550,73870,8969,674831,0
8,1,707965,247524,1323621,73911,8825,661413,0
8,1,708566,248137,1387101,73901,9785,693104,0
8,1,715074,248951,1535718,74435,9833,767520,0
8,1,715290,251339,1373649,75403,9696,685798,0
8,1,731624,252628,1490980,77285,9876,744969,0
8,1,713011,248992,1462573,74245,8892,730707,0
8,1,711267,248459,1428374,74060,9977,713795,0
8,1,713210,247602,1304591,74000,9058,651781,0
8,1,729468,251708,1422022,77203,9194,710610,0
9,1,704201,247116,1361590,73234,8800,680362,0
9,1,728830,252084,1412498,76812,9349,705826,0
9,1,705258,247578,1322904,73498,8832,661037,1
9,1,714119,248690,1422827,73821,10623,710666,0
9,1,709500,248165,1463561,73857,9413,731411,0
9,1,705145,247732,1229024,73672,7621,614129,0
9,1,703611,247812,1455893,73566,9145,727609,0
9,1,704833,247350,1427541,73492,9447,713095,0
9,1,709892,248399,1425464,73747,8695,711355,0
9,1,712777,248455,1514032,73698,11209,756169,0
9,1,712888,248583,1412839,73891,8769,705978,0
9,1,711100,248802,1380809,73902,9324,689898,0
9,1,713618,248749,1303557,73950,8916,651437,0
9,1,708669,248533,1362651,73790,8622,680798,0
9,1,706185,248153,1356145,73616,9203,677543,0
9,1,708571,247698,1417695,73436,9727,708188,0
9,1,711906,249022,1361815,74038,8675,680503,0
9,1,730174,256526,1401541,75510,8965,700401,0
9,1,707275,248713,1312392,74402,8750,655658,0
9,1,708328,246897,1315925,73678,8562,657400,0
9,1,705168,246923,1353936,73627,8593,676519,0
9,1,705686,247541,1499484,73871,9254,749167,0
9,1,717182,249386,1388121,74596,9256,693250,0
9,1,715747,249581,1381674,74681,9521,690099,0
9,1,713201,250103,1435719,74887,8911,717229,0
9,1,710811,247678,1397399,73814,8589,698348,0
9,1,716571,249158,1454549,74244,9504,726986,0
9,1,707943,248000,1239247,73968,8980,619086,0
9,1,713839,248231,1387532,74380,9761,693251,0
9,1,706762,246979,1438457,73828,9210,718666,0
10,1,704764,247642,1389262,73503,9097,694194,0
10,1,706691,247378,1374448,73459,8961,686819,0
10,1,714186,249078,1482008,74109,10775,740897,0
10,1,706406,248330,1378180,73676,10097,688651,1
10,1,708125,247578,1396191,73643,9049,697580,0
10,1,706782,248755,1299199,74225,8693,649126,0
10,1,708523,250413,1404728,74733,9134,701786,0
10,1,708415,248231,1369206,73746,8269,684378,0
10,1,709013,248597,1327977,73872,8337,663560,0
10,1,711104,247957,1488638,73564,10493,744074,0
10,1,714156,249465,1308513,74169,8874,653837,0
10,1,710613,248806,1380533,73887,8919,689738,0
10,1,710597,247633,1368210,73545,9200,683727,0
10,1,709402,247851,1368606,73587,9200,683917,0
10,1,709859,249582,1344374,74198,9451,671598,0
10,1,709823,247842,1415750,73493,9458,706835,0
10,1,707375,247596,1496317,73448,9798,747155,0
10,1,701164,246881,1341731,72609,8305,670246,0
10,1,704816,246982,1434657,73586,9499,716957,0
10,1,708775,247403,1369147,73871,9146,684133,0
10,1,705830,246669,1482430,73503,9294,740593,0
10,1,706185,247373,1388347,73826,9955,693786,0
10,1,733474,251835,1541084,76978,10881,769774,0
10,1,716944,250086,1363249,75004,9948,681180,0
10,1,709502,248861,1422605,74310,9463,710866,0
10,1,714170,249100,1497708,74321,9357,748474,0
10,1,712325,248484,1359699,74082,8813,679542,0
10,1,707128,247767,1328824,73860,9386,664081,0
10,1,710917,247044,1456791,73785,9341,727754,0
10,1,706195,247360,1350989,73933,9152,675042,0
11,1,707416,247332,1301590,73344,8649,650331,0
11,1,706588,247184,1343044,73414,8789,671087,0
11,1,710654,247814,1477674,73564,10752,738396,0
11,1,710082,248639,1526369,73756,9955,762493,1
11,1,715132,249811,1456299,74566,9721,727153,0
11,1,706503,247876,1284482,73790,8417,641787,0
11,1,710669,247662,1381260,73613,9001,689923,0
11,1,706879,247844,1350292,73689,7613,674727,0
11,1,707344,248202,1389183,73744,8876,693884,0
11,1,715194,250010,1575610,74481,10465,786859,0
11,1,716388,250458,1516446,74727,9452,757411,0
11,1,713555,250252,1397949,74495,8996,698455,0
11,1,708956,247404,1368416,73463,9252,683815,0
11,1,731198,253183,1400925,77101,9303,700117,0
11,1,704784,246914,1334924,73259,8678,666984,0
11,1,707865,247013,1291728,73191,8488,645406,0
11,1,707663,247621,1333608,73396,8646,666466,0
11,1,703933,247408,1391412,72830,7877,695342,0
11,1,702446,247592,1417043,73907,9416,708136,0
11,1,708642,247467,1421408,73893,9174,710086,0
11,1,711404,249190,1421507,74655,9088,709919,0
11,1,709969,249222,1320403,74706,9834,659487,0
11,1,712869,248202,1396128,73976,9225,697627,0
11,1,711709,248270,1468433,74199,9780,733522,0
11,1,709815,248517,1654840,74226,9083,826155,0
11,1,713017,248736,1393706,74205,8959,696392,0
11,1,717306,250600,1307192,74969,9174,653132,0
11,1,715663,248148,1403843,74005,9912,701552,0
11,1,709008,246983,1499972,73801,8974,749336,0
11,1,713683,249418,1433583,74887,9559,715977,0
12,1,710621,247855,1406839,73573,9737,702915,0
12,1,709122,249335,1356259,74408,8347,677188,0
12,1,711993,247928,1638061,73589,9889,818561,0
12,1,707167,248157,1483606,73695,10794,741124,1
12,1,737070,257502,1511666,76587,9959,755458,0
12,1,704643,247296,1388028,73524,8408,693869,0
12,1,714840,249647,1418752,74394,9697,708626,0
12,1,706969,247838,1285607,73636,7900,642479,0
12,1,706824,248404,1419554,73766,9033,709511,0
12,1,711736,248677,1754821,73794,10635,877074,0
12,1,734903,253855,1357301,77387,9515,678259,0
12,1,711922,249427,1311845,74023,8785,655510,0
12,1,712911,249308,1359855,74323,9541,679088,0
12,1,707025,247821,1402188,73532,8782,700856,0
12,1,710786,247732,1462450,73417,9131,730803,0
12,1,715770,249474,1341872,74172,9922,670261,0
12,1,706823,247662,1360030,73399,8674,679705,0
12,1,702417,247517,1433119,72853,8230,716201,0
12,1,711277,247566,1446882,73846,9758,723151,0
12,1,705865,246760,1377353,73564,9152,688264,0
12,1,705792,247222,1386351,73787,9355,692751,0
12,1,726653,252129,1411917,77224,10362,705418,0
12,1,711095,247535,1383136,73754,9129,691134,0
12,1,709856,248482,1357703,74174,9614,678409,0
12,1,708697,248499,1439064,74198,9432,718954,0
12,1,710648,248328,1472460,74027,9352,735851,0
12,1,710989,248934,1500928,74154,8818,750033,0
12,1,714809,248231,1355172,73974,8893,677233,0
12,1,716124,249369,1410577,74831,9465,704708,0
12,1,730123,252091,1487626,77322,10034,743279,0
13,1,706886,246603,1326197,73053,8589,662668,0
13,1,706118,247298,1232755,73453,8506,615872,0
13,1,713166,248516,1338771,73752,9253,668973,0
13,1,712676,249861,1464974,74633,10178,732074,1
13,1,707883,247267,1558199,73514,9764,778709,0
13,1,705966,248256,1399227,73886,8147,699043,0
13,1,711114,248427,1380743,73874,8921,690024,0
13,1,727784,252777,1358988,77058,8377,678993,0
13,1,704223,247356,1259984,73431,7935,629697,0
13,1,716060,249484,1493276,74189,10534,745757,0
13,1,712658,249164,1396994,74034,9231,698019,0
13,1,709523,248865,1416139,73779,9591,707595,0
13,1,708818,247688,1341590,73563,8719,670424,0
13,1,709811,248287,1544791,73721,9476,771913,0
13,1,709028,247725,1490281,73415,9619,744660,0
13,1,711317,248242,1333167,73643,9481,666165,0
13,1,713634,249616,1278122,74319,8193,638433,0
13,1,703782,247742,1403189,73016,7890,701176,0
13,1,714346,248769,1428028,74462,9848,713540,0
13,1,727440,251894,1449629,77140,10500,724613,0
13,1,711865,248849,1292655,74510,8462,645810,0
13,1,706241,247745,1335385,73983,8546,667251,0
13,1,710321,247378,1360367,73740,9234,679845,0
13,1,711332,248469,1351905,74226,10104,675354,0
13,1,726566,251896,1507235,77069,10391,753089,0
13,1,732089,252885,1394412,77343,10181,696790,0
13,1,715152,250018,1343416,74720,9186,671136,0
13,1,715866,249326,1365524,74360,8372,682222,0
13,1,732439,252361,1450398,77356,10378,724793,0
13,1,710055,248771,1401396,74586,8845,699960,0
14,1,729219,252084,1429604,76701,10164,714359,0
14,1,704297,247437,1255501,73502,7700,627320,0
14,1,715977,249762,1463391,74337,9315,731100,0
14,1,712245,249049,1293428,74164,9255,646017,1
14,1,708028,247631,1348460,73666,9248,673942,0
14,1,707036,248133,1378461,73840,8324,688956,0
14,1,711807,248779,1392014,73939,8490,695661,0
14,1,706479,248549,1369861,73829,7507,684690,0
14,1,726596,252531,1350773,76952,9307,674943,0
14,1,711318,248416,1312170,73763,8032,655702,0
14,1,714419,250454,1401462,74613,8940,700051,0
14,1,708745,248756,1389116,73675,9403,694239,0
14,1,712482,248170,1295992,73804,8864,647512,0
14,1,710344,249015,1430241,74123,9577,714585,0
14,1,716553,250446,1470042,74632,9734,734337,0
14,1,708889,247518,1344166,73361,8985,671688,0
14,1,733750,251953,1368184,76575,9152,683788,0
14,1,702321,247272,1324052,72757,7804,661678,0
14,1,709942,247314,1532888,73841,10070,765814,0
14,1,707232,248231,1603718,74137,9315,800703,0
14,1,706798,247538,1344768,73868,8727,671986,0
14,1,713318,247375,1385496,73867,8622,692360,0
14,1,731948,252641,1428277,77205,10288,713714,0
14,1,710490,248621,1252290,74200,9262,625556,0
14,1,714816,248678,1398881,74279,9220,699257,0
14,1,709759,248474,1429093,74070,8705,714162,0
14,1,712768,248778,1440624,74201,9471,719996,0
14,1,715402,248370,1330830,73949,8847,665030,0
14,1,709852,247449,1321890,73982,9204,660554,0
14,1,708387,248082,1366142,74227,8733,682828,0
15,1,707606,247494,1302264,73445,9210,650644,0
15,1,706431,247820,1241563,73675,7896,620679,0
15,1,710790,248147,1392312,73626,8554,695625,0
15,1,727792,252205,1430490,76974,9992,714817,0
15,1,709258,248367,1423854,73937,9198,711440,1
15,1,703332,247650,1350445,73592,8142,674863,0
15,1,712759,249775,1567397,74482,9079,783040,0
15,1,709374,247782,1239677,73655,8073,619460,0
15,1,703686,247591,1354523,73511,8060,676881,0
15,1,713007,249783,1393074,74426,8803,695733,0
15,1,714140,248930,1405153,73971,9781,702184,0
15,1,712022,250007,1282866,74217,9151,640978,0
15,1,709828,247295,1400890,73448,8843,700025,0
15,1,707889,248499,1390829,73769,9182,695122,0
15,1,730905,252671,1387709,76884,9998,693296,0
15,1,709278,247993,1484026,73490,9345,741611,0
15,1,712112,247609,1374576,73418,9412,686926,0
15,1,700786,247193,1263354,72810,8069,631363,0
15,1,710325,247770,1338420,73978,9488,668635,0
15,1,709553,247423,1438777,73830,9813,718837,0
15,1,706066,247486,1355820,73868,8213,677555,0
15,1,712642,247946,1410541,74088,9022,704738,0
15,1,713280,247693,1394098,73758,9224,696579,0
15,1,709943,248239,1350729,74150,10099,674673,0
15,1,718683,249789,1412593,74784,10055,705509,0
15,1,712475,248221,1502187,74007,9616,750829,0
15,1,710914,248105,1367416,73958,8531,683444,0
15,1,719581,250252,1372376,74912,9860,685543,0
15,1,708988,247152,1389544,73809,9588,694412,0
15,1,706376,247449,1397166,73944,8736,698169,0
16,1,706749,247082,1398120,73375,8708,698647,0
16,1,722329,251289,1431045,76618,8891,715110,0
16,1,710100,247838,1355119,73504,9059,677274,0
16,1,708069,247784,1441225,73707,9830,719901,0
16,1,707194,247747,1230134,73757,8492,614639,1
16,1,709363,249808,1402662,74651,9353,700678,0
16,1,734988,253991,1315590,77955,9172,657230,0
16,1,706903,247869,1492935,73678,8397,746106,0
16,1,707292,249201,1456414,74235,8607,727901,0
16,1,711386,248752,1514029,73946,9868,756709,0
16,1,713301,249372,1298802,74158,8330,649000,0
16,1,708397,248835,1393279,73782,9575,696228,0
16,1,715964,250019,1415077,74599,9333,706773,0
16,1,717281,249965,1463789,74558,9511,731199,0
16,1,734968,257057,1492000,76218,9619,745566,0
16,1,713170,249912,1421703,74408,9235,710023,0
16,1,712019,247919,1513450,73537,10546,756357,0
16,1,706432,249735,1260011,73823,8502,629432,0
16,1,713832,248872,1367080,74499,9546,682265,0
16,1,710869,248917,1323802,74554,9138,661531,0
16,1,705404,247227,1418909,73772,8824,708946,0
16,1,711874,248672,1349868,74351,8236,674172,0
16,1,713171,248749,1309460,74297,8424,654026,0
16,1,731259,253264,1411406,77497,10336,705365,0
16,1,715326,248811,1430990,74321,9990,715388,0
16,1,711967,248000,1471251,73831,8914,735233,0
16,1,709039,248166,1428950,73938,9322,714087,0
16,1,712435,248111,1488726,73932,9278,743858,0
16,1,707985,247134,1313877,73879,8854,656473,0
16,1,704019,246760,1298939,73745,8312,649289,0
17,1,706418,247534,1423716,73540,9103,711333,0
17,1,704234,247653,1339498,73606,8006,669062,0
17,1,708801,247713,1417504,73459,10334,708335,0
17,1,707373,247892,1341108,73809,9087,670136,0
17,1,713874,249213,1418530,74454,8015,708562,1
17,1,703172,247795,1379535,73743,8263,689331,0
17,1,708409,247920,1265329,73631,8198,632308,0
17,1,705793,247911,1424167,73614,8579,711973,0
17,1,711073,249495,1417573,74398,8780,708214,0
17,1,708060,247577,1481361,73547,10310,740404,0
17,1,729244,252552,1441059,76816,9456,719972,0
17,1,728114,253287,1468064,77071,9654,733536,0
17,1,709936,248108,1402387,73751,8949,700761,0
17,1,712107,247943,1320464,73574,9520,659769,0
17,1,705827,247543,1400470,73414,8855,699954,0
17,1,710357,247786,1417813,73487,9791,708576,0
17,1,717964,250372,1315110,74618,9495,657000,0
17,1,701919,247593,1354282,72945,8068,676830,0
17,1,707329,247176,1437116,73788,9416,718147,0
17,1,728024,252001,1524954,77194,10876,762114,0
17,1,706463,248008,1348483,73966,8644,673773,0
17,1,710551,247749,1363806,73977,9262,681524,0
17,1,710509,247519,1423483,73804,9586,711290,0
17,1,710012,248704,1399741,74257,9163,699545,0
17,1,714251,248687,1481874,74264,10374,740535,0
17,1,712652,248514,1573656,74085,9470,786420,0
17,1,713557,249974,1458394,74710,9191,728572,0
17,1,712373,248406,1395291,74059,8824,697320,0
17,1,711291,248473,1394346,74400,9137,696568,0
17,1,708677,246902,1346327,73795,9284,672807,0
18,1,706682,248037,1364334,73646,8443,681829,0
18,1,702784,247436,1353803,73507,8292,676449,0
18,1,708179,247615,1315849,73592,8556,657393,0
18,1,714106,247802,1539967,73740,9538,769594,0
18,1,709610,247910,1345265,73787,8981,672240,1
18,1,701853,247624,1431588,73599,8158,715376,0
18,1,708715,248108,1361138,73728,8847,680223,0
18,1,713740,250233,1365982,74741,8670,682397,0
18,1,710131,248841,1362787,73969,8406,681114,0
18,1,708225,248269,1557628,73723,11068,778589,0
18,1,710197,248804,1359943,73903,8774,679506,0
18,1,714423,249738,1512914,74092,9917,755939,0
18,1,707364,247181,1286754,73361,8494,642983,0
18,1,710985,247509,1248523,73438,9035,623756,0
18,1,708565,247534,1371184,73322,9349,685283,0
18,1,709274,247846,1483085,73438,10363,741124,0
18,1,731289,252171,1380070,76693,9679,689490,0
18,1,703350,247061,1248037,72733,7423,623617,0
18,1,713746,249685,1381240,74878,9882,690044,0
18,1,707894,247203,1367708,73819,9016,683233,0
18,1,706079,247619,1408049,73932,9427,703638,0
18,1,710013,246847,1247578,73622,8504,623296,0
18,1,707405,246679,1304395,73498,8526,651917,0
18,1,711322,249506,1380559,74510,9120,689898,0
18,1,713401,248469,1437574,74146,9548,718224,0
18,1,711600,248164,1374873,73937,9465,687125,0
18,1,706652,247944,1557764,73840,9376,778196,0
18,1,719394,250057,1372165,74869,8765,685506,0
18,1,712404,247283,1343887,73811,8193,671395,0
18,1,708045,247271,1310474,73929,8588,654653,0
19,1,708035,248285,1288729,73660,8066,643992,0
19,1,708363,247622,1370214,73604,8623,684659,0
19,1,706959,247460,1284575,73453,8680,641647,0
19,1,733117,252662,1472049,77177,10573,735058,0
19,1,702194,247719,1285179,73743,8428,642092,1
19,1,708678,248922,1420445,74252,9281,709583,0
19,1,710922,248945,1358427,74008,8530,678853,0
19,1,728218,252388,1355784,76946,9002,677664,0
19,1,707297,247876,1356389,73596,8022,677860,0
19,1,705058,246844,1414124,73230,10095,706691,0
19,1,711997,249582,1410953,74329,9350,704874,0
19,1,709844,248483,1326180,73588,9100,662497,0
19,1,712587,248911,1411849,74102,9168,705412,0
19,1,711105,247919,1333930,73620,8881,666452,0
19,1,709553,248205,1533022,73554,9531,766105,0
19,1,706045,247750,1330839,73403,9497,664936,0
19,1,708852,247495,1347710,73400,8957,673517,0
19,1,704270,247740,1311093,72978,7757,655206,0
19,1,707844,247150,1393994,73665,9191,696643,0
19,1,706088,246877,1262125,73672,8506,630703,0
19,1,706757,248280,1304468,74306,9134,651691,0
19,1,712502,248137,1283505,74100,8964,641243,0
19,1,711149,248383,1368979,74062,9406,684115,0
19,1,712591,250108,1356113,74877,9800,677563,0
19,1,735620,253198,1429517,77535,10976,714466,0
19,1,715897,250259,1320599,74906,8733,659664,0
19,1,707733,248722,1356595,74171,9113,677904,0
19,1,713270,247897,1282991,73851,8549,641055,0
19,1,712844,247780,1378208,73952,8719,688780,0
19,1,705011,246686,1279592,73703,9375,639406,0
20,1,708170,248305,1387896,73667,8708,693452,0
20,1,707960,247783,1361902,73643,8292,680477,0
20,1,711097,249304,1439514,74226,9073,719196,0
20,1,710818,247577,1384982,73698,9293,691379,0
20,1,705563,249705,1335773,74673,9636,667232,1
20,1,704960,247143,1291643,73535,8320,645444,0
20,1,705514,247295,1273259,73426,8196,636370,0
20,1,705389,247597,1353331,73601,8007,676273,0
20,1,709684,249124,1363100,74191,7875,681085,0
20,1,710409,248235,1469587,73657,10740,734396,0
20,1,706322,247796,1379972,73566,9270,689586,0
20,1,709951,249484,1412819,73972,9618,705989,0
20,1,712273,249046,1309015,73965,8562,653889,0
20,1,711528,247883,1380284,73554,9303,689754,0
20,1,706139,247406,1283708,73301,8699,641330,0
20,1,712757,248400,1383408,73643,10258,691351,0
20,1,710254,247229,1362885,73257,9115,681117,0
20,1,708647,249657,1262924,73765,7889,630945,0
20,1,709218,248440,1328055,74363,9575,663560,0
20,1,712576,249240,1387987,74628,9362,693317,0
20,1,731782,257152,1470036,76762,9992,734442,0
20,1,709932,247345,1385373,73771,9835,692125,0
20,1,707847,247354,1233130,73709,8568,616059,0
20,1,706208,247661,1394086,73869,9122,696730,0
20,1,713717,248826,1443578,74296,9765,721447,0
20,1,733290,253345,1449829,77455,9418,724475,0
20,1,713890,248547,1434144,74094,9762,716793,0
20,1,714312,248210,1413168,73968,8615,706246,0
20,1,716466,249521,1463109,74757,9035,730691,0
20,1,705939,247441,1403054,73935,9551,700545,0
21,1,706902,247458,1283197,73342,8186,640890,0
21,1,706745,247679,1329594,73573,8744,664497,0
21,1,714038,249012,1369242,73919,8458,684208,0
21,1,714457,249179,1439569,74364,9620,719209,0
21,1,725188,252122,1373980,76965,9797,686585,0
21,1,704771,248078,1229876,73841,8031,614561,1
21,1,729863,252528,1452872,76989,9044,725938,0
21,1,706187,247857,1351006,73618,7834,675182,0
21,1,707417,248661,1403415,73851,7896,701392,0
21,1,712821,249465,1551051,74312,10257,775074,0
21,1,705596,247813,1307181,73669,8744,653120,0
21,1,710327,248987,1283493,73848,8870,641337,0
21,1,707944,247585,1289760,73501,8551,644467,0
21,1,708037,247167,1358659,73265,8978,678970,0
21,1,708172,247848,1350795,73431,8862,674922,0
21,1,711453,247888,1402986,73510,10113,701219,0
21,1,706892,246317,1307568,73010,8724,653393,0
21,1,703290,247279,1345654,72791,7494,672507,0
21,1,708354,247862,1453660,74009,9839,726503,0
21,1,707495,247986,1471518,74026,9385,735314,0
21,1,707634,246876,1390267,73566,9170,694795,0
21,1,709710,247556,1291807,73896,9132,645379,0
21,1,710226,248107,1305280,73965,8945,652141,0
21,1,714764,248834,1448101,74229,9509,723554,0
21,1,711989,248141,1450376,74028,9355,724743,0
21,1,712162,248847,1360687,74205,8412,679927,0
21,1,718439,250793,1372870,75085,9570,685839,0
21,1,714341,248664,1328918,74161,7887,663964,0
21,1,712533,248784,1389117,74437,8733,693810,0
21,1,704283,246956,1394893,73782,9037,696799,0
22,1,725737,252165,1337922,76682,9451,668316,0
22,1,710256,249241,1390481,74365,9469,694681,0
22,1,711782,248509,1290205,73716,8357,644616,0
22,1,710110,248007,1435898,73831,9099,717526,0
22,1,706369,247981,1395430,73761,8915,697417,0
22,1,708216,248943,1411037,73966,8745,705422,1
22,1,706195,247821,1243036,73689,7883,621145,0
22,1,708731,248134,1309232,73722,8862,654257,0
22,1,707460,248367,1291717,73860,8586,645504,0
22,1,709637,248505,1687653,73849,11216,842310,0
22,1,708598,247278,1330636,73429,8774,664843,0
22,1,710397,249060,1369443,73829,8898,684333,0
22,1,706841,247472,1301828,73401,8845,650491,0
22,1,711732,247565,1302575,73474,9118,650888,0
22,1,730378,253372,1378288,77009,9819,688710,0
22,1,710157,247455,1434657,73280,9613,716705,0
22,1,709259,247267,1389355,73286,9243,694356,0
22,1,708603,249984,1249548,73951,7785,624212,0
22,1,713936,249216,1503284,74614,9284,750933,0
22,1,705298,247462,1385425,73852,9336,692319,0
22,1,706508,247164,1310989,73770,9238,654973,0
22,1,710507,248378,1258580,74321,8768,628699,0
22,1,709294,248063,1324902,73987,9691,662094,0
22,1,734367,253191,1593333,77482,10870,796292,0
22,1,714484,248783,1427932,74304,9700,713623,0
22,1,715671,250442,1320969,74860,7992,659951,0
22,1,714092,249222,1370839,74539,9382,684743,0
22,1,717539,249835,1367922,74635,8442,683368,0
22,1,707505,247023,1320740,73670,8853,659987,0
22,1,708671,248930,1650413,74629,9889,824450,0
23,1,708577,247192,1359199,73233,9185,679080,0
23,1,726634,251743,1395939,76668,9716,697553,0
23,1,730758,252576,1475993,76827,8318,737534,0
23,1,709523,247780,1308273,73655,8794,653681,0
23,1,709468,249229,1450703,74389,9287,724798,0
23,1,707559,247801,1374277,73606,9012,686719,0
23,1,711886,250371,1432366,74727,9248,715615,1
23,1,707434,248404,1272693,73790,8092,636035,0
23,1,705470,246889,1219887,73407,7546,609627,0
23,1,707199,247906,1768572,73652,11774,883927,0
23,1,712378,249052,1316547,74232,8910,657566,0
23,1,729853,253583,1387930,77124,9995,693497,0
23,1,709829,248029,1300219,73658,9078,649605,0
23,1,710097,247526,1374300,73490,9452,686717,0
23,1,707593,248086,1420473,73512,8788,709733,0
23,1,709496,247608,1358952,73407,9397,679090,0
23,1,710564,248049,1327960,73576,8458,663535,0
23,1,722432,252172,1389313,76229,8719,694265,0
23,1,708039,247398,1319788,73827,9250,659544,0
23,1,707421,247208,1268833,73816,8839,633691,0
23,1,710062,248032,1341743,74074,8987,670448,0
23,1,710293,248067,1385402,74047,8981,692194,0
23,1,712663,249223,1296946,74500,9764,647931,0
23,1,711663,248593,1345016,74210,9516,671673,0
23,1,718685,250622,1409345,75096,10021,703191,0
23,1,708944,248293,1295157,74006,8021,647177,0
23,1,710453,248442,1420701,74067,8957,710060,0
23,1,714578,248799,1469545,74187,9237,734290,0
23,1,707060,247157,1381228,73693,9003,689991,0
23,1,709003,247861,1494348,74134,9127,745595,0
24,1,708680,247882,1368457,73521,8419,683867,0
24,1,706830,247753,1341140,73631,8226,670099,0
24,1,710803,248505,1279535,73789,8158,639463,0
24,1,729171,252184,1428114,76994,9895,713458,0
24,1,703040,247404,1345634,73562,8566,672394,0
24,1,711349,248882,1392041,73996,8448,695633,0
24,1,711054,248752,1285078,73974,8608,642178,1
24,1,707213,247859,1294291,73620,8774,646817,0
24,1,711852,249885,1278498,74556,8282,638515,0
24,1,714799,250704,1486694,74871,10491,742896,0
24,1,710962,248339,1295075,73676,9198,647185,0
24,1,709705,249326,1400194,73910,9640,699736,0
24,1,706893,247329,1254483,73381,8221,626821,0
24,1,713157,249114,1408031,74111,9138,703472,0
24,1,706093,247873,1380304,73376,9233,689660,0
24,1,731912,252337,1479167,76763,11171,739230,0
24,1,707468,247138,1463158,73242,8710,731119,0
24,1,702803,247898,1343636,73042,7818,671473,0
24,1,709274,248221,1451565,74109,10039,725186,0
24,1,705591,247262,1368456,73831,9037,683775,0
24,1,709483,248277,1257738,74353,8806,628215,0
24,1,707058,247195,1329326,73716,8023,664212,0
24,1,712647,247710,1355022,73881,9896,676796,0
24,1,712462,249082,1654294,74404,9524,826368,0
24,1,733681,253132,1684352,77522,11177,841431,0
24,1,711112,247672,1443672,73783,8619,721411,0
24,1,709430,248031,1582992,73974,9108,791176,0
24,1,711937,247939,1390456,73880,9197,695017,0
24,1,733559,252875,1611182,77414,10043,804937,0
24,1,708086,247806,1406498,74074,9963,702912,0
25,1,707501,247521,1400317,73476,9131,699759,0
25,1,706571,248011,1391993,73709,8425,695542,0
25,1,713731,249541,1368093,74222,8719,683438,0
25,1,708114,247018,1316871,73415,8911,658236,0
25,1,707914,248603,1386007,73992,8872,692661,0
25,1,708441,247811,1359113,73546,8113,679224,0
25,1,703716,248447,1287299,73873,8685,643248,1
25,1,707812,248722,1244394,73994,7960,621849,0
25,1,709590,249107,1288850,74069,8504,644051,0
25,1,730095,252323,1510901,76843,11007,755148,0
25,1,713035,249568,1314863,74271,9129,656664,0
25,1,709423,249142,1343648,73920,8759,671373,0
25,1,711885,249426,1388355,74237,9124,693556,0
25,1,730022,252542,1398537,76988,9446,698866,0
25,1,711479,248757,1515549,73836,9787,757236,0
25,1,709179,247533,1473055,73406,9753,736066,0
25,1,715981,249783,1511927,74328,10781,754483,0
25,1,701830,247307,1361189,72841,7842,680103,0
25,1,707993,247517,1418284,73848,9501,708761,0
25,1,703677,246610,1267775,73545,8651,633482,0
25,1,705539,246988,1348825,73691,8652,673866,0
25,1,709590,248363,1331392,74125,8659,665234,0
25,1,710426,247198,1251220,73659,8935,625049,0
25,1,712575,248943,1384950,74391,9553,692061,0
25,1,714175,249095,1452813,74347,10072,725919,0
25,1,731218,252866,1447913,77331,9850,723593,0
25,1,733125,252681,1512227,77312,10313,755696,0
25,1,733232,253050,1426248,77360,9537,712501,0
25,1,709728,247612,1391304,73809,8603,695226,0
25,1,706113,248126,1458916,74333,9853,728744,0
26,1,707499,247847,1289396,73510,8145,644322,0
26,1,707868,248593,1364219,74080,8475,681439,0
26,1,706143,247199,1311182,73243,7832,655252,0
26,1,710389,248369,1293650,73967,9518,646449,0
26,1,704647,247288,1293978,73522,8459,646688,0
26,1,713442,250163,1369257,74702,8704,683939,0
26,1,706960,249154,1445983,74094,8256,722600,1
26,1,703962,247678,1283335,73562,9268,641368,0
26,1,711042,249505,1279716,74398,8387,639338,0
26,1,710373,249210,1576983,74236,11271,787732,0
26,1,712297,248394,1267876,73645,8210,633464,0
26,1,731571,253839,1365692,77214,9867,682286,0
26,1,707784,247731,1283690,73567,8463,641282,0
26,1,706569,247344,1364710,73441,8239,681801,0
26,1,708234,248341,1458637,73560,9503,728897,0
26,1,708178,247392,1430080,73304,9185,714627,0
26,1,730998,252352,1384597,76768,9118,691916,0
26,1,703038,248027,1327617,73112,7780,663403,0
26,1,706071,246856,1445558,73643,9235,722394,0
26,1,709310,248582,1365022,74425,7938,681938,0
26,1,704689,246688,1279708,73606,8486,639478,0
26,1,731545,251788,1501176,77065,10395,750213,0
26,1,710349,247246,1344560,73643,9816,671830,0
26,1,709779,248600,1406243,74202,9804,702775,0
26,1,711775,248784,1425044,74299,9406,711852,0
26,1,712270,249002,1322450,74258,8141,660889,0
26,1,712020,249244,1342684,74551,8995,670860,0
26,1,713660,248286,1359840,74136,8904,679448,0
26,1,707796,247225,1276892,73731,8809,638038,0
26,1,705918,248415,1426524,74287,8674,712419,0
27,1,705068,247353,1382668,73410,8480,690825,0
27,1,704813,247715,1336300,73637,7834,667762,0
27,1,713995,249317,1382270,74382,8948,690276,0
27,1,706512,247280,1329379,73550,9475,664544,0
27,1,709826,249690,1401557,74573,9095,700195,0
27,1,707971,248315,1329336,73806,8992,664081,0
27,1,707035,248365,1300881,73874,8480,650003,1
27,1,705158,246835,1272999,73262,8055,636183,0
27,1,705741,248372,1272592,73803,8419,635895,0
27,1,708646,247931,1532154,73535,9909,765941,0
27,1,712633,248858,1680776,73841,9350,839950,0
27,1,710996,250304,1378003,74266,9018,688547,0
27,1,729801,253118,1364292,77087,9203,681734,0
27,1,702577,245875,1276958,72982,7985,638002,0
27,1,706937,248005,1425968,73433,9388,712572,0
27,1,710578,248217,1611815,73568,9873,805463,0
27,1,708495,247217,1279673,73250,8030,639476,0
27,1,700627,247201,1340000,72774,7685,669712,0
27,1,710739,249409,1358779,74708,9913,678618,0
27,1,705077,247245,1320607,73887,8636,659676,0
27,1,704830,247431,1419991,73784,8734,709608,0
27,1,710523,247696,1326526,73894,8044,662754,0
27,1,728829,251956,1446229,76953,9549,722552,0
27,1,714743,250441,1406303,75095,10017,701198,0
27,1,712335,248979,1377113,74275,9843,688061,0
27,1,709391,248257,1374081,73946,8990,686631,0
27,1,707451,247828,1389949,73870,9867,694596,0
27,1,713287,248388,1360804,74164,9522,679946,0
27,1,713449,247236,1410231,73680,10233,704608,0
27,1,709095,247279,1550660,73893,10697,775573,0
28,1,704326,247153,1296865,73284,8553,648005,0
28,1,705938,247446,1340326,73496,8196,669911,0
28,1,730248,252472,1401375,76973,9193,700114,0
28,1,712360,249559,1330786,74529,9567,664912,0
28,1,727561,252926,1339610,77204,9428,669436,0
28,1,710524,249312,1299773,74287,8725,649395,0
28,1,705421,248351,1289009,73869,8299,644199,1
28,1,715072,249751,1411038,74521,9269,704811,0
28,1,703684,247569,1250649,73529,7897,624921,0
28,1,706594,248136,1362615,73679,8406,681019,0
28,1,713868,249610,1607949,74280,9128,803202,0
28,1,704862,248440,1311418,73574,8563,655299,0
28,1,705582,247542,1293154,73458,8592,646293,0
28,1,705640,247352,1373763,73495,8397,686355,0
28,1,711620,250219,1447147,74438,9658,722916,0
28,1,711678,247782,1543276,73405,10849,770982,0
28,1,710204,248953,1269896,74018,7865,634574,0
28,1,721306,252144,1380490,76229,8976,689844,0
28,1,726131,251809,1609524,77048,10452,804404,0
28,1,711501,247667,1287418,73962,9235,643189,0
28,1,709941,249432,1279935,74825,8067,639250,0
28,1,708292,247209,1405340,73785,8941,702173,0
28,1,708653,247914,1346843,73846,8429,673054,0
28,1,731589,252688,1500762,77335,10585,750001,0
28,1,713104,248917,1568756,74343,9716,784056,0
28,1,712335,250086,1389744,74847,9038,694247,0
28,1,714760,250691,1526847,75072,9702,762756,0
28,1,710950,248212,1341503,74109,9256,670498,0
28,1,710808,247414,1413091,73686,9724,706138,0
28,1,713394,249427,1462152,74925,10441,729310,0
29,1,707134,247529,1452311,73427,8377,725598,0
29,1,703178,247089,1273551,73393,7375,636343,0
29,1,708417,247478,1425842,73536,8520,712460,0
29,1,729807,252514,1383631,77048,9735,691292,0
29,1,703565,247738,1307413,73724,8345,653316,0
29,1,702252,247178,1269211,73428,7855,634238,0
29,1,709813,248859,1388179,74021,8525,693752,1
29,1,732584,252883,1430480,77100,9457,714844,0
29,1,704058,247948,1282385,73629,7464,640873,0
29,1,711477,249828,1441456,74498,9349,720066,0
29,1,710398,247881,1440753,73494,9425,719917,0
29,1,707967,249408,1432333,73997,8984,715701,0
29,1,714447,249149,1395699,74160,9210,697275,0
29,1,711052,249300,1379065,74307,8799,688961,0
29,1,705605,247707,1363937,73347,9070,681587,0
29,1,710130,247778,1406582,73452,9972,702988,0
29,1,710798,247331,1359945,73240,8959,679501,0
29,1,699996,247282,1249308,72796,7339,624311,0
29,1,706186,246794,1331506,73522,9738,665454,0
29,1,710548,247555,1312830,73945,8930,656044,0
29,1,710147,248354,1395427,74199,9512,697277,0
29,1,711087,248521,1290993,74307,8601,644910,0
29,1,712677,248839,1284191,74364,8659,641412,0
29,1,711648,248986,1438900,74392,9791,718566,0
29,1,715860,250310,1413173,74950,10100,705541,0
29,1,729422,252995,1573524,77365,9633,786255,0
29,1,711375,248033,1416686,73976,10081,707958,0
29,1,712877,248385,1297871,74105,9508,648500,0
29,1,718160,249119,1461428,74461,9608,729933,0
29,1,708974,247807,1367052,74100,9766,683587,0
30,1,726473,252888,1407195,76991,9091,703182,0
30,1,704906,247562,1289869,73480,7861,644372,0
30,1,708837,248248,1353697,73782,8002,676407,0
30,1,708163,248133,1553087,73845,9180,776100,0
30,1,706984,248622,1403725,74210,8759,701347,0
30,1,709104,249360,1462536,74322,9092,730667,0
30,1,711226,248531,1499358,73896,9768,749448,0
30,1,706338,248184,1267231,73795,8576,633137,1
30,1,708805,250007,1416803,74608,8959,707860,0
30,1,727108,252653,1419709,76981,9465,709465,0
30,1,713839,249936,1416343,74442,9143,707575,0
30,1,710074,250474,1510651,74494,9021,754649,0
30,1,714080,249502,1420152,74347,9454,709498,0
30,1,711607,247913,1289113,73671,8974,644150,0
30,1,706869,248201,1531801,73500,8689,765525,0
30,1,730738,252841,1426533,76863,9882,712909,0
30,1,717542,250646,1257158,74642,8251,627963,0
30,1,704700,249183,1283395,73615,7332,641179,0
30,1,707516,247613,1382408,73939,9897,690740,0
30,1,709243,247688,1333188,73905,8637,666112,0
30,1,707255,247438,1440623,73891,9289,719794,0
30,1,712224,249316,1317207,74729,8694,657976,0
30,1,707660,247460,1367443,73745,9173,683298,0
30,1,712563,249572,1358959,74815,10588,678353,0
30,1,713573,248913,1452023,74323,9810,725605,0
30,1,716316,248744,1375125,74159,9023,687145,0
30,1,713509,249275,1324582,74564,9455,661691,0
30,1,714941,249862,1281110,74796,8527,639873,0
30,1,711328,247409,1313222,73686,9609,656265,0
30,1,710951,248299,1466641,74444,10424,732604,0
31,1,703853,247517,1265268,73461,7720,632171,0
31,1,708564,248976,1453684,74162,8889,726418,0
31,1,711612,249591,1400080,74448,8656,699436,0
31,1,715756,249565,1439914,74435,9924,719354,0
31,1,701541,247456,1294461,73534,8927,646894,0
31,1,703276,247556,1276928,73462,8199,638109,0
31,1,710589,248379,1400208,73806,8454,699721,0
31,1,700614,247827,1375915,73688,8070,687521,1
31,1,726746,252457,1334623,76975,9137,666972,0
31,1,708906,247984,1361555,73549,9368,680465,0
31,1,728675,252523,1451231,76820,9763,724719,0
31,1,715076,249824,1396458,74106,8648,697761,0
31,1,709109,248346,1372865,73723,8717,686044,0
31,1,713790,249758,1494353,74483,9081,746492,0
31,1,737045,253169,1466986,76961,10303,732967,0
31,1,709475,248085,1486011,73552,10276,742604,0
31,1,709539,247683,1309251,73451,8846,654294,0
31,1,735417,252382,1401354,76713,8644,700202,0
31,1,711507,249815,1383730,74785,10486,691145,0
31,1,710312,247647,1345818,73897,8945,672549,0
31,1,704866,246811,1459190,73636,9217,729337,0
31,1,727026,251831,1427543,77062,9729,713326,0
31,1,706449,247377,1285375,73697,8824,642198,0
31,1,709830,247908,1458971,74018,9951,729150,0
31,1,714071,249207,1389743,74386,9464,694036,0
31,1,712015,247445,1425560,73653,9954,712464,0
31,1,711877,248618,1380777,74114,9177,690040,0
31,1,733937,252955,1434260,77474,9551,716675,0
31,1,713131,247994,1433580,73902,10358,716387,0
31,1,708642,248033,1423560,74188,9523,711250,0
32,1,764038,265677,1335867,78394,9180,667549,0
32,1,701580,247141,1341379,73397,7839,670215,0
32,1,707400,247100,1287306,73532,8299,643238,0
32,1,709729,247887,1382411,73685,9690,690612,0
32,1,728373,252347,1324465,77022,9437,661884,0
32,1,712849,248868,1396533,73944,9083,697715,0
32,1,711278,249139,1387956,74214,8565,693438,0
32,1,707158,247972,1349141,73683,7896,674212,0
32,1,703817,247958,1211514,73726,7649,605320,1
32,1,710559,248006,1354326,73519,10115,676718,0
32,1,710555,248804,1445284,73831,9184,722143,0
32,1,718302,249443,1280236,74004,8385,639501,0
32,1,710737,249032,1377560,74041,8888,688127,0
32,1,708935,247583,1376657,73585,8960,687767,0
32,1,714484,248882,1373224,73679,9539,686004,0
32,1,710808,248699,1484099,73942,9937,741457,0
32,1,712195,249087,1303427,74070,8254,651157,0
32,1,712722,247494,1344948,73337,7152,672142,0
32,1,724603,252149,1486718,76309,10013,742868,0
32,1,710108,247648,1358523,73904,9223,678879,0
32,1,704379,247128,1395605,73787,9076,697127,0
32,1,711094,247921,1398564,73994,8606,698964,0
32,1,709102,248166,1402647,73924,9204,700911,0
32,1,708433,248425,1398675,74251,8926,699343,0
32,1,711833,248689,1426636,74268,9741,712639,0
32,1,717559,249598,1315953,74614,9131,657441,0
32,1,705919,247373,1442056,73683,8892,720724,0
32,1,712217,247683,1436468,73926,9313,717864,0
32,1,711704,247725,1324096,73789,9646,661590,0
32,1,705551,247304,1426559,73911,9802,712792,0
33,1,761952,265802,1455804,78435,9282,727508,0
33,1,702099,247304,1318345,73412,8425,658851,0
33,1,711441,249066,1368322,74094,9027,683601,0
33,1,710997,248582,1370239,73937,9502,684807,0
33,1,705871,248439,1413177,73944,8901,706245,0
33,1,707970,247648,1271191,73603,8024,635246,0
33,1,709457,248086,1379868,73709,8885,689695,0
33,1,707463,248853,1264576,73985,7257,631903,0
33,1,706786,247754,1340703,73599,7905,669917,1
33,1,714192,249466,1426240,74180,10071,712289,0
33,1,707517,248222,1382460,73681,8776,690262,0
33,1,716170,248618,1415958,73639,8892,707641,0
33,1,710597,248333,1301153,73778,8759,650024,0
33,1,705585,247217,1395259,73371,8787,697207,0
33,1,716225,249751,1514971,74185,9790,756721,0
33,1,708767,248135,1461952,73572,9755,730151,0
33,1,708713,247686,1358904,73415,8822,678895,0
33,1,711004,246917,1267646,73037,7254,633543,0
33,1,711291,248775,1299540,73604,8908,649291,0
33,1,710930,248068,1517374,73988,9036,758256,0
33,1,711414,249479,1304424,74768,9218,651357,0
33,1,709197,247634,1454320,73952,8971,726415,0
33,1,732270,252169,1546779,77073,10126,772987,0
33,1,713794,250368,1253105,75151,8677,626020,0
33,1,712128,249106,1368372,74401,9472,683967,0
33,1,717096,250137,1302091,74792,9164,650509,0
33,1,709536,248694,1420557,74194,8865,709644,0
33,1,714494,249033,1320548,74524,8461,659774,0
33,1,712077,248354,1437082,73943,9932,717757,0
33,1,709999,249476,1666110,74882,10874,832461,0
34,1,762810,266177,1438791,78580,9658,718917,0
34,1,708439,249229,1384158,74325,8872,691374,0
34,1,711401,249762,1462304,74504,9050,730497,0
34,1,710656,248465,1452516,73892,10152,725471,0
34,1,723764,252304,1327917,77003,8926,663531,0
34,1,709647,248757,1401207,74064,8326,700114,0
34,1,710502,248442,1427012,73810,8870,713088,0
34,1,706274,248253,1441451,73764,8237,720376,0
34,1,706411,248207,1330529,73758,9164,664460,1
34,1,714550,249846,1869512,74444,12500,933332,0
34,1,713498,249488,1453556,74252,9872,726248,0
34,1,736892,253567,1381078,77113,9524,690086,0
34,1,729264,252600,1371083,76949,9301,685189,0
34,1,712640,249358,1445207,74354,9247,722013,0
34,1,740101,254031,1415870,77611,10208,707577,0
34,1,706008,247214,1458305,73188,9798,728844,0
34,1,715293,249858,1282752,74331,8481,640677,0
34,1,711445,247193,1331560,73226,7685,665348,0
34,1,705324,247120,1404064,72850,8632,701829,0
34,1,709919,248050,1419609,74250,8968,709264,0
34,1,704948,247315,1359536,73754,9173,679248,0
34,1,706989,247239,1414665,73818,9059,706848,0
34,1,709847,247700,1403891,73846,8063,701320,0
34,1,730268,253506,1390111,77704,9183,694629,0
34,1,712569,248479,1443473,74147,9797,721107,0
34,1,733583,252915,1412688,77264,10339,706070,0
34,1,706855,247584,1414377,73809,9065,706872,0
34,1,712096,248327,1283676,74133,8687,641396,0
34,1,715008,248083,1551368,73923,10609,775308,0
34,1,710811,249247,1428649,74755,10827,713669,0
35,1,760494,265740,1394819,78423,8465,696828,0
35,1,726756,251692,1392807,76631,8989,696022,0
35,1,729813,253141,1425270,77260,10052,712255,0
35,1,709652,248317,1438158,73783,9369,718880,0
35,1,702252,247835,1416774,73776,9399,707976,0
35,1,705868,247836,1358912,73624,8441,679017,0
35,1,711525,249277,1385747,74304,8637,692304,0
35,1,725767,252190,1442400,76825,9798,720764,0
35,1,713576,250379,1390990,74595,8570,694866,1
35,1,709160,248087,1460020,73725,10662,729400,0
35,1,712993,248846,1554404,73836,9746,776238,0
35,1,716381,249390,1400197,73986,9382,699996,0
35,1,711637,249574,1390943,74349,9157,694990,0
35,1,707350,247456,1360335,73513,9463,679567,0
35,1,712111,248116,1284749,73399,8977,641888,0
35,1,707361,248028,1415664,73561,9965,707304,0
35,1,712233,249087,1299279,74083,8421,649160,0
35,1,712725,247748,1267603,73394,7336,633432,0
35,1,731902,256500,1524585,75619,9021,761931,0
35,1,707266,247475,1339586,73808,8589,669400,0
35,1,704683,247273,1306109,73790,8808,652694,0
35,1,707673,247160,1379666,73762,8911,689403,0
35,1,711483,247505,1374531,73806,8964,686811,0
35,1,711334,248951,1370708,74351,9080,685021,0
35,1,714761,249226,1338136,74395,10386,668653,0
35,1,714194,249400,1253793,74309,8115,626497,0
35,1,707727,248165,1449424,74032,9600,724275,0
35,1,713497,248032,1394576,74032,8728,696870,0
35,1,712837,247597,1329313,73742,9521,664174,0
35,1,706280,247828,1339758,74125,10039,669341,0
36,1,760674,265607,1471449,78334,9541,735229,0
36,1,703270,246550,1295706,73258,7948,647348,0
36,1,710056,248476,1396107,73935,8997,697727,0
36,1,711043,249158,1568692,74218,10328,784683,0
36,1,703548,247587,1364927,73619,8446,682078,0
36,1,705572,248124,1285446,73759,7791,642038,0
36,1,706265,247868,1368864,73627,7939,684070,0
36,1,705052,247946,1353060,73712,8704,675924,0
36,1,732287,257695,1480042,76603,9452,739588,1
36,1,708786,248059,1516364,73693,10373,757793,0
36,1,706623,246836,1402271,73205,8759,700709,0
36,1,714719,248922,1303106,73790,9001,651163,0
36,1,707476,247921,1268953,73634,8033,633919,0
36,1,705794,247244,1236571,73389,8666,617905,0
36,1,713544,248433,1354022,73535,9691,676549,0
36,1,705947,247314,1430686,73288,9500,715032,0
36,1,709030,248029,1347665,73492,8252,673486,0
36,1,736250,252338,1544011,76690,9534,771618,0
36,1,705394,247784,1377859,72997,8655,688348,0
36,1,712050,248575,1348609,74356,8890,673501,0
36,1,705933,248221,1395548,74130,8774,697368,0
36,1,711527,249149,1313903,74678,8040,656280,0
36,1,707898,246690,1270087,73498,8324,634644,0
36,1,711473,248611,1348573,74210,8770,673930,0
36,1,715107,250077,1316211,74972,10316,657383,0
36,1,713459,248712,1238838,74095,8632,619086,0
36,1,709022,248858,1335094,74349,9320,667001,0
36,1,733063,252559,1513608,77289,9708,756325,0
36,1,734711,252559,1522890,77204,10972,760925,0
36,1,703776,247131,1330681,73857,9822,664879,0
37,1,767296,268880,1422800,79750,9942,710746,0
37,1,705005,247302,1382864,73385,8844,691052,0
37,1,713412,248293,1414266,73791,10090,707083,0
37,1,707111,247973,1442968,73707,9207,720361,0
37,1,700495,247574,1258228,73579,8172,628647,0
37,1,710571,250030,1391910,74522,9214,695411,0
37,1,712188,250091,1378291,74622,8286,688573,0
37,1,704032,247872,1348550,73627,9198,673440,0
37,1,712310,250102,1574811,74630,10330,786531,0
37,1,710358,249133,1584209,74088,10955,791475,1
37,1,713634,249873,1437307,74391,9895,717919,0
37,1,717528,249458,1297029,74042,9258,648025,0
37,1,715879,250199,1389833,74607,9539,694344,0
37,1,712362,249201,1309916,74239,9320,654280,0
37,1,715732,249713,1427914,74124,9658,713280,0
37,1,734711,253712,1487393,77167,11115,743210,0
37,1,707155,247642,1456186,73382,8996,727752,0
37,1,711217,247747,1425018,73353,7871,712113,0
37,1,704294,247264,1419744,72932,8978,709530,0
37,1,730452,252490,1528326,77355,9789,763745,0
37,1,707945,247656,1364233,73963,10000,681725,0
37,1,727498,252040,1469018,77205,9977,733952,0
37,1,707901,246991,1399477,73716,8677,699283,0
37,1,707577,247601,1314037,73929,8435,656644,0
37,1,730267,252838,1385978,77440,11125,692092,0
37,1,714005,248895,1302745,74140,8807,650942,0
37,1,709203,248605,1480433,74165,9795,739791,0
37,1,715804,249398,1389014,74539,8383,694049,0
37,1,711295,247666,1303894,73803,9043,651640,0
37,1,706082,247301,1367432,73949,10096,683335,0
38,1,782691,270341,1408309,81750,11130,703783,0
38,1,707414,248212,1254455,73747,8370,626739,0
38,1,713347,249112,1558923,74294,10193,778347,0
38,1,707912,247511,1414251,73472,9825,706667,0
38,1,702158,247950,1439753,73789,8030,719483,0
38,1,706817,247772,1403919,73611,8623,701623,0
38,1,706895,247954,1398622,73689,8470,698851,0
38,1,708397,249782,1458124,74532,9606,728534,0
38,1,710476,249504,1485486,74329,9843,742353,0
38,1,713759,249792,1543769,74487,11672,771012,1
38,1,708201,247719,1381660,73473,9801,690354,0
38,1,719040,250392,1376845,74485,9580,687603,0
38,1,709797,248121,1315460,73720,8860,657224,0
38,1,707871,248107,1257646,73717,8393,628460,0
38,1,712316,247726,1424554,73219,9721,712023,0
38,1,710815,249155,1352452,74086,9273,675537,0
38,1,711791,249845,1356799,74376,8888,677829,0
38,1,711456,247653,1363107,73362,7982,681180,0
38,1,705249,248180,1759839,73207,10305,879544,0
38,1,706615,247286,1478645,73824,9038,738963,0
38,1,705192,247043,1411759,73709,9668,705649,0
38,1,709907,247352,1358142,73851,8985,678669,0
38,1,713388,249149,1296560,74687,9211,647742,0
38,1,713137,249819,1283575,74912,8869,641178,0
38,1,709730,248495,1302178,74133,9663,650672,0
38,1,713875,249316,1237873,74235,8387,618236,0
38,1,712876,249933,1360279,74874,9374,679440,0
38,1,711171,247969,1375681,74050,8430,687358,0
38,1,711767,247608,1312816,73728,9493,655761,0
38,1,725865,251814,1582715,77167,11339,790554,0
39,1,762644,266084,1369006,78526,9952,684113,0
39,1,704032,247737,1221554,73603,7821,610293,0
39,1,709736,247614,1540973,73644,9592,769099,0
39,1,709115,247879,1433357,73646,9337,716256,0
39,1,700514,247363,1357184,73570,8363,678233,0
39,1,708753,249340,1504741,74385,8437,751904,0
39,1,706287,248141,1371370,73726,8349,685362,0
39,1,706914,249292,1505625,74075,8959,752585,0
39,1,705446,247891,1499979,73627,9888,749506,0
39,1,706090,248743,1306049,73832,8362,652569,1
39,1,706558,247657,1361322,73449,9757,680016,0
39,1,714257,249079,1286797,73902,9363,642889,0
39,1,712152,250167,1386670,74590,8915,692529,0
39,1,709163,247364,1383173,73436,8492,691054,0
39,1,711810,248090,1370889,73429,9495,684946,0
39,1,708172,247458,1552436,73328,10724,775511,0
39,1,729166,252715,1497216,76868,9304,748182,0
39,1,717207,250259,1328980,74436,8313,663895,0
39,1,705424,247380,1522590,72973,10687,760892,0
39,1,705577,246910,1319813,73656,9141,659551,0
39,1,725504,252397,1424930,77305,10316,712195,0
39,1,714228,249633,1295680,74844,8764,646924,0
39,1,708383,247502,1306699,73844,9177,652869,0
39,1,708307,248660,1273725,74214,8917,636568,0
39,1,712440,247879,1280236,73995,8939,639629,0
39,1,710914,248480,1294854,73977,8905,647121,0
39,1,705717,246748,1525460,73552,10031,762205,0
39,1,712791,248508,1401318,74259,9025,700153,0
39,1,712780,248484,1403101,74058,9387,700929,0
39,1,703658,247389,1523831,74001,9676,761285,0
40,1,764739,267527,1452562,79131,9102,725560,0
40,1,705798,247877,1234650,73638,8643,616820,0
40,1,713120,249474,1365613,74415,9685,682001,0
40,1,728819,252341,1426731,76866,10622,712722,0
40,1,702498,248448,1245743,73939,7886,622480,0
40,1,705239,247670,1359865,73635,7967,679611,0
40,1,712565,248883,1462439,74117,9202,730671,0
40,1,703478,248005,1512378,73655,8959,755926,0
40,1,710989,248097,1402087,73679,10004,700617,0
40,1,709104,247918,1511129,73553,9219,755298,0
40,1,713260,249060,1306086,73839,9330,652665,0
40,1,712781,248641,1317216,73724,8964,657971,1
40,1,712983,249963,1454066,74469,9187,726402,0
40,1,708708,247598,1371797,73445,9025,685437,0
40,1,733459,253516,1529597,76993,9987,764423,0
40,1,708127,247800,1708837,73516,10686,853541,0
40,1,711467,247628,1365059,73309,9102,682221,0
40,1,731796,252319,1382591,76674,8856,690938,0
40,1,711257,250048,1360904,74127,9111,679128,0
40,1,707180,247868,1455654,74010,9342,727456,0
40,1,705269,247400,1369550,73872,9566,684311,0
40,1,710014,247690,1355897,73974,8743,677624,0
40,1,707026,246923,1337393,73645,8870,668189,0
40,1,705765,246982,1217274,73695,8046,608299,0
40,1,715939,249454,1385088,74532,9104,691902,0
40,1,711757,249193,1511295,74228,9977,755202,0
40,1,706636,247828,1510969,73932,9245,755135,0
40,1,710383,247954,1380947,73989,8821,690109,0
40,1,710362,247857,1460384,73864,10060,729756,0
40,1,708338,248059,1416863,74224,9317,708148,0
41,1,760391,266101,1431493,78538,9230,715207,0
41,1,732273,257196,1342114,76661,9434,670214,0
41,1,711659,248990,1488124,74096,10332,743378,0
41,1,705704,247491,1408772,73473,9525,703676,0
41,1,714960,247967,1368263,73755,8386,683710,0
41,1,704719,247798,1289324,73731,7550,644164,0
41,1,707711,247863,1400288,73633,8811,699607,0
41,1,712976,247621,1477878,73564,9553,738483,0
41,1,713860,249820,1454420,74480,9906,726355,0
41,1,714467,250384,1659607,74659,10062,827495,0
41,1,713818,248963,1367621,73847,9363,683255,0
41,1,712977,251465,1378330,74977,9592,688430,1
41,1,706947,248050,1439664,73641,8930,719321,0
41,1,708830,248346,1396839,73724,8704,697985,0
41,1,711546,247460,1422628,73218,9674,710895,0
41,1,707903,247805,1592378,73430,11649,795806,0
41,1,714099,248673,1437970,73938,9293,718345,0
41,1,709349,247543,1397529,73298,8171,698341,0
41,1,724570,251648,1479621,76164,10080,739110,0
41,1,707103,248069,1378634,74202,8499,688840,0
41,1,706086,248359,1278024,74312,9095,638317,0
41,1,707225,246753,1263392,73647,8327,631281,0
41,1,710183,248439,1249640,74378,8715,624171,0
41,1,704805,247031,1272238,73820,9036,635807,0
41,1,717598,250658,1257465,75159,8684,628091,0
41,1,712399,248006,1397176,73896,8824,698211,0
41,1,706464,248585,1431177,74101,9237,715184,0
41,1,709632,247928,1353054,74006,8447,676142,0
41,1,710997,248096,1444157,73888,9494,721746,0
41,1,704188,246981,1379021,73876,9186,689080,0
42,1,779920,270004,1562590,81552,10086,780987,0
42,1,704250,247719,1259396,73640,8673,629148,0
42,1,710271,248282,1393304,73782,10188,695994,0
42,1,709740,248403,1417168,73797,9101,707588,0
42,1,713140,247747,1266318,73724,8143,632840,0
42,1,707140,248779,1416516,74146,8909,707702,0
42,1,710396,248759,1391367,73958,9195,695317,0
42,1,711274,247998,1372435,73675,9416,685816,0
42,1,730121,253009,1411070,77114,10558,705039,0
42,1,707749,248197,1362932,73568,9529,681189,0
42,1,719164,251052,1410155,74681,9389,704324,0
42,1,711524,249617,1370957,74051,9942,685037,1
42,1,706716,248109,1380042,73628,8594,688987,0
42,1,705686,247503,1279816,73407,7752,639531,0
42,1,716866,249504,1467601,74097,9449,733100,0
42,1,710593,249338,1486134,74136,10224,742474,0
42,1,708974,247634,1475091,73392,9617,737269,0
42,1,709395,247491,1429776,73269,8306,714553,0
42,1,703069,247290,1386589,72906,9394,693005,0
42,1,712747,249088,1321637,74640,8557,660542,0
42,1,706550,247413,1251609,73917,8133,625424,0
42,1,710869,248482,1258464,74440,9059,628557,0
42,1,713909,249051,1241652,74613,9045,620135,0
42,1,709185,249201,1293670,74771,9384,646191,0
42,1,733923,253390,1368220,77625,10287,683771,0
42,1,735298,253802,1464643,77533,10312,731919,0
42,1,720696,250136,1341050,74905,9368,669096,0
42,1,713974,250006,1323079,74964,8658,660779,0
42,1,717875,250569,1465417,74994,9913,731928,0
42,1,705068,247314,1346924,73928,9379,672830,0
43,1,758275,265867,1445417,78433,8361,722399,0
43,1,703214,247321,1223492,73504,8115,611456,0
43,1,711255,249451,1464401,74512,9727,731549,0
43,1,711409,249478,1422341,74317,9589,710837,0
43,1,731929,251905,1343195,76879,9524,671168,0
43,1,703009,247589,1256627,73654,7508,627944,0
43,1,705577,247259,1479754,73469,9957,739324,0
43,1,731802,252485,1508730,76908,10448,753918,0
43,1,709012,248185,1517062,73766,10272,758032,0
43,1,711704,249486,1454002,74252,9175,725488,0
43,1,714389,249323,1293685,73945,8704,646306,0
43,1,707270,248777,1375736,73828,8604,687439,1
43,1,708609,248348,1523594,73719,8784,761349,0
43,1,735454,257139,1493372,76261,9549,746261,0
43,1,711951,247944,1453655,73376,9838,726422,0
43,1,730002,253157,1528457,76994,11815,763978,0
43,1,714382,249732,1375284,74422,8667,686887,0
43,1,716028,248348,1574474,73582,9324,786825,0
43,1,705029,247497,1415273,73027,8899,707208,0
43,1,728732,252034,1426771,77149,9831,712976,0
43,1,712461,247593,1328454,73965,9281,663717,0
43,1,707973,246697,1279082,73620,8700,639060,0
43,1,730665,252022,1343151,77169,9660,671087,0
43,1,704561,247620,1464901,73997,9461,732009,0
43,1,709401,248010,1314565,74033,8781,656786,0
43,1,711124,248381,1394153,73938,8926,696750,0
43,1,736491,252676,1533162,77269,11606,766343,0
43,1,733929,252920,1451536,77457,9872,725317,0
43,1,732998,252319,1504594,77062,9963,751970,0
43,1,707989,248637,1381447,74632,9223,689605,0
44,1,757172,265771,1441614,78384,8944,720264,0
44,1,702788,247548,1336407,73591,8750,667726,0
44,1,727003,252028,1438472,76889,10015,718718,0
44,1,716064,249982,1456588,74573,10810,726747,0
44,1,714856,248197,1412327,73845,9053,705816,0
44,1,706353,248344,1351187,73888,8817,675199,0
44,1,708475,248527,1347613,73856,7956,673493,0
44,1,710296,248160,1438802,73759,9770,718947,0
44,1,711405,249473,1407153,74361,10531,702960,0
44,1,706577,248169,1423752,73618,9352,711477,0
44,1,716849,249899,1290006,74192,8900,644527,0
44,1,711185,249435,1285566,74154,8424,642328,1
44,1,718687,249825,1408932,74284,9283,703814,0
44,1,706726,247549,1299607,73420,8694,649363,0
44,1,713366,248656,1339223,73699,9269,669249,0
44,1,709950,248041,1485799,73508,11039,742136,0
44,1,707198,247355,1445915,73349,8818,722602,0
44,1,712561,247996,1342880,73484,8345,671094,0
44,1,702564,246947,1485489,72802,8937,742511,0
44,1,708159,247105,1331358,73726,8086,665296,0
44,1,708237,246304,1282160,73570,9596,640484,0
44,1,711799,248351,1297186,74130,9424,648200,0
44,1,709969,247976,1242393,74040,8682,620771,0
44,1,706377,248230,1361977,74110,9472,680536,0
44,1,712294,248233,1420019,74132,9224,709606,0
44,1,714158,248994,1359086,74172,8251,679122,0
44,1,716596,248806,1427908,74229,10971,712866,0
44,1,715353,248950,1320122,74378,8376,659564,0
44,1,710475,247754,1427483,73772,10102,713373,0
44,1,728567,252619,1446430,77472,9609,722876,0
45,1,761905,265849,1341660,78446,8825,669768,0
45,1,701487,247026,1379549,73432,8499,689494,0
45,1,707590,247422,1395934,73569,9248,697273,0
45,1,709336,247509,1434949,73460,9619,717092,0
45,1,713286,248302,1377582,73910,8658,688343,0
45,1,712507,250085,1360038,74755,8555,679386,0
45,1,702565,246885,1256771,73388,8388,627949,0
45,1,712495,248794,1448961,74131,10048,724016,0
45,1,707323,247937,1341616,73704,10193,670342,0
45,1,704659,247525,1437527,73358,9778,718389,0
45,1,711770,248548,1449022,73608,9128,724107,0
45,1,713401,248435,1287568,73744,8872,643356,0
45,1,706242,248746,1365953,73850,8598,682540,1
45,1,708973,248361,1378373,73695,8635,688722,0
45,1,710998,247838,1405676,73352,9390,702495,0
45,1,708537,247942,1552055,73497,11592,775705,0
45,1,709212,247750,1385201,73458,8649,692204,0
45,1,715855,249160,1442008,74093,10237,720113,0
45,1,701744,247492,1428720,72994,9449,714060,0
45,1,704940,246837,1352845,73644,8842,676037,0
45,1,709816,247343,1297454,73818,9255,648323,0
45,1,708343,247777,1295499,74019,8371,647415,0
45,1,709939,247647,1402544,73956,9020,700880,0
45,1,706439,248681,1270475,74424,8740,634668,0
45,1,711546,248768,1317556,74321,8472,657873,0
45,1,713673,249311,1272440,74397,7627,635538,0
45,1,714562,248094,1551736,73951,11360,775269,0
45,1,712662,247952,1456317,74011,8975,727821,0
45,1,711687,248048,1342022,73918,9444,670532,0
45,1,727275,252917,1468957,77568,10123,734015,0
45,1,709630,247450,1374639,73912,8942,686916,0
46,1,768004,268105,1475107,79355,9183,737015,0
46,1,708659,249354,1526173,74420,9198,762458,0
46,1,704375,246685,1432487,73281,9690,715932,0
46,1,712609,249185,1491119,74205,9733,745339,0
46,1,713439,248770,1402823,74218,9324,700822,0
46,1,725880,251893,1360069,76811,9295,679637,0
46,1,704249,247602,1349055,73554,8767,674158,0
46,1,711855,249030,1417345,74060,9139,708278,0
46,1,706900,247852,1322777,73567,9420,661082,0
46,1,735214,253343,1472370,77156,10926,735318,0
46,1,718403,250927,1517541,74715,9807,758020,0
46,1,713313,248629,1293782,73793,8967,646362,0
46,1,708373,248538,1307377,73855,8943,653220,1
46,1,713951,250299,1397361,74581,9119,698075,0
46,1,711709,247962,1401425,73446,10868,699741,0
46,1,712057,249533,1502217,74177,9983,750277,0
46,1,709383,248064,1388864,73555,9525,694086,0
46,1,711092,248355,1323752,73769,8430,661404,0
46,1,711596,249725,1347895,74024,9378,673004,0
46,1,704897,247334,1274376,73776,8373,636758,0
46,1,712739,249099,1262449,74676,9172,630427,0
46,1,710649,248574,1293941,74412,8495,646224,0
46,1,710307,247900,1439993,74231,8120,719229,0
46,1,704873,247852,1361159,73983,8881,680141,0
46,1,711270,248751,1402634,74302,9693,700976,0
46,1,710158,248459,1474935,74014,8514,737083,0
46,1,716384,249473,1394091,74550,10119,696208,0
46,1,715320,249453,1311062,74714,8154,654965,0
46,1,713123,249077,1357465,74428,9854,677899,0
46,1,700794,246484,1394256,73664,7536,696885,0
46,1,709529,247435,1515402,73846,9246,757306,0
47,1,761441,265902,1359918,78446,8805,679589,0
47,1,709389,247387,1352002,73479,8626,675571,0
47,1,704471,246806,1417584,73311,8833,708404,0
47,1,708204,247578,1388366,73505,9309,693789,0
47,1,710654,247448,1285290,73644,8690,642318,0
47,1,707375,248132,1367140,73827,8381,683182,0
47,1,706750,247776,1231375,73606,8389,615389,0
47,1,715371,249501,1430039,74446,9556,714187,0
47,1,727725,252861,1338846,77077,9452,668946,0
47,1,710592,248208,1303238,73642,9437,651123,0
47,1,715682,249133,1361164,73879,8135,680138,0
47,1,715745,250326,1463779,74540,9588,731323,0
47,1,733123,257052,1457830,76293,9339,728334,1
47,1,729605,252645,1349073,76917,9417,674099,0
47,1,711482,247881,1503100,73269,10991,751165,0
47,1,710637,249377,1444633,74241,8492,721139,0
47,1,707428,247637,1409283,73431,9252,704178,0
47,1,710886,247937,1746629,73529,9864,872218,0
47,1,705288,247610,1409405,73053,8782,704586,0
47,1,725897,250939,1416943,76773,8938,708130,0
47,1,731654,251979,1379619,77164,10526,689372,0
47,1,706534,247288,1384270,73836,9169,692010,0
47,1,709195,247735,1492204,73968,9001,745978,0
47,1,712198,246123,1339777,73317,8439,669391,0
47,1,710966,248695,1391284,74308,8935,695212,0
47,1,762463,263015,1458845,80273,10085,729057,0
47,1,717526,249105,1729769,74314,11019,864467,0
47,1,712721,248638,1394262,74279,8432,696685,0
47,1,711777,247912,1349317,73793,9075,674443,0
47,1,736769,252114,1418354,77324,10085,708693,0
47,1,714236,249669,1493413,74889,10490,746049,0
48,1,759978,265812,1434865,78388,8903,716837,0
48,1,709379,246808,1247377,73183,8303,623389,0
48,1,705601,247485,1366426,73556,8804,682822,0
48,1,710056,247912,1410484,73604,9453,704902,0
48,1,711591,247983,1396172,73804,8647,697646,0
48,1,735655,257873,1353713,76903,9127,676413,0
48,1,705226,248211,1288240,73700,8552,643751,0
48,1,732485,252876,1445626,77076,10639,722269,0
48,1,703685,247504,1384345,73492,8552,691658,0
48,1,710624,248785,1377048,73823,9806,687971,0
48,1,713526,248739,1399435,73933,8818,699206,0
48,1,712822,249035,1349437,73906,9454,674317,0
48,1,711629,250014,1319469,74540,8860,658858,1
48,1,704019,246944,1302555,73239,8065,650820,0
48,1,711974,248387,1468123,73543,11329,733185,0
48,1,728810,253182,1337586,77027,9032,668100,0
48,1,710560,249198,1446413,74101,9294,722648,0
48,1,717280,250195,1528869,74486,9642,763826,0
48,1,704301,247215,1336123,72918,8840,667954,0
48,1,707319,248301,1542439,74213,11300,770595,0
48,1,711935,247697,1395904,73965,9151,697526,0
48,1,708652,248354,1459247,74150,10029,729264,0
48,1,714674,249219,1311575,74664,8789,655126,0
48,1,717146,248760,1285482,74351,8920,642082,0
48,1,707721,247726,1333217,73945,8382,666215,0
48,1,711768,248743,1389297,74076,8895,694243,0
48,1,712648,247730,1474801,73841,9332,737077,0
48,1,710590,248104,1320367,74080,8421,659824,0
48,1,709439,247969,1444516,73857,9131,721734,0
48,1,714249,247531,1296860,74010,9187,647944,0
48,1,731199,252541,1660571,77361,10851,830442,0
49,1,758937,265425,1331540,78300,8365,665430,0
49,1,710043,247316,1363962,73450,8990,681625,0
49,1,703680,247283,1274479,73392,8091,636869,0
49,1,708992,247882,1414580,73628,10214,706657,0
49,1,711032,247570,1263148,73677,9082,631308,0
49,1,704391,247658,1368647,73606,8559,684007,0
49,1,705421,248103,1277666,73723,8650,638523,0
49,1,710796,248080,1447819,73702,8831,723542,0
49,1,706270,247992,1308098,73631,8164,653766,0
49,1,710345,248479,1412771,73893,8930,705760,0
49,1,715552,249310,1304765,73954,8637,652103,0
49,1,710548,248737,1297672,73817,8488,648313,0
49,1,709924,248014,1277176,73727,8584,638138,1
49,1,708825,248995,1370327,74128,8978,684584,0
49,1,712203,248849,1584578,73698,11913,791392,0
49,1,703096,247220,1400882,73269,8817,700155,0
49,1,708029,247384,1287187,73322,8758,643241,0
49,1,712709,248734,1566788,73760,10141,782755,0
49,1,710851,250037,1385721,73980,9101,692311,0
49,1,708050,247731,1560506,73930,10894,779748,0
49,1,712165,247895,1367339,73971,8881,683116,0
49,1,710339,247912,1365274,74021,8498,682239,0
49,1,707392,246784,1333190,73561,8023,666149,0
49,1,735225,252461,1432467,77154,9674,715820,0
49,1,712445,249283,1385730,74494,9289,692362,0
49,1,710993,248810,1342195,74125,8129,670682,0
49,1,714571,248238,1341457,74047,8813,670493,0
49,1,712931,248304,1399452,74162,8743,699409,0
49,1,715438,250132,1362244,74887,9661,680363,0
49,1,712541,247247,1262967,73901,8894,631099,0
49,1,708684,247623,1412492,73928,10067,705768,0
50,1,765920,268312,1455173,79469,9224,726572,0
50,1,715331,249824,1400362,74505,9133,699536,0
50,1,754131,260889,1480086,79439,9371,739584,0
50,1,707751,247761,1408094,73482,10173,702966,0
50,1,711789,248102,1335249,73825,9322,667270,0
50,1,704614,248048,1280155,73747,7783,639789,0
50,1,705719,248240,1319392,73758,8764,659395,0
50,1,711573,249364,1435168,74337,9063,716934,0
50,1,709839,249799,1386989,74456,8710,692872,0
50,1,709470,248074,1444364,73696,9622,721755,0
50,1,717777,250366,1411099,74244,9030,705164,0
50,1,711093,248930,1414988,73825,9348,707197,0
50,1,707979,248662,1288721,73856,8380,643907,1
50,1,711597,248194,1452282,73620,8867,725645,0
50,1,708072,247776,1495770,73313,10819,747652,0
50,1,712536,249029,1364281,74061,8782,681714,0
50,1,708585,247230,1285507,73298,8661,642285,0
50,1,710122,248021,1536468,73536,10238,767780,0
50,1,703783,247458,1444435,73000,9600,721976,0
50,1,704952,246936,1464760,73660,10271,732050,0
50,1,709655,247660,1366680,73970,8895,682888,0
50,1,707848,247598,1299814,73904,8286,649417,0
50,1,708918,248313,1288615,74294,8281,643715,0
50,1,713891,247578,1291668,73775,9060,645313,0
50,1,708335,248182,1363565,74010,9438,681463,0
50,1,709819,248164,1293104,73941,7982,646172,0
50,1,713304,247710,1449389,73840,9557,724403,0
50,1,711654,248810,1295033,74337,8756,647076,0
50,1,709863,248553,1326716,74078,9311,662921,0
50,1,732200,251662,1346581,77183,10567,672746,0
50,1,710967,248809,1455748,74482,9407,727235,0
51,1,760144,266269,1538315,78557,8280,768597,0
51,1,731532,252401,1463044,76887,9742,730995,0
51,1,703814,247132,1229391,73397,8278,614287,0
51,1,713337,249728,1499227,74434,10455,748059,0
51,1,712152,248320,1294799,73858,8970,647083,0
51,1,707911,249657,1412067,74558,8820,705751,0
51,1,729659,252222,1373856,76843,9784,686363,0
51,1,710246,248186,1312908,73775,8223,656095,0
51,1,727253,252889,1320716,77054,9360,659936,0
51,1,712101,249613,1469897,74448,9750,733977,0
51,1,713643,248823,1399855,73746,8612,699527,0
51,1,713144,248875,1364965,73806,8814,682148,0
51,1,713511,249804,1405270,74427,9218,701845,0
51,1,709969,247958,1283152,73710,8990,641049,1
51,1,714959,248134,1526711,73416,10182,762682,0
51,1,711088,247464,1369675,73332,9411,684468,0
51,1,707686,247563,1359939,73400,9049,679518,0
51,1,711244,247334,1487710,73337,10280,743510,0
51,1,704046,247164,1385839,72868,9288,692349,0
51,1,706681,247752,1499552,73915,9750,749173,0
51,1,707116,246965,1368493,73686,8714,683757,0
51,1,711286,249133,1313489,74640,9205,656113,0
51,1,708800,247844,1409446,73945,8121,704188,0
51,1,716642,248899,1317358,74378,9392,658059,0
51,1,710194,248120,1304658,74074,8355,651644,0
51,1,707603,247769,1445287,73769,9221,722314,0
51,1,714309,248510,1414827,74123,9501,707081,0
51,1,710870,248656,1390049,74205,9390,694584,0
51,1,716652,249206,1300383,74464,9352,649484,0
51,1,711043,246987,1261312,73857,9245,630257,0
51,1,708713,247843,1448319,74018,9518,723631,0
52,1,762456,265949,1332699,78474,8771,666018,0
52,1,708094,246805,1366489,73268,9257,682894,0
52,1,705184,247695,1270980,73600,8551,634878,0
52,1,729383,252744,1475720,76957,11070,737552,0
52,1,730290,252716,1303230,77148,9481,651222,0
52,1,725720,252253,1321042,76961,9340,660118,0
52,1,710322,248686,1343769,73949,9029,671550,0
52,1,711107,249054,1552844,74047,8731,775265,0
52,1,704520,248002,1362568,73677,8718,680882,0
52,1,728826,252510,1422478,76952,10056,710721,0
52,1,719735,251316,1450411,74822,9619,724496,0
52,1,711407,249076,1244251,73938,9075,621732,0
52,1,728192,252249,1352869,76734,9035,675881,0
52,1,708737,248114,1419389,73684,9361,709234,1
52,1,718257,250087,1563257,74377,10641,780957,0
52,1,711997,248121,1298100,73584,8781,648657,0
52,1,708308,247333,1383007,73350,9076,691065,0
52,1,711355,247453,1390330,73310,9859,695464,0
52,1,703677,247388,1358515,72990,9275,678746,0
52,1,708170,249041,1408867,74596,9894,703865,0
52,1,712119,248124,1299030,74108,8503,649179,0
52,1,705865,247629,1426823,73923,9370,713012,0
52,1,731782,255943,1533456,76369,9106,766239,0
52,1,713746,247730,1335080,73845,9080,667207,0
52,1,713521,249528,1374204,74559,8128,686741,0
52,1,715884,250979,1375985,75133,8382,687405,0
52,1,715645,249300,1476198,74398,9879,737720,0
52,1,716842,250055,1387522,74901,8689,693212,0
52,1,717013,249668,1367576,74625,9351,683062,0
52,1,713544,247512,1264470,74035,9920,631737,0
52,1,705960,247175,1362399,73768,9223,680628,0
53,1,766336,268481,1483419,79559,9572,740968,0
53,1,709563,247703,1243586,73535,8189,621330,0
53,1,704322,247251,1238249,73461,8534,618876,0
53,1,709634,247525,1460781,73432,10046,730316,0
53,1,714238,248936,1394470,74286,9386,696729,0
53,1,706014,247976,1385121,73797,8465,692300,0
53,1,711604,249599,1436860,74381,9696,717992,0
53,1,712285,249921,1425915,74503,9214,712201,0
53,1,707204,248244,1274120,73768,7994,636652,0
53,1,706993,247942,1467946,73618,8779,733348,0
53,1,713623,249310,1481553,73904,9010,740291,0
53,1,709369,248340,1302049,73641,8977,650699,0
53,1,708448,248499,1377991,73757,8258,688593,0
53,1,707466,248494,1353622,73733,8580,676191,1
53,1,733792,252727,1453541,76751,11457,726360,0
53,1,709274,247147,1547597,73222,10782,773473,0
53,1,711023,248887,1357594,73995,8612,678247,0
53,1,713525,248535,1425021,73697,10969,712106,0
53,1,701285,246720,1574131,72696,9704,786687,0
53,1,724279,251974,1575326,77061,11844,787286,0
53,1,729762,251833,1414074,77088,9780,706633,0
53,1,706994,247300,1307850,73779,8904,653522,0
53,1,708065,247880,1353228,73945,9153,676251,0
53,1,714895,248659,1371825,74114,9553,685367,0
53,1,708425,248261,1286214,74171,8098,642658,0
53,1,729486,253030,1427790,77358,9778,713388,0
53,1,713897,248589,1487352,74158,8606,743332,0
53,1,713522,249145,1461220,74465,8365,730182,0
53,1,733160,252627,1460247,77224,10249,729728,0
53,1,717389,249290,1355865,74749,10579,677202,0
53,1,710001,247346,1472413,73824,10958,735900,0
54,1,757065,265592,1439615,78383,9529,719071,0
54,1,709583,247707,1339928,73603,9029,669465,0
54,1,709379,249700,1293080,74488,9029,645793,0
54,1,710893,248565,1472520,73836,10101,736015,0
54,1,709305,247406,1396336,73589,8587,697874,0
54,1,704338,247330,1452857,73535,8455,726093,0
54,1,705447,247533,1263201,73553,7952,631295,0
54,1,712633,249135,1449984,74242,9486,724093,0
54,1,715030,249429,1401208,74331,8821,700048,0
54,1,710989,248324,1665567,73798,9668,832085,0
54,1,712929,249021,1286382,73812,8080,642735,0
54,1,709992,248819,1221644,73936,8272,610322,0
54,1,707743,247955,1368175,73590,8493,683626,0
54,1,713445,248402,1546947,73556,11062,773102,0
54,1,711966,248745,1433276,73694,9802,716161,1
54,1,712109,248065,1578069,73544,10532,788661,0
54,1,704685,247419,1390249,73320,9081,694719,0
54,1,712952,248621,1412157,73842,10643,705406,0
54,1,710683,250315,1446540,74149,9712,722191,0
54,1,734355,256232,1548950,76452,10072,773654,0
54,1,708005,247967,1313057,74028,7929,656032,0
54,1,708928,247961,1367470,73963,8900,683181,0
54,1,712607,247717,1364551,73930,9540,681878,0
54,1,712439,247756,1378340,73776,9440,688802,0
54,1,713176,249387,1298827,74754,8559,648750,0
54,1,713007,248745,1293698,74153,8559,646502,0
54,1,718342,250782,1358590,75082,8246,678681,0
54,1,711314,248650,1375603,74314,8781,687436,0
54,1,710378,248013,1443551,73903,9240,721219,0
54,1,711020,246757,1311676,73748,9634,655411,0
54,1,707001,247348,1602016,73808,10272,800292,0
55,1,760074,266222,1539768,78532,9885,769279,0
55,1,711320,247599,1382685,73495,8654,690930,0
55,1,723974,251886,1306413,76755,9985,652817,0
55,1,709346,248234,1507313,73703,11133,752868,0
55,1,711713,248064,1286023,73791,8927,642720,0
55,1,706006,248375,1370920,73959,8302,685088,0
55,1,727415,252769,1458587,77086,9589,728858,0
55,1,711487,248475,1427316,73862,9225,713234,0
55,1,709856,247837,1261798,73587,8062,630602,0
55,1,708765,247937,1419214,73605,9158,709173,0
55,1,716799,250776,1382225,74751,9004,690353,0
55,1,708626,248388,1327788,73753,9382,663504,0
55,1,711235,249298,1368849,74222,8980,683781,0
55,1,717196,250096,1507584,74250,10636,752942,0
55,1,705546,247831,1360676,73514,8849,679765,1
55,1,708907,247280,1367779,73305,9339,683519,0
55,1,713924,249702,1326221,74344,9122,662243,0
55,1,710243,247232,1708805,73239,11228,853857,0
55,1,705069,247232,1273862,72921,9428,636590,0
55,1,708974,247904,1454238,74011,10129,726775,0
55,1,712873,248118,1372199,74275,8875,685508,0
55,1,704492,247285,1422693,73766,9031,710994,0
55,1,713096,248298,1369992,74110,9847,684567,0
55,1,733156,252641,1454822,77215,10657,727017,0
55,1,711239,248513,1316194,74258,8838,657596,0
55,1,713967,249498,1368629,74412,8533,683950,0
55,1,712012,248291,1370248,74063,8254,684773,0
55,1,733519,253406,1355340,77673,9279,677129,0
55,1,711471,248091,1411506,73958,9245,705103,0
55,1,709401,246350,1328662,73642,9931,663922,0
55,1,707730,247981,1612204,74059,10132,805528,0
56,1,758362,265846,1424092,78443,9079,711583,0
56,1,730328,252346,1423395,76897,9965,711163,0
56,1,703161,247650,1331196,73574,8446,665241,0
56,1,728401,252314,1624528,76865,11583,811793,0
56,1,715225,249018,1377692,74258,9420,688304,0
56,1,705495,248351,1396539,74042,8485,697750,0
56,1,707147,248733,1443584,73960,9377,721418,0
56,1,707319,247387,1429412,73421,9596,713907,0
56,1,708729,247561,1391179,73518,8601,695275,0
56,1,707488,248353,1275959,73642,7642,637487,0
56,1,732713,253699,1342681,77303,8939,670906,0
56,1,710128,248176,1376238,73676,8560,687514,0
56,1,706385,247795,1291446,73452,8958,645342,0
56,1,711000,247880,1459052,73343,9846,729134,0
56,1,706569,247686,1426909,73431,9337,713100,1
56,1,712708,248867,1382222,73988,9619,690655,0
56,1,731138,252826,1570661,76915,10304,784974,0
56,1,712247,247862,1545142,73435,10564,772213,0
56,1,700397,246630,1434748,72748,9333,717042,0
56,1,706035,246917,1564084,73649,10068,781209,0
56,1,710729,247526,1465330,73906,9447,732221,0
56,1,726279,251737,1443520,77055,10150,721211,0
56,1,712748,248057,1488567,74038,9618,743835,0
56,1,712728,247482,1377450,73667,9644,688286,0
56,1,711444,249206,1381597,74535,9167,690316,0
56,1,710774,247956,1370406,73911,8698,684906,0
56,1,715046,248556,1434439,74144,9379,716754,0
56,1,711246,248756,1252165,74280,7798,625604,0
56,1,712956,249073,1297004,74271,8723,648038,0
56,1,716461,249264,1555537,74837,9719,776808,0
56,1,706737,247704,1564981,73971,10737,781677,0
57,1,763251,267779,1573284,79240,10104,785815,0
57,1,707020,247532,1335080,73396,8305,667124,0
57,1,701858,246763,1428223,73195,8247,713645,0
57,1,704085,247237,1404706,73429,9775,702039,0
57,1,711897,248681,1358425,73978,8968,678860,0
57,1,702975,247630,1278350,73691,7763,638438,0
57,1,706301,247636,1404604,73553,9208,701959,0
57,1,729701,252753,1499178,77070,10323,749122,0
57,1,711675,248695,1412083,73801,8046,705642,0
57,1,732493,257367,1510828,76366,8378,755023,0
57,1,713309,249057,1411051,73978,9031,705038,0
57,1,714281,249927,1418310,74458,9111,708577,0
57,1,706367,248200,1239286,73685,8271,619025,0
57,1,711804,248175,1628059,73455,10931,813714,0
57,1,715873,250278,1296090,74565,8918,647392,0
57,1,705959,248046,1440569,73556,10046,720141,1
57,1,707054,247533,1457398,73320,8999,728160,0
57,1,710964,247720,1537708,73418,9702,769220,0
57,1,700629,247158,1332807,72884,9131,665250,0
57,1,714860,249618,1446718,74636,10584,722613,0
57,1,708562,246769,1372476,73575,8814,685885,0
57,1,705141,246967,1427345,73684,9487,713297,0
57,1,708690,247438,1319547,73894,8628,659358,0
57,1,712700,248081,1517786,73927,9523,758393,0
57,1,706826,247918,1358643,74017,8389,678956,0
57,1,732613,252966,1473798,77389,9600,736589,0
57,1,712511,247941,1376243,73911,8526,687860,0
57,1,716351,248415,1348644,73979,8761,673792,0
57,1,711277,248920,1499203,74392,9322,748529,0
57,1,737460,253385,1475486,78259,10552,737411,0
57,1,710109,249468,1555606,74731,10973,776913,0
58,1,759498,266651,1401858,78736,9694,700160,0
58,1,712311,249130,1405428,74122,9173,702087,0
58,1,713245,249002,1393247,74209,9114,695986,0
58,1,711256,249826,1568993,74365,10996,783821,0
58,1,709757,248387,1254938,73940,8609,627175,0
58,1,703807,247804,1279257,73715,8713,639249,0
58,1,710688,249368,1392150,74310,9128,695453,0
58,1,706461,247153,1422857,73478,9065,710696,0
58,1,708337,247991,1247253,73556,8185,623328,0
58,1,710169,249811,1476534,74324,8423,737745,0
58,1,711330,248628,1413340,73826,7970,706242,0
58,1,710850,248168,1381234,73624,9106,690153,0
58,1,705286,247634,1317892,73449,9098,658476,0
58,1,711756,248471,1596888,73571,10597,797820,0
58,1,731305,252602,1343604,76855,10341,671014,0
58,1,709455,248042,1468107,73572,10255,733364,1
58,1,706917,247402,1261578,73323,8495,630590,0
58,1,713720,248948,1384837,74024,9318,691845,0
58,1,700900,247587,1460252,73055,9804,730218,0
58,1,707453,247333,1457791,73801,10279,728521,0
58,1,713699,249268,1320632,74745,9188,659623,0
58,1,705871,248416,1281537,74342,8924,640096,0
58,1,706178,246815,1313865,73607,8405,656555,0
58,1,712869,247859,1381119,73879,9501,690109,0
58,1,715172,250400,1318698,75146,9061,658503,0
58,1,712321,249057,1347051,74264,8452,673179,0
58,1,713098,248129,1448069,74010,9303,723565,0
58,1,716701,248969,1464231,74277,9871,731649,0
58,1,711689,248660,1498408,74130,9412,748640,0
58,1,709845,247084,1435525,73772,9804,717252,0
58,1,708515,247353,1476872,73727,10028,737875,0
59,1,755802,265279,1332246,78187,9338,665418,0
59,1,707349,247310,1357668,73371,8603,678437,0
59,1,707936,247477,1406179,73581,8731,702416,0
59,1,729846,253011,1512605,76935,11094,755765,0
59,1,706886,247565,1378792,73629,9417,689106,0
59,1,703377,248045,1368868,73823,9259,684035,0
59,1,703659,247513,1295943,73525,8606,647683,0
59,1,711513,249145,1476767,74260,9775,738118,0
59,1,707373,248198,1264876,73630,7993,632009,0
59,1,712050,249336,1320417,73997,8147,659590,0
59,1,710487,248644,1413548,73872,8181,706306,0
59,1,714769,250549,1384068,74685,8948,691413,0
59,1,713239,249751,1362505,74438,9212,680439,0
59,1,710399,247900,1553414,73347,10641,776317,0
59,1,708855,248006,1555123,73560,9557,777117,0
59,1,717152,251702,1418596,74982,9343,708735,1
59,1,706653,247733,1375773,73469,9207,687455,0
59,1,711361,248283,1519551,73623,9656,759428,0
59,1,705322,249116,1357454,73691,9043,678263,0
59,1,707292,247657,1480703,73880,10080,739698,0
59,1,709347,247551,1363077,73913,8830,681072,0
59,1,712100,248016,1287692,74109,8534,643211,0
59,1,709221,248290,1390137,74160,8847,694586,0
59,1,715427,249490,1338553,74651,9327,668750,0
59,1,730618,252956,1425725,77568,9559,712506,0
59,1,711245,248965,1273720,74288,9019,636479,0
59,1,711842,247843,1511595,73876,9589,755407,0
59,1,713978,248348,1405364,74085,9158,702384,0
59,1,707978,247606,1308989,73804,8844,654102,0
59,1,708794,247079,1309674,73886,9310,654423,0
59,1,711655,248630,1399799,74429,9490,699346,0
60,1,762368,265971,1542705,78465,10181,770899,0
60,1,706777,247476,1405628,73429,8570,702356,0
60,1,704897,246713,1279129,73232,8209,639080,0
60,1,709755,248255,1499051,73633,10297,748896,0
60,1,712972,247783,1352028,73717,8402,675543,0
60,1,700677,247493,1378112,73609,9198,688678,0
60,1,708919,249055,1423971,74234,8882,711088,0
60,1,710435,248926,1401395,74006,9038,700551,0
60,1,708006,247526,1259622,73392,7735,629518,0
60,1,728707,252784,1354650,76918,9170,676970,0
60,1,710045,248531,1399829,73854,9272,699565,0
60,1,709110,248183,1301298,73651,8478,650328,0
60,1,730201,252990,1288970,77033,9652,643948,0
60,1,730180,252496,1573373,76715,11707,786315,0
60,1,708616,247979,1347577,73530,8840,673346,0
60,1,703277,247571,1362139,73434,8903,680525,1
60,1,709311,248790,1345262,73978,9015,671819,0
60,1,710885,248102,1447367,73514,9854,723133,0
60,1,706548,247565,1529314,72926,9109,764207,0
60,1,707881,247779,1454916,73950,10439,726956,0
60,1,709520,247908,1327347,74003,8898,663304,0
60,1,709797,247226,1399329,73779,8873,699335,0
60,1,712105,248739,1332671,74471,8991,665624,0
60,1,732071,252341,1462674,77126,9844,730975,0
60,1,708397,248229,1332038,74206,9006,665533,0
60,1,712858,249615,1236016,74665,8749,617463,0
60,1,735969,253503,1488251,77495,10475,743655,0
60,1,736930,253844,1497901,77662,10278,748918,0
60,1,713428,247823,1350446,73803,9759,674785,0
60,1,716159,248884,1431398,74621,10156,714807,0
60,1,707847,247474,1328663,73859,9637,664081,0
61,1,759075,265350,1457739,78248,9378,728219,0
61,1,705690,247063,1329062,73261,8065,664109,0
61,1,713332,249386,1370239,74406,9110,684609,0
61,1,708720,248294,1610395,73635,10282,804314,0
61,1,730625,251628,1416701,76833,9166,707902,0
61,1,708358,247835,1353078,73776,8545,676225,0
61,1,727794,253045,1329785,77139,8976,664600,0
61,1,708120,248038,1352228,73682,8254,675339,0
61,1,712868,249887,1435248,74442,9295,716989,0
61,1,712095,249187,1334191,73913,8153,666763,0
61,1,711603,248643,1296715,73939,8415,647731,0
61,1,711480,248901,1431690,73870,8976,715315,0
61,1,707616,247847,1248423,73512,8479,624056,0
61,1,714065,248540,1502838,73714,11426,750876,0
61,1,709504,247512,1439236,73397,9772,719149,0
61,1,707440,247657,1378829,73405,9689,689010,0
61,1,708279,248301,1348967,73616,8733,673935,1
61,1,708856,247620,1620910,73436,10073,809224,0
61,1,703557,247329,1424967,72829,9124,711721,0
61,1,715101,251138,1631950,75297,10667,815027,0
61,1,707435,246970,1379118,73680,8946,689072,0
61,1,714575,249516,1300817,74796,8458,649667,0
61,1,708161,247425,1434023,73834,8929,716556,0
61,1,710211,247723,1425710,73795,9653,712474,0
61,1,707193,248206,1303641,74390,8871,651078,0
61,1,714360,248944,1286223,74288,8693,642780,0
61,1,711976,248029,1488345,73932,9689,743938,0
61,1,714220,248961,1345261,74283,8592,672297,0
61,1,733467,253090,1460762,77341,10104,729976,0
61,1,714973,247854,1392381,74147,9657,695584,0
61,1,713501,250183,1337524,75004,10234,668239,0
62,1,765318,268140,1506791,79344,10448,752286,0
62,1,709970,247442,1277548,73422,8663,638516,0
62,1,733591,253081,1419001,77694,9261,709110,0
62,1,707478,248208,1498372,73611,10442,748152,0
62,1,711112,248028,1443658,73835,8511,721533,0
62,1,706729,247227,1362154,73516,8552,680812,0
62,1,704018,247979,1419881,73709,8363,709498,0
62,1,711100,249610,1364728,74400,9061,681137,0
62,1,728471,252455,1407637,76893,10011,703084,0
62,1,706757,248277,1471533,73609,8329,735489,0
62,1,734530,253230,1352054,77209,9068,675564,0
62,1,713887,250003,1455358,74428,8716,726993,0
62,1,710207,249892,1308023,74400,8953,653194,0
62,1,737214,256843,1521885,76040,11833,760528,0
62,1,707721,247193,1330018,73270,9153,664597,0
62,1,711489,249830,1337830,74343,9409,668182,0
62,1,711194,249498,1353294,74288,8710,676078,1
62,1,708465,247803,1390677,73456,8374,695047,0
62,1,702379,246647,1314359,72666,9116,656427,0
62,1,726270,251598,1568077,76931,10933,783644,0
62,1,707253,246922,1413588,73653,9369,706321,0
62,1,730573,252084,1434710,77219,10151,716895,0
62,1,709781,247793,1319669,74001,9587,659335,0
62,1,712303,247733,1276540,73831,8983,637717,0
62,1,714330,248461,1399818,74309,9194,699249,0
62,1,715253,250562,1238367,75022,8056,618499,0
62,1,711613,248639,1361423,74179,9496,680358,0
62,1,713542,248280,1455572,74022,9613,727485,0
62,1,711553,248006,1305676,73919,9188,652326,0
62,1,713778,247373,1325812,73968,9664,662490,0
62,1,727951,252287,1327471,77265,9918,663200,0
63,1,762183,266205,1457793,78560,10106,728433,0
63,1,706668,246571,1357994,73038,8745,678630,0
63,1,708594,248021,1276072,73743,8069,637637,0
63,1,710138,248815,1480880,73817,11783,739938,0
63,1,713898,249067,1397828,74315,8862,698340,0
63,1,707477,247803,1361762,73727,8244,680448,0
63,1,707779,249777,1405956,74457,9336,702191,0
63,1,728560,253009,1455146,77132,9968,727047,0
63,1,706721,248050,1363631,73686,7873,680900,0
63,1,707213,248912,1418598,73877,8071,709025,0
63,1,714127,248951,1365922,74063,7967,682493,0
63,1,709185,248410,1382844,73728,9175,690995,0
63,1,707284,248557,1240085,73782,8873,619571,0
63,1,714677,249314,1561737,74132,11269,780155,0
63,1,710474,248091,1442994,73638,9261,720987,0
63,1,727121,252591,1391014,76855,10404,695071,0
63,1,710708,247888,1407145,73533,9135,703154,1
63,1,714089,250015,1287343,74459,8753,643086,1
63,1,708956,247216,1380915,73270,8100,690204,0
63,1,709900,247759,1406177,73477,9760,702282,1
63,1,708182,247649,1524118,73374,9546,761636,1
63,1,712022,247778,1383025,73445,8625,691105,1
63,1,700209,247928,1358739,73061,7902,678947,1
63,1,704324,248694,1243157,73283,7846,621225,1
63,1,699991,247836,1442421,73015,9314,720944,1
63,1,703191,247157,1322426,72753,8913,660872,0
63,1,701557,247702,1324920,73146,9539,662148,1
63,1,708726,248366,1456544,74169,9906,727949,1
63,1,702567,247460,1397827,73870,8309,698566,1
63,1,712334,249902,1295561,74914,9646,647066,1
63,1,704773,247033,1454528,73745,9455,726370,0
63,1,707750,248590,1387835,74284,10063,693162,1
63,1,705686,247354,1361887,73800,8829,680552,1
63,1,707975,247527,1487760,73897,9349,743568,1
63,1,707760,249215,1243495,74757,9200,620812,1
63,1,706744,247637,1354536,74000,9763,676635,1
63,1,709070,247366,1310253,73879,8781,654634,1
63,1,712667,249079,1320467,74602,8770,659618,0
63,1,707054,247733,1412016,74000,9312,705577,1
63,1,710897,248012,1308356,74083,9534,653516,1
63,1,703084,247523,1354921,73934,8804,677293,1
63,1,706615,247719,1291648,73935,9016,645321,1
63,1,708755,248416,1243869,74181,9050,621466,1
63,1,707820,246944,1270591,73763,8833,634773,0
63,1,703834,247142,1361366,73780,8939,680292,1
63,1,706616,247634,1398971,73952,8932,698942,1
63,1,705702,247800,1424876,74038,9229,711980,1
63,1,707837,247438,1270550,73825,9157,634853,1
63,1,711886,247805,1471230,74030,9087,735152,1
63,1,710703,249856,1298349,74917,8839,648396,1
63,1,710324,248574,1262270,74397,8856,630573,0
63,1,709993,248889,1301994,74345,9742,650486,1
63,1,710406,248480,1270571,74198,8466,634644,1
63,1,714780,249593,1374398,74718,9372,686385,1
63,1,706209,247552,1358696,73792,8649,678881,1
63,1,707715,247398,1287163,73787,8719,643225,1
63,1,712230,247586,1372295,73791,9375,685589,0
63,1,704230,248603,1379289,74142,8243,689271,1
63,1,707730,248330,1346992,74118,9857,673073,1
63,1,710942,248893,1427847,74496,9106,713760,1
63,1,712404,248198,1444599,74211,9411,721434,0
63,1,712420,249072,1297886,74414,9140,648415,1
63,1,712610,248682,1347168,74303,9432,673399,1
63,1,712481,249252,1472358,74469,10045,735860,1
63,1,708652,248456,1413665,74211,9156,706264,1
63,1,712878,249381,1353557,74357,8520,676416,0
63,1,715409,250527,1250171,74928,9017,624293,1
63,1,712831,248305,1377549,74050,9310,688346,1
63,1,711375,249090,1305002,74300,8751,652138,1
63,1,714366,248626,1397513,74138,9646,698381,0
63,1,709346,248192,1397790,74022,9173,698535,1
63,1,708018,248871,1345239,74220,9503,672092,1
63,1,710879,248723,1428546,74211,9693,713873,1
63,1,714315,250694,1339620,75084,9312,669133,1
63,1,707138,248133,1416443,73985,9211,707875,1
63,1,711165,248809,1390832,74202,9381,694938,1
63,1,715142,248967,1423999,74302,9507,711624,0
63,1,710758,249844,1401865,74484,8598,700517,1
63,1,716338,250562,1310144,75150,8580,654307,1
63,1,712889,248053,1415335,74052,8275,707270,1
63,1,718925,250415,1403095,75018,8876,700749,1
63,1,705525,246725,1326147,73516,9379,662696,1
63,1,710943,248380,1349724,74038,9204,674343,0
63,1,709953,248327,1441789,74038,10111,720283,1
63,1,718375,250447,1409137,74947,9301,703902,1
63,1,709770,247695,1364785,73764,9506,681849,1
63,1,710247,248519,1441826,74168,9442,720453,1
63,1,710314,248003,1314932,73978,8510,657112,1
63,1,713475,248574,1456113,74330,9263,727468,1
63,1,710902,247581,1281055,74069,9233,640141,1
63,1,757132,260349,1635993,79776,11332,817387,0
63,1,709520,247099,1458749,73920,9683,728836,1
63,1,700134,246717,1356471,73839,9004,677801,1
63,1,707108,248757,1452996,74673,10593,725357,1
63,1,707373,248002,1422968,74177,11026,710806,1
63,1,704964,247301,1458212,73909,9724,727994,1
63,1,703733,247403,1269920,74022,8829,634420,1
63,1,707814,247771,1381332,74131,8156,690234,1
63,1,701713,246114,1236705,73563,8486,617827,0
63,1,709183,248197,1242992,74132,8587,620770,1
63,1,706323,247724,1485349,74003,10572,742171,1
