0,0,25,645653.840000,221191.480000,1252424.520000,66637.640000,7721.760000,626239.240000,17379.025256,5925.622507,76019.673616,1734.582275,800.210136,38079.111300
0,1,1,756226.000000,264780.000000,1348318.000000,78212.000000,8202.000000,674171.000000,0.000000,0.000000,0.000000,0.000000,0.000000,0.000000
1,0,24,643599.333333,220226.125000,1242648.875000,66479.625000,7686.500000,621300.333333,12066.706868,3874.892507,51419.771181,1400.351141,712.676645,25684.075594
1,1,1,764119.000000,267185.000000,1440805.000000,79200.000000,8891.000000,720331.000000,0.000000,0.000000,0.000000,0.000000,0.000000,0.000000
2,0,24,643200.291667,220214.500000,1230791.000000,66272.250000,7636.250000,615419.625000,15247.748805,5374.916418,60952.666859,1614.822339,545.304216,30493.451539
2,1,1,754188.000000,265539.000000,1448774.000000,78421.000000,9696.000000,724438.000000,0.000000,0.000000,0.000000,0.000000,0.000000,0.000000
3,0,24,644972.000000,220792.458333,1265625.875000,66575.875000,7763.083333,632777.041667,14874.190813,4845.428842,105820.636947,1468.988323,739.137387,52832.861888
3,1,1,756054.000000,266302.000000,1325916.000000,78734.000000,8705.000000,662929.000000,0.000000,0.000000,0.000000,0.000000,0.000000,0.000000
4,0,24,643889.166667,220478.250000,1229239.708333,66447.416667,7565.583333,614549.708333,15472.450298,5294.541342,58335.223115,1629.863131,625.540827,29071.806171
4,1,1,756365.000000,265789.000000,1354432.000000,78493.000000,8247.000000,677243.000000,0.000000,0.000000,0.000000,0.000000,0.000000,0.000000
5,0,24,643498.875000,220697.000000,1237644.041667,66358.666667,7674.458333,618807.208333,16412.815659,5583.575982,75821.855216,1581.286572,805.158524,37872.874529
5,1,1,753383.000000,265164.000000,1334302.000000,78288.000000,8374.000000,667201.000000,0.000000,0.000000,0.000000,0.000000,0.000000,0.000000
6,0,24,646720.541667,221387.208333,1238797.791667,66789.708333,7733.458333,619380.958333,17609.967937,5547.538102,57963.653057,1880.065790,627.581135,28979.454681
6,1,1,756754.000000,265926.000000,1360147.000000,78601.000000,8483.000000,680094.000000,0.000000,0.000000,0.000000,0.000000,0.000000,0.000000
7,0,24,644596.083333,220557.250000,1238844.250000,66504.708333,7586.500000,619399.125000,15411.592163,5089.207062,65495.630625,1596.454652,535.306921,32733.758230
7,1,1,759699.000000,266023.000000,1353866.000000,78609.000000,8519.000000,676901.000000,0.000000,0.000000,0.000000,0.000000,0.000000,0.000000
8,0,25,644081.440000,220633.760000,1228437.360000,66564.840000,7672.400000,614202.760000,14790.076306,4925.425880,72417.235293,1575.259463,763.240303,36268.135323
8,1,1,761312.000000,267899.000000,1446092.000000,79487.000000,8642.000000,722958.000000,0.000000,0.000000,0.000000,0.000000,0.000000,0.000000
9,0,25,647007.200000,221310.840000,1242818.040000,66901.800000,7753.960000,621383.240000,18750.946833,5920.706793,54494.736901,2125.697589,666.789351,27197.388590
9,1,1,756572.000000,265654.000000,1480886.000000,78477.000000,9130.000000,740495.000000,0.000000,0.000000,0.000000,0.000000,0.000000,0.000000
10,0,25,646555.640000,221170.280000,1264182.280000,66902.440000,7795.480000,632004.000000,17711.927021,5485.715607,83363.236393,1990.955852,812.129010,41612.556418
10,1,1,782776.000000,271483.000000,1496456.000000,82170.000000,9386.000000,748313.000000,0.000000,0.000000,0.000000,0.000000,0.000000,0.000000
11,0,25,643064.480000,220312.480000,1240083.120000,66324.600000,7699.800000,619946.200000,14973.459865,5104.942210,67931.813241,1505.877844,664.656122,33934.252086
11,1,1,764440.000000,267644.000000,1391845.000000,79345.000000,8826.000000,696011.000000,0.000000,0.000000,0.000000,0.000000,0.000000,0.000000
12,0,25,646241.320000,220924.680000,1247958.400000,66727.320000,7737.400000,623954.640000,15010.618212,5016.321814,66508.314777,1665.305419,674.348871,33261.614949
12,1,1,761103.000000,267345.000000,1427453.000000,79190.000000,9010.000000,713632.000000,0.000000,0.000000,0.000000,0.000000,0.000000,0.000000
13,0,25,646506.800000,221284.280000,1247038.920000,66836.160000,7724.600000,623478.200000,15025.984214,4946.376254,74435.491902,1607.512505,610.157291,37154.202801
13,1,1,757850.000000,265468.000000,1365568.000000,78381.000000,8780.000000,682755.000000,0.000000,0.000000,0.000000,0.000000,0.000000,0.000000
14,0,25,643648.080000,220505.800000,1236944.280000,66423.440000,7709.440000,618405.000000,14996.632771,5461.638611,91591.174885,1639.696754,841.806632,45675.841578
14,1,1,757255.000000,265674.000000,1294539.000000,78501.000000,8416.000000,647170.000000,0.000000,0.000000,0.000000,0.000000,0.000000,0.000000
15,0,31,644583.000000,220538.322581,1262655.225806,66621.774194,7802.225806,631320.096774,15886.253120,5064.246423,84340.554400,1861.810456,650.006983,42121.668238
15,1,1562,711923.809219,248862.307298,1411689.021127,74296.829065,9258.723431,705833.862356,8560.708839,2328.100104,86673.061068,1145.248811,736.389556,43309.278218
