-1,0,0.117729
-1,1,0.117036
-1,2,0.117729
-1,3,0.117729
-1,4,0.117729
-1,5,0.117729
-1,6,0.117729
-1,7,0.176593
1,0,0.121771
1,1,0.119926
1,2,0.121771
1,3,0.121771
1,4,0.121771
1,5,0.121771
1,6,0.121771
1,7,0.149446
