0,1,760983,265491,1335531,78342,8387,667798,0
0,-1,725269,251248,1487107,74898,9046,743581,0
0,-1,722334,250736,1308925,74764,8191,654526,2
0,1,761324,266274,1309517,78643,8437,654771,1
0,-1,717896,248485,1330741,73765,8157,665406,0
0,1,729110,252193,1351259,76745,9727,675643,0
0,-1,664705,229821,1296744,68592,8180,648411,0
0,1,704726,247080,1388324,73259,8775,694153,0
0,-1,670560,232210,1337249,69590,8081,668679,0
0,1,705575,247408,1310019,73459,8486,654792,0
0,-1,668150,229532,1234669,68538,7426,617369,0
0,-1,661269,229827,1322116,68708,7588,661081,0
0,1,716121,249867,1411789,74449,8870,705412,0
0,-1,666762,230620,1321392,68913,8289,660626,0
0,-1,661902,229673,1198696,68658,7996,599381,0
0,1,707623,247365,1400509,73431,9099,700219,0
0,-1,685225,234348,1290511,72006,8729,645278,0
0,-1,671523,231136,1310866,69191,8174,655309,0
0,1,710826,247968,1562475,73794,9545,781090,0
0,-1,666993,230532,1239128,68792,8253,619641,0
0,1,700580,247072,1463395,73415,9611,731731,0
0,-1,668855,230482,1255330,68791,9022,627630,0
0,-1,666225,230376,1309470,68843,8492,654531,0
0,1,708374,248670,1394903,74012,8690,697340,0
0,-1,667628,230216,1361063,68930,9042,680318,0
0,1,711411,249271,1534660,74349,9540,767416,0
0,-1,672444,231162,1329609,69378,9133,664923,0
0,-1,692896,235467,1245372,72462,9100,622654,0
0,1,706104,247909,1256536,73703,8061,628284,0
0,-1,686468,238666,1204599,71412,7987,602346,0
0,1,706401,247320,1366320,73525,8004,683194,0
0,-1,659966,230367,1388812,69019,8798,694819,0
0,-1,684918,234952,1295855,72252,8077,647860,0
0,1,703822,248397,1435370,73787,8350,717578,0
0,-1,665647,230200,1296318,68931,7421,648175,0
0,1,708756,247760,1347471,73606,8208,673665,0
0,-1,687343,235272,1379746,72316,9745,689838,0
0,-1,672567,231971,1326560,69602,8379,663358,0
0,1,706843,247818,1369742,73550,8955,684873,0
0,-1,662785,230345,1227771,68869,7761,613909,0
0,-1,688893,236016,1320056,72543,8156,659991,0
0,1,707729,248448,1461924,73703,9642,730582,0
0,-1,664433,231495,1216892,69304,7932,608488,0
0,1,715065,250467,1389896,74688,8726,695027,0
0,-1,669852,231662,1454245,69366,8748,727041,0
0,1,718286,250115,1416688,74169,10049,708337,0
0,-1,667120,230280,1226277,68824,7877,613196,0
0,1,715155,250144,1417164,74468,9683,708320,0
0,-1,662052,230386,1384463,68828,8399,692135,0
0,1,710252,248437,1305203,73717,9371,652620,0
0,-1,665695,230714,1199304,69014,7319,599691,0
0,-1,668804,232600,1254225,69813,8017,627182,0
0,1,709535,247939,1377201,73558,8756,688600,0
0,-1,666471,230375,1253368,68931,7121,626726,0
0,1,709618,248008,1398766,73571,9244,699361,0
0,-1,667370,230861,1428787,68970,7907,714424,0
0,1,709053,248627,1455667,73526,10645,727878,0
0,-1,666864,231188,1254112,69138,8407,626912,0
0,1,708571,247570,1393994,73380,9532,697035,0
0,-1,672093,232284,1255597,69737,8873,627948,0
0,-1,671183,231376,1315528,69098,9051,657520,0
0,-1,671298,232706,1384023,69703,8785,692110,0
0,1,713274,249053,1383418,74115,9608,691720,0
0,-1,688845,235286,1326421,72240,9938,662843,0
0,1,711269,249298,1359758,74143,8713,679891,0
0,-1,691785,236143,1340562,72572,10031,670095,0
0,-1,664612,231529,1286936,68995,8636,643199,0
0,1,731712,252353,1353309,76761,9125,676481,0
0,-1,671333,231640,1393481,69085,8764,696774,0
0,1,701742,247350,1437941,72789,8890,718623,0
0,-1,673244,232956,1342167,69817,8591,671220,0
0,1,705433,247346,1380688,72798,8329,690247,0
0,-1,669432,232166,1243459,69354,9149,621675,0
0,1,708035,247292,1331676,73721,9344,665877,0
0,-1,669000,230918,1273560,69007,8783,636592,0
0,-1,671564,231857,1280174,69329,8848,640146,0
0,1,707730,247674,1405411,73970,9152,702882,0
0,-1,691358,235682,1266193,72364,9022,632997,0
0,1,711803,248757,1292289,74504,8518,646196,0
0,-1,666810,230479,1226268,68913,8134,613071,0
0,1,706992,247426,1334482,73876,9257,667250,0
0,-1,665456,230451,1329653,68831,8184,664829,0
0,-1,669917,230745,1306966,69011,8776,653508,0
0,1,711502,247855,1469247,74008,9350,734495,0
0,-1,690102,235982,1266843,72441,8330,633350,0
0,1,717048,249563,1291761,74786,9310,645782,0
0,-1,688694,235183,1280101,72204,8659,640008,0
0,1,710462,248199,1309383,74022,8602,654413,0
0,-1,671456,231106,1254492,68855,8992,627084,0
0,-1,689286,236202,1328127,72286,9252,663867,0
0,1,709919,247160,1390495,73533,8423,695281,0
0,-1,685962,234747,1300105,71974,9015,650016,0
0,1,710773,248667,1468149,74269,9698,733811,0
0,-1,669993,230703,1329664,68820,8743,664873,0
0,-1,669061,231939,1282094,69457,7656,641103,0
0,1,713487,249319,1369148,74580,8427,684617,0
0,-1,673759,231722,1324587,69371,8663,662357,0
0,1,712767,248522,1433302,74171,9244,716687,0
0,-1,671901,230718,1369202,68868,8141,684559,0
0,-1,665601,229855,1344663,68598,7911,672370,0
0,1,709704,248339,1691252,74056,9681,845659,0
0,-1,673533,232540,1262284,69771,8078,630797,0
0,1,709899,247933,1401234,73941,8631,700649,0
0,-1,669416,230724,1334054,68888,8174,667078,0
0,1,713974,250252,1291132,74988,9081,645697,0
0,-1,671653,232056,1318161,69419,8134,659060,0
0,-1,667420,229781,1406187,68522,8688,703136,0
0,1,717713,249113,1535889,74363,9880,768032,0
0,-1,691962,235196,1437607,72108,9809,718652,0
0,-1,658245,230462,1279318,68239,7011,639652,0
0,1,715406,248197,1367242,73938,9163,683593,0
0,-1,664166,231081,1353751,68518,8546,676845,0
0,1,714544,249019,1363186,74217,9450,681609,0
0,-1,666697,231410,1231503,68718,7872,615719,0
0,1,733560,252821,1438821,77341,10609,719298,0
0,-1,660055,229531,1379742,67960,8472,689805,0
0,1,712030,246779,1440624,73756,9793,720688,0
0,-1,664371,230431,1375197,68443,8543,687655,0
0,-1,669824,231431,1338093,69614,8460,669087,0
0,1,707448,247250,1440308,73962,9481,720197,0
0,-1,663572,229698,1301333,68959,8167,650705,0
0,1,731724,252758,1503964,77394,9973,751957,0
1,-1,722725,248378,1234478,73701,8524,617265,0
1,1,708582,248500,1440642,73916,10038,720284,0
1,-1,661811,230282,1281123,68845,7823,640329,2
1,1,710358,249703,1383031,74476,8672,691431,1
1,-1,666718,231009,1208218,69003,7981,604415,0
1,1,703618,247621,1288991,73508,8172,644686,0
1,-1,686899,234832,1347489,72041,8408,673408,0
1,1,708478,248941,1408921,74144,8809,704345,0
1,-1,688267,234391,1419476,71992,9069,709775,0
1,-1,664007,230403,1255927,68888,7748,627756,0
1,1,711408,248778,1324900,73901,9092,662401,0
1,-1,664428,230215,1223858,68831,7329,611975,0
1,-1,663119,230137,1249159,68843,8757,624561,0
1,1,704714,246992,1416304,73325,9229,707882,0
1,-1,662344,229172,1320576,68399,8251,660378,0
1,-1,674259,232480,1378642,69895,7805,689170,0
1,1,713661,249039,1506269,74285,10412,753523,0
1,-1,672979,233263,1323251,69943,8734,661543,0
1,1,709299,250182,1322969,74743,9417,661542,0
1,-1,669995,231190,1214215,69005,8586,607059,0
1,-1,688513,235335,1301519,72273,9283,650718,0
1,1,713673,250458,1428343,74918,8751,714127,0
1,-1,669061,231173,1335650,69275,8652,667755,0
1,1,705875,247516,1366847,73492,8295,683470,0
1,-1,672528,232524,1515262,69940,9888,757627,0
1,-1,670194,231196,1398439,69392,8480,698960,0
1,1,709202,249137,1368236,74251,8601,684174,0
1,-1,659159,229824,1328829,68744,8338,664458,0
1,1,711391,249544,1548094,74375,8281,774105,0
1,-1,666703,231388,1393164,69515,9275,696368,0
1,-1,666084,231197,1237844,69301,7708,618896,0
1,1,703638,247478,1496151,73484,10311,747876,0
1,-1,683807,234371,1327520,72068,8100,663749,0
1,1,706021,247563,1391871,73556,7671,695989,0
1,-1,667554,231499,1304689,69226,8063,652397,0
1,-1,667993,230770,1212774,69073,7793,606439,0
1,1,711565,248019,1366742,73565,10164,683085,0
1,-1,668575,232068,1297586,69636,7694,648863,0
1,-1,663422,230744,1312512,69003,7553,656144,0
1,1,709180,247925,1362231,73573,9174,680940,0
1,-1,668123,231021,1193456,69147,6912,596762,0
1,1,715598,249531,1410092,74193,9510,705053,0
1,-1,675052,233141,1346425,70030,7828,673277,0
1,1,712422,248710,1395394,73697,10109,697653,0
1,-1,668293,230924,1218977,69140,8112,609539,0
1,-1,667100,232585,1389027,69861,9418,694420,0
1,1,712735,249585,1416882,74074,9776,708473,0
1,-1,671904,233275,1280709,70157,7647,640425,0
1,1,708173,247970,1330272,73498,9467,665038,0
1,-1,684283,234957,1206297,72194,8706,603137,0
1,1,714035,249589,1444007,74294,9185,722028,0
1,-1,687541,235471,1375099,72391,7871,687483,0
1,-1,670697,231821,1390349,69264,8653,695245,0
1,1,712280,249309,1501452,74152,9496,750606,0
1,1,706339,248238,1463698,73473,10196,731842,0
1,-1,663210,230153,1347594,68780,8516,673611,0
1,1,708500,247372,1298846,73351,9686,649466,0
1,-1,666734,230348,1273363,68874,8877,636819,0
1,-1,665902,229809,1291832,68553,8099,645718,0
1,-1,667097,231316,1316167,69077,8902,658125,0
1,1,730108,252369,1414855,76749,9951,707370,0
1,-1,665961,230547,1365498,68972,8613,682851,0
1,1,711245,247781,1289050,73493,8987,644450,0
1,-1,674166,231640,1347689,69327,8174,673759,0
1,1,712119,249037,1404552,74037,9617,702343,0
1,-1,666904,232220,1351520,69300,8762,675714,0
1,-1,669365,231840,1361236,69218,8893,680609,0
1,1,702508,247417,1408611,72830,9220,704118,0
1,-1,669813,231058,1334524,68960,8869,667161,0
1,1,707497,248459,1545209,73208,9926,772549,0
1,-1,671694,230948,1236610,69037,8555,618325,0
1,1,729211,251927,1322178,77128,9861,661064,0
1,-1,674299,233138,1380869,69979,8653,690510,0
1,-1,670966,232168,1263896,69596,8877,631807,0
1,1,706803,247773,1417297,73991,8835,708569,0
1,-1,670330,230968,1339183,69058,7923,669599,0
1,1,743046,258429,1396126,77401,8893,698137,0
1,-1,686917,235007,1232723,72176,8409,616269,0
1,1,706037,247689,1337820,73960,8987,668887,0
1,-1,665708,230560,1207247,68846,7790,603610,0
1,-1,666385,230030,1378134,68731,8077,689107,0
1,1,714145,249413,1281996,74729,8870,640939,0
1,1,711207,247826,1404083,73954,8852,701780,0
1,-1,667470,231106,1347871,69114,7573,673949,0
1,-1,694755,239248,1306630,71359,8699,653260,0
1,1,710801,248173,1361252,74196,8036,680742,0
1,-1,674824,232729,1346102,69629,8796,672935,0
1,-1,667474,231226,1368905,68858,8730,684415,0
1,1,734354,252163,1559972,77054,10534,779817,0
1,-1,665516,230676,1324261,68848,8560,662101,0
1,-1,673929,232762,1292976,69795,8081,646522,0
1,1,711255,248968,1580009,74339,9656,789303,0
1,-1,687967,235533,1235405,72248,8460,617652,0
1,1,731070,253065,1470695,77617,8789,735315,0
1,-1,669137,230232,1309973,68715,8408,655024,0
1,1,717332,250235,1407368,74960,9905,703019,0
1,-1,670773,230586,1326339,68781,8690,663191,0
1,-1,664067,230330,1311672,68698,7836,655878,0
1,1,763283,263448,1631781,80510,11285,815529,0
1,-1,714995,244046,1421904,74703,9532,710971,0
1,1,714117,248599,1505231,74074,9717,752650,0
1,-1,672392,232365,1238602,69560,8306,619208,0
1,1,707464,247312,1420148,73753,9503,710110,0
1,-1,672971,232530,1249739,69688,8041,624789,0
1,-1,691090,235989,1438254,72366,9175,719310,0
1,1,720616,250576,1309691,75018,9055,654902,0
1,-1,669964,230583,1311559,68841,8217,655814,0
1,-1,674928,230766,1386716,68762,7129,693392,0
1,1,713406,247694,1403814,73726,9383,701943,0
1,-1,661600,230199,1333934,68106,7987,666949,0
1,1,708923,247176,1441449,73598,9680,720744,0
1,-1,661553,229848,1340439,68076,8207,670261,0
1,1,709377,247702,1277565,73880,8869,638743,0
1,-1,682668,235090,1384342,71631,9319,692133,0
1,1,714063,247369,1473825,73931,10284,736941,0
1,-1,669571,232585,1301846,69251,8084,650946,0
1,-1,666960,230511,1319623,69321,8390,659855,0
1,1,727370,251846,1301805,77285,9446,650880,0
1,-1,664359,230483,1190438,69359,7853,595261,0
1,1,708186,247086,1367134,73667,9019,683483,0
2,-1,744112,253775,1334668,77246,9729,667368,0
2,1,704415,247311,1380679,73275,8885,690350,0
2,-1,665231,230431,1336585,68828,8045,667964,0
2,1,702266,247591,1321772,73501,8955,660836,0
2,-1,665187,229811,1306176,68587,8015,653133,0
2,-1,665597,229936,1176931,68684,7628,588522,2
2,1,702563,248087,1293577,73723,8200,646656,1
2,-1,667741,229816,1359610,68679,8702,679852,0
2,1,704740,247195,1359005,73405,8674,679602,0
2,-1,662092,230483,1324428,68950,7716,662295,0
2,1,713124,248921,1309759,73980,9084,654914,0
2,-1,666918,231396,1348621,69295,8098,674008,0
2,-1,660124,229302,1366978,68432,8304,683587,0
2,1,705747,247522,1388851,73472,9298,694386,0
2,-1,666937,231179,1252677,69127,8466,626211,0
2,-1,688146,234730,1440664,72137,8351,720353,0
2,1,708301,247578,1378197,73647,8809,689083,0
2,-1,664154,230054,1272693,68668,8338,636282,0
2,1,723856,252361,1272889,77003,9173,636431,0
2,-1,670495,231344,1299382,69067,8927,649700,0
2,-1,672350,231557,1347181,69429,9397,673769,0
2,1,705743,247895,1277883,73797,8373,638864,0
2,-1,667468,230521,1239824,69020,8602,619840,0
2,1,705995,247880,1262210,73593,8152,631137,0
2,-1,669875,231761,1422335,69626,9812,711182,0
2,1,706331,247063,1367135,73326,8313,683453,0
2,-1,670738,230642,1315340,69106,8433,657763,0
2,1,706237,247939,1277644,73646,8419,638869,0
2,-1,665423,231137,1245659,69260,7909,622552,0
2,-1,667878,231453,1345760,69373,8776,672508,0
2,-1,662573,230273,1220565,69000,8095,610259,0
2,1,709525,247877,1358481,73656,8747,679282,0
2,-1,665395,230570,1395938,69093,7526,697959,0
2,1,704476,246951,1328548,73389,8371,664310,0
2,-1,666239,231327,1316875,69219,8320,658370,0
2,-1,670080,231229,1334997,69219,8099,667279,0
2,1,711359,248282,1439173,73621,9620,719729,0
2,-1,665099,231517,1351726,69304,8663,675907,0
2,-1,664376,230449,1189748,68913,7180,594965,0
2,1,709607,248800,1405179,73872,9191,702635,0
2,-1,670545,231991,1328425,69578,7689,664271,0
2,1,713897,249482,1438978,74340,9468,719351,0
2,-1,669933,231637,1219215,69332,7358,609639,0
2,1,721292,251043,1423492,74723,9757,711703,0
2,-1,667663,230517,1178843,68980,7952,589479,0
2,-1,687460,235867,1256574,72499,8657,628279,0
2,1,711585,248397,1392669,73700,9374,696340,0
2,-1,666579,230417,1248397,68861,7606,624240,0
2,1,710722,248229,1314966,73722,9576,657377,0
2,-1,662783,230552,1214809,69005,8108,607452,0
2,1,706688,247594,1293437,73438,8623,646695,0
2,-1,667369,231339,1424443,69239,7859,712257,0
2,1,713015,248268,1366007,73670,8869,682965,0
2,-1,669568,231125,1286670,68990,8029,643133,0
2,1,707874,248462,1549518,73483,9622,774553,0
2,-1,663369,230212,1502128,68824,8725,751106,0
2,1,712872,250010,1390486,74443,8818,695332,0
2,-1,663951,230145,1310081,68799,7830,655079,0
2,-1,667360,230644,1315535,68817,8496,657260,0
2,-1,664281,230667,1266753,68869,9055,633088,0
2,1,707875,247519,1524841,73320,10917,762443,0
2,-1,671694,231375,1390334,69240,9841,695152,0
2,1,715707,249980,1300464,74412,8894,650282,0
2,-1,673331,231847,1338347,69383,8455,669068,0
2,1,707959,247246,1653016,73312,9869,826298,0
2,-1,663703,231765,1228544,69168,8258,613912,0
2,-1,668984,232155,1401311,69290,8880,700553,0
2,1,721851,252177,1444993,76205,10678,722488,0
2,-1,673434,233259,1366086,69946,8737,683000,0
2,1,707341,247871,1662370,72958,10030,831132,0
2,-1,673626,231942,1358603,69313,9017,679324,0
2,1,709373,247685,1285108,73940,8801,642582,0
2,-1,667886,230938,1436884,69051,8737,718337,0
2,-1,668854,231672,1213053,69205,8675,606375,0
2,1,710217,248930,1302112,74499,8013,651074,0
2,-1,667234,230191,1304697,68694,7472,652445,0
2,1,709219,246818,1232352,73604,8723,616195,0
2,-1,666498,230544,1161831,68934,7902,580874,0
2,1,703703,247016,1382584,73682,9336,691345,0
2,-1,671019,233167,1324165,70017,8910,662008,0
2,-1,672267,232411,1304350,69801,8189,652182,0
2,1,705867,246197,1335008,73518,8894,667351,0
2,1,707590,246789,1354555,73603,8315,677230,0
2,-1,670332,232201,1323585,69666,8459,661716,0
2,-1,673414,232083,1328700,69555,9195,664352,0
2,1,709265,247790,1499898,73874,9048,749979,0
2,-1,667830,230640,1413879,68728,9294,706980,0
2,-1,671470,231839,1410744,69188,9699,705326,0
2,1,711728,247433,1413712,73636,9339,706905,0
2,-1,663591,230010,1230213,68589,7665,614909,0
2,-1,667019,230450,1345750,68788,8500,672908,0
2,1,711485,249341,1479112,74520,9257,739642,0
2,-1,667998,230524,1200292,68767,7675,600184,0
2,1,711881,248323,1462463,74257,8942,731256,0
2,-1,668487,230000,1350176,68556,8504,675111,0
2,1,712588,248941,1365025,74380,9661,682112,0
2,-1,668261,230116,1287033,68615,8593,643537,0
2,-1,671203,231928,1260795,69514,8121,630450,0
2,1,713923,249977,1431438,74751,10132,714974,0
2,-1,667579,230691,1364169,68852,8447,681936,0
2,1,714784,249165,1387930,74514,9597,693825,0
2,-1,666770,230149,1327467,68650,8776,663782,0
2,1,709259,249222,1300664,74564,8882,650398,0
2,-1,691961,234427,1383946,71824,10024,692139,0
2,-1,668276,230543,1410913,68798,8243,705267,0
2,1,711811,247886,1307796,73714,8712,653922,0
2,-1,669732,230465,1300977,68750,8750,650431,0
2,-1,695114,235387,1379770,72124,8772,689854,0
2,1,714561,248351,1267939,74154,8325,634008,0
2,-1,661747,230520,1388357,68260,8580,694048,0
2,1,711009,247677,1367850,73717,9139,683971,0
2,-1,689147,235962,1504963,72322,10366,751976,0
2,1,716548,249543,1393467,74721,9430,696756,0
2,-1,664792,230381,1264334,68284,8106,632187,0
2,1,713499,247566,1326821,74051,9930,663358,0
2,-1,663773,230063,1365788,68286,8442,682933,0
2,-1,662793,229420,1327114,68920,8132,663585,0
2,1,703971,247122,1274711,73926,8139,637349,0
2,-1,667124,231922,1227328,70010,8492,613719,0
2,1,706737,247204,1437077,73883,9440,718481,0
3,-1,720150,248394,1279850,73684,8259,639950,0
3,1,743336,260439,1491256,76797,9089,745764,0
3,-1,665436,230085,1319468,68669,8510,660150,0
3,1,702898,247082,1381877,73336,9074,690979,0
3,-1,665440,230325,1216455,68890,7245,608264,0
3,-1,665337,230264,1412650,68869,8963,706306,2
3,-1,672974,232400,1316567,69693,8034,658308,0
3,1,703839,247056,1409921,73319,8924,704945,0
3,-1,667160,231928,1330780,69663,8834,665393,0
3,1,704996,247665,1326573,73572,9355,662853,1
3,1,709385,248253,1307458,73777,8571,653892,0
3,-1,665453,230028,1263853,68775,8218,631832,0
3,-1,669279,230188,1325120,68779,8376,662621,0
3,1,710600,248061,1312475,73594,9599,656166,0
3,-1,667036,230412,1271614,68885,9106,635823,0
3,1,709148,247295,1376693,73526,8728,688255,0
3,-1,668192,230800,1394453,69079,8077,697281,0
3,-1,664839,230583,1287586,68836,8087,643829,0
3,1,702190,247803,1304381,73762,9112,652212,0
3,-1,669186,231247,1329213,68943,8405,664579,0
3,-1,669295,230713,1215772,68905,7960,607803,0
3,1,703729,247506,1398690,73637,9256,699333,0
3,-1,666212,230559,1218699,69085,7801,609322,0
3,1,708183,248569,1237703,73907,7748,618888,0
3,-1,672499,230762,1399406,69098,8688,699696,0
3,1,725198,251968,1450577,76862,9173,725236,0
3,-1,667708,229800,1311263,68814,8563,655699,0
3,1,713018,250363,1501192,74759,9807,750566,0
3,-1,660779,230347,1307938,69019,7919,654007,0
3,-1,664954,230252,1300657,68957,8973,650366,0
3,-1,661281,229802,1320201,68759,7891,660154,0
3,1,709460,247854,1268629,73710,8496,634351,0
3,-1,696879,241438,1384153,72513,8653,691984,0
3,1,705588,248239,1272599,73769,7788,636350,0
3,-1,663967,230357,1371946,68865,7862,685988,0
3,-1,669691,231152,1301315,69165,7244,650701,0
3,1,707950,248169,1271861,73701,8054,635973,0
3,-1,666663,232548,1312002,69835,8145,656057,0
3,-1,668734,232254,1316127,69690,7368,658128,0
3,1,708475,248485,1453231,73770,9281,726700,0
3,-1,669026,230763,1220569,69078,7508,610313,0
3,1,707159,248251,1345111,73737,9365,672017,0
3,-1,668364,231228,1311995,69207,7466,656020,0
3,1,714441,249068,1327881,74039,9676,663895,0
3,-1,675316,232677,1256893,69911,8493,628529,0
3,-1,693021,240080,1309277,71825,7839,654691,0
3,1,711550,249095,1526992,73969,9238,763638,0
3,-1,667901,231889,1227908,69487,7587,614009,0
3,1,707160,247488,1453335,73445,9274,726748,0
3,-1,665011,231405,1258068,69202,7649,629081,0
3,1,728609,252287,1353599,76798,9324,676753,0
3,-1,665221,230517,1214410,68986,7398,607204,0
3,1,710998,247871,1494163,73543,8899,747032,0
3,-1,667080,230774,1457877,68915,8519,729004,0
3,1,713615,248534,1496318,73482,11210,748080,0
3,-1,667353,232381,1503817,69826,8855,752484,0
3,1,705121,247780,1381959,73470,9349,690988,0
3,-1,670990,232450,1355453,69824,8816,677397,0
3,-1,667049,231046,1389001,68927,8411,693921,0
3,-1,666406,230983,1350285,68928,8635,675136,0
3,1,730427,251898,1435611,76541,10413,717829,0
3,-1,674510,232437,1341986,69726,9145,670957,0
3,1,709426,247813,1405596,73486,8857,702803,0
3,-1,676473,233228,1386594,70110,8993,693144,0
3,1,719123,249987,1360779,74414,9720,679973,0
3,-1,674703,231322,1281386,68924,8775,640597,0
3,-1,695905,241279,1337597,71988,8757,668759,0
3,1,702777,247875,1362971,73012,8888,681515,0
3,-1,669222,232291,1340040,69369,9015,670001,0
3,1,707653,248445,1466396,73166,9896,733243,0
3,-1,692254,235844,1353998,72334,10214,676998,0
3,1,707813,247372,1294381,73826,8703,647208,0
3,-1,667741,231453,1257108,69176,8083,628718,0
3,-1,667958,230816,1239477,68941,9112,619764,0
3,1,707492,247775,1293882,73971,8718,646842,0
3,-1,667313,230455,1388457,68894,8088,694239,0
3,1,710861,247879,1317137,73960,8726,658588,0
3,-1,664381,230256,1172658,68896,7627,586154,0
3,1,714701,248006,1386329,74012,8892,693215,0
3,-1,689570,235333,1270465,72228,8637,635183,0
3,1,710795,247554,1352100,73919,9182,676200,0
3,-1,687982,234992,1263098,72193,8548,631264,0
3,1,708444,247488,1372643,73845,9093,686611,0
3,-1,664347,229839,1320676,68688,8546,660415,0
3,-1,668018,230593,1206901,68909,8053,603443,0
3,1,708593,247853,1394203,73964,9303,697140,0
3,-1,670871,230693,1252363,68695,8426,626263,0
3,-1,669107,231518,1670297,68973,12004,834939,0
3,1,713971,248661,1334802,74340,8889,667478,0
3,-1,666455,230581,1254599,68803,8197,627318,0
3,1,705294,247263,1328324,73700,9859,664177,0
3,-1,664713,229705,1299379,68453,7544,649382,0
3,-1,667551,230938,1214918,68952,7288,607503,0
3,1,730784,252887,1456920,77609,9612,728264,0
3,-1,669493,230711,1263578,68870,7895,631818,0
3,1,713749,248975,1350020,74366,9403,674846,0
3,-1,669036,230703,1386358,68868,9215,693169,0
3,-1,690470,235730,1350482,72300,8474,675225,0
3,1,711520,248969,1439608,74255,9841,719895,0
3,-1,668239,230799,1268260,68842,8280,634309,0
3,1,712670,248218,1435464,73977,9862,717784,0
3,-1,670723,230611,1389302,68792,8836,694696,0
3,1,709566,248990,1375042,74293,9165,687475,0
3,-1,670427,230168,1253981,68689,9213,626899,0
3,-1,665914,230124,1279524,68624,8343,639605,0
3,1,710622,248207,1312620,74079,8373,656345,0
3,-1,669499,229759,1327325,68543,8611,663583,0
3,1,714852,248846,1349712,74338,8852,674890,0
3,-1,672413,230550,1290603,68741,7068,645359,0
3,-1,670917,233069,1264673,69414,7639,632075,0
3,1,711744,249226,1683340,74288,11737,841295,0
3,-1,668018,231693,1453706,68857,8976,727016,0
3,1,709855,247904,1284544,73890,8991,642096,0
3,-1,663392,230392,1298777,68288,8305,649437,0
3,1,716858,249136,1472266,74707,10308,736220,0
3,-1,664949,230369,1225830,68437,7978,612818,0
3,-1,669576,231238,1223792,69720,8165,611940,0
3,1,705282,246844,1501569,73759,10623,750394,0
3,-1,682695,234650,1358468,72472,9306,679159,0
3,1,704369,246923,1342452,73782,8530,671252,0
3,-1,672855,233566,1390093,70565,9192,693981,0
4,-1,721194,248826,1280054,73867,8584,640011,0
4,1,765084,267880,1492104,79313,9539,745716,0
4,-1,665487,230525,1396952,68845,8336,698241,0
4,1,705377,247773,1347793,73534,9335,673972,0
4,-1,661187,229191,1321248,68418,7711,660650,0
4,1,706530,247353,1297036,73475,8894,648554,0
4,-1,665156,229596,1219230,68588,7858,609689,0
4,-1,659804,230081,1214485,68824,7382,607295,2
4,-1,685432,234443,1261333,72004,8577,630492,0
4,1,706030,247452,1432738,73435,8981,716312,0
4,-1,668529,232338,1270162,69745,8279,635077,0
4,1,704674,247984,1363965,73624,9322,681915,1
4,-1,671855,231717,1350556,69485,8752,675264,0
4,1,713868,249434,1325252,74174,9553,662433,0
4,-1,667690,231057,1361065,69064,8368,680406,0
4,1,709204,247785,1318646,73744,8907,659101,0
4,-1,669730,231352,1348143,69389,8937,674187,0
4,-1,671567,230806,1211591,68970,8621,605793,0
4,1,707032,249032,1403539,74317,8908,701809,0
4,-1,673775,232829,1445798,69775,9054,722793,0
4,-1,667186,230205,1312568,68756,8131,656327,0
4,1,702902,247098,1372613,73479,8630,686311,0
4,-1,669831,232421,1341386,69847,8665,670906,0
4,1,730076,253073,1380079,77180,8696,689991,0
4,-1,670933,230430,1295636,69009,7832,647705,0
4,1,707609,248104,1280251,73693,8262,640158,0
4,-1,669483,230583,1333588,69040,8363,666832,0
4,1,708032,248125,1295039,73730,8936,647545,0
4,-1,660936,230836,1220565,69083,7729,610367,0
4,-1,668632,232238,1340031,69805,9087,669860,0
4,-1,662695,230664,1305639,69133,7362,652670,0
4,1,712015,249525,1306514,74375,9023,653321,0
4,-1,663899,230956,1228613,69186,7280,614160,0
4,1,728034,253070,1443981,77146,10013,721903,0
4,-1,662676,230510,1294587,68850,8295,647738,0
4,-1,669149,231695,1215099,69357,7761,607571,0
4,1,710177,248562,1382378,73904,8557,691228,0
4,-1,663696,230033,1421320,68819,10110,710681,0
4,-1,663821,230743,1228583,69050,7183,614155,0
4,1,711105,249263,1455533,74193,9399,727894,0
4,-1,667119,230411,1228354,68935,7073,614219,0
4,1,708209,247605,1269401,73516,8722,634913,0
4,-1,666387,230887,1270304,69084,7208,635183,0
4,1,712501,248242,1409947,74000,9398,704954,0
4,-1,670965,231238,1228929,69164,7848,614494,0
4,-1,664203,230083,1273078,68795,7385,636562,0
4,1,711732,248725,1435941,73794,10155,717749,0
4,-1,666313,231068,1174734,69131,7073,587396,0
4,1,710066,248164,1527482,73699,9743,763774,0
4,-1,665712,230926,1195804,69105,7176,597952,0
4,1,705908,247631,1239088,73457,8288,619528,0
4,-1,667976,231780,1319702,69552,8207,659918,0
4,1,711208,248323,1386259,73729,8523,693126,0
4,-1,668786,231305,1328362,69075,7828,663670,0
4,1,715133,248537,1601776,73510,11199,800658,0
4,-1,683585,235578,1302659,72394,8945,651091,0
4,1,712469,248161,1397163,73475,9617,698553,0
4,-1,664333,230381,1280025,68732,7648,640410,0
4,-1,668119,230787,1427290,68902,8313,713199,0
4,-1,691987,235329,1365117,72157,10092,682226,0
4,1,708411,247205,1334133,73236,8751,667146,0
4,-1,669286,230797,1240984,69034,8332,620603,0
4,1,710954,248644,1241846,73940,9119,620738,0
4,-1,670196,231312,1530234,69121,9115,764763,0
4,-1,680045,233751,1338211,70035,8969,669009,0
4,1,733303,251986,1466723,76632,10704,733395,0
4,-1,667702,232035,1306928,69217,9114,653275,0
4,1,704022,247797,1340556,72996,8620,670104,0
4,-1,673073,233037,1316515,69756,8333,658021,0
4,1,703604,247368,1435005,72784,9823,718009,0
4,-1,671308,231421,1342927,69100,8729,671152,0
4,1,708323,247602,1376177,73841,8594,688121,0
4,-1,668139,230688,1347896,68774,9174,673917,0
4,1,715100,249938,1309386,74829,8243,654754,0
4,-1,667673,230798,1207628,69013,8716,603768,0
4,-1,671147,231057,1239935,69059,8141,619966,0
4,1,712406,249095,1287154,74597,8610,643626,0
4,-1,665859,230775,1227063,68947,8199,613522,0
4,1,717993,249645,1311991,74812,8935,656020,0
4,-1,673325,232467,1323972,69670,8017,661948,0
4,1,709564,248046,1295407,74060,9147,647796,0
4,-1,665460,230186,1304349,68778,7426,652182,0
4,-1,662735,229922,1219220,68772,8052,609565,0
4,1,727686,252117,1444580,77218,9929,722235,0
4,-1,669277,230801,1229588,68991,8123,614780,0
4,1,709380,247512,1357832,73797,8346,678925,0
4,-1,671063,230438,1331852,68599,9057,665969,0
4,-1,688221,235903,1365908,72112,9869,682856,0
4,1,731688,252623,1467629,77229,9947,733875,0
4,-1,669033,230800,1362954,68791,8783,681576,0
4,1,727550,252114,1336321,77198,10726,668192,0
4,-1,666097,230487,1325208,68750,8762,662614,0
4,-1,663175,229647,1316546,68436,7692,658398,0
4,1,715393,248761,1424516,74428,9030,712303,0
4,-1,669199,230493,1429054,68748,8827,714531,0
4,1,715339,249749,1430778,74768,9335,715149,0
4,-1,668241,230754,1396435,68899,8833,698383,0
4,-1,664450,229814,1313365,68526,8309,656642,0
4,1,729812,253091,1487837,77401,11338,743756,0
4,-1,666399,229948,1353101,68635,8808,676247,0
4,1,710604,248120,1463470,73940,8982,731366,0
4,-1,673616,232440,1235425,69599,8271,617638,0
4,1,706938,248438,1290994,74062,8689,645518,0
4,-1,669488,230215,1485193,68715,9995,742304,0
4,-1,674012,231320,1249241,69227,8325,624658,0
4,1,711660,248658,1391692,74178,8270,695855,0
4,-1,670644,230947,1384950,68891,8466,692242,0
4,1,714305,247920,1442164,73964,10175,721030,0
4,-1,669598,229586,1204845,68335,6895,602479,0
4,-1,683977,234944,1381308,71541,8704,690582,0
4,1,711551,247617,1342617,73782,9255,671362,0
4,-1,664690,230899,1540196,68438,10178,769334,0
4,1,714604,249085,1417432,74256,9513,708649,0
4,-1,665242,231679,1250988,68810,8532,625534,0
4,1,708295,246572,1431452,73620,9594,715774,0
4,-1,663612,229925,1332500,68193,9790,666236,0
4,-1,665611,230208,1212916,69182,7853,606517,0
4,1,709465,247439,1615995,73957,11199,807937,0
4,-1,660265,229933,1311783,69139,8199,655920,0
4,1,727146,252322,1458475,77400,10538,729026,0
4,-1,687035,235159,1439333,72542,9678,719619,0
5,-1,718895,248379,1214168,73740,7416,606965,0
5,1,782099,270885,1563870,81833,10410,781708,0
5,-1,668906,232052,1372103,69604,8559,685971,0
5,1,704328,247731,1420079,73583,9108,710938,0
5,-1,663152,229722,1187131,68676,7493,593609,0
5,-1,668451,229764,1294869,68641,8595,647165,0
5,1,705845,247417,1241640,73431,8453,620565,0
5,-1,661770,230329,1304302,68892,7289,652078,2
5,-1,662446,229654,1244548,68636,8660,622209,0
5,1,730062,252433,1373228,76936,9884,686451,0
5,-1,663693,229642,1156235,68623,7708,578006,0
5,1,709544,247931,1370942,73542,9395,685453,0
5,-1,667349,229855,1244245,68645,7969,622146,0
5,1,705966,247947,1307046,73594,8976,653557,1
5,-1,683805,234325,1299724,71963,9045,649873,0
5,1,706785,246856,1420020,73377,8714,709950,0
5,-1,664999,229938,1274757,68601,7865,637272,0
5,-1,674638,232368,1348639,69545,9068,674183,0
5,1,702130,247119,1361057,73486,8183,680494,0
5,-1,671145,230903,1366650,68880,8549,683089,0
5,-1,668290,230489,1302378,68888,8779,651072,0
5,1,705339,247744,1427293,73681,8799,713655,0
5,-1,669041,231162,1419446,69261,8788,709685,0
5,1,706325,247699,1419363,73626,8988,709659,0
5,-1,690827,234854,1547541,72245,9734,773520,0
5,1,705337,247552,1359618,73560,8559,679879,0
5,-1,687790,235061,1224029,72340,8734,612031,0
5,1,707492,248588,1230166,73944,8141,615126,0
5,-1,665892,232137,1365039,69822,8368,682589,0
5,-1,665224,230396,1309582,69039,7969,654564,0
5,1,706973,247446,1280262,73519,7775,640173,0
5,-1,664168,231129,1301064,69238,7758,650586,0
5,-1,666994,232513,1335327,69960,8433,667682,0
5,1,705732,248361,1413840,73761,8633,706938,0
5,-1,669367,232848,1396515,69957,8919,698589,0
5,-1,671214,231848,1338677,69571,8095,669396,0
5,1,709250,248279,1274885,73823,7963,637525,0
5,-1,665533,231258,1317238,69157,8910,658667,0
5,-1,670535,233038,1458032,70029,9171,728981,0
5,1,707961,248326,1326896,73709,8821,663461,0
5,-1,669586,232146,1308238,69754,7419,654174,0
5,1,713625,249779,1350830,74490,9706,675452,0
5,-1,687807,235892,1253174,72502,7763,626595,0
5,1,713239,248605,1392228,73906,9021,696179,0
5,-1,667713,230655,1334158,68952,7814,667120,0
5,-1,668189,232060,1334692,69573,7524,667386,0
5,1,717822,251154,1398513,74813,9712,699039,0
5,-1,665896,231181,1220791,69129,7530,610444,0
5,1,711076,248040,1411073,73628,9963,705519,0
5,-1,668019,230475,1383371,68934,8074,691722,0
5,1,711421,248137,1342745,73712,8765,671273,0
5,-1,667480,229953,1226412,68768,7924,613248,0
5,1,713820,249835,1350957,74441,8532,675476,0
5,-1,688109,234828,1282314,72121,7886,641117,0
5,1,714685,248917,1303311,73702,9436,651460,0
5,-1,671009,231012,1383950,69084,8499,691701,0
5,1,712410,248577,1303700,73670,9423,651816,0
5,-1,667089,231252,1378399,69007,8106,689203,0
5,-1,687612,235150,1432266,72162,9337,716097,0
5,-1,670987,231320,1439233,69018,8667,719533,0
5,1,709916,247746,1379731,73487,9253,689923,0
5,-1,668874,230668,1378185,68944,8671,688985,0
5,1,705634,247010,1294267,73231,9300,647420,0
5,-1,669375,231392,1638828,69186,9449,818728,0
5,1,712908,248577,1324372,73848,9151,661910,0
5,-1,696483,236619,1346347,72503,9710,672971,0
5,-1,670194,233583,1394300,69986,8741,697092,0
5,1,721454,251840,1443831,76108,9316,721722,0
5,-1,671064,232481,1272786,69447,8575,636273,0
5,1,703186,247676,1487040,72918,9915,743358,0
5,-1,670233,231878,1285095,69325,8575,642627,0
5,1,711678,249734,1285499,74821,9246,642776,0
5,-1,693542,236479,1348750,72553,10458,674050,0
5,-1,673628,233480,1390703,70139,9627,695014,0
5,1,706821,247113,1412145,73727,8962,706129,0
5,-1,666842,230131,1389376,68681,9377,694594,0
5,1,708786,247311,1402459,73806,8664,701268,0
5,-1,664563,230721,1151707,69036,7463,575707,0
5,1,709857,246987,1296309,73707,8868,648190,0
5,-1,667469,230538,1234991,68869,8055,617476,0
5,1,707934,248199,1268807,74141,8583,634527,0
5,-1,667096,231056,1290489,69095,7559,645213,0
5,-1,663352,230482,1341854,68917,7560,670903,0
5,1,704834,246951,1241750,73689,9510,620850,0
5,-1,666841,230025,1355996,68698,8086,678052,0
5,1,708297,247985,1371389,74007,8979,685730,0
5,-1,672774,231419,1213312,68978,8165,606699,0
5,-1,665565,230708,1360550,68710,9375,680244,0
5,1,714000,249300,1280263,74566,8728,640095,0
5,-1,689771,235434,1326986,72117,9668,663295,0
5,1,706255,247322,1365463,73849,9212,682760,0
5,-1,666178,230287,1241614,68723,8505,620922,0
5,-1,664424,230216,1218387,68730,7834,609279,0
5,1,713352,248910,1375243,74482,8337,687802,0
5,-1,695231,240320,1351552,71897,7721,675843,0
5,1,712070,248710,1420388,74282,9447,709713,0
5,-1,672092,230863,1288703,68865,9045,644350,0
5,-1,666414,230822,1260448,68917,8425,630266,0
5,1,713062,248494,1397489,74210,9337,698739,0
5,-1,669369,230855,1485184,68859,8298,741857,0
5,1,709532,248401,1375356,74052,8674,687687,0
5,-1,665153,229671,1318166,68481,7960,659106,0
5,1,705069,248140,1358580,73975,8791,679322,0
5,-1,689134,234622,1357445,71932,9738,678708,0
5,-1,670703,230585,1307635,68829,8464,653839,0
5,1,712805,248030,1394606,73941,9240,697456,0
5,-1,673590,232082,1435561,69546,8877,717858,0
5,1,718184,250688,1374518,75185,9915,687313,0
5,-1,670528,230007,1326391,68573,7496,663357,0
5,-1,666959,232918,1265284,69232,8510,632327,0
5,1,710623,248167,1710134,73950,11514,855033,0
5,-1,662466,230406,1378729,68261,8299,689399,0
5,1,714125,249992,1384036,74833,9548,691919,0
5,-1,660782,229972,1309473,68092,8148,654791,0
5,1,709437,247280,1347824,73948,9439,673874,0
5,-1,671577,233389,1251480,69669,8607,625813,0
5,-1,668513,231220,1304029,69450,7815,652052,0
5,1,705359,246753,1356474,73765,9012,678350,0
5,-1,664898,229429,1202296,68921,7691,601182,0
5,1,709752,247453,1362957,74024,9497,681334,0
5,-1,661222,229674,1308868,69054,7518,654498,0
6,-1,719344,248490,1301357,73719,8597,650717,0
6,1,756849,265135,1398956,78191,9491,699471,0
6,-1,667601,230652,1662093,68967,10459,830938,0
6,1,704038,249092,1386287,74092,8133,693327,0
6,-1,665147,230736,1357057,69211,8070,678561,0
6,-1,689655,235323,1311890,72278,8850,655991,0
6,1,705673,247373,1275937,73451,8539,637874,0
6,-1,667338,232168,1338615,69665,8098,669245,0
6,1,707935,247341,1340161,73520,8812,670034,0
6,-1,668152,231692,1278215,69521,9238,639094,0
6,-1,662980,230090,1226060,68802,7897,612930,2
6,1,706469,247923,1307887,73559,8888,653804,0
6,-1,667290,230457,1344037,68892,8429,671874,0
6,-1,665266,230243,1344340,68792,9071,671944,0
6,1,711559,249802,1432882,74527,9408,716309,0
6,-1,673426,232234,1362403,69680,9031,680943,0
6,-1,669397,230511,1269149,68837,9012,634555,0
6,1,713678,247498,1384295,73585,8413,692168,0
6,-1,671950,231845,1292374,69240,8178,646196,0
6,-1,668858,231054,1243663,69027,8441,621849,0
6,1,704261,247948,1299541,73754,9102,649701,0
6,-1,666133,230163,1262399,68910,8348,631072,0
6,1,706022,248036,1356428,73755,9170,678245,1
6,1,709594,249548,1544159,74380,9634,772019,0
6,-1,668904,230767,1414111,69089,8651,706821,0
6,1,705258,247850,1428360,73621,8750,714221,0
6,-1,669638,230078,1221268,68880,8140,610608,0
6,-1,659567,230177,1355666,68971,7527,677872,0
6,1,706523,247277,1234011,73398,8285,617058,0
6,-1,664370,230478,1336688,69025,8235,668384,0
6,1,706293,247139,1365791,73471,8513,682937,0
6,-1,672932,232870,1389436,70132,8358,694535,0
6,-1,685285,235241,1269300,72401,8867,634547,0
6,1,703364,247809,1312130,73655,8844,656121,0
6,-1,669515,230888,1317017,69035,8438,658512,0
6,-1,666579,230509,1301971,68954,7937,651040,0
6,1,707170,247559,1390227,73495,8548,695163,0
6,-1,666290,231832,1450347,69559,8950,724839,0
6,-1,690330,235663,1275383,72393,9023,637738,0
6,1,707060,247956,1429304,73648,9066,714578,0
6,-1,686481,235393,1259835,72346,8398,629881,0
6,1,710198,248400,1271092,73780,8505,635583,0
6,-1,668784,230713,1259314,69056,7701,629698,0
6,1,712894,248916,1532103,73987,9458,766074,0
6,-1,686784,235209,1276908,72303,8147,638502,0
6,-1,664472,230874,1238951,69090,7358,619521,0
6,1,710956,249049,1305012,73956,9185,652495,0
6,1,711798,249630,1399411,74355,9360,699926,0
6,-1,665034,230771,1207537,68979,7384,603809,0
6,-1,690094,235216,1250356,72306,8582,625127,0
6,1,710219,249113,1281343,74055,8310,640620,0
6,-1,671229,232082,1307572,69677,7965,653904,0
6,1,730003,252614,1336334,76946,9639,668141,0
6,-1,669273,231928,1244668,69604,7686,622373,0
6,1,711894,248082,1407592,73401,9860,703805,0
6,-1,670477,230755,1261071,69059,8792,630322,0
6,1,718462,251071,1442823,74744,9251,721379,0
6,-1,668323,230731,1349344,68839,8391,674718,0
6,-1,663639,229894,1278210,68557,8229,639478,0
6,-1,671672,231507,1326029,69083,8231,663058,0
6,1,708926,247713,1400211,73390,9161,700142,0
6,-1,669738,231416,1290320,69159,8862,645250,0
6,1,710143,247751,1573653,73364,9575,786866,0
6,-1,675178,231452,1391738,69201,9501,695533,0
6,1,730633,252677,1351191,76877,9587,675579,0
6,-1,673295,231546,1275403,69054,8459,637444,0
6,-1,669387,231688,1274046,69044,9141,637000,0
6,1,702275,247416,1473206,72851,8591,736600,0
6,-1,668622,231562,1238908,69100,8807,619442,0
6,1,702437,247133,1447587,72786,9304,723760,0
6,-1,672327,231488,1260598,69110,8754,630136,0
6,1,706314,247740,1407959,73907,10268,703946,0
6,-1,668673,231305,1342105,69065,8846,671085,0
6,-1,665429,230553,1293009,68871,9209,646311,0
6,1,713610,249964,1266299,74936,7851,633113,0
6,-1,672022,232037,1418377,69551,9280,708213,0
6,1,715341,250524,1299756,75176,8212,649907,0
6,-1,673794,233088,1291411,70070,8463,645880,0
6,1,715283,248546,1294195,74409,9326,647187,0
6,-1,669266,230735,1246893,68935,8041,623399,0
6,1,712344,249072,1255368,74565,8656,627749,0
6,-1,668922,231760,1300327,69520,7929,650135,0
6,-1,675835,232718,1338804,69963,8160,669290,0
6,1,710095,247141,1476585,73799,11215,738052,0
6,-1,672071,232471,1384711,69709,8424,692459,0
6,1,709837,247966,1254171,73996,8801,627027,0
6,-1,673836,233154,1250763,69679,8864,625444,0
6,-1,665299,230691,1246776,68647,9023,623272,0
6,1,712224,249101,1262455,74438,9333,631286,0
6,-1,668369,230780,1337356,68803,8746,668714,0
6,1,704274,246695,1256067,73549,8149,628089,0
6,-1,669718,230757,1322220,68867,9056,660872,0
6,-1,661536,229432,1156083,68372,7614,578178,0
6,1,714352,249288,1258293,74452,8273,629175,0
6,-1,669468,230691,1182045,68868,8565,591072,0
6,1,735538,253164,1509384,77528,10871,754237,0
6,-1,676354,232961,1282918,69824,8895,641527,0
6,-1,666486,230858,1274593,68900,8087,637345,0
6,1,709841,247656,1358558,73897,8661,679350,0
6,-1,667616,230627,1306510,68832,7923,653299,0
6,1,731472,252748,1511484,77261,10154,755755,0
6,-1,668305,231178,1477478,69015,9538,738784,0
6,1,721090,250336,1270441,74973,8628,635274,0
6,-1,668109,230420,1330614,68773,9023,665287,0
6,-1,669494,230380,1327076,68704,8628,663398,0
6,1,714893,249595,1300614,74623,8904,650276,0
6,-1,691685,235780,1448936,72280,9886,724109,0
6,1,714553,249707,1383682,74757,9626,691390,0
6,-1,676935,232168,1243535,69451,7628,621823,0
6,-1,660854,230359,1242216,68246,8149,620938,0
6,1,716179,250291,1384571,74869,9025,692424,0
6,-1,667324,232792,1267750,69280,8527,633934,0
6,1,718737,249514,1547401,74566,10842,773712,0
6,-1,659408,229803,1247733,68141,7557,623918,0
6,1,713291,247290,1478770,73962,9922,739428,0
6,-1,685400,235192,1300396,71771,8903,650249,0
6,-1,686052,234963,1528894,72531,9774,764273,0
6,1,705803,247394,1255307,73972,8655,627687,0
6,-1,670479,230646,1385647,69353,9032,692957,0
6,1,713542,250117,1457009,75119,10494,728467,0
6,-1,662903,229947,1271776,69105,8011,635917,0
7,-1,724692,251153,1469850,74933,10194,735021,0
7,1,763966,268083,1443442,79428,8648,721761,0
7,-1,684278,237135,1390528,70680,8494,695088,0
7,1,715460,249901,1454806,74534,9014,727454,0
7,-1,663226,230298,1293698,68858,8210,646907,0
7,-1,666335,229864,1188026,68732,7017,594050,0
7,1,705010,246934,1286574,73315,9341,643309,0
7,-1,682903,234879,1349087,72131,8513,674584,0
7,1,704341,246233,1245505,73239,8671,622608,0
7,-1,662335,230005,1329732,68762,7771,664960,0
7,1,732757,257098,1437620,76224,9219,718837,0
7,-1,671804,232049,1350771,69658,8769,675303,0
7,-1,666667,230200,1282463,68839,8358,641133,2
7,-1,664610,229532,1344368,68672,8638,671800,0
7,1,712420,247244,1354620,73501,9256,677222,0
7,-1,665456,230272,1244157,68913,7958,621800,0
7,-1,668473,230216,1357282,68699,8349,678607,0
7,1,714374,248064,1376031,73851,8721,688048,0
7,-1,670071,231359,1266742,69061,8937,633287,0
7,-1,669156,231320,1303043,69143,8629,651263,0
7,1,702677,247785,1388866,73752,9521,694436,0
7,-1,665574,230369,1330492,69023,8430,664864,0
7,1,705510,248004,1700329,73740,10844,849806,0
7,-1,667555,230133,1434309,68881,9421,717182,0
7,1,703712,248408,1329331,73872,8319,664715,1
7,1,706867,248078,1355779,73742,8310,677932,0
7,-1,670752,230430,1211689,68986,7656,605789,0
7,-1,660247,230832,1199022,69169,7219,599603,0
7,1,714869,249639,1354666,74486,9288,677402,0
7,-1,662826,230472,1208570,68994,8135,604384,0
7,1,726784,252392,1392161,76957,9111,696036,0
7,-1,664799,230124,1301210,68932,7580,650657,0
7,-1,663216,230152,1343748,68965,7962,671875,0
7,1,707997,249423,1462130,74343,9028,731172,0
7,-1,669043,231737,1364442,69467,8088,682289,0
7,-1,690026,235769,1245776,72482,8472,622818,0
7,1,713562,249464,1491793,74358,9304,746035,0
7,-1,664747,231063,1402470,69185,9547,700505,0
7,-1,669310,231347,1326414,69239,8152,663288,0
7,1,707694,248038,1295957,73754,9238,647605,0
7,-1,668560,230858,1312940,69042,8062,656511,0
7,1,714989,250542,1460384,74732,9829,730162,0
7,-1,665101,230818,1430001,68983,8760,714820,0
7,1,711318,248393,1345107,73801,9092,672210,0
7,-1,671342,231205,1317999,69176,8561,659030,0
7,-1,683752,234756,1347264,72088,8529,673652,0
7,1,710876,248531,1427312,73742,8997,713400,0
7,1,716765,250375,1410048,74579,9847,704882,0
7,-1,666766,230458,1230134,68908,7608,615101,0
7,-1,664998,230551,1198086,68986,7107,599078,0
7,1,707866,247902,1276649,73708,8740,638247,0
7,-1,668067,230997,1366751,69136,7990,683312,0
7,1,710954,248400,1376275,73660,9088,688102,0
7,-1,668356,230980,1271753,69026,7419,635916,0
7,1,741163,254466,1374977,77743,10122,687289,0
7,-1,669125,230847,1255470,68997,8420,627512,0
7,1,712150,248361,1374497,73531,9636,687189,0
7,-1,666947,230713,1313957,68862,8775,656697,0
7,-1,666740,231378,1393569,69086,9041,696796,0
7,-1,669002,230909,1247443,68948,8324,623477,0
7,1,713472,249562,1334800,74208,8500,667441,0
7,-1,690775,235798,1253191,72435,8905,626224,0
7,1,707513,247161,1442411,73233,9037,721289,0
7,-1,680046,233901,1408190,70314,9221,704103,0
7,1,710650,247633,1389937,73433,8910,694967,0
7,-1,676974,232467,1313357,69401,8855,656855,0
7,-1,667198,231482,1282839,69116,8989,640994,0
7,1,701754,247547,1342582,72928,7545,671092,0
7,-1,690557,236891,1247671,72638,9087,623820,0
7,1,706102,247875,1322552,73055,9057,661221,0
7,-1,693305,236485,1421262,72578,9396,710883,0
7,1,701975,247225,1482668,72933,9676,741334,0
7,-1,670989,231567,1289060,69162,8910,644473,0
7,-1,674423,232209,1359631,69600,9456,679388,0
7,1,713465,249231,1286807,74558,8520,643452,0
7,-1,668490,229990,1331182,68637,8699,665482,0
7,1,711187,248546,1293972,74405,8882,646894,0
7,-1,687124,235066,1223483,72246,8977,611640,0
7,1,708695,246537,1362608,73619,9415,681356,0
7,-1,687572,234733,1251665,71988,8533,625721,0
7,1,707775,247807,1306407,73990,8284,653261,0
7,-1,669422,230919,1241614,69055,8438,620799,0
7,-1,668347,229874,1323834,68708,8500,661936,0
7,1,709022,247380,1361724,73858,8840,680807,0
7,-1,668466,231361,1307769,69158,8296,653898,0
7,1,708955,248230,1277761,74123,8773,638872,0
7,-1,668806,230069,1247344,68509,8846,624009,0
7,1,715536,250031,1292267,74881,8802,646100,0
7,-1,668769,232417,1357327,69414,9042,678664,0
7,-1,666255,230888,1289459,68784,8384,644619,0
7,1,725529,252074,1532493,77197,10341,766247,0
7,-1,669782,230996,1333357,69006,8684,666672,0
7,-1,661993,230035,1214501,68637,8249,607268,0
7,1,710132,247834,1365099,73986,8126,682577,0
7,-1,688139,235078,1228620,72053,7882,614414,0
7,1,712335,248386,1463942,74130,10202,732014,0
7,-1,669378,230360,1363809,68749,8440,681924,0
7,-1,663241,229860,1358775,68475,8815,679420,0
7,1,735588,253992,1506923,77782,10461,752997,0
7,-1,665147,230224,1209673,68646,7063,604817,0
7,1,710093,248576,1326711,74040,8540,663152,0
7,-1,666135,230169,1255248,68654,8245,627582,0
7,1,738545,253431,1421045,77549,10172,710461,0
7,-1,670153,230387,1327848,68707,8868,663825,0
7,1,708940,249077,1307550,74294,8780,653813,0
7,-1,669007,230163,1346575,68692,8797,673084,0
7,-1,667341,229299,1304681,68399,8511,651768,0
7,1,716982,248561,1454736,74220,10287,727280,0
7,-1,669777,229992,1314437,68527,7237,657237,0
7,-1,663830,232068,1278107,69031,9024,638907,0
7,1,710680,248257,1588607,74026,10202,794339,0
7,-1,664527,230238,1337964,68225,7857,668921,0
7,1,716080,248760,1483769,74133,10075,741909,0
7,-1,683223,235277,1419278,71641,9039,709577,0
7,1,712536,246954,1308354,73833,9849,654130,0
7,-1,662946,230378,1321823,68420,8235,660955,0
7,-1,664105,229867,1364511,69069,9294,682292,0
7,1,704393,246743,1528503,73768,9424,764240,0
7,-1,667529,229617,1302135,68982,8883,651108,0
7,1,703821,246974,1371489,73809,9081,685590,0
7,-1,667648,230248,1217939,69164,8476,608983,0
8,-1,721082,248701,1304933,73790,8653,652512,0
8,1,767745,267597,1350109,79260,9549,675118,0
8,-1,717566,248110,1320916,73570,7797,659850,0
8,1,708756,247441,1363600,73501,9456,681790,0
8,-1,665431,229752,1237426,68640,7771,618745,0
8,-1,665347,229691,1317225,68646,8446,658601,0
8,1,703302,247132,1275931,73393,8021,637931,0
8,-1,661731,229971,1329193,68713,8186,664329,0
8,1,711176,248634,1535345,74084,9922,767636,0
8,-1,664709,230332,1235555,68922,7834,617778,0
8,1,727642,252388,1392718,76797,10010,696190,0
8,-1,692760,235976,1324509,73027,8610,662226,0
8,-1,668753,230951,1322651,69039,8080,661227,0
8,-1,665006,230173,1421659,68878,9072,711264,2
8,1,718045,250131,1370373,74610,10270,684919,0
8,-1,665101,230150,1201299,68819,8090,600621,0
8,-1,669733,230346,1409654,68770,8504,704720,0
8,1,717102,249416,1403079,74506,9317,701658,0
8,-1,668729,231483,1326957,69096,8345,663082,0
8,-1,667665,231326,1375287,69161,8575,687041,0
8,1,709477,248517,1223701,73982,8255,611805,0
8,-1,666329,230315,1319704,68952,8347,659992,0
8,1,706234,247379,1631786,73527,9190,815927,0
8,-1,689438,234594,1278673,72127,9744,639480,0
8,1,738701,259749,1385239,77565,9319,692368,0
8,-1,673282,231793,1306939,69624,8631,653588,0
8,1,706514,248178,1282755,73822,8379,641436,1
8,-1,662715,231848,1316166,69666,7243,658158,0
8,1,710229,248149,1590682,73791,10239,795396,0
8,-1,663667,230056,1201030,68867,7893,600592,0
8,1,706519,248534,1376285,73813,8950,688176,0
8,-1,663456,230102,1336574,68904,7838,668221,0
8,-1,662645,230722,1230988,69133,7530,615418,0
8,1,710196,248432,1461550,73806,8616,730783,0
8,-1,666928,230529,1260130,69008,8094,630335,0
8,-1,666747,230954,1297094,69123,8890,648604,0
8,1,710968,249538,1423145,74485,7920,711590,0
8,-1,667631,231335,1193036,69206,6858,596550,0
8,-1,669098,231612,1319474,69273,7831,659756,0
8,1,730363,253183,1469459,77166,10126,734942,0
8,-1,666263,230484,1515093,69016,9128,756302,0
8,1,717583,249767,1453687,74352,9934,726117,0
8,-1,672498,232949,1315393,70053,8033,657819,0
8,1,715508,249122,1330828,74107,9255,665423,0
8,-1,669098,230679,1244275,69030,7962,622172,0
8,-1,663817,230675,1228693,69035,7639,614367,0
8,1,708189,248799,1366054,73735,10163,682748,0
8,1,712825,249179,1413429,73965,10162,706580,0
8,-1,685957,235215,1304277,72298,8773,651885,0
8,-1,672281,232833,1398014,69974,8127,699077,0
8,1,710146,248953,1288665,74227,9020,644328,0
8,-1,667521,231424,1337293,69293,7480,668696,0
8,1,734555,252785,1341319,77043,9726,670607,0
8,-1,666168,230734,1216758,69056,7196,608422,0
8,1,710573,247530,1340840,73241,9223,670185,0
8,-1,673688,232578,1400452,69834,8250,700028,0
8,1,713151,249862,1443916,74229,9142,721917,0
8,-1,672585,232863,1383742,69814,8782,691923,0
8,-1,668205,231726,1286360,69261,8187,643068,0
8,-1,668311,230533,1346213,68838,8463,673188,0
8,1,707585,247445,1437548,73317,8845,718760,0
8,-1,667841,230789,1244396,68908,8855,622247,0
8,1,731472,252548,1367476,76823,9414,683800,0
8,-1,694618,236303,1521766,72604,10483,760685,0
8,1,709681,247588,1390523,73354,9458,695141,0
8,-1,677774,233183,1358243,69784,8991,679086,0
8,-1,668383,231705,1245685,69159,8403,622713,0
8,1,700527,247481,1265859,72851,7574,632970,0
8,-1,669139,232999,1303141,69739,9454,651587,0
8,1,723587,251680,1453571,75968,9953,726744,0
8,-1,668475,231436,1259583,69133,8026,629761,0
8,1,709527,248454,1385425,73353,9118,692597,0
8,-1,690290,236810,1233632,72616,9388,616888,0
8,-1,671233,230863,1339974,68942,9310,670026,0
8,1,706240,247535,1375859,73945,8874,687927,0
8,-1,690530,235363,1309946,72211,9007,654744,0
8,1,710522,248275,1344603,74109,8561,672337,0
8,-1,665343,230861,1234596,69029,8099,617413,0
8,1,709974,247309,1298766,73761,8901,649419,0
8,-1,668255,231298,1299959,69124,7876,649963,0
8,1,707926,248515,1309308,74146,8172,654658,0
8,-1,665938,229778,1149826,68596,7794,574876,0
8,-1,668343,229823,1199414,68701,8160,599697,0
8,1,709803,248005,1368347,74029,9587,684287,0
8,-1,673959,231945,1318703,69532,8650,659386,0
8,1,710498,247820,1295941,74029,9469,648009,0
8,-1,669506,230623,1180105,68835,8353,590070,0
8,1,710146,247566,1383267,73726,8216,691671,0
8,-1,675814,231327,1364260,68859,10389,681949,0
8,-1,695622,240303,1429426,71579,9568,714694,0
8,1,734918,252243,1404253,77253,9671,702045,0
8,-1,671972,232303,1394943,69538,8067,697310,0
8,1,716438,250723,1382960,75171,10105,691363,0
8,-1,669493,230034,1327964,68610,8663,664054,0
8,-1,667645,230935,1390913,68935,8526,695471,0
8,1,709932,248817,1490919,74315,10417,745281,0
8,-1,674167,232055,1297332,69473,8799,648612,0
8,-1,685178,235101,1356782,72107,9188,678366,0
8,1,712512,249045,1394246,74382,8854,697080,0
8,-1,666798,231095,1276810,68980,7458,638524,0
8,1,710156,248614,1396314,74077,9382,698230,0
8,-1,666967,230820,1287143,68839,8880,643635,0
8,-1,674790,232262,1251598,69527,8185,625827,0
8,1,717840,249377,1288989,74395,8595,644481,0
8,1,709482,247713,1387726,73783,9238,693913,0
8,-1,688498,234467,1439007,71819,10010,719580,0
8,-1,667465,230467,1397513,68750,8073,699491,0
8,-1,694742,235013,1404214,71996,8669,702185,0
8,1,714684,248002,1428576,74031,9446,714085,0
8,-1,661837,230039,1303085,68155,7914,651511,0
8,1,734430,253242,1505793,77445,10181,752967,0
8,-1,663039,229774,1221628,68047,7742,610831,0
8,1,717675,248997,1485698,74395,10019,742945,0
8,-1,660307,230261,1313880,68200,9302,656919,0
8,1,713782,247867,1453189,74122,9841,726626,0
8,-1,661554,229911,1258117,68243,8128,629095,0
8,-1,682649,234615,1415508,71570,9668,707729,0
8,1,703567,246619,1555204,73702,9718,777640,0
8,-1,668160,230186,1220451,69205,8687,610268,0
8,1,707751,248922,1396400,74667,9475,698177,0
8,-1,686940,234511,1399068,72438,9248,699573,0
9,-1,724619,250671,1280466,74569,8059,640280,0
9,1,763984,266272,1293787,78577,8892,646925,0
9,-1,720327,249921,1349218,74155,8137,674169,0
9,1,712805,250134,1299037,74477,9045,649673,0
9,-1,665097,229198,1254186,68408,7905,627088,0
9,-1,671635,232025,1251268,69596,7860,625655,0
9,1,722675,251365,1453368,76640,9199,726529,0
9,-1,661431,230260,1461370,68829,8592,730723,0
9,1,708130,247807,1326085,73669,8682,663113,0
9,-1,665938,231437,1377601,69502,8797,688776,0
9,1,712113,249592,1501247,74312,9864,750365,0
9,-1,664111,229875,1220506,68727,7969,610140,0
9,-1,685963,234501,1309555,72012,8997,654882,0
9,1,733318,252772,1336888,77123,10968,668433,0
9,-1,665765,231293,1259830,69414,7935,629663,0
9,-1,666519,230502,1267890,68994,8081,633819,2
9,-1,666758,230493,1301378,68905,8054,650752,0
9,1,710695,247647,1358879,73640,9630,679487,0
9,-1,688649,235421,1453955,72198,9628,726543,0
9,-1,667377,230524,1296958,68799,8315,648491,0
9,1,710216,249178,1304838,74462,8987,652117,0
9,-1,667079,230941,1275272,69172,8790,637607,0
9,1,708351,248491,1570528,73958,9278,785295,0
9,-1,669503,230773,1338122,69130,10278,669199,0
9,1,726061,252409,1328837,76941,9662,664407,0
9,-1,667957,230094,1355338,68895,8106,677674,0
9,-1,664475,230366,1216944,68996,6818,608518,0
9,1,708699,247818,1405607,73642,8756,702840,0
9,1,734964,257632,1252524,76584,8328,626310,1
9,-1,669406,232702,1328398,70024,8171,664271,0
9,1,710775,248130,1396535,73732,8541,698308,0
9,-1,667259,231888,1325484,69510,7629,662723,0
9,-1,662567,230699,1330538,69085,7898,665189,0
9,1,709449,248652,1419701,73874,8587,709892,0
9,-1,665328,230696,1361764,69038,8468,680417,0
9,-1,667247,231803,1230220,69554,7703,615090,0
9,1,706053,247261,1318050,73394,8252,659066,0
9,-1,668948,232482,1299367,69791,7520,649798,0
9,-1,667121,230744,1203714,69074,7637,601907,0
9,1,734131,257902,1526603,76501,9420,763509,0
9,-1,671074,232809,1313584,69954,7496,656909,0
9,1,714292,249821,1460227,74290,9360,729681,0
9,-1,666517,231131,1313996,69121,7452,657047,0
9,1,711861,248085,1438343,73716,9915,719430,0
9,-1,671947,232083,1330336,69657,8396,665217,0
9,-1,663561,230943,1341327,69050,9195,670724,0
9,1,715169,250893,1310960,74689,9379,655444,0
9,1,711307,248906,1330675,73808,9676,665331,0
9,-1,667291,231491,1351639,69410,7680,675779,0
9,-1,666064,230823,1300716,69084,7005,650358,0
9,1,704373,247297,1311191,73456,8862,655571,0
9,-1,665171,230354,1337198,68841,7675,668641,0
9,1,706388,247170,1331293,73415,8212,665625,0
9,-1,666561,231674,1226296,69317,7590,613174,0
9,-1,689780,235387,1500517,72313,8701,750337,0
9,1,714690,248842,1407373,73700,9763,703621,0
9,1,711291,248985,1625281,73750,10543,812519,0
9,-1,668637,231062,1350586,68917,8210,674898,0
9,-1,664780,230738,1387533,68825,8632,693729,0
9,-1,670777,231675,1363840,69220,9041,681735,0
9,1,716512,250407,1405101,74601,9493,702626,0
9,-1,667731,231104,1220235,68960,7963,610128,0
9,1,708416,247942,1374283,73535,8492,687048,0
9,-1,673742,232052,1504803,69417,9007,752486,0
9,-1,674308,231709,1514768,69100,9441,757465,0
9,1,713246,249255,1313037,74196,8425,656252,0
9,-1,668537,231781,1349888,69133,9296,674808,0
9,1,697938,247506,1386784,72871,7934,693194,0
9,-1,675278,233344,1262159,69654,8516,630907,0
9,1,699841,246948,1231996,72683,8617,616082,0
9,-1,668978,231494,1332056,69136,8884,666032,0
9,1,708737,249344,1360351,73690,9030,680217,0
9,-1,672245,232271,1279387,69312,8981,639744,0
9,-1,666839,229862,1236177,68730,8673,618080,0
9,1,705396,247280,1232364,73795,7783,616202,0
9,-1,670324,231398,1341952,69139,8689,670897,0
9,1,728308,252116,1459982,77206,9521,730074,0
9,-1,667187,231253,1252323,69181,8451,626168,0
9,1,712044,248242,1350708,74027,9006,675417,0
9,-1,664499,230274,1217314,68738,7165,608871,0
9,1,708411,248861,1284049,74495,9055,641995,0
9,-1,670642,231914,1309397,69424,7844,654580,0
9,-1,669473,230617,1345341,69000,7909,672598,0
9,1,706890,247213,1379975,73717,9331,690063,0
9,-1,668036,230176,1222080,68740,8071,611085,0
9,1,710868,248359,1334628,74095,9248,667318,0
9,-1,669268,230467,1297256,68734,9051,648754,0
9,1,708327,247763,1347997,73840,8293,674027,0
9,-1,673377,230653,1406144,68695,10549,703102,0
9,-1,669558,231483,1236124,69038,8496,617900,0
9,1,712982,247199,1265556,73809,8979,632831,0
9,-1,666542,230549,1557526,68769,10397,778510,0
9,1,712021,248960,1450350,74339,10001,724956,0
9,-1,669195,230336,1218380,68750,8089,609061,0
9,-1,673590,232019,1295673,69530,8032,647900,0
9,1,716032,249491,1576809,74511,9626,788388,0
9,-1,668117,230496,1355465,68777,8460,677735,0
9,-1,672327,230584,1480265,68820,8807,740219,0
9,1,712870,248465,1404103,74248,8690,702175,0
9,-1,666905,230119,1319295,68644,7971,659641,0
9,1,717625,249587,1484744,74379,10210,742455,0
9,-1,669779,232300,1238565,69612,8361,619672,0
9,-1,664870,228759,1321499,68241,8401,660818,0
9,1,714200,248403,1399561,74110,8908,699876,0
9,1,709907,247936,1379433,73992,9282,689763,0
9,-1,669209,230634,1386269,68852,8868,693119,0
9,-1,665781,230158,1341213,68661,8853,670471,0
9,1,715050,249133,1421888,74401,8688,710950,0
9,-1,669462,229415,1429736,68439,8553,714900,0
9,-1,667196,232369,1269301,69054,8050,634321,0
9,1,713972,248659,1335504,74160,9263,667798,0
9,-1,662879,230382,1371545,68301,8862,685831,0
9,1,711578,247544,1347476,73710,9325,673745,0
9,-1,660199,230527,1353009,68346,10178,676416,0
9,1,712024,247346,1464738,73968,9457,732368,0
9,-1,664343,230454,1349292,68456,7923,674682,0
9,-1,666026,231317,1430781,68755,9178,714422,0
9,1,728128,252184,1419373,77358,9915,709693,0
9,-1,673916,232016,1222052,69983,8310,611102,0
9,1,705600,246553,1363149,73721,8642,681582,0
9,-1,664361,229966,1369307,69143,8487,684606,0
10,-1,716934,248086,1222898,73614,7992,611497,0
10,1,767655,267458,1364807,79136,9777,682440,0
10,-1,720900,250256,1585105,74464,8618,792586,0
10,1,706330,246886,1272383,73197,7882,636277,0
10,-1,673014,232500,1486497,69666,9951,743331,0
10,-1,667278,230350,1204973,68893,7637,602542,0
10,1,704834,246775,1283269,73268,8149,641344,0
10,-1,660209,229728,1466144,68680,8818,731555,0
10,1,706612,247082,1460510,73362,9563,730413,0
10,-1,669396,230890,1379388,69193,8796,689561,0
10,1,704361,247678,1257764,73627,9373,628828,0
10,-1,669109,231711,1367570,69475,8865,683700,0
10,-1,662521,229338,1300223,68461,8735,649975,0
10,1,710000,247510,1312752,73552,9379,656388,0
10,-1,683232,234361,1285386,72025,8796,642656,0
10,-1,666855,230939,1277793,69163,8645,638910,2
10,-1,670034,230664,1296717,68998,8731,648405,0
10,1,709599,247640,1339843,73703,8753,669947,0
10,-1,669523,231824,1315371,69181,8529,657765,0
10,-1,669110,231383,1217274,69151,7830,608517,0
10,1,706303,248162,1272245,73813,7747,636182,0
10,-1,670173,230520,1229181,69015,8439,614672,0
10,1,708172,247919,1327389,73778,8540,663579,0
10,-1,670446,231616,1392182,69570,9031,696355,0
10,1,707132,248286,1430803,73762,9057,715448,0
10,-1,669799,230873,1373648,69108,8128,686862,0
10,-1,691831,235011,1258244,72307,8857,629078,0
10,1,709898,248193,1513034,73746,9024,756290,0
10,-1,685817,235464,1280878,72472,9195,640390,0
10,1,709744,247638,1276004,73542,8478,638032,0
10,-1,661347,229709,1210129,68784,7053,605106,0
10,-1,663528,230400,1386127,69033,8835,692953,0
10,1,705377,247949,1400842,73649,8686,700462,0
10,-1,665721,230809,1315695,69072,8477,657339,0
10,-1,666699,230605,1219696,68971,8078,609876,0
10,1,710390,248934,1399519,73977,8225,699803,0
10,-1,684606,235407,1244423,72344,7851,622159,0
10,-1,669578,232096,1313677,69638,8092,656902,0
10,1,728312,252514,1439809,76987,9897,719851,0
10,1,708997,248620,1278256,73929,8816,639141,1
10,-1,665560,230695,1320416,69032,7422,660278,0
10,1,737316,254579,1427331,78032,10633,713647,0
10,-1,666542,231574,1214951,69316,7638,607514,0
10,1,713590,248778,1469010,73920,10116,734423,0
10,-1,668089,230809,1359428,68965,8438,679765,0
10,1,708686,247894,1259249,73390,8318,629692,0
10,-1,663961,231347,1413314,69211,8686,706219,0
10,1,710447,248575,1297653,73700,9200,648799,0
10,-1,664661,230844,1261597,69071,6980,630648,0
10,-1,668276,231629,1340755,69520,7254,670431,0
10,1,707134,248783,1278629,74143,8834,639177,0
10,-1,667125,231337,1282890,69253,7526,641481,0
10,1,702525,245883,1250378,72967,7957,625186,0
10,-1,667112,230469,1172481,68880,7544,586281,0
10,-1,667640,230636,1335692,68902,8182,667781,0
10,1,707377,246758,1373573,73009,9551,686790,0
10,1,707110,247554,1384798,73261,9313,692510,0
10,-1,666111,230742,1292899,68898,8198,646508,0
10,-1,671707,231612,1466755,69199,8799,734539,0
10,-1,669127,230440,1326294,68786,7949,662733,0
10,1,709309,247690,1350538,73453,9080,675301,0
10,-1,670320,232290,1273569,69560,8822,636756,0
10,1,709541,248784,1338133,73972,8631,669120,0
10,-1,672352,232010,1355720,69288,9017,677202,0
10,1,708873,247343,1524975,73280,9529,761827,0
10,-1,673619,232006,1390638,69237,9260,695306,0
10,-1,687696,236222,1311793,72403,9306,655413,0
10,1,713292,247772,1368543,73410,7882,684217,0
10,-1,670914,231369,1333186,68945,9218,666622,0
10,1,703517,248008,1358741,73082,9258,679325,0
10,-1,670781,232398,1235299,69521,7778,617654,0
10,1,704531,247386,1416700,72851,9338,708361,0
10,-1,668168,230701,1239859,68812,8995,619958,0
10,1,706411,247721,1375210,73960,8846,687612,0
10,-1,666782,230288,1318696,68711,8682,659398,0
10,-1,666826,230139,1252012,68616,8532,625994,0
10,1,705537,247253,1475753,73783,9600,737919,0
10,-1,664657,230757,1182450,69038,8171,591167,0
10,1,711890,248290,1300145,74293,9109,649954,0
10,-1,669070,230971,1357004,69010,8141,678467,0
10,1,708102,247742,1361899,73976,8842,681023,0
10,-1,668940,231597,1223780,69193,7731,611925,0
10,-1,668785,230534,1280514,68984,8288,640283,0
10,1,709421,247163,1754451,73704,12289,877232,0
10,-1,669741,230895,1332290,68975,8523,666144,0
10,1,711474,249187,1295398,74560,9145,647790,0
10,-1,689239,235079,1211201,72117,9480,605541,0
10,1,712021,247132,1348198,73738,9360,674139,0
10,-1,672916,231115,1374170,68833,9486,686852,0
10,-1,686066,235741,1329579,72175,10060,664663,0
10,1,712521,247250,1305829,73790,8903,652956,0
10,-1,672182,232818,1302593,69784,8385,651277,0
10,1,709754,248287,1331593,74199,10233,665669,0
10,-1,668874,230180,1356768,68654,8846,678432,0
10,-1,690996,235552,1291828,72238,9039,645953,0
10,1,714993,249264,1543112,74452,10533,771580,0
10,-1,668831,230639,1261097,68819,8209,630580,0
10,-1,674241,231769,1317708,69306,8793,658890,0
10,1,711102,248240,1388284,74089,8904,694238,0
10,-1,668489,230331,1308551,68750,7951,654312,0
10,1,712149,247844,1394763,73712,9767,697414,0
10,-1,673080,231037,1311433,68972,9080,655758,0
10,1,713125,248090,1366520,74007,9143,683169,0
10,-1,668139,230565,1455222,68766,9089,727642,0
10,1,711067,248359,1367414,74108,8993,683744,0
10,-1,671953,232202,1334951,69505,8787,666413,0
10,-1,673290,231613,1355998,69118,8987,677975,0
10,1,713174,247920,1410515,73986,9034,704900,0
10,-1,671699,230497,1320205,68724,7867,660151,0
10,-1,660943,230162,1213862,68119,7889,606866,0
10,1,713709,249063,1441350,74209,9158,720217,0
10,-1,664558,231409,1304864,68598,8646,652519,0
10,1,712942,247947,1469999,73880,10219,735042,0
10,-1,666163,232632,1296111,69187,9441,648023,0
10,1,714352,248741,1452250,74528,11022,726289,0
10,-1,666673,231809,1280091,69079,7824,640094,0
10,-1,665422,230097,1337656,68297,8069,668186,0
10,1,708299,248008,1475561,74188,9998,737648,0
10,-1,689696,234871,1351659,72523,9236,675806,0
10,1,711183,248559,1380905,74485,8432,690409,0
10,-1,663046,229860,1194091,69070,7986,597099,0
11,-1,716989,248673,1444851,73851,9339,722091,0
11,1,762463,266010,1294488,78550,9728,647300,0
11,-1,720271,248671,1426288,73755,8191,713145,0
11,1,705359,247159,1278948,73329,7996,639571,0
11,-1,688950,235144,1356086,72068,9164,677896,0
11,-1,664796,229505,1154343,68497,7596,577098,0
11,1,707368,247927,1398577,73626,8668,699414,0
11,-1,669020,232666,1479835,69862,9680,738406,0
11,1,704710,247553,1317747,73521,8996,658834,0
11,-1,665939,230255,1353413,68862,8306,676582,0
11,1,729049,252150,1295571,76783,9557,647636,0
11,-1,663339,229439,1342462,68528,8500,671268,0
11,-1,665836,230730,1213937,68982,8078,606789,0
11,1,714574,250139,1437720,74581,9130,718745,0
11,-1,663616,229734,1278323,68715,8387,639300,0
11,-1,667689,230217,1250796,68840,7711,625506,0
11,1,710678,247889,1272451,73771,8670,636210,0
11,-1,667598,231007,1383342,69002,8760,691793,2
11,-1,669944,230742,1304414,68873,9329,652195,0
11,-1,670350,232234,1330848,69602,8518,665296,0
11,1,709669,249770,1445935,74552,9705,722968,0
11,-1,670804,231408,1212261,69295,8388,606065,0
11,1,712093,249752,1460198,74599,9463,730140,0
11,-1,668270,230822,1376818,69160,8445,688252,0
11,1,705579,248849,1257814,73990,7891,628953,0
11,-1,671386,231082,1243600,69208,8535,621828,0
11,-1,672242,231498,1321688,69567,8496,660945,0
11,1,712144,249503,1390548,74386,8500,695432,0
11,-1,662290,230428,1224878,69037,7700,612486,0
11,1,730838,252502,1367284,76947,9006,683658,0
11,-1,666823,232160,1308600,69786,8115,653912,0
11,-1,682878,234747,1295753,72203,9634,647486,0
11,1,706232,247963,1436852,73733,9114,718453,0
11,-1,667370,231902,1303313,69652,9265,651398,0
11,-1,671878,232736,1315229,69987,7654,657655,0
11,1,711284,249347,1374933,74333,8917,687528,0
11,-1,661248,230082,1354275,68743,8102,677085,0
11,-1,667384,231194,1309534,69218,7592,654818,0
11,1,707288,248321,1430682,73859,8748,715008,0
11,-1,669277,231205,1483983,69245,9771,742026,0
11,1,711057,248441,1509701,73752,9145,755155,0
11,1,707318,248454,1238007,73732,8389,619062,1
11,-1,667335,231472,1340650,69237,7177,670346,0
11,1,734180,254365,1402060,77486,10442,700045,0
11,-1,667978,230195,1296556,68855,7584,648294,0
11,1,713427,250333,1336385,74451,9198,667900,0
11,-1,660760,230224,1250469,68789,7235,625263,0
11,1,714448,250264,1343023,74455,9671,671326,0
11,-1,665870,230155,1238371,68873,7287,619232,0
11,-1,666866,231626,1291230,69337,6941,645734,0
11,1,713410,247940,1282823,73626,8418,641446,0
11,-1,684637,235003,1267960,72247,8652,633914,0
11,1,708120,246995,1283834,73342,9339,641927,0
11,-1,668551,230404,1178201,68882,8084,589150,0
11,-1,669980,230959,1266431,69064,8321,633250,0
11,1,711690,247856,1389354,73333,9661,694704,0
11,1,707626,247941,1377595,73387,10157,688746,0
11,-1,669139,232425,1362526,69600,8075,681434,0
11,-1,669683,231073,1271175,69005,8279,635482,0
11,1,710844,247476,1381284,73334,9317,690676,0
11,-1,671423,231960,1434785,69500,8172,717261,0
11,-1,669319,230664,1251125,68827,8839,625591,0
11,1,709459,247707,1375917,73478,8393,688030,0
11,-1,694918,236904,1293207,72776,9362,646628,0
11,1,712966,247741,1312033,73458,9893,655748,0
11,-1,696992,236907,1313590,72627,9526,656731,0
11,-1,667521,232176,1431586,69300,9277,715817,0
11,1,713057,247889,1251013,73446,7460,625583,0
11,-1,670977,231669,1262270,69112,8806,631259,0
11,1,704657,249058,1315091,73558,9750,657463,0
11,-1,667172,231181,1315781,69032,8934,658086,0
11,1,703981,247551,1338855,72958,9523,669526,0
11,-1,668356,231533,1249311,69131,8769,624681,0
11,1,712677,248027,1413517,73999,9428,706809,0
11,-1,674446,232698,1362351,69865,9052,681115,0
11,-1,674319,232696,1379652,69712,8717,689832,0
11,1,726572,251532,1373573,77025,9470,686787,0
11,-1,664984,230771,1310539,68993,8329,655227,0
11,1,711502,247531,1475550,73893,10410,737805,0
11,-1,671781,232723,1310037,69824,8127,654994,0
11,1,707565,247450,1363717,73823,9120,681882,0
11,-1,666045,230478,1331783,68823,7824,665878,0
11,-1,667749,230132,1218733,68848,7793,609363,0
11,1,730280,252132,1663022,77122,12049,831057,0
11,-1,670839,231052,1220542,69142,8203,610357,0
11,1,705935,247447,1377739,73667,9438,688821,0
11,-1,672316,230343,1353965,68716,8330,677023,0
11,1,732122,252115,1550782,77122,9782,775382,0
11,-1,674218,231670,1354860,69223,9092,676975,0
11,-1,669740,231035,1357679,68848,8600,678689,0
11,1,712571,247717,1372334,73885,9258,686208,0
11,-1,687294,235201,1201919,72118,8684,600889,0
11,1,709257,248720,1498851,74365,9322,749388,0
11,-1,673294,232399,1294114,69655,8413,647162,0
11,-1,666132,229563,1207565,68470,7524,603778,0
11,1,711366,248590,1364453,74318,9178,682365,0
11,-1,671445,232478,1339785,69677,8167,669924,0
11,-1,669802,230117,1416427,68624,8799,708256,0
11,1,710233,249016,1298087,74407,9250,648937,0
11,-1,667297,229863,1349112,68543,8115,674710,0
11,1,712757,248674,1572206,74056,9869,786121,0
11,-1,668578,229753,1259227,68462,8702,629908,0
11,1,711350,247603,1394369,73833,8360,697223,0
11,-1,690652,235432,1413603,72186,9443,706652,0
11,1,708866,247745,1291962,73897,8675,646011,0
11,-1,666045,230224,1281443,68726,7557,639827,0
11,-1,671815,230648,1344887,68834,8712,672493,0
11,1,712494,248327,1443651,74024,9882,721749,0
11,-1,669369,229872,1278797,68473,7865,639442,0
11,-1,668265,233014,1245519,69353,8109,622654,0
11,1,734554,254169,1441621,77711,11383,720737,0
11,-1,663163,230614,1260331,68341,8636,630191,0
11,1,733618,252620,1484467,77151,10556,742231,0
11,-1,666686,230462,1314265,68263,9549,657177,0
11,1,736633,252104,1640169,77246,12491,820385,0
11,-1,661966,230529,1469328,68488,9723,734703,0
11,1,703407,246941,1486899,73841,10698,743487,0
11,-1,665748,230362,1344807,68375,8145,671969,0
11,-1,665928,229224,1345607,68809,8055,672854,0
11,1,706917,247321,1385966,73991,8702,692957,0
11,-1,662955,229784,1216000,69082,8550,608021,0
11,1,705685,246824,1306175,73674,8030,652750,0
12,1,762182,266309,1460208,78608,9387,730157,0
12,-1,717259,248964,1359098,73872,7974,679589,0
12,-1,739258,254108,1378860,77371,8577,689462,0
12,1,704277,246786,1358400,73159,8114,679197,0
12,-1,666738,230365,1236774,68711,8435,618434,0
12,-1,665758,230236,1165789,68676,7183,582853,0
12,1,705815,247343,1466738,73448,9304,733177,0
12,1,705376,246943,1304216,73327,8959,652217,0
12,-1,681348,234321,1325227,71907,8616,662582,0
12,-1,686846,234982,1347482,72142,9258,673641,0
12,1,712367,248065,1251685,73578,9387,625646,0
12,-1,665689,230029,1361972,68771,8638,680995,0
12,-1,668768,231516,1345186,69403,8712,672428,0
12,1,709880,247938,1395236,73648,9861,697611,0
12,-1,667890,230252,1353729,68893,8592,676823,0
12,-1,668211,230303,1276578,68841,8509,638291,0
12,1,710221,247581,1270039,73670,9137,635057,0
12,-1,668723,230642,1378813,68815,8999,689519,0
12,1,708237,249464,1363167,74513,10324,681393,0
12,-1,663844,229818,1283607,68637,8236,641735,0
12,-1,671183,232599,1357768,69813,9221,678778,2
12,-1,672806,231824,1264643,69607,8635,632190,0
12,1,705760,248123,1278419,73817,9052,639190,0
12,-1,664957,229791,1415504,68818,8222,707783,0
12,1,707276,249173,1407058,74253,8375,703586,0
12,-1,675129,232936,1311449,70088,8848,655796,0
12,-1,670177,230556,1284300,69038,7780,642222,0
12,1,707071,247870,1341550,73636,8152,670828,0
12,-1,661969,230558,1390083,69020,8511,695086,0
12,1,708635,247857,1312803,73540,7956,656435,0
12,-1,662629,230379,1486022,69025,8696,743040,0
12,-1,668554,231084,1210347,69258,8023,605159,0
12,1,708383,248623,1465535,73911,10293,732809,0
12,-1,664503,230078,1225811,68851,7330,612898,0
12,-1,666991,231356,1462883,69188,8288,731447,0
12,1,706464,248020,1359342,73673,8288,679708,0
12,-1,666353,232792,1309274,69963,8029,654548,0
12,1,711345,248127,1325461,73687,9753,662769,0
12,-1,665950,230899,1206582,69088,7391,603330,0
12,-1,668361,231233,1298006,69223,8077,649093,0
12,1,711618,249204,1433383,73931,9033,716492,0
12,-1,686143,235629,1205452,72425,8427,602761,0
12,1,713753,249192,1477064,74041,10520,738529,0
12,1,712375,249390,1429142,74179,10169,714492,1
12,-1,665817,230565,1333386,68890,8008,666736,0
12,1,713739,250498,1417968,74500,9232,709070,0
12,-1,672415,231254,1300144,69179,8106,650236,0
12,1,712663,248267,1327632,73750,9646,663843,0
12,-1,686177,235372,1347010,72304,8325,673485,0
12,-1,663132,230580,1213358,68953,6866,606717,0
12,1,713887,248555,1351160,73851,9332,675650,0
12,-1,668454,231678,1285694,69529,8934,642543,0
12,1,708459,247879,1272682,73589,8255,636242,0
12,-1,668800,230877,1176153,69080,7873,588125,0
12,-1,670821,231411,1307213,69235,8023,653771,0
12,1,713380,248638,1279101,73675,8723,639592,0
12,1,708411,248220,1438993,73451,10181,719426,0
12,-1,663365,230224,1530996,68800,8329,765537,0
12,-1,668156,230546,1389822,68866,8301,694647,0
12,-1,670592,231132,1396202,68963,8588,697904,0
12,1,708326,247556,1401699,73365,8908,700877,0
12,-1,667588,230893,1359777,68949,8177,679931,0
12,1,705852,247354,1272506,73402,8115,636289,0
12,-1,669211,230951,1349098,68993,8905,674480,0
12,1,711932,247299,1440082,73224,9363,719858,0
12,-1,674240,232053,1375733,69203,9003,687888,0
12,-1,665726,231603,1420536,69094,9060,709951,0
12,1,710795,247415,1495290,73191,9112,747815,0
12,-1,693350,237197,1269190,72718,9586,634619,0
12,1,709516,249390,1344902,73647,8674,672345,0
12,-1,673822,233336,1309956,70032,9036,654775,0
12,1,711046,250509,1612899,74164,10926,806467,0
12,-1,668396,231650,1320973,69128,8618,660538,0
12,1,715182,249091,1349090,74582,9569,674613,0
12,-1,691920,236048,1454640,72460,9503,727273,0
12,-1,670792,231672,1247617,69218,8167,623786,0
12,1,705967,247571,1278820,73885,8469,639394,0
12,-1,669050,231710,1415733,69352,7692,707790,0
12,1,711729,247922,1442421,74005,9556,721211,0
12,-1,668348,231505,1316873,69197,7965,658519,0
12,1,708197,248347,1432103,74162,9211,716075,0
12,-1,690152,236006,1406463,72389,8923,703122,0
12,-1,667123,230111,1302496,68714,7875,651219,0
12,1,709641,247973,1386882,73960,9061,693403,0
12,-1,670072,231408,1258191,69170,8166,628959,0
12,1,704852,247337,1366073,73638,9558,683034,0
12,-1,676995,232701,1305093,69813,8590,652507,0
12,1,711709,248377,1274212,74152,8669,637220,0
12,-1,672309,231399,1230832,68989,8937,615270,0
12,-1,670085,231527,1624269,69048,10818,811865,0
12,1,714136,248945,1266897,74570,8470,633355,0
12,-1,672044,232381,1236208,69604,8481,617910,0
12,1,712478,250010,1417720,74957,9486,708533,0
12,-1,690546,235624,1438329,72262,9469,719139,0
12,-1,664683,229622,1297744,68503,7383,648938,0
12,1,710937,248433,1474742,74161,10249,737401,0
12,-1,665657,230225,1318163,68665,7652,659185,0
12,-1,677636,233326,1334519,69983,8687,667344,0
12,1,708060,248233,1224569,74128,8845,612062,0
12,-1,690273,235612,1298905,72251,8108,649723,0
12,1,714450,249063,1463299,74198,9492,731679,0
12,-1,675068,232181,1473273,69496,9390,736646,0
12,1,710850,247806,1226377,73923,8008,613242,0
12,-1,667839,229476,1311232,68369,8773,655426,0
12,1,712322,249373,1261208,74596,8486,630617,0
12,-1,669385,230270,1256707,68706,8032,628283,0
12,-1,696378,239393,1424073,71375,8930,711947,0
12,1,712742,249324,1367837,74412,9339,683247,0
12,-1,666355,229811,1235448,68527,7589,617680,0
12,-1,662697,231044,1333609,68481,8031,666778,0
12,1,715093,249013,1324234,74239,9552,661967,0
12,-1,662366,230453,1264598,68281,8346,632129,0
12,1,711386,248115,1295207,73932,9054,647643,0
12,-1,665443,229989,1279337,68136,8100,639708,0
12,1,712391,247285,1488632,73859,11591,744203,0
12,-1,658270,229503,1374353,68122,8353,687207,0
12,1,703258,247465,1357684,73996,9194,678868,0
12,-1,688936,238654,1438641,70765,8689,719134,0
12,-1,668051,230336,1283663,69261,8257,641829,0
12,1,704992,247010,1277018,73867,8582,638524,0
12,-1,664491,230281,1208606,69192,8457,604337,0
12,1,709015,248315,1428045,74181,9171,714054,0
13,1,782155,270644,1535053,81821,9926,767361,0
13,-1,726277,250660,1441565,74636,9294,720852,0
13,-1,717259,248983,1249965,73918,7187,625017,0
13,1,713074,249306,1431483,74181,8957,715528,0
13,-1,670489,231403,1242884,69046,7487,621487,0
13,-1,666412,229620,1220778,68418,8073,610434,0
13,1,703578,247324,1377686,73501,7927,688758,0
13,1,705895,247031,1406463,73336,9053,703260,0
13,-1,660656,229797,1373534,68667,8496,686812,0
13,-1,667060,231441,1361635,69412,8598,680738,0
13,1,709476,247431,1330940,73353,9202,665323,0
13,-1,673207,233087,1389741,70030,9436,694888,0
13,-1,713172,243717,1346818,74782,9122,673456,0
13,1,710724,248389,1460656,73740,9178,730258,0
13,-1,667750,230308,1348647,68904,8394,674326,0
13,-1,675937,233634,1507633,70315,9020,753357,0
13,1,708773,247142,1399128,73604,9694,699276,0
13,-1,670501,232133,1359695,69614,9419,679654,0
13,1,701724,247602,1436822,73566,8746,718451,0
13,-1,664921,230702,1263285,68951,8600,631464,0
13,-1,670531,231586,1213797,69279,7986,606929,2
13,-1,669294,230982,1260845,69013,7822,630447,0
13,1,708578,247972,1288270,73783,9475,644208,0
13,-1,671344,232357,1356646,69937,8591,678396,0
13,1,704396,248105,1301505,73772,8474,650836,0
13,-1,689006,235101,1247197,72385,8861,623462,0
13,-1,670493,231124,1304821,69250,8016,652549,0
13,1,709390,248912,1374871,73966,7922,687472,0
13,-1,663709,230168,1317820,68973,8076,658963,0
13,1,709387,248537,1377996,73816,8139,689028,0
13,-1,660025,229055,1233535,68619,7578,616744,0
13,-1,666423,230315,1219255,69045,8193,609563,0
13,1,704048,247431,1444954,73473,9194,722499,0
13,-1,682463,234371,1276759,72156,8772,638324,0
13,-1,667302,230867,1599237,69117,10038,799638,0
13,1,710847,250076,1397555,74689,9046,698852,0
13,-1,683487,235345,1285542,72336,7770,642715,0
13,1,711616,248603,1541895,73866,9338,770497,0
13,-1,666636,231660,1566539,69349,10183,783359,0
13,-1,670756,232799,1297823,69999,8075,648961,0
13,1,708328,248546,1416695,73751,8597,708399,0
13,-1,667854,232349,1229566,69739,7996,614863,0
13,1,710006,248505,1522227,73830,10536,760858,0
13,-1,666530,231141,1226725,69170,7454,613396,0
13,1,710711,249567,1418143,74025,10351,709202,1
13,1,728422,253605,1513299,77130,10761,756646,0
13,-1,671984,231423,1205848,69169,7862,602965,0
13,1,712241,248388,1458895,73754,9642,729465,0
13,-1,669689,232191,1461851,69678,9520,730806,0
13,-1,688786,235258,1373792,72318,7934,686867,0
13,1,731284,253094,1272105,77032,9792,636052,0
13,-1,663156,230418,1224282,68915,7903,612190,0
13,1,708729,247305,1384029,73360,9244,691949,0
13,-1,688247,235161,1289109,72241,8469,644596,0
13,-1,670307,231411,1349847,69183,8388,674844,0
13,1,709149,247530,1411029,73249,9169,705545,0
13,1,713903,250861,1463092,74559,9909,731113,0
13,-1,666520,231822,1405875,69375,7832,703026,0
13,-1,667827,230499,1442330,68798,9134,721429,0
13,1,709348,248023,1395047,73532,8819,697568,0
13,-1,673888,233071,1347608,69880,8387,673428,0
13,-1,667231,231387,1458194,69136,8745,729784,0
13,1,705444,246937,1299465,73150,9016,649772,0
13,-1,671945,232248,1319383,69366,8246,659633,0
13,1,716505,249938,1483770,74376,10515,741912,0
13,-1,675148,232662,1355657,69445,9173,677921,0
13,-1,666266,231612,1483505,69118,9353,741647,0
13,1,710328,247010,1292418,73125,7636,646299,0
13,-1,669958,231736,1275183,69184,9037,637468,0
13,1,730198,256519,1365446,75490,9033,682840,0
13,-1,690277,235091,1311253,72103,9334,655550,0
13,1,704364,247941,1425356,73045,8845,712754,0
13,-1,667127,231248,1274454,68984,8790,637021,0
13,1,709902,247905,1359096,73977,9403,679616,0
13,-1,668255,230753,1262216,68928,8300,631111,0
13,-1,665516,230051,1293491,68668,8931,646905,0
13,1,706516,247133,1340114,73727,8777,670154,0
13,-1,672775,231152,1293629,69173,8478,647038,0
13,1,709173,247297,1391192,73789,9798,695499,0
13,-1,665021,230298,1222968,68759,8317,611414,0
13,1,705752,247197,1378789,73767,8527,689526,0
13,-1,665812,230310,1235621,68778,7935,617782,0
13,-1,672983,232166,1316111,69650,9040,658011,0
13,1,709395,248612,1575130,74212,11134,787596,0
13,-1,666896,230398,1233534,68855,8303,616702,0
13,1,708441,248280,1335284,74027,9361,667565,0
13,-1,668396,229978,1251320,68598,8422,625666,0
13,1,729808,251621,1356067,77019,10177,678021,0
13,-1,672388,231024,1312867,68850,9108,656389,0
13,-1,671471,232199,1399745,69444,8790,699895,0
13,1,731400,252001,1443954,77030,10225,721981,0
13,-1,665406,229867,1402043,68549,8603,700682,0
13,1,712555,248301,1478460,74207,9200,739142,0
13,-1,671289,231505,1302869,69300,8146,651363,0
13,-1,669264,231749,1317868,69383,7540,658990,0
13,1,712222,248260,1583197,74233,9142,791989,0
13,-1,666881,230050,1244007,68670,7995,622044,0
13,-1,670577,230905,1323602,68877,8855,661811,0
13,1,710168,248920,1414779,74297,8552,707264,0
13,-1,667170,230536,1341840,68837,8148,670922,0
13,1,713862,249283,1413934,74222,9203,706642,0
13,-1,670436,231031,1507732,68956,8842,752969,0
13,1,713285,248149,1477518,74026,9360,738793,0
13,-1,689787,235130,1444409,72099,8765,722130,0
13,1,712137,248236,1366681,74057,9189,683311,0
13,-1,668153,230214,1324314,68690,8333,662381,0
13,-1,674440,232719,1334258,69824,9649,666302,0
13,1,716150,249815,1385241,74554,9209,692448,0
13,-1,665889,229511,1252618,68451,7199,626346,0
13,-1,659610,230116,1250613,68077,8210,625306,0
13,1,716179,249984,1443358,74708,9209,721759,0
13,-1,666001,232250,1315544,69122,8605,657625,0
13,1,733105,251983,1469683,77015,10676,734763,0
13,-1,672485,233294,1222956,69493,7987,611522,0
13,1,710333,246741,1301305,73589,9671,650448,0
13,-1,670315,232474,1278462,69342,7842,639285,0
13,1,707121,248806,1481343,74599,9230,740608,0
13,-1,688165,235186,1469406,71769,10064,734140,0
13,-1,673888,232963,1230834,70376,8640,615284,0
13,1,706566,247379,1324568,73982,8979,661567,0
13,-1,668566,232280,1218640,70130,7961,609353,0
13,1,730503,253006,1334501,77516,9559,667066,0
14,1,757040,265215,1505282,78223,8654,752653,0
14,-1,718261,248452,1421581,73686,8884,710822,0
14,-1,717786,249455,1373562,74083,7992,686878,0
14,1,728089,251784,1393387,76724,9423,696744,0
14,-1,664699,229593,1214108,68487,7914,607138,0
14,-1,667431,230560,1412613,68860,8663,706251,0
14,1,705992,247094,1403302,73356,8847,701446,0
14,1,704537,246601,1409023,73181,8664,704422,0
14,-1,662362,230995,1252857,69057,6921,626516,0
14,-1,662356,230008,1275997,68772,8144,637940,0
14,1,730468,251946,1365246,76604,9949,682321,0
14,-1,665469,229783,1353175,68643,8382,676581,0
14,-1,664503,230073,1259267,68826,8706,629608,0
14,1,707593,248023,1432573,73684,8698,716186,0
14,-1,666253,230045,1283291,68701,8874,641563,0
14,-1,691286,235453,1323219,72435,9554,661625,0
14,1,709890,248078,1429982,73777,9863,715016,0
14,-1,667465,230769,1420638,68912,8652,710328,0
14,1,708796,248826,1376597,74073,9013,688341,0
14,-1,665469,231108,1197587,69082,8411,598650,0
14,-1,667666,230006,1328661,68665,8496,664222,0
14,-1,663617,230616,1353127,69083,8767,676583,2
14,1,706076,247408,1317424,73560,8980,658798,0
14,-1,665625,230652,1330215,69094,8611,665146,0
14,1,704357,248418,1257177,73820,8342,628612,0
14,-1,668993,230641,1324682,69100,8636,662386,0
14,-1,670771,230628,1200613,68998,7846,600389,0
14,1,712079,248635,1444696,74045,9114,722364,0
14,-1,666090,231697,1342169,69626,8313,671151,0
14,1,731390,252562,1368704,76990,9281,684306,0
14,-1,659889,229584,1379764,68693,8514,689937,0
14,-1,666176,230173,1242560,68941,8180,621223,0
14,1,708546,248795,1330225,73952,8661,665139,0
14,-1,664696,230691,1304028,69064,7558,652047,0
14,-1,665473,231224,1340339,69209,7789,670094,0
14,1,714511,249263,1396878,74323,9046,698499,0
14,-1,670765,230839,1326560,69088,8002,663368,0
14,1,716089,249471,1419951,74274,9463,710029,0
14,-1,665900,230631,1322708,68966,8217,661337,0
14,-1,663342,230477,1284941,68922,7919,642521,0
14,1,713668,249587,1469808,74242,10136,734785,0
14,-1,664624,230911,1165734,69110,8009,582931,0
14,1,711710,248576,1386852,73900,9916,693213,0
14,-1,667162,230870,1318686,69106,7683,659383,0
14,1,714219,249926,1533770,74120,10342,766834,0
14,-1,675436,232717,1375511,69876,9504,687815,0
14,1,709170,249485,1327889,74009,9200,663980,1
14,1,713835,249128,1473492,73985,10100,736626,0
14,-1,665655,231165,1325133,69169,8719,662392,0
14,1,701788,245879,1387616,72884,9718,693768,0
14,-1,666609,230473,1271859,68941,7473,635899,0
14,-1,667670,231580,1203371,69335,7622,601727,0
14,1,712528,249211,1390412,74277,9101,695214,0
14,-1,668131,231778,1309645,69581,7560,655082,0
14,-1,672657,232863,1339374,69809,8197,669009,0
14,1,717285,249995,1399213,74254,9411,699679,0
14,1,709699,248061,1424385,73408,9382,712191,0
14,-1,665120,230838,1283328,69044,7624,641729,0
14,-1,666593,230294,1354724,68731,8971,677415,0
14,1,712920,249116,1333751,74087,8432,666922,0
14,-1,687821,235364,1364653,72175,9035,682302,0
14,-1,665749,230389,1282359,68753,8954,641222,0
14,1,713195,247130,1420503,73216,8610,710293,0
14,-1,668474,231032,1386979,68939,8602,693495,0
14,1,707788,247005,1344234,73199,9147,671973,0
14,-1,672743,231942,1238223,69223,8420,619146,0
14,-1,671665,233000,1335167,69741,9300,667538,0
14,1,711190,247762,1374224,73334,7987,687126,0
14,-1,670875,232191,1259215,69305,8754,629581,0
14,1,704107,248293,1322685,73135,8605,661153,0
14,-1,673247,232222,1404322,69404,9186,702167,0
14,1,709258,250183,1361263,74002,9391,680685,0
14,-1,673712,233730,1248991,70139,8985,624220,0
14,1,709535,247238,1411464,73823,9423,705779,0
14,-1,670009,231834,1381465,69425,8807,691119,0
14,-1,692399,235808,1264542,72372,9702,632284,0
14,1,706727,247159,1305858,73791,8268,652966,0
14,-1,672714,231481,1319100,69441,8310,659545,0
14,1,710295,248453,1294363,74381,8914,647291,0
14,-1,667877,231809,1257140,69469,8248,628390,0
14,1,704932,247244,1287091,73831,8422,643589,0
14,-1,672952,232455,1311612,69655,8442,655798,0
14,-1,689443,235386,1289074,72271,8967,644454,0
14,1,707362,247120,1297927,73691,8388,648966,0
14,-1,672396,232710,1221644,69787,7876,610752,0
14,1,710637,249577,1332469,74687,10326,665797,0
14,-1,670227,230862,1301626,68933,8809,650804,0
14,1,709576,247826,1418196,73905,8527,709134,0
14,-1,674707,232441,1313141,69483,8862,656552,0
14,-1,667244,230984,1286639,68836,8442,643307,0
14,1,713162,248327,1212171,73989,8455,606126,0
14,-1,665995,230710,1367277,68879,9117,683682,0
14,1,732556,252581,1500863,77385,10560,750312,0
14,-1,668457,230993,1242941,68900,8718,621333,0
14,-1,668348,230700,1282231,68869,7566,641104,0
14,1,713285,249007,1461185,74445,9470,730371,0
14,-1,662766,229359,1425702,68469,8009,712791,0
14,-1,669849,230819,1369366,68899,9165,684719,0
14,1,713381,250667,1385363,75195,9434,692519,0
14,-1,666096,230291,1200578,68705,7239,599988,0
14,1,715098,249326,1388480,74304,10063,693794,0
14,-1,665732,229667,1348601,68495,8705,674003,0
14,1,712724,248131,1516626,73961,10092,758350,0
14,-1,668940,230679,1447023,68865,8768,723528,0
14,1,710902,248250,1284728,74011,8628,642214,0
14,-1,666550,230299,1330016,68739,8166,665009,0
14,-1,670772,230465,1271170,68732,9020,635539,0
14,1,714087,249546,1529668,74448,8977,764875,0
14,-1,668933,230374,1379531,68647,8460,689843,0
14,-1,665078,232592,1201046,69172,7218,600752,0
14,1,709581,248488,1336963,74067,9423,668517,0
14,-1,665307,230551,1240794,68313,7966,620064,0
14,1,710324,247891,1441615,73820,9539,720638,0
14,-1,685730,235292,1293106,71676,8956,646513,0
14,1,717307,249482,1366648,74661,9546,683524,0
14,-1,663351,230093,1317108,68262,7805,658582,0
14,1,700784,247088,1449448,73882,9010,724761,0
14,-1,666870,231078,1426561,68634,9075,713189,0
14,-1,687741,234802,1377194,72497,9464,688670,0
14,1,703148,246491,1251387,73677,7928,625681,0
14,-1,686009,234642,1428350,72411,9563,714207,0
14,1,711369,248016,1350077,74088,8905,675018,0
15,-1,718283,248395,1324391,73679,8375,662033,0
15,1,757396,265278,1510182,78254,9861,754689,0
15,-1,715656,248704,1264551,73788,7539,632083,0
15,1,712635,249313,1411734,74324,8953,705956,0
15,-1,667497,231063,1369773,68995,8903,684883,0
15,1,703507,247789,1302204,73594,8970,651166,0
15,-1,664343,229831,1226720,68608,7508,613442,0
15,1,726527,251834,1404766,76711,9908,702070,0
15,-1,668682,230272,1300376,68771,7643,650287,0
15,-1,665075,230288,1351415,68838,8472,675623,0
15,1,709200,247869,1319049,73569,8709,659378,0
15,-1,663720,229504,1261510,68503,8397,630791,0
15,-1,663022,230297,1220060,68865,8176,610083,0
15,1,709508,248287,1355056,73764,9092,677425,0
15,-1,669990,231639,1319397,69580,8337,659612,0
15,-1,668367,230689,1338956,69033,8708,669519,0
15,1,708024,247959,1463871,73807,11013,731224,0
15,-1,666350,230824,1346816,68937,9065,673470,0
15,1,704841,248149,1349090,73766,8694,674561,0
15,-1,690912,235219,1274316,72214,10445,637013,0
15,-1,673303,232146,1363780,69614,9627,681923,0
15,-1,666607,230673,1313676,69122,8372,656816,2
15,1,711297,250051,1459236,74689,8799,729661,0
15,-1,671602,231652,1311189,69392,8743,655638,0
15,-1,667920,231223,1346790,69303,9187,672846,2
15,1,707159,247662,1375353,73568,8547,687723,0
15,-1,666319,230062,1290566,68868,8265,645349,0
15,-1,668219,230553,1336750,69105,8407,668427,2
15,1,708391,248452,1338942,73844,7782,669508,0
15,-1,675087,232221,1320031,69867,8789,660106,0
15,-1,670921,231021,1358215,69177,8016,679165,2
15,-1,662087,230093,1379256,68883,7995,689676,0
15,1,710317,248526,1366270,73885,8313,683161,0
15,-1,662987,230617,1316208,69127,8460,658150,2
15,-1,661867,230489,1326415,69050,8387,663077,0
15,-1,665528,230894,1315128,69218,7700,657531,2
15,-1,671127,232792,1336667,70057,7872,668221,0
15,1,705780,248130,1373243,73709,8520,686717,0
15,-1,663202,230700,1185437,69139,7712,592716,2
15,-1,664987,231169,1346491,69370,8209,673142,0
15,-1,663932,231566,1340055,69329,8845,670041,2
15,1,709230,248253,1263689,73777,8173,631897,0
15,-1,662795,230469,1303547,68901,7883,651663,0
15,-1,667884,230166,1299404,68773,8245,649667,0
15,1,729215,252209,1400185,76676,9958,699512,0
15,-1,665239,230757,1207858,69055,7570,603972,0
15,-1,668365,232314,1230374,69836,8028,615264,2
15,-1,668435,231232,1304333,69153,8407,652170,0
15,1,712935,249487,1451795,74217,9771,725004,0
15,-1,668087,231421,1312385,69300,7556,656233,2
15,-1,662448,230302,1220590,68869,8165,610343,0
15,1,712633,248810,1486472,73865,9860,742968,0
15,-1,670143,232827,1323702,69972,8149,661989,2
15,-1,671242,232896,1351729,69942,7813,675974,0
15,-1,667333,230521,1229141,69001,7858,614646,2
15,1,708247,249083,1398445,73815,9819,699196,0
15,-1,672372,231910,1275942,69626,8306,638028,0
15,-1,660772,231068,1198899,69129,6757,599503,2
15,1,713116,249276,1398573,74019,9737,699207,0
15,-1,663607,230743,1283122,68982,8182,641452,0
15,-1,664476,231353,1418720,69235,9279,709579,2
15,-1,665053,230367,1318581,68911,7522,659373,2
15,-1,664082,231184,1262412,69162,7519,631221,2
15,1,711053,249789,1313069,74425,9223,656470,1
15,-1,665714,230584,1205643,68961,7252,602863,0
15,1,710854,247604,1293285,73517,9219,646781,0
15,-1,664759,230828,1209787,69063,7510,604933,2
15,-1,671643,232810,1313888,69981,7709,657021,2
15,-1,663105,230008,1183359,68784,7365,591719,0
15,1,713798,250323,1372793,74638,8552,686346,1
15,1,712214,248350,1403452,73728,8902,701699,0
15,-1,666721,231420,1415304,69283,8607,708404,2
15,1,707133,248187,1347502,73697,9059,673758,1
15,-1,690632,240314,1315738,71915,7687,657910,2
15,-1,669947,231462,1332632,69179,7958,666272,0
15,-1,669513,231972,1317535,69432,7735,658911,2
15,1,712413,249692,1297867,74447,8678,648846,1
15,-1,664340,230675,1220067,69053,6772,610091,2
15,-1,668645,230975,1475526,68933,8908,737496,0
15,1,715959,250300,1301278,74557,9515,650566,0
15,1,711475,248662,1306417,73653,8766,653035,1
15,1,707324,248870,1472102,73661,10221,735719,1
15,-1,665104,231520,1303915,69284,8501,651648,2
15,1,708611,248086,1486311,73447,10220,742904,0
15,1,706513,248113,1312106,73501,9649,655920,1
15,-1,664377,230811,1378417,69076,7773,689098,0
15,1,708698,248396,1493210,73554,10713,746695,1
15,-1,664522,230740,1360836,68842,7969,680118,2
15,-1,688221,235392,1423523,72371,8958,711728,0
15,1,709110,247266,1327922,73301,9243,663922,0
15,1,703661,247257,1282546,73335,8215,641280,1
15,1,709569,248107,1355087,73611,8938,677591,1
15,-1,664773,230167,1317417,68617,7792,658361,0
15,-1,667544,231145,1233533,69068,7249,616284,2
15,1,706909,247844,1262341,73537,7774,631205,1
15,-1,671688,231582,1397881,69189,9087,698667,2
15,1,709526,248137,1444792,73600,9076,722429,1
15,-1,669397,231802,1321966,69235,8796,661051,0
15,1,710319,247167,1426410,73233,9722,713197,0
15,-1,698989,242203,1397354,72685,9208,698358,2
15,-1,668065,230747,1399490,68924,8842,699652,0
15,1,708001,247612,1373963,73431,8772,686917,0
15,1,710931,247971,1434670,73574,9938,717115,1
15,-1,670397,231308,1289068,69208,8216,644248,2
15,-1,673488,231740,1342639,69226,9370,671253,0
15,-1,673110,231947,1351892,69177,8665,676051,2
15,-1,668549,232626,1340016,69455,8866,670052,0
15,-1,671471,234327,1388459,70283,9523,694297,2
15,1,715974,249896,1264298,74411,8532,632387,0
15,-1,671880,232674,1299554,69457,8854,649545,0
15,1,703329,248444,1251580,73200,8848,625793,1
15,1,703377,247307,1367102,72809,8832,683336,0
15,-1,667104,231923,1226717,69260,8244,613465,2
15,-1,670935,231628,1388254,69235,8647,694192,0
15,1,711386,248542,1478041,73194,11210,738546,0
15,-1,674323,233289,1372876,70016,8699,686348,2
15,1,701663,247789,1459057,73043,9394,729559,1
15,-1,688512,236134,1230530,72413,9520,615118,0
15,-1,670466,232321,1225004,69412,8929,612457,2
15,1,709884,247818,1378455,73972,9244,689274,0
15,-1,692989,240176,1423135,71725,8929,711555,2
15,-1,669420,231410,1277632,69188,8658,638670,0
15,1,710491,249217,1289449,74710,9101,644748,1
15,1,705342,247783,1361740,74009,8528,680931,1
15,1,707303,248447,1284339,74208,8497,642143,1
15,-1,668090,230850,1231982,68949,8235,615967,0
15,1,714860,249976,1319415,74979,8471,659779,0
15,1,707331,247347,1368485,73856,8559,683960,1
15,-1,667932,231073,1500754,69029,9984,750451,2
15,-1,668749,230745,1218010,69047,8090,608968,2
15,-1,668199,230094,1323219,68714,8189,661625,0
15,1,707453,247970,1344788,74061,9327,672430,1
15,1,710806,247944,1356199,74018,8725,678141,1
15,-1,665590,230947,1245087,69132,7809,622472,2
15,1,710562,247847,1348861,74008,8624,674358,0
15,-1,669717,230988,1238632,69167,7982,619239,0
15,1,714781,250178,1299642,75019,8689,649391,1
15,1,703711,247106,1303013,73742,9360,651542,1
15,1,709157,249159,1280621,74738,7924,640367,0
15,-1,666956,230762,1218673,68958,7785,609270,0
15,-1,668382,230650,1169196,68987,8520,584567,2
15,-1,669224,229984,1216919,68733,8535,608421,0
15,1,707513,247536,1260828,73836,9000,630339,0
15,-1,663799,230451,1211923,68911,7519,605908,2
15,1,711161,248795,1409795,74281,9912,704771,1
15,-1,667919,231417,1167433,69200,7566,583517,0
15,1,707179,247279,1341039,73751,9223,670538,1
15,1,727429,252420,1459109,77174,11484,729441,0
15,-1,667754,230169,1352384,68745,8146,676208,0
15,-1,665613,230688,1215689,68900,8672,607811,2
15,1,711220,247043,1305165,73692,8531,652639,0
15,-1,669910,231187,1371151,68933,9163,685612,2
15,-1,671637,230610,1317284,68606,9101,658555,0
15,-1,680067,233847,1314694,70040,9295,657115,2
15,-1,666694,230512,1392066,68667,8422,695953,0
15,1,712773,248792,1246948,74353,8409,623517,0
15,-1,663877,230237,1351112,68603,8148,675492,0
15,1,704813,247460,1238792,73907,9304,619431,1
15,-1,671504,233324,1312280,69959,8889,656012,2
15,1,710594,248288,1351679,74171,9158,675791,0
15,-1,664733,229849,1320812,68559,8656,660462,0
15,-1,667230,230271,1362514,68712,7923,681305,0
15,1,711379,248167,1403813,74179,9379,701951,0
15,-1,668526,230034,1340811,68644,8182,670434,0
15,1,726590,251901,1536398,77071,10713,768042,0
15,-1,673693,232549,1384533,69643,8730,692313,0
15,1,711296,249321,1319167,74493,9339,659558,1
15,-1,662666,230503,1309495,68815,8276,654719,2
15,-1,670192,231749,1252584,69371,7521,626534,0
15,1,717479,250472,1301262,74952,9699,650835,0
15,-1,669869,232204,1245738,69616,7458,622936,2
15,-1,668995,230336,1314545,68739,8514,656835,0
15,-1,671417,231441,1431422,69114,9390,715487,2
15,-1,666891,230783,1237867,68970,8309,618754,2
15,1,717415,250846,1431701,75179,9102,715881,1
15,1,715650,249121,1462650,74286,9224,731358,0
15,-1,667448,229788,1251763,68472,8161,625973,0
15,1,708018,248088,1376780,73973,8890,688422,0
15,1,711235,248854,1385441,74278,9067,692763,1
15,-1,665508,230274,1270313,68687,8084,635032,0
15,-1,673613,233006,1329241,69852,8871,664590,2
15,1,713519,250393,1238877,75000,8970,619486,1
15,-1,672101,231552,1286721,69287,8403,643176,0
15,-1,669883,230949,1334543,68945,8852,667158,2
15,1,718322,248830,1556740,74221,10244,778174,0
15,-1,666898,230457,1362780,68729,8434,680793,2
15,-1,675593,232244,1325740,69578,8907,662759,0
15,-1,672134,231043,1434720,68988,9785,717355,2
15,-1,676105,233264,1263682,69917,7629,631806,2
15,-1,681969,235604,1345792,71763,8732,672936,0
15,1,713622,249050,1387517,74236,8831,693783,0
15,1,709435,247942,1379216,73897,9486,689662,1
15,1,706237,247626,1658785,73814,10775,829270,1
15,-1,662584,230726,1361434,68397,8382,680612,2
15,-1,662161,230259,1377952,68223,8160,688847,0
15,-1,660060,231029,1333392,68480,8378,666686,2
15,1,709360,248132,1439697,73966,10054,719896,1
15,1,717107,250262,1666541,74910,11693,833242,0
15,-1,666246,232241,1253860,69113,8109,626978,2
15,-1,665408,230340,1268208,68259,8345,634139,0
15,-1,666100,230786,1221925,68396,8351,611010,2
15,1,710400,247534,1535119,73890,9433,767155,0
15,-1,664021,230764,1348472,68439,8117,674266,0
15,-1,659655,229637,1344534,68164,8573,672306,2
15,1,722427,249980,1526554,75111,10507,762986,0
15,-1,660552,229217,1354267,67960,9179,676774,0
15,-1,669633,232860,1384250,69460,9419,692419,2
15,1,700635,246874,1381747,73892,9088,690903,1
15,-1,666276,230136,1322978,69214,8721,661517,0
15,-1,668917,230947,1305266,69491,8349,652674,2
15,1,709461,247242,1462614,73891,9970,731390,0
15,1,702357,246881,1353586,73873,8973,676783,1
15,-1,660448,229859,1301274,69119,7402,650688,2
15,-1,665780,230834,1344010,69437,7594,672126,0
15,1,706279,247745,1394652,74025,9317,697314,1
15,1,709246,247363,1397466,73887,8389,698778,0
