-1,0,0.00890208
-1,1,0.00791296
-1,2,0.00791296
-1,3,0.00791296
-1,4,0.00791296
-1,5,0.00791296
-1,6,0.00791296
-1,7,0.00791296
-1,8,0.00791296
-1,9,0.00791296
-1,10,0.00791296
-1,11,0.00791296
-1,12,0.00791296
-1,13,0.00791296
-1,14,0.00791296
-1,15,0.00791296
-1,16,0.00791296
-1,17,0.00791296
-1,18,0.00791296
-1,19,0.00791296
-1,20,0.00791296
-1,21,0.00791296
-1,22,0.00791296
-1,23,0.00791296
-1,24,0.00791296
-1,25,0.00791296
-1,26,0.00791296
-1,27,0.00791296
-1,28,0.00791296
-1,29,0.00791296
-1,30,0.00791296
-1,31,0.00791296
-1,32,0.00791296
-1,33,0.00791296
-1,34,0.00791296
-1,35,0.00791296
-1,36,0.00791296
-1,37,0.00791296
-1,38,0.00791296
-1,39,0.00791296
-1,40,0.00791296
-1,41,0.00791296
-1,42,0.00791296
-1,43,0.00791296
-1,44,0.00791296
-1,45,0.00791296
-1,46,0.00791296
-1,47,0.00791296
-1,48,0.00791296
-1,49,0.00791296
-1,50,0.00791296
-1,51,0.00791296
-1,52,0.00791296
-1,53,0.00791296
-1,54,0.00791296
-1,55,0.00791296
-1,56,0.00791296
-1,57,0.00791296
-1,58,0.00791296
-1,59,0.00791296
-1,60,0.00791296
-1,61,0.00791296
-1,62,0.00791296
-1,63,0.00791296
-1,64,0.00791296
-1,65,0.00692384
-1,66,0.00692384
-1,67,0.00692384
-1,68,0.00692384
-1,69,0.00692384
-1,70,0.00692384
-1,71,0.00692384
-1,72,0.00692384
-1,73,0.00692384
-1,74,0.00692384
-1,75,0.00692384
-1,76,0.00692384
-1,77,0.00692384
-1,78,0.00692384
-1,79,0.00791296
-1,80,0.00791296
-1,81,0.00791296
-1,82,0.00791296
-1,83,0.00791296
-1,84,0.00791296
-1,85,0.00791296
-1,86,0.00791296
-1,87,0.00791296
-1,88,0.00791296
-1,89,0.00791296
-1,90,0.00791296
-1,91,0.00791296
-1,92,0.00791296
-1,93,0.00791296
-1,94,0.00791296
-1,95,0.00791296
-1,96,0.00791296
-1,97,0.00791296
-1,98,0.00791296
-1,99,0.00791296
-1,100,0.00791296
-1,101,0.00791296
-1,102,0.00791296
-1,103,0.00791296
-1,104,0.00791296
-1,105,0.00791296
-1,106,0.00791296
-1,107,0.00791296
-1,108,0.00791296
-1,109,0.00791296
-1,110,0.00791296
-1,111,0.00791296
-1,112,0.00791296
-1,113,0.00791296
-1,114,0.00791296
-1,115,0.00791296
-1,116,0.00791296
-1,117,0.00791296
-1,118,0.00791296
-1,119,0.00791296
-1,120,0.00791296
-1,121,0.00791296
-1,122,0.00791296
-1,123,0.00791296
-1,124,0.00791296
-1,125,0.00791296
-1,126,0.00791296
-1,127,0.00791296
2,0,0.00786627
2,1,0.00688299
2,2,0.00688299
2,3,0.00688299
2,4,0.00688299
2,5,0.00688299
2,6,0.00688299
2,7,0.00688299
2,8,0.00786627
2,9,0.00786627
2,10,0.00786627
2,11,0.00786627
2,12,0.00786627
2,13,0.00786627
2,14,0.00786627
2,15,0.00786627
2,16,0.00786627
2,17,0.00786627
2,18,0.00786627
2,19,0.00786627
2,20,0.00786627
2,21,0.00786627
2,22,0.00786627
2,23,0.00786627
2,24,0.00786627
2,25,0.00786627
2,26,0.00786627
2,27,0.00786627
2,28,0.00786627
2,29,0.00786627
2,30,0.00786627
2,31,0.00786627
2,32,0.00786627
2,33,0.00786627
2,34,0.00786627
2,35,0.00786627
2,36,0.00786627
2,37,0.00786627
2,38,0.00786627
2,39,0.00786627
2,40,0.00786627
2,41,0.00786627
2,42,0.00786627
2,43,0.00786627
2,44,0.00786627
2,45,0.00786627
2,46,0.00786627
2,47,0.00786627
2,48,0.00786627
2,49,0.00786627
2,50,0.00786627
2,51,0.00786627
2,52,0.00786627
2,53,0.00786627
2,54,0.00786627
2,55,0.00786627
2,56,0.00786627
2,57,0.00786627
2,58,0.00786627
2,59,0.00786627
2,60,0.00786627
2,61,0.00786627
2,62,0.00786627
2,63,0.00786627
2,64,0.00786627
2,65,0.00786627
2,66,0.00786627
2,67,0.00786627
2,68,0.00786627
2,69,0.00786627
2,70,0.00786627
2,71,0.00786627
2,72,0.00786627
2,73,0.00786627
2,74,0.00786627
2,75,0.00786627
2,76,0.00786627
2,77,0.00786627
2,78,0.00786627
2,79,0.00786627
2,80,0.00786627
2,81,0.00786627
2,82,0.00786627
2,83,0.00786627
2,84,0.00786627
2,85,0.00786627
2,86,0.00786627
2,87,0.00786627
2,88,0.00786627
2,89,0.00786627
2,90,0.00786627
2,91,0.00786627
2,92,0.00786627
2,93,0.00786627
2,94,0.00786627
2,95,0.00786627
2,96,0.00786627
2,97,0.00786627
2,98,0.00786627
2,99,0.00786627
2,100,0.00786627
2,101,0.00786627
2,102,0.00786627
2,103,0.00786627
2,104,0.00786627
2,105,0.00786627
2,106,0.00786627
2,107,0.00786627
2,108,0.00786627
2,109,0.00786627
2,110,0.00786627
2,111,0.00786627
2,112,0.00786627
2,113,0.00786627
2,114,0.00786627
2,115,0.00786627
2,116,0.00786627
2,117,0.00786627
2,118,0.00786627
2,119,0.00786627
2,120,0.00786627
2,121,0.00786627
2,122,0.00786627
2,123,0.00786627
2,124,0.00786627
2,125,0.00786627
2,126,0.00786627
2,127,0.00786627
