0,0,8,653875.375000,223725.500000,1312199.125000,67124.750000,7621.625000,655704.625000,20082.930936,7702.997079,60495.715942,2056.853832,458.088129,30219.853838
0,1,1,759397.000000,266064.000000,1611159.000000,78560.000000,9379.000000,804973.000000,0.000000,0.000000,0.000000,0.000000,0.000000,0.000000
1,0,7,650952.571429,222180.571429,1343611.714286,67005.285714,7965.142857,671414.571429,15873.041871,5392.597330,67558.627396,1559.314933,557.305617,33790.887985
1,1,0,-nan,-nan,-nan,-nan,-nan,-nan,-nan,-nan,-nan,-nan,-nan,-nan
2,0,7,643157.857143,219690.285714,1320728.857143,66176.857143,8012.142857,659741.714286,3828.802925,1129.245097,65553.510076,511.230848,537.808364,32716.860270
2,1,0,-nan,-nan,-nan,-nan,-nan,-nan,-nan,-nan,-nan,-nan,-nan,-nan
3,0,7,644125.285714,220070.571429,1301989.000000,66505.000000,8154.000000,650524.000000,8628.261532,1443.887002,55154.241246,1151.651113,795.530371,27595.471098
3,1,0,-nan,-nan,-nan,-nan,-nan,-nan,-nan,-nan,-nan,-nan,-nan,-nan
4,0,7,641268.000000,219539.285714,1271929.714286,66117.571429,7619.000000,635470.285714,3794.787515,1180.206001,71944.019324,576.222392,479.174588,35964.180306
4,1,0,-nan,-nan,-nan,-nan,-nan,-nan,-nan,-nan,-nan,-nan,-nan,-nan
5,0,7,643117.285714,219991.571429,1333082.142857,66467.000000,8195.285714,666141.285714,9559.834244,2025.698388,86819.559300,1316.805333,974.420225,43438.066833
5,1,0,-nan,-nan,-nan,-nan,-nan,-nan,-nan,-nan,-nan,-nan,-nan,-nan
6,0,7,640653.571429,219688.857143,1314305.571429,66123.285714,8033.142857,656705.285714,3791.825224,1398.525287,103368.611541,561.342705,612.758966,51624.374087
6,1,0,-nan,-nan,-nan,-nan,-nan,-nan,-nan,-nan,-nan,-nan,-nan,-nan
7,0,7,643537.714286,219883.571429,1285548.857143,66219.428571,7939.428571,642268.142857,1920.767162,740.547839,81579.296336,427.107834,313.739590,40828.470513
7,1,0,-nan,-nan,-nan,-nan,-nan,-nan,-nan,-nan,-nan,-nan,-nan,-nan
8,0,7,646033.000000,220718.000000,1306602.857143,66811.428571,8039.571429,652800.142857,6474.033055,1538.469369,38670.494309,1060.259922,453.279118,19334.741059
8,1,0,-nan,-nan,-nan,-nan,-nan,-nan,-nan,-nan,-nan,-nan,-nan,-nan
9,0,7,641958.142857,219304.285714,1301462.000000,65985.000000,8048.857143,650330.285714,2985.098487,667.862200,82165.347324,321.316488,389.642484,41091.606719
9,1,0,-nan,-nan,-nan,-nan,-nan,-nan,-nan,-nan,-nan,-nan,-nan,-nan
10,0,7,644767.857143,220108.857143,1315632.428571,66482.142857,7790.714286,657455.142857,7593.631024,1615.553282,68570.740663,1279.471591,606.259425,34314.069819
10,1,0,-nan,-nan,-nan,-nan,-nan,-nan,-nan,-nan,-nan,-nan,-nan,-nan
11,0,7,645968.285714,220424.571429,1278172.857143,66688.428571,7972.857143,638666.000000,11068.369950,2402.597336,62027.248555,1610.748970,915.288780,31012.884355
11,1,0,-nan,-nan,-nan,-nan,-nan,-nan,-nan,-nan,-nan,-nan,-nan,-nan
12,0,7,648401.571429,221066.571429,1330236.000000,67106.000000,8187.714286,664649.857143,9306.588739,1945.534217,53063.537023,1278.950016,612.227015,26578.074253
12,1,0,-nan,-nan,-nan,-nan,-nan,-nan,-nan,-nan,-nan,-nan,-nan,-nan
13,0,7,643552.428571,220162.714286,1320508.142857,66548.000000,8137.000000,659790.428571,7668.356703,1455.443154,81697.255401,1130.236132,799.712627,40873.613947
13,1,0,-nan,-nan,-nan,-nan,-nan,-nan,-nan,-nan,-nan,-nan,-nan,-nan
14,0,7,642549.428571,220166.142857,1320632.428571,66369.428571,7957.000000,659776.142857,2863.711820,1241.222373,76562.324283,500.946777,554.693738,38182.193675
14,1,0,-nan,-nan,-nan,-nan,-nan,-nan,-nan,-nan,-nan,-nan,-nan,-nan
15,0,7,643932.142857,220063.142857,1315389.142857,66483.142857,8016.714286,657240.000000,6763.392142,1889.520153,40615.592437,1225.930367,577.988313,20264.027473
15,1,0,-nan,-nan,-nan,-nan,-nan,-nan,-nan,-nan,-nan,-nan,-nan,-nan
16,0,7,645323.571429,220666.142857,1282463.142857,66605.714286,8029.571429,640575.428571,3796.879804,914.297455,79133.340392,391.268163,609.941650,39483.044049
16,1,0,-nan,-nan,-nan,-nan,-nan,-nan,-nan,-nan,-nan,-nan,-nan,-nan
17,0,7,651611.142857,221584.142857,1332608.000000,67526.571429,8304.000000,665821.428571,11843.288617,2539.290701,83136.949358,1611.152991,975.366012,41479.922926
17,1,0,-nan,-nan,-nan,-nan,-nan,-nan,-nan,-nan,-nan,-nan,-nan,-nan
18,0,7,642997.000000,220059.428571,1312369.285714,66306.857143,8212.714286,655741.857143,1546.727513,767.486967,81219.292301,431.662378,489.639726,40624.750009
18,1,0,-nan,-nan,-nan,-nan,-nan,-nan,-nan,-nan,-nan,-nan,-nan,-nan
19,0,7,643293.142857,220652.000000,1328893.857143,66431.142857,7961.857143,664089.857143,10705.491374,2992.438089,92684.228591,773.085549,482.177036,46260.689697
19,1,0,-nan,-nan,-nan,-nan,-nan,-nan,-nan,-nan,-nan,-nan,-nan,-nan
20,0,7,640344.857143,219818.285714,1349742.285714,66221.857143,8228.000000,674409.142857,1381.477721,1176.063618,83712.971331,560.160545,294.797751,41854.248146
20,1,0,-nan,-nan,-nan,-nan,-nan,-nan,-nan,-nan,-nan,-nan,-nan,-nan
21,0,7,646111.428571,221022.714286,1294762.571429,67114.571429,8342.285714,646864.142857,9874.870182,1905.046660,61105.875784,1421.671939,528.571853,30586.756823
21,1,0,-nan,-nan,-nan,-nan,-nan,-nan,-nan,-nan,-nan,-nan,-nan,-nan
22,0,7,642140.285714,219965.142857,1294197.857143,66251.428571,8218.714286,646610.142857,2903.739742,732.070338,79362.309585,338.064600,487.362204,39754.762272
22,1,0,-nan,-nan,-nan,-nan,-nan,-nan,-nan,-nan,-nan,-nan,-nan,-nan
23,0,7,641237.000000,219696.714286,1290213.428571,66186.428571,8008.000000,644755.714286,2562.916531,624.419894,90497.542460,341.013974,454.348513,45277.095268
23,1,0,-nan,-nan,-nan,-nan,-nan,-nan,-nan,-nan,-nan,-nan,-nan,-nan
24,0,7,641327.285714,219694.857143,1312969.285714,66167.571429,8067.857143,656101.571429,3255.609564,921.000609,68945.139702,452.267575,594.363388,34409.462797
24,1,0,-nan,-nan,-nan,-nan,-nan,-nan,-nan,-nan,-nan,-nan,-nan,-nan
25,0,7,640153.714286,219184.285714,1265348.714286,65971.428571,7556.000000,632243.428571,3657.296531,849.609947,50856.464479,425.855058,640.597043,25442.030079
25,1,0,-nan,-nan,-nan,-nan,-nan,-nan,-nan,-nan,-nan,-nan,-nan,-nan
26,0,7,643896.285714,220129.142857,1301573.857143,66555.714286,8049.857143,650377.000000,8538.027720,1748.984638,44224.899720,1157.170158,382.851119,22144.551029
26,1,0,-nan,-nan,-nan,-nan,-nan,-nan,-nan,-nan,-nan,-nan,-nan,-nan
27,0,7,645511.000000,220795.428571,1375450.571429,66856.714286,8028.428571,687201.714286,8247.858458,1770.695413,125648.218770,1034.595119,701.075879,62828.959200
27,1,0,-nan,-nan,-nan,-nan,-nan,-nan,-nan,-nan,-nan,-nan,-nan,-nan
28,0,7,644830.285714,220475.428571,1306470.571429,66747.000000,8050.714286,652555.428571,9146.990414,1967.511035,96701.082684,1300.315346,750.307882,48351.131382
28,1,0,-nan,-nan,-nan,-nan,-nan,-nan,-nan,-nan,-nan,-nan,-nan,-nan
29,0,7,640769.571429,219868.714286,1355607.714286,66268.000000,8100.571429,677258.000000,3350.635627,902.833273,114989.038620,382.344273,648.222153,57427.611480
29,1,0,-nan,-nan,-nan,-nan,-nan,-nan,-nan,-nan,-nan,-nan,-nan,-nan
30,0,7,642159.428571,220422.285714,1306942.857143,66482.857143,7773.000000,652941.571429,4035.155860,1138.033732,84736.693331,476.841222,564.557981,42369.777102
30,1,0,-nan,-nan,-nan,-nan,-nan,-nan,-nan,-nan,-nan,-nan,-nan,-nan
31,0,7,644949.571429,220201.142857,1292168.000000,66587.285714,8044.857143,645668.000000,7599.394466,1424.422131,71341.445462,970.070353,655.169428,35677.225989
31,1,0,-nan,-nan,-nan,-nan,-nan,-nan,-nan,-nan,-nan,-nan,-nan,-nan
32,0,7,644660.571429,220442.000000,1331929.857143,66721.142857,7984.857143,665460.857143,6661.526334,1757.451808,70484.574761,1256.413197,419.953204,35259.057638
32,1,0,-nan,-nan,-nan,-nan,-nan,-nan,-nan,-nan,-nan,-nan,-nan,-nan
33,0,7,641519.285714,219850.714286,1308751.142857,66251.714286,7962.857143,653894.857143,3569.322653,1105.936153,53466.772497,434.312828,270.049429,26790.955902
33,1,0,-nan,-nan,-nan,-nan,-nan,-nan,-nan,-nan,-nan,-nan,-nan,-nan
34,0,7,640051.428571,219568.142857,1293385.428571,66157.428571,7609.142857,646270.428571,3253.559627,734.517029,77483.727928,386.421996,398.258146,38727.140981
34,1,0,-nan,-nan,-nan,-nan,-nan,-nan,-nan,-nan,-nan,-nan,-nan,-nan
35,0,7,645375.571429,220474.000000,1363602.714286,66717.000000,8139.000000,681298.000000,7425.861525,1817.058219,168239.203351,1279.383557,870.548596,84146.116547
35,1,0,-nan,-nan,-nan,-nan,-nan,-nan,-nan,-nan,-nan,-nan,-nan,-nan
36,0,7,643610.285714,220201.857143,1366959.428571,66583.285714,8097.428571,683065.428571,7005.118286,1582.487051,158187.973884,1093.969145,893.222714,79091.046045
36,1,0,-nan,-nan,-nan,-nan,-nan,-nan,-nan,-nan,-nan,-nan,-nan,-nan
37,0,7,645476.714286,220771.714286,1363160.571429,66847.428571,8286.714286,681003.000000,7057.105714,1583.641528,67524.102376,1210.945658,547.320150,33580.276294
37,1,0,-nan,-nan,-nan,-nan,-nan,-nan,-nan,-nan,-nan,-nan,-nan,-nan
38,0,7,645586.571429,221372.857143,1363349.857143,66713.571429,8185.714286,681089.714286,9262.678182,2971.995358,126112.884035,877.417616,719.216978,62882.269254
38,1,0,-nan,-nan,-nan,-nan,-nan,-nan,-nan,-nan,-nan,-nan,-nan,-nan
39,0,7,643784.285714,220136.285714,1346112.714286,66532.000000,8212.285714,672682.428571,7617.539136,1596.029602,78763.730993,1241.408762,569.733701,39393.616491
39,1,0,-nan,-nan,-nan,-nan,-nan,-nan,-nan,-nan,-nan,-nan,-nan,-nan
40,0,7,643973.285714,220194.857143,1301200.714286,66596.142857,8359.285714,650180.857143,7206.967417,1707.295642,74185.446166,1196.527169,717.911199,37009.021805
40,1,0,-nan,-nan,-nan,-nan,-nan,-nan,-nan,-nan,-nan,-nan,-nan,-nan
41,0,7,643007.142857,220269.571429,1232360.285714,66423.428571,7888.000000,615675.714286,3057.752229,770.014630,35668.828992,422.032110,522.825565,17852.288623
41,1,0,-nan,-nan,-nan,-nan,-nan,-nan,-nan,-nan,-nan,-nan,-nan,-nan
42,0,7,640155.142857,219425.285714,1272211.285714,66009.000000,7667.428571,635671.285714,1554.481947,743.446168,66754.820885,418.073814,487.101883,33327.484144
42,1,0,-nan,-nan,-nan,-nan,-nan,-nan,-nan,-nan,-nan,-nan,-nan,-nan
43,0,7,643308.857143,220104.714286,1285911.000000,66533.000000,7845.714286,642536.571429,6105.218246,1410.387456,74675.763414,1187.615017,642.437260,37407.394994
43,1,0,-nan,-nan,-nan,-nan,-nan,-nan,-nan,-nan,-nan,-nan,-nan,-nan
44,0,7,639575.142857,219651.428571,1302238.428571,66127.142857,8230.857143,650609.000000,2178.619184,1162.046207,102083.955307,521.789073,829.819503,50816.012150
44,1,0,-nan,-nan,-nan,-nan,-nan,-nan,-nan,-nan,-nan,-nan,-nan,-nan
45,0,7,643128.428571,219913.428571,1279662.000000,66255.571429,7914.571429,639417.285714,4819.011246,1104.699682,65765.156154,441.648165,648.355471,32927.569442
45,1,0,-nan,-nan,-nan,-nan,-nan,-nan,-nan,-nan,-nan,-nan,-nan,-nan
46,0,7,653473.142857,222859.000000,1316971.000000,67744.571429,8407.142857,657966.428571,12551.765686,4178.778803,62654.961044,1757.470736,997.571541,31408.635063
46,1,0,-nan,-nan,-nan,-nan,-nan,-nan,-nan,-nan,-nan,-nan,-nan,-nan
47,0,7,643718.000000,219970.142857,1276903.714286,66449.142857,7828.428571,638056.000000,6583.518686,1582.383323,72781.220432,1086.791665,380.094671,36406.497579
47,1,0,-nan,-nan,-nan,-nan,-nan,-nan,-nan,-nan,-nan,-nan,-nan,-nan
48,0,7,644549.142857,220233.857143,1291544.000000,66508.571429,8130.285714,645352.285714,7878.728114,1478.281669,97341.341765,1009.376732,645.970524,48724.851458
48,1,0,-nan,-nan,-nan,-nan,-nan,-nan,-nan,-nan,-nan,-nan,-nan,-nan
49,0,7,647082.000000,221176.571429,1256340.857143,67091.714286,7841.428571,627741.571429,9346.847276,1911.320550,48088.627900,1395.817601,427.028556,23994.644348
49,1,0,-nan,-nan,-nan,-nan,-nan,-nan,-nan,-nan,-nan,-nan,-nan,-nan
50,0,7,643750.714286,220614.428571,1279586.142857,66528.285714,7979.428571,639324.571429,3522.080542,888.613182,90339.767637,430.356236,244.332243,45178.571807
50,1,0,-nan,-nan,-nan,-nan,-nan,-nan,-nan,-nan,-nan,-nan,-nan,-nan
51,0,7,641707.142857,219478.000000,1286704.142857,66034.142857,8028.000000,642944.714286,2208.536841,330.058869,58609.290715,223.868219,671.369602,29336.928195
51,1,0,-nan,-nan,-nan,-nan,-nan,-nan,-nan,-nan,-nan,-nan,-nan,-nan
52,0,7,645536.000000,220568.428571,1320948.285714,66717.142857,8096.714286,659999.285714,9076.259204,1813.679910,83137.576082,1290.042793,1056.981107,41590.661355
52,1,1,706683.000000,248109.000000,1325372.000000,74175.000000,8675.000000,662694.000000,0.000000,0.000000,0.000000,0.000000,0.000000,0.000000
53,0,7,648236.142857,221438.142857,1342472.857143,67283.714286,8390.428571,670669.142857,7302.153272,1958.070364,81631.713710,1472.095757,536.077515,40623.941292
53,1,1,704171.000000,247978.000000,1437186.000000,74229.000000,9471.000000,718107.000000,0.000000,0.000000,0.000000,0.000000,0.000000,0.000000
54,0,7,640833.857143,219423.714286,1357083.142857,66032.571429,8070.000000,678187.857143,2435.890299,722.532988,109846.600472,373.192733,960.432789,54923.697299
54,1,1,708268.000000,247867.000000,1266160.000000,74121.000000,8297.000000,632730.000000,0.000000,0.000000,0.000000,0.000000,0.000000,0.000000
55,0,7,640399.428571,219821.142857,1290108.285714,66176.285714,7751.142857,644585.142857,3479.680398,761.320362,40558.457035,332.686774,616.692660,20261.648448
55,1,1,713924.000000,250579.000000,1455993.000000,75333.000000,9515.000000,727511.000000,0.000000,0.000000,0.000000,0.000000,0.000000,0.000000
56,0,7,643869.714286,220747.142857,1338796.571429,66748.285714,8029.428571,668953.428571,8554.294289,1650.276984,67830.659810,1292.738369,566.975146,34013.425315
56,1,1,705740.000000,247925.000000,1346713.000000,74216.000000,8782.000000,673005.000000,0.000000,0.000000,0.000000,0.000000,0.000000,0.000000
57,0,7,640949.142857,219819.142857,1272588.857143,66224.571429,7765.142857,635785.714286,4864.789951,1402.680233,49487.286877,614.725922,374.530345,24640.175775
57,1,1,706173.000000,248206.000000,1338358.000000,74314.000000,8743.000000,668763.000000,0.000000,0.000000,0.000000,0.000000,0.000000,0.000000
58,0,7,646942.285714,221263.285714,1272148.571429,67194.571429,8036.571429,635635.428571,9591.023418,2011.750461,80826.599790,1467.525892,810.043007,40469.913731
58,1,1,714771.000000,250103.000000,1452922.000000,75233.000000,9677.000000,725878.000000,0.000000,0.000000,0.000000,0.000000,0.000000,0.000000
59,0,8,645155.125000,220341.125000,1275635.000000,66617.375000,7934.625000,637316.875000,6013.269295,1507.805395,63269.932444,960.127588,538.785425,31577.987188
59,1,1,706281.000000,247708.000000,1431362.000000,74094.000000,8880.000000,715198.000000,0.000000,0.000000,0.000000,0.000000,0.000000,0.000000
60,0,8,643283.125000,219924.750000,1268843.000000,66265.125000,7961.750000,633932.625000,3890.034043,821.176405,65285.324002,573.184185,401.671119,32685.433338
60,1,1,708650.000000,248138.000000,1349415.000000,74302.000000,8871.000000,674445.000000,0.000000,0.000000,0.000000,0.000000,0.000000,0.000000
61,0,8,646404.000000,220606.375000,1357156.375000,66727.875000,8250.500000,677952.250000,7554.577536,1324.893575,46499.976782,1021.835657,431.069890,23416.879253
61,1,1,704137.000000,247418.000000,1318810.000000,74007.000000,8644.000000,658965.000000,0.000000,0.000000,0.000000,0.000000,0.000000,0.000000
62,0,8,640692.750000,219374.625000,1374601.000000,66017.500000,8456.000000,686840.000000,3215.399032,635.482875,49132.659894,211.531912,402.899181,24541.295341
62,1,1,705844.000000,247869.000000,1393232.000000,74198.000000,9140.000000,695698.000000,0.000000,0.000000,0.000000,0.000000,0.000000,0.000000
63,0,8,642446.500000,219630.625000,1244186.500000,66167.625000,7769.250000,621583.000000,2858.329101,853.246145,65574.452575,477.525114,207.676281,32741.603939
63,1,1,704594.000000,247716.000000,1563391.000000,74070.000000,9791.000000,781370.000000,0.000000,0.000000,0.000000,0.000000,0.000000,0.000000
64,0,8,645401.875000,220250.375000,1271746.750000,66618.625000,7971.750000,635362.875000,8423.304257,1922.763307,73497.273838,1281.265872,857.926388,36785.130734
64,1,1,713546.000000,247649.000000,1774346.000000,74048.000000,10167.000000,885765.000000,0.000000,0.000000,0.000000,0.000000,0.000000,0.000000
65,0,8,641002.875000,219339.000000,1230555.250000,66006.875000,7636.000000,614912.250000,2538.656654,528.268161,57314.052890,260.827260,328.370599,28666.389709
65,1,1,715438.000000,248228.000000,1418789.000000,74337.000000,9292.000000,708975.000000,0.000000,0.000000,0.000000,0.000000,0.000000,0.000000
66,0,8,646481.000000,220864.875000,1268207.250000,66835.875000,8116.500000,633636.125000,6644.065529,1368.649009,46668.797056,959.907474,648.959359,23385.495095
66,1,1,733838.000000,252907.000000,1504556.000000,77570.000000,10322.000000,751980.000000,0.000000,0.000000,0.000000,0.000000,0.000000,0.000000
67,0,8,648461.250000,221192.500000,1259425.625000,67144.000000,8030.125000,629230.125000,8055.949785,1837.220795,64971.618663,1337.996263,422.055517,32625.858669
67,1,1,717301.000000,250044.000000,1408278.000000,75040.000000,9436.000000,703093.000000,0.000000,0.000000,0.000000,0.000000,0.000000,0.000000
68,0,8,645144.875000,220166.625000,1298269.375000,66544.125000,8215.875000,648650.500000,6826.533023,1368.511046,104189.628772,1138.965807,675.793873,52083.074588
68,1,1,713461.000000,248257.000000,1357393.000000,74160.000000,9366.000000,678159.000000,0.000000,0.000000,0.000000,0.000000,0.000000,0.000000
69,0,8,642471.875000,219837.250000,1285504.750000,66200.375000,7746.250000,642242.250000,3355.927608,1144.116116,55943.140115,430.381789,485.396938,28028.444992
69,1,1,710863.000000,248870.000000,1490769.000000,74271.000000,9645.000000,745028.000000,0.000000,0.000000,0.000000,0.000000,0.000000,0.000000
70,0,8,640665.125000,219562.000000,1270176.250000,66048.500000,7866.875000,634648.875000,4487.112753,938.904148,60841.395098,545.884374,537.039439,30395.080480
70,1,1,712332.000000,248920.000000,1803813.000000,74287.000000,11762.000000,901254.000000,0.000000,0.000000,0.000000,0.000000,0.000000,0.000000
71,0,8,642449.625000,220089.875000,1305987.625000,66280.500000,8009.875000,652480.375000,1685.386079,613.328305,97304.786002,447.444689,459.806872,48552.829493
71,1,1,710517.000000,248637.000000,1342197.000000,74188.000000,8734.000000,670785.000000,0.000000,0.000000,0.000000,0.000000,0.000000,0.000000
72,0,8,645816.125000,220784.125000,1310985.000000,66848.000000,8055.750000,655089.875000,10555.172872,2040.316914,112921.430391,1535.504640,804.746971,56494.601624
72,1,1,720259.000000,249860.000000,1443855.000000,74508.000000,10025.000000,721228.000000,0.000000,0.000000,0.000000,0.000000,0.000000,0.000000
73,0,8,645661.375000,220330.000000,1396947.375000,66706.875000,8309.000000,698095.500000,11352.801295,2246.886123,46232.324933,1703.021905,733.242968,23072.834931
73,1,1,719835.000000,251053.000000,1469077.000000,75367.000000,9251.000000,733723.000000,0.000000,0.000000,0.000000,0.000000,0.000000,0.000000
74,0,8,641916.500000,219855.000000,1291233.750000,66140.500000,7723.125000,645188.500000,2168.364764,890.438235,69785.722556,338.871657,497.348077,34927.032518
74,1,1,712294.000000,249472.000000,1420792.000000,74473.000000,9268.000000,709931.000000,0.000000,0.000000,0.000000,0.000000,0.000000,0.000000
75,0,8,645401.750000,220629.875000,1317606.125000,66757.000000,8242.000000,658320.125000,6321.664392,1780.185625,57114.731452,1036.278317,574.726457,28563.283589
75,1,1,712513.000000,249240.000000,1330256.000000,74405.000000,9090.000000,664610.000000,0.000000,0.000000,0.000000,0.000000,0.000000,0.000000
76,0,8,641826.875000,220044.750000,1309829.000000,66359.250000,7772.875000,654421.625000,4213.041907,919.726556,37780.366465,515.229742,372.584701,18875.129589
76,1,1,713672.000000,249721.000000,1307514.000000,74559.000000,8905.000000,653403.000000,0.000000,0.000000,0.000000,0.000000,0.000000,0.000000
77,0,8,645688.750000,220610.000000,1328487.875000,66715.375000,8351.375000,663756.375000,6440.692330,1756.321653,69737.601953,1196.862036,743.856663,34716.299882
77,1,1,719245.000000,251254.000000,1320355.000000,75327.000000,9669.000000,659535.000000,0.000000,0.000000,0.000000,0.000000,0.000000,0.000000
78,0,8,642244.625000,219612.375000,1325831.000000,66175.375000,8012.500000,662468.750000,3515.208135,1028.271114,110205.339065,356.061068,396.980793,55088.057691
78,1,1,708516.000000,248704.000000,1486177.000000,74209.000000,10046.000000,742780.000000,0.000000,0.000000,0.000000,0.000000,0.000000,0.000000
79,0,8,643013.250000,219901.875000,1372656.375000,66262.500000,8613.125000,685761.500000,3792.042054,1126.266225,98414.727855,566.936945,1028.826205,49132.276825
79,1,1,709337.000000,248963.000000,1440193.000000,74342.000000,9764.000000,719701.000000,0.000000,0.000000,0.000000,0.000000,0.000000,0.000000
80,0,8,646081.375000,220629.375000,1290883.375000,66749.875000,8263.375000,644991.375000,7446.516282,1364.014199,60495.281151,1104.796071,648.308556,30267.479925
80,1,1,714378.000000,248760.000000,1448125.000000,74255.000000,9635.000000,723632.000000,0.000000,0.000000,0.000000,0.000000,0.000000,0.000000
81,0,8,645134.375000,220371.500000,1316291.875000,66637.750000,8190.375000,657656.125000,7430.274170,1673.679255,123075.847769,1015.635977,620.750743,61476.219279
81,1,1,734671.000000,253891.000000,1540025.000000,77692.000000,9509.000000,769715.000000,0.000000,0.000000,0.000000,0.000000,0.000000,0.000000
82,0,8,647873.875000,221313.750000,1277774.125000,67234.375000,8026.125000,638448.750000,8888.477294,1954.573275,61155.173936,1293.001057,424.737695,30545.570202
82,1,1,713750.000000,248834.000000,1371206.000000,74289.000000,8584.000000,684987.000000,0.000000,0.000000,0.000000,0.000000,0.000000,0.000000
83,0,8,646976.875000,220710.125000,1331151.500000,66950.500000,8395.750000,665079.250000,9772.132181,1969.089348,102106.812810,1601.628780,609.702950,50948.836740
83,1,1,716507.000000,250305.000000,1366392.000000,74950.000000,9138.000000,682484.000000,0.000000,0.000000,0.000000,0.000000,0.000000,0.000000
84,0,8,641011.375000,219409.500000,1292947.375000,66108.250000,7996.875000,646030.625000,3572.860686,669.936004,77300.874586,363.445921,759.949248,38605.072374
84,1,1,714293.000000,249269.000000,1374510.000000,74333.000000,10025.000000,686678.000000,0.000000,0.000000,0.000000,0.000000,0.000000,0.000000
85,0,8,641754.250000,219683.500000,1285284.750000,66224.750000,8081.125000,642145.375000,2628.967418,729.731629,57038.473557,472.453371,644.279721,28527.580698
85,1,1,711442.000000,249421.000000,1495721.000000,74401.000000,10231.000000,747482.000000,0.000000,0.000000,0.000000,0.000000,0.000000,0.000000
86,0,8,646008.250000,221229.750000,1314133.625000,67031.875000,8248.125000,656547.375000,6075.219003,1569.466052,67398.934893,949.380513,480.219074,33760.545200
86,1,1,716091.000000,249907.000000,1345487.000000,74477.000000,9258.000000,672119.000000,0.000000,0.000000,0.000000,0.000000,0.000000,0.000000
87,0,8,645097.250000,220521.875000,1320870.250000,66717.500000,8618.375000,660056.000000,5315.215324,1489.459167,52932.797056,911.859638,873.853669,26438.824856
87,1,1,712109.000000,249199.000000,1510598.000000,74332.000000,9321.000000,754700.000000,0.000000,0.000000,0.000000,0.000000,0.000000,0.000000
88,0,8,641753.875000,219599.375000,1305857.125000,66152.875000,8373.625000,652452.250000,3299.992138,878.964012,56197.208190,422.249167,587.481263,28105.130313
88,1,1,711183.000000,249852.000000,1354526.000000,74649.000000,9016.000000,676850.000000,0.000000,0.000000,0.000000,0.000000,0.000000,0.000000
89,0,8,644755.125000,220065.125000,1289772.875000,66560.375000,8025.625000,644513.375000,7441.523205,1491.346911,69051.560906,980.856378,460.638941,34554.421978
89,1,1,713856.000000,249966.000000,1494388.000000,74736.000000,10233.000000,746653.000000,0.000000,0.000000,0.000000,0.000000,0.000000,0.000000
90,0,8,642690.500000,219965.500000,1287847.125000,66332.750000,7922.500000,643492.250000,2451.880605,1081.982671,73693.868223,476.642883,379.080796,36766.471753
90,1,1,710020.000000,248923.000000,1466392.000000,74312.000000,9888.000000,732714.000000,0.000000,0.000000,0.000000,0.000000,0.000000,0.000000
91,0,8,643083.375000,219944.500000,1324027.625000,66329.375000,8093.000000,661529.750000,4407.386157,1085.482151,112216.174360,400.452225,806.796753,56133.439683
91,1,1,717007.000000,250871.000000,1364631.000000,75279.000000,9027.000000,681775.000000,0.000000,0.000000,0.000000,0.000000,0.000000,0.000000
92,0,8,647734.875000,220661.125000,1298919.750000,66985.375000,8199.875000,649024.375000,9409.299395,2044.796043,60514.526167,1283.630782,519.617753,30252.282595
92,1,1,710849.000000,249291.000000,1350682.000000,74543.000000,8483.000000,674891.000000,0.000000,0.000000,0.000000,0.000000,0.000000,0.000000
93,0,8,643552.000000,220052.750000,1295633.750000,66370.750000,8096.875000,647334.000000,2816.340800,1064.605531,53167.709986,641.704128,430.729160,26558.881688
93,1,1,706025.000000,248176.000000,1437832.000000,74128.000000,10166.000000,718470.000000,0.000000,0.000000,0.000000,0.000000,0.000000,0.000000
94,0,8,642786.875000,219698.125000,1292177.375000,66203.625000,7944.375000,645608.000000,2371.434030,839.998131,48350.518632,412.275981,444.269045,24178.126602
94,1,1,715916.000000,248483.000000,1379655.000000,74126.000000,9479.000000,689055.000000,0.000000,0.000000,0.000000,0.000000,0.000000,0.000000
95,0,8,643319.375000,219925.875000,1352287.125000,66352.125000,8588.875000,675629.125000,2671.179933,1098.503919,103111.139919,500.526083,827.642803,51466.669876
95,1,1,734477.000000,253269.000000,1543125.000000,77497.000000,11018.000000,771162.000000,0.000000,0.000000,0.000000,0.000000,0.000000,0.000000
96,0,8,648545.500000,221110.125000,1316911.625000,67153.625000,8343.875000,658018.750000,9202.575591,2255.651759,69754.049551,1435.770519,568.204945,34894.040472
96,1,1,732800.000000,252938.000000,1518413.000000,77436.000000,10290.000000,758735.000000,0.000000,0.000000,0.000000,0.000000,0.000000,0.000000
97,0,8,644977.000000,220367.500000,1259599.500000,66683.875000,7972.375000,629345.500000,6770.171970,1557.331612,78098.237410,979.403701,737.664886,39041.212020
97,1,1,714586.000000,248430.000000,1470678.000000,74217.000000,9254.000000,734904.000000,0.000000,0.000000,0.000000,0.000000,0.000000,0.000000
98,0,8,645006.875000,220285.250000,1293949.875000,66557.375000,8029.000000,646569.375000,7002.833809,1535.795132,73843.001462,984.511165,565.487179,36885.537877
98,1,1,712377.000000,248030.000000,1343863.000000,74086.000000,9202.000000,671500.000000,0.000000,0.000000,0.000000,0.000000,0.000000,0.000000
99,0,8,643047.875000,220055.000000,1334522.375000,66332.750000,8408.875000,666781.875000,2766.076890,1003.895164,101673.472369,436.265329,899.446557,50771.927525
99,1,1,712028.000000,248965.000000,1505682.000000,74453.000000,9855.000000,752184.000000,0.000000,0.000000,0.000000,0.000000,0.000000,0.000000
100,0,8,645932.000000,220724.375000,1301785.750000,66930.375000,7941.375000,650484.500000,9359.375674,2451.541859,61808.552531,1511.922860,507.658827,30831.851886
100,1,1,714541.000000,249706.000000,1331650.000000,74737.000000,8928.000000,665205.000000,0.000000,0.000000,0.000000,0.000000,0.000000,0.000000
101,0,8,642555.625000,219821.250000,1278308.375000,66254.875000,8068.375000,638668.250000,3824.559777,1114.126984,63210.541688,553.034004,419.195342,31516.400119
101,1,1,710316.000000,248074.000000,1443214.000000,73936.000000,9994.000000,721185.000000,0.000000,0.000000,0.000000,0.000000,0.000000,0.000000
102,0,8,642325.750000,219713.250000,1304769.625000,66183.875000,7888.000000,651925.250000,2335.214377,847.051910,48918.828328,288.056608,392.238129,24454.538407
102,1,1,709972.000000,248138.000000,1471177.000000,74050.000000,9994.000000,736281.000000,0.000000,0.000000,0.000000,0.000000,0.000000,0.000000
103,0,8,645397.625000,220203.875000,1308801.125000,66552.875000,8230.000000,653986.500000,6114.902574,1456.051462,68065.684986,1183.660576,912.369854,34078.942938
103,1,1,713671.000000,248088.000000,1345109.000000,74059.000000,9963.000000,672161.000000,0.000000,0.000000,0.000000,0.000000,0.000000,0.000000
104,0,8,642650.625000,220046.750000,1292751.375000,66329.125000,8300.000000,645824.750000,4620.899721,1044.626099,64953.483817,393.888765,432.668753,32437.486373
104,1,1,731494.000000,252975.000000,1515029.000000,77461.000000,11156.000000,756613.000000,0.000000,0.000000,0.000000,0.000000,0.000000,0.000000
105,0,8,648587.875000,221335.250000,1303133.000000,67248.500000,8135.625000,651128.750000,8824.444507,1885.297109,76292.195281,1164.263394,632.411049,38210.253103
105,1,1,711886.000000,248518.000000,1428661.000000,74293.000000,9764.000000,713975.000000,0.000000,0.000000,0.000000,0.000000,0.000000,0.000000
106,0,8,648119.125000,221534.625000,1292038.750000,67014.875000,7967.375000,645576.750000,11265.776631,4002.284096,40144.295472,1601.765779,462.088719,20116.948189
106,1,1,716731.000000,249581.000000,1783678.000000,74663.000000,10995.000000,890395.000000,0.000000,0.000000,0.000000,0.000000,0.000000,0.000000
107,0,8,644644.375000,220168.375000,1300659.750000,66582.500000,7857.750000,649906.625000,7915.790042,1321.748079,103636.142993,1117.284431,733.959936,51814.558685
107,1,1,710979.000000,248249.000000,1452959.000000,74171.000000,8963.000000,726161.000000,0.000000,0.000000,0.000000,0.000000,0.000000,0.000000
108,0,8,641754.375000,219895.500000,1279381.375000,66300.375000,7861.250000,639082.000000,2932.404471,1135.743149,55522.340819,364.329843,442.494280,27784.604060
108,1,1,713594.000000,249989.000000,1419386.000000,74989.000000,8803.000000,709091.000000,0.000000,0.000000,0.000000,0.000000,0.000000,0.000000
109,0,8,641604.000000,219803.375000,1308287.750000,66203.750000,8107.875000,653703.000000,1908.043107,665.330545,76794.384596,403.613599,735.058746,38177.997096
109,1,1,712694.000000,249492.000000,1347183.000000,74742.000000,9081.000000,672993.000000,0.000000,0.000000,0.000000,0.000000,0.000000,0.000000
110,0,7,642112.571429,219858.714286,1317798.000000,66220.857143,8029.714286,658484.428571,1758.813143,680.641864,76441.868387,395.054582,552.542361,38259.725396
110,1,1,710561.000000,248426.000000,1287641.000000,74149.000000,8618.000000,643459.000000,0.000000,0.000000,0.000000,0.000000,0.000000,0.000000
111,0,7,641490.428571,219877.142857,1305145.714286,66270.428571,7752.142857,652182.428571,3258.247507,1162.812284,69768.373835,495.550735,678.837752,34871.363564
111,1,1,728612.000000,252805.000000,1453280.000000,77460.000000,10812.000000,726276.000000,0.000000,0.000000,0.000000,0.000000,0.000000,0.000000
112,0,7,647622.571429,221035.714286,1348945.857143,67136.714286,8182.857143,674031.714286,10608.975215,2079.803543,46266.896958,1644.967018,856.434207,23079.341565
112,1,1,711448.000000,248458.000000,1446082.000000,74288.000000,8776.000000,722662.000000,0.000000,0.000000,0.000000,0.000000,0.000000,0.000000
113,0,7,646730.857143,220691.428571,1303162.857143,66953.571429,8206.857143,651236.857143,11017.249079,2158.000322,61423.433191,1496.913096,777.246684,30739.760904
113,1,1,710231.000000,249114.000000,1323280.000000,74476.000000,9313.000000,661211.000000,0.000000,0.000000,0.000000,0.000000,0.000000,0.000000
114,0,7,643467.285714,220173.714286,1284119.857143,66579.428571,8053.285714,641614.571429,5592.639952,1386.480407,49200.152873,995.346725,257.676272,24561.799625
114,1,1,706931.000000,248362.000000,1432770.000000,74152.000000,9736.000000,715943.000000,0.000000,0.000000,0.000000,0.000000,0.000000,0.000000
115,0,7,643760.142857,220042.000000,1322473.571429,66351.142857,8183.571429,660665.285714,1946.183623,1155.182979,61945.283113,544.977700,289.089634,30604.623169
115,1,1,713622.000000,248560.000000,1451769.000000,74275.000000,9788.000000,725511.000000,0.000000,0.000000,0.000000,0.000000,0.000000,0.000000
116,0,7,641804.000000,219479.714286,1333521.000000,66078.142857,7987.857143,666333.428571,1250.074969,664.674510,50144.821821,296.706892,458.509831,24947.708339
116,1,1,713415.000000,249057.000000,1443621.000000,74451.000000,9368.000000,720962.000000,0.000000,0.000000,0.000000,0.000000,0.000000,0.000000
117,0,7,645347.428571,220857.285714,1325451.571429,66894.142857,8045.428571,662270.285714,7028.322618,1657.191576,77134.072260,989.437853,562.597511,38579.659092
117,1,1,707920.000000,248091.000000,1444089.000000,74129.000000,9846.000000,721671.000000,0.000000,0.000000,0.000000,0.000000,0.000000,0.000000
118,0,7,644813.857143,220628.571429,1356502.142857,66751.857143,8396.142857,677593.428571,8390.025974,1949.476183,120011.358927,1344.003659,846.865722,59555.957015
118,1,1,715146.000000,250631.000000,1424401.000000,75303.000000,9368.000000,711368.000000,0.000000,0.000000,0.000000,0.000000,0.000000,0.000000
119,0,7,645149.285714,220575.000000,1298072.714286,66777.000000,8065.000000,648440.428571,6548.711863,1287.157333,81310.622741,1109.902055,422.646762,40515.973202
119,1,1,714357.000000,249866.000000,1414064.000000,74890.000000,10250.000000,706470.000000,0.000000,0.000000,0.000000,0.000000,0.000000,0.000000
120,0,7,639702.428571,219480.000000,1251755.714286,66091.714286,7853.428571,625259.857143,3064.499393,896.841601,50348.454423,407.576711,273.363629,25036.975259
120,1,1,710043.000000,248348.000000,1500165.000000,74167.000000,10337.000000,749639.000000,0.000000,0.000000,0.000000,0.000000,0.000000,0.000000
121,0,7,643599.857143,220748.857143,1336509.857143,66849.428571,8455.000000,667676.571429,7425.439793,1703.320575,145462.456599,1284.521351,745.483927,72578.848188
121,1,1,710092.000000,250294.000000,1360427.000000,75151.000000,9532.000000,679598.000000,0.000000,0.000000,0.000000,0.000000,0.000000,0.000000
122,0,7,647567.428571,221069.000000,1264591.857143,67167.428571,8236.000000,631696.142857,6841.617412,1678.777276,57414.867613,1249.279319,352.186639,28798.430609
122,1,1,711231.000000,248110.000000,1425152.000000,74119.000000,9452.000000,712101.000000,0.000000,0.000000,0.000000,0.000000,0.000000,0.000000
123,0,7,648547.571429,221136.285714,1306818.571429,67169.285714,8449.428571,653184.714286,10590.644441,2349.164576,69806.819910,1479.327619,792.769262,34994.371122
123,1,1,707081.000000,247886.000000,1517713.000000,73946.000000,9100.000000,758474.000000,0.000000,0.000000,0.000000,0.000000,0.000000,0.000000
124,0,7,641540.000000,219543.714286,1272476.571429,66158.571429,8106.000000,635704.428571,2277.593906,606.131460,80837.610817,309.757443,440.828765,40221.937777
124,1,1,706380.000000,248121.000000,1361947.000000,74089.000000,9661.000000,680624.000000,0.000000,0.000000,0.000000,0.000000,0.000000,0.000000
125,0,7,641131.142857,219721.000000,1289094.857143,66213.142857,8135.142857,644114.142857,5341.565646,1276.177440,69920.533155,510.394925,573.892829,34959.574076
125,1,1,706545.000000,248336.000000,1345282.000000,74231.000000,9480.000000,672258.000000,0.000000,0.000000,0.000000,0.000000,0.000000,0.000000
126,0,7,643602.571429,220128.000000,1301344.000000,66375.571429,8180.714286,650073.000000,4172.371332,916.879958,72950.083662,381.052249,936.733186,36503.515478
126,1,1,711897.000000,248687.000000,1610820.000000,74295.000000,10610.000000,804975.000000,0.000000,0.000000,0.000000,0.000000,0.000000,0.000000
127,0,7,644390.285714,220046.571429,1311531.857143,66500.000000,8096.428571,655307.857143,6702.456878,1408.955627,37404.055710,1051.766541,450.619528,18771.817869
127,1,1,706192.000000,248174.000000,1446867.000000,74180.000000,9310.000000,723370.000000,0.000000,0.000000,0.000000,0.000000,0.000000,0.000000
128,0,7,641646.714286,219721.142857,1298605.285714,66165.428571,7799.000000,648805.000000,4841.760002,1005.654077,41528.398922,370.615263,474.119033,20688.875803
128,1,1,710360.000000,248567.000000,1415558.000000,74508.000000,10111.000000,707169.000000,0.000000,0.000000,0.000000,0.000000,0.000000,0.000000
129,0,7,647252.428571,220907.857143,1309495.857143,67066.428571,8261.714286,654317.000000,11319.712122,2245.176762,28512.300425,1511.794474,385.689999,14335.260434
129,1,1,706904.000000,248401.000000,1477361.000000,73193.000000,9929.000000,738204.000000,0.000000,0.000000,0.000000,0.000000,0.000000,0.000000
130,0,7,643277.857143,220081.142857,1332870.285714,66498.714286,8122.714286,665866.571429,7374.319154,1597.512748,118455.276457,1177.925139,988.537117,59008.716181
130,1,1,708102.000000,249146.000000,1533140.000000,73492.000000,10037.000000,766135.000000,0.000000,0.000000,0.000000,0.000000,0.000000,0.000000
131,0,7,641567.000000,219811.000000,1306170.142857,66178.571429,7723.857143,652668.571429,5077.836941,1024.809111,38602.046768,329.116504,383.888908,19252.146989
131,1,1,704264.000000,248736.000000,1672726.000000,73296.000000,9905.000000,835886.000000,0.000000,0.000000,0.000000,0.000000,0.000000,0.000000
132,0,7,643364.142857,220069.285714,1316704.000000,66526.857143,8139.571429,657922.857143,8181.038066,1811.487448,86762.739236,1198.460254,530.513459,43441.395671
132,1,1,708473.000000,250171.000000,1444780.000000,74082.000000,9505.000000,721436.000000,0.000000,0.000000,0.000000,0.000000,0.000000,0.000000
133,0,7,644564.428571,220675.571429,1344386.000000,66786.714286,8264.714286,671757.285714,10754.683164,2114.429329,92058.552853,1330.722115,737.085906,46041.857328
133,1,1,705898.000000,249235.000000,1422198.000000,73437.000000,10244.000000,710718.000000,0.000000,0.000000,0.000000,0.000000,0.000000,0.000000
134,0,7,645948.142857,220953.571429,1280099.714286,67091.142857,7951.285714,639595.285714,9802.266421,2163.182567,56424.523315,1368.863077,513.793653,28272.665763
134,1,1,705675.000000,249140.000000,1414091.000000,73464.000000,9125.000000,706611.000000,0.000000,0.000000,0.000000,0.000000,0.000000,0.000000
135,0,7,650755.142857,221658.285714,1373980.285714,67535.285714,8289.857143,686557.142857,13589.524447,2424.326458,72882.019844,1820.292262,622.574018,36490.493570
135,1,1,709471.000000,250148.000000,1544437.000000,73997.000000,9284.000000,771676.000000,0.000000,0.000000,0.000000,0.000000,0.000000,0.000000
136,0,7,646539.857143,220340.000000,1307733.428571,66662.142857,7855.000000,653355.857143,7082.371948,1947.618472,74913.978611,1098.444020,842.108239,37409.846414
136,1,1,704443.000000,248399.000000,1511392.000000,73241.000000,8541.000000,755372.000000,0.000000,0.000000,0.000000,0.000000,0.000000,0.000000
137,0,7,646555.428571,220317.571429,1347320.142857,66652.714286,8380.285714,673172.000000,7488.005339,1790.206282,63393.127736,1264.824970,524.949988,31669.958252
137,1,1,716427.000000,248311.000000,1588013.000000,73580.000000,8762.000000,793493.000000,0.000000,0.000000,0.000000,0.000000,0.000000,0.000000
138,0,7,643201.714286,219670.142857,1313961.142857,66125.000000,7910.142857,656573.285714,4147.100147,942.131691,55980.305798,367.215001,670.978481,28059.275837
138,1,1,716024.000000,248932.000000,1398469.000000,73833.000000,8915.000000,698675.000000,0.000000,0.000000,0.000000,0.000000,0.000000,0.000000
139,0,7,642668.571429,219941.000000,1310824.285714,66282.857143,7911.000000,654997.142857,3802.117563,1121.230829,84124.269941,584.358850,592.140910,42113.743768
139,1,1,735488.000000,253351.000000,1542455.000000,77035.000000,9715.000000,770825.000000,0.000000,0.000000,0.000000,0.000000,0.000000,0.000000
140,0,7,646647.428571,221031.857143,1329316.571429,66997.571429,8267.714286,664101.142857,6556.575998,1321.238210,59972.423103,835.044371,269.518467,29929.110332
140,1,1,711776.000000,248565.000000,1470165.000000,73792.000000,9212.000000,734322.000000,0.000000,0.000000,0.000000,0.000000,0.000000,0.000000
141,0,7,646123.428571,220772.285714,1308039.571429,66862.428571,8236.285714,653539.571429,8215.057131,2045.391665,88810.769078,1203.148590,219.305211,44370.053543
141,1,1,707438.000000,247945.000000,1461396.000000,73539.000000,9871.000000,730197.000000,0.000000,0.000000,0.000000,0.000000,0.000000,0.000000
142,0,7,644774.000000,220229.000000,1284343.857143,66622.428571,8107.285714,641673.000000,6544.915038,1483.663323,62401.651337,1081.243181,390.869256,31280.473946
142,1,1,709784.000000,248121.000000,1406478.000000,73630.000000,9519.000000,702712.000000,0.000000,0.000000,0.000000,0.000000,0.000000,0.000000
143,0,7,641392.857143,219251.857143,1277871.714286,66068.285714,7740.000000,638572.428571,4072.824027,609.400508,78646.196106,259.656759,580.460901,39388.584941
143,1,1,710937.000000,248430.000000,1403222.000000,73775.000000,9034.000000,701241.000000,0.000000,0.000000,0.000000,0.000000,0.000000,0.000000
144,0,7,643422.000000,219947.000000,1297757.857143,66502.571429,7733.285714,648453.714286,9319.973375,1886.513186,69607.315899,1326.982491,610.460181,34809.297004
144,1,1,709156.000000,248413.000000,1452116.000000,73689.000000,9915.000000,725661.000000,0.000000,0.000000,0.000000,0.000000,0.000000,0.000000
145,0,7,642109.000000,219735.857143,1301995.000000,66228.714286,7916.285714,650395.571429,2979.877802,1066.002470,59721.505595,393.647309,537.656745,29769.627661
145,1,1,713750.000000,248258.000000,1397722.000000,73712.000000,9643.000000,698414.000000,0.000000,0.000000,0.000000,0.000000,0.000000,0.000000
146,0,7,643389.000000,219911.571429,1309585.714286,66525.714286,7945.857143,654407.571429,7089.012968,1579.054949,37181.443543,1172.611093,812.580621,18573.750747
146,1,1,710428.000000,248549.000000,1547388.000000,73823.000000,9644.000000,773147.000000,0.000000,0.000000,0.000000,0.000000,0.000000,0.000000
147,0,7,648416.714286,221650.428571,1295572.142857,67098.142857,8012.142857,647361.857143,11890.161307,4207.568448,45896.045959,1609.437739,604.341774,22927.287606
147,1,1,717948.000000,250217.000000,1418325.000000,74517.000000,9505.000000,708553.000000,0.000000,0.000000,0.000000,0.000000,0.000000,0.000000
148,0,7,644922.571429,220106.428571,1250835.000000,66613.857143,7765.714286,624966.142857,7004.366778,1999.614167,62811.942270,1183.009894,560.557303,31394.123729
148,1,1,709041.000000,247961.000000,1496131.000000,73560.000000,9274.000000,747695.000000,0.000000,0.000000,0.000000,0.000000,0.000000,0.000000
149,0,7,644372.714286,220173.857143,1366418.857143,66605.428571,8314.285714,682739.000000,9273.074351,1880.762720,67628.345212,1290.032542,739.911716,33846.088696
149,1,1,707782.000000,248432.000000,1412771.000000,73767.000000,10177.000000,705914.000000,0.000000,0.000000,0.000000,0.000000,0.000000,0.000000
150,0,7,642402.000000,220086.428571,1291597.428571,66423.000000,8141.714286,645045.857143,2553.067455,802.903278,59608.993525,342.169131,525.381960,29656.731004
150,1,1,712964.000000,248763.000000,1460035.000000,73871.000000,9507.000000,729529.000000,0.000000,0.000000,0.000000,0.000000,0.000000,0.000000
151,0,7,647437.000000,221098.142857,1295853.142857,67180.428571,8190.000000,647395.285714,10458.528304,2081.305938,91740.157080,1455.416961,481.400932,45820.575920
151,1,1,718664.000000,251434.000000,1430773.000000,74994.000000,9524.000000,714722.000000,0.000000,0.000000,0.000000,0.000000,0.000000,0.000000
152,0,7,644448.428571,220538.142857,1316834.857143,66806.142857,7835.714286,657820.000000,5766.737400,1359.233548,49716.349364,980.782403,562.475070,24811.251198
152,1,1,709586.000000,248575.000000,1447770.000000,73787.000000,9563.000000,723475.000000,0.000000,0.000000,0.000000,0.000000,0.000000,0.000000
153,0,7,645394.714286,220939.714286,1248771.857143,66951.714286,7638.000000,623837.857143,5951.003822,1673.014193,41734.688140,1065.808441,309.087135,20810.476307
153,1,1,733517.000000,252842.000000,1502735.000000,76987.000000,10253.000000,750943.000000,0.000000,0.000000,0.000000,0.000000,0.000000,0.000000
154,0,7,643145.714286,220066.714286,1291550.000000,66550.285714,7993.142857,645315.571429,7563.967680,1630.114257,55140.260474,1235.615025,422.516755,27450.228653
154,1,1,711110.000000,248757.000000,1429774.000000,73713.000000,9894.000000,714498.000000,0.000000,0.000000,0.000000,0.000000,0.000000,0.000000
155,0,7,644418.571429,220386.285714,1310148.714286,66666.857143,7900.428571,654607.142857,9934.323442,1545.983803,120069.552922,1190.785267,1003.603487,60051.574973
155,1,1,718471.000000,249508.000000,1626425.000000,73871.000000,9700.000000,812438.000000,0.000000,0.000000,0.000000,0.000000,0.000000,0.000000
156,0,7,640501.571429,219642.714286,1283118.285714,66167.000000,8007.428571,641095.000000,4544.069474,1118.358965,46123.624878,479.956546,434.345109,23095.926004
156,1,1,715040.000000,250617.000000,1556911.000000,74510.000000,9967.000000,777859.000000,0.000000,0.000000,0.000000,0.000000,0.000000,0.000000
157,0,7,648913.857143,221587.571429,1328647.857143,67419.428571,8376.142857,663797.571429,6411.166362,1550.594343,48674.186525,1233.077434,627.570469,24305.186671
157,1,1,715623.000000,250751.000000,1644530.000000,74555.000000,10187.000000,821575.000000,0.000000,0.000000,0.000000,0.000000,0.000000,0.000000
158,0,7,644209.428571,220045.285714,1292480.571429,66594.714286,7891.285714,645679.142857,4320.796846,1009.407565,58024.379346,957.070189,645.117866,28991.212153
158,1,1,710310.000000,249049.000000,1454925.000000,74006.000000,9713.000000,727167.000000,0.000000,0.000000,0.000000,0.000000,0.000000,0.000000
159,0,7,641491.142857,219326.714286,1402545.428571,66071.000000,8592.142857,700787.428571,2844.681726,581.809914,83320.269036,306.944853,724.624322,41582.139771
159,1,1,716735.000000,250014.000000,1457766.000000,74524.000000,9836.000000,728505.000000,0.000000,0.000000,0.000000,0.000000,0.000000,0.000000
160,0,7,643603.857143,219931.428571,1338750.714286,66334.571429,8254.285714,668879.142857,1931.434806,1282.608598,69996.329703,484.681297,561.839762,35075.566626
160,1,1,713098.000000,248476.000000,1454612.000000,73762.000000,10073.000000,726947.000000,0.000000,0.000000,0.000000,0.000000,0.000000,0.000000
161,0,7,642140.857143,219350.000000,1303517.571429,66029.428571,8101.714286,651334.571429,2896.370607,694.508665,133764.090142,262.348110,822.863938,66823.340980
161,1,1,716785.000000,250366.000000,1538715.000000,74672.000000,9577.000000,768788.000000,0.000000,0.000000,0.000000,0.000000,0.000000,0.000000
162,0,7,642902.571429,219947.000000,1329068.857143,66299.714286,8326.857143,664152.285714,3755.111140,1129.561230,103858.194310,383.551343,723.249103,52109.378001
162,1,1,708684.000000,247867.000000,1529362.000000,73670.000000,9070.000000,764364.000000,0.000000,0.000000,0.000000,0.000000,0.000000,0.000000
163,0,7,648847.857143,221052.428571,1231500.571429,67195.428571,8224.857143,615171.428571,7692.348953,1715.507077,52489.089470,1192.597987,705.278553,26242.768696
163,1,1,711311.000000,248660.000000,1313144.000000,73944.000000,9284.000000,656152.000000,0.000000,0.000000,0.000000,0.000000,0.000000,0.000000
164,0,7,646106.142857,220363.571429,1289859.142857,66705.428571,8073.000000,644429.000000,10195.725553,2370.619440,85012.054653,1463.926116,704.830679,42503.959042
164,1,1,706740.000000,247758.000000,1398104.000000,73600.000000,9426.000000,698672.000000,0.000000,0.000000,0.000000,0.000000,0.000000,0.000000
165,0,7,644539.714286,220163.571429,1285963.142857,66608.285714,7924.428571,642560.857143,6442.602884,1457.877602,76794.688442,1047.083666,452.523672,38422.781722
165,1,1,737653.000000,258113.000000,1575086.000000,76607.000000,10213.000000,787196.000000,0.000000,0.000000,0.000000,0.000000,0.000000,0.000000
166,0,7,644395.000000,220334.285714,1323497.428571,66677.000000,8103.428571,661308.571429,7448.001841,1442.257527,66373.835944,1145.801903,1102.118979,33148.101544
166,1,1,715100.000000,250121.000000,1424685.000000,74596.000000,9949.000000,711794.000000,0.000000,0.000000,0.000000,0.000000,0.000000,0.000000
167,0,7,643572.000000,220218.142857,1285902.000000,66601.428571,8000.857143,642537.285714,8598.485315,1782.110421,48839.462703,1178.275114,382.501327,24408.131659
167,1,1,712506.000000,249130.000000,1373724.000000,74078.000000,8912.000000,686443.000000,0.000000,0.000000,0.000000,0.000000,0.000000,0.000000
168,0,7,643356.857143,220068.857143,1307749.857143,66573.857143,8188.000000,653433.285714,6531.137583,1302.510700,93584.137944,1047.141610,620.774631,46853.338429
168,1,1,714729.000000,251061.000000,1592845.000000,74971.000000,10516.000000,795909.000000,0.000000,0.000000,0.000000,0.000000,0.000000,0.000000
169,0,7,645212.142857,220315.285714,1258211.857143,66688.142857,7944.714286,628620.428571,9870.984875,2061.175096,46466.083328,1169.650550,711.021743,23301.487021
169,1,1,706442.000000,247996.000000,1352190.000000,73635.000000,8785.000000,675709.000000,0.000000,0.000000,0.000000,0.000000,0.000000,0.000000
170,0,7,644029.285714,220019.857143,1369569.857143,66478.142857,8039.285714,684304.285714,8380.451705,1818.535708,130638.351325,1098.655988,711.834594,65105.579609
170,1,1,712315.000000,249841.000000,1595487.000000,74414.000000,10829.000000,796976.000000,0.000000,0.000000,0.000000,0.000000,0.000000,0.000000
171,0,7,644811.285714,220422.142857,1369791.142857,66683.571429,8176.142857,684516.285714,6718.534485,1667.271118,104118.240827,1219.110901,963.546934,52058.119371
171,1,1,735918.000000,254182.000000,1437479.000000,77325.000000,10807.000000,718377.000000,0.000000,0.000000,0.000000,0.000000,0.000000,0.000000
172,0,7,640811.428571,219412.285714,1309347.142857,66040.285714,7861.428571,654257.142857,4103.539861,863.136591,39694.206754,331.644265,491.432267,19814.097935
172,1,1,713815.000000,250246.000000,1360647.000000,74403.000000,9155.000000,679923.000000,0.000000,0.000000,0.000000,0.000000,0.000000,0.000000
173,0,7,644442.142857,220263.142857,1301154.000000,66574.714286,7841.142857,650127.571429,6447.272390,1393.262095,46815.440246,978.962821,831.204879,23447.547437
173,1,1,717340.000000,251649.000000,1460104.000000,75121.000000,9899.000000,729456.000000,0.000000,0.000000,0.000000,0.000000,0.000000,0.000000
174,0,7,643281.142857,220175.000000,1268985.714286,66548.714286,8053.428571,633990.714286,7027.336163,1914.373154,61154.370407,1117.210265,636.339275,30555.074027
174,1,1,712490.000000,249571.000000,1385483.000000,74110.000000,9250.000000,692478.000000,0.000000,0.000000,0.000000,0.000000,0.000000,0.000000
175,0,7,640746.142857,219871.285714,1375584.285714,66277.857143,8233.428571,687307.285714,2186.249589,618.030678,56864.951138,438.402760,582.730238,28506.315980
175,1,1,712086.000000,249375.000000,1509569.000000,74075.000000,9720.000000,754190.000000,0.000000,0.000000,0.000000,0.000000,0.000000,0.000000
176,0,7,643725.000000,220387.142857,1313702.428571,66506.142857,8178.285714,656355.857143,5795.243394,1351.233344,78795.232321,865.646650,682.971180,39465.600386
176,1,1,713427.000000,251572.000000,1448139.000000,74909.000000,10614.000000,723564.000000,0.000000,0.000000,0.000000,0.000000,0.000000,0.000000
177,0,7,640129.428571,219532.714286,1264373.428571,65940.000000,7540.285714,631777.571429,3214.243517,349.986414,41776.494734,274.540135,581.775783,20936.183612
177,1,1,718491.000000,251868.000000,1365829.000000,75125.000000,10537.000000,682073.000000,0.000000,0.000000,0.000000,0.000000,0.000000,0.000000
178,0,7,639815.000000,219536.714286,1290766.857143,66005.000000,7574.714286,644926.000000,2140.200391,560.845972,47333.402798,335.586055,439.420305,23600.247759
178,1,1,707979.000000,249652.000000,1434740.000000,74077.000000,9445.000000,717009.000000,0.000000,0.000000,0.000000,0.000000,0.000000,0.000000
179,0,7,644554.142857,220283.571429,1318361.428571,66495.142857,8085.714286,658650.857143,7955.812438,1429.569052,77270.610609,1199.431107,570.723279,38721.723395
179,1,1,714233.000000,249192.000000,1439581.000000,73936.000000,9885.000000,719433.000000,0.000000,0.000000,0.000000,0.000000,0.000000,0.000000
180,0,7,641108.428571,219870.857143,1276570.571429,66147.142857,7554.142857,637727.571429,4272.304325,1194.599566,74481.455295,501.007678,433.537090,37229.164477
180,1,1,737805.000000,254912.000000,1539438.000000,77703.000000,10346.000000,769306.000000,0.000000,0.000000,0.000000,0.000000,0.000000,0.000000
181,0,7,649670.571429,222166.285714,1295884.000000,67321.428571,7750.714286,647497.000000,11700.497802,3230.109893,45421.703560,1407.991361,419.583370,22827.847981
181,1,1,719259.000000,251747.000000,1478528.000000,75345.000000,9631.000000,738561.000000,0.000000,0.000000,0.000000,0.000000,0.000000,0.000000
182,0,7,643395.571429,220412.714286,1295289.000000,66483.142857,7978.428571,647205.714286,7707.383452,1492.512715,83381.000983,896.237441,725.577968,41689.014098
182,1,1,712532.000000,249291.000000,1424547.000000,74064.000000,9246.000000,711933.000000,0.000000,0.000000,0.000000,0.000000,0.000000,0.000000
183,0,7,638857.000000,218911.000000,1245673.428571,65685.142857,7622.571429,622587.714286,2889.166316,624.153369,76970.803344,368.341235,571.848845,38510.372153
183,1,1,709754.000000,248589.000000,1530864.000000,73710.000000,9369.000000,765025.000000,0.000000,0.000000,0.000000,0.000000,0.000000,0.000000
184,0,7,646625.428571,220809.571429,1360093.714286,66887.142857,8357.142857,679568.857143,9615.134675,2126.546352,109260.626698,1636.208809,584.411653,54548.348063
184,1,1,714959.000000,250205.000000,1460165.000000,74488.000000,10185.000000,729525.000000,0.000000,0.000000,0.000000,0.000000,0.000000,0.000000
185,0,7,641227.428571,219878.000000,1358343.714286,66084.714286,8035.857143,678550.428571,1877.924984,874.682473,85506.537856,279.549492,490.272935,42260.401644
185,1,1,711917.000000,248921.000000,1411107.000000,73946.000000,8998.000000,705039.000000,0.000000,0.000000,0.000000,0.000000,0.000000,0.000000
186,0,7,640991.285714,219950.714286,1313210.571429,66122.571429,7918.428571,656120.142857,2845.406309,738.386603,65823.048392,405.051974,459.097518,32922.118798
186,1,1,713561.000000,250541.000000,1363386.000000,74939.000000,9721.000000,681039.000000,0.000000,0.000000,0.000000,0.000000,0.000000,0.000000
187,0,7,642596.000000,219825.142857,1287571.714286,66084.428571,7991.428571,643316.000000,2900.855736,929.764552,72613.719040,515.610278,333.049056,36275.049725
187,1,1,712550.000000,248927.000000,1353451.000000,74050.000000,8776.000000,676313.000000,0.000000,0.000000,0.000000,0.000000,0.000000,0.000000
188,0,7,641662.714286,219462.142857,1293329.428571,65929.428571,7959.428571,646270.571429,3645.693221,1009.028023,65721.144166,483.309087,628.746567,32889.440233
188,1,1,713927.000000,249137.000000,1440238.000000,73929.000000,9663.000000,721259.000000,0.000000,0.000000,0.000000,0.000000,0.000000,0.000000
189,0,7,647666.142857,221037.428571,1281519.285714,67033.714286,8079.142857,640311.285714,12650.959155,2494.002054,48700.800691,1734.842579,753.134484,24217.958459
189,1,1,711686.000000,248930.000000,1467743.000000,74020.000000,9715.000000,733530.000000,0.000000,0.000000,0.000000,0.000000,0.000000,0.000000
190,0,7,639769.857143,219277.714286,1234082.428571,65833.285714,7760.857143,616634.285714,3154.213392,664.339783,47004.132696,407.247806,513.937859,23502.504351
190,1,1,710623.000000,249277.000000,1437308.000000,74143.000000,9360.000000,718240.000000,0.000000,0.000000,0.000000,0.000000,0.000000,0.000000
191,0,7,643642.857143,219992.142857,1330834.857143,66362.285714,8002.428571,665046.857143,9394.273688,1893.932374,69874.804741,1394.553970,611.489249,34983.714405
191,1,1,714831.000000,250411.000000,1478513.000000,74757.000000,9469.000000,738482.000000,0.000000,0.000000,0.000000,0.000000,0.000000,0.000000
192,0,7,641183.428571,219831.428571,1232498.000000,66101.285714,7692.857143,615765.142857,2939.453149,810.108080,30473.527378,461.286312,665.312908,15219.128260
192,1,1,711369.000000,249629.000000,1485579.000000,74490.000000,9538.000000,742435.000000,0.000000,0.000000,0.000000,0.000000,0.000000,0.000000
193,0,7,639368.714286,219380.857143,1244329.428571,65928.714286,7661.142857,621722.000000,4673.917803,1046.859307,63683.433907,483.975122,346.179734,31810.421729
193,1,1,731788.000000,253759.000000,1442065.000000,77385.000000,9743.000000,720563.000000,0.000000,0.000000,0.000000,0.000000,0.000000,0.000000
194,0,7,648034.714286,221212.000000,1287801.714286,67079.857143,8468.857143,643395.000000,10043.471251,1951.200070,38004.882249,1321.717328,527.904869,19052.732920
194,1,1,709446.000000,249004.000000,1451595.000000,74048.000000,8764.000000,725307.000000,0.000000,0.000000,0.000000,0.000000,0.000000,0.000000
195,0,7,640197.714286,219451.857143,1300437.714286,65935.714286,7781.000000,649794.428571,2864.950945,594.056858,77514.631733,480.988183,589.748615,38757.173986
195,1,1,710458.000000,249029.000000,1503938.000000,74050.000000,9658.000000,751658.000000,0.000000,0.000000,0.000000,0.000000,0.000000,0.000000
196,0,7,646554.428571,220974.571429,1349374.000000,66990.714286,8363.000000,674244.000000,8234.969735,2183.676249,60333.739545,1427.081809,727.485297,30104.119500
196,1,1,706350.000000,248981.000000,1342771.000000,74109.000000,8934.000000,670904.000000,0.000000,0.000000,0.000000,0.000000,0.000000,0.000000
197,0,7,646328.714286,221105.000000,1281825.428571,66508.285714,8026.428571,640404.571429,9837.855613,3571.551924,60648.233383,1289.386423,484.616448,30322.823751
197,1,1,710322.000000,249587.000000,1379288.000000,74256.000000,8762.000000,689105.000000,0.000000,0.000000,0.000000,0.000000,0.000000,0.000000
198,0,7,640319.000000,219543.714286,1264203.285714,65952.428571,7756.142857,631671.714286,4035.987965,619.236330,71955.131366,287.228559,267.052391,35993.900415
198,1,1,704914.000000,249034.000000,1454915.000000,73994.000000,8621.000000,727152.000000,0.000000,0.000000,0.000000,0.000000,0.000000,0.000000
199,0,7,642841.000000,220266.428571,1265718.000000,66458.285714,7699.285714,632421.142857,8142.741553,1678.363562,56134.190439,1230.676900,617.632279,28073.437442
199,1,1,718394.000000,250808.000000,1371046.000000,74967.000000,10219.000000,684678.000000,0.000000,0.000000,0.000000,0.000000,0.000000,0.000000
200,0,7,642528.000000,220211.857143,1328662.714286,66440.857143,8057.571429,663914.714286,9952.147234,1923.320969,33176.017740,1211.765940,573.198010,16588.703090
200,1,1,710095.000000,248500.000000,1492103.000000,73896.000000,8652.000000,745673.000000,0.000000,0.000000,0.000000,0.000000,0.000000,0.000000
201,0,7,640436.285714,219958.714286,1315714.285714,66172.428571,7786.857143,657307.285714,2236.063359,528.405070,88461.100340,340.326674,166.154342,44176.544341
201,1,1,705244.000000,248341.000000,1400912.000000,73814.000000,9262.000000,700128.000000,0.000000,0.000000,0.000000,0.000000,0.000000,0.000000
202,0,7,639959.714286,219465.142857,1278658.857143,65973.285714,7973.000000,638907.285714,3534.527033,618.346742,43941.296312,407.211323,496.813561,21961.479183
202,1,1,706836.000000,249429.000000,1370106.000000,74261.000000,8879.000000,684634.000000,0.000000,0.000000,0.000000,0.000000,0.000000,0.000000
203,0,7,640462.714286,219409.142857,1311231.142857,65912.142857,8087.000000,655175.571429,2896.415998,667.303835,40866.836997,564.170042,402.185813,20528.459262
203,1,1,712177.000000,249141.000000,1436134.000000,74087.000000,9266.000000,717724.000000,0.000000,0.000000,0.000000,0.000000,0.000000,0.000000
204,0,7,641190.571429,219907.428571,1265590.428571,66162.142857,7894.142857,632290.142857,3206.649647,890.263501,69272.834960,318.728917,568.133140,34572.763526
204,1,1,709884.000000,248658.000000,1466287.000000,73972.000000,8927.000000,732787.000000,0.000000,0.000000,0.000000,0.000000,0.000000,0.000000
205,0,7,645918.714286,220444.285714,1314545.142857,66762.714286,8351.571429,656900.571429,8549.541704,2191.548684,69126.005775,1464.753974,876.954121,34642.025456
205,1,1,705535.000000,248247.000000,1497383.000000,73817.000000,9108.000000,748253.000000,0.000000,0.000000,0.000000,0.000000,0.000000,0.000000
206,0,7,641313.428571,219626.142857,1286246.571429,66046.285714,7926.571429,642671.142857,3857.701050,1120.488086,58453.307319,538.869906,667.231135,29220.047738
206,1,1,708791.000000,248196.000000,1442661.000000,73733.000000,8891.000000,721029.000000,0.000000,0.000000,0.000000,0.000000,0.000000,0.000000
207,0,7,642304.857143,219932.428571,1276021.285714,66361.000000,8036.285714,637612.000000,8561.406384,1627.322328,60696.654301,1110.511594,992.988522,30357.025188
207,1,1,706480.000000,248159.000000,1434782.000000,73793.000000,9173.000000,716993.000000,0.000000,0.000000,0.000000,0.000000,0.000000,0.000000
208,0,7,644362.428571,220764.857143,1316712.285714,66341.285714,7991.571429,657927.714286,8701.479264,3395.165657,75375.134899,1051.469137,593.281879,37677.466080
208,1,1,706314.000000,248887.000000,1407404.000000,74005.000000,9575.000000,703179.000000,0.000000,0.000000,0.000000,0.000000,0.000000,0.000000
209,0,7,640695.142857,219306.857143,1314053.428571,65871.000000,7908.142857,656617.571429,3821.965965,560.056484,78199.059800,407.533347,705.836571,39087.569715
209,1,1,704112.000000,248439.000000,1542465.000000,73930.000000,9637.000000,770839.000000,0.000000,0.000000,0.000000,0.000000,0.000000,0.000000
210,0,7,640690.142857,219534.428571,1329371.714286,65938.000000,7889.428571,664308.285714,2205.331295,320.507569,62526.598045,366.228266,514.753161,31274.736987
210,1,1,708883.000000,248695.000000,1492554.000000,74002.000000,9159.000000,745687.000000,0.000000,0.000000,0.000000,0.000000,0.000000,0.000000
211,0,7,645180.571429,220578.285714,1268305.714286,66649.142857,7831.428571,633630.714286,8494.506424,1680.083647,30174.888721,1059.521378,548.814009,15098.459408
211,1,1,713163.000000,250350.000000,1377286.000000,74880.000000,9314.000000,687926.000000,0.000000,0.000000,0.000000,0.000000,0.000000,0.000000
212,0,7,650575.571429,221702.428571,1305911.857143,67547.571429,8295.000000,652481.285714,9680.437650,2272.737107,49110.823304,1612.986570,980.655175,24595.010689
212,1,1,708919.000000,249017.000000,1438794.000000,74179.000000,9206.000000,719018.000000,0.000000,0.000000,0.000000,0.000000,0.000000,0.000000
213,0,7,640848.714286,219480.857143,1295260.857143,65971.000000,7705.285714,647219.428571,3152.109349,521.979591,60203.648412,407.163358,481.163089,30128.938888
213,1,1,709323.000000,250311.000000,1489119.000000,74898.000000,9848.000000,743655.000000,0.000000,0.000000,0.000000,0.000000,0.000000,0.000000
214,0,7,639639.428571,219418.000000,1326385.571429,65962.142857,7711.571429,662728.000000,3637.439714,868.904400,80533.649285,422.093567,544.533577,40280.126624
214,1,1,705208.000000,247877.000000,1566252.000000,73776.000000,9145.000000,782722.000000,0.000000,0.000000,0.000000,0.000000,0.000000,0.000000
215,0,7,641130.142857,220031.000000,1277800.857143,66205.285714,7871.142857,638261.142857,4864.696802,1173.994281,61930.070645,482.475673,874.974192,31016.624134
215,1,1,707150.000000,248953.000000,1489722.000000,74210.000000,9023.000000,744427.000000,0.000000,0.000000,0.000000,0.000000,0.000000,0.000000
216,0,7,643364.142857,220214.285714,1319149.857143,66500.000000,7795.714286,659122.285714,8690.521395,1614.705698,55152.964382,1299.978791,815.171273,27550.087927
216,1,1,705210.000000,248875.000000,1467911.000000,74151.000000,10348.000000,733488.000000,0.000000,0.000000,0.000000,0.000000,0.000000,0.000000
217,0,7,639133.571429,219214.000000,1286758.000000,65903.285714,7715.857143,642794.571429,2850.657110,733.440815,79471.861737,379.220145,529.026445,39433.827287
217,1,1,729808.000000,252865.000000,1425518.000000,77230.000000,9775.000000,712284.000000,0.000000,0.000000,0.000000,0.000000,0.000000,0.000000
218,0,7,642206.571429,219673.714286,1287863.000000,66275.714286,7674.714286,643549.285714,7946.564754,1841.265692,76876.935062,1264.570815,369.099566,38495.906646
218,1,1,707617.000000,248568.000000,1413557.000000,73964.000000,9368.000000,706357.000000,0.000000,0.000000,0.000000,0.000000,0.000000,0.000000
219,0,7,643532.857143,220437.571429,1341009.571429,66610.714286,8103.285714,670008.428571,5355.285865,1310.798106,64187.389064,764.439798,569.007335,32117.385718
219,1,1,706828.000000,248698.000000,1357773.000000,74098.000000,9300.000000,678431.000000,0.000000,0.000000,0.000000,0.000000,0.000000,0.000000
220,0,7,643764.571429,220441.857143,1302058.428571,66621.857143,8079.714286,650450.142857,6600.917271,1315.628956,74107.355054,1016.031696,715.649298,36793.088056
220,1,1,705557.000000,248872.000000,1495145.000000,74098.000000,9429.000000,747150.000000,0.000000,0.000000,0.000000,0.000000,0.000000,0.000000
221,0,7,642148.285714,219871.000000,1308951.571429,66336.428571,8087.857143,653960.142857,10713.114696,2081.578796,72421.622923,1427.204646,569.368429,36235.764158
221,1,1,704855.000000,249647.000000,1477274.000000,74599.000000,9094.000000,737964.000000,0.000000,0.000000,0.000000,0.000000,0.000000,0.000000
222,0,7,641198.714286,219868.571429,1312047.571429,66358.857143,7946.714286,655467.000000,6448.020554,1760.223107,46979.486039,1237.080368,419.315331,23282.720601
222,1,1,716241.000000,248572.000000,1502388.000000,74003.000000,9231.000000,750916.000000,0.000000,0.000000,0.000000,0.000000,0.000000,0.000000
223,0,7,643382.428571,220305.428571,1330637.714286,66544.285714,7794.857143,664779.571429,9068.866410,1561.882551,68323.212315,1149.834611,693.270186,34237.218616
223,1,1,716608.000000,249139.000000,1470423.000000,74220.000000,9864.000000,734739.000000,0.000000,0.000000,0.000000,0.000000,0.000000,0.000000
224,0,7,640000.285714,219977.000000,1317012.857143,66204.000000,7905.571429,657973.571429,4460.669928,1079.960052,49928.545884,608.661529,599.380360,24881.638318
224,1,1,713567.000000,249261.000000,1416254.000000,74272.000000,9424.000000,707530.000000,0.000000,0.000000,0.000000,0.000000,0.000000,0.000000
225,0,7,651727.571429,222891.285714,1320867.714286,67193.714286,8027.714286,660056.285714,12681.573369,4489.951247,59914.867928,1284.866387,842.615437,29863.587406
225,1,1,710132.000000,247821.000000,1552402.000000,73863.000000,10194.000000,775650.000000,0.000000,0.000000,0.000000,0.000000,0.000000,0.000000
226,0,7,651169.571429,223040.142857,1273072.857143,67232.285714,7947.428571,636080.857143,25602.975546,8251.607089,84152.748515,2930.791006,715.591236,42037.766821
226,1,1,710963.000000,248613.000000,1474855.000000,74003.000000,9160.000000,737206.000000,0.000000,0.000000,0.000000,0.000000,0.000000,0.000000
227,0,7,652671.142857,223095.857143,1362895.714286,67346.285714,8318.000000,680813.142857,17617.943438,6014.383484,79293.926162,1932.268002,600.385590,39459.560331
227,1,1,709246.000000,248313.000000,1429019.000000,73944.000000,8983.000000,714043.000000,0.000000,0.000000,0.000000,0.000000,0.000000,0.000000
228,0,7,654257.857143,223338.571429,1324496.000000,67564.571429,7868.714286,661791.142857,17542.477960,6022.879066,53815.651420,1954.570969,419.909077,26891.370870
228,1,1,710958.000000,247976.000000,1364268.000000,73828.000000,9717.000000,681591.000000,0.000000,0.000000,0.000000,0.000000,0.000000,0.000000
229,0,7,648661.142857,222575.285714,1322383.428571,66898.285714,7990.000000,660691.428571,17834.217075,6482.189659,83981.108904,1812.713571,540.502940,41982.952206
229,1,1,711066.000000,248744.000000,1506265.000000,73911.000000,9394.000000,752644.000000,0.000000,0.000000,0.000000,0.000000,0.000000,0.000000
230,0,7,653835.000000,223527.714286,1329423.000000,67715.142857,8240.285714,664232.571429,16467.521663,6243.258483,81873.976692,1805.441412,666.418083,40995.838294
230,1,1,710264.000000,248760.000000,1333771.000000,73919.000000,8750.000000,666302.000000,0.000000,0.000000,0.000000,0.000000,0.000000,0.000000
231,0,7,647820.142857,222369.000000,1303248.571429,66833.428571,7551.428571,651244.714286,16656.097600,6031.920542,85382.928800,1620.855317,566.884936,42668.297816
231,1,1,712460.000000,248846.000000,1336239.000000,74026.000000,8221.000000,667746.000000,0.000000,0.000000,0.000000,0.000000,0.000000,0.000000
232,0,7,650612.857143,222812.714286,1319929.142857,67186.571429,8034.857143,659544.428571,19064.495313,6287.954896,82060.222837,1927.104702,518.828193,41091.469431
232,1,1,717191.000000,250540.000000,1450745.000000,74895.000000,9173.000000,724736.000000,0.000000,0.000000,0.000000,0.000000,0.000000,0.000000
233,0,7,649989.428571,222243.142857,1351082.428571,66970.714286,8181.428571,675158.857143,19346.320424,6355.796487,114681.079300,1769.213200,627.462658,57320.979018
233,1,1,732225.000000,253170.000000,1401395.000000,77301.000000,9438.000000,700259.000000,0.000000,0.000000,0.000000,0.000000,0.000000,0.000000
234,0,7,649623.428571,222339.142857,1373909.428571,67002.428571,8108.428571,686603.285714,19640.134920,6045.862113,138349.136379,1929.475788,818.524431,69190.702622
234,1,1,708570.000000,247902.000000,1498160.000000,73764.000000,9362.000000,748780.000000,0.000000,0.000000,0.000000,0.000000,0.000000,0.000000
235,0,7,655119.428571,223806.857143,1292975.714286,67843.571429,8085.000000,645957.857143,18239.272376,5837.077851,72648.828591,1879.126306,646.471080,36418.857264
235,1,1,708629.000000,248585.000000,1399614.000000,73954.000000,8482.000000,699430.000000,0.000000,0.000000,0.000000,0.000000,0.000000,0.000000
236,0,7,646799.000000,221618.571429,1292427.142857,66516.714286,7753.428571,645785.285714,18831.433410,6292.424535,65531.334911,1708.769124,363.867659,32770.063506
236,1,1,708184.000000,248065.000000,1328230.000000,73804.000000,8991.000000,663684.000000,0.000000,0.000000,0.000000,0.000000,0.000000,0.000000
237,0,7,651185.000000,222761.285714,1330965.285714,67153.428571,8348.428571,665004.571429,26348.394389,7857.279186,89026.479739,2858.280895,879.925785,44460.491893
237,1,1,704050.000000,248112.000000,1452831.000000,73759.000000,8850.000000,725998.000000,0.000000,0.000000,0.000000,0.000000,0.000000,0.000000
238,0,7,648763.428571,222486.142857,1325506.428571,66897.000000,8138.000000,662337.000000,19006.821654,6209.532658,118421.804191,1632.257770,372.426023,59260.556321
238,1,1,708645.000000,249517.000000,1447438.000000,74531.000000,9498.000000,723214.000000,0.000000,0.000000,0.000000,0.000000,0.000000,0.000000
239,0,7,655016.571429,223566.714286,1336982.714286,67921.714286,8522.142857,668150.142857,18794.791344,5984.171424,60315.438788,1772.537142,600.483003,30159.848240
239,1,1,704986.000000,247565.000000,1426557.000000,73573.000000,9167.000000,712950.000000,0.000000,0.000000,0.000000,0.000000,0.000000,0.000000
240,0,7,647763.428571,222040.857143,1266691.571429,66648.142857,8058.714286,632985.428571,19125.943098,6460.513877,60279.014247,1781.837288,593.153248,30048.387249
240,1,1,712139.000000,250850.000000,1521678.000000,74883.000000,10230.000000,760029.000000,0.000000,0.000000,0.000000,0.000000,0.000000,0.000000
241,0,7,652020.571429,223001.285714,1345585.714286,67484.428571,8170.285714,672380.000000,19587.917667,6225.912916,47488.070621,2169.235471,651.095278,23726.638128
241,1,1,717018.000000,250757.000000,1434776.000000,74802.000000,9719.000000,716560.000000,0.000000,0.000000,0.000000,0.000000,0.000000,0.000000
242,0,7,648030.000000,222174.285714,1308274.000000,66754.857143,7734.857143,653645.142857,18079.126140,6160.860137,46451.182255,1686.549853,278.297081,23175.320521
242,1,1,714554.000000,249771.000000,1495675.000000,74419.000000,9641.000000,747194.000000,0.000000,0.000000,0.000000,0.000000,0.000000,0.000000
243,0,7,649646.285714,222914.857143,1292593.000000,67063.571429,7957.000000,645704.714286,18471.739648,6160.973866,42175.249123,1621.397533,378.404168,21151.873485
243,1,1,711074.000000,248677.000000,1437417.000000,73869.000000,8947.000000,718243.000000,0.000000,0.000000,0.000000,0.000000,0.000000,0.000000
244,0,7,651239.000000,223119.142857,1299302.428571,67332.714286,7986.142857,649177.285714,19188.887469,6074.672112,77678.290488,1901.060209,705.204819,38907.264146
244,1,1,713174.000000,250166.000000,1428909.000000,74565.000000,8994.000000,713756.000000,0.000000,0.000000,0.000000,0.000000,0.000000,0.000000
245,0,7,653357.142857,223677.142857,1321756.285714,67752.142857,8285.000000,660360.000000,25845.073299,7546.329807,63461.078663,2821.611061,667.377383,31646.778387
245,1,1,707468.000000,247949.000000,1389504.000000,73623.000000,8011.000000,694179.000000,0.000000,0.000000,0.000000,0.000000,0.000000,0.000000
246,0,7,653102.000000,223938.571429,1271778.571429,67575.000000,7620.571429,635343.428571,20547.148026,7156.839124,84377.579327,2224.554915,443.835831,42187.681550
246,1,1,708221.000000,248142.000000,1349795.000000,73690.000000,8163.000000,674512.000000,0.000000,0.000000,0.000000,0.000000,0.000000,0.000000
247,0,7,648856.142857,222618.857143,1327706.571429,67120.428571,7895.428571,663405.857143,26862.401826,8007.500527,74861.011775,2876.448945,557.068823,37462.127094
247,1,1,729096.000000,253522.000000,1446974.000000,77264.000000,9825.000000,722913.000000,0.000000,0.000000,0.000000,0.000000,0.000000,0.000000
248,0,7,646601.857143,222074.285714,1296149.714286,66714.000000,7923.142857,647611.428571,18477.150008,6215.016532,92471.871752,1688.712950,649.446232,46268.443973
248,1,1,704532.000000,248240.000000,1321935.000000,73792.000000,8356.000000,660384.000000,0.000000,0.000000,0.000000,0.000000,0.000000,0.000000
249,0,7,647977.571429,222297.285714,1296241.571429,66802.571429,7966.000000,647628.285714,19643.913895,6928.787664,80938.711114,2004.316118,542.500296,40369.343778
249,1,1,709369.000000,247692.000000,1379449.000000,73568.000000,9156.000000,689331.000000,0.000000,0.000000,0.000000,0.000000,0.000000,0.000000
250,0,7,646640.857143,221797.857143,1333008.000000,66596.857143,8037.714286,666118.285714,18858.874148,6181.549007,60597.981572,1697.055132,680.234353,30318.673924
250,1,1,785180.000000,271141.000000,1526338.000000,82048.000000,10930.000000,762787.000000,0.000000,0.000000,0.000000,0.000000,0.000000,0.000000
251,0,7,649271.285714,222473.857143,1332134.714286,66940.857143,8051.857143,665479.142857,20350.301617,7273.136667,52947.280148,2101.070437,695.592744,26353.160377
251,1,1,760637.000000,266017.000000,1385348.000000,78573.000000,9362.000000,692319.000000,0.000000,0.000000,0.000000,0.000000,0.000000,0.000000
252,0,7,655582.000000,224014.000000,1335956.428571,67999.714286,7946.000000,667451.571429,23843.685070,7551.654256,71559.779319,2679.536299,671.259371,35760.393130
252,1,1,769885.000000,269950.000000,1410531.000000,80198.000000,10012.000000,704504.000000,0.000000,0.000000,0.000000,0.000000,0.000000,0.000000
253,0,7,653152.000000,223117.571429,1380669.571429,67584.142857,8314.000000,689887.142857,18023.568102,6129.115081,101548.229562,1964.747052,968.000738,50765.067445
253,1,1,763617.000000,266632.000000,1494609.000000,78802.000000,9339.000000,746567.000000,0.000000,0.000000,0.000000,0.000000,0.000000,0.000000
254,0,7,648223.428571,222151.000000,1273291.428571,66790.000000,7827.714286,636124.142857,17233.400567,6139.762071,58924.607508,1640.118027,628.644281,29378.014211
254,1,1,769327.000000,268767.000000,1495929.000000,79681.000000,9715.000000,747304.000000,0.000000,0.000000,0.000000,0.000000,0.000000,0.000000
255,0,7,655093.285714,223220.000000,1333479.571429,67625.285714,8099.857143,666341.571429,18741.231265,7001.145825,95207.748448,2317.857244,764.449462,47570.166434
255,1,1,762406.000000,266475.000000,1495940.000000,78778.000000,9516.000000,747446.000000,0.000000,0.000000,0.000000,0.000000,0.000000,0.000000
