0,0,120,646191.441667,220869.400000,1285180.883333,66775.775000,7769.058333,642015.466667,11299.383654,3308.629949,76287.859596,1354.859331,569.384409,38083.507962
0,1,0,-nan,-nan,-nan,-nan,-nan,-nan,-nan,-nan,-nan,-nan,-nan,-nan
1,0,119,644352.142857,220428.714286,1281754.176471,66553.915966,7753.537815,640300.487395,9332.455976,2851.829727,69351.003511,1175.869373,663.555799,34684.552519
1,1,0,-nan,-nan,-nan,-nan,-nan,-nan,-nan,-nan,-nan,-nan,-nan,-nan
2,0,119,644910.361345,220529.739496,1290123.462185,66645.016807,7774.697479,644483.655462,11402.438614,3259.425983,83791.425133,1442.703386,667.364622,41836.254300
2,1,0,-nan,-nan,-nan,-nan,-nan,-nan,-nan,-nan,-nan,-nan,-nan,-nan
3,0,119,644347.109244,220393.655462,1280628.714286,66550.428571,7688.596639,639728.781513,9902.212230,2866.443882,70665.044960,1140.491981,659.275657,35333.041547
3,1,0,-nan,-nan,-nan,-nan,-nan,-nan,-nan,-nan,-nan,-nan,-nan,-nan
4,0,119,644759.537815,220480.773109,1289658.310924,66614.941176,7840.058824,644268.949580,9375.662671,2631.523396,70414.086598,1252.278497,662.461418,35173.398875
4,1,0,-nan,-nan,-nan,-nan,-nan,-nan,-nan,-nan,-nan,-nan,-nan,-nan
5,0,119,643863.781513,220261.966387,1292727.092437,66495.714286,7814.193277,645775.134454,8804.852935,2524.292955,76684.971577,1181.377996,623.336755,38316.075481
5,1,0,-nan,-nan,-nan,-nan,-nan,-nan,-nan,-nan,-nan,-nan,-nan,-nan
6,0,119,644334.411765,220427.142857,1283249.126050,66488.924370,7803.084034,641052.016807,9184.192845,2836.706856,68397.598818,1037.140949,668.805376,34166.775113
6,1,0,-nan,-nan,-nan,-nan,-nan,-nan,-nan,-nan,-nan,-nan,-nan,-nan
7,0,119,645075.907563,220601.369748,1286829.655462,66644.226891,7794.680672,642813.504202,10112.868805,3021.433562,77463.373660,1261.178370,636.949267,38740.692093
7,1,0,-nan,-nan,-nan,-nan,-nan,-nan,-nan,-nan,-nan,-nan,-nan,-nan
8,0,119,645022.268908,220557.201681,1291568.252101,66645.781513,7829.445378,645175.924370,11232.510415,3135.365237,97435.184674,1403.305295,709.680088,48677.150830
8,1,0,-nan,-nan,-nan,-nan,-nan,-nan,-nan,-nan,-nan,-nan,-nan,-nan
9,0,119,644263.403361,220428.756303,1293622.537815,66525.100840,7840.579832,646234.899160,10411.614068,3019.681393,87427.146238,1273.293971,717.257844,43661.852990
9,1,0,-nan,-nan,-nan,-nan,-nan,-nan,-nan,-nan,-nan,-nan,-nan,-nan
10,0,119,644350.546218,220486.924370,1275818.462185,66529.126050,7691.554622,637326.445378,9631.088070,2874.534459,81974.064416,1148.726899,637.742561,40956.894972
10,1,0,-nan,-nan,-nan,-nan,-nan,-nan,-nan,-nan,-nan,-nan,-nan,-nan
11,0,120,645216.533333,220581.283333,1279443.450000,66680.033333,7755.425000,639153.366667,10247.716248,2965.491494,82818.853905,1315.062172,691.769141,41366.218866
11,1,0,-nan,-nan,-nan,-nan,-nan,-nan,-nan,-nan,-nan,-nan,-nan,-nan
12,0,120,644246.216667,220439.258333,1278360.716667,66504.508333,7755.183333,638598.641667,9471.239836,2863.348755,75442.741629,1111.503516,550.016454,37659.714598
12,1,0,-nan,-nan,-nan,-nan,-nan,-nan,-nan,-nan,-nan,-nan,-nan,-nan
13,0,120,644947.075000,220522.766667,1284586.983333,66597.516667,7862.700000,641715.166667,10199.748796,2998.618173,71521.107426,1259.692105,681.679209,35732.869801
13,1,0,-nan,-nan,-nan,-nan,-nan,-nan,-nan,-nan,-nan,-nan,-nan,-nan
14,0,120,644395.333333,220422.566667,1288397.383333,66543.658333,7770.750000,643649.683333,10651.164991,3041.703141,74247.898370,1307.194002,588.187502,37101.824744
14,1,0,-nan,-nan,-nan,-nan,-nan,-nan,-nan,-nan,-nan,-nan,-nan,-nan
15,0,236,642852.838983,220310.868644,1272583.754237,66455.737288,7687.605932,635684.533898,7582.678554,2327.461301,70791.293532,874.893639,595.198999,35372.939962
15,1,0,-nan,-nan,-nan,-nan,-nan,-nan,-nan,-nan,-nan,-nan,-nan,-nan
