0,0,30,645139.033333,220749.400000,1279110.000000,66434.500000,7829.100000,639117.300000,12636.403532,4429.212704,55724.796618,1224.884069,606.376030,27816.119502
0,1,0,-nan,-nan,-nan,-nan,-nan,-nan,-nan,-nan,-nan,-nan,-nan,-nan
1,0,29,648028.137931,221314.931034,1280198.793103,66918.724138,8086.310345,639678.551724,13749.173968,4161.742257,72128.930835,1776.502529,801.262801,36087.054153
1,1,0,-nan,-nan,-nan,-nan,-nan,-nan,-nan,-nan,-nan,-nan,-nan,-nan
2,0,29,645419.758621,220492.172414,1282416.551724,66579.413793,8037.413793,640783.241379,9590.605948,2608.728797,76331.347755,1281.362758,645.214560,38153.301120
2,1,0,-nan,-nan,-nan,-nan,-nan,-nan,-nan,-nan,-nan,-nan,-nan,-nan
3,0,29,643240.862069,219931.931034,1263948.310345,66273.137931,7828.931034,631529.241379,9489.803006,2602.466747,83761.679388,1115.372235,541.458053,41754.647782
3,1,0,-nan,-nan,-nan,-nan,-nan,-nan,-nan,-nan,-nan,-nan,-nan,-nan
4,0,29,645461.137931,220558.517241,1276591.965517,66725.000000,7971.862069,637765.137931,7926.727719,1554.365812,85269.714102,1126.266031,713.773350,42507.003964
4,1,0,-nan,-nan,-nan,-nan,-nan,-nan,-nan,-nan,-nan,-nan,-nan,-nan
5,0,29,645592.275862,220559.482759,1286587.310345,66700.896552,7963.241379,642853.310345,8705.149569,1834.248594,70941.340600,1265.108673,548.688006,35440.569579
5,1,0,-nan,-nan,-nan,-nan,-nan,-nan,-nan,-nan,-nan,-nan,-nan,-nan
6,0,29,645193.724138,220467.137931,1299051.068966,66727.620690,8047.655172,649059.517241,8228.291887,1890.953759,85570.671237,1226.143841,707.033398,42745.135091
6,1,0,-nan,-nan,-nan,-nan,-nan,-nan,-nan,-nan,-nan,-nan,-nan,-nan
7,0,29,645621.620690,220486.103448,1273730.724138,66769.689655,8059.275862,636384.344828,9597.228628,2006.992747,87187.929809,1399.959041,724.087816,43517.142992
7,1,0,-nan,-nan,-nan,-nan,-nan,-nan,-nan,-nan,-nan,-nan,-nan,-nan
8,0,30,644716.900000,220480.400000,1238664.600000,66693.266667,7746.033333,618899.666667,7125.002402,1488.792589,76751.259300,1124.381161,767.779330,38348.553329
8,1,0,-nan,-nan,-nan,-nan,-nan,-nan,-nan,-nan,-nan,-nan,-nan,-nan
9,0,30,644101.766667,220340.200000,1261543.400000,66620.733333,7916.666667,630347.200000,7271.304645,1699.113326,66595.899937,1121.588812,626.657128,33270.849140
9,1,0,-nan,-nan,-nan,-nan,-nan,-nan,-nan,-nan,-nan,-nan,-nan,-nan
10,0,30,643594.166667,220196.166667,1282017.166667,66403.266667,7972.466667,640521.666667,6836.989830,1979.975052,105053.695401,931.229758,594.422338,52435.734630
10,1,0,-nan,-nan,-nan,-nan,-nan,-nan,-nan,-nan,-nan,-nan,-nan,-nan
11,0,30,643804.133333,220223.200000,1262210.233333,66534.600000,7873.166667,630638.633333,7345.007559,1788.129831,79836.685637,1074.571809,727.005735,39818.133930
11,1,0,-nan,-nan,-nan,-nan,-nan,-nan,-nan,-nan,-nan,-nan,-nan,-nan
12,0,30,643064.700000,220030.166667,1255656.900000,66439.300000,7881.433333,627415.333333,6424.197881,1480.603618,69679.835080,1063.080434,571.263143,34804.481093
12,1,0,-nan,-nan,-nan,-nan,-nan,-nan,-nan,-nan,-nan,-nan,-nan,-nan
13,0,30,643246.533333,220210.866667,1251618.733333,66357.866667,7715.233333,625405.433333,7770.607834,2464.129430,67805.302562,880.732110,483.015299,33925.045674
13,1,0,-nan,-nan,-nan,-nan,-nan,-nan,-nan,-nan,-nan,-nan,-nan,-nan
14,0,30,644416.933333,220437.033333,1264596.933333,66637.533333,7942.500000,631842.766667,7395.276136,1427.369527,62129.255834,976.684689,527.023260,31091.397391
14,1,0,-nan,-nan,-nan,-nan,-nan,-nan,-nan,-nan,-nan,-nan,-nan,-nan
15,0,30,644482.466667,220520.700000,1271177.333333,66657.866667,7983.100000,635091.766667,7476.243111,1572.137741,73681.053086,1011.217343,685.659942,36810.285430
15,1,0,-nan,-nan,-nan,-nan,-nan,-nan,-nan,-nan,-nan,-nan,-nan,-nan
16,0,30,643463.533333,220221.666667,1264612.433333,66441.000000,7831.066667,631903.400000,7451.002576,2112.641748,62650.081743,935.429206,561.560025,31308.066948
16,1,0,-nan,-nan,-nan,-nan,-nan,-nan,-nan,-nan,-nan,-nan,-nan,-nan
17,0,30,644104.400000,220346.800000,1278905.400000,66513.766667,7886.066667,639017.133333,8081.950328,1949.326643,63404.896590,956.885005,483.223960,31674.284189
17,1,0,-nan,-nan,-nan,-nan,-nan,-nan,-nan,-nan,-nan,-nan,-nan,-nan
18,0,30,644577.733333,220344.100000,1278864.300000,66672.566667,7937.766667,638987.466667,7850.291625,1752.297717,77121.821803,1234.971327,584.955536,38492.325885
18,1,0,-nan,-nan,-nan,-nan,-nan,-nan,-nan,-nan,-nan,-nan,-nan,-nan
19,0,30,645081.166667,220508.833333,1272464.900000,66715.733333,7887.566667,635761.033333,7660.015536,1737.733967,57291.883995,1106.661524,715.628241,28660.138279
19,1,0,-nan,-nan,-nan,-nan,-nan,-nan,-nan,-nan,-nan,-nan,-nan,-nan
20,0,30,644296.933333,220365.600000,1271608.733333,66644.800000,7875.133333,635359.466667,8207.129571,1697.057740,63732.596460,1129.356259,496.997635,31873.715997
20,1,0,-nan,-nan,-nan,-nan,-nan,-nan,-nan,-nan,-nan,-nan,-nan,-nan
21,0,30,644713.133333,220378.733333,1286639.700000,66655.633333,7962.333333,642894.233333,6858.599146,1786.067000,80833.891782,1128.713087,518.230922,40329.308777
21,1,0,-nan,-nan,-nan,-nan,-nan,-nan,-nan,-nan,-nan,-nan,-nan,-nan
22,0,30,644458.233333,220401.233333,1269229.433333,66561.300000,7760.433333,634210.500000,8857.262194,2145.966832,74111.908248,1186.651512,715.219718,37043.173993
22,1,0,-nan,-nan,-nan,-nan,-nan,-nan,-nan,-nan,-nan,-nan,-nan,-nan
23,0,30,644886.800000,220525.666667,1274047.966667,66740.866667,7971.000000,636617.266667,7970.566117,1588.177621,65085.539058,1158.565600,644.681730,32583.912046
23,1,0,-nan,-nan,-nan,-nan,-nan,-nan,-nan,-nan,-nan,-nan,-nan,-nan
24,0,30,644118.600000,220417.533333,1275408.100000,66556.166667,7844.266667,637289.266667,7746.248953,2268.595803,66950.107001,1083.338054,582.725432,33490.766747
24,1,0,-nan,-nan,-nan,-nan,-nan,-nan,-nan,-nan,-nan,-nan,-nan,-nan
25,0,30,643073.433333,220002.500000,1271706.466667,66409.833333,7877.366667,635382.000000,5894.405640,1360.628844,89489.244177,884.253134,476.820685,44675.156104
25,1,0,-nan,-nan,-nan,-nan,-nan,-nan,-nan,-nan,-nan,-nan,-nan,-nan
26,0,30,644391.200000,220250.400000,1280364.166667,66630.400000,7861.733333,639804.800000,8987.841322,1925.691834,72722.714268,1383.391355,666.571323,36336.976094
26,1,0,-nan,-nan,-nan,-nan,-nan,-nan,-nan,-nan,-nan,-nan,-nan,-nan
27,0,30,644590.133333,220404.400000,1287039.533333,66694.566667,7999.933333,643094.566667,8223.886262,1813.916694,87584.442852,1195.862051,793.833733,43711.417449
27,1,0,-nan,-nan,-nan,-nan,-nan,-nan,-nan,-nan,-nan,-nan,-nan,-nan
28,0,30,642110.533333,219789.466667,1255632.566667,66260.166667,7690.900000,627367.266667,5081.175131,1217.453264,59259.840132,789.472443,462.994770,29549.899652
28,1,0,-nan,-nan,-nan,-nan,-nan,-nan,-nan,-nan,-nan,-nan,-nan,-nan
29,0,30,643931.333333,220213.966667,1276038.300000,66516.300000,7869.533333,637616.566667,8076.559149,1626.961022,76633.461606,1087.845827,699.011527,38318.471233
29,1,0,-nan,-nan,-nan,-nan,-nan,-nan,-nan,-nan,-nan,-nan,-nan,-nan
30,0,30,644213.100000,220443.500000,1291685.800000,66576.733333,8112.266667,645378.733333,7833.218123,2249.222884,107135.543405,1147.962744,791.871325,53499.925790
30,1,0,-nan,-nan,-nan,-nan,-nan,-nan,-nan,-nan,-nan,-nan,-nan,-nan
31,0,30,646000.700000,220700.100000,1259921.166667,66868.500000,8084.600000,629475.466667,7701.320909,1649.046944,82675.814230,1227.467467,715.483361,41265.872707
31,1,0,-nan,-nan,-nan,-nan,-nan,-nan,-nan,-nan,-nan,-nan,-nan,-nan
32,0,30,642330.933333,219978.133333,1293402.566667,66369.700000,8067.500000,646216.600000,6884.074074,1418.166933,82121.018485,850.695643,844.226421,40892.456581
32,1,0,-nan,-nan,-nan,-nan,-nan,-nan,-nan,-nan,-nan,-nan,-nan,-nan
33,0,30,644618.566667,220470.666667,1312473.266667,66725.500000,8109.400000,655773.900000,8135.382604,1722.926045,74806.860045,1248.933832,718.087163,37404.307705
33,1,0,-nan,-nan,-nan,-nan,-nan,-nan,-nan,-nan,-nan,-nan,-nan,-nan
34,0,30,643779.033333,220251.933333,1269408.533333,66577.333333,7907.033333,634257.566667,7368.834930,1629.531731,71096.725171,1126.480251,640.308440,35487.776459
34,1,0,-nan,-nan,-nan,-nan,-nan,-nan,-nan,-nan,-nan,-nan,-nan,-nan
35,0,30,643256.900000,220218.133333,1280745.566667,66506.366667,7989.700000,639899.966667,7007.384711,1528.570590,61422.922955,1024.289037,555.487063,30651.608901
35,1,0,-nan,-nan,-nan,-nan,-nan,-nan,-nan,-nan,-nan,-nan,-nan,-nan
36,0,30,641613.633333,219821.300000,1262999.733333,66273.566667,7802.433333,631035.666667,5400.963312,1235.198369,62439.979884,793.648776,678.979906,31104.788942
36,1,0,-nan,-nan,-nan,-nan,-nan,-nan,-nan,-nan,-nan,-nan,-nan,-nan
37,0,30,646092.266667,220982.800000,1296580.700000,66808.266667,7975.433333,647853.033333,11667.328217,3207.486715,80098.963641,1292.048527,632.773192,40047.548779
37,1,0,-nan,-nan,-nan,-nan,-nan,-nan,-nan,-nan,-nan,-nan,-nan,-nan
38,0,30,646527.933333,221138.733333,1305367.300000,66818.400000,8065.666667,652260.933333,12461.017526,3740.065756,63878.047893,1430.046657,657.402583,31912.074924
38,1,0,-nan,-nan,-nan,-nan,-nan,-nan,-nan,-nan,-nan,-nan,-nan,-nan
39,0,30,645128.266667,220855.600000,1280739.900000,66697.466667,7894.066667,639945.500000,10578.591191,3382.227802,67188.680451,1209.747184,568.437093,33609.115420
39,1,0,-nan,-nan,-nan,-nan,-nan,-nan,-nan,-nan,-nan,-nan,-nan,-nan
40,0,30,645401.000000,220930.100000,1281004.266667,66764.033333,7918.500000,640069.433333,12179.818088,3788.246449,74897.855218,1499.522090,694.491505,37389.082670
40,1,0,-nan,-nan,-nan,-nan,-nan,-nan,-nan,-nan,-nan,-nan,-nan,-nan
41,0,30,645018.000000,220595.866667,1283127.033333,66584.200000,7895.833333,641080.733333,11821.061078,3519.636608,89646.045524,1342.980998,632.842639,44739.092595
41,1,0,-nan,-nan,-nan,-nan,-nan,-nan,-nan,-nan,-nan,-nan,-nan,-nan
42,0,30,646751.600000,221058.200000,1293393.866667,66812.933333,8072.666667,646302.666667,11467.066962,3394.349161,82977.939115,1318.560274,605.292950,41512.404831
42,1,0,-nan,-nan,-nan,-nan,-nan,-nan,-nan,-nan,-nan,-nan,-nan,-nan
43,0,30,646832.366667,221190.766667,1283595.900000,66833.566667,7898.800000,641359.000000,15620.614483,5182.594966,73476.518173,1733.083623,682.894057,36644.855959
43,1,0,-nan,-nan,-nan,-nan,-nan,-nan,-nan,-nan,-nan,-nan,-nan,-nan
44,0,30,645135.466667,220812.900000,1282525.333333,66687.033333,7989.600000,640768.933333,12197.324856,3762.808343,77470.184215,1448.634587,641.643130,38701.169591
44,1,0,-nan,-nan,-nan,-nan,-nan,-nan,-nan,-nan,-nan,-nan,-nan,-nan
45,0,30,644632.833333,220689.900000,1260482.233333,66597.400000,7841.833333,629837.600000,10070.143723,3313.596921,66380.495455,1233.163401,621.233240,33182.021932
45,1,0,-nan,-nan,-nan,-nan,-nan,-nan,-nan,-nan,-nan,-nan,-nan,-nan
46,0,30,646567.166667,221091.933333,1257947.633333,66801.800000,8008.200000,628558.566667,11695.422592,3967.394863,63535.094614,1489.837852,649.997508,31748.033042
46,1,0,-nan,-nan,-nan,-nan,-nan,-nan,-nan,-nan,-nan,-nan,-nan,-nan
47,0,30,643647.466667,220413.800000,1239404.600000,66389.800000,7895.933333,619282.500000,11513.490958,3654.967892,61661.207400,1212.458698,579.112478,30819.231832
47,1,0,-nan,-nan,-nan,-nan,-nan,-nan,-nan,-nan,-nan,-nan,-nan,-nan
48,0,30,644334.866667,220463.000000,1281623.833333,66412.433333,8007.466667,640406.766667,10609.044329,3262.095819,90544.531923,1120.543698,672.928859,45321.838375
48,1,0,-nan,-nan,-nan,-nan,-nan,-nan,-nan,-nan,-nan,-nan,-nan,-nan
49,0,30,645821.466667,220969.933333,1255873.666667,66729.633333,7954.666667,627484.033333,10972.676889,3434.193859,63277.877391,1230.676033,658.272149,31640.882372
49,1,0,-nan,-nan,-nan,-nan,-nan,-nan,-nan,-nan,-nan,-nan,-nan,-nan
50,0,30,647996.066667,221568.800000,1277281.700000,67018.866667,8095.866667,638172.333333,12483.211114,3629.293966,76798.847300,1361.256129,732.522934,38329.807889
50,1,0,-nan,-nan,-nan,-nan,-nan,-nan,-nan,-nan,-nan,-nan,-nan,-nan
51,0,30,645082.433333,220614.533333,1257753.400000,66592.900000,7897.666667,628497.166667,12516.821153,3929.459630,64498.307689,1537.180305,632.965525,32232.978152
51,1,0,-nan,-nan,-nan,-nan,-nan,-nan,-nan,-nan,-nan,-nan,-nan,-nan
52,0,30,646917.600000,221169.300000,1279397.533333,66877.500000,8010.833333,639252.533333,12885.893462,3583.190247,75264.591227,1526.877440,711.941575,37572.088071
52,1,0,-nan,-nan,-nan,-nan,-nan,-nan,-nan,-nan,-nan,-nan,-nan,-nan
53,0,30,645441.833333,220894.600000,1276470.633333,66577.700000,7919.066667,637829.366667,11427.963931,3827.936020,77806.233848,1278.425103,577.252800,38900.925318
53,1,0,-nan,-nan,-nan,-nan,-nan,-nan,-nan,-nan,-nan,-nan,-nan,-nan
54,0,30,646412.833333,220962.500000,1275161.966667,66742.666667,7956.666667,637181.933333,12135.577122,3704.580658,61531.986839,1399.416934,666.841427,30786.725361
54,1,0,-nan,-nan,-nan,-nan,-nan,-nan,-nan,-nan,-nan,-nan,-nan,-nan
55,0,30,643840.400000,220340.933333,1246911.500000,66381.333333,7836.400000,623019.733333,10128.772902,3354.354940,72309.304957,1099.548493,611.848870,36109.790851
55,1,0,-nan,-nan,-nan,-nan,-nan,-nan,-nan,-nan,-nan,-nan,-nan,-nan
56,0,30,645177.500000,220744.166667,1275918.666667,66579.666667,7962.233333,637527.766667,10863.379022,3360.557633,71807.875072,1199.806410,653.905991,35878.335313
56,1,0,-nan,-nan,-nan,-nan,-nan,-nan,-nan,-nan,-nan,-nan,-nan,-nan
57,0,30,647716.833333,221178.133333,1293117.533333,66933.766667,8069.966667,646143.166667,14661.259407,4210.765415,87646.084089,1855.541568,719.557479,43805.161383
57,1,0,-nan,-nan,-nan,-nan,-nan,-nan,-nan,-nan,-nan,-nan,-nan,-nan
58,0,30,646279.266667,220868.066667,1297314.166667,66629.000000,7921.733333,648216.000000,12959.385495,4133.418730,88110.831260,1567.577749,678.378996,43994.491556
58,1,0,-nan,-nan,-nan,-nan,-nan,-nan,-nan,-nan,-nan,-nan,-nan,-nan
59,0,30,645401.266667,220751.233333,1284566.133333,66576.633333,7794.000000,641836.666667,10078.251151,3371.732687,75976.494241,1165.613157,596.585786,37912.516177
59,1,0,-nan,-nan,-nan,-nan,-nan,-nan,-nan,-nan,-nan,-nan,-nan,-nan
60,0,30,645638.233333,220794.800000,1273349.666667,66647.366667,7815.166667,636278.600000,11576.044629,3408.841958,57630.896364,1318.072823,693.152272,28801.735049
60,1,0,-nan,-nan,-nan,-nan,-nan,-nan,-nan,-nan,-nan,-nan,-nan,-nan
61,0,30,645166.533333,220520.433333,1264396.800000,66472.166667,7773.600000,631802.966667,12149.270331,3734.756143,68434.063453,1270.538287,530.136813,34205.521519
61,1,0,-nan,-nan,-nan,-nan,-nan,-nan,-nan,-nan,-nan,-nan,-nan,-nan
62,0,30,648083.033333,221519.166667,1285848.366667,66939.000000,8043.333333,642435.300000,11769.450937,3636.698779,58229.799843,1337.051807,451.890793,29164.133125
62,1,0,-nan,-nan,-nan,-nan,-nan,-nan,-nan,-nan,-nan,-nan,-nan,-nan
63,0,87,642938.310345,220158.448276,1263932.367816,66470.333333,7867.954023,631517.701149,8557.688712,2485.631883,56746.713422,993.360692,574.065516,28365.773863
63,1,0,-nan,-nan,-nan,-nan,-nan,-nan,-nan,-nan,-nan,-nan,-nan,-nan
