-1,0,0.0167264
-1,1,0.0155317
-1,2,0.0155317
-1,3,0.0155317
-1,4,0.0155317
-1,5,0.0155317
-1,6,0.0155317
-1,7,0.0155317
-1,8,0.0155317
-1,9,0.0155317
-1,10,0.0155317
-1,11,0.0155317
-1,12,0.0155317
-1,13,0.0155317
-1,14,0.0155317
-1,15,0.0155317
-1,16,0.0155317
-1,17,0.0155317
-1,18,0.0155317
-1,19,0.0155317
-1,20,0.0155317
-1,21,0.0155317
-1,22,0.0155317
-1,23,0.0155317
-1,24,0.0155317
-1,25,0.0155317
-1,26,0.0155317
-1,27,0.0155317
-1,28,0.0155317
-1,29,0.0155317
-1,30,0.0155317
-1,31,0.0155317
-1,32,0.0155317
-1,33,0.0155317
-1,34,0.0155317
-1,35,0.0155317
-1,36,0.0155317
-1,37,0.0155317
-1,38,0.0155317
-1,39,0.0155317
-1,40,0.0155317
-1,41,0.0155317
-1,42,0.0155317
-1,43,0.0155317
-1,44,0.0155317
-1,45,0.0155317
-1,46,0.0155317
-1,47,0.0155317
-1,48,0.0155317
-1,49,0.0155317
-1,50,0.0155317
-1,51,0.0155317
-1,52,0.0155317
-1,53,0.0167264
-1,54,0.0167264
-1,55,0.0167264
-1,56,0.0167264
-1,57,0.0155317
-1,58,0.0155317
-1,59,0.0155317
-1,60,0.0155317
-1,61,0.0155317
-1,62,0.0155317
-1,63,0.0155317
3,0,0.0156766
3,1,0.0148515
3,2,0.0148515
3,3,0.0148515
3,4,0.0148515
3,5,0.0156766
3,6,0.0156766
3,7,0.0156766
3,8,0.0156766
3,9,0.0156766
3,10,0.0156766
3,11,0.0156766
3,12,0.0156766
3,13,0.0156766
3,14,0.0156766
3,15,0.0156766
3,16,0.0156766
3,17,0.0156766
3,18,0.0156766
3,19,0.0156766
3,20,0.0156766
3,21,0.0156766
3,22,0.0156766
3,23,0.0156766
3,24,0.0156766
3,25,0.0156766
3,26,0.0156766
3,27,0.0156766
3,28,0.0156766
3,29,0.0156766
3,30,0.0156766
3,31,0.0156766
3,32,0.0156766
3,33,0.0156766
3,34,0.0156766
3,35,0.0156766
3,36,0.0156766
3,37,0.0156766
3,38,0.0156766
3,39,0.0156766
3,40,0.0156766
3,41,0.0156766
3,42,0.0156766
3,43,0.0156766
3,44,0.0156766
3,45,0.0156766
3,46,0.0156766
3,47,0.0156766
3,48,0.0156766
3,49,0.0156766
3,50,0.0156766
3,51,0.0156766
3,52,0.0156766
3,53,0.0156766
3,54,0.0156766
3,55,0.0156766
3,56,0.0156766
3,57,0.0156766
3,58,0.0156766
3,59,0.0156766
3,60,0.0156766
3,61,0.0156766
3,62,0.0156766
3,63,0.0156766
