-1,0,0.0598504
-1,1,0.0592269
-1,2,0.0592269
-1,3,0.0592269
-1,4,0.0592269
-1,5,0.0592269
-1,6,0.0592269
-1,7,0.0592269
-1,8,0.0592269
-1,9,0.0592269
-1,10,0.0592269
-1,11,0.0592269
-1,12,0.0592269
-1,13,0.0592269
-1,14,0.0592269
-1,15,0.110973
0,0,0.00268097
0,1,0.00268097
0,2,0.00268097
0,3,0.00268097
0,4,0.00268097
0,5,0.00268097
0,6,0.00268097
0,7,0.00268097
0,8,0.00268097
0,9,0.00268097
0,10,0.00268097
0,11,0.00268097
0,12,0.00268097
0,13,0.00268097
0,14,0.00268097
0,15,0.959786
