0,0,17,646149.882353,220838.470588,1272308.529412,66881.529412,7691.529412,635800.000000,18130.808570,5447.663785,71911.441049,2205.617804,772.095020,36005.707601
0,1,0,-nan,-nan,-nan,-nan,-nan,-nan,-nan,-nan,-nan,-nan,-nan,-nan
1,0,16,641526.375000,219447.187500,1220226.812500,66132.250000,7547.812500,609749.750000,9060.173066,2605.300564,62172.072420,1087.416750,663.913136,31060.871208
1,1,0,-nan,-nan,-nan,-nan,-nan,-nan,-nan,-nan,-nan,-nan,-nan,-nan
2,0,16,641269.937500,219517.250000,1257597.687500,66298.812500,7774.125000,628246.812500,6056.490139,1254.359274,63799.991948,719.403939,721.838614,31769.132541
2,1,0,-nan,-nan,-nan,-nan,-nan,-nan,-nan,-nan,-nan,-nan,-nan,-nan
3,0,16,644975.000000,220020.125000,1277933.687500,66735.250000,7898.687500,638498.937500,10860.875500,2058.352462,77541.678103,1556.508814,734.337518,38739.665619
3,1,0,-nan,-nan,-nan,-nan,-nan,-nan,-nan,-nan,-nan,-nan,-nan,-nan
4,0,16,640297.375000,219104.000000,1245312.750000,65922.875000,7571.437500,622269.000000,8174.037228,2416.977012,61756.262289,794.410306,658.317360,30870.416257
4,1,0,-nan,-nan,-nan,-nan,-nan,-nan,-nan,-nan,-nan,-nan,-nan,-nan
5,0,16,642024.437500,219337.687500,1260139.187500,66338.312500,7829.812500,629597.937500,7231.095396,1681.550576,81439.029033,1080.155528,890.149371,40631.373308
5,1,0,-nan,-nan,-nan,-nan,-nan,-nan,-nan,-nan,-nan,-nan,-nan,-nan
6,0,16,644990.312500,220179.750000,1287997.562500,66671.062500,7704.125000,643543.437500,9502.701338,2507.852007,101725.808319,1286.573184,764.290429,50837.141607
6,1,0,-nan,-nan,-nan,-nan,-nan,-nan,-nan,-nan,-nan,-nan,-nan,-nan
7,0,16,643966.562500,219615.562500,1230723.250000,66501.062500,7714.187500,614929.750000,6817.197509,1730.032043,100017.940533,1213.472830,949.944618,49937.903080
7,1,0,-nan,-nan,-nan,-nan,-nan,-nan,-nan,-nan,-nan,-nan,-nan,-nan
8,0,16,641258.625000,219154.750000,1264304.562500,66095.812500,7647.687500,631757.187500,5765.044990,1455.880339,49787.390016,826.229328,369.291335,24938.398847
8,1,0,-nan,-nan,-nan,-nan,-nan,-nan,-nan,-nan,-nan,-nan,-nan,-nan
9,0,16,642866.312500,219602.687500,1223238.750000,66499.437500,7539.937500,611203.062500,9102.982016,1989.603972,53480.756137,1439.801547,692.048632,26706.538639
9,1,0,-nan,-nan,-nan,-nan,-nan,-nan,-nan,-nan,-nan,-nan,-nan,-nan
10,0,16,642146.187500,219479.937500,1248080.500000,66346.687500,7657.750000,623638.062500,7961.183033,1835.727154,65780.980654,1217.238202,675.452950,32869.741128
10,1,0,-nan,-nan,-nan,-nan,-nan,-nan,-nan,-nan,-nan,-nan,-nan,-nan
11,0,16,640274.625000,218877.625000,1267905.625000,65994.937500,7757.750000,633550.875000,7637.299939,1297.339001,90190.725582,806.485002,662.047251,45069.369619
11,1,0,-nan,-nan,-nan,-nan,-nan,-nan,-nan,-nan,-nan,-nan,-nan,-nan
12,0,16,642862.875000,219844.250000,1273854.437500,66435.062500,7692.062500,636478.562500,7619.088970,2390.906954,90443.000174,1118.213836,841.743464,45198.999293
12,1,0,-nan,-nan,-nan,-nan,-nan,-nan,-nan,-nan,-nan,-nan,-nan,-nan
13,0,16,644186.312500,219905.875000,1238040.687500,66707.125000,7632.937500,618661.937500,10056.772623,2155.993445,76547.163149,1493.039805,824.054342,38351.588376
13,1,0,-nan,-nan,-nan,-nan,-nan,-nan,-nan,-nan,-nan,-nan,-nan,-nan
14,0,16,640050.812500,218944.875000,1239606.562500,66072.500000,7536.062500,619408.250000,6477.943300,1361.370122,64695.638556,833.533818,638.272715,32354.379480
14,1,0,-nan,-nan,-nan,-nan,-nan,-nan,-nan,-nan,-nan,-nan,-nan,-nan
15,0,16,638966.437500,218776.687500,1214981.125000,65893.125000,7357.875000,607103.562500,2740.831830,653.660340,63953.187991,269.231748,534.835124,31968.293231
15,1,0,-nan,-nan,-nan,-nan,-nan,-nan,-nan,-nan,-nan,-nan,-nan,-nan
16,0,16,643862.937500,219743.875000,1245249.250000,66628.500000,7877.562500,622181.750000,10089.484529,2282.961012,82333.800306,1552.062620,975.951393,41071.371099
16,1,0,-nan,-nan,-nan,-nan,-nan,-nan,-nan,-nan,-nan,-nan,-nan,-nan
17,0,16,641794.125000,219401.000000,1210534.625000,66303.812500,7458.437500,604867.562500,7055.249560,1618.500154,71387.947240,1024.704178,452.068160,35689.142067
17,1,0,-nan,-nan,-nan,-nan,-nan,-nan,-nan,-nan,-nan,-nan,-nan,-nan
18,0,16,643102.375000,219743.062500,1243083.125000,66593.562500,7728.187500,621095.250000,8232.155754,1817.558715,77256.974096,1331.706892,506.293173,38613.781621
18,1,0,-nan,-nan,-nan,-nan,-nan,-nan,-nan,-nan,-nan,-nan,-nan,-nan
19,0,16,641427.187500,219592.437500,1249007.625000,66198.500000,7625.500000,624068.750000,8551.594853,2557.247396,89692.102985,843.080809,772.169832,44823.468695
19,1,0,-nan,-nan,-nan,-nan,-nan,-nan,-nan,-nan,-nan,-nan,-nan,-nan
20,0,16,642273.500000,219179.812500,1249749.562500,66221.875000,7587.062500,624542.812500,6308.179531,1422.449394,66783.192960,1037.613721,628.645018,33371.525634
20,1,0,-nan,-nan,-nan,-nan,-nan,-nan,-nan,-nan,-nan,-nan,-nan,-nan
21,0,16,642186.062500,219242.937500,1257295.375000,66220.312500,7674.062500,628134.875000,6547.013484,1309.070924,81588.870479,802.728372,791.041597,40728.967983
21,1,0,-nan,-nan,-nan,-nan,-nan,-nan,-nan,-nan,-nan,-nan,-nan,-nan
22,0,16,646637.625000,220055.625000,1249149.062500,66885.687500,7965.687500,624167.562500,10371.252919,2206.817388,66424.663139,1534.159490,587.002100,33157.111409
22,1,0,-nan,-nan,-nan,-nan,-nan,-nan,-nan,-nan,-nan,-nan,-nan,-nan
23,0,16,641594.312500,218772.062500,1248712.437500,65992.062500,7690.562500,623993.812500,4945.112141,1134.825453,38357.661945,841.590642,554.688648,19174.988684
23,1,0,-nan,-nan,-nan,-nan,-nan,-nan,-nan,-nan,-nan,-nan,-nan,-nan
24,0,16,643027.250000,219627.187500,1237676.875000,66442.875000,7656.062500,618391.250000,7018.994608,1259.470783,64659.039658,1033.651409,558.233651,32292.215694
24,1,0,-nan,-nan,-nan,-nan,-nan,-nan,-nan,-nan,-nan,-nan,-nan,-nan
25,0,16,640243.687500,218850.062500,1224806.187500,66042.062500,7498.250000,611969.687500,6758.613187,1392.234287,48012.680738,853.555612,717.704544,23953.432488
25,1,0,-nan,-nan,-nan,-nan,-nan,-nan,-nan,-nan,-nan,-nan,-nan,-nan
26,0,16,642211.000000,219319.937500,1251219.062500,66332.250000,7515.625000,625211.937500,8530.103106,1854.148034,71108.812731,1232.144802,466.598579,35524.753420
26,1,0,-nan,-nan,-nan,-nan,-nan,-nan,-nan,-nan,-nan,-nan,-nan,-nan
27,0,16,642980.000000,219517.625000,1207952.562500,66414.562500,7431.812500,603547.375000,6796.464954,1496.925761,61612.379589,974.445481,578.032895,30793.223993
27,1,0,-nan,-nan,-nan,-nan,-nan,-nan,-nan,-nan,-nan,-nan,-nan,-nan
28,0,16,640308.500000,218931.562500,1228590.437500,65989.062500,7554.812500,613838.500000,3646.582955,853.824921,62504.615324,452.015828,642.820078,31249.999902
28,1,0,-nan,-nan,-nan,-nan,-nan,-nan,-nan,-nan,-nan,-nan,-nan,-nan
29,0,16,639802.250000,218877.125000,1219881.000000,65978.750000,7544.062500,609510.312500,3751.217977,1024.044364,69967.747286,471.885116,780.998197,34946.159370
29,1,0,-nan,-nan,-nan,-nan,-nan,-nan,-nan,-nan,-nan,-nan,-nan,-nan
30,0,16,642646.750000,219427.812500,1240615.625000,66362.687500,7666.875000,619923.625000,7377.818711,1550.662529,44125.192991,1008.186349,573.920713,22040.497524
30,1,0,-nan,-nan,-nan,-nan,-nan,-nan,-nan,-nan,-nan,-nan,-nan,-nan
31,0,16,639665.375000,218853.750000,1214772.500000,65949.375000,7450.812500,606986.062500,2711.432529,913.735910,78812.125012,360.653378,622.585458,39392.765114
31,1,0,-nan,-nan,-nan,-nan,-nan,-nan,-nan,-nan,-nan,-nan,-nan,-nan
32,0,16,639938.937500,218821.000000,1232678.562500,65946.187500,7533.562500,615899.562500,3875.696816,995.751852,63024.496617,441.792120,452.175846,31508.952143
32,1,0,-nan,-nan,-nan,-nan,-nan,-nan,-nan,-nan,-nan,-nan,-nan,-nan
33,0,16,641972.687500,219318.312500,1242803.937500,66331.812500,7640.937500,620983.562500,7663.134343,1847.947940,78665.283148,1113.704809,807.189992,39297.385261
33,1,0,-nan,-nan,-nan,-nan,-nan,-nan,-nan,-nan,-nan,-nan,-nan,-nan
34,0,16,640900.750000,219137.625000,1237808.125000,66170.500000,7668.562500,618494.375000,5879.687508,1385.271989,71572.688751,844.379580,580.847438,35818.534915
34,1,0,-nan,-nan,-nan,-nan,-nan,-nan,-nan,-nan,-nan,-nan,-nan,-nan
35,0,16,647221.875000,220600.250000,1252387.937500,66973.500000,8014.500000,625782.875000,9079.578975,2639.155582,66789.163981,1448.214202,629.326624,33446.068967
35,1,0,-nan,-nan,-nan,-nan,-nan,-nan,-nan,-nan,-nan,-nan,-nan,-nan
36,0,16,641622.687500,219269.125000,1218402.062500,66066.937500,7686.812500,608779.687500,7875.571160,2478.299111,70220.385548,901.897269,588.352277,35121.190853
36,1,0,-nan,-nan,-nan,-nan,-nan,-nan,-nan,-nan,-nan,-nan,-nan,-nan
37,0,16,643604.062500,219845.062500,1224882.750000,66552.812500,7668.187500,611982.875000,6766.330749,1882.918462,65811.446391,1119.961898,582.705245,32952.987837
37,1,0,-nan,-nan,-nan,-nan,-nan,-nan,-nan,-nan,-nan,-nan,-nan,-nan
38,0,16,644172.312500,219788.312500,1232741.812500,66688.562500,7735.937500,615933.062500,9771.355278,2126.501520,59473.763989,1475.319964,712.659322,29726.087733
38,1,0,-nan,-nan,-nan,-nan,-nan,-nan,-nan,-nan,-nan,-nan,-nan,-nan
39,0,16,645825.187500,220164.187500,1243389.875000,66903.812500,7832.812500,621302.562500,9737.480059,2345.173640,61568.563874,1597.773772,584.340464,30758.615366
39,1,0,-nan,-nan,-nan,-nan,-nan,-nan,-nan,-nan,-nan,-nan,-nan,-nan
40,0,16,638890.937500,218997.187500,1209347.062500,65973.437500,7616.750000,604217.875000,3261.669099,688.909938,61182.588647,348.409057,374.327647,30580.034843
40,1,0,-nan,-nan,-nan,-nan,-nan,-nan,-nan,-nan,-nan,-nan,-nan,-nan
41,0,16,643670.875000,219883.875000,1273380.250000,66443.937500,7868.437500,636303.437500,10077.324272,2709.785690,102812.119996,1329.584826,674.716512,51407.186442
41,1,0,-nan,-nan,-nan,-nan,-nan,-nan,-nan,-nan,-nan,-nan,-nan,-nan
42,0,16,640751.312500,219180.625000,1298987.625000,66057.562500,7819.437500,649011.937500,3518.437415,1065.154324,108592.281516,411.253415,912.322857,54178.008010
42,1,0,-nan,-nan,-nan,-nan,-nan,-nan,-nan,-nan,-nan,-nan,-nan,-nan
43,0,16,644757.875000,219796.375000,1232222.500000,66641.000000,7824.062500,615703.812500,9803.086044,2112.151092,55067.319565,1482.621749,817.176424,27457.489539
43,1,0,-nan,-nan,-nan,-nan,-nan,-nan,-nan,-nan,-nan,-nan,-nan,-nan
44,0,16,640612.375000,218876.625000,1239160.500000,66003.187500,7457.875000,619185.875000,5023.337398,1198.934156,48863.609288,806.361521,536.358541,24399.425749
44,1,0,-nan,-nan,-nan,-nan,-nan,-nan,-nan,-nan,-nan,-nan,-nan,-nan
45,0,16,641433.125000,219529.250000,1237677.500000,66347.875000,7690.062500,618343.625000,6027.752295,1256.747116,66781.552760,858.621488,570.444177,33346.230433
45,1,0,-nan,-nan,-nan,-nan,-nan,-nan,-nan,-nan,-nan,-nan,-nan,-nan
46,0,16,641775.687500,219231.312500,1240064.125000,66256.875000,7530.625000,619620.500000,8246.572506,1674.835205,60552.423389,1113.463172,592.433527,30241.002205
46,1,0,-nan,-nan,-nan,-nan,-nan,-nan,-nan,-nan,-nan,-nan,-nan,-nan
47,0,16,643856.437500,219788.687500,1250744.812500,66424.062500,7667.812500,624976.125000,8292.231462,2348.341349,72483.722688,1149.221338,736.753963,36195.335587
47,1,0,-nan,-nan,-nan,-nan,-nan,-nan,-nan,-nan,-nan,-nan,-nan,-nan
48,0,16,643414.000000,219935.750000,1270709.812500,66431.687500,7858.562500,634851.750000,8623.187128,2949.836659,115278.900873,1106.411695,832.164044,57597.236120
48,1,0,-nan,-nan,-nan,-nan,-nan,-nan,-nan,-nan,-nan,-nan,-nan,-nan
49,0,16,641647.312500,219181.500000,1268149.375000,66232.000000,7615.687500,633663.250000,7010.025345,1467.249979,82677.325459,1200.787086,832.167105,41328.981386
49,1,0,-nan,-nan,-nan,-nan,-nan,-nan,-nan,-nan,-nan,-nan,-nan,-nan
50,0,16,640447.562500,219136.312500,1265710.562500,66022.812500,7670.687500,632417.937500,3671.540940,1092.305974,88953.271103,529.511239,651.555707,44403.441955
50,1,0,-nan,-nan,-nan,-nan,-nan,-nan,-nan,-nan,-nan,-nan,-nan,-nan
51,0,16,643701.312500,219520.312500,1268663.562500,66447.812500,7805.750000,633948.437500,9820.624450,2027.421784,89622.645576,1408.832416,595.686316,44794.366683
51,1,0,-nan,-nan,-nan,-nan,-nan,-nan,-nan,-nan,-nan,-nan,-nan,-nan
52,0,16,641635.375000,219355.187500,1255858.937500,66237.437500,7496.937500,627492.687500,6725.453357,1373.227549,83980.252352,775.955296,519.270939,41962.030515
52,1,0,-nan,-nan,-nan,-nan,-nan,-nan,-nan,-nan,-nan,-nan,-nan,-nan
53,0,16,642529.000000,219447.687500,1231343.437500,66354.750000,7624.000000,615253.187500,7090.568630,1691.015956,71201.428924,1062.226877,831.528562,35581.488140
53,1,0,-nan,-nan,-nan,-nan,-nan,-nan,-nan,-nan,-nan,-nan,-nan,-nan
54,0,16,640581.000000,219078.625000,1251118.937500,66048.250000,7496.687500,625137.687500,5180.929489,1246.699236,62619.376712,741.085648,440.804906,31303.110719
54,1,0,-nan,-nan,-nan,-nan,-nan,-nan,-nan,-nan,-nan,-nan,-nan,-nan
55,0,16,641364.062500,219355.062500,1240171.187500,66089.062500,7588.062500,619694.687500,7932.795759,2592.092361,65415.335509,1028.572522,721.385080,32680.983786
55,1,0,-nan,-nan,-nan,-nan,-nan,-nan,-nan,-nan,-nan,-nan,-nan,-nan
56,0,16,640616.812500,219304.375000,1263947.187500,66060.125000,7694.437500,631513.750000,3102.841847,931.553600,108461.271540,536.613557,893.195315,54099.636524
56,1,0,-nan,-nan,-nan,-nan,-nan,-nan,-nan,-nan,-nan,-nan,-nan,-nan
57,0,16,644641.812500,219998.250000,1257781.875000,66709.500000,7778.750000,628480.187500,8112.608622,1831.648011,66059.465127,1471.237744,785.162841,33027.643594
57,1,0,-nan,-nan,-nan,-nan,-nan,-nan,-nan,-nan,-nan,-nan,-nan,-nan
58,0,16,641826.500000,219639.750000,1241770.062500,66214.625000,7564.000000,620422.187500,7960.118152,2308.523405,92402.536921,888.844677,589.473282,46122.999636
58,1,0,-nan,-nan,-nan,-nan,-nan,-nan,-nan,-nan,-nan,-nan,-nan,-nan
59,0,16,640398.000000,219019.375000,1219566.250000,66016.750000,7504.750000,609391.312500,4469.510110,1172.383890,65743.941827,861.167630,564.912327,32957.297664
59,1,0,-nan,-nan,-nan,-nan,-nan,-nan,-nan,-nan,-nan,-nan,-nan,-nan
60,0,16,639077.375000,218708.937500,1212248.250000,65803.437500,7614.437500,605703.375000,3873.573639,814.539323,83474.230752,502.616276,750.988346,41651.429977
60,1,0,-nan,-nan,-nan,-nan,-nan,-nan,-nan,-nan,-nan,-nan,-nan,-nan
61,0,16,641157.062500,218978.000000,1255009.562500,66002.500000,7742.500000,627110.687500,7127.357860,1474.223864,77704.992093,1052.606705,880.489920,38825.683496
61,1,0,-nan,-nan,-nan,-nan,-nan,-nan,-nan,-nan,-nan,-nan,-nan,-nan
62,0,16,641759.687500,219430.687500,1271547.062500,66220.625000,7829.500000,635322.125000,5446.677941,1413.465233,88116.289587,850.662527,639.168992,44076.212738
62,1,0,-nan,-nan,-nan,-nan,-nan,-nan,-nan,-nan,-nan,-nan,-nan,-nan
63,0,16,643923.875000,219956.937500,1221838.937500,66615.062500,7719.750000,610493.375000,8973.043379,2065.723404,53670.786809,1402.932307,640.619378,26855.620194
63,1,0,-nan,-nan,-nan,-nan,-nan,-nan,-nan,-nan,-nan,-nan,-nan,-nan
64,0,16,642353.562500,219377.687500,1245833.500000,66276.312500,7659.375000,622509.125000,7315.347471,1568.659488,66830.768442,1147.344800,655.904802,33400.418524
64,1,0,-nan,-nan,-nan,-nan,-nan,-nan,-nan,-nan,-nan,-nan,-nan,-nan
65,0,16,646704.125000,220228.562500,1281072.375000,66865.937500,8016.812500,640130.187500,10965.490156,2264.957504,90388.828054,1684.512336,717.697466,45153.195845
65,1,0,-nan,-nan,-nan,-nan,-nan,-nan,-nan,-nan,-nan,-nan,-nan,-nan
66,0,16,638776.687500,218500.375000,1189338.562500,65702.000000,7305.375000,594315.687500,2811.914022,443.322100,39702.689539,319.009796,694.579898,19850.991945
66,1,0,-nan,-nan,-nan,-nan,-nan,-nan,-nan,-nan,-nan,-nan,-nan,-nan
67,0,16,641168.562500,219225.625000,1242603.687500,66090.187500,7454.125000,620900.250000,7608.182651,1297.785078,92353.610412,986.263607,595.392609,46193.680901
67,1,0,-nan,-nan,-nan,-nan,-nan,-nan,-nan,-nan,-nan,-nan,-nan,-nan
68,0,16,639033.000000,218756.062500,1243830.312500,65828.187500,7485.750000,621493.000000,3039.509952,956.679640,83750.828629,445.874452,632.957098,41874.355471
68,1,0,-nan,-nan,-nan,-nan,-nan,-nan,-nan,-nan,-nan,-nan,-nan,-nan
69,0,16,645459.312500,220338.625000,1255735.062500,66820.062500,7645.375000,627368.937500,9363.968254,1987.831981,61704.972618,1266.185485,724.689147,30801.429130
69,1,0,-nan,-nan,-nan,-nan,-nan,-nan,-nan,-nan,-nan,-nan,-nan,-nan
70,0,16,641679.562500,219297.812500,1259065.375000,66194.625000,7623.437500,629093.312500,7546.418165,1790.245871,61537.993307,1280.823411,753.950841,30734.342731
70,1,0,-nan,-nan,-nan,-nan,-nan,-nan,-nan,-nan,-nan,-nan,-nan,-nan
71,0,16,639600.562500,218808.625000,1200917.312500,65846.312500,7423.375000,600039.812500,3606.376505,852.936902,45855.060013,501.294290,532.582021,22977.419299
71,1,0,-nan,-nan,-nan,-nan,-nan,-nan,-nan,-nan,-nan,-nan,-nan,-nan
72,0,16,642484.250000,219452.375000,1238864.562500,66283.375000,7477.937500,619028.875000,8033.398538,1819.130454,71363.203705,1222.748332,646.339353,35689.218160
72,1,0,-nan,-nan,-nan,-nan,-nan,-nan,-nan,-nan,-nan,-nan,-nan,-nan
73,0,16,642940.562500,219695.437500,1253534.812500,66222.187500,7482.562500,626324.687500,8676.720975,2496.291298,45011.978575,1149.688937,630.993559,22503.443869
73,1,0,-nan,-nan,-nan,-nan,-nan,-nan,-nan,-nan,-nan,-nan,-nan,-nan
74,0,16,644907.125000,220124.875000,1243968.500000,66591.062500,7432.000000,621613.062500,9151.714408,2711.984441,55852.774917,1320.372508,316.581546,27922.684348
74,1,0,-nan,-nan,-nan,-nan,-nan,-nan,-nan,-nan,-nan,-nan,-nan,-nan
75,0,16,638939.687500,218684.312500,1220576.562500,65782.187500,7387.625000,609850.875000,3686.991536,961.876598,53581.242811,525.621325,347.237108,26807.963115
75,1,0,-nan,-nan,-nan,-nan,-nan,-nan,-nan,-nan,-nan,-nan,-nan,-nan
76,0,16,641671.812500,219385.187500,1218470.062500,66166.937500,7620.687500,608781.125000,5916.606177,1312.457962,77684.576364,945.336876,657.655563,38906.327098
76,1,0,-nan,-nan,-nan,-nan,-nan,-nan,-nan,-nan,-nan,-nan,-nan,-nan
77,0,16,643111.875000,219689.000000,1225343.250000,66429.437500,7642.375000,612286.687500,8091.591854,1735.773999,50472.104490,1249.716266,500.159084,25217.579713
77,1,0,-nan,-nan,-nan,-nan,-nan,-nan,-nan,-nan,-nan,-nan,-nan,-nan
78,0,16,640565.875000,219018.625000,1213274.062500,65996.875000,7538.062500,606207.562500,5997.660407,1415.460873,57364.484676,940.031707,468.302849,28697.280651
78,1,0,-nan,-nan,-nan,-nan,-nan,-nan,-nan,-nan,-nan,-nan,-nan,-nan
79,0,16,640846.750000,219146.687500,1237890.125000,66029.500000,7534.812500,618534.875000,6320.815172,1188.007877,52656.135046,799.903900,576.631839,26355.330699
79,1,0,-nan,-nan,-nan,-nan,-nan,-nan,-nan,-nan,-nan,-nan,-nan,-nan
80,0,16,641646.250000,219478.375000,1246124.562500,66014.562500,7345.375000,622662.875000,8099.030339,2789.372082,57224.831225,918.422831,557.555028,28631.280322
80,1,0,-nan,-nan,-nan,-nan,-nan,-nan,-nan,-nan,-nan,-nan,-nan,-nan
81,0,16,641565.125000,219481.000000,1242088.500000,66199.375000,7428.062500,620577.000000,5446.279589,1264.928605,79595.451678,788.863571,536.410695,39778.235761
81,1,0,-nan,-nan,-nan,-nan,-nan,-nan,-nan,-nan,-nan,-nan,-nan,-nan
82,0,16,642366.562500,219318.500000,1240198.875000,66310.812500,7646.750000,619738.000000,7187.351590,1878.396757,43387.905159,1267.552574,542.387143,21664.353847
82,1,0,-nan,-nan,-nan,-nan,-nan,-nan,-nan,-nan,-nan,-nan,-nan,-nan
83,0,16,642116.625000,219741.250000,1258363.375000,66295.250000,7579.812500,628791.500000,8601.025636,2244.867577,80250.759776,1016.570122,682.576664,40148.208246
83,1,0,-nan,-nan,-nan,-nan,-nan,-nan,-nan,-nan,-nan,-nan,-nan,-nan
84,0,16,642449.125000,219634.750000,1195486.875000,66376.375000,7364.250000,597339.875000,6319.777418,1227.660453,59245.334208,1045.716553,609.707768,29619.139895
84,1,0,-nan,-nan,-nan,-nan,-nan,-nan,-nan,-nan,-nan,-nan,-nan,-nan
85,0,16,641297.875000,219178.562500,1250187.125000,66121.500000,7547.187500,624669.937500,6774.818585,1531.111401,72689.868518,973.906502,574.862072,36323.926255
85,1,0,-nan,-nan,-nan,-nan,-nan,-nan,-nan,-nan,-nan,-nan,-nan,-nan
86,0,16,639816.937500,218897.437500,1252401.062500,65922.125000,7495.562500,625740.625000,2518.799577,790.795483,67432.753018,407.251746,606.138904,33698.092843
86,1,0,-nan,-nan,-nan,-nan,-nan,-nan,-nan,-nan,-nan,-nan,-nan,-nan
87,0,16,641282.000000,219401.312500,1234781.000000,66232.062500,7567.000000,616963.000000,5720.821128,1307.157303,62871.648150,716.862475,676.428858,31485.435766
87,1,0,-nan,-nan,-nan,-nan,-nan,-nan,-nan,-nan,-nan,-nan,-nan,-nan
88,0,16,644207.750000,220100.250000,1229826.750000,66758.625000,7741.312500,614480.875000,9114.316537,2000.600800,58679.349566,1310.615784,397.360466,29369.535255
88,1,0,-nan,-nan,-nan,-nan,-nan,-nan,-nan,-nan,-nan,-nan,-nan,-nan
89,0,16,643558.750000,219799.875000,1254989.625000,66535.187500,7932.500000,627040.187500,7653.637424,1679.700229,69264.935633,1322.104630,869.778851,34556.104136
89,1,0,-nan,-nan,-nan,-nan,-nan,-nan,-nan,-nan,-nan,-nan,-nan,-nan
90,0,16,638978.875000,218684.937500,1242829.875000,65803.000000,7551.562500,621022.625000,3495.821217,830.331370,68129.766993,465.103080,513.181373,34087.920487
90,1,0,-nan,-nan,-nan,-nan,-nan,-nan,-nan,-nan,-nan,-nan,-nan,-nan
91,0,16,642919.437500,220010.250000,1236075.125000,66395.562500,7459.375000,617610.625000,9925.331147,2702.717163,62021.755989,1216.548703,567.263483,31041.942420
91,1,0,-nan,-nan,-nan,-nan,-nan,-nan,-nan,-nan,-nan,-nan,-nan,-nan
92,0,16,642140.062500,219430.187500,1246954.437500,66320.562500,7591.312500,623083.125000,8917.594985,1724.531756,46712.202439,1267.117298,553.264033,23388.643440
92,1,0,-nan,-nan,-nan,-nan,-nan,-nan,-nan,-nan,-nan,-nan,-nan,-nan
93,0,16,642832.062500,219666.312500,1245059.937500,66255.562500,7554.562500,622053.312500,9463.695773,2976.531449,68634.090644,1266.218581,536.313338,34298.674611
93,1,0,-nan,-nan,-nan,-nan,-nan,-nan,-nan,-nan,-nan,-nan,-nan,-nan
94,0,16,642292.625000,219373.375000,1264382.375000,66294.937500,7615.500000,631803.812500,7298.517400,1440.383667,85862.222150,1087.667198,696.353718,42993.673600
94,1,0,-nan,-nan,-nan,-nan,-nan,-nan,-nan,-nan,-nan,-nan,-nan,-nan
95,0,16,641309.187500,219315.250000,1261099.375000,66175.562500,7594.812500,630133.375000,6285.068458,1502.352135,86200.827204,921.269367,704.909765,43018.429988
95,1,0,-nan,-nan,-nan,-nan,-nan,-nan,-nan,-nan,-nan,-nan,-nan,-nan
96,0,16,640238.937500,219119.125000,1271599.875000,66084.062500,7813.375000,635360.312500,6715.860495,1415.580794,89550.602388,878.416506,650.522278,44719.199285
96,1,0,-nan,-nan,-nan,-nan,-nan,-nan,-nan,-nan,-nan,-nan,-nan,-nan
97,0,16,641236.125000,219112.937500,1247932.250000,66096.187500,7551.250000,623533.375000,6001.822482,1225.385014,86075.424836,949.879744,639.852473,43024.790962
97,1,0,-nan,-nan,-nan,-nan,-nan,-nan,-nan,-nan,-nan,-nan,-nan,-nan
98,0,16,641343.125000,219470.437500,1212958.437500,66079.562500,7410.062500,606051.437500,7626.600036,2837.388631,38513.340270,994.483909,604.134657,19251.899452
98,1,0,-nan,-nan,-nan,-nan,-nan,-nan,-nan,-nan,-nan,-nan,-nan,-nan
99,0,16,644144.187500,219960.625000,1246107.437500,66689.125000,7791.312500,622659.375000,9400.808032,1937.117248,83431.847497,1431.252418,806.865828,41719.443136
99,1,0,-nan,-nan,-nan,-nan,-nan,-nan,-nan,-nan,-nan,-nan,-nan,-nan
100,0,16,642421.375000,219828.187500,1218327.562500,66319.625000,7366.875000,608743.000000,6014.430946,1811.828676,61007.107838,806.210958,457.590275,30467.016826
100,1,0,-nan,-nan,-nan,-nan,-nan,-nan,-nan,-nan,-nan,-nan,-nan,-nan
101,0,16,645034.062500,220373.000000,1241309.687500,66519.500000,7519.750000,620277.312500,12153.329382,3955.822275,69693.958120,1399.544167,534.352353,34817.622958
101,1,0,-nan,-nan,-nan,-nan,-nan,-nan,-nan,-nan,-nan,-nan,-nan,-nan
102,0,16,644570.000000,220474.687500,1235829.062500,66515.500000,7531.250000,617459.562500,13034.950268,4253.117073,73053.315220,1353.882842,475.511764,36529.435136
102,1,0,-nan,-nan,-nan,-nan,-nan,-nan,-nan,-nan,-nan,-nan,-nan,-nan
103,0,16,645101.500000,220578.687500,1227822.750000,66501.812500,7469.562500,613502.750000,12843.113169,4595.105368,63723.124069,1398.894484,460.399958,31843.618645
103,1,0,-nan,-nan,-nan,-nan,-nan,-nan,-nan,-nan,-nan,-nan,-nan,-nan
104,0,16,644190.625000,220469.062500,1207887.062500,66439.375000,7330.000000,603531.062500,13400.871701,4462.458774,51982.164124,1355.997736,511.210940,25944.213788
104,1,0,-nan,-nan,-nan,-nan,-nan,-nan,-nan,-nan,-nan,-nan,-nan,-nan
105,0,16,645717.937500,220725.250000,1254212.062500,66677.250000,7648.375000,626652.062500,12889.345442,4232.627663,69646.894650,1490.988535,649.256293,34807.792789
105,1,0,-nan,-nan,-nan,-nan,-nan,-nan,-nan,-nan,-nan,-nan,-nan,-nan
106,0,16,643793.000000,220291.687500,1232632.625000,66387.062500,7344.125000,615900.812500,17819.781375,5630.488475,60887.579967,2019.757054,406.763887,30412.068029
106,1,0,-nan,-nan,-nan,-nan,-nan,-nan,-nan,-nan,-nan,-nan,-nan,-nan
107,0,16,644477.562500,220407.937500,1247684.812500,66459.687500,7479.875000,623400.125000,11918.721576,4297.317775,64371.625427,1243.015875,568.592767,32197.756884
107,1,0,-nan,-nan,-nan,-nan,-nan,-nan,-nan,-nan,-nan,-nan,-nan,-nan
108,0,16,643601.062500,220297.875000,1261613.250000,66401.375000,7625.000000,630376.500000,17889.433189,5525.427550,101893.593863,1990.426427,862.802483,50901.254811
108,1,0,-nan,-nan,-nan,-nan,-nan,-nan,-nan,-nan,-nan,-nan,-nan,-nan
109,0,16,648072.312500,220951.937500,1221371.687500,66938.250000,7548.375000,610297.687500,14553.159776,4451.106597,55037.584251,1671.041348,439.224156,27532.602925
109,1,0,-nan,-nan,-nan,-nan,-nan,-nan,-nan,-nan,-nan,-nan,-nan,-nan
110,0,16,644799.562500,220805.812500,1242366.000000,66465.750000,7368.375000,620749.437500,12360.896832,4401.739304,54025.641217,1197.927612,561.618406,26983.634040
110,1,0,-nan,-nan,-nan,-nan,-nan,-nan,-nan,-nan,-nan,-nan,-nan,-nan
111,0,16,644422.125000,220337.187500,1267846.687500,66525.437500,7501.687500,633510.187500,13392.534781,4551.077403,52453.407898,1485.373058,548.268720,26215.168136
111,1,0,-nan,-nan,-nan,-nan,-nan,-nan,-nan,-nan,-nan,-nan,-nan,-nan
112,0,16,647891.625000,221065.812500,1233619.687500,66999.375000,7679.562500,616391.375000,14690.657281,4748.845928,65655.355339,1757.261003,460.229965,32784.604899
112,1,0,-nan,-nan,-nan,-nan,-nan,-nan,-nan,-nan,-nan,-nan,-nan,-nan
113,0,16,645606.750000,220963.312500,1249876.875000,66765.000000,7642.500000,624486.937500,13767.455563,4516.303961,72107.926619,1526.121882,729.809735,36012.508021
113,1,0,-nan,-nan,-nan,-nan,-nan,-nan,-nan,-nan,-nan,-nan,-nan,-nan
114,0,16,643499.937500,220415.375000,1211131.875000,66463.562500,7445.875000,605112.625000,12785.961821,4271.824082,66309.850488,1362.365221,812.216864,33080.008415
114,1,0,-nan,-nan,-nan,-nan,-nan,-nan,-nan,-nan,-nan,-nan,-nan,-nan
115,0,16,643580.000000,220245.312500,1216688.500000,66476.000000,7558.375000,607958.812500,13741.571985,4542.214338,57777.906993,1562.112712,489.049828,28900.735270
115,1,0,-nan,-nan,-nan,-nan,-nan,-nan,-nan,-nan,-nan,-nan,-nan,-nan
116,0,16,645566.812500,220711.062500,1238841.187500,66661.687500,7500.437500,618990.187500,17881.568395,5707.873777,64190.544537,2167.227829,682.539556,32036.076321
116,1,0,-nan,-nan,-nan,-nan,-nan,-nan,-nan,-nan,-nan,-nan,-nan,-nan
117,0,16,644617.000000,220540.375000,1234571.500000,66517.375000,7412.250000,616830.812500,13084.490323,4308.761755,47745.217679,1234.389266,611.840308,23840.774285
117,1,0,-nan,-nan,-nan,-nan,-nan,-nan,-nan,-nan,-nan,-nan,-nan,-nan
118,0,16,644212.437500,220292.500000,1237271.312500,66412.125000,7462.125000,618234.437500,13053.930672,4575.641253,61519.233389,1451.322107,573.305533,30766.945179
118,1,0,-nan,-nan,-nan,-nan,-nan,-nan,-nan,-nan,-nan,-nan,-nan,-nan
119,0,16,641725.375000,219844.187500,1236369.125000,66154.562500,7469.625000,617796.875000,11577.925645,4327.742746,105924.732113,1218.514719,633.793034,52961.082126
119,1,0,-nan,-nan,-nan,-nan,-nan,-nan,-nan,-nan,-nan,-nan,-nan,-nan
120,0,16,649740.312500,221670.125000,1258737.437500,67348.375000,7793.312500,628936.562500,12450.655413,4114.209992,95018.035041,1580.886020,789.573676,47566.463275
120,1,0,-nan,-nan,-nan,-nan,-nan,-nan,-nan,-nan,-nan,-nan,-nan,-nan
121,0,16,644845.562500,220564.250000,1247849.000000,66626.062500,7536.000000,623511.375000,14319.127609,4932.118973,72939.086044,1635.305341,562.924951,36458.912994
121,1,0,-nan,-nan,-nan,-nan,-nan,-nan,-nan,-nan,-nan,-nan,-nan,-nan
122,0,16,645262.062500,220751.937500,1251041.250000,66718.812500,7889.187500,625064.062500,12001.222747,4268.989246,76424.548023,1396.460133,674.734320,38260.843642
122,1,0,-nan,-nan,-nan,-nan,-nan,-nan,-nan,-nan,-nan,-nan,-nan,-nan
123,0,16,642188.875000,219902.312500,1250851.750000,66191.875000,7513.187500,624954.375000,12833.418937,4442.769825,65485.742044,1211.585886,641.988728,32622.412704
123,1,0,-nan,-nan,-nan,-nan,-nan,-nan,-nan,-nan,-nan,-nan,-nan,-nan
124,0,16,644744.937500,220484.312500,1243890.625000,66633.750000,7499.500000,621528.312500,13601.808172,4450.398560,59716.368667,1534.237901,705.792994,29822.965163
124,1,0,-nan,-nan,-nan,-nan,-nan,-nan,-nan,-nan,-nan,-nan,-nan,-nan
125,0,16,643501.687500,220076.875000,1269854.312500,66342.500000,7629.875000,634467.562500,12979.352814,4310.049113,70146.246818,1399.660495,637.440083,35016.189748
125,1,0,-nan,-nan,-nan,-nan,-nan,-nan,-nan,-nan,-nan,-nan,-nan,-nan
126,0,17,643724.705882,220162.000000,1256834.117647,66251.235294,7501.117647,628045.647059,13122.218104,4882.428928,53572.914720,1404.237768,628.474800,26791.502015
126,1,0,-nan,-nan,-nan,-nan,-nan,-nan,-nan,-nan,-nan,-nan,-nan,-nan
127,0,20,645413.250000,220637.350000,1296787.050000,66812.300000,7796.850000,647915.200000,10939.401592,3920.715754,95252.431843,1310.220100,810.853641,47549.542380
127,1,0,-nan,-nan,-nan,-nan,-nan,-nan,-nan,-nan,-nan,-nan,-nan,-nan
