0,0,115,671938.695652,232047.495652,1312980.721739,69678.965217,8479.834783,656439.104348,10812.064577,3397.538153,74906.750002,1287.981096,738.236111,37425.510511
0,1,0,-nan,-nan,-nan,-nan,-nan,-nan,-nan,-nan,-nan,-nan,-nan,-nan
1,0,115,670990.756522,231628.808696,1319782.582609,69568.913043,8427.008696,659838.939130,9411.492258,2548.801355,71597.139021,1226.378845,641.535691,35764.931651
1,1,0,-nan,-nan,-nan,-nan,-nan,-nan,-nan,-nan,-nan,-nan,-nan,-nan
2,0,115,671628.921739,231858.947826,1323267.495652,69664.200000,8439.156522,661615.530435,9213.463993,2593.143058,73824.286534,1208.021640,668.973797,36931.927280
2,1,0,-nan,-nan,-nan,-nan,-nan,-nan,-nan,-nan,-nan,-nan,-nan,-nan
3,0,115,671780.921739,231907.391304,1320977.408696,69644.739130,8426.052174,660448.304348,9553.550376,2884.926429,69242.319275,1219.032418,672.631973,34614.411056
3,1,0,-nan,-nan,-nan,-nan,-nan,-nan,-nan,-nan,-nan,-nan,-nan,-nan
4,0,115,671889.982609,231854.313043,1312779.878261,69716.460870,8453.982609,656337.078261,8613.569506,2398.497937,69377.702173,1209.353002,686.973374,34665.481497
4,1,0,-nan,-nan,-nan,-nan,-nan,-nan,-nan,-nan,-nan,-nan,-nan,-nan
5,0,115,671082.921739,231704.947826,1310254.756522,69560.347826,8399.400000,655081.600000,8940.650061,2601.970500,68139.313803,1149.244107,666.918140,34069.256295
5,1,0,-nan,-nan,-nan,-nan,-nan,-nan,-nan,-nan,-nan,-nan,-nan,-nan
6,0,115,671371.356522,231656.443478,1324314.139130,69618.565217,8477.226087,662112.339130,9319.981507,2365.477653,81203.250783,1276.181902,669.553934,40581.321082
6,1,0,-nan,-nan,-nan,-nan,-nan,-nan,-nan,-nan,-nan,-nan,-nan,-nan
7,0,115,671021.739130,231653.991304,1313088.591304,69575.469565,8407.634783,656490.000000,7871.758313,2165.998721,65403.922104,1042.107650,620.113781,32677.022101
7,1,0,-nan,-nan,-nan,-nan,-nan,-nan,-nan,-nan,-nan,-nan,-nan,-nan
8,0,115,671235.347826,231626.426087,1328143.173913,69611.556522,8537.139130,664010.834783,9208.924808,2510.118823,91832.309585,1205.259108,696.135330,45884.672952
8,1,0,-nan,-nan,-nan,-nan,-nan,-nan,-nan,-nan,-nan,-nan,-nan,-nan
9,0,115,671434.304348,231900.095652,1314869.408696,69630.121739,8371.686957,657395.113043,9373.706335,2645.290414,72971.643655,1149.359066,685.773462,36468.478451
9,1,0,-nan,-nan,-nan,-nan,-nan,-nan,-nan,-nan,-nan,-nan,-nan,-nan
10,0,115,670589.695652,231545.678261,1312170.060870,69461.260870,8379.991304,656030.869565,8985.008053,2672.612123,65768.161512,1049.312065,626.007883,32864.969271
10,1,0,-nan,-nan,-nan,-nan,-nan,-nan,-nan,-nan,-nan,-nan,-nan,-nan
11,0,115,671012.600000,231725.991304,1325540.869565,69523.086957,8446.191304,662716.626087,9569.553151,2941.057954,75091.422564,1098.249149,668.411601,37516.358667
11,1,0,-nan,-nan,-nan,-nan,-nan,-nan,-nan,-nan,-nan,-nan,-nan,-nan
12,0,115,671638.243478,231857.226087,1307759.130435,69633.904348,8348.791304,653843.521739,10296.188234,3076.230811,69019.260770,1262.105935,690.508917,34481.202651
12,1,0,-nan,-nan,-nan,-nan,-nan,-nan,-nan,-nan,-nan,-nan,-nan,-nan
13,0,115,671338.008696,231719.530435,1317543.843478,69552.356522,8371.904348,658760.078261,9731.386645,2955.454216,64614.922856,1158.477375,602.082458,32298.851105
13,1,0,-nan,-nan,-nan,-nan,-nan,-nan,-nan,-nan,-nan,-nan,-nan,-nan
14,0,115,671557.791304,231775.608696,1319990.921739,69615.947826,8409.060870,659946.843478,9963.737696,2955.188315,67240.250929,1282.188725,608.192336,33586.330732
14,1,0,-nan,-nan,-nan,-nan,-nan,-nan,-nan,-nan,-nan,-nan,-nan,-nan
15,0,227,670155.541850,231703.585903,1302849.114537,69539.929515,8341.859031,651390.947137,8352.701573,2429.828238,67662.210727,1014.451895,640.306512,33815.702333
15,1,0,-nan,-nan,-nan,-nan,-nan,-nan,-nan,-nan,-nan,-nan,-nan,-nan
