0,2,763567,266260,1462287,78604,9235,730616,0
0,-1,693350,236954,1241294,70595,7372,620133,0
0,-1,687887,238470,1348283,71368,7843,673211,2
0,-1,641969,219766,1167630,66174,6459,583497,0
0,2,712342,250152,1368328,74498,9518,683472,0
0,2,709797,248867,1295246,73945,8645,647072,0
0,-1,635325,218453,1230818,65551,7011,615022,0
0,2,712046,249212,1409647,74546,9813,704353,0
0,-1,642066,219343,1185952,65879,7892,592494,0
1,-1,690017,237889,1305139,70988,8156,652071,2
1,-1,664480,224049,1287206,69346,8255,643152,0
1,2,708413,249669,1383425,74083,8776,691261,0
1,2,712473,248255,1419068,73644,8872,709064,0
1,-1,645273,222103,1279920,67190,6893,639116,0
1,2,712489,249363,1378344,74505,9536,688775,0
1,-1,641820,219217,1281375,65765,7820,640244,0
2,-1,687576,236914,1335559,70671,7767,667177,2
2,-1,642663,219628,1384138,66172,8789,691462,0
2,2,712951,249289,1405137,73993,8944,702144,0
2,2,714601,250181,1240412,74508,8432,619582,0
2,-1,657876,223658,1223285,69152,7226,611200,0
2,2,709276,248425,1256196,74158,9122,627552,0
2,-1,645930,221232,1308511,66693,8146,653488,0
3,-1,688826,236276,1221035,70484,7062,609915,2
3,-1,644178,220568,1331800,66665,7717,665189,0
3,2,734244,253793,1339897,77284,9149,669492,0
3,2,707837,247770,1280482,73486,8323,639770,0
3,-1,640332,219870,1253404,66104,7054,626196,0
3,2,715853,251518,1368193,75521,10587,682963,0
3,-1,663169,224537,1255753,69315,8263,626984,0
4,-1,634300,218767,1257937,65685,6853,628473,2
4,-1,642714,220053,1288395,66297,7019,643658,0
4,2,710550,248819,1353796,73840,8784,676490,0
4,2,708236,248135,1321881,73686,8316,660548,0
4,-1,637148,219255,1267026,65897,7082,633068,0
4,2,733099,254666,1506513,78036,11437,752812,0
4,-1,640747,219785,1451669,65961,9657,724885,0
5,-1,635606,218713,1272642,65652,7025,635832,2
5,-1,646418,221830,1301053,67193,7651,649568,0
5,2,730831,253507,1390361,77214,10085,694373,0
5,2,715734,249026,1396175,73953,9007,697525,0
5,-1,636270,219287,1221244,65912,6253,610272,0
5,2,711086,249569,1339754,74496,9439,669354,0
5,-1,635778,218134,1311318,65402,8077,655249,0
6,-1,643586,221581,1219728,66966,7617,609024,2
6,-1,643049,219784,1281524,66182,7696,640287,0
6,2,705820,248559,1408275,73903,8750,703776,0
6,2,715813,249514,1374518,74269,9215,686565,0
6,-1,659548,224273,1252367,69345,8245,625655,0
6,2,708802,248994,1332151,74407,10389,665534,0
6,-1,643481,219365,1261990,65911,7738,630580,0
7,-1,638844,218704,1223477,65779,7047,611033,2
7,-1,640830,218667,1241890,65809,6888,620478,0
7,2,709580,248994,1413459,74066,8751,705958,0
7,2,712387,248746,1579695,73835,9856,789314,0
7,-1,636082,219230,1249590,65862,6900,624348,0
7,2,708383,249028,1325264,74411,9781,662081,0
7,-1,642326,219055,1308528,65711,7786,653773,0
8,-1,636762,218309,1270382,65682,7667,634548,2
8,-1,640774,218920,1282462,65892,7689,640735,0
8,2,709265,248996,1380492,74056,9050,689806,0
8,2,710046,248205,1390000,73621,8753,694560,0
8,-1,638475,220418,1352149,66473,6872,675486,0
8,2,708076,249879,1322305,74678,9084,660507,0
8,-1,640595,219097,1224699,65649,7466,611953,0
9,-1,633872,219155,1176835,65915,6675,587710,2
9,-1,642086,219863,1264324,66241,7528,631779,0
9,2,709775,248518,1416313,73852,8534,707826,0
9,2,712239,248518,1297678,73763,8711,648411,0
9,-1,641445,219319,1253346,65935,7095,626143,0
9,2,721386,250673,1370220,75155,10387,684325,0
9,-1,640860,219287,1264568,65813,7931,631808,0
10,-1,634116,218738,1223651,65795,6874,611292,2
10,-1,639908,219031,1196445,65912,7293,597725,0
10,2,711731,250308,1402841,74602,8548,700793,0
10,2,711717,248461,1493284,73680,10048,746172,0
10,-1,642057,220310,1180683,66275,7237,589876,0
10,2,717575,249178,1431707,74478,10516,715287,0
10,-1,643075,220194,1175298,66100,7338,587079,0
11,-1,633640,219190,1252695,65953,7140,625676,2
11,-1,667401,228356,1318224,68660,7930,658570,0
11,2,707384,248657,1277537,73906,8110,638320,0
11,2,710951,248574,1502275,73782,9699,750676,0
11,-1,638853,219232,1166266,65888,6974,582577,0
11,2,717540,249048,1349636,74502,9693,674385,0
11,-1,639636,219068,1261595,65748,7721,630299,0
12,-1,636225,218809,1166459,65777,7200,582464,2
12,-1,638084,218819,1177283,65904,7000,588185,0
12,2,710685,248834,1385528,73952,8424,692334,0
12,2,710342,248621,1402572,73811,8728,700873,0
12,-1,638736,219904,1282856,66102,6855,640979,0
12,2,736185,253600,1501791,77790,11332,750344,0
12,-1,639594,219686,1221178,65989,7434,610125,0
13,-1,642022,219617,1255007,66072,7849,626970,2
13,-1,639790,218777,1326229,65808,7474,662580,0
13,2,708873,248679,1273864,73949,8179,636388,0
13,2,709317,248474,1406046,73764,8657,702550,0
13,-1,638859,218855,1187674,65819,6557,593461,0
13,2,720702,249955,1409625,74824,10671,704362,0
13,-1,639093,218992,1320216,65763,8339,659684,0
14,-1,641182,219713,1170113,65955,6781,584385,2
14,-1,639102,218878,1207720,65881,7183,603404,0
14,2,708765,248147,1262592,73739,8251,630926,0
14,2,717109,251037,1592247,74891,10711,794556,0
14,-1,643937,221480,1262351,66924,7444,630410,0
14,2,716973,249460,1413995,74682,10301,706359,0
14,-1,640856,219686,1213320,66088,7500,606199,0
15,-1,640486,219973,1206473,66011,7344,602651,2
15,-1,643605,221084,1292944,66910,7616,645712,0
15,2,729116,253367,1300683,77289,9419,649832,0
15,2,713589,249946,1358635,74411,8972,678572,0
15,-1,636352,219369,1268119,65935,7305,633592,0
15,2,720685,250468,1532601,75159,10422,765592,0
15,-1,638737,218988,1397944,65785,8281,698520,0
16,-1,646792,221682,1306099,66934,8065,652148,2
16,-1,639388,219082,1289032,65924,7371,644080,0
16,2,708930,249040,1228830,74103,8113,613957,0
16,2,709691,248904,1388553,73936,8865,693879,0
16,-1,635934,219400,1255054,65884,6247,627065,0
16,2,716741,249223,1463549,74526,10398,731306,0
16,-1,644310,221518,1414001,66989,8928,706312,0
17,-1,636070,219236,1189161,65929,7517,593941,2
17,-1,637654,218886,1221098,65889,7133,610170,0
17,2,708879,249075,1417231,74148,9054,707826,0
17,2,708539,248193,1363621,73623,8468,681376,0
17,-1,639768,221148,1323249,66781,7819,660938,0
17,2,715623,249906,1346205,74744,9256,672549,0
17,-1,644689,219550,1336983,66010,7991,668034,0
18,-1,639824,219510,1251282,65988,7202,625077,2
18,-1,637100,218986,1244960,65919,8149,622052,0
18,2,726054,252347,1341509,76938,8865,670268,0
18,2,710435,249372,1409678,74220,9121,704154,0
18,-1,666863,229006,1299178,68821,6891,649147,0
18,2,714873,248974,1509163,74399,9767,754045,0
18,-1,645526,220325,1293998,66447,8122,646345,0
19,-1,644655,221432,1304019,67041,7921,651110,2
19,-1,649355,221387,1390226,66952,9875,694080,0
19,2,710174,249519,1408475,74253,9087,703795,0
19,2,708480,248590,1372257,73797,9002,685775,0
19,-1,639093,219392,1248840,65911,6425,624027,0
19,2,709953,248130,1326833,73961,9203,662943,0
19,-1,644093,219618,1337241,65984,8170,667959,0
20,-1,662608,223325,1194073,69206,8598,596493,0
20,-1,647008,221153,1349537,66930,7337,673782,2
20,2,705395,248746,1296084,74015,7888,647564,0
20,2,713302,250665,1402549,74703,9387,700438,0
20,-1,638567,219564,1211749,66000,7097,605386,0
20,2,712532,248887,1266052,74161,8630,632644,0
20,-1,641393,219233,1257682,65950,7579,628146,0
21,-1,641066,218659,1186390,65801,7717,592626,0
21,-1,640006,219602,1231963,66163,7553,615434,2
21,2,706063,248669,1405041,73909,8175,702089,0
21,2,705241,248429,1396635,73767,8550,697783,0
21,-1,641183,220709,1264951,66497,6799,631768,0
21,2,718496,250091,1432849,74915,9332,715511,0
21,-1,638766,218727,1296071,65640,8022,647626,0
22,-1,642944,219508,1198037,66140,6566,598470,0
22,2,706869,248835,1297749,73992,7431,648344,0
22,-1,633985,219151,1187279,66011,7380,593063,2
22,2,712786,248014,1407919,73637,9363,703407,0
22,-1,636658,219308,1261888,65877,6560,630568,0
22,2,715627,249383,1366011,74393,8783,682596,0
22,-1,664396,224513,1266947,69439,7671,632877,0
23,-1,640620,219033,1187888,65931,6521,593474,0
23,2,707196,248934,1377163,74033,8512,688114,0
23,-1,639140,221771,1405119,67178,9382,701421,2
23,2,713204,248647,1360954,73814,9431,679908,0
23,-1,640104,220046,1262121,66156,6601,630529,0
23,2,713795,248569,1409317,74124,9230,704088,0
23,-1,639547,218949,1670330,65816,9300,834651,0
24,-1,644300,220829,1333112,66827,7323,665633,0
24,2,726580,253002,1353381,77195,8943,676159,0
24,-1,636076,219968,1250912,66274,7341,624733,2
24,2,711581,248153,1416368,73604,9751,707741,0
24,-1,636900,219235,1207927,65867,6720,603451,0
24,2,732041,252912,1442970,77322,9713,720998,0
24,-1,641547,219897,1198239,66140,7424,598631,0
25,-1,640450,218559,1264364,65729,7365,631716,0
25,2,705418,248707,1404624,74019,8401,701868,0
25,-1,636601,219689,1140965,66095,6705,570021,2
25,-1,658814,224124,1271928,69224,7584,635521,0
25,2,710178,247995,1574608,73598,10669,786807,0
25,2,714603,249042,1485997,74317,8935,742529,0
25,-1,641394,219087,1289184,65831,8103,644197,0
26,-1,640693,219209,1202303,66041,7597,600610,0
26,2,706095,249209,1408111,74094,8429,703606,0
26,-1,639047,221356,1269354,66914,7534,633799,2
26,2,714492,249673,1341838,74398,9828,670084,0
26,-1,635921,219396,1325948,65957,7250,662522,0
26,2,710319,248695,1403601,74176,9374,701358,0
26,-1,640632,219484,1249873,65937,7699,624396,0
27,-1,640084,219389,1260364,66027,7007,629718,0
27,2,704999,248801,1251801,73938,8439,625425,0
27,-1,635777,219411,1207830,66011,7027,603407,2
27,2,713322,248324,1502902,73695,10096,750854,0
27,-1,637920,219437,1154434,65962,7200,576798,0
27,2,711485,248202,1336060,74028,8906,667543,0
27,-1,639780,219376,1424931,65993,9236,711825,0
28,-1,640898,219026,1276258,65966,8006,637604,0
28,2,704088,249275,1246863,74164,7768,623008,0
28,-1,638079,219765,1283255,66072,7767,641085,2
28,2,709698,248313,1506224,73749,9094,752635,0
28,-1,638496,219973,1172527,66172,6978,585789,0
28,2,712172,249026,1299050,74406,9051,648804,0
28,-1,641036,220315,1287852,66485,7920,643240,0
29,-1,642641,219793,1452918,66180,9244,725874,0
29,2,715107,248628,1302248,73888,8619,650692,0
29,-1,636771,219180,1150784,65881,6719,574896,2
29,2,707838,248186,1558030,73689,9930,778410,0
29,-1,638749,220770,1267432,66704,7117,632800,0
29,2,716150,250518,1245589,75055,8342,622018,0
29,-1,639225,219433,1138004,65974,6894,568503,0
30,-1,643588,220794,1277023,66815,7311,637601,0
30,2,714212,248965,1297183,74040,8907,648150,0
30,-1,635313,219728,1278916,66068,7195,638938,2
30,2,708336,248768,1328502,73795,8961,663823,0
30,-1,637804,220830,1186084,66608,6994,592256,0
30,2,709859,248591,1284227,74084,8413,641664,0
30,-1,638308,219504,1189764,66035,7269,594452,0
31,-1,661745,224019,1252763,69372,7787,625920,0
31,2,713127,249694,1361059,74290,8788,680046,0
31,-1,637964,220308,1268481,66306,6533,633800,2
31,2,718073,250266,1348250,74507,9860,673465,0
31,-1,643042,219383,1145701,65895,7288,572414,0
31,2,711254,248963,1420456,74262,9170,709773,0
31,-1,638657,218766,1299732,65588,7808,649501,0
32,-1,643354,220432,1436505,66459,9523,717504,0
32,2,711966,249068,1282512,74047,8885,640785,0
32,-1,637906,219515,1170523,66058,7058,584711,2
32,2,711323,248085,1435923,73647,9866,717438,0
32,-1,647894,221223,1206393,66857,8125,602338,0
32,2,707560,247943,1432421,73882,9907,715748,0
32,-1,645360,220941,1275228,66667,8334,636930,0
33,-1,646324,220582,1297488,66656,8218,648048,0
33,2,716704,250240,1412207,74725,8806,705368,0
33,-1,636902,219677,1132814,66113,7104,565966,2
33,2,711409,248417,1431332,73738,9114,715175,0
33,-1,663272,223822,1183278,69133,8135,591060,0
33,2,733453,253053,1496717,77381,10006,747773,0
33,-1,641848,219869,1303747,66039,8202,651329,0
34,-1,640218,218606,1163271,65777,7007,580854,0
34,2,733780,253543,1350271,77313,9603,674657,0
34,-1,640922,220059,1312474,66251,7624,655712,2
34,2,733192,252955,1520478,77022,10904,759666,0
34,-1,642948,219924,1185461,66105,7503,592249,0
34,2,714740,248483,1307984,74107,8561,653553,0
34,-1,639180,219317,1380729,65868,8005,689993,0
35,-1,639594,218628,1269696,65804,7363,634340,0
35,2,711743,249126,1359320,74107,8654,679260,0
35,-1,637836,219484,1208411,66045,7149,603605,2
35,2,709791,248262,1505278,73622,9559,752215,0
35,-1,642200,219311,1241870,65924,7619,620576,0
35,2,716173,250299,1451115,74976,9393,724747,0
35,-1,641038,220160,1382233,66266,8722,690378,0
35,2,712137,248301,1333633,74204,9118,666282,0
36,-1,663033,223665,1223863,69298,8803,611422,0
36,2,709897,248505,1353103,73820,9258,676178,0
36,2,712072,249371,1529833,74242,9896,763898,0
36,-1,646019,220844,1337216,66614,7650,667952,0
36,-1,644514,221465,1316533,66799,7341,657671,2
36,2,732925,252710,1585831,77247,9989,792406,0
36,-1,641029,219461,1373863,65950,8973,686074,0
36,2,709929,248781,1305023,74394,8262,651964,0
37,-1,641369,219468,1267569,66121,7940,633313,0
37,2,731471,253587,1358581,77387,9296,678846,0
37,2,706247,247525,1500419,73343,9746,749761,0
37,-1,642154,219618,1282037,66046,7427,640597,0
37,-1,641431,220320,1314048,66169,7716,656445,2
37,2,711885,248657,1445416,74165,8299,722204,0
37,-1,639104,219216,1265071,65791,7648,632097,0
37,2,709335,248409,1337566,74243,9254,667987,0
38,-1,638251,218767,1458402,65779,7412,728259,0
38,2,709760,249239,1280784,74173,8306,639913,0
38,2,707653,248116,1459981,73576,9967,729552,0
38,-1,643346,220801,1255630,66590,7053,627156,0
38,-1,638059,219717,1190231,65996,6680,594643,2
38,2,711660,248889,1397698,74182,8624,698446,0
38,-1,638963,219106,1257666,65742,7924,628670,0
38,2,706605,247802,1342859,74030,8701,670961,0
39,-1,639416,218820,1269974,65860,7718,634473,0
39,2,713727,250214,1389800,74658,9029,694259,0
39,2,709803,248794,1344091,73870,8526,671541,0
39,-1,642216,219656,1169248,66036,6278,584125,0
39,-1,647322,221894,1336714,66931,8749,667657,2
39,2,712966,248300,1391959,74043,9066,695506,0
39,-1,642423,221094,1329920,66671,8009,664094,0
39,2,709328,247950,1415192,74086,9382,707169,0
40,-1,640772,219271,1267706,66048,7279,633316,0
40,2,712211,250317,1338889,74711,9034,668696,0
40,2,705066,247357,1413545,73280,8936,705927,0
40,-1,640100,219102,1311470,65807,6605,655288,0
40,-1,640713,219904,1159643,66033,6959,579313,2
40,2,708927,247267,1356820,73617,8382,677954,0
40,-1,656396,223401,1281457,68959,8796,640218,0
40,2,713146,250080,1432572,74978,8678,715717,0
41,-1,640090,219107,1194439,65895,6766,596655,0
41,2,731815,253145,1361234,77209,9177,680237,0
41,2,704356,247451,1375867,73313,9007,687482,0
41,-1,639267,219029,1176444,65812,6566,587826,0
41,-1,638072,220232,1235745,66155,7380,617397,2
41,2,710783,248294,1370105,73984,8604,684645,0
41,-1,641498,219895,1319371,65969,8105,659170,0
41,2,707457,248249,1335081,74093,8333,667109,0
42,-1,641933,220006,1166694,66296,6886,582744,0
42,2,712397,249579,1398041,74295,9444,698222,0
42,2,706916,248775,1400963,73814,9090,700021,0
42,-1,643316,221094,1261472,66725,7099,629850,0
42,-1,637195,219379,1319794,65790,7252,659374,2
42,2,733481,253144,1487462,77398,10365,743216,0
42,-1,638458,218652,1225144,65587,7763,612220,0
42,2,710789,247947,1468699,74066,8900,733875,0
43,-1,637605,219236,1315448,66080,8445,657153,0
43,2,711793,249891,1555350,74574,9290,777314,0
43,2,714812,250024,1391887,74442,8738,695023,0
43,-1,660570,224191,1227445,69324,7574,613284,0
43,-1,641086,220164,1177147,66139,6334,588182,2
43,2,708982,248682,1450701,74289,9727,724882,0
43,-1,639321,219481,1330100,65896,7896,664589,0
43,2,708801,248218,1337168,74255,8254,668188,0
44,-1,637248,219275,1149180,66068,7380,574106,0
44,2,708470,248835,1545486,73985,9280,771800,0
44,2,715360,250194,1406472,74589,9161,702344,0
44,-1,643590,219634,1254342,65978,7509,626775,0
44,-1,641814,221647,1277241,66955,7681,637824,2
44,2,716776,250272,1320647,75101,9032,659528,0
44,-1,639572,219873,1492294,65968,8135,745606,0
44,2,706970,248052,1298658,74202,8271,648836,0
45,-1,640029,218651,1201157,65830,8206,599963,0
45,2,708263,248544,1296155,73898,8231,647769,0
45,2,713282,248611,1469486,73796,9790,734418,0
45,-1,641530,219209,1186460,65902,7062,592810,0
45,-1,642884,220639,1198502,66337,7035,598815,2
45,2,712067,248677,1319968,74287,9060,659482,0
45,-1,636610,218961,1395416,65694,9001,697646,0
45,2,708713,249088,1306308,74562,8232,652632,0
46,-1,639580,218388,1195424,65716,7752,597335,0
46,2,708050,248559,1495012,73936,8582,747060,0
46,2,709249,248102,1433163,73662,9525,715864,0
46,-1,642683,219460,1191787,65956,7058,595464,0
46,-1,644606,220950,1187529,66557,6422,593348,2
46,2,709487,248106,1247984,73993,8545,623562,0
46,-1,637666,218924,1583056,65683,9705,791099,0
46,2,706149,247421,1332794,74021,8675,665963,0
47,-1,658917,223255,1345694,69149,9002,672395,0
47,2,708562,248898,1368023,74058,9220,683482,0
47,2,710110,248662,1320867,73772,8961,660015,0
47,-1,646974,221790,1354947,67077,7973,676719,0
47,-1,642436,220959,1191178,66379,7126,595146,2
47,2,709513,248339,1361050,74168,9490,679865,0
47,-1,658077,223852,1322770,69098,8847,660596,0
47,2,707763,247809,1339195,74093,8991,669226,0
48,-1,641504,219907,1303315,66344,8096,650970,0
48,2,706354,248228,1332071,73756,9176,665593,0
48,2,707051,247490,1373212,73329,8162,686475,0
48,-1,640805,219483,1256820,65974,6767,627934,0
48,-1,675318,232084,1327696,69908,7791,662983,2
48,2,713699,248329,1430121,74045,10398,714269,0
48,-1,634804,218675,1311316,65573,8473,655196,0
48,2,711784,250088,1397770,75173,9189,698212,0
49,-1,638168,218726,1256355,65793,7435,627724,0
49,2,708634,248378,1355604,73794,9655,677457,0
49,2,708933,248282,1326442,73695,8788,662574,0
49,-1,641685,220177,1262665,66233,7326,630829,0
49,-1,644778,220738,1278026,66232,7233,638508,2
49,2,711681,248516,1473406,74178,9110,736193,0
49,-1,646208,220051,1344360,66212,8129,671282,0
49,2,706570,248412,1257030,74384,8800,628058,0
50,-1,639363,219148,1331196,65938,8480,665192,0
50,2,705443,248569,1471688,73872,9918,735369,0
50,2,734565,253214,1375267,77079,9563,686611,0
50,-1,638664,219088,1121491,65827,6758,560257,0
50,-1,644967,220739,1134704,66163,7107,566906,2
50,2,711013,248687,1345826,74216,8748,672524,0
50,-1,643859,219608,1265324,65932,7949,632062,0
50,2,710509,248579,1239901,74417,8539,619401,0
51,-1,660056,223702,1334737,69275,8230,666855,0
51,2,707705,248881,1350997,74065,8572,675210,0
51,2,709376,248053,1370746,73604,9520,684929,0
51,-1,658967,223848,1211061,69239,8038,605010,0
51,2,710905,248613,1373584,74142,9415,686353,0
51,-1,639026,220049,1284865,66103,7419,641939,2
51,-1,640929,218971,1323378,65705,8132,661080,0
51,2,706890,248047,1254757,74268,9432,626891,0
52,-1,637479,219012,1417319,65863,8618,708135,0
52,2,710032,248767,1434816,73986,9454,715519,0
52,2,708599,248054,1438807,73586,8952,718912,0
52,-1,639286,219392,1192146,65933,7162,595537,0
52,2,729702,252847,1634570,77351,10658,816759,0
52,-1,661234,223347,1292571,68864,9552,645937,0
52,-1,638049,219388,1237331,65925,7874,618090,2
52,2,708280,248033,1328526,74248,8624,663844,0
53,-1,636091,218800,1194785,65887,6877,596786,0
53,2,712772,249167,1471303,74185,9621,734588,0
53,2,706490,247986,1299965,73560,8562,649563,0
53,-1,642675,220834,1284895,66630,7406,641757,0
53,2,711182,248485,1435032,74151,9540,716975,0
53,-1,640931,218980,1187819,65727,8326,593331,0
53,-1,663645,228198,1268816,68540,8053,633898,2
53,2,704522,247608,1293201,74071,8426,646215,0
54,-1,640661,220517,1323064,66592,7801,660752,0
54,2,709341,248650,1314813,73965,8027,657035,0
54,2,715678,251199,1408724,74909,9215,703701,0
54,-1,636264,218930,1164620,65792,6778,581683,0
54,2,708450,247947,1342222,73942,8789,670678,0
54,-1,641670,219559,1198203,65961,8445,598843,0
54,-1,642398,221180,1273437,66717,7645,635920,2
54,2,706356,247952,1385722,74225,8791,692471,0
55,-1,645695,221699,1309531,66971,8245,653758,0
55,2,713843,250337,1416724,74734,8987,707707,0
55,2,707599,248430,1325503,73677,8548,662379,0
55,-1,637828,219816,1281128,66054,7555,640147,0
55,2,712204,248725,1375821,74336,9079,687402,0
55,-1,642115,220165,1423851,66156,8315,711472,0
55,-1,641102,219249,1195306,65832,7561,597022,2
55,2,705517,247670,1305960,74106,8285,652611,0
56,-1,659696,223867,1204837,69200,8128,601846,0
56,2,710681,248786,1296383,74036,8893,647700,0
56,2,711593,248565,1332232,73778,9275,665635,0
56,-1,643216,219797,1257810,66110,7462,628472,0
56,2,712478,248714,1480788,74291,8770,739977,0
56,-1,638597,219211,1170111,65838,6793,584641,0
56,-1,642466,219587,1265194,65959,8554,632095,2
56,2,711959,250190,1408409,75235,9221,703472,0
57,-1,638153,219055,1370936,65866,8989,684093,0
57,2,713241,250782,1318046,75004,9059,658077,0
57,2,710948,248268,1303612,73641,8397,651355,0
57,-1,642182,219252,1207977,65904,7190,603423,0
57,2,732956,253060,1426619,77525,10789,712830,0
57,-1,644978,221036,1293889,66654,7898,646225,0
57,-1,640764,219553,1324376,65879,8270,661662,2
57,2,730407,253501,1463144,77794,9656,731092,0
58,-1,637856,219409,1227158,65943,7155,613048,0
58,2,729575,253104,1307817,77164,9374,653361,0
58,2,710862,248783,1415164,73849,9055,707024,0
58,-1,643251,220379,1421938,66269,8410,710494,0
58,2,712554,250069,1421173,74936,8869,709914,0
58,-1,641273,219931,1186599,66103,7504,592799,0
58,-1,641975,219582,1210669,65753,8146,604836,2
58,2,706432,248096,1355657,74258,8996,677315,0
59,-1,638731,219422,1269020,65962,8209,633896,0
59,2,707974,248797,1245757,74038,8519,622355,0
59,2,706416,248137,1314356,73570,8467,656702,0
59,-1,640210,219222,1313033,65818,7002,655578,0
59,2,708284,248659,1550213,74219,9464,774656,0
59,-1,637987,219102,1158688,65883,6814,578856,0
59,-1,639284,219719,1227775,65850,8245,613460,2
59,2,709341,249727,1403305,74980,9420,701032,0
60,-1,638677,218868,1181841,65741,7231,590425,0
60,2,709818,250038,1407461,74368,8483,703309,0
60,2,736387,257756,1462663,76474,9469,730857,0
60,-1,639615,219435,1314669,65938,7593,656820,0
60,2,714701,248127,1401583,73986,8874,700324,0
60,-1,638567,219365,1338941,65858,8073,669079,0
60,-1,650641,221850,1282805,67004,8178,640459,2
60,2,701976,247371,1227378,73938,7834,613272,0
61,-1,637973,219014,1169172,65813,7232,583945,0
61,2,705639,248425,1389271,73883,8355,694263,0
61,2,731203,253106,1519319,77066,9273,759098,0
61,-1,642869,220365,1302189,66316,7716,650627,0
61,2,716984,249452,1300818,74597,8938,649708,0
61,-1,645745,221726,1316899,66965,8080,657666,0
61,-1,635849,219344,1301837,65834,7669,650489,2
61,2,736911,252390,1386387,77459,9799,692313,0
62,-1,637520,219002,1268024,65894,9600,633202,0
62,2,730544,254088,1432985,77557,9363,715885,0
62,2,710480,250066,1359245,74532,9264,678884,0
62,-1,638381,218969,1277991,65765,8199,638581,0
62,2,718609,250347,1301604,74974,8777,650034,0
62,-1,661486,223210,1261594,68901,8203,630391,0
62,-1,637929,218971,1258617,65702,7160,628790,2
62,2,718687,250029,1423332,75068,8974,710971,0
63,-1,638096,219575,1146068,65979,7871,572452,0
63,2,707082,248180,1386101,73773,8980,692618,0
63,2,709135,248038,1497312,73575,9092,748288,0
63,-1,662065,223603,1276538,69140,8387,637630,0
63,2,712380,248429,1350105,74068,8548,674637,0
63,-1,640398,219217,1238692,65822,7274,618944,0
63,-1,643386,221613,1255352,66808,7849,626922,2
63,2,713404,247499,1424050,74040,8909,711541,0
64,-1,661392,223672,1194625,69090,8386,596692,0
64,2,706123,248543,1370170,73866,8684,684625,0
64,2,712781,249815,1408431,74401,9322,703583,0
64,-1,642208,220012,1335500,66163,7855,667287,0
64,2,712873,249291,1312960,74529,8164,655775,0
64,-1,642011,219687,1486162,66013,8972,742708,0
64,2,715617,248076,1417891,74205,9959,708546,0
64,-1,639598,218915,1293799,65686,7996,646409,2
65,-1,648290,221403,1387220,66714,8928,692935,0
65,2,705953,248312,1457392,73807,8542,728226,0
65,2,708211,248468,1309314,73767,8489,654149,0
65,-1,637527,218489,1278514,65692,7282,638799,0
65,2,708519,247950,1319056,73939,9040,658875,0
65,-1,641822,219455,1293417,65833,7955,646239,0
65,2,711526,248052,1464264,74279,9477,731513,0
66,-1,642779,219388,1327211,65911,8713,663032,0
66,2,709537,249165,1270443,74123,8741,634799,0
66,2,706176,247745,1293503,73516,8359,646043,0
66,-1,640390,219949,1251940,66145,7144,625484,0
66,2,714163,249971,1308887,74793,9130,653757,0
66,-1,639799,219604,1291451,65915,7408,645314,0
66,2,712968,247451,1448487,74021,8963,723818,0
67,-1,642449,219371,1329110,65866,8131,664182,0
67,2,709065,248774,1294345,73882,8196,646727,0
67,2,707831,248068,1421110,73574,8621,709967,0
67,-1,644370,221782,1299389,67063,7799,648919,0
67,2,711795,248204,1338492,74137,9184,668673,0
67,-1,643872,221072,1315724,66730,7819,657146,0
67,2,738714,254143,1472283,78552,10383,735628,0
68,-1,643469,219368,1383956,65921,8290,691804,0
68,2,706534,248197,1285154,73781,8140,642156,0
68,2,712019,249242,1533939,74146,9825,766332,0
68,-1,658166,223659,1249403,69179,7322,624172,0
68,2,710610,248783,1346764,74363,9838,672825,0
68,-1,638007,219463,1276081,65923,7596,637565,0
68,2,710558,247546,1414498,73994,9088,706759,0
69,-1,640326,219127,1204816,65853,7309,601923,0
69,2,728356,253390,1269627,77323,9191,634397,0
69,2,728855,253372,1394851,77075,10102,696932,0
69,-1,637793,219543,1276691,65957,7178,637915,0
69,2,714409,250272,1325584,75112,9208,661921,0
69,-1,641106,219648,1367134,65933,7756,683003,0
69,2,714663,248331,1450363,74326,10308,724698,0
70,-1,638849,218911,1255448,65727,7453,627207,0
70,2,707145,248512,1406992,73880,8505,703192,0
70,2,705914,248506,1445737,73784,9455,722177,0
70,-1,641135,219215,1182925,65942,7208,591044,0
70,2,714090,249660,1417972,74833,9635,708818,0
70,-1,643836,220876,1407746,66574,7308,703132,0
70,2,719697,250738,1432595,75399,9846,715557,0
71,-1,641930,218995,1199963,65799,7535,599516,0
71,2,706884,249585,1296821,74234,8336,647939,0
71,2,713112,248760,1313965,73847,8945,656434,0
71,-1,639786,219153,1407926,65862,7570,703478,0
71,2,708334,247904,1437499,74007,9983,718304,0
71,-1,640360,219833,1446816,66076,8776,722015,0
71,2,711262,247921,1391004,74164,9488,695086,0
72,-1,647781,221299,1290697,66709,7400,644543,0
72,2,725657,253182,1326388,77243,8433,662678,0
72,2,713231,248975,1337580,73931,9111,668288,0
72,-1,660027,223846,1267889,69231,8689,633459,0
72,2,710260,248733,1386998,74278,9133,692484,0
72,-1,641338,220385,1219018,66170,7226,608927,0
72,2,711893,247485,1253662,74018,8832,626413,0
73,-1,640764,219313,1335952,65841,8335,667431,0
73,2,713046,248750,1388719,73999,8979,693829,0
73,2,711090,248230,1450673,73628,9592,724404,0
73,-1,637493,219112,1192689,65849,7382,595895,0
73,2,708225,247566,1422682,73913,9352,710649,0
73,-1,646426,221925,1288477,66948,8024,643433,0
73,2,733401,252647,1358582,77531,10152,678828,0
74,-1,647725,222186,1481536,67151,9601,739796,0
74,2,711032,248347,1412192,73785,9482,705644,0
74,2,740785,254635,1335484,77990,10095,667294,0
74,-1,641729,221140,1295029,66699,8362,646645,0
74,2,712007,249057,1383524,74213,8684,691264,0
74,-1,663927,225394,1220344,69616,8091,609647,0
74,2,708655,247139,1389590,73861,9212,694342,0
75,-1,664107,224363,1247300,69331,8228,623116,0
75,2,713499,249839,1391089,74375,9164,695071,0
75,2,714491,249653,1407973,74336,9459,703253,0
75,-1,639896,219748,1208367,66076,7922,603643,0
75,2,714377,250515,1291444,75136,9086,644797,0
75,-1,639548,219561,1191362,65841,7984,595415,0
75,2,712861,248571,1421099,74441,8933,710027,0
76,-1,643735,220507,1205666,66150,7414,602374,0
76,2,708497,248390,1417324,73840,8720,708236,0
76,2,711154,249000,1273940,73951,8408,636477,0
76,-1,638642,219622,1346884,65947,7530,672997,0
76,2,728055,252489,1466483,77362,9689,732821,0
76,-1,640873,220656,1270047,66232,8287,634545,0
76,2,711985,247618,1387971,74068,8548,693554,0
77,-1,645433,219605,1204252,65877,6913,601692,0
77,2,711454,248835,1389845,74026,8435,694620,0
77,2,708652,247488,1453112,73358,9626,726097,0
77,-1,642557,221082,1496188,66760,8000,747245,0
77,2,708786,248124,1299622,74112,8642,649358,0
77,-1,643756,220122,1294073,66127,9327,646421,0
77,2,711608,248145,1497883,74276,8889,748426,0
78,-1,644021,219995,1222087,65983,6938,610581,0
78,2,735937,254552,1381340,78177,9518,690160,0
78,2,716630,249717,1435205,74305,9079,716945,0
78,-1,660490,224744,1327700,69488,8566,663469,0
78,2,707620,248743,1434688,74345,9567,716883,0
78,-1,643386,219920,1314724,65928,8141,656919,0
78,2,716980,249935,1380250,75164,8704,689202,0
79,-1,647336,221261,1314132,66723,7020,656060,0
79,2,709882,249051,1427439,74115,8590,713181,0
79,2,712681,248514,1434448,73649,9784,716740,0
79,-1,637140,219446,1227644,65965,8278,613283,0
79,2,712107,248271,1387423,74171,8364,693256,0
79,-1,647040,221758,1329318,66852,8206,663943,0
79,2,714792,248314,1325148,74357,7666,662059,0
80,-1,641567,219554,1272129,65902,6420,635484,0
80,2,708891,248336,1285399,73807,8650,642239,0
80,2,710854,248437,1447513,73650,9478,723348,0
80,-1,637181,219619,1300759,65968,8097,649831,0
80,2,712865,248517,1398045,74173,8612,698636,0
80,-1,665208,225168,1267643,69476,8489,633272,0
80,2,713660,248311,1409878,74341,8609,704504,0
81,-1,642192,219435,1268689,65810,7229,633912,0
81,2,732480,253625,1351653,77373,9245,675288,0
81,2,711756,248939,1446138,73824,9915,722599,0
81,-1,638081,220428,1304471,66290,7766,651710,0
81,2,710753,247941,1308960,73946,8453,654112,0
81,-1,645313,221534,1347623,66717,8002,673151,0
81,2,712354,248239,1417378,74254,8182,707956,0
82,-1,643823,220744,1313306,66242,8880,655564,0
82,2,713337,249753,1401336,74320,8278,700208,0
82,2,715291,248447,1485304,73557,9342,742273,0
82,-1,638206,218720,1178781,65630,7046,589156,0
82,2,710208,248090,1411470,74133,8613,705262,0
82,-1,644032,220833,1208985,66292,7269,604038,0
82,2,712944,247996,1298177,74186,8907,648668,0
83,-1,642475,220739,1215773,66473,6852,607098,0
83,2,708566,248091,1352662,73684,8587,675907,0
83,2,734867,253320,1404853,76971,10069,701848,0
83,-1,664182,224253,1414289,69301,8962,705952,0
83,2,711593,248633,1472132,74260,8854,735639,0
83,-1,639184,219372,1314257,65770,8146,656676,0
83,2,711701,248234,1246565,74348,8325,622809,0
84,-1,640745,219468,1243078,65814,6689,621183,0
84,2,714544,250810,1412231,75007,8844,705307,0
84,2,713696,249121,1386042,73805,10128,692471,0
84,-1,641174,219354,1446784,65942,7816,723354,0
84,2,731405,252978,1436897,77505,9400,718057,0
84,-1,640610,219827,1189339,65886,7104,594186,0
84,2,708293,247512,1293737,74036,7903,646425,0
85,-1,642578,221149,1274738,66678,6935,636423,0
85,2,730037,253182,1340331,77272,8742,669819,0
85,2,711921,248662,1329260,73609,9101,664163,0
85,-1,642272,219730,1340556,66010,7492,669895,0
85,2,710182,248290,1356137,74115,7894,677528,0
85,-1,640844,220204,1275807,66148,7711,637434,0
85,2,710572,248450,1300040,74379,8425,649562,0
86,-1,645832,220873,1488814,66585,9774,743376,0
86,2,709786,248799,1334888,73999,7895,666971,0
86,2,739778,258004,1283016,76307,9549,641116,0
86,-1,644239,220984,1357763,66636,8094,677859,0
86,2,708828,248357,1413036,74108,8344,706049,0
86,-1,638493,219180,1315828,65747,7748,657461,0
86,2,707643,247155,1388459,73916,8852,693840,0
87,-1,644984,220331,1475441,66220,9123,736148,0
87,2,709636,249019,1350238,74045,8016,674725,0
87,2,711324,248609,1473449,73596,9081,736302,0
87,-1,639823,219003,1221008,65849,7248,610122,0
87,2,709770,248859,1263591,74286,9150,631332,0
87,-1,640093,219991,1278138,66073,8300,638465,0
87,2,714131,250320,1408599,75314,9186,703453,0
87,-1,640385,219459,1304669,65838,7707,651852,0
88,-1,643663,219722,1209233,65920,7156,604212,0
88,2,711611,249631,1367386,74549,10144,682862,0
88,2,711949,248519,1308389,73560,9142,653754,0
88,-1,642199,220769,1327011,66703,7837,662224,0
88,2,731633,253824,1509713,77700,10444,754347,0
88,-1,659309,224226,1346377,69292,8521,672650,0
88,2,715308,248874,1371405,74509,9542,685293,0
88,-1,639120,218633,1237385,65518,7685,618206,0
89,-1,660574,223692,1271963,69049,7903,635514,0
89,2,730611,253411,1527830,77303,11292,763362,0
89,2,714229,249507,1445917,73887,9712,722511,0
89,-1,660404,224426,1331257,69390,8271,665463,0
89,2,711961,248273,1363576,74117,9066,681307,0
89,-1,641819,220356,1216186,66204,7887,607606,0
89,2,711945,247630,1298982,74073,9014,648985,0
89,-1,639532,218896,1296451,65650,7929,647765,0
90,-1,640479,219314,1241749,65865,7200,620283,0
90,2,708575,248850,1606327,73968,10020,802636,0
90,2,710262,248336,1436480,73553,9151,717777,0
90,-1,642291,219875,1309567,66102,7781,654251,0
90,2,711510,248419,1322903,74076,8832,661068,0
90,-1,641336,220636,1289802,66225,8262,644450,0
90,2,711289,247701,1333595,74041,8883,666352,0
90,-1,640838,219681,1414395,65942,9014,706325,0
91,-1,641272,219287,1203123,65888,8061,601064,0
91,2,707658,248964,1635592,74058,10213,817296,0
91,2,715552,250929,1454671,74710,9186,726500,0
91,-1,642275,219862,1348130,66085,7419,673625,0
91,2,714115,249558,1324483,74811,8704,661701,0
91,-1,644565,221791,1292546,66873,8087,645069,0
91,2,712045,248132,1332898,74228,8880,665928,0
91,-1,639681,219625,1168087,65908,7480,583747,0
92,-1,639125,218703,1281934,65749,7342,640426,0
92,2,706382,249517,1601029,74251,11085,799730,0
92,2,714922,250623,1478225,74537,9599,738509,0
92,-1,637195,218748,1263417,65733,6847,631237,0
92,2,707408,247911,1364022,74030,8480,681607,0
92,-1,640951,220661,1298483,66292,8493,648731,0
92,2,710154,247983,1270804,74006,8971,635078,0
92,-1,641048,218900,1208334,65619,7351,603759,0
93,-1,640013,219351,1424901,65962,9122,711897,0
93,2,712481,249047,1580541,74019,10415,789704,0
93,2,732241,253769,1458079,77114,9832,728545,0
93,-1,639403,219721,1252029,66047,6863,625528,0
93,2,729821,252789,1427900,77428,9998,713520,0
93,-1,639393,220195,1299096,66085,8227,648959,0
93,2,712503,248266,1250067,74105,9217,624461,0
93,-1,639781,219007,1318590,65662,7373,658781,0
94,-1,642261,220813,1299979,66704,7820,649066,0
94,2,709087,248690,1345689,73942,9318,672385,0
94,2,711164,249427,1545903,73878,9019,772380,0
94,-1,640044,219518,1172362,65994,6796,585803,0
94,2,708583,248640,1359452,74302,8488,679227,0
94,-1,644838,221379,1283127,66704,8504,640849,0
94,2,741864,258595,1363656,77447,9482,681268,0
94,-1,642534,220539,1254642,66396,7176,626637,0
95,-1,640601,219298,1205051,65855,7296,602058,0
95,2,707131,248494,1317731,73901,9134,658189,0
95,2,710234,249611,1305174,73957,8412,652174,0
95,-1,643680,221369,1276463,66890,6761,637407,0
95,2,706487,247599,1380624,73905,8694,689914,0
95,-1,637019,219651,1214701,65873,7575,606936,0
95,2,712369,248648,1321131,74282,8931,660073,0
95,-1,640909,219225,1402331,65735,8524,700722,0
96,-1,639304,219743,1224723,65930,7353,611811,0
96,2,706382,248628,1278874,73988,8175,638900,0
96,2,719148,250696,1448927,74637,9178,723625,0
96,-1,659473,224193,1233386,69331,7440,616181,0
96,2,707852,248358,1405575,74144,8207,702320,0
96,-1,649633,221100,1324705,66352,8330,661994,0
96,2,709096,247735,1427647,73900,9091,713374,0
96,-1,641091,219630,1365794,65978,9692,681821,0
97,-1,637269,219224,1207588,65762,7258,603433,0
97,2,708464,249382,1408237,74213,9377,703700,0
97,2,717161,250297,1366138,74433,9490,682181,0
97,-1,638221,219227,1294702,65935,6947,646851,0
97,2,707608,248434,1418008,74271,9244,708548,0
97,-1,648683,220411,1284563,66179,7943,641813,0
97,2,733535,252859,1449194,77345,9448,724010,0
97,-1,637938,218597,1230481,65537,8033,614839,0
98,-1,641362,219363,1266345,65878,7572,632668,0
98,2,705525,248761,1333927,73967,8795,666532,0
98,2,736097,254571,1499591,77504,10532,748517,0
98,-1,638120,219567,1310092,66004,7219,654728,0
98,2,709312,249373,1331833,74746,9345,665234,0
98,-1,651967,222015,1334324,66851,8270,666416,0
98,2,713337,249486,1347497,74715,9211,673082,0
98,-1,642773,220927,1209118,66544,7634,603787,0
99,-1,643246,220042,1290556,65999,6897,644859,0
99,2,711235,249257,1277638,74167,8787,638285,0
99,2,733620,253776,1506325,77240,10186,752656,0
99,-1,640988,219798,1175968,66110,7726,587472,0
99,2,712807,248734,1299283,74388,9051,649181,0
99,-1,645927,220201,1412207,66088,9489,705393,0
99,2,712219,248847,1451743,74307,8907,725423,0
99,-1,661781,224529,1205278,69289,8478,602106,0
100,-1,638532,219087,1185390,65901,7873,592177,0
100,2,708736,248622,1312157,73957,8459,655551,0
100,2,709296,248396,1476920,73664,9238,738001,0
100,-1,639214,219339,1167223,65918,7011,583172,0
100,2,709027,248368,1382063,74183,8230,690643,0
100,-1,669124,225016,1236321,69417,8661,617636,0
100,2,713326,248580,1404632,74131,9071,701756,0
100,-1,638873,219156,1219116,65758,8019,609003,0
101,-1,689486,233113,1423194,72045,8679,711039,0
101,2,714063,250898,1317135,74988,9019,657848,0
101,2,713344,250116,1430501,74491,9429,714719,0
101,-1,637404,219563,1305228,65985,7263,652200,0
101,2,729738,252549,1345172,77352,9528,672106,0
101,-1,648294,220968,1303707,66233,7945,651329,0
101,2,713457,248873,1422803,74255,8039,711010,0
101,-1,639740,218759,1146524,65589,7428,572822,0
102,-1,640219,219273,1422857,66075,8745,710737,0
102,2,709447,249030,1345637,74105,8917,672388,0
102,2,715923,249470,1392550,74064,10320,695587,0
102,-1,640440,219582,1338383,65978,7436,668708,0
102,2,707297,247825,1350596,73966,8574,674853,0
102,-1,646318,220414,1302529,66145,8114,650616,0
102,2,713464,248562,1392436,74175,9343,695683,0
102,-1,639433,219060,1217341,65705,8028,608091,0
103,-1,640715,219801,1205993,66136,7338,602352,0
103,2,711775,250477,1396025,74761,9271,697339,0
103,2,732375,253807,1581846,77333,9991,790608,0
103,-1,639073,219395,1173451,65934,6913,586292,0
103,2,705701,248640,1387154,74305,9035,693094,0
103,-1,648074,221196,1302079,66587,8145,650499,0
103,2,711689,248325,1397112,74006,9270,698105,0
103,-1,643526,220856,1201130,66473,7238,600055,0
104,-1,644507,221526,1292144,66930,7797,645361,0
104,2,710173,248641,1404504,73911,8819,701846,0
104,2,710771,248527,1391789,73791,9436,695363,0
104,-1,637867,219281,1170197,65896,6765,584668,0
104,2,710206,247963,1301484,74011,9366,650353,0
104,-1,649223,221202,1325541,66299,8401,662309,0
104,2,713871,249592,1434180,74468,9736,716564,0
104,-1,638604,218606,1336942,65554,7650,668032,0
105,-1,638304,219142,1166781,65953,7003,582890,0
105,2,707395,248650,1388274,74073,8709,693691,0
105,2,711267,249141,1459398,74167,9582,728930,0
105,-1,637015,219914,1260685,66143,6952,629945,0
105,2,711006,248836,1390351,74347,9369,694639,0
105,-1,650322,222214,1378505,66970,8671,688505,0
105,2,710079,247864,1577680,73820,9855,788819,0
105,-1,641586,220451,1314562,66395,7271,656406,0
106,-1,638544,219304,1292552,66010,7622,645735,0
106,2,708679,248842,1316832,74136,8644,657999,0
106,2,713070,250014,1409172,74313,9227,703940,0
106,-1,633822,218683,1279411,65718,7129,639276,0
106,2,729629,253005,1440366,77555,10329,719800,0
106,-1,665707,224964,1239722,69381,8580,619265,0
106,2,713949,249680,1609897,74500,10563,804287,0
106,-1,658996,224005,1218287,69102,7716,608697,0
107,-1,646459,221163,1286127,66765,7963,642307,0
107,2,709361,249121,1406739,74181,8263,702991,0
107,2,711440,249460,1331748,74113,9940,665343,0
107,-1,661545,223715,1231003,69119,8403,615040,0
107,2,705656,247793,1315714,73994,8737,657435,0
107,-1,649016,220265,1200683,66032,6992,599968,0
107,2,709766,248418,1449246,74075,10069,724129,0
107,-1,637201,218829,1303977,65642,7768,651582,0
108,-1,665986,224715,1299827,70038,7754,649252,0
108,2,703743,248533,1326207,73921,7935,662775,0
108,2,708755,248704,1319096,73851,9326,658968,0
108,-1,640196,219642,1243144,66023,7398,621134,0
108,2,708893,249543,1317435,74792,8870,658131,0
108,-1,648524,220715,1290575,66215,6884,644872,0
108,2,711223,248717,1519444,74183,10746,759281,0
108,-1,643721,219158,1330644,65702,8355,664932,0
109,-1,637433,218321,1202582,65660,6670,600659,0
109,2,708816,248463,1398997,73979,8891,699062,0
109,2,707940,248512,1454999,73775,10148,727002,0
109,-1,642643,220841,1319406,66634,7768,659047,0
109,2,707867,248159,1377817,74097,9456,688509,0
109,-1,645198,219930,1291823,66144,7770,644859,0
109,2,717939,249300,1450149,74363,10554,726386,0
109,-1,642456,219079,1232722,65719,7740,615880,0
110,-1,638417,218819,1193370,65876,7034,596187,0
110,2,711235,249663,1401690,74423,8847,700372,0
110,-1,637732,218355,1263334,65555,6891,631229,0
110,2,731516,252962,1479059,77072,10119,739015,0
110,2,704631,248251,1364875,74186,9231,682021,0
110,-1,647427,220552,1220966,66176,7157,609954,0
110,2,714190,248380,1315622,74034,9856,657328,0
110,-1,644154,220134,1265799,66262,7673,632169,0
111,-1,642969,220501,1306920,66616,7994,652797,0
111,2,709870,249628,1478256,74588,9526,738416,0
111,-1,642166,220530,1291696,66343,7376,645382,0
111,2,717638,250974,1406773,74833,9279,702610,0
111,2,708967,248413,1263711,74266,8589,631398,0
111,-1,646144,220371,1288768,66062,7706,643990,0
111,2,739090,253719,1395917,77615,10357,697466,0
111,-1,639253,219105,1328321,65670,7884,663734,0
112,-1,638061,218579,1299509,65746,7905,649194,0
112,2,707256,248369,1317793,73931,8989,658486,0
112,2,717093,251725,1404681,75144,8844,701552,0
112,-1,637481,219038,1186670,65835,7073,592948,0
112,2,714861,248220,1314674,74131,8504,656931,0
112,-1,644728,220192,1199015,66056,6532,598901,0
112,2,714246,249252,1466337,74356,8892,732681,0
112,-1,640268,218460,1301920,65462,7899,650626,0
113,-1,637645,218954,1193946,65912,7370,596272,0
113,2,705877,248684,1380059,74091,8961,689620,0
113,-1,643024,221330,1313621,66873,7485,655946,0
113,2,731888,253188,1379152,77121,9280,689120,0
113,2,732229,252160,1384136,77207,9679,691551,0
113,-1,645910,220222,1352171,66019,7566,675617,0
113,2,713826,248576,1407515,74170,8420,703226,0
113,-1,639114,218869,1338526,65653,7569,668545,0
114,-1,635819,218526,1166108,65723,6542,582550,0
114,2,705025,248450,1379564,73883,9164,689349,0
114,-1,639286,219745,1308539,66076,7247,653853,0
114,2,710721,249203,1412625,74132,9225,705794,0
114,2,711449,248153,1313278,74077,9153,656210,0
114,-1,646247,220853,1283383,66208,8497,640934,0
114,2,714659,249670,1406669,74554,8538,702878,0
114,-1,640134,219547,1296334,65814,7789,647742,0
115,-1,635431,218803,1263916,65852,7612,631160,0
115,2,705509,248681,1421091,74060,9894,709809,0
115,-1,637933,219794,1249309,66130,7199,624215,0
115,2,706661,248120,1309644,73746,8131,654426,0
115,2,715380,250301,1328324,75092,9015,663413,0
115,-1,646567,221427,1228787,66644,7810,613636,0
115,2,712980,248332,1307294,74070,8680,653245,0
115,-1,638053,218915,1320475,65560,8107,659770,0
116,-1,635972,217922,1187223,65528,7847,592640,0
116,2,707195,248812,1387751,74106,9677,693680,0
116,-1,636227,219598,1160930,66042,6853,579977,0
116,2,707712,248535,1324107,73863,8145,661595,0
116,2,711300,247813,1387876,73958,8591,693474,0
116,-1,646391,220664,1371247,66163,9870,684990,0
116,2,711866,248643,1408376,74157,8961,703561,0
116,-1,642419,219308,1300686,65786,7944,649907,0
117,-1,637596,218485,1194098,65672,7588,596599,0
117,2,705332,248680,1349147,73980,9167,674083,0
117,-1,637885,220627,1201034,66599,7800,599802,0
117,2,709367,249450,1460074,74410,9367,729362,0
117,2,714557,250285,1318858,75150,8759,658603,0
117,-1,650521,222957,1244449,67265,7894,621351,0
117,2,737549,253767,1484511,77643,9981,741578,0
117,-1,639365,218564,1205639,65498,7598,602223,0
118,-1,638597,219180,1123762,65875,6542,561264,0
118,2,705148,249097,1391723,74202,9952,695363,0
118,-1,670429,231194,1269627,69903,7449,633982,0
118,2,706121,248706,1412866,74011,8681,705981,0
118,2,710006,247832,1411956,73992,9082,705537,0
118,-1,664981,225314,1235414,69493,8278,617224,0
118,2,714091,248591,1265301,74100,8792,632174,0
118,-1,642311,219487,1238821,65894,7913,618973,0
119,-1,640522,220266,1198073,66376,7325,598180,0
119,2,708121,249167,1392629,74207,9294,695816,0
119,-1,638884,219911,1200796,66159,7606,599824,0
119,2,711347,249683,1429829,74483,9336,714171,0
119,2,714819,249883,1331266,75007,8967,664794,0
119,-1,643733,220206,1167808,66003,7130,583401,0
119,2,714882,248611,1463796,74089,10165,731453,0
119,-1,644723,220920,1211760,66497,7278,604892,0
120,-1,639573,219109,1159180,65903,7628,578921,0
120,2,705671,249146,1435690,74215,9072,717285,0
120,2,704660,247919,1250493,73686,9232,624768,0
120,-1,637967,219732,1214741,66053,7204,606872,0
120,2,711686,247765,1474566,74039,8995,736761,0
120,-1,647161,221880,1307010,66718,7923,652838,0
120,2,713470,248884,1500512,74255,10230,749773,0
120,-1,639577,218831,1188770,65685,7022,593912,0
121,-1,636595,218494,1240524,65631,6748,619769,0
121,2,709404,250424,1513572,74897,9685,755957,0
121,-1,640765,220121,1191106,66134,6730,595074,0
121,2,726927,253214,1456345,77209,9114,727650,0
121,2,709767,248070,1404781,74079,9330,702011,0
121,-1,642627,220379,1301964,66051,8352,650538,0
121,2,713672,249466,1330919,74424,10303,664671,0
121,-1,645383,221552,1266390,66788,7925,632441,0
122,-1,644249,221977,1666547,67057,9154,832289,0
122,2,703206,248479,1460621,73970,9313,729825,0
122,-1,641972,221208,1289559,66739,7112,644068,0
122,2,713109,248023,1316751,73612,8485,657952,0
122,2,710263,248455,1286433,74199,8508,642826,0
122,-1,652624,222714,1376996,67120,8011,687570,0
122,2,717507,249772,1333347,74537,8797,666130,0
122,-1,658855,223295,1210060,68894,7630,604536,0
123,-1,637192,218557,1264319,65634,7933,631231,0
123,2,715984,248801,1575701,74076,9672,787464,0
123,-1,657717,224091,1236647,69266,7449,617815,0
123,2,717647,250324,1429452,74581,9331,714056,0
123,2,711213,247660,1258003,73946,8734,628552,0
123,-1,646315,220366,1320737,66107,7225,659965,0
123,2,714793,249546,1307279,74410,8915,653267,0
123,-1,636202,218412,1254051,65457,7241,626556,0
124,-1,636747,219024,1248564,65875,7299,623587,0
124,2,735627,253482,1422872,77402,10613,710977,0
124,-1,635222,219059,1245007,65794,7327,622063,0
124,2,714527,248664,1437095,73818,9851,718084,0
124,2,709215,247825,1337544,73995,9090,668366,0
124,-1,646550,220771,1225110,66187,6930,612229,0
124,2,716720,249389,1420958,74377,9260,710089,0
124,-1,640387,218829,1292715,65635,8254,645885,0
125,-1,636886,218224,1174782,65572,6596,586940,0
125,2,713165,248283,1488002,73895,9801,743467,0
125,-1,639917,220894,1273998,66643,7215,636377,0
125,2,716552,250205,1446164,74638,9650,722405,0
125,2,714997,250437,1323086,75109,9233,660704,0
125,-1,643840,220111,1296606,65972,8060,648051,0
125,2,715671,249779,1435948,74566,9568,717262,0
125,-1,645733,221320,1276768,66663,7790,637816,0
126,-1,638794,218832,1270227,65785,7438,634636,0
126,2,734268,253877,1425497,77568,10556,712256,0
126,-1,637682,220019,1187944,66197,7280,593433,0
126,2,709912,248243,1359336,73626,8373,679220,0
126,2,708281,248445,1317185,74250,8655,658096,0
126,-1,645103,220772,1311609,66166,6923,655261,0
126,2,715267,249103,1439442,74272,9391,719233,0
126,-1,638372,218524,1371990,65476,7702,685593,0
127,-1,636271,218277,1286210,65587,7438,642635,0
127,2,714946,249127,1471498,74354,10393,735045,0
127,-1,634372,218843,1305425,65710,7590,652325,0
127,2,710171,248618,1599530,73867,10190,799276,0
127,2,707456,248505,1542506,74277,9412,770801,0
127,-1,668025,225654,1276352,69590,8341,637626,0
127,2,714352,249097,1424664,74255,8633,711910,0
127,-1,637483,218818,1303439,65660,7283,651234,0
128,-1,638000,219303,1299844,65983,8638,649356,0
128,2,711837,248364,1332580,73978,9876,665887,0
128,-1,636377,219785,1336877,66140,7543,667992,0
128,2,713080,248787,1305412,73923,8850,652267,0
128,2,712660,249816,1335369,74896,8741,666901,0
128,-1,646814,220920,1309285,66272,7781,654120,0
128,2,715115,249315,1407452,74391,9221,703239,0
128,-1,659558,223661,1249291,69000,7866,624137,0
129,-1,635535,218764,1228903,65783,6406,613950,0
129,2,710066,248335,1482908,73972,9860,740938,0
129,-1,635022,219448,1190706,65964,6789,594934,0
129,2,712455,249777,1491423,74208,9607,745266,0
129,2,707338,247533,1342003,73915,8620,670578,0
129,-1,648828,222090,1297959,66845,8410,648308,0
129,2,734827,254095,1372090,77916,9770,685580,0
129,-1,637448,219347,1287328,65804,7323,643128,0
130,-1,633631,218077,1193137,65504,6888,596063,0
130,2,713279,250028,1506870,74704,10112,752675,0
130,-1,642190,219543,1287562,66057,7618,643356,0
130,2,711933,249066,1458481,73995,9428,728704,0
130,2,709517,248208,1392647,74151,8982,695915,0
130,-1,643297,220426,1379008,66031,8374,689030,0
130,2,711710,249211,1364566,74429,8910,681772,0
130,-1,640078,220442,1249274,66322,7606,623588,0
131,-1,639110,218948,1254583,65745,7473,626743,0
131,2,712971,248172,1400014,73895,8734,699593,0
131,-1,644677,221240,1362892,66817,7439,680623,0
131,2,713548,249567,1406464,74333,9650,702370,0
131,2,712367,249770,1309948,74952,8736,654120,0
131,-1,642806,220043,1275448,65938,7383,637212,0
131,2,712962,250119,1324294,74993,8839,661857,0
131,-1,637936,218803,1154328,65680,6820,576689,0
132,-1,633891,218345,1204983,65614,6986,602035,0
132,2,712163,248563,1533719,74104,11174,766266,0
132,-1,640592,219842,1182082,66128,7413,590579,0
132,2,709942,248698,1461187,73803,9716,730160,0
132,2,730385,253097,1428144,77562,9537,713525,0
132,-1,642076,220728,1227244,66166,7009,613253,0
132,2,719881,249705,1428012,74591,8920,713573,0
132,-1,641128,218562,1271688,65514,7768,635155,0
133,-1,638174,219657,1234869,66272,7436,616677,0
133,2,712319,248478,1254739,73971,8639,626711,0
133,-1,643076,220193,1273574,66433,7415,636058,0
133,2,710298,248983,1520262,73877,9521,759739,0
133,2,706242,247726,1305765,73943,8780,652443,0
133,-1,645528,220559,1264372,66097,7539,631790,0
133,2,720057,250642,1330524,75184,9181,664585,0
133,-1,639033,218524,1361023,65499,8022,680030,0
134,-1,632518,217770,1171513,65432,6676,585341,0
134,2,715361,250373,1428856,74923,8989,713555,0
134,-1,642455,220259,1257835,66262,7415,628443,0
134,2,733416,253344,1405619,77152,10121,702374,0
134,2,710099,249238,1375068,74543,8912,687062,0
134,-1,642728,219815,1224434,65879,7638,611849,0
134,2,715747,249257,1399570,74508,9332,699307,0
134,-1,647723,221679,1352496,66874,7909,675446,0
135,-1,634672,218894,1192981,65799,7304,596022,0
135,2,711131,248385,1429515,74005,9230,714212,0
135,-1,639744,219579,1234715,66045,7369,616816,0
135,2,709321,248491,1382002,73753,8538,690550,0
135,2,708942,248790,1439965,74455,10827,719068,0
135,-1,643643,220597,1146736,66117,7419,572789,0
135,2,715436,249516,1430717,74613,8918,714911,0
135,-1,660702,223414,1260025,68931,8465,629622,0
136,-1,657229,222550,1287839,68782,7674,643348,0
136,2,712015,248968,1481583,74127,9106,740347,0
136,-1,637278,219131,1200995,65807,7287,600015,0
136,2,731981,254122,1426798,77506,9958,712804,0
136,2,709170,249946,1271114,75044,8932,634743,0
136,-1,643503,219655,1262502,65939,7820,630776,0
136,2,712204,248393,1334712,74141,8290,666935,0
136,-1,638979,218908,1176532,65638,7295,587787,0
137,-1,636398,218613,1274531,65693,7631,636825,0
137,2,707963,247915,1577134,73862,10301,787730,0
137,-1,640063,220023,1222903,66195,6514,610981,0
137,2,712398,249207,1411859,74149,9083,705225,0
137,2,711294,247800,1276985,74053,9050,637967,0
137,-1,640347,219371,1200814,65933,7758,599994,0
137,2,714728,249608,1557436,74606,9710,778196,0
137,-1,645734,221307,1328391,66695,7466,663344,0
138,-1,636692,219413,1262036,65950,6930,630402,0
138,2,729136,252836,1375954,77250,9065,687540,0
138,-1,640270,220555,1300671,66552,7026,649738,0
138,2,715893,250432,1527097,74820,10314,762740,0
138,2,710285,247782,1240214,73998,8534,619668,0
138,-1,642789,220417,1240341,66317,7333,619654,0
138,2,713279,249069,1512645,74418,9376,755162,0
138,-1,640207,220118,1233793,66208,7496,616205,0
139,-1,634020,218269,1266445,65536,7508,632723,0
139,2,715054,249703,1624803,74601,10008,811447,0
139,-1,636540,219253,1175065,65944,7149,586995,0
139,2,708577,248013,1372734,73705,8814,685889,0
139,2,712795,248555,1293040,74284,8738,646051,0
139,-1,645947,221713,1308343,66957,7534,653441,0
139,2,716027,249862,1407257,74702,8608,703103,0
139,-1,636149,218330,1211016,65429,7617,605266,0
140,-1,665749,229210,1328857,69075,8130,663641,0
140,2,715867,250286,1426972,74832,9374,712557,0
140,-1,638872,219010,1268209,65815,7488,633644,0
140,2,710605,249084,1546685,74055,9590,772191,0
140,2,714189,249409,1246092,74742,8542,622308,0
140,-1,651959,221898,1302275,67098,8002,650324,0
140,2,712910,248722,1291719,74321,7700,645442,0
140,-1,657682,224034,1209232,69119,8377,604129,0
141,-1,637449,219568,1259194,66007,7578,629193,0
141,2,710783,248862,1574410,74155,9883,786392,0
141,-1,638123,219137,1307301,65905,7368,653279,0
141,2,731522,253677,1314404,77368,9665,656753,0
141,2,711472,248428,1416798,74199,8890,707906,0
141,-1,667635,224620,1224622,69505,8325,611748,0
141,2,735143,254502,1545345,77990,9777,772141,0
141,-1,639300,218800,1312393,65578,7604,655733,0
142,-1,634390,218504,1184529,65634,6644,591825,0
142,2,708758,248629,1325089,74090,9085,662050,0
142,-1,642841,220907,1271379,66662,7055,634919,0
142,2,709366,248033,1288426,73729,8811,643797,0
142,2,709148,248758,1404226,74350,8567,701622,0
142,-1,643596,219604,1308176,66039,7441,653573,0
142,2,717602,250709,1326371,75232,8936,662015,0
142,-1,638208,218842,1308525,65611,7621,653961,0
143,-1,634263,218840,1279056,65767,7388,638971,0
143,2,714959,248279,1331945,73968,9249,665506,0
143,-1,639623,220322,1255955,66296,6549,627520,0
143,2,709065,249040,1383370,74024,8882,691226,0
143,2,711137,248688,1414862,74287,9007,706988,0
143,-1,646002,220392,1273063,66296,7031,636108,0
143,2,735973,254574,1436854,78009,9929,717932,0
143,-1,642953,221017,1286966,66637,7462,642722,0
144,-1,633578,218538,1234849,65675,7268,616953,0
144,2,711246,248644,1405886,74100,8835,702640,0
144,-1,637532,219134,1384058,65836,8218,691519,0
144,2,732624,253386,1372547,77233,10279,685659,0
144,2,708656,248297,1386003,74162,8699,692515,0
144,-1,645631,220594,1245118,66313,7408,622113,0
144,2,733197,254094,1553521,77717,10652,776219,0
144,-1,659455,224039,1278609,69131,8048,638832,0
145,-1,642428,221460,1453736,66870,9585,726136,0
145,2,712850,248549,1553594,74070,10171,776345,0
145,-1,637071,219326,1296060,65954,8079,647674,0
145,2,709607,248577,1319578,73786,8714,659367,0
145,2,709678,248421,1425715,74142,8718,712449,0
145,-1,644794,220200,1298188,66212,6614,648603,0
145,2,710398,249659,1389266,74540,9373,694193,0
145,-1,639917,219591,1279554,65884,7785,639187,0
146,-1,632982,218153,1422107,65527,8009,710604,0
146,2,708598,248463,1628090,73961,9749,813497,0
146,-1,640839,220835,1333393,66640,8388,666081,0
146,2,707954,248684,1408924,73854,9679,704040,0
146,2,713158,249844,1301424,74927,8543,649966,0
146,-1,647899,221689,1361379,66914,6873,679946,0
146,2,714962,249651,1569380,74592,9709,784242,0
146,-1,637250,218946,1337728,65643,7930,668379,0
147,-1,637118,220926,1264596,66656,6788,631535,0
147,2,710763,248910,1429712,74184,8805,714238,0
147,-1,636879,219017,1383442,65806,7913,690742,0
147,2,712923,250821,1481924,74876,9965,739463,0
147,2,707959,248513,1415366,74245,8582,707142,0
147,-1,645260,220525,1223376,66345,6737,611292,0
147,2,713132,249519,1465057,74398,9167,732117,0
147,-1,638401,219231,1175703,65771,7162,587383,0
148,-1,661481,223178,1273294,68999,8808,636038,0
148,2,706951,248147,1425890,73894,9020,712405,0
148,-1,637866,219814,1384028,66099,7746,692025,0
148,2,708824,249264,1464231,74063,10088,731117,0
148,2,709041,249155,1420778,74558,9189,709683,0
148,-1,644943,220643,1306772,66284,7099,652952,0
148,2,717132,250855,1404781,75151,9541,701630,0
148,-1,640754,220880,1290622,66571,8398,644381,0
149,-1,640715,218697,1282490,65774,8545,640624,0
149,2,707797,248698,1274826,74102,8522,636777,0
149,-1,635939,219288,1331978,65841,7923,665594,0
149,2,708572,249990,1477837,74296,9824,738308,0
149,2,708688,248215,1498652,74126,10186,748840,0
149,-1,645991,220261,1250955,66235,7241,625023,0
149,2,716455,250477,1455073,74730,9578,727076,0
149,-1,636047,218757,1210238,65563,7233,604726,0
150,-1,641955,218927,1212479,65792,8113,605677,0
150,2,708493,248473,1333919,74001,8340,666350,0
150,-1,642331,221537,1303884,66926,8319,651306,0
150,2,714186,250220,1516197,74621,10378,756890,0
150,2,710539,249779,1239277,74685,8749,619119,0
150,-1,645658,221017,1274823,66528,7050,636961,0
150,2,717958,251842,1580156,75476,12403,789146,0
150,-1,638994,220351,1353905,66328,8013,676234,0
151,-1,639177,218333,1168303,65612,7037,583599,0
151,2,716754,250498,1340313,74954,10304,669206,0
151,-1,640357,219298,1362901,65945,8502,680785,0
151,2,715180,249986,1370100,74290,10247,684643,0
151,2,707191,248133,1299595,74072,8326,649332,0
151,-1,642870,220570,1280937,66352,6831,640017,0
151,2,712122,249324,1488791,74314,9456,743946,0
151,-1,635401,219330,1297371,65807,7393,648235,0
152,-1,641068,218937,1270964,65882,8034,634977,0
152,2,708629,248318,1365556,73867,9008,682345,0
152,-1,641828,220335,1306694,66404,7889,652458,0
152,2,712133,248896,1403235,73937,8820,701239,0
152,2,713523,249637,1331688,74810,8211,665127,0
152,-1,663202,224497,1187261,69419,8110,593173,0
152,2,715632,250548,1372415,75044,9110,685445,0
152,-1,644830,219039,1350960,65668,7864,674938,0
153,-1,638033,218237,1174733,65580,7169,586873,0
153,2,714907,250476,1616296,74933,10433,807162,0
153,-1,641541,220477,1258359,66355,7715,628676,0
153,2,716550,251163,1426185,75010,9650,712056,0
153,2,708119,247812,1441202,74068,8541,720125,0
153,-1,646248,220820,1211557,66415,8235,605327,0
153,2,731828,253303,1610173,77509,10084,804581,0
153,-1,667220,224173,1247291,69187,8338,623151,0
154,-1,641803,218558,1405856,65687,9250,702460,0
154,2,708371,248010,1324367,73851,9063,661566,0
154,-1,660386,224148,1180256,69384,7307,589451,0
154,2,710138,248434,1438115,73795,9966,718611,0
154,2,709454,248288,1496384,74129,9130,747752,0
154,-1,647180,221697,1334858,66839,7928,666735,0
154,2,710366,248787,1423645,74245,9793,711235,0
154,-1,643001,218916,1276488,65686,8029,637811,0
155,-1,648445,221816,1301302,67028,8229,649718,0
155,2,710616,249415,1500394,74266,9647,749726,0
155,-1,640528,220279,1181027,66220,7271,590047,0
155,2,707989,248238,1426693,73734,9265,712912,0
155,2,713973,250340,1301804,75140,8284,650045,0
155,-1,643810,220216,1171714,66101,7076,585381,0
155,2,710501,249189,1491752,74317,9776,745344,0
155,-1,641892,218854,1175634,65600,7348,587408,0
156,-1,639437,219085,1327263,65881,6981,662946,0
156,2,714698,250826,1454845,75056,9187,726480,0
156,-1,640749,220835,1322866,66628,8308,660646,0
156,2,712104,249352,1331703,74097,8612,665399,0
156,2,707532,247934,1373674,74047,9026,686460,0
156,-1,642148,219650,1288646,65965,7208,643989,0
156,2,715598,251059,1379716,75300,9783,688997,0
156,-1,642857,218693,1321011,65548,8198,660013,0
157,-1,637768,218257,1243748,65613,7219,621356,0
157,2,709141,248948,1405528,74076,8842,702261,0
157,-1,640726,219618,1173346,66092,7257,586136,0
157,2,730670,253843,1356175,77367,9818,677623,0
157,2,707537,248485,1385657,74271,9276,692351,0
157,-1,641696,220219,1276928,66252,7400,637975,0
157,2,707467,247549,1501547,73856,9823,750289,0
157,-1,647865,220895,1285875,66483,7892,642312,0
158,-1,637704,218128,1148302,65489,7089,573734,0
158,2,711007,249729,1392865,74443,8927,695656,0
158,-1,639150,219404,1315259,65941,7657,657059,0
158,2,712193,249742,1450654,74160,9327,724939,0
158,2,710225,248085,1294564,74051,9504,646805,0
158,-1,640297,219802,1246940,66126,7055,623021,0
158,2,711170,250097,1392479,74895,9607,695645,0
158,-1,647825,221354,1243139,66709,8229,620702,0
159,-1,636154,217968,1192325,65477,6660,595675,0
159,2,733292,257626,1391520,76521,8831,695314,0
159,-1,656499,223559,1260708,69181,7979,629883,0
159,2,708351,248879,1621303,73873,11011,810144,0
159,2,709391,248146,1410847,74082,9684,705059,0
159,-1,643109,220722,1258851,66571,7264,628733,0
159,2,712208,248370,1545138,74114,9427,772160,0
159,-1,642461,219284,1213907,65745,7673,606471,0
160,-1,645398,221814,1363100,67023,7261,680770,0
160,2,714932,250986,1412662,74967,9689,705413,0
160,-1,638519,219732,1317640,66069,7041,658327,0
160,2,712411,248715,1469009,73726,10733,733879,0
160,2,711623,249688,1360850,74829,9310,679708,0
160,-1,638838,219559,1190750,66002,6748,594875,0
160,2,719776,251290,1394491,75359,9353,696484,0
160,-1,663671,224424,1319795,69159,8184,659513,0
161,-1,659305,223377,1308538,69087,8372,653788,0
161,2,705819,248291,1287804,73768,9303,643447,0
161,-1,636533,219335,1187784,65991,6597,593369,0
161,2,710669,248837,1463270,73910,9429,731163,0
161,2,704907,247892,1423848,74034,8930,711442,0
161,-1,636179,218872,1249117,65684,7394,624218,0
161,2,716201,249054,1393234,74360,9138,696184,0
161,-1,642079,219848,1381811,65912,8134,690386,0
162,-1,640358,218330,1296041,65644,8064,647477,0
162,2,713074,248703,1334892,73915,8980,666967,0
162,-1,639500,220493,1306577,66463,7956,652532,0
162,2,711964,248998,1350131,73817,8509,674606,0
162,2,711203,250221,1315827,75104,9023,657120,0
162,-1,640786,219166,1297033,65721,7456,647769,0
162,2,715303,249305,1492397,74438,8988,745672,0
162,-1,642427,219022,1191469,65582,7721,595345,0
163,-1,638966,219038,1216979,65848,7331,608053,0
163,2,711325,248341,1293546,73769,8579,646331,0
163,-1,634810,219141,1166220,65919,6576,582604,0
163,2,711536,249276,1446316,74017,8807,722774,0
163,2,708644,249382,1258801,74766,8702,628795,0
163,-1,646044,221388,1357807,66664,7681,677729,0
163,2,716652,249316,1472003,74439,9640,735584,0
163,-1,643897,219175,1294378,65630,8172,646709,0
164,-1,637998,218898,1121942,65822,6656,560493,0
164,2,710867,248710,1322204,73919,8920,660613,0
164,-1,636167,219503,1292615,65970,7712,645825,0
164,2,709017,249409,1293442,74091,8638,646315,0
164,2,706739,247807,1290361,73952,9196,644799,0
164,-1,641726,220016,1322617,65966,8183,659761,0
164,2,736792,254042,1545673,77721,10570,772409,0
164,-1,650233,221901,1362090,66761,8133,680269,0
165,-1,640948,219822,1171681,66131,7066,585382,0
165,2,712041,249162,1400979,73925,9338,700012,0
165,-1,639336,219249,1247512,65903,6867,623329,0
165,2,716413,250964,1522346,74799,10021,760438,0
165,2,704625,248074,1323598,74079,9440,661495,0
165,-1,640202,218990,1332582,65644,8388,665594,0
165,2,715303,249192,1504428,74364,9543,751786,0
165,-1,663537,223918,1276032,68982,8685,637507,0
166,-1,639392,219026,1292706,65870,8280,645764,0
166,2,713373,250029,1419508,74466,9415,709006,0
166,-1,644796,221719,1300425,67078,7853,649475,0
166,2,736956,258399,1349037,76813,8734,674062,0
166,2,702589,247782,1277631,74031,9270,638358,0
166,-1,642345,219991,1324931,66056,7854,662036,0
166,2,714513,249213,1575321,74363,9450,786949,0
166,-1,642389,219261,1261449,65633,7414,630387,0
167,-1,637540,218523,1138087,65728,7710,568553,0
167,2,715184,249445,1394509,74088,8428,696762,0
167,-1,638072,219263,1301033,65959,6382,650116,0
167,2,716772,250684,1611579,74497,10999,805609,0
167,2,707836,247540,1278604,73933,8879,638867,0
167,-1,638887,218711,1379135,65605,8090,689184,0
167,2,718527,251407,1421625,75460,9390,709960,0
167,-1,641677,219531,1409222,65786,8088,704077,0
168,-1,635881,218488,1259571,65584,7042,629404,0
168,2,711977,249271,1329827,74029,8330,664427,0
168,-1,638734,219901,1260971,66098,6875,630057,0
168,2,712462,249440,1342418,74009,9495,670760,0
168,2,713400,248504,1442844,74211,9489,720933,0
168,-1,661754,224351,1282335,69284,7679,640667,0
168,2,735133,253614,1620936,77639,10524,809875,0
168,-1,646280,221721,1370404,66673,8236,684522,0
169,-1,638272,219227,1167783,65917,6850,583341,0
169,2,711890,249518,1397806,74116,8286,698420,0
169,-1,638007,219645,1208893,66070,6972,603960,0
169,2,710956,249487,1419331,74162,10028,709186,0
169,2,712848,248768,1328879,74263,8958,663995,0
169,-1,645031,221552,1310298,66801,7729,654386,0
169,2,711323,248355,1461728,74073,9286,730394,0
169,-1,644671,219797,1287792,65750,8115,643422,0
170,-1,636915,219063,1283924,66105,7657,641344,0
170,2,711139,249371,1322572,74006,8160,660764,0
170,-1,636143,219193,1253875,65861,6893,626482,0
170,2,731755,254276,1395812,77475,10139,697349,0
170,2,712222,249778,1353565,74841,8944,676101,0
170,-1,637236,219075,1148554,65674,6441,573771,0
170,2,715590,249185,1613683,74404,10536,806338,0
170,-1,642433,219343,1192548,65714,7843,595727,0
171,-1,638359,218017,1227069,65434,7461,613083,0
171,2,712676,248378,1392436,73783,9539,695791,0
171,-1,636833,219745,1201143,66045,6436,600177,0
171,2,710281,249741,1692492,74222,11073,845740,0
171,2,711669,248316,1459163,74044,9159,729122,0
171,-1,664922,229048,1272184,68675,7167,635605,0
171,2,714695,248690,1440746,74142,8663,719881,0
171,-1,642222,219225,1294454,65625,8422,646812,0
172,-1,645767,221106,1390759,66826,8203,694566,0
172,2,709565,248605,1407051,73890,9644,702950,0
172,-1,658288,224051,1262786,69290,7943,630852,0
172,2,710866,249576,1363872,74122,9399,681409,0
172,2,710706,248297,1489524,74183,10404,744230,0
172,-1,640381,220683,1244986,66434,7136,621764,0
172,2,713167,248689,1474963,74218,9836,737080,0
172,-1,648385,222047,1260025,66867,8493,629229,0
173,-1,660496,223254,1303892,69029,8636,651491,0
173,2,717590,251183,1446344,74952,8720,722334,0
173,-1,638478,219797,1337401,66114,7044,668214,0
173,2,710079,249551,1352713,74107,10077,675848,0
173,2,729834,252534,1463172,77386,10444,731067,0
173,-1,640557,219159,1221791,65703,7409,610502,0
173,2,714366,249113,1447471,74312,9329,723098,0
173,-1,641209,219365,1306706,65731,8450,652852,0
174,-1,643073,220364,1414702,66470,8028,706595,0
174,2,707673,247897,1399874,73510,8866,699473,0
174,-1,636149,218986,1296899,65801,6799,648064,0
174,2,709777,249958,1476510,74275,9219,737733,0
174,2,708537,247598,1314541,73889,9007,656795,0
174,-1,642202,220133,1192795,66082,6606,595986,0
174,2,717244,250313,1446049,74962,8834,722325,0
174,-1,641089,219367,1344160,65732,8272,671622,0
175,-1,636255,218678,1409508,65649,8239,704235,0
175,2,708033,248087,1397606,73619,9535,698297,0
175,-1,638320,220174,1227882,66247,6808,613443,0
175,2,711553,250942,1616613,74779,10126,807677,0
175,2,710620,249182,1324943,74679,9237,661814,0
175,-1,640941,219755,1253269,65924,7349,626210,0
175,2,711092,248694,1482138,74181,9981,740633,0
175,-1,642516,220136,1328404,65909,8580,663774,0
176,-1,644990,220921,1316988,66752,8102,657735,0
176,2,711836,249646,1450885,74365,9370,724603,0
176,-1,638297,220316,1268694,66423,7080,633676,0
176,2,716642,250270,1424561,74357,8825,711819,0
176,2,712681,248359,1521970,74165,9494,760581,0
176,-1,647153,222160,1322060,66980,8010,660221,0
176,2,734017,253843,1522149,77726,10177,760543,0
176,-1,649940,221329,1299465,66566,8348,648793,0
177,2,711597,249611,1254939,74290,8880,626800,0
177,-1,660100,223231,1385553,68985,8632,692260,0
177,-1,636380,219817,1192266,66130,6594,595676,0
177,2,719492,249694,1336031,74221,8946,667455,0
177,2,715851,250065,1643381,75012,11017,820539,0
177,-1,638680,219507,1177134,65938,6568,588095,0
177,2,713466,250045,1461110,74650,8951,730521,0
177,-1,648193,221295,1257012,66458,8145,627659,0
178,2,710070,249063,1274890,74112,9177,636797,0
178,-1,638059,218712,1349133,65684,6865,674002,0
178,-1,636567,219315,1249343,65961,7587,624215,0
178,2,717744,249064,1430500,73905,9238,714769,0
178,2,707600,247500,1345760,73918,9004,672410,0
178,-1,638855,220265,1333285,66156,6779,666113,0
178,2,709728,248861,1420381,74233,9654,709788,0
178,-1,642134,219137,1208637,65524,6833,603858,0
179,2,706541,248006,1274046,73741,8503,636542,0
179,-1,637215,218363,1307982,65566,7607,653671,0
179,-1,634835,219498,1266299,66027,8183,632698,0
179,2,722888,251531,1426466,75027,9742,712331,0
179,2,712200,248786,1390141,74348,10526,694587,0
179,-1,637921,219095,1296342,65687,7018,647722,0
179,2,712574,250429,1321243,75072,9314,659915,0
179,-1,648100,222139,1210129,66784,7416,604326,0
180,2,709299,248664,1419602,74036,8940,709360,0
180,-1,638845,219383,1256901,65941,7331,627895,0
180,-1,641014,219741,1159018,66108,7261,579024,0
180,2,740841,254825,1375133,77589,9785,687159,0
180,2,708344,248181,1374964,73277,8583,687090,0
180,-1,641154,220505,1315916,66254,7226,657481,0
180,2,714672,249208,1448654,74443,9519,723793,0
180,-1,645933,220038,1209469,65869,8762,604199,0
181,2,714047,251222,1413451,75158,9146,705972,0
181,-1,643154,221184,1384821,66696,8787,691736,0
181,-1,640251,219683,1104156,66069,6549,551674,0
181,2,719426,250656,1335406,74365,8870,667069,0
181,2,709231,248634,1310620,73475,8354,654847,0
181,-1,639763,220082,1232438,66051,6528,615776,0
181,2,719238,250437,1333304,74997,9220,666032,0
181,-1,643570,220518,1328573,65959,8132,663872,0
182,2,704951,247895,1470450,73620,9023,734722,0
182,-1,640648,218735,1275620,65599,7792,637375,0
182,-1,637727,219140,1281885,65875,7137,640549,0
182,2,716458,249739,1322895,74229,9421,660910,0
182,2,711256,250432,1322509,74358,8691,660471,0
182,-1,637258,219252,1300623,65789,7428,649872,0
182,2,714047,249003,1404207,74338,9418,701674,0
182,-1,644954,221104,1393130,66421,8151,695822,0
183,2,717489,250589,1430910,74799,9366,714644,0
183,-1,640981,219892,1255010,66277,7700,626695,0
183,-1,640157,220063,1182754,66133,6917,590879,0
183,2,721299,251883,1466452,75076,9567,732439,0
183,2,705291,247937,1315575,73130,8304,657373,0
183,-1,643683,219549,1273693,65920,7710,636457,0
183,2,714067,249077,1304026,74330,9027,651525,0
183,-1,662075,224095,1252099,68995,8277,625573,0
184,2,711331,248790,1405490,73921,8526,702202,0
184,-1,635773,217754,1185708,65502,7904,592210,0
184,-1,640518,219966,1377972,66158,7374,688654,0
184,2,737822,254682,1360942,77517,9926,679853,0
184,2,706407,248190,1361112,73292,8359,680088,0
184,-1,646094,220559,1256224,66403,8166,627509,0
184,2,713049,249149,1332198,74291,9482,665685,0
184,-1,639171,219137,1232892,65540,7313,616054,0
185,2,708381,247533,1317407,73623,8828,658217,0
185,-1,636403,218286,1209858,65451,7144,604438,0
185,-1,638937,219770,1223701,66053,6880,611476,0
185,2,719265,250663,1267615,74420,8729,633424,0
185,2,712477,250326,1303872,74267,8377,651321,0
185,-1,642485,219364,1321006,65792,8015,660136,0
185,2,740583,254981,1367849,78542,10510,683370,0
185,-1,644043,219734,1184899,65881,7585,591876,0
186,2,710955,248874,1397403,74077,9291,698214,0
186,-1,642021,220554,1304016,66500,8064,651202,0
186,-1,657484,223510,1332621,69110,7930,665953,0
186,2,715471,249724,1350774,74062,9548,674857,0
186,2,729087,252906,1439152,76638,9248,718974,0
186,-1,642635,219271,1213167,65760,7707,606131,0
186,2,717915,250921,1256574,75201,8861,627488,0
186,-1,643499,220160,1361093,65946,7597,680049,0
187,2,715460,250862,1446997,75052,9822,723566,0
187,-1,637974,219777,1243310,65961,6720,621444,0
187,-1,640716,220587,1271759,66635,7358,635195,0
187,2,714933,250721,1403816,74470,8850,701287,0
187,2,706500,248546,1385958,73479,8719,692512,0
187,-1,662482,224007,1265732,69118,7594,632182,0
187,2,711982,249059,1246286,74331,8279,622575,0
187,-1,639135,218943,1206356,65457,6990,602768,0
188,2,705551,247516,1292038,73684,8074,645420,0
188,-1,638796,218867,1359466,65672,7509,678279,0
188,-1,636086,219129,1163989,65987,7288,581503,0
188,2,713715,249701,1356481,74124,9437,677737,0
188,2,705063,248140,1355859,73316,8827,677389,0
188,-1,644028,220304,1265650,66116,7673,632320,0
188,2,708125,248440,1441417,74069,8773,720279,0
188,-1,640578,219292,1256908,65662,7818,627928,0
189,2,715396,250585,1339756,74903,9589,669110,0
189,-1,637130,218492,1200051,65524,7351,599541,0
189,-1,660200,223847,1237810,69290,7736,618365,0
189,2,737830,254625,1462137,77464,9925,730486,0
189,2,703305,248646,1394025,73471,9441,696539,0
189,-1,640768,219414,1209975,65776,6862,604557,0
189,2,717846,251190,1318243,75369,9240,658383,0
189,-1,640811,219237,1304756,65602,7389,651999,0
190,2,730402,252725,1307409,77181,9677,653060,0
190,-1,663854,227788,1227963,68435,6860,613525,0
190,-1,636985,219204,1196355,65934,6875,597801,0
190,2,719130,250743,1551416,74652,9725,775143,0
190,2,711196,248650,1381865,73447,9025,690447,0
190,-1,642537,219706,1222089,65946,6827,610446,0
190,2,762283,263340,1526257,80501,10280,762610,0
190,-1,641815,219480,1219759,65720,7665,609385,0
191,2,708101,248004,1259554,73830,8987,629234,0
191,-1,641912,221139,1308931,66803,6990,653542,0
191,-1,636918,218974,1255750,65887,7261,627462,0
191,2,714086,249624,1380995,74038,9141,690026,0
191,2,708488,248962,1520196,73550,9628,759637,0
191,-1,641015,219326,1222792,65805,6943,610928,0
191,2,711573,249035,1335276,74257,8264,667236,0
191,-1,639797,218736,1311977,65382,7980,655612,0
192,2,705408,247994,1359769,73775,8670,679357,0
192,-1,656839,223812,1333817,69175,7787,666413,0
192,-1,656822,223837,1319512,69309,7946,659077,0
192,2,713172,249396,1541036,73951,9757,770015,0
192,2,705901,248294,1378302,73291,8922,688733,0
192,-1,644911,221300,1310229,66734,7340,654391,0
192,2,712866,249943,1459772,74598,8593,729450,0
192,-1,644965,221191,1285223,66554,8001,641886,0
193,2,726003,252839,1411296,77097,9467,705029,0
193,-1,635705,218546,1289105,65632,6985,644088,0
193,-1,634336,218226,1180982,65721,6326,589968,0
193,2,733530,254020,1351321,77244,9283,675307,0
193,2,732262,254026,1449568,77441,10131,724194,0
193,-1,661427,223830,1262867,69008,8105,630932,0
193,2,713135,250328,1392993,75015,8481,695800,0
193,-1,641177,219500,1394578,65735,7962,696699,0
194,2,704181,247690,1479299,73596,8979,739169,0
194,-1,634184,218454,1224939,65666,6483,611878,0
194,-1,636909,219327,1167048,66064,6993,583121,0
194,2,716093,250002,1385166,74225,9599,692118,0
194,2,705085,248009,1322585,73191,8148,660889,0
194,-1,644186,220599,1352851,66234,7686,675912,0
194,2,728808,253034,1486155,77408,10224,742524,0
194,-1,645417,221520,1270555,66557,7818,634560,0
195,2,722533,251545,1411591,76744,9162,704972,0
195,-1,640471,218971,1204260,65639,7264,601645,0
195,-1,633890,218609,1262282,65708,7098,630710,0
195,2,714326,249627,1311354,74095,8388,655215,0
195,2,705970,248971,1470526,73588,9123,734733,0
195,-1,641898,220070,1302647,66062,7023,650820,0
195,2,715855,249517,1400983,74389,9545,700042,0
195,-1,639692,219211,1276448,65595,8037,637777,0
196,2,708590,247946,1394837,73753,8974,696963,0
196,-1,642995,219724,1306054,66179,8165,652359,0
196,-1,639903,220896,1287732,66853,8137,643064,0
196,2,713608,249741,1277469,74068,9037,638268,0
196,2,711799,250004,1372202,74056,8632,685469,0
196,-1,641219,220251,1204391,66100,7343,601689,0
196,2,717581,250712,1324241,74918,8453,661353,0
196,-1,639651,219865,1175598,65853,7365,587334,0
197,2,708425,248442,1367670,73919,8430,683276,0
197,-1,642741,220053,1268104,66103,7786,633599,0
197,-1,633819,219369,1170824,66057,7153,584904,0
197,2,734676,254080,1317123,77350,9888,658023,0
197,2,702096,247247,1438335,72965,8589,718796,0
197,-1,643432,219527,1214493,65843,7774,606739,0
197,2,717587,251584,1271675,75339,8644,635052,0
197,-1,638077,219642,1353420,65751,7474,676282,0
198,2,708406,248963,1405729,74294,8862,702123,0
198,-1,637019,218410,1204323,65538,6892,601693,0
198,-1,639202,219127,1182650,66012,7790,590719,0
198,2,714128,249947,1301314,74179,9380,650149,0
198,2,704206,248268,1385968,73279,9216,692548,0
198,-1,642340,219414,1246955,65791,7506,622964,0
198,2,732684,254220,1359139,77725,9378,679028,0
198,-1,645074,219729,1303512,65738,7953,651331,0
199,2,707819,248233,1454160,73801,10395,726818,0
199,-1,643067,221217,1239429,66822,7916,618597,0
199,-1,640637,220561,1285022,66679,7661,641757,0
199,2,714451,250731,1341227,74634,8910,669913,0
199,2,707659,248729,1357918,73446,9085,678431,0
199,-1,640876,219276,1213081,65731,6992,606039,0
199,2,718601,251357,1231769,75238,8450,615159,0
199,-1,644719,219531,1221200,65715,7797,610203,0
200,2,711452,250377,1389723,74874,8848,693889,0
200,-1,640399,219232,1201869,65837,8285,600354,0
200,-1,657066,223607,1223450,69243,7972,611203,0
200,2,710939,249003,1408792,73976,8660,703961,0
200,2,705516,248151,1418254,73310,8933,708699,0
200,-1,641910,220104,1330476,66006,7375,664735,0
200,2,732612,253592,1350437,77471,9710,674769,0
200,-1,645139,220214,1268299,66081,8263,633771,0
201,2,727129,252237,1369238,76959,9520,684118,0
201,-1,639196,219184,1224262,65817,7276,611571,0
201,-1,637012,219053,1259840,65920,7119,629500,0
201,2,731576,253502,1443988,77299,9447,721569,0
201,2,706316,248983,1502249,73518,9045,750639,0
201,-1,661634,223655,1282542,68975,7835,640794,0
201,2,710708,248903,1324241,74148,8693,661647,0
201,-1,643878,219781,1192134,65929,7970,595607,0
202,2,708445,249103,1237346,74106,8038,618149,0
202,-1,642919,220706,1284397,66400,7187,641431,0
202,-1,634741,218791,1249327,65833,7545,624357,0
202,2,709470,249236,1287085,74212,9402,643066,0
202,2,703196,248239,1373572,73257,9363,686278,0
202,-1,644460,220865,1314888,66338,8026,656938,0
202,2,710753,249075,1389205,74219,9326,694162,0
202,-1,641121,219001,1242699,65583,8162,621150,0
203,2,706258,247731,1322440,73732,7964,660627,0
203,-1,636276,218503,1257758,65506,7600,628336,0
203,-1,635489,219396,1267766,66029,7615,633424,0
203,2,709819,248945,1395066,74069,8744,697055,0
203,2,706642,249007,1421046,73475,8700,710163,0
203,-1,638024,218847,1225777,65669,6923,612458,0
203,2,715131,250482,1335299,74786,8588,667178,0
203,-1,644878,219434,1264123,65798,8639,631560,0
204,2,708595,249252,1421041,74380,8745,709760,0
204,-1,638553,218799,1316192,65703,7615,657615,0
204,-1,638696,219643,1232128,66159,7363,615683,0
204,2,716671,250161,1435826,74529,9513,717432,0
204,2,703314,248139,1511582,73101,9770,755420,0
204,-1,639322,219573,1253280,65921,7295,626208,0
204,2,711875,249494,1604644,74460,9394,801594,0
204,-1,643302,219429,1347744,65823,8610,673265,0
205,2,705022,247325,1396035,73469,8196,697537,0
205,-1,636128,218285,1195530,65448,6840,597262,0
205,-1,641766,221219,1262224,66926,7313,630395,0
205,2,715986,249293,1357390,74153,8473,678235,0
205,2,728682,253555,1433104,76709,9257,716051,0
205,-1,637215,219127,1186533,65763,6650,592998,0
205,2,707212,249110,1449960,74289,9324,723964,0
205,-1,643922,219950,1384023,66008,7809,691410,0
206,2,706115,248334,1658882,73899,10129,828869,0
206,-1,657949,223108,1354319,68909,8176,676627,0
206,-1,657351,223639,1232059,69251,8486,615532,0
206,2,718646,251284,1421531,75042,8999,710080,0
206,2,704953,248046,1377987,73115,8302,688600,0
206,-1,659210,224140,1267728,69227,7959,633445,0
206,2,719548,250363,1386587,74919,9670,692866,0
206,-1,640738,219003,1459543,65637,8290,729306,0
207,2,704304,248479,1297785,73855,8447,648266,0
207,-1,634671,218609,1271825,65635,7079,635376,0
207,-1,638953,220133,1356189,66526,8196,677474,0
207,2,740763,255832,1427334,78569,9865,713174,0
207,2,704291,248451,1515553,73247,9465,757235,0
207,-1,640233,219199,1249795,65752,7832,624450,0
207,2,718135,250029,1411692,74523,10398,705389,0
207,-1,640296,219144,1294344,65738,7328,646688,0
208,2,705572,248006,1302633,73671,8764,650853,0
208,-1,644961,220959,1291917,66626,7473,645242,0
208,-1,634523,219120,1530310,65909,8836,764481,0
208,2,716805,250739,1420267,74609,9112,709664,0
208,2,705120,248420,1311604,73305,8873,655238,0
208,-1,645854,220767,1316648,66512,8215,657645,0
208,2,714408,249333,1503322,74419,10017,751280,0
208,-1,637398,218140,1224774,65348,7516,611876,0
209,2,702457,248034,1288721,73806,8239,643880,0
209,-1,638676,218850,1255793,65780,7118,627532,0
209,-1,637057,219931,1571435,66255,9007,784498,0
209,2,715603,249653,1348498,74207,8070,673776,0
209,2,706821,249476,1231887,73619,8604,615515,0
209,-1,642186,219745,1335344,65918,8257,667259,0
209,2,717089,250792,1363884,75078,9412,680675,0
209,-1,641067,219932,1347753,65977,7722,673090,0
210,2,713021,248810,1412724,74017,8513,705716,0
210,-1,637005,218213,1198236,65534,7231,598623,0
210,-1,632720,218672,1505119,65731,8456,752046,0
210,2,736015,254897,1342980,77787,9055,670927,0
210,2,725286,253493,1339594,76726,10221,669284,0
210,-1,641053,219626,1242986,65956,7666,621029,0
210,2,717530,250638,1360837,75171,9972,680452,0
210,-1,643694,219599,1337906,65892,8761,668223,0
211,2,711485,247720,1290598,73577,8511,644785,0
211,-1,643630,221353,1289475,66860,7323,643929,0
211,-1,636499,219134,1298062,65938,8174,648553,0
211,2,717895,251008,1455967,74875,9354,727234,0
211,2,708415,249345,1456347,73568,8459,727595,0
211,-1,662431,224266,1288358,69252,8496,643524,0
211,2,735579,254088,1486281,77866,10917,742051,0
211,-1,642055,219146,1379060,65745,8634,688974,0
212,2,710956,247850,1308583,73705,8987,653736,0
212,-1,659386,223500,1315578,69086,7846,657245,0
212,-1,635459,218970,1261549,65888,7560,630366,0
212,2,715375,249624,1275477,74235,8965,637087,0
212,2,703706,248228,1426228,73092,8431,712388,0
212,-1,641720,219780,1254803,65968,7348,626933,0
212,2,714232,249298,1420586,74476,9419,709867,0
212,-1,646094,221265,1405170,66763,8161,701797,0
213,2,716348,250420,1437133,74834,9494,717759,0
213,-1,636135,218665,1341699,65687,6707,670320,0
213,-1,636492,219487,1320770,66095,7844,659870,0
213,2,715130,249993,1346748,74322,9858,672949,0
213,2,703491,248663,1310946,73343,8350,654984,0
213,-1,640310,220194,1315987,66404,7425,657359,0
213,2,716582,250576,1314900,75134,8836,656684,0
213,-1,643551,219927,1351329,66047,8555,675215,0
214,2,714541,249995,1433496,74593,9331,715995,0
214,-1,641167,220904,1280884,66535,6931,639709,0
214,-1,661464,227997,1376256,68523,8479,687459,0
214,2,717395,251379,1324524,75007,8918,661417,0
214,2,704016,247726,1424104,72984,8389,711578,0
214,-1,642098,219841,1192742,66147,7527,595963,0
214,2,712891,249432,1323140,74475,9130,661132,0
214,-1,640728,219436,1337325,65914,7592,668196,0
215,2,708669,247731,1312495,73705,8205,655760,0
215,-1,638813,218584,1171702,65584,6827,585421,0
215,-1,640997,221586,1319281,67056,8502,658662,0
215,2,710770,248599,1247855,73811,8818,623506,0
215,2,710801,251020,1339947,74362,8380,669101,0
215,-1,641467,219568,1309801,65915,7978,654544,0
215,2,710424,248728,1455261,74281,9418,727299,0
215,-1,640306,219420,1239585,65884,7998,619128,0
216,2,714307,250059,1466669,74620,8935,732827,0
216,-1,637865,218953,1255229,65724,7415,627225,0
216,-1,655331,223586,1227580,69229,8305,613442,0
216,2,711114,249386,1308563,74014,8630,653848,0
216,2,701932,247924,1284186,72992,8317,641677,0
216,-1,641231,219806,1227332,66101,7263,613245,0
216,2,713840,249376,1307999,74598,8610,653469,0
216,-1,641883,219261,1322889,65789,8410,660917,0
217,-1,636519,218612,1170030,65657,6909,584526,0
217,2,706889,247673,1379503,73674,8598,689267,0
217,-1,631764,218361,1279539,65643,8081,639374,0
217,2,715994,251032,1489134,75009,9096,743832,0
217,2,723335,253122,1513406,76569,9634,756211,0
217,-1,641796,219894,1219582,66093,6867,609405,0
217,2,713518,249225,1315566,74463,8817,657409,0
217,-1,662437,224397,1420079,69251,9151,709049,0
218,-1,657109,223348,1298448,68897,7959,648720,0
218,2,708832,247472,1485745,73478,9222,742618,0
218,-1,638343,220265,1300166,66535,7801,649362,0
218,2,706940,248024,1295156,73662,8267,647193,0
218,2,704342,248726,1352318,73340,8442,675702,0
218,-1,660803,224237,1392301,69319,7657,695650,0
218,2,717228,251505,1330304,75513,8730,664364,0
218,-1,640450,219250,1440758,65851,9117,719250,0
219,-1,635852,218513,1255971,65551,7383,627553,0
219,2,709666,248355,1532507,73863,9816,765900,0
219,-1,634554,218722,1297608,65819,7330,648420,0
219,2,711230,249598,1325455,74275,8422,662270,0
219,2,714091,248490,1312847,73646,7109,655858,0
219,-1,638368,219289,1296553,65926,7509,647744,0
219,2,714296,250054,1347835,74763,9370,673420,0
219,-1,638579,218923,1268029,65695,8201,633662,0
220,-1,635243,218506,1170044,65630,6655,584495,0
220,2,707438,247524,1292223,73572,7865,645698,0
220,-1,632822,219149,1172318,65916,7440,585698,0
220,2,735581,253576,1439409,77285,10088,719182,0
220,2,717824,248818,1510369,73737,7865,754672,0
220,-1,640926,220285,1228311,66229,7309,613637,0
220,2,710530,248895,1306275,74287,8563,652678,0
220,-1,645402,220972,1295971,66572,8294,647351,0
221,2,713096,249550,1430254,74447,9127,714427,0
221,-1,656142,226356,1310940,67924,7513,654675,0
221,-1,657427,224540,1360176,69519,8138,679525,0
221,2,713096,249358,1456471,74048,9325,727753,0
221,2,712355,248176,1445199,73475,8370,722158,0
221,-1,636533,219144,1297263,65833,7458,648165,0
221,2,717910,251530,1349647,75515,9422,674184,0
221,-1,639845,219615,1235724,65896,8513,617291,0
222,-1,670199,231148,1146329,68770,6973,572675,0
222,2,708396,247986,1461176,73697,9492,730129,0
222,-1,633382,219124,1386306,65989,7349,692682,0
222,2,713208,250221,1477244,74658,9452,737809,0
222,2,718464,251116,1347637,74891,8182,673008,0
222,-1,641595,219875,1238097,66109,8577,618396,0
222,2,711024,249122,1313561,74479,9297,656366,0
222,-1,645877,222546,1342161,67215,8781,669862,0
223,-1,681932,235318,1251503,70160,7908,625307,0
223,2,707409,247810,1495055,73648,10574,747085,0
223,-1,636135,220675,1311074,66666,7306,654894,0
223,2,708282,248701,1419785,73819,8523,709363,0
223,2,711606,247255,1396823,73352,9207,697883,0
223,-1,642175,220495,1308573,66506,8127,653668,0
223,2,716341,249657,1487933,74594,9745,743444,0
223,-1,642357,219188,1392832,65761,7925,696080,0
224,2,708706,247960,1282020,73728,8651,640566,0
224,-1,685478,236068,1288632,70286,7412,643947,0
224,-1,636652,218760,1177525,65851,6191,588308,0
224,2,708893,249013,1401073,73956,8735,700015,0
224,2,712363,247949,1265215,73464,7900,632192,0
224,-1,639674,219619,1349479,65908,7517,674285,0
224,2,713610,248701,1431452,74280,9052,715318,0
224,-1,640213,218689,1347240,65632,8084,673069,0
225,-1,702847,240383,1403470,71978,8379,700953,0
225,2,711240,248239,1390443,73879,9806,694743,0
225,-1,645786,219071,1281301,65929,7125,640333,0
225,2,731531,253963,1436984,77316,10076,717909,0
225,2,710585,247761,1316741,73391,7852,657843,0
225,-1,640091,220064,1284523,66150,7635,641832,0
225,2,733796,253777,1370350,77772,10328,684665,0
225,-1,641709,219581,1147287,65947,7344,573058,0
226,2,710362,248626,1474526,73855,9517,736532,0
226,-1,714940,241956,1358555,74004,8944,678806,0
226,-1,646328,219566,1306685,66138,7515,652772,0
226,2,710364,249318,1394235,74065,8823,696695,0
226,2,719228,250516,1319761,74612,8694,659184,0
226,-1,643528,221850,1290107,66952,8203,644232,0
226,2,714987,249807,1316531,74646,8909,657845,0
226,-1,640453,219145,1344279,65873,7589,671636,0
227,2,706807,247917,1467993,73693,9817,733969,0
227,-1,693947,237603,1334955,70859,8224,666999,0
227,-1,645967,219558,1195162,66105,7090,597198,0
227,2,711237,250104,1504537,74506,9156,751651,0
227,2,734622,253064,1458256,76964,9176,728550,0
227,-1,637689,219474,1271065,65862,7417,635049,0
227,2,717793,250972,1270866,75270,8893,634667,0
227,-1,645360,220948,1429820,66633,8168,714237,0
228,2,707076,248134,1480409,73689,9563,739470,0
228,-1,695846,239590,1345123,71783,8254,671707,0
228,-1,649038,220991,1270291,66860,8029,634438,0
228,2,707925,248881,1456598,73867,8408,727859,0
228,2,713864,248637,1289980,73773,7990,644470,0
228,-1,637054,219503,1303810,65847,7897,651771,0
228,2,714019,249293,1512317,74500,9703,755671,0
228,-1,639523,219032,1248296,65839,6887,623716,0
229,2,726683,252637,1464916,76911,10699,731951,0
229,-1,710545,241583,1377322,73978,8503,688204,0
229,-1,665004,223788,1239490,69277,8456,619234,0
229,2,714959,251050,1461702,74968,9602,730028,0
229,2,713244,248824,1384416,73733,8478,691793,0
229,-1,640936,220423,1254528,66162,7617,626763,0
229,2,712407,249484,1455912,74474,9527,727493,0
229,-1,664169,227584,1355391,68312,8183,677259,0
230,2,705483,248545,1381231,73834,9184,690030,0
230,-1,691945,237747,1265086,70908,7593,632095,0
230,-1,645397,219817,1317516,66213,7638,658401,0
230,2,707528,249006,1417608,73977,8382,708358,0
230,2,716606,250108,1470590,74519,9650,734459,0
230,-1,637364,219187,1161172,65722,6861,580182,0
230,2,715079,250404,1383683,75062,8872,691259,0
230,-1,659488,223441,1213052,69057,7962,606059,0
231,2,707823,248545,1496748,73819,9183,747847,0
231,-1,693115,237315,1335345,70733,8486,667221,0
231,-1,642901,219042,1205592,65956,7792,602278,0
231,2,708849,248938,1380899,73960,9142,690006,0
231,2,709755,248236,1490007,73571,8342,744585,0
231,-1,641566,221311,1303493,66652,7762,651044,0
231,2,711040,248882,1334410,74330,8489,666778,0
231,-1,639009,219436,1289992,65955,7566,644510,0
232,2,708836,248545,1418841,73753,8921,708767,0
232,-1,692248,237394,1237161,70799,8213,617999,0
232,-1,641622,219157,1276367,66009,7805,637746,0
232,2,711648,251046,1542844,74920,9867,770557,0
232,2,714002,248386,1414456,73656,9055,706751,0
232,-1,659177,224371,1231997,69234,8139,615564,0
232,2,732924,254062,1440526,77885,9207,719754,0
232,-1,636611,218614,1294377,65647,7808,646734,0
233,-1,695387,239031,1354870,71495,8372,676626,0
233,2,730037,253419,1577612,77170,10568,788473,0
233,-1,643788,219942,1250447,66251,7852,624748,0
233,2,726388,253539,1402523,77237,9315,700719,0
233,2,715048,248748,1585397,73781,10191,792251,0
233,-1,637972,220045,1269806,66027,7951,634410,0
233,2,712691,250002,1452431,74773,9811,725805,0
233,-1,643029,219539,1390312,65952,7407,694609,0
234,-1,688267,236522,1225228,70428,7392,612052,0
234,2,705718,247877,1520401,73551,9569,759836,0
234,-1,643011,219869,1340663,66357,8317,669583,0
234,2,711548,248304,1443219,73705,9335,721146,0
234,2,713580,248565,1482040,73644,10235,740539,0
234,-1,648011,221343,1322555,66673,7925,660489,0
234,2,716379,251115,1375152,75398,9613,686855,0
234,-1,640601,219023,1294236,65882,7365,646670,0
235,-1,691791,237213,1242635,70688,7568,620832,0
235,2,709204,249695,1659618,74390,9279,828391,0
235,-1,644731,219694,1180758,66167,8038,589844,0
235,2,713566,249265,1410049,74008,8962,704550,0
235,2,732089,253291,1352311,77064,8815,675492,0
235,-1,640946,219068,1178044,65684,7014,588526,0
235,2,732023,253772,1479210,77799,10364,739092,0
235,-1,658661,223305,1222338,68944,7627,610705,0
236,-1,711756,242350,1369295,74157,8729,684062,0
236,2,706902,249091,1390055,74104,8790,694581,0
236,-1,643344,219463,1220163,66057,8479,609625,0
236,2,712851,249379,1517332,73997,9967,758285,0
236,2,714262,249260,1395440,74134,8999,697004,0
236,-1,640809,219435,1177506,65805,6362,588297,0
236,2,717649,249734,1290881,74630,9212,644877,0
236,-1,640306,220039,1292702,66128,7144,645734,0
237,-1,686939,236493,1324787,70381,8405,661895,0
237,2,702496,247529,1351613,73551,8145,675264,0
237,-1,647138,221708,1341481,67168,8297,669885,0
237,2,710914,248838,1509840,73828,9266,754408,0
237,2,712286,248458,1371411,73645,8637,685201,0
237,-1,641609,220131,1227306,66007,6098,613220,0
237,2,719813,251079,1284048,75376,8981,641292,0
237,-1,637770,218849,1309276,65759,7309,654139,0
238,-1,692270,237368,1373021,70787,8263,685986,0
238,2,706565,248059,1431407,73757,8478,715101,0
238,-1,643106,218899,1263530,65872,7159,631363,0
238,2,713380,250166,1465339,74504,9391,732006,0
238,2,732329,253222,1491022,77035,9050,744950,0
238,-1,639363,219187,1160138,65800,6823,579648,0
238,2,714725,248860,1357256,74359,9496,678095,0
238,-1,637585,219144,1164319,65870,6908,581683,0
239,-1,690942,236857,1282828,70565,7986,640486,0
239,2,732568,253381,1413588,77132,10272,706390,0
239,-1,645503,220093,1233483,66317,7940,616188,0
239,2,713203,249790,1474005,74175,9712,736524,0
239,2,712247,248946,1531020,73841,9056,765019,0
239,-1,644459,221162,1285745,66659,7624,642141,0
239,2,712790,248746,1443955,74301,9555,721600,0
239,-1,637366,219076,1259294,65709,7553,629233,0
240,2,708311,247954,1415308,73581,9296,707216,0
240,-1,692752,237838,1518210,70938,9525,758651,0
240,-1,643299,219568,1354606,66071,7804,676946,0
240,2,709903,249122,1484635,73913,8601,741952,0
240,2,709000,248573,1375727,73752,8308,687347,0
240,-1,639378,219753,1117260,65982,6869,558151,0
240,2,712917,249213,1424181,74434,9399,711577,0
240,-1,635952,218958,1147511,65797,6881,573263,0
241,2,707054,248639,1380418,73905,8519,689707,0
241,-1,710169,241790,1335244,74031,9344,667076,0
241,-1,640578,218792,1393107,65831,7898,696011,0
241,2,715757,251277,1485433,74994,9555,741849,0
241,2,716786,249212,1315402,74115,8614,657098,0
241,-1,642925,220086,1293566,66048,7768,645968,0
241,2,714424,250435,1333449,75043,9084,665994,0
241,-1,636283,218881,1233004,65714,7929,615962,0
242,2,707844,247711,1317623,73630,8834,658259,0
242,-1,694714,238907,1412670,71474,9227,705585,0
242,-1,642213,219049,1271020,65906,8052,635060,0
242,2,711968,249525,1398525,74134,8455,698888,0
242,2,711117,248146,1407868,73576,8379,703504,0
242,-1,645535,221649,1316361,66880,8443,656954,0
242,2,710552,249259,1461096,74525,9027,729971,0
242,-1,659566,223711,1208497,69119,8497,603804,0
243,2,706016,247643,1306199,73598,7952,652692,0
243,-1,691758,237785,1344642,70930,8524,671775,0
243,-1,646080,220915,1310390,66826,8910,654419,0
243,2,712750,250247,1463680,74558,9745,731119,0
243,2,709904,248439,1393619,73702,8539,696328,0
243,-1,639514,219695,1304066,66070,7372,651414,0
243,2,731198,253771,1534874,77713,12000,767055,0
243,-1,636454,218325,1124016,65537,7122,561539,0
244,2,704985,247607,1380263,73461,7715,689602,0
244,-1,689502,237595,1225290,70877,7155,612161,0
244,-1,638712,218538,1279142,65750,7926,639213,0
244,2,714098,250990,1514290,74863,9427,756336,0
244,2,710253,247578,1283789,73447,8396,641410,0
244,-1,639436,219809,1244840,66068,6547,621914,0
244,2,715749,250012,1325374,74763,9527,661945,0
244,-1,634805,218404,1175292,65564,7180,587082,0
245,-1,716139,246866,1413186,73474,8453,706131,0
245,2,713409,250728,1401406,74775,9099,699873,0
245,-1,640350,218574,1376912,65857,8893,688027,0
245,2,709153,249652,1524700,74161,9635,761915,0
245,2,715240,250450,1424937,74579,8554,711570,0
245,-1,639891,219365,1230472,65982,7568,614796,0
245,2,712848,248979,1504494,74444,9795,751763,0
245,-1,637505,218948,1134949,65793,7455,567084,0
246,2,761062,266272,1356263,78612,8707,677595,0
246,-1,689066,237472,1276751,70878,7723,637892,0
246,-1,661928,223699,1232544,69223,8780,615700,0
246,2,711629,248871,1386257,73970,9183,692721,0
246,2,736263,252971,1324157,76952,9707,661528,0
246,-1,641762,220523,1333291,66532,7547,665940,0
246,2,733914,254065,1660635,77950,11424,829897,0
246,-1,637915,219260,1199342,65835,7851,599325,0
247,2,765131,268241,1491413,79495,9812,744830,0
247,-1,689501,237762,1315492,70920,8153,657230,0
247,-1,639765,218841,1335075,65837,8300,667143,0
247,2,716426,250741,1675168,74740,11400,836247,0
247,2,716340,249787,1334883,74371,9231,666790,0
247,-1,638830,219342,1327052,65909,7439,663155,0
247,2,712946,249484,1456479,74659,10211,727779,0
247,-1,635589,218779,1257104,65701,8851,628186,0
248,-1,687071,237066,1211583,70666,7878,605322,0
248,2,760876,266147,1394728,78608,9149,696904,0
248,-1,640919,219636,1189792,66153,7965,594421,0
248,2,714250,250984,1479234,74962,8825,738700,0
248,2,712963,247793,1447087,73444,8708,722949,0
248,-1,637973,219668,1241427,66070,6813,620109,0
248,2,710532,248848,1416994,74416,9621,707999,0
248,-1,639917,219660,1394202,65944,7991,696558,0
249,-1,688602,237519,1354752,70841,8112,676809,0
249,2,761332,266604,1446224,78732,8813,722617,0
249,-1,638534,218927,1302018,65877,8189,650596,0
249,2,711075,249645,1559822,74261,9152,779426,0
249,2,720243,251462,1350304,75054,9538,674510,0
249,-1,644232,220797,1337325,66729,8047,667498,0
249,2,710861,249124,1292331,74562,9162,645601,0
249,-1,644096,219335,1301645,65867,8195,650335,0
250,-1,686053,236983,1252573,70634,7851,625871,0
250,2,766011,268953,1578984,79771,10154,788649,0
250,-1,645326,219429,1318749,66030,7647,658894,0
250,2,732683,258125,1485694,76770,9939,742168,0
250,2,714287,248865,1344486,73845,9243,671813,0
250,-1,663473,224530,1392578,69404,8149,695669,0
250,2,714426,249178,1374870,74523,9133,686889,0
250,-1,646329,220245,1192237,66102,7891,595605,0
251,2,762943,267925,1596952,79462,10078,797389,0
251,-1,719561,242303,1341987,74167,8290,670395,0
251,-1,663845,223507,1243463,69217,8331,621238,0
251,2,711211,248319,1397080,73790,9566,698069,0
251,2,707880,246838,1363859,73262,8858,681518,0
251,-1,640611,219620,1486250,65960,7717,742362,0
251,2,716432,250449,1476175,75228,9201,737149,0
251,-1,642055,219067,1313653,65654,7700,656407,0
252,2,758559,266699,1486544,78752,9807,742730,0
252,-1,696186,237417,1236273,70809,7453,617559,0
252,-1,641691,219349,1201207,66040,7664,599966,0
252,2,714887,250458,1487061,74736,9802,742745,0
252,2,710952,248035,1430326,73593,9043,714756,0
252,-1,640268,219433,1240607,65943,7234,620081,0
252,2,713098,249311,1362273,74684,8895,680496,0
252,-1,664770,224554,1244839,69354,8439,621930,0
253,2,758504,267029,1442127,78882,10068,720350,0
253,-1,694901,237254,1232366,70736,7636,615677,0
253,-1,642003,219342,1137351,66078,7381,568069,0
253,2,709563,249188,1444232,74116,9010,721436,0
253,2,712042,248966,1616680,73852,9950,807887,0
253,-1,643738,221289,1365811,66736,7818,682176,0
253,2,714752,250060,1400641,74898,9895,699702,0
253,-1,641840,219207,1293469,65793,7522,646224,0
254,2,764282,268551,1476584,79692,9730,737461,0
254,-1,697016,238408,1344436,71309,7729,671483,0
254,-1,640931,218968,1186876,65929,7523,592974,0
254,2,711285,249667,1466829,74031,9347,732510,0
254,2,715927,250310,1309109,74634,8502,653839,0
254,-1,641626,220005,1325862,66092,8437,662233,0
254,2,714759,250405,1386422,75210,10602,692340,0
254,-1,646390,220751,1316410,66503,8760,657459,0
255,2,761714,267663,1457111,79364,9380,727882,0
255,-1,694230,237601,1428535,70811,8277,713708,0
255,-1,642075,219825,1205278,66230,7032,602031,0
255,2,707595,248894,1330934,73915,9126,664901,0
255,2,710618,248299,1464916,73707,9274,731987,0
255,-1,636912,218606,1240047,65723,7387,619584,0
255,2,732339,254220,1507281,78056,10486,753090,0
255,-1,642750,219240,1281940,65779,8072,640321,0
