0,0,0,-nan,-nan,-nan,-nan,-nan,-nan,-nan,-nan,-nan,-nan,-nan,-nan
0,1,118,713304.593220,249188.516949,1392295.491525,74354.720339,9130.779661,695576.406780,10750.010749,3444.279656,78628.916665,1267.757528,721.239894,39281.124989
1,0,0,-nan,-nan,-nan,-nan,-nan,-nan,-nan,-nan,-nan,-nan,-nan,-nan
1,1,117,713375.427350,249179.367521,1381666.538462,74364.017094,8985.435897,690254.940171,10327.847224,3009.587286,78443.838306,1260.596223,715.562899,39186.706420
2,0,0,-nan,-nan,-nan,-nan,-nan,-nan,-nan,-nan,-nan,-nan,-nan,-nan
2,1,117,711955.076923,248785.863248,1371325.401709,74225.965812,8951.589744,685110.358974,8277.285567,2220.693412,69472.430580,1086.289198,638.253455,34728.846950
3,0,0,-nan,-nan,-nan,-nan,-nan,-nan,-nan,-nan,-nan,-nan,-nan,-nan
3,1,118,713063.262712,249132.228814,1375435.449153,74361.677966,9038.237288,687142.093220,9662.632953,2698.113052,83917.720718,1265.989590,761.942796,41879.995450
4,0,0,-nan,-nan,-nan,-nan,-nan,-nan,-nan,-nan,-nan,-nan,-nan,-nan
4,1,118,712000.271186,248750.830508,1385951.830508,74221.966102,9037.169492,692417.983051,8555.196839,2307.205255,78178.418226,1199.227286,705.169968,39036.588531
5,0,0,-nan,-nan,-nan,-nan,-nan,-nan,-nan,-nan,-nan,-nan,-nan,-nan
5,1,118,713134.398305,249103.288136,1386619.635593,74318.940678,9146.966102,692737.076271,9721.330119,2849.249336,84537.983767,1238.942731,694.882284,42203.707146
6,0,0,-nan,-nan,-nan,-nan,-nan,-nan,-nan,-nan,-nan,-nan,-nan,-nan
6,1,118,712082.737288,248949.711864,1377654.584746,74241.355932,9040.135593,688226.440678,8765.871673,2561.023994,75409.811100,1057.917138,675.404310,37649.218166
7,0,0,-nan,-nan,-nan,-nan,-nan,-nan,-nan,-nan,-nan,-nan,-nan,-nan
7,1,118,713060.805085,249157.042373,1390425.491525,74358.228814,9192.661017,694622.288136,11194.747213,3370.669421,82587.943536,1311.873259,728.618931,41244.980040
8,0,0,-nan,-nan,-nan,-nan,-nan,-nan,-nan,-nan,-nan,-nan,-nan,-nan
8,1,118,712342.262712,249058.949153,1385684.652542,74286.449153,9150.016949,692245.313559,10258.259434,3185.984011,83298.159954,1235.526304,724.468467,41626.407307
9,0,0,-nan,-nan,-nan,-nan,-nan,-nan,-nan,-nan,-nan,-nan,-nan,-nan
9,1,118,713086.245763,249099.872881,1395499.618644,74373.711864,9067.423729,697204.881356,11051.099708,3110.779998,83377.130962,1385.019801,705.588484,41637.550332
10,0,0,-nan,-nan,-nan,-nan,-nan,-nan,-nan,-nan,-nan,-nan,-nan,-nan
10,1,118,712804.305085,249022.338983,1380179.457627,74294.822034,9048.923729,689519.525424,9854.753329,2874.920622,87942.531243,1198.515958,828.688888,43889.029533
11,0,0,-nan,-nan,-nan,-nan,-nan,-nan,-nan,-nan,-nan,-nan,-nan,-nan
11,1,118,712340.974576,248912.033898,1394377.864407,74230.813559,9085.677966,696628.762712,9367.248526,2775.938934,79176.522321,1136.783173,684.504050,39537.176706
12,0,0,-nan,-nan,-nan,-nan,-nan,-nan,-nan,-nan,-nan,-nan,-nan,-nan
12,1,118,713526.601695,249252.898305,1380673.500000,74434.966102,9039.822034,689758.932203,10530.763821,2999.352202,79375.678983,1297.781731,735.700918,39662.268913
13,0,0,-nan,-nan,-nan,-nan,-nan,-nan,-nan,-nan,-nan,-nan,-nan,-nan
13,1,118,712831.288136,249014.703390,1383977.491525,74311.194915,9023.686441,691439.127119,9993.039426,3016.816552,73563.882373,1292.066918,717.711555,36753.899430
14,0,0,-nan,-nan,-nan,-nan,-nan,-nan,-nan,-nan,-nan,-nan,-nan,-nan
14,1,118,711840.381356,248770.745763,1377087.050847,74144.686441,8950.525424,687948.932203,8776.030471,2703.092793,74105.050692,1043.898679,610.304324,36983.742210
15,0,0,-nan,-nan,-nan,-nan,-nan,-nan,-nan,-nan,-nan,-nan,-nan,-nan
15,1,234,711874.358974,249034.649573,1381485.948718,74311.581197,9023.025641,690171.927350,8812.434739,2406.854579,80070.619453,1086.501830,683.353401,40030.583572
