-1,0,0.00457404
-1,1,0.00400229
-1,2,0.00400229
-1,3,0.00400229
-1,4,0.00400229
-1,5,0.00400229
-1,6,0.00400229
-1,7,0.00400229
-1,8,0.00400229
-1,9,0.00400229
-1,10,0.00400229
-1,11,0.00400229
-1,12,0.00400229
-1,13,0.00400229
-1,14,0.00400229
-1,15,0.00400229
-1,16,0.00400229
-1,17,0.00400229
-1,18,0.00400229
-1,19,0.00400229
-1,20,0.00400229
-1,21,0.00400229
-1,22,0.00400229
-1,23,0.00400229
-1,24,0.00400229
-1,25,0.00400229
-1,26,0.00400229
-1,27,0.00400229
-1,28,0.00400229
-1,29,0.00400229
-1,30,0.00400229
-1,31,0.00400229
-1,32,0.00400229
-1,33,0.00400229
-1,34,0.00400229
-1,35,0.00400229
-1,36,0.00400229
-1,37,0.00400229
-1,38,0.00400229
-1,39,0.00400229
-1,40,0.00400229
-1,41,0.00400229
-1,42,0.00400229
-1,43,0.00400229
-1,44,0.00400229
-1,45,0.00400229
-1,46,0.00400229
-1,47,0.00400229
-1,48,0.00400229
-1,49,0.00400229
-1,50,0.00400229
-1,51,0.00400229
-1,52,0.00400229
-1,53,0.00400229
-1,54,0.00400229
-1,55,0.00400229
-1,56,0.00400229
-1,57,0.00400229
-1,58,0.00400229
-1,59,0.00400229
-1,60,0.00400229
-1,61,0.00400229
-1,62,0.00400229
-1,63,0.00400229
-1,64,0.00400229
-1,65,0.00400229
-1,66,0.00400229
-1,67,0.00400229
-1,68,0.00400229
-1,69,0.00400229
-1,70,0.00400229
-1,71,0.00400229
-1,72,0.00400229
-1,73,0.00400229
-1,74,0.00400229
-1,75,0.00400229
-1,76,0.00400229
-1,77,0.00400229
-1,78,0.00400229
-1,79,0.00400229
-1,80,0.00400229
-1,81,0.00400229
-1,82,0.00400229
-1,83,0.00400229
-1,84,0.00400229
-1,85,0.00400229
-1,86,0.00400229
-1,87,0.00400229
-1,88,0.00400229
-1,89,0.00400229
-1,90,0.00400229
-1,91,0.00400229
-1,92,0.00400229
-1,93,0.00400229
-1,94,0.00400229
-1,95,0.00400229
-1,96,0.00400229
-1,97,0.00400229
-1,98,0.00400229
-1,99,0.00400229
-1,100,0.00400229
-1,101,0.00400229
-1,102,0.00400229
-1,103,0.00400229
-1,104,0.00400229
-1,105,0.00400229
-1,106,0.00400229
-1,107,0.00400229
-1,108,0.00400229
-1,109,0.00343053
-1,110,0.00343053
-1,111,0.00343053
-1,112,0.00343053
-1,113,0.00343053
-1,114,0.00343053
-1,115,0.00343053
-1,116,0.00343053
-1,117,0.00343053
-1,118,0.00343053
-1,119,0.00343053
-1,120,0.00343053
-1,121,0.00343053
-1,122,0.00343053
-1,123,0.00343053
-1,124,0.00343053
-1,125,0.00343053
-1,126,0.00343053
-1,127,0.00343053
-1,128,0.00343053
-1,129,0.00343053
-1,130,0.00343053
-1,131,0.00343053
-1,132,0.00343053
-1,133,0.00343053
-1,134,0.00343053
-1,135,0.00343053
-1,136,0.00343053
-1,137,0.00343053
-1,138,0.00343053
-1,139,0.00343053
-1,140,0.00343053
-1,141,0.00343053
-1,142,0.00343053
-1,143,0.00343053
-1,144,0.00343053
-1,145,0.00343053
-1,146,0.00343053
-1,147,0.00343053
-1,148,0.00343053
-1,149,0.00343053
-1,150,0.00343053
-1,151,0.00343053
-1,152,0.00343053
-1,153,0.00400229
-1,154,0.00400229
-1,155,0.00400229
-1,156,0.00400229
-1,157,0.00400229
-1,158,0.00400229
-1,159,0.00400229
-1,160,0.00400229
-1,161,0.00400229
-1,162,0.00400229
-1,163,0.00400229
-1,164,0.00400229
-1,165,0.00400229
-1,166,0.00400229
-1,167,0.00400229
-1,168,0.00400229
-1,169,0.00400229
-1,170,0.00400229
-1,171,0.00400229
-1,172,0.00400229
-1,173,0.00400229
-1,174,0.00400229
-1,175,0.00400229
-1,176,0.00400229
-1,177,0.00400229
-1,178,0.00400229
-1,179,0.00400229
-1,180,0.00400229
-1,181,0.00400229
-1,182,0.00400229
-1,183,0.00400229
-1,184,0.00400229
-1,185,0.00400229
-1,186,0.00400229
-1,187,0.00400229
-1,188,0.00400229
-1,189,0.00400229
-1,190,0.00400229
-1,191,0.00400229
-1,192,0.00400229
-1,193,0.00400229
-1,194,0.00400229
-1,195,0.00400229
-1,196,0.00400229
-1,197,0.00400229
-1,198,0.00400229
-1,199,0.00400229
-1,200,0.00400229
-1,201,0.00400229
-1,202,0.00400229
-1,203,0.00400229
-1,204,0.00400229
-1,205,0.00400229
-1,206,0.00400229
-1,207,0.00400229
-1,208,0.00400229
-1,209,0.00400229
-1,210,0.00400229
-1,211,0.00400229
-1,212,0.00400229
-1,213,0.00400229
-1,214,0.00400229
-1,215,0.00400229
-1,216,0.00400229
-1,217,0.00400229
-1,218,0.00400229
-1,219,0.00400229
-1,220,0.00400229
-1,221,0.00400229
-1,222,0.00400229
-1,223,0.00400229
-1,224,0.00400229
-1,225,0.00400229
-1,226,0.00400229
-1,227,0.00400229
-1,228,0.00400229
-1,229,0.00400229
-1,230,0.00400229
-1,231,0.00400229
-1,232,0.00400229
-1,233,0.00400229
-1,234,0.00400229
-1,235,0.00400229
-1,236,0.00400229
-1,237,0.00400229
-1,238,0.00400229
-1,239,0.00400229
-1,240,0.00400229
-1,241,0.00400229
-1,242,0.00400229
-1,243,0.00400229
-1,244,0.00400229
-1,245,0.00400229
-1,246,0.00400229
-1,247,0.00400229
-1,248,0.00400229
-1,249,0.00400229
-1,250,0.00400229
-1,251,0.00400229
-1,252,0.00400229
-1,253,0.00400229
-1,254,0.00400229
-1,255,0.00400229
3,0,0.00480769
3,49,0.00480769
3,50,0.00480769
3,51,0.00480769
3,52,0.00480769
3,53,0.00480769
3,54,0.00480769
3,55,0.00480769
3,56,0.00480769
3,57,0.00480769
3,58,0.00480769
3,59,0.00480769
3,60,0.00480769
3,61,0.00480769
3,62,0.00480769
3,63,0.00480769
3,64,0.00480769
3,65,0.00480769
3,66,0.00480769
3,67,0.00480769
3,68,0.00480769
3,69,0.00480769
3,70,0.00480769
3,71,0.00480769
3,72,0.00480769
3,73,0.00480769
3,74,0.00480769
3,75,0.00480769
3,76,0.00480769
3,77,0.00480769
3,78,0.00480769
3,79,0.00480769
3,80,0.00480769
3,81,0.00480769
3,82,0.00480769
3,83,0.00480769
3,84,0.00480769
3,85,0.00480769
3,86,0.00480769
3,87,0.00480769
3,88,0.00480769
3,89,0.00480769
3,90,0.00480769
3,91,0.00480769
3,92,0.00480769
3,93,0.00480769
3,94,0.00480769
3,95,0.00480769
3,96,0.00480769
3,97,0.00480769
3,98,0.00480769
3,99,0.00480769
3,100,0.00480769
3,101,0.00480769
3,102,0.00480769
3,103,0.00480769
3,104,0.00480769
3,105,0.00480769
3,106,0.00480769
3,107,0.00480769
3,108,0.00480769
3,109,0.00480769
3,110,0.00480769
3,111,0.00480769
3,112,0.00480769
3,113,0.00480769
3,114,0.00480769
3,115,0.00480769
3,116,0.00480769
3,117,0.00480769
3,118,0.00480769
3,119,0.00480769
3,120,0.00480769
3,121,0.00480769
3,122,0.00480769
3,123,0.00480769
3,124,0.00480769
3,125,0.00480769
3,126,0.00480769
3,127,0.00480769
3,128,0.00480769
3,129,0.00480769
3,130,0.00480769
3,131,0.00480769
3,132,0.00480769
3,133,0.00480769
3,134,0.00480769
3,135,0.00480769
3,136,0.00480769
3,137,0.00480769
3,138,0.00480769
3,139,0.00480769
3,140,0.00480769
3,141,0.00480769
3,142,0.00480769
3,143,0.00480769
3,144,0.00480769
3,145,0.00480769
3,146,0.00480769
3,147,0.00480769
3,148,0.00480769
3,149,0.00480769
3,150,0.00480769
3,151,0.00480769
3,152,0.00480769
3,153,0.00480769
3,154,0.00480769
3,155,0.00480769
3,156,0.00480769
3,157,0.00480769
3,158,0.00480769
3,159,0.00480769
3,160,0.00480769
3,161,0.00480769
3,162,0.00480769
3,163,0.00480769
3,164,0.00480769
3,165,0.00480769
3,166,0.00480769
3,167,0.00480769
3,168,0.00480769
3,169,0.00480769
3,170,0.00480769
3,171,0.00480769
3,172,0.00480769
3,173,0.00480769
3,174,0.00480769
3,175,0.00480769
3,176,0.00480769
3,177,0.00480769
3,178,0.00480769
3,179,0.00480769
3,180,0.00480769
3,181,0.00480769
3,182,0.00480769
3,183,0.00480769
3,184,0.00480769
3,185,0.00480769
3,186,0.00480769
3,187,0.00480769
3,188,0.00480769
3,189,0.00480769
3,190,0.00480769
3,191,0.00480769
3,192,0.00480769
3,193,0.00480769
3,194,0.00480769
3,195,0.00480769
3,196,0.00480769
3,197,0.00480769
3,198,0.00480769
3,199,0.00480769
3,200,0.00480769
3,201,0.00480769
3,202,0.00480769
3,203,0.00480769
3,204,0.00480769
3,205,0.00480769
3,206,0.00480769
3,207,0.00480769
3,208,0.00480769
3,209,0.00480769
3,210,0.00480769
3,211,0.00480769
3,212,0.00480769
3,213,0.00480769
3,214,0.00480769
3,215,0.00480769
3,216,0.00480769
3,217,0.00480769
3,218,0.00480769
3,219,0.00480769
3,220,0.00480769
3,221,0.00480769
3,222,0.00480769
3,223,0.00480769
3,224,0.00480769
3,225,0.00480769
3,226,0.00480769
3,227,0.00480769
3,228,0.00480769
3,229,0.00480769
3,230,0.00480769
3,231,0.00480769
3,232,0.00480769
3,233,0.00480769
3,234,0.00480769
3,235,0.00480769
3,236,0.00480769
3,237,0.00480769
3,238,0.00480769
3,239,0.00480769
3,240,0.00480769
3,241,0.00480769
3,242,0.00480769
3,243,0.00480769
3,244,0.00480769
3,245,0.00480769
3,246,0.00480769
3,247,0.00480769
3,248,0.00480769
3,249,0.00480769
3,250,0.00480769
3,251,0.00480769
3,252,0.00480769
3,253,0.00480769
3,254,0.00480769
3,255,0.00480769
