0,-1,693365,236887,1254268,70577,7560,627181,0
0,-1,693979,238099,1326452,71024,7639,663262,2
0,-1,696812,238496,1392240,71333,7869,696174,0
0,-1,716180,246761,1424028,73405,9197,712010,0
0,-1,692442,237691,1390886,70867,8587,695456,0
0,-1,642615,221438,1367156,66906,8838,682166,0
0,-1,634993,218287,1288191,65538,7853,644108,0
0,-1,639184,219044,1266979,65750,7305,633517,0
0,-1,642674,219676,1292333,66109,8539,646230,0
0,-1,665407,228299,1231951,68495,6863,615990,0
0,-1,640897,220146,1282772,66376,7979,641264,0
0,-1,642005,219173,1295817,65796,8386,648019,0
0,-1,637441,218474,1239403,65618,7282,619744,0
0,-1,640609,218507,1351379,65525,8863,675191,0
0,-1,635034,218596,1290113,65661,7324,645111,0
0,-1,640225,220409,1361428,66455,7682,680777,0
0,-1,637927,218602,1203608,65609,6856,601806,0
0,-1,638803,219394,1299394,65955,6886,649738,0
0,-1,639633,218943,1291806,65770,7727,646004,0
0,-1,638506,219364,1210211,65839,6928,605155,0
0,-1,640804,219888,1200342,65994,7324,600181,0
0,-1,660844,224104,1311040,69157,8625,655525,0
0,-1,662032,223987,1326500,69180,8755,663258,0
0,-1,642439,219673,1262519,65923,7733,630983,0
0,-1,642542,219234,1248314,65881,8232,624199,0
0,-1,643992,219298,1234816,65894,8235,617333,0
0,-1,640003,218973,1255786,65879,7708,627897,0
0,-1,639237,219493,1331707,66107,8210,666011,0
0,-1,640388,218691,1310503,65788,8393,654903,0
0,-1,641903,220291,1460712,66540,9064,730732,0
0,-1,645022,220358,1224252,66605,8585,612149,0
0,-1,641307,220517,1326234,66618,8286,663266,0
0,-1,640842,218921,1270597,65935,7682,635316,0
0,-1,639514,218865,1192295,65889,6947,596112,0
0,-1,660811,223337,1259902,69095,8429,629888,0
0,-1,644646,219828,1161672,66185,7986,580756,0
0,-1,644352,220323,1388446,66505,8087,694198,0
0,-1,655546,223845,1277153,69297,8358,638542,0
0,-1,635185,218870,1291970,65864,7686,646001,0
0,-1,633829,218854,1323011,65835,8093,661555,0
0,-1,638270,219114,1205014,65972,7432,602567,0
0,-1,640077,221114,1309638,66750,7421,654889,0
0,-1,637270,219163,1269169,65785,7547,634620,0
0,-1,642852,220384,1268133,66291,7315,634086,0
0,-1,640592,221528,1310117,66946,7621,655130,0
0,-1,636713,219420,1195008,65994,6792,597577,0
0,-1,638827,219649,1331887,66022,7465,665993,0
0,-1,639086,220228,1237459,66252,6704,618763,0
0,-1,641081,220823,1252197,66612,7001,626119,0
0,-1,642349,219790,1279739,66072,7018,639892,0
0,-1,637155,220198,1230080,66227,7032,615085,0
0,-1,637447,220544,1338974,66547,7727,669493,0
0,-1,637848,218993,1266404,65801,8051,633262,0
0,-1,637741,219721,1183284,66080,7240,591546,0
0,-1,639716,219774,1289482,66062,7114,644789,0
0,-1,642169,220887,1305218,66752,7820,652660,0
0,-1,646670,221090,1321598,66816,8311,660968,0
0,-1,638825,219382,1334373,65975,7300,667227,0
0,-1,642163,219975,1343951,66175,7516,671991,0
0,-1,639312,219421,1282581,65942,7852,641324,0
0,-1,641651,219328,1270275,65962,8097,635143,0
0,-1,664753,224460,1233258,69376,8745,616410,0
0,-1,634994,219371,1295466,65914,6942,647781,0
0,-1,639987,220254,1314399,66386,7657,657266,0
0,-1,639856,219190,1195230,65923,7123,597774,0
0,-1,642946,221493,1285338,66931,7905,642602,0
0,-1,639550,219263,1367496,65877,7342,683789,0
0,-1,640412,219682,1275071,65923,7061,637582,0
0,-1,639252,219842,1225877,66061,7922,612931,0
0,-1,637872,219618,1304186,65862,7536,652107,0
0,-1,645142,220569,1333200,66414,9452,666585,0
0,-1,642213,220169,1348701,66083,8068,674347,0
0,-1,641263,219576,1224150,65818,6866,612072,0
0,-1,637938,219713,1213591,65933,6853,606803,0
0,-1,640038,219729,1218082,65966,7146,609022,0
0,-1,642410,219875,1311890,66009,7868,655904,0
0,-1,642798,220459,1233575,66356,7077,616790,0
0,-1,645911,220399,1365274,66313,7903,682554,0
0,-1,643712,219977,1262554,65947,7831,631299,0
0,-1,642568,220810,1158747,66221,7999,579439,0
0,-1,648729,222255,1410077,66975,8254,705104,0
0,-1,646141,220386,1203968,66082,6797,601991,0
0,-1,669063,226497,1249170,69878,8268,624647,0
0,-1,648084,221034,1323963,66275,8046,661967,0
0,-1,648749,220911,1370222,66310,8458,685231,0
0,-1,640868,221139,1260995,66670,8277,630929,0
0,-1,641113,220648,1382071,66226,8654,691051,0
0,-1,639542,219924,1298107,65976,8443,649094,0
0,-1,637878,218548,1251396,65672,9032,625647,0
0,-1,638285,219449,1186645,65910,7096,593414,0
0,-1,638649,219490,1288082,65832,7858,644102,0
0,-1,641157,219191,1134556,65760,7609,567327,0
0,-1,641464,220329,1326191,66479,8109,663056,0
0,-1,639005,219375,1192568,65936,6862,596349,0
0,-1,644426,219825,1351579,65914,9023,675601,0
0,-1,639162,219195,1301958,65715,7862,650964,0
0,-1,640963,218137,1369604,65493,8916,684828,0
0,-1,638136,218871,1219117,65734,7359,609595,0
0,-1,639775,219411,1312489,65858,7460,656189,0
0,-1,646483,221151,1312396,66654,8089,656231,0
0,-1,642820,219572,1279089,65837,8472,639497,0
0,-1,641155,219492,1383403,65723,7950,690934,0
0,-1,641729,219900,1315066,65811,8446,657507,0
0,-1,641041,219473,1388696,65678,8798,694099,0
0,-1,644620,219618,1219319,65802,8900,609536,0
0,-1,638977,218971,1300455,65569,9372,650298,0
0,-1,639472,219028,1394021,65707,8912,696780,0
0,-1,641800,219027,1269745,65642,9220,634681,0
0,-1,636672,219367,1328042,65815,9315,663835,0
0,-1,637260,219183,1223007,65690,8190,611373,0
0,-1,639695,218786,1317350,65586,8188,658680,0
0,-1,641332,219526,1334046,65838,8165,666986,0
0,-1,636430,218594,1207276,65499,7037,603698,0
0,-1,642588,219934,1273777,66202,7537,636938,0
0,-1,642473,218739,1290258,65562,8438,645090,0
0,-1,640011,218491,1290406,65481,7810,645244,0
0,-1,650243,222543,1227286,67126,8586,613686,0
0,-1,638587,218348,1285107,65427,7800,642334,0
0,-1,643751,220005,1330163,65991,8641,665107,0
0,-1,658831,224047,1263834,69123,8474,631995,0
0,-1,638005,219307,1402632,65719,8509,700949,0
0,-1,638709,218715,1246834,65545,7864,623468,0
0,-1,638542,218665,1248895,65536,7026,624491,0
0,-1,641002,218917,1286905,65652,7730,643341,0
0,-1,638569,217762,1246878,65299,7831,623507,0
0,-1,637851,218672,1218840,65460,6741,609455,0
0,-1,644809,219579,1172749,65813,7589,586351,0
0,-1,643488,218984,1236775,65548,7506,618389,0
0,-1,643753,220310,1205934,66233,6809,603033,0
0,-1,665612,224037,1297294,69033,8380,648413,0
0,-1,645354,219351,1311862,65781,7329,655983,0
0,-1,631721,218408,1197745,65027,6991,598892,0
0,-1,632911,218346,1224190,65087,7111,612151,0
0,-1,636295,219416,1296494,65461,8094,648275,0
0,-1,632913,218737,1144487,65170,7897,572259,0
0,-1,637937,219093,1252790,65313,7661,626144,0
0,-1,640546,220297,1148080,65909,7644,573944,0
0,-1,632322,218574,1312410,65171,7860,656102,0
0,-1,636327,219176,1285464,65415,7611,642723,0
0,-1,642313,221264,1313417,66267,7918,656656,0
0,-1,638625,218979,1335754,66066,8906,666805,0
0,-1,642709,218909,1307418,66103,8690,653723,0
0,-1,641927,218909,1362173,66162,9397,681096,0
0,-1,639463,219724,1481244,66458,8682,740791,0
0,-1,635810,218939,1282170,66176,7597,641032,0
0,-1,636821,218542,1261140,66011,8029,630539,0
0,-1,642075,219167,1197701,66144,7337,598987,0
0,-1,637884,219210,1200302,66204,7521,600155,0
0,-1,639466,219516,1297955,66360,8086,648851,0
0,-1,637866,218369,1292494,65955,8224,645338,0
0,-1,640868,219322,1339417,66237,8494,669720,0
0,-1,640449,219366,1315917,66267,8196,657957,0
0,-1,642738,219219,1294469,66211,7820,647242,0
0,-1,640446,218896,1326098,66114,8464,662872,0
0,-1,642863,218836,1420042,66106,8933,709995,0
0,-1,635884,218584,1164752,66015,7928,582385,0
0,-1,640711,219350,1288068,66313,8549,644078,0
0,-1,638123,219417,1284170,66257,8213,642101,0
0,-1,638784,218821,1292547,66069,7676,646154,0
0,-1,642310,219010,1265090,66213,8262,632538,0
0,-1,642181,219397,1606788,66302,10376,802564,0
0,-1,639433,219313,1264456,66226,7262,632143,0
0,-1,639219,218559,1189042,65993,7231,594543,0
0,-1,662083,223513,1342933,69432,8604,671472,0
0,-1,643878,220187,1203878,66727,7745,601976,0
0,-1,641950,219290,1297642,66271,8209,648812,0
0,-1,642449,219254,1276137,66162,8467,638065,0
0,-1,636875,218762,1455199,66056,9868,727582,0
0,-1,642672,219963,1202366,66644,7803,601314,0
0,-1,643644,220044,1247173,66587,8579,623614,0
0,-1,642770,220571,1269993,66713,8160,634878,0
0,-1,642671,220183,1226892,66635,8014,613478,0
0,-1,641730,219501,1261869,66160,7483,630906,0
0,-1,644395,218929,1255028,66043,7934,627480,0
0,-1,640946,219479,1310959,66178,8780,655571,0
0,-1,644615,218851,1324929,66089,8261,662516,0
0,-1,672555,229273,1306335,69267,7667,653221,0
0,-1,646029,220318,1298503,66530,8100,649135,0
0,-1,642423,220414,1294295,66648,7889,647181,0
0,-1,640153,219811,1321283,66485,7770,660599,0
0,-1,643808,220506,1293567,66720,7483,647047,0
0,-1,641623,219767,1273988,66442,8081,637043,0
0,-1,643396,220143,1315429,66460,8258,657758,0
0,-1,643565,220346,1283483,66609,7933,641420,0
0,-1,665404,224829,1361498,69880,8508,680850,0
0,-1,644680,220294,1339715,66597,7479,669792,0
0,-1,643477,219653,1382166,66368,8262,690645,0
0,-1,647222,221389,1192137,67171,7863,596077,0
0,-1,643177,219224,1364273,66074,7510,682126,0
0,-1,648888,221664,1316442,67149,8043,658110,0
0,-1,652036,221794,1266136,67075,8446,633164,0
0,-1,663653,224568,1342347,69523,8191,671192,0
0,-1,647073,221464,1243605,67128,7597,621867,0
0,-1,641087,219756,1295741,66285,7504,647946,0
0,-1,641887,219651,1184031,66314,6954,592044,0
0,-1,642373,219511,1363887,66243,7964,681984,0
0,-1,643689,221380,1276300,67148,7797,638310,0
0,-1,664636,224659,1319561,69723,8023,659797,0
0,-1,647651,220934,1278855,66733,7532,639478,0
0,-1,645889,220841,1238511,66905,7176,619324,0
0,-1,644228,219340,1214025,66157,7291,607063,0
0,-1,648523,220883,1197668,66862,7413,598867,0
0,-1,643501,219325,1235406,66117,7016,617720,0
0,-1,643725,220599,1323492,66682,7385,661798,0
0,-1,641473,219819,1310832,66272,8056,655441,0
0,-1,639582,219386,1415661,66252,8145,707895,0
0,-1,642474,219288,1222697,66216,7078,611406,0
0,-1,643999,219922,1304962,66447,7778,652552,0
0,-1,643314,220901,1256180,66846,7913,627992,0
0,-1,663668,224014,1350489,69413,8687,675195,0
0,-1,644555,220356,1218943,66490,7825,609637,0
0,-1,646069,220046,1241313,66371,7736,620698,0
0,-1,645994,220648,1194494,66852,7313,597260,0
0,-1,644518,219479,1140725,66177,7148,570391,0
0,-1,645908,219311,1205980,66096,7323,603032,0
0,-1,641616,219208,1326245,66052,7664,663069,0
0,-1,641501,218593,1220132,65892,7729,609974,0
0,-1,660779,223537,1502613,69438,9156,751308,0
0,-1,643043,219424,1302170,66398,7947,651100,0
0,-1,642979,218855,1229935,66288,7843,614909,0
0,-1,639824,218424,1213724,66091,7827,606817,0
0,-1,643554,218471,1242584,66153,7036,621197,0
0,-1,639898,218110,1173696,65988,7716,586665,0
0,-1,640455,218461,1186861,66134,8629,593451,0
0,-1,646751,220090,1323153,66898,8537,661518,0
0,-1,670126,225144,1395945,70677,9231,697890,0
0,-1,644926,218464,1234304,66138,9039,617036,0
0,-1,634069,218564,1193819,66175,7830,596870,0
0,-1,637232,218225,1214152,66074,8046,607024,0
0,-1,636748,218384,1221872,66095,7968,610874,0
0,-1,642809,221049,1307269,67131,8302,653776,0
1,-1,692969,236976,1356991,70595,7461,678551,0
1,-1,689689,239094,1405464,71575,8646,702652,2
1,-1,687635,237040,1292838,70655,8222,646091,0
1,-1,688862,236802,1353216,70568,8127,676571,0
1,-1,657005,223369,1400022,69086,8904,700080,0
1,-1,635849,218720,1107796,65729,6788,553928,0
1,-1,642725,221023,1272291,66661,7062,636170,0
1,-1,638098,218812,1196903,65603,6933,598489,0
1,-1,641667,221037,1280912,66675,7376,640536,0
1,-1,638319,219163,1306246,65862,7519,653168,0
1,-1,638669,218564,1214855,65652,7527,607343,0
1,-1,643357,221155,1372626,66828,7787,686241,0
1,-1,644474,220604,1364685,66421,8356,682222,0
1,-1,636342,218820,1182412,65742,6909,591247,0
1,-1,658886,223182,1296082,68919,7752,648250,0
1,-1,643013,221034,1329870,66757,8182,665005,0
1,-1,637369,218250,1208723,65502,7350,604405,0
1,-1,639551,219140,1209942,65917,7364,605028,0
1,-1,659030,224292,1349481,69202,8698,674724,0
1,-1,643827,220756,1308792,66467,7865,654433,0
1,-1,640999,219408,1293192,65882,8056,646647,0
1,-1,639423,219098,1279344,65721,7359,639697,0
1,-1,646706,221335,1427215,66787,7665,713551,0
1,-1,641744,219415,1303067,65916,7501,652031,0
1,-1,644013,219276,1248814,65832,8496,624338,0
1,-1,644076,221166,1451912,66893,9303,725934,0
1,-1,639134,219066,1321600,65914,7806,660826,0
1,-1,641427,219512,1222522,66112,7740,611352,0
1,-1,637734,218940,1380784,65951,8400,690124,0
1,-1,642963,220050,1194824,66285,8159,597466,0
1,-1,645241,218979,1340488,65918,7686,670194,0
1,-1,641398,219166,1304488,65947,8227,651949,0
1,-1,645678,221076,1284312,66886,7910,642110,0
1,-1,642387,220177,1309344,66513,8072,654673,0
1,-1,646059,220869,1249603,66832,8402,624674,0
1,-1,643572,219271,1264330,66040,8059,632240,0
1,-1,633492,219607,1156055,66134,7108,577990,0
1,-1,641548,221769,1430704,67122,8180,715369,0
1,-1,636849,219822,1354963,66211,8640,677511,0
1,-1,636590,219474,1292943,66015,7741,646518,0
1,-1,657149,224057,1326230,69300,7996,663125,0
1,-1,635264,219357,1293227,65977,6933,646667,0
1,-1,644459,220717,1365498,66604,8291,682814,0
1,-1,656980,223602,1245449,69116,8217,622743,0
1,-1,639032,220354,1276459,66419,7570,638291,0
1,-1,638044,219800,1196571,66095,7108,598303,0
1,-1,641849,221394,1298896,66903,7392,649497,0
1,-1,637413,219588,1176571,66046,7405,588338,0
1,-1,643850,221027,1392900,66736,7325,696522,0
1,-1,635679,219680,1159214,66015,7222,579665,0
1,-1,639774,219800,1195554,66093,6951,597784,0
1,-1,637948,219058,1206037,65821,6997,603068,0
1,-1,634006,218788,1329406,65723,7336,664715,0
1,-1,638476,219563,1206137,66030,7204,603059,0
1,-1,638120,219666,1296319,66021,7724,648178,0
1,-1,641550,219545,1199619,66031,6629,599858,0
1,-1,638765,219558,1293243,66007,7769,646657,0
1,-1,638774,218920,1314015,65814,7349,656865,0
1,-1,636130,218827,1141273,65736,7711,570500,0
1,-1,639563,218960,1308919,65731,8482,654456,0
1,-1,643959,219985,1283011,66081,7523,641590,0
1,-1,636398,220324,1316699,66461,7520,658174,0
1,-1,641904,220708,1302653,66381,7378,651256,0
1,-1,657535,223493,1266851,69058,8202,633531,0
1,-1,637324,219691,1340437,66018,7706,670245,0
1,-1,640693,219935,1194101,66143,6874,596966,0
1,-1,643138,220266,1258264,66234,7265,629161,0
1,-1,658972,224223,1254858,69320,8640,627442,0
1,-1,645375,221190,1324504,66665,8280,662196,0
1,-1,643673,220279,1234562,66113,7740,617286,0
1,-1,640460,219831,1455572,65970,7513,727853,0
1,-1,643035,219846,1201856,66005,7140,600890,0
1,-1,636929,219139,1305761,65703,7646,652851,0
1,-1,642171,221075,1267766,66578,7450,633922,0
1,-1,645157,221378,1284328,66851,7959,642189,0
1,-1,642819,220790,1291641,66398,7413,645765,0
1,-1,646261,220812,1295010,66488,8454,647515,0
1,-1,669829,226155,1295889,70426,8830,647810,0
1,-1,652176,222104,1272781,66937,8767,636180,0
1,-1,643440,220605,1210084,66115,7100,605095,0
1,-1,645484,220505,1317148,66082,8634,658615,0
1,-1,645969,220592,1260226,66167,8086,630195,0
1,-1,645952,220566,1223606,66178,7012,611852,0
1,-1,648881,221341,1321345,66713,8200,660741,0
1,-1,645518,220317,1226186,66182,7761,613139,0
1,-1,639433,219898,1422604,66002,8244,711118,0
1,-1,643763,222033,1311628,66943,8054,655865,0
1,-1,640054,219425,1303110,65908,8595,651587,0
1,-1,636456,218932,1341165,65703,8193,670637,0
1,-1,644463,221411,1277347,66792,8032,638846,0
1,-1,640564,219307,1181736,65809,8186,590904,0
1,-1,637981,219264,1281068,65921,7551,640589,0
1,-1,639194,219664,1323919,65979,7900,662007,0
1,-1,640071,218802,1282442,65700,8699,641134,0
1,-1,666252,224884,1289095,69429,9174,644556,0
1,-1,640220,218689,1432553,65692,8395,714730,0
1,-1,638397,220098,1264006,66369,7858,632028,0
1,-1,644315,221222,1282810,66726,8004,641606,0
1,-1,640991,219410,1322625,65842,8211,661183,0
1,-1,640977,219479,1294249,65858,7670,647080,0
1,-1,645560,221027,1339403,66517,8339,669236,0
1,-1,637333,219356,1360270,65657,7607,680364,0
1,-1,641028,219280,1294940,65596,7472,647465,0
1,-1,667712,227918,1195089,68136,8291,597534,0
1,-1,665754,224339,1395247,69150,9860,696815,0
1,-1,643135,219292,1303003,65722,9241,651372,0
1,-1,642689,218968,1220084,65669,8638,609873,0
1,-1,635420,219378,1295583,65809,7713,647814,0
1,-1,642738,220097,1366075,66170,8880,683054,0
1,-1,640629,219459,1430503,65822,8902,715235,0
1,-1,645211,221561,1292720,66683,7716,646244,0
1,-1,641040,219051,1356140,65711,9029,678117,0
1,-1,640564,219425,1204232,65824,7223,602156,0
1,-1,645510,220801,1305261,66546,8072,652644,0
1,-1,639871,218792,1196531,65562,7335,598310,0
1,-1,640029,218705,1304056,65584,7953,652077,0
1,-1,640007,219240,1212240,65766,6921,606148,0
1,-1,644292,219209,1366397,65712,8841,683202,0
1,-1,644644,218994,1389626,65682,9087,694767,0
1,-1,638057,218670,1362855,65525,8138,680674,0
1,-1,664695,224326,1310131,69218,8690,655045,0
1,-1,637903,218603,1176143,65597,7274,588107,0
1,-1,645506,221108,1203373,66532,7439,601728,0
1,-1,640024,218821,1462511,65570,9025,731296,0
1,-1,645893,221212,1300553,66517,7101,650039,0
1,-1,642665,219171,1224978,65632,7557,612423,0
1,-1,642236,218865,1282086,65551,7525,641090,0
1,-1,639203,218615,1345682,65457,7009,672888,0
1,-1,643010,219152,1333497,65668,7810,666798,0
1,-1,649676,220693,1246652,66402,7372,623129,0
1,-1,631848,218878,1239834,65305,7772,619979,0
1,-1,632645,218582,1118379,65230,7165,559168,0
1,-1,633154,218669,1173246,65207,7414,586613,0
1,-1,636495,219997,1211305,65562,8931,605612,0
1,-1,638081,219477,1344100,65435,8231,672012,0
1,-1,644916,221870,1301544,66646,7611,649686,0
1,-1,633170,218832,1177938,65270,7626,588944,0
1,-1,636661,218850,1310173,65258,8076,655168,0
1,-1,638306,219182,1173674,65407,7715,586859,0
1,-1,655527,223315,1442003,68527,8872,721026,0
1,-1,644760,220302,1292299,66853,9614,645948,0
1,-1,641896,219244,1371668,66299,10304,685873,0
1,-1,636207,218247,1281247,65873,7986,640651,0
1,-1,636849,218912,1334483,66140,8312,667244,0
1,-1,644593,220418,1250396,66776,7763,625215,0
1,-1,665874,227575,1336631,68692,7903,668144,0
1,-1,637571,218318,1286492,65919,7794,643220,0
1,-1,640855,218525,1292147,65994,8055,646171,0
1,-1,638824,218831,1237557,66092,7644,618724,0
1,-1,635762,218182,1205679,65842,7900,602843,0
1,-1,635960,218077,1381467,65750,8023,690765,0
1,-1,641887,219036,1276006,66113,7465,637977,0
1,-1,643609,220257,1329050,66822,8261,663772,0
1,-1,645922,220042,1263662,66695,7876,630696,0
1,-1,637715,219616,1276853,66404,8668,638423,0
1,-1,641316,220013,1202485,66643,7871,601191,0
1,-1,638401,218862,1271881,66086,7568,635848,0
1,-1,638853,219065,1274831,66140,7784,637467,0
1,-1,640067,219059,1334204,66215,8661,667199,0
1,-1,660467,223247,1363102,69332,9105,681612,0
1,-1,642858,220541,1205901,66928,8476,602818,0
1,-1,641023,219182,1292697,66248,7947,646308,0
1,-1,640594,219393,1244726,66316,7104,622207,0
1,-1,640448,219264,1373069,66222,8669,686451,0
1,-1,641312,219401,1199943,66463,7787,600067,0
1,-1,644073,219119,1226164,66053,7882,613021,0
1,-1,639072,219061,1251891,66130,8763,625914,0
1,-1,639368,219025,1300914,66172,8190,650631,0
1,-1,642696,219462,1354725,66257,8633,677371,0
1,-1,661428,224379,1437134,69570,10552,718365,0
1,-1,645104,219817,1292746,66284,7984,646029,0
1,-1,646380,220284,1234898,66639,7845,617365,0
1,-1,642655,218194,1301054,65781,8670,650405,0
1,-1,643977,220522,1226795,66703,8352,613298,0
1,-1,643797,219753,1211345,66532,7709,605398,0
1,-1,642923,219881,1293139,66535,8365,646629,0
1,-1,653636,221735,1232837,67245,7683,616629,0
1,-1,669210,224339,1339349,69724,8589,669666,0
1,-1,644173,221329,1240968,67317,7707,620567,0
1,-1,643778,219964,1309988,66519,7233,655042,0
1,-1,672264,231323,1252470,70191,7667,626303,0
1,-1,644490,220279,1311901,66557,8262,656002,0
1,-1,645278,221330,1249373,67081,7640,624773,0
1,-1,645847,220050,1350016,66488,7796,675031,0
1,-1,647842,222551,1223023,67662,7390,611620,0
1,-1,641579,219787,1295965,66346,8137,648149,0
1,-1,645083,219821,1363511,66441,8601,681829,0
1,-1,646149,220789,1358848,66679,8121,679471,0
1,-1,643505,219902,1308148,66370,7699,654025,0
1,-1,647398,220271,1193432,66295,7934,596731,0
1,-1,644031,220366,1206057,66433,6964,603206,0
1,-1,640866,219432,1341342,66169,7523,670706,0
1,-1,642234,220074,1269932,66403,8201,635004,0
1,-1,642744,219919,1343620,66357,8183,671814,0
1,-1,643303,219747,1375496,66344,8466,687805,0
1,-1,661366,224413,1387949,69677,8810,693974,0
1,-1,641512,219536,1293484,66278,7836,646790,0
1,-1,644555,220033,1187145,66438,7352,593624,0
1,-1,642754,219868,1214286,66262,7262,607185,0
1,-1,647218,220347,1398061,66527,8079,699087,0
1,-1,647546,220805,1245417,66674,8034,622774,0
1,-1,647677,220235,1315896,66385,7418,657903,0
1,-1,643186,220308,1281881,66483,7857,640993,0
1,-1,644366,220658,1366384,66582,7790,683239,0
1,-1,639926,219896,1222334,66443,7469,611221,0
1,-1,649201,221878,1156289,67352,7735,578212,0
1,-1,650879,221543,1319165,67262,7785,659624,0
1,-1,644982,219406,1265488,66142,7774,632799,0
1,-1,641799,219920,1322071,66296,8102,660992,0
1,-1,641841,219400,1308962,66124,8009,654519,0
1,-1,642596,218813,1353718,65946,7395,676807,0
1,-1,662961,223987,1321688,69440,8661,660816,0
1,-1,642017,219280,1219571,66131,7685,609841,0
1,-1,647615,219796,1300138,66299,8227,650136,0
1,-1,643257,219367,1352040,66155,8402,676053,0
1,-1,644744,220625,1223667,66931,7782,612051,0
1,-1,647229,220280,1283153,66746,8163,641479,0
1,-1,645958,220753,1252226,67135,8521,625995,0
1,-1,647357,219761,1390251,66748,9009,695022,0
1,-1,641650,219715,1217182,66686,8549,608594,0
1,-1,643106,219083,1298758,66280,7000,649626,0
1,-1,645170,219020,1209431,66319,8271,604642,0
1,-1,667315,223047,1378452,69444,9494,689092,0
1,-1,641992,218735,1277633,66183,8448,638785,0
1,-1,643600,219013,1187567,66350,7862,593825,0
1,-1,645002,218578,1318898,66151,8256,659162,0
1,-1,634653,218525,1206583,66153,7514,603283,0
1,-1,638428,218881,1299961,66291,7923,649942,0
1,-1,635294,218007,1215005,65952,8400,607380,0
1,-1,638330,219049,1203600,66201,8019,601812,0
2,-1,687798,236218,1265127,70305,6815,632604,0
2,-1,688177,237402,1357450,70725,8566,678761,0
2,-1,693660,238601,1381860,71348,9053,690941,0
2,-1,690046,237968,1279665,70981,7918,639802,2
2,-1,636910,218971,1222580,65868,7919,610178,0
2,-1,633250,218137,1182191,65485,6698,591061,0
2,-1,635587,218513,1321646,65535,6395,660870,0
2,-1,638410,218715,1349754,65533,7849,674919,0
2,-1,635947,219340,1264703,65917,7106,632406,0
2,-1,640894,218848,1276198,65604,8092,638131,0
2,-1,637660,218428,1313304,65578,8107,656698,0
2,-1,658270,223046,1317879,68976,8816,658873,0
2,-1,641642,218523,1308992,65507,7581,654073,0
2,-1,633150,218448,1296742,65683,7303,648421,0
2,-1,635719,218431,1285931,65574,7782,643015,0
2,-1,657934,222951,1358825,68890,8605,679452,0
2,-1,639361,218944,1191887,65794,7046,595987,0
2,-1,640516,219226,1347153,65932,7970,673612,0
2,-1,636863,219592,1290941,65902,7209,645314,0
2,-1,639292,219341,1235413,65824,7926,617732,0
2,-1,642040,220353,1289487,66391,8328,644162,0
2,-1,642513,220347,1276400,66120,7431,637541,0
2,-1,640312,219374,1468413,65909,7417,734294,0
2,-1,641830,219286,1303707,65825,7932,651854,0
2,-1,642411,219039,1249850,65801,8767,624723,0
2,-1,641936,220641,1355038,66569,8727,677574,0
2,-1,645280,221583,1326817,67047,8701,663443,0
2,-1,643097,220159,1382659,66503,8661,691376,0
2,-1,641120,219379,1267932,66059,8053,634021,0
2,-1,638949,218798,1247634,65806,7798,623860,0
2,-1,664878,224159,1292976,69439,8895,646547,0
2,-1,645720,220842,1302990,66751,8621,651438,0
2,-1,641886,219190,1363388,66013,8112,681699,0
2,-1,639973,219527,1209800,66120,7700,604924,0
2,-1,663162,224099,1235140,69435,8645,617543,0
2,-1,642703,219357,1298113,66014,7767,649018,0
2,-1,637949,219219,1193407,66007,6594,596716,0
2,-1,657437,224248,1265635,69448,8269,632826,0
2,-1,660409,223866,1238160,69311,8599,619076,0
2,-1,636176,218583,1183745,65748,7272,591966,0
2,-1,639172,219861,1264552,66084,7100,632407,0
2,-1,636616,219737,1305320,66054,7145,652736,0
2,-1,640150,219434,1235753,66006,7227,617837,0
2,-1,638994,219969,1280510,66160,7169,640320,0
2,-1,636479,219714,1170484,66080,6552,585283,0
2,-1,639918,220562,1316156,66532,8245,658143,0
2,-1,643199,219809,1240076,66051,7603,620095,0
2,-1,642853,220229,1316589,66241,6744,658356,0
2,-1,666397,225360,1260605,70204,8246,630289,0
2,-1,656021,223913,1184623,69235,7278,592385,0
2,-1,639633,219489,1281781,65874,6985,640900,0
2,-1,643929,221311,1330173,66766,7804,665272,0
2,-1,662643,224087,1263649,69236,8552,631822,0
2,-1,641126,220675,1294452,66535,7916,647184,0
2,-1,640148,219545,1226459,65986,8026,613273,0
2,-1,645099,221739,1285539,66996,7319,642712,0
2,-1,638870,219584,1317521,65973,7958,658663,0
2,-1,640374,219526,1219285,66014,7894,609600,0
2,-1,646673,221360,1232717,66875,8419,616188,0
2,-1,646268,221542,1391506,66999,8827,695690,0
2,-1,638962,218764,1178054,65712,7338,589066,0
2,-1,644716,218940,1301912,65768,7772,650999,0
2,-1,637303,219364,1462177,65975,9710,731103,0
2,-1,636757,219099,1269447,65855,7361,634665,0
2,-1,641347,219631,1333817,65960,7786,666947,0
2,-1,640461,220013,1222613,66175,6915,611335,0
2,-1,639451,219837,1233702,66026,6783,616892,0
2,-1,637859,219921,1335550,66148,9007,667699,0
2,-1,639763,219529,1326701,65846,7701,663434,0
2,-1,642383,220142,1221579,66054,7737,610727,0
2,-1,645242,221640,1362639,66915,8267,680869,0
2,-1,642768,219932,1229970,66018,6925,615005,0
2,-1,655657,223874,1269028,69083,7519,634564,0
2,-1,640615,220230,1181691,66142,7024,590778,0
2,-1,638129,219129,1285572,65839,6534,642742,0
2,-1,643305,220810,1221916,66458,7070,610947,0
2,-1,641786,219543,1212537,66023,7625,606110,0
2,-1,646205,221127,1346158,66710,7320,673052,0
2,-1,669107,225274,1245557,69475,9085,622715,0
2,-1,645710,221083,1156805,66372,7595,578454,0
2,-1,648060,222159,1334261,66953,7550,667198,0
2,-1,643858,220033,1187639,65930,7446,593664,0
2,-1,646236,220288,1313397,66055,7721,656733,0
2,-1,644296,219884,1376120,65925,8345,688116,0
2,-1,654234,222504,1231909,67146,8676,615880,0
2,-1,640716,220134,1228525,65979,8183,614318,0
2,-1,644808,220467,1428401,66164,8971,714247,0
2,-1,639085,219481,1270018,65875,8129,635045,0
2,-1,661644,224774,1272280,69461,8467,636127,0
2,-1,638423,219115,1290385,65770,7546,645251,0
2,-1,641456,220138,1162485,66106,7581,581245,0
2,-1,640098,220074,1362881,66130,7685,681261,0
2,-1,641840,219940,1339720,66137,8133,669916,0
2,-1,641196,219543,1338026,65924,9465,668930,0
2,-1,641465,219453,1322270,65866,8343,661182,0
2,-1,641510,218900,1298942,65719,8377,649497,0
2,-1,636760,219159,1317971,65822,7941,659010,0
2,-1,660476,223653,1295717,69052,8867,647850,0
2,-1,642078,219281,1215839,65850,7849,607974,0
2,-1,646450,221383,1320236,66737,8636,660043,0
2,-1,665709,225200,1343190,69366,9298,671194,0
2,-1,649024,221289,1295414,66650,7923,647638,0
2,-1,642151,219608,1207477,65722,7637,603776,0
2,-1,642262,220122,1206153,65905,8433,603000,0
2,-1,642971,219317,1294838,65667,9115,647325,0
2,-1,646662,220444,1270293,66341,8241,635089,0
2,-1,641719,218994,1150573,65617,7474,575378,0
2,-1,635561,218640,1413263,65514,7792,706696,0
2,-1,639740,219520,1358852,65850,8682,679206,0
2,-1,642197,220467,1201269,66143,7240,600564,0
2,-1,636969,218807,1190690,65587,7739,595304,0
2,-1,644708,220939,1289350,66531,8246,644697,0
2,-1,642050,219400,1307598,65855,8086,653848,0
2,-1,641203,218803,1212318,65598,8130,606188,0
2,-1,641658,219628,1287153,65835,8277,643628,0
2,-1,643730,220100,1410038,65995,8521,705074,0
2,-1,637667,218539,1327442,65486,7705,663767,0
2,-1,640669,218775,1217697,65595,7180,608744,0
2,-1,642919,219182,1139037,65784,7828,569557,0
2,-1,637624,218475,1215304,65482,7209,607648,0
2,-1,641134,219508,1291853,65837,7870,645970,0
2,-1,641030,218200,1233454,65320,8024,616754,0
2,-1,640773,219188,1264500,65716,7778,632282,0
2,-1,647795,221133,1356424,66637,10090,677696,0
2,-1,639838,219204,1584522,65723,8581,792148,0
2,-1,643064,219188,1125784,65668,7173,562698,0
2,-1,643268,219705,1232903,65846,6920,616499,0
2,-1,644696,219539,1284957,65743,7487,642509,0
2,-1,642367,218892,1334405,65532,7610,667014,0
2,-1,642812,218666,1236867,65500,6795,618488,0
2,-1,636005,219471,1215096,65428,7207,607600,0
2,-1,653387,223374,1343752,68573,8902,671894,0
2,-1,633260,218614,1318282,65137,8264,659153,0
2,-1,637202,218241,1247827,65038,7943,624029,0
2,-1,635243,218891,1384345,65255,8259,692072,0
2,-1,661552,224291,1348755,69324,9011,674191,0
2,-1,631969,218773,1285408,65276,8066,642704,0
2,-1,634378,218396,1329341,65180,7890,664867,0
2,-1,635350,218089,1307906,64904,7979,653949,0
2,-1,635165,219250,1272220,65430,8132,636182,0
2,-1,661527,223404,1310227,69436,9970,655105,0
2,-1,644782,220898,1259630,67129,9098,629707,0
2,-1,643375,219060,1307528,66159,8588,653696,0
2,-1,641944,219394,1209607,66270,8426,604723,0
2,-1,640141,219278,1325814,66304,7879,662741,0
2,-1,644819,220634,1210215,66873,7412,605082,0
2,-1,645070,221102,1228639,67152,7251,613882,0
2,-1,641657,219165,1236500,66275,7897,618186,0
2,-1,644886,219881,1293587,66493,8334,646861,0
2,-1,639897,219699,1278710,66438,8072,639083,0
2,-1,641444,218866,1362364,66074,8594,681230,0
2,-1,641765,219276,1137641,66230,7368,568740,0
2,-1,659937,223160,1418374,69353,9223,709152,0
2,-1,642667,219063,1348027,66160,8163,674022,0
2,-1,644406,219089,1378603,66246,8234,689249,0
2,-1,636750,218264,1367961,65893,8904,683173,0
2,-1,637866,218571,1211459,65995,7785,605721,0
2,-1,639637,219292,1185066,66265,7260,592490,0
2,-1,636471,218200,1258041,65873,7747,629013,0
2,-1,640214,218804,1275695,66087,7240,637894,0
2,-1,637375,218554,1337040,66009,8743,668457,0
2,-1,642183,220044,1189112,66708,7346,594724,0
2,-1,637095,218411,1184405,65918,7649,592123,0
2,-1,642985,220524,1196450,66914,7546,598088,0
2,-1,641946,218878,1304586,66112,7854,652252,0
2,-1,642571,219153,1291054,66056,9093,645507,0
2,-1,649157,220774,1210806,66796,7922,605226,0
2,-1,640319,219471,1233206,66368,7675,616585,0
2,-1,639749,218867,1239316,66039,7892,619698,0
2,-1,644205,219140,1281220,66046,8901,640054,0
2,-1,646696,220875,1175892,66900,8391,587774,0
2,-1,642736,219216,1286521,66101,7558,643245,0
2,-1,644483,219347,1292610,66133,8215,646269,0
2,-1,643075,218993,1352255,65978,8612,676175,0
2,-1,640302,218463,1189152,65917,7525,594626,0
2,-1,650164,221075,1304509,67152,8346,652082,0
2,-1,648321,220251,1328390,66565,7942,664183,0
2,-1,651130,221053,1179973,67044,8372,590047,0
2,-1,660107,224200,1365134,69775,8441,682567,0
2,-1,646587,221285,1308944,67189,6965,654534,0
2,-1,662192,224429,1385338,69683,8582,692718,0
2,-1,647416,222010,1312527,67482,7859,656345,0
2,-1,644492,220617,1175336,66655,7143,587715,0
2,-1,644504,220177,1313626,66569,7633,656797,0
2,-1,663085,224916,1370762,69925,7896,685250,0
2,-1,642546,220215,1308816,66560,8601,654421,0
2,-1,644627,219621,1346476,66342,7972,673275,0
2,-1,645210,220406,1174797,66487,7485,587427,0
2,-1,647635,221573,1226523,67079,7692,613169,0
2,-1,646220,220250,1392018,66339,8090,696046,0
2,-1,643145,220752,1251309,66509,6755,625691,0
2,-1,645104,220854,1345519,66609,8157,672804,0
2,-1,641375,219535,1189297,66170,7402,594699,0
2,-1,646966,221408,1236798,67018,6685,618476,0
2,-1,648085,220997,1218796,66972,8248,609444,0
2,-1,649015,220943,1168253,66909,8428,584190,0
2,-1,643082,219217,1397656,66122,7844,699003,0
2,-1,641315,219289,1264446,66211,8003,632272,0
2,-1,642998,220335,1304511,66521,7788,652317,0
2,-1,644154,219491,1386881,66195,8392,693431,0
2,-1,642745,219223,1253033,66115,8002,626574,0
2,-1,647083,220432,1309588,66645,7755,654834,0
2,-1,643932,220712,1300121,66687,8143,650156,0
2,-1,642722,220002,1305221,66395,8311,652655,0
2,-1,646215,220123,1310116,66534,8326,655111,0
2,-1,642237,219496,1141524,66350,7083,570810,0
2,-1,644807,219571,1289359,66227,7129,644666,0
2,-1,669778,225469,1364425,69943,8399,682217,0
2,-1,644766,219991,1297534,66400,7993,648825,0
2,-1,642876,219942,1268766,66326,7685,634426,0
2,-1,643145,219491,1283513,66220,7166,641641,0
2,-1,642810,219329,1277922,66154,8244,639067,0
2,-1,649468,221118,1219105,67017,7513,609629,0
2,-1,669572,224449,1441395,69620,8275,720737,0
2,-1,645846,220868,1228356,66842,7072,614146,0
2,-1,639853,218455,1321008,65840,8246,660492,0
2,-1,644877,219618,1255898,66293,7559,627828,0
2,-1,663371,223301,1252144,69418,8576,626058,0
2,-1,641461,218379,1216191,66064,8087,607972,0
2,-1,643200,219503,1232890,66479,7995,616393,0
2,-1,647611,220669,1409112,67141,7926,704627,0
2,-1,641580,218706,1382076,66214,8249,690845,0
2,-1,646593,219379,1198095,66456,7614,598939,0
2,-1,641409,217900,1246841,65928,8403,623466,0
2,-1,642230,218769,1281929,66134,8144,640953,0
2,-1,643254,218318,1364468,66097,8789,682373,0
2,-1,640151,220697,1366523,67048,8075,683295,0
2,-1,637389,218313,1220950,65983,8321,610267,0
2,-1,640690,220518,1319384,67089,8517,659383,0
2,-1,636337,218515,1303090,65994,8354,651544,0
2,-1,636382,218419,1218448,65936,8064,609300,0
3,-1,713938,241970,1373467,74044,9069,686768,0
3,-1,685462,236851,1356868,70561,8511,678409,0
3,-1,689560,237647,1358800,70815,8437,679238,0
3,-1,682178,235294,1324087,70149,8435,661901,2
3,-1,656244,226391,1314013,67839,8393,656921,0
3,-1,628538,216515,1191963,65025,7046,596033,0
3,-1,640348,220607,1308056,66453,6659,654079,0
3,-1,638272,219178,1175042,65787,7268,587579,0
3,-1,633643,218485,1234469,65608,6775,617293,0
3,-1,641213,219534,1192086,65866,7040,596123,0
3,-1,641191,219253,1206955,65942,6967,603531,0
3,-1,637199,218472,1318491,65588,7561,659288,0
3,-1,648826,221968,1359979,66926,8849,679333,0
3,-1,634404,218796,1297993,65770,7412,649048,0
3,-1,638356,219331,1200186,65914,7023,600104,0
3,-1,636718,218485,1208152,65698,7493,604124,0
3,-1,636490,218345,1229874,65592,6541,614973,0
3,-1,641457,218811,1203587,65833,7549,601657,0
3,-1,635147,218662,1418541,65511,7600,709298,0
3,-1,636573,218626,1238539,65565,6902,619310,0
3,-1,635811,218748,1200422,65674,7332,600255,0
3,-1,643513,219176,1399096,65683,9095,699380,0
3,-1,643100,220220,1266820,66165,7844,633415,0
3,-1,647176,221954,1474029,67017,8830,735780,0
3,-1,643221,219652,1192044,66026,8443,596386,0
3,-1,645487,221866,1319963,67068,8686,659886,0
3,-1,637202,218852,1342704,65845,7591,671426,0
3,-1,641095,219085,1307577,65951,8300,653615,0
3,-1,639561,218938,1211242,65815,7446,605649,0
3,-1,641771,219460,1356365,66049,8361,678215,0
3,-1,645545,220436,1320003,66588,7621,660060,0
3,-1,668559,228815,1341202,68818,8563,670608,0
3,-1,643413,220011,1392969,66223,8722,696493,0
3,-1,638313,218875,1268690,65842,7807,634373,0
3,-1,642010,219343,1261007,66065,7725,630550,0
3,-1,646982,221599,1349186,67150,8326,674590,0
3,-1,645409,218908,1291525,65873,7541,645757,0
3,-1,638713,219888,1210828,66240,7605,605401,0
3,-1,637882,219323,1289551,66041,7638,644813,0
3,-1,641414,221038,1312980,66883,8060,656230,0
3,-1,638896,220416,1313136,66511,7828,656628,0
3,-1,645907,221777,1422421,67077,7501,711287,0
3,-1,639765,219244,1289357,65882,7311,644729,0
3,-1,637101,219281,1319608,65885,7328,659747,0
3,-1,638394,218927,1174024,65768,6525,587060,0
3,-1,641266,219842,1330802,66132,8115,665435,0
3,-1,640960,220086,1296858,66325,7066,648450,0
3,-1,644954,221539,1274520,66992,7012,637268,0
3,-1,639468,219506,1285152,66025,6826,642619,0
3,-1,644114,219695,1195017,66089,7615,597549,0
3,-1,639416,219673,1296300,66016,7165,648192,0
3,-1,637878,219325,1202986,65962,7302,601547,0
3,-1,640812,219539,1316258,66007,7835,658164,0
3,-1,641570,220004,1429154,66092,7936,714502,0
3,-1,640826,219651,1247255,66063,8408,623680,0
3,-1,641166,219474,1322947,65969,7961,661516,0
3,-1,640372,220674,1321419,66549,8327,660552,0
3,-1,638015,219183,1576852,65897,9812,787960,0
3,-1,639311,218926,1256056,65712,7461,628018,0
3,-1,637402,218271,1327364,65655,8101,663494,0
3,-1,640191,219108,1458323,65797,8048,729171,0
3,-1,644655,219576,1301858,66002,7972,650962,0
3,-1,635884,219412,1358375,65996,7808,679246,0
3,-1,638043,219524,1214708,66034,7749,607364,0
3,-1,644641,221543,1330607,66885,7675,665365,0
3,-1,641392,219983,1303236,66115,8404,651654,0
3,-1,639915,219385,1155801,65935,7080,577941,0
3,-1,638379,219473,1206769,66015,7334,603128,0
3,-1,639675,219600,1156312,65925,7908,578214,0
3,-1,641629,219764,1221688,65910,7516,610832,0
3,-1,639043,219175,1224210,65762,6992,612086,0
3,-1,662072,223997,1272118,69070,8126,635983,0
3,-1,644530,219870,1258736,65993,7898,629300,0
3,-1,637719,219378,1258338,65789,7339,629148,0
3,-1,644991,221404,1300627,66921,7835,650233,0
3,-1,667672,224731,1387772,69472,8627,694040,0
3,-1,642104,220303,1243962,66180,7635,621964,0
3,-1,645149,220480,1255036,66334,7654,627449,0
3,-1,647081,220400,1398685,66051,8054,698896,0
3,-1,642864,220279,1238099,66016,7908,619078,0
3,-1,645623,220435,1207263,66065,7543,603683,0
3,-1,645499,221081,1241931,66460,7973,620897,0
3,-1,667640,225204,1383238,69474,8514,691568,0
3,-1,649254,221659,1401615,66891,8853,700896,0
3,-1,648648,220654,1344417,66247,8856,672252,0
3,-1,640744,220215,1172595,66076,7745,586277,0
3,-1,644984,221021,1296741,66529,8557,648424,0
3,-1,662095,224685,1218011,69405,7994,609062,0
3,-1,637806,219078,1215835,65751,7977,607923,0
3,-1,645210,221614,1308448,66895,7498,654104,0
3,-1,640481,218598,1147274,65547,7541,573691,0
3,-1,636829,219106,1322833,65791,7364,661467,0
3,-1,639474,219054,1244516,65798,7256,622302,0
3,-1,640427,219270,1168458,65767,8262,584336,0
3,-1,638745,218820,1218492,65634,7556,608784,0
3,-1,639173,218317,1268739,65533,7919,634416,0
3,-1,640555,221120,1291328,66764,7945,645580,0
3,-1,642150,220425,1312033,66213,7999,656048,0
3,-1,640383,218998,1335257,65708,8047,667595,0
3,-1,639487,219478,1159064,65807,7915,579591,0
3,-1,640312,219350,1384992,65628,8387,692452,0
3,-1,644186,219744,1288767,65829,8017,644376,0
3,-1,641436,219367,1278787,65544,7882,639398,0
3,-1,642567,219570,1136954,65802,8148,568389,0
3,-1,642758,219536,1359038,65783,9269,679436,0
3,-1,642430,219175,1373973,65684,9222,687028,0
3,-1,642377,219005,1228658,65689,8680,614256,0
3,-1,645591,219067,1298951,65666,7572,649407,0
3,-1,637517,218932,1178139,65671,7637,589061,0
3,-1,637565,218672,1269193,65533,8531,634525,0
3,-1,666369,228328,1309168,68403,9036,654722,0
3,-1,640213,219773,1291472,65967,7775,644629,0
3,-1,644765,220961,1228412,66501,7650,614234,0
3,-1,646477,221005,1288906,66513,8019,644448,0
3,-1,641974,220614,1306885,66488,7393,653246,0
3,-1,644578,220129,1227250,66042,7952,613618,0
3,-1,641329,219179,1205039,65743,7487,602423,0
3,-1,643073,219668,1275284,65922,8075,637692,0
3,-1,641723,218899,1288267,65612,8120,644181,0
3,-1,638484,219118,1297958,65757,7620,649093,0
3,-1,640628,220174,1276745,66065,7881,638381,0
3,-1,647287,220569,1286930,66382,7877,643508,0
3,-1,643341,219149,1303165,65686,7980,651655,0
3,-1,640804,218836,1140090,65565,7438,570043,0
3,-1,639173,219227,1214953,65700,7392,607111,0
3,-1,641760,219136,1306645,65667,7082,653429,0
3,-1,640078,218595,1159144,65440,6886,579617,0
3,-1,665666,223556,1421090,68869,8700,710605,0
3,-1,643950,220109,1380871,66100,7474,690293,0
3,-1,643375,218704,1180660,65572,6295,590026,0
3,-1,633728,219016,1203383,65345,6825,601678,0
3,-1,636003,218785,1184287,65182,6809,592175,0
3,-1,656707,223408,1363065,68566,8561,681515,0
3,-1,638401,219227,1171484,65384,8136,585730,0
3,-1,636779,218847,1307443,65339,7703,652863,0
3,-1,636500,218756,1269844,65280,7679,634865,0
3,-1,637443,220648,1197377,66070,7343,598748,0
3,-1,634020,218491,1346260,65102,8407,673112,0
3,-1,633367,218140,1144570,65004,7949,572254,0
3,-1,638777,219918,1300437,65644,7755,650247,0
3,-1,643376,220172,1148534,66792,8152,574312,0
3,-1,660551,223372,1357680,69413,9507,678756,0
3,-1,642041,218831,1266023,66084,8625,632915,0
3,-1,661198,223566,1437596,69502,8994,718792,0
3,-1,643780,221499,1519752,67373,10062,759751,0
3,-1,640776,219255,1383525,66235,7589,691650,0
3,-1,640641,219640,1212157,66419,7931,606020,0
3,-1,640879,219245,1295962,66227,8367,647972,0
3,-1,643156,219761,1266619,66638,7235,632560,0
3,-1,640459,219826,1217706,66653,7205,608884,0
3,-1,639985,218851,1332266,66112,8681,666171,0
3,-1,639495,218440,1242909,65916,8717,621385,0
3,-1,638735,218828,1322415,66144,8325,661171,0
3,-1,645386,220451,1222637,66603,8218,611320,0
3,-1,647300,220063,1210481,66735,8397,605210,0
3,-1,642319,220630,1210968,66968,8125,605359,0
3,-1,639548,219591,1269125,66371,8371,634659,0
3,-1,636921,218601,1300248,66004,7570,650087,0
3,-1,639084,218632,1350159,65965,8562,675086,0
3,-1,638838,218663,1382489,66004,8212,691053,0
3,-1,643966,219458,1172919,66366,8145,586542,0
3,-1,639438,218967,1173080,66167,7581,586561,0
3,-1,640923,219177,1302832,66145,8319,651409,0
3,-1,666509,228490,1294501,68994,8095,647270,0
3,-1,638229,217830,1317289,65759,7364,658743,0
3,-1,668140,225011,1279998,70314,9904,640088,0
3,-1,646154,220025,1503168,66445,10175,751015,0
3,-1,636854,218592,1312810,65945,7829,656051,0
3,-1,641889,219569,1332842,66185,8505,666425,0
3,-1,645297,219939,1289181,66328,9052,644342,0
3,-1,640964,219206,1699204,66141,10017,849595,0
3,-1,640868,218518,1239797,65758,8473,619933,0
3,-1,642613,218923,1308881,66043,8446,654396,0
3,-1,643710,220159,1149535,66502,7825,574682,0
3,-1,643927,220206,1275673,66445,8172,637872,0
3,-1,667546,223919,1372428,69605,10059,686267,0
3,-1,647565,220033,1459988,66546,8593,730013,0
3,-1,667926,224787,1273301,69879,9334,636516,0
3,-1,640494,219313,1195116,66338,7124,597608,0
3,-1,642068,219806,1390988,66512,7718,695288,0
3,-1,641018,220008,1329264,66497,7152,664703,0
3,-1,662832,224409,1417702,69740,9518,708888,0
3,-1,661871,224685,1294580,69761,10112,647243,0
3,-1,646800,221047,1352489,66828,7854,676319,0
3,-1,640842,220294,1374315,66561,7495,687210,0
3,-1,641808,220049,1301435,66550,8045,650760,0
3,-1,664972,224818,1379421,69868,9122,689708,0
3,-1,643060,219910,1253217,66460,8009,626529,0
3,-1,643242,220156,1314304,66433,7767,657180,0
3,-1,667968,224850,1377184,69694,9259,688588,0
3,-1,646257,222501,1210957,67472,7803,605278,0
3,-1,642273,219534,1303753,66183,7692,651917,0
3,-1,660213,224078,1271762,69500,9491,635758,0
3,-1,640516,218950,1313297,66040,7298,656254,0
3,-1,644746,219912,1278574,66352,7901,639328,0
3,-1,644177,219957,1158905,66360,7627,579497,0
3,-1,646971,221389,1338664,67156,7789,669394,0
3,-1,662891,224015,1316210,69521,8011,658145,0
3,-1,641273,219591,1269460,66256,7808,634788,0
3,-1,647080,221020,1339585,67031,8180,669729,0
3,-1,644704,219533,1199661,66234,7043,599853,0
3,-1,648906,220268,1392579,66469,8139,696320,0
3,-1,645827,220634,1219490,66613,8272,609850,0
3,-1,663108,224768,1250409,69785,8574,625181,0
3,-1,645356,219539,1297242,66291,8565,648672,0
3,-1,646266,221046,1330836,66836,7563,665465,0
3,-1,643462,219722,1234039,66396,7194,617046,0
3,-1,646256,220406,1189390,66491,6712,594749,0
3,-1,647439,221118,1329272,66920,7810,664689,0
3,-1,665918,224539,1404107,69633,9156,702101,0
3,-1,645221,220330,1213551,66604,7641,606823,0
3,-1,640757,219170,1328209,66102,8233,664153,0
3,-1,668234,224609,1332234,69666,8367,666185,0
3,-1,644167,219253,1313632,66075,7942,656853,0
3,-1,639260,219229,1215145,66069,7537,607630,0
3,-1,642934,220274,1333585,66684,8219,666722,0
3,-1,642174,219092,1349018,66171,7488,674477,0
3,-1,642902,219323,1149131,66364,7906,574533,0
3,-1,661696,222811,1341954,69298,8810,671065,0
3,-1,638340,218144,1148520,65980,7217,574142,0
3,-1,642370,218366,1303129,66051,8387,651565,0
3,-1,646420,220310,1293397,67034,8176,646708,0
3,-1,643225,218434,1311818,66076,7592,655874,0
3,-1,647423,220653,1371760,67128,8640,685915,0
3,-1,648981,220652,1321424,67040,8393,660678,0
3,-1,643458,218384,1187280,66072,7618,593625,0
3,-1,636702,219668,1350127,66518,7946,674952,0
3,-1,636420,218529,1208663,66137,7719,604209,0
3,-1,661798,224181,1387659,69800,9106,693724,0
3,-1,637082,219157,1214335,66275,8044,607170,0
3,-1,643812,221143,1478207,67139,9626,738186,0
4,-1,691594,237335,1247750,70761,7666,623889,0
4,-1,697766,238732,1520943,71388,8530,760486,0
4,-1,686074,236757,1228763,70567,7815,614457,0
4,-1,709004,241420,1407187,73922,9179,703364,0
4,-1,637733,218837,1275547,65672,8057,637417,0
4,-1,638325,219009,1254280,65763,7390,627191,0
4,-1,636066,219348,1261214,65870,6788,630666,2
4,-1,640582,219546,1191670,65873,7713,595870,0
4,-1,639380,218017,1223509,65449,7730,611787,0
4,-1,634973,218217,1200095,65397,7200,600100,0
4,-1,638597,219089,1330325,65846,7816,665203,0
4,-1,661828,224156,1286228,69259,8313,642911,0
4,-1,640073,218838,1414630,65794,7277,707323,0
4,-1,655316,223375,1300111,68935,8136,650092,0
4,-1,638975,219984,1296543,66301,7768,648248,0
4,-1,636188,218282,1229590,65565,7600,614844,0
4,-1,634660,218384,1193716,65547,6573,596902,0
4,-1,642405,219820,1248033,66066,7099,624111,0
4,-1,642850,219903,1318872,66088,7553,659492,0
4,-1,687050,232700,1403938,71781,8281,701775,0
4,-1,640611,219074,1320184,65815,7825,660140,0
4,-1,645819,220473,1340527,66143,7892,670142,0
4,-1,644118,220676,1343416,66500,8356,671805,0
4,-1,663188,224072,1345957,69208,9136,672695,0
4,-1,642025,219227,1382048,65825,8290,691061,0
4,-1,637724,219278,1460440,65939,8466,730098,0
4,-1,637938,219127,1310141,65935,8152,655150,0
4,-1,641149,219324,1287256,66060,9228,643828,0
4,-1,641964,220013,1215281,66254,7646,607552,0
4,-1,640282,218615,1300029,65771,7958,649863,0
4,-1,641616,219041,1198017,65957,6658,599062,0
4,-1,639027,219176,1218159,66008,7446,608858,0
4,-1,643636,220378,1306468,66596,8064,653213,0
4,-1,645384,219447,1308625,66051,7359,654287,0
4,-1,639246,218739,1263675,65831,7592,631829,0
4,-1,661055,223841,1274011,69333,8482,637150,0
4,-1,664246,223580,1279510,69209,8519,639763,0
4,-1,638358,220302,1301474,66545,7872,650728,0
4,-1,637018,219375,1278886,66000,7877,639447,0
4,-1,656642,223365,1273784,69170,8910,636845,0
4,-1,656667,224184,1239103,69389,8070,619513,0
4,-1,660733,224159,1279092,69306,7812,639421,0
4,-1,639323,219407,1279462,65967,7076,639843,0
4,-1,638246,220098,1219929,66210,7034,610015,0
4,-1,657818,223499,1250885,69070,7556,625465,0
4,-1,637325,218878,1230032,65773,6525,615216,0
4,-1,641007,220330,1338872,66272,7631,669472,0
4,-1,640303,219915,1300624,66161,7326,650368,0
4,-1,640347,219454,1311636,65970,7683,655874,0
4,-1,640662,218772,1201957,65689,7812,600984,0
4,-1,638046,219627,1330594,66059,8135,665341,0
4,-1,637425,219087,1290151,65864,7596,645121,0
4,-1,640421,219749,1337754,66021,8071,668918,0
4,-1,639087,219381,1309920,65919,7453,655011,0
4,-1,638377,219103,1218696,65820,7172,609355,0
4,-1,641190,219475,1356574,65961,7681,678333,0
4,-1,640693,220281,1219560,66221,7898,609689,0
4,-1,639009,219356,1207147,65918,7493,603200,0
4,-1,641355,219653,1548698,66095,9914,773574,0
4,-1,639331,219349,1260175,65858,8094,630073,0
4,-1,639284,219057,1333022,65763,8060,666524,0
4,-1,643112,219430,1218289,65944,7760,609187,0
4,-1,637871,219313,1172855,65957,7239,586482,0
4,-1,637060,219596,1272167,65990,7250,636110,0
4,-1,641402,220042,1302609,66134,7513,651361,0
4,-1,643179,221350,1311557,66980,7697,655857,0
4,-1,642690,220880,1296351,66593,7768,648233,0
4,-1,648247,221379,1306735,66822,8631,653407,0
4,-1,637572,219198,1521268,65754,9642,759805,0
4,-1,641271,219570,1232209,65807,8366,616010,0
4,-1,641227,219767,1203028,65996,7278,601115,0
4,-1,639759,219312,1285049,65821,7299,642479,0
4,-1,643137,219584,1286388,65871,7900,643181,0
4,-1,639254,220397,1285600,66188,7198,642753,0
4,-1,640330,220002,1270796,66177,7434,635273,0
4,-1,649410,221718,1364046,66669,7796,682003,0
4,-1,642523,220819,1270262,66357,7846,635091,0
4,-1,664861,225225,1249032,69683,7857,624528,0
4,-1,644866,220181,1347303,65985,7915,673084,0
4,-1,662766,224490,1269002,69144,8546,634518,0
4,-1,646474,221234,1353495,66585,8385,676811,0
4,-1,644162,220900,1149508,66274,6950,574773,0
4,-1,643777,219893,1190315,65910,7138,595235,0
4,-1,666694,225168,1287464,69547,8695,643812,0
4,-1,650566,221455,1384668,66742,8573,692389,0
4,-1,638902,219801,1393075,65977,8151,696589,0
4,-1,640455,219829,1181500,65974,7611,590799,0
4,-1,641589,220033,1271742,66064,8118,635917,0
4,-1,637906,219716,1270008,65992,8246,634995,0
4,-1,662560,225038,1296485,69512,8541,648262,0
4,-1,641901,220188,1334382,66107,7649,666939,0
4,-1,635406,218934,1229422,65748,7718,614770,0
4,-1,641446,220349,1398197,66388,8225,698949,0
4,-1,641368,220139,1232890,66236,8879,616396,0
4,-1,639348,219219,1344948,65744,8210,672508,0
4,-1,661151,223906,1302817,69192,8532,651419,0
4,-1,657039,223781,1304945,69172,8141,652523,0
4,-1,643585,219659,1430970,65912,8129,715517,0
4,-1,662059,223849,1345581,69079,8319,672856,0
4,-1,645681,222407,1220428,67097,8650,610242,0
4,-1,639111,218797,1319989,65458,7886,659971,0
4,-1,640873,218934,1296576,65461,8423,647921,0
4,-1,646414,221686,1276146,66687,7997,638057,0
4,-1,645578,221298,1384858,66565,8841,692108,0
4,-1,649597,221846,1297437,66715,8742,649043,0
4,-1,641048,219094,1327428,65629,8746,663755,0
4,-1,644951,220370,1227385,66336,8382,613675,0
4,-1,668367,224584,1292154,69307,9074,645919,0
4,-1,638222,219418,1332343,65773,8401,666239,0
4,-1,637056,218325,1308673,65417,8113,654368,0
4,-1,637465,218581,1165448,65514,7180,582755,0
4,-1,638668,219444,1315619,65822,8448,657805,0
4,-1,640980,219226,1236721,65712,8244,618415,0
4,-1,639132,219096,1332430,65651,8562,666261,0
4,-1,658448,223789,1233860,69035,8277,616967,0
4,-1,639877,219264,1285865,65768,7835,642932,0
4,-1,636638,218758,1142284,65564,7281,571185,0
4,-1,640439,218977,1352480,65647,7939,676412,0
4,-1,641491,218706,1204261,65538,8325,602028,0
4,-1,641951,220560,1232078,66382,7395,615842,0
4,-1,639979,218428,1403262,65419,8494,701652,0
4,-1,639411,218583,1283925,65510,8007,642015,0
4,-1,641373,219265,1320823,65768,7486,660538,0
4,-1,639577,218980,1208033,65689,7610,603987,0
4,-1,665228,223210,1310352,68722,8376,655111,0
4,-1,640382,219310,1246140,65717,6789,623005,0
4,-1,662772,224011,1296959,69047,8110,648514,0
4,-1,642127,218393,1227394,65356,7437,613719,0
4,-1,644179,219360,1219489,65767,6972,609816,0
4,-1,641918,218592,1378665,65406,7043,689375,0
4,-1,630520,218850,1251739,65127,6797,625745,0
4,-1,634254,218560,1326190,65182,7026,663173,0
4,-1,635402,218750,1211681,65241,6678,604831,0
4,-1,657461,223586,1418072,68624,8294,708992,0
4,-1,655139,222937,1428251,68361,9091,714030,0
4,-1,641976,220691,1303065,66076,8023,651566,0
4,-1,640928,219107,1301299,65339,8119,650626,0
4,-1,635756,218267,1186542,65077,7448,593205,0
4,-1,635821,218814,1250462,65254,7590,625157,0
4,-1,643396,220261,1242746,65958,7972,621249,0
4,-1,637518,218153,1203140,65902,8401,601391,0
4,-1,638745,218637,1313245,66054,8996,656485,0
4,-1,642428,219261,1199489,66229,8344,599692,0
4,-1,637198,218403,1271932,65963,8672,635989,0
4,-1,659392,223519,1376962,69411,8701,688459,0
4,-1,639022,218628,1364787,65963,8290,682196,0
4,-1,638835,219063,1137523,66181,7294,568684,0
4,-1,660230,223288,1414712,69391,9166,707334,0
4,-1,638228,218866,1407580,66037,8305,703784,0
4,-1,644111,219296,1224361,66299,8520,612437,0
4,-1,660340,223573,1390699,69506,8617,695307,0
4,-1,661002,223627,1311157,69471,9156,655530,0
4,-1,640964,219643,1286512,66582,8217,642994,0
4,-1,640137,218455,1342527,65925,8176,671232,0
4,-1,663351,223355,1365392,69389,9141,682676,0
4,-1,636914,218877,1261114,66069,7932,630540,0
4,-1,641499,220358,1225842,66806,8221,612869,0
4,-1,636740,218558,1491206,65989,8447,745211,0
4,-1,645307,221350,1345283,67228,10212,672552,0
4,-1,638470,218394,1314059,65909,8342,657025,0
4,-1,644601,220265,1207482,66862,7535,603801,0
4,-1,639098,219173,1295574,66209,7407,647817,0
4,-1,640395,219547,1309364,66366,8230,654466,0
4,-1,640710,218469,1252827,65942,7799,626435,0
4,-1,645412,221227,1227548,67128,7508,613541,0
4,-1,643550,220289,1243806,66675,8455,621679,0
4,-1,639414,218147,1259031,65678,8141,629490,0
4,-1,661828,223272,1350175,69370,9778,675123,0
4,-1,644374,221005,1256119,66936,8712,627941,0
4,-1,644608,219531,1471666,66148,9031,735582,0
4,-1,639865,219186,1281968,66082,8110,640941,0
4,-1,645583,220780,1249045,66890,8478,624344,0
4,-1,646878,219899,1324137,66408,7980,662078,0
4,-1,642658,219266,1276001,66057,7452,637826,0
4,-1,641998,219050,1318398,66025,8312,659443,0
4,-1,646439,220105,1163101,66788,7949,581581,0
4,-1,643565,218920,1437796,66152,8427,718948,0
4,-1,651004,220719,1158392,66731,8040,579112,0
4,-1,641476,219820,1405262,66543,8829,702670,0
4,-1,641350,219953,1284459,66576,7398,642246,0
4,-1,643752,221468,1264042,67183,7528,632062,0
4,-1,640221,219593,1293951,66354,7556,647010,0
4,-1,643668,219544,1233252,66331,7512,616661,0
4,-1,644437,220423,1270248,66643,6796,635068,0
4,-1,645983,221525,1249820,67189,7458,624972,0
4,-1,640245,219640,1187238,66340,7038,593657,0
4,-1,647030,220788,1202607,66782,7465,601341,0
4,-1,642778,219517,1226045,66298,8860,613078,0
4,-1,643528,220252,1188374,66368,7574,594104,0
4,-1,647632,220843,1257232,66578,7820,628671,0
4,-1,642132,219984,1260538,66260,6958,630312,0
4,-1,661846,224669,1341396,69689,8386,670626,0
4,-1,646393,219808,1232979,66286,8550,616537,0
4,-1,641092,219706,1465122,66328,7965,732667,0
4,-1,646348,220674,1213898,66627,7423,606937,0
4,-1,645311,219760,1213021,66383,8295,606568,0
4,-1,664731,224878,1354912,69818,8659,677349,0
4,-1,641716,219359,1258109,66189,6307,629098,0
4,-1,667178,224055,1386675,69504,9140,693378,0
4,-1,665482,224158,1431844,69544,8915,716000,0
4,-1,648619,221611,1148926,67234,6683,574531,0
4,-1,645937,219437,1200719,66220,7915,600383,0
4,-1,645984,220992,1287425,66763,8332,643750,0
4,-1,646160,220336,1199242,66554,8424,599585,0
4,-1,644619,220099,1256847,66547,8172,628442,0
4,-1,647352,222033,1218040,67449,7768,609092,0
4,-1,645361,220184,1274949,66591,7046,637656,0
4,-1,645983,219828,1282879,66307,7790,641499,0
4,-1,645525,220723,1431595,66605,7434,715830,0
4,-1,647363,220583,1284147,66569,8299,642035,0
4,-1,646975,220896,1243217,66940,8045,621659,0
4,-1,641092,219324,1280484,66096,7642,640295,0
4,-1,643633,219445,1223154,66184,6551,611621,0
4,-1,647436,220779,1272119,66860,6810,636134,0
4,-1,639115,218713,1281487,65837,8184,640761,0
4,-1,645480,219362,1235005,66134,8286,617421,0
4,-1,640740,218629,1249496,65987,7355,624707,0
4,-1,640798,218654,1194129,66126,8631,597027,0
4,-1,640062,217969,1208753,66042,7945,604434,0
4,-1,648047,220133,1306069,66893,8816,653063,0
4,-1,643847,220029,1304014,66840,7437,652019,0
4,-1,664749,223980,1342685,69729,9477,671091,0
4,-1,645263,219056,1231174,66344,8032,615492,0
4,-1,641682,218870,1397410,66291,8384,698767,0
4,-1,645627,218919,1339565,66321,8464,669763,0
4,-1,664777,223336,1364224,69546,9336,682267,0
4,-1,633958,218987,1316468,66307,7751,658231,0
4,-1,638748,220116,1307884,66876,8474,654100,0
4,-1,638370,218604,1296133,66152,8563,648080,0
4,-1,633731,218236,1342890,66035,7699,670218,0
4,-1,640588,218975,1592970,66133,8496,796304,0
5,-1,690576,236836,1368111,70567,8506,684100,0
5,-1,694731,237816,1490620,70839,9067,744680,0
5,-1,690152,237233,1361319,70729,8566,680455,0
5,-1,692168,237281,1290150,70688,8207,645050,0
5,-1,639067,219053,1201429,65852,8181,600423,0
5,-1,637896,219095,1197211,65789,7056,598654,0
5,-1,641842,221192,1262130,66677,7727,631144,2
5,-1,637921,218909,1138587,65604,6829,569337,0
5,-1,645908,220847,1292585,66655,8274,646402,0
5,-1,636450,218714,1303435,65587,7475,651771,0
5,-1,638122,219335,1310224,65861,7033,655334,0
5,-1,637472,218708,1255845,65703,7736,628009,0
5,-1,638104,218643,1301406,65720,6966,650657,0
5,-1,633549,218464,1319375,65588,7010,659716,0
5,-1,635292,218052,1259475,65382,6561,629766,0
5,-1,638207,218601,1216540,65588,7447,608296,0
5,-1,639281,220293,1375720,66477,7943,687945,0
5,-1,649193,222443,1294332,67321,8601,647125,0
5,-1,637893,218482,1213397,65563,7287,606740,0
5,-1,634805,218207,1303337,65517,7632,651701,0
5,-1,641644,219412,1218744,65853,7069,609403,0
5,-1,645173,220287,1339393,66091,7723,668914,0
5,-1,639829,219324,1289286,65874,7476,644524,0
5,-1,639612,219138,1357103,65774,8207,678278,0
5,-1,644463,219741,1454213,66037,7961,727083,0
5,-1,644614,221313,1452497,66821,9163,726099,0
5,-1,634761,218301,1239886,65748,7458,619707,0
5,-1,659266,223403,1287720,69170,9621,643831,0
5,-1,637924,218885,1430956,65858,8215,715156,0
5,-1,661655,223226,1265329,69121,9182,632578,0
5,-1,640078,218469,1249450,65677,7099,624774,0
5,-1,642742,221074,1304417,66787,8108,652241,0
5,-1,641573,219060,1296488,65872,7902,648313,0
5,-1,641666,218331,1213096,65733,6711,606491,0
5,-1,639600,218495,1290866,65741,7890,645441,0
5,-1,642707,218760,1264524,65819,7312,632298,0
5,-1,647975,221206,1373082,66849,8447,686493,0
5,-1,635449,219062,1277287,65918,7346,638625,0
5,-1,636306,219049,1273629,65970,7504,636645,0
5,-1,638296,220087,1300461,66280,8193,650287,0
5,-1,633642,219080,1310564,65847,7053,655307,0
5,-1,638487,219256,1281162,65883,6912,640634,0
5,-1,641574,220194,1242264,66220,6943,621175,0
5,-1,637202,219941,1287018,66282,7396,643569,0
5,-1,640096,219993,1297904,66159,6868,648951,0
5,-1,657429,223874,1250558,69249,7915,625263,0
5,-1,641371,219989,1231748,66184,7446,615904,0
5,-1,640112,219928,1173897,66089,7212,586997,0
5,-1,662272,224155,1321008,69315,8162,660439,0
5,-1,646067,220884,1315344,66628,7835,657735,0
5,-1,637028,219037,1348077,65808,7709,674079,0
5,-1,638180,219887,1199391,66075,7675,599637,0
5,-1,640290,219323,1344905,65849,7617,672510,0
5,-1,636765,219175,1321522,65923,7705,660821,0
5,-1,645185,222022,1329283,67172,7946,664710,0
5,-1,641749,220087,1286379,66201,6875,642985,0
5,-1,643067,221128,1282507,66794,8848,641042,0
5,-1,637972,219595,1325318,65973,7294,662644,0
5,-1,645119,220892,1339726,66645,7721,669908,0
5,-1,640581,219398,1176777,65971,6926,588432,0
5,-1,642840,220917,1334803,66640,7962,667306,0
5,-1,645196,220266,1309461,66218,8305,654763,0
5,-1,637350,219516,1191220,66040,6949,595711,0
5,-1,640382,221366,1459492,66903,9149,729254,0
5,-1,638244,218977,1258642,65780,7144,629363,0
5,-1,640317,219339,1262811,65902,7669,631446,0
5,-1,637699,218921,1297953,65758,7191,649001,0
5,-1,641586,219236,1271604,65875,8270,635787,0
5,-1,642732,220897,1607751,66540,9565,803640,0
5,-1,642287,220134,1149059,66105,7338,574664,0
5,-1,638202,219435,1289619,65875,8197,644810,0
5,-1,638899,219385,1212433,65843,7421,606187,0
5,-1,642362,219588,1204729,65846,7279,602305,0
5,-1,644684,221596,1313897,66857,8171,656618,0
5,-1,641533,219456,1321487,65828,7754,660574,0
5,-1,645848,220761,1262217,66348,7243,631124,0
5,-1,644209,220371,1268683,66219,7695,634380,0
5,-1,645126,220912,1306835,66522,7551,653426,0
5,-1,647922,221752,1305991,66721,7760,652940,0
5,-1,643613,221152,1264275,66333,8218,632195,0
5,-1,646498,220749,1262108,66288,7340,631048,0
5,-1,651906,222232,1321632,66971,8300,660625,0
5,-1,644424,220481,1291967,66139,7463,646117,0
5,-1,648735,220058,1198021,66030,7128,598977,0
5,-1,648103,220329,1404685,66110,8766,702396,0
5,-1,662836,224881,1242183,69481,8662,621038,0
5,-1,641512,220620,1276874,66157,8208,638485,0
5,-1,644918,221543,1310193,66723,8157,655164,0
5,-1,642746,220006,1256624,66098,7436,628379,0
5,-1,639554,219261,1181259,65808,7786,590673,0
5,-1,641641,220247,1204435,66125,7613,602238,0
5,-1,640847,218926,1328285,65720,7864,664125,0
5,-1,640983,219890,1318898,66072,7930,659586,0
5,-1,643269,219750,1236671,65939,9369,618243,0
5,-1,645513,221989,1394936,67019,9100,697243,0
5,-1,639158,218690,1190285,65675,7604,595114,0
5,-1,639712,219634,1333587,66024,7647,666872,0
5,-1,643446,219882,1334353,66113,7609,667416,0
5,-1,640881,219797,1298853,66013,7855,649465,0
5,-1,644546,219877,1373081,66029,7948,686565,0
5,-1,643374,220764,1321526,66373,8265,660485,0
5,-1,644625,219318,1254914,65645,8681,627444,0
5,-1,641105,219965,1324308,65908,7487,662095,0
5,-1,638435,218980,1269134,65545,8451,633832,0
5,-1,643723,219714,1255867,65805,8679,627606,0
5,-1,644896,220066,1235213,66034,9286,617613,0
5,-1,641122,218873,1134010,65646,8143,566958,0
5,-1,641132,218556,1211723,65502,8154,605894,0
5,-1,639224,220346,1281413,66406,8689,640874,0
5,-1,641823,220655,1298010,66522,8034,648891,0
5,-1,640263,220221,1204142,66205,8033,602175,0
5,-1,640473,220589,1286190,66354,8300,643041,0
5,-1,639652,219023,1351021,65649,7617,675528,0
5,-1,640995,218671,1193934,65586,7881,597007,0
5,-1,635536,218410,1189723,65407,7708,594912,0
5,-1,640894,219689,1427057,65926,9110,714105,0
5,-1,642067,218931,1228921,65656,7908,614493,0
5,-1,640491,218848,1344248,65604,7675,672181,0
5,-1,646137,221024,1377258,66538,8552,688625,0
5,-1,639388,219080,1297936,65685,8069,648971,0
5,-1,640024,219174,1323563,65738,8473,661877,0
5,-1,641451,218814,1209890,65619,7816,605012,0
5,-1,638579,218469,1275394,65469,7107,637746,0
5,-1,643407,219097,1198281,65720,7547,599111,0
5,-1,648142,220983,1238274,66513,8207,619240,0
5,-1,642346,218855,1194894,65562,7036,597501,0
5,-1,642315,219530,1273172,65769,7816,636552,0
5,-1,642742,218476,1270169,65446,7783,635107,0
5,-1,648346,221275,1277649,66638,6995,638855,0
5,-1,647633,220667,1228710,66385,6992,614221,0
5,-1,645449,219545,1262957,65763,6002,631515,0
5,-1,639455,221087,1213091,66263,7364,606625,0
5,-1,633436,218640,1337821,65185,7448,668998,0
5,-1,635192,218821,1300111,65314,7420,650084,0
5,-1,633285,218873,1288863,65248,8567,644093,0
5,-1,636628,219143,1364798,65414,7520,682509,0
5,-1,637314,218245,1360577,65062,7891,680277,0
5,-1,636237,218975,1278771,65358,8235,639329,0
5,-1,633736,218801,1237054,65294,7397,618482,0
5,-1,637979,219143,1288488,65382,7714,644361,0
5,-1,638681,218578,1251693,66014,8322,626047,0
5,-1,638801,218320,1233212,65839,8207,616587,0
5,-1,646870,220700,1205844,66949,8077,602810,0
5,-1,635780,218703,1128907,66119,7784,564335,0
5,-1,638547,219109,1306466,66278,7519,653410,0
5,-1,639381,218649,1346092,66042,7457,673008,0
5,-1,638383,218936,1295233,66110,8320,647572,0
5,-1,640998,218897,1289755,66109,7599,644800,0
5,-1,645236,220899,1198561,67147,7375,599320,0
5,-1,640252,218459,1272373,66002,7643,636165,0
5,-1,639070,218784,1214479,66074,7314,607073,0
5,-1,641308,219286,1343888,66297,8573,671880,0
5,-1,640220,219357,1422463,66295,8597,711199,0
5,-1,641428,219059,1291438,66182,7941,645666,0
5,-1,643096,219348,1236430,66251,7783,618268,0
5,-1,639143,218861,1307549,66120,8716,653760,0
5,-1,640492,219615,1199118,66342,7748,599508,0
5,-1,638595,219665,1166044,66604,8366,582966,0
5,-1,659355,223124,1273539,69324,9768,636695,0
5,-1,640848,219720,1475143,66461,10198,737562,0
5,-1,662347,223548,1322596,69428,9175,661310,0
5,-1,658818,223380,1494993,69372,9488,747495,0
5,-1,638337,218712,1259281,66040,8151,629597,0
5,-1,643067,219459,1312340,66252,8671,656078,0
5,-1,658321,222988,1422455,69195,9254,711015,0
5,-1,639237,218715,1211414,65885,6991,605832,0
5,-1,649135,221154,1202748,66988,7952,601156,0
5,-1,639004,218632,1271616,66024,8588,635868,0
5,-1,640791,218992,1366532,66093,10589,683256,0
5,-1,646909,221176,1588031,67059,10673,793396,0
5,-1,638014,218519,1339949,65868,8813,669824,0
5,-1,662132,223247,1401564,69220,9859,700848,0
5,-1,642828,218899,1319188,65968,9070,659652,0
5,-1,640672,219295,1244187,66159,8665,621993,0
5,-1,645561,220710,1243312,66849,8295,621454,0
5,-1,644595,219374,1218611,66353,8335,609287,0
5,-1,650323,221763,1406390,67434,8359,703207,0
5,-1,647158,219595,1290234,66297,8803,645178,0
5,-1,642518,219975,1278394,66651,7960,639206,0
5,-1,646094,221644,1225915,67396,8007,613013,0
5,-1,638704,219768,1295810,66424,8444,647956,0
5,-1,649206,221802,1221448,67254,7940,610799,0
5,-1,643255,219793,1290804,66462,7743,645447,0
5,-1,650214,222274,1212589,67517,7340,606301,0
5,-1,641853,219892,1185033,66453,7436,592231,0
5,-1,644187,220901,1298225,66781,8337,649078,0
5,-1,647828,221578,1207944,67203,7557,604085,0
5,-1,647038,221783,1233228,67365,8539,616637,0
5,-1,642407,220119,1308342,66427,8564,654223,0
5,-1,645194,220137,1331321,66341,8235,665651,0
5,-1,641843,220189,1193332,66314,7583,596631,0
5,-1,639619,219680,1240216,66230,7838,620125,0
5,-1,642744,219051,1222698,66087,8198,611386,0
5,-1,648832,222040,1218295,67452,7993,609259,0
5,-1,643338,220156,1291918,66462,8133,646012,0
5,-1,643494,219189,1207560,66059,8251,603802,0
5,-1,641259,219612,1304925,66263,7842,652504,0
5,-1,640153,219463,1254139,66261,6766,627119,0
5,-1,647344,220251,1202256,66536,7996,601169,0
5,-1,643613,219669,1274499,66298,8384,637283,0
5,-1,666124,224961,1235894,69835,8113,617924,0
5,-1,645861,219470,1263938,66227,7407,632009,0
5,-1,642299,220378,1339498,66487,7884,669785,0
5,-1,650626,222389,1163877,67390,7995,582005,0
5,-1,643661,220007,1310764,66469,7671,655418,0
5,-1,663271,224497,1340275,69764,9190,670167,0
5,-1,643310,219398,1198323,66312,6236,599212,0
5,-1,647980,220869,1212671,66948,7389,606406,0
5,-1,647615,222118,1185861,67415,7602,592873,0
5,-1,648013,221254,1263707,66963,7339,631910,0
5,-1,646308,220426,1333377,66462,7243,666715,0
5,-1,641774,219870,1238632,66339,8051,619309,0
5,-1,647433,220860,1322901,66851,7443,661486,0
5,-1,647034,219996,1201107,66316,7353,600607,0
5,-1,645424,221482,1267204,67172,8267,633738,0
5,-1,647843,220916,1300506,66884,8465,650181,0
5,-1,664102,223751,1384112,69484,9122,692037,0
5,-1,642328,219644,1165480,66666,7860,582764,0
5,-1,639698,217990,1282194,65964,8214,640963,0
5,-1,645379,219521,1282189,66490,8812,640938,0
5,-1,641856,219089,1330765,66337,8176,665399,0
5,-1,640021,218303,1321134,66028,8516,660515,0
5,-1,646791,219916,1372047,66810,8982,686072,0
5,-1,639804,218132,1383156,65937,8370,691618,0
5,-1,645313,219120,1349400,66348,9161,674746,0
5,-1,649342,220820,1348448,67060,8978,674093,0
5,-1,634500,218607,1226721,66137,6951,613351,0
5,-1,636891,218201,1214167,66014,7516,607064,0
5,-1,637572,219100,1281081,66351,8290,640617,0
5,-1,638921,219479,1386556,66470,8204,693365,0
5,-1,659623,223436,1336026,69404,9201,667705,0
6,-1,690307,237271,1260090,70737,7236,630139,0
6,-1,717392,243086,1384108,74463,9158,692029,0
6,-1,692678,237873,1319971,70928,8708,659957,0
6,-1,692762,237930,1293409,70913,8062,646702,0
6,-1,636344,218595,1393697,65720,8100,696531,0
6,-1,642218,220958,1333049,66592,8722,666542,0
6,-1,657565,222926,1276789,68736,8190,638422,0
6,-1,637525,218731,1192054,65644,6995,596082,2
6,-1,661552,223568,1279974,69048,8723,639963,0
6,-1,637283,219523,1298685,65881,6354,649400,0
6,-1,645334,221143,1326665,66819,7774,663406,0
6,-1,639194,218987,1348792,65637,7818,674403,0
6,-1,639824,218926,1244324,65798,7546,621850,0
6,-1,643247,219513,1264218,65895,7409,632154,0
6,-1,635594,219068,1182223,65809,6517,591155,0
6,-1,638449,219109,1158661,65801,7031,579377,0
6,-1,652361,222046,1308510,68598,7593,654252,0
6,-1,640334,219569,1156372,66031,7237,578206,0
6,-1,666563,224830,1330516,70047,8132,665276,0
6,-1,633628,218192,1239533,65496,7249,619780,0
6,-1,661654,223879,1219069,69093,8423,609520,0
6,-1,648187,221949,1374405,66895,8061,687393,0
6,-1,638240,218801,1266131,65596,7257,633075,0
6,-1,642863,220314,1332114,66135,8104,666030,0
6,-1,663951,224022,1311547,69136,8944,655530,0
6,-1,639508,219769,1347572,66159,8322,673501,0
6,-1,640429,220422,1317111,66591,8793,658689,0
6,-1,642784,219362,1320999,66009,8567,660471,0
6,-1,637307,219332,1246223,66067,7931,623049,0
6,-1,641237,219456,1298429,66097,8449,649227,0
6,-1,640337,218947,1231890,65888,7027,615984,0
6,-1,639628,219135,1178708,65938,7149,589272,0
6,-1,638275,218575,1226969,65783,7366,613504,0
6,-1,666077,224353,1310353,69471,8170,655160,0
6,-1,639079,218078,1301222,65717,8139,650646,0
6,-1,646126,220403,1321027,66601,8325,660499,0
6,-1,642032,219346,1289990,66061,7624,645008,0
6,-1,635492,219598,1238637,66142,7841,619233,0
6,-1,638909,220353,1329174,66601,8084,664634,0
6,-1,637565,219728,1258448,66105,7723,628812,0
6,-1,633320,219205,1253126,65974,7411,626652,0
6,-1,639017,220500,1315752,66535,7746,657922,0
6,-1,638295,219384,1252621,65953,7567,626355,0
6,-1,635718,219390,1224107,65942,7566,612086,0
6,-1,669716,230286,1361231,69430,7991,680683,0
6,-1,637584,219315,1280873,65959,6974,640515,0
6,-1,660293,224106,1260138,69325,7598,630088,0
6,-1,637388,219421,1295455,65995,6860,647793,0
6,-1,639270,219445,1342118,65989,7424,671087,0
6,-1,642616,220052,1210061,66214,7225,605073,0
6,-1,638271,219877,1400069,66091,7498,699933,0
6,-1,642897,221280,1289188,66803,7276,644641,0
6,-1,640610,219917,1289326,66160,7654,644713,0
6,-1,638848,220187,1319977,66160,7928,660048,0
6,-1,659760,223761,1301373,69161,8234,650694,0
6,-1,642032,220265,1346524,66466,8009,673311,0
6,-1,639911,220770,1270267,66597,7590,635206,0
6,-1,642613,219691,1234554,66063,8138,617309,0
6,-1,642002,220074,1274161,66203,7779,637095,0
6,-1,640063,219182,1318348,65854,7563,659156,0
6,-1,644356,219921,1352834,66047,8490,675676,0
6,-1,643899,219903,1313014,66148,8105,656549,0
6,-1,636785,219343,1338290,65889,7527,669090,0
6,-1,659354,224127,1233665,69297,8988,616737,0
6,-1,638051,219308,1133057,65924,6973,566596,0
6,-1,640458,220444,1309864,66434,7812,654423,0
6,-1,646114,221454,1329597,66906,7914,664850,0
6,-1,642510,219793,1207292,66074,7417,603766,0
6,-1,637455,219361,1542966,65986,9569,770875,0
6,-1,661825,224706,1476917,69336,8250,738482,0
6,-1,639769,220352,1331781,66188,7747,664918,0
6,-1,664185,224308,1320345,69209,8423,660071,0
6,-1,662971,224175,1366833,69177,7398,683356,0
6,-1,660468,224072,1271687,69154,8118,635774,0
6,-1,644205,221066,1426363,66662,8263,713176,0
6,-1,644592,220787,1203562,66344,7313,601747,0
6,-1,664397,224872,1232778,69551,8205,616132,0
6,-1,641108,219775,1224137,66049,6808,612129,0
6,-1,646188,220427,1199599,66107,7592,599760,0
6,-1,642185,220149,1174977,65961,8419,587549,0
6,-1,643849,220383,1306515,66044,7834,653287,0
6,-1,668718,225316,1274986,69439,8382,637569,0
6,-1,647064,221621,1304925,66701,7846,652678,0
6,-1,647732,220314,1282555,66167,7332,641459,0
6,-1,645757,220354,1306900,66129,8476,653355,0
6,-1,642504,221234,1353967,66502,8466,677035,0
6,-1,640823,219719,1166010,65927,7743,583053,0
6,-1,668201,229551,1218046,68866,7535,609083,0
6,-1,641388,219406,1168680,65933,7881,584411,0
6,-1,640629,219467,1397175,65883,8332,698362,0
6,-1,637795,218825,1290142,65631,7727,645034,0
6,-1,645078,221214,1268335,66712,7972,634201,0
6,-1,641571,220861,1292199,66723,7580,646148,0
6,-1,639023,219129,1358466,65889,7859,679187,0
6,-1,636690,218971,1330963,65661,8956,664902,0
6,-1,647766,221463,1377802,66784,8867,689075,0
6,-1,642606,218879,1290598,65769,8078,645374,0
6,-1,637760,219082,1355350,65702,7870,677721,0
6,-1,637429,218866,1232224,65673,6842,616138,0
6,-1,642379,219148,1313678,65758,7371,656773,0
6,-1,646849,220409,1257875,66020,8631,628871,0
6,-1,644572,219874,1343069,65833,9079,671119,0
6,-1,640137,219662,1261719,65727,7292,630860,0
6,-1,643067,220149,1369487,65959,8683,684333,0
6,-1,641305,219104,1202215,65611,7957,601034,0
6,-1,646552,221557,1304595,66773,9002,652302,0
6,-1,648392,221860,1333571,66855,8304,666550,0
6,-1,646163,220237,1291806,66290,8398,645882,0
6,-1,657735,223583,1247861,68895,9044,624057,0
6,-1,660739,224514,1246011,69270,8594,622985,0
6,-1,642097,220129,1153965,66066,7420,577006,0
6,-1,640441,219008,1310078,65615,9016,655038,0
6,-1,660286,223748,1281397,68971,8187,640663,0
6,-1,642442,219950,1324379,65988,7574,662257,0
6,-1,637165,219471,1304763,65793,7430,652481,0
6,-1,638331,219175,1194432,65757,7560,597235,0
6,-1,643466,219354,1258629,65808,7890,629356,0
6,-1,661107,223237,1318633,68875,8777,659352,0
6,-1,643906,220076,1218600,66319,7993,609431,0
6,-1,638540,219193,1200413,65736,7648,600279,0
6,-1,637422,218457,1318550,65459,7654,659716,0
6,-1,640996,219198,1249816,65753,7834,624979,0
6,-1,640657,219596,1488208,65878,8625,744163,0
6,-1,641985,218549,1310857,65437,8156,655460,0
6,-1,641115,219033,1261024,65685,8311,630492,0
6,-1,663220,223868,1316464,68983,7819,658291,0
6,-1,638431,218481,1139664,65402,6738,569827,0
6,-1,642904,218889,1329315,65527,7601,664715,0
6,-1,663431,223940,1333426,69005,7881,666674,0
6,-1,642399,218753,1261697,65536,7148,630893,0
6,-1,646500,218919,1317889,65564,6763,658993,0
6,-1,655744,224116,1349097,68749,8278,674534,0
6,-1,637230,220547,1190773,66053,7416,595433,0
6,-1,663326,228314,1228559,68056,7522,614358,0
6,-1,634671,218981,1287742,65328,8421,644096,0
6,-1,633996,218594,1284911,65186,7767,642330,0
6,-1,644467,221618,1301266,66473,7921,650167,0
6,-1,637526,220058,1210508,65828,7903,605175,0
6,-1,659465,223633,1336396,68649,8671,668131,0
6,-1,634430,218178,1257510,64983,7373,628714,0
6,-1,638346,218815,1277617,66085,8082,638874,0
6,-1,641215,219555,1296480,66338,8512,648266,0
6,-1,641174,218780,1241237,66056,8399,620219,0
6,-1,642462,221291,1164864,67201,7962,582168,0
6,-1,636544,218464,1241369,65979,7135,620642,0
6,-1,643799,220845,1229162,67067,6815,614462,0
6,-1,641391,220891,1209425,67040,7492,604749,0
6,-1,641155,219555,1442718,66368,8590,721260,0
6,-1,662481,223975,1456141,69634,9008,728044,0
6,-1,642207,219666,1495109,66715,8952,747574,0
6,-1,639595,219518,1588144,66333,10309,794042,0
6,-1,644007,220491,1258633,66887,7771,629017,0
6,-1,638086,218821,1339769,66084,8413,669232,0
6,-1,639979,218834,1248295,66066,7758,624212,0
6,-1,638475,218152,1209486,65892,8066,604571,0
6,-1,636912,218435,1283545,65970,8665,641784,0
6,-1,636891,218976,1236643,66071,8318,618229,0
6,-1,639433,218834,1357948,66110,8319,678938,0
6,-1,636440,218247,1247075,65921,8827,623642,0
6,-1,638276,218906,1506688,66125,8541,753252,0
6,-1,640109,218311,1256727,65826,7677,628303,0
6,-1,641243,219560,1309629,66288,8392,654746,0
6,-1,644383,220958,1712253,67118,10910,855649,0
6,-1,641962,219184,1268738,66228,7897,634285,0
6,-1,642024,219153,1202246,66212,7693,601262,0
6,-1,649796,221705,1296198,67323,8030,648008,0
6,-1,642807,219207,1233020,66091,7342,616528,0
6,-1,638839,219058,1268977,66116,7825,634525,0
6,-1,639628,219088,1210812,66053,7495,605457,0
6,-1,662151,223919,1386472,69440,9750,693167,0
6,-1,664431,224296,1386466,69518,9289,693240,0
6,-1,641470,219190,1231891,66077,8519,615860,0
6,-1,662215,222943,1488944,69091,9798,744329,0
6,-1,638102,218736,1323990,65941,9202,661789,0
6,-1,639656,218799,1206165,65903,7421,603188,0
6,-1,643520,219086,1201454,66315,8688,600583,0
6,-1,646265,220697,1212907,66761,7746,606514,0
6,-1,647895,220471,1423860,66639,8744,711964,0
6,-1,639844,219102,1193501,66250,7410,596795,0
6,-1,663863,224217,1325370,69682,8705,662586,0
6,-1,643276,219549,1285015,66326,7423,642563,0
6,-1,642755,219898,1300625,66495,7973,650367,0
6,-1,646929,221210,1200256,67085,7447,599992,0
6,-1,645894,220843,1224449,66788,7545,612269,0
6,-1,636934,219086,1289627,66108,7382,644846,0
6,-1,639669,219620,1270303,66260,8341,635204,0
6,-1,642829,220195,1321304,66485,7837,660706,0
6,-1,662024,224393,1409989,69735,9665,705013,0
6,-1,642149,219913,1290937,66310,7994,645515,0
6,-1,648141,221714,1247918,67044,7698,623978,0
6,-1,641555,220638,1182784,66480,7467,591446,0
6,-1,643289,219503,1307701,66102,7371,653870,0
6,-1,642533,219411,1142567,66156,7985,571219,0
6,-1,641212,219413,1212826,66157,7641,606511,0
6,-1,642316,218933,1268073,65993,7970,633941,0
6,-1,646965,220985,1235641,67037,8690,617717,0
6,-1,641737,220131,1270149,66481,8067,635120,0
6,-1,642810,220818,1214416,66888,7008,607253,0
6,-1,648870,221443,1251717,67122,7764,625864,0
6,-1,643825,220171,1299120,66477,7809,649612,0
6,-1,651724,221307,1233339,67038,8190,616779,0
6,-1,646765,219755,1196735,66320,7034,598427,0
6,-1,642667,220945,1213599,66660,7226,606896,0
6,-1,639636,219323,1263477,66098,7591,631788,0
6,-1,667605,224680,1325525,69825,8618,662667,0
6,-1,644532,220321,1196718,66623,7459,598434,0
6,-1,644867,219685,1272201,66411,7595,636125,0
6,-1,647334,220817,1290628,66727,7375,645348,0
6,-1,639512,219196,1249913,66069,8027,624997,0
6,-1,644870,220257,1332367,66457,7843,666243,0
6,-1,648119,220873,1275781,66877,8052,637925,0
6,-1,644218,218906,1337901,65982,8186,668969,0
6,-1,644181,219607,1377402,66238,8162,689188,0
6,-1,643886,218832,1233762,65883,7632,616928,0
6,-1,638553,219184,1267620,66116,7926,633858,0
6,-1,665550,224628,1313949,69654,9175,656819,0
6,-1,640911,218484,1403764,65900,8226,701882,0
6,-1,637669,218190,1208931,65853,7825,604507,0
6,-1,640322,218578,1279421,66175,8589,639783,0
6,-1,647561,220515,1274926,67096,8143,637546,0
6,-1,639909,218640,1218288,66151,7525,609019,0
6,-1,643947,220278,1335073,66873,7824,667493,0
6,-1,642865,218325,1274227,66062,8257,637108,0
6,-1,641402,218679,1183529,66216,7528,591766,0
6,-1,642427,218170,1212467,65952,8355,605586,0
6,-1,640665,217588,1233628,65857,8183,616808,0
6,-1,653379,221062,1231264,67330,8481,615360,0
6,-1,636368,218913,1223657,66220,7727,611724,0
6,-1,636305,218430,1199675,66083,8498,599838,0
6,-1,643431,220042,1354749,66829,8526,677198,0
6,-1,636474,218448,1319066,65979,8215,659575,0
7,-1,694612,238915,1349816,71463,7882,674959,0
7,-1,693760,236971,1255124,70635,7326,627614,0
7,-1,688932,237462,1305004,70797,7833,653088,0
7,-1,710324,241872,1452141,74022,9258,726020,0
7,-1,636156,218424,1353989,65593,7747,677019,0
7,-1,635138,218658,1239809,65647,7843,619863,0
7,-1,638651,218596,1250423,65609,7101,625272,0
7,-1,639734,218638,1191271,65568,7464,595669,0
7,-1,636999,218521,1172382,65563,6731,586202,0
7,-1,638037,218720,1296162,65679,6528,648114,0
7,-1,637451,218798,1259942,65740,7233,630013,2
7,-1,644596,222041,1326086,66961,7691,662978,2
7,-1,639076,219085,1200751,65711,7849,600417,0
7,-1,639586,218945,1252247,65826,7807,625640,2
7,-1,636465,217797,1264858,65338,7405,632471,0
7,-1,639135,219257,1325927,65821,8118,662698,2
7,-1,647454,221439,1262811,66771,8294,631454,0
7,-1,633655,219088,1178354,65866,6638,589230,2
7,-1,654943,223155,1301484,68983,7981,650520,0
7,-1,636809,218971,1201337,65757,6472,600584,0
7,-1,643677,220041,1357456,66256,7943,678802,0
7,-1,635488,219831,1366781,66059,7447,683427,2
7,-1,636935,218896,1326294,65885,7500,663558,2
7,-1,640270,219562,1276924,66087,7704,638511,0
7,-1,639020,219491,1131255,66040,7309,565630,2
7,-1,640540,219389,1223019,65974,6951,611432,0
7,-1,638833,219585,1353157,65877,7814,676591,0
7,-1,638784,218995,1203857,65644,7980,601936,0
7,-1,643224,220105,1280862,66056,7668,640107,0
7,-1,642216,220043,1322488,66040,8577,661234,2
7,-1,639226,219260,1292866,65872,7526,646482,2
7,-1,639102,219412,1329914,65890,7654,664955,0
7,-1,643537,220985,1388202,66571,8863,694825,0
7,-1,639556,219198,1356187,65829,8111,678041,0
7,-1,647124,221800,1380156,66987,8630,689754,2
7,-1,635333,218686,1284902,65765,8367,642426,0
7,-1,636414,219339,1380742,66025,7855,690344,2
7,-1,640054,218914,1299773,65857,8175,649726,0
7,-1,639905,219107,1264345,65981,8374,631957,0
7,-1,641029,218935,1272792,65865,8349,636384,0
7,-1,637998,218613,1407053,65710,8090,703291,0
7,-1,644551,221388,1324787,66994,8367,662526,2
7,-1,660666,223544,1368533,69219,7764,684407,0
7,-1,636764,219394,1402730,66092,7995,701413,2
7,-1,638352,218991,1259386,65942,7377,629685,0
7,-1,645662,221495,1242482,67086,8205,621046,0
7,-1,638907,219157,1226124,66054,7777,613020,2
7,-1,646851,220964,1315571,66761,7752,657758,0
7,-1,644828,220994,1407506,66871,8324,703680,0
7,-1,640624,218658,1213152,65788,7465,606533,0
7,-1,642147,218696,1187724,65762,7584,593877,0
7,-1,642800,219366,1293902,66046,7599,646959,2
7,-1,639912,221232,1237019,66933,7888,618452,0
7,-1,634165,218866,1219107,65810,7800,609515,0
7,-1,638754,221666,1309645,67154,8161,654906,2
7,-1,635948,219338,1186070,66061,7215,593071,0
7,-1,640574,220051,1273575,66261,7963,636927,0
7,-1,637308,219227,1284030,65865,7253,642032,0
7,-1,638103,219419,1148360,65933,7347,574217,0
7,-1,636202,219550,1190816,66050,6941,595463,2
7,-1,633183,219316,1314670,65902,8008,657358,0
7,-1,639826,221573,1286774,66964,7728,643441,2
7,-1,635470,219002,1253575,65797,7129,626827,0
7,-1,639537,220076,1295574,66155,7101,647834,0
7,-1,638187,219773,1320658,66054,7995,660370,2
7,-1,636630,218916,1303805,65762,7426,651947,0
7,-1,635586,219801,1305083,66129,7736,652590,2
7,-1,641425,220972,1338098,66682,7662,669007,0
7,-1,639934,220099,1256758,66090,7229,628436,0
7,-1,639917,219447,1303200,65934,7338,651675,0
7,-1,644022,220661,1215312,66403,7574,607755,2
7,-1,634806,219622,1349056,66059,7860,673692,2
7,-1,637331,219565,1231510,66026,7295,615803,0
7,-1,637208,220069,1341676,66215,7019,670818,2
7,-1,658128,223937,1292884,69235,7744,646477,0
7,-1,639070,220209,1439607,66227,8182,719861,0
7,-1,640385,220568,1320094,66544,7314,659972,0
7,-1,642064,221227,1332337,66878,7834,666080,2
7,-1,639025,219444,1347070,65987,7580,673390,0
7,-1,637960,220050,1209182,66202,7523,604634,2
7,-1,638392,219188,1353992,65871,7124,677095,0
7,-1,637235,219436,1138008,66013,7766,569060,0
7,-1,638939,218790,1430091,65757,7503,715036,0
7,-1,662667,223776,1287489,69202,8324,643791,0
7,-1,637363,219349,1148862,65979,7367,574454,2
7,-1,642760,221053,1322909,66714,8289,661335,0
7,-1,642930,219663,1308286,66035,8642,654332,0
7,-1,638864,218551,1322400,65620,7857,661206,0
7,-1,637231,219916,1260689,66046,7614,630408,0
7,-1,640352,220234,1229499,66228,7620,614800,0
7,-1,639971,220101,1364635,66202,8386,682080,0
7,-1,639254,219377,1242225,65940,7155,621064,2
7,-1,637291,219243,1212536,65871,7187,606331,0
7,-1,662160,224127,1337438,69321,7308,668749,0
7,-1,641289,219599,1317517,65991,7590,658819,0
7,-1,635201,218920,1311695,65770,8390,655870,0
7,-1,663794,229063,1290143,68694,7806,645016,2
7,-1,640567,220259,1218532,66089,7202,609384,0
7,-1,641933,220562,1326902,66198,8008,663543,2
7,-1,640071,219084,1250662,65741,7503,625343,0
7,-1,645825,221323,1406047,66700,7762,702966,0
7,-1,638941,219303,1234839,65863,6849,617442,2
7,-1,643701,220212,1389485,66086,7459,694728,0
7,-1,639246,219899,1252177,65968,6504,625975,0
7,-1,636614,219161,1288303,65717,7281,644172,2
7,-1,661191,224436,1260512,69250,8203,630234,0
7,-1,640930,220008,1182448,66195,6794,591256,2
7,-1,643248,219835,1338092,66061,8191,669015,0
7,-1,644036,222236,1348284,67149,7553,674174,2
7,-1,644703,221191,1236373,66560,7677,618143,0
7,-1,643235,220746,1257870,66421,7584,628968,2
7,-1,646134,221000,1370145,66715,8309,685071,0
7,-1,646656,220776,1299760,66184,7613,649887,0
7,-1,643938,220886,1211645,66254,8159,605856,0
7,-1,644750,220313,1179118,66082,7125,589603,0
7,-1,645333,220616,1373406,66141,7513,686762,2
7,-1,646405,220228,1330687,66036,7508,665383,0
7,-1,647691,220910,1346855,66222,8508,673588,0
7,-1,644447,220293,1169610,66027,7231,584854,2
7,-1,646693,220229,1220764,66093,7326,610444,0
7,-1,645562,221166,1314620,66481,8481,657366,2
7,-1,669158,224898,1252988,69460,8723,626459,0
7,-1,640210,220558,1254716,66277,7998,627399,0
7,-1,643653,222304,1312671,67208,8613,656411,2
7,-1,644269,221015,1288909,66267,8199,644529,0
7,-1,643245,220796,1286816,66294,8600,643447,2
7,-1,637947,219055,1355274,65629,8120,677597,0
7,-1,644824,221148,1250772,66747,9005,625436,0
7,-1,640788,219928,1265388,66018,8033,632731,0
7,-1,640023,219880,1194245,66085,6941,597086,0
7,-1,662369,223733,1204212,69041,8973,602153,0
7,-1,634584,219197,1291251,65843,7446,645570,2
7,-1,657031,223583,1236867,69100,8333,618395,0
7,-1,642957,221069,1315681,66690,7888,657512,0
7,-1,665002,228702,1349663,68671,8996,674855,2
7,-1,644164,220466,1289025,66191,8503,643801,2
7,-1,636910,218883,1320558,65652,8705,660113,0
7,-1,642715,221231,1321303,66742,7874,660494,2
7,-1,639370,218685,1350217,65525,8754,674975,0
7,-1,645540,220268,1287994,66367,7990,644121,0
7,-1,638366,219618,1241381,66044,7589,620678,2
7,-1,643850,220798,1269640,66694,8244,634840,0
7,-1,638021,219727,1288199,65972,7720,644119,2
7,-1,646808,221365,1406461,66712,8192,703227,0
7,-1,640562,218783,1414058,65656,7918,707056,0
7,-1,640152,219932,1207927,66010,8198,603537,2
7,-1,646288,221256,1372686,66579,8315,687240,0
7,-1,642988,219663,1279122,65791,7880,639622,0
7,-1,641935,219986,1314216,65900,8360,657160,2
7,-1,644011,221016,1310636,66417,7604,655313,0
7,-1,665246,224359,1554811,69086,9400,776531,0
7,-1,646431,221867,1399604,66768,8086,699088,2
7,-1,643551,220193,1203272,66035,8526,601484,2
7,-1,663723,224504,1216703,69217,8603,608193,0
7,-1,661983,223895,1308290,69049,10374,653909,0
7,-1,641326,219511,1361748,65854,9741,680649,2
7,-1,662487,224146,1436394,69123,9289,718168,0
7,-1,642543,220021,1167568,66033,7771,583613,2
7,-1,642668,219373,1213756,65838,8693,606960,0
7,-1,648933,221277,1326301,66796,8747,663148,2
7,-1,636431,218918,1299186,65656,8984,649587,0
7,-1,635021,219069,1392841,65707,8376,696440,2
7,-1,639149,219607,1289141,65872,8025,644583,0
7,-1,638516,218546,1372601,65480,8161,686356,0
7,-1,636711,219074,1216183,65727,8009,607894,2
7,-1,662122,223922,1274573,69068,9147,637169,0
7,-1,639030,219408,1373279,65731,7988,686687,0
7,-1,643115,221529,1280519,66797,8463,640404,2
7,-1,639991,219235,1506157,65766,8985,753129,0
7,-1,641170,219377,1328325,65821,8202,664197,2
7,-1,644122,220362,1280519,66313,7486,640339,0
7,-1,665391,224733,1300273,69329,8718,650166,0
7,-1,640276,218229,1277788,65349,8319,638921,0
7,-1,640210,218553,1200667,65524,7865,600391,0
7,-1,642637,219967,1284964,66021,7514,642535,2
7,-1,661115,223401,1365191,68906,8952,682705,0
7,-1,636226,218525,1292138,65421,8208,646027,0
7,-1,638369,219143,1235597,65686,7153,617839,2
7,-1,642642,220179,1208143,66260,7128,604210,0
7,-1,642799,220876,1215357,66575,7300,607718,2
7,-1,641944,219542,1279389,65803,7448,639731,0
7,-1,644882,220865,1237980,66497,7312,618976,0
7,-1,639551,218098,1207029,65268,7587,603518,0
7,-1,647648,220913,1235296,66481,7254,617710,0
7,-1,640139,219117,1306261,65656,6986,653231,0
7,-1,646354,221545,1226612,66723,7302,613367,2
7,-1,647815,220243,1138823,66183,7421,569331,0
7,-1,645984,220816,1334611,66535,7267,667372,0
7,-1,641591,219029,1247125,65655,7008,623639,2
7,-1,644290,220042,1262662,65934,7200,631496,0
7,-1,639959,219113,1282115,65608,7203,641097,2
7,-1,649318,221172,1137858,66565,7446,569052,0
7,-1,647763,221412,1233629,66781,6814,616875,2
7,-1,642557,218243,1208105,65307,6267,604098,0
7,-1,634645,219332,1268512,65417,7201,634158,0
7,-1,634855,218912,1300839,65312,7292,650461,0
7,-1,634742,219097,1328606,65399,7816,664479,2
7,-1,635730,218890,1316945,65278,7990,658518,0
7,-1,631339,219025,1201982,65346,8283,600842,2
7,-1,655381,223293,1270945,68502,9411,635503,0
7,-1,639453,221023,1263874,66293,8292,631629,2
7,-1,638278,220669,1280337,66172,8728,639522,0
7,-1,659174,224088,1427133,68777,9362,713596,0
7,-1,655786,223745,1408004,68692,8519,704032,0
7,-1,639317,220321,1177379,65976,7720,588652,0
7,-1,637470,219097,1341660,65376,7650,670908,0
7,-1,642756,221571,1227626,66449,7809,613854,2
7,-1,640467,219718,1308619,66461,8654,654283,2
7,-1,642827,220964,1212464,67112,8372,606278,0
7,-1,637268,219181,1221997,66276,7244,610964,2
7,-1,639131,218918,1276443,66151,8421,638227,0
7,-1,638197,218285,1279244,65969,8508,639683,0
7,-1,635832,219380,1286610,66324,7490,643284,2
7,-1,659355,223497,1258150,69425,8912,628994,0
7,-1,640265,220293,1215282,66795,7866,607630,0
7,-1,659253,223407,1391782,69410,8923,695898,0
7,-1,656454,223518,1411496,69354,9072,705755,0
7,-1,637549,218608,1281479,66015,8291,640668,0
7,-1,636822,218156,1193575,65879,7746,596789,0
7,-1,661053,223401,1337651,69420,8626,668691,0
7,-1,640609,221068,1205813,67184,8461,602808,2
7,-1,635753,218456,1313460,65987,8890,656693,0
7,-1,646815,221780,1235928,67425,7631,617957,0
7,-1,663827,223551,1361464,69473,8880,680797,0
7,-1,641190,218229,1357830,65894,8547,678865,0
7,-1,641259,219508,1252122,66322,7751,625820,0
7,-1,644157,219988,1266160,66541,8268,633085,2
7,-1,641682,220909,1267012,67083,8769,633522,0
7,-1,641190,218887,1206943,66110,7965,603509,0
7,-1,637688,218906,1333418,66119,8485,666645,2
7,-1,642758,219826,1412441,66443,8578,706203,0
7,-1,640633,220715,1188235,67035,8111,593939,2
7,-1,641988,219731,1284726,66612,7881,642358,0
7,-1,643076,221116,1246887,67206,8319,623639,0
7,-1,639859,219621,1199185,66367,7852,599620,2
7,-1,642430,219823,1569826,66608,9275,783520,0
7,-1,638037,219468,1277870,66350,8186,639016,2
7,-1,638153,218773,1295314,66111,7966,647602,0
7,-1,639961,219663,1289209,66418,8536,644626,2
7,-1,640876,218925,1241931,66155,7207,620955,0
7,-1,643655,220651,1194146,66976,7903,597270,2
7,-1,639252,218261,1179284,65879,7883,589653,0
7,-1,639358,219938,1327338,66447,8938,663776,2
7,-1,640291,218848,1459688,66115,8767,729690,0
7,-1,642630,220065,1244490,66509,8127,622221,2
7,-1,642611,219247,1504485,66182,9471,751909,0
7,-1,640600,218701,1342413,65977,8259,671234,0
7,-1,643980,219366,1473085,66156,9028,736617,2
7,-1,641482,220222,1302668,66749,8181,651008,0
7,-1,640604,220635,1199562,67006,8241,599621,2
7,-1,637303,218248,1329273,65685,7254,664001,0
7,-1,639445,219583,1225088,66309,9014,612474,2
7,-1,640908,219741,1293077,66308,8017,646383,0
7,-1,638547,218033,1309361,65617,7960,654718,0
7,-1,638266,218956,1324864,65989,9005,662344,2
7,-1,639673,218728,1358640,65885,8367,679371,0
7,-1,642707,219478,1366097,66198,9071,682894,0
7,-1,663500,223632,1405409,69365,9077,702786,0
7,-1,641767,219251,1298496,66077,7697,649181,2
7,-1,641351,219365,1310351,66105,7707,655208,0
7,-1,640861,219289,1218211,66402,8090,608800,2
7,-1,647495,220822,1208014,67129,8485,603889,0
7,-1,642716,219544,1339148,66328,8113,669587,0
7,-1,650844,221942,1200739,67408,8108,600032,0
7,-1,638882,220623,1279779,66863,7135,639928,2
7,-1,640036,220001,1310157,66670,7502,654985,0
7,-1,642971,220797,1212602,66920,8232,606354,2
7,-1,644889,221182,1197881,67176,8225,598851,0
7,-1,643559,220131,1185775,66614,7284,592935,0
7,-1,646790,221625,1210626,67356,7430,605333,2
7,-1,641063,219768,1200121,66338,7724,600096,0
7,-1,639493,220032,1291939,66470,8169,645985,2
7,-1,642887,219979,1291863,66518,7795,646066,0
7,-1,642050,220401,1247504,66652,7489,623797,2
7,-1,642367,219625,1291434,66331,7411,645719,0
7,-1,638804,219544,1303938,66322,7501,651940,0
7,-1,640527,219925,1275475,66493,7952,637782,2
7,-1,666216,224479,1509868,69745,9450,754935,0
7,-1,646313,220754,1370374,66764,8235,685235,0
7,-1,643789,220535,1302000,66701,7979,650962,2
7,-1,643052,220447,1210244,66660,8248,605162,0
7,-1,644783,220362,1228746,66576,7373,614474,2
7,-1,650271,221500,1246876,67158,8022,623490,0
7,-1,648537,220354,1197936,66490,8057,599020,0
7,-1,641764,220333,1190662,66395,8404,595381,0
7,-1,647897,221792,1226286,67167,7236,612992,0
7,-1,642040,220096,1346025,66384,7571,673093,2
7,-1,644034,220052,1280247,66384,7891,640154,0
7,-1,638407,219799,1158687,66342,7903,579380,2
7,-1,643318,220188,1309465,66417,7986,654788,0
7,-1,647768,221512,1207950,67215,7693,604017,0
7,-1,645457,220799,1217663,66671,7289,609055,0
7,-1,639875,219232,1289434,66131,7919,644745,0
7,-1,640587,220122,1305028,66461,7460,652540,2
7,-1,642721,219302,1242177,66167,7876,621143,0
7,-1,642313,220240,1254806,66515,6932,627500,2
7,-1,643881,218984,1220497,65995,6757,610194,0
7,-1,648166,221905,1304972,67384,7567,652426,2
7,-1,643984,219576,1305247,66252,7737,652676,0
7,-1,648233,220459,1304453,66583,7849,652279,0
7,-1,645002,219570,1260939,66250,7901,630492,0
7,-1,646262,220081,1333215,66503,7943,666641,2
7,-1,639131,220220,1262939,66407,7413,631525,0
7,-1,642187,220865,1186441,66628,7912,593278,2
7,-1,648265,221901,1277520,67355,7293,638828,0
7,-1,642398,219933,1192976,66415,8069,596541,2
7,-1,646221,221341,1215106,66986,7522,607503,0
7,-1,640942,219933,1306039,66502,7553,652982,2
7,-1,642584,219883,1311199,66411,7832,655639,0
7,-1,645573,220073,1330575,66491,7568,665342,0
7,-1,644415,219999,1223714,66531,6914,611918,2
7,-1,641686,218820,1190608,65993,6914,595444,0
7,-1,640288,219371,1175830,66125,7609,587970,0
7,-1,646026,221368,1235637,67107,7458,617643,2
7,-1,645050,219886,1300793,66330,8166,650428,0
7,-1,643783,219759,1331769,66346,8428,665934,0
7,-1,648260,221213,1339358,67021,7636,669731,0
7,-1,642547,220152,1225823,66445,7216,612938,2
7,-1,670211,228829,1284867,68940,7798,642478,0
7,-1,643312,219396,1238182,66129,7826,619129,0
7,-1,643290,219934,1207469,66338,6910,603783,0
7,-1,643322,219898,1373504,66261,7993,687100,0
7,-1,639209,219458,1340958,66232,8293,670369,2
7,-1,643846,220540,1272160,66822,8307,636116,0
7,-1,641511,219395,1234981,66266,7176,617492,2
7,-1,644557,220730,1248735,67045,8281,624265,0
7,-1,638514,217991,1353177,65925,8368,676324,0
7,-1,664940,223892,1323995,69717,9195,661837,0
7,-1,639406,219052,1208168,66378,8037,604073,2
7,-1,665091,224162,1324725,69795,9581,662334,0
7,-1,643430,219578,1330606,66519,7993,665473,0
7,-1,643423,219302,1344062,66438,8232,671932,2
7,-1,641806,218180,1153312,66016,7883,576704,0
7,-1,642398,219287,1167979,66355,8248,583965,0
7,-1,642647,219023,1231992,66347,8159,615936,2
7,-1,689099,231845,1452202,72068,9820,726019,0
7,-1,645102,218810,1257100,66193,7763,628530,0
7,-1,642145,218910,1283643,66308,8498,641748,2
7,-1,649073,220723,1229061,67048,8463,614472,0
7,-1,645437,218925,1176409,66311,7491,588483,2
7,-1,656536,223422,1429170,69544,9228,714540,0
7,-1,632721,218439,1266934,66182,8246,633294,2
7,-1,635802,218935,1290787,66339,7702,645051,0
7,-1,641489,221105,1425508,67279,9051,712772,2
7,-1,639717,219220,1216548,66371,8686,608097,0
7,-1,640183,219381,1232357,66268,8189,616064,0
7,-1,637093,218892,1293456,66119,8036,646820,2
7,-1,636213,219121,1338339,66250,8549,668920,2
