0,-1,688718,236530,1265177,70435,7326,632275,0
0,2,763942,268333,1386982,79514,9410,693434,0
0,-1,694204,237416,1261077,70778,7918,630526,0
0,-1,697558,239276,1326155,71506,7660,662911,0
0,-1,692785,237150,1437830,70625,8436,718953,0
0,-1,692284,237300,1279056,70785,7515,639461,2
0,2,761296,266647,1483781,78770,9084,741922,0
0,2,781126,271798,1400301,82236,10177,700048,0
0,-1,700314,239259,1386042,71640,8778,693024,0
0,-1,720313,246981,1250438,73615,7289,625127,0
0,-1,697166,239367,1400966,71687,8396,699854,0
0,2,710282,249389,1476535,74354,9823,737884,0
0,-1,642095,220804,1402167,66706,8390,701047,0
0,2,716698,250914,1494056,74828,10536,746487,0
0,2,707956,248497,1329894,73779,9192,664705,0
0,2,709153,248582,1323566,73833,9464,661838,0
0,2,715342,250040,1577210,74482,10732,788486,0
0,-1,639429,219563,1260415,65998,7256,630200,0
0,-1,637619,218421,1309437,65475,9132,654674,0
0,2,712379,248373,1732112,73714,11765,866076,0
0,-1,659840,223231,1324084,68880,8769,661794,0
0,2,706076,248668,1417326,73878,9076,708637,0
0,2,703455,247565,1332931,73626,8922,666266,0
0,-1,638702,219064,1221201,65742,7815,610597,0
0,-1,640155,219096,1357863,65783,8423,678822,0
0,-1,645382,221018,1326579,66521,8459,663208,0
0,2,705120,247993,1330089,73694,8322,665060,0
0,-1,640440,219091,1168018,65670,7574,584000,0
0,2,706587,248005,1302103,73761,8808,650998,0
0,-1,633008,218861,1188186,65674,7077,594085,0
0,-1,634983,218627,1337313,65621,8344,668666,0
0,2,711607,248074,1781270,73780,12343,890221,0
0,-1,638672,219822,1362327,66098,7611,680999,0
0,-1,640881,220885,1292118,66706,9046,645499,0
0,2,707593,248308,1343418,73866,9484,671648,0
0,2,706622,247803,1390630,73618,9887,695336,0
0,-1,635042,218516,1207048,65605,7357,603630,0
0,-1,638310,218987,1224453,65789,7555,612736,0
0,2,711036,247961,1376353,73705,10144,688186,0
0,-1,651399,221781,1284817,68582,7874,642457,0
0,2,708355,248537,1367773,73864,8888,683889,0
0,-1,636185,218182,1289885,65490,7922,644886,0
0,-1,636137,218339,1199541,65544,7042,599802,0
0,2,711434,247814,1457210,73635,9922,728668,0
0,2,714636,250673,1615122,74697,10808,807555,0
0,-1,637627,218462,1147921,65544,7565,573966,0
0,2,707688,248658,1325332,73856,9208,662633,0
0,2,713970,250845,1458403,74687,9711,729118,0
0,-1,638097,218556,1289566,65630,8242,644795,0
0,2,732272,253745,1404892,77233,10306,702528,0
0,-1,645509,220605,1325275,66523,8396,662669,0
0,-1,641455,220820,1264744,66612,8079,632206,0
0,2,705042,247309,1404366,73496,9059,702161,0
0,-1,638479,219130,1236458,65860,7398,618111,0
0,2,712550,249404,1346901,74115,9445,673446,0
0,2,708528,248304,1461166,73773,9547,730151,0
0,-1,637951,218491,1258077,65654,8351,629029,0
0,-1,641523,219839,1336782,66275,9311,668365,0
0,-1,643221,220105,1276648,66420,9030,638225,0
0,2,708111,249270,1482457,74297,9311,741230,0
0,-1,635667,217612,1204666,65407,7402,602220,0
0,2,709654,248302,1306224,73930,9340,653119,0
0,-1,643076,220161,1209750,66259,7482,604808,0
0,-1,643803,219382,1277702,66051,7701,638852,0
0,-1,640797,219213,1520747,65820,9690,760397,0
0,-1,640426,219040,1199033,65762,8329,599513,0
0,2,716069,249481,1477805,74482,10421,738809,0
0,2,711879,248502,1290580,74035,9509,644976,0
0,-1,639862,218444,1235248,65555,8002,617650,0
0,2,720209,250781,1427717,75038,9882,713795,0
0,-1,661225,223640,1269607,69128,8463,634840,0
0,2,708766,249309,1331791,74290,9868,665524,0
0,-1,659784,223859,1303887,69094,8869,651924,0
0,-1,641591,219309,1249811,65755,7575,624764,0
0,2,708081,250800,1500099,75078,10514,749364,0
0,2,708775,249028,1483349,74198,9868,741638,0
0,-1,640254,219186,1348266,65735,9990,673889,0
0,2,709874,250241,1403763,74874,9881,701835,0
0,-1,642964,219838,1284213,65962,8592,642051,0
0,-1,639258,219884,1355508,66070,7889,677633,0
0,2,708510,248427,1406580,73905,8687,703300,0
0,2,707167,248859,1418419,74167,8655,709116,0
0,-1,637973,218689,1304115,65577,7562,651916,0
0,2,709871,248864,1271509,74132,8685,635665,0
0,-1,661827,224136,1225258,69256,8813,612591,0
0,2,704052,248303,1422481,73909,8998,711263,0
0,-1,660827,223645,1427283,69120,8743,713655,0
0,2,706503,248310,1288724,73961,8912,644324,0
0,-1,638476,219100,1202493,65998,7770,601302,0
0,-1,639175,218886,1170725,65873,7104,585464,0
0,2,708985,248480,1335568,73966,9125,667774,0
0,-1,662710,224192,1323686,69398,9602,661641,0
0,-1,640579,218801,1171751,65914,8044,585852,0
0,2,708016,248685,1411413,73927,9107,705532,0
0,-1,643508,220761,1300580,66865,8102,650279,0
0,2,708765,248719,1282823,73948,8578,641359,0
0,-1,639898,218991,1229137,65903,7201,614547,0
0,2,713854,248979,1408167,74103,9365,704096,0
0,2,705528,248741,1419130,73917,8648,709427,0
0,-1,642329,219572,1328729,66099,7962,664192,0
0,2,709289,249054,1485736,74102,9792,742815,0
0,2,709053,248785,1422831,73970,9600,711392,0
0,-1,639368,219228,1313723,65962,8246,656863,0
0,2,711571,249873,1398495,74547,9641,699252,0
0,-1,639141,218091,1339113,65718,8488,669599,0
0,-1,643986,219567,1204543,66159,8140,602256,0
0,2,709469,248948,1414798,74083,8906,707328,0
0,-1,643733,219748,1313826,66126,8290,656793,0
0,-1,663862,223435,1246872,69173,8867,623272,0
0,2,714833,251077,1404909,75031,9011,702462,0
0,-1,643938,219365,1211870,66069,7939,605916,0
0,2,708607,248596,1419822,73907,9464,709888,0
0,2,709854,249876,1346251,74568,9892,672930,0
0,-1,645590,219423,1212510,66072,7423,606270,0
0,2,708412,249467,1417105,74160,8131,708595,0
0,-1,633820,219349,1441237,66065,8005,720943,0
0,-1,638124,220013,1273253,66278,8191,636475,0
0,2,712208,250263,1333782,74705,9105,666969,0
0,-1,634246,218984,1520009,65882,8920,760011,0
0,-1,641283,221010,1331073,66858,8703,665385,0
0,2,712126,249401,1366981,74237,9145,683551,0
0,2,715509,248736,1331855,73917,9246,665966,0
0,2,727626,253468,1469248,77268,9265,734655,0
0,-1,658057,223965,1283224,69357,9214,641566,0
0,2,705990,248574,1390021,73838,8754,695044,0
0,-1,635565,218626,1204225,65785,7606,602059,0
0,-1,638612,219473,1256430,66037,7465,628231,0
0,2,707583,247831,1313875,73748,8165,656986,0
0,-1,644711,221151,1404262,66976,7806,701739,0
0,2,708529,249914,1369317,74559,9000,684653,0
0,-1,640048,220329,1290510,66580,7620,645281,0
0,2,705951,248136,1465351,73687,8944,732736,0
0,-1,639273,219347,1357293,66048,7522,678649,0
0,-1,635283,219102,1177166,65931,7758,588320,0
0,2,707904,248773,1372235,73994,8987,686114,0
0,-1,635325,218865,1264419,65867,7634,632196,0
0,-1,638544,219942,1284482,66247,8086,642248,0
0,2,707082,248422,1419824,73846,8703,709948,0
0,-1,638300,219377,1306794,66070,7602,653440,0
0,2,706878,248549,1445232,73910,9016,722656,0
0,-1,638069,219687,1150962,66155,7300,575275,0
0,-1,639341,218933,1220459,65949,7628,610182,0
0,2,713274,250716,1460820,74859,8600,730463,0
0,-1,641665,221018,1436628,66705,8696,718255,0
0,2,709389,248854,1355568,73952,9345,677824,0
0,-1,638975,219343,1263709,65912,7127,631791,0
0,2,732344,253329,1442649,77149,9236,721300,0
0,-1,659790,223649,1266333,69187,7412,633007,0
0,-1,638922,219579,1195036,66073,6840,597513,0
0,2,716496,251593,1519260,75112,10435,759302,0
0,-1,641866,220301,1122364,66288,7577,561151,0
0,-1,640573,219340,1229440,65975,7933,614352,0
0,2,709639,249044,1403503,73977,8848,701633,0
0,2,711216,248710,1378828,73848,8806,689389,0
0,-1,636847,220132,1203422,66168,7584,601919,0
0,-1,635538,219604,1163484,66026,6427,581719,0
0,-1,638895,219937,1276868,66195,8099,638451,0
0,-1,638776,220952,1339081,66703,8343,669431,0
0,2,714466,249500,1539491,74030,9752,769597,0
0,-1,636415,219251,1180711,65944,7805,590281,0
0,2,709877,249318,1425338,74084,9588,712564,0
0,-1,634493,218909,1317326,65782,7134,658631,0
0,-1,637854,219959,1277379,66110,7797,638748,0
0,2,713350,249840,1414035,74195,9431,707053,0
0,-1,639699,219652,1292578,66014,7081,646207,0
0,-1,644708,220340,1274629,66415,8765,637211,0
0,2,714981,249889,1479049,74334,9715,739534,0
0,-1,641249,219884,1350966,66167,8907,675043,0
0,-1,642025,219620,1291070,66014,7866,645509,0
0,-1,636165,219267,1291395,65894,7986,645665,0
0,2,715339,249439,1293202,73974,8766,646593,0
0,-1,639897,219655,1305224,66038,8248,652614,0
0,-1,637058,219374,1256352,65890,7075,628393,0
0,-1,640489,219560,1253518,66028,7283,626795,0
0,2,709492,250209,1660654,74252,10096,829758,0
0,-1,640100,219329,1234835,65973,7592,617469,0
0,2,710310,250208,1469191,74258,10137,734660,0
0,-1,643453,220371,1364495,66274,8052,682301,0
0,2,714834,252170,1603888,75146,10205,801830,0
0,-1,642195,219460,1278017,66000,7818,639051,0
0,-1,639113,219375,1180460,65928,7508,590262,0
0,2,711863,249200,1465456,73838,9287,732776,0
0,-1,640166,219184,1248294,65821,6744,624186,0
0,2,710422,249766,1662556,74081,10168,831312,0
0,-1,648389,222294,1384367,67232,8061,692274,0
0,2,714503,250517,1405402,74459,9715,703269,0
0,-1,644081,220488,1287283,66505,7670,643709,0
0,-1,639356,219134,1209185,65845,7122,604651,0
0,2,715784,249912,1441667,74204,9947,720877,0
0,-1,639047,218626,1257297,65623,7424,628702,0
0,2,709013,249012,1530799,73876,9471,765445,0
0,-1,663322,223780,1250073,69104,8473,625046,0
0,-1,636141,219829,1200403,66050,7622,600245,0
0,2,710929,249458,1518424,74018,9939,759195,0
0,-1,636732,219761,1371205,66097,7783,685642,0
0,-1,635310,219215,1246846,65820,6445,623412,0
0,2,708944,248263,1375293,73664,9747,687625,0
0,-1,658317,223825,1224740,69161,7687,612338,0
0,2,715094,249479,1318448,74144,8878,659232,0
0,-1,639966,219203,1147999,65858,7084,574029,0
0,-1,638169,219635,1318420,66020,7393,659277,0
0,-1,643850,221615,1297024,67067,7382,648550,0
0,2,712319,249880,1503706,74542,10751,752011,0
0,-1,638833,219455,1205378,66004,7360,602733,0
0,-1,641606,219686,1255784,66090,7590,627921,0
0,-1,639414,219167,1205452,65887,7295,602783,0
0,2,712907,248828,1465486,73891,9732,732740,0
0,2,708340,248222,1321313,73665,9213,660580,0
0,-1,641337,219631,1218042,65968,7044,609057,0
0,-1,641663,221279,1288609,66800,7881,644436,0
0,2,703099,246203,1282765,73107,8509,641319,0
0,-1,641480,220252,1194243,66417,8053,597171,0
0,-1,641283,220386,1172099,66295,6844,586109,0
0,2,705922,248375,1796253,73846,11260,898018,0
0,-1,659791,223926,1357689,69258,7394,678852,0
0,-1,639413,219492,1236246,66024,6822,618140,0
0,2,713334,249163,1463531,73981,10498,731791,0
0,-1,645765,220796,1304598,66572,8097,652352,0
0,2,719194,250942,1448467,74743,9784,724370,0
0,-1,642562,220761,1272635,66563,8303,636035,0
0,-1,639445,219450,1141979,65948,7097,571002,0
0,-1,643244,220323,1288331,66260,7979,643939,0
0,2,711206,248392,1417412,73565,9821,708694,0
0,-1,641922,220258,1264455,66404,7795,632298,0
0,-1,644962,221276,1267817,66766,7487,633966,0
0,2,715720,249197,1438108,73876,9916,719068,0
0,2,716666,249781,1306120,74026,9549,653043,0
0,-1,639902,219085,1249450,65684,7463,624734,0
0,-1,641937,221723,1248514,66861,7697,624331,0
0,2,708709,248486,1259195,73678,9068,629503,0
0,-1,644881,221291,1336510,66748,8429,668244,0
0,-1,662366,224750,1264662,69353,8422,632267,0
0,-1,639038,219541,1248658,65832,7744,624278,0
0,2,709420,248355,1495972,73650,9479,747948,0
0,-1,640770,219451,1229101,65878,7487,614527,0
0,2,705979,247610,1474756,73380,9722,737326,0
0,-1,639755,218802,1258896,65612,7242,629332,0
0,-1,639033,219449,1270081,65923,7723,635046,0
0,-1,641900,219716,1255008,65927,8050,627628,0
0,2,728355,253145,1311422,77086,9948,655614,0
0,-1,637781,218081,1254752,65375,7324,627380,0
0,2,713084,250201,1372940,74500,9139,686497,0
0,-1,637669,218817,1166661,65571,6972,583332,0
0,2,733918,253267,1428420,77105,10919,713311,0
0,-1,645706,221171,1420259,66601,7405,710289,0
0,2,713757,250769,1339771,74802,8726,669848,0
0,-1,642633,219785,1243080,65962,7842,621629,0
0,2,732635,252857,1401540,76912,10417,700785,0
0,-1,664745,223946,1284559,69114,9133,642240,0
0,-1,639658,219390,1359035,65819,8959,679014,0
0,2,714134,249036,1249035,73958,9074,624410,0
0,2,715484,248147,1391547,73608,8769,695781,0
0,-1,640698,219606,1227308,65844,7941,613661,0
0,2,709014,248826,1334677,73852,8113,667295,0
0,-1,642301,219485,1210548,65996,8124,604918,0
0,2,712393,250007,1348875,74433,8801,674338,0
0,-1,641650,220166,1306846,66209,7557,653446,0
0,-1,643737,220081,1239282,66058,7510,619704,0
0,2,731272,253022,1424010,77010,9524,712060,0
0,-1,652314,222356,1231168,67230,8196,615566,0
0,2,710581,248221,1492947,73688,9547,746508,0
0,-1,645580,220354,1372612,66251,8428,686298,0
0,2,717181,250177,1324927,74504,8729,662291,0
0,-1,645035,219819,1197194,66153,7266,598656,0
0,-1,644722,220224,1229118,66101,7682,614615,0
0,-1,648713,220857,1240716,66181,8899,620411,0
0,2,716843,251178,1327214,74916,8921,663570,0
0,-1,639627,220451,1347525,66117,8247,673804,0
0,2,712368,248147,1412658,73595,9657,706425,0
0,-1,645518,221612,1284133,66681,8960,642118,0
0,2,709586,247105,1264756,73323,8850,632461,0
0,-1,641313,220323,1368266,66021,8955,684102,0
0,-1,645571,221005,1449783,66295,8464,724397,0
0,2,718207,250831,1339535,74681,9261,669715,0
0,-1,647584,222485,1307259,67044,8634,653183,0
0,-1,664635,225836,1357167,69638,9089,678551,0
0,-1,645742,221407,1348230,66709,8432,673845,0
0,2,706785,250138,1364593,73974,9015,682075,0
0,2,723576,252910,1368756,76435,10801,684344,0
0,-1,646111,221364,1335323,66713,8634,667474,0
0,-1,647212,221690,1270168,66807,7999,635159,0
0,2,706379,248778,1476362,73354,9324,738250,0
0,-1,641117,220181,1374629,66018,8117,687361,0
0,2,709527,249674,1360762,73640,9105,680420,0
0,-1,644353,220396,1190639,66146,7885,595341,0
0,-1,641735,219895,1407924,66087,8466,703872,0
0,2,731136,253642,1475065,77182,10362,737425,0
0,-1,641603,219508,1244883,65910,8613,622089,0
0,-1,640330,219089,1186625,65769,7637,593313,0
0,2,706326,248519,1403265,73342,9607,701634,0
0,-1,640470,219291,1493361,65740,9546,746549,0
0,-1,639477,219590,1383397,65926,9383,691698,0
0,2,704769,248232,1528815,73353,9397,764318,0
0,-1,644673,221066,1203379,66624,8140,601757,0
0,2,707990,249081,1611306,73564,9678,805516,0
0,-1,637816,218694,1200323,65539,7569,600215,0
0,-1,642803,219889,1288807,66029,7779,644267,0
0,-1,645352,220937,1299790,66586,8544,649967,0
0,2,711863,249578,1351980,74802,9752,675953,0
0,-1,643176,219618,1286907,65947,7599,643509,0
0,2,711679,248084,1430326,74077,10955,715137,0
0,-1,644421,219349,1299381,65957,8276,649747,0
0,2,713602,251125,1268375,75351,9613,634121,0
0,-1,637179,219174,1363880,65840,8226,681955,0
0,2,709015,248353,1417128,74217,9237,708386,0
0,-1,637608,219076,1419554,65724,8901,709632,0
0,-1,637051,218739,1288782,65586,8026,644445,0
0,2,709234,249309,1240375,74576,9117,620081,0
0,-1,638151,218865,1187230,65639,7458,593659,0
0,2,716074,250441,1316330,75170,9071,658114,0
0,-1,661025,223575,1220108,68943,8475,610149,0
0,-1,642006,219267,1246282,65778,8429,623197,0
0,-1,661973,224354,1292585,69204,8537,646224,0
0,-1,662016,224422,1299981,69333,7999,649973,0
0,2,710904,249381,1281801,74698,8913,640793,0
0,-1,644813,220952,1269103,66714,7835,634574,0
0,-1,638715,218324,1250165,65467,8795,625124,0
0,2,710130,249068,1422376,74484,9710,710754,0
0,-1,641888,218993,1276652,65852,8342,638168,0
0,2,711145,247718,1264085,73943,9243,631998,0
0,-1,644506,221271,1326303,66744,8113,663085,0
0,-1,642111,219560,1261664,65936,8047,630855,0
0,2,716674,249593,1426294,74774,9849,712201,0
0,2,709808,247932,1413845,74095,9752,706586,0
0,-1,641887,219631,1282483,65967,8310,641239,0
0,-1,641749,219302,1159848,65864,8000,579868,0
0,2,705783,248057,1399063,74098,10208,699394,0
0,-1,662181,224098,1221121,69210,8340,610571,0
0,-1,650574,221625,1300539,66857,8499,650261,0
0,-1,641090,218879,1217123,65578,7946,608443,0
0,2,731876,253171,1489374,77535,10750,744500,0
0,2,707104,248054,1420767,74081,9186,710340,0
0,-1,641940,219118,1210699,65737,8249,605380,0
0,-1,646613,220399,1191047,66017,8069,595486,0
0,2,716634,250463,1243271,75086,8538,621493,0
0,-1,642925,218703,1271950,65360,8531,635932,0
0,-1,642905,219000,1214279,65488,7597,607141,0
0,2,707274,248250,1291266,74184,8754,645591,0
0,-1,638095,219642,1279859,65761,8582,639952,0
0,2,708148,248196,1311701,74086,8820,655845,0
0,-1,637652,218930,1294833,65475,7972,647391,0
0,2,713604,250176,1308497,75056,8653,654189,0
0,-1,640751,219969,1315020,65843,7724,657531,0
0,2,712561,249580,1309691,74863,9203,654856,0
0,-1,642544,219823,1287781,65830,8052,643895,0
0,-1,641857,220486,1304718,66234,8110,652310,0
0,2,714780,249096,1617091,74288,10370,807827,0
0,-1,666775,228314,1359907,68326,8657,679968,0
0,-1,643212,219125,1294057,65623,7946,647002,0
0,-1,638551,219153,1440740,65810,8920,720176,0
0,2,712190,249443,1442619,74706,9862,720176,0
0,2,710959,248234,1325085,74223,9425,662450,0
0,-1,644239,220747,1340907,66436,7549,670351,0
0,2,709014,248217,1425614,74064,8857,712789,0
0,-1,639795,219247,1312368,65756,8103,655870,0
0,-1,646427,221247,1292952,66720,8038,646320,0
0,-1,642758,219024,1377481,65700,8809,688648,0
0,2,715713,249409,1368338,74709,9864,684158,0
0,-1,642896,220917,1208225,66591,7650,604033,0
0,2,716351,250467,1401352,75069,10004,700395,0
0,-1,642978,220977,1262542,66558,7591,631307,0
0,-1,638057,218415,1256420,65471,7727,628102,0
0,2,710621,247920,1430107,73924,9626,715058,0
0,-1,645045,221005,1309676,66524,8154,654301,0
0,-1,639228,218655,1343044,65528,7963,671181,0
0,-1,642174,219564,1483231,65835,8537,741399,0
0,2,708250,248026,1444593,73900,9049,721738,0
0,-1,642695,219027,1201795,65624,8010,600855,0
0,2,710692,248401,1334313,74102,9687,667096,0
0,2,714349,248743,1462601,74136,10190,731295,0
0,-1,645067,220877,1221087,66475,7203,610583,0
0,-1,644188,220001,1216498,66042,7972,608208,0
0,-1,641255,219092,1254973,65715,8126,627448,0
0,2,707440,248066,1237196,73860,8762,618646,0
0,-1,643969,219377,1306868,65769,8113,653345,0
0,2,706202,248263,1504202,74273,10072,752123,0
0,-1,644714,219238,1167260,65796,7882,583674,0
0,2,734532,253644,1514132,77697,10845,756522,0
0,-1,638231,218670,1182885,65541,7142,591387,0
0,-1,639694,218895,1253177,65640,7245,626582,0
0,2,714466,249798,1334632,74728,9819,667357,0
0,-1,639044,219603,1203928,65903,7133,601929,0
0,2,714811,250463,1334120,75051,8855,666777,0
0,2,713506,250220,1367578,74944,8922,683824,0
0,2,717604,251569,1309728,75677,8840,655034,0
0,-1,639001,218441,1263677,65487,7593,631774,0
0,-1,646346,221200,1194218,66762,7430,597022,0
0,2,713227,249440,1425809,74523,9652,712938,0
0,-1,642438,218730,1175635,65500,7690,587850,0
0,-1,642333,220190,1337815,66073,7780,668854,0
0,2,741557,258942,1779491,77416,12200,889735,0
0,-1,647064,221256,1181630,66692,7269,590798,0
0,2,713806,249814,1432011,74678,10190,715958,0
0,-1,661921,223450,1305920,68937,8214,652924,0
0,2,714823,249448,1355218,74496,9461,677513,0
0,-1,640981,218396,1197611,65449,7949,598821,0
0,-1,644154,219125,1220808,65707,7786,610383,0
0,-1,637520,218593,1166456,65508,7065,583168,0
0,2,712773,249504,1390246,74543,10079,695062,0
0,-1,645259,220951,1189189,66506,7465,594461,0
0,2,718208,250916,1323517,75154,9231,661738,0
0,-1,646593,221383,1241146,66732,7865,620535,0
0,-1,644448,220469,1190848,66432,7591,595342,0
0,-1,644448,219358,1173160,65732,7756,586526,0
0,2,716012,250072,1491642,74528,9793,745747,0
0,-1,644972,220063,1192046,66150,7984,595897,0
0,2,713666,250000,1355375,74488,9570,678281,0
0,-1,643749,220337,1165012,66298,7132,582492,0
0,-1,644623,219588,1152515,65913,7745,576182,0
0,-1,648662,220937,1221163,66593,7800,610594,0
0,2,715951,249468,1444528,74396,9333,722290,0
0,2,716630,250483,1308438,75034,9600,653992,0
0,-1,643295,219122,1273021,65597,7527,636492,0
0,-1,643138,218707,1147909,65407,6858,573741,0
0,2,714456,248964,1471365,74267,10073,735733,0
0,2,714010,249082,1576965,74298,9816,788399,0
0,-1,668511,224246,1345471,69099,8389,672866,0
0,2,718265,249597,1541051,74524,10540,770707,0
0,-1,653993,223945,1338808,68595,8618,669448,0
0,-1,634569,219084,1276242,65233,7598,638111,0
0,2,714547,249855,1378429,74824,10262,689223,0
0,-1,640090,221352,1194615,66224,7485,597128,0
0,2,708916,248423,1416939,74086,10038,708392,0
0,-1,636409,219297,1179669,65283,7404,589892,0
0,-1,632739,218666,1109827,65081,7401,554899,0
0,-1,638767,220180,1165611,65777,7389,582703,0
0,2,712335,248985,1351092,74277,9348,675573,0
0,-1,637022,220638,1202900,65922,8068,601518,0
0,2,713974,248778,1427084,74195,9598,713610,0
0,-1,638817,220887,1287665,66066,8059,643835,0
0,-1,636728,219276,1285207,65256,8011,642565,0
0,-1,635005,219193,1255513,65195,8325,627726,0
0,2,715510,250132,1557812,74737,9849,778970,0
0,-1,639733,219919,1263112,65688,7618,631485,0
0,-1,634580,218467,1254810,65032,7615,627325,0
0,-1,656643,223209,1376367,68391,8951,688124,0
0,2,720394,250719,1294776,74954,9993,647371,0
0,-1,633640,219020,1167687,65220,7758,583892,0
0,2,734580,253490,1488439,77662,11183,744218,0
0,-1,637320,219337,1222992,65362,8320,611562,0
0,-1,634757,218818,1238296,65035,8257,618998,0
0,-1,635265,219334,1341785,65405,7753,671145,0
0,2,715416,248649,1456962,74129,10343,728217,0
0,-1,635911,218343,1377408,65033,8350,688606,0
0,2,716430,250974,1367282,75198,9498,683429,0
0,-1,637314,218861,1290346,65292,7770,645161,0
0,2,710906,249319,1368769,74426,10215,684304,0
0,-1,638263,218311,1150954,65823,8815,575232,0
0,2,734981,253496,1506690,77537,10414,753287,0
0,-1,639796,218531,1291699,66001,8582,646227,0
0,2,732054,253349,1573210,77494,10636,786910,0
0,-1,638850,218314,1188919,65855,8553,594165,0
0,2,745637,259790,1439031,77700,10198,719350,0
0,2,718491,250848,1422688,75056,10228,711503,0
0,-1,644496,219784,1540458,66387,10348,770398,0
0,2,719997,250659,1405846,75082,9950,702733,0
0,-1,647555,220662,1304232,66939,8532,652138,0
0,-1,636141,219248,1202977,66227,8176,601395,0
0,2,737712,254479,1493160,77794,9835,746569,0
0,-1,636108,218730,1197057,66029,7609,598474,0
0,2,710287,247953,1368027,73917,10099,683904,0
0,-1,638567,218880,1240206,66073,8549,620080,0
0,-1,635766,218586,1284401,66014,8345,642173,0
0,-1,636389,218396,1292924,66058,7587,646462,0
0,2,712471,248440,1335865,74326,9631,667930,0
0,-1,639598,218845,1334851,66153,7995,667355,0
0,2,712983,247797,1352461,74058,9802,676120,0
0,-1,648048,221768,1233179,67262,7308,616622,0
0,2,712237,247436,1423970,73988,10218,711989,0
0,-1,638607,218753,1232592,66093,8474,616188,0
0,-1,641151,220079,1206079,66762,6790,603058,0
0,-1,641992,219265,1182447,66295,7732,590991,0
0,2,704117,247512,1407667,73998,9499,704104,0
0,-1,646678,221410,1205769,67303,7392,602813,0
0,2,710848,249188,1415399,74627,9451,707627,0
0,-1,639131,218816,1276510,66080,8004,638231,0
0,-1,639907,218222,1121685,65911,7529,560792,0
0,2,707654,248958,1417486,74671,9013,708615,0
0,-1,641047,219347,1305264,66256,8429,652594,0
0,-1,659589,223387,1348253,69433,9111,674135,0
0,2,704155,247782,1378686,74196,8946,689057,0
0,-1,647995,222268,1311122,67576,7798,655496,0
0,-1,660658,223526,1642776,69427,9995,821357,0
0,2,711491,248036,1436509,74242,9516,717918,0
0,-1,640811,218712,1203061,66026,8468,601498,0
0,-1,640391,219134,1272585,66279,8009,636277,0
0,-1,643811,220274,1202670,66831,7519,601345,0
0,2,706798,247635,1262867,74078,9220,631348,0
0,2,709369,248103,1348736,74148,9395,674242,0
0,-1,640573,218806,1304537,66131,8539,652213,0
0,-1,640782,219371,1288079,66296,7640,643952,0
0,-1,640629,218121,1331800,65863,8154,665817,0
0,2,731130,253374,1451878,77632,9897,725943,0
1,-1,690382,236838,1346488,70560,7826,673266,0
1,-1,693505,237436,1339860,70778,8419,669892,0
1,-1,691422,236894,1369863,70573,7851,684935,0
1,2,768967,268041,1486037,79397,10444,742922,0
1,-1,693386,237090,1356741,70635,7724,678387,0
1,2,762124,267086,1316606,78935,8858,658203,0
1,-1,689601,236966,1250543,70614,7774,625183,0
1,-1,688938,236574,1303920,70482,8311,651785,0
1,2,728106,253151,1462828,77198,9918,731396,0
1,-1,640514,218683,1496400,65633,8314,748170,0
1,-1,634760,218916,1207491,65806,7554,603717,2
1,2,709801,248484,1337324,73754,10592,668933,0
1,2,708749,249083,1447397,74204,10388,723376,0
1,2,715248,250270,1475667,74566,10116,737200,0
1,2,708606,247951,1346203,73574,8945,673047,0
1,-1,635868,218303,1310312,65586,7587,655164,0
1,-1,637945,219278,1398278,65884,8007,699132,0
1,2,716658,250488,1449126,74692,10357,724476,0
1,-1,635541,218305,1297903,65350,8327,648791,0
1,2,704197,247866,1390198,73637,9493,695151,0
1,-1,639395,218902,1281010,65608,8375,640563,0
1,2,704499,248416,1379031,73882,9104,689427,0
1,-1,637587,218563,1164551,65565,7499,582268,0
1,-1,636660,217836,1192724,65263,7670,596137,0
1,2,707196,248287,1320467,73845,8519,660125,0
1,-1,648227,221717,1336633,66835,9492,668526,0
1,2,705610,247917,1303829,73660,8711,651841,0
1,-1,642058,219098,1283022,65707,7944,641593,0
1,-1,634969,219019,1375760,65814,8529,687859,0
1,2,708771,248013,1482657,73702,9664,741252,0
1,-1,638848,220325,1345380,66522,7835,672473,0
1,2,708206,248404,1485426,73923,10934,741804,0
1,-1,635632,218164,1208222,65569,7849,604059,0
1,-1,639704,220214,1257281,66424,8024,628509,0
1,2,709953,249154,1417311,74276,9720,708643,0
1,-1,641943,220677,1307338,66650,8484,653494,0
1,2,711222,248452,1322332,73903,9888,661252,0
1,2,708027,248463,1415355,73976,8857,707600,0
1,-1,635214,218777,1269966,65784,7989,635082,0
1,-1,638631,219455,1225379,65959,7633,612643,0
1,-1,636687,218526,1307493,65648,7326,653535,0
1,2,733387,253397,1402746,77292,10495,701279,0
1,-1,646772,221662,1222150,66917,8038,611072,0
1,2,708144,248596,1734392,73924,12304,866700,0
1,2,732929,257358,1433082,76394,9389,716499,0
1,2,714185,249260,1354749,74002,9740,677508,0
1,-1,640336,218833,1172469,65730,7989,585675,0
1,2,713084,249452,1281608,74052,9708,640790,0
1,-1,646793,221461,1328818,66872,8745,664390,0
1,-1,634965,218645,1233799,65670,7661,616803,0
1,2,707395,248314,1388791,73753,9428,694397,0
1,2,711862,249083,1409975,74058,9283,705018,0
1,-1,639181,219431,1157328,65994,7457,578666,0
1,-1,636885,219105,1186664,65799,7451,593319,0
1,2,711124,248656,1461264,73944,10107,730534,0
1,-1,637879,218332,1279105,65569,7957,639579,0
1,-1,641255,219024,1199003,65822,7485,599546,0
1,2,713886,247947,1440269,73800,8997,720430,0
1,2,710322,248357,1401698,73887,8885,700868,0
1,-1,637317,218464,1258486,65626,7120,629250,0
1,-1,638220,218989,1286716,65835,7629,643190,0
1,-1,648628,221659,1307789,67001,7818,653863,0
1,-1,640936,219268,1244222,65940,7871,622139,0
1,-1,647648,221214,1249541,66634,7871,624738,0
1,2,711097,248449,1387212,73982,9991,693509,0
1,-1,643800,219436,1293318,65870,8657,646586,0
1,2,711609,248379,1378184,73960,9421,689123,0
1,2,715448,249721,1443897,74604,10105,721996,0
1,-1,641733,218833,1216281,65751,7714,608170,0
1,2,703526,248819,1365453,74031,9322,682539,0
1,-1,638764,219582,1290955,65869,7824,645262,0
1,2,706202,248642,1472004,74010,9829,735954,0
1,-1,647563,222100,1389352,66963,9131,694615,0
1,2,706507,248146,1364781,73851,9787,682358,0
1,-1,663537,224704,1371183,69348,8809,685581,0
1,2,710682,249452,1364237,74343,10110,681774,0
1,-1,647150,221671,1410650,66821,8680,705288,0
1,-1,640636,218765,1320517,65660,8057,660228,0
1,2,705536,248210,1303445,73881,8309,651704,0
1,2,707421,248518,1403615,73938,9267,701779,0
1,-1,641109,219649,1253211,65992,7549,626388,0
1,2,713265,250461,1320108,74939,9544,659962,0
1,-1,640907,219941,1307026,66133,7916,653435,0
1,2,706514,248521,1418062,74024,10036,709028,0
1,-1,644064,219577,1461779,65996,8068,730282,0
1,2,707202,249208,1351902,74192,8306,675948,0
1,-1,644061,219512,1357669,66070,8173,678737,0
1,-1,645879,221867,1332220,67133,8000,666228,0
1,2,729176,252987,1313246,77289,9391,656586,0
1,-1,666494,228083,1357032,68580,8428,678516,0
1,2,706867,248730,1700122,74064,11203,849423,0
1,-1,641129,219078,1205410,65939,8228,602991,0
1,-1,660114,223736,1263080,69295,8413,631520,0
1,2,709470,249014,1614229,74090,10279,807087,0
1,-1,663188,223583,1262637,69192,8317,631283,0
1,2,713280,249754,1339867,74352,9214,669945,0
1,2,706035,249462,1375450,74244,8994,687726,0
1,2,707775,248752,1401060,73982,8925,700501,0
1,-1,642002,218921,1235372,65861,7606,617620,0
1,-1,643461,218923,1201491,65922,7024,600863,0
1,2,708324,248620,1309899,73917,9021,654952,0
1,2,707846,248870,1328507,74090,9265,664194,0
1,-1,644799,221007,1370341,66876,8606,685204,0
1,-1,645875,220278,1329405,66549,8571,664482,0
1,2,707823,248339,1328310,73842,8620,664180,0
1,-1,647403,221726,1300868,67172,8613,650423,0
1,-1,642878,219209,1303101,65964,8543,651545,0
1,2,711387,249466,1465027,74439,9620,732816,0
1,-1,641520,218668,1280069,65801,8134,640040,0
1,2,707425,247854,1323173,73636,8696,661548,0
1,2,706896,248439,1249390,73881,9091,624473,0
1,-1,666453,224313,1242497,69440,8653,621204,0
1,2,736341,258278,1376081,76832,8837,688069,0
1,-1,632099,218704,1264856,65810,8097,632453,0
1,-1,633457,218939,1242027,65835,8599,620985,0
1,2,729110,253394,1344391,77309,9190,672245,0
1,-1,660658,223831,1268844,69256,9244,634189,0
1,-1,657227,223582,1352635,69246,9378,676298,0
1,2,716852,250258,1406082,74769,9492,703112,0
1,2,712099,248454,1272044,73824,9236,636079,0
1,2,706487,249147,1433158,74091,9279,716455,0
1,-1,639326,219486,1373630,66093,8196,686957,0
1,2,729189,253655,1480984,77332,9244,740455,0
1,-1,634425,219039,1239298,65959,7308,619635,0
1,-1,638832,220572,1323334,66677,7469,661658,0
1,2,711306,249846,1433801,74546,9328,716955,0
1,2,708074,248730,1251987,73993,8614,626034,0
1,-1,661845,224440,1244924,69520,7809,622441,0
1,-1,635411,218889,1186849,65927,7918,593440,0
1,2,708901,248995,1424517,74068,8802,712298,0
1,-1,638503,219492,1160142,66054,6962,580025,0
1,2,706051,248699,1372722,73942,8382,686374,0
1,-1,644204,220462,1331730,66601,8810,665696,0
1,-1,639332,220931,1294833,66852,7980,647437,0
1,-1,637700,218504,1272464,65746,6750,636190,0
1,2,708382,248564,1462689,73822,9235,731096,0
1,-1,637866,219426,1316309,66052,6952,658136,0
1,2,710517,249208,1327410,74060,9061,663757,0
1,-1,641999,219966,1159639,66251,7938,579664,0
1,2,731865,253430,1405365,77328,9554,702758,0
1,-1,638017,218679,1173287,65853,7551,586583,0
1,2,708366,249202,1527719,74120,8450,764116,0
1,-1,640674,220886,1296057,66771,8219,648058,0
1,-1,641114,220821,1263723,66438,7201,631712,0
1,2,716808,249943,1435584,74429,9734,717796,0
1,-1,639635,219687,1263422,66092,7636,631686,0
1,-1,639992,220398,1281798,66490,7460,640862,0
1,2,708646,249031,1480276,73984,9683,740073,0
1,-1,639180,219087,1208755,65858,8015,604409,0
1,-1,642488,219798,1363361,66127,9828,681610,0
1,2,708275,248634,1770143,73811,11427,884978,0
1,-1,637644,220942,1270660,66749,7987,635349,0
1,2,714162,250582,1502133,74723,10481,750959,0
1,-1,635930,219427,1210751,66006,7275,605435,0
1,-1,639351,220291,1326688,66279,8931,663216,0
1,-1,640613,220162,1301518,66177,7383,650821,0
1,2,715268,250566,1491551,74723,9840,745696,0
1,-1,657521,223737,1175912,69185,7796,587819,0
1,2,709176,249369,1393498,74095,9917,696735,0
1,-1,641558,219727,1295087,66078,7920,647564,0
1,2,711722,249162,1498025,74027,11105,748971,0
1,-1,636739,219393,1214296,65989,6976,606991,0
1,-1,641936,220918,1315895,66664,7994,657700,0
1,-1,639435,219284,1214435,65906,8478,607151,0
1,2,714294,250393,1396131,74541,8899,698027,0
1,-1,640659,219976,1193889,66174,7229,596847,0
1,-1,641596,219886,1187393,66143,6910,593674,0
1,2,717723,249347,1341485,74151,8740,670653,0
1,-1,636986,220056,1280068,66219,7879,640032,0
1,-1,638583,219573,1260081,65985,7234,630076,0
1,-1,640027,219213,1333580,65868,7222,666827,0
1,-1,638265,219353,1320074,65919,6963,660132,0
1,2,720065,250291,1458674,74285,9496,729367,0
1,-1,637403,218620,1227340,65655,7136,613717,0
1,2,714860,251137,1520776,74770,10390,760444,0
1,2,712224,250254,1316336,74300,9254,658199,0
1,-1,640126,219219,1344188,65790,6833,672147,0
1,-1,643305,219653,1195041,66035,7471,597608,0
1,-1,642421,220722,1276456,66594,8021,638434,0
1,2,715436,251223,1450427,74788,10126,725187,0
1,-1,641587,220014,1209901,66146,7531,605011,0
1,2,710837,250307,1478542,74352,9677,739319,0
1,-1,660697,223915,1246519,69280,7984,623271,0
1,2,710812,249425,1398764,74163,9368,699415,0
1,-1,641980,219478,1192881,66007,7406,596467,0
1,2,718872,251996,1503136,75218,10130,750645,0
1,-1,661341,224469,1233953,69429,7801,616951,0
1,-1,639593,219048,1190277,65833,6984,595205,0
1,2,716965,251973,1430481,75202,9766,715331,0
1,-1,641928,219537,1282809,65979,8018,641378,0
1,-1,635389,219465,1193907,65908,7042,597009,0
1,2,710268,248459,1488250,73652,10009,744131,0
1,-1,641828,220914,1302798,66607,7803,651356,0
1,-1,640046,221250,1329422,66815,8132,664790,0
1,2,735988,254076,1318017,77428,10037,659054,0
1,-1,640391,220127,1277922,66212,7906,639004,0
1,-1,643367,220813,1186488,66433,7602,593314,0
1,2,710867,248296,1443613,73712,9468,721749,0
1,-1,636104,219211,1260005,65923,6700,630046,0
1,-1,658292,223904,1235848,69227,7693,617895,0
1,2,708492,248733,1533366,73953,10750,766604,0
1,-1,640258,220131,1208976,66174,7016,604360,0
1,2,711084,250027,1484460,74483,9805,742309,0
1,-1,639406,218836,1180811,65757,7316,590554,0
1,-1,645300,221482,1336700,66848,8368,668374,0
1,2,711678,249576,1345314,74143,8874,672587,0
1,-1,662382,223646,1262920,69106,8428,631399,0
1,-1,646146,220644,1336403,66566,8155,668233,0
1,-1,641427,220347,1443313,66496,8326,721645,0
1,2,711386,249716,1369049,74460,9124,684537,0
1,-1,643459,219735,1201507,65999,7582,600801,0
1,2,736771,253659,1469977,77376,10657,735076,0
1,-1,641119,220253,1397354,66254,7287,698725,0
1,2,714903,250652,1431974,74723,9356,715994,0
1,-1,639831,220012,1348682,66415,7504,674394,0
1,-1,641471,219482,1283558,65951,7482,641706,0
1,2,712195,248540,1412627,73728,8216,706321,0
1,-1,640443,219379,1321448,65818,7569,660671,0
1,-1,643835,220666,1273630,66346,8668,636619,0
1,-1,639932,218901,1235901,65776,6888,617987,0
1,2,734668,253690,1401520,77076,10462,700643,0
1,-1,639851,219683,1167605,66075,7015,583853,0
1,-1,642781,220121,1338473,66094,7856,669290,0
1,2,712846,248510,1327574,73605,8635,663731,0
1,2,713256,248445,1411365,73578,9992,705578,0
1,-1,641292,219072,1178375,65771,7287,589248,0
1,2,707777,248500,1324679,73524,9073,662270,0
1,-1,642500,219262,1291692,65717,7674,645901,0
1,-1,642488,220130,1260572,66007,7236,630273,0
1,-1,640341,220665,1322878,66436,7625,661379,0
1,2,713758,249490,1470644,73945,9915,735305,0
1,-1,642767,219731,1439565,65980,10271,719646,0
1,-1,641506,219636,1274123,65850,8255,637001,0
1,2,709135,247951,1435164,73524,10017,717217,0
1,-1,643740,220563,1298063,66394,7703,649046,0
1,-1,639812,220154,1300751,66038,7650,650387,0
1,2,711502,248176,1486265,73607,10062,743108,0
1,-1,642232,219855,1443656,65921,8181,721826,0
1,-1,661639,224259,1210419,69199,8276,605173,0
1,2,710416,248441,1460459,73701,9605,730262,0
1,-1,638884,219532,1186062,65889,7328,592917,0
1,2,711028,249491,1389466,74094,9139,694663,0
1,-1,642146,219984,1327597,65929,7357,663789,0
1,2,707024,248224,1259116,73659,8650,629547,0
1,-1,643347,219928,1246662,65969,8215,623362,0
1,2,717475,251586,1484206,75010,9357,742029,0
1,-1,643106,219735,1366434,65882,7781,683186,0
1,-1,641030,219966,1444487,66047,9356,721853,0
1,2,733759,252829,1317438,76987,10351,658655,0
1,-1,640266,219448,1648742,65843,9393,824318,0
1,2,715681,248767,1505993,73869,9421,753001,0
1,2,709661,248915,1300727,73932,8569,650389,0
1,-1,640777,219303,1455105,65866,8661,727905,0
1,2,710475,248446,1450773,73697,8867,725335,0
1,-1,639410,219782,1207915,66056,7083,603956,0
1,-1,643075,220001,1346732,66052,7363,673292,0
1,2,709172,248253,1382356,73584,8563,691300,0
1,-1,668037,225116,1223388,69628,8558,611738,0
1,2,712418,248836,1422021,73900,9030,711041,0
1,-1,665145,225407,1269906,69677,7872,634827,0
1,2,710791,248250,1247333,73630,8888,623496,0
1,-1,649622,221977,1360020,67101,8548,680221,0
1,-1,648121,221130,1227509,66534,8004,613652,0
1,-1,647345,220880,1192926,66253,8371,596452,0
1,2,710883,248489,1464886,73694,9603,732441,0
1,-1,641540,221007,1277258,66252,8485,638670,0
1,2,710675,248771,1310844,73775,8710,655387,0
1,-1,640899,220272,1340805,66012,7947,670445,0
1,2,714653,249041,1445077,73876,9373,722391,0
1,-1,643255,219952,1424978,65896,8194,712507,0
1,-1,642974,219987,1388304,65915,8895,694169,0
1,2,733146,253006,1541257,76913,9976,770558,0
1,2,711338,247097,1451911,73261,10256,726017,0
1,-1,640948,220310,1227028,66018,8705,613541,0
1,-1,642200,220202,1255621,66011,8028,627775,0
1,-1,642670,219691,1355988,65873,8809,678288,0
1,-1,640112,219890,1347610,65972,8622,673799,0
1,2,705093,247906,1249643,73025,8532,624852,0
1,-1,641620,219963,1212062,66067,7574,606086,0
1,2,705232,248861,1328886,73383,9092,664441,0
1,-1,645305,219873,1189476,66059,7592,594791,0
1,2,703839,248200,1487351,73125,9356,743461,0
1,-1,640286,219283,1208806,65734,7627,604396,0
1,-1,641779,220494,1293524,66482,8321,646863,0
1,2,729722,253720,1458709,76752,10445,729210,0
1,-1,640880,219421,1303088,65859,8468,651400,0
1,-1,640821,219668,1320858,65998,7863,660281,0
1,2,704157,248511,1340571,73355,9269,670279,0
1,-1,646925,221206,1389884,66785,9405,694969,0
1,2,707560,248603,1421317,73440,9239,710465,0
1,-1,645662,219798,1440972,66017,9718,720423,0
1,-1,641722,220311,1166169,66142,7674,583143,0
1,2,709035,248641,1410360,73402,9111,705164,0
1,-1,641759,219324,1195524,65893,7988,597760,0
1,-1,641908,219580,1274319,65925,8104,637176,0
1,2,714173,249855,1587603,74890,11070,793291,0
1,-1,639857,218820,1171979,65637,7344,586025,0
1,-1,640860,219352,1375439,65865,7889,687773,0
1,-1,644344,219554,1225247,65979,8172,612537,0
1,2,732145,252771,1461703,77455,10709,730647,0
1,2,706057,248899,1307130,74447,9147,653464,0
1,2,708347,248671,1394138,74278,9802,696973,0
1,-1,640480,220985,1309429,66741,8233,654805,0
1,-1,636906,219147,1325598,65866,8547,662567,0
1,-1,643200,219855,1339915,66133,7885,669968,0
1,2,707008,248085,1322667,74103,9041,661334,0
1,-1,637478,218636,1283178,65573,7659,641647,0
1,2,705308,247434,1435354,73906,9572,717665,0
1,-1,639982,219506,1304458,65895,8007,652272,0
1,-1,646428,221162,1225734,66626,8444,612875,0
1,-1,637739,218943,1275930,65662,8226,638001,0
1,-1,641350,220012,1189496,66056,7554,594800,0
1,2,705973,247942,1341510,74005,9580,670744,0
1,-1,664784,225047,1263894,69538,8427,631935,0
1,2,710224,247885,1398916,74038,10131,699425,0
1,-1,647267,221346,1206314,66808,8797,602525,0
1,-1,646231,220703,1328800,66564,9003,664650,0
1,2,711163,248021,1323908,74099,9347,661894,0
1,-1,637896,218712,1342466,65682,8662,671273,0
1,-1,641096,219263,1271883,65732,8312,636034,0
1,2,715818,250207,1400045,75090,10705,700037,0
1,2,710491,248342,1448190,74137,10148,724091,0
1,-1,642212,219241,1223921,65789,8135,611952,0
1,2,705733,248645,1433079,74299,10726,716478,0
1,-1,642055,219488,1341212,65859,8422,670573,0
1,-1,643264,219072,1301722,65810,8848,650784,0
1,-1,643370,219445,1477670,65804,8331,738863,0
1,2,707525,248236,1314023,74140,9600,656928,0
1,-1,645653,221378,1395319,66626,8457,697580,0
1,2,708792,249093,1334624,74333,8596,667297,0
1,-1,643611,219615,1299290,65852,8652,649642,0
1,-1,643772,219344,1329829,65641,8472,664620,0
1,2,709639,248836,1436296,74362,9524,718020,0
1,-1,638846,218006,1223945,65242,8519,611954,0
1,-1,648972,220994,1297067,66368,8207,648549,0
1,2,728780,252840,1439179,77484,10476,719590,0
1,-1,648025,219739,1395174,65724,8621,697552,0
1,2,713500,249891,1319753,74914,8753,660016,0
1,-1,644466,221939,1291156,66759,8427,645442,0
1,2,716162,249136,1332020,74564,9871,665936,0
1,-1,641728,219989,1324308,65891,9217,661905,0
1,2,712081,248583,1353569,74248,9098,676594,0
1,-1,641061,219479,1358416,65777,9891,679228,0
1,-1,643705,220551,1208724,66117,7254,604326,0
1,2,717927,250629,1608633,75061,10479,803968,0
1,-1,664022,224604,1383735,69208,8085,691890,0
1,-1,661728,223659,1224659,68932,8632,612217,0
1,2,713221,249525,1343473,74751,8675,671788,0
1,-1,645307,221602,1272070,66804,8389,636000,0
1,2,709262,247990,1248984,74114,9050,624398,0
1,-1,639654,219055,1228414,65631,8165,614145,0
1,2,710401,248483,1316494,74135,9495,658069,0
1,-1,664274,223718,1309112,69001,9349,654471,0
1,-1,662938,223965,1283217,69078,9059,641861,0
1,-1,644052,220128,1252349,66253,8071,625841,0
1,2,714666,249889,1337016,74846,9658,668469,0
1,-1,636109,218613,1135383,65475,7771,567654,0
1,2,711005,248940,1384187,74241,8703,692046,0
1,-1,660282,223996,1256013,69110,8332,627928,0
1,-1,642086,219579,1155824,65879,7649,577896,0
1,2,715656,250133,1319498,74947,9306,659811,0
1,-1,640929,219761,1394753,65920,8271,697395,0
1,-1,645231,220840,1269033,66564,8150,634301,0
1,2,714984,249172,1424580,74351,9568,712322,0
1,-1,669748,229545,1329071,69016,8012,664120,0
1,2,713573,249402,1308200,74376,9076,654117,0
1,-1,641789,219065,1288279,65673,8624,644097,0
1,2,714000,248422,1451519,74095,10138,726322,0
1,-1,639666,219237,1260500,65727,7194,630273,0
1,-1,639256,218522,1299833,65524,8043,649953,0
1,-1,643818,219032,1267728,65668,8275,633914,0
1,2,708295,249579,1296619,74672,9085,648337,0
1,-1,662671,224086,1265895,69128,8468,632865,0
1,2,707423,247878,1556181,73938,9926,778139,0
1,-1,642108,219037,1162001,65666,7999,580863,0
1,-1,640111,219843,1222301,65963,7568,611041,0
1,2,712212,249131,1500295,74483,9876,749858,0
1,2,709174,248628,1487569,74364,9476,743831,0
1,-1,637300,219069,1271602,65663,7733,635732,0
1,-1,662631,224036,1264715,69124,7926,632346,0
1,2,715641,250919,1444366,75295,9735,722199,0
1,2,714549,249637,1428157,74647,8566,714116,0
1,-1,640180,219171,1281407,65758,7505,640719,0
1,2,709878,248941,1262876,74431,8511,631479,0
1,-1,639963,219137,1235546,65745,7272,617744,0
1,2,712197,249208,1410960,74570,9255,705504,0
1,-1,646592,220331,1285463,66309,8182,642677,0
1,2,715675,249537,1324641,74627,9406,662127,0
1,-1,642431,219984,1237477,66237,7627,618748,0
1,-1,640916,218623,1183095,65458,7562,591530,0
1,2,722602,251530,1345234,75499,10198,672614,0
1,-1,642590,220524,1149886,66386,7655,574822,0
1,2,719667,251200,1451216,75351,9739,725620,0
1,-1,641034,218513,1266296,65533,8060,633146,0
1,2,711756,249879,1456990,74688,9647,728450,0
1,-1,648942,221285,1237913,66601,8591,618812,0
1,-1,645236,220936,1290088,66445,7587,645047,0
1,-1,640434,219345,1249570,65811,7169,624756,0
1,2,714516,249448,1389639,74494,9571,694869,0
1,-1,661616,223199,1391045,68766,9577,695501,0
1,-1,662580,224049,1445224,69109,8703,722424,0
1,2,714870,249760,1397592,74396,9601,698852,0
1,-1,643414,219382,1329924,65790,8161,665068,0
1,-1,645089,219414,1286027,65816,8047,643081,0
1,2,720189,251854,1572359,75410,10409,785789,0
1,-1,641411,219248,1316499,65770,8047,658154,0
1,-1,648202,221286,1188988,66709,7527,594572,0
1,-1,665110,223931,1293297,69065,8373,646656,0
1,2,715712,249882,1322620,74567,9299,661349,0
1,2,709849,248290,1258653,74061,9194,629241,0
1,-1,639826,218523,1265131,65402,7531,632498,0
1,2,713201,248897,1397070,74270,10098,698585,0
1,-1,649364,221331,1387175,66520,8449,693687,0
1,2,736704,254625,1497019,77947,10115,748425,0
1,-1,645106,219108,1306158,65633,7272,653132,0
1,2,716323,249737,1482724,74583,10525,741264,0
1,-1,634354,219298,1302665,65287,7226,651527,0
1,-1,633554,218979,1276882,65233,7044,638069,0
1,2,710659,248907,1412173,74305,10171,706140,0
1,-1,634680,219381,1267260,65318,7367,633586,0
1,2,710118,248722,1521581,74200,9724,760709,0
1,-1,639649,220832,1195515,65963,7603,597631,0
1,2,711303,248517,1331977,74071,9958,666065,0
1,-1,632870,218682,1196700,65044,8049,598245,0
1,-1,644792,222066,1208641,66504,7328,604271,0
1,-1,638815,219808,1301870,65402,7605,650759,0
1,2,714890,249671,1440054,74548,9387,720017,0
1,-1,634808,219307,1283418,65306,8232,641721,0
1,-1,633782,219076,1194423,65171,8040,597015,0
1,2,719678,249666,1336494,74456,9859,668285,0
1,-1,637985,220662,1213195,66005,8382,606738,0
1,-1,636449,219178,1380941,65247,7787,690372,0
1,2,716346,249720,1337023,74495,9118,668379,0
1,-1,638811,219218,1323285,65209,7566,661710,0
1,-1,637002,218664,1289546,65079,6973,644869,0
1,2,715886,250393,1379081,75058,9989,689191,0
1,-1,632720,219049,1252104,65255,8405,626070,0
1,-1,639644,220869,1191703,65954,8070,595867,0
1,2,719093,250586,1489724,75108,9814,744574,0
1,-1,641754,221559,1213963,66289,7910,606843,0
1,-1,635872,218542,1205995,65127,7543,603002,0
1,-1,657300,223416,1295516,68593,8511,647846,0
1,-1,637888,219277,1346688,65449,8182,673452,0
1,2,714244,248917,1321486,74268,9244,660635,0
1,2,716485,249003,1303389,74252,10315,651771,0
1,-1,642183,219818,1170876,66632,9148,585342,0
1,2,712462,248974,1428631,74293,9394,714138,0
1,-1,639839,218897,1368850,66105,9020,684451,0
1,2,712396,248251,1424875,74018,9609,712493,0
1,-1,640389,219363,1328355,66320,8742,664063,0
1,2,714827,249394,1293108,74346,9377,646555,0
1,2,711137,248277,1459281,73968,9573,729590,0
1,-1,640146,218352,1369865,65823,8735,684605,0
1,2,709846,247890,1332149,73889,9698,666125,0
1,-1,641356,218926,1195445,66192,8223,597703,0
1,-1,640903,220909,1141843,67102,8099,570937,0
1,2,715159,249863,1447806,74760,9295,723667,0
1,-1,638667,219417,1212283,66345,8044,606109,0
1,2,718293,250419,1444441,75107,10237,722093,0
1,-1,641918,220372,1213015,66795,7897,606492,0
1,-1,640386,219112,1266299,66167,8410,633103,0
1,-1,637820,218912,1205170,66121,6882,602601,0
1,-1,637640,218587,1289098,66016,7848,644529,0
1,2,711251,248287,1277099,74221,9733,638472,0
1,2,711473,247488,1438229,73983,9923,719041,0
1,-1,637693,218209,1335844,65894,7807,667923,0
1,2,711268,247229,1339239,73965,9571,669768,0
1,-1,641676,219333,1269436,66291,7484,634501,0
1,-1,638923,218756,1296851,66067,7917,648439,0
1,-1,659759,223212,1343960,69369,8968,671967,0
1,2,704198,247582,1356264,74044,9022,678100,0
1,-1,638651,218799,1362353,66127,8067,681101,0
1,2,706381,247464,1356150,73988,10087,677847,0
1,-1,638072,218576,1200300,66027,7133,600175,0
1,-1,643922,219942,1137269,66694,7540,568519,0
1,2,732059,253380,1483939,77731,10879,741789,0
1,-1,643413,220729,1185837,67041,7459,592745,0
1,2,711265,248812,1433066,74491,9512,716375,0
1,-1,640917,219068,1275162,66216,7782,637535,0
1,-1,639271,219727,1330887,66400,7782,665499,0
1,2,709273,247996,1359701,74252,9128,679674,0
1,-1,642708,219182,1363778,66209,7893,681886,0
1,-1,644171,220546,1146847,66858,7388,573258,0
1,-1,642019,219944,1206767,66698,7679,603389,0
1,-1,660132,223180,1315569,69366,8676,657796,0
1,2,711636,248327,1327108,74334,9464,663452,0
1,-1,641729,218368,1370051,65993,8496,685035,0
1,2,712878,249698,1415699,74831,8852,707669,0
1,-1,642432,218963,1388105,66161,8346,693910,0
1,-1,646821,220839,1225294,66954,7981,612826,0
1,2,708998,247770,1322737,73958,9384,661455,0
2,-1,697668,239767,1331078,71787,8066,665504,0
2,-1,711009,241149,1522573,73732,8824,761244,0
2,-1,694021,237354,1274886,70737,8993,637419,0
2,2,769060,269707,1598557,80092,10192,799222,0
2,-1,696709,238317,1346396,71068,8367,673166,0
2,2,762371,267925,1365976,79297,9513,682957,0
2,-1,688522,237026,1168606,70679,7049,584307,0
2,-1,691651,237568,1381803,70787,8563,690845,0
2,2,717826,252069,1444117,74541,9980,722113,0
2,-1,639661,219811,1382960,66057,8174,692107,0
2,2,707843,247683,1361766,73503,9482,680687,0
2,2,708537,247912,1324444,73583,9969,662260,0
2,2,708765,248354,1358748,73726,9573,679234,0
2,2,730555,253170,1429878,77112,9807,714925,0
2,-1,637714,218973,1321995,65811,7925,661050,0
2,2,707019,247742,1345502,73528,8896,672558,0
2,-1,637764,218596,1352938,65697,7057,676481,0
2,-1,638766,219315,1247090,65741,7508,623357,2
2,-1,636828,219126,1255811,65745,8105,627894,0
2,2,723186,252030,1446126,76757,9789,723052,0
2,-1,639921,219168,1261548,65723,7439,630815,0
2,2,728367,252480,1347824,76940,9606,674366,0
2,-1,640579,219011,1315888,65734,8105,658061,0
2,2,708701,248577,1402805,73950,8690,701406,0
2,-1,637821,218686,1292667,65633,8176,646653,0
2,-1,639644,218840,1246895,65602,7688,623288,0
2,-1,641688,218825,1290334,65599,8683,645169,0
2,2,730755,253028,1310843,77151,9673,655484,0
2,2,707936,247752,1384494,73623,9097,692197,0
2,-1,634753,218914,1368541,65769,8124,684666,0
2,-1,655768,223480,1299015,69061,8356,649425,0
2,2,706124,247915,1334480,73714,9899,667001,0
2,-1,639454,219738,1188744,66070,8025,594351,0
2,-1,634020,218369,1213498,65565,7571,606794,0
2,2,709299,248222,1424750,73821,9472,712342,0
2,-1,638299,219050,1353356,65778,8132,676809,0
2,2,707749,247541,1388138,73516,10309,693909,0
2,2,710668,249828,1419105,74638,8991,709350,0
2,-1,637974,218633,1203935,65662,7128,601850,0
2,-1,636476,218910,1212308,65838,7116,606184,0
2,2,733635,253659,1669543,77383,10119,833289,0
2,-1,641873,221161,1577904,66788,9326,788679,0
2,-1,637602,218553,1128521,65682,7672,564272,0
2,2,706162,248256,1390993,73800,9950,695337,0
2,2,707868,247869,1329949,73573,9169,665011,0
2,-1,645975,221700,1289419,67047,8650,644672,0
2,2,710706,248838,1452902,73951,9401,726285,0
2,2,712000,249716,1374276,74157,9699,687136,0
2,-1,666600,224922,1316008,70047,8295,657943,0
2,-1,635505,218525,1173527,65646,7216,586773,0
2,2,706927,247945,1448357,73647,8828,724148,0
2,2,711001,248903,1316082,73868,8825,658025,0
2,-1,686615,232512,1376466,71766,8601,688130,0
2,-1,639878,218961,1297405,65747,7652,648701,0
2,2,707404,248126,1391757,73727,9472,695884,0
2,-1,637615,218588,1374656,65664,9127,687363,0
2,-1,637067,218482,1345822,65555,8337,672838,0
2,2,717991,250344,1622835,74787,10689,810626,0
2,-1,638665,219058,1179979,65925,7334,589908,0
2,2,710391,249096,1382661,74199,9166,691359,0
2,-1,660646,223359,1260332,69055,8586,629963,0
2,-1,643295,219793,1262159,66084,7945,631107,0
2,-1,641374,219585,1233689,65985,7858,616918,0
2,-1,642314,219460,1228353,65894,7611,614053,0
2,2,730550,252626,1384706,77111,10505,692260,0
2,-1,642926,219410,1154044,65821,7758,576872,0
2,2,712953,248721,1289080,74055,9931,644396,0
2,-1,644003,219954,1309264,66257,8420,654625,0
2,2,711787,248617,1434996,74086,9404,717448,0
2,2,704846,249523,1285865,74333,8532,642940,0
2,-1,636814,219151,1222419,65747,8172,611161,0
2,2,724662,252816,1513669,77214,10347,755841,0
2,-1,660831,224155,1281182,69177,8918,640293,0
2,2,705465,248592,1434559,73934,9524,717181,0
2,-1,637317,218974,1228657,65710,7755,614347,0
2,2,707655,248296,1393659,73952,9638,696333,0
2,-1,643670,219417,1207902,65762,8243,603960,0
2,2,708939,249731,1439150,74603,9429,719493,0
2,-1,640318,219039,1174703,65774,7155,587337,0
2,2,706814,249182,1433794,74258,8788,716883,0
2,-1,638992,218752,1270436,65652,7882,635235,0
2,2,730052,252954,1292766,77272,10013,646288,0
2,-1,642522,220234,1226602,66200,7618,613362,0
2,2,704737,248770,1419404,74099,9916,709554,0
2,2,708442,249437,1430399,74336,8689,714617,0
2,-1,645232,220494,1351749,66484,8930,675597,0
2,-1,644398,220073,1413968,66424,8296,706440,0
2,2,711223,250390,1416608,74750,9291,708406,0
2,-1,660440,223966,1281858,69328,8090,640859,0
2,-1,638493,219058,1192489,65947,7348,596343,0
2,2,709835,249911,1387586,74379,8398,693723,0
2,-1,642236,219861,1206391,66234,8304,603176,0
2,-1,637814,219037,1250747,65972,7374,625357,0
2,2,712218,249408,1427260,74209,8683,713622,0
2,-1,643206,219711,1330541,66170,8267,665137,0
2,2,716046,250264,1462262,74694,9886,731055,0
2,2,710089,250023,1418919,74633,8694,709408,0
2,-1,641224,219079,1291684,65918,7679,645808,0
2,2,708237,249295,1385829,74141,9124,692930,0
2,2,708759,248946,1308903,74062,9483,654412,0
2,-1,664392,223690,1325163,69290,7999,662470,0
2,2,711263,249581,1434513,74304,9426,717233,0
2,-1,640607,219114,1292703,65946,8228,646281,0
2,-1,646739,221107,1232633,66912,9050,616060,0
2,2,706979,248728,1435172,74028,8750,717642,0
2,-1,645141,219579,1276647,66053,8056,638287,0
2,-1,645664,220746,1362787,66633,8448,681422,0
2,2,707191,248165,1418450,73775,8926,709206,0
2,2,711514,249552,1424972,74311,9227,712463,0
2,-1,643637,219234,1182546,65925,7807,591252,0
2,-1,645457,219188,1375893,65965,8269,687910,0
2,2,708566,248256,1363996,73775,9946,681929,0
2,2,730070,253250,1356113,77270,9699,678368,0
2,-1,635373,220427,1272882,66594,7548,636520,0
2,-1,639741,220712,1254467,66695,8937,626949,0
2,2,709707,248947,1448245,73996,8825,723970,0
2,-1,637248,219030,1361045,65950,8216,680536,0
2,-1,636404,219480,1245616,66092,8353,622779,0
2,2,712897,250386,1418047,74738,8739,709110,0
2,-1,640902,220499,1466395,66645,9160,732367,0
2,2,714893,249649,1463869,74194,9883,731952,0
2,2,707310,250086,1313235,74579,8861,656686,0
2,2,706440,249530,1371787,74177,8343,685920,0
2,-1,633908,219378,1236568,66073,8282,618137,0
2,-1,635367,219044,1346867,65973,7412,673422,0
2,2,705611,248532,1371266,73890,8488,685678,0
2,-1,637339,219294,1182338,65991,6575,591213,0
2,2,711999,250150,1358967,74583,8989,679571,0
2,-1,634855,218618,1281038,65704,7560,640551,0
2,2,728412,253393,1386950,77298,9963,693472,0
2,-1,658234,223714,1220236,69199,7800,610089,0
2,-1,638723,219179,1218630,66033,7957,609051,0
2,2,716223,250888,1487662,74953,9568,743908,0
2,-1,658166,223884,1319578,69314,8842,659753,0
2,-1,637775,218958,1344756,65897,7310,672362,0
2,2,707505,248814,1418702,74039,8710,709362,0
2,-1,634847,219016,1170345,65953,6674,585186,0
2,2,706564,247909,1371950,73633,9096,685994,0
2,-1,637723,218777,1203099,65804,7742,601559,0
2,2,711422,249744,1418590,74337,8873,709448,0
2,-1,642923,220847,1238513,66796,8030,618934,0
2,-1,642980,219605,1294441,66066,7791,647234,0
2,2,708937,248768,1369553,73978,8385,684816,0
2,-1,635741,219130,1151900,65856,7160,575799,0
2,2,712323,249181,1421247,73972,9500,710660,0
2,-1,640183,220096,1397398,66158,7965,698641,0
2,-1,636483,219261,1221384,65943,7894,610713,0
2,2,707842,248905,1307957,73850,8958,654029,0
2,-1,638020,219008,1139300,65784,7444,569622,0
2,-1,644629,221237,1401552,66856,9256,700148,0
2,2,710003,248801,1465617,73891,9921,732603,0
2,-1,656234,224007,1215767,69274,7477,607826,0
2,2,714341,250179,1400191,74548,10414,699998,0
2,-1,635015,219067,1347522,65771,8203,673666,0
2,-1,658283,224359,1238943,69392,7444,619335,0
2,-1,638861,219597,1376214,66013,8793,687949,0
2,2,712653,249296,1432818,74039,9769,716475,0
2,-1,637055,219311,1264237,65902,7233,632033,0
2,2,719693,250738,1425408,74791,10420,712710,0
2,2,714463,250164,1353384,74405,9497,676533,0
2,-1,637248,219038,1216504,65849,7165,608254,0
2,-1,636807,219440,1280546,65966,7203,640259,0
2,-1,634216,218299,1164488,65628,7081,582223,0
2,2,714998,249560,1467700,74267,9733,733731,0
2,-1,638726,219190,1498937,65883,9615,749521,0
2,-1,638702,219083,1205576,65860,7068,602795,0
2,-1,658090,223698,1229143,69158,8024,614554,0
2,2,715035,249388,1441664,74186,9123,720870,0
2,-1,646388,221035,1319988,66790,8361,659939,0
2,-1,639380,220082,1181868,66240,7159,590834,0
2,-1,639679,219688,1360975,66061,7000,680532,0
2,-1,640213,219723,1306183,66034,7331,653136,0
2,2,717353,249327,1426561,73863,9680,713144,0
2,-1,643042,220234,1284603,66239,7241,642343,0
2,2,731019,254109,1505325,77320,10955,752642,0
2,-1,641974,219935,1265169,66142,7046,632616,0
2,2,711710,250517,1423607,74315,9970,711838,0
2,-1,646111,221186,1307574,66826,7728,653863,0
2,-1,638283,219630,1180533,65990,6914,590373,0
2,2,713434,250261,1396682,74272,10236,698457,0
2,-1,638423,219004,1162061,65805,6953,581101,0
2,2,712128,251158,1603110,74764,11060,801322,0
2,-1,636005,217797,1259756,65511,7642,629925,0
2,2,713604,249730,1377008,74145,9747,688381,0
2,-1,640166,219176,1255230,65810,7467,627658,0
2,2,714615,250365,1717045,74401,10084,858598,0
2,-1,640370,219452,1259984,66001,7516,630035,0
2,-1,643141,220746,1264160,66600,7491,632125,0
2,2,708237,249067,1324239,73891,9115,662344,0
2,-1,641986,219236,1302316,65886,8206,651213,0
2,-1,645430,220053,1186396,66148,8100,593124,0
2,2,734273,253789,1358217,77301,10411,679084,0
2,-1,637266,219474,1280235,65879,7390,640176,0
2,-1,659801,224322,1246787,69332,7933,623353,0
2,2,709697,248542,1271406,73883,9221,635789,0
2,-1,637762,219540,1244458,65952,7180,622276,0
2,-1,638580,219117,1169920,65840,7316,585003,0
2,2,733655,254045,1396363,77379,10121,698160,0
2,-1,636968,219544,1276148,65978,7342,638142,0
2,2,709574,249071,1466166,74015,9836,733059,0
2,-1,638738,219274,1303653,65943,7454,651886,0
2,-1,638754,219419,1164081,65988,7173,582095,0
2,2,716467,251072,1515749,74969,10284,757875,0
2,-1,645559,221613,1266140,66964,7991,633145,0
2,-1,637239,218953,1213335,65844,7354,606735,0
2,-1,641230,219653,1289743,66046,7443,644919,0
2,2,707846,248533,1446156,73749,9681,723124,0
2,-1,641369,219145,1171812,65785,7575,585960,0
2,2,711312,248388,1455794,73763,10099,727937,0
2,-1,639901,219996,1238241,66201,7346,619174,0
2,2,712192,248915,1410626,74022,8558,705350,0
2,-1,641451,219776,1281415,66052,8059,640772,0
2,-1,639132,219097,1209691,65791,6957,604864,0
2,2,711526,249632,1353290,74140,8632,676681,0
2,-1,642360,219994,1176392,66182,7056,588250,0
2,-1,640629,219461,1201211,66008,7528,600669,0
2,-1,658035,223776,1281015,69168,7351,640564,0
2,2,711998,248744,1590853,73917,11079,795214,0
2,-1,638529,218989,1201543,65746,7354,600815,0
2,2,710594,248821,1460661,73836,10188,730333,0
2,-1,644039,220679,1377093,66602,7553,688557,0
2,-1,644121,219733,1215168,66050,7785,607765,0
2,-1,641112,219493,1258682,65804,7289,629391,0
2,2,714437,248926,1413915,73790,10088,706964,0
2,2,714359,249124,1328548,73881,9407,664216,0
2,-1,643179,219906,1201967,66038,6883,600833,0
2,2,708229,248736,1329635,73633,9196,664788,0
2,-1,645985,220476,1342613,66369,8710,671360,0
2,-1,637456,219281,1404438,65770,7881,702001,0
2,-1,640897,219198,1328394,65754,7825,664205,0
2,2,718331,251206,1452951,74886,9563,726350,0
2,-1,637755,219230,1279731,65720,7000,639850,0
2,-1,662528,224638,1239924,69354,8148,619998,0
2,2,709675,248177,1461222,73623,10219,731475,0
2,-1,641958,220080,1210340,65985,7746,605163,0
2,2,709581,248509,1595482,73774,9770,797649,0
2,-1,636365,218971,1256658,65598,7695,628283,0
2,-1,646460,221889,1387352,66963,8524,693775,0
2,-1,643909,220258,1303750,66107,8837,651773,0
2,2,709755,248578,1413019,73776,9500,706491,0
2,-1,644007,219966,1266260,66010,7988,633129,0
2,2,718943,250960,1422332,74811,9641,709663,0
2,2,711415,248480,1253507,73767,8989,626677,0
2,-1,642090,219275,1225898,65747,7480,612965,0
2,-1,643672,220360,1324913,66126,8563,662261,0
2,2,711063,248316,1300426,73677,9012,650222,0
2,-1,645516,221021,1323075,66548,8171,661637,0
2,2,715122,249950,1343602,74505,9538,671660,0
2,-1,642846,220831,1349781,66542,8707,674875,0
2,-1,661134,224211,1544390,69171,9456,771807,0
2,2,717243,249885,1376213,74351,9251,688046,0
2,2,708440,248552,1366738,73805,8895,683271,0
2,-1,662981,224252,1228501,69215,8475,613993,0
2,2,714210,250068,1442721,74565,9085,721361,0
2,-1,644856,220133,1278913,66213,8489,639437,0
2,-1,643647,219718,1257711,66024,7445,628780,0
2,2,715512,248931,1406600,73931,9359,703329,0
2,-1,646336,220428,1169165,66318,7053,584524,0
2,2,712245,248895,1387806,73906,9309,693814,0
2,-1,642604,219771,1227297,66026,7240,613743,0
2,2,710543,248733,1335520,73856,9392,667715,0
2,-1,666022,224722,1387422,69525,8700,693472,0
2,-1,646186,219989,1296794,66157,7048,648182,0
2,2,735564,252795,1412458,76898,9837,706199,0
2,-1,668103,224901,1265489,69355,8658,632693,0
2,-1,639863,221271,1492821,66581,8732,747358,0
2,2,712088,248548,1422680,73714,9329,711440,0
2,-1,645475,222460,1270141,67003,8385,635098,0
2,2,713818,248450,1330204,73678,9418,665045,0
2,-1,642180,221083,1326557,66364,8585,663112,0
2,2,712832,248787,1408387,73835,9577,704277,0
2,-1,648603,222539,1308113,67071,8895,654139,0
2,-1,641093,220908,1386283,66256,9048,692514,0
2,2,715155,248751,1693498,73713,11312,846595,0
2,-1,645264,221346,1462402,66615,8108,730106,0
2,-1,640278,219735,1356435,65916,8434,678358,0
2,-1,647099,222133,1365463,67034,9174,682663,0
2,2,705623,248548,1348678,73298,8822,674240,0
2,-1,665832,224990,1502559,69459,8900,751306,0
2,2,728049,253380,1518715,76640,10051,759384,0
2,-1,645037,220137,1334984,66095,8268,667538,0
2,2,701836,248724,1437539,73354,9704,718921,0
2,-1,661794,225038,1197909,69407,8396,598982,0
2,-1,644528,220556,1266914,66197,8257,633498,0
2,2,707574,248757,1294629,73298,9096,647265,0
2,-1,662674,224603,1240913,69367,8283,620310,0
2,-1,642501,220351,1331214,66344,8379,665450,0
2,2,725319,253058,1613709,76585,10664,806831,0
2,-1,664945,224689,1612578,69393,9656,805989,0
2,-1,644478,219669,1452143,65934,9863,726306,0
2,2,711399,250513,1411548,74259,9572,705515,0
2,-1,640007,219203,1185117,65766,8351,592506,0
2,2,732196,256877,1437378,75809,9580,718709,0
2,-1,640052,219152,1133166,65773,6975,566578,0
2,-1,644349,220334,1293060,66351,7788,646666,0
2,2,709501,248833,1355454,74352,10610,677742,0
2,-1,647327,221483,1334131,66760,8153,667117,0
2,-1,641754,218814,1256714,65662,8350,628312,0
2,-1,643003,218692,1327305,65688,8519,663697,0
2,2,711834,248443,1307870,74140,9425,653984,0
2,2,704610,248519,1285220,74275,9824,642544,0
2,-1,640871,219984,1370475,66158,7535,685299,0
2,2,709096,248913,1387185,74308,9564,693580,0
2,-1,636827,218960,1535195,65754,9080,767295,0
2,-1,640484,219479,1304470,65928,7684,652271,0
2,2,708384,248039,1408800,74077,8654,704348,0
2,-1,661328,224009,1247072,69148,8451,623551,0
2,2,708788,248834,1322178,74311,9387,660969,0
2,-1,641591,219666,1269775,65944,7376,634898,0
2,2,730294,252643,1572559,77456,10234,786187,0
2,-1,641666,219611,1142577,65920,8001,571253,0
2,-1,638065,219079,1201205,65706,7546,600663,0
2,-1,641028,219011,1349020,65680,8440,674440,0
2,-1,638926,219056,1267880,65749,7409,633998,0
2,2,708782,248041,1339708,74066,8879,669835,0
2,-1,663077,224363,1190598,69282,8563,595318,0
2,-1,644084,219959,1407760,66194,10332,703497,0
2,2,710045,248230,1325682,74162,8656,662852,0
2,-1,648214,221152,1304771,66853,8458,652326,0
2,2,744305,259043,1329574,77692,9511,664667,0
2,-1,639886,219562,1294230,65959,7821,647055,0
2,2,714937,250397,1375297,75174,9593,687543,0
2,-1,640775,219195,1299938,65767,8021,649912,0
2,2,711860,247965,1267040,74038,9520,632996,0
2,-1,644763,220997,1448508,66622,8795,724250,0
2,-1,668915,228284,1223318,68402,8420,611678,0
2,-1,640773,218864,1299133,65682,7892,649517,0
2,2,706578,247643,1391924,73938,8915,695969,0
2,-1,641647,219585,1471156,65886,9513,735543,0
2,2,711662,248363,1352325,74240,9403,676054,0
2,-1,647790,221747,1302072,66855,8738,651027,0
2,-1,643143,219356,1289742,65750,7890,644880,0
2,2,712497,248371,1393295,74252,9538,696572,0
2,-1,644189,219471,1171217,65686,8388,585587,0
2,-1,642292,218983,1394543,65522,8514,697217,0
2,2,707407,248698,1359080,74339,10161,679436,0
2,2,728734,252778,1610894,77381,10515,805448,0
2,-1,647537,219719,1394931,65720,9236,697445,0
2,-1,661642,224719,1234243,69105,9131,617039,0
2,2,712295,248597,1292090,74211,9935,646073,0
2,-1,639045,219339,1310316,65621,8334,655151,0
2,2,708703,248001,1335298,74021,9254,667660,0
2,-1,644603,220906,1209583,66445,7918,604632,0
2,2,719846,251073,1406980,75466,9138,703212,0
2,-1,638769,219100,1267294,65585,7963,633700,0
2,-1,639822,219270,1190622,65655,7322,595230,0
2,2,705613,247724,1427243,73803,9393,713686,0
2,-1,644118,221039,1299884,66467,7568,649940,0
2,-1,642187,221164,1261325,66508,8209,630639,0
2,-1,659873,223706,1179236,69026,8183,589575,0
2,2,713054,249255,1356203,74445,9800,678053,0
2,2,712984,248008,1389562,73995,9839,694742,0
2,-1,643056,219547,1326220,65850,8731,663118,0
2,-1,641491,219598,1383251,65885,7917,691598,0
2,2,710014,249020,1430453,74293,10287,715191,0
2,-1,641121,219544,1304452,65816,8370,652240,0
2,-1,643816,220194,1213080,66273,7385,606269,0
2,2,709177,248495,1502641,74171,10293,751280,0
2,-1,639532,218681,1203371,65542,7645,601687,0
2,2,711668,247869,1269648,73869,8962,634854,0
2,-1,639065,218924,1259169,65717,7365,629591,0
2,-1,637571,218566,1311901,65446,8339,656210,0
2,-1,638381,218699,1299077,65596,8284,649517,0
2,2,714749,248678,1347550,74191,8968,673817,0
2,-1,641673,218544,1355913,65488,8902,677970,0
2,2,741597,258464,1463145,77043,9195,731596,0
2,-1,640844,218958,1392193,65667,8176,696115,0
2,-1,640717,219350,1249714,65750,7263,624854,0
2,2,712086,248006,1370667,73930,10003,685199,0
2,-1,639987,218979,1369909,65625,7990,684971,0
2,2,713509,248023,1443915,73947,10607,722005,0
2,-1,642131,218920,1270116,65682,7388,635068,0
2,-1,642876,219224,1251813,65782,8371,625922,0
2,2,710088,249170,1309621,74272,9318,654856,0
2,-1,641342,218645,1153532,65531,8165,576649,0
2,2,712627,249522,1405530,74552,9494,702332,0
2,-1,636285,218494,1275736,65400,7884,637875,0
2,2,712957,250449,1459774,75156,10108,729812,0
2,-1,644267,220669,1217766,66522,7943,608944,0
2,-1,640398,219326,1252381,65805,7512,626165,0
2,2,716511,250185,1353281,74784,9198,676690,0
2,-1,637045,218512,1168454,65456,6835,584179,0
2,2,719301,251181,1330157,75403,8624,665156,0
2,2,716203,250485,1289370,75234,9148,644740,0
2,-1,646484,220698,1203670,66455,7756,601791,0
2,2,713931,249832,1413182,74775,9719,706633,0
2,-1,642798,219301,1169573,65778,7569,584784,0
2,2,714999,250153,1481235,74797,10333,740568,0
2,-1,638898,218769,1276599,65562,7453,638308,0
2,2,714376,249078,1473551,74391,10600,736774,0
2,-1,641425,218493,1332652,65475,8186,666371,0
2,-1,642335,218951,1181735,65701,7570,590595,0
2,2,715694,249996,1535440,74781,11836,767754,0
2,-1,641113,218673,1303444,65559,8006,651666,0
2,-1,642601,218308,1332217,65360,7949,665997,0
2,2,710572,249306,1406657,74483,10234,703269,0
2,-1,639793,219255,1344158,65797,7153,672194,0
2,-1,642128,218802,1192606,65619,7571,596329,0
2,-1,641340,218981,1273723,65642,8249,636757,0
2,2,719672,251624,1595388,75526,10467,797667,0
2,-1,648188,220407,1212194,66313,8155,605812,0
2,2,714554,249921,1283609,74603,9163,641780,0
2,-1,642739,219597,1277752,65874,7570,638853,0
2,-1,669862,228228,1426499,68349,8357,713228,0
2,2,733355,254426,1706506,77796,10776,853984,0
2,-1,638274,218664,1295960,65539,7654,647951,0
2,-1,662175,223506,1234003,68926,8426,616946,0
2,-1,641146,218548,1160553,65501,7430,580419,0
2,2,710953,248661,1471066,74144,9651,735539,0
2,-1,647744,220224,1276407,66252,8248,638078,0
2,2,711662,249193,1337952,74291,9741,668946,0
2,2,713320,248823,1488609,74233,9212,744242,0
2,-1,642286,219006,1513813,65549,8790,756531,0
2,2,711608,248655,1422242,74167,9386,711094,0
2,-1,649630,220734,1245947,66369,7507,622933,0
2,2,719033,250973,1416096,75271,10103,708016,0
2,-1,630928,218409,1209959,64964,6810,604964,0
2,2,718705,249884,1297822,74614,9576,648842,0
2,-1,633368,219029,1311829,65137,7598,655958,0
2,-1,633759,219216,1142092,65155,7371,571004,0
2,2,714489,250722,1481777,75149,10182,740918,0
2,-1,633639,218741,1179989,65038,7438,590114,0
2,2,713273,249338,1446972,74444,9951,723431,0
2,-1,639188,221548,1138141,66227,8005,568974,0
2,-1,638223,220975,1151704,66011,8084,575852,0
2,-1,657359,223622,1436301,68479,8690,718169,0
2,2,711208,248583,1336257,74160,8947,668176,0
2,-1,633026,218901,1166040,65105,7536,583102,0
2,-1,640278,220583,1206236,65893,7427,602800,0
2,2,715694,249220,1366268,74307,10518,683147,0
2,-1,636717,218627,1146863,64994,7157,573367,0
2,-1,635450,219153,1249057,65190,7565,624581,0
2,2,718231,250849,1344712,75141,8875,672351,0
2,-1,637939,219345,1260833,65298,7559,630420,0
2,-1,640137,220088,1332064,65564,7868,665892,0
2,-1,637032,220573,1236280,65943,8088,618013,0
2,2,718535,249347,1433595,74518,10070,716682,0
2,-1,635653,219076,1332396,65280,8596,666144,0
2,-1,656315,223998,1236763,68604,8957,618259,0
2,2,716513,249676,1532855,74633,10014,766494,0
2,-1,636917,219043,1210528,65160,7815,605392,0
2,-1,636007,219029,1278027,65358,8077,639109,0
2,-1,635812,218408,1259947,65123,7984,630002,0
2,2,709203,248459,1313816,74057,9207,656944,0
2,2,735803,253962,1401887,77688,10526,700838,0
2,-1,641108,220434,1313532,66831,9579,656620,0
2,2,733160,253428,1449021,77501,10339,724415,0
2,-1,639143,219130,1344169,66121,8679,672344,0
2,2,718467,249964,1455029,74776,9935,727312,0
2,2,716037,249739,1343523,74510,9178,671628,0
2,-1,637833,218829,1415249,66061,8779,707669,0
2,2,715843,248843,1345165,74174,9465,672582,0
2,-1,644756,220900,1216312,67095,8722,608146,0
2,2,714333,248623,1471605,74150,10799,735792,0
2,-1,641283,219183,1263027,66185,8659,631543,0
2,-1,654818,223059,1236910,69322,9693,618318,0
2,2,714410,249046,1372021,74581,9800,685806,0
2,-1,639108,220137,1140352,66773,7307,570204,0
2,2,710565,247912,1447676,73955,10251,723717,0
2,-1,658569,223162,1307201,69329,8955,653484,0
2,-1,637309,218660,1405281,66091,8770,702556,0
2,-1,642053,220876,1210631,66982,8193,605096,0
2,2,717295,249007,1273056,74392,9759,636593,0
2,-1,637906,218716,1407664,66049,8339,703803,0
2,2,712610,248574,1322190,74400,9355,661022,0
2,-1,659469,223496,1318405,69445,8567,659104,0
2,2,713503,247697,1460120,74080,9935,729773,0
2,-1,641982,219173,1180500,66207,7008,590254,0
2,-1,658962,222877,1334139,69284,8119,667004,0
2,2,714091,247277,1327129,73875,9846,663534,0
2,-1,640474,218703,1293578,66057,7527,646704,0
2,-1,639653,219172,1184141,66186,7740,591848,0
2,2,706980,248152,1446641,74286,9714,723302,0
2,-1,644365,220193,1214944,66773,7363,607394,0
2,-1,642285,219694,1307096,66709,7900,653634,0
2,2,706012,247575,1411223,74035,10057,705556,0
2,-1,638307,219205,1149456,66262,7531,574619,0
2,-1,635888,218482,1272627,65983,8119,636255,0
2,2,728833,252557,1445625,77475,10487,722791,0
2,-1,643120,220030,1219629,66738,8094,609836,0
2,2,710535,248017,1356534,74234,9164,678199,0
2,-1,644640,220695,1249681,66918,8422,624708,0
2,-1,640723,218637,1245621,65999,7369,622808,0
2,2,706774,248010,1349810,74226,9190,674833,0
2,-1,636373,218107,1296663,65786,7088,648382,0
2,-1,639777,219191,1246125,66251,7870,623132,0
2,-1,642411,219280,1229658,66294,7648,614792,0
2,2,714839,250072,1350649,75109,10748,675459,0
2,-1,640875,218353,1316664,65880,8431,658325,0
2,2,707289,248358,1333669,74210,9292,666473,0
2,-1,644359,219697,1203424,66400,8332,601413,0
3,-1,691259,237130,1237801,70681,6591,618840,0
3,2,760964,266423,1381210,78663,8864,690621,0
3,-1,689870,237512,1436713,70748,7929,718365,0
3,-1,693810,237265,1341591,70684,8558,670812,0
3,-1,691548,236919,1232140,70587,7034,616098,0
3,2,760655,267462,1364060,79019,9316,681908,0
3,-1,696090,237145,1288472,70641,7946,644163,0
3,-1,692037,237144,1209455,70663,7691,604685,0
3,2,743110,260608,1439747,76891,9262,719734,0
3,-1,684052,235078,1365029,70055,7795,682323,0
3,2,708053,248323,1505180,73839,9822,752604,0
3,2,707477,247075,1433325,73262,10263,716302,0
3,2,709022,248602,1321702,73810,9127,660658,0
3,2,707504,248170,1391950,73647,8908,695841,0
3,2,709755,247883,1418427,73483,9474,709134,0
3,-1,636420,218798,1254895,65650,7577,627415,0
3,-1,637622,218457,1334666,65637,8210,667296,0
3,-1,642611,219363,1221890,65867,9182,610952,0
3,2,711162,247625,1324319,73374,9223,662157,0
3,-1,643935,221739,1318685,66867,8265,658907,2
3,-1,639697,219125,1465965,65728,9226,732978,0
3,2,705336,247694,1355305,73593,10059,677447,0
3,-1,643751,220970,1335703,66583,8560,667897,0
3,2,708270,248056,1435829,73674,9380,717880,0
3,-1,640601,219352,1218860,65858,7739,609264,2
3,-1,660320,223859,1332937,69096,8830,666241,0
3,-1,639590,219139,1466406,65765,9324,732342,0
3,-1,637518,218566,1283346,65576,8653,641725,2
3,2,707785,247919,1276487,73690,9188,638240,0
3,-1,639179,218379,1224702,65439,8223,612355,0
3,2,712049,250417,1407185,74712,9608,703641,0
3,-1,632458,218668,1185397,65749,7198,592559,2
3,-1,641146,221036,1400087,66730,8566,700039,0
3,-1,634554,219162,1262438,65832,7771,631292,0
3,2,711139,250507,1451666,74772,10258,725703,0
3,-1,634467,218912,1203872,65832,7507,601936,2
3,-1,638131,219647,1270272,66228,8564,635007,0
3,-1,635666,219295,1184400,65869,7898,592148,0
3,2,712850,249957,1572888,74628,10787,786284,0
3,-1,640734,220787,1286318,66739,7629,643154,2
3,-1,635479,218841,1246256,65784,6831,623319,0
3,2,715834,250766,1446753,74920,9651,723247,0
3,-1,639651,219173,1302339,65891,7702,651163,0
3,2,707183,247882,1337942,73759,9505,669013,0
3,-1,639076,220265,1279127,66540,7563,639519,0
3,2,713676,249631,1438369,74516,10351,719087,0
3,-1,639302,219272,1185567,65821,7420,592661,0
3,-1,637268,219243,1291107,65901,7404,645404,2
3,-1,640991,220466,1205349,66396,7720,602688,0
3,2,712521,248187,1380673,73816,9202,690441,0
3,-1,635572,218877,1334673,65805,8683,667423,0
3,2,714679,250849,1432720,74806,9977,716352,0
3,-1,635677,218690,1228565,65720,7787,614281,2
3,2,709118,248709,1488183,73927,11282,743409,0
3,2,716397,251160,1411071,74932,10344,705571,0
3,-1,638000,218594,1216815,65688,7929,608404,0
3,2,711879,249210,1360968,73873,9132,680200,0
3,-1,639912,218955,1251871,65818,8165,625853,2
3,-1,633025,218005,1329069,65379,7575,664406,0
3,2,731609,253561,1366977,77273,9888,683444,0
3,-1,636570,218780,1228272,65714,8032,614205,0
3,-1,639336,220732,1333843,66711,8275,667022,2
3,-1,660745,223848,1275589,69137,8506,637831,0
3,2,715598,249786,1416137,74492,9976,708037,0
3,-1,638338,219634,1206872,66018,8161,603319,2
3,-1,640355,219652,1311908,65987,8676,655874,0
3,-1,638185,219248,1316238,65909,8829,657872,0
3,2,712990,249175,1408741,74203,9400,704206,0
3,-1,656752,223078,1253507,69007,8586,626639,0
3,2,707788,248337,1288209,73932,8510,644142,0
3,-1,639817,219496,1413743,65882,9896,706345,0
3,-1,644590,220410,1234318,66342,7934,617488,0
3,-1,643540,220654,1328660,66615,9026,664337,0
3,2,713618,249279,1436089,74475,9125,718014,0
3,-1,639849,218551,1207630,65565,7589,603870,0
3,-1,663063,223602,1214680,68958,9083,607195,0
3,-1,648390,222174,1257214,67035,8606,628539,2
3,2,733806,253786,1316467,77573,10501,658228,0
3,2,730460,253035,1347279,77283,10072,673502,0
3,-1,643318,219683,1221054,66034,8076,610460,0
3,2,715399,248677,1397582,74093,9383,698819,0
3,-1,636256,218869,1271940,65642,8585,635776,0
3,2,704387,248771,1469414,74127,10686,734414,0
3,-1,640908,220188,1350556,66294,9029,675276,0
3,-1,641654,219906,1306067,65965,7803,653031,2
3,2,708672,249878,1556887,74468,10528,779125,0
3,-1,643199,219714,1268864,65823,7632,634343,0
3,2,710934,250126,1460265,74765,10189,730064,0
3,-1,644178,220314,1226424,66112,8027,613175,0
3,-1,641442,220299,1254275,66112,8327,627117,2
3,-1,641831,219220,1263875,65783,7292,631917,0
3,2,706349,248536,1324769,74045,8793,662273,0
3,-1,636540,218919,1190265,65759,7138,595090,2
3,2,707171,248494,1422272,74045,8843,711163,0
3,2,711060,249782,1469879,74719,9132,734667,0
3,-1,641298,220247,1295788,66387,7851,647863,0
3,-1,663105,223812,1237199,69125,8815,618556,0
3,2,712907,249697,1383769,74420,9110,691943,0
3,-1,644853,220630,1293583,66260,7884,646165,0
3,2,707428,249271,1420482,74409,9012,710247,0
3,2,706280,248770,1359025,74140,9120,679525,0
3,-1,644504,220929,1390993,66746,7953,694877,0
3,-1,642906,221038,1344035,66784,8059,672073,0
3,-1,638884,218746,1448447,65857,8607,724372,0
3,2,726948,253277,1409991,77326,10256,704929,0
3,-1,645918,220907,1232485,66784,8231,616084,0
3,2,711599,249607,1441212,74559,9888,720574,0
3,-1,641031,218755,1197224,65833,7432,598608,0
3,-1,641322,219987,1195430,66308,7628,597592,2
3,-1,641092,219211,1337380,65962,8066,668667,0
3,2,711391,248749,1408886,74034,9320,704432,0
3,2,709676,250202,1431071,74653,9104,715423,0
3,-1,643556,220298,1320460,66382,7371,660275,0
3,2,710763,250495,1457685,74767,9446,728661,0
3,2,712339,250476,1327331,74780,9496,663549,0
3,-1,642860,219414,1360588,66110,7999,680209,0
3,2,708452,249393,1710300,74223,11478,855138,0
3,-1,639961,219494,1211790,66119,8143,605861,0
3,2,711611,249355,1314767,74222,8942,657329,0
3,-1,640565,219143,1227134,65958,8575,613534,0
3,-1,643637,219057,1289477,65916,7352,644728,0
3,2,711723,249454,1327422,74234,9617,663649,0
3,-1,641933,219513,1310531,66135,8176,655231,2
3,-1,642640,219178,1323720,65983,8821,661885,0
3,2,711103,248852,1359237,74033,8470,679556,0
3,-1,647787,220830,1326144,66821,8766,663000,0
3,-1,645363,219862,1263781,66230,7622,631784,0
3,2,728532,253497,1415468,77363,9878,707774,0
3,-1,641116,218749,1316263,65841,7464,658189,2
3,2,711932,250494,1261212,74580,9054,630574,0
3,-1,637345,218992,1171436,65927,6591,585680,0
3,-1,656675,224172,1392605,69400,8507,696165,0
3,2,711904,249851,1543851,74553,8822,771979,0
3,-1,637282,219435,1261076,66104,8257,630584,0
3,2,709736,248934,1396944,73968,9145,698510,0
3,-1,638869,220080,1328586,66507,8225,664406,0
3,-1,636832,219575,1297760,66067,8194,648795,0
3,-1,637283,219762,1264541,66229,8047,632109,2
3,2,712695,249267,1451732,74145,8953,725916,0
3,2,705263,249759,1227020,74287,7806,613540,0
3,-1,640792,220506,1281840,66628,9009,640463,0
3,2,707259,248611,1313911,73928,8616,657006,0
3,2,710969,250109,1419299,74550,8644,709703,0
3,-1,633825,218037,1156647,65678,6494,578323,0
3,-1,639981,220679,1288821,66666,7958,644296,0
3,2,706253,248487,1298773,73924,7904,649315,0
3,-1,636827,219707,1306523,66138,7367,653270,0
3,2,707888,249577,1293317,74276,9178,646699,0
3,-1,640798,220429,1172889,66408,7189,586468,0
3,-1,638734,219391,1222673,66016,8282,611242,0
3,2,732977,253803,1429536,77431,9415,714772,0
3,-1,638739,221071,1278212,66889,8105,638643,2
3,-1,634908,219148,1194529,65996,6938,597227,0
3,-1,668917,229822,1357606,69386,8398,678770,0
3,2,705807,248511,1469898,73855,9344,735032,0
3,-1,634196,218674,1302975,65804,8231,651396,0
3,2,709467,249233,1373310,74152,8946,686698,0
3,-1,655637,223153,1241594,69089,8397,620731,0
3,2,711204,249987,1466001,74589,9407,733069,0
3,-1,639041,219611,1219433,66082,7865,609706,0
3,-1,641209,219957,1308799,66385,7589,654382,0
3,2,707256,248536,1323100,73889,7901,661596,0
3,-1,660389,223989,1260874,69271,8443,630481,0
3,2,709862,249063,1456000,74025,9330,728041,0
3,-1,637554,219472,1191476,65967,6967,595718,2
3,-1,639738,219277,1425296,66015,8960,712218,0
3,-1,645189,221561,1272478,67008,7305,636260,0
3,2,715345,249196,1370245,73951,9090,685020,0
3,-1,640028,220121,1273444,66106,7526,636660,0
3,-1,640771,220681,1203011,66705,7872,601372,2
3,2,709430,249871,1687784,74224,11331,843784,0
3,-1,640956,220038,1176619,66193,7480,588196,0
3,-1,640852,218815,1292235,65724,8369,646154,0
3,2,710345,248732,1530185,73781,9910,765110,0
3,-1,635618,219551,1418970,66086,8199,709289,0
3,-1,638283,219877,1261060,66136,7444,630504,0
3,-1,669729,230962,1311076,69822,7606,655504,0
3,2,715381,250748,1431640,74763,9749,715882,0
3,-1,635725,219393,1395245,65981,8562,697357,0
3,-1,639569,220832,1217928,66446,7292,608942,2
3,2,714985,249816,1560610,74225,10242,780354,0
3,-1,643159,221383,1298960,66883,8171,649424,0
3,2,719249,252277,1559223,75359,11057,779284,0
3,-1,637115,219918,1317935,66156,7438,658979,0
3,-1,642316,220226,1430026,66195,8236,715052,0
3,2,711394,248690,1427949,73883,10003,713961,0
3,-1,658276,223194,1251135,68977,8115,625559,0
3,-1,638978,220436,1192381,66339,7706,596128,2
3,-1,659529,224243,1260733,69327,7894,630360,0
3,-1,641459,219529,1318556,65976,7631,659253,0
3,2,714966,249848,1500648,74351,9643,750355,0
3,-1,640748,219193,1497582,65945,9389,748684,0
3,-1,640748,221038,1324132,66703,7858,662082,0
3,-1,637699,219210,1272087,65891,7729,636061,0
3,-1,638651,219253,1203599,65868,7120,601838,0
3,2,722398,251646,1412420,74997,10051,706281,0
3,-1,638850,219015,1300609,65847,7219,650363,0
3,2,711765,250910,1502073,74490,10442,751066,0
3,-1,644626,220743,1286818,66590,7574,643377,0
3,2,730688,254318,1451733,77383,10084,725841,0
3,2,709720,249731,1506023,74080,10559,752384,0
3,-1,663642,224316,1237146,69348,7662,618656,0
3,-1,638165,219975,1319295,66095,8069,659691,0
3,-1,642498,220245,1266759,66266,7787,633434,0
3,2,735687,255040,1461674,77611,10957,730878,0
3,-1,637324,219005,1172632,65863,7113,586380,0
3,2,713344,249903,1409786,74275,9521,704702,0
3,-1,641890,219225,1283698,65869,7403,641950,0
3,2,714203,249815,1464936,74173,10557,732512,0
3,-1,645185,220184,1299806,66163,8143,649811,0
3,-1,643674,220781,1326738,66415,7136,663754,0
3,2,715818,249643,1317177,74221,9508,658632,0
3,-1,641826,219754,1265722,66101,7427,632883,2
3,-1,645891,220798,1369880,66570,8269,684885,0
3,-1,646990,220884,1229891,66725,8790,614964,0
3,2,714852,251146,1342656,74891,9418,671451,0
3,-1,636828,219716,1267649,65937,7476,633905,0
3,-1,641414,221706,1292644,67071,7532,646362,2
3,-1,637829,219011,1260513,65738,7202,630307,0
3,2,732369,254160,1651978,77439,12674,825545,0
3,-1,637131,219273,1190214,65943,7055,595159,0
3,2,734336,253692,1393400,77252,9827,696729,0
3,-1,637922,219392,1294489,66012,7517,647301,0
3,2,709693,248120,1432397,73610,8553,716248,0
3,-1,639537,219607,1166076,66030,7011,583095,2
3,-1,636415,219375,1243869,65917,7187,621981,0
3,-1,640787,220549,1274977,66467,7525,637514,0
3,-1,639507,220688,1345530,66398,7266,672808,2
3,-1,636419,218445,1236238,65708,7397,618200,0
3,2,729744,252981,1435352,77079,9914,717610,0
3,-1,659792,223629,1196758,69154,8022,598303,0
3,-1,639635,219065,1305683,65769,7953,652910,0
3,-1,640162,219581,1236566,65949,6798,618320,0
3,2,713297,251089,1412243,74943,10000,706170,0
3,-1,645880,221918,1301465,67040,7757,650756,2
3,-1,643190,220000,1310925,66136,7265,655469,0
3,2,712665,249733,1379404,74330,9412,689721,0
3,-1,636415,218846,1202824,65756,7163,601478,0
3,2,709443,248108,1418669,73693,9065,709369,0
3,-1,639799,219872,1184242,66104,7214,592098,0
3,-1,639362,219650,1202909,66061,7003,601487,0
3,2,710845,248916,1752236,74020,11447,875990,0
3,-1,644628,221664,1336691,66994,6871,668618,0
3,-1,641141,219546,1201180,65984,7147,600638,0
3,-1,642228,219278,1218098,65873,7771,609143,0
3,2,710841,249017,1342184,73959,10160,671025,0
3,-1,641750,220017,1224013,66130,7754,611669,0
3,2,736058,253735,1367972,77255,9931,683874,0
3,-1,641220,219822,1275531,66110,7582,637815,0
3,-1,643345,219740,1205359,66038,7600,602733,0
3,-1,640833,219705,1264201,65959,7006,632058,0
3,2,716183,250053,1432613,74357,9498,716275,0
3,2,741509,254742,1485467,77915,10363,742460,0
3,-1,641935,219631,1270782,65937,7376,635437,0
3,2,721270,251264,1468040,74890,9697,734005,0
3,-1,640242,219712,1218681,66006,7049,609419,2
3,-1,642302,219275,1295226,65777,8121,647660,0
3,-1,640237,220977,1186760,66341,7930,593436,2
3,-1,639790,220607,1321485,66352,7712,660707,0
3,2,709008,248558,1418936,73629,9365,709455,0
3,-1,637199,219357,1314093,65784,7429,657050,2
3,-1,642531,220267,1247633,66158,7313,623747,0
3,-1,646061,221902,1310852,66915,8352,655313,0
3,-1,642321,220609,1240340,66219,7038,620033,2
3,-1,638034,219204,1300006,65718,7376,649974,0
3,2,714704,250410,1326147,74600,9678,662931,0
3,-1,641611,219491,1295195,65816,8095,647598,0
3,-1,644506,220226,1442747,66096,8170,721318,0
3,2,712229,249181,1429899,74222,9635,715141,0
3,-1,636902,218680,1195633,65547,7249,597788,0
3,-1,640516,220275,1345719,66075,8559,672724,0
3,2,709777,248377,1372578,73681,9730,686257,0
3,-1,645042,220446,1384960,66100,8533,692452,0
3,2,734904,253940,1430938,77308,10952,715452,0
3,-1,641564,219985,1234945,66043,7778,617464,0
3,2,716865,250725,1346928,74815,10597,672937,0
3,-1,641222,220032,1212173,66107,6902,606017,2
3,-1,643103,219869,1345889,65994,6822,672947,0
3,2,709449,248524,1323613,73772,8510,661806,0
3,-1,643694,219700,1205987,65929,7705,602978,0
3,-1,637748,219153,1313559,65684,8638,656783,0
3,2,710408,248214,1388813,73673,9805,694423,0
3,-1,640754,220284,1682261,66149,9281,840634,0
3,2,713053,248353,1299561,73671,9906,649740,0
3,-1,639537,220020,1146730,66100,7638,573257,2
3,2,708328,248119,1373811,73602,9343,686862,0
3,-1,640493,219684,1185844,65891,7402,592859,0
3,2,711264,248571,1400035,73836,8868,700032,0
3,-1,646565,220844,1376688,66624,8648,687848,0
3,-1,673019,231312,1363297,69794,8142,681663,2
3,-1,641016,219440,1312151,65875,7656,656072,0
3,2,759384,262518,1470970,79829,9921,735505,0
3,-1,646336,220686,1286359,66361,7462,643118,0
3,-1,644927,220672,1284213,66373,6991,642012,2
3,2,708998,248575,1341683,73863,9130,670723,0
3,-1,644936,220555,1165075,66366,7722,582495,0
3,2,712428,248135,1336293,73680,9383,668060,0
3,-1,642202,219597,1341977,66024,8266,670967,2
3,-1,644525,219812,1469328,66098,9541,734678,0
3,2,710828,247618,1420070,73432,10126,709963,0
3,-1,646071,220321,1372962,66476,8433,686545,0
3,-1,646352,220724,1299929,66187,8476,650016,0
3,-1,651167,221941,1342087,66577,8584,671097,0
3,2,712856,248956,1437620,73955,9706,718491,0
3,-1,645307,223410,1407170,67415,9319,703648,2
3,-1,638717,220268,1255819,66025,8334,627974,0
3,-1,641931,220718,1286943,66226,8484,643521,2
3,2,715682,249491,1425896,74035,10027,712883,0
3,-1,642903,220543,1209825,66040,8059,604993,0
3,2,712412,248598,1351079,73727,9236,675530,0
3,-1,641785,220002,1373085,65994,9026,686406,0
3,-1,646104,221265,1382974,66361,8253,691382,0
3,2,713335,248506,1414039,73663,9197,706821,0
3,-1,643806,221079,1389971,66339,8352,694809,0
3,-1,647740,222451,1288696,67104,8067,643744,0
3,-1,642307,220741,1277042,66316,8338,638490,2
3,-1,664544,224202,1274771,69173,9165,637153,0
3,2,702920,248494,1259345,73300,8985,629665,0
3,2,703345,248080,1312899,73064,9085,656537,0
3,-1,642290,220416,1303586,66164,7455,651791,0
3,-1,647111,221151,1319802,66401,8432,659944,0
3,2,710011,249739,1321884,73856,8705,660893,0
3,-1,642826,220510,1304410,66155,7398,652258,0
3,2,705136,248682,1386526,73330,9676,693312,0
3,-1,640543,219898,1129907,66009,7658,565006,2
3,-1,641487,219501,1186048,65827,7736,593027,0
3,-1,642973,219743,1258492,65958,7879,628892,0
3,-1,664455,228379,1409156,68515,8749,704532,2
3,-1,642810,219427,1369954,65886,9516,684942,0
3,2,707547,248382,1376342,73240,9574,688277,0
3,-1,643593,220250,1409734,66168,8578,704149,0
3,-1,642207,219402,1408689,65930,9654,703862,0
3,2,702080,247887,1411540,73139,9776,705677,0
3,-1,645140,220639,1421418,66293,9285,710717,2
3,2,710833,250148,1449301,74141,9621,724456,0
3,-1,639810,219217,1244018,65788,8174,622085,0
3,-1,642581,219877,1218481,66058,8191,609299,0
3,2,703661,248049,1532757,73185,10061,766171,0
3,-1,642873,221234,1190954,66743,7760,595486,2
3,-1,641115,219499,1174587,65873,7386,587241,0
3,-1,634963,217804,1271568,65314,8319,635773,0
3,-1,641010,219793,1343563,66012,7819,671836,2
3,-1,642863,219543,1172690,65951,8031,586409,0
3,-1,647656,221117,1286879,66715,8218,643369,0
3,2,710754,248283,1375540,74153,10130,687864,0
3,2,711357,248741,1258844,74307,9274,629243,0
3,-1,643720,218775,1172892,65716,7432,586504,0
3,2,706126,248285,1314096,74170,9288,657044,0
3,-1,645572,221373,1419957,66878,8519,709069,0
3,2,714665,249827,1321954,74803,9152,660905,0
3,-1,639684,219309,1189995,65887,7775,595090,0
3,-1,638048,219860,1310467,66043,7813,655255,2
3,-1,641734,220331,1280698,66147,7849,640408,0
3,2,706806,247720,1372263,74055,8930,686115,0
3,-1,668014,228783,1346432,68572,8273,673247,0
3,-1,640416,218997,1211471,65672,7987,605776,0
3,2,709358,248883,1394555,74398,9388,697226,0
3,-1,641583,218933,1185103,65645,7584,592563,0
3,-1,638163,219408,1304603,65867,8361,652369,2
3,-1,645843,221266,1307890,66733,8344,654134,0
3,-1,640607,219084,1186976,65836,7743,593540,2
3,-1,639382,219503,1290894,65925,7440,645503,0
3,2,706245,247713,1366779,73994,9517,683352,0
3,-1,639853,218885,1338563,65702,7750,669320,0
3,-1,639989,219452,1191281,65939,8406,595672,2
3,-1,642882,219139,1243607,65839,9042,621711,0
3,2,708448,247951,1423595,73965,9383,711803,0
3,-1,642855,219028,1171483,65796,8222,585538,0
3,2,735385,253508,1400174,77656,10532,700015,0
3,-1,638593,219140,1263996,65763,7561,631974,0
3,-1,640577,219168,1314417,65722,8008,657218,0
3,-1,646194,221818,1333858,66944,8032,666968,2
3,2,709810,248817,1348203,74337,9292,674181,0
3,2,712286,248523,1443671,74194,9672,721797,0
3,-1,662149,224157,1258654,69226,8770,629337,0
3,-1,647249,221046,1220252,66603,9165,609993,0
3,-1,642614,219840,1271913,66089,8383,636009,2
3,2,708619,249410,1407301,74547,9801,703696,0
3,-1,647613,221967,1295253,66968,7880,647638,0
3,-1,645944,219265,1435887,65725,9228,717950,0
3,2,716999,251017,1345570,75321,9004,672614,0
3,-1,642825,219817,1338684,65959,8756,669345,0
3,2,708648,248336,1296738,74220,8636,648353,0
3,-1,645080,219786,1318564,65761,8317,659277,0
3,-1,648496,220867,1211950,66398,8285,605712,0
3,2,709229,247605,1289742,74032,9140,644757,0
3,-1,649574,221620,1389784,66698,8861,694891,0
3,2,708929,248211,1303052,74137,9094,651529,0
3,-1,645063,219491,1317508,65698,8465,658710,0
3,-1,638944,219576,1299214,65726,8357,649622,0
3,2,712168,249044,1310315,74415,9990,655007,0
3,-1,640689,219849,1265855,65802,7909,632905,0
3,2,709781,248599,1343745,74215,9033,671842,0
3,-1,637290,219599,1314446,65738,7857,657227,2
3,2,708971,247490,1393479,73875,9045,696442,0
3,-1,640791,219849,1139493,65896,7378,569543,0
3,-1,661317,225227,1257340,69406,8788,628642,0
3,-1,638270,219498,1183566,65800,7462,591481,2
3,-1,640310,219739,1306539,65848,7528,653290,0
3,2,715218,248325,1397450,74044,9085,698772,0
3,-1,640678,219501,1226444,65735,7794,613204,0
3,-1,638645,218912,1171843,65645,7093,585910,0
3,-1,637588,218837,1253714,65671,7507,626824,2
3,2,710321,249176,1470670,74485,10328,734776,0
3,-1,638858,219388,1206247,65754,7970,602957,0
3,2,716040,250239,1301527,75005,9437,650635,0
3,-1,642191,219462,1324419,65873,8213,662140,0
3,-1,637991,218366,1364587,65402,7701,681726,0
3,-1,641913,219002,1314252,65696,8348,657029,0
3,2,711546,247464,1358068,73734,8984,678982,0
3,-1,640713,219213,1341165,65780,8554,670518,2
3,-1,645162,220704,1294879,66519,8214,647461,0
3,2,716908,249286,1478778,74509,9526,739351,0
3,-1,637086,219203,1168449,65798,7282,584124,2
3,-1,642054,220330,1250009,66301,7549,624931,0
3,2,712083,248727,1351397,74135,9433,675976,0
3,-1,637594,218479,1316636,65487,7782,658285,0
3,-1,639991,219076,1398664,65717,8712,699351,2
3,-1,638754,219283,1269595,65794,8427,634724,0
3,2,713634,248819,1444136,74234,9956,722126,0
3,-1,639640,218776,1292102,65565,8190,645238,0
3,-1,642556,219392,1249038,65809,8984,624389,0
3,-1,641232,219268,1395321,65714,7994,697372,0
3,2,715041,250041,1331270,74785,8567,665730,0
3,-1,636812,218346,1269868,65488,7613,634882,0
3,2,713676,248755,1249164,74167,8657,624488,0
3,-1,662941,223869,1299575,69088,8521,649772,0
3,2,714765,248791,1456548,74177,10230,728326,0
3,-1,649246,221446,1240254,66679,8097,620111,0
3,-1,640785,219358,1253585,65857,7251,626790,2
3,-1,641058,218711,1211716,65547,8201,605847,0
3,2,709002,248614,1294501,74124,9496,647297,0
3,-1,646878,221252,1294988,66604,8226,647458,0
3,2,730143,252404,1511901,77312,10708,755655,0
3,-1,635844,219280,1243076,65805,7358,621428,2
3,-1,657832,223665,1243289,69013,8381,621750,0
3,2,714923,249259,1556673,74453,10050,778138,0
3,-1,663886,224543,1346480,69289,8415,673232,0
3,-1,644491,220886,1200276,66497,7042,600159,0
3,2,713631,249259,1358540,74434,9682,679294,0
3,-1,639784,219231,1276381,65760,7194,638125,0
3,2,715707,250076,1309430,74772,8640,654750,0
3,2,709118,248774,1387880,74389,8817,693991,0
3,-1,642700,220900,1240434,66592,7292,620189,2
3,2,711122,248703,1392538,74385,9178,696296,0
3,-1,641700,219300,1181049,65765,7078,590470,0
3,-1,641101,218795,1270305,65534,7252,635138,0
3,-1,644010,219983,1279275,66014,8144,639744,2
3,2,712366,249250,1291965,74568,8810,646038,0
3,-1,636976,218278,1178341,65490,7383,589160,0
3,2,716103,250563,1442881,75109,9715,720947,0
3,-1,640279,219074,1247238,65664,7121,623607,0
3,-1,642384,218964,1280541,65628,8623,640287,0
3,2,714806,249567,1411612,74593,9553,705837,0
3,-1,639359,218567,1391070,65492,8159,695552,0
3,-1,649213,221600,1207465,66889,8489,603680,0
3,2,710461,249943,1322495,74706,9479,661289,0
3,-1,637926,218828,1289235,65594,8079,644616,0
3,-1,661496,223330,1287669,68900,7998,643767,0
3,2,712163,248817,1383350,74315,9259,691686,0
3,-1,641122,219238,1236540,65792,8259,618179,0
3,-1,642925,219285,1338501,65720,8290,669245,0
3,2,721790,252462,1387622,75780,9838,693583,0
3,-1,638847,219180,1249439,65754,7717,624622,2
3,-1,642693,219257,1290428,65700,7912,645218,0
3,-1,646986,221214,1359671,66727,7788,679581,0
3,2,713818,248631,1447960,74004,10176,724000,0
3,-1,641526,219130,1276991,65723,7712,638411,2
3,-1,645614,219683,1284067,65890,8572,642164,0
3,2,712779,248858,1494244,74081,9014,747691,0
3,-1,641467,219085,1212585,65701,7571,606301,0
3,-1,639210,218904,1182568,65611,7401,591204,2
3,-1,643358,218763,1191938,65576,7951,595787,0
3,-1,642353,218830,1172892,65622,7341,586527,0
3,-1,642937,218933,1272688,65687,8418,636338,2
3,2,716297,249268,1365218,74411,9911,682527,0
3,2,712550,249498,1330581,74453,9076,665287,0
3,-1,644379,219301,1311447,65629,7991,655819,0
3,2,714840,248916,1496993,74310,10216,748445,0
3,-1,644429,218990,1261487,65606,7296,630455,0
3,-1,647407,219295,1266233,65626,7104,633035,0
3,2,717600,249486,1377985,74502,9669,689032,0
3,-1,631145,219057,1245543,65224,7591,622672,2
3,2,714364,248690,1331595,74255,9354,665727,0
3,-1,637148,220966,1279559,66066,7411,639781,0
3,-1,638809,220927,1214876,65996,7311,607421,0
3,2,713388,248935,1394783,74301,10030,697298,0
3,-1,635703,218900,1192899,65130,7314,596468,0
3,2,711748,248954,1385865,74331,9475,692900,0
3,-1,633712,218974,1175585,65147,7742,587751,0
3,-1,635331,219220,1218668,65222,7753,609293,0
3,2,712656,249089,1431370,74359,10051,715745,0
3,-1,636618,219245,1285566,65263,7829,642861,0
3,-1,635710,219738,1329172,65359,8856,664505,0
3,2,712852,249140,1456999,74231,9455,728565,0
3,-1,635104,219040,1324348,65253,8232,661820,0
3,-1,636212,219296,1298658,65243,7669,649401,0
3,-1,634473,218710,1154774,65060,7252,577317,0
3,2,713289,249391,1380243,74450,9373,690179,0
3,-1,637397,220136,1329329,65601,7980,664516,2
3,-1,636257,219056,1218469,65160,6895,609163,0
3,-1,638757,219769,1216953,65621,7642,608433,0
3,-1,638228,218561,1275312,65050,8147,637595,0
3,2,735832,253913,1419234,77790,10639,709519,0
3,-1,640074,221244,1227109,66232,8560,613594,0
3,-1,636369,218510,1131362,65031,7673,565585,0
3,-1,632908,219049,1202386,65240,8167,601204,2
3,2,713524,248671,1452318,74270,9798,726136,0
3,-1,637104,219453,1184233,65335,8019,592093,0
3,-1,635822,218877,1433409,65219,8120,716600,0
3,-1,638838,219362,1168144,65487,7465,583985,0
3,2,711194,249358,1446930,74347,10442,723475,0
3,2,713838,249486,1358909,74463,9739,679422,0
3,-1,643167,220262,1185584,65927,7298,592491,0
3,2,711201,248791,1285725,74219,9634,642675,0
3,-1,658273,223388,1255058,69368,9445,627539,0
3,2,712155,248375,1423765,74083,8777,711893,0
3,-1,645494,220607,1524782,66900,9112,761386,0
3,2,714532,249096,1335758,74218,9303,667811,0
3,2,714172,248912,1360691,74255,9313,680434,0
3,-1,660266,223252,1363870,69346,10067,681865,0
3,2,713455,248579,1349708,74097,9988,674842,0
3,-1,640709,219233,1277565,66281,8509,638758,2
3,-1,645288,220130,1226481,66783,8186,613197,0
3,2,718126,249845,1440645,74540,10535,720260,0
3,-1,645428,219811,1285944,66389,8611,642845,0
3,-1,635726,218047,1177223,65809,8290,588520,0
3,2,710754,248356,1336935,74163,8917,668315,0
3,-1,637881,219069,1241487,66233,7406,620591,0
3,2,713908,248293,1432351,74080,9749,716619,0
3,-1,635582,218411,1200885,65935,7860,600329,0
3,-1,643838,221203,1213606,67198,8071,606691,2
3,-1,634776,218526,1270487,66050,7494,635233,0
3,-1,658647,223257,1319473,69326,8888,659682,0
3,2,709278,247350,1378830,73879,10154,689383,0
3,-1,640401,219435,1251659,66319,7937,625823,0
3,-1,666020,227640,1301487,68759,8093,650714,0
3,2,718633,250342,1553377,75254,10188,776539,0
3,2,715533,248448,1342090,74411,10128,671090,0
3,-1,638208,219125,1315602,66247,7945,657802,0
3,-1,640106,219247,1336985,66277,7670,668455,0
3,-1,640428,219386,1290197,66304,8207,645099,0
3,2,705570,247683,1318113,74088,8926,659141,0
3,-1,639631,218982,1169760,66197,6968,584793,0
3,-1,660118,223026,1313111,69311,8660,656485,0
3,2,729834,253005,1452532,77639,10475,726268,0
3,-1,664014,222984,1250132,69282,8775,624995,0
3,-1,639215,220627,1140823,67007,8110,570385,2
3,2,728282,253473,1445580,77789,9884,722890,0
3,-1,641008,219278,1185301,66295,7793,592635,0
3,-1,640266,219839,1341794,66478,8474,670887,2
3,-1,640246,218898,1184101,66165,8189,592001,0
3,2,707500,248084,1387331,74202,8556,693624,0
3,-1,641605,219318,1394459,66286,8399,697259,0
3,-1,645055,221094,1277502,67039,9005,638345,0
3,2,704258,247327,1335634,73971,8251,667646,0
3,-1,638712,219032,1246456,66161,8277,623231,0
3,-1,640293,219033,1181499,66151,7240,590778,0
3,-1,639561,218606,1295350,66026,8244,647735,0
3,-1,639726,219441,1437539,66351,9135,718767,2
3,2,731678,253403,1381838,77731,10751,690927,0
3,2,710793,248555,1477720,74279,10221,738916,0
3,-1,644076,219951,1252062,66489,8573,625755,0
3,-1,662388,223532,1339690,69378,9147,669946,0
3,2,715962,250722,1448235,75244,9947,723922,0
3,-1,642307,218683,1309621,66076,8088,654839,0
