0,2,760594,266927,1387606,78892,9130,693717,0
0,-1,691968,237477,1264839,70866,7556,632412,0
0,-1,689183,237568,1308886,70876,7498,654305,2
0,2,709209,248181,1389370,73758,9727,694934,0
0,-1,649687,223709,1298815,67298,7012,649409,0
0,2,710114,249710,1469399,74495,9157,734609,0
0,-1,642579,219522,1261456,65910,8244,630694,0
0,2,714340,249513,1422395,74373,9574,711145,0
0,2,731630,253302,1569895,77312,9466,784859,0
0,-1,636738,219049,1241836,65870,6951,620890,0
0,2,713946,248127,1500119,73873,9081,750074,0
0,2,706793,248592,1407348,74053,9719,703666,0
0,-1,642444,220346,1401394,66567,8248,701515,0
0,2,708526,250695,1421782,74883,9183,710852,0
0,-1,641620,219240,1199612,65824,7134,599869,0
0,2,710346,250278,1410365,74646,8933,705201,0
0,2,706458,248539,1442314,73932,10240,721014,0
0,-1,638586,219838,1245809,66059,7655,622850,0
0,2,710774,249755,1307265,74578,8717,653572,0
0,-1,638041,218719,1200343,65822,6905,600186,0
0,2,707733,248399,1369066,73754,8296,684278,0
0,2,714077,249402,1488931,74033,9576,744495,0
0,-1,644444,220352,1404642,66533,7891,702364,0
0,2,707884,249567,1473903,74089,9795,737056,0
0,2,731226,254237,1409293,77445,9775,704663,0
0,2,709144,248957,1412007,73864,8919,706039,0
0,-1,638141,219099,1141532,65973,7433,570769,0
0,2,710298,248892,1411576,73897,9562,705799,0
0,-1,638478,220221,1326708,66483,7925,663376,0
0,2,708368,248633,1438901,73725,9292,719501,0
0,2,709241,248436,1431662,73734,9425,715881,0
0,-1,639630,219600,1541225,66043,8631,770699,0
0,2,709627,248277,1354605,73709,9071,677358,0
0,-1,634588,218419,1143594,65653,7489,571823,0
0,2,715663,250557,1306338,74707,8759,653249,0
0,2,710633,250898,1233044,74332,8505,616379,0
0,-1,638199,219598,1272825,65945,7652,636409,0
0,2,706328,247898,1406902,73123,9226,703483,0
0,2,713464,248463,1520531,74204,10497,760201,0
0,2,710369,248476,1493402,74196,9955,746632,0
0,-1,642447,220766,1264558,66678,6905,632390,0
0,2,730670,252421,1448773,77266,9953,724384,0
0,-1,638419,219472,1190062,66011,6732,595105,0
0,2,728832,252912,1521048,77449,10949,760435,0
0,2,710234,247958,1328592,74081,8474,664295,0
0,-1,638610,219755,1435343,66107,8896,717335,0
0,2,711997,249351,1291441,74389,9373,645776,0
0,-1,641460,219470,1320096,65797,7153,660142,0
0,2,713800,248127,1484174,73949,10781,742106,0
0,2,715224,249986,1467404,74807,9014,733687,0
0,-1,640469,220035,1239679,66069,7322,619901,0
0,2,712231,249529,1463181,74556,9810,731580,0
0,-1,642042,219636,1294639,65950,7308,647370,0
0,2,714391,249128,1330754,74236,8604,664300,0
0,2,717822,250801,1344313,75128,9137,672194,0
0,2,714171,249315,1420667,74555,9291,710330,0
0,-1,650596,221825,1337879,66750,8509,668462,0
0,2,716517,250988,1381233,75161,9958,690454,0
0,-1,645382,220944,1284336,66315,7771,642256,0
0,2,733519,253207,1401923,77499,10099,700788,0
0,2,705944,248546,1411229,74410,8799,705686,0
0,-1,651092,221461,1302211,66622,8420,651097,0
0,2,709998,247760,1416065,73965,8712,707958,0
1,-1,692048,237301,1303102,70812,7967,651315,2
1,2,708357,247857,1321447,73528,8173,660711,0
1,-1,689954,237598,1289731,70789,7307,644850,0
1,2,705918,248039,1463290,73687,8568,731620,0
1,-1,638940,218565,1182872,65514,7506,591413,0
1,2,710923,248214,1395584,73675,9180,697871,0
1,2,713318,248712,1435972,73976,9056,717991,0
1,-1,635032,218537,1210861,65616,6546,605409,0
1,2,715727,249414,1353540,74314,8759,676722,0
1,2,706905,249070,1335186,74156,9219,667464,0
1,-1,660741,223824,1328930,69187,8742,664354,0
1,2,711634,248517,1388209,73855,9429,694137,0
1,-1,639458,218691,1290195,65694,7929,645107,0
1,2,706142,248485,1359171,73892,8866,679644,0
1,2,711828,251252,1347511,75155,8557,673831,0
1,-1,662988,223557,1389998,69064,9689,695556,0
1,2,710702,248808,1247276,74036,8463,623689,0
1,-1,638977,218437,1285744,65707,7437,642797,0
1,2,711609,250310,1495980,74551,8269,747998,0
1,2,713218,249565,1334569,74089,9145,667327,0
1,2,720578,250431,1386306,74360,9492,693155,0
1,-1,642367,218821,1286239,65907,8169,643095,0
1,2,711120,249328,1309808,74084,9112,654787,0
1,-1,637907,219356,1343826,66044,8044,671727,0
1,2,707322,248524,1626048,73876,9625,813057,0
1,2,706971,248384,1305449,73787,8770,652771,0
1,-1,633601,218728,1289453,65800,7741,644746,0
1,2,707005,248310,1360889,73567,9035,680462,0
1,-1,639946,219918,1193822,66181,6471,596970,0
1,2,710206,248903,1308868,73918,7996,654269,0
1,2,708150,247746,1472693,73489,9602,736352,0
1,2,731109,252351,1444982,76822,10334,722438,0
1,-1,640218,219512,1382948,65950,7747,691512,0
1,2,701988,247970,1252982,73019,8466,626460,0
1,-1,659788,223830,1171714,69219,7731,585963,0
1,2,709076,250004,1402746,73998,9879,701493,0
1,2,710956,247902,1654799,74069,10885,827332,0
1,2,731167,253150,1584152,77558,10833,792059,0
1,-1,660507,224180,1258502,69372,7493,629317,0
1,2,710321,247588,1417234,73896,9191,708610,0
1,-1,641211,220487,1287048,66484,7045,643588,0
1,2,709375,248257,1481334,74160,9796,740658,0
1,2,713042,249779,1287268,74954,8317,643634,0
1,-1,636350,219262,1291580,65856,7413,645852,0
1,2,736022,257705,1659045,76860,9890,828674,0
1,-1,645277,221191,1390465,66607,7013,695279,0
1,2,715810,248693,1414665,74181,9889,707204,0
1,2,729483,253034,1503621,77496,11432,751815,0
1,-1,638905,219513,1172237,65900,7038,586162,0
1,2,714928,250386,1368673,74888,8324,684327,0
1,-1,662471,223987,1220695,69269,7949,610318,0
1,2,713414,248982,1391528,74258,9521,695800,0
1,2,711608,249026,1538286,74376,9158,769102,0
1,-1,647792,220583,1392523,66100,9030,696230,0
1,2,714588,249355,1312195,74499,8964,656124,0
1,2,734082,254264,1505303,77810,11186,752517,0
1,-1,643468,219848,1371330,65836,8581,685577,0
1,2,713478,248221,1330070,74062,9985,665065,0
1,2,706482,248035,1370253,74245,9409,684983,0
1,-1,645004,219778,1196708,65965,7559,598271,0
1,2,709548,247813,1323363,73968,9154,661682,0
2,2,708450,248453,1290119,73778,8384,645036,0
2,-1,692239,238469,1424710,71282,7765,712114,0
2,-1,635863,219247,1299504,65838,8017,649666,2
2,2,705128,247074,1363480,73332,8951,681769,0
2,-1,660526,223251,1359514,68924,8622,679788,0
2,2,711485,248481,1331292,73775,8921,665702,0
2,2,710503,248092,1426053,73653,8964,713024,0
2,-1,640087,220594,1213421,66564,7722,606714,0
2,2,735251,253295,1342290,77365,10038,671119,0
2,2,708949,250560,1356872,74986,9925,678405,0
2,-1,639190,219500,1189708,65982,7292,594844,0
2,2,712222,249401,1310281,74245,9184,654917,0
2,-1,640799,219172,1237403,65850,7163,618597,0
2,2,711544,248692,1381338,74021,8382,690714,0
2,2,704772,248560,1617592,73887,10233,808520,0
2,-1,642954,220194,1285972,66161,8125,642812,0
2,2,709063,249048,1302429,74119,7944,651271,0
2,-1,638326,218603,1219443,65798,7175,609419,0
2,2,714694,251022,1435658,74945,8949,717892,0
2,2,710539,248629,1378001,73986,9224,689045,0
2,-1,646961,221641,1326519,67148,8364,663333,0
2,2,723390,251945,1465036,75108,10539,731750,0
2,2,715416,250852,1387925,74751,10065,693843,0
2,-1,642097,220954,1417294,66801,8703,708587,0
2,2,730225,253237,1438921,77229,10229,719431,0
2,2,718513,250713,1427160,74931,9228,713613,0
2,-1,641400,219732,1307458,66182,7909,653869,0
2,2,713422,249657,1511297,74172,9896,755713,0
2,-1,636651,219335,1164872,65981,7258,582476,0
2,2,705671,247541,1423472,73345,9034,711788,0
2,2,709543,247950,1352485,73584,9485,676286,0
2,2,711232,248489,1402816,73789,9192,701363,0
2,-1,636477,219479,1295242,65952,7262,647642,0
2,2,704181,248363,1449719,73238,8205,724831,0
2,-1,638374,219426,1182038,65990,7054,591075,0
2,2,706068,248673,1494288,73474,9806,747199,0
2,2,710365,248520,1389690,74318,9621,694881,0
2,2,710782,248221,1446796,74111,9419,723433,0
2,-1,643969,219740,1242954,66056,7452,621521,0
2,2,710479,248158,1398694,74164,9255,699353,0
2,-1,637912,219661,1341117,66002,6865,670550,0
2,2,707570,247957,1437663,73998,9334,718828,0
2,2,727867,252390,1445379,77231,9593,722732,0
2,-1,637039,219048,1185245,65794,6933,592682,0
2,2,711422,249840,1425711,74783,9968,713008,0
2,-1,640031,219429,1393785,65902,8047,696947,0
2,2,717192,250317,1391684,74958,9622,695784,0
2,2,715708,249483,1482029,74548,9692,740963,0
2,-1,638748,219533,1187823,65919,6838,593965,0
2,2,710691,249179,1355354,74448,8790,677764,0
2,-1,640782,219505,1275322,65957,7383,637697,0
2,2,712007,249601,1337238,74449,8449,668689,0
2,2,711260,248813,1440480,74268,9320,720241,0
2,2,712208,248798,1440962,74274,9508,720450,0
2,-1,644793,220400,1370591,66032,9809,685284,0
2,2,708605,247832,1397337,73980,10249,698581,0
2,-1,644044,220465,1306744,66188,9721,653143,0
2,2,711874,248292,1267489,74151,8933,633996,0
2,2,707081,247889,1472954,74152,9579,736482,0
2,-1,645759,220389,1309585,66102,8425,654737,0
2,2,712645,249583,1301721,74814,8890,650915,0
3,2,707412,248085,1398582,73586,8470,699279,0
3,-1,689182,236307,1334640,70439,8124,667319,0
3,-1,636687,218510,1268716,65519,7600,634273,2
3,2,706739,247632,1472324,73565,9304,736202,0
3,-1,639042,218583,1325548,65588,7215,662809,0
3,2,708993,248141,1460475,73753,10072,730264,0
3,2,711394,248934,1325478,74039,9010,662717,0
3,-1,636725,219330,1186020,65848,6916,592962,0
3,2,711646,248172,1435116,73892,9482,717353,0
3,2,704381,248609,1337766,74058,10241,668796,0
3,-1,638202,219135,1193249,65867,7898,596587,0
3,2,714778,249794,1425422,74540,9757,712784,0
3,-1,647362,221967,1399223,67138,8361,699550,0
3,2,710319,248555,1354363,73965,8045,677155,0
3,2,704823,249571,1297829,74293,7803,648949,0
3,-1,644796,220808,1347273,66541,8296,673652,0
3,2,710799,249312,1455054,74139,8569,727752,0
3,-1,644052,221263,1310604,66949,7555,655292,0
3,2,730511,253554,1371299,77210,9446,685630,0
3,2,712447,248662,1424670,73928,9062,712377,0
3,-1,640785,218697,1232543,65823,8056,616242,0
3,2,739186,254550,1401741,77474,10178,700859,0
3,2,710921,249446,1393803,74111,9608,696780,0
3,-1,634395,218730,1250693,65807,7383,625339,0
3,2,710323,250126,1469378,74620,9310,734730,0
3,2,711480,247935,1312347,73681,8912,656136,0
3,-1,644312,220513,1355342,66626,8590,677887,0
3,2,713458,250994,1413814,74687,9740,706891,0
3,-1,640306,220128,1452902,66164,7813,726438,0
3,2,713619,249586,1371705,74302,8726,686097,0
3,2,732013,252626,1390497,76849,9857,695159,0
3,2,717219,250353,1448022,74604,9013,723993,0
3,-1,639452,220223,1299851,66448,7230,649989,0
3,2,714196,248488,1378251,73638,7109,689094,0
3,-1,637487,219104,1187790,65852,7168,593956,0
3,2,705134,248500,1479632,73339,9648,739331,0
3,2,709438,247567,1313770,73931,9009,656765,0
3,2,709108,248447,1482105,74242,9753,741108,0
3,-1,641890,219281,1170843,65972,7115,585466,0
3,2,712145,249319,1329986,74727,9301,664991,0
3,-1,643033,221225,1278652,66842,7592,639407,0
3,2,709379,248220,1517303,74012,9914,758549,0
3,2,711766,248759,1482130,74339,8845,740978,0
3,-1,636548,219540,1269773,65979,8017,634903,0
3,2,714301,248875,1471750,74226,9598,735917,0
3,-1,641071,219794,1298937,66024,7142,649513,0
3,2,713081,248825,1355330,74225,10130,677713,0
3,2,712402,248992,1426991,74468,9450,713484,0
3,-1,666720,224655,1426336,69388,8417,713234,0
3,2,728918,252926,1455909,77456,10042,727831,0
3,-1,642929,220847,1289386,66638,7316,644732,0
3,2,712954,248518,1502530,74108,8867,751238,0
3,2,711160,249001,1380769,74389,9324,690169,0
3,2,712606,249145,1387152,74433,8977,693566,0
3,-1,646645,220598,1242830,66101,8646,621629,0
3,2,709579,248606,1353706,74142,9876,676850,0
3,-1,644226,220460,1323861,66067,8376,661933,0
3,2,712115,248310,1336037,74093,9411,668000,0
3,2,729074,252696,1450650,77555,10097,725381,0
3,-1,645172,220092,1384091,66006,8339,691960,0
3,2,707114,247699,1249457,73985,8381,624711,0
4,2,706650,247500,1371953,73485,8376,685964,0
4,-1,723210,248012,1356588,73915,8133,678152,0
4,2,727573,253383,1435750,77265,9504,717855,0
4,-1,638279,218680,1270095,65647,6785,635002,0
4,-1,639012,219155,1330870,65774,8089,665407,2
4,2,710514,248693,1332619,73935,9538,666309,0
4,2,731317,253363,1364108,77260,9668,681953,0
4,-1,635043,219032,1210028,65750,7369,604924,0
4,2,712545,248905,1430624,74149,9384,715232,0
4,2,702872,248416,1354572,73941,9513,677301,0
4,-1,637708,219025,1291587,65875,7646,645797,0
4,2,710876,248835,1349768,74066,8659,674929,0
4,-1,663297,224011,1290139,69260,8750,645010,0
4,2,709538,248311,1443573,73826,9151,721825,0
4,2,715420,248715,1432639,73944,8842,716355,0
4,-1,641232,219107,1377520,65759,7774,688716,0
4,2,709285,248911,1415028,73915,8800,707490,0
4,-1,659605,223694,1249385,69282,7746,624644,0
4,2,707472,248654,1392792,73868,8349,696433,0
4,2,713265,249688,1276684,74331,8402,638384,0
4,-1,639790,218510,1211847,65767,7788,605834,0
4,2,715998,249906,1517310,74176,11542,758147,0
4,2,716972,251954,1438770,75226,9822,719039,0
4,-1,633794,218798,1272322,65845,7703,636136,0
4,2,708903,248786,1356961,74010,9446,678516,0
4,2,712845,248874,1456404,74004,9056,728253,0
4,-1,639502,219094,1239810,66000,7421,619901,0
4,2,709099,249035,1378589,73768,9477,689341,0
4,-1,636846,218845,1263383,65718,7147,631737,0
4,2,711208,247971,1302911,73629,9054,651319,0
4,2,709692,248314,1407591,73748,8790,703833,0
4,2,710247,248628,1375126,73830,8784,687573,0
4,-1,636387,219319,1164697,65959,6661,582394,0
4,2,736775,252967,1438049,76965,9243,718917,0
4,-1,639527,220248,1163273,66280,7021,581661,0
4,2,710385,250701,1381683,74397,9658,690577,0
4,2,707597,247550,1398159,73965,9574,699096,0
4,2,713419,249953,1299970,74994,9413,649843,0
4,-1,643643,220383,1282571,66496,7456,641350,0
4,2,711743,247821,1506005,74032,9450,753040,0
4,-1,638004,219940,1304791,66105,7571,652448,0
4,2,730500,252987,1471640,77515,10918,735823,0
4,2,713060,249999,1297830,74998,8125,648577,0
4,-1,639257,219814,1176533,66069,7077,588324,0
4,2,710879,248630,1451131,74148,9859,725568,0
4,-1,645476,221719,1298512,66999,7747,649347,0
4,2,713200,249241,1336055,74337,9827,667703,0
4,2,714078,249387,1486654,74528,10080,743294,0
4,-1,645581,220595,1436615,66247,8716,718397,0
4,2,710168,249792,1302878,74700,8682,651435,0
4,-1,647059,222053,1254802,67176,7673,627473,0
4,2,733165,253824,1465076,77661,10165,732485,0
4,2,710275,248634,1398295,74164,10034,698856,0
4,-1,645954,220593,1219319,66171,8512,609493,0
4,2,714872,248922,1478534,74379,9372,739264,0
4,2,710203,248309,1479303,73991,10027,739561,0
4,-1,648773,222622,1294757,67088,8695,647236,0
4,2,710694,248071,1496636,74064,9374,747948,0
4,2,708042,248700,1406619,74458,9352,703306,0
4,-1,648321,222018,1365185,66920,8248,682452,0
4,2,710896,247887,1298773,74020,10126,649186,0
5,2,709174,248348,1499350,73780,9365,749664,0
5,-1,711045,242400,1404981,74164,8605,702524,0
5,2,708089,248698,1400777,73933,9097,700355,0
5,-1,639920,218993,1256522,65744,7204,628128,0
5,2,713087,249830,1416850,74617,10054,708472,0
5,2,710980,248474,1414436,73880,9448,707443,0
5,-1,640588,220682,1258971,66753,7018,629451,2
5,-1,638466,218510,1240639,65691,7161,620296,0
5,2,713088,248885,1340567,74089,9277,670292,0
5,2,708178,248331,1412776,73931,8878,706390,0
5,-1,636573,219080,1177782,65765,6924,588892,0
5,2,709126,248551,1412536,73911,8845,706318,0
5,-1,644076,219521,1302917,66105,7809,651581,0
5,2,709273,248665,1307298,73970,8152,653719,0
5,2,712557,248744,1308909,73936,8581,654501,0
5,-1,646227,221390,1572162,66741,8576,786099,0
5,2,708497,248891,1597543,73984,10132,798825,0
5,-1,639921,219508,1275556,66124,7666,637404,0
5,2,708608,249560,1451085,74400,8712,725416,0
5,2,710113,248813,1417273,73952,8925,708701,0
5,-1,646714,221113,1241082,66891,8764,620530,0
5,2,722007,251684,1381377,75024,10517,690763,0
5,2,731529,254198,1364486,77402,10086,682211,0
5,-1,639920,220043,1248824,66289,7683,624424,0
5,2,709549,249086,1410558,74046,9710,705327,0
5,2,709599,247851,1303144,73704,8870,651514,0
5,-1,639857,219129,1321426,65936,8223,660649,0
5,2,708975,249386,1337472,73911,9887,668787,0
5,-1,637374,219419,1188734,65988,6818,594406,0
5,2,711556,248138,1423494,73605,9894,711785,0
5,2,714199,250471,1410163,74679,8903,705047,0
5,-1,638065,219907,1314622,66126,7103,657369,0
5,2,713341,250281,1241075,74527,8561,620427,0
5,2,714802,248419,1380178,73681,8002,690065,0
5,-1,639610,219700,1306575,66059,8210,653228,0
5,2,702282,248265,1470937,73322,9639,735320,0
5,2,708988,248147,1387052,74121,9708,693561,0
5,2,729848,252610,1461784,77436,10556,730703,0
5,-1,640982,219106,1196694,65927,7432,598385,0
5,2,709369,247959,1437251,74015,9476,718607,0
5,-1,636705,219478,1257128,65946,6842,628669,0
5,2,709613,248956,1420154,74418,9323,709940,0
5,2,730035,253218,1471221,77603,9477,735561,0
5,-1,645961,220583,1355406,66540,8069,677761,0
5,2,708084,247776,1296430,73974,8745,648320,0
5,-1,661061,223468,1225941,69015,7567,612957,0
5,2,711074,248289,1353521,73984,9953,676681,0
5,2,714972,250158,1488115,74782,9978,744038,0
5,-1,640768,219119,1193492,65742,6839,596778,0
5,2,706581,248806,1437391,74344,8961,718628,0
5,-1,661031,224113,1230923,69163,7898,615413,0
5,2,711785,249485,1403003,74391,10057,701755,0
5,2,711250,249128,1311599,74414,9394,655765,0
5,-1,649297,221885,1217953,66775,8683,608982,0
5,2,713497,248808,1440628,74340,9101,720172,0
5,2,715060,249688,1364889,74519,8986,682259,0
5,-1,665011,225393,1268428,69517,8867,634207,0
5,2,712285,249052,1359951,74362,9139,679914,0
5,2,707528,248287,1347615,74280,9627,673832,0
5,-1,665994,224844,1242631,69328,8798,620954,0
5,2,711867,249404,1422569,74886,9406,711282,0
6,2,708619,248312,1336985,73756,9102,668312,0
6,-1,691593,237674,1402633,70805,7822,701270,0
6,2,704739,247925,1393189,73635,8682,696596,0
6,-1,638880,218966,1293341,65702,7496,646669,0
6,2,710098,249019,1381249,74147,9994,690562,0
6,2,713482,250468,1437389,74784,9497,718722,0
6,-1,636112,217974,1246457,65496,6889,623240,0
6,-1,635246,219793,1145620,66090,6815,572815,2
6,2,711223,247601,1381582,73701,8589,690793,0
6,2,710496,249923,1475083,74686,9683,737510,0
6,-1,636830,218534,1219176,65713,6866,609720,0
6,2,711986,248873,1453942,74082,9273,727011,0
6,-1,661216,223356,1296162,69074,7501,647851,0
6,2,710863,248890,1498913,74093,11068,749502,0
6,2,713908,249560,1423448,74266,9193,711755,0
6,-1,645395,220654,1171906,66240,7602,585705,0
6,2,710267,248834,1426607,73994,8978,713345,0
6,-1,637598,218448,1289874,65734,7610,644946,0
6,2,725453,253300,1381024,77132,8703,690648,0
6,2,707794,248628,1304963,73819,8594,652547,0
6,-1,645264,219844,1323363,66366,8468,661663,0
6,2,714604,249659,1264581,74082,9593,632212,0
6,2,709373,249377,1298728,74023,9235,649304,0
6,-1,658396,223987,1323411,69380,9036,661096,0
6,2,709801,250206,1369843,74725,9352,684967,0
6,2,709260,247921,1414339,73603,8967,707223,0
6,-1,639130,219142,1251773,65990,7117,625913,0
6,2,716644,248873,1485982,73677,9384,742951,0
6,-1,637135,219109,1300665,65844,6753,650356,0
6,2,733118,253499,1414686,77169,10327,707408,0
6,2,711835,248610,1325387,73747,8946,662605,0
6,-1,642718,221519,1455259,66932,8591,727679,0
6,2,712971,248306,1308641,73738,8847,654085,0
6,2,714132,248317,1364935,73651,7983,682440,0
6,-1,637938,219387,1384784,65923,7124,692438,0
6,2,708967,248741,1324178,73460,9771,662010,0
6,2,709212,247862,1321182,73926,8948,660562,0
6,2,709164,249183,1506846,74623,10287,753430,0
6,-1,646697,221699,1299869,67081,8511,649895,0
6,2,710608,248660,1410428,74348,9217,705179,0
6,-1,657710,223641,1241636,69143,7755,620791,0
6,2,710175,248901,1279354,74390,9017,639685,0
6,2,736346,257830,1391135,77049,9084,695535,0
6,-1,641277,219157,1158118,65825,7031,578984,0
6,2,711309,249569,1404276,74620,9575,702156,0
6,-1,641431,219818,1312811,66126,7619,656188,0
6,2,713270,248132,1457464,73931,9317,728781,0
6,2,714561,249878,1487368,74682,9979,743660,0
6,-1,640123,219405,1164773,65806,7114,582444,0
6,2,714731,249186,1481559,74422,9422,740763,0
6,-1,640501,220223,1233230,66092,7162,616654,0
6,2,711443,249309,1341184,74280,9687,670501,0
6,2,711550,249989,1274819,74818,9324,637448,0
6,-1,646500,220449,1256682,66067,8816,628447,0
6,2,716106,250430,1596752,74725,10056,798243,0
6,2,722819,250512,1418927,74996,9657,709361,0
6,-1,641396,219593,1206169,65759,7555,603083,0
6,2,711702,249175,1485707,74374,9972,742867,0
6,2,703081,247730,1394142,74116,9086,696886,0
6,-1,646817,220961,1333172,66333,8616,666242,0
6,2,708325,248530,1383668,74377,9418,691809,0
7,2,712347,250600,1417796,74790,8857,708925,0
7,-1,690261,237628,1282804,70845,7196,641322,0
7,2,722660,251603,1408910,76661,9522,704320,0
7,-1,637031,218310,1197819,65438,7142,598907,0
7,2,713465,248135,1392646,73865,9264,696369,0
7,2,711341,248927,1381586,74010,9615,690764,0
7,-1,638018,218583,1269875,65709,7206,634965,0
7,2,716540,249923,1415379,74678,9763,707692,0
7,-1,636412,218933,1254650,65825,7190,627346,2
7,2,705248,248245,1313344,73939,9527,656624,0
7,-1,634673,218148,1316488,65539,7466,658277,0
7,2,713962,249917,1339844,74583,8964,669979,0
7,-1,641298,219015,1321232,65819,7929,660453,0
7,2,709556,248773,1326174,73950,9480,663106,0
7,2,712107,248719,1356752,74007,9012,678436,0
7,-1,640779,219864,1313079,65981,7908,656538,0
7,2,708405,249110,1329974,74115,8483,665030,0
7,-1,639388,219381,1191590,66079,7435,595795,0
7,2,717368,250389,1422218,74580,9790,711187,0
7,2,708674,248828,1456258,73826,8733,728176,0
7,-1,643393,219538,1177273,66127,7793,588191,0
7,2,716434,249943,1319992,74260,9558,659993,0
7,2,716064,249724,1340759,74174,9229,670087,0
7,-1,635594,219209,1325275,65905,7946,662582,0
7,2,711072,249466,1388317,74218,9394,694064,0
7,2,712184,249138,1343053,74243,9531,671559,0
7,-1,644544,221540,1297214,67037,8008,648707,0
7,2,713939,248708,1313109,73635,8879,656557,0
7,-1,639356,220328,1279589,66276,6859,639843,0
7,2,710674,248094,1263491,73614,9319,631794,0
7,2,709900,248229,1383509,73617,9007,691793,0
7,-1,662906,224236,1247696,69275,8929,623831,0
7,2,712957,248591,1247773,73815,8882,623790,0
7,2,714810,248477,1403743,73698,8067,701868,0
7,-1,643586,221436,1338593,66921,8584,669323,0
7,2,713801,250774,1371236,74481,9498,685497,0
7,2,709299,248387,1469980,74210,9530,734989,0
7,-1,638182,218606,1183241,65769,7381,591669,0
7,2,706757,247965,1425274,74062,9021,712629,0
7,2,710882,248258,1406121,74227,8390,703048,0
7,-1,639844,220082,1193626,66206,7105,596873,0
7,2,706989,248025,1417373,74044,9209,708531,0
7,2,711014,247955,1364676,74071,8983,682282,0
7,-1,643454,219987,1210389,66147,7106,605062,0
7,2,706272,247891,1323468,73940,9675,661716,0
7,-1,638249,218915,1194865,65765,6557,597485,0
7,2,713666,248304,1493001,74042,9923,746551,0
7,2,711275,249177,1505422,74402,9728,752594,0
7,-1,660737,223960,1346311,69166,7365,672801,0
7,2,737449,254077,1515515,77866,10789,757729,0
7,-1,638794,219042,1128496,65684,7689,564367,0
7,2,734667,254893,1423947,77953,10046,711862,0
7,2,710784,249286,1428663,74418,9464,714315,0
7,-1,643405,219864,1355753,65843,8749,677847,0
7,2,713485,249775,1432183,74540,9616,715965,0
7,2,719417,249576,1483592,74420,10660,741796,0
7,-1,644698,221264,1213819,66372,7878,607271,0
7,2,729906,253076,1524504,77358,10341,761863,0
7,2,705237,247603,1353327,74132,9016,676552,0
7,-1,643059,219567,1183466,65876,7831,591567,0
7,2,709382,248137,1385582,74277,9942,692817,0
8,2,730672,252881,1443221,77072,9724,721592,0
8,-1,690388,238007,1366367,71007,7818,683120,0
8,2,712196,248979,1411901,74224,9095,705807,0
8,-1,659732,223666,1318477,69014,8624,659207,0
8,2,713101,249040,1356530,74066,9058,678299,0
8,2,707043,247761,1404209,73530,8673,702100,0
8,-1,638791,219163,1222776,65820,7135,611397,0
8,2,731359,252901,1339234,77278,10106,669534,0
8,-1,635044,218388,1191981,65592,7442,596012,2
8,2,705258,248632,1463934,74056,8820,731915,0
8,-1,635496,218737,1259241,65735,7348,629621,0
8,2,711517,249329,1303636,74213,8721,651870,0
8,-1,643911,220225,1262754,66273,7480,631341,0
8,2,710967,249995,1313895,74607,9236,656872,0
8,2,709172,248041,1417879,73721,8726,708975,0
8,-1,641279,219607,1339948,65853,7911,669856,0
8,2,711005,249831,1375402,74315,9175,687747,0
8,-1,637751,219207,1275620,65932,7934,637788,0
8,2,713462,249223,1295406,74047,8463,647746,0
8,2,715504,249991,1422066,74278,9299,711084,0
8,-1,641088,218989,1270901,65919,8104,635442,0
8,2,717977,249520,1388024,74034,8889,693652,0
8,2,717131,250977,1493317,74864,10076,746699,0
8,-1,634852,218987,1273864,65943,7922,636957,0
8,2,713421,248255,1306347,73789,9705,653209,0
8,2,709823,248197,1337122,73749,8998,668516,0
8,-1,661046,223939,1243023,69334,8267,621571,0
8,2,718298,250714,1508002,74586,9657,754083,0
8,-1,633913,218613,1206216,65628,6891,603089,0
8,2,714821,249868,1289191,74399,9070,644614,0
8,2,715144,250265,1344186,74523,8604,672132,0
8,-1,641185,219661,1292701,66077,7714,646404,0
8,2,710949,247897,1339525,73521,9648,669750,0
8,2,711582,247887,1457264,73402,7993,728637,0
8,-1,657793,223827,1258028,69227,8215,628821,0
8,2,708496,248365,1425764,73402,9342,712897,0
8,2,729609,252245,1388751,77281,10436,694246,0
8,-1,639625,219501,1195193,65924,7649,597643,0
8,2,710619,250107,1348268,75073,8631,674108,0
8,2,710817,248195,1403860,74102,9402,701963,0
8,-1,639842,220271,1310553,66409,6973,655193,0
8,2,729948,252833,1696134,77433,10688,848034,0
8,2,711794,248027,1321502,74201,9061,660720,0
8,-1,639601,218972,1132773,65819,6581,566435,0
8,2,710549,248074,1415642,74036,8944,707811,0
8,-1,640094,219424,1235302,66013,6737,617696,0
8,2,711481,247842,1482066,73849,9691,741084,0
8,2,711701,249459,1404264,74547,8841,702158,0
8,-1,638061,219242,1389470,65762,7361,694859,0
8,2,718733,249833,1345133,74715,9390,672576,0
8,-1,640278,219787,1243733,65962,7427,621915,0
8,2,714044,249248,1272092,74280,8954,635966,0
8,2,730752,253629,1462499,77659,10862,731248,0
8,-1,644699,220001,1322899,66147,8284,661541,0
8,2,717303,251468,1366066,75536,9858,682882,0
8,2,719156,249534,1502542,74451,11136,751389,0
8,2,714688,248493,1414372,74065,10258,707188,0
8,-1,640048,219905,1295547,65900,8350,647673,0
8,2,710358,249681,1429905,75062,9485,714834,0
8,-1,643445,219989,1335652,66130,8591,667822,0
8,2,705291,247607,1323118,74140,8917,661549,0
9,2,707468,248292,1344743,73755,8822,672395,0
9,-1,688557,237333,1340439,70739,8236,670182,0
9,2,706700,247930,1383571,73746,8713,691789,0
9,-1,641010,218525,1173110,65582,7498,586599,0
9,2,718852,251150,1415508,75101,8845,707791,0
9,2,708947,248854,1363760,74006,8828,682061,0
9,-1,657365,222791,1291318,68816,8512,645514,0
9,2,708118,247078,1439891,73643,9801,719902,0
9,2,730283,253215,1473892,77354,10613,736812,0
9,-1,634744,218369,1293035,65623,7500,646457,0
9,-1,640168,220982,1336899,66819,8085,668406,2
9,2,708798,249078,1393158,74016,8762,696623,0
9,-1,644636,220574,1332151,66604,8263,665931,0
9,2,709518,248923,1308452,74028,8265,654272,0
9,2,711355,248783,1289671,74031,7993,644889,0
9,-1,645526,221517,1363783,66836,8662,681212,0
9,2,709456,249874,1445580,74567,9235,722398,0
9,-1,644076,218585,1267559,65760,7224,633731,0
9,2,713304,249039,1430262,73939,9239,715170,0
9,2,711310,248466,1665823,73773,10530,832934,0
9,-1,644195,220792,1413764,66827,8559,706762,0
9,2,717625,250001,1463097,74216,8708,731528,0
9,2,717232,251254,1442543,75056,9714,721298,0
9,-1,636176,219464,1282550,66096,8423,640962,0
9,2,710364,248377,1389513,73745,8371,694801,0
9,2,704221,246648,1282623,73240,8042,640912,0
9,-1,638708,219203,1311657,66014,7715,655840,0
9,2,707917,247054,1445357,73181,9864,722717,0
9,-1,656986,224010,1230277,69264,8115,615186,0
9,2,711807,249239,1260171,73943,8929,629913,0
9,2,709899,248610,1336009,73814,8436,668051,0
9,-1,642610,220791,1333347,66617,7798,666738,0
9,2,718326,251130,1326005,74880,8617,663025,0
9,2,711933,247343,1470241,73390,8752,735117,0
9,-1,637281,219612,1269341,66005,7847,634725,0
9,2,705379,247415,1544017,73053,8980,771609,0
9,2,712412,249212,1310039,74739,8978,655028,0
9,-1,642171,219972,1133856,66149,6300,567022,0
9,2,725196,252471,1471708,77311,10322,735817,0
9,2,714007,249861,1305403,74911,8480,652859,0
9,-1,635348,218863,1178011,65805,6301,589069,0
9,2,706419,248216,1405449,74083,8945,702805,0
9,2,711712,248620,1337148,74278,9113,668565,0
9,-1,641420,219745,1176206,66122,6873,588157,0
9,2,715061,250206,1245500,75142,8916,622676,0
9,-1,636947,218986,1238065,65835,6751,619125,0
9,2,710197,247671,1389355,73797,8728,694732,0
9,2,712274,250080,1558692,74748,9501,779349,0
9,-1,639083,219538,1315783,65848,6957,657934,0
9,2,714753,249466,1429365,74532,9544,714688,0
9,-1,640070,219987,1257584,65911,7798,628837,0
9,2,717566,249800,1310093,74513,9858,655047,0
9,2,707243,247460,1448329,73854,9845,724154,0
9,-1,646105,220280,1203710,66073,7387,601870,0
9,2,713755,250582,1433634,75044,9514,716797,0
9,2,717193,249193,1378955,74315,9419,689476,0
9,2,716675,249301,1595107,74368,10122,797309,0
9,-1,648006,222352,1424159,66951,8559,712125,0
9,2,706004,247865,1444395,74210,9459,722094,0
9,-1,642740,220256,1340665,66155,8447,670343,0
9,2,706417,247961,1338162,74169,9296,669013,0
10,2,709045,248060,1358514,73601,8849,679243,0
10,-1,698990,238838,1327777,71532,9274,663371,0
10,2,709711,249401,1544150,74404,9136,772045,0
10,-1,647441,221401,1236098,66672,8327,618128,0
10,2,710359,248447,1576702,73750,9717,787258,0
10,2,714401,250590,1463268,74802,9151,731614,0
10,-1,634679,218473,1195646,65659,6798,597788,0
10,2,731644,252994,1370550,77240,10299,685209,0
10,2,709487,248832,1433218,74065,8964,716457,0
10,-1,634981,218285,1212213,65595,7228,606128,0
10,2,708334,248201,1421575,73790,8879,710845,0
10,-1,640083,219159,1307528,65948,7908,653725,0
10,2,729370,253257,1465533,77267,9491,732795,0
10,-1,648666,222257,1312550,67070,7968,656384,2
10,2,710313,248620,1448763,73949,7959,724416,0
10,-1,661745,224107,1410745,69158,8837,705117,0
10,2,710673,248444,1350880,73842,9156,675486,0
10,-1,650151,221665,1369270,66996,8295,684595,0
10,2,711493,249047,1357473,74029,8038,678767,0
10,2,713059,249503,1443566,74143,8965,721837,0
10,-1,639544,218786,1275966,65870,7983,638155,0
10,2,715723,250177,1556603,74410,10664,778238,0
10,2,714075,249972,1498548,74367,9528,749304,0
10,-1,635277,219327,1461214,66008,8809,730595,0
10,2,714904,249586,1426078,74463,9985,713096,0
10,2,713749,248917,1315248,74001,9221,657666,0
10,-1,638234,219261,1271194,65968,7622,635646,0
10,2,711730,248338,1350767,73566,9002,675424,0
10,-1,643118,219812,1278855,66062,7663,639480,0
10,2,731947,253034,1333305,77030,10173,666621,0
10,2,710133,248165,1309243,73659,8651,654679,0
10,-1,638929,218790,1298150,65693,7128,649151,0
10,2,730426,252684,1410841,76934,9063,705519,0
10,2,713193,248208,1298529,73568,7939,649254,0
10,-1,637584,220273,1260551,66297,7466,630338,0
10,2,705105,248017,1417986,73269,9474,708825,0
10,2,706914,247321,1385957,73855,8977,693078,0
10,-1,640059,219258,1210090,65905,6577,605100,0
10,2,710973,248448,1402673,74270,9168,701053,0
10,2,712058,248378,1417068,74237,9066,708521,0
10,-1,640718,220346,1239849,66279,6972,619979,0
10,2,730080,252560,1474437,77345,10496,737192,0
10,2,707015,247786,1246227,74020,8772,623107,0
10,-1,639196,219290,1171143,65854,6624,585616,0
10,2,731222,252860,1411965,77475,10614,705885,0
10,-1,658098,223815,1265057,69225,7163,632479,0
10,2,712518,248308,1468237,73985,8694,734153,0
10,2,709459,248901,1359527,74381,9837,679728,0
10,-1,644931,220922,1308897,66585,7836,654511,0
10,2,718126,250660,1437773,75213,9469,719190,0
10,-1,638910,219940,1270558,65995,7709,635340,0
10,2,735284,253797,1365065,77568,10757,682465,0
10,2,712376,250565,1333264,75036,9517,666716,0
10,-1,645906,220525,1371000,66194,8754,685380,0
10,2,718239,249769,1625200,74597,11511,812539,0
10,2,721355,251453,1486938,75387,9833,743809,0
10,2,712483,248152,1360647,73992,9824,680200,0
10,-1,643128,220767,1283229,66240,8214,641655,0
10,2,706114,248185,1280465,74250,8905,640039,0
10,-1,644036,219628,1192291,65967,7583,596135,0
10,2,703243,247209,1414522,73944,9612,706831,0
11,2,707924,248647,1441452,73894,9129,720696,0
11,-1,717126,242484,1330229,74234,9714,665078,0
11,2,706274,248386,1275714,73895,7644,637906,0
11,-1,636980,218295,1173447,65570,7252,586752,0
11,2,703389,246319,1322155,73225,8542,661016,0
11,2,707114,248512,1370970,73865,9483,685481,0
11,-1,637596,218786,1266995,65753,7207,633488,0
11,2,714365,248645,1309341,74057,8035,654593,0
11,2,706434,248631,1475515,74078,8926,738096,0
11,-1,656134,223426,1278738,69044,8509,639278,0
11,2,712289,249419,1421208,74219,8581,710616,0
11,-1,638744,219284,1209332,65878,7423,604640,0
11,2,709754,249619,1432055,74302,8699,716070,0
11,2,708971,248408,1290925,73875,7836,645508,0
11,-1,637934,219799,1221075,66003,7561,610572,2
11,-1,640579,219861,1492722,65918,7971,746612,0
11,2,733001,253286,1280613,77282,9275,640382,0
11,-1,665151,224242,1256759,69446,8632,628286,0
11,2,716609,249873,1400663,74528,9264,700396,0
11,2,711473,248317,1310598,73727,8115,655333,0
11,-1,640761,219575,1217320,66148,7700,608637,0
11,2,713390,249610,1456857,74291,9210,728476,0
11,2,713054,249262,1401390,74097,10042,700657,0
11,-1,638849,219625,1275282,66155,7439,637591,0
11,2,713981,249061,1364230,74098,9054,682143,0
11,2,714068,249300,1468823,74089,9642,734461,0
11,-1,638419,219323,1212944,65990,7691,606368,0
11,2,712281,249065,1444546,73818,10333,721994,0
11,-1,639542,219014,1182478,65864,7092,591340,0
11,2,708104,248270,1419956,73640,9326,710014,0
11,2,709288,248256,1408208,73636,8830,704236,0
11,-1,642383,220615,1265523,66379,7199,632811,0
11,2,709848,248173,1384270,73670,8521,692160,0
11,2,713211,248064,1432257,73573,8741,716119,0
11,-1,638318,218757,1186438,65675,6810,593231,0
11,2,704048,247370,1267216,73132,8543,633595,0
11,2,708809,248008,1425748,74081,9224,712841,0
11,-1,640588,219799,1238312,66127,7184,619213,0
11,2,712550,248746,1319095,74311,8736,659538,0
11,2,711634,248826,1334934,74391,8485,667523,0
11,-1,656850,223472,1243783,69074,7687,621864,0
11,2,712567,249157,1497664,74490,9007,748789,0
11,2,708056,248100,1371942,74166,9018,685917,0
11,-1,640065,219397,1194356,65989,6785,597199,0
11,2,708112,247871,1287821,73949,8395,643847,0
11,-1,642663,219929,1117659,66183,7126,558884,0
11,2,716397,250077,1432120,74893,9017,716174,0
11,2,712757,249450,1516953,74678,9178,758490,0
11,-1,637659,219160,1256330,65735,6211,628210,0
11,2,714855,249945,1381847,74767,9215,690810,0
11,-1,649831,221383,1294785,66755,7613,647459,0
11,2,714648,249555,1504290,74343,9803,752186,0
11,2,738722,253795,1485925,77689,10804,742911,0
11,-1,645051,220505,1255162,66263,7209,627398,0
11,2,716146,249343,1474026,74402,9789,737059,0
11,2,714273,248546,1453950,74085,10295,727067,0
11,2,732877,252532,1477175,77167,10776,738508,0
11,-1,642234,220675,1212460,66117,7132,606208,0
11,2,710181,249729,1349590,75006,9446,674599,0
11,-1,643524,219756,1309576,65993,7872,654785,0
11,2,706259,248058,1441504,74269,9796,721029,0
12,2,730472,252807,1386327,77097,10010,693160,0
12,-1,694449,237242,1247293,70696,8287,623529,0
12,2,704476,248077,1382670,73706,7977,691279,0
12,-1,645491,221607,1320760,66778,7767,660399,0
12,2,708149,248492,1417338,73984,9050,708675,0
12,2,707000,248532,1572464,73872,9447,786161,0
12,-1,639460,220126,1324853,66387,7123,662430,0
12,2,716725,250350,1438495,74811,9228,719230,0
12,2,726128,253017,1453165,77291,10192,725613,0
12,-1,634432,218856,1278450,65707,7401,639209,0
12,2,709335,248324,1588644,73801,10525,794052,0
12,-1,646674,221080,1270339,66765,8582,635126,0
12,2,707975,249627,1422962,74282,8526,711531,0
12,2,709877,248696,1381547,74009,8685,690828,0
12,-1,641934,220764,1326942,66441,8249,663238,0
12,2,708693,248761,1376736,73989,8314,688413,0
12,-1,643726,219404,1233239,66052,7196,616615,0
12,2,711918,248687,1238233,73946,8766,619173,0
12,-1,639137,219255,1279551,66066,6840,639806,2
12,2,711698,248493,1350241,73789,8627,675133,0
12,-1,641937,220136,1321644,66529,8205,660335,0
12,2,714235,249080,1598521,74107,10562,798110,0
12,2,715423,250386,1433321,74724,10364,716676,0
12,-1,635168,218871,1264102,65867,7442,632060,0
12,2,713450,249701,1396143,74467,9943,698109,0
12,2,708746,247794,1413205,73642,9279,706629,0
12,-1,639766,219526,1401880,66120,7797,700861,0
12,2,712536,248443,1306151,73634,10219,653125,0
12,-1,641812,220331,1309168,66401,7049,654642,0
12,2,710806,248307,1466760,73745,9344,733428,0
12,2,706567,247765,1594097,73570,9426,796726,0
12,-1,637512,219062,1187881,65867,6940,593982,0
12,2,709779,248144,1434570,73603,9128,717257,0
12,2,713485,248492,1316967,73707,7748,658533,0
12,-1,647139,221269,1378279,66873,8074,689244,0
12,2,712526,250486,1314319,74447,8660,657350,0
12,2,708541,248236,1331206,74201,9102,665597,0
12,-1,657878,223516,1373195,69131,7671,686440,0
12,2,737447,257588,1489512,76966,9303,744725,0
12,2,710386,248384,1367095,74223,9602,683256,0
12,-1,636801,219788,1351530,66119,9012,675573,0
12,2,708209,248459,1329853,74268,8814,664936,0
12,2,706936,247620,1373408,73935,9094,686708,0
12,-1,645207,221435,1306230,66844,7897,653170,0
12,2,713593,249708,1299266,74835,8781,649665,0
12,-1,640785,219551,1180112,66043,7360,590035,0
12,2,710186,248251,1430285,73987,9186,715158,0
12,2,711739,248860,1414066,74518,9311,706988,0
12,-1,644537,221391,1280282,66794,7352,640042,0
12,2,713089,249142,1415081,74501,8869,707565,0
12,-1,667042,224772,1246405,69349,8324,623185,0
12,2,713645,249135,1517892,74305,10281,758969,0
12,2,718615,249673,1675732,74569,11015,838023,0
12,-1,644678,219995,1321798,66047,8089,660867,0
12,2,717639,249849,1510742,74566,10269,755152,0
12,2,716414,249196,1349892,74352,9097,674890,0
12,-1,641237,220532,1342190,66158,8377,670945,0
12,2,712576,248221,1354923,74094,9448,677288,0
12,2,704223,247964,1310844,74242,9463,655352,0
12,-1,664342,224298,1295056,69312,8047,647464,0
12,2,707346,247433,1412150,74009,8868,705943,0
13,2,708420,248610,1591857,73966,10303,795905,0
13,-1,693850,237309,1353527,70735,8480,676633,0
13,2,708140,248880,1295357,74000,7986,647638,0
13,-1,660543,223788,1311924,69048,8232,655917,0
13,2,707609,248089,1316982,73852,9056,658349,0
13,2,716075,250218,1574795,74699,10920,787387,0
13,-1,633165,218016,1239680,65470,6830,619890,0
13,2,711424,249007,1395803,74181,8442,697859,0
13,2,704150,248367,1391768,73996,8481,695681,0
13,-1,646421,221017,1290369,66562,8013,645229,0
13,2,715781,251227,1446507,75143,8599,723362,0
13,-1,661903,223847,1238240,69216,8894,618940,0
13,2,707704,249469,1434440,74181,8750,717273,0
13,2,710339,248657,1432911,73891,9031,716503,0
13,-1,643075,219444,1225296,65836,8344,612707,0
13,2,709705,249330,1376396,74105,8118,688250,0
13,-1,640236,218473,1225546,65659,6905,612820,0
13,2,714247,249837,1331356,74192,9099,665725,0
13,2,716574,251035,1398623,74876,8581,699385,0
13,-1,646926,221158,1435875,66944,7247,717917,2
13,-1,638955,219115,1203190,66018,7848,601493,0
13,2,719755,251919,1440064,75396,9753,720271,0
13,2,712770,249826,1312776,74272,9265,656354,0
13,-1,637120,219676,1285485,66189,7458,642639,0
13,2,711859,248544,1395241,73832,8975,697662,0
13,2,705951,247626,1413918,73572,9185,706713,0
13,-1,638246,219342,1154193,66021,7000,577349,0
13,2,712202,248319,1341125,73476,9698,670594,0
13,-1,640319,219432,1256848,65997,7496,628396,0
13,2,709364,248370,1424690,73674,8801,712384,0
13,2,706785,248189,1450056,73628,9039,725042,0
13,-1,658062,223872,1413330,69247,8236,706690,0
13,2,713340,248897,1316086,73902,9037,657979,0
13,2,710493,248167,1325952,73550,8457,662883,0
13,-1,662353,223583,1366968,69152,8214,683538,0
13,2,706872,249371,1419452,73613,8928,709776,0
13,2,711354,248455,1518076,74270,9976,758933,0
13,-1,642411,220295,1606101,66306,9148,802985,0
13,2,708667,247999,1502539,74141,9142,751319,0
13,2,709775,249015,1511209,74458,9893,755308,0
13,-1,636235,220034,1174921,66144,6767,587512,0
13,2,706818,247647,1312673,73959,8382,656404,0
13,2,707982,248355,1447736,74181,9727,723828,0
13,-1,637299,218978,1192660,65876,6733,596336,0
13,2,708254,248059,1411301,74121,8769,705587,0
13,-1,645028,220723,1310208,66621,9277,654878,0
13,2,708283,248010,1401169,73914,8720,700634,0
13,2,710734,248906,1474458,74452,10087,737238,0
13,-1,661756,224559,1234526,69346,8001,617239,0
13,2,720341,250924,1359598,75336,9353,679765,0
13,-1,644528,220107,1268772,66046,7081,634436,0
13,2,719695,250808,1370199,75025,9607,684959,0
13,2,719263,250499,1448504,75021,9651,724178,0
13,-1,666730,224983,1338016,69572,9320,669066,0
13,2,716968,249795,1459346,74576,10180,729608,0
13,2,721025,251030,1327739,75227,10626,663909,0
13,-1,643264,221242,1232990,66426,8373,616322,0
13,2,712582,248324,1495115,74022,9781,747357,0
13,2,704956,247944,1427309,74191,9111,713618,0
13,-1,641198,219875,1187905,66092,7007,593959,0
13,2,712442,248386,1494795,74347,9638,747331,0
14,2,709454,248353,1353062,73879,8489,676504,0
14,-1,691815,237019,1307790,70655,7786,653835,0
14,2,704847,248051,1414235,73755,8089,707129,0
14,-1,644298,220598,1329765,66406,7959,664778,0
14,2,715825,250763,1482712,74963,9630,741272,0
14,2,710352,248150,1422197,73706,9738,711099,0
14,-1,639386,220380,1292025,66580,7686,645961,0
14,2,711602,248866,1566880,74075,9070,783450,0
14,2,704829,249168,1388239,74239,8801,693578,0
14,-1,639141,218740,1259548,65662,7369,629684,0
14,2,707612,248365,1441308,73896,8795,720688,0
14,-1,639352,219328,1351592,65797,6935,675943,0
14,2,710354,249129,1436222,74072,8905,718194,0
14,2,710622,248148,1298877,73795,8626,649469,0
14,-1,642075,219430,1334063,65773,8052,667051,0
14,2,710035,248750,1304615,73991,8158,652361,0
14,-1,642187,219596,1132921,66053,6533,566415,0
14,2,710997,248684,1241084,73850,8422,620591,0
14,2,713629,249755,1411109,74376,9290,705631,0
14,-1,639092,219063,1292318,65931,7925,646117,0
14,2,736071,255006,1346272,77872,9218,672893,0
14,-1,640883,219899,1169906,66269,7487,584987,2
14,2,717619,251705,1407356,75159,9788,703849,0
14,-1,655180,223623,1163010,69236,8154,581367,0
14,2,709139,248585,1437400,73819,8818,718784,0
14,2,710109,248157,1444845,73711,9746,722578,0
14,-1,657781,223529,1224371,69163,7644,611846,0
14,2,732056,253172,1392175,76962,10342,696032,0
14,-1,637088,218579,1322967,65688,7530,661564,0
14,2,708577,248630,1431824,73818,8592,715964,0
14,2,717670,250160,1398971,74475,9643,699277,0
14,-1,639239,220217,1470479,66247,9553,735385,0
14,2,708109,247790,1330612,73501,8609,665281,0
14,2,710364,248020,1297817,73516,8386,648862,0
14,-1,642498,219809,1266188,66070,7427,633132,0
14,2,704838,248014,1479525,73131,8663,739034,0
14,2,710793,249318,1412550,74575,9484,706299,0
14,-1,638319,219064,1254494,65846,7032,627468,0
14,2,707608,247609,1466489,73945,9289,733162,0
14,2,707470,248453,1393449,74207,9599,696819,0
14,-1,637752,219358,1129329,65974,7042,564711,0
14,2,707951,248481,1486374,74286,9305,743205,0
14,2,714003,250410,1398521,75227,9265,699215,0
14,-1,638584,218716,1285718,65665,7340,642902,0
14,2,731475,252574,1461969,77374,10313,730976,0
14,-1,662437,224242,1222925,69356,8412,611437,0
14,2,714935,249124,1420563,74314,9458,710064,0
14,2,713748,250465,1408401,75071,10350,704201,0
14,-1,641997,220689,1294305,66307,6871,647199,0
14,2,738154,254509,1443623,78016,10327,721724,0
14,-1,641174,219183,1264854,65778,7556,632484,0
14,2,714649,249337,1403672,74339,9132,701921,0
14,2,713371,248902,1714558,74251,11393,857003,0
14,-1,642989,219751,1199652,66061,7558,600000,0
14,2,718479,250615,1489511,74864,9584,744579,0
14,2,713331,248986,1520733,74313,9561,760342,0
14,-1,640753,220455,1320910,66099,8521,660407,0
14,2,736051,253211,1412606,77464,11269,706191,0
14,2,724676,250965,1450039,75542,9128,725061,0
14,-1,640755,219739,1302608,65972,8076,651066,0
14,2,710179,247707,1275576,74031,8696,637566,0
15,2,711224,249390,1404870,74407,8485,702444,0
15,-1,692603,237124,1364475,70647,8669,682269,0
15,2,705087,248575,1366248,73931,8176,683135,0
15,-1,639303,218890,1285809,65674,7903,642925,0
15,2,706077,247539,1501584,73584,9406,750614,0
15,2,712172,248788,1447913,73890,9364,723297,0
15,-1,634689,217829,1167675,65519,6594,583788,0
15,2,711233,248974,1454149,74384,9091,727040,0
15,2,710524,249979,1388526,74727,9968,694061,0
15,-1,638519,218826,1222408,65667,6982,611230,0
15,2,711526,249850,1391742,74550,8751,695940,0
15,-1,641127,220428,1351171,66422,7795,675528,0
15,2,707842,248879,1302548,74099,8526,651331,0
15,2,708891,248970,1247165,74078,8415,623635,0
15,-1,642241,219505,1292985,65815,7882,646429,0
15,2,715161,250537,1484168,74840,9355,742103,0
15,-1,645835,220692,1346554,66565,8427,673343,0
15,2,714019,250372,1365979,74668,8558,683042,0
15,2,712607,248970,1492466,73879,9179,746158,0
15,-1,645809,219584,1272227,66110,7572,636145,0
15,2,715527,249904,1430253,74427,9770,715155,0
15,-1,640809,219154,1258974,66019,8512,629492,2
15,2,716398,251115,1313386,74856,9519,656757,0
15,-1,634817,219534,1195152,66147,8313,597501,0
15,2,733580,253382,1391766,77191,9471,695836,0
15,2,707386,248504,1406833,73840,9504,703324,0
15,-1,635623,218894,1316417,65948,7683,658211,0
15,2,712295,249212,1431441,73844,10110,715950,0
15,-1,640624,220191,1259173,66251,7504,629630,0
15,2,705182,247724,1445733,73413,9030,722700,0
15,2,710242,247690,1394740,73414,9739,697410,0
15,-1,638314,219111,1267953,65835,7811,634018,0
15,2,709939,248483,1325072,73722,9131,662456,0
15,2,712727,248667,1320305,73664,8284,660110,0
15,-1,641270,219771,1189058,66110,6639,594539,0
15,2,707645,249966,1339417,74047,9025,669703,0
15,2,711452,248995,1343855,74645,9453,671896,0
15,-1,644164,221327,1308877,66789,7667,654406,0
15,2,710364,248437,1421898,74190,8695,710941,0
15,2,709146,248017,1370330,74124,9782,685126,0
15,-1,641111,220672,1192349,66582,7537,596240,0
15,2,707354,247951,1406785,74077,8800,703359,0
15,2,710494,248098,1373371,74115,8477,686681,0
15,-1,639939,219027,1291121,65785,6922,645602,0
15,2,709964,248402,1339166,74214,8918,669457,0
15,-1,638233,219113,1144949,65904,6635,572540,0
15,2,715893,249517,1357798,74425,9482,678934,0
15,2,708969,249187,1438447,74488,9925,719200,0
15,-1,666451,229546,1316179,68881,7017,658146,0
15,2,714732,248979,1465552,74338,9140,732799,0
15,-1,645380,221212,1280762,66671,7653,640358,0
15,2,716872,251259,1376713,75267,9694,688303,0
15,2,718132,250882,1422586,75211,9517,711127,0
15,-1,646793,221710,1302787,66945,8004,651562,0
15,2,714578,249514,1567245,74516,10710,783574,0
15,2,711947,248820,1391716,74173,9366,696102,0
15,-1,644210,222394,1286178,67028,8352,643003,0
15,2,712869,248800,1349527,74161,9788,674824,0
15,2,715174,247715,1450541,74033,9809,725154,0
15,-1,641816,220367,1189616,66257,7158,594801,0
15,2,716044,250279,1374798,75305,10082,687173,0
16,2,705803,247460,1291656,73629,8003,645823,0
16,-1,692247,237194,1510170,70658,8751,755139,0
16,2,703694,248019,1310737,73694,8712,655436,0
16,-1,635864,218481,1273804,65484,7475,636896,0
16,2,711062,249055,1472694,74355,10188,736125,0
16,2,710728,248731,1420323,73918,9592,710186,0
16,-1,635150,218197,1272554,65540,7356,636262,0
16,2,709213,248659,1318374,74134,8478,659287,0
16,2,727249,253065,1527463,77309,10909,763672,0
16,-1,638547,218745,1288021,65578,7795,644019,0
16,2,710370,250004,1386414,74414,8453,693257,0
16,-1,637501,218503,1209594,65682,7059,604676,0
16,2,713581,250847,1492085,74950,9394,746119,0
16,2,709653,248742,1300390,73949,7928,650194,0
16,-1,642125,220607,1414154,66427,8413,706852,0
16,2,731845,253396,1491796,77272,9063,745880,0
16,-1,644880,221271,1227474,66832,8035,613591,0
16,2,714635,250153,1475295,74310,9014,737697,0
16,2,714336,249867,1500118,74219,10437,750111,0
16,-1,664450,223740,1359540,69303,7842,679672,0
16,2,712735,249082,1363978,74132,8795,681987,0
16,-1,641894,219011,1299117,65933,7321,649580,2
16,2,712394,249506,1400822,74161,10335,700483,0
16,-1,632310,218584,1201806,65734,7908,600873,0
16,2,711475,248819,1430595,73918,9640,715360,0
16,2,710622,249171,1339797,74025,8858,669954,0
16,-1,639702,220067,1208664,66308,7468,604153,0
16,2,714406,248963,1451440,73911,9879,725591,0
16,-1,639122,219160,1160769,65916,7381,580420,0
16,2,731010,253628,1468367,77202,9959,734171,0
16,2,711001,248322,1267766,73712,8533,633930,0
16,-1,641444,220607,1209411,66360,7041,604738,0
16,2,708446,248816,1294752,73901,8963,647332,0
16,2,713076,248627,1267473,73695,8505,633723,0
16,-1,640303,219169,1320894,65869,7605,660591,0
16,2,708349,249040,1440146,73400,9063,719877,0
16,2,708057,248154,1433042,74062,9568,716459,0
16,-1,636296,218968,1194009,65795,7230,597062,0
16,2,715254,250696,1335950,75252,8349,667828,0
16,2,713146,250057,1430595,75056,9436,715234,0
16,-1,637063,219463,1200500,65967,7166,600296,0
16,2,705504,248566,1379497,74333,9267,689734,0
16,2,709642,248136,1320560,74114,8216,660282,0
16,-1,643701,220970,1461577,66757,8687,730944,0
16,2,711193,249531,1383567,74788,9170,691682,0
16,-1,641212,219515,1187202,65927,7035,593658,0
16,2,710915,248078,1408652,73977,9502,704357,0
16,2,710572,248515,1444944,74203,9363,722532,0
16,-1,640906,220871,1234430,66513,7049,617278,0
16,2,715297,250162,1419034,75021,9902,709511,0
16,-1,667154,225323,1264028,70097,8450,631998,0
16,2,742761,255629,1489686,78687,11124,744845,0
16,2,711968,248779,1402907,74221,9845,701481,0
16,-1,647919,220818,1225649,66483,7935,612632,0
16,2,741071,255461,1520113,78188,10758,760121,0
16,2,722402,251394,1449472,75347,9887,724471,0
16,-1,647494,221600,1272571,66494,9822,636146,0
16,2,715382,249109,1289449,74254,9798,644740,0
16,2,717656,250066,1485058,75102,9936,742618,0
16,-1,640708,220051,1313755,66062,8324,656846,0
16,2,731631,252717,1358222,77565,9685,678933,0
17,2,707220,247996,1376697,73789,8193,688343,0
17,-1,698529,240159,1579744,72042,9085,788231,0
17,2,727224,252099,1401743,76829,9062,700714,0
17,-1,638554,219632,1276215,66127,7699,638080,0
17,2,704951,247971,1327051,73670,9673,663822,0
17,2,710806,248990,1497182,73848,9557,748606,0
17,-1,637686,219129,1196168,65885,7118,598103,0
17,2,711762,249132,1398871,74225,8377,699458,0
17,2,708066,248472,1496889,74018,9820,748379,0
17,-1,637472,218545,1250072,65532,8109,625009,0
17,2,705024,248256,1309664,73811,8262,654874,0
17,-1,638796,219041,1255303,65904,7909,627496,0
17,2,707499,248282,1321472,73806,8494,660635,0
17,2,711853,250170,1469757,74694,8937,734829,0
17,-1,665386,228814,1364975,68631,8167,682469,0
17,2,710851,249557,1411315,74450,8617,705733,0
17,-1,639329,219360,1257894,65981,7299,628929,0
17,2,710960,249199,1565527,74024,9822,782575,0
17,2,716048,251084,1311917,74842,9052,656045,0
17,-1,642636,219371,1353297,66089,7602,676582,0
17,2,715950,250743,1451955,74820,9889,725209,0
17,2,712307,250295,1351320,74402,9406,675615,0
17,-1,634853,219455,1142217,66132,7370,571008,2
17,-1,638797,219979,1147140,66268,7299,573568,0
17,2,716529,250469,1450244,74625,9335,725139,0
17,2,707838,248420,1295312,73749,8811,647697,0
17,-1,636630,219622,1213078,66109,7216,606528,0
17,2,713436,249016,1455932,73932,10809,727985,0
17,-1,644588,221632,1218569,66964,7412,609305,0
17,2,706423,248038,1295854,73559,8246,647931,0
17,2,733813,253185,1419164,77096,9818,709604,0
17,-1,637952,219288,1277067,65943,7449,638577,0
17,2,732839,253506,1383343,77189,9067,691604,0
17,2,712612,247903,1397763,73567,8838,698830,0
17,-1,646831,222383,1280930,67210,7323,640514,0
17,2,706247,248612,1506170,73329,8817,753086,0
17,2,704801,248500,1405188,73446,9018,702594,0
17,-1,640992,219066,1271062,65893,7542,635414,0
17,2,707812,248307,1330088,74188,9079,665039,0
17,2,730490,253156,1501090,77561,10854,750371,0
17,-1,637272,219939,1170788,66098,7416,585423,0
17,2,713127,249589,1383618,74624,10146,691807,0
17,2,713286,249805,1301384,74896,8722,650659,0
17,-1,660383,223898,1246897,69214,7729,623410,0
17,2,707569,247976,1345063,74035,9513,672561,0
17,-1,639781,219311,1149416,65990,6875,574736,0
17,2,711232,248688,1365059,74132,8890,682563,0
17,-1,643029,220444,1175647,66163,6934,587860,0
17,2,713694,250805,1529518,75286,10705,764674,0
17,2,712548,248910,1555246,74359,10014,777697,0
17,-1,642082,219460,1262485,65921,6355,631313,0
17,2,715145,250442,1433136,74896,9498,716747,0
17,2,712679,248455,1502409,74121,10444,751197,0
17,-1,644833,219984,1361322,66199,8318,680708,0
17,2,717036,249755,1525792,74444,9507,762790,0
17,2,715554,248910,1372992,74268,9554,687056,0
17,-1,642756,220250,1155146,65958,8411,577407,0
17,2,712796,248925,1469912,74209,9385,735002,0
17,2,711777,248112,1453951,74281,10054,726866,0
17,-1,662739,223586,1274567,69017,8584,637288,0
17,2,710046,248231,1292543,74338,8699,646283,0
18,2,753455,264297,1549180,77968,9631,774622,0
18,-1,694493,237536,1398764,70794,8822,699318,0
18,2,709089,249457,1410741,74388,8940,705298,0
18,-1,635602,218707,1277172,65622,7994,638633,0
18,2,706758,247940,1298513,73791,8454,649241,0
18,2,733096,253937,1450263,77316,10551,725085,0
18,-1,637273,219278,1233579,65938,7135,616832,0
18,2,706479,247423,1419678,73664,8549,709819,0
18,2,707746,248547,1307705,73990,8782,653828,0
18,-1,639518,218579,1138418,65543,7670,569178,0
18,2,709567,249151,1423152,74040,8666,711633,0
18,-1,641700,219198,1269023,65941,7887,634400,0
18,2,711066,249761,1496681,74509,9257,748439,0
18,2,707690,249148,1417748,74091,9037,708923,0
18,-1,638401,219143,1263168,65824,8512,631616,0
18,2,705341,247433,1336984,73605,8728,668456,0
18,-1,638892,219196,1247857,65843,7487,623903,0
18,2,712625,249883,1387195,74419,9002,693606,0
18,2,731348,253568,1308698,77215,9661,654281,0
18,-1,641392,219305,1305311,66017,7413,652703,0
18,2,713362,250119,1321102,74502,8563,660417,0
18,2,711079,249052,1290465,73952,8930,645266,0
18,-1,635562,219106,1213734,65940,7367,606804,0
18,-1,639637,222011,1347950,67262,8136,673936,2
18,2,709860,248247,1405295,73729,9596,702553,0
18,2,717361,251793,1312158,75150,8976,656156,0
18,-1,645186,221298,1367790,67013,8070,683973,0
18,2,718946,250874,1403503,74714,10037,701844,0
18,-1,637288,219158,1173866,65845,7048,586931,0
18,2,710276,248341,1442269,73660,9634,721171,0
18,2,710717,248504,1297128,73728,8337,648599,0
18,-1,639267,219392,1294001,65878,7418,647011,0
18,2,707903,247938,1374622,73539,8919,687274,0
18,2,716837,250187,1416587,74577,8563,708285,0
18,-1,658481,223815,1242744,69191,7731,621309,0
18,2,709096,250296,1309050,74158,9295,654519,0
18,2,704041,248152,1428147,73299,8638,713975,0
18,-1,647788,221749,1291099,66981,7298,645629,0
18,2,710683,248663,1424653,74322,9458,712328,0
18,2,712268,249861,1382538,74899,8834,691045,0
18,-1,636070,219460,1150516,65943,7483,575297,0
18,2,708743,248164,1338451,74192,9659,669155,0
18,2,708424,247982,1334400,74139,8563,667121,0
18,-1,638348,219196,1343047,65826,6900,671575,0
18,2,709245,248693,1327273,74313,9061,663683,0
18,-1,639604,219083,1186791,65880,6612,593451,0
18,2,712148,248049,1415530,73920,9167,707780,0
18,-1,638880,219643,1252717,65930,6549,626563,0
18,2,709890,248254,1438107,74080,9977,719136,0
18,2,718083,251376,1416049,75469,10145,707997,0
18,-1,645124,220877,1336089,66560,7108,668106,0
18,2,715139,249203,1393105,74329,9146,696606,0
18,2,714133,249676,1507320,74556,10078,753637,0
18,-1,642226,219887,1339677,66190,7365,670054,0
18,2,719262,251108,1515988,75028,9567,757980,0
18,2,714648,248979,1390552,74386,8665,695440,0
18,-1,640874,220158,1197487,66020,8028,598828,0
18,2,714111,249016,1371319,74305,9576,685573,0
18,2,714625,248048,1462104,74194,9541,730922,0
18,-1,644210,220545,1204090,66208,7511,601079,0
18,2,708388,248238,1283639,74330,8522,641827,0
19,2,763267,266821,1648614,78747,9353,824324,0
19,-1,697890,239478,1473882,71584,8207,736951,0
19,2,705096,248534,1343749,73936,8320,671828,0
19,-1,642487,219382,1325197,65836,8645,662532,0
19,2,710758,249142,1403734,74308,9091,701784,0
19,2,710326,249307,1453425,74052,9447,726425,0
19,-1,636098,219267,1136123,65874,6406,567965,0
19,2,729235,252884,1299835,77258,9172,649763,0
19,2,710889,250296,1427512,74864,9993,713656,0
19,-1,638007,218608,1279538,65525,7382,639834,0
19,2,712101,250640,1589444,74823,10410,794789,0
19,-1,642222,219789,1325009,66311,8447,662424,0
19,2,711701,250229,1434993,74707,8836,717527,0
19,2,732895,253437,1371297,77307,9142,685508,0
19,-1,636917,218793,1383176,65717,8509,691534,0
19,2,728359,253319,1368082,77253,8722,683998,0
19,-1,646683,220734,1210683,66570,8435,605343,0
19,2,705757,247243,1338935,73341,8536,669480,0
19,2,709583,249035,1317798,73986,8294,658905,0
19,-1,641091,218607,1199938,65780,7047,599966,0
19,2,711833,249399,1443630,74197,9555,721794,0
19,2,711416,250416,1434291,74412,9473,717194,0
19,-1,640366,221394,1322233,66992,7702,661091,0
19,2,709778,249140,1307465,73967,8633,653693,0
19,-1,637276,219754,1475988,66233,8339,737736,2
19,2,731660,253181,1344714,77073,9644,672334,0
19,-1,639368,220474,1263320,66618,7837,631674,0
19,2,712510,249165,1394677,74004,9709,697356,0
19,-1,637069,219477,1119871,66010,6798,559928,0
19,2,731258,253064,1303233,77034,9886,651687,0
19,2,712084,248985,1342981,73870,9172,671238,0
19,-1,638414,219554,1281947,65979,7387,641019,0
19,2,706782,248303,1401845,73657,9116,700914,0
19,2,710343,247328,1294847,73402,8176,647430,0
19,-1,641260,219519,1410640,65975,7871,705356,0
19,2,709241,249581,1291178,73845,8311,645416,0
19,2,712781,249488,1327664,73953,8557,663856,0
19,-1,641888,219820,1317817,66105,7835,658961,0
19,2,706404,247639,1496916,73944,9553,748434,0
19,2,707627,248392,1577370,74231,9219,788751,0
19,-1,640973,221581,1201995,66959,7317,601083,0
19,2,729934,253262,1352597,77645,10949,676121,0
19,2,708105,248639,1505572,74294,9806,752806,0
19,-1,639128,220053,1248554,66164,6583,624345,0
19,2,728877,253052,1462605,77512,10567,731249,0
19,-1,660155,224078,1407140,69303,7359,703554,0
19,2,712566,248572,1400293,74109,10333,700195,0
19,-1,638468,219667,1196816,65944,6361,598453,0
19,2,709454,248455,1472275,74293,10114,736165,0
19,2,717579,250718,1416073,75183,9871,708143,0
19,-1,640185,219326,1270679,65763,6855,635392,0
19,2,713836,249552,1413486,74365,9275,706828,0
19,2,714889,249336,1568536,74386,10081,784227,0
19,-1,643472,220061,1189770,66226,7459,594884,0
19,2,735764,254954,1609019,77974,10179,804423,0
19,2,718211,250286,1589203,74993,9766,792661,0
19,-1,643551,221813,1321493,66789,8606,660546,0
19,2,713978,248804,1474938,74203,9890,737349,0
19,2,715670,248212,1339477,74297,10401,669833,0
19,-1,642845,219894,1262305,66056,7855,631160,0
19,2,709321,247784,1264880,74124,9011,632415,0
20,2,760846,266974,1625257,78842,9869,812130,0
20,-1,691197,237034,1208799,70644,7136,604430,0
20,2,707868,249221,1299648,74128,9304,649804,0
20,-1,660877,223383,1330377,68933,8974,665115,0
20,2,705384,247750,1347371,73643,8499,673784,0
20,-1,640062,220811,1204544,66705,7025,602219,0
20,2,713705,248918,1373626,73862,9773,686777,0
20,2,711269,248566,1356423,74037,9504,678234,0
20,2,706409,249053,1496501,74239,10327,748285,0
20,-1,647667,222280,1310700,67076,8304,655300,0
20,2,707638,248951,1538025,74119,10406,768717,0
20,-1,639290,218489,1267433,65704,7431,633211,0
20,2,728916,253621,1437791,77385,9371,718852,0
20,2,707365,248023,1325033,73716,8537,662556,0
20,-1,637418,219249,1323542,65775,8456,661695,0
20,2,706375,248735,1352505,74000,8136,676290,0
20,-1,640487,218780,1142069,65695,7416,571022,0
20,2,709037,248769,1578233,73935,9904,789339,0
20,2,708790,248705,1262576,73776,8825,631338,0
20,-1,644936,220817,1315129,66824,7791,657510,0
20,2,720355,251308,1463313,75075,9623,731652,0
20,2,712200,251107,1431480,74774,10746,715609,0
20,-1,633876,219372,1356674,66098,7093,678312,0
20,2,731861,254043,1280902,77393,9723,640356,0
20,2,709657,248839,1355067,73925,9276,677586,0
20,-1,636343,218773,1325405,65818,7829,662711,0
20,-1,636922,219668,1256951,66181,7692,628464,2
20,2,715931,249957,1442766,74428,10155,721451,0
20,-1,642145,221217,1483496,66920,8247,741853,0
20,2,707107,248085,1338715,73604,9561,669408,0
20,2,737781,258311,1353156,76875,9239,676543,0
20,-1,635050,219220,1292621,65884,6673,646353,0
20,2,715173,250383,1341848,74663,9067,670746,0
20,2,713225,249119,1443375,73978,8211,721699,0
20,-1,639780,219372,1491335,66004,8958,745219,0
20,2,704296,247849,1372165,73005,8921,685923,0
20,-1,639563,218990,1385416,65708,7009,692762,0
20,2,708700,248216,1408665,73276,8848,704292,0
20,2,713900,251005,1453735,75423,9389,726824,0
20,2,705723,248084,1508390,74024,10291,754025,0
20,-1,657102,223848,1171266,69209,7862,585603,0
20,2,706557,248166,1307866,74119,9559,653889,0
20,2,707466,248007,1435784,74076,8728,717870,0
20,-1,636761,219487,1186330,65931,6343,593227,0
20,2,714957,248120,1375146,74124,8667,687547,0
20,-1,641355,220668,1292397,66600,7416,646274,0
20,2,714441,249481,1597582,74366,10605,798612,0
20,-1,637338,219487,1207498,66000,6368,603856,0
20,2,710777,249378,1625232,74658,10135,812612,0
20,2,714701,248877,1540445,74350,9726,770311,0
20,-1,660857,224042,1209761,69129,7454,604854,0
20,2,715813,250309,1387164,74868,8717,693710,0
20,-1,647812,220320,1304105,66209,8246,652024,0
20,2,717378,251025,1456429,75330,9710,728285,0
20,2,715528,250146,1649322,74598,12149,824253,0
20,2,715659,248993,1429886,74341,9669,714936,0
20,-1,661326,225097,1237488,69406,8490,618553,0
20,2,714920,249017,1433433,74290,9569,716611,0
20,2,709936,247474,1338516,73998,10032,669255,0
20,-1,642573,219615,1261805,65867,8697,630692,0
20,2,706636,247806,1278986,74126,9282,639528,0
21,2,760256,266401,1453680,78699,9352,726532,0
21,-1,712417,241700,1450418,73940,8646,725221,0
21,2,704531,248239,1350195,73825,8525,674974,0
21,-1,639946,219057,1228204,65729,8136,614197,0
21,2,754961,261357,1495260,79643,9751,747543,0
21,-1,655592,223430,1192084,69045,7838,595934,0
21,2,712618,249289,1326454,74059,9796,662981,0
21,2,715639,249933,1395288,74687,9807,697399,0
21,2,702009,247832,1357488,73704,8759,678714,0
21,-1,658830,223355,1293274,68915,8656,646618,0
21,2,712061,250936,1431781,74972,9087,715963,0
21,-1,637355,217983,1266315,65470,8756,633008,0
21,2,709115,250481,1323514,74761,9540,661711,0
21,2,733900,253689,1380360,77399,9339,690115,0
21,-1,637591,219410,1266712,65944,8156,633259,0
21,2,707634,248753,1239772,73966,8355,619933,0
21,-1,639788,218739,1198860,65694,7486,599313,0
21,2,712406,250165,1440414,74662,9084,720257,0
21,2,711909,249779,1390200,74395,8769,695181,0
21,-1,663462,223688,1262992,69206,8095,631164,0
21,2,715471,250406,1355038,74544,8376,677531,0
21,2,711901,249515,1417270,74072,9566,708573,0
21,-1,633363,219727,1277635,66375,6886,638831,0
21,2,717855,250460,1332832,74679,10063,666134,0
21,2,711918,248976,1507884,73957,9190,754144,0
21,-1,634672,218524,1238967,65747,7535,619257,0
21,2,710580,248392,1442948,73750,9464,721516,0
21,-1,636356,219497,1221495,66114,7353,610831,2
21,-1,656225,223339,1240441,69168,7791,620130,0
21,2,706405,248046,1297900,73584,8326,648987,0
21,2,714146,249886,1307728,74499,9321,653910,0
21,-1,657910,224281,1262706,69343,7457,631391,0
21,2,709644,248655,1499037,73770,8610,749586,0
21,2,711425,248693,1462520,73851,8476,731087,0
21,-1,645427,221482,1336735,66832,7812,668435,0
21,2,704858,248394,1281301,73289,9019,640603,0
21,-1,641000,219614,1230428,66107,6703,615309,0
21,2,708378,248277,1406699,73285,8607,703354,0
21,2,706635,247881,1397171,74131,8915,698600,0
21,2,710018,250320,1409650,75147,9845,704953,0
21,-1,636082,219580,1244585,66043,7396,622350,0
21,2,706388,248059,1304469,74094,9100,652152,0
21,2,709289,249118,1499683,74414,9422,749804,0
21,-1,640338,219562,1536428,65958,8635,768260,0
21,2,713975,248665,1431075,74363,9103,715492,0
21,-1,636949,219224,1282961,65924,7036,641540,0
21,2,711542,248715,1542895,74167,10376,771062,0
21,-1,638911,219580,1230325,66005,7356,615223,0
21,2,708653,249095,1349297,74530,10471,674660,0
21,2,714829,249265,1485613,74463,10269,742731,0
21,-1,641667,220011,1279975,66026,7011,640034,0
21,2,762049,263224,1517523,80445,11009,758697,0
21,-1,667013,225041,1282223,69513,7935,641045,0
21,2,716149,250346,1392964,74990,9100,696561,0
21,2,717388,250713,1350584,75021,9705,675275,0
21,2,719949,251278,1405226,75393,9827,702587,0
21,-1,640725,220934,1331358,66291,8640,665392,0
21,2,715754,249222,1356687,74300,8988,678133,0
21,2,713718,248211,1342625,74298,9544,671309,0
21,-1,640691,219852,1271026,65983,7824,635275,0
21,2,708273,248169,1364674,74298,8801,682409,0
22,2,761503,266723,1477937,78808,9904,738558,0
22,-1,689576,237184,1399912,70724,7767,698842,0
22,2,711580,250622,1549415,74843,9540,774599,0
22,-1,637466,218171,1194290,65507,7257,597138,0
22,2,709794,249663,1425466,74505,9212,712678,0
22,-1,632652,218545,1119696,65666,6756,559837,0
22,2,712342,249364,1392253,74006,9606,696051,0
22,2,711732,249164,1304650,74261,9258,652226,0
22,-1,638323,218457,1284230,65600,7206,642083,0
22,2,730494,253360,1370378,77379,9824,685172,0
22,2,710328,249986,1346238,74667,9258,673138,0
22,-1,638063,218594,1311741,65811,7892,654915,0
22,2,708627,248834,1265523,74042,8432,632785,0
22,2,708978,248478,1363203,73933,8491,681608,0
22,-1,640595,221291,1320788,66815,8861,660295,0
22,2,707297,249150,1337870,74087,8491,668968,0
22,-1,663977,224098,1285803,69233,8589,642854,0
22,2,709216,248876,1621101,74090,10040,810316,0
22,2,706266,248366,1394239,73660,8768,697078,0
22,-1,641916,219364,1302637,66068,7946,651192,0
22,2,714717,249626,1537367,74239,10304,768730,0
22,2,713004,250001,1411234,74219,9548,705608,0
22,-1,636700,218754,1160581,65858,6083,580349,0
22,2,713271,249391,1323233,74173,8642,661740,0
22,2,717018,250908,1540689,74776,9436,769650,0
22,-1,639404,220728,1323455,66700,8208,661606,0
22,2,710906,248780,1333676,73931,9620,666888,0
22,-1,637681,219388,1269528,66006,6928,634825,0
22,-1,638384,219728,1272320,66128,7704,636220,2
22,2,733127,253716,1472196,77185,9284,736089,0
22,2,731802,253387,1323957,77124,9025,661854,0
22,-1,637238,219731,1269652,65978,7714,634864,0
22,2,708702,248209,1298265,73652,8246,649120,0
22,-1,639489,219716,1289546,66031,6850,644826,0
22,2,710946,248701,1446399,73803,8285,723122,0
22,2,728064,253703,1387521,76736,10145,693818,0
22,-1,641772,220204,1278401,66187,6875,639266,0
22,2,710807,250316,1318826,74319,8620,659027,0
22,2,706880,247996,1337522,74081,8444,668744,0
22,2,736706,253325,1563830,77642,10651,781850,0
22,-1,637496,220674,1271017,66567,7323,635613,0
22,2,710327,249894,1413957,75006,10040,706835,0
22,-1,640497,219885,1216575,66117,6575,608351,0
22,2,713553,250182,1402412,75029,9738,701243,0
22,2,734436,252964,1474199,77538,10133,737079,0
22,-1,642010,219209,1190172,65886,7358,595138,0
22,2,711846,248883,1361972,74231,8695,681018,0
22,-1,637603,219380,1287390,65895,7179,643746,0
22,2,708871,248624,1426534,74268,10486,713124,0
22,2,715979,249633,1365984,74652,9608,683023,0
22,-1,639113,219642,1231383,65914,6540,615759,0
22,2,713882,249777,1317906,74487,8940,658903,0
22,-1,645344,220324,1191507,66226,7804,595671,0
22,2,736353,253223,1554219,77452,11448,777163,0
22,2,713987,248842,1381531,74255,10167,690711,0
22,2,714565,250019,1496002,74758,9581,747820,0
22,-1,639960,220667,1331667,66158,8992,665811,0
22,2,718681,250477,1374449,74994,9241,687318,0
22,2,711149,248126,1464093,74268,10225,732108,0
22,-1,647399,222272,1226202,67089,7695,613121,0
22,2,708276,247836,1393356,74123,8605,696453,0
23,2,765055,267222,1539005,78954,10222,769289,0
23,-1,687051,236537,1397198,70483,8194,698590,0
23,2,704886,248391,1464840,73715,9020,732468,0
23,-1,637160,218567,1280895,65687,8142,640459,0
23,2,705217,247841,1311986,73671,8246,655945,0
23,-1,636069,218750,1130988,65694,7401,565423,0
23,2,711281,249538,1451586,74035,9602,725580,0
23,2,713305,250722,1477871,74929,9190,738769,0
23,-1,637420,218931,1233653,65790,7277,616803,0
23,2,706750,248679,1450573,74042,9199,725297,0
23,2,710520,248894,1314771,74137,8840,657434,0
23,-1,639496,219668,1495927,66124,8336,748085,0
23,2,707267,248389,1591874,73875,10147,795503,0
23,2,713167,250374,1609506,74715,9717,804720,0
23,-1,662100,223865,1192058,69157,8191,595469,0
23,2,710117,248647,1324337,73951,8205,662196,0
23,-1,642251,220059,1275885,66121,7344,637895,0
23,2,713159,250636,1426785,74901,8575,713463,0
23,2,714699,250311,1394557,74588,9000,697341,0
23,-1,640172,218510,1273676,65703,7308,636619,0
23,2,715959,250199,1489767,74436,9020,744046,0
23,2,713432,249399,1533733,73976,9566,766736,0
23,-1,644494,218586,1283848,65774,7093,641936,0
23,2,712366,248302,1466943,73780,9839,733395,0
23,2,710295,248687,1599617,73913,10483,799975,0
23,-1,635823,219162,1213012,65990,7760,606123,0
23,2,713434,249273,1437821,74019,9677,718947,0
23,-1,635332,219215,1193129,65996,6414,596750,0
23,2,712934,249809,1510122,74094,10078,755143,0
23,-1,636744,220188,1311294,66267,8223,655701,2
23,2,709081,248808,1339705,73882,8540,669907,0
23,-1,636573,219664,1184701,66076,7083,592396,0
23,2,711750,249834,1403326,74414,9008,701631,0
23,-1,658720,223958,1276729,69251,7987,638296,0
23,2,720359,250609,1350586,74728,8982,675352,0
23,2,706791,248116,1287852,73166,8245,643910,0
23,-1,640172,219351,1261221,65985,7240,630518,0
23,2,710790,250169,1427055,74144,8975,713489,0
23,2,706574,248506,1425938,74284,8907,712881,0
23,2,713668,248845,1309736,74393,9703,655016,0
23,-1,646569,220414,1255982,66320,7594,628030,0
23,2,704851,247593,1330973,73929,9686,665452,0
23,-1,637733,219298,1436562,65825,8441,717830,0
23,2,707764,248781,1518331,74368,10379,759122,0
23,2,716563,250072,1410819,75049,8976,705330,0
23,-1,644030,220756,1288942,66645,7538,644539,0
23,2,710621,248728,1472662,74179,9887,736364,0
23,-1,641769,221682,1492200,66867,8407,746036,0
23,2,708506,249695,1381223,74809,9483,690548,0
23,2,717708,250777,1397868,75201,9482,698831,0
23,-1,641726,219169,1269730,65759,7675,634931,0
23,2,710775,249168,1505052,74286,9717,752487,0
23,-1,649199,221314,1271747,66773,7878,635358,0
23,2,716059,249309,1640080,74438,10640,819668,0
23,2,733625,254059,1529810,77745,10504,764865,0
23,2,715463,249416,1551863,74563,10246,775654,0
23,-1,641134,220936,1542751,66296,10767,771365,0
23,2,712693,249125,1444770,74353,8777,722294,0
23,2,737154,252421,1462425,77426,10809,731162,0
23,-1,663563,225327,1201052,69582,8384,600568,0
23,2,705203,248112,1415429,74318,8722,707446,0
24,2,783986,271037,1611744,82022,11902,805745,0
24,-1,698353,239008,1462048,71494,8666,730651,0
24,2,711741,248361,1391134,73733,8605,695534,0
24,-1,637592,218478,1180333,65686,6606,590028,0
24,2,711511,250697,1399324,74870,9185,699646,0
24,-1,664860,228918,1292871,68996,8789,646390,0
24,2,715735,250891,1574327,74816,10614,787165,0
24,2,708187,247908,1500767,73869,9566,750382,0
24,-1,635807,218936,1352277,65813,7451,676080,0
24,2,707148,248790,1303828,74123,8708,651858,0
24,2,708356,248416,1404105,73914,9106,702090,0
24,-1,639190,218772,1279919,65836,8815,640175,0
24,2,740475,260598,1466770,77947,9210,733403,0
24,2,708759,248959,1516017,74054,10060,757825,0
24,-1,642182,219196,1198067,65845,7900,599066,0
24,2,729732,253544,1381462,77376,9536,690797,0
24,-1,642736,220564,1442910,66492,8145,721422,0
24,2,708705,249490,1418822,74229,8757,709477,0
24,2,711105,248693,1425565,73841,9150,712819,0
24,-1,645687,221485,1296455,67076,7683,648178,0
24,2,717776,251398,1535641,75169,9653,767368,0
24,2,736170,255569,1407171,77801,9843,703556,0
24,-1,647338,219915,1279541,66266,7431,639743,0
24,2,710290,248929,1413772,74003,9288,706709,0
24,2,714456,250733,1419409,74787,9556,709538,0
24,-1,639931,219942,1199806,66227,7408,599949,0
24,2,713040,248850,1355750,74036,8907,677920,0
24,-1,635116,218949,1314235,65880,7982,657153,0
24,2,709301,248854,1440386,73805,9544,720274,0
24,-1,643234,221564,1228738,66977,7738,614438,2
24,2,707916,248238,1394335,73630,9441,696876,0
24,-1,634831,219325,1397309,66004,8051,698570,0
24,2,707215,248140,1324986,73656,8970,662463,0
24,2,739586,257576,1511104,76407,9123,755560,0
24,-1,639152,219593,1344918,66051,7406,672516,0
24,2,707874,248882,1422075,73372,8476,710921,0
24,-1,642643,220146,1273634,66225,6929,636883,0
24,2,708172,248543,1310822,73447,8576,655431,0
24,2,708166,248060,1319394,74121,9884,659611,0
24,2,714513,249530,1307127,74800,9481,653366,0
24,-1,647881,221153,1335344,66841,8446,667713,0
24,2,708350,249376,1308065,74722,9403,653819,0
24,-1,644645,221869,1296646,67121,7233,648386,0
24,2,708335,249510,1388886,74746,9869,694410,0
24,2,739021,254689,1462734,78598,10719,731241,0
24,-1,660187,223773,1273179,69203,8125,636580,0
24,2,714680,248490,1267002,74094,8991,633547,0
24,-1,644412,220325,1233117,66173,7311,616607,0
24,2,708218,248237,1503750,74154,9993,751852,0
24,2,712579,249427,1457431,74565,10410,728697,0
24,-1,644333,220443,1176076,66162,7961,588055,0
24,2,715765,249446,1343487,74456,9516,671713,0
24,-1,645718,220418,1211484,66307,7252,605774,0
24,2,718165,250572,1416374,75066,10036,708424,0
24,2,736052,257594,1631114,76768,10041,815307,0
24,2,713843,249137,1586636,74407,9615,792614,0
24,-1,638632,219755,1207076,65848,8088,603566,0
24,2,712935,248538,1505979,74093,9269,753091,0
24,2,712144,247478,1421239,73965,9381,710537,0
24,-1,645137,221297,1383643,66675,7554,691880,0
24,2,709759,248081,1436950,74234,8429,718498,0
24,-1,641452,219207,1403456,65735,9012,701671,0
25,2,763827,267015,1561790,78913,10353,780934,0
25,-1,692461,237054,1350156,70615,8476,675092,0
25,2,709644,247452,1387369,73428,9001,693448,0
25,-1,637434,218360,1225780,65638,7647,612861,0
25,2,703098,247452,1476716,73384,8572,738356,0
25,-1,634034,218407,1123084,65616,6708,561358,0
25,2,711149,249005,1461820,73980,9295,731310,0
25,2,707313,248145,1323075,73898,8443,661532,0
25,-1,644663,220904,1299482,66676,7930,649618,0
25,2,710052,250138,1401742,74752,9377,700924,0
25,2,708104,248788,1399274,74082,8679,699546,0
25,-1,644129,221514,1343533,66967,8347,671728,0
25,2,707616,248853,1433409,74065,9276,716758,0
25,-1,643660,219382,1367690,65868,7549,683763,0
25,2,707548,248307,1317714,73810,8380,658867,0
25,2,710221,249146,1415591,74116,9089,707824,0
25,-1,639291,218802,1245686,65688,7663,622826,0
25,2,710296,248665,1339296,73931,8442,669681,0
25,-1,639047,219455,1187507,66110,7193,593705,0
25,2,711351,249039,1328136,73987,8487,664105,0
25,2,714838,249406,1526675,74225,10070,763339,0
25,2,715236,251254,1446348,74791,9741,723243,0
25,-1,646328,219658,1232216,66156,7098,616090,0
25,2,713893,249984,1326047,74340,9063,663030,0
25,2,732133,253754,1350164,77289,9563,675043,0
25,-1,632531,217586,1139073,65533,6566,569597,0
25,2,709736,248621,1366509,73778,8861,683290,0
25,-1,656961,223092,1404575,69012,8057,702329,0
25,2,711118,249777,1437678,74230,9538,718758,0
25,2,733527,253516,1439901,77190,10044,719999,0
25,-1,656654,224093,1220807,69301,7213,610359,0
25,2,727483,252966,1441717,77037,9606,720638,0
25,-1,637593,220247,1296684,66267,7250,648294,2
25,2,718020,251030,1428312,74915,8332,714202,0
25,-1,638544,219716,1307840,66041,7266,653528,0
25,2,704022,248277,1479913,73228,9610,739966,0
25,-1,640828,219922,1284731,66097,7071,642422,0
25,2,714497,251418,1259424,74647,9509,629677,0
25,2,707432,248298,1315178,74167,9603,657525,0
25,2,710264,248319,1385721,74129,9567,692765,0
25,-1,662120,223417,1273228,69025,8372,636561,0
25,2,708181,248094,1305797,74178,8741,652904,0
25,-1,640940,219581,1305266,65944,7095,652505,0
25,2,712599,248093,1435507,74062,9359,717740,0
25,2,709214,248215,1248608,74140,8872,624244,0
25,-1,639857,219301,1307814,65973,7773,653925,0
25,2,715374,249199,1329049,74563,8981,664574,0
25,-1,643346,219448,1212163,65922,7235,606125,0
25,2,707633,248441,1460301,74042,10449,730233,0
25,2,714501,250197,1454471,74793,10512,727181,0
25,-1,640258,219303,1127860,65764,7523,563963,0
25,2,715162,249543,1436282,74478,11067,718153,0
25,-1,643782,219965,1308800,66142,8298,654370,0
25,2,713359,248162,1327204,73972,9133,663692,0
25,2,715675,250438,1346251,74985,9154,673145,0
25,2,718958,251215,1485406,75469,10111,742668,0
25,-1,639876,220404,1302158,66065,8587,651160,0
25,2,716041,250404,1362023,75017,9585,680764,0
25,2,714577,248881,1527104,74430,9684,763352,0
25,-1,643987,221034,1287594,66401,7594,643843,0
25,2,709687,248211,1409277,74338,9265,704637,0
25,-1,639818,219779,1330803,65972,8498,665389,0
26,2,763645,266671,1465048,78791,10183,731873,0
26,-1,690661,236858,1329259,70556,7748,664328,0
26,2,732168,252845,1524012,76971,10466,761804,0
26,-1,640358,219932,1251403,66370,8128,625171,0
26,2,711502,248166,1448179,73734,8587,724085,0
26,-1,633242,218526,1179840,65676,7749,589894,0
26,2,708748,248529,1569026,73798,9556,784705,0
26,2,711993,250134,1436439,74763,9634,718252,0
26,-1,659784,223236,1271118,69010,8109,635433,0
26,2,711584,251150,1364006,75174,9800,681871,0
26,2,708178,249325,1448639,74395,9117,724350,0
26,-1,658801,223704,1317586,69162,9047,659053,0
26,2,706528,248731,1314417,73944,8785,657017,0
26,-1,640865,218695,1192548,65615,7323,596210,0
26,2,707462,248891,1375193,73962,8352,687635,0
26,2,707634,248180,1388960,73774,8472,694508,0
26,-1,640940,219366,1270712,65906,7337,635359,0
26,2,711028,248299,1330969,73852,8870,665568,0
26,-1,641503,218942,1205048,65889,7362,602485,0
26,2,715483,251057,1488316,74892,9688,744220,0
26,2,718309,251149,1561371,74929,10533,780166,0
26,2,739787,259640,1397898,77078,9491,698883,0
26,-1,646447,220657,1333715,66683,8441,666911,0
26,2,712826,248844,1398437,73953,9831,699250,0
26,2,707427,248423,1309283,73723,8263,654695,0
26,-1,640193,220743,1196030,66702,7798,598075,0
26,2,711189,248839,1403168,73893,9188,701620,0
26,-1,635525,219006,1319468,65905,7468,659598,0
26,2,713207,249796,1359391,74139,9151,679684,0
26,2,711529,248478,1346411,73712,8661,673010,0
26,-1,642866,219244,1281671,65941,7650,640828,0
26,2,713303,248137,1347229,73678,8978,673653,0
26,-1,643622,221875,1324250,67083,8036,662168,2
26,-1,644445,220335,1284801,66411,8620,642198,0
26,2,733124,253678,1432564,77271,8828,716229,0
26,2,705590,248246,1458644,73177,8891,729300,0
26,-1,639075,219404,1238816,65997,6615,619455,0
26,2,704972,248152,1261028,73257,9022,630314,0
26,2,705810,248194,1240863,74176,9221,620410,0
26,2,711211,248754,1589756,74626,10020,793352,0
26,-1,642355,219289,1255070,65923,7966,627565,0
26,2,712002,247943,1347355,74076,9131,673607,0
26,-1,640015,219761,1412185,66086,8571,706041,0
26,2,711332,248013,1436131,74064,9396,718063,0
26,2,714093,248802,1279393,74365,8922,639626,0
26,-1,638498,219382,1372933,65986,8135,686837,0
26,2,712090,248683,1337529,74204,8797,668853,0
26,-1,662002,223822,1380787,69213,7319,690308,0
26,2,708402,249172,1530582,74336,10197,765124,0
26,2,712970,249824,1481234,74804,10084,740444,0
26,-1,644606,220934,1182565,66519,7824,591353,0
26,2,718261,251165,1437889,75291,10430,718918,0
26,-1,668555,225563,1467914,69735,10278,734007,0
26,2,715420,249508,1508006,74528,9675,754025,0
26,2,709942,248705,1492659,74211,9220,746342,0
26,2,712638,249390,1405042,74538,9768,702135,0
26,-1,638283,220090,1393724,65955,9618,696675,0
26,2,731816,252912,1514755,77369,10431,757171,0
26,2,717369,250115,1428156,75147,9970,714089,0
26,-1,641608,220154,1302180,66078,7926,651072,0
26,2,707621,247753,1320595,74108,9044,660051,0
26,-1,664034,224381,1303394,69344,9180,651567,0
27,2,760556,266287,1537275,78592,9772,768670,0
27,-1,698596,240087,1402083,71932,8048,700823,0
27,2,710759,248365,1325622,73677,8908,662782,0
27,-1,637493,218842,1211001,65823,7737,605336,0
27,2,709431,248157,1366624,73752,9154,683313,0
27,-1,633399,219008,1189261,65747,7084,594688,0
27,2,706681,248279,1372868,73783,8911,686104,0
27,2,707116,248935,1436645,74161,9208,718324,0
27,-1,638269,218789,1169993,65782,7622,584966,0
27,2,709071,249913,1326560,74687,9367,663149,0
27,2,707922,249124,1441369,74166,10116,720779,0
27,-1,638173,218608,1311482,65747,8083,655747,0
27,2,710062,249993,1419934,74625,8559,709765,0
27,-1,664270,223991,1278605,69085,8712,639458,0
27,2,716576,251469,1320711,75207,9044,660445,0
27,2,709597,249381,1444631,74237,9020,722358,0
27,-1,640250,219192,1198280,65740,6878,598980,0
27,2,716314,250418,1433915,74725,9338,717024,0
27,-1,641725,219305,1166908,66063,7741,583378,0
27,2,711178,248631,1609512,73885,10627,804797,0
27,2,716346,250708,1465257,74575,9383,732337,0
27,2,716276,251094,1444070,74758,10237,721944,0
27,-1,643518,219199,1195226,66024,7833,597572,0
27,2,709753,248877,1295501,73969,8670,647732,0
27,2,715834,249927,1566336,74199,10391,783195,0
27,-1,634087,218652,1218071,65732,7724,609081,0
27,2,711621,248855,1321905,73962,8806,660984,0
27,-1,634734,218604,1286521,65745,7529,643353,0
27,2,708328,248915,1329234,73860,8989,664530,0
27,2,710274,248584,1396763,73752,8741,698243,0
27,-1,642018,219631,1310385,66050,6897,655242,0
27,2,717323,250826,1333975,74732,9758,666900,0
27,-1,640662,219664,1189102,66073,7571,594306,0
27,2,711322,247747,1383869,73471,8869,691922,0
27,-1,642243,220517,1258436,66380,7568,629256,2
27,2,703107,247959,1653374,73055,9561,826621,0
27,-1,643122,221429,1313522,66930,7413,656831,0
27,2,706311,248155,1349254,73304,8785,674541,0
27,2,703838,247497,1334598,73921,9358,666922,0
27,2,708592,248109,1419651,74081,9602,710105,0
27,-1,641013,219338,1197434,65950,7396,598759,0
27,2,716988,249384,1348134,74737,9506,674001,0
27,-1,637062,219621,1242044,66012,7162,621003,0
27,2,710397,247843,1317356,73964,9011,658646,0
27,2,711166,248279,1278944,74212,8616,639435,0
27,-1,642400,220586,1303550,66522,7835,651849,0
27,2,716552,249526,1429380,74472,9434,714619,0
27,-1,641893,219786,1292648,65910,7303,646119,0
27,2,703884,248105,1411902,73932,9125,705952,0
27,2,709581,248806,1444227,74421,9366,721973,0
27,-1,639642,219954,1228450,65975,7417,614246,0
27,2,712942,249730,1523029,74665,10595,760939,0
27,-1,644925,219972,1256398,66126,8302,628453,0
27,2,734977,253991,1500389,77705,10636,750076,0
27,2,710852,249581,1428190,74565,9354,714090,0
27,2,716124,250511,1483827,75088,10058,741405,0
27,-1,661512,224863,1230407,69347,8663,615058,0
27,2,712065,248911,1318062,74298,8875,658885,0
27,-1,640801,220227,1180641,66150,6994,590373,0
27,2,733455,252828,1459965,77552,9996,730075,0
27,2,712811,249901,1430333,75150,9919,715126,0
27,-1,641390,219976,1374539,66118,8075,687266,0
27,2,712958,249409,1539006,74731,9946,769345,0
28,2,762012,267043,1628511,78923,11654,812006,0
28,-1,715100,242460,1391855,74224,8507,695752,0
28,2,711048,247713,1435655,73506,8819,717690,0
28,-1,637535,218454,1187152,65643,7413,593398,0
28,2,710738,248172,1282603,73665,8172,641297,0
28,-1,640621,218019,1187834,65279,7152,593988,0
28,2,708824,248686,1427369,73832,9437,713616,0
28,2,713129,249233,1291652,74223,8520,645799,0
28,-1,637124,218777,1218718,65758,6627,609357,0
28,2,701711,248116,1328720,73831,8603,664331,0
28,2,713688,250753,1501948,75039,9286,751038,0
28,-1,640749,219987,1320479,66362,8833,660190,0
28,2,705826,249150,1314088,74137,8448,657121,0
28,-1,640315,219027,1217182,65769,7025,608629,0
28,2,710887,250224,1312460,74672,8942,656294,0
28,2,710506,248792,1349488,74053,8327,674786,0
28,-1,662014,224298,1251619,69300,8104,625709,0
28,2,714478,249926,1361185,74330,9380,680634,0
28,2,707591,248463,1428299,73765,10336,714017,0
28,-1,641677,219301,1200194,66005,7940,600106,0
28,2,709539,249242,1328596,74068,8968,664228,0
28,2,711096,250252,1442104,74244,10171,721133,0
28,-1,643063,219231,1312606,65997,8093,656323,0
28,2,716336,250586,1427096,74817,9840,713385,0
28,2,708512,248187,1427833,73663,8933,713959,0
28,-1,635755,218648,1112166,65803,7592,556050,0
28,2,708758,247859,1431878,73534,9270,715979,0
28,-1,638201,220107,1223628,66243,6755,611879,0
28,2,710951,248675,1442502,73675,9947,721143,0
28,2,712773,249972,1395181,74453,8813,697682,0
28,-1,643189,220713,1450761,66666,8417,725449,0
28,2,713892,248376,1336640,73757,9159,668178,0
28,-1,639379,219423,1389274,65966,9336,694474,0
28,2,714210,248710,1326978,73785,8646,663583,0
28,2,702498,247972,1514430,73073,9773,756829,0
28,-1,637564,219944,1290391,66134,7643,645235,2
28,-1,659818,224304,1225611,69349,7112,612836,0
28,2,704142,248290,1456440,73318,9353,728226,0
28,2,705701,247702,1386042,74028,9142,693034,0
28,2,710437,248620,1381396,74308,9520,690423,0
28,-1,647468,221092,1280163,66816,7669,640060,0
28,2,710774,247464,1408607,73980,9876,703883,0
28,-1,636758,219760,1231865,66108,7372,615986,0
28,2,710895,248450,1584752,74231,9627,792347,0
28,2,711103,248597,1307331,74307,8775,653668,0
28,-1,639102,219353,1202318,65933,7610,601210,0
28,2,713313,249139,1465254,74479,9465,733037,0
28,-1,640635,219973,1310929,65956,7576,655585,0
28,2,705762,249363,1454389,74394,9013,727011,0
28,2,712129,249332,1630371,74618,10153,815126,0
28,-1,642198,219814,1200850,65962,7123,600480,0
28,2,713522,250241,1440474,74957,10112,720018,0
28,-1,645706,220663,1417012,66313,8793,708161,0
28,2,712899,248606,1517412,74128,9651,758695,0
28,2,717496,250545,1340540,75106,9257,670338,0
28,2,717122,249226,1317479,74449,9778,658684,0
28,-1,635883,219590,1238859,65748,7918,619361,0
28,2,713871,248170,1301115,73990,9629,650623,0
28,-1,640024,220128,1371699,66045,8030,685880,0
28,2,714379,248151,1340742,74186,9261,670375,0
28,2,706199,248005,1420927,74203,9344,710509,0
28,-1,643926,220513,1275359,66163,8174,637000,0
28,2,711645,249085,1541260,74438,9169,769818,0
29,2,763687,268190,1461981,79482,9627,730832,0
29,-1,691005,237157,1256235,70740,7088,628358,0
29,2,714261,250017,1446371,74499,9348,723125,0
29,-1,636763,218867,1202774,65742,7472,601403,0
29,2,736674,254371,1482791,77999,9871,741304,0
29,2,706502,248470,1427224,73787,9814,713453,0
29,-1,643313,219307,1325497,65801,8332,662592,0
29,2,712016,248604,1306078,74026,8121,653040,0
29,-1,640832,220874,1350795,66685,7216,675229,0
29,2,724234,252832,1495730,77216,9235,747845,0
29,2,708313,249079,1442249,74131,9406,721161,0
29,-1,633792,218023,1176846,65532,8115,588412,0
29,2,708826,249914,1418332,74570,8839,709313,0
29,-1,639466,219044,1313809,65720,7704,656838,0
29,2,708175,248890,1259761,73997,8843,629919,0
29,2,708504,249219,1330501,74154,8296,665284,0
29,-1,640387,219506,1306740,65954,8053,653369,0
29,2,709636,248521,1321459,73848,8912,660768,0
29,2,710141,248331,1314927,73693,8877,657504,0
29,-1,639657,218965,1181412,65926,7494,590705,0
29,2,715221,249639,1430322,74259,10333,715218,0
29,2,711223,249768,1440850,74092,9645,720387,0
29,-1,642823,219570,1301124,66141,7881,650486,0
29,2,712063,249188,1443533,74082,9820,721713,0
29,2,728488,252529,1375510,76879,9662,687571,0
29,-1,633857,219147,1353335,65913,7237,676601,0
29,2,732934,254027,1361261,77407,9093,680577,0
29,-1,641571,221723,1375222,67065,8421,687676,0
29,2,712392,249380,1548363,73953,10261,773965,0
29,2,710394,248442,1458302,73717,9247,729073,0
29,-1,639253,219000,1123836,65816,6943,561935,0
29,2,712682,248565,1358599,73803,10331,679135,0
29,-1,658169,223212,1182438,68958,8182,590991,0
29,2,710050,247966,1278858,73578,8219,639431,0
29,2,705364,247979,1388793,73076,8819,694198,0
29,-1,638489,220067,1264004,66157,6516,632060,0
29,-1,642581,221363,1293463,66909,7806,646777,2
29,2,704793,247986,1460608,73184,8871,730286,0
29,2,709206,249067,1614851,74466,9366,806674,0
29,2,715574,250431,1319100,75231,8715,659532,0
29,-1,642556,219479,1245535,65968,7179,622859,0
29,2,712267,248675,1453143,74300,9847,726604,0
29,-1,639834,220878,1468395,66643,8124,734253,0
29,2,710683,249309,1444112,74541,9277,721997,0
29,2,711614,248102,1477957,74066,9408,739015,0
29,-1,642694,221525,1308683,66966,7840,654450,0
29,2,710059,248061,1413960,74134,9808,707059,0
29,-1,642114,219289,1211447,65756,7400,605774,0
29,2,736425,253059,1514872,77384,10873,757478,0
29,2,718411,250926,1385719,75389,9761,692903,0
29,-1,640767,219355,1321346,65773,7417,660703,0
29,2,732506,253526,1567263,77613,11063,783485,0
29,-1,643021,220275,1338684,66135,8161,669378,0
29,2,715780,249894,1401903,74585,9683,700936,0
29,2,734757,253632,1468258,77649,10681,734159,0
29,2,716468,248879,1355302,74385,9849,678047,0
29,-1,646448,219531,1310012,65717,8398,654821,0
29,2,711840,248895,1353197,74250,9595,676567,0
29,-1,646903,222215,1316227,67044,7935,658193,0
29,2,716414,249334,1405497,74703,9814,702944,0
29,2,707373,247737,1354673,74094,9562,677131,0
29,-1,641264,219458,1137563,65829,7290,568668,0
29,2,708449,248364,1488161,74169,10065,743640,0
30,2,768254,269372,1484378,79935,9774,742155,0
30,-1,689759,236996,1361144,70637,7753,679876,0
30,2,714737,251057,1417758,74889,9135,708978,0
30,-1,640947,218860,1407976,65637,8025,703927,0
30,2,712439,249978,1421423,74517,10083,710693,0
30,-1,647840,221512,1344691,66777,8185,672307,0
30,2,713309,248374,1278949,73814,9424,639500,0
30,2,712246,248962,1375316,74161,8518,687717,0
30,-1,638160,218925,1269635,65740,7380,634798,0
30,2,702755,248362,1353976,73944,8614,676963,0
30,2,739275,259388,1514255,77459,10084,757206,0
30,-1,639302,218734,1251681,65784,8570,625631,0
30,2,704768,248434,1508841,73787,9207,754415,0
30,-1,642083,218963,1208992,65734,7544,604504,0
30,2,708805,248651,1400852,73907,9006,700467,0
30,2,708550,250217,1589511,74736,10094,794824,0
30,-1,642065,220530,1429446,66472,8540,714636,0
30,2,710526,249412,1336466,74233,8931,668280,0
30,-1,644444,220402,1300039,66606,7883,650045,0
30,2,708983,248465,1313062,73749,8874,656581,0
30,2,716825,250291,1460823,74632,10646,729438,0
30,2,710312,249828,1322693,74169,9354,661330,0
30,-1,643741,219260,1228770,65937,7351,614362,0
30,2,711245,249060,1444774,73942,9582,722023,0
30,2,711450,249461,1438946,74110,9032,719530,0
30,-1,639075,219887,1290282,66441,8151,645134,0
30,2,709551,248869,1482817,73977,8846,741452,0
30,-1,637630,219333,1313457,66041,7761,656069,0
30,2,714405,250260,1421340,74439,9225,710724,0
30,2,709947,248669,1374270,73844,8724,687098,0
30,-1,637536,218808,1161455,65721,7137,580778,0
30,2,711751,248356,1299837,73664,9781,649958,0
30,2,713596,249835,1467280,74409,8529,733676,0
30,-1,638874,219385,1189337,65979,7196,594675,0
30,2,706229,248771,1473108,73390,9087,735754,0
30,-1,640523,219373,1238028,65937,6928,619056,0
30,2,703300,248276,1425764,73286,9355,712860,0
30,-1,639051,220024,1198430,66196,6891,599270,2
30,2,711211,250434,1409636,75164,10229,704515,0
30,2,707896,247919,1325840,74021,9745,662989,0
30,-1,643842,220968,1288924,66662,7300,644510,0
30,2,713702,249095,1315629,74671,8708,657736,0
30,-1,644340,220283,1521200,66268,9271,760087,0
30,2,713789,249508,1375861,74808,9098,687961,0
30,2,711790,248632,1393305,74328,8997,696619,0
30,-1,657961,223789,1265514,69173,8247,632748,0
30,2,714996,249660,1320696,74871,8698,660435,0
30,-1,663749,224254,1244658,69184,7893,622386,0
30,2,716694,248831,1381463,74194,9746,690714,0
30,2,713652,249535,1443764,74714,9834,721873,0
30,-1,661032,224049,1274603,69118,7806,637253,0
30,2,715314,250218,1287272,74817,8703,642466,0
30,-1,644374,220587,1357066,66222,8262,678257,0
30,2,713416,250020,1424182,74633,9969,712103,0
30,2,709642,248047,1408290,73938,9605,704150,0
30,2,720246,251053,1455667,75395,10795,727743,0
30,-1,650419,221667,1338310,66498,8775,669153,0
30,2,714536,249563,1377467,74669,9570,688632,0
30,-1,664084,225734,1254849,69655,8292,627354,0
30,2,718697,250572,1420936,75188,9521,710429,0
30,2,710239,249527,1436488,75013,9475,718226,0
30,-1,641205,220262,1387916,66046,8031,693743,0
30,2,707477,248058,1501486,74070,9466,750481,0
31,2,779052,270442,1518323,81774,10128,759231,0
31,-1,691193,236277,1177325,70448,7034,588598,0
31,2,709945,248516,1260441,73828,8919,630005,0
31,-1,637862,218470,1273535,65795,7499,636702,0
31,2,707088,247944,1319950,73644,8600,659876,0
31,-1,640802,218539,1263422,65521,8305,631705,0
31,2,710926,247652,1364633,73612,10003,682359,0
31,2,715155,250577,1427694,74926,8856,713692,0
31,-1,640601,220245,1317881,66421,7836,658897,0
31,2,736085,253617,1364794,77468,9725,682314,0
31,2,705494,248706,1305223,74110,8409,652704,0
31,-1,640751,219291,1268239,65891,8028,634207,0
31,2,704389,248718,1297616,73942,8615,648846,0
31,-1,647259,221048,1297212,66576,7756,648694,0
31,2,709847,249671,1329632,74297,8460,664868,0
31,2,707124,248931,1432347,74017,8611,716232,0
31,-1,637787,218861,1502265,65683,8049,750973,0
31,2,709824,248555,1253074,73896,8659,626686,0
31,-1,667361,228382,1337618,68693,8247,668791,0
31,2,714582,250599,1400050,74735,9284,699869,0
31,2,713677,249343,1274119,74057,8718,637028,0
31,2,711132,250544,1450536,74396,10048,725304,0
31,-1,642458,219053,1293560,65993,7505,646704,0
31,2,716185,251681,1428061,75099,9356,713763,0
31,2,708066,248642,1277475,73857,8549,638776,0
31,-1,639604,219269,1180089,66070,7900,589996,0
31,2,708612,249097,1294770,73979,8066,647446,0
31,-1,636127,218837,1309472,65855,7281,654767,0
31,2,715610,251222,1410812,74829,9299,705553,0
31,2,710571,249551,1393242,74318,9096,696699,0
31,-1,661813,224012,1370259,69272,8116,685166,0
31,2,714900,250006,1334674,74372,10270,667053,0
31,2,707503,248141,1312016,73656,8633,655943,0
31,-1,638474,219578,1153161,66042,7029,576621,0
31,2,702247,248255,1229178,73231,8730,614612,0
31,-1,639162,219521,1218475,66007,7006,609275,0
31,2,707041,248452,1395613,73320,9324,697798,0
31,2,703798,248171,1411363,74165,9883,705334,0
31,-1,642602,220579,1329028,66426,8164,663913,2
31,2,713073,249087,1418130,74463,9733,709134,0
31,-1,642293,220268,1383823,66278,7064,691955,0
31,2,716713,251076,1337820,75455,8874,668883,0
31,-1,636229,219606,1182432,66073,6563,591271,2
31,-1,641485,219663,1338795,66012,7217,669482,0
31,2,711296,249329,1418993,74490,9602,709477,0
31,-1,639489,220696,1329422,66371,7021,664766,2
31,-1,638573,219790,1181722,66066,6861,590959,2
31,2,710683,248547,1310998,74452,8596,655414,0
31,-1,643327,221079,1195651,66835,7468,597772,2
31,-1,639187,219453,1245192,65848,7462,622653,0
31,2,731868,252706,1485643,77391,9700,742806,0
31,-1,664052,229101,1271145,68904,7261,635597,2
31,-1,643284,220341,1275628,66140,7432,637847,0
31,-1,645169,221125,1292668,66696,8208,646464,2
31,-1,640323,219743,1201990,66148,6835,600955,2
31,2,714314,248552,1634020,74094,10533,816988,0
31,-1,637567,219478,1295953,65839,6998,648005,2
31,2,715724,250628,1362600,75235,9458,681379,0
31,-1,640775,221285,1332524,66772,7632,666330,2
31,-1,640313,219936,1289272,65995,7593,644735,0
31,-1,640882,219842,1186857,66099,6420,593459,2
31,2,710959,248952,1515433,74368,9685,757528,0
31,-1,641575,220070,1321496,66170,8590,660748,0
31,-1,674019,231598,1336242,69866,8686,668165,2
31,2,710699,249007,1373230,74313,8836,686517,0
31,-1,642424,219703,1233931,66093,7741,617335,2
31,2,711530,248733,1377677,74300,9639,688800,0
31,-1,645114,221314,1334670,66412,9008,667410,2
31,2,718546,250040,1323460,74777,9126,661701,0
31,-1,648550,220678,1322920,66206,8435,661139,0
31,-1,644722,223140,1300562,67343,8927,650085,2
31,2,711197,248769,1359858,74193,9241,680286,0
31,-1,642917,220880,1276501,66284,9244,638318,2
31,-1,639295,220307,1240956,66092,8005,620315,2
31,2,718064,250301,1402916,75045,9545,701302,0
31,-1,640659,220091,1189617,65986,8367,594833,0
31,2,707540,248920,1466517,74648,9222,733250,0
31,-1,637862,220110,1325671,66069,7920,662883,2
31,-1,641328,219932,1374092,65960,7735,687028,0
31,-1,639754,219743,1206171,65999,7731,603070,2
31,2,707385,248334,1305059,74183,9351,652575,0
31,-1,667156,229291,1384937,68807,8885,692468,2
