0,0,469,644247.865672,220529.784648,1300114.277186,66579.985075,8034.040512,649606.710021,9481.839074,2768.176097,79807.396961,1264.902864,669.012868,39874.957963
0,1,0,-nan,-nan,-nan,-nan,-nan,-nan,-nan,-nan,-nan,-nan,-nan,-nan
1,0,468,644268.444444,220529.775641,1298295.547009,66537.604701,8026.696581,648686.555556,10003.014621,2992.172147,82519.821577,1276.437930,667.749401,41232.043941
1,1,0,-nan,-nan,-nan,-nan,-nan,-nan,-nan,-nan,-nan,-nan,-nan,-nan
2,0,468,644453.047009,220514.286325,1296824.363248,66589.688034,8034.297009,647978.027778,9834.482165,2782.983391,77961.734707,1304.733781,701.519303,38955.620236
2,1,0,-nan,-nan,-nan,-nan,-nan,-nan,-nan,-nan,-nan,-nan,-nan,-nan
3,0,590,642962.196610,220324.111864,1299656.128814,66436.506780,8001.232203,649364.803390,8028.626291,2405.576231,78648.192266,1053.530434,632.646131,39324.786051
3,1,0,-nan,-nan,-nan,-nan,-nan,-nan,-nan,-nan,-nan,-nan,-nan,-nan
