0,0,759232,266492,1565980,78725,9676,782502,11
0,-1,685581,235813,1194857,70187,6857,596936,0
0,-1,686740,236420,1278360,70509,6947,638734,2
0,-1,697814,239525,1327997,71734,7460,663221,0
0,-1,692053,236873,1238544,70581,7721,618835,0
0,-1,716824,245625,1263018,73174,7037,631020,0
0,-1,635197,217994,1178259,65532,6841,588577,0
0,-1,644250,220522,1273411,66529,7915,635982,0
0,-1,636956,218846,1283405,65879,8584,640852,0
0,-1,638247,218144,1284548,65513,7850,641782,0
0,-1,637625,217687,1130969,65266,7954,564935,0
0,-1,632871,217789,1176910,65436,7879,587872,0
0,-1,635293,217775,1177622,65453,7538,588231,0
0,-1,637528,218936,1381750,65723,8684,689761,0
0,-1,637758,219511,1263451,66282,8506,630848,0
0,-1,633758,217242,1201439,65283,7864,600218,0
0,-1,641236,220488,1283022,66387,8201,641118,0
0,-1,644335,220366,1307205,66532,8756,652328,0
0,-1,635874,218121,1207371,65467,7882,602766,0
0,-1,640877,218649,1161083,65648,7531,579840,0
0,-1,638486,218401,1293100,65668,7001,646027,0
0,-1,647499,221803,1253540,67004,8388,625648,0
0,-1,660070,222864,1226020,68763,8374,612611,0
0,-1,640799,219784,1246410,66107,7552,622561,0
0,-1,641278,219898,1178011,65951,7758,588540,0
0,-1,638909,218399,1174567,65615,7502,586758,0
0,-1,640641,219275,1290349,65907,8633,644658,0
0,-1,639780,218128,1232127,65544,7310,615535,0
0,-1,639993,219839,1272432,66429,7668,635575,0
0,-1,640250,219959,1171623,66468,7804,585174,0
0,-1,642012,220044,1253158,66638,7607,625651,0
0,-1,638918,218097,1205991,65618,7453,602618,0
0,-1,636115,216865,1266550,65343,8365,632693,0
0,-1,643440,219793,1369440,66338,8832,683344,0
0,-1,642637,218006,1385002,65604,8344,691942,0
0,-1,653914,223078,1274114,69069,8891,636563,0
0,-1,639110,220195,1270989,66538,8632,634839,0
0,-1,632479,217912,1241765,65501,7438,620265,0
0,-1,640228,219686,1242521,66195,7877,620836,0
0,-1,636833,218634,1386625,65820,7901,692846,0
0,-1,636985,218700,1297380,65813,8822,648128,0
0,-1,631027,218215,1382615,65651,9020,690891,0
0,-1,632667,217889,1227065,65535,8172,612844,0
0,-1,637630,218434,1163667,65692,7083,581382,0
0,-1,636402,218931,1202122,65858,7212,600589,0
0,-1,660239,223726,1201691,69203,7487,600320,0
0,-1,640304,219522,1179799,66042,7675,589409,0
0,-1,633676,218409,1224627,65593,7546,611887,0
0,-1,633610,218064,1224760,65588,7131,611974,0
0,-1,636712,219137,1239849,65942,7176,619483,0
0,-1,640143,220344,1448493,66583,8830,723162,0
0,-1,642635,220909,1272660,66810,8281,635498,0
0,-1,638709,218384,1379135,65639,8150,689310,0
0,-1,638176,219961,1357751,66367,8209,678267,0
0,-1,658555,223151,1188959,69014,8278,594134,0
0,-1,637322,218578,1226979,65689,7292,613132,0
0,-1,642083,219651,1300684,66259,7556,649734,0
0,-1,642429,220237,1244031,66255,7585,621670,0
0,-1,637792,218328,1152899,65628,6512,576030,0
0,-1,638940,218473,1156063,65655,7097,577599,0
0,-1,636460,220130,1312320,66393,8015,655704,0
0,-1,634817,218354,1341631,65622,7694,670419,0
0,-1,636745,219045,1296404,65834,7232,647772,0
0,-1,642003,219362,1345180,65940,7820,671992,0
0,-1,637991,218465,1222166,65712,7457,610915,0
0,-1,638897,220121,1211336,66428,8366,604912,0
0,-1,639124,219490,1231484,65995,7428,615155,0
0,-1,639853,219665,1391369,66078,7429,694926,0
0,-1,639872,219048,1276408,65844,8814,637644,0
0,-1,638286,218733,1215240,65680,7386,607174,0
0,-1,662463,223500,1207525,69090,7687,603328,0
0,-1,641670,219328,1170302,65934,7699,584642,0
0,-1,637611,219119,1211067,65904,6474,604909,0
0,-1,637200,218177,1181831,65602,7282,590554,0
0,-1,640190,218979,1248121,65786,7809,623668,0
0,-1,663094,223166,1300821,68946,8461,649875,0
0,-1,637683,219010,1278326,65747,7901,638677,0
0,-1,640851,218661,1231523,65620,7739,615172,0
0,-1,645295,221223,1293700,66933,7970,645913,0
0,-1,640950,219157,1185964,65817,7717,592429,0
0,-1,645262,220842,1264600,66644,7511,631509,0
0,-1,644736,219903,1266964,66028,7370,633144,0
0,-1,642239,219287,1218771,65733,7853,608800,0
0,-1,636331,219539,1162652,65759,7483,580782,0
0,-1,638461,219683,1242556,65858,7997,620819,0
0,-1,643975,221091,1269433,66564,7471,633966,0
0,-1,638395,219124,1180828,65705,7735,589929,0
0,-1,640388,218652,1333203,65584,8576,666027,0
0,-1,642243,218720,1251123,65675,8568,624906,0
0,-1,643367,219341,1313225,65779,8483,656164,0
0,-1,662021,223436,1304570,69060,9758,651757,0
0,-1,639938,218748,1317877,65729,7518,658471,0
0,-1,638101,218354,1159806,65515,6638,579393,0
0,-1,640776,218183,1154797,65493,7598,576900,0
0,-1,639171,217808,1235173,65381,7621,617187,0
0,-1,635542,218357,1241425,65602,7314,620218,0
0,-1,635098,217800,1240669,65348,7530,619828,0
0,-1,635310,218024,1302451,65399,7905,650724,0
0,-1,639870,218545,1244805,65693,7486,621913,0
0,-1,637286,217733,1286304,65401,7263,642676,0
0,-1,636653,218969,1275400,65757,7158,637234,0
0,-1,641141,219748,1225765,66243,7108,612157,0
0,-1,639266,218757,1236506,65605,7859,617791,0
0,-1,639451,218553,1283002,65593,9005,640973,0
0,-1,640702,218381,1215012,65355,7339,607016,0
0,-1,672017,225290,1301019,69832,8680,650037,0
0,-1,667436,223893,1217002,68960,8612,607927,0
0,-1,639156,219327,1205881,65709,6753,602501,0
0,-1,637348,218402,1226187,65389,7272,612681,0
0,-1,639032,217954,1151289,65327,6658,575249,0
0,-1,642443,219927,1253552,66241,7336,626190,0
0,-1,637960,218340,1158281,65513,6939,578746,0
0,-1,640749,217925,1234523,65304,7926,616810,0
0,-1,658427,223156,1198122,68858,8123,598670,0
0,-1,636802,218400,1135410,65538,7153,567266,0
0,-1,640878,218161,1185542,65429,7934,592335,0
0,-1,661143,222991,1156510,68837,8047,577864,0
1,0,763423,267818,1491066,79344,9454,744814,11
1,-1,711621,240962,1332903,73750,7916,665976,0
1,-1,694564,238917,1348439,71569,7640,673406,2
1,-1,712844,241064,1268319,73765,9422,633837,0
1,-1,690433,236755,1223296,70629,6789,611073,0
1,-1,635851,217892,1148658,65450,6396,573826,0
1,-1,659004,222728,1310624,68715,8284,654756,0
1,-1,635040,218329,1224912,65506,7984,611876,0
1,-1,637410,218256,1208978,65434,7905,604099,0
1,-1,644067,220185,1258078,66304,8730,628008,0
1,-1,633120,218225,1268000,65577,8560,633255,0
1,-1,634838,217844,1270870,65413,8130,634993,0
1,-1,638088,219229,1320578,65979,8632,659817,0
1,-1,651190,221407,1262716,68453,7778,630743,0
1,-1,639358,220058,1328891,66483,8037,663559,0
1,-1,636952,218555,1222534,65588,7414,610849,0
1,-1,665115,224215,1285208,69855,8181,642166,0
1,-1,634226,217726,1262345,65320,7792,630618,0
1,-1,641929,219581,1251871,66399,7328,625222,0
1,-1,643578,219995,1246610,66423,7992,622553,0
1,-1,662289,223450,1176135,68993,8525,587638,0
1,-1,640386,218014,1162630,65460,7612,580737,0
1,-1,638551,219169,1169765,65772,7146,584403,0
1,-1,635563,218220,1118983,65492,7108,558940,0
1,-1,637525,218310,1254111,65471,7616,626957,0
1,-1,641722,220001,1345013,66320,8536,671282,0
1,-1,640322,218963,1158097,65902,7611,578483,0
1,-1,637277,218455,1193864,65832,7908,596329,0
1,-1,638826,218197,1118614,65706,7487,558663,0
1,-1,658373,222979,1210096,69041,7820,604727,0
1,-1,640841,219146,1247759,66005,7189,623463,0
1,-1,637650,218244,1168668,65707,7738,583766,0
1,-1,639656,217972,1263395,65599,8328,631204,0
1,-1,643803,219096,1306839,65995,8214,652880,0
1,-1,630535,217946,1284909,65634,8114,641993,0
1,-1,632437,218018,1182968,65560,8270,590674,0
1,-1,634026,218503,1197134,65797,7897,598126,0
1,-1,655057,222620,1227562,68956,8682,613210,0
1,-1,632894,217493,1294781,65515,7476,646826,0
1,-1,642715,220748,1340542,66794,8494,669278,0
1,-1,640130,219066,1289820,65988,8544,644416,0
1,-1,636749,219040,1184531,65948,8106,591775,0
1,-1,642034,220452,1267361,66617,7028,632961,0
1,-1,636914,219267,1233388,65961,6647,616267,0
1,-1,635534,218005,1156781,65515,6819,577920,0
1,-1,642479,219695,1277335,66276,8168,638053,0
1,-1,633496,218590,1225494,65768,7945,612149,0
1,-1,633206,218355,1213284,65627,6725,606260,0
1,-1,634437,218364,1164231,65616,7291,581705,0
1,-1,660609,223194,1293305,68956,9469,646122,0
1,-1,640187,220108,1324191,66419,8632,661231,0
1,-1,639962,218861,1376155,65770,7835,688050,0
1,-1,634482,218430,1286873,65632,8377,643051,0
1,-1,636238,218458,1268267,65659,7389,633679,0
1,-1,658381,223551,1219765,69141,7759,609338,0
1,-1,639562,218964,1183043,65885,7710,591045,0
1,-1,637445,218449,1234376,65645,7208,616804,0
1,-1,642372,220581,1231526,66600,6865,615025,0
1,-1,646116,220454,1222537,66636,7376,610473,0
1,-1,645314,219759,1234680,66077,7930,616734,0
1,-1,634686,219270,1170313,65923,6963,584604,0
1,-1,641446,220415,1313548,66590,7860,655646,0
1,-1,640554,219163,1258301,65844,7759,628660,0
1,-1,639286,219461,1260106,66210,7470,629479,0
1,-1,634932,218757,1162067,65746,7344,580476,0
1,-1,642948,221304,1290141,66874,8321,644099,0
1,-1,635728,217722,1227201,65376,7655,613123,0
1,-1,661636,223783,1192430,69219,8561,595751,0
1,-1,638772,218607,1378187,65605,7645,688695,0
1,-1,640679,219250,1235934,65921,7127,617501,0
1,-1,640894,218862,1124591,65821,6512,561753,0
1,-1,636169,218883,1186054,65876,6465,592517,0
1,-1,642853,220357,1269775,66603,7718,634095,0
1,-1,637307,218504,1150259,65704,6789,574642,0
1,-1,644379,219910,1362274,66081,7609,680670,0
1,-1,643944,220794,1259049,66687,8158,628579,0
1,-1,642376,219254,1369114,65764,8183,684147,0
1,-1,642398,220472,1270168,66412,7735,634222,0
1,-1,639442,219574,1166636,65955,6693,582833,0
1,-1,642914,219403,1188221,65974,7095,593572,0
1,-1,641841,219157,1158312,65863,6498,578576,0
1,-1,650759,221517,1279814,66755,7964,639022,0
1,-1,636661,219573,1353128,65894,7630,676141,0
1,-1,660541,224573,1198805,69266,8477,599008,0
1,-1,641496,219926,1154662,65998,7340,576802,0
1,-1,637621,219367,1262449,65821,8465,630576,0
1,-1,641460,219555,1264218,65956,8280,631618,0
1,-1,641770,218918,1301467,65745,8597,650168,0
1,-1,642449,219039,1310012,65686,9427,654374,0
1,-1,639065,218569,1163241,65620,7663,581146,0
1,-1,638339,218588,1326467,65685,8784,662598,0
1,-1,637554,218207,1261284,65464,8083,630109,0
1,-1,644160,219946,1202255,66366,8096,600252,0
1,-1,646155,220439,1270156,66599,8040,634214,0
1,-1,639196,220119,1249309,66402,7641,624003,0
1,-1,643871,220518,1257883,66529,7856,628074,0
1,-1,641980,218846,1205227,65713,7545,602043,0
1,-1,639990,219221,1233146,66044,7184,615915,0
1,-1,638497,218461,1212500,65676,6920,605803,0
1,-1,642723,218746,1243885,65669,7879,621410,0
1,-1,639199,219371,1154431,65909,6501,576686,0
1,-1,638982,218197,1320183,65481,7349,659682,0
1,-1,638674,218539,1246426,65516,8238,622749,0
1,-1,641559,219173,1352528,65683,9117,675942,0
1,-1,641408,218436,1167215,65376,6954,583218,0
1,-1,640896,218085,1178343,65216,8168,588766,0
1,-1,636580,218602,1155604,65439,7288,577421,0
1,-1,641771,220733,1243767,66458,7286,621265,0
1,-1,641247,219918,1203607,66183,6680,601156,0
1,-1,636533,217665,1320953,65241,7099,660072,0
1,-1,663078,223098,1176199,68840,7813,587667,0
1,-1,662018,223565,1308523,68988,8305,653744,0
1,-1,639136,219054,1222855,65933,7050,610801,0
1,-1,645214,220017,1187126,66316,7797,592732,0
1,-1,639496,218036,1307653,65363,7966,653432,0
1,-1,639804,218210,1172035,65467,7812,585588,0
2,0,760316,265929,1474996,78480,8785,737030,11
2,-1,687672,235997,1357434,70297,6651,678341,0
2,-1,690528,236330,1209520,70448,7572,604334,0
2,-1,689791,237347,1345853,70917,7992,672080,0
2,-1,682038,234463,1296377,69844,7220,647594,2
2,-1,638913,219265,1244211,66211,6968,621288,0
2,-1,638414,219125,1281913,66045,7910,640203,0
2,-1,641578,218779,1462021,65645,9691,730574,0
2,-1,638780,217528,1227247,65264,8766,613203,0
2,-1,638988,218075,1225721,65484,8232,612260,0
2,-1,652815,222286,1282309,68623,8582,640744,0
2,-1,636926,218570,1249741,65743,8655,624347,0
2,-1,632119,217570,1169155,65236,7752,584304,0
2,-1,632433,217915,1251745,65452,7509,625187,0
2,-1,654168,222565,1251782,68822,7428,625534,0
2,-1,634998,218465,1348832,65540,7909,673951,0
2,-1,636001,217596,1258548,65339,7937,628627,0
2,-1,635149,218383,1186150,65441,8151,592517,0
2,-1,636994,217780,1207966,65440,7634,603314,0
2,-1,640509,218923,1184421,65909,7007,591629,0
2,-1,638917,218361,1122745,65561,7714,560910,0
2,-1,644007,219652,1241735,66125,7983,620237,0
2,-1,638818,218478,1163365,65497,7184,581275,0
2,-1,642549,219116,1134253,65744,8029,566591,0
2,-1,644592,220761,1343814,66636,7975,671086,0
2,-1,640615,219042,1248297,65805,7698,623645,0
2,-1,636388,217902,1224564,65527,7362,611884,0
2,-1,643366,218130,1245139,65679,7465,622257,0
2,-1,637904,217879,1189129,65525,7665,593911,0
2,-1,635270,217914,1237384,65621,7479,618179,0
2,-1,638049,218152,1156751,65674,6902,577862,0
2,-1,641394,219715,1356124,66402,8474,677357,0
2,-1,643087,218718,1221238,65816,7782,609932,0
2,-1,642757,219115,1338118,66197,9204,668061,0
2,-1,634766,219945,1298686,66452,7951,648646,0
2,-1,633880,218171,1251255,65648,7906,625232,0
2,-1,636753,219186,1285213,66235,7880,641971,0
2,-1,637655,218650,1200488,65857,7735,599662,0
2,-1,635602,218953,1385062,66165,8632,691892,0
2,-1,632169,217541,1285035,65397,8391,641909,0
2,-1,641457,219255,1363319,66248,9045,680887,0
2,-1,634840,218165,1154517,65689,7071,576832,0
2,-1,638135,218388,1195601,65743,7821,597282,0
2,-1,632249,217790,1149673,65369,6958,574442,0
2,-1,638206,219587,1165424,66085,6495,582260,0
2,-1,638004,218506,1321907,65675,9036,660427,0
2,-1,637518,220683,1263870,66674,7796,631136,0
2,-1,639383,219410,1175144,65990,6753,587107,0
2,-1,637418,218515,1248392,65623,6599,623779,0
2,-1,640846,219317,1303511,65975,8101,651073,0
2,-1,632884,217534,1193065,65403,7863,596379,0
2,-1,638467,218711,1275999,65774,7368,636960,0
2,-1,646609,220873,1358454,66735,8550,678379,0
2,-1,637467,219338,1192996,65996,7509,595695,0
2,-1,637217,219377,1276041,65934,6964,637486,0
2,-1,639796,219286,1263194,65928,7554,631211,0
2,-1,641122,220340,1357218,66513,7729,677761,0
2,-1,639689,218432,1189257,65694,7997,594196,0
2,-1,661151,222995,1190256,68962,7943,594674,0
2,-1,661062,222868,1175469,68838,8100,587381,0
2,-1,637100,218903,1138878,65843,7783,568889,0
2,-1,638725,219348,1253126,65975,7927,626048,0
2,-1,637366,218110,1173704,65479,7372,586352,0
2,-1,636798,218525,1192907,65740,7051,595616,0
2,-1,636878,218713,1192631,65795,7397,595676,0
2,-1,657405,223380,1220192,69059,8874,609413,0
2,-1,638535,219244,1191739,65943,7273,595291,0
2,-1,639127,218648,1230867,65733,7540,614989,0
2,-1,636257,218264,1351954,65583,7178,675470,0
2,-1,632978,216714,1162174,65066,6740,580654,0
2,-1,659163,222724,1197762,68827,7630,598419,0
2,-1,637770,219602,1257642,66168,7463,627881,0
2,-1,656926,222693,1179702,68875,8109,589438,0
2,-1,642575,220430,1272456,66592,7913,635476,0
2,-1,640345,218708,1166689,65717,7030,582892,0
2,-1,636823,218461,1185590,65497,7053,592319,0
2,-1,642265,219513,1297321,65894,8228,648095,0
2,-1,637631,218889,1183978,65680,7674,591444,0
2,-1,643905,219507,1245065,66022,8237,622098,0
2,-1,642763,219454,1225786,66017,6859,612714,0
2,-1,647872,221272,1317770,66826,7441,657975,0
2,-1,643060,219016,1175716,65635,7256,587384,0
2,-1,639704,220969,1266512,66530,8044,632524,0
2,-1,639016,220148,1276097,66015,8099,637558,0
2,-1,643300,219708,1242705,65887,7439,620822,0
2,-1,642091,221481,1318880,66683,8627,658667,0
2,-1,643861,220824,1312236,66645,8126,655173,0
2,-1,662118,223416,1183321,68989,8032,591016,0
2,-1,663035,223509,1339845,68905,10063,669305,0
2,-1,641859,219638,1351263,65882,9026,674985,0
2,-1,643153,220154,1273878,66187,8795,636291,0
2,-1,642940,220789,1353625,66706,8374,675846,0
2,-1,636923,217561,1161921,65200,7114,580487,0
2,-1,640019,218884,1347101,65834,7683,672825,0
2,-1,638256,219087,1258517,65852,7558,628742,0
2,-1,638794,218790,1161127,65658,7103,579951,0
2,-1,639879,218311,1335909,65524,7837,667445,0
2,-1,636291,218111,1249363,65506,7446,624237,0
2,-1,638440,218034,1241058,65456,7248,620113,0
2,-1,641146,218172,1139758,65525,7470,569395,0
2,-1,643299,220422,1329025,66514,8210,663805,0
2,-1,660301,223301,1193322,68994,8087,596199,0
2,-1,647676,220440,1269317,66494,8347,633758,0
2,-1,644003,220640,1250497,66321,7792,624531,0
2,-1,636840,217093,1251356,64964,8022,625144,0
2,-1,644305,218794,1296756,65432,8627,647834,0
2,-1,638185,218914,1278704,65564,8367,638626,0
2,-1,640869,219017,1291089,65594,7261,645084,0
2,-1,636724,217887,1160010,65302,7212,579555,0
2,-1,633287,217437,1228664,65110,6774,613936,0
2,-1,640396,218382,1225081,65514,7495,612121,0
2,-1,640817,218145,1304732,65444,7773,651895,0
2,-1,634523,217528,1217056,65132,7110,608099,0
2,-1,638191,217686,1156458,65244,7264,577874,0
2,-1,660515,222452,1278621,68628,8387,638883,0
2,-1,639029,217976,1123867,65346,7131,561485,0
2,-1,659622,222203,1214624,68483,8494,606882,0
3,0,759191,265515,1547297,78376,9045,773181,11
3,-1,689248,236432,1252046,70424,6744,625514,0
3,-1,690087,236512,1267527,70510,7259,633293,0
3,-1,688310,237061,1306834,70700,7598,652924,0
3,-1,657419,222782,1256698,68895,8129,627874,0
3,-1,631427,217479,1095480,65414,6336,547162,2
3,-1,635784,217620,1146356,65399,6839,572805,0
3,-1,644914,220615,1317297,66536,8441,657960,0
3,-1,635760,217896,1172446,65394,7465,585707,0
3,-1,637138,217773,1180617,65408,8274,589830,0
3,-1,632057,217719,1405599,65368,8431,702323,0
3,-1,635069,218682,1215869,65680,7601,607429,0
3,-1,636822,218812,1162363,65635,8510,580421,0
3,-1,637471,217969,1238643,65514,7508,618671,0
3,-1,635790,217767,1315810,65412,8600,657521,0
3,-1,633965,217014,1229443,64980,8742,614282,0
3,-1,636505,218141,1233759,65547,8094,616284,0
3,-1,635075,218265,1236459,65563,7867,617772,0
3,-1,641116,220203,1341451,66466,8948,669721,0
3,-1,649176,221545,1292653,66996,8080,645512,0
3,-1,638373,218380,1168210,65510,7903,583691,0
3,-1,640764,218512,1183259,65628,7948,590995,0
3,-1,643486,220787,1280923,66593,8275,639572,0
3,-1,641343,218927,1199333,65631,7961,599162,0
3,-1,660296,223624,1203552,69091,8514,601294,0
3,-1,643946,220782,1257724,66635,7802,628101,0
3,-1,641513,219921,1256833,66401,7540,627487,0
3,-1,641618,218660,1266117,65804,7834,632591,0
3,-1,638629,218437,1224302,65799,7922,611541,0
3,-1,641281,219395,1180092,66093,7892,589657,0
3,-1,661018,222580,1198073,68866,8267,598406,0
3,-1,638121,218449,1273536,65706,8406,636386,0
3,-1,642279,218396,1254737,65717,7552,626882,0
3,-1,646895,220345,1267096,66684,9317,632970,0
3,-1,635489,218096,1217492,65672,7292,607834,0
3,-1,658715,226904,1315272,68231,8099,657185,0
3,-1,631810,217895,1285177,65566,7981,642113,0
3,-1,636364,218596,1211049,65787,8105,605074,0
3,-1,634317,218160,1291148,65692,8270,645003,0
3,-1,632984,218189,1253584,65712,7379,626218,0
3,-1,637987,218276,1274785,65691,8189,636584,0
3,-1,635139,218623,1219965,65877,6976,609357,0
3,-1,636498,218134,1231468,65619,7752,615205,0
3,-1,655767,223385,1179241,69096,8211,589270,0
3,-1,633799,218223,1126112,65567,6655,562684,0
3,-1,640586,219401,1333770,65994,7918,665951,0
3,-1,642621,218944,1235506,65858,7503,617311,0
3,-1,655676,223245,1189132,69049,7306,594208,0
3,-1,636955,218673,1287602,65772,7025,643321,0
3,-1,638491,218653,1230859,65824,8232,614853,0
3,-1,639629,219084,1392559,65834,8243,695752,0
3,-1,641127,219721,1323033,66289,8127,660856,0
3,-1,639535,218545,1300203,65737,7605,649563,0
3,-1,637884,219586,1286834,66248,7920,642459,0
3,-1,634661,218266,1238682,65568,7088,618504,0
3,-1,639528,218926,1256089,65873,7636,627566,0
3,-1,641511,219673,1361531,66110,7584,680033,0
3,-1,638587,218407,1250531,65578,7802,624849,0
3,-1,642485,219283,1235241,65905,7051,617210,0
3,-1,642032,219071,1241999,65848,7549,620642,0
3,-1,639342,219827,1221155,66336,8516,609569,0
3,-1,635196,218371,1225547,65617,7224,612308,0
3,-1,643576,221012,1317194,66755,7881,657714,0
3,-1,640085,220065,1208905,66358,7723,603606,0
3,-1,642235,219437,1280933,66020,7085,640033,0
3,-1,639137,218774,1261753,65766,7790,630443,0
3,-1,637191,219050,1303133,65863,7639,651150,0
3,-1,637304,218575,1215333,65737,7283,607179,0
3,-1,641944,220603,1316577,66644,7816,657423,0
3,-1,640025,219179,1205466,65876,6853,602257,0
3,-1,637113,217929,1235725,65474,6799,617568,0
3,-1,635172,218245,1299485,65488,7289,649399,0
3,-1,637011,218464,1185709,65737,6846,592259,0
3,-1,659936,223624,1215763,69165,8252,607419,0
3,-1,639766,218552,1235048,65696,7497,617049,0
3,-1,642144,220180,1273505,66353,7452,636093,0
3,-1,643341,220429,1271973,66431,8025,635091,0
3,-1,639791,218312,1219361,65512,7529,609122,0
3,-1,646845,220628,1274460,66534,8218,636616,0
3,-1,667634,225056,1224691,69665,8271,611784,0
3,-1,664501,223989,1282049,69288,8327,640534,0
3,-1,644041,219684,1228886,65902,7780,614019,0
3,-1,644624,220262,1177682,66063,7357,588349,0
3,-1,638590,219849,1337026,65977,8248,667964,0
3,-1,640690,219699,1246178,65929,7755,622590,0
3,-1,643732,219706,1344807,65826,7893,671914,0
3,-1,640686,219223,1319468,65827,8775,659022,0
3,-1,639915,219376,1299628,65869,8542,649277,0
3,-1,644723,219958,1344349,66045,9325,671586,0
3,-1,640113,219043,1312852,65709,8766,655688,0
3,-1,645308,220879,1325364,66693,8285,661943,0
3,-1,659805,223684,1185739,69099,7960,592395,0
3,-1,642691,219534,1259166,66135,7292,628771,0
3,-1,644960,220002,1266682,66378,8332,632678,0
3,-1,634931,218259,1173811,65633,7651,586356,0
3,-1,638626,218823,1246247,65704,7221,622655,0
3,-1,637800,218104,1228444,65435,7707,613719,0
3,-1,637470,217597,1237861,65341,7491,618422,0
3,-1,661402,223645,1203371,69107,7888,601122,0
3,-1,640913,218496,1205148,65704,7424,601985,0
3,-1,661858,224013,1337525,69208,8740,668112,0
3,-1,639840,219286,1255966,65867,7650,627400,0
3,-1,663668,223291,1187396,68900,8265,593121,0
3,-1,640437,218044,1259670,65185,7812,629381,0
3,-1,642040,218209,1223114,65297,7910,611061,0
3,-1,643833,219171,1187090,65609,8388,592783,0
3,-1,637519,218757,1266690,65499,8083,632858,0
3,-1,640021,218604,1232202,65459,7398,615607,0
3,-1,666980,228246,1348112,68347,7536,673640,0
3,-1,657626,222817,1156061,68746,7621,577647,0
3,-1,641396,218941,1249153,65713,7262,624149,0
3,-1,638150,218315,1179460,65439,7140,589239,0
3,-1,637258,217881,1282564,65330,7686,640908,0
3,-1,638197,218250,1204359,65437,6801,601682,0
3,-1,666154,228051,1267220,68586,7264,632802,0
3,-1,642212,219671,1203529,66129,7076,601053,0
3,-1,639635,218182,1158953,65396,6891,579057,0
4,-1,691400,236141,1207710,70338,7264,603412,0
4,0,766452,267479,1554497,79246,9552,776560,11
4,-1,690215,236073,1298874,70405,7837,648933,0
4,-1,693648,236066,1309717,70325,8744,654488,0
4,-1,634272,217753,1249292,65451,7113,624211,0
4,-1,635038,217810,1248458,65500,7699,623622,0
4,-1,638042,218207,1146062,65496,8364,572530,0
4,-1,637338,218488,1260310,65511,7500,629687,0
4,-1,637858,218096,1211482,65453,8123,605231,2
4,-1,645026,220385,1313963,66562,9201,656276,0
4,-1,639422,217424,1179260,65144,7958,589154,0
4,-1,652789,222286,1270935,68685,7850,634995,0
4,-1,631421,217136,1125966,65224,7713,562586,0
4,-1,636454,217860,1240293,65411,7384,619895,0
4,-1,637470,218921,1247308,66027,8477,622850,0
4,-1,658906,222687,1273842,68727,8315,636511,0
4,-1,635398,217624,1268731,65349,7765,633840,0
4,-1,632956,217403,1204447,65320,7808,601739,0
4,-1,636339,217656,1247120,65317,8199,623488,0
4,-1,640521,218694,1357374,65746,7748,677702,0
4,-1,639163,218740,1135543,65614,7690,567212,0
4,-1,639850,218260,1256007,65494,7368,627651,0
4,-1,642894,220395,1356854,66402,8306,677684,0
4,-1,641261,218897,1182220,65637,7575,590706,0
4,-1,637696,218099,1156675,65495,7822,577707,0
4,-1,657632,222575,1200923,68759,8644,600014,0
4,-1,658904,222918,1199253,68881,7877,599205,0
4,-1,638684,217764,1232687,65413,7131,615786,0
4,-1,637106,217886,1177252,65581,7214,588103,0
4,-1,638049,218229,1128824,65675,7397,563923,0
4,-1,640576,218544,1288017,65821,7565,643472,0
4,-1,642197,218264,1160278,65720,6898,579803,0
4,-1,643665,219323,1278962,66244,8398,638806,0
4,-1,662302,222689,1227372,68941,9251,613208,0
4,-1,642984,218171,1261092,65721,8192,630137,0
4,-1,640285,221097,1456269,66899,8967,727149,0
4,-1,634755,218904,1382922,65950,8853,690755,0
4,-1,636588,218708,1253528,65851,7905,625961,0
4,-1,632778,217923,1347758,65511,8620,673382,0
4,-1,644012,220709,1500345,66829,8748,749036,0
4,-1,659743,223224,1315867,69116,9727,657462,0
4,-1,635553,218961,1276800,66124,7548,637655,0
4,-1,636317,218155,1345560,65627,7449,671976,0
4,-1,641283,218903,1247193,65796,7299,623132,0
4,-1,657757,222844,1216643,68920,8231,607880,0
4,-1,636304,218182,1230948,65528,8038,614842,0
4,-1,639232,218077,1261024,65494,7609,630081,0
4,-1,632864,218047,1226937,65530,7196,613008,0
4,-1,635968,218356,1221496,65616,6639,610295,0
4,-1,643653,221284,1238666,66861,8309,618753,0
4,-1,637097,218479,1205057,65675,7620,601825,0
4,-1,635964,218140,1298727,65554,7643,648851,0
4,-1,640275,218832,1217898,65779,6777,608464,0
4,-1,636489,218643,1181745,65700,7845,590262,0
4,-1,641666,219725,1350641,66300,8008,674728,0
4,-1,636363,218006,1221315,65492,7906,610183,0
4,-1,635241,218336,1193219,65609,8023,595927,0
4,-1,638786,217855,1201688,65473,8082,600224,0
4,-1,640612,219641,1219242,66284,7153,608968,0
4,-1,645165,220365,1347311,66459,7520,672948,0
4,-1,634979,218534,1231711,65671,7682,615445,0
4,-1,635914,218699,1251432,65760,7610,625259,0
4,-1,638933,219012,1244991,65871,8059,621885,0
4,-1,634277,218356,1162197,65666,6630,580641,0
4,-1,638784,218700,1214101,65791,7673,606608,0
4,-1,637052,218505,1220962,65581,7460,609897,0
4,-1,642893,220126,1272019,66431,8244,635420,0
4,-1,638629,219355,1280275,66238,7891,639444,0
4,-1,656653,223092,1182260,68962,7085,590542,0
4,-1,640148,219214,1243059,65804,6581,621193,0
4,-1,639576,219086,1242596,65884,6654,620943,0
4,-1,655439,223648,1202792,69058,7564,600850,0
4,-1,638654,219601,1258634,66264,6762,628459,0
4,-1,636756,218621,1279885,65739,7483,639478,0
4,-1,639398,218913,1184701,65653,7405,591865,0
4,-1,637105,218591,1159473,65647,7008,579201,0
4,-1,659024,223096,1216470,68864,8316,607759,0
4,-1,644365,220402,1217145,66422,8238,607800,0
4,-1,660871,223154,1227802,69030,8301,613391,0
4,-1,644643,219677,1247351,66116,7459,623137,0
4,-1,642568,219382,1127780,65970,6715,563363,0
4,-1,644960,219813,1160052,66026,7742,579482,0
4,-1,647963,220598,1250005,66191,7999,624504,0
4,-1,642696,220737,1258021,66450,8280,628229,0
4,-1,658833,224099,1319694,69143,8364,659480,0
4,-1,643568,220007,1225386,66047,7548,611963,0
4,-1,637799,218999,1167971,65789,7151,583413,0
4,-1,640269,219592,1240790,66026,8291,619844,0
4,-1,642667,219209,1241205,65732,8579,620327,0
4,-1,642362,220156,1310459,66324,8810,654485,0
4,-1,659247,223169,1315826,68937,9287,657427,0
4,-1,635715,218209,1230259,65502,7902,614678,0
4,-1,639381,218602,1171433,65654,7092,585208,0
4,-1,643362,219249,1178181,65951,7600,588574,0
4,-1,639370,220390,1325595,66584,7924,661869,0
4,-1,637095,218652,1276246,65645,7653,637635,0
4,-1,640186,218458,1160836,65604,7375,579868,0
4,-1,658963,223078,1328251,68906,8028,663533,0
4,-1,637737,218406,1242083,65590,6631,620621,0
4,-1,641542,218954,1173114,65861,7878,585859,0
4,-1,638450,218855,1349464,65755,7585,674525,0
4,-1,641646,218947,1226180,65728,8067,612568,0
4,-1,640072,218159,1139844,65396,6663,569452,0
4,-1,642328,218944,1172257,65540,8041,585630,0
4,-1,647412,220254,1269857,66195,7741,634296,0
4,-1,643438,218830,1200987,65455,8665,599991,0
4,-1,658921,223585,1198795,68787,8466,598900,0
4,-1,638620,218694,1233295,65482,7319,616197,0
4,-1,638695,218692,1102986,65496,6562,551111,0
4,-1,636881,218571,1147812,65513,6575,573519,0
4,-1,637862,218379,1252606,65466,6668,625908,0
4,-1,659822,222711,1182365,68712,7885,590812,0
4,-1,658723,223704,1200925,69034,7853,600078,0
4,-1,640005,219429,1237820,66056,7149,618161,0
4,-1,642012,219042,1150123,65716,7753,574571,0
4,-1,639514,218345,1162248,65500,7245,580634,0
4,-1,645942,220118,1234060,66240,8351,616383,0
5,-1,690345,236491,1294654,70499,7169,646810,0
5,0,762056,265841,1472119,78521,9585,735558,11
5,-1,690815,236649,1222344,70499,7071,610720,0
5,-1,716639,241985,1387111,74045,9612,693214,0
5,-1,635226,218612,1162747,65765,6131,580755,0
5,-1,638868,217893,1192527,65469,7687,595770,0
5,-1,638824,218182,1197356,65497,7368,597615,0
5,-1,638748,218909,1261146,65719,8475,629825,0
5,-1,638858,218195,1162260,65563,7402,580619,0
5,-1,637111,218308,1270109,65656,8336,634624,2
5,-1,641499,218444,1324660,65578,9004,661840,0
5,-1,632865,217645,1308737,65358,7976,653680,0
5,-1,632068,217916,1155494,65500,7527,576921,0
5,-1,636918,218306,1200288,65550,7787,599719,0
5,-1,633841,217783,1196220,65527,6934,597671,0
5,-1,639378,219661,1256022,66085,8296,627310,0
5,-1,638283,217904,1184157,65433,7708,591429,0
5,-1,640044,220539,1298808,66598,8675,648477,0
5,-1,636007,217425,1307410,65284,8264,653359,0
5,-1,635729,217337,1161405,65372,7146,580179,0
5,-1,642236,218444,1198064,65534,7088,598606,0
5,-1,640044,218229,1148013,65500,7173,573492,0
5,-1,636667,218442,1250011,65615,8001,624511,0
5,-1,643646,220561,1282389,66482,8312,640645,0
5,-1,641773,219955,1289251,66020,7414,644111,0
5,-1,639898,219109,1178771,65827,7156,588833,0
5,-1,637054,218371,1237793,65648,7016,618479,0
5,-1,643287,220257,1282479,66601,7587,640474,0
5,-1,643943,220976,1281688,66878,7990,640221,0
5,-1,644838,220271,1204392,66572,8067,601505,0
5,-1,642575,219516,1342438,66067,7903,670878,0
5,-1,640853,218897,1275093,65863,7805,637084,0
5,-1,645290,220428,1284202,66694,8805,641407,0
5,-1,641170,218447,1259700,65773,8684,629527,0
5,-1,644268,218716,1222237,65854,7873,610765,0
5,-1,637529,219262,1205029,66056,8138,602070,0
5,-1,631190,217897,1279681,65510,8215,639125,0
5,-1,634910,217899,1186535,65566,7505,592827,0
5,-1,634660,218043,1291503,65603,8772,645548,0
5,-1,636970,218345,1280536,65700,7601,639529,0
5,-1,635833,218111,1313083,65633,8040,656094,0
5,-1,632148,217935,1204512,65631,7158,601709,0
5,-1,653937,222310,1276010,68849,8315,637536,0
5,-1,640080,218996,1176117,65855,6945,587541,0
5,-1,634468,217797,1217240,65445,6989,608222,0
5,-1,637855,218740,1346831,65793,7838,672924,0
5,-1,645834,220515,1286929,66516,8470,642820,0
5,-1,634970,219267,1200531,65959,6989,599765,0
5,-1,657523,223519,1215825,69128,7839,607544,0
5,-1,636901,219178,1336540,65926,8309,667641,0
5,-1,635525,218932,1287200,65806,7795,642825,0
5,-1,658159,223539,1161065,69129,7527,579929,0
5,-1,637978,218393,1131089,65686,6345,565055,0
5,-1,637025,218129,1245683,65544,7979,622269,0
5,-1,637673,218773,1229413,65792,6987,614200,0
5,-1,661344,223096,1209261,69017,7935,604162,0
5,-1,635799,218884,1240266,65791,7881,619861,0
5,-1,643727,220469,1229882,66673,7942,613916,0
5,-1,640319,218796,1131979,65826,6359,565449,0
5,-1,641387,219188,1264737,65916,7098,631967,0
5,-1,634892,218942,1228391,65790,7663,613723,0
5,-1,633987,218362,1232330,65583,7141,615651,0
5,-1,636916,218357,1231601,65620,7075,615350,0
5,-1,641814,220880,1228640,66738,8189,613333,0
5,-1,636299,218401,1201060,65689,7108,600005,0
5,-1,641349,220110,1500262,66403,8319,749183,0
5,-1,659189,223239,1234022,68995,8572,616382,0
5,-1,639085,218590,1202302,65761,7584,600585,0
5,-1,638817,218555,1220505,65633,7544,609628,0
5,-1,643312,220745,1284564,66741,7756,641674,0
5,-1,637625,218742,1170783,65770,6765,584963,0
5,-1,641713,218734,1256820,65640,7512,627914,0
5,-1,634338,218003,1353906,65520,7115,676301,0
5,-1,663617,228293,1325682,68632,6984,662258,0
5,-1,639224,218425,1277192,65495,7890,638026,0
5,-1,637187,218928,1252630,65700,7498,625778,0
5,-1,641731,219288,1279508,65847,8530,639301,0
5,-1,643403,219322,1134160,65902,7456,566589,0
5,-1,639256,218758,1226662,65732,7555,612733,0
5,-1,641809,219062,1249921,65854,7717,624541,0
5,-1,644997,219859,1318441,66159,7494,658661,0
5,-1,646576,219452,1178333,65782,6941,588677,0
5,-1,649631,221256,1260731,66585,8079,629685,0
5,-1,636613,218825,1164222,65581,7783,581599,0
5,-1,645450,220708,1381334,66238,8410,690246,0
5,-1,646384,221576,1278614,66798,7969,638282,0
5,-1,637477,218960,1290567,65714,7714,644779,0
5,-1,638144,218937,1347773,65721,9161,673462,0
5,-1,644980,220519,1314083,66501,8727,656108,0
5,-1,640078,219553,1400199,65846,8369,699689,0
5,-1,638595,219137,1313293,65780,8440,656009,0
5,-1,636694,218432,1158152,65598,7119,578596,0
5,-1,640039,218899,1307007,65736,7479,653074,0
5,-1,639619,218229,1225922,65513,7701,612441,0
5,-1,655955,223215,1308102,69013,7836,653532,0
5,-1,643866,220564,1247777,66652,7822,622999,0
5,-1,659014,222641,1224486,68684,7907,611790,0
5,-1,637147,218207,1178190,65465,7352,588558,0
5,-1,639731,218153,1256001,65533,8017,627542,0
5,-1,637324,217600,1226314,65317,7230,612752,0
5,-1,637332,218498,1340652,65573,7705,669874,0
5,-1,639008,218341,1214683,65538,7237,606844,0
5,-1,643684,220331,1229407,66392,7083,613899,0
5,-1,640941,219023,1241015,65617,8105,619926,0
5,-1,645302,219769,1174593,65848,7267,586797,0
5,-1,643065,219091,1202966,65594,8376,600941,0
5,-1,638068,219448,1263669,65720,7717,631321,0
5,-1,637200,218380,1172670,65398,6817,585932,0
5,-1,638040,218817,1161670,65586,6711,580296,0
5,-1,639488,220111,1223153,66221,7265,610945,0
5,-1,637825,217904,1241750,65340,7112,620423,0
5,-1,638536,218532,1206589,65565,6834,602884,0
5,-1,634639,217913,1152618,65250,7222,575788,0
5,-1,637253,217745,1352081,65292,7121,675659,0
5,-1,637989,217991,1233251,65344,7009,616176,0
5,-1,659305,222860,1235344,68703,8013,617313,0
5,-1,637982,217746,1165111,65284,7181,582008,0
6,-1,690012,236566,1228685,70552,7204,613880,0
6,0,756356,265452,1529177,78355,9108,764150,11
6,-1,710588,240804,1403222,73639,8304,701079,0
6,-1,692652,236591,1331004,70450,8384,665096,0
6,-1,646987,223186,1272918,66982,6978,635782,0
6,-1,638955,218512,1191900,65709,7887,595536,0
6,-1,641609,219705,1272975,66156,7798,635926,0
6,-1,635567,217835,1165145,65382,7710,581997,0
6,-1,637014,217706,1323507,65381,7713,661275,0
6,-1,646785,220954,1401105,66639,8968,699728,0
6,-1,662967,228028,1318359,68704,9590,658620,0
6,-1,633468,218320,1146136,65584,8192,572616,0
6,-1,640404,219928,1261986,66417,8721,630395,0
6,-1,632700,217570,1247330,65356,7372,623419,0
6,-1,637679,218279,1209544,65512,7986,604311,0
6,-1,633919,217827,1231964,65298,8489,615191,2
6,-1,637064,218042,1308922,65359,8308,654041,0
6,-1,654816,222719,1221008,68818,8715,609997,0
6,-1,658168,222652,1301582,68715,8777,650264,0
6,-1,637893,218756,1234386,65790,6983,616548,0
6,-1,644255,220101,1282941,66466,6899,640723,0
6,-1,644493,220038,1262111,66340,7414,630510,0
6,-1,635167,218263,1160436,65570,7491,579671,0
6,-1,640272,219009,1264043,65717,7298,631738,0
6,-1,638672,218462,1254116,65498,7632,626580,0
6,-1,662630,223172,1235083,68951,9440,617160,0
6,-1,636611,218175,1383697,65502,7627,691319,0
6,-1,660219,223159,1292075,69058,7888,645752,0
6,-1,658256,222945,1223572,69053,8110,611267,0
6,-1,659415,222764,1166402,68979,8823,582672,0
6,-1,639478,218343,1245033,65759,7741,621906,0
6,-1,643504,219587,1265660,66327,7647,632036,0
6,-1,660273,222947,1197365,69068,8852,597927,0
6,-1,641350,218518,1256244,65736,8491,627738,0
6,-1,648202,220468,1285330,66699,8800,641879,0
6,-1,637150,219641,1330584,66358,8889,664707,0
6,-1,657556,222697,1305937,68949,9584,652390,0
6,-1,655079,222645,1217573,68967,8512,608175,0
6,-1,654017,223024,1249773,69068,8399,624265,0
6,-1,637208,218710,1240975,65901,8673,619976,0
6,-1,638520,219141,1232813,65950,8640,615995,0
6,-1,634450,218782,1255138,65861,7172,627089,0
6,-1,636118,218603,1281391,65798,7066,640246,0
6,-1,641141,219925,1248403,66303,6814,623634,0
6,-1,635535,218561,1229832,65736,6922,614481,0
6,-1,637181,218926,1220654,65734,6955,609887,0
6,-1,640733,218836,1258694,65840,7485,628856,0
6,-1,637148,219753,1264954,66307,6936,631827,0
6,-1,637259,219064,1236689,65920,7636,617813,0
6,-1,637015,218508,1226985,65682,7313,613101,0
6,-1,636033,218421,1154415,65633,7159,576598,0
6,-1,640013,219232,1277945,65940,7868,638497,0
6,-1,641216,219707,1250460,66251,6915,624600,0
6,-1,637398,218884,1368366,65788,7416,683186,0
6,-1,637952,219264,1217169,65837,6979,608172,0
6,-1,637793,218643,1246294,65716,7474,622679,0
6,-1,642344,219296,1266939,65952,8007,632881,0
6,-1,642895,220286,1206607,66507,8168,602478,0
6,-1,638251,218286,1286744,65602,6494,642906,0
6,-1,639155,218481,1218650,65576,6989,608880,0
6,-1,639034,220673,1299144,66685,8189,648590,0
6,-1,664631,228004,1308233,68546,7563,653738,0
6,-1,638340,219317,1274262,66120,7612,636343,0
6,-1,636677,219229,1194853,65855,7491,596837,0
6,-1,637229,218663,1261022,65773,7142,629923,0
6,-1,633945,218138,1300875,65523,8433,649877,0
6,-1,639734,218988,1273134,65827,8145,636133,0
6,-1,637995,218392,1209283,65708,7603,604324,0
6,-1,639847,218258,1205628,65593,7933,602205,0
6,-1,660056,222976,1215068,68867,8030,607071,0
6,-1,640403,218205,1183702,65557,7271,591362,0
6,-1,641285,219001,1262885,65711,8550,630706,0
6,-1,636975,219398,1274442,66024,6658,636716,0
6,-1,635882,218214,1169810,65603,6859,584378,0
6,-1,642702,220447,1269774,66532,7787,634080,0
6,-1,637901,219015,1179434,65783,7055,589170,0
6,-1,643334,220228,1269908,66337,7978,634225,0
6,-1,640020,218182,1184574,65472,6764,591868,0
6,-1,639432,218049,1261396,65510,7943,630122,0
6,-1,648259,221455,1348165,66844,7820,673301,0
6,-1,662974,224311,1209326,69435,7924,604150,0
6,-1,647056,220206,1226890,66078,6537,612989,0
6,-1,649157,220834,1384374,66209,8125,691810,0
6,-1,638354,219650,1285582,65854,7896,642347,0
6,-1,644516,220876,1273555,66489,8091,635946,0
6,-1,639930,218853,1177360,65544,7061,588271,0
6,-1,644988,221342,1302817,66781,8285,650399,0
6,-1,642746,219460,1302917,65955,9019,650795,0
6,-1,641042,219438,1247766,65958,8278,623189,0
6,-1,645289,221748,1221663,66925,8965,609912,0
6,-1,637148,217855,1347074,65356,9066,672892,0
6,-1,645431,219935,1274054,66300,7735,636360,0
6,-1,663196,223556,1227607,69027,8396,613376,0
6,-1,642641,219800,1260424,66283,8253,629491,0
6,-1,643420,218477,1185399,65656,7391,592202,0
6,-1,659507,223316,1170504,69057,8291,584682,0
6,-1,642197,220281,1248032,66449,7804,623117,0
6,-1,642357,219661,1286933,66179,7879,642745,0
6,-1,639570,218152,1292461,65513,7968,645832,0
6,-1,640672,218425,1218291,65682,7964,608559,0
6,-1,640556,219169,1357112,65861,7979,677994,0
6,-1,641209,219183,1320061,65848,7874,659043,0
6,-1,661446,223463,1183581,68964,7882,591397,0
6,-1,639471,218110,1160100,65228,7797,579535,0
6,-1,643235,219001,1248695,65540,7842,623852,0
6,-1,640598,218200,1267760,65257,8801,633061,0
6,-1,636923,218682,1411534,65396,7837,705384,0
6,-1,642730,220582,1219114,66368,7342,608748,0
6,-1,641812,219723,1136105,65895,6644,567529,0
6,-1,639884,218388,1166970,65497,7539,583003,0
6,-1,638042,218081,1131570,65468,6721,565357,0
6,-1,637882,218283,1100441,65485,6583,549701,0
6,-1,635383,218618,1233034,65552,7189,616005,0
6,-1,638312,218474,1253732,65584,6938,626361,0
6,-1,660234,223235,1207693,68858,7537,603453,0
6,-1,635212,217988,1143751,65340,6752,571436,0
6,-1,639097,218504,1227828,65495,7350,613452,0
7,-1,696396,239121,1300858,71602,7794,649614,0
7,0,759070,265637,1454755,78392,8988,726942,11
7,0,764937,267547,1549934,79182,9264,774327,11
7,0,759919,265095,1566113,78192,9884,782600,11
7,0,761905,265736,1448574,78500,10212,723760,11
7,0,762281,266106,1595472,78554,10643,796873,11
7,0,758689,265154,1526531,78281,10131,762723,11
7,0,762306,266048,1447409,78600,10047,723310,11
7,-1,692322,236818,1287592,70616,7549,643295,0
7,0,758992,265621,1478962,78448,9246,738859,11
7,0,755173,265327,1350467,78334,8484,674810,11
7,0,762993,267723,1479926,79489,9125,739795,11
7,0,705599,247178,1221397,73446,7946,610216,11
7,0,705511,246779,1273086,73437,9026,636026,11
7,0,709555,249048,1381348,74403,9400,689953,11
7,0,704340,247192,1302746,73450,8174,651069,11
7,0,704630,247021,1374053,73465,8670,686526,11
7,-1,697988,238104,1353900,71212,9026,676188,0
7,0,705498,247002,1371178,73261,8212,684796,11
7,0,706685,247301,1421098,73384,10104,710039,11
7,0,705961,247575,1402279,73506,10174,700674,11
7,0,729085,252202,1428752,76820,10125,713720,11
7,0,709695,249499,1484253,74438,10244,741022,11
7,0,707704,247662,1493921,73545,10378,746292,11
7,0,705498,246935,1368328,73293,9345,683290,11
7,0,712522,249172,1449762,74221,10287,723876,11
7,-1,673557,231055,1206805,68828,7412,602959,0
7,0,708132,248001,1407997,73588,9862,703466,11
7,0,708926,247918,1474932,73630,9899,736854,11
7,0,713230,249114,1539057,74172,10750,768541,11
7,0,727016,251876,1471717,76696,10327,735415,11
7,0,711274,249637,1451972,74439,10013,725278,11
7,0,712179,249139,1425459,74294,9401,711712,11
7,0,729571,252119,1483595,76857,10225,741105,11
7,0,708924,246774,1556366,73324,9486,777440,11
7,0,708946,247101,1325230,73318,10395,662085,11
7,-1,637826,218529,1172397,65865,7064,585506,0
7,0,703693,248961,1498073,74136,9603,748324,11
7,0,700986,247268,1461487,73486,10063,730305,11
7,0,702123,247771,1376215,73689,9457,687626,11
7,0,709909,249823,1509891,74589,9834,754071,11
7,0,701533,246977,1420161,73435,10241,709199,11
7,0,704143,247342,1372164,73487,9309,685560,11
7,0,705833,247414,1366806,73437,9230,682784,11
7,0,702475,247435,1374321,73577,8624,686721,11
7,0,726550,251667,1408493,76711,9202,703680,11
7,0,703239,247368,1306833,73511,8415,652398,11
7,0,708454,248979,1436509,74137,10129,717424,11
7,0,703750,247326,1387475,73429,8813,693244,11
7,0,711109,250098,1438866,74666,9695,718514,11
7,0,707433,247930,1572330,73571,10508,785695,11
7,-1,636775,218207,1267272,65483,8289,633102,0
7,0,707195,247816,1439409,73672,10039,719122,11
7,0,703225,248255,1419536,73824,9744,709160,11
7,0,703523,246452,1333520,73221,9137,666198,11
7,-1,632692,217159,1270902,65042,7887,635058,0
7,0,706426,247297,1498396,73371,10199,748500,11
7,0,707920,247829,1428857,73628,10418,713798,11
7,0,706408,246960,1441451,73247,9348,720222,11
7,0,727446,252104,1427444,76736,10190,713306,11
7,0,706246,247216,1338211,73491,8969,668078,11
7,0,705808,247043,1337054,73332,9164,667575,11
7,0,707502,246790,1370124,73298,9242,684324,11
7,0,708824,247714,1409583,73659,9729,704293,11
7,-1,637452,218200,1364987,65555,7768,681929,0
7,0,702737,247049,1384545,73288,9222,691778,11
7,0,709699,249408,1479875,74243,10277,739138,11
7,0,704933,247390,1396708,73402,9518,698390,11
7,0,706208,247567,1423576,73518,9442,710972,11
7,0,711360,249172,1517198,74273,10027,757860,11
7,0,708377,247678,1425819,73509,10061,712500,11
7,0,704039,247289,1376381,73407,9356,687923,11
7,-1,661080,222753,1304676,68731,9275,651829,0
7,0,708608,247804,1258688,73718,9482,628772,11
7,0,703876,246501,1291424,73224,9188,645180,11
7,-1,635641,218769,1234219,65764,7845,616553,0
7,0,709484,247440,1300688,73620,8403,649785,11
7,0,705480,246487,1323306,73204,9190,661259,11
7,0,712092,248880,1558087,74188,10286,778192,11
7,0,709071,246960,1379336,73283,9960,689142,11
7,0,725891,252049,1361326,76871,9570,680102,11
7,0,708813,249040,1388769,74291,8818,693802,11
7,0,709518,248373,1328476,73859,8046,663665,11
7,0,710220,248649,1387834,73971,8513,693409,11
7,0,711184,248824,1358892,74124,8332,678844,11
7,0,709060,248400,1314914,73897,8185,656850,11
7,0,707159,247201,1311694,73506,8284,655479,11
7,0,710816,248380,1304684,73942,8694,651770,11
7,0,710711,247842,1375282,73676,8902,687254,11
7,0,707573,248349,1327977,73767,8955,663418,11
7,0,709873,248804,1430921,74105,9593,714674,11
7,-1,637808,219616,1282785,66328,9305,640499,0
7,0,706964,247219,1313524,73529,8636,656278,11
7,0,715125,250242,1396277,74710,9550,697088,11
7,0,711731,247586,1393809,73496,9553,696385,11
7,0,704281,247295,1381649,73411,9674,690285,11
7,-1,656958,222418,1273613,68675,8656,636241,0
7,0,705982,248319,1376508,73796,8964,687631,11
7,0,704794,247322,1383362,73420,9312,691192,11
7,0,706575,247632,1364177,73536,9300,681385,11
7,0,728732,252724,1380506,76996,9736,689487,11
7,0,708299,248222,1394746,73676,9794,696818,11
7,0,733099,257077,1397377,76246,9331,698037,11
7,0,708561,248296,1423183,73702,8851,710488,11
7,0,710154,248603,1331552,73792,8842,665209,11
7,0,707387,247947,1321185,73538,8604,660348,11
7,0,732129,253494,1403312,77193,10341,701130,11
7,0,711120,248914,1445210,74101,10594,721686,11
7,0,710784,248527,1478767,73879,10417,738789,11
7,0,710333,247702,1526497,73544,10192,762814,11
7,0,709738,248204,1314745,73778,8980,656722,11
7,0,709915,247726,1394940,73568,9860,696949,11
7,0,709297,247574,1382084,73525,9692,690568,11
7,0,715143,249684,1399830,74536,10163,699017,11
7,0,705281,247196,1428804,73406,8924,714000,11
7,-1,636054,218227,1201236,65612,7608,600179,0
7,0,703682,246645,1357062,73279,8797,677924,11
7,0,707901,247523,1372986,73549,9276,685828,11
7,-1,636183,218138,1165867,65411,7750,582290,0
7,0,710628,248113,1297096,73755,9817,647963,11
7,0,707984,247337,1371762,73477,10166,685387,11
7,0,715036,249334,1477608,74352,10937,737688,11
7,0,710408,248046,1423190,73844,9741,711139,11
7,0,710592,247889,1294672,73802,8131,646829,11
7,0,713945,249079,1407794,74373,9241,703068,11
7,0,712712,248280,1363794,73955,8918,681336,11
7,0,731200,252000,1429424,77039,10629,713534,11
7,0,718324,250162,1641661,74762,10970,819918,11
7,0,703631,247487,1436474,73757,9465,717610,11
7,0,705875,246998,1387317,73510,9415,693151,11
7,-1,637611,218655,1188985,65597,7632,593901,0
7,0,734235,256454,1363204,76328,9857,681081,11
7,0,708724,247394,1309292,73650,9340,654264,11
7,0,712181,248523,1452922,74246,10001,725689,11
7,0,709470,248548,1290961,74075,8386,644733,11
7,0,711964,249019,1417166,74390,9514,707802,11
7,0,713355,249483,1403323,74620,9256,700860,11
7,0,709059,247114,1326989,73524,8773,663034,11
7,0,731699,251965,1482712,76975,9733,740728,11
7,0,715924,248756,1398331,74040,9065,698477,11
7,0,708161,247391,1413837,73705,9934,706372,11
7,-1,632947,218191,1250483,65583,8567,624536,0
7,-1,639416,220547,1307938,66555,8365,653184,2
7,0,709975,247870,1314313,73816,9729,656502,11
7,0,711258,248109,1324338,73909,9407,661709,11
7,-1,635656,217819,1249358,65279,8437,624212,0
7,0,728602,252273,1364225,77025,9711,681957,11
7,0,715669,250390,1408123,74975,10099,703050,11
7,0,710546,247817,1374600,73780,9444,686831,11
7,0,709843,247992,1387820,73885,9826,693360,11
7,0,709297,246928,1378544,73426,9741,688742,11
7,0,709090,247539,1478910,73729,10021,739013,11
7,0,710558,247345,1414896,73666,10731,706745,11
7,-1,636302,218723,1401611,65677,8963,700162,2
7,0,702564,248490,1440043,74018,9670,719459,11
7,0,700319,247252,1360160,73549,9683,679584,11
7,0,704295,247852,1487134,73775,10102,742917,11
7,0,702639,247886,1386000,73849,10009,692363,11
7,0,702241,247782,1485757,73805,10841,742329,11
7,0,724323,252473,1486633,77115,11134,742244,11
7,0,704576,247625,1447593,73772,10296,723151,11
7,-1,637447,218316,1267118,65735,8435,633062,2
7,0,701939,247158,1295808,73619,8864,647400,11
7,0,703302,247834,1545029,73750,10673,771890,11
7,-1,638534,218897,1131464,65814,6830,565252,0
7,0,704619,247990,1362141,73899,10242,680549,11
7,0,709333,249288,1529563,74495,10703,763890,11
7,0,705778,247339,1436075,73653,9902,717575,11
7,0,706615,247495,1532001,73674,10023,765522,11
7,0,701722,247853,1495787,73827,9492,747374,11
7,0,703602,247954,1515483,73835,9733,757262,11
7,0,723951,252091,1640544,76996,11997,819634,11
7,0,707165,248693,1578027,74073,10129,788328,11
7,0,704423,247251,1621240,73587,10544,810416,11
7,0,707063,248454,1470433,73942,10353,734630,11
7,-1,658018,222276,1282203,68664,7107,640489,0
7,0,703554,247719,1651169,73704,12008,824979,11
7,0,708605,249013,1589204,74383,11157,793514,11
7,0,706243,247799,1527791,73683,10662,762999,11
7,0,725969,252073,1568597,76907,11949,783680,11
7,0,705526,248353,1516411,73967,11013,757839,11
7,0,708643,249006,1569986,74390,11218,784305,11
7,0,713007,250154,1629972,74812,11219,814080,11
7,0,707032,247395,1418551,73686,9427,708701,11
7,0,724703,252252,1516184,76998,11711,757656,11
7,0,707415,249793,1422575,74749,9545,710335,11
7,0,703491,247666,1331979,73742,8899,665519,11
7,0,704393,247526,1396573,73747,9458,697744,11
7,0,703752,247184,1409556,73569,8936,704273,11
7,0,705603,247801,1433739,73834,8700,716377,11
7,-1,639395,218516,1233979,65541,8419,616432,0
7,0,706130,249036,1421413,74496,9025,709720,11
7,0,704540,247998,1526583,73828,10054,762962,11
7,0,705702,247962,1480836,73792,8756,739984,11
7,0,707421,248068,1541285,73835,8941,770056,11
7,0,726220,252086,1499495,76904,10519,749327,11
7,0,705610,248516,1365408,74005,8571,682086,11
7,0,705998,247774,1486103,73786,9450,742529,11
7,0,709611,249644,1406826,74510,9025,702677,11
7,-1,639571,220669,1249184,66543,8252,623885,0
7,0,704763,247473,1367674,73552,8079,683346,11
7,0,728519,252690,1460919,77139,8988,730001,11
7,0,707265,247844,1560668,73685,9220,780235,11
7,0,703369,248138,1442817,73874,9314,720865,11
7,0,709660,249836,1504695,74639,9338,751480,11
7,0,708829,248766,1505769,73973,8931,752366,11
7,0,707168,247614,1327158,73649,8333,663056,11
7,0,706169,247878,1473988,73698,9129,736552,11
7,0,708453,248460,1525210,73934,9170,762056,11
7,0,713639,250269,1493031,74825,8919,745589,11
7,0,712066,249142,1510504,74134,8880,754801,11
7,0,707242,247703,1481828,73649,9252,740535,11
7,0,706477,247934,1377190,73791,8534,687990,11
7,-1,640178,219003,1363474,65657,8023,681254,0
7,0,709302,248233,1474728,73782,10028,736781,11
7,0,710443,248302,1471883,73860,8770,735471,11
7,0,724520,252591,1496893,77056,9302,748172,11
7,0,704622,248577,1338292,73913,8974,668695,11
7,-1,643894,220700,1298816,66585,8332,648311,0
7,0,707319,249034,1559254,74288,9598,778986,11
7,0,705829,248194,1439787,73797,8968,719510,11
7,0,707010,249536,1502929,74474,9193,750702,11
7,-1,635956,218353,1252788,65610,8324,625901,2
7,0,706040,247804,1526588,73703,9290,762858,11
7,0,707096,247960,1392007,73710,8935,695574,11
7,-1,641427,219401,1274090,66131,7833,636354,0
7,0,709274,248673,1489557,73993,10503,743644,11
7,0,710341,249189,1657640,74350,10823,828149,11
7,0,708925,248382,1561839,73834,10259,780432,11
7,0,706296,248818,1559945,74025,9708,779301,11
7,0,705951,248319,1479081,73860,10069,739123,11
7,0,728224,252603,1546370,77072,10420,772710,11
7,0,711204,250157,1571468,74781,10187,784727,11
7,0,705294,247943,1690140,73697,10977,844863,11
7,0,706284,247981,1465700,73756,9995,732348,11
7,0,728004,252364,1529816,76910,11341,764421,11
7,-1,643021,220652,1248308,66636,9296,623096,2
7,-1,639411,218848,1365221,65774,8949,682088,0
7,0,714459,249475,1380309,74373,9718,688883,11
7,0,704934,248149,1395655,73848,9666,697491,11
7,0,705762,248026,1327681,73734,9182,663393,11
7,0,707491,248174,1414534,73831,9182,707086,11
7,0,711293,248747,1307548,73999,8131,653351,11
7,-1,641641,219426,1171049,66073,7339,585001,2
7,0,730956,252332,1572906,76975,10533,786061,11
7,-1,642029,218649,1303862,65820,7467,651339,0
7,0,704075,247509,1377423,73618,9961,688185,11
7,0,727261,252802,1428066,77142,10404,713700,11
7,0,712117,250056,1628959,74728,10046,813738,11
7,0,706709,247776,1492265,73718,9664,745191,11
7,0,706838,248134,1360143,73824,9003,679722,11
7,0,735146,257650,1448935,76668,9127,723994,11
7,0,710000,248003,1401686,73773,9813,700133,11
7,-1,636503,218271,1174559,65708,7078,586758,0
7,0,711988,249096,1494659,74147,9748,746799,11
7,0,712210,250357,1476317,74844,9832,736643,11
7,0,709714,248346,1612071,73872,9387,805485,11
7,0,707290,247427,1485747,73452,8531,742057,11
7,0,711852,249096,1609859,74088,10022,804600,11
7,0,709599,247544,1450850,73609,9820,724921,11
7,0,706315,247562,1446756,73613,9187,722821,11
7,0,708458,247883,1422841,73685,9731,711019,11
7,0,707650,248336,1302816,73876,8856,650994,11
7,0,706555,247637,1315858,73561,9315,657323,11
7,0,707899,247685,1335145,73710,9500,667003,11
7,-1,636408,218022,1126594,65655,7320,562686,0
7,-1,637059,218226,1188243,65747,7555,593411,2
7,0,707534,247555,1323622,73612,8095,661361,11
7,0,713819,249024,1428135,74008,9257,713687,11
7,0,712997,247676,1445201,73571,9472,722030,11
7,0,703087,247880,1625629,73678,9153,812068,11
7,0,705153,248444,1567823,73906,9834,783553,11
7,0,704996,248192,1444617,73776,9933,721350,11
7,0,705106,248259,1560080,73834,9776,779189,11
7,-1,640109,218247,1264997,65629,7697,631986,0
7,0,705102,247977,1375485,73775,8237,687276,11
7,0,706416,247675,1441694,73624,8695,720349,11
7,0,726695,252456,1414075,77023,10018,706662,11
7,0,708111,249790,1515322,74581,9923,755991,11
7,0,704104,247955,1543804,73636,8914,770780,11
7,0,724987,251790,1382587,76759,9392,690107,11
7,0,706482,248093,1486892,73858,9346,742718,11
7,0,727869,252729,1419002,77109,9949,709017,11
7,0,703738,247556,1288374,73571,8570,643817,11
7,0,726688,252480,1350597,77037,10393,675459,11
7,0,706323,248036,1267217,73731,8673,633314,11
7,0,708198,248864,1330979,74018,9267,665026,11
7,0,707555,248329,1297068,73896,8572,647724,11
7,0,706506,247760,1366357,73713,9052,683103,11
7,-1,639644,218326,1173260,65762,7463,586054,0
7,0,726191,252313,1326695,76951,9482,663354,11
7,0,705071,247536,1554786,73531,9456,775892,11
7,-1,644468,220057,1276727,66589,7033,637447,2
7,0,707626,248100,1351084,73806,8760,675101,11
7,0,708355,247992,1634333,73726,9525,816443,11
7,0,707126,248551,1402092,73950,8581,700570,11
7,-1,640954,218423,1162651,65800,8153,580697,0
7,-1,639430,219231,1127099,66057,7608,562901,2
7,0,729310,252748,1394069,77102,9889,696820,11
7,0,707937,247668,1400850,73598,9434,700096,11
7,0,710748,249034,1443512,74324,10267,720824,11
7,0,731281,252487,1439782,77026,10172,719632,11
7,0,708355,247718,1411854,73647,8864,705540,11
7,-1,641298,218861,1323412,65916,8399,661203,0
7,0,705795,248428,1307811,73913,9621,653265,11
7,0,705448,247942,1505851,73736,8992,752432,11
7,0,706626,248000,1490342,73670,8993,744715,11
7,0,711862,249537,1490439,74431,10064,744635,11
7,0,707342,248200,1601672,73820,9282,800331,11
7,0,709181,247450,1457667,73552,9935,728425,11
7,0,732026,257637,1404599,76690,9043,701803,11
7,-1,640512,218271,1240479,65703,8426,619831,2
7,-1,663791,223139,1269976,69090,9241,634581,0
7,0,709514,247965,1394788,73749,9420,696941,11
7,0,708484,247615,1405042,73687,9498,702028,11
7,0,707564,248816,1484745,73998,9739,741846,11
7,0,711209,249467,1436093,74404,9646,717052,11
7,0,707940,248109,1351630,73781,8125,675354,11
7,0,712646,249436,1430847,74423,8172,714736,11
7,0,713836,249862,1400706,74647,9412,699605,11
7,0,707994,248228,1399090,73773,8403,699155,11
7,0,711375,249284,1397278,74402,8618,697879,11
7,0,711986,248957,1442492,74087,8662,720776,11
7,0,713440,249947,1408794,74704,8329,703838,11
7,0,709488,247961,1320641,73761,8349,659869,11
7,0,710575,248006,1259477,73784,8835,629254,11
7,0,714627,248980,1320613,74266,9217,659692,11
7,0,708376,248229,1243363,73902,8050,621148,11
7,-1,637695,220193,1320051,66627,8845,658895,0
7,0,710736,247818,1468117,73583,10003,733322,11
7,0,715042,249374,1527105,74336,10366,762627,11
7,0,713401,248615,1459783,73885,9610,729412,11
7,0,709785,250215,1578790,74681,9708,788474,11
7,0,705180,247705,1549711,73548,9466,774378,11
7,0,713609,250270,1518332,74843,9519,758238,11
7,-1,635170,218491,1248878,65747,7928,623986,0
7,0,708399,247833,1438536,73704,9181,718820,11
7,0,704574,247574,1496205,73619,9006,747592,11
7,0,709529,248373,1333603,73932,9118,666116,11
7,-1,636168,220533,1285167,66802,8906,641191,2
7,0,705666,247681,1423915,73612,8632,711535,11
7,0,705669,247519,1468607,73585,9103,733917,11
7,0,709274,248046,1494238,73604,9560,746652,11
7,0,710178,248413,1413055,73790,9045,706017,11
7,0,712269,249192,1530078,74285,9647,764253,11
7,0,708364,249655,1531704,74513,9626,765055,11
7,0,708204,248359,1491937,73812,9544,745518,11
7,0,710523,249039,1517255,73994,9546,758103,11
7,0,707687,247401,1452881,73464,9496,725774,11
7,-1,633899,218396,1242091,65776,7748,620433,0
7,0,713054,249336,1535419,74264,10142,766963,11
7,0,713799,249838,1505341,74526,9438,751802,11
7,0,710008,247757,1465642,73516,9363,732346,11
7,-1,630569,217744,1293494,65466,7288,646250,0
7,0,712367,249082,1515514,74029,9875,757172,11
7,0,713656,249737,1518098,74469,9960,758139,11
7,0,709255,247719,1464717,73556,9451,732189,11
7,0,711990,248375,1438289,73764,9552,718617,11
7,0,713478,248395,1388647,73767,9553,693817,11
7,0,712945,248857,1437733,73997,10435,718315,11
7,0,732685,252359,1411214,76911,10828,704982,11
7,0,717972,249898,1489500,74581,10446,743854,11
7,0,705422,247450,1573882,73464,9441,786507,11
7,-1,633423,218823,1386751,65929,8299,692674,2
7,0,707308,247929,1464885,73625,9476,731812,11
7,0,707879,248415,1643577,73854,9645,821331,11
7,0,711290,249391,1522443,74416,9565,760449,11
7,0,709101,247895,1503868,73761,9712,751274,11
7,0,713918,249780,1622828,74592,9986,810602,11
7,-1,635950,218975,1537271,65941,8448,768349,0
7,0,712164,248899,1412720,73912,9714,705787,11
7,0,712458,248731,1416939,73873,9198,707890,11
7,0,732229,253135,1464459,77139,9968,731812,11
7,-1,636758,218718,1332756,65902,8914,665823,2
7,0,716326,250722,1524574,75000,9165,761432,11
7,0,712031,248539,1528240,73906,9586,763734,11
7,0,711131,248625,1478087,73984,8465,738543,11
7,0,714909,249044,1529286,74097,8688,764062,11
7,-1,637195,218416,1438777,65786,8047,718154,0
7,0,718227,250278,1491748,74776,9566,744979,11
7,0,717170,250808,1528152,75065,9920,763158,11
7,0,711766,248006,1519734,73792,9834,759405,11
7,0,715692,249202,1424985,74207,8964,712015,11
7,-1,631203,217878,1339002,65614,9452,668564,0
7,0,713358,248709,1522428,73903,9112,760672,11
7,0,715739,249351,1431426,74117,9103,715099,11
7,0,733233,253512,1448051,77169,10106,723448,11
7,0,712273,248717,1476627,73732,9254,737795,11
7,0,713278,248921,1392303,73890,9342,695567,11
7,0,717065,249941,1473608,74135,9533,736248,11
7,0,737695,253864,1497719,77269,10355,748427,11
7,0,713281,248884,1446532,73841,9702,722731,11
7,0,718599,249856,1509270,74198,9837,754018,11
7,0,737642,253798,1485218,77247,10323,741998,11
7,0,721877,251190,1508517,74896,9695,753266,11
7,-1,634625,218676,1150218,65860,7190,574532,2
7,0,706477,249525,1365677,74113,9121,682214,11
7,0,708956,249631,1490743,74136,9562,744860,11
7,0,730830,253832,1466560,77274,10130,732789,11
7,0,708618,249073,1424655,73950,9508,711810,11
7,-1,637227,219325,1353140,66183,8192,675526,0
7,0,713056,250782,1529256,74700,10373,763780,11
7,0,709019,248661,1394503,73823,9482,696692,11
7,0,709169,248195,1415391,73554,9695,707174,11
7,0,713407,251321,1531577,74927,9743,764955,11
7,0,708546,248861,1488762,73840,10000,743831,11
7,0,707279,248242,1520251,73580,9235,759613,11
7,0,735727,258055,1443344,76590,9255,721124,11
7,-1,636008,218684,1340176,65798,7797,669692,2
7,0,715189,250530,1444421,74647,10354,721188,11
7,0,708866,248690,1515027,73778,9587,757033,11
7,0,710804,248878,1502890,73896,9670,750867,11
7,-1,639562,218936,1189531,65872,6957,594245,0
7,0,714137,249728,1489641,74181,9541,744321,11
7,0,711885,249508,1463339,74176,9585,731134,11
7,0,715141,250423,1560895,74654,9733,779846,11
7,0,708566,248746,1557933,73915,10674,778630,11
7,0,714609,250175,1559986,74572,10642,779234,11
7,0,732700,252777,1479568,76978,11100,739246,11
7,0,708977,248298,1547850,73707,10840,773305,11
7,0,713209,249843,1486059,74260,10527,742495,11
7,-1,639272,220080,1345643,66432,7507,672070,0
7,0,712878,249018,1602216,74011,11626,800419,11
7,0,715761,250306,1674332,74591,10786,835916,11
7,0,715002,248930,1523239,73930,10980,760998,11
7,0,705603,247867,1450924,73552,10674,724934,11
7,0,709836,248572,1491973,73770,11242,745400,11
7,0,709314,248840,1582815,73828,11037,790365,11
7,0,711192,249295,1488640,74010,10773,743283,11
7,0,709774,248092,1445000,73619,10054,722034,11
7,0,712012,249030,1623650,73910,11071,810878,11
7,0,728304,252998,1539607,77028,11569,769294,11
7,-1,635031,218359,1116449,65643,6700,557749,2
7,0,709823,248077,1629579,73732,10454,814627,11
7,0,712548,249748,1637801,74409,10961,818051,11
7,0,707706,247880,1620677,73692,11394,809340,11
7,0,710343,248374,1583867,73824,11477,791160,11
7,-1,638624,218447,1211493,65590,7142,605298,0
7,0,709599,248363,1749079,73848,10896,873254,11
7,0,709895,247862,1481313,73632,10893,740259,11
7,0,734291,257456,1576689,76477,10896,787605,11
7,0,707928,247548,1554031,73527,11312,776488,11
7,-1,641536,220770,1303599,66727,8424,650926,2
7,0,711222,248085,1498507,73710,11903,748782,11
7,0,733427,253338,1582093,77239,10075,790630,11
7,0,709103,247477,1408971,73581,9713,703974,11
7,0,708143,247878,1556513,73599,9303,777728,11
7,0,707620,247655,1412631,73599,9418,705808,11
7,0,707537,248093,1403278,73653,9242,701090,11
7,-1,636889,218478,1232490,65645,6247,615720,0
7,0,709112,248018,1499094,73702,9386,748950,11
7,0,707510,247549,1579269,73482,9434,789088,11
7,-1,640839,219320,1173069,65999,7569,585968,2
7,0,709172,247773,1508040,73611,9406,753477,11
7,0,703453,246488,1504887,73183,9720,751908,11
7,0,712296,248960,1568771,74242,10153,783589,11
7,0,709518,247518,1477521,73552,9144,738232,11
7,0,709786,247714,1400812,73698,9600,699712,11
7,0,706450,246768,1449732,73278,9100,724502,11
7,0,710111,247785,1482151,73709,9419,740583,11
7,0,731992,252798,1469185,77126,10594,734028,11
7,0,712306,247672,1491605,73621,10061,745323,11
7,-1,635409,219017,1151193,65890,7102,575010,0
7,0,707785,248543,1434453,73953,9276,716617,11
7,0,704562,247341,1414505,73520,9666,706884,11
7,0,707395,248175,1405951,73827,9081,702254,11
7,-1,636531,218672,1275637,65718,7328,637409,0
7,0,728119,252212,1489133,76786,9715,744133,11
7,0,707187,247476,1443241,73469,9201,721175,11
7,0,710208,247989,1504759,73719,9466,751794,11
7,0,711349,248063,1570156,73653,9354,784479,11
7,0,707155,247803,1498472,73587,8984,748727,11
7,0,707957,248019,1434668,73623,9147,716758,11
7,0,708490,247788,1509239,73603,9106,754009,11
7,0,710065,248125,1492756,73733,9449,745879,11
7,-1,641221,220156,1248585,66428,7374,623664,0
7,0,714601,249740,1517817,74455,9676,758126,11
7,0,711501,248081,1391720,73648,9372,695331,11
7,0,730114,252355,1366745,76887,10036,682906,11
7,-1,635930,218547,1244114,65780,8435,621586,2
7,0,708424,247795,1591247,73608,9722,794973,11
7,0,706766,247546,1292480,73600,8601,645741,11
7,0,706842,247686,1286710,73643,8746,642800,11
7,0,705829,246721,1284933,73297,8485,642046,11
7,-1,635569,218741,1314299,65754,7560,656743,0
7,0,708129,248352,1392206,74072,8697,695290,11
7,0,705267,247246,1382092,73495,8447,690564,11
7,0,712960,249462,1384440,74488,9201,691497,11
7,0,730429,252595,1351134,77041,9718,675116,11
7,0,709230,247078,1360033,73438,9550,679505,11
7,0,713192,248871,1334563,74249,9513,666386,11
7,-1,636993,218361,1313108,65621,7794,655931,0
7,0,706929,247490,1373608,73495,9293,686373,11
7,0,709065,247747,1422835,73612,9693,710234,11
7,0,708855,247764,1449715,73580,8776,724435,11
7,0,709021,248004,1398725,73708,9073,698918,11
7,0,731745,252335,1585107,76928,10704,791288,11
7,0,711571,248134,1267481,73821,9010,633262,11
7,0,710807,247916,1292303,73635,9107,645573,11
7,0,705750,247229,1299106,73416,8621,649118,11
7,0,712775,249571,1464393,74418,9190,731419,11
7,-1,639222,219237,1223570,65984,6943,611310,2
7,-1,639060,218476,1199043,65666,7184,599136,0
7,0,710013,247818,1249463,73578,8665,624169,11
7,0,712169,248261,1318169,73682,8977,658596,11
7,0,717529,250163,1362344,74514,9904,679811,11
7,0,707318,248135,1301800,73679,9510,650381,11
7,0,713834,249889,1438623,74339,9695,718548,11
7,0,715342,250190,1360529,74470,9665,679490,11
7,0,710962,247897,1399183,73434,9764,699037,11
7,0,711646,247872,1305803,73499,9457,652371,11
7,-1,636394,218121,1235103,65488,7802,617006,0
7,0,711787,247799,1326616,73398,8951,662808,11
7,0,709579,248098,1513974,73557,10187,756484,11
7,0,712766,248380,1347602,73631,9079,673292,11
7,0,711722,247814,1406281,73457,9403,702553,11
7,0,712766,248047,1407295,73509,9251,703079,11
7,-1,643049,220617,1194739,66730,8133,596210,0
7,0,712856,249305,1391328,74076,9746,695000,11
7,0,706529,248690,1360456,73762,8524,679679,11
7,0,708603,247946,1387320,73438,8537,693272,11
7,-1,638240,218979,1250254,65855,6945,624800,0
7,0,713139,249566,1380617,74243,8932,689695,11
7,0,710118,248339,1470843,73639,8962,734937,11
7,0,730640,252613,1380390,76844,9163,689756,11
7,0,707954,248294,1290968,73597,8242,645007,11
7,0,708289,247691,1379179,73509,8567,689143,11
7,0,730668,252694,1345810,76931,9562,672410,11
7,0,705742,247294,1280260,73423,8100,639667,11
7,0,703544,247241,1378011,73359,8594,688412,11
7,-1,660296,222970,1238827,68921,7790,619002,0
7,0,712617,249891,1354861,74496,8612,676661,11
7,0,706248,247644,1401478,73520,8318,700264,11
7,0,704589,247171,1300976,73312,8186,650011,11
7,0,704969,247245,1378219,73334,8139,688632,11
7,0,728390,252388,1336114,76839,9026,667621,11
7,-1,636333,218766,1239671,65809,7491,619275,2
7,0,705726,247291,1398685,73279,8793,698944,11
7,0,708439,247697,1275336,73771,8598,636968,11
7,0,716218,250430,1280047,74681,8666,639253,11
7,-1,639068,218630,1121188,65752,6734,560135,0
7,0,711405,248431,1346117,73952,8675,672445,11
7,0,713439,249334,1368884,74332,8976,683640,11
7,0,710084,247461,1430695,73389,9210,714966,11
7,0,710446,247610,1262663,73496,9050,630860,11
7,-1,640226,219552,1295098,66102,7981,647003,2
7,0,707374,248105,1478676,73648,9290,738896,11
7,0,712070,249867,1504386,74490,9149,751510,11
7,0,708768,248225,1399846,73699,8894,699371,11
7,0,708161,247749,1508923,73530,9628,753828,11
7,0,708442,247500,1405470,73409,9234,702262,11
7,0,709506,248592,1463047,73821,9477,731048,11
7,0,709835,249119,1424478,74205,8701,711485,11
7,0,710190,248169,1408302,73665,9315,703673,11
7,0,708676,247819,1488837,73583,9433,743941,11
7,0,731691,252626,1430147,76897,10053,714619,11
7,0,705670,247133,1385394,73259,9527,692238,11
7,0,705450,246986,1445224,73191,9177,722132,11
7,0,709271,247951,1488465,73614,9310,743768,11
7,0,706269,246788,1430939,73189,9168,714981,11
7,0,712547,249108,1435227,74253,9392,716837,11
7,0,709269,247719,1560299,73489,9187,779695,11
7,-1,640040,219272,1284301,65973,6610,641751,0
7,0,716330,250343,1441085,74683,9948,719663,11
7,0,709662,247195,1495874,73283,9401,747436,11
7,0,711147,247776,1495183,73546,9235,747021,11
7,0,706790,247092,1498121,73292,8856,748680,11
7,0,706384,247291,1460669,73318,8687,729950,11
7,-1,639699,218788,1216945,65825,7155,607993,2
7,0,708585,247514,1389404,73420,9347,694269,11
7,0,711486,247478,1497470,73413,9664,748346,11
7,-1,641563,219638,1221518,66056,7416,610318,0
7,0,710345,247277,1497421,73324,9724,748343,11
7,0,709859,247410,1457001,73387,9559,728031,11
7,0,710722,247299,1482110,73345,9685,740551,11
7,0,712481,247670,1413527,73515,9225,706247,11
7,0,712245,250144,1339090,74535,9402,668793,11
7,-1,630153,218371,1164348,65649,6506,581668,2
7,-1,654865,222848,1276079,68919,8298,637705,0
7,0,704521,247287,1480105,73329,8972,739684,11
7,0,708226,248185,1394688,73714,8764,696795,11
7,0,707422,248023,1409664,73610,8593,704449,11
7,0,711171,248912,1426861,74091,8706,712587,11
7,0,706281,247180,1377943,73291,8569,688591,11
7,0,710836,248002,1404383,73617,9139,701675,11
7,0,707394,247135,1498070,73292,9176,748598,11
7,0,706743,247977,1418937,73613,8711,708958,11
7,0,708788,247893,1495208,73524,9167,747122,11
7,0,710775,248193,1466828,73640,8928,732898,11
7,-1,633771,218131,1289583,65541,7856,644320,0
7,0,714423,248791,1429519,74058,9762,714169,11
7,0,726152,251749,1520223,76621,9537,759621,11
7,0,707546,247823,1497880,73509,8678,748517,11
7,0,706007,247141,1385275,73373,8684,692158,11
7,-1,633514,218428,1244637,65710,7366,621672,2
7,0,715751,249998,1411508,74456,9270,705039,11
7,0,731451,252544,1495190,76889,9336,747140,11
7,0,711525,247837,1408935,73567,9426,703940,11
7,-1,634824,218327,1186845,65665,7165,592930,0
7,0,708058,247608,1370161,73529,8844,684572,11
7,0,708378,247704,1471204,73548,8593,735120,11
7,0,714998,249412,1394144,74299,9015,696348,11
7,0,715690,249402,1414435,74259,8817,706450,11
7,0,710058,247132,1478461,73305,9526,738723,11
7,0,709453,247012,1424035,73260,9422,711548,11
7,0,717095,250139,1436296,74659,9724,717294,11
7,0,709763,247134,1452319,73352,9068,725657,11
7,-1,635336,217907,1211329,65485,6767,605094,2
7,0,712877,247832,1469763,73570,9350,734386,11
7,0,712578,247540,1357631,73476,8884,678493,11
7,0,735091,252467,1396997,76772,9517,697999,11
7,0,708238,248199,1287159,73663,8497,643057,11
7,0,706136,247090,1346749,73285,8685,672971,11
7,0,707177,247397,1355375,73429,8124,677270,11
7,0,709781,247665,1305171,73477,8494,652123,11
7,0,708834,247341,1273382,73358,8104,636204,11
7,-1,636605,219559,1403911,66206,8143,701082,0
7,0,711943,248010,1272727,73616,8435,635905,11
7,0,713700,248473,1338798,73782,8803,668920,11
7,0,730480,252565,1458099,76878,9169,728657,11
7,0,714055,249579,1308884,74400,8281,653689,11
7,0,709345,247272,1391591,73340,8342,695423,11
7,0,708704,247209,1354109,73324,8583,676689,11
7,0,715332,249501,1317012,74270,8534,657812,11
7,0,711251,247859,1368784,73562,8196,683908,11
7,0,710857,247315,1292642,73358,8519,645878,11
7,0,712448,247946,1407857,73538,9058,703429,11
7,0,710854,247454,1460280,73393,9125,729434,11
7,0,709626,247642,1420773,73518,8943,709828,11
7,0,711803,247559,1282360,73430,8486,640728,11
7,0,733673,252107,1429597,76732,9859,714295,11
7,0,707598,247277,1593833,73364,9441,795644,11
7,-1,636322,219356,1239400,66014,7650,619239,2
7,0,711599,248795,1389044,74056,8562,693875,11
7,0,713109,248815,1461771,73884,9065,730351,11
7,-1,636549,218578,1219983,65697,6790,609452,0
7,0,715739,248679,1377782,73954,9533,687371,11
7,0,730504,251895,1505074,76579,9598,751885,11
7,0,718180,250575,1385647,74637,9453,691692,11
7,0,711736,247731,1391457,73422,8851,695269,11
7,0,710145,246956,1254359,73182,7542,626731,11
7,0,717316,250492,1419993,74693,8676,708838,11
7,0,708538,246647,1483974,72990,8503,741596,11
7,-1,635689,218410,1146245,65602,7588,572642,0
7,-1,637011,219014,1230027,65860,7870,614741,2
7,0,702382,247879,1292175,73123,7802,645663,11
7,0,703009,247744,1380662,73038,7893,689764,11
7,-1,635857,218047,1262424,65435,7598,630653,0
7,0,704789,248152,1369240,73175,8021,684128,11
7,0,705657,249263,1305998,73728,8435,652305,11
7,0,703160,247792,1378172,73072,8330,688597,11
7,0,713135,250680,1326947,74311,8131,662754,11
7,0,702048,247494,1230026,72975,8275,614520,11
7,0,700668,246752,1311475,72622,8278,655297,11
7,0,707091,248818,1218578,73583,7944,608543,11
7,0,706413,248161,1389623,73185,7938,694382,11
7,0,705031,247315,1308774,72931,8219,653959,11
7,0,702231,247769,1393841,73003,9122,696424,11
7,-1,641771,220471,1377005,66640,7231,687902,0
7,0,702120,247614,1287051,72952,8357,643154,11
7,0,703416,247823,1387680,73075,8632,693322,11
7,0,704935,247525,1288250,72995,8420,643655,11
7,0,706329,247700,1416715,73081,9070,706591,11
7,0,707945,249892,1340760,74056,9068,669590,11
7,0,703647,247859,1416394,73079,8596,707771,11
7,0,702069,247021,1300838,72830,8049,649910,11
7,0,702048,247032,1375379,72818,8217,687260,11
7,-1,639578,219459,1242682,66041,7789,620679,2
7,0,705980,247865,1325257,73134,8283,662212,11
7,0,730209,253199,1438275,77087,9536,718588,11
7,0,711698,249983,1293020,74172,8367,645720,11
7,0,701043,246241,1301794,72645,8237,650511,11
7,0,704224,247540,1372854,72989,8346,685948,11
7,0,706702,247647,1404778,73025,8490,701892,11
7,0,706649,247280,1361924,72855,8114,680516,11
7,-1,639839,218969,1155926,65855,8113,577442,0
7,0,708820,249940,1311701,74149,9139,655170,11
7,0,701251,246961,1364573,72852,8764,681885,11
7,0,704828,248044,1361318,73280,8643,680127,11
7,0,706043,248688,1293423,73594,8728,645837,11
7,0,703213,247285,1299192,73054,8727,649119,11
7,0,703117,247257,1356746,73053,8455,677857,11
7,0,726960,252024,1325009,76384,8967,662145,11
7,0,710806,249512,1223557,74052,8379,611023,11
7,-1,635958,218762,1256475,65770,6749,627832,2
7,0,702790,247575,1415492,73114,8732,707355,11
7,-1,641216,219519,1276064,66001,8087,637579,0
7,0,711413,250112,1341769,74295,8862,670007,11
7,0,702568,247175,1416579,72996,8609,707632,11
7,0,728291,252121,1449569,76381,9698,724375,11
7,0,705619,248003,1495422,73274,9428,747026,11
7,0,702183,247350,1365039,73078,9287,682070,11
7,0,706688,247491,1355561,73853,9845,677318,11
7,0,707055,247462,1284507,73971,9371,641735,11
7,0,709439,248576,1389577,74346,10061,694402,11
7,0,707790,247380,1304505,73810,9972,651907,11
7,0,727586,252314,1542036,77322,10663,770544,11
7,-1,641600,218932,1171085,65757,7176,585144,0
7,0,712610,248367,1340694,74467,9864,669427,11
7,0,709606,247762,1479202,73990,10600,739178,11
7,-1,639065,218604,1131717,65662,6636,565417,0
7,0,714657,248844,1411667,74597,10024,704942,11
7,0,707448,247178,1317219,73807,9479,658069,11
7,0,723301,251745,1458613,77156,10896,729116,11
7,0,706691,248106,1313214,74211,9154,655862,11
7,-1,636381,219431,1188685,65936,7112,593724,2
7,0,705541,247444,1419022,73949,9341,709093,11
7,0,710680,249848,1299252,74983,9687,648681,11
7,0,702634,246810,1268301,73746,9662,633645,11
7,-1,637414,218992,1227749,65912,6938,613348,0
7,0,706666,247711,1470535,74010,9852,734917,11
7,0,704766,247688,1400164,74021,8983,699569,11
7,0,706360,247900,1427359,74087,9832,713032,11
7,0,711796,250084,1406454,75136,9319,702223,11
7,0,707010,247423,1427036,73942,9437,712969,11
7,0,708549,247688,1395670,74020,9658,697230,11
7,0,713240,249923,1320796,74998,8305,659317,11
7,0,706629,247177,1414877,73798,8647,706724,11
7,0,713016,249235,1302277,74693,8400,650407,11
7,0,734874,256449,1356804,76613,8308,677924,11
7,0,709007,247583,1308763,73988,8453,653915,11
7,0,707511,248574,1277660,74323,8921,638348,11
7,0,705971,247324,1350040,73880,8858,674570,11
7,-1,638880,218306,1182259,65626,7371,590649,0
7,0,710514,248755,1446291,74623,8823,722473,11
7,0,707698,247549,1523665,73973,9428,761068,11
7,0,713075,249283,1311752,74785,8781,655036,11
7,0,709020,247721,1445595,73987,9703,722385,11
7,0,709147,247121,1384267,73795,9583,691618,11
7,0,705732,246974,1408595,73808,9439,703430,11
7,-1,640587,219761,1173471,66135,6652,586132,2
7,-1,641418,219063,1341574,65913,7308,670264,0
7,0,728295,251581,1571427,77098,11083,785170,11
7,0,710335,247795,1560946,74003,10164,780016,11
7,0,709241,247265,1504581,73856,9728,751698,11
7,0,709921,247078,1488629,73822,10150,743708,11
7,-1,634836,218168,1208379,65409,7494,603767,0
7,0,704436,247106,1523338,73799,10312,761062,11
7,0,706251,247521,1569249,73914,10801,784092,11
7,0,711384,248893,1445789,74585,10618,722103,11
7,0,706151,246930,1371750,73727,10341,685484,11
7,0,708692,247487,1390667,73961,9905,694700,11
7,0,728349,252098,1516900,77245,11714,757928,11
7,0,709929,248008,1426005,74116,10255,712390,11
7,0,709133,247252,1518223,73819,10803,758775,11
7,0,712674,249044,1446006,74632,10710,722178,11
7,0,705678,247148,1437417,73732,10070,718138,11
7,0,714382,250200,1449352,75175,9559,723514,11
7,0,705495,247244,1428212,73908,10040,713494,11
7,0,709271,247533,1536472,73958,9883,767662,11
7,-1,636797,218310,1170004,65524,7259,584395,0
7,-1,637774,218780,1237138,65706,7395,618025,2
7,0,707060,247418,1506201,73920,10257,752726,11
7,0,710965,248033,1515136,74127,9456,757202,11
7,0,706589,247555,1509045,73987,10459,754008,11
7,0,708226,247215,1518573,73768,10137,758695,11
7,0,709130,247530,1492022,73978,9875,745418,11
7,0,709782,247662,1434982,74013,10475,717107,11
7,0,714536,248698,1471377,74533,10316,734905,11
7,0,707925,247951,1437504,74057,9333,718202,11
7,0,713732,249836,1441042,75057,10255,719600,11
7,0,712719,248354,1441431,74215,9505,720139,11
7,0,709114,246766,1433718,73635,10516,716248,11
7,0,711475,247606,1497734,73946,10325,748354,11
7,0,710855,247965,1541950,74010,10512,770419,11
7,0,715867,248751,1454696,74535,10903,726730,11
7,-1,636596,218228,1145451,65405,6492,572211,0
7,0,730660,251381,1584477,76990,11619,791789,11
7,-1,639308,219121,1158337,65845,6544,578611,2
7,0,707168,248609,1528050,74307,11061,763335,11
7,0,702854,246674,1445517,73636,10654,722345,11
7,0,709609,249388,1535987,74842,11297,767277,11
7,0,705552,247199,1559410,73821,10967,779172,11
7,0,702905,246806,1406133,73718,10805,702458,11
7,0,706435,248390,1515568,74181,10024,757056,11
7,0,728162,252409,1450028,77325,12125,724404,11
7,0,705501,247508,1511018,73902,10381,754790,11
7,0,708023,246968,1427433,73706,10657,713221,11
7,0,725248,252113,1589102,77204,10679,794239,11
7,0,706609,247447,1600613,73892,10724,799595,11
7,0,704622,247116,1666242,73804,10871,832314,11
7,-1,637673,218335,1294337,65607,7550,646571,0
7,-1,637003,218823,1153612,65847,6825,576153,2
7,0,705034,246835,1479624,73700,9375,739209,11
7,0,707472,248432,1476497,74193,9724,737940,11
7,0,709787,247985,1568160,74088,9823,783408,11
7,0,707553,247611,1425350,73974,9641,711937,11
7,0,730793,252537,1535603,77385,11537,767310,11
7,0,706446,248008,1351801,74012,9873,675439,11
7,-1,672795,230987,1298314,69705,7926,648434,2
7,0,709819,248080,1441627,74129,10467,720451,11
7,0,710083,249244,1440857,74843,10322,719564,11
7,-1,644487,220447,1217541,66295,7398,608209,0
7,0,709299,247670,1464995,74013,9201,731730,11
7,0,706403,247020,1358952,73663,9971,678971,11
7,0,707318,246706,1443571,73610,9735,721394,11
7,0,714674,249587,1436830,74871,9729,717584,11
7,-1,641676,219487,1344526,66076,7079,671661,0
7,0,709413,248285,1420548,74397,9680,709540,11
7,0,706775,247216,1442152,73837,10288,720461,11
7,-1,640745,218839,1188408,65834,6805,593637,2
7,0,708278,247085,1453289,73705,9251,726014,11
7,0,706865,247730,1447372,74058,10064,723048,11
7,0,707386,247147,1379225,73733,9234,689041,11
7,0,729799,251865,1601961,77145,11200,800465,11
7,-1,643922,219490,1253492,66035,7435,626047,0
7,0,715143,248601,1563690,74421,12064,781198,11
7,0,706679,248134,1570777,74167,11391,784590,11
7,0,705759,247268,1481278,73826,11239,740257,11
7,-1,642927,220315,1246536,66141,7861,622720,2
7,0,707808,247470,1538990,73894,11572,768947,11
7,0,707816,246881,1377985,73735,8023,688560,11
7,0,708723,246977,1501122,73692,9669,750154,11
7,0,708384,247961,1429530,74037,9065,714348,11
7,-1,643442,219370,1251362,65805,7711,625193,0
7,0,710140,247710,1410971,73981,9087,705009,11
7,0,711137,247784,1346588,73943,9068,672858,11
7,0,710541,247566,1324446,73920,9067,661776,11
7,0,731872,251879,1486070,77146,10303,742641,11
7,0,713955,247639,1481890,73965,9303,740491,11
7,0,704033,247315,1398212,73844,9670,698535,11
7,0,708110,248082,1468786,74139,10399,733924,11
7,0,709301,248763,1528392,74501,10537,763339,11
7,0,708076,248947,1411321,74734,9277,704811,11
7,0,703619,246655,1487696,73588,8760,743402,11
7,0,707366,247531,1488051,73952,9225,743554,11
7,0,708579,248022,1595578,74111,9578,797463,11
7,0,708009,247593,1520107,73861,9812,759054,11
7,-1,636793,219298,1271170,65731,7781,635024,0
7,0,713855,249623,1500810,74949,10314,749426,11
7,0,711396,248047,1566891,74077,10262,782579,11
7,0,705466,247241,1524589,73799,10889,761883,11
7,0,708460,247222,1331557,73715,8558,665399,11
7,0,713223,249155,1299612,74517,8757,649162,11
7,0,705442,246611,1299325,73515,8246,649234,11
7,0,712724,248105,1443735,74061,9022,721416,11
7,-1,641249,220180,1206094,66081,7908,602500,0
7,0,711262,247722,1368007,73979,9218,683520,11
7,-1,640018,219627,1302037,65911,8656,650390,2
7,0,710081,249043,1279541,74677,8791,639037,11
7,0,709114,248237,1397617,74146,8704,698461,11
7,0,710278,248890,1273632,74470,8337,636203,11
7,0,707396,247606,1350538,73864,8530,674736,11
7,0,730947,252274,1330310,77160,9115,664499,11
7,0,712160,247434,1231346,73757,8228,615205,11
7,0,711208,248911,1415041,74464,10070,706855,11
7,0,707747,247219,1511971,73661,9611,755577,11
7,0,710326,248267,1547051,73993,9971,772783,11
7,-1,641519,219901,1246107,65981,7083,622510,0
7,0,707818,246965,1397077,73705,8233,698122,11
7,0,708293,246763,1269120,73579,8421,634171,11
7,0,710834,248342,1358247,74186,8081,678739,11
7,0,710596,247923,1536753,74131,10142,767395,11
7,0,714893,248437,1355040,74279,8741,677101,11
7,0,710622,247651,1255772,73847,8224,627508,11
7,0,711809,247624,1389807,73798,8798,694368,11
7,0,730373,251742,1412040,76995,9635,705571,11
7,0,707400,247701,1504492,73829,10367,751819,11
7,0,714874,249610,1277904,74648,8635,638325,11
7,0,708221,247776,1347042,73851,8227,673142,11
7,0,716630,250382,1249881,75044,9060,624213,11
7,-1,638205,219715,1266450,65997,7076,632637,2
7,-1,662498,224964,1209887,69435,7945,604451,0
7,0,709871,247062,1200021,73617,8571,599626,11
7,0,712179,247589,1476273,73846,10051,738245,11
7,0,711087,247958,1354002,73933,9147,676544,11
7,0,711786,247185,1546993,73681,9985,772958,11
7,0,731045,252347,1491101,77183,10706,745018,11
7,0,712468,247602,1396489,73881,9777,697825,11
7,-1,642351,220536,1261441,66293,8260,630287,2
7,0,711923,247441,1464542,73762,9764,731234,11
7,-1,640471,218975,1265841,65730,8574,633048,0
7,0,712337,248848,1345613,74463,8582,672395,11
7,0,709058,247623,1411712,73845,9207,705328,11
7,0,712732,248112,1462739,74031,9648,730620,11
7,0,712965,248240,1286110,73998,9512,642666,11
7,0,710830,248258,1326366,74043,9775,662726,11
7,0,733118,251909,1479015,77072,11040,739125,11
7,0,716432,248748,1371039,74426,9379,684486,11
7,-1,645802,221059,1317778,66775,8630,657935,2
7,0,710497,247271,1424119,73612,9989,711411,11
7,0,715209,248682,1517984,74361,9944,758262,11
7,0,711372,247055,1453036,73565,10412,725966,11
7,0,713924,248325,1503163,74046,10446,751082,11
7,-1,641058,219401,1360691,65884,9191,679790,0
7,0,701535,247008,1286228,73749,8301,642680,11
7,0,705858,247763,1287950,73931,8632,643543,11
7,0,702763,247016,1274837,73842,8556,636939,11
7,0,708302,249036,1246069,74645,9384,622237,11
7,0,708680,248703,1433377,74230,8915,716206,11
7,0,707104,247682,1374055,73916,8760,686549,11
7,0,707249,249101,1282088,74549,8771,640373,11
7,0,704615,247071,1449913,73738,9605,724691,11
7,-1,647947,220163,1339879,66232,8550,669207,0
7,0,708903,247712,1382951,74055,9111,691031,11
7,0,704317,247638,1268435,74096,7724,633756,11
7,0,708303,247895,1379546,74125,8756,689370,11
7,-1,644419,220309,1332314,66505,8753,665317,0
7,0,715352,250076,1373860,75202,8931,686226,11
7,0,707579,248194,1283824,74197,9569,641594,11
7,0,710703,248564,1433450,74259,9886,716266,11
7,0,711979,249119,1422365,74344,9794,710580,11
7,-1,645299,220422,1291406,66572,8192,644866,0
7,0,716496,249995,1417340,74915,10161,708270,11
7,0,710300,248188,1455349,74132,10238,727283,11
7,0,711843,247943,1435785,74068,9749,717280,11
7,0,729690,252889,1524492,77458,12169,761995,11
7,0,711652,249309,1535049,74560,9506,767013,11
7,0,712110,248817,1395467,74340,9278,697090,11
7,-1,643189,219745,1169462,66071,7352,584152,2
7,0,734144,253053,1489080,77706,10129,744115,11
7,0,735075,253310,1516890,77782,10883,758010,11
7,0,718125,250026,1354803,75196,9059,676562,11
7,0,714111,248493,1452720,74371,9884,725851,11
7,0,732052,253434,1535540,77786,10747,767287,11
7,0,714563,250138,1338741,75178,9183,668228,11
7,-1,638988,218278,1248128,65550,7695,623510,0
7,0,713944,248957,1496203,74506,9853,747609,11
7,0,709477,247746,1354517,74051,9508,676790,11
7,0,709472,248165,1449824,74186,9647,724424,11
7,-1,638153,218551,1248782,65676,7438,623847,2
7,-1,661435,223662,1211119,69086,8597,605173,0
7,0,710602,248428,1425176,74146,9837,712028,11
7,0,716261,250318,1503998,75142,9922,750387,11
7,0,712607,248561,1527370,74270,9898,763091,11
7,0,713006,248417,1371408,74261,9323,685445,11
7,0,712600,248282,1448692,74148,10249,723811,11
7,-1,644741,219513,1169452,65977,8048,584199,0
7,0,730664,252989,1585841,77519,11662,792534,11
7,0,732037,253117,1560875,77603,10829,779717,11
7,0,714991,250302,1411809,75125,9629,704788,11
7,0,711223,248189,1451921,74145,9670,725242,11
7,0,711517,248414,1382227,74243,9979,690447,11
7,0,712737,248533,1267677,74234,9223,633390,11
7,0,712812,248589,1259296,74350,9094,628871,11
7,-1,636575,218055,1169395,65504,7089,584165,0
7,0,732751,252879,1611670,77499,10976,805525,11
7,0,717455,250125,1519615,75073,10145,759695,11
7,0,714069,248632,1432056,74315,10293,715604,11
7,0,709477,248444,1576247,74254,10019,787466,11
7,0,708375,248724,1495466,74287,9257,747335,11
7,0,712974,250030,1385621,74960,8939,691341,11
7,0,714142,250948,1281734,75419,9276,639513,11
7,0,709853,248843,1208268,74330,7898,603653,11
7,0,711157,248863,1369234,74390,9204,683640,11
7,0,709075,248580,1433793,74323,9509,716433,11
7,-1,635594,218855,1215033,65748,7465,606872,2
7,0,712626,249089,1276415,74485,7831,637814,11
7,-1,640443,219646,1251955,65970,7418,625485,0
7,0,708883,248350,1453713,74232,8283,726374,11
7,0,714937,250486,1306434,75192,8238,652454,11
7,-1,643858,220920,1256376,66677,7372,627289,2
7,0,712924,248555,1396339,74306,8712,697693,11
7,0,713447,249830,1308818,74899,8933,653759,11
7,0,711615,249058,1390723,74471,9042,694875,11
7,0,716146,250275,1387971,75123,8788,693263,11
7,0,707980,248809,1293341,74304,8790,646208,11
7,0,714636,250588,1376087,75139,8330,687116,11
7,0,708009,248044,1419062,73930,8888,709230,11
7,0,710912,248834,1287448,74259,8300,643288,11
7,0,760813,262620,1390890,80264,10265,695054,11
7,0,713110,248974,1268960,74263,8468,634027,11
7,0,712233,249471,1368691,74488,8075,683770,11
7,0,735249,253755,1435454,77589,9364,717336,11
7,0,719013,251049,1327223,75171,8758,662850,11
7,-1,635390,217917,1242023,65359,7632,620572,0
7,0,709687,248087,1387459,73914,8341,693301,11
7,0,713460,249122,1300257,74247,8498,649644,11
7,0,739459,254322,1487001,78283,10035,742990,11
7,0,715806,250718,1311177,75091,9122,654876,11
7,0,712341,248555,1416801,74082,8493,707985,11
7,0,734542,253275,1445744,77433,9910,722379,11
7,0,714816,248353,1402841,73943,9174,701039,11
7,0,710239,248345,1291936,73997,8753,645498,11
7,0,713834,249471,1238853,74436,8508,618932,11
7,0,730679,252759,1332911,77341,9458,666104,11
7,-1,658608,223022,1305697,68918,7912,652377,0
7,0,710072,248152,1373205,74049,8063,686100,11
7,0,709685,247651,1377262,73779,7730,688222,11
7,0,711808,248167,1523601,74010,9238,761285,11
7,0,709625,247823,1388401,73919,8041,693841,11
7,0,712287,248487,1478834,74212,9076,739091,11
7,0,716085,249670,1399514,74734,8144,698987,11
7,0,733675,253305,1415812,77533,9386,707462,11
7,0,716729,250197,1316459,75000,8724,657397,11
7,0,714036,248885,1420998,74290,8685,709824,11
7,0,713858,248279,1464343,74150,9611,731663,11
7,0,714383,248665,1471832,74214,9207,735573,11
7,-1,641802,219381,1256882,66114,7550,627715,0
7,0,710811,248828,1448656,74353,10093,723853,11
7,0,715180,249745,1379269,74826,9187,688673,11
7,0,710485,247867,1368025,73954,9138,683459,11
7,0,733025,252722,1583706,77382,9137,791295,11
7,0,715745,250286,1388339,75165,8525,693014,11
7,0,711144,247715,1401436,73918,9308,700300,11
7,0,735030,253145,1405924,77480,9703,702197,11
7,0,713235,248114,1387291,74101,8864,693258,11
7,0,715806,248781,1365916,74317,8956,682449,11
7,0,717943,249164,1329671,74635,9187,664074,11
7,0,707066,247350,1365573,73862,8743,682224,11
7,0,711089,247929,1303328,74036,8131,651172,11
7,0,733209,253179,1440394,77542,9229,719756,11
7,0,712259,248285,1546270,74091,8829,772597,11
7,0,712620,248253,1315635,74167,9330,657135,11
7,0,715680,248467,1376939,74207,9862,687813,11
7,-1,637620,219127,1130262,65799,6623,564660,2
7,0,736340,252642,1443838,77374,9920,721503,11
7,-1,640756,219729,1226802,66223,7271,612758,0
7,0,713767,250235,1306906,75109,9105,652530,11
7,0,707536,248110,1388032,74099,9075,693487,11
7,0,708850,248238,1412403,74093,8767,705702,11
7,-1,637408,218136,1130703,65418,6712,564898,0
7,0,708901,248084,1372012,74080,8712,685529,11
7,0,711898,248626,1304347,74202,8663,651629,11
7,0,709705,248321,1415632,74182,9417,707298,11
7,0,708033,248527,1286940,74153,8814,642918,11
7,-1,643501,220608,1279495,66599,7749,638917,2
7,0,733723,252800,1436109,77427,10662,717519,11
7,0,707862,247701,1340291,73855,8965,669678,11
7,0,707608,247091,1479579,73655,9409,739275,11
7,0,716326,249997,1455577,74961,10008,726817,11
7,0,706439,247820,1561163,73944,9567,779956,11
7,0,711632,249264,1446598,74652,9454,722548,11
7,0,708916,248734,1463880,74289,9247,731310,11
7,0,711800,248787,1408519,74305,9234,703720,11
7,0,713927,250406,1433391,75126,9421,715649,11
7,0,711431,248811,1579935,74277,10496,789516,11
7,0,709537,247788,1512498,73927,9939,755627,11
7,0,708173,248170,1473525,74115,8725,736074,11
7,0,710211,248338,1279600,74164,8396,639343,11
7,0,710402,248033,1299780,73999,8279,649396,11
7,-1,641070,218965,1253660,65752,7873,626315,2
7,0,712420,247689,1293313,73970,8919,645983,11
7,0,711101,248337,1296508,74186,8490,647705,11
7,-1,643766,218983,1257348,65710,8134,628276,0
7,0,712190,249427,1371163,74695,8175,684652,11
7,0,716625,250034,1392101,74625,8440,695506,11
7,0,715017,249461,1309081,74569,8423,654010,11
7,0,713762,249139,1436309,74337,8811,717684,11
7,0,715559,249363,1418383,74500,8639,708705,11
7,0,719274,250477,1350177,75069,8951,674367,11
7,0,716243,248994,1410756,74345,9187,704746,11
7,0,738424,254165,1424799,77871,9461,711928,11
7,-1,640624,218937,1338731,65591,8240,668948,0
7,0,710133,249481,1435582,74577,8565,717269,11
7,0,711503,249102,1346983,74354,8524,672881,11
7,0,710679,248928,1396140,74284,8513,697674,11
7,0,733608,253747,1419585,77700,9006,709369,11
7,0,715840,250783,1334520,75302,8514,666306,11
7,0,706693,247031,1376359,73741,8534,687718,11
7,0,731682,252686,1330512,77238,9659,664623,11
7,0,714203,249998,1238495,74946,8817,618451,11
7,0,711259,248045,1327537,73995,9336,663524,11
7,0,712130,248731,1305560,74244,8430,652274,11
7,0,714615,248709,1280880,74360,8373,639876,11
7,-1,642033,219351,1330273,65732,8198,664661,2
7,0,709923,247649,1416972,74015,8622,708013,11
7,-1,643385,219206,1131664,65723,7256,565255,0
7,0,713615,248061,1465234,74086,9490,732139,11
7,0,710989,247991,1497140,74144,9601,748175,11
7,0,715115,249263,1410666,74659,8861,704701,11
7,0,713734,248175,1515714,74124,9160,757485,11
7,0,713610,249376,1425216,74755,9509,711874,11
7,0,711483,248398,1343802,74212,9569,671407,11
7,0,718345,250708,1434877,75303,9654,716661,11
7,-1,641702,219306,1151598,65708,7158,575290,2
7,0,713848,248324,1464835,74228,9261,731883,11
7,0,715791,248405,1534306,74185,10162,766700,11
7,-1,647347,220709,1228203,66377,8722,612582,0
7,0,715387,249011,1636250,74393,10664,817760,11
7,0,716749,249632,1463012,74665,8935,730943,11
7,0,716306,249291,1433021,74401,9971,716018,11
7,-1,650199,221294,1301909,66675,8343,650031,2
7,-1,644278,218431,1451688,65356,9661,725332,0
7,0,716907,248933,1361431,74250,9486,680327,11
7,0,739700,253557,1620844,77595,10516,809796,11
7,0,719454,250531,1454244,75117,9508,726320,11
7,0,716677,248470,1511654,74130,10546,755461,11
7,0,718355,249009,1496932,74254,10030,747961,11
7,0,720857,249706,1454095,74710,9277,726301,11
7,0,708467,248226,1527403,74027,9645,763332,11
7,0,712910,248317,1445850,74111,9248,722383,11
7,0,711478,248502,1571794,74075,9804,785414,11
7,-1,660378,224074,1209735,69064,7615,604506,0
7,0,716901,250487,1430561,75050,9262,714548,11
7,0,713043,248950,1417914,74304,8583,708349,11
7,0,709398,247291,1418397,73689,8800,708809,11
7,-1,638004,219217,1146078,65721,6896,572481,2
7,0,713619,248038,1411731,73957,9362,705382,11
7,0,729236,252190,1690403,77136,10994,844693,11
7,0,711942,248474,1497449,74136,9583,748280,11
7,0,713229,248449,1432764,74019,9340,715957,11
7,0,712703,248995,1450509,74491,9296,724640,11
7,0,710504,247646,1418485,73864,9564,708844,11
7,0,709877,247460,1446576,73753,9677,722893,11
7,0,715013,249183,1325150,74349,9305,662145,11
7,0,715741,249781,1449795,74830,10157,724017,11
7,0,711587,248045,1409548,73941,9104,704356,11
7,0,712302,248240,1494229,74071,9416,746663,11
7,-1,637768,218550,1196758,65450,7141,597965,0
7,0,710575,247221,1443586,73683,9097,721347,11
7,0,719313,250750,1398370,75141,8788,698463,11
7,0,714357,247805,1780256,73933,11957,889454,11
7,0,708781,247222,1400008,73666,9434,699602,11
7,0,715071,249442,1457634,74634,9514,728135,11
7,0,710487,247765,1386409,73895,9017,692727,11
7,0,710458,247270,1410855,73804,9188,704879,11
7,0,718597,249291,1537422,74573,10105,767962,11
7,-1,636649,218314,1214204,65472,7357,606580,2
7,0,712911,247706,1512382,73835,9854,755701,11
7,-1,645888,220824,1302447,66636,7679,650377,0
7,0,713903,247296,1555583,73734,11602,777233,11
7,0,729073,252648,1569815,77219,9891,784309,11
7,0,708962,248066,1493409,74034,9080,746183,11
7,0,713943,248863,1489077,74279,9174,744164,11
7,0,709873,247884,1396316,73946,8803,697673,11
7,0,732760,252639,1525430,77360,9650,762215,11
7,0,712176,248206,1492817,74391,9503,745569,11
7,0,710618,247610,1390314,73942,8600,694706,11
7,0,717246,249780,1783137,74909,11783,890948,11
7,0,711012,247970,1480715,74081,9219,739868,11
7,-1,637612,218091,1218975,65379,6830,609130,0
7,0,706026,246218,1403928,73429,9119,701527,11
7,0,709297,247146,1395112,73753,9393,697112,11
7,0,715582,249279,1451925,74889,9185,725221,11
7,0,715004,248548,1501556,74580,9752,750096,11
7,0,711817,247096,1505294,73865,8935,752294,11
7,-1,641388,220760,1220948,66569,7621,609782,2
7,-1,637627,218479,1157837,65495,6942,578517,0
7,0,709596,247524,1400788,74002,9330,699957,11
7,0,714693,248832,1491498,74715,10083,745084,11
7,0,708020,246705,1554422,73728,9320,776744,11
7,0,715430,249159,1501386,74897,9480,749947,11
7,0,709770,247242,1435320,74013,9422,717136,11
7,0,756226,260053,1674647,79752,11420,836807,11
7,0,713487,247261,1340634,73996,10039,669902,11
7,0,716678,249014,1522389,74767,9940,760433,11
7,0,713451,247515,1410658,74117,9867,704805,11
7,0,711421,247138,1417776,73980,9224,708356,11
7,0,711825,247011,1471864,73877,10169,735626,11
7,-1,642665,219652,1231750,66108,7202,615224,0
7,0,712680,247124,1338007,73983,8679,668530,11
7,0,735436,251757,1590011,77263,11038,794532,11
7,0,700840,247068,1492615,73949,9407,745696,11
7,0,703671,247788,1612277,74162,9870,805370,11
7,0,704960,248059,1529876,74455,9811,764244,11
7,0,703088,246989,1408815,73893,10157,703954,11
7,0,703927,247669,1373971,74157,10578,686481,11
7,0,699802,246544,1504100,73857,10012,751656,11
7,-1,635914,218617,1178875,65599,6757,588895,2
7,0,703332,247017,1567620,73882,10286,783392,11
7,0,705970,247614,1526939,74101,10147,762931,11
7,0,707650,247792,1500431,74196,9808,749541,11
7,0,700671,246662,1477112,73767,9872,738314,11
7,0,704798,247793,1506693,74204,9983,752675,11
7,0,726519,252029,1626650,77308,11566,812909,11
7,0,703506,247011,1421431,73875,9707,710349,11
7,0,708394,247857,1422665,74202,9934,710858,11
7,-1,635771,217601,1245529,65220,7285,622392,0
7,0,708117,248785,1628179,74782,10579,813062,11
7,0,706556,247685,1393981,74156,10633,696362,11
7,0,706522,247171,1523823,73927,10132,761267,11
7,0,708740,247116,1456535,73933,10188,727748,11
7,0,706148,248463,1508840,74373,9250,754082,11
7,0,703558,247089,1441811,73987,9630,720390,11
7,0,703929,246814,1516973,73826,10187,757849,11
7,0,725148,252072,1568131,77373,10912,783303,11
7,0,703490,246749,1505350,73823,10083,752044,11
7,0,704695,246633,1415554,73789,9626,707316,11
7,-1,637374,218226,1273121,65469,7333,636157,0
7,0,711389,249192,1411889,74929,9978,705184,11
7,0,708171,246775,1481366,73824,9035,740248,11
7,0,708485,247759,1285717,74109,8252,642336,11
7,-1,639482,219349,1160741,65841,6852,579913,2
7,0,710956,249095,1294264,74784,8740,646327,11
7,0,706259,247287,1268777,74040,9028,633790,11
7,0,707399,246991,1350973,73879,8859,674919,11
7,0,709287,247362,1360894,74048,8613,679829,11
7,0,709620,247213,1417930,73992,9233,708306,11
7,-1,646102,219962,1229264,66212,7843,613843,0
7,0,708721,249570,1431170,75041,8884,714674,11
7,0,702559,246565,1311757,73743,8392,655108,11
7,0,701601,246056,1279372,73652,8411,639335,11
7,0,726698,251753,1413672,77295,10166,706408,11
7,0,705910,246776,1419492,73855,9476,709063,11
7,0,707049,247489,1458342,74108,8860,728899,11
7,0,703821,246717,1279106,73839,9054,638893,11
7,-1,642997,220480,1194549,66454,7478,596509,0
7,-1,638944,218372,1236628,65518,7068,617654,2
7,0,710436,247752,1416972,74055,8961,708366,11
7,0,709101,246877,1439243,73671,10327,718837,11
7,0,704851,247224,1423100,73882,10668,711072,11
7,0,705913,247026,1555779,73761,10837,777490,11
7,0,727866,252115,1502783,77267,10271,750578,11
