0,-1,718520,247715,1236215,73528,7628,617701,0
0,-1,724174,251302,1425304,74894,9085,711782,2
0,-1,718189,248140,1419415,73608,8634,709299,0
0,-1,722106,250501,1399113,74643,8386,698781,0
0,-1,684342,234653,1346312,72090,8405,672743,0
0,-1,664457,229985,1352283,68691,8566,675730,0
0,-1,665305,229790,1342853,68543,8449,671051,0
0,-1,665327,229736,1215462,68586,7975,607274,0
0,-1,669165,232674,1478724,69796,9781,738590,0
0,-1,660620,229626,1279609,68645,7150,639402,0
0,-1,663393,230502,1198480,68968,7175,598767,0
0,-1,663309,229642,1226715,68641,7211,612628,0
0,-1,666368,230366,1179061,68935,7675,589073,0
0,-1,663285,230196,1314267,68843,7921,656684,0
0,-1,685982,234368,1284114,72033,8491,641585,0
0,-1,667029,230028,1246290,68812,8001,622632,0
0,-1,668710,230509,1326843,68968,8178,662909,0
0,-1,667678,230458,1197665,68857,7366,598313,0
0,-1,666031,230124,1195236,68686,7601,597219,0
0,-1,666479,231000,1234579,69004,7512,616869,0
0,-1,668709,231002,1215539,68873,7870,607334,0
0,-1,666070,230558,1342274,68870,7397,670713,0
0,-1,689184,234702,1267549,72076,8970,633283,0
0,-1,667137,230393,1205320,68911,8098,602165,0
0,-1,669693,232259,1326240,69807,7914,662464,0
0,-1,686828,234915,1259354,72309,8159,629197,0
0,-1,669250,230326,1222549,68962,7557,610802,0
0,-1,668585,230225,1323105,69031,8327,661097,0
0,-1,673316,232648,1248368,70072,8354,623317,0
0,-1,674182,231261,1222424,69283,7481,610752,0
0,-1,664667,230833,1219698,69168,7607,609292,0
0,-1,664874,230271,1291620,69001,7637,645400,0
0,-1,663452,230442,1225374,69056,7011,612211,0
0,-1,665447,230333,1215305,68966,7082,607113,0
0,-1,668492,230805,1338880,69106,7752,668929,0
0,-1,661580,230569,1321371,69089,8945,660157,0
0,-1,664434,230227,1401392,68989,6801,700231,0
0,-1,663164,230307,1236613,68986,7183,617791,0
0,-1,661887,230118,1165262,68815,7215,582217,0
0,-1,667163,230782,1275128,69072,7114,637122,0
0,-1,669991,231735,1315303,69370,7547,657194,0
0,-1,666298,231963,1326128,69602,8082,662470,0
0,-1,684799,235051,1275979,72264,8327,637453,0
0,-1,669568,232121,1363475,69655,7926,681049,0
0,-1,664436,230896,1218077,69105,7283,608558,0
0,-1,665750,230715,1292602,69020,7069,645807,0
0,-1,667493,230901,1269425,69098,7521,634209,0
0,-1,690632,235309,1460272,72314,9304,729719,0
0,-1,666452,230526,1350234,68937,8425,674736,0
0,-1,667824,231317,1328496,69239,7324,663739,0
0,-1,669629,231428,1338360,69254,8125,668726,0
0,-1,669637,232291,1268661,69742,7709,633498,0
0,-1,670542,231139,1243065,69163,7751,621137,0
0,-1,669560,231384,1312216,69285,7835,655697,0
0,-1,665432,230889,1188626,69070,7367,593940,0
0,-1,668214,232928,1430185,69995,8893,714275,0
0,-1,665108,230982,1242385,69080,7316,620710,0
0,-1,667578,231768,1346437,69313,7505,672671,0
0,-1,667122,230644,1304818,69021,7924,652059,0
0,-1,666889,230804,1216530,68983,6966,607705,0
0,-1,685663,235266,1256281,72325,8573,627748,0
0,-1,667243,230854,1248185,68848,7361,623705,0
0,-1,669416,231039,1231257,69132,7693,615226,0
0,-1,668036,230602,1271542,68809,7719,635283,0
0,-1,674175,231743,1304222,69157,8262,651656,0
0,-1,665788,231557,1275349,69142,7501,637170,0
0,-1,669573,231578,1284854,69199,7388,641940,0
0,-1,672108,232801,1369008,69791,8783,683786,0
0,-1,689442,235754,1319265,72335,8748,659064,0
0,-1,672199,232153,1323062,69526,8562,660942,0
0,-1,672870,232664,1311709,69716,8334,655053,0
0,-1,672875,232922,1375149,69959,8579,686557,0
0,-1,669047,231097,1258019,69104,8118,628525,0
0,-1,694982,236855,1297531,72754,8754,648334,0
0,-1,692804,236732,1337685,72820,8330,668471,0
0,-1,674796,231949,1222148,69356,7426,610575,0
0,-1,673403,231991,1297215,69252,8543,647976,0
0,-1,668213,232505,1329954,69427,8432,664403,0
0,-1,692821,236914,1274300,72643,9213,636609,0
0,-1,671871,232744,1315644,69516,8204,657238,0
0,-1,669144,231845,1338636,69248,8593,668883,0
0,-1,673328,232518,1350304,69740,8816,674415,0
0,-1,686924,235418,1301590,72185,9170,650503,0
0,-1,667869,231553,1277013,69300,7930,638015,0
0,-1,669354,230178,1343664,68752,8559,671425,0
0,-1,692338,235860,1319356,72374,9058,659193,0
0,-1,671233,231683,1423182,69380,8509,710935,0
0,-1,690846,235488,1302410,72383,9317,650713,0
0,-1,685976,234634,1315144,72103,9035,657082,0
0,-1,667311,230691,1329744,68852,8273,664403,0
0,-1,669822,231209,1358784,69013,8488,678901,0
0,-1,665784,230652,1348179,68845,8541,673671,0
0,-1,689275,235802,1358518,72419,8785,678804,0
0,-1,670460,231093,1346037,69135,8343,672321,0
0,-1,669340,231816,1361092,69496,8313,679748,0
0,-1,669787,231066,1402323,69011,8737,700742,0
0,-1,674953,232412,1339495,69590,8801,669049,0
0,-1,689940,235311,1270748,72106,9464,634917,0
0,-1,677661,232914,1396350,69619,8988,697135,0
0,-1,671559,231091,1211366,68926,8570,605056,0
0,-1,667604,231152,1277390,68843,8952,638251,0
0,-1,670545,231842,1275193,69175,7753,637065,0
0,-1,668504,230045,1375559,68616,8152,687366,0
0,-1,663095,229751,1295632,68515,7767,647423,0
0,-1,669108,230480,1263854,68802,8895,631385,0
0,-1,668780,230339,1266424,68739,8971,632762,0
0,-1,662532,229383,1334737,68357,8262,666631,0
0,-1,666493,230128,1312735,68695,7923,655908,0
0,-1,669282,230227,1342712,68716,8930,670609,0
0,-1,666721,230023,1347426,68618,9029,673342,0
0,-1,669470,230374,1371558,68778,9181,684750,0
0,-1,672964,230998,1297429,68961,8636,648237,0
0,-1,671904,232172,1324897,69597,8720,661317,0
0,-1,666200,229456,1349519,68399,7804,674228,0
0,-1,671841,232020,1303185,69584,8231,651038,0
0,-1,664381,229384,1292987,68413,8438,646066,0
0,-1,689032,234818,1494467,72023,9126,746627,0
0,-1,669981,230327,1291037,68712,9180,645295,0
0,-1,665763,229683,1302096,68482,7603,650575,0
0,-1,671389,230822,1274248,68928,7794,636620,0
0,-1,673371,232308,1198884,69696,7217,598674,0
0,-1,667570,230445,1366654,68764,7173,682802,0
0,-1,675834,231505,1461606,69122,9112,730387,0
0,-1,670685,230280,1183613,68622,6778,591448,0
0,-1,672629,230886,1248649,68784,6438,623792,0
0,-1,680964,234885,1358210,71562,8894,678660,0
0,-1,671680,233260,1216081,69470,7246,607296,0
0,-1,660146,230164,1214177,68161,7698,606707,0
0,-1,664715,230344,1163006,68229,6896,581100,0
0,-1,662514,230072,1257840,68232,7272,628497,0
0,-1,662664,230571,1294122,68270,7924,646634,0
0,-1,667612,232147,1225832,69196,7417,612223,0
0,-1,667425,230789,1275991,68514,7481,637609,0
0,-1,669292,232015,1247657,70017,8482,623080,0
0,-1,665650,229582,1226717,68917,8061,612937,0
0,-1,662379,230647,1283409,69356,8312,641304,0
0,-1,661814,229681,1260646,68968,8510,629582,0
0,-1,673323,233770,1468594,70647,9173,733437,0
0,-1,666612,230037,1365575,69108,8243,682419,0
0,-1,666362,230346,1287059,69272,7984,643002,0
0,-1,667800,230154,1218023,69183,7980,608619,0
0,-1,668828,230276,1225470,69226,7758,612344,0
0,-1,666819,230131,1204471,69206,8016,601714,0
0,-1,665936,230197,1350011,69247,7809,674520,0
0,-1,670111,230648,1302170,69365,7770,650566,0
0,-1,666893,230260,1288012,69230,7857,643476,0
0,-1,669793,230825,1225605,69384,8264,612038,0
0,-1,670765,230498,1297995,69306,8024,648535,0
0,-1,674785,231641,1219687,69928,8098,609084,0
0,-1,662779,229765,1272407,69027,8222,635683,0
0,-1,666565,231219,1250848,69430,7683,625026,0
0,-1,669257,230924,1377346,69397,7730,688261,0
0,-1,671592,231895,1236132,69928,7725,617390,0
0,-1,664340,229394,1325974,68906,7707,662543,0
0,-1,671376,230927,1248120,69456,7873,623568,0
0,-1,665883,230534,1436724,69250,8637,717908,0
0,-1,666369,230601,1230023,69306,7882,614664,0
0,-1,669585,230409,1318248,69251,7519,658702,0
0,-1,668966,230347,1372448,69261,9327,685728,0
0,-1,662272,229839,1201855,69049,8889,599966,0
0,-1,668727,230326,1351830,69193,7839,675466,0
0,-1,668770,230834,1247935,69245,8319,623509,0
0,-1,668590,230646,1389401,69190,8128,694188,0
0,-1,666492,229343,1154767,68700,7430,576985,0
0,-1,666438,230307,1331899,69200,8260,665463,0
0,-1,671952,230579,1402218,69316,8761,700620,0
0,-1,671750,230294,1302480,69095,8393,650909,0
0,-1,665895,229922,1288612,68987,8063,643792,0
0,-1,669895,230578,1292015,69195,8099,645512,0
0,-1,672930,230983,1234732,69358,8723,616865,0
0,-1,675931,231819,1219974,69783,8539,609036,0
0,-1,669024,232411,1266347,70009,8537,632432,0
0,-1,663087,229700,1434158,68963,8962,716554,0
0,-1,667881,230673,1303950,69411,8047,651365,0
0,-1,666662,230748,1537916,69404,9676,768484,0
0,-1,673466,232180,1349163,70020,9377,673701,0
0,-1,670491,231407,1375416,69714,9542,687064,0
0,-1,669809,231846,1365725,69821,7896,682466,0
0,-1,694587,235905,1510409,72940,10687,754674,0
0,-1,674091,231938,1484974,69770,8979,742000,0
0,-1,672757,231521,1341107,69595,8587,670125,0
0,-1,677914,232828,1262351,70340,8632,630317,0
0,-1,674021,231975,1231949,69797,8187,615476,0
0,-1,668308,231103,1350642,69456,8672,674776,0
0,-1,667547,231230,1223234,69505,8198,611165,0
0,-1,670375,231742,1255984,69748,9195,627184,0
0,-1,671984,231985,1344113,69691,8580,671584,0
0,-1,672539,231513,1236727,69460,8311,617872,0
0,-1,678011,232756,1256769,70034,8691,627632,0
0,-1,691351,235964,1369794,72742,9116,684330,0
0,-1,672361,231337,1384464,69488,8416,691552,0
0,-1,675592,232898,1226499,70221,7907,612395,0
0,-1,670718,231545,1322049,69576,8356,660468,0
0,-1,670938,230821,1262523,69354,7913,630715,0
0,-1,670910,230663,1236542,69319,7850,617775,0
0,-1,666733,231506,1231306,69527,8132,615207,0
0,-1,668184,231171,1327883,69402,8193,663537,0
0,-1,670259,231748,1261729,69807,7871,630168,0
0,-1,672364,232934,1227050,70267,8084,612591,0
0,-1,673376,231567,1230406,69614,8236,614742,0
0,-1,671818,231249,1281152,69338,7394,640116,0
0,-1,668744,230696,1252763,69222,7469,625929,0
0,-1,672695,231116,1347398,69499,8217,673226,0
0,-1,692264,235405,1449247,72659,8924,724096,0
0,-1,673694,230815,1387633,69408,8295,693323,0
0,-1,674795,232429,1319197,70055,8054,658966,0
0,-1,673313,231050,1257292,69378,8433,628088,0
0,-1,673638,230875,1356440,69301,8554,677498,0
0,-1,667547,230833,1231795,69249,8327,615417,0
0,-1,668113,230468,1216206,69121,8614,607560,0
0,-1,668993,231360,1362027,69438,8866,680476,0
0,-1,669757,230864,1364429,69273,9543,681808,0
0,-1,675942,232947,1319641,70199,9024,658912,0
0,-1,671268,231021,1354384,69329,8615,676581,0
0,-1,670602,231423,1282692,69670,8455,640528,0
0,-1,670768,229973,1181278,69183,8289,590229,0
0,-1,668875,230452,1175575,69382,7897,587333,0
0,-1,676419,232117,1318380,70133,8645,658362,0
0,-1,663259,230765,1449146,69518,8330,723619,0
0,-1,668087,231763,1357355,70089,9190,677785,0
0,-1,664064,229880,1304732,69186,8490,651276,0
0,-1,663380,229719,1323727,69144,7774,661397,0
0,-1,668986,231548,1240126,69948,7619,619397,0
0,-1,666339,229957,1327171,69242,8006,663133,0
0,-1,672574,233022,1257596,70494,9014,628006,0
0,-1,664718,229642,1452018,69101,8893,725298,0
0,-1,667372,229759,1473053,69028,8750,735735,0
0,-1,666526,229847,1342935,69073,8960,670602,0
1,-1,726337,251661,1636070,75094,11147,817178,0
1,-1,716088,248092,1442064,73566,8522,720618,0
1,-1,666729,229706,1452206,68676,8919,725642,0
1,-1,665360,230725,1545028,68892,10006,772088,0
1,-1,672066,233449,1342022,70029,8277,670200,2
1,-1,667391,230696,1509351,68845,9221,754221,0
1,-1,673338,233552,1376639,70140,8066,687533,0
1,-1,683043,234916,1340033,72007,8703,669530,0
1,-1,686399,234656,1360780,72078,8484,680091,0
1,-1,665607,229844,1305212,68764,7780,652215,0
1,-1,668274,232248,1381600,69723,8057,689853,0
1,-1,664683,229675,1254279,68673,7917,626708,0
1,-1,663386,230090,1233312,68806,7743,616248,0
1,-1,664252,230042,1255431,68831,7932,627219,0
1,-1,665287,229635,1194767,68599,8135,596937,0
1,-1,670289,231313,1258366,69241,7413,628717,0
1,-1,666430,230366,1231128,68795,7481,615174,0
1,-1,672529,233047,1319693,69912,7878,659093,0
1,-1,671244,231132,1247060,69013,8134,622977,0
1,-1,689560,235662,1216803,72281,8645,607899,0
1,-1,664461,230688,1220464,68975,7747,609822,0
1,-1,670065,231922,1382762,69529,8544,690742,0
1,-1,664909,229903,1240090,68710,7740,619587,0
1,-1,667488,231086,1212599,69242,7935,605904,0
1,-1,670339,231196,1364110,69257,7944,681670,0
1,-1,667646,230163,1311040,68920,7650,655092,0
1,-1,667884,230430,1299010,69003,7939,649217,0
1,-1,688201,235149,1193218,72383,8978,596182,0
1,-1,692119,235110,1266271,72340,8633,632814,0
1,-1,658651,229630,1292715,68692,8173,645961,0
1,-1,665016,230720,1317326,69088,7613,658285,0
1,-1,660638,229795,1317835,68748,7194,658568,0
1,-1,663993,230175,1166142,68995,7532,582554,0
1,-1,669374,232175,1372885,69840,7701,685906,0
1,-1,658668,229932,1326525,68835,8488,662861,0
1,-1,664280,230555,1291351,69051,7480,645252,0
1,-1,664630,230041,1312078,68849,7630,655690,0
1,-1,669450,232727,1237082,69990,8246,617677,0
1,-1,671174,232651,1330647,69839,7711,664704,0
1,-1,665439,230457,1216086,68892,7351,607628,0
1,-1,663519,231140,1308775,69198,8102,653843,0
1,-1,664729,230935,1287076,69046,8115,643026,0
1,-1,665673,230937,1211438,69103,7604,605299,0
1,-1,663108,230459,1361507,68934,7209,680396,0
1,-1,664772,230575,1207258,69000,7533,603036,0
1,-1,664552,230159,1301723,68823,7638,650401,0
1,-1,668385,230688,1488157,69039,8032,743650,0
1,-1,665854,230667,1329267,69019,8226,664103,0
1,-1,665366,230452,1257289,68904,7776,628205,0
1,-1,665483,229883,1371330,68691,6932,685224,0
1,-1,686705,235420,1268879,72387,8353,634050,0
1,-1,669898,231068,1222920,69173,7902,611061,0
1,-1,666856,230201,1234431,68887,7990,616795,0
1,-1,668830,232212,1316270,69650,7800,657502,0
1,-1,694754,240597,1353867,72004,7576,676400,0
1,-1,666167,231403,1371743,69164,7311,685537,0
1,-1,664688,231063,1294747,69121,7104,646895,0
1,-1,670288,232325,1340560,69738,7500,669628,0
1,-1,664319,230261,1207386,68796,7253,603188,0
1,-1,665249,230424,1302992,68818,7747,651019,0
1,-1,668660,232057,1325441,69492,8008,662147,0
1,-1,669356,231062,1306012,69122,7886,652544,0
1,-1,666636,230651,1366949,68857,7722,683032,0
1,-1,671346,231638,1442716,69216,8497,720833,0
1,-1,666466,231005,1299500,68885,7713,649360,0
1,-1,666890,230721,1285759,68901,8110,642389,0
1,-1,689241,235784,1312728,72350,8698,655854,0
1,-1,667250,231199,1268980,69018,7561,633949,0
1,-1,669625,230785,1277450,68932,8154,638284,0
1,-1,669735,230987,1253623,68972,7187,626375,0
1,-1,667902,231536,1454058,69178,8498,726684,0
1,-1,675795,233563,1390912,70178,8643,694700,0
1,-1,671809,231459,1249963,69156,7817,624551,0
1,-1,669552,230935,1313915,69092,7563,656513,0
1,-1,673085,231678,1244274,69456,8366,621442,0
1,-1,679383,233634,1335818,70016,8694,667103,0
1,-1,663977,231254,1230348,68922,7841,614749,0
1,-1,668460,231715,1230935,69083,7602,615063,0
1,-1,668320,231816,1271246,69220,7960,635032,0
1,-1,674531,233572,1353481,70100,8927,675938,0
1,-1,670088,231637,1216085,69290,8174,607510,0
1,-1,664644,230727,1230880,68855,8523,615029,0
1,-1,666453,230175,1314134,68696,8580,656688,0
1,-1,666531,230192,1318252,68693,8072,658686,0
1,-1,669730,231155,1353333,69063,8140,676205,0
1,-1,661050,228746,1337372,68260,8465,668275,0
1,-1,673850,232151,1329450,69576,8914,664026,0
1,-1,665577,230294,1233011,68838,7512,616037,0
1,-1,672581,232621,1370623,69764,8957,684546,0
1,-1,668407,230718,1351889,68910,8332,675430,0
1,-1,665839,230656,1260651,68851,8060,629938,0
1,-1,669465,230948,1338434,69059,8661,668609,0
1,-1,666309,229999,1439886,68704,8337,719320,0
1,-1,663974,229736,1361603,68649,8662,680387,0
1,-1,672288,232518,1453292,69699,8713,725786,0
1,-1,669133,230398,1285127,68731,7361,642008,0
1,-1,669399,230959,1291720,68971,8486,645360,0
1,-1,672635,231370,1284578,68956,9110,641774,0
1,-1,676713,233024,1314054,69757,9314,655931,0
1,-1,665598,230612,1366269,68640,9117,682484,0
1,-1,687565,236208,1323114,72341,9431,661002,0
1,-1,674406,232828,1422708,69831,8899,710513,0
1,-1,667558,230222,1360735,68714,8710,679837,0
1,-1,667333,230255,1262606,68661,8961,630596,0
1,-1,669044,231195,1302941,68966,8551,651196,0
1,-1,666351,230109,1486009,68650,8625,742273,0
1,-1,664118,229709,1287024,68466,7626,643206,0
1,-1,669817,230826,1193194,68918,7584,596119,0
1,-1,667785,230252,1374818,68698,8992,686704,0
1,-1,669607,230553,1308664,68754,8857,653987,0
1,-1,668835,229806,1340868,68537,9114,669626,0
1,-1,664839,229878,1324999,68555,8001,661608,0
1,-1,670682,231723,1314986,69471,7746,656668,0
1,-1,671635,231433,1268323,69267,7884,633432,0
1,-1,668635,231292,1325686,69047,8140,661913,0
1,-1,668411,230454,1427669,68783,8148,713305,0
1,-1,670274,230391,1382203,68710,9102,690277,0
1,-1,671862,232183,1309930,69523,7185,654345,0
1,-1,668774,230179,1311573,68666,7669,655431,0
1,-1,669363,229958,1323537,68590,7801,661359,0
1,-1,665021,229881,1272791,68572,7342,635875,0
1,-1,670687,230035,1322183,68613,7453,660616,0
1,-1,671685,230467,1222293,68726,7185,610673,0
1,-1,677436,232261,1333791,69546,6810,666096,0
1,-1,663042,230069,1189034,68144,6763,594077,0
1,-1,683879,234786,1329598,71519,8031,664459,0
1,-1,662965,231591,1248797,68827,8063,623766,0
1,-1,664565,230674,1224591,68322,7567,611773,0
1,-1,661388,229725,1294540,68098,7573,646807,0
1,-1,683227,235284,1404930,71678,8565,702023,0
1,-1,661662,229824,1236814,68220,7453,618023,0
1,-1,663828,229683,1296133,68188,7395,647574,0
1,-1,663105,228886,1215804,68708,8269,607481,0
1,-1,670270,230408,1245258,69242,8541,622220,0
1,-1,667017,229410,1322132,68933,9102,660586,0
1,-1,670384,232907,1229316,70285,8917,613318,0
1,-1,684162,234018,1440662,72224,9590,719711,0
1,-1,672061,232574,1293178,70215,7628,645822,0
1,-1,664681,229981,1228011,69118,8499,613562,0
1,-1,672582,232235,1225468,70070,7705,612129,0
1,-1,668318,230196,1213584,69221,7808,606332,0
1,-1,666595,230091,1339215,69137,8203,669145,0
1,-1,668150,230127,1326069,69206,8369,662556,0
1,-1,665992,229286,1305962,68885,7329,652602,0
1,-1,666670,230574,1320651,69340,7760,659874,0
1,-1,668413,230195,1309893,69132,8198,654561,0
1,-1,669139,229966,1281545,69090,7575,640403,0
1,-1,689923,234241,1410120,72281,8654,704587,0
1,-1,662652,229726,1219521,69021,7941,609370,0
1,-1,682584,234297,1248566,72364,8257,623842,0
1,-1,668498,231158,1215202,69646,7558,606843,0
1,-1,664591,229881,1299163,69070,7698,649187,0
1,-1,666037,230383,1281037,69291,7994,640061,0
1,-1,668234,229816,1305445,69013,7582,652321,0
1,-1,671811,232523,1343332,70215,8062,670734,0
1,-1,673974,231329,1374349,69683,8299,686455,0
1,-1,666061,229397,1313258,68910,7204,656292,0
1,-1,668300,229916,1418755,69073,9107,708971,0
1,-1,675277,231263,1300678,69434,8702,649650,0
1,-1,687361,234393,1404267,72407,8542,701717,0
1,-1,672425,231284,1367517,69393,8803,683261,0
1,-1,667326,230645,1303049,69235,7980,651100,0
1,-1,674771,232830,1242091,70148,8230,620158,0
1,-1,665169,229993,1348898,69105,8929,674035,0
1,-1,668706,229839,1338355,68912,8569,668651,0
1,-1,672607,231269,1285349,69446,8326,642160,0
1,-1,666004,230361,1298065,69061,8765,648739,0
1,-1,671828,231585,1229896,69680,7463,614367,0
1,-1,673784,232090,1213758,69969,8579,606119,0
1,-1,671995,230383,1310951,69104,8780,654970,0
1,-1,683933,234674,1441092,72319,9587,720101,0
1,-1,671821,232524,1293297,70154,8344,645780,0
1,-1,667295,230412,1360735,69101,8352,679970,0
1,-1,668763,231843,1564599,69732,9179,781902,0
1,-1,670899,231578,1371483,69576,9203,685542,0
1,-1,677669,233351,1273534,70609,8540,635597,0
1,-1,670366,230889,1346423,69553,8513,672766,0
1,-1,671611,231266,1424739,69623,9751,711895,0
1,-1,670069,230519,1336466,69305,9087,667748,0
1,-1,674035,232740,1224601,70216,7960,611492,0
1,-1,694932,236099,1382711,72947,9465,690868,0
1,-1,672565,231253,1341791,69578,8538,670409,0
1,-1,667569,231126,1361012,69477,8420,680098,0
1,-1,670562,230920,1304337,69396,7959,651822,0
1,-1,673212,231717,1418873,69738,9290,708523,0
1,-1,669662,231523,1300215,69547,7745,649573,0
1,-1,670681,231170,1322416,69303,8569,660632,0
1,-1,673539,231606,1330028,69489,8463,664525,0
1,-1,673139,232283,1228712,69705,7509,613816,0
1,-1,674898,233008,1227767,70243,8242,613105,0
1,-1,692631,236032,1352668,72791,8981,675992,0
1,-1,670349,231730,1316845,69639,8145,657843,0
1,-1,671033,230840,1338384,69307,8617,668764,0
1,-1,668833,230223,1291119,69117,7934,644953,0
1,-1,679059,232702,1239895,70203,8133,619150,0
1,-1,669676,232218,1225239,69889,8312,611909,0
1,-1,668610,230926,1229158,69383,8115,614045,0
1,-1,689002,235726,1389138,72747,9427,694064,0
1,-1,672527,231557,1250908,69526,9030,624879,0
1,-1,679322,233447,1325097,70351,8610,661706,0
1,-1,676379,234126,1262607,70713,7780,630202,0
1,-1,670983,231477,1214031,69508,7765,606553,0
1,-1,674613,232106,1298361,69849,7397,648628,0
1,-1,692758,235539,1369829,72779,8428,684413,0
1,-1,671669,231013,1405122,69477,8605,701942,0
1,-1,673234,230904,1357904,69345,8721,678382,0
1,-1,672985,230674,1306645,69127,8953,652863,0
1,-1,675231,233567,1394467,70451,8693,696008,0
1,-1,672258,230553,1257661,69133,8802,628398,0
1,-1,675640,231993,1310656,69807,8690,654307,0
1,-1,669075,230572,1355440,69136,8500,677227,0
1,-1,669591,230077,1240628,69078,8606,619823,0
1,-1,667129,229837,1380188,68921,8933,689492,0
1,-1,671027,231081,1265772,69444,8918,632394,0
1,-1,674084,231901,1368453,70002,9406,683367,0
1,-1,667779,229003,1226900,68926,7970,612985,0
1,-1,696726,236255,1382980,73638,9292,690931,0
1,-1,659629,229460,1288850,69009,7902,643737,0
1,-1,686773,235095,1429670,72723,9356,714385,0
1,-1,665823,230398,1392201,69355,8935,695791,0
1,-1,663259,229989,1229719,69278,7481,614387,0
1,-1,666645,230582,1301610,69478,7657,650324,0
1,-1,670727,231561,1376959,69892,7850,687813,0
1,-1,685784,234647,1308975,72615,9281,654069,0
1,-1,665884,230254,1325773,69300,7769,662372,0
1,-1,666271,229904,1568909,69136,9579,782902,0
1,-1,667233,230458,1341951,69309,8346,670277,0
2,-1,714503,247913,1425030,73543,8734,711907,0
2,-1,717145,249164,1336299,73928,8001,667727,0
2,-1,667486,230575,1424434,68986,8395,711942,0
2,-1,673614,232831,1338002,69874,8389,668165,0
2,-1,666680,230611,1262017,68890,8234,630563,0
2,-1,685485,234427,1359101,72026,9117,679108,0
2,-1,661559,230118,1418729,68681,8412,708856,0
2,-1,660399,230302,1221452,68825,7536,610247,2
2,-1,665261,230599,1365485,68990,8827,681838,0
2,-1,669416,232111,1329511,69729,8607,663921,0
2,-1,665393,230243,1394044,68778,8817,696671,0
2,-1,670181,232067,1382652,69633,8612,690605,0
2,-1,682826,234515,1267183,72008,8920,633146,0
2,-1,664931,230432,1298276,68948,8295,648719,0
2,-1,668084,230258,1207500,68851,7576,603343,0
2,-1,667808,230723,1230600,69087,7318,614777,0
2,-1,666715,230144,1319519,68779,7562,659340,0
2,-1,670891,232307,1391330,69610,8415,694944,0
2,-1,669006,230736,1176134,68852,7594,587636,0
2,-1,669579,230364,1226542,68721,7838,612924,0
2,-1,691311,235266,1263702,72247,9426,631442,0
2,-1,666373,230858,1277672,69036,7965,638302,0
2,-1,668555,230574,1375954,68952,8359,687598,0
2,-1,672815,230517,1295607,69026,7702,647319,0
2,-1,672632,231730,1354874,69638,8461,676708,0
2,-1,665413,229752,1200523,68801,6989,599790,0
2,-1,667549,230394,1291052,68984,7816,645123,0
2,-1,673138,231698,1326813,69633,8261,662773,0
2,-1,672815,230639,1388362,69074,8062,693702,0
2,-1,661664,230653,1342080,69124,7612,670667,0
2,-1,662206,230319,1314984,68946,7886,657068,0
2,-1,661983,230466,1339844,69069,7296,669417,0
2,-1,663895,230221,1222998,68936,7462,611020,0
2,-1,663527,230093,1313844,68851,8067,656507,0
2,-1,672756,232365,1421302,69826,8873,709950,0
2,-1,661594,229900,1292205,68852,7801,645664,0
2,-1,664699,230147,1258601,68906,6989,628874,0
2,-1,670270,230982,1223718,69153,8012,611471,0
2,-1,665313,230463,1324837,68922,7130,662017,0
2,-1,667147,230960,1399051,69104,7998,699125,0
2,-1,662841,231068,1173579,69121,7586,586399,0
2,-1,668607,232658,1405159,69823,8393,701770,0
2,-1,665438,231191,1318084,69216,7729,658549,0
2,-1,665360,231644,1309688,69336,7237,654384,0
2,-1,668833,232174,1328008,69684,7683,663281,0
2,-1,684925,234971,1272631,72215,8456,635775,0
2,-1,667879,230308,1268969,68896,7939,633962,0
2,-1,666039,231037,1289468,69092,7581,644344,0
2,-1,671033,232952,1376102,69979,8318,687282,0
2,-1,667512,230696,1216823,69083,7419,607878,0
2,-1,665694,230461,1308729,68932,7560,653722,0
2,-1,667140,230469,1323160,68875,7777,661162,0
2,-1,666381,230233,1189111,68865,7135,593942,0
2,-1,664825,231033,1213809,69146,7384,606412,0
2,-1,668544,231873,1241804,69424,7611,620381,0
2,-1,666579,231219,1392184,69191,7924,695582,0
2,-1,666027,231138,1204790,69100,7052,602013,0
2,-1,667652,230992,1337764,69085,8301,668419,0
2,-1,667433,230507,1259655,68814,7488,629370,0
2,-1,665919,231189,1252236,69168,7779,625632,0
2,-1,667308,231389,1199971,69108,7167,599517,0
2,-1,671961,232042,1278459,69636,8757,638530,0
2,-1,668484,231243,1390509,69004,7859,694789,0
2,-1,668401,230704,1287518,68932,7664,643377,0
2,-1,687946,235527,1244494,72247,8886,621754,0
2,-1,672175,232682,1371886,69801,8599,685198,0
2,-1,664156,230100,1352652,68660,7660,675939,0
2,-1,666751,231428,1344865,69078,8267,671983,0
2,-1,669821,230898,1400092,68945,8611,699644,0
2,-1,671665,232068,1284844,69506,7672,641681,0
2,-1,667647,231026,1304539,68977,8056,651809,0
2,-1,667605,230587,1343692,69001,8432,671393,0
2,-1,674798,232966,1406548,69871,8443,702650,0
2,-1,672198,232441,1339351,69661,8136,668988,0
2,-1,673042,231488,1191002,69275,7782,595085,0
2,-1,695667,236374,1313030,72473,9057,655986,0
2,-1,663505,231690,1301685,69150,7698,650227,0
2,-1,672063,232772,1360066,69672,9242,679250,0
2,-1,667644,231686,1370037,69129,8567,684617,0
2,-1,670663,231540,1461062,69198,8245,730131,0
2,-1,691203,235685,1423731,72339,8890,711281,0
2,-1,675793,231941,1358200,69392,8504,678417,0
2,-1,670382,231486,1225403,69093,8362,612247,0
2,-1,669592,231176,1472645,69106,8341,735784,0
2,-1,666868,230522,1259393,68824,7482,629310,0
2,-1,671458,230898,1287413,69031,8382,643329,0
2,-1,671366,231079,1272308,69061,8187,635620,0
2,-1,664522,230682,1284238,69020,8240,641669,0
2,-1,687666,235200,1328639,72113,8551,663794,0
2,-1,668879,231142,1345041,69042,7995,671742,0
2,-1,689894,235372,1315546,72230,8871,657372,0
2,-1,668016,230998,1359638,69087,8015,679423,0
2,-1,665940,229785,1342566,68650,8142,670840,0
2,-1,662558,229859,1234620,68736,8096,616744,0
2,-1,689075,235407,1314523,72275,9068,656741,0
2,-1,668734,230499,1274852,68801,7989,636984,0
2,-1,669579,230699,1253276,68800,8188,626143,0
2,-1,677445,233213,1402981,69712,9738,700625,0
2,-1,701712,237651,1271238,73264,9465,635078,0
2,-1,664677,230472,1282394,68590,9011,640526,0
2,-1,669005,231107,1512179,68898,9209,755639,0
2,-1,672835,232913,1338367,69689,7829,668508,0
2,-1,671798,232305,1351170,69579,8410,674916,0
2,-1,669407,230824,1312860,68921,9192,655900,0
2,-1,670505,230821,1267496,68910,8752,632869,0
2,-1,687033,235632,1341355,72264,9496,670320,0
2,-1,665494,230529,1207571,68839,7695,603307,0
2,-1,674564,232819,1248688,69847,8391,623609,0
2,-1,667173,230405,1536863,68700,8848,767993,0
2,-1,672067,232002,1308185,69382,9094,653841,0
2,-1,670501,230637,1299404,68864,9173,648672,0
2,-1,665496,230077,1216660,68619,8274,607814,0
2,-1,667184,230532,1291072,68833,7731,645027,0
2,-1,666643,229979,1294006,68595,7446,646568,0
2,-1,670423,231644,1217286,69355,8231,607782,0
2,-1,668789,230224,1272593,68604,8498,635641,0
2,-1,667493,230150,1387726,68705,8065,693248,0
2,-1,666095,230348,1355623,68797,7098,677433,0
2,-1,672833,232402,1220452,69670,7310,609466,0
2,-1,672214,231541,1222459,69317,7653,610607,0
2,-1,675270,231774,1236980,69475,7913,617827,0
2,-1,669258,230447,1287821,68689,6859,643540,0
2,-1,673959,231787,1172502,69332,7191,585673,0
2,-1,694490,235155,1323718,72039,7788,661504,0
2,-1,662956,230463,1316175,68309,7084,657594,0
2,-1,662247,230078,1253083,68165,7117,626066,0
2,-1,665509,231018,1307416,68443,7049,653324,0
2,-1,667040,231702,1178319,68865,7342,588614,0
2,-1,660687,229259,1196394,67998,7503,597707,0
2,-1,659758,230046,1222356,68156,7970,610648,0
2,-1,659744,229990,1203975,68285,7801,601609,0
2,-1,660657,229258,1208241,67982,7351,603665,0
2,-1,666482,230655,1317816,69356,8548,658473,0
2,-1,688538,234756,1306503,72505,9254,652778,0
2,-1,672085,231348,1233003,69784,8259,615833,0
2,-1,685984,234552,1345162,72337,9847,672007,0
2,-1,662502,229401,1269121,68917,7651,634148,0
2,-1,686900,234930,1417421,72536,9345,708242,0
2,-1,682967,234625,1331592,72396,10107,665341,0
2,-1,687265,234625,1341776,72415,9048,670396,0
2,-1,689167,235093,1326041,72620,8477,662504,0
2,-1,664819,230160,1280086,69203,8010,639579,0
2,-1,668205,230137,1326618,69155,8562,662864,0
2,-1,667716,230347,1205081,69269,7366,602020,0
2,-1,664568,229855,1276737,68998,6939,637987,0
2,-1,689485,234486,1347430,72427,8874,673161,0
2,-1,668812,230647,1216847,69305,7850,608047,0
2,-1,670759,230217,1388395,69242,8407,693731,0
2,-1,666412,230281,1303491,69242,9082,651240,0
2,-1,666741,229638,1175408,68992,8344,587265,0
2,-1,665176,229723,1295789,69021,8014,647449,0
2,-1,667396,231657,1227570,69801,8471,613154,0
2,-1,665139,230063,1377372,69156,7499,688290,0
2,-1,672658,231969,1237736,69984,7410,618082,0
2,-1,669876,231108,1286046,69506,7534,642485,0
2,-1,668849,230321,1335479,69207,8756,667348,0
2,-1,670502,231873,1203719,69952,7473,601033,0
2,-1,694821,236165,1361376,73467,9624,680250,0
2,-1,675326,231657,1279750,69803,9037,638652,0
2,-1,664126,229790,1239205,69007,7291,619231,0
2,-1,665180,229657,1232757,68934,7555,615947,0
2,-1,666243,230221,1308272,69066,8483,653664,0
2,-1,668393,230426,1218432,69124,7734,608747,0
2,-1,691896,235335,1369721,72684,8838,684282,0
2,-1,670767,230862,1237808,69263,7994,618366,0
2,-1,670274,230910,1175760,69442,7649,587270,0
2,-1,676824,232394,1314908,69998,8549,656815,0
2,-1,668132,230408,1330424,69123,8299,664709,0
2,-1,675140,231431,1201182,69654,7820,599910,0
2,-1,670729,229779,1243209,68988,8221,621316,0
2,-1,663671,230522,1301320,69181,8001,650158,0
2,-1,686032,234613,1378200,72425,9896,688647,0
2,-1,668920,231642,1379297,69606,8356,689115,0
2,-1,666541,230920,1245535,69467,8764,622314,0
2,-1,670510,231417,1427173,69506,10103,713132,0
2,-1,693615,236001,1440299,73042,9718,719548,0
2,-1,670057,231197,1286107,69615,8244,642661,0
2,-1,671891,231587,1370673,69692,8706,684556,0
2,-1,668632,230933,1179771,69489,7930,589298,0
2,-1,667577,230567,1186295,69262,8164,592657,0
2,-1,672055,230913,1380246,69363,8126,689672,0
2,-1,675747,232833,1310183,70287,8231,654190,0
2,-1,691646,236363,1373365,73028,9158,686134,0
2,-1,676455,233582,1248230,70513,7909,623167,0
2,-1,671845,231514,1300565,69627,8614,649574,0
2,-1,669421,231165,1217978,69397,7557,608453,0
2,-1,670692,231555,1322189,69420,7958,660742,0
2,-1,674828,231749,1325811,69555,8765,662479,0
2,-1,668389,230807,1358196,69206,8404,678630,0
2,-1,691016,235756,1350830,72687,8792,674870,0
2,-1,669682,230400,1257728,69115,7915,628342,0
2,-1,667406,230586,1304942,69235,8143,651996,0
2,-1,673402,232132,1245084,69945,8136,621863,0
2,-1,672140,231039,1249759,69378,7961,624273,0
2,-1,676093,231826,1227338,69677,8357,613135,0
2,-1,666508,230813,1331619,69343,8813,665285,0
2,-1,670140,231682,1288077,69654,8230,643426,0
2,-1,666687,230574,1327533,69227,8212,663339,0
2,-1,673538,232576,1255392,70076,8409,626855,0
2,-1,697437,237162,1363435,73177,8977,681280,0
2,-1,666231,230572,1309921,69219,7765,654442,0
2,-1,672566,231450,1239638,69492,8039,619173,0
2,-1,670692,230964,1323372,69510,8104,661152,0
2,-1,676162,232119,1225643,69842,8186,612262,0
2,-1,670077,231024,1332706,69498,8706,665772,0
2,-1,675314,232124,1503375,69769,9145,751191,0
2,-1,696685,236511,1379244,72912,10529,689202,0
2,-1,693433,236848,1392971,73032,10106,695979,0
2,-1,691344,235474,1371526,72587,9047,685346,0
2,-1,672299,230973,1226614,69269,7501,612807,0
2,-1,676307,233157,1403103,70273,9177,700641,0
2,-1,669436,230168,1331486,69013,8934,665233,0
2,-1,673605,230671,1309379,69223,8701,654014,0
2,-1,672018,230330,1184892,69177,7515,591908,0
2,-1,693654,235722,1368691,72771,9975,683705,0
2,-1,666742,229368,1355289,68981,8046,677180,0
2,-1,667574,229437,1312123,69017,7917,655685,0
2,-1,659573,229792,1337698,69211,7787,668023,0
2,-1,661686,229623,1409182,69116,8654,705131,0
2,-1,687435,234993,1355469,72728,9275,677116,0
2,-1,668142,230670,1419344,69500,8312,709182,0
2,-1,686701,235258,1366162,72778,8446,682607,0
2,-1,667011,230532,1340509,69444,8243,669782,0
2,-1,669920,231663,1353619,69983,7886,676113,0
2,-1,664554,229765,1253666,69183,7793,626369,0
2,-1,665671,229339,1427396,68868,8987,713154,0
2,-1,664578,229903,1362610,69126,9033,680759,0
3,-1,726499,250683,1404571,74649,8849,701784,0
3,-1,721190,249561,1570040,74082,9322,784472,0
3,-1,741002,253582,1334316,77122,9334,666774,0
3,-1,664944,229946,1500501,68647,9179,749679,0
3,-1,673226,232582,1571937,69718,9974,785004,0
3,-1,666439,229620,1323317,68459,7827,661305,0
3,-1,668224,230117,1290545,68740,7511,644789,0
3,-1,664800,230855,1417029,69254,8761,708310,0
3,-1,664572,230061,1275734,68813,7389,637388,0
3,-1,664702,230489,1351232,68893,8452,674885,0
3,-1,662488,229895,1311555,68754,8028,655263,2
3,-1,666876,230014,1235009,68765,8202,617000,0
3,-1,668394,229886,1217282,68783,7967,608197,0
3,-1,663777,230423,1225834,68844,7402,612519,0
3,-1,669748,231529,1373398,69492,8937,686011,0
3,-1,667937,231204,1315239,69200,7328,657234,0
3,-1,668918,230912,1248509,69088,7834,623739,0
3,-1,664205,230567,1209350,68941,8044,604313,0
3,-1,668634,231146,1437546,69026,8786,718362,0
3,-1,670904,231810,1236583,69337,8553,617547,0
3,-1,669429,230767,1302856,68929,8147,650911,0
3,-1,667390,230542,1222162,68815,7389,610619,0
3,-1,669126,230971,1305785,69034,7706,652512,0
3,-1,670248,231186,1208018,69253,7288,603563,0
3,-1,667725,230167,1282751,68968,7783,640963,0
3,-1,668972,230677,1247290,69120,8102,623129,0
3,-1,668180,230987,1227862,69204,8226,613499,0
3,-1,668188,230111,1336882,68911,7954,667989,0
3,-1,669507,230770,1297792,69152,7843,648412,0
3,-1,666734,232396,1338839,69925,7807,668624,0
3,-1,661191,230194,1310669,68934,7964,654908,0
3,-1,668332,231930,1346715,69702,8368,672748,0
3,-1,665328,231168,1231177,69272,7156,615129,0
3,-1,662510,230231,1220545,68975,8164,609829,0
3,-1,687443,235050,1316909,72326,8451,657976,0
3,-1,664948,231332,1262259,69443,7915,630486,0
3,-1,668470,232191,1375350,69853,7377,686877,0
3,-1,665627,230313,1355942,68934,7308,677614,0
3,-1,666335,231491,1287760,69304,7106,643428,0
3,-1,668859,232332,1313414,69724,7724,656060,0
3,-1,669444,230349,1244994,68937,8319,621952,0
3,-1,664280,230872,1286559,69081,7617,642828,0
3,-1,668502,232018,1327171,69651,7887,662897,0
3,-1,670548,233030,1342766,70021,8007,670573,0
3,-1,664484,230832,1352640,69054,7854,675905,0
3,-1,668109,230820,1327649,69085,8071,663341,0
3,-1,666593,230203,1371237,68794,8300,685206,0
3,-1,686593,235684,1315228,72453,8692,657096,0
3,-1,665450,231294,1341542,69183,7212,670283,0
3,-1,668353,231351,1325778,69205,7414,662449,0
3,-1,663676,230356,1218833,68859,7506,608974,0
3,-1,688338,235428,1273936,72395,8557,636490,0
3,-1,670009,231967,1301486,69615,7531,650090,0
3,-1,663719,231084,1244941,69112,7837,621994,0
3,-1,662875,230304,1214811,68918,6724,606935,0
3,-1,664961,229826,1210595,68766,6989,604872,0
3,-1,666086,231601,1299455,69225,7620,649343,0
3,-1,672525,233472,1310366,70248,7338,654288,0
3,-1,666220,231047,1300194,68997,7147,649732,0
3,-1,666630,231211,1295581,69190,7625,647329,0
3,-1,669753,230820,1266969,68902,8086,633091,0
3,-1,667675,231566,1237227,69497,7436,617924,0
3,-1,670462,232346,1377398,69724,8404,687924,0
3,-1,672824,232846,1338108,69848,8009,668185,0
3,-1,664824,230670,1261686,68908,8042,630365,0
3,-1,687427,235444,1326865,72231,8685,663099,0
3,-1,669108,230871,1443132,68941,8016,721182,0
3,-1,668919,230838,1271901,68871,7714,635549,0
3,-1,669448,231050,1322618,69046,8081,660678,0
3,-1,668641,230752,1223154,68929,7809,611118,0
3,-1,670980,232539,1333288,69689,8119,665880,0
3,-1,668120,231129,1207829,69099,7352,603544,0
3,-1,669689,231388,1292174,69162,8494,645593,0
3,-1,669260,231529,1357320,69208,8446,678159,0
3,-1,672631,231616,1268761,69272,8169,633947,0
3,-1,673562,231798,1338426,69137,8560,668715,0
3,-1,675606,231621,1305041,69019,8073,652112,0
3,-1,668763,231967,1211355,69248,8584,605157,0
3,-1,668621,232403,1263317,69370,9043,631215,0
3,-1,669413,230894,1339181,68899,8450,669148,0
3,-1,670645,231930,1465433,69316,8367,732157,0
3,-1,673360,231516,1252195,69138,8187,625589,0
3,-1,669505,231436,1377691,69095,8383,688373,0
3,-1,669875,231242,1235578,69143,8341,617353,0
3,-1,667204,230507,1271755,68874,7993,635407,0
3,-1,670332,230589,1316767,68844,8157,657854,0
3,-1,669172,230303,1330355,68760,8677,664722,0
3,-1,664452,230589,1396995,68933,8663,698015,0
3,-1,666204,230401,1278116,68881,7744,638655,0
3,-1,695147,240216,1331677,71672,9046,665412,0
3,-1,669726,230671,1402438,68892,8557,700768,0
3,-1,666742,230869,1254545,69031,7993,626783,0
3,-1,672858,232569,1353023,69829,8515,675691,0
3,-1,675138,232472,1362483,69872,8495,680297,0
3,-1,669486,231726,1386028,69261,8585,692531,0
3,-1,668318,230334,1350752,68696,8569,674966,0
3,-1,668211,230587,1347817,68841,8444,673423,0
3,-1,668820,230834,1548466,68784,9780,773678,0
3,-1,671727,230764,1255835,68792,8878,627375,0
3,-1,666856,231571,1365775,69012,9461,682217,0
3,-1,666719,230734,1251046,68785,8279,625023,0
3,-1,666985,230697,1370215,68752,8354,684643,0
3,-1,666210,230763,1364522,68908,9076,681834,0
3,-1,672128,232332,1403967,69554,8541,701064,0
3,-1,668959,230377,1364368,68721,8828,681795,0
3,-1,665515,230606,1337307,68832,8723,668202,0
3,-1,690291,235227,1272608,72120,8892,635827,0
3,-1,691651,235361,1291972,72201,8713,645568,0
3,-1,689168,234895,1283396,72047,9694,641424,0
3,-1,666094,230000,1392228,68601,9278,695446,0
3,-1,669734,230073,1485357,68618,8979,742085,0
3,-1,666804,230904,1236403,68957,8180,617706,0
3,-1,665811,230176,1213551,68667,7174,606331,0
3,-1,669186,230878,1288623,68926,7500,643690,0
3,-1,666355,230181,1299966,68652,8232,649641,0
3,-1,672560,232363,1310914,69558,8596,654527,0
3,-1,674563,232415,1395578,69601,8554,697355,0
3,-1,664299,229902,1212023,68629,7698,605476,0
3,-1,687709,234105,1313563,71738,8310,656296,0
3,-1,669861,230931,1262190,68948,7080,630627,0
3,-1,692698,234898,1366929,72026,8971,682920,0
3,-1,670322,230695,1309820,68869,7181,654405,0
3,-1,669483,229911,1272323,68511,7120,635765,0
3,-1,671007,230102,1270382,68623,6772,634628,0
3,-1,681872,235064,1339269,71610,8223,669105,0
3,-1,660853,230165,1255403,68160,7437,627184,0
3,-1,667905,231929,1217447,68940,7069,607914,0
3,-1,661603,230010,1386311,68123,7862,692684,0
3,-1,665714,230450,1363474,68300,7389,681273,0
3,-1,660400,230628,1297825,68358,7964,648365,0
3,-1,664231,230428,1207561,68413,7477,603160,0
3,-1,667488,231933,1281920,69112,7542,640227,0
3,-1,663283,229781,1319820,69091,8702,659507,0
3,-1,667176,230040,1216561,69170,7962,607821,0
3,-1,689721,234869,1330152,72544,9074,664566,0
3,-1,665046,230427,1301282,69257,7837,649837,0
3,-1,668696,232089,1303035,69967,9407,651061,0
3,-1,662772,229460,1295933,68937,8559,647591,0
3,-1,668182,230372,1340680,69245,8283,669481,0
3,-1,663506,230001,1213979,69096,7936,606506,0
3,-1,664647,229608,1284562,68995,7919,641864,0
3,-1,663633,229776,1220679,68998,7959,609908,0
3,-1,668604,231305,1229903,69766,7782,614204,0
3,-1,668067,229936,1176838,69086,7284,587953,0
3,-1,665489,230508,1262693,69354,7428,630928,0
3,-1,667334,230099,1309696,69123,7696,654295,0
3,-1,689787,234943,1283948,72473,8629,641526,0
3,-1,674027,231314,1224931,69746,8433,611795,0
3,-1,666859,230756,1420833,69328,8804,709988,0
3,-1,668363,230851,1224296,69438,8510,611574,0
3,-1,664406,229749,1277724,69007,7633,638415,0
3,-1,689970,239617,1340254,72009,8758,669656,0
3,-1,669725,232224,1254225,70152,7914,626240,0
3,-1,668066,230244,1300977,69217,7704,649929,0
3,-1,668437,231038,1230644,69660,7591,614737,0
3,-1,668814,230789,1297966,69363,8319,648547,0
3,-1,668480,230267,1241463,69242,7582,620292,0
3,-1,669812,230281,1237492,69204,7539,618337,0
3,-1,673089,231301,1409227,69555,8862,704112,0
3,-1,669306,231513,1257377,69659,7610,628203,0
3,-1,666435,230454,1314581,69306,8003,656919,0
3,-1,672757,231720,1236183,69819,7913,617352,0
3,-1,667599,230428,1342896,69092,7939,671054,0
3,-1,668340,229906,1225030,69069,7296,612126,0
3,-1,665385,229882,1300754,68911,7586,649961,0
3,-1,668280,230123,1178048,69036,7810,588642,0
3,-1,694530,235369,1467775,72521,9977,733350,0
3,-1,670252,230379,1343358,69128,7910,671198,0
3,-1,671550,230433,1257445,69127,8421,628246,0
3,-1,669730,229890,1333920,68967,8661,666543,0
3,-1,662971,229983,1308783,68892,7522,653986,0
3,-1,665872,230560,1344754,69263,8737,671965,0
3,-1,662298,230111,1199331,69282,7370,599195,0
3,-1,692364,235621,1456018,72847,10112,727402,0
3,-1,675197,233434,1388165,70506,9490,693089,0
3,-1,672604,232562,1299955,70114,8883,649095,0
3,-1,664742,230276,1317988,69239,7928,658912,0
3,-1,668190,230807,1315946,69441,7982,657358,0
3,-1,674731,232952,1444208,70339,9750,720692,0
3,-1,668996,231387,1401908,69500,9650,700498,0
3,-1,671471,231300,1400901,69588,8547,699950,0
3,-1,672773,232140,1310802,69868,8184,654872,0
3,-1,686243,234869,1341247,72504,8936,670154,0
3,-1,689654,235507,1377701,72683,8738,688161,0
3,-1,670650,231198,1343266,69494,8849,671760,0
3,-1,671199,232151,1345110,69750,8221,671995,0
3,-1,670331,231277,1351823,69380,8436,675356,0
3,-1,693385,235996,1301543,72726,9925,650248,0
3,-1,669181,231418,1312272,69448,8380,655646,0
3,-1,671053,231632,1295142,69567,7806,646938,0
3,-1,672134,231544,1284915,69573,8424,641797,0
3,-1,693661,235141,1375803,72498,10031,687358,0
3,-1,670304,231242,1322826,69484,8378,660786,0
3,-1,675627,232879,1196525,70248,7552,597389,0
3,-1,675003,232067,1314840,69863,8103,656497,0
3,-1,668665,231132,1324264,69436,9008,661269,0
3,-1,665697,230088,1295776,69084,8630,647352,0
3,-1,672234,231087,1324390,69390,9082,661813,0
3,-1,689696,235661,1347058,72682,8882,673089,0
3,-1,671724,231012,1311028,69250,7871,655117,0
3,-1,667688,230900,1292024,69319,7999,645457,0
3,-1,671627,232141,1197996,69700,7999,598454,0
3,-1,671153,231386,1225078,69613,7958,612033,0
3,-1,672075,231180,1287447,69541,7366,643411,0
3,-1,669995,230540,1272145,69312,8895,635540,0
3,-1,672390,230762,1269615,69295,8276,634414,0
3,-1,670860,230758,1488089,69197,9273,743643,0
3,-1,670336,231049,1241549,69350,7525,620300,0
3,-1,670494,230746,1196905,69281,8395,597876,0
3,-1,670835,230865,1334904,69287,7992,667018,0
3,-1,691494,234943,1457786,72347,9780,728424,0
3,-1,675431,232755,1304386,70038,9607,651508,0
3,-1,676975,231961,1323834,69830,9341,661183,0
3,-1,668929,229939,1216256,69012,7797,607697,0
3,-1,673030,230718,1286876,69323,8472,642958,0
3,-1,669722,230403,1279497,69414,7901,639221,0
3,-1,672468,230472,1332428,69408,8753,665710,0
3,-1,682152,232931,1320043,70547,7724,659124,0
3,-1,662489,229766,1423528,69139,8842,710608,0
3,-1,665862,230342,1372257,69381,9206,685984,0
3,-1,665040,229904,1267562,69211,8308,633362,0
3,-1,668194,229953,1424950,69228,7867,712128,0
3,-1,663795,229727,1269036,69162,8097,634032,0
3,-1,662531,229191,1313319,68986,7710,656205,0
3,-1,663500,229723,1330893,69192,7871,664924,0
3,-1,667648,230407,1373494,69278,9432,685765,0
3,-1,671371,232025,1575851,69989,9087,786623,0
4,-1,720825,248865,1360473,73875,8673,679820,0
4,-1,722764,248388,1322388,73668,8739,660639,0
4,-1,717153,248254,1387243,73650,8395,693165,0
4,-1,665569,230082,1340690,68651,7796,669943,0
4,-1,688632,235000,1419513,72069,9596,709243,0
4,-1,667570,230586,1474384,68834,8853,736843,0
4,-1,668556,229662,1234219,68468,7938,616723,0
4,-1,662940,229582,1419070,68565,8465,710280,0
4,-1,667489,231595,1372910,69499,7887,685790,0
4,-1,667497,231496,1356594,69421,8640,676919,0
4,-1,666376,230199,1358310,68881,8139,678728,0
4,-1,665917,229790,1216775,68763,8432,607902,2
4,-1,671726,231584,1250376,69498,8449,624424,0
4,-1,714432,244076,1446159,74907,8805,722607,0
4,-1,665407,229804,1354774,68710,7731,676910,0
4,-1,688207,234837,1299974,72172,8382,649477,0
4,-1,667727,230664,1327446,68983,7859,663276,0
4,-1,668685,232965,1317544,69923,7896,657854,0
4,-1,666137,230661,1377357,68923,8523,688232,0
4,-1,668613,230795,1215922,68915,7950,607440,0
4,-1,669994,231394,1207190,69182,7583,603155,0
4,-1,670421,232062,1321958,69664,7855,660210,0
4,-1,671397,232349,1307954,69759,7740,653252,0
4,-1,671636,231381,1319392,69479,7594,659059,0
4,-1,694319,239650,1363068,71752,8465,681178,0
4,-1,672043,232152,1246772,69776,7988,622762,0
4,-1,665291,230112,1301998,68903,8301,650599,0
4,-1,670594,230771,1246132,69124,8255,622676,0
4,-1,672259,231375,1234288,69346,8083,616604,0
4,-1,681157,234588,1377318,72195,8293,688236,0
4,-1,665178,231368,1316351,69342,7848,657795,0
4,-1,666200,230401,1222191,69051,8177,610609,0
4,-1,662724,230449,1381857,69053,7588,690465,0
4,-1,661407,229825,1307172,68746,8214,653132,0
4,-1,665922,230585,1396308,69088,7763,697689,0
4,-1,662418,230625,1199969,69106,7265,599531,0
4,-1,682993,234504,1277395,72198,8401,638209,0
4,-1,666387,230903,1381609,69202,7426,690323,0
4,-1,687825,235364,1280844,72369,8964,639906,0
4,-1,665888,230313,1333457,68872,8192,666308,0
4,-1,669530,231125,1297554,69158,7383,648297,0
4,-1,661522,230280,1313223,68863,7513,656239,0
4,-1,664423,230699,1378889,68996,7730,688991,0
4,-1,667127,230907,1254246,69053,8140,626628,0
4,-1,665599,230501,1228309,68934,7384,613680,0
4,-1,667639,231005,1338036,69103,8167,668580,0
4,-1,667386,230499,1260489,68953,7596,629815,0
4,-1,665833,230516,1360554,68939,8429,679967,0
4,-1,687400,235298,1280921,72336,8572,639993,0
4,-1,665356,230227,1214487,68824,7538,606830,0
4,-1,666538,231654,1351644,69292,7745,675410,0
4,-1,665439,229926,1326031,68841,7843,662623,0
4,-1,669050,230926,1231969,69114,7151,615488,0
4,-1,672464,230611,1240615,68935,7832,619905,0
4,-1,663072,230404,1313606,68901,7326,656361,0
4,-1,670455,232580,1341965,69849,7766,670208,0
4,-1,669900,231163,1208857,69145,7659,604042,0
4,-1,686086,235428,1285557,72378,7972,642251,0
4,-1,669879,231699,1202160,69236,7563,600561,0
4,-1,666031,231005,1250262,69106,7386,624609,0
4,-1,688446,235507,1258599,72276,8544,628731,0
4,-1,667708,230875,1198510,69077,7340,598734,0
4,-1,668748,231114,1365165,69078,7243,682116,0
4,-1,669808,231413,1256765,69061,8062,627983,0
4,-1,666472,231788,1367040,69330,8171,682808,0
4,-1,668296,231008,1307219,68948,7790,653237,0
4,-1,666414,230266,1323644,68686,8537,661401,0
4,-1,670860,231509,1325196,69141,7943,662095,0
4,-1,664287,229175,1275416,68404,7524,637320,0
4,-1,669122,230561,1271471,68803,7577,635238,0
4,-1,665648,230795,1325189,68834,8498,662088,0
4,-1,666239,230295,1301650,68833,7998,650336,0
4,-1,671935,231550,1231973,69297,7548,615417,0
4,-1,670346,231417,1221016,69222,7685,610100,0
4,-1,672610,231480,1349146,69247,8059,674007,0
4,-1,671846,231551,1212823,69128,8068,605947,0
4,-1,679728,233592,1324896,69999,8665,661779,0
4,-1,687726,236163,1270385,72393,8842,634746,0
4,-1,673430,232670,1331134,69453,7980,665140,0
4,-1,668766,231515,1351600,69147,8003,675431,0
4,-1,667595,231167,1254557,69064,7557,626867,0
4,-1,672723,231696,1379575,69138,8634,689347,0
4,-1,669752,231249,1252723,69000,8013,626018,0
4,-1,673633,232858,1343269,69890,8336,670926,0
4,-1,666553,230515,1285728,68886,8048,642365,0
4,-1,668724,230808,1342442,68976,8208,670816,0
4,-1,667282,229934,1352670,68655,8396,675920,0
4,-1,669294,231812,1440921,69358,7836,719968,0
4,-1,669595,231884,1351987,69586,8650,675531,0
4,-1,670548,232286,1291833,69668,9102,645087,0
4,-1,668517,230215,1331250,68711,7975,665263,0
4,-1,664032,229838,1356780,68629,8231,677983,0
4,-1,666648,230615,1338785,68897,7914,668747,0
4,-1,694499,235876,1328124,72478,9273,663630,0
4,-1,667129,230282,1360440,68758,8464,679791,0
4,-1,671715,230897,1366230,69007,9229,682696,0
4,-1,669426,231077,1421958,68975,8903,710550,0
4,-1,673986,233196,1373757,69699,9153,686256,0
4,-1,671246,230780,1251186,68779,9021,625033,0
4,-1,667127,231825,1379464,69243,8979,688581,0
4,-1,667084,230549,1353708,68665,8465,676654,0
4,-1,664770,230329,1250047,68629,7545,624527,0
4,-1,672086,232816,1321244,69786,8146,659820,0
4,-1,668306,230606,1336434,68808,8341,667722,0
4,-1,675170,233224,1309249,69916,8161,653796,0
4,-1,662942,229917,1289726,68509,8420,644534,0
4,-1,667040,229866,1232954,68564,7913,616236,0
4,-1,668439,230459,1307536,68795,7754,653306,0
4,-1,667133,230176,1299092,68637,8367,648950,0
4,-1,671561,230598,1384183,68803,9205,691589,0
4,-1,691064,234873,1356763,72045,9670,677603,0
4,-1,667936,231474,1234092,69278,8402,616307,0
4,-1,669135,230792,1295414,68914,7390,647265,0
4,-1,666718,230334,1301404,68724,7447,650312,0
4,-1,669210,232063,1281512,69534,8426,639842,0
4,-1,668600,230527,1313646,68827,8235,656166,0
4,-1,670823,232294,1287100,69528,8318,642564,0
4,-1,672096,230591,1254713,68836,8593,626536,0
4,-1,672434,232331,1225705,69566,7218,612237,0
4,-1,671931,231884,1215610,69501,7162,606915,0
4,-1,673457,231243,1326661,69050,8035,662903,0
4,-1,669027,230129,1209236,68664,7168,604131,0
4,-1,673374,231448,1237217,69032,7017,618164,0
4,-1,670744,230322,1280766,68640,6806,640009,0
4,-1,665368,232036,1241552,68988,7288,620124,0
4,-1,663215,230731,1201080,68391,7109,600011,0
4,-1,662631,230357,1407371,68286,7505,703203,0
4,-1,664747,230581,1295618,68380,7554,647231,0
4,-1,661433,229700,1196475,68068,7041,597833,0
4,-1,665983,232544,1280954,69130,7598,639819,0
4,-1,666896,231854,1260456,69036,7884,629549,0
4,-1,661370,229940,1351487,68303,7491,675162,0
4,-1,668750,231884,1228391,69960,8709,613543,0
4,-1,668304,231030,1233077,69474,8605,616027,0
4,-1,667789,229964,1255193,69091,7928,627204,0
4,-1,665301,230662,1379204,69392,7797,689123,0
4,-1,663128,230356,1386730,69199,8475,692577,0
4,-1,666642,230186,1348558,69221,8950,673784,0
4,-1,670412,230961,1310960,69399,8423,654759,0
4,-1,671001,231964,1212488,70021,7648,605507,0
4,-1,666311,230535,1355280,69191,7724,677351,0
4,-1,663318,230179,1296058,69109,8438,647637,0
4,-1,668044,230353,1305631,69271,7732,652238,0
4,-1,667682,230170,1250758,69207,7519,624845,0
4,-1,664583,229900,1349025,69094,7941,674080,0
4,-1,668497,229604,1374523,69031,8141,686783,0
4,-1,668001,230776,1206623,69368,7172,602807,0
4,-1,667667,229339,1289669,68969,8417,644438,0
4,-1,662070,229593,1212396,68994,8435,605680,0
4,-1,667899,231154,1168897,69631,8329,583736,0
4,-1,664708,229857,1210953,69058,7684,605046,0
4,-1,672484,232306,1226561,70099,7753,612518,0
4,-1,667526,229947,1162791,69030,7956,581020,0
4,-1,665717,229946,1288372,69073,7683,643760,0
4,-1,664058,230121,1267492,69189,8270,633349,0
4,-1,670967,231694,1224862,69839,8206,611810,0
4,-1,671613,231721,1190804,69873,7749,594674,0
4,-1,669285,230527,1308514,69323,7838,653807,0
4,-1,676071,232320,1307727,70119,8712,653098,0
4,-1,689384,234747,1360894,72481,9462,679990,0
4,-1,672086,231806,1253366,69895,7863,626063,0
4,-1,665983,229531,1274976,68769,7391,637040,0
4,-1,671208,230788,1319591,69243,8102,659258,0
4,-1,673705,231120,1342111,69511,7797,670616,0
4,-1,672695,232195,1216990,69991,7357,607744,0
4,-1,669411,230931,1240112,69341,8612,619440,0
4,-1,670340,230045,1294333,68946,8408,646624,0
4,-1,667832,229596,1413771,68783,8207,706472,0
4,-1,669716,230133,1352680,69029,8336,675942,0
4,-1,674584,232297,1250055,70004,8043,624273,0
4,-1,663958,230513,1317503,69163,8712,658159,0
4,-1,665316,231503,1255582,69772,8226,627082,0
4,-1,666973,230524,1252544,69370,8964,625762,0
4,-1,670058,230886,1364150,69442,8603,681255,0
4,-1,690844,235942,1578982,72840,10990,789031,0
4,-1,671925,231433,1375566,69649,9294,687317,0
4,-1,666240,230912,1476800,69737,9091,737737,0
4,-1,669945,231226,1313794,69672,7570,656358,0
4,-1,691817,235842,1493592,72837,10922,746442,0
4,-1,669516,231789,1381228,69728,10060,689957,0
4,-1,671645,231153,1331912,69529,8299,665431,0
4,-1,670987,231111,1344846,69480,8626,671984,0
4,-1,668209,232072,1247997,69830,8076,623523,0
4,-1,668490,231015,1325838,69436,7913,662604,0
4,-1,671551,232020,1491247,69755,9305,744936,0
4,-1,672264,232866,1303216,70258,7738,650681,0
4,-1,671547,232317,1427804,69708,8933,713366,0
4,-1,672374,231646,1300204,69520,8749,649474,0
4,-1,668225,230794,1232770,69190,7674,615915,0
4,-1,669612,230764,1320049,69202,7216,659512,0
4,-1,668747,230812,1237021,69260,8536,617965,0
4,-1,673747,231576,1389269,69546,8209,694056,0
4,-1,674786,231916,1362795,69652,8456,680854,0
4,-1,668636,230513,1318648,69205,7712,658904,0
4,-1,676748,231991,1395173,69702,9229,697099,0
4,-1,686401,234992,1375729,72520,9603,687537,0
4,-1,671842,232805,1251752,70237,8894,624943,0
4,-1,670112,231170,1283697,69484,8598,641295,0
4,-1,693559,239740,1398539,71898,8360,698807,0
4,-1,673813,232821,1245016,70105,7492,621646,0
4,-1,670520,232270,1244046,70010,8240,621288,0
4,-1,670050,231778,1286162,69535,8467,642552,0
4,-1,668028,230492,1274352,69302,7752,636704,0
4,-1,674674,232245,1239200,69983,7609,618868,0
4,-1,670527,231190,1360933,69490,8197,680032,0
4,-1,698382,240372,1362901,72193,8457,681053,0
4,-1,674659,231604,1365558,69538,7722,682086,0
4,-1,699361,236568,1431315,72953,9705,715113,0
4,-1,671580,231421,1327573,69386,8293,663235,0
4,-1,669878,230559,1270758,69139,7856,634953,0
4,-1,673373,231708,1376998,69500,9478,687952,0
4,-1,694159,235443,1409235,72579,10074,704093,0
4,-1,673910,231202,1345445,69404,9330,672053,0
4,-1,674244,231877,1291200,69913,8668,644623,0
4,-1,666398,229510,1266566,68855,8701,632701,0
4,-1,672385,231125,1303567,69827,8698,651026,0
4,-1,715390,242867,1365403,75057,9675,682208,0
4,-1,675745,231894,1308669,70044,7620,653656,0
4,-1,665360,231219,1363995,69830,9218,681191,0
4,-1,662995,230303,1372295,69399,8412,685101,0
4,-1,665239,231017,1336361,69726,8167,666996,0
4,-1,666988,230047,1319110,69248,7536,659059,0
4,-1,673962,232748,1354123,70386,8175,676254,0
4,-1,663437,229977,1270962,69228,7216,635059,0
4,-1,669561,230506,1243043,69463,7946,620968,0
4,-1,669624,231479,1406999,69782,8762,702904,0
4,-1,689036,235679,1422845,72789,9174,711081,0
4,-1,665313,229803,1323769,69012,9047,661289,0
5,-1,725100,251178,1378194,74855,8299,688238,0
5,-1,726428,250266,1431237,74536,9560,714817,0
5,-1,721368,249049,1468520,73882,8423,733778,0
5,-1,666480,230806,1224814,68898,7687,611928,0
5,-1,666902,230592,1337607,68768,8713,668351,0
5,-1,665948,229965,1214047,68591,7483,606518,0
5,-1,667817,230133,1372613,68819,9063,685749,0
5,-1,666262,231769,1229323,69588,7384,613935,0
5,-1,662398,230059,1285390,68829,7027,642259,0
5,-1,661670,229761,1315362,68623,7490,657286,0
5,-1,666563,230181,1339984,68815,7851,669491,0
5,-1,668425,230291,1166816,68852,7332,582981,0
5,-1,666325,230694,1296472,69014,7392,647719,0
5,-1,666469,230325,1245259,68934,7866,622185,0
5,-1,665700,230386,1245939,68966,8754,622465,2
5,-1,666046,229864,1362970,68628,7565,681001,0
5,-1,669850,231735,1334002,69565,8167,666295,0
5,-1,670328,230303,1243039,68886,7828,621039,0
5,-1,668558,231655,1393874,69371,9256,696059,0
5,-1,669549,231727,1373043,69194,7577,686053,0
5,-1,672236,232105,1312671,69563,7734,655761,0
5,-1,663369,229644,1282332,68644,7536,640657,0
5,-1,666473,230721,1362891,69014,7351,680935,0
5,-1,669730,231060,1293621,69226,7479,646406,0
5,-1,667624,230697,1229692,69089,7668,614429,0
5,-1,666047,229424,1220595,68649,7567,609849,0
5,-1,671853,230534,1317121,69041,7706,658079,0
5,-1,673770,232326,1335775,69903,8669,667120,0
5,-1,670371,230462,1236972,69057,8402,617969,0
5,-1,659948,230326,1408082,69003,7491,703520,0
5,-1,661720,230267,1197252,68985,7873,598167,0
5,-1,666266,230493,1322096,69037,7983,660535,0
5,-1,667371,231385,1293095,69321,7198,646199,0
5,-1,663632,231010,1272060,69226,7466,635563,0
5,-1,663980,230043,1331098,68884,8156,665130,0
5,-1,661156,230208,1313043,68938,7778,656098,0
5,-1,665051,230562,1309534,69109,7525,654255,0
5,-1,666055,230327,1280725,68999,7575,639886,0
5,-1,664550,230771,1215353,69055,7295,607145,0
5,-1,665560,229932,1265804,68691,7340,632502,0
5,-1,671324,232448,1423630,69795,7895,710714,0
5,-1,666826,231049,1215719,69124,7235,607553,0
5,-1,662327,230569,1251718,68990,7179,625430,0
5,-1,668505,231487,1250325,69303,7906,624723,0
5,-1,665781,231550,1286214,69254,7453,642647,0
5,-1,664634,230097,1347177,68803,7776,673103,0
5,-1,671668,232891,1372496,69972,8037,685250,0
5,-1,665943,231701,1335490,69522,7956,667066,0
5,-1,665827,230888,1326645,69102,7927,662755,0
5,-1,690192,235260,1253931,72318,8103,626522,0
5,-1,670115,231073,1321867,69158,7956,660463,0
5,-1,666787,230839,1316623,68989,7907,657991,0
5,-1,666441,230410,1221137,68882,7257,610102,0
5,-1,671125,231156,1365371,69115,8443,682303,0
5,-1,666259,231092,1298831,69167,7092,648920,0
5,-1,666769,231219,1316575,69164,7908,657880,0
5,-1,669414,231742,1299273,69341,8006,649143,0
5,-1,668545,231034,1369342,69108,7472,684254,0
5,-1,669921,232226,1326570,69581,7555,662638,0
5,-1,670400,231345,1269004,69254,7669,633970,0
5,-1,666591,230783,1213840,69052,7803,606302,0
5,-1,667615,230810,1206754,68971,7153,602903,0
5,-1,665529,231281,1309244,69206,7431,654196,0
5,-1,668964,230566,1303337,68810,8297,651314,0
5,-1,666357,231014,1265905,68976,7850,632408,0
5,-1,668333,231536,1270303,69141,7845,634658,0
5,-1,664816,230481,1311915,68744,7098,655557,0
5,-1,673503,232838,1358768,69730,8103,678700,0
5,-1,671443,232293,1367652,69640,8771,683033,0
5,-1,670030,231783,1323539,69240,7624,661286,0
5,-1,664922,230818,1238412,68943,8213,618705,0
5,-1,669159,230594,1336672,68806,8597,667916,0
5,-1,690978,236013,1243399,72357,8528,621294,0
5,-1,677121,233062,1320888,70008,8172,659656,0
5,-1,670323,231181,1249553,69197,7177,624330,0
5,-1,673724,231905,1302113,69297,8727,650600,0
5,-1,695936,236346,1282622,72444,8913,640934,0
5,-1,668388,232476,1359806,69406,8519,679261,0
5,-1,670830,231304,1477490,68916,8702,738315,0
5,-1,691184,236832,1303556,72711,9134,651264,0
5,-1,670809,231590,1339022,69154,8837,669017,0
5,-1,672038,231248,1265124,69085,8527,632132,0
5,-1,668436,231218,1312223,69050,7992,655658,0
5,-1,688933,235586,1280834,72328,8990,639963,0
5,-1,667258,230662,1399193,68903,8255,699122,0
5,-1,670439,231395,1324621,69136,8260,661881,0
5,-1,673377,232606,1341529,69737,8830,670065,0
5,-1,671299,230618,1330614,69003,8549,664746,0
5,-1,665188,230905,1266158,69071,7549,632621,0
5,-1,687501,235002,1363245,72099,9090,681113,0
5,-1,674137,232752,1367438,69744,8375,683050,0
5,-1,667844,230237,1379391,68706,8954,689259,0
5,-1,668249,231543,1361681,69445,8409,680100,0
5,-1,669553,230229,1256309,68810,8266,627673,0
5,-1,671511,231847,1416961,69272,8496,707975,0
5,-1,672517,231747,1398309,69444,9412,698442,0
5,-1,672835,230493,1412782,68754,8970,705671,0
5,-1,669147,230151,1291538,68465,8172,645383,0
5,-1,673238,231915,1331687,69335,9063,664950,0
5,-1,666140,231743,1447700,69053,8809,722919,0
5,-1,672042,232940,1336884,69757,8355,667272,0
5,-1,695331,240208,1442259,71573,9404,720684,0
5,-1,685433,234564,1312071,71919,8553,655663,0
5,-1,672951,233079,1321338,69873,8386,659897,0
5,-1,689012,234882,1299531,72038,9430,648943,0
5,-1,670542,231441,1321740,69285,8034,660480,0
5,-1,667123,230201,1312378,68692,8872,655721,0
5,-1,668835,229896,1303632,68585,8301,651349,0
5,-1,666934,230549,1314702,68812,8008,656321,0
5,-1,690327,234959,1365210,71982,10098,682025,0
5,-1,670603,230183,1389274,68701,8544,693354,0
5,-1,662456,229576,1239610,68413,8790,619222,0
5,-1,669417,231483,1263000,69286,7457,630719,0
5,-1,663334,229520,1226605,68421,6963,612893,0
5,-1,673502,231676,1422937,69340,8668,710342,0
5,-1,666360,229987,1345574,68617,8451,672319,0
5,-1,670929,230575,1355490,68821,8614,677391,0
5,-1,670806,230336,1199738,68706,8559,599406,0
5,-1,669922,230375,1226307,68752,7344,612635,0
5,-1,668673,230667,1366680,68863,7668,682892,0
5,-1,669698,229980,1223143,68600,7383,611169,0
5,-1,670094,230698,1297816,68832,7361,648506,0
5,-1,670425,230414,1293899,68682,7033,646540,0
5,-1,668153,229598,1220814,68347,6766,609974,0
5,-1,660399,230255,1272511,68271,7049,635809,0
5,-1,661366,230199,1224464,68176,7352,611796,0
5,-1,665837,231524,1263499,68811,7300,631060,0
5,-1,665495,231109,1317800,68508,7560,658439,0
5,-1,664240,230726,1261561,68392,7498,630295,0
5,-1,665413,230273,1328644,68297,7590,663926,0
5,-1,661806,229548,1365863,68094,7975,682530,0
5,-1,663783,230043,1289489,68293,7534,644302,0
5,-1,661278,230205,1308720,68385,7882,654031,0
5,-1,670830,231620,1193721,69860,8018,596254,0
5,-1,668728,231472,1234105,69775,7936,616367,0
5,-1,666147,231461,1191138,69787,7547,594943,0
5,-1,665262,229662,1324303,68947,8997,661712,0
5,-1,663959,229644,1356679,69001,8679,677841,0
5,-1,673592,232611,1284653,70124,8544,641482,0
5,-1,685240,233874,1340289,72251,7931,669592,0
5,-1,669147,231361,1377339,69539,8048,688141,0
5,-1,692450,234802,1261116,72529,8331,630051,0
5,-1,664591,229533,1220652,68957,7615,609945,0
5,-1,664206,229389,1288082,68861,7488,643591,0
5,-1,702685,241366,1366142,72828,8452,682277,0
5,-1,667644,230279,1357898,69205,8190,678580,0
5,-1,667133,230844,1208231,69356,7108,603671,0
5,-1,667157,229544,1349882,68970,8277,674542,0
5,-1,662550,230419,1278882,69290,8250,638979,0
5,-1,664607,229889,1300913,69068,8335,650117,0
5,-1,665657,230575,1338827,69345,7953,668915,0
5,-1,687736,234715,1379101,72444,9071,689148,0
5,-1,667218,230404,1217984,69289,8193,608482,0
5,-1,666823,230310,1207968,69212,7099,603572,0
5,-1,666618,230288,1241216,69195,8002,620155,0
5,-1,665632,230050,1366597,69128,8122,682869,0
5,-1,667414,230702,1186365,69311,7974,592664,0
5,-1,669480,230921,1322152,69439,7910,660464,0
5,-1,669239,230170,1306041,69195,8631,652549,0
5,-1,666284,230067,1260607,69130,8035,629775,0
5,-1,667749,230440,1328217,69258,8172,663663,0
5,-1,666507,230289,1315165,69140,7841,657058,0
5,-1,668646,230170,1375608,69008,8232,687383,0
5,-1,669901,230172,1334648,69118,8928,666887,0
5,-1,667588,230324,1215801,69245,7269,607365,0
5,-1,673437,232097,1204161,70060,8055,601341,0
5,-1,671337,230351,1305044,69093,7781,652008,0
5,-1,674813,232563,1320910,70049,8258,659581,0
5,-1,692722,234864,1370852,72401,9022,684962,0
5,-1,674182,230925,1237306,69318,8227,618174,0
5,-1,664814,231341,1272373,69593,7833,635424,0
5,-1,663819,229766,1224695,68824,7720,612008,0
5,-1,669786,231316,1216899,69828,8762,607820,0
5,-1,669809,231323,1287665,69621,8097,643433,0
5,-1,701270,243053,1333028,73348,9199,665336,0
5,-1,673008,232931,1319294,70350,8853,658953,0
5,-1,676574,231994,1294288,69898,8455,646649,0
5,-1,668977,230883,1324672,69503,7757,661839,0
5,-1,670396,231505,1330070,69633,9271,664527,0
5,-1,674668,232573,1306191,70171,9445,652360,0
5,-1,672678,231671,1244278,69643,8002,621659,0
5,-1,673840,232552,1255515,70154,8070,626898,0
5,-1,665449,231444,1278000,69575,8089,638510,0
5,-1,675343,233095,1317453,70323,7513,657850,0
5,-1,669966,231869,1435965,69738,8544,717202,0
5,-1,673773,232293,1317629,69890,8912,658487,0
5,-1,670473,231390,1238735,69495,7829,618732,0
5,-1,676785,232709,1215979,70025,8860,607248,0
5,-1,672885,233361,1338303,70290,8299,668285,0
5,-1,669181,230963,1299879,69348,7625,649305,0
5,-1,675135,232789,1226321,70126,7906,612473,0
5,-1,673653,231939,1231523,69921,8029,614974,0
5,-1,670275,230686,1330499,69249,7716,664771,0
5,-1,677094,231986,1247049,69891,8454,622925,0
5,-1,675354,232593,1250368,70176,8182,624297,0
5,-1,667347,231179,1373782,69452,8601,686462,0
5,-1,688902,235825,1279540,72778,9482,639197,0
5,-1,674720,232575,1236502,70073,8142,617322,0
5,-1,668229,231345,1387145,69506,8105,693028,0
5,-1,671028,231178,1219921,69314,6723,609480,0
5,-1,674786,231684,1310446,69561,8488,654721,0
5,-1,672171,231546,1290383,69568,7995,644634,0
5,-1,673502,232965,1249890,70387,7996,623928,0
5,-1,672098,231498,1324300,69674,8183,661522,0
5,-1,669823,231234,1325885,69556,8928,662341,0
5,-1,691396,235555,1415982,72747,9028,707423,0
5,-1,675798,232464,1290430,69924,8049,644182,0
5,-1,674274,231184,1271402,69316,9176,635150,0
5,-1,669041,230786,1509615,69279,9215,754326,0
5,-1,690915,234937,1489125,72437,9407,744032,0
5,-1,673022,232270,1367894,69879,9632,682584,0
5,-1,670476,230869,1328787,69255,8575,663935,0
5,-1,671893,230274,1265063,69056,8455,631985,0
5,-1,666374,230118,1270906,69051,8449,634759,0
5,-1,693279,235787,1369416,72781,9508,684376,0
5,-1,668230,230015,1362331,69245,8129,680685,0
5,-1,671179,230280,1233974,69343,8374,616501,0
5,-1,671875,230168,1375651,69345,8180,687369,0
5,-1,665099,229937,1249045,69221,8046,623832,0
5,-1,661132,230012,1460134,69230,8841,729625,0
5,-1,663038,230523,1386772,69428,7706,692241,0
5,-1,664617,230038,1313929,69294,7305,656445,0
5,-1,687745,234329,1496827,72513,9020,747843,0
5,-1,662458,229568,1238892,69082,7659,618900,0
5,-1,670503,231456,1421046,69898,8878,709912,0
5,-1,664564,229744,1327465,69025,8397,663239,0
5,-1,668746,232147,1387603,70007,10248,693229,0
5,-1,687461,234972,1394544,72580,8723,696458,0
6,-1,717119,248233,1345959,73622,7343,672512,0
6,-1,719442,248557,1312150,73778,7788,655551,0
6,-1,718724,248428,1274141,73698,8219,636688,0
6,-1,663917,229555,1300929,68468,7566,650012,0
6,-1,669130,230811,1222466,68901,7922,610799,0
6,-1,687659,235044,1337321,72075,8645,668276,0
6,-1,673541,232621,1340037,69779,8353,669267,0
6,-1,660284,230028,1217262,68751,7182,608121,0
6,-1,685901,234737,1340776,72198,8547,669955,0
6,-1,668385,232289,1293373,69768,8296,646053,0
6,-1,663689,230556,1389814,68982,7999,694464,0
6,-1,664652,229748,1175437,68619,7589,587268,0
6,-1,661318,229263,1322377,68554,7818,660749,0
6,-1,666420,230836,1333784,69249,8354,666264,0
6,-1,664892,230055,1192336,68858,7716,595658,0
6,-1,670323,230554,1301393,69078,7536,650176,0
6,-1,666431,230815,1256205,69123,7796,627584,2
6,-1,671784,231491,1256825,69380,8277,627681,0
6,-1,665217,230669,1286445,68909,8202,642636,0
6,-1,666697,230797,1347397,68853,7463,673340,0
6,-1,668497,230739,1229628,68941,7922,614359,0
6,-1,666767,230999,1322496,69034,7609,660822,0
6,-1,665270,230227,1382219,68805,7525,690653,0
6,-1,687937,234890,1289510,72229,8446,644230,0
6,-1,666366,230343,1298426,68970,7729,648780,0
6,-1,669240,231114,1230395,69268,7381,614751,0
6,-1,670324,230227,1218659,68973,6940,608916,0
6,-1,670024,230919,1313106,69200,8074,656055,0
6,-1,669110,230264,1225526,68978,8437,612335,0
6,-1,660217,230368,1306242,68980,7550,652700,0
6,-1,659930,230010,1233787,68812,7891,616479,0
6,-1,664611,230156,1204886,68950,7767,602053,0
6,-1,661386,229521,1202952,68798,6658,600966,0
6,-1,663528,230941,1201331,69188,7383,600203,0
6,-1,666573,230975,1268193,69163,7734,633644,0
6,-1,663657,230463,1339235,69035,8486,669101,0
6,-1,665601,230915,1300588,69175,6828,649892,0
6,-1,687681,235409,1274979,72476,7768,637069,0
6,-1,668352,232253,1268926,69703,8018,633789,0
6,-1,687562,235234,1266862,72327,7883,633022,0
6,-1,693725,236679,1291175,73269,8700,644962,0
6,-1,663602,230587,1336221,69001,7886,667626,0
6,-1,666242,232371,1327713,69749,8045,663199,0
6,-1,687396,235929,1351023,72548,8657,674979,0
6,-1,665065,230667,1183924,68984,6922,591392,0
6,-1,671556,233078,1360203,70084,8126,679188,0
6,-1,669444,231164,1402621,69150,8077,700824,0
6,-1,664030,230658,1245943,69017,8225,622517,0
6,-1,664855,230564,1315931,68936,7816,657467,0
6,-1,664879,230485,1384011,68910,7741,691578,0
6,-1,667651,229995,1223964,68800,7450,611584,0
6,-1,670760,232035,1327985,69657,8094,663367,0
6,-1,688242,235647,1268847,72430,8263,633930,0
6,-1,672834,232061,1370706,69597,8380,684594,0
6,-1,663163,230300,1294229,68844,7258,646798,0
6,-1,665618,231154,1210551,69170,7065,604765,0
6,-1,665592,230415,1292791,68881,7293,645953,0
6,-1,666720,230904,1279977,69109,7546,639546,0
6,-1,665533,230511,1317440,68830,7189,658291,0
6,-1,691202,235524,1224069,72399,8424,611514,0
6,-1,663276,229705,1305568,68643,7331,652365,0
6,-1,670613,232609,1257351,69775,6854,627975,0
6,-1,669561,230714,1233564,68982,8005,616323,0
6,-1,690763,235524,1301673,72234,8559,650301,0
6,-1,665407,231014,1350830,68930,8292,675134,0
6,-1,668748,232287,1305261,69546,7772,651858,0
6,-1,666735,231229,1270261,69017,7204,634703,0
6,-1,667181,230332,1333474,68704,8577,666321,0
6,-1,666645,230854,1252765,68905,8069,625804,0
6,-1,665818,230518,1218524,68750,7065,608852,0
6,-1,666207,230921,1265943,68926,7860,632601,0
6,-1,669607,231380,1219209,69156,7612,609094,0
6,-1,670459,230939,1220404,69078,8756,609764,0
6,-1,673459,231542,1316701,69321,7555,657889,0
6,-1,675792,232346,1239882,69594,7655,619416,0
6,-1,669899,231081,1262501,68853,8153,630771,0
6,-1,676034,232461,1331454,69399,8754,665316,0
6,-1,666046,231652,1309146,69123,8549,654064,0
6,-1,672375,232217,1378742,69332,8221,688870,0
6,-1,669917,231538,1386605,69153,8586,692788,0
6,-1,674175,233026,1352750,69871,8788,675580,0
6,-1,669965,230711,1361451,68966,8443,680290,0
6,-1,669171,231893,1388091,69189,8460,693531,0
6,-1,668307,231079,1366482,69108,8044,682644,0
6,-1,672950,233201,1412299,70072,9111,705273,0
6,-1,668663,230929,1301937,68975,7860,650540,0
6,-1,690184,235748,1299771,72370,9139,649511,0
6,-1,668137,230028,1252098,68689,8371,625598,0
6,-1,663502,230138,1413179,68781,8500,706144,0
6,-1,664078,230173,1252221,68695,7361,625653,0
6,-1,667608,230647,1384210,68842,8579,691641,0
6,-1,669358,231273,1450042,69099,8942,724566,0
6,-1,671854,231204,1256660,69123,8482,627912,0
6,-1,668510,230265,1386467,68871,8206,692777,0
6,-1,667217,231211,1241270,69092,7562,620169,0
6,-1,666886,230207,1294832,68790,8320,646957,0
6,-1,679703,233629,1345105,70089,8864,671442,0
6,-1,669662,230664,1217654,68748,8586,608376,0
6,-1,664842,228906,1396195,68160,9878,697412,0
6,-1,674445,230825,1375387,68717,9215,687124,0
6,-1,664124,230317,1282017,68590,8820,640423,0
6,-1,666824,230634,1202819,68735,7502,600889,0
6,-1,665050,230519,1324227,68812,8044,661605,0
6,-1,686619,234919,1302219,72035,8481,650501,0
6,-1,666288,230129,1436245,68703,8425,717708,0
6,-1,668647,230021,1497273,68622,10435,748158,0
6,-1,666291,229896,1259478,68566,8116,628860,0
6,-1,673272,232508,1309214,69698,7898,653827,0
6,-1,687615,234845,1559534,71949,9247,779327,0
6,-1,670340,230649,1330640,68853,8245,664321,0
6,-1,670062,230279,1372983,68719,8716,685741,0
6,-1,670370,232624,1231490,69681,8913,614792,0
6,-1,664864,230183,1166831,68749,7211,582969,0
6,-1,666067,230300,1303331,68740,7631,651197,0
6,-1,670723,230904,1293883,68926,8762,646184,0
6,-1,688418,234931,1380751,72016,8872,689780,0
6,-1,667614,229420,1356963,68357,8931,677621,0
6,-1,670255,230729,1397323,68828,8774,698221,0
6,-1,666420,230216,1284039,68732,7081,641513,0
6,-1,665503,229938,1209938,68575,7105,604529,0
6,-1,670501,230621,1301759,68833,8126,650372,0
6,-1,668806,229730,1187934,68555,7234,593549,0
6,-1,674195,232323,1226203,69563,7183,612290,0
6,-1,693086,234314,1292186,71790,8473,645757,0
6,-1,659511,229900,1279016,68140,6683,639029,0
6,-1,663137,231099,1220347,68517,7535,609695,0
6,-1,660746,229909,1283722,68034,7056,641387,0
6,-1,662267,230571,1300052,68343,7838,649436,0
6,-1,684197,234669,1249159,71473,8370,624075,0
6,-1,663443,229751,1311202,68084,6997,655143,0
6,-1,683217,235195,1331752,71635,8723,665457,0
6,-1,665259,230395,1214104,68409,7614,606606,0
6,-1,664111,230598,1361908,68520,7564,680291,0
6,-1,665792,229875,1224647,69059,7970,611888,0
6,-1,666664,229505,1379521,68874,8069,689434,0
6,-1,664272,229883,1275572,69025,8269,637258,0
6,-1,665221,230599,1257909,69252,8657,628126,0
6,-1,665317,230012,1268590,69150,8860,633636,0
6,-1,665803,229982,1333884,69159,8018,666040,0
6,-1,665592,230203,1284070,69238,7410,641534,0
6,-1,666628,231094,1212458,69573,7339,605516,0
6,-1,669462,230020,1217942,69169,7935,608513,0
6,-1,669481,231326,1293022,69761,8392,645725,0
6,-1,674652,233444,1223950,70556,7385,611130,0
6,-1,690968,234851,1367188,72542,8972,683175,0
6,-1,688989,235081,1359812,72603,8662,679209,0
6,-1,673708,231609,1305305,69785,8305,651896,0
6,-1,670048,230796,1324320,69372,8136,661774,0
6,-1,661048,229897,1294598,69088,8029,646930,0
6,-1,665832,230346,1310566,69219,8411,654859,0
6,-1,669621,232092,1228428,69976,7807,613621,0
6,-1,666400,230329,1311192,69217,7760,655096,0
6,-1,665438,229705,1362790,68964,8266,680976,0
6,-1,665149,229988,1282726,69160,7500,640935,0
6,-1,665926,231057,1384473,69486,8678,691734,0
6,-1,689626,235039,1361266,72541,8296,680294,0
6,-1,666634,229990,1227444,69105,7926,613268,0
6,-1,666915,230567,1268800,69271,7901,633964,0
6,-1,670808,230732,1320804,69334,8971,659282,0
6,-1,666121,230227,1369661,69172,8187,684327,0
6,-1,668994,231197,1285492,69708,7749,642014,0
6,-1,665255,230137,1314393,69005,7845,656761,0
6,-1,673562,232154,1253575,69917,7732,625823,0
6,-1,689385,234282,1337284,72269,9206,668181,0
6,-1,667182,230498,1287167,69276,7521,643156,0
6,-1,667071,230120,1295391,69155,7920,647276,0
6,-1,671894,231033,1340295,69350,8341,669665,0
6,-1,668106,230457,1319951,69107,7836,659503,0
6,-1,670408,230527,1218000,69106,7590,608513,0
6,-1,670427,229825,1329556,68905,8544,664360,0
6,-1,676074,231474,1233682,69687,7993,615970,0
6,-1,666212,230995,1340999,69312,8104,669994,0
6,-1,665660,230133,1235915,69250,8765,617495,0
6,-1,668654,231221,1365161,69469,9275,682222,0
6,-1,688252,235190,1516914,72589,10510,757774,0
6,-1,672709,231705,1255335,69709,9253,627247,0
6,-1,693291,235832,1457153,72996,9611,728363,0
6,-1,674187,233281,1230797,70619,7631,614649,0
6,-1,671222,231790,1442312,69631,10253,720643,0
6,-1,674494,231758,1457102,69740,9846,727715,0
6,-1,674164,233116,1243613,70408,7944,620739,0
6,-1,669600,231210,1340065,69559,8307,669637,0
6,-1,674427,231580,1253407,69709,8981,626112,0
6,-1,668569,231046,1415273,69500,7960,707242,0
6,-1,670892,232268,1309308,70002,8928,654002,0
6,-1,671801,231491,1341446,69518,8991,670170,0
6,-1,672547,231553,1316636,69538,7605,657849,0
6,-1,672560,231350,1249461,69364,8645,624237,0
6,-1,678146,232358,1327155,69718,8226,662996,0
6,-1,671673,232259,1242914,69935,7380,620682,0
6,-1,667866,230951,1294082,69343,7449,646408,0
6,-1,670235,230042,1222506,68966,7181,610762,0
6,-1,691532,235253,1478222,72601,8211,738583,0
6,-1,674240,231384,1325266,69538,8408,662119,0
6,-1,673582,231406,1251838,69541,8505,625364,0
6,-1,668726,232177,1288382,69952,8388,643457,0
6,-1,672320,232382,1297267,70091,7750,647603,0
6,-1,670262,231223,1380892,69486,8519,689941,0
6,-1,669461,230899,1155889,69321,7688,577546,0
6,-1,671561,231737,1331636,69499,7768,665265,0
6,-1,677433,232659,1293710,70124,8495,646000,0
6,-1,673390,232121,1312357,69962,7977,655322,0
6,-1,692403,235548,1373071,72755,9168,686043,0
6,-1,671946,231317,1350135,69596,8365,674740,0
6,-1,676613,231550,1324771,69657,8784,661694,0
6,-1,674484,231152,1370509,69476,8780,684781,0
6,-1,671517,231212,1354499,69483,8521,676914,0
6,-1,672953,231023,1260739,69301,9120,630020,0
6,-1,692895,236765,1440110,72995,10987,719782,0
6,-1,669923,230749,1256670,69252,8348,627787,0
6,-1,671607,231012,1315109,69229,9117,656653,0
6,-1,671068,230979,1317669,69320,8585,658301,0
6,-1,672455,230881,1289392,69289,8675,644100,0
6,-1,672746,231509,1340819,69798,8724,669663,0
6,-1,668922,230290,1248813,69225,8799,623908,0
6,-1,673975,230809,1225134,69489,7664,612064,0
6,-1,673041,231099,1242169,69829,8528,620265,0
6,-1,671276,229468,1306764,69076,8695,652909,0
6,-1,684634,235052,1311129,72731,9556,654982,0
6,-1,666268,230462,1348083,69448,8542,673611,0
6,-1,667594,230460,1250940,69425,8627,624864,0
6,-1,664597,229666,1248427,69111,7779,623750,0
6,-1,664621,229431,1296740,69046,7815,647966,0
6,-1,663541,230037,1240000,69296,8352,619519,0
6,-1,664852,230056,1212871,69288,7627,606039,0
6,-1,667786,229688,1349365,69016,9704,673971,0
6,-1,671021,231011,1402667,69492,8915,700722,0
6,-1,663701,229749,1323912,69079,8602,661492,0
7,-1,722226,250584,1414861,74626,7990,706803,0
7,-1,720388,248687,1417414,73764,9078,708256,0
7,-1,748592,258666,1356925,76758,7993,677961,0
7,-1,663980,230045,1346237,68687,7955,672710,0
7,-1,665298,229782,1283445,68579,8084,641060,0
7,-1,665175,230257,1320659,68678,7841,659895,0
7,-1,673861,232530,1344964,69795,8873,671668,0
7,-1,661710,229937,1238569,68709,6947,618912,0
7,-1,663437,230336,1238514,68912,6647,618805,0
7,-1,679334,233323,1263004,71737,8164,630985,0
7,-1,664745,229825,1317911,68662,7978,658488,0
7,-1,672902,232367,1255647,69821,8650,626930,0
7,-1,667841,231869,1338858,69584,8159,668737,0
7,-1,665828,229893,1325532,68738,7610,662352,0
7,-1,667253,229514,1247271,68636,8715,623164,0
7,-1,676944,233425,1371401,70183,7253,684808,0
7,-1,670853,230792,1273080,68928,7890,636055,0
7,-1,663805,230675,1248158,68924,7767,623519,2
7,-1,665648,230557,1307523,68900,8802,652937,0
7,-1,669503,231471,1310310,69103,7435,654610,2
7,-1,669170,231634,1343887,69146,7800,671497,0
7,-1,667997,231385,1208253,69134,7677,603476,2
7,-1,668224,230320,1270129,68790,7757,634652,0
7,-1,668737,231240,1240965,69139,7396,619991,0
7,-1,670047,232162,1335673,69699,8273,667050,2
7,-1,668233,230282,1192829,68796,7424,595930,0
7,-1,668965,230423,1235353,68810,7690,617303,0
7,-1,665954,230620,1195533,69062,7263,597301,0
7,-1,666938,230735,1292374,69169,7356,645668,2
7,-1,664280,229518,1224784,68743,7355,611968,0
7,-1,667552,230991,1177997,69256,7668,588523,2
7,-1,668380,230222,1384252,69003,7675,691575,0
7,-1,674516,231881,1337074,69633,8551,667731,0
7,-1,671656,231335,1237146,69275,8136,618138,0
7,-1,668977,230840,1216928,69190,8159,607891,2
7,-1,668370,230094,1338989,68916,7625,668982,2
7,-1,663598,229997,1192738,68893,6654,595847,0
7,-1,660171,230116,1201161,68965,7623,600116,2
7,-1,664001,230215,1214857,68982,7842,607012,0
7,-1,664430,232464,1233737,70001,8393,616011,2
7,-1,667423,231752,1319739,69655,8345,659202,0
7,-1,662989,231201,1321566,69306,7695,660378,2
7,-1,665051,231288,1346900,69505,7885,672839,0
7,-1,665219,230777,1223176,69171,7210,611063,2
7,-1,686781,234967,1225610,72325,8143,612382,0
7,-1,663405,230773,1276643,69170,7263,637898,2
7,-1,667493,231736,1371348,69641,8025,684957,0
7,-1,662959,230646,1263532,69055,8213,631165,0
7,-1,663749,230850,1198905,69202,7367,598993,2
7,-1,666696,231713,1298568,69559,7553,648641,0
7,-1,664469,230366,1300803,68963,7292,649867,0
7,-1,662303,230831,1236897,69188,8196,617939,2
7,-1,663903,230321,1240270,68883,7302,619659,0
7,-1,666654,231199,1364042,69139,8124,681605,0
7,-1,670065,232826,1349602,70001,8382,674164,2
7,-1,666632,230536,1354296,68970,8020,676648,0
7,-1,670110,231580,1189613,69342,8204,594327,2
7,-1,664324,231569,1189291,69306,7218,594090,0
7,-1,696571,242157,1354496,72816,8007,676329,0
7,-1,665658,231322,1397612,69235,8258,698400,0
7,-1,663971,230431,1196404,68985,7980,597738,2
7,-1,668389,232165,1315153,69672,7556,656907,0
7,-1,688281,235550,1294306,72357,8707,646663,0
7,-1,664121,230991,1211186,69158,7705,605120,2
7,-1,668833,230897,1369052,69013,8122,684143,0
7,-1,670155,232027,1334367,69484,8136,666663,2
7,-1,672587,232013,1381479,69703,8742,689975,0
7,-1,664290,231113,1340159,69128,8252,669599,2
7,-1,667163,231815,1383055,69577,7979,690839,0
7,-1,693883,240339,1288534,71905,7934,643791,2
7,-1,667778,231139,1345598,69135,7743,672389,0
7,-1,669650,232677,1306431,69939,7985,652479,2
7,-1,673465,232586,1321763,69877,7772,660156,0
7,-1,665581,230331,1177051,68891,7238,588125,0
7,-1,669054,231655,1322331,69390,7848,660627,2
7,-1,671241,231135,1348249,69107,8059,673771,0
7,-1,668994,231074,1313126,69188,7829,656039,2
7,-1,668852,230799,1254391,69050,7801,626599,0
7,-1,662599,230606,1361325,68980,7697,680285,0
7,-1,669456,233318,1340175,70143,7514,669320,2
7,-1,663945,230867,1314347,69029,7765,656166,0
7,-1,665046,230614,1263774,68984,7153,631458,0
7,-1,666399,230788,1209069,69033,7116,604091,2
7,-1,668320,231957,1362072,69546,7545,680330,0
7,-1,665317,231542,1342090,69341,7487,670595,2
7,-1,667685,230959,1398197,69077,7321,698623,0
7,-1,663981,230515,1184712,68854,7303,591765,2
7,-1,667094,230558,1230322,69021,7458,614619,0
7,-1,666421,231043,1295455,69150,7492,647184,0
7,-1,692579,241020,1335059,71978,7708,666945,2
7,-1,667234,231289,1406319,69090,7371,702747,0
7,-1,668124,231483,1238133,69261,7618,618646,2
7,-1,673741,232394,1298779,69714,8003,648734,0
7,-1,665761,231221,1281343,69221,6690,640009,2
7,-1,670652,231845,1357015,69246,8189,677996,0
7,-1,664235,230552,1327199,68791,7948,663173,0
7,-1,666126,231035,1260611,68991,7438,629805,0
7,-1,665398,231078,1363410,68946,8115,681222,2
7,-1,668085,232205,1441935,69566,7810,720277,0
7,-1,668285,231598,1267078,69176,7251,632970,2
7,-1,669169,231198,1329838,68991,8395,664583,0
7,-1,668464,232825,1302142,69841,8716,650316,2
7,-1,669151,231123,1324034,69010,7921,661533,0
7,-1,666489,231054,1254886,69011,7340,626933,0
7,-1,667873,231217,1213988,69123,6842,606503,2
7,-1,673515,232699,1322709,69687,7886,660738,0
7,-1,667867,231020,1326141,68964,7912,662622,0
7,-1,667583,230122,1337388,68795,8192,668269,0
7,-1,700422,242668,1294355,72825,8442,646369,2
7,-1,672620,231534,1245775,69289,7184,622430,0
7,-1,675696,233401,1352830,70244,8366,675678,0
7,-1,675941,231762,1185156,69251,7217,592146,0
7,-1,674819,231634,1318840,69160,8453,658895,0
7,-1,666950,231730,1334586,69135,8819,666864,0
7,-1,668432,231934,1362262,69253,9133,680650,2
7,-1,669935,231334,1402284,69005,8559,700677,0
7,-1,672401,232718,1468730,69716,8173,733663,0
7,-1,668511,231737,1268960,69284,7836,633901,2
7,-1,669680,231945,1261917,69379,7918,630483,0
7,-1,675725,233770,1377824,70168,8939,688130,2
7,-1,690835,235207,1303170,72172,9431,651126,0
7,-1,667438,230978,1401803,68937,7834,700441,0
7,-1,666438,230654,1223114,68957,7898,611066,0
7,-1,671542,231683,1256533,69292,7997,627740,2
7,-1,674809,232297,1367015,69643,8745,682826,0
7,-1,669958,232568,1345079,69791,8214,671695,2
7,-1,665620,230236,1326465,68704,7927,662793,0
7,-1,667432,230339,1219655,68776,7961,609390,0
7,-1,671926,230702,1294000,68968,8566,646503,0
7,-1,669459,230990,1206087,69120,8246,602540,2
7,-1,674396,233348,1484274,70082,8601,741331,0
7,-1,664569,231031,1202258,69045,7814,600593,2
7,-1,665207,230329,1322417,68727,8788,660716,0
7,-1,669345,230741,1279898,68908,8288,639379,0
7,-1,665448,230738,1329967,68941,8556,664516,2
7,-1,668081,231090,1268776,68993,7968,634054,0
7,-1,668316,230203,1334424,68738,9408,666749,0
7,-1,665023,230044,1331687,68800,9084,665325,2
7,-1,672550,231824,1420345,69522,8672,709449,0
7,-1,666199,229876,1321711,68583,8513,660374,0
7,-1,668993,231308,1367038,69076,8922,683099,0
7,-1,670664,231452,1327006,69210,8614,662926,2
7,-1,671872,230976,1286416,68955,8897,642737,0
7,-1,667277,231274,1284239,69068,9596,641207,2
7,-1,674712,233041,1335850,69747,8964,667064,0
7,-1,669449,231019,1376872,68852,9721,687889,2
7,-1,693220,236469,1545406,72379,10109,772157,0
7,-1,671678,231870,1293278,69146,8718,646027,2
7,-1,672355,230286,1359645,68566,8650,679497,0
7,-1,671009,231658,1490486,69128,9560,744392,0
7,-1,665766,231452,1469554,68957,9001,734138,2
7,-1,666590,231274,1258121,68961,8037,628578,2
7,-1,667512,231452,1379611,69147,8510,689134,0
7,-1,665369,230471,1337132,68758,8908,668078,2
7,-1,665240,230245,1255751,68745,7860,627338,0
7,-1,663659,229911,1328367,68551,7640,663600,0
7,-1,666666,230436,1554505,68789,9524,776732,0
7,-1,666922,230279,1400561,68756,8984,699542,2
7,-1,690177,235391,1496170,72189,9758,747231,0
7,-1,668242,231332,1309647,69251,7837,654043,0
7,-1,667825,230619,1307573,68863,8048,653272,2
7,-1,690470,235775,1272223,72303,8034,635655,0
7,-1,664926,230482,1283025,68749,7890,641059,0
7,-1,672488,233225,1315786,69949,8223,657063,2
7,-1,667624,230545,1371258,68849,8261,685151,2
7,-1,668854,230479,1284785,68742,8416,642282,0
7,-1,671164,231478,1321119,69354,9185,659774,0
7,-1,667393,230005,1285230,68605,8209,641866,2
7,-1,671417,230208,1501251,68702,8971,749944,0
7,-1,661819,230191,1385798,68716,8364,692433,2
7,-1,663747,230128,1246110,68647,7790,622652,0
7,-1,666158,230718,1228575,68836,7199,613749,2
7,-1,668071,231609,1269300,69169,7463,634144,0
7,-1,669271,230552,1433827,68727,8314,716315,0
7,-1,666512,229898,1397406,68618,8298,698174,0
7,-1,667618,231084,1278937,69045,8290,638694,2
7,-1,669660,230345,1352957,68714,8675,675503,0
7,-1,669325,231246,1363231,69041,8457,681075,2
7,-1,689281,234588,1386823,71925,9824,692818,0
7,-1,668076,230043,1405855,68684,9109,702250,2
7,-1,664776,229952,1190700,68597,7105,594913,0
7,-1,675769,231893,1236339,69407,7775,617528,0
7,-1,670359,230071,1287009,68679,7615,643076,0
7,-1,669712,231313,1254447,69234,7108,626524,0
7,-1,665869,229472,1277326,68448,6942,638245,0
7,-1,669791,229473,1278571,68457,8444,638785,0
7,-1,656905,230279,1274063,68213,6544,636620,0
7,-1,658073,230285,1282609,68275,7185,640800,2
7,-1,660141,230116,1298561,68145,7791,648850,0
7,-1,661444,230289,1280891,68271,7408,640007,2
7,-1,660780,230285,1204269,68244,7573,601757,0
7,-1,661523,229853,1343595,68028,7699,671436,0
7,-1,668070,232857,1239717,69316,8162,619065,2
7,-1,665689,230659,1223101,68362,7304,611058,0
7,-1,663718,231186,1251099,68589,7583,625103,2
7,-1,666848,231344,1392134,68633,7479,695549,0
7,-1,663347,229838,1233339,68124,7923,616057,2
7,-1,664383,230773,1313351,68433,8016,656259,0
7,-1,660582,230545,1295017,68360,7926,646979,2
7,-1,660780,230041,1323714,68302,7995,661340,2
7,-1,663747,229932,1326400,68193,7905,662810,0
7,-1,670540,231664,1243619,69025,7462,621202,0
7,-1,667508,231029,1315373,69527,8353,657190,2
7,-1,665395,230079,1171254,69148,8102,585069,0
7,-1,663179,230062,1203763,69189,7964,601406,2
7,-1,671960,232273,1276980,70172,8491,637684,0
7,-1,663503,230722,1289552,69339,8070,644390,0
7,-1,661452,230163,1296774,69220,7256,647923,2
7,-1,669008,231698,1210635,69811,8979,604618,0
7,-1,665759,230338,1499450,69217,8998,749338,0
7,-1,666604,230172,1362746,69158,8578,680980,0
7,-1,665394,230566,1253106,69344,7754,626084,0
7,-1,663811,229773,1302232,69003,8205,650622,2
7,-1,667431,230734,1307348,69348,7903,653308,0
7,-1,671886,231585,1178962,69829,7673,588796,0
7,-1,664947,230494,1313402,69272,8204,656334,0
7,-1,667508,231133,1314939,69540,8234,656962,2
7,-1,686410,234700,1343766,72500,8492,671420,0
7,-1,671604,231988,1210840,69953,7265,604763,0
7,-1,668757,230419,1293056,69303,7406,646034,2
7,-1,665549,230025,1289341,69152,8006,644198,0
7,-1,666897,229309,1290494,68798,7820,644826,0
7,-1,690996,234928,1349776,72538,9071,674371,0
7,-1,668367,231119,1198329,69537,7513,598753,0
7,-1,669122,231837,1229870,69994,8073,614147,0
7,-1,662701,230520,1207439,69321,8001,603263,2
7,-1,665604,230597,1263477,69339,7907,631288,0
7,-1,663897,229901,1301055,69067,7784,650114,2
7,-1,666173,230362,1283247,69181,7298,641153,0
7,-1,666520,230573,1300794,69337,8400,649912,0
7,-1,668763,230997,1220301,69665,8032,609511,0
7,-1,668236,231414,1213943,69610,7496,606506,2
7,-1,664836,231203,1235804,69702,8347,617116,0
7,-1,665769,231026,1275139,69491,7884,637060,2
7,-1,666300,230710,1288006,69410,7932,643510,2
7,-1,665507,230118,1302222,69154,8041,650698,0
7,-1,687240,235055,1273340,72599,8784,636200,0
7,-1,668658,231056,1298891,69474,8139,648960,2
7,-1,674830,232288,1297298,70207,7887,647580,0
7,-1,665478,229818,1238612,69043,7840,618773,2
7,-1,668460,230275,1333603,69240,8686,665860,0
7,-1,671391,230694,1451834,69331,9118,725799,2
7,-1,668076,231433,1335439,69754,8143,667100,0
7,-1,663110,229747,1252229,69024,8646,625633,0
7,-1,666668,230887,1323446,69455,8460,661210,2
7,-1,667908,230511,1202345,69330,8276,600686,2
7,-1,687930,235442,1383940,72559,9795,691472,0
7,-1,668009,230885,1226967,69319,7513,612984,2
7,-1,668664,230257,1301971,69023,7944,650528,0
7,-1,668064,230520,1246669,69169,7822,622853,0
7,-1,665989,230299,1208664,69223,7656,603918,0
7,-1,665687,230492,1321336,69324,7878,660208,2
7,-1,667109,230448,1329070,69308,8429,664136,0
7,-1,668552,230831,1215990,69368,8317,607415,2
7,-1,674801,232115,1253118,69845,7828,625890,0
7,-1,696578,239719,1340541,71888,7616,669820,0
7,-1,668817,230235,1314598,69036,7798,656901,0
7,-1,670494,230451,1271344,69168,8783,635198,0
7,-1,669988,230265,1341945,69130,8837,670435,2
7,-1,671686,230581,1367903,69201,8379,683484,0
7,-1,662347,231079,1310209,69342,7431,654576,2
7,-1,664992,230391,1338002,69070,8731,668598,0
7,-1,665103,230070,1156276,69169,7588,577735,0
7,-1,667216,231537,1374999,69658,8530,687015,2
7,-1,689206,235117,1394520,72540,9543,696814,0
7,-1,668670,231248,1385675,69576,9368,692315,0
7,-1,671750,231435,1472592,69612,9984,735338,0
7,-1,673496,231634,1329349,69824,8644,664131,0
7,-1,666794,230770,1221302,69442,7236,610102,0
7,-1,669848,231403,1397139,69603,9642,697805,0
7,-1,671259,231795,1333413,69741,8586,666204,2
7,-1,673854,231510,1430867,69575,9050,714805,0
7,-1,671859,232667,1312357,70023,9530,655415,2
7,-1,692228,236326,1383691,73039,9561,691229,0
7,-1,672582,231608,1238628,69732,8086,618676,2
7,-1,670631,231624,1338624,69692,8760,668785,0
7,-1,676979,233086,1293680,70404,8709,645915,0
7,-1,670837,233116,1275813,70445,8584,637117,2
7,-1,669334,231762,1242283,69664,7480,620676,0
7,-1,668011,231364,1339321,69605,9068,668836,0
7,-1,671670,232190,1383526,69818,8780,690866,2
7,-1,671412,231273,1341012,69573,8870,669819,0
7,-1,667563,231030,1354084,69326,8495,676573,0
7,-1,672202,232510,1365064,69874,7763,681977,2
7,-1,674218,233235,1272695,70268,8367,635448,2
7,-1,672712,231604,1207134,69487,8202,603038,0
7,-1,675155,232154,1300642,69686,8877,649710,2
7,-1,672465,230660,1351408,69084,8786,675326,0
7,-1,670492,230600,1394195,69186,7956,696622,0
7,-1,666672,231036,1349640,69392,7773,674234,2
7,-1,668195,231532,1243542,69692,7579,620871,0
7,-1,670771,232015,1221504,69709,7394,610179,2
7,-1,673168,231736,1322606,69602,7699,660712,0
7,-1,670936,231341,1308782,69479,8032,653831,2
7,-1,670580,231705,1331144,69586,7537,665105,0
7,-1,675999,232951,1353144,70263,8677,675596,0
7,-1,665534,229917,1282001,69077,8141,640538,2
7,-1,672858,231491,1299311,69584,8900,649056,0
7,-1,672652,231399,1320723,69540,8865,659710,2
7,-1,667266,231364,1328939,69537,8595,663839,0
7,-1,666262,231341,1232250,69456,8452,615574,2
7,-1,689404,235539,1472727,72671,9089,735942,0
7,-1,671305,232804,1241726,70246,8260,619948,2
7,-1,665674,230102,1343604,69020,7788,671314,0
7,-1,668504,230932,1336492,69343,8337,667858,0
7,-1,671821,230657,1265367,69303,8538,632034,0
7,-1,673537,232147,1235221,69812,7575,617034,2
7,-1,675846,232138,1300574,69782,8314,649734,0
7,-1,670259,232676,1356572,69996,7675,677720,2
7,-1,671547,231705,1384514,69660,7655,691699,0
7,-1,675421,233536,1202896,70425,8231,600720,2
7,-1,673588,231438,1236291,69637,7618,617658,0
7,-1,670989,230300,1295988,69220,7916,647492,0
7,-1,676439,231882,1243113,69718,8145,620986,0
7,-1,672188,230901,1339804,69462,8238,669288,0
7,-1,671301,231830,1267866,69746,7841,633407,2
7,-1,669760,230855,1270325,69338,7615,634781,0
7,-1,672960,231780,1343281,69642,8041,671059,2
7,-1,674598,231297,1237710,69399,7974,618320,0
7,-1,680205,233994,1325517,70555,8707,661812,2
7,-1,668959,230405,1337977,69066,8616,668550,0
7,-1,667358,231172,1419580,69386,8692,709154,2
7,-1,669395,230443,1221518,69109,8789,610369,0
7,-1,671184,231566,1370902,69503,8021,684662,2
7,-1,670644,231216,1355704,69390,8799,676828,0
7,-1,669909,230616,1246086,69168,7911,622400,0
7,-1,678104,233478,1307305,70369,8175,653064,2
7,-1,674187,231319,1415151,69418,8933,707071,0
7,-1,669232,230652,1258299,69159,8485,628632,2
7,-1,670546,230886,1373624,69233,8233,686351,0
7,-1,668700,230205,1320874,69132,8886,659990,0
7,-1,673921,231322,1313880,69827,8445,656347,0
7,-1,667344,229420,1216808,69014,8490,607849,0
7,-1,670544,230612,1179910,69478,8309,589527,2
7,-1,668825,230020,1349755,69312,8359,674319,2
7,-1,672170,230212,1218948,69380,8259,609106,0
7,-1,661145,229904,1286827,69231,8385,642925,0
7,-1,663873,229977,1267451,69234,8303,633322,0
7,-1,664543,229644,1419537,69099,9288,709373,0
7,-1,685160,234272,1383244,72480,8972,691202,0
7,-1,662769,230226,1286796,69380,7579,642893,2
7,-1,669836,231681,1206001,69805,7627,602569,0
7,-1,667899,230463,1280562,69449,7428,639719,0
7,-1,664832,229692,1207098,69086,8372,603115,0
7,-1,667072,230556,1329469,69466,8868,663999,2
7,-1,671971,231917,1363582,69967,9890,680743,0
7,-1,665314,230495,1418367,69328,9599,708011,2
7,-1,666642,229150,1332284,68784,8903,665678,0
7,-1,664011,230131,1309755,69217,8970,654313,2
7,-1,667799,230421,1432683,69229,9134,715501,0
