0,-1,686046,235926,1318842,70217,8051,659270,0
0,-1,686201,236239,1287575,70449,7023,643831,2
0,-1,645305,220502,1263595,66633,7734,631733,0
0,-1,636529,217493,1153416,65474,6821,576718,0
0,-1,635783,218035,1162490,65632,6891,581288,0
0,-1,633193,218018,1251338,65609,7684,625630,0
0,-1,637498,218920,1349591,65776,7095,674767,0
0,-1,637443,218837,1246972,65827,7340,623531,0
0,-1,664865,228145,1261938,68604,7322,631003,0
0,-1,638051,218523,1253557,65738,6873,626821,0
0,-1,644319,220375,1277999,66383,7456,639120,0
0,-1,637901,219103,1232957,65597,7093,616568,0
0,-1,664078,224073,1194377,69165,7890,597191,0
0,-1,641380,218850,1223447,65807,7257,611824,0
0,-1,639343,218775,1188537,65531,8237,594186,0
0,-1,647643,220842,1291366,66558,8670,645722,0
0,-1,637913,217889,1272682,65308,7516,636376,0
0,-1,636531,220140,1207403,65775,7899,603509,0
0,-1,639617,218243,1273606,65931,8354,636780,0
0,-1,656555,222047,1300811,69025,8329,650390,0
0,-1,644495,220498,1208007,66959,7559,604078,0
0,-1,647135,220623,1229541,66995,7446,614684,0
0,-1,640115,218165,1266864,65739,7280,633395,0
0,-1,642148,219795,1165188,66362,7273,582636,0
0,-1,642869,219143,1255141,66213,7987,627589,0
0,-1,641219,218345,1244490,65862,7405,622234,0
0,-1,640487,218702,1223831,65974,7490,612289,0
0,-1,652062,220687,1216993,66821,7390,608461,0
0,-1,644964,218594,1143940,66172,7140,571995,0
0,-1,641463,219272,1242788,66562,6922,621461,0
1,-1,695977,239366,1332366,71715,7615,666152,2
1,-1,638636,218082,1187691,65581,6390,593865,0
1,-1,638467,218484,1187078,65686,6600,593466,0
1,-1,636115,218056,1182450,65687,7527,591263,0
1,-1,631852,217886,1254602,65570,7853,627326,0
1,-1,639025,218889,1245375,65831,6431,622732,0
1,-1,643665,219873,1350675,66303,8100,674995,0
1,-1,637412,218618,1225621,65708,6501,612859,0
1,-1,639338,218898,1223214,65813,6740,611647,0
1,-1,642692,219237,1240223,65793,7046,620157,0
1,-1,638825,219620,1228028,65838,7754,614054,0
1,-1,637608,217850,1103820,65266,6900,551976,0
1,-1,640236,218104,1238414,65507,7555,619290,0
1,-1,637372,218257,1260337,65349,8121,630052,0
1,-1,661217,222681,1289412,68658,9247,644690,0
1,-1,636907,217940,1250730,65331,7611,625402,0
1,-1,635052,218805,1298561,65147,7746,649316,0
1,-1,636563,217579,1171149,65617,7801,585620,0
1,-1,636689,218300,1195308,65989,7539,597525,0
1,-1,636818,217899,1226777,65853,7417,613443,0
1,-1,662300,222693,1422829,69103,9094,711487,0
1,-1,643523,219994,1208417,66668,7432,604279,0
1,-1,640976,219186,1210723,66199,7256,605399,0
1,-1,647705,220952,1244118,67086,7871,621834,0
1,-1,643230,219432,1168677,66214,7093,584381,0
1,-1,642292,219658,1289908,66308,7745,644796,0
1,-1,646838,219019,1240370,66047,7909,620242,0
1,-1,642199,217776,1254741,65834,7010,627404,0
1,-1,635559,217834,1115435,65926,7149,557743,0
2,-1,634778,217624,1253901,65411,6894,627038,2
2,-1,636780,217951,1263357,65574,7103,631069,0
2,-1,641003,218234,1176950,65498,8170,588471,0
2,-1,643650,218243,1234995,65695,7454,617581,0
2,-1,638754,219949,1266681,66554,7362,633432,0
2,-1,640104,219733,1258707,66322,7283,629433,0
2,-1,640245,219040,1238130,65921,7302,618992,0
2,-1,638632,219393,1173502,66008,7135,586799,0
2,-1,636868,218380,1222419,65687,6680,611237,0
2,-1,640156,218710,1165072,65667,7544,582610,0
2,-1,644207,220802,1179906,66442,7876,590021,0
2,-1,637882,218468,1156781,65501,6936,578452,0
2,-1,638695,217900,1130089,65501,6887,565088,0
2,-1,635390,217995,1217131,65266,7663,608644,0
2,-1,645484,219995,1264840,66215,8848,632714,0
2,-1,644566,220561,1175228,66478,6997,587599,0
2,-1,633673,218785,1220595,65148,7665,610353,0
2,-1,639499,218689,1148753,66295,8012,574351,0
2,-1,633824,217301,1120534,65576,7430,560285,0
2,-1,639742,219022,1190204,66413,7229,595093,0
2,-1,641998,218875,1208352,66014,6667,604225,0
2,-1,659463,222702,1264398,69013,8833,632272,0
2,-1,638784,218606,1235444,65979,7404,617745,0
2,-1,663659,223769,1385850,69573,9193,692891,0
2,-1,641349,219147,1242500,66138,7827,621292,0
2,-1,642495,220493,1182736,66902,7300,591423,0
2,-1,644963,218599,1171777,65918,7413,585898,0
2,-1,644643,219012,1255521,66501,8009,627828,0
2,-1,660096,222586,1264710,69330,8332,632409,0
3,-1,637902,218050,1196721,65412,7029,598305,0
3,-1,636411,218107,1297718,65593,8061,648843,2
3,-1,641813,219553,1275718,66402,7157,637797,0
3,-1,640439,218059,1139307,65650,7131,569701,0
3,-1,656223,223046,1186258,69107,8272,593151,0
3,-1,636065,218162,1218511,65575,6738,609278,0
3,-1,636752,218135,1262428,65582,7622,631086,0
3,-1,637825,219342,1254386,66120,7000,627256,0
3,-1,636174,218136,1282603,65545,6620,641481,0
3,-1,640220,218688,1205702,65626,7272,602905,0
3,-1,641081,220077,1137232,66020,7727,568586,0
3,-1,640606,218865,1157114,65721,7303,578594,0
3,-1,636870,217433,1208467,65241,6989,604299,0
3,-1,661205,223392,1391855,68864,8457,695895,0
3,-1,640627,218552,1194730,65576,8320,597311,0
3,-1,664056,222610,1276893,68623,8137,638495,0
3,-1,631623,218107,1157804,64929,7580,578949,0
3,-1,635121,217848,1259574,65793,8052,629815,0
3,-1,636665,218450,1209252,66026,6849,604683,0
3,-1,635839,218435,1253407,65967,7538,626760,0
3,-1,657974,222713,1236143,69032,8719,618094,0
3,-1,638127,218009,1161205,65736,7394,580648,0
3,-1,660654,223471,1283717,69410,8093,641856,0
3,-1,644653,220261,1382935,66674,9567,690883,0
3,-1,645328,220252,1175506,66661,7322,587873,0
3,-1,659530,223318,1245277,69351,8100,622734,0
3,-1,671182,224606,1394682,69704,8117,697395,0
3,-1,642165,218372,1293120,66075,7793,646588,0
3,-1,637629,218441,1224993,66181,7075,612535,0
4,-1,638713,218371,1129849,65410,6922,564928,0
4,-1,633590,217790,1286344,65389,7557,643224,2
4,-1,633365,216923,1219773,65128,7436,609902,0
4,-1,644356,219716,1281624,66375,7094,640892,0
4,-1,633688,218386,1180071,65792,7434,589452,0
4,-1,639332,219975,1232511,66202,6625,616273,0
4,-1,641948,219871,1295017,66150,7699,647473,0
4,-1,635825,218816,1164997,65835,6319,582528,0
4,-1,642634,220507,1240139,66707,7279,620140,0
4,-1,664936,224278,1237649,69807,8645,618755,0
4,-1,638627,219281,1220905,65712,8698,610509,0
4,-1,639281,218632,1165029,65635,7240,582584,0
4,-1,643568,219874,1230013,66405,8070,615011,0
4,-1,638558,218841,1303128,65512,7902,651616,0
4,-1,639078,218280,1251618,65448,8167,625839,0
4,-1,641687,217993,1149572,65305,7390,574827,0
4,-1,633061,217555,1125971,64689,7184,563013,0
4,-1,639836,219813,1178214,66672,8196,589173,0
4,-1,635167,218298,1224107,65889,7753,612103,0
4,-1,643177,220139,1162647,66878,7623,581414,0
4,-1,641607,218794,1379374,65927,8385,689727,0
4,-1,640699,219236,1317925,66061,7796,658935,0
4,-1,638812,219351,1338743,66324,7151,669410,0
4,-1,641460,218706,1243170,66087,7753,621546,0
4,-1,662298,223496,1280951,69297,8444,640608,0
4,-1,642078,219566,1151108,66309,6976,575643,0
4,-1,644978,218808,1239526,65963,7851,619784,0
4,-1,643053,218251,1141098,65995,7407,570516,0
4,-1,638775,217614,1282845,65859,6628,641589,0
5,-1,634714,217356,1163633,65127,6489,581806,0
5,-1,633079,217534,1160253,65334,7995,580145,2
5,-1,636714,218539,1149685,65744,6565,574715,0
5,-1,643350,220290,1230305,66655,6974,615190,0
5,-1,633267,218204,1160906,65729,7489,580410,0
5,-1,635030,218702,1165567,65729,7006,582866,0
5,-1,637327,218472,1236503,65666,7191,618192,0
5,-1,635218,218636,1249856,65710,7068,624972,0
5,-1,641008,219450,1235312,66038,7596,617702,0
5,-1,640966,219180,1245072,65832,7526,622572,0
5,-1,640187,220538,1302878,66150,8907,651528,0
5,-1,636966,218123,1166224,65517,7101,583169,0
5,-1,659617,222882,1165180,68908,7912,582581,0
5,-1,637587,218451,1267275,65392,8074,633678,0
5,-1,660595,222823,1287832,68775,9097,643963,0
5,-1,642982,218493,1240495,65523,7783,620305,0
5,-1,633811,218189,1222411,64945,7255,611196,0
5,-1,655306,223043,1269261,68417,7946,634667,0
5,-1,665124,223183,1311522,69374,7886,655803,0
5,-1,638760,219197,1260919,66262,7553,630520,0
5,-1,639578,218419,1433739,65882,8379,716554,0
5,-1,636959,218184,1429887,65741,8608,714605,0
5,-1,641142,220325,1167588,66833,7376,583830,0
5,-1,641581,218992,1244981,66221,7514,622562,0
5,-1,640443,219340,1260114,66185,7042,630106,0
5,-1,637941,218374,1201470,65883,7123,600854,0
5,-1,647305,220364,1185108,66750,6741,592545,0
5,-1,641995,218079,1224536,66008,7337,612357,0
5,-1,639259,218290,1192993,66081,6425,596577,0
6,-1,642749,220798,1262442,66583,7160,631240,0
6,-1,636785,218873,1284418,65868,7966,641043,2
6,-1,639816,219039,1251971,66086,7964,625982,0
6,-1,658998,222726,1238656,68951,7899,619420,0
6,-1,632293,218264,1236474,65636,7467,618248,0
6,-1,659697,223431,1196912,69142,8354,598431,0
6,-1,657917,222847,1202120,68883,8119,600840,0
6,-1,639066,219527,1243339,66039,6639,621722,0
6,-1,638769,218879,1178292,65794,6414,589197,0
6,-1,639422,218795,1295441,65596,6868,647753,0
6,-1,638587,219865,1513202,65942,9237,756589,0
6,-1,637955,218471,1299876,65535,7482,650029,0
6,-1,639583,218064,1224162,65550,7725,612176,0
6,-1,641660,220678,1298970,66444,8165,649548,0
6,-1,639456,218025,1196229,65299,8092,598175,0
6,-1,640366,217933,1240464,65370,7159,620193,0
6,-1,638358,220155,1259544,65778,7729,629561,0
6,-1,633292,218413,1232301,65145,7028,616193,0
6,-1,638185,217436,1139918,65666,7123,569997,0
6,-1,635826,218177,1300691,65940,7459,650392,0
6,-1,638287,218332,1462360,65959,8760,731117,0
6,-1,662546,222976,1313511,69147,9247,656628,0
6,-1,636068,218572,1245651,66112,7692,622821,0
6,-1,646186,220835,1178379,66995,7294,589193,0
6,-1,643287,219346,1292492,66189,7680,646292,0
6,-1,637626,219244,1134270,66192,7543,567181,0
6,-1,644461,219471,1219268,66245,6635,609645,0
6,-1,641231,217771,1159616,65854,7659,579850,0
6,-1,639727,219046,1234732,66486,6884,617434,0
7,-1,638095,218198,1310273,65506,8425,655097,0
7,-1,639595,219669,1275623,66456,7899,637785,0
7,-1,637028,218110,1233495,65675,8081,616736,2
7,-1,639383,217982,1356277,65496,8144,678180,0
7,-1,659013,223152,1216656,69119,8591,608345,0
7,-1,638875,219382,1234259,65953,7302,617131,0
7,-1,637413,218995,1266702,65878,8132,633492,0
7,-1,655009,222548,1274702,68776,7573,637364,0
7,-1,640571,219895,1248497,66345,7544,624286,0
7,-1,657645,222713,1183721,68890,7373,591935,0
7,-1,642968,220918,1325752,66465,8832,663183,0
7,-1,643323,220949,1315178,66734,7808,657426,0
7,-1,641330,219206,1252146,66056,7565,626129,0
7,-1,657818,223698,1247469,68933,9259,623697,0
7,-1,637874,217865,1286375,65278,8343,643217,0
7,-1,647534,220907,1178266,66673,7900,589063,0
7,-1,630064,217287,1165326,64597,7320,582687,0
7,-1,639396,219064,1149935,65405,6605,575017,0
7,-1,643131,219051,1234295,66222,7311,617187,0
7,-1,634451,217927,1265829,65758,7146,632956,0
7,-1,637741,218036,1300472,65801,8826,649605,0
7,-1,643108,218642,1278899,65882,8045,638860,0
7,-1,663903,223554,1291801,69581,8042,645966,0
7,-1,643964,220189,1265093,66598,7715,632592,0
7,-1,642510,219096,1213058,66062,7781,606572,0
7,-1,642591,218998,1177098,66123,7918,588539,0
7,-1,646778,219478,1117225,66207,7012,558621,0
7,-1,645660,219999,1221993,66892,7478,611112,0
7,-1,638090,218049,1211258,66057,7137,605681,0
8,-1,634986,217492,1135824,65244,7042,567970,0
8,-1,633481,217706,1226466,65431,7840,613253,0
8,-1,641767,219610,1231597,66160,6703,616257,2
8,-1,644865,220136,1358265,66479,9093,678958,0
8,-1,634341,218144,1164776,65702,6979,582385,0
8,-1,634944,218357,1189869,65697,7028,594850,0
8,-1,632294,217372,1281204,65356,8104,640498,0
8,-1,633587,218437,1323233,65707,7330,661654,0
8,-1,638691,218533,1345996,65621,6838,673047,0
8,-1,640053,219217,1254976,65938,7108,627591,0
8,-1,639727,220075,1224784,66005,8295,612161,0
8,-1,637447,218697,1159735,65670,7129,580039,0
8,-1,637775,217948,1297860,65465,6971,648936,0
8,-1,639118,218433,1276659,65376,7969,638062,0
8,-1,639667,218432,1178223,65519,8274,589154,0
8,-1,661231,222741,1295141,68722,8915,647559,0
8,-1,633338,217845,1159390,64809,7223,579734,0
8,-1,662121,227193,1267375,67707,6769,633727,0
8,-1,637502,217690,1206798,65747,6893,603497,0
8,-1,655776,222860,1260848,69252,7875,630521,0
8,-1,644384,220819,1171098,67027,6918,585612,0
8,-1,645832,219802,1210373,66503,8485,604499,0
8,-1,640745,218631,1242706,66151,6753,621391,0
8,-1,642326,219873,1257271,66487,8108,628637,0
8,-1,642213,219481,1151946,66235,7057,576023,0
8,-1,642964,218753,1195537,66021,8197,597818,0
8,-1,647192,220399,1203597,66696,7095,601853,0
8,-1,638959,217615,1134824,65690,7168,567424,0
8,-1,636816,218252,1222532,66093,6481,611279,0
9,-1,638972,218320,1214744,65555,6741,607401,0
9,-1,632465,217541,1196262,65349,7969,598039,0
9,-1,645106,220828,1196450,66674,7626,598314,2
9,-1,640671,218756,1369604,65830,8530,684892,0
9,-1,632498,218051,1152063,65605,7536,575992,0
9,-1,635349,218280,1150304,65610,6797,575104,0
9,-1,634151,218177,1408156,65579,8277,703959,0
9,-1,635661,218403,1195604,65689,7046,597847,0
9,-1,637917,218847,1294558,65841,6639,647422,0
9,-1,636767,218590,1215075,65764,6815,607588,0
9,-1,637006,219414,1426934,65761,8711,713611,0
9,-1,644686,219256,1243230,65888,7410,621526,0
9,-1,638308,218404,1201563,65654,6838,600822,0
9,-1,642967,220141,1180466,66201,7967,589959,0
9,-1,634958,217527,1325345,65267,7623,662555,0
9,-1,640245,217923,1160527,65314,7717,580306,0
9,-1,638772,220662,1212751,66017,7648,606408,0
9,-1,657980,222570,1264703,68347,7696,632432,0
9,-1,639585,218622,1084110,66350,7388,542125,0
9,-1,639732,218827,1288025,66139,8252,644048,0
9,-1,664766,227658,1264582,68731,7759,632389,0
9,-1,641352,218242,1289771,65835,8617,644863,0
9,-1,660060,222889,1202017,69203,8732,601040,0
9,-1,640017,218892,1267557,66139,8241,633841,0
9,-1,639416,218135,1239817,65717,6689,619995,0
9,-1,646580,220657,1157838,66924,8055,578967,0
9,-1,643487,218747,1186341,66003,7298,593180,0
9,-1,640298,217993,1279186,65833,7931,639620,0
9,-1,657440,222492,1261149,69291,8057,630614,0
10,-1,636221,217533,1129127,65234,6644,564541,0
10,-1,635050,217140,1300136,65317,8229,650109,0
10,-1,641202,219563,1252377,65885,7280,626234,2
10,-1,640312,218795,1368770,65801,7636,682992,0
10,-1,635449,218835,1279949,65922,7617,640037,0
10,-1,636815,219206,1164536,65955,6702,582241,0
10,-1,639409,219040,1364403,65841,8030,681395,0
10,-1,639113,219769,1251197,66323,7532,625657,0
10,-1,636062,218506,1170198,65698,6308,585147,0
10,-1,642601,219749,1276218,66313,7792,638163,0
10,-1,640420,220724,1274426,66201,8583,637630,0
10,-1,640199,218458,1163239,65665,7423,581661,0
10,-1,643174,220143,1230988,66462,7213,615564,0
10,-1,660609,224146,1238308,69069,8373,619096,0
10,-1,638789,217846,1281577,65279,8291,640967,0
10,-1,640378,217877,1247500,65287,7825,623844,0
10,-1,632149,218307,1208023,64987,6600,604057,0
10,-1,635286,218161,1216859,65104,6599,608470,0
10,-1,641412,218528,1244212,66077,7486,622051,0
10,-1,635541,218121,1262029,65924,7593,631052,0
10,-1,635915,217901,1164280,65794,7427,582221,0
10,-1,639700,217850,1185341,65705,7430,592556,0
10,-1,639630,218681,1136094,66146,7951,568075,0
10,-1,648722,220580,1194261,67005,7914,597096,0
10,-1,639867,218795,1254674,66019,7572,627425,0
10,-1,642887,219599,1319922,66326,7768,660014,0
10,-1,642829,218265,1153862,65898,7700,576992,0
10,-1,640565,217557,1205260,65660,7369,602677,0
10,-1,635285,217828,1232959,65923,6927,616526,0
11,-1,657692,222453,1233432,68676,7728,616833,0
11,-1,657763,222412,1259840,68774,8670,629794,0
11,-1,636162,218454,1227974,65652,7607,614048,2
11,-1,658954,222824,1344161,68950,8757,671590,0
11,-1,640105,221068,1361892,66912,8061,680871,0
11,-1,631031,217372,1111287,65277,6894,555585,0
11,-1,637450,218600,1177618,65708,7263,588835,0
11,-1,634543,218848,1223732,65762,7477,611919,0
11,-1,637338,219352,1174269,65989,7101,587187,0
11,-1,641229,218822,1345756,65755,7647,672923,0
11,-1,635446,219271,1261875,65658,8264,631020,0
11,-1,646430,220832,1299339,66695,8047,649750,0
11,-1,636091,217831,1211494,65394,6652,605805,0
11,-1,636371,218594,1203500,65425,7835,601785,0
11,-1,646846,221178,1186498,66712,8783,593122,0
11,-1,640056,218132,1234890,65398,7508,617569,0
11,-1,629364,217442,1138803,64611,6635,569420,0
11,-1,634062,218344,1291994,65178,6895,646070,0
11,-1,642696,219473,1178174,66552,6873,589149,0
11,-1,636972,218192,1282538,65899,8334,641302,0
11,-1,643608,218633,1272049,66199,7989,635683,0
11,-1,641242,218159,1259893,65781,7871,630002,0
11,-1,639716,218902,1199571,66191,8019,599893,0
11,-1,644168,219121,1236916,66172,7579,618378,0
11,-1,639512,219042,1152730,66085,6560,576415,0
11,-1,640091,218849,1254251,66040,7448,627174,0
11,-1,643813,218544,1182890,65997,7069,591401,0
11,-1,645028,219659,1225431,66683,7491,612671,0
11,-1,635727,217588,1160670,65853,6911,580391,0
12,-1,636134,218020,1112987,65450,6407,556523,0
12,-1,637369,218596,1209394,65714,7950,604716,0
12,-1,642143,220347,1268531,66547,7825,634338,2
12,-1,637627,218568,1336553,65705,7808,668112,0
12,-1,655950,223589,1224829,69252,7908,612366,0
12,-1,656328,223503,1178321,69138,8507,589123,0
12,-1,635930,218709,1255641,65808,7287,627859,0
12,-1,633551,218355,1135412,65618,7492,567754,0
12,-1,641737,218947,1147021,65846,7487,573559,0
12,-1,639910,218708,1259839,65753,7531,629946,0
12,-1,634528,219509,1261345,65824,7283,630176,0
12,-1,662654,223599,1321008,69083,7749,660702,0
12,-1,633178,216654,1124622,65023,6558,562356,0
12,-1,642983,219903,1364984,66029,8581,682321,0
12,-1,638758,218152,1386932,65403,8237,693545,0
12,-1,637953,217853,1206405,65293,7568,603246,0
12,-1,632764,219069,1210334,65264,7094,605236,0
12,-1,635475,218070,1205806,65017,7008,602992,0
12,-1,637843,218145,1110336,65944,6847,555216,0
12,-1,640325,219787,1178543,66741,7697,589389,0
12,-1,640470,217819,1346288,65795,8120,673199,0
12,-1,662239,222759,1303705,69084,8094,651537,0
12,-1,639473,219347,1251346,66524,8435,625506,0
12,-1,645582,220117,1127034,66539,7427,563447,0
12,-1,642199,218661,1317383,65927,7467,658677,0
12,-1,641500,219358,1335441,66241,7390,667743,0
12,-1,644394,219248,1140618,66271,6649,570284,0
12,-1,640004,218144,1140351,65937,7329,570224,0
12,-1,639403,219686,1237814,66827,7386,618990,0
13,-1,637004,218227,1162158,65530,6881,581069,0
13,-1,635022,217991,1247084,65468,7687,623496,0
13,-1,636286,218092,1356980,65469,7705,678475,0
13,-1,637390,218378,1212241,65753,6828,606223,2
13,-1,636899,219505,1250092,66329,7296,625043,0
13,-1,638092,218261,1281244,65646,8352,640647,0
13,-1,635622,218332,1167068,65623,6561,583565,0
13,-1,631914,218102,1210345,65525,6724,605097,0
13,-1,643294,219731,1197720,66311,7635,598922,0
13,-1,635470,217089,1214121,65074,6825,607108,0
13,-1,651491,221731,1299322,66805,8554,649677,0
13,-1,638475,218228,1329681,65551,7116,664912,0
13,-1,643955,219388,1148451,65942,7441,574275,0
13,-1,638931,219166,1284570,65624,8715,642502,0
13,-1,642356,219659,1238971,66202,7799,619663,0
13,-1,641082,219837,1105684,66156,6567,552891,0
13,-1,631397,218087,1233192,64956,6218,616533,0
13,-1,636277,218279,1139303,65159,7025,569663,0
13,-1,644164,220378,1169374,66982,7154,584769,0
13,-1,656098,222212,1289170,69101,9212,644646,0
13,-1,641268,218657,1255376,66010,7927,627537,0
13,-1,640323,218862,1199988,65949,6708,600093,0
13,-1,635728,217300,1316760,65494,7982,658159,0
13,-1,645561,221083,1129017,67146,7625,564395,0
13,-1,639240,218933,1224382,66021,7615,612356,0
13,-1,637461,218166,1227376,65770,7135,613723,0
13,-1,643307,218926,1263198,66125,7599,631572,0
13,-1,638926,217369,1193276,65551,6463,596683,0
13,-1,655526,222849,1266575,69387,7806,633334,0
14,-1,642157,219613,1176640,66158,7211,588165,0
14,-1,635057,218332,1207927,65520,7457,603820,0
14,-1,639713,218735,1179030,65707,7475,589609,0
14,-1,636566,218090,1192354,65722,8253,595994,2
14,-1,635274,218813,1256294,65846,7505,628128,0
14,-1,640484,219645,1334890,66219,7970,667117,0
14,-1,639942,220176,1270523,66439,7263,635223,0
14,-1,639614,217973,1130671,65499,7446,565356,0
14,-1,639409,218495,1172339,65738,7070,586203,0
14,-1,644116,220723,1254775,66517,7710,627452,0
14,-1,666909,224058,1285027,69109,8729,642566,0
14,-1,638692,218283,1143799,65529,6766,571955,0
14,-1,640052,218277,1232739,65552,7626,616427,0
14,-1,638849,219101,1179891,65633,7999,590053,0
14,-1,659877,223066,1215431,68788,8313,607648,0
14,-1,641071,218049,1141489,65414,7372,570751,0
14,-1,631800,218284,1212857,64948,6374,606526,0
14,-1,633686,218119,1171436,65034,6819,585799,0
14,-1,636987,217967,1152105,65833,7762,576091,0
14,-1,634634,217941,1208860,65780,7716,604471,0
14,-1,659190,222160,1293112,68925,8713,646645,0
14,-1,641330,218110,1214449,65780,7194,607270,0
14,-1,640167,219546,1408915,66305,8229,704060,0
14,-1,643802,219349,1181717,66290,7794,590861,0
14,-1,641640,219579,1245231,66147,7446,622465,0
14,-1,643034,219633,1163828,66327,7066,581939,0
14,-1,669872,228261,1270799,68890,7573,635443,0
14,-1,646617,220195,1291816,66793,7267,646005,0
14,-1,636114,218160,1213455,66020,7080,606814,0
15,-1,637138,218414,1140319,65566,6860,570104,0
15,-1,684889,231657,1268947,71520,8523,634516,0
15,-1,639717,218722,1277726,65726,8969,638765,0
15,-1,646846,220952,1324377,66908,7147,662199,2
15,-1,630814,218203,1126173,65649,7272,563090,0
15,-1,639462,218941,1280020,65885,7926,640093,0
15,-1,635027,218606,1149287,65747,6900,574607,0
15,-1,661788,223050,1109748,68936,8085,554951,0
15,-1,640114,218779,1232379,65764,7232,616238,0
15,-1,638245,218327,1131115,65490,7508,565608,0
15,-1,648910,221028,1309666,66494,8792,654178,0
15,-1,638255,218575,1211259,65672,6898,605679,0
15,-1,640354,218423,1283018,65583,7841,641611,0
15,-1,637945,218952,1292976,65546,8245,646304,0
15,-1,638231,218531,1285849,65551,8153,642884,0
15,-1,639571,217489,1168264,65133,7679,584175,0
15,-1,629829,217822,1109475,64785,5933,554786,0
15,-1,636115,218503,1231028,65211,6583,615608,0
15,-1,636736,218340,1250252,66008,7252,624979,0
15,-1,635463,218823,1145581,66289,7541,573003,0
15,-1,640355,218438,1218030,65984,7498,609112,0
15,-1,641354,218518,1244295,65911,6573,622207,0
15,-1,638004,218972,1225375,66099,7761,612683,0
15,-1,643566,219622,1222588,66421,7705,611249,0
15,-1,639784,219140,1244960,66071,7708,622530,0
15,-1,641057,219084,1241567,66156,7598,620894,0
15,-1,643492,218852,1230983,66170,7334,615474,0
15,-1,641324,217863,1224060,65717,7097,612072,0
15,-1,634117,217932,1128741,66015,6816,564421,0
16,-1,633736,217557,1229261,65198,6998,614636,0
16,-1,633362,217631,1245350,65402,7891,622676,0
16,-1,637433,218279,1251570,65481,7963,626017,0
16,-1,640258,218208,1289572,65684,7454,644749,2
16,-1,630402,217882,1249281,65569,7064,624659,0
16,-1,637424,218789,1372433,65868,7514,685414,0
16,-1,635880,219282,1311137,65969,7115,655563,0
16,-1,642198,219041,1257963,65862,7786,628943,0
16,-1,638710,218588,1181598,65736,7502,590845,0
16,-1,643715,220381,1197969,66390,7909,599056,0
16,-1,650976,221619,1267303,66786,8249,633589,0
16,-1,640324,218401,1293046,65583,7460,646618,0
16,-1,658096,222853,1295442,68859,7732,647807,0
16,-1,639931,220221,1260866,66281,8541,630181,0
16,-1,638628,218375,1258988,65505,8111,629321,0
16,-1,641052,218307,1107868,65482,7139,553905,0
16,-1,629209,218233,1178669,64893,5950,589376,0
16,-1,635195,218161,1145817,65042,6577,572965,0
16,-1,636279,218406,1163408,66151,6784,581779,0
16,-1,638613,218488,1184556,65999,8640,592358,0
16,-1,637303,217422,1141363,65631,6973,570719,0
16,-1,663389,223493,1272797,69304,8511,636354,0
16,-1,640053,219037,1312071,66248,8962,656078,0
16,-1,646251,220998,1255456,67051,7108,627661,0
16,-1,643812,221116,1166154,66975,7704,582955,0
16,-1,642798,220145,1193404,66685,7132,596771,0
16,-1,643076,219231,1258440,66246,7206,629275,0
16,-1,639581,217879,1178680,65809,6912,589468,0
16,-1,632823,217737,1198805,65890,6744,599443,0
17,-1,635340,218271,1241944,65762,7279,620932,0
17,-1,633437,217525,1244135,65384,7706,621892,0
17,-1,640570,219586,1269076,66207,8943,634472,0
17,-1,634805,217899,1132978,65604,6443,566509,0
17,-1,632776,218519,1157177,65835,7393,578486,2
17,-1,657760,222893,1208027,69054,7357,604002,0
17,-1,632771,218115,1244004,65560,6817,622003,0
17,-1,643508,219784,1352516,66334,7906,676357,0
17,-1,637457,218240,1269055,65595,7310,634461,0
17,-1,637254,218507,1123439,65552,7250,561767,0
17,-1,643688,219529,1278003,65848,8403,639041,0
17,-1,639742,218621,1154481,65666,7261,577288,0
17,-1,637255,217798,1177955,65379,6892,589016,0
17,-1,659451,223741,1200257,68800,8727,600168,0
17,-1,641195,219475,1273687,66039,8003,636614,0
17,-1,646501,220897,1129439,66586,6811,564905,0
17,-1,626651,217677,1185458,64769,5906,592824,0
17,-1,634140,218077,1153119,65048,6843,576612,0
17,-1,639565,218539,1171685,65977,7504,585894,0
17,-1,635740,217817,1232659,65754,8311,616372,0
17,-1,637714,218234,1273008,65932,7582,636610,0
17,-1,639991,218510,1144101,65877,7290,572143,0
17,-1,638149,218499,1307158,66107,8119,653618,0
17,-1,642722,219087,1263621,66200,8847,631791,0
17,-1,649690,220399,1263849,66458,7659,631957,0
17,-1,641459,219319,1156879,66217,7365,578465,0
17,-1,642626,218914,1238655,66146,7934,619405,0
17,-1,641432,218748,1243082,66041,7376,621639,0
17,-1,634779,217818,1311284,65964,7159,655755,0
18,-1,639079,217924,1231704,65439,8059,615894,0
18,-1,644210,219921,1299226,66368,8600,649665,0
18,-1,638546,218426,1176327,65524,6751,588203,0
18,-1,643116,218175,1322915,65682,7680,661521,0
18,-1,635719,218977,1205326,65997,7922,602600,2
18,-1,635366,218141,1234599,65592,6983,617268,0
18,-1,640971,220669,1346082,66680,7930,673042,0
18,-1,641371,219167,1237218,65961,7432,618602,0
18,-1,644244,220329,1305709,66529,8303,652943,0
18,-1,638874,219406,1180487,65866,7495,590229,0
18,-1,646614,220266,1254467,66026,8029,627270,0
18,-1,639154,218587,1236130,65619,7351,618119,0
18,-1,639295,219029,1267382,65962,7237,633757,0
18,-1,636779,218999,1293416,65560,8532,646781,0
18,-1,637875,218416,1345585,65518,7741,673164,0
18,-1,660776,222814,1296672,68774,7478,648432,0
18,-1,645168,218306,1296089,65355,5841,648099,0
18,-1,640089,220419,1120073,65979,7254,560105,0
18,-1,639443,219257,1165330,66514,6701,582723,0
18,-1,636406,218148,1331428,65888,8471,665759,0
18,-1,635603,217413,1282348,65628,7790,641141,0
18,-1,641750,217902,1148774,65636,6871,574338,0
18,-1,638149,218917,1398215,66223,8590,699114,0
18,-1,646293,221141,1164795,67185,7954,582409,0
18,-1,642733,218778,1270291,65955,7961,635049,0
18,-1,638194,218374,1340315,65883,7920,670241,0
18,-1,663414,223427,1299662,69438,8468,649862,0
18,-1,638330,217932,1142218,65736,6389,571123,0
18,-1,636131,217954,1238243,65966,7257,619165,0
19,-1,658873,222513,1260178,68777,8366,630048,0
19,-1,663502,223639,1280422,69704,8016,640144,0
19,-1,640859,219724,1261206,66301,7393,630807,0
19,-1,644681,219789,1267144,66436,8551,633578,0
19,-1,633504,218877,1267950,65961,8129,633742,2
19,-1,638612,219266,1251390,65980,7401,625748,0
19,-1,638759,218600,1250998,65764,7665,625544,0
19,-1,637981,218054,1240911,65495,7515,620509,0
19,-1,638320,218488,1192226,65695,6654,596159,0
19,-1,640454,218958,1135844,65750,7164,567975,0
19,-1,645222,219921,1174992,66046,7745,587537,0
19,-1,659769,223306,1182683,69000,7647,591400,0
19,-1,636083,218059,1218510,65467,7225,609308,0
19,-1,636415,218559,1390011,65334,7961,695393,0
19,-1,646460,220521,1251227,66462,7913,625262,0
19,-1,640430,218554,1252090,65590,7354,626084,0
19,-1,650378,220755,1247694,66467,6040,623513,0
19,-1,632853,217884,1316416,64933,7405,658255,0
19,-1,635676,217654,1263750,65788,7191,631932,0
19,-1,654588,222617,1284677,69209,8849,642388,0
19,-1,659394,222370,1289907,69070,7955,645009,0
19,-1,640129,218677,1155860,65960,6983,577973,0
19,-1,635844,217959,1295418,65817,8724,647662,0
19,-1,661822,223892,1338787,69610,9459,669515,0
19,-1,645303,219424,1265954,66178,8233,633033,0
19,-1,642238,220522,1261956,66880,7989,631023,0
19,-1,641199,218925,1258051,66133,7521,629051,0
19,-1,636371,217475,1211010,65564,7236,605564,0
19,-1,638727,219660,1313030,66825,7747,656662,0
20,-1,640594,218783,1149240,65817,6922,574757,0
20,-1,657627,222693,1257853,68845,8601,628911,0
20,-1,633898,217346,1196189,65262,7137,598154,0
20,-1,640818,218049,1146766,65574,7437,573373,0
20,-1,637558,219052,1331469,65994,8297,665739,2
20,-1,636685,218188,1229779,65646,7309,614911,0
20,-1,638785,218734,1167262,65831,7485,583720,0
20,-1,643800,220345,1220351,66333,7485,610169,0
20,-1,636549,218472,1145881,65721,6940,572989,0
20,-1,642549,220299,1346868,66516,7615,673433,0
20,-1,643205,219651,1287062,65789,7662,643564,0
20,-1,639221,218291,1215838,65534,7222,607964,0
20,-1,636780,218122,1151365,65540,7041,575720,0
20,-1,644528,218307,1322387,65249,7785,661243,0
20,-1,662600,223523,1277599,68969,8815,638807,0
20,-1,642790,219896,1177704,66194,7176,588911,0
20,-1,643502,218348,1182053,65423,5845,591114,0
20,-1,653888,222793,1235871,68426,7817,618005,0
20,-1,657249,222042,1261972,69039,7518,631088,0
20,-1,637397,219247,1226053,66307,8459,613123,0
20,-1,635470,217661,1122302,65693,7118,561186,0
20,-1,639291,218163,1254608,65802,7233,627317,0
20,-1,634811,217540,1147928,65578,7790,574044,0
20,-1,646325,220631,1161087,66948,7820,580297,0
20,-1,648478,221232,1227641,67012,8187,613969,0
20,-1,660164,223728,1339956,69453,8269,670076,0
20,-1,649612,220029,1278076,66547,8341,639024,0
20,-1,639841,217889,1146477,65694,6855,573304,0
20,-1,659482,223171,1268258,69508,8314,633999,0
21,-1,640189,219183,1239302,66150,6899,619652,0
21,-1,636691,217679,1251558,65345,7847,625811,0
21,-1,637186,218615,1260282,65632,7663,630132,0
21,-1,641003,218391,1262670,65787,7892,631421,0
21,-1,634414,218526,1144852,65858,6604,572464,2
21,-1,636515,218255,1266959,65662,6769,633328,0
21,-1,641171,219895,1196560,66177,7477,598237,0
21,-1,637824,217959,1150442,65500,7283,575329,0
21,-1,638802,219356,1184858,65992,6791,592477,0
21,-1,635911,218142,1162569,65367,6984,581326,0
21,-1,645758,219760,1210102,65909,7566,605232,0
21,-1,640646,219825,1240588,66259,7300,620406,0
21,-1,637520,217617,1231837,65329,7563,616002,0
21,-1,646721,219259,1421120,65570,8309,710591,0
21,-1,638436,217801,1150791,65280,7480,575234,0
21,-1,638975,218150,1233342,65448,7193,616627,0
21,-1,640949,217496,1127669,65046,5964,563880,0
21,-1,633762,217896,1204319,64978,7224,602182,0
21,-1,637951,218551,1219042,66072,6816,609578,0
21,-1,633567,218223,1247993,65938,7838,624266,0
21,-1,641270,219411,1168415,66494,7347,584261,0
21,-1,640771,218763,1194263,66231,6542,597188,0
21,-1,636904,218659,1426480,66055,8117,713182,0
21,-1,645424,219919,1381386,66554,9122,690715,0
21,-1,643500,219442,1338942,66175,8122,669520,0
21,-1,636464,218350,1231612,65892,8032,615848,0
21,-1,646393,219324,1167706,66274,7257,583868,0
21,-1,640263,218622,1123072,65971,7165,561490,0
21,-1,635002,217313,1204740,65752,7061,602389,0
22,-1,637848,218572,1264891,65733,7150,632451,0
22,-1,636359,218235,1192623,65600,7420,596154,0
22,-1,636643,218937,1180904,65815,7222,590501,0
22,-1,642227,219188,1211742,66026,7999,605947,0
22,-1,637614,220490,1246549,66750,7486,623224,2
22,-1,640696,220526,1328134,66714,7058,664125,0
22,-1,641578,220593,1233999,66677,7703,616906,0
22,-1,644793,219879,1220749,66419,7566,610382,0
22,-1,637244,218130,1232588,65601,7404,616407,0
22,-1,638386,218992,1227053,65751,7356,613631,0
22,-1,644441,219790,1239381,66170,8394,619530,0
22,-1,641336,219383,1219827,65911,8401,609887,0
22,-1,640585,219130,1218994,65794,7688,609546,0
22,-1,643547,218692,1279775,65457,8633,639904,0
22,-1,641878,220122,1251886,66270,7350,626003,0
22,-1,638492,218663,1317772,65603,7512,658938,0
22,-1,648813,220290,1160756,66253,6544,580450,0
22,-1,637134,219788,1170574,65612,7221,585316,0
22,-1,637249,218312,1152852,65895,6684,576522,0
22,-1,647090,219905,1136178,66774,7463,568063,0
22,-1,636154,218150,1160352,65908,7359,580228,0
22,-1,640463,218861,1316509,66036,7272,658285,0
22,-1,656128,222886,1435840,69127,9407,717945,0
22,-1,664601,224170,1305719,69695,8961,652819,0
22,-1,644195,219575,1159958,66207,7383,580011,0
22,-1,644933,220353,1181078,66772,7955,590598,0
22,-1,663715,223396,1297851,69452,7949,648930,0
22,-1,643375,219275,1244003,66180,7647,622028,0
22,-1,636366,218182,1153719,66021,7175,576900,0
23,-1,635763,218357,1197417,65581,6835,598692,0
23,-1,641433,220562,1275506,66537,7650,637646,0
23,-1,646561,220830,1334239,66679,9008,667249,0
23,-1,640843,218347,1229542,65739,8054,614751,0
23,-1,635830,218381,1219413,65748,6959,609728,0
23,-1,636891,218996,1279535,65932,7183,639770,2
23,-1,657635,223477,1297455,69154,8240,648693,0
23,-1,660419,222779,1204362,68896,8218,602083,0
23,-1,636978,218378,1143149,65684,7575,571661,0
23,-1,665188,223787,1320603,69267,8466,660362,0
23,-1,644011,219365,1225860,65898,8050,612726,0
23,-1,638408,218397,1142092,65556,7915,571007,0
23,-1,637293,218262,1102252,65489,7148,551077,0
23,-1,643597,218537,1295795,65348,8408,647914,0
23,-1,639141,218385,1355953,65476,7935,677662,0
23,-1,641340,220314,1140205,66409,7238,570188,0
23,-1,643749,218542,1222332,65496,6254,611241,0
23,-1,631643,217734,1188975,64753,7153,594518,0
23,-1,637469,218690,1257065,66084,7690,628583,0
23,-1,639922,217659,1162227,65733,7553,581029,0
23,-1,643007,220400,1191037,66958,7872,595576,0
23,-1,637312,218087,1239688,65720,7643,619962,0
23,-1,633874,218010,1331663,65750,8523,665923,0
23,-1,643588,219468,1389447,66330,8393,695140,0
23,-1,641366,218854,1253981,65934,7611,627041,0
23,-1,640877,218859,1176139,66038,7462,588110,0
23,-1,642794,218501,1268350,66020,7194,634302,0
23,-1,644501,220687,1238689,66960,7730,619376,0
23,-1,632428,217216,1125981,65721,7046,563037,0
24,-1,639436,219346,1158870,65898,6721,579438,0
24,-1,634897,217814,1221037,65467,7269,610493,0
24,-1,640366,218471,1254102,65581,7748,627105,0
24,-1,645261,220815,1286413,66904,8057,643249,0
24,-1,635022,218539,1175525,65821,6623,587733,0
24,-1,633262,218765,1224324,65836,7961,612167,2
24,-1,637136,218522,1245583,65694,7606,622740,0
24,-1,642068,219079,1225026,65872,7014,612507,0
24,-1,642028,221072,1196374,66874,7490,598239,0
24,-1,641427,218908,1365003,65854,7243,682426,0
24,-1,644814,219926,1289795,66021,8449,644772,0
24,-1,639633,219185,1279358,65837,8358,639727,0
24,-1,637606,218701,1157973,65637,7178,579025,0
24,-1,644525,219436,1195373,65678,8419,597766,0
24,-1,637043,218022,1404120,65433,7767,702079,0
24,-1,643293,218540,1288822,65565,7826,644332,0
24,-1,640501,217888,1248869,65177,6191,624519,0
24,-1,631894,218142,1125755,64992,6608,562922,0
24,-1,635977,217918,1227868,65830,7455,613977,0
24,-1,646742,219684,1160869,66616,8121,580507,0
24,-1,661148,222681,1287091,69127,8410,643568,0
24,-1,662427,223381,1261008,69275,7648,630358,0
24,-1,636815,218742,1293012,65845,8030,646542,0
24,-1,645993,220504,1266014,66876,8430,632923,0
24,-1,643814,219859,1160425,66267,7021,580225,0
24,-1,639922,219080,1225828,66161,7338,612960,0
24,-1,642738,218852,1218915,66183,6752,609354,0
24,-1,659480,223287,1305318,69231,8028,652620,0
24,-1,633450,217299,1210640,65740,7791,605370,0
25,-1,636722,218394,1225144,65641,7024,612639,0
25,-1,634091,217743,1216139,65391,7432,607203,0
25,-1,640254,218970,1167851,65787,7141,583976,0
25,-1,641597,218189,1251993,65663,7288,625929,0
25,-1,636113,218987,1244527,66100,7251,622320,0
25,-1,641000,220610,1305101,66683,7703,652558,2
25,-1,636716,218405,1155374,65617,6947,577654,0
25,-1,640054,219321,1301818,66011,6880,650994,0
25,-1,657869,223519,1158883,69179,8231,579405,0
25,-1,639665,219054,1167493,65827,7399,583797,0
25,-1,643007,219214,1272333,65825,7916,636360,0
25,-1,639199,218760,1262769,65606,7968,631343,0
25,-1,659858,222789,1152785,68786,7645,576454,0
25,-1,641162,218389,1383509,65324,8799,691989,0
25,-1,640985,220092,1233346,66293,7539,616684,0
25,-1,639412,218056,1320282,65415,7247,660220,0
25,-1,640241,217102,1279089,65067,7354,639596,0
25,-1,652569,222478,1294596,68152,7571,647287,0
25,-1,638252,219668,1156576,66692,7197,578326,0
25,-1,661320,222518,1275932,69152,8866,638059,0
25,-1,638847,218019,1222638,65865,6906,611399,0
25,-1,638520,218451,1155739,65893,7006,577915,0
25,-1,635635,219079,1187289,66254,8040,593420,0
25,-1,640265,218916,1318942,66130,7937,659512,0
25,-1,641656,219368,1263338,66087,7382,631740,0
25,-1,637768,218652,1232621,65910,7409,616353,0
25,-1,644855,219780,1176684,66604,7280,588355,0
25,-1,644853,218552,1249231,65941,7523,624674,0
25,-1,634380,218263,1368009,66133,8137,684683,0
26,-1,634609,217859,1140874,65388,6637,570454,0
26,-1,637363,218210,1149985,65645,8008,574956,0
26,-1,640900,219108,1167683,65834,7253,584015,0
26,-1,643645,219248,1163067,66082,7792,581564,0
26,-1,634466,218673,1156168,65871,6614,578088,0
26,-1,640222,219067,1179091,65924,7544,589511,2
26,-1,640292,219804,1263219,66340,7412,631584,0
26,-1,637945,218392,1148315,65655,6629,574176,0
26,-1,638783,218690,1156314,65785,7216,578211,0
26,-1,639960,218651,1243995,65713,7569,622033,0
26,-1,648177,221398,1355741,66842,8346,678041,0
26,-1,660807,224488,1272066,69267,8872,635635,0
26,-1,641345,218674,1205407,65588,6733,602746,0
26,-1,644138,219700,1269481,66027,8166,634819,0
26,-1,637840,218568,1273287,65588,8038,636368,0
26,-1,639079,218253,1270515,65421,7695,635302,0
26,-1,642092,218044,1231969,65343,6632,616143,0
26,-1,630991,217993,1300273,64835,7479,650175,0
26,-1,654115,222474,1263633,69077,8282,631572,0
26,-1,641872,218349,1259529,66011,7557,629631,0
26,-1,638279,218029,1195344,65812,6674,597711,0
26,-1,638934,218413,1181764,65893,7023,590954,0
26,-1,633890,218184,1271358,65788,7939,635663,0
26,-1,641121,219334,1225752,66327,7613,612457,0
26,-1,641883,219824,1278679,66272,8703,639216,0
26,-1,644756,220736,1164889,66961,7230,582508,0
26,-1,647147,220487,1294243,66978,9348,646836,0
26,-1,649126,220104,1259630,66634,8207,629753,0
26,-1,636199,217701,1203690,65920,7873,601648,0
27,-1,655402,222503,1263288,68790,7464,631630,0
27,-1,637346,218242,1264513,65574,7784,632139,0
27,-1,658445,222987,1240701,68887,8306,620438,0
27,-1,639793,218198,1167586,65724,7892,583615,0
27,-1,636422,218912,1246887,65949,7828,623512,0
27,-1,635353,219228,1296904,65977,6612,648466,2
27,-1,636609,218719,1154669,65803,7111,577363,0
27,-1,641220,220150,1228918,66497,7127,614475,0
27,-1,638163,218891,1173859,65740,7133,586973,0
27,-1,639054,218620,1108977,65772,6842,554528,0
27,-1,664927,224176,1397962,69322,9123,699324,0
27,-1,640493,219736,1409257,65884,8211,704675,0
27,-1,638004,218175,1151153,65473,7259,575628,0
27,-1,641387,218527,1125564,65440,8407,562814,0
27,-1,639306,218714,1311209,65604,8288,655534,0
27,-1,642176,218960,1351871,65577,7537,675966,0
27,-1,646455,220586,1151017,66400,7353,575245,0
27,-1,637136,220421,1170251,65855,7083,585194,0
27,-1,638255,217906,1218371,65876,7152,609241,0
27,-1,639819,217676,1216457,65721,7228,608279,0
27,-1,640548,219258,1171022,66441,7079,585569,0
27,-1,637840,218171,1096479,65744,6311,548278,0
27,-1,642183,216687,1232726,65324,7693,616386,0
27,-1,643104,219102,1353139,66213,8368,676621,0
27,-1,641926,218803,1131670,65912,7447,565884,0
27,-1,661375,223699,1322583,69438,8184,661418,0
27,-1,644700,219571,1249224,66432,8026,624514,0
27,-1,642545,218185,1245288,65756,7917,622727,0
27,-1,637793,218478,1284044,66200,7725,641945,0
28,-1,638054,217623,1214831,65373,7361,607545,0
28,-1,638419,219351,1365218,66104,7856,682347,0
28,-1,639814,218110,1246416,65459,7784,623260,0
28,-1,640103,218247,1234564,65695,7896,617259,0
28,-1,636709,217963,1259505,65593,6622,629838,0
28,-1,635220,218119,1247454,65601,7533,623696,0
28,-1,640786,220580,1280716,66705,7791,640338,2
28,-1,641098,218546,1221927,65710,7564,611058,0
28,-1,639888,219602,1281748,66263,7490,640927,0
28,-1,642463,220358,1255753,66546,7506,627961,0
28,-1,643292,219723,1461202,66053,8554,730615,0
28,-1,636735,218559,1345265,65508,7718,671920,0
28,-1,640441,218555,1143408,65610,7110,571754,0
28,-1,638452,217647,1202782,65120,8882,601434,0
28,-1,635480,217930,1249200,65261,7866,624534,0
28,-1,645194,220640,1187125,66595,7139,593621,0
28,-1,660657,222513,1285539,68566,7639,642787,0
28,-1,637906,217915,1203016,64833,7035,601536,0
28,-1,664554,226919,1287809,68532,7294,643990,0
28,-1,642058,218799,1319908,66082,7616,659904,0
28,-1,638390,217740,1217428,65666,6808,608751,0
28,-1,639402,219013,1155907,66001,7145,578003,0
28,-1,665142,222918,1304165,69141,8986,651962,0
28,-1,663354,223898,1281242,69595,8245,640602,0
28,-1,643815,219117,1200862,66098,7808,600487,0
28,-1,638165,218826,1238256,66070,7984,619119,0
28,-1,647688,220431,1162892,66872,7755,581361,0
28,-1,665280,223688,1259034,69418,8317,629587,0
28,-1,634114,217863,1359254,65922,7988,679050,0
29,-1,638207,218263,1167389,65633,6884,583676,0
29,-1,636298,218167,1197444,65453,7442,598732,0
29,-1,636750,218004,1186511,65427,7545,593257,0
29,-1,640799,218318,1130612,65716,7816,565303,0
29,-1,641465,220324,1315486,66754,7092,657827,0
29,-1,636460,219076,1254453,65934,7187,627254,0
29,-1,633510,218248,1334817,65605,9131,667348,2
29,-1,641278,218874,1171672,65844,7137,585746,0
29,-1,640008,219844,1219830,66157,7432,609959,0
29,-1,635209,217899,1250108,65444,6868,625062,0
29,-1,642003,219217,1241554,65888,7743,620510,0
29,-1,639524,219121,1279832,65693,7351,640027,0
29,-1,639452,218490,1231656,65536,7280,615862,0
29,-1,663490,223996,1382964,68982,8932,691455,0
29,-1,638725,218438,1239191,65487,8212,619373,0
29,-1,688029,232506,1294927,71603,8043,647632,0
29,-1,639319,218201,1181896,65301,7240,590984,0
29,-1,637244,217957,1224569,64809,7268,612325,0
29,-1,638246,218198,1331017,65901,7315,665605,0
29,-1,641010,218774,1251502,66146,7585,625836,0
29,-1,637333,218753,1288429,66083,7678,644262,0
29,-1,640104,219692,1111711,66504,7254,555951,0
29,-1,644786,218736,1380271,65973,8229,690163,0
29,-1,641743,219464,1162615,66357,6836,581305,0
29,-1,641267,219133,1166580,66126,6982,583346,0
29,-1,640295,218775,1146568,65962,8143,573146,0
29,-1,641356,218825,1334793,66082,8652,667416,0
29,-1,642772,218460,1170861,65928,6905,585388,0
29,-1,635913,218865,1313982,66502,8772,657027,0
30,-1,639399,219093,1185481,66022,7583,592586,0
30,-1,637398,218390,1280907,65618,7885,640467,0
30,-1,639001,219207,1178928,65822,7409,589403,0
30,-1,659695,222638,1255998,69000,8572,628081,0
30,-1,656136,222514,1291878,68875,7713,645964,0
30,-1,655330,222724,1204977,68892,7536,602514,0
30,-1,641054,220631,1258820,66713,7755,629474,2
30,-1,636819,218587,1141858,65750,6544,570930,0
30,-1,638459,219993,1269331,66395,7432,634742,0
30,-1,641400,219060,1326593,65864,7085,663353,0
30,-1,641058,219204,1252271,65982,7521,626102,0
30,-1,646913,219809,1242685,66113,7315,621396,0
30,-1,636936,218285,1231338,65544,6979,615770,0
30,-1,640806,219066,1386300,65618,8288,692827,0
30,-1,640687,220008,1193014,66297,7331,596297,0
30,-1,637591,218110,1251194,65439,7338,625503,0
30,-1,640180,218358,1123906,65374,6504,561985,0
30,-1,643785,221266,1186191,66234,6718,593178,0
30,-1,636709,217820,1246360,65761,6717,623223,0
30,-1,641452,218543,1106167,66058,6907,553144,0
30,-1,638275,218328,1240054,65919,7310,619989,0
30,-1,657708,222755,1251207,69129,9044,625635,0
30,-1,642480,218047,1223760,65732,9303,611568,0
30,-1,641631,219440,1205812,66243,7525,602953,0
30,-1,643259,219280,1236916,66174,7120,618533,0
30,-1,639667,218965,1177112,66123,8276,588613,0
30,-1,646005,221283,1275024,67238,8940,637652,0
30,-1,647666,219566,1293891,66462,8048,646737,0
30,-1,636304,217798,1172025,65900,7565,586066,0
31,-1,634180,217268,1128848,65258,6817,564254,0
31,-1,632452,217479,1269395,65325,7242,634653,0
31,-1,644404,220922,1220849,66653,7778,610509,0
31,-1,640010,218484,1228765,65834,7750,614316,0
31,-1,636055,218212,1335778,65734,6745,667867,0
31,-1,633807,217933,1354083,65496,6994,676955,0
31,-1,636080,218686,1124963,65825,7456,562411,2
31,-1,640359,219067,1157733,65917,6307,578832,0
31,-1,656603,223214,1193072,69008,8029,596591,0
31,-1,643337,220130,1246124,66438,7569,623245,0
31,-1,642681,219040,1449174,65882,8671,724626,0
31,-1,644114,219474,1142355,65872,7307,571233,0
31,-1,644832,220544,1318540,66434,7554,659384,0
31,-1,642725,218766,1240313,65460,8404,620248,0
31,-1,656135,222771,1199719,68733,8389,599887,0
31,-1,636438,217596,1151794,65215,7064,575940,0
31,-1,648708,220325,1128071,66232,7470,564077,0
31,-1,636004,217952,1246967,64888,6802,623533,0
31,-1,637979,217974,1289447,65831,6813,644714,0
31,-1,638047,218638,1110549,66058,6538,555367,0
31,-1,641110,219518,1214847,66568,7187,607488,0
31,-1,642145,218171,1158074,65829,7846,579080,0
31,-1,642789,217994,1143203,65775,7862,571259,0
31,-1,641498,219424,1234856,66356,7661,617396,0
31,-1,640701,219320,1240126,66195,7083,620115,0
31,-1,643968,220939,1145395,67080,8039,572779,0
31,-1,664957,223875,1353393,69585,9715,676633,0
31,-1,647141,219843,1309919,66340,7409,654981,0
31,-1,636518,218369,1271987,66130,7815,636160,0
32,-1,655794,222117,1306376,68703,8094,653186,0
32,-1,639508,220177,1262771,66479,8044,630983,0
32,-1,661949,223922,1248379,69127,8326,624276,0
32,-1,642884,218792,1261779,66054,8731,630846,0
32,-1,637137,218950,1185579,65945,7174,592778,0
32,-1,635940,219711,1264153,66324,7387,632052,0
32,-1,658512,223500,1237891,69179,7669,619053,0
32,-1,639889,219411,1253031,66050,7547,626548,2
32,-1,634700,218689,1244836,65731,7652,622476,0
32,-1,637074,217941,1262170,65497,7345,631124,0
32,-1,647376,221528,1326445,67029,8418,663158,0
32,-1,644192,219665,1329618,65902,7440,664821,0
32,-1,640433,219091,1217159,65775,6877,608685,0
32,-1,642601,218466,1293473,65356,8863,646691,0
32,-1,633894,217693,1145523,65190,7437,572777,0
32,-1,640453,218695,1192079,65574,7037,596098,0
32,-1,641537,218330,1117471,65482,6557,558811,0
32,-1,635856,218067,1215911,64872,6213,608042,0
32,-1,659146,223175,1253383,69364,7946,626745,0
32,-1,640365,218055,1341355,65891,7505,670677,0
32,-1,634122,217471,1141208,65727,6741,570645,0
32,-1,640999,218228,1216767,65855,7800,608441,0
32,-1,641397,217958,1186802,65697,8630,593486,0
32,-1,639963,218996,1151728,66237,6740,575920,0
32,-1,644372,220773,1210121,66870,7875,605065,0
32,-1,637973,218873,1342805,66096,7842,671442,0
32,-1,643315,219137,1330903,66217,7595,664984,0
32,-1,642117,218468,1178818,65872,7711,589135,0
32,-1,639295,219795,1278211,66806,8028,638892,0
33,-1,634956,218465,1174153,65713,6124,587077,0
33,-1,651068,221305,1252664,68424,7604,625999,0
33,-1,641316,220289,1266565,66310,7983,633354,0
33,-1,638763,217878,1258407,65532,8146,629193,0
33,-1,634486,218270,1206385,65685,7003,603168,0
33,-1,637246,218443,1231262,65607,6816,615771,0
33,-1,641449,219713,1325771,66139,7453,662907,0
33,-1,639584,218759,1207740,65833,7150,603884,2
33,-1,661443,223038,1196266,68977,7987,598227,0
33,-1,635617,218196,1188779,65550,6274,594429,0
33,-1,644407,219890,1271830,66155,8358,635720,0
33,-1,646160,221119,1314249,66635,7521,657199,0
33,-1,665313,227612,1282119,68215,7558,641084,0
33,-1,641588,218438,1271666,65344,8669,635779,0
33,-1,642426,219597,1163119,66093,7340,581727,0
33,-1,637882,217897,1256724,65305,7915,628387,0
33,-1,640576,218402,1203321,65417,6062,601768,0
33,-1,637003,218990,1166430,65359,6843,583231,0
33,-1,636133,218124,1182880,65888,7384,591494,0
33,-1,638576,217357,1237590,65584,7246,618835,0
33,-1,636016,218339,1256056,65952,7692,628070,0
33,-1,643596,219522,1170960,66439,7554,585554,0
33,-1,644589,219789,1145236,66628,8274,572632,0
33,-1,636836,218072,1260703,65888,7329,630337,0
33,-1,660344,223836,1298996,69485,8986,649492,0
33,-1,633983,218345,1212785,65880,7108,606435,0
33,-1,647870,220920,1258040,67029,7988,628616,0
33,-1,647393,220944,1225732,66976,7912,612865,0
33,-1,635291,218424,1164447,66113,7682,582269,0
34,-1,646678,223095,1350170,66971,6766,675010,0
34,-1,632641,217929,1304613,65480,7695,652353,0
34,-1,641134,218921,1236865,65630,7081,618542,0
34,-1,637125,217193,1266165,65440,8281,633067,0
34,-1,634516,218564,1131677,65789,6572,565723,0
34,-1,635562,218232,1276970,65585,6731,638493,0
34,-1,634902,218221,1117522,65596,7336,558690,0
34,-1,631584,218803,1176265,65833,6236,588217,2
34,-1,640757,219402,1134440,65964,6931,567279,0
34,-1,638572,219316,1140489,65921,6511,570287,0
34,-1,644978,220737,1322027,66594,8607,660828,0
34,-1,643014,219421,1236866,65854,7745,618479,0
34,-1,637324,218413,1224522,65536,6648,612305,0
34,-1,647290,220632,1269662,66321,8435,634522,0
34,-1,640260,218166,1125078,65427,8441,562563,0
34,-1,661305,223022,1200251,68799,8896,600118,0
34,-1,646830,220120,1161807,66331,7279,580983,0
34,-1,637524,218546,1239364,65018,6476,619723,0
34,-1,636126,217966,1300182,65827,7772,650156,0
34,-1,642907,219580,1173697,66691,7679,586912,0
34,-1,643486,219017,1163146,66216,7685,581609,0
34,-1,638280,217618,1161829,65526,7313,580860,0
34,-1,662346,222945,1262605,69147,9722,631289,0
34,-1,665585,223696,1322044,69604,8296,660952,0
34,-1,646613,219547,1262278,66207,8094,631197,0
34,-1,651324,220995,1180387,67046,7206,590292,0
34,-1,642103,219053,1283097,66245,8128,641450,0
34,-1,662154,222599,1296307,69005,8304,648204,0
34,-1,633812,218064,1261258,66041,7700,630842,0
35,-1,694254,238741,1326708,71573,7605,663358,0
35,-1,642171,219298,1323993,66075,8484,661919,0
35,-1,639335,218309,1161835,65445,7096,581005,0
35,-1,641799,219849,1288547,66458,7955,644237,0
35,-1,638799,220561,1182431,66768,7771,591092,0
35,-1,668595,230353,1290616,69658,7199,645370,0
35,-1,643540,219741,1243141,66141,7514,621547,0
35,-1,640949,221321,1302429,66963,6974,651274,2
35,-1,637945,218316,1228463,65539,7326,614271,0
35,-1,635432,218047,1254781,65510,6999,627448,0
35,-1,642461,220124,1258489,66271,8406,629139,0
35,-1,641924,219015,1132474,65684,7017,566290,0
35,-1,643418,220776,1221161,66594,7350,610694,0
35,-1,642442,219124,1175785,65616,8648,587939,0
35,-1,640953,218336,1294611,65435,8961,647277,0
35,-1,639404,218680,1187738,65602,7772,593913,0
35,-1,641078,218344,1218285,65499,6494,609238,0
35,-1,642334,220845,1150030,66166,6742,575078,0
35,-1,656972,222343,1277704,69021,8325,638913,0
35,-1,638986,218120,1230884,65875,7143,615513,0
35,-1,639432,217726,1246965,65755,7523,623520,0
35,-1,642606,218661,1335162,65915,7880,667628,0
35,-1,646517,219701,1358481,66489,8545,678627,0
35,-1,639463,218738,1181398,66149,6971,590713,0
35,-1,645490,220371,1174835,66680,7039,587468,0
35,-1,667070,223408,1307634,69371,8714,653895,0
35,-1,640988,218576,1271923,65945,8335,635927,0
35,-1,641455,218917,1254685,66092,7666,627408,0
35,-1,633174,218216,1198569,66097,7327,599348,0
36,-1,689836,236652,1205565,70593,6890,602762,0
36,-1,636261,217820,1173065,65400,7388,586499,0
36,-1,643278,220452,1268484,66447,7931,634299,0
36,-1,637895,218533,1189628,65849,8100,594702,0
36,-1,657235,223281,1188849,69157,8569,594444,0
36,-1,657171,223325,1202101,69087,7741,601035,0
36,-1,640079,218320,1197455,65647,7279,598644,0
36,-1,637321,219756,1245508,66143,7055,622810,2
36,-1,658802,223142,1192880,69019,7726,596396,0
36,-1,637050,218476,1165511,65678,6911,582810,0
36,-1,640542,219302,1358662,65946,8855,679430,0
36,-1,645250,220696,1245733,66556,7662,622937,0
36,-1,658264,222685,1185247,68753,7678,592686,0
36,-1,646567,221219,1263127,66579,8717,631503,0
36,-1,643209,219839,1222935,66263,8063,611708,0
36,-1,637989,218438,1184754,65522,7755,592435,0
36,-1,641403,219010,1162079,65846,6512,581093,0
36,-1,639365,219604,1108726,65602,6909,554438,0
36,-1,637378,218526,1219493,66051,6924,609780,0
36,-1,640194,218995,1181718,66397,7539,590737,0
36,-1,637155,217276,1221958,65639,7332,610907,0
36,-1,645504,220550,1316602,66854,8507,658260,0
36,-1,643392,218976,1440244,66034,9042,720203,0
36,-1,640454,218640,1142085,66136,6882,571140,0
36,-1,643227,219225,1235874,66207,7897,617983,0
36,-1,645551,219144,1173158,66177,7323,586625,0
36,-1,638607,218688,1262213,65929,8481,630990,0
36,-1,639316,217953,1235161,65682,7839,617662,0
36,-1,630853,217412,1090938,65724,5990,545521,0
37,-1,688024,236179,1299474,70395,6906,649678,0
37,-1,636005,217676,1254654,65460,7469,627263,0
37,-1,661164,223929,1241503,69105,7827,620758,0
37,-1,637076,218181,1236262,65680,7793,618138,0
37,-1,636209,218641,1207075,65813,6944,603515,0
37,-1,635206,218369,1246554,65720,7627,623320,0
37,-1,659952,222760,1208711,68920,7658,604286,0
37,-1,636275,218763,1153627,65782,6845,576866,2
37,-1,636973,218552,1231185,65701,6428,615566,0
37,-1,638842,219418,1228858,66037,6715,614483,0
37,-1,644350,220152,1264841,66259,8789,632479,0
37,-1,641062,219449,1165529,65977,7055,582746,0
37,-1,638503,219027,1231956,65761,7078,616034,0
37,-1,640648,218889,1278798,65566,8645,639473,0
37,-1,641402,218364,1343110,65497,8347,671574,0
37,-1,637447,218880,1129573,65649,7088,564716,0
37,-1,641360,218732,1259307,65617,6940,629698,0
37,-1,633347,217871,1200776,64856,7299,600452,0
37,-1,635360,217815,1102923,65758,6454,551496,0
37,-1,639368,217365,1278334,65673,7549,639203,0
37,-1,639983,218082,1161316,65768,7114,580706,0
37,-1,659852,222890,1280127,69125,8249,640112,0
37,-1,642178,218897,1207208,65959,8079,603625,0
37,-1,646404,221536,1179745,67463,7206,589994,0
37,-1,641795,218901,1140699,66048,7473,570377,0
37,-1,644752,219199,1282166,66195,7665,641151,0
37,-1,645935,220476,1249680,66820,7856,624804,0
37,-1,665303,223329,1300190,69287,8865,650034,0
37,-1,632087,218134,1194985,66064,6686,597548,0
38,-1,687760,236522,1243613,70538,6900,621764,0
38,-1,637240,218449,1175003,65701,7708,587452,0
38,-1,664792,228253,1296033,68399,7357,648061,0
38,-1,643074,218380,1253369,65757,7793,626776,0
38,-1,632730,218158,1153257,65718,6570,576557,0
38,-1,635479,218687,1262627,65725,7047,631156,0
38,-1,641674,219509,1252707,66075,7805,626456,0
38,-1,638685,219222,1209760,65860,6544,604935,0
38,-1,637732,219242,1158691,65978,6826,579380,2
38,-1,636680,219246,1273139,65956,6659,636580,0
38,-1,646295,219546,1275479,65978,8644,637475,0
38,-1,641037,219444,1235047,65902,7609,617549,0
38,-1,637225,218549,1239011,65554,7240,619561,0
38,-1,647907,220502,1268706,66507,8480,633781,0
38,-1,639663,218886,1194429,65612,8084,597297,0
38,-1,640125,218347,1210138,65487,7944,604883,0
38,-1,641342,218277,1127315,65514,6427,563746,0
38,-1,633896,218347,1167204,64976,7468,583650,0
38,-1,639789,219955,1164985,66661,7740,582545,0
38,-1,642175,219426,1153514,66515,7568,576863,0
38,-1,640010,218410,1287996,66002,7523,644006,0
38,-1,635496,217256,1174733,65412,6826,587441,0
38,-1,645909,220277,1205737,66756,8293,602356,0
38,-1,639332,219095,1243050,66250,6725,621571,0
38,-1,642400,219135,1283658,66193,7767,641919,0
38,-1,646417,220479,1153595,66900,7537,576868,0
38,-1,640731,218834,1146988,65989,6357,573571,0
38,-1,640777,218590,1197968,65971,8213,599003,0
38,-1,667079,222854,1211351,69403,8146,605629,0
39,-1,686806,236437,1201574,70442,6698,600865,0
39,-1,635524,217802,1358160,65448,8677,679021,0
39,-1,640198,219462,1283258,65867,8115,641377,0
39,-1,662881,222941,1239358,69060,7848,619674,0
39,-1,632941,218268,1212776,65692,6942,606405,0
39,-1,639735,220497,1384981,66543,7801,692485,0
39,-1,638140,218716,1226305,65769,6916,613124,0
39,-1,636973,218424,1223871,65645,6645,611971,0
39,-1,661920,228103,1248116,68554,7261,624163,2
39,-1,638403,219074,1271349,65790,7132,635513,0
39,-1,665167,224068,1171806,69232,7873,586216,0
39,-1,641660,218556,1126622,65617,7317,563355,0
39,-1,642771,219195,1310341,65766,7154,655351,0
39,-1,645739,220121,1279334,66243,8318,639534,0
39,-1,641901,218785,1188070,65625,8569,594002,0
39,-1,638912,217848,1325857,65257,8739,662980,0
39,-1,640535,218344,1231285,65443,6910,615680,0
39,-1,633477,218140,1093607,64884,7147,546879,0
39,-1,634754,218361,1199418,65965,7010,599758,0
39,-1,639044,218733,1236271,66122,7451,618121,0
39,-1,638458,217996,1222244,65853,7557,611269,0
39,-1,640239,218392,1228259,65889,7298,614211,0
39,-1,641233,218914,1194011,66010,7867,597046,0
39,-1,644744,219823,1264759,66520,7094,632433,0
39,-1,646311,220895,1195751,67092,7202,597956,0
39,-1,643532,218819,1311794,66074,8512,655833,0
39,-1,640604,219177,1236868,66216,6752,618529,0
39,-1,644425,219951,1208044,66699,7601,604143,0
39,-1,643452,217465,1242346,65740,7610,621261,0
39,-1,635683,217798,1218568,65760,6453,609332,0
40,-1,690330,236668,1384913,70573,7213,692522,0
40,-1,637438,218878,1293258,65850,8987,646586,0
40,-1,635112,218059,1213030,65415,7614,606559,0
40,-1,639322,217782,1183653,65547,7133,591804,0
40,-1,635101,218377,1240204,65783,7803,620056,0
40,-1,634292,218333,1260189,65666,7237,630071,0
40,-1,639469,218900,1222284,65874,7016,611067,0
40,-1,638246,219554,1197069,66057,6308,598624,0
40,-1,638572,218901,1124784,65893,6597,562445,2
40,-1,657210,222657,1203556,68865,7964,601867,0
40,-1,644381,219757,1262628,66038,8041,630839,0
40,-1,662347,223331,1267591,69019,7730,633853,0
40,-1,640015,218599,1227480,65666,7240,613776,0
40,-1,640117,218387,1212539,65460,7893,606340,0
40,-1,639359,217928,1290956,65309,8518,645569,0
40,-1,662271,223692,1204134,69033,8189,602010,0
40,-1,660081,222593,1252905,68667,7491,626418,0
40,-1,634394,218749,1177556,65080,8116,588772,0
40,-1,639249,218252,1139998,65915,7999,570098,0
40,-1,639535,218567,1156286,66018,7008,578189,0
40,-1,638576,218382,1154531,65924,7247,577413,0
40,-1,638668,217925,1177393,65662,7186,588739,0
40,-1,642895,218322,1370572,65783,8432,685217,0
40,-1,644066,220257,1227165,66900,7126,613638,0
40,-1,664071,224039,1264863,69654,8611,632489,0
40,-1,644635,219521,1406948,66323,8842,703751,0
40,-1,637511,217873,1220035,65762,7191,610069,0
40,-1,663204,223000,1276688,69128,7908,638362,0
40,-1,645138,218337,1287864,66130,7786,643983,0
40,-1,635993,217650,1235314,65708,7398,617750,0
41,-1,695120,236595,1254039,70488,8057,627044,0
41,-1,636168,217755,1265653,65371,7805,632704,0
41,-1,636798,218485,1205233,65642,7742,602661,0
41,-1,641411,219363,1280067,66084,7188,640033,0
41,-1,633541,218256,1172524,65695,7492,586276,0
41,-1,632979,218283,1234239,65629,6973,617117,0
41,-1,637651,218341,1247621,65668,6988,623770,0
41,-1,644759,220800,1218571,66740,7739,609379,0
41,-1,635345,219058,1193478,65911,6816,596802,2
41,-1,636325,218945,1148690,65852,6561,574448,0
41,-1,646320,221284,1241600,66914,8089,620119,0
41,-1,641562,219817,1172076,66031,7398,586090,0
41,-1,657265,222501,1167452,68641,7340,583861,0
41,-1,646143,221161,1264650,66641,7591,632168,0
41,-1,661073,223029,1233932,68789,9108,617070,0
41,-1,636821,217985,1196633,65317,7583,598336,0
41,-1,639154,217349,1165751,65161,6667,582948,0
41,-1,636197,219845,1110757,65759,7337,555374,0
41,-1,635896,218292,1163978,65931,7587,582047,0
41,-1,639343,218861,1143700,66349,7423,571914,0
41,-1,643201,219699,1162762,66610,6917,581305,0
41,-1,658912,222970,1371419,69146,8464,685700,0
41,-1,640896,217957,1289812,65707,8124,645027,0
41,-1,643822,220511,1179534,67056,7298,589826,0
41,-1,641908,219450,1192696,66329,7330,596386,0
41,-1,642855,218781,1230396,66057,7790,615159,0
41,-1,644540,220951,1185783,67107,6919,592956,0
41,-1,641799,218681,1185152,65975,7497,592508,0
41,-1,642905,218026,1338387,66032,7695,669050,0
41,-1,637300,219151,1222696,66422,8008,611422,0
42,-1,693119,236466,1218914,70451,7714,609466,0
42,-1,636742,218282,1393188,65567,8249,696538,0
42,-1,634148,217854,1229796,65378,7911,614957,0
42,-1,643416,220106,1288386,66615,8639,644252,0
42,-1,653978,222498,1167105,68878,8773,583614,0
42,-1,638487,219044,1213340,65870,6766,606670,0
42,-1,637700,218400,1168892,65703,7010,584454,0
42,-1,639624,219090,1266293,65846,6984,633203,0
42,-1,638204,219054,1167331,65890,7164,583717,0
42,-1,636957,219018,1233762,65806,6857,616935,2
42,-1,645341,219931,1265111,66176,8577,632559,0
42,-1,639639,219386,1131680,65962,6711,565918,0
42,-1,639479,219455,1230069,65896,6834,615090,0
42,-1,666805,227259,1226922,68013,8783,613185,0
42,-1,638686,218437,1287457,65537,7971,643737,0
42,-1,639179,218265,1272689,65482,7734,636389,0
42,-1,638916,218381,1331415,65481,6983,665744,0
42,-1,635673,218092,1146634,64944,6952,573363,0
42,-1,636142,217834,1237920,65796,7842,619012,0
42,-1,635757,217656,1223933,65654,6654,612153,0
42,-1,638043,218174,1161197,65865,6536,580678,0
42,-1,637730,218105,1157012,65715,7074,578455,0
42,-1,641417,218325,1210241,65816,7789,605147,0
42,-1,640896,219845,1153099,66574,6752,576592,0
42,-1,643747,220521,1206317,66898,7945,603218,0
42,-1,646333,220628,1166891,66929,7012,583516,0
42,-1,639680,218991,1200116,66087,6817,600094,0
42,-1,641960,218580,1157093,65877,7276,578520,0
42,-1,642694,217885,1152029,65938,7078,576064,0
42,-1,642805,219116,1256872,66236,7307,628480,0
43,-1,696691,237670,1323713,71066,8427,661789,0
43,-1,655791,222151,1261850,68731,8221,630837,0
43,-1,634216,217949,1217048,65475,7698,608569,0
43,-1,639670,218471,1352277,65758,9036,675882,0
43,-1,630781,218117,1267220,65641,7813,633585,0
43,-1,638479,219793,1238455,66374,7090,619314,0
43,-1,638902,218997,1256362,65843,6954,628095,0
43,-1,637835,218362,1214635,65664,6790,607385,0
43,-1,635394,218404,1252843,65631,7272,626416,0
43,-1,638963,219239,1171385,65957,6475,585744,2
43,-1,644168,219469,1254599,65988,8206,627237,0
43,-1,639429,219434,1235579,65859,7308,617758,0
43,-1,637674,218485,1223706,65590,6793,612058,0
43,-1,641125,218889,1200931,65748,8082,600360,0
43,-1,638048,218328,1411813,65484,8151,705378,0
43,-1,637310,218455,1187724,65570,7720,593713,0
43,-1,641603,218305,1256832,65420,6927,628516,0
43,-1,637398,219117,1146342,65200,6660,573205,0
43,-1,640367,219639,1184227,66560,7494,592177,0
43,-1,638865,219229,1204980,66306,6819,602537,0
43,-1,641519,219422,1178278,66534,7759,589200,0
43,-1,636519,218284,1218534,65767,7645,609325,0
43,-1,639539,217808,1297865,65636,8177,648862,0
43,-1,638899,218996,1221380,66272,7030,610734,0
43,-1,642559,218943,1282505,66226,7394,641395,0
43,-1,649009,220166,1195062,66686,7812,597592,0
43,-1,643523,220786,1164275,66921,7152,582196,0
43,-1,637410,217826,1238046,65653,7254,619151,0
43,-1,641895,217906,1141557,65991,7116,570813,0
43,-1,639476,218093,1258299,65904,6946,629240,0
44,-1,693460,236993,1318317,70661,7990,659159,0
44,-1,632714,217665,1131364,65373,6610,565704,0
44,-1,642233,218298,1235299,65472,7659,617694,0
44,-1,639626,218382,1429828,65797,9443,715069,0
44,-1,643067,219873,1320142,66449,8571,659981,0
44,-1,635302,218680,1239977,65809,7226,620061,0
44,-1,637006,219059,1250664,65827,6993,625289,0
44,-1,641142,220130,1251650,66433,7087,625882,0
44,-1,654954,223406,1215186,69077,7217,607689,0
44,-1,638631,218898,1157078,65867,6599,578595,2
44,-1,644158,220308,1366479,66238,8356,682844,0
44,-1,641904,219231,1205260,65842,7458,602683,0
44,-1,640337,219598,1248265,66232,7468,624251,0
44,-1,644085,220629,1376976,66517,8397,688486,0
44,-1,638457,218545,1205658,65550,7781,602870,0
44,-1,634815,218011,1258049,65333,7867,628991,0
44,-1,647240,219926,1165302,66263,7307,582722,0
44,-1,638833,219733,1115822,65636,6503,557961,0
44,-1,635651,218144,1230168,65900,7863,615137,0
44,-1,637240,218248,1305267,65918,7589,652678,0
44,-1,635721,217374,1251643,65643,7418,625902,0
44,-1,641122,218724,1213529,66001,7772,606735,0
44,-1,639214,218215,1313792,65836,8477,656756,0
44,-1,638366,219010,1236673,66376,7623,618392,0
44,-1,641746,219390,1159003,66338,7455,579516,0
44,-1,646208,219535,1266611,66309,7534,633346,0
44,-1,646656,218940,1165561,66103,7090,582818,0
44,-1,641218,218232,1246871,65839,7459,623422,0
44,-1,646248,219504,1249589,66690,8166,624871,0
44,-1,637533,217468,1228358,65649,6966,614261,0
45,-1,692928,236897,1271891,70586,8193,635916,0
45,-1,631624,217752,1210402,65449,6284,605178,0
45,-1,641072,218220,1169740,65489,7259,584921,0
45,-1,642924,219870,1344676,66443,8816,672329,0
45,-1,637300,218021,1224387,65621,7370,612194,0
45,-1,636541,219787,1176835,66147,7186,588431,0
45,-1,640635,218817,1175159,65840,7267,587567,0
45,-1,634293,217471,1228012,65426,7125,614060,0
45,-1,641733,218758,1239891,65708,7185,620048,0
45,-1,643764,219702,1317333,66021,7933,658735,2
45,-1,640170,219072,1460730,65770,8077,730061,0
45,-1,640595,219080,1152086,65765,6897,576110,0
45,-1,656822,222417,1191921,68780,7876,596068,0
45,-1,640500,219514,1297218,65929,8398,648601,0
45,-1,637982,217923,1237130,65319,8169,618631,0
45,-1,643979,220350,1234849,66412,8347,617384,0
45,-1,641021,217927,1131014,65310,6892,565578,0
45,-1,634945,218508,1173753,65057,6722,586954,0
45,-1,634368,217654,1212335,65692,7338,606203,0
45,-1,640820,217969,1149514,65839,7355,574789,0
45,-1,638926,218903,1279935,66195,7836,640001,0
45,-1,643069,219962,1183073,66548,7074,591597,0
45,-1,641071,218150,1408033,65703,8203,704131,0
45,-1,646800,219518,1135699,66470,7399,567937,0
45,-1,642363,220249,1179498,66753,7276,589802,0
45,-1,645016,219294,1261891,66206,7547,630984,0
45,-1,646619,219524,1226956,66293,7920,613528,0
45,-1,642382,218452,1243259,65930,7013,621638,0
45,-1,642380,217839,1218448,65915,7796,609287,0
45,-1,636016,217757,1183567,65782,6435,591853,0
46,-1,714425,241565,1357245,74009,9427,678665,0
46,-1,633735,218419,1153665,65599,6960,576814,0
46,-1,641070,218634,1140635,65665,7798,570369,0
46,-1,640771,219118,1264199,66015,7586,632104,0
46,-1,636119,218415,1162897,65765,6955,581448,0
46,-1,633491,218355,1145756,65701,7285,572809,0
46,-1,641500,219684,1248851,66303,7471,624467,0
46,-1,633677,217684,1280827,65352,6997,640289,0
46,-1,644567,219306,1189093,65879,7343,594586,0
46,-1,644576,219873,1388108,66135,7803,694127,0
46,-1,641640,219424,1295203,65991,7951,647599,2
46,-1,641303,219560,1163771,65953,6936,581933,0
46,-1,635572,218367,1216625,65592,6860,608399,0
46,-1,645872,220107,1312699,66338,8366,656315,0
46,-1,639731,218319,1313947,65489,8404,656979,0
46,-1,640113,219605,1239259,66032,8007,619672,0
46,-1,642990,218929,1271056,65670,7887,635722,0
46,-1,634229,218432,1174167,64969,6969,587133,0
46,-1,656755,222299,1242682,69011,8315,621385,0
46,-1,642835,219911,1196922,66684,6846,598530,0
46,-1,640653,218119,1236150,65976,7718,618131,0
46,-1,636415,218121,1157012,65673,6810,578517,0
46,-1,661414,222803,1352776,69137,8835,676226,0
46,-1,666091,224237,1388381,69857,9013,694266,0
46,-1,643494,220516,1232690,66709,7996,616392,0
46,-1,665761,224057,1311866,69526,8260,656004,0
46,-1,644794,219186,1158817,66132,7629,579502,0
46,-1,642783,218698,1213190,65992,7762,606560,0
46,-1,639244,216909,1159148,65666,7412,579562,0
46,-1,659856,223077,1279559,69319,8607,639840,0
47,-1,690886,236489,1200563,70509,7741,600276,0
47,-1,655593,221833,1235380,68572,7386,617606,0
47,-1,639948,218273,1134717,65477,7188,567402,0
47,-1,636074,217560,1128080,65495,6823,563974,0
47,-1,641233,220277,1311816,66673,7427,655961,0
47,-1,636498,220328,1267025,66585,7937,633552,0
47,-1,634767,218146,1229382,65507,6233,614525,0
47,-1,643162,221134,1260302,66928,7059,630269,0
47,-1,641985,219110,1151485,65868,7138,575785,0
47,-1,641777,219438,1262968,65879,7798,631260,0
47,-1,641681,219153,1251331,65930,8408,625620,2
47,-1,645276,221304,1226419,66782,6989,613278,0
47,-1,637643,219584,1223645,66235,7156,611896,0
47,-1,638349,218156,1293731,65452,8167,646957,0
47,-1,636171,217816,1322490,65281,7402,661289,0
47,-1,637664,218768,1215452,65634,7599,607680,0
47,-1,643510,219454,1148247,65983,7458,574153,0
47,-1,637053,218827,1145165,65183,6632,572627,0
47,-1,637223,218773,1294141,66141,7149,647125,0
47,-1,640239,218153,1235597,65940,7123,617798,0
47,-1,640907,218578,1176634,65960,7213,588372,0
47,-1,639173,218587,1176810,65914,7231,588457,0
47,-1,639102,218235,1256828,65777,8133,628448,0
47,-1,644364,219442,1213816,66491,6930,606953,0
47,-1,641346,218638,1216434,66052,7120,608263,0
47,-1,641780,218513,1240934,65936,7775,620515,0
47,-1,650049,221031,1151979,67002,7844,576085,0
47,-1,641474,218288,1114123,65745,6671,557040,0
47,-1,668003,224133,1297103,70348,8562,648553,0
47,-1,635185,217655,1274052,65905,7872,636394,0
48,-1,688355,236023,1210603,70290,7291,605300,0
48,-1,634990,217768,1119438,65482,6304,559762,0
48,-1,636878,218075,1209294,65548,7639,604637,0
48,-1,645995,221401,1216033,67072,7968,607994,0
48,-1,638445,219570,1259074,66353,7321,629523,0
48,-1,639383,218124,1216250,65508,8238,608060,0
48,-1,658892,223200,1286276,69062,8729,642601,0
48,-1,637226,218054,1267974,65532,7210,633993,0
48,-1,639477,218093,1228582,65526,7708,614336,0
48,-1,641115,219638,1289959,66050,8103,644854,0
48,-1,642886,220286,1225431,66103,8191,612768,2
48,-1,661680,224504,1213993,69333,7672,607118,0
48,-1,636288,218218,1143628,65616,7196,571865,0
48,-1,663114,223408,1383995,69020,9198,692009,0
48,-1,637899,217942,1254961,65347,8338,627544,0
48,-1,642228,220716,1245460,66495,8372,622652,0
48,-1,642514,218303,1231816,65483,7196,615749,0
48,-1,636018,218790,1167172,65134,7135,583629,0
48,-1,634879,217551,1247605,65654,7804,623861,0
48,-1,638408,217640,1223746,65735,6811,611948,0
48,-1,638388,218276,1248620,65948,8034,624358,0
48,-1,637368,218430,1187526,65817,6488,593800,0
48,-1,669311,228113,1312581,68731,7889,656342,0
48,-1,646116,220590,1160796,67037,7281,580408,0
48,-1,642266,219528,1249410,66391,7635,624709,0
48,-1,640792,218485,1245731,65942,8105,622996,0
48,-1,669131,224927,1196865,69866,7786,598408,0
48,-1,645671,220711,1189096,66906,7006,594538,0
48,-1,638181,217097,1212766,65624,7491,606443,0
48,-1,640149,219204,1292671,66604,8094,646142,0
49,-1,690834,236292,1302080,70463,7982,651047,0
49,-1,634410,217754,1221570,65399,7218,610832,0
49,-1,644158,219896,1362563,66288,8312,680923,0
49,-1,636408,218316,1338513,65739,8172,669254,0
49,-1,634194,218255,1202647,65751,7119,601357,0
49,-1,637701,218478,1212759,65659,7307,606386,0
49,-1,637859,219455,1211552,66030,8350,605824,0
49,-1,635291,218291,1142701,65597,6647,571424,0
49,-1,641616,218728,1190575,65764,7282,595337,0
49,-1,640309,219853,1246692,66043,7808,623190,0
49,-1,640503,219886,1171718,65988,7996,585912,2
49,-1,640528,220043,1233683,66069,7189,616982,0
49,-1,637494,218883,1231992,65771,7193,616031,0
49,-1,640884,219079,1302443,65789,7997,650797,0
49,-1,639495,218570,1182374,65608,7903,591068,0
49,-1,645298,218455,1328772,65466,7820,664455,0
49,-1,661084,223317,1293932,68943,7378,647014,0
49,-1,653748,222234,1169957,68016,7350,584943,0
49,-1,638623,219956,1135061,66776,7891,567610,0
49,-1,638218,217946,1096423,65891,6793,548272,0
49,-1,636335,218001,1240928,65781,7361,620555,0
49,-1,640531,219800,1163020,66525,7704,581566,0
49,-1,642371,219398,1200284,66328,7518,599984,0
49,-1,642620,219096,1267855,66376,7138,633984,0
49,-1,640710,219268,1402529,66298,7878,701427,0
49,-1,642152,219391,1248429,66266,7411,624260,0
49,-1,645108,219627,1117440,66361,6770,558834,0
49,-1,661907,223320,1255947,69285,7835,627962,0
49,-1,640267,218205,1163260,66080,7491,581678,0
49,-1,636803,217990,1139991,65991,7128,570209,0
50,-1,689079,236730,1281394,70577,7048,640578,0
50,-1,637551,219296,1249243,66120,7087,624626,0
50,-1,636567,217281,1240173,65229,7755,620354,0
50,-1,640750,218757,1362120,65858,8646,681052,0
50,-1,631972,217489,1229743,65386,7352,614934,0
50,-1,640879,218917,1234815,65879,7434,617407,0
50,-1,638457,219306,1424641,65922,8258,711933,0
50,-1,636113,219314,1158456,65985,7382,579278,0
50,-1,644337,220281,1269587,66591,7068,634875,0
50,-1,643879,219494,1335678,65974,9336,667806,0
50,-1,638554,219876,1160064,65965,6954,580129,2
50,-1,640497,219165,1290383,65779,7214,645216,0
50,-1,638010,219904,1258089,66420,7557,629177,0
50,-1,637564,218203,1193498,65424,6808,596939,0
50,-1,637874,218182,1297427,65397,7988,648939,0
50,-1,644424,218709,1340235,65599,8257,669720,0
50,-1,641654,218598,1252184,65573,7110,626131,0
50,-1,634595,218833,1140312,65161,7174,570201,0
50,-1,638558,218185,1158857,65886,7239,579485,0
50,-1,636780,217351,1174872,65636,7728,587416,0
50,-1,639758,218684,1256912,66077,7737,628512,0
50,-1,634954,217594,1172818,65555,8195,586462,0
50,-1,638616,218362,1312684,65862,8304,656367,0
50,-1,643095,219433,1226423,66486,6472,613497,0
50,-1,639887,219407,1121397,66299,6741,560741,0
50,-1,665317,227237,1194888,68510,7090,597479,0
50,-1,647559,220062,1163510,66457,7318,581800,0
50,-1,641438,219132,1145760,66144,6957,572920,0
50,-1,643005,217791,1256888,65978,7879,628566,0
50,-1,657556,223027,1242664,69451,8945,621382,0
51,-1,685433,235696,1290937,70219,7593,645531,0
51,-1,635117,218375,1361305,65674,7726,680681,0
51,-1,638431,218183,1361311,65445,8224,680701,0
51,-1,638895,217800,1206005,65532,7529,603043,0
51,-1,635547,218993,1169489,65947,7264,584736,0
51,-1,637355,218599,1213686,65751,7154,606836,0
51,-1,642405,220768,1450792,66729,8291,724035,0
51,-1,639112,218287,1259179,65654,7175,629652,0
51,-1,643048,219717,1241017,66117,7327,620554,0
51,-1,645690,220242,1326957,66399,8611,663104,0
51,-1,643727,220632,1294645,66477,6968,647397,0
51,-1,641278,220170,1151106,66153,6928,575615,2
51,-1,637680,218688,1313080,65748,6738,656604,0
51,-1,642287,220158,1267078,66352,7643,633561,0
51,-1,658843,223128,1254500,68844,8231,627058,0
51,-1,644323,218907,1261425,65672,8186,630884,0
51,-1,639908,218422,1211370,65513,6576,605745,0
51,-1,630348,217642,1080819,64735,6969,540466,0
51,-1,642589,218599,1237866,66029,8139,618981,0
51,-1,639286,217843,1163460,65800,6918,581800,0
51,-1,636947,217676,1356161,65658,7847,678124,0
51,-1,640687,220176,1191141,66695,8053,595627,0
51,-1,648782,220515,1248536,66818,8255,623886,0
51,-1,641476,219220,1301621,66383,7326,650862,0
51,-1,639894,219413,1308543,66289,7784,654317,0
51,-1,663926,223553,1359383,69418,7573,679703,0
51,-1,647637,220201,1171228,66539,7510,585665,0
51,-1,640558,218812,1181878,65974,7257,590931,0
51,-1,642386,217928,1243513,65979,8681,621833,0
51,-1,640040,218172,1146369,66100,7604,573263,0
52,-1,699046,239038,1306052,71533,7781,653026,0
52,-1,638052,219870,1228668,66404,6802,614320,0
52,-1,639064,218452,1157724,65610,7194,578798,0
52,-1,639205,218179,1186786,65702,7470,593382,0
52,-1,636678,218194,1360784,65665,7467,680353,0
52,-1,635391,217947,1216880,65506,6632,608502,0
52,-1,657850,223501,1301802,69154,9020,650834,0
52,-1,640920,219284,1263755,65914,7000,631903,0
52,-1,646182,220112,1212688,66387,7668,606406,0
52,-1,642901,219437,1287579,65855,8616,643847,0
52,-1,640059,219406,1261049,65866,7451,630572,0
52,-1,638717,219173,1200871,65820,8130,600322,2
52,-1,643437,218852,1226258,65812,7751,613197,0
52,-1,639426,218640,1258307,65607,7839,628978,0
52,-1,634570,217726,1188066,65245,7216,593401,0
52,-1,640942,217929,1395262,65295,8533,697679,0
52,-1,640256,218468,1166110,65490,6625,583108,0
52,-1,635808,218710,1145855,65139,6770,572859,0
52,-1,641366,218445,1291147,66042,8410,645617,0
52,-1,639401,218255,1233418,65975,6758,616717,0
52,-1,643340,220538,1274759,66940,7723,637465,0
52,-1,634933,218292,1180159,65783,7864,590137,0
52,-1,642406,218187,1226888,65735,8023,613142,0
52,-1,648366,221092,1192477,67294,6966,596311,0
52,-1,643929,221487,1184451,67335,7485,592228,0
52,-1,642138,219482,1362866,66283,8291,681226,0
52,-1,649685,221162,1167346,67053,7323,583728,0
52,-1,641928,219316,1316042,66209,7563,658003,0
52,-1,647458,220319,1292331,67049,7931,646247,0
52,-1,642859,219711,1392416,66748,8359,696219,0
53,-1,690745,236253,1304161,70436,7691,652156,0
53,-1,655040,222962,1237498,68922,7482,618782,0
53,-1,641601,219988,1255612,66272,7502,627769,0
53,-1,640280,219009,1231156,65972,7085,615659,0
53,-1,635381,218178,1288732,65679,8137,644266,0
53,-1,640405,219596,1169844,66071,7602,584882,0
53,-1,637282,219621,1281027,66277,8244,640309,0
53,-1,636828,218308,1222888,65596,6925,611508,0
53,-1,640419,218926,1261211,65694,7464,630642,0
53,-1,641274,218828,1322823,65635,8490,661321,0
53,-1,637280,218920,1279292,65691,7490,639716,0
53,-1,663879,227966,1282640,68407,7758,641365,2
53,-1,640112,218150,1229800,65485,7241,614974,0
53,-1,644015,220730,1272435,66599,8140,636530,0
53,-1,641717,219670,1181585,66159,8053,590655,0
53,-1,648148,220984,1301215,66660,8718,650678,0
53,-1,637579,218103,1098485,65352,6434,549283,0
53,-1,634164,218389,1156462,65022,6682,578247,0
53,-1,638807,217880,1162104,65859,8158,581131,0
53,-1,642516,219741,1182741,66646,7300,591397,0
53,-1,658435,222691,1284832,69178,8850,642535,0
53,-1,636566,218529,1179643,65886,7326,589841,0
53,-1,640038,218131,1254417,65667,8354,627126,0
53,-1,644977,220109,1163814,66695,6710,581966,0
53,-1,661083,223637,1297977,69521,8222,648858,0
53,-1,639127,218407,1273149,65901,7955,636603,0
53,-1,646831,220511,1261830,66573,7215,631072,0
53,-1,639091,218588,1166158,65940,7005,583065,0
53,-1,687184,230889,1432781,71778,9390,716421,0
53,-1,639429,218923,1308616,66303,7581,654337,0
54,-1,695123,238581,1432674,71456,8438,716165,0
54,-1,631410,217844,1153922,65454,6616,576979,0
54,-1,640477,218333,1226134,65609,6884,613031,0
54,-1,636884,217777,1157665,65530,7106,578865,0
54,-1,636120,218894,1324659,65964,7563,662085,0
54,-1,643183,220015,1251777,66390,7444,625943,0
54,-1,635893,219490,1300254,66053,7899,649819,0
54,-1,639445,219686,1335601,66237,6998,667870,0
54,-1,639408,218542,1161679,65606,7019,580865,0
54,-1,641426,219307,1254762,65784,8425,626990,0
54,-1,646480,221890,1288966,66934,7665,644530,0
54,-1,638834,218826,1281130,65742,7239,640609,2
54,-1,645322,220153,1226865,66494,7699,613501,0
54,-1,638043,218752,1279909,65711,7769,639846,0
54,-1,638797,219164,1209915,65763,7763,604839,0
54,-1,662590,222819,1235382,68745,9206,617667,0
54,-1,644648,219006,1118560,65898,7159,559278,0
54,-1,633722,218402,1197213,65058,7379,598661,0
54,-1,635858,217271,1217156,65646,7713,608652,0
54,-1,636032,217477,1300734,65627,7654,650321,0
54,-1,637324,218332,1241054,65969,7972,620616,0
54,-1,645729,219355,1151803,66354,7670,575971,0
54,-1,646293,220349,1241366,66756,8906,621136,0
54,-1,641755,218902,1233634,66268,6741,616916,0
54,-1,642211,219838,1175871,66495,6613,587989,0
54,-1,640623,219339,1335876,66234,8022,667683,0
54,-1,643193,219526,1303767,66254,7299,651933,0
54,-1,645197,219861,1210765,66576,7445,605413,0
54,-1,643724,218841,1207433,66499,7712,603837,0
54,-1,636976,218125,1141592,66009,7028,570446,0
55,-1,690347,236698,1315768,70596,7605,658104,0
55,-1,632557,218097,1224519,65570,6863,612294,0
55,-1,640837,218858,1147528,65755,6715,573698,0
55,-1,644125,220070,1286343,66523,7633,643261,0
55,-1,633691,217926,1215789,65587,7680,607609,0
55,-1,638191,218407,1139894,65635,7131,569958,0
55,-1,636936,218027,1229088,65463,8139,614555,0
55,-1,636392,218904,1169488,65852,6387,584787,0
55,-1,642796,220346,1254472,66465,7036,627322,0
55,-1,640001,218767,1371711,65672,8022,685869,0
55,-1,638937,219338,1153294,65759,7736,576679,0
55,-1,664388,224180,1182627,69340,8184,591265,0
55,-1,637899,219204,1253282,65930,6620,626744,2
55,-1,636533,218260,1284161,65491,7901,642153,0
55,-1,635342,218193,1236925,65338,7726,618511,0
55,-1,639869,218038,1243577,65338,8152,622001,0
55,-1,642756,218766,1129666,65631,7333,564637,0
55,-1,654088,222658,1350915,68182,9170,675419,0
55,-1,640448,218210,1236929,65955,8025,618524,0
55,-1,644310,220786,1142997,67137,6952,570742,0
55,-1,635746,217743,1212278,65737,7459,606224,0
55,-1,639177,217873,1249744,65608,7787,625039,0
55,-1,641638,217713,1288015,65590,8114,644044,0
55,-1,640864,218873,1216647,66131,7277,608366,0
55,-1,638331,218747,1168170,66076,6915,584156,0
55,-1,639406,218748,1359011,65986,8439,679478,0
55,-1,669268,225217,1291743,69933,7985,645972,0
55,-1,664148,223912,1271698,69479,7842,635887,0
55,-1,639198,217575,1210872,65829,7922,605534,0
55,-1,631169,216510,1150932,65574,7292,575388,0
56,-1,688145,236156,1330148,70341,7486,665114,0
56,-1,631346,217512,1198718,65384,6913,599436,0
56,-1,645615,220573,1295921,66644,7287,647923,0
56,-1,660213,222972,1263222,69049,8233,631853,0
56,-1,636925,219633,1264222,66414,7766,631709,0
56,-1,659157,222842,1309299,68919,8052,654677,0
56,-1,640397,218859,1277511,65787,7790,638701,0
56,-1,637255,218921,1182701,65884,7161,591402,0
56,-1,658221,222414,1183815,68622,7859,591943,0
56,-1,644452,220621,1368449,66601,8587,683017,0
56,-1,641964,219450,1243065,65787,7460,621588,0
56,-1,638036,217977,1192135,65426,6642,596072,0
56,-1,637298,219023,1147554,65744,7438,573727,2
56,-1,638837,218553,1449803,65626,8458,724948,0
56,-1,643375,220836,1243827,66536,8103,621734,0
56,-1,644268,220180,1401416,66268,8964,701073,0
56,-1,638686,217562,1158856,65207,7373,579491,0
56,-1,632631,218506,1195366,65017,7924,597785,0
56,-1,658703,222512,1285575,69152,9000,643113,0
56,-1,637008,218085,1253385,65929,8095,626579,0
56,-1,637919,218493,1156883,66053,6834,578485,0
56,-1,662920,222940,1286217,69154,8527,643059,0
56,-1,638763,217743,1170288,65629,7583,585157,0
56,-1,658528,223064,1273323,69299,9161,636680,0
56,-1,641496,220104,1119220,66751,6846,559681,0
56,-1,665104,223115,1417831,69200,9755,708993,0
56,-1,642321,218610,1224811,65869,7034,612457,0
56,-1,641786,218618,1136524,65995,7391,568208,0
56,-1,640552,218484,1146491,66128,7323,573307,0
56,-1,633794,217544,1321036,65829,7764,660469,0
57,-1,689424,236447,1224929,70435,7136,612519,0
57,-1,638879,217707,1148077,65383,6647,574014,0
57,-1,639024,218608,1222210,65740,6584,611127,0
57,-1,665312,227426,1284223,68357,7794,642155,0
57,-1,633980,218310,1503950,65762,8317,751335,0
57,-1,636436,218661,1235412,65662,7267,617750,0
57,-1,638427,218301,1355826,65597,8779,677803,0
57,-1,637594,218157,1113434,65632,6435,556753,0
57,-1,642058,219657,1316878,65971,7171,658474,0
57,-1,639981,219193,1128180,65862,6975,564221,0
57,-1,639418,218994,1212260,65699,7213,606167,0
57,-1,644059,219718,1239469,66279,8057,619823,0
57,-1,637708,218384,1213654,65520,8714,606855,0
57,-1,640470,218836,1278405,65675,8487,639372,2
57,-1,657139,222644,1302385,68675,8537,651090,0
57,-1,640994,218089,1262708,65358,8246,631402,0
57,-1,641460,218476,1139086,65532,6802,569592,0
57,-1,637609,218299,1239318,64941,7598,619432,0
57,-1,637616,217655,1121353,65675,7484,560714,0
57,-1,636372,218516,1465258,66052,8364,732678,0
57,-1,635178,217784,1245436,65787,6971,622706,0
57,-1,642331,218745,1201420,65906,7043,600736,0
57,-1,660367,222677,1374172,69078,9327,686914,0
57,-1,643526,219480,1220902,66384,7400,610497,0
57,-1,640910,219480,1433979,66367,8770,717037,0
57,-1,644589,219107,1316491,66187,8980,658071,0
57,-1,645147,220715,1224254,66814,7122,612190,0
57,-1,640034,218282,1215739,65803,7469,607872,0
57,-1,641923,218751,1133692,66285,6973,566866,0
57,-1,642845,220112,1297438,66871,7813,648607,0
58,-1,691056,236036,1226384,70346,7254,613152,0
58,-1,639275,217704,1119558,65419,7361,559773,0
58,-1,641795,219364,1181701,66007,7075,590840,0
58,-1,637581,218486,1158901,65809,6908,579488,0
58,-1,637096,218799,1262598,65879,7462,631047,0
58,-1,637301,218804,1176133,65836,6798,588050,0
58,-1,640863,219125,1201479,65933,7781,600674,0
58,-1,642343,220691,1196190,66688,7388,598148,0
58,-1,639156,218607,1262127,65590,7369,631127,0
58,-1,640868,218461,1295118,65639,8937,647491,0
58,-1,640218,219037,1136444,65585,6626,568272,0
58,-1,643395,219315,1174278,65939,7454,587194,0
58,-1,634821,218337,1275220,65523,7962,637493,0
58,-1,637459,218783,1220944,65642,8779,610168,2
58,-1,634627,217816,1189836,65271,6770,594964,0
58,-1,641020,218097,1175716,65370,8561,587925,0
58,-1,660979,222721,1251907,68665,7781,626018,0
58,-1,637041,218940,1284439,65162,7321,642306,0
58,-1,640183,219363,1217001,66516,7768,608545,0
58,-1,643514,219953,1156184,66703,8111,577463,0
58,-1,635839,218043,1306525,65845,7504,653655,0
58,-1,640344,218311,1237235,65887,7931,618655,0
58,-1,641064,219224,1364295,66304,8762,681667,0
58,-1,646190,220580,1157819,66912,7336,578908,0
58,-1,638404,218870,1285534,66154,8291,642759,0
58,-1,644274,219203,1458715,66140,8394,729388,0
58,-1,641766,219892,1210460,66586,6520,605302,0
58,-1,641397,219159,1124555,66137,7369,562239,0
58,-1,638336,217386,1226694,65715,7970,613395,0
58,-1,633639,217486,1158533,65812,6973,579308,0
59,-1,689219,236220,1244536,70459,8376,621870,0
59,-1,660615,222638,1353959,68831,8715,677024,0
59,-1,639706,218679,1171311,65861,6627,585684,0
59,-1,640838,220183,1255603,66542,7142,627861,0
59,-1,637514,219814,1323024,66534,9277,661234,0
59,-1,636210,218963,1147159,65886,7280,573558,0
59,-1,657658,223243,1200906,69048,8010,600457,0
59,-1,656217,222845,1164771,68879,7259,582482,0
59,-1,641968,220082,1267089,66300,7323,633660,0
59,-1,658664,223072,1288849,68920,8864,644295,0
59,-1,643899,221105,1251061,66559,7531,625651,0
59,-1,641260,218518,1253832,65637,7796,626953,0
59,-1,647760,220770,1187947,66663,7996,594204,0
59,-1,642470,219504,1270894,65752,8651,635278,2
59,-1,640167,218454,1191671,65516,8462,595921,0
59,-1,643161,219643,1168613,66171,8651,584105,0
59,-1,637902,217606,1206444,65207,6519,603313,0
59,-1,633652,218186,1327854,64960,7556,663526,0
59,-1,637173,218044,1223483,65930,8045,611795,0
59,-1,639038,218239,1262275,65964,8708,631005,0
59,-1,636010,218517,1169792,65968,6836,584881,0
59,-1,642638,218728,1271559,65988,7525,635828,0
59,-1,641443,218111,1185617,65691,8107,592835,0
59,-1,641705,219326,1178909,66288,7016,589498,0
59,-1,644725,219240,1300091,66280,8146,650033,0
59,-1,645615,219535,1305939,66294,8641,653011,0
59,-1,664234,224743,1319712,69733,7721,659974,0
59,-1,640593,218736,1204908,66042,7536,602517,0
59,-1,640855,218293,1169917,66115,7383,585000,0
59,-1,657004,222336,1280251,69234,9028,640234,0
60,-1,696990,239311,1363761,71701,9233,681647,0
60,-1,639068,217757,1255035,65444,7637,627532,0
60,-1,638968,218424,1199675,65667,6865,599813,0
60,-1,638647,218149,1281779,65611,7112,640994,0
60,-1,631348,218270,1328761,65742,8046,663863,0
60,-1,640490,219165,1230745,65931,7021,615376,0
60,-1,637790,218495,1200913,65717,6662,600494,0
60,-1,634874,218316,1233483,65614,6737,616717,0
60,-1,636603,218359,1118535,65545,7023,559310,0
60,-1,637513,218440,1244128,65509,8507,621832,0
60,-1,644506,220950,1288915,66517,7453,644533,0
60,-1,638462,217823,1232803,65372,7607,616460,0
60,-1,665664,223621,1192057,69075,8228,596072,0
60,-1,649935,221277,1295532,66651,8454,647788,2
60,-1,647901,221547,1302697,66835,8251,650917,0
60,-1,639042,217804,1173979,65261,8364,586954,0
60,-1,639828,218577,1333083,65584,7512,666585,0
60,-1,638207,219812,1210192,65662,7482,605026,0
60,-1,638980,218677,1169540,66070,8196,584842,0
60,-1,640007,218684,1317800,66078,8404,658978,0
60,-1,638208,219414,1130432,66534,7847,565271,0
60,-1,638989,217730,1370165,65631,8041,685125,0
60,-1,639652,217607,1370669,65599,8656,685413,0
60,-1,660796,223446,1373768,69434,8684,686902,0
60,-1,643768,218821,1135347,66060,8030,567709,0
60,-1,640632,217633,1153696,65547,6601,576893,0
60,-1,641555,218516,1233985,65893,7595,617033,0
60,-1,641090,219051,1142284,66110,7532,571037,0
60,-1,643226,218925,1151475,66515,8147,575699,0
60,-1,635714,217250,1188539,65729,7548,594339,0
61,-1,686442,235994,1278104,70381,8155,639006,0
61,-1,643558,220038,1220124,66379,7234,609892,0
61,-1,641265,219759,1155123,66096,6544,577469,0
61,-1,637198,217979,1158983,65599,6826,579574,0
61,-1,637563,218728,1263976,65899,8274,632181,0
61,-1,644823,221309,1269205,66962,7160,634485,0
61,-1,636371,218252,1174923,65618,7121,587417,0
61,-1,635530,218556,1159072,65741,6804,579583,0
61,-1,638839,217966,1133402,65493,7403,566738,0
61,-1,641152,220046,1246592,66297,8555,623164,0
61,-1,663969,225131,1200402,69443,7821,600166,0
61,-1,661991,223778,1196897,69128,8238,598477,0
61,-1,641435,218278,1214227,65492,7610,607163,0
61,-1,637286,218960,1169970,65620,7904,584991,2
61,-1,659082,222658,1280229,68678,8910,639806,0
61,-1,643190,219842,1240334,66108,8794,620555,0
61,-1,639701,218204,1242401,65408,7079,621277,0
61,-1,630243,217457,1157704,64728,7617,578889,0
61,-1,640452,218962,1129813,66370,7519,564975,0
61,-1,637149,217846,1131483,65791,7212,565392,0
61,-1,660409,227219,1205179,68654,8736,602637,0
61,-1,644592,219826,1376935,66629,8302,688560,0
61,-1,643878,219964,1226630,66729,8495,612701,0
61,-1,637562,218325,1210316,65934,6849,605202,0
61,-1,642037,218825,1267884,66105,7637,633921,0
61,-1,642572,219012,1270057,66082,7110,635192,0
61,-1,646362,221027,1171459,66986,7368,585817,0
61,-1,640342,218313,1214568,65792,7447,607209,0
61,-1,640197,218050,1146983,66008,7547,573365,0
61,-1,641263,218376,1325503,66130,7846,662906,0
62,-1,688448,236410,1349819,70508,8447,674897,0
62,-1,638099,217804,1244929,65534,7773,622567,0
62,-1,661550,223176,1217887,69130,8074,609028,0
62,-1,644515,221200,1259431,66942,7186,629802,0
62,-1,657957,223719,1237558,69300,9785,618824,0
62,-1,659868,223469,1197631,69157,7406,598813,0
62,-1,640110,219773,1167388,66085,6812,583680,0
62,-1,636726,219305,1237774,65932,7057,618944,0
62,-1,660243,222763,1206779,68893,8063,603492,0
62,-1,664322,223487,1217824,69011,8428,608835,0
62,-1,638948,219294,1129898,65692,6727,564993,0
62,-1,641263,218754,1225211,65711,7233,612642,0
62,-1,642204,218502,1132899,65574,7281,566490,0
62,-1,638963,217989,1147796,65312,7548,573945,0
62,-1,636807,218387,1156978,65521,7272,578132,2
62,-1,638351,218211,1309702,65396,8734,654494,0
62,-1,659525,222402,1274572,68613,7480,637050,0
62,-1,642609,221119,1207360,66223,7291,603191,0
62,-1,638155,218559,1195161,65979,7277,597627,0
62,-1,632817,217248,1230059,65612,7318,615093,0
62,-1,637610,217987,1171136,65851,7912,585619,0
62,-1,639542,218467,1254676,65879,7342,627384,0
62,-1,638968,218178,1269100,65790,7959,634405,0
62,-1,645389,220188,1189001,66745,7727,594544,0
62,-1,644421,220192,1154011,66795,7250,576868,0
62,-1,641177,218748,1263738,65983,7147,631905,0
62,-1,637491,218495,1362440,65979,7418,681269,0
62,-1,641556,219029,1275580,66120,7731,637846,0
62,-1,639136,217907,1100583,65902,7343,550231,0
62,-1,637736,217193,1355253,65650,7938,677848,0
63,-1,691889,237858,1380914,71137,8501,690433,0
63,-1,640809,218002,1314396,65535,8001,656599,0
63,-1,640199,219686,1234425,66340,6854,617307,0
63,-1,659026,223172,1206723,69119,7731,603315,0
63,-1,636401,218604,1216209,65811,8197,608006,0
63,-1,638471,219067,1394752,65911,7833,697377,0
63,-1,641758,220478,1179523,66639,7268,589606,0
63,-1,634026,218329,1212745,65623,6843,606439,0
63,-1,634042,217067,1173848,65207,7017,586972,0
63,-1,638635,217908,1310681,65370,7302,655388,0
63,-1,643441,221048,1229414,66554,6972,614781,0
63,-1,643162,219041,1257191,65738,7147,628644,0
63,-1,644816,220037,1296112,66361,7707,648188,0
63,-1,644916,221201,1242307,66550,7086,620884,0
63,-1,641359,220752,1253697,66557,8132,626976,2
63,-1,639917,218753,1269965,65638,8216,635025,2
63,-1,635374,218467,1176066,65538,7826,588090,2
63,-1,638119,218872,1188532,65698,7210,594031,2
63,-1,639534,218328,1434214,65491,8577,717191,0
63,-1,639707,218303,1126276,65429,7906,563119,2
63,-1,633781,218309,1233442,65502,7776,616630,2
63,-1,638302,218958,1236716,65643,7442,618413,2
63,-1,640890,220025,1171260,66329,7849,585500,2
63,-1,638014,218600,1126717,65650,7415,563398,2
63,-1,636985,217929,1216697,65364,6733,608410,0
63,-1,638376,218395,1205939,65474,6659,602897,2
63,-1,642288,218513,1155908,65573,7149,578008,2
63,-1,646812,220951,1195336,66605,6691,597763,2
63,-1,630342,218500,1222471,65071,6692,611266,2
63,-1,631075,218206,1148163,64962,7456,574109,2
63,-1,634067,218149,1254505,64907,7162,627833,0
63,-1,637038,219949,1115549,65811,7398,557859,2
63,-1,634624,218930,1182762,65227,6813,591419,2
63,-1,634650,217769,1122079,64828,7182,561068,2
63,-1,631269,218147,1211971,65121,7177,606081,2
63,-1,633562,218426,1264315,65149,7254,632193,2
63,-1,639896,219355,1237111,66322,7779,618606,2
63,-1,641400,220231,1159253,66856,8166,579692,0
63,-1,638241,218113,1263205,65957,7700,631642,2
63,-1,632725,218139,1218616,65961,6681,609361,2
63,-1,643134,220758,1148366,67062,7943,574246,2
63,-1,634732,217632,1220820,65753,7558,610453,2
63,-1,638221,218259,1222987,65989,7298,611605,2
63,-1,638969,218404,1242429,65967,7382,621294,0
63,-1,637248,218425,1207853,66069,8024,603728,2
63,-1,636810,218304,1300756,66006,7683,650388,2
63,-1,643410,220314,1163624,66981,7366,581936,2
63,-1,641792,218980,1247165,66209,7992,623623,2
63,-1,634182,217844,1220187,65820,8291,610223,2
63,-1,633143,218137,1272325,65921,7830,636202,2
63,-1,637408,217409,1247497,65588,7755,623834,0
63,-1,638285,218297,1233890,66006,7918,616989,2
63,-1,638099,218804,1132108,66122,7261,566100,2
63,-1,636307,218602,1297141,66073,7972,648573,2
63,-1,640682,219234,1147342,66148,7503,573733,2
63,-1,640397,218162,1353540,65799,8507,676857,0
63,-1,638502,218397,1184543,65831,7442,592361,2
63,-1,640215,220397,1149971,66781,7523,575042,2
63,-1,638656,218277,1240816,65920,7673,620570,2
63,-1,636119,218095,1205023,65784,7706,602541,2
63,-1,643564,219815,1223111,66656,7565,611635,2
63,-1,638887,218415,1390065,65864,8597,695171,0
63,-1,641200,218779,1251864,65974,7782,626091,2
63,-1,639095,218513,1182297,65954,8486,591165,2
63,-1,635230,218324,1140800,65952,7849,570494,2
63,-1,647188,221363,1156098,67372,6964,578142,2
63,-1,642231,219463,1234754,66342,7672,617408,0
63,-1,636985,218769,1222708,66089,7541,611271,2
63,-1,638087,218628,1187615,66119,6980,593861,2
63,-1,641560,219339,1308343,66348,8102,654053,2
63,-1,642100,220201,1243471,66647,7707,621737,2
63,-1,642190,218940,1160729,66271,7619,580294,2
63,-1,645329,219014,1141644,66235,7872,570837,0
63,-1,640997,219252,1242068,66319,8301,621046,2
63,-1,642601,221190,1152480,67200,8102,575881,2
63,-1,639802,219422,1279524,66360,8250,639493,2
63,-1,641754,219723,1230685,66395,7150,615531,2
63,-1,645369,221136,1185925,66995,7777,593097,2
63,-1,662455,223422,1298470,69323,7989,649273,0
63,-1,640285,219111,1240431,66191,7972,620154,2
63,-1,643591,221030,1152826,67082,7639,576496,2
63,-1,638707,219255,1234599,66225,7414,617379,2
63,-1,640863,218831,1347984,66081,8456,673887,0
63,-1,640796,219421,1213467,66267,7110,606774,2
63,-1,640698,220302,1192711,66612,6636,596409,2
63,-1,643520,218887,1247990,66143,6876,624017,2
63,-1,643226,219312,1283982,66254,6918,641980,2
63,-1,648187,220689,1282369,66949,7460,641133,2
63,-1,638687,218875,1247840,66002,7230,623861,0
63,-1,639129,219252,1262952,66178,7201,631470,2
63,-1,639788,218305,1155828,65816,7068,577921,2
63,-1,644458,219543,1263445,66363,7485,631777,2
63,-1,639744,218013,1203199,65989,7679,601645,0
63,-1,639908,217853,1291305,65994,7899,645593,2
63,-1,643512,218054,1148942,66049,6967,574481,2
63,-1,640214,218311,1171407,66113,6710,585770,0
63,-1,639266,220358,1259537,67051,7597,629742,2
63,-1,636761,218519,1222808,66093,7314,611445,2
