0,-1,686946,236496,1239411,70399,6984,619718,0
0,-1,696828,239975,1344010,71929,7603,672006,2
0,-1,634865,218145,1160440,65538,6808,580280,0
0,-1,636779,218486,1311947,65534,6951,656020,0
0,-1,635343,218629,1146987,65763,6502,573489,0
0,-1,636156,218087,1292170,65538,7884,646049,0
0,-1,638295,218340,1177337,65719,7666,588565,0
0,-1,640476,219993,1272198,66101,7524,636166,0
0,-1,640312,219275,1209195,65984,7455,604623,0
0,-1,643397,219583,1323006,66075,8068,661513,0
0,-1,635064,219791,1310870,66197,7454,655456,0
0,-1,644167,221436,1337712,67081,7578,668876,0
0,-1,639814,219310,1255805,65941,7139,627958,0
0,-1,636599,218791,1166301,65788,7079,583200,0
0,-1,636256,218797,1206612,65757,7469,603353,0
0,-1,640998,219626,1190039,66091,7823,594872,0
0,-1,637483,219130,1180806,65896,7167,590378,0
0,-1,658271,223966,1262123,69265,8770,630902,0
0,-1,641481,219922,1503025,66111,8276,751111,0
0,-1,640980,220068,1238054,66188,7231,618758,0
0,-1,641563,219365,1176016,65810,7428,588050,0
0,-1,642410,220005,1284745,66098,7235,642422,0
0,-1,645119,220618,1413885,66116,7972,707302,0
0,-1,645070,221890,1294440,66980,8230,647220,0
0,-1,666317,224841,1291512,69415,8589,645758,0
0,-1,641484,220077,1331005,66105,8017,665530,0
0,-1,638629,219498,1193810,65931,7579,596869,0
0,-1,641943,219730,1378255,65821,8342,689164,0
0,-1,639393,219574,1263926,65869,7357,631931,0
0,-1,637213,218708,1255875,65499,7541,627957,0
0,-1,637642,218517,1209192,65479,7249,604649,0
0,-1,687847,232619,1345004,71652,8088,672491,0
0,-1,640985,219186,1282311,65700,7751,641105,0
0,-1,647234,219979,1209490,66133,7456,604814,0
0,-1,657749,223869,1422079,68559,8819,710938,0
0,-1,633253,218837,1233617,65238,7853,616718,0
0,-1,644870,220725,1187591,66933,7453,593977,0
0,-1,644219,220235,1172853,66734,7451,586466,0
0,-1,637208,218810,1310904,66143,6945,655501,0
0,-1,639137,218766,1165847,66111,7073,582977,0
0,-1,637497,219162,1243232,66145,6989,621682,0
0,-1,638167,218189,1237477,65888,6432,618865,0
0,-1,642509,218987,1159420,66158,7209,579757,0
0,-1,645402,220341,1193724,66754,7719,596810,0
0,-1,641387,218819,1256686,65945,6896,628397,0
0,-1,640521,218424,1236294,65817,7230,618136,0
0,-1,641728,219679,1213278,66545,8533,606399,0
0,-1,647815,220198,1196934,66627,7323,598456,0
0,-1,646979,221764,1197726,67345,8184,599130,0
0,-1,646882,221263,1208090,67135,7541,603934,0
0,-1,645632,220430,1326418,66459,8242,663210,0
0,-1,644068,219533,1322711,66229,8936,661257,0
0,-1,641926,219568,1264128,66294,7690,632125,0
0,-1,648897,220555,1370956,66634,8077,685524,0
0,-1,649138,221254,1214549,66994,7277,607358,0
0,-1,643621,220527,1226581,66760,7287,613356,0
0,-1,642450,218761,1206273,66041,7320,603212,0
0,-1,643974,218649,1191454,66196,7459,595780,0
0,-1,637677,218531,1151739,66131,6757,575972,0
0,-1,636929,218624,1209746,66149,7003,604922,0
1,-1,635527,218363,1288816,65626,7140,644422,0
1,-1,643708,221693,1302646,66850,8275,651163,2
1,-1,638162,218811,1202539,65719,7535,601231,0
1,-1,637452,219246,1195227,65891,6775,597626,0
1,-1,639089,218481,1191051,65657,7401,595538,0
1,-1,640281,219359,1193940,65950,7631,596726,0
1,-1,641338,220072,1255280,66003,7366,627682,0
1,-1,658913,223420,1265098,69180,8275,632594,0
1,-1,643394,219053,1326114,65901,8243,662798,0
1,-1,641837,220846,1314027,66741,9287,656870,0
1,-1,637639,218993,1372709,65952,6490,686326,0
1,-1,639710,219646,1218047,65974,7215,609078,0
1,-1,659212,224243,1224522,69382,7790,612365,0
1,-1,640396,219545,1263648,65986,7765,631867,0
1,-1,644719,219965,1176458,66130,7944,588181,0
1,-1,637849,219635,1179908,66068,6619,590049,0
1,-1,635278,219041,1294912,65870,8057,647498,0
1,-1,640279,219787,1263622,66075,7561,631838,0
1,-1,644173,221233,1320102,66805,8297,660037,0
1,-1,644064,220694,1201009,66491,7988,600666,0
1,-1,645296,221262,1272596,66706,7463,636417,0
1,-1,665510,225949,1253535,69683,8779,626317,0
1,-1,660814,224482,1242015,69286,8333,620916,0
1,-1,642171,219637,1313282,65951,7571,656617,0
1,-1,637883,219096,1243969,65717,6809,621969,0
1,-1,635388,218714,1361002,65643,7996,680491,0
1,-1,643086,219080,1219718,65542,8388,609836,0
1,-1,638719,219106,1187011,65607,7894,593565,0
1,-1,639964,219055,1319077,65687,7617,659573,0
1,-1,641182,219155,1161033,65724,7972,580379,0
1,-1,639689,219048,1276045,65736,7343,638042,0
1,-1,639893,219287,1488280,65830,8780,743836,0
1,-1,641509,218445,1176067,65450,6672,587977,0
1,-1,636029,219039,1468125,65166,7932,734144,0
1,-1,633084,219165,1285184,65384,7798,642639,0
1,-1,638941,218655,1280583,66000,7985,640391,0
1,-1,639893,218992,1268719,66198,7794,634376,0
1,-1,635883,218508,1351625,66016,7871,675849,0
1,-1,638564,219011,1107739,66158,6639,553928,0
1,-1,663012,228350,1316975,68948,8657,658537,0
1,-1,638453,217935,1243433,65762,7428,621758,0
1,-1,640854,218743,1188901,66111,7783,594502,0
1,-1,639212,218210,1140577,65805,7592,570311,0
1,-1,646127,221088,1157004,67001,6744,578559,0
1,-1,642473,218877,1202233,65954,7617,601046,0
1,-1,644908,221762,1151947,67372,7929,575810,0
1,-1,645347,219617,1275772,66486,7944,637688,0
1,-1,664278,224664,1322299,69844,9495,661353,0
1,-1,643397,220443,1286491,66660,8285,643047,0
1,-1,650208,221532,1246420,67028,8870,623074,0
1,-1,647972,221415,1218834,67095,7713,609482,0
1,-1,639518,219345,1201608,66186,7646,600823,0
1,-1,645798,219792,1273087,66342,7935,636469,0
1,-1,648512,220965,1313326,66694,8591,656650,0
1,-1,643900,220259,1241897,66465,8189,620930,0
1,-1,644164,219487,1279496,66161,7767,639792,0
1,-1,643514,219086,1323926,66267,7888,662025,0
1,-1,636383,218534,1271993,66163,7374,636050,0
1,-1,656985,223118,1290185,69457,7764,645135,0
1,-1,639628,220155,1270561,66730,8373,635432,0
2,-1,645571,222864,1262582,66972,6704,631301,0
2,-1,644470,220639,1286553,66455,7648,643274,0
2,-1,637458,218623,1351937,65654,7966,675903,2
2,-1,633142,218046,1177879,65499,6797,588948,0
2,-1,639007,218926,1435438,65784,8800,718090,0
2,-1,639765,219454,1199874,66001,7616,599959,0
2,-1,638693,219474,1196712,65878,6992,598403,0
2,-1,638441,218715,1283270,65819,7613,641686,0
2,-1,641290,218887,1405223,65868,8101,702677,0
2,-1,640664,219670,1237834,66131,8395,618882,0
2,-1,637320,219280,1283010,65983,7372,641362,0
2,-1,661913,224025,1293346,69261,8039,646682,0
2,-1,638191,219116,1181199,65849,7684,590647,0
2,-1,659656,224396,1217646,69421,7849,608805,0
2,-1,643578,220314,1212548,66492,8013,606213,0
2,-1,637830,219612,1410758,65993,8133,705237,0
2,-1,637368,219839,1272282,66092,7624,636037,0
2,-1,645392,221698,1275262,67063,7544,637738,0
2,-1,661240,224303,1226250,69381,8303,613098,0
2,-1,643111,219503,1192370,65824,6503,596195,0
2,-1,644165,219684,1299406,66020,8129,649747,0
2,-1,643984,221395,1237862,66628,8372,618906,0
2,-1,650550,221300,1303144,66602,7943,651499,0
2,-1,640099,219310,1231661,65800,6867,615763,0
2,-1,645949,221057,1415472,66602,8216,707708,0
2,-1,651074,222113,1286255,67084,8193,643197,0
2,-1,646966,220372,1304302,66207,7977,651961,0
2,-1,642864,221354,1187247,66676,7858,593725,0
2,-1,642369,220738,1329800,66540,7359,664223,0
2,-1,639050,218750,1309221,65548,7576,654659,0
2,-1,642262,219646,1253241,65891,8026,626610,0
2,-1,638169,218914,1160681,65681,7235,580356,0
2,-1,641874,218983,1273404,65499,6777,636740,0
2,-1,637353,220659,1454452,65940,8579,727508,0
2,-1,638225,220925,1167801,66088,7498,583858,0
2,-1,639556,218889,1247263,66067,7846,623696,0
2,-1,637766,218587,1229364,66003,8358,614728,0
2,-1,641332,218724,1178203,66057,7465,589145,0
2,-1,644536,219649,1367191,66393,9434,683629,0
2,-1,641497,218927,1197972,66173,7690,598979,0
2,-1,638380,218579,1196437,66046,7177,598276,0
2,-1,644072,220156,1127684,66693,6715,563770,0
2,-1,643223,219034,1236920,66113,7998,618439,0
2,-1,660325,223239,1338543,69183,8155,669340,0
2,-1,642641,218910,1273925,66083,7880,637027,0
2,-1,659381,224138,1241702,69689,9060,620521,0
2,-1,644235,219482,1281765,66389,7689,640895,0
2,-1,646208,221149,1239922,66873,8282,619999,0
2,-1,642459,220484,1147524,66629,7394,573722,0
2,-1,643328,219754,1276297,66188,7965,638086,0
2,-1,645513,220805,1290548,66682,8375,645331,0
2,-1,643102,220098,1124566,66454,7627,562341,0
2,-1,644485,219874,1198763,66400,6731,599449,0
2,-1,671664,229099,1214573,69117,7784,607295,0
2,-1,647487,220884,1147072,66893,7295,573617,0
2,-1,642690,219323,1213310,66150,7423,606447,0
2,-1,644376,218896,1167381,66181,7576,583746,0
2,-1,634621,218267,1169231,66046,6588,584679,0
2,-1,641799,218860,1329002,66250,7204,664551,0
2,-1,641634,219034,1274676,66166,7171,637364,0
3,-1,669123,229643,1275374,68442,7244,637644,0
3,-1,639770,219121,1379988,65749,8043,690184,0
3,-1,634703,218926,1181500,65883,7249,590716,2
3,-1,633873,218661,1162742,65688,7247,581351,0
3,-1,660291,223854,1267237,69195,8620,633545,0
3,-1,641670,218716,1266336,65622,9152,633245,0
3,-1,646023,220521,1201707,66179,7906,600955,0
3,-1,638290,219141,1184606,65956,6910,592197,0
3,-1,645179,220619,1356124,66739,9106,677666,0
3,-1,637586,218819,1141042,65894,7638,570518,0
3,-1,636509,219320,1274017,66004,7506,637059,0
3,-1,640371,220606,1264982,66566,7026,632556,0
3,-1,638867,219404,1138753,65935,6996,569422,0
3,-1,636435,219314,1253571,65898,7914,626834,0
3,-1,641389,219021,1278189,65833,7703,639129,0
3,-1,638320,218619,1201864,65776,6927,600649,0
3,-1,648332,221438,1349571,66840,8240,674851,0
3,-1,661770,223733,1252004,69133,7421,625984,0
3,-1,640226,220067,1301968,66216,7902,650734,0
3,-1,643557,219976,1301474,66024,6611,650781,0
3,-1,645597,220297,1358879,66257,7945,679303,0
3,-1,667864,229639,1211187,68820,8050,605504,0
3,-1,644970,220080,1313284,65991,8138,656604,0
3,-1,641203,219535,1323612,65921,7798,661885,0
3,-1,641762,219755,1515667,66017,9042,757828,0
3,-1,667573,224484,1223427,69327,8657,611551,0
3,-1,645975,220212,1197987,65981,7820,599004,0
3,-1,659177,224438,1193324,69181,8734,596540,0
3,-1,658364,223812,1306051,69038,8283,652922,0
3,-1,637216,218969,1248929,65614,7356,624500,0
3,-1,643643,219991,1177419,65981,6975,588625,0
3,-1,637974,218865,1314362,65609,7852,657184,0
3,-1,665899,224160,1377120,69113,8142,688525,0
3,-1,654948,223946,1333258,68617,9259,666484,0
3,-1,638110,218555,1271848,65017,7756,635956,0
3,-1,639079,219030,1165831,66176,7814,582947,0
3,-1,640887,219612,1310969,66383,9028,655032,0
3,-1,642894,219156,1266382,66244,7628,633156,0
3,-1,639646,217911,1166702,65755,7195,583399,0
3,-1,646083,221223,1212706,67152,7511,606409,0
3,-1,659163,223521,1495696,69415,8713,747611,0
3,-1,641440,218771,1298808,66053,7907,649457,0
3,-1,646492,221034,1220826,67094,7614,610501,0
3,-1,640414,218986,1190605,66082,6782,595460,0
3,-1,665287,224360,1402547,69627,8611,701247,0
3,-1,640810,219543,1204667,66399,8470,602261,0
3,-1,649501,221440,1205144,67349,7230,602625,0
3,-1,644934,219874,1344349,66426,8605,672213,0
3,-1,641805,220261,1224862,66543,8371,612329,0
3,-1,671739,225880,1341060,70545,9440,670437,0
3,-1,665555,224332,1490698,69638,8498,745357,0
3,-1,640563,219432,1209377,66206,7984,604682,0
3,-1,644833,219616,1310109,66244,7944,655098,0
3,-1,665754,224715,1268589,69788,8318,634330,0
3,-1,645126,220043,1129198,66388,7518,564656,0
3,-1,647277,221089,1190961,66911,8023,595509,0
3,-1,646807,220533,1242057,67077,7506,621094,0
3,-1,657995,223930,1302050,69726,8319,650889,0
3,-1,640013,218763,1307129,66225,6917,653537,0
3,-1,646077,221186,1350980,67191,7707,675484,0
4,-1,675952,232088,1183287,69204,7452,591663,0
4,-1,638634,218867,1222346,65677,7807,611225,0
4,-1,634974,217897,1152750,65564,6633,576398,0
4,-1,634397,219514,1151248,66039,6780,575696,2
4,-1,636301,218439,1176096,65658,6747,588051,0
4,-1,643910,219930,1299846,66043,8692,649855,0
4,-1,642804,219647,1279860,65849,7339,640098,0
4,-1,642091,220772,1305419,66717,7853,652766,0
4,-1,640212,219057,1188197,65911,7947,593976,0
4,-1,641757,220943,1268779,66791,8825,634272,0
4,-1,636050,219014,1270324,65900,7639,635214,0
4,-1,638060,218734,1246452,65733,7463,623276,0
4,-1,643097,221024,1202355,66697,7530,601227,0
4,-1,646348,221001,1358300,66769,8135,679175,0
4,-1,660266,223776,1222646,69237,8070,611079,0
4,-1,639291,219766,1283695,66095,8113,641827,0
4,-1,665254,224625,1249647,69465,8251,624853,0
4,-1,639218,219241,1221200,65890,6540,610647,0
4,-1,637831,219220,1185021,65893,6730,592554,0
4,-1,645947,221175,1341569,66604,7001,670858,0
4,-1,650524,222764,1289328,67423,8178,644720,0
4,-1,638525,219412,1236184,65673,8753,617889,0
4,-1,645950,220299,1191384,66120,7720,595646,0
4,-1,642619,220491,1294849,66423,7779,647370,0
4,-1,639156,219255,1193249,65780,7376,596497,0
4,-1,643411,219163,1299518,65755,8578,649761,0
4,-1,642347,218894,1299647,65505,8538,649768,0
4,-1,640376,219118,1185443,65599,7654,592759,0
4,-1,634264,218002,1273504,65272,7681,636807,0
4,-1,643412,219438,1320772,65824,7893,660420,0
4,-1,643714,221068,1219091,66565,7197,609601,0
4,-1,646373,221384,1249285,66755,7019,624597,0
4,-1,642895,219123,1197370,65702,6757,598751,0
4,-1,636334,218857,1154897,65108,6404,577492,0
4,-1,657407,223548,1300785,68484,8026,650302,0
4,-1,642576,220869,1184060,67046,8029,592349,0
4,-1,637092,218454,1324005,65974,9819,661573,0
4,-1,639188,218501,1239864,65979,7112,619999,0
4,-1,662611,223245,1260285,69385,8282,630175,0
4,-1,637905,219387,1284327,66213,7741,642199,0
4,-1,637476,218305,1120233,65913,7642,560257,0
4,-1,640429,218657,1234935,66095,7126,617528,0
4,-1,660725,223369,1226975,69365,8725,613454,0
4,-1,640574,219407,1245634,66151,7032,622911,0
4,-1,638861,218346,1300161,65831,7609,650143,0
4,-1,639423,218725,1215458,66090,8088,607503,0
4,-1,664560,224115,1404623,69750,8776,702340,0
4,-1,646591,221291,1502088,67115,8548,751019,0
4,-1,644347,221817,1169208,67441,8065,584565,0
4,-1,644902,220478,1205796,66441,7593,602877,0
4,-1,641485,219697,1295387,66288,7667,647647,0
4,-1,645606,221774,1195667,67286,8211,597891,0
4,-1,646737,220361,1268089,66550,7785,634098,0
4,-1,646014,219364,1215056,66224,8428,607574,0
4,-1,641039,218858,1189386,65959,7424,594721,0
4,-1,641266,218920,1157422,65957,7522,578630,0
4,-1,641717,218712,1284733,66156,7697,642389,0
4,-1,637296,219666,1327195,66737,6986,663673,0
4,-1,641467,219448,1248465,66485,7600,624279,0
4,-1,639021,218568,1181720,66064,7147,590940,0
5,-1,713196,243177,1287836,74374,8099,643705,0
5,-1,637269,218801,1270039,65643,7954,634990,0
5,-1,635601,218118,1166338,65497,6974,583092,0
5,-1,636649,219057,1250886,65896,7120,625434,2
5,-1,636277,218699,1220188,65684,6608,610126,0
5,-1,638657,218343,1243465,65589,7909,621691,0
5,-1,641491,219226,1212502,65713,7211,606300,0
5,-1,639098,219310,1187837,66077,7587,593969,0
5,-1,640935,218944,1313515,65906,8510,656803,0
5,-1,638996,219376,1288149,66079,7398,644011,0
5,-1,656633,223325,1206644,69136,8247,603377,0
5,-1,638419,218636,1254281,65623,7055,627242,0
5,-1,637985,219434,1121379,65977,7266,560747,0
5,-1,642476,219759,1378708,66094,7615,689402,0
5,-1,636941,218148,1278140,65631,7849,639066,0
5,-1,637019,219255,1250491,65905,7069,625096,0
5,-1,641604,219796,1304963,66144,7554,652475,0
5,-1,640374,219528,1231154,66040,6806,615656,0
5,-1,664316,228782,1314567,68767,7440,657302,0
5,-1,641348,219715,1283267,65855,6982,641695,0
5,-1,643135,220225,1424176,66289,7622,712129,0
5,-1,641272,220606,1312368,66109,9461,656225,0
5,-1,646281,220598,1373008,66192,8073,686556,0
5,-1,639983,219356,1176573,65881,7781,588289,0
5,-1,645577,221666,1295103,66854,8054,647548,0
5,-1,641468,218958,1258143,65832,8148,628854,0
5,-1,644279,219689,1244246,65852,8271,621742,0
5,-1,641473,219668,1284551,65823,7933,642322,0
5,-1,646009,220127,1291180,66062,7772,645632,0
5,-1,647505,220699,1275990,66412,8303,639133,0
5,-1,640003,218528,1232702,65548,7512,616319,0
5,-1,665022,223129,1308078,68781,8209,653948,0
5,-1,644013,219971,1263491,66020,6951,631789,0
5,-1,635385,219078,1365326,65230,6881,682709,0
5,-1,637642,218912,1236222,65143,6853,618125,0
5,-1,658990,223666,1383274,69471,8697,691598,0
5,-1,637694,219216,1306275,66261,7991,653273,0
5,-1,641053,218890,1380773,66109,7836,690429,0
5,-1,639505,218400,1155668,66028,7551,577891,0
5,-1,637345,218400,1204706,65958,7319,602288,0
5,-1,640586,219327,1182004,66198,7715,591054,0
5,-1,643325,220149,1189931,66752,7305,595281,0
5,-1,640146,218823,1132681,66117,7257,566399,0
5,-1,643728,220052,1161585,66593,7177,580944,0
5,-1,639395,218836,1242392,66024,7498,621166,0
5,-1,639946,219251,1241607,66315,8137,620663,0
5,-1,645534,220107,1250929,66627,7564,625554,0
5,-1,641256,219529,1167377,66259,7235,583598,0
5,-1,663522,224754,1254437,69849,9341,627125,0
5,-1,643112,220028,1319651,66279,8264,659794,0
5,-1,643332,220128,1320852,66483,7984,660449,0
5,-1,639386,219815,1140609,66302,7640,570297,0
5,-1,650047,221645,1186358,67193,7667,593260,0
5,-1,645859,219958,1173813,66460,7576,586934,0
5,-1,640736,219043,1131351,66019,7390,565725,0
5,-1,646358,219329,1381261,66170,9852,690707,0
5,-1,644632,218907,1189482,66246,7217,594878,0
5,-1,636171,219446,1344526,66461,7680,672162,0
5,-1,665764,228017,1213276,68990,6552,606697,0
5,-1,641236,219695,1311127,66635,6945,655610,0
6,-1,689673,236868,1170411,70639,7241,585089,0
6,-1,636368,219025,1346543,65712,8327,673403,0
6,-1,637206,219343,1234195,66007,7540,617003,0
6,-1,635665,218896,1426008,65787,7992,712961,0
6,-1,635324,218527,1145320,65649,7275,572678,2
6,-1,638027,218350,1204251,65680,7828,602122,0
6,-1,641427,219580,1267719,65884,7324,633914,0
6,-1,637383,219054,1263242,65922,7870,631680,0
6,-1,637564,217513,1404045,65548,8458,701910,0
6,-1,639288,219890,1320453,66161,8169,660205,0
6,-1,636655,219036,1336859,65961,7687,668480,0
6,-1,644787,221476,1260144,66999,6927,630151,0
6,-1,642325,221062,1270847,66728,7369,635497,0
6,-1,641085,219470,1276376,65952,7663,638235,0
6,-1,642623,220389,1291198,66534,7946,645555,0
6,-1,637705,219855,1301172,66094,7613,650747,0
6,-1,639272,219323,1244130,65886,6795,622116,0
6,-1,643601,221428,1283389,66911,7342,641748,0
6,-1,643311,220516,1209823,66347,6777,604966,0
6,-1,646008,221451,1247653,66776,7198,623899,0
6,-1,644059,220701,1345051,66577,7909,672603,0
6,-1,661397,225232,1381598,69462,9922,690754,0
6,-1,648500,222098,1441905,66946,8621,720500,0
6,-1,637061,219027,1253927,65712,8132,626970,0
6,-1,661516,224127,1232768,69192,8225,616326,0
6,-1,640743,218438,1224642,65595,8675,612331,0
6,-1,642480,219189,1303631,65596,8138,651755,0
6,-1,641058,219984,1225123,65944,7111,612605,0
6,-1,642092,218947,1267977,65672,8192,633982,0
6,-1,641084,218570,1349062,65444,8656,674579,0
6,-1,638976,218047,1302639,65325,7846,651328,0
6,-1,643535,218745,1260374,65637,7936,630140,0
6,-1,643751,220104,1148462,66191,6542,574301,0
6,-1,631844,218118,1261049,64851,7093,630568,0
6,-1,639188,219939,1196770,65663,7276,598392,0
6,-1,637443,218655,1184602,66052,8578,592358,0
6,-1,641241,220613,1210667,66908,8117,605355,0
6,-1,642741,219835,1335033,66757,8731,667578,0
6,-1,640681,218949,1190741,66116,7327,595397,0
6,-1,641074,220199,1252015,66769,7296,625682,0
6,-1,638327,218884,1195814,66121,7552,597892,0
6,-1,647667,220976,1238064,67210,7409,618994,0
6,-1,642100,220135,1166254,66551,7577,583196,0
6,-1,639249,218822,1310927,66020,7801,655525,0
6,-1,641127,219791,1337539,66259,8028,668773,0
6,-1,641420,220165,1328402,66558,7674,664166,0
6,-1,648329,221582,1223108,67316,7793,611304,0
6,-1,641243,220080,1330331,66565,8910,665214,0
6,-1,641766,219856,1201825,66411,7632,600866,0
6,-1,646179,221337,1324950,66937,8074,662241,0
6,-1,641746,219482,1225672,66228,7707,612779,0
6,-1,639267,219559,1198547,66248,8511,599305,0
6,-1,649387,221629,1310610,66975,7626,655139,0
6,-1,644245,219571,1311632,66343,8177,655877,0
6,-1,645545,220525,1159971,66741,7533,580022,0
6,-1,644727,219053,1147630,66025,7506,573856,0
6,-1,646956,220538,1260073,67049,7503,630114,0
6,-1,632935,218299,1174350,65996,6471,587225,0
6,-1,635048,218339,1156966,66116,6707,578538,0
6,-1,641958,219762,1280989,66441,7192,640554,0
7,-1,691044,238027,1253558,71131,7569,626690,0
7,-1,639288,218765,1310185,65576,8534,655106,0
7,-1,634831,218827,1131280,65770,6366,565543,0
7,-1,635568,217807,1159506,65353,6851,579728,0
7,-1,639018,220599,1248000,66667,8340,623975,2
7,-1,636913,218256,1361559,65682,8340,680805,0
7,-1,641778,220367,1338567,66280,8259,669360,0
7,-1,645518,219070,1298681,65952,7476,649354,0
7,-1,642893,219874,1372334,66166,8177,685770,0
7,-1,641593,221139,1366987,66888,8433,683479,0
7,-1,638126,219938,1310077,66265,7237,655020,0
7,-1,640360,219950,1294122,66158,7718,647077,0
7,-1,635793,218844,1318368,65750,7219,659244,0
7,-1,644420,221562,1267533,66946,7289,633832,0
7,-1,640333,219314,1363890,65901,7644,681979,0
7,-1,635424,219019,1236787,65813,7145,618340,0
7,-1,642298,220452,1305490,66535,8466,652755,0
7,-1,640419,219252,1239851,65889,7379,619911,0
7,-1,645780,221580,1287034,66948,7999,643601,0
7,-1,661344,224220,1216687,69179,7493,608191,0
7,-1,644170,220912,1205337,66531,6849,602726,0
7,-1,647909,221747,1630907,66530,9638,814469,0
7,-1,664144,224044,1274425,69063,9421,637205,0
7,-1,643022,219243,1431857,65750,9304,715678,0
7,-1,638039,219171,1174681,65756,7196,587399,0
7,-1,640885,218809,1221354,65780,7841,610536,0
7,-1,644920,219809,1198543,65855,8356,599313,0
7,-1,640124,219448,1273810,65718,7749,636956,0
7,-1,642056,219006,1160720,65719,7316,580470,0
7,-1,641402,219047,1276069,65712,7879,638073,0
7,-1,639838,218958,1279583,65678,7176,639742,0
7,-1,644695,219289,1265658,65801,8208,632543,0
7,-1,644727,220060,1233263,66027,7405,616680,0
7,-1,635021,218645,1257629,65038,6926,628863,0
7,-1,637660,219517,1253404,65380,7020,626729,0
7,-1,637978,218551,1127315,66076,8002,563705,0
7,-1,636325,219088,1299810,66223,7560,650005,0
7,-1,660908,223367,1336501,69427,8501,668214,0
7,-1,641088,219139,1276174,66186,7872,638133,0
7,-1,643302,221417,1185514,67301,6903,592548,0
7,-1,637718,218701,1147920,66014,6958,574005,0
7,-1,664387,223567,1422251,69478,8707,711023,0
7,-1,640604,218695,1184528,66090,7377,592309,0
7,-1,637966,218763,1163368,65973,7175,581650,0
7,-1,648575,220698,1264013,66864,7931,632063,0
7,-1,639816,219559,1376078,66260,8787,688695,0
7,-1,643968,219905,1298967,66623,6901,649526,0
7,-1,646195,220323,1205737,66632,7355,602760,0
7,-1,644549,221367,1158377,67147,7677,579044,0
7,-1,642624,220349,1359055,66431,8507,679413,0
7,-1,639933,219194,1288056,66127,8036,643692,0
7,-1,642707,219280,1185149,66213,8294,592577,0
7,-1,644825,220325,1360263,66520,7881,680165,0
7,-1,643000,219783,1549579,66399,8978,774850,0
7,-1,643106,219788,1200651,66255,6857,600360,0
7,-1,665516,223629,1238030,69341,9186,618970,0
7,-1,640132,218795,1192909,66086,7405,596245,0
7,-1,645249,218860,1225977,66285,7018,613046,0
7,-1,639027,219804,1389401,66773,7149,694672,0
7,-1,640728,218400,1303629,65965,8702,651441,0
8,-1,689150,237474,1238887,70771,7143,619372,0
8,-1,643948,219857,1394526,66020,9034,697073,0
8,-1,654782,223125,1200948,69018,7877,600439,0
8,-1,647015,221720,1283896,66938,7497,641912,0
8,-1,638433,219654,1531116,66167,9466,765371,2
8,-1,638671,219022,1425931,65894,8070,712956,0
8,-1,666545,229115,1489415,68642,8654,744759,0
8,-1,646642,220444,1394002,66651,8365,697060,0
8,-1,643275,220436,1404009,66690,8561,702012,0
8,-1,634524,219098,1382392,65930,8783,691167,0
8,-1,635174,219221,1184921,66030,6613,592473,0
8,-1,641132,220324,1259976,66499,7364,630052,0
8,-1,636395,219611,1280686,66061,6763,640384,0
8,-1,643525,220835,1215857,66631,7764,607980,0
8,-1,640791,219886,1327508,66128,7859,663923,0
8,-1,659746,224333,1224761,69377,8570,612425,0
8,-1,640011,219214,1303899,65855,7963,651889,0
8,-1,646302,220981,1307507,66686,8005,653579,0
8,-1,659767,223882,1224899,69196,8286,612391,0
8,-1,646204,221238,1319723,66602,8220,659935,0
8,-1,644868,220560,1174021,66384,7209,587026,0
8,-1,641021,219685,1255773,65774,9025,627924,0
8,-1,647169,221065,1309751,66364,8650,654759,0
8,-1,641950,219344,1365619,65871,8930,682222,0
8,-1,642325,220096,1265108,66038,7630,632455,0
8,-1,663036,224222,1269326,69305,9144,634654,0
8,-1,642840,219079,1311211,65487,8784,655704,0
8,-1,640795,219812,1229080,65840,7224,614533,0
8,-1,640468,218493,1275325,65500,7823,637403,0
8,-1,648009,221670,1237905,66889,8083,619018,0
8,-1,637345,219119,1259640,65694,7606,629776,0
8,-1,641927,218646,1356034,65647,8910,677472,0
8,-1,649361,221715,1145473,66851,7062,572824,0
8,-1,640134,221326,1154170,66235,6897,577156,0
8,-1,632514,217568,1194889,64791,7403,597455,0
8,-1,641750,220695,1241016,66932,8885,620587,0
8,-1,635840,218619,1262794,66040,8208,631436,0
8,-1,637947,218554,1187193,66014,6719,593653,0
8,-1,660523,223354,1319949,69402,8205,659942,0
8,-1,643197,220200,1304189,66591,8257,652092,0
8,-1,637871,219165,1169287,66165,7380,584681,0
8,-1,642244,219094,1202373,66187,6664,601126,0
8,-1,641096,218802,1137511,66067,7379,568797,0
8,-1,640079,219300,1349792,66130,7765,674940,0
8,-1,665469,223385,1427175,69268,8919,713628,0
8,-1,660717,223826,1370105,69648,9510,684884,0
8,-1,644346,219681,1298515,66510,8190,649304,0
8,-1,647114,220825,1345786,66783,8563,672945,0
8,-1,639864,220020,1382412,66459,8056,691243,0
8,-1,644175,220303,1189823,66426,7449,594878,0
8,-1,646609,219993,1203415,66453,8033,601635,0
8,-1,645691,220804,1148599,66909,8034,574264,0
8,-1,671290,226084,1351005,70198,8643,675480,0
8,-1,643948,219665,1277296,66317,8171,638590,0
8,-1,640072,218972,1330966,66064,8575,665530,0
8,-1,644539,219644,1115041,66253,6962,557566,0
8,-1,642093,219625,1258692,66498,7282,629413,0
8,-1,649624,220957,1303082,67139,7454,651574,0
8,-1,636645,218138,1171995,66028,7183,585815,0
8,-1,645493,220865,1291524,67045,8986,645741,0
9,-1,694813,236757,1227398,70508,7928,613734,0
9,-1,639817,218470,1293344,65445,8562,646794,0
9,-1,633240,218696,1111932,65767,6805,555944,0
9,-1,660068,223238,1273765,69023,8088,636876,0
9,-1,642170,220840,1261440,66810,7664,630752,0
9,-1,639617,219220,1274855,66034,8196,637415,2
9,-1,639504,219441,1435401,65820,8988,716904,0
9,-1,664148,223861,1283861,69354,8725,641715,0
9,-1,660905,223337,1238274,69097,8397,619148,0
9,-1,633043,218763,1318844,65765,8140,659292,0
9,-1,633180,218811,1224122,65895,8340,612185,0
9,-1,635090,218952,1203584,65805,6727,601830,0
9,-1,638510,220835,1279216,66643,7818,639655,0
9,-1,638901,219363,1143349,65975,7230,571705,0
9,-1,638470,219030,1214223,65819,7118,607164,0
9,-1,666996,229138,1234428,68888,7383,617181,0
9,-1,642321,219912,1257129,66177,7689,628509,0
9,-1,638655,218821,1304812,65772,7495,652260,0
9,-1,641521,219731,1221438,65999,7335,610643,0
9,-1,642512,219541,1362348,65821,8039,680680,0
9,-1,646257,219670,1266823,66058,7864,633413,0
9,-1,646352,221706,1323057,66710,9005,661465,0
9,-1,645540,220974,1318159,66513,8712,659104,0
9,-1,639268,218892,1305107,65616,8489,652429,0
9,-1,659398,223474,1255629,68950,7852,627674,0
9,-1,643283,219041,1151655,65813,7788,575884,0
9,-1,663065,224087,1242966,69002,8994,621431,0
9,-1,661214,224548,1248725,69217,7750,624316,0
9,-1,647176,221566,1262071,66810,7546,631085,0
9,-1,664398,223857,1330406,69020,9134,665050,0
9,-1,663501,224436,1248631,69277,7991,624328,0
9,-1,641306,218765,1429479,65598,9415,714691,0
9,-1,643691,219910,1207869,65997,7156,603921,0
9,-1,653802,223446,1314627,68440,7808,657232,0
9,-1,642790,221157,1209500,66279,7245,604702,0
9,-1,655713,223366,1297121,68508,8375,648612,0
9,-1,639464,218501,1206031,65988,8123,603154,0
9,-1,639148,218230,1245264,65903,7105,622673,0
9,-1,640350,219075,1235406,66163,7955,617729,0
9,-1,637846,218668,1269737,66030,8451,634919,0
9,-1,641968,220245,1139486,66798,8004,569814,0
9,-1,643049,219984,1185085,66625,7109,592577,0
9,-1,640006,218866,1138781,66137,7087,569451,0
9,-1,639807,219356,1318764,66139,8539,659175,0
9,-1,647030,220582,1181714,66775,7532,590876,0
9,-1,638919,219018,1264143,66289,8004,632011,0
9,-1,649574,221682,1189236,67468,7147,594770,0
9,-1,643558,220301,1220662,66618,7752,610369,0
9,-1,640450,220516,1211338,66687,7648,605615,0
9,-1,641746,219462,1289885,66103,8018,644890,0
9,-1,646989,220411,1340348,66507,7608,670256,0
9,-1,643416,219906,1205061,66348,8321,602648,0
9,-1,646699,220078,1289031,66351,7493,644560,0
9,-1,650309,222295,1197294,67538,7690,598572,0
9,-1,640181,219000,1141384,66034,7175,570725,0
9,-1,641067,218763,1192058,65951,7691,596080,0
9,-1,643001,218676,1299943,66068,7224,650014,0
9,-1,644883,218451,1291173,66147,8162,645651,0
9,-1,637828,218524,1183487,66128,7233,591798,0
9,-1,639618,218830,1255953,66161,7269,628024,0
10,-1,699403,238907,1324048,71481,8666,662058,0
10,-1,661355,223583,1292778,69032,9556,645768,0
10,-1,638165,219502,1129655,65973,7232,564736,0
10,-1,638331,218796,1182452,65793,7304,591221,0
10,-1,639068,218886,1212636,65894,7376,606318,0
10,-1,643330,220220,1317391,66285,7303,658747,2
10,-1,662228,224582,1396606,69273,9290,698247,0
10,-1,641963,219204,1187772,66011,6511,593979,0
10,-1,640177,218948,1243054,65882,7348,621577,0
10,-1,638662,219516,1305969,66113,8351,653032,0
10,-1,631340,218524,1232201,65754,8060,615558,0
10,-1,638330,219368,1270389,65913,7234,635224,0
10,-1,638009,219156,1164321,65908,6975,582163,0
10,-1,638898,219548,1179387,65983,7047,589778,0
10,-1,643108,221244,1280415,66785,7743,640759,0
10,-1,639651,220165,1194959,66356,7616,597514,0
10,-1,645131,221498,1355794,66909,8002,677912,0
10,-1,644870,220746,1337880,66627,8636,668960,0
10,-1,640824,220567,1332376,66526,7208,666057,0
10,-1,642774,219902,1255541,65998,7892,627873,0
10,-1,646897,220452,1315980,66348,7143,658132,0
10,-1,640990,220634,1434169,66123,9425,717465,0
10,-1,643464,219733,1331888,65976,8094,665720,0
10,-1,665621,224789,1307077,69459,8903,653273,0
10,-1,638704,218953,1150332,65720,7407,575106,0
10,-1,642553,219816,1312195,66247,8094,655962,0
10,-1,642652,219796,1270810,65818,8772,635315,0
10,-1,640447,219971,1291943,65922,7570,646003,0
10,-1,663607,224153,1235688,69140,8024,617818,0
10,-1,642585,219584,1300734,65868,7893,650163,0
10,-1,639668,219251,1337656,65721,7327,668791,0
10,-1,640856,219028,1256127,65713,7892,627976,0
10,-1,643449,220206,1164883,66300,6969,582388,0
10,-1,633286,218646,1323846,65098,6730,661975,0
10,-1,634788,218540,1132232,65049,6838,566118,0
10,-1,632721,218317,1274818,65059,7642,637457,0
10,-1,660182,223214,1390516,69383,9278,695185,0
10,-1,644776,220732,1263844,67079,7099,631694,0
10,-1,639336,218794,1378539,66137,8319,689172,0
10,-1,642461,220691,1144375,67015,7890,572260,0
10,-1,639223,219202,1187936,66186,8136,593926,0
10,-1,641902,218815,1269660,66119,7100,634921,0
10,-1,640323,218960,1231501,66096,7746,615790,0
10,-1,642562,220923,1240189,66948,7996,620174,0
10,-1,644144,219423,1316846,66177,7809,658403,0
10,-1,640558,220091,1266998,66520,7692,633511,0
10,-1,667176,224937,1357221,70055,8316,678604,0
10,-1,641595,219594,1267020,66297,8053,633676,0
10,-1,638689,220183,1312199,66528,8267,656112,0
10,-1,645903,220427,1319928,66445,7443,659967,0
10,-1,645707,219786,1333999,66364,8742,666999,0
10,-1,640501,219448,1296957,66252,8883,648616,0
10,-1,647580,221111,1263169,66802,7393,631635,0
10,-1,643894,220402,1263602,66639,8064,631842,0
10,-1,643734,220837,1147586,66937,7539,573822,0
10,-1,642839,218883,1132561,65936,7655,566341,0
10,-1,646999,220531,1498549,66944,9054,749426,0
10,-1,644385,218384,1234704,66093,7347,617404,0
10,-1,657556,223780,1362438,69680,8317,681266,0
10,-1,640800,218666,1127935,66131,7197,564071,0
11,-1,698074,238313,1354133,71282,8771,677044,0
11,-1,639826,219042,1359599,65862,9405,679615,0
11,-1,654867,223255,1319555,68924,8535,659664,0
11,-1,637529,218497,1272396,65617,7124,636162,0
11,-1,637358,218606,1427767,65739,8539,713893,0
11,-1,640050,220032,1324458,66041,8526,662851,2
11,-1,638783,219514,1371736,65835,7792,685794,0
11,-1,640470,219138,1207746,65885,7412,604036,0
11,-1,641869,219927,1200505,66242,7631,600305,0
11,-1,639112,220361,1326004,66380,7992,663039,0
11,-1,643423,220189,1248932,66523,8486,624787,0
11,-1,639854,219913,1325542,66095,7151,662824,0
11,-1,639620,219550,1268279,65927,6919,634178,0
11,-1,638992,219123,1134003,65875,6947,567069,0
11,-1,639370,219484,1261849,65960,7114,630869,0
11,-1,637653,219646,1142569,66072,6837,571332,0
11,-1,662937,224781,1248436,69479,8127,624125,0
11,-1,639902,219707,1206894,66090,6708,603517,0
11,-1,638708,219473,1274513,66006,6820,637257,0
11,-1,637503,217955,1253079,65351,7172,626585,0
11,-1,645175,220231,1170651,66236,7167,585374,0
11,-1,642032,220464,1362685,66070,8862,681095,0
11,-1,640617,219677,1314087,65985,7786,657033,0
11,-1,641044,219353,1305532,65840,8493,652829,0
11,-1,638818,219483,1192034,65893,7466,596070,0
11,-1,642827,219717,1164611,66072,6934,582257,0
11,-1,640551,218677,1190491,65393,8288,595198,0
11,-1,638857,219582,1176322,65745,7294,588281,0
11,-1,638400,218843,1286193,65581,7677,642968,0
11,-1,668734,229226,1290940,68949,7375,645546,0
11,-1,637886,218526,1236123,65517,6888,618095,0
11,-1,643426,219174,1171194,65706,7748,585613,0
11,-1,641020,219086,1207071,65738,7112,603558,0
11,-1,633261,218588,1351513,65042,7004,675801,0
11,-1,635077,218685,1204120,65109,7449,601998,0
11,-1,637474,218973,1233069,65310,7277,616586,0
11,-1,635567,218402,1181192,65929,7781,590646,0
11,-1,639332,219043,1255984,66204,8090,628042,0
11,-1,638624,219269,1337394,66294,7641,668764,0
11,-1,637115,219476,1286580,66346,7188,643304,0
11,-1,640491,220385,1274256,66597,9235,637164,0
11,-1,640286,218650,1211544,65962,6976,605809,0
11,-1,642676,220396,1174974,66808,7585,587557,0
11,-1,642248,218057,1246261,65719,8012,623179,0
11,-1,644262,219029,1173588,66072,7243,586777,0
11,-1,637435,218854,1287000,66069,8268,643526,0
11,-1,644764,220021,1314202,66684,8471,657114,0
11,-1,642432,219972,1293872,66494,8593,646997,0
11,-1,649864,221027,1221005,67042,8306,610547,0
11,-1,644226,220145,1354318,66320,8073,677023,0
11,-1,647388,220941,1226530,66979,7973,613281,0
11,-1,663420,224646,1393028,69729,8934,696764,0
11,-1,648515,221312,1308590,66846,7393,654330,0
11,-1,645816,220965,1198921,67006,7374,599472,0
11,-1,643970,220195,1144089,66639,6747,572123,0
11,-1,674616,230006,1240071,69551,8290,620134,0
11,-1,642450,218452,1181126,65925,7354,590611,0
11,-1,649303,221202,1300463,67238,7546,650260,0
11,-1,637246,218694,1207470,66236,7606,603793,0
11,-1,637946,218034,1206825,65800,7643,603463,0
12,-1,695524,237983,1316742,70957,8223,658347,0
12,-1,638048,218551,1332991,65678,8754,666376,0
12,-1,633451,218892,1265077,65772,7355,632132,0
12,-1,637184,218790,1176130,65801,6540,588026,0
12,-1,640534,219931,1307810,66412,7846,653994,0
12,-1,636711,218971,1274945,65703,7800,637581,0
12,-1,636783,219367,1299353,65887,8287,649738,2
12,-1,639231,219066,1265764,65877,7217,632933,0
12,-1,640527,219651,1175663,66170,7802,587877,0
12,-1,640637,221438,1381074,66996,8733,690484,0
12,-1,639565,219038,1185212,65910,7364,592938,0
12,-1,637924,219592,1332887,66048,6985,666495,0
12,-1,636931,218874,1261895,65769,6629,630913,0
12,-1,642428,220996,1197553,66773,7123,598845,0
12,-1,637978,219879,1257094,66094,7561,628627,0
12,-1,639845,220011,1215235,66183,7430,607564,0
12,-1,641047,219757,1207153,66097,7332,603771,0
12,-1,640123,220078,1277515,66452,7242,638961,0
12,-1,638040,219497,1397997,65925,7198,698738,0
12,-1,640395,219818,1233784,65912,7823,616927,0
12,-1,643108,219982,1209710,66082,6818,604901,0
12,-1,644164,221812,1310556,66780,8749,655263,0
12,-1,641081,219705,1279667,65979,7777,639884,0
12,-1,640516,219576,1433052,65968,8677,716111,0
12,-1,639190,220305,1282630,66454,7699,641239,0
12,-1,644726,220809,1265596,66671,7852,632709,0
12,-1,644899,221118,1359155,66444,8541,679755,0
12,-1,645178,220861,1339231,66312,8375,669614,0
12,-1,638762,219152,1289738,65641,7756,644840,0
12,-1,642931,218972,1331642,65630,8384,665910,0
12,-1,640063,219682,1346632,65943,7866,673225,0
12,-1,642872,218936,1268591,65624,8289,634263,0
12,-1,640619,219190,1321857,65736,7344,660887,0
12,-1,637175,220966,1154290,66058,6602,577211,0
12,-1,638181,219148,1156558,65252,6673,578326,0
12,-1,634240,218139,1165495,64941,6919,582792,0
12,-1,637692,218550,1299836,65977,8423,649957,0
12,-1,638338,218648,1127017,66035,7835,563549,0
12,-1,663151,223360,1342740,69390,8550,671432,0
12,-1,638045,219856,1202474,66649,7468,601311,0
12,-1,641865,218767,1193592,66087,7251,596864,0
12,-1,643063,219476,1259875,66183,7334,630095,0
12,-1,639994,218730,1265589,66068,7838,633039,0
12,-1,647047,220449,1199406,66697,7561,599688,0
12,-1,648362,221255,1223373,67079,8794,611611,0
12,-1,641220,220746,1294025,67022,8233,646640,0
12,-1,646611,220576,1143585,66856,8170,571857,0
12,-1,646799,221380,1195491,67155,7751,597981,0
12,-1,647083,220194,1317337,66584,8731,658609,0
12,-1,650522,222572,1249262,67551,8587,624540,0
12,-1,643931,220371,1164114,66585,8045,581990,0
12,-1,639727,219381,1280844,66186,7646,640432,0
12,-1,644791,220478,1327911,66519,7469,664038,0
12,-1,650162,221631,1484431,67363,9151,742092,0
12,-1,643832,220453,1211372,66571,7369,605737,0
12,-1,643309,219479,1192107,66202,7670,596121,0
12,-1,643630,220036,1173522,66664,6985,586817,0
12,-1,664113,223120,1314167,69496,8423,657009,0
12,-1,635604,218213,1285727,66026,7852,642879,0
12,-1,640683,219552,1294403,66430,7538,647147,0
13,-1,691854,236979,1248921,70643,6989,624476,0
13,-1,643118,220356,1262884,66525,7401,631416,0
13,-1,640748,218072,1162808,65299,7031,581360,0
13,-1,639298,218968,1209000,65851,7471,604518,0
13,-1,642900,220495,1489996,66630,9057,744925,0
13,-1,637925,219432,1194999,65934,7665,597580,0
13,-1,641321,219790,1245470,65930,7371,622801,2
13,-1,642254,219549,1297712,66074,7924,648909,0
13,-1,664954,223920,1367740,69342,7935,683840,0
13,-1,632477,218589,1288149,65708,8249,643985,0
13,-1,638268,218888,1171427,65908,7187,585735,0
13,-1,636909,219294,1310615,65962,7443,655356,0
13,-1,670544,231233,1315722,69921,7363,657889,0
13,-1,658135,223759,1153975,69200,7620,576948,0
13,-1,643061,219774,1263634,66111,7449,631787,0
13,-1,658680,224105,1389057,69212,8097,694540,0
13,-1,642246,220685,1287281,66600,7652,643746,0
13,-1,642059,219824,1318396,66016,8172,659254,0
13,-1,640408,220689,1320356,66306,6811,660036,0
13,-1,639819,220044,1279491,66004,7911,639791,0
13,-1,668501,225713,1201755,69787,8464,600926,0
13,-1,638619,220204,1259069,66012,8118,629585,0
13,-1,644804,220302,1239339,66218,7687,619612,0
13,-1,643207,220616,1360434,66464,8504,680232,0
13,-1,641293,221306,1343041,66847,8225,671574,0
13,-1,662526,224201,1269603,69331,8488,634811,0
13,-1,650649,221681,1288181,66847,8278,644343,0
13,-1,640151,219795,1412181,65824,8831,706054,0
13,-1,664336,223792,1241785,69033,8450,620927,0
13,-1,642565,219413,1202089,65839,7914,600927,0
13,-1,639262,219527,1198643,65880,7257,599632,0
13,-1,645881,220269,1203810,66301,7000,601851,0
13,-1,649224,220837,1174969,66561,7468,587402,0
13,-1,633270,218921,1271154,65169,6849,635632,0
13,-1,639120,219861,1248234,65465,7190,624179,0
13,-1,640449,220703,1241910,66049,7492,621025,0
13,-1,637413,218878,1293980,66080,8476,647349,0
13,-1,641441,219395,1206011,66273,7687,602986,0
13,-1,641525,218814,1259966,66135,7490,629872,0
13,-1,638750,218750,1304736,66129,8548,652424,0
13,-1,641751,218382,1171542,65911,7620,585761,0
13,-1,643399,220062,1194346,66607,7232,597244,0
13,-1,642603,220139,1179324,66713,7453,589736,0
13,-1,661760,222888,1285117,69062,8474,642570,0
13,-1,663511,224045,1340055,69502,9428,669827,0
13,-1,656903,223322,1387564,69366,9088,693645,0
13,-1,646751,220959,1141509,67051,7906,570793,0
13,-1,642423,220170,1223771,66514,7423,611939,0
13,-1,645840,219754,1205782,66316,8379,602557,0
13,-1,645512,221321,1245831,67012,8360,623099,0
13,-1,643132,219278,1190828,66152,7542,595261,0
13,-1,638495,219297,1220069,66209,7905,610264,0
13,-1,645998,220860,1259287,66617,7235,629687,0
13,-1,665504,224247,1325583,69693,8007,662755,0
13,-1,641843,219516,1282797,66131,7887,641468,0
13,-1,644350,219816,1127500,66265,7379,563785,0
13,-1,640140,219046,1250590,66084,7163,625298,0
13,-1,644464,219009,1159675,66334,7292,579892,0
13,-1,640512,218621,1437069,66195,9452,718374,0
13,-1,635911,218064,1196257,66045,7515,598135,0
14,-1,696882,239577,1484479,71825,8214,742204,0
14,-1,638736,218573,1221077,65688,7436,610601,0
14,-1,641424,218676,1182884,65590,7565,591565,0
14,-1,642282,221298,1346545,66896,8767,673109,0
14,-1,639149,219481,1183360,66023,7114,591704,0
14,-1,644337,219225,1231995,65818,7484,616102,0
14,-1,638373,219559,1184426,65939,7321,592179,2
14,-1,641341,219306,1243871,65949,7084,621961,0
14,-1,642956,219819,1308949,66155,7846,654089,0
14,-1,638816,219947,1218285,66251,7762,609080,0
14,-1,641014,219827,1145367,66186,6963,572724,0
14,-1,637628,219275,1262149,65896,6715,631125,0
14,-1,657780,223799,1215040,69209,7672,607447,0
14,-1,638069,219626,1257064,66007,7255,628578,0
14,-1,646125,221173,1279832,66834,7504,639958,0
14,-1,635067,219660,1271333,65983,6806,635662,0
14,-1,639365,219546,1296325,65952,7097,647944,0
14,-1,641352,219836,1203479,66160,6962,601801,0
14,-1,645211,221710,1291059,67040,8182,645470,0
14,-1,641694,219608,1206114,65903,7964,603128,0
14,-1,643501,220262,1374524,66222,7704,687365,0
14,-1,645521,221946,1302508,66806,8422,651420,0
14,-1,641902,219700,1156934,65931,7145,578560,0
14,-1,642995,219520,1421405,65915,9519,710119,0
14,-1,641185,220101,1542870,66191,8561,771484,0
14,-1,636171,217960,1172094,65471,7199,586072,0
14,-1,644524,219547,1301359,65876,8129,650764,0
14,-1,640744,219969,1194927,65914,7754,597486,0
14,-1,640511,218669,1208205,65591,8288,603863,0
14,-1,646593,221311,1277873,66703,7699,639060,0
14,-1,637922,218583,1258888,65522,8216,629457,0
14,-1,640584,219052,1333008,65681,7774,666511,0
14,-1,665288,223479,1313157,68942,8819,656554,0
14,-1,631702,218660,1190573,65045,6664,595303,0
14,-1,640103,220384,1209348,65882,6755,604736,0
14,-1,637604,219773,1347969,65561,7717,673866,0
14,-1,637490,219357,1193067,66259,7761,596551,0
14,-1,638774,218127,1251647,65872,7186,625865,0
14,-1,640236,218784,1242403,66072,8107,621245,0
14,-1,637935,218782,1256717,66074,8367,628412,0
14,-1,638091,217824,1230742,65813,7378,615423,0
14,-1,639229,218901,1287304,66053,7817,643699,0
14,-1,636377,218578,1189857,65988,8041,594996,0
14,-1,642732,219906,1163080,66273,7023,581605,0
14,-1,643494,218548,1306692,65897,8443,653299,0
14,-1,635048,218646,1240628,65943,7357,620337,0
14,-1,642778,219855,1266502,66431,8066,633241,0
14,-1,640826,219830,1218070,66345,8070,609090,0
14,-1,650293,221966,1291612,67414,8407,645672,0
14,-1,642727,220145,1306601,66431,8642,653312,0
14,-1,646240,220542,1317716,66811,7507,658610,0
14,-1,642146,220736,1227479,66814,8319,613719,0
14,-1,647106,221790,1219987,67185,7501,610066,0
14,-1,643825,219696,1191118,66360,7257,595589,0
14,-1,639525,219378,1171932,66212,7435,586073,0
14,-1,662992,223179,1327312,69158,8140,663648,0
14,-1,640121,218228,1159484,65842,6825,579799,0
14,-1,643088,218331,1240690,66060,8154,620397,0
14,-1,660472,223302,1208772,69507,8703,604346,0
14,-1,635705,217661,1227533,65784,8004,613797,0
15,-1,693247,237493,1245276,70826,7867,622659,0
15,-1,639131,219270,1327246,65960,7432,663611,0
15,-1,647468,221427,1271801,66795,8029,635924,0
15,-1,637204,218521,1116437,65664,6989,558196,0
15,-1,640886,219797,1337610,66321,7477,668794,0
15,-1,643819,219068,1300941,65707,7691,650570,0
15,-1,642000,219989,1276216,66135,7403,638138,0
15,-1,637040,219483,1326276,66146,7654,663184,2
15,-1,642436,219068,1267196,65899,7612,633427,0
15,-1,641348,221709,1316630,67083,8534,658427,0
15,-1,643732,221212,1238040,66936,7898,618837,0
15,-1,638017,219821,1283845,66126,6644,641984,0
15,-1,638531,219766,1265169,66127,7707,632591,0
15,-1,641003,219552,1249764,66062,7224,624746,0
15,-1,644107,220644,1364906,66397,7658,682557,0
15,-1,637559,219327,1166853,65922,7208,583529,0
15,-1,639258,220093,1240960,66226,6960,620638,0
15,-1,643129,221152,1428297,66842,7437,714218,0
15,-1,639342,219925,1145885,66090,6842,572713,0
15,-1,644837,221341,1359366,66779,8038,679534,0
15,-1,640033,220024,1219824,66057,6823,609960,0
15,-1,640862,220572,1195289,66112,7582,597764,0
15,-1,644104,220345,1236951,66187,7369,618530,0
15,-1,639440,218926,1305636,65723,8659,653031,0
15,-1,646678,220572,1303180,66542,8039,651542,0
15,-1,641503,220342,1288727,66451,8032,644281,0
15,-1,642374,218972,1195208,65636,7907,597578,0
15,-1,641486,221012,1303904,66542,8470,651743,0
15,-1,640672,219018,1121211,65648,7300,560650,0
15,-1,637570,218090,1184479,65361,7201,592287,0
15,-1,644334,218315,1426270,65420,7813,713179,0
15,-1,648414,221424,1325197,66726,9850,661767,0
15,-1,644661,219743,1352930,65916,8322,676427,0
15,-1,637773,221025,1208153,66046,6360,604141,0
15,-1,634045,218574,1339640,65049,7421,669804,0
15,-1,637671,219002,1174811,65338,7481,587373,0
15,-1,641731,221015,1223740,67073,7701,611958,0
15,-1,642044,219922,1388301,66478,8180,694166,0
15,-1,643965,220764,1180947,66969,7773,590451,0
15,-1,638683,219102,1385058,66177,8591,692334,0
15,-1,641203,219164,1548370,66230,9241,774224,0
15,-1,639409,219045,1237553,66064,7611,618827,0
15,-1,640995,218836,1210538,66122,7281,605160,0
15,-1,642635,219137,1186541,66122,7062,593315,0
15,-1,643623,219712,1151115,66452,7793,575676,0
15,-1,636092,218925,1270274,66073,8612,635147,0
15,-1,642686,219495,1344622,66320,8416,672355,0
15,-1,644931,220235,1179755,66598,7008,589938,0
15,-1,667542,224708,1333822,69826,9330,666534,0
15,-1,640088,219521,1234778,66133,8522,617420,0
15,-1,643780,219752,1237105,66304,7887,618408,0
15,-1,641791,219595,1194069,66261,8267,596976,0
15,-1,667141,225903,1296382,70137,8534,648230,0
15,-1,644640,219914,1282478,66484,8025,641270,0
15,-1,639374,219397,1281973,66184,7626,641028,0
15,-1,642216,219085,1287691,66027,8137,643880,0
15,-1,643496,219429,1299440,66540,7569,649876,0
15,-1,641890,218024,1174077,66004,7628,586961,0
15,-1,639212,219029,1190940,66341,7655,595557,0
15,-1,644983,221526,1281422,67406,8303,640803,0
16,-1,690128,236668,1263108,70494,7247,631405,0
16,-1,637189,219014,1272375,65818,7424,636202,0
16,-1,641841,219170,1303240,65796,7705,651655,0
16,-1,636033,218071,1169845,65531,7611,584807,0
16,-1,635947,218535,1215251,65673,6877,607721,0
16,-1,644457,219600,1213189,65924,7580,606527,0
16,-1,641348,219040,1182191,65773,7427,591027,0
16,-1,641365,219142,1221585,65978,8038,610693,0
16,-1,655888,223913,1267969,69337,8407,633933,0
16,-1,634354,219238,1228436,66054,8402,614086,2
16,-1,660840,223865,1185637,69315,8195,592884,0
16,-1,634827,218889,1173367,65727,6616,586728,0
16,-1,636959,219019,1265449,65826,6935,632740,0
16,-1,641737,220016,1290237,66194,7662,645174,0
16,-1,638612,218686,1320098,65650,6812,660082,0
16,-1,642822,221275,1312711,66767,7716,656428,0
16,-1,635818,219199,1127848,65904,6568,563971,0
16,-1,660770,224260,1578431,69365,8827,789270,0
16,-1,640227,220725,1225513,66501,7873,612810,0
16,-1,661720,224178,1254773,69187,8455,627346,0
16,-1,645855,220648,1178444,66359,7095,589235,0
16,-1,641175,220855,1332016,66203,8385,666046,0
16,-1,645470,221317,1215020,66686,7848,607488,0
16,-1,660953,223995,1332370,69207,9234,666190,0
16,-1,646373,220262,1196922,66201,8127,598389,0
16,-1,640344,218554,1300197,65649,8561,650029,0
16,-1,642868,219443,1326382,65824,8754,663163,0
16,-1,660762,224482,1234737,69110,8764,617358,0
16,-1,644947,220952,1236189,66497,7601,618134,0
16,-1,643672,220527,1307851,66376,7706,653965,0
16,-1,644287,218880,1268014,65654,8067,633516,0
16,-1,663712,224011,1206468,69129,8270,603148,0
16,-1,669904,228291,1296082,68384,7925,647909,0
16,-1,629827,219000,1185110,65158,6558,592428,0
16,-1,636748,219257,1311032,65276,7477,655563,0
16,-1,634456,217774,1308404,64842,8084,654179,0
16,-1,636383,218786,1293744,66040,7486,646889,0
16,-1,637080,218499,1286077,65963,8070,643081,0
16,-1,642126,219633,1415862,66397,7787,707984,0
16,-1,656705,223628,1313144,69499,8851,656575,0
16,-1,638850,218725,1251448,66044,7118,625771,0
16,-1,644049,220896,1175701,67076,6766,587935,0
16,-1,641941,219124,1315086,66147,7425,657589,0
16,-1,640305,218670,1192398,65912,6932,596190,0
16,-1,643005,219203,1267940,66148,9128,633977,0
16,-1,644157,217601,1320004,65649,7417,660000,0
16,-1,648505,222228,1247142,67582,7749,623359,0
16,-1,643840,220167,1194156,66540,7535,597047,0
16,-1,647036,220657,1192243,66714,7852,596354,0
16,-1,662325,224753,1275412,69739,9419,637578,0
16,-1,641492,219371,1269768,66094,7965,634806,0
16,-1,640593,219455,1259282,66261,8388,629682,0
16,-1,644167,220165,1200137,66482,7649,600121,0
16,-1,649655,221599,1327641,67302,7589,663871,0
16,-1,643001,219637,1194991,66299,7125,597519,0
16,-1,642505,219114,1197446,66101,7711,598733,0
16,-1,664220,223965,1430465,69552,8409,715240,0
16,-1,644647,218568,1248420,66195,7950,624258,0
16,-1,636298,218257,1116664,66044,7098,558388,0
16,-1,633906,217677,1113140,65941,6735,556619,0
17,-1,712558,241673,1392841,73923,8614,696446,0
17,-1,660072,223214,1349627,68982,8012,674779,0
17,-1,639561,218114,1313460,65435,8218,656730,0
17,-1,637105,219143,1140313,65962,6997,570093,0
17,-1,636835,218742,1266698,65802,7425,633338,0
17,-1,647101,220878,1315521,66486,7855,657785,0
17,-1,641466,219216,1262772,65879,8109,631436,0
17,-1,640935,218939,1367880,65867,7905,684193,0
17,-1,634759,220246,1329520,66515,7800,664442,0
17,-1,636228,220005,1303738,66277,7656,651836,2
17,-1,639509,219442,1234060,66096,7739,616999,0
17,-1,640564,219817,1239038,66077,7357,619322,0
17,-1,636858,219341,1247677,65940,7157,623840,0
17,-1,643910,221587,1268077,67031,7787,634113,0
17,-1,641268,219702,1269939,66098,6697,635066,0
17,-1,637206,219471,1312367,65954,7603,656018,0
17,-1,661310,223776,1400527,69200,7962,700304,0
17,-1,639618,219771,1450818,66100,8303,725432,0
17,-1,638513,219348,1186007,65938,7573,593009,0
17,-1,640745,220096,1288028,66063,7588,644048,0
17,-1,643704,219806,1269359,66044,7249,634726,0
17,-1,641258,220806,1210945,66235,7355,605536,0
17,-1,644831,220448,1298436,66120,7858,649301,0
17,-1,641848,219419,1486780,65867,9153,743158,0
17,-1,643925,219062,1246890,65816,8217,623493,0
17,-1,661710,224344,1388028,69323,8459,692972,0
17,-1,647710,221013,1324526,66533,8125,662214,0
17,-1,639422,219712,1231022,65714,8363,615520,0
17,-1,638377,218779,1280400,65578,6937,640240,0
17,-1,640873,219651,1264965,65906,7242,632582,0
17,-1,650300,221901,1220444,66960,7816,610341,0
17,-1,639990,218534,1116619,65519,6983,558241,0
17,-1,646601,221101,1333974,66726,8341,666739,0
17,-1,646255,218887,1221790,65535,6799,610698,0
17,-1,656228,223402,1303843,68360,7773,651892,0
17,-1,636311,219174,1242032,65407,7726,621064,0
17,-1,637398,218656,1286292,65996,8202,643187,0
17,-1,637904,219117,1167547,66127,7587,583712,0
17,-1,640310,218343,1157780,65957,6673,578928,0
17,-1,638516,219302,1229253,66274,8489,614671,0
17,-1,642298,218723,1296448,66054,7344,648239,0
17,-1,658591,223293,1287609,69359,8125,643829,0
17,-1,660961,223289,1307938,69376,8431,654047,0
17,-1,641018,219292,1329316,66136,7521,664694,0
17,-1,642259,219174,1191883,66097,7968,595365,0
17,-1,647031,219737,1366518,66286,7802,683258,0
17,-1,663403,224543,1460995,69799,9765,730120,0
17,-1,644454,220275,1193923,66566,7850,597018,0
17,-1,645083,220104,1335800,66532,8794,667922,0
17,-1,648762,220636,1325396,66532,8857,662660,0
17,-1,663608,224217,1349195,69528,8917,674311,0
17,-1,640658,219749,1285225,66303,8091,642505,0
17,-1,647156,221101,1151946,66935,7535,576017,0
17,-1,665825,224423,1589018,69704,9491,794547,0
17,-1,648946,219972,1281175,66374,8653,640645,0
17,-1,646101,220964,1241612,66878,7763,620861,0
17,-1,642071,219155,1401713,66197,8977,700639,0
17,-1,644277,218808,1313829,66251,8463,656977,0
17,-1,635584,218003,1220046,65974,7196,610021,0
17,-1,635109,218234,1246251,66025,7218,623103,0
18,-1,687955,236851,1303282,70579,7758,651627,0
18,-1,636362,218027,1207135,65439,6526,603547,0
18,-1,638794,218261,1197333,65448,7324,598768,0
18,-1,634619,218370,1125922,65611,6322,562863,0
18,-1,634901,218488,1161620,65598,7065,580831,0
18,-1,641670,219040,1344390,65727,7567,672251,0
18,-1,641987,219736,1194357,66011,7767,597232,0
18,-1,646127,221265,1344258,66950,7988,671980,0
18,-1,646649,219381,1330734,66004,7634,665389,0
18,-1,636543,219498,1199487,66131,6929,600165,2
18,-1,638499,219354,1151748,66012,7181,576003,0
18,-1,638544,218861,1153937,65887,7535,576953,0
18,-1,639884,219808,1200950,66089,6535,600527,0
18,-1,639190,219462,1277899,66030,7215,638993,0
18,-1,643334,220258,1300529,66481,7081,650379,0
18,-1,636199,219539,1307807,65986,7955,653932,0
18,-1,641223,219870,1390255,66090,7938,695042,0
18,-1,639469,219669,1211121,66081,7729,605324,0
18,-1,636576,218976,1312503,65768,8166,656148,0
18,-1,643016,220791,1299542,66497,7661,649431,0
18,-1,642734,220014,1180593,66064,7397,590350,0
18,-1,668727,224917,1267293,69358,8476,633578,0
18,-1,642445,220144,1192169,66123,7316,596156,0
18,-1,641649,219929,1499652,66134,10004,749624,0
18,-1,644549,220201,1380493,66221,8053,690268,0
18,-1,641271,219241,1304022,65870,8300,651756,0
18,-1,642842,219332,1251459,65753,6725,625753,0
18,-1,637853,219980,1223409,65849,7525,611752,0
18,-1,640485,218998,1262191,65655,7848,631097,0
18,-1,637293,218480,1296661,65413,7595,648395,0
18,-1,642517,219070,1162352,65685,7780,581272,0
18,-1,663378,223994,1382978,69126,7915,691515,0
18,-1,642525,219086,1275683,65733,7229,637842,0
18,-1,651887,221482,1212426,66681,6411,606312,0
18,-1,636334,219190,1328675,65184,7287,664387,0
18,-1,634998,218559,1324301,65139,7554,662200,0
18,-1,635850,219202,1330615,66189,8171,665361,0
18,-1,659667,223195,1320789,69392,7992,660299,0
18,-1,640086,218698,1247582,66094,7360,623849,0
18,-1,637996,219837,1193141,66610,7992,596514,0
18,-1,641324,219215,1224945,66263,6567,612558,0
18,-1,665846,228211,1195450,68906,7639,597724,0
18,-1,638363,218551,1261168,65864,6335,630673,0
18,-1,640458,218991,1300511,66027,7181,650298,0
18,-1,643264,219928,1280999,66384,9056,640279,0
18,-1,649236,220569,1198405,66755,8020,599234,0
18,-1,645124,220858,1486820,66812,10338,742161,0
18,-1,645799,221180,1135670,67110,7190,567796,0
18,-1,649148,220568,1223547,66697,8196,611787,0
18,-1,647408,221254,1227001,66966,7942,613160,0
18,-1,642033,219463,1295582,66186,7270,647741,0
18,-1,638870,219614,1287337,66334,8445,643592,0
18,-1,667661,228584,1384999,68910,7832,692652,0
18,-1,648481,221116,1432012,66919,8708,715356,0
18,-1,648707,220361,1434921,66459,9555,717310,0
18,-1,642739,219075,1181773,65983,7158,590912,0
18,-1,640294,218638,1259799,65952,7060,629946,0
18,-1,640740,217650,1210978,65785,7932,605534,0
18,-1,637375,218786,1176732,66215,6938,588239,0
18,-1,637809,218954,1162855,66302,7267,581475,0
19,-1,692697,237132,1363377,70698,7977,681742,0
19,-1,638540,218758,1286326,65673,7071,643236,0
19,-1,643725,220308,1295697,66346,7899,647768,0
19,-1,637672,218997,1129519,65890,6728,564694,0
19,-1,687644,232943,1265231,71878,8514,632496,0
19,-1,643957,219494,1333417,65912,7043,666766,0
19,-1,660886,223947,1219076,69155,8245,609481,0
19,-1,642936,219626,1376248,66132,8410,688005,0
19,-1,646576,219694,1304731,66175,8017,652241,0
19,-1,639365,220079,1248600,66507,7859,624128,0
19,-1,639546,221387,1316419,67015,7928,658175,2
19,-1,643674,221159,1204963,66892,7296,602664,0
19,-1,657587,224047,1240079,69291,7474,620058,0
19,-1,640008,219884,1292244,66091,7087,646171,0
19,-1,641415,220101,1259646,66180,6913,629846,0
19,-1,656504,223556,1198034,69104,7173,599145,0
19,-1,641138,219834,1323148,66093,8492,661676,0
19,-1,641302,220630,1266088,66573,8425,633059,0
19,-1,643221,219347,1229283,65936,7859,614551,0
19,-1,639228,219567,1196133,65923,7200,598117,0
19,-1,642176,219651,1310311,65965,7262,655250,0
19,-1,650037,221499,1338609,66471,8382,669363,0
19,-1,641798,220240,1284911,66106,7443,642470,0
19,-1,640000,219568,1175472,65975,6976,586539,0
19,-1,643292,220233,1681716,66249,9620,840827,0
19,-1,638837,219240,1338198,65820,7742,669097,0
19,-1,643992,220018,1195893,66012,7618,597892,0
19,-1,645932,219203,1383732,65572,8435,691993,0
19,-1,645640,221688,1259413,66826,8001,629769,0
19,-1,638511,219234,1174311,65794,7403,587207,0
19,-1,642071,219243,1301716,65774,8143,650995,0
19,-1,641267,219124,1401370,65750,7784,700629,0
19,-1,640673,218726,1274772,65563,7729,637383,0
19,-1,645091,219106,1311141,65658,6693,655485,0
19,-1,634470,218855,1249738,65210,7502,624931,0
19,-1,633944,218843,1229086,65310,7038,614594,0
19,-1,640477,220760,1229383,67050,8090,614218,0
19,-1,639016,219044,1303585,66198,7353,651853,0
19,-1,640812,219056,1295926,66211,7257,648052,0
19,-1,634250,218589,1252668,66038,7710,626419,0
19,-1,640432,219220,1171675,66212,6757,585887,0
19,-1,641127,218671,1245704,65903,7578,622908,0
19,-1,639603,219260,1298185,66121,7149,649145,0
19,-1,642160,220041,1207102,66639,7522,603525,0
19,-1,640966,218614,1213930,65919,8596,606592,0
19,-1,644587,218973,1294444,66045,8681,647198,0
19,-1,641573,219969,1381275,66458,8421,690689,0
19,-1,644597,220570,1209044,66765,7353,604506,0
19,-1,645932,220117,1312440,66550,8528,656204,0
19,-1,645260,220789,1281104,66659,8221,640614,0
19,-1,645205,219986,1309589,66391,8368,654768,0
19,-1,651282,221160,1196779,67082,7647,598543,0
19,-1,642103,220125,1349648,66491,7274,674874,0
19,-1,644404,219898,1292570,66496,7861,646314,0
19,-1,647609,220164,1246537,66426,7093,623332,0
19,-1,641141,219340,1466570,66149,9301,733174,0
19,-1,640923,219210,1195183,66204,7157,597600,0
19,-1,649426,221271,1340427,67337,8354,670268,0
19,-1,641121,220666,1367539,67127,9804,683762,0
19,-1,642638,220272,1315969,66920,7225,658059,0
20,-1,690964,236534,1233995,70479,7710,616996,0
20,-1,642123,220631,1278100,66487,7560,639076,0
20,-1,642455,219520,1272410,65936,8127,636295,0
20,-1,652021,221948,1307621,68671,7510,653771,0
20,-1,635211,218255,1227650,65547,7773,613906,0
20,-1,641280,218814,1184876,65664,7220,592489,0
20,-1,636535,218470,1254981,65619,7021,627548,0
20,-1,640629,219080,1418050,65920,8001,708662,0
20,-1,645705,219450,1250798,66072,7587,625068,0
20,-1,656004,222952,1250965,68971,7389,625516,0
20,-1,637460,219420,1293237,66019,7562,646716,2
20,-1,659497,223719,1211952,69291,7245,605878,0
20,-1,635836,219318,1249073,65923,7347,624602,0
20,-1,638149,219450,1232652,65995,7778,616409,0
20,-1,638353,218951,1166226,65784,7135,583169,0
20,-1,634991,219143,1263902,65885,7313,631997,0
20,-1,637425,218796,1269209,65848,7795,634706,0
20,-1,640464,220129,1224743,66216,7335,612428,0
20,-1,646442,220616,1304929,66545,8681,652460,0
20,-1,644739,220257,1297718,66142,8197,648904,0
20,-1,644017,220388,1310947,66125,7988,655521,0
20,-1,648287,220524,1252300,66179,7879,626100,0
20,-1,664371,225604,1308277,69663,8772,654084,0
20,-1,638668,219355,1284368,65867,7457,642159,0
20,-1,643871,219626,1210289,66044,7563,605187,0
20,-1,638267,218856,1183636,65781,7266,591872,0
20,-1,641437,219020,1198595,65647,8137,599232,0
20,-1,643657,219226,1206627,65573,8063,603139,0
20,-1,637491,219018,1204996,65639,7255,602526,0
20,-1,646550,220665,1264827,66514,7782,632465,0
20,-1,645094,220647,1280332,66430,7848,640282,0
20,-1,640981,219298,1276687,65761,7759,638328,0
20,-1,645843,220934,1211585,66604,7117,605777,0
20,-1,644351,218989,1250813,65623,6916,625439,0
20,-1,634337,218938,1363504,65164,7282,681795,0
20,-1,631394,218175,1257799,65050,8084,628851,0
20,-1,656410,223636,1306739,69510,9101,653467,0
20,-1,639062,219764,1306150,66559,7998,653136,0
20,-1,638262,218874,1174017,66048,7337,587054,0
20,-1,637717,218611,1232859,66109,7224,616483,0
20,-1,638209,218682,1248345,66091,7115,624228,0
20,-1,643069,219179,1208220,66169,7847,604183,0
20,-1,662726,223685,1347252,69417,8942,673841,0
20,-1,643703,218767,1218561,65963,7102,609353,0
20,-1,643761,220190,1286259,66384,8090,643136,0
20,-1,646092,219321,1179111,66207,7748,589512,0
20,-1,642109,219994,1246558,66427,8253,623323,0
20,-1,640957,219247,1218827,66301,8107,609402,0
20,-1,664128,224119,1464380,69667,9356,732235,0
20,-1,664650,224497,1431647,69673,9473,715775,0
20,-1,662337,223858,1333947,69448,8391,666790,0
20,-1,669255,224366,1333164,69664,9396,666273,0
20,-1,643020,219749,1320265,66336,8126,660195,0
20,-1,642493,219705,1240042,66375,7164,620053,0
20,-1,649043,221127,1249357,66974,6939,624793,0
20,-1,647788,221780,1232800,67298,7576,616540,0
20,-1,641732,219734,1243552,66498,7625,621793,0
20,-1,688514,231634,1497929,72001,9586,749265,0
20,-1,661210,223992,1217955,69746,8630,608920,0
20,-1,639129,219320,1332818,66433,7396,666446,0
21,-1,691451,237169,1334026,70638,7708,666985,0
21,-1,637484,218825,1237874,65780,7195,618933,0
21,-1,639407,218768,1232165,65607,7791,616027,0
21,-1,638942,218584,1241361,65711,7174,620699,0
21,-1,637642,219033,1117273,65834,7096,558616,0
21,-1,660801,222957,1261270,68855,8120,630661,0
21,-1,637290,218898,1312615,65719,7828,656321,0
21,-1,644004,220547,1351830,66631,8109,675601,0
21,-1,645948,219400,1396378,66027,7945,697894,0
21,-1,638916,219801,1197193,66210,6908,598706,0
21,-1,637811,219177,1284936,65930,7160,642520,0
21,-1,636999,220321,1279234,66322,7950,639599,2
21,-1,640147,221004,1301969,66677,7186,651090,0
21,-1,642322,221081,1318925,66701,8139,659144,0
21,-1,665041,224656,1267510,69487,7838,633719,0
21,-1,646766,219766,1334617,66057,7844,667394,0
21,-1,658557,223944,1198284,69270,7817,599170,0
21,-1,638555,219770,1298596,66073,7660,649347,0
21,-1,642683,219353,1309590,65928,8256,654894,0
21,-1,640354,219021,1129371,65715,7105,564588,0
21,-1,641680,219851,1250327,65949,7060,625109,0
21,-1,642704,219650,1184695,65843,8099,592395,0
21,-1,646223,221649,1367844,66796,7730,683516,0
21,-1,638569,219463,1170217,66013,7303,585166,0
21,-1,641884,218893,1260065,65789,8180,630026,0
21,-1,644690,221011,1308372,66690,8292,654232,0
21,-1,643136,219699,1183181,65905,7758,591685,0
21,-1,648128,220681,1273546,66282,8150,636626,0
21,-1,642096,219464,1354468,65824,8843,677302,0
21,-1,664581,224454,1277908,69242,8327,639014,0
21,-1,642900,218927,1297711,65625,7804,648908,0
21,-1,660910,223468,1271292,68915,7867,635650,0
21,-1,662164,223877,1356631,69106,7977,678278,0
21,-1,650924,221212,1195312,66525,6618,597732,0
21,-1,638392,220730,1287299,66025,7693,643730,0
21,-1,658249,223188,1315570,68512,7916,657783,0
21,-1,635296,219376,1286828,66300,8143,643447,0
21,-1,639648,219159,1528581,66257,9937,764295,0
21,-1,638948,219676,1272685,66433,8122,636334,0
21,-1,647104,219667,1279954,66338,7299,640029,0
21,-1,638545,218572,1303694,66011,7248,651871,0
21,-1,645389,220948,1199758,66930,7447,600001,0
21,-1,640596,219280,1195877,66169,7419,597913,0
21,-1,646855,220882,1187143,67044,7340,593659,0
21,-1,640464,219341,1317293,66156,8531,658459,0
21,-1,645945,219759,1289893,66340,8231,644934,0
21,-1,641653,219663,1338962,66407,9118,669077,0
21,-1,640620,219864,1177414,66489,6611,588757,0
21,-1,646015,220971,1244003,66862,7779,621838,0
21,-1,642699,220044,1249987,66387,7474,624896,0
21,-1,644579,220516,1231036,66544,7836,615445,0
21,-1,644718,218964,1295412,66074,8652,647674,0
21,-1,642585,220063,1291157,66419,7894,645635,0
21,-1,646034,221539,1199511,67302,7283,599830,0
21,-1,646581,220416,1278930,66517,7166,639529,0
21,-1,642508,218907,1291785,66009,7709,645888,0
21,-1,639306,218481,1203910,65908,6654,601992,0
21,-1,640651,218738,1184447,66196,7524,592196,0
21,-1,637005,218181,1222613,66010,7676,611355,0
21,-1,634502,218021,1148238,65976,6278,574165,0
22,-1,691044,236972,1227905,70622,7060,613897,0
22,-1,635738,217783,1150082,65422,6617,575063,0
22,-1,642505,218794,1397355,65625,7755,698656,0
22,-1,637138,218377,1158156,65603,6709,579055,0
22,-1,635935,218666,1135799,65694,7223,567797,0
22,-1,640021,218770,1142185,65701,6789,571159,0
22,-1,641489,220282,1318661,66382,7735,659403,0
22,-1,641248,219597,1339682,66132,7669,669915,0
22,-1,644347,219470,1403905,66096,8009,701560,0
22,-1,634611,218609,1187493,65825,7150,593476,0
22,-1,638607,219480,1271531,66024,7420,635862,0
22,-1,636946,219207,1182662,65901,6515,591394,2
22,-1,634115,218782,1307388,65694,7225,653753,0
22,-1,636235,219163,1438413,65871,8023,719220,0
22,-1,639557,219221,1243980,65930,6843,622023,0
22,-1,644901,219795,1297146,66107,7860,648570,0
22,-1,641771,219854,1235740,66074,7449,617949,0
22,-1,644451,220935,1322090,66660,7986,661426,0
22,-1,643117,219828,1219591,66065,7327,609819,0
22,-1,641817,219456,1256618,65905,7748,628369,0
22,-1,644129,221206,1282667,66690,7720,641241,0
22,-1,667815,224823,1208554,69343,8737,604017,0
22,-1,640061,220005,1302150,66073,7897,651103,0
22,-1,640236,219177,1251951,65736,7798,625968,0
22,-1,641481,219063,1270909,65881,7255,635457,0
22,-1,637115,218529,1185563,65602,7496,592758,0
22,-1,640286,218829,1341820,65583,8225,670759,0
22,-1,645757,219879,1311531,65764,8476,655784,0
22,-1,644166,221262,1265999,66690,7655,632989,0
22,-1,640589,218752,1194882,65567,7274,597485,0
22,-1,641854,218630,1272658,65534,7613,636373,0
22,-1,640360,218915,1340177,65676,7500,670050,0
22,-1,639131,218844,1176187,65602,6558,588082,0
22,-1,644606,219026,1263527,65647,6660,631750,0
22,-1,636258,219746,1233488,65468,7751,616796,0
22,-1,636192,218738,1241168,65236,7067,620637,0
22,-1,646344,220264,1194821,66808,8438,596909,0
22,-1,639503,220280,1223529,66877,7681,611694,0
22,-1,641746,219029,1193087,66210,8050,596604,0
22,-1,644510,219116,1375240,66249,8170,687667,0
22,-1,641396,218963,1207535,66079,7245,603812,0
22,-1,661260,223160,1303837,69117,8800,651915,0
22,-1,640610,219494,1315230,66253,7904,657671,0
22,-1,662991,223650,1306758,69452,7558,653382,0
22,-1,641374,219567,1413331,66419,8810,706481,0
22,-1,662377,223185,1359863,69212,9565,679845,0
22,-1,640574,219511,1270221,66315,8205,635172,0
22,-1,642190,220468,1384511,66687,7977,692291,0
22,-1,643672,219716,1305904,66371,8283,652955,0
22,-1,641570,219856,1267413,66390,8690,633700,0
22,-1,643366,220074,1249101,66408,7435,624680,0
22,-1,644591,219346,1298390,66229,7804,648945,0
22,-1,645570,221768,1213448,67252,7438,606288,0
22,-1,643266,219359,1194667,66262,7471,597380,0
22,-1,668042,224718,1374274,69692,9242,687144,0
22,-1,644944,219309,1187662,66124,7307,593865,0
22,-1,640126,218622,1431931,65971,9280,715424,0
22,-1,643485,218736,1269587,66237,7299,634845,0
22,-1,635749,218146,1236517,65990,7695,618320,0
22,-1,636401,218965,1318360,66268,7450,659208,0
23,-1,691205,237186,1212110,70754,6755,605986,0
23,-1,636858,218674,1283375,65718,7568,641710,0
23,-1,662001,223752,1305453,69088,8524,652686,0
23,-1,638943,218924,1282028,65791,7180,641004,0
23,-1,636603,218981,1189548,65830,7746,594725,0
23,-1,643014,219993,1410772,66022,9231,704928,0
23,-1,638785,219203,1221130,65782,7181,610626,0
23,-1,638709,218748,1295912,65844,7112,647981,0
23,-1,646253,220604,1301102,66651,8452,650614,0
23,-1,634601,218629,1248579,65725,7397,624243,0
23,-1,637236,219466,1213521,66085,6818,606818,0
23,-1,635633,219559,1325295,66071,7150,662701,0
23,-1,635193,219754,1301023,66136,7485,650512,2
23,-1,641368,219928,1309035,66080,8059,654706,0
23,-1,638120,218780,1151163,65807,7021,575638,0
23,-1,642575,219218,1203359,65890,7675,601673,0
23,-1,639349,219517,1257350,66023,7220,628711,0
23,-1,636286,218424,1318977,65595,7929,659535,0
23,-1,644247,220261,1377921,66264,8286,688945,0
23,-1,643513,220459,1274903,66410,7588,637513,0
23,-1,641365,220351,1344814,66279,7815,672366,0
23,-1,645245,219961,1158108,65919,7532,579104,0
23,-1,646686,222108,1286506,67051,8355,643207,0
23,-1,665445,224902,1235020,69509,8889,617310,0
23,-1,641092,219261,1222848,65811,7327,611408,0
23,-1,638850,219341,1147276,65823,7866,573582,0
23,-1,641320,220029,1271465,66081,8194,635345,0
23,-1,644444,219782,1189541,65821,7487,594738,0
23,-1,637739,219072,1290848,65717,7750,645432,0
23,-1,639604,218934,1239878,65641,7306,619975,0
23,-1,643686,220191,1190051,66228,7786,595187,0
23,-1,639944,218965,1283988,65655,7150,641933,0
23,-1,646662,219831,1188092,66169,7511,594037,0
23,-1,644315,219193,1259306,65627,6670,629820,0
23,-1,639610,219188,1241096,65208,7125,620583,0
23,-1,636455,219124,1241725,65392,7317,620912,0
23,-1,646032,220427,1184395,66871,7816,592279,0
23,-1,639608,218580,1321569,66066,7800,660797,0
23,-1,640520,218577,1191714,66006,8179,595913,0
23,-1,642100,218577,1176921,66021,7508,588512,0
23,-1,638467,218545,1296877,66060,7893,648459,0
23,-1,641429,219113,1230342,66071,7202,615219,0
23,-1,635164,218162,1354666,65777,7926,677295,0
23,-1,641760,219460,1183540,66220,7071,591824,0
23,-1,643253,218733,1369275,66001,8557,684047,0
23,-1,647006,220074,1183703,66592,7983,591470,0
23,-1,661939,224208,1323275,69606,8554,661622,0
23,-1,644451,220058,1307530,66595,7576,653818,0
23,-1,643940,220067,1278465,66550,7783,639271,0
23,-1,643763,219877,1218744,66369,7338,609351,0
23,-1,639872,219480,1242898,66258,7961,621299,0
23,-1,647915,220738,1307642,66806,8381,653477,0
23,-1,643805,220365,1213111,66550,7383,606605,0
23,-1,644467,219612,1179017,66398,7714,589398,0
23,-1,645400,219862,1236940,66356,7746,618520,0
23,-1,645198,219673,1291291,66266,7295,645688,0
23,-1,660175,223896,1331703,69450,8067,665790,0
23,-1,642842,218436,1183671,66097,7161,592000,0
23,-1,638587,219519,1261717,66484,7766,630870,0
23,-1,635426,219001,1252343,66325,7811,626222,0
24,-1,689301,236657,1325031,70500,6990,662544,0
24,-1,637083,218931,1203696,65738,6547,601853,0
24,-1,640796,219092,1205191,65766,6818,602584,0
24,-1,639726,219497,1192697,65920,7195,596308,0
24,-1,642375,221597,1216080,66926,8274,607962,0
24,-1,639503,218962,1343037,65662,8377,671164,0
24,-1,637967,219646,1147405,66004,7418,573747,0
24,-1,639461,219617,1333081,66128,7630,666593,0
24,-1,642025,218859,1314080,65858,8039,656824,0
24,-1,659164,223453,1254892,69208,7683,627361,0
24,-1,638954,220096,1277444,66481,7792,638769,0
24,-1,638673,221289,1281428,66857,7167,640804,0
24,-1,638300,220415,1305624,66328,6709,652861,2
24,-1,638796,219282,1193242,65919,6894,596653,0
24,-1,637157,218976,1172936,65798,6893,586567,0
24,-1,649314,221670,1301283,66996,8802,650712,0
24,-1,640017,220263,1317071,66412,7627,658141,0
24,-1,636462,218824,1319450,65756,7332,659764,0
24,-1,646603,220483,1303695,66493,8200,651850,0
24,-1,641490,219428,1315401,65828,8041,657751,0
24,-1,641757,220455,1301955,66508,7459,651014,0
24,-1,647636,221164,1191633,66333,8064,595786,0
24,-1,639434,220154,1374407,66130,8745,687317,0
24,-1,640155,219531,1261896,65979,7854,630927,0
24,-1,645502,220872,1366862,66611,8174,683440,0
24,-1,644996,222267,1295822,67125,8392,647915,0
24,-1,644468,219892,1274715,66124,8623,637211,0
24,-1,644269,219716,1368975,65723,8148,684469,0
24,-1,637201,218879,1185740,65604,6969,592901,0
24,-1,643151,220040,1155548,66025,7482,577820,0
24,-1,640057,219043,1310153,65654,7610,655123,0
24,-1,643119,220272,1202714,66303,7230,601356,0
24,-1,644524,219554,1239094,65899,7656,619475,0
24,-1,644842,219230,1188626,65700,6617,594370,0
24,-1,638478,219281,1176719,65281,6672,588410,0
24,-1,642316,221384,1145193,66295,7304,572764,0
24,-1,641336,220007,1204949,66708,7504,602674,0
24,-1,641091,219473,1348876,66348,7740,674488,0
24,-1,640759,219077,1124105,66231,7719,562076,0
24,-1,646014,219646,1180334,66610,8025,590229,0
24,-1,637235,218479,1239248,65965,7257,619673,0
24,-1,639996,218596,1166551,65860,6818,583309,0
24,-1,639900,219445,1238782,66161,7767,619503,0
24,-1,641097,218760,1239855,65919,7484,619970,0
24,-1,641816,218552,1280634,65839,7967,640313,0
24,-1,642270,218628,1178456,65838,8336,589176,0
24,-1,641113,220215,1349050,66547,8247,674526,0
24,-1,646009,221099,1208364,67139,7390,604174,0
24,-1,644298,220504,1302785,66665,8260,651438,0
24,-1,645049,221243,1262452,67198,7541,631211,0
24,-1,639541,219039,1191193,66037,7703,595640,0
24,-1,646407,219613,1296938,66274,7817,648519,0
24,-1,638609,219401,1373117,66183,7862,686429,0
24,-1,643217,219527,1176924,66314,8087,588503,0
24,-1,645130,219882,1541798,66300,9368,770924,0
24,-1,643588,219517,1187670,66183,6844,593876,0
24,-1,647240,219654,1465961,66290,9957,732958,0
24,-1,647006,220547,1219348,67099,7350,609803,0
24,-1,635558,218526,1186829,66128,7066,593258,0
24,-1,638795,217771,1288478,65830,6984,644298,0
25,-1,694518,237462,1243702,70768,7263,621824,0
25,-1,639555,218315,1300282,65561,7329,650136,0
25,-1,639723,218844,1275568,65677,7032,637819,0
25,-1,636754,218484,1248284,65689,6850,624145,0
25,-1,634781,219004,1162189,65826,7294,581117,0
25,-1,641611,219761,1266092,65900,7988,632712,0
25,-1,648740,221794,1230241,66968,8610,615026,0
25,-1,641474,218921,1249507,65850,7477,624270,0
25,-1,640930,218967,1305403,65924,7920,652847,0
25,-1,637792,219431,1211144,66039,7084,605542,0
25,-1,638680,219132,1249872,65921,7505,624974,0
25,-1,657008,224255,1250222,69350,7337,625104,0
25,-1,635704,219053,1159553,65872,6703,579852,0
25,-1,642486,221405,1285858,66941,7593,642997,2
25,-1,641168,220009,1197679,66135,7075,598877,0
25,-1,642832,219549,1254953,66043,8015,627417,0
25,-1,638399,219381,1222101,65983,7476,611077,0
25,-1,642753,221497,1315962,66994,8283,658080,0
25,-1,661749,223896,1230238,69187,8062,615048,0
25,-1,642670,220146,1202720,66128,7255,601417,0
25,-1,639363,219701,1184490,66054,7433,592294,0
25,-1,646326,220797,1157738,66237,7503,578817,0
25,-1,643613,220265,1412198,66090,8013,705254,0
25,-1,640816,219204,1457748,65914,9420,727979,0
25,-1,635515,217952,1242337,65400,8023,621127,0
25,-1,662057,223803,1293272,69089,8239,646672,0
25,-1,664408,224045,1502625,69228,9489,751356,0
25,-1,649248,221602,1393663,66646,8444,696613,0
25,-1,636854,218455,1190508,65545,6927,595310,0
25,-1,640263,219419,1138362,65853,7156,569240,0
25,-1,642336,219034,1236846,65703,7026,618478,0
25,-1,638498,218590,1246475,65525,7272,623238,0
25,-1,640262,218314,1265975,65436,7596,632950,0
25,-1,669293,224207,1369467,69106,8164,684654,0
25,-1,657804,223822,1418154,68540,7735,709053,0
25,-1,634567,218724,1205704,65184,7901,602820,0
25,-1,639786,218237,1317092,65845,7916,658593,0
25,-1,638056,218385,1400552,65956,7850,700225,0
25,-1,641587,219417,1205889,66292,8014,603027,0
25,-1,642022,219173,1291586,66227,8134,645851,0
25,-1,641484,219496,1234585,66304,7620,617343,0
25,-1,641614,218847,1276462,65945,7412,638040,0
25,-1,641377,220626,1184422,66873,8211,592227,0
25,-1,641500,219450,1340951,66181,7500,670531,0
25,-1,643157,219021,1471957,65993,8989,735964,0
25,-1,646501,220692,1137755,66906,7665,568805,0
25,-1,645806,220306,1345359,66524,7868,672635,0
25,-1,642885,219855,1194787,66528,7512,597443,0
25,-1,643087,220387,1313875,66633,8594,657063,0
25,-1,660992,224293,1335232,69710,8433,667419,0
25,-1,641532,220099,1357660,66422,8759,678843,0
25,-1,646181,219988,1277780,66428,8174,638818,0
25,-1,638271,219673,1192193,66312,7677,596140,0
25,-1,643485,220279,1134675,66633,7424,567388,0
25,-1,646949,220006,1456871,66428,8757,728592,0
25,-1,664838,223976,1332927,69491,8434,666516,0
25,-1,646282,219723,1246378,66282,8037,623246,0
25,-1,643629,219523,1162487,66524,6973,581279,0
25,-1,635199,218084,1183192,65994,7450,591646,0
25,-1,648460,221743,1375737,67537,7925,687917,0
26,-1,696717,239451,1345193,71713,8190,672438,0
26,-1,640690,219364,1266971,65942,6786,633558,0
26,-1,643800,221327,1216936,66752,7645,608430,0
26,-1,637648,218796,1367133,65737,8053,683496,0
26,-1,640553,219219,1261560,65948,7165,630754,0
26,-1,644061,219793,1288714,66058,7688,644282,0
26,-1,644490,220757,1307871,66514,8018,653971,0
26,-1,645216,220379,1304667,66575,8766,652424,0
26,-1,643246,219110,1236256,65884,8139,617872,0
26,-1,635695,218528,1313594,65789,8060,656774,0
26,-1,637451,218829,1274341,65822,6665,637282,0
26,-1,639086,219141,1275605,65867,7293,637855,0
26,-1,636350,219676,1241857,66066,7060,620989,0
26,-1,642860,220658,1280518,66423,7527,640311,2
26,-1,640183,219846,1168954,66124,6701,584517,0
26,-1,641987,219928,1262777,66189,7908,631305,0
26,-1,658511,223864,1219646,69255,8341,609830,0
26,-1,659649,224362,1257442,69399,8854,628789,0
26,-1,642228,219869,1283594,66146,7493,641880,0
26,-1,639980,219106,1313565,65694,8124,656821,0
26,-1,637566,219400,1161814,65887,7492,580916,0
26,-1,645618,220397,1292176,66061,7639,646126,0
26,-1,648563,222477,1278356,67071,8350,638825,0
26,-1,642144,220188,1278933,66121,8001,639591,0
26,-1,643090,219207,1294505,65787,7600,647264,0
26,-1,642296,219192,1296711,65738,7347,648369,0
26,-1,641521,219665,1294296,65980,8420,647178,0
26,-1,644392,219399,1280372,65670,8134,640147,0
26,-1,640382,218993,1361315,65645,8143,680704,0
26,-1,640509,219523,1175473,65796,7716,587782,0
26,-1,641717,219101,1164378,65664,6750,582216,0
26,-1,642752,220957,1176205,66615,7125,588123,0
26,-1,640610,218711,1160561,65594,6876,580003,0
26,-1,641094,217609,1363470,65229,7968,681788,0
26,-1,635519,219028,1341636,65213,7412,670740,0
26,-1,637000,218684,1171454,65178,7280,585770,0
26,-1,641039,219003,1216186,66194,7669,608152,0
26,-1,639901,219189,1383173,66150,7912,691641,0
26,-1,642775,220459,1146352,66870,7572,573198,0
26,-1,644558,220575,1177768,66983,7216,588960,0
26,-1,637809,218232,1415906,65805,8558,707979,0
26,-1,638263,218818,1206601,66052,7248,603351,0
26,-1,636629,219073,1185326,66081,7790,592625,0
26,-1,646910,220827,1200203,66899,7518,600162,0
26,-1,642376,219089,1255811,66067,8206,628132,0
26,-1,663025,223515,1222761,69311,8763,611372,0
26,-1,668046,225181,1371448,70007,8866,685315,0
26,-1,644933,221074,1190553,67244,7334,595346,0
26,-1,642816,220163,1265065,66511,8587,632495,0
26,-1,642924,220140,1366530,66511,8534,683233,0
26,-1,645065,221862,1281549,67265,8266,640549,0
26,-1,648763,220972,1152962,66945,7934,576535,0
26,-1,664256,223980,1364341,69507,9326,682195,0
26,-1,644473,220286,1396408,66614,7191,698245,0
26,-1,647934,220861,1285111,66797,6992,642590,0
26,-1,644187,219402,1251747,66202,7805,625924,0
26,-1,644458,219006,1159012,66012,7588,579544,0
26,-1,640494,218369,1230895,66015,7679,615499,0
26,-1,656878,223009,1480454,69379,9659,740340,0
26,-1,661425,223206,1327535,69517,7626,663779,0
27,-1,710929,241689,1351955,73915,8509,675931,0
27,-1,639959,219535,1284107,66151,7237,642118,0
27,-1,643024,219199,1205072,65770,7838,602496,0
27,-1,638925,219647,1326913,66061,8630,663412,0
27,-1,665537,224574,1286077,69994,8099,642868,0
27,-1,646678,221199,1389456,66818,8036,694604,0
27,-1,640890,219071,1291492,65788,7528,645836,0
27,-1,642028,219883,1318442,66233,8109,659262,0
27,-1,649261,221349,1389447,66988,8898,694514,0
27,-1,638039,219263,1256147,66001,7120,628160,0
27,-1,642909,221459,1366824,66993,7486,683248,0
27,-1,642544,219799,1147216,66106,6878,573534,0
27,-1,641922,221205,1329486,66842,7617,664838,0
27,-1,635763,219277,1261438,65898,7940,630765,2
27,-1,638263,219134,1135522,65856,6946,567819,0
27,-1,663032,223853,1268292,69230,8318,634093,0
27,-1,638238,220021,1283588,66117,7637,641906,0
27,-1,639969,219723,1278589,65976,7613,639336,0
27,-1,640213,219116,1223407,65858,7185,611689,0
27,-1,643404,220931,1282170,66597,7928,641104,0
27,-1,637673,219077,1233460,65709,7198,616780,0
27,-1,646935,221176,1223761,66338,6438,611752,0
27,-1,666155,225690,1406499,69633,9503,703193,0
27,-1,641896,219689,1147414,65904,7573,573594,0
27,-1,646310,220896,1290304,66660,8234,645165,0
27,-1,640209,218672,1570790,65635,9593,785392,0
27,-1,640046,219850,1202771,66036,7290,601411,0
27,-1,643727,219441,1185574,65635,7161,592601,0
27,-1,648324,221904,1363639,66952,8096,681880,0
27,-1,661465,224423,1184656,69255,8252,592250,0
27,-1,642331,219340,1204973,65839,7650,602535,0
27,-1,658358,223280,1329011,68892,8138,664268,0
27,-1,641193,219178,1331684,65810,8505,665676,0
27,-1,642871,218703,1187382,65474,6730,593736,0
27,-1,635877,218982,1156935,65198,7272,578521,0
27,-1,638498,220317,1165449,65893,7692,582657,0
27,-1,640983,219402,1257498,66290,8322,628432,0
27,-1,639280,218602,1287370,65979,7205,643682,0
27,-1,660823,223730,1250826,69535,8397,625485,0
27,-1,663864,223569,1343883,69476,8732,671947,0
27,-1,661361,223845,1329975,69541,9090,664888,0
27,-1,644457,220730,1194127,66919,7204,597103,0
27,-1,640971,217501,1178057,65640,7803,589064,0
27,-1,639913,218543,1253240,65799,6486,626663,0
27,-1,642135,219284,1282627,66098,7798,641207,0
27,-1,649084,220470,1186143,66708,7147,593082,0
27,-1,641746,219330,1320096,66232,8118,660017,0
27,-1,662186,224231,1357918,69797,8605,678929,0
27,-1,650496,221611,1254577,67300,8662,627237,0
27,-1,642820,220617,1162651,66841,7953,581229,0
27,-1,646227,219605,1221730,66092,8894,610719,0
27,-1,647448,220750,1251362,66686,8640,625738,0
27,-1,644981,220453,1187150,66581,7762,593633,0
27,-1,638654,218432,1275103,65898,7713,637598,0
27,-1,643381,219583,1280045,66247,7276,640068,0
27,-1,643292,219165,1164549,66004,6851,582323,0
27,-1,645590,219207,1179053,66083,7081,589578,0
27,-1,643323,219368,1313141,66451,8868,656556,0
27,-1,633744,218589,1276117,66139,7465,638103,0
27,-1,638620,218454,1311729,66128,7782,655912,0
28,-1,689985,237338,1232447,70778,7799,616188,0
28,-1,637459,218246,1250158,65652,7714,625094,0
28,-1,639021,218103,1292023,65330,7465,645980,0
28,-1,639134,219880,1274831,66311,7530,637451,0
28,-1,639257,219065,1170826,65884,6747,585406,0
28,-1,660212,223162,1563257,68918,8339,781859,0
28,-1,639780,219325,1253632,65777,7488,626859,0
28,-1,644922,220567,1317015,66639,8365,657972,0
28,-1,664341,223615,1271913,69226,8904,635881,0
28,-1,632837,217703,1165799,65570,6919,582833,0
28,-1,637803,219368,1267818,66022,6764,633955,0
28,-1,637956,219006,1210570,65859,7528,605033,0
28,-1,640169,219328,1276243,65962,7712,638161,0
28,-1,666284,228862,1229192,68803,7132,614617,2
28,-1,644022,220773,1216352,66635,7523,608296,0
28,-1,640466,219260,1141366,65904,6818,570643,0
28,-1,636453,219629,1243533,66087,7859,621812,0
28,-1,638147,219571,1286738,66041,7239,643120,0
28,-1,640409,219509,1241256,66040,7105,620614,0
28,-1,661044,224121,1227155,69178,7544,613569,0
28,-1,649718,221319,1343873,66767,7948,672002,0
28,-1,645036,220101,1288829,65962,7392,644459,0
28,-1,642032,220256,1375243,66060,8288,687709,0
28,-1,640687,219772,1190883,65985,7434,595436,0
28,-1,639902,218897,1299526,65724,7658,649731,0
28,-1,645781,220939,1323055,66579,7801,661494,0
28,-1,640701,219225,1367390,65776,8018,683621,0
28,-1,645775,220035,1253027,65878,8328,626529,0
28,-1,639848,219246,1183389,65761,7698,591762,0
28,-1,639276,219308,1163937,65805,7545,582020,0
28,-1,638812,218422,1403027,65461,8396,701552,0
28,-1,640931,218769,1357808,65648,7484,678850,0
28,-1,639922,219185,1236629,65762,6780,618315,0
28,-1,643784,219204,1192541,65685,6745,596239,0
28,-1,632883,218276,1211866,64866,7662,605967,0
28,-1,636697,219456,1228037,65487,7534,614032,0
28,-1,639923,218728,1233259,65956,7483,616661,0
28,-1,645076,221341,1205932,67195,7151,603016,0
28,-1,636827,218827,1279752,66103,7653,639913,0
28,-1,640524,218110,1247483,65851,7319,623801,0
28,-1,638387,219183,1236834,66238,7393,618454,0
28,-1,638353,219043,1403413,66171,8405,701753,0
28,-1,645351,219679,1205408,66407,8010,602764,0
28,-1,639578,218895,1192514,65960,6354,596252,0
28,-1,640905,219121,1297578,66088,7986,648639,0
28,-1,645075,219555,1213146,66192,7238,606568,0
28,-1,645447,220907,1374332,67007,7948,687274,0
28,-1,641807,220346,1175861,66733,7211,587964,0
28,-1,644431,219595,1311286,66280,8033,655767,0
28,-1,644480,221031,1309541,66853,8414,654611,0
28,-1,651157,221530,1173582,67009,8495,586793,0
28,-1,666490,225107,1363809,69885,8094,681828,0
28,-1,646170,220816,1199907,66908,7710,600016,0
28,-1,648303,222492,1209687,67510,7449,604846,0
28,-1,651328,221603,1287599,67188,7556,643846,0
28,-1,642893,219309,1178642,66112,7186,589368,0
28,-1,649440,221068,1272294,66999,8006,636131,0
28,-1,639946,218200,1250061,66081,7742,625044,0
28,-1,635505,217710,1154209,65847,6989,577156,0
28,-1,645967,221056,1295229,67250,7803,647674,0
29,-1,690583,237362,1235338,70767,7275,617695,0
29,-1,637243,218933,1254707,65804,6810,627255,0
29,-1,645199,220574,1343180,66415,8125,671581,0
29,-1,638376,218739,1313765,65724,7637,656835,0
29,-1,637084,218238,1278439,65571,7440,639216,0
29,-1,640669,219366,1528190,65956,7754,764372,0
29,-1,660953,224039,1241023,69207,8440,620560,0
29,-1,663331,224239,1356693,69423,8808,678688,0
29,-1,643692,219935,1377512,66229,8208,688426,0
29,-1,632236,217963,1300196,65526,7585,649766,0
29,-1,639451,220374,1318201,66508,7680,659138,0
29,-1,636659,218582,1171997,65685,6785,585905,0
29,-1,639619,219238,1177523,65962,7070,588814,0
29,-1,640087,219228,1327408,65905,7199,663754,0
29,-1,637478,219441,1166212,66032,7042,583121,2
29,-1,642879,220643,1209425,66606,7912,604634,0
29,-1,642121,219929,1269362,66059,7629,634683,0
29,-1,636176,219174,1295973,65866,7934,648013,0
29,-1,640606,219918,1314316,66092,8304,657041,0
29,-1,637683,219105,1431536,65690,7325,715825,0
29,-1,644805,219692,1146493,65915,7051,573277,0
29,-1,651130,222637,1351798,67134,8291,675965,0
29,-1,644486,221517,1325058,66663,8287,662444,0
29,-1,644362,221092,1237431,66612,8447,618753,0
29,-1,638799,218787,1386509,65626,7708,693227,0
29,-1,640879,219383,1214273,65859,7756,607180,0
29,-1,638440,219055,1365207,65734,7838,682512,0
29,-1,644841,219922,1215153,65860,7817,607493,0
29,-1,667057,228575,1329478,68479,8246,664814,0
29,-1,639605,218745,1133825,65567,7388,566924,0
29,-1,661889,223482,1308442,68963,9004,654412,0
29,-1,640661,219055,1286168,65673,7571,642999,0
29,-1,641316,218948,1287093,65665,7478,643535,0
29,-1,643532,219157,1314022,65629,7056,657019,0
29,-1,634010,219044,1158271,65225,7809,579196,0
29,-1,633116,218705,1175176,65280,7242,587533,0
29,-1,643129,220243,1283021,66557,8165,641560,0
29,-1,658206,223063,1346329,69316,8161,673106,0
29,-1,639385,218760,1280455,66070,7858,640275,0
29,-1,642612,219220,1374391,66216,8366,687193,0
29,-1,637957,218842,1181132,66083,7423,590615,0
29,-1,645617,221576,1290597,67351,7732,645228,0
29,-1,638999,217918,1208837,65732,8011,604475,0
29,-1,643794,221206,1255775,66997,7715,627962,0
29,-1,641902,219588,1201188,66373,7813,600417,0
29,-1,643581,218851,1368997,66008,7775,684432,0
29,-1,643903,220411,1350417,66738,8040,674810,0
29,-1,640505,219735,1268208,66474,7609,633916,0
29,-1,644773,220322,1254775,66638,8365,627213,0
29,-1,649599,222245,1230792,67469,7949,615240,0
29,-1,645035,220198,1163800,66354,7645,581924,0
29,-1,643971,219767,1232918,66369,7289,616278,0
29,-1,642518,219682,1331524,66327,7955,666057,0
29,-1,640478,219739,1296324,66274,7445,648171,0
29,-1,670785,225293,1339792,69904,8291,669936,0
29,-1,643502,220051,1217418,66418,6873,608774,0
29,-1,643083,218833,1187724,65958,7455,593891,0
29,-1,641765,218920,1265062,66299,7849,632587,0
29,-1,636890,218743,1248490,66254,7202,624356,0
29,-1,637651,218498,1135997,66167,6983,568008,0
30,-1,694487,239036,1394268,71485,8385,697107,0
30,-1,642844,220854,1297260,66714,7474,648673,0
30,-1,639924,218967,1330153,65716,8236,665163,0
30,-1,637292,218675,1416923,65729,9081,708392,0
30,-1,637699,218772,1181695,65800,7121,590866,0
30,-1,642803,219931,1128599,66177,7147,564218,0
30,-1,640804,219520,1206151,65941,7510,602993,0
30,-1,639525,219346,1314937,66055,7966,657257,0
30,-1,643427,219225,1326978,66015,8530,662774,0
30,-1,634291,218980,1322726,65940,7258,661363,0
30,-1,638354,219820,1300163,66210,7900,650132,0
30,-1,641729,220250,1146725,66261,7319,573402,0
30,-1,642588,220806,1302148,66615,7676,651067,0
30,-1,638085,219530,1224560,65922,6436,612261,0
30,-1,641087,219280,1185564,65974,6597,592417,0
30,-1,633524,219707,1193512,66100,6471,596812,2
30,-1,640383,219321,1200315,65864,7342,600063,0
30,-1,637217,219092,1202825,65852,7155,601453,0
30,-1,638625,218868,1180977,65732,7755,590417,0
30,-1,638424,219305,1246191,65757,6721,623143,0
30,-1,646340,221359,1197888,66648,7417,599008,0
30,-1,646040,220946,1424308,66334,7726,712246,0
30,-1,644835,221271,1279230,66380,8258,639356,0
30,-1,641655,220419,1390051,66121,8140,695006,0
30,-1,640556,219280,1450414,65870,9004,725201,0
30,-1,639912,219114,1288481,65732,8120,644240,0
30,-1,642313,220488,1260538,66432,7840,630254,0
30,-1,639209,218126,1303424,65274,8662,651693,0
30,-1,661776,223897,1371883,69087,7834,685945,0
30,-1,643045,220608,1246278,66388,7258,623213,0
30,-1,640766,218739,1349184,65602,8556,674508,0
30,-1,642974,219327,1188640,65799,7562,594309,0
30,-1,662956,223788,1279566,69056,7899,639719,0
30,-1,648405,221377,1205685,66619,6620,602855,0
30,-1,632901,218530,1354683,65004,8367,677656,0
30,-1,640222,221279,1210948,66338,7767,605389,0
30,-1,661390,223393,1336693,69384,9482,668391,0
30,-1,641238,219745,1256710,66414,8220,628407,0
30,-1,660146,223598,1292367,69484,8364,646148,0
30,-1,645811,220488,1283971,66854,7439,642052,0
30,-1,636694,218510,1296148,65966,7128,648193,0
30,-1,661713,223027,1329266,69272,8302,664627,0
30,-1,649475,221204,1155361,67145,7391,577650,0
30,-1,640236,218961,1204875,66076,7768,602485,0
30,-1,639249,218851,1190337,65954,7176,595188,0
30,-1,665439,223441,1314479,69309,8293,657229,0
30,-1,646529,221727,1309097,67448,8873,654271,0
30,-1,641364,220343,1303297,66727,8051,651661,0
30,-1,645651,221058,1187211,67046,8581,593740,0
30,-1,645582,220882,1179725,66811,7028,589902,0
30,-1,646127,220007,1218940,66209,8823,609322,0
30,-1,645119,219814,1404514,66309,8336,702015,0
30,-1,643664,220360,1352017,66547,7453,675700,0
30,-1,641430,219845,1269810,66353,7710,634888,0
30,-1,646205,219756,1199579,66244,7281,599569,0
30,-1,640227,218512,1276608,65799,7102,638357,0
30,-1,647497,220357,1288344,66469,8187,644221,0
30,-1,645051,218870,1168418,66284,7048,584254,0
30,-1,639593,220012,1262219,66949,7771,631190,0
30,-1,642799,220534,1207749,67009,7346,603893,0
31,-1,689560,237403,1448629,70715,8428,724292,0
31,-1,657986,223153,1283761,68975,8171,641876,0
31,-1,638620,218940,1212312,65662,7445,606153,0
31,-1,658471,223271,1295818,69091,8321,647876,0
31,-1,642538,220573,1346360,66553,8190,673164,0
31,-1,640038,219529,1170503,65987,7121,585297,0
31,-1,638486,218879,1272216,65700,7501,636109,0
31,-1,643593,221451,1340412,66911,7980,670390,0
31,-1,643220,219386,1317303,66039,8868,658684,0
31,-1,634740,219449,1378450,65980,7286,689274,0
31,-1,638920,218940,1362615,65874,7276,681349,0
31,-1,644562,220665,1202562,66579,7522,601358,0
31,-1,640788,220044,1280435,66213,7172,640429,0
31,-1,637416,219095,1320802,65891,7415,660452,0
31,-1,639426,218913,1241405,65815,7293,620584,0
31,-1,636402,219628,1196881,66083,7185,598378,2
31,-1,640862,219929,1256411,66103,7989,628152,0
31,-1,637003,219860,1265214,66154,7784,632646,2
31,-1,643106,221806,1307204,66981,8314,653456,0
31,-1,662995,228741,1305815,68791,7654,653188,2
31,-1,637362,219388,1241481,66010,6108,620759,2
31,-1,644162,220720,1304664,66582,7644,652085,0
31,-1,638569,219767,1287773,66027,7411,643749,2
31,-1,640887,219483,1303477,65860,8272,651331,0
31,-1,640827,221334,1293175,66796,8374,646627,2
31,-1,641396,219405,1139585,65848,7383,569850,0
31,-1,676279,232292,1348393,70126,7992,674324,2
31,-1,644724,220508,1180078,66200,6757,590091,0
31,-1,644208,220991,1274462,66302,8269,637292,2
31,-1,646682,220866,1180424,66219,7480,590198,2
31,-1,644418,223051,1267433,67331,8355,633732,2
31,-1,641925,220554,1336629,66098,8594,668360,0
31,-1,646796,221622,1324649,66914,8736,662152,2
31,-1,638004,220122,1278071,66093,7578,638998,2
31,-1,642294,220296,1575112,66123,9608,787525,0
31,-1,642322,221052,1323530,66707,7525,661714,2
31,-1,638009,218693,1304117,65585,7577,652012,0
31,-1,641015,219815,1283863,66054,7725,641939,2
31,-1,641591,219380,1208138,65993,7551,604055,2
31,-1,642469,219754,1291977,65926,7854,645979,0
31,-1,636567,218938,1272417,65810,8094,636180,2
31,-1,639019,218538,1285121,65671,8439,641763,2
31,-1,640239,219452,1294108,65838,8593,646925,0
31,-1,644358,221184,1264358,66747,7899,632316,2
31,-1,649977,222163,1312170,66855,8554,655993,0
31,-1,643816,220302,1149832,65993,7644,574775,2
31,-1,650762,221727,1304031,66811,8194,652027,2
31,-1,636456,219422,1346956,65749,7654,673525,2
31,-1,640410,219571,1398080,65875,7850,698881,0
31,-1,638990,219413,1257084,65796,7763,628541,2
31,-1,639269,219439,1454753,65847,8016,727309,2
31,-1,643361,221596,1266839,66830,8469,633486,2
31,-1,636389,218981,1165983,65701,6816,583051,2
31,-1,640361,219553,1175745,65870,6782,587912,0
31,-1,644912,220811,1186937,66456,7914,593016,0
31,-1,639682,219604,1223751,65863,7091,611909,2
31,-1,641351,218906,1318314,65587,7373,659018,0
31,-1,643204,219725,1300711,65946,8305,650416,2
31,-1,640604,219786,1173326,66023,7243,586538,2
31,-1,639574,219273,1149375,65760,6641,574700,0
31,-1,639335,219362,1302201,65841,7537,651103,2
31,-1,645309,219757,1289180,65886,7470,644570,2
31,-1,664694,224090,1302917,69047,7365,651498,0
31,-1,647801,221477,1188835,66797,6672,594494,2
31,-1,644576,222025,1173498,66494,7519,586317,0
31,-1,631777,219261,1241095,65297,7292,620550,2
31,-1,633503,218981,1398747,65270,8316,699382,0
31,-1,633029,218987,1224585,65346,7486,612296,2
31,-1,640994,220944,1182473,66268,7153,591314,2
31,-1,639493,218759,1163449,66057,7254,581755,0
31,-1,634740,218939,1262358,66205,7178,631187,2
31,-1,636833,218546,1130757,66005,7472,565424,0
31,-1,637701,219406,1235499,66368,7830,617758,2
31,-1,637786,218878,1279537,66115,7493,639840,2
31,-1,640845,219345,1282770,66313,7581,641436,2
31,-1,640212,220943,1186471,67135,7479,593250,2
31,-1,642220,220442,1171829,66859,6940,586000,0
31,-1,638907,219319,1318756,66316,7836,659436,2
31,-1,639533,219441,1200447,66381,7395,600277,2
31,-1,645242,221143,1173464,67236,7520,586775,2
31,-1,639367,218516,1269586,65969,7738,634791,0
31,-1,635833,218645,1183849,66069,8170,591980,2
31,-1,635266,219051,1258541,66236,7634,629390,2
31,-1,637696,218900,1255192,66097,7617,627652,2
31,-1,659186,223081,1400252,69269,8572,700131,0
31,-1,638482,219134,1274342,66281,7629,637173,2
31,-1,641037,218975,1249598,66195,6939,624894,0
31,-1,641527,219765,1223900,66304,7667,612002,2
31,-1,637406,218150,1191682,65885,7638,596010,2
31,-1,641570,218705,1137268,66097,7286,568695,0
31,-1,642531,219734,1195048,66459,7785,597502,2
31,-1,643388,218798,1231824,66016,7920,615928,0
31,-1,638797,219281,1257077,66190,7191,628520,2
31,-1,642103,219724,1347490,66274,7964,674084,0
31,-1,639693,219099,1264851,66036,7103,632427,2
31,-1,643676,219264,1172239,66086,6905,586077,0
31,-1,643030,218988,1319633,66069,9122,659856,2
31,-1,636027,218519,1203211,66191,8433,601587,2
31,-1,643324,220240,1258652,66672,8168,629367,0
31,-1,642965,220432,1362821,66786,8182,681486,2
31,-1,643276,220038,1196057,66572,7172,598089,2
31,-1,641848,219806,1383891,66545,7601,691464,0
31,-1,643144,220785,1309795,66809,7552,654951,2
31,-1,646159,220757,1200254,66686,8452,599940,0
31,-1,647025,221117,1216557,66898,7760,608312,2
31,-1,642813,220153,1307088,66579,8636,653317,2
31,-1,642119,219969,1286754,66469,7753,643267,0
31,-1,642681,220169,1272182,66409,7769,636075,2
31,-1,638958,219893,1189857,66390,7875,594962,2
31,-1,644846,221106,1355069,66716,7829,677610,2
31,-1,646799,221857,1201261,67228,8002,600597,2
31,-1,649710,221857,1276943,67211,8953,638450,0
31,-1,639968,219854,1360092,66369,8209,680077,2
31,-1,647840,221769,1270319,67355,7581,635162,2
31,-1,643772,219427,1186030,66245,7522,593269,0
31,-1,640102,219222,1252001,66193,7675,626010,2
31,-1,645805,220159,1293172,66505,8708,646567,2
31,-1,643994,220183,1201332,66498,7183,600720,0
31,-1,639783,219857,1304135,66411,7829,652036,2
31,-1,645176,221011,1229637,66639,7772,614702,2
31,-1,648081,219768,1304223,66335,7593,652019,0
31,-1,640719,220683,1310195,66691,7175,655147,2
31,-1,646884,221595,1142729,67325,7586,571463,2
31,-1,646839,220287,1254314,66546,7051,627444,2
31,-1,645913,219583,1257422,66199,7047,628722,0
31,-1,645130,220205,1249778,66520,7078,624943,2
31,-1,641117,219248,1187655,66108,7046,593819,0
31,-1,642026,219867,1275607,66340,8162,637855,2
31,-1,641944,218618,1178119,65895,7680,589067,0
31,-1,644636,219762,1320719,66546,7365,660406,2
31,-1,641512,217839,1286525,65925,6888,643291,0
31,-1,645761,221501,1242275,67510,8020,621222,2
31,-1,637388,219640,1274098,66722,8157,637111,0
31,-1,637527,218827,1153647,66292,8092,576893,2
31,-1,636072,218509,1263194,66140,7209,631658,2
31,-1,637506,218601,1249301,66218,7025,624222,0
31,-1,638523,218882,1241013,66303,6679,620543,2
31,-1,642602,221761,1260934,67488,6912,630431,2
31,-1,639503,219144,1115720,66286,7411,557898,2
