0,-1,685685,235904,1194302,70241,7416,596629,0
0,2,767365,269544,1671606,80023,10012,834882,0
0,-1,693419,237773,1283427,70934,7281,641043,2
0,-1,641493,220450,1309151,66506,7394,653760,0
0,-1,641398,218670,1201396,65617,7530,600277,0
0,-1,637485,218726,1185475,65758,6673,592226,0
0,2,713796,249139,1474676,74218,9812,736774,0
0,-1,635638,218486,1208501,65664,7079,603820,0
0,-1,642794,219595,1276732,66016,7687,638151,0
0,2,712652,248475,1402776,73971,9316,700897,0
0,-1,641091,219432,1301443,65932,8020,650176,0
0,-1,646930,220912,1290625,66723,7391,644613,0
0,-1,646105,220966,1326156,66865,8570,662217,0
0,2,709813,248923,1444904,74026,9278,721982,0
0,-1,636733,219242,1300909,65982,7852,649917,0
0,-1,638158,219138,1286688,65956,7504,642916,0
0,-1,642343,221570,1241900,66968,7738,620051,0
0,2,709903,248703,1386023,73981,9082,692605,0
0,-1,634243,218768,1300335,65700,7902,649555,0
0,-1,633598,218048,1219704,65561,7332,609348,0
0,-1,640840,219877,1320267,66095,7481,659694,0
0,2,714454,249999,1328298,74202,8969,663681,0
0,-1,646213,219599,1353313,65977,8618,676192,0
0,-1,635342,218992,1248391,65795,7626,623438,0
0,2,713263,250360,1452384,74657,9885,725365,0
0,-1,642614,219853,1313319,66087,7809,656242,0
0,-1,638355,219802,1243521,65990,6452,621304,0
0,2,713658,249682,1531757,74223,9401,765368,0
0,-1,661810,224268,1289619,69196,8994,644136,0
0,-1,644471,220255,1269006,66179,7912,633988,0
0,2,711172,248343,1304540,73671,8589,651917,0
0,-1,641932,221438,1421882,66458,8854,710387,0
0,-1,647277,221947,1291147,66900,7853,644754,0
0,-1,642875,220504,1333249,66401,8352,665615,0
0,2,734384,253066,1422454,77022,9377,710804,0
0,-1,661136,224108,1254448,69301,8330,626691,0
0,-1,643074,219805,1278114,66094,7278,638405,0
0,-1,669177,228279,1256501,68348,8174,627820,0
0,2,728542,252129,1394165,77254,9976,696573,0
0,-1,638827,219504,1272950,65693,8155,636021,0
0,-1,639804,219193,1434318,65772,8837,715513,0
0,2,708702,248037,1463814,74055,9012,731385,0
0,-1,639611,218809,1236913,65596,7481,617923,0
0,-1,642044,220837,1226849,66537,7607,612584,0
0,2,711137,248310,1287544,74174,8270,643315,0
0,-1,640236,219124,1273889,65686,6756,636522,0
0,-1,642174,218559,1205157,65468,7268,602211,0
0,2,717385,250386,1512054,74904,10626,754888,0
0,-1,643350,218791,1229963,65505,6113,614387,0
0,-1,635506,219335,1253433,65314,7664,626202,0
0,-1,657925,223601,1228039,68648,7988,613482,0
0,2,715552,248807,1363347,74071,10222,681257,0
0,-1,662724,223606,1497389,69478,9605,748154,0
0,-1,655294,223093,1359882,69248,9455,679417,0
0,2,712406,249016,1423676,74211,8949,711297,0
0,-1,640088,218711,1370780,66093,7377,684869,0
0,-1,648983,220750,1208278,67042,8167,603080,0
0,2,713732,248294,1411126,74080,9206,704876,0
0,-1,636770,218540,1293027,65974,7587,646063,0
0,-1,642594,220074,1200932,66697,7377,599749,0
0,-1,663607,223247,1392828,69376,8984,695917,0
1,-1,636575,219341,1192078,65873,6104,595440,0
1,-1,634161,218664,1156195,65665,6691,577585,2
1,-1,641358,218953,1279316,65606,7450,639231,0
1,-1,635869,218144,1255420,65485,7600,627213,0
1,2,709525,248304,1393013,73906,9549,695634,0
1,-1,655502,223148,1317772,68955,8726,658301,0
1,-1,645890,220904,1369317,66503,8294,683789,0
1,2,713321,249222,1450504,74251,9497,724638,0
1,-1,639102,219136,1311871,65735,7604,655456,0
1,-1,642676,219411,1216898,66026,6580,607925,0
1,-1,645868,220025,1311745,66419,8381,655190,0
1,2,728917,253573,1418166,77403,10072,708484,0
1,-1,636172,219180,1322653,65966,7667,660885,0
1,-1,639406,219666,1187329,66112,6943,593176,0
1,-1,655850,223631,1291790,69163,8197,645384,0
1,2,728325,253300,1416207,77303,9925,707411,0
1,-1,638524,221204,1205806,66868,7413,602030,0
1,-1,636216,219095,1387183,65847,8140,693096,0
1,2,729166,252892,1583282,76992,9616,791136,0
1,-1,638312,220002,1322939,66139,6952,661062,0
1,-1,645288,219984,1272004,66163,8217,635672,0
1,-1,662329,224114,1405448,69305,8269,702507,0
1,2,709567,249093,1445567,73983,9763,722301,0
1,-1,662875,224394,1293690,69407,8437,646437,0
1,-1,638295,220066,1310126,66230,7163,654316,0
1,2,713597,250224,1429794,74590,9141,713961,0
1,-1,639023,219336,1212882,65780,7726,605901,0
1,-1,645680,221075,1266995,66470,7507,633020,0
1,2,709998,248063,1390212,73631,8849,694628,0
1,-1,637700,220207,1343288,65943,8481,670856,0
1,-1,642272,219501,1312256,65820,8614,655585,0
1,2,713969,249129,1423294,73909,8563,711204,0
1,-1,642630,219352,1337854,65855,8935,668227,0
1,-1,637811,218684,1186125,65713,6854,592604,0
1,-1,639103,219063,1271639,65778,7110,635337,0
1,-1,641945,219558,1201190,65944,7471,600028,0
1,2,711082,248825,1509674,74377,9463,754364,0
1,-1,638811,219869,1319146,65827,7952,659028,0
1,-1,639269,218885,1350238,65626,7949,674688,0
1,2,709202,248166,1428379,74157,9708,713823,0
1,-1,640833,219310,1319998,65793,8125,659390,0
1,-1,657896,223631,1261311,69022,8223,630135,0
1,2,712210,248778,1376847,74361,8813,687931,0
1,-1,640919,219724,1342638,65919,7153,670875,0
1,-1,640289,218578,1275578,65514,7207,637376,0
1,2,711640,248809,1441574,74340,10284,720261,0
1,-1,653635,222096,1160305,66869,6495,579337,0
1,-1,632007,218421,1203255,64975,7433,601147,0
1,-1,634180,218427,1170264,65183,7877,584551,0
1,2,717216,249672,1341880,74456,10121,670545,0
1,-1,641179,219968,1245529,66692,8180,622004,0
1,2,712177,249523,1394005,74489,9341,696459,0
1,-1,639850,218658,1258912,66077,7528,628934,0
1,-1,641251,219215,1304897,66260,7276,651960,0
1,-1,646068,219718,1348294,66447,8877,673598,0
1,2,713257,248820,1331699,74314,8831,665321,0
1,-1,639068,219499,1287214,66364,8302,643089,0
1,-1,638934,218898,1262330,66082,7777,630883,0
1,-1,641866,218786,1240703,66072,7304,619947,0
2,-1,669356,229956,1220383,68556,7317,609776,0
2,-1,645692,220793,1366162,66470,8200,682288,0
2,-1,637283,218575,1340837,65628,7952,669946,2
2,-1,637872,219208,1250238,65875,7538,624609,0
2,2,708447,249045,1318844,74153,8763,658851,0
2,-1,633451,218138,1343015,65434,7237,671042,0
2,-1,648244,221849,1333858,67013,9219,665708,0
2,2,731646,252955,1409602,77298,10477,704240,0
2,-1,661641,224269,1261806,69285,8271,630379,0
2,-1,641666,219036,1275167,65823,6805,636990,0
2,-1,642507,219182,1267433,66017,7950,633179,0
2,2,708699,249240,1493686,74175,10379,746311,0
2,-1,655480,223699,1180267,69266,8427,589599,0
2,-1,642370,221117,1306754,66853,7820,652536,0
2,-1,642876,219694,1263231,66053,7529,631183,0
2,2,706571,249105,1411650,74139,9206,705287,0
2,-1,655451,223664,1195858,69185,7537,597419,0
2,-1,639287,219410,1175737,65962,7352,587418,0
2,2,713468,248664,1310988,73806,8505,655068,0
2,-1,641828,219435,1218999,66015,7579,609065,0
2,-1,647546,221064,1312768,66817,8825,655008,0
2,-1,642435,220293,1541403,66211,8328,770193,0
2,2,711340,249372,1566217,74126,9935,782637,0
2,-1,640252,219830,1237707,66139,6601,618417,0
2,-1,638310,219590,1324066,65878,7435,661587,0
2,2,713284,250180,1419655,74590,9068,708944,0
2,-1,642263,219860,1176148,65990,7559,587463,0
2,-1,643316,220377,1353407,66155,7801,676227,0
2,2,712650,248824,1426187,73879,9742,712379,0
2,-1,638410,220339,1515578,66106,8839,757019,0
2,-1,641686,220153,1341811,66064,7928,670542,0
2,-1,641599,219489,1234507,65934,8517,616614,0
2,2,734886,253896,1463793,77283,9303,731393,0
2,-1,638114,219433,1293755,65923,7707,646321,0
2,-1,641947,220451,1294552,66498,7581,646580,0
2,2,707144,248149,1433987,74105,8893,716564,0
2,-1,642406,220090,1317148,66068,8103,658053,0
2,-1,641249,220922,1342204,66356,7642,670327,0
2,-1,643886,221091,1285686,66632,8004,641963,0
2,2,708009,248121,1403092,74080,9053,701095,0
2,-1,641638,219809,1360928,66161,8304,679783,0
2,-1,646687,220263,1239847,66231,7646,619261,0
2,2,732557,252745,1504712,77451,10806,751836,0
2,-1,643106,220184,1259153,66291,6927,628920,0
2,-1,644008,219945,1174238,65946,6731,586734,0
2,2,714083,249360,1423624,74525,9938,711228,0
2,-1,667123,223704,1232196,68941,7540,615719,0
2,-1,639922,220455,1204914,65875,6992,601722,0
2,-1,635459,218685,1253088,65167,7608,626389,0
2,2,717183,250226,1417929,74614,9827,708517,0
2,-1,642413,219086,1364081,66214,8684,681381,0
2,-1,641870,219073,1223277,66159,7519,610814,0
2,2,717369,250971,1301605,75174,9927,649854,0
2,-1,640939,218703,1291856,66057,8424,645493,0
2,-1,642794,218821,1143236,66093,7936,570910,0
2,2,710193,248153,1332039,74052,8648,665559,0
2,-1,640016,220184,1194040,66767,7858,596388,0
2,-1,643975,220899,1368593,67092,7948,683279,0
2,-1,641944,219105,1323456,66229,7764,661262,0
3,-1,694331,239012,1379671,71518,8157,688935,0
3,-1,636793,218286,1161931,65484,7053,580481,0
3,-1,634748,219053,1257362,65896,7421,628119,2
3,-1,635939,218847,1230792,65733,6431,614859,0
3,2,705961,248125,1349116,73789,8978,674009,0
3,-1,644951,220404,1309433,66525,8269,654013,0
3,-1,639779,218998,1267158,65832,7788,633018,0
3,2,730065,252441,1422608,77055,10577,710653,0
3,-1,641443,218914,1319227,65715,7726,659130,0
3,-1,641268,219279,1291700,66012,6994,645193,0
3,-1,639747,218332,1278562,65796,8057,638712,0
3,2,708776,249424,1478578,74177,9179,738807,0
3,-1,633940,219171,1198191,66054,8028,598543,0
3,-1,639582,219500,1377250,66102,7320,688037,0
3,-1,639945,219104,1191583,65919,6832,595247,0
3,2,705586,248020,1363900,73737,8748,681562,0
3,-1,643317,219360,1338039,65983,8046,668431,0
3,-1,659113,223697,1292255,69208,8016,645703,0
3,2,711892,248653,1413455,73816,8753,706225,0
3,-1,641002,219541,1345820,65998,7430,672315,0
3,-1,663930,224024,1304753,69224,9335,651947,0
3,-1,639491,219517,1213300,66033,7520,606033,0
3,2,713433,249662,1420221,74073,9197,709465,0
3,-1,640276,219421,1187629,66023,6938,593355,0
3,-1,637571,219360,1322523,65811,7050,660847,0
3,2,707683,248779,1249150,73911,8429,624021,0
3,-1,647164,222144,1393340,67052,8279,695785,0
3,-1,663927,224603,1298983,69380,8199,649040,0
3,2,708936,248082,1424002,73588,8975,711468,0
3,-1,640842,221581,1470741,66697,8292,733994,0
3,-1,646770,222029,1299615,66996,7881,649040,0
3,-1,640371,219221,1388109,65802,8831,693594,0
3,2,710960,247564,1318875,73445,8323,658967,0
3,-1,640033,219773,1220566,66108,7660,609803,0
3,-1,646077,221385,1472924,66846,8304,735418,0
3,2,706283,248500,1526048,74264,9770,762517,0
3,-1,643079,219696,1195486,66011,7501,597189,0
3,-1,637944,220000,1314447,65863,7122,656722,0
3,-1,635701,218290,1242075,65451,7257,620600,0
3,2,713988,250318,1459260,75125,9353,728777,0
3,-1,637487,218536,1266511,65447,7739,632759,0
3,-1,643799,218887,1224948,65672,7256,611448,0
3,2,715443,249309,1382851,74508,8601,690902,0
3,-1,638512,218561,1250032,65513,7170,624641,0
3,-1,639751,218243,1320357,65421,7476,659769,0
3,2,708184,248822,1459623,74304,9940,729290,0
3,-1,645928,219460,1197644,65747,6767,598403,0
3,-1,635047,218892,1335037,65164,7417,666983,0
3,-1,632495,218606,1260294,65183,7517,629733,0
3,2,712552,249264,1412902,74272,9415,706011,0
3,-1,639262,218022,1374405,65777,8124,686713,0
3,-1,666396,227771,1310727,68793,8088,654653,0
3,2,736679,257874,1417212,76802,9676,708152,0
3,-1,640741,219102,1169111,66212,7851,584114,0
3,-1,641328,218558,1248524,66017,8386,623788,0
3,2,709152,248155,1393422,74061,9005,695986,0
3,-1,663568,228525,1376733,69057,8666,687891,0
3,-1,661418,222973,1315018,69209,8315,656952,0
3,-1,640680,218590,1353733,66085,8612,676372,0
4,-1,689908,236963,1243412,70659,6954,621220,0
4,-1,640463,219005,1288064,65729,7293,643485,0
4,-1,634380,218341,1162695,65570,6821,580928,0
4,2,707488,247569,1418450,73640,9017,708714,0
4,-1,635075,219765,1148751,66109,6521,573968,2
4,-1,645197,220874,1283488,66761,8323,640845,0
4,-1,641963,220239,1333217,66218,8463,665724,0
4,2,711137,248724,1468507,74098,9879,733671,0
4,-1,644432,220515,1174191,66206,7222,586544,0
4,-1,643083,219892,1227237,66164,6602,613200,0
4,-1,641404,219386,1284559,66023,7752,641768,0
4,2,704195,248331,1402358,73840,8370,700585,0
4,-1,632277,218559,1184704,65717,7936,591736,0
4,-1,643785,221380,1298915,66991,7204,648676,0
4,-1,642891,220699,1314337,66553,7093,656465,0
4,2,713032,250959,1454887,74990,9373,726602,0
4,-1,641282,219005,1327543,65772,8201,662987,0
4,-1,641880,221041,1297471,66721,7669,648007,0
4,2,715333,250576,1422666,74705,9642,710507,0
4,-1,638067,219494,1487690,65940,9002,742294,0
4,-1,643962,220163,1271849,66210,8167,635437,0
4,-1,637792,219055,1207799,65894,7348,603177,0
4,2,711086,249546,1308709,74111,9034,654023,0
4,-1,639722,219089,1244241,65891,6700,621387,0
4,2,709088,247880,1412713,73626,9175,705889,0
4,-1,657346,224523,1258609,69276,7570,628751,0
4,-1,663024,224600,1227727,69321,8589,613247,0
4,-1,641714,220076,1327151,66187,7459,663110,0
4,2,715611,251387,1354268,75003,8530,676286,0
4,-1,637523,220726,1246189,66245,6884,622540,0
4,-1,665078,225797,1275394,69714,8711,637266,0
4,2,736192,253183,1452568,77067,10135,725732,0
4,-1,648491,222294,1305604,67122,8195,652466,0
4,-1,639506,219732,1323336,66032,8408,661172,0
4,-1,641582,219320,1316084,65917,8208,657458,0
4,2,709529,248635,1365089,74238,9917,682232,0
4,-1,642017,219457,1320796,65874,7878,659831,0
4,-1,643383,219166,1178891,65537,7700,588975,0
4,-1,642295,219504,1336060,65848,8975,667468,0
4,2,730004,252658,1362315,77398,10109,680638,0
4,-1,665241,224692,1275448,69339,8444,637115,0
4,-1,643740,219423,1201550,65841,7763,600172,0
4,2,711772,248247,1448648,74131,8762,723900,0
4,-1,642064,220689,1199992,66521,7117,599202,0
4,-1,646396,221299,1212839,66708,6877,605553,0
4,2,709520,248763,1436784,74344,9012,717991,0
4,-1,642360,218206,1120641,65271,5980,559877,0
4,-1,634683,218609,1269177,64981,7661,634180,0
4,-1,660141,223910,1310959,68740,7701,655030,0
4,2,715259,249317,1451410,74240,9849,724685,0
4,-1,640785,218867,1365910,66146,8246,682066,0
4,2,731385,253614,1525181,77645,11004,761948,0
4,-1,644286,220431,1207943,66850,7415,603170,0
4,-1,641886,219362,1302348,66311,7809,650673,0
4,-1,646219,221125,1221669,67157,7798,610013,0
4,2,710594,248114,1437904,74030,8768,718443,0
4,-1,637967,218358,1255750,65954,7890,627423,0
4,-1,641217,219278,1286222,66239,7417,642419,0
4,-1,641516,218740,1432396,66056,8347,715782,0
5,-1,688855,237107,1231849,70686,6638,615278,0
5,-1,637909,218371,1227139,65495,6799,613186,0
5,-1,639402,219417,1218020,65891,6995,608545,0
5,2,713400,250070,1483269,74683,9436,740892,0
5,-1,636287,218923,1329618,65810,7312,664357,2
5,-1,643015,220740,1447298,66593,8653,722933,0
5,-1,648757,221579,1579649,67022,9225,789095,0
5,2,711250,248929,1457076,74167,8544,728036,0
5,-1,642518,219854,1225750,65985,7812,612379,0
5,-1,645692,221353,1345970,66943,7292,672090,0
5,-1,640722,219492,1220756,66120,7776,609784,0
5,2,726987,253308,1371660,77296,8860,685579,0
5,-1,639636,220711,1289244,66681,7650,643631,0
5,-1,636518,219240,1280388,66069,6998,639477,0
5,-1,641044,219627,1189685,66108,6922,594341,0
5,2,705471,248468,1404834,73882,8647,702050,0
5,-1,646892,221146,1303708,66724,8464,650727,0
5,-1,636683,219329,1329450,65940,7275,664210,0
5,2,711966,248471,1315165,73755,8371,657176,0
5,-1,659895,223764,1205546,69205,8498,602271,0
5,-1,643215,219612,1217388,65989,8471,608346,0
5,-1,636627,218471,1239922,65733,7399,619454,0
5,2,718702,250060,1389341,74397,9832,693896,0
5,-1,644280,221553,1271636,66969,7130,635097,0
5,2,732841,253757,1399190,77382,9622,698968,0
5,-1,644813,220053,1303227,65987,7394,651097,0
5,-1,641010,220172,1254761,66076,8741,626854,0
5,-1,640160,220061,1190069,66087,6845,594597,0
5,2,712743,248600,1387507,73818,9526,693269,0
5,-1,648081,220177,1315484,65956,7928,657116,0
5,-1,641216,220462,1342415,66228,8429,670465,0
5,-1,641422,219781,1391869,66049,8365,695454,0
5,2,710032,247976,1383711,73629,8465,691225,0
5,-1,644216,218957,1242589,65791,7761,620759,0
5,-1,638112,218347,1227365,65549,7456,613259,0
5,2,707332,248324,1327234,74173,10410,662709,0
5,-1,641915,220189,1291248,66155,7941,645164,0
5,-1,648917,220992,1283123,66379,8066,640965,0
5,-1,644689,220967,1302208,66551,8410,650265,0
5,2,711114,249592,1413548,74616,9331,706337,0
5,-1,639891,219063,1313436,65676,7566,656197,0
5,-1,649613,221630,1184146,66859,7876,590928,0
5,2,711821,248922,1318163,74411,8657,658501,0
5,-1,644531,219135,1258649,65770,7471,628762,0
5,-1,661499,223135,1390502,68758,8554,694553,0
5,2,713162,250586,1368624,75141,9963,683481,0
5,-1,650661,221086,1135724,66496,6825,567400,0
5,-1,638931,220881,1297632,66077,7784,647994,0
5,-1,635880,219043,1259288,65337,7110,629253,0
5,2,712735,249247,1417688,74326,10032,708368,0
5,-1,642189,219411,1380067,66289,8539,689569,0
5,-1,638861,218768,1291796,66072,6803,645458,0
5,2,712970,249473,1336785,74510,8949,667771,0
5,-1,636222,218621,1281995,66018,7884,640630,0
5,-1,663475,223407,1383516,69418,9606,691352,0
5,2,718065,249316,1566974,74379,11368,782961,0
5,-1,643461,219596,1208516,66416,7774,603841,0
5,-1,639149,218844,1199294,66165,7207,599160,0
5,-1,647292,220869,1270256,67067,7758,634232,0
6,-1,692619,238580,1375437,71303,7709,687085,0
6,-1,644430,221202,1301501,66672,7548,650054,0
6,-1,635061,218511,1168156,65660,6209,583693,0
6,2,705526,248717,1431483,73961,8850,715256,0
6,-1,636605,218267,1325152,65557,7913,662052,0
6,-1,639350,218713,1252404,65797,7866,625479,2
6,-1,640859,219818,1243189,66064,7069,620073,0
6,2,712882,249553,1450739,74567,9235,724541,0
6,-1,642166,219891,1317213,65941,7426,658200,0
6,-1,645214,220402,1327993,66592,8288,663246,0
6,-1,643783,220751,1365226,66732,7811,681794,0
6,2,706410,248827,1382734,73961,9119,690942,0
6,-1,633870,218410,1300037,65719,7162,649540,0
6,-1,640219,220263,1241386,66377,7262,620176,0
6,-1,639080,219286,1354100,65899,7051,676594,0
6,2,714400,249704,1679647,74361,11254,838751,0
6,-1,640354,219626,1264178,66011,7295,631619,0
6,-1,642140,221257,1385817,66849,8109,692145,0
6,2,710523,249206,1304638,74086,7925,651964,0
6,-1,636037,218666,1214875,65712,8481,606819,0
6,-1,643658,219834,1173908,66132,8322,586306,0
6,-1,641005,220087,1324149,66246,9238,661272,0
6,2,712939,249717,1432012,74209,10194,715550,0
6,-1,638946,219442,1239380,66012,7020,618957,0
6,2,710545,249304,1443051,74141,9117,720990,0
6,-1,647080,220414,1230339,66094,7462,614746,0
6,-1,643471,220909,1250067,66510,7907,623963,0
6,-1,645854,220421,1283044,66272,8223,640974,0
6,2,717900,250232,1291558,74530,9467,644969,0
6,-1,648719,221017,1331996,66293,8397,665480,0
6,-1,641302,219631,1341108,65928,8409,670062,0
6,-1,639254,218786,1343800,65616,8484,671489,0
6,2,712226,248013,1385918,73546,8850,692482,0
6,-1,645689,219996,1244224,66136,8127,621610,0
6,-1,640397,219481,1301212,65982,7445,650006,0
6,2,706414,248424,1408596,74178,9631,703903,0
6,-1,638184,218827,1180121,65668,7395,589578,0
6,-1,644290,219343,1242490,65569,8339,620831,0
6,-1,638767,218686,1438760,65548,8069,718876,0
6,2,713065,250774,1339270,75324,8442,668897,0
6,-1,641427,219419,1208395,65834,7735,603651,0
6,-1,640862,218440,1155624,65485,8059,577029,0
6,2,711682,249821,1406501,74897,9942,702497,0
6,-1,641966,218538,1185999,65465,7326,592566,0
6,-1,642152,219323,1307736,65817,7393,653347,0
6,2,718342,251349,1365884,75595,9466,681824,0
6,-1,644131,219005,1160850,65630,6160,579956,0
6,-1,656016,223569,1314135,68459,8765,656592,0
6,-1,635213,218364,1266701,65063,7584,632953,0
6,2,710730,249142,1481824,74269,10082,739560,0
6,-1,661200,223541,1299321,69476,9244,649160,0
6,-1,639000,218511,1350470,65988,7662,674743,0
6,2,710641,249556,1399180,74523,9457,699041,0
6,-1,642184,219751,1298174,66376,8361,648693,0
6,-1,641139,218277,1368380,65917,8545,683489,0
6,2,719153,249817,1538730,74776,11037,768557,0
6,-1,645879,221072,1213261,67132,7375,605842,0
6,-1,637766,218735,1302161,66071,7268,650469,0
6,-1,667250,224665,1292598,70337,9562,645738,0
7,-1,690630,238052,1326004,70942,7527,662530,0
7,-1,639363,218875,1204058,65642,7883,601465,0
7,2,708205,247784,1404323,73715,8633,701534,0
7,-1,633840,218704,1320961,65754,7342,659832,0
7,-1,639215,218368,1184914,65558,7277,591974,0
7,-1,638474,218869,1327826,65860,8962,663400,2
7,-1,639028,219263,1331736,65844,7742,665009,0
7,2,729105,252800,1408969,77231,9710,703971,0
7,-1,643443,220722,1307386,66265,7476,653096,0
7,-1,643146,220001,1308782,66096,7132,653848,0
7,-1,646184,219684,1291212,66160,7497,645072,0
7,2,704866,248688,1348825,74056,9146,673824,0
7,-1,634676,219418,1265902,66072,7239,632477,0
7,-1,636407,219232,1173488,66038,7416,586255,0
7,2,727007,252689,1348589,77048,9780,673786,0
7,-1,639200,219697,1351995,66106,6925,675438,0
7,-1,641840,219492,1275552,66046,7482,637126,0
7,-1,641469,219723,1290279,66093,7729,644654,0
7,2,708933,248872,1433252,73912,8957,715927,0
7,-1,638470,219268,1251524,65936,8339,624694,0
7,-1,641190,219384,1223351,65980,7744,611087,0
7,-1,641155,220682,1298733,66364,7960,648922,0
7,2,714067,248989,1337365,73964,9521,668115,0
7,-1,636661,219102,1343250,65841,8128,671189,0
7,2,711213,249290,1478006,74263,9621,738246,0
7,-1,644354,219796,1234080,65961,7529,616646,0
7,-1,638644,219491,1185796,65910,7365,592441,0
7,-1,648511,221463,1321935,66757,8150,660226,0
7,2,707613,248284,1369378,73733,9344,684023,0
7,-1,649745,221099,1320121,66349,8071,659495,0
7,-1,643355,220782,1200590,66326,8075,599792,0
7,-1,645159,220738,1283206,66627,8483,640745,0
7,2,712660,248594,1415252,73786,8885,707131,0
7,-1,641574,218843,1333920,65686,8129,666516,0
7,-1,637455,218709,1322548,65683,7694,660978,0
7,2,709221,249762,1427592,74930,9944,713181,0
7,-1,640703,219267,1308654,65861,7910,653718,0
7,-1,644710,219875,1169260,65833,7791,584135,0
7,-1,660040,223839,1300989,69046,8148,650281,0
7,2,709513,247661,1316345,73971,9390,657591,0
7,-1,638685,218391,1379649,65499,7824,689340,0
7,-1,641748,219172,1256656,65756,8456,627769,0
7,2,713068,248020,1391422,74118,10405,695220,0
7,-1,639990,218787,1286405,65595,7423,642809,0
7,-1,643033,219894,1629650,65981,8837,814895,0
7,2,714917,249926,1378374,74820,9041,688674,0
7,-1,641604,218502,1314822,65348,6612,656953,0
7,-1,635036,219334,1280344,65332,7791,639715,0
7,-1,641131,221263,1279101,66338,7123,638884,0
7,2,716252,250242,1482018,74867,9863,740124,0
7,-1,641312,219636,1179481,66402,7895,589223,0
7,-1,660152,223705,1404314,69524,8703,701745,0
7,2,714103,249110,1446411,74379,10246,722740,0
7,-1,643661,220804,1243516,67044,7768,621009,0
7,-1,644443,219956,1268191,66665,7793,633010,0
7,2,712710,248236,1588264,74037,10911,793632,0
7,-1,659783,223021,1380060,69296,8885,689378,0
7,-1,636710,218713,1331724,66112,7868,665269,0
7,-1,643076,219104,1193647,66196,7520,596416,0
8,-1,688731,237370,1366236,70739,7336,682641,0
8,-1,637338,218432,1222106,65671,7551,610619,0
8,2,736534,254313,1335925,78149,9869,667219,0
8,-1,634340,218799,1192310,65732,7139,595746,0
8,-1,639146,218795,1262883,65790,7582,630926,0
8,-1,639525,220039,1333922,66350,7513,665663,0
8,-1,638801,219528,1331347,66002,8257,664936,2
8,2,710464,248181,1468791,73928,9363,733869,0
8,-1,640178,219713,1332168,65894,7392,665522,0
8,-1,645037,221276,1301396,66834,7369,649834,0
8,-1,663588,223398,1356063,69207,8056,677625,0
8,2,707870,248439,1397486,73869,7916,698287,0
8,-1,634170,219614,1210093,66069,7586,604389,0
8,-1,635565,219311,1297982,66073,7105,648430,0
8,2,708661,249212,1298432,74119,8650,648578,0
8,-1,639323,219293,1244275,65974,7208,621618,0
8,-1,644111,221093,1398404,66780,7285,698155,0
8,-1,640398,219528,1270790,66071,7493,634792,0
8,2,715269,250166,1462467,74296,10564,730692,0
8,-1,644042,221504,1490312,66947,9348,744462,0
8,-1,647648,221166,1327664,66822,8434,662791,0
8,-1,638277,219978,1247565,66176,6553,623229,0
8,2,717854,251445,1475170,75107,9952,736919,0
8,-1,645765,221279,1403799,66827,8761,700748,0
8,2,710301,249133,1402980,74086,9437,700997,0
8,-1,642077,219371,1185680,65830,6863,592412,0
8,-1,635798,218737,1309301,65557,8185,654167,0
8,-1,642195,219421,1166165,65843,6758,582560,0
8,2,731515,253888,1461789,77312,10324,730412,0
8,-1,648417,220782,1321385,66184,8592,660165,0
8,-1,641209,220006,1220060,66041,8169,609533,0
8,2,708470,248017,1318152,73573,8219,658694,0
8,-1,642567,219959,1271308,66075,8688,635071,0
8,-1,644280,219178,1299438,65842,8549,649202,0
8,-1,636970,218351,1209291,65627,7554,604117,0
8,2,710704,248036,1499524,74053,9594,749084,0
8,-1,647557,220953,1298576,66580,8151,648549,0
8,-1,645031,219965,1302074,65788,8469,650547,0
8,-1,637763,219117,1276172,65741,7928,637530,0
8,2,709664,248686,1410511,74253,10039,704848,0
8,-1,638217,218911,1275668,65703,7853,637286,0
8,-1,643056,218987,1320990,65656,8629,660104,0
8,2,715116,249589,1463368,74797,10091,730910,0
8,-1,642638,219265,1199688,65765,7167,599327,0
8,-1,663720,224038,1401739,69133,8617,700298,0
8,2,710310,248580,1366928,74331,9368,682918,0
8,-1,642349,218036,1314815,65358,7420,656904,0
8,-1,636318,220376,1196167,65850,7751,597541,0
8,-1,654714,223379,1331675,68523,8215,665392,0
8,2,715275,250206,1545869,74722,10281,772320,0
8,-1,636748,218447,1360653,65919,8140,679891,0
8,-1,637788,218865,1194156,66124,7639,596672,0
8,2,714781,249088,1391161,74309,10356,695122,0
8,-1,637468,218767,1297873,66115,7957,648183,0
8,-1,660921,223040,1357151,69252,8773,678154,0
8,2,719474,251187,1495455,75172,10158,747015,0
8,-1,638394,218746,1322552,66034,7109,660729,0
8,-1,639539,218974,1267783,66162,7867,633395,0
8,-1,640934,218763,1216271,66110,7703,607638,0
8,2,715834,250498,1640998,75246,9467,819084,0
9,-1,699940,239160,1411446,71600,8993,704941,0
9,-1,660416,223400,1348903,69051,8295,673974,0
9,2,728921,252695,1444171,77069,9964,721727,0
9,-1,636463,218453,1171550,65716,6503,585326,0
9,-1,646082,221680,1292639,67038,8223,645480,0
9,-1,657600,223455,1298757,69081,8544,648496,0
9,2,712333,250377,1501917,74829,9088,750161,0
9,-1,638300,219319,1213589,65833,7043,606267,0
9,-1,639629,219814,1331361,66086,7582,665134,2
9,-1,639766,219463,1253185,65986,6818,626070,0
9,-1,643585,219662,1342235,66186,7581,670537,0
9,2,713429,250546,1449987,74786,8712,724173,0
9,-1,639893,221192,1362651,66946,8032,680496,0
9,-1,636250,219474,1284222,66093,7107,641587,0
9,2,709077,249176,1331412,74165,9203,664960,0
9,-1,638341,219365,1254472,65995,7003,626787,0
9,-1,667211,225564,1275119,70279,8017,637134,0
9,-1,639721,219048,1333027,65790,7423,666167,0
9,2,710161,249525,1465544,74063,10247,731909,0
9,-1,660083,224572,1349151,69464,9691,673764,0
9,-1,642452,219441,1284518,65970,7216,641830,0
9,-1,658688,223973,1251835,69274,8521,625442,0
9,2,715842,250661,1493484,74750,9943,745834,0
9,-1,662498,224555,1492563,69463,9420,745749,0
9,2,708979,248814,1493393,73862,9996,746232,0
9,-1,642279,219286,1290843,65775,7681,644934,0
9,-1,645658,220623,1452029,66223,8340,725478,0
9,-1,642810,219502,1336977,65849,7566,668062,0
9,2,707193,248859,1509851,73869,9671,754398,0
9,-1,645673,220455,1248189,66126,8679,623458,0
9,-1,639157,219742,1308318,65946,8222,653773,0
9,2,717486,249586,1310213,74298,8811,654774,0
9,-1,641315,219579,1305905,65906,8269,652482,0
9,-1,664512,224460,1283338,69421,9002,641221,0
9,-1,640335,219212,1318991,65819,8485,658897,0
9,2,709083,248116,1361663,74152,9563,680291,0
9,-1,644326,219862,1212196,66126,7664,605593,0
9,-1,645115,219645,1332684,65728,8394,665834,0
9,-1,636438,218563,1184550,65511,7332,591764,0
9,2,705330,248480,1458437,74263,10438,728324,0
9,-1,639126,218572,1200944,65513,7707,600073,0
9,-1,662609,224006,1273537,69094,8222,636308,0
9,2,710592,249007,1481875,74368,9540,740443,0
9,-1,640517,218612,1370926,65488,7235,684893,0
9,-1,638617,218949,1245557,65621,7548,622225,0
9,2,713181,250247,1372497,75037,9838,685418,0
9,-1,642465,218551,1184860,65440,6235,591928,0
9,-1,637649,219006,1183603,65196,6852,591304,0
9,-1,636626,218595,1184241,65091,7405,591754,0
9,2,712032,249178,1447379,74435,9244,723136,0
9,-1,642906,219039,1407451,66123,8451,702375,0
9,-1,644021,220181,1277168,66701,8270,637924,0
9,2,734661,253564,1502995,77609,11371,750804,0
9,-1,641127,220002,1186210,66677,6849,592358,0
9,-1,639581,218957,1312499,66187,7759,655679,0
9,2,734496,253077,1603631,77348,10808,800417,0
9,-1,637657,218865,1143065,66171,7580,570886,0
9,-1,641622,219862,1197760,66669,7288,598315,0
9,-1,639833,219306,1227857,66271,7132,613530,0
9,2,712530,248596,1407037,74438,9469,703035,0
10,-1,693648,236884,1230978,70551,7686,615005,0
10,-1,638123,218922,1174097,65797,6786,586510,0
10,2,704956,247811,1319609,73671,8693,659324,0
10,-1,636140,218543,1324809,65661,7581,662057,0
10,-1,639230,218720,1295210,65714,7379,647148,0
10,-1,641661,219128,1352934,65953,7933,676348,0
10,2,715728,248484,1356015,73972,9371,677549,0
10,-1,643283,219535,1189339,65880,8061,594143,0
10,-1,643767,221130,1328505,66814,7810,663415,2
10,-1,646362,220569,1302638,66532,8115,650536,0
10,2,705091,249019,1407423,74141,9046,703150,0
10,-1,644790,220176,1278308,66506,7495,638314,0
10,-1,635104,219768,1305617,66144,7520,652372,0
10,-1,644553,221052,1365881,66955,7848,682038,0
10,2,706166,248537,1349104,73947,8272,674349,0
10,-1,636563,219161,1201689,65984,6691,600322,0
10,-1,638346,219122,1267867,65916,6904,633311,0
10,-1,642081,220415,1313755,66339,7376,656385,0
10,2,714901,250387,1489849,74599,9433,744183,0
10,-1,636480,219318,1399708,65922,9534,699204,0
10,-1,641946,219800,1168354,66109,6710,583654,0
10,2,711649,250944,1433523,74703,10400,716116,0
10,-1,637100,219656,1361939,66023,8061,680519,0
10,-1,641598,219843,1374960,66163,8514,686552,0
10,2,707802,248494,1534244,73765,9666,766662,0
10,-1,642869,219828,1193805,65918,7045,596356,0
10,-1,641569,219379,1240442,65809,7585,619655,0
10,-1,641431,219485,1309657,65878,7275,654383,0
10,2,715645,249348,1404822,74068,9399,701853,0
10,-1,649577,221990,1234268,66812,8658,616008,0
10,-1,665156,226032,1255955,69771,8554,627401,0
10,2,712296,248496,1397046,73706,9055,698145,0
10,-1,642940,220720,1394094,66457,8654,695457,0
10,-1,639857,218766,1214088,65678,7554,606500,0
10,-1,644241,220550,1319478,66445,8171,658985,0
10,2,711852,249974,1295460,75000,9430,646993,0
10,-1,642261,219688,1308518,65958,7779,653691,0
10,-1,642769,218585,1316114,65320,8324,657673,0
10,-1,641178,218576,1336313,65527,8095,667765,0
10,2,712831,248939,1330807,74433,9918,664709,0
10,-1,642047,220291,1205169,66317,7706,601738,0
10,-1,641877,218936,1174637,65631,7704,586932,0
10,2,712158,248615,1543289,74146,9393,771208,0
10,-1,648104,221830,1250344,66947,7119,624391,0
10,-1,645641,221111,1271084,66645,7742,634076,0
10,2,704906,247996,1406659,74205,9016,702839,0
10,-1,645415,219454,1296848,65769,7209,647932,0
10,-1,639721,220270,1243825,65813,6977,620790,0
10,-1,635629,218866,1288764,65175,7779,643936,0
10,2,712855,249394,1466453,74531,9827,732781,0
10,-1,661780,223511,1353126,69373,9272,676120,0
10,-1,639988,218985,1297377,66196,7825,648138,0
10,2,736387,253978,1546538,77755,10920,772771,0
10,-1,638162,219075,1160813,66268,7331,579886,0
10,-1,644870,219498,1299688,66348,8783,649192,0
10,2,714655,249169,1457943,74227,10348,728192,0
10,-1,638632,218898,1190686,66112,7415,594884,0
10,-1,637241,218533,1255184,66015,6979,627135,0
10,-1,639834,218084,1319670,65863,7943,659443,0
10,2,706212,247225,1325526,73882,9551,662363,0
11,-1,692675,237348,1244992,70763,7245,621971,0
11,-1,633915,217761,1260099,65309,7501,629622,0
11,2,710550,249700,1480560,74400,8747,739589,0
11,-1,639167,219612,1182158,66056,7009,590686,0
11,-1,640062,220256,1281428,66476,6976,639925,0
11,-1,643768,220613,1345983,66674,7928,671649,0
11,2,717554,250179,1565982,74747,10065,782153,0
11,-1,646928,221876,1350580,66906,8255,674319,0
11,-1,642174,219476,1303719,65977,7701,651249,0
11,-1,638964,219111,1316329,66023,7187,657551,2
11,2,730690,253629,1398213,77433,8857,698576,0
11,-1,642529,219532,1285504,66064,7538,642294,0
11,-1,632967,219428,1175661,66093,6557,587284,0
11,-1,637976,218898,1265159,65874,7028,632044,0
11,2,706169,248414,1584013,73888,10370,791422,0
11,-1,638756,219131,1259968,65931,7393,629492,0
11,-1,642321,220476,1173315,66323,7352,585992,0
11,-1,637699,219126,1239019,65900,7172,619187,0
11,2,709662,249179,1519100,73937,9177,758888,0
11,-1,637825,218537,1217691,65613,7210,608561,0
11,-1,643380,220791,1314208,66637,7337,656389,0
11,2,718551,251895,1439599,75096,9847,718957,0
11,-1,640566,221116,1627227,66742,9361,812715,0
11,-1,640710,219846,1238584,66109,7241,618761,0
11,2,712274,248787,1384280,73905,9243,691626,0
11,-1,643097,219448,1264040,65807,7254,631641,0
11,-1,641390,219449,1330990,65818,8466,665057,0
11,-1,640958,219395,1300763,65973,8321,649948,0
11,2,709625,248504,1829883,73777,10795,914398,0
11,-1,647411,220821,1217384,66182,8385,608228,0
11,-1,641093,220243,1200710,66027,8265,599773,0
11,2,710279,248350,1532713,73646,10226,765731,0
11,-1,640714,219209,1190611,65881,7336,594904,0
11,-1,640283,219210,1275677,65942,8150,637157,0
11,-1,642022,220226,1207578,66132,7692,603289,0
11,2,708126,247647,1299461,73902,9430,649276,0
11,-1,664374,224054,1300734,69237,8468,649920,0
11,-1,644108,219616,1223830,65775,7917,611377,0
11,-1,640565,218797,1183259,65652,8148,591084,0
11,2,715772,248995,1265858,74623,10073,632067,0
11,-1,640243,219187,1431960,65719,8087,715425,0
11,-1,641797,219284,1332123,65796,8129,665648,0
11,2,731119,252808,1578757,77371,10018,788780,0
11,-1,687422,232389,1346057,71528,8013,672577,0
11,-1,665571,223354,1367524,68836,9138,683148,0
11,2,710208,248307,1408288,74242,9680,703514,0
11,-1,647453,220636,1190554,66339,6690,594631,0
11,-1,657701,223737,1327291,68529,8218,663055,0
11,2,712583,250122,1348878,74989,8593,673722,0
11,-1,635206,219178,1257906,65190,7650,628511,0
11,-1,641237,219013,1263448,66114,7785,631204,0
11,-1,636504,218244,1275973,65906,7757,637609,0
11,2,710623,248937,1457019,74344,9413,727988,0
11,-1,644149,219631,1325159,66381,8300,662009,0
11,-1,646216,220062,1326824,66726,8141,662197,0
11,2,711342,248472,1591371,74104,10783,795502,0
11,-1,637225,218394,1204311,65959,7376,601704,0
11,-1,636600,218761,1317150,66072,7806,658191,0
11,-1,664673,223700,1600685,69530,9548,799655,0
11,2,713555,250409,1426081,75280,9770,712316,0
12,-1,691872,236839,1382553,70533,9007,690788,0
12,-1,638065,219400,1318721,66169,7801,658641,0
12,2,703790,248097,1361811,73776,9438,680425,0
12,-1,638646,219869,1291854,66325,7422,645194,0
12,-1,635646,218489,1291304,65614,6693,645290,0
12,-1,659377,223456,1290243,69096,8496,644519,0
12,2,710834,248475,1543366,73879,9420,771089,0
12,-1,642290,219877,1343027,66000,7483,670937,0
12,-1,641339,219539,1218625,65957,7550,608801,0
12,-1,639368,218797,1184398,65868,6650,591691,0
12,2,707615,248560,1406630,73958,8440,702853,0
12,-1,646629,220972,1356969,66884,6992,677593,2
12,-1,646733,219371,1271578,66025,7034,635258,0
12,-1,638129,219614,1255671,66121,6560,627263,0
12,2,712454,251397,1495111,75202,9371,745816,0
12,-1,637363,218750,1266899,65823,6458,633033,0
12,-1,645236,220912,1339702,66665,7486,669017,0
12,-1,643942,221609,1298435,66988,7990,648392,0
12,2,708586,248838,1364513,73929,8619,681722,0
12,-1,648447,221729,1305153,67000,8816,651706,0
12,-1,641168,219272,1198483,65966,6540,598829,0
12,2,713510,250165,1445428,74274,9721,722284,0
12,-1,641429,219611,1302666,66022,7594,650873,0
12,-1,638761,219201,1164720,65910,7482,581564,0
12,2,736149,257583,1529051,76441,10115,763990,0
12,-1,647074,221467,1344212,66778,7161,671348,0
12,-1,642969,220163,1319831,66062,8462,659456,0
12,-1,638857,218843,1279233,65747,7852,639162,0
12,2,707610,248144,1516891,73556,10225,757955,0
12,-1,646455,220538,1165409,66219,7994,582216,0
12,-1,640312,220531,1329687,66171,8950,664308,0
12,2,717188,250371,1555070,74593,9494,775123,0
12,-1,642659,220161,1300867,66026,7724,649964,0
12,-1,641875,218867,1326392,65762,8491,662804,0
12,-1,645638,222464,1272219,67182,8340,635203,0
12,2,706686,248027,1409103,74096,9958,704124,0
12,-1,639283,219044,1199235,65695,6889,599222,0
12,-1,647942,221429,1281473,66638,8366,639960,0
12,-1,639980,218850,1448001,65586,9103,723515,0
12,2,712477,248727,1476148,74310,10094,737579,0
12,-1,643822,221261,1362933,66714,7525,680708,0
12,-1,648069,221175,1287174,66676,8642,642647,0
12,2,706960,247503,1477273,73734,8408,738177,0
12,-1,640705,219326,1277106,65770,6960,638059,0
12,-1,643812,218938,1280702,65672,8267,639724,0
12,2,708606,248285,1462257,74259,10020,730581,0
12,-1,642898,219182,1263943,65620,6358,631445,0
12,-1,635426,218999,1249435,65196,7319,624244,0
12,2,727079,252261,1492239,77231,10664,745558,0
12,-1,633153,218787,1164744,65176,6706,581952,0
12,-1,638639,218447,1163065,65950,7363,580974,0
12,2,711753,249255,1397621,74449,10277,698148,0
12,-1,644697,221857,1296296,67454,8032,647340,0
12,-1,639033,218439,1375962,65964,8201,687294,0
12,-1,641388,218555,1280752,65941,7766,640046,0
12,2,709771,248251,1609385,74023,11682,804063,0
12,-1,639908,219847,1330911,66653,7526,664513,0
12,-1,641955,218459,1241330,65966,7512,620271,0
12,-1,640866,218878,1306612,66163,7801,652800,0
12,2,711979,249449,1327277,74903,8847,662945,0
13,-1,699142,240345,1399176,72085,9187,698844,0
13,2,711585,248377,1277715,73825,8419,638297,0
13,-1,638703,218550,1228071,65626,7405,613622,0
13,-1,637625,219507,1420638,66030,7656,709005,0
13,-1,635797,218892,1408632,65790,7123,703558,0
13,2,710835,248732,1456470,73967,9735,727735,0
13,-1,636063,218061,1300245,65501,7641,649105,0
13,-1,640697,219410,1398609,65796,7822,698761,0
13,-1,663692,223959,1225720,69216,8785,612478,0
13,2,738136,258941,1477851,77351,9633,738139,0
13,-1,662774,223384,1239731,69147,8207,619347,0
13,-1,640956,219916,1225644,66279,7564,612246,2
13,-1,645506,219364,1203386,66065,7024,601218,0
13,-1,640440,220820,1278327,66734,7476,638441,0
13,2,704666,248421,1512762,73912,10773,755588,0
13,-1,640952,220729,1378210,66770,7327,688339,0
13,-1,639481,219085,1179693,65841,7110,589281,0
13,-1,637941,219805,1237781,66127,8345,618382,0
13,2,707887,249543,1339046,74167,8532,669028,0
13,-1,643052,219986,1740593,66183,10315,869491,0
13,-1,639767,218975,1350179,65819,6876,674641,0
13,2,716079,251486,1418520,74899,9382,708530,0
13,-1,644543,221562,1308626,66945,7560,653589,0
13,-1,637656,218869,1301671,65685,7607,650293,0
13,2,712723,250025,1480263,74620,10188,739421,0
13,-1,646925,220609,1274051,66391,7991,636405,0
13,-1,644233,221172,1342507,66730,8234,670183,0
13,-1,642617,220737,1294709,66577,7527,646665,0
13,2,730290,253222,1487979,77112,10316,742931,0
13,-1,643528,219936,1303161,65852,8176,651119,0
13,-1,645569,221002,1293779,66330,7591,646371,0
13,2,713699,250319,1357623,74547,8911,677986,0
13,-1,645896,222121,1310599,66980,7856,654641,0
13,-1,661975,224101,1247651,69205,8732,623399,0
13,-1,641459,218857,1281894,65672,7222,640454,0
13,2,703575,248049,1566377,73219,9597,782338,0
13,-1,640963,219489,1274336,65942,7963,636726,0
13,-1,643675,219291,1206744,65612,8129,602908,0
13,-1,661489,223669,1260821,69013,8187,630046,0
13,2,713196,248373,1469470,74229,9761,734274,0
13,-1,638550,219349,1344988,65819,7958,671928,0
13,-1,648071,221084,1246566,66547,8363,622463,0
13,2,711696,249290,1365957,74431,9484,682532,0
13,-1,640262,219139,1178308,65682,7216,588747,0
13,-1,648692,221164,1209807,66586,8024,604141,0
13,2,716466,247780,1408407,74049,8756,703225,0
13,-1,643242,219083,1272593,65612,6836,635858,0
13,-1,637070,219705,1212452,65451,7214,605702,0
13,2,716172,249393,1562469,74443,10130,780793,0
13,-1,634471,218904,1275054,65124,7703,637119,0
13,-1,639245,218768,1300866,66031,7810,649978,0
13,2,711523,249540,1879210,74533,10922,937931,0
13,-1,637096,218591,1277445,66092,7745,638221,0
13,-1,639330,218104,1305315,65875,7837,652168,0
13,-1,639271,218125,1315182,65875,8257,657026,0
13,2,714179,248717,1340891,74218,9415,669890,0
13,-1,638605,219337,1423644,66311,7676,711325,0
13,-1,644387,219614,1209210,66440,7789,603752,0
13,-1,642085,218904,1314968,66148,7220,656977,0
13,2,706064,247894,1413439,74152,9621,706094,0
14,-1,693581,237191,1315851,70749,9430,657186,0
14,2,710711,247510,1248000,73331,8645,623624,0
14,-1,640987,218776,1309127,65747,8272,654192,0
14,-1,654821,223126,1276268,69001,7645,637556,0
14,-1,636416,218076,1219781,65429,6902,609464,0
14,2,708432,248474,1486148,73806,9031,742639,0
14,-1,637076,218848,1243158,65867,7461,620999,0
14,-1,641947,220446,1308963,66343,7640,653818,0
14,-1,637205,218401,1316377,65525,7755,657722,0
14,2,707253,248604,1298050,74065,8582,648507,0
14,-1,640134,218749,1244493,65883,7774,621716,0
14,-1,641395,218844,1322064,65881,7674,660523,2
14,-1,649361,221098,1289914,66903,8107,644032,0
14,-1,639617,220837,1236804,66788,7643,617484,0
14,2,703929,249287,1393146,74183,8487,695063,0
14,-1,638146,219412,1249344,66068,7243,624214,0
14,-1,642065,220115,1267013,66216,7166,632952,0
14,2,712513,249107,1323524,74010,8020,661280,0
14,-1,639596,219586,1217799,65992,7050,608304,0
14,-1,641772,219518,1316468,65977,7991,657807,0
14,-1,641229,219920,1322098,66177,6934,660483,0
14,2,713706,249413,1530738,73998,9279,764839,0
14,-1,641316,220091,1303353,66184,7933,651289,0
14,-1,638048,219364,1488124,65972,9287,743359,0
14,2,709219,248986,1439640,74065,9311,719228,0
14,-1,642560,219514,1204610,65879,7298,601808,0
14,-1,661932,224421,1292641,69274,8481,645973,0
14,-1,642424,220002,1207033,66187,7398,603031,0
14,2,707740,248380,1530681,73680,9550,764790,0
14,-1,649466,221311,1312355,66389,6839,655647,0
14,-1,644687,220267,1482634,65972,8745,740614,0
14,2,714662,248958,1347945,73904,9397,673842,0
14,-1,641789,219560,1230216,65798,7600,614743,0
14,-1,646222,221048,1426677,66657,8521,712563,0
14,-1,639852,218512,1376146,65581,7981,687426,0
14,2,713216,250541,1317429,74373,8713,657918,0
14,-1,641113,220231,1179750,66159,6930,589352,0
14,-1,644400,219619,1308897,65718,8527,654017,0
14,-1,639815,219259,1264403,65665,7456,631769,0
14,2,708898,247743,1425610,73964,9368,712219,0
14,-1,635451,218441,1247877,65426,7834,623335,0
14,-1,641917,219228,1245583,65808,7826,622279,0
14,2,731890,252750,1509559,77434,10871,754331,0
14,-1,641642,219412,1334483,65834,7477,666866,0
14,-1,645244,219214,1366908,65657,8006,683051,0
14,2,715552,248649,1437749,74233,10004,718214,0
14,-1,648155,221356,1242773,66658,6876,620525,0
14,-1,632341,218071,1169429,64814,6987,584324,0
14,2,715945,250538,1395905,75113,8992,697008,0
14,-1,632423,218963,1249687,65195,7752,624442,0
14,-1,639504,218825,1265524,66046,7614,632429,0
14,2,709166,248897,1417856,74305,9725,708391,0
14,-1,637036,218975,1292710,66179,8148,645870,0
14,-1,641814,219116,1403381,66176,8552,701283,0
14,-1,646545,221042,1231429,67154,8156,614924,0
14,2,713840,249550,1339706,74464,8245,669333,0
14,-1,638366,218869,1266411,66121,7247,632776,0
14,-1,640868,218398,1251844,65951,7572,625417,0
14,-1,643490,220589,1235751,66982,7216,617125,0
14,2,733079,253201,1494515,77750,9651,746590,0
15,-1,694056,237400,1492838,70728,8994,745489,0
15,2,715797,250242,1408778,74626,9378,703654,0
15,-1,640335,218550,1325134,65498,7598,662199,0
15,-1,637207,219535,1249209,66021,7437,624127,0
15,-1,660323,223353,1269554,69034,8177,634311,0
15,2,709781,249615,1383732,74233,9164,691333,0
15,-1,639482,218892,1257736,65878,9039,628300,0
15,-1,665865,228853,1310185,68584,7580,654639,0
15,-1,641920,219917,1214371,66117,7656,606585,0
15,2,705705,248633,1374320,74029,9013,686688,0
15,-1,638491,217942,1283113,65515,7369,641027,0
15,-1,665295,223928,1219395,69321,8375,609074,0
15,-1,635201,219014,1275983,66009,7328,637467,2
15,-1,632623,217600,1111362,65551,6457,555067,0
15,2,712132,248507,1308206,73863,9174,653661,0
15,-1,636731,219318,1196039,66038,6539,597444,0
15,-1,637508,218835,1229741,65736,7141,614310,0
15,2,709652,249008,1243691,74103,8556,621365,0
15,-1,642347,220754,1318544,66615,7694,658512,0
15,-1,641447,219799,1231098,66115,6886,614632,0
15,-1,641257,219641,1300273,66057,7867,649603,0
15,2,733853,254759,1419478,77554,10168,709253,0
15,-1,640021,219654,1275240,66009,7351,637210,0
15,-1,640945,219663,1304851,66043,7588,651994,0
15,2,708039,248974,1423644,74080,9213,711327,0
15,-1,639826,218858,1213437,65730,6836,606282,0
15,-1,639648,219704,1318067,65888,7795,658545,0
15,-1,646845,221966,1345098,67140,8116,671684,0
15,2,714882,250863,1472707,74804,9856,735431,0
15,-1,645536,220266,1274158,66246,7599,636316,0
15,-1,665002,225340,1311991,69522,9294,655496,0
15,2,716584,250510,1436529,74693,9305,717228,0
15,-1,641224,219898,1306573,66007,7310,652853,0
15,-1,640283,219550,1340870,65896,7913,669780,0
15,-1,647360,221452,1310519,66695,7624,654566,0
15,2,709160,249648,1332947,73982,8758,665731,0
15,-1,640399,219129,1317364,65767,7342,658240,0
15,-1,641791,219202,1288332,65597,8091,643744,0
15,-1,638322,219216,1167792,65657,6786,583410,0
15,2,712894,248576,1358678,74293,9173,678904,0
15,-1,644581,220541,1303732,66400,7616,651090,0
15,-1,640656,219003,1333164,65674,7983,666095,0
15,2,709268,248442,1512240,74226,9784,755750,0
15,-1,644668,220086,1285142,66249,7504,641938,0
15,-1,643034,219059,1267109,65728,7436,632437,0
15,2,711284,247629,1435284,73840,9935,717006,0
15,-1,664318,223994,1333912,69016,7456,666381,0
15,-1,633347,218649,1229488,65041,7662,614283,0
15,2,710716,248674,1324598,74243,8892,661752,0
15,-1,638350,221046,1262296,66040,7263,630515,0
15,-1,638673,218875,1203880,66118,7449,601474,0
15,2,711695,250276,1362465,74955,10085,680549,0
15,-1,642087,220909,1211011,66989,8146,604905,0
15,-1,641440,219381,1551547,66607,9091,774628,0
15,-1,663045,223445,1381610,69431,9090,690231,0
15,2,713000,249292,1341703,74368,9361,670330,0
15,-1,637191,218800,1214034,66144,7001,606474,0
15,-1,645875,220680,1238341,67002,7341,618187,0
15,-1,659941,223574,1385508,69424,8593,692213,0
15,2,709749,248369,1385163,74305,8944,692191,0
16,-1,692927,237431,1350832,70818,8435,675076,0
16,2,711015,247696,1426284,73500,8642,712635,0
16,-1,645344,220908,1422612,66690,8383,710491,0
16,-1,634743,218868,1217467,65781,7662,608294,0
16,-1,637691,218474,1229634,65668,7617,614269,0
16,2,711313,248506,1445018,73806,9670,722001,0
16,-1,637502,218406,1241447,65716,8726,619900,0
16,-1,640443,219737,1291241,65943,8030,645237,0
16,-1,642235,220369,1271050,66478,8236,634734,0
16,2,713591,249660,1485304,74607,9773,741952,0
16,-1,642169,219823,1384187,66223,7013,691699,0
16,-1,645686,219249,1371793,66002,7800,685396,0
16,-1,638708,220250,1207192,66553,7653,602768,0
16,-1,639059,219790,1276370,66227,7240,637630,2
16,2,731682,253961,1398054,77546,9210,698523,0
16,-1,638122,219873,1279441,66344,7453,638931,0
16,-1,661680,223939,1390492,69264,8221,694669,0
16,2,716285,250890,1357931,74988,9992,678222,0
16,-1,638134,219434,1221477,66004,7223,610263,0
16,-1,642553,220375,1304216,66432,8103,651345,0
16,-1,637974,218387,1321716,65582,7587,660350,0
16,2,709827,249302,1466625,73882,9684,732913,0
16,-1,638262,219458,1208867,66013,6965,603858,0
16,-1,639519,219552,1249923,65896,7491,624499,0
16,2,715494,250734,1598146,74918,10032,798248,0
16,-1,646219,221724,1294052,66970,7077,646284,0
16,-1,641449,219299,1400261,65802,8001,699120,0
16,-1,639636,219376,1169120,65787,7438,584131,0
16,2,706109,248334,1465507,73702,9842,732164,0
16,-1,645467,220663,1209666,66321,6418,604376,0
16,-1,644948,221271,1238551,66411,7831,618676,0
16,2,710403,248631,1374717,73755,9092,686953,0
16,-1,642993,220810,1244623,66220,7793,621708,0
16,-1,635340,217929,1329755,65388,8311,664404,0
16,2,707303,248478,1303977,73273,8721,651524,0
16,-1,638667,218592,1330662,65565,8137,664965,0
16,-1,640807,219112,1194626,65822,7125,596884,0
16,-1,664647,224221,1236535,69043,9171,617681,0
16,-1,645588,221094,1255004,66577,7665,626600,0
16,2,710560,248109,1665780,74122,10537,832410,0
16,-1,642709,218820,1324712,65592,8393,662031,0
16,-1,644915,221312,1363987,66751,8534,680894,0
16,2,716138,249364,1498926,74573,9806,749002,0
16,-1,640898,219132,1219853,65682,7319,609468,0
16,-1,642526,219117,1324008,65647,8252,661753,0
16,2,713416,248155,1406031,73999,9734,702229,0
16,-1,642016,219198,1314163,65630,6797,656461,0
16,-1,642948,221392,1145059,66302,7012,571934,0
16,2,718325,250862,1386040,75259,9923,692239,0
16,-1,637602,218359,1264735,64976,7530,631943,0
16,-1,639719,219250,1300109,66177,7463,649563,0
16,2,708376,249162,1343258,74344,9132,671119,0
16,-1,635985,218695,1271784,66021,8418,635482,0
16,-1,638977,218154,1264728,65872,7500,632307,0
16,-1,641623,219177,1312633,66242,7828,655993,0
16,2,712737,249165,1501278,74384,10286,750209,0
16,-1,636532,218827,1343602,66029,7512,671297,0
16,-1,640781,218975,1263582,66178,7964,631290,0
16,2,728146,252347,1444638,77465,10082,721830,0
16,-1,640389,218606,1230197,66085,7532,614583,0
17,-1,690800,236963,1318120,70645,8006,658429,0
17,2,709013,248097,1456579,73775,8743,727643,0
17,-1,639606,218902,1174869,65780,7984,586968,0
17,-1,641006,220985,1265573,66717,8025,631928,0
17,-1,636021,218270,1230770,65556,6715,614837,0
17,2,710835,248818,1411545,73820,9294,705342,0
17,-1,642098,220774,1218604,66817,7840,608110,0
17,-1,640574,219355,1208236,65825,7214,603590,0
17,-1,639729,219672,1192951,66051,7648,595846,0
17,2,730552,253176,1361724,77336,9395,680331,0
17,-1,637786,218404,1268182,65758,7015,633619,0
17,-1,644805,219663,1288310,66178,7618,643673,0
17,-1,633561,218467,1211445,65698,7190,605043,0
17,-1,635697,219208,1169666,66060,6606,584233,2
17,2,713601,249243,1328313,74189,9328,663518,0
17,-1,637520,219554,1281240,66122,7841,640156,0
17,-1,639981,219702,1430047,66105,7217,714446,0
17,2,711741,249876,1436797,74534,9127,717809,0
17,-1,637217,218991,1312814,65854,7554,655930,0
17,-1,640754,219321,1212628,65950,6994,605818,0
17,-1,639411,219488,1257613,65919,7591,628449,0
17,2,712847,250474,1323604,74429,9541,661267,0
17,-1,642486,220986,1279228,66645,7564,638661,0
17,-1,635285,218870,1283833,65738,7515,641451,0
17,2,711069,250401,1497074,74707,9824,747759,0
17,-1,643042,220157,1334436,66228,7805,666735,0
17,-1,640035,219796,1208628,65966,6805,603842,0
17,-1,644882,221594,1301311,66745,8006,649984,0
17,2,712536,249224,1398959,73917,8887,698999,0
17,-1,645286,220593,1393808,66320,7828,696379,0
17,-1,646123,221716,1354758,66760,8098,676596,0
17,2,734283,253696,1415765,77249,9645,707462,0
17,-1,639968,219849,1176122,65915,7258,587579,0
17,-1,646502,220931,1365306,66656,8914,681790,0
17,2,704834,248612,1368641,73323,9100,683725,0
17,-1,639549,218702,1336485,65597,7775,667719,0
17,-1,640062,218851,1297569,65627,7976,648265,0
17,-1,642755,219297,1385046,65618,7647,692086,0
17,-1,661866,223810,1220870,68982,7677,609884,0
17,2,711577,249438,1357672,74531,8954,678461,0
17,-1,642983,219234,1570045,65737,9990,784611,0
17,-1,661507,223348,1321676,68943,8594,660271,0
17,2,711488,248126,1405471,74124,9270,702243,0
17,-1,636280,218179,1177726,65356,6471,588429,0
17,-1,648955,221451,1269065,66780,8438,633630,0
17,2,713151,248082,1491937,74035,9606,745059,0
17,-1,649238,220679,1193406,66370,7664,595844,0
17,-1,636333,219153,1258307,65210,6765,628685,0
17,2,716861,250603,1423564,75171,9522,710808,0
17,-1,638358,218628,1250704,65083,7112,624907,0
17,-1,641377,219582,1201571,66612,7947,600133,0
17,2,712752,248570,1422006,74180,8809,710618,0
17,-1,639268,218456,1162428,65926,8206,580787,0
17,-1,638318,218620,1180506,66040,7938,589769,0
17,-1,640618,219085,1274227,66171,8101,636657,0
17,2,711328,248736,1358988,74200,9099,679079,0
17,-1,657917,223792,1351087,69536,8137,675105,0
17,-1,638488,218551,1194306,66007,7527,596644,0
17,2,706546,248311,1592413,74349,10677,795023,0
17,-1,640467,219214,1283465,66246,7711,641156,0
18,-1,690449,236746,1295858,70517,7672,646783,0
18,2,710056,248532,1349655,73792,8756,674290,0
18,-1,642186,219565,1229013,65993,7320,614166,0
18,-1,633072,218293,1196206,65538,7419,597716,0
18,-1,637949,218779,1161013,65707,7000,580064,0
18,2,732928,253907,1626238,77344,10069,812434,0
18,-1,657459,223093,1229295,69074,8227,614119,0
18,-1,659055,223620,1305699,69063,8038,652285,0
18,-1,639472,218866,1226353,65715,7867,612607,0
18,2,706589,248196,1412245,73861,9023,705631,0
18,-1,645347,221400,1271071,67088,7423,634612,0
18,-1,644015,219384,1197761,66073,7680,598441,0
18,-1,640970,221221,1312121,66967,8088,655226,0
18,2,712385,248765,1381941,74003,8679,690514,0
18,-1,638556,220988,1275738,66894,7722,636966,2
18,-1,639268,219063,1289291,65910,6764,644280,0
18,-1,637855,219363,1267675,65885,7120,633347,0
18,2,708255,249195,1417281,74148,7355,708140,0
18,-1,640084,220494,1250676,66355,7323,624892,0
18,-1,659109,223968,1250365,69256,8253,624446,0
18,-1,641371,220042,1258489,66226,7547,628608,0
18,2,711254,249114,1402645,73826,11199,700777,0
18,-1,639377,220163,1263564,66185,7473,631377,0
18,-1,641083,220416,1243706,66290,7408,621472,0
18,2,707641,248853,1322968,74015,9761,661029,0
18,-1,640656,219924,1201919,66103,7573,600513,0
18,-1,637502,219097,1276533,65696,6365,637447,0
18,-1,638084,219351,1273017,65710,7841,636076,0
18,2,735984,257506,1414549,76340,9546,706853,0
18,-1,643784,220064,1208093,66153,6801,603602,0
18,-1,643997,221074,1283990,66340,8170,641458,0
18,2,711423,249616,1416512,74322,8678,707555,0
18,-1,640775,219734,1238149,65893,7459,618627,0
18,-1,664713,224474,1224661,69290,8198,611831,0
18,2,707187,248835,1527063,73375,9059,762962,0
18,-1,660328,223290,1301675,68889,8202,650459,0
18,-1,645206,221314,1306452,66809,7873,652379,0
18,-1,642565,219730,1498385,65803,8538,748646,0
18,-1,640536,219540,1139667,65761,7015,569341,0
18,2,712259,249390,1417635,74720,10134,707892,0
18,-1,645348,220749,1323393,66573,8091,660589,0
18,-1,641233,219300,1306434,65751,7851,652747,0
18,2,714002,249847,1347346,74868,9791,672957,0
18,-1,640744,219566,1284403,65871,7218,641653,0
18,-1,641061,218981,1245145,65700,7723,622167,0
18,2,737376,253472,1510211,77685,10361,754524,0
18,-1,644707,219634,1182934,65852,6786,590970,0
18,-1,635684,219242,1254484,65278,6853,626759,0
18,2,715698,249550,1419182,74606,9388,708991,0
18,-1,658236,223782,1310313,68582,7978,654606,0
18,-1,637077,218522,1263402,66061,8227,631240,0
18,2,719242,249989,1358260,74655,9776,678622,0
18,-1,661099,223570,1316003,69450,9329,657612,0
18,-1,639646,219558,1264066,66384,7989,631518,0
18,2,735599,254636,1459766,77884,10936,729237,0
18,-1,639362,218399,1336928,65958,7988,668040,0
18,-1,641918,219719,1303271,66429,8509,651096,0
18,-1,641022,218361,1212770,65908,7567,605944,0
18,2,709916,247750,1422695,74130,9801,710804,0
18,-1,639844,218746,1308876,66017,7586,654033,0
18,-1,639808,219144,1224910,66124,6775,611941,0
19,-1,712710,241713,1461797,73944,9017,730922,0
19,2,707075,247946,1274776,73657,8051,636971,0
19,-1,643310,220433,1300407,66476,7381,649447,0
19,-1,641467,218669,1199866,65591,7858,599521,0
19,-1,637946,219148,1198577,65886,7075,598870,0
19,2,712846,250010,1460211,74202,9295,729642,0
19,-1,639151,218907,1169123,65886,7354,584073,0
19,-1,638343,218960,1260810,65694,7203,629868,0
19,-1,640891,219360,1206007,65908,7403,602477,0
19,2,710488,249903,1404423,74671,8936,701409,0
19,-1,645513,220440,1380693,66609,8187,689516,0
19,-1,640382,218700,1249450,65865,7623,624144,0
19,-1,655035,223595,1290808,69246,8023,644911,0
19,2,716652,251130,1515950,75133,9136,757049,0
19,-1,636034,219329,1197485,66093,7036,598244,2
19,-1,644770,221698,1337263,67146,7302,667570,0
19,-1,640003,219988,1192800,66190,6623,595938,0
19,2,711728,249269,1729137,74025,10288,864159,0
19,-1,635613,218989,1159228,65815,7489,579137,0
19,-1,641580,219637,1337956,66044,7856,668437,0
19,-1,641439,220589,1391754,66614,7566,694873,0
19,2,731220,254455,1544245,77428,11431,770420,0
19,-1,639830,219172,1170349,65928,6935,584688,0
19,-1,636935,218984,1176976,65777,7079,588089,0
19,2,727765,253355,1564845,77295,9887,781874,0
19,-1,644303,219750,1159057,66070,7803,579069,0
19,-1,643282,220933,1287508,66632,7877,643117,0
19,-1,638113,219579,1243851,65931,7772,621403,0
19,2,713049,249860,1368424,74128,9209,683663,0
19,-1,646959,220429,1222581,66355,7553,610875,0
19,-1,646435,222269,1332798,66910,8127,665653,0
19,2,715530,250462,1446684,74685,8896,722622,0
19,-1,645228,221944,1231079,66978,8228,614641,0
19,-1,639178,218556,1234104,65524,7421,616527,0
19,2,704006,248003,1387031,73079,8753,693107,0
19,-1,639715,219397,1310374,65893,7719,654624,0
19,-1,663029,224617,1266948,69381,7683,633126,0
19,-1,644629,221041,1329770,66422,8220,664174,0
19,-1,641028,220311,1195031,66174,7458,596691,0
19,2,710774,247481,1473216,73945,9687,736751,0
19,-1,663122,224027,1449874,69154,9073,724487,0
19,-1,646963,221569,1233885,66721,6996,616161,0
19,2,710476,248241,1396288,74140,9946,697556,0
19,-1,639412,219757,1214321,65937,6791,606689,0
19,-1,642984,219079,1223049,65666,7508,611080,0
19,2,710716,247832,1447024,73998,9443,723068,0
19,-1,648349,220819,1172585,66570,7058,585624,0
19,-1,632687,218642,1281889,65045,7787,640534,0
19,2,711150,248862,1512458,74333,9581,755591,0
19,-1,640112,219551,1269515,65424,7734,634245,0
19,-1,639157,218951,1123056,66229,7816,561078,0
19,2,715101,248952,1395769,74342,9378,697337,0
19,-1,637817,218864,1279499,66114,8791,639314,0
19,-1,639563,219749,1230261,66561,7247,614136,0
19,2,718864,249394,1412140,74367,9869,705437,0
19,-1,638587,218231,1340018,65897,8136,669601,0
19,-1,641270,219707,1412219,66418,8506,705657,0
19,-1,640734,219003,1181751,66157,7009,590270,0
19,2,730079,253025,1561139,77658,11020,779920,0
19,-1,643754,220815,1192802,67038,6893,595668,0
19,-1,640599,219543,1377555,66259,7556,688284,0
20,-1,688693,237140,1311639,70678,7867,655327,0
20,2,707328,247785,1286065,73553,8506,642640,0
20,-1,638379,218438,1218112,65547,7476,608612,0
20,-1,641377,218637,1156500,65577,7727,577783,0
20,-1,635654,218655,1234991,65804,7020,616984,0
20,2,712593,248962,1356097,73881,9196,677528,0
20,-1,636624,218306,1212871,65602,8335,605943,0
20,-1,638870,219418,1320402,65891,7977,659743,0
20,-1,639276,218824,1162373,65638,7018,580710,0
20,2,729394,252959,1375679,77286,9097,687321,0
20,-1,641816,219712,1290859,66181,7574,644901,0
20,-1,643403,219134,1239438,65893,7634,619217,0
20,-1,640900,220525,1325426,66646,8074,661853,0
20,2,710467,248721,1430228,73980,8468,714673,0
20,-1,634566,218461,1282943,65734,7307,640943,0
20,-1,636892,219188,1173899,65890,6790,586372,2
20,-1,641645,220982,1302203,66703,7252,650346,0
20,2,708698,249482,1449571,74221,8809,724281,0
20,-1,637725,219523,1392776,65961,7688,695573,0
20,-1,642562,219890,1369046,66098,7922,684156,0
20,-1,659899,224234,1459758,69348,8136,729275,0
20,2,708536,249590,1683298,74034,10691,841081,0
20,-1,640127,220043,1246258,66187,8581,622736,0
20,-1,638569,219516,1171011,66026,7030,585065,0
20,2,712513,249952,1550421,74383,9412,774741,0
20,-1,642029,219900,1195043,66164,7630,597017,0
20,-1,640927,220259,1310509,66127,7229,654691,0
20,-1,637831,219064,1305375,65744,7309,652365,0
20,2,712119,250478,1375490,74589,8915,686920,0
20,-1,643448,219496,1373488,66016,7845,686298,0
20,-1,669879,230311,1266569,69050,7695,632796,0
20,2,708358,248073,1310134,73574,8277,654610,0
20,-1,642071,220747,1212323,66274,8170,605615,0
20,-1,638934,218844,1328793,65633,7704,663909,0
20,2,702183,247308,1244215,72847,8351,621612,0
20,-1,638393,219260,1251675,65777,7120,625286,0
20,-1,641080,219491,1388434,65947,8013,693608,0
20,-1,644905,219817,1241609,65857,8323,620349,0
20,-1,638835,219099,1186818,65596,7471,592967,0
20,2,712609,249573,1330816,74795,8982,664625,0
20,-1,643571,219363,1472865,65849,9101,735814,0
20,-1,642924,219719,1186312,65933,7191,592583,0
20,2,717930,250441,1424779,75264,9098,711636,0
20,-1,639257,218552,1292716,65513,7238,645932,0
20,-1,640861,218608,1329170,65531,7973,664102,0
20,2,713494,249454,1339185,74643,8252,668773,0
20,-1,647539,221052,1270953,66658,6790,634753,0
20,-1,637274,220845,1211242,66051,7204,604862,0
20,2,711698,249299,1352486,74494,8693,675695,0
20,-1,637414,218800,1150306,65139,6518,574712,0
20,-1,641795,220662,1299121,66948,9066,648837,0
20,2,714953,248962,1331166,74341,9714,665037,0
20,-1,636114,218608,1196703,65981,8189,597898,0
20,-1,643088,219622,1209407,66418,7723,604220,0
20,-1,661508,223680,1355258,69508,8575,677197,0
20,2,717766,249069,1433280,74314,10523,716200,0
20,-1,637933,218725,1327789,66035,7993,663477,0
20,-1,641318,219509,1140236,66280,6927,569644,0
20,2,708396,248080,1534061,74203,10271,766167,0
20,-1,659370,223526,1356395,69448,8357,677650,0
20,-1,640252,219491,1169564,66363,7380,584240,0
21,-1,699112,239257,1370885,71576,8275,684586,0
21,2,712376,250273,1429397,74659,9003,713929,0
21,-1,645560,221178,1357518,66699,7669,677911,0
21,-1,643062,219592,1312833,65916,7539,655921,0
21,-1,635155,218591,1218189,65680,6400,608708,0
21,2,714083,250417,1629731,74618,10424,814076,0
21,-1,641716,220328,1306164,66470,8127,652297,0
21,-1,638721,219707,1211012,65989,7782,604915,0
21,-1,642762,220567,1214941,66581,7608,606537,0
21,2,709520,249152,1316694,74215,8666,657792,0
21,-1,638362,218498,1201182,65751,7531,600215,0
21,-1,648702,221148,1317567,66935,8469,658032,0
21,-1,639008,219105,1342955,65970,7693,670966,0
21,2,711536,249175,1461029,74169,8972,729925,0
21,-1,637048,219660,1194211,66118,6597,596584,0
21,-1,637149,219496,1201352,66041,7429,600107,0
21,-1,643673,220473,1283248,66360,8220,641043,2
21,2,714514,250029,1583152,74663,10722,791135,0
21,-1,641035,220178,1213420,66225,7820,606346,0
21,-1,640966,219764,1273521,66105,6774,636172,0
21,-1,641844,220047,1392926,66222,7693,695973,0
21,2,718915,249861,1320260,74189,8694,659565,0
21,-1,643379,221067,1257530,66733,8365,628075,0
21,-1,641120,219085,1194773,65850,6807,596963,0
21,2,716528,249936,1566452,74565,10014,782294,0
21,-1,636060,218006,1195325,65516,7513,597196,0
21,-1,640345,220074,1229535,66036,6694,614336,0
21,-1,664695,223817,1213519,69089,8941,606289,0
21,2,729719,254068,1401928,77247,10104,700445,0
21,-1,651324,223077,1333640,67518,7962,665945,0
21,-1,640279,220291,1294291,66051,8600,646572,0
21,2,708211,248530,1353603,73765,8260,676284,0
21,-1,646991,220466,1218062,66145,8675,608308,0
21,-1,640152,219139,1361019,65786,8413,680061,0
21,2,705236,248604,1419184,73268,9719,709159,0
21,-1,638419,218983,1186452,65689,7513,592703,0
21,-1,639035,218996,1212834,65728,8354,605978,0
21,-1,642696,219425,1222493,65697,8183,610817,0
21,-1,641944,219580,1279556,65739,7674,639246,0
21,2,708119,248257,1366662,74137,9306,682785,0
21,-1,641471,218855,1217646,65647,7704,608295,0
21,-1,636543,218274,1391284,65505,8036,694958,0
21,2,711422,248854,1388677,74486,8846,693703,0
21,-1,642626,219383,1260395,65822,7260,629687,0
21,-1,662972,223820,1370796,69030,8363,684945,0
21,2,718915,250127,1494748,75085,10272,746306,0
21,-1,643429,219801,1284399,65938,7021,641784,0
21,-1,652449,223110,1339247,68347,8761,669126,0
21,2,710562,248974,1407412,74377,9879,703348,0
21,-1,638332,219594,1139870,65583,6949,569264,0
21,-1,636737,219252,1399780,65445,7625,698822,0
21,2,714413,248972,1388467,74351,8874,693723,0
21,-1,643045,220755,1238394,66908,8534,618126,0
21,-1,641115,219285,1331477,66230,8343,665201,0
21,2,714920,249003,1483999,74316,10264,741385,0
21,-1,639233,219032,1288212,66198,7743,643643,0
21,-1,638331,219270,1242015,66279,7974,620438,0
21,-1,642186,219808,1185167,66654,7787,591919,0
21,2,706575,247806,1499768,74138,10494,749367,0
21,-1,646608,219853,1293819,66569,8174,646263,0
21,-1,639776,218915,1226433,66165,7661,612793,0
22,-1,690524,236377,1236087,70419,7667,617539,0
22,2,709499,247750,1358470,73529,9069,678753,0
22,-1,661297,223671,1417197,68968,8472,708075,0
22,-1,644046,220382,1290800,66369,7869,644766,0
22,-1,634473,218401,1253724,65603,6553,626446,0
22,2,715345,249712,1647489,74414,11080,823550,0
22,-1,634346,218363,1221581,65626,7476,610349,0
22,-1,662100,223790,1268796,69064,7996,633876,0
22,-1,661120,224037,1190304,69209,8258,594755,0
22,2,706773,248702,1247602,74121,8502,623183,0
22,-1,666940,228188,1314751,68639,8030,656820,0
22,-1,663751,223416,1298322,69178,8964,648623,0
22,-1,636823,218560,1216662,65810,7280,607874,0
22,2,707409,248490,1562009,73883,9333,780263,0
22,-1,657097,223489,1253305,69209,8431,626083,0
22,-1,660927,224073,1234059,69324,7340,616587,0
22,2,710623,249687,1471033,74554,9322,734827,0
22,-1,670845,231331,1467688,69947,8598,732454,0
22,-1,637333,219801,1179948,66149,7419,589439,2
22,-1,638678,219295,1230042,65971,7247,614200,0
22,-1,637298,219269,1153994,65895,7604,576362,0
22,2,715556,250072,1342778,74193,9698,670887,0
22,-1,637813,219830,1208574,66048,7732,603852,0
22,-1,640914,219120,1315778,65851,7562,657503,0
22,2,716760,250255,1441717,74670,10754,720007,0
22,-1,642870,220264,1225174,66485,7143,611840,0
22,-1,664040,228706,1324863,68620,7028,661978,0
22,2,708638,248653,1413541,73646,9379,706232,0
22,-1,643225,219529,1196616,65921,7311,597840,0
22,-1,665592,225365,1259560,69737,7725,629550,0
22,-1,646965,221423,1490341,66422,9729,744640,0
22,2,716158,250697,1362568,74754,8897,680329,0
22,-1,645834,220395,1256671,66090,8845,627611,0
22,-1,638868,219015,1303294,65655,7444,651059,0
22,2,724682,252247,1477726,76220,9639,738398,0
22,-1,645925,221845,1320498,66936,8349,659377,0
22,-1,666469,224077,1283741,69225,8585,641355,0
22,-1,642263,219141,1417705,65570,8698,708439,0
22,2,714823,250156,1320777,74993,9084,659711,0
22,-1,642124,219850,1359110,65884,7719,679073,0
22,-1,640231,219237,1196769,65737,7530,597783,0
22,-1,641766,219146,1129708,65762,7355,563931,0
22,2,709061,247428,1444020,73904,8849,721543,0
22,-1,640641,218656,1363037,65507,7565,681049,0
22,-1,641761,218482,1311613,65419,8190,655311,0
22,2,713564,248152,1335725,74145,8908,667357,0
22,-1,640679,219025,1234961,65703,7188,617022,0
22,-1,636548,218976,1165222,65164,6438,582254,0
22,2,714867,251282,1506859,75497,10313,752492,0
22,-1,634898,218578,1195320,65050,7913,597262,0
22,-1,642466,219973,1270333,65872,7779,635014,0
22,2,714948,249271,1393133,74435,9946,696225,0
22,-1,637168,219218,1210571,66253,8310,604832,0
22,-1,644876,220637,1212704,66997,7559,605559,0
22,2,713752,249096,1525947,74388,9933,762148,0
22,-1,640215,218969,1197553,66140,7454,598307,0
22,-1,642996,220774,1221827,67021,8305,610088,0
22,-1,636357,218178,1294670,65883,7218,646938,0
22,2,706430,247952,1453179,74215,9459,726198,0
22,-1,643399,219059,1404103,66189,8718,701333,0
22,-1,638784,219021,1212703,66142,7337,605969,0
23,-1,689074,236309,1374394,70380,8041,686764,0
23,2,707933,248665,1455942,73847,9194,727505,0
23,-1,640435,219935,1233522,65935,7369,616288,0
23,-1,642986,219677,1261153,65974,7821,630031,0
23,-1,637906,219103,1178232,65903,6430,588676,0
23,2,712644,248536,1482246,73801,10315,740640,0
23,-1,640088,219064,1243388,65800,7283,621231,0
23,-1,643222,218899,1334740,65704,8151,666929,0
23,-1,637114,218624,1235464,65681,7265,617057,0
23,2,706144,249394,1399832,74328,8919,699421,0
23,-1,639085,219233,1222714,66022,7036,610763,0
23,-1,642491,219110,1335406,65990,7735,667315,0
23,2,709079,249519,1261101,74255,8808,629889,0
23,-1,640091,220325,1316179,66592,7923,657191,0
23,-1,638717,220130,1206553,66347,7279,602661,0
23,-1,638665,219285,1303261,65973,7344,651153,0
23,2,709989,249311,1334363,74137,8470,666723,0
23,-1,658541,223997,1372079,69283,9382,685168,0
23,-1,638543,219197,1318894,65887,7542,658942,0
23,-1,666290,228868,1279031,68825,7308,639114,2
23,-1,642122,219407,1199709,66006,7919,599326,0
23,2,722593,251785,1407934,75054,10209,703203,0
23,-1,635563,219043,1178827,65817,7043,588733,0
23,-1,662958,223865,1253932,69231,7973,626526,0
23,2,713895,248838,1510357,74003,10346,754612,0
23,-1,641797,220003,1201916,66092,7312,600511,0
23,-1,641219,220956,1379713,66558,7133,689080,0
23,2,707776,248620,1453447,73577,8803,726294,0
23,-1,643092,219913,1226391,66039,7491,612683,0
23,-1,645795,221275,1313415,66743,8062,655776,0
23,-1,643648,221722,1410404,66466,9602,704636,0
23,2,709522,248879,1418743,73897,8534,708810,0
23,-1,646742,220564,1267656,66178,9011,633235,0
23,-1,643103,220643,1305371,66468,7705,652026,0
23,2,708692,249335,1419099,73558,8852,709080,0
23,-1,638990,219318,1356573,65802,7946,677707,0
23,-1,643953,219316,1178628,65846,7622,588769,0
23,-1,648726,222109,1337303,66861,8977,667884,0
23,2,708927,248280,1423365,74219,8999,711207,0
23,-1,640179,219544,1212586,65756,7140,605851,0
23,-1,638302,218689,1282928,65547,8330,640965,0
23,-1,641222,218819,1470987,65611,9624,734790,0
23,2,736137,257671,1412667,76965,9471,705875,0
23,-1,663868,224505,1283150,69288,7400,641089,0
23,-1,641369,218619,1396208,65515,8514,697391,0
23,2,712887,248454,1415492,74211,9784,707264,0
23,-1,638504,218719,1168354,65544,7028,583645,0
23,-1,639423,220743,1241027,65962,6526,619786,0
23,2,715178,249935,1582211,74757,9804,790963,0
23,-1,633454,217859,1126262,64882,7172,562712,0
23,-1,638912,218978,1316846,65290,7833,657936,0
23,2,737210,257498,1384519,76813,9095,691670,0
23,-1,642436,221276,1281299,67183,8151,639759,0
23,-1,662454,224081,1537141,69623,9691,768122,0
23,2,715457,248831,1340019,74262,10179,669424,0
23,-1,636486,218145,1222247,65793,7008,610449,0
23,-1,636163,218627,1329935,66026,8405,664550,0
23,-1,642102,220772,1219098,67102,7849,608709,0
23,2,706000,248088,1337358,74201,8784,668195,0
23,-1,642842,219190,1266017,66180,7806,632555,0
23,-1,637147,218870,1384354,66082,8135,691643,0
24,-1,691038,237122,1274344,70773,6387,636492,0
24,2,789603,276241,1441566,81588,8396,720319,0
24,-1,640045,219822,1347112,66102,7734,672840,0
24,-1,638793,218498,1173685,65528,7368,586418,0
24,-1,640931,220869,1275646,66722,7619,636961,0
24,2,716876,250272,1548688,74552,10868,773610,0
24,-1,635813,218050,1307595,65482,7977,653325,0
24,-1,641093,218879,1335181,65788,8810,666870,0
24,-1,638320,219244,1312892,65837,7491,655925,0
24,2,710121,249270,1423782,74297,9161,711371,0
24,-1,640697,219313,1392042,66069,7785,695478,0
24,-1,643706,220080,1358158,66434,8357,678335,0
24,2,706430,248611,1342649,73943,9929,670913,0
24,-1,657901,223871,1240229,69331,8288,619573,0
24,-1,637969,220013,1251290,66438,7610,624876,0
24,-1,638176,219084,1273280,65844,6799,636211,0
24,2,710926,249657,1322757,74343,9097,660502,0
24,-1,640306,220840,1366830,66651,8200,682690,0
24,-1,638918,219122,1238620,65875,7752,618814,0
24,-1,642252,221212,1313663,66853,8186,655948,2
24,-1,646442,221282,1375778,66889,7729,686941,0
24,2,720205,251795,1549236,75061,9804,773800,0
24,-1,634568,218934,1214950,65768,6588,607095,0
24,-1,639805,219168,1281011,65941,6838,639996,0
24,2,711041,248678,1518072,73885,9988,758119,0
24,-1,639146,219376,1145389,65936,7049,572187,0
24,-1,642637,220326,1246749,66116,6916,622767,0
24,2,713680,248385,1555209,73568,10229,777138,0
24,-1,641693,219377,1293657,65833,7892,646369,0
24,-1,646492,219771,1346236,66078,7933,672622,0
24,-1,641016,220302,1263235,66033,8360,631206,0
24,2,709121,248897,1314237,73913,8642,656643,0
24,-1,648320,221999,1393727,66894,8313,695932,0
24,-1,640057,219775,1218849,65947,7154,608938,0
24,2,708987,249210,1467090,73461,8664,733159,0
24,-1,640648,220451,1358330,66432,8197,678507,0
24,-1,641462,218858,1321113,65751,7803,660062,0
24,-1,642895,220022,1232735,65972,8033,615408,0
24,2,708677,248913,1467524,74404,8639,733263,0
24,-1,641168,219678,1281994,65763,7219,640613,0
24,-1,642031,219017,1180464,65716,7816,589690,0
24,-1,664088,223830,1297235,69078,8719,648070,0
24,2,714521,249957,1328767,75014,9162,663607,0
24,-1,638994,218812,1290356,65664,7357,644675,0
24,-1,662693,223746,1447126,69032,8298,722924,0
24,2,715723,250116,1333202,75025,9900,665847,0
24,-1,650051,221098,1230652,66640,7372,614570,0
24,2,709634,248907,1437127,74424,8845,718121,0
24,-1,634433,218458,1265441,64990,6830,632304,0
24,-1,644288,221737,1162455,66461,7016,580365,0
24,-1,638167,218910,1306591,65273,7346,652621,0
24,2,715389,249182,1419390,74366,9809,709113,0
24,-1,636202,218428,1377903,66017,7806,688151,0
24,-1,642519,220482,1204152,66880,7514,601502,0
24,2,719403,250732,1566066,75149,10250,782115,0
24,-1,675739,230102,1220931,69818,7889,609778,0
24,-1,636015,218552,1152827,66002,7549,576032,0
24,-1,639980,218479,1187288,65918,7361,593209,0
24,2,707734,249170,1411472,74800,9604,705070,0
24,-1,642958,219420,1325787,66231,8176,662408,0
24,-1,640123,219622,1265178,66397,8121,632023,0
25,-1,690106,236951,1295843,70626,6931,647316,0
25,2,781371,271926,1484313,82194,9698,741723,0
25,-1,637584,218885,1282008,65637,7461,640520,0
25,-1,661636,223608,1343824,69036,8510,671426,0
25,-1,635556,218910,1186041,65820,6659,592514,0
25,2,719709,252217,1794585,75327,11355,896616,0
25,-1,641705,220118,1287761,66415,7795,643160,0
25,-1,639000,218201,1524753,65592,8662,762097,0
25,-1,641416,219864,1202061,66053,6997,600458,0
25,2,707102,248180,1422235,73933,8867,710747,0
25,-1,645353,221708,1331112,67109,7661,664573,0
25,-1,644412,219541,1314076,66126,7960,656469,0
25,2,707612,249702,1470929,74338,9865,734918,0
25,-1,637202,219089,1311486,65947,7416,655191,0
25,-1,634797,219135,1180269,66005,6550,589554,0
25,-1,636814,219524,1191622,65993,6890,595386,0
25,2,710956,249780,1379047,74299,9090,688936,0
25,-1,636839,219398,1244209,65988,7189,621541,0
25,-1,643909,221470,1330041,66938,7450,664154,0
25,-1,639996,219290,1236246,66015,7305,617577,0
25,-1,641544,220165,1286185,66276,7717,642473,2
25,2,716596,249826,1305106,74260,8564,652129,0
25,-1,639176,220967,1376650,66773,8508,687462,0
25,-1,639640,219397,1231507,65892,6421,615378,0
25,2,712368,249288,1539302,74040,9236,769150,0
25,-1,645041,221570,1227253,66990,7871,612772,0
25,-1,644893,221314,1292714,66745,7791,645515,0
25,2,712127,248342,1555566,73463,10498,777366,0
25,-1,665774,224815,1285828,69949,8830,642408,0
25,-1,650535,221951,1330903,67030,7749,664586,0
25,-1,640715,220889,1407100,66228,9257,702672,0
25,2,707796,247944,1353305,73538,9343,676319,0
25,-1,647486,221130,1363531,66385,8771,681172,0
25,-1,638783,218897,1275049,65750,7458,636991,0
25,2,704326,248416,1498072,73203,8787,748462,0
25,-1,644386,219973,1282449,65996,8056,640720,0
25,-1,643317,219698,1295157,66061,7525,647035,0
25,-1,640221,219283,1233057,65741,9323,616055,0
25,2,710270,247979,1489206,74103,9929,744065,0
25,-1,662045,224811,1228853,69284,7879,614004,0
25,-1,647635,221718,1289582,66886,7884,643870,0
25,2,709560,248879,1529006,74315,10163,763982,0
25,-1,640608,218898,1343401,65681,7778,671011,0
25,-1,642798,219643,1312274,65916,7285,655682,0
25,-1,640886,218646,1184912,65488,7154,592097,0
25,2,712599,249347,1623050,74683,10563,811604,0
25,-1,644443,219220,1274424,65770,7811,636749,0
25,2,710458,248412,1312598,74305,8919,655889,0
25,-1,639378,221087,1189869,66148,6926,593739,0
25,-1,636792,219232,1196283,65232,7354,597695,0
25,-1,639135,219174,1227169,65420,7447,613033,0
25,2,717074,250932,1336485,75333,8472,666945,0
25,-1,634424,218098,1445081,65827,8087,722112,0
25,-1,639634,219807,1191400,66380,8389,594993,0
25,2,713637,249689,1421383,74674,9454,710205,0
25,-1,665221,223995,1251638,69610,8765,625420,0
25,-1,639528,220359,1245614,66825,8046,622039,0
25,-1,637706,218089,1415583,65797,8342,707403,0
25,2,704283,247895,1245791,74154,7425,622375,0
25,-1,642079,219207,1258300,66262,7504,628700,0
25,-1,638949,219102,1311375,66173,8742,655247,0
26,-1,693108,236993,1258998,70656,7328,629012,0
26,2,758738,266001,1486403,78525,9165,742733,0
26,-1,636628,218757,1184361,65582,6610,591729,0
26,-1,639332,218490,1323356,65550,6651,661163,0
26,-1,633402,218448,1211675,65651,7394,605379,0
26,2,718397,250955,1507101,75030,9793,752284,0
26,-1,636695,218774,1215755,65744,6797,607442,0
26,-1,640823,218504,1401758,65717,7767,699956,0
26,-1,643093,220851,1275673,66575,7445,636967,0
26,2,706441,250261,1429401,74938,9788,713578,0
26,-1,639032,219233,1241799,66040,7530,620108,0
26,-1,644702,220017,1318787,66220,7895,658869,0
26,2,712971,249101,1519129,74062,10439,758912,0
26,-1,642767,221194,1369202,66873,8096,683657,0
26,-1,634085,218848,1278556,65875,7261,638737,0
26,-1,642527,220525,1294720,66637,8144,646530,0
26,2,714041,251461,1416274,75169,9830,707187,0
26,-1,638958,219446,1180999,65981,6704,590019,0
26,-1,637721,219493,1250614,65991,7651,624715,0
26,-1,639552,219417,1333567,65964,7457,666227,0
26,2,711431,249217,1464613,74131,9244,731851,0
26,-1,640049,219109,1284195,65934,7324,641557,2
26,-1,666824,229082,1358855,68869,8000,678937,0
26,-1,639664,219220,1215811,65937,6944,607396,0
26,2,735683,253972,1396886,77347,9964,697906,0
26,-1,662644,223967,1177674,69178,7611,588431,0
26,-1,660196,224078,1257312,69136,7771,628444,0
26,2,711232,248342,1372467,73506,10154,685491,0
26,-1,640369,219358,1295599,65713,7554,647378,0
26,-1,668091,225360,1277740,69609,7924,638446,0
26,-1,639510,220393,1374279,66118,8447,686371,0
26,2,707524,248247,1282131,73697,8749,640543,0
26,-1,643224,219578,1222936,65865,8051,610693,0
26,-1,644841,221636,1299361,66943,8933,648794,0
26,2,725701,253535,1425826,76683,9351,712456,0
26,-1,642175,219489,1231650,65975,7892,615179,0
26,-1,641433,218684,1331797,65718,8500,665427,0
26,-1,650434,221604,1219516,66869,8238,608777,0
26,2,707582,248340,1325576,74220,8605,662270,0
26,-1,638696,219317,1292308,65712,7165,645699,0
26,-1,661686,223448,1263975,68937,8623,631342,0
26,2,709010,247896,1327816,73992,8191,663487,0
26,-1,640435,218949,1279936,65642,6876,639418,0
26,-1,642619,220184,1237570,66264,7104,617920,0
26,-1,642350,219431,1274698,65855,7116,636856,0
26,2,714035,248431,1575396,74221,10270,786959,0
26,-1,643877,219084,1222427,65665,7145,610786,0
26,2,717636,249559,1378146,74724,9687,688517,0
26,-1,631461,218374,1163223,64898,6969,581300,0
26,-1,639175,219508,1252399,65361,7166,625698,0
26,-1,661914,227311,1359911,67724,7830,679148,0
26,2,715338,250074,1316868,74912,8349,657630,0
26,-1,636275,218830,1215680,66165,8069,606925,0
26,-1,644223,220715,1183737,66981,7851,590888,0
26,2,715075,249601,1360170,74775,9201,679244,0
26,-1,642009,218594,1142171,66025,7330,570640,0
26,-1,640796,219446,1290095,66331,9111,644541,0
26,-1,659562,223268,1336966,69346,9317,667912,0
26,2,715513,248071,1568244,74213,10877,783607,0
26,-1,640874,218873,1207802,66108,7273,603497,0
26,-1,658647,223610,1343416,69493,9312,671326,0
27,-1,691592,237320,1280273,70796,7320,639592,0
27,2,764732,266150,1424281,78592,9414,711750,0
27,-1,658579,223871,1294417,69100,7645,646804,0
27,-1,640022,219264,1279801,65852,6622,639423,0
27,-1,642878,219793,1222963,66235,7540,610829,0
27,2,732411,253144,1650562,77227,10414,824270,0
27,-1,635503,218677,1254756,65658,7228,626891,0
27,-1,660956,223023,1381722,68858,9382,690503,0
27,-1,647653,221426,1283362,66853,8591,640902,0
27,2,706505,248228,1426416,73947,9081,712780,0
27,-1,643367,221232,1310135,66875,7649,654357,0
27,-1,648887,222250,1303915,67343,8108,651071,0
27,2,714170,250819,1503507,74950,9473,750974,0
27,-1,634865,219143,1271990,65966,7815,635496,0
27,-1,655694,223394,1254143,69134,9097,626526,0
27,-1,660696,223990,1192918,69305,8398,595892,0
27,2,729941,253869,1368226,77444,10081,683669,0
27,-1,641974,221217,1307981,66794,7335,653220,0
27,-1,643082,220160,1240272,66240,7691,619472,0
27,-1,640833,219604,1326049,66067,7531,662481,0
27,2,712608,249174,1342099,74190,8730,670521,0
27,-1,657685,223711,1397325,69119,8532,698099,0
27,-1,636081,219569,1170581,66059,7238,584630,2
27,-1,640331,219318,1391442,65880,8825,695322,0
27,2,709986,247999,1351911,73735,10367,675027,0
27,-1,638429,218944,1155610,65762,6829,577369,0
27,-1,642122,221080,1240533,66573,6776,619611,0
27,2,716186,250896,1493724,74595,10791,746185,0
27,-1,641107,218937,1304431,65639,7705,651814,0
27,-1,645950,220296,1377170,66243,7162,688170,0
27,-1,645822,222010,1325299,66819,8579,661576,0
27,2,715958,248337,1405131,73659,8392,701964,0
27,-1,646937,221432,1307310,66772,8500,652813,0
27,-1,662748,224858,1230846,69459,8518,614927,0
27,2,723990,253340,1480440,76661,9569,739774,0
27,-1,644816,221064,1274687,66685,8282,636623,0
27,-1,639728,218672,1282453,65628,7697,640778,0
27,-1,664487,223733,1200027,69045,8602,599518,0
27,2,714310,249498,1394766,74775,9703,696291,0
27,-1,637543,219105,1210307,65593,7484,604808,0
27,-1,638541,218561,1343209,65468,7023,671062,0
27,2,708753,247489,1381324,73838,8703,690156,0
27,-1,669045,229303,1319721,68974,7431,659090,0
27,-1,638198,218999,1205473,65739,7071,602292,0
27,-1,644844,220816,1199709,66467,7087,599237,0
27,2,717124,250670,1322304,75294,9235,660195,0
27,-1,646607,220651,1212084,66351,7378,605255,0
27,2,717891,250712,1358130,75302,9302,678384,0
27,-1,634027,219704,1255327,65470,7792,626997,0
27,-1,638847,219428,1182613,65295,6452,590848,0
27,-1,660645,223718,1350899,68689,8851,674840,0
27,2,712373,248994,1398463,74260,8416,698629,0
27,-1,636910,219525,1368875,66269,8086,683934,0
27,-1,637569,218585,1196933,66081,7629,597859,0
27,2,713589,249403,1433032,74491,10295,716002,0
27,-1,639549,218240,1208592,65902,8218,603842,0
27,-1,638183,218946,1422452,66128,8886,710579,0
27,-1,639073,219386,1247322,66292,7501,623133,0
27,2,710437,246919,1423599,73884,9757,711340,0
27,-1,640431,218365,1212491,65939,7613,605678,0
27,-1,635681,218686,1227441,66054,7962,613214,0
28,-1,710915,241585,1370236,73864,8595,684704,0
28,2,766447,267680,1474980,79114,9822,736995,0
28,-1,640781,219410,1251860,65888,7369,625421,0
28,-1,643664,220385,1310139,66446,7397,653980,0
28,-1,637167,218327,1128267,65596,6605,563740,0
28,2,712573,249335,1419498,74273,10047,709386,0
28,-1,635825,218486,1288402,65652,7480,643732,0
28,-1,641126,219290,1350227,65822,8291,674621,0
28,2,707849,249018,1328908,74190,8593,663875,0
28,-1,664243,223986,1219698,69192,9024,609362,0
28,-1,636204,218622,1223697,65808,7804,611321,0
28,-1,661398,223881,1259961,69342,8673,629372,0
28,2,714501,249742,1497810,74467,10898,748067,0
28,-1,656922,223507,1249597,69233,8653,624239,0
28,-1,631894,218632,1344846,65759,8048,671874,0
28,-1,636517,218699,1219031,65731,7273,608976,0
28,2,713139,250372,1496022,74676,9806,747079,0
28,-1,636238,219177,1264774,65938,7154,631876,0
28,-1,639259,219174,1235753,65872,8045,617270,0
28,-1,638837,219084,1224182,65819,7104,611605,0
28,2,713737,249796,1486161,74335,8692,742494,0
28,-1,635744,219360,1757641,65996,10389,877641,0
28,-1,639668,219588,1270966,66048,6830,634923,2
28,-1,639728,218946,1508089,65799,8291,752850,0
28,2,709301,248270,1411200,73667,10184,704833,0
28,-1,640691,219610,1198884,66019,6992,599006,0
28,-1,636794,219149,1315027,65706,6808,657102,0
28,2,715809,248528,1367230,73696,9975,683148,0
28,-1,645816,221354,1297483,66747,7589,648021,0
28,-1,645551,220379,1241279,66212,6742,620214,0
28,-1,641169,220640,1207891,66129,7685,603417,0
28,2,712559,248598,1297036,73739,9591,647948,0
28,-1,640345,219878,1304221,65996,8063,651535,0
28,-1,638743,219341,1168739,65863,7911,583861,0
28,2,699752,248323,1421681,73171,8253,710354,0
28,-1,660356,223766,1290919,69028,8103,644933,0
28,-1,662640,224096,1287298,69264,8682,643202,0
28,-1,645671,219943,1199979,66012,7928,599254,0
28,2,708336,248067,1535003,74066,9894,767061,0
28,-1,644790,220613,1343207,66264,8182,671060,0
28,-1,638604,218988,1361729,65668,7962,680506,0
28,2,707296,248627,1551392,74301,9984,775101,0
28,-1,640508,218689,1199808,65603,7922,599310,0
28,-1,663185,224221,1380889,69217,8020,690068,0
28,-1,642615,219589,1246955,65887,7328,622896,0
28,2,730917,252701,1471680,77439,10186,735486,0
28,-1,645806,219619,1348764,65889,7464,673910,0
28,2,711972,249008,1531731,74520,9994,765360,0
28,-1,635193,219267,1315845,65294,6728,657551,0
28,-1,639071,220019,1208837,65724,7171,603737,0
28,-1,637428,218884,1202339,65311,7817,600624,0
28,2,710507,249004,1405689,74303,8767,702286,0
28,-1,633678,218729,1248066,66069,8339,623629,0
28,-1,638072,218795,1160153,66080,7252,579501,0
28,2,713957,249213,1429441,74478,9463,714334,0
28,-1,644170,220593,1161163,66909,7165,579832,0
28,-1,640553,220519,1688800,67016,11722,843313,0
28,-1,637702,218771,1194277,66056,7598,596725,0
28,2,711268,248189,1309009,74285,9464,654018,0
28,-1,643288,219731,1191297,66366,7845,595226,0
28,-1,637016,218787,1276537,66111,7437,637858,0
29,-1,689597,236861,1363230,70560,8165,681137,0
29,2,760808,266081,1461398,78574,10130,730246,0
29,-1,640393,219686,1221999,66129,7387,610288,0
29,-1,637989,218646,1307582,65721,7192,653305,0
29,-1,638510,218802,1181766,65785,7080,590400,0
29,2,711910,249522,1631919,74267,10169,815762,0
29,-1,639944,220255,1309863,66426,7834,654020,0
29,-1,640287,219298,1375344,65789,8122,687221,0
29,-1,642487,219954,1213677,66087,7308,606288,0
29,2,703569,248406,1314790,74033,8767,656817,0
29,-1,664437,223994,1245984,69378,8556,622443,0
29,-1,643699,219049,1292489,65936,7308,645846,0
29,2,713718,250924,1492914,75035,9889,745490,0
29,-1,636183,219441,1302324,65989,7434,650702,0
29,-1,643257,220382,1286694,66397,7311,642866,0
29,-1,639544,219815,1243115,66074,7214,621003,0
29,2,712644,249992,1497826,74624,10072,748185,0
29,-1,636077,219863,1216319,66145,6855,607622,0
29,-1,641433,220320,1319740,66249,6891,659459,0
29,-1,664520,224382,1264636,69356,8169,631913,0
29,2,719676,252072,1337098,75409,8764,667700,0
29,-1,640889,220606,1344735,66574,8332,671492,0
29,-1,639148,219743,1259906,66040,7274,629436,0
29,-1,645048,221619,1281457,66992,7171,639839,2
29,2,718109,251045,1347514,74950,10358,672802,0
29,-1,636500,218874,1236934,65759,6625,618151,0
29,-1,639582,220510,1422373,66209,8370,710570,0
29,2,718502,250737,1442537,74670,9288,720504,0
29,-1,660431,223862,1290500,69020,8038,644640,0
29,-1,646693,220660,1189514,66399,7483,594231,0
29,2,709424,248190,1521698,73609,9738,760419,0
29,-1,639756,220371,1273750,66061,8766,636109,0
29,-1,649158,222848,1297794,67274,8246,647934,0
29,-1,645591,220213,1237566,66366,8601,618071,0
29,2,713670,248111,1311947,73574,8356,655406,0
29,-1,639903,219345,1235800,65828,7212,617385,0
29,-1,642605,218778,1188305,65733,7851,593674,0
29,-1,642943,219422,1254976,65837,8442,626865,0
29,2,715392,249933,1484233,74918,10162,739838,0
29,-1,642530,220341,1349572,66035,8143,674256,0
29,-1,663655,223521,1227386,68966,8715,613208,0
29,2,732387,252965,1483244,77514,10234,741060,0
29,-1,640539,219100,1317765,65684,7425,658383,0
29,-1,638201,218687,1344842,65539,7078,671879,0
29,-1,642039,218726,1336489,65549,7541,667929,0
29,2,732121,253298,1499016,77524,9721,748998,0
29,-1,669560,228126,1387467,68353,7728,693288,0
29,2,714277,249800,1409630,74795,9365,704249,0
29,-1,634309,218917,1354367,65164,6696,676774,0
29,-1,636434,219254,1384874,65283,7206,691929,0
29,-1,640830,220738,1271601,66116,7848,633631,0
29,2,716383,250632,1397100,75112,8963,697729,0
29,-1,643975,219269,1273974,66181,8754,636507,0
29,-1,638439,219200,1307256,66251,7897,653133,0
29,2,717521,250014,1345086,74942,9452,671735,0
29,-1,640716,218524,1198362,66044,7451,598698,0
29,-1,638478,219374,1260625,66294,8658,629646,0
29,-1,639634,219342,1275813,66253,8473,637435,0
29,2,711817,248279,1401122,74275,9793,699980,0
29,-1,639109,218833,1169897,66124,6933,584456,0
29,-1,644597,218628,1334683,66079,7808,666938,0
30,-1,689983,237200,1268964,70736,7363,633848,0
30,2,765223,267839,1602567,79283,9866,800871,0
30,-1,637840,218492,1299559,65645,7973,649229,0
30,-1,637589,218498,1178619,65626,6615,588911,0
30,-1,642402,220820,1229110,66738,7737,613788,0
30,2,706349,247239,1483685,73508,9913,741373,0
30,-1,636725,219236,1254814,65861,7494,626833,0
30,-1,640078,218892,1359876,65646,8045,679216,0
30,2,715149,248565,1400301,74055,9215,699569,0
30,-1,644389,220659,1300175,66517,7660,649327,0
30,-1,643630,219370,1268335,66036,7390,633637,0
30,-1,643185,219570,1165931,66132,7958,582376,0
30,2,712119,249536,1577990,74218,10006,788491,0
30,-1,639297,220695,1394140,66526,8517,696520,0
30,-1,639665,219111,1310045,66028,7196,654141,0
30,-1,636263,219046,1165604,65904,6765,582204,0
30,2,713528,250348,1665399,74791,10351,830248,0
30,-1,639074,220613,1372777,66580,7345,685567,0
30,-1,639773,220072,1240025,66213,7496,619405,0
30,-1,642647,220075,1321418,66196,7619,660213,0
30,2,719817,251668,1563135,75109,9741,780777,0
30,-1,638056,219805,1318886,66118,8467,658878,0
30,-1,642182,220687,1292854,66610,8432,645337,0
30,2,712085,249531,1515903,74180,9642,757003,0
30,-1,641776,220435,1310209,66326,7670,654614,2
30,-1,644542,221727,1290066,66967,7310,644300,0
30,-1,637929,219142,1451418,65675,8035,725318,0
30,2,714327,248854,1398832,73882,9694,698923,0
30,-1,643984,219944,1264057,66015,7914,631494,0
30,-1,668429,225546,1213275,69786,8289,606006,0
30,2,712730,248045,1458212,73623,10043,728605,0
30,-1,642885,221327,1246234,66427,8614,622478,0
30,-1,661749,223221,1290241,68894,9094,644608,0
30,-1,644858,219780,1243252,65996,8935,621044,0
30,2,712415,248157,1299832,73576,7766,649446,0
30,-1,637558,218974,1321073,65733,7859,660036,0
30,-1,641525,218934,1329630,65816,8290,664306,0
30,-1,642967,219316,1337509,65788,7814,668350,0
30,2,710145,248524,1461383,74272,9714,729734,0
30,-1,638586,219109,1202592,65577,7436,600811,0
30,-1,642143,219199,1252981,65782,8682,625923,0
30,2,714035,249545,1255335,74798,8687,626935,0
30,-1,663225,224326,1273977,69148,7650,636446,0
30,-1,639399,219087,1185390,65664,6648,592232,0
30,2,709510,248473,1479197,74193,9343,739189,0
30,-1,647316,221389,1222506,66686,7381,610471,0
30,-1,646820,221165,1290519,66723,6757,644471,0
30,2,713538,249084,1467848,74521,9598,733094,0
30,-1,636080,220627,1217694,65975,6990,608064,0
30,-1,634346,218597,1330850,65044,7698,664981,0
30,-1,637678,218972,1192424,65348,7870,595432,0
30,2,711486,249084,1434945,74278,9514,717071,0
30,-1,642680,219411,1291767,66285,8883,644737,0
30,-1,640412,220166,1273845,66673,8070,636351,0
30,2,713930,248814,1419513,74250,9660,709224,0
30,-1,641106,218759,1181999,66073,7226,590601,0
30,-1,640096,219411,1212124,66353,7758,605624,0
30,2,711450,248237,1337127,74167,9284,668009,0
30,-1,637660,218599,1256394,65996,7638,627773,0
30,-1,637391,218505,1153741,65968,7139,576368,0
30,-1,646907,219923,1240784,66690,7767,619590,0
31,-1,687266,236459,1304535,70542,8204,651668,0
31,2,760041,266213,1496372,78573,9742,747344,0
31,-1,636401,218597,1267408,65633,6937,633170,0
31,-1,657427,222729,1299097,68816,8348,649097,0
31,-1,657531,222838,1219045,68842,8632,608907,0
31,2,711073,247834,1585061,73736,10211,791925,0
31,-1,635907,218706,1260330,65739,7828,629601,0
31,-1,643285,219519,1375234,66021,8291,687416,0
31,2,716957,250218,1400864,74768,9663,699690,0
31,-1,641901,219697,1229540,66010,7625,614279,0
31,-1,643101,219846,1236785,66187,7287,617881,0
31,-1,644085,219669,1241059,66121,7941,620050,0
31,2,708669,249048,1417252,74061,8747,708070,0
31,-1,660069,223723,1262899,69284,8571,630967,0
31,-1,640399,219656,1201823,66146,6603,600391,0
31,-1,634195,218654,1136074,65671,6999,567525,0
31,2,708046,249056,1379065,74076,9553,689062,0
31,-1,635306,219210,1237366,65952,7006,618049,0
31,-1,641578,220815,1350301,66634,8498,674121,0
31,-1,640918,219737,1184099,66106,7274,591606,0
31,2,714363,249912,1430335,74197,9182,714753,0
31,-1,640484,221373,1358010,66878,8492,678662,0
31,-1,640307,220373,1264884,66283,7111,631974,0
31,2,712544,249554,1400233,74199,9885,699183,0
31,-1,657172,223452,1250549,69087,7208,624896,0
31,-1,645176,221721,1267710,66954,7824,633101,0
31,2,717083,250430,1408782,74577,10112,703620,0
31,-1,643127,222121,1368698,67019,8196,683379,2
31,-1,642270,219435,1379568,65785,8588,689315,0
31,-1,646370,220500,1213904,66345,7907,606508,0
31,-1,643562,220039,1182495,66189,7215,590656,2
31,-1,644637,220130,1263928,66008,7602,631368,2
31,2,712138,248380,1463967,73728,9692,731452,0
31,-1,663019,225349,1380105,69523,9527,689169,0
31,-1,638949,220189,1195114,66072,7960,596876,2
31,-1,639859,220453,1313359,66209,7726,656122,2
31,-1,643580,220144,1387392,66119,7726,693272,0
31,-1,638968,220457,1219731,66175,7835,609430,2
31,-1,641352,220250,1206786,66153,7665,602859,2
31,-1,665328,228644,1453454,68600,9108,726176,2
31,-1,641411,219443,1395545,65880,8494,697658,0
31,-1,644442,220350,1198690,66254,7745,598094,2
31,2,712493,247629,1432969,73368,8858,716111,0
31,-1,639301,219177,1379096,65845,8086,689003,2
31,-1,644280,220375,1208028,66293,7483,603511,2
31,-1,639497,219919,1346881,66158,7693,672965,2
31,-1,638262,219452,1347586,65924,8013,673379,0
31,-1,636548,219386,1209024,65922,7908,603948,2
31,-1,644749,221451,1326760,66825,7383,662516,2
31,-1,639177,219747,1321976,65993,8117,660511,2
31,-1,641076,219183,1262244,65894,8054,630547,2
31,-1,643806,220282,1310230,66377,8222,654359,0
31,-1,638594,218932,1326988,65837,8296,663028,2
31,-1,644555,221199,1343192,66777,7685,670574,2
31,-1,643193,219731,1277638,65938,7201,638131,0
31,2,707206,247764,1319217,74039,9573,659214,0
31,-1,643472,220153,1222870,65932,7397,610965,2
31,-1,639032,219397,1282495,65623,7954,640846,0
31,-1,638811,219663,1153295,65853,6980,576184,2
31,-1,637332,218782,1231024,65657,7550,615095,2
31,-1,639627,218658,1192461,65560,7791,595543,0
31,2,707947,248024,1300427,74126,9093,649766,0
31,-1,641390,219532,1328297,65884,8234,663627,2
31,-1,640624,219496,1308941,65841,7684,653907,0
31,-1,640066,219754,1183688,65970,6687,591350,2
31,-1,641408,219509,1295179,65902,7482,647023,2
31,-1,636488,219485,1290191,65873,7178,644618,2
31,-1,641091,220134,1212187,66260,7225,605416,0
31,-1,644222,220123,1304027,66068,7898,651546,2
31,2,714451,248306,1311553,74206,8819,655037,0
31,-1,641605,219345,1287388,65803,6847,643217,0
31,-1,643372,219534,1350914,65891,8161,674909,2
31,-1,638088,218932,1294995,65685,7066,646941,2
31,-1,662882,224158,1305576,69194,7373,652213,0
31,-1,639193,218892,1275618,65630,6674,637362,2
31,-1,644330,219341,1289094,65773,7643,643918,2
31,-1,649053,221921,1200143,66912,6787,599277,2
31,2,716273,251167,1342285,75437,9588,670452,0
31,-1,631289,219075,1262267,65270,7057,630569,2
31,-1,633314,218875,1215705,65180,6453,607443,0
31,-1,634999,219204,1209070,65280,7386,604007,2
31,-1,639143,219762,1273877,65475,7109,636183,0
31,-1,637901,219057,1181964,65191,7239,590500,2
31,-1,634387,219464,1243214,65488,7643,621148,2
31,-1,634606,218916,1294999,65278,8370,646895,2
31,-1,642131,221169,1142744,66398,7485,570537,0
31,-1,642547,221536,1282350,66458,7917,640177,2
31,2,712117,249606,1417421,74427,9544,708231,0
31,-1,637190,219156,1331050,66209,8169,664362,2
31,-1,645244,220119,1293389,66775,8395,645505,0
31,-1,634075,218744,1368933,66131,7799,684229,2
31,-1,645835,221944,1199035,67381,7914,598525,2
31,-1,638690,218728,1452535,66061,9382,725492,0
31,2,713490,249532,1407203,74364,9286,703106,0
31,-1,638882,219342,1328689,66317,7984,663864,2
31,-1,637544,218711,1182798,66160,7341,590972,2
31,-1,638926,218300,1203676,65921,8154,601428,0
31,-1,641859,219188,1193898,66281,7108,596407,2
31,-1,638040,218903,1527732,66167,9031,763562,2
31,-1,643750,220647,1230469,67073,8006,614046,2
31,-1,646308,219387,1271937,66275,7354,635548,0
31,2,717431,250074,1334535,74997,9081,666347,0
31,-1,661111,223718,1330652,69474,8874,664821,0
31,-1,642787,221506,1259886,67247,7500,629119,2
31,-1,640486,219204,1283194,66278,7927,641326,2
31,-1,638668,219217,1138949,66250,7469,568697,2
31,-1,639889,219615,1295308,66400,7692,646953,2
31,-1,639803,218860,1260827,66040,7776,629933,0
31,-1,641127,219586,1222285,66380,7796,610483,2
31,-1,641014,218619,1268159,65974,8140,633535,0
31,-1,642689,218824,1301733,66157,8022,650390,2
31,-1,640552,220574,1173967,67004,7678,586045,2
