-1,0,0.0029383
-1,1,0.00195886
-1,2,0.00195886
-1,3,0.00195886
-1,4,0.00195886
-1,5,0.00195886
-1,6,0.00195886
-1,7,0.00195886
-1,8,0.00195886
-1,9,0.00195886
-1,10,0.00195886
-1,11,0.00195886
-1,12,0.00195886
-1,13,0.00195886
-1,14,0.00195886
-1,15,0.00195886
-1,16,0.00195886
-1,17,0.00195886
-1,18,0.00195886
-1,19,0.00195886
-1,20,0.00195886
-1,21,0.00195886
-1,22,0.00195886
-1,23,0.00195886
-1,24,0.00195886
-1,25,0.00195886
-1,26,0.00195886
-1,27,0.00195886
-1,28,0.00195886
-1,29,0.00195886
-1,30,0.00195886
-1,31,0.00195886
-1,32,0.00195886
-1,33,0.00195886
-1,34,0.00195886
-1,35,0.00195886
-1,36,0.00195886
-1,37,0.00195886
-1,38,0.00195886
-1,39,0.00195886
-1,40,0.00195886
-1,41,0.00195886
-1,42,0.00195886
-1,43,0.00195886
-1,44,0.00195886
-1,45,0.00195886
-1,46,0.00195886
-1,47,0.00195886
-1,48,0.00195886
-1,49,0.00195886
-1,50,0.00195886
-1,51,0.00195886
-1,52,0.00195886
-1,53,0.00195886
-1,54,0.00195886
-1,55,0.00195886
-1,56,0.00195886
-1,57,0.00195886
-1,58,0.00195886
-1,59,0.00195886
-1,60,0.00195886
-1,61,0.00195886
-1,62,0.00195886
-1,63,0.00195886
-1,64,0.00195886
-1,65,0.00195886
-1,66,0.00195886
-1,67,0.00195886
-1,68,0.000979432
-1,69,0.000979432
-1,70,0.000979432
-1,71,0.000979432
-1,72,0.00195886
-1,73,0.00195886
-1,74,0.00195886
-1,75,0.00195886
-1,76,0.00195886
-1,77,0.00195886
-1,78,0.00195886
-1,79,0.00195886
-1,80,0.00195886
-1,81,0.00195886
-1,82,0.00195886
-1,83,0.00195886
-1,84,0.00195886
-1,85,0.00195886
-1,86,0.00195886
-1,87,0.00195886
-1,88,0.00195886
-1,89,0.00195886
-1,90,0.00195886
-1,91,0.00195886
-1,92,0.00195886
-1,93,0.00195886
-1,94,0.00195886
-1,95,0.00195886
-1,96,0.00195886
-1,97,0.00195886
-1,98,0.00195886
-1,99,0.00195886
-1,100,0.00195886
-1,101,0.00195886
-1,102,0.00195886
-1,103,0.00195886
-1,104,0.00195886
-1,105,0.00195886
-1,106,0.00195886
-1,107,0.00195886
-1,108,0.00195886
-1,109,0.00195886
-1,110,0.00195886
-1,111,0.00195886
-1,112,0.00195886
-1,113,0.00195886
-1,114,0.00195886
-1,115,0.00195886
-1,116,0.00195886
-1,117,0.00195886
-1,118,0.00195886
-1,119,0.00195886
-1,120,0.00195886
-1,121,0.00195886
-1,122,0.00195886
-1,123,0.00195886
-1,124,0.00195886
-1,125,0.00195886
-1,126,0.00195886
-1,127,0.00195886
-1,128,0.00195886
-1,129,0.00195886
-1,130,0.00195886
-1,131,0.00195886
-1,132,0.00195886
-1,133,0.00195886
-1,134,0.00195886
-1,135,0.00195886
-1,136,0.00195886
-1,137,0.00195886
-1,138,0.00195886
-1,139,0.00195886
-1,140,0.00195886
-1,141,0.00195886
-1,142,0.00195886
-1,143,0.00195886
-1,144,0.00195886
-1,145,0.00195886
-1,146,0.00195886
-1,147,0.00195886
-1,148,0.00195886
-1,149,0.00195886
-1,150,0.00195886
-1,151,0.00195886
-1,152,0.00195886
-1,153,0.00195886
-1,154,0.00195886
-1,155,0.00195886
-1,156,0.00195886
-1,157,0.00195886
-1,158,0.00195886
-1,159,0.00195886
-1,160,0.00195886
-1,161,0.00195886
-1,162,0.00195886
-1,163,0.00195886
-1,164,0.00195886
-1,165,0.00195886
-1,166,0.00195886
-1,167,0.00195886
-1,168,0.00195886
-1,169,0.00195886
-1,170,0.00195886
-1,171,0.00195886
-1,172,0.00195886
-1,173,0.00195886
-1,174,0.00195886
-1,175,0.00195886
-1,176,0.00195886
-1,177,0.00195886
-1,178,0.00195886
-1,179,0.00195886
-1,180,0.00195886
-1,181,0.00195886
-1,182,0.00195886
-1,183,0.00195886
-1,184,0.00195886
-1,185,0.00195886
-1,186,0.00195886
-1,187,0.00195886
-1,188,0.00195886
-1,189,0.00195886
-1,190,0.00195886
-1,191,0.00195886
-1,192,0.00195886
-1,193,0.00195886
-1,194,0.00195886
-1,195,0.00195886
-1,196,0.00195886
-1,197,0.00195886
-1,198,0.00195886
-1,199,0.00195886
-1,200,0.00195886
-1,201,0.00195886
-1,202,0.00195886
-1,203,0.00195886
-1,204,0.00195886
-1,205,0.00195886
-1,206,0.00195886
-1,207,0.00195886
-1,208,0.00195886
-1,209,0.00195886
-1,210,0.00195886
-1,211,0.00195886
-1,212,0.00195886
-1,213,0.00195886
-1,214,0.00195886
-1,215,0.00195886
-1,216,0.00195886
-1,217,0.00195886
-1,218,0.00195886
-1,219,0.00195886
-1,220,0.00195886
-1,221,0.00195886
-1,222,0.00195886
-1,223,0.00195886
-1,224,0.00195886
-1,225,0.00195886
-1,226,0.00195886
-1,227,0.00195886
-1,228,0.00195886
-1,229,0.00195886
-1,230,0.00195886
-1,231,0.00195886
-1,232,0.00195886
-1,233,0.00195886
-1,234,0.00195886
-1,235,0.00195886
-1,236,0.00195886
-1,237,0.00195886
-1,238,0.00195886
-1,239,0.00195886
-1,240,0.00195886
-1,241,0.00195886
-1,242,0.00195886
-1,243,0.00195886
-1,244,0.00195886
-1,245,0.00195886
-1,246,0.00195886
-1,247,0.00195886
-1,248,0.00195886
-1,249,0.00195886
-1,250,0.00195886
-1,251,0.00195886
-1,252,0.00195886
-1,253,0.00195886
-1,254,0.00195886
-1,255,0.00195886
-1,256,0.00195886
-1,257,0.00195886
-1,258,0.00195886
-1,259,0.00195886
-1,260,0.00195886
-1,261,0.00195886
-1,262,0.00195886
-1,263,0.00195886
-1,264,0.00195886
-1,265,0.00195886
-1,266,0.00195886
-1,267,0.00195886
-1,268,0.00195886
-1,269,0.00195886
-1,270,0.00195886
-1,271,0.00195886
-1,272,0.00195886
-1,273,0.00195886
-1,274,0.00195886
-1,275,0.00195886
-1,276,0.00195886
-1,277,0.00195886
-1,278,0.00195886
-1,279,0.00195886
-1,280,0.00195886
-1,281,0.00195886
-1,282,0.00195886
-1,283,0.00195886
-1,284,0.00195886
-1,285,0.00195886
-1,286,0.00195886
-1,287,0.00195886
-1,288,0.00195886
-1,289,0.00195886
-1,290,0.00195886
-1,291,0.00195886
-1,292,0.00195886
-1,293,0.00195886
-1,294,0.00195886
-1,295,0.00195886
-1,296,0.00195886
-1,297,0.00195886
-1,298,0.00195886
-1,299,0.00195886
-1,300,0.00195886
-1,301,0.00195886
-1,302,0.00195886
-1,303,0.00195886
-1,304,0.00195886
-1,305,0.00195886
-1,306,0.00195886
-1,307,0.00195886
-1,308,0.00195886
-1,309,0.00195886
-1,310,0.00195886
-1,311,0.00195886
-1,312,0.00195886
-1,313,0.00195886
-1,314,0.00195886
-1,315,0.00195886
-1,316,0.00195886
-1,317,0.00195886
-1,318,0.00195886
-1,319,0.00195886
-1,320,0.00195886
-1,321,0.00195886
-1,322,0.00195886
-1,323,0.00195886
-1,324,0.00195886
-1,325,0.00195886
-1,326,0.00195886
-1,327,0.00195886
-1,328,0.00195886
-1,329,0.00195886
-1,330,0.00195886
-1,331,0.00195886
-1,332,0.00195886
-1,333,0.00195886
-1,334,0.00195886
-1,335,0.00195886
-1,336,0.00195886
-1,337,0.00195886
-1,338,0.00195886
-1,339,0.00195886
-1,340,0.00195886
-1,341,0.00195886
-1,342,0.00195886
-1,343,0.00195886
-1,344,0.00195886
-1,345,0.00195886
-1,346,0.00195886
-1,347,0.00195886
-1,348,0.00195886
-1,349,0.00195886
-1,350,0.00195886
-1,351,0.00195886
-1,352,0.00195886
-1,353,0.00195886
-1,354,0.00195886
-1,355,0.00195886
-1,356,0.00195886
-1,357,0.00195886
-1,358,0.00195886
-1,359,0.00195886
-1,360,0.00195886
-1,361,0.00195886
-1,362,0.00195886
-1,363,0.00195886
-1,364,0.00195886
-1,365,0.00195886
-1,366,0.00195886
-1,367,0.00195886
-1,368,0.00195886
-1,369,0.00195886
-1,370,0.00195886
-1,371,0.00195886
-1,372,0.00195886
-1,373,0.00195886
-1,374,0.00195886
-1,375,0.00195886
-1,376,0.00195886
-1,377,0.00195886
-1,378,0.00195886
-1,379,0.00195886
-1,380,0.00195886
-1,381,0.00195886
-1,382,0.00195886
-1,383,0.00195886
-1,384,0.00195886
-1,385,0.00195886
-1,386,0.00195886
-1,387,0.00195886
-1,388,0.00195886
-1,389,0.00195886
-1,390,0.00195886
-1,391,0.00195886
-1,392,0.00195886
-1,393,0.00195886
-1,394,0.00195886
-1,395,0.00195886
-1,396,0.00195886
-1,397,0.00195886
-1,398,0.00195886
-1,399,0.00195886
-1,400,0.00195886
-1,401,0.00195886
-1,402,0.00195886
-1,403,0.00195886
-1,404,0.00195886
-1,405,0.00195886
-1,406,0.00195886
-1,407,0.00195886
-1,408,0.00195886
-1,409,0.00195886
-1,410,0.00195886
-1,411,0.00195886
-1,412,0.00195886
-1,413,0.00195886
-1,414,0.00195886
-1,415,0.00195886
-1,416,0.00195886
-1,417,0.00195886
-1,418,0.00195886
-1,419,0.00195886
-1,420,0.00195886
-1,421,0.00195886
-1,422,0.00195886
-1,423,0.00195886
-1,424,0.00195886
-1,425,0.00195886
-1,426,0.00195886
-1,427,0.00195886
-1,428,0.00195886
-1,429,0.00195886
-1,430,0.00195886
-1,431,0.00195886
-1,432,0.00195886
-1,433,0.00195886
-1,434,0.00195886
-1,435,0.00195886
-1,436,0.00195886
-1,437,0.00195886
-1,438,0.00195886
-1,439,0.00195886
-1,440,0.00195886
-1,441,0.00195886
-1,442,0.00195886
-1,443,0.00195886
-1,444,0.00195886
-1,445,0.00195886
-1,446,0.00195886
-1,447,0.00195886
-1,448,0.00195886
-1,449,0.00195886
-1,450,0.00195886
-1,451,0.00195886
-1,452,0.00195886
-1,453,0.00195886
-1,454,0.00195886
-1,455,0.00195886
-1,456,0.00195886
-1,457,0.00195886
-1,458,0.00195886
-1,459,0.00195886
-1,460,0.00195886
-1,461,0.00195886
-1,462,0.00195886
-1,463,0.00195886
-1,464,0.00195886
-1,465,0.00195886
-1,466,0.00195886
-1,467,0.00195886
-1,468,0.00195886
-1,469,0.00195886
-1,470,0.00195886
-1,471,0.00195886
-1,472,0.00195886
-1,473,0.00195886
-1,474,0.00195886
-1,475,0.00195886
-1,476,0.00195886
-1,477,0.00195886
-1,478,0.00195886
-1,479,0.00195886
-1,480,0.00195886
-1,481,0.00195886
-1,482,0.00195886
-1,483,0.00195886
-1,484,0.00195886
-1,485,0.00195886
-1,486,0.00195886
-1,487,0.00195886
-1,488,0.00195886
-1,489,0.00195886
-1,490,0.00195886
-1,491,0.00195886
-1,492,0.00195886
-1,493,0.00195886
-1,494,0.00195886
-1,495,0.00195886
-1,496,0.00195886
-1,497,0.00195886
-1,498,0.00195886
-1,499,0.00195886
-1,500,0.00195886
-1,501,0.00195886
-1,502,0.00195886
-1,503,0.00195886
-1,504,0.00195886
-1,505,0.00195886
-1,506,0.00195886
-1,507,0.00195886
-1,508,0.00195886
-1,509,0.00195886
-1,510,0.00195886
-1,511,0.00195886
0,0,0.00102564
0,1,0.00102564
0,2,0.00102564
0,3,0.00102564
0,4,0.00102564
0,5,0.00102564
0,6,0.00102564
0,7,0.00102564
0,8,0.00102564
0,9,0.00102564
0,10,0.00102564
0,11,0.00102564
0,12,0.00102564
0,13,0.00102564
0,14,0.00102564
0,15,0.00102564
0,16,0.00102564
0,17,0.00102564
0,18,0.00102564
0,19,0.00102564
0,20,0.00102564
0,21,0.00102564
0,22,0.00102564
0,23,0.00102564
0,24,0.00102564
0,25,0.00102564
0,26,0.00102564
0,27,0.00102564
0,28,0.00102564
0,29,0.00102564
0,30,0.00102564
0,31,0.00102564
0,32,0.00102564
0,33,0.00102564
0,34,0.00102564
0,35,0.00102564
0,36,0.00102564
0,37,0.00102564
0,38,0.00102564
0,39,0.00102564
0,40,0.00102564
0,41,0.00102564
0,42,0.00102564
0,43,0.00102564
0,44,0.00102564
0,45,0.00102564
0,46,0.00102564
0,47,0.00102564
0,48,0.00102564
0,49,0.00102564
0,50,0.00102564
0,51,0.00102564
0,52,0.00102564
0,53,0.00102564
0,54,0.00102564
0,55,0.00102564
0,56,0.00102564
0,57,0.00102564
0,58,0.00102564
0,59,0.00102564
0,60,0.00102564
0,61,0.00102564
0,62,0.00102564
0,63,0.00102564
0,64,0.00102564
0,65,0.00102564
0,66,0.00102564
0,67,0.00102564
0,68,0.00102564
0,69,0.00102564
0,70,0.00102564
0,71,0.00102564
0,72,0.00102564
0,73,0.00102564
0,74,0.00102564
0,75,0.00102564
0,76,0.00102564
0,77,0.00102564
0,78,0.00102564
0,79,0.00102564
0,80,0.00102564
0,81,0.00102564
0,82,0.00102564
0,83,0.00102564
0,84,0.00102564
0,85,0.00102564
0,86,0.00102564
0,87,0.00102564
0,88,0.00102564
0,89,0.00102564
0,90,0.00102564
0,91,0.00102564
0,92,0.00102564
0,93,0.00102564
0,94,0.00102564
0,95,0.00102564
0,96,0.00102564
0,97,0.00102564
0,98,0.00102564
0,99,0.00102564
0,100,0.00102564
0,101,0.00102564
0,102,0.00102564
0,103,0.00102564
0,104,0.00102564
0,105,0.00102564
0,106,0.00102564
0,107,0.00102564
0,108,0.00102564
0,109,0.00102564
0,110,0.00102564
0,111,0.00102564
0,112,0.00102564
0,113,0.00102564
0,114,0.00102564
0,115,0.00102564
0,116,0.00102564
0,117,0.00102564
0,118,0.00102564
0,119,0.00102564
0,120,0.00102564
0,121,0.00102564
0,122,0.00102564
0,123,0.00102564
0,124,0.00102564
0,125,0.00102564
0,126,0.00102564
0,127,0.00102564
0,128,0.00102564
0,129,0.00102564
0,130,0.00102564
0,131,0.00102564
0,132,0.00102564
0,133,0.00102564
0,134,0.00102564
0,135,0.00102564
0,136,0.00102564
0,137,0.00102564
0,138,0.00102564
0,139,0.00102564
0,140,0.00102564
0,141,0.00102564
0,142,0.00102564
0,143,0.00102564
0,144,0.00102564
0,145,0.00102564
0,146,0.00102564
0,147,0.00102564
0,148,0.00102564
0,149,0.00102564
0,150,0.00102564
0,151,0.00102564
0,152,0.00102564
0,153,0.00102564
0,154,0.00102564
0,155,0.00102564
0,156,0.00102564
0,157,0.00102564
0,158,0.00102564
0,159,0.00102564
0,160,0.00102564
0,161,0.00102564
0,162,0.00102564
0,163,0.00102564
0,164,0.00102564
0,165,0.00102564
0,166,0.00102564
0,167,0.00102564
0,168,0.00102564
0,169,0.00102564
0,170,0.00102564
0,171,0.00102564
0,172,0.00102564
0,173,0.00102564
0,174,0.00102564
0,175,0.00102564
0,176,0.00102564
0,177,0.00102564
0,178,0.00102564
0,179,0.00102564
0,180,0.00102564
0,181,0.00102564
0,182,0.00102564
0,183,0.00102564
0,184,0.00102564
0,185,0.00102564
0,186,0.00102564
0,187,0.00102564
0,188,0.00102564
0,189,0.00102564
0,190,0.00102564
0,191,0.00102564
0,192,0.00102564
0,193,0.00102564
0,194,0.00102564
0,195,0.00102564
0,196,0.00102564
0,197,0.00102564
0,198,0.00102564
0,199,0.00102564
0,200,0.00102564
0,201,0.00102564
0,202,0.00102564
0,203,0.00102564
0,204,0.00102564
0,205,0.00102564
0,206,0.00102564
0,207,0.00102564
0,208,0.00102564
0,209,0.00102564
0,210,0.00102564
0,211,0.00102564
0,212,0.00102564
0,213,0.00102564
0,214,0.00102564
0,215,0.00102564
0,216,0.00102564
0,217,0.00102564
0,218,0.00102564
0,219,0.00102564
0,220,0.00102564
0,221,0.00102564
0,222,0.00102564
0,223,0.00102564
0,224,0.00102564
0,225,0.00102564
0,226,0.00102564
0,227,0.00102564
0,228,0.00102564
0,229,0.00102564
0,230,0.00102564
0,231,0.00102564
0,232,0.00102564
0,233,0.00102564
0,234,0.00102564
0,235,0.00102564
0,236,0.00102564
0,237,0.00102564
0,238,0.00102564
0,239,0.00102564
0,240,0.00102564
0,241,0.00102564
0,242,0.00102564
0,243,0.00102564
0,244,0.00102564
0,245,0.00102564
0,246,0.00102564
0,247,0.00102564
0,248,0.00102564
0,249,0.00102564
0,250,0.00102564
0,251,0.00102564
0,252,0.00102564
0,253,0.00102564
0,254,0.00102564
0,255,0.00102564
0,256,0.00102564
0,257,0.00102564
0,258,0.00102564
0,259,0.00102564
0,260,0.00102564
0,261,0.00102564
0,262,0.00102564
0,263,0.00102564
0,264,0.00102564
0,265,0.00102564
0,266,0.00102564
0,267,0.00102564
0,268,0.00102564
0,269,0.00102564
0,270,0.00102564
0,271,0.00102564
0,272,0.00102564
0,273,0.00102564
0,274,0.00102564
0,275,0.00102564
0,276,0.00102564
0,277,0.00102564
0,278,0.00102564
0,279,0.00102564
0,280,0.00102564
0,281,0.00102564
0,282,0.00102564
0,283,0.00102564
0,284,0.00102564
0,285,0.00102564
0,286,0.00102564
0,287,0.00102564
0,288,0.00102564
0,289,0.00102564
0,290,0.00102564
0,291,0.00102564
0,292,0.00102564
0,293,0.00102564
0,294,0.00102564
0,295,0.00102564
0,296,0.00102564
0,297,0.00102564
0,298,0.00102564
0,299,0.00102564
0,300,0.00102564
0,301,0.00102564
0,302,0.00102564
0,303,0.00102564
0,304,0.00102564
0,305,0.00102564
0,306,0.00102564
0,307,0.00102564
0,308,0.00102564
0,309,0.00102564
0,310,0.00102564
0,311,0.00102564
0,312,0.00102564
0,313,0.00102564
0,314,0.00102564
0,315,0.00102564
0,316,0.00102564
0,317,0.00102564
0,318,0.00102564
0,319,0.00102564
0,320,0.00102564
0,321,0.00102564
0,322,0.00102564
0,323,0.00102564
0,324,0.00102564
0,325,0.00102564
0,326,0.00102564
0,327,0.00102564
0,328,0.00102564
0,329,0.00102564
0,330,0.00102564
0,331,0.00102564
0,332,0.00102564
0,333,0.00102564
0,334,0.00102564
0,335,0.00102564
0,336,0.00102564
0,337,0.00102564
0,338,0.00102564
0,339,0.00102564
0,340,0.00102564
0,341,0.00102564
0,342,0.00102564
0,343,0.00102564
0,344,0.00102564
0,345,0.00102564
0,346,0.00102564
0,347,0.00102564
0,348,0.00102564
0,349,0.00102564
0,350,0.00102564
0,351,0.00102564
0,352,0.00102564
0,353,0.00102564
0,354,0.00102564
0,355,0.00102564
0,356,0.00102564
0,357,0.00102564
0,358,0.00102564
0,359,0.00102564
0,360,0.00102564
0,361,0.00102564
0,362,0.00102564
0,363,0.00102564
0,364,0.00102564
0,365,0.00102564
0,366,0.00102564
0,367,0.00102564
0,368,0.00102564
0,369,0.00102564
0,370,0.00102564
0,371,0.00102564
0,372,0.00102564
0,373,0.00102564
0,374,0.00102564
0,375,0.00102564
0,376,0.00102564
0,377,0.00102564
0,378,0.00102564
0,379,0.00102564
0,380,0.00102564
0,381,0.00102564
0,382,0.00102564
0,383,0.00102564
0,384,0.00102564
0,385,0.00102564
0,386,0.00102564
0,387,0.00102564
0,388,0.00102564
0,389,0.00102564
0,390,0.00102564
0,391,0.00102564
0,392,0.00102564
0,393,0.00102564
0,394,0.00102564
0,395,0.00102564
0,396,0.00102564
0,397,0.00102564
0,398,0.00102564
0,399,0.00102564
0,400,0.00102564
0,401,0.00102564
0,402,0.00102564
0,403,0.00102564
0,404,0.00102564
0,405,0.00102564
0,406,0.00102564
0,407,0.00102564
0,408,0.00102564
0,409,0.00102564
0,410,0.00102564
0,411,0.00102564
0,412,0.00102564
0,413,0.00102564
0,414,0.00102564
0,415,0.00102564
0,416,0.00102564
0,417,0.00102564
0,418,0.00102564
0,419,0.00102564
0,420,0.00102564
0,421,0.00102564
0,422,0.00102564
0,423,0.00102564
0,424,0.00102564
0,425,0.00102564
0,426,0.00102564
0,427,0.00102564
0,428,0.00102564
0,429,0.00102564
0,430,0.00102564
0,431,0.00102564
0,432,0.00102564
0,433,0.00102564
0,434,0.00102564
0,435,0.00102564
0,436,0.00102564
0,437,0.00102564
0,438,0.00102564
0,439,0.00102564
0,440,0.00102564
0,441,0.00102564
0,442,0.00102564
0,443,0.00102564
0,444,0.00102564
0,445,0.00102564
0,446,0.00102564
0,447,0.00102564
0,448,0.00102564
0,449,0.00102564
0,450,0.00102564
0,451,0.00102564
0,452,0.00102564
0,453,0.00102564
0,454,0.00102564
0,455,0.00102564
0,456,0.00102564
0,457,0.00102564
0,458,0.00102564
0,459,0.00102564
0,460,0.00102564
0,461,0.00102564
0,462,0.00102564
0,463,0.00102564
0,464,0.00102564
0,465,0.00102564
0,466,0.00102564
0,467,0.00102564
0,468,0.00102564
0,469,0.00102564
0,470,0.00102564
0,471,0.00102564
0,472,0.00102564
0,473,0.00102564
0,474,0.00102564
0,475,0.00102564
0,476,0.00102564
0,477,0.00102564
0,478,0.00102564
0,479,0.00102564
0,480,0.00102564
0,481,0.00102564
0,482,0.00102564
0,483,0.00102564
0,484,0.00102564
0,485,0.00102564
0,486,0.00102564
0,487,0.00102564
0,488,0.00102564
0,489,0.00102564
0,490,0.00102564
0,491,0.00102564
0,492,0.00102564
0,493,0.00102564
0,494,0.00102564
0,495,0.00102564
0,496,0.00102564
0,497,0.00102564
0,498,0.00102564
0,499,0.00102564
0,500,0.00102564
0,501,0.00102564
0,502,0.00102564
0,503,0.00102564
0,504,0.00102564
0,505,0.00102564
0,506,0.00102564
0,507,0.00102564
0,508,0.00102564
0,509,0.00102564
0,510,0.00102564
0,511,0.475897
