0,0,3,698377.333333,242567.333333,1325506.000000,72219.333333,8389.333333,662277.666667,24784.220065,8421.137387,50601.323856,2198.295148,289.367510,25287.304922
0,1,7,730792.714286,254956.000000,1389236.142857,76251.714286,9502.428571,693996.571429,25045.083280,8379.549528,66504.125407,2667.113941,421.744627,33349.845521
1,0,2,693505.000000,240988.500000,1350965.500000,71999.000000,8727.000000,674719.000000,29666.000000,9990.500000,55824.500000,2799.000000,346.000000,27901.000000
1,1,6,709812.000000,248492.500000,1394799.000000,73949.166667,8952.833333,696746.500000,3922.754814,1204.251877,64548.055352,644.091199,261.044962,32220.282332
2,0,2,691163.000000,239815.000000,1314168.000000,71480.500000,8722.500000,656559.500000,28879.000000,9167.000000,13405.000000,2419.500000,2.500000,6734.500000
2,1,6,711594.166667,248844.333333,1361622.833333,74314.000000,9077.833333,680236.500000,8394.254730,2163.192214,42027.697036,1275.796745,225.667467,20999.864513
3,0,2,662983.500000,230695.000000,1283853.500000,69073.000000,9141.000000,641364.000000,1230.500000,527.000000,46194.500000,218.000000,500.000000,23094.000000
3,1,6,711854.000000,249130.166667,1352972.333333,74447.833333,9367.333333,675973.166667,7924.052919,1564.604467,49250.501648,1139.232112,299.580633,24604.530067
4,0,2,661569.500000,229820.500000,1298560.000000,68683.000000,8654.500000,648672.500000,2070.500000,30.500000,62596.000000,77.000000,242.500000,31207.500000
4,1,6,706979.000000,247960.500000,1376618.666667,73754.833333,9106.333333,687684.666667,2564.781667,886.074254,72324.059051,409.375303,237.409398,35988.330241
5,0,2,667802.500000,231963.000000,1295624.500000,69513.500000,8622.000000,647169.500000,2418.500000,838.000000,63437.500000,306.500000,63.000000,31637.500000
5,1,6,712653.833333,248822.500000,1317919.500000,74380.666667,9121.500000,658332.166667,11447.073184,2503.445343,24400.576412,1381.082144,319.248989,12161.273966
6,0,2,666883.500000,231018.000000,1234946.000000,69089.000000,8484.000000,617013.000000,1388.500000,134.000000,32472.000000,155.000000,60.000000,16070.000000
6,1,6,714205.833333,249289.500000,1382733.666667,74551.166667,9227.333333,690719.666667,7570.174666,1842.610173,61954.515578,1289.687225,725.458169,31070.608564
7,0,2,667979.000000,232193.500000,1311547.500000,69757.000000,8730.500000,654936.000000,632.000000,160.500000,58384.500000,81.000000,25.500000,29097.000000
7,1,6,711402.666667,248754.666667,1391756.000000,74002.000000,9259.166667,695326.166667,2949.509432,627.941257,79275.744681,107.676986,149.324498,39555.874589
8,0,2,662032.000000,230736.500000,1229591.500000,69025.500000,8250.000000,614100.500000,632.000000,59.500000,155.500000,13.500000,319.000000,53.500000
8,1,6,712547.000000,249178.500000,1359073.333333,74471.500000,9323.500000,678931.500000,8322.135683,1399.640043,51832.246995,1204.783625,600.068815,25895.025640
9,0,2,663438.000000,230422.000000,1351143.500000,68937.000000,8578.500000,675143.500000,1211.000000,190.000000,24712.500000,29.000000,105.500000,12251.500000
9,1,6,710024.833333,248508.166667,1347033.000000,73956.166667,9147.166667,672977.333333,2842.630790,806.529895,62610.535599,279.655393,575.252239,31247.303925
10,0,2,667915.000000,231727.500000,1368697.000000,69525.500000,8621.000000,683608.500000,302.000000,1235.500000,72169.000000,546.500000,167.000000,35930.500000
10,1,6,708090.166667,247787.166667,1365203.666667,73689.166667,8885.666667,682019.666667,4334.369905,647.827502,60692.506003,239.636820,312.933255,30346.700286
11,0,2,674533.500000,232797.500000,1310777.500000,70661.000000,9133.500000,654940.500000,9277.500000,2684.500000,8088.500000,1781.000000,242.500000,4126.500000
11,1,6,713603.333333,249008.000000,1388717.333333,74467.666667,9480.333333,693664.166667,7785.480218,1451.197896,68477.490960,996.626086,684.761921,34215.558739
12,0,2,662596.000000,230341.000000,1286313.500000,68901.000000,8452.500000,642674.000000,2928.000000,355.000000,47363.500000,94.000000,384.500000,23803.000000
12,1,6,710684.666667,248641.166667,1411460.833333,74057.666667,9266.833333,704926.166667,3606.637061,1033.035562,80058.022503,492.801741,878.620589,39847.211502
13,0,2,669215.000000,231933.500000,1284152.000000,69570.000000,8232.000000,641342.000000,4005.000000,902.500000,27567.000000,340.000000,6.000000,13645.000000
13,1,6,710651.166667,248599.833333,1406880.833333,74034.166667,9283.000000,702681.166667,6360.487859,1435.675151,90334.716496,534.390437,705.856926,45243.484089
14,0,2,664880.000000,231203.000000,1316424.500000,69198.000000,8470.000000,657632.500000,2326.000000,244.000000,5470.500000,9.000000,115.000000,2611.500000
14,1,6,711505.000000,249056.333333,1405515.666667,74208.166667,9421.000000,702134.666667,3874.019016,1101.215036,54090.898358,341.236681,260.625530,27091.620320
15,0,2,664115.000000,230657.000000,1269064.500000,69034.000000,8508.000000,633986.500000,4907.000000,424.000000,15919.500000,168.000000,249.000000,8023.500000
15,1,6,714413.833333,249297.500000,1370597.500000,74516.666667,9222.166667,684761.333333,8215.427711,1553.275759,93370.283507,1024.581486,750.064090,46709.957456
16,0,2,674944.000000,233029.000000,1376742.500000,70777.500000,8562.500000,687861.500000,8187.000000,2289.000000,11085.500000,1634.500000,94.500000,5408.500000
16,1,6,710596.166667,248697.666667,1393140.833333,74116.333333,9139.166667,695863.166667,4056.568107,1201.006754,72119.502199,518.357556,431.208154,36175.298333
17,0,2,663728.500000,230650.000000,1359552.500000,69131.500000,8576.000000,679109.000000,3174.500000,144.000000,91662.500000,47.500000,57.000000,45897.000000
17,1,6,713415.166667,249538.333333,1437128.333333,74651.833333,9412.666667,717926.166667,8979.309020,1853.945492,110378.727366,1275.295184,504.415724,55247.046604
18,0,2,665963.000000,231748.000000,1280880.000000,69534.000000,8101.500000,639748.000000,3555.000000,12.000000,24937.000000,69.000000,328.500000,12381.000000
18,1,6,710280.333333,248465.666667,1348536.333333,73972.666667,8878.166667,673698.333333,3256.559312,913.329927,76964.097166,416.622398,612.520589,38514.601273
19,0,2,664870.000000,230849.000000,1216400.500000,69173.500000,7735.000000,607595.000000,10.000000,400.000000,619.500000,161.500000,348.000000,347.000000
19,1,6,711257.666667,248927.833333,1397086.666667,74391.666667,9011.000000,698024.166667,8554.506700,1633.823880,91944.498383,1092.115785,1014.307317,46065.981984
20,0,2,667816.000000,230786.500000,1348948.000000,69130.000000,8370.500000,673908.000000,4836.000000,461.500000,31229.000000,190.000000,84.500000,15524.000000
20,1,6,709629.666667,248181.500000,1369915.333333,73906.000000,9066.500000,684389.500000,4030.281862,845.034072,78805.951902,436.051602,787.805761,39420.589074
21,0,2,669333.500000,231411.500000,1275355.000000,69467.500000,8398.500000,636810.500000,6443.500000,744.500000,60221.000000,352.500000,583.500000,30012.500000
21,1,6,709843.000000,248241.166667,1365498.500000,73855.333333,9266.500000,682165.500000,2490.389662,781.635127,57755.894873,355.880442,687.982740,28827.468433
22,0,2,668659.500000,231627.500000,1349457.000000,69553.000000,8537.000000,674015.500000,2906.500000,765.500000,25904.000000,375.000000,2.000000,12963.500000
22,1,6,714934.000000,250199.666667,1366133.500000,74541.333333,9422.833333,682383.333333,7724.268854,3383.739582,54315.186694,1008.690020,774.708207,27100.435468
23,0,2,666848.000000,230910.000000,1247611.500000,69161.500000,8906.500000,623142.500000,4751.000000,27.000000,1295.500000,37.500000,20.500000,744.500000
23,1,6,709930.500000,248318.833333,1390318.166667,73923.833333,9232.166667,694589.333333,4643.599242,1030.624474,36742.903920,486.144497,721.425075,18342.366856
24,0,2,670152.500000,231066.500000,1284682.500000,69187.500000,8656.500000,641831.500000,489.500000,720.500000,25180.500000,212.500000,60.500000,12620.500000
24,1,6,715258.666667,249739.000000,1375742.666667,74721.666667,9445.500000,687236.666667,10531.089555,2027.923404,57830.184586,1315.634279,554.718773,28838.613626
25,0,2,665307.500000,230712.000000,1278184.000000,69088.000000,8460.000000,637922.000000,3672.500000,87.000000,60870.000000,1.000000,217.000000,29929.000000
25,1,6,713303.166667,248948.666667,1419271.500000,74399.666667,9638.833333,709108.000000,7044.213948,1512.013962,99303.019433,1169.328392,734.227807,49676.343958
26,0,2,678477.500000,232996.000000,1250342.000000,70733.500000,8907.500000,624685.500000,13386.500000,2119.000000,28953.000000,1612.500000,639.500000,14507.500000
26,1,6,712807.666667,248959.666667,1423569.500000,74389.166667,9686.666667,711256.000000,8932.772800,1670.292656,65012.350741,1102.184258,894.688152,32478.582445
27,0,2,669181.000000,231425.000000,1332664.000000,69448.000000,8749.500000,665473.500000,316.000000,1276.000000,4061.000000,492.000000,235.500000,2340.500000
27,1,6,711066.166667,248898.000000,1400459.000000,74114.833333,9364.833333,699545.333333,2577.475730,594.167765,43972.442590,423.443194,574.036415,22028.524226
28,0,1,670276.000000,231044.000000,1241419.000000,69245.000000,8635.000000,620165.000000,0.000000,0.000000,0.000000,0.000000,0.000000,0.000000
28,1,6,709125.333333,248122.000000,1412812.666667,73803.333333,8946.000000,705859.500000,3687.495793,769.536224,46101.805943,233.234979,506.045123,23023.242979
29,0,1,668780.000000,230201.000000,1260880.000000,68941.000000,9187.000000,629964.000000,0.000000,0.000000,0.000000,0.000000,0.000000,0.000000
29,1,6,711549.000000,249318.500000,1422850.666667,74272.500000,9351.666667,710805.833333,4486.322696,659.670309,68053.912696,266.696925,740.342188,34022.481422
30,0,1,669707.000000,230618.000000,1242190.000000,69059.000000,8757.000000,620601.000000,0.000000,0.000000,0.000000,0.000000,0.000000,0.000000
30,1,6,710175.833333,248227.500000,1398385.666667,73812.666667,9194.666667,698637.666667,2660.263359,428.303144,56383.450142,100.471665,631.706067,28102.335132
31,0,1,673734.000000,232826.000000,1259116.000000,70102.000000,9204.000000,628644.000000,0.000000,0.000000,0.000000,0.000000,0.000000,0.000000
31,1,6,710719.333333,248182.500000,1410883.500000,73813.333333,9379.333333,704910.833333,2626.729948,723.253932,87757.657927,257.804620,525.959969,43876.249644
32,0,1,687724.000000,234980.000000,1241415.000000,72312.000000,9309.000000,620120.000000,0.000000,0.000000,0.000000,0.000000,0.000000,0.000000
32,1,6,715438.166667,249760.000000,1399192.833333,74755.166667,9512.000000,698899.166667,8629.400798,1394.274005,44494.695861,1109.997510,697.591571,22401.682016
33,0,1,670579.000000,230359.000000,1345402.000000,68947.000000,9065.000000,672297.000000,0.000000,0.000000,0.000000,0.000000,0.000000,0.000000
33,1,6,714912.500000,249112.500000,1427535.166667,74427.666667,9569.166667,713204.666667,8799.039659,1577.466402,81860.655502,1191.736641,871.364718,40867.164141
34,0,1,669049.000000,230479.000000,1240290.000000,69054.000000,8359.000000,619456.000000,0.000000,0.000000,0.000000,0.000000,0.000000,0.000000
34,1,6,711892.833333,248746.333333,1438672.500000,74105.833333,9375.333333,718553.500000,3669.206927,1100.494838,39080.132616,438.240960,242.515063,19609.142202
35,0,1,668507.000000,230257.000000,1386755.000000,68933.000000,8683.000000,692661.000000,0.000000,0.000000,0.000000,0.000000,0.000000,0.000000
35,1,6,709868.666667,248440.833333,1408993.833333,73925.166667,9269.166667,703950.666667,2980.480703,546.626752,66500.793518,222.790198,547.885455,33203.550531
36,0,1,670282.000000,230700.000000,1256890.000000,69074.000000,8893.000000,628083.000000,0.000000,0.000000,0.000000,0.000000,0.000000,0.000000
36,1,6,715405.000000,249553.000000,1412837.000000,74694.000000,9666.166667,705655.500000,6189.867661,1352.670568,69743.967032,1134.145199,641.992580,34832.837820
37,0,1,674451.000000,232663.000000,1365101.000000,70004.000000,9422.000000,681723.000000,0.000000,0.000000,0.000000,0.000000,0.000000,0.000000
37,1,6,713128.833333,248795.166667,1384388.166667,74328.000000,9560.166667,691649.000000,8667.068947,1827.505442,79471.508940,1339.326199,648.890956,39705.504354
38,0,1,690228.000000,235383.000000,1334178.000000,72467.000000,10204.000000,666370.000000,0.000000,0.000000,0.000000,0.000000,0.000000,0.000000
38,1,6,709905.666667,248467.833333,1360915.500000,73945.666667,9091.000000,679896.500000,2907.305320,882.089454,61777.993495,373.329018,784.298625,30829.937246
39,0,1,666499.000000,230090.000000,1299461.000000,68898.000000,8555.000000,649355.000000,0.000000,0.000000,0.000000,0.000000,0.000000,0.000000
39,1,6,713292.000000,249055.166667,1402930.833333,74419.500000,9522.500000,700803.000000,7403.079179,1647.271220,86861.955944,1165.573500,802.047952,43406.709163
40,0,1,672204.000000,231086.000000,1326285.000000,69361.000000,9227.000000,662503.000000,0.000000,0.000000,0.000000,0.000000,0.000000,0.000000
40,1,6,713817.666667,249855.500000,1406616.333333,74295.333333,9708.000000,702872.666667,8950.082452,3422.550791,60232.652907,1178.943831,711.394874,29910.336489
41,0,1,670899.000000,230972.000000,1254287.000000,69210.000000,8933.000000,626649.000000,0.000000,0.000000,0.000000,0.000000,0.000000,0.000000
41,1,6,706620.500000,247413.500000,1441253.500000,73520.833333,9616.833333,720103.666667,2213.130268,521.803204,38632.636521,287.097206,597.365164,19254.124412
42,0,1,666736.000000,229818.000000,1320147.000000,68811.000000,8730.000000,659625.000000,0.000000,0.000000,0.000000,0.000000,0.000000,0.000000
42,1,6,712495.333333,248781.000000,1470530.666667,74303.000000,9955.500000,734719.000000,6875.664396,1811.094789,90239.591634,1176.786868,654.670591,45189.758556
43,0,1,666672.000000,229571.000000,1331237.000000,68811.000000,8930.000000,664898.000000,0.000000,0.000000,0.000000,0.000000,0.000000,0.000000
43,1,6,713280.500000,248898.166667,1414206.833333,74099.666667,9444.166667,706576.000000,3315.936054,1134.069724,52930.571958,570.623246,660.983968,26689.058070
44,0,1,673315.000000,232781.000000,1434013.000000,70025.000000,9287.000000,716125.000000,0.000000,0.000000,0.000000,0.000000,0.000000,0.000000
44,1,6,714978.833333,249474.166667,1424882.000000,74599.333333,9765.333333,711841.666667,6881.869984,1489.691625,45174.731554,1207.684515,849.164622,22520.393333
45,0,1,688265.000000,234657.000000,1283002.000000,72165.000000,9649.000000,641045.000000,0.000000,0.000000,0.000000,0.000000,0.000000,0.000000
45,1,6,710235.833333,248046.333333,1435222.500000,73754.166667,9575.000000,717070.000000,1282.767245,522.639987,89010.011712,332.153286,482.770132,44520.367111
46,0,1,666203.000000,230426.000000,1326043.000000,68991.000000,8992.000000,662584.000000,0.000000,0.000000,0.000000,0.000000,0.000000,0.000000
46,1,7,710322.285714,248186.142857,1465935.428571,73842.714286,9707.142857,732345.857143,2001.478005,759.778244,98645.456182,378.943914,758.141040,49147.411234
47,0,1,691878.000000,235211.000000,1385488.000000,72378.000000,8905.000000,692064.000000,0.000000,0.000000,0.000000,0.000000,0.000000,0.000000
47,1,7,713887.714286,249258.857143,1394822.000000,74514.571429,9603.142857,696688.142857,7043.211620,1587.926089,66217.228244,1123.202546,745.527891,32961.638038
48,0,1,669827.000000,231045.000000,1315860.000000,69182.000000,8172.000000,657398.000000,0.000000,0.000000,0.000000,0.000000,0.000000,0.000000
48,1,7,712047.714286,248429.857143,1386907.142857,74185.428571,8979.428571,692846.285714,8537.944211,1718.092084,75704.520098,1048.234278,1050.841548,37802.483636
49,0,1,672125.000000,231609.000000,1356930.000000,69597.000000,8677.000000,677694.000000,0.000000,0.000000,0.000000,0.000000,0.000000,0.000000
49,1,7,712817.428571,248551.857143,1399611.285714,74218.285714,9354.714286,699234.714286,7828.456222,1862.647918,74187.478514,1282.534401,678.990157,37083.746134
50,0,1,667655.000000,230186.000000,1345647.000000,68912.000000,8605.000000,672216.000000,0.000000,0.000000,0.000000,0.000000,0.000000,0.000000
50,1,7,710955.571429,248519.285714,1372773.142857,74015.142857,9226.571429,685760.142857,3334.403346,867.496515,39593.615995,348.709223,435.492449,19837.659982
51,0,1,671938.000000,232059.000000,1277685.000000,69812.000000,8976.000000,637852.000000,0.000000,0.000000,0.000000,0.000000,0.000000,0.000000
51,1,7,711344.000000,248637.857143,1389986.714286,74169.000000,9354.428571,694471.428571,8482.891488,1791.810691,95952.347686,1157.637496,705.658934,47932.936588
52,0,1,690742.000000,235079.000000,1252485.000000,72276.000000,9335.000000,625673.000000,0.000000,0.000000,0.000000,0.000000,0.000000,0.000000
52,1,7,711452.285714,248426.571429,1384556.285714,74105.571429,9102.428571,691796.285714,5309.608533,1354.945529,66548.673991,1242.106719,451.924411,33247.360745
53,0,1,671235.000000,231354.000000,1281540.000000,69329.000000,8884.000000,640295.000000,0.000000,0.000000,0.000000,0.000000,0.000000,0.000000
53,1,7,710380.857143,248709.428571,1380733.428571,74174.142857,9264.857143,689706.142857,2156.658489,944.557017,29935.296967,376.634127,319.494882,15080.070476
54,0,1,668307.000000,230549.000000,1301746.000000,69011.000000,8715.000000,650270.000000,0.000000,0.000000,0.000000,0.000000,0.000000,0.000000
54,1,7,711420.857143,248877.714286,1402992.428571,74449.714286,9607.428571,700887.285714,6929.359142,1558.534817,77486.802522,1088.474386,1077.605263,38793.149295
55,0,1,665548.000000,229994.000000,1334825.000000,68882.000000,7992.000000,667104.000000,0.000000,0.000000,0.000000,0.000000,0.000000,0.000000
55,1,7,711327.285714,248631.857143,1401324.714286,74329.000000,9502.285714,700091.000000,8093.200157,1922.910252,52039.498720,1270.536557,490.639150,26018.379767
56,0,1,673409.000000,233082.000000,1393494.000000,70171.000000,8674.000000,695683.000000,0.000000,0.000000,0.000000,0.000000,0.000000,0.000000
56,1,7,710560.142857,248419.000000,1409535.428571,74066.285714,9242.857143,704100.428571,5306.093921,1545.224256,41375.457093,503.622226,416.659652,20685.562335
57,0,1,667539.000000,230152.000000,1312725.000000,68898.000000,8691.000000,655758.000000,0.000000,0.000000,0.000000,0.000000,0.000000,0.000000
57,1,7,712070.142857,248644.857143,1427516.000000,74334.857143,9483.857143,713219.571429,9433.894112,1920.417323,67981.943164,1256.916457,614.513380,33982.485526
58,0,1,669554.000000,231298.000000,1345456.000000,69308.000000,8557.000000,672076.000000,0.000000,0.000000,0.000000,0.000000,0.000000,0.000000
58,1,7,708907.714286,247945.857143,1401671.857143,73870.000000,9137.428571,700331.142857,2348.268524,772.659309,49027.982070,336.589194,297.042016,24565.940507
59,0,1,673288.000000,232311.000000,1371670.000000,69800.000000,9087.000000,684977.000000,0.000000,0.000000,0.000000,0.000000,0.000000,0.000000
59,1,7,708335.000000,248024.285714,1398755.000000,73911.857143,9290.000000,698790.714286,3704.481919,1066.527036,89646.557018,293.269466,695.504955,44826.423606
60,0,1,668582.000000,231933.000000,1344221.000000,69678.000000,8810.000000,671524.000000,0.000000,0.000000,0.000000,0.000000,0.000000,0.000000
60,1,7,714637.428571,249121.714286,1396308.142857,74742.142857,9612.285714,697662.000000,10229.979652,2053.276804,46308.761283,1376.323408,639.553352,23148.320408
61,0,1,667955.000000,230835.000000,1399535.000000,69161.000000,8851.000000,699071.000000,0.000000,0.000000,0.000000,0.000000,0.000000,0.000000
61,1,7,716126.857143,249960.428571,1456144.428571,74947.857143,9757.142857,727329.714286,10297.743184,2072.945789,55148.838213,1438.643650,1190.856046,27517.192609
62,0,1,665209.000000,229847.000000,1220180.000000,68801.000000,7941.000000,609649.000000,0.000000,0.000000,0.000000,0.000000,0.000000,0.000000
62,1,7,713979.142857,249252.571429,1404500.285714,74786.857143,9284.428571,701747.571429,8090.194372,1880.276944,35572.000541,1474.188535,797.728894,17838.968219
63,0,1,670502.000000,232347.000000,1347221.000000,69891.000000,8657.000000,672696.000000,0.000000,0.000000,0.000000,0.000000,0.000000,0.000000
63,1,7,707488.857143,247985.857143,1427062.571429,73862.714286,9136.857143,713028.857143,3596.942131,988.949432,33391.049044,367.927289,398.529593,16722.675439
64,0,1,664904.000000,230323.000000,1213373.000000,68947.000000,7707.000000,606160.000000,0.000000,0.000000,0.000000,0.000000,0.000000,0.000000
64,1,7,710152.571429,248318.000000,1425262.428571,74017.142857,9302.857143,712007.000000,2712.645933,1042.806926,52804.274805,396.139740,307.951494,26399.327129
65,0,1,668997.000000,232050.000000,1336600.000000,69704.000000,8741.000000,667503.000000,0.000000,0.000000,0.000000,0.000000,0.000000,0.000000
65,1,7,711872.857143,248645.142857,1391597.714286,74350.571429,9479.428571,695215.428571,8818.077672,1719.134785,49948.533540,1237.811070,786.631127,24858.720929
66,0,1,672084.000000,230190.000000,1355931.000000,68918.000000,8253.000000,677527.000000,0.000000,0.000000,0.000000,0.000000,0.000000,0.000000
66,1,7,715866.857143,249371.000000,1422363.571429,74853.857143,9686.714286,710645.571429,9146.430239,1774.997223,34816.898942,1480.450938,951.343218,17430.503475
67,0,1,676440.000000,232700.000000,1412124.000000,69944.000000,9226.000000,704926.000000,0.000000,0.000000,0.000000,0.000000,0.000000,0.000000
67,1,7,709100.428571,247900.285714,1378787.000000,73847.142857,9393.285714,688818.285714,3061.013878,684.055702,38219.097855,231.617560,723.038966,19110.032726
68,0,1,673320.000000,232001.000000,1255157.000000,69710.000000,8261.000000,626682.000000,0.000000,0.000000,0.000000,0.000000,0.000000,0.000000
68,1,7,714617.000000,248968.000000,1392881.285714,74501.714286,9792.428571,695731.857143,6885.287960,2012.307489,60706.270422,1142.383187,780.055833,30342.754119
69,0,1,669661.000000,231050.000000,1332996.000000,69198.000000,8261.000000,666021.000000,0.000000,0.000000,0.000000,0.000000,0.000000,0.000000
69,1,7,716341.571429,249751.142857,1416136.714286,74649.285714,9517.428571,707553.428571,18633.904605,5380.879892,101467.304035,2328.659621,816.505946,50769.473736
70,0,1,669255.000000,230945.000000,1283703.000000,69110.000000,8031.000000,641377.000000,0.000000,0.000000,0.000000,0.000000,0.000000,0.000000
70,1,7,711301.000000,248546.714286,1362371.142857,74097.714286,9064.285714,680610.000000,1477.538590,1091.598397,68472.875229,456.618539,564.675309,34228.544804
71,0,1,687577.000000,234853.000000,1373195.000000,72216.000000,8472.000000,686135.000000,0.000000,0.000000,0.000000,0.000000,0.000000,0.000000
71,1,7,713686.000000,249502.428571,1403329.285714,74376.571429,9123.000000,701063.000000,9865.342250,3495.840298,66822.526344,1025.083531,365.555155,33274.860700
72,0,1,670749.000000,230818.000000,1378237.000000,69105.000000,8104.000000,688484.000000,0.000000,0.000000,0.000000,0.000000,0.000000,0.000000
72,1,7,710735.285714,248100.857143,1432741.428571,73933.571429,9520.714286,715779.857143,3740.808878,845.096010,47523.782088,371.088306,603.307956,23810.464323
73,0,1,666612.000000,229632.000000,1316921.000000,68630.000000,8139.000000,658027.000000,0.000000,0.000000,0.000000,0.000000,0.000000,0.000000
73,1,7,715219.000000,249253.714286,1402250.714286,74607.857143,9530.000000,700431.857143,5862.662121,1151.164220,60529.572894,1048.599260,409.465156,30218.568664
74,0,1,667870.000000,230365.000000,1343610.000000,68873.000000,9098.000000,671257.000000,0.000000,0.000000,0.000000,0.000000,0.000000,0.000000
74,1,7,711554.571429,248301.571429,1382718.714286,74008.142857,9233.857143,690757.428571,3176.030940,1006.227162,76720.209844,285.479761,726.541795,38232.500871
75,0,1,689214.000000,235495.000000,1280141.000000,72338.000000,9007.000000,639623.000000,0.000000,0.000000,0.000000,0.000000,0.000000,0.000000
75,1,7,712581.714286,248924.000000,1384140.285714,74416.285714,9172.714286,691552.428571,7872.787230,1822.094243,59490.579849,1075.283579,921.755889,29696.929206
76,0,1,667388.000000,230262.000000,1326927.000000,68800.000000,8704.000000,663190.000000,0.000000,0.000000,0.000000,0.000000,0.000000,0.000000
76,1,7,711058.000000,248565.428571,1381513.857143,74103.714286,9273.000000,690144.285714,3736.075481,1167.577572,19568.576979,560.970260,553.373292,9925.001543
77,0,1,669312.000000,231353.000000,1306376.000000,69181.000000,8723.000000,652631.000000,0.000000,0.000000,0.000000,0.000000,0.000000,0.000000
77,1,7,710297.000000,248581.857143,1426303.714286,74124.857143,9130.285714,712540.285714,2163.933324,904.302166,27833.173664,436.008004,236.769155,14011.517321
78,0,1,671968.000000,232649.000000,1356967.000000,69814.000000,8958.000000,677671.000000,0.000000,0.000000,0.000000,0.000000,0.000000,0.000000
78,1,7,709315.000000,247981.428571,1425013.428571,73855.000000,9044.285714,712006.571429,1710.663363,520.285322,69147.407361,305.621147,496.599785,34582.259105
79,0,1,662308.000000,229334.000000,1323199.000000,68519.000000,8552.000000,661284.000000,0.000000,0.000000,0.000000,0.000000,0.000000,0.000000
79,1,7,710326.857143,248254.571429,1374946.142857,73974.714286,8998.000000,686919.285714,2347.747092,842.768373,36060.341308,390.963906,625.655542,18002.294280
80,0,1,665009.000000,230229.000000,1272427.000000,68765.000000,7981.000000,635665.000000,0.000000,0.000000,0.000000,0.000000,0.000000,0.000000
80,1,7,712405.000000,248933.428571,1377601.714286,74456.714286,9205.428571,688220.714286,7435.812762,1524.603354,34843.690483,1172.995885,693.220406,17423.775150
81,0,1,663821.000000,230321.000000,1278921.000000,68823.000000,8552.000000,638820.000000,0.000000,0.000000,0.000000,0.000000,0.000000,0.000000
81,1,7,710669.857143,248354.857143,1387840.571429,74280.000000,9232.142857,693413.714286,7423.048073,1487.414000,54098.746497,1240.640157,377.296181,27090.242290
82,0,1,674361.000000,232547.000000,1268568.000000,69806.000000,9518.000000,633228.000000,0.000000,0.000000,0.000000,0.000000,0.000000,0.000000
82,1,7,711127.428571,248602.285714,1361073.285714,74369.857143,9250.000000,679975.428571,8929.788701,1790.286147,57047.703952,1085.736015,592.683968,28576.315952
83,0,1,690523.000000,235076.000000,1350031.000000,72159.000000,10496.000000,674451.000000,0.000000,0.000000,0.000000,0.000000,0.000000,0.000000
83,1,7,709177.714286,248176.714286,1364278.142857,74002.142857,8991.000000,681550.142857,2592.387742,751.302244,60092.660076,495.459218,614.298671,30024.446208
84,0,1,670034.000000,231430.000000,1346685.000000,69350.000000,8743.000000,672539.000000,0.000000,0.000000,0.000000,0.000000,0.000000,0.000000
84,1,7,711875.285714,248863.428571,1388119.000000,74460.000000,9061.571429,693476.000000,7502.226921,1672.074491,95423.332454,1193.547653,621.804025,47827.498465
85,0,1,666807.000000,230636.000000,1348679.000000,68814.000000,8588.000000,673577.000000,0.000000,0.000000,0.000000,0.000000,0.000000,0.000000
85,1,7,715646.571429,249927.285714,1407865.000000,75132.428571,9173.571429,703260.571429,9253.484469,1993.136273,79082.314107,1321.244636,370.993206,39454.935925
86,0,1,671763.000000,232370.000000,1461076.000000,69705.000000,9230.000000,729488.000000,0.000000,0.000000,0.000000,0.000000,0.000000,0.000000
86,1,6,712643.500000,249097.833333,1366817.333333,74579.333333,8883.333333,682850.000000,6619.214826,1757.675493,76422.978119,1350.526770,501.811275,38243.547861
87,0,1,669798.000000,230604.000000,1338979.000000,68824.000000,8806.000000,668964.000000,0.000000,0.000000,0.000000,0.000000,0.000000,0.000000
87,1,6,708458.333333,248069.166667,1376354.833333,73907.333333,9216.500000,687599.833333,2607.551768,1024.298201,77448.774743,467.685673,399.469127,38696.064819
88,0,1,673597.000000,232838.000000,1328066.000000,69645.000000,9086.000000,663445.000000,0.000000,0.000000,0.000000,0.000000,0.000000,0.000000
88,1,6,710727.666667,248818.166667,1372925.500000,74371.833333,9025.500000,686019.333333,7634.588194,1790.710698,36811.752366,1117.650127,500.223200,18422.908472
89,0,1,670036.000000,231365.000000,1279786.000000,69073.000000,8644.000000,639204.000000,0.000000,0.000000,0.000000,0.000000,0.000000,0.000000
89,1,6,708957.333333,248408.833333,1370314.833333,74076.500000,9073.833333,684510.833333,4296.835063,1669.282323,48366.682615,812.626964,243.265573,24227.230461
90,0,1,668129.000000,230901.000000,1357139.000000,68873.000000,8796.000000,678188.000000,0.000000,0.000000,0.000000,0.000000,0.000000,0.000000
90,1,6,712922.500000,248959.500000,1395346.833333,74514.500000,8993.000000,697054.166667,6804.897470,1550.322950,38076.866912,1179.656977,536.912159,19133.802745
91,0,1,689658.000000,235689.000000,1457300.000000,72297.000000,9613.000000,727775.000000,0.000000,0.000000,0.000000,0.000000,0.000000,0.000000
91,1,6,708702.666667,248177.333333,1363405.166667,73949.000000,8779.500000,681123.000000,2884.526285,788.155582,71984.788447,397.821987,252.762570,36037.811268
92,0,1,664998.000000,230532.000000,1232757.000000,68846.000000,7935.000000,615611.000000,0.000000,0.000000,0.000000,0.000000,0.000000,0.000000
92,1,6,709890.666667,248140.666667,1422100.333333,73926.833333,9648.333333,710526.500000,1728.013471,523.402862,100372.233029,432.239678,877.897235,50225.409694
93,0,1,668996.000000,232017.000000,1336611.000000,69448.000000,8889.000000,667654.000000,0.000000,0.000000,0.000000,0.000000,0.000000,0.000000
93,1,6,713410.166667,248762.500000,1383524.166667,74394.333333,9160.333333,691195.833333,8147.176513,2089.028622,52736.234720,1271.894082,307.478816,26430.691953
94,0,1,670852.000000,231083.000000,1323713.000000,68980.000000,9035.000000,661186.000000,0.000000,0.000000,0.000000,0.000000,0.000000,0.000000
94,1,6,711019.500000,248488.666667,1380709.833333,74067.666667,9273.333333,689763.666667,3901.774885,972.619944,62269.428051,410.126268,602.007660,31064.075713
95,0,1,688458.000000,235583.000000,1307448.000000,72250.000000,9032.000000,653143.000000,0.000000,0.000000,0.000000,0.000000,0.000000,0.000000
95,1,6,710022.000000,248197.666667,1398487.166667,73944.333333,9486.833333,698697.833333,2781.906241,581.572199,68019.445449,455.084485,702.831041,33981.807659
96,0,1,667340.000000,230913.000000,1360776.000000,68938.000000,8374.000000,679946.000000,0.000000,0.000000,0.000000,0.000000,0.000000,0.000000
96,1,6,709675.833333,248336.500000,1364377.833333,74004.500000,9141.500000,681610.500000,4394.511100,1043.182431,15856.457375,324.679714,198.785269,7797.854507
97,0,1,666697.000000,231006.000000,1335055.000000,68954.000000,8735.000000,666892.000000,0.000000,0.000000,0.000000,0.000000,0.000000,0.000000
97,1,6,708414.000000,247705.500000,1383766.000000,73753.666667,9154.666667,691386.833333,2984.470026,460.855997,78565.647847,301.902670,364.326166,39226.608968
98,0,1,692375.000000,239988.000000,1444095.000000,71586.000000,9009.000000,721203.000000,0.000000,0.000000,0.000000,0.000000,0.000000,0.000000
98,1,6,709494.833333,248193.166667,1386644.333333,73905.000000,9126.000000,692813.500000,3898.158857,507.910562,76937.556962,278.968935,606.393437,38479.230284
99,0,1,666651.000000,230864.000000,1357157.000000,68981.000000,9453.000000,678132.000000,0.000000,0.000000,0.000000,0.000000,0.000000,0.000000
99,1,6,714807.166667,249403.166667,1402901.833333,74705.833333,9156.000000,700731.166667,8674.455745,1322.607452,32979.049736,1120.811375,273.384954,16715.434518
100,0,1,666669.000000,230354.000000,1217093.000000,68765.000000,8500.000000,607995.000000,0.000000,0.000000,0.000000,0.000000,0.000000,0.000000
100,1,6,718872.833333,250090.666667,1430902.000000,75425.000000,9842.000000,714958.666667,11397.272370,2824.017804,138867.797634,1968.907142,1077.957173,69426.689447
101,0,1,687509.000000,235397.000000,1260038.000000,72242.000000,9287.000000,629327.000000,0.000000,0.000000,0.000000,0.000000,0.000000,0.000000
101,1,6,709938.666667,248385.333333,1397613.000000,74014.666667,9179.333333,698193.833333,3412.540289,1044.546898,61877.458090,394.842866,249.862407,30872.260415
102,0,1,664753.000000,230504.000000,1270761.000000,68827.000000,8228.000000,634993.000000,0.000000,0.000000,0.000000,0.000000,0.000000,0.000000
102,1,6,712544.500000,248899.666667,1418106.666667,74437.666667,9350.666667,708444.500000,10089.381378,1891.855057,64374.720037,1162.380555,616.482675,32134.624217
103,0,1,672616.000000,232824.000000,1427573.000000,69762.000000,9127.000000,713012.000000,0.000000,0.000000,0.000000,0.000000,0.000000,0.000000
103,1,6,712143.666667,248997.666667,1353680.833333,74460.166667,9245.000000,676262.000000,7221.583660,1925.505619,70141.848983,1446.645363,620.488517,35148.733486
104,0,1,665374.000000,230535.000000,1316888.000000,68871.000000,8185.000000,658093.000000,0.000000,0.000000,0.000000,0.000000,0.000000,0.000000
104,1,6,708620.000000,247930.666667,1345637.666667,73808.000000,9034.500000,672388.500000,3120.276697,407.035898,81198.408344,277.141961,405.058329,40587.574374
105,0,1,663749.000000,230392.000000,1257110.000000,68767.000000,8231.000000,628125.000000,0.000000,0.000000,0.000000,0.000000,0.000000,0.000000
105,1,6,708599.500000,248359.666667,1336955.000000,74007.166667,9006.666667,667900.833333,3500.123653,951.028508,45251.214853,512.277079,423.730129,22669.961641
106,0,1,687842.000000,234681.000000,1303967.000000,72021.000000,8604.000000,651436.000000,0.000000,0.000000,0.000000,0.000000,0.000000,0.000000
106,1,6,711136.500000,248688.166667,1393841.666667,74382.333333,9140.166667,696416.666667,7481.089821,1765.607017,95778.848767,1147.316531,564.310026,47906.740377
107,0,1,671078.000000,230522.000000,1310691.000000,68827.000000,8488.000000,654961.000000,0.000000,0.000000,0.000000,0.000000,0.000000,0.000000
107,1,6,708176.000000,248404.833333,1397043.500000,74010.666667,9078.666667,698053.500000,4788.417728,1216.921446,54242.565244,574.582650,306.973216,27160.508781
108,0,1,669226.000000,230561.000000,1238157.000000,68955.000000,8151.000000,618619.000000,0.000000,0.000000,0.000000,0.000000,0.000000,0.000000
108,1,6,710884.333333,248767.666667,1374741.333333,74420.666667,8992.833333,686735.166667,9911.818496,2152.271100,99304.668958,1423.491794,935.273118,49475.944853
109,0,1,669707.000000,230498.000000,1375342.000000,68947.000000,7686.000000,687238.000000,0.000000,0.000000,0.000000,0.000000,0.000000,0.000000
109,1,6,715465.666667,249159.500000,1423885.000000,74567.500000,9272.166667,711361.000000,9967.473295,1621.981581,49978.265053,1297.516699,776.112410,25145.147451
110,0,1,668122.000000,230178.000000,1212508.000000,68833.000000,7325.000000,605869.000000,0.000000,0.000000,0.000000,0.000000,0.000000,0.000000
110,1,6,710749.333333,248356.666667,1392181.333333,74016.500000,9175.166667,695486.333333,3268.502035,1205.943982,68257.485518,591.423072,483.014291,34127.605315
111,0,1,688930.000000,234641.000000,1273427.000000,71994.000000,8719.000000,636295.000000,0.000000,0.000000,0.000000,0.000000,0.000000,0.000000
111,1,6,710261.333333,248177.500000,1361801.000000,73930.666667,8828.166667,680256.833333,3131.411592,890.085904,14439.225833,528.117622,332.757878,7219.319622
112,0,1,664703.000000,229730.000000,1302667.000000,68590.000000,7697.000000,650924.000000,0.000000,0.000000,0.000000,0.000000,0.000000,0.000000
112,1,6,709588.000000,248131.333333,1403313.833333,73906.666667,9440.666667,701107.166667,3425.716324,587.492033,64894.920976,435.508005,741.633258,32318.687666
113,0,1,669500.000000,230463.000000,1207019.000000,68828.000000,7839.000000,603086.000000,0.000000,0.000000,0.000000,0.000000,0.000000,0.000000
113,1,6,711411.333333,248679.166667,1392522.000000,74114.333333,9388.500000,695639.166667,3280.769710,1038.695081,62544.319225,455.257680,792.119046,31309.451105
114,0,1,673887.000000,232164.000000,1309822.000000,69564.000000,7941.000000,654233.000000,0.000000,0.000000,0.000000,0.000000,0.000000,0.000000
114,1,6,713873.500000,248853.000000,1390052.333333,74444.833333,9211.833333,694482.166667,9504.776882,1758.918702,56187.384185,1365.284515,785.018984,28075.284008
115,0,1,675816.000000,233792.000000,1402304.000000,70235.000000,8609.000000,700494.000000,0.000000,0.000000,0.000000,0.000000,0.000000,0.000000
115,1,6,717877.000000,249816.166667,1378826.833333,75078.166667,9304.000000,688943.500000,10156.467414,2371.577985,66649.960441,1593.371208,564.119077,33337.791422
116,0,1,665637.000000,229956.000000,1328817.000000,68722.000000,8072.000000,664026.000000,0.000000,0.000000,0.000000,0.000000,0.000000,0.000000
116,1,6,711956.000000,248546.000000,1398344.000000,74100.666667,9181.333333,698512.166667,2135.313404,971.190335,38702.263121,538.085392,427.755252,19299.457880
117,0,1,667071.000000,230544.000000,1194570.000000,68916.000000,7695.000000,596812.000000,0.000000,0.000000,0.000000,0.000000,0.000000,0.000000
117,1,6,709652.833333,247903.833333,1353304.500000,73818.666667,8843.166667,676101.166667,2430.979872,956.973426,68907.149960,301.314712,704.106861,34402.766233
118,0,1,669969.000000,231920.000000,1319523.000000,69575.000000,8259.000000,659103.000000,0.000000,0.000000,0.000000,0.000000,0.000000,0.000000
118,1,6,711055.833333,248583.500000,1377982.833333,74117.166667,9032.333333,688349.000000,3651.396784,1156.636899,35588.408414,458.120587,344.902241,17720.468165
119,0,1,668918.000000,229796.000000,1241358.000000,68700.000000,7721.000000,620235.000000,0.000000,0.000000,0.000000,0.000000,0.000000,0.000000
119,1,6,713632.500000,249013.166667,1369636.666667,74498.833333,9337.500000,684264.500000,8997.679844,1641.006949,65448.500652,1139.055371,768.232116,32685.941232
120,0,1,669199.000000,230487.000000,1298188.000000,68954.000000,7771.000000,648697.000000,0.000000,0.000000,0.000000,0.000000,0.000000,0.000000
120,1,6,712478.333333,248387.333333,1383642.000000,74291.166667,9415.500000,691283.333333,10738.054365,2141.038196,84658.999274,1489.767702,748.515141,42349.751655
121,0,1,675208.000000,232840.000000,1360514.000000,70001.000000,7639.000000,679524.000000,0.000000,0.000000,0.000000,0.000000,0.000000,0.000000
121,1,6,716382.500000,250048.000000,1381208.000000,74764.166667,9173.166667,690106.666667,18563.464599,4682.014915,96164.628722,2269.433440,1111.423774,48059.814942
122,0,1,688245.000000,234615.000000,1380761.000000,72118.000000,7618.000000,689953.000000,0.000000,0.000000,0.000000,0.000000,0.000000,0.000000
122,1,6,710605.666667,248464.333333,1367708.333333,74113.166667,8733.833333,683246.000000,2889.531661,962.369587,62651.588175,472.567250,767.647796,31247.509645
123,0,1,672332.000000,232010.000000,1177671.000000,69469.000000,7549.000000,588188.000000,0.000000,0.000000,0.000000,0.000000,0.000000,0.000000
123,1,6,715724.333333,249610.833333,1375914.000000,75019.333333,9034.000000,687390.500000,10270.458277,2472.972329,59222.003169,1710.223540,789.381826,29591.640800
124,0,1,674312.000000,232737.000000,1242918.000000,69871.000000,8317.000000,620615.000000,0.000000,0.000000,0.000000,0.000000,0.000000,0.000000
124,1,6,708594.666667,248101.666667,1338429.833333,73927.333333,8695.166667,668638.333333,3582.962446,834.614415,75794.718979,509.150491,652.466708,37798.090440
125,0,1,667353.000000,230876.000000,1288273.000000,69128.000000,7326.000000,643549.000000,0.000000,0.000000,0.000000,0.000000,0.000000,0.000000
125,1,6,714527.500000,249662.000000,1374557.500000,75025.833333,9419.833333,686705.333333,10066.323505,1567.626018,68819.467376,1434.346590,812.375820,34399.626174
126,0,1,667884.000000,231162.000000,1219448.000000,69141.000000,7218.000000,609313.000000,0.000000,0.000000,0.000000,0.000000,0.000000,0.000000
126,1,6,708940.500000,247865.833333,1399694.333333,73808.833333,8982.333333,699364.833333,2670.244230,400.218864,77018.680677,283.082683,628.892589,38472.530315
127,0,1,674640.000000,232534.000000,1327887.000000,69915.000000,8081.000000,663178.000000,0.000000,0.000000,0.000000,0.000000,0.000000,0.000000
127,1,6,713202.500000,248720.166667,1354499.166667,74225.166667,9278.333333,676585.500000,1749.521530,940.747472,44234.480953,592.218264,839.520035,22233.864589
128,0,1,689484.000000,235100.000000,1289294.000000,72332.000000,8602.000000,644102.000000,0.000000,0.000000,0.000000,0.000000,0.000000,0.000000
128,1,6,713062.666667,248599.500000,1399932.000000,74369.333333,9545.500000,699527.000000,6322.045784,1864.784594,52997.509250,1244.775973,650.641927,26547.936568
129,0,1,670551.000000,231416.000000,1383136.000000,69206.000000,7634.000000,691087.000000,0.000000,0.000000,0.000000,0.000000,0.000000,0.000000
129,1,6,708522.833333,247769.333333,1369075.333333,73748.166667,9091.333333,684024.000000,2802.117141,507.231593,60674.709522,281.409794,596.048842,30319.596369
130,0,1,664648.000000,229528.000000,1224984.000000,68662.000000,7537.000000,612011.000000,0.000000,0.000000,0.000000,0.000000,0.000000,0.000000
130,1,6,714225.166667,249283.166667,1376486.166667,74638.166667,9257.000000,687638.000000,10745.175653,1474.625197,90105.289350,1173.105766,785.689930,45006.650305
131,0,1,666329.000000,230848.000000,1296739.000000,68981.000000,7758.000000,647791.000000,0.000000,0.000000,0.000000,0.000000,0.000000,0.000000
131,1,6,714836.666667,248911.000000,1372955.333333,74544.166667,9053.000000,685926.000000,12069.470075,2527.549208,65428.412714,1450.231639,614.259174,32724.840957
132,0,1,665672.000000,230440.000000,1255430.000000,68855.000000,7853.000000,627217.000000,0.000000,0.000000,0.000000,0.000000,0.000000,0.000000
132,1,6,713474.333333,248813.666667,1367807.333333,74487.166667,9245.000000,683329.333333,6256.111297,1656.999564,73338.239734,1179.401602,576.932983,36589.453739
133,0,1,670819.000000,232923.000000,1361311.000000,69816.000000,8490.000000,679742.000000,0.000000,0.000000,0.000000,0.000000,0.000000,0.000000
133,1,6,714065.166667,248687.666667,1401970.000000,74395.500000,9240.666667,700474.833333,5451.075411,1539.400064,26827.464242,1125.308661,498.537751,13441.258962
134,0,1,670121.000000,230800.000000,1293270.000000,69122.000000,8685.000000,646309.000000,0.000000,0.000000,0.000000,0.000000,0.000000,0.000000
134,1,6,711137.166667,248643.833333,1408043.000000,74105.000000,9483.166667,703441.166667,3538.266168,826.250651,46176.985610,523.206460,487.495442,23101.640421
135,0,1,669402.000000,230732.000000,1239879.000000,68990.000000,7960.000000,619606.000000,0.000000,0.000000,0.000000,0.000000,0.000000,0.000000
135,1,6,714458.500000,249166.833333,1381639.000000,74602.333333,9543.000000,690196.166667,8792.672001,1608.224841,73814.912940,1349.847234,1025.643050,36774.127791
136,0,1,670715.000000,231885.000000,1324311.000000,69653.000000,8390.000000,661370.000000,0.000000,0.000000,0.000000,0.000000,0.000000,0.000000
136,1,6,712850.166667,248545.833333,1401435.500000,74301.333333,9218.500000,700207.833333,9741.258790,2008.533745,93397.925421,1504.972277,857.813257,46610.864361
137,0,1,686965.000000,234948.000000,1298797.000000,72204.000000,8637.000000,648854.000000,0.000000,0.000000,0.000000,0.000000,0.000000,0.000000
137,1,6,713762.333333,249074.166667,1350338.500000,74525.333333,9034.333333,674676.500000,9634.542346,1836.741809,78281.926362,1347.386070,904.930138,39119.831589
138,0,1,667951.000000,230888.000000,1261240.000000,69099.000000,8001.000000,629959.000000,0.000000,0.000000,0.000000,0.000000,0.000000,0.000000
138,1,6,718218.000000,250667.833333,1362768.333333,74959.333333,9126.333333,680854.000000,12220.407576,3831.856096,35766.875992,1357.079544,603.451646,17887.923990
139,0,2,663221.000000,229963.000000,1352472.500000,68720.000000,8571.000000,675618.000000,802.000000,775.000000,38710.500000,253.000000,157.000000,19407.000000
139,1,6,710024.666667,248202.333333,1378326.000000,73931.333333,8974.166667,688638.833333,1929.899969,757.460817,48744.245428,322.951321,450.764320,24315.277992
140,0,2,678235.500000,233362.500000,1302530.000000,70896.000000,8771.500000,650657.500000,9236.500000,2089.500000,28268.000000,1474.000000,290.500000,14100.500000
140,1,6,708502.666667,247756.833333,1357298.833333,73721.666667,9013.166667,678157.333333,2631.238661,328.499324,47950.475189,307.105664,436.134313,24016.007319
141,0,2,665364.000000,230419.000000,1289399.000000,68946.000000,8595.000000,644043.500000,730.000000,425.000000,33691.000000,108.000000,458.000000,16786.500000
141,1,6,709379.500000,248260.333333,1384760.666667,73939.500000,9308.000000,691798.833333,4874.991103,937.631709,67075.705770,530.763836,318.592739,33462.982097
142,0,2,666662.500000,231232.000000,1399845.000000,69187.500000,8892.000000,699443.500000,1954.500000,36.000000,61475.000000,49.500000,815.000000,30632.500000
142,1,6,711784.500000,248678.333333,1394816.833333,74332.500000,9229.333333,696957.666667,7818.843665,1643.568036,69059.396429,1323.278977,737.959047,34487.676498
143,0,2,668169.000000,231616.500000,1345059.000000,69387.000000,8265.500000,671799.000000,969.000000,807.500000,38149.000000,353.000000,151.500000,19137.000000
143,1,6,709251.833333,247953.000000,1364390.500000,73828.000000,9295.166667,681704.666667,4173.262010,468.020655,45149.334180,357.029877,582.872318,22582.867929
144,0,2,665139.500000,230547.500000,1246516.500000,68976.500000,8114.500000,622644.500000,470.500000,498.500000,42190.500000,146.500000,464.500000,21021.500000
144,1,6,710323.666667,248651.166667,1348887.333333,74144.666667,9042.666667,673794.000000,4302.592152,1507.415163,53072.342432,605.208688,361.823008,26477.388089
145,0,2,663407.500000,230351.500000,1248605.000000,68862.000000,8078.500000,623672.000000,1463.500000,650.500000,61286.000000,186.000000,182.500000,30736.000000
145,1,6,716887.500000,250565.166667,1391849.666667,74942.166667,9424.166667,695327.500000,12999.921984,3230.718466,78901.111956,1321.494283,501.999474,39426.793224
146,0,2,663425.500000,230701.000000,1243741.500000,68990.500000,8157.000000,621353.000000,1761.500000,826.000000,32315.500000,272.500000,504.000000,16239.000000
146,1,6,707326.500000,248119.500000,1345277.833333,73755.666667,8969.833333,672110.833333,5250.281318,1012.220455,48786.009369,546.336486,412.799151,24433.944268
147,0,2,673746.500000,232344.000000,1308381.500000,70422.000000,8365.000000,653612.500000,11979.500000,1965.000000,12798.500000,1547.000000,695.000000,6338.500000
147,1,6,707314.666667,247878.666667,1369519.666667,73674.000000,8969.333333,684134.500000,1989.077899,669.749870,35881.317003,364.326319,235.120300,17936.318684
148,0,2,666681.500000,231311.000000,1354056.500000,69316.500000,8359.500000,676365.000000,2830.500000,1420.000000,67025.500000,588.500000,282.500000,33209.000000
148,1,6,720074.833333,251808.000000,1376045.666667,74911.000000,9033.166667,687387.666667,11940.441846,4692.126099,66467.308026,1497.296341,736.006208,33236.234016
149,0,2,701254.000000,239426.500000,1372862.500000,73506.000000,9298.000000,685953.000000,12941.000000,4540.500000,86413.500000,1374.000000,142.000000,43227.000000
149,1,6,712273.500000,248730.166667,1369461.000000,74250.500000,9205.666667,684196.166667,6468.558231,1432.098742,75826.064184,1174.986206,564.696280,37908.451315
150,0,2,665668.500000,230455.000000,1327520.000000,68917.000000,8552.000000,663204.000000,2692.500000,562.000000,451.000000,204.000000,144.000000,183.000000
150,1,6,710927.000000,248723.166667,1411789.833333,74020.666667,9685.833333,705269.666667,5251.693568,1063.345572,61148.127506,569.743705,663.093612,30533.199574
151,0,2,667958.000000,231603.500000,1337007.500000,69352.500000,8651.500000,667850.000000,1070.000000,747.500000,49448.500000,311.500000,439.500000,24457.000000
151,1,6,712216.000000,248569.000000,1425982.166667,74154.833333,9448.833333,712501.833333,9222.239497,2074.102778,32789.874638,1375.199551,717.505962,16417.533467
152,0,2,664632.500000,230249.000000,1239276.000000,68854.000000,8035.000000,619022.000000,1992.500000,322.000000,12288.000000,137.000000,304.000000,6082.000000
152,1,6,711591.500000,248807.333333,1383003.333333,74106.500000,9351.166667,690762.166667,3269.493475,1140.544850,39406.074568,583.824959,831.598143,19594.160520
153,0,2,666667.000000,231227.500000,1334427.000000,69271.500000,8531.000000,666745.500000,2455.000000,677.500000,1283.000000,307.500000,122.000000,479.500000
153,1,6,720124.833333,250340.833333,1433952.833333,75368.833333,9772.500000,716475.833333,12710.544827,2801.881952,58294.255021,1849.263675,674.125792,29106.414582
154,0,2,667621.000000,230213.000000,1344129.000000,68822.500000,8471.000000,671358.000000,1290.000000,67.000000,20333.000000,28.500000,112.000000,10226.000000
154,1,6,709960.833333,248140.500000,1369367.666667,73755.333333,9396.166667,684152.833333,3454.050830,539.654442,56789.627641,414.627410,696.898945,28402.063290
155,0,2,669485.000000,231495.000000,1286578.000000,69356.000000,8442.500000,642598.500000,3610.000000,593.000000,46037.000000,276.000000,428.500000,22900.500000
155,1,6,709327.666667,248027.500000,1389306.500000,73746.166667,9424.500000,694082.333333,3766.607743,839.364790,75526.814487,533.860599,669.613259,37610.132773
156,0,2,667303.000000,231043.000000,1350441.000000,69258.000000,8498.000000,674548.500000,1476.000000,1100.000000,17194.000000,478.000000,292.000000,8446.500000
156,1,6,713743.333333,249029.166667,1385407.500000,74380.666667,9581.166667,692162.333333,8983.599940,2030.151671,59763.931279,1327.700602,654.381239,29888.662035
157,0,2,690387.000000,236044.000000,1367128.000000,72824.500000,8789.000000,683035.500000,3651.000000,354.000000,23332.000000,361.500000,103.000000,11552.500000
157,1,6,708646.000000,247923.000000,1403370.833333,73680.500000,9236.666667,701199.166667,1458.519226,999.987167,88548.678852,210.939762,963.166422,44375.073602
158,0,2,665801.500000,230767.000000,1398540.000000,69006.000000,8814.000000,698830.500000,278.500000,736.000000,79660.000000,276.000000,595.000000,39781.500000
158,1,6,710389.500000,248698.500000,1402497.333333,73995.666667,9296.000000,700542.000000,3904.198840,1131.410734,38708.752105,392.349617,599.777181,19342.807733
159,0,2,664709.500000,230150.500000,1239178.000000,68795.500000,8131.000000,618925.500000,1708.500000,650.500000,7740.000000,202.500000,33.000000,3905.500000
159,1,6,707756.166667,247804.166667,1399188.000000,73603.166667,9614.666667,699025.500000,3161.464714,748.535774,58533.188822,478.092884,646.235165,29268.664181
160,0,2,664911.500000,230286.500000,1333708.000000,68850.000000,8388.000000,666216.000000,88.500000,327.500000,11155.000000,149.000000,112.000000,5569.000000
160,1,6,715426.000000,249151.333333,1473827.500000,74645.000000,10198.000000,736296.333333,9713.175897,2295.232499,184290.125498,1732.995480,1395.073355,92048.108207
161,0,2,665323.000000,230356.000000,1253760.500000,68892.000000,8444.500000,626462.500000,1476.000000,346.000000,51832.500000,161.000000,319.500000,25797.500000
161,1,6,712595.833333,249083.666667,1398647.166667,74375.500000,9409.833333,698695.000000,10399.268362,1834.416680,54057.938108,1356.873459,561.992710,27008.089646
162,0,2,677519.500000,233493.000000,1319271.500000,70899.500000,8959.500000,659037.500000,8210.500000,1118.000000,15058.500000,1157.500000,668.500000,7421.500000
162,1,6,706805.333333,247774.166667,1366750.500000,73621.500000,9196.666667,682798.500000,4049.471433,735.724681,79331.819498,464.268152,352.861005,39662.913205
163,0,2,675611.500000,232975.000000,1265493.000000,70659.500000,8271.500000,632287.500000,11544.500000,2963.000000,26790.000000,1853.500000,566.500000,13435.500000
163,1,6,716644.500000,249605.666667,1394029.333333,74814.500000,9318.500000,696460.000000,10847.663477,1870.670884,74992.453382,1499.160737,432.615206,37434.077928
164,0,2,666409.000000,231380.000000,1329995.500000,69302.500000,8133.500000,664255.500000,1855.000000,620.000000,7893.500000,316.500000,53.500000,3692.500000
164,1,6,708674.666667,247865.500000,1372302.666667,73636.500000,8984.500000,685538.666667,2629.669920,637.281400,85621.527631,438.724952,452.604592,42637.990766
165,0,2,664591.500000,230830.500000,1286183.000000,69106.000000,8616.000000,642450.500000,1362.500000,1444.500000,15477.000000,613.000000,233.000000,7885.500000
165,1,6,710034.166667,248262.666667,1408541.666667,74039.333333,9187.000000,703718.166667,7263.319177,1771.366108,94778.998204,1272.639864,468.437118,47359.129825
166,0,2,669782.500000,231877.000000,1274714.500000,69488.000000,8621.000000,636681.500000,2895.500000,760.000000,96440.500000,330.000000,486.000000,48002.500000
166,1,6,713210.166667,248774.500000,1395796.500000,74239.666667,9446.833333,697370.166667,5097.393956,1599.950494,88282.625312,951.695796,370.091167,44145.552518
167,0,2,664761.500000,230203.500000,1246031.000000,68853.500000,8196.500000,622364.000000,88.500000,265.500000,4057.000000,66.500000,430.500000,1917.000000
167,1,6,713778.166667,249375.000000,1392133.000000,74450.833333,9304.833333,695446.166667,7486.456937,1850.933728,47314.094662,1177.590961,420.270316,23756.070546
168,0,2,681570.000000,236362.000000,1327614.500000,70857.000000,8536.000000,663095.500000,17085.000000,6533.000000,23225.500000,2176.000000,30.000000,11714.500000
168,1,6,716370.833333,249499.166667,1437729.666667,74777.666667,9795.666667,718322.333333,10693.516562,2117.514535,61717.638305,1706.296054,753.871931,30885.290618
169,0,2,675578.500000,232957.500000,1243476.500000,70655.500000,8341.000000,621029.000000,10516.500000,2545.500000,8312.500000,1732.500000,691.000000,4192.000000
169,1,6,708414.666667,247834.500000,1426836.833333,73587.666667,9350.000000,712847.666667,3076.197256,692.984548,98134.212806,425.737269,1021.149352,49126.984865
170,0,2,664078.500000,230154.500000,1259376.500000,68817.500000,8255.000000,629298.500000,909.500000,473.500000,9566.500000,158.500000,26.000000,4650.500000
170,1,6,711618.166667,248645.166667,1374055.333333,73957.333333,9065.333333,686459.333333,3608.012907,919.804765,26853.450776,370.054350,375.466229,13485.991048
171,0,2,664360.500000,230362.500000,1263374.000000,68866.000000,8472.500000,631087.500000,172.500000,502.500000,5187.000000,174.000000,111.500000,2627.500000
171,1,6,714350.000000,249061.333333,1425255.333333,74597.833333,9354.166667,712105.666667,6854.283575,1815.612079,32278.237559,1237.333883,606.036417,16162.324840
172,0,2,664156.500000,230370.500000,1228663.000000,68874.000000,7658.500000,613760.500000,2577.500000,662.500000,24901.000000,240.000000,155.500000,12409.500000
172,1,6,713391.500000,248927.333333,1388438.333333,74285.666667,9410.500000,693608.500000,8832.160490,1919.392496,49636.195693,1337.329885,442.941588,24826.077195
173,0,2,662294.500000,230111.000000,1292133.000000,68792.500000,8470.000000,645605.500000,1546.500000,576.000000,51045.000000,234.500000,42.000000,25393.500000
173,1,6,708402.500000,247775.666667,1382122.666667,73596.833333,9152.333333,690508.166667,4426.433807,996.978881,45904.184634,626.073323,442.339488,22975.322293
174,0,2,666001.500000,231847.500000,1288246.500000,69484.500000,8421.500000,643479.000000,1434.500000,167.500000,95613.500000,154.500000,472.500000,47705.000000
174,1,6,709244.500000,248129.166667,1369179.333333,73716.000000,8940.666667,684001.333333,4303.647862,703.282640,56672.299849,527.708884,258.860108,28229.506476
175,0,2,664581.000000,231150.500000,1250710.500000,69224.500000,8183.000000,624659.500000,1939.000000,885.500000,7414.500000,396.500000,235.000000,3927.500000
175,1,6,716184.166667,249553.833333,1409335.166667,74762.333333,9416.166667,704188.000000,9003.455252,1869.184975,85058.265660,1394.297633,641.361421,42546.325732
176,0,2,662382.500000,230623.500000,1342942.000000,68972.000000,8688.000000,670960.000000,1579.500000,705.500000,67245.000000,268.000000,134.000000,33661.000000
176,1,6,709072.166667,248360.666667,1448661.333333,73836.000000,9557.833333,723615.500000,2682.553349,677.481283,100821.549250,345.764853,526.452092,50366.592869
177,0,2,666343.500000,231087.500000,1305637.500000,69150.500000,8418.000000,652245.500000,3777.500000,69.500000,46814.500000,66.500000,179.000000,23311.500000
177,1,6,711098.833333,248575.000000,1394229.000000,74139.000000,8885.500000,696563.166667,7319.992109,1720.372731,57811.552822,989.065215,693.581947,28867.795086
178,0,2,668922.500000,232852.000000,1340369.000000,69937.000000,8910.500000,669157.000000,1440.500000,372.000000,10158.000000,141.000000,231.500000,5035.000000
178,1,6,708806.166667,247949.166667,1354981.833333,73651.833333,8883.666667,676893.500000,4276.431434,757.549430,37849.598234,535.822861,384.855673,18872.623928
179,0,2,667682.000000,230468.500000,1307225.500000,68936.500000,8367.000000,653133.500000,3649.000000,563.500000,16973.500000,202.500000,245.000000,8473.500000
179,1,6,712387.166667,249026.500000,1392422.833333,74344.000000,9209.666667,695623.500000,9961.327462,2045.774894,91152.689910,1472.942859,350.374403,45537.721286
180,0,2,665211.500000,229765.000000,1383897.000000,68652.000000,8891.000000,691522.000000,2508.500000,336.000000,73638.000000,123.000000,198.000000,36793.000000
180,1,6,715450.500000,249335.166667,1377569.833333,74658.000000,9328.666667,688315.000000,7839.175972,1960.301458,74647.274550,1328.159378,513.275971,37349.623323
181,0,2,666650.000000,230585.000000,1343292.000000,68978.500000,8830.500000,671161.500000,1385.000000,122.000000,15228.000000,12.500000,60.500000,7572.500000
181,1,6,708190.000000,248190.666667,1386909.166667,73760.500000,8956.666667,692882.333333,3439.831004,745.341011,67182.130222,418.001096,353.342924,33647.002371
182,0,2,667758.500000,231504.000000,1364706.000000,69379.500000,8009.000000,681430.500000,4163.500000,1125.000000,76857.000000,469.500000,409.000000,38282.500000
182,1,6,712439.333333,249214.666667,1368929.833333,74400.833333,9035.666667,683865.500000,8761.674415,1605.409778,59089.269715,1215.995260,545.432754,29422.330073
183,0,2,678251.000000,233558.500000,1338118.500000,71085.000000,8471.500000,668508.500000,16250.000000,3446.500000,33088.500000,2296.000000,502.500000,16517.500000
183,1,6,711649.833333,248945.833333,1378382.500000,74312.000000,9196.666667,688564.833333,7375.253180,1570.910184,51144.426320,1194.020519,607.664564,25529.967629
184,0,2,665040.000000,230572.500000,1312959.500000,68955.000000,8180.500000,655807.000000,1106.000000,174.500000,29298.500000,87.000000,312.500000,14657.000000
184,1,6,715902.500000,250113.166667,1391350.833333,74577.333333,8883.166667,695164.666667,12269.275118,3370.748355,53644.996702,1490.062601,391.095648,26843.493940
185,0,2,666247.000000,231015.000000,1284662.500000,69215.500000,8379.000000,641593.000000,552.000000,143.000000,66033.500000,108.500000,128.000000,32938.000000
185,1,6,707924.500000,248237.333333,1358463.833333,73806.333333,8815.000000,678649.833333,4920.676977,1373.064051,61311.954181,790.804583,287.001161,30608.688829
186,0,2,666676.500000,230930.500000,1311638.000000,69152.000000,8422.500000,655316.000000,4291.500000,826.500000,29407.000000,372.000000,338.500000,14816.000000
186,1,6,708047.000000,248183.833333,1371001.666667,73731.166667,9380.500000,684796.000000,1949.775115,770.893727,55835.649743,341.598896,662.597351,27922.013197
187,0,2,665132.500000,230823.000000,1334652.500000,69046.000000,8223.000000,666761.500000,4108.500000,690.000000,418.500000,195.000000,303.000000,296.500000
187,1,6,714208.000000,249713.500000,1420907.666667,74638.833333,9701.833333,709696.000000,6071.522901,1212.543848,88732.806794,757.882448,921.825258,44259.626045
188,0,2,667577.000000,231184.000000,1273159.500000,69182.000000,8248.000000,636080.000000,1267.000000,188.000000,55275.500000,75.000000,123.000000,27537.000000
188,1,6,716424.000000,249952.000000,1471379.333333,74954.333333,9509.500000,735059.833333,10878.327139,1929.523862,74699.381139,1564.388770,761.136595,37357.753686
189,0,2,664027.000000,229982.500000,1233877.500000,68700.500000,7939.000000,616248.000000,1749.000000,671.500000,27710.500000,210.500000,274.000000,13751.000000
189,1,6,711793.333333,249051.833333,1376680.000000,74364.166667,9229.833333,687668.333333,7559.643326,1462.225292,59321.545566,1138.355161,340.510116,29661.154774
190,0,2,675241.000000,232677.500000,1355478.000000,70520.500000,8529.000000,677352.000000,12831.000000,2354.500000,73179.000000,1704.500000,971.000000,36543.000000
190,1,6,716332.500000,250631.333333,1399619.000000,74805.833333,9496.333333,699279.333333,12428.245274,3807.658452,66168.960687,1700.516923,873.574394,33048.524060
191,0,2,666288.500000,231376.500000,1320527.500000,69343.000000,8151.000000,659370.500000,284.500000,520.500000,59576.500000,267.000000,432.000000,29787.500000
191,1,6,711776.333333,248639.000000,1374135.000000,73911.333333,9346.833333,686467.833333,6513.789569,1109.170711,58608.872773,621.251872,458.792770,29212.858712
192,0,2,674154.500000,233018.500000,1329644.000000,70651.500000,8682.000000,664304.500000,10537.500000,2427.500000,48123.000000,1661.500000,153.000000,24177.500000
192,1,6,717143.000000,249380.666667,1425359.000000,74696.666667,9407.166667,712231.000000,11756.908168,2414.288761,72355.637258,1548.176418,436.133931,36131.000983
193,0,2,663991.000000,230371.500000,1287245.500000,68830.000000,8262.000000,642923.000000,2985.000000,66.500000,49465.500000,3.000000,176.000000,24691.000000
193,1,6,712355.166667,248824.000000,1392522.500000,74227.333333,9219.500000,695778.833333,9877.972674,1832.071869,72797.846694,1333.684954,483.862498,36371.234208
194,0,2,675953.500000,232879.500000,1255649.500000,70594.000000,8394.000000,627331.000000,11405.500000,2264.500000,710.500000,1703.000000,29.000000,258.000000
194,1,6,712031.833333,248585.500000,1370354.666667,74123.500000,9396.833333,684627.166667,5631.542341,1512.705826,44946.442884,1058.513384,640.676054,22497.993899
195,0,2,663143.000000,230233.000000,1323254.000000,68846.500000,8682.000000,661140.500000,3055.000000,589.000000,39549.000000,207.500000,33.000000,19862.500000
195,1,6,712592.333333,249148.833333,1422129.666667,74319.000000,9446.166667,710554.166667,9208.608557,2131.991512,57037.040084,1420.425288,519.741095,28492.621281
196,0,2,667543.500000,231837.000000,1351875.500000,69446.000000,8869.500000,675101.500000,1285.500000,775.000000,63038.500000,359.000000,327.500000,31142.500000
196,1,6,709929.333333,248222.000000,1403505.166667,73767.833333,9273.166667,701270.500000,2530.403240,792.804516,53993.784069,238.297725,463.216082,26741.798629
197,0,2,665256.500000,231569.000000,1255588.000000,69233.000000,7808.000000,627245.000000,4386.500000,1078.000000,27665.000000,433.000000,104.000000,13877.000000
197,1,6,712528.666667,248627.500000,1377294.166667,74126.000000,9281.500000,688121.333333,4797.644932,1662.983639,76484.581502,987.968960,514.541463,38283.762814
198,0,2,662465.500000,231009.000000,1274872.000000,69112.000000,8317.500000,636747.500000,733.500000,890.000000,75386.000000,300.000000,214.500000,37478.500000
198,1,6,709495.666667,248170.833333,1385987.166667,73699.000000,9150.833333,692368.666667,3932.157451,956.029012,50725.036821,530.558511,617.198082,25231.454705
199,0,2,678817.000000,232914.500000,1303208.000000,70549.500000,9516.500000,651065.500000,10571.000000,2980.500000,27792.000000,1935.500000,666.500000,14009.500000
199,1,6,718247.000000,250339.666667,1409567.833333,75063.166667,9465.833333,704122.166667,12739.767606,2228.041417,42821.449666,1663.893969,633.762683,21604.652735
200,0,2,676318.000000,232537.500000,1328566.000000,70506.500000,8888.500000,663700.500000,10324.000000,1659.500000,68951.000000,1469.500000,716.500000,34524.500000
200,1,6,712319.333333,248322.333333,1385914.833333,74015.333333,9460.166667,692511.500000,9427.383530,1895.855890,55260.106392,1295.976937,848.256922,27701.012814
201,0,2,670198.000000,232233.500000,1327561.500000,69680.500000,8717.500000,663004.500000,2330.000000,111.500000,52445.500000,2.500000,150.500000,26283.500000
201,1,6,710722.333333,248577.333333,1391626.000000,73906.500000,9486.833333,695140.166667,2682.920155,1208.343310,62584.571741,504.324218,522.060474,31263.756852
202,0,2,663368.000000,229917.000000,1240612.000000,68650.000000,8251.000000,619860.000000,972.000000,514.000000,43787.000000,197.000000,213.000000,22090.000000
202,1,6,708960.000000,247901.000000,1354499.833333,73647.166667,9352.000000,676693.166667,5721.224636,873.362468,66247.011951,552.536701,991.978998,33185.409964
203,0,2,668117.000000,230790.500000,1309703.500000,68993.500000,8655.500000,654262.500000,3074.000000,754.500000,61847.500000,231.500000,177.500000,30798.500000
203,1,6,709976.666667,248465.833333,1420857.666667,73823.333333,9337.500000,709875.333333,3360.381906,823.600716,135243.861823,355.996099,780.758979,67715.430978
204,0,2,666066.500000,230223.000000,1239147.000000,68867.000000,8190.500000,619044.500000,2764.500000,794.000000,43866.000000,338.000000,128.500000,21923.500000
204,1,6,712007.166667,248594.500000,1422603.833333,74130.666667,9483.000000,710863.500000,10926.630640,2256.011211,88826.227261,1593.967970,1007.806529,44449.741757
205,0,2,668515.500000,231582.000000,1368252.500000,69412.000000,8728.000000,683546.000000,2519.500000,1156.000000,29514.500000,454.000000,357.000000,14564.000000
205,1,6,713733.166667,249391.000000,1431990.666667,74487.166667,9581.833333,715354.833333,9708.145299,1657.590420,110798.029977,1335.335216,975.239187,55327.749775
206,0,2,677039.500000,233078.000000,1377103.000000,70675.500000,8653.500000,688018.000000,9155.500000,1625.000000,21536.000000,1316.500000,853.500000,10785.000000
206,1,6,710762.833333,248409.833333,1393616.500000,73852.500000,9239.333333,696227.833333,5372.878106,717.961331,67691.856853,491.069157,482.134721,33938.527543
207,0,2,666126.500000,229936.000000,1315407.000000,68694.000000,8755.000000,657117.000000,143.500000,450.000000,50950.000000,318.000000,145.000000,25561.000000
207,1,6,710215.333333,248465.000000,1436105.500000,73886.333333,9356.666667,717444.500000,4376.334260,754.217254,53695.497762,487.286249,539.585541,26793.359020
208,0,2,665156.500000,230140.000000,1286238.500000,68772.000000,8207.500000,642644.500000,456.500000,282.000000,41429.500000,174.000000,187.500000,20708.500000
208,1,6,716498.833333,249918.166667,1390189.000000,74917.500000,9319.833333,694452.666667,12026.774095,2307.516444,94386.791936,1668.804637,727.691193,47252.304320
209,0,2,675296.500000,232639.000000,1304851.000000,70524.000000,8479.000000,651907.500000,12643.500000,2463.000000,92596.000000,1600.000000,731.000000,46244.500000
209,1,6,711322.833333,248719.000000,1409680.000000,74180.333333,9753.333333,704338.666667,5737.603548,1755.260759,74437.475306,1015.717098,596.315539,37215.980486
210,0,2,666543.000000,231187.000000,1284413.500000,69230.500000,8368.000000,641697.500000,1143.000000,840.000000,61577.500000,444.500000,391.000000,30597.500000
210,1,6,711120.000000,249178.000000,1382744.000000,74113.166667,9223.500000,690668.833333,4432.159519,1006.785810,49260.187671,366.089887,1063.090267,24560.932586
211,0,2,666900.500000,230457.500000,1293713.500000,68902.000000,8759.000000,646199.500000,710.500000,353.500000,14870.500000,242.000000,281.000000,7474.500000
211,1,6,712086.000000,248719.500000,1398351.333333,74021.666667,9132.500000,698474.000000,4812.675936,874.304057,54822.684236,468.995973,821.954125,27496.627308
212,0,2,664818.000000,230069.500000,1289342.000000,68758.000000,8490.500000,644291.000000,339.000000,336.500000,11270.000000,190.000000,443.500000,5645.000000
212,1,6,710738.666667,248373.166667,1394328.333333,73897.500000,9228.666667,696584.500000,4447.359654,890.164108,40161.464534,322.640538,568.919053,20136.444413
213,0,2,686115.500000,234943.000000,1339507.500000,72207.500000,9193.500000,669197.000000,2993.500000,321.000000,50253.500000,1.500000,209.500000,25170.000000
213,1,6,716760.333333,249595.166667,1404067.333333,74863.666667,9465.666667,701544.000000,13111.923437,2152.773050,93479.388113,1543.128928,674.562492,46700.764137
214,0,2,665665.500000,230615.000000,1295283.000000,68974.000000,8218.000000,647160.000000,0.500000,239.000000,22102.000000,174.000000,169.000000,11043.000000
214,1,6,712942.333333,248796.833333,1350540.833333,74295.333333,8947.500000,674722.500000,6413.550594,1810.142482,34665.058942,1274.759019,532.279297,17378.116764
215,0,2,664286.500000,230411.500000,1349599.500000,68820.000000,8455.500000,674192.000000,1622.500000,666.500000,9426.500000,352.000000,328.500000,4723.000000
215,1,6,713991.500000,249129.666667,1360811.333333,74478.333333,9400.833333,679753.666667,8907.668658,1672.263204,44113.741758,1172.658897,516.849242,22066.226846
216,0,2,663025.000000,230306.500000,1360608.500000,68956.500000,9075.500000,679650.500000,2119.000000,453.500000,27599.500000,165.500000,195.500000,13934.500000
216,1,6,709335.333333,248043.166667,1376759.833333,73780.000000,9402.500000,687835.666667,5308.200281,1292.782969,74445.852883,562.716921,702.168012,37150.390611
217,0,2,675474.000000,232339.000000,1353420.500000,70408.500000,9006.000000,675947.000000,10756.000000,2813.000000,72687.500000,1908.500000,37.000000,36201.000000
217,1,6,709679.833333,248363.000000,1364425.166667,73951.500000,9121.833333,681564.666667,3589.304734,937.969083,87074.718932,610.164664,735.737366,43697.692310
218,0,2,676164.000000,232683.000000,1348594.000000,70582.500000,9013.000000,673806.000000,11672.000000,2018.000000,36081.000000,1532.500000,947.000000,18162.000000
218,1,6,715493.500000,249334.833333,1415607.000000,74535.666667,9644.666667,707190.833333,9007.360264,1994.238904,68640.581677,1377.735541,830.564199,34387.641033
219,0,2,666623.500000,230667.000000,1260225.500000,69046.500000,8508.500000,629691.000000,2501.500000,185.000000,30398.500000,3.500000,432.500000,15183.000000
219,1,6,711187.833333,248438.666667,1441585.500000,73914.500000,9051.333333,720224.666667,2062.415769,645.223648,67139.709985,402.506625,848.761778,33501.332116
220,0,2,664360.500000,230432.500000,1370187.500000,68929.500000,8863.000000,684515.500000,1575.500000,57.500000,21181.500000,44.500000,313.000000,10644.500000
220,1,6,713547.833333,248913.500000,1361947.666667,74372.000000,9283.166667,680385.333333,8688.784733,1682.164652,39602.171118,1323.022802,715.561415,19789.142871
221,0,2,668488.000000,231501.000000,1341834.000000,69407.500000,8864.000000,670272.000000,3598.000000,749.000000,33088.000000,313.500000,566.000000,16424.000000
221,1,6,713494.333333,249044.833333,1374872.666667,74393.666667,9539.833333,686786.666667,7126.141515,1525.082885,81005.424733,1295.080907,999.204753,40531.004826
222,0,2,664129.000000,230445.500000,1272027.000000,68951.000000,7873.500000,635491.000000,1303.000000,391.500000,70634.000000,212.000000,314.500000,35327.000000
222,1,6,709804.833333,247775.833333,1394212.000000,73620.666667,9110.166667,696621.833333,2569.695469,568.069073,28519.511958,312.065520,427.674493,14237.934230
223,0,2,663959.500000,230572.000000,1282926.000000,69003.500000,7952.000000,640944.000000,2740.500000,349.000000,48542.000000,56.500000,57.000000,24375.000000
223,1,6,711552.333333,248933.166667,1394720.166667,74117.500000,9365.500000,696669.000000,3601.345011,1299.389397,34230.353516,527.944678,415.982271,17125.312863
224,0,2,663560.500000,229949.000000,1259404.000000,68791.000000,8344.000000,629056.000000,67.500000,526.000000,66239.000000,251.000000,561.000000,33041.000000
224,1,6,717879.500000,249965.666667,1450921.000000,74985.166667,9625.500000,724599.333333,9134.265155,2270.876238,128351.462306,1434.849866,424.077725,63638.754596
225,0,2,673967.000000,232564.500000,1277433.500000,70537.500000,9333.000000,638225.000000,8748.000000,2105.500000,7352.500000,1637.500000,324.000000,3709.000000
225,1,6,713753.833333,248994.500000,1399663.333333,74362.000000,8993.166667,699165.000000,8337.149161,1529.527024,78647.758660,1059.426889,631.310124,39259.338626
226,0,2,665455.500000,231384.000000,1302703.000000,69387.000000,9206.000000,650524.500000,3600.500000,709.000000,22644.000000,279.000000,199.000000,11545.500000
226,1,6,711121.500000,249001.666667,1363432.666667,74210.000000,9163.833333,680962.000000,2837.999574,1065.412388,73986.727530,593.752754,731.399894,36841.877404
227,0,2,672066.000000,232473.000000,1313463.000000,70520.500000,8952.500000,656273.000000,12143.000000,2161.000000,10899.000000,1564.500000,124.500000,5545.000000
227,1,6,714527.333333,249013.666667,1374397.833333,74376.833333,9306.833333,686618.500000,7561.757593,1469.206778,77369.557892,1269.890076,711.909502,38580.463466
228,0,2,668339.500000,231131.500000,1321171.000000,69266.500000,8651.000000,659816.000000,298.500000,211.500000,87290.000000,68.500000,414.000000,43578.000000
228,1,6,713448.333333,248721.833333,1334610.833333,74281.833333,9205.500000,666791.666667,11255.809369,2404.516266,53331.407889,1572.671338,450.215782,26699.264289
229,0,2,665133.000000,229856.000000,1335361.500000,68810.000000,8470.500000,667151.500000,1055.000000,390.000000,19591.500000,118.000000,441.500000,9722.500000
229,1,6,710891.500000,248433.000000,1400840.333333,73904.166667,9033.000000,699807.166667,3997.765240,1115.715615,48520.259668,367.682570,228.514040,24320.512765
230,0,2,665818.000000,230469.500000,1292036.500000,68973.000000,8137.000000,645638.000000,228.000000,114.500000,4133.500000,97.000000,250.000000,2051.000000
230,1,6,716721.333333,249711.166667,1374306.833333,74908.000000,9309.166667,686538.333333,11705.545490,2230.851289,65593.296312,1399.845825,301.825787,32763.639387
231,0,2,666731.000000,230758.500000,1270646.500000,69035.000000,7893.000000,634672.500000,542.000000,106.500000,3698.500000,119.000000,263.000000,1912.500000
231,1,6,711172.333333,248737.166667,1353370.500000,74011.166667,8993.333333,676066.333333,2243.513960,389.535371,71623.716621,325.183751,587.248859,35654.482592
232,0,2,685617.500000,236526.000000,1408419.500000,71643.500000,9285.000000,703346.000000,15192.500000,4118.000000,16448.500000,1731.500000,440.000000,8444.000000
232,1,6,717146.166667,250914.166667,1396407.000000,74545.666667,9026.333333,697624.500000,15306.130508,5599.988346,59947.064807,1422.307124,545.719301,29984.273616
233,0,2,683251.000000,236813.500000,1341516.000000,70558.000000,8894.000000,670246.500000,17306.000000,6252.500000,27227.000000,1477.000000,457.000000,13723.500000
233,1,6,721816.000000,252189.333333,1392005.000000,75290.166667,9291.833333,695428.333333,19096.618304,7106.128849,91564.680401,2119.907814,897.915626,45713.650017
234,0,2,693421.000000,239816.000000,1404919.000000,71437.000000,8442.000000,702064.000000,27729.000000,9172.000000,94900.000000,2365.000000,12.000000,47303.000000
234,1,6,728640.500000,253298.000000,1431467.166667,76185.000000,9676.666667,715192.166667,17720.788026,6232.067501,144381.735666,1867.969307,564.803997,72196.905902
235,0,2,691007.500000,239409.500000,1307605.000000,71471.000000,8656.500000,653241.500000,24264.500000,7889.500000,8623.000000,1913.000000,83.500000,4254.500000
235,1,6,718980.333333,251511.166667,1381624.833333,74775.833333,9231.000000,690083.333333,18813.652123,6974.010406,74887.383636,1898.007062,717.689116,37379.890684
236,0,2,706969.000000,244208.000000,1397778.500000,72755.500000,8348.500000,698385.000000,41204.000000,14385.000000,27.500000,3953.500000,278.500000,2.000000
236,1,6,719965.166667,251644.000000,1394681.666667,74798.166667,9097.500000,696725.000000,17623.444474,6840.258596,49134.795779,1796.376484,228.900087,24478.220667
237,0,2,702643.000000,242349.500000,1435004.000000,73215.000000,8731.500000,716940.000000,36090.000000,11565.500000,20896.000000,4079.000000,769.500000,10495.000000
237,1,6,721983.166667,252055.500000,1371913.333333,75189.500000,9051.500000,685464.333333,17007.018545,6452.625325,41254.797481,1887.925206,557.473094,20636.652504
238,0,2,693112.500000,240208.000000,1304931.500000,71606.000000,8525.500000,652138.500000,26049.500000,8863.000000,30539.500000,2338.000000,46.500000,15309.500000
238,1,6,724472.500000,252664.833333,1369614.500000,75483.833333,9228.333333,684194.833333,19461.901053,6140.368784,43105.406771,1673.115001,499.752828,21575.177106
239,0,2,700010.000000,241330.500000,1360557.500000,72834.500000,8804.000000,679967.000000,16346.000000,6867.500000,68496.500000,748.500000,74.000000,34164.000000
239,1,6,724829.500000,252924.833333,1378900.833333,75613.166667,9437.000000,688754.000000,21294.466431,7059.414740,78247.456023,2070.546741,809.273337,39063.511410
240,0,2,693056.000000,240252.000000,1459399.000000,71696.500000,8950.500000,728998.000000,25100.000000,8283.000000,123371.000000,2020.500000,184.500000,61676.000000
240,1,6,721747.500000,252016.500000,1405952.000000,75210.333333,9214.166667,702416.000000,28990.469473,8711.428562,75863.772872,3061.004283,1200.985348,37825.269534
241,0,2,694812.500000,240451.500000,1354998.500000,71760.000000,9406.500000,676945.500000,30906.500000,9401.500000,13314.500000,2566.000000,1262.500000,6393.500000
241,1,6,718241.666667,251298.000000,1382232.833333,74650.666667,9034.333333,690612.166667,20907.606173,6980.218096,43476.546729,1849.405009,829.406347,21753.545331
242,0,2,700657.000000,241464.500000,1349781.000000,72940.000000,8592.500000,674416.000000,17653.000000,6656.500000,105633.000000,660.000000,376.500000,52857.000000
242,1,6,717775.000000,251379.166667,1403731.000000,74763.833333,9269.666667,701222.500000,19248.133269,6381.636426,50414.731052,1600.155348,423.372439,25162.445130
243,0,2,690839.500000,239398.000000,1361767.500000,71339.000000,8544.500000,680420.000000,26337.500000,8304.000000,59279.500000,2111.000000,144.500000,29580.000000
243,1,6,718759.166667,251874.833333,1408036.666667,74941.500000,9006.000000,703520.000000,21439.614770,7436.725610,111285.433727,2100.189019,648.207271,55502.558974
244,0,2,704047.000000,242492.000000,1401934.500000,73354.000000,9523.500000,700347.000000,38062.000000,10824.000000,72446.500000,3749.000000,939.500000,36351.000000
244,1,6,719700.333333,251399.666667,1397161.833333,74720.833333,9462.833333,698014.500000,19870.754126,6753.760845,34451.673812,1774.237622,511.137430,17335.665094
245,0,2,690819.500000,239343.500000,1379923.500000,71303.000000,8299.000000,689503.500000,29656.500000,9364.500000,43656.500000,2524.000000,609.000000,21770.500000
245,1,6,721303.333333,251984.666667,1396485.333333,75061.666667,9226.333333,697499.000000,17755.752163,6180.640573,64839.058686,1490.713438,441.738485,32609.163666
246,0,2,701154.500000,241435.000000,1356256.500000,72898.000000,9012.500000,677524.500000,37663.500000,11213.000000,96798.500000,3987.000000,167.500000,48505.500000
246,1,6,724201.333333,253193.333333,1437596.166667,75290.833333,9118.000000,718199.833333,20609.324723,7417.929870,70203.787781,2068.051451,414.316304,35064.404113
247,0,2,689615.500000,239739.000000,1368096.500000,71464.500000,8059.500000,683562.500000,27595.500000,9224.000000,505.500000,2403.500000,219.500000,313.500000
247,1,6,718337.166667,251460.500000,1401646.333333,74779.500000,9067.833333,700187.000000,18653.864554,6383.114463,43248.827120,1643.593700,165.389859,21652.079261
248,0,2,690877.500000,239587.500000,1335249.000000,71366.500000,8242.500000,667225.000000,29631.500000,8948.500000,16558.000000,2392.500000,460.500000,8326.000000
248,1,6,718027.833333,251178.166667,1378211.166667,74605.166667,8844.000000,688575.833333,18101.912058,6346.556952,56785.581006,1632.079391,184.051623,28450.498662
249,0,2,690420.000000,239655.500000,1349832.000000,71447.500000,8520.000000,674174.500000,29612.000000,8981.500000,46761.000000,2337.500000,12.000000,23641.500000
249,1,6,722672.666667,252505.333333,1376424.500000,75431.166667,9147.166667,687580.666667,18329.025130,6471.019643,66224.028796,1869.858588,563.659891,33090.392380
250,0,2,692970.500000,240094.500000,1373141.000000,71639.000000,8630.500000,685856.000000,25232.500000,8276.500000,43744.000000,2002.000000,377.500000,22151.000000
250,1,6,722963.333333,252315.500000,1406946.500000,75303.500000,9152.333333,702871.166667,20990.792058,7249.949764,44360.987488,2160.957407,659.791044,22138.244084
251,0,2,690749.000000,238938.500000,1312439.500000,71184.000000,8203.500000,655721.000000,26429.000000,9088.500000,21114.500000,2353.000000,450.500000,10500.000000
251,1,6,722257.000000,252331.333333,1394358.666667,75291.666667,8992.833333,696595.166667,18708.030254,6057.859706,51223.920801,1661.081141,255.998969,25563.701293
252,0,2,713324.500000,244365.500000,1366136.000000,74783.500000,9358.500000,682584.500000,28746.500000,9309.500000,53991.000000,2454.500000,402.500000,27058.500000
252,1,6,719158.000000,251855.166667,1394359.166667,74902.833333,8884.333333,696518.166667,21353.188458,7455.552795,61391.634067,2073.346041,408.556674,30731.457702
253,0,2,692791.000000,240121.500000,1364520.000000,71698.000000,8182.000000,681525.500000,24880.000000,8269.500000,97933.000000,2023.000000,1201.000000,48844.500000
253,1,6,717749.666667,251532.833333,1350121.500000,74748.333333,8928.000000,674493.166667,18197.055381,6206.443894,59446.427520,1604.328693,317.979559,29673.401099
254,0,2,692674.500000,239450.000000,1279505.500000,71350.500000,8282.500000,639329.000000,27078.500000,8703.000000,21884.500000,2274.500000,188.500000,10941.000000
254,1,6,723487.500000,252204.166667,1437646.333333,75235.666667,9599.333333,718303.333333,18899.710683,6436.377486,69268.433036,1779.514228,497.854620,34591.515649
255,0,2,705107.000000,243208.000000,1308759.000000,73618.500000,9330.000000,653682.000000,19715.000000,7872.000000,23282.000000,1196.500000,183.000000,11606.000000
255,1,6,721412.500000,251756.166667,1391681.333333,75101.000000,9027.666667,695280.500000,18275.883679,6554.865099,20389.753739,1930.049222,454.814492,10227.802334
