0,0,9,649723.444444,222081.222222,1220541.333333,67190.000000,7630.000000,610306.000000,18568.503626,6033.517120,77380.627415,1891.864865,475.573338,38775.948112
0,1,0,-nan,-nan,-nan,-nan,-nan,-nan,-nan,-nan,-nan,-nan,-nan,-nan
1,0,8,641959.750000,219035.250000,1204350.750000,66171.000000,7400.625000,602191.750000,7547.527853,1784.007760,71969.094620,1097.809865,752.677543,36021.421817
1,1,0,-nan,-nan,-nan,-nan,-nan,-nan,-nan,-nan,-nan,-nan,-nan,-nan
2,0,8,640037.000000,218709.875000,1204594.500000,65903.375000,7386.625000,602199.375000,3859.398787,965.333419,65397.346177,357.931885,904.087377,32668.295789
2,1,0,-nan,-nan,-nan,-nan,-nan,-nan,-nan,-nan,-nan,-nan,-nan,-nan
3,0,8,640422.625000,218918.750000,1185329.375000,65958.375000,7595.750000,592699.375000,3782.702934,593.595769,49528.969952,372.773704,708.886936,24806.309051
3,1,0,-nan,-nan,-nan,-nan,-nan,-nan,-nan,-nan,-nan,-nan,-nan,-nan
4,0,8,643266.500000,219711.500000,1222386.750000,66499.625000,7757.125000,611190.250000,9035.574664,2076.116206,54467.019211,1278.383446,788.198966,27273.887914
4,1,0,-nan,-nan,-nan,-nan,-nan,-nan,-nan,-nan,-nan,-nan,-nan,-nan
5,0,8,641511.875000,219362.875000,1205075.750000,66305.250000,7354.500000,602550.875000,7017.112697,1839.076224,50228.596655,1151.027774,779.978365,25171.067575
5,1,0,-nan,-nan,-nan,-nan,-nan,-nan,-nan,-nan,-nan,-nan,-nan,-nan
6,0,8,641863.625000,219278.250000,1234371.000000,66307.375000,7459.500000,617184.500000,7801.115849,1595.726461,52365.600125,1066.651763,706.410645,26215.796326
6,1,0,-nan,-nan,-nan,-nan,-nan,-nan,-nan,-nan,-nan,-nan,-nan,-nan
7,0,8,641184.750000,218970.000000,1206164.875000,66114.000000,7537.625000,603115.625000,6117.992067,1542.085925,56279.635852,1279.449198,490.023963,28139.504855
7,1,0,-nan,-nan,-nan,-nan,-nan,-nan,-nan,-nan,-nan,-nan,-nan,-nan
8,0,8,638910.625000,218437.375000,1239237.625000,65773.750000,7573.875000,619618.125000,2860.263490,619.547605,88231.107951,295.720201,514.040961,44148.141355
8,1,0,-nan,-nan,-nan,-nan,-nan,-nan,-nan,-nan,-nan,-nan,-nan,-nan
9,0,8,640189.625000,218940.375000,1269598.750000,66011.000000,7826.250000,634784.375000,2611.611664,1047.347714,71301.043546,578.077417,625.037549,35603.344973
9,1,0,-nan,-nan,-nan,-nan,-nan,-nan,-nan,-nan,-nan,-nan,-nan,-nan
10,0,8,643767.250000,219796.500000,1265785.250000,66540.125000,8042.875000,632878.500000,7966.184968,1439.318241,105749.736697,1068.590127,1010.334652,52871.675186
10,1,0,-nan,-nan,-nan,-nan,-nan,-nan,-nan,-nan,-nan,-nan,-nan,-nan
11,0,8,643249.000000,219718.250000,1227099.750000,66478.500000,7681.875000,613488.000000,7397.194570,1632.898631,97286.792699,979.885580,975.690837,48612.723764
11,1,0,-nan,-nan,-nan,-nan,-nan,-nan,-nan,-nan,-nan,-nan,-nan,-nan
12,0,8,639212.875000,218928.000000,1209363.750000,65921.500000,7266.875000,604632.250000,3428.189079,979.316854,51510.433746,331.828269,755.346516,25690.198169
12,1,0,-nan,-nan,-nan,-nan,-nan,-nan,-nan,-nan,-nan,-nan,-nan,-nan
13,0,8,642557.125000,219599.875000,1310351.875000,66254.250000,8022.875000,655208.875000,5246.576632,865.062344,140110.372003,576.023817,992.773317,70068.604299
13,1,0,-nan,-nan,-nan,-nan,-nan,-nan,-nan,-nan,-nan,-nan,-nan,-nan
14,0,8,642926.000000,219002.750000,1288684.750000,66184.875000,7987.750000,644231.875000,9220.465972,1450.755730,101651.151852,1214.140791,755.374369,50734.300388
14,1,0,-nan,-nan,-nan,-nan,-nan,-nan,-nan,-nan,-nan,-nan,-nan,-nan
15,0,8,641839.625000,219043.000000,1184051.250000,66063.750000,7433.875000,591971.625000,4173.086685,1267.689631,49559.544090,643.938419,546.229219,24660.430328
15,1,0,-nan,-nan,-nan,-nan,-nan,-nan,-nan,-nan,-nan,-nan,-nan,-nan
16,0,8,655180.750000,222458.500000,1250342.875000,68041.125000,8065.125000,625110.500000,16297.655082,4479.402443,57766.301722,2029.605715,848.124466,28886.819663
16,1,0,-nan,-nan,-nan,-nan,-nan,-nan,-nan,-nan,-nan,-nan,-nan,-nan
17,0,8,645609.750000,220028.250000,1270485.250000,66755.750000,7884.375000,635214.500000,7145.219936,1626.709927,64474.596623,1276.583894,428.891868,32254.049095
17,1,0,-nan,-nan,-nan,-nan,-nan,-nan,-nan,-nan,-nan,-nan,-nan,-nan
18,0,8,639210.000000,218532.250000,1212267.500000,65834.000000,7625.000000,606152.875000,2879.883114,900.133150,51333.803519,383.740472,381.156464,25626.134899
18,1,0,-nan,-nan,-nan,-nan,-nan,-nan,-nan,-nan,-nan,-nan,-nan,-nan
19,0,8,640725.375000,218930.250000,1203828.625000,66014.875000,7700.250000,601971.125000,3794.317031,721.434985,51737.461522,243.918756,467.326104,25936.922998
19,1,0,-nan,-nan,-nan,-nan,-nan,-nan,-nan,-nan,-nan,-nan,-nan,-nan
20,0,8,640290.000000,218889.750000,1224485.875000,65974.250000,7816.250000,612206.750000,4039.669665,836.706154,62103.344615,389.955045,571.971317,31001.425994
20,1,0,-nan,-nan,-nan,-nan,-nan,-nan,-nan,-nan,-nan,-nan,-nan,-nan
21,0,8,640277.000000,219037.125000,1293907.000000,66048.375000,8169.375000,646894.125000,2709.293681,687.587892,88633.204248,386.811950,424.018849,44286.700979
21,1,0,-nan,-nan,-nan,-nan,-nan,-nan,-nan,-nan,-nan,-nan,-nan,-nan
22,0,8,641101.750000,219043.500000,1263464.375000,66217.875000,8099.625000,631759.000000,7278.190705,1738.269110,40908.751521,1216.922084,379.387644,20443.977065
22,1,0,-nan,-nan,-nan,-nan,-nan,-nan,-nan,-nan,-nan,-nan,-nan,-nan
23,0,8,640491.875000,219342.125000,1300614.000000,66167.000000,8328.125000,650231.500000,4733.249424,639.348191,77364.211279,427.886083,535.705245,38660.757048
23,1,0,-nan,-nan,-nan,-nan,-nan,-nan,-nan,-nan,-nan,-nan,-nan,-nan
24,0,8,639748.125000,218669.375000,1228233.000000,65960.250000,7848.875000,613965.125000,3161.418568,1274.185910,89361.300753,449.370602,720.975457,44468.673995
24,1,0,-nan,-nan,-nan,-nan,-nan,-nan,-nan,-nan,-nan,-nan,-nan,-nan
25,0,8,639338.375000,218599.125000,1245677.750000,65852.375000,8095.625000,622777.625000,3292.198807,755.305640,58040.279061,304.484785,919.020394,28859.951031
25,1,0,-nan,-nan,-nan,-nan,-nan,-nan,-nan,-nan,-nan,-nan,-nan,-nan
26,0,8,643139.125000,219720.875000,1230599.000000,66522.375000,7779.125000,615261.875000,8238.324487,1843.832452,95801.694841,1213.943773,789.529043,47925.570827
26,1,0,-nan,-nan,-nan,-nan,-nan,-nan,-nan,-nan,-nan,-nan,-nan,-nan
27,0,8,644109.625000,219774.500000,1229034.125000,66707.500000,7817.375000,614426.125000,8362.722298,1894.351076,61357.889013,1391.460833,569.865541,30631.009673
27,1,0,-nan,-nan,-nan,-nan,-nan,-nan,-nan,-nan,-nan,-nan,-nan,-nan
28,0,8,640301.625000,218765.875000,1207017.500000,65970.375000,7510.625000,603489.750000,1987.789912,1020.556152,37682.575755,480.731978,272.699898,18833.407464
28,1,0,-nan,-nan,-nan,-nan,-nan,-nan,-nan,-nan,-nan,-nan,-nan,-nan
29,0,8,643491.125000,219550.750000,1225132.375000,66464.125000,7838.875000,612551.375000,5087.674013,1623.095634,63540.297920,1005.395126,750.746368,31782.521965
29,1,0,-nan,-nan,-nan,-nan,-nan,-nan,-nan,-nan,-nan,-nan,-nan,-nan
30,0,8,643032.000000,219324.875000,1207628.000000,66336.375000,7735.625000,603817.125000,7320.569872,1709.632887,60445.132724,1024.483033,469.564409,30252.326731
30,1,0,-nan,-nan,-nan,-nan,-nan,-nan,-nan,-nan,-nan,-nan,-nan,-nan
31,0,8,641915.375000,219386.375000,1200327.125000,66165.000000,7426.125000,600129.500000,3480.444941,1125.271405,34585.114950,547.632176,801.275458,17284.614271
31,1,0,-nan,-nan,-nan,-nan,-nan,-nan,-nan,-nan,-nan,-nan,-nan,-nan
32,0,8,641818.125000,218994.000000,1213883.625000,66196.250000,7576.500000,606903.375000,7126.278805,1920.240480,58244.423463,1285.872151,784.529158,29018.531079
32,1,0,-nan,-nan,-nan,-nan,-nan,-nan,-nan,-nan,-nan,-nan,-nan,-nan
33,0,8,643851.375000,219668.875000,1217995.875000,66492.125000,7725.125000,608967.500000,8800.331712,1274.442372,82332.308050,1084.841053,906.915988,41169.197524
33,1,0,-nan,-nan,-nan,-nan,-nan,-nan,-nan,-nan,-nan,-nan,-nan,-nan
34,0,8,641593.625000,219320.375000,1225888.250000,66184.375000,7257.375000,612905.375000,3366.283817,1028.165713,34314.539713,466.848192,546.965707,17204.544189
34,1,0,-nan,-nan,-nan,-nan,-nan,-nan,-nan,-nan,-nan,-nan,-nan,-nan
35,0,8,641908.125000,219117.625000,1208549.125000,66219.125000,7305.750000,604245.375000,8375.215049,1891.412167,57622.574501,1174.921108,646.924986,28728.509033
35,1,0,-nan,-nan,-nan,-nan,-nan,-nan,-nan,-nan,-nan,-nan,-nan,-nan
36,0,8,642905.625000,219540.625000,1221026.625000,66423.250000,7590.375000,610492.750000,6914.936423,1818.562959,43026.765704,1095.721195,521.498307,21490.478989
36,1,0,-nan,-nan,-nan,-nan,-nan,-nan,-nan,-nan,-nan,-nan,-nan,-nan
37,0,8,642991.375000,219645.500000,1282331.375000,66446.000000,7968.375000,641094.000000,7018.869851,1249.550519,97754.002520,885.284700,1235.618867,48766.329965
37,1,0,-nan,-nan,-nan,-nan,-nan,-nan,-nan,-nan,-nan,-nan,-nan,-nan
38,0,8,640734.125000,219116.250000,1220164.375000,66074.375000,7644.375000,610115.375000,2473.337949,1298.939640,53642.931018,555.517537,537.199902,26833.323010
38,1,0,-nan,-nan,-nan,-nan,-nan,-nan,-nan,-nan,-nan,-nan,-nan,-nan
39,0,8,642711.500000,219616.125000,1245004.875000,66438.125000,7882.750000,622565.250000,7234.481149,1821.051581,60609.409786,1116.250245,510.828433,30332.132132
39,1,0,-nan,-nan,-nan,-nan,-nan,-nan,-nan,-nan,-nan,-nan,-nan,-nan
40,0,8,641707.125000,219202.000000,1223625.625000,66103.000000,7729.875000,611836.750000,2315.481237,1058.044423,98804.659174,352.356354,762.556791,49342.361511
40,1,0,-nan,-nan,-nan,-nan,-nan,-nan,-nan,-nan,-nan,-nan,-nan,-nan
41,0,8,643490.125000,219620.625000,1250411.000000,66444.750000,7954.250000,625149.375000,8738.420473,1439.534034,75740.661408,922.719859,899.903849,37802.702026
41,1,0,-nan,-nan,-nan,-nan,-nan,-nan,-nan,-nan,-nan,-nan,-nan,-nan
42,0,8,644102.375000,219739.375000,1225202.625000,66706.250000,7812.000000,612513.750000,10417.951753,1997.601120,64117.601370,1500.720306,583.679278,31931.837407
42,1,0,-nan,-nan,-nan,-nan,-nan,-nan,-nan,-nan,-nan,-nan,-nan,-nan
43,0,8,641931.125000,219061.750000,1224130.500000,66225.250000,7885.000000,611989.125000,6323.582953,1461.267237,97305.046571,1125.962893,859.574604,48679.199946
43,1,0,-nan,-nan,-nan,-nan,-nan,-nan,-nan,-nan,-nan,-nan,-nan,-nan
44,0,8,641234.875000,219097.625000,1236890.000000,66228.625000,7772.750000,618415.375000,8075.028892,1762.093849,49601.709719,1013.323114,714.881415,24799.656580
44,1,0,-nan,-nan,-nan,-nan,-nan,-nan,-nan,-nan,-nan,-nan,-nan,-nan
45,0,8,643556.125000,219546.875000,1248008.625000,66442.125000,8106.625000,623911.000000,7270.547786,1640.680075,63964.472285,1104.535472,778.368315,31967.414796
45,1,0,-nan,-nan,-nan,-nan,-nan,-nan,-nan,-nan,-nan,-nan,-nan,-nan
46,0,8,643201.750000,219293.625000,1237167.125000,66273.375000,7660.250000,618508.500000,7762.277239,1844.325686,45619.512120,1092.528940,378.772277,22753.891178
46,1,0,-nan,-nan,-nan,-nan,-nan,-nan,-nan,-nan,-nan,-nan,-nan,-nan
47,0,8,639625.750000,218674.000000,1264114.375000,65851.875000,8048.500000,631989.000000,2976.728857,497.079722,50810.636982,266.666663,773.335147,25280.449096
47,1,0,-nan,-nan,-nan,-nan,-nan,-nan,-nan,-nan,-nan,-nan,-nan,-nan
48,0,8,645481.750000,220100.500000,1267178.125000,66814.250000,7938.250000,633640.625000,8276.562477,1859.454759,36239.231095,1271.182102,600.593821,18130.317633
48,1,0,-nan,-nan,-nan,-nan,-nan,-nan,-nan,-nan,-nan,-nan,-nan,-nan
49,0,8,643090.000000,219732.250000,1241075.625000,66445.500000,7459.125000,620557.125000,9054.918028,1780.832723,55771.165585,1225.244363,655.727923,27908.660351
49,1,0,-nan,-nan,-nan,-nan,-nan,-nan,-nan,-nan,-nan,-nan,-nan,-nan
50,0,8,643347.750000,219539.875000,1257720.250000,66386.750000,7434.375000,628929.625000,8133.280269,1715.688232,72321.074141,1224.547340,408.105666,36263.106479
50,1,0,-nan,-nan,-nan,-nan,-nan,-nan,-nan,-nan,-nan,-nan,-nan,-nan
51,0,8,640231.125000,218625.125000,1188196.125000,65793.750000,7386.625000,594111.250000,3053.689344,679.831126,42289.491500,307.807468,606.933056,21150.388742
51,1,0,-nan,-nan,-nan,-nan,-nan,-nan,-nan,-nan,-nan,-nan,-nan,-nan
52,0,8,639915.750000,218839.500000,1236716.375000,65891.000000,7547.125000,618377.125000,3503.559895,794.390804,24545.197127,373.116939,409.969949,12310.494958
52,1,0,-nan,-nan,-nan,-nan,-nan,-nan,-nan,-nan,-nan,-nan,-nan,-nan
53,0,8,645616.125000,220247.250000,1210992.250000,66844.625000,7559.000000,605457.625000,8618.501616,1681.992698,44732.059442,1321.138897,664.348741,22428.732978
53,1,0,-nan,-nan,-nan,-nan,-nan,-nan,-nan,-nan,-nan,-nan,-nan,-nan
54,0,8,639524.375000,218705.125000,1210417.250000,65891.500000,7540.250000,605269.500000,3439.514498,885.927824,37172.732462,500.978542,551.772088,18635.343088
54,1,0,-nan,-nan,-nan,-nan,-nan,-nan,-nan,-nan,-nan,-nan,-nan,-nan
55,0,8,644142.750000,219911.250000,1260207.125000,66693.375000,7690.625000,630136.875000,11692.887504,2314.837238,63909.002622,1680.158247,768.208783,31971.042493
55,1,0,-nan,-nan,-nan,-nan,-nan,-nan,-nan,-nan,-nan,-nan,-nan,-nan
56,0,8,638827.000000,218582.750000,1196555.375000,65786.875000,7308.125000,598277.125000,2095.018258,641.662635,39363.977311,350.731891,252.866782,19629.231063
56,1,0,-nan,-nan,-nan,-nan,-nan,-nan,-nan,-nan,-nan,-nan,-nan,-nan
57,0,8,641475.625000,219530.625000,1226744.625000,66400.125000,7660.750000,613386.625000,5908.592873,1428.054090,43898.186825,968.851696,515.730974,21931.393725
57,1,0,-nan,-nan,-nan,-nan,-nan,-nan,-nan,-nan,-nan,-nan,-nan,-nan
58,0,8,642598.000000,219540.750000,1237485.250000,66345.000000,7730.500000,618686.250000,7156.753244,1770.899048,64865.795535,1079.358374,391.919635,32343.407086
58,1,0,-nan,-nan,-nan,-nan,-nan,-nan,-nan,-nan,-nan,-nan,-nan,-nan
59,0,8,639221.250000,218441.750000,1217155.250000,65711.875000,7521.125000,608589.125000,1908.222324,529.121146,52888.980411,244.503802,329.449327,26499.031536
59,1,0,-nan,-nan,-nan,-nan,-nan,-nan,-nan,-nan,-nan,-nan,-nan,-nan
60,0,8,641553.125000,219449.250000,1237412.375000,66181.875000,7562.750000,618747.750000,3454.618519,1018.528442,42742.237763,479.390091,420.007664,21405.785694
60,1,0,-nan,-nan,-nan,-nan,-nan,-nan,-nan,-nan,-nan,-nan,-nan,-nan
61,0,8,646096.000000,220630.250000,1264732.250000,66714.750000,7910.750000,632347.500000,15800.156637,4445.234717,52112.707706,1839.339878,575.423051,25980.179426
61,1,0,-nan,-nan,-nan,-nan,-nan,-nan,-nan,-nan,-nan,-nan,-nan,-nan
62,0,8,646442.500000,220287.125000,1210710.375000,66833.250000,7690.875000,605391.625000,7223.052160,1978.868896,68087.627620,1440.492082,852.233307,34026.274950
62,1,0,-nan,-nan,-nan,-nan,-nan,-nan,-nan,-nan,-nan,-nan,-nan,-nan
63,0,8,641674.125000,219494.625000,1184681.500000,66293.625000,7460.125000,592369.250000,9337.733162,1860.433749,43919.978629,1348.937632,602.713124,22005.067847
63,1,0,-nan,-nan,-nan,-nan,-nan,-nan,-nan,-nan,-nan,-nan,-nan,-nan
64,0,8,641637.000000,219617.750000,1201608.125000,66311.875000,7576.750000,600793.750000,6988.492237,1293.011383,55878.389176,1052.151419,419.910928,27954.908204
64,1,0,-nan,-nan,-nan,-nan,-nan,-nan,-nan,-nan,-nan,-nan,-nan,-nan
65,0,8,641970.125000,219341.375000,1209288.125000,66211.625000,7481.000000,604638.125000,6479.415742,1534.811303,57658.626749,1006.055035,531.463781,28814.755966
65,1,0,-nan,-nan,-nan,-nan,-nan,-nan,-nan,-nan,-nan,-nan,-nan,-nan
66,0,8,642732.750000,219723.875000,1214627.125000,66489.125000,7675.625000,607311.625000,6267.263553,1583.479116,63403.403799,1200.380506,583.201496,31767.145547
66,1,0,-nan,-nan,-nan,-nan,-nan,-nan,-nan,-nan,-nan,-nan,-nan,-nan
67,0,8,642629.500000,219579.125000,1208536.125000,66453.125000,7762.375000,604292.000000,8617.711312,1834.551610,63681.126748,1076.042685,492.084072,31857.218970
67,1,0,-nan,-nan,-nan,-nan,-nan,-nan,-nan,-nan,-nan,-nan,-nan,-nan
68,0,8,638003.500000,218779.875000,1227209.625000,65901.125000,7541.250000,613622.375000,3108.393315,468.162482,20737.116518,260.191486,458.489572,10354.010370
68,1,0,-nan,-nan,-nan,-nan,-nan,-nan,-nan,-nan,-nan,-nan,-nan,-nan
69,0,8,639646.375000,219189.625000,1213121.625000,66131.375000,7566.375000,606570.500000,4464.280511,1090.256729,57333.987416,485.084513,210.202841,28659.970229
69,1,0,-nan,-nan,-nan,-nan,-nan,-nan,-nan,-nan,-nan,-nan,-nan,-nan
70,0,8,640242.500000,219039.250000,1226067.250000,66033.875000,7329.625000,613069.000000,2451.140143,818.231592,62702.735841,294.993406,395.111357,31379.144898
70,1,0,-nan,-nan,-nan,-nan,-nan,-nan,-nan,-nan,-nan,-nan,-nan,-nan
71,0,8,642972.625000,219836.500000,1204979.000000,66557.500000,7400.875000,602540.750000,5808.234261,1512.196664,45926.007773,1009.970049,410.817307,22954.360875
71,1,0,-nan,-nan,-nan,-nan,-nan,-nan,-nan,-nan,-nan,-nan,-nan,-nan
72,0,8,642749.125000,219427.875000,1267451.875000,66332.875000,7623.625000,633702.375000,8397.118992,1765.073967,49143.307887,1284.617106,422.281286,24583.350997
72,1,0,-nan,-nan,-nan,-nan,-nan,-nan,-nan,-nan,-nan,-nan,-nan,-nan
73,0,8,640597.000000,218922.625000,1245547.000000,66019.500000,7655.875000,622821.125000,2738.994615,1032.212301,49930.950900,369.918910,288.376680,25002.547932
73,1,0,-nan,-nan,-nan,-nan,-nan,-nan,-nan,-nan,-nan,-nan,-nan,-nan
74,0,8,640516.500000,218785.875000,1232276.875000,65911.125000,7520.125000,616180.750000,2766.088574,781.161065,38932.825827,261.564255,481.944094,19373.640086
74,1,0,-nan,-nan,-nan,-nan,-nan,-nan,-nan,-nan,-nan,-nan,-nan,-nan
75,0,8,643559.000000,219580.125000,1240618.625000,66424.125000,7481.625000,620300.750000,6906.864701,1397.900518,51327.195676,938.472754,444.115958,25709.997441
75,1,0,-nan,-nan,-nan,-nan,-nan,-nan,-nan,-nan,-nan,-nan,-nan,-nan
76,0,8,651387.250000,221711.625000,1218401.250000,67531.500000,7947.250000,609218.125000,11045.141214,3105.122821,62130.957754,1431.667559,787.907633,31039.622019
76,1,0,-nan,-nan,-nan,-nan,-nan,-nan,-nan,-nan,-nan,-nan,-nan,-nan
77,0,8,640177.625000,218867.500000,1221881.000000,65937.000000,7585.250000,610948.625000,3567.569619,935.671016,53090.113720,480.097386,499.837911,26538.667836
77,1,0,-nan,-nan,-nan,-nan,-nan,-nan,-nan,-nan,-nan,-nan,-nan,-nan
78,0,8,647880.125000,220596.750000,1223596.625000,67187.875000,8088.875000,611749.750000,10473.899768,2444.256111,51516.059421,1651.491556,677.690644,25717.122840
78,1,0,-nan,-nan,-nan,-nan,-nan,-nan,-nan,-nan,-nan,-nan,-nan,-nan
79,0,8,646734.500000,221084.625000,1277316.875000,66900.125000,8029.000000,638596.500000,11778.515622,3375.504923,132909.781853,1324.855505,802.153196,66448.859842
79,1,0,-nan,-nan,-nan,-nan,-nan,-nan,-nan,-nan,-nan,-nan,-nan,-nan
80,0,8,641964.375000,219273.125000,1247423.125000,66250.250000,7687.125000,623738.125000,8205.465495,1458.852069,50713.878282,1112.262306,666.561782,25323.270930
80,1,0,-nan,-nan,-nan,-nan,-nan,-nan,-nan,-nan,-nan,-nan,-nan,-nan
81,0,8,641202.625000,219152.250000,1238916.000000,66027.750000,7857.750000,619350.875000,2938.905533,763.880349,38705.369056,350.817884,463.361023,19236.061911
81,1,0,-nan,-nan,-nan,-nan,-nan,-nan,-nan,-nan,-nan,-nan,-nan,-nan
82,0,8,643078.500000,219242.875000,1232272.125000,66264.375000,7696.500000,616176.375000,7129.415649,1581.251596,27095.969762,1046.395472,403.925117,13536.258050
82,1,0,-nan,-nan,-nan,-nan,-nan,-nan,-nan,-nan,-nan,-nan,-nan,-nan
83,0,8,639521.750000,218675.875000,1205679.250000,65868.125000,7528.625000,602824.375000,2129.751614,357.105880,42756.016479,236.727395,232.018285,21349.161242
83,1,0,-nan,-nan,-nan,-nan,-nan,-nan,-nan,-nan,-nan,-nan,-nan,-nan
84,0,8,640726.125000,219161.625000,1208608.375000,66099.500000,7757.250000,604277.875000,2783.264200,659.423600,45809.751194,481.296426,461.947440,22858.120726
84,1,0,-nan,-nan,-nan,-nan,-nan,-nan,-nan,-nan,-nan,-nan,-nan,-nan
85,0,8,644284.375000,219730.250000,1237486.375000,66644.875000,7735.500000,618752.375000,10817.213746,2251.355855,65689.373145,1414.206707,651.635059,32821.092166
85,1,0,-nan,-nan,-nan,-nan,-nan,-nan,-nan,-nan,-nan,-nan,-nan,-nan
86,0,8,641076.000000,219233.875000,1217097.125000,66140.500000,7510.000000,608515.875000,2292.704680,1083.642058,48310.337117,517.041826,399.032893,24173.251919
86,1,0,-nan,-nan,-nan,-nan,-nan,-nan,-nan,-nan,-nan,-nan,-nan,-nan
87,0,8,647569.750000,220492.125000,1198928.625000,67031.250000,7527.000000,599462.875000,8678.171434,1899.271007,70850.851131,1400.040870,413.023910,35403.510982
87,1,0,-nan,-nan,-nan,-nan,-nan,-nan,-nan,-nan,-nan,-nan,-nan,-nan
88,0,8,639713.500000,218474.375000,1193117.000000,65797.000000,7501.875000,596551.750000,2199.098452,474.502354,48143.733079,280.553025,608.779812,24072.887076
88,1,0,-nan,-nan,-nan,-nan,-nan,-nan,-nan,-nan,-nan,-nan,-nan,-nan
89,0,8,641300.125000,218967.375000,1207453.875000,66046.500000,7370.250000,603701.750000,2934.379638,900.757589,39115.671605,333.363540,568.078945,19577.856022
89,1,0,-nan,-nan,-nan,-nan,-nan,-nan,-nan,-nan,-nan,-nan,-nan,-nan
90,0,8,642234.875000,219373.250000,1191280.000000,66203.125000,7563.875000,595670.750000,3280.756103,1083.181166,83095.338431,475.716154,518.217483,41609.347507
90,1,0,-nan,-nan,-nan,-nan,-nan,-nan,-nan,-nan,-nan,-nan,-nan,-nan
91,0,8,645651.500000,220052.125000,1230640.125000,66829.750000,7832.250000,615333.250000,9539.847889,1970.659752,53509.033867,1542.184226,395.080925,26762.483455
91,1,0,-nan,-nan,-nan,-nan,-nan,-nan,-nan,-nan,-nan,-nan,-nan,-nan
92,0,8,642127.500000,219507.000000,1196024.750000,66419.625000,7479.875000,598008.750000,5846.642177,1569.806596,48555.029587,1035.290652,385.739691,24302.400976
92,1,0,-nan,-nan,-nan,-nan,-nan,-nan,-nan,-nan,-nan,-nan,-nan,-nan
93,0,8,640687.375000,219026.125000,1233378.375000,66012.000000,7495.250000,616704.000000,1287.761230,640.221531,67724.654370,401.681155,446.385974,33817.078348
93,1,0,-nan,-nan,-nan,-nan,-nan,-nan,-nan,-nan,-nan,-nan,-nan,-nan
94,0,8,645781.500000,220741.500000,1205586.750000,66617.500000,7563.125000,602807.250000,11162.953664,3510.392393,60736.816085,1261.978110,440.473165,30374.950987
94,1,0,-nan,-nan,-nan,-nan,-nan,-nan,-nan,-nan,-nan,-nan,-nan,-nan
95,0,8,647830.125000,220570.500000,1220408.625000,67220.250000,7750.875000,610209.250000,11275.217619,1982.271677,50909.841850,1488.974206,773.799140,25458.034536
95,1,0,-nan,-nan,-nan,-nan,-nan,-nan,-nan,-nan,-nan,-nan,-nan,-nan
96,0,8,646085.625000,220493.000000,1230821.500000,66944.625000,7662.500000,615350.375000,8648.442792,2020.122150,69942.595269,1291.866957,614.585429,34998.459152
96,1,0,-nan,-nan,-nan,-nan,-nan,-nan,-nan,-nan,-nan,-nan,-nan,-nan
97,0,8,641389.625000,218831.375000,1226605.000000,65939.875000,7314.750000,613325.625000,2537.006747,546.792222,42351.116777,252.038409,358.783971,21230.142675
97,1,0,-nan,-nan,-nan,-nan,-nan,-nan,-nan,-nan,-nan,-nan,-nan,-nan
98,0,8,641262.625000,219180.125000,1246771.500000,66136.875000,7714.375000,623403.125000,2461.734903,836.640669,82044.620893,334.774714,671.853767,41038.494013
98,1,0,-nan,-nan,-nan,-nan,-nan,-nan,-nan,-nan,-nan,-nan,-nan,-nan
99,0,8,640771.125000,219131.125000,1215299.500000,66069.375000,7510.625000,607577.875000,2439.126147,945.802891,42593.332950,480.115595,546.070952,21338.175575
99,1,0,-nan,-nan,-nan,-nan,-nan,-nan,-nan,-nan,-nan,-nan,-nan,-nan
100,0,8,641086.375000,219205.375000,1206970.625000,66074.000000,7149.750000,603476.125000,3463.080707,920.868739,68564.945185,489.975510,542.777982,34304.254253
100,1,0,-nan,-nan,-nan,-nan,-nan,-nan,-nan,-nan,-nan,-nan,-nan,-nan
101,0,8,645935.875000,220427.250000,1249595.625000,66820.000000,7650.125000,624805.250000,7812.026985,1751.659766,37980.804448,1174.715072,333.533521,19019.656909
101,1,0,-nan,-nan,-nan,-nan,-nan,-nan,-nan,-nan,-nan,-nan,-nan,-nan
102,0,8,644138.250000,219977.000000,1195881.250000,66630.750000,7527.375000,597917.000000,7150.400264,1571.012731,58361.099494,1063.060058,358.163698,29188.921640
102,1,0,-nan,-nan,-nan,-nan,-nan,-nan,-nan,-nan,-nan,-nan,-nan,-nan
103,0,8,642562.000000,219402.625000,1254223.875000,66342.125000,7428.375000,627108.500000,8481.717191,1881.045383,65456.811478,1236.301686,557.719450,32735.379080
103,1,0,-nan,-nan,-nan,-nan,-nan,-nan,-nan,-nan,-nan,-nan,-nan,-nan
104,0,8,641621.750000,219131.000000,1214876.250000,66099.000000,7383.625000,607451.500000,2366.337082,966.374022,55825.735104,454.279925,379.144411,27900.047007
104,1,0,-nan,-nan,-nan,-nan,-nan,-nan,-nan,-nan,-nan,-nan,-nan,-nan
105,0,8,644025.375000,219923.750000,1213833.250000,66578.875000,7391.875000,606873.875000,6174.311236,1673.019109,47188.591338,1101.900340,448.081588,23552.029119
105,1,0,-nan,-nan,-nan,-nan,-nan,-nan,-nan,-nan,-nan,-nan,-nan,-nan
106,0,8,645827.000000,220164.750000,1206841.250000,66806.875000,7448.625000,603455.000000,10053.072006,2323.471204,53608.021265,1365.424425,782.216392,26833.001342
106,1,0,-nan,-nan,-nan,-nan,-nan,-nan,-nan,-nan,-nan,-nan,-nan,-nan
107,0,8,641340.125000,219365.875000,1210624.500000,66135.375000,6999.875000,605300.125000,2065.932927,831.179950,36130.642099,301.647948,313.703856,18039.191892
107,1,0,-nan,-nan,-nan,-nan,-nan,-nan,-nan,-nan,-nan,-nan,-nan,-nan
108,0,8,644608.375000,220130.375000,1225880.625000,66853.125000,7424.375000,612966.500000,7886.523203,1885.773312,52261.287752,1347.801955,524.393444,26146.974290
108,1,0,-nan,-nan,-nan,-nan,-nan,-nan,-nan,-nan,-nan,-nan,-nan,-nan
109,0,8,642813.250000,219804.250000,1217089.000000,66522.000000,7539.625000,608529.125000,8224.478551,1941.916434,37755.008572,1237.556766,862.664903,18860.258385
109,1,0,-nan,-nan,-nan,-nan,-nan,-nan,-nan,-nan,-nan,-nan,-nan,-nan
110,0,8,643553.875000,219565.000000,1254626.250000,66442.500000,7869.625000,627352.250000,6786.123349,1745.631118,47066.969758,1180.284817,693.339191,23534.124504
110,1,0,-nan,-nan,-nan,-nan,-nan,-nan,-nan,-nan,-nan,-nan,-nan,-nan
111,0,8,640065.625000,218678.000000,1196460.000000,65885.500000,7801.875000,598278.250000,3367.946293,1034.730762,45221.212827,503.761352,544.284952,22600.586789
111,1,0,-nan,-nan,-nan,-nan,-nan,-nan,-nan,-nan,-nan,-nan,-nan,-nan
112,0,8,638220.875000,218535.625000,1175549.875000,65839.875000,7418.625000,587855.000000,3110.969762,688.422098,26284.683313,429.111127,536.239438,13102.592587
112,1,0,-nan,-nan,-nan,-nan,-nan,-nan,-nan,-nan,-nan,-nan,-nan,-nan
113,0,8,638999.000000,218877.500000,1216898.000000,66005.125000,7600.625000,608453.250000,2352.549628,842.537685,38861.701645,432.974433,245.818499,19408.387921
113,1,0,-nan,-nan,-nan,-nan,-nan,-nan,-nan,-nan,-nan,-nan,-nan,-nan
114,0,8,644727.375000,220428.875000,1228189.000000,66999.500000,7429.750000,614121.625000,9981.196358,2222.781503,37529.534130,1439.695280,550.724012,18757.214885
114,1,0,-nan,-nan,-nan,-nan,-nan,-nan,-nan,-nan,-nan,-nan,-nan,-nan
115,0,8,646324.750000,220891.125000,1229999.875000,66860.375000,7543.375000,614993.875000,11040.787333,3604.946825,65560.983646,1347.741438,592.537327,32762.529399
115,1,0,-nan,-nan,-nan,-nan,-nan,-nan,-nan,-nan,-nan,-nan,-nan,-nan
116,0,8,645826.000000,221310.250000,1223824.000000,66757.750000,7297.250000,612009.000000,12735.609663,4475.921742,64486.504483,1480.885187,273.663457,32295.668665
116,1,0,-nan,-nan,-nan,-nan,-nan,-nan,-nan,-nan,-nan,-nan,-nan,-nan
117,0,8,639726.125000,218735.000000,1190946.000000,65871.875000,7644.250000,595479.500000,4203.274272,718.844733,43447.447716,331.198369,599.770737,21765.465984
117,1,0,-nan,-nan,-nan,-nan,-nan,-nan,-nan,-nan,-nan,-nan,-nan,-nan
118,0,7,641622.571429,219353.142857,1247716.428571,66147.285714,7661.285714,623855.428571,2643.964656,1159.598013,84566.659153,395.129532,512.669405,42316.805523
118,1,0,-nan,-nan,-nan,-nan,-nan,-nan,-nan,-nan,-nan,-nan,-nan,-nan
119,0,7,649256.714286,220825.428571,1238935.571429,67278.857143,7778.428571,619082.285714,8726.060766,2444.884272,50128.146279,1525.730123,480.875647,24396.514884
119,1,0,-nan,-nan,-nan,-nan,-nan,-nan,-nan,-nan,-nan,-nan,-nan,-nan
120,0,7,643866.571429,219738.571429,1265103.857143,66504.142857,7682.285714,632546.285714,7240.241134,1511.680130,118284.750164,1177.511835,960.127776,59105.912984
120,1,0,-nan,-nan,-nan,-nan,-nan,-nan,-nan,-nan,-nan,-nan,-nan,-nan
121,0,7,642847.142857,219569.714286,1210376.714286,66373.285714,7484.714286,605203.857143,7194.642182,1554.274724,60602.329045,1067.436544,586.751521,30254.265600
121,1,0,-nan,-nan,-nan,-nan,-nan,-nan,-nan,-nan,-nan,-nan,-nan,-nan
122,0,7,641631.857143,219292.142857,1220560.142857,66277.714286,7471.857143,610309.285714,6831.192584,1723.371316,48130.108377,1142.460217,470.414841,24136.385401
122,1,0,-nan,-nan,-nan,-nan,-nan,-nan,-nan,-nan,-nan,-nan,-nan,-nan
123,0,7,640091.285714,219167.714286,1209384.000000,66041.714286,7619.285714,604712.000000,4624.203459,1157.725074,55375.259380,553.051203,671.189502,27730.889682
123,1,0,-nan,-nan,-nan,-nan,-nan,-nan,-nan,-nan,-nan,-nan,-nan,-nan
124,0,7,639623.142857,219193.714286,1229419.571429,66049.428571,7597.857143,614704.142857,2981.534525,774.270111,76927.580079,553.099024,501.222343,38413.177279
124,1,0,-nan,-nan,-nan,-nan,-nan,-nan,-nan,-nan,-nan,-nan,-nan,-nan
125,0,7,641542.000000,219216.857143,1277303.857143,66269.142857,7649.285714,638651.000000,8600.821157,1735.834376,72228.073318,1263.431657,596.799731,36015.115581
125,1,0,-nan,-nan,-nan,-nan,-nan,-nan,-nan,-nan,-nan,-nan,-nan,-nan
126,0,7,639230.428571,219005.714286,1253101.142857,65971.857143,7665.571429,626614.285714,3922.760867,1197.221392,77287.624519,499.489862,195.218454,38587.118097
126,1,0,-nan,-nan,-nan,-nan,-nan,-nan,-nan,-nan,-nan,-nan,-nan,-nan
127,0,7,639618.000000,218915.285714,1231875.571429,65923.000000,7677.571429,615953.000000,2185.604134,645.873874,44624.078721,334.801860,463.214809,22342.918271
127,1,0,-nan,-nan,-nan,-nan,-nan,-nan,-nan,-nan,-nan,-nan,-nan,-nan
128,0,7,643303.285714,220069.571429,1243681.714286,66446.142857,7569.428571,621818.000000,4982.021039,883.271331,50936.052923,390.268929,314.404134,25410.767071
128,1,0,-nan,-nan,-nan,-nan,-nan,-nan,-nan,-nan,-nan,-nan,-nan,-nan
129,0,7,645685.714286,220064.285714,1240688.714286,66778.857143,7690.857143,620359.571429,14706.287545,2855.429851,50811.214448,1708.155265,638.858453,25401.336438
129,1,0,-nan,-nan,-nan,-nan,-nan,-nan,-nan,-nan,-nan,-nan,-nan,-nan
130,0,7,638506.000000,218562.714286,1212491.142857,65788.428571,7391.714286,606186.142857,3956.292781,833.291359,37013.913571,498.951431,395.827421,18436.221207
130,1,0,-nan,-nan,-nan,-nan,-nan,-nan,-nan,-nan,-nan,-nan,-nan,-nan
131,0,7,640373.714286,219348.285714,1222243.428571,66128.714286,7282.428571,611123.428571,4469.390649,1171.561682,36315.964155,400.186997,487.851809,18139.785995
131,1,0,-nan,-nan,-nan,-nan,-nan,-nan,-nan,-nan,-nan,-nan,-nan,-nan
132,0,7,642836.571429,219937.142857,1206610.571429,66594.000000,7544.714286,603343.857143,8115.389734,1709.821497,63247.464322,1094.510197,520.755417,31595.049632
132,1,0,-nan,-nan,-nan,-nan,-nan,-nan,-nan,-nan,-nan,-nan,-nan,-nan
133,0,7,642787.857143,220265.714286,1225211.714286,66375.428571,7586.285714,612577.714286,12053.774364,3543.965403,77924.333113,1235.842553,281.970472,38979.612864
133,1,0,-nan,-nan,-nan,-nan,-nan,-nan,-nan,-nan,-nan,-nan,-nan,-nan
134,0,7,643103.428571,219763.571429,1229221.714286,66527.714286,7855.714286,614569.285714,9366.639447,1911.414424,70506.199899,1278.419416,505.776550,35251.539256
134,1,0,-nan,-nan,-nan,-nan,-nan,-nan,-nan,-nan,-nan,-nan,-nan,-nan
135,0,7,645635.714286,220145.285714,1184162.428571,66838.857143,7792.571429,592090.000000,10893.755180,2360.573400,43083.676517,1542.219776,657.521071,21529.438636
135,1,0,-nan,-nan,-nan,-nan,-nan,-nan,-nan,-nan,-nan,-nan,-nan,-nan
136,0,7,641469.571429,219073.142857,1203309.428571,65994.571429,7558.714286,601666.857143,3005.954988,772.298689,56521.103424,284.658119,454.413818,28285.496594
136,1,0,-nan,-nan,-nan,-nan,-nan,-nan,-nan,-nan,-nan,-nan,-nan,-nan
137,0,7,645070.428571,220127.428571,1194650.000000,66711.428571,7459.714286,597341.285714,8293.223169,1805.810452,60594.958232,1263.629224,422.970689,30295.576786
137,1,0,-nan,-nan,-nan,-nan,-nan,-nan,-nan,-nan,-nan,-nan,-nan,-nan
138,0,7,646425.714286,220400.857143,1268867.000000,66985.000000,8016.428571,634399.857143,7251.715003,1992.648735,99912.468252,1478.160343,752.724168,49849.171079
138,1,0,-nan,-nan,-nan,-nan,-nan,-nan,-nan,-nan,-nan,-nan,-nan,-nan
139,0,7,641558.000000,219186.142857,1220287.428571,66242.857143,7857.857143,610121.285714,9449.981164,2191.232036,57991.153229,1250.576716,400.561901,28949.810953
139,1,0,-nan,-nan,-nan,-nan,-nan,-nan,-nan,-nan,-nan,-nan,-nan,-nan
140,0,7,640245.142857,218656.000000,1254200.857143,65842.285714,7846.571429,627058.000000,4387.286061,550.967979,70348.395174,199.561458,718.873495,35080.779178
140,1,0,-nan,-nan,-nan,-nan,-nan,-nan,-nan,-nan,-nan,-nan,-nan,-nan
141,0,7,644834.142857,220403.000000,1227566.285714,66771.714286,7862.857143,613772.428571,6071.246081,1130.284288,96441.955792,1100.616673,611.006764,48213.100706
141,1,0,-nan,-nan,-nan,-nan,-nan,-nan,-nan,-nan,-nan,-nan,-nan,-nan
142,0,7,640946.571429,219121.857143,1197376.142857,66201.428571,7449.857143,598658.000000,9795.115340,1841.298643,60087.910810,1339.022123,551.752126,30009.279946
142,1,0,-nan,-nan,-nan,-nan,-nan,-nan,-nan,-nan,-nan,-nan,-nan,-nan
143,0,7,646860.857143,220131.857143,1229250.285714,66841.714286,7683.571429,614659.857143,11012.915800,2133.425778,71492.597998,1444.311375,446.774746,35766.121837
143,1,0,-nan,-nan,-nan,-nan,-nan,-nan,-nan,-nan,-nan,-nan,-nan,-nan
144,0,7,641238.000000,219108.285714,1268896.857143,66009.571429,7525.857143,634459.714286,3633.284582,975.942726,52128.944467,459.954922,431.169648,26118.878207
144,1,0,-nan,-nan,-nan,-nan,-nan,-nan,-nan,-nan,-nan,-nan,-nan,-nan
145,0,7,644018.571429,220057.285714,1288238.142857,66616.285714,7899.285714,644054.857143,6421.699683,1762.285668,87570.988499,1169.419113,1021.002828,43645.538824
145,1,0,-nan,-nan,-nan,-nan,-nan,-nan,-nan,-nan,-nan,-nan,-nan,-nan
146,0,7,645993.857143,220021.000000,1236370.000000,66782.571429,7656.714286,618195.714286,8843.740780,1817.494586,63722.909973,1399.239269,603.271489,31830.621944
146,1,0,-nan,-nan,-nan,-nan,-nan,-nan,-nan,-nan,-nan,-nan,-nan,-nan
147,0,7,643561.285714,219440.714286,1232930.857143,66401.571429,7698.428571,616499.285714,6883.468015,1401.297533,63054.605221,1005.613652,583.642468,31486.000661
147,1,0,-nan,-nan,-nan,-nan,-nan,-nan,-nan,-nan,-nan,-nan,-nan,-nan
148,0,7,643249.857143,219986.714286,1221027.857143,66271.428571,7612.714286,610488.142857,10250.945468,4086.517194,50242.198196,1346.025881,428.742918,25075.567183
148,1,0,-nan,-nan,-nan,-nan,-nan,-nan,-nan,-nan,-nan,-nan,-nan,-nan
149,0,7,641832.000000,219109.000000,1198552.428571,66236.285714,7692.000000,599229.428571,6783.125723,1802.506509,47650.415294,1205.459689,218.732060,23835.369102
149,1,0,-nan,-nan,-nan,-nan,-nan,-nan,-nan,-nan,-nan,-nan,-nan,-nan
150,0,7,641510.714286,218891.571429,1229371.000000,66142.571429,7524.857143,614643.714286,7326.829361,1572.903217,79519.308387,1268.753140,710.453664,39773.197945
150,1,0,-nan,-nan,-nan,-nan,-nan,-nan,-nan,-nan,-nan,-nan,-nan,-nan
151,0,7,640786.571429,219353.428571,1276563.000000,66210.000000,7767.714286,638274.285714,2846.629077,725.095828,107450.747600,393.858205,562.907684,53739.001994
151,1,0,-nan,-nan,-nan,-nan,-nan,-nan,-nan,-nan,-nan,-nan,-nan,-nan
152,0,7,644531.000000,219889.428571,1242865.142857,66790.714286,7566.857143,621388.714286,9146.000515,2010.761395,47141.553946,1445.512041,528.425540,23589.029289
152,1,0,-nan,-nan,-nan,-nan,-nan,-nan,-nan,-nan,-nan,-nan,-nan,-nan
153,0,7,637738.000000,218567.857143,1211458.857143,65826.428571,7286.142857,605792.285714,4420.872991,802.478558,53199.870576,429.361272,538.683429,26618.090308
153,1,0,-nan,-nan,-nan,-nan,-nan,-nan,-nan,-nan,-nan,-nan,-nan,-nan
154,0,7,638399.142857,218531.000000,1201805.857143,65825.714286,7484.000000,600889.714286,3110.761571,667.574715,34106.356925,237.522158,412.141446,17018.575412
154,1,0,-nan,-nan,-nan,-nan,-nan,-nan,-nan,-nan,-nan,-nan,-nan,-nan
155,0,7,643048.571429,219659.428571,1225692.142857,66452.428571,7530.000000,612800.428571,9980.445551,2020.125304,64104.270008,1281.017325,457.425091,32010.601480
155,1,0,-nan,-nan,-nan,-nan,-nan,-nan,-nan,-nan,-nan,-nan,-nan,-nan
156,0,7,642840.285714,219609.000000,1265878.142857,66466.000000,7609.142857,632931.285714,6699.575673,1397.147093,56499.323762,1056.692549,322.580412,28208.373674
156,1,0,-nan,-nan,-nan,-nan,-nan,-nan,-nan,-nan,-nan,-nan,-nan,-nan
157,0,7,647435.428571,220575.571429,1244536.571429,67210.142857,7808.000000,622264.714286,11004.124965,2390.366670,47665.231941,1599.762431,475.513857,23809.509149
157,1,0,-nan,-nan,-nan,-nan,-nan,-nan,-nan,-nan,-nan,-nan,-nan,-nan
158,0,7,638289.714286,218349.857143,1229241.571429,65692.428571,7490.142857,614596.857143,3512.446755,823.947888,54459.598917,324.133507,418.408013,27266.678599
158,1,0,-nan,-nan,-nan,-nan,-nan,-nan,-nan,-nan,-nan,-nan,-nan,-nan
159,0,7,639196.000000,218738.285714,1206146.571429,65873.714286,7672.142857,603085.285714,3663.010393,853.109056,49914.433738,412.965137,393.277230,24964.723029
159,1,0,-nan,-nan,-nan,-nan,-nan,-nan,-nan,-nan,-nan,-nan,-nan,-nan
160,0,7,640941.714286,219374.000000,1275791.285714,66153.857143,7922.714286,637962.428571,3786.578731,640.069416,104781.488226,440.458018,950.781590,52362.723499
160,1,0,-nan,-nan,-nan,-nan,-nan,-nan,-nan,-nan,-nan,-nan,-nan,-nan
161,0,7,646405.714286,220092.000000,1236843.714286,66782.142857,7844.571429,618432.000000,12197.062301,2659.274445,62657.228019,1717.094259,569.105528,31355.190671
161,1,0,-nan,-nan,-nan,-nan,-nan,-nan,-nan,-nan,-nan,-nan,-nan,-nan
162,0,7,640758.285714,218871.714286,1234881.285714,65959.857143,7958.857143,617397.571429,4856.694605,1200.824921,131401.712935,591.588281,595.070087,65665.892310
162,1,0,-nan,-nan,-nan,-nan,-nan,-nan,-nan,-nan,-nan,-nan,-nan,-nan
163,0,7,640777.142857,218952.857143,1202984.428571,65947.285714,7766.571429,601616.857143,3215.151337,958.077752,37616.502746,329.684574,258.577900,18950.095864
163,1,0,-nan,-nan,-nan,-nan,-nan,-nan,-nan,-nan,-nan,-nan,-nan,-nan
164,0,7,639680.000000,218791.285714,1215162.428571,65904.428571,7712.142857,607615.285714,4848.718888,1171.077125,56521.779468,487.652059,365.075502,28322.723233
164,1,0,-nan,-nan,-nan,-nan,-nan,-nan,-nan,-nan,-nan,-nan,-nan,-nan
165,0,7,641309.000000,219198.428571,1263378.857143,66059.428571,8210.714286,631653.000000,2831.350813,742.664481,84531.183270,301.948840,636.206102,42228.237939
165,1,0,-nan,-nan,-nan,-nan,-nan,-nan,-nan,-nan,-nan,-nan,-nan,-nan
166,0,7,643136.142857,219337.857143,1232553.000000,66306.571429,7823.857143,616283.000000,10838.056157,2341.300825,63895.146292,1479.231737,574.184497,31964.892402
166,1,0,-nan,-nan,-nan,-nan,-nan,-nan,-nan,-nan,-nan,-nan,-nan,-nan
167,0,7,641003.285714,219242.428571,1251331.714286,66052.000000,7874.142857,625746.142857,3303.906031,1178.068863,84466.698335,460.607053,507.496215,42246.404251
167,1,0,-nan,-nan,-nan,-nan,-nan,-nan,-nan,-nan,-nan,-nan,-nan,-nan
168,0,7,647008.857143,220412.428571,1241397.285714,66957.285714,7819.142857,620640.142857,7926.897689,1800.667643,57023.463082,1259.139356,292.120048,28465.412338
168,1,0,-nan,-nan,-nan,-nan,-nan,-nan,-nan,-nan,-nan,-nan,-nan,-nan
169,0,7,639482.428571,218567.857143,1267988.142857,65749.142857,8113.571429,633951.000000,3122.383881,502.774993,52459.449802,266.396819,398.883032,26164.407820
169,1,0,-nan,-nan,-nan,-nan,-nan,-nan,-nan,-nan,-nan,-nan,-nan,-nan
170,0,7,641857.142857,219731.571429,1257456.857143,66341.857143,8022.571429,628752.142857,2766.358381,533.635204,70960.673047,271.628648,696.032605,35302.052281
170,1,0,-nan,-nan,-nan,-nan,-nan,-nan,-nan,-nan,-nan,-nan,-nan,-nan
171,0,7,642151.857143,219097.000000,1233078.857143,66222.285714,7856.571429,616450.571429,7997.576909,1649.494468,63299.940030,1312.696757,711.291955,31567.254615
171,1,0,-nan,-nan,-nan,-nan,-nan,-nan,-nan,-nan,-nan,-nan,-nan,-nan
172,0,7,640150.285714,219001.428571,1196143.285714,65988.285714,7341.000000,598000.142857,3546.937380,1074.063560,50929.992698,458.451342,549.256901,25458.243354
172,1,0,-nan,-nan,-nan,-nan,-nan,-nan,-nan,-nan,-nan,-nan,-nan,-nan
173,0,7,647957.714286,221544.285714,1225447.857143,67129.857143,7792.285714,612727.142857,10070.644549,3072.303450,64028.564542,1037.715682,558.956353,31994.520935
173,1,0,-nan,-nan,-nan,-nan,-nan,-nan,-nan,-nan,-nan,-nan,-nan,-nan
174,0,7,642427.571429,219852.714286,1271742.857143,66508.857143,7836.428571,635784.714286,6014.915552,1584.778553,60416.162647,1093.823233,292.953852,30125.015593
174,1,0,-nan,-nan,-nan,-nan,-nan,-nan,-nan,-nan,-nan,-nan,-nan,-nan
175,0,7,638139.000000,218848.714286,1218179.571429,65922.000000,7608.142857,608996.571429,3310.070263,825.811759,82995.203767,405.175094,561.114052,41324.933998
175,1,0,-nan,-nan,-nan,-nan,-nan,-nan,-nan,-nan,-nan,-nan,-nan,-nan
176,0,7,640831.714286,219093.285714,1270716.571429,66177.571429,7937.000000,635304.714286,8101.510507,1876.916599,77385.547246,1345.363664,671.825445,38643.543755
176,1,0,-nan,-nan,-nan,-nan,-nan,-nan,-nan,-nan,-nan,-nan,-nan,-nan
177,0,7,643012.285714,220290.428571,1243707.285714,66340.285714,7986.285714,621781.714286,8809.363715,3450.875825,65852.485511,1142.959031,458.183280,32941.361815
177,1,0,-nan,-nan,-nan,-nan,-nan,-nan,-nan,-nan,-nan,-nan,-nan,-nan
178,0,7,641369.571429,219396.428571,1231583.714286,66359.285714,7781.571429,615680.714286,8376.181995,1875.979352,59207.153795,1277.867053,752.559415,29586.642342
178,1,0,-nan,-nan,-nan,-nan,-nan,-nan,-nan,-nan,-nan,-nan,-nan,-nan
179,0,7,643418.857143,219823.285714,1293120.000000,66515.000000,8378.571429,646564.142857,7684.910752,1493.836548,92715.468418,1118.978488,802.747044,46297.454677
179,1,0,-nan,-nan,-nan,-nan,-nan,-nan,-nan,-nan,-nan,-nan,-nan,-nan
180,0,7,642137.142857,219503.142857,1271128.714286,66368.714286,7951.285714,635590.428571,9348.531625,1716.647849,45366.328923,1126.255834,781.166840,22653.214612
180,1,0,-nan,-nan,-nan,-nan,-nan,-nan,-nan,-nan,-nan,-nan,-nan,-nan
181,0,8,638753.000000,218989.250000,1233978.625000,66021.000000,7673.625000,616891.125000,4032.413793,1132.716508,78658.924247,446.158044,760.124979,39282.869449
181,1,0,-nan,-nan,-nan,-nan,-nan,-nan,-nan,-nan,-nan,-nan,-nan,-nan
182,0,8,641302.875000,219770.125000,1223355.250000,66362.625000,7593.500000,611686.750000,5436.467222,1398.649745,61495.180778,830.858583,627.375486,30723.697246
182,1,0,-nan,-nan,-nan,-nan,-nan,-nan,-nan,-nan,-nan,-nan,-nan,-nan
183,0,8,646860.750000,220230.375000,1205902.625000,66959.375000,7927.250000,602924.125000,12217.056589,2565.736441,59765.020511,1880.154511,788.208372,29879.843074
183,1,0,-nan,-nan,-nan,-nan,-nan,-nan,-nan,-nan,-nan,-nan,-nan,-nan
184,0,8,637880.375000,218314.750000,1185159.875000,65604.125000,7417.625000,592488.250000,2767.913833,570.475624,49113.220179,316.523474,418.781846,24524.573986
184,1,0,-nan,-nan,-nan,-nan,-nan,-nan,-nan,-nan,-nan,-nan,-nan,-nan
185,0,8,638572.625000,218640.375000,1228514.125000,65763.625000,7545.125000,614217.000000,1725.087457,661.883286,91091.597256,370.348801,638.041033,45474.486844
185,1,0,-nan,-nan,-nan,-nan,-nan,-nan,-nan,-nan,-nan,-nan,-nan,-nan
186,0,8,640307.750000,219354.500000,1226350.250000,66085.750000,7603.125000,613213.500000,3189.910804,922.165522,63974.819618,544.606222,557.738164,31990.839896
186,1,0,-nan,-nan,-nan,-nan,-nan,-nan,-nan,-nan,-nan,-nan,-nan,-nan
187,0,8,641336.875000,219102.750000,1230127.875000,66116.625000,7610.000000,615029.375000,7528.095832,1409.683098,69987.617693,1146.119533,586.881802,34956.132791
187,1,0,-nan,-nan,-nan,-nan,-nan,-nan,-nan,-nan,-nan,-nan,-nan,-nan
188,0,8,642295.875000,219422.625000,1200002.375000,66217.500000,7749.375000,599944.375000,8684.421504,1732.692265,92156.803501,1221.505833,977.686931,46108.325015
188,1,0,-nan,-nan,-nan,-nan,-nan,-nan,-nan,-nan,-nan,-nan,-nan,-nan
189,0,8,641497.875000,219420.625000,1200534.750000,65916.250000,7567.000000,600263.000000,7691.718102,2849.406646,59135.114676,669.302949,696.964669,29627.505502
189,1,0,-nan,-nan,-nan,-nan,-nan,-nan,-nan,-nan,-nan,-nan,-nan,-nan
190,0,8,647355.625000,220461.750000,1239346.875000,66861.750000,7865.125000,619586.000000,7498.804654,1921.908605,49089.135518,1212.469046,451.268888,24468.399519
190,1,0,-nan,-nan,-nan,-nan,-nan,-nan,-nan,-nan,-nan,-nan,-nan,-nan
191,0,8,640392.125000,218626.250000,1251482.875000,65916.125000,7648.875000,625731.125000,6835.036914,1589.150933,65053.312918,1196.067770,736.032682,32507.605204
191,1,0,-nan,-nan,-nan,-nan,-nan,-nan,-nan,-nan,-nan,-nan,-nan,-nan
192,0,8,638939.875000,218586.250000,1288598.375000,65723.375000,7636.625000,644299.125000,3205.732890,673.688680,39255.984451,333.228502,591.987740,19620.246427
192,1,0,-nan,-nan,-nan,-nan,-nan,-nan,-nan,-nan,-nan,-nan,-nan,-nan
193,0,8,640201.375000,219076.125000,1248923.125000,65946.625000,7727.500000,624309.875000,3208.802539,781.450644,46767.032011,540.551787,1012.521481,23320.517353
193,1,0,-nan,-nan,-nan,-nan,-nan,-nan,-nan,-nan,-nan,-nan,-nan,-nan
194,0,8,638632.125000,218478.625000,1221799.375000,65723.000000,7501.375000,610840.250000,3863.521432,823.909118,74891.778033,408.456546,788.718254,37445.147272
194,1,0,-nan,-nan,-nan,-nan,-nan,-nan,-nan,-nan,-nan,-nan,-nan,-nan
195,0,8,641459.000000,219264.250000,1236555.625000,66245.000000,7767.125000,618317.250000,5889.258782,1558.736327,48900.622659,870.114073,538.281859,24464.763210
195,1,0,-nan,-nan,-nan,-nan,-nan,-nan,-nan,-nan,-nan,-nan,-nan,-nan
196,0,8,641554.125000,219169.375000,1218780.000000,66181.125000,7711.250000,609299.875000,8027.574298,1806.802697,67710.847242,1192.897150,613.021360,33721.088300
196,1,0,-nan,-nan,-nan,-nan,-nan,-nan,-nan,-nan,-nan,-nan,-nan,-nan
197,0,8,638910.500000,218701.625000,1247516.125000,65807.625000,7780.625000,623737.125000,2916.023105,874.984705,69335.171793,417.222044,527.158405,34622.285816
197,1,0,-nan,-nan,-nan,-nan,-nan,-nan,-nan,-nan,-nan,-nan,-nan,-nan
198,0,8,637398.875000,218446.000000,1236281.375000,65649.875000,7815.625000,618170.375000,2876.917032,494.587960,85949.494578,329.043097,579.988780,42942.297380
198,1,0,-nan,-nan,-nan,-nan,-nan,-nan,-nan,-nan,-nan,-nan,-nan,-nan
199,0,8,642936.250000,219883.250000,1243066.875000,66446.000000,8244.125000,621482.125000,5120.995771,1597.241196,61179.139789,1125.597841,961.872450,30458.709885
199,1,0,-nan,-nan,-nan,-nan,-nan,-nan,-nan,-nan,-nan,-nan,-nan,-nan
200,0,8,639980.125000,218732.875000,1237988.125000,65982.250000,7589.250000,618953.875000,9502.950824,2202.956447,93391.576168,1192.831689,901.982365,46764.234636
200,1,0,-nan,-nan,-nan,-nan,-nan,-nan,-nan,-nan,-nan,-nan,-nan,-nan
201,0,8,637013.000000,218338.875000,1245749.750000,65619.750000,7683.375000,622879.000000,2080.648517,424.326065,65342.682379,331.300751,647.669078,32616.914906
201,1,0,-nan,-nan,-nan,-nan,-nan,-nan,-nan,-nan,-nan,-nan,-nan,-nan
202,0,8,637435.250000,218515.000000,1234722.500000,65732.125000,7619.750000,617305.875000,3046.364626,852.843479,76680.931531,536.361454,572.531604,38435.875896
202,1,0,-nan,-nan,-nan,-nan,-nan,-nan,-nan,-nan,-nan,-nan,-nan,-nan
203,0,8,636589.125000,218040.750000,1186212.875000,65521.375000,7416.250000,593153.250000,2265.514480,414.251660,45592.239843,342.779790,623.703405,22875.526178
203,1,0,-nan,-nan,-nan,-nan,-nan,-nan,-nan,-nan,-nan,-nan,-nan,-nan
204,0,8,644783.500000,219625.000000,1230642.875000,66511.250000,7892.750000,615298.875000,10987.091380,2139.303333,44675.177259,1505.675243,558.041161,22401.368817
204,1,0,-nan,-nan,-nan,-nan,-nan,-nan,-nan,-nan,-nan,-nan,-nan,-nan
205,0,8,642258.250000,219188.625000,1221309.500000,66140.500000,7754.125000,610695.000000,7118.981875,1714.449178,40797.450355,1354.068776,846.572123,20422.658746
205,1,0,-nan,-nan,-nan,-nan,-nan,-nan,-nan,-nan,-nan,-nan,-nan,-nan
206,0,8,641584.500000,219383.000000,1241579.500000,66247.000000,7674.750000,620849.375000,7114.695391,1608.171710,104591.020896,1122.043894,660.572053,52266.380404
206,1,0,-nan,-nan,-nan,-nan,-nan,-nan,-nan,-nan,-nan,-nan,-nan,-nan
207,0,8,639140.375000,219139.125000,1196793.000000,65991.875000,7443.625000,598321.375000,4004.633970,1132.138070,71334.675187,432.939499,392.109340,35580.817318
207,1,0,-nan,-nan,-nan,-nan,-nan,-nan,-nan,-nan,-nan,-nan,-nan,-nan
208,0,8,638058.125000,218418.000000,1196828.250000,65643.375000,7825.125000,598392.625000,4174.051582,354.725246,39801.379288,379.555641,618.519692,19889.956058
208,1,0,-nan,-nan,-nan,-nan,-nan,-nan,-nan,-nan,-nan,-nan,-nan,-nan
209,0,8,641867.500000,219185.500000,1231145.250000,66014.500000,7581.375000,615626.875000,3077.906675,1088.760878,107935.471929,641.221880,512.420710,54064.826591
209,1,0,-nan,-nan,-nan,-nan,-nan,-nan,-nan,-nan,-nan,-nan,-nan,-nan
210,0,8,641579.750000,219016.375000,1195409.500000,66102.875000,7540.250000,597670.500000,7260.517987,1876.416661,58247.433989,1168.148047,661.851711,29072.691052
210,1,0,-nan,-nan,-nan,-nan,-nan,-nan,-nan,-nan,-nan,-nan,-nan,-nan
211,0,8,637225.125000,217994.375000,1221707.875000,65505.125000,7659.000000,610834.375000,1878.137404,464.393943,89557.159372,312.356142,897.603894,44785.444544
211,1,0,-nan,-nan,-nan,-nan,-nan,-nan,-nan,-nan,-nan,-nan,-nan,-nan
212,0,8,641255.875000,219131.625000,1212337.375000,66121.500000,7443.875000,606133.875000,8309.046056,1767.404024,52910.682253,1137.475165,813.888419,26482.572507
212,1,0,-nan,-nan,-nan,-nan,-nan,-nan,-nan,-nan,-nan,-nan,-nan,-nan
213,0,8,641354.250000,219149.250000,1205095.750000,66125.375000,7313.750000,602537.250000,8965.471847,1956.528159,66617.113238,1368.928316,592.822855,33231.297491
213,1,0,-nan,-nan,-nan,-nan,-nan,-nan,-nan,-nan,-nan,-nan,-nan,-nan
214,0,8,637638.750000,218415.375000,1214379.500000,65644.250000,7401.625000,607211.500000,2242.603774,414.289131,86850.979653,276.104487,588.978976,43419.341718
214,1,0,-nan,-nan,-nan,-nan,-nan,-nan,-nan,-nan,-nan,-nan,-nan,-nan
215,0,8,639341.125000,218929.125000,1244793.625000,65919.125000,7551.000000,622447.125000,5319.400940,1252.663805,87495.632398,551.416231,835.320896,43772.339792
215,1,0,-nan,-nan,-nan,-nan,-nan,-nan,-nan,-nan,-nan,-nan,-nan,-nan
216,0,8,641722.500000,219184.000000,1294548.750000,66177.750000,7804.000000,647237.875000,7690.804656,1653.200532,118965.714967,1292.293963,1114.739656,59393.223897
216,1,0,-nan,-nan,-nan,-nan,-nan,-nan,-nan,-nan,-nan,-nan,-nan,-nan
217,0,8,643505.250000,219952.000000,1246754.000000,66435.500000,7683.750000,623371.625000,12244.736152,3706.339367,89049.807247,1398.831745,1127.263140,44557.480979
217,1,0,-nan,-nan,-nan,-nan,-nan,-nan,-nan,-nan,-nan,-nan,-nan,-nan
218,0,8,640941.750000,219339.875000,1232693.375000,66367.625000,7509.375000,616340.125000,7673.590925,1808.834669,61841.285645,1048.609071,740.503703,30961.761458
218,1,0,-nan,-nan,-nan,-nan,-nan,-nan,-nan,-nan,-nan,-nan,-nan,-nan
219,0,8,643291.375000,219818.875000,1213857.250000,66356.500000,7204.875000,606942.250000,10988.185143,3101.114817,74679.587741,1428.658637,446.054211,37346.031244
219,1,0,-nan,-nan,-nan,-nan,-nan,-nan,-nan,-nan,-nan,-nan,-nan,-nan
220,0,8,637774.500000,218616.875000,1249219.500000,65831.375000,7221.000000,624554.625000,3751.871400,822.871715,81872.845501,430.392826,878.584088,40818.679106
220,1,0,-nan,-nan,-nan,-nan,-nan,-nan,-nan,-nan,-nan,-nan,-nan,-nan
221,0,8,641902.500000,219603.750000,1250011.500000,66392.750000,7409.500000,624980.125000,7072.576864,1627.908916,48887.085662,1147.773252,260.280138,24415.698149
221,1,0,-nan,-nan,-nan,-nan,-nan,-nan,-nan,-nan,-nan,-nan,-nan,-nan
222,0,8,640451.625000,218967.375000,1260489.250000,66127.625000,7567.000000,630264.000000,6311.338110,1367.329143,81324.763685,1213.541505,730.999316,40664.066966
222,1,0,-nan,-nan,-nan,-nan,-nan,-nan,-nan,-nan,-nan,-nan,-nan,-nan
223,0,8,643776.750000,220642.125000,1237340.000000,66410.875000,7474.250000,618716.250000,9901.385392,3145.196514,47204.683618,890.118733,419.437644,23584.021936
223,1,0,-nan,-nan,-nan,-nan,-nan,-nan,-nan,-nan,-nan,-nan,-nan,-nan
224,0,8,647709.250000,221466.750000,1228114.125000,67111.625000,7566.250000,614103.875000,16109.629347,5113.351072,68705.467598,2085.859591,826.291376,34350.204342
224,1,0,-nan,-nan,-nan,-nan,-nan,-nan,-nan,-nan,-nan,-nan,-nan,-nan
225,0,8,642831.750000,220427.875000,1209638.250000,66308.875000,7274.750000,604790.125000,11562.544386,4166.768545,33829.579744,1031.602326,527.538091,16913.558115
225,1,0,-nan,-nan,-nan,-nan,-nan,-nan,-nan,-nan,-nan,-nan,-nan,-nan
226,0,8,643086.625000,220609.500000,1248024.750000,66318.625000,7534.000000,624038.875000,15546.498279,5456.705485,54337.956646,1445.667574,464.771449,27177.237274
226,1,0,-nan,-nan,-nan,-nan,-nan,-nan,-nan,-nan,-nan,-nan,-nan,-nan
227,0,8,645069.250000,221488.625000,1228791.125000,66668.125000,7628.250000,614393.625000,17766.207929,6293.890767,70855.558655,1713.429050,550.492904,35375.099614
227,1,0,-nan,-nan,-nan,-nan,-nan,-nan,-nan,-nan,-nan,-nan,-nan,-nan
228,0,8,650154.000000,222300.125000,1201537.375000,67311.125000,7435.875000,600748.875000,15778.309067,5484.775849,62003.536068,1628.591296,694.677522,31011.086084
228,1,0,-nan,-nan,-nan,-nan,-nan,-nan,-nan,-nan,-nan,-nan,-nan,-nan
229,0,8,646071.750000,221395.875000,1240778.750000,66620.625000,7665.875000,620289.750000,17237.969890,5901.169533,80054.556811,1556.475983,954.624198,40020.724652
229,1,0,-nan,-nan,-nan,-nan,-nan,-nan,-nan,-nan,-nan,-nan,-nan,-nan
230,0,8,647681.250000,221427.000000,1196911.125000,66832.000000,7710.375000,598441.250000,20750.665741,6861.822426,61762.671292,1997.960835,604.553541,30905.133962
230,1,0,-nan,-nan,-nan,-nan,-nan,-nan,-nan,-nan,-nan,-nan,-nan,-nan
231,0,8,644829.500000,220904.750000,1198561.875000,66388.500000,7467.500000,599223.500000,18012.493893,5783.512725,50272.904085,1595.551315,385.729504,25059.990139
231,1,0,-nan,-nan,-nan,-nan,-nan,-nan,-nan,-nan,-nan,-nan,-nan,-nan
232,0,8,650758.250000,222175.625000,1234109.125000,67262.625000,8138.500000,617129.375000,19729.968479,6185.322525,61824.462702,2094.480003,736.259635,31039.403751
232,1,0,-nan,-nan,-nan,-nan,-nan,-nan,-nan,-nan,-nan,-nan,-nan,-nan
233,0,8,644876.125000,220974.500000,1181785.625000,66463.625000,7470.500000,590863.875000,17781.883312,5814.410568,40507.361297,1562.795327,225.560413,20230.766962
233,1,0,-nan,-nan,-nan,-nan,-nan,-nan,-nan,-nan,-nan,-nan,-nan,-nan
234,0,8,650910.000000,222116.625000,1241512.625000,67234.750000,7729.375000,620744.500000,17605.452195,5664.740063,69849.064815,1669.005673,603.976394,34939.963344
234,1,0,-nan,-nan,-nan,-nan,-nan,-nan,-nan,-nan,-nan,-nan,-nan,-nan
235,0,8,648408.250000,221734.125000,1249162.750000,66874.125000,7658.625000,624598.500000,24885.471895,7393.459651,104622.917127,2684.414761,1019.722381,52305.099312
235,1,0,-nan,-nan,-nan,-nan,-nan,-nan,-nan,-nan,-nan,-nan,-nan,-nan
236,0,8,646895.125000,221569.750000,1223916.000000,66710.500000,7671.250000,611952.500000,17385.165943,5735.284970,53164.085507,1438.313422,744.373016,26616.604498
236,1,0,-nan,-nan,-nan,-nan,-nan,-nan,-nan,-nan,-nan,-nan,-nan,-nan
237,0,8,650096.125000,221850.875000,1231804.250000,67140.250000,7573.875000,615874.250000,23971.172512,7208.856678,76786.034247,2719.085680,748.918126,38393.746238
237,1,0,-nan,-nan,-nan,-nan,-nan,-nan,-nan,-nan,-nan,-nan,-nan,-nan
238,0,8,648191.625000,221662.375000,1246698.750000,66898.125000,7690.375000,623369.125000,18380.799860,6196.573487,76127.068845,1920.814504,567.634111,38096.070865
238,1,0,-nan,-nan,-nan,-nan,-nan,-nan,-nan,-nan,-nan,-nan,-nan,-nan
239,0,8,649728.000000,222419.250000,1218877.000000,67074.125000,7375.750000,609411.000000,16557.802662,6001.926581,74662.502402,1761.100184,398.355604,37386.962347
239,1,0,-nan,-nan,-nan,-nan,-nan,-nan,-nan,-nan,-nan,-nan,-nan,-nan
240,0,8,646880.625000,221367.375000,1223004.875000,66739.250000,7388.625000,611496.750000,18148.054158,6047.513682,50240.772276,1847.927606,526.648350,25109.356517
240,1,0,-nan,-nan,-nan,-nan,-nan,-nan,-nan,-nan,-nan,-nan,-nan,-nan
241,0,8,643691.875000,220515.000000,1298975.500000,66237.750000,7998.250000,649540.750000,18397.714324,6034.839289,121232.872690,1642.656518,1004.988650,60646.659755
241,1,0,-nan,-nan,-nan,-nan,-nan,-nan,-nan,-nan,-nan,-nan,-nan,-nan
242,0,8,647796.000000,221880.375000,1240061.250000,67019.625000,7584.250000,619976.375000,17307.162968,5899.770481,49292.201266,1575.001027,554.412696,24684.038035
242,1,0,-nan,-nan,-nan,-nan,-nan,-nan,-nan,-nan,-nan,-nan,-nan,-nan
243,0,8,649131.750000,222225.500000,1255686.625000,67159.875000,7686.000000,627819.750000,24297.071983,7256.220831,59436.915009,2594.929500,341.667602,29680.460166
243,1,0,-nan,-nan,-nan,-nan,-nan,-nan,-nan,-nan,-nan,-nan,-nan,-nan
244,0,8,644343.125000,220703.000000,1221758.250000,66303.375000,7225.500000,610916.875000,16972.278467,5888.781686,85016.256677,1589.654046,745.274614,42511.758936
244,1,0,-nan,-nan,-nan,-nan,-nan,-nan,-nan,-nan,-nan,-nan,-nan,-nan
245,0,8,645046.375000,221280.875000,1233222.375000,66550.750000,7328.250000,616609.250000,18753.685924,6604.525218,59530.971544,1842.909029,384.115787,29754.191162
245,1,0,-nan,-nan,-nan,-nan,-nan,-nan,-nan,-nan,-nan,-nan,-nan,-nan
246,0,8,645958.750000,221543.625000,1201719.375000,66710.875000,7404.250000,600843.125000,16507.195331,5623.740480,53462.384218,1440.119998,397.334793,26753.667844
246,1,0,-nan,-nan,-nan,-nan,-nan,-nan,-nan,-nan,-nan,-nan,-nan,-nan
247,0,8,650410.875000,222380.750000,1282371.625000,67362.875000,8050.625000,641197.000000,18255.369316,6311.633064,50000.734087,1916.896479,793.963780,25018.555769
247,1,0,-nan,-nan,-nan,-nan,-nan,-nan,-nan,-nan,-nan,-nan,-nan,-nan
248,0,8,646832.875000,221299.750000,1226684.375000,66772.125000,7649.250000,613397.375000,23848.364417,7424.425731,78763.663334,2660.914196,1040.571928,39386.133730
248,1,0,-nan,-nan,-nan,-nan,-nan,-nan,-nan,-nan,-nan,-nan,-nan,-nan
249,0,8,650889.125000,222134.625000,1248934.750000,67296.375000,7784.375000,624343.125000,17314.384796,5869.293781,60520.487109,1934.006395,697.783444,30151.296719
249,1,0,-nan,-nan,-nan,-nan,-nan,-nan,-nan,-nan,-nan,-nan,-nan,-nan
250,0,8,645476.000000,220930.375000,1222982.500000,66458.000000,7869.125000,611409.125000,16865.062904,5799.664148,48381.329519,1540.026704,596.490033,24105.196926
250,1,0,-nan,-nan,-nan,-nan,-nan,-nan,-nan,-nan,-nan,-nan,-nan,-nan
251,0,8,650013.250000,222114.625000,1240969.000000,67280.000000,7880.750000,620535.625000,15821.643252,5710.179177,58631.146543,1718.034196,519.257824,29327.425194
251,1,0,-nan,-nan,-nan,-nan,-nan,-nan,-nan,-nan,-nan,-nan,-nan,-nan
252,0,8,645172.125000,221259.000000,1190019.875000,66612.375000,7310.875000,594957.500000,18243.404688,6349.500453,55238.593269,1812.032004,516.263120,27574.899741
252,1,0,-nan,-nan,-nan,-nan,-nan,-nan,-nan,-nan,-nan,-nan,-nan,-nan
253,0,8,647610.625000,222114.375000,1226068.625000,66812.250000,7220.750000,613035.125000,17591.117119,6228.229041,73085.701055,1731.307652,550.912141,36561.273075
253,1,0,-nan,-nan,-nan,-nan,-nan,-nan,-nan,-nan,-nan,-nan,-nan,-nan
254,0,8,643907.750000,220771.375000,1201175.750000,66379.625000,7529.875000,600653.875000,16766.817235,5951.391349,58903.244350,1641.374724,705.623384,29453.181434
254,1,0,-nan,-nan,-nan,-nan,-nan,-nan,-nan,-nan,-nan,-nan,-nan,-nan
255,0,8,648644.875000,221642.750000,1217527.250000,67087.875000,7564.875000,608783.125000,16880.942468,5313.074481,84888.183912,1785.558347,944.981539,42464.294214
255,1,0,-nan,-nan,-nan,-nan,-nan,-nan,-nan,-nan,-nan,-nan,-nan,-nan
