0,-1,696394,238150,1310328,71252,7436,655249,0
0,0,760100,265564,1432101,78457,8822,716134,11
0,-1,695052,239153,1257953,71663,7148,629074,2
0,-1,691465,236723,1166357,70595,7509,583227,0
0,-1,688417,237133,1284156,70709,7889,642109,0
0,-1,695183,237616,1347889,70879,8837,674094,0
0,-1,635992,218371,1261838,65641,7814,630386,0
0,-1,636073,218597,1261649,65904,7061,630987,0
0,-1,658174,222707,1283500,68759,7690,641796,0
0,-1,635391,217213,1198392,65075,7770,599242,0
0,-1,660124,222519,1240465,68645,8449,620249,0
0,-1,637824,219820,1271399,66367,7533,635381,0
0,-1,637892,219363,1251807,66131,7735,625896,0
0,-1,634639,217534,1235724,65343,8106,617676,0
0,-1,632132,217388,1180894,65260,7245,590503,0
0,-1,638214,218521,1154429,65718,7580,576664,0
0,-1,640479,219695,1285030,66232,8101,642456,0
0,-1,632445,217946,1314910,65514,8915,657466,0
0,-1,636017,218057,1222461,65408,7284,611288,0
0,-1,635530,218396,1227836,65593,8012,613960,0
0,-1,642233,219619,1313930,66138,8763,656890,0
0,-1,637291,218976,1352031,66062,7955,675857,0
0,-1,641513,219175,1176029,65748,6728,588066,0
0,-1,639487,218076,1159078,65511,7335,579613,0
0,-1,639585,218999,1292284,65685,7778,646177,0
0,-1,641686,219184,1207658,65770,7239,603663,0
0,-1,636319,218252,1314410,65475,7619,657160,0
0,-1,638946,218528,1231876,65639,8035,615974,0
0,-1,639769,218659,1270815,65631,7215,635491,0
0,-1,638762,217862,1168121,65458,6828,583884,0
0,-1,665639,227592,1309912,68442,8047,654921,0
0,-1,643232,220462,1295578,66758,7693,647837,0
0,-1,637286,218304,1245498,65662,7749,622761,0
0,-1,639021,218031,1340173,65592,8034,670099,0
0,-1,640446,218186,1238001,65714,7520,619108,0
0,-1,633439,219537,1267125,66309,7760,633320,0
0,-1,634876,218943,1279036,65954,7979,639556,0
0,-1,636033,218504,1249089,65720,7095,624698,0
0,-1,635411,218869,1300736,65902,6767,650454,0
0,-1,634966,218059,1233877,65583,7314,616984,0
0,-1,640769,219316,1222501,66057,7456,611270,0
0,-1,635084,218508,1241731,65743,7013,620896,0
0,-1,636678,218278,1191387,65668,6753,595738,0
0,-1,640892,218696,1221418,65791,7735,610752,0
0,-1,637831,219463,1246750,66039,6580,623505,0
0,-1,637534,218653,1238790,65767,7038,619433,0
0,-1,635419,218731,1232338,65790,7120,616212,0
0,-1,638063,218959,1175583,65861,7263,587842,0
0,-1,641355,220153,1283550,66431,7773,641802,0
0,-1,636492,218935,1217319,65835,6875,608742,0
0,-1,637224,218746,1244920,65786,7010,622504,0
0,-1,640917,219639,1221617,66219,7394,610861,0
0,-1,635775,218411,1245275,65632,6806,622669,0
0,-1,633834,217995,1216739,65464,6706,608410,0
0,-1,639244,218826,1165426,65874,6993,582827,0
0,-1,638623,218969,1236787,65748,7433,618428,0
0,-1,637919,218183,1251263,65565,6565,625675,0
0,-1,645661,220268,1287584,66564,8352,643824,0
0,-1,634759,218898,1215327,65793,7325,607706,0
0,-1,658104,223551,1228461,69126,8046,614330,0
0,-1,637661,219012,1178765,65857,6550,589394,0
0,-1,634838,218564,1261876,65704,6975,630658,0
0,-1,638512,218757,1271016,65733,8464,635593,0
0,-1,641575,219970,1289830,66409,7770,644971,0
0,-1,635933,218441,1160583,65644,6919,580378,0
0,-1,659084,223154,1169952,69011,7975,584897,0
0,-1,659691,223108,1239588,68998,8006,619835,0
0,-1,637202,218234,1134532,65535,6525,567314,0
0,-1,638387,218282,1303976,65595,7531,652067,0
0,-1,643804,219524,1209547,66231,8417,604827,0
0,-1,636489,218721,1263485,65761,6886,631786,0
0,-1,637869,218419,1183847,65627,7282,591961,0
0,-1,659139,223254,1198377,68947,7674,599249,0
0,-1,637099,218605,1175821,65475,6985,587943,0
0,-1,643976,219853,1382734,65939,7838,691372,0
0,-1,642809,220117,1252437,66340,7774,626289,0
0,-1,636358,218837,1124111,65657,7559,562083,0
0,-1,640051,218373,1267716,65466,7732,633837,0
0,-1,639992,219579,1267317,65920,7120,633710,0
0,-1,647444,220532,1534817,66462,8539,767530,0
0,-1,643983,220445,1318856,66416,8131,659372,0
0,-1,643408,219271,1268197,65887,7065,634154,0
0,-1,645366,219549,1352492,65905,8117,676247,0
0,-1,634291,218859,1127862,65515,7416,563940,0
0,-1,643480,220310,1355051,66087,8127,677634,0
0,-1,641691,219443,1309009,65763,7242,654535,0
0,-1,639257,219735,1281606,65859,7511,640832,0
0,-1,643052,219676,1275615,65914,7648,637777,0
0,-1,642228,219987,1156639,66088,7365,578360,0
0,-1,647840,220268,1234026,66305,7295,617049,0
0,-1,644348,220837,1272921,66609,7617,636490,0
0,-1,648702,221682,1253258,66835,7795,626724,0
0,-1,640556,218972,1351544,65669,9394,675686,0
0,-1,637350,218676,1169533,65656,7473,584791,0
0,-1,640443,219079,1264019,65758,7706,632070,0
0,-1,639359,218123,1250565,65466,7516,625379,0
0,-1,640661,219706,1378502,65997,7244,689309,0
0,-1,636581,217961,1150738,65475,7220,575350,0
0,-1,638679,219052,1231187,65847,7671,615635,0
0,-1,642725,219364,1173630,65817,7504,586847,0
0,-1,636856,218079,1173565,65455,7616,586724,0
0,-1,642055,218434,1146453,65608,8011,573172,0
0,-1,665847,223793,1204715,69147,8659,602282,0
0,-1,639636,219329,1236417,66140,7497,618297,0
0,-1,642898,218809,1197175,65708,8825,598603,0
0,-1,639047,218671,1273175,65554,8699,636569,0
0,-1,664873,224520,1253327,69174,8755,626642,0
0,-1,640691,218252,1354420,65303,8594,677151,0
0,-1,637350,218815,1248173,65502,8232,624102,0
0,-1,637504,218272,1258897,65271,8193,629469,0
0,-1,661701,223401,1222315,68848,9423,611024,0
0,-1,637539,218124,1278767,65375,7946,639478,0
0,-1,659866,222671,1150487,68696,8184,575179,0
0,-1,640416,219875,1272772,66276,7008,636506,0
0,-1,640359,218876,1198551,65659,7235,599304,0
0,-1,661646,223762,1250105,69017,8497,624872,0
0,-1,635391,217681,1293964,65337,7025,646989,0
0,-1,661445,223102,1233919,68883,8075,616977,0
0,-1,639557,218358,1254122,65493,7948,627023,0
0,-1,642570,218561,1214910,65521,7745,607401,0
0,-1,637554,217761,1273392,65287,6985,636653,0
0,-1,640306,219916,1174862,66280,7234,587384,0
0,-1,643828,219938,1277781,66228,8076,638390,0
0,-1,641811,218363,1213445,65510,7256,606711,0
0,-1,646237,220150,1191339,66272,7973,595621,0
0,-1,636700,217715,1229617,65260,7072,614777,0
0,-1,645212,219096,1169991,65875,7450,584687,0
0,-1,642019,218032,1243824,65386,7773,621974,0
0,-1,640683,218379,1300869,65453,7897,650314,0
0,-1,640669,218094,1165218,65407,6987,582642,0
0,-1,646198,220075,1177331,66232,6939,588775,0
0,-1,653365,223538,1278843,68480,8323,639392,0
0,-1,634631,218109,1172902,64875,6575,586426,0
0,-1,635945,219174,1250310,65281,7494,625045,0
0,-1,635353,218934,1197628,65246,7741,598721,0
0,-1,633312,218152,1230757,64890,7316,615355,0
0,-1,634581,218271,1225872,64992,7046,612885,0
0,-1,639116,218382,1230437,65040,7418,615204,0
0,-1,633209,218099,1231846,64954,7373,615806,0
0,-1,633850,218078,1312664,64863,7262,656379,0
0,-1,638896,219987,1197611,65749,7310,598689,0
0,-1,637869,218355,1145908,66010,7858,572927,0
0,-1,638302,218472,1253197,65995,8640,626526,0
0,-1,638569,218400,1265985,65971,8390,632973,0
0,-1,639759,218186,1180413,65913,8196,590084,0
0,-1,634750,217533,1261468,65611,8172,630735,0
0,-1,636955,218388,1257915,66013,8018,628802,0
0,-1,635695,217431,1269382,65657,7817,634446,0
0,-1,636205,217971,1199274,65899,7104,599700,0
0,-1,639869,217979,1217601,65838,7396,608857,0
0,-1,640263,218837,1175629,66424,7341,587764,0
0,-1,640011,219469,1249098,66555,7759,624302,0
0,-1,639685,218143,1249967,65949,7841,624999,0
0,-1,638947,217682,1155150,65748,6660,577564,0
0,-1,640149,217687,1191601,65750,7607,595754,0
0,-1,639870,218385,1220545,66024,7334,610293,0
0,-1,637901,218173,1228686,65950,6868,614355,0
0,-1,640254,218020,1163990,65825,7931,582030,0
0,-1,638967,219830,1251376,66758,8377,625669,0
0,-1,637324,218101,1248948,65926,8000,624413,0
0,-1,636941,217996,1169643,65876,6919,584735,0
0,-1,637491,218208,1260198,65898,7675,630072,0
0,-1,638213,218213,1307220,65957,8816,653540,0
0,-1,639027,218210,1227164,65961,7134,613636,0
0,-1,635452,218896,1143968,66375,7584,572010,0
0,-1,636047,217651,1276832,65755,8068,638276,0
0,-1,640665,218459,1262741,65962,7890,631491,0
0,-1,637249,217261,1245181,65646,7292,622634,0
0,-1,638103,217309,1353131,65636,8156,676547,0
0,-1,641069,217831,1122753,65791,7114,561413,0
0,-1,645330,218702,1235250,66105,7394,617669,0
0,-1,633485,217205,1222081,65539,7034,611070,0
0,-1,636133,217501,1118143,65657,7233,559072,0
0,-1,639077,218375,1205431,65952,7775,602747,0
0,-1,639160,218395,1131280,65848,7338,565652,0
0,-1,638899,218114,1140517,65753,7287,570368,0
0,-1,662602,223111,1272348,69185,8294,636130,0
0,-1,641816,218948,1232775,65990,7060,616425,0
0,-1,641327,218474,1256321,65879,8092,628273,0
0,-1,642699,218255,1224430,65784,7380,612236,0
0,-1,641820,218471,1100030,65824,7295,550044,0
0,-1,645507,220201,1181109,66718,7862,590443,0
0,-1,665238,223061,1274868,69192,8317,637460,0
0,-1,637464,218468,1235327,65875,7651,617759,0
0,-1,656865,223191,1324592,69205,8966,662254,0
1,-1,691867,237220,1206385,70751,7274,603257,0
1,0,762762,265270,1358670,78309,9047,679360,11
1,-1,697788,238223,1311544,71339,8191,655845,0
1,-1,689021,236711,1285470,70509,6676,642776,2
1,-1,689342,235744,1276207,70321,7851,638112,0
1,-1,643478,220277,1238934,66622,7057,619526,0
1,-1,636829,217713,1141132,65409,6986,570591,0
1,-1,636882,218300,1181263,65524,6445,590674,0
1,-1,637089,218192,1228420,65471,7537,614269,0
1,-1,639945,218317,1292242,65499,8455,646124,0
1,-1,635742,218856,1233269,65694,8062,616684,0
1,-1,633645,218057,1270528,65522,6896,635235,0
1,-1,636446,218551,1171800,65705,7940,585832,0
1,-1,635229,217992,1160603,65550,6854,579696,0
1,-1,636673,218422,1154957,65670,6507,577385,0
1,-1,636437,218026,1273120,65454,7894,636357,0
1,-1,631280,217148,1235582,65175,7798,617563,0
1,-1,633948,217649,1312216,65263,7725,656233,0
1,-1,635266,217193,1265994,65281,8151,632943,0
1,-1,641824,219747,1313919,66260,8555,656708,0
1,-1,635652,217782,1227569,65435,7591,613837,0
1,-1,646396,220873,1369716,66659,7295,684894,0
1,-1,644092,219319,1188536,65968,7471,594270,0
1,-1,635240,218268,1167209,65579,7257,583622,0
1,-1,643962,220062,1146479,66037,6956,573284,0
1,-1,641750,219637,1203151,65930,6825,601638,0
1,-1,640925,219368,1189175,65903,7664,594638,0
1,-1,643991,220795,1290588,66632,7958,645306,0
1,-1,638832,217864,1223875,65363,6881,612030,0
1,-1,638132,218680,1165093,65820,7164,582572,0
1,-1,658146,222840,1209117,69005,7928,604596,0
1,-1,641500,218777,1353636,65905,7526,676971,0
1,-1,642495,218899,1221071,65890,8165,610355,0
1,-1,640324,218130,1282978,65634,8089,641529,0
1,-1,636199,218362,1195385,65752,6599,597278,0
1,-1,635215,218589,1154516,65765,7251,577285,0
1,-1,639618,219891,1318495,66457,7758,659336,0
1,-1,638351,219251,1258042,66015,6491,629109,0
1,-1,637513,219261,1262887,66245,7274,631510,0
1,-1,637789,218503,1187393,65802,6795,593698,0
1,-1,633459,218146,1178992,65619,6523,589545,0
1,-1,636577,218636,1217071,65858,6884,608578,0
1,-1,638292,219089,1265762,65953,7068,632869,0
1,-1,633533,218132,1183293,65530,6716,591689,0
1,-1,639984,219282,1222225,65954,7021,611153,0
1,-1,634274,218554,1290966,65663,7664,645509,0
1,-1,636037,218366,1185858,65622,6831,592965,0
1,-1,656806,223184,1312059,69048,8058,656091,0
1,-1,636116,218527,1120468,65663,6734,560277,0
1,-1,637397,219164,1222204,65864,7007,611119,0
1,-1,639228,218577,1163288,65735,6847,581704,0
1,-1,657567,223519,1204801,69140,7980,602469,0
1,-1,642055,219878,1254241,66345,7279,627292,0
1,-1,660748,222929,1194284,68949,7844,597226,0
1,-1,636837,218676,1155250,65742,6876,577681,0
1,-1,637730,218369,1174913,65625,6887,587512,0
1,-1,663535,223742,1207787,69147,8185,603909,0
1,-1,633361,218290,1175884,65603,7302,587986,0
1,-1,665370,228317,1312097,68625,7345,656010,0
1,-1,638567,219406,1246829,66161,6826,623480,0
1,-1,640689,220531,1336297,66589,8400,668148,0
1,-1,634981,218171,1385377,65481,8168,692119,0
1,-1,636192,218433,1159851,65692,6829,579988,0
1,-1,640623,220760,1263159,66652,7510,631668,0
1,-1,639180,219094,1290669,65847,6801,645375,0
1,-1,640104,219027,1204206,65834,7007,602135,0
1,-1,637750,218237,1305883,65518,6858,652983,0
1,-1,638908,218769,1380113,65858,9093,689413,0
1,-1,640622,218560,1191973,65686,7883,596035,0
1,-1,639500,219832,1190990,66067,6193,595543,0
1,-1,659834,223760,1203351,69140,7904,601670,0
1,-1,637491,218821,1179129,65652,6973,589687,0
1,-1,637625,218827,1174630,65659,7037,587362,0
1,-1,635604,217171,1195494,65092,6753,597792,0
1,-1,641568,219108,1212899,65755,6380,606480,0
1,-1,648425,220719,1270936,66541,7879,635553,0
1,-1,638356,218619,1305861,65551,7212,652956,0
1,-1,637597,219115,1126080,65688,6815,563074,0
1,-1,643037,219363,1274462,65859,7337,637035,0
1,-1,644098,220763,1265772,66387,8040,633000,0
1,-1,648113,221326,1293335,66842,7609,646761,0
1,-1,641939,219206,1252321,65825,7736,626194,0
1,-1,636444,219535,1220778,65824,7588,610433,0
1,-1,639242,219466,1252524,65789,7653,626275,0
1,-1,662775,225022,1222378,69408,8115,611283,0
1,-1,638656,219316,1147708,65707,7609,573894,0
1,-1,641460,219435,1217373,65784,7416,608718,0
1,-1,640601,219471,1249319,65876,7679,624695,0
1,-1,644779,219608,1155194,65944,7383,577642,0
1,-1,638825,219103,1212278,65843,7361,606185,0
1,-1,640774,219058,1140723,65682,7110,570399,0
1,-1,647149,221459,1319245,66784,8397,659445,0
1,-1,639195,218143,1146778,65547,7770,573436,0
1,-1,640152,218835,1260079,65751,7139,630041,0
1,-1,639774,218631,1171873,65583,7436,585924,0
1,-1,642638,218363,1261501,65518,8168,630764,0
1,-1,638652,218791,1276188,65772,8211,637939,0
1,-1,635627,218167,1192524,65493,7042,596226,0
1,-1,638525,218196,1247428,65418,7708,623696,0
1,-1,641308,218878,1266859,65639,8475,633357,0
1,-1,640043,218247,1282423,65570,8918,641097,0
1,-1,640789,218180,1241082,65481,8283,620426,0
1,-1,637811,218969,1207832,65824,7533,604032,0
1,-1,640393,218611,1330686,65571,8020,665374,0
1,-1,640466,218228,1151919,65494,7894,575906,0
1,-1,640717,218073,1159801,65248,7764,579844,0
1,-1,646803,220538,1338139,66359,8561,669103,0
1,-1,639279,220048,1277029,66072,8058,638562,0
1,-1,637897,218572,1142782,65390,7183,571334,0
1,-1,641459,218711,1264977,65485,8173,632397,0
1,-1,657800,222748,1253549,68725,8527,626785,0
1,-1,638071,218211,1247805,65479,7820,623650,0
1,-1,659565,224008,1179778,69127,7574,589887,0
1,-1,636251,217767,1224585,65282,7199,612187,0
1,-1,639054,218809,1244450,65643,8258,622323,0
1,-1,648720,220938,1198284,66501,7470,599090,0
1,-1,640960,218623,1235847,65595,7510,617892,0
1,-1,642904,219743,1192468,66075,7797,596327,0
1,-1,642616,218818,1150658,65683,7725,575289,0
1,-1,661017,223321,1257791,68902,7464,628906,0
1,-1,645789,219927,1267707,66194,7937,633860,0
1,-1,640045,218658,1173430,65603,7561,586571,0
1,-1,641737,218289,1248971,65378,7685,624443,0
1,-1,640077,217263,1304622,65064,7540,652245,0
1,-1,639576,217725,1159663,65298,6959,579857,0
1,-1,642790,218801,1242662,65633,7833,621350,0
1,-1,667518,227226,1328070,68063,7981,663889,0
1,-1,641221,218858,1291793,65657,7536,645814,0
1,-1,640302,218286,1283751,65358,7078,641941,0
1,-1,639783,217943,1246486,65305,7008,623223,0
1,-1,632934,218586,1241307,65079,6694,620704,0
1,-1,634778,218555,1245263,65070,7572,622616,0
1,-1,632934,218381,1131805,65012,7504,566053,0
1,-1,633729,218529,1212374,65056,7436,606028,0
1,-1,633900,218283,1154894,64952,7001,577330,0
1,-1,632788,217691,1232411,64763,7412,616191,0
1,-1,636632,217837,1222907,64821,7614,611535,0
1,-1,632469,218025,1254745,64849,7596,627367,0
1,-1,642296,220717,1164969,66045,7104,582452,0
1,-1,633737,218243,1199821,65000,7636,599904,0
1,-1,653266,222313,1270981,68207,8255,635547,0
1,-1,641840,219444,1174048,66544,7842,586887,0
1,-1,637275,217581,1158031,65612,7511,579027,0
1,-1,660575,222582,1288406,69187,9083,644113,0
1,-1,635471,218348,1181104,66019,7722,590550,0
1,-1,638269,217871,1236604,65764,9119,618222,0
1,-1,637390,217733,1269879,65736,8123,634805,0
1,-1,637232,218344,1151897,65952,6322,575822,0
1,-1,640624,218592,1160385,66111,7458,580185,0
1,-1,637456,218105,1231011,65856,7782,615505,0
1,-1,635434,218146,1370838,65917,7765,685460,0
1,-1,639009,218207,1204817,65966,7238,602418,0
1,-1,640269,218542,1251410,66074,6948,625648,0
1,-1,643379,220077,1186503,66746,7105,593236,0
1,-1,640366,218753,1150534,66080,7652,575184,0
1,-1,637030,218210,1183592,65931,6918,591755,0
1,-1,644286,220300,1193797,66916,7642,596906,0
1,-1,634668,217947,1146097,65836,8025,573054,0
1,-1,638341,218680,1286786,66082,8370,643301,0
1,-1,636335,217599,1169001,65723,7718,584490,0
1,-1,635737,217760,1255626,65788,7721,627864,0
1,-1,640335,218829,1361132,66148,8700,681393,0
1,-1,641284,219362,1240960,66499,8632,620518,0
1,-1,640276,217677,1213874,65737,7048,606943,0
1,-1,636885,218396,1355026,66015,8260,677122,0
1,-1,643335,219990,1156588,66757,7358,578374,0
1,-1,656475,222235,1301553,69010,8550,650726,0
1,-1,647034,220520,1326405,67068,8406,663569,0
1,-1,642087,218623,1151382,66072,7195,575715,0
1,-1,645289,219499,1229896,66396,7529,614992,0
1,-1,635130,218021,1317618,65810,7597,658810,0
1,-1,633871,217342,1253466,65627,7732,626806,0
1,-1,643041,218936,1265621,66131,8414,632902,0
1,-1,639036,218576,1254553,66038,7360,627335,0
1,-1,641799,219382,1276287,66119,7650,638228,0
1,-1,644152,218631,1155957,65929,7169,578027,0
1,-1,638099,218225,1198453,65809,7408,599281,0
1,-1,637771,217404,1170134,65486,7323,585060,0
1,-1,644385,219399,1254999,66162,7744,627584,0
1,-1,639092,217484,1200350,65462,7815,600178,0
1,-1,639635,218122,1262794,65730,8077,631424,0
1,-1,644615,218435,1144318,65900,7497,572216,0
1,-1,638723,219371,1236493,66145,7263,618141,0
1,-1,634834,218640,1178897,65915,7281,589403,0
2,-1,688383,236038,1156186,70322,7068,578162,0
2,0,757188,265308,1469861,78331,8092,734960,11
2,-1,696258,237566,1319659,71048,8315,659955,0
2,-1,691656,236873,1204224,70579,6798,601937,0
2,-1,635755,217662,1411433,65531,8182,705133,0
2,-1,635602,217896,1228565,65469,6717,614353,2
2,-1,639363,218037,1238010,65601,7536,619097,0
2,-1,634344,217436,1260465,65275,6294,630316,0
2,-1,642350,220637,1236212,66554,6929,618268,0
2,-1,637281,217531,1162826,65180,6843,581495,0
2,-1,632967,217860,1133446,65341,7047,566811,0
2,-1,633502,218479,1270687,65644,7193,635267,0
2,-1,634267,218114,1154712,65594,6899,577335,0
2,-1,637294,219463,1198436,66299,7739,599279,0
2,-1,639058,219595,1287701,66189,7709,643696,0
2,-1,638720,218168,1154704,65506,7828,577408,0
2,-1,640569,218161,1145193,65592,7334,572390,0
2,-1,634875,217892,1186611,65396,7533,592961,0
2,-1,638514,218305,1192788,65544,7604,596437,0
2,-1,656898,222362,1255739,68747,8560,627919,0
2,-1,636177,218306,1340809,65684,7357,670484,0
2,-1,640883,219161,1271995,66170,8597,636036,0
2,-1,649443,221387,1276517,66834,7342,638308,0
2,-1,642444,220651,1270240,66595,7484,635174,0
2,-1,639998,218943,1177104,65644,7277,588606,0
2,-1,641056,219730,1271689,66139,7360,635942,0
2,-1,638728,218945,1296821,65973,8080,648467,0
2,-1,636910,218336,1346621,65521,7356,673283,0
2,-1,641617,219215,1259114,65895,7389,629602,0
2,-1,637615,218135,1162412,65586,7018,581270,0
2,-1,641606,219092,1273706,65952,7995,636926,0
2,-1,640172,219025,1180185,65934,7075,590152,0
2,-1,640295,218590,1259581,65823,8320,629808,0
2,-1,640654,218658,1173402,65855,7586,586615,0
2,-1,643656,218439,1207863,65819,7212,603962,0
2,-1,636094,219168,1355022,66014,7742,676851,0
2,-1,636950,218801,1223817,65903,7303,611894,0
2,-1,636849,219421,1222846,66295,6955,611532,0
2,-1,635437,219114,1234097,65978,6939,617116,0
2,-1,640833,220065,1278525,66594,7470,639337,0
2,-1,637012,219959,1257956,66558,7497,629044,0
2,-1,631753,217586,1225800,65460,7387,612890,0
2,-1,641162,220105,1197048,66567,7185,598632,0
2,-1,658907,223256,1207546,69054,8491,603858,0
2,-1,636293,218659,1165773,65656,7181,582905,0
2,-1,636624,219578,1233049,66242,7145,616241,0
2,-1,636081,218769,1237442,65805,7316,618789,0
2,-1,636957,219283,1304837,65971,7688,652451,0
2,-1,639485,220080,1201738,66399,7143,600917,0
2,-1,638455,218463,1255096,65704,7225,627651,0
2,-1,655344,222480,1196311,68785,7839,598149,0
2,-1,637710,219259,1197907,65993,6985,598999,0
2,-1,640133,219056,1297952,65854,6649,649080,0
2,-1,640266,219352,1175028,65971,7077,587560,0
2,-1,638751,218584,1222659,65653,6877,611428,0
2,-1,641486,220306,1245053,66524,6923,622582,0
2,-1,641277,218685,1206692,65731,7602,603412,0
2,-1,637256,220048,1255317,66488,7239,627729,0
2,-1,637668,218731,1214727,65732,6563,607408,0
2,-1,635945,218775,1159355,65793,6481,579870,0
2,-1,657105,223293,1326992,69017,9540,663440,0
2,-1,643740,221375,1330337,66984,7822,664770,0
2,-1,660033,223601,1163153,69143,7745,581564,0
2,-1,635329,218909,1265914,65839,7844,632968,0
2,-1,636936,218630,1334691,65784,8173,667120,0
2,-1,637373,218662,1182771,65765,6913,591475,0
2,-1,643157,221032,1278283,66787,7389,639197,0
2,-1,639830,218321,1205169,65574,7309,602618,0
2,-1,639191,217900,1173410,65464,7141,586748,0
2,-1,634934,218505,1193041,65681,6188,596566,0
2,-1,639827,218981,1192768,65759,7051,596504,0
2,-1,642176,219327,1500264,66013,9108,750272,0
2,-1,637467,218953,1159964,65693,6820,579994,0
2,-1,659751,223351,1210688,68936,8402,605371,0
2,-1,641068,219067,1182110,65766,7020,591095,0
2,-1,662884,223079,1209382,68829,8405,604646,0
2,-1,645790,221483,1322179,66884,7749,661076,0
2,-1,647258,221008,1202222,66543,7897,601164,0
2,-1,640187,218366,1149034,65611,7464,574527,0
2,-1,642792,220128,1329859,66102,8901,664644,0
2,-1,642460,219809,1254078,66079,7123,627086,0
2,-1,644315,219367,1171952,65941,7438,586005,0
2,-1,639297,220866,1220064,66454,7751,610078,0
2,-1,642902,221372,1237929,66637,8067,619004,0
2,-1,639202,219889,1261058,65956,7312,630564,0
2,-1,643851,220249,1233397,66069,7373,616768,0
2,-1,640494,218803,1241142,65548,7387,620488,0
2,-1,642063,219892,1215307,66060,7093,607699,0
2,-1,642780,219244,1231789,65798,7515,616037,0
2,-1,640043,219560,1328717,65937,7450,664429,0
2,-1,640502,219297,1296901,65798,7433,648549,0
2,-1,662873,224325,1330459,69210,9713,664870,0
2,-1,664091,224193,1569686,69263,9079,784459,0
2,-1,638029,218416,1242985,65520,7576,621579,0
2,-1,641744,219412,1376259,66091,8008,688150,0
2,-1,645435,220215,1264266,66423,8130,632178,0
2,-1,634964,218245,1157068,65619,6995,578340,0
2,-1,638121,218865,1267402,65734,8103,633606,0
2,-1,660175,223095,1236785,68812,8477,618319,0
2,-1,636630,218048,1158222,65406,7776,579156,0
2,-1,637443,218116,1436174,65579,9246,717191,0
2,-1,639651,217746,1149894,65385,7667,574998,0
2,-1,639380,218600,1163293,65715,8032,581700,0
2,-1,643374,220403,1384588,66448,8727,691467,0
2,-1,640485,218452,1196903,65604,8855,598444,0
2,-1,647308,220286,1288648,66208,7992,644166,0
2,-1,643999,219070,1262032,65603,7992,630985,0
2,-1,636046,219148,1168618,65605,7440,584270,0
2,-1,643920,220142,1371979,66034,8428,686062,0
2,-1,640111,218767,1355139,65529,8915,677059,0
2,-1,636638,218398,1300964,65452,8281,650651,0
2,-1,638141,218372,1324488,65508,7776,661951,0
2,-1,638079,218964,1238170,65712,7300,619159,0
2,-1,640861,220093,1220368,66279,6954,610330,0
2,-1,637256,217806,1206316,65288,8140,603162,0
2,-1,639125,217665,1223808,65196,7547,611919,0
2,-1,638493,217792,1171085,65316,7194,585511,0
2,-1,638847,218427,1192661,65480,7795,596332,0
2,-1,639226,217826,1222467,65286,7920,611282,0
2,-1,638995,218735,1125557,65572,6784,562842,0
2,-1,639645,218138,1297307,65445,7326,648597,0
2,-1,638065,218526,1242939,65568,7578,621765,0
2,-1,639495,217760,1292622,65273,7998,646360,0
2,-1,660216,222415,1291523,68649,8552,645880,0
2,-1,640938,218643,1260014,65563,7595,629970,0
2,-1,639057,217749,1250783,65257,8179,625350,0
2,-1,640105,218048,1267019,65404,7792,633636,0
2,-1,638888,218681,1326601,65549,8993,662898,0
2,-1,647221,220241,1184380,66377,7489,592356,0
2,-1,640944,218141,1145023,65417,7003,572552,0
2,-1,629285,218236,1228799,64899,6939,614311,0
2,-1,638824,220725,1120868,66047,7372,560457,0
2,-1,633508,218568,1347150,65011,8572,673592,0
2,-1,633224,218500,1252575,65075,8212,626318,0
2,-1,638019,218904,1229456,65188,7165,614654,0
2,-1,632205,217243,1133757,64702,6779,566851,0
2,-1,643623,221197,1180230,66211,6948,590120,0
2,-1,633166,218578,1148455,65140,6928,573983,0
2,-1,633995,217836,1228820,64839,7005,614443,0
2,-1,633933,217495,1202598,64642,7717,601180,0
2,-1,632580,218128,1265357,65055,7734,632690,0
2,-1,637454,217947,1228039,65784,7719,614001,0
2,-1,639428,218722,1226344,66080,7752,613088,0
2,-1,639468,219166,1190266,66426,7660,595113,0
2,-1,633602,218171,1242601,65864,7675,621264,0
2,-1,634952,218044,1147965,65887,7632,573926,0
2,-1,642366,220153,1285681,66857,8337,642549,0
2,-1,638222,219234,1234164,66413,7466,617129,0
2,-1,643655,220112,1159341,66858,7020,579600,0
2,-1,643470,219255,1210247,66313,8031,604872,0
2,-1,635961,218163,1377155,65997,8024,687422,0
2,-1,640126,219069,1284722,66418,8806,642074,0
2,-1,639592,218387,1239090,66025,7313,619591,0
2,-1,639793,218004,1240007,65900,7281,619955,0
2,-1,637968,217849,1250546,65807,7825,625299,0
2,-1,644157,219189,1249045,66474,7599,624449,0
2,-1,661778,222664,1277332,69232,8586,638705,0
2,-1,635643,218721,1268910,66131,8373,634612,0
2,-1,657344,222718,1262315,69249,8919,631131,0
2,-1,634820,217642,1115616,65788,7343,557645,0
2,-1,635835,217975,1256826,65849,7822,628425,0
2,-1,641254,219796,1401138,66725,8623,700663,0
2,-1,636802,217728,1349858,65756,8039,674932,0
2,-1,642487,218754,1180809,66191,7431,590441,0
2,-1,637245,218466,1438321,66029,8776,718448,0
2,-1,659340,222242,1305383,68961,8549,652640,0
2,-1,639855,218185,1223726,65955,7830,611561,0
2,-1,662611,222728,1489933,69237,9398,744425,0
2,-1,644631,219815,1168735,66724,7375,584261,0
2,-1,638135,217429,1258793,65617,7581,629488,0
2,-1,636597,218052,1221721,65833,8572,610845,0
2,-1,640253,218354,1322499,65922,7631,661292,0
2,-1,642402,219134,1215197,66394,7872,607650,0
2,-1,640921,219714,1179913,66581,7350,590056,0
2,-1,640914,219475,1222812,66390,7817,611464,0
2,-1,643087,218123,1238957,65734,7968,619502,0
2,-1,638296,218310,1151217,65772,7007,575659,0
2,-1,639667,218042,1232469,65748,8048,616269,0
2,-1,643426,219129,1160793,66303,7103,580509,0
2,-1,643909,220022,1115000,66588,6882,557552,0
2,-1,642789,218546,1247296,65860,7598,623771,0
2,-1,642962,218476,1304632,65915,7700,652381,0
2,-1,639401,220108,1139915,66666,7988,570053,0
2,-1,639602,219105,1297856,66026,8609,648896,0
3,-1,690557,236231,1229727,70458,7646,614939,0
3,-1,693894,237174,1241086,70738,7689,620599,0
3,0,762800,266645,1406788,78926,8709,703531,11
3,-1,690449,236853,1283675,70632,6736,641942,0
3,-1,636068,217777,1250081,65485,6839,625078,0
3,-1,644408,220469,1373869,66668,9202,686992,0
3,-1,639269,219968,1258440,66432,6751,629272,2
3,-1,642967,219924,1226346,66349,7072,613253,0
3,-1,657685,222747,1242015,68791,8014,621074,0
3,-1,644034,220258,1253576,66279,7498,626862,0
3,-1,632680,217977,1283525,65440,7932,641858,0
3,-1,657425,222572,1275792,68742,7970,637984,0
3,-1,636557,217920,1174055,65439,7498,587030,0
3,-1,651288,221580,1191526,68534,7409,595623,0
3,-1,634893,217703,1141188,65393,6699,570465,0
3,-1,645251,221263,1271074,66867,8353,635308,0
3,-1,637844,217559,1132084,65331,7028,565763,0
3,-1,633775,218060,1217614,65413,7259,608939,0
3,-1,641375,219798,1419383,66346,8680,709706,0
3,-1,634444,217317,1269418,65214,7941,634681,0
3,-1,636533,218236,1297037,65688,7576,646857,0
3,-1,637815,218260,1220038,65671,7620,610039,0
3,-1,641851,218863,1169478,65837,7302,584822,0
3,-1,655480,222318,1244781,68681,8108,622383,0
3,-1,637331,218121,1248927,65440,7269,624509,0
3,-1,638204,218564,1233602,65525,6798,616888,0
3,-1,638973,218549,1229866,65603,7652,614962,0
3,-1,639892,219063,1250861,65803,7241,625483,0
3,-1,660004,223124,1301896,68944,7691,650969,0
3,-1,657707,222831,1211681,68950,7946,605785,0
3,-1,642517,219198,1382704,66214,8677,691428,0
3,-1,638645,218327,1191622,65703,6828,595900,0
3,-1,638420,218191,1297973,65652,8338,649025,0
3,-1,644888,220686,1249176,66837,8007,624812,0
3,-1,644312,218755,1128994,65860,6766,564557,0
3,-1,659589,227196,1398035,68312,8192,699223,0
3,-1,635026,217982,1174813,65578,6949,587482,0
3,-1,634573,218327,1149228,65758,6636,574650,0
3,-1,658108,222898,1207308,69039,7740,603718,0
3,-1,636164,218044,1279740,65626,7127,639857,0
3,-1,655156,222641,1209641,68938,8105,604881,0
3,-1,655571,222364,1299893,68816,7597,649980,0
3,-1,636798,218680,1184145,65793,7240,592119,0
3,-1,636218,218407,1253294,65595,6883,626630,0
3,-1,638428,219244,1121216,65959,6938,560646,0
3,-1,633338,218231,1260874,65504,7620,630465,0
3,-1,636496,218684,1236420,65717,6853,618261,0
3,-1,636994,218886,1179630,65825,6935,589721,0
3,-1,635083,218581,1173399,65701,6809,586733,0
3,-1,637546,218393,1235938,65626,7468,617981,0
3,-1,639666,218702,1300475,65744,7364,650177,0
3,-1,637474,219702,1277508,66276,7243,638827,0
3,-1,638153,218938,1317301,65837,6554,658730,0
3,-1,635892,218295,1150438,65594,7166,575283,0
3,-1,640548,219413,1310796,65963,7504,655428,0
3,-1,639533,218962,1245112,65862,7515,622708,0
3,-1,639778,218731,1259692,65701,7167,629873,0
3,-1,657121,223683,1207354,69176,7607,603728,0
3,-1,635133,218603,1135700,65736,6543,567893,0
3,-1,638078,219494,1311036,65976,6621,655556,0
3,-1,635184,219014,1297122,65840,8334,648499,0
3,-1,656263,222958,1299580,68931,8679,649645,0
3,-1,637437,219296,1243372,65913,6888,621670,0
3,-1,643368,219505,1263619,66243,7724,631878,0
3,-1,641961,220228,1319201,66457,7989,659640,0
3,-1,639056,218529,1284511,65621,7474,642305,0
3,-1,655725,222801,1185863,68903,7256,592974,0
3,-1,640240,218824,1260338,65720,6889,630207,0
3,-1,660621,223113,1235999,68988,7342,618024,0
3,-1,637292,219515,1230442,66145,7259,615312,0
3,-1,638245,218918,1202430,65816,6852,601020,0
3,-1,639004,218608,1304554,65698,7244,652321,0
3,-1,663966,223465,1331626,69003,8494,665860,0
3,-1,637796,218214,1167742,65421,7427,583911,0
3,-1,639915,219004,1167637,65620,6947,583801,0
3,-1,643051,219957,1306410,66250,7520,653243,0
3,-1,658237,222909,1292430,68734,7986,646140,0
3,-1,640169,218677,1126214,65606,7194,563134,0
3,-1,641034,219427,1378699,65979,8109,689247,0
3,-1,647934,220201,1320543,66108,8781,659924,0
3,-1,644266,220673,1251344,66554,7214,625735,0
3,-1,645716,220337,1249889,66521,7638,625028,0
3,-1,644702,220376,1203033,66079,6796,601545,0
3,-1,637191,219529,1278808,65795,8020,639333,0
3,-1,644145,221558,1270482,66678,7318,635294,0
3,-1,642699,219430,1358252,65699,7650,679208,0
3,-1,640035,219580,1221333,65814,7358,610659,0
3,-1,639709,219364,1137955,65847,6634,569007,0
3,-1,643549,219369,1149199,65883,7640,574616,0
3,-1,639462,219487,1240399,65904,6876,620204,0
3,-1,641510,219191,1251424,65767,7093,625847,0
3,-1,642300,219282,1268625,65750,8684,633999,0
3,-1,641533,219336,1585065,65880,9147,791908,0
3,-1,641675,219223,1261774,65856,7829,630933,0
3,-1,634068,217293,1233271,65155,7574,616680,0
3,-1,662080,223494,1249725,68999,8357,624935,0
3,-1,634946,218067,1319887,65497,8357,659872,0
3,-1,640262,220044,1238442,66391,7962,619215,0
3,-1,640027,218744,1300992,65665,7903,650377,0
3,-1,638073,218879,1248572,65642,8122,624309,0
3,-1,660300,223273,1209383,68996,8276,604675,0
3,-1,641392,218781,1256760,65723,7834,628373,0
3,-1,641014,219779,1240893,66378,7919,620538,0
3,-1,639725,219251,1273119,65845,8457,636529,0
3,-1,641340,218604,1255616,65633,8069,627724,0
3,-1,642113,218762,1174760,65675,7629,587330,0
3,-1,643577,219067,1254580,65610,8114,627235,0
3,-1,636637,218612,1281342,65379,7426,640618,0
3,-1,641462,219735,1264233,65771,8077,632047,0
3,-1,644760,220975,1293583,66457,7581,646383,0
3,-1,639575,218357,1284469,65494,9050,642271,0
3,-1,637052,218237,1294480,65425,8344,647126,0
3,-1,634005,217706,1133866,65194,7225,566963,0
3,-1,660646,223993,1190453,69119,7836,595242,0
3,-1,638417,218190,1388514,65430,8630,694244,0
3,-1,645967,220835,1198252,66613,7893,599119,0
3,-1,637426,218192,1177864,65453,6592,588964,0
3,-1,639519,218322,1154605,65499,7958,577176,0
3,-1,639005,217703,1146793,65246,7631,573403,0
3,-1,639713,219017,1135841,65917,7032,567912,0
3,-1,641730,218757,1143354,65633,7132,571991,0
3,-1,640909,219278,1168842,66024,7237,584397,0
3,-1,640191,218561,1397477,65568,8193,698419,0
3,-1,639544,217543,1259189,65202,8061,629673,0
3,-1,638177,218338,1250412,65517,7334,625152,0
3,-1,638958,217811,1273021,65279,7195,636557,0
3,-1,643095,219340,1207303,66000,7827,603587,0
3,-1,646452,219638,1201439,66184,7978,600712,0
3,-1,662312,222760,1326076,68714,8370,662998,0
3,-1,646464,220637,1150326,66488,6930,575024,0
3,-1,664906,222796,1328367,68728,8212,664182,0
3,-1,632408,218384,1148252,65013,7228,574192,0
3,-1,631128,217684,1385226,64729,8615,692532,0
3,-1,632321,218364,1163181,64969,7469,581551,0
3,-1,635521,218128,1127038,64884,6706,563512,0
3,-1,638190,218804,1266731,65104,7158,633332,0
3,-1,654882,222476,1282903,68141,8163,641456,0
3,-1,631778,217780,1257400,64783,7691,628768,0
3,-1,639079,220123,1164826,65767,7384,582401,0
3,-1,657949,223511,1203275,68488,8098,601578,0
3,-1,636206,218854,1335625,65318,7833,667723,0
3,-1,639712,219082,1261537,66153,7606,630764,0
3,-1,636804,218269,1197203,65881,7906,598571,0
3,-1,641151,218450,1330667,65999,8317,665306,0
3,-1,639011,220005,1188577,66731,8161,594183,0
3,-1,636127,218302,1246651,65986,7977,623305,0
3,-1,657676,222626,1300530,69190,8735,650347,0
3,-1,636806,217875,1330237,65871,7909,665073,0
3,-1,658966,222714,1258360,69222,8280,629229,0
3,-1,638187,217678,1227031,65747,7188,613176,0
3,-1,642857,219366,1262649,66522,8329,631139,0
3,-1,635125,217994,1279055,65851,8549,639470,0
3,-1,640700,218539,1314876,66010,7203,657422,0
3,-1,639192,217909,1231847,65820,6871,615928,0
3,-1,660844,223280,1217677,69407,8512,608768,0
3,-1,639419,217597,1236013,65671,7432,618112,0
3,-1,641050,218058,1244973,65910,7648,622507,0
3,-1,636300,219072,1175675,66393,7931,587636,0
3,-1,635002,218043,1242020,65837,7667,621032,0
3,-1,659252,222782,1210674,69210,8222,605347,0
3,-1,658433,222582,1458227,69177,9532,729102,0
3,-1,660575,223506,1327161,69442,9793,663449,0
3,-1,637821,218111,1307563,65880,8155,653823,0
3,-1,643918,219868,1160955,66762,7032,580447,0
3,-1,660607,222429,1318160,69097,8608,659052,0
3,-1,641335,219145,1195656,66261,7762,597753,0
3,-1,638634,218442,1279807,66044,8112,639935,0
3,-1,640430,218275,1357202,65982,7849,678157,0
3,-1,665899,224013,1297530,70150,9261,648788,0
3,-1,645182,219528,1168633,66639,7259,584394,0
3,-1,640016,219372,1214277,66308,8409,607163,0
3,-1,644158,220330,1153244,66920,7240,576638,0
3,-1,641706,218339,1319383,65895,8314,659726,0
3,-1,639544,218567,1314826,66032,7316,657403,0
3,-1,639901,218065,1325402,65726,7872,662747,0
3,-1,644170,218819,1233956,66062,7198,617028,0
3,-1,659265,222749,1194600,69015,8132,597265,0
3,-1,639519,218578,1252838,65871,7633,626532,0
3,-1,642208,218551,1249498,65912,7673,624842,0
3,-1,637782,217591,1111938,65598,6795,555911,0
3,-1,642889,218403,1347145,65858,7562,673389,0
3,-1,646551,220478,1155554,66784,7432,577837,0
3,-1,634038,217806,1160104,65575,7235,580114,0
3,-1,638202,218271,1228448,65752,8105,614206,0
4,-1,687691,235648,1161516,70201,7086,580737,0
4,-1,689681,236049,1176265,70379,6792,588105,0
4,-1,689366,236559,1197348,70453,7401,598710,0
4,0,706577,247042,1294865,73422,8520,647526,11
4,-1,637270,218717,1166316,65812,6358,583251,0
4,-1,659263,222705,1254378,68894,8267,627224,0
4,-1,635453,217606,1154602,65435,7373,577336,0
4,-1,638371,218349,1145329,65549,6906,572692,2
4,-1,639985,218048,1149810,65426,7361,574963,0
4,-1,639979,217753,1387836,65326,8442,693756,0
4,-1,640052,220531,1407658,66495,8867,703556,0
4,-1,634403,217749,1228316,65377,7524,614190,0
4,-1,657571,222791,1200567,68924,8376,600253,0
4,-1,633154,217887,1132628,65503,6768,566111,0
4,-1,634106,217398,1214047,65310,7420,607082,0
4,-1,657657,222789,1268450,68853,8675,634193,0
4,-1,644623,220494,1191420,66575,8303,595478,0
4,-1,634524,217994,1152724,65438,7166,576345,0
4,-1,658049,222614,1283149,68780,8629,641612,0
4,-1,636131,218350,1240194,65637,8323,620105,0
4,-1,639083,219946,1286969,66403,7897,642991,0
4,-1,634094,217060,1223490,65178,7441,611709,0
4,-1,640922,218850,1267759,65791,7179,633673,0
4,-1,635025,218076,1249527,65377,7214,624879,0
4,-1,634156,217826,1164197,65439,6897,582140,0
4,-1,637912,219170,1202501,65774,7420,601285,0
4,-1,640617,219005,1255763,65784,7526,627877,0
4,-1,645332,220068,1290084,66321,8101,645141,0
4,-1,643352,219135,1317209,65857,7371,658658,0
4,-1,637486,218482,1233625,65743,7419,616840,0
4,-1,641409,218989,1260126,65955,7160,630078,0
4,-1,639340,218140,1307511,65700,7662,653772,0
4,-1,638240,217650,1258849,65567,7952,629465,0
4,-1,658582,222780,1229774,68983,8464,614939,0
4,-1,643069,218204,1327601,65650,7666,663834,0
4,-1,633255,218106,1262206,65617,7704,631183,0
4,-1,640694,220596,1243768,66724,7097,621919,0
4,-1,634468,218022,1161097,65596,7115,580549,0
4,-1,636679,218221,1237592,65663,6691,618807,0
4,-1,638681,219647,1282263,66375,7335,641067,0
4,-1,634996,218408,1163666,65768,7577,581866,0
4,-1,636134,218212,1333426,65696,6459,666749,0
4,-1,634365,218194,1156521,65703,6455,578319,0
4,-1,636393,218839,1206214,65849,6991,603225,0
4,-1,640877,219343,1293645,65971,6828,646868,0
4,-1,633338,218700,1173188,65731,7120,586610,0
4,-1,639469,220432,1243026,66517,7685,621568,0
4,-1,636489,218569,1219328,65709,7372,609709,0
4,-1,636101,219363,1197885,65986,6734,598976,0
4,-1,642545,220892,1266063,66788,7548,633116,0
4,-1,640642,219072,1313953,65848,7132,657018,0
4,-1,634894,218605,1234694,65701,7422,617348,0
4,-1,644823,221286,1269810,66930,7625,634967,0
4,-1,636952,218493,1186282,65649,6832,593233,0
4,-1,636897,218960,1166601,65797,7171,583312,0
4,-1,642188,219673,1202065,66262,7370,601080,0
4,-1,642524,219995,1260756,66204,7661,630445,0
4,-1,634350,218782,1243134,65801,7333,621620,0
4,-1,638156,219222,1254859,65949,6727,627478,0
4,-1,636802,218829,1289753,65836,7202,644922,0
4,-1,638257,220192,1246022,66403,7986,623040,0
4,-1,639737,218962,1306646,65761,7581,652969,0
4,-1,644413,220698,1292664,66636,8380,646297,0
4,-1,640036,218460,1210487,65626,6898,605278,0
4,-1,634448,217532,1265853,65300,7288,632967,0
4,-1,638522,218659,1195737,65791,6849,597913,0
4,-1,639491,218764,1208475,65742,7121,604164,0
4,-1,643745,220395,1388292,66497,7139,694181,0
4,-1,644091,219384,1259105,66151,7860,629388,0
4,-1,636566,218836,1227605,65730,7476,613831,0
4,-1,639393,219919,1247366,66322,6861,623743,0
4,-1,642126,220324,1249019,66569,7303,624589,0
4,-1,643253,219548,1491175,65932,8942,745562,0
4,-1,642919,220137,1251146,66263,7822,625532,0
4,-1,641303,218812,1150832,65636,7237,575457,0
4,-1,640669,218464,1165376,65585,7327,582737,0
4,-1,638596,219323,1363034,65824,7269,681691,0
4,-1,640437,219097,1263558,65703,7634,631950,0
4,-1,638402,218534,1405334,65621,8136,702704,0
4,-1,649828,221534,1338467,66873,8486,669278,0
4,-1,643230,219200,1317540,65922,7569,658817,0
4,-1,644358,219828,1162945,66145,7603,581516,0
4,-1,645681,219071,1170415,65578,7477,585260,0
4,-1,639125,219961,1265887,65931,7866,632985,0
4,-1,666089,229039,1233734,68668,7135,617034,0
4,-1,648849,222488,1285874,67052,7735,642968,0
4,-1,662671,224962,1258395,69389,8236,629222,0
4,-1,640871,219093,1193749,65756,8293,596924,0
4,-1,663085,223714,1211111,69013,8389,605593,0
4,-1,639262,219038,1275468,65767,7003,637774,0
4,-1,641919,219732,1244700,65899,7475,622393,0
4,-1,642520,219911,1468283,66033,9739,733954,0
4,-1,639508,218580,1156104,65619,7506,578016,0
4,-1,641816,219954,1276166,66274,7838,637904,0
4,-1,641780,218563,1160366,65656,7462,580216,0
4,-1,637589,217821,1240130,65255,6979,620061,0
4,-1,637784,218782,1114900,65786,7353,557479,0
4,-1,638284,218438,1279545,65622,7797,639795,0
4,-1,643653,220105,1323534,66281,8146,661577,0
4,-1,638684,219090,1133534,65738,7692,566754,0
4,-1,637203,218182,1264838,65447,7386,632465,0
4,-1,639941,218009,1182689,65449,8330,591362,0
4,-1,659757,223393,1193479,69058,7832,596788,0
4,-1,641202,218613,1185127,65729,7841,592379,0
4,-1,641363,218912,1199485,65766,7474,599625,0
4,-1,647157,220527,1267395,66422,8183,633665,0
4,-1,645363,220153,1264041,66169,7768,632020,0
4,-1,644625,218525,1354864,65402,7959,677473,0
4,-1,637781,218715,1311150,65423,8212,655569,0
4,-1,640674,219217,1169671,65669,7874,584418,0
4,-1,644887,220826,1280218,66506,8246,639835,0
4,-1,637727,218299,1229113,65484,7780,614492,0
4,-1,635271,218588,1239723,65566,7153,619961,0
4,-1,638915,218296,1139385,65426,7042,569672,0
4,-1,641951,219849,1182989,65969,7212,591491,0
4,-1,660906,222514,1228781,68665,8322,614448,0
4,-1,635831,217696,1240807,65252,6825,620344,0
4,-1,642413,218383,1171428,65493,7930,585704,0
4,-1,645121,220458,1269062,66380,7929,634515,0
4,-1,661127,223406,1336189,68944,7785,668086,0
4,-1,640653,218514,1277166,65461,6977,638586,0
4,-1,637329,217976,1199198,65341,6680,599657,0
4,-1,640067,218147,1194917,65327,8248,597357,0
4,-1,646534,220366,1163581,66322,6807,581750,0
4,-1,635356,217650,1167473,65239,6621,583777,0
4,-1,659762,222325,1250608,68519,8024,625266,0
4,-1,640770,218506,1273121,65494,7671,636310,0
4,-1,664008,222817,1288745,68724,8788,644282,0
4,-1,640066,217998,1128577,65335,7330,564287,0
4,-1,661545,222915,1238141,68741,8184,618858,0
4,-1,642815,218326,1248533,65482,6978,624204,0
4,-1,629916,217709,1104135,64671,7255,552016,0
4,-1,632221,217839,1220935,64842,7170,610442,0
4,-1,636055,220086,1186170,65751,7950,593078,0
4,-1,633418,218096,1314073,64877,7691,656946,0
4,-1,641630,220565,1190784,66101,6865,594811,0
4,-1,638723,218912,1185584,65196,7346,592858,0
4,-1,639389,220857,1178835,66082,7541,589395,0
4,-1,634497,218413,1239325,65039,7458,619600,0
4,-1,633894,218222,1163585,64980,7912,581778,0
4,-1,636400,217919,1245498,64931,7230,622747,0
4,-1,639691,219649,1200847,66724,8173,600389,0
4,-1,645178,219621,1274203,66316,8196,636843,0
4,-1,639787,218027,1326848,65762,7739,663660,0
4,-1,655368,223052,1267178,69297,9124,633519,0
4,-1,634057,217922,1114956,65879,7595,557468,0
4,-1,638436,218293,1334006,65984,9143,666980,0
4,-1,636822,218437,1238516,65994,6692,619325,0
4,-1,638761,217957,1196528,65817,6992,598149,0
4,-1,638475,218353,1114441,66008,6875,557230,0
4,-1,637692,217762,1309528,65747,8338,654645,0
4,-1,640984,219059,1332114,66174,8901,666062,0
4,-1,645395,221182,1195522,67259,6706,597744,0
4,-1,638089,217907,1166522,65883,6910,583240,0
4,-1,636575,217925,1165186,65881,8170,582541,0
4,-1,641169,218734,1163715,66123,7745,581810,0
4,-1,639996,217693,1276409,65774,7330,638153,0
4,-1,641577,217903,1216506,65903,8227,608283,0
4,-1,633963,217649,1131833,65723,7536,565902,0
4,-1,654849,222499,1273426,69140,7926,636750,0
4,-1,634781,218050,1149307,65826,6812,574644,0
4,-1,635815,218075,1223640,65940,7363,611459,0
4,-1,638442,218730,1399115,66157,8734,699517,0
4,-1,635708,216764,1212023,65545,7019,605967,0
4,-1,641150,219524,1165740,66564,7088,582916,0
4,-1,637170,217868,1175017,65816,7718,587506,0
4,-1,636962,217757,1226215,65768,8245,613103,0
4,-1,640801,218374,1222181,65970,7408,611113,0
4,-1,641894,218492,1176249,66050,7952,588154,0
4,-1,640493,218168,1219335,65928,7224,609708,0
4,-1,635454,217693,1274722,65734,8901,637349,0
4,-1,659996,222807,1303446,69223,8095,651318,0
4,-1,659210,222590,1284265,69129,8803,642167,0
4,-1,637809,218101,1250819,65830,6638,625457,0
4,-1,643465,219556,1183235,66526,7465,591696,0
4,-1,639493,218504,1218565,65876,6768,609335,0
4,-1,638632,218250,1096060,65802,6616,548075,0
4,-1,637119,217980,1238528,65727,8071,619314,0
4,-1,640606,217568,1128665,65599,6999,564363,0
4,-1,639969,218840,1129283,66051,7576,564627,0
4,-1,641200,218148,1302772,65719,8041,651415,0
4,-1,660653,222370,1280514,68954,8973,640393,0
4,-1,636736,219519,1108425,66428,7522,554263,0
4,-1,637389,218271,1237156,65811,7509,618650,0
5,-1,709496,240440,1306300,73561,8258,653214,0
5,-1,691567,236516,1256451,70483,8262,628251,0
5,-1,690302,237374,1172551,70779,6437,586254,0
5,-1,684017,234697,1301034,69948,7279,650556,0
5,-1,636820,217796,1155088,65502,7613,577639,0
5,0,708039,247613,1476980,73528,9830,738516,11
5,-1,660286,223172,1274899,68997,8138,637562,0
5,-1,635534,217689,1129637,65279,6956,564858,0
5,-1,658754,222427,1271912,68625,8372,635958,0
5,-1,637340,218458,1247305,65594,7575,623697,2
5,-1,631547,218184,1190672,65452,6427,595388,0
5,-1,637574,218903,1143665,65778,7201,571895,0
5,-1,633665,217856,1120960,65465,6629,560554,0
5,-1,635082,217428,1133058,65313,7176,566320,0
5,-1,652719,222094,1236286,68673,7541,618129,0
5,-1,636843,218402,1142760,65623,6776,571416,0
5,-1,664451,223970,1199301,69754,8122,599618,0
5,-1,634403,217947,1239681,65500,7696,619802,0
5,-1,635689,217998,1215717,65511,7700,607904,0
5,-1,640186,219220,1326978,66115,9239,663294,0
5,-1,656248,222861,1256463,68926,8526,628258,0
5,-1,636092,218132,1265976,65615,7361,633203,0
5,-1,639853,218605,1214811,65772,7665,607423,0
5,-1,634825,218161,1167978,65413,8061,583972,0
5,-1,640040,218312,1179653,65516,7682,589868,0
5,-1,663655,223344,1222713,68927,8591,611377,0
5,-1,639049,218580,1179962,65542,6786,590048,0
5,-1,639190,218268,1182360,65558,7747,591201,0
5,-1,643658,219751,1294520,66251,8517,647324,0
5,-1,661758,222849,1236390,68931,8743,618158,0
5,-1,638333,217880,1264280,65556,7800,632185,0
5,-1,640791,218920,1375589,65889,7860,687822,0
5,-1,640486,218824,1233722,65850,7256,616904,0
5,-1,641017,218010,1253563,65592,7402,627011,0
5,-1,643449,219382,1267077,66271,8062,633591,0
5,-1,652967,222690,1302467,68957,7593,651260,0
5,-1,656116,223003,1178659,69061,8025,589310,0
5,-1,632402,218365,1302691,65634,6800,651392,0
5,-1,635170,218347,1151660,65701,6505,575861,0
5,-1,638213,218201,1301749,65646,6881,650908,0
5,-1,636651,219357,1149417,66021,7547,574736,0
5,-1,637348,219044,1248742,65934,6958,624406,0
5,-1,638515,219764,1252647,66402,7452,626171,0
5,-1,632234,217690,1174441,65403,6829,587229,0
5,-1,637552,218111,1241178,65472,7203,620583,0
5,-1,636532,220375,1267484,66589,7495,633798,0
5,-1,635027,219033,1194825,65833,6774,597451,0
5,-1,633657,218141,1182386,65533,7291,591344,0
5,-1,641141,220778,1335626,66715,7574,667725,0
5,-1,637499,218771,1225458,65766,6519,612800,0
5,-1,641616,219948,1266390,66356,7201,633231,0
5,-1,644876,220311,1323160,66567,7876,661503,0
5,-1,638093,219180,1251518,65923,7026,625809,0
5,-1,643332,221314,1286716,66895,7302,643392,0
5,-1,641926,219143,1267620,65915,7621,633851,0
5,-1,639755,218436,1113042,65658,7443,556567,0
5,-1,646602,220558,1274418,66648,7604,637247,0
5,-1,633513,218628,1259139,65696,6753,629610,0
5,-1,635176,219002,1336808,65854,7349,668439,0
5,-1,635320,218808,1243947,65764,6954,622023,0
5,-1,639916,218938,1168722,65780,7021,584428,0
5,-1,639252,219816,1350261,66238,8061,674792,0
5,-1,639679,219134,1346585,65845,7494,672876,0
5,-1,641313,219167,1294524,65921,7038,647313,0
5,-1,658339,223678,1222062,69209,8219,611118,0
5,-1,658158,223138,1177445,69017,7286,588776,0
5,-1,639789,218282,1205970,65625,7592,603010,0
5,-1,639606,219084,1390103,65921,8634,695065,0
5,-1,639816,218384,1182159,65671,7279,591143,0
5,-1,640567,221047,1292345,66783,8452,646141,0
5,-1,637794,219634,1376343,66051,7867,688107,0
5,-1,662917,228086,1335293,68514,6824,667696,0
5,-1,639928,218642,1156306,65589,6844,578192,0
5,-1,638054,219167,1260212,65736,7401,630114,0
5,-1,659113,223250,1156533,68915,7665,578225,0
5,-1,642479,219203,1233379,65779,7071,616728,0
5,-1,637539,218437,1133717,65499,7765,566919,0
5,-1,644304,220665,1349177,66520,8055,674654,0
5,-1,640170,218521,1267879,65727,6932,633998,0
5,-1,664941,223986,1303068,69208,8970,650933,0
5,-1,664098,224588,1216928,69494,7879,608519,0
5,-1,663962,224242,1221943,69378,8474,611072,0
5,-1,650876,221521,1199762,66753,7905,600016,0
5,-1,638372,219690,1176526,65861,7691,588308,0
5,-1,638309,219426,1244617,65701,7468,622349,0
5,-1,665632,225418,1193600,69528,8377,596756,0
5,-1,645217,221251,1353612,66576,7370,676939,0
5,-1,641418,219839,1128826,66032,7467,564459,0
5,-1,643434,219658,1235616,65984,7722,617852,0
5,-1,659049,223712,1181309,69144,8149,590640,0
5,-1,644024,221249,1228949,66703,7043,614425,0
5,-1,642794,220500,1206317,66440,8307,603159,0
5,-1,641068,219439,1259279,65936,8343,629341,0
5,-1,639805,218889,1265304,65704,7994,632734,0
5,-1,642326,218775,1265787,65618,7481,632856,0
5,-1,639553,217870,1253417,65344,8061,626809,0
5,-1,635547,218471,1351424,65592,7942,675748,0
5,-1,642727,220117,1254690,66480,8372,627280,0
5,-1,663977,227216,1334355,68197,8917,667178,0
5,-1,643943,221753,1274554,66955,8856,637239,0
5,-1,660610,223650,1426857,69056,9413,713433,0
5,-1,636241,217306,1150179,65174,7637,575046,0
5,-1,637973,218818,1318006,65794,7971,659152,0
5,-1,662678,223278,1320951,68982,8992,660422,0
5,-1,639049,218051,1181593,65444,7753,590674,0
5,-1,664469,223956,1246275,69084,9039,623111,0
5,-1,643934,219454,1169889,65729,7653,584962,0
5,-1,643386,218438,1233640,65365,8014,616725,0
5,-1,638985,219070,1180117,65570,7633,590059,0
5,-1,640681,219325,1182775,65769,6902,591450,0
5,-1,640885,219126,1458231,65622,8684,729091,0
5,-1,661852,222703,1234698,68698,8846,617424,0
5,-1,644878,220436,1265035,66460,7775,632443,0
5,-1,641508,219974,1228695,66202,6934,614311,0
5,-1,645650,220222,1243226,66378,7604,621595,0
5,-1,665660,227925,1307241,68536,7674,653706,0
5,-1,638482,218013,1141791,65405,7262,570890,0
5,-1,640680,218199,1214624,65427,7183,606930,0
5,-1,642668,218434,1236886,65537,7432,618477,0
5,-1,635088,217927,1260178,65269,7748,630038,0
5,-1,688548,232614,1300975,71664,7968,650523,0
5,-1,637527,218024,1254205,65362,7172,627150,0
5,-1,639930,218409,1287940,65557,7771,643530,0
5,-1,637602,217178,1205206,65138,7098,602599,0
5,-1,637264,218432,1168311,65530,7060,584228,0
5,-1,643002,219430,1223793,65856,7462,611932,0
5,-1,638637,217670,1262196,65229,7724,631002,0
5,-1,642711,218429,1254490,65520,8120,627347,0
5,-1,642051,218967,1357642,65688,8145,678847,0
5,-1,638821,217983,1170178,65323,7414,585121,0
5,-1,641953,218218,1139091,65437,6448,569555,0
5,-1,630923,218427,1161189,65049,7983,580428,0
5,-1,633997,218514,1254037,65011,7428,627030,0
5,-1,656516,223157,1533427,68337,9259,766437,0
5,-1,635834,218721,1254550,65112,7440,627225,0
5,-1,637517,218971,1232587,65207,7190,616348,0
5,-1,635225,217869,1136453,64814,6850,568119,0
5,-1,653139,222702,1337483,68216,8317,668697,0
5,-1,635423,218643,1221451,65110,7546,610696,0
5,-1,631513,217430,1109147,64670,7376,554561,0
5,-1,658768,222860,1270297,68395,8078,634894,0
5,-1,657985,223069,1298923,69345,8675,649395,0
5,-1,645006,220167,1286331,66759,7756,643120,0
5,-1,640676,218668,1311799,66031,8114,655912,0
5,-1,631408,217806,1201769,65787,7718,600918,0
5,-1,633815,217858,1179093,65799,7280,589546,0
5,-1,635525,217656,1292650,65714,8372,645792,0
5,-1,638256,219676,1211801,66703,7170,605869,0
5,-1,638695,219009,1197677,66424,6704,598916,0
5,-1,637472,218399,1283045,65923,7340,641479,0
5,-1,639722,218068,1303459,65884,7757,651549,0
5,-1,641460,219854,1228099,66765,8162,614308,0
5,-1,659501,223221,1272876,69408,8170,636368,0
5,-1,644415,220736,1181677,66979,7774,590890,0
5,-1,635416,217589,1233191,65655,6533,616607,0
5,-1,638208,217560,1269566,65705,8057,634720,0
5,-1,639921,218354,1229867,66022,7548,614909,0
5,-1,645458,219278,1181981,66486,7956,590979,0
5,-1,637546,219523,1192896,66565,7746,596359,0
5,-1,640163,218302,1218942,65932,8169,609488,0
5,-1,636256,218331,1246195,66013,7966,623131,0
5,-1,635248,217713,1184602,65770,8044,592232,0
5,-1,640706,220091,1263148,66907,8228,631564,0
5,-1,639687,217967,1238228,65772,7110,619114,0
5,-1,636441,218422,1253756,66020,7732,626909,0
5,-1,638427,217472,1164209,65693,7333,581927,0
5,-1,637642,217748,1303991,65760,7828,651866,0
5,-1,640631,218970,1216242,66345,8169,607995,0
5,-1,641650,218835,1201219,66148,7738,600562,0
5,-1,640038,218304,1240339,65973,7336,620262,0
5,-1,640619,220144,1232508,66833,8704,616018,0
5,-1,635583,217400,1269389,65547,6515,634688,0
5,-1,639361,218365,1191869,65951,7253,595977,0
5,-1,663643,227266,1364208,68591,7716,682141,0
5,-1,640447,218879,1152097,65998,7170,576126,0
5,-1,644301,219391,1185484,66414,7078,592795,0
5,-1,638057,218346,1156536,65785,6810,578326,0
5,-1,641433,218201,1169038,65760,7355,584579,0
5,-1,642367,218722,1216216,65963,7940,608151,0
5,-1,636910,218125,1177916,65746,8016,588911,0
5,-1,664388,222870,1285034,69107,8609,642552,0
5,-1,641656,217737,1225345,65562,8139,612711,0
5,-1,633997,218212,1152046,65824,7585,575905,0
5,-1,659171,223247,1296289,69232,9315,648256,0
6,-1,687367,236460,1272834,70468,6870,636449,0
6,-1,712113,240756,1243494,73723,9203,621806,0
6,-1,688972,236406,1191312,70467,6850,595720,0
6,-1,696450,239157,1300742,71584,7266,650413,0
6,-1,635547,217552,1266150,65381,7482,633118,0
6,0,712043,249092,1417453,74193,9209,708778,11
6,-1,635436,217830,1132877,65458,6638,566467,0
6,-1,636966,217848,1138071,65335,6283,568997,0
6,-1,636915,217500,1178898,65238,6560,589496,0
6,-1,640706,217909,1149942,65222,6648,575009,0
6,-1,633501,218814,1154715,65686,7339,577425,2
6,-1,636023,218772,1268176,65934,7827,633863,0
6,-1,632779,217817,1183518,65403,7037,591816,0
6,-1,637565,218533,1135621,65656,7895,567927,0
6,-1,634040,217226,1164750,65236,7041,582445,0
6,-1,633492,217961,1331874,65489,7433,666017,0
6,-1,637160,218041,1192887,65471,7668,596432,0
6,-1,633058,217398,1171166,65354,7233,585570,0
6,-1,634220,217345,1294009,65210,8587,647044,0
6,-1,638188,218674,1206724,65718,7953,603494,0
6,-1,635113,217672,1206376,65437,7988,603190,0
6,-1,634878,217915,1215363,65461,7626,607719,0
6,-1,639925,218964,1179669,65778,7398,589910,0
6,-1,642755,218530,1189620,65616,7483,594924,0
6,-1,640349,218728,1236936,65598,7213,618489,0
6,-1,640203,218287,1247812,65418,7637,623962,0
6,-1,641984,220134,1255766,66432,7624,627934,0
6,-1,640273,218972,1128673,65736,7359,564384,0
6,-1,638055,218169,1165315,65561,7585,582688,0
6,-1,641539,218513,1236400,65668,7217,618270,0
6,-1,644956,220338,1295484,66583,8124,647803,0
6,-1,639404,218347,1286860,65753,7760,643378,0
6,-1,640151,219139,1135236,65988,7606,567654,0
6,-1,643216,219136,1175320,66043,7486,587712,0
6,-1,639682,218286,1235319,65732,7512,617760,0
6,-1,630314,217839,1259037,65543,7590,629576,0
6,-1,634334,218564,1147278,65805,7426,573684,0
6,-1,639687,219548,1219172,66138,7260,609642,0
6,-1,635331,218869,1244779,66106,7295,622450,0
6,-1,637231,218421,1306724,65788,7081,653458,0
6,-1,632364,218353,1161915,65759,8122,581014,0
6,-1,667216,229050,1291977,69153,7604,646023,0
6,-1,638546,218520,1177975,65833,7293,589082,0
6,-1,639424,220231,1261922,66608,7532,631036,0
6,-1,659449,223327,1167903,69089,7344,583998,0
6,-1,637020,218306,1220788,65579,7127,610429,0
6,-1,637755,218839,1144461,65778,6840,572241,0
6,-1,640028,220087,1238720,66438,7041,619446,0
6,-1,638846,218630,1261326,65753,7821,630706,0
6,-1,639425,219910,1246611,66343,7304,623379,0
6,-1,637047,218439,1210901,65614,6634,605496,0
6,-1,663078,223688,1337865,69179,8332,668956,0
6,-1,637292,219312,1176353,65972,6914,588234,0
6,-1,656596,222967,1195119,68947,7332,597489,0
6,-1,641021,218641,1174622,65717,7167,587343,0
6,-1,640512,218514,1260878,65648,7294,630493,0
6,-1,661939,223287,1180420,69051,8235,590283,0
6,-1,645009,218987,1229934,65815,7217,614999,0
6,-1,635806,218458,1154333,65706,7065,577221,0
6,-1,632937,218181,1263258,65535,6255,631671,0
6,-1,641877,220387,1283653,66606,7069,641885,0
6,-1,637741,219018,1263245,65828,8107,631157,0
6,-1,637383,218646,1117063,65756,6743,558500,0
6,-1,639548,218879,1232469,65820,6729,616279,0
6,-1,638841,218745,1265898,65784,7382,633034,0
6,-1,639392,219556,1161988,66039,6994,581037,0
6,-1,638656,218585,1206767,65726,7444,603422,0
6,-1,637691,218675,1457241,65763,8414,728423,0
6,-1,640463,218947,1277718,65816,7774,638936,0
6,-1,640920,218448,1172525,65610,7394,586288,0
6,-1,643816,221096,1263813,66848,7396,632081,0
6,-1,639287,220085,1360063,66372,7018,680077,0
6,-1,640197,218751,1230120,65683,7078,615092,0
6,-1,640021,218895,1158919,65678,7061,579504,0
6,-1,640760,219453,1184404,65900,7236,592243,0
6,-1,639892,218643,1176510,65652,7364,588293,0
6,-1,642125,220420,1285559,66390,7553,642857,0
6,-1,640037,219355,1168875,65777,7029,584470,0
6,-1,637292,218031,1231567,65484,7281,615866,0
6,-1,644735,219496,1310019,65999,7881,655089,0
6,-1,643942,219691,1328611,66104,7439,664350,0
6,-1,645232,219488,1231655,66058,6626,615859,0
6,-1,644994,219558,1133022,65793,7401,566543,0
6,-1,637492,219621,1324105,65811,7841,662083,0
6,-1,642516,221056,1189549,66389,7722,594863,0
6,-1,640202,219039,1157884,65566,7252,578997,0
6,-1,640902,219869,1267661,65889,7420,633870,0
6,-1,640885,219832,1129360,66073,6910,564733,0
6,-1,641323,218886,1138355,65673,7303,569221,0
6,-1,640901,220222,1256149,66143,7624,628118,0
6,-1,660116,224210,1208175,69172,7998,604089,0
6,-1,638341,219049,1153569,65781,6850,576821,0
6,-1,642107,218888,1360454,65681,9546,679938,0
6,-1,639280,218833,1336000,65705,7792,667990,0
6,-1,639089,218258,1174499,65454,7511,587291,0
6,-1,642357,219791,1264812,66210,8136,632484,0
6,-1,638770,220208,1341260,66438,7659,670742,0
6,-1,659324,223217,1210363,68949,7896,605222,0
6,-1,641645,220170,1261081,66484,7871,630514,0
6,-1,640078,218203,1202108,65444,7889,601072,0
6,-1,641044,218879,1277855,65709,8230,638956,0
6,-1,645793,220707,1180089,66606,8485,590106,0
6,-1,640301,219690,1259523,66237,7614,629624,0
6,-1,640855,219098,1383538,65818,8567,691420,0
6,-1,644953,220816,1193490,66587,7712,596693,0
6,-1,646357,221095,1266766,66653,8628,633416,0
6,-1,637108,217226,1238628,64997,8246,619294,0
6,-1,644358,219350,1183793,65715,7753,591926,0
6,-1,637359,218667,1271257,65400,7982,635672,0
6,-1,638575,218105,1250975,65195,7853,625534,0
6,-1,637877,218826,1295695,65588,8719,647703,0
6,-1,641154,218695,1300393,65594,8644,650169,0
6,-1,638720,217779,1207734,65293,8313,603839,0
6,-1,633939,217335,1221989,65096,6911,610998,0
6,-1,663180,223749,1225038,69053,8324,612493,0
6,-1,640040,218286,1148396,65502,8008,574574,0
6,-1,637006,217831,1239063,65289,7217,619649,0
6,-1,638979,217969,1167758,65342,6807,583830,0
6,-1,661121,223332,1228457,68910,8209,614209,0
6,-1,643996,218036,1232420,65350,6792,616182,0
6,-1,638059,218292,1230452,65433,6833,615345,0
6,-1,635940,217690,1159567,65336,6860,579825,0
6,-1,643705,220230,1220996,66292,7941,610797,0
6,-1,660564,222780,1281873,68743,7800,640892,0
6,-1,637491,218522,1239787,65513,7581,619860,0
6,-1,637542,217771,1366669,65343,7777,682911,0
6,-1,644995,220493,1180088,66440,7153,590008,0
6,-1,641283,218002,1145393,65328,7393,572775,0
6,-1,643319,218554,1269788,65519,7961,634862,0
6,-1,646684,219687,1189670,66110,7904,594748,0
6,-1,639475,217614,1302531,65147,7370,651150,0
6,-1,633582,218576,1235182,65067,7416,617460,0
6,-1,651211,222537,1273297,68160,8787,636707,0
6,-1,634145,218167,1241332,64942,7247,620541,0
6,-1,635098,218698,1286000,65124,7177,642971,0
6,-1,639968,219865,1185536,65679,7141,592709,0
6,-1,636200,218582,1207463,65092,7332,603679,0
6,-1,630010,217580,1278735,64711,7731,639421,0
6,-1,653081,222638,1315033,68189,8792,657496,0
6,-1,636186,218533,1193333,65070,7092,596574,0
6,-1,635999,218167,1205561,65078,7121,602741,0
6,-1,638758,218467,1167286,66263,7499,583597,0
6,-1,659912,222707,1293207,69195,8702,646586,0
6,-1,641888,219699,1173052,66727,7801,586526,0
6,-1,642035,218377,1272014,65925,8209,636029,0
6,-1,640478,220383,1135474,66917,7754,567653,0
6,-1,635048,217548,1445769,65666,8975,722622,0
6,-1,638351,217964,1268725,65898,7213,634347,0
6,-1,636668,217835,1230680,65774,6923,615355,0
6,-1,643875,220237,1188208,66948,7148,594106,0
6,-1,639420,218035,1253599,65921,8041,626567,0
6,-1,633459,217218,1246523,65548,8844,623041,0
6,-1,637636,218270,1220230,66009,7582,610115,0
6,-1,658845,222725,1368322,69236,8511,684140,0
6,-1,638305,218993,1175760,66238,7113,587916,0
6,-1,642676,219553,1195525,66681,7692,597727,0
6,-1,638712,218117,1251990,65879,7576,625971,0
6,-1,639300,217321,1259472,65708,7846,629721,0
6,-1,638562,218490,1249809,66067,8625,624894,0
6,-1,639659,218816,1268037,66153,8436,633966,0
6,-1,640273,218256,1176597,66021,7777,588312,0
6,-1,637221,218278,1297868,65994,8709,648923,0
6,-1,640507,218077,1231525,65961,8254,615665,0
6,-1,638350,217892,1230245,65883,7535,615142,0
6,-1,642708,220317,1126682,66859,7532,563271,0
6,-1,658749,222176,1217436,69063,7754,608585,0
6,-1,641802,219978,1240621,66800,7453,619874,0
6,-1,640850,218297,1268463,65994,7823,634229,0
6,-1,638218,217904,1341640,65855,8280,670568,0
6,-1,642131,219374,1145715,66436,6469,572918,0
6,-1,655038,222203,1279881,69048,9180,639867,0
6,-1,641774,219475,1130737,66545,7009,565425,0
6,-1,640173,219353,1268443,66545,8006,634202,0
6,-1,639152,218856,1266104,66077,7624,633145,0
6,-1,638902,217732,1229586,65673,7559,614894,0
6,-1,641696,219025,1201846,66091,6986,600980,0
6,-1,639482,218931,1203883,65965,7762,601966,0
6,-1,640737,218023,1319430,65690,8171,659736,0
6,-1,641131,218535,1259951,65778,8079,629976,0
6,-1,648548,220481,1223887,66781,7798,611995,0
6,-1,641023,218183,1125971,65736,7050,562845,0
6,-1,640763,218462,1149832,65820,7675,574965,0
6,-1,632073,217943,1091497,65679,6796,545757,0
6,-1,636248,218692,1234134,65941,8054,617097,0
6,-1,635956,218466,1345002,65821,8227,672722,0
7,-1,693384,236882,1197705,70649,7221,598889,0
7,-1,691996,236491,1242716,70443,7906,621292,0
7,-1,691140,237862,1291127,71085,7110,645623,0
7,-1,692439,235981,1251460,70301,7563,625765,0
7,-1,638212,218771,1293492,65801,7758,646787,0
7,-1,635081,217906,1151579,65473,6863,575887,0
7,-1,641655,220085,1239129,66305,7245,619644,0
7,0,705968,247931,1328272,73636,9085,663997,11
7,-1,638430,218328,1234230,65539,7343,617213,0
7,0,703935,247965,1332145,73656,9375,665910,11
7,0,703289,247173,1254868,73481,8883,627292,11
7,0,709945,249172,1337073,74438,9884,668597,11
7,-1,641980,218670,1108413,65549,7160,554250,0
7,0,708952,248849,1417729,74217,9650,708847,11
7,-1,634388,218069,1351498,65541,7750,675721,0
7,-1,637420,219093,1118267,65813,6846,559137,0
7,0,709722,248121,1329554,73778,9178,664738,11
7,-1,639947,220314,1173388,66605,7494,586794,2
7,0,709086,249205,1410997,74231,9427,705503,11
7,-1,655871,222051,1199777,68602,8543,599875,0
7,0,725076,251500,1435080,76734,10587,717452,11
7,0,706500,247376,1386804,73591,10244,693198,11
7,-1,634887,218200,1202891,65608,6922,601545,0
7,-1,636723,218903,1258653,65836,7443,629408,2
7,0,707315,248006,1717490,73704,9954,857737,11
7,0,708008,248077,1391876,73831,9021,695517,11
7,-1,635310,217518,1182457,65242,7244,591175,0
7,-1,633408,217703,1156262,65372,7172,578197,2
7,0,726902,251351,1407483,76586,9673,703856,11
7,0,710059,248857,1512848,74210,9954,756420,11
7,-1,635629,217873,1164407,65462,7228,582284,0
7,0,712663,248213,1431323,73807,9550,715721,11
7,-1,639409,220355,1274961,66568,8351,637395,0
7,0,707234,248071,1465928,73646,9910,732946,11
7,-1,635414,218028,1277827,65405,8292,639011,0
7,-1,636560,217820,1302813,65473,8963,651174,0
7,0,707524,248081,1496135,73655,9276,748091,11
7,0,712981,250021,1529888,74625,9870,765011,11
7,0,711949,248052,1506566,73573,9614,753304,11
7,-1,639126,217645,1314667,65376,8982,657399,0
7,0,712352,248547,1507078,73745,9292,753582,11
7,-1,637369,217892,1407809,65462,8206,703925,0
7,0,705576,247077,1505213,73282,9090,752629,11
7,-1,640813,218566,1253406,65608,6845,626747,0
7,-1,635702,218238,1212109,65602,7428,606067,2
7,0,711045,249677,1452519,74539,9672,726206,11
7,-1,648374,221783,1263067,67079,8021,631611,2
7,0,708500,247804,1611552,73765,9981,805786,11
7,-1,644145,219671,1269189,66233,8015,634544,0
7,0,706502,247788,1515182,73808,9573,757495,11
7,-1,638528,218547,1234234,65599,7136,617092,0
7,0,708144,247033,1529723,73436,9566,764827,11
7,0,709586,247350,1445545,73595,8865,722786,11
7,-1,638284,218971,1235993,65742,7478,618205,2
7,0,710293,247025,1296962,73544,7760,648519,11
7,-1,644356,220223,1276633,66272,7549,638371,0
7,-1,637815,218929,1154613,65657,6792,577384,2
7,-1,658549,222927,1184295,68853,8227,591971,0
7,0,711948,248338,1284443,73966,9047,642258,11
7,0,710300,247800,1366531,73737,9203,683308,11
7,0,708704,247036,1301073,73543,9385,650474,11
7,0,711935,247839,1296181,73719,8624,648179,11
7,-1,661994,223238,1201770,68944,8818,600908,0
7,-1,642721,220566,1193464,66571,7847,596738,2
7,0,715005,248037,1413832,73812,8928,706989,11
7,0,702389,248195,1388879,73852,9701,694341,11
7,0,703488,248132,1510562,73902,9477,755100,11
7,0,703591,248339,1518947,74008,10357,759672,11
7,-1,636826,218060,1224188,65445,7055,612177,0
7,0,702450,247454,1258006,73605,8404,629050,11
7,-1,641829,219569,1188225,66019,6784,594113,2
7,0,703696,247854,1352616,73820,8391,676329,11
7,0,702829,247489,1372346,73598,8261,686259,11
7,-1,644639,219944,1286546,66300,7507,643363,0
7,-1,634040,218229,1252282,65680,7921,626286,2
7,0,709291,249303,1389730,74506,8953,694952,11
7,0,710463,249612,1420734,74582,9054,710439,11
7,0,704120,248118,1419044,73901,8311,709616,11
7,-1,658523,222456,1233860,68887,8414,616881,0
7,0,723537,251952,1357875,76965,9076,679028,11
7,0,706630,248527,1391776,74025,9072,695907,11
7,0,702391,247069,1488927,73452,9019,744459,11
7,-1,637094,218370,1195415,65773,7457,597766,2
7,0,707673,248577,1390781,74034,8986,695423,11
7,-1,642231,219718,1287571,66385,7636,644085,0
7,0,707950,248451,1393034,73945,8792,696326,11
7,-1,645337,220378,1273806,66676,7127,636977,2
7,-1,637868,218601,1160424,65837,7646,580259,0
7,-1,638382,218815,1216495,65911,7918,608291,2
7,-1,639399,217980,1296388,65597,7522,648085,0
7,0,705095,247939,1388348,73846,8433,694214,11
7,-1,639021,218335,1192328,65787,7767,596132,2
7,0,706562,247994,1498067,73799,8940,749062,11
7,0,706834,247495,1352339,73676,9181,676190,11
7,0,706078,247374,1541641,73587,8817,770906,11
7,-1,663363,223077,1198578,69070,8267,599317,0
7,-1,641577,218732,1305619,65809,7748,652856,2
7,0,705488,247918,1447011,73805,9244,723588,11
7,-1,633133,219338,1209727,66040,7263,604905,0
7,0,709051,248334,1463685,73873,8522,731800,11
7,0,708573,248534,1487231,73938,9003,743710,11
7,0,707842,247945,1499531,73680,9754,749770,11
7,0,708459,248376,1422278,73886,9133,710960,11
7,0,730019,252524,1461789,77001,10166,730834,11
7,0,705041,247263,1402307,73434,8988,701169,11
7,0,707358,247748,1476997,73631,9288,738500,11
7,0,706940,247443,1402512,73524,9003,701266,11
7,0,713095,249423,1509819,74394,9224,754992,11
7,-1,638141,221294,1279530,67026,7666,639814,2
7,-1,634188,218815,1252285,65852,7082,626145,0
7,-1,637302,219576,1207527,66180,6856,603889,2
7,-1,637433,218631,1209993,65866,6905,605077,0
7,0,704664,248598,1409997,73956,8679,705065,11
7,0,708929,249391,1484459,74431,8802,742316,11
7,-1,634370,219183,1202602,66041,6791,601402,2
7,0,707036,247761,1485475,73604,8679,742723,11
7,0,707343,249636,1500433,74519,9285,750273,11
7,0,727388,252884,1475618,77129,9449,737819,11
7,-1,635329,218561,1194686,65742,8178,596992,0
7,-1,634449,218012,1298581,65672,7136,649331,2
7,0,710973,249316,1483182,74186,9163,741622,11
7,0,729927,252397,1466495,76932,10408,733217,11
7,0,702478,247426,1510183,73553,8779,755158,11
7,-1,635602,218725,1236536,65886,6544,618308,0
7,-1,633783,218374,1163801,65775,6750,581930,2
7,-1,630115,217880,1202030,65563,7659,601061,0
7,0,712551,248866,1530474,74173,9779,765332,11
7,-1,638015,220644,1204046,66772,7488,602210,2
7,0,712000,250031,1525376,74683,9729,762775,11
7,-1,633335,218052,1223212,65633,7032,611622,0
7,-1,634333,218525,1162550,65821,6828,581326,2
7,0,706192,247489,1492298,73560,9549,746180,11
7,0,707876,247880,1537167,73679,9653,768625,11
7,-1,636360,218066,1260444,65616,7285,630251,0
7,0,726879,251951,1462442,76852,9840,731225,11
7,-1,653647,222500,1205178,68877,8290,602534,0
7,0,706230,247464,1376055,73519,8874,688090,11
7,0,731739,252877,1472485,77130,9495,736203,11
7,-1,640465,219905,1269149,66341,7061,634628,0
7,0,707212,247835,1487831,73636,9069,743958,11
7,0,729035,253162,1556833,77203,9795,778298,11
7,0,708879,248487,1475101,73867,9109,737541,11
7,-1,664706,224551,1230439,69954,8176,615165,0
7,0,728390,252641,1451724,77079,9593,725829,11
7,0,708304,247571,1400071,73632,8303,700077,11
7,0,708448,247849,1398418,73689,8723,699335,11
7,0,710533,248318,1526059,73882,9261,763107,11
7,-1,654131,222748,1206813,68873,7463,603438,0
7,0,710989,248094,1429115,73793,9641,714640,11
7,-1,632713,218682,1251244,65786,7190,625671,2
7,0,707222,249806,1571243,74554,8855,785657,11
7,-1,634743,218299,1332556,65597,6862,666303,0
7,0,704455,247782,1477885,73633,8623,738870,11
7,0,705068,248109,1435559,73744,8768,717817,11
7,-1,635860,218634,1198730,65795,7384,599420,2
7,0,712056,250047,1525638,74691,9306,762904,11
7,0,705989,247061,1383313,73503,8416,691686,11
7,0,708339,248264,1442135,73821,8920,721082,11
7,0,727822,252682,1452772,77108,9643,726418,11
7,0,706844,247355,1414606,73525,8831,707377,11
7,-1,639334,218924,1173463,65877,7256,586768,0
7,0,711150,248451,1333681,73875,9188,666796,11
7,0,710223,249239,1572301,74331,10532,785912,11
7,-1,632499,217500,1117411,65381,6912,558703,0
7,0,706045,247671,1364584,73673,8529,682343,11
7,-1,633939,218458,1161242,65726,7182,580652,2
7,0,707169,247487,1478926,73520,9227,739505,11
7,-1,636590,218132,1140665,65572,7150,570385,0
7,0,726460,252682,1341645,77065,9540,670859,11
7,0,710394,249219,1553341,74372,9730,776528,11
7,-1,639197,218454,1308369,65703,7174,653978,0
7,0,709964,249364,1495141,74398,9817,747611,11
7,-1,638533,219107,1277377,65907,7306,638789,0
7,0,709990,249123,1774439,74137,11075,887213,11
7,0,709879,249228,1501678,74400,9379,750807,11
7,0,709033,248190,1491388,73778,9390,745648,11
7,0,713857,249407,1507106,74411,9648,753585,11
7,-1,665575,228416,1202908,68685,7058,601428,2
7,-1,636069,219018,1236291,65834,6313,618187,0
7,0,709508,248274,1485027,73810,9146,742577,11
7,-1,640790,219300,1256081,65955,7610,628095,0
7,0,707887,248188,1495377,73742,9437,747737,11
7,-1,637270,219154,1153029,65916,6936,576523,2
7,0,710218,248422,1531117,73907,9397,765534,11
7,0,713050,249813,1483361,74640,9026,741741,11
7,0,709412,247969,1438428,73745,8913,719278,11
7,-1,658959,223105,1207952,69013,8080,603992,0
7,0,709631,247643,1286908,73687,8889,643475,11
7,0,705461,247432,1530384,73449,9261,765215,11
7,0,707012,248223,1389585,73814,8342,694802,11
7,-1,641244,219890,1235235,66356,7107,617700,0
7,0,707871,248213,1435956,73876,8507,717987,11
7,0,712988,249459,1508878,74480,9604,754499,11
7,-1,644913,219576,1251870,66053,7521,626017,0
7,0,709432,248385,1413476,73718,9177,706807,11
7,0,705540,247825,1479087,73431,9346,739585,11
7,0,711567,249478,1509696,74282,9009,754897,11
7,-1,639285,219847,1172693,66338,7730,586401,0
7,0,711064,248450,1491612,73772,10053,745863,11
7,0,712646,249628,1506612,74380,9496,753347,11
7,-1,639708,220919,1310594,66827,7192,655369,2
7,0,712472,249185,1501948,74234,9102,751067,11
7,0,709765,247520,1405953,73458,8708,703014,11
7,-1,637500,220248,1349625,66537,7706,674758,0
7,-1,638504,218967,1259295,65854,7243,629669,0
7,0,713667,249478,1577859,74438,10831,788884,11
7,-1,638080,219454,1389498,65936,8443,694794,0
7,-1,636783,219562,1321600,66020,8068,660870,2
7,-1,638200,219068,1285144,65876,8157,642486,0
7,-1,635932,218677,1134740,65744,7005,567262,2
7,-1,637165,218400,1245254,65594,6511,622657,0
7,0,712069,248540,1499867,73884,9390,749998,11
7,-1,642045,220430,1244975,66622,7426,622568,2
7,0,713637,248873,1518002,73970,9759,758990,11
7,0,713513,248984,1443022,73822,9548,721594,11
7,0,718405,250179,1500407,74266,9709,750269,11
7,-1,638166,219225,1229000,65958,7338,614595,0
7,-1,635813,218603,1222184,65757,6859,611147,2
7,0,706611,248304,1398616,73600,9515,699437,11
7,0,731674,254419,1471591,77429,10260,735798,11
7,0,710580,249355,1402928,73984,9412,701480,11
7,-1,638706,217890,1143575,65462,7407,571826,0
7,-1,660883,227787,1229209,68486,7544,614651,2
7,-1,639110,219311,1266673,65988,7123,633367,2
7,-1,644415,220363,1425188,66535,9292,712803,0
7,0,733252,254675,1474124,77522,10130,737034,11
7,-1,659615,222773,1168168,68830,7618,584003,0
7,0,715600,251025,1484109,74815,9288,742095,11
7,0,712149,250052,1420483,74282,9067,710318,11
7,0,713430,249389,1590827,74018,9196,795411,11
7,0,730905,252277,1451142,76745,10069,725449,11
7,-1,642361,219414,1196254,66021,6756,598179,0
7,-1,642857,218785,1133262,65717,7471,566670,0
7,0,710534,248472,1370324,73719,8609,685261,11
7,-1,659576,223547,1206793,69122,7746,603384,0
7,0,715830,249553,1522804,74377,10097,761491,11
7,-1,636364,218788,1231797,65741,6911,615950,2
7,-1,635582,218123,1401723,65517,8564,700853,0
7,-1,638218,218989,1164978,65892,6451,582686,2
7,0,710658,248255,1423665,73769,10165,711895,11
7,0,710444,248209,1524424,73776,9616,762339,11
7,-1,642833,220034,1286211,66273,7254,643050,0
7,0,708947,247199,1513618,73299,9796,756852,11
7,-1,639590,219457,1234297,65856,7221,617172,0
7,0,713255,248158,1514866,73743,10173,757452,11
7,0,713288,247867,1425523,73567,9252,712778,11
7,0,705969,248129,1376171,73766,9231,688019,11
7,0,707865,248372,1390622,73829,9565,695338,11
7,-1,637584,218746,1214050,65659,7144,607072,2
7,-1,636865,218330,1120421,65449,6635,560215,0
7,0,711431,248117,1588798,73729,10088,794450,11
7,0,708513,247788,1596647,73673,10771,798344,11
7,0,705310,247379,1313430,73405,8469,656623,11
7,-1,639208,219178,1113990,65837,6504,557044,2
7,0,715560,250123,1390874,74542,9992,695499,11
7,-1,640183,218671,1234414,65628,7390,617250,0
7,-1,643039,219478,1274219,65930,7921,637150,2
7,-1,636908,218728,1244895,65525,7733,622529,0
7,0,707495,247887,1440953,73646,9113,720497,11
7,0,712821,249443,1405864,74472,9443,702735,11
7,-1,636622,218863,1156321,65698,6715,578229,2
7,0,709795,247930,1361280,73688,8759,680500,11
7,-1,638482,218652,1208056,65567,7555,604074,0
7,0,708230,247211,1232914,73491,9032,616145,11
7,0,711023,248261,1559599,73852,12469,779289,11
7,0,704081,247519,1955680,73569,11998,977859,11
7,0,709246,248069,1444799,73729,9733,722404,11
7,0,711708,249446,1443908,74444,9227,721894,11
7,0,709139,247843,1426605,73570,9655,713241,11
7,-1,658606,222742,1198582,68760,7645,599401,0
7,0,707812,247922,1320892,73603,9324,660484,11
7,0,729091,252305,1351327,76893,9695,675706,11
7,0,710529,248129,1287130,73711,8851,643460,11
7,0,713670,249049,1402851,74204,10685,701367,11
7,-1,641248,219319,1404776,65923,7679,701678,2
7,-1,642256,219010,1243398,65770,7769,621644,0
7,0,730520,252351,1470732,76811,10626,735352,11
7,-1,642482,219823,1374098,66094,6954,687100,0
7,0,710370,247439,1544252,73330,9806,772074,11
7,0,711178,247716,1408686,73552,10201,704291,11
7,0,714075,250042,1500157,74478,9873,750068,11
7,0,710163,247853,1530712,73546,10113,765338,11
7,0,712374,247752,1533075,73384,10188,766511,11
7,0,711305,247347,1500123,73171,10096,750085,11
7,0,711493,247856,1437250,73417,9153,718537,11
7,-1,642746,218984,1284286,66072,7470,642166,0
7,0,712835,248381,1338535,73643,9669,669250,11
7,0,716557,249386,1424659,74136,9741,712318,11
7,-1,644018,220567,1271708,66416,8022,635857,2
7,-1,647848,220675,1275838,66389,7959,637972,0
7,0,730783,253527,1451792,77038,10272,725938,11
7,0,713134,250107,1507037,74417,9694,753500,11
7,0,709754,248303,1516624,73501,9502,758281,11
7,0,710202,247979,1489062,73412,9841,744535,11
7,0,708120,248055,1519914,73419,9744,759958,11
7,0,708319,248171,1548648,73528,10022,774266,11
7,0,709054,248541,1506017,73693,9550,752868,11
7,-1,638770,220160,1212155,66030,7566,606110,0
7,0,707592,248123,1487864,73516,10161,744337,11
7,0,718829,251143,1549339,74866,11140,773505,11
7,0,710904,248024,1407632,73577,10068,703949,11
7,0,710738,247547,1552743,73362,10367,776661,11
7,-1,637960,219536,1227167,65817,8014,613612,0
7,0,708692,248351,1609187,73704,9589,803782,11
7,0,706339,247571,1404033,73511,9405,701376,11
7,-1,639642,219755,1248666,65862,7725,624433,0
7,-1,638085,219708,1250975,65946,6993,625592,2
7,0,709173,247287,1286876,73364,9106,643429,11
7,0,707229,247561,1275282,73441,9096,637602,11
7,-1,639213,219642,1193602,65882,7151,596849,0
7,-1,645215,221356,1249213,66783,8039,624731,0
7,0,707132,247301,1378467,73336,8426,689278,11
7,0,710538,247952,1311294,73553,8409,655656,11
7,0,705228,247063,1440331,73288,8833,720111,11
7,-1,645191,220809,1297136,66525,7977,648629,0
7,0,710009,247883,1399343,73596,9193,699670,11
7,0,710532,247570,1332018,73511,9240,666062,11
7,-1,636711,219570,1216332,65966,7211,608261,2
7,-1,636820,219034,1149790,65719,7358,575166,0
7,0,714368,248991,1382550,74138,9541,691209,11
7,-1,641437,219788,1228907,65975,6850,614518,0
7,-1,640338,218876,1239954,65571,7432,620007,0
7,0,711243,247433,1456432,73406,9501,728203,11
7,-1,666830,228851,1402252,68602,9535,700927,2
7,-1,640717,218855,1257466,65685,8571,628362,0
7,0,706335,247320,1426693,73367,8454,713324,11
7,-1,643762,219954,1152089,66112,7241,576106,2
7,-1,642689,220634,1363484,66661,8615,681820,0
7,0,709544,247788,1334384,73590,8985,667084,11
7,0,708479,247064,1405308,73240,9000,702638,11
7,-1,642345,220796,1250663,66641,7691,625400,2
7,0,709234,248250,1362828,73704,8407,681361,11
7,-1,643665,220011,1218086,66112,7475,609087,0
7,0,713243,248875,1302329,74084,8784,651117,11
7,0,709685,247681,1451710,73543,9400,725911,11
7,0,709523,246911,1287012,73177,8853,643575,11
7,0,728797,252620,1394486,76919,9267,697272,11
7,0,707863,247449,1399688,73402,9343,699783,11
7,-1,661377,223694,1217845,69045,8177,608938,0
7,-1,639550,218421,1150539,65613,7479,575299,2
7,0,707813,247593,1374762,73514,8489,687317,11
7,0,715162,249528,1371274,74332,8818,685525,11
7,-1,655419,222877,1327424,68801,8018,663707,0
7,-1,637849,219216,1266131,65926,7735,633105,2
7,-1,639361,219371,1246932,65972,7506,623503,0
7,0,706516,247144,1411548,73311,9476,705776,11
7,-1,634906,218569,1238215,65747,8074,619130,2
7,0,731442,252420,1443916,76859,9309,722027,11
7,-1,658897,223007,1204010,68923,8303,601942,0
7,0,714735,249945,1309295,74501,8592,654580,11
7,-1,643134,220683,1276102,66580,7578,637678,2
7,-1,639060,218528,1264783,65512,8142,632465,0
7,0,707975,247513,1477772,73410,8926,738945,11
7,0,712002,249000,1351226,74125,8674,675687,11
7,0,731200,252420,1468322,76819,9612,734089,11
7,-1,640557,219576,1170007,65917,7728,584884,0
7,0,710517,247576,1393722,73496,9051,696957,11
7,-1,639047,218211,1162052,65514,7957,580967,2
7,-1,637795,218537,1187768,65673,8021,593773,2
7,-1,660439,223284,1159554,68984,8319,579590,0
7,0,711110,247075,1339863,73204,8234,669899,11
7,0,713304,247836,1381311,73551,8262,690685,11
7,-1,634100,217853,1135455,65472,7572,567720,0
7,0,702581,247537,1471391,72965,8669,735755,11
7,-1,637289,219127,1138430,65840,7348,569294,2
7,0,701277,247754,1266122,73049,8961,632955,11
7,0,701734,247269,1294348,72813,8673,646978,11
7,0,706102,248546,1458172,73285,10530,729065,11
7,0,707395,249330,1281299,73719,8731,640484,11
7,0,706090,249430,1295978,73784,8829,647968,11
7,0,724972,252068,1442716,76228,9652,721444,11
7,0,702305,247261,1370105,72794,8643,685121,11
7,-1,636721,217927,1147612,65327,7207,573783,0
7,0,704663,247928,1476878,73117,9646,738009,11
7,0,705695,247472,1406410,72971,9054,703204,11
7,-1,642014,219425,1194018,65932,8513,596963,2
7,0,708172,248987,1485701,73455,9322,742875,11
7,0,700762,247252,1430968,72847,9284,715403,11
7,-1,660087,223096,1209010,68909,8366,604418,0
7,0,705703,247909,1505291,73048,9579,752549,11
7,0,725477,252043,1424297,76241,9666,712235,11
7,0,706529,249338,1306669,73837,9012,653318,11
7,-1,636404,218523,1137240,65618,7942,568626,2
7,0,706657,247270,1449747,72870,8656,724766,11
7,-1,639711,218507,1305208,65556,8655,652687,0
7,-1,647720,221156,1223662,66547,8248,611568,0
7,0,702894,246764,1295954,72740,7966,647961,11
7,-1,642572,219629,1185493,65819,7486,592685,2
7,0,706452,247817,1249315,73094,8548,624508,11
7,-1,643999,219101,1250710,65570,8004,625318,0
7,-1,650411,221388,1272999,66736,8447,636269,2
7,0,706507,246938,1321264,73694,9165,660639,11
7,0,706025,246805,1497120,73645,9702,748589,11
7,-1,641559,220756,1258232,66392,8661,629164,0
7,-1,638916,218461,1374512,65388,8043,687286,0
7,-1,636982,218839,1182527,65556,7451,591269,2
7,0,707692,247296,1412161,73791,9640,706034,11
7,-1,636225,218633,1325687,65524,8438,663015,0
7,0,706434,247542,1572071,73960,10638,786493,11
7,0,729369,252165,1642100,77210,11853,820920,11
7,0,706248,247853,1583289,74021,11363,791569,11
7,-1,637409,217731,1250315,65275,8170,625187,0
7,0,706211,247544,1467192,73925,10835,733606,11
7,0,706153,247174,1526412,73841,10404,763179,11
7,-1,642071,220978,1251986,66632,8022,625805,2
7,-1,644911,220572,1164392,66512,7281,582160,0
7,-1,638514,218308,1168031,65520,8035,583934,2
7,0,708417,248012,1406448,74134,8565,703032,11
7,-1,638430,218310,1260888,65466,7368,630474,0
7,0,708402,247673,1520102,74058,10130,760078,11
7,-1,634317,218077,1145170,65441,6797,572596,2
7,0,713292,248590,1593429,74294,10725,796181,11
7,0,708983,247103,1478048,73768,10288,738815,11
7,0,727914,252037,1629157,77213,12131,814098,11
7,-1,641487,219995,1233951,66232,7088,616950,0
7,0,728295,252093,1430563,77262,10653,715312,11
7,0,708202,247420,1429983,73929,9943,714980,11
7,0,708087,246911,1508651,73728,10030,754284,11
7,-1,644693,220455,1210337,66455,8170,604842,0
7,-1,638554,219070,1048974,65749,6644,524523,2
7,-1,656728,221996,1278053,68445,7661,638964,0
7,-1,641449,220331,1185546,66447,6739,592823,2
7,0,711035,248561,1379735,74502,9453,689888,11
7,-1,637339,217548,1207568,65229,6942,603760,0
7,0,712134,247792,1331809,74013,9795,665816,11
7,0,714329,247924,1507462,74046,9537,753715,11
7,-1,639647,218061,1152497,65353,7553,576206,0
7,0,723862,251818,1510472,77177,10814,755123,11
7,0,706176,247335,1496105,73869,10466,748021,11
7,0,704218,247980,1379334,74119,8961,689547,11
7,-1,642475,218262,1192718,65485,7540,596447,0
7,0,704777,246724,1290529,73641,8435,645271,11
7,-1,662522,223529,1226602,68979,8254,613265,0
7,0,705681,247787,1296954,74004,8792,648402,11
7,0,705389,247231,1301386,73846,9033,650649,11
7,-1,640763,219975,1184915,66312,6931,592478,2
7,0,707174,248462,1300042,74454,9150,650047,11
7,0,708451,249184,1388464,74806,9291,694512,11
7,-1,638508,218757,1245717,65592,6925,622846,0
7,0,708579,247797,1448645,74077,9872,724161,11
7,0,729617,252139,1530597,77284,10732,765318,11
7,-1,639699,218368,1280793,65511,8147,640396,0
7,0,710549,248430,1308629,74477,8937,654196,11
7,-1,637162,217915,1248238,65387,6933,624163,0
7,0,704587,247085,1273011,73830,8267,636534,11
7,-1,642908,218478,1222174,65550,8133,611032,0
7,0,711723,249358,1341784,74834,9032,670962,11
7,0,707295,247605,1557080,73996,10444,777840,11
7,-1,637929,218317,1214605,65505,7042,607302,0
7,-1,638138,218772,1260240,65633,7510,630044,2
7,-1,636911,217858,1160433,65298,6608,579999,0
7,0,710330,247572,1350475,73916,8951,675217,11
7,-1,639780,218265,1212075,65487,7233,606126,2
7,-1,643116,219001,1265753,65690,8273,632776,0
7,0,711840,248854,1408774,74572,9927,704331,11
7,0,707435,247375,1300071,73887,9553,650024,11
7,-1,638626,218449,1266283,65477,7327,633133,2
7,-1,641993,218493,1144283,65563,6715,572191,0
7,0,706439,247465,1358620,73896,8507,679359,11
7,0,709297,248251,1531850,74185,8819,765930,11
7,0,706817,247315,1302599,73848,8182,651341,11
7,-1,641242,217658,1236389,65226,7607,618117,0
7,-1,642451,218575,1263139,65591,8334,631666,2
7,-1,642362,218240,1257803,65445,7254,628625,0
7,-1,646570,220983,1211751,66663,7117,605810,2
7,-1,630551,218649,1235838,65095,7358,617919,2
7,0,730106,251997,1567704,77145,10379,783842,11
7,-1,632568,218414,1304852,65085,8231,651884,0
7,0,706770,247275,1412690,73847,9164,706204,11
7,0,712442,248686,1373769,74495,8895,687029,11
7,0,709438,247506,1473335,73913,9704,736667,11
7,0,707972,247322,1494188,73678,8996,747143,11
7,0,731804,252368,1447836,77169,10409,723904,11
7,-1,633132,218634,1218975,65099,7401,609433,0
7,0,709687,247640,1369674,73885,8150,684836,11
7,0,732538,252280,1567260,77155,10342,783687,11
7,0,714748,248780,1334569,74445,9042,667328,11
7,-1,634495,218856,1222644,65177,7310,611405,2
7,0,713775,249273,1265010,74550,8875,632419,11
7,-1,638305,219844,1169958,65670,6695,584944,0
7,0,712041,248908,1347487,74259,9402,673783,11
7,0,712655,247817,1452059,73893,10109,726101,11
7,-1,634191,218211,1284727,64888,7409,642341,0
7,0,729959,251967,1599592,77031,10548,799773,11
7,0,712822,248976,1398701,74570,9626,699229,11
7,0,711987,248431,1434052,74218,9295,717088,11
7,0,711308,247055,1428134,73605,9116,714105,11
7,-1,636762,219856,1133530,65793,7601,566810,2
7,-1,634901,218413,1292053,65037,7060,646093,0
7,0,710924,247479,1328133,73792,9031,663958,11
7,-1,635530,219289,1261703,65354,7498,630719,2
7,0,711017,248252,1293840,74044,8700,646956,11
7,-1,637267,219050,1153940,65394,7189,576932,0
7,0,709343,246772,1384359,73473,9507,692267,11
7,0,712380,247763,1404118,73917,9677,702095,11
7,0,711358,247027,1382059,73687,9705,690759,11
7,-1,631874,218584,1262033,65086,7852,631003,0
7,0,704111,246706,1253952,73439,8359,627026,11
7,-1,636624,219611,1158430,65556,7522,579263,0
7,0,711785,249101,1275594,74481,9152,638014,11
7,-1,632493,218168,1270251,64923,7614,635170,2
7,-1,638686,220067,1153253,65772,6992,576599,0
7,0,709983,248378,1420081,74261,10963,710084,11
7,-1,632278,217257,1138183,64677,6582,569075,0
7,0,709671,247943,1381552,74133,8840,690775,11
7,0,710324,248104,1443953,74070,8951,721988,11
7,-1,636525,218111,1238945,65934,8182,619481,0
7,0,716160,249926,1324390,74982,8551,662051,11
7,-1,639951,219361,1239439,66371,7824,619717,2
7,0,713989,248784,1555195,74387,10450,777338,11
7,0,711767,248658,1477648,74304,10303,738796,11
7,0,733335,252858,1458650,77535,10587,729112,11
7,0,717767,250049,1292553,75085,9052,645612,11
7,-1,638233,217880,1290408,65813,7664,645202,0
7,0,730735,252882,1472479,77666,10673,736103,11
7,-1,635227,218273,1175266,65959,7606,587557,2
7,0,709930,248182,1419677,74261,9709,709713,11
7,0,734366,252604,1607337,77536,10870,803386,11
7,-1,659195,222680,1298598,69177,8992,649343,0
7,0,706770,247460,1428531,73934,9907,714328,11
7,0,710058,248062,1478020,74120,10406,738816,11
7,-1,639915,217945,1266585,65788,8714,633295,0
7,0,716370,250069,1313744,75004,9248,656834,11
7,-1,632697,218127,1223400,65920,6987,611707,2
7,-1,656992,222458,1211473,69065,8387,605679,0
7,0,713475,249349,1291624,74584,9081,645865,11
7,0,716800,250428,1410384,75103,10325,705720,11
7,-1,643737,220981,1229621,67096,9055,614969,2
7,-1,642715,220906,1402530,67127,8879,701978,0
7,0,716170,249977,1406199,74940,9894,703131,11
7,0,736946,253440,1495327,77689,10988,747677,11
7,-1,644325,220262,1169276,66799,7374,584688,0
7,0,714090,248354,1405289,74142,10182,703073,11
7,-1,636430,218772,1162051,66178,7382,581081,2
7,0,708356,248290,1432511,74160,9524,716194,11
7,0,712040,249164,1456616,74505,8728,728249,11
7,0,711060,249243,1434389,74550,8934,717132,11
7,-1,657756,222290,1266512,69105,7429,633243,0
7,-1,635576,217884,1221212,65821,7524,610602,2
7,0,710291,248862,1396675,74399,8376,698330,11
7,-1,637550,218912,1160261,66322,6489,580118,0
7,0,716348,250336,1565496,75146,9441,781655,11
7,0,712751,249096,1393029,74471,9056,696598,11
7,0,714149,249340,1310147,74675,8469,655130,11
7,0,729569,253050,1470077,77525,10834,734955,11
7,-1,641487,218827,1348746,66096,8181,674201,0
7,0,711902,248816,1269383,74267,8288,634728,11
7,0,711798,248243,1309740,74060,9051,654719,11
7,0,713210,249565,1383688,74677,9063,691755,11
7,0,713253,249130,1283259,74316,8525,641684,11
7,-1,638903,220247,1173488,66945,8200,586052,2
7,-1,638501,219014,1325134,66227,8741,662713,0
7,-1,643369,219935,1186799,66689,7905,593359,0
7,0,733404,253551,1374683,77526,9731,687364,11
7,0,710848,249303,1531804,74338,9917,765933,11
7,-1,637815,217901,1333913,65879,7694,667027,0
7,-1,636725,218110,1330515,65882,7524,665252,0
7,0,731970,252728,1494160,77312,10232,747077,11
7,0,708574,247872,1318251,73914,9529,658953,11
7,-1,661132,222642,1282603,69203,8298,641335,0
7,0,735257,253253,1519185,77498,11243,759530,11
7,0,712271,247830,1336542,73933,8588,668174,11
7,-1,643120,220228,1209149,66959,7492,604521,2
7,-1,638663,217802,1345320,65786,7164,672616,0
7,0,714342,248875,1455213,74340,9953,727538,11
7,-1,639043,217645,1264751,65741,7749,632393,0
7,0,704056,247771,1314359,73913,9519,657161,11
7,-1,641849,218992,1256689,66225,7972,628333,2
7,0,706167,246866,1407517,73651,10586,703771,11
7,0,706371,247578,1385325,73925,9931,692658,11
7,0,709739,248727,1411563,74291,8538,705713,11
7,0,712126,248676,1343768,74210,8911,671786,11
7,-1,637542,218574,1387480,66020,8575,693699,0
7,-1,636365,218624,1248982,66079,8403,624468,2
7,0,712588,249460,1352687,74681,8898,676432,11
7,0,711778,248560,1273376,74229,9523,636747,11
7,-1,641049,219736,1188250,66589,7979,594177,0
7,0,708067,248451,1372260,74189,9323,686200,11
7,0,707530,247884,1491378,74010,8653,745910,11
7,0,736509,257615,1565323,76816,9732,782585,11
7,0,714212,249092,1412627,74350,9685,706173,11
7,-1,660254,223022,1234809,69337,8631,617365,0
7,-1,641284,219233,1231442,66485,8193,615549,0
7,0,713697,248989,1317523,74349,9319,658660,11
7,-1,639980,218283,1215513,65860,8287,607697,0
7,0,715687,250813,1301152,75227,8654,650402,11
7,-1,640540,217974,1242291,65850,6800,621183,0
7,0,713117,248704,1358468,74384,9554,679189,11
7,-1,637816,218544,1203969,66023,7891,601884,0
7,-1,636765,218333,1229270,66042,7237,614686,2
7,0,716997,250310,1453834,75168,10190,726886,11
7,0,713739,248620,1553467,74297,10549,776606,11
7,0,713903,247798,1548999,73970,10819,774340,11
7,0,713572,248427,1553129,74207,10460,776691,11
7,0,713734,247977,1377408,74050,10179,688673,11
7,-1,640653,218927,1253107,66148,7197,626548,0
7,0,715533,249179,1472963,74619,9995,736599,11
7,-1,642995,218762,1359446,66093,8073,679652,0
7,-1,637903,219202,1297066,66247,7766,648556,2
7,0,718862,250323,1532514,75108,10570,766001,11
7,0,716373,248325,1533894,74148,11171,766888,11
7,0,710244,248094,1454921,73883,10623,727345,11
7,0,711701,248421,1445949,74118,11018,722902,11
7,0,710448,247761,1525594,73802,10069,762869,11
7,0,712822,248222,1436883,74060,10143,718419,11
7,-1,639540,218118,1237575,65909,7726,619111,0
7,0,712178,248439,1426784,74075,9612,713459,11
7,0,717119,249752,1460896,74758,10091,729961,11
7,0,711616,247964,1439082,73869,9594,719516,11
7,-1,637542,218287,1220109,65962,7913,610245,0
7,0,710419,247421,1337037,73735,9089,668305,11
7,0,732649,252485,1460524,77258,10214,730286,11
7,0,716275,249056,1335413,74519,8992,667584,11
7,-1,639969,218150,1183389,65956,7754,591749,0
7,0,709250,248387,1425884,74082,9839,712887,11
7,0,715231,250224,1413169,74980,9301,706637,11
7,0,711065,247892,1421576,73890,9658,710870,11
7,-1,636687,218548,1175656,66021,6945,587916,0
7,0,715271,248574,1583109,74147,9586,791545,11
7,-1,639485,220047,1159825,66829,7323,579985,2
7,0,714632,248245,1418155,73992,9479,709127,11
7,-1,639257,218930,1174225,66191,7027,587362,0
7,0,709418,247900,1472853,73864,8989,736364,11
7,-1,639244,219255,1160089,66271,8123,580080,2
7,0,712847,248373,1395346,74111,9046,697723,11
7,-1,640296,218703,1139396,66076,7810,569645,0
7,0,734451,253190,1512282,77441,9462,756226,11
7,-1,656926,222567,1290923,69108,9106,645385,0
7,0,714644,248515,1510855,74407,10230,755455,11
7,-1,637883,217958,1238693,65816,7643,619384,0
7,0,709909,247404,1372675,73900,9549,686338,11
7,0,710498,246938,1511618,73808,9742,755817,11
7,-1,636168,218052,1274877,65759,8617,637535,2
7,-1,637676,217611,1230582,65555,7033,615385,0
7,0,732909,251959,1529513,77329,10210,764711,11
7,-1,641246,220294,1220275,66742,7745,610393,0
7,0,728025,252476,1578913,77444,10703,789381,11
7,0,705268,247369,1448610,74028,9237,724239,11
7,-1,640715,218348,1058742,65827,7299,529418,0
7,-1,640422,218546,1216245,65868,7199,608242,2
7,0,703373,246985,1368849,73853,9008,684427,11
7,0,707188,247489,1361715,74065,9214,680930,11
7,0,728924,252478,1529413,77493,10189,764742,11
7,0,704631,246980,1402940,73859,8939,701481,11
7,-1,642798,218796,1344043,65975,7833,672074,0
7,-1,640384,219045,1153613,66113,7646,576836,2
7,0,714859,249974,1487204,75181,9667,743629,11
7,-1,664796,222934,1439068,69115,9263,719597,0
7,0,708902,247600,1249768,74079,7969,624931,11
7,-1,639341,217855,1229167,65631,7188,614608,0
7,0,706635,246904,1264418,73910,7798,632250,11
7,0,704887,248061,1320906,74262,9017,660503,11
7,-1,643677,218812,1253025,65959,8097,626558,0
7,-1,640803,218023,1291099,65760,8107,645642,2
7,0,702869,246638,1305148,73744,8212,652604,11
7,0,710938,248871,1372958,74716,8512,686540,11
7,0,700524,245730,1240943,73549,8080,620624,11
7,0,726706,251859,1415210,77316,9749,707641,11
7,-1,642439,216863,1216158,65388,7301,608119,0
7,-1,633117,218789,1174281,66035,6715,587164,2
7,0,704937,246794,1250133,73825,7875,625064,11
7,-1,637100,219642,1155103,66454,7127,577625,0
7,0,712181,248300,1366574,74344,9019,683362,11
7,0,727886,252084,1461429,77382,9080,730755,11
7,0,708909,246885,1268104,73703,8243,634091,11
7,-1,640084,219975,1213784,66650,8497,606775,0
7,-1,633437,217759,1305119,65702,8385,652603,2
