0,-1,725269,251248,1487107,74898,9046,743581,0
0,1,761367,267173,1475549,79095,8608,737835,0
0,-1,722334,250736,1308925,74764,8191,654526,2
0,-1,721082,248701,1304933,73790,8653,652512,0
0,1,760443,267007,1440085,78980,8773,720150,0
0,1,758208,265827,1416601,78389,8475,708265,1
0,-1,717896,248485,1330741,73765,8157,665406,0
0,1,708582,248500,1440642,73916,10038,720284,0
0,-1,717566,248110,1320916,73570,7797,659850,0
0,1,712942,249051,1368340,74094,9417,684149,0
0,-1,664705,229821,1296744,68592,8180,648411,0
0,1,732939,257420,1406192,76661,9972,703229,0
0,-1,665431,229752,1237426,68640,7771,618745,0
0,1,705992,247094,1403302,73356,8847,701446,0
0,-1,670560,232210,1337249,69590,8081,668679,0
0,1,706787,248028,1271319,73692,9316,635376,0
0,-1,665347,229691,1317225,68646,8446,658601,0
0,1,705376,246943,1304216,73327,8959,652217,0
0,-1,668150,229532,1234669,68538,7426,617369,0
0,1,706684,247721,1320400,73578,8454,660080,0
0,-1,661731,229971,1329193,68713,8186,664329,0
0,-1,661269,229827,1322116,68708,7588,661081,0
0,1,713427,249786,1410491,74479,9537,704827,0
0,-1,664709,230332,1235555,68922,7834,617778,0
0,1,709699,248936,1406666,74029,9670,703350,0
0,-1,666762,230620,1321392,68913,8289,660626,0
0,-1,692760,235976,1324509,73027,8610,662226,0
0,-1,661902,229673,1198696,68658,7996,599381,0
0,1,706477,247628,1502582,73490,8903,751330,0
0,-1,668753,230951,1322651,69039,8080,661227,0
0,-1,685225,234348,1290511,72006,8729,645278,0
0,-1,665101,230150,1201299,68819,8090,600621,0
0,1,708301,247578,1378197,73647,8809,689083,0
0,-1,671523,231136,1310866,69191,8174,655309,0
0,-1,669733,230346,1409654,68770,8504,704720,0
0,1,710695,247647,1358879,73640,9630,679487,0
0,1,702190,247803,1304381,73762,9112,652212,0
0,-1,666993,230532,1239128,68792,8253,619641,0
0,1,708796,248826,1376597,74073,9013,688341,0
0,-1,668729,231483,1326957,69096,8345,663082,0
0,-1,668855,230482,1255330,68791,9022,627630,0
0,1,707271,248094,1288537,73772,8465,644265,0
0,-1,667665,231326,1375287,69161,8575,687041,0
0,1,705339,247744,1427293,73681,8799,713655,0
0,-1,666225,230376,1309470,68843,8492,654531,0
0,1,705760,248123,1278419,73817,9052,639190,0
0,1,705802,247477,1431788,73493,8909,715668,0
0,-1,666329,230315,1319704,68952,8347,659992,0
0,1,707159,247662,1375353,73568,8547,687723,0
0,-1,667628,230216,1361063,68930,9042,680318,0
0,-1,689438,234594,1278673,72127,9744,639480,0
0,1,711910,250109,1398021,74637,8853,699007,0
0,-1,672444,231162,1329609,69378,9133,664923,0
0,1,708685,248180,1378661,73752,8603,689392,0
0,-1,673282,231793,1306939,69624,8631,653588,0
0,-1,692896,235467,1245372,72462,9100,622654,0
0,1,706964,248123,1386911,73756,8429,693549,0
0,-1,662715,231848,1316166,69666,7243,658158,0
0,-1,686468,238666,1204599,71412,7987,602346,0
0,1,708404,248305,1362785,73791,8186,681427,0
0,-1,663667,230056,1201030,68867,7893,600592,0
0,1,709114,248052,1224605,73711,8449,612335,0
0,-1,659966,230367,1388812,69019,8798,694819,0
0,-1,663456,230102,1336574,68904,7838,668221,0
0,1,705780,248130,1373243,73709,8520,686717,0
0,-1,684918,234952,1295855,72252,8077,647860,0
0,1,703364,247809,1312130,73655,8844,656121,0
0,-1,662645,230722,1230988,69133,7530,615418,0
0,-1,665647,230200,1296318,68931,7421,648175,0
0,1,707819,247103,1293670,73393,8260,646878,0
0,-1,666928,230529,1260130,69008,8094,630335,0
0,1,707906,248209,1277521,73764,7940,638859,0
0,1,710177,248562,1382378,73904,8557,691228,0
0,-1,687343,235272,1379746,72316,9745,689838,0
0,1,711616,248603,1541895,73866,9338,770497,0
0,-1,666747,230954,1297094,69123,8890,648604,0
0,-1,672567,231971,1326560,69602,8379,663358,0
0,-1,667631,231335,1193036,69206,6858,596550,0
0,1,734846,253117,1598193,77022,10750,799131,0
0,-1,662785,230345,1227771,68869,7761,613909,0
0,-1,669098,231612,1319474,69273,7831,659756,0
0,1,714292,249821,1460227,74290,9360,729681,0
0,-1,688893,236016,1320056,72543,8156,659991,0
0,1,717568,249876,1491255,74424,9632,744633,0
0,-1,666263,230484,1515093,69016,9128,756302,0
0,-1,664433,231495,1216892,69304,7932,608488,0
0,1,714441,249068,1327881,74039,9676,663895,0
0,1,709487,249412,1331332,73957,9399,665797,0
0,-1,672498,232949,1315393,70053,8033,657819,0
0,-1,669852,231662,1454245,69366,8748,727041,0
0,1,709560,249122,1264792,73902,9328,632261,0
0,-1,669098,230679,1244275,69030,7962,622172,0
0,1,711550,249095,1526992,73969,9238,763638,0
0,-1,667120,230280,1226277,68824,7877,613196,0
0,1,707353,247840,1330510,73600,9017,665118,0
0,-1,663817,230675,1228693,69035,7639,614367,0
0,-1,662052,230386,1384463,68828,8399,692135,0
0,1,701788,245879,1387616,72884,9718,693768,0
0,-1,685957,235215,1304277,72298,8773,651885,0
0,1,711421,248137,1342745,73712,8765,671273,0
0,-1,665695,230714,1199304,69014,7319,599691,0
0,-1,672281,232833,1398014,69974,8127,699077,0
0,1,730474,253094,1339113,77112,9320,669507,0
0,-1,668804,232600,1254225,69813,8017,627182,0
0,-1,667521,231424,1337293,69293,7480,668696,0
0,1,713155,248252,1407932,73719,9851,703952,0
0,-1,666471,230375,1253368,68931,7121,626726,0
0,1,734128,253215,1395394,76908,10269,697614,0
0,-1,666168,230734,1216758,69056,7196,608422,0
0,-1,667370,230861,1428787,68970,7907,714424,0
0,1,706126,247811,1381187,73267,10170,690501,0
0,-1,673688,232578,1400452,69834,8250,700028,0
0,-1,666864,231188,1254112,69138,8407,626912,0
0,1,705121,247780,1381959,73470,9349,690988,0
0,-1,672585,232863,1383742,69814,8782,691923,0
0,-1,672093,232284,1255597,69737,8873,627948,0
0,1,711804,249820,1388552,74368,8234,694145,0
0,-1,668205,231726,1286360,69261,8187,643068,0
0,-1,671183,231376,1315528,69098,9051,657520,0
0,1,730892,252067,1392260,76657,10151,696001,0
0,-1,668311,230533,1346213,68838,8463,673188,0
0,1,731283,251859,1464921,76588,10347,732463,0
0,-1,671298,232706,1384023,69703,8785,692110,0
0,-1,667841,230789,1244396,68908,8855,622247,0
0,1,708773,247623,1308373,73421,8236,654185,0
0,-1,688845,235286,1326421,72240,9938,662843,0
0,1,708987,247549,1378932,73388,8777,689440,0
0,-1,694618,236303,1521766,72604,10483,760685,0
0,-1,691785,236143,1340562,72572,10031,670095,0
0,1,711000,248185,1376657,73610,8681,688391,0
0,-1,677774,233183,1358243,69784,8991,679086,0
0,-1,664612,231529,1286936,68995,8636,643199,0
0,1,710364,247363,1290489,73323,8289,645213,0
0,-1,668383,231705,1245685,69159,8403,622713,0
0,1,703911,248057,1407477,73084,8253,703635,0
0,-1,671333,231640,1393481,69085,8764,696774,0
0,1,706057,248062,1407247,73051,8689,703474,0
0,-1,669139,232999,1303141,69739,9454,651587,0
0,-1,673244,232956,1342167,69817,8591,671220,0
0,-1,668475,231436,1259583,69133,8026,629761,0
0,1,704833,247773,1406777,72979,8748,703425,0
0,1,727119,252074,1500886,76328,10007,750170,0
0,-1,669432,232166,1243459,69354,9149,621675,0
0,1,707364,247345,1368199,73772,8898,684042,0
0,-1,690290,236810,1233632,72616,9388,616888,0
0,1,715182,249091,1349090,74582,9569,674613,0
0,-1,669000,230918,1273560,69007,8783,636592,0
0,-1,671233,230863,1339974,68942,9310,670026,0
0,-1,671564,231857,1280174,69329,8848,640146,0
0,1,707492,247775,1293882,73971,8718,646842,0
0,1,707429,247544,1258798,73861,7942,629437,0
0,-1,690530,235363,1309946,72211,9007,654744,0
0,1,711678,249268,1267908,74716,8687,633999,0
0,-1,691358,235682,1266193,72364,9022,632997,0
0,-1,665343,230861,1234596,69029,8099,617413,0
0,1,711803,248757,1292289,74504,8518,646196,0
0,-1,666810,230479,1226268,68913,8134,613071,0
0,1,717993,249645,1311991,74812,8935,656020,0
0,-1,668255,231298,1299959,69124,7876,649963,0
0,-1,665456,230451,1329653,68831,8184,664829,0
0,1,728708,251956,1404831,77158,9621,702498,0
0,-1,665938,229778,1149826,68596,7794,574876,0
0,-1,669917,230745,1306966,69011,8776,653508,0
0,-1,668343,229823,1199414,68701,8160,599697,0
0,1,705212,247021,1292804,73718,10195,646201,0
0,-1,690102,235982,1266843,72441,8330,633350,0
0,1,727686,252117,1444580,77218,9929,722235,0
0,-1,673959,231945,1318703,69532,8650,659386,0
0,-1,688694,235183,1280101,72204,8659,640008,0
0,1,710637,249577,1332469,74687,10326,665797,0
0,-1,669506,230623,1180105,68835,8353,590070,0
0,1,712624,248582,1307092,74354,9348,653565,0
0,1,712751,248135,1349891,74092,8746,674795,0
0,-1,671456,231106,1254492,68855,8992,627084,0
0,1,711533,247750,1419311,73944,8591,709694,0
0,-1,675814,231327,1364260,68859,10389,681949,0
0,1,712224,249101,1262455,74438,9333,631286,0
0,-1,689286,236202,1328127,72286,9252,663867,0
0,1,711728,247433,1413712,73636,9339,706905,0
0,-1,695622,240303,1429426,71579,9568,714694,0
0,-1,685962,234747,1300105,71974,9015,650016,0
0,1,711265,247231,1413737,73807,9186,706907,0
0,-1,671972,232303,1394943,69538,8067,697310,0
0,1,730540,252417,1497560,77248,10607,748812,0
0,-1,669993,230703,1329664,68820,8743,664873,0
0,1,709218,248249,1338579,74049,9374,669057,0
0,-1,669493,230034,1327964,68610,8663,664054,0
0,-1,669061,231939,1282094,69457,7656,641103,0
0,1,713487,249319,1369148,74580,8427,684617,0
0,-1,667645,230935,1390913,68935,8526,695471,0
0,1,713192,249449,1375020,74500,10135,687555,0
0,-1,673759,231722,1324587,69371,8663,662357,0
0,1,712070,248710,1420388,74282,9447,709713,0
0,-1,674167,232055,1297332,69473,8799,648612,0
0,-1,671901,230718,1369202,68868,8141,684559,0
0,1,713753,249454,1238830,74545,8388,619332,0
0,-1,685178,235101,1356782,72107,9188,678366,0
0,-1,665601,229855,1344663,68598,7911,672370,0
0,1,714364,249598,1366043,74548,8902,683197,0
0,-1,666798,231095,1276810,68980,7458,638524,0
0,1,710944,248895,1475514,74107,9902,737625,0
0,-1,673533,232540,1262284,69771,8078,630797,0
0,1,711174,248100,1457097,73938,9253,728977,0
0,-1,666967,230820,1287143,68839,8880,643635,0
0,1,733443,253222,1470594,77471,9383,735380,0
0,-1,669416,230724,1334054,68888,8174,667078,0
0,1,705069,248140,1358580,73975,8791,679322,0
0,-1,674790,232262,1251598,69527,8185,625827,0
0,1,713870,249364,1314341,74613,9071,657233,0
0,1,706239,247706,1481259,73831,9464,740664,0
0,-1,671653,232056,1318161,69419,8134,659060,0
0,-1,688498,234467,1439007,71819,10010,719580,0
0,1,717003,249982,1328217,74595,8992,664144,0
0,-1,667420,229781,1406187,68522,8688,703136,0
0,-1,667465,230467,1397513,68750,8073,699491,0
0,1,713174,247920,1410515,73986,9034,704900,0
0,1,733689,253153,1531745,77521,10261,765341,0
0,-1,691962,235196,1437607,72108,9809,718652,0
0,-1,694742,235013,1404214,71996,8669,702185,0
0,1,711923,248758,1389083,74142,9288,694569,0
0,-1,658245,230462,1279318,68239,7011,639652,0
0,-1,661837,230039,1303085,68155,7914,651511,0
0,1,711009,247677,1367850,73717,9139,683971,0
0,-1,664166,231081,1353751,68518,8546,676845,0
0,1,712235,247940,1361807,73850,9336,680875,0
0,-1,663039,229774,1221628,68047,7742,610831,0
0,-1,666697,231410,1231503,68718,7872,615719,0
0,1,712210,247237,1332938,73777,9246,666308,0
0,-1,660307,230261,1313880,68200,9302,656919,0
0,1,711303,247112,1373737,73793,9540,686708,0
0,-1,660055,229531,1379742,67960,8472,689805,0
0,-1,661554,229911,1258117,68243,8128,629095,0
0,-1,664371,230431,1375197,68443,8543,687655,0
0,-1,682649,234615,1415508,71570,9668,707729,0
0,1,706909,247323,1285766,74008,8624,642846,0
0,-1,669824,231431,1338093,69614,8460,669087,0
0,-1,668160,230186,1220451,69205,8687,610268,0
0,1,707686,247382,1349649,73932,8414,674838,0
0,-1,663572,229698,1301333,68959,8167,650705,0
0,1,704369,246923,1342452,73782,8530,671252,0
0,-1,686940,234511,1399068,72438,9248,699573,0
0,-1,664760,229935,1449346,69098,8758,724709,0
1,-1,724619,250671,1280466,74569,8059,640280,0
1,1,763984,266272,1293787,78577,8892,646925,0
1,-1,722725,248378,1234478,73701,8524,617265,0
1,1,707380,246812,1578506,73246,10097,788301,0
1,-1,720327,249921,1349218,74155,8137,674169,0
1,-1,661811,230282,1281123,68845,7823,640329,2
1,1,705499,247161,1264904,73351,8298,632685,0
1,-1,666718,231009,1208218,69003,7981,604415,0
1,1,704328,247731,1420079,73583,9108,710938,0
1,-1,665097,229198,1254186,68408,7905,627088,0
1,1,702588,246843,1320085,73333,8297,660038,0
1,1,709861,249607,1410003,74536,9158,704805,1
1,-1,686899,234832,1347489,72041,8408,673408,0
1,1,705065,247586,1349420,73618,8579,674782,0
1,-1,671635,232025,1251268,69596,7860,625655,0
1,1,708478,248941,1408921,74144,8809,704345,0
1,1,704578,247593,1260586,73467,8711,630290,0
1,-1,688267,234391,1419476,71992,9069,709775,0
1,-1,661431,230260,1461370,68829,8592,730723,0
1,-1,664007,230403,1255927,68888,7748,627756,0
1,1,713124,248921,1309759,73980,9084,654914,0
1,-1,665938,231437,1377601,69502,8797,688776,0
1,-1,664428,230215,1223858,68831,7329,611975,0
1,1,706469,247923,1307887,73559,8888,653804,0
1,-1,664111,229875,1220506,68727,7969,610140,0
1,-1,663119,230137,1249159,68843,8757,624561,0
1,1,711214,249227,1515880,74187,9923,757176,0
1,-1,685963,234501,1309555,72012,8997,654882,0
1,-1,662344,229172,1320576,68399,8251,660378,0
1,1,706785,246856,1420020,73377,8714,709950,0
1,-1,665765,231293,1259830,69414,7935,629663,0
1,-1,674259,232480,1378642,69895,7805,689170,0
1,-1,666758,230493,1301378,68905,8054,650752,0
1,1,715368,250203,1365130,74789,9358,682626,0
1,1,707032,249032,1403539,74317,8908,701809,0
1,-1,672979,233263,1323251,69943,8734,661543,0
1,1,702852,247356,1388539,73609,9082,694315,0
1,-1,688649,235421,1453955,72198,9628,726543,0
1,-1,669995,231190,1214215,69005,8586,607059,0
1,1,704216,247215,1392557,73504,8864,696272,0
1,-1,667377,230524,1296958,68799,8315,648491,0
1,1,706437,248649,1409329,74147,8880,704618,0
1,-1,688513,235335,1301519,72273,9283,650718,0
1,1,708578,247972,1288270,73783,9475,644208,0
1,1,711347,249274,1454521,74359,10088,726933,0
1,-1,667079,230941,1275272,69172,8790,637607,0
1,1,736468,254536,1347301,78125,9194,673604,0
1,-1,669061,231173,1335650,69275,8652,667755,0
1,-1,669503,230773,1338122,69130,10278,669199,0
1,1,705304,248068,1345763,73752,8184,672936,0
1,-1,672528,232524,1515262,69940,9888,757627,0
1,1,708391,248452,1338942,73844,7782,669508,0
1,-1,667957,230094,1355338,68895,8106,677674,0
1,1,707492,248588,1230166,73944,8141,615126,0
1,-1,670194,231196,1398439,69392,8480,698960,0
1,-1,664475,230366,1216944,68996,6818,608518,0
1,-1,659159,229824,1328829,68744,8338,664458,0
1,1,706341,248121,1294493,73690,8281,647345,0
1,-1,669406,232702,1328398,70024,8171,664271,0
1,1,712015,249525,1306514,74375,9023,653321,0
1,-1,666703,231388,1393164,69515,9275,696368,0
1,1,709885,249430,1427018,74331,9560,713552,0
1,-1,667259,231888,1325484,69510,7629,662723,0
1,-1,666084,231197,1237844,69301,7708,618896,0
1,1,707997,249423,1462130,74343,9028,731172,0
1,-1,662567,230699,1330538,69085,7898,665189,0
1,-1,683807,234371,1327520,72068,8100,663749,0
1,1,712195,248911,1397096,74010,8029,698542,0
1,-1,665328,230696,1361764,69038,8468,680417,0
1,1,706053,247261,1318050,73394,8252,659066,0
1,1,706411,247430,1317185,73504,7635,658620,0
1,-1,667554,231499,1304689,69226,8063,652397,0
1,1,710477,248345,1417577,73754,9471,708779,0
1,-1,667247,231803,1230220,69554,7703,615090,0
1,-1,667993,230770,1212774,69073,7793,606439,0
1,1,704949,247253,1529288,73447,9011,764679,0
1,-1,668948,232482,1299367,69791,7520,649798,0
1,-1,668575,232068,1297586,69636,7694,648863,0
1,1,709675,248318,1390979,73574,8692,695514,0
1,-1,667121,230744,1203714,69074,7637,601907,0
1,-1,663422,230744,1312512,69003,7553,656144,0
1,1,712633,248810,1486472,73865,9860,742968,0
1,-1,671074,232809,1313584,69954,7496,656909,0
1,-1,668123,231021,1193456,69147,6912,596762,0
1,1,711647,248536,1473909,73697,9758,736952,0
1,-1,666517,231131,1313996,69121,7452,657047,0
1,1,709022,249543,1505315,73958,9720,752478,0
1,-1,675052,233141,1346425,70030,7828,673277,0
1,1,709134,248858,1259555,73746,9828,629727,0
1,-1,671947,232083,1330336,69657,8396,665217,0
1,1,717822,251154,1398513,74813,9712,699039,0
1,-1,668293,230924,1218977,69140,8112,609539,0
1,1,708619,248532,1374762,73719,9302,687337,0
1,-1,663561,230943,1341327,69050,9195,670724,0
1,-1,667100,232585,1389027,69861,9418,694420,0
1,1,710854,247604,1293285,73517,9219,646781,0
1,-1,667291,231491,1351639,69410,7680,675779,0
1,1,712930,249567,1288771,74453,9260,644234,0
1,-1,671904,233275,1280709,70157,7647,640425,0
1,-1,666064,230823,1300716,69084,7005,650358,0
1,1,712528,249211,1390412,74277,9101,695214,0
1,-1,684283,234957,1206297,72194,8706,603137,0
1,-1,665171,230354,1337198,68841,7675,668641,0
1,1,710658,248698,1361914,73815,9104,680952,0
1,-1,687541,235471,1375099,72391,7871,687483,0
1,1,711099,247992,1288068,73382,8686,644079,0
1,-1,666561,231674,1226296,69317,7590,613174,0
1,-1,670697,231821,1390349,69264,8653,695245,0
1,1,737748,253417,1480864,76945,10921,740414,0
1,-1,689780,235387,1500517,72313,8701,750337,0
1,-1,663210,230153,1347594,68780,8516,673611,0
1,1,708717,249192,1376598,74062,9189,688348,0
1,-1,668637,231062,1350586,68917,8210,674898,0
1,-1,666734,230348,1273363,68874,8877,636819,0
1,1,727317,252615,1261093,76856,9089,630423,0
1,-1,664780,230738,1387533,68825,8632,693729,0
1,-1,665902,229809,1291832,68553,8099,645718,0
1,1,709309,247690,1350538,73453,9080,675301,0
1,-1,670777,231675,1363840,69220,9041,681735,0
1,-1,667097,231316,1316167,69077,8902,658125,0
1,1,711058,247767,1378694,73421,9780,689388,0
1,-1,667731,231104,1220235,68960,7963,610128,0
1,1,707834,247548,1383139,73366,8750,691608,0
1,-1,665961,230547,1365498,68972,8613,682851,0
1,1,708001,247612,1373963,73431,8772,686917,0
1,-1,673742,232052,1504803,69417,9007,752486,0
1,-1,674166,231640,1347689,69327,8174,673759,0
1,1,709681,247588,1390523,73354,9458,695141,0
1,-1,674308,231709,1514768,69100,9441,757465,0
1,-1,666904,232220,1351520,69300,8762,675714,0
1,1,715719,248716,1394995,73943,10102,696356,0
1,-1,668537,231781,1349888,69133,9296,674808,0
1,1,701754,247547,1342582,72928,7545,671092,0
1,-1,669365,231840,1361236,69218,8893,680609,0
1,1,709516,249390,1344902,73647,8674,672345,0
1,-1,675278,233344,1262159,69654,8516,630907,0
1,1,707556,248683,1218374,73478,8033,609336,0
1,-1,669813,231058,1334524,68960,8869,667161,0
1,-1,668978,231494,1332056,69136,8884,666032,0
1,1,704922,247417,1315570,72974,8197,657759,0
1,1,706591,247480,1476413,73746,10438,737943,0
1,-1,671694,230948,1236610,69037,8555,618325,0
1,-1,672245,232271,1279387,69312,8981,639744,0
1,1,709902,247905,1359096,73977,9403,679616,0
1,-1,674299,233138,1380869,69979,8653,690510,0
1,-1,666839,229862,1236177,68730,8673,618080,0
1,1,724405,252016,1392769,77097,9816,696360,0
1,-1,670966,232168,1263896,69596,8877,631807,0
1,1,711892,248014,1379981,74094,8957,690018,0
1,-1,670324,231398,1341952,69139,8689,670897,0
1,1,726572,251532,1373573,77025,9470,686787,0
1,-1,670330,230968,1339183,69058,7923,669599,0
1,1,706072,247318,1478660,73754,9208,739361,0
1,-1,667187,231253,1252323,69181,8451,626168,0
1,-1,686917,235007,1232723,72176,8409,616269,0
1,1,709857,246987,1296309,73707,8868,648190,0
1,-1,664499,230274,1217314,68738,7165,608871,0
1,1,709157,249159,1280621,74738,7924,640367,0
1,-1,665708,230560,1207247,68846,7790,603610,0
1,-1,670642,231914,1309397,69424,7844,654580,0
1,-1,666385,230030,1378134,68731,8077,689107,0
1,-1,669473,230617,1345341,69000,7909,672598,0
1,1,711502,247855,1469247,74008,9350,734495,0
1,-1,667470,231106,1347871,69114,7573,673949,0
1,1,709022,247380,1361724,73858,8840,680807,0
1,-1,668036,230176,1222080,68740,8071,611085,0
1,-1,694755,239248,1306630,71359,8699,653260,0
1,1,712577,247174,1369961,73677,9199,684948,0
1,-1,669268,230467,1297256,68734,9051,648754,0
1,1,708955,248230,1277761,74123,8773,638872,0
1,-1,674824,232729,1346102,69629,8796,672935,0
1,1,714407,249239,1314060,74573,8997,657167,0
1,1,712285,248189,1360726,74074,8383,680392,0
1,-1,673377,230653,1406144,68695,10549,703102,0
1,1,712118,247742,1232168,73790,8583,616005,0
1,-1,667474,231226,1368905,68858,8730,684415,0
1,1,712545,248047,1411874,73955,9257,705977,0
1,-1,669558,231483,1236124,69038,8496,617900,0
1,1,712571,247717,1372334,73885,9258,686208,0
1,-1,665516,230676,1324261,68848,8560,662101,0
1,-1,666542,230549,1557526,68769,10397,778510,0
1,1,710437,249076,1384249,74577,10560,691736,0
1,-1,673929,232762,1292976,69795,8081,646522,0
1,1,709754,248287,1331593,74199,10233,665669,0
1,-1,669195,230336,1218380,68750,8089,609061,0
1,-1,687967,235533,1235405,72248,8460,617652,0
1,1,711397,249129,1373908,74525,8700,687004,0
1,-1,673590,232019,1295673,69530,8032,647900,0
1,1,716032,249491,1576809,74511,9626,788388,0
1,-1,669137,230232,1309973,68715,8408,655024,0
1,1,713283,249164,1375245,74327,9744,687667,0
1,-1,668117,230496,1355465,68777,8460,677735,0
1,-1,670773,230586,1326339,68781,8690,663191,0
1,1,711023,248744,1593823,74277,9416,797370,0
1,-1,672327,230584,1480265,68820,8807,740219,0
1,-1,664067,230330,1311672,68698,7836,655878,0
1,1,709704,248339,1691252,74056,9681,845659,0
1,-1,666905,230119,1319295,68644,7971,659641,0
1,1,717625,249587,1484744,74379,10210,742455,0
1,-1,714995,244046,1421904,74703,9532,710971,0
1,1,716127,249684,1547818,74628,9279,773079,0
1,-1,669779,232300,1238565,69612,8361,619672,0
1,1,710850,247806,1226377,73923,8008,613242,0
1,-1,672392,232365,1238602,69560,8306,619208,0
1,1,712624,248352,1378907,74065,8247,689305,0
1,-1,664870,228759,1321499,68241,8401,660818,0
1,1,710902,248250,1284728,74011,8628,642214,0
1,1,709482,247713,1387726,73783,9238,693913,0
1,-1,672971,232530,1249739,69688,8041,624789,0
1,-1,669209,230634,1386269,68852,8868,693119,0
1,1,714258,249374,1355318,74369,9041,677690,0
1,-1,691090,235989,1438254,72366,9175,719310,0
1,-1,665781,230158,1341213,68661,8853,670471,0
1,1,710286,248173,1306672,74082,9092,653184,0
1,1,711645,247998,1429799,74034,9595,714942,0
1,-1,669964,230583,1311559,68841,8217,655814,0
1,-1,669462,229415,1429736,68439,8553,714900,0
1,1,716179,249984,1443358,74708,9209,721759,0
1,-1,674928,230766,1386716,68762,7129,693392,0
1,-1,667196,232369,1269301,69054,8050,634321,0
1,1,711613,247835,1467322,73827,9463,733676,0
1,-1,661600,230199,1333934,68106,7987,666949,0
1,1,711495,247676,1307488,73845,9281,653785,0
1,-1,662879,230382,1371545,68301,8862,685831,0
1,-1,661553,229848,1340439,68076,8207,670261,0
1,1,716209,249470,1373225,74729,9428,686781,0
1,1,714352,248741,1452250,74528,11022,726289,0
1,-1,660199,230527,1353009,68346,10178,676416,0
1,-1,682668,235090,1384342,71631,9319,692133,0
1,-1,664343,230454,1349292,68456,7923,674682,0
1,-1,669571,232585,1301846,69251,8084,650946,0
1,-1,666026,231317,1430781,68755,9178,714422,0
1,1,707830,248455,1366550,74331,9015,683060,0
1,-1,666960,230511,1319623,69321,8390,659855,0
1,-1,673916,232016,1222052,69983,8310,611102,0
1,1,706566,247379,1324568,73982,8979,661567,0
1,-1,664359,230483,1190438,69359,7853,595261,0
1,1,727146,252322,1458475,77400,10538,729026,0
1,-1,664361,229966,1369307,69143,8487,684606,0
1,-1,667234,230672,1375532,69345,9017,688154,0
2,-1,716934,248086,1222898,73614,7992,611497,0
2,1,782009,270191,1363441,81693,10651,681712,0
2,-1,744112,253775,1334668,77246,9729,667368,0
2,1,743336,260439,1491256,76797,9089,745764,0
2,-1,720900,250256,1585105,74464,8618,792586,0
2,1,707569,247620,1436378,73451,9348,718249,0
2,-1,665231,230431,1336585,68828,8045,667964,0
2,-1,673014,232500,1486497,69666,9951,743331,0
2,1,704038,249092,1386287,74092,8133,693327,0
2,1,703210,247239,1319236,73415,8233,659528,0
2,-1,665187,229811,1306176,68587,8015,653133,0
2,1,702563,248087,1293577,73723,8200,646656,1
2,-1,665597,229936,1176931,68684,7628,588522,2
2,1,703302,247132,1275931,73393,8021,637931,0
2,1,704646,247725,1512107,73578,8920,755903,0
2,-1,667278,230350,1204973,68893,7637,602542,0
2,-1,667741,229816,1359610,68679,8702,679852,0
2,1,703131,246768,1299361,73284,9131,649517,0
2,-1,660209,229728,1466144,68680,8818,731555,0
2,-1,662092,230483,1324428,68950,7716,662295,0
2,1,708281,247342,1389198,73461,9048,694692,0
2,-1,669396,230890,1379388,69193,8796,689561,0
2,1,712113,249592,1501247,74312,9864,750365,0
2,-1,666918,231396,1348621,69295,8098,674008,0
2,-1,669109,231711,1367570,69475,8865,683700,0
2,-1,660124,229302,1366978,68432,8304,683587,0
2,1,707623,247365,1400509,73431,9099,700219,0
2,-1,662521,229338,1300223,68461,8735,649975,0
2,-1,666937,231179,1252677,69127,8466,626211,0
2,1,711559,249802,1432882,74527,9408,716309,0
2,-1,683232,234361,1285386,72025,8796,642656,0
2,-1,688146,234730,1440664,72137,8351,720353,0
2,-1,670034,230664,1296717,68998,8731,648405,0
2,1,710678,247889,1272451,73771,8670,636210,0
2,1,724615,252715,1372369,77130,8812,686152,0
2,-1,664154,230054,1272693,68668,8338,636282,0
2,1,704841,248149,1349090,73766,8694,674561,0
2,-1,669523,231824,1315371,69181,8529,657765,0
2,-1,670495,231344,1299382,69067,8927,649700,0
2,1,708532,248995,1392944,74313,8890,696493,0
2,-1,669110,231383,1217274,69151,7830,608517,0
2,1,704261,247948,1299541,73754,9102,649701,0
2,-1,672350,231557,1347181,69429,9397,673769,0
2,1,711297,250051,1459236,74689,8799,729661,0
2,1,709594,249548,1544159,74380,9634,772019,0
2,-1,670173,230520,1229181,69015,8439,614672,0
2,1,708786,248463,1347432,73882,8186,673749,0
2,-1,667468,230521,1239824,69020,8602,619840,0
2,-1,670446,231616,1392182,69570,9031,696355,0
2,1,705258,247850,1428360,73621,8750,714221,0
2,-1,669875,231761,1422335,69626,9812,711182,0
2,1,706104,247909,1256536,73703,8061,628284,0
2,-1,669799,230873,1373648,69108,8128,686862,0
2,1,706523,247277,1234011,73398,8285,617058,0
2,-1,670738,230642,1315340,69106,8433,657763,0
2,-1,691831,235011,1258244,72307,8857,629078,0
2,-1,665423,231137,1245659,69260,7909,622552,0
2,1,709744,247638,1276004,73542,8478,638032,0
2,-1,685817,235464,1280878,72472,9195,640390,0
2,1,710143,248671,1474979,73953,8539,737538,0
2,-1,667878,231453,1345760,69373,8776,672508,0
2,1,703638,247478,1496151,73484,10311,747876,0
2,-1,661347,229709,1210129,68784,7053,605106,0
2,-1,662573,230273,1220565,69000,8095,610259,0
2,1,710196,248432,1461550,73806,8616,730783,0
2,-1,663528,230400,1386127,69033,8835,692953,0
2,-1,665395,230570,1395938,69093,7526,697959,0
2,1,709773,248290,1344842,73839,8058,672461,0
2,-1,665721,230809,1315695,69072,8477,657339,0
2,1,704930,247679,1402772,73587,8770,701436,0
2,-1,666239,231327,1316875,69219,8320,658370,0
2,1,709250,248279,1274885,73823,7963,637525,0
2,1,710868,248633,1440339,73786,9056,720190,0
2,-1,666699,230605,1219696,68971,8078,609876,0
2,-1,670080,231229,1334997,69219,8099,667279,0
2,1,708125,248556,1435097,73745,8941,717450,0
2,-1,684606,235407,1244423,72344,7851,622159,0
2,-1,665099,231517,1351726,69304,8663,675907,0
2,1,711618,249204,1433383,73931,9033,716492,0
2,-1,669578,232096,1313677,69638,8092,656902,0
2,-1,664376,230449,1189748,68913,7180,594965,0
2,1,715065,250467,1389896,74688,8726,695027,0
2,-1,665560,230695,1320416,69032,7422,660278,0
2,-1,670545,231991,1328425,69578,7689,664271,0
2,1,718332,250948,1550015,74828,9752,774504,0
2,-1,666542,231574,1214951,69316,7638,607514,0
2,1,709374,250289,1357118,74417,9429,678450,0
2,-1,669933,231637,1219215,69332,7358,609639,0
2,1,716246,250964,1316374,74713,9607,658143,0
2,-1,668089,230809,1359428,68965,8438,679765,0
2,1,710956,249049,1305012,73956,9185,652495,0
2,-1,667663,230517,1178843,68980,7952,589479,0
2,1,712825,249179,1413429,73965,10162,706580,0
2,-1,663961,231347,1413314,69211,8686,706219,0
2,-1,687460,235867,1256574,72499,8657,628279,0
2,1,710252,248437,1305203,73717,9371,652620,0
2,-1,664661,230844,1261597,69071,6980,630648,0
2,1,704373,247297,1311191,73456,8862,655571,0
2,-1,666579,230417,1248397,68861,7606,624240,0
2,1,711704,248200,1361983,73620,8473,681028,0
2,-1,668276,231629,1340755,69520,7254,670431,0
2,-1,662783,230552,1214809,69005,8108,607452,0
2,-1,667125,231337,1282890,69253,7526,641481,0
2,1,707173,247724,1282563,73489,8643,641250,0
2,-1,667369,231339,1424443,69239,7859,712257,0
2,1,710536,248233,1327314,73660,9561,663692,0
2,-1,667112,230469,1172481,68880,7544,586281,0
2,1,714685,248917,1303311,73702,9436,651460,0
2,-1,669568,231125,1286670,68990,8029,643133,0
2,-1,667640,230636,1335692,68902,8182,667781,0
2,-1,663369,230212,1502128,68824,8725,751106,0
2,1,718462,251071,1442823,74744,9251,721379,0
2,-1,666111,230742,1292899,68898,8198,646508,0
2,-1,663951,230145,1310081,68799,7830,655079,0
2,1,713556,248438,1310859,73703,8421,655494,0
2,-1,671707,231612,1466755,69199,8799,734539,0
2,1,714235,249658,1343720,74334,8673,671944,0
2,-1,667360,230644,1315535,68817,8496,657260,0
2,-1,669127,230440,1326294,68786,7949,662733,0
2,1,710335,247595,1398503,73436,10005,699295,0
2,-1,664281,230667,1266753,68869,9055,633088,0
2,-1,670320,232290,1273569,69560,8822,636756,0
2,1,709541,248784,1338133,73972,8631,669120,0
2,1,715707,249980,1300464,74412,8894,650282,0
2,-1,671694,231375,1390334,69240,9841,695152,0
2,-1,672352,232010,1355720,69288,9017,677202,0
2,1,709117,247732,1423205,73418,9258,711432,0
2,-1,673331,231847,1338347,69383,8455,669068,0
2,-1,673619,232006,1390638,69237,9260,695306,0
2,1,711397,248228,1477744,73626,9625,738888,0
2,-1,663703,231765,1228544,69168,8258,613912,0
2,-1,687696,236222,1311793,72403,9306,655413,0
2,1,700527,247481,1265859,72851,7574,632970,0
2,-1,668984,232155,1401311,69290,8880,700553,0
2,1,730198,256519,1365446,75490,9033,682840,0
2,-1,670914,231369,1333186,68945,9218,666622,0
2,-1,673434,233259,1366086,69946,8737,683000,0
2,1,702437,247133,1447587,72786,9304,723760,0
2,-1,670781,232398,1235299,69521,7778,617654,0
2,1,704595,247703,1425841,73012,9082,712994,0
2,-1,673626,231942,1358603,69313,9017,679324,0
2,1,710930,249512,1355986,74688,10726,677545,0
2,-1,668168,230701,1239859,68812,8995,619958,0
2,1,708213,246935,1257358,73672,8618,628709,0
2,-1,667886,230938,1436884,69051,8737,718337,0
2,1,705396,247280,1232364,73795,7783,616202,0
2,-1,666782,230288,1318696,68711,8682,659398,0
2,-1,668854,231672,1213053,69205,8675,606375,0
2,1,708445,247190,1345696,73754,8254,672883,0
2,-1,666826,230139,1252012,68616,8532,625994,0
2,1,710401,248990,1204096,74504,7781,602108,0
2,-1,667234,230191,1304697,68694,7472,652445,0
2,1,709219,246818,1232352,73604,8723,616195,0
2,-1,664657,230757,1182450,69038,8171,591167,0
2,-1,666498,230544,1161831,68934,7902,580874,0
2,1,708695,246537,1362608,73619,9415,681356,0
2,-1,669070,230971,1357004,69010,8141,678467,0
2,1,706392,247415,1415537,73810,9195,707809,0
2,-1,671019,233167,1324165,70017,8910,662008,0
2,-1,668940,231597,1223780,69193,7731,611925,0
2,-1,672267,232411,1304350,69801,8189,652182,0
2,1,727152,252056,1441577,77150,10743,720759,0
2,-1,668785,230534,1280514,68984,8288,640283,0
2,-1,670332,232201,1323585,69666,8459,661716,0
2,1,709803,248005,1368347,74029,9587,684287,0
2,-1,669741,230895,1332290,68975,8523,666144,0
2,-1,673414,232083,1328700,69555,9195,664352,0
2,1,713597,248295,1460412,74226,11473,730013,0
2,-1,689239,235079,1211201,72117,9480,605541,0
2,1,710498,247820,1295941,74029,9469,648009,0
2,-1,667830,230640,1413879,68728,9294,706980,0
2,1,729704,251778,1428373,76985,9555,714130,0
2,1,711709,248377,1274212,74152,8669,637220,0
2,-1,672916,231115,1374170,68833,9486,686852,0
2,1,729143,251998,1478808,77051,10294,739381,0
2,-1,671470,231839,1410744,69188,9699,705326,0
2,1,731688,252623,1467629,77229,9947,733875,0
2,-1,686066,235741,1329579,72175,10060,664663,0
2,1,731400,252001,1443954,77030,10225,721981,0
2,-1,663591,230010,1230213,68589,7665,614909,0
2,-1,672182,232818,1302593,69784,8385,651277,0
2,1,708830,248334,1578516,74263,9616,789167,0
2,-1,667019,230450,1345750,68788,8500,672908,0
2,1,712478,250010,1417720,74957,9486,708533,0
2,-1,668874,230180,1356768,68654,8846,678432,0
2,1,715393,248761,1424516,74428,9030,712303,0
2,-1,667998,230524,1200292,68767,7675,600184,0
2,-1,690996,235552,1291828,72238,9039,645953,0
2,1,710256,248294,1414815,74096,9833,707296,0
2,-1,668487,230000,1350176,68556,8504,675111,0
2,1,711727,248872,1437173,74331,9952,718579,0
2,-1,668831,230639,1261097,68819,8209,630580,0
2,-1,668261,230116,1287033,68615,8593,643537,0
2,1,710168,248920,1414779,74297,8552,707264,0
2,-1,674241,231769,1317708,69306,8793,658890,0
2,1,713923,249977,1431438,74751,10132,714974,0
2,-1,671203,231928,1260795,69514,8121,630450,0
2,-1,668489,230331,1308551,68750,7951,654312,0
2,1,712757,248674,1572206,74056,9869,786121,0
2,-1,667579,230691,1364169,68852,8447,681936,0
2,1,732887,253207,1523235,77406,10043,761465,0
2,-1,673080,231037,1311433,68972,9080,655758,0
2,1,709812,247804,1372105,73878,8385,686081,0
2,-1,666770,230149,1327467,68650,8776,663782,0
2,1,721090,250336,1270441,74973,8628,635274,0
2,-1,668139,230565,1455222,68766,9089,727642,0
2,1,707713,247978,1370156,73881,8431,685120,0
2,1,709907,247936,1379433,73992,9282,689763,0
2,-1,691961,234427,1383946,71824,10024,692139,0
2,1,712805,248030,1394606,73941,9240,697456,0
2,-1,671953,232202,1334951,69505,8787,666413,0
2,-1,668276,230543,1410913,68798,8243,705267,0
2,-1,673290,231613,1355998,69118,8987,677975,0
2,1,714100,250044,1289425,74961,9789,644490,0
2,1,714553,249707,1383682,74757,9626,691390,0
2,-1,669732,230465,1300977,68750,8750,650431,0
2,-1,671699,230497,1320205,68724,7867,660151,0
2,1,716284,250800,1654606,75111,11620,827244,0
2,-1,695114,235387,1379770,72124,8772,689854,0
2,1,710623,248167,1710134,73950,11514,855033,0
2,-1,660943,230162,1213862,68119,7889,606866,0
2,-1,661747,230520,1388357,68260,8580,694048,0
2,1,711386,248115,1295207,73932,9054,647643,0
2,-1,664558,231409,1304864,68598,8646,652519,0
2,-1,689147,235962,1504963,72322,10366,751976,0
2,1,712275,247616,1438344,73859,9025,719181,0
2,-1,666163,232632,1296111,69187,9441,648023,0
2,1,710156,247468,1460953,73941,10682,730573,0
2,-1,664792,230381,1264334,68284,8106,632187,0
2,-1,666673,231809,1280091,69079,7824,640094,0
2,-1,663773,230063,1365788,68286,8442,682933,0
2,-1,665422,230097,1337656,68297,8069,668186,0
2,1,706703,247494,1339744,74051,9466,669878,0
2,-1,662793,229420,1327114,68920,8132,663585,0
2,-1,689696,234871,1351659,72523,9236,675806,0
2,1,703148,246491,1251387,73677,7928,625681,0
2,-1,667124,231922,1227328,70010,8492,613719,0
2,1,727252,252012,1450264,77313,10242,724984,0
2,-1,663046,229860,1194091,69070,7986,597099,0
2,-1,666331,230530,1444069,69262,9101,721224,0
2,1,708373,247380,1436186,73876,8980,718031,0
3,-1,716989,248673,1444851,73851,9339,722091,0
3,1,762463,266010,1294488,78550,9728,647300,0
3,-1,720150,248394,1279850,73684,8259,639950,0
3,1,765084,267880,1492104,79313,9539,745716,0
3,-1,720271,248671,1426288,73755,8191,713145,0
3,1,705779,247164,1280526,73305,8614,640292,0
3,-1,665436,230085,1319468,68669,8510,660150,0
3,-1,688950,235144,1356086,72068,9164,677896,0
3,1,711762,247948,1405447,73696,9072,702873,0
3,1,708983,249196,1386444,74217,9193,693316,0
3,-1,665440,230325,1216455,68890,7245,608264,0
3,1,722675,251365,1453368,76640,9199,726529,0
3,1,728114,251852,1384318,76716,9455,691922,0
3,-1,664796,229505,1154343,68497,7596,577098,0
3,-1,665337,230264,1412650,68869,8963,706306,2
3,-1,672974,232400,1316567,69693,8034,658308,0
3,1,704667,247210,1236168,73454,8925,617893,0
3,1,707590,249329,1360276,74407,9557,680119,1
3,-1,669020,232666,1479835,69862,9680,738406,0
3,-1,667160,231928,1330780,69663,8834,665393,0
3,1,706030,247452,1432738,73435,8981,716312,0
3,-1,665939,230255,1353413,68862,8306,676582,0
3,1,704054,247594,1260223,73536,9444,630070,0
3,-1,665453,230028,1263853,68775,8218,631832,0
3,-1,663339,229439,1342462,68528,8500,671268,0
3,1,705747,247522,1388851,73472,9298,694386,0
3,-1,669279,230188,1325120,68779,8376,662621,0
3,-1,665836,230730,1213937,68982,8078,606789,0
3,-1,667036,230412,1271614,68885,9106,635823,0
3,1,718045,250131,1370373,74610,10270,684919,0
3,-1,663616,229734,1278323,68715,8387,639300,0
3,-1,668192,230800,1394453,69079,8077,697281,0
3,1,707876,247096,1345336,73489,9331,672557,0
3,-1,667689,230217,1250796,68840,7711,625506,0
3,1,701903,247811,1368070,73721,8330,684079,0
3,-1,664839,230583,1287586,68836,8087,643829,0
3,1,707169,248724,1394879,74233,8912,697519,0
3,-1,669944,230742,1304414,68873,9329,652195,0
3,-1,669186,231247,1329213,68943,8405,664579,0
3,1,727675,252180,1359309,76983,9060,679641,0
3,-1,670350,232234,1330848,69602,8518,665296,0
3,1,702677,247785,1388866,73752,9521,694436,0
3,-1,669295,230713,1215772,68905,7960,607803,0
3,1,702833,247531,1306702,73649,7932,653183,0
3,-1,670804,231408,1212261,69295,8388,606065,0
3,1,705510,248004,1700329,73740,10844,849806,0
3,1,707765,247600,1280199,73546,8215,640120,0
3,-1,666212,230559,1218699,69085,7801,609322,0
3,-1,668270,230822,1376818,69160,8445,688252,0
3,1,707216,248071,1281876,73753,8274,641023,0
3,-1,672499,230762,1399406,69098,8688,699696,0
3,1,709202,249137,1368236,74251,8601,684174,0
3,-1,671386,231082,1243600,69208,8535,621828,0
3,1,710229,248149,1590682,73791,10239,795396,0
3,-1,667708,229800,1311263,68814,8563,655699,0
3,-1,672242,231498,1321688,69567,8496,660945,0
3,-1,660779,230347,1307938,69019,7919,654007,0
3,1,710262,248535,1329897,73883,9392,664704,0
3,-1,662290,230428,1224878,69037,7700,612486,0
3,-1,664954,230252,1300657,68957,8973,650366,0
3,1,706973,247446,1280262,73519,7775,640173,0
3,-1,666823,232160,1308600,69786,8115,653912,0
3,1,704493,248154,1493382,73683,10015,746718,0
3,-1,661281,229802,1320201,68759,7891,660154,0
3,1,709449,248652,1419701,73874,8587,709892,0
3,-1,682878,234747,1295753,72203,9634,647486,0
3,1,728767,252543,1317416,77011,8927,658700,0
3,-1,696879,241438,1384153,72513,8653,691984,0
3,-1,667370,231902,1303313,69652,9265,651398,0
3,1,710390,248934,1399519,73977,8225,699803,0
3,-1,663967,230357,1371946,68865,7862,685988,0
3,1,707069,248182,1241167,73705,7721,620652,0
3,1,706843,247818,1369742,73550,8955,684873,0
3,-1,671878,232736,1315229,69987,7654,657655,0
3,-1,669691,231152,1301315,69165,7244,650701,0
3,1,734131,257902,1526603,76501,9420,763509,0
3,-1,661248,230082,1354275,68743,8102,677085,0
3,-1,666663,232548,1312002,69835,8145,656057,0
3,1,713388,249084,1381920,73850,9733,691322,0
3,-1,667384,231194,1309534,69218,7592,654818,0
3,-1,668734,232254,1316127,69690,7368,658128,0
3,1,712535,248624,1400225,73810,8548,700007,0
3,-1,669277,231205,1483983,69245,9771,742026,0
3,-1,669026,230763,1220569,69078,7508,610313,0
3,1,712328,248606,1329084,73955,8694,664427,0
3,-1,667335,231472,1340650,69237,7177,670346,0
3,1,712979,249160,1302301,73846,8917,651125,0
3,-1,668364,231228,1311995,69207,7466,656020,0
3,1,708686,247894,1259249,73390,8318,629692,0
3,-1,667978,230195,1296556,68855,7584,648294,0
3,1,710876,248531,1427312,73742,8997,713400,0
3,-1,675316,232677,1256893,69911,8493,628529,0
3,1,710447,248575,1297653,73700,9200,648799,0
3,-1,660760,230224,1250469,68789,7235,625263,0
3,-1,693021,240080,1309277,71825,7839,654691,0
3,1,708173,247970,1330272,73498,9467,665038,0
3,-1,665870,230155,1238371,68873,7287,619232,0
3,1,724946,252257,1406552,76905,9107,703181,0
3,-1,667901,231889,1227908,69487,7587,614009,0
3,1,708580,247824,1416877,73514,8983,708205,0
3,-1,666866,231626,1291230,69337,6941,645734,0
3,-1,665011,231405,1258068,69202,7649,629081,0
3,-1,684637,235003,1267960,72247,8652,633914,0
3,1,709098,247892,1342247,73602,8917,671087,0
3,-1,665221,230517,1214410,68986,7398,607204,0
3,1,709788,247650,1281234,73376,9058,640572,0
3,-1,668551,230404,1178201,68882,8084,589150,0
3,1,710573,247530,1340840,73241,9223,670185,0
3,-1,667080,230774,1457877,68915,8519,729004,0
3,-1,669980,230959,1266431,69064,8321,633250,0
3,-1,667353,232381,1503817,69826,8855,752484,0
3,1,713151,249862,1443916,74229,9142,721917,0
3,-1,669139,232425,1362526,69600,8075,681434,0
3,-1,670990,232450,1355453,69824,8816,677397,0
3,1,709110,247266,1327922,73301,9243,663922,0
3,-1,669683,231073,1271175,69005,8279,635482,0
3,1,707298,247247,1235161,73268,8388,617619,0
3,-1,667049,231046,1389001,68927,8411,693921,0
3,-1,671423,231960,1434785,69500,8172,717261,0
3,1,713395,249318,1385777,74081,9690,693034,0
3,-1,666406,230983,1350285,68928,8635,675136,0
3,-1,669319,230664,1251125,68827,8839,625591,0
3,1,715008,250084,1379274,74479,8623,689694,0
3,-1,674510,232437,1341986,69726,9145,670957,0
3,1,708876,247524,1358099,73407,9171,679046,0
3,-1,694918,236904,1293207,72776,9362,646628,0
3,1,707457,247636,1614209,73468,9934,806944,0
3,-1,676473,233228,1386594,70110,8993,693144,0
3,-1,696992,236907,1313590,72627,9526,656731,0
3,1,712119,249037,1404552,74037,9617,702343,0
3,-1,674703,231322,1281386,68924,8775,640597,0
3,-1,667521,232176,1431586,69300,9277,715817,0
3,1,705613,249557,1282712,73734,7631,641091,0
3,-1,695905,241279,1337597,71988,8757,668759,0
3,1,701742,247350,1437941,72789,8890,718623,0
3,-1,670977,231669,1262270,69112,8806,631259,0
3,-1,669222,232291,1340040,69369,9015,670001,0
3,1,704666,247726,1414046,72972,9292,707032,0
3,-1,667172,231181,1315781,69032,8934,658086,0
3,1,701096,246972,1407416,72693,8897,703771,0
3,-1,692254,235844,1353998,72334,10214,676998,0
3,1,702802,247601,1506025,73094,9470,752691,0
3,-1,668356,231533,1249311,69131,8769,624681,0
3,1,709074,248432,1277599,74358,8538,638917,0
3,-1,667741,231453,1257108,69176,8083,628718,0
3,1,707289,248271,1346526,74148,8760,673293,0
3,-1,674446,232698,1362351,69865,9052,681115,0
3,-1,667958,230816,1239477,68941,9112,619764,0
3,1,714860,249976,1319415,74979,8471,659779,0
3,-1,674319,232696,1379652,69712,8717,689832,0
3,1,703422,246853,1284180,73630,8792,642128,0
3,-1,667313,230455,1388457,68894,8088,694239,0
3,1,707434,247016,1368200,73690,8932,683735,0
3,-1,664984,230771,1310539,68993,8329,655227,0
3,-1,664381,230256,1172658,68896,7627,586154,0
3,1,709974,247309,1298766,73761,8901,649419,0
3,-1,671781,232723,1310037,69824,8127,654994,0
3,1,706037,247689,1337820,73960,8987,668887,0
3,-1,689570,235333,1270465,72228,8637,635183,0
3,-1,666045,230478,1331783,68823,7824,665878,0
3,1,707775,247807,1306407,73990,8284,653261,0
3,-1,687982,234992,1263098,72193,8548,631264,0
3,-1,667749,230132,1218733,68848,7793,609363,0
3,-1,664347,229839,1320676,68688,8546,660415,0
3,1,706890,247213,1379975,73717,9331,690063,0
3,-1,670839,231052,1220542,69142,8203,610357,0
3,-1,668018,230593,1206901,68909,8053,603443,0
3,1,714559,249132,1482478,74641,10426,740745,0
3,-1,672316,230343,1353965,68716,8330,677023,0
3,1,709416,247517,1258871,73869,8886,629380,0
3,1,707358,247493,1348464,73789,8651,674262,0
3,-1,670871,230693,1252363,68695,8426,626263,0
3,1,707498,246912,1283637,73615,8298,641855,0
3,-1,674218,231670,1354860,69223,9092,676975,0
3,1,709886,247384,1312520,73755,8859,656311,0
3,-1,669107,231518,1670297,68973,12004,834939,0
3,1,712013,247249,1404682,73635,8923,702377,0
3,-1,669740,231035,1357679,68848,8600,678689,0
3,1,709129,247436,1345067,73663,9386,672581,0
3,-1,666455,230581,1254599,68803,8197,627318,0
3,-1,687294,235201,1201919,72118,8684,600889,0
3,1,703124,247359,1335149,73892,8380,667436,0
3,-1,664713,229705,1299379,68453,7544,649382,0
3,1,712555,248301,1478460,74207,9200,739142,0
3,-1,673294,232399,1294114,69655,8413,647162,0
3,1,716090,248832,1395560,74429,8844,697817,0
3,-1,667551,230938,1214918,68952,7288,607503,0
3,-1,666132,229563,1207565,68470,7524,603778,0
3,1,711081,248681,1393586,74286,9431,696715,0
3,-1,669493,230711,1263578,68870,7895,631818,0
3,1,735538,253164,1509384,77528,10871,754237,0
3,-1,671445,232478,1339785,69677,8167,669924,0
3,-1,669036,230703,1386358,68868,9215,693169,0
3,1,710126,248625,1441852,74206,9858,720608,0
3,-1,669802,230117,1416427,68624,8799,708256,0
3,-1,690470,235730,1350482,72300,8474,675225,0
3,1,711520,248969,1439608,74255,9841,719895,0
3,-1,667297,229863,1349112,68543,8115,674710,0
3,1,717768,249871,1387243,74644,10115,693256,0
3,-1,668239,230799,1268260,68842,8280,634309,0
3,1,710604,248120,1463470,73940,8982,731366,0
3,-1,668578,229753,1259227,68462,8702,629908,0
3,-1,670723,230611,1389302,68792,8836,694696,0
3,1,712724,248131,1516626,73961,10092,758350,0
3,1,738545,253431,1421045,77549,10172,710461,0
3,-1,690652,235432,1413603,72186,9443,706652,0
3,1,709192,248911,1277665,74382,9010,638889,0
3,1,711067,248359,1367414,74108,8993,683744,0
3,-1,670427,230168,1253981,68689,9213,626899,0
3,1,711889,248120,1370233,73987,9134,685158,0
3,-1,666045,230224,1281443,68726,7557,639827,0
3,-1,665914,230124,1279524,68624,8343,639605,0
3,1,713820,249022,1405941,74269,9792,703007,0
3,-1,671815,230648,1344887,68834,8712,672493,0
3,1,716982,248561,1454736,74220,10287,727280,0
3,-1,669499,229759,1327325,68543,8611,663583,0
3,-1,669369,229872,1278797,68473,7865,639442,0
3,1,710453,248921,1458560,74152,9570,729065,0
3,-1,672413,230550,1290603,68741,7068,645359,0
3,1,714357,248717,1470322,74133,9810,735227,0
3,-1,668265,233014,1245519,69353,8109,622654,0
3,-1,670917,233069,1264673,69414,7639,632075,0
3,1,710383,247953,1423810,73916,9743,711958,0
3,-1,663163,230614,1260331,68341,8636,630191,0
3,1,711055,248153,1261994,73912,9191,630903,0
3,-1,668018,231693,1453706,68857,8976,727016,0
3,-1,666686,230462,1314265,68263,9549,657177,0
3,1,736633,252104,1640169,77246,12491,820385,0
3,-1,663392,230392,1298777,68288,8305,649437,0
3,-1,661966,230529,1469328,68488,9723,734703,0
3,1,712030,246779,1440624,73756,9793,720688,0
3,-1,664949,230369,1225830,68437,7978,612818,0
3,-1,665748,230362,1344807,68375,8145,671969,0
3,-1,669576,231238,1223792,69720,8165,611940,0
3,-1,665928,229224,1345607,68809,8055,672854,0
3,1,705999,246937,1290450,73811,9339,645082,0
3,-1,682695,234650,1358468,72472,9306,679159,0
3,1,703821,246974,1371489,73809,9081,685590,0
3,-1,662955,229784,1216000,69082,8550,608021,0
3,-1,672855,233566,1390093,70565,9192,693981,0
3,1,707584,247033,1283866,73731,9005,641891,0
4,-1,717259,248964,1359098,73872,7974,679589,0
4,1,761827,266083,1342865,78589,9290,671466,0
4,-1,721194,248826,1280054,73867,8584,640011,0
4,1,758826,265316,1335474,78237,8684,667781,0
4,-1,739258,254108,1378860,77371,8577,689462,0
4,1,709227,247374,1381631,73481,9548,690843,0
4,-1,665487,230525,1396952,68845,8336,698241,0
4,-1,666738,230365,1236774,68711,8435,618434,0
4,1,715460,249901,1454806,74534,9014,727454,0
4,1,704726,247080,1388324,73259,8775,694153,0
4,-1,661187,229191,1321248,68418,7711,660650,0
4,1,708294,247635,1363737,73601,8675,681805,0
4,1,705845,247417,1241640,73431,8453,620565,0
4,-1,665758,230236,1165789,68676,7183,582853,0
4,-1,665156,229596,1219230,68588,7858,609689,0
4,1,709251,249286,1309666,74269,9453,654616,0
4,-1,659804,230081,1214485,68824,7382,607295,2
4,-1,681348,234321,1325227,71907,8616,662582,0
4,-1,685432,234443,1261333,72004,8577,630492,0
4,1,730062,252433,1373228,76936,9884,686451,0
4,-1,686846,234982,1347482,72142,9258,673641,0
4,1,716242,250609,1430437,74671,9734,715054,1
4,-1,668529,232338,1270162,69745,8279,635077,0
4,1,702128,246731,1295152,73241,9705,647398,0
4,-1,665689,230029,1361972,68771,8638,680995,0
4,1,710391,248492,1389721,73651,9155,694793,0
4,-1,671855,231717,1350556,69485,8752,675264,0
4,-1,668768,231516,1345186,69403,8712,672428,0
4,-1,667690,231057,1361065,69064,8368,680406,0
4,1,733318,252772,1336888,77123,10968,668433,0
4,-1,667890,230252,1353729,68893,8592,676823,0
4,-1,669730,231352,1348143,69389,8937,674187,0
4,1,709890,248078,1429982,73777,9863,715016,0
4,-1,668211,230303,1276578,68841,8509,638291,0
4,-1,671567,230806,1211591,68970,8621,605793,0
4,1,713678,247498,1384295,73585,8413,692168,0
4,-1,668723,230642,1378813,68815,8999,689519,0
4,1,705094,248288,1292352,73907,8524,646238,0
4,1,705596,248061,1357510,73800,9076,678681,0
4,-1,673775,232829,1445798,69775,9054,722793,0
4,-1,663844,229818,1283607,68637,8236,641735,0
4,1,711728,248788,1354137,74272,9865,676954,0
4,-1,667186,230205,1312568,68756,8131,656327,0
4,1,704845,248082,1357722,73787,9158,678860,0
4,-1,672806,231824,1264643,69607,8635,632190,0
4,1,707184,248731,1410775,73940,8582,705583,0
4,1,705995,247880,1262210,73593,8152,631137,0
4,-1,669831,232421,1341386,69847,8665,670906,0
4,1,704246,248120,1356963,73719,7837,678511,0
4,-1,664957,229791,1415504,68818,8222,707783,0
4,-1,670933,230430,1295636,69009,7832,647705,0
4,1,705795,247519,1241131,73524,8370,620607,0
4,-1,675129,232936,1311449,70088,8848,655796,0
4,1,708699,247818,1405607,73642,8756,702840,0
4,-1,669483,230583,1333588,69040,8363,666832,0
4,-1,670177,230556,1284300,69038,7780,642222,0
4,-1,660936,230836,1220565,69083,7729,610367,0
4,1,713861,249655,1310563,74379,8374,655358,0
4,-1,661969,230558,1390083,69020,8511,695086,0
4,1,713495,249732,1501175,74602,9575,750608,0
4,-1,668632,232238,1340031,69805,9087,669860,0
4,-1,662629,230379,1486022,69025,8696,743040,0
4,1,709200,250148,1458765,74623,10166,729167,0
4,-1,662695,230664,1305639,69133,7362,652670,0
4,1,705377,247949,1400842,73649,8686,700462,0
4,-1,668554,231084,1210347,69258,8023,605159,0
4,1,708207,247935,1259210,73709,8124,629650,0
4,-1,663899,230956,1228613,69186,7280,614160,0
4,-1,664503,230078,1225811,68851,7330,612898,0
4,1,707632,247996,1287195,73741,8646,643575,0
4,-1,662676,230510,1294587,68850,8295,647738,0
4,1,714619,249534,1281586,74348,8667,640875,0
4,1,709562,248771,1437412,73786,9437,718771,0
4,-1,666991,231356,1462883,69188,8288,731447,0
4,-1,669149,231695,1215099,69357,7761,607571,0
4,1,707159,248223,1407337,73739,8849,703405,0
4,-1,666353,232792,1309274,69963,8029,654548,0
4,-1,663696,230033,1421320,68819,10110,710681,0
4,1,712788,249093,1435582,73920,10140,717845,0
4,-1,665950,230899,1206582,69088,7391,603330,0
4,-1,663821,230743,1228583,69050,7183,614155,0
4,1,708209,247605,1269401,73516,8722,634913,0
4,-1,668361,231233,1298006,69223,8077,649093,0
4,-1,667119,230411,1228354,68935,7073,614219,0
4,1,711318,248393,1345107,73801,9092,672210,0
4,-1,686143,235629,1205452,72425,8427,602761,0
4,1,712422,248710,1395394,73697,10109,697653,0
4,-1,666387,230887,1270304,69084,7208,635183,0
4,1,715526,250672,1505631,74561,9842,752338,0
4,-1,665817,230565,1333386,68890,8008,666736,0
4,1,712174,249273,1356219,74012,9286,677982,0
4,-1,670965,231238,1228929,69164,7848,614494,0
4,1,715133,251022,1311535,74765,9189,655675,0
4,-1,672415,231254,1300144,69179,8106,650236,0
4,-1,664203,230083,1273078,68795,7385,636562,0
4,1,710722,248229,1314966,73722,9576,657377,0
4,-1,686177,235372,1347010,72304,8325,673485,0
4,1,713887,248555,1351160,73851,9332,675650,0
4,-1,666313,231068,1174734,69131,7073,587396,0
4,1,709535,247939,1377201,73558,8756,688600,0
4,-1,663132,230580,1213358,68953,6866,606717,0
4,-1,665712,230926,1195804,69105,7176,597952,0
4,-1,668454,231678,1285694,69529,8934,642543,0
4,1,732448,252628,1354582,76960,9945,677253,0
4,-1,667976,231780,1319702,69552,8207,659918,0
4,1,712280,249309,1501452,74152,9496,750606,0
4,-1,668800,230877,1176153,69080,7873,588125,0
4,1,707377,246758,1373573,73009,9551,686790,0
4,-1,668786,231305,1328362,69075,7828,663670,0
4,-1,670821,231411,1307213,69235,8023,653771,0
4,-1,683585,235578,1302659,72394,8945,651091,0
4,1,714366,249905,1452300,74301,9633,726213,0
4,-1,663365,230224,1530996,68800,8329,765537,0
4,1,732600,252349,1377943,76758,10160,688935,0
4,-1,664333,230381,1280025,68732,7648,640410,0
4,-1,668156,230546,1389822,68866,8301,694647,0
4,1,709242,247963,1382570,73533,9203,691337,0
4,-1,668119,230787,1427290,68902,8313,713199,0
4,-1,670592,231132,1396202,68963,8588,697904,0
4,1,709752,247772,1294425,73487,9296,647235,0
4,-1,691987,235329,1365117,72157,10092,682226,0
4,-1,667588,230893,1359777,68949,8177,679931,0
4,1,705852,247354,1272506,73402,8115,636289,0
4,-1,669286,230797,1240984,69034,8332,620603,0
4,1,730458,252552,1398981,76799,9475,699264,0
4,-1,669211,230951,1349098,68993,8905,674480,0
4,1,705436,247237,1395808,73257,9292,697909,0
4,-1,670196,231312,1530234,69121,9115,764763,0
4,-1,674240,232053,1375733,69203,9003,687888,0
4,1,733303,251986,1466723,76632,10704,733395,0
4,-1,680045,233751,1338211,70035,8969,669009,0
4,-1,665726,231603,1420536,69094,9060,709951,0
4,1,697938,247506,1386784,72871,7934,693194,0
4,-1,667702,232035,1306928,69217,9114,653275,0
4,1,701197,247338,1377792,72795,9148,688879,0
4,-1,693350,237197,1269190,72718,9586,634619,0
4,1,702166,246949,1305993,72647,9508,653014,0
4,-1,673073,233037,1316515,69756,8333,658021,0
4,-1,673822,233336,1309956,70032,9036,654775,0
4,1,709258,250183,1361263,74002,9391,680685,0
4,-1,671308,231421,1342927,69100,8729,671152,0
4,1,701975,247225,1482668,72933,9676,741334,0
4,-1,668396,231650,1320973,69128,8618,660538,0
4,1,709884,247818,1378455,73972,9244,689274,0
4,-1,668139,230688,1347896,68774,9174,673917,0
4,1,706764,247083,1339984,73718,9061,670041,0
4,-1,691920,236048,1454640,72460,9503,727273,0
4,-1,667673,230798,1207628,69013,8716,603768,0
4,-1,670792,231672,1247617,69218,8167,623786,0
4,1,707730,247674,1405411,73970,9152,702882,0
4,1,733533,252019,1361366,77142,9721,680343,0
4,-1,671147,231057,1239935,69059,8141,619966,0
4,1,708786,247311,1402459,73806,8664,701268,0
4,-1,669050,231710,1415733,69352,7692,707790,0
4,-1,665859,230775,1227063,68947,8199,613522,0
4,1,711986,248862,1285611,74578,8768,642902,0
4,-1,668348,231505,1316873,69197,7965,658519,0
4,1,703703,247016,1382584,73682,9336,691345,0
4,-1,673325,232467,1323972,69670,8017,661948,0
4,-1,690152,236006,1406463,72389,8923,703122,0
4,1,707926,248515,1309308,74146,8172,654658,0
4,-1,665460,230186,1304349,68778,7426,652182,0
4,-1,667123,230111,1302496,68714,7875,651219,0
4,-1,662735,229922,1219220,68772,8052,609565,0
4,1,709395,248612,1575130,74212,11134,787596,0
4,-1,670072,231408,1258191,69170,8166,628959,0
4,-1,669277,230801,1229588,68991,8123,614780,0
4,1,711088,248036,1403295,74018,8999,701674,0
4,-1,676995,232701,1305093,69813,8590,652507,0
4,1,708284,247711,1330566,73763,9003,665304,0
4,-1,671063,230438,1331852,68599,9057,665969,0
4,1,708593,247853,1394203,73964,9303,697140,0
4,1,713038,249023,1230752,74586,9071,615265,0
4,-1,672309,231399,1230832,68989,8937,615270,0
4,1,728249,251767,1462594,76931,9537,731025,0
4,-1,688221,235903,1365908,72112,9869,682856,0
4,1,713466,248483,1461036,74027,8995,730544,0
4,-1,670085,231527,1624269,69048,10818,811865,0
4,1,733363,251991,1326239,77045,9800,663148,0
4,-1,669033,230800,1362954,68791,8783,681576,0
4,-1,672044,232381,1236208,69604,8481,617910,0
4,1,705294,247263,1328324,73700,9859,664177,0
4,-1,666097,230487,1325208,68750,8762,662614,0
4,1,732556,252581,1500863,77385,10560,750312,0
4,-1,690546,235624,1438329,72262,9469,719139,0
4,1,713352,248910,1375243,74482,8337,687802,0
4,-1,663175,229647,1316546,68436,7692,658398,0
4,-1,664683,229622,1297744,68503,7383,648938,0
4,1,714993,249264,1543112,74452,10533,771580,0
4,-1,669199,230493,1429054,68748,8827,714531,0
4,1,732003,253142,1582347,77522,11123,790847,0
4,-1,665657,230225,1318163,68665,7652,659185,0
4,-1,668241,230754,1396435,68899,8833,698383,0
4,1,732289,253512,1525481,77621,10903,762601,0
4,-1,677636,233326,1334519,69983,8687,667344,0
4,-1,664450,229814,1313365,68526,8309,656642,0
4,1,729812,253091,1487837,77401,11338,743756,0
4,-1,690273,235612,1298905,72251,8108,649723,0
4,1,713862,249283,1413934,74222,9203,706642,0
4,-1,666399,229948,1353101,68635,8808,676247,0
4,1,710603,247756,1425278,73835,9538,712673,0
4,-1,675068,232181,1473273,69496,9390,736646,0
4,-1,673616,232440,1235425,69599,8271,617638,0
4,1,713761,248668,1320585,74180,8970,660318,0
4,1,715659,249145,1281826,74468,8674,640963,0
4,-1,667839,229476,1311232,68369,8773,655426,0
4,1,708018,248088,1376780,73973,8890,688422,0
4,1,733147,252639,1330363,77290,9770,665177,0
4,-1,669488,230215,1485193,68715,9995,742304,0
4,1,710213,248316,1288343,74078,8380,644253,0
4,-1,669385,230270,1256707,68706,8032,628283,0
4,-1,674012,231320,1249241,69227,8325,624658,0
4,1,711051,248959,1453948,74244,10029,726978,0
4,-1,696378,239393,1424073,71375,8930,711947,0
4,-1,670644,230947,1384950,68891,8466,692242,0
4,1,714684,248002,1428576,74031,9446,714085,0
4,-1,666355,229811,1235448,68527,7589,617680,0
4,1,713406,247694,1403814,73726,9383,701943,0
4,-1,669598,229586,1204845,68335,6895,602479,0
4,1,716179,250291,1384571,74869,9025,692424,0
4,-1,662697,231044,1333609,68481,8031,666778,0
4,-1,683977,234944,1381308,71541,8704,690582,0
4,1,742275,258457,1508833,77197,10001,754342,0
4,-1,662366,230453,1264598,68281,8346,632129,0
4,-1,664690,230899,1540196,68438,10178,769334,0
4,1,708427,247544,1320356,73727,9420,660079,0
4,-1,665443,229989,1279337,68136,8100,639708,0
4,1,712391,247285,1488632,73859,11591,744203,0
4,-1,665242,231679,1250988,68810,8532,625534,0
4,-1,658270,229503,1374353,68122,8353,687207,0
4,1,717906,249904,1404610,74960,9521,702270,0
4,-1,663612,229925,1332500,68193,9790,666236,0
4,-1,688936,238654,1438641,70765,8689,719134,0
4,-1,665611,230208,1212916,69182,7853,606517,0
4,-1,668051,230336,1283663,69261,8257,641829,0
4,1,727370,251846,1301805,77285,9446,650880,0
4,-1,660265,229933,1311783,69139,8199,655920,0
4,1,703632,246711,1255294,73782,9111,627583,0
4,-1,664491,230281,1208606,69192,8457,604337,0
4,-1,687035,235159,1439333,72542,9678,719619,0
4,1,730503,253006,1334501,77516,9559,667066,0
4,-1,665526,229983,1192394,69077,6909,596289,0
5,-1,726277,250660,1441565,74636,9294,720852,0
5,1,780335,270167,1455384,81636,10186,727715,0
5,-1,718895,248379,1214168,73740,7416,606965,0
5,1,788846,275679,1393530,81351,8330,696831,0
5,-1,717259,248983,1249965,73918,7187,625017,0
5,1,705304,247587,1397407,73384,9197,697973,0
5,-1,668906,232052,1372103,69604,8559,685971,0
5,-1,670489,231403,1242884,69046,7487,621487,0
5,1,709489,247545,1410588,73540,9727,705360,0
5,1,704944,247725,1487199,73597,9262,743345,0
5,-1,663152,229722,1187131,68676,7493,593609,0
5,1,711057,249620,1413539,74470,9665,706319,0
5,-1,666412,229620,1220778,68418,8073,610434,0
5,1,705673,247373,1275937,73451,8539,637874,0
5,-1,668451,229764,1294869,68641,8595,647165,0
5,1,704280,247232,1263377,73471,8919,631706,0
5,-1,660656,229797,1373534,68667,8496,686812,0
5,-1,661770,230329,1304302,68892,7289,652078,2
5,-1,662446,229654,1244548,68636,8660,622209,0
5,1,707122,247895,1252077,73694,8517,626054,0
5,-1,667060,231441,1361635,69412,8598,680738,0
5,-1,663693,229642,1156235,68623,7708,578006,0
5,1,709425,250183,1308927,74600,9808,654527,0
5,1,704674,247984,1363965,73624,9322,681915,1
5,1,706014,247657,1328765,73478,8800,664448,0
5,-1,673207,233087,1389741,70030,9436,694888,0
5,-1,667349,229855,1244245,68645,7969,622146,0
5,-1,713172,243717,1346818,74782,9122,673456,0
5,-1,683805,234325,1299724,71963,9045,649873,0
5,1,710404,247843,1242591,73705,8534,621217,0
5,-1,667750,230308,1348647,68904,8394,674326,0
5,-1,664999,229938,1274757,68601,7865,637272,0
5,1,710826,247968,1562475,73794,9545,781090,0
5,-1,675937,233634,1507633,70315,9020,753357,0
5,1,712806,247489,1483490,73625,9203,741522,0
5,-1,674638,232368,1348639,69545,9068,674183,0
5,-1,670501,232133,1359695,69614,9419,679654,0
5,1,705288,248511,1404702,73976,9931,702394,0
5,1,701724,247602,1436822,73566,8746,718451,0
5,-1,671145,230903,1366650,68880,8549,683089,0
5,-1,664921,230702,1263285,68951,8600,631464,0
5,1,728654,252310,1269673,77023,9540,634806,0
5,-1,668290,230489,1302378,68888,8779,651072,0
5,1,706888,248473,1412570,73970,9253,706260,0
5,-1,669294,230982,1260845,69013,7822,630447,0
5,1,708986,247996,1364831,73717,9267,682300,0
5,1,706082,248360,1221591,73838,8404,610831,0
5,-1,669041,231162,1419446,69261,8788,709685,0
5,1,705579,248849,1257814,73990,7891,628953,0
5,-1,671344,232357,1356646,69937,8591,678396,0
5,-1,690827,234854,1547541,72245,9734,773520,0
5,1,705628,247966,1358563,73723,8246,679321,0
5,-1,689006,235101,1247197,72385,8861,623462,0
5,1,707085,247876,1299697,73689,8285,649909,0
5,-1,687790,235061,1224029,72340,8734,612031,0
5,-1,670493,231124,1304821,69250,8016,652549,0
5,-1,665892,232137,1365039,69822,8368,682589,0
5,1,710317,248526,1366270,73885,8313,683161,0
5,-1,663709,230168,1317820,68973,8076,658963,0
5,1,728928,252561,1336398,77009,9324,668129,0
5,-1,665224,230396,1309582,69039,7969,654564,0
5,-1,660025,229055,1233535,68619,7578,616744,0
5,1,726427,252810,1420681,77052,10122,709502,0
5,1,704048,247431,1444954,73473,9194,722499,0
5,-1,664168,231129,1301064,69238,7758,650586,0
5,-1,666423,230315,1219255,69045,8193,609563,0
5,1,711003,248963,1455630,73978,8111,728004,0
5,-1,666994,232513,1335327,69960,8433,667682,0
5,-1,682463,234371,1276759,72156,8772,638324,0
5,1,708994,248169,1385369,73773,9020,692718,0
5,-1,669367,232848,1396515,69957,8919,698589,0
5,1,710691,248383,1321886,73763,8660,660971,0
5,1,711359,248282,1439173,73621,9620,719729,0
5,-1,667302,230867,1599237,69117,10038,799638,0
5,-1,671214,231848,1338677,69571,8095,669396,0
5,1,712470,249970,1403739,74638,9281,701676,0
5,-1,683487,235345,1285542,72336,7770,642715,0
5,-1,665533,231258,1317238,69157,8910,658667,0
5,1,707729,248448,1461924,73703,9642,730582,0
5,-1,666636,231660,1566539,69349,10183,783359,0
5,-1,670535,233038,1458032,70029,9171,728981,0
5,1,710198,248400,1271092,73780,8505,635583,0
5,-1,670756,232799,1297823,69999,8075,648961,0
5,-1,669586,232146,1308238,69754,7419,654174,0
5,1,713254,249396,1417465,74165,9202,708692,0
5,-1,667854,232349,1229566,69739,7996,614863,0
5,1,721292,251043,1423492,74723,9757,711703,0
5,-1,687807,235892,1253174,72502,7763,626595,0
5,1,707338,248451,1386717,73558,9445,693239,0
5,-1,666530,231141,1226725,69170,7454,613396,0
5,1,708322,248217,1382303,73633,9190,691027,0
5,-1,667713,230655,1334158,68952,7814,667120,0
5,1,716032,250338,1516253,74615,9505,758316,0
5,-1,671984,231423,1205848,69169,7862,602965,0
5,1,710066,248164,1527482,73699,9743,763774,0
5,-1,668189,232060,1334692,69573,7524,667386,0
5,-1,669689,232191,1461851,69678,9520,730806,0
5,1,715345,249521,1359257,74310,9654,679571,0
5,-1,665896,231181,1220791,69129,7530,610444,0
5,1,714035,249589,1444007,74294,9185,722028,0
5,-1,688786,235258,1373792,72318,7934,686867,0
5,-1,668019,230475,1383371,68934,8074,691722,0
5,1,706388,247170,1331293,73415,8212,665625,0
5,-1,663156,230418,1224282,68915,7903,612190,0
5,-1,667480,229953,1226412,68768,7924,613248,0
5,1,733057,252500,1357707,76816,9969,678905,0
5,-1,688247,235161,1289109,72241,8469,644596,0
5,1,734096,253670,1342796,77043,9854,671444,0
5,-1,688109,234828,1282314,72121,7886,641117,0
5,-1,670307,231411,1349847,69183,8388,674844,0
5,-1,671009,231012,1383950,69084,8499,691701,0
5,1,730097,252455,1495604,76704,10281,747655,0
5,-1,666520,231822,1405875,69375,7832,703026,0
5,1,710211,248271,1224039,73687,8525,612124,0
5,-1,667089,231252,1378399,69007,8106,689203,0
5,-1,667827,230499,1442330,68798,9134,721429,0
5,1,707023,247449,1384942,73328,9207,692541,0
5,-1,687612,235150,1432266,72162,9337,716097,0
5,-1,673888,233071,1347608,69880,8387,673428,0
5,1,730476,252228,1434887,76747,10057,717600,0
5,-1,670987,231320,1439233,69018,8667,719533,0
5,-1,667231,231387,1458194,69136,8745,729784,0
5,1,708392,248458,1368315,73685,9099,684571,0
5,-1,668874,230668,1378185,68944,8671,688985,0
5,1,710954,248644,1241846,73940,9119,620738,0
5,-1,671945,232248,1319383,69366,8246,659633,0
5,1,711524,247414,1262447,73339,9567,631160,0
5,-1,669375,231392,1638828,69186,9449,818728,0
5,-1,675148,232662,1355657,69445,9173,677921,0
5,1,712908,248577,1324372,73848,9151,661910,0
5,-1,696483,236619,1346347,72503,9710,672971,0
5,-1,666266,231612,1483505,69118,9353,741647,0
5,1,713292,247772,1368543,73410,7882,684217,0
5,-1,670194,233583,1394300,69986,8741,697092,0
5,1,702603,247074,1280864,72714,8636,640343,0
5,-1,669958,231736,1275183,69184,9037,637468,0
5,1,725852,252711,1450258,76358,11131,725134,0
5,-1,671064,232481,1272786,69447,8575,636273,0
5,-1,690277,235091,1311253,72103,9334,655550,0
5,1,711386,248542,1478041,73194,11210,738546,0
5,-1,670233,231878,1285095,69325,8575,642627,0
5,1,710551,248536,1387774,73554,9512,693628,0
5,-1,667127,231248,1274454,68984,8790,637021,0
5,1,711891,247880,1365819,73980,9182,682528,0
5,-1,693542,236479,1348750,72553,10458,674050,0
5,1,710905,249190,1222131,74619,8810,611127,0
5,-1,668255,230753,1262216,68928,8300,631111,0
5,-1,673628,233480,1390703,70139,9627,695014,0
5,-1,665516,230051,1293491,68668,8931,646905,0
5,1,706803,247773,1417297,73991,8835,708569,0
5,1,708596,247056,1443506,73725,9034,721724,0
5,-1,666842,230131,1389376,68681,9377,694594,0
5,1,704631,246809,1331841,73580,8382,666046,0
5,-1,672775,231152,1293629,69173,8478,647038,0
5,-1,664563,230721,1151707,69036,7463,575707,0
5,-1,665021,230298,1222968,68759,8317,611414,0
5,1,712044,248242,1350708,74027,9006,675417,0
5,1,708075,249095,1289572,74582,8634,644999,0
5,-1,667469,230538,1234991,68869,8055,617476,0
5,-1,665812,230310,1235621,68778,7935,617782,0
5,1,708102,247742,1361899,73976,8842,681023,0
5,-1,667096,231056,1290489,69095,7559,645213,0
5,-1,672983,232166,1316111,69650,9040,658011,0
5,-1,663352,230482,1341854,68917,7560,670903,0
5,1,705207,247422,1319025,73820,9429,659488,0
5,-1,666896,230398,1233534,68855,8303,616702,0
5,1,711207,247826,1404083,73954,8852,701780,0
5,-1,666841,230025,1355996,68698,8086,678052,0
5,-1,668396,229978,1251320,68598,8422,625666,0
5,1,705935,247447,1377739,73667,9438,688821,0
5,1,706882,247213,1371802,73809,8731,685958,0
5,-1,672774,231419,1213312,68978,8165,606699,0
5,1,710755,248313,1401249,74089,8989,700670,0
5,-1,672388,231024,1312867,68850,9108,656389,0
5,1,708714,247598,1289223,73808,8032,644659,0
5,-1,665565,230708,1360550,68710,9375,680244,0
5,1,712422,248498,1279908,74182,8473,639970,0
5,-1,671471,232199,1399745,69444,8790,699895,0
5,1,712773,248792,1246948,74353,8409,623517,0
5,-1,689771,235434,1326986,72117,9668,663295,0
5,-1,665406,229867,1402043,68549,8603,700682,0
5,1,727550,252114,1336321,77198,10726,668192,0
5,-1,666178,230287,1241614,68723,8505,620922,0
5,1,710594,248288,1351679,74171,9158,675791,0
5,-1,671289,231505,1302869,69300,8146,651363,0
5,1,714352,249288,1258293,74452,8273,629175,0
5,-1,664424,230216,1218387,68730,7834,609279,0
5,-1,669264,231749,1317868,69383,7540,658990,0
5,1,711366,248590,1364453,74318,9178,682365,0
5,-1,695231,240320,1351552,71897,7721,675843,0
5,1,714232,249583,1356342,74555,10132,678119,0
5,-1,666881,230050,1244007,68670,7995,622044,0
5,-1,672092,230863,1288703,68865,9045,644350,0
5,1,726590,251901,1536398,77071,10713,768042,0
5,-1,670577,230905,1323602,68877,8855,661811,0
5,-1,666414,230822,1260448,68917,8425,630266,0
5,1,711663,248336,1325316,74114,9204,662698,0
5,-1,667170,230536,1341840,68837,8148,670922,0
5,1,711911,248698,1398597,74125,9275,699005,0
5,-1,669369,230855,1485184,68859,8298,741857,0
5,1,731472,252748,1511484,77261,10154,755755,0
5,-1,670436,231031,1507732,68956,8842,752969,0
5,1,716456,250268,1302409,74900,9300,651018,0
5,-1,665153,229671,1318166,68481,7960,659106,0
5,1,713125,248090,1366520,74007,9143,683169,0
5,-1,689787,235130,1444409,72099,8765,722130,0
5,1,713974,250252,1291132,74988,9081,645697,0
5,1,712322,249373,1261208,74596,8486,630617,0
5,-1,689134,234622,1357445,71932,9738,678708,0
5,1,711900,248611,1391961,74177,9059,696025,0
5,-1,668153,230214,1324314,68690,8333,662381,0
5,-1,670703,230585,1307635,68829,8464,653839,0
5,1,716511,250160,1548633,74810,9606,772960,0
5,-1,674440,232719,1334258,69824,9649,666302,0
5,1,714713,248531,1485440,74155,9367,742251,0
5,-1,673590,232082,1435561,69546,8877,717858,0
5,1,714561,248351,1267939,74154,8325,634008,0
5,-1,665889,229511,1252618,68451,7199,626346,0
5,-1,670528,230007,1326391,68573,7496,663357,0
5,1,708654,247869,1328725,73851,8731,664341,0
5,-1,659610,230116,1250613,68077,8210,625306,0
5,-1,666959,232918,1265284,69232,8510,632327,0
5,1,708923,247176,1441449,73598,9680,720744,0
5,-1,666001,232250,1315544,69122,8605,657625,0
5,-1,662466,230406,1378729,68261,8299,689399,0
5,1,713942,248674,1441079,74381,9318,720434,0
5,-1,672485,233294,1222956,69493,7987,611522,0
5,1,710333,246741,1301305,73589,9671,650448,0
5,-1,660782,229972,1309473,68092,8148,654791,0
5,-1,670315,232474,1278462,69342,7842,639285,0
5,1,711877,247082,1432137,73820,10017,716125,0
5,-1,671577,233389,1251480,69669,8607,625813,0
5,-1,688165,235186,1469406,71769,10064,734140,0
5,-1,668513,231220,1304029,69450,7815,652052,0
5,1,705282,246844,1501569,73759,10623,750394,0
5,-1,673888,232963,1230834,70376,8640,615284,0
5,-1,664898,229429,1202296,68921,7691,601182,0
5,1,705600,246553,1363149,73721,8642,681582,0
5,-1,668566,232280,1218640,70130,7961,609353,0
5,-1,661222,229674,1308868,69054,7518,654498,0
5,1,706626,248265,1302319,74334,9636,651178,0
5,-1,666143,230294,1283083,69256,8056,641593,0
6,-1,718261,248452,1421581,73686,8884,710822,0
6,1,761232,265632,1295419,78411,8652,647746,0
6,-1,719344,248490,1301357,73719,8597,650717,0
6,1,758603,265692,1318605,78423,8217,659349,0
6,-1,717786,249455,1373562,74083,7992,686878,0
6,1,712635,249313,1411734,74324,8953,705956,0
6,-1,667601,230652,1662093,68967,10459,830938,0
6,1,705911,247186,1291422,73370,8481,645756,0
6,-1,664699,229593,1214108,68487,7914,607138,0
6,1,702266,247591,1321772,73501,8955,660836,0
6,-1,665147,230736,1357057,69211,8070,678561,0
6,1,705815,247343,1466738,73448,9304,733177,0
6,-1,667431,230560,1412613,68860,8663,706251,0
6,1,723356,251697,1317363,76719,9018,658665,0
6,-1,689655,235323,1311890,72278,8850,655991,0
6,1,709969,249932,1336477,74523,9705,668247,0
6,-1,662362,230995,1252857,69057,6921,626516,0
6,1,706612,247082,1460510,73362,9563,730413,0
6,-1,667338,232168,1338615,69665,8098,669245,0
6,-1,662356,230008,1275997,68772,8144,637940,0
6,1,730468,251946,1365246,76604,9949,682321,0
6,-1,668152,231692,1278215,69521,9238,639094,0
6,-1,662980,230090,1226060,68802,7897,612930,2
6,-1,665469,229783,1353175,68643,8382,676581,0
6,1,711678,249827,1452303,74296,9995,725982,0
6,1,708512,248448,1374844,73709,9123,687422,1
6,-1,667290,230457,1344037,68892,8429,671874,0
6,-1,664503,230073,1259267,68826,8706,629608,0
6,-1,665266,230243,1344340,68792,9071,671944,0
6,1,710282,248141,1364646,73746,8837,682156,0
6,-1,666253,230045,1283291,68701,8874,641563,0
6,-1,673426,232234,1362403,69680,9031,680943,0
6,1,709842,247409,1396606,73536,9760,697850,0
6,-1,691286,235453,1323219,72435,9554,661625,0
6,1,711195,247607,1286465,73688,8817,643254,0
6,-1,669397,230511,1269149,68837,9012,634555,0
6,-1,667465,230769,1420638,68912,8652,710328,0
6,1,727292,252095,1323807,76937,9805,661645,0
6,1,705798,247185,1459842,73513,9988,729709,0
6,-1,671950,231845,1292374,69240,8178,646196,0
6,-1,665469,231108,1197587,69082,8411,598650,0
6,1,704889,247262,1371795,73548,8824,685845,0
6,-1,668858,231054,1243663,69027,8441,621849,0
6,1,713673,250458,1428343,74918,8751,714127,0
6,-1,667666,230006,1328661,68665,8496,664222,0
6,1,708351,248491,1570528,73958,9278,785295,0
6,1,708178,247667,1359841,73532,9222,679559,0
6,-1,666133,230163,1262399,68910,8348,631072,0
6,1,707276,249173,1407058,74253,8375,703586,0
6,-1,665625,230652,1330215,69094,8611,665146,0
6,-1,668904,230767,1414111,69089,8651,706821,0
6,1,704919,247934,1365843,73673,8079,683020,0
6,-1,668993,230641,1324682,69100,8636,662386,0
6,1,707071,247870,1341550,73636,8152,670828,0
6,-1,669638,230078,1221268,68880,8140,610608,0
6,-1,670771,230628,1200613,68998,7846,600389,0
6,1,712151,249268,1361159,74309,8779,680660,0
6,-1,659567,230177,1355666,68971,7527,677872,0
6,-1,666090,231697,1342169,69626,8313,671151,0
6,1,710114,248419,1297831,73868,7584,648974,0
6,-1,664370,230478,1336688,69025,8235,668384,0
6,-1,659889,229584,1379764,68693,8514,689937,0
6,1,714266,248051,1388938,73653,8555,694507,0
6,1,706062,248462,1526995,73785,10597,763477,0
6,-1,672932,232870,1389436,70132,8358,694535,0
6,1,728034,253070,1443981,77146,10013,721903,0
6,-1,666176,230173,1242560,68941,8180,621223,0
6,-1,685285,235241,1269300,72401,8867,634547,0
6,-1,664696,230691,1304028,69064,7558,652047,0
6,1,708475,248390,1429817,73750,9035,715530,0
6,-1,669515,230888,1317017,69035,8438,658512,0
6,1,707170,247559,1390227,73495,8548,695163,0
6,1,712771,249459,1579571,74260,9454,789844,0
6,-1,665473,231224,1340339,69209,7789,670094,0
6,-1,666579,230509,1301971,68954,7937,651040,0
6,1,706559,248626,1389904,74007,9004,694338,0
6,-1,670765,230839,1326560,69088,8002,663368,0
6,-1,666290,231832,1450347,69559,8950,724839,0
6,1,708475,248485,1453231,73770,9281,726700,0
6,-1,665900,230631,1322708,68966,8217,661337,0
6,1,717583,249767,1453687,74352,9934,726117,0
6,-1,690330,235663,1275383,72393,9023,637738,0
6,-1,663342,230477,1284941,68922,7919,642521,0
6,1,713753,249192,1477064,74041,10520,738529,0
6,-1,686481,235393,1259835,72346,8398,629881,0
6,-1,664624,230911,1165734,69110,8009,582931,0
6,1,714154,248763,1325847,73735,8913,662893,0
6,1,708247,249083,1398445,73815,9819,699196,0
6,-1,668784,230713,1259314,69056,7701,629698,0
6,-1,667162,230870,1318686,69106,7683,659383,0
6,1,710131,248699,1355751,73713,9618,677832,0
6,-1,686784,235209,1276908,72303,8147,638502,0
6,1,713116,249276,1398573,74019,9737,699207,0
6,-1,675436,232717,1375511,69876,9504,687815,0
6,1,729975,252846,1370662,76982,10078,685097,0
6,-1,664472,230874,1238951,69090,7358,619521,0
6,-1,665655,231165,1325133,69169,8719,662392,0
6,1,712288,248574,1278847,73832,8944,639402,0
6,-1,665034,230771,1207537,68979,7384,603809,0
6,-1,666609,230473,1271859,68941,7473,635899,0
6,1,709602,248207,1376946,73664,8646,688518,0
6,-1,690094,235216,1250356,72306,8582,625127,0
6,1,708591,247591,1355108,73519,8589,677535,0
6,-1,667670,231580,1203371,69335,7622,601727,0
6,-1,671229,232082,1307572,69677,7965,653904,0
6,1,717090,250018,1383242,74378,9146,691852,0
6,-1,668131,231778,1309645,69581,7560,655082,0
6,1,718173,249953,1416551,74231,8889,708337,0
6,-1,669273,231928,1244668,69604,7686,622373,0
6,-1,672657,232863,1339374,69809,8197,669009,0
6,-1,670477,230755,1261071,69059,8792,630322,0
6,1,707626,247941,1377595,73387,10157,688746,0
6,-1,665120,230838,1283328,69044,7624,641729,0
6,1,707265,247427,1347131,73323,8946,673603,0
6,-1,668323,230731,1349344,68839,8391,674718,0
6,-1,666593,230294,1354724,68731,8971,677415,0
6,1,706939,247686,1368030,73483,8638,684060,0
6,-1,663639,229894,1278210,68557,8229,639478,0
6,-1,687821,235364,1364653,72175,9035,682302,0
6,1,707585,247445,1437548,73317,8845,718760,0
6,-1,671672,231507,1326029,69083,8231,663058,0
6,-1,665749,230389,1282359,68753,8954,641222,0
6,1,706490,247271,1425754,73266,9546,712921,0
6,1,713668,248959,1372237,74009,9364,685959,0
6,-1,669738,231416,1290320,69159,8862,645250,0
6,-1,668474,231032,1386979,68939,8602,693495,0
6,1,715580,249316,1289196,74144,10102,644510,0
6,-1,675178,231452,1391738,69201,9501,695533,0
6,-1,672743,231942,1238223,69223,8420,619146,0
6,1,730633,252677,1351191,76877,9587,675579,0
6,-1,673295,231546,1275403,69054,8459,637444,0
6,-1,671665,233000,1335167,69741,9300,667538,0
6,1,710795,247415,1495290,73191,9112,747815,0
6,-1,669387,231688,1274046,69044,9141,637000,0
6,1,721454,251840,1443831,76108,9316,721722,0
6,-1,670875,232191,1259215,69305,8754,629581,0
6,1,704657,249058,1315091,73558,9750,657463,0
6,-1,668622,231562,1238908,69100,8807,619442,0
6,-1,673247,232222,1404322,69404,9186,702167,0
6,1,705433,247346,1380688,72798,8329,690247,0
6,-1,672327,231488,1260598,69110,8754,630136,0
6,1,709527,248454,1385425,73353,9118,692597,0
6,-1,673712,233730,1248991,70139,8985,624220,0
6,1,713487,249062,1273688,74570,9122,636870,0
6,-1,668673,231305,1342105,69065,8846,671085,0
6,1,704179,247364,1283639,73809,8765,641856,0
6,-1,670009,231834,1381465,69425,8807,691119,0
6,-1,665429,230553,1293009,68871,9209,646311,0
6,-1,692399,235808,1264542,72372,9702,632284,0
6,1,705806,247044,1379948,73758,8670,689989,0
6,1,710579,247843,1364396,73995,9298,682208,0
6,-1,672022,232037,1418377,69551,9280,708213,0
6,1,710522,248275,1344603,74109,8561,672337,0
6,-1,672714,231481,1319100,69441,8310,659545,0
6,-1,673794,233088,1291411,70070,8463,645880,0
6,1,728357,251407,1443228,76866,10231,721622,0
6,-1,667877,231809,1257140,69469,8248,628390,0
6,1,702252,247203,1361657,73774,9231,680866,0
6,-1,669266,230735,1246893,68935,8041,623399,0
6,-1,672952,232455,1311612,69655,8442,655798,0
6,1,707565,247450,1363717,73823,9120,681882,0
6,-1,668922,231760,1300327,69520,7929,650135,0
6,-1,689443,235386,1289074,72271,8967,644454,0
6,-1,675835,232718,1338804,69963,8160,669290,0
6,1,707513,247536,1260828,73836,9000,630339,0
6,-1,672396,232710,1221644,69787,7876,610752,0
6,1,707590,246789,1354555,73603,8315,677230,0
6,-1,672071,232471,1384711,69709,8424,692459,0
6,-1,670227,230862,1301626,68933,8809,650804,0
6,1,705027,247194,1441842,73584,9423,721549,0
6,-1,673836,233154,1250763,69679,8864,625444,0
6,1,708297,247985,1371389,74007,8979,685730,0
6,1,709576,247826,1418196,73905,8527,709134,0
6,-1,674707,232441,1313141,69483,8862,656552,0
6,1,713823,249207,1269088,74488,8652,634608,0
6,-1,665299,230691,1246776,68647,9023,623272,0
6,1,729688,251804,1429172,76934,9777,714541,0
6,-1,667244,230984,1286639,68836,8442,643307,0
6,1,715431,249549,1391442,74649,8821,695780,0
6,-1,668369,230780,1337356,68803,8746,668714,0
6,-1,665995,230710,1367277,68879,9117,683682,0
6,1,706255,247322,1365463,73849,9212,682760,0
6,-1,669718,230757,1322220,68867,9056,660872,0
6,1,711255,248968,1580009,74339,9656,789303,0
6,-1,668457,230993,1242941,68900,8718,621333,0
6,1,715130,249426,1497100,74496,10271,748574,0
6,-1,661536,229432,1156083,68372,7614,578178,0
6,-1,668348,230700,1282231,68869,7566,641104,0
6,1,710937,248433,1474742,74161,10249,737401,0
6,-1,669468,230691,1182045,68868,8565,591072,0
6,1,713147,248869,1479840,74326,9458,739955,0
6,-1,662766,229359,1425702,68469,8009,712791,0
6,1,715981,249499,1387313,74520,9602,693793,0
6,-1,676354,232961,1282918,69824,8895,641527,0
6,-1,669849,230819,1369366,68899,9165,684719,0
6,1,712512,249045,1394246,74382,8854,697080,0
6,-1,666486,230858,1274593,68900,8087,637345,0
6,-1,666096,230291,1200578,68705,7239,599988,0
6,1,714331,249892,1624871,74710,10269,811440,0
6,-1,667616,230627,1306510,68832,7923,653299,0
6,1,715517,250258,1362145,74754,9844,680794,0
6,-1,665732,229667,1348601,68495,8705,674003,0
6,1,734601,252392,1420194,77096,11091,710168,0
6,-1,668305,231178,1477478,69015,9538,738784,0
6,1,711350,247603,1394369,73833,8360,697223,0
6,-1,668940,230679,1447023,68865,8768,723528,0
6,1,730120,253206,1429763,77463,10143,714887,0
6,-1,668109,230420,1330614,68773,9023,665287,0
6,1,709994,248493,1402019,74156,8560,701072,0
6,1,712961,250009,1315473,74882,8883,657664,0
6,-1,666550,230299,1330016,68739,8166,665009,0
6,-1,669494,230380,1327076,68704,8628,663398,0
6,1,735481,254328,1519184,77828,10212,759046,0
6,-1,670772,230465,1271170,68732,9020,635539,0
6,-1,691685,235780,1448936,72280,9886,724109,0
6,1,715050,249133,1421888,74401,8688,710950,0
6,-1,668933,230374,1379531,68647,8460,689843,0
6,1,714134,248347,1242689,74141,8311,621373,0
6,-1,676935,232168,1243535,69451,7628,621823,0
6,1,710466,247726,1438833,73799,9605,719455,0
6,-1,665078,232592,1201046,69172,7218,600752,0
6,-1,660854,230359,1242216,68246,8149,620938,0
6,1,711189,247876,1414260,73872,9704,707169,0
6,-1,665307,230551,1240794,68313,7966,620064,0
6,1,718725,250019,1430600,74785,9865,715361,0
6,-1,667324,232792,1267750,69280,8527,633934,0
6,-1,685730,235292,1293106,71676,8956,646513,0
6,1,715607,249286,1388429,74693,9387,694195,0
6,-1,659408,229803,1247733,68141,7557,623918,0
6,-1,663351,230093,1317108,68262,7805,658582,0
6,1,735848,252896,1498931,78111,10533,749340,0
6,-1,685400,235192,1300396,71771,8903,650249,0
6,-1,666870,231078,1426561,68634,9075,713189,0
6,-1,686052,234963,1528894,72531,9774,764273,0
6,1,702278,246895,1642022,73771,10833,821187,0
6,-1,687741,234802,1377194,72497,9464,688670,0
6,-1,670479,230646,1385647,69353,9032,692957,0
6,1,706917,247321,1385966,73991,8702,692957,0
6,-1,686009,234642,1428350,72411,9563,714207,0
6,-1,662903,229947,1271776,69105,8011,635917,0
6,1,709246,247363,1397466,73887,8389,698778,0
6,-1,664421,230088,1220114,69139,7918,609999,0
7,-1,718283,248395,1324391,73679,8375,662033,0
7,1,762182,266309,1460208,78608,9387,730157,0
7,-1,724692,251153,1469850,74933,10194,735021,0
7,1,759123,266012,1426263,78486,8200,713145,0
7,-1,715656,248704,1264551,73788,7539,632083,0
7,1,729110,252193,1351259,76745,9727,675643,0
7,-1,684278,237135,1390528,70680,8494,695088,0
7,-1,667497,231063,1369773,68995,8903,684883,0
7,1,712805,250134,1299037,74477,9045,649673,0
7,1,705377,247773,1347793,73534,9335,673972,0
7,-1,663226,230298,1293698,68858,8210,646907,0
7,1,703578,247324,1377686,73501,7927,688758,0
7,-1,664343,229831,1226720,68608,7508,613442,0
7,1,705010,246934,1286574,73315,9341,643309,0
7,-1,666335,229864,1188026,68732,7017,594050,0
7,1,724920,252224,1387740,76817,9960,693935,0
7,-1,668682,230272,1300376,68771,7643,650287,0
7,1,711324,249155,1491217,74323,9183,745398,0
7,-1,682903,234879,1349087,72131,8513,674584,0
7,-1,665075,230288,1351415,68838,8472,675623,0
7,1,708520,247596,1441162,73520,9683,720260,0
7,-1,662335,230005,1329732,68762,7771,664960,0
7,-1,663720,229504,1261510,68503,8397,630791,0
7,1,728870,252808,1384218,76948,9930,692129,0
7,-1,671804,232049,1350771,69658,8769,675303,0
7,-1,666667,230200,1282463,68839,8358,641133,2
7,-1,663022,230297,1220060,68865,8176,610083,0
7,1,712528,249645,1434121,74423,9636,717067,0
7,-1,664610,229532,1344368,68672,8638,671800,0
7,-1,669990,231639,1319397,69580,8337,659612,0
7,-1,665006,230173,1421659,68878,9072,711264,2
7,-1,665456,230272,1244157,68913,7958,621800,0
7,-1,666519,230502,1267890,68994,8081,633819,2
7,1,710468,248443,1460764,73934,9329,730244,0
7,1,717346,250459,1440743,74858,9328,719631,1
7,-1,666855,230939,1277793,69163,8645,638910,2
7,-1,668367,230689,1338956,69033,8708,669519,0
7,1,710617,247576,1357694,73690,8846,678878,0
7,-1,668473,230216,1357282,68699,8349,678607,0
7,1,723856,252361,1272889,77003,9173,636431,0
7,-1,666350,230824,1346816,68937,9065,673470,0
7,-1,667598,231007,1383342,69002,8760,691793,2
7,1,725525,252214,1300331,76999,9769,650127,0
7,-1,670071,231359,1266742,69061,8937,633287,0
7,-1,690912,235219,1274316,72214,10445,637013,0
7,1,706437,247824,1289534,73729,8315,644757,0
7,-1,669156,231320,1303043,69143,8629,651263,0
7,-1,671183,232599,1357768,69813,9221,678778,2
7,1,707116,249640,1409125,74616,9406,704515,1
7,1,705422,247815,1368192,73720,8766,684093,0
7,-1,673303,232146,1363780,69614,9627,681923,0
7,-1,670531,231586,1213797,69279,7986,606929,2
7,1,727424,252173,1412441,76971,9798,706282,0
7,1,705660,247980,1366018,73670,8493,682794,1
7,1,711167,249482,1428541,74359,9126,714149,0
7,-1,663617,230616,1353127,69083,8767,676583,2
7,-1,665574,230369,1330492,69023,8430,664864,0
7,-1,666607,230673,1313676,69122,8372,656816,2
7,1,709948,248375,1249915,73859,8828,625014,1
7,1,703942,248167,1445363,73805,8933,722713,0
7,-1,671602,231652,1311189,69392,8743,655638,0
7,-1,667920,231223,1346790,69303,9187,672846,2
7,-1,667555,230133,1434309,68881,9421,717182,0
7,1,704951,248347,1362140,73840,7945,681074,0
7,-1,666319,230062,1290566,68868,8265,645349,0
7,1,704572,247995,1272339,73707,8277,636203,1
7,1,727085,252591,1349990,77018,8650,675000,0
7,-1,670752,230430,1211689,68986,7656,605789,0
7,-1,668219,230553,1336750,69105,8407,668427,2
7,1,704810,248124,1305262,73729,8873,652691,1
7,-1,675087,232221,1320031,69867,8789,660106,0
7,1,707558,248142,1460947,73762,8368,730513,0
7,1,734964,257632,1252524,76584,8328,626310,1
7,-1,670921,231021,1358215,69177,8016,679165,2
7,-1,660247,230832,1199022,69169,7219,599603,0
7,-1,662087,230093,1379256,68883,7995,689676,0
7,1,726784,252392,1392161,76957,9111,696036,0
7,-1,662826,230472,1208570,68994,8135,604384,0
7,-1,662987,230617,1316208,69127,8460,658150,2
7,-1,661867,230489,1326415,69050,8387,663077,0
7,1,711071,248003,1355681,73653,9114,677941,0
7,1,709689,250266,1444758,74738,8870,722481,1
7,1,708842,248850,1429616,73991,8088,714889,0
7,-1,664799,230124,1301210,68932,7580,650657,0
7,-1,665528,230894,1315128,69218,7700,657531,2
7,-1,671127,232792,1336667,70057,7872,668221,0
7,1,705732,248361,1413840,73761,8633,706938,0
7,-1,663216,230152,1343748,68965,7962,671875,0
7,-1,663202,230700,1185437,69139,7712,592716,2
7,-1,664987,231169,1346491,69370,8209,673142,0
7,1,714511,249263,1396878,74323,9046,698499,0
7,-1,669043,231737,1364442,69467,8088,682289,0
7,-1,663932,231566,1340055,69329,8845,670041,2
7,1,713562,249464,1491793,74358,9304,746035,0
7,1,713476,250155,1370051,74719,8469,685082,0
7,-1,662795,230469,1303547,68901,7883,651663,0
7,1,714140,249965,1484963,74499,10353,742375,1
7,1,711345,248127,1325461,73687,9753,662769,0
7,-1,690026,235769,1245776,72482,8472,622818,0
7,-1,667884,230166,1299404,68773,8245,649667,0
7,1,708997,248620,1278256,73929,8816,639141,1
7,-1,664747,231063,1402470,69185,9547,700505,0
7,1,711247,250650,1431210,74712,9508,715480,1
7,1,707961,248326,1326896,73709,8821,663461,0
7,-1,665239,230757,1207858,69055,7570,603972,0
7,-1,669310,231347,1326414,69239,8152,663288,0
7,1,711667,247836,1522233,73471,9235,760189,0
7,1,707318,248454,1238007,73732,8389,619062,1
7,-1,668365,232314,1230374,69836,8028,615264,2
7,-1,668435,231232,1304333,69153,8407,652170,0
7,1,710006,248505,1522227,73830,10536,760858,0
7,-1,668560,230858,1312940,69042,8062,656511,0
7,-1,668087,231421,1312385,69300,7556,656233,2
7,-1,662448,230302,1220590,68869,8165,610343,0
7,1,717906,250602,1401298,74535,9643,701058,0
7,-1,665101,230818,1430001,68983,8760,714820,0
7,1,713218,250871,1434704,74629,9830,717480,0
7,-1,670143,232827,1323702,69972,8149,661989,2
7,1,709170,249485,1327889,74009,9200,663980,1
7,-1,671242,232896,1351729,69942,7813,675974,0
7,1,711663,249192,1442680,73896,9434,721282,0
7,-1,671342,231205,1317999,69176,8561,659030,0
7,1,711585,248397,1392669,73700,9374,696340,0
7,-1,667333,230521,1229141,69001,7858,614646,2
7,-1,672372,231910,1275942,69626,8306,638028,0
7,-1,660772,231068,1198899,69129,6757,599503,2
7,1,711798,249630,1399411,74355,9360,699926,0
7,-1,683752,234756,1347264,72088,8529,673652,0
7,-1,663607,230743,1283122,68982,8182,641452,0
7,-1,664476,231353,1418720,69235,9279,709579,2
7,1,714659,249934,1379837,74454,9899,689846,0
7,-1,666766,230458,1230134,68908,7608,615101,0
7,-1,665053,230367,1318581,68911,7522,659373,2
7,-1,664082,231184,1262412,69162,7519,631221,2
7,1,706397,248505,1261554,73867,8601,630725,1
7,-1,665714,230584,1205643,68961,7252,602863,0
7,1,733954,256611,1399980,76100,8874,699964,0
7,-1,664759,230828,1209787,69063,7510,604933,2
7,-1,664998,230551,1198086,68986,7107,599078,0
7,-1,671643,232810,1313888,69981,7709,657021,2
7,1,712641,248345,1247235,73783,9127,623532,0
7,-1,663105,230008,1183359,68784,7365,591719,0
7,-1,666721,231420,1415304,69283,8607,708404,2
7,-1,668067,230997,1366751,69136,7990,683312,0
7,-1,690632,240314,1315738,71915,7687,657910,2
7,1,710998,247871,1494163,73543,8899,747032,0
7,-1,669947,231462,1332632,69179,7958,666272,0
7,-1,669513,231972,1317535,69432,7735,658911,2
7,1,717285,249995,1399213,74254,9411,699679,0
7,-1,668356,230980,1271753,69026,7419,635916,0
7,-1,664340,230675,1220067,69053,6772,610091,2
7,-1,668645,230975,1475526,68933,8908,737496,0
7,1,708611,248086,1486311,73447,10220,742904,0
7,-1,669125,230847,1255470,68997,8420,627512,0
7,1,706513,248113,1312106,73501,9649,655920,1
7,-1,665104,231520,1303915,69284,8501,651648,2
7,-1,664377,230811,1378417,69076,7773,689098,0
7,-1,664522,230740,1360836,68842,7969,680118,2
7,1,705590,247490,1246983,73349,9088,623536,0
7,-1,666947,230713,1313957,68862,8775,656697,0
7,-1,688221,235392,1423523,72371,8958,711728,0
7,1,710745,249082,1358752,74069,8272,679437,0
7,1,709569,248107,1355087,73611,8938,677591,1
7,-1,666740,231378,1393569,69086,9041,696796,0
7,-1,664773,230167,1317417,68617,7792,658361,0
7,1,706373,247852,1332120,73448,8472,666103,0
7,1,713462,250511,1405230,74613,8970,702535,1
7,-1,667544,231145,1233533,69068,7249,616284,2
7,-1,669002,230909,1247443,68948,8324,623477,0
7,1,709526,248137,1444792,73600,9076,722429,1
7,-1,671688,231582,1397881,69189,9087,698667,2
7,-1,669397,231802,1321966,69235,8796,661051,0
7,1,713704,248128,1372225,73588,9367,686191,0
7,1,706900,247882,1306324,73499,7998,653214,1
7,1,707513,247161,1442411,73233,9037,721289,0
7,-1,690775,235798,1253191,72435,8905,626224,0
7,-1,698989,242203,1397354,72685,9208,698358,2
7,-1,668065,230747,1399490,68924,8842,699652,0
7,1,718647,250670,1333519,74712,9519,666444,0
7,-1,680046,233901,1408190,70314,9221,704103,0
7,-1,670397,231308,1289068,69208,8216,644248,2
7,-1,673488,231740,1342639,69226,9370,671253,0
7,1,710759,247321,1341658,73273,9178,670792,0
7,-1,673110,231947,1351892,69177,8665,676051,2
7,-1,676974,232467,1313357,69401,8855,656855,0
7,-1,668549,232626,1340016,69455,8866,670052,0
7,-1,671471,234327,1388459,70283,9523,694297,2
7,1,712442,248002,1216713,73550,7731,608368,0
7,1,699378,247573,1384991,72944,8251,692541,1
7,-1,667198,231482,1282839,69116,8989,640994,0
7,1,701652,248008,1359102,73099,9392,679032,0
7,1,703329,248444,1251580,73200,8848,625793,1
7,-1,671880,232674,1299554,69457,8854,649545,0
7,1,706119,247159,1408460,72747,8999,704289,0
7,-1,667104,231923,1226717,69260,8244,613465,2
7,-1,690557,236891,1247671,72638,9087,623820,0
7,-1,670935,231628,1388254,69235,8647,694192,0
7,1,707497,248459,1545209,73208,9926,772549,0
7,-1,693305,236485,1421262,72578,9396,710883,0
7,-1,674323,233289,1372876,70016,8699,686348,2
7,1,701663,247789,1459057,73043,9394,729559,1
7,1,705059,247816,1477458,73119,9170,738769,0
7,-1,688512,236134,1230530,72413,9520,615118,0
7,1,709373,247685,1285108,73940,8801,642582,0
7,-1,670466,232321,1225004,69412,8929,612457,2
7,-1,670989,231567,1289060,69162,8910,644473,0
7,1,704133,247785,1353028,73942,8697,676564,0
7,-1,692989,240176,1423135,71725,8929,711555,2
7,-1,669420,231410,1277632,69188,8658,638670,0
7,-1,674423,232209,1359631,69600,9456,679388,0
7,1,707303,248447,1284339,74208,8497,642143,1
7,-1,668090,230850,1231982,68949,8235,615967,0
7,1,713861,249494,1315501,74777,8517,657724,0
7,1,711046,248077,1442676,74028,9369,721287,0
7,-1,668490,229990,1331182,68637,8699,665482,0
7,-1,667932,231073,1500754,69029,9984,750451,2
7,1,705537,247253,1475753,73783,9600,737919,0
7,-1,668749,230745,1218010,69047,8090,608968,2
7,-1,668199,230094,1323219,68714,8189,661625,0
7,1,710806,247944,1356199,74018,8725,678141,1
7,-1,665590,230947,1245087,69132,7809,622472,2
7,-1,687124,235066,1223483,72246,8977,611640,0
7,-1,669717,230988,1238632,69167,7982,619239,0
7,1,711502,247531,1475550,73893,10410,737805,0
7,1,714701,248006,1386329,74012,8892,693215,0
7,-1,687572,234733,1251665,71988,8533,625721,0
7,1,703711,247106,1303013,73742,9360,651542,1
7,-1,666956,230762,1218673,68958,7785,609270,0
7,1,705381,247639,1367587,73891,8831,683857,0
7,-1,669422,230919,1241614,69055,8438,620799,0
7,-1,668382,230650,1169196,68987,8520,584567,2
7,-1,669224,229984,1216919,68733,8535,608421,0
7,-1,668347,229874,1323834,68708,8500,661936,0
7,1,727391,252109,1371793,77183,10916,685632,0
7,-1,663799,230451,1211923,68911,7519,605908,2
7,-1,667919,231417,1167433,69200,7566,583517,0
7,1,708444,247488,1372643,73845,9093,686611,0
7,-1,668466,231361,1307769,69158,8296,653898,0
7,-1,667754,230169,1352384,68745,8146,676208,0
7,1,705260,247432,1630677,73706,10913,815360,0
7,-1,665613,230688,1215689,68900,8672,607811,2
7,-1,668806,230069,1247344,68509,8846,624009,0
7,1,708979,247724,1333184,73962,9123,666548,0
7,-1,669910,231187,1371151,68933,9163,685612,2
7,1,711220,247043,1305165,73692,8531,652639,0
7,-1,671637,230610,1317284,68606,9101,658555,0
7,1,711092,247300,1383460,73760,8877,691797,0
7,-1,680067,233847,1314694,70040,9295,657115,2
7,-1,668769,232417,1357327,69414,9042,678664,0
7,1,709351,247911,1367150,73829,8705,683621,0
7,-1,666694,230512,1392066,68667,8422,695953,0
7,1,707856,247488,1355238,73759,8639,677661,0
7,1,707478,247475,1358953,73699,8228,679523,1
7,-1,666255,230888,1289459,68784,8384,644619,0
7,-1,663877,230237,1351112,68603,8148,675492,0
7,1,706512,248745,1270340,74445,8672,635265,0
7,-1,669782,230996,1333357,69006,8684,666672,0
7,-1,671504,233324,1312280,69959,8889,656012,2
7,1,705827,247168,1464907,73786,9764,732055,0
7,-1,664733,229849,1320812,68559,8656,660462,0
7,1,712021,248960,1450350,74339,10001,724956,0
7,-1,661993,230035,1214501,68637,8249,607268,0
7,1,709236,248303,1372262,74257,8895,686193,1
7,-1,667230,230271,1362514,68712,7923,681305,0
7,1,711379,248167,1403813,74179,9379,701951,0
7,-1,688139,235078,1228620,72053,7882,614414,0
7,1,716376,250573,1370194,75117,9752,684866,0
7,-1,668526,230034,1340811,68644,8182,670434,0
7,1,717332,250235,1407368,74960,9905,703019,0
7,-1,669378,230360,1363809,68749,8440,681924,0
7,1,713473,250875,1413574,75220,9983,706647,1
7,-1,673693,232549,1384533,69643,8730,692313,0
7,-1,662666,230503,1309495,68815,8276,654719,2
7,1,712363,249401,1323292,74704,9194,661554,0
7,-1,663241,229860,1358775,68475,8815,679420,0
7,-1,670192,231749,1252584,69371,7521,626534,0
7,1,715098,249326,1388480,74304,10063,693794,0
7,-1,665147,230224,1209673,68646,7063,604817,0
7,-1,669869,232204,1245738,69616,7458,622936,2
7,1,709738,248185,1356193,73880,9075,678136,0
7,-1,668995,230336,1314545,68739,8514,656835,0
7,-1,671417,231441,1431422,69114,9390,715487,2
7,1,714117,248599,1505231,74074,9717,752650,0
7,-1,666135,230169,1255248,68654,8245,627582,0
7,1,717415,250846,1431701,75179,9102,715881,1
7,-1,666891,230783,1237867,68970,8309,618754,2
7,1,717065,250272,1278833,74946,7943,639493,0
7,-1,667448,229788,1251763,68472,8161,625973,0
7,1,709566,248990,1375042,74293,9165,687475,0
7,1,711235,248854,1385441,74278,9067,692763,1
7,-1,670153,230387,1327848,68707,8868,663825,0
7,1,707613,248381,1295498,74052,8764,647786,0
7,1,712026,249384,1384409,74597,8556,692218,0
7,-1,665508,230274,1270313,68687,8084,635032,0
7,-1,673613,233006,1329241,69852,8871,664590,2
7,-1,669007,230163,1346575,68692,8797,673084,0
7,1,718696,250441,1330401,74898,8674,665273,0
7,1,711654,249980,1446165,74622,9339,722774,1
7,-1,672101,231552,1286721,69287,8403,643176,0
7,-1,669883,230949,1334543,68945,8852,667158,2
7,-1,667341,229299,1304681,68399,8511,651768,0
7,-1,666898,230457,1362780,68729,8434,680793,2
7,1,713822,248809,1446230,74300,9979,722660,0
7,1,711854,248900,1363729,74353,8954,681616,1
7,1,713398,248395,1400251,74155,8883,700171,0
7,-1,675593,232244,1325740,69578,8907,662759,0
7,-1,672134,231043,1434720,68988,9785,717355,2
7,-1,676105,233264,1263682,69917,7629,631806,2
7,-1,669777,229992,1314437,68527,7237,657237,0
7,1,713709,249063,1441350,74209,9158,720217,0
7,-1,681969,235604,1345792,71763,8732,672936,0
7,-1,663830,232068,1278107,69031,9024,638907,0
7,-1,662584,230726,1361434,68397,8382,680612,2
7,1,714312,249554,1365720,74554,9583,682963,0
7,-1,662161,230259,1377952,68223,8160,688847,0
7,1,721160,251422,1439914,75255,9003,720022,1
7,-1,660060,231029,1333392,68480,8378,666686,2
7,1,714223,248191,1589526,73967,10227,794818,0
7,-1,666246,232241,1253860,69113,8109,626978,2
7,-1,664527,230238,1337964,68225,7857,668921,0
7,-1,665408,230340,1268208,68259,8345,634139,0
7,1,710644,247445,1411663,73825,9976,705888,0
7,-1,666100,230786,1221925,68396,8351,611010,2
7,1,713736,249953,1543730,75091,11829,772000,1
7,-1,683223,235277,1419278,71641,9039,709577,0
7,1,709044,246976,1470183,73784,9895,735080,0
7,-1,664021,230764,1348472,68439,8117,674266,0
7,-1,659655,229637,1344534,68164,8573,672306,2
7,1,712395,247100,1433611,73868,9789,716786,1
7,-1,662946,230378,1321823,68420,8235,660955,0
7,-1,660552,229217,1354267,67960,9179,676774,0
7,-1,669633,232860,1384250,69460,9419,692419,2
7,-1,664105,229867,1364511,69069,9294,682292,0
7,1,705803,247394,1255307,73972,8655,627687,0
7,-1,666276,230136,1322978,69214,8721,661517,0
7,1,703478,246803,1442328,73751,9907,721101,1
7,-1,668917,230947,1305266,69491,8349,652674,2
7,-1,667529,229617,1302135,68982,8883,651108,0
7,1,729536,251875,1475406,77283,9743,737712,0
7,-1,660448,229859,1301274,69119,7402,650688,2
7,-1,665780,230834,1344010,69437,7594,672126,0
7,1,711544,249047,1418482,74685,9339,708941,0
7,-1,667648,230248,1217939,69164,8476,608983,0
7,-1,666587,230172,1304192,69203,8456,652124,0
