0,-1,688781,237821,1304142,70858,7380,651745,0
0,-1,689382,237551,1313173,70855,7811,656139,2
0,-1,689616,237108,1396718,70636,8223,698053,0
0,-1,696046,239539,1372267,71752,8567,685598,0
0,-1,641588,221353,1236268,66448,7229,617599,0
0,-1,637034,219178,1221788,65762,7273,610562,0
0,-1,640551,219875,1291511,66023,7570,645377,0
0,-1,640135,219412,1395005,65858,7601,697121,0
0,-1,638127,218349,1197686,65426,7851,598487,0
0,-1,636234,219484,1300688,65953,6922,649979,0
0,-1,635159,218585,1246789,65663,6769,623052,0
0,-1,636940,219384,1304604,65965,7002,651935,0
0,-1,639650,218631,1203341,65716,7162,601703,0
0,-1,637335,218711,1165388,65724,7346,582190,0
0,-1,642227,220661,1384985,66559,8217,691977,0
0,-1,635847,218102,1184668,65463,7206,592048,0
0,-1,640269,219328,1268217,65950,7931,634058,0
0,-1,642220,219842,1356094,66125,8119,677697,0
0,-1,644290,220214,1386189,66223,8541,691903,0
0,-1,637557,219146,1323003,65758,7987,661155,0
0,-1,638414,220001,1192320,65979,7646,595794,0
0,-1,636827,219634,1290409,65916,7207,644651,0
0,-1,636702,219551,1262260,65944,6922,630782,0
0,-1,637950,219326,1285669,65867,6883,642464,0
0,-1,638793,220194,1344585,66475,8781,671533,0
0,-1,640764,221312,1350876,66984,8725,674811,0
0,-1,636916,219312,1249371,66046,8608,624276,0
0,-1,657558,223449,1337152,69098,9071,668227,0
0,-1,641038,221367,1332108,66965,8225,665367,0
0,-1,645495,221485,1423159,67022,8478,711010,0
0,-1,661746,224093,1347750,69426,9307,673438,0
0,-1,634536,218953,1204931,65891,8191,602166,0
0,-1,639761,219774,1246380,66146,7578,622864,0
0,-1,637866,219009,1387750,65955,7836,693540,0
0,-1,637452,219504,1363231,66146,7693,681266,0
0,-1,644100,221437,1314780,66995,7809,656822,0
0,-1,639108,219365,1202295,66074,7647,600818,0
0,-1,642983,219234,1234531,65967,7932,617009,0
0,-1,641511,219704,1382101,66140,7845,690622,0
0,-1,642466,220688,1340486,66656,8968,669536,0
0,-1,642514,220051,1202021,66189,8092,600621,0
0,-1,640509,219545,1357908,66035,8231,678414,0
0,-1,639647,219344,1192041,65947,7512,595617,0
0,-1,640252,219493,1425503,66012,7540,711946,0
0,-1,636928,220992,1311475,66661,7583,655123,0
0,-1,642146,221434,1384792,66908,8593,691799,0
0,-1,639770,219609,1326623,66058,7678,662833,0
0,-1,653816,222667,1337738,68891,7957,668453,0
0,-1,661468,224308,1306920,69374,8757,653030,0
0,-1,647958,221913,1228716,67065,8448,613725,0
0,-1,637649,219569,1197426,65913,7154,598344,0
0,-1,640827,219387,1216662,65973,8315,608036,0
0,-1,637240,218368,1203510,65681,7140,601374,0
0,-1,639524,219251,1290914,65869,7985,644749,0
0,-1,641490,219697,1256684,66079,7542,627995,0
0,-1,661807,223974,1294761,69227,7965,646981,0
0,-1,636832,219069,1206231,65895,7870,602594,0
0,-1,660567,224034,1460705,69327,8627,729374,0
0,-1,641315,219225,1254715,65881,8042,627043,0
0,-1,640786,219452,1375696,66017,9074,687265,0
0,-1,662071,224168,1455509,69263,8727,726558,0
0,-1,642558,219612,1295381,65968,8451,647392,0
0,-1,663479,223764,1314024,69125,8410,656690,0
0,-1,646175,219849,1325924,66044,7931,662260,0
0,-1,642301,219985,1189778,65959,8054,594507,0
0,-1,643638,219402,1582883,65962,9696,791014,0
0,-1,650738,221743,1403901,66859,8595,701418,0
0,-1,639203,220210,1159073,66122,7610,579160,0
0,-1,637384,219484,1304604,65812,7937,651889,0
0,-1,641062,220628,1305392,66257,7885,652265,0
0,-1,635660,219634,1353417,65894,7669,676030,0
0,-1,655911,223798,1252988,69046,8281,626090,0
0,-1,636670,219470,1272617,65863,7077,635951,0
0,-1,641801,220073,1272558,66049,7641,635762,0
0,-1,638565,219714,1293799,66031,7743,646664,0
0,-1,664060,225070,1193549,69678,7534,596351,0
0,-1,640484,220275,1298113,66300,6995,648716,0
0,-1,643096,220955,1216816,66292,7180,608048,0
0,-1,646967,220580,1294732,66168,7770,647025,0
0,-1,640915,220505,1362170,66160,8018,680745,0
0,-1,642695,220375,1192035,66042,7374,595661,0
0,-1,644809,221932,1405214,66878,8241,701979,0
0,-1,644485,220294,1332761,66173,7833,666222,0
0,-1,644022,220329,1311401,66203,6891,655344,0
0,-1,642777,221218,1251496,66597,8139,625137,0
0,-1,641357,219755,1392998,65947,7224,696180,0
0,-1,664323,223998,1306939,69176,8417,653067,0
0,-1,643732,220761,1388782,66538,8377,693854,0
0,-1,642004,218980,1177527,65740,7790,588420,0
0,-1,643102,220003,1266535,66187,7890,632771,0
0,-1,635412,219252,1224912,65847,7116,611927,0
0,-1,658282,223650,1270462,69091,8645,635006,0
0,-1,637685,219222,1251183,65761,7311,625219,0
0,-1,637093,219643,1275145,65940,8396,637176,0
0,-1,636123,218195,1243326,65584,7519,621265,0
0,-1,642610,219823,1280896,66104,7694,640129,0
0,-1,636333,219331,1181038,65884,7616,590174,0
0,-1,660450,224362,1287118,69295,8526,643342,0
0,-1,638661,219173,1274815,65829,7378,636939,0
0,-1,641528,219557,1333490,65819,7529,666447,0
0,-1,638423,218854,1212877,65658,6774,606059,0
0,-1,641568,219577,1306340,65780,7145,652957,0
0,-1,648446,221063,1281895,66385,8585,640436,0
0,-1,661944,224273,1260023,69039,8241,629701,0
0,-1,638782,219368,1293186,65660,7770,646282,0
0,-1,641522,219456,1209642,65788,8613,604333,0
0,-1,638194,219451,1298719,65772,8617,649040,0
0,-1,644676,220914,1362130,66467,8801,680527,0
0,-1,641927,220054,1306386,66007,7841,652678,0
0,-1,644159,219971,1219877,65917,8127,609591,0
0,-1,645051,221288,1351944,66758,8693,675232,0
0,-1,640599,219279,1276079,65730,8057,637726,0
0,-1,643718,218931,1329056,65599,8952,664138,0
0,-1,640780,218648,1343742,65519,8809,671551,0
0,-1,642557,219309,1450866,65802,10428,725007,0
0,-1,632797,219083,1509057,65745,9787,753768,0
0,-1,640413,220775,1311538,66472,8958,654414,0
0,-1,663908,228443,1231457,68487,7476,615319,0
0,-1,661196,224321,1204518,69199,8809,601501,0
0,-1,639201,219352,1349132,65744,7934,674259,0
0,-1,640165,219789,1394789,65925,8226,696708,0
0,-1,637920,219556,1483890,65818,8014,741587,0
0,-1,639705,219895,1457335,66113,8735,728104,0
0,-1,638660,218854,1211465,65598,7537,605450,0
0,-1,641165,219735,1269724,65924,7432,634528,0
0,-1,661853,224211,1249499,69078,8256,624546,0
0,-1,643597,218893,1177418,65549,7208,588397,0
0,-1,657854,222997,1267296,68725,8353,633103,0
0,-1,643668,220728,1201530,66442,8067,599997,0
0,-1,637447,218685,1231111,65470,7475,615173,0
0,-1,643662,221884,1303210,66854,8900,650865,0
0,-1,640195,219420,1326413,65756,7984,662825,0
0,-1,644443,220739,1317290,66497,8924,657955,0
0,-1,640931,218531,1280467,65421,8853,639933,0
0,-1,640356,219169,1277180,65733,7554,638296,0
0,-1,645174,220099,1369706,66292,8186,684412,0
0,-1,664408,223855,1253504,69099,8525,626385,0
0,-1,648861,221475,1315337,66771,8568,657101,0
0,-1,642471,218891,1209952,65743,8166,604730,0
0,-1,643185,218671,1291042,65615,8000,645131,0
0,-1,659458,224022,1289992,69119,8747,644583,0
0,-1,638108,218910,1215975,65743,7066,607638,0
0,-1,636263,218465,1229785,65577,7353,614478,0
0,-1,660899,223974,1234458,69178,7812,617184,0
0,-1,645824,221210,1241429,66661,7463,619726,0
0,-1,637896,218204,1390150,65414,7660,694907,0
0,-1,643727,220086,1273291,66262,7680,636367,0
0,-1,638755,218919,1216735,65769,8081,607848,0
0,-1,637902,218642,1325914,65606,8193,662646,0
0,-1,635443,218142,1279387,65461,8135,639316,0
0,-1,640595,218955,1231427,65691,8475,615198,0
0,-1,639371,218665,1457124,65602,9157,728282,0
0,-1,663999,223381,1311974,69019,8834,655739,0
0,-1,639470,219383,1216175,65899,7837,607736,0
0,-1,645395,220882,1334437,66699,9427,667033,0
0,-1,639669,218562,1416816,65596,7754,708063,0
0,-1,641660,218934,1367123,65752,7633,683045,0
0,-1,642288,219781,1172176,66210,7564,585564,0
0,-1,640680,218597,1198422,65564,7095,598864,0
0,-1,645064,219119,1261326,65827,8134,630276,0
0,-1,643572,219126,1197276,65813,7337,598141,0
0,-1,644718,219940,1298545,66278,7658,648418,0
0,-1,641602,219203,1378330,65857,7254,688763,0
0,-1,648459,220757,1282076,66630,8195,640268,0
0,-1,643071,218697,1215348,65641,7730,607218,0
0,-1,645653,219348,1322660,65904,7140,660930,0
0,-1,634023,219078,1252036,65265,7131,625533,0
0,-1,632486,218176,1260055,64939,7189,629651,0
0,-1,656437,223233,1438468,68494,8066,718704,0
0,-1,634605,218778,1261203,65297,7689,630139,0
0,-1,658626,223878,1376127,68746,8310,687584,0
0,-1,637333,218737,1319625,65179,6986,659386,0
0,-1,634194,218779,1225683,65144,8283,612519,0
0,-1,636875,219045,1255266,65181,7385,627204,0
0,-1,639602,219322,1192612,65431,6828,595856,0
0,-1,657563,223172,1402308,69331,8983,700787,0
0,-1,641751,220173,1198941,66643,8132,598765,0
0,-1,641075,219105,1202370,66069,8782,600727,0
0,-1,639236,220369,1199056,66792,8419,598944,0
0,-1,639441,219406,1406717,66212,9159,702983,0
0,-1,660144,223583,1343774,69488,9209,671536,0
0,-1,643820,219805,1353039,66547,7815,676031,0
0,-1,642048,220421,1221029,66579,7759,610155,0
0,-1,641651,219360,1367676,66411,8600,683473,0
0,-1,645749,221249,1206982,67239,7412,602897,0
0,-1,661599,223992,1322844,69672,8780,661094,0
0,-1,647174,220693,1327694,66732,7979,663481,0
0,-1,645846,220799,1209353,66715,7653,604267,0
0,-1,643037,219931,1343560,66453,7873,671465,0
0,-1,637498,219926,1344383,66497,8630,671822,0
0,-1,661620,224509,1401181,69800,9599,700234,0
0,-1,642204,220699,1264588,66745,7884,631813,0
0,-1,640912,219738,1283119,66403,7251,641197,0
0,-1,641960,220276,1252300,66461,7513,625686,0
0,-1,640909,219883,1281197,66232,7667,640300,0
0,-1,649291,221990,1216900,67215,7395,607759,0
0,-1,641026,219958,1261891,66272,6878,630585,0
0,-1,641382,220418,1213001,66520,7476,606175,0
0,-1,646904,221660,1228280,67202,7664,613541,0
0,-1,642530,219849,1267053,66395,8571,632587,0
0,-1,643283,220107,1301108,66480,7794,650159,0
0,-1,642812,219668,1315027,66344,7595,657043,0
0,-1,660587,224522,1266163,69721,9694,632724,0
0,-1,640015,219183,1341494,66125,8245,669999,0
0,-1,645383,220491,1291838,66793,8447,645819,0
0,-1,639136,219060,1361074,66109,8698,680123,0
0,-1,642734,219709,1429363,66307,8024,714302,0
0,-1,666279,224311,1406034,69568,9528,702011,0
0,-1,648047,221538,1368696,67115,8839,683781,0
0,-1,648480,221482,1238978,67287,8349,618816,0
0,-1,646755,220265,1268558,66616,8314,633830,0
0,-1,666192,224611,1405244,69805,8742,702101,0
0,-1,645990,220080,1346919,66520,9039,673012,0
0,-1,647662,220299,1290256,66478,8149,644746,0
0,-1,637573,218643,1217323,65875,7562,608023,0
0,-1,637315,219195,1260626,66085,7786,629911,0
0,-1,639302,219204,1430746,66142,9140,714886,0
0,-1,660932,223972,1763522,69507,10987,881003,0
0,-1,641047,220082,1241118,66565,7346,619921,0
0,-1,644866,219875,1261086,66320,8622,630060,0
0,-1,659103,223659,1341883,69434,8110,670515,0
0,-1,644362,220741,1399429,66997,8539,699066,0
0,-1,641259,218614,1414200,66145,8613,706728,0
0,-1,659775,223339,1447274,69560,10060,723260,0
0,-1,639814,218131,1404749,65919,8270,702037,0
0,-1,643125,220012,1260714,66833,7499,629824,0
0,-1,636028,218414,1264292,66120,7975,631835,0
0,-1,641878,219587,1299592,66733,7069,648910,0
0,-1,640088,218667,1220253,66201,7196,609772,0
0,-1,642453,219000,1267800,66319,8169,633388,0
0,-1,640600,218642,1214719,66158,7725,606899,0
0,-1,641414,218353,1327163,66133,8183,663158,0
0,-1,641309,219770,1271739,66757,7682,635397,0
0,-1,643729,219435,1328519,66355,7547,663865,0
0,-1,642748,218775,1429617,66139,8879,714236,0
1,-1,694916,238456,1360818,71336,8259,679906,0
1,-1,692474,237926,1208540,70964,7770,603797,0
1,-1,691352,237650,1349315,70880,8810,674250,2
1,-1,677456,233845,1329890,69679,8040,664508,0
1,-1,635624,218952,1238741,65671,6913,619066,0
1,-1,639283,219139,1298782,65769,8012,648965,0
1,-1,642675,220652,1235140,66607,6910,616873,0
1,-1,639272,219206,1177013,65706,7215,588177,0
1,-1,634626,218625,1193044,65614,7658,596128,0
1,-1,634582,218446,1352014,65604,7424,675620,0
1,-1,634219,218680,1242329,65639,6655,620854,0
1,-1,636969,218674,1314531,65754,7298,657031,0
1,-1,661745,223362,1241909,69041,8752,620369,0
1,-1,643109,221684,1348701,66912,8220,673711,0
1,-1,637280,218862,1276249,65763,8053,637777,0
1,-1,659976,223664,1428265,69110,8974,713808,0
1,-1,640164,219023,1321754,65809,8435,660466,0
1,-1,642145,219841,1342552,65962,8218,670761,0
1,-1,637038,219484,1202622,65947,7430,600822,0
1,-1,634204,219376,1213848,65774,6824,606479,0
1,-1,637662,219140,1174719,65700,6943,586979,0
1,-1,639047,221003,1396750,66655,8040,697667,0
1,-1,635642,218556,1262930,65566,7263,631213,0
1,-1,636652,218242,1257164,65566,7624,628264,0
1,-1,656683,224210,1576745,69424,9841,787969,0
1,-1,634668,218721,1278966,65865,7623,639156,0
1,-1,637442,219224,1262975,66056,7495,630935,0
1,-1,656488,224084,1366280,69389,8414,682634,0
1,-1,638562,219393,1317623,66052,7514,658375,0
1,-1,642287,220000,1342980,66455,8561,670791,0
1,-1,634079,219053,1209272,65921,8689,604075,0
1,-1,640518,220536,1481105,66678,8391,740148,0
1,-1,644099,221903,1284069,67152,8236,641454,0
1,-1,632746,217921,1162385,65522,7077,580858,0
1,-1,639141,219443,1311893,66108,6439,655644,0
1,-1,640364,219381,1198779,66082,8123,599082,0
1,-1,645820,220726,1353367,66667,8811,676000,0
1,-1,636808,218371,1293729,65716,7582,646536,0
1,-1,638065,219276,1428137,65920,8602,713670,0
1,-1,638737,218834,1263171,65759,8247,631283,0
1,-1,662209,224083,1337990,69318,8379,668672,0
1,-1,641066,219304,1312984,65954,7287,656030,0
1,-1,645713,221195,1341471,66743,8003,669664,0
1,-1,649854,222321,1520151,67175,9189,759442,0
1,-1,637946,219242,1336091,65890,8198,667641,0
1,-1,638193,219042,1390891,65818,8292,694991,0
1,-1,638130,219827,1154374,66131,7253,576398,0
1,-1,640365,219241,1309081,65869,7758,654245,0
1,-1,668163,225548,1241926,70282,8422,620434,0
1,-1,690051,233853,1437496,72190,9042,718235,0
1,-1,641199,219619,1239582,66040,7974,619454,0
1,-1,639570,219454,1352257,65956,7427,675810,0
1,-1,642985,220902,1225525,66642,8199,612190,0
1,-1,643237,219574,1202911,66041,7809,601044,0
1,-1,645240,219804,1369719,66122,7978,684534,0
1,-1,663924,228541,1240038,68626,8120,619670,0
1,-1,640751,220689,1373957,66582,8539,686392,0
1,-1,644452,220828,1362527,66619,8342,680872,0
1,-1,639316,218904,1353565,65794,9014,676501,0
1,-1,643115,219337,1361927,65936,8172,680518,0
1,-1,644758,220653,1367056,66552,8203,682892,0
1,-1,641739,219310,1343699,65956,8119,671275,0
1,-1,644102,219994,1643271,66150,9465,821265,0
1,-1,642325,219250,1171870,65793,7897,585677,0
1,-1,647078,221759,1320777,67059,8896,659828,0
1,-1,667023,224774,1303923,69328,8480,651551,0
1,-1,634787,219555,1176017,65920,7602,587534,0
1,-1,637083,219486,1228349,65903,7400,613792,0
1,-1,637119,219066,1239153,65714,7500,619179,0
1,-1,632871,219230,1348811,65766,7883,674021,0
1,-1,638794,219773,1208709,65920,7478,603940,0
1,-1,636728,219039,1292697,65636,7583,646040,0
1,-1,640297,219500,1335389,65874,7673,667252,0
1,-1,639984,221338,1462020,66828,8875,730384,0
1,-1,641860,220415,1227901,66249,7403,613569,0
1,-1,642454,221085,1411932,66751,8283,705473,0
1,-1,642158,219719,1335030,65894,7184,667106,0
1,-1,644201,219907,1307824,65871,7952,653555,0
1,-1,642281,220789,1363711,66161,7294,681592,0
1,-1,647177,222096,1363463,66844,7751,681179,0
1,-1,644371,220452,1319114,66117,7897,659215,0
1,-1,644929,220733,1347454,66307,8144,673373,0
1,-1,647593,221773,1379059,66836,8171,688933,0
1,-1,639697,219817,1181325,65950,7875,590350,0
1,-1,648772,222315,1304709,67104,7954,651768,0
1,-1,640907,219277,1295479,65881,7316,647352,0
1,-1,638618,219687,1329085,65971,8236,664271,0
1,-1,641185,219198,1337211,65700,7850,668194,0
1,-1,642531,219634,1237196,65968,7940,618270,0
1,-1,637051,220242,1320359,66444,8049,659685,0
1,-1,637204,219659,1275642,66023,8673,637561,0
1,-1,638105,219396,1171269,65867,7495,585135,0
1,-1,641494,221346,1404479,66655,8855,700603,0
1,-1,635723,218451,1283997,65511,7383,641720,0
1,-1,639369,218695,1300927,65611,6981,650252,0
1,-1,645427,220279,1215746,66469,8084,607344,0
1,-1,640345,219207,1279123,65828,7449,639214,0
1,-1,641300,220215,1198517,66153,6909,598830,0
1,-1,646636,221063,1429802,66570,9162,714233,0
1,-1,644417,221371,1228820,66721,7467,613997,0
1,-1,643970,220653,1296495,66322,7752,647735,0
1,-1,647321,221236,1332003,66572,7444,665359,0
1,-1,639616,219805,1218936,65759,6375,609051,0
1,-1,642978,219724,1296923,65775,8232,648188,0
1,-1,637836,218890,1334415,65533,7967,666743,0
1,-1,637267,218966,1153103,65659,7881,576083,0
1,-1,638529,219042,1243000,65610,8386,621035,0
1,-1,637761,218804,1194297,65528,6967,596801,0
1,-1,642962,219868,1197470,65949,8822,598465,0
1,-1,659393,223455,1379895,68876,8282,689375,0
1,-1,660563,223559,1354699,68911,8786,676952,0
1,-1,648881,221457,1329108,66722,8681,663985,0
1,-1,645712,221284,1292814,66761,8195,645712,0
1,-1,639145,218445,1318450,65466,8894,658796,0
1,-1,640790,219169,1357232,65720,8257,678171,0
1,-1,657537,223879,1223661,69039,8565,611540,0
1,-1,633608,217977,1290065,65268,7688,644713,0
1,-1,638601,219298,1270334,65770,7959,634739,0
1,-1,637149,218929,1344815,65638,8316,672051,0
1,-1,638151,218697,1347668,65509,9003,673404,0
1,-1,656086,223325,1244483,68896,8339,621860,0
1,-1,639078,219004,1351810,65692,8101,675499,0
1,-1,639481,219429,1132781,65821,7661,566086,0
1,-1,639139,218810,1322162,65633,7946,660674,0
1,-1,641525,219246,1276858,65715,7600,638046,0
1,-1,643385,219138,1318029,65682,8458,658629,0
1,-1,636111,218225,1215304,65326,7242,607464,0
1,-1,658766,223313,1187219,68768,7982,593287,0
1,-1,642478,220729,1257541,66450,7812,628132,0
1,-1,640755,218717,1409160,65463,8016,703816,0
1,-1,640686,219858,1303296,65878,8696,651168,0
1,-1,662711,224247,1371926,69132,9500,685697,0
1,-1,663610,224530,1348135,69190,9281,673733,0
1,-1,640379,219052,1220883,65765,7452,610036,0
1,-1,640117,218613,1193306,65545,7652,596356,0
1,-1,641984,218748,1327081,65669,8293,663123,0
1,-1,640897,218757,1285935,65642,7837,642583,0
1,-1,641878,218386,1286868,65479,8189,643119,0
1,-1,647200,220474,1290637,66442,7957,644700,0
1,-1,635922,218591,1292012,65643,8264,645653,0
1,-1,637901,218795,1207317,65700,7088,603228,0
1,-1,638245,218699,1250666,65638,7461,625189,0
1,-1,637071,218781,1310802,65714,7845,655007,0
1,-1,638658,218498,1218739,65506,7951,609066,0
1,-1,640049,219089,1362048,65795,7932,680661,0
1,-1,644427,219506,1166022,65898,7496,582657,0
1,-1,640369,219221,1210751,65868,8011,604794,0
1,-1,648061,221171,1273257,66709,8191,635977,0
1,-1,639936,218315,1355316,65491,8598,677211,0
1,-1,645346,220832,1191344,66547,7809,594842,0
1,-1,649498,221541,1220009,66870,8277,609127,0
1,-1,644883,219163,1484391,65856,9774,741751,0
1,-1,636153,218338,1204912,65482,8226,602148,0
1,-1,662443,223833,1340884,69142,7976,670125,0
1,-1,664492,224199,1296558,69260,8380,647934,0
1,-1,642212,218912,1210954,65756,7505,605014,0
1,-1,639921,218891,1211926,65720,7416,605554,0
1,-1,639011,218676,1284568,65668,7359,641823,0
1,-1,644291,219017,1230692,65800,8558,614961,0
1,-1,640402,218431,1261764,65565,7452,630315,0
1,-1,640610,218504,1295286,65583,7730,647300,0
1,-1,643706,219164,1361069,65784,7512,680166,0
1,-1,642886,219029,1320740,65780,7548,659899,0
1,-1,642329,218677,1236379,65627,7297,617831,0
1,-1,649775,220702,1210160,66536,7305,604483,0
1,-1,630314,217969,1144846,64822,6955,572114,0
1,-1,633083,218757,1201576,65190,7135,600436,0
1,-1,661597,227744,1244077,67856,7226,621628,0
1,-1,633257,218447,1370103,65104,7679,684525,0
1,-1,637223,218754,1271858,65288,7364,635495,0
1,-1,634913,218578,1285610,65059,7946,642405,0
1,-1,639642,221032,1181402,66281,8082,589852,0
1,-1,637749,219293,1256455,65248,6958,627766,0
1,-1,661943,227295,1330493,67700,7419,664841,0
1,-1,641107,218987,1351366,66148,8744,675253,0
1,-1,641337,219625,1295794,66306,8600,647394,0
1,-1,647138,220835,1163357,66885,8904,580988,0
1,-1,655062,223173,1335216,69231,9298,667078,0
1,-1,637746,218574,1342073,65893,8910,670644,0
1,-1,639841,219423,1296122,66459,8179,647548,0
1,-1,648602,221718,1246271,67337,7398,622497,0
1,-1,665211,224733,1331019,69888,8360,665090,0
1,-1,643375,220059,1242902,66555,7104,620980,0
1,-1,642028,220149,1555089,66739,8735,777306,0
1,-1,645875,220310,1283698,66674,8547,641113,0
1,-1,643412,219537,1342972,66287,7870,670553,0
1,-1,642579,219458,1336240,66286,8131,667752,0
1,-1,646794,220692,1241208,66745,7333,620243,0
1,-1,638709,220386,1270054,66591,7988,634747,0
1,-1,640774,220323,1199083,66578,7895,599302,0
1,-1,640780,219787,1308866,66434,7800,653883,0
1,-1,644448,220494,1404859,66682,8315,702011,0
1,-1,642495,220440,1209804,66557,7457,604551,0
1,-1,662386,224778,1319010,69686,9833,659068,0
1,-1,666040,224944,1414201,69718,9380,706351,0
1,-1,640831,220160,1187931,66362,7311,593607,0
1,-1,646489,222109,1233315,67400,8061,615845,0
1,-1,663449,224102,1361106,69440,9022,680238,0
1,-1,641034,219714,1234137,66359,8091,616717,0
1,-1,639044,218914,1203821,66055,6969,601503,0
1,-1,643182,219678,1332085,66366,8366,665565,0
1,-1,636218,219090,1167797,66130,8356,583368,0
1,-1,644757,220330,1375080,66502,7475,687177,0
1,-1,641898,219297,1257653,66126,8513,628417,0
1,-1,649427,221916,1275989,67332,8327,636840,0
1,-1,644688,220946,1232330,66940,8226,615381,0
1,-1,645558,219820,1252357,66334,8301,625654,0
1,-1,646012,221344,1467137,66791,8738,732994,0
1,-1,642574,219878,1268060,66508,8717,633540,0
1,-1,650229,221764,1213414,67365,8122,606033,0
1,-1,672566,229285,1386082,69287,7507,692496,0
1,-1,650747,220911,1321570,66970,8038,660190,0
1,-1,645685,219594,1338092,66227,8311,668626,0
1,-1,640728,220534,1294023,66630,9966,646151,0
1,-1,642263,221043,1282447,66984,7877,640582,0
1,-1,639372,219403,1315701,66142,8430,657449,0
1,-1,640446,219341,1334739,66219,8450,666950,0
1,-1,641400,219333,1331714,66194,7892,665521,0
1,-1,641922,219476,1280680,66224,8015,639889,0
1,-1,636356,218843,1195946,66004,6766,597694,0
1,-1,636441,218610,1287446,65886,8670,643341,0
1,-1,642588,219488,1402935,66414,7801,700900,0
1,-1,639347,218253,1296864,66006,8199,648107,0
1,-1,641105,219114,1431164,66377,8351,715092,0
1,-1,662636,223664,1357671,69659,9811,678364,0
1,-1,653852,221849,1309534,69016,8658,654366,0
1,-1,637672,218458,1338533,66162,7768,668776,0
1,-1,659165,223655,1382515,69650,8381,690574,0
1,-1,639173,218246,1181603,66045,7424,590501,0
1,-1,639936,218050,1320141,66054,7693,659676,0
1,-1,645130,220353,1210925,67035,7772,604883,0
1,-1,636609,218056,1302925,65972,7387,651167,0
1,-1,640801,218696,1448921,66231,8230,724110,0
1,-1,662877,223777,1334392,69570,9430,666783,0
2,-1,690694,237754,1358143,70872,8246,678747,0
2,-1,688369,237001,1265777,70718,7664,632452,0
2,-1,686596,238003,1251098,70988,7261,625132,2
2,-1,696093,239589,1320814,71683,7504,659730,0
2,-1,637670,220273,1368691,66118,7507,683934,0
2,-1,659631,224098,1390645,69143,8565,695009,0
2,-1,657687,223079,1396930,68857,7954,698109,0
2,-1,637907,219250,1144929,65814,6652,572128,0
2,-1,639810,220726,1250222,66564,7614,624535,0
2,-1,636282,218641,1259793,65695,7076,629542,0
2,-1,635420,218062,1286992,65443,6784,643073,0
2,-1,636335,218661,1323401,65732,6773,661350,0
2,-1,640400,219281,1187927,65946,7126,593626,0
2,-1,636287,218859,1384256,65754,8136,691422,0
2,-1,640955,220693,1342160,66587,7996,670365,0
2,-1,639626,219939,1345087,66401,8078,671335,0
2,-1,639476,218919,1212490,65809,7461,605914,0
2,-1,640797,219073,1277296,65674,8171,637494,0
2,-1,638889,220642,1312648,66394,7846,655699,0
2,-1,637235,219104,1214037,65688,6939,606574,0
2,-1,639333,219670,1302467,65913,7803,650601,0
2,-1,656868,224096,1317533,69235,8717,658436,0
2,-1,638486,219973,1428372,66121,8771,713804,0
2,-1,641875,221012,1365873,66723,9116,682424,0
2,-1,638082,219113,1302401,65895,7922,650776,0
2,-1,657673,223270,1349468,69061,9228,674348,0
2,-1,637076,219202,1313686,65936,7733,656542,0
2,-1,639785,219121,1376834,65988,7681,687741,0
2,-1,644045,221189,1390479,66914,8765,694494,0
2,-1,638056,218941,1400469,65924,7747,699824,0
2,-1,667031,224634,1408655,69528,8917,703796,0
2,-1,639090,219448,1332960,66098,8081,666219,0
2,-1,658670,223808,1250340,69311,8672,624730,0
2,-1,635925,219309,1325386,66029,7981,662300,0
2,-1,639483,219393,1348794,66070,7758,674018,0
2,-1,637409,218664,1179122,65790,7291,589253,0
2,-1,639383,219122,1240421,65970,7126,619844,0
2,-1,640683,220567,1393602,66729,8364,696338,0
2,-1,642839,220003,1380979,66300,9341,689659,0
2,-1,642264,219670,1279769,66097,7398,639488,0
2,-1,639689,219693,1198616,66085,7635,598796,0
2,-1,640471,219298,1174471,65896,6607,586840,0
2,-1,639774,219396,1275523,65990,6972,637360,0
2,-1,641942,219324,1244408,65968,7585,621773,0
2,-1,638931,219991,1379677,66190,7611,689416,0
2,-1,640509,219605,1393026,66001,8206,696163,0
2,-1,635146,219154,1244743,65894,7958,621973,0
2,-1,644052,221766,1301465,66935,7341,650331,0
2,-1,641083,219749,1169086,66069,7070,584306,0
2,-1,637239,219040,1193667,65870,7291,596312,0
2,-1,638722,219027,1378851,65876,9486,689023,0
2,-1,640205,219925,1268865,66134,7177,634117,0
2,-1,643563,219890,1276170,66139,7489,637656,0
2,-1,647501,221376,1323158,66765,7732,660882,0
2,-1,644515,219566,1280752,65969,8262,640003,0
2,-1,638710,218977,1262001,65794,7889,630755,0
2,-1,641817,219368,1264001,65990,8481,631546,0
2,-1,642273,219908,1195287,66151,7598,597191,0
2,-1,641155,219548,1323727,66016,8475,661447,0
2,-1,641604,219145,1259864,65757,8590,629521,0
2,-1,667354,228493,1306692,68575,8253,652922,0
2,-1,643957,220363,1342942,66224,8281,671070,0
2,-1,642499,219207,1191207,65823,7303,595250,0
2,-1,640542,218986,1313372,65659,8420,656372,0
2,-1,661581,224118,1234350,69288,8418,616760,0
2,-1,645582,220092,1501164,66103,9375,750033,0
2,-1,632156,219052,1260306,65673,7644,629736,0
2,-1,634342,219078,1148031,65637,7963,573398,0
2,-1,637683,219989,1314000,66057,7966,656583,0
2,-1,642117,221172,1362476,66568,9104,680539,0
2,-1,639551,220723,1223154,66441,8126,611090,0
2,-1,639678,220282,1223739,66103,7338,611490,0
2,-1,638580,219229,1314909,65754,7389,657066,0
2,-1,658384,224181,1308987,69239,8951,653771,0
2,-1,640492,220402,1221439,66236,6831,610165,0
2,-1,640011,220124,1387925,66247,7926,693576,0
2,-1,662358,224393,1315712,69413,7618,657383,0
2,-1,645212,220575,1325253,66186,7809,662221,0
2,-1,640269,220508,1238972,66136,7434,619153,0
2,-1,641547,220191,1295467,66018,7872,647328,0
2,-1,644848,220940,1279872,66230,7454,639609,0
2,-1,641762,220320,1148965,66169,7050,574135,0
2,-1,642716,220290,1353960,66105,7323,676702,0
2,-1,639639,219908,1259002,65936,8120,629103,0
2,-1,662723,224336,1338935,69212,8517,669115,0
2,-1,640944,219389,1297771,65914,7664,648444,0
2,-1,643852,219578,1338613,65976,7803,668936,0
2,-1,642056,218904,1325875,65666,7519,662551,0
2,-1,664392,224059,1261478,69173,8672,630389,0
2,-1,645296,218981,1323011,65785,7749,661152,0
2,-1,638680,219365,1177944,65944,8591,588282,0
2,-1,636168,219005,1318559,65688,7412,659522,0
2,-1,642128,219404,1531344,65841,9036,765323,0
2,-1,643933,221499,1312485,66960,7925,655592,0
2,-1,659211,223344,1248991,68995,8191,624286,0
2,-1,639437,218386,1195990,65562,7423,597663,0
2,-1,640403,219631,1267465,65846,7720,633444,0
2,-1,640553,220202,1276611,66093,7639,638002,0
2,-1,641524,219349,1245416,65769,7428,622426,0
2,-1,640674,220330,1214905,66125,7450,607070,0
2,-1,641855,220096,1215539,65940,7135,607365,0
2,-1,645086,220311,1346172,66001,7727,672687,0
2,-1,639226,219939,1242336,65827,6622,620702,0
2,-1,642595,220049,1235132,65935,7408,616998,0
2,-1,639073,219340,1412458,65683,8176,705824,0
2,-1,634970,218361,1224548,65388,8789,611814,0
2,-1,638324,219438,1329017,65791,8733,664084,0
2,-1,638746,219368,1265952,65804,7443,632645,0
2,-1,642740,219986,1335652,65976,9107,667480,0
2,-1,639653,219836,1545996,65952,9457,772623,0
2,-1,637563,219171,1182856,65687,7601,591263,0
2,-1,662651,223561,1357689,68913,9247,678434,0
2,-1,661356,224096,1257348,69137,8527,628282,0
2,-1,644937,219929,1335328,65920,9093,667289,0
2,-1,642820,218341,1341225,65356,8400,670224,0
2,-1,638045,219938,1517344,65990,10194,758472,0
2,-1,640391,221328,1335704,66702,7642,667285,0
2,-1,640572,220067,1204524,66038,7510,601971,0
2,-1,637099,219343,1190073,65785,7345,594786,0
2,-1,637705,219041,1281148,65646,7806,640198,0
2,-1,641375,219365,1302412,65751,8166,650789,0
2,-1,638512,219207,1310263,65709,8159,654597,0
2,-1,639908,218767,1249487,65564,9078,624448,0
2,-1,639568,219464,1243844,65885,7601,621560,0
2,-1,639262,218827,1208190,65581,7761,603773,0
2,-1,644144,219578,1244698,65765,8193,622029,0
2,-1,635782,218728,1288640,65469,7618,644036,0
2,-1,639714,219807,1182252,65864,7425,590782,0
2,-1,660522,223820,1243641,68962,8280,621541,0
2,-1,638608,218187,1379168,65327,8437,689312,0
2,-1,638305,218818,1207821,65561,8833,603600,0
2,-1,638228,219088,1383736,65639,8123,691254,0
2,-1,643579,219173,1182813,65611,8391,591070,0
2,-1,638455,218440,1313567,65487,7879,656508,0
2,-1,638957,218606,1335705,65567,7672,667462,0
2,-1,646129,220656,1284099,66428,8251,641580,0
2,-1,640434,219051,1414199,65793,8157,706773,0
2,-1,638276,217887,1271188,65397,7766,635249,0
2,-1,645177,219889,1256193,66069,7914,627762,0
2,-1,635160,218326,1227545,65508,7651,613393,0
2,-1,638867,218838,1300761,65686,7541,649966,0
2,-1,637883,218919,1308317,65746,7580,653887,0
2,-1,641255,220737,1280710,66479,7977,639800,0
2,-1,637881,218882,1205861,65664,7459,602604,0
2,-1,642569,219786,1242758,66236,7734,620789,0
2,-1,641333,218524,1383805,65568,8867,691330,0
2,-1,642433,220286,1197410,66390,7660,598075,0
2,-1,663732,224023,1287653,69166,9071,643478,0
2,-1,648671,221853,1322270,67028,8582,660264,0
2,-1,638545,218638,1179046,65642,7621,589073,0
2,-1,664383,223872,1393317,69088,9193,696386,0
2,-1,642524,218635,1282747,65617,8055,641012,0
2,-1,643058,221071,1164882,66679,7871,581888,0
2,-1,637911,218458,1211398,65536,6997,605361,0
2,-1,640013,218946,1265846,65753,7735,632639,0
2,-1,641584,218835,1385915,65642,7798,692462,0
2,-1,640079,219306,1225288,65841,7350,612109,0
2,-1,642654,218702,1280891,65653,7754,640008,0
2,-1,646856,220407,1179273,66422,8205,588912,0
2,-1,638974,218608,1328383,65673,7075,663768,0
2,-1,639515,218256,1257811,65538,7355,628466,0
2,-1,643528,218805,1199543,65666,7307,599325,0
2,-1,642307,218777,1243277,65660,7116,621294,0
2,-1,662251,223221,1272518,68900,8325,635853,0
2,-1,646502,219571,1270122,65975,6917,634661,0
2,-1,632990,219220,1284616,65333,7919,641905,0
2,-1,637350,220882,1250184,66083,7714,624496,0
2,-1,636618,219153,1291129,65377,7864,645216,0
2,-1,656027,223471,1434823,68576,8655,716923,0
2,-1,636623,218565,1250612,65188,6870,624839,0
2,-1,633340,217823,1207376,64876,7166,603252,0
2,-1,655425,223620,1300612,68656,8624,649826,0
2,-1,634867,218683,1290631,65114,7607,644862,0
2,-1,637090,219012,1388443,65329,7378,693789,0
2,-1,638008,219149,1282777,66174,8638,640944,0
2,-1,661271,223409,1420326,69358,9242,709731,0
2,-1,640548,218570,1141285,65850,8405,570222,0
2,-1,634225,218945,1284156,66072,8002,641929,0
2,-1,637555,218993,1275774,66070,8503,637565,0
2,-1,637873,218741,1252320,66184,7727,625900,0
2,-1,643074,220140,1261231,66516,7132,630202,0
2,-1,643688,220551,1218254,66669,6926,608866,0
2,-1,649981,222305,1213751,67606,7406,606164,0
2,-1,639561,219647,1411646,66431,9465,705003,0
2,-1,663609,224500,1505827,69855,9582,752370,0
2,-1,664091,224678,1488424,69825,9225,743791,0
2,-1,647186,220909,1491670,66809,9330,744700,0
2,-1,644941,220301,1586986,66541,9071,793151,0
2,-1,642071,220256,1257219,66627,7614,627861,0
2,-1,641235,221011,1314498,66832,7714,656840,0
2,-1,643717,221714,1266601,67383,7574,632632,0
2,-1,642106,220552,1275158,66677,8295,637193,0
2,-1,640178,219862,1316108,66360,7427,657681,0
2,-1,645177,220423,1203247,66423,8348,601339,0
2,-1,645994,220521,1293426,66366,7769,646529,0
2,-1,640196,220148,1271771,66309,8111,635371,0
2,-1,664385,224232,1394277,69501,8890,696820,0
2,-1,643523,220000,1275814,66385,8067,637309,0
2,-1,640414,219426,1154640,66216,7963,576871,0
2,-1,643151,220675,1224124,66644,7434,611702,0
2,-1,643893,219224,1231914,66153,7311,615618,0
2,-1,639114,219823,1190621,66365,7624,594825,0
2,-1,664168,224651,1354728,69772,8184,677029,0
2,-1,639064,218843,1235192,65969,8313,617183,0
2,-1,641736,219915,1285211,66396,7929,642097,0
2,-1,644933,219330,1251940,66135,7796,625600,0
2,-1,649695,221527,1192707,67054,7685,595801,0
2,-1,642563,220225,1357532,66437,8923,678510,0
2,-1,643840,219146,1356007,66119,8429,677565,0
2,-1,665051,224414,1354339,69732,9053,676664,0
2,-1,648523,221605,1313140,67230,7405,656052,0
2,-1,648947,220725,1387379,66680,8720,693324,0
2,-1,648862,220630,1360220,66772,8756,679085,0
2,-1,639899,219944,1206121,66287,7355,602577,0
2,-1,639960,219469,1319153,66178,8534,659265,0
2,-1,643408,221014,1226301,67000,8201,612404,0
2,-1,641451,219939,1340150,66360,8174,669579,0
2,-1,657233,223189,1365598,69168,9550,682394,0
2,-1,641921,219698,1302947,66290,7784,651044,0
2,-1,637579,219239,1406868,66123,8246,702791,0
2,-1,663177,223534,1495477,69385,9523,747316,0
2,-1,640087,218455,1325172,66054,8577,662140,0
2,-1,640611,219084,1400201,66354,8424,699617,0
2,-1,641330,219644,1208758,66726,8219,603888,0
2,-1,640550,218629,1200128,66189,8341,599678,0
2,-1,636655,219294,1209276,66431,7421,604172,0
2,-1,637477,218900,1231264,66267,6964,615304,0
2,-1,638585,218554,1218518,66204,7443,608566,0
2,-1,639943,218494,1354502,66143,8251,676636,0
2,-1,640667,219174,1354623,66370,7330,676941,0
2,-1,662883,223614,1375196,69610,8913,687180,0
2,-1,636934,218479,1218542,66096,7932,608931,0
2,-1,660424,223185,1419983,69477,9205,709559,0
2,-1,644035,219714,1344343,66746,7244,671552,0
3,-1,688257,237114,1309820,70640,7759,654605,0
3,-1,692019,238391,1291795,71239,8343,645390,0
3,-1,686707,236799,1326720,70567,6865,662992,0
3,-1,663298,229428,1271171,68337,6956,635168,2
3,-1,638195,219023,1279132,65728,7181,639222,0
3,-1,635703,218691,1369110,65551,7302,684195,0
3,-1,638620,219008,1311199,65706,6913,655251,0
3,-1,639506,218922,1215899,65649,6990,607581,0
3,-1,633753,218716,1276406,65714,7496,637826,0
3,-1,657357,223975,1376149,69265,8652,687687,0
3,-1,662170,224035,1385958,69276,8526,692667,0
3,-1,636546,218962,1200817,65838,7445,599979,0
3,-1,638357,219403,1183392,65930,7256,591290,0
3,-1,640312,220403,1395753,66512,8677,697129,0
3,-1,656108,223109,1447743,68909,8457,723612,0
3,-1,641207,218186,1386918,65574,8306,692660,0
3,-1,644612,221241,1344971,66896,8287,671876,0
3,-1,642221,219465,1334286,65859,8620,666802,0
3,-1,635922,219383,1287815,65850,8027,643539,0
3,-1,638281,219357,1273357,65763,8129,636362,0
3,-1,646223,222747,1311031,67188,7813,654867,0
3,-1,634967,219456,1314688,65885,8701,657022,0
3,-1,638727,219355,1196823,65921,6904,597938,0
3,-1,638728,219464,1278982,65910,8219,638727,0
3,-1,640864,219231,1277792,65913,8281,638614,0
3,-1,636975,219114,1258018,65980,8195,628593,0
3,-1,636979,219335,1274208,66086,8011,636607,0
3,-1,638226,219056,1331082,65907,8588,665140,0
3,-1,637628,219072,1220931,65962,7737,610009,0
3,-1,639681,219728,1245699,66170,8065,622456,0
3,-1,641765,219302,1219523,66030,8307,609458,0
3,-1,636392,218802,1383255,65836,8039,690956,0
3,-1,639318,218984,1273807,65895,8507,636641,0
3,-1,646994,221304,1312497,66962,8550,655676,0
3,-1,656686,223077,1302726,69025,8423,650911,0
3,-1,658650,223335,1458089,69088,8445,728672,0
3,-1,645173,221928,1282448,67230,8349,640642,0
3,-1,658903,224485,1343984,69509,8450,671557,0
3,-1,643224,220581,1334867,66570,8026,666873,0
3,-1,640790,219918,1336973,66147,7915,668001,0
3,-1,639972,220191,1327259,66473,7982,662963,0
3,-1,645140,221528,1297847,66878,7514,648218,0
3,-1,638833,219082,1232396,65835,6981,615799,0
3,-1,642070,219065,1285751,65842,8385,642467,0
3,-1,639203,220385,1281657,66253,6728,640383,0
3,-1,638098,219686,1216473,66076,7085,607811,0
3,-1,644705,220482,1265101,66464,8720,631820,0
3,-1,637818,219176,1268758,65906,7631,634000,0
3,-1,640084,219653,1128577,66059,7630,563915,0
3,-1,642908,221472,1320965,66795,8053,660068,0
3,-1,641393,219994,1428727,66186,8997,713721,0
3,-1,644398,220252,1288063,66244,7660,643379,0
3,-1,642692,219934,1281711,66089,7274,640454,0
3,-1,640535,219026,1266057,65815,7618,632676,0
3,-1,642115,219037,1190858,65863,7722,594847,0
3,-1,646104,222209,1409447,67144,9165,703859,0
3,-1,640396,219160,1331545,65863,7500,665429,0
3,-1,641839,219509,1276952,66001,7571,638092,0
3,-1,640870,219494,1327036,65903,8268,662686,0
3,-1,645551,220696,1345218,66563,9226,671981,0
3,-1,639204,219370,1243400,65974,7005,621379,0
3,-1,643196,219984,1404542,66167,9374,701801,0
3,-1,646830,221077,1336627,66681,7913,667716,0
3,-1,642578,219498,1341219,65910,8469,670297,0
3,-1,642599,218941,1353406,65743,7795,676288,0
3,-1,644388,219646,1306040,65937,8240,652663,0
3,-1,654908,223809,1379385,69071,8073,689209,0
3,-1,634750,218858,1254214,65604,7985,626799,0
3,-1,635923,219472,1321318,65780,7983,660419,0
3,-1,641439,220081,1250695,66054,8868,624913,0
3,-1,636014,219118,1183598,65743,7912,591401,0
3,-1,635078,219279,1247434,65839,7604,623384,0
3,-1,643125,221183,1307482,66673,7979,653366,0
3,-1,638171,219647,1308467,65911,7861,653606,0
3,-1,641360,220151,1293873,66085,6612,646502,0
3,-1,640533,220458,1311894,66339,7406,655678,0
3,-1,641707,220157,1360266,66192,7630,679777,0
3,-1,646403,221060,1278526,66294,7199,638922,0
3,-1,645221,222184,1285882,66908,7342,642402,0
3,-1,640748,220433,1357593,66135,7704,678393,0
3,-1,646631,221862,1340224,66760,8373,669673,0
3,-1,645400,221649,1242842,66751,7790,620774,0
3,-1,642425,219977,1293797,66025,7639,646508,0
3,-1,642766,219789,1241040,65848,7556,620257,0
3,-1,641689,220543,1290096,66217,7418,644709,0
3,-1,641702,219825,1321948,66006,7506,660668,0
3,-1,647932,221397,1362540,66832,7960,680587,0
3,-1,660746,223556,1318673,69027,8498,658911,0
3,-1,642869,219272,1310716,65810,7606,655048,0
3,-1,641716,218651,1264128,65666,7609,631949,0
3,-1,641806,220618,1262002,66536,9046,630312,0
3,-1,666539,228719,1340056,68625,7856,669599,0
3,-1,641084,219309,1242325,65780,7744,620824,0
3,-1,658780,223878,1237917,69173,7887,618559,0
3,-1,638803,219441,1256713,65891,6983,627788,0
3,-1,638906,218591,1225452,65647,6878,612431,0
3,-1,638811,219561,1222915,65951,7669,611135,0
3,-1,641761,218909,1227848,65693,7658,613661,0
3,-1,640921,220069,1306326,66266,7644,652645,0
3,-1,641243,219201,1146004,65717,7067,572655,0
3,-1,643045,219306,1289685,65629,7895,644475,0
3,-1,641026,219156,1258487,65548,7074,628954,0
3,-1,637824,219152,1229347,65538,7654,614346,0
3,-1,661889,224421,1262465,69124,8646,630857,0
3,-1,641206,219352,1345900,65683,8200,672648,0
3,-1,638903,218346,1170367,65444,7611,584863,0
3,-1,641796,219595,1233931,65859,7787,616565,0
3,-1,643965,220447,1324530,66310,8639,661547,0
3,-1,640903,218896,1314590,65671,7153,656659,0
3,-1,638964,219063,1196742,65663,8184,598172,0
3,-1,643590,219720,1357188,65933,9265,678113,0
3,-1,646394,220443,1605073,66333,9296,801724,0
3,-1,642471,219616,1360605,65872,8633,680259,0
3,-1,639122,218531,1322605,65407,8305,661003,0
3,-1,648417,220887,1357020,66577,9023,677802,0
3,-1,640648,220292,1289105,66291,8980,644037,0
3,-1,654979,223266,1437037,68883,8479,718233,0
3,-1,636407,218812,1282362,65579,7890,640999,0
3,-1,636446,219216,1462839,65714,8325,730848,0
3,-1,636843,219058,1300438,65652,8217,649777,0
3,-1,640053,218660,1192426,65592,8161,595691,0
3,-1,638716,219309,1307726,65714,7972,653462,0
3,-1,638742,219048,1229408,65650,8482,614169,0
3,-1,642804,221232,1385887,66746,8709,692334,0
3,-1,646801,221297,1279555,66703,8162,639225,0
3,-1,664085,224505,1274617,69189,8543,637003,0
3,-1,639530,220535,1295597,66304,7718,647224,0
3,-1,639354,219202,1131085,65662,7090,565021,0
3,-1,640862,220088,1303193,65970,7759,651250,0
3,-1,645609,221003,1298663,66460,8120,648795,0
3,-1,660217,223758,1495431,68894,9394,747448,0
3,-1,641916,220447,1360327,66285,8188,679859,0
3,-1,641437,218963,1304022,65587,9114,651605,0
3,-1,636304,218412,1503246,65512,8479,750781,0
3,-1,662741,223547,1386106,69020,8696,692581,0
3,-1,640589,218949,1182821,65702,7303,591034,0
3,-1,641981,220280,1332017,66361,8008,665308,0
3,-1,644967,220426,1348644,66509,8401,673682,0
3,-1,641790,218962,1226829,65740,7731,613120,0
3,-1,636990,219348,1309212,65894,8352,654152,0
3,-1,644004,221252,1297317,66804,7561,648131,0
3,-1,639398,219710,1283917,66144,7568,641329,0
3,-1,640982,218834,1180345,65725,8241,589871,0
3,-1,636505,218505,1195978,65558,6944,597525,0
3,-1,640005,219088,1219331,65803,7575,609283,0
3,-1,646709,221132,1304852,66723,8374,651564,0
3,-1,638942,218903,1135446,65766,7423,567250,0
3,-1,641388,218870,1255293,65681,8526,627176,0
3,-1,639428,218532,1359457,65561,7957,678992,0
3,-1,639897,219196,1222627,65714,8072,610955,0
3,-1,647352,220681,1280538,66486,8675,639715,0
3,-1,642005,218518,1260683,65537,8248,630006,0
3,-1,659934,224224,1325099,69268,8686,662095,0
3,-1,643562,220395,1248796,66409,7159,623792,0
3,-1,638883,219062,1263336,65706,7230,631253,0
3,-1,638927,218628,1324893,65654,7882,662067,0
3,-1,642167,220588,1147817,66553,7515,573201,0
3,-1,641413,218256,1284203,65402,8164,641720,0
3,-1,642421,218722,1294928,65696,7785,646955,0
3,-1,640012,218733,1356963,65629,7699,678043,0
3,-1,662893,224069,1441516,69207,7911,720370,0
3,-1,645325,220080,1209188,66271,7571,603937,0
3,-1,643037,219702,1292896,66142,6819,645930,0
3,-1,641019,218872,1233047,65657,7355,616104,0
3,-1,642738,218540,1281720,65609,6802,640467,0
3,-1,634879,219136,1372536,65407,6965,685675,0
3,-1,635509,219106,1397826,65296,7004,698534,0
3,-1,637544,219664,1231111,65748,7082,614924,0
3,-1,632760,218641,1262843,65173,8446,630991,0
3,-1,639595,220157,1198828,65917,7324,598826,0
3,-1,639448,219444,1389148,65293,7701,694085,0
3,-1,632160,218486,1204719,65188,7466,602098,0
3,-1,636719,218979,1314404,65145,8298,656822,0
3,-1,635387,219012,1410365,65331,7622,704746,0
3,-1,633959,218847,1218849,65289,7697,608962,0
3,-1,640110,218881,1195710,66141,7771,597369,0
3,-1,638882,218584,1244158,65892,8928,621379,0
3,-1,639970,218879,1276513,65992,7983,637936,0
3,-1,637371,218944,1298082,66003,8323,648729,0
3,-1,642080,220819,1256842,67053,8464,627880,0
3,-1,642027,219437,1349771,66293,8201,673963,0
3,-1,641186,220086,1315368,66574,8060,657260,0
3,-1,664516,224474,1435305,69822,9011,717331,0
3,-1,669725,224625,1417904,69972,9085,708405,0
3,-1,642809,219803,1332310,66480,7974,665853,0
3,-1,644454,220333,1402955,66629,8007,701093,0
3,-1,643563,220078,1234967,66490,7710,617276,0
3,-1,642948,220040,1348384,66528,7405,673775,0
3,-1,651520,221802,1248047,67375,8421,623418,0
3,-1,639953,219582,1304064,66339,8717,651559,0
3,-1,659598,224521,1395663,69781,8977,697363,0
3,-1,640805,220422,1348593,66569,8467,673867,0
3,-1,640764,220176,1269944,66507,8687,634437,0
3,-1,647059,221307,1232290,67039,7891,615290,0
3,-1,646516,221420,1362632,66943,8542,680577,0
3,-1,645146,221431,1251211,67001,8466,624922,0
3,-1,641701,219420,1272972,66075,7385,636087,0
3,-1,640539,219685,1359425,66293,7849,679329,0
3,-1,642504,220343,1209148,66490,8142,604071,0
3,-1,642271,219251,1364115,66132,8260,681686,0
3,-1,647115,220755,1331139,66683,7823,665139,0
3,-1,647316,220318,1251790,66760,8182,625291,0
3,-1,641782,220203,1550973,66498,8247,775009,0
3,-1,641617,220158,1285179,66491,8958,642135,0
3,-1,642355,220567,1243211,66806,7927,620982,0
3,-1,663977,224229,1411604,69568,8663,705430,0
3,-1,645002,219994,1245072,66332,8151,622184,0
3,-1,647024,222329,1255181,67464,8399,626999,0
3,-1,645914,220573,1289829,66521,7569,644428,0
3,-1,645948,219250,1306657,66263,8075,653017,0
3,-1,642325,220036,1367962,66498,8673,683642,0
3,-1,647254,219960,1639305,66465,9740,819098,0
3,-1,645708,219831,1394808,66348,8952,696933,0
3,-1,641299,221119,1137684,66952,7802,567988,0
3,-1,641841,220026,1285264,66349,8208,642202,0
3,-1,662565,224037,1377066,69434,8890,688100,0
3,-1,659276,223705,1507988,69321,9074,753643,0
3,-1,644311,220479,1213976,66740,7568,606253,0
3,-1,640510,218824,1272717,65973,7785,635998,0
3,-1,639428,219087,1270386,66042,8210,634806,0
3,-1,640683,219091,1438537,66142,7816,718910,0
3,-1,640603,218980,1285645,66114,8012,642358,0
3,-1,636737,218234,1248058,65927,8086,623520,0
3,-1,639902,218559,1295291,66164,8109,647122,0
3,-1,640624,218898,1180617,66315,8069,589845,0
3,-1,634291,218762,1311261,66214,7746,655315,0
3,-1,640897,220728,1201795,67232,7391,600307,0
3,-1,639469,219038,1469796,66308,8384,734541,0
3,-1,661076,223307,1478521,69528,9057,738780,0
3,-1,640084,219023,1227395,66280,8012,613311,0
3,-1,639293,218392,1392675,66092,7654,696030,0
3,-1,641438,220648,1247046,67111,8200,622490,0
3,-1,637952,217827,1327720,65854,7717,663573,0
3,-1,640557,218671,1390494,66288,8073,694853,0
4,-1,691641,238971,1259461,71567,8059,628937,0
4,-1,689899,237386,1379570,70779,8843,689131,0
4,-1,689352,237811,1355656,70947,7797,677451,0
4,-1,636114,218224,1239992,65364,7348,619707,0
4,-1,639121,220744,1243141,66596,7016,620781,2
4,-1,640632,219845,1264271,66158,7116,631682,0
4,-1,639361,218882,1309797,65591,7041,654551,0
4,-1,637303,218701,1298243,65678,7732,648881,0
4,-1,634227,218795,1282018,65687,7432,640628,0
4,-1,634324,218478,1242449,65686,7033,620820,0
4,-1,635723,218473,1264279,65806,7429,631401,0
4,-1,637948,219703,1311837,66276,7207,655346,0
4,-1,636179,218127,1119738,65532,7133,559552,0
4,-1,634022,218990,1298262,65755,7995,648732,0
4,-1,639988,219288,1253061,65933,7174,626157,0
4,-1,640932,218690,1566153,65759,9036,782621,0
4,-1,642411,219607,1300231,66078,7911,649783,0
4,-1,643292,219312,1282363,65759,8765,640663,0
4,-1,641179,221868,1380379,66916,8466,689163,0
4,-1,638639,219994,1239690,66037,7203,619447,0
4,-1,637443,219706,1310820,65936,6800,655016,0
4,-1,644846,221273,1455163,66702,8578,726683,0
4,-1,636474,218842,1302480,65637,7861,650814,0
4,-1,635602,218778,1277408,65691,7363,639117,0
4,-1,642052,219999,1342076,66220,8316,670552,0
4,-1,638040,219756,1354699,66147,8780,676782,0
4,-1,634800,218835,1314216,65844,7750,656436,0
4,-1,658508,223677,1353503,69241,8366,676223,0
4,-1,636658,218683,1248234,65808,9111,623806,0
4,-1,636328,218793,1272524,65881,8059,635836,0
4,-1,644057,220454,1364097,66599,8083,681494,0
4,-1,640005,220200,1430616,66524,8777,714976,0
4,-1,639067,219239,1197093,66026,8519,598209,0
4,-1,639264,219137,1203045,65923,7470,601138,0
4,-1,637074,219287,1216802,66062,7276,608070,0
4,-1,635084,218683,1345428,65796,7694,672385,0
4,-1,662770,224193,1263830,69452,9432,631426,0
4,-1,636504,219172,1193418,65992,7058,596107,0
4,-1,640102,219454,1209772,66039,6915,604474,0
4,-1,637621,219202,1318592,65879,7495,658830,0
4,-1,636437,219121,1252729,65897,7539,625855,0
4,-1,662651,224534,1309986,69453,8300,654544,0
4,-1,642666,219222,1139626,65945,7591,569347,0
4,-1,642240,219549,1269741,66063,8258,634530,0
4,-1,657381,224158,1314486,69314,8330,656781,0
4,-1,636528,219421,1366012,65934,7576,682520,0
4,-1,641049,219491,1189159,66027,7903,594169,0
4,-1,638758,219685,1281062,66002,6918,640250,0
4,-1,643244,220893,1253702,66646,8559,626307,0
4,-1,636968,219390,1272574,65905,7586,635967,0
4,-1,642462,221036,1367666,66801,8273,683204,0
4,-1,646375,221350,1476872,66804,8930,737981,0
4,-1,641767,219618,1307294,66014,7888,653323,0
4,-1,640801,219426,1297701,65943,7690,648415,0
4,-1,643010,219679,1268894,66092,8348,634055,0
4,-1,659542,224059,1447248,69272,9186,723421,0
4,-1,644275,221348,1384494,66873,8865,691728,0
4,-1,643503,219763,1443306,66062,8549,721263,0
4,-1,659328,223481,1225440,69095,8410,612267,0
4,-1,645361,221590,1379029,66919,8474,688755,0
4,-1,639310,219070,1268804,65839,7644,634055,0
4,-1,641968,219867,1282109,66143,7394,640672,0
4,-1,642076,219484,1287430,65928,7611,643322,0
4,-1,643997,220406,1402739,66077,8221,701002,0
4,-1,646468,220678,1411808,66436,8557,705445,0
4,-1,641397,219249,1285546,65817,7863,642412,0
4,-1,633633,219393,1298695,65808,7697,649077,0
4,-1,638222,220214,1251555,66099,7732,625476,0
4,-1,638876,220268,1332664,66364,7730,665997,0
4,-1,642096,221253,1345340,66641,8549,671625,0
4,-1,635123,219174,1241404,65633,8010,620270,0
4,-1,637182,219990,1268593,65999,7627,633946,0
4,-1,661694,224365,1317540,69215,8121,658287,0
4,-1,636542,219201,1416210,65687,7775,707770,0
4,-1,644214,221947,1378647,66970,7346,688632,0
4,-1,636852,219443,1218184,65866,7029,608707,0
4,-1,644135,221183,1353567,66447,7605,676465,0
4,-1,647570,222185,1353942,66911,7753,676323,0
4,-1,661282,225270,1300962,69467,7606,650258,0
4,-1,645527,221862,1286299,66793,7619,642467,0
4,-1,642996,219877,1351483,65840,8073,675471,0
4,-1,637923,219136,1189586,65798,7170,594448,0
4,-1,647202,222187,1303034,67034,7612,650985,0
4,-1,645879,220431,1344324,66099,7854,671859,0
4,-1,643211,220299,1281460,66121,7973,640398,0
4,-1,641054,219723,1320828,66011,7327,660165,0
4,-1,645780,220770,1361898,66531,7846,680423,0
4,-1,639402,219162,1349517,65676,7834,674515,0
4,-1,644882,220993,1307086,66588,7968,653019,0
4,-1,662585,223281,1257803,68976,8816,628609,0
4,-1,637064,219180,1285706,65897,8505,642490,0
4,-1,639848,219444,1301208,65824,7151,650343,0
4,-1,644314,221202,1316508,66696,8069,657716,0
4,-1,639292,219444,1207203,65887,7062,603191,0
4,-1,643165,220915,1312833,66590,7884,655764,0
4,-1,663379,223853,1246743,69171,8525,622993,0
4,-1,638099,219137,1139315,65771,7003,569305,0
4,-1,645446,221006,1304611,66619,7974,651649,0
4,-1,641360,219324,1312484,65765,7864,655900,0
4,-1,642081,218896,1226517,65642,7711,612836,0
4,-1,637547,218158,1295923,65270,7626,647590,0
4,-1,647956,220633,1292975,66251,8270,645905,0
4,-1,638279,219303,1236244,65592,7487,617735,0
4,-1,642698,219929,1270146,65850,7554,634799,0
4,-1,641170,219931,1189864,65927,7116,594549,0
4,-1,643319,219902,1211525,65972,8027,605319,0
4,-1,638642,218532,1390898,65485,8020,695182,0
4,-1,636566,217611,1297597,65212,7564,648476,0
4,-1,643324,220199,1398278,66281,7720,698267,0
4,-1,639998,219582,1326796,65878,8337,662919,0
4,-1,640195,218784,1248005,65607,7914,623654,0
4,-1,639489,218657,1272838,65502,8574,635976,0
4,-1,639326,218706,1336159,65537,8056,667693,0
4,-1,661711,223839,1262555,69033,9144,630777,0
4,-1,644239,219530,1308542,65854,8770,653834,0
4,-1,634795,218461,1191837,65480,7878,595522,0
4,-1,635738,218066,1185351,65281,8094,592271,0
4,-1,641770,220467,1337324,66394,7905,668128,0
4,-1,646125,222230,1315068,66948,8301,657114,0
4,-1,644342,221562,1293269,66807,8579,646026,0
4,-1,639578,218736,1288998,65568,8257,644080,0
4,-1,657085,223785,1284935,69025,8675,642165,0
4,-1,637459,218988,1166989,65684,6989,583130,0
4,-1,644247,220131,1418339,66237,8796,708463,0
4,-1,663046,224086,1240588,69110,7960,619999,0
4,-1,640912,219013,1348341,65614,7808,673839,0
4,-1,638023,219146,1195503,65663,7455,597378,0
4,-1,639143,219274,1229935,65721,7754,614611,0
4,-1,636161,218608,1185012,65454,6823,592167,0
4,-1,639740,219052,1259809,65633,7680,629506,0
4,-1,639146,218943,1544180,65586,9084,771653,0
4,-1,644884,219885,1224947,65893,8460,612204,0
4,-1,642370,219773,1360243,66005,8893,679223,0
4,-1,639875,219132,1428533,65782,8519,713362,0
4,-1,638307,218710,1220570,65554,7014,609956,0
4,-1,640111,218698,1210527,65593,7882,604880,0
4,-1,646258,221360,1308363,66757,9008,653589,0
4,-1,662484,223956,1379002,69156,8722,689115,0
4,-1,642059,219001,1242266,65681,8368,620894,0
4,-1,636122,218751,1339347,65637,7165,669296,0
4,-1,637850,219280,1271305,65791,7432,635323,0
4,-1,640589,219418,1237434,65928,7485,618306,0
4,-1,649545,222120,1405486,67137,8642,701951,0
4,-1,642435,219411,1305677,65895,8388,652439,0
4,-1,636885,218278,1321722,65508,7613,660498,0
4,-1,643598,219898,1294016,66233,8141,646198,0
4,-1,636566,218308,1210926,65445,8148,604913,0
4,-1,642313,220313,1307568,66414,7528,653329,0
4,-1,668024,228724,1326685,68874,7786,662668,0
4,-1,642487,219500,1149960,65879,8009,574616,0
4,-1,639923,218433,1266546,65584,8204,632797,0
4,-1,644155,220049,1219537,66353,8152,608627,0
4,-1,645024,219014,1723892,65782,9681,861516,0
4,-1,637255,218922,1290038,65647,7824,644716,0
4,-1,639510,219606,1326061,65969,7829,662139,0
4,-1,637972,218182,1162600,65483,7298,580855,0
4,-1,660037,223712,1239074,69065,7997,619078,0
4,-1,641130,218409,1301445,65527,8396,650371,0
4,-1,649112,221446,1240611,66885,8335,619655,0
4,-1,640287,219312,1368630,65918,7087,683897,0
4,-1,638916,218616,1190955,65611,6623,595083,0
4,-1,643695,218759,1314172,65670,7743,656696,0
4,-1,662899,223656,1346159,69064,8233,672671,0
4,-1,649075,220589,1199828,66439,7697,599226,0
4,-1,643125,218910,1352663,65597,7251,676026,0
4,-1,636458,220693,1237838,66141,6965,618285,0
4,-1,632698,218420,1316472,64993,7168,657989,0
4,-1,633699,218757,1291827,65127,7669,645600,0
4,-1,635257,219927,1245617,65830,8099,622348,0
4,-1,635894,219019,1348517,65376,7654,673855,0
4,-1,662683,224728,1374077,69321,8949,686691,0
4,-1,633627,219324,1306729,65474,8075,652943,0
4,-1,633613,218413,1424192,64929,8239,711709,0
4,-1,643297,221594,1249965,66486,7886,624243,0
4,-1,637737,219545,1242313,65537,7764,620635,0
4,-1,641739,219857,1291826,66477,8814,645582,0
4,-1,640760,218694,1359759,65816,8355,679546,0
4,-1,644515,219536,1369712,66187,9256,684469,0
4,-1,638951,219846,1275604,66328,8806,637539,0
4,-1,635608,218769,1302939,66190,8170,651269,0
4,-1,646083,220785,1278026,66943,8928,638010,0
4,-1,643286,221055,1298373,67008,8578,648618,0
4,-1,642059,219763,1287861,66490,8414,643538,0
4,-1,649916,221320,1394683,67065,8692,697324,0
4,-1,645023,220711,1381438,67015,9263,689991,0
4,-1,645042,219970,1299832,66459,7609,649547,0
4,-1,641537,219770,1365803,66318,9079,682629,0
4,-1,648276,220628,1442885,66719,8819,721152,0
4,-1,666682,224406,1411976,69704,8770,705608,0
4,-1,643057,221579,1490160,67328,10549,744319,0
4,-1,642714,220324,1318510,66613,8329,658948,0
4,-1,663382,224553,1347299,69787,9100,673378,0
4,-1,643900,221714,1211511,67164,8095,605109,0
4,-1,643784,220480,1329590,66568,8477,664298,0
4,-1,644894,219853,1294039,66205,7987,646670,0
4,-1,640772,220543,1371524,66473,9011,685133,0
4,-1,639584,219608,1223393,66198,7656,611253,0
4,-1,642475,219335,1401474,66133,7936,700233,0
4,-1,646416,222012,1223721,67346,7403,611098,0
4,-1,643948,220552,1227308,66758,7350,612975,0
4,-1,642487,219268,1415829,66180,8377,707473,0
4,-1,641917,219164,1298668,66083,8066,649040,0
4,-1,638912,219365,1331846,66155,7776,665466,0
4,-1,646402,221181,1327295,67016,8799,662741,0
4,-1,661113,224408,1380604,69643,10036,689977,0
4,-1,644349,220515,1219301,66620,7794,609311,0
4,-1,645540,220661,1225865,66502,8437,612543,0
4,-1,650257,221189,1381229,66799,8470,690215,0
4,-1,642949,220133,1367811,66484,8595,683380,0
4,-1,646494,220547,1201708,66834,7677,600231,0
4,-1,645883,219496,1356995,66286,8275,678068,0
4,-1,668266,224247,1458195,69693,9528,728727,0
4,-1,647095,220017,1333127,66422,8509,666153,0
4,-1,638340,219863,1206369,66366,7951,602579,0
4,-1,640016,219420,1199531,66156,7453,599195,0
4,-1,641135,219889,1297775,66289,7799,648549,0
4,-1,638525,219340,1295122,66133,7660,647185,0
4,-1,638962,218731,1336045,66018,7658,667653,0
4,-1,645527,220809,1255406,66915,7323,626997,0
4,-1,636077,218861,1277491,65886,7638,638456,0
4,-1,639969,219060,1341402,66106,8140,670285,0
4,-1,638123,218670,1192835,65992,7771,596047,0
4,-1,659213,223560,1420405,69532,9967,709832,0
4,-1,640830,218985,1224852,66272,7910,612190,0
4,-1,642004,219685,1180708,66755,7765,589828,0
4,-1,642387,218711,1295685,66251,8034,647362,0
4,-1,659671,223423,1357134,69571,8992,678146,0
4,-1,639974,219645,1224701,66692,7915,611824,0
4,-1,639266,218826,1225685,66210,7211,612511,0
4,-1,639623,219178,1298049,66369,8403,648627,0
4,-1,641363,218700,1359245,66185,7901,679249,0
4,-1,658471,223456,1258578,69585,8681,628899,0
4,-1,638111,218345,1356135,66118,8176,677554,0
4,-1,642037,219141,1218067,66371,7191,608567,0
4,-1,640024,218201,1272617,65875,7663,635817,0
5,-1,712124,242371,1436660,74185,9469,717787,0
5,-1,692895,237278,1322353,70698,7765,660851,0
5,-1,696248,238946,1334161,71540,8875,666504,0
5,-1,641832,220692,1279261,66607,7388,639036,0
5,-1,639468,219660,1297990,65853,7288,648611,0
5,-1,634996,218810,1229398,65658,6607,614324,0
5,-1,634724,219039,1335862,65783,6603,667608,2
5,-1,657155,222908,1303788,68766,7243,651498,0
5,-1,668698,230442,1390141,69595,7556,694334,0
5,-1,640703,219499,1326389,66161,8205,662619,0
5,-1,637016,218642,1164879,65680,6729,582223,0
5,-1,638227,218741,1193038,65716,6982,596260,0
5,-1,638267,219001,1349535,65855,7371,674202,0
5,-1,640267,219142,1221134,65904,7224,610067,0
5,-1,636337,218235,1251101,65518,6688,625323,0
5,-1,646985,221324,1417716,66909,8808,707567,0
5,-1,643000,219591,1220129,66053,7206,609700,0
5,-1,648936,221761,1353907,66863,9080,676365,0
5,-1,656033,224052,1385553,69137,8953,692413,0
5,-1,638435,220030,1521176,66034,8371,760119,0
5,-1,636692,219653,1473771,65854,8740,736482,0
5,-1,634031,217772,1287235,65379,7751,643196,0
5,-1,637257,219737,1283110,66037,7534,641229,0
5,-1,638931,220118,1381086,66182,7978,689662,0
5,-1,637599,218942,1306813,65826,8042,653025,0
5,-1,636880,219189,1275913,65997,8665,637424,0
5,-1,639722,219101,1409178,65919,8671,704141,0
5,-1,637287,219215,1366927,65960,7880,683102,0
5,-1,640069,220623,1235910,66596,8813,617456,0
5,-1,639389,218580,1178184,65735,7823,588928,0
5,-1,641069,219560,1399091,66050,8624,699136,0
5,-1,657249,223593,1371547,69212,9416,685362,0
5,-1,642180,220834,1313653,66719,8452,656239,0
5,-1,642128,220805,1307668,66717,7986,653326,0
5,-1,636464,218662,1265105,65807,7601,632255,0
5,-1,640083,219270,1294020,66044,7795,646536,0
5,-1,640115,218999,1232989,65889,8638,616065,0
5,-1,639082,220246,1323114,66480,8016,660993,0
5,-1,638734,219340,1306729,66053,7470,652934,0
5,-1,647471,221874,1336129,67100,7765,667314,0
5,-1,641685,219621,1219626,65956,7595,609337,0
5,-1,639727,219546,1187489,66036,7068,593209,0
5,-1,641729,219208,1216871,65814,7625,608119,0
5,-1,640370,219180,1282649,65845,8087,640897,0
5,-1,666479,229569,1312764,69237,9456,655654,0
5,-1,639613,220110,1294631,66173,7275,646960,0
5,-1,638349,218832,1223230,65785,7713,610993,0
5,-1,639738,219873,1196766,66141,7461,597983,0
5,-1,639886,218766,1213355,65747,7572,606302,0
5,-1,647878,221566,1260878,66868,8341,629880,0
5,-1,643321,221032,1346970,66678,8372,672908,0
5,-1,639318,218866,1230960,65701,8042,615187,0
5,-1,641431,219795,1230617,66112,7000,614860,0
5,-1,648593,222589,1575263,67355,9946,786993,0
5,-1,642320,219127,1448554,65912,8015,723976,0
5,-1,635447,218851,1235037,65790,7958,617064,0
5,-1,640767,219722,1387589,66109,7936,693450,0
5,-1,642021,220271,1332152,66402,8876,665438,0
5,-1,636016,218340,1264018,65652,7400,631826,0
5,-1,639981,219701,1359153,66054,7768,679077,0
5,-1,660727,224225,1338105,69339,8789,668604,0
5,-1,645531,221615,1318365,67024,7758,658539,0
5,-1,642030,219947,1266979,66117,7238,632821,0
5,-1,641624,219587,1301184,65999,8192,650119,0
5,-1,646969,221383,1226254,66747,8732,612435,0
5,-1,643821,219434,1236120,65754,7576,617762,0
5,-1,636717,221071,1319063,66594,7381,658909,0
5,-1,661858,228300,1233442,68395,7817,616444,0
5,-1,635365,219295,1193042,65838,7649,596137,0
5,-1,656678,223655,1353333,69011,8743,676271,0
5,-1,638063,219650,1234934,65844,8100,617189,0
5,-1,639648,219986,1240268,66074,7689,619964,0
5,-1,640217,220077,1305829,65990,7871,652578,0
5,-1,639736,220930,1357051,66446,7642,678106,0
5,-1,638043,219974,1318671,65962,8052,659004,0
5,-1,644389,222140,1354240,67099,7911,676582,0
5,-1,644160,221164,1312284,66771,7777,655562,0
5,-1,642991,220690,1218741,66193,7282,608991,0
5,-1,639667,221017,1282884,66299,7301,641133,0
5,-1,661767,224915,1304016,69362,7827,651569,0
5,-1,645188,221176,1316825,66370,8009,657906,0
5,-1,638403,219438,1366911,65842,7778,683152,0
5,-1,662651,224887,1266286,69421,7772,632841,0
5,-1,647217,221478,1378885,66713,7959,688899,0
5,-1,641766,220161,1308416,66022,7104,653879,0
5,-1,644449,221445,1320748,66861,7990,659614,0
5,-1,643138,219986,1223466,66130,7404,611350,0
5,-1,640623,219062,1335295,65715,7177,667345,0
5,-1,643159,219696,1236151,65982,7034,617783,0
5,-1,641801,219214,1301574,65899,7989,650290,0
5,-1,635585,218922,1232722,65754,8537,616242,0
5,-1,637046,219156,1179704,65860,6538,589386,0
5,-1,638545,219289,1363991,65831,8436,681248,0
5,-1,637709,219566,1185008,65899,6995,592177,0
5,-1,637343,218684,1298166,65637,7423,648771,0
5,-1,639647,219274,1219824,65819,6648,609473,0
5,-1,641967,221075,1195308,66650,7551,597039,0
5,-1,638644,219271,1316314,65871,7460,657760,0
5,-1,641657,219732,1221824,66010,7108,610513,0
5,-1,646561,220747,1344463,66430,8068,671630,0
5,-1,640659,219360,1275661,65682,7189,637318,0
5,-1,643996,219824,1255825,65863,6960,627541,0
5,-1,642451,221630,1281150,66659,7834,640064,0
5,-1,639876,219719,1296959,65863,7761,647772,0
5,-1,636950,218678,1279225,65431,6960,639265,0
5,-1,645706,221073,1229220,66502,8196,613975,0
5,-1,644714,221211,1410160,66722,9075,704356,0
5,-1,644773,221100,1319308,66593,8560,659068,0
5,-1,641659,219380,1749844,65866,10552,874162,0
5,-1,637601,219421,1260667,65795,8560,629865,0
5,-1,639081,218970,1322734,65598,8503,660955,0
5,-1,641943,219235,1363241,65756,8577,681070,0
5,-1,640362,219436,1589280,65834,9036,794083,0
5,-1,644468,218981,1289251,65623,8116,644186,0
5,-1,641894,218736,1223845,65553,8320,611597,0
5,-1,637597,219659,1302215,65855,8935,650752,0
5,-1,641595,220333,1269305,66292,8073,634159,0
5,-1,659471,224022,1367189,69102,8209,683357,0
5,-1,660197,224537,1315824,69287,9074,657590,0
5,-1,659317,222833,1262951,68682,8247,630875,0
5,-1,642243,220339,1285108,66299,8879,641966,0
5,-1,640632,219820,1354382,65891,8375,676754,0
5,-1,638043,219496,1253258,65798,7080,626401,0
5,-1,646166,221293,1382960,66713,8810,690530,0
5,-1,640320,219198,1285334,65771,7392,642220,0
5,-1,644223,220088,1297081,66171,8678,648016,0
5,-1,640142,220075,1325620,65915,8082,662465,0
5,-1,640916,220069,1246493,66210,8009,622487,0
5,-1,636160,218386,1284774,65340,7766,642044,0
5,-1,638084,218959,1418846,65616,8619,709077,0
5,-1,637337,218646,1396760,65447,8261,698490,0
5,-1,641706,219076,1368984,65602,9361,683981,0
5,-1,641300,219399,1410553,65706,8137,704772,0
5,-1,637162,219054,1197566,65762,7578,598177,0
5,-1,638214,218628,1289376,65598,7955,644399,0
5,-1,660573,223584,1215556,69015,8267,607467,0
5,-1,641057,219405,1320516,65898,8195,659991,0
5,-1,641540,218584,1260944,65601,7911,630055,0
5,-1,645051,220251,1251257,66410,8381,624971,0
5,-1,644412,218519,1347340,65571,7332,673225,0
5,-1,639526,219317,1330847,65878,8214,665019,0
5,-1,637046,218497,1330462,65556,7902,664828,0
5,-1,640890,218669,1191256,65627,7356,595220,0
5,-1,644453,220708,1279007,66533,7871,639071,0
5,-1,637354,218516,1327430,65508,7948,663381,0
5,-1,637957,218510,1323804,65571,8326,661508,0
5,-1,639520,218760,1314188,65674,8073,656652,0
5,-1,642535,219624,1256540,66005,7678,627771,0
5,-1,661779,223873,1362731,69105,8600,680812,0
5,-1,638860,218540,1215615,65541,7801,607481,0
5,-1,638379,218235,1333618,65480,9161,665977,0
5,-1,642419,218949,1329843,65781,8565,664505,0
5,-1,645161,219259,1235375,65876,7774,617300,0
5,-1,663523,224236,1402844,69295,8483,701124,0
5,-1,640917,219042,1345659,65727,8134,672513,0
5,-1,639543,218528,1326435,65642,8128,662574,0
5,-1,644558,219013,1192675,65816,7852,595738,0
5,-1,641670,219069,1410374,65805,7854,704714,0
5,-1,642202,218571,1241881,65552,7969,620537,0
5,-1,638119,218787,1283048,65675,7572,641105,0
5,-1,644006,219434,1247394,65875,7638,623184,0
5,-1,670125,228207,1362668,68447,7976,681033,0
5,-1,640966,218034,1199935,65456,6829,599569,0
5,-1,643653,218525,1283521,65596,7580,641440,0
5,-1,643360,218328,1235878,65632,7641,617388,0
5,-1,634407,219241,1305538,65455,6839,652343,0
5,-1,636171,219046,1298440,65217,7174,648811,0
5,-1,643740,221683,1253089,66444,7072,625632,0
5,-1,637986,219050,1190041,65354,6954,594553,0
5,-1,634079,218466,1357065,65147,7896,678192,0
5,-1,638231,219459,1314857,65346,7803,656998,0
5,-1,640554,219003,1326181,65380,7737,662659,0
5,-1,640099,220979,1311302,66133,7685,654962,0
5,-1,657765,223594,1416824,68605,8439,707974,0
5,-1,643303,220168,1200489,65861,7393,599629,0
5,-1,643909,220337,1191258,66868,7865,594737,0
5,-1,662719,224148,1355860,69533,9476,677409,0
5,-1,647334,220610,1282887,66790,8958,640666,0
5,-1,636221,218964,1607728,66009,8944,803515,0
5,-1,640525,218881,1195545,66092,8427,597435,0
5,-1,641111,219353,1275505,66344,8490,637347,0
5,-1,643308,220203,1367101,66597,8907,683064,0
5,-1,644865,220363,1221101,66600,8273,610030,0
5,-1,646419,220426,1543944,66731,9260,770804,0
5,-1,642952,219669,1161462,66499,7908,580397,0
5,-1,646242,220724,1389995,66729,8137,694670,0
5,-1,666764,224442,1323476,69769,9243,661128,0
5,-1,646017,220556,1250127,66690,7957,624601,0
5,-1,648027,220491,1413588,66678,9333,706243,0
5,-1,660498,225084,1377807,69962,9354,688507,0
5,-1,640453,219738,1411460,66385,8767,705276,0
5,-1,641383,219980,1198787,66470,7933,598943,0
5,-1,641539,219711,1321541,66288,8055,660414,0
5,-1,641122,220048,1197858,66399,7821,598562,0
5,-1,665511,225098,1436071,69747,9042,717613,0
5,-1,644815,219927,1338829,66281,8008,669067,0
5,-1,641743,219948,1254298,66315,8304,626645,0
5,-1,663742,224345,1371841,69594,8414,685522,0
5,-1,648337,220712,1187883,66805,7730,593382,0
5,-1,643549,219634,1283122,66326,7554,641158,0
5,-1,646261,220357,1233359,66536,7438,616385,0
5,-1,650865,221927,1225323,67323,7630,611948,0
5,-1,636504,218669,1357554,65910,8158,678375,0
5,-1,643686,220410,1330027,66506,8851,664706,0
5,-1,642572,219974,1271267,66425,8518,635261,0
5,-1,642557,219386,1282025,66200,8038,640624,0
5,-1,644176,220047,1245668,66271,7974,622480,0
5,-1,652357,222092,1287743,67299,8716,643382,0
5,-1,642025,219787,1443066,66328,8047,721185,0
5,-1,644451,219537,1290050,66377,8172,644629,0
5,-1,647349,220399,1314291,66647,8464,656726,0
5,-1,646485,220053,1184556,66497,8162,591814,0
5,-1,665725,224271,1378508,69663,8906,688889,0
5,-1,645932,218108,1243701,65797,7536,621212,0
5,-1,646418,221781,1389580,67336,10140,693065,0
5,-1,639722,219344,1259498,66176,8289,629306,0
5,-1,636589,218879,1165159,65986,7880,582121,0
5,-1,639918,219240,1180005,66115,7230,589566,0
5,-1,644150,220478,1195493,66514,7266,597259,0
5,-1,643721,221032,1213333,66979,8036,606081,0
5,-1,637661,218384,1271086,65869,8088,635195,0
5,-1,636450,218166,1143695,65905,8035,571495,0
5,-1,637396,218759,1294691,66096,8587,646865,0
5,-1,639284,218721,1275351,66216,7988,637149,0
5,-1,639227,218760,1171820,66170,8133,585386,0
5,-1,642214,218610,1294020,66101,8051,646746,0
5,-1,639383,219077,1253154,66384,6728,626089,0
5,-1,636489,218589,1284844,66209,8216,641984,0
5,-1,641111,219463,1271406,66439,7427,635380,0
5,-1,637351,218139,1182877,65992,6933,591182,0
5,-1,638946,218342,1255410,66063,7718,627119,0
5,-1,646365,219529,1506141,66496,9953,752509,0
5,-1,641757,218651,1342720,66169,8000,670947,0
5,-1,639819,218694,1285451,66248,8491,642247,0
5,-1,638450,218723,1328979,66055,7545,664088,0
6,-1,691585,237890,1294141,70954,7328,646685,0
6,-1,696809,239145,1331870,71663,8278,665359,0
6,-1,689210,237057,1312953,70629,8030,656116,0
6,-1,659348,224015,1377226,69160,8473,688129,0
6,-1,638319,219359,1271241,65863,6557,635231,0
6,-1,640018,221021,1200047,66733,7617,599581,0
6,-1,636660,218439,1319801,65495,6571,659605,0
6,-1,637237,219304,1190039,65853,6230,594644,2
6,-1,640864,219016,1201800,65691,8001,600562,0
6,-1,631692,217824,1176759,65445,7442,588000,0
6,-1,637277,218541,1214590,65663,7606,606936,0
6,-1,637065,218712,1287628,65753,7203,643396,0
6,-1,638236,218990,1314539,65801,7193,656936,0
6,-1,638952,218673,1319114,65748,9152,659009,0
6,-1,639232,218672,1273719,65768,7248,636507,0
6,-1,636480,218132,1365044,65505,8013,682585,0
6,-1,662778,224056,1345629,69259,8845,672558,0
6,-1,640599,218811,1242703,65630,7738,620752,0
6,-1,646537,219823,1213155,66065,7906,606178,0
6,-1,639550,219993,1192605,65995,7273,595946,0
6,-1,639567,219963,1488592,66051,9329,743357,0
6,-1,637674,218995,1308340,65781,7736,653828,0
6,-1,633377,218810,1181543,65677,7101,590332,0
6,-1,634093,218614,1183556,65651,7264,591604,0
6,-1,660265,223966,1398850,69258,9133,699082,0
6,-1,639737,220847,1360835,66744,8482,679950,0
6,-1,659774,223755,1424468,69284,9322,711856,0
6,-1,635932,218410,1273637,65715,8883,636453,0
6,-1,638145,219160,1222084,65978,8082,610446,0
6,-1,640506,219312,1352532,66043,7925,675729,0
6,-1,639709,218718,1240603,65805,8172,619932,0
6,-1,637173,219647,1249845,66153,7774,624532,0
6,-1,643581,221280,1352856,66851,8609,675863,0
6,-1,641315,219703,1320207,66160,8138,659781,0
6,-1,638393,219571,1187952,66126,7003,593552,0
6,-1,638537,219105,1306446,65916,7694,652789,0
6,-1,639567,219228,1156691,66010,7900,578057,0
6,-1,637164,219703,1312056,66167,8113,656343,0
6,-1,643262,220915,1298852,66839,7903,648831,0
6,-1,663641,224433,1435449,69490,8163,717365,0
6,-1,640186,218634,1327218,65633,7883,663157,0
6,-1,646535,221418,1348888,66822,8163,673894,0
6,-1,647609,221505,1253780,66850,8126,626043,0
6,-1,648174,221793,1442692,67025,9393,720576,0
6,-1,655541,223495,1310031,69045,8400,654555,0
6,-1,638267,219925,1333702,66136,7919,666332,0
6,-1,641461,220116,1161623,66179,7339,580453,0
6,-1,641232,220566,1284591,66531,8525,641837,0
6,-1,640973,219632,1299703,66056,8155,649360,0
6,-1,640702,218831,1167808,65752,6925,583578,0
6,-1,644209,221049,1578648,66785,9196,788571,0
6,-1,660447,223899,1291972,69230,7989,645537,0
6,-1,639940,219461,1248484,65995,7368,623887,0
6,-1,663208,224179,1295068,69325,8735,647177,0
6,-1,641434,219077,1198775,65839,7583,599095,0
6,-1,636166,219002,1292680,65794,8194,646012,0
6,-1,640439,219721,1422686,66038,9048,710916,0
6,-1,638586,219018,1326937,65813,7656,663002,0
6,-1,642693,220406,1152081,66313,7012,575738,0
6,-1,639486,219492,1395930,65915,8296,697666,0
6,-1,663244,223674,1327247,69208,9488,663262,0
6,-1,643107,219971,1327698,66131,8512,663520,0
6,-1,641233,219559,1198848,65946,7100,599010,0
6,-1,638888,218636,1368573,65661,8172,683881,0
6,-1,663370,224386,1196927,69264,8884,598062,0
6,-1,643166,219443,1397927,65938,8621,698272,0
6,-1,645902,219257,1324547,65762,7411,661830,0
6,-1,641232,221848,1397970,66901,9772,698385,0
6,-1,636044,219789,1454840,65939,8371,727110,0
6,-1,639862,219815,1333119,66000,7745,666277,0
6,-1,641889,221768,1350281,66869,8647,673970,0
6,-1,640350,220784,1297115,66271,7313,648142,0
6,-1,639866,219164,1339756,65688,7173,669577,0
6,-1,638075,219873,1328712,65968,8310,663963,0
6,-1,640503,220541,1342439,66202,7939,670977,0
6,-1,643803,220400,1229659,66313,7471,614484,0
6,-1,639096,220053,1237068,66181,7198,618249,0
6,-1,640980,220020,1209579,65930,6910,604486,0
6,-1,638569,220208,1304077,65942,7876,651647,0
6,-1,640661,220182,1260374,65979,7474,629840,0
6,-1,648708,222971,1392116,67218,8059,695599,0
6,-1,640355,220429,1326937,66076,7483,663096,0
6,-1,641261,219933,1329188,66030,7734,664180,0
6,-1,642988,219550,1270223,65939,7272,634823,0
6,-1,661780,224701,1333587,69313,8442,666409,0
6,-1,661109,224392,1316049,69294,7702,657657,0
6,-1,642893,220227,1315626,66107,7649,657467,0
6,-1,641942,219937,1319429,66043,7682,659421,0
6,-1,641498,219739,1382494,66000,7149,690511,0
6,-1,642295,219080,1299442,65871,7977,649333,0
6,-1,640322,221059,1316459,66770,8341,657569,0
6,-1,638066,219534,1324504,65951,7620,661849,0
6,-1,637084,219025,1366363,65741,8453,682809,0
6,-1,660260,224414,1231626,69267,9117,615310,0
6,-1,635273,218827,1258031,65688,6976,628713,0
6,-1,643006,220482,1343586,66499,8135,671228,0
6,-1,658508,223890,1178320,69122,8301,588808,0
6,-1,639848,219374,1214235,65892,7971,606817,0
6,-1,644047,221180,1320960,66745,7071,659929,0
6,-1,643126,219739,1316290,65867,7768,657779,0
6,-1,641047,219431,1286980,65656,7611,643142,0
6,-1,645298,221103,1307054,66514,7441,652797,0
6,-1,642942,219093,1220392,65520,7680,609836,0
6,-1,638634,219473,1470503,65693,8310,734938,0
6,-1,645162,221365,1272161,66631,8205,635287,0
6,-1,641727,219759,1164257,65826,8264,581694,0
6,-1,660670,223700,1305617,69011,9417,652333,0
6,-1,660793,223878,1239288,69061,8857,619073,0
6,-1,644434,220836,1314312,66537,8156,656621,0
6,-1,663217,223294,1298149,68854,9628,648710,0
6,-1,642159,219206,1383154,65684,8996,690975,0
6,-1,640160,218924,1296489,65617,8629,647833,0
6,-1,641363,219893,1305908,66103,8630,652491,0
6,-1,641545,218880,1300851,65844,8465,649851,0
6,-1,644818,219349,1361149,65813,8827,680050,0
6,-1,638236,220210,1333769,66060,8723,666419,0
6,-1,638495,219640,1194508,65906,7749,596817,0
6,-1,638839,219538,1304652,65877,7741,651987,0
6,-1,637471,220376,1290572,66317,9145,645615,0
6,-1,637288,219043,1302684,65666,7665,651004,0
6,-1,636970,218712,1247554,65609,7701,623373,0
6,-1,641059,220368,1401146,66343,8486,699993,0
6,-1,637526,219437,1266831,65886,7452,633077,0
6,-1,662727,224277,1524573,69165,9275,761955,0
6,-1,638696,218628,1172555,65453,7579,585951,0
6,-1,641136,218755,1298115,65486,8215,648754,0
6,-1,635885,218902,1436889,65529,7943,718108,0
6,-1,638378,219423,1136489,65748,7340,567845,0
6,-1,641917,219210,1241844,65624,7748,620610,0
6,-1,639998,219002,1437334,65616,8030,718190,0
6,-1,637597,218983,1262301,65582,8106,630623,0
6,-1,644245,220795,1414369,66441,8612,706039,0
6,-1,639971,219140,1315136,65693,7970,657411,0
6,-1,667557,224612,1270994,69216,9177,635206,0
6,-1,641191,220030,1321449,66278,7564,660235,0
6,-1,640420,219488,1295140,65839,8302,647214,0
6,-1,639293,218397,1287214,65492,7883,643264,0
6,-1,645654,219943,1282353,66280,7804,640653,0
6,-1,669920,224869,1225096,69896,8595,612193,0
6,-1,667289,224070,1277585,69240,8373,638525,0
6,-1,637152,218613,1246019,65658,7523,622642,0
6,-1,640071,218799,1324756,65677,7741,662033,0
6,-1,641206,219342,1322428,65878,7953,660804,0
6,-1,638555,218434,1441846,65536,8029,720594,0
6,-1,664629,223728,1298402,69098,8330,648942,0
6,-1,642642,219161,1252803,65819,8111,626036,0
6,-1,660036,224244,1303954,69284,8309,651589,0
6,-1,638410,218609,1244258,65619,8306,621638,0
6,-1,639496,218702,1412033,65663,8636,705413,0
6,-1,661504,223770,1365847,69043,8674,682537,0
6,-1,661863,223286,1261338,69008,8987,630267,0
6,-1,640429,218321,1233081,65506,8182,616306,0
6,-1,642467,218571,1298327,65596,8201,648828,0
6,-1,636716,218042,1307254,65422,7956,653253,0
6,-1,641946,219045,1341178,65782,8109,670204,0
6,-1,645251,220109,1239797,66323,8303,619286,0
6,-1,641029,218048,1153473,65383,7860,576252,0
6,-1,645312,220841,1238023,66507,7626,618401,0
6,-1,647428,220674,1248273,66482,7229,623303,0
6,-1,645653,220989,1202482,66714,7103,600587,0
6,-1,640790,218632,1346202,65582,7138,672656,0
6,-1,641030,218125,1346542,65464,7730,672927,0
6,-1,643555,219661,1309648,65993,7283,654328,0
6,-1,644061,219215,1187262,65856,6955,593155,0
6,-1,641501,218104,1160790,65453,6806,579960,0
6,-1,632519,218899,1186585,65283,6544,592989,0
6,-1,640298,221371,1195107,66288,6911,596861,0
6,-1,635392,218779,1329202,65150,6987,664257,0
6,-1,637225,219174,1302479,65350,7074,650780,0
6,-1,635116,219104,1208066,65369,8211,603344,0
6,-1,637877,219631,1448508,65456,7842,723728,0
6,-1,657650,223594,1335002,68589,8155,667201,0
6,-1,636677,219480,1206542,65439,7813,602683,0
6,-1,635595,218952,1209590,65265,7384,604341,0
6,-1,638531,218816,1259171,65221,7305,629171,0
6,-1,638899,218585,1285646,66012,7994,642423,0
6,-1,641087,219435,1265840,66233,8903,632565,0
6,-1,642274,218980,1440514,66095,11034,719831,0
6,-1,635648,218598,1300415,65870,7305,650693,0
6,-1,639028,218590,1332466,65983,8886,665799,0
6,-1,638093,218685,1268049,65994,8903,633603,0
6,-1,640895,219661,1315004,66432,8268,657120,0
6,-1,649396,222087,1187124,67481,7789,592812,0
6,-1,646271,220702,1443524,67172,8743,719762,0
6,-1,663043,224390,1273982,69813,9028,636693,0
6,-1,641902,219402,1381983,66310,8141,690561,0
6,-1,643800,219694,1405235,66371,8467,702195,0
6,-1,651025,222559,1236790,67612,8044,617877,0
6,-1,646401,220203,1226105,66538,7755,612747,0
6,-1,640124,220161,1172443,66510,8228,585899,0
6,-1,640698,220216,1455284,66614,10440,727050,0
6,-1,642354,220724,1293163,66766,8548,645968,0
6,-1,648139,222102,1247108,67381,7883,622879,0
6,-1,644798,221305,1300677,66816,8573,649673,0
6,-1,645109,220548,1269385,66446,7035,634402,0
6,-1,646165,220392,1221169,66484,7831,610243,0
6,-1,647146,221975,1223701,67142,7400,611265,0
6,-1,638523,219159,1221668,66082,7410,610430,0
6,-1,644515,219717,1317443,66357,8766,658289,0
6,-1,642741,219678,1192752,66324,6954,595955,0
6,-1,643352,219851,1304337,66407,7560,651693,0
6,-1,666164,224386,1373350,69658,8966,686248,0
6,-1,642061,220670,1267185,66876,7961,633025,0
6,-1,645190,221533,1319541,67143,8545,659161,0
6,-1,644826,219463,1279480,66265,8820,639275,0
6,-1,642358,219575,1341944,66297,8096,670693,0
6,-1,664503,224169,1365396,69535,9972,682270,0
6,-1,649436,221296,1282683,66799,8385,641171,0
6,-1,643389,219432,1324224,66209,7508,661679,0
6,-1,643397,219391,1211411,66275,7267,605349,0
6,-1,648256,220808,1239416,66993,7903,619499,0
6,-1,645454,219688,1334753,66435,8011,666991,0
6,-1,645274,220329,1238291,66591,7982,618736,0
6,-1,646479,219536,1298263,66208,8432,648655,0
6,-1,663112,224805,1376020,69785,9693,687572,0
6,-1,642392,220704,1241386,66804,7992,620130,0
6,-1,643961,219731,1241876,66246,7988,620506,0
6,-1,640381,219343,1316419,66119,8516,657758,0
6,-1,640065,219011,1311400,66000,7160,655284,0
6,-1,659833,223854,1379504,69415,9346,689368,0
6,-1,638172,218757,1396872,65983,7812,698088,0
6,-1,642595,219531,1308669,66334,9349,653851,0
6,-1,636564,218808,1345030,66203,9294,672188,0
6,-1,638201,218228,1354130,66030,7953,676687,0
6,-1,638487,218860,1241880,66258,9138,620403,0
6,-1,663436,223327,1406579,69544,9429,702788,0
6,-1,638922,219542,1383985,66501,8172,691475,0
6,-1,658231,222729,1267765,69302,8562,633390,0
6,-1,638293,218795,1264258,66275,8140,631701,0
6,-1,640948,219800,1380114,66570,7817,689890,0
6,-1,640878,219184,1263308,66344,7218,631290,0
6,-1,647691,220457,1254858,66978,7891,626887,0
6,-1,659613,223115,1391858,69478,9109,695637,0
6,-1,640130,218934,1297954,66261,8054,648569,0
6,-1,640403,218676,1308349,66019,7883,653795,0
7,-1,691390,238297,1331465,71213,7629,665120,0
7,-1,691365,237464,1250657,70748,7598,625019,0
7,-1,692501,238271,1292875,71270,8066,645886,0
7,-1,633139,217949,1324923,65388,7750,662157,0
7,-1,633906,218119,1202960,65408,6986,601156,0
7,-1,640198,218866,1290948,65707,7650,645135,0
7,-1,635947,218820,1246034,65636,6720,622628,0
7,-1,641071,218997,1131706,65629,6984,565532,0
7,-1,638577,219106,1185405,65738,7494,592331,2
7,-1,641815,221722,1351526,67010,7335,675122,2
7,-1,635752,218340,1283382,65592,7685,641299,0
7,-1,637235,219322,1285211,65947,7308,642299,0
7,-1,637176,219034,1221306,65798,6939,610288,0
7,-1,635512,218667,1218195,65754,7249,608712,0
7,-1,638163,218655,1268661,65755,7498,633476,0
7,-1,634469,218786,1349792,65804,8803,674392,2
7,-1,635391,218842,1298971,65788,7370,649078,0
7,-1,636428,218369,1535215,65646,8725,767891,0
7,-1,638260,219952,1349316,66216,7837,674257,2
7,-1,644253,220483,1277941,66495,7503,637460,0
7,-1,645285,221396,1337506,66967,7953,668218,2
7,-1,641218,219843,1246080,66130,7662,622584,2
7,-1,641707,219393,1364613,65897,8699,682018,0
7,-1,647601,221354,1421654,66875,8010,710066,0
7,-1,634075,219634,1197835,66003,7230,598485,2
7,-1,637609,219627,1344491,65932,8456,671817,0
7,-1,634850,219286,1267623,65759,7435,633282,2
7,-1,644090,222134,1307285,66893,8127,653171,0
7,-1,661635,224392,1426268,69335,9048,712591,0
7,-1,636453,219253,1294775,65890,7161,647047,0
7,-1,661555,224812,1335827,69482,8215,667567,0
7,-1,635112,219493,1278118,66008,7952,638464,2
7,-1,638378,218908,1446494,65821,8744,722916,0
7,-1,663179,228681,1426832,68832,8932,713008,0
7,-1,636732,220107,1359565,66302,8097,679296,2
7,-1,635498,218892,1334416,65853,7987,666926,0
7,-1,641582,221183,1340713,66913,8310,669728,0
7,-1,637740,219381,1240609,66007,7231,619893,0
7,-1,638462,218743,1318683,65817,7853,658834,0
7,-1,641744,219639,1341472,66147,8129,670292,0
7,-1,661672,228190,1420863,68543,8742,710104,0
7,-1,638650,219035,1355610,65955,8111,677573,0
7,-1,636961,219501,1344731,66121,8297,671888,2
7,-1,639125,219094,1284242,65923,7427,641818,0
7,-1,640512,219686,1249140,66183,7452,624139,2
7,-1,642434,221192,1416223,66840,7772,707594,0
7,-1,636809,218428,1184502,65716,6988,591874,0
7,-1,642077,220392,1212043,66524,7385,605479,0
7,-1,638055,219042,1342912,65961,7467,671037,0
7,-1,640170,220586,1313286,66637,7228,656175,0
7,-1,635438,219059,1495086,65972,8151,747136,2
7,-1,639911,219231,1327902,65946,8290,663558,0
7,-1,638650,219242,1275859,65915,7348,637563,2
7,-1,664074,224592,1338462,69478,8932,668920,0
7,-1,639413,219137,1441934,65892,7996,720643,0
7,-1,640514,219312,1255797,65981,8316,627525,0
7,-1,641977,219558,1392760,66031,7804,695898,0
7,-1,639372,219422,1292874,66003,8460,646007,2
7,-1,635718,219821,1262782,66123,7827,630767,0
7,-1,636263,219615,1277716,66099,7271,638526,2
7,-1,636065,219537,1246704,65964,7664,623003,0
7,-1,642941,221642,1369664,67059,8341,684055,2
7,-1,643195,221189,1319766,66872,8931,659287,0
7,-1,641790,220526,1463923,66366,8687,731759,0
7,-1,639645,220173,1330371,66249,7531,664775,2
7,-1,637111,219188,1202443,65884,7464,600782,2
7,-1,646983,222148,1313828,67179,8444,656323,0
7,-1,638191,218784,1145024,65691,7293,572211,0
7,-1,641185,221497,1549563,66963,9449,774271,2
7,-1,639465,219741,1302920,66090,8014,651024,0
7,-1,639293,219726,1161959,66076,7589,580648,0
7,-1,641030,219972,1367610,66137,8520,683428,2
7,-1,640730,219316,1462250,65913,8417,730828,0
7,-1,640981,219983,1327411,66196,7206,663127,2
7,-1,640792,219461,1245720,66009,7917,622494,0
7,-1,663702,224116,1279707,69225,8465,639395,0
7,-1,646409,221677,1329058,67000,8105,663934,2
7,-1,636896,219349,1270125,65991,7862,634768,0
7,-1,638628,219397,1245592,66006,7587,622127,0
7,-1,641017,220056,1368561,66183,8185,683808,2
7,-1,644660,221556,1414142,66998,8784,706227,0
7,-1,647189,221364,1370802,66903,9129,684767,0
7,-1,636612,219079,1209933,65870,7378,604637,2
7,-1,645781,220521,1415292,66494,9349,707084,0
7,-1,640901,218744,1303440,65717,8063,651341,0
7,-1,641471,219055,1394686,65807,9457,696878,0
7,-1,641365,220243,1217126,66266,7296,607912,2
7,-1,644698,220891,1293256,66716,8166,646035,0
7,-1,639832,219507,1290484,65948,7925,644906,0
7,-1,640122,219778,1181247,65986,7732,590255,2
7,-1,644113,220294,1226303,66112,8005,612811,0
7,-1,643710,220201,1372211,66336,8612,685319,0
7,-1,646890,220001,1196536,66026,7577,597914,0
7,-1,634769,219671,1267784,65937,8605,633379,0
7,-1,638857,219760,1298298,65987,7912,648789,0
7,-1,634647,218915,1596210,65678,9441,797874,0
7,-1,636852,219759,1361520,66012,7527,680367,2
7,-1,656471,224213,1304483,69180,8753,651812,0
7,-1,636299,219251,1274873,65723,6915,637089,0
7,-1,639027,219839,1322200,65977,7534,660757,2
7,-1,640411,219973,1393350,66012,7560,696357,0
7,-1,635003,219118,1175092,65759,6858,587173,2
7,-1,633357,219431,1272821,65789,7543,636053,0
7,-1,640421,219570,1303052,65890,6841,651234,0
7,-1,641862,220947,1358592,66353,7686,678687,2
7,-1,643226,220321,1170869,66305,7261,585137,0
7,-1,638114,220565,1327010,66338,8169,663052,2
7,-1,663999,225025,1289718,69635,8696,644474,0
7,-1,638337,219422,1204547,66008,6919,601925,2
7,-1,645836,222358,1327065,67018,8275,662988,2
7,-1,644573,220883,1232926,66268,7501,616063,0
7,-1,647388,221675,1218625,66526,7673,608921,2
7,-1,638398,220503,1260901,66094,7656,630239,0
7,-1,638577,220780,1310642,66251,7777,654953,2
7,-1,643221,220699,1258275,66207,7425,628795,0
7,-1,642154,220156,1270054,65993,7976,634710,0
7,-1,641535,221134,1338451,66351,7239,668850,0
7,-1,639739,220243,1273020,66155,7580,636153,2
7,-1,641116,220292,1268191,66097,7564,633851,0
7,-1,646031,220568,1379676,66266,8026,689506,0
7,-1,643070,220826,1177917,66279,7481,588602,0
7,-1,642353,219454,1367441,65845,7016,683422,0
7,-1,640013,219127,1191612,65746,7729,595375,0
7,-1,639806,219852,1231691,66062,7572,615514,2
7,-1,660320,224028,1286371,69201,8338,642819,0
7,-1,641771,219617,1324974,65946,7882,662119,0
7,-1,641708,219394,1298778,65932,7689,649038,2
7,-1,645502,220371,1417430,66460,8265,708279,0
7,-1,634420,219692,1186737,66106,6194,592952,2
7,-1,637145,219896,1330746,66082,7497,664992,0
7,-1,639820,219687,1296372,66057,7280,647809,0
7,-1,639929,218978,1246304,65733,7812,622740,0
7,-1,636324,219129,1164433,65708,7553,581688,0
7,-1,639681,220575,1324530,66255,7922,661853,2
7,-1,638938,219221,1241876,65862,7063,620538,0
7,-1,639098,218753,1310488,65663,8187,654639,0
7,-1,642715,220616,1283280,66639,7314,641006,2
7,-1,636846,219364,1177158,65887,7819,588210,0
7,-1,640760,220027,1272120,66079,7948,635707,0
7,-1,664690,229165,1291609,68772,7905,645381,2
7,-1,640648,219892,1401979,66050,7720,700538,0
7,-1,641023,219837,1293497,65957,7361,646394,2
7,-1,640575,219115,1201495,65739,7365,600295,0
7,-1,646030,221605,1312751,66737,8255,655790,0
7,-1,640687,219024,1282598,65540,7465,641008,0
7,-1,645215,219758,1199481,65798,7965,599344,0
7,-1,638837,220189,1206038,65934,7282,602701,2
7,-1,647197,222103,1326016,66845,8082,662333,0
7,-1,638058,219393,1350228,65675,8118,674674,2
7,-1,662848,224629,1337867,69220,9191,668487,0
7,-1,642294,220438,1226607,66111,7114,612784,2
7,-1,642467,219561,1228229,65711,8893,613552,0
7,-1,637870,219012,1215672,65692,7384,607461,0
7,-1,641634,220269,1306830,66094,7917,653029,2
7,-1,642731,219749,1349235,65930,9499,674246,0
7,-1,659538,223492,1260411,68933,8374,629780,0
7,-1,639899,219478,1253188,65908,7529,626059,2
7,-1,641039,218653,1152097,65578,8369,575670,0
7,-1,638829,218916,1485412,65635,10064,742277,0
7,-1,643824,220345,1254809,66327,8582,626781,0
7,-1,641566,219684,1331885,65911,7708,665571,2
7,-1,640647,219854,1268153,65961,7826,633529,0
7,-1,639958,218967,1300961,65635,8427,649835,2
7,-1,643055,219576,1278878,65827,8735,638977,0
7,-1,640343,219657,1280786,65908,9055,640070,2
7,-1,642910,218911,1370806,65601,9038,685020,0
7,-1,632860,218592,1260648,65443,8507,630140,0
7,-1,638714,221113,1283625,66728,9185,640878,2
7,-1,637533,219709,1271960,65852,9036,635682,0
7,-1,637150,219114,1296613,65739,8428,647937,2
7,-1,640125,220290,1285053,66327,7661,642089,0
7,-1,643761,221131,1239901,66643,9118,618792,0
7,-1,635664,219319,1269050,65837,7825,634204,2
7,-1,637104,218661,1199385,65531,7487,599456,0
7,-1,637352,219437,1246823,65838,7409,622942,2
7,-1,660246,223476,1322034,68915,8071,660597,0
7,-1,634231,219295,1312189,65804,7761,655577,2
7,-1,636154,218826,1274650,65658,7527,636722,0
7,-1,636112,218869,1253754,65678,8186,626442,2
7,-1,640060,219407,1342795,65818,8530,670998,0
7,-1,639096,219005,1411786,65696,8722,705003,0
7,-1,642205,221249,1275091,66717,7232,636965,2
7,-1,639386,218934,1266985,65669,7898,633158,0
7,-1,640229,218750,1264738,65490,8027,632046,0
7,-1,642359,219772,1195468,65867,7702,597355,2
7,-1,654625,222992,1417571,68726,7934,708402,0
7,-1,639566,220112,1273603,65997,7674,636384,2
7,-1,637341,219059,1228429,65534,7782,613809,0
7,-1,640846,219161,1219394,65730,7605,609217,0
7,-1,645257,220985,1388250,66425,8466,692812,0
7,-1,645284,221701,1335672,66774,7928,667065,2
7,-1,636458,218707,1448114,65480,8356,723713,0
7,-1,661031,224084,1619082,69040,10296,809156,0
7,-1,640405,219021,1330558,65598,8280,664965,0
7,-1,642395,219324,1366955,65705,8527,683154,0
7,-1,637812,219412,1246756,65826,7724,622877,2
7,-1,638547,219372,1278386,65851,7060,638825,0
7,-1,643081,220828,1358656,66603,7765,678748,2
7,-1,640558,218947,1254362,65718,7957,626803,0
7,-1,640075,218983,1241107,65799,8029,620179,2
7,-1,647788,220819,1278996,66651,8280,638907,0
7,-1,639551,218749,1345253,65710,8523,672383,2
7,-1,642887,219273,1232900,65864,7482,616127,0
7,-1,643555,220244,1164016,66201,7534,581602,2
7,-1,642669,218862,1240455,65747,8466,619973,0
7,-1,643674,219055,1308346,65793,8361,653830,0
7,-1,650144,221470,1299211,66966,8349,648999,2
7,-1,640119,220515,1277519,66543,8378,638197,0
7,-1,641454,219822,1274554,66242,7656,636777,0
7,-1,643382,220703,1302856,66519,7691,650875,0
7,-1,637701,218732,1284822,65661,8196,641936,2
7,-1,634520,217985,1302266,65337,7410,650863,0
7,-1,637246,218631,1271824,65662,7386,635262,2
7,-1,641149,218907,1372009,65778,7963,685590,0
7,-1,641099,218590,1396202,65591,8701,697713,0
7,-1,639638,218766,1340048,65695,8359,669594,2
7,-1,636268,219013,1356466,65713,8128,677812,0
7,-1,637736,219339,1132932,65903,7159,565981,2
7,-1,661208,224222,1212064,69262,8916,605615,0
7,-1,639647,218778,1273184,65713,8716,636184,2
7,-1,639064,219272,1207278,65874,7905,603339,0
7,-1,640396,219722,1288757,66012,8038,643915,2
7,-1,636282,218095,1332984,65514,8006,665950,0
7,-1,644893,221634,1199053,66909,8036,598884,2
7,-1,639474,218167,1157485,65477,8040,578446,0
7,-1,640675,219105,1289425,65834,8167,644274,2
7,-1,639293,218630,1267563,65680,7622,632244,0
7,-1,639213,218150,1191117,65472,7628,595090,2
7,-1,641269,218437,1221764,65630,7336,610538,0
7,-1,635179,218868,1337732,65742,7635,668518,2
7,-1,637822,218379,1150729,65537,7291,575030,0
7,-1,638885,219224,1244484,65823,7346,621936,2
7,-1,640737,218479,1411208,65546,8469,704992,0
7,-1,640354,218634,1312203,65664,7033,655360,0
7,-1,646413,220148,1356852,66352,8091,677831,0
7,-1,643401,219615,1360900,65986,8449,679817,2
7,-1,640732,218111,1265850,65405,7990,632577,0
7,-1,662777,223619,1367788,69063,8560,683495,0
7,-1,664954,223039,1311521,68843,8337,655461,0
7,-1,646678,221587,1246134,66904,7413,622350,2
7,-1,640078,218953,1281950,65730,7262,640583,0
7,-1,640578,219681,1316110,66007,7404,657597,2
7,-1,647830,221363,1317310,66866,7494,658065,0
7,-1,641627,218979,1223553,65749,7303,611275,2
7,-1,643716,220219,1237554,66367,6746,618166,0
7,-1,640875,218492,1330558,65530,7139,664928,0
7,-1,643644,219056,1311468,65813,7875,655274,2
7,-1,646447,220197,1193572,66380,7429,596190,0
7,-1,646193,218779,1442320,65654,6829,720752,0
7,-1,632850,219581,1296762,65564,7288,647924,2
7,-1,654343,223593,1310989,68532,8188,655119,0
7,-1,636145,219367,1284604,65366,7272,641767,0
7,-1,636080,219598,1342481,65450,7524,670669,2
7,-1,640801,220533,1216506,66011,7172,607606,0
7,-1,639793,220339,1214998,65971,7172,606672,0
7,-1,639242,221015,1193934,66297,7735,596407,0
7,-1,637769,220229,1366997,65658,7960,683067,2
7,-1,638714,219060,1309883,65344,7715,654561,0
7,-1,636277,218448,1229647,65150,7647,614766,2
7,-1,635603,219317,1210839,65313,8181,605046,0
7,-1,641776,221243,1224619,66245,7367,611652,0
7,-1,638061,218849,1253573,65226,7283,626433,0
7,-1,640392,219716,1276353,66424,8396,637832,2
7,-1,639312,219107,1336927,66143,8001,668106,0
7,-1,637484,219285,1298299,66189,8109,648714,2
7,-1,639255,218457,1241807,65801,7776,620585,0
7,-1,641228,219390,1213516,66199,9102,606413,2
7,-1,641154,218422,1201146,65814,9316,599914,0
7,-1,637423,219216,1262907,66210,7975,631139,0
7,-1,660488,223399,1364894,69416,9889,682039,0
7,-1,644042,221272,1316936,67189,8411,657843,2
7,-1,646067,222184,1356019,67586,8767,677329,0
7,-1,657674,223660,1343236,69550,8972,671085,0
7,-1,641857,220644,1231791,66861,7870,615516,2
7,-1,642336,219962,1341494,66494,7525,670334,0
7,-1,641279,219857,1413985,66426,8526,706593,2
7,-1,642742,219783,1313281,66562,7775,656165,2
7,-1,665870,224695,1585555,69974,10738,792445,0
7,-1,646418,222715,1395410,67835,9768,696505,2
7,-1,641937,220049,1257767,66613,8552,628523,0
7,-1,650676,222996,1329089,67861,7966,663531,0
7,-1,648323,221982,1309147,67328,7812,653880,0
7,-1,642998,220593,1426009,66698,8798,712689,2
7,-1,643399,219760,1279404,66429,7963,639410,0
7,-1,648338,222296,1223545,67586,7935,611081,2
7,-1,644610,219933,1252859,66431,8548,626071,0
7,-1,641662,221222,1220895,67047,8142,609912,0
7,-1,639201,219951,1299079,66500,8337,649131,2
7,-1,646698,222267,1241952,67517,8246,620411,0
7,-1,639066,220587,1325047,66716,8590,662097,2
7,-1,644590,221576,1198553,67223,8019,598628,0
7,-1,641634,220360,1489684,66597,9087,744331,2
7,-1,641676,219854,1304624,66490,8087,651874,0
7,-1,645429,221027,1298701,66925,7905,648587,0
7,-1,646713,221589,1302714,67008,8535,650900,0
7,-1,642975,220874,1215218,66598,8066,607163,2
7,-1,644075,219642,1323119,66154,7898,661107,0
7,-1,641901,220274,1309950,66414,7689,654584,0
7,-1,641311,219952,1245352,66329,8207,622304,0
7,-1,645281,221418,1216071,67141,7554,607300,2
7,-1,644014,219856,1271956,66364,7638,635505,0
7,-1,640251,220494,1323896,66619,8764,661446,2
7,-1,642957,219702,1173880,66352,7513,586496,0
7,-1,644271,220848,1280946,66739,8151,640039,2
7,-1,644766,220858,1213265,66916,7691,605837,0
7,-1,643524,219585,1225190,66267,7414,612265,0
7,-1,639002,219284,1263418,66186,9078,630634,0
7,-1,641976,221344,1384532,67184,8620,691461,2
7,-1,642186,219697,1448725,66345,8768,724079,0
7,-1,647169,220776,1316575,66665,9135,657844,0
7,-1,641483,219561,1500407,66285,8537,749557,0
7,-1,638982,219361,1324116,66239,9120,661643,2
7,-1,642667,219800,1410358,66350,8545,704696,0
7,-1,648858,221237,1396833,66717,8670,698047,0
7,-1,648170,221854,1315690,67325,7795,657026,0
7,-1,644686,219817,1311926,66430,8118,655457,0
7,-1,645538,219803,1318472,66445,8351,658858,0
7,-1,644387,219401,1422986,66210,8237,711478,0
7,-1,648295,221440,1278839,67349,8840,638696,2
7,-1,644415,219854,1358930,66385,8640,679188,0
7,-1,646878,220244,1343482,66487,8808,671422,2
7,-1,647306,219624,1217968,66303,7787,608752,0
7,-1,641745,220190,1312714,66420,8541,655898,0
7,-1,640244,219930,1444229,66392,9866,721628,0
7,-1,637259,219364,1327482,66209,8126,663284,2
7,-1,643229,220408,1327706,66703,7194,663341,0
7,-1,645572,221366,1181312,67149,7344,589912,2
7,-1,640507,219087,1408974,66055,8910,704106,0
7,-1,641738,219884,1306775,66332,8011,652960,0
7,-1,637761,219479,1354934,66221,8606,676989,0
7,-1,638604,219306,1294079,66154,8413,646649,2
7,-1,643703,221262,1231414,67189,7450,614956,0
7,-1,640404,218687,1320741,66033,8690,660071,0
7,-1,639314,219161,1339982,66215,8180,669549,2
7,-1,643662,220244,1239983,66869,7995,619252,0
7,-1,641788,220303,1196373,67006,7729,597334,0
7,-1,639539,218517,1232236,66214,7719,615772,2
7,-1,636694,218059,1260047,65968,9255,629648,0
7,-1,639712,218286,1254404,66049,7846,626753,0
7,-1,639189,220249,1233090,67033,8292,615819,2
7,-1,637696,218692,1334060,66250,7243,666566,0
7,-1,637956,218578,1211248,66156,7483,605119,0
7,-1,640560,219668,1230590,66729,7965,614788,0
7,-1,642745,218564,1320680,66126,8140,660040,0
7,-1,639908,219446,1489319,66473,9133,744344,0
7,-1,643179,220699,1271413,67140,8379,634889,2
7,-1,642308,218973,1307869,66304,8130,653340,0
7,-1,642625,219085,1296479,66370,8333,647863,2
7,-1,639160,219185,1248262,66404,7857,623703,0
7,-1,635795,218377,1353840,66143,7938,676464,2
7,-1,639496,219666,1215027,66741,7202,606856,0
7,-1,643907,220206,1281170,66780,7915,640000,0
7,-1,647343,221655,1322134,67367,8035,660584,2
