-1,0,0.0307125
-1,1,0.029484
-1,2,0.029484
-1,3,0.029484
-1,4,0.029484
-1,5,0.029484
-1,6,0.029484
-1,7,0.029484
-1,8,0.0307125
-1,9,0.0307125
-1,10,0.0307125
-1,11,0.0307125
-1,12,0.0307125
-1,13,0.0307125
-1,14,0.0307125
-1,15,0.0307125
-1,16,0.0307125
-1,17,0.0307125
-1,18,0.0307125
-1,19,0.0307125
-1,20,0.0307125
-1,21,0.0307125
-1,22,0.0307125
-1,23,0.0307125
-1,24,0.0307125
-1,25,0.0307125
-1,26,0.0307125
-1,27,0.0307125
-1,28,0.0307125
-1,29,0.0307125
-1,30,0.0307125
-1,31,0.0565111
1,0,0.0303279
1,1,0.0295082
1,2,0.0295082
1,3,0.0295082
1,4,0.0295082
1,5,0.0295082
1,6,0.0295082
1,7,0.0295082
1,8,0.0295082
1,9,0.0303279
1,10,0.0303279
1,11,0.0303279
1,12,0.0303279
1,13,0.0303279
1,14,0.0303279
1,15,0.0303279
1,16,0.0303279
1,17,0.0303279
1,18,0.0303279
1,19,0.0303279
1,20,0.0303279
1,21,0.0303279
1,22,0.0303279
1,23,0.0303279
1,24,0.0303279
1,25,0.0303279
1,26,0.0303279
1,27,0.0303279
1,28,0.0303279
1,29,0.0303279
1,30,0.0303279
1,31,0.0663934
