0,-1,689251,236131,1241018,70362,7227,620563,2
0,-1,712475,240763,1357566,73648,8858,678880,0
0,-1,637987,219286,1316088,66046,7777,658060,0
0,-1,641232,220348,1399685,66235,7500,699902,0
0,-1,663161,224445,1297514,69386,8449,648662,0
0,-1,646164,222571,1249003,66662,7473,624305,0
0,-1,638593,218540,1205999,65861,6796,603012,0
0,-1,663056,224334,1383848,69596,8877,691990,0
0,-1,634572,218878,1184929,66222,7592,592496,0
1,-1,689701,237669,1384579,70876,7040,692349,2
1,-1,637907,219659,1320449,66103,7829,660270,0
1,-1,638608,218953,1248493,65726,7363,624541,0
1,-1,642246,219219,1315184,65847,9108,657219,0
1,-1,658033,223921,1398529,68587,8230,699333,0
1,-1,640734,219641,1297961,66218,7916,648993,0
1,-1,641012,219909,1276264,66377,7894,638190,0
1,-1,638824,218996,1280066,66348,7574,640096,0
2,-1,634911,218438,1269004,65668,7127,634667,2
2,-1,633818,218731,1276664,65784,7851,638373,0
2,-1,640844,220296,1203815,66266,6830,601899,0
2,-1,640544,218623,1340009,65611,8638,670063,0
2,-1,633520,218677,1494651,65059,8546,747134,0
2,-1,641829,218907,1375276,65956,8223,687631,0
2,-1,641091,219900,1356709,66301,8132,678391,0
2,-1,635746,217773,1180811,65873,7450,590462,0
3,-1,642121,221156,1321251,66782,8015,660038,2
3,-1,638161,220051,1282062,66279,7393,641099,0
3,-1,636874,219176,1329790,65885,7548,664936,0
3,-1,644667,220903,1374858,66667,8166,687484,0
3,-1,636577,220390,1199976,65820,7679,600021,0
3,-1,649529,221600,1366269,67265,7957,682936,0
3,-1,661947,224577,1593023,69690,8911,796560,0
3,-1,637499,218944,1277924,66302,7831,639021,0
4,-1,637824,218760,1337596,65680,8535,668684,2
4,-1,660939,227848,1309839,68507,7677,654945,0
4,-1,645089,221102,1301208,66753,8069,650539,0
4,-1,639528,218695,1174172,65606,7192,587136,0
4,-1,636423,219492,1308339,65356,7672,654111,0
4,-1,664906,223791,1412740,69467,9159,706328,0
4,-1,650798,221450,1264132,66974,8389,632136,0
4,-1,636890,218713,1182331,66197,6925,591218,0
5,-1,633395,218997,1184762,65845,7367,592211,2
5,-1,642038,221924,1350571,67145,8109,675337,0
5,-1,661536,224227,1276092,69338,8241,637750,0
5,-1,637695,218509,1269478,65649,7075,634837,0
5,-1,637887,221080,1173036,66103,8173,586347,0
5,-1,643489,220162,1244380,66701,7980,622146,0
5,-1,645662,219971,1318260,66308,8226,659183,0
5,-1,640867,220434,1293895,67068,8002,647227,0
6,-1,642017,221225,1360158,66899,8089,680230,2
6,-1,656298,223906,1283348,69330,8173,641626,0
6,-1,640533,219487,1410603,66009,8139,705356,0
6,-1,639849,219604,1199394,66002,7547,599741,0
6,-1,636590,218967,1178689,65130,7289,589350,0
6,-1,640958,218870,1263029,66105,7619,631476,0
6,-1,647014,220939,1248327,66543,7238,624111,0
6,-1,660640,224146,1405141,69765,8393,702536,0
7,-1,635237,218540,1440374,65734,8102,720198,2
7,-1,631632,218362,1308240,65644,8234,654162,0
7,-1,639203,219628,1443623,66066,7888,721867,0
7,-1,636645,218436,1352744,65583,7576,676388,0
7,-1,639713,220836,1273255,65976,6939,636212,0
7,-1,639769,218320,1319655,65955,7282,659715,0
7,-1,648582,220787,1342400,66578,8518,671244,0
7,-1,636095,218513,1264679,66150,7680,632354,0
8,-1,636470,218927,1221419,65748,8191,610629,2
8,-1,636677,219423,1235425,65976,7501,617773,0
8,-1,638168,219087,1307932,65784,7664,653992,0
8,-1,639883,218685,1329796,65640,8152,664902,0
8,-1,635100,218965,1557905,65202,9381,778924,0
8,-1,643079,220376,1240038,66944,7590,619284,0
8,-1,650738,222191,1283844,67299,8116,641846,0
8,-1,635548,218597,1530812,66157,9070,765444,0
9,-1,640426,219572,1340674,65950,8465,670387,2
9,-1,632876,219170,1277390,65917,7787,638743,0
9,-1,640912,220301,1293437,66271,7534,646813,0
9,-1,639540,219052,1353883,65806,8480,676987,0
9,-1,634495,219038,1298162,65120,7533,648820,0
9,-1,659392,223350,1389486,69345,9051,694682,0
9,-1,665511,224405,1514661,69538,9381,757376,0
9,-1,638791,220131,1334126,66877,8785,667314,0
10,-1,640924,219409,1260333,66087,7084,630226,2
10,-1,633055,219471,1196947,66089,6980,598524,0
10,-1,659412,224214,1306997,69351,8650,653485,0
10,-1,639152,219158,1225553,65785,7691,612828,0
10,-1,631903,218563,1186391,64952,7013,593190,0
10,-1,643470,220083,1319272,66737,8022,659603,0
10,-1,644198,219873,1291653,66293,8462,645877,0
10,-1,637817,218572,1197842,66136,6853,598870,0
11,-1,638862,219544,1205402,65893,7792,602637,2
11,-1,634481,220134,1345492,66502,7330,672970,0
11,-1,635817,219066,1216394,65791,7950,608249,0
11,-1,640889,219909,1188387,66076,7343,594262,0
11,-1,632112,219006,1282940,65232,8220,641487,0
11,-1,639267,218829,1244391,66094,8159,622189,0
11,-1,649341,221276,1220028,66937,8746,610074,0
11,-1,636323,218524,1311732,66166,8039,655907,0
12,-1,639634,219862,1283684,66073,7603,641895,2
12,-1,646092,219158,1366839,65933,7683,683469,0
12,-1,640472,220222,1199593,66238,7768,599815,0
12,-1,636449,218617,1376563,65618,7956,688334,0
12,-1,635694,219418,1471682,65302,7636,735818,0
12,-1,640794,219496,1274663,66300,8002,637568,0
12,-1,644859,219826,1234037,66214,7999,617064,0
12,-1,641197,220699,1284282,67070,7779,642275,0
13,-1,636734,218990,1235169,65780,7267,617633,2
13,-1,645886,219501,1223823,66083,7261,611987,0
13,-1,659240,224263,1175055,69351,8144,587535,0
13,-1,641577,219536,1170432,65897,7757,585269,0
13,-1,635672,219755,1824298,65524,10482,911814,0
13,-1,643288,220656,1207431,66994,7281,603746,0
13,-1,646830,220756,1200482,66548,7378,599849,0
13,-1,658567,224119,1364115,69789,8768,682070,0
14,-1,647449,222430,1354126,67186,8277,677134,2
14,-1,650317,221464,1382454,66996,8397,691232,0
14,-1,636689,219542,1231697,66025,8155,615898,0
14,-1,642605,219555,1136695,65902,7579,568402,0
14,-1,653605,223799,1383650,68548,8493,691964,0
14,-1,666693,228576,1269072,69034,8342,634388,0
14,-1,645468,220209,1305854,66396,7908,652969,0
14,-1,634214,218629,1211063,66204,7521,605577,0
15,-1,641933,219774,1244632,66186,6961,622333,2
15,-1,663785,223400,1273410,69141,8640,636695,0
15,-1,646573,220789,1327840,66604,8082,663978,0
15,-1,641355,219345,1225146,65791,7857,612625,0
15,-1,633518,218973,1275831,65195,6838,637915,0
15,-1,647132,220080,1334828,66622,8219,667397,0
15,-1,644342,220180,1355102,66310,8131,677484,0
15,-1,635881,218959,1244054,66307,7299,621916,0
16,-1,636012,219110,1236210,66024,7708,618125,2
16,-1,645472,219185,1347419,65955,8150,673758,0
16,-1,640993,219114,1376444,65856,7820,688035,0
16,-1,660337,223297,1192881,68873,7929,596487,0
16,-1,631526,218630,1153937,65031,6758,577044,0
16,-1,643406,219087,1442220,66173,8663,720988,0
16,-1,642331,219814,1302329,66207,7882,651198,0
16,-1,638586,220129,1240902,66876,7624,620451,0
17,-1,647536,221331,1381147,66975,7391,690596,2
17,-1,644630,219626,1346477,66153,7989,673110,0
17,-1,641650,219768,1309631,66109,7586,654867,0
17,-1,640800,219778,1183206,66000,7447,591655,0
17,-1,635792,220409,1265548,65823,7051,632131,0
17,-1,641419,218728,1317622,66026,7932,658842,0
17,-1,643124,219398,1242918,66069,7996,621502,0
17,-1,635358,219159,1280141,66381,8572,640011,0
18,-1,643754,219307,1257052,65929,7650,628543,0
18,-1,642683,219247,1383836,65980,7708,691971,2
18,-1,639680,219393,1300922,65880,7165,650515,0
18,-1,640201,219880,1180556,65963,7030,590330,0
18,-1,629581,218887,1388275,65114,7107,693715,0
18,-1,642318,219202,1452812,66154,8836,726393,0
18,-1,644783,219681,1289163,66243,7817,644595,0
18,-1,634429,218540,1364919,66166,8422,682356,0
19,-1,666752,224440,1312084,69482,9175,655997,0
19,-1,636673,220175,1288261,66347,7644,644230,2
19,-1,638892,218816,1328321,65676,7826,664183,0
19,-1,646320,221224,1328305,66641,7839,664188,0
19,-1,646342,218905,1479338,65529,7300,739837,0
19,-1,640278,218617,1244672,65988,7262,622258,0
19,-1,667248,225227,1425791,69792,8854,712594,0
19,-1,655449,221800,1237947,67559,7985,619066,0
20,-1,643259,219338,1384618,66058,8019,692324,0
20,-1,637236,219092,1319378,66012,7506,659738,2
20,-1,638792,219438,1298603,65977,7179,649250,0
20,-1,640115,219258,1208261,65800,7378,604183,0
20,-1,667393,223779,1347858,68966,8434,673792,0
20,-1,644362,220558,1289215,66852,8209,644679,0
20,-1,644229,220299,1364627,66360,8147,682204,0
20,-1,668481,223522,1281269,69590,8951,640509,0
21,-1,643389,219397,1367764,66024,8746,683999,0
21,-1,635545,219164,1198909,66019,7026,599499,2
21,-1,641777,220524,1292047,66533,7952,645585,0
21,-1,639219,219250,1273940,65780,7237,637009,0
21,-1,645119,219072,1261054,65631,6812,630573,0
21,-1,639011,218750,1302074,66016,8351,651051,0
21,-1,645223,220195,1276072,66383,7739,638083,0
21,-1,644932,218610,1242382,66155,8040,621231,0
22,-1,643001,219816,1366407,66338,8550,683037,0
22,-1,639173,221248,1353025,66944,7950,676241,2
22,-1,641756,220077,1434400,66132,7385,717252,0
22,-1,640304,219787,1307026,65991,7642,653546,0
22,-1,643843,218717,1193565,65402,6627,596817,0
22,-1,642075,218917,1226763,66065,7937,613414,0
22,-1,646129,221018,1234848,66778,6904,617490,0
22,-1,644199,218666,1293345,66214,9070,646016,0
23,-1,644353,219498,1323902,66112,8009,662043,0
23,-1,634149,219232,1296918,65977,7812,648406,2
23,-1,641040,219828,1304657,66069,7964,652381,0
23,-1,641299,220685,1343057,66470,7687,671443,0
23,-1,644042,218899,1295703,65580,7314,647817,0
23,-1,643810,219908,1355315,66382,8017,677635,0
23,-1,644181,220165,1313882,66316,7296,656885,0
23,-1,643723,218489,1157575,66120,7764,578833,0
24,-1,644109,219815,1334791,66138,8107,667357,0
24,-1,633211,219048,1177621,65888,7319,588866,2
24,-1,636161,218309,1227023,65682,7556,613559,0
24,-1,641769,219367,1272990,65893,7730,636545,0
24,-1,649752,220788,1201775,66383,7341,600945,0
24,-1,662683,223744,1294102,69476,8259,647110,0
24,-1,643169,220362,1454438,66431,7950,726551,0
24,-1,648415,220907,1304287,67113,9069,652065,0
25,-1,643409,219046,1235809,65886,8013,617961,0
25,-1,637024,219975,1336328,66179,7387,668098,2
25,-1,636087,218744,1280578,65658,7296,640329,0
25,-1,640746,219524,1346830,65844,8058,673482,0
25,-1,644716,219080,1313897,65652,7221,657007,0
25,-1,637159,218457,1315625,65934,8321,657811,0
25,-1,693019,234062,1450742,72418,9409,725363,0
25,-1,664599,223253,1263089,69517,9506,631256,0
26,-1,645501,220153,1314981,66513,8185,657593,0
26,-1,636080,219425,1378665,65941,8783,689293,2
26,-1,644743,221940,1321524,67158,7461,660831,0
26,-1,659751,223582,1263862,68965,8230,631962,0
26,-1,644902,219305,1257779,65709,7200,628948,0
26,-1,646555,221740,1520955,67380,10002,759611,0
26,-1,642335,220088,1308832,66420,7657,654479,0
26,-1,642774,218400,1139688,66121,8171,569924,0
27,-1,642296,219259,1183148,66027,7860,591625,0
27,-1,666411,228879,1242447,68805,7639,621216,2
27,-1,658008,223750,1275478,69213,7659,637709,0
27,-1,640568,219983,1379441,66014,8468,689770,0
27,-1,641347,217666,1375473,65258,8295,687598,0
27,-1,641253,219010,1254553,66183,7223,627063,0
27,-1,645707,221393,1254839,67033,8708,627490,0
27,-1,644136,218093,1263864,65984,9539,631900,0
28,-1,640420,218540,1363434,65747,7800,681767,0
28,-1,639378,220149,1225883,66210,7714,612512,2
28,-1,639402,219009,1209579,65818,7460,604857,0
28,-1,639512,219697,1213954,65951,7784,607025,0
28,-1,643851,219020,1169289,65557,7474,584676,0
28,-1,642211,219999,1218848,66717,7359,609363,0
28,-1,643634,220522,1337473,66547,8352,668793,0
28,-1,642739,218169,1207917,65994,8763,604000,0
29,-1,641418,219021,1335825,65864,7822,667958,0
29,-1,632708,219387,1240355,66001,7225,619857,2
29,-1,639985,219971,1183149,66165,7062,591620,0
29,-1,638922,219519,1307695,65782,8249,653865,0
29,-1,643011,219225,1226625,65626,7113,613229,0
29,-1,640485,218642,1255713,65966,7110,627801,0
29,-1,640971,219848,1371596,66218,8701,685913,0
29,-1,640953,217692,1161376,65877,8460,580598,0
30,-1,644756,219963,1270428,66211,8294,635265,0
30,-1,636909,219541,1150004,66024,6630,575062,0
30,-1,637531,220099,1244174,66232,7472,622168,2
30,-1,637135,219050,1509482,65682,9352,754520,0
30,-1,643201,219042,1252678,65619,7188,626355,0
30,-1,641096,219537,1215662,66365,7353,607752,0
30,-1,663738,225214,1405228,69873,9707,702437,0
30,-1,649522,221264,1264258,67304,8303,632183,0
31,-1,643491,219882,1312860,66245,7956,656466,0
31,-1,637775,219408,1152823,65949,6957,576459,0
31,-1,637212,219314,1338945,65921,7619,670050,2
31,-1,644202,220915,1438404,66661,8693,716077,0
31,-1,641114,219022,1392031,65541,7387,695935,0
31,-1,643290,220653,1234837,66961,8296,617388,0
31,-1,648795,220603,1394301,66516,9343,697149,0
31,-1,669058,224811,1328747,70511,10284,664268,0
32,-1,640136,218993,1317882,65860,7733,658978,0
32,-1,640753,220783,1221337,66708,7596,610734,0
32,-1,644061,221291,1322471,66882,7811,660683,2
32,-1,637076,219087,1301465,65705,7906,650547,0
32,-1,649651,220458,1509003,66092,9547,754310,0
32,-1,637244,218200,1161906,65891,8088,580698,0
32,-1,644844,220662,1261955,66606,8454,630808,0
32,-1,643239,218876,1205796,66286,8432,602956,0
33,-1,642271,219121,1237411,65995,8312,618760,0
33,-1,638813,220280,1195068,66196,7207,597586,0
33,-1,637861,219524,1195229,66007,7250,597672,2
33,-1,640973,220891,1289412,66536,8191,644770,0
33,-1,648565,220477,1263672,66278,8258,631834,0
33,-1,639937,219072,1204112,66140,8186,602245,0
33,-1,650129,222442,1427607,67467,8223,713995,0
33,-1,648108,220377,1256742,66948,8888,628235,0
34,-1,645252,221128,1476016,66896,8870,738070,0
34,-1,635612,219137,1182555,65842,7215,591296,0
34,-1,664743,229391,1315686,68977,7555,657717,2
34,-1,639121,219444,1227494,65959,7691,613801,0
34,-1,643399,218545,1325834,65416,7878,662923,0
34,-1,641287,219732,1165346,66602,7713,582573,0
34,-1,644333,220481,1331182,66549,8302,665581,0
34,-1,644571,218900,1227921,66263,8671,614008,0
35,-1,638780,218461,1342575,65738,8062,671343,0
35,-1,636587,219687,1277417,66116,7432,638755,0
35,-1,636581,219170,1211558,65921,6413,605475,2
35,-1,636811,219015,1364774,65793,8422,681757,0
35,-1,648879,220991,1235182,66526,8060,617297,0
35,-1,638335,218876,1214362,66127,7947,606984,0
35,-1,642512,220192,1308314,66509,8541,654184,0
35,-1,641062,217713,1195907,65806,8675,598010,0
36,-1,642949,220445,1376875,66619,8306,688302,0
36,-1,639468,220755,1368547,66615,7526,684276,0
36,-1,639925,219567,1230378,66035,6919,615238,2
36,-1,640681,221047,1318490,66764,8072,659410,0
36,-1,640911,218412,1291440,65448,7439,645676,0
36,-1,637309,218507,1180136,65969,7305,590044,0
36,-1,645027,221156,1273906,66965,8342,636615,0
36,-1,688904,231753,1372209,72034,10041,685974,0
37,-1,638425,218839,1336356,65852,8129,668210,0
37,-1,640259,219249,1312694,65900,7617,656393,0
37,-1,637909,220139,1200215,66204,7298,600155,2
37,-1,656652,223540,1261535,69122,8268,630479,0
37,-1,641576,218572,1207568,65466,7238,603604,0
37,-1,638365,219229,1227000,66242,7366,613446,0
37,-1,642996,219574,1270489,66275,7787,635226,0
37,-1,643901,218923,1228451,66243,8405,614241,0
38,-1,644734,219174,1343118,65964,7889,671613,0
38,-1,643346,221136,1350803,66766,7532,675133,0
38,-1,641880,220443,1193291,66290,6702,596707,2
38,-1,644437,219019,1158337,65799,7631,579217,0
38,-1,643677,219761,1396954,65882,7996,698107,0
38,-1,642926,219121,1309372,66242,7583,654662,0
38,-1,643894,220011,1370328,66358,8274,684946,0
38,-1,647364,220321,1227609,66946,8281,613801,0
39,-1,641758,219021,1355759,65975,7524,677912,0
39,-1,659128,223998,1309509,69246,8117,654765,0
39,-1,641276,221543,1341346,66795,8584,670610,2
39,-1,645324,219746,1225537,66083,8586,612806,0
39,-1,642942,219350,1603193,65763,9090,801602,0
39,-1,641827,218395,1274921,65939,7651,637488,0
39,-1,647020,221976,1377020,67319,8659,687863,0
39,-1,642334,218963,1209770,66224,8176,604927,0
40,-1,643008,219819,1314532,66151,7936,657249,0
40,-1,638821,219931,1379910,66014,7401,690109,0
40,-1,638626,219227,1293215,65855,7771,646638,2
40,-1,645886,220259,1218282,66430,8435,609011,0
40,-1,643546,219624,1308576,65816,7737,654316,0
40,-1,645006,219843,1199583,66510,7574,599578,0
40,-1,663464,225099,1469471,69927,9657,734046,0
40,-1,641894,219190,1174389,66334,7654,587247,0
41,-1,641377,219128,1267965,65937,7966,633908,0
41,-1,643055,221167,1287612,66774,7695,644094,0
41,-1,640432,219657,1181024,65953,6869,590495,2
41,-1,645936,220079,1170651,66141,8335,585037,0
41,-1,646965,220860,1497806,66591,9556,748841,0
41,-1,641397,218546,1312057,66010,8072,656046,0
41,-1,642562,219893,1180588,66462,8153,589561,0
41,-1,643613,218663,1205087,66165,7923,602601,0
42,-1,646094,221252,1259164,66915,8507,629620,0
42,-1,644850,221626,1382588,66888,8325,691353,0
42,-1,674057,231363,1383495,69883,8128,691831,2
42,-1,641078,218678,1205980,65628,8247,603034,0
42,-1,661594,223376,1340313,68881,8738,669988,0
42,-1,661136,223136,1350811,69355,8831,675234,0
42,-1,642952,220546,1429734,66689,8456,713960,0
42,-1,648318,220962,1253093,67217,8020,626592,0
43,-1,644933,220879,1362941,66725,8605,681307,0
43,-1,635536,219253,1476635,65843,7427,737975,0
43,-1,643094,220003,1159660,66064,7447,579900,2
43,-1,643053,218735,1233719,65695,8482,616905,0
43,-1,643877,220401,1183859,66309,7027,591781,0
43,-1,642035,218997,1241419,66096,7308,620722,0
43,-1,644777,221100,1376774,66885,9147,688257,0
43,-1,664170,223537,1331192,69584,9215,665575,0
44,-1,641032,218822,1264893,65782,8150,632487,0
44,-1,666841,229039,1354925,68844,7859,677468,0
44,-1,646040,221624,1309690,66490,8908,655020,2
44,-1,647754,221199,1292895,66820,8387,646509,0
44,-1,640566,218983,1377472,65686,7523,688698,0
44,-1,642445,219879,1285948,66666,7725,643122,0
44,-1,649080,222140,1217410,67454,7510,608671,0
44,-1,638997,217847,1234658,65830,7762,617364,0
45,-1,645001,221348,1351083,67022,8207,675603,0
45,-1,638897,219309,1272542,65901,7196,635870,0
45,-1,639793,220482,1218329,66182,7719,609089,2
45,-1,638502,218274,1279941,65500,7231,640015,0
45,-1,640814,219279,1377447,65715,7693,688670,0
45,-1,640942,219036,1453806,66172,9359,726952,0
45,-1,663200,224402,1410106,69671,9071,705024,0
45,-1,641356,218681,1195575,66197,7506,597829,0
46,-1,659661,223576,1291695,69210,8488,645742,0
46,-1,638925,219682,1313840,66066,8065,656969,0
46,-1,642452,220805,1198753,66331,8140,599427,2
46,-1,642193,218997,1330999,65783,8536,665553,0
46,-1,645030,219717,1328116,65870,8227,664055,0
46,-1,642690,218930,1302221,66077,7295,651099,0
46,-1,641222,219615,1383380,66343,8299,691746,0
46,-1,646866,220400,1202791,66953,8365,601251,0
47,-1,636699,218663,1381222,65825,8022,690393,0
47,-1,641198,220759,1377183,66559,7930,689361,0
47,-1,639085,220487,1351621,66218,8382,675875,2
47,-1,642337,219334,1205523,65951,7957,602859,0
47,-1,644797,219367,1296820,65788,8334,648447,0
47,-1,644974,220492,1202584,66853,7087,601252,0
47,-1,647725,221564,1394813,67208,8039,697441,0
47,-1,641122,218654,1234858,66208,8199,617476,0
48,-1,641906,219413,1355623,66024,8746,677843,0
48,-1,637811,219716,1256063,66067,7248,628009,0
48,-1,639744,219810,1219594,66083,8031,609896,2
48,-1,639984,218553,1310733,65655,8102,655481,0
48,-1,644007,219088,1205391,65671,7608,602683,0
48,-1,661118,223399,1365944,69399,8605,682668,0
48,-1,642179,219999,1407837,66511,7925,703907,0
48,-1,641762,219076,1164338,66282,8208,582215,0
49,-1,644603,220479,1430478,66607,8994,715293,0
49,-1,636089,219119,1279590,65837,7823,639625,0
49,-1,642931,219992,1197384,66088,7384,598586,2
49,-1,644776,220799,1308409,66615,8489,654288,0
49,-1,644710,219766,1356500,65937,8696,678342,0
49,-1,640723,218957,1259964,66147,6536,629972,0
49,-1,641590,219875,1370445,66417,9493,684986,0
49,-1,642161,219069,1251813,66334,8169,626186,0
50,-1,638602,219036,1256981,65956,7629,628908,0
50,-1,657244,223554,1301713,69070,8329,650613,0
50,-1,643754,221569,1270069,66865,7534,635101,2
50,-1,662975,224444,1246482,69386,8474,623321,0
50,-1,644193,219118,1347986,65718,8188,673849,0
50,-1,640927,218792,1185414,65997,7349,592695,0
50,-1,644280,220725,1259103,66751,7551,629203,0
50,-1,667567,223167,1265774,69489,9384,632777,0
51,-1,643247,221235,1409082,66843,8344,705344,0
51,-1,636300,219560,1301737,66040,8268,650904,0
51,-1,639841,219356,1361556,65972,8018,680481,2
51,-1,642184,219333,1308261,65952,7775,654206,0
51,-1,663131,224256,1256851,69199,8343,628291,0
51,-1,638631,218409,1261028,65909,8281,630495,0
51,-1,639622,219380,1280117,66251,8116,639902,0
51,-1,642929,218353,1256459,66049,7823,628400,0
52,-1,639065,218497,1329774,65704,8380,665018,0
52,-1,637499,219221,1279575,65902,7803,639805,0
52,-1,639364,218695,1172645,65682,7624,586368,0
52,-1,642186,219619,1167997,66042,7843,583487,2
52,-1,642636,218746,1244361,65550,7932,622118,0
52,-1,644567,221129,1238141,67157,8453,618383,0
52,-1,645484,221682,1217901,67227,7429,608228,0
52,-1,644635,218804,1215384,66252,8152,607759,0
53,-1,638684,218758,1189053,65821,7426,594578,0
53,-1,638415,219955,1318901,66163,7697,658573,0
53,-1,644763,220588,1379187,66573,8404,689654,0
53,-1,640948,220484,1308383,66222,8251,654154,2
53,-1,640969,218885,1234633,65613,7418,617355,0
53,-1,639897,219398,1268656,66329,8384,634340,0
53,-1,640610,220078,1282270,66552,8806,640871,0
53,-1,645885,219620,1247763,66670,8366,624165,0
54,-1,645196,221613,1343046,67048,8096,671508,0
54,-1,636594,219705,1322674,66015,7741,661312,0
54,-1,639375,219256,1264260,65865,7733,632145,0
54,-1,642323,220070,1216796,66138,8318,608329,2
54,-1,642346,219137,1324855,65669,7758,662349,0
54,-1,643923,220409,1281945,66827,7468,640934,0
54,-1,640867,220391,1190432,66580,8044,595036,0
54,-1,644994,219604,1245892,66450,8253,623009,0
55,-1,642312,220880,1311339,66733,7963,655786,0
55,-1,639822,221140,1368708,66815,8321,683715,0
55,-1,647284,221233,1336888,66743,8404,668470,0
55,-1,640079,220164,1255475,66087,7725,627742,2
55,-1,645199,220679,1228510,66492,7623,614221,0
55,-1,640913,219703,1207520,66380,6989,603774,0
55,-1,641462,219935,1268411,66479,8065,634455,0
55,-1,643234,218477,1165482,66066,7854,582786,0
56,-1,637532,219133,1189564,65937,7762,594811,0
56,-1,657731,224000,1329076,69259,8416,663971,0
56,-1,640939,219203,1303315,65795,7880,651798,0
56,-1,645317,221521,1330248,66863,8035,665113,2
56,-1,661933,223815,1523695,69035,8591,761968,0
56,-1,637359,218717,1292338,66051,7404,646130,0
56,-1,641389,220884,1264469,66791,8106,632111,0
56,-1,643479,218783,1191942,66207,7881,596014,0
57,-1,649824,221638,1349418,66980,8589,674779,0
57,-1,635576,219320,1359239,65934,8099,679273,0
57,-1,645138,220603,1355971,66452,7870,678006,0
57,-1,642225,219614,1339391,65925,8243,669674,2
57,-1,638990,218749,1289144,65552,7814,644632,0
57,-1,637286,219147,1194837,66142,7184,598007,0
57,-1,639480,220484,1368074,66592,8309,683473,0
57,-1,642959,218551,1166878,66072,7973,583486,0
58,-1,641737,218889,1276333,65863,7716,638233,0
58,-1,636708,219932,1400002,66090,8116,700107,0
58,-1,639464,219012,1389036,65714,7765,694564,0
58,-1,639027,219541,1187116,65758,8762,593551,2
58,-1,644844,219645,1281848,65905,8150,640620,0
58,-1,639135,219540,1306922,66347,8211,653479,0
58,-1,645920,219924,1398499,66474,8329,699004,0
58,-1,648117,220960,1192356,67195,7700,596273,0
59,-1,643592,219942,1245288,66212,7339,622696,0
59,-1,639538,221432,1354731,66819,8020,676920,0
59,-1,640506,219280,1371784,65853,7655,685831,0
59,-1,641820,219443,1287881,65726,9009,643957,2
59,-1,641626,218786,1254062,65563,7892,627045,0
59,-1,645956,221167,1222090,67170,7503,611002,0
59,-1,650446,221213,1312223,67074,8807,655019,0
59,-1,665058,223905,1267496,69672,9085,633678,0
60,-1,641920,219178,1189886,66009,6648,594973,0
60,-1,644470,218976,1339245,65802,8332,669627,0
60,-1,638679,218971,1292232,65682,7643,646155,0
60,-1,642696,219880,1227430,65845,7430,613654,2
60,-1,642312,218979,1269224,65664,7857,634401,0
60,-1,660910,223418,1358601,69441,8678,679124,0
60,-1,648164,220585,1367659,66702,9131,683886,0
60,-1,642670,219024,1221434,66244,8068,610675,0
61,-1,640776,218688,1274532,65749,6937,637317,0
61,-1,645936,220260,1260848,66247,8205,630158,0
61,-1,664958,224355,1300014,69257,8851,650049,0
61,-1,650979,221861,1290505,66920,8487,645266,2
61,-1,646848,221474,1279123,66748,7906,639338,0
61,-1,641786,219828,1328023,66445,8281,663980,0
61,-1,647212,220521,1411568,66667,9243,705126,0
61,-1,643048,218557,1189314,66077,7577,594690,0
62,-1,641844,219466,1296350,66109,7176,648171,0
62,-1,643256,219490,1311973,65940,8353,656048,0
62,-1,639229,218961,1182916,65687,7044,591513,0
62,-1,637189,219685,1262580,65837,8338,631324,2
62,-1,640852,218805,1446974,65576,8050,723661,0
62,-1,643373,220428,1225625,66830,7485,612861,0
62,-1,645212,219895,1446357,66430,8624,723222,0
62,-1,642117,218904,1236828,66240,7787,618505,0
63,-1,641796,219458,1205707,66036,6811,602905,0
63,-1,642093,219610,1379665,66028,8606,690110,0
63,-1,641242,219477,1307605,65892,7979,653495,0
63,-1,638744,219689,1223704,65848,8065,611606,2
63,-1,645980,221215,1207064,66579,7585,603502,0
63,-1,637747,219313,1318134,66235,7897,659067,0
63,-1,651716,222431,1468126,67539,9312,733437,0
63,-1,647708,220829,1215494,67145,7657,607817,0
64,-1,644242,220832,1358476,66789,7680,679257,0
64,-1,644437,220007,1291564,66121,8377,645814,0
64,-1,639590,219566,1226332,65883,7461,613215,0
64,-1,637839,218976,1292265,65647,8412,646185,2
64,-1,640114,219252,1321063,65776,7867,660464,0
64,-1,637274,218395,1257530,65948,7537,628777,0
64,-1,668771,225117,1407902,69946,10114,703865,0
64,-1,641209,218663,1216853,65998,8133,608459,0
65,-1,645300,220540,1305662,66593,8393,652899,0
65,-1,641366,219336,1266153,65992,7707,632100,0
65,-1,639840,219279,1308427,65879,7490,654269,0
65,-1,638632,219221,1277758,65776,8174,638769,2
65,-1,642088,218774,1303429,65600,7890,651755,0
65,-1,637103,218356,1243595,65962,7278,621795,0
65,-1,643553,219582,1399653,66321,8422,699866,0
65,-1,641081,219060,1176108,66175,7554,588035,0
66,-1,640201,219134,1251957,65938,7636,625981,0
66,-1,642806,220173,1254039,66261,8061,626875,0
66,-1,644445,221522,1254174,66878,8778,627012,0
66,-1,643954,221915,1304724,66878,8524,652365,2
66,-1,663170,223819,1505321,69035,9613,752609,0
66,-1,640075,219843,1332467,66664,7662,666278,0
66,-1,647637,221536,1255684,67180,7700,627863,0
66,-1,643552,219666,1244579,66375,8193,622354,0
67,-1,641791,219382,1368557,66019,8065,684245,0
67,-1,641158,219401,1171239,65976,7701,585662,0
67,-1,661977,224635,1243311,69364,8731,621682,0
67,-1,641187,219456,1351951,65826,8734,676057,2
67,-1,637271,218510,1452151,65462,9180,725880,0
67,-1,637582,218983,1538475,66216,9350,769208,0
67,-1,643396,220149,1323156,66566,7937,661607,0
67,-1,644022,218678,1195113,66050,6795,598020,0
68,-1,641412,219432,1302378,65980,7120,651227,0
68,-1,642077,219288,1265071,65917,7480,632290,0
68,-1,638041,219245,1159884,65765,7716,579443,0
68,-1,636049,218837,1259449,65655,7491,629768,2
68,-1,644503,220750,1433061,66439,8289,716538,0
68,-1,642050,220950,1172704,67166,7119,586365,0
68,-1,641842,219633,1217167,66303,7765,608675,0
68,-1,642141,218817,1184210,66057,7111,592303,0
69,-1,661521,223923,1372235,69285,8241,686031,0
69,-1,640929,219491,1232006,65982,7424,616059,0
69,-1,645800,220440,1338268,66384,8571,668556,0
69,-1,644861,221690,1217924,66875,7432,608954,2
69,-1,639138,219268,1180370,65772,7654,590123,0
69,-1,657770,223696,1303886,69534,8390,651721,0
69,-1,642896,220284,1266741,66594,8487,633409,0
69,-1,648082,220866,1316406,67029,8255,658265,0
70,-1,641215,219171,1333181,65918,8149,666664,0
70,-1,642309,219682,1183959,66076,6783,592032,0
70,-1,641553,220054,1321200,66262,8141,660419,0
70,-1,639156,219427,1296163,65787,7846,648064,2
70,-1,646879,221627,1257373,66779,7738,628194,0
70,-1,640489,219233,1289445,66295,8225,644708,0
70,-1,644449,219643,1513404,66285,8579,756325,0
70,-1,665494,224506,1243774,69716,7897,621920,0
71,-1,640929,219399,1259306,65929,8188,629711,0
71,-1,639562,218913,1274153,65786,7232,636959,0
71,-1,643606,219760,1355295,65973,8648,677696,0
71,-1,643394,221062,1206160,66644,7504,602994,2
71,-1,664288,222926,1358438,68681,9993,679202,0
71,-1,638662,218747,1350731,66113,8477,675484,0
71,-1,645380,220552,1437916,66685,8452,718863,0
71,-1,642346,218458,1205565,65910,7493,602837,0
72,-1,637458,218506,1296954,65537,7698,648458,0
72,-1,641424,219921,1256884,66160,7465,628415,0
72,-1,640843,219443,1344674,65857,8421,672381,0
72,-1,643319,219719,1495218,65931,9153,747671,2
72,-1,643624,218941,1334249,65658,9267,667106,0
72,-1,636540,218204,1382707,65859,8604,691283,0
72,-1,642681,219703,1233592,66372,8325,616800,0
72,-1,639822,218952,1186736,66046,7277,593427,0
73,-1,641566,219763,1273062,66046,7591,636567,0
73,-1,642685,220890,1204182,66686,7330,602148,0
73,-1,662562,224545,1327452,69352,9074,663761,0
73,-1,640340,219631,1197860,65936,7706,598745,2
73,-1,647553,220828,1211703,66436,8510,605802,0
73,-1,639621,219346,1305378,66229,8408,652612,0
73,-1,646782,221812,1224096,67373,8016,612117,0
73,-1,640602,218402,1232718,65895,7934,616394,0
74,-1,642118,220347,1403273,66417,8436,701496,0
74,-1,660536,224125,1295396,69327,7595,647659,0
74,-1,640844,219658,1399200,65999,8112,699680,0
74,-1,641573,219669,1312385,65902,7834,656084,2
74,-1,643583,219229,1550428,65787,10434,775287,0
74,-1,641465,220361,1228692,66884,8047,614310,0
74,-1,645567,220106,1355930,66499,8402,677980,0
74,-1,644840,220006,1220598,66706,7948,610327,0
75,-1,639850,218996,1341574,65750,7910,671147,0
75,-1,639427,219075,1289007,65873,7943,644692,0
75,-1,642956,220883,1294923,66581,7996,647443,0
75,-1,640489,218505,1401341,65489,9632,700706,0
75,-1,646737,221718,1243588,66850,7911,621769,2
75,-1,636475,218763,1267146,66023,8031,633508,0
75,-1,643267,219475,1282946,66290,9160,641481,0
75,-1,664492,224052,1330123,69559,8872,664186,0
76,-1,641778,219649,1292363,66016,7761,646274,0
76,-1,641289,219082,1223091,65890,7500,611584,0
76,-1,638707,219122,1215837,65828,7514,607660,0
76,-1,643142,219096,1307944,65648,8707,653965,0
76,-1,639272,218927,1290373,65629,7429,645307,2
76,-1,640277,220726,1250080,66926,7939,624977,0
76,-1,646890,221550,1375038,67281,8662,687603,0
76,-1,642155,219214,1192914,66201,7503,596501,0
77,-1,639232,218841,1172882,65646,7001,586488,0
77,-1,644654,220660,1330711,66586,8054,665407,0
77,-1,639073,219587,1219201,66028,7791,609440,0
77,-1,641992,219001,1343757,65634,8425,671367,0
77,-1,631768,219232,1262368,65282,7694,631023,2
77,-1,640089,219205,1384488,66218,9180,692294,0
77,-1,640496,219902,1305808,66481,8893,652950,0
77,-1,639885,218511,1218094,65908,7560,609095,0
78,-1,643693,220907,1232765,66681,7968,616467,0
78,-1,638784,218682,1298788,65642,7935,649444,0
78,-1,641971,219859,1314544,65925,8421,657319,0
78,-1,641705,219227,1300212,65760,7514,650198,0
78,-1,632576,218946,1214542,65207,7563,607270,2
78,-1,638636,219075,1261368,66125,8890,630765,0
78,-1,647786,221364,1308357,67160,8315,654387,0
78,-1,641613,219374,1148630,66237,7518,574354,0
79,-1,637393,218852,1340546,65654,7249,670363,0
79,-1,661010,223988,1250767,69267,8367,624999,0
79,-1,642927,220140,1323069,66133,8875,661457,0
79,-1,639523,218642,1424107,65530,9384,712082,0
79,-1,635007,219210,1330901,65283,7943,665337,2
79,-1,641538,220910,1492781,67041,10393,746011,0
79,-1,646232,220006,1335425,66460,7728,667763,0
79,-1,641911,219872,1250770,66529,8801,625123,0
80,-1,649244,222015,1383444,67009,8764,691541,0
80,-1,636883,218077,1347639,65587,8059,673529,0
80,-1,641378,219417,1370758,65857,7964,685430,0
80,-1,642079,219837,1370845,65959,7934,685428,0
80,-1,638978,220852,1241079,66091,8197,620518,2
80,-1,637238,218930,1320292,66140,8644,659987,0
80,-1,644459,219722,1325088,66389,8472,662592,0
80,-1,646220,221556,1281864,67229,9107,640832,0
81,-1,664759,224196,1274016,69254,9354,637054,0
81,-1,640603,219905,1320806,66008,8009,660412,0
81,-1,641755,219982,1353158,66040,8976,676549,0
81,-1,641809,218536,1312573,65422,8575,656269,0
81,-1,636372,219777,1382657,65468,8212,691255,2
81,-1,638649,219950,1360605,66507,8957,680336,0
81,-1,666291,225079,1403481,69946,9008,701726,0
81,-1,661509,224215,1327004,69500,9981,663565,0
82,-1,640848,218938,1332962,65695,8438,666529,0
82,-1,643765,220691,1453782,66592,9151,726931,0
82,-1,642251,220042,1199446,66054,8382,599688,0
82,-1,643121,219227,1233768,65757,7756,616917,0
82,-1,638317,219229,1185273,65227,7893,592293,2
82,-1,633559,218366,1317681,65979,8212,658791,0
82,-1,646245,220586,1315404,66672,7948,657746,0
82,-1,647221,219261,1390308,66083,9259,695202,0
83,-1,640893,219082,1341597,65770,7745,670855,0
83,-1,641144,219530,1321352,66017,7737,660715,0
83,-1,639974,219097,1177072,65779,7968,588437,0
83,-1,642802,219118,1275425,65665,8659,637735,0
83,-1,633365,218629,1367257,65177,7996,683620,2
83,-1,648504,220621,1232498,66991,8026,616142,0
83,-1,647959,221415,1211070,67154,7665,605558,0
83,-1,645066,219222,1323662,66075,8113,661756,0
84,-1,661296,224215,1266372,69243,8373,633128,0
84,-1,641094,219630,1347705,66008,7630,673926,0
84,-1,641971,220572,1503065,66164,8689,751125,0
84,-1,646821,221124,1282890,66631,8441,641391,0
84,-1,640140,219651,1294729,66416,8594,647352,2
84,-1,664039,223364,1495958,69391,9442,747895,0
84,-1,642233,219835,1361433,66400,7732,680723,0
84,-1,645813,219545,1355038,66155,8698,677582,0
85,-1,641430,218889,1319682,65701,8016,659819,0
85,-1,642149,220836,1362878,66649,8370,681242,0
85,-1,641638,220070,1391505,66010,8190,695603,0
85,-1,641868,219283,1354608,65772,7787,677348,0
85,-1,637881,219412,1326045,66359,7622,662647,2
85,-1,642178,218604,1193853,66029,7741,596936,0
85,-1,647532,220967,1399935,66833,8382,700017,0
85,-1,646259,219461,1243267,66134,7609,621685,0
86,-1,643466,220275,1243575,66195,7216,621558,0
86,-1,643563,221109,1324437,66717,8178,662191,0
86,-1,645987,222261,1316487,67100,8781,658224,0
86,-1,645553,221067,1247010,66516,7992,623522,0
86,-1,635486,219278,1299677,66311,7112,649779,2
86,-1,647843,220295,1226636,66796,8408,613254,0
86,-1,664902,224573,1431540,69783,9412,715764,0
86,-1,650456,221381,1359786,67092,9434,679516,0
87,-1,639847,219769,1337148,66019,7712,668516,0
87,-1,638425,219628,1206809,65996,7790,603513,0
87,-1,660474,224403,1283975,69276,8994,642000,0
87,-1,640650,218900,1283814,65652,8012,641964,0
87,-1,638394,219550,1202974,66425,7713,601408,2
87,-1,643133,218942,1281523,66131,7593,639956,0
87,-1,641794,219749,1321025,66425,8485,660548,0
87,-1,667738,224707,1309484,69707,9990,654803,0
88,-1,639595,219247,1298040,65784,7883,648704,0
88,-1,638370,220034,1287939,66122,8058,644033,0
88,-1,643033,221103,1341133,66389,8869,670622,0
88,-1,639383,218718,1295464,65585,8075,647728,0
88,-1,637855,218971,1331141,66149,7836,665556,2
88,-1,642672,219219,1509912,66220,8974,754955,0
88,-1,641996,220029,1129200,66480,7111,564603,0
88,-1,645001,219466,1204028,66212,7765,602170,0
89,-1,659633,223467,1301323,69009,8455,650663,0
89,-1,642462,219534,1285375,66025,8143,642544,0
89,-1,639535,220111,1243210,66020,8550,621569,0
89,-1,641212,218416,1312763,65450,8131,656297,0
89,-1,639695,219629,1317328,66418,8085,658636,2
89,-1,641318,219053,1300726,66249,7943,650408,0
89,-1,643586,220486,1229543,66671,8718,614830,0
89,-1,649407,220453,1362373,66696,8641,681189,0
90,-1,637375,218786,1348247,65598,7245,674230,0
90,-1,642829,219490,1257063,65976,7836,628610,0
90,-1,648544,220601,1329559,66391,8528,664504,0
90,-1,640347,219120,1190325,65669,7480,595091,0
90,-1,644458,219753,1208563,66422,7449,604264,0
90,-1,644019,219945,1329442,66506,8219,664684,2
90,-1,638349,218918,1233359,66079,8061,616721,0
90,-1,643035,218797,1344799,65927,8304,671644,0
91,-1,640765,219904,1314967,65927,7807,657466,0
91,-1,645894,221095,1366897,66801,8664,682239,0
91,-1,645008,219770,1261236,65931,8450,630615,0
91,-1,641768,219958,1399675,66018,9489,699712,0
91,-1,640171,219149,1302893,66236,7546,651533,0
91,-1,636394,218880,1244735,66083,8742,622325,2
91,-1,667165,224600,1326050,69814,9125,663082,0
91,-1,643579,219175,1250392,66072,8577,625244,0
92,-1,637961,219228,1181645,65808,6943,590917,0
92,-1,642056,219934,1267702,66131,7394,633818,0
92,-1,643317,219554,1368636,65842,8501,684484,0
92,-1,643602,220346,1206954,66330,7996,603357,0
92,-1,643702,219131,1308068,66250,8559,654048,0
92,-1,636771,218515,1320955,66017,7799,660437,2
92,-1,644336,220006,1329911,66532,7628,664876,0
92,-1,649464,221827,1325330,67246,9142,662210,0
93,-1,644624,221694,1290821,66730,7975,645438,0
93,-1,640715,219521,1139192,66064,7606,569732,0
93,-1,646229,220732,1343094,66242,8955,671594,0
93,-1,639504,218912,1228325,65613,7259,614008,0
93,-1,646727,220306,1311507,66807,8144,655739,0
93,-1,640915,220818,1230050,67036,7839,615061,2
93,-1,643341,219890,1331889,66446,7643,665984,0
93,-1,644050,219355,1273606,66212,8161,636798,0
94,-1,645490,220347,1202270,66104,7811,601183,0
94,-1,640290,219702,1241902,66019,8141,621029,0
94,-1,643657,220114,1307065,66040,8796,653557,0
94,-1,639790,219017,1325063,65634,7826,662433,0
94,-1,642716,219455,1247009,66344,7997,623448,0
94,-1,640629,219198,1311760,66220,8289,655803,2
94,-1,640443,219425,1301940,66291,7788,651023,0
94,-1,644459,219889,1267488,66330,8818,633789,0
95,-1,641817,219707,1344125,65921,8140,672109,0
95,-1,641771,219842,1223494,66130,8337,611749,0
95,-1,647240,221616,1323952,66716,8972,662078,0
95,-1,639636,219327,1336132,65740,8258,668106,0
95,-1,641090,218812,1304883,66087,8525,652453,0
95,-1,640373,219797,1191523,66442,7187,595775,2
95,-1,643612,219989,1205443,66523,7350,602736,0
95,-1,648315,221407,1398693,67000,9042,699482,0
96,-1,640713,220082,1133240,66052,7135,566819,0
96,-1,638672,219063,1224744,65812,8365,612435,0
96,-1,643073,220398,1256790,66173,8105,628476,0
96,-1,659323,223544,1402889,68956,9340,701495,0
96,-1,662890,223352,1408914,69425,8928,704376,0
96,-1,638325,219098,1320398,66262,8126,660148,2
96,-1,642711,219890,1327592,66547,7356,663703,0
96,-1,641421,218910,1317194,65968,8098,658583,0
97,-1,665297,228666,1255227,68527,7693,627581,0
97,-1,661670,223427,1259473,69096,8622,629739,0
97,-1,643056,219883,1347328,65997,9381,673719,0
97,-1,642525,219279,1485540,65682,9576,742678,0
97,-1,641546,219147,1300719,66244,7939,650349,0
97,-1,643612,219255,1328297,66132,7512,664201,2
97,-1,643469,220131,1347168,66569,7765,673634,0
97,-1,647982,219880,1392457,66359,8790,696247,0
98,-1,640503,219230,1157783,65733,7161,578739,0
98,-1,643070,220252,1268101,66263,7996,633902,0
98,-1,641026,219769,1332688,65999,8462,666358,0
98,-1,690068,233332,1436390,71864,9256,718050,0
98,-1,643503,220409,1261467,66797,8452,630689,0
98,-1,639414,219552,1300122,66259,7932,650131,2
98,-1,641734,220279,1395474,66609,7696,697774,0
98,-1,644114,218790,1201275,65961,7547,600294,0
99,-1,648687,222706,1233435,67150,7881,616342,0
99,-1,638565,218860,1295740,65802,8244,647700,0
99,-1,643225,220736,1187942,66391,7556,594080,0
99,-1,638145,218396,1246808,65439,8302,623379,0
99,-1,643155,219554,1410440,66365,9577,705190,0
99,-1,642085,219536,1216857,66266,8098,608496,2
99,-1,642830,219459,1387583,66408,8020,693851,0
99,-1,665914,223719,1333765,69396,9394,667194,0
100,-1,639298,219550,1328674,65800,7817,664273,0
100,-1,643309,220966,1378697,66674,8190,689269,0
100,-1,640576,219847,1317624,66012,8657,658805,0
100,-1,645407,220378,1262374,66314,8049,631292,0
100,-1,660825,223501,1394624,69452,9172,697241,0
100,-1,640014,219549,1328437,66324,8884,663954,2
100,-1,642817,220480,1332985,66760,8261,666550,0
100,-1,644016,219393,1252812,66176,7443,625840,0
101,-1,636774,219002,1311629,65701,8399,656192,0
101,-1,637291,219083,1334097,65787,7718,667101,0
101,-1,647464,222155,1334997,67090,9364,667373,0
101,-1,640717,219016,1393919,65749,9305,696851,0
101,-1,641118,219315,1222104,66239,7557,611066,0
101,-1,638383,219157,1340017,66139,7875,670065,2
101,-1,663102,224560,1390400,69913,8803,695134,0
101,-1,642242,218617,1287823,65893,8444,643889,0
102,-1,647363,220949,1355804,66517,8305,677851,0
102,-1,640583,219812,1318240,66073,7854,659069,0
102,-1,642251,219791,1385910,65939,9435,693036,0
102,-1,638865,218693,1300001,65528,8235,649943,0
102,-1,639543,218790,1297205,66141,8418,648607,0
102,-1,640787,219302,1213874,66187,8015,607149,2
102,-1,638997,219559,1317344,66482,8295,658552,0
102,-1,645493,220174,1368427,66442,8565,684271,0
103,-1,642496,219268,1255899,65834,7903,627947,0
103,-1,638983,219486,1293631,65996,7401,646575,0
103,-1,646915,221811,1238308,66847,8379,618966,0
103,-1,641273,219506,1313136,65838,8324,656552,0
103,-1,638451,218807,1254547,66033,7340,627488,0
103,-1,644064,219392,1352143,66176,8407,676118,2
103,-1,641513,219751,1398072,66515,7836,699205,0
103,-1,664750,223719,1373510,69334,8613,686756,0
104,-1,638361,218684,1253450,65657,7708,626742,0
104,-1,638206,219129,1221964,65840,7226,611040,0
104,-1,641317,220057,1246057,66036,8050,622769,0
104,-1,637604,218680,1232492,65476,7419,616248,0
104,-1,674813,229758,1544223,69695,10796,771974,0
104,-1,640644,220216,1336189,66638,8215,668067,2
104,-1,647578,220120,1260027,66587,7219,630058,0
104,-1,642665,219246,1328532,66072,8806,664275,0
105,-1,642820,219295,1199940,65882,7659,599978,0
105,-1,642441,221136,1339462,66801,8661,669612,0
105,-1,645651,221615,1279326,66844,8531,639671,0
105,-1,640590,219491,1352066,65840,8173,675951,0
105,-1,643365,220256,1267169,66752,7649,633607,0
105,-1,645550,219486,1341788,66431,8243,671070,0
105,-1,642409,220285,1359463,66679,8020,679743,2
105,-1,643998,219645,1285984,66272,8222,642942,0
106,-1,640003,218692,1224194,65710,7485,612090,0
106,-1,638348,219998,1360651,66066,7510,680319,0
106,-1,640615,220279,1346238,66152,8111,672359,0
106,-1,639696,219768,1267159,65941,7725,633594,0
106,-1,640827,218677,1333986,66023,7642,667027,0
106,-1,648388,221527,1264534,67330,8011,632326,0
106,-1,646120,222385,1228396,67569,8250,613668,2
106,-1,641937,219591,1245015,66209,8183,622490,0
107,-1,638850,218682,1328746,65701,8128,664318,0
107,-1,641180,219233,1198661,65885,7912,599386,0
107,-1,645797,221477,1410526,66726,8196,705739,0
107,-1,640664,219100,1359894,65653,8489,679830,0
107,-1,639602,218540,1351322,66009,8412,675718,0
107,-1,644108,219816,1341920,66583,8649,671016,0
107,-1,642493,219911,1298712,66496,8065,649394,2
107,-1,647629,221691,1240371,67255,8302,619895,0
108,-1,661176,223385,1286969,69034,8262,643488,0
108,-1,639800,219099,1322484,65849,7444,661155,0
108,-1,643711,220935,1254583,66353,7938,627393,0
108,-1,641933,219125,1525259,65645,9381,762452,0
108,-1,645041,221127,1224854,67100,7908,612403,0
108,-1,643060,219928,1314633,66562,8798,657343,0
108,-1,642661,220108,1348060,66546,8504,674083,2
108,-1,642696,220351,1305339,66482,8149,652601,0
109,-1,639630,218886,1244075,65737,7918,622084,0
109,-1,637971,219048,1402312,65879,7245,700933,0
109,-1,640076,220103,1400145,66037,8585,700046,0
109,-1,646103,221265,1538390,66733,10511,768789,0
109,-1,659604,223178,1435284,69351,9148,717685,0
109,-1,643648,219401,1241834,66395,8138,620967,0
109,-1,644150,221957,1291302,67416,9206,644408,2
109,-1,643651,218835,1260993,65973,7641,630509,0
110,-1,644101,219181,1201967,65772,7400,600896,0
110,-1,638034,219587,1310968,65908,6598,655266,0
110,-1,645751,221730,1357683,66899,9216,678612,0
110,-1,662380,224011,1320211,69106,8428,660022,0
110,-1,641788,218858,1264993,66104,7403,632390,0
110,-1,645048,220202,1269011,66622,8744,634400,0
110,-1,638846,219885,1219801,66379,7998,609956,2
110,-1,642511,219097,1312063,66097,7157,655726,0
111,-1,642211,219567,1164517,65870,7059,582079,0
111,-1,646348,222020,1298447,67130,8461,649191,0
111,-1,640894,220611,1435638,66266,9600,717807,0
111,-1,643614,219966,1276508,65996,8972,638192,0
111,-1,645947,221556,1235665,67362,7194,617635,0
111,-1,643758,220106,1279591,66607,8837,639705,0
111,-1,642510,220296,1190539,66508,7413,595088,2
111,-1,641546,218822,1266925,65960,7145,633484,0
112,-1,662348,223902,1392372,69111,8440,696030,0
112,-1,660958,224153,1346663,69319,8709,673128,0
112,-1,641695,219666,1264143,65805,7377,631979,0
112,-1,638600,219093,1282117,65759,7811,641184,0
112,-1,660162,223670,1397038,69535,8474,698412,0
112,-1,643755,219970,1321975,66576,8355,661002,0
112,-1,648444,221966,1412485,67404,8120,705614,2
112,-1,643089,219171,1405051,66082,7607,702549,0
113,-1,640646,219494,1291308,65976,7703,645656,0
113,-1,637639,219147,1311397,65859,7977,655648,0
113,-1,642317,220659,1326833,66168,8393,663382,0
113,-1,640379,219413,1220663,65771,7538,609904,0
113,-1,638874,218958,1253853,66191,8123,626971,0
113,-1,645421,221361,1344082,67357,9028,671567,0
113,-1,642043,219888,1294110,66430,8230,647099,2
113,-1,642044,219416,1302111,66191,7505,651057,0
114,-1,639385,219375,1409359,65937,8058,704626,0
114,-1,640100,220561,1404184,66537,8266,701881,0
114,-1,647823,222375,1424940,66951,8504,712139,0
114,-1,638786,219266,1246032,65773,8145,622756,0
114,-1,636979,218402,1298818,65894,7837,649325,0
114,-1,645991,220701,1238685,67032,8325,618666,0
114,-1,642339,221183,1407981,66855,7765,703811,2
114,-1,645330,220949,1281965,66887,7897,640976,0
115,-1,664881,224597,1330661,69538,8952,665180,0
115,-1,637929,219344,1246872,65921,7750,623791,0
115,-1,664948,225761,1319701,69613,8548,659972,0
115,-1,642687,221114,1288251,66602,7995,644117,0
115,-1,643454,220118,1267711,66744,8566,633900,0
115,-1,643401,220051,1242531,66490,7842,621142,0
115,-1,643185,220110,1245547,66563,7351,622746,2
115,-1,662661,223793,1315830,69418,8566,657942,0
116,-1,642455,220242,1444151,66249,9062,721695,0
116,-1,640402,219613,1368514,65967,8671,684195,0
116,-1,644891,221716,1286624,66735,7750,643342,0
116,-1,645721,219396,1435875,65806,8767,718058,0
116,-1,644620,220494,1262994,66636,8391,631496,0
116,-1,643463,220278,1353274,66603,8767,676721,0
116,-1,646880,220328,1394406,66571,7504,697179,2
116,-1,644733,220504,1272179,66557,7418,636111,0
117,-1,643249,221208,1339785,66818,7691,669927,0
117,-1,639798,220043,1249476,66106,7169,623742,0
117,-1,669979,230364,1249598,69091,7390,624616,0
117,-1,642099,218541,1352844,65499,8543,675948,0
117,-1,660713,223640,1289282,69531,9217,644657,0
117,-1,640042,219400,1309092,66300,8005,654491,0
117,-1,643725,220411,1220257,66604,7048,609875,2
117,-1,642970,219864,1313587,66322,7886,656718,0
118,-1,660832,224335,1322789,69408,8567,661402,0
118,-1,640087,220824,1325249,66619,8386,662457,0
118,-1,639753,219911,1282433,65863,8072,641113,0
118,-1,663127,223199,1357387,68862,9037,678696,0
118,-1,641369,219173,1198734,66267,7999,599145,0
118,-1,644589,220418,1277845,66644,8691,638748,0
118,-1,650480,221735,1342238,67270,8062,670468,2
118,-1,646354,221081,1448060,66731,8093,723942,0
119,-1,644334,219994,1302078,66156,7597,651097,0
119,-1,636703,219926,1297997,66166,8252,649061,0
119,-1,644271,221593,1222642,66549,8184,611290,0
119,-1,641840,219133,1318016,65718,9131,659059,0
119,-1,638368,218476,1125035,65987,7137,562551,0
119,-1,642270,220031,1257077,66437,8307,628560,0
119,-1,636807,217999,1158266,65769,7823,579138,2
119,-1,664561,224262,1381194,69541,8483,690270,0
120,-1,642569,219507,1454155,66040,9467,726649,0
120,-1,638954,218938,1234768,65714,7960,617381,0
120,-1,660918,225103,1293652,69444,9198,646757,0
120,-1,645808,220899,1220964,66501,8286,610557,0
120,-1,638179,219040,1557569,66169,9753,778761,0
120,-1,673195,231451,1316515,70239,8212,658279,0
120,-1,645230,220398,1246316,66707,8056,623064,0
120,-1,650695,222035,1292597,67346,7830,646659,2
121,-1,642996,219570,1204943,65867,7443,602401,0
121,-1,647692,221465,1352090,66893,9006,675742,0
121,-1,643071,220367,1315801,66006,8234,657845,0
121,-1,644372,219156,1301927,65741,8389,651151,0
121,-1,639953,218945,1224177,66180,7824,612115,0
121,-1,661184,223981,1420083,69537,9194,709536,0
121,-1,642905,219673,1379699,66220,7450,689853,0
121,-1,643413,219740,1129579,66255,7530,564507,2
122,-1,645587,221101,1332728,66746,7014,666426,0
122,-1,640774,219195,1286876,65910,8170,643332,0
122,-1,645943,221619,1391015,66672,9287,695478,0
122,-1,642625,218869,1242669,65602,8786,621276,0
122,-1,639601,219679,1275674,66424,7592,637871,0
122,-1,642483,220362,1345903,66566,7261,673013,0
122,-1,643014,220000,1347132,66394,8313,673581,0
122,-1,641502,218601,1159520,66215,7897,579780,2
123,-1,659158,223316,1273581,69016,7866,636766,0
123,-1,643208,220649,1308673,66546,7851,654318,0
123,-1,643754,221541,1378975,66391,9436,688360,0
123,-1,662028,223788,1277648,69037,8571,638788,0
123,-1,637537,218964,1306324,66190,6848,653184,0
123,-1,641892,220521,1408278,66632,7778,704200,0
123,-1,662696,224480,1255468,69595,9498,627723,0
123,-1,642312,218931,1282951,66305,8834,641294,2
124,-1,640001,219692,1199753,66135,7299,599923,0
124,-1,642356,219614,1287674,66073,7546,643840,0
124,-1,643131,220792,1254303,66209,8672,627027,0
124,-1,644386,220455,1264290,66282,8663,632117,0
124,-1,636894,218898,1434158,66106,8120,717045,0
124,-1,643768,221367,1261243,67106,7605,630689,0
124,-1,643279,219365,1145630,66188,7579,572813,0
124,-1,632308,218292,1262381,66165,7797,631243,2
125,-1,642521,219945,1323366,66415,8219,661750,0
125,-1,643968,221348,1353986,66880,7753,677457,0
125,-1,640992,220077,1467304,65936,9641,733599,0
125,-1,638868,218505,1328829,65447,8271,664317,0
125,-1,636305,218879,1280807,66020,8148,640412,0
125,-1,639170,219513,1248941,66257,7373,624422,0
125,-1,645253,220626,1203775,66789,7757,601669,0
125,-1,636467,218595,1320574,66150,8121,659865,2
126,-1,637998,218242,1216075,65635,7421,608082,0
126,-1,659220,224038,1309857,69262,8811,654843,0
126,-1,641918,221150,1368902,66324,9531,684207,0
126,-1,643213,219827,1305494,65951,8243,652743,0
126,-1,643439,219092,1251192,66204,7963,625525,0
126,-1,645740,220051,1355812,66419,7967,677953,0
126,-1,642492,220121,1212194,66451,7601,606043,0
126,-1,636120,219070,1275321,66369,7117,637722,2
127,-1,638909,218938,1293738,65860,8607,646921,0
127,-1,640961,219386,1429658,65950,8273,714838,0
127,-1,639343,220241,1544433,66009,9908,773544,0
127,-1,662852,223537,1265482,68901,8709,632739,0
127,-1,644239,219666,1302233,66403,7724,651281,0
127,-1,642526,220133,1390707,66521,7970,695478,0
127,-1,640341,219440,1247106,66083,7709,623558,0
127,-1,641647,221438,1208448,67387,7162,604287,2
128,-1,642049,220753,1291446,66732,7736,645795,0
128,-1,642940,220571,1368669,66558,8063,684241,0
128,-1,646040,221879,1386176,66780,9376,692895,0
128,-1,641902,218874,1257312,65667,7697,628655,0
128,-1,640557,218511,1271399,66017,7369,635720,0
128,-1,644167,220212,1370892,66523,7741,685263,0
128,-1,640677,219809,1321369,66327,8127,660613,0
128,-1,639856,219275,1206497,66313,7556,603308,2
129,-1,638983,218867,1215252,65817,7247,607673,0
129,-1,638784,219286,1230771,65959,7426,615411,0
129,-1,638958,219798,1544746,65833,9915,772827,0
129,-1,641384,218982,1228717,65626,7254,614450,0
129,-1,642568,219295,1236708,66291,7717,618229,0
129,-1,641749,220194,1284138,66639,7199,641980,0
129,-1,652312,221054,1267365,66935,8102,633642,0
130,-1,637395,218587,1322131,65685,7850,661120,0
130,-1,638466,219165,1362284,65848,7713,681070,0
130,-1,663066,225331,1235046,69492,9147,617941,0
130,-1,641130,218897,1279218,65712,8234,639647,0
130,-1,641659,219124,1355272,66189,7620,677602,0
130,-1,640322,219371,1349900,66345,8882,674988,0
130,-1,648986,220063,1316119,66381,8885,657944,0
131,-1,639906,219002,1477631,65847,8069,738125,0
131,-1,641555,220544,1360911,66280,7427,680418,0
131,-1,641722,221912,1410104,66785,8773,704257,0
131,-1,640561,218941,1361543,65654,8551,680671,0
131,-1,638079,218586,1202574,66034,7294,601289,0
131,-1,645353,221312,1303487,67300,8504,651792,0
131,-1,671716,225013,1513084,69834,8795,756548,0
132,-1,643162,220602,1483082,66673,8679,740176,0
132,-1,638291,219365,1369271,65953,7916,684724,0
132,-1,635480,220028,1437628,65986,8068,717617,0
132,-1,645812,221628,1315321,66804,8009,657706,0
132,-1,644868,220333,1309627,66818,7616,654781,0
132,-1,642513,219804,1257959,66533,7653,628976,0
132,-1,647912,220050,1354613,66344,8200,677308,0
133,-1,638270,219063,1297215,65900,7874,648597,0
133,-1,644253,220253,1456102,66405,8808,727684,0
133,-1,647050,221386,1466484,66370,9011,733324,0
133,-1,641425,218940,1310315,65683,8725,655164,0
133,-1,638323,218474,1187039,66049,7159,593533,0
133,-1,644111,220453,1305462,66769,8236,652810,0
133,-1,646573,220437,1335003,66534,7601,667494,0
134,-1,636906,218474,1269321,65634,8350,634297,0
134,-1,643622,220616,1345830,66350,8587,672908,0
134,-1,653884,222765,1406088,67134,9189,703801,0
134,-1,640893,219133,1272142,65672,8207,636059,0
134,-1,638525,218984,1474464,66096,8535,737181,0
134,-1,642338,219714,1263075,66303,7912,631588,0
134,-1,651608,221841,1253318,67265,8398,626678,0
135,-1,635041,218200,1180266,65544,7121,590220,0
135,-1,659118,223524,1343013,69072,9238,671511,0
135,-1,648221,220494,1321528,66149,8792,660779,0
135,-1,639592,219205,1334154,65693,7666,667093,0
135,-1,660687,223399,1399354,69487,8585,699604,0
135,-1,641401,220094,1412673,66565,8449,706291,0
135,-1,668755,224970,1403891,69778,9509,701938,0
136,-1,635129,218272,1307767,65536,7854,654020,0
136,-1,639575,219625,1346965,66058,7790,673488,0
136,-1,650374,221707,1306631,66713,9266,653434,0
136,-1,639295,218840,1310981,65579,7892,655481,0
136,-1,638346,218717,1262179,66113,8502,631119,0
136,-1,645495,221963,1253105,67424,7927,626645,0
136,-1,645504,220350,1306461,66475,7647,653178,0
137,-1,637463,218942,1205275,65795,7304,602579,0
137,-1,642731,221243,1250032,66762,8310,624798,0
137,-1,647268,220866,1178977,66226,8286,589500,0
137,-1,660203,223442,1339767,68867,8724,669933,0
137,-1,639247,219435,1210777,66350,7668,605375,0
137,-1,661000,224729,1352930,69837,8748,676537,0
137,-1,651003,221486,1275286,67157,8100,637569,0
138,-1,640511,220508,1302616,66455,8268,651093,0
138,-1,634251,218335,1177814,65622,7537,588892,0
138,-1,652491,222401,1232743,67011,8510,616485,0
138,-1,642276,219053,1320440,65690,8208,660168,0
138,-1,638676,218815,1177759,66142,7765,588817,0
138,-1,642624,220110,1305966,66565,8459,652787,0
138,-1,647049,220428,1312073,66526,8301,656019,0
139,-1,634341,218386,1275686,65580,7668,637885,0
139,-1,640518,219622,1233886,65999,7914,616349,0
139,-1,668471,225065,1248030,69418,9419,623979,0
139,-1,647384,220656,1301718,66404,8361,650757,0
139,-1,641905,218925,1203451,66123,7964,601657,0
139,-1,639930,218825,1297480,66111,8220,648788,0
139,-1,670789,228842,1309662,69000,8010,654844,0
140,-1,636934,218949,1194544,65786,7484,597071,0
140,-1,639207,219402,1170123,65938,7301,585106,0
140,-1,647193,220804,1285082,66163,9110,642578,0
140,-1,640272,218538,1267493,65481,8414,633812,0
140,-1,640867,219209,1237527,66225,7616,618724,0
140,-1,642003,219984,1311588,66534,8145,655845,0
140,-1,651045,222181,1238907,67390,7800,619405,0
141,-1,640573,220943,1291905,66693,8154,645935,0
141,-1,661459,224481,1196097,69420,8161,598012,0
141,-1,650269,222218,1329523,66875,8451,664709,0
141,-1,648305,221876,1212744,66926,8819,606309,0
141,-1,643837,220297,1222311,66894,7786,611104,0
141,-1,640216,219408,1196645,66214,7558,598281,0
141,-1,665949,224698,1345466,69771,8633,672673,0
142,-1,654812,222911,1303339,68868,8726,651572,0
142,-1,638046,219654,1217777,66059,7360,608933,0
142,-1,645180,220402,1206794,66108,7886,603212,0
142,-1,641229,219150,1398428,65724,8674,699381,0
142,-1,639065,219174,1239549,66204,8060,619756,0
142,-1,659873,223575,1409647,69538,9586,704719,0
142,-1,645899,219334,1326346,66213,8508,663141,0
143,-1,642149,218927,1185588,65813,7314,592744,0
143,-1,637158,219074,1135452,65816,6945,567774,0
143,-1,647403,220814,1332260,66165,8755,666134,0
143,-1,639111,218525,1396107,65468,8068,697675,0
143,-1,637414,218979,1156488,66142,7552,578293,0
143,-1,641418,219971,1305003,66554,8150,652553,0
143,-1,646695,220792,1258491,66889,7395,629183,0
144,-1,640102,219121,1207333,65852,7903,603396,0
144,-1,636492,219292,1222447,65904,7130,611265,0
144,-1,648063,221127,1219438,66405,8361,609667,0
144,-1,644260,220307,1693857,66035,9087,845311,0
144,-1,639043,218791,1352211,66089,7576,676082,0
144,-1,636649,218894,1319819,66237,8403,659941,0
144,-1,643389,219878,1451293,66438,8193,725675,0
145,-1,665893,224693,1249038,69977,8232,624678,0
145,-1,661728,223762,1261581,69137,8543,630775,0
145,-1,642947,219757,1335921,65790,8372,667844,0
145,-1,639468,218700,1317801,65537,8062,658923,0
145,-1,643370,220514,1229837,66958,7034,614922,0
145,-1,638263,220082,1219788,66835,7765,609904,0
145,-1,643968,219626,1285047,66330,8465,642542,0
146,-1,638080,218704,1237060,65714,7212,618216,0
146,-1,642251,220008,1294145,66176,7839,647107,0
146,-1,649529,222195,1388858,66918,9074,694296,0
146,-1,644556,220631,1326079,66475,8138,663635,0
146,-1,659066,222897,1325593,69295,7918,662711,0
146,-1,635471,217926,1218232,65791,7490,609151,0
146,-1,649966,222130,1279615,67500,8086,639798,0
147,-1,636875,218556,1253330,65650,7477,626566,0
147,-1,639853,219507,1295363,65966,7495,647727,0
147,-1,666064,225324,1269511,69468,9160,634585,0
147,-1,639477,219157,1290667,65737,7958,645596,0
147,-1,639527,219258,1270190,66286,7496,635091,0
147,-1,637940,219183,1320401,66225,7695,660052,0
147,-1,648806,221151,1347418,67166,7526,673745,0
148,-1,637442,218524,1299410,65602,8020,649716,0
148,-1,639675,219210,1193107,65944,7508,596572,0
148,-1,646727,219750,1261631,65842,7844,630916,0
148,-1,641612,219447,1283295,65744,8522,641684,0
148,-1,637481,218883,1310080,66168,7597,654990,0
148,-1,638217,219113,1242533,66130,8434,621200,0
148,-1,648184,220469,1212848,66683,8172,606350,0
149,-1,639279,218449,1286883,65567,8676,643396,0
149,-1,641607,220447,1355535,66498,8088,677825,0
149,-1,647514,220924,1315189,66443,8267,657562,0
149,-1,642881,220261,1305223,66282,8555,652596,0
149,-1,639320,219779,1309384,66587,8042,654657,0
149,-1,658981,224069,1304520,69596,9333,652312,0
149,-1,644219,219209,1320039,66207,7766,659960,0
150,-1,637321,218370,1375517,65541,7582,687530,0
150,-1,639218,218876,1288027,65710,7353,643889,0
150,-1,650998,222582,1385569,67063,8758,692005,0
150,-1,637296,218475,1363828,65420,8234,681964,0
150,-1,638815,218810,1372422,66163,8777,686252,0
150,-1,636213,219034,1222515,66086,7894,611295,0
150,-1,643389,219649,1298628,66415,8009,649298,0
151,-1,658245,223100,1319629,68940,9170,659863,0
151,-1,640888,220015,1273415,66192,7403,636754,0
151,-1,666020,224860,1275954,69355,8679,637898,0
151,-1,639685,219414,1375208,65776,8432,687622,0
151,-1,638539,219178,1321240,66216,7197,660599,0
151,-1,633678,218674,1213191,65863,7357,606602,0
151,-1,645720,220363,1239916,66574,7737,620022,0
152,-1,638421,218460,1340511,65601,8027,670436,0
152,-1,641572,220849,1340811,66705,8423,670519,0
152,-1,644699,220444,1196180,66079,7276,598096,0
152,-1,641115,218861,1321031,65589,8488,660587,0
152,-1,655638,223219,1346349,69317,8617,673258,0
152,-1,645164,218024,1319399,65718,7706,659749,0
152,-1,645464,220191,1322379,66566,8493,661187,0
153,-1,641398,220738,1321989,66598,7894,660509,0
153,-1,658535,224026,1438415,69304,9016,718939,0
153,-1,644181,220602,1321044,66188,7487,660360,0
153,-1,643273,220807,1302795,66465,7982,651365,0
153,-1,641264,219126,1235339,66235,7328,617728,0
153,-1,665884,223501,1383914,69291,8636,692005,0
153,-1,645653,219612,1282800,66337,7590,641398,0
154,-1,634478,218053,1349476,65410,7517,674540,0
154,-1,639001,220141,1527280,66215,8994,763617,0
154,-1,647560,221992,1334124,66807,7995,667122,0
154,-1,638744,218434,1393267,65464,8381,696749,0
154,-1,643614,219693,1219317,66379,7261,609623,0
154,-1,643951,219014,1391065,66035,8202,695416,0
154,-1,649438,221496,1338725,67282,7783,668824,0
155,-1,636621,219257,1440125,65782,8171,719852,0
155,-1,638501,219184,1286057,65871,8613,642810,0
155,-1,664522,225084,1273247,69620,8006,636521,0
155,-1,641228,220081,1291916,66214,7739,645954,0
155,-1,645325,220830,1252405,66971,7379,626167,0
155,-1,646829,219863,1255208,66501,8290,627631,0
155,-1,665020,224114,1473569,69589,8860,736696,0
156,-1,659558,223036,1310298,68919,9053,655192,0
156,-1,641966,220630,1363347,66574,8472,681395,0
156,-1,644963,220368,1379576,66307,8711,689715,0
156,-1,640397,219187,1337230,65702,8592,668523,0
156,-1,639344,218755,1340253,66066,7672,670131,0
156,-1,644361,218714,1230410,65966,7880,615264,0
156,-1,643984,219790,1302638,66413,7546,651353,0
157,-1,638000,218668,1390841,65685,8129,695452,0
157,-1,639669,219958,1361940,66138,8958,681017,0
157,-1,641404,219855,1381608,66127,8193,690793,0
157,-1,659538,224164,1274594,69159,8739,637384,0
157,-1,638609,218654,1497547,66047,8015,748813,0
157,-1,645745,219804,1309169,66288,8271,654624,0
157,-1,648038,220761,1230327,66970,8340,615122,0
158,-1,639520,219025,1271868,65850,8447,635939,0
158,-1,636707,219341,1213388,65905,7566,606849,0
158,-1,647214,219980,1310583,66168,8761,655330,0
158,-1,638025,219124,1290757,65740,8414,645339,0
158,-1,658215,223067,1328236,69265,8263,664117,0
158,-1,643915,219087,1302405,65991,8404,651250,0
158,-1,644660,220032,1236917,66550,8282,618344,0
159,-1,636889,218619,1264870,65681,7008,632376,0
159,-1,642305,221063,1309327,66724,7763,654470,0
159,-1,650405,221590,1368012,66911,8430,683998,0
159,-1,636519,218784,1288794,65513,8159,644411,0
159,-1,640903,219605,1256707,66349,8001,628353,0
159,-1,664125,223809,1377245,69390,9224,688674,0
159,-1,641931,219326,1217485,66207,8283,608717,0
160,-1,642140,221251,1456922,66829,7937,728474,0
160,-1,657940,223850,1271365,69202,8229,635734,0
160,-1,647401,220976,1400571,66547,8763,700290,0
160,-1,644469,220489,1258443,66348,7870,629246,0
160,-1,636366,218351,1233108,65934,7978,616633,0
160,-1,647675,219816,1201286,66283,7903,600703,0
160,-1,647021,221884,1199013,67423,8261,599374,0
161,-1,655683,223289,1315105,69039,8482,657610,0
161,-1,636170,219013,1367861,65782,7842,683880,0
161,-1,643606,219883,1218523,66138,7534,609268,0
161,-1,645819,220083,1261269,66039,8076,630378,0
161,-1,639381,219015,1202838,66170,7799,601418,0
161,-1,643091,218456,1278725,65763,8326,639418,0
161,-1,647771,220657,1176586,66724,7938,588242,0
162,-1,638635,219382,1193084,65931,7691,596422,0
162,-1,636483,219694,1333886,66069,7495,666998,0
162,-1,668074,225664,1370334,69740,8966,684957,0
162,-1,642408,219090,1242170,65711,8398,621040,0
162,-1,638506,219459,1190381,66316,7730,595168,0
162,-1,648478,220604,1351110,66726,8004,675520,0
162,-1,645859,219893,1311100,66429,8094,655408,0
163,-1,639855,219980,1353160,66306,8529,676415,0
163,-1,640013,219853,1283761,66121,8084,641676,0
163,-1,644094,220293,1319392,66168,7933,659618,0
163,-1,645890,220953,1257530,66597,8309,628696,0
163,-1,639937,220111,1144898,66752,8151,572389,0
163,-1,642826,218961,1425523,66015,8645,712799,0
163,-1,648463,221373,1241889,67164,7193,620975,0
164,-1,633653,218180,1240172,65468,7898,619758,0
164,-1,639405,219788,1309443,66095,7570,654756,0
164,-1,647706,221616,1341691,66864,8370,670671,0
164,-1,663630,224263,1329919,69184,9384,664846,0
164,-1,636667,219186,1223959,66258,7369,611963,0
164,-1,642894,219311,1219258,66091,7774,609690,0
164,-1,645703,220675,1280450,66715,7475,640255,0
165,-1,642509,219666,1312506,66157,8010,656294,0
165,-1,637993,219592,1300560,66058,7812,650335,0
165,-1,643887,220739,1329167,66437,8105,664576,0
165,-1,642854,219374,1218241,65769,8406,609044,0
165,-1,638705,218272,1207394,65910,8068,603728,0
165,-1,641707,218459,1269367,65726,8460,634594,0
165,-1,643541,220293,1207426,66619,7535,603528,0
166,-1,641367,219504,1270811,65974,7675,635439,0
166,-1,639546,220620,1290979,66554,8522,645203,0
166,-1,642598,220685,1275692,66367,7665,637931,0
166,-1,639816,219139,1226003,65724,7909,612964,0
166,-1,638393,218371,1292829,65942,8237,646441,0
166,-1,646947,220822,1288468,66922,8044,644267,0
166,-1,640742,219538,1348447,66309,8905,674165,0
167,-1,638464,219067,1276634,65772,7903,638256,0
167,-1,636577,219708,1191320,66032,6741,595710,0
167,-1,650307,221938,1347844,66916,8744,673913,0
167,-1,640066,219526,1350922,65801,8665,675134,0
167,-1,660719,223411,1456803,69453,9186,728460,0
167,-1,642215,218984,1342572,66014,8487,671338,0
167,-1,646689,220819,1316134,67004,7503,657980,0
168,-1,637401,218705,1463663,65683,8350,731833,0
168,-1,641380,220198,1159704,66192,6992,579904,0
168,-1,644140,220389,1390390,66150,8530,695281,0
168,-1,640915,219122,1266178,65674,8296,633050,0
168,-1,638599,219089,1374168,66223,8563,687102,0
168,-1,642461,218728,1297809,65932,8350,648924,0
168,-1,646608,221027,1433655,66848,7524,716718,0
169,-1,634337,218357,1228737,65603,7704,614339,0
169,-1,640193,220592,1211582,66583,7379,605840,0
169,-1,665075,224712,1275359,69502,8391,637684,0
169,-1,636930,218291,1305641,65394,7671,652866,0
169,-1,635974,218513,1237819,66001,7775,618955,0
169,-1,665707,223530,1302075,69336,9098,650952,0
169,-1,641629,219159,1225354,66160,6927,612645,0
170,-1,638135,218661,1328015,65660,7863,663943,0
170,-1,637599,219697,1221482,66075,7141,610797,0
170,-1,644342,220470,1314940,66308,8662,657320,0
170,-1,638751,218666,1395214,65523,8515,697475,0
170,-1,639054,219047,1261424,66184,7961,630745,0
170,-1,640372,218399,1253992,65839,7867,627074,0
170,-1,642353,219885,1356112,66434,8191,678056,0
171,-1,636287,218901,1286323,65814,7351,642897,0
171,-1,635288,219502,1214151,65959,6840,607104,0
171,-1,641911,219969,1327289,66076,8074,663644,0
171,-1,640483,219859,1454783,65999,9679,727307,0
171,-1,642419,220565,1272695,66889,8031,636387,0
171,-1,640479,218859,1219555,66034,7685,609840,0
171,-1,648046,222337,1277202,67470,8067,638751,0
172,-1,636919,219054,1422347,65805,8012,711058,0
172,-1,639154,220638,1310542,66559,7320,655331,0
172,-1,644944,221426,1408875,66745,8565,704442,0
172,-1,636037,218602,1348137,65452,8288,673905,0
172,-1,636743,219033,1201119,66225,7967,600585,0
172,-1,643391,219164,1152483,66069,7639,576277,0
172,-1,666357,225417,1440590,69932,8625,720289,0
173,-1,634857,218688,1334931,65734,7087,667536,0
173,-1,633585,218578,1347120,65624,7574,673660,0
173,-1,647655,222176,1384852,67192,8876,691619,0
173,-1,645212,221554,1300283,66775,8249,649970,0
173,-1,636255,218887,1278373,66120,7407,639228,0
173,-1,642546,218845,1273206,66022,7628,636655,0
173,-1,641388,219770,1183543,66297,6737,591800,0
174,-1,634910,218643,1300742,65677,7185,650411,0
174,-1,634489,219280,1242401,65898,7318,621286,0
174,-1,660130,223677,1361055,69123,8036,680548,0
174,-1,636886,219091,1306624,65706,8123,653091,0
174,-1,644008,221861,1196150,67397,7539,598007,0
174,-1,646677,220813,1231681,66925,8029,615899,0
174,-1,642648,220395,1319344,66504,7809,659658,0
175,-1,639614,220469,1345182,66590,8774,672523,0
175,-1,643967,219577,1319231,66058,7645,659666,0
175,-1,639863,219378,1202556,65929,7821,601216,0
175,-1,641366,220908,1199913,66460,8386,599890,0
175,-1,659580,223543,1314422,69439,8333,657201,0
175,-1,642664,219654,1217591,66293,7321,608918,0
175,-1,641475,219826,1278614,66340,8031,639322,0
176,-1,657595,222689,1295833,68807,7896,647698,0
176,-1,644507,220317,1336213,66472,8148,668173,0
176,-1,638901,219119,1305720,65907,7847,652861,0
176,-1,642498,219069,1225046,65654,8760,612519,0
176,-1,636751,218662,1309095,66084,7121,654531,0
176,-1,640390,218876,1307578,65984,7646,653883,0
176,-1,650047,220945,1432439,66764,8658,716344,0
177,-1,639448,220174,1310526,66398,8142,655326,0
177,-1,638605,219051,1271825,65819,7118,635959,0
177,-1,639386,219646,1290795,66000,7938,645375,0
177,-1,642003,219262,1148007,65774,8197,574043,0
177,-1,636366,218791,1316412,66067,7264,658229,0
177,-1,639613,218876,1326168,66122,7800,663145,0
177,-1,668976,225227,1390125,69929,8951,695110,0
178,-1,638472,220171,1302098,66500,7487,650905,0
178,-1,642197,219586,1287744,66055,7606,643915,0
178,-1,649973,221447,1298725,66879,8548,649048,0
178,-1,639466,218653,1662007,65542,10654,831028,0
178,-1,641042,220238,1372033,66617,7764,686054,0
178,-1,640801,219639,1354848,66282,8268,677424,0
178,-1,644956,220041,1277332,66454,7738,638766,0
179,-1,655102,223227,1284665,69018,8095,642370,0
179,-1,643831,221009,1359735,66739,7518,679923,0
179,-1,664506,223741,1304920,69164,8935,651932,0
179,-1,660801,223431,1254435,68939,8949,627256,0
179,-1,636442,219367,1296746,66272,8030,648375,0
179,-1,650857,221405,1303585,67192,8308,651943,0
179,-1,646134,220038,1324511,66369,8239,662158,0
180,-1,635301,219421,1221005,65950,7311,610531,0
180,-1,636849,218649,1227214,65697,6443,613630,0
180,-1,642314,219450,1372176,65805,7993,686562,0
180,-1,639687,218393,1238515,65434,7944,619217,0
180,-1,646275,220222,1287847,66783,8552,643935,0
180,-1,643468,218721,1243531,65993,8120,621815,0
180,-1,647169,220807,1289047,66732,7994,644631,0
181,-1,635027,218616,1343863,65674,8216,671406,0
181,-1,641162,220051,1235487,66198,7574,617944,0
181,-1,645294,220445,1340267,66107,7889,670121,0
181,-1,643633,220911,1273908,66463,7948,637012,0
181,-1,642614,219016,1386940,66178,8611,693488,0
181,-1,644119,219436,1314044,66275,8314,657266,0
181,-1,642771,219231,1221921,66146,7258,610865,0
182,-1,664924,228947,1348226,68974,8806,673781,0
182,-1,643098,220504,1325495,66329,7278,662733,0
182,-1,641349,219280,1281981,65767,8060,641049,0
182,-1,665457,228034,1354140,68304,8890,677077,0
182,-1,642280,218876,1291990,66074,8657,645941,0
182,-1,644701,219565,1433147,66323,8104,716627,0
182,-1,672108,226319,1297712,70310,9159,648728,0
183,-1,637268,219586,1295422,66006,7797,647731,0
183,-1,639376,219893,1304370,66040,7126,652230,0
183,-1,641703,218991,1223016,65659,7476,611490,0
183,-1,638011,218760,1261367,65571,7821,630542,0
183,-1,641359,218973,1223721,66148,8500,611861,0
183,-1,644878,219032,1347314,66012,8359,673694,0
183,-1,649712,222290,1326677,67388,7638,663368,0
184,-1,635146,219207,1370794,65870,8802,685305,0
184,-1,640299,220046,1176136,66208,6740,588118,0
184,-1,645812,221384,1306513,66750,7919,653328,0
184,-1,643019,220310,1219165,66052,7598,609569,0
184,-1,647288,220834,1284528,66974,8491,642117,0
184,-1,645524,219947,1383265,66316,8160,691682,0
184,-1,649531,221638,1299467,66971,7601,649748,0
185,-1,655576,223437,1368335,68989,8749,683834,0
185,-1,640914,220727,1289211,66598,7300,644724,0
185,-1,661473,224296,1229341,69215,7735,614693,0
185,-1,637735,218723,1343578,65490,8295,671691,0
185,-1,662818,223555,1348263,69447,9091,673734,0
185,-1,642216,218931,1374546,66035,8420,687328,0
185,-1,646274,220467,1225463,66521,6544,612365,0
186,-1,635974,219338,1366646,65844,7659,683370,0
186,-1,638501,219218,1286732,65938,7523,643407,0
186,-1,642957,220430,1311200,66211,8379,655655,0
186,-1,642043,221061,1355595,66560,8428,677739,0
186,-1,641726,218971,1181851,66093,7786,590962,0
186,-1,640974,218753,1259838,65893,7314,629971,0
186,-1,665809,225396,1419936,69958,8742,709437,0
187,-1,640460,217988,1142118,65359,7210,571099,0
187,-1,638368,219811,1266986,66143,6841,633529,0
187,-1,641094,220232,1337110,66149,8326,668496,0
187,-1,640469,219073,1386224,65583,8757,693071,0
187,-1,638510,218347,1296721,65945,8719,648364,0
187,-1,661857,223328,1369424,69235,9106,684701,0
187,-1,645365,220612,1346341,66629,7958,673139,0
188,-1,649488,222090,1368780,67065,8786,684350,0
188,-1,635574,219088,1215306,65837,7208,607742,0
188,-1,645496,220968,1281664,66587,8887,640318,0
188,-1,640162,218846,1399194,65532,8321,699273,0
188,-1,641778,219269,1248207,66247,8458,624023,0
188,-1,640828,219238,1215923,66068,7686,608008,0
188,-1,644941,219809,1312869,66309,8115,656442,0
189,-1,641726,218883,1325833,65598,8823,662893,0
189,-1,640980,219949,1284443,66432,8198,642230,0
189,-1,643405,219735,1253031,65983,8795,625642,0
189,-1,641339,219633,1372343,65809,8627,685994,0
189,-1,644267,220680,1185624,67091,8343,592736,0
189,-1,640535,219363,1312852,66170,8497,656478,0
189,-1,646007,220030,1288476,66220,8167,644227,0
190,-1,644629,220641,1386749,66428,8953,693148,0
190,-1,637207,218949,1275896,65794,7272,637988,0
190,-1,642842,219596,1293306,65893,8642,646595,0
190,-1,640789,219522,1294563,65714,7645,647327,0
190,-1,661607,223670,1300795,69543,9799,650323,0
190,-1,661454,223587,1403011,69381,9245,701561,0
190,-1,664854,224924,1360428,69772,9002,680222,0
191,-1,641191,219035,1273811,65769,8193,637092,0
191,-1,640065,219997,1272516,66123,7055,636303,0
191,-1,643512,220094,1375826,66109,9695,686789,0
191,-1,644353,221401,1315885,66672,8502,658017,0
191,-1,637742,217875,1235708,65739,7799,617851,0
191,-1,642975,219509,1305943,66193,8024,653025,0
191,-1,645831,220957,1255181,66953,7789,627652,0
192,-1,638533,218431,1193789,65508,7896,597015,0
192,-1,638137,219661,1240087,66057,6790,620059,0
192,-1,638835,219286,1474212,65783,9004,737126,0
192,-1,640282,219805,1313782,65875,7672,656953,0
192,-1,638773,218760,1298754,66144,8655,649420,0
192,-1,640531,218961,1281761,66040,8063,640932,0
192,-1,641810,219240,1235774,66151,7236,617900,0
193,-1,641025,218297,1397265,65452,8201,698806,0
193,-1,640698,220776,1396660,66636,7599,698407,0
193,-1,639442,218834,1330720,65658,7683,665357,0
193,-1,638042,219334,1215073,65646,7846,607941,0
193,-1,640084,218692,1306047,66064,7985,652446,0
193,-1,639293,218838,1323566,65981,8105,661862,0
193,-1,644924,221471,1232674,67173,7747,616436,0
194,-1,639839,218723,1356317,65645,7708,678102,0
194,-1,641826,221363,1304585,66849,7911,652354,0
194,-1,646497,221857,1486051,67005,9233,742917,0
194,-1,643333,220195,1246842,66127,9328,623327,0
194,-1,639609,218884,1314547,66059,7964,657262,0
194,-1,637743,218388,1366024,65783,7768,683042,0
194,-1,661203,224093,1364073,69533,9083,682079,0
195,-1,639337,218717,1333115,65592,7711,666675,0
195,-1,643185,219847,1271833,66071,7567,635967,0
195,-1,639672,219757,1280594,65960,7740,640355,0
195,-1,642789,220393,1205087,66085,9036,602691,0
195,-1,638727,218562,1317993,65958,8324,658995,0
195,-1,641958,218970,1296466,65981,7420,648336,0
195,-1,643073,220139,1207734,66454,7519,603927,0
196,-1,637493,218483,1154361,65520,7501,576679,0
196,-1,641530,220217,1288336,66384,6812,644233,0
196,-1,638949,219654,1226227,65913,7213,612439,0
196,-1,639965,219660,1153781,65825,7904,576738,0
196,-1,642389,220806,1223381,67024,8546,611669,0
196,-1,662105,223860,1394515,69372,8711,697165,0
196,-1,639477,219199,1322225,66105,8021,661153,0
197,-1,644259,221468,1280959,66826,8442,640480,0
197,-1,640174,219322,1249548,65976,7181,624833,0
197,-1,666217,224449,1329614,69283,8877,664778,0
197,-1,638059,219208,1214865,65634,8234,607375,0
197,-1,658314,223438,1466446,69379,9418,733248,0
197,-1,637656,218621,1387264,65899,8810,693672,0
197,-1,637654,219444,1205718,66222,7582,602903,0
198,-1,638476,217957,1396404,65295,8799,698280,0
198,-1,637996,218829,1211381,65825,7193,605743,0
198,-1,641753,219831,1194951,65984,7315,597309,0
198,-1,661407,224639,1235601,69173,9132,617721,0
198,-1,642593,219522,1393662,66320,9047,697058,0
198,-1,644784,219038,1205283,66092,7797,602661,0
198,-1,645426,220157,1264662,66483,8872,632373,0
198,-1,638384,218675,1295981,66043,8039,647858,0
199,-1,639109,218743,1345709,65663,8535,672820,0
199,-1,661423,224503,1243504,69496,7412,621789,0
199,-1,640689,219362,1303075,65774,8583,651379,0
199,-1,638393,219771,1220751,65910,8638,610363,0
199,-1,638705,218522,1242376,65899,8519,621163,0
199,-1,642377,218079,1266928,65743,8064,633505,0
199,-1,645796,219985,1237610,66373,8862,618809,0
199,-1,636997,218745,1188215,66131,7943,594385,0
200,-1,639771,218791,1333896,65670,8509,667079,0
200,-1,636790,218983,1280794,65776,7080,640423,0
200,-1,662826,224717,1249359,69429,8072,624584,0
200,-1,641465,221079,1209775,66473,7947,604927,0
200,-1,640781,219362,1236972,66500,8283,618527,0
200,-1,642912,218811,1280317,65964,7823,639945,0
200,-1,643960,220086,1268171,66454,8850,633553,0
200,-1,639177,220005,1347071,66704,9114,673604,0
201,-1,637635,218791,1315492,65601,7577,657740,0
201,-1,636390,218427,1410772,65691,7091,705428,0
201,-1,637948,219139,1241720,65792,7397,620573,0
201,-1,639748,220672,1256680,66148,7604,628306,0
201,-1,639262,219343,1355412,66254,8806,677718,0
201,-1,642373,218840,1327682,66025,7862,663845,0
201,-1,641081,219108,1370426,66031,8695,685218,0
201,-1,639844,218864,1237032,66128,7492,618568,0
202,-1,640605,219717,1206942,65971,7643,603437,0
202,-1,657215,223686,1295510,69267,8182,647757,0
202,-1,638730,219368,1186396,65887,7478,593251,0
202,-1,637384,219169,1393567,65607,7524,696788,0
202,-1,637624,218470,1215544,66013,8458,607784,0
202,-1,642586,219065,1270925,66076,7340,635508,0
202,-1,646335,220984,1285244,66749,8560,642609,0
202,-1,641201,218534,1206463,65970,8316,603149,0
203,-1,647371,221657,1400964,66710,8763,699644,0
203,-1,639154,219842,1300593,66166,6947,650290,0
203,-1,646095,221273,1253569,66741,8621,626819,0
203,-1,645764,219161,1530619,65644,10178,765278,0
203,-1,639180,219186,1324291,66109,8468,662053,0
203,-1,643276,219053,1369811,66017,8721,685056,0
203,-1,642698,219698,1346184,66328,8776,672848,0
203,-1,644648,220632,1371444,66905,9044,686029,0
204,-1,638983,218917,1406763,65649,7724,704311,0
204,-1,635584,218913,1200936,65894,6836,600531,0
204,-1,640199,219211,1343311,65833,8124,671696,0
204,-1,668845,224556,1312527,69200,8702,656296,0
204,-1,640917,220404,1247686,66833,9278,623634,0
204,-1,641065,218835,1295902,66147,7119,647336,0
204,-1,642591,220004,1503333,66418,8178,751636,0
204,-1,639761,218890,1346221,66125,7900,673168,0
205,-1,640097,219276,1387112,65799,8912,694183,0
205,-1,638918,220166,1380071,66421,7800,690098,0
205,-1,637236,218962,1302123,65738,7000,651113,0
205,-1,643860,219356,1230781,65606,7569,615980,0
205,-1,654623,223025,1377646,68396,8620,688773,0
205,-1,641155,219245,1279466,66222,7385,639820,0
205,-1,638253,218700,1262857,65909,7731,631464,0
205,-1,637210,218621,1357373,66039,7620,678742,0
206,-1,639499,219164,1211931,65819,7730,606009,0
206,-1,637659,219624,1203268,66115,8285,601681,0
206,-1,661347,224363,1236369,69351,8196,618164,0
206,-1,650179,221458,1350968,66540,8317,675450,0
206,-1,638950,220016,1413346,65652,7837,706719,0
206,-1,642648,218662,1333363,66092,8104,666729,0
206,-1,666098,224464,1452163,69657,9736,725882,0
206,-1,637049,218339,1214658,65960,7175,607373,0
207,-1,638298,218967,1179288,65709,6857,589873,0
207,-1,638238,218687,1361688,65796,9257,680858,0
207,-1,639028,219600,1305189,66020,7729,652637,0
207,-1,648752,221449,1401537,66601,8862,700788,0
207,-1,637915,218577,1346930,65145,8049,673383,0
207,-1,646885,220437,1202432,66858,7903,601116,0
207,-1,643736,221126,1340230,67080,8223,670163,0
207,-1,638224,219084,1303601,66171,7778,651851,0
208,-1,635728,218411,1318178,65407,8005,659137,0
208,-1,644188,221503,1258786,67081,7589,629234,0
208,-1,640830,219186,1312138,65845,7593,656117,0
208,-1,645430,219739,1317836,65793,8563,658901,0
208,-1,639774,219365,1204759,65429,7252,602332,0
208,-1,642446,218954,1273231,66171,7855,636348,0
208,-1,660672,224110,1370579,69562,8667,685172,0
208,-1,638387,218154,1284765,65791,7678,641876,0
209,-1,638506,218500,1242734,65482,8090,621167,0
209,-1,656455,222920,1253492,68952,7757,626548,0
209,-1,642322,220092,1234543,66169,7107,617258,0
209,-1,643851,219502,1205084,65637,7340,602459,0
209,-1,660496,226805,1387611,67546,7931,693703,0
209,-1,639474,217940,1172127,65746,7584,586089,0
209,-1,645364,220131,1277827,66479,8312,638970,0
209,-1,640590,219579,1382252,66380,7849,691170,0
210,-1,641367,218950,1450327,65674,9267,725735,0
210,-1,639709,219756,1328765,66164,8481,664345,0
210,-1,641328,219780,1254191,66030,7776,627125,0
210,-1,644404,219233,1329640,65509,8524,664820,0
210,-1,660018,223462,1379254,68558,9180,689593,0
210,-1,641910,219167,1229701,66173,7946,614869,0
210,-1,643963,220110,1219099,66409,7669,609596,0
210,-1,637233,218567,1233767,66046,7428,616694,0
211,-1,646688,221466,1392897,66749,8704,695735,0
211,-1,668974,229869,1349102,69371,8341,674575,0
211,-1,647018,222016,1296930,67048,8085,648496,0
211,-1,643952,219417,1215492,65634,7920,607809,0
211,-1,637919,219294,1234074,65425,7746,616975,0
211,-1,644651,220423,1258492,66944,8506,629034,0
211,-1,640314,219379,1304821,66240,7829,652284,0
211,-1,659175,223555,1333452,69605,8464,666671,0
212,-1,640267,219667,1210263,65892,8212,605347,0
212,-1,638686,219704,1383351,66158,7710,691732,0
212,-1,659683,223889,1263239,69174,7948,631594,0
212,-1,646773,220134,1322513,65817,8614,661222,0
212,-1,635089,218935,1310641,65306,7634,655275,0
212,-1,640899,218896,1301961,66122,8730,650319,0
212,-1,636803,218498,1258504,65842,7543,629280,0
212,-1,632734,217316,1165771,65808,6964,582941,0
213,-1,638820,219571,1187465,65806,7368,593787,0
213,-1,638265,220151,1293772,66458,7963,646880,0
213,-1,641229,219568,1215991,65918,7053,608045,0
213,-1,648541,220898,1313026,66368,8067,656569,0
213,-1,636115,218447,1181404,65182,7206,590676,0
213,-1,641892,219578,1436460,66282,9167,716859,0
213,-1,645509,221190,1298277,67099,7520,649216,0
213,-1,635485,218355,1332411,66059,7476,666233,0
214,-1,645845,221224,1301186,66731,7825,650639,0
214,-1,635454,219308,1174733,66047,6843,587397,0
214,-1,639474,219829,1359810,66092,7187,679955,0
214,-1,644797,219728,1313227,65722,8365,656695,0
214,-1,635628,218262,1360650,64972,8340,680356,0
214,-1,639328,218521,1455165,65928,8224,726556,0
214,-1,640209,219739,1200642,66346,8427,600348,0
214,-1,636131,218415,1300584,66078,6642,650329,0
215,-1,661117,223565,1433821,68975,8299,716857,0
215,-1,634205,218891,1331705,65875,7843,665896,0
215,-1,638302,219210,1267970,65763,7468,633957,0
215,-1,644696,219891,1239254,65877,7907,619659,0
215,-1,657450,223502,1369276,68590,8618,684567,0
215,-1,645076,219762,1292699,66386,7460,646457,0
215,-1,638365,218407,1349096,65916,8232,674580,0
215,-1,659625,223415,1265951,69545,9436,633015,0
216,-1,637366,218409,1269103,65466,6779,634603,0
216,-1,634744,218874,1281539,65867,8106,640696,0
216,-1,637715,219288,1342239,65945,7970,671094,0
216,-1,649985,221723,1334347,66670,8511,666998,0
216,-1,637088,218966,1333657,65295,7745,666828,0
216,-1,661725,223176,1333570,69325,8359,666870,0
216,-1,639550,219626,1346765,66311,8020,673392,0
216,-1,641317,220960,1336087,67164,8308,667660,0
217,-1,638218,218690,1346779,65548,7590,673418,0
217,-1,632904,219082,1394122,65924,8383,696997,0
217,-1,638739,219679,1203470,66014,6909,601708,0
217,-1,642347,219100,1220329,65549,8239,610209,0
217,-1,641596,221230,1230196,66239,7716,615083,0
217,-1,642242,219545,1181330,66341,7514,590715,0
217,-1,641552,220862,1240506,66901,8061,620324,0
217,-1,634614,218792,1300002,66250,8195,650028,0
218,-1,637696,218573,1179854,65461,7052,589970,0
218,-1,643768,220255,1399486,66539,8810,699523,0
218,-1,636995,219437,1220767,65956,6765,610405,0
218,-1,641373,219337,1439208,65678,9683,719301,0
218,-1,640524,220782,1267754,66074,7684,633850,0
218,-1,641951,219046,1288145,65992,7505,644159,0
218,-1,668609,224162,1417325,69594,9089,708253,0
218,-1,642428,219028,1333713,66337,7605,666936,0
219,-1,637131,219067,1203756,65568,7063,601923,0
219,-1,640814,219497,1456946,66117,9221,728392,0
219,-1,639527,219725,1246276,66039,7995,623196,0
219,-1,644103,219591,1261135,65774,9361,631410,0
219,-1,635634,218873,1176088,65178,8126,588038,0
219,-1,642974,219713,1336247,66482,6920,668178,0
219,-1,646658,219689,1344106,66297,8460,672085,0
219,-1,638893,217842,1256561,65835,7319,628317,0
220,-1,640844,218815,1394042,65589,7864,697157,0
220,-1,638695,219074,1340724,65939,8056,670405,0
220,-1,637019,219116,1416245,65800,8372,707723,0
220,-1,643397,219562,1502624,65656,10215,751610,0
220,-1,634498,218664,1482600,65013,8723,741278,0
220,-1,641005,219605,1302497,66237,7929,651327,0
220,-1,645567,219701,1385298,66332,7924,692703,0
220,-1,647659,221482,1399193,67439,8261,699690,0
221,-1,637156,218207,1281961,65537,7978,641024,0
221,-1,662130,224371,1228978,69443,7961,614577,0
221,-1,640051,221053,1405468,66754,8465,702517,0
221,-1,663466,224214,1474552,69033,10720,737114,0
221,-1,642457,221830,1307379,66379,7765,653565,0
221,-1,639873,219204,1307333,66063,8305,653701,0
221,-1,649010,220450,1425781,66568,8914,712939,0
221,-1,638638,218507,1274944,66137,7559,637502,0
222,-1,637987,218783,1187577,65610,6937,593839,0
222,-1,638787,219262,1622601,66034,9038,811378,0
222,-1,657597,224569,1211551,69393,7601,605827,0
222,-1,642233,219759,1508125,65788,9623,753897,0
222,-1,655525,223729,1356794,68514,8658,678280,0
222,-1,646229,220613,1220676,66812,7737,610420,0
222,-1,644503,219083,1219266,66105,8035,609689,0
222,-1,640564,218624,1196627,66202,7019,598348,0
223,-1,636444,218677,1286410,65626,6950,643261,0
223,-1,638004,219202,1253480,65934,7250,626787,0
223,-1,646122,220072,1164456,66097,7619,582033,0
223,-1,641636,219089,1361279,65490,9760,680752,0
223,-1,638343,220375,1198745,65791,7859,599312,0
223,-1,664472,224309,1360728,69529,8547,680401,0
223,-1,648409,221316,1224222,67164,7517,612004,0
223,-1,637799,218024,1291811,65998,7733,645522,0
224,-1,640391,219701,1202652,65892,6699,601366,0
224,-1,638925,219579,1201203,66089,7249,600524,0
224,-1,648784,222045,1353319,67071,7543,676713,0
224,-1,647740,219924,1393210,65787,9121,696340,0
224,-1,636057,219261,1317682,65314,8351,658778,0
224,-1,663586,227385,1409174,68561,7683,704706,0
224,-1,664906,224434,1421285,69601,9547,710709,0
224,-1,639231,219225,1275542,66403,7317,637824,0
225,-1,636405,218737,1237753,65604,7325,618936,0
225,-1,642405,220871,1371884,66809,7735,685898,0
225,-1,643968,220274,1396267,66203,7783,698100,0
225,-1,665420,224101,1373428,68990,9758,686598,0
225,-1,655067,223563,1354672,68501,8856,677314,0
225,-1,640451,219569,1282432,66198,7892,641264,0
225,-1,645577,219343,1326833,66192,8289,663460,0
225,-1,637163,218036,1185119,65978,6772,592602,0
226,-1,636683,218375,1222845,65646,7166,611466,0
226,-1,636743,219250,1343466,66043,7731,671758,0
226,-1,642252,219745,1327845,66053,8124,663961,0
226,-1,643019,219187,1232820,65582,8595,616256,0
226,-1,632565,218685,1157631,65117,7795,578848,0
226,-1,641132,220269,1185857,66696,7786,593008,0
226,-1,664678,224557,1400886,69685,8731,700460,0
226,-1,637229,218558,1270053,66124,6726,635082,0
227,-1,663533,227721,1247795,68446,6876,623945,0
227,-1,637579,219118,1261551,65905,8362,630937,0
227,-1,646028,221675,1320258,66980,7646,660178,0
227,-1,644840,220122,1349896,65901,9356,674908,0
227,-1,641073,219276,1185236,65327,7670,592647,0
227,-1,658495,223352,1390388,69281,9368,695134,0
227,-1,642786,219394,1181119,66243,6841,590648,0
227,-1,635813,218252,1191699,66028,6692,595904,0
228,-1,684751,235488,1338094,70098,7514,669085,0
228,-1,634259,218482,1347844,65665,8043,674637,0
228,-1,642383,219921,1313942,66143,7717,657015,0
228,-1,642348,219176,1170028,65567,7185,585009,0
228,-1,643729,221448,1148017,66253,7328,574333,0
228,-1,645247,219483,1272544,66184,8251,636329,0
228,-1,642096,219438,1299498,66202,7581,649807,0
228,-1,643939,221194,1306537,67289,8045,652910,0
229,-1,689442,237394,1254701,70754,7124,627393,0
229,-1,659065,223447,1273205,69192,7809,636644,0
229,-1,640203,219498,1302322,66021,7104,651049,0
229,-1,643354,219776,1421700,65961,9745,710925,0
229,-1,639070,219249,1335356,65270,8017,667661,0
229,-1,639503,218279,1206236,65763,8162,603160,0
229,-1,649842,220606,1249551,66820,8034,624835,0
229,-1,659753,223943,1385344,69673,8367,692713,0
230,-1,691902,238322,1269110,71209,7622,634618,0
230,-1,638212,218998,1289186,65885,7078,644659,0
230,-1,643003,220639,1343261,66576,7841,671716,0
230,-1,642422,219355,1329661,65767,8029,664826,0
230,-1,641530,220761,1246800,65903,7658,623405,0
230,-1,646353,221042,1214095,66994,7852,607109,0
230,-1,643198,219107,1266549,66107,8702,633454,0
230,-1,641037,218581,1382419,66151,8038,691214,0
231,-1,690952,238154,1262773,71051,7659,631402,0
231,-1,638769,219794,1260495,66136,7163,630179,0
231,-1,642601,219175,1222345,65891,7731,611211,0
231,-1,664179,224602,1257212,69308,8207,628580,0
231,-1,636532,219129,1294288,65231,7756,647067,0
231,-1,638259,218405,1157853,65771,7547,578979,0
231,-1,667514,224864,1416848,69750,9718,708469,0
231,-1,640051,218745,1287873,66200,6834,643871,0
232,-1,688391,237248,1278308,70727,7139,639194,0
232,-1,639989,220653,1322471,66668,7723,661272,0
232,-1,640610,218776,1273180,65759,7717,636414,0
232,-1,644743,219543,1316170,65867,8763,658042,0
232,-1,635918,218938,1335827,65146,8052,667910,0
232,-1,639250,219162,1196958,66122,7704,598426,0
232,-1,645170,219942,1305184,66381,8270,651745,0
232,-1,644649,220961,1310285,67082,7254,655000,0
233,-1,691002,237120,1319716,70719,7581,659892,0
233,-1,637741,219125,1224130,66010,7413,612154,0
233,-1,663968,224209,1290587,69332,8205,645331,0
233,-1,668687,228137,1240109,68289,8194,619872,0
233,-1,638345,219071,1534506,65168,8985,767250,0
233,-1,644156,220275,1206843,66668,7827,603447,0
233,-1,645119,220252,1292199,66468,8646,646027,0
233,-1,641520,219476,1248182,66484,7633,624147,0
234,-1,695546,237025,1301161,70584,8026,650631,0
234,-1,637442,219225,1321055,65946,7351,660573,0
234,-1,641041,219553,1322271,66042,7854,661199,0
234,-1,642830,219776,1200621,65934,7840,600276,0
234,-1,642965,221263,1311630,66277,7966,655724,0
234,-1,641431,218986,1163818,66040,7650,581953,0
234,-1,667258,228083,1425403,68763,8281,711886,0
234,-1,664038,227337,1246603,68778,7137,623393,0
235,-1,717902,242693,1440255,74221,9138,720087,0
235,-1,635236,218713,1256603,65804,6815,628352,0
235,-1,634879,217544,1244603,65350,7582,622345,0
235,-1,642448,219521,1239654,65805,8194,619686,0
235,-1,634940,218617,1414144,65058,8635,706878,0
235,-1,643447,220560,1231944,66708,7349,616036,0
235,-1,665596,224327,1388415,69639,8483,694194,0
235,-1,637900,218931,1136789,66252,7462,568436,0
236,-1,698659,238580,1380255,71308,8972,690186,0
236,-1,635791,219144,1389220,65989,7596,694661,0
236,-1,640426,219582,1371746,66027,7315,685461,0
236,-1,662012,224043,1196118,69149,8579,597978,0
236,-1,634048,218588,1255244,64990,8069,627692,0
236,-1,637596,218847,1274266,65933,8018,637187,0
236,-1,641379,219243,1240559,66193,7192,620414,0
236,-1,637761,218932,1244799,66246,7647,622422,0
237,-1,698318,240042,1491864,71957,8220,745510,0
237,-1,634134,218166,1206204,65702,6563,603121,0
237,-1,646690,222106,1353534,67169,8350,676333,0
237,-1,641348,219981,1245714,66017,8289,622848,0
237,-1,637251,220393,1249073,65920,8404,624531,0
237,-1,637162,218935,1279754,65966,8414,639933,0
237,-1,643592,220470,1308274,66541,7287,654174,0
237,-1,640081,220177,1607731,66889,9058,803666,0
238,-1,714974,241971,1368003,74052,9839,684026,0
238,-1,638243,220091,1376026,66484,7950,688112,0
238,-1,662775,223976,1294089,69189,8027,647040,0
238,-1,648129,220990,1254481,66553,8221,627130,0
238,-1,659416,224137,1353108,68664,8823,676568,0
238,-1,663091,224151,1375056,69502,8531,687554,0
238,-1,642507,219782,1227926,66312,7300,613804,0
238,-1,641204,219408,1442280,66447,8614,720493,0
239,-1,695735,238623,1340212,71289,7184,670155,0
239,-1,636713,218925,1222618,65868,7800,611365,0
239,-1,640431,219636,1175106,66012,6946,587528,0
239,-1,643497,219767,1316663,65945,8340,658294,0
239,-1,636989,218754,1213981,65063,7154,606880,0
239,-1,638334,218568,1332368,65768,6836,666270,0
239,-1,641554,219757,1264362,66289,7821,632226,0
239,-1,637176,218277,1240980,66076,7556,620530,0
240,-1,691745,237301,1281615,70729,7529,640861,0
240,-1,640235,221004,1346567,66862,8282,673402,0
240,-1,643695,221163,1316514,66735,8698,658351,0
240,-1,643692,219684,1242154,66065,7897,621159,0
240,-1,637308,219272,1312603,65224,7780,656237,0
240,-1,636597,218571,1299850,65799,7482,649982,0
240,-1,665646,223565,1454352,69314,9491,727146,0
240,-1,635844,217778,1237341,65893,8155,618474,0
241,-1,691866,237437,1258211,70714,7392,629150,0
241,-1,654973,223617,1305829,69237,8278,652880,0
241,-1,640871,219544,1321271,65913,8276,660195,0
241,-1,663869,223848,1391231,69162,8677,695641,0
241,-1,641521,220904,1308384,65989,8064,654000,0
241,-1,639692,218969,1221435,66024,7662,610767,0
241,-1,646470,220580,1244703,66854,7735,622388,0
241,-1,641173,220474,1355280,67092,8246,678353,0
242,-1,688361,237018,1338164,70570,7347,669118,0
242,-1,633606,219016,1442400,65784,7154,721076,0
242,-1,640417,219891,1207225,66157,7276,603316,0
242,-1,642327,219812,1381195,66026,8738,690757,0
242,-1,639552,219905,1502468,65529,9625,750846,0
242,-1,639702,219536,1266043,66198,7978,633110,0
242,-1,643687,218892,1202438,65979,6925,601212,0
242,-1,637261,218781,1351776,66212,8564,675907,0
243,-1,692862,237203,1268989,70635,8109,634599,0
243,-1,634027,219471,1350682,66078,7554,675326,0
243,-1,659088,224067,1195889,69314,7719,597778,0
243,-1,641557,220327,1187712,66195,7219,593886,0
243,-1,638399,219858,1329640,65446,8104,664631,0
243,-1,635498,218737,1174551,65923,7716,587271,0
243,-1,663352,224068,1433184,69542,8542,716620,0
243,-1,635979,218731,1239084,66273,7669,619321,0
244,-1,697162,239548,1366685,71725,7554,683425,0
244,-1,638539,218928,1328670,65893,7740,664385,0
244,-1,640192,220547,1220132,66349,7635,609867,0
244,-1,639504,218677,1333007,65560,8317,666488,0
244,-1,656661,223515,1352727,68380,8449,676302,0
244,-1,639028,219583,1246088,66197,7262,623093,0
244,-1,646995,220830,1383091,66887,7186,691611,0
244,-1,637943,219650,1282906,66679,7455,641472,0
245,-1,713224,241812,1347106,73981,7855,673531,0
245,-1,640034,219858,1312447,66226,7990,656237,0
245,-1,645195,220600,1273067,66556,8372,636237,0
245,-1,641305,219632,1547863,65955,9040,773976,0
245,-1,635245,219286,1324100,65285,8214,662076,0
245,-1,645859,219183,1242932,66081,7339,621533,0
245,-1,639867,218868,1197146,65982,7870,598620,0
245,-1,637428,219677,1189859,66543,7286,594971,0
246,-1,690980,237372,1268206,70701,6557,634138,0
246,-1,638086,219040,1292174,65954,7387,646140,0
246,-1,643485,220176,1210006,66269,7240,605062,0
246,-1,636975,219225,1498810,65834,9671,749453,0
246,-1,638492,219841,1309624,65484,7908,654845,0
246,-1,643314,218382,1202583,65806,8039,601348,0
246,-1,642288,219538,1238025,66218,6905,619062,0
246,-1,634682,218603,1445986,66142,8348,722901,0
247,-1,692744,237496,1287287,70802,7537,643700,0
247,-1,639997,220131,1353031,66247,7690,676555,0
247,-1,642083,219714,1333717,66041,7820,666903,0
247,-1,642071,218624,1220351,65610,8268,610036,0
247,-1,635349,219048,1243491,65219,7942,621727,0
247,-1,645489,219769,1195551,66274,7750,597808,0
247,-1,640928,219709,1197728,66281,7088,598910,0
247,-1,640211,219923,1315221,66609,8290,656619,0
248,-1,690729,237024,1218853,70677,7202,609495,0
248,-1,633443,218660,1390049,65799,7836,694859,0
248,-1,639949,219243,1215796,65944,7795,607933,0
248,-1,647347,221081,1358774,66614,8488,679393,0
248,-1,635308,219085,1206424,65263,8118,603153,0
248,-1,640269,218445,1214379,65778,8164,607234,0
248,-1,643107,220972,1257936,66901,7158,629012,0
248,-1,640699,218669,1344912,66166,9284,672484,0
249,-1,696227,239239,1370721,71636,7775,685407,0
249,-1,639245,219834,1286629,66191,7714,643365,0
249,-1,640621,219533,1397572,65993,7538,698393,0
249,-1,645034,220238,1466955,66205,9657,732969,0
249,-1,633391,218599,1380840,65052,8001,690405,0
249,-1,643621,219446,1175636,66144,7472,587767,0
249,-1,644247,219674,1338948,66274,7986,669458,0
249,-1,644411,220611,1344662,67174,8109,672384,0
250,-1,710512,241505,1343553,73832,8465,671719,0
250,-1,638746,219479,1220441,66036,7748,610270,0
250,-1,662276,224163,1298033,69313,8391,649031,0
250,-1,643174,219562,1220282,65948,7743,610153,0
250,-1,638797,220828,1305830,66046,8216,652538,0
250,-1,642188,219275,1246782,66143,8250,623310,0
250,-1,644715,220009,1463972,66392,8118,732034,0
250,-1,636359,218372,1281616,66058,7474,640866,0
251,-1,689095,236663,1350834,70523,7461,675464,0
251,-1,636811,219664,1202351,66161,7740,601150,0
251,-1,640179,219773,1265567,66068,7092,632843,0
251,-1,647081,221180,1331126,66747,8712,665204,0
251,-1,634917,219408,1329304,65273,8554,664669,0
251,-1,642278,218503,1265435,65820,7452,632670,0
251,-1,641514,218917,1292309,65993,8105,646204,0
251,-1,641032,220657,1523999,67136,9880,761960,0
252,-1,694312,238993,1388483,71464,7649,694309,0
252,-1,639519,220324,1253649,66594,7435,626880,0
252,-1,641901,219823,1209306,66086,7181,604717,0
252,-1,642494,218697,1138812,65689,8466,569423,0
252,-1,636238,219296,1480690,65284,8290,740398,0
252,-1,644343,219639,1308516,66239,7846,654253,0
252,-1,646450,221253,1206792,67073,7636,603457,0
252,-1,637905,218511,1300227,66112,7869,650160,0
253,-1,687442,236748,1264133,70437,6941,632126,0
253,-1,636214,219445,1251342,66075,7705,625725,0
253,-1,641451,219548,1329466,65890,7839,664567,0
253,-1,641257,218862,1236359,65800,9066,617670,0
253,-1,662959,228271,1351738,67859,7866,675916,0
253,-1,640541,218472,1430535,65823,8548,715088,0
253,-1,664566,224648,1428486,69671,8677,714291,0
253,-1,640944,220058,1344516,66861,8800,672241,0
254,-1,683498,235141,1243530,69972,7277,621816,0
254,-1,639107,220647,1439497,66462,8580,719787,0
254,-1,639723,219248,1208288,65933,7012,604079,0
254,-1,639950,218882,1376049,65748,8089,688024,0
254,-1,638146,220120,1302123,65561,7723,651146,0
254,-1,644264,219497,1262305,66188,7713,631124,0
254,-1,642519,220335,1239719,66456,6841,619897,0
254,-1,638159,218815,1322325,66266,8063,660819,0
255,-1,701070,239453,1378511,71698,8467,689324,0
255,-1,658572,223254,1253347,69119,8500,626630,0
255,-1,639660,219123,1268304,65861,6989,634235,0
255,-1,638662,218684,1311636,65765,9178,655341,0
255,-1,634488,218847,1356158,65035,7744,677890,0
255,-1,639818,218724,1315164,65958,7919,657583,0
255,-1,647351,221530,1317910,67170,7873,659052,0
255,-1,636104,218420,1236291,66082,7881,618194,0
