0,1,761425,266115,1449696,78480,10108,724109,0
0,-1,720220,248997,1379000,73926,8579,688900,2
0,-1,741612,253008,1472437,77007,10026,735864,0
0,1,761743,266376,1337078,78667,8420,668016,1
0,1,707476,247921,1268953,73634,8033,633919,0
0,1,717598,250658,1257465,75159,8684,628091,0
0,-1,667990,230826,1386934,69031,9252,692897,0
1,-1,714936,248330,1372780,73725,7843,686034,2
1,1,705743,247329,1373952,73441,8519,686653,1
1,1,709797,248121,1315460,73720,8860,657224,0
1,1,711546,248768,1317556,74321,8472,657873,0
1,-1,667116,231090,1453759,69149,9752,726527,0
2,1,707197,247691,1395814,73606,8904,697388,1
2,-1,662298,229860,1319169,68620,7641,659194,2
2,1,712152,250167,1386670,74590,8915,692529,0
2,1,711270,248751,1402634,74302,9693,700976,0
2,-1,668259,231791,1386865,69586,8800,692846,0
3,1,702094,247899,1235418,73694,7528,617270,1
3,-1,662150,230369,1215841,68751,7602,607578,2
3,1,712983,249963,1454066,74469,9187,726402,0
3,1,710966,248695,1391284,74308,8935,695212,0
3,-1,666991,230377,1467236,68820,9958,733005,0
4,1,709067,249841,1403129,74600,8952,700783,1
4,-1,672500,233651,1338594,70068,8100,668786,2
4,1,706716,248109,1380042,73628,8594,688987,0
4,1,712445,249283,1385730,74494,9289,692362,0
4,-1,668634,231257,1366161,69212,9074,682394,0
5,1,706496,248195,1288810,73802,8442,643891,1
5,-1,667670,230613,1194757,68929,7727,596927,2
5,1,718687,249825,1408932,74284,9283,703814,0
5,1,708335,248182,1363565,74010,9438,681463,0
5,-1,687576,235462,1426818,72367,9480,712965,0
6,1,705258,247578,1322904,73498,8832,661037,1
6,-1,667536,231973,1304152,69753,7311,651257,2
6,1,713401,248435,1287568,73744,8872,643356,0
6,1,710194,248120,1304658,74074,8355,651644,0
6,-1,667660,231427,1648559,69260,10406,823809,0
7,1,706406,248330,1378180,73676,10097,688651,1
7,-1,662992,230098,1239678,68869,8091,619414,2
7,1,713313,248629,1293782,73793,8967,646362,0
7,1,713521,249528,1374204,74559,8128,686741,0
7,-1,664971,229997,1319249,68709,8083,659275,0
8,1,710082,248639,1526369,73756,9955,762493,1
8,-1,661924,229693,1209720,68683,7600,604355,2
8,1,712822,249035,1349437,73906,9454,674317,0
8,1,708425,248261,1286214,74171,8098,642658,0
8,-1,666676,231061,1315531,69142,8503,657361,0
9,1,707167,248157,1483606,73695,10794,741124,1
9,-1,666963,230267,1297154,68918,8741,648118,2
9,1,711093,248930,1414988,73825,9348,707197,0
9,1,711239,248513,1316194,74258,8838,657596,0
9,-1,668485,231770,1246726,69336,7636,622995,0
10,1,712676,249861,1464974,74633,10178,732074,1
10,-1,669082,231420,1287375,69307,9569,643223,2
10,1,713144,248875,1364965,73806,8814,682148,0
10,1,711444,249206,1381597,74535,9167,690316,0
10,-1,668456,231405,1401480,69205,7997,700299,0
11,1,709258,248367,1423854,73937,9198,711440,1
11,-1,666484,230543,1302591,68979,7037,650831,2
11,1,709369,248340,1302049,73641,8977,650699,0
11,1,730618,252956,1425725,77568,9559,712506,0
11,-1,667102,231284,1339974,69247,10109,669593,0
12,1,707194,247747,1230134,73757,8492,614639,1
12,-1,674657,233127,1396302,69954,8742,697383,2
12,1,708626,248388,1327788,73753,9382,663504,0
12,1,712404,248198,1444599,74211,9411,721434,0
12,-1,668965,231989,1255980,69447,8313,626554,0
13,1,702194,247719,1285179,73743,8428,642092,1
13,-1,662832,229982,1407676,68732,8324,702878,2
13,1,710128,248176,1376238,73676,8560,687514,0
13,1,712573,248335,1447236,74233,9649,723250,0
13,-1,664253,230359,1204596,68887,7359,602033,0
14,1,704771,248078,1229876,73841,8031,614561,1
14,-1,663162,230454,1359206,69088,8542,679086,2
14,1,714281,249927,1418310,74458,9111,708577,0
14,1,712070,248738,1415810,74368,8836,707645,0
14,-1,669932,232876,1269769,69997,8167,634179,0
15,1,708216,248943,1411037,73966,8745,705422,1
15,1,710850,248168,1381234,73624,9106,690153,0
15,-1,667985,231253,1241047,69305,7892,620182,2
15,1,711682,248491,1541591,74303,9403,770411,0
15,-1,669184,231406,1337089,69212,7422,668179,0
16,1,711886,250371,1432366,74727,9248,715615,1
16,1,714769,250549,1384068,74685,8948,691413,0
16,-1,669748,230612,1368616,69062,8020,683943,2
16,1,730878,253244,1489305,77629,11552,744113,0
16,-1,665766,230600,1304043,68869,7447,651686,0
17,1,711054,248752,1285078,73974,8608,642178,1
17,1,709110,248183,1301298,73651,8478,650328,0
17,-1,663393,230674,1268406,69152,7415,633861,2
17,1,715747,249581,1381674,74681,9521,690099,0
17,-1,670241,232321,1381530,69687,8056,690181,0
18,1,703716,248447,1287299,73873,8685,643248,1
18,1,713887,250003,1455358,74428,8716,726993,0
18,-1,662134,230948,1289020,69221,7712,644040,2
18,1,716944,250086,1363249,75004,9948,681180,0
18,-1,663611,230349,1281385,68893,7470,640278,0
19,1,706960,249154,1445983,74094,8256,722600,1
19,1,709185,248410,1382844,73728,9175,690995,0
19,-1,665817,230967,1237887,69217,7889,618614,2
19,1,711709,248270,1468433,74199,9780,733522,0
19,-1,666935,231286,1298192,69213,7625,648730,0
20,1,707035,248365,1300881,73874,8480,650003,1
20,1,714500,250473,1413346,74646,9342,705988,0
20,-1,667734,233098,1318126,70142,8277,658288,2
20,1,711332,248469,1351905,74226,10104,675354,0
20,-1,665419,231541,1283169,69213,7803,641281,0
21,1,700614,247827,1375915,73688,8070,687521,1
21,1,730857,253630,1350192,77278,9278,674627,0
21,-1,662484,230463,1175102,69038,7643,587128,2
21,1,709943,248239,1350729,74150,10099,674673,0
21,-1,668485,231018,1203137,68942,6990,601184,0
22,1,703817,247958,1211514,73726,7649,605320,1
22,1,710869,248023,1460668,73537,9257,729913,0
22,-1,661675,230732,1323117,69067,8314,661235,2
22,1,710012,248704,1399741,74257,9163,699545,0
22,-1,688880,234850,1269165,72034,8352,634181,0
23,1,706786,247754,1340703,73599,7905,669917,1
23,1,713104,249151,1389840,74034,8748,694517,0
23,-1,664450,230729,1186585,69000,7192,592962,2
23,1,711322,249506,1380559,74510,9120,689898,0
23,-1,670706,231880,1347146,69278,7304,673137,0
24,1,706411,248207,1330529,73758,9164,664460,1
24,1,716343,250806,1416636,74764,9655,707620,0
24,-1,670846,233163,1254921,70080,8212,626853,2
24,1,712591,250108,1356113,74877,9800,677563,0
24,-1,665972,230528,1281936,68728,6748,640648,0
25,1,713576,250379,1390990,74595,8570,694866,1
25,1,711100,248802,1380809,73902,9324,689898,0
25,-1,663689,230952,1251249,69065,8489,625283,2
25,1,714764,248834,1448101,74229,9509,723554,0
25,-1,670941,232284,1316428,69571,8173,657678,0
26,1,710358,249133,1584209,74088,10955,791475,1
26,1,713555,250252,1397949,74495,8996,698455,0
26,-1,694192,240460,1277594,71941,7540,638431,2
26,1,711663,248593,1345016,74210,9516,671673,0
26,-1,667265,230655,1316378,68792,7833,657813,0
27,1,706090,248743,1306049,73832,8362,652569,1
27,1,711922,249427,1311845,74023,8785,655510,0
27,-1,669628,232678,1315505,69932,8025,657076,2
27,1,709779,248600,1406243,74202,9804,702775,0
27,-1,670539,231704,1291577,69241,7933,645434,0
28,1,712781,248641,1317216,73724,8964,657971,1
28,1,709523,248865,1416139,73779,9591,707595,0
28,-1,669232,231744,1348482,69428,8302,673772,2
28,1,714743,250441,1406303,75095,10017,701198,0
28,-1,666853,231115,1359752,69156,7979,679220,0
29,1,712977,251465,1378330,74977,9592,688430,1
29,1,708745,248756,1389116,73675,9403,694239,0
29,-1,668464,230886,1404499,69105,8601,701835,2
29,1,711648,248986,1438900,74392,9791,718566,0
29,-1,667876,231060,1284527,69161,8130,640894,0
30,1,711524,249617,1370957,74051,9942,685037,1
30,1,714423,249738,1512914,74092,9917,755939,0
30,1,709830,247908,1458971,74018,9951,729150,0
30,-1,668700,233024,1350061,70072,8147,673619,2
30,-1,668721,231788,1365963,69539,8266,682057,0
31,1,709844,248483,1326180,73588,9100,662497,0
31,1,707270,248777,1375736,73828,8604,687439,1
31,1,708433,248425,1398675,74251,8926,699343,0
31,-1,665341,231561,1474114,69284,8327,736096,2
31,-1,665884,230669,1352794,68973,8065,675994,0
32,1,729853,253583,1387930,77124,9995,693497,0
32,1,708373,248538,1307377,73855,8943,653220,1
32,1,713794,250368,1253105,75151,8677,626020,0
32,-1,668560,231305,1521127,69144,8514,760251,0
32,-1,665064,230881,1273961,69082,7046,636629,2
33,1,709423,249142,1343648,73920,8759,671373,0
33,1,733123,257052,1457830,76293,9339,728334,1
33,1,730268,253506,1390111,77704,9183,694629,0
33,-1,669360,232053,1364526,69621,8192,681246,0
33,-1,665937,231273,1325497,69177,8536,662644,2
34,1,731571,253839,1365692,77214,9867,682286,0
34,1,709924,248014,1277176,73727,8584,638138,1
34,1,713137,249819,1283575,74912,8869,641178,0
34,-1,663105,229629,1273462,68730,7871,636275,0
34,-1,668596,231526,1320354,69208,8625,659855,2
35,1,710996,250304,1378003,74266,9018,688547,0
35,1,707979,248662,1288721,73856,8380,643907,1
35,1,708307,248660,1273725,74214,8917,636568,0
35,-1,664081,230387,1467553,68805,8429,733137,0
35,-1,664453,230741,1319326,68863,7636,659216,2
36,1,704862,248440,1311418,73574,8563,655299,0
36,1,709969,247958,1283152,73710,8990,641049,1
36,1,705765,246982,1217274,73695,8046,608299,0
36,-1,671550,233167,1335939,70096,7978,666930,0
36,-1,667947,231438,1299297,69251,7778,648354,2
37,1,707967,249408,1432333,73997,8984,715701,0
37,1,705546,247831,1360676,73514,8849,679765,1
37,1,704805,247031,1272238,73820,9036,635807,0
37,-1,666294,231338,1321015,69320,7866,659995,0
37,-1,668377,232829,1341053,69868,8675,670037,2
38,1,710074,250474,1510651,74494,9021,754649,0
38,1,706569,247686,1426909,73431,9337,713100,1
38,1,709185,249201,1293670,74771,9384,646191,0
38,-1,663783,230796,1288115,69032,7081,643258,0
38,-1,666877,231040,1324098,69031,8719,661692,2
39,1,736892,253567,1381078,77113,9524,690086,0
39,1,705959,248046,1440569,73556,10046,720141,1
39,1,704561,247620,1464901,73997,9461,732009,0
39,-1,668564,232359,1304200,69789,7706,651523,0
39,-1,668443,231433,1364008,69198,7637,681342,2
40,1,719040,250392,1376845,74485,9580,687603,0
40,1,717152,251702,1418596,74982,9343,708735,1
40,1,706377,248230,1361977,74110,9472,680536,0
40,-1,664418,231029,1292205,69054,7419,645608,0
40,-1,670771,231147,1296740,69207,8783,648049,2
41,1,713260,249060,1306086,73839,9330,652665,0
41,1,703277,247571,1362139,73434,8903,680525,1
41,1,717146,248760,1285482,74351,8920,642082,0
41,-1,664007,231083,1293911,69135,7861,646566,0
42,1,719164,251052,1410155,74681,9389,704324,0
42,1,708279,248301,1348967,73616,8733,673935,1
42,1,735225,252461,1432467,77154,9674,715820,0
42,-1,669733,231071,1304764,69110,7648,652089,0
43,1,714389,249323,1293685,73945,8704,646306,0
43,1,711194,249498,1353294,74288,8710,676078,1
43,1,713746,247730,1335080,73845,9080,667207,0
43,-1,669503,231313,1309378,69143,7421,654338,0
44,1,716849,249899,1290006,74192,8900,644527,0
44,1,714089,250015,1287343,74459,8753,643086,1
44,1,714895,248659,1371825,74114,9553,685367,0
44,-1,667719,230735,1255809,68971,7222,627595,0
45,1,711770,248548,1449022,73608,9128,724107,0
45,1,709900,247759,1406177,73477,9760,702282,1
45,1,733156,252641,1454822,77215,10657,727017,0
45,-1,687042,235608,1322413,72391,8221,660789,0
46,1,718403,250927,1517541,74715,9807,758020,0
46,1,708182,247649,1524118,73374,9546,761636,1
46,1,712728,247482,1377450,73667,9644,688286,0
46,-1,665290,230712,1201036,69008,7093,600113,0
47,1,715682,249133,1361164,73879,8135,680138,0
47,1,712022,247778,1383025,73445,8625,691105,1
47,1,712700,248081,1517786,73927,9523,758393,0
47,-1,664308,230678,1295924,69014,6702,647623,0
48,1,713526,248739,1399435,73933,8818,699206,0
48,1,700209,247928,1358739,73061,7902,678947,1
48,1,712869,247859,1381119,73879,9501,690109,0
48,-1,684576,234809,1205806,72135,7783,602501,0
49,1,715552,249310,1304765,73954,8637,652103,0
49,1,704324,248694,1243157,73283,7846,621225,1
49,1,715427,249490,1338553,74651,9327,668750,0
49,-1,663362,230321,1202489,68875,7191,600914,0
50,1,713643,248823,1399855,73746,8612,699527,0
50,1,699991,247836,1442421,73015,9314,720944,1
50,1,732071,252341,1462674,77126,9844,730975,0
50,-1,664292,230673,1150794,69029,7238,575120,0
51,1,719735,251316,1450411,74822,9619,724496,0
51,1,701557,247702,1324920,73146,9539,662148,1
51,1,712303,247733,1276540,73831,8983,637717,0
51,-1,695185,240800,1375694,72072,7537,687459,0
52,1,712929,249021,1286382,73812,8080,642735,0
52,1,702567,247460,1397827,73870,8309,698566,1
52,1,710257,247558,1292369,73744,8647,645572,0
52,-1,666885,231334,1205732,69239,7257,601988,0
53,1,716799,250776,1382225,74751,9004,690353,0
53,1,712334,249902,1295561,74914,9646,647066,1
53,1,712162,247955,1316588,73887,8896,657975,0
53,-1,667776,231874,1311801,69517,7478,655300,0
54,1,713309,249057,1411051,73978,9031,705038,0
54,1,707750,248590,1387835,74284,10063,693162,1
54,1,711164,247545,1394222,73818,8869,696681,0
54,-1,663609,230619,1315029,68971,7405,657144,0
55,1,710487,248644,1413548,73872,8181,706306,0
55,1,705686,247354,1361887,73800,8829,680552,1
55,1,717182,249386,1388121,74596,9256,693250,0
55,-1,667183,231404,1295133,69253,7129,647195,0
56,1,711603,248643,1296715,73939,8415,647731,0
56,1,707760,249215,1243495,74757,9200,620812,1
56,1,712869,248202,1396128,73976,9225,697627,0
56,-1,664576,231266,1552080,69209,8630,775094,0
57,1,714127,248951,1365922,74063,7967,682493,0
57,1,706744,247637,1354536,74000,9763,676635,1
57,1,710321,247378,1360367,73740,9234,679845,0
57,-1,663304,231326,1317561,69188,7794,657997,0
58,1,736006,253982,1361984,77490,9756,680561,0
58,1,709070,247366,1310253,73879,8781,654634,1
58,1,713280,247693,1394098,73758,9224,696579,0
58,-1,664225,230416,1302283,68925,8686,650706,0
59,1,711254,248383,1358963,73780,8984,679099,0
59,1,710897,248012,1308356,74083,9534,653516,1
59,1,710509,247519,1423483,73804,9586,711290,0
59,-1,668419,232042,1384887,69626,8858,691970,0
60,1,710222,248550,1431752,73796,9276,715441,0
60,1,703084,247523,1354921,73934,8804,677293,1
60,1,711149,248383,1368979,74062,9406,684115,0
60,-1,663111,230424,1365171,68891,8742,682309,0
61,1,714509,249252,1385765,74140,8248,692458,0
61,1,708755,248416,1243869,74181,9050,621466,1
61,1,707847,247354,1233130,73709,8568,616059,0
61,-1,664012,231180,1310325,69115,8293,654241,0
62,1,711815,249286,1401279,74154,8456,700251,0
62,1,703834,247142,1361366,73780,8939,680292,1
62,1,710226,248107,1305280,73965,8945,652141,0
62,-1,684950,235449,1362605,72352,9030,680951,0
63,1,710526,249236,1283261,74085,8198,641186,0
63,1,706616,247634,1398971,73952,8932,698942,1
63,1,709294,248063,1324902,73987,9691,662094,0
63,-1,662473,230631,1345684,69004,8444,672442,0
64,1,714160,248848,1341775,74032,9207,670472,0
64,1,705702,247800,1424876,74038,9229,711980,1
64,1,710349,247246,1344560,73643,9816,671830,0
64,-1,665108,232208,1348237,69689,8236,673631,0
65,1,714981,249326,1294487,74189,8401,646765,0
65,1,710406,248480,1270571,74198,8466,634644,1
65,1,728829,251956,1446229,76953,9549,722552,0
65,-1,672948,231471,1328514,69276,8505,663390,0
66,1,712888,248583,1412839,73891,8769,705978,0
66,1,714780,249593,1374398,74718,9372,686385,1
66,1,708653,247914,1346843,73846,8429,673054,0
66,-1,674306,232295,1370179,69807,9601,684425,0
67,1,716388,250458,1516446,74727,9452,757411,0
67,1,712677,248839,1284191,74364,8659,641412,0
67,1,706209,247552,1358696,73792,8649,678881,1
67,-1,670692,231043,1355891,69094,8878,677247,0
68,1,734903,253855,1357301,77387,9515,678259,0
68,1,707660,247460,1367443,73745,9173,683298,0
68,-1,671045,231244,1349045,69194,9037,674110,0
68,1,710942,248893,1427847,74496,9106,713760,1
69,1,714140,248930,1405153,73971,9781,702184,0
69,1,706449,247377,1285375,73697,8824,642198,0
69,-1,670409,231390,1304064,69269,8606,650736,0
69,1,712420,249072,1297886,74414,9140,648415,1
70,1,729244,252552,1441059,76816,9456,719972,0
70,1,709102,248166,1402647,73924,9204,700911,0
70,-1,667992,230616,1333784,68916,8614,666245,0
70,1,712481,249252,1472358,74469,10045,735860,1
71,1,710197,248804,1359943,73903,8774,679506,0
71,1,732270,252169,1546779,77073,10126,772987,0
71,-1,668011,230698,1296210,69023,8350,647816,0
71,1,709346,248192,1397790,74022,9173,698535,1
72,1,706322,247796,1379972,73566,9270,689586,0
72,1,709847,247700,1403891,73846,8063,701320,0
72,-1,666972,230442,1279800,68911,7844,639405,0
72,1,710879,248723,1428546,74211,9693,713873,1
73,1,705596,247813,1307181,73669,8744,653120,0
73,1,713388,249149,1296560,74687,9211,647742,0
73,-1,667281,230481,1455796,68912,8120,727237,0
73,1,714315,250694,1339620,75084,9312,669133,1
74,1,708598,247278,1330636,73429,8774,664843,0
74,1,708383,247502,1306699,73844,9177,652869,0
74,-1,666159,230322,1405235,68873,8672,702070,0
74,1,707138,248133,1416443,73985,9211,707875,1
75,1,712378,249052,1316547,74232,8910,657566,0
75,1,707026,246923,1337393,73645,8870,668189,0
75,-1,687435,235408,1320192,72378,9058,659321,0
75,1,711165,248809,1390832,74202,9381,694938,1
76,1,710962,248339,1295075,73676,9198,647185,0
76,1,710183,248439,1249640,74378,8715,624171,0
76,-1,667173,230645,1349817,69011,8367,674492,0
76,1,710758,249844,1401865,74484,8598,700517,1
77,1,712297,248394,1267876,73645,8210,633464,0
77,1,713909,249051,1241652,74613,9045,620135,0
77,-1,671880,231363,1364276,69199,8680,681898,0
77,1,716338,250562,1310144,75150,8580,654307,1
78,1,713868,249610,1607949,74280,9128,803202,0
78,1,730665,252022,1343151,77169,9660,671087,0
78,-1,669477,230796,1329894,69059,8499,665012,0
78,1,712889,248053,1415335,74052,8275,707270,1
79,1,710398,247881,1440753,73494,9425,719917,0
79,1,710307,247900,1439993,74231,8120,719229,0
79,-1,669634,230733,1429922,69006,8549,714983,0
79,1,718925,250415,1403095,75018,8876,700749,1
80,1,713839,249936,1416343,74442,9143,707575,0
80,1,709195,247735,1492204,73968,9001,745978,0
80,-1,673566,232944,1570512,70055,9001,783059,0
80,1,705525,246725,1326147,73516,9379,662696,1
81,1,728675,252523,1451231,76820,9763,724719,0
81,1,714674,249219,1311575,74664,8789,655126,0
81,-1,667177,230974,1330659,69016,8284,665102,0
81,1,709953,248327,1441789,74038,10111,720283,1
82,1,710555,248804,1445284,73831,9184,722143,0
82,1,708918,248313,1288615,74294,8281,643715,0
82,-1,665520,230677,1297184,69026,8062,647987,0
82,1,709770,247695,1364785,73764,9506,681849,1
83,1,712993,248846,1554404,73836,9746,776238,0
83,1,708800,247844,1409446,73945,8121,704188,0
83,-1,667959,230794,1262592,69088,7577,630922,0
83,1,710314,248003,1314932,73978,8510,657112,1
84,1,706623,246836,1402271,73205,8759,700709,0
84,1,731782,255943,1533456,76369,9106,766239,0
84,-1,666252,230242,1388900,68829,8147,694053,0
84,1,713475,248574,1456113,74330,9263,727468,1
85,1,713634,249873,1437307,74391,9895,717919,0
85,1,708065,247880,1353228,73945,9153,676251,0
85,-1,667308,231056,1231332,69103,7995,615140,0
85,1,710902,247581,1281055,74069,9233,640141,1
86,1,708201,247719,1381660,73473,9801,690354,0
86,1,713096,248298,1369992,74110,9847,684567,0
86,-1,665599,231393,1275628,69213,8823,636767,0
86,1,700134,246717,1356471,73839,9004,677801,1
87,1,706558,247657,1361322,73449,9757,680016,0
87,1,712748,248057,1488567,74038,9618,743835,0
87,-1,669991,231019,1255614,69126,8542,627415,0
87,1,707108,248757,1452996,74673,10593,725357,1
88,1,709104,247918,1511129,73553,9219,755298,0
88,1,712105,248739,1332671,74471,8991,665624,0
88,-1,672942,232349,1333253,69776,9029,665667,0
88,1,707373,248002,1422968,74177,11026,710806,1
89,1,714467,250384,1659607,74659,10062,827495,0
89,1,709781,247793,1319669,74001,9587,659335,0
89,-1,690401,235500,1316655,72359,9161,657770,0
89,1,704964,247301,1458212,73909,9724,727994,1
90,1,707749,248197,1362932,73568,9529,681189,0
90,1,709084,247375,1260213,73833,9017,629552,0
90,-1,670988,231864,1372817,69409,9034,686461,0
90,1,703733,247403,1269920,74022,8829,634420,1
91,1,711704,249486,1454002,74252,9175,725488,0
91,1,707377,247445,1313833,73850,8125,656402,0
91,-1,669465,231383,1418323,69276,8948,708729,0
91,1,707814,247771,1381332,74131,8156,690234,1
92,1,706577,248169,1423752,73618,9352,711477,0
92,1,706278,247089,1421400,73555,7890,710247,0
92,-1,670990,231799,1325723,69569,7314,662408,0
92,1,706323,247724,1485349,74003,10572,742171,1
93,1,735214,253343,1472370,77156,10926,735318,0
93,1,710872,248569,1315428,74318,8524,657135,0
93,-1,668625,231154,1270788,69222,7233,635009,0
94,1,710624,248785,1377048,73823,9806,687971,0
94,1,703110,246455,1371199,73484,8750,685203,0
94,-1,691188,235661,1270173,72439,8072,634655,0
95,1,709470,248074,1444364,73696,9622,721755,0
95,1,707965,247524,1323621,73911,8825,661413,0
95,-1,669850,231526,1336660,69304,7268,668014,0
96,1,712101,249613,1469897,74448,9750,733977,0
96,1,705686,247541,1499484,73871,9254,749167,0
96,-1,665127,229995,1311645,68837,7391,655313,0
97,1,728826,252510,1422478,76952,10056,710721,0
97,1,706185,247373,1388347,73826,9955,693786,0
97,-1,668445,231250,1272532,69203,7503,635898,0
98,1,706993,247942,1467946,73618,8779,733348,0
98,1,709969,249222,1320403,74706,9834,659487,0
98,-1,670621,232888,1304943,69998,7767,652012,0
99,1,708765,247937,1419214,73605,9158,709173,0
99,1,726653,252129,1411917,77224,10362,705418,0
99,-1,662886,230173,1284658,68804,6990,642060,0
100,1,707488,248353,1275959,73642,7642,637487,0
100,1,713318,247375,1385496,73867,8622,692360,0
100,-1,670892,232036,1333673,69641,7684,666254,0
101,1,732493,257367,1510828,76366,8378,755023,0
101,1,712642,247946,1410541,74088,9022,704738,0
101,-1,667067,230437,1328605,68903,7473,663884,0
102,1,710169,249811,1476534,74324,8423,737745,0
102,1,711874,248672,1349868,74351,8236,674172,0
102,-1,667279,231841,1210878,69405,7054,604956,0
103,1,712050,249336,1320417,73997,8147,659590,0
103,1,710551,247749,1363806,73977,9262,681524,0
103,-1,667207,231883,1301760,69570,7565,650388,0
104,1,728707,252784,1354650,76918,9170,676970,0
104,1,710013,246847,1247578,73622,8504,623296,0
104,-1,665805,230960,1157440,69063,7470,578371,0
105,1,712095,249187,1334191,73913,8153,666763,0
105,1,712502,248137,1283505,74100,8964,641243,0
105,-1,667038,231101,1256149,69152,8571,627721,0
106,1,707213,248912,1418598,73877,8071,709025,0
106,1,710507,248378,1258580,74321,8768,628699,0
106,-1,670382,232673,1313105,69906,8707,655991,0
107,1,707675,248333,1238951,73686,8677,618981,0
107,1,707058,247195,1329326,73716,8023,664212,0
107,-1,686346,235725,1210111,72439,8234,604693,0
108,1,706214,248102,1312395,73557,9023,655729,0
108,1,709590,248363,1331392,74125,8659,665234,0
108,-1,667084,232127,1236782,69659,8029,617892,0
109,1,705076,247695,1414020,73446,8539,706597,0
109,1,731545,251788,1501176,77065,10395,750213,0
109,-1,663781,230627,1167186,69006,7800,583261,0
110,1,709458,250089,1545729,74499,9409,772011,0
110,1,708292,247209,1405340,73785,8941,702173,0
110,-1,664474,231545,1250429,69317,7967,624894,0
111,1,725131,252959,1543690,76965,11355,771340,0
111,1,711087,248521,1290993,74307,8601,644910,0
111,-1,666723,230483,1207641,68971,7120,603412,0
112,1,712784,248121,1461553,73549,10221,730541,0
112,1,727026,251831,1427543,77062,9729,713326,0
112,-1,669723,230984,1233348,69137,7573,616328,0
113,1,712777,248455,1514032,73698,11209,756169,0
113,-1,668684,230919,1209399,69085,7159,604341,0
113,1,711094,247921,1398564,73994,8606,698964,0
114,1,716060,249484,1493276,74189,10534,745757,0
114,-1,670346,232425,1315843,69839,7577,657072,0
114,1,709197,247634,1454320,73952,8971,726415,0
115,1,711318,248416,1312170,73763,8032,655702,0
115,-1,686006,235226,1261558,72291,8188,630131,0
115,1,707673,247160,1379666,73762,8911,689403,0
116,1,713007,249783,1393074,74426,8803,695733,0
116,-1,669231,231140,1507380,69128,8189,753308,0
116,1,727498,252040,1469018,77205,9977,733952,0
117,1,711386,248752,1514029,73946,9868,756709,0
117,-1,668116,231156,1499973,69205,9159,748854,0
117,1,709907,247352,1358142,73851,8985,678669,0
118,1,708225,248269,1557628,73723,11068,778589,0
118,-1,665030,230356,1214196,68941,7231,606741,0
118,1,714228,249633,1295680,74844,8764,646924,0
119,1,705058,246844,1414124,73230,10095,706691,0
119,-1,665737,230568,1325673,68953,7411,662522,0
119,1,710014,247690,1355897,73974,8743,677624,0
120,1,710409,248235,1469587,73657,10740,734396,0
120,-1,667185,230903,1230260,69080,7346,614780,0
120,1,710869,248482,1258464,74440,9059,628557,0
121,1,712821,249465,1551051,74312,10257,775074,0
121,-1,685733,235287,1275057,72314,7907,637208,0
121,1,707973,246697,1279082,73620,8700,639060,0
122,1,707199,247906,1768572,73652,11774,883927,0
122,-1,669610,231395,1454091,69278,9133,726548,0
122,1,711799,248351,1297186,74130,9424,648200,0
123,1,730095,252323,1510901,76843,11007,755148,0
123,-1,670240,232677,1329396,69949,8128,664077,0
123,1,710649,248574,1293941,74412,8495,646224,0
124,1,710373,249210,1576983,74236,11271,787732,0
124,-1,687561,235288,1256647,72269,8449,627888,0
124,1,706534,247288,1384270,73836,9169,692010,0
125,1,706594,248136,1362615,73679,8406,681019,0
125,-1,667312,231157,1331564,69190,7474,665421,0
125,1,707848,247598,1299814,73904,8286,649417,0
126,1,711477,249828,1441456,74498,9349,720066,0
126,-1,664388,230477,1160384,68971,7471,579774,0
126,1,711286,249133,1313489,74640,9205,656113,0
127,1,710559,248006,1354326,73519,10115,676718,0
127,-1,667439,231689,1234259,69518,8124,616541,0
127,1,704492,247285,1422693,73766,9031,710994,0
128,1,714192,249466,1426240,74180,10071,712289,0
128,-1,667673,230956,1295883,69043,8350,647566,0
128,1,726279,251737,1443520,77055,10150,721211,0
129,1,714550,249846,1869512,74444,12500,933332,0
129,-1,686539,235164,1216842,72253,8116,607899,0
129,1,705141,246967,1427345,73684,9487,713297,0
130,1,709160,248087,1460020,73725,10662,729400,0
130,-1,664401,230720,1227754,68996,7825,613472,0
130,1,705871,248416,1281537,74342,8924,640096,0
131,1,708786,248059,1516364,73693,10373,757793,0
131,-1,664283,230429,1161209,68831,7140,580271,0
131,1,712100,248016,1287692,74109,8534,643211,0
132,1,712310,250102,1574811,74630,10330,786531,0
132,-1,668671,232262,1298100,69673,8738,647820,0
132,1,709797,247226,1399329,73779,8873,699335,0
133,1,705446,247891,1499979,73627,9888,749506,0
133,-1,665903,231882,1320555,69390,7867,659240,0
133,1,714575,249516,1300817,74796,8458,649667,0
134,1,710989,248097,1402087,73679,10004,700617,0
134,-1,662238,230561,1421521,68932,8465,710185,0
134,1,730573,252084,1434710,77219,10151,716895,0
135,1,713860,249820,1454420,74480,9906,726355,0
135,-1,669715,232787,1433825,69926,8625,715198,0
135,1,707820,246944,1270591,73763,8833,634773,0
136,1,709012,248185,1517062,73766,10272,758032,0
136,-1,667004,230491,1377302,68967,8524,688246,0
136,1,710017,247789,1388929,74027,9110,693824,0
137,1,711405,249473,1407153,74361,10531,702960,0
137,-1,667721,231136,1347481,69125,8240,673325,0
137,1,707288,247263,1270770,73779,8654,634987,0
138,1,707323,247937,1341616,73704,10193,670342,0
138,-1,666240,230223,1338996,68781,7959,669191,0
138,1,727625,252156,1454935,77235,10394,727071,0
139,1,706900,247852,1322777,73567,9420,661082,0
139,-1,667968,231358,1322546,69255,8299,661023,0
139,1,709861,247251,1350550,73870,8969,674831,0
140,1,727725,252861,1338846,77077,9452,668946,0
140,-1,669780,232505,1398007,69855,8695,698420,0
140,1,705168,246923,1353936,73627,8593,676519,0
141,1,703685,247504,1384345,73492,8552,691658,0
141,-1,666059,230714,1226370,68978,7580,612808,0
141,1,705830,246669,1482430,73503,9294,740593,0
142,1,709839,249799,1386989,74456,8710,692872,0
142,-1,664994,230695,1221168,69039,7462,610158,0
142,1,711404,249190,1421507,74655,9088,709919,0
143,1,727253,252889,1320716,77054,9360,659936,0
143,-1,664684,230468,1340600,68941,7905,670002,0
143,1,705792,247222,1386351,73787,9355,692751,0
144,1,704520,248002,1362568,73677,8718,680882,0
144,-1,665995,231397,1307906,69255,7989,653502,0
144,1,711865,248849,1292655,74510,8462,645810,0
145,1,709856,247837,1261798,73587,8062,630602,0
145,-1,664811,230862,1352098,69036,7491,675656,0
145,1,706798,247538,1344768,73868,8727,671986,0
146,1,708729,247561,1391179,73518,8601,695275,0
146,-1,664900,230559,1278790,68939,7023,638988,0
146,1,706066,247486,1355820,73868,8213,677555,0
147,1,708337,247991,1247253,73556,8185,623328,0
147,-1,696934,242289,1372836,72824,8615,685789,0
147,1,706463,248008,1348483,73966,8644,673773,0
148,1,707373,248198,1264876,73630,7993,632009,0
148,-1,687011,235871,1263986,72516,8147,631315,0
148,1,706757,248280,1304468,74306,9134,651691,0
149,1,708006,247526,1259622,73392,7735,629518,0
149,-1,666837,232041,1298950,69622,8431,648870,0
149,1,731782,257152,1470036,76762,9992,734442,0
150,1,712868,249887,1435248,74442,9295,716989,0
150,-1,662933,230836,1228798,69036,7410,613971,0
150,1,707634,246876,1390267,73566,9170,694795,0
151,1,728471,252455,1407637,76893,10011,703084,0
151,-1,666751,230996,1172028,69086,7192,585675,0
151,1,706508,247164,1310989,73770,9238,654973,0
152,1,706721,248050,1363631,73686,7873,680900,0
152,-1,684186,235282,1236257,72297,8269,617832,0
152,1,705539,246988,1348825,73691,8652,673866,0
153,1,707812,248803,1267129,73954,8195,633159,0
153,-1,664756,231050,1253528,69139,7764,626456,0
153,1,704830,247431,1419991,73784,8734,709608,0
154,1,704575,247924,1244935,73643,8088,621969,0
154,-1,663455,230807,1299341,69023,8090,649415,0
154,1,709941,249432,1279935,74825,8067,639250,0
155,1,713548,249748,1335651,74510,9698,666849,0
155,-1,666560,232111,1326786,69636,7916,662826,0
155,1,707255,247438,1440623,73891,9289,719794,0
156,1,731070,252929,1478225,77093,9647,738715,0
156,-1,663201,230827,1202989,69091,7340,601353,0
156,1,704379,247128,1395605,73787,9076,697127,0
157,1,707973,247811,1355078,73639,8602,676809,0
157,-1,662212,230739,1362389,69069,7938,680753,0
157,1,704683,247273,1306109,73790,8808,652694,0
158,1,709172,248398,1402118,73790,9526,700324,0
158,-1,662778,231080,1226928,69121,7629,613093,0
158,1,705192,247043,1411759,73709,9668,705649,0
159,1,727879,252900,1375415,77065,9647,686914,0
159,-1,683191,235310,1234991,72328,7718,617036,0
159,1,725504,252397,1424930,77305,10316,712195,0
160,1,709013,248597,1327977,73872,8337,663560,0
160,-1,668125,230262,1310921,68818,8731,655243,0
160,1,705269,247400,1369550,73872,9566,684311,0
161,1,704223,247356,1259984,73431,7935,629697,0
161,-1,668443,230937,1229732,69124,8093,614472,0
161,1,706086,248359,1278024,74312,9095,638317,0
162,1,703686,247591,1354523,73511,8060,676881,0
162,-1,665270,230189,1320450,68817,7927,659575,0
162,1,712461,247593,1328454,73965,9281,663717,0
163,1,707292,249201,1456414,74235,8607,727901,0
163,-1,665399,230468,1336183,68950,7717,667798,0
163,1,709816,247343,1297454,73818,9255,648323,0
164,1,711073,249495,1417573,74398,8780,708214,0
164,-1,664344,230172,1287988,68807,7289,643643,0
164,1,712739,249099,1262449,74676,9172,630427,0
165,1,710131,248841,1362787,73969,8406,681114,0
165,-1,668112,231349,1235712,69247,7803,617127,0
165,1,731654,251979,1379619,77164,10526,689372,0
166,1,707297,247876,1356389,73596,8022,677860,0
166,-1,670724,231663,1325677,69502,8294,662321,0
166,1,711935,247697,1395904,73965,9151,697526,0
167,1,709684,249124,1363100,74191,7875,681085,0
167,-1,667027,230993,1419969,69120,8043,709544,0
167,1,712165,247895,1367339,73971,8881,683116,0
168,1,707417,248661,1403415,73851,7896,701392,0
168,-1,664794,230635,1305572,68908,7706,652351,0
168,1,709655,247660,1366680,73970,8895,682888,0
169,1,707460,248367,1291717,73860,8586,645504,0
169,-1,668589,232308,1324466,69690,7966,661683,0
169,1,712119,248124,1299030,74108,8503,649179,0
170,1,705470,246889,1219887,73407,7546,609627,0
170,-1,664746,230950,1220841,69089,7829,610038,0
170,1,729762,251833,1414074,77088,9780,706633,0
171,1,705741,248372,1272592,73803,8419,635895,0
171,-1,687756,235324,1249569,72352,7952,624266,0
171,1,710729,247526,1465330,73906,9447,732221,0
172,1,703684,247569,1250649,73529,7897,624921,0
172,-1,666945,231358,1283106,69183,8106,641107,0
172,1,713699,249268,1320632,74745,9188,659623,0
173,1,704058,247948,1282385,73629,7464,640873,0
173,-1,668002,231066,1209779,69143,7253,604400,0
173,1,709347,247551,1363077,73913,8830,681072,0
174,1,708805,250007,1416803,74608,8959,707860,0
174,-1,666164,230778,1259793,69019,7418,629302,0
174,1,707253,246922,1413588,73653,9369,706321,0
175,1,707158,247972,1349141,73683,7896,674212,0
175,-1,666123,231418,1245653,69269,7342,622472,0
175,1,712667,249079,1320467,74602,8770,659618,0
176,1,707463,248853,1264576,73985,7257,631903,0
176,-1,669739,231927,1314784,69651,8632,656730,0
176,1,707860,247684,1393682,73951,9441,696389,0
177,1,706274,248253,1441451,73764,8237,720376,0
177,-1,687526,235301,1297863,72327,9010,648463,0
177,1,708302,247988,1402938,74062,9309,700776,0
178,1,725767,252190,1442400,76825,9798,720764,0
178,-1,665147,230645,1321434,68958,7585,660421,0
178,1,708254,246978,1304127,73690,9926,651360,0
179,1,704032,247872,1348550,73627,9198,673440,0
179,-1,666106,230935,1322341,69053,7984,660831,0
179,1,713038,249315,1305149,74673,9581,651634,0
180,1,708397,249782,1458124,74532,9606,728534,0
180,-1,664384,230707,1274962,69037,7285,636491,0
180,1,709611,247811,1356452,74015,8891,677141,0
181,1,706914,249292,1505625,74075,8959,752585,0
181,-1,665178,231146,1286543,69175,7686,642879,0
181,1,708000,247108,1428793,73674,9877,713988,0
182,1,703478,248005,1512378,73655,8959,755926,0
182,-1,664550,230528,1314632,68933,7372,657063,0
182,1,712183,249263,1360900,74594,10199,679770,0
183,1,712976,247621,1477878,73564,9553,738483,0
183,-1,666533,231683,1346233,69324,7571,672747,0
183,1,708775,247403,1369147,73871,9146,684133,0
184,1,711274,247998,1372435,73675,9416,685816,0
184,-1,669260,232823,1339011,69956,8327,668879,0
184,1,705865,246760,1377353,73564,9152,688264,0
185,1,731802,252485,1508730,76908,10448,753918,0
185,-1,685261,235788,1271742,72477,8629,635508,0
185,1,709553,247423,1438777,73830,9813,718837,0
186,1,712495,248794,1448961,74131,10048,724016,0
186,-1,668922,231265,1235739,69225,7567,617550,0
186,1,710869,248917,1323802,74554,9138,661531,0
187,1,711855,249030,1417345,74060,9139,708278,0
187,-1,666948,230914,1371947,69057,7591,685613,0
187,1,706088,246877,1262125,73672,8506,630703,0
188,1,715371,249501,1430039,74446,9556,714187,0
188,-1,668589,231872,1380735,69409,7670,690012,0
188,1,712576,249240,1387987,74628,9362,693317,0
189,1,710796,248080,1447819,73702,8831,723542,0
189,-1,668111,231210,1237629,69206,7542,618385,0
189,1,707495,247986,1471518,74026,9385,735314,0
190,1,711573,249364,1435168,74337,9063,716934,0
190,-1,670670,232571,1317870,69855,7807,658361,0
190,1,705298,247462,1385425,73852,9336,692319,0
191,1,710246,248186,1312908,73775,8223,656095,0
191,-1,687103,235290,1299516,72359,7810,649020,0
191,1,707421,247208,1268833,73816,8839,633691,0
192,1,711107,249054,1552844,74047,8731,775265,0
192,-1,664521,230502,1300387,68908,7564,649852,0
192,1,709310,248582,1365022,74425,7938,681938,0
193,1,712633,249135,1449984,74242,9486,724093,0
193,-1,667555,230897,1201101,69102,7610,600180,0
193,1,711501,247667,1287418,73962,9235,643189,0
194,1,711487,248475,1427316,73862,9225,713234,0
194,-1,665287,230513,1303729,68935,7098,651463,0
194,1,710548,247555,1312830,73945,8930,656044,0
195,1,707319,247387,1429412,73421,9596,713907,0
195,-1,684220,235133,1278523,72305,8162,638453,0
195,1,709243,247688,1333188,73905,8637,666112,0
196,1,729701,252753,1499178,77070,10323,749122,0
196,-1,666497,231344,1348676,69240,7277,673967,0
196,1,710108,247648,1358523,73904,9223,678879,0
197,1,706461,247153,1422857,73478,9065,710696,0
197,-1,662072,230272,1300304,68920,8055,649889,0
197,1,710930,248068,1517374,73988,9036,758256,0
198,1,711100,249610,1364728,74400,9061,681137,0
198,-1,665672,230215,1206149,68905,7044,602757,0
198,1,709919,248050,1419609,74250,8968,709264,0
199,1,710875,248818,1460310,74003,9418,729752,0
199,-1,665115,230852,1229720,69106,7807,614539,0
199,1,707266,247475,1339586,73808,8589,669400,0
200,1,709853,249022,1329960,74205,9757,664190,0
200,-1,665682,230983,1177010,69189,7633,588097,0
200,1,712050,248575,1348609,74356,8890,673501,0
201,1,705836,247948,1280659,73659,9289,640000,0
201,-1,664779,231082,1249898,69187,7871,624554,0
201,1,730452,252490,1528326,77355,9789,763745,0
202,1,710854,247981,1272145,73676,9324,635582,0
202,-1,661052,230139,1290073,68900,7468,644705,0
202,1,705577,246910,1319813,73656,9141,659551,0
203,1,706656,247227,1412560,73377,8011,705885,0
203,-1,664396,230711,1302200,69117,8170,650708,0
203,1,707180,247868,1455654,74010,9342,727456,0
204,1,710580,248769,1332723,73984,8239,665958,0
204,-1,682765,234731,1263044,72185,9292,631133,0
204,1,707103,248069,1378634,74202,8499,688840,0
205,1,706287,247438,1261607,73496,8217,630415,0
205,-1,668309,231011,1254656,69219,7657,626955,0
205,1,712747,249088,1321637,74640,8557,660542,0
206,1,710178,249078,1531244,74245,8692,765082,0
206,-1,670868,231640,1419731,69588,8705,709318,0
206,1,708159,247105,1331358,73726,8086,665296,0
207,1,704833,247350,1427541,73492,9447,713095,0
207,-1,666191,230494,1197247,69050,7003,598402,0
207,1,704940,246837,1352845,73644,8842,676037,0
208,1,708415,248231,1369206,73746,8269,684378,0
208,-1,669213,231990,1320647,69767,7980,659723,0
208,1,704897,247334,1274376,73776,8373,636758,0
209,1,706879,247844,1350292,73689,7613,674727,0
209,-1,687814,235170,1261752,72361,8371,630432,0
209,1,725897,250939,1416943,76773,8938,708130,0
210,1,727784,252777,1358988,77058,8377,678993,0
210,-1,665989,230582,1495023,69083,8720,747123,0
210,1,707319,248301,1542439,74213,11300,770595,0
211,1,706479,248549,1369861,73829,7507,684690,0
211,-1,664260,230157,1369018,68902,8611,684200,0
211,1,708050,247731,1560506,73930,10894,779748,0
212,1,709374,247782,1239677,73655,8073,619460,0
212,-1,666316,230655,1414119,69101,7766,706647,0
212,1,704952,246936,1464760,73660,10271,732050,0
213,1,706903,247869,1492935,73678,8397,746106,0
213,-1,666468,231103,1173251,69221,7338,586288,0
213,1,708170,249041,1408867,74596,9894,703865,0
214,1,713740,250233,1365982,74741,8670,682397,0
214,-1,669378,232185,1306102,69849,7653,652509,0
214,1,724279,251974,1575326,77061,11844,787286,0
215,1,728218,252388,1355784,76946,9002,677664,0
215,-1,683120,234253,1254017,72037,7828,626637,0
215,1,706035,246917,1564084,73649,10068,781209,0
216,1,705389,247597,1353331,73601,8007,676273,0
216,-1,663821,230170,1289663,68887,7781,644493,0
216,1,714860,249618,1446718,74636,10584,722613,0
217,1,708731,248134,1309232,73722,8862,654257,0
217,-1,661065,229715,1229585,68704,7651,614476,0
217,1,707453,247333,1457791,73801,10279,728521,0
218,1,707434,248404,1272693,73790,8092,636035,0
218,-1,664061,231080,1217642,69226,7692,608526,0
218,1,707881,247779,1454916,73950,10439,726956,0
219,1,707812,248722,1244394,73994,7960,621849,0
219,-1,672201,232629,1292776,70038,7942,645717,0
219,1,715101,251138,1631950,75297,10667,815027,0
220,1,703962,247678,1283335,73562,9268,641368,0
220,-1,689844,236024,1225839,72652,8505,612445,0
220,1,706156,247850,1446336,73986,9348,722680,0
221,1,705158,246835,1272999,73262,8055,636183,0
221,-1,662666,230211,1180418,68921,6924,589824,0
221,1,706949,246783,1291125,73615,9737,645169,0
222,1,732584,252883,1430480,77100,9457,714844,0
222,-1,666786,232097,1334621,69730,7831,666625,0
222,1,704602,247253,1361604,73791,9208,680437,0
223,1,710589,248379,1400208,73806,8454,699721,0
223,-1,684028,235272,1317725,72408,8153,658550,0
223,1,704336,247419,1368551,73851,9002,683893,0
224,1,709457,248086,1379868,73709,8885,689695,0
224,-1,662867,230502,1410229,69054,7745,704701,0
224,1,707346,248106,1479803,74054,8598,739544,0
225,1,710502,248442,1427012,73810,8870,713088,0
225,-1,662068,229763,1189449,68864,6542,594338,0
225,1,706604,247964,1542662,74018,8728,770836,0
226,1,711525,249277,1385747,74304,8637,692304,0
226,-1,666015,231621,1339671,69584,7772,669429,0
226,1,707275,248713,1312392,74402,8750,655658,0
227,1,706265,247868,1368864,73627,7939,684070,0
227,-1,664630,230884,1241034,69180,7533,619990,0
227,1,704816,246982,1434657,73586,9499,716957,0
228,1,712188,250091,1378291,74622,8286,688573,0
228,-1,663378,230182,1254291,68905,7921,626774,0
228,1,702446,247592,1417043,73907,9416,708136,0
229,1,706895,247954,1398622,73689,8470,698851,0
229,-1,682553,235137,1250655,72355,8347,624915,0
229,1,711277,247566,1446882,73846,9758,723151,0
230,1,706287,248141,1371370,73726,8349,685362,0
230,-1,659882,230355,1280145,69012,7779,639629,0
230,1,714346,248769,1428028,74462,9848,713540,0
231,1,710396,248759,1391367,73958,9195,695317,0
231,-1,666183,230422,1277190,69050,8306,638254,0
231,1,709942,247314,1532888,73841,10070,765814,0
232,1,705577,247259,1479754,73469,9957,739324,0
232,-1,666729,230651,1319247,69092,8122,659323,0
232,1,710325,247770,1338420,73978,9488,668635,0
233,1,706750,247776,1231375,73606,8389,615389,0
233,-1,667306,231244,1324990,69330,8034,662063,0
233,1,713832,248872,1367080,74499,9546,682265,0
234,1,705226,248211,1288240,73700,8552,643751,0
234,-1,668104,232033,1327436,69729,8635,662911,0
234,1,713746,249685,1381240,74878,9882,690044,0
235,1,705719,248240,1319392,73758,8764,659395,0
235,-1,667749,231296,1309393,69304,7826,654388,0
235,1,707844,247150,1393994,73665,9191,696643,0
236,1,729659,252222,1373856,76843,9784,686363,0
236,-1,660841,230123,1353522,68902,8245,676426,0
236,1,713936,249216,1503284,74614,9284,750933,0
237,1,710322,248686,1343769,73949,9029,671550,0
237,-1,663021,230595,1347335,69088,7889,673268,0
237,1,708039,247398,1319788,73827,9250,659544,0
238,1,711604,249599,1436860,74381,9696,717992,0
238,-1,663652,230881,1323304,69059,7899,661272,0
238,1,709274,248221,1451565,74109,10039,725186,0
239,1,705447,247533,1263201,73553,7952,631295,0
239,-1,661811,230307,1206957,69009,7776,603129,0
239,1,710739,249409,1358779,74708,9913,678618,0
240,1,707147,248733,1443584,73960,9377,721418,0
240,-1,661797,230456,1286801,68990,8527,643072,0
240,1,726131,251809,1609524,77048,10452,804404,0
241,1,710688,249368,1392150,74310,9128,695453,0
241,-1,664186,231236,1296855,69322,9232,647983,0
241,1,706186,246794,1331506,73522,9738,665454,0
242,1,703659,247513,1295943,73525,8606,647683,0
242,-1,665464,230789,1329492,69155,7880,664494,0
242,1,707516,247613,1382408,73939,9897,690740,0
243,1,708919,249055,1423971,74234,8882,711088,0
243,-1,665149,231041,1335436,69187,7959,667486,0
243,1,724603,252149,1486718,76309,10013,742868,0
244,1,727794,253045,1329785,77139,8976,664600,0
244,-1,662923,230242,1210251,68972,7684,604757,0
244,1,711291,248775,1299540,73604,8908,649291,0
245,1,704018,247979,1419881,73709,8363,709498,0
245,-1,667249,232087,1332384,69737,8288,665783,0
245,1,705324,247120,1404064,72850,8632,701829,0
246,1,707779,249777,1405956,74457,9336,702191,0
246,-1,662216,230529,1230177,68968,7897,614723,0
246,1,705394,247784,1377859,72997,8655,688348,0
247,1,706181,247724,1262978,73621,8061,631063,0
247,-1,661842,230098,1321842,68885,7857,660541,0
247,1,704294,247264,1419744,72932,8978,709530,0
248,1,707373,247925,1373302,73597,8289,686346,0
248,-1,686951,238849,1286718,71455,7540,642982,0
248,1,705249,248180,1759839,73207,10305,879544,0
248,1,709529,247435,1515402,73846,9246,757306,0
249,1,705959,247891,1410125,73621,8616,704663,0
249,-1,668310,232957,1394939,70075,8328,696769,0
249,1,724570,251648,1479621,76164,10080,739110,0
249,1,714236,249669,1493413,74889,10490,746049,0
250,1,706929,248600,1291455,73854,8778,645374,0
250,-1,659201,229845,1316478,68747,8236,657864,0
250,1,703069,247290,1386589,72906,9394,693005,0
250,1,731199,252541,1660571,77361,10851,830442,0
251,1,704569,247791,1292332,73640,8570,645295,0
251,-1,665443,231100,1206498,69254,7626,602730,0
251,1,705029,247497,1415273,73027,8899,707208,0
251,1,708684,247623,1412492,73928,10067,705768,0
252,1,709260,249468,1308146,74367,8699,653273,0
252,-1,665940,231778,1342263,69643,7971,670528,0
252,1,702564,246947,1485489,72802,8937,742511,0
252,1,710967,248809,1455748,74482,9407,727235,0
253,1,705738,248930,1292127,74033,8078,645474,0
253,-1,661171,230463,1312951,69060,8056,655723,0
253,1,701744,247492,1428720,72994,9449,714060,0
253,1,708713,247843,1448319,74018,9518,723631,0
254,1,711114,248427,1380743,73874,8921,690024,0
254,-1,667000,232488,1379581,69941,8459,689195,0
254,1,704301,247215,1336123,72918,8840,667954,0
254,1,705960,247175,1362399,73768,9223,680628,0
255,1,711807,248779,1392014,73939,8490,695661,0
255,-1,682501,235115,1341278,72351,8210,670203,0
255,1,703783,247458,1444435,73000,9600,721976,0
255,1,710001,247346,1472413,73824,10958,735900,0
256,1,712759,249775,1567397,74482,9079,783040,0
256,-1,663612,232160,1317142,69740,7532,657953,0
256,1,703677,247388,1358515,72990,9275,678746,0
256,1,707001,247348,1602016,73808,10272,800292,0
257,1,734988,253991,1315590,77955,9172,657230,0
257,-1,665269,230626,1231579,69080,6951,615364,0
257,1,701285,246720,1574131,72696,9704,786687,0
257,1,707730,247981,1612204,74059,10132,805528,0
258,1,708715,248108,1361138,73728,8847,680223,0
258,-1,671483,230220,1344786,68982,8061,671996,0
258,1,705069,247232,1273862,72921,9428,636590,0
258,1,706737,247704,1564981,73971,10737,781677,0
259,1,710922,248945,1358427,74008,8530,678853,0
259,-1,677095,232546,1323713,69932,8554,661263,0
259,1,700397,246630,1434748,72748,9333,717042,0
259,1,710109,249468,1555606,74731,10973,776913,0
260,1,729863,252528,1452872,76989,9044,725938,0
260,-1,670348,230640,1340568,69063,7880,670000,0
260,1,705322,249116,1357454,73691,9043,678263,0
260,1,708515,247353,1476872,73727,10028,737875,0
261,1,707559,247801,1374277,73606,9012,686719,0
261,-1,670252,231090,1309104,69256,7907,654335,0
261,1,706548,247565,1529314,72926,9109,764207,0
261,1,711655,248630,1399799,74429,9490,699346,0
262,1,711349,248882,1392041,73996,8448,695633,0
262,-1,671606,230904,1203355,69085,7994,601402,0
262,1,703557,247329,1424967,72829,9124,711721,0
262,1,707847,247474,1328663,73859,9637,664081,0
263,1,713442,250163,1369257,74702,8704,683939,0
263,-1,675991,232523,1311877,69961,8584,655362,0
263,1,703191,247157,1322426,72753,8913,660872,0
263,1,713501,250183,1337524,75004,10234,668239,0
264,1,707971,248315,1329336,73806,8992,664081,0
264,-1,690897,234741,1264145,72226,9151,631734,0
264,1,705119,247792,1588050,72967,9082,793483,0
264,1,705163,247231,1258106,73939,8946,628591,0
265,1,702252,247178,1269211,73428,7855,634238,0
265,-1,670452,230733,1281025,69072,8683,640125,0
265,1,702025,247006,1352104,72688,8890,675654,0
265,1,705519,247142,1318070,73836,8921,658643,0
266,1,709104,249360,1462536,74322,9092,730667,0
266,-1,670673,231206,1227914,69298,8186,613552,0
266,1,706942,249517,1351125,73786,9455,675318,0
266,1,703768,246712,1332960,73731,8054,666061,0
267,1,703276,247556,1276928,73462,8199,638109,0
267,-1,671662,231680,1285229,69545,8673,642141,0
267,1,725279,252212,1412546,76163,9873,705747,0
267,1,703791,246982,1292974,73816,8175,645985,0
268,1,707970,247648,1271191,73603,8024,635246,0
268,-1,674616,233143,1361308,70200,8805,680175,0
268,1,703265,247450,1403226,72919,8828,700663,0
268,1,704858,247252,1310734,73894,9017,655007,0
269,1,709647,248757,1401207,74064,8326,700114,0
269,-1,671097,230540,1319893,69011,7917,659566,0
269,1,706284,247224,1431288,72763,8769,715348,0
269,1,702218,246682,1360483,73718,9050,679828,0
270,1,705868,247836,1358912,73624,8441,679017,0
270,-1,670682,230293,1332645,68940,7616,665998,0
270,1,726399,252510,1607072,76322,10051,802672,0
270,1,702310,247108,1380062,73897,9527,689598,0
271,1,705572,248124,1285446,73759,7791,642038,0
271,-1,670772,230780,1260123,69171,8121,629693,0
271,1,730174,256526,1401541,75510,8965,700401,0
271,1,710689,247526,1391243,74031,9014,695218,0
272,1,710571,250030,1391910,74522,9214,695411,0
272,-1,667736,229977,1273170,68903,8020,636242,0
272,1,702417,247517,1433119,72853,8230,716201,0
272,1,706195,247360,1350989,73933,9152,675042,0
273,1,706817,247772,1403919,73611,8623,701623,0
273,-1,669889,230891,1380050,69108,8081,689717,0
273,1,703782,247742,1403189,73016,7890,701176,0
273,1,713683,249418,1433583,74887,9559,715977,0
274,1,705239,247670,1359865,73635,7967,679611,0
274,-1,672526,232021,1318830,69787,8684,658829,0
274,1,702321,247272,1324052,72757,7804,661678,0
274,1,730123,252091,1487626,77322,10034,743279,0
275,1,704719,247798,1289324,73731,7550,644164,0
275,-1,689541,235206,1271048,72408,8817,635149,0
275,1,706432,249735,1260011,73823,8502,629432,0
275,1,710055,248771,1401396,74586,8845,699960,0
276,1,707140,248779,1416516,74146,8909,707702,0
276,-1,669008,230665,1323134,69119,8194,661100,0
276,1,701919,247593,1354282,72945,8068,676830,0
276,1,706376,247449,1397166,73944,8736,698169,0
277,1,703009,247589,1256627,73654,7508,627944,0
277,-1,667289,230439,1324601,68988,8158,661996,0
277,1,703350,247061,1248037,72733,7423,623617,0
277,1,704019,246760,1298939,73745,8312,649289,0
278,1,712507,250085,1360038,74755,8555,679386,0
278,-1,669912,230658,1237139,69105,8408,618229,0
278,1,704270,247740,1311093,72978,7757,655206,0
278,1,708045,247271,1310474,73929,8588,654653,0
279,1,725880,251893,1360069,76811,9295,679637,0
279,-1,667993,230303,1317996,68953,8282,658715,0
279,1,708603,249984,1249548,73951,7785,624212,0
279,1,705011,246686,1279592,73703,9375,639406,0
280,1,707375,248132,1367140,73827,8381,683182,0
280,-1,666192,229459,1323550,68790,8570,661362,0
280,1,701830,247307,1361189,72841,7842,680103,0
280,1,705939,247441,1403054,73935,9551,700545,0
281,1,735655,257873,1353713,76903,9127,676413,0
281,-1,673427,232881,1427716,70054,8571,713316,0
281,1,703038,248027,1327617,73112,7780,663403,0
281,1,704283,246956,1394893,73782,9037,696799,0
282,1,704614,248048,1280155,73747,7783,639789,0
282,-1,688792,234973,1291558,72250,8787,645258,0
282,1,700627,247201,1340000,72774,7685,669712,0
282,1,709003,247861,1494348,74134,9127,745595,0
283,1,707911,249657,1412067,74558,8820,705751,0
283,-1,668347,230630,1306437,69105,8397,652850,0
283,1,699996,247282,1249308,72796,7339,624311,0
283,1,706113,248126,1458916,74333,9853,728744,0
284,1,725720,252253,1321042,76961,9340,660118,0
284,-1,667021,230240,1304409,68936,8155,651862,0
284,1,704700,249183,1283395,73615,7332,641179,0
284,1,705918,248415,1426524,74287,8674,712419,0
285,1,706014,247976,1385121,73797,8465,692300,0
285,-1,670112,231834,1330737,69670,8313,664819,0
285,1,712722,247494,1344948,73337,7152,672142,0
285,1,709095,247279,1550660,73893,10697,775573,0
286,1,704338,247330,1452857,73535,8455,726093,0
286,-1,666765,230744,1218207,69171,8028,608719,0
286,1,711004,246917,1267646,73037,7254,633543,0
286,1,713394,249427,1462152,74925,10441,729310,0
287,1,706006,248375,1370920,73959,8302,685088,0
287,-1,670239,230138,1237502,68935,7080,618356,0
287,1,711445,247193,1331560,73226,7685,665348,0
287,1,708974,247807,1367052,74100,9766,683587,0
288,1,702975,247630,1278350,73691,7763,638438,0
288,-1,668725,230709,1295785,69106,7667,647534,0
288,1,736250,252338,1544011,76690,9534,771618,0
288,1,710951,248299,1466641,74444,10424,732604,0
289,1,703807,247804,1279257,73715,8713,639249,0
289,-1,668444,230003,1204961,68851,7608,602061,0
289,1,711456,247653,1363107,73362,7982,681180,0
289,1,708642,248033,1423560,74188,9523,711250,0
290,1,703377,248045,1368868,73823,9259,684035,0
290,-1,667618,230200,1250579,68971,7595,624843,0
290,1,717207,250259,1328980,74436,8313,663895,0
290,1,705551,247304,1426559,73911,9802,712792,0
291,1,700677,247493,1378112,73609,9198,688678,0
291,-1,668250,230352,1334366,68969,7785,666796,0
291,1,709349,247543,1397529,73298,8171,698341,0
291,1,709999,249476,1666110,74882,10874,832461,0
292,1,708358,247835,1353078,73776,8545,676225,0
292,-1,669272,231174,1304641,69286,7314,652024,0
292,1,709395,247491,1429776,73269,8306,714553,0
292,1,706280,247828,1339758,74125,10039,669341,0
293,1,708654,249037,1406969,74311,9090,702682,0
293,-1,665893,229840,1167989,68773,7203,583577,0
293,1,716028,248348,1574474,73582,9324,786825,0
293,1,703658,247389,1523831,74001,9676,761285,0
294,1,708867,247789,1405890,73689,8200,702586,0
294,-1,668593,230487,1278387,69052,8036,638736,0
294,1,712561,247996,1342880,73484,8345,671094,0
294,1,704188,246981,1379021,73876,9186,689080,0
295,1,704264,247615,1375452,73700,7926,687348,0
295,-1,669780,231143,1258593,69206,8350,629013,0
295,1,715855,249160,1442008,74093,10237,720113,0
295,1,707989,248637,1381447,74632,9223,689605,0
296,1,705419,247768,1284884,73737,7960,642089,0
296,-1,671343,231913,1242226,69666,8530,620462,0
296,1,710886,247937,1746629,73529,9864,872218,0
296,1,727275,252917,1468957,77568,10123,734015,0
297,1,704844,247861,1242749,73777,8452,620955,0
297,-1,669575,231291,1222676,69305,7597,610938,0
297,1,717280,250195,1528869,74486,9642,763826,0
297,1,700794,246484,1394256,73664,7536,696885,0
298,1,703780,247850,1308082,73759,8295,653525,0
298,-1,671758,232499,1325724,69987,8675,662134,0
298,1,712709,248734,1566788,73760,10141,782755,0
298,1,732200,251662,1346581,77183,10567,672746,0
299,1,706110,247414,1271008,73571,8432,635172,0
299,-1,669487,230534,1425792,69018,8513,712281,0
299,1,711244,247334,1487710,73337,10280,743510,0
299,1,711043,246987,1261312,73857,9245,630257,0
300,1,705145,247732,1229024,73672,7621,614129,0
300,-1,673097,231963,1485497,69691,9359,741655,0
300,1,713525,248535,1425021,73697,10969,712106,0
300,1,713544,247512,1264470,74035,9920,631737,0
301,1,706782,248755,1299199,74225,8693,649126,0
301,-1,667984,230309,1401254,69002,8547,700255,0
301,1,712952,248621,1412157,73842,10643,705406,0
301,1,717389,249290,1355865,74749,10579,677202,0
302,1,706503,247876,1284482,73790,8417,641787,0
302,-1,688231,234965,1353315,72302,9551,676180,0
302,1,710243,247232,1708805,73239,11228,853857,0
302,1,709401,246350,1328662,73642,9931,663922,0
303,1,707036,248133,1378461,73840,8324,688956,0
303,-1,664841,230061,1354376,68927,8619,676612,0
303,1,712247,247862,1545142,73435,10564,772213,0
303,1,709845,247084,1435525,73772,9804,717252,0
304,1,703332,247650,1350445,73592,8142,674863,0
304,-1,668135,231866,1361723,69674,8721,680311,0
304,1,710964,247720,1537708,73418,9702,769220,0
304,1,708794,247079,1309674,73886,9310,654423,0
305,1,709363,249808,1402662,74651,9353,700678,0
305,-1,667761,230358,1335497,69025,8512,667443,0
305,1,711361,248283,1519551,73623,9656,759428,0
305,1,716159,248884,1431398,74621,10156,714807,0
306,1,701853,247624,1431588,73599,8158,715376,0
306,-1,667085,230475,1423732,69060,8817,711333,0
306,1,710885,248102,1447367,73514,9854,723133,0
306,1,713778,247373,1325812,73968,9664,662490,0
307,1,704960,247143,1291643,73535,8320,645444,0
307,-1,672517,233036,1400045,70138,8781,698847,0
307,1,708856,247620,1620910,73436,10073,809224,0
307,1,757132,260349,1635993,79776,11332,817387,0
308,1,706369,247981,1395430,73761,8915,697417,0
308,-1,666942,230804,1367641,69159,8686,683324,0
308,1,708465,247803,1390677,73456,8374,695047,0
308,1,714187,247912,1436488,74156,9665,717976,0
309,1,709468,249229,1450703,74389,9287,724798,0
309,-1,665744,230565,1270486,69055,8438,634875,0
309,1,708956,247216,1380915,73270,8100,690204,0
309,1,709140,246987,1396529,73803,9715,697912,0
310,1,703040,247404,1345634,73562,8566,672394,0
310,-1,668912,232000,1425434,69709,8906,711876,0
310,1,715299,250161,1392069,74473,8570,695245,0
310,1,710486,247867,1314930,74086,8884,657155,0
311,1,707914,248603,1386007,73992,8872,692661,0
311,-1,664010,230258,1335178,68933,9187,667257,0
311,1,713740,249640,1309175,74236,8750,653974,0
311,1,709791,246550,1343276,73669,9307,671120,0
312,1,704647,247288,1293978,73522,8459,646688,0
312,-1,676320,232660,1593709,69952,9701,795134,0
312,1,707944,247648,1410149,73451,8570,704784,0
312,1,715982,249330,1396097,74860,9446,697538,0
313,1,701541,247456,1294461,73534,8927,646894,0
313,-1,668838,230247,1354441,68956,8557,676895,0
313,1,707898,247541,1428023,73373,9584,713785,0
313,1,731530,251728,1423242,77191,10401,711114,0
314,1,728373,252347,1324465,77022,9437,661884,0
314,-1,669540,230907,1330189,69192,8342,663848,0
314,1,710027,247755,1358030,73435,9093,678808,0
314,1,710292,246647,1244063,73718,9333,621663,0
315,1,723764,252304,1327917,77003,8926,663531,0
315,-1,669079,230509,1304852,69072,7859,651994,0
315,1,730669,252282,1445659,76745,9373,722335,0
315,1,713839,248231,1387532,74380,9761,693251,0
316,1,702252,247835,1416774,73776,9399,707976,0
316,-1,668551,230262,1344068,68893,8051,671352,0
316,1,711906,249022,1361815,74038,8675,680503,0
316,1,716124,249369,1410577,74831,9465,704708,0
317,1,703548,247587,1364927,73619,8446,682078,0
317,-1,672853,232646,1338401,69998,8584,668254,0
317,1,707375,247596,1496317,73448,9798,747155,0
317,1,707985,247134,1313877,73879,8854,656473,0
318,1,700495,247574,1258228,73579,8172,628647,0
318,-1,670640,230702,1337503,69141,8619,668217,0
318,1,707663,247621,1333608,73396,8646,666466,0
318,1,711291,248473,1394346,74400,9137,696568,0
319,1,702158,247950,1439753,73789,8030,719483,0
319,-1,672714,231880,1284289,69674,9511,640779,0
319,1,713634,249616,1278122,74319,8193,638433,0
319,1,712844,247780,1378208,73952,8719,688780,0
320,1,700514,247363,1357184,73570,8363,678233,0
320,-1,667445,230210,1282643,68946,9273,640866,0
320,1,712112,247609,1374576,73418,9412,686926,0
320,1,716466,249521,1463109,74757,9035,730691,0
321,1,702498,248448,1245743,73939,7886,622480,0
321,-1,668628,230805,1263505,69087,8120,630334,0
321,1,712019,247919,1513450,73537,10546,756357,0
321,1,707060,247157,1381228,73693,9003,689991,0
322,1,714960,247967,1368263,73755,8386,683710,0
322,-1,667107,230955,1375996,69116,7990,687651,0
322,1,717964,250372,1315110,74618,9495,657000,0
322,1,733559,252875,1611182,77414,10043,804937,0
323,1,713140,247747,1266318,73724,8143,632840,0
323,-1,668636,231164,1381038,69216,8373,690106,0
323,1,706892,246317,1307568,73010,8724,653393,0
323,1,713449,247236,1410231,73680,10233,704608,0
324,1,713286,248302,1377582,73910,8658,688343,0
324,-1,667457,230082,1311562,68844,8104,655325,0
324,1,709259,247267,1389355,73286,9243,694356,0
324,1,710808,247414,1413091,73686,9724,706138,0
325,1,713439,248770,1402823,74218,9324,700822,0
325,-1,669905,231005,1364038,69179,8906,681213,0
325,1,710564,248049,1327960,73576,8458,663535,0
325,1,718160,249119,1461428,74461,9608,729933,0
326,1,710654,247448,1285290,73644,8690,642318,0
326,-1,690256,235110,1387358,72338,10035,693835,0
326,1,715981,249783,1511927,74328,10781,754483,0
326,1,713131,247994,1433580,73902,10358,716387,0
327,1,711591,247983,1396172,73804,8647,697646,0
327,-1,664941,229957,1329569,68669,8273,664377,0
327,1,730998,252352,1384597,76768,9118,691916,0
327,1,711704,247725,1324096,73789,9646,661590,0
328,1,711032,247570,1263148,73677,9082,631308,0
328,-1,668118,230725,1316442,68908,8513,657813,0
328,1,708495,247217,1279673,73250,8030,639476,0
328,1,712077,248354,1437082,73943,9932,717757,0
329,1,712152,248320,1294799,73858,8970,647083,0
329,-1,670626,232144,1364350,69699,8665,681115,0
329,1,710204,248953,1269896,74018,7865,634574,0
329,1,715008,248083,1551368,73923,10609,775308,0
330,1,730290,252716,1303230,77148,9481,651222,0
330,-1,664638,230111,1390562,68798,8666,694893,0
330,1,717542,250646,1257158,74642,8251,627963,0
330,1,712837,247597,1329313,73742,9521,664174,0
331,1,714238,248936,1394470,74286,9386,696729,0
331,-1,664824,230160,1467292,68775,8608,733686,0
331,1,709539,247683,1309251,73451,8846,654294,0
331,1,711295,247666,1303894,73803,9043,651640,0
332,1,709305,247406,1396336,73589,8587,697874,0
332,-1,665669,230958,1445663,69054,8724,722960,0
332,1,708713,247686,1358904,73415,8822,678895,0
332,1,711767,247608,1312816,73728,9493,655761,0
333,1,711713,248064,1286023,73791,8927,642720,0
333,-1,667736,231886,1301510,69376,8273,650040,0
333,1,707155,247642,1456186,73382,8996,727752,0
333,1,712780,248484,1403101,74058,9387,700929,0
334,1,715225,249018,1377692,74258,9420,688304,0
334,-1,690990,235236,1354392,72225,10423,676588,0
334,1,711791,249845,1356799,74376,8888,677829,0
334,1,710997,248096,1444157,73888,9494,721746,0
335,1,711897,248681,1358425,73978,8968,678860,0
335,-1,670302,231153,1347069,69021,8993,673933,0
335,1,711467,247628,1365059,73309,9102,682221,0
335,1,717875,250569,1465417,74994,9913,731928,0
336,1,709757,248387,1254938,73940,8609,627175,0
336,-1,669710,231277,1354605,69137,8790,676207,0
336,1,714099,248673,1437970,73938,9293,718345,0
336,1,711687,248048,1342022,73918,9444,670532,0
337,1,706886,247565,1378792,73629,9417,689106,0
337,-1,669923,231764,1431625,69400,10367,714941,0
337,1,708974,247634,1475091,73392,9617,737269,0
337,1,713123,249077,1357465,74428,9854,677899,0
338,1,712972,247783,1352028,73717,8402,675543,0
338,-1,666080,230392,1462929,68800,9983,731058,0
338,1,714382,249732,1375284,74422,8667,686887,0
338,1,711777,247912,1349317,73793,9075,674443,0
339,1,711112,248028,1443658,73835,8511,721533,0
339,-1,668551,231657,1425923,69255,9140,712608,0
339,1,709212,247750,1385201,73458,8649,692204,0
339,1,709439,247969,1444516,73857,9131,721734,0
340,1,713898,249067,1397828,74315,8862,698340,0
340,-1,668289,231126,1467201,69025,9607,733169,0
340,1,709383,248064,1388864,73555,9525,694086,0
340,1,716652,249206,1300383,74464,9352,649484,0
341,1,730277,251744,1338308,76775,9217,668796,0
341,-1,672030,232841,1393973,69915,9866,695881,0
341,1,707428,247637,1409283,73431,9252,704178,0
341,1,717013,249668,1367576,74625,9351,683062,0
342,1,706564,247178,1240496,73533,8315,619934,0
342,-1,663699,229995,1519994,68673,9113,759340,0
342,1,710560,249198,1446413,74101,9294,722648,0
342,1,733160,252627,1460247,77224,10249,729728,0
343,1,728773,252475,1347386,77074,9843,673303,0
343,-1,667192,231245,1366076,69088,9052,682694,0
343,1,708585,247230,1285507,73298,8661,642285,0
343,1,712956,249073,1297004,74271,8723,648038,0
344,1,705862,247555,1423068,73676,9571,711395,0
344,-1,670685,231099,1370076,69058,10300,684422,0
344,1,707686,247563,1359939,73400,9049,679518,0
344,1,711277,248920,1499203,74392,9322,748529,0
345,1,711180,248335,1436295,73900,9724,717741,0
345,-1,668375,230575,1368452,68839,8640,683942,0
345,1,708308,247333,1383007,73350,9076,691065,0
345,1,711689,248660,1498408,74130,9412,748640,0
346,1,709585,247756,1441349,73683,9700,720343,0
346,-1,670496,231250,1368010,68992,9619,683413,0
346,1,704685,247419,1390249,73320,9081,694719,0
346,1,707978,247606,1308989,73804,8844,654102,0
347,1,708125,247578,1396191,73643,9049,697580,0
347,-1,673494,233065,1427332,69856,10089,712640,0
347,1,713924,249702,1326221,74344,9122,662243,0
347,1,713428,247823,1350446,73803,9759,674785,0
348,1,715132,249811,1456299,74566,9721,727153,0
348,-1,671950,232261,1538016,69309,9408,768021,0
348,1,731138,252826,1570661,76915,10304,784974,0
348,1,711553,248006,1305676,73919,9188,652326,0
349,1,737070,257502,1511666,76587,9959,755458,0
349,-1,670688,232369,1451824,69534,9582,725354,0
349,1,707054,247533,1457398,73320,8999,728160,0
349,1,712661,248711,1381548,74304,9766,689954,0
350,1,707883,247267,1558199,73514,9764,778709,0
350,-1,693361,240337,1421543,71673,9490,710489,0
350,1,706653,247733,1375773,73469,9207,687455,0
350,1,711782,248519,1454236,74006,9051,726702,0
351,1,727792,252205,1430490,76974,9992,714817,0
351,-1,674234,233508,1367678,70004,9403,682720,0
351,1,709311,248790,1345262,73978,9015,671819,0
351,1,712348,248234,1305212,73992,9265,652278,0
352,1,708069,247784,1441225,73707,9830,719901,0
352,-1,665098,230508,1375628,68768,8974,687507,0
352,1,707440,247657,1378829,73405,9689,689010,0
352,1,709315,247539,1396974,73664,9631,697928,0
353,1,707373,247892,1341108,73809,9087,670136,0
353,-1,665123,230602,1416630,68785,9498,707888,0
353,1,711489,249830,1337830,74343,9409,668182,0
353,1,714469,249523,1406926,74558,9688,702656,0
354,1,733117,252662,1472049,77177,10573,735058,0
354,-1,665486,230848,1322268,68958,9400,660629,0
354,1,712376,246876,1377471,73138,8587,688078,0
354,1,710092,248441,1414784,74074,9450,707082,0
355,1,710818,247577,1384982,73698,9293,691379,0
355,-1,673627,231243,1354058,69059,9409,676633,0
355,1,712558,247453,1449366,73368,9897,724582,0
355,1,708168,248061,1358962,73857,10058,679051,0
356,1,714457,249179,1439569,74364,9620,719209,0
356,-1,668730,230297,1401904,68760,9648,700035,0
356,1,711500,247589,1372489,73387,9542,685895,0
356,1,711267,248459,1428374,74060,9977,713795,0
357,1,710110,248007,1435898,73831,9099,717526,0
357,-1,669199,230409,1276310,68807,8057,637697,0
357,1,710921,247328,1464773,73285,9899,732022,0
357,1,707943,248000,1239247,73968,8980,619086,0
358,1,709523,247780,1308273,73655,8794,653681,0
358,-1,691074,235247,1371077,72102,9407,684985,0
358,1,713902,249415,1318048,74177,10092,658525,0
358,1,715663,248148,1403843,74005,9912,701552,0
359,1,729171,252184,1428114,76994,9895,713458,0
359,-1,668168,230593,1295725,68890,7999,647433,0
359,1,713979,248238,1425578,73622,9258,712060,0
359,1,715866,249326,1365524,74360,8372,682222,0
360,1,710389,248369,1293650,73967,9518,646449,0
360,-1,667158,230520,1364139,68813,8477,681711,0
360,1,710416,247564,1382723,73414,9957,690990,0
360,1,715402,248370,1330830,73949,8847,665030,0
361,1,706512,247280,1329379,73550,9475,664544,0
361,-1,670222,231318,1285595,69086,8367,642369,0
361,1,712341,248907,1341253,73954,9908,670035,0
361,1,719581,250252,1372376,74912,9860,685543,0
362,1,729807,252514,1383631,77048,9735,691292,0
362,-1,676349,233932,1353415,70306,9318,675908,0
362,1,708571,247698,1417695,73436,9727,708188,0
362,1,712435,248111,1488726,73932,9278,743858,0
363,1,708163,248133,1553087,73845,9180,776100,0
363,-1,688558,234818,1322215,72154,8803,660641,0
363,1,709823,247842,1415750,73493,9458,706835,0
363,1,719394,250057,1372165,74869,8765,685506,0
364,1,715756,249565,1439914,74435,9924,719354,0
364,-1,667508,230677,1314323,68955,8363,656626,0
364,1,715770,249474,1341872,74172,9922,670261,0
364,1,714312,248210,1413168,73968,8615,706246,0
365,1,710997,248582,1370239,73937,9502,684807,0
365,-1,670877,230520,1282518,68866,7902,640954,0
365,1,711317,248242,1333167,73643,9481,666165,0
365,1,711937,247939,1390456,73880,9197,695017,0
366,1,710656,248465,1452516,73892,10152,725471,0
366,-1,674976,232896,1355563,69857,7757,677117,0
366,1,708889,247518,1344166,73361,8985,671688,0
366,1,713660,248286,1359840,74136,8904,679448,0
367,1,709652,248317,1438158,73783,9369,718880,0
367,-1,668511,230992,1352968,69004,6945,675761,0
367,1,709274,247846,1483085,73438,10363,741124,0
367,1,713287,248388,1360804,74164,9522,679946,0
368,1,711043,249158,1568692,74218,10328,784683,0
368,-1,668512,230596,1298705,68823,8110,649018,0
368,1,711453,247888,1402986,73510,10113,701219,0
368,1,710950,248212,1341503,74109,9256,670498,0
369,1,707912,247511,1414251,73472,9825,706667,0
369,-1,667376,230660,1234699,68863,7423,616950,0
369,1,731912,252337,1479167,76763,11171,739230,0
369,1,712877,248385,1297871,74105,9508,648500,0
370,1,709115,247879,1433357,73646,9337,716256,0
370,-1,666221,230664,1298249,68979,7577,648618,0
370,1,709179,247533,1473055,73406,9753,736066,0
370,1,733937,252955,1434260,77474,9551,716675,0
371,1,728819,252341,1426731,76866,10622,712722,0
371,-1,664964,230341,1238351,68861,7535,618834,0
371,1,710578,248217,1611815,73568,9873,805463,0
371,1,712096,248327,1283676,74133,8687,641396,0
372,1,705704,247491,1408772,73473,9525,703676,0
372,-1,666716,230281,1282897,68963,7201,641045,0
372,1,711678,247782,1543276,73405,10849,770982,0
372,1,713497,248032,1394576,74032,8728,696870,0
373,1,709740,248403,1417168,73797,9101,707588,0
373,-1,667310,230880,1390188,69165,8340,694680,0
373,1,710130,247778,1406582,73452,9972,702988,0
373,1,733063,252559,1513608,77289,9708,756325,0
374,1,711409,249478,1422341,74317,9589,710837,0
374,-1,673633,232028,1308440,69458,9011,653370,0
374,1,730738,252841,1426533,76863,9882,712909,0
374,1,715804,249398,1389014,74539,8383,694049,0
375,1,709336,247509,1434949,73460,9619,717092,0
375,-1,667049,230072,1282690,68787,9147,640532,0
375,1,709475,248085,1486011,73552,10276,742604,0
375,1,711171,247969,1375681,74050,8430,687358,0
376,1,712609,249185,1491119,74205,9733,745339,0
376,-1,669054,230493,1237335,68919,8760,618402,0
376,1,710808,248699,1484099,73942,9937,741457,0
376,1,710383,247954,1380947,73989,8821,690109,0
377,1,708204,247578,1388366,73505,9309,693789,0
377,-1,687526,235070,1295816,72232,9109,647116,0
377,1,708767,248135,1461952,73572,9755,730151,0
377,1,713974,250006,1323079,74964,8658,660779,0
378,1,708992,247882,1414580,73628,10214,706657,0
378,-1,667184,230493,1282155,68922,8028,640545,0
378,1,706008,247214,1458305,73188,9798,728844,0
378,1,733929,252920,1451536,77457,9872,725317,0
379,1,713337,249728,1499227,74434,10455,748059,0
379,-1,665413,230164,1325314,68652,8634,661874,0
379,1,705947,247314,1430686,73288,9500,715032,0
379,1,715353,248950,1320122,74378,8376,659564,0
380,1,709634,247525,1460781,73432,10046,730316,0
380,-1,667921,231386,1343136,69146,8634,671156,0
380,1,710815,249155,1352452,74086,9273,675537,0
380,1,712662,247952,1456317,74011,8975,727821,0
381,1,710893,248565,1472520,73836,10101,736015,0
381,-1,666224,229987,1445154,68797,8976,722208,0
381,1,708127,247800,1708837,73516,10686,853541,0
381,1,715320,249453,1311062,74714,8154,654965,0
382,1,728401,252314,1624528,76865,11583,811793,0
382,-1,666977,230461,1525747,69008,9673,762430,0
382,1,710593,249338,1486134,74136,10224,742474,0
382,1,710590,248104,1320367,74080,8421,659824,0
383,1,704085,247237,1404706,73429,9775,702039,0
383,-1,665462,230080,1434125,68874,7918,715861,0
383,1,709950,248041,1485799,73508,11039,742136,0
383,1,712931,248304,1399452,74162,8743,699409,0
384,1,711256,249826,1568993,74365,10996,783821,0
384,-1,667776,231337,1345138,69413,8510,671868,0
384,1,712057,249533,1502217,74177,9983,750277,0
384,1,711654,248810,1295033,74337,8756,647076,0
385,1,729846,253011,1512605,76935,11094,755765,0
385,-1,663726,230342,1266460,68901,7805,632797,0
385,1,710637,249377,1444633,74241,8492,721139,0
385,1,710870,248656,1390049,74205,9390,694584,0
386,1,709755,248255,1499051,73633,10297,748896,0
386,-1,662185,230020,1253031,68800,7827,626169,0
386,1,728810,253182,1337586,77027,9032,668100,0
386,1,716842,250055,1387522,74901,8689,693212,0
387,1,708720,248294,1610395,73635,10282,804314,0
387,-1,664767,229537,1348443,68738,7860,673845,0
387,1,703096,247220,1400882,73269,8817,700155,0
387,1,713522,249145,1461220,74465,8365,730182,0
388,1,710138,248815,1480880,73817,11783,739938,0
388,-1,666002,229992,1275322,68822,7214,637297,0
388,1,712536,249029,1364281,74061,8782,681714,0
388,1,711314,248650,1375603,74314,8781,687436,0
389,1,709740,248213,1409475,73577,10601,704132,0
389,-1,671533,232339,1408968,69852,7922,703666,0
389,1,711088,247464,1369675,73332,9411,684468,0
389,1,716701,248969,1464231,74277,9871,731649,0
390,1,708226,248742,1559168,73723,10964,779097,0
390,-1,685053,234177,1320621,72018,8585,659891,0
390,1,711997,248121,1298100,73584,8781,648657,0
390,1,713978,248348,1405364,74085,9158,702384,0
391,1,712749,251073,1486695,74769,10140,742698,0
391,-1,665173,230326,1221726,68974,7396,610407,0
391,1,709274,247147,1547597,73222,10782,773473,0
391,1,736930,253844,1497901,77662,10278,748918,0
392,1,731220,252622,1526173,76820,11066,762157,0
392,-1,664562,230198,1286796,68925,7746,642923,0
392,1,712109,248065,1578069,73544,10532,788661,0
392,1,714220,248961,1345261,74283,8592,672297,0
393,1,714186,249078,1482008,74109,10775,740897,0
393,-1,670150,231885,1320832,69633,8006,659666,0
393,1,708907,247280,1367779,73305,9339,683519,0
393,1,715142,248967,1423999,74302,9507,711624,0
394,1,711993,247928,1638061,73589,9889,818561,0
394,-1,664577,230169,1249666,68919,8077,624458,0
394,1,715873,250278,1296090,74565,8918,647392,0
394,1,711339,248388,1504725,74078,9249,751946,0
395,1,713166,248516,1338771,73752,9253,668973,0
395,-1,663308,230009,1246969,68815,7404,623059,0
395,1,731305,252602,1343604,76855,10341,671014,0
395,1,737959,254170,1512900,77795,9866,755984,0
396,1,715977,249762,1463391,74337,9315,731100,0
396,-1,665148,230339,1332699,68922,7618,665890,0
396,1,708855,248006,1555123,73560,9557,777117,0
396,1,713395,248943,1423029,74264,9053,711120,0
397,1,710790,248147,1392312,73626,8554,695625,0
397,-1,661770,229435,1304034,68553,8116,651605,0
397,1,707721,247193,1330018,73270,9153,664597,0
397,1,717389,250102,1453927,74658,8922,726530,0
398,1,710100,247838,1355119,73504,9059,677274,0
398,-1,663405,229927,1195907,68756,7585,597471,0
398,1,710474,248091,1442994,73638,9261,720987,0
398,1,715607,249393,1394950,74416,7941,697186,0
399,1,708801,247713,1417504,73459,10334,708335,0
399,-1,666886,231586,1308949,69454,7920,653928,0
399,1,707169,247352,1465654,73322,8866,732361,0
399,1,713884,249160,1421427,74330,8815,710332,0
400,1,708179,247615,1315849,73592,8556,657393,0
400,-1,661615,229808,1273162,68687,7568,636190,0
400,1,704961,247286,1362607,73285,8817,680931,0
400,1,715640,250344,1368755,74950,8792,683825,0
401,1,706959,247460,1284575,73453,8680,641647,0
401,-1,669125,230167,1322260,68866,7787,660692,0
401,1,707471,248033,1443715,73583,8815,721364,0
401,1,734815,254191,1608572,77754,9980,803885,0
402,1,711097,249304,1439514,74226,9073,719196,0
402,-1,666626,229668,1196369,68663,7114,597867,0
402,1,704514,247123,1339388,73236,8824,669281,0
402,1,713011,248992,1462573,74245,8892,730707,0
403,1,714038,249012,1369242,73919,8458,684208,0
403,-1,664745,229747,1308381,68684,7957,653743,0
403,1,709859,249582,1344374,74198,9451,671598,0
403,1,716571,249158,1454549,74244,9504,726986,0
404,1,713731,249541,1368093,74222,8719,683438,0
404,-1,669985,232032,1353094,69632,8064,675826,0
404,1,704784,246914,1334924,73259,8678,666984,0
404,1,717306,250600,1307192,74969,9174,653132,0
405,1,706143,247199,1311182,73243,7832,655252,0
405,-1,663330,229291,1378871,68545,7970,689072,0
405,1,710786,247732,1462450,73417,9131,730803,0
405,1,710989,248934,1500928,74154,8818,750033,0
406,1,713995,249317,1382270,74382,8948,690276,0
406,-1,666808,230302,1328027,68832,7902,663597,0
406,1,709028,247725,1490281,73415,9619,744660,0
406,1,715152,250018,1343416,74720,9186,671136,0
407,1,730248,252472,1401375,76973,9193,700114,0
407,-1,664265,230198,1301094,68829,7498,650110,0
407,1,730905,252671,1387709,76884,9998,693296,0
407,1,712768,248778,1440624,74201,9471,719996,0
408,1,708417,247478,1425842,73536,8520,712460,0
408,-1,663027,229904,1300416,68711,7150,649760,0
408,1,734968,257057,1492000,76218,9619,745566,0
408,1,710914,248105,1367416,73958,8531,683444,0
409,1,708837,248248,1353697,73782,8002,676407,0
409,-1,663424,230442,1380609,68893,7924,689902,0
409,1,705827,247543,1400470,73414,8855,699954,0
409,1,709039,248166,1428950,73938,9322,714087,0
410,1,707400,247100,1287306,73532,8299,643238,0
410,-1,663328,229344,1192421,68468,7547,595843,0
410,1,708565,247534,1371184,73322,9349,685283,0
410,1,713557,249974,1458394,74710,9191,728572,0
411,1,711441,249066,1368322,74094,9027,683601,0
411,-1,665436,230124,1234221,68844,7934,616670,0
411,1,709553,248205,1533022,73554,9531,766105,0
411,1,706652,247944,1557764,73840,9376,778196,0
412,1,711401,249762,1462304,74504,9050,730497,0
412,-1,664012,230008,1220809,68815,7261,609931,0
412,1,706139,247406,1283708,73301,8699,641330,0
412,1,733125,252681,1512227,77312,10313,755696,0
413,1,729813,253141,1425270,77260,10052,712255,0
413,-1,667825,231637,1359910,69437,8125,679347,0
413,1,708172,247848,1350795,73431,8862,674922,0
413,1,712020,249244,1342684,74551,8995,670860,0
414,1,713347,249112,1558923,74294,10193,778347,0
414,-1,663920,229908,1258622,68749,7273,628887,0
414,1,730378,253372,1378288,77009,9819,688710,0
414,1,707451,247828,1389949,73870,9867,694596,0
415,1,711659,248990,1488124,74096,10332,743378,0
415,-1,663464,229708,1217237,68695,7241,608125,0
415,1,706093,247873,1380304,73376,9233,689660,0
415,1,711375,248033,1416686,73976,10081,707958,0
416,1,704375,246685,1432487,73281,9690,715932,0
416,-1,682996,234716,1241387,72149,8141,620151,0
416,1,711479,248757,1515549,73836,9787,757236,0
416,1,711877,248618,1380777,74114,9177,690040,0
417,1,705601,247485,1366426,73556,8804,682822,0
417,-1,664041,229762,1264694,68711,8362,631966,0
417,1,706937,248005,1425968,73433,9388,712572,0
417,1,706855,247584,1414377,73809,9065,706872,0
418,1,703680,247283,1274479,73392,8091,636869,0
418,-1,665108,230508,1199387,68988,7797,599329,0
418,1,705605,247707,1363937,73347,9070,681587,0
418,1,707727,248165,1449424,74032,9600,724275,0
419,1,705184,247695,1270980,73600,8551,634878,0
419,-1,667163,231375,1250024,69422,8515,624171,0
419,1,714484,248882,1373224,73679,9539,686004,0
419,1,709022,248858,1335094,74349,9320,667001,0
420,1,723974,251886,1306413,76755,9985,652817,0
420,-1,662383,229850,1216112,68821,7889,607629,0
420,1,740101,254031,1415870,77611,10208,707577,0
420,1,712876,249933,1360279,74874,9374,679440,0
421,1,703161,247650,1331196,73574,8446,665241,0
421,-1,662875,230202,1217707,68822,7230,608421,0
421,1,712111,248116,1284749,73399,8977,641888,0
421,1,705717,246748,1525460,73552,10031,762205,0
422,1,713245,249002,1393247,74209,9114,695986,0
422,-1,668392,232342,1274309,69799,7731,636301,0
422,1,715732,249713,1427914,74124,9658,713280,0
422,1,706636,247828,1510969,73932,9245,755135,0
423,1,704897,246713,1279129,73232,8209,639080,0
423,-1,670339,231183,1345269,69282,8502,671911,0
423,1,712316,247726,1424554,73219,9721,712023,0
423,1,706464,248585,1431177,74101,9237,715184,0
424,1,705471,247005,1406101,73347,9039,702484,0
424,-1,664433,229790,1212737,68694,7114,606011,0
424,1,711810,248090,1370889,73429,9495,684946,0
424,1,720696,250136,1341050,74905,9368,669096,0
425,1,708678,247908,1403224,73696,9152,701142,0
425,-1,663881,229840,1364991,68714,8242,682197,0
425,1,733459,253516,1529597,76993,9987,764423,0
425,1,736491,252676,1533162,77269,11606,766343,0
426,1,713248,249894,1384501,74630,9432,691542,0
426,-1,661808,229857,1202464,68745,7417,600782,0
426,1,711546,247460,1422628,73218,9674,710895,0
426,1,716596,248806,1427908,74229,10971,712866,0
427,1,726625,251774,1392831,76763,9840,695957,0
427,-1,664852,229875,1343573,68718,7605,671505,0
427,1,716866,249504,1467601,74097,9449,733100,0
427,1,714562,248094,1551736,73951,11360,775269,0
428,1,706746,247732,1281088,73594,7927,640185,0
428,-1,684153,234234,1337118,72024,8366,668101,0
428,1,713366,248656,1339223,73699,9269,669249,0
428,1,716384,249473,1394091,74550,10119,696208,0
429,1,710491,249601,1394299,74393,8443,696558,0
429,-1,660910,229751,1319433,68633,7157,659355,0
429,1,710998,247838,1405676,73352,9390,702495,0
429,1,717526,249105,1729769,74314,11019,864467,0
430,1,712838,249428,1385293,74353,8904,692033,0
430,-1,661463,229818,1335133,68715,7103,667123,0
430,1,711482,247881,1503100,73269,10991,751165,0
430,1,714571,248238,1341457,74047,8813,670493,0
431,1,728830,252084,1412498,76812,9349,705826,0
431,-1,661257,229738,1198650,68631,7357,598891,0
431,1,711974,248387,1468123,73543,11329,733185,0
431,1,715645,249300,1476198,74398,9879,737720,0
432,1,706691,247378,1374448,73459,8961,686819,0
432,-1,666516,231467,1349207,69387,8313,674093,0
432,1,712203,248849,1584578,73698,11913,791392,0
432,1,713897,248589,1487352,74158,8606,743332,0
433,1,706588,247184,1343044,73414,8789,671087,0
433,-1,662803,229507,1212633,68519,7602,605862,0
433,1,714959,248134,1526711,73416,10182,762682,0
433,1,718342,250782,1358590,75082,8246,678681,0
434,1,709122,249335,1356259,74408,8347,677188,0
434,-1,662514,230000,1265328,68823,7851,632200,0
434,1,713445,248402,1546947,73556,11062,773102,0
434,1,712012,248291,1370248,74063,8254,684773,0
435,1,706118,247298,1232755,73453,8506,615872,0
435,-1,665439,231457,1228386,69535,7551,613436,0
435,1,717196,250096,1507584,74250,10636,752942,0
435,1,712511,247941,1376243,73911,8526,687860,0
436,1,704297,247437,1255501,73502,7700,627320,0
436,-1,681760,234433,1237747,72053,8149,618353,0
436,1,711000,247880,1459052,73343,9846,729134,0
436,1,713098,248129,1448069,74010,9303,723565,0
437,1,706431,247820,1241563,73675,7896,620679,0
437,-1,659823,229910,1176853,68767,7338,587989,0
437,1,710399,247900,1553414,73347,10641,776317,0
437,1,711842,247843,1511595,73876,9589,755407,0
438,1,722329,251289,1431045,76618,8891,715110,0
438,-1,662778,230178,1231396,68816,7977,615350,0
438,1,730180,252496,1573373,76715,11707,786315,0
438,1,735969,253503,1488251,77495,10475,743655,0
438,-1,692146,235311,1271267,72327,9406,635131,0
439,1,702784,247436,1353803,73507,8292,676449,0
439,-1,681267,234345,1335329,71955,8438,667252,0
439,1,714065,248540,1502838,73714,11426,750876,0
439,1,711613,248639,1361423,74179,9496,680358,0
439,-1,670248,230429,1207034,68889,7676,603008,0
440,1,708363,247622,1370214,73604,8623,684659,0
440,-1,661140,229978,1327406,68763,7814,663355,0
440,1,714677,249314,1561737,74132,11269,780155,0
440,1,714366,248626,1397513,74138,9646,698381,0
440,-1,670936,231068,1181834,69129,8015,590503,0
441,1,707960,247783,1361902,73643,8292,680477,0
441,-1,660031,230171,1187147,68876,7125,593202,0
441,1,710210,247860,1481517,73489,11093,740333,0
441,1,711434,247955,1500276,73908,9048,749778,0
441,-1,671551,231452,1236782,69096,8036,618004,0
442,1,706745,247679,1329594,73573,8744,664497,0
442,-1,664310,232325,1337578,69719,7517,668173,0
442,1,714067,249960,1555949,74360,11030,776435,0
442,1,733738,252889,1665581,77356,9704,832141,0
442,-1,670126,231289,1190917,69088,8116,595011,0
443,1,710256,249241,1390481,74365,9469,694681,0
443,-1,669178,230255,1244790,68815,7971,621982,0
443,1,715312,249207,1436857,74137,9838,717780,0
443,1,715269,249837,1371241,74753,8423,684961,0
443,-1,693902,236593,1249629,73123,9202,624292,0
444,1,706571,248011,1391993,73709,8425,695542,0
444,-1,669454,230702,1293809,68991,7803,646539,0
444,1,733280,252916,1497650,77034,10305,748422,0
444,1,709827,248315,1421882,74006,9426,710543,0
444,-1,671398,231905,1263778,69288,8883,631372,0
445,1,707868,248593,1364219,74080,8475,681439,0
445,-1,671323,231792,1318205,69501,8130,658471,0
445,1,711372,248736,1528313,73851,9333,763568,0
445,1,716207,250130,1377153,74901,9241,688011,0
445,-1,669595,231107,1442023,69027,8567,720482,0
446,1,705938,247446,1340326,73496,8196,669911,0
446,-1,665720,229835,1264583,68690,7883,631955,0
446,1,710303,248417,1480833,73755,9670,739990,0
446,1,714855,249218,1364654,74560,9414,681658,0
446,-1,668499,231031,1359728,68897,8077,679439,0
447,1,704906,247562,1289869,73480,7861,644372,0
447,-1,673860,232568,1352831,69829,8798,675726,0
447,1,711088,249114,1464123,74179,9196,731214,0
447,1,717138,250284,1349755,74950,9099,674220,0
447,-1,666251,230679,1294085,68802,7542,646041,0
448,1,708564,248976,1453684,74162,8889,726418,0
448,-1,667936,230436,1283243,68771,8470,641293,0
448,1,709402,247851,1368606,73587,9200,683917,0
448,1,731624,252628,1490980,77285,9876,744969,0
448,-1,669600,230788,1287523,68970,8727,643217,0
449,1,701580,247141,1341379,73397,7839,670215,0
449,-1,666483,230126,1277481,68647,8405,638381,0
449,1,707889,248499,1390829,73769,9182,695122,0
449,1,710811,247678,1397399,73814,8589,698348,0
449,-1,670295,231325,1455615,69147,8901,726371,0
450,1,702099,247304,1318345,73412,8425,658851,0
450,-1,665983,229951,1219553,68576,7736,609335,0
450,1,717281,249965,1463789,74558,9511,731199,0
450,1,714170,249100,1497708,74321,9357,748474,0
450,-1,688364,235466,1362505,72268,9735,680857,0
451,1,708439,249229,1384158,74325,8872,691374,0
451,-1,670608,232608,1344315,69786,7993,671376,0
451,1,712107,247943,1320464,73574,9520,659769,0
451,1,710648,248328,1472460,74027,9352,735851,0
451,-1,671538,231765,1372812,69263,9690,685986,0
452,1,703270,246550,1295706,73258,7948,647348,0
452,-1,685668,234585,1351690,71984,8907,675442,0
452,1,710985,247509,1248523,73438,9035,623756,0
452,1,709759,248474,1429093,74070,8705,714162,0
452,-1,671701,232253,1370383,69586,9352,684580,0
453,1,704032,247737,1221554,73603,7821,610293,0
453,-1,667373,230492,1269978,68858,8852,634489,0
453,1,711105,247919,1333930,73620,8881,666452,0
453,1,712475,248221,1502187,74007,9616,750829,0
453,-1,667464,231495,1397868,69149,8675,697961,0
454,1,705798,247877,1234650,73638,8643,616820,0
454,-1,667367,230293,1264716,68777,8053,631976,0
454,1,708037,247167,1358659,73265,8978,678970,0
454,1,712652,248514,1573656,74085,9470,786420,0
454,-1,668918,231025,1292940,69021,8267,645868,0
455,1,732273,257196,1342114,76661,9434,670214,0
455,-1,664844,229609,1191455,68521,7347,595283,0
455,1,711732,247565,1302575,73474,9118,650888,0
455,1,715671,250442,1320969,74860,7992,659951,0
455,-1,689483,235760,1316734,72369,9491,658119,0
456,1,704250,247719,1259396,73640,8673,629148,0
456,-1,688452,235354,1273868,72239,9119,636428,0
456,1,710097,247526,1374300,73490,9452,686717,0
456,1,708944,248293,1295157,74006,8021,647177,0
456,-1,667744,231300,1370604,69118,8851,684539,0
457,1,703214,247321,1223492,73504,8115,611456,0
457,-1,663799,229814,1255431,68590,7776,627193,0
457,1,730022,252542,1398537,76988,9446,698866,0
457,1,731218,252866,1447913,77331,9850,723593,0
457,-1,667359,231286,1376729,69131,8676,687851,0
458,1,702788,247548,1336407,73591,8750,667726,0
458,-1,666796,230700,1184063,68927,7835,591595,0
458,1,706569,247344,1364710,73441,8239,681801,0
458,1,709391,248257,1374081,73946,8990,686631,0
458,-1,665889,230795,1272383,68956,8083,635236,0
459,1,708659,249354,1526173,74420,9198,762458,0
459,-1,671792,232034,1276799,69470,8482,637617,0
459,1,702577,245875,1276958,72982,7985,638002,0
459,1,729422,252995,1573524,77365,9633,786255,0
459,-1,665367,230721,1308530,68921,8060,654116,0
460,1,709389,247387,1352002,73479,8626,675571,0
460,-1,665346,229866,1330725,68557,8049,664932,0
460,1,705640,247352,1373763,73495,8397,686355,0
460,1,716316,248744,1375125,74159,9023,687145,0
460,-1,671102,231340,1389181,69151,9177,694020,0
461,1,710043,247316,1363962,73450,8990,681625,0
461,-1,664464,230231,1186278,68762,7365,592673,0
461,1,711052,249300,1379065,74307,8799,688961,0
461,1,717559,249598,1315953,74614,9131,657441,0
461,-1,670570,231371,1302424,69124,9359,650645,0
462,1,715331,249824,1400362,74505,9133,699536,0
462,-1,664875,230706,1352791,69116,8406,675760,0
462,1,711607,247913,1289113,73671,8974,644150,0
462,1,733583,252915,1412688,77264,10339,706070,0
462,-1,672653,232505,1385366,69672,8432,691642,0
463,1,731532,252401,1463044,76887,9742,730995,0
463,-1,674178,232951,1439901,69885,8951,719258,0
463,1,713790,249758,1494353,74483,9081,746492,0
463,1,714194,249400,1253793,74309,8115,626497,0
463,-1,667921,230502,1371962,68933,9396,684588,0
464,1,708094,246805,1366489,73268,9257,682894,0
464,-1,664340,229637,1328026,68552,9004,663705,0
464,1,705585,247217,1395259,73371,8787,697207,0
464,1,713459,248712,1238838,74095,8632,619086,0
464,-1,668008,231515,1392536,69181,8462,695381,0
465,1,709583,247707,1339928,73603,9029,669465,0
465,-1,668233,230544,1210278,68977,7571,604696,0
465,1,712640,249358,1445207,74354,9247,722013,0
465,1,714005,248895,1302745,74140,8807,650942,0
465,-1,670894,231856,1388747,69573,9067,693256,0
466,1,711320,247599,1382685,73495,8654,690930,0
466,-1,670156,231708,1345948,69522,7971,672397,0
466,1,707350,247456,1360335,73513,9463,679567,0
466,1,712399,248006,1397176,73896,8824,698211,0
466,-1,667116,231076,1223651,69029,7502,611198,0
467,1,730328,252346,1423395,76897,9965,711163,0
467,-1,672423,232369,1363660,69819,8215,681034,0
467,1,705794,247244,1236571,73389,8666,617905,0
467,1,735298,253802,1464643,77533,10312,731919,0
467,-1,663887,230201,1276855,68688,6899,638134,0
468,1,707020,247532,1335080,73396,8305,667124,0
468,-1,686223,234234,1394900,71945,8498,697051,0
468,1,707871,248107,1257646,73717,8393,628460,0
468,1,711124,248381,1394153,73938,8926,696750,0
468,-1,671467,232696,1335328,69770,8316,667033,0
469,1,712311,249130,1405428,74122,9173,702087,0
469,-1,664344,229773,1298160,68680,7124,648536,0
469,1,709163,247364,1383173,73436,8492,691054,0
469,1,709819,248164,1293104,73941,7982,646172,0
469,-1,690760,236552,1281170,72574,8481,640277,0
470,1,707349,247310,1357668,73371,8603,678437,0
470,-1,664662,229785,1344799,68664,8011,672082,0
470,1,708708,247598,1371797,73445,9025,685437,0
470,1,707603,247769,1445287,73769,9221,722314,0
470,-1,665517,230798,1349106,68939,7804,674009,0
471,1,705690,247063,1329062,73261,8065,664109,0
471,-1,668226,231579,1344661,69348,8330,671508,0
471,1,708830,248346,1396839,73724,8704,697985,0
471,1,715884,250979,1375985,75133,8382,687405,0
471,-1,666474,231029,1335686,68947,7498,667271,0
472,1,709970,247442,1277548,73422,8663,638516,0
472,-1,665123,230432,1343395,68787,8071,671220,0
472,1,705686,247503,1279816,73407,7752,639531,0
472,1,729486,253030,1427790,77358,9778,713388,0
472,-1,669241,231044,1335693,68951,7978,667504,0
473,1,713315,249133,1379014,74132,9547,688761,0
473,-1,664593,230472,1230791,68719,7900,614959,0
473,1,735454,257139,1493372,76261,9549,746261,0
473,1,713007,248745,1293698,74153,8559,646502,0
473,-1,667483,230874,1252622,68919,7968,625997,0
474,1,706047,247244,1261149,73347,8624,630193,0
474,-1,668999,232072,1308222,69552,8324,653387,0
474,1,729605,252645,1349073,76917,9417,674099,0
474,1,713967,249498,1368629,74412,8533,683950,0
474,-1,673431,233145,1342240,69909,8581,670488,0
475,1,706841,247362,1341293,73322,8428,669923,0
475,-1,667283,230916,1345226,69071,8033,672140,0
475,1,708825,248995,1370327,74128,8978,684584,0
475,1,710774,247956,1370406,73911,8698,684906,0
475,-1,668074,231477,1228825,69136,7311,614011,0
476,1,706814,247403,1444951,73367,9115,721921,0
476,-1,665717,230411,1211376,68791,7391,605326,0
476,1,711597,248194,1452282,73620,8867,725645,0
476,1,732613,252966,1473798,77389,9600,736589,0
476,-1,669270,232427,1349619,69614,7367,674058,0
477,1,706949,247512,1292292,73426,8836,645934,0
477,-1,669497,232039,1328848,69611,7627,663747,0
477,1,713511,249804,1405270,74427,9218,701845,0
477,1,712321,249057,1347051,74264,8452,673179,0
477,-1,666303,231048,1340177,68998,7318,669674,0
478,1,704201,247116,1361590,73234,8800,680362,0
478,-1,685759,234797,1349575,72060,8957,674329,0
478,1,728192,252249,1352869,76734,9035,675881,0
478,1,711245,248965,1273720,74288,9019,636479,0
478,-1,671011,232621,1320419,69800,8445,659510,0
479,1,704764,247642,1389262,73503,9097,694194,0
479,-1,663894,230145,1297733,68715,7930,648512,0
479,1,707743,247955,1368175,73590,8493,683626,0
479,1,714360,248944,1286223,74288,8693,642780,0
479,-1,687820,235532,1290549,72264,8593,644766,0
480,1,707416,247332,1301590,73344,8649,650331,0
480,-1,664853,230956,1195484,68971,6941,597381,0
480,1,706385,247795,1291446,73452,8958,645342,0
480,1,715253,250562,1238367,75022,8056,618499,0
480,-1,665513,230901,1301056,68990,7931,650113,0
481,1,710621,247855,1406839,73573,9737,702915,0
481,-1,664539,231025,1399626,69191,7539,699244,0
481,1,705286,247634,1317892,73449,9098,658476,0
481,1,712878,249381,1353557,74357,8520,676416,0
481,-1,664356,230846,1177858,68953,6962,588450,0
482,1,706886,246603,1326197,73053,8589,662668,0
482,-1,663813,229762,1245862,68619,7548,622485,0
482,1,713239,249751,1362505,74438,9212,680439,0
482,1,712686,249751,1353280,74657,9623,675868,0
482,-1,669514,230559,1379896,68780,8921,689327,0
483,1,729219,252084,1429604,76701,10164,714359,0
483,-1,691653,239373,1293092,71488,7738,646232,0
483,1,730201,252990,1288970,77033,9652,643948,0
483,1,709483,248736,1368109,74230,9272,683712,0
483,-1,674435,232299,1439671,69568,9848,719167,0
484,1,707606,247494,1302264,73445,9210,650644,0
484,-1,668538,232228,1325191,69677,7961,661945,0
484,1,707616,247847,1248423,73512,8479,624056,0
484,1,715380,250043,1368271,74900,9084,682918,0
484,-1,669876,230936,1372667,68989,9600,685861,0
485,1,706749,247082,1398120,73375,8708,698647,0
485,-1,663600,230057,1209215,68757,7244,604326,0
485,1,710207,249892,1308023,74400,8953,653194,0
485,1,731494,252954,1493769,77390,10079,745606,0
485,-1,670626,231049,1450829,69000,10068,724831,0
486,1,706418,247534,1423716,73540,9103,711333,0
486,-1,661234,229366,1366657,68500,7843,683187,0
486,1,706025,248007,1371269,73561,9057,685319,0
486,1,710834,248827,1445729,74256,9967,722442,0
486,-1,670817,231403,1362829,69073,9247,681036,0
487,1,708035,248285,1288729,73660,8066,643992,0
487,-1,679424,236514,1351231,70508,8247,674763,0
487,1,707920,248177,1449704,73764,8382,724449,0
487,1,715290,251339,1373649,75403,9696,685798,0
487,-1,690683,235691,1346153,72324,9176,672425,0
488,1,708170,248305,1387896,73667,8708,693452,0
488,-1,681780,237812,1378782,70610,8283,688885,0
488,1,713599,248518,1325450,73831,9363,662254,0
488,1,713201,250103,1435719,74887,8911,717229,0
488,-1,668132,230840,1355140,68885,8476,676618,0
489,1,706902,247458,1283197,73342,8186,640890,0
489,-1,696727,242648,1327377,71944,7286,662880,0
489,1,709942,247481,1391335,73437,9083,695346,0
489,1,709815,248517,1654840,74226,9083,826155,0
489,-1,669742,230935,1197313,69017,7675,598186,0
490,1,725737,252165,1337922,76682,9451,668316,0
490,-1,712697,246754,1448525,73276,8123,723876,0
490,1,709595,247630,1421263,73598,8642,710170,0
490,1,708697,248499,1439064,74198,9432,718954,0
490,-1,670256,231392,1332804,69096,8653,666076,0
491,1,708577,247192,1359199,73233,9185,679080,0
491,-1,727742,250731,1404759,74741,9483,701752,0
491,1,708643,247544,1368430,73475,8314,683620,0
491,1,718683,249789,1412593,74784,10055,705509,0
491,-1,670964,231681,1250262,69228,7344,624794,0
492,1,708680,247882,1368457,73521,8419,683867,0
492,-1,743579,253510,1421178,77206,9798,710204,0
492,1,709631,248197,1449317,73799,8829,724247,0
492,1,715326,248811,1430990,74321,9990,715388,0
492,-1,689280,235361,1370454,72186,9334,684787,0
493,1,707501,247521,1400317,73476,9131,699759,0
493,-1,721806,248640,1325836,73782,8168,662480,0
493,1,714767,249349,1396651,74315,9855,697684,0
493,1,713401,248469,1437574,74146,9548,718224,0
493,-1,667497,230916,1590517,69099,9162,794541,0
494,-1,726373,250108,1412005,74436,9301,705372,0
494,1,707499,247847,1289396,73510,8145,644322,0
494,1,708956,247404,1368416,73463,9252,683815,0
494,1,735620,253198,1429517,77535,10976,714466,0
494,-1,669662,231840,1443220,69557,9644,721170,0
495,-1,717736,247931,1281265,73539,8092,640205,0
495,1,705068,247353,1382668,73410,8480,690825,0
495,1,712911,249308,1359855,74323,9541,679088,0
495,1,713717,248826,1443578,74296,9765,721447,0
495,-1,667463,231226,1337598,69169,9409,668472,0
496,-1,719636,248155,1440591,73614,9222,719900,0
496,1,707134,247529,1452311,73427,8377,725598,0
496,1,712482,248170,1295992,73804,8864,647512,0
496,1,711989,248141,1450376,74028,9355,724743,0
496,-1,670206,230689,1377177,68933,10182,687702,0
497,-1,720177,248822,1292385,73861,8402,645622,0
497,1,703853,247517,1265268,73461,7720,632171,0
497,1,715964,250019,1415077,74599,9333,706773,0
497,1,714484,248783,1427932,74304,9700,713623,0
497,-1,669002,230546,1391944,68894,9887,695228,0
498,-1,717045,248118,1266853,73609,7855,632929,0
498,1,764038,265677,1335867,78394,9180,667549,0
498,1,712587,248911,1411849,74102,9168,705412,0
498,1,718685,250622,1409345,75096,10021,703191,0
498,-1,691130,235614,1471234,72346,10672,735294,0
499,-1,720277,248680,1378373,73850,8650,688724,0
499,1,761952,265802,1455804,78435,9282,727508,0
499,1,707944,247585,1289760,73501,8551,644467,0
499,1,733681,253132,1684352,77522,11177,841431,0
499,-1,670995,231894,1385186,69350,9089,692059,0
500,-1,717860,248248,1340298,73653,7845,670002,0
500,1,762810,266177,1438791,78580,9658,718917,0
500,1,706841,247472,1301828,73401,8845,650491,0
500,1,714175,249095,1452813,74347,10072,725919,0
500,-1,668029,230974,1455900,69054,9475,727646,0
501,-1,719299,248319,1386473,73711,8599,692566,0
501,1,767296,268880,1422800,79750,9942,710746,0
501,1,709829,248029,1300219,73658,9078,649605,0
501,1,711775,248784,1425044,74299,9406,711852,0
501,-1,667639,231234,1347060,69182,8766,673113,0
502,-1,741792,253613,1417652,77190,8795,708196,0
502,1,782691,270341,1408309,81750,11130,703783,0
502,1,706893,247329,1254483,73381,8221,626821,0
502,1,715860,250310,1413173,74950,10100,705541,0
502,-1,670153,231736,1436729,69346,9821,718033,0
503,-1,718141,248536,1313361,73774,6695,656193,0
503,1,764739,267527,1452562,79131,9102,725560,0
503,1,707784,247731,1283690,73567,8463,641282,0
503,1,713573,248913,1452023,74323,9810,725605,0
503,-1,667014,230784,1351220,68994,8680,675312,0
504,-1,715882,247810,1337251,73495,7476,668203,0
504,1,779920,270004,1562590,81552,10086,780987,0
504,1,729801,253118,1364292,77087,9203,681734,0
504,1,714071,249207,1389743,74386,9464,694036,0
504,-1,667449,230845,1402569,69063,9333,700754,0
505,-1,721802,250417,1422895,74564,8046,710833,0
505,1,761441,265902,1359918,78446,8805,679589,0
505,1,705582,247542,1293154,73458,8592,646293,0
505,1,711833,248689,1426636,74268,9741,712639,0
505,-1,667238,231083,1439397,69139,9774,719287,0
506,-1,719447,248727,1411374,73825,8565,705198,0
506,1,759978,265812,1434865,78388,8903,716837,0
506,1,714447,249149,1395699,74160,9210,697275,0
506,1,712128,249106,1368372,74401,9472,683967,0
506,-1,667545,232013,1345104,69403,8462,671944,0
507,-1,719808,249054,1308122,73966,7884,653771,0
507,1,758937,265425,1331540,78300,8365,665430,0
507,1,714080,249502,1420152,74347,9454,709498,0
507,1,712569,248479,1443473,74147,9797,721107,0
507,-1,670158,231411,1302882,69115,8750,650747,0
508,-1,737955,253019,1406791,76986,9453,703098,0
508,1,762456,265949,1332699,78474,8771,666018,0
508,1,709109,248346,1372865,73723,8717,686044,0
508,1,730267,252838,1385978,77440,11125,692092,0
508,-1,670528,231563,1404293,69096,8851,701799,0
509,1,763251,267779,1573284,79240,10104,785815,0
509,-1,716666,249050,1435085,73902,9516,716771,0
509,1,710737,249032,1377560,74041,8888,688127,0
509,1,709730,248495,1302178,74133,9663,650672,0
509,-1,668025,231008,1371503,68980,9579,685276,0
510,-1,712129,247228,1385315,73301,8806,691969,0
510,1,759498,266651,1401858,78736,9694,700160,0
510,1,729264,252600,1371083,76949,9301,685189,0
510,1,712440,247879,1280236,73995,8939,639629,0
510,-1,666857,230567,1381859,68884,9758,690079,0
511,-1,728462,251046,1455712,74807,9970,727388,0
511,1,755802,265279,1332246,78187,9338,665418,0
511,1,711637,249574,1390943,74349,9157,694990,0
511,1,715939,249454,1385088,74532,9104,691902,0
511,-1,690653,235933,1446254,72478,10488,722552,0
