0,-1,713080,247603,1320972,73410,8607,660033,0
0,-1,720999,249307,1349413,74067,8582,674198,2
0,-1,663749,229510,1286670,68592,8602,642884,0
0,-1,659447,229902,1274986,68779,8765,636864,0
0,-1,666518,231063,1254718,69125,7741,626567,0
0,-1,666647,230465,1328236,68920,7860,663624,0
0,-1,674034,231070,1404188,68870,8793,701584,0
0,-1,673063,231875,1534444,69484,9135,766600,0
0,-1,669701,230163,1352114,68667,8988,675486,0
0,-1,665403,231986,1532977,69049,9397,765147,0
0,-1,670601,232003,1240441,69976,8107,619065,0
0,-1,673587,231954,1334938,70002,9513,666449,0
0,-1,668618,231739,1353369,69683,8364,676192,0
0,-1,672273,233243,1386791,70290,8761,692628,0
0,-1,673358,231234,1358098,69403,8573,678162,0
0,-1,666000,229844,1218582,69246,7484,608859,0
1,-1,662603,229985,1375576,68666,7909,687285,2
1,-1,665724,230738,1284682,69041,8209,641818,0
1,-1,666592,231986,1270399,69711,8582,634318,0
1,-1,666997,230793,1194298,69069,7718,596452,0
1,-1,672609,232284,1429690,69729,9140,713904,0
1,-1,674127,231815,1299518,69145,8512,649154,0
1,-1,672089,231595,1447840,69244,10156,723550,0
1,-1,688264,234868,1317188,72014,9055,658041,0
1,-1,662398,230742,1268701,68418,9486,633773,0
1,-1,687889,235061,1401944,72578,8934,700614,0
1,-1,695230,236311,1326974,73488,10222,662866,0
1,-1,669851,231406,1336837,69584,8558,667956,0
1,-1,688825,235912,1508960,72745,9946,754031,0
1,-1,670711,231270,1337869,69378,8626,668528,0
1,-1,670959,231426,1367198,69912,8236,682500,0
2,-1,669531,232703,1363451,69841,8561,680767,2
2,-1,666125,230085,1263285,68830,8708,631105,0
2,-1,660997,229800,1262334,68802,8012,630736,0
2,-1,666030,230829,1270959,69096,8286,634940,0
2,-1,688834,235358,1287361,72354,8527,643414,0
2,-1,675112,231742,1396923,69192,9177,697903,0
2,-1,671026,231175,1260590,69091,8110,629888,0
2,-1,669835,230530,1361990,68815,9240,680386,0
2,-1,661968,230788,1283111,68361,9357,641040,0
2,-1,665575,229851,1248883,69080,7793,623984,0
2,-1,671350,230802,1219178,69365,8444,609075,0
2,-1,666993,230153,1313685,69146,8327,656425,0
2,-1,671552,231313,1213988,69328,8414,606454,0
2,-1,679234,233173,1307712,70287,8349,653047,0
2,-1,662862,229406,1227996,69062,7641,613745,0
3,-1,663859,230353,1273294,68860,8588,635942,2
3,-1,664904,229917,1452978,68748,9031,725913,0
3,-1,659767,230387,1257206,68945,7667,628165,0
3,-1,664049,230517,1240828,68960,7790,619943,0
3,-1,668320,230864,1371950,68997,8358,685564,0
3,-1,678080,233269,1378655,69828,9432,688554,0
3,-1,673307,232310,1407990,69777,8985,703239,0
3,-1,668790,230553,1319558,68818,9408,659085,0
3,-1,665867,230709,1179106,68404,8072,588971,0
3,-1,668908,231135,1337745,69688,8609,668125,0
3,-1,667704,229698,1375444,68994,9080,687060,0
3,-1,670646,231701,1261403,69899,8373,630039,0
3,-1,677347,233388,1219485,70263,9141,608839,0
3,-1,673178,231037,1295865,69290,8007,647532,0
3,-1,663770,229639,1369841,69136,8200,684361,0
4,-1,664711,230727,1410480,69056,8717,704793,2
4,-1,666317,230553,1371033,68940,8258,684690,0
4,-1,682072,234957,1387268,72297,8560,693249,0
4,-1,671323,231578,1403917,69443,8868,701254,0
4,-1,666307,230422,1242040,68988,7543,620560,0
4,-1,677041,232629,1423960,69393,9739,711489,0
4,-1,688896,235222,1323068,72257,8868,661123,0
4,-1,667067,230309,1287794,68681,9156,643492,0
4,-1,662548,230123,1308553,68193,8287,653744,0
4,-1,666646,230042,1236494,69180,8152,617763,0
4,-1,676124,232738,1314179,70333,8260,656430,0
4,-1,667220,230829,1278494,69473,8707,638738,0
4,-1,693847,236205,1348644,72734,10796,673642,0
4,-1,672439,230726,1391661,69183,8416,695375,0
4,-1,663458,229710,1330187,69143,7582,664691,0
5,-1,663833,229737,1403367,68680,9284,701152,0
5,-1,667837,230973,1287952,69169,9343,643322,2
5,-1,659697,230253,1451090,69007,9167,724831,0
5,-1,668269,230890,1393444,69119,8182,696173,0
5,-1,671074,232755,1354109,69956,7320,676000,0
5,-1,671673,231626,1354067,69094,9091,676609,0
5,-1,669984,230775,1306565,69019,9205,652612,0
5,-1,669219,230781,1271048,68892,8808,635019,0
5,-1,666603,231796,1260004,68889,8131,628284,0
5,-1,668884,230949,1356291,69430,8399,677674,0
5,-1,691339,234933,1582115,72550,11039,790504,0
5,-1,664434,229806,1229607,69153,8381,614280,0
5,-1,673093,231904,1323158,69543,9050,661102,0
5,-1,675706,232428,1365223,69958,8434,681426,0
5,-1,687348,235071,1364892,72714,9065,681988,0
6,-1,666716,230138,1295802,68798,7528,647160,0
6,-1,670749,231797,1381153,69450,8781,689937,2
6,-1,660738,230591,1369113,69053,8048,684178,0
6,-1,665856,230301,1344401,68899,8321,671704,0
6,-1,667264,231537,1349231,69489,8364,673935,0
6,-1,695810,236432,1442522,72481,10292,720590,0
6,-1,667837,230796,1530412,69045,9745,764335,0
6,-1,671229,230476,1289480,68770,9590,644191,0
6,-1,670957,233072,1238429,69430,7888,617987,0
6,-1,669806,231832,1253247,69991,7965,625787,0
6,-1,668959,230286,1549182,69274,9761,773872,0
6,-1,663618,229603,1194270,68989,8054,596352,0
6,-1,677608,233045,1225622,70109,9054,611890,0
6,-1,672146,231187,1293919,69359,9060,646489,0
6,-1,665803,230122,1221456,69330,7767,610306,0
7,-1,670951,232208,1406915,69736,8569,702105,0
7,-1,673896,232985,1259346,70005,8280,628766,2
7,-1,660142,230767,1188328,69154,7186,593657,0
7,-1,671627,233124,1344674,70122,8334,671329,0
7,-1,668072,231633,1232741,69356,7167,615931,0
7,-1,673248,231713,1381171,69085,9069,690152,0
7,-1,661755,228706,1239522,68316,7907,619407,0
7,-1,676508,232968,1249936,69826,8983,624183,0
7,-1,683252,234730,1396393,71480,8995,697742,0
7,-1,662969,229534,1214655,68946,7892,606812,0
7,-1,669452,230484,1268063,69299,7293,633580,0
7,-1,666820,231114,1240067,69495,7973,619559,0
7,-1,672786,231444,1293995,69374,9277,646361,0
7,-1,676304,232889,1255914,70281,8433,627100,0
7,-1,663009,229532,1203981,69087,7943,601498,0
8,-1,667102,231055,1269941,69143,7633,634621,0
8,-1,671245,232131,1336049,69313,8158,667571,2
8,-1,662313,231692,1331309,69606,7844,664909,0
8,-1,664634,230594,1247928,69020,7895,623432,0
8,-1,663521,230326,1343833,68886,7934,671221,0
8,-1,673205,231946,1392644,69219,9408,695708,0
8,-1,670334,230619,1301018,68966,8673,650066,0
8,-1,689801,234829,1275257,71946,9649,637281,0
8,-1,661970,229970,1338422,68122,8027,668318,0
8,-1,665508,230575,1309472,69349,7296,654191,0
8,-1,668603,230481,1339002,69312,8548,668984,0
8,-1,684093,234699,1627613,72425,11101,812705,0
8,-1,672339,231456,1293283,69415,9363,646089,0
8,-1,691445,235549,1425487,72691,9872,712217,0
8,-1,667733,231278,1347958,69882,8654,673248,0
9,-1,663770,229796,1351796,68641,8808,675431,0
9,-1,669267,231048,1243793,69170,8202,621553,2
9,-1,673932,230702,1333311,69084,7848,666230,0
9,-1,667896,231843,1348077,69579,8290,673288,0
9,-1,671628,232254,1318645,69713,8292,658553,0
9,-1,675305,232787,1417129,69684,9440,707541,0
9,-1,667858,230114,1451041,68739,9193,725048,0
9,-1,669497,230431,1248183,68783,8138,623650,0
9,-1,666317,232825,1262732,69265,8573,630375,0
9,-1,663960,230073,1274296,69222,7768,636630,0
9,-1,669672,231164,1277644,69655,8198,638199,0
9,-1,665539,230803,1444354,69190,9282,721423,0
9,-1,674019,232421,1251454,69658,8217,625076,0
9,-1,672897,230587,1405371,69245,9562,702216,0
9,-1,665420,230180,1318384,69340,8237,658749,0
10,-1,667986,231202,1347244,69351,8451,672922,0
10,-1,666981,230778,1380399,69163,8204,689427,2
10,-1,672667,230600,1319809,69125,8087,659453,0
10,-1,664324,230781,1399033,69013,8063,699096,0
10,-1,687147,235046,1334800,72255,8769,666735,0
10,-1,671772,231523,1306347,69102,9192,652700,0
10,-1,670941,231941,1483511,69619,9023,740865,0
10,-1,667153,229837,1192076,68553,7935,595851,0
10,-1,661262,230483,1343232,68310,8315,671053,0
10,-1,692105,234656,1368303,72486,8638,683692,0
10,-1,665068,229046,1331499,68839,7419,665292,0
10,-1,665492,231011,1428657,69366,9736,713551,0
10,-1,669481,231108,1372219,69260,8633,685811,0
10,-1,674102,232229,1284309,69938,8408,641047,0
10,-1,686172,235090,1460255,72684,9923,729643,0
11,-1,663854,229934,1252988,68780,8633,625904,0
11,-1,674393,232505,1448532,69963,8323,722663,2
11,-1,676254,232288,1341041,69874,8794,669986,0
11,-1,666450,230558,1446593,68936,8317,722752,0
11,-1,665995,230820,1516074,69087,8682,757659,0
11,-1,677926,233889,1534859,70073,9996,766826,0
11,-1,688301,235469,1608647,72315,10584,803932,0
11,-1,669031,230692,1310353,68819,8600,654491,0
11,-1,663607,230368,1262577,68215,7575,630824,0
11,-1,670582,230429,1324240,69303,8317,661600,0
11,-1,667659,229970,1246421,69155,8062,622734,0
11,-1,665777,231656,1380563,69739,9896,689641,0
11,-1,670541,231384,1398400,69397,8928,698662,0
11,-1,670103,231079,1435941,69464,8625,717228,0
11,-1,663419,229841,1206670,69214,7606,602887,0
12,-1,661095,229201,1249863,68513,7833,624289,0
12,-1,692585,235287,1304623,72391,9027,651869,0
12,-1,661119,230454,1203387,69073,7982,601202,2
12,-1,664798,231129,1345642,69124,7710,672267,0
12,-1,670698,232331,1412228,69731,8884,705196,0
12,-1,674515,231300,1366204,68970,8759,682548,0
12,-1,668610,231529,1266670,69231,8226,632654,0
12,-1,666390,230100,1390691,68641,8521,694922,0
12,-1,665971,231928,1336327,68933,7686,667307,0
12,-1,671483,231022,1315670,69486,7881,657297,0
12,-1,671079,231478,1266287,69809,8030,632319,0
12,-1,662428,230108,1387496,69081,9463,692939,0
12,-1,671542,231234,1255767,69312,8543,627307,0
12,-1,670568,230782,1353625,69318,8924,676241,0
12,-1,668170,231774,1306593,70094,8279,652460,0
13,-1,665522,230631,1338268,68993,8775,668518,0
13,-1,673881,231969,1358418,69693,9321,678468,0
13,-1,663713,231528,1234548,69410,8211,616759,2
13,-1,664870,230639,1239782,68964,7631,619068,0
13,-1,666994,230951,1328192,69081,8728,663527,0
13,-1,672926,232131,1321150,69278,8638,659931,0
13,-1,664391,230005,1361154,68709,8899,679971,0
13,-1,669217,230589,1335655,68794,8640,667374,0
13,-1,663395,230703,1427233,68381,7805,713112,0
13,-1,667366,229776,1408768,69051,8467,703882,0
13,-1,667772,230660,1333202,69371,8520,666088,0
13,-1,671217,228863,1460185,68686,8502,729507,0
13,-1,672073,231081,1377675,69322,9131,688342,0
13,-1,670561,231266,1384728,69490,8825,691886,0
13,-1,686549,235026,1335702,72699,8894,667351,0
14,-1,661779,229771,1244671,68612,8159,621600,0
14,-1,669275,230228,1332320,68944,8300,665776,0
14,-1,663718,230879,1262491,69195,7631,631138,2
14,-1,664631,230958,1238994,69139,7400,618976,0
14,-1,667244,231359,1305752,69226,8189,652339,0
14,-1,677219,233533,1470060,69971,9779,733410,0
14,-1,667284,230125,1372191,68744,8826,685729,0
14,-1,671703,232017,1288785,69470,8223,643700,0
14,-1,661084,230178,1319846,68138,8075,659494,0
14,-1,669432,230628,1309786,69312,8381,653879,0
14,-1,667479,230695,1286975,69286,8213,642981,0
14,-1,678175,232188,1295902,69943,8466,647196,0
14,-1,675793,232945,1276865,70142,8234,637779,0
14,-1,673704,232560,1296156,70138,8747,647133,0
14,-1,665193,230578,1237051,69463,8136,618052,0
15,-1,664437,230077,1388223,68825,8057,693463,0
15,-1,670994,230650,1283101,69021,8188,641127,0
15,-1,667233,232857,1383615,70066,9011,691012,2
15,-1,664170,230844,1355030,69054,7764,677024,0
15,-1,686515,235645,1321775,72424,10167,660237,0
15,-1,673643,232513,1683757,69345,9893,841292,0
15,-1,670676,231756,1400270,69474,8794,699381,0
15,-1,667535,230805,1308951,68906,8039,653932,0
15,-1,663062,230327,1327001,68214,7836,663100,0
15,-1,688631,234926,1360744,72555,9676,679656,0
15,-1,667359,230246,1367053,69147,8274,683042,0
15,-1,692323,234544,1408925,72335,9445,703923,0
15,-1,695093,236805,1418224,72956,9778,708873,0
15,-1,675279,231852,1341492,69720,9214,670253,0
15,-1,662060,229735,1252255,69148,8308,625723,0
16,-1,662290,229761,1250725,68662,7707,624978,0
16,-1,669969,230490,1316782,69024,8760,657979,0
16,-1,665496,231143,1343215,69141,7995,671133,2
16,-1,690218,235594,1289960,72365,9275,644404,0
16,-1,665101,230740,1268391,68983,7563,633664,0
16,-1,670116,231510,1453601,69115,9917,726444,0
16,-1,667238,231069,1314069,69115,8467,656584,0
16,-1,666622,230237,1416460,68663,8551,707849,0
16,-1,669340,233416,1243245,69495,7930,620553,0
16,-1,664915,229742,1365689,69032,8477,682382,0
16,-1,670509,232051,1265819,70025,7535,632192,0
16,-1,673125,230440,1296745,69189,8616,647840,0
16,-1,670536,231367,1298867,69382,8595,648578,0
16,-1,671322,231088,1362374,69496,9277,680670,0
16,-1,660855,229188,1209145,68979,8150,603882,0
17,-1,664147,230532,1351880,68930,8532,675485,0
17,-1,670730,231201,1308971,69299,8449,653718,0
17,-1,663187,230249,1212869,68876,7447,605911,2
17,-1,667549,230730,1332117,69048,8494,665504,0
17,-1,665555,230832,1237940,69102,7560,618456,0
17,-1,677301,233053,1448296,69695,9941,723625,0
17,-1,663373,229876,1391262,68658,8952,695277,0
17,-1,663050,229821,1281006,68552,7866,640079,0
17,-1,661706,230668,1300753,68360,7877,649725,0
17,-1,665683,230080,1353890,69129,8202,675828,0
17,-1,692235,239258,1333236,71882,8297,666091,0
17,-1,673055,230673,1423956,69242,8546,711555,0
17,-1,672773,232165,1269649,69758,7969,633984,0
17,-1,677806,233276,1382537,70425,8644,690284,0
17,-1,666237,231493,1238125,69947,8628,618426,0
18,-1,661594,230294,1248778,68853,8138,623928,0
18,-1,672055,231070,1536766,69262,10511,767945,0
18,-1,669140,232448,1350768,69865,8487,674572,2
18,-1,667411,230826,1234953,69106,8064,616978,0
18,-1,674183,232324,1318723,69748,8281,658634,0
18,-1,671582,231234,1480126,69081,9637,739658,0
18,-1,671667,233383,1325792,70077,9653,662210,0
18,-1,669633,230409,1312713,68763,8422,655796,0
18,-1,659314,230029,1272807,68040,8510,635911,0
18,-1,673118,232524,1396682,70250,8966,696148,0
18,-1,664296,229899,1213703,69100,8031,606321,0
18,-1,675558,231663,1311591,69748,8877,655064,0
18,-1,669933,230960,1329678,69227,8191,664500,0
18,-1,692408,235539,1601520,72677,10423,799969,0
18,-1,664222,230071,1251558,69311,8153,625276,0
19,-1,660809,229595,1266501,68528,8094,632870,0
19,-1,670957,231074,1455745,69203,9923,727014,0
19,-1,662386,231099,1322868,69194,8143,660949,2
19,-1,668982,231893,1349519,69590,8467,674004,0
19,-1,669690,230944,1250033,69071,7675,624479,0
19,-1,676365,233817,1511945,70265,9676,755025,0
19,-1,670094,230724,1388377,68908,8899,693664,0
19,-1,675661,232417,1293392,69580,8713,645793,0
19,-1,665444,232056,1230110,68983,7512,613945,0
19,-1,667105,230644,1402220,69359,8554,701356,0
19,-1,674994,231665,1389250,69808,8720,693841,0
19,-1,669845,230014,1369941,68958,9165,684308,0
19,-1,670244,231657,1476407,69478,8882,737447,0
19,-1,668781,230346,1344015,69239,8303,671426,0
19,-1,663423,230172,1190494,69281,7659,594833,0
20,-1,667588,230020,1293231,68752,7628,645808,0
20,-1,673666,232757,1354413,70073,9423,676307,0
20,-1,667896,230813,1337397,68982,7986,668085,0
20,-1,665264,230898,1247297,69142,8343,623114,2
20,-1,667607,230303,1383532,68883,8291,691333,0
20,-1,671795,231569,1474223,69270,10324,736866,0
20,-1,666475,229694,1603533,68572,10414,801271,0
20,-1,668410,230253,1413101,68668,9003,705954,0
20,-1,661434,230343,1370516,68260,7609,684481,0
20,-1,667558,231191,1333438,69522,8879,666223,0
20,-1,668503,230041,1318558,69144,7975,658806,0
20,-1,675136,232441,1249399,70032,8350,623829,0
20,-1,668202,231241,1457168,69314,8903,728082,0
20,-1,675417,232205,1227491,70002,8759,612924,0
20,-1,667685,231745,1243584,70041,8090,620936,0
21,-1,666403,230163,1387274,68848,8290,692922,0
21,-1,670559,230352,1336677,68978,8336,667859,0
21,-1,664936,230485,1287987,68988,7632,643447,0
21,-1,663827,230922,1230673,69129,7664,615241,2
21,-1,671142,231628,1373591,69361,7360,685958,0
21,-1,669725,230992,1385407,69080,9486,691949,0
21,-1,667466,230480,1249966,68845,8495,624433,0
21,-1,690245,234948,1369739,72046,10094,684406,0
21,-1,680783,235162,1286536,71636,9465,642882,0
21,-1,666193,230319,1367659,69254,9046,683654,0
21,-1,670431,230917,1345833,69388,8866,672420,0
21,-1,675413,231375,1273289,69447,8708,636153,0
21,-1,671894,231905,1343420,69612,8897,671147,0
21,-1,670799,231167,1298454,69394,9501,648758,0
21,-1,661315,229920,1186379,69265,7994,592729,0
22,-1,674273,232881,1392075,69958,9087,694932,0
22,-1,671664,231079,1263049,69262,8680,631034,0
22,-1,666009,231411,1316827,69313,9078,657880,0
22,-1,664855,231313,1345278,69173,8478,672203,2
22,-1,667619,230621,1226971,68987,7241,613021,0
22,-1,672511,232354,1661900,69581,9689,830002,0
22,-1,666082,230830,1236806,68913,7081,617989,0
22,-1,669745,231048,1433531,68925,8772,716209,0
22,-1,663417,231871,1261396,68919,7259,629799,0
22,-1,668968,230211,1373373,69173,8913,685966,0
22,-1,671647,231892,1253203,70014,8171,625861,0
22,-1,676539,232247,1399961,69884,8753,699402,0
22,-1,672580,232524,1344372,69836,8482,671484,0
22,-1,671005,230537,1375945,69280,8368,687507,0
22,-1,662347,229929,1294920,69227,7776,646973,0
23,-1,692799,235963,1348212,73048,8695,673698,0
23,-1,667884,230174,1320359,68901,8764,659307,0
23,-1,664998,230326,1191915,68871,7800,595331,0
23,-1,692429,239842,1289279,71769,7815,644002,2
23,-1,690374,235302,1328776,72323,8683,664006,0
23,-1,671304,232263,1414740,69559,9690,706341,0
23,-1,669202,230969,1530965,68983,9109,765086,0
23,-1,669643,230211,1381943,68653,9529,690439,0
23,-1,656610,229875,1326084,68068,7584,662559,0
23,-1,671074,231666,1325777,69937,9016,661966,0
23,-1,668199,230640,1331729,69381,8831,665355,0
23,-1,670349,230772,1308549,69207,8525,653793,0
23,-1,671391,232202,1411799,69730,8456,705141,0
23,-1,669707,230428,1339415,69239,7703,669218,0
23,-1,661625,229793,1214559,69226,7262,606801,0
24,-1,665399,230114,1257605,68844,8094,628258,0
24,-1,668963,230213,1208856,68937,8418,603896,0
24,-1,667962,231497,1281387,69480,8553,639723,0
24,-1,670254,232895,1355527,70014,8506,676890,2
24,-1,669103,231590,1302215,69224,7094,650636,0
24,-1,668050,230965,1442653,69101,9899,720626,0
24,-1,673247,232521,1489703,69647,8897,744289,0
24,-1,665710,229795,1384520,68516,8713,691851,0
24,-1,672351,229862,1387264,68503,7360,693130,0
24,-1,688611,235148,1447692,72611,9995,723361,0
24,-1,669679,231292,1221931,69765,8620,610148,0
24,-1,671320,230446,1368555,69159,9049,683818,0
24,-1,666902,230714,1409294,69150,9018,703953,0
24,-1,670703,231322,1260994,69550,7466,630082,0
24,-1,665435,231354,1392577,69882,7923,695621,0
25,-1,664608,229727,1355162,68665,8307,677114,0
25,-1,672289,231878,1288749,69752,9218,643652,0
25,-1,665843,230795,1257515,69068,8619,628291,0
25,-1,667720,230652,1346416,69066,8166,672706,2
25,-1,671141,232352,1336777,69767,8384,667598,0
25,-1,670512,231338,1325072,69273,9568,662126,0
25,-1,667072,230492,1435613,68846,8211,717005,0
25,-1,667980,231022,1397426,68953,8866,698168,0
25,-1,678344,232571,1347838,69615,7566,672984,0
25,-1,666106,229585,1460095,68979,8580,729657,0
25,-1,668084,229934,1276885,69107,9488,637745,0
25,-1,691639,235330,1323379,72535,9391,661026,0
25,-1,673935,233378,1404417,70372,8662,701045,0
25,-1,670400,230848,1307601,69398,8406,653401,0
25,-1,662170,230384,1417805,69390,7956,708223,0
26,-1,670204,232121,1426815,69635,9219,712116,0
26,-1,690602,235594,1259996,72529,9397,629488,0
26,-1,663740,230697,1247520,69010,7911,623276,0
26,-1,659363,230537,1231387,69015,6819,615127,2
26,-1,671311,231884,1304131,69448,7694,651558,0
26,-1,674021,231248,1409020,69190,10259,704038,0
26,-1,665834,230405,1395395,68775,8332,696732,0
26,-1,666538,230126,1239116,68638,8515,619075,0
26,-1,672675,230636,1311688,68787,7401,655399,0
26,-1,664609,229901,1393461,69093,8791,696216,0
26,-1,669329,230749,1235850,69334,8283,617548,0
26,-1,675190,231497,1271167,69649,8174,634801,0
26,-1,674275,232481,1334770,69909,8812,666100,0
26,-1,671219,231864,1229042,69759,7825,613944,0
26,-1,661322,230401,1386168,69413,7332,692609,0
27,-1,666546,229890,1233887,68724,8085,616323,0
27,-1,668530,230474,1243184,69052,8376,621195,0
27,-1,685508,235329,1305797,72356,8385,652351,0
27,-1,662874,230793,1206456,69055,7216,602672,2
27,-1,666710,231165,1296741,69155,7290,647926,0
27,-1,677722,233245,1477123,70107,9865,737491,0
27,-1,689200,235658,1363409,72313,9835,681093,0
27,-1,669461,231401,1421573,69257,8776,709712,0
27,-1,671296,230242,1300027,68639,7648,649466,0
27,-1,664790,229984,1268941,69150,8839,634102,0
27,-1,689445,234962,1387421,72565,8556,693238,0
27,-1,671055,230514,1324218,69123,8416,661624,0
27,-1,670254,231483,1411300,69496,10224,705058,0
27,-1,668615,230501,1227135,69200,7207,613132,0
27,-1,682057,232940,1354392,70548,8041,676430,0
28,-1,666826,230414,1341526,68930,8473,670114,0
28,-1,667081,229748,1336589,68876,8723,667729,0
28,-1,663258,230856,1295755,69102,7390,647253,0
28,-1,665713,230515,1350404,68992,7533,674730,2
28,-1,666493,230451,1258597,68982,7481,628716,0
28,-1,694518,236393,1441982,72641,10241,720233,0
28,-1,668899,231593,1453983,69180,9084,726320,0
28,-1,663601,229502,1347101,68395,9415,673147,0
28,-1,676194,231868,1315062,69350,7743,656780,0
28,-1,668637,232329,1231410,70144,8802,614366,0
28,-1,664220,229738,1266072,69007,7856,632500,0
28,-1,670312,230351,1378928,69077,8794,689000,0
28,-1,670459,231514,1258416,69511,8084,628794,0
28,-1,665530,229744,1325684,68949,7875,662456,0
28,-1,693885,234303,1381275,72497,9249,690169,0
29,-1,665158,230002,1248081,68815,8293,623591,0
29,-1,668900,230836,1287470,69126,8474,643983,0
29,-1,665804,232177,1351049,69713,8381,674685,0
29,-1,665929,231763,1352661,69408,8144,675807,2
29,-1,665434,230484,1353362,68908,7495,676215,0
29,-1,673053,231446,1488776,69288,9499,743971,0
29,-1,666094,230600,1394654,68825,9479,696858,0
29,-1,666472,230791,1260440,68849,8883,629537,0
29,-1,671595,230315,1343819,68679,7801,671384,0
29,-1,683149,234715,1341858,72422,10166,670319,0
29,-1,670516,231652,1258227,69822,7842,628356,0
29,-1,694146,235476,1430838,72553,9691,714963,0
29,-1,669147,231330,1256198,69501,8728,627676,0
29,-1,675390,233757,1260446,70498,7669,629290,0
29,-1,671322,229224,1326242,68931,8459,662739,0
30,-1,664477,229844,1350079,68663,8413,674469,0
30,-1,673226,232775,1431495,70042,9578,714852,0
30,-1,666575,231008,1336531,69136,7876,667672,0
30,-1,672459,232527,1265566,69853,8285,631718,0
30,-1,670271,232324,1359840,69834,7917,678931,2
30,-1,670139,231014,1502113,69098,10175,750354,0
30,-1,669043,232176,1475909,69571,9154,737283,0
30,-1,666848,230792,1287600,68839,8981,643462,0
30,-1,671501,230460,1232566,68734,7326,615571,0
30,-1,667603,230215,1335023,69227,8318,666914,0
30,-1,667327,231017,1436019,69409,9730,717460,0
30,-1,672211,231145,1303694,69354,8687,651452,0
30,-1,673267,232843,1215371,70133,8666,607002,0
30,-1,694453,237177,1429633,73113,8478,714328,0
30,-1,670882,229616,1204863,69186,7932,601946,0
31,-1,664298,230126,1207522,68818,7386,603302,0
31,-1,691591,235047,1527355,72345,9181,763185,0
31,-1,664748,230476,1329584,68939,7337,664380,0
31,-1,689235,235406,1291576,72360,8215,645312,0
31,-1,667886,231445,1386228,69293,8142,692641,2
31,-1,671092,231371,1383217,69191,9240,691156,0
31,-1,671686,231369,1519664,69086,8995,759289,0
31,-1,666134,229937,1548781,68594,9111,773769,0
31,-1,667911,229506,1397854,68310,8215,698385,0
31,-1,693573,239123,1435150,71879,8586,717313,0
31,-1,688692,234444,1389101,72314,8545,694043,0
31,-1,670814,230624,1350347,69252,8537,674576,0
31,-1,673387,231772,1281520,69640,8472,640338,0
31,-1,669918,231612,1233692,69510,6849,616432,0
31,-1,676269,231981,1366887,70085,8097,682832,0
32,-1,667679,231633,1360820,69385,8289,679450,0
32,-1,670419,230875,1465207,69209,8309,730954,0
32,-1,696957,242259,1390987,72859,8231,694540,0
32,-1,663130,229604,1229606,68763,7953,614283,0
32,-1,665846,231733,1268513,69329,8050,633530,2
32,-1,676062,233939,1436092,70285,8527,716964,0
32,-1,673193,232838,1382057,69833,9184,690238,0
32,-1,668787,231867,1370567,69440,8443,684555,0
32,-1,694999,235083,1422893,72015,8927,710951,0
32,-1,664601,229600,1431183,68983,7520,714997,0
32,-1,669405,231376,1286151,69779,7724,642355,0
32,-1,668445,229768,1413433,68870,8568,706334,0
32,-1,670344,231096,1336667,69432,7965,667755,0
32,-1,674044,230720,1343485,69283,8019,671334,0
32,-1,672106,229800,1399220,69228,8927,699101,0
33,-1,665894,230171,1288589,68835,8682,643814,0
33,-1,669841,231031,1335876,69201,7773,667639,0
33,-1,665356,230816,1340878,69032,7813,669922,0
33,-1,663409,230094,1239346,68762,7767,619203,0
33,-1,667252,230987,1202876,69049,6908,600842,2
33,-1,694155,236635,1458569,72691,10710,728880,0
33,-1,667704,231385,1400080,69129,8171,699173,0
33,-1,688098,235606,1403691,72238,10056,701420,0
33,-1,669547,229414,1382440,68424,8290,690760,0
33,-1,673226,233005,1330574,70354,8443,664013,0
33,-1,666202,230533,1398043,69249,7788,698527,0
33,-1,691308,235372,1423793,72544,9069,711330,0
33,-1,673848,233177,1251043,70413,7451,624319,0
33,-1,695223,236398,1435197,72918,8852,717140,0
33,-1,670193,229561,1229877,69108,7586,614567,0
34,-1,663822,229871,1266552,68662,8105,632788,0
34,-1,671665,231423,1331905,69540,7877,665308,0
34,-1,667969,232384,1392105,69750,8727,695369,0
34,-1,671981,233266,1260296,70205,7842,629132,0
34,-1,674285,232475,1397323,69473,8689,698139,2
34,-1,671226,231617,1434221,69226,10100,716506,0
34,-1,666523,230540,1350933,68829,8401,674920,0
34,-1,666278,229937,1272386,68585,8199,635779,0
34,-1,669286,230212,1300647,68586,7059,649800,0
34,-1,686868,234932,1481742,72540,9523,740353,0
34,-1,685694,234695,1448131,72463,9299,723607,0
34,-1,668981,230742,1290068,69250,8160,644574,0
34,-1,670607,231642,1407886,69640,8321,703414,0
34,-1,672473,231072,1328698,69362,8416,663921,0
34,-1,675071,232037,1323563,70135,8105,660932,0
35,-1,665479,230726,1192399,68978,8539,595714,0
35,-1,667264,230012,1322671,68887,7733,660897,0
35,-1,664024,230792,1323841,69087,7804,661496,0
35,-1,684714,235009,1244261,72257,8165,621631,0
35,-1,667791,231700,1213121,69205,8182,606070,2
35,-1,672735,232435,1343619,69539,9433,671274,0
35,-1,669768,231957,1295023,69517,8695,646556,0
35,-1,663078,229649,1419882,68425,8067,709498,0
35,-1,675716,232850,1263779,69711,7865,630869,0
35,-1,662717,229437,1311252,68916,9154,654542,0
35,-1,666040,230905,1342599,69407,8325,670821,0
35,-1,665594,229534,1398322,68824,8504,698681,0
35,-1,674750,232971,1250639,70315,7856,624487,0
35,-1,676409,232753,1257736,70152,7956,628001,0
35,-1,691793,234707,1405170,72616,9179,702094,0
36,-1,664762,230707,1209541,69004,7920,604344,0
36,-1,667040,230294,1221432,68990,7216,610272,0
36,-1,666879,231104,1271221,69149,7226,635120,0
36,-1,667074,230567,1370518,68965,7657,684806,0
36,-1,670360,231874,1401851,69408,9174,700167,0
36,-1,671014,231565,1531403,69284,9961,765200,2
36,-1,665961,230819,1286940,68836,9012,643132,0
36,-1,669149,232000,1425752,69542,7953,712223,0
36,-1,691397,235306,1383051,72071,8258,691082,0
36,-1,664477,229828,1365766,69026,8748,681783,0
36,-1,669609,231736,1232825,69919,8194,615514,0
36,-1,698532,240436,1375066,72112,8087,686901,0
36,-1,674484,232731,1318336,70208,7498,658482,0
36,-1,674480,232207,1350774,69811,8241,674867,0
36,-1,671424,230253,1225045,69370,8115,612052,0
37,-1,661396,229651,1179095,68599,7406,589060,0
37,-1,673739,232753,1327214,70042,7882,662770,0
37,-1,662765,230318,1359908,68936,7635,679391,0
37,-1,667239,231087,1338018,69165,7793,668449,0
37,-1,669808,232058,1363092,69424,9448,680837,0
37,-1,673557,233094,1395535,69604,9902,697222,2
37,-1,687781,235296,1400500,72199,9551,699872,0
37,-1,686798,235587,1305594,72256,8894,652354,0
37,-1,667726,230159,1381277,68556,7888,690182,0
37,-1,685251,234461,1473897,72354,9965,736481,0
37,-1,685891,234760,1396993,72514,9602,698080,0
37,-1,671801,231802,1249056,69748,7821,623771,0
37,-1,668589,231482,1232913,69596,7347,615990,0
37,-1,672685,231901,1332795,69651,8328,665912,0
37,-1,670555,229193,1340466,68978,8846,669812,0
38,-1,663070,230328,1250559,68788,8424,624663,0
38,-1,689093,234451,1289030,72104,8389,644061,0
38,-1,663080,230649,1307470,68988,8247,653321,0
38,-1,666155,230862,1221309,69054,7198,610152,0
38,-1,673221,232016,1267776,69372,8218,633446,0
38,-1,671529,234335,1376626,70314,9770,687546,2
38,-1,668149,232290,1385074,69662,8711,691400,0
38,-1,663599,230126,1242233,68571,7943,620647,0
38,-1,675472,231259,1382062,68979,8392,690589,0
38,-1,664760,230238,1297819,69185,8269,648319,0
38,-1,664511,229911,1370082,69113,8698,684588,0
38,-1,667526,230031,1301722,68956,8025,650329,0
38,-1,670874,231971,1336710,69723,8223,667948,0
38,-1,680914,233861,1407269,70598,10515,702579,0
38,-1,677044,232293,1339648,70182,8473,669216,0
39,-1,679492,233418,1385842,71714,8152,692368,0
39,-1,668804,230485,1395680,69048,8119,697336,0
39,-1,662627,230981,1220824,69136,7792,609909,0
39,-1,664474,230658,1336101,69000,7777,667566,0
39,-1,672827,232349,1282826,69402,8670,640547,0
39,-1,669766,232089,1335057,69317,8876,667033,2
39,-1,670596,230075,1256127,68779,7739,627822,0
39,-1,664777,230979,1331291,68923,8032,665187,0
39,-1,676100,231980,1259175,69362,8343,628806,0
39,-1,663433,229993,1399080,69148,9166,699194,0
39,-1,664286,231013,1275873,69649,8594,637106,0
39,-1,667164,230429,1359097,69159,8686,679065,0
39,-1,668452,231379,1408433,69553,8796,703648,0
39,-1,672632,231082,1285811,69371,7901,642492,0
39,-1,669776,229496,1307553,69067,8434,653374,0
40,-1,666888,230934,1346998,69071,7784,673020,0
40,-1,669490,230819,1337417,69173,8076,668224,0
40,-1,665817,231812,1384497,69553,8994,691429,0
40,-1,663147,230502,1310739,68995,7108,654751,0
40,-1,675519,233512,1317377,70092,8839,657562,0
40,-1,674827,233345,1360699,69986,8565,679471,2
40,-1,670962,230702,1267294,68984,8705,633203,0
40,-1,672091,231067,1257675,68999,7946,628362,0
40,-1,670537,229896,1323652,68491,8036,661339,0
40,-1,668983,232128,1363499,69965,9229,680747,0
40,-1,669180,229834,1240311,69061,8479,619590,0
40,-1,671788,230975,1274139,69315,8792,636496,0
40,-1,670855,231924,1232168,69793,6892,615609,0
40,-1,674769,232427,1238811,69881,7688,618925,0
40,-1,670334,229812,1250055,69207,8111,624640,0
41,-1,663925,229816,1491091,68705,8921,745126,0
41,-1,667271,229834,1299839,68764,7666,649459,0
41,-1,663734,230969,1298999,69149,8848,649025,0
41,-1,664361,231261,1275516,69253,7954,637220,0
41,-1,691568,235837,1269253,72481,9206,634074,0
41,-1,666347,231876,1315708,69282,8182,657535,2
41,-1,671225,230399,1348815,68882,8924,674048,0
41,-1,669836,230150,1342453,68650,8942,670879,0
41,-1,670708,230525,1275995,68734,8239,637675,0
41,-1,662877,229928,1353951,69106,9057,676521,0
41,-1,666039,229452,1288973,69024,7814,643895,0
41,-1,670982,230695,1372167,69201,8829,685453,0
41,-1,668074,230911,1327247,69405,7198,663244,0
41,-1,676501,233545,1226737,70384,7706,612590,0
41,-1,669847,229329,1296414,69024,7914,647874,0
42,-1,667475,231616,1370573,69468,8642,684655,0
42,-1,686645,234928,1361349,72301,9121,680130,0
42,-1,660210,229720,1386673,68653,8909,692837,0
42,-1,665906,231859,1471708,69591,8313,734875,0
42,-1,671086,231685,1269113,69333,9163,633867,0
42,-1,666332,230955,1244747,69071,8033,621799,2
42,-1,691536,235793,1328934,72466,9333,664039,0
42,-1,669292,230320,1295628,68737,8584,647340,0
42,-1,669172,230392,1327625,68587,7659,663432,0
42,-1,667784,230258,1359906,69194,9429,678959,0
42,-1,668840,230234,1245412,69129,7592,622204,0
42,-1,671650,230991,1408094,69328,8938,703549,0
42,-1,671324,232568,1256480,70149,7479,627625,0
42,-1,676161,232833,1263345,69984,7849,631133,0
42,-1,675584,232156,1435771,70215,8285,716756,0
43,-1,665479,230396,1482106,68704,8175,740563,0
43,-1,665381,230549,1376048,69082,8369,687572,0
43,-1,684758,235757,1290075,72498,8191,644572,0
43,-1,668659,231025,1375274,69113,7794,687212,0
43,-1,669366,231435,1203627,69158,8488,601207,0
43,-1,693024,240171,1439123,71722,9476,718712,2
43,-1,667127,230154,1362740,68743,8037,680882,0
43,-1,669048,230237,1513757,68676,10187,756470,0
43,-1,691588,234964,1396776,71963,9122,697907,0
43,-1,687519,234670,1677731,72483,10669,838656,0
43,-1,668119,230293,1338841,69268,8122,668541,0
43,-1,669401,230463,1386889,69049,8988,692939,0
43,-1,684827,234346,1405255,72330,9080,702161,0
43,-1,672861,232108,1281276,69716,7940,639977,0
43,-1,667643,229794,1213595,69230,7946,606355,0
44,-1,661737,229997,1323472,68646,7836,661321,0
44,-1,671911,231527,1402265,69566,9533,700124,0
44,-1,669098,231127,1192714,69202,7945,595465,0
44,-1,665679,229977,1270156,68786,7674,634577,0
44,-1,672347,232846,1276998,69822,8835,637599,0
44,-1,665433,230171,1364154,68879,8349,681635,2
44,-1,669653,231351,1412768,69221,8466,705883,0
44,-1,672079,231974,1348099,69521,8440,673249,0
44,-1,671052,231164,1316443,69003,7840,657821,0
44,-1,665776,230458,1435918,69308,9350,717639,0
44,-1,668589,230825,1323011,69607,8346,660571,0
44,-1,673806,232005,1246403,69876,8923,622240,0
44,-1,673662,231382,1178783,69483,8499,588993,0
44,-1,671997,231779,1259759,69547,8055,629393,0
44,-1,675728,231779,1358435,70029,8751,678354,0
45,-1,662391,230137,1332433,68722,7555,665663,0
45,-1,667677,230155,1327706,68956,8539,663161,0
45,-1,671095,231638,1207332,69335,7508,603129,0
45,-1,664975,230594,1221885,69018,7294,610420,0
45,-1,672212,231463,1274681,69085,9088,636950,0
45,-1,672460,231667,1361580,69493,9231,679962,0
45,-1,665084,231179,1538914,69100,8947,768854,2
45,-1,689908,235361,1500057,72175,9518,749446,0
45,-1,671713,230561,1249929,68787,8483,624381,0
45,-1,669636,231853,1280354,69935,9776,639252,0
45,-1,666821,229990,1480284,69156,9209,739603,0
45,-1,670256,230609,1374862,69170,9044,686958,0
45,-1,674327,232059,1207870,69816,8317,603618,0
45,-1,673934,232989,1267620,70199,7584,632965,0
45,-1,669240,229415,1264041,69004,8225,631649,0
46,-1,661665,229901,1258804,68586,7906,628763,0
46,-1,667179,230041,1312037,68876,8962,655550,0
46,-1,694825,237040,1293012,73398,8738,645910,0
46,-1,667769,231634,1338284,69472,7763,668395,0
46,-1,672918,232383,1256608,69463,8362,627915,0
46,-1,669580,230431,1358709,68876,8885,678969,0
46,-1,672845,233166,1370416,69954,8636,684315,2
46,-1,670300,230527,1457859,68818,9359,728330,0
46,-1,670214,230801,1269897,68836,8325,634314,0
46,-1,663639,230309,1273619,69262,9130,635673,0
46,-1,669029,229987,1312463,69099,8023,655811,0
46,-1,669448,230547,1337635,69132,8084,668311,0
46,-1,670639,230889,1249254,69383,8131,624116,0
46,-1,694182,237143,1469843,73178,10238,734451,0
46,-1,669909,229860,1246994,69192,8775,623047,0
47,-1,662159,230460,1345659,68830,8041,672438,0
47,-1,668340,230853,1353039,69194,8455,676049,0
47,-1,667775,231260,1305411,69234,7712,652127,0
47,-1,663683,230537,1239227,69002,6881,619005,0
47,-1,686196,234722,1382013,72057,8978,690455,0
47,-1,689097,235368,1371518,72319,9181,685334,0
47,-1,663542,230210,1391281,68840,9379,695115,2
47,-1,669841,230762,1240325,68854,8402,619550,0
47,-1,675911,232905,1395812,69824,9489,696647,0
47,-1,663066,230132,1269933,69183,8719,634439,0
47,-1,671737,231728,1224104,69898,7507,611164,0
47,-1,669611,231016,1313562,69329,8792,656235,0
47,-1,676482,232025,1233300,69813,8306,616285,0
47,-1,671955,230747,1262993,69227,8356,630991,0
47,-1,667982,229702,1338922,69136,8609,669056,0
48,-1,662717,230653,1237878,68831,8223,618275,0
48,-1,693017,239200,1404176,71576,8949,701454,0
48,-1,668311,231373,1218201,69268,7922,608690,0
48,-1,672528,233308,1351759,70119,8204,675029,0
48,-1,666960,230827,1324483,69071,8049,661773,0
48,-1,669037,230567,1334078,68962,8236,666599,0
48,-1,666470,229958,1254246,68763,8558,626608,2
48,-1,688300,234731,1316819,71969,8566,657908,0
48,-1,689436,234958,1385183,72037,9460,692070,0
48,-1,670391,232848,1270446,70316,9057,634088,0
48,-1,687932,234725,1394200,72506,9228,696580,0
48,-1,674027,232523,1326208,70044,8564,662556,0
48,-1,677759,233494,1321727,70486,8226,660027,0
48,-1,673323,231645,1251165,69538,8202,625001,0
48,-1,670801,230104,1366381,69312,7996,682618,0
49,-1,666790,231827,1353212,69570,8878,675586,0
49,-1,666981,230745,1334721,69144,8292,667466,0
49,-1,673406,232588,1357598,69817,8075,678097,0
49,-1,684351,234713,1289533,72117,8046,644239,0
49,-1,669976,232098,1369393,69641,8741,684042,0
49,-1,668505,231319,1259106,69123,8314,629032,0
49,-1,665892,231045,1277472,69016,7579,638215,2
49,-1,666899,230288,1365739,68701,7593,682449,0
49,-1,667482,229329,1264848,68419,7533,631788,0
49,-1,662399,230271,1364353,69209,8708,681752,0
49,-1,667344,230113,1298623,69201,7321,648743,0
49,-1,689960,235072,1412299,72454,9522,705672,0
49,-1,693589,236257,1646194,73006,10919,822709,0
49,-1,673671,231926,1272443,69576,8719,635640,0
49,-1,669192,229469,1219913,69064,7950,609492,0
50,-1,685824,234519,1347960,72018,8426,673506,0
50,-1,668302,230564,1289095,69076,8276,643821,0
50,-1,666912,230616,1325369,68998,8079,662256,0
50,-1,664327,230641,1306817,68971,7654,652859,0
50,-1,675896,232252,1345808,69713,8603,672134,0
50,-1,672400,231239,1264836,69159,9654,631749,0
50,-1,671257,232400,1300811,69739,8228,649656,2
50,-1,664239,229476,1374039,68373,7593,686648,0
50,-1,669073,230628,1315515,68831,7791,657106,0
50,-1,666396,229944,1300382,69103,8967,649569,0
50,-1,668520,230903,1295114,69394,7743,647138,0
50,-1,667563,230404,1272087,69075,8218,635348,0
50,-1,671779,231794,1465696,69777,10067,732064,0
50,-1,669964,230970,1215275,69203,7482,607202,0
50,-1,674297,231899,1314004,70130,8004,656200,0
51,-1,664775,230216,1298804,68882,8024,649077,0
51,-1,672494,233059,1382448,70117,8405,689100,0
51,-1,667908,231299,1436988,69242,8248,717996,0
51,-1,670643,232506,1367877,69759,8258,682946,0
51,-1,668798,230521,1375470,68779,7955,687268,0
51,-1,673214,232119,1360278,69657,9300,679125,0
51,-1,670332,231278,1467571,69076,9902,733386,2
51,-1,666483,230372,1281112,68769,7843,640092,0
51,-1,670281,231481,1346969,69281,8162,672711,0
51,-1,672305,231014,1355943,69441,9221,677431,0
51,-1,666891,230588,1358870,69331,8127,678847,0
51,-1,666132,230118,1361260,69079,9301,680031,0
51,-1,674018,232592,1250911,70150,7880,624738,0
51,-1,672824,231395,1254463,69337,8403,626787,0
51,-1,667216,229558,1461147,69040,8802,731084,0
52,-1,665153,230568,1222937,68985,7966,610883,0
52,-1,687724,235361,1369819,72421,9377,684386,0
52,-1,664345,230399,1311904,68871,7875,655483,0
52,-1,664935,230910,1247588,69078,7413,623243,0
52,-1,674033,232810,1344310,69722,8080,671464,0
52,-1,669302,230979,1395656,69047,8877,697260,0
52,-1,670900,231491,1379143,69034,8405,689058,2
52,-1,666794,230516,1260271,68798,7871,629671,0
52,-1,670715,230564,1347925,68785,8227,673526,0
52,-1,671790,231115,1555176,69506,9956,776352,0
52,-1,668613,230941,1323834,69639,8293,661207,0
52,-1,670263,231520,1383805,69713,9046,691179,0
52,-1,670538,231527,1313126,69641,7868,656070,0
52,-1,694097,239646,1419259,71910,8081,709240,0
52,-1,667895,229763,1243890,69211,7894,621240,0
53,-1,665360,231070,1361222,69314,8829,679906,0
53,-1,667310,230902,1412331,69189,8488,705473,0
53,-1,667112,231291,1216285,69253,7317,607670,0
53,-1,665437,231379,1328009,69183,8052,663445,0
53,-1,670425,230977,1326786,68962,8093,663019,0
53,-1,671878,231772,1360648,69454,8794,679459,0
53,-1,671138,231653,1335918,69063,8297,667445,2
53,-1,663507,229661,1343938,68439,8128,671557,0
53,-1,692559,234874,1422781,72000,10025,710848,0
53,-1,668303,229847,1420047,69067,9713,709543,0
53,-1,669509,231661,1490672,69719,9626,744789,0
53,-1,671673,230543,1498223,69209,9212,748565,0
53,-1,670094,231361,1245335,69496,8117,622339,0
53,-1,667634,230880,1412686,69377,7920,705900,0
53,-1,673169,231443,1319490,69914,8816,659123,0
54,-1,664421,230661,1333173,69008,8476,665891,0
54,-1,666791,230915,1322806,69156,8334,660936,0
54,-1,664568,230914,1242234,69123,7829,620275,0
54,-1,685596,235219,1247211,72327,8868,623082,0
54,-1,669217,230944,1286722,69003,7867,642760,0
54,-1,667961,230741,1303074,68924,7880,651103,0
54,-1,666854,230947,1335845,68925,8215,667484,2
54,-1,667249,230157,1237682,68653,8251,618388,0
54,-1,670233,230150,1247424,68635,7895,623165,0
54,-1,666561,229581,1288680,69016,9687,643901,0
54,-1,670488,232557,1233304,70233,8000,615416,0
54,-1,669107,229930,1304671,68940,8367,651838,0
54,-1,669191,231232,1328736,69501,8876,663906,0
54,-1,670226,231080,1339048,69400,8491,669063,0
54,-1,667900,229784,1320969,69195,8293,659992,0
55,-1,662816,230475,1197299,68868,7814,598227,0
55,-1,669894,232389,1411175,69823,9021,704997,0
55,-1,665448,230151,1347995,68835,8490,673522,0
55,-1,664259,230808,1173850,69095,6979,586357,0
55,-1,669517,230605,1242490,68852,7150,620609,0
55,-1,665384,230164,1363286,68668,8673,680945,0
55,-1,665541,230465,1238600,68817,8139,618775,2
55,-1,672330,232421,1379744,69587,7946,689221,0
55,-1,671032,230777,1352540,68869,9164,675783,0
55,-1,668796,230631,1404361,69309,9631,701568,0
55,-1,686086,234863,1355669,72510,9543,677512,0
55,-1,669059,229952,1390394,68940,9208,694525,0
55,-1,678834,233323,1252287,70456,8409,625458,0
55,-1,669093,230695,1264288,69226,7711,631734,0
55,-1,673102,230481,1220401,69451,7843,609616,0
56,-1,659621,229829,1217883,68666,7863,608277,0
56,-1,667208,230943,1304115,69227,8752,651548,0
56,-1,671793,232081,1355387,69484,7804,677135,0
56,-1,663498,230971,1322310,69086,8190,660591,0
56,-1,669840,230957,1359702,69014,7411,679349,0
56,-1,668783,230749,1367427,68928,9313,683235,0
56,-1,666537,230002,1347430,68618,8620,673321,0
56,-1,667202,230333,1255583,68782,8758,627267,2
56,-1,695561,239112,1441559,71297,8413,720388,0
56,-1,673224,231726,1389184,69890,9387,693713,0
56,-1,668699,230016,1305517,69165,8411,652265,0
56,-1,669475,230449,1295081,69142,8627,647061,0
56,-1,671657,231537,1397484,69661,8426,698267,0
56,-1,668519,230929,1380454,69288,8400,689944,0
56,-1,669388,229432,1315888,69058,7432,657490,0
57,-1,662262,230018,1306091,68715,9009,652565,0
57,-1,691492,235257,1392292,72443,10053,695615,0
57,-1,672435,232921,1333756,70087,8138,665847,0
57,-1,661697,230216,1222293,68844,8410,610685,0
57,-1,671644,232058,1413568,69538,7807,705976,0
57,-1,668447,230885,1355338,68955,8813,676893,0
57,-1,664612,230254,1335495,68673,7597,667162,0
57,-1,663523,230333,1304567,68764,7713,651763,2
57,-1,669461,230154,1443894,68632,8363,721353,0
57,-1,665522,229676,1399340,69052,9517,699165,0
57,-1,666720,230237,1337131,69248,8427,668043,0
57,-1,672290,231635,1352927,69500,7957,675927,0
57,-1,673761,232688,1250604,70189,8264,624625,0
57,-1,671908,232782,1275169,70172,8075,636690,0
57,-1,672527,230450,1201751,69416,8097,600371,0
58,-1,664232,230513,1196771,68844,8570,597910,0
58,-1,672936,231815,1400470,69650,8657,699276,0
58,-1,666260,231035,1413490,69098,7979,706254,0
58,-1,667045,232448,1345092,69850,8345,671496,0
58,-1,670575,231459,1306723,69144,7424,652701,0
58,-1,666580,230920,1235779,68943,7948,617480,0
58,-1,665267,230537,1289630,68771,7741,644244,0
58,-1,668026,230756,1352116,68905,9030,675359,2
58,-1,689588,235474,1369965,72217,8744,684537,0
58,-1,668517,231347,1418571,69771,8947,708345,0
58,-1,666273,230438,1326107,69252,7926,662581,0
58,-1,668752,230723,1379362,69220,8584,689136,0
58,-1,672439,231628,1356644,69670,8404,677781,0
58,-1,670839,232145,1360959,69929,8156,679549,0
58,-1,673904,231310,1340646,69856,8473,669663,0
59,-1,661691,230197,1344987,68827,8779,672094,0
59,-1,668648,230653,1403411,69125,8522,701197,0
59,-1,670287,232309,1341454,69709,7865,670012,0
59,-1,663849,231117,1406794,69203,8384,702802,0
59,-1,668299,230996,1321244,68885,7841,660153,0
59,-1,665774,230064,1389564,68680,9528,694446,0
59,-1,672567,232518,1323887,69652,8401,661244,0
59,-1,666605,230188,1257502,68733,8288,628193,2
59,-1,669570,230022,1270761,68600,8039,635052,0
59,-1,665989,229220,1543663,68815,8913,770629,0
59,-1,687166,234759,1378697,72495,9781,688990,0
59,-1,669839,231236,1251144,69539,8488,624897,0
59,-1,670001,231201,1341244,69561,7876,669975,0
59,-1,665202,230512,1452616,69179,9098,725846,0
59,-1,670123,229757,1214591,69116,8190,606748,0
60,-1,680912,234156,1354808,71858,9172,676841,0
60,-1,670398,230598,1470968,69080,10220,734249,0
60,-1,663114,230533,1245324,68957,7722,622075,0
60,-1,664698,231986,1350141,69652,8120,674337,0
60,-1,668303,231126,1315382,69063,7842,657295,0
60,-1,664775,229894,1381838,68618,8426,690457,0
60,-1,667376,231146,1447353,69019,9013,723139,0
60,-1,666308,230802,1302631,68845,8151,650829,2
60,-1,670547,230753,1297903,68882,7776,648290,0
60,-1,667692,230151,1462017,69210,9474,729483,0
60,-1,665310,230376,1289437,69298,7951,644217,0
60,-1,668250,230059,1421211,69003,8664,709930,0
60,-1,671843,231917,1268399,69763,8583,633788,0
60,-1,667496,231741,1244352,69611,8018,621724,0
60,-1,672433,230448,1230982,69388,7669,615020,0
61,-1,659107,229852,1251269,68688,7906,625072,0
61,-1,673067,231983,1313122,69668,9447,655648,0
61,-1,663830,230081,1357739,68822,7936,678327,0
61,-1,673230,230855,1359759,69049,8373,679362,0
61,-1,666771,230817,1231612,68873,7337,615353,0
61,-1,688871,235934,1295130,72404,9109,647175,0
61,-1,663056,229913,1342437,68536,7619,670790,0
61,-1,665405,230263,1331595,68801,8652,665089,2
61,-1,672415,231609,1263996,69316,7801,630899,0
61,-1,669858,230934,1532374,69433,10633,765258,0
61,-1,663791,229780,1229990,69086,7999,614454,0
61,-1,672738,232274,1333936,70011,8762,665074,0
61,-1,671785,231154,1350838,69476,8291,675034,0
61,-1,675168,232651,1266887,70192,8306,632863,0
61,-1,674760,231715,1291403,69959,8012,645096,0
62,-1,668015,229995,1308662,68760,7860,653761,0
62,-1,668662,230927,1253781,69158,9010,625974,0
62,-1,668206,231650,1356792,69305,7916,677974,0
62,-1,672811,231410,1316060,69283,8448,657496,0
62,-1,671478,231951,1302043,69463,8760,650541,0
62,-1,665244,230712,1367337,68858,9345,683202,0
62,-1,672314,232899,1281087,69820,8203,639782,0
62,-1,667199,230573,1358681,68835,8303,678702,2
62,-1,669144,230696,1321473,68871,7703,660149,0
62,-1,672780,232584,1323979,70259,9683,661494,0
62,-1,671230,231766,1250386,69897,8057,624513,0
62,-1,667796,230414,1283471,69142,8247,641193,0
62,-1,673378,232511,1347266,70129,8068,672961,0
62,-1,670766,231309,1240136,69493,8335,619621,0
62,-1,669753,229835,1279400,69139,7713,639284,0
63,-1,668294,229572,1252443,68529,8277,625746,0
63,-1,666804,230608,1256710,69010,8193,627828,0
63,-1,663841,230474,1321348,68994,7600,659961,0
63,-1,668171,230009,1250374,68785,8102,624689,0
63,-1,669650,231149,1224475,69025,8268,611738,0
63,-1,673260,231880,1367395,69456,9165,683215,0
63,-1,664874,230457,1251966,68785,8155,625589,0
63,-1,673860,233089,1248818,69879,8181,623644,2
63,-1,668064,230118,1326111,68624,8045,662448,0
63,-1,687701,234738,1508801,72491,10686,753496,0
63,-1,666838,230640,1237668,69371,7264,618382,0
63,-1,672486,231882,1289825,69707,8886,644647,0
63,-1,698073,240695,1524087,72375,9748,761589,0
63,-1,670140,231418,1570008,69549,9509,784585,0
63,-1,666990,229734,1218664,69052,7838,608857,0
64,-1,669781,230393,1348970,68898,8769,673850,0
64,-1,668859,230709,1347724,69068,9038,673352,0
64,-1,668523,232325,1455345,69747,8597,726920,0
64,-1,676009,232852,1373484,69986,9372,685981,0
64,-1,664975,229470,1215583,68445,7476,607397,0
64,-1,668960,230236,1395540,68704,9427,697239,0
64,-1,664177,230160,1189489,68660,7838,594317,0
64,-1,668641,230640,1457374,68849,8363,728121,0
64,-1,669920,230920,1410603,68947,8424,704600,2
64,-1,668303,230947,1247908,69464,8864,623287,0
64,-1,663914,229902,1367364,69107,8110,683250,0
64,-1,668008,230960,1379972,69261,8288,689473,0
64,-1,666878,230361,1213731,69177,7534,606458,0
64,-1,694685,236247,1391038,72909,9293,695018,0
64,-1,669919,231224,1210306,69620,7768,604523,0
65,-1,669096,230574,1341473,68926,9042,670095,0
65,-1,668448,230733,1343816,69055,8650,671421,0
65,-1,669237,232789,1250569,69961,8570,624406,0
65,-1,690990,235374,1309152,72319,9218,654102,0
65,-1,668742,231134,1198559,68962,8056,598822,0
65,-1,666156,230130,1355029,68626,8523,677016,0
65,-1,669083,230213,1358309,68683,8270,678769,0
65,-1,667865,230784,1256011,68839,7506,627420,0
65,-1,670911,230475,1362878,68762,8508,681000,2
65,-1,672353,231119,1420537,69429,9001,709807,0
65,-1,687534,234825,1357934,72543,9436,678406,0
65,-1,665222,230087,1428742,68996,8985,713620,0
65,-1,669977,230685,1365086,69344,9148,682144,0
65,-1,672029,231813,1219734,69661,7554,609449,0
65,-1,667314,229366,1262571,68861,7479,630735,0
66,-1,668114,230411,1280593,68821,8414,639942,0
66,-1,671290,232326,1328653,69833,8139,663449,0
66,-1,683882,235284,1235343,72350,9284,617233,0
66,-1,669251,230880,1337694,69106,8319,668303,0
66,-1,672374,232513,1342362,69627,8606,670616,0
66,-1,667859,230544,1341404,68861,8653,670113,0
66,-1,667309,230208,1390238,68648,8889,694688,0
66,-1,672915,230883,1268768,69088,8170,633567,0
66,-1,661146,230823,1259238,68421,8035,628963,2
66,-1,687832,234542,1397690,72405,9676,698413,0
66,-1,668038,230082,1236923,69203,8134,617951,0
66,-1,689994,234740,1366764,72355,8891,682907,0
66,-1,668601,231501,1307018,69646,9220,653067,0
66,-1,666205,230496,1319466,69216,8098,659299,0
66,-1,691656,235438,1363940,72681,8091,681554,0
67,-1,668634,229839,1385358,68645,8161,692121,0
67,-1,687540,234956,1298757,72257,8246,648943,0
67,-1,668307,230923,1199769,69111,7759,599333,0
67,-1,673556,232274,1447008,69731,8955,722816,0
67,-1,668375,230852,1210825,68944,7579,604745,0
67,-1,668423,231173,1364435,69109,8510,681846,0
67,-1,692731,239394,1434477,71398,8638,716765,0
67,-1,673069,231455,1305346,69082,8658,652245,0
67,-1,664527,230247,1329888,68225,8492,664383,2
67,-1,666823,230146,1235767,69153,8175,617368,0
67,-1,688742,235007,1506292,72577,10061,752518,0
67,-1,671849,230405,1288898,69127,8091,643881,0
67,-1,674154,231621,1303281,69684,8585,651132,0
67,-1,669690,231232,1264790,69453,8021,631987,0
67,-1,669333,230365,1225994,69247,7317,612446,0
68,-1,666267,230014,1370654,68759,7730,684963,0
68,-1,667040,230910,1391470,69170,7590,695181,0
68,-1,671068,232396,1271256,69693,7905,634753,0
68,-1,669520,231026,1364769,69180,8380,682010,0
68,-1,669010,231089,1500022,68964,8247,749562,0
68,-1,669776,231515,1383308,69229,8713,690795,0
68,-1,671809,232254,1357939,69619,8269,678226,0
68,-1,671973,232169,1177117,69519,7527,587615,0
68,-1,661739,230363,1350674,68409,8009,674774,2
68,-1,667711,230781,1341715,69387,9396,670314,0
68,-1,667521,230702,1330320,69383,8025,664661,0
68,-1,669217,229386,1355553,68795,8450,677159,0
68,-1,672371,231031,1245912,69425,7707,622454,0
68,-1,668077,230945,1282980,69389,7936,640979,0
68,-1,669992,230779,1317208,69352,7490,658119,0
69,-1,672180,232194,1348085,69657,8262,673298,0
69,-1,670098,231046,1366576,69091,8682,682740,0
69,-1,668211,230988,1238573,69167,7659,618768,0
69,-1,667973,230558,1331780,68917,8086,665341,0
69,-1,674012,233445,1425571,70037,8423,711970,0
69,-1,667775,230700,1296771,68894,9390,648362,0
69,-1,665349,230252,1251822,68680,7544,625539,0
69,-1,666355,230132,1223335,68659,8096,611289,0
69,-1,668267,232391,1221391,69362,7735,609886,2
69,-1,670360,231455,1235637,69780,8179,617070,0
69,-1,669116,231293,1256709,69754,7733,627670,0
69,-1,669294,229848,1311047,68925,7933,654968,0
69,-1,673396,231710,1401055,69694,9144,700021,0
69,-1,666477,230366,1277093,69162,8618,638053,0
69,-1,666021,229629,1243358,68923,7208,621208,0
70,-1,670050,230564,1242014,68888,8232,620491,0
70,-1,668125,230768,1310684,68979,8078,655213,0
70,-1,665572,230357,1310112,68910,8006,654471,0
70,-1,669010,231206,1296904,69236,8518,648017,0
70,-1,667853,231388,1319154,69110,8052,659062,0
70,-1,668344,230525,1457189,68861,8807,728244,0
70,-1,664774,230084,1319825,68570,8068,659432,0
70,-1,669791,230343,1186299,68729,8277,592678,0
70,-1,666213,230107,1318888,69122,8392,659047,0
70,-1,661233,230087,1423933,69196,8938,711383,2
70,-1,664901,229566,1286766,69001,8287,642855,0
70,-1,672855,231254,1253692,69575,8353,626075,0
70,-1,670564,230684,1244705,69334,8631,621774,0
70,-1,688032,235536,1373594,72647,9348,686426,0
70,-1,666604,230182,1303876,69090,7761,651533,0
71,-1,673817,232447,1467811,69671,10604,733192,0
71,-1,666589,230529,1321711,68835,7930,660433,0
71,-1,667543,231464,1293514,69315,7825,646017,0
71,-1,668227,230718,1299380,69046,8395,649209,0
71,-1,666887,231075,1317808,69023,7790,658485,0
71,-1,669496,232017,1390235,69578,8879,694113,0
71,-1,668512,230780,1390438,68777,8145,694693,0
71,-1,668195,230284,1267953,68688,8257,633564,0
71,-1,665676,230195,1243385,69213,8289,621265,0
71,-1,672995,233256,1332636,70445,9614,665608,2
71,-1,664499,230080,1265725,69180,7977,632290,0
71,-1,671119,230818,1326118,69276,7977,662523,0
71,-1,691713,235752,1316239,72815,9103,657702,0
71,-1,672848,232172,1327232,69951,8892,662797,0
71,-1,670581,231000,1316540,69398,7723,657936,0
72,-1,667443,230531,1313332,68874,9286,655212,0
72,-1,667650,230786,1290974,69017,8259,644970,0
72,-1,665052,230647,1243153,68985,8008,621233,0
72,-1,671379,231424,1323533,69241,7848,661281,0
72,-1,669727,231965,1355320,69472,8190,677048,0
72,-1,669108,231609,1338199,69265,8497,668407,0
72,-1,668090,231301,1345096,69006,8172,671928,0
72,-1,664788,230031,1182436,68590,7961,590613,0
72,-1,665995,230329,1354516,69185,8634,676925,0
72,-1,663454,230235,1398606,69235,8857,698365,2
72,-1,664685,230553,1290802,69307,8196,644909,0
72,-1,668246,229942,1266444,68963,7660,632594,0
72,-1,674592,232077,1213454,69826,7983,606335,0
72,-1,670142,231153,1272299,69381,8396,635742,0
72,-1,670260,231547,1325769,69697,7995,662157,0
72,-1,664940,229782,1306378,69014,8125,652693,0
73,-1,664188,229713,1174947,68592,8170,586819,0
73,-1,668748,231510,1402337,69409,8797,700424,0
73,-1,668516,232376,1266952,69754,8419,632563,0
73,-1,668157,230852,1229432,69072,7833,614009,0
73,-1,666404,231212,1327437,69033,8163,663310,0
73,-1,665434,230615,1324518,68886,8732,661798,0
73,-1,666946,230588,1449501,68717,9025,723774,0
73,-1,671759,232203,1269031,69493,8064,633925,0
73,-1,668178,231668,1246185,69914,8748,622146,0
73,-1,665010,230734,1231350,69449,9000,614850,2
73,-1,672111,232251,1268102,70139,7996,633197,0
73,-1,674219,231356,1314506,69474,7798,656868,0
73,-1,672280,231582,1252865,69645,7938,625949,0
73,-1,672509,232473,1322600,70108,7981,660507,0
73,-1,665972,229652,1240951,68924,7104,620089,0
73,-1,665078,230451,1223573,69267,8092,611290,0
74,-1,667156,230385,1208049,68787,7432,603529,0
74,-1,667041,231055,1480130,69134,9982,739339,0
74,-1,666513,230721,1339575,69003,7896,669310,0
74,-1,669940,231957,1288036,69634,8508,643317,0
74,-1,692360,235427,1404479,72264,9084,701635,0
74,-1,665471,229854,1292979,68595,8430,646108,0
74,-1,672312,233006,1367158,69769,8920,683304,0
74,-1,665330,229949,1245174,68577,8473,622201,0
74,-1,665044,229549,1288030,68866,8965,643342,0
74,-1,663619,229757,1418095,69046,8915,708243,2
74,-1,687835,234821,1366106,72527,8913,682580,0
74,-1,669623,230139,1355359,68989,9141,677132,0
74,-1,673633,232234,1249726,70026,7598,624363,0
74,-1,668811,231893,1285724,69784,8624,642131,0
74,-1,687265,235206,1404410,72518,8855,701706,0
74,-1,666149,231237,1323274,69697,8607,660892,0
75,-1,670590,232165,1281017,69606,8564,639473,0
75,-1,666452,230142,1316718,68766,8205,657931,0
75,-1,664950,230210,1335460,68923,7291,667174,0
75,-1,667306,230876,1283850,69124,7811,641336,0
75,-1,671440,231428,1439146,69162,8312,718957,0
75,-1,672679,232264,1331008,69706,8675,664817,0
75,-1,665759,230843,1399363,68768,9394,698763,0
75,-1,664660,230050,1191667,68654,8293,595371,0
75,-1,668807,230967,1265668,69636,8369,631986,0
75,-1,666995,230326,1400459,69282,9019,699941,2
75,-1,664157,229631,1278625,69021,7983,638747,0
75,-1,689422,234385,1668346,72204,11018,833689,0
75,-1,675152,232493,1453156,69945,9094,726287,0
75,-1,666646,230821,1364954,69345,9065,681994,0
75,-1,677240,232081,1345048,69882,8885,671778,0
75,-1,671662,231250,1338350,69538,8107,668763,0
76,-1,685866,234382,1272044,71938,8827,635607,0
76,-1,667914,230617,1348637,68958,8453,673807,0
76,-1,684356,235032,1276681,72342,8434,637846,0
76,-1,666357,230359,1199496,68925,7506,599245,0
76,-1,667136,230193,1208962,68732,7372,604069,0
76,-1,689812,235245,1305027,72261,9377,652033,0
76,-1,671510,232357,1768315,69315,11908,883479,0
76,-1,664984,230213,1254738,68650,8552,626918,0
76,-1,665872,230367,1355837,69177,8841,677428,0
76,-1,669785,230801,1320541,69408,7977,659407,2
76,-1,668703,231781,1305111,69893,7745,651761,0
76,-1,671499,230684,1292791,69221,8053,645838,0
76,-1,671789,231206,1536688,69515,9278,767823,0
76,-1,671481,231798,1286259,69597,9180,642655,0
76,-1,674087,231223,1384502,69398,8846,691800,0
76,-1,667349,229446,1218381,68858,7550,608812,0
77,-1,666761,230388,1260277,68760,8450,629466,0
77,-1,667357,230568,1207965,68833,7466,603435,0
77,-1,664501,230432,1347606,69033,7672,673278,0
77,-1,671740,232801,1246192,69920,8065,622119,0
77,-1,671931,232259,1338832,69594,7985,668696,0
77,-1,668587,230826,1285985,69008,7870,642492,0
77,-1,672148,233558,1414920,69937,9475,705895,0
77,-1,693371,234948,1364919,71980,9020,682002,0
77,-1,660337,229846,1267344,68238,7627,633156,0
77,-1,670042,230849,1315112,69456,8547,657041,2
77,-1,665965,230722,1407028,69398,9226,702959,0
77,-1,668678,230101,1299086,69038,7454,648951,0
77,-1,671226,231890,1354577,69756,8699,676873,0
77,-1,668263,231045,1364940,69406,9116,681994,0
77,-1,671514,230312,1255256,69062,8067,627300,0
77,-1,670400,230852,1342616,69368,9821,670853,0
78,-1,666601,230393,1403193,68887,8418,701037,0
78,-1,670613,232195,1397005,69721,8282,697772,0
78,-1,668024,231823,1320962,69438,7238,660092,0
78,-1,672058,231385,1269538,69249,8893,634301,0
78,-1,668408,230734,1331617,68906,8557,665393,0
78,-1,669927,232491,1311210,69791,7981,654791,0
78,-1,687428,235647,1428275,72102,10375,713326,0
78,-1,673831,231158,1325324,69022,8686,661993,0
78,-1,664316,230702,1334399,68557,7698,666597,0
78,-1,664692,230286,1242931,69255,7744,620934,0
78,-1,664893,230219,1342932,69193,8288,670952,2
78,-1,674161,232656,1194555,70126,8665,596299,0
78,-1,668671,231214,1261800,69508,7563,630514,0
78,-1,664395,229407,1378085,68883,8674,688733,0
78,-1,672865,231034,1298778,69349,7714,648898,0
78,-1,673196,232476,1308820,70217,7866,653561,0
79,-1,665944,230291,1273074,68882,8124,636131,0
79,-1,687703,235109,1274956,72212,8961,636929,0
79,-1,663749,230610,1211945,69097,7116,605364,0
79,-1,669419,230765,1208159,69081,8299,603490,0
79,-1,669383,231213,1284307,69052,8346,641754,0
79,-1,666258,230181,1219023,68755,7511,609074,0
79,-1,665414,230759,1305398,68749,8923,652359,0
79,-1,670817,230286,1258039,68704,8700,628322,0
79,-1,669783,231403,1258138,68951,7856,628381,0
79,-1,668039,230736,1305291,69376,8598,652125,0
79,-1,666252,230063,1333142,69202,8467,666053,2
79,-1,668196,230637,1268203,69176,8679,633605,0
79,-1,665688,230354,1335139,69159,8274,667174,0
79,-1,667518,231274,1430553,69494,8298,714930,0
79,-1,669677,230137,1359680,69011,8007,679439,0
79,-1,689426,235113,1345561,72601,8889,672343,0
80,-1,665236,230793,1360279,69109,8635,679425,0
80,-1,667621,230826,1198616,69016,7665,598911,0
80,-1,661711,230162,1342174,68895,8228,670603,0
80,-1,672033,232045,1249206,69659,8592,623701,0
80,-1,672609,232959,1320602,69907,8615,659584,0
80,-1,667826,231212,1353996,69126,8204,676518,0
80,-1,673706,231329,1409861,68893,9327,704404,0
80,-1,673332,231710,1291552,69365,8970,644790,0
80,-1,665345,230042,1313291,68286,7864,656134,0
80,-1,667292,230920,1242544,69533,8359,620484,0
80,-1,667437,231075,1268110,69488,8120,633583,2
80,-1,671042,231948,1181974,69840,8231,590145,0
80,-1,693772,235749,1417206,72820,9301,707927,0
80,-1,665751,230818,1352490,69356,8585,675693,0
80,-1,691524,235008,1380734,72375,8962,689809,0
80,-1,667116,230212,1256165,69228,8218,627567,0
81,-1,663673,230415,1331054,68778,8215,664957,0
81,-1,668959,231714,1342816,69450,8256,670672,0
81,-1,684951,234861,1392682,72219,8160,695847,0
81,-1,670674,231343,1180665,69265,8097,589800,0
81,-1,687280,235122,1285325,72190,8463,642153,0
81,-1,667375,231255,1396449,69047,8356,697781,0
81,-1,672447,231260,1243594,68893,8462,621309,0
81,-1,670231,229843,1433749,68486,8464,716479,0
81,-1,663928,229789,1291157,68220,7704,645136,0
81,-1,666161,230201,1344266,69199,8471,671629,0
81,-1,672692,232652,1231365,70261,7912,614881,2
81,-1,670434,230546,1208093,69182,7801,603504,0
81,-1,672356,231564,1474059,69636,9539,736542,0
81,-1,663453,230651,1335560,69226,8157,667591,0
81,-1,670792,230521,1246297,69238,8210,622762,0
81,-1,669300,231347,1324826,69779,7478,661631,0
82,-1,665864,229412,1314681,68406,8127,656764,0
82,-1,665420,231058,1214887,69075,7717,607063,0
82,-1,665823,230711,1681432,69127,9660,840083,0
82,-1,669943,230818,1340549,69061,8170,669744,0
82,-1,671091,231537,1405354,69184,8066,702179,0
82,-1,687364,235787,1342161,72333,8935,670627,0
82,-1,670869,230870,1397352,68721,8919,698258,0
82,-1,674310,232109,1280455,69480,8001,639485,0
82,-1,666360,230547,1225948,68511,7410,612413,0
82,-1,666074,230848,1439146,69419,10176,718400,0
82,-1,665574,230883,1346597,69453,9028,672775,2
82,-1,672191,231632,1194299,69790,7884,596141,0
82,-1,672651,232113,1327834,69798,7918,663472,0
82,-1,678901,232645,1274783,70159,8173,636649,0
82,-1,669315,230120,1340344,69020,8249,669817,0
82,-1,667284,230456,1335964,69303,7658,667526,0
83,-1,665775,229960,1235767,68650,8588,617478,0
83,-1,673701,232295,1362297,69718,9332,680341,0
83,-1,694566,240634,1383368,72244,8518,691053,0
83,-1,665979,230127,1329616,68896,8183,664297,0
83,-1,668222,230855,1320673,68932,8050,659846,0
83,-1,665503,231043,1227324,68961,8324,613274,0
83,-1,675172,232531,1424321,69534,9309,711266,0
83,-1,670663,230878,1380466,68873,8919,689811,0
83,-1,690241,239064,1348210,70948,7758,673423,0
83,-1,666695,230595,1336412,69273,9021,667857,0
83,-1,669614,231345,1282467,69620,8285,640885,2
83,-1,668665,230746,1187484,69275,8042,593097,0
83,-1,670890,231378,1340043,69572,7858,669592,0
83,-1,675830,231734,1240659,69629,7950,619839,0
83,-1,675137,232610,1433922,70010,9349,716160,0
83,-1,665191,230028,1281972,69128,7502,640573,0
84,-1,665392,229896,1372388,68653,9264,685816,0
84,-1,671462,232200,1414765,69701,9997,706738,0
84,-1,663930,230367,1210996,69005,7634,605080,0
84,-1,666011,230892,1273941,69100,7719,636435,0
84,-1,665665,230567,1213001,68876,6804,606001,0
84,-1,671299,231221,1395979,69020,8299,697559,0
84,-1,699240,236892,1332854,72970,9366,666057,0
84,-1,667525,230157,1299530,68665,8349,649216,0
84,-1,663882,229969,1291393,68218,8388,645086,0
84,-1,669476,231977,1264567,70003,8540,631328,0
84,-1,671780,230840,1383411,69412,8462,691124,2
84,-1,668135,230069,1281034,68992,7921,639981,0
84,-1,673392,232714,1272563,70198,7610,635594,0
84,-1,673297,230792,1349541,69313,8877,674312,0
84,-1,673916,230808,1503065,69261,9386,751502,0
84,-1,667771,229693,1252397,69024,8470,625773,0
85,-1,668889,230659,1260104,68939,8298,629395,0
85,-1,668971,231372,1272533,69295,9030,635601,0
85,-1,662950,230590,1225455,69036,7098,612345,0
85,-1,667276,230520,1252626,68986,7491,625904,0
85,-1,671455,232624,1330530,69756,8151,664499,0
85,-1,671165,231605,1244706,69170,8979,621839,0
85,-1,670165,230528,1269286,68606,8054,634225,0
85,-1,667209,230197,1405284,68653,8734,702210,0
85,-1,670452,232924,1206384,69563,7955,601974,0
85,-1,665270,229868,1251001,69126,9301,625011,0
85,-1,667904,231987,1246955,70060,8224,622698,2
85,-1,669039,230586,1348981,69192,8246,673948,0
85,-1,672425,232103,1351513,69900,7764,675259,0
85,-1,675531,231511,1338618,69557,9700,668822,0
85,-1,669442,230455,1342716,69134,8587,671490,0
85,-1,687446,234817,1364018,72495,9552,681531,0
86,-1,665572,229797,1252618,68679,7791,625875,0
86,-1,669075,231229,1235310,69121,8334,616769,0
86,-1,662581,229953,1488763,68838,8122,743977,0
86,-1,667068,230474,1353351,68925,8001,676185,0
86,-1,693461,240773,1277850,71902,7749,638468,0
86,-1,669291,231455,1223953,69123,7911,610995,0
86,-1,671806,230979,1351303,68788,9147,675136,0
86,-1,667671,230115,1261957,68655,8035,630485,0
86,-1,661866,230014,1207920,68343,8136,603382,0
86,-1,666206,230558,1443768,69301,9993,721263,0
86,-1,667193,229947,1252271,68888,6938,625645,0
86,-1,668130,230835,1197820,69242,7479,598397,2
86,-1,673622,233105,1263300,70522,7830,630754,0
86,-1,676000,232830,1190809,70227,7816,594610,0
86,-1,672079,230924,1296860,69249,8937,647753,0
86,-1,664951,229752,1326165,69038,8371,662662,0
87,-1,663857,230142,1253775,68775,7877,626381,0
87,-1,667683,230935,1408639,69011,10215,703030,0
87,-1,665205,231216,1606708,69321,9914,802543,0
87,-1,667129,230845,1234397,69057,7608,616838,0
87,-1,666604,230994,1465284,68948,8863,731468,0
87,-1,670436,231036,1337447,68950,8172,668105,0
87,-1,671743,231160,1262706,68916,8464,630857,0
87,-1,670116,232057,1283681,69438,8330,641179,0
87,-1,661674,229918,1173650,68289,7747,586345,0
87,-1,662285,229631,1230843,69005,8966,614932,0
87,-1,670706,232223,1252201,69880,7426,625363,0
87,-1,665012,230310,1436617,69126,8942,717206,2
87,-1,669068,231681,1394795,69714,8025,697031,0
87,-1,673205,231263,1272478,69475,8619,635828,0
87,-1,670223,230645,1367331,69215,8718,683708,0
87,-1,671599,232213,1424902,70029,9140,711578,0
88,-1,664622,229863,1299794,68692,6981,649090,0
88,-1,672575,232903,1395095,69923,8750,696538,0
88,-1,661806,230419,1273981,69036,7541,636552,0
88,-1,670359,232536,1400442,69830,8274,699364,0
88,-1,666601,230582,1328485,68811,8275,664365,0
88,-1,693029,236267,1413299,72457,8409,706197,0
88,-1,669321,231128,1359911,68896,8921,679513,0
88,-1,669666,230429,1305368,68771,8342,652065,0
88,-1,663720,230210,1234320,68409,7368,616692,0
88,-1,663358,230365,1423370,69299,9132,711187,0
88,-1,691547,239069,1571713,71735,10004,785306,0
88,-1,663742,231543,1587654,69526,9021,793035,2
88,-1,674089,232838,1233121,70315,7769,615837,0
88,-1,676536,232544,1186898,70045,7999,592763,0
88,-1,671380,231128,1397872,69324,8767,698301,0
88,-1,665815,230243,1318523,69177,8148,658811,0
89,-1,664642,229814,1258237,68525,7328,628648,0
89,-1,667752,231288,1558028,69065,9787,778590,0
89,-1,682773,234745,1263257,72191,9946,631011,0
89,-1,669456,231539,1477079,69334,8423,738131,0
89,-1,687241,235408,1491177,72182,10263,744888,0
89,-1,666686,230542,1335527,68881,8279,667188,0
89,-1,670618,230221,1311192,68548,8442,655176,0
89,-1,669051,230160,1350648,68631,8943,674887,0
89,-1,668339,232382,1189304,69284,7546,593652,0
89,-1,663126,230636,1333933,69360,9000,666466,0
89,-1,686416,234929,1388877,72453,9875,694018,0
89,-1,663745,230101,1184529,69313,8628,591762,2
89,-1,668948,230858,1217712,69481,7741,608524,0
89,-1,671801,230965,1368801,69396,7636,683792,0
89,-1,669591,230751,1443627,69203,8764,721393,0
89,-1,668258,230065,1224331,69203,7578,611511,0
90,-1,669347,232153,1356506,69544,8389,677515,0
90,-1,665009,230668,1242850,68913,7341,620893,0
90,-1,671891,232010,1426480,69705,8963,712539,0
90,-1,670046,232247,1341375,69728,8320,669967,0
90,-1,669227,231325,1340689,69040,8617,669965,0
90,-1,668764,231501,1211348,69263,7677,605228,0
90,-1,676401,232424,1338047,69495,7994,668342,0
90,-1,672294,232301,1223555,69539,8217,610999,0
90,-1,661469,229752,1404308,68204,7590,701781,0
90,-1,665627,230243,1247529,69288,7973,623291,0
90,-1,666785,230130,1254864,69083,8259,626853,0
90,-1,666255,230986,1318785,69462,8590,658861,2
90,-1,664079,230042,1338841,69160,7513,668686,0
90,-1,670270,230727,1560632,69241,9444,779837,0
90,-1,675617,232829,1494898,70173,9445,746040,0
90,-1,670251,231314,1386577,69824,8383,692589,0
91,-1,668270,230839,1232273,68948,7656,615399,0
91,-1,670065,231575,1413607,69099,8354,706352,0
91,-1,666755,230747,1337633,69122,7944,668280,0
91,-1,668044,230279,1338258,68923,8250,668633,0
91,-1,665654,231062,1399681,69008,8423,699296,0
91,-1,689905,234769,1303527,72074,8722,651216,0
91,-1,674759,232116,1255706,69201,8028,627353,0
91,-1,667915,230570,1399588,68785,8734,699334,0
91,-1,659878,230049,1313064,68293,8058,656091,0
91,-1,672799,230466,1369687,69271,8133,684315,0
91,-1,670940,230287,1272607,69137,8781,635777,0
91,-1,668039,231399,1229350,69698,7498,614186,0
91,-1,668750,231290,1339844,69652,8288,669440,2
91,-1,670016,230260,1351441,69119,7842,675250,0
91,-1,692288,235182,1369416,72446,9039,684173,0
91,-1,668048,231004,1384220,69611,7598,691590,0
92,-1,668558,231353,1248315,69227,7969,623375,0
92,-1,669745,231763,1521638,69229,9842,760330,0
92,-1,666322,230555,1210174,69068,7119,604693,0
92,-1,668402,230261,1292974,68906,8211,645955,0
92,-1,664786,230329,1332288,68721,7901,665743,0
92,-1,668258,230661,1301842,68957,7773,650503,0
92,-1,676639,232869,1311063,69639,8543,654806,0
92,-1,671493,230914,1366559,68872,8838,682858,0
92,-1,685468,234751,1352504,71634,8375,675630,0
92,-1,676136,232085,1274610,70075,8409,636424,0
92,-1,672938,231416,1339588,69532,8897,669245,0
92,-1,668839,231483,1354884,69672,8182,677041,0
92,-1,669898,231384,1338068,69623,8522,668589,2
92,-1,692816,236144,1370655,72867,8391,684862,0
92,-1,671485,231006,1265376,69334,8421,631742,0
92,-1,666219,230533,1217430,69460,7549,608341,0
93,-1,665289,229933,1253800,68698,8368,626339,0
93,-1,670267,232178,1363639,69468,8018,681178,0
93,-1,669721,232174,1341093,69859,7995,669728,0
93,-1,690048,235374,1272140,72373,8440,635556,0
93,-1,672321,233064,1343906,69984,8565,671039,0
93,-1,673511,232801,1322366,69834,8155,660509,0
93,-1,669404,230440,1316991,68629,8186,657927,0
93,-1,689933,235398,1385149,72140,9276,692044,0
93,-1,662177,229976,1300713,68290,7693,649965,0
93,-1,671352,230364,1406906,69267,9057,702927,0
93,-1,672199,231497,1320577,69810,8536,659549,0
93,-1,666690,231073,1282384,69613,8894,640666,0
93,-1,667899,231316,1336059,69591,8069,667570,2
93,-1,671334,231188,1234333,69461,7207,616662,0
93,-1,668312,230068,1406523,68985,9405,702307,0
93,-1,667087,230280,1323317,69379,8494,661221,0
94,-1,664826,230401,1246527,68781,7977,622727,0
94,-1,665798,230738,1253301,68885,7794,626075,0
94,-1,687429,235042,1298487,72328,8522,648801,0
94,-1,669352,231272,1374214,69255,8714,686617,0
94,-1,685563,234752,1243735,72038,8523,621372,0
94,-1,669406,231462,1226102,69181,7714,612582,0
94,-1,674425,233353,1333070,69766,8419,665904,0
94,-1,668591,231251,1534509,69036,8597,766276,0
94,-1,663180,230393,1316033,68422,8136,657506,0
94,-1,669875,230188,1232462,69151,8011,615626,0
94,-1,670965,230742,1410198,69395,9038,704556,0
94,-1,666289,231093,1238966,69725,7933,618780,0
94,-1,670569,231872,1339515,69628,7936,669292,2
94,-1,673175,231229,1386413,69475,8526,692791,0
94,-1,669615,230455,1328396,69172,9054,663323,0
94,-1,663645,229273,1222409,68949,7994,610741,0
95,-1,668502,231699,1269318,69460,8008,633776,0
95,-1,692768,240128,1338990,71627,7903,669089,0
95,-1,669821,232573,1335973,69914,8055,667273,0
95,-1,667901,230866,1327966,69118,7552,663592,0
95,-1,666605,231353,1268608,69092,7407,633924,0
95,-1,669908,231651,1248377,69190,7783,623774,0
95,-1,670682,230693,1257524,68781,8684,628248,0
95,-1,670832,231740,1196719,69399,7637,597638,0
95,-1,661525,230025,1412415,68232,8020,705634,0
95,-1,674008,231221,1237578,69713,8732,617841,0
95,-1,665980,229351,1261179,68873,8117,630308,0
95,-1,668581,231019,1356462,69578,8971,677742,0
95,-1,668016,231555,1459947,69534,8924,729499,2
95,-1,671944,231149,1301601,69445,7767,650313,0
95,-1,672576,232044,1374435,69822,9136,685956,0
95,-1,671310,232509,1348999,70338,8897,673668,0
96,-1,685955,234858,1292460,72059,8958,645555,0
96,-1,667861,230668,1276280,68815,7770,637721,0
96,-1,667680,230466,1386447,69006,7765,692770,0
96,-1,669320,231377,1232736,69297,7644,615822,0
96,-1,663468,230515,1249397,68865,7227,624042,0
96,-1,668602,231124,1358181,69043,8050,678585,0
96,-1,668867,230058,1326353,68449,8170,662702,0
96,-1,665225,230016,1252928,68679,7989,625915,0
96,-1,681529,234619,1355942,71566,8964,677447,0
96,-1,666317,228794,1329122,68817,9079,663973,0
96,-1,670896,230608,1392920,69282,8641,696058,0
96,-1,673607,231065,1199145,69542,7829,599084,0
96,-1,670477,230588,1357813,69224,8601,678282,0
96,-1,671479,230984,1243326,69411,8569,621138,2
96,-1,670069,230962,1401120,69327,9010,699629,0
96,-1,662523,229652,1310313,69140,7862,654751,0
97,-1,662761,229781,1166541,68566,7801,582688,0
97,-1,667610,231032,1296242,68961,7734,647535,0
97,-1,684352,234715,1221507,72181,7567,610399,0
97,-1,665367,230241,1223794,68856,7704,611444,0
97,-1,667623,232202,1355383,69529,8521,676952,0
97,-1,673001,232889,1413799,69801,8006,706261,0
97,-1,670991,231103,1241283,68861,8555,620204,0
97,-1,669340,232104,1259312,69553,8192,628597,0
97,-1,664834,230250,1229520,68330,8190,614316,0
97,-1,668751,230031,1253827,69107,8042,626376,0
97,-1,668374,230521,1263669,69286,7865,631397,0
97,-1,675705,232111,1257003,69911,8298,627991,0
97,-1,695564,239876,1281846,71984,8025,640195,0
97,-1,666769,231552,1256362,69533,8163,627737,2
97,-1,668071,230604,1534945,69159,8800,767092,0
97,-1,662968,229609,1231198,69144,7903,615104,0
98,-1,664923,231060,1202239,68996,7430,600571,0
98,-1,665585,230709,1339589,68836,8069,669306,0
98,-1,663617,230578,1301056,69108,7064,650011,0
98,-1,690313,235310,1302883,72367,8769,650810,0
98,-1,663640,230298,1346034,68748,8649,672519,0
98,-1,667941,231563,1284586,69214,7542,641802,0
98,-1,675477,233306,1319087,69831,8716,658853,0
98,-1,685907,234787,1366911,71980,8641,682951,0
98,-1,664074,230592,1312674,68491,8439,655823,0
98,-1,668655,230263,1338038,69216,8686,668647,0
98,-1,671144,231487,1256719,69768,8458,627593,0
98,-1,676222,232627,1188216,70328,7498,593439,0
98,-1,673261,231378,1369370,69479,8397,684244,0
98,-1,669014,231239,1392143,69479,9073,695562,2
98,-1,675798,233309,1518474,70302,9178,757947,0
98,-1,663457,229490,1335306,69064,7829,667125,0
99,-1,663438,229615,1266047,68586,7895,632645,0
99,-1,665134,230739,1278343,68853,8279,638685,0
99,-1,686735,234884,1258441,72248,8205,628858,0
99,-1,665498,230099,1254987,68834,7798,626991,0
99,-1,665364,230795,1334475,68975,8202,666790,0
99,-1,674155,233553,1332006,70084,8586,664974,0
99,-1,669703,231128,1290202,68886,8844,644650,0
99,-1,671569,230497,1322516,68817,8742,660819,0
99,-1,663747,230764,1293084,68545,7840,646129,0
99,-1,669834,230118,1342401,69211,8134,670675,0
99,-1,669386,230559,1332461,69334,8292,665671,0
99,-1,672904,230909,1349558,69526,7922,674366,0
99,-1,670051,230564,1351474,69208,8044,675298,0
99,-1,666675,231045,1335688,69421,8369,667217,2
99,-1,668236,231101,1441002,69350,8766,720699,0
99,-1,665348,230354,1366434,69410,7757,682714,0
100,-1,690635,238991,1281255,71441,7288,640118,0
100,-1,665090,230651,1338888,68822,8738,668701,0
100,-1,664465,230683,1167760,69079,6990,583424,0
100,-1,666220,230466,1245993,68942,8053,622373,0
100,-1,668063,232619,1382978,69872,8663,690352,0
100,-1,691832,237188,1345775,72833,8919,672383,0
100,-1,667945,230641,1266813,68726,8583,632926,0
100,-1,673766,231737,1381908,69365,9153,690182,0
100,-1,660890,229976,1319975,68226,8078,659510,0
100,-1,669251,229978,1305508,69110,8233,652197,0
100,-1,669300,230603,1197345,69223,8466,598230,0
100,-1,671703,231046,1312957,69624,7844,655993,0
100,-1,693487,236013,1513022,72809,9380,755977,0
100,-1,668652,231101,1281188,69303,8444,640041,2
100,-1,675583,231911,1309471,69789,8691,653692,0
100,-1,686447,234680,1261620,72609,9200,630373,0
101,-1,713753,245859,1404544,74899,8813,701776,0
101,-1,663418,230241,1239829,68790,8169,619493,0
101,-1,666793,232189,1307642,69791,7652,653029,0
101,-1,665855,230873,1252001,69012,7780,625471,0
101,-1,681810,234880,1297933,72186,8350,648406,0
101,-1,670699,231479,1253072,69200,7925,626027,0
101,-1,668326,231031,1272838,68810,8735,636011,0
101,-1,666796,230005,1344064,68610,8496,671789,0
101,-1,660700,230194,1234519,68396,7612,616800,0
101,-1,665667,229519,1321953,68972,8145,660641,0
101,-1,668140,230627,1201095,69233,8073,599974,0
101,-1,672694,231632,1394444,69811,8518,696756,0
101,-1,668786,230692,1515323,69318,9430,757290,0
101,-1,674395,232236,1219161,69862,7707,609135,2
101,-1,669585,230460,1255411,69107,8103,626892,0
101,-1,663327,230012,1209085,69282,8596,603848,0
102,-1,713709,247779,1268409,73506,7382,633717,0
102,-1,674672,232358,1319140,69576,8770,658854,0
102,-1,665950,231610,1245641,69570,8172,622100,0
102,-1,667161,230945,1259253,69073,8352,629135,0
102,-1,670090,230695,1347512,68938,8494,673036,0
102,-1,671786,231857,1265530,69229,8353,632363,0
102,-1,671914,230258,1361498,68563,8268,680391,0
102,-1,669125,230501,1404908,68722,8652,701854,0
102,-1,660210,229700,1331613,68139,8079,665230,0
102,-1,667933,230060,1431152,69128,9057,715117,0
102,-1,686663,234684,1343940,72349,9442,671574,0
102,-1,671875,231197,1353562,69625,8465,676416,0
102,-1,668491,231008,1320652,69354,7762,659598,0
102,-1,673459,232714,1244732,70285,7715,621558,2
102,-1,670119,230478,1482042,69117,8340,740583,0
102,-1,660990,229761,1231407,69197,8994,615301,0
103,-1,717879,249271,1378751,74064,8481,688783,0
103,-1,671553,231285,1255533,69096,8580,627105,0
103,-1,664299,230768,1187536,69143,7567,593646,0
103,-1,665231,230442,1221606,68989,7339,610146,0
103,-1,672245,231003,1288512,69047,8307,643994,0
103,-1,676741,234200,1255757,70236,8709,627110,0
103,-1,676876,232668,1320749,69673,8496,659431,0
103,-1,673836,232699,1275462,69813,8043,636670,0
103,-1,681633,234689,1413477,71620,8874,706246,0
103,-1,666531,230198,1312770,69220,8095,655854,0
103,-1,668166,230441,1349465,69156,9784,674109,0
103,-1,676873,233093,1257112,70534,7679,627918,0
103,-1,668667,230753,1253961,69274,7435,626622,0
103,-1,669146,231037,1315511,69496,8131,656866,2
103,-1,671078,230645,1330833,69215,8921,664966,0
103,-1,665348,229672,1216753,69137,7667,607597,0
104,-1,713066,247812,1345061,73539,7579,672033,0
104,-1,669041,230458,1255985,68797,8068,627536,0
104,-1,663782,230314,1206670,68953,7949,602931,0
104,-1,686967,235644,1249748,72452,8078,624279,0
104,-1,674631,232333,1363053,69682,9343,680901,0
104,-1,669348,231469,1269429,69136,8294,634170,0
104,-1,691773,235241,1310920,72004,9207,655065,0
104,-1,666959,230309,1296885,68684,8190,647801,0
104,-1,659323,229859,1407507,68184,8039,703193,0
104,-1,667888,229664,1309228,68953,8723,653555,0
104,-1,666153,230120,1191018,69012,7935,595116,0
104,-1,693327,235950,1433639,73022,8584,716348,0
104,-1,669141,231395,1337397,69507,7863,668250,0
104,-1,671272,231208,1385309,69459,8590,691478,2
104,-1,670604,230930,1386401,69313,8630,692708,0
104,-1,666354,229242,1306296,68944,8588,652787,0
105,-1,720157,249189,1455118,74011,8283,726863,0
105,-1,688190,234316,1235016,71917,9003,616873,0
105,-1,666986,232164,1336464,69860,8502,667379,0
105,-1,665329,231249,1256148,69170,7507,627288,0
105,-1,670279,231063,1274150,69104,8208,636555,0
105,-1,670977,231760,1210845,69091,8020,604871,0
105,-1,669295,230579,1429492,68779,9326,714340,0
105,-1,668494,230659,1321669,68863,8185,660443,0
105,-1,659766,230316,1309066,68395,8356,653831,0
105,-1,673387,232317,1392458,70135,9011,694873,0
105,-1,670810,231912,1191571,69807,8111,595228,0
105,-1,673031,231910,1267031,69895,7521,633098,0
105,-1,667392,230630,1321884,69223,8089,660535,0
105,-1,689592,235106,1442046,72459,9294,720346,0
105,-1,672117,231807,1451363,69603,8339,725095,2
105,-1,675334,232954,1479968,70499,9550,738906,0
106,-1,726055,250012,1418101,74411,9590,708280,0
106,-1,668720,230802,1368575,68867,7919,683808,0
106,-1,662545,230723,1394950,69134,7421,697042,0
106,-1,663796,230496,1236642,68913,8084,617864,0
106,-1,670101,231133,1264388,69092,8208,631633,0
106,-1,669831,231773,1284158,69215,8366,641566,0
106,-1,674394,233086,1414433,69844,8685,705829,0
106,-1,669718,230948,1349549,68910,8045,674444,0
106,-1,669533,231109,1365759,68508,8840,682267,0
106,-1,669643,231367,1388092,69737,9397,693345,0
106,-1,668317,230361,1205733,69139,8132,602191,0
106,-1,669876,230814,1352821,69510,7486,676073,0
106,-1,692825,234927,1368107,72406,9529,683697,0
106,-1,670084,231591,1450264,69709,8914,723784,0
106,-1,678036,233426,1440111,70375,8821,718448,2
106,-1,688876,234705,1380629,72625,8533,689895,0
107,-1,719646,248611,1306066,73783,7899,652013,0
107,-1,674609,233281,1600526,70035,10174,799366,0
107,-1,659852,230102,1511633,68838,8062,755123,0
107,-1,686987,235212,1316806,72304,8735,657867,0
107,-1,669406,230459,1324731,68884,8562,661871,0
107,-1,666995,231159,1343304,68963,8641,671241,0
107,-1,687871,234796,1422277,71994,9756,710728,0
107,-1,667183,230236,1389538,68689,8170,694293,0
107,-1,664740,229693,1353533,68057,8684,676301,0
107,-1,668115,229469,1494889,68988,8974,746785,0
107,-1,672800,232416,1266135,70095,7994,632031,0
107,-1,670580,231404,1350123,69741,8328,674923,0
107,-1,670948,230287,1166435,69063,7137,582795,0
107,-1,669294,231198,1181384,69399,7701,590207,0
107,-1,670115,230933,1231517,69273,7704,615255,2
107,-1,664897,229719,1366627,69200,8777,683276,0
108,-1,744050,254027,1458314,77360,10637,728683,0
108,-1,669493,231750,1339886,69393,8488,669305,0
108,-1,660841,230675,1569538,69141,9799,783952,0
108,-1,667171,231323,1400459,69171,8115,699906,0
108,-1,673327,232433,1272146,69797,8219,635267,0
108,-1,670930,231472,1417615,69054,8145,708312,0
108,-1,695172,239236,1448346,71267,9784,723173,0
108,-1,667886,230427,1317659,68793,8061,658387,0
108,-1,672135,233171,1306958,69485,8114,652104,0
108,-1,670827,231574,1320574,69845,9064,659407,0
108,-1,689515,235250,1387279,72537,8832,693068,0
108,-1,674555,232197,1248215,70003,8296,623652,0
108,-1,672451,231473,1232402,69555,7791,615705,0
108,-1,668340,230200,1332340,69028,8500,665722,0
108,-1,667223,230100,1224325,69108,7625,611662,2
108,-1,673591,232527,1511042,70321,9029,754387,0
109,-1,721158,248715,1335557,73812,9728,667218,0
109,-1,670326,231197,1262397,69132,7541,630721,0
109,-1,666480,230512,1232163,69084,8370,615590,0
109,-1,667429,231872,1272037,69432,7720,635586,0
109,-1,671665,231751,1301798,69335,8493,650414,0
109,-1,692382,237089,1296093,72673,8774,647513,0
109,-1,673081,231919,1448150,69406,10063,723746,0
109,-1,665392,229820,1406213,68546,8618,702769,0
109,-1,666048,231099,1427694,68555,8687,712403,0
109,-1,688636,235043,1468211,72580,10096,733327,0
109,-1,666696,230514,1443528,69208,8704,721162,0
109,-1,672551,231588,1327949,69770,8528,663540,0
109,-1,674769,232630,1203375,70159,7792,600733,0
109,-1,673328,232984,1360679,70215,8638,679661,0
109,-1,670462,230657,1323879,69454,7767,661456,2
109,-1,667049,230332,1294239,69319,7354,646630,0
110,-1,719611,248574,1294423,73794,8324,646665,0
110,-1,671607,231731,1395101,69589,7731,696867,0
110,-1,666554,230614,1341117,69068,8169,670071,0
110,-1,663999,230335,1229019,68873,7844,614010,0
110,-1,668396,230725,1388555,69001,7990,694215,0
110,-1,671996,233051,1372300,69783,8232,685499,0
110,-1,670249,231296,1296395,69056,8953,647471,0
110,-1,665654,229951,1311076,68635,8314,655030,0
110,-1,665208,230978,1373967,68500,8428,686272,0
110,-1,666990,230539,1352558,69308,8567,675901,0
110,-1,668367,230816,1270131,69471,8102,634316,0
110,-1,673378,231995,1254300,70022,8074,626392,0
110,-1,670990,231690,1227936,69613,8236,613348,0
110,-1,691119,236329,1479915,72847,10499,738932,0
110,-1,672622,232673,1310985,70500,8886,654633,2
110,-1,664738,229286,1316283,69060,8105,657740,0
111,-1,718098,248481,1311797,73727,8404,655487,0
111,-1,666329,229770,1323951,68697,8081,661620,0
111,-1,663981,229899,1212234,68883,8027,605652,0
111,-1,665829,230276,1342994,68850,8649,670926,0
111,-1,667894,230692,1310082,68964,8223,654634,0
111,-1,668006,231628,1374705,69051,8335,686899,0
111,-1,669729,230867,1327603,68908,9325,663228,0
111,-1,664644,230011,1250376,68564,7709,624545,0
111,-1,666921,230865,1323443,68380,7417,661227,0
111,-1,663684,229483,1383000,68866,7843,691096,0
111,-1,663986,229768,1262492,68899,7726,630725,0
111,-1,669482,230835,1357499,69529,8115,678280,0
111,-1,670895,230767,1300077,69281,9533,649496,0
111,-1,669862,231466,1284660,69475,8752,641726,0
111,-1,671704,229935,1227491,69275,7328,613256,2
111,-1,665956,229995,1231570,69232,7253,615105,0
112,-1,739330,252903,1386108,76945,9562,692120,0
112,-1,673562,232482,1365514,69836,8622,682002,0
112,-1,667536,231847,1321529,69680,8604,660031,0
112,-1,665745,230926,1313645,69030,7614,656456,0
112,-1,670631,232163,1359084,69630,8820,678728,0
112,-1,670009,232429,1272903,69444,8367,635955,0
112,-1,689738,235658,1328912,72278,9182,663966,0
112,-1,667977,230137,1227963,68689,8558,613176,0
112,-1,672505,233274,1237098,69459,7525,617442,0
112,-1,667388,231161,1284522,69532,8466,641302,0
112,-1,662905,229455,1332785,68853,7949,665926,0
112,-1,689656,235578,1457146,72770,10130,728201,0
112,-1,671718,231129,1247092,69372,8584,623151,0
112,-1,667672,230833,1272164,69165,9150,635682,0
112,-1,659142,229447,1210584,69169,8216,604762,2
112,-1,664675,229985,1343220,69217,7465,671143,0
113,-1,725246,250287,1344812,74509,9265,671647,0
113,-1,668229,230727,1247904,69108,7366,623350,0
113,-1,683896,234844,1312645,72274,9049,655958,0
113,-1,672538,233354,1441920,70084,8391,719832,0
113,-1,666926,231028,1254256,69148,8025,626478,0
113,-1,671909,233896,1360606,70114,8186,679518,0
113,-1,669863,231800,1374251,69204,8494,686672,0
113,-1,671254,231866,1271017,69510,8420,634461,0
113,-1,689701,236130,1378220,72389,9173,688777,0
113,-1,663843,229658,1376624,68991,8776,686959,0
113,-1,666819,230236,1280388,69242,8123,639542,0
113,-1,675610,232779,1290013,70232,8714,644040,0
113,-1,674606,232600,1295835,70034,8765,646837,0
113,-1,670099,231053,1384029,69278,9677,690930,0
113,-1,667678,232080,1373822,70210,8307,686133,2
113,-1,671280,232549,1334333,70347,8159,666374,0
114,-1,720800,248868,1290829,73877,8698,644783,0
114,-1,669135,231541,1312581,69262,8605,655807,0
114,-1,665180,230760,1354515,69091,8286,676881,0
114,-1,665409,230355,1343985,68856,8232,671526,0
114,-1,672320,231401,1290284,69223,8712,644730,0
114,-1,674321,232839,1499686,69520,9599,749279,0
114,-1,669783,231213,1317582,69018,8319,658262,0
114,-1,689940,235482,1291181,72218,8255,645115,0
114,-1,666567,231150,1292868,68748,7743,645625,0
114,-1,666948,229742,1398982,69005,9685,699041,0
114,-1,665948,230349,1274508,69238,7777,636742,0
114,-1,670991,231469,1329835,69633,8632,664397,0
114,-1,669749,231008,1344666,69317,7705,672298,0
114,-1,667439,230259,1463660,69023,9401,730396,0
114,-1,663856,229865,1220636,69260,8314,609739,2
114,-1,684808,234631,1395662,72593,8504,697255,0
115,-1,718764,248530,1290987,73717,7633,644854,0
115,-1,675819,232912,1455424,70006,9706,726363,0
115,-1,666747,231410,1460986,69556,8917,729752,0
115,-1,667398,231709,1257315,69364,7370,628061,0
115,-1,670484,231725,1376176,69364,8640,687530,0
115,-1,667748,231822,1360032,69148,9403,679625,0
115,-1,670952,231061,1284692,69124,8624,641814,0
115,-1,668785,231122,1371069,69009,8584,684859,0
115,-1,661918,230206,1311724,68237,7683,655396,0
115,-1,687640,234842,1444308,72529,9819,721199,0
115,-1,665334,230093,1250117,69147,8745,624457,0
115,-1,698027,241983,1250266,73041,7903,624151,0
115,-1,668616,231219,1320426,69402,8100,659804,0
115,-1,674635,233407,1569592,70409,9839,783982,0
115,-1,667169,230058,1331604,69265,7567,665279,0
115,-1,667028,230695,1369586,69520,7757,684318,2
116,-1,724633,250982,1407378,74834,8392,702858,0
116,-1,668489,230566,1468304,68948,8564,733604,0
116,-1,665335,230777,1351806,69155,8446,675434,0
116,-1,667425,232181,1376293,69651,8506,687276,0
116,-1,667910,230552,1285003,68946,8148,642090,0
116,-1,667373,231030,1334056,68868,8811,666595,0
116,-1,668398,230740,1270189,68915,8308,634636,0
116,-1,669904,231596,1266285,69327,7879,632269,0
116,-1,663158,230826,1329125,68430,8100,664106,0
116,-1,667282,229656,1234405,69010,8188,616649,0
116,-1,665807,230462,1252831,69319,8259,625903,0
116,-1,668098,231114,1252862,69500,7795,626000,0
116,-1,669527,232085,1304898,69863,8521,651702,0
116,-1,691252,236213,1424324,72828,10117,711638,0
116,-1,666631,230092,1345627,69334,7961,672413,0
116,-1,669143,232858,1252676,70453,7554,625615,2
117,-1,741361,253483,1456004,77193,9212,727364,0
117,-1,666701,230068,1299625,68888,8537,648835,0
117,-1,668603,232369,1324202,69911,8488,660951,0
117,-1,665194,231093,1256553,69139,8283,627764,0
117,-1,672292,232413,1338883,69760,7985,668563,0
117,-1,688599,236259,1369637,72415,10141,684232,0
117,-1,689923,234875,1346318,72122,9440,672544,0
117,-1,689891,235487,1457850,72226,9479,728122,0
117,-1,684909,234989,1380534,71579,8808,689828,0
117,-1,668919,230600,1288668,69355,8724,643609,0
117,-1,668752,231963,1234958,70041,9003,616861,0
117,-1,667646,230988,1362852,69423,7698,680954,0
117,-1,675085,232354,1430961,69645,8983,714459,0
117,-1,670348,231018,1315654,69364,8290,657362,0
117,-1,665988,230609,1266538,69423,7552,632775,0
117,-1,666193,230222,1201323,69275,7878,600161,2
118,-1,716937,248208,1402991,73624,7740,701004,0
118,-1,665535,230070,1442514,68792,9072,720310,0
118,-1,684624,235073,1283585,72354,9024,641309,0
118,-1,674205,232589,1418711,69886,8911,708503,0
118,-1,666089,230619,1275096,68992,7718,637016,0
118,-1,666435,231535,1441503,69072,9684,720215,0
118,-1,665651,230117,1236487,68645,7446,617820,0
118,-1,667646,231221,1335282,69056,8159,667121,0
118,-1,664473,230299,1255731,68212,7831,627390,0
118,-1,671392,231936,1248591,69952,8599,623389,0
118,-1,662711,229958,1271808,69130,8345,635446,0
118,-1,665418,230753,1340818,69374,8770,669965,0
118,-1,668464,230141,1296150,69044,8599,647631,0
118,-1,680677,232770,1375060,70094,9594,686997,0
118,-1,663168,229595,1392692,69108,7905,695898,0
118,-1,666840,231048,1319869,69507,8422,659407,2
119,-1,723399,251069,1439315,74760,8626,718710,0
119,-1,667778,231125,1323752,69141,8680,661136,0
119,-1,661999,230182,1362427,68981,8588,680741,0
119,-1,668657,230802,1342637,69048,8053,670860,0
119,-1,672529,233022,1351985,70058,8149,675136,0
119,-1,669301,232443,1517239,69385,9712,757983,0
119,-1,666714,230236,1338647,68742,8215,668870,0
119,-1,668937,231818,1286544,69396,8564,642282,0
119,-1,665181,230852,1378486,68365,8767,688081,0
119,-1,667998,230435,1339622,69289,9108,669473,0
119,-1,664577,230253,1264862,69248,7828,631924,0
119,-1,669642,231412,1339060,69573,7708,669099,0
119,-1,674136,232750,1254669,70153,8291,626562,0
119,-1,676386,231479,1347145,69468,9389,672588,0
119,-1,666673,231287,1332345,69864,7864,665507,0
120,-1,719852,248205,1372787,73655,8310,685929,0
120,-1,668340,232042,1426035,69613,8842,712182,0
120,-1,666522,231596,1358853,69613,8190,678761,0
120,-1,669756,231746,1350072,69509,7981,674169,0
120,-1,672149,232327,1356717,69533,8578,677813,0
120,-1,674475,233741,1384486,69966,9804,691308,0
120,-1,666744,230113,1398350,68648,8497,698751,0
120,-1,666321,230841,1290262,68920,8494,644738,0
120,-1,666980,231661,1305002,68849,8568,651829,0
120,-1,663943,229296,1244147,68829,8107,621881,0
120,-1,672607,230229,1304952,69228,8083,651819,0
120,-1,670262,231149,1355766,69466,8104,677370,0
120,-1,690051,235401,1410224,72550,9330,704548,0
120,-1,676433,231517,1407805,69517,10088,704178,0
120,-1,668363,230754,1295769,69514,8181,647329,0
121,-1,721045,249319,1441022,74026,9313,720057,0
121,-1,667261,230849,1253848,69001,8815,626314,0
121,-1,661473,230350,1391779,68973,8579,695441,0
121,-1,668604,230554,1280582,69037,7633,639771,0
121,-1,667929,230759,1384744,68888,7662,692003,0
121,-1,669163,232487,1447346,69356,9444,723132,0
121,-1,672104,232553,1383958,69771,8466,691203,0
121,-1,665493,230470,1224613,68788,8634,611915,0
121,-1,664216,230849,1504181,68456,8895,751602,0
121,-1,667650,229956,1355461,69112,8165,677159,0
121,-1,673617,231087,1229785,69670,8299,613999,0
121,-1,669204,231115,1257719,69593,7813,628372,0
121,-1,668748,230810,1296747,69296,8113,648004,0
121,-1,699172,236579,1468054,72934,9652,734231,0
121,-1,669747,232268,1272367,70273,8484,635414,0
122,-1,716610,248667,1312977,73834,8495,655997,0
122,-1,668682,229969,1313196,68627,9413,655454,0
122,-1,664241,231221,1455298,69314,9481,727154,0
122,-1,666558,230188,1367859,68834,8388,683439,0
122,-1,666959,230375,1275389,68887,7694,637304,0
122,-1,670573,232875,1286987,69523,8756,642905,0
122,-1,689766,235897,1319319,72400,8521,659130,0
122,-1,662613,229617,1358110,68427,9155,678511,0
122,-1,661396,229954,1479630,68093,8859,739339,0
122,-1,666491,230418,1383407,69305,7889,691221,0
122,-1,667528,228665,1344733,68672,8325,671928,0
122,-1,666958,230545,1375757,69378,8735,687346,0
122,-1,671574,232245,1250955,69904,7573,624615,0
122,-1,672718,230857,1299528,69302,7826,649306,0
122,-1,685009,235121,1292211,72759,9170,645607,0
123,-1,716712,248219,1423850,73651,9336,711402,0
123,-1,668466,230486,1335161,68930,8949,667319,0
123,-1,661492,230249,1189917,68896,8137,594338,0
123,-1,670945,232637,1334452,69918,8321,665869,0
123,-1,668399,230258,1229069,68889,8208,614108,0
123,-1,666965,231921,1431854,69189,9045,715247,0
123,-1,666889,230647,1355054,68873,8667,677092,0
123,-1,685936,235320,1330058,72172,9511,664453,0
123,-1,663874,230588,1404736,68332,9108,701580,0
123,-1,664607,229974,1318441,69044,7653,658672,0
123,-1,672015,230894,1493274,69450,9473,745493,0
123,-1,674679,233448,1301089,70589,8614,649751,0
123,-1,668222,230763,1328492,69252,8719,663754,0
123,-1,673577,230926,1271315,69281,7844,635241,0
123,-1,665053,230242,1179636,69363,8026,589315,0
124,-1,722561,250670,1443975,74622,9041,721156,0
124,-1,664341,229216,1258954,68466,9239,628599,0
124,-1,661754,230009,1273287,68851,8260,636207,0
124,-1,667835,230591,1272624,68981,8468,635643,0
124,-1,671944,231794,1342422,69552,8363,670524,0
124,-1,689257,236484,1342185,72478,10340,670570,0
124,-1,664271,230302,1294071,68816,8100,646507,0
124,-1,672004,230394,1452439,68770,8916,725699,0
124,-1,683404,234707,1511189,71413,9769,755736,0
124,-1,668506,230255,1333286,69255,8565,666038,0
124,-1,674044,231588,1271766,69884,8036,635158,0
124,-1,668969,230950,1259045,69545,7712,628991,0
124,-1,669355,231552,1239609,69493,7267,619309,0
124,-1,675292,231468,1372040,69485,8542,685476,0
124,-1,665781,231044,1346885,69691,7516,672762,0
125,-1,716634,248725,1470765,73789,8711,734521,0
125,-1,668365,230191,1213322,68886,8372,606263,0
125,-1,664348,231011,1295381,69221,8149,647208,0
125,-1,666835,230702,1255423,69059,7334,627226,0
125,-1,669433,231104,1233744,69191,7668,616576,0
125,-1,665258,231602,1358151,69121,9408,678500,0
125,-1,677165,233015,1369071,69975,8659,683737,0
125,-1,668186,230014,1343076,68596,8965,671041,0
125,-1,659854,230053,1347967,68136,8751,673725,0
125,-1,666931,229644,1333858,69000,8579,666454,0
125,-1,668311,230216,1360894,69195,8213,679973,0
125,-1,669905,231378,1399572,69651,8694,699419,0
125,-1,667284,230585,1366831,69175,8503,682840,0
125,-1,672025,230355,1256447,69037,8096,627803,0
125,-1,661465,229801,1325562,69180,7480,662364,0
126,-1,714095,247821,1299106,73462,7662,649128,0
126,-1,672271,232232,1282935,69833,8568,640365,0
126,-1,687104,238870,1275199,71488,8410,637241,0
126,-1,673027,232917,1274836,69930,8527,636615,0
126,-1,668876,230872,1370370,69055,8526,684730,0
126,-1,673749,232519,1403103,69404,8733,700998,0
126,-1,693737,235589,1309403,72321,9239,654263,0
126,-1,669903,230844,1357675,68929,9168,678278,0
126,-1,666754,231693,1338353,68891,8390,668231,0
126,-1,667439,230326,1235299,69254,8264,617058,0
126,-1,669856,231106,1274335,69601,7356,636476,0
126,-1,669865,231321,1331398,69693,8533,665179,0
126,-1,669953,231900,1336982,69640,8572,667836,0
126,-1,672460,231110,1280102,69398,8252,639622,0
126,-1,666010,229353,1339501,69050,8725,669257,0
127,-1,715720,248734,1438957,73805,9273,718959,0
127,-1,686218,234532,1250525,72115,8794,624854,0
127,-1,668144,232902,1335542,70078,9563,666657,0
127,-1,666733,230955,1275300,69096,7808,637114,0
127,-1,667688,230769,1268336,69070,8069,633687,0
127,-1,675961,231753,1309000,69178,8425,654030,0
127,-1,671319,230662,1239984,68865,8518,619527,0
127,-1,670308,230087,1346987,68668,8912,673023,0
127,-1,662467,230306,1409563,68264,8763,704215,0
127,-1,667971,230537,1311653,69310,7860,655402,0
127,-1,669612,229866,1218037,69040,8035,608483,0
127,-1,667682,230503,1287322,69217,7896,643252,0
127,-1,667893,230907,1370092,69244,8660,684272,0
127,-1,675783,231991,1275601,69669,7526,637338,0
127,-1,671884,231998,1339576,70222,8202,668902,0
