-1,0,0.00985222
-1,1,0.00492611
-1,2,0.00492611
-1,3,0.00492611
-1,4,0.00492611
-1,5,0.00492611
-1,6,0.00492611
-1,7,0.00492611
-1,8,0.00492611
-1,9,0.00492611
-1,10,0.00492611
-1,11,0.00492611
-1,12,0.00492611
-1,67,0.00492611
-1,68,0.00492611
-1,69,0.00492611
-1,70,0.00492611
-1,71,0.00492611
-1,72,0.00492611
-1,73,0.00492611
-1,74,0.00492611
-1,75,0.00492611
-1,76,0.00492611
-1,77,0.00492611
-1,78,0.00492611
-1,79,0.00492611
-1,80,0.00492611
-1,81,0.00492611
-1,82,0.00492611
-1,83,0.00492611
-1,84,0.00492611
-1,85,0.00492611
-1,86,0.00492611
-1,87,0.00492611
-1,88,0.00492611
-1,89,0.00492611
-1,90,0.00492611
-1,91,0.00492611
-1,92,0.00492611
-1,93,0.00492611
-1,94,0.00492611
-1,95,0.00492611
-1,96,0.00492611
-1,97,0.00492611
-1,98,0.00492611
-1,99,0.00492611
-1,100,0.00492611
-1,101,0.00492611
-1,102,0.00492611
-1,103,0.00492611
-1,104,0.00492611
-1,105,0.00492611
-1,106,0.00492611
-1,107,0.00492611
-1,108,0.00492611
-1,109,0.00492611
-1,110,0.00492611
-1,111,0.00492611
-1,112,0.00492611
-1,113,0.00492611
-1,114,0.00492611
-1,115,0.00492611
-1,116,0.00492611
-1,117,0.00492611
-1,118,0.00492611
-1,119,0.00492611
-1,120,0.00492611
-1,121,0.00492611
-1,122,0.00492611
-1,123,0.00492611
-1,124,0.00492611
-1,125,0.00492611
-1,126,0.00492611
-1,127,0.00492611
-1,128,0.00492611
-1,129,0.00492611
-1,130,0.00492611
-1,131,0.00492611
-1,132,0.00492611
-1,133,0.00492611
-1,134,0.00492611
-1,135,0.00492611
-1,136,0.00492611
-1,137,0.00492611
-1,138,0.00492611
-1,139,0.00492611
-1,140,0.00492611
-1,141,0.00492611
-1,142,0.00492611
-1,143,0.00492611
-1,144,0.00492611
-1,145,0.00492611
-1,146,0.00492611
-1,147,0.00492611
-1,148,0.00492611
-1,149,0.00492611
-1,150,0.00492611
-1,151,0.00492611
-1,152,0.00492611
-1,153,0.00492611
-1,154,0.00492611
-1,155,0.00492611
-1,156,0.00492611
-1,157,0.00492611
-1,158,0.00492611
-1,159,0.00492611
-1,160,0.00492611
-1,161,0.00492611
-1,162,0.00492611
-1,163,0.00492611
-1,164,0.00492611
-1,165,0.00492611
-1,166,0.00492611
-1,167,0.00492611
-1,168,0.00492611
-1,169,0.00492611
-1,170,0.00492611
-1,171,0.00492611
-1,172,0.00492611
-1,173,0.00492611
-1,174,0.00492611
-1,175,0.00492611
-1,176,0.00492611
-1,177,0.00492611
-1,178,0.00492611
-1,179,0.00492611
-1,180,0.00492611
-1,181,0.00492611
-1,182,0.00492611
-1,183,0.00492611
-1,184,0.00492611
-1,185,0.00492611
-1,186,0.00492611
-1,187,0.00492611
-1,188,0.00492611
-1,189,0.00492611
-1,190,0.00492611
-1,191,0.00492611
-1,192,0.00492611
-1,193,0.00492611
-1,194,0.00492611
-1,195,0.00492611
-1,196,0.00492611
-1,197,0.00492611
-1,198,0.00492611
-1,199,0.00492611
-1,200,0.00492611
-1,201,0.00492611
-1,202,0.00492611
-1,203,0.00492611
-1,204,0.00492611
-1,205,0.00492611
-1,206,0.00492611
-1,207,0.00492611
-1,208,0.00492611
-1,209,0.00492611
-1,210,0.00492611
-1,211,0.00492611
-1,212,0.00492611
-1,213,0.00492611
-1,214,0.00492611
-1,215,0.00492611
-1,216,0.00492611
-1,217,0.00492611
-1,218,0.00492611
-1,219,0.00492611
-1,220,0.00492611
-1,221,0.00492611
-1,222,0.00492611
-1,223,0.00492611
-1,224,0.00492611
-1,225,0.00492611
-1,226,0.00492611
-1,227,0.00492611
-1,228,0.00492611
-1,229,0.00492611
-1,230,0.00492611
-1,231,0.00492611
-1,232,0.00492611
-1,233,0.00492611
-1,234,0.00492611
-1,235,0.00492611
-1,236,0.00492611
-1,237,0.00492611
-1,238,0.00492611
-1,239,0.00492611
-1,240,0.00492611
-1,241,0.00492611
-1,242,0.00492611
-1,243,0.00492611
-1,244,0.00492611
-1,245,0.00492611
-1,246,0.00492611
-1,247,0.00492611
-1,248,0.00492611
-1,249,0.00492611
-1,250,0.00492611
-1,251,0.00492611
-1,252,0.00492611
-1,253,0.00492611
-1,254,0.00492611
-1,255,0.00492611
0,0,0.000572082
0,1,0.000572082
0,2,0.000572082
0,3,0.000572082
0,4,0.000572082
0,5,0.000572082
0,6,0.000572082
0,7,0.000572082
0,8,0.000572082
0,9,0.000572082
0,10,0.000572082
0,11,0.000572082
0,12,0.000572082
0,13,0.000572082
0,14,0.000572082
0,15,0.000572082
0,16,0.000572082
0,17,0.000572082
0,18,0.000572082
0,19,0.000572082
0,20,0.000572082
0,21,0.000572082
0,22,0.000572082
0,23,0.000572082
0,24,0.000572082
0,25,0.000572082
0,26,0.000572082
0,27,0.000572082
0,28,0.000572082
0,29,0.000572082
0,30,0.000572082
0,31,0.000572082
0,32,0.000572082
0,33,0.000572082
0,34,0.000572082
0,35,0.000572082
0,36,0.000572082
0,37,0.000572082
0,38,0.000572082
0,39,0.000572082
0,40,0.000572082
0,41,0.000572082
0,42,0.000572082
0,43,0.000572082
0,44,0.000572082
0,45,0.000572082
0,46,0.000572082
0,47,0.000572082
0,48,0.000572082
0,49,0.000572082
0,50,0.000572082
0,51,0.000572082
0,52,0.000572082
0,53,0.000572082
0,54,0.000572082
0,55,0.000572082
0,56,0.000572082
0,57,0.000572082
0,58,0.000572082
0,59,0.000572082
0,60,0.000572082
0,61,0.000572082
0,62,0.000572082
0,63,0.000572082
0,64,0.000572082
0,65,0.000572082
0,66,0.000572082
0,67,0.000572082
0,68,0.000572082
0,69,0.000572082
0,70,0.000572082
0,71,0.000572082
0,72,0.000572082
0,73,0.000572082
0,74,0.000572082
0,75,0.000572082
0,76,0.000572082
0,77,0.000572082
0,78,0.000572082
0,79,0.000572082
0,80,0.000572082
0,81,0.000572082
0,82,0.000572082
0,83,0.000572082
0,84,0.000572082
0,85,0.000572082
0,86,0.000572082
0,87,0.000572082
0,88,0.000572082
0,89,0.000572082
0,90,0.000572082
0,91,0.000572082
0,92,0.000572082
0,93,0.000572082
0,94,0.000572082
0,95,0.000572082
0,96,0.000572082
0,97,0.000572082
0,98,0.000572082
0,99,0.000572082
0,100,0.000572082
0,101,0.000572082
0,102,0.000572082
0,103,0.000572082
0,104,0.000572082
0,105,0.000572082
0,106,0.000572082
0,107,0.000572082
0,108,0.000572082
0,109,0.000572082
0,110,0.000572082
0,111,0.000572082
0,112,0.000572082
0,113,0.000572082
0,114,0.000572082
0,115,0.000572082
0,116,0.000572082
0,117,0.000572082
0,118,0.000572082
0,119,0.000572082
0,120,0.000572082
0,121,0.000572082
0,122,0.000572082
0,123,0.000572082
0,124,0.000572082
0,125,0.000572082
0,126,0.000572082
0,127,0.000572082
0,128,0.000572082
0,129,0.000572082
0,130,0.000572082
0,131,0.000572082
0,132,0.000572082
0,133,0.000572082
0,134,0.000572082
0,135,0.000572082
0,136,0.000572082
0,137,0.000572082
0,138,0.000572082
0,139,0.000572082
0,140,0.000572082
0,141,0.000572082
0,142,0.000572082
0,143,0.000572082
0,144,0.000572082
0,145,0.000572082
0,146,0.000572082
0,147,0.000572082
0,148,0.000572082
0,149,0.000572082
0,150,0.000572082
0,151,0.000572082
0,152,0.000572082
0,153,0.000572082
0,154,0.000572082
0,155,0.000572082
0,156,0.000572082
0,157,0.000572082
0,158,0.000572082
0,159,0.000572082
0,160,0.000572082
0,161,0.000572082
0,162,0.000572082
0,163,0.000572082
0,164,0.000572082
0,165,0.000572082
0,166,0.000572082
0,167,0.000572082
0,168,0.000572082
0,169,0.000572082
0,170,0.000572082
0,171,0.000572082
0,172,0.000572082
0,173,0.000572082
0,174,0.000572082
0,175,0.000572082
0,176,0.000572082
0,177,0.000572082
0,178,0.000572082
0,179,0.000572082
0,180,0.000572082
0,181,0.000572082
0,182,0.000572082
0,183,0.000572082
0,184,0.000572082
0,185,0.000572082
0,186,0.000572082
0,187,0.000572082
0,188,0.000572082
0,189,0.000572082
0,190,0.000572082
0,191,0.000572082
0,192,0.000572082
0,193,0.000572082
0,194,0.000572082
0,195,0.000572082
0,196,0.000572082
0,197,0.000572082
0,198,0.000572082
0,199,0.000572082
0,200,0.000572082
0,201,0.000572082
0,202,0.000572082
0,203,0.000572082
0,204,0.000572082
0,205,0.000572082
0,206,0.000572082
0,207,0.000572082
0,208,0.000572082
0,209,0.000572082
0,210,0.000572082
0,211,0.000572082
0,212,0.000572082
0,213,0.000572082
0,214,0.000572082
0,215,0.000572082
0,216,0.000572082
0,217,0.000572082
0,218,0.000572082
0,219,0.000572082
0,220,0.000572082
0,221,0.000572082
0,222,0.000572082
0,223,0.000572082
0,224,0.000572082
0,225,0.000572082
0,226,0.000572082
0,227,0.000572082
0,228,0.000572082
0,229,0.000572082
0,230,0.000572082
0,231,0.000572082
0,232,0.000572082
0,233,0.000572082
0,234,0.000572082
0,235,0.000572082
0,236,0.000572082
0,237,0.000572082
0,238,0.000572082
0,239,0.000572082
0,240,0.000572082
0,241,0.000572082
0,242,0.000572082
0,243,0.000572082
0,244,0.000572082
0,245,0.000572082
0,246,0.000572082
0,247,0.000572082
0,248,0.000572082
0,249,0.000572082
0,250,0.000572082
0,251,0.000572082
0,252,0.000572082
0,253,0.000572082
0,254,0.000572082
0,255,0.854119
