0,-1,691774,236279,1274517,70403,7706,636973,0
0,-1,688093,236884,1330190,70642,7423,665090,2
0,0,757868,265266,1333062,78317,8705,666191,11
0,-1,688789,236150,1365619,70411,6905,682828,0
0,-1,638685,218406,1168253,65477,7875,584181,0
0,-1,637163,218193,1171170,65435,6906,585604,0
0,-1,632024,217321,1240260,65256,6847,620165,0
0,-1,635246,217411,1255824,65261,6857,627964,0
0,-1,636363,217910,1257074,65481,6857,628585,0
0,-1,641658,218520,1225386,65715,7008,612772,0
0,-1,636576,217693,1187452,65427,7672,593776,0
0,-1,638583,218417,1276433,65700,6234,638265,0
0,-1,641935,218186,1128646,65481,7078,564361,0
0,-1,640343,218906,1179424,65683,7322,589778,0
0,-1,640897,219142,1186596,65801,7673,593395,0
0,-1,640843,220167,1275893,66488,7324,638034,0
0,-1,637649,217957,1146626,65601,6592,573360,0
0,-1,641214,218024,1230008,65629,7324,614982,0
0,-1,631127,218331,1170176,65657,7262,585116,0
0,-1,638387,219029,1266542,65991,8196,633819,0
0,-1,634161,218249,1162260,65725,7254,581144,0
0,-1,635603,218371,1136238,65769,6902,568164,0
0,-1,638033,219611,1250531,66056,7311,625370,0
0,-1,637183,218021,1163492,65506,7012,581795,0
0,-1,638389,219718,1253049,66322,7051,626642,0
0,-1,637899,219528,1560839,66061,9517,780337,0
0,-1,635515,218550,1168780,65718,6871,584447,0
0,-1,657673,223257,1194933,69037,7646,597466,0
0,-1,636139,218500,1242380,65664,6672,621236,0
0,-1,643189,220003,1274613,66389,6944,637433,0
0,-1,640965,218758,1263372,65753,6965,631730,0
0,-1,637476,219004,1248138,65867,7041,624169,0
0,-1,636795,218930,1252884,65815,7329,626483,0
0,-1,637694,218057,1276323,65518,6946,638162,0
0,-1,638160,218740,1183695,65707,6903,591737,0
0,-1,641315,218755,1178863,65666,7572,589469,0
0,-1,639046,218380,1164700,65678,6624,582385,0
0,-1,636396,219152,1216903,65866,7308,608308,0
0,-1,643758,220296,1267285,66371,7604,633647,0
0,-1,642907,219882,1269897,66199,8030,635010,0
0,-1,638233,219128,1124825,65765,7950,562409,0
0,-1,639281,218593,1277532,65630,7774,638753,0
0,-1,645238,219662,1247608,66102,7693,623772,0
0,-1,649271,221147,1309587,66543,8512,654719,0
0,-1,659450,224564,1302007,69263,8275,651082,0
0,-1,641397,219996,1170315,66025,7435,585179,0
0,-1,643030,219031,1155831,65805,7564,578005,0
0,-1,639809,218973,1169422,65810,7196,584459,0
0,-1,662649,223503,1249279,68981,9033,624544,0
0,-1,644165,219470,1220341,66193,8303,609457,0
0,-1,636646,218357,1305157,65489,7692,652648,0
0,-1,637975,218357,1259446,65609,7056,629777,0
0,-1,643720,220595,1266188,66562,7667,633151,0
0,-1,642474,218612,1276137,65575,9302,637971,0
0,-1,641896,218541,1119032,65400,7431,559497,0
0,-1,638737,218883,1148184,65555,7587,574092,0
0,-1,636606,218315,1383137,65515,8421,691462,0
0,-1,642692,219479,1241461,66066,7789,620771,0
0,-1,640283,218806,1192159,65640,7782,595703,0
0,-1,657450,222208,1251955,68490,8881,625895,0
0,-1,663971,223386,1224109,68902,9403,612085,0
0,-1,664421,224139,1338195,69166,9004,669167,0
0,-1,639478,218219,1223825,65471,8325,611910,0
0,-1,645318,220812,1178379,66568,7218,589180,0
0,-1,641995,218464,1299126,65495,7529,649597,0
0,-1,643435,218534,1285947,65530,7024,642663,0
0,-1,637890,220429,1177318,65931,7097,588455,0
0,-1,637253,220132,1444161,65883,9714,722201,0
0,-1,633477,217897,1214731,64835,7389,607360,0
0,-1,634664,217904,1172993,64935,7093,586518,0
0,-1,636082,217938,1263427,65717,8326,631780,0
0,-1,640592,217990,1332955,65816,8376,666536,0
0,-1,643079,218768,1311532,66066,9212,655948,0
0,-1,642399,220823,1275811,67140,7476,637849,0
0,-1,638000,218387,1160989,66031,7356,580434,0
0,-1,642302,219192,1154718,66478,6774,577037,0
0,-1,640000,218391,1245935,66014,7290,623006,0
0,-1,661001,222549,1312675,69124,8385,656301,0
0,-1,645214,218767,1252842,66076,7383,626413,0
0,-1,635533,218034,1121989,65906,7128,560978,0
0,-1,637221,218230,1159482,65961,6736,579760,0
0,-1,643549,220057,1281205,66713,7408,640605,0
0,-1,635564,217950,1217668,65840,7089,608823,0
0,-1,644123,218784,1180018,66295,7794,590010,0
0,-1,641415,218830,1192429,66018,7494,596157,0
0,-1,639058,218755,1245735,66009,7205,622858,0
0,-1,656517,222464,1235999,69017,9521,617954,0
0,-1,640125,218712,1326174,66045,7824,663150,0
0,-1,636292,217943,1156015,65692,7420,578003,0
0,-1,645882,220171,1275799,66738,8782,637473,0
0,-1,642610,218319,1443901,65873,8661,721519,0
0,-1,634374,218177,1198085,65787,8425,598920,0
0,-1,636201,217480,1201972,65644,7187,601034,0
0,-1,640017,218695,1262312,66032,7702,631071,0
1,0,762003,266271,1478176,78652,10162,739620,11
1,-1,694719,238954,1370471,71586,8072,684714,2
1,-1,692839,236406,1218263,70419,7364,609183,0
1,-1,642024,219808,1289722,66281,6910,644978,0
1,-1,636822,217226,1226617,65090,7063,613333,0
1,-1,635045,218218,1178425,65528,7177,589262,0
1,-1,636888,218338,1252138,65562,7150,626166,0
1,-1,635456,218016,1155105,65550,6427,577610,0
1,-1,642511,219411,1261601,66190,7464,630885,0
1,-1,636305,217569,1255438,65408,7144,627854,0
1,-1,642415,219783,1236411,66289,7217,618250,0
1,-1,641128,217922,1193303,65340,7454,596675,0
1,-1,640510,219550,1284561,65878,6959,642305,0
1,-1,640805,219342,1217644,65905,7481,608834,0
1,-1,635382,218180,1238451,65608,7625,619255,0
1,-1,660888,222504,1187289,68851,8307,593596,0
1,-1,641409,218749,1197090,65887,7608,598592,0
1,-1,631896,218412,1472913,65793,8845,736488,0
1,-1,638987,219759,1377428,66419,9296,688390,0
1,-1,633764,218124,1247660,65591,7210,623870,0
1,-1,634418,218348,1228149,65716,6984,614116,0
1,-1,638090,218413,1197026,65692,7710,598564,0
1,-1,640217,219305,1226878,65969,7099,613529,0
1,-1,655587,223192,1181341,69014,7054,590630,0
1,-1,636061,218115,1145994,65542,6639,573008,0
1,-1,637821,218708,1121774,65744,6829,561018,0
1,-1,639367,218594,1325423,65716,7321,662756,0
1,-1,656999,223305,1208414,69076,8287,604446,0
1,-1,638526,218826,1251114,65765,6859,625611,0
1,-1,641380,219879,1249931,66359,7075,625083,0
1,-1,634498,218721,1500915,65806,9105,750382,0
1,-1,639320,220509,1378398,66534,8032,689261,0
1,-1,643223,220582,1460670,66662,8816,730136,0
1,-1,640474,219698,1190191,66244,7670,595150,0
1,-1,640755,219067,1248632,65727,7135,624291,0
1,-1,640890,219215,1420498,65954,8758,710298,0
1,-1,637489,218620,1309686,65661,9332,654575,0
1,-1,639016,218794,1161899,65643,7365,580812,0
1,-1,642665,219284,1184077,65812,7845,592100,0
1,-1,639240,219476,1213574,65762,8284,606694,0
1,-1,638990,219055,1279224,65874,7620,639634,0
1,-1,642938,219127,1504820,65899,9766,752351,0
1,-1,646938,220034,1386427,65964,8488,693052,0
1,-1,643720,220798,1275735,66442,8763,637938,0
1,-1,638762,218980,1222783,65653,7697,611428,0
1,-1,642402,218973,1302063,65771,7815,651075,0
1,-1,641482,218736,1254785,65686,8159,627075,0
1,-1,639237,218410,1303742,65592,8095,651793,0
1,-1,644865,219493,1198791,65978,9154,599500,0
1,-1,660386,223050,1242877,68843,7862,621522,0
1,-1,637026,217586,1273586,65323,7313,636837,0
1,-1,639444,218727,1346938,65690,7949,673507,0
1,-1,640467,218065,1228348,65340,9703,614108,0
1,-1,641531,218318,1211824,65361,8424,605873,0
1,-1,643567,220865,1259308,66433,7941,629856,0
1,-1,642749,220535,1234679,66453,7775,617382,0
1,-1,639163,218629,1161067,65522,8020,580586,0
1,-1,637989,217970,1288098,65339,7817,644251,0
1,-1,640830,218279,1255463,65482,7876,627731,0
1,-1,643283,219810,1313323,66144,8780,656537,0
1,-1,639999,218834,1264427,65656,7847,632118,0
1,-1,641456,218926,1207746,65713,7908,603958,0
1,-1,664130,222685,1292892,68636,8696,646450,0
1,-1,664274,222938,1340266,68763,9206,670233,0
1,-1,638889,217376,1396678,65095,8156,698469,0
1,-1,631693,218663,1231002,65130,7773,615531,0
1,-1,631914,218194,1171373,64901,8392,585829,0
1,-1,630986,216768,1127871,64545,7351,563967,0
1,-1,639315,220137,1180075,65883,7516,589961,0
1,-1,653870,222486,1287267,68271,8588,643672,0
1,-1,643829,219756,1471386,66713,9882,735519,0
1,-1,646269,220031,1328355,66727,9402,664459,0
1,-1,656112,222182,1305094,68995,8450,652552,0
1,-1,636012,217876,1173722,65803,8027,586852,0
1,-1,639023,218173,1240135,65887,7432,620075,0
1,-1,643379,220074,1195378,66763,7234,597698,0
1,-1,638966,218292,1153331,65892,7539,576685,0
1,-1,642734,218569,1130836,66038,7641,565414,0
1,-1,639981,220053,1153695,66883,6664,576871,0
1,-1,635740,217976,1251926,65844,7082,625974,0
1,-1,637725,218001,1215389,65822,7412,607772,0
1,-1,643110,220437,1284451,66966,7466,642156,0
1,-1,643452,218868,1256825,66191,8257,628349,0
1,-1,641627,218100,1199996,65714,6873,599952,0
1,-1,635566,217773,1181228,65586,6808,590531,0
1,-1,643696,219533,1140174,66427,7975,570083,0
1,-1,640583,219191,1199209,66449,7523,599505,0
1,-1,640297,219941,1256687,66649,8057,627834,0
1,-1,642456,219033,1211291,66225,7472,605653,0
1,-1,640532,217846,1286987,65643,8141,643527,0
1,-1,637574,219750,1147697,66491,8010,573471,0
1,-1,634196,217744,1216406,65719,7182,608245,0
1,-1,643084,219859,1389193,66548,9712,694230,0
2,0,766077,268439,1569826,79694,10753,785171,11
2,-1,690044,236177,1195997,70409,7432,597911,0
2,-1,691800,236955,1190941,70666,7200,595613,2
2,-1,634837,217992,1239993,65491,6755,620036,0
2,-1,642974,219668,1251868,66146,7812,626016,0
2,-1,663599,228218,1297647,68759,7836,648899,0
2,-1,657610,222871,1267466,68908,7836,633674,0
2,-1,636530,217819,1215315,65496,7199,607733,0
2,-1,634266,217132,1163968,65123,6715,582068,0
2,-1,637051,218160,1301905,65609,7684,650944,0
2,-1,635552,217870,1222256,65411,6446,611209,0
2,-1,646787,220514,1268926,66384,7695,634547,0
2,-1,639478,218781,1284622,65577,7366,642354,0
2,-1,637215,218582,1209396,65674,7430,604752,0
2,-1,662163,222975,1211113,69066,8336,605567,0
2,-1,640627,218660,1404059,65885,9140,701968,0
2,-1,639750,218131,1343839,65638,7404,672042,0
2,-1,631605,218329,1272515,65696,7386,636296,0
2,-1,656185,223037,1329927,69060,9929,664588,0
2,-1,632831,218144,1356655,65703,7342,678366,0
2,-1,633905,218379,1167171,65719,6360,583561,0
2,-1,638110,218721,1402612,65719,7663,701124,0
2,-1,636797,218382,1192095,65584,7026,596092,0
2,-1,635514,218732,1267487,65788,7263,633794,0
2,-1,639205,219452,1264583,66210,7503,632337,0
2,-1,638540,219590,1177151,66070,6830,588648,0
2,-1,640247,218955,1407827,65805,7680,704080,0
2,-1,637394,218441,1214626,65640,8456,607222,0
2,-1,661525,223164,1206660,69036,7801,603386,0
2,-1,637832,218373,1191491,65632,6763,595772,0
2,-1,634072,219132,1209340,65858,6776,604768,0
2,-1,639984,219398,1245961,65986,7384,623029,0
2,-1,658345,222940,1215254,68947,7556,607604,0
2,-1,636245,218155,1156424,65462,6816,578261,0
2,-1,640040,219104,1315608,65743,7491,657784,0
2,-1,642007,220126,1228822,66438,6928,614536,0
2,-1,638444,219336,1208316,65968,7874,604213,0
2,-1,640495,218930,1277664,65641,8047,638818,0
2,-1,641851,219081,1369632,65684,8294,684853,0
2,-1,635583,218495,1153534,65568,8474,576763,0
2,-1,636044,218312,1174114,65620,7506,587157,0
2,-1,647333,221619,1323011,66981,7864,661442,0
2,-1,643720,219455,1446050,65851,9870,722960,0
2,-1,641260,220311,1184612,66103,7506,592342,0
2,-1,638629,219238,1200400,65707,7781,600369,0
2,-1,662675,223373,1221953,68949,8671,610975,0
2,-1,639191,218406,1167579,65605,7361,583754,0
2,-1,636416,217399,1220391,65119,7765,610151,0
2,-1,643494,218596,1245361,65588,9417,622707,0
2,-1,641243,218613,1310686,65630,7727,655380,0
2,-1,642792,220007,1241778,66442,7630,620970,0
2,-1,637370,218331,1262356,65582,7807,631217,0
2,-1,640337,218239,1134575,65417,6749,567004,0
2,-1,641254,219218,1550478,65682,9562,775270,0
2,-1,637759,218692,1256400,65441,7686,628180,0
2,-1,661238,223344,1245498,68830,8899,622687,0
2,-1,659340,222452,1198471,68612,8981,599237,0
2,-1,639506,219563,1250127,66099,7710,624985,0
2,-1,639949,217913,1288693,65274,8421,644284,0
2,-1,639908,217724,1241717,65248,8270,620876,0
2,-1,637902,218998,1158778,65712,7834,579284,0
2,-1,660278,222994,1304426,68768,8085,651929,0
2,-1,642930,218449,1256258,65544,8264,628160,0
2,-1,643034,219225,1164315,65898,7774,582265,0
2,-1,642098,218417,1266089,65453,7300,633008,0
2,-1,635673,219614,1125166,65604,6941,562417,0
2,-1,635791,217571,1229893,64764,7573,614879,0
2,-1,635886,218410,1265090,65026,7484,632600,0
2,-1,634656,218387,1252925,65131,7453,626469,0
2,-1,633067,218290,1324220,65134,7635,662121,0
2,-1,659208,222462,1288913,69141,8850,644565,0
2,-1,640747,218152,1694483,65974,11036,848045,0
2,-1,635493,217927,1139648,65830,6441,569834,0
2,-1,640527,219259,1197975,66581,6875,598878,0
2,-1,640002,218215,1144725,65969,7221,572356,0
2,-1,637603,217701,1257207,65812,7073,628559,0
2,-1,638659,217975,1263155,65797,7623,631556,0
2,-1,638588,217048,1180687,65642,8362,590281,0
2,-1,654573,222465,1313743,69155,7930,656852,0
2,-1,635958,218055,1181539,65863,7252,590505,0
2,-1,639743,217700,1260440,65725,7372,630226,0
2,-1,641165,219724,1178896,66730,7530,589544,0
2,-1,641909,218464,1150756,66095,8066,575288,0
2,-1,646616,220536,1312000,66809,7533,655996,0
2,-1,634154,217475,1234181,65475,7031,617071,0
2,-1,640805,218181,1238448,65798,8594,619198,0
2,-1,641111,217582,1164308,65654,7039,582141,0
2,-1,660903,222487,1315387,68993,8832,657606,0
2,-1,661193,222877,1311107,69149,8756,655521,0
2,-1,648091,221230,1204434,66949,8322,602375,0
2,-1,643403,217163,1176496,65447,7400,588275,0
2,-1,640095,220018,1156395,66749,7366,578333,0
2,-1,638244,218623,1268538,66099,7534,634245,0
3,-1,713160,241162,1328297,73814,9814,663897,0
3,0,756807,265828,1432236,78472,8110,716089,11
3,-1,631922,217769,1154878,65442,6529,577643,2
3,-1,658507,222543,1365722,68826,7441,682971,0
3,-1,638891,218526,1222366,65583,8060,611230,0
3,-1,633248,218161,1148425,65555,7078,574229,0
3,-1,632190,217593,1263895,65325,6636,631982,0
3,-1,636476,218216,1166713,65567,6623,583400,0
3,-1,665010,224158,1280842,69821,8315,640381,0
3,-1,636706,218120,1246128,65559,6672,623117,0
3,-1,659157,222755,1204306,68865,7704,602168,0
3,-1,640789,218453,1181208,65568,7498,590729,0
3,-1,642810,219177,1190594,65751,7446,595238,0
3,-1,638022,218157,1297893,65482,8421,648992,0
3,-1,641144,218290,1206058,65694,6855,603030,0
3,-1,643558,220539,1297174,66789,7605,648663,0
3,-1,640955,218711,1422605,65827,8272,711388,0
3,-1,632519,219092,1139731,65990,6621,569869,0
3,-1,636871,218762,1308408,65841,8123,653675,0
3,-1,633008,218175,1282918,65694,7052,641317,0
3,-1,655050,222585,1197781,68901,8091,598868,0
3,-1,640385,219906,1337661,66166,7672,668311,0
3,-1,659407,222886,1331235,68926,8037,665612,0
3,-1,631404,217608,1207934,65322,7447,604041,0
3,-1,636628,218687,1167860,65770,6766,583973,0
3,-1,635663,218895,1187607,65780,7260,593793,0
3,-1,639453,219051,1459381,65933,8559,728752,0
3,-1,638003,219356,1172286,66009,7500,586192,0
3,-1,640976,219291,1257609,65967,6934,628843,0
3,-1,641619,220305,1272593,66520,6974,636406,0
3,-1,635471,218298,1122384,65660,6848,561224,0
3,-1,636907,218742,1167059,65794,6569,583574,0
3,-1,637144,218627,1238163,65749,6616,619167,0
3,-1,636946,218695,1277281,65734,8892,638551,0
3,-1,644327,220371,1343290,66435,9098,671708,0
3,-1,637053,218513,1150298,65721,6730,575196,0
3,-1,637746,219162,1174707,65836,7161,587401,0
3,-1,639538,218783,1189346,65663,7682,594710,0
3,-1,640694,218993,1249875,65733,7978,624797,0
3,-1,648099,220561,1240714,66492,8757,620388,0
3,-1,641639,218833,1264851,65819,8703,632443,0
3,-1,664552,225037,1226557,69574,7876,613246,0
3,-1,642117,219211,1268768,65705,8227,634382,0
3,-1,642511,221261,1203130,66609,8162,601367,0
3,-1,645494,220770,1278382,66238,7560,639227,0
3,-1,644936,220109,1294768,66122,8187,647400,0
3,-1,639284,218819,1357801,65761,7809,678943,0
3,-1,640259,218761,1304002,65673,8364,651765,0
3,-1,662105,223454,1247265,69018,9058,623558,0
3,-1,639138,218138,1147902,65458,7194,574007,0
3,-1,637511,218363,1197721,65564,7328,598910,0
3,-1,635227,218218,1148525,65603,7313,574316,0
3,-1,639772,218415,1240634,65592,7358,620394,0
3,-1,641089,218172,1168317,65275,7956,583942,0
3,-1,635664,218236,1161696,65255,7621,580810,0
3,-1,641529,218760,1176731,65512,7886,588415,0
3,-1,635546,217321,1191082,65071,7232,595278,0
3,-1,639044,218647,1298588,65589,8365,649318,0
3,-1,640662,218580,1194525,65571,7661,596968,0
3,-1,640586,218686,1251705,65581,8549,625820,0
3,-1,638236,217627,1355753,65182,8054,677905,0
3,-1,637469,217919,1342180,65294,7304,671110,0
3,-1,648110,221081,1197288,66724,8349,598575,0
3,-1,641004,217781,1271421,65317,8004,635660,0
3,-1,661622,222903,1303904,68755,8043,652001,0
3,-1,632895,218299,1233523,64992,7196,616681,0
3,-1,636600,218381,1195719,65053,7311,597922,0
3,-1,638563,219320,1284974,65522,7492,642243,0
3,-1,633891,217662,1271467,64861,7820,635628,0
3,-1,640824,219191,1202583,65634,7611,601240,0
3,-1,640911,218739,1249264,66127,7747,624606,0
3,-1,640248,218338,1280365,66004,9532,640158,0
3,-1,634456,217848,1281889,65858,7758,640976,0
3,-1,637067,218234,1132369,65912,6397,566200,0
3,-1,659115,222438,1291872,69135,8250,645957,0
3,-1,634648,217398,1239069,65602,7214,619562,0
3,-1,641018,219319,1204694,66475,7774,602342,0
3,-1,639499,217700,1116925,65755,7362,558352,0
3,-1,639121,218729,1294584,66120,7858,647138,0
3,-1,637763,219062,1132260,66158,6860,566130,0
3,-1,643544,219640,1164805,66578,6739,582397,0
3,-1,655932,222232,1367638,69050,8316,683811,0
3,-1,643954,220169,1136996,66861,7461,568527,0
3,-1,639548,218164,1223650,65781,7092,611812,0
3,-1,660415,222690,1278674,69071,8789,639316,0
3,-1,642812,218718,1379673,65921,8165,689471,0
3,-1,660877,222759,1303878,69131,8133,651798,0
3,-1,641915,217870,1185743,65707,7285,592786,0
3,-1,638557,218196,1150945,65787,7113,575471,0
3,-1,644539,219855,1379279,66638,8422,689528,0
3,-1,663076,222249,1313652,68942,8891,656870,0
3,-1,633179,218026,1138511,65856,6495,569304,0
3,-1,642008,219783,1185045,66432,7234,592470,0
4,-1,693009,236746,1290052,70572,9203,644972,0
4,0,758086,265630,1473858,78420,8253,736972,11
4,-1,638399,218975,1165145,65868,6382,582681,0
4,-1,634547,217565,1228078,65356,6791,614134,2
4,-1,637764,217886,1168757,65399,6823,584425,0
4,-1,652671,222274,1192052,68608,8141,595973,0
4,-1,635673,218451,1174959,65621,6336,587523,0
4,-1,654477,222668,1245537,68838,7252,622698,0
4,-1,638426,218549,1197807,65684,7567,598926,0
4,-1,640950,220193,1265219,66558,7379,632711,0
4,-1,638114,218670,1149716,65769,6298,574906,0
4,-1,641284,218301,1322984,65516,6671,661604,0
4,-1,641493,218988,1221936,65679,6761,611049,0
4,-1,637383,218681,1265621,65643,7805,632714,0
4,-1,640403,218675,1127755,65835,6816,563931,0
4,-1,658045,222817,1245394,69011,7737,622624,0
4,-1,640900,218343,1195561,65718,7878,597820,0
4,-1,645469,218759,1194940,65831,6982,597511,0
4,-1,638452,219398,1490461,66295,9488,745041,0
4,-1,657809,222821,1163986,69008,7889,581961,0
4,-1,635328,218274,1282324,65734,6898,641203,0
4,-1,638044,218560,1154455,65746,7109,577265,0
4,-1,635513,218325,1269239,65552,7163,634650,0
4,-1,633049,218479,1259847,65739,7880,630103,0
4,-1,636059,218420,1325802,65655,7641,662942,0
4,-1,640352,220353,1183689,66479,7180,591900,0
4,-1,642714,220267,1269219,66474,7289,634605,0
4,-1,638125,219887,1236693,66354,8625,618630,0
4,-1,636222,217803,1207812,65505,6937,603956,0
4,-1,643807,220485,1357458,66715,8594,678519,0
4,-1,633587,218043,1253007,65520,7289,626543,0
4,-1,638418,219347,1252975,66150,7085,626505,0
4,-1,637096,218762,1229214,65744,6729,614691,0
4,-1,638427,218555,1206940,65712,7147,603494,0
4,-1,660809,223461,1191831,69007,8109,595912,0
4,-1,640432,218482,1202637,65664,7270,601393,0
4,-1,635336,218543,1155537,65698,7181,577730,0
4,-1,639108,218501,1273847,65514,8392,636836,0
4,-1,635404,217037,1259844,65063,7267,629930,0
4,-1,640973,218191,1238248,65403,7337,619146,0
4,-1,640777,218727,1153716,65766,7721,576755,0
4,-1,642801,219479,1291023,65984,8182,645398,0
4,-1,652804,222243,1279140,66966,8151,639710,0
4,-1,638188,219432,1122482,65758,7617,561342,0
4,-1,641431,219273,1284665,65723,7665,642379,0
4,-1,642156,219844,1341453,66051,7459,670409,0
4,-1,639754,219378,1267991,65802,7480,634021,0
4,-1,642797,219495,1310964,66096,8104,654887,0
4,-1,640815,218614,1324406,65661,8148,662250,0
4,-1,639877,218585,1299073,65574,7840,649572,0
4,-1,639073,219251,1190572,66115,7529,595283,0
4,-1,632980,217734,1354397,65412,7144,677274,0
4,-1,640692,218654,1245291,65611,7590,622681,0
4,-1,644473,219460,1184775,65741,8056,592421,0
4,-1,644235,220198,1342484,66057,8595,671039,0
4,-1,643937,220769,1251906,66383,7170,626068,0
4,-1,637765,218258,1119785,65471,7254,559847,0
4,-1,640422,219379,1184055,65828,7540,592057,0
4,-1,641548,218756,1557291,65592,10190,778517,0
4,-1,638364,218282,1207406,65452,8181,603494,0
4,-1,662550,223837,1255374,69086,7925,627607,0
4,-1,642331,219750,1174287,66161,7421,587110,0
4,-1,661711,222943,1273582,68773,9109,636786,0
4,-1,641969,218393,1341567,65454,7720,670523,0
4,-1,645623,218859,1548495,65673,9263,774084,0
4,-1,632496,218432,1304765,65152,9056,652067,0
4,-1,637875,219384,1170088,65562,7312,585099,0
4,-1,632589,217948,1236267,64834,7275,618154,0
4,-1,634095,218132,1145189,65073,7625,572461,0
4,-1,660099,226405,1243922,67412,8041,621999,0
4,-1,638489,218188,1187388,65913,7651,593672,0
4,-1,645451,219945,1195704,66666,8244,597818,0
4,-1,633689,217909,1217406,65865,7484,608701,0
4,-1,635694,218070,1260694,65932,7306,630330,0
4,-1,635729,217518,1141354,65701,6933,570738,0
4,-1,635773,218321,1354355,66019,7113,677189,0
4,-1,641308,218759,1222761,66135,7083,611405,0
4,-1,640782,218457,1199556,66010,8254,599817,0
4,-1,640645,219828,1184659,66770,7664,592375,0
4,-1,638099,219367,1126921,66522,7773,563320,0
4,-1,638679,218030,1215994,65913,6513,608010,0
4,-1,634726,217807,1284274,65852,7695,642146,0
4,-1,659288,222200,1202496,68994,8733,601085,0
4,-1,647909,220843,1268039,67016,7307,634026,0
4,-1,639311,218635,1177566,65942,7407,588712,0
4,-1,645179,220434,1289593,66799,7618,644624,0
4,-1,639950,218156,1228834,65794,7546,614345,0
4,-1,641702,218078,1250861,65763,7343,625454,0
4,-1,641491,219158,1286243,66090,7657,643055,0
4,-1,661973,223002,1358153,69122,8811,678864,0
4,-1,644752,218507,1241740,65922,8269,620898,0
4,-1,638296,218613,1262487,66033,7759,631355,0
4,-1,640455,219044,1254331,66298,7822,627227,0
5,-1,692334,236535,1354447,70461,8384,677193,0
5,0,760272,265482,1507704,78395,8750,753884,11
5,-1,638952,219288,1259117,66157,7288,629786,0
5,-1,640822,220462,1263625,66479,7275,631891,2
5,-1,637769,218062,1119351,65395,6532,559705,0
5,-1,633264,218763,1114028,65614,6773,557066,0
5,-1,636642,218963,1328242,66026,6957,664234,0
5,-1,636298,218399,1184850,65642,7117,592469,0
5,-1,635677,217528,1324269,65305,8259,662024,0
5,-1,636695,217816,1178716,65492,7054,589505,0
5,-1,634795,217034,1119098,65305,6626,559598,0
5,-1,639579,218631,1211690,65666,6669,605902,0
5,-1,642818,220354,1294774,66476,7810,647515,0
5,-1,639624,219416,1342053,66143,8187,671035,0
5,-1,641564,218893,1135449,65884,6259,567768,0
5,-1,637685,218764,1243089,65887,6861,621566,0
5,-1,660734,223053,1198905,69110,8808,599487,0
5,-1,644174,218678,1204196,65852,6981,602075,0
5,-1,635369,218800,1535385,65891,9291,767385,0
5,-1,635989,217971,1178661,65581,7067,589368,0
5,-1,634498,218611,1174907,65782,7513,587490,0
5,-1,658635,223323,1180861,69104,7155,590435,0
5,-1,639003,219866,1254078,66322,7325,627164,0
5,-1,634027,218946,1115784,65812,7031,557932,0
5,-1,635008,218556,1239592,65754,7181,619857,0
5,-1,634078,218177,1159844,65579,6787,579965,0
5,-1,636697,218356,1152179,65670,6979,576134,0
5,-1,636674,219007,1174214,65861,8403,587019,0
5,-1,638567,218705,1204273,65764,6983,602140,0
5,-1,660118,223537,1209905,69102,8026,604857,0
5,-1,635487,219096,1209815,65852,7282,604863,0
5,-1,635926,218740,1160687,65808,6326,580398,0
5,-1,639799,219588,1276737,66229,7329,638460,0
5,-1,636595,218853,1407758,65810,8787,703700,0
5,-1,639578,219653,1246313,66330,6766,623227,0
5,-1,662363,223463,1185657,69107,7574,592817,0
5,-1,636909,218639,1175204,65721,8138,587530,0
5,-1,636862,218486,1287908,65551,7357,643933,0
5,-1,644457,220819,1295741,66530,8378,647896,0
5,-1,639575,218242,1257950,65428,7511,628919,0
5,-1,639118,218653,1180274,65677,7849,590201,0
5,-1,644772,220775,1308502,66530,7864,654176,0
5,-1,646911,220440,1281033,66079,8310,640527,0
5,-1,639017,219921,1226363,65926,8217,613233,0
5,-1,647833,222089,1323946,66952,8249,662051,0
5,-1,644673,220641,1256006,66508,7970,628059,0
5,-1,638057,218111,1165144,65412,7274,582729,0
5,-1,642347,219656,1232609,65963,7741,616333,0
5,-1,638066,217936,1372424,65316,7966,686215,0
5,-1,658558,222512,1160225,68638,7966,580163,0
5,-1,641890,218638,1130063,65707,7698,565074,0
5,-1,647779,220818,1277601,66761,7951,638835,0
5,-1,642696,218695,1265894,65674,8583,633002,0
5,-1,641500,218397,1246252,65343,8148,623154,0
5,-1,638414,218922,1264043,65482,8365,632050,0
5,-1,638674,218633,1244290,65451,7755,622273,0
5,-1,636366,217974,1182924,65346,7821,591402,0
5,-1,637922,218094,1331537,65363,8105,665840,0
5,-1,661322,222728,1236800,68716,8989,618463,0
5,-1,661120,222725,1264436,68656,9086,632238,0
5,-1,638722,218499,1236592,65550,7980,618346,0
5,-1,637962,218213,1238350,65403,7240,619227,0
5,-1,638503,217961,1223759,65382,8185,611967,0
5,-1,644352,219315,1257861,65786,8245,629012,0
5,-1,640192,217864,1160054,65354,7009,579961,0
5,-1,631835,218278,1206639,64923,7223,603321,0
5,-1,655177,222615,1413903,68207,8294,707088,0
5,-1,633763,218300,1136989,64949,7437,568459,0
5,-1,632083,217590,1357429,64785,8211,678820,0
5,-1,633535,217672,1130627,64810,7199,565294,0
5,-1,637520,218172,1267298,65958,8651,633676,0
5,-1,660520,222545,1308059,69139,9244,654074,0
5,-1,640427,219643,1150883,66612,7664,575426,0
5,-1,637152,218816,1228982,66277,7766,614412,0
5,-1,643467,219186,1258047,66308,7864,629019,0
5,-1,639131,217866,1260298,65796,8165,630084,0
5,-1,640949,219092,1167056,66478,7114,583395,0
5,-1,662987,223086,1222043,69353,9012,610996,0
5,-1,633866,217601,1134685,65712,7296,567276,0
5,-1,639388,217978,1133598,65936,7468,566772,0
5,-1,637816,218370,1240954,66024,7291,620529,0
5,-1,640532,219340,1151060,66530,6860,575506,0
5,-1,639894,218244,1164055,65980,7457,582027,0
5,-1,641167,218563,1321171,65913,7233,660559,0
5,-1,637844,218307,1267981,65848,7608,633992,0
5,-1,659237,222653,1320475,69055,8722,660219,0
5,-1,639104,218025,1262479,65790,7813,631567,0
5,-1,641897,218477,1263270,65928,7329,631705,0
5,-1,640882,218020,1202013,65733,8388,600882,0
5,-1,641990,219211,1234714,66111,7896,617032,0
5,-1,644422,218627,1357006,65913,7960,678156,0
5,-1,635959,217332,1254954,65628,7125,627571,0
5,-1,640080,219270,1244367,66384,6992,622227,0
6,-1,691116,236818,1283229,70578,7743,641519,0
6,0,752924,263823,1412848,77885,8199,706453,11
6,-1,634911,217723,1212339,65479,6829,606246,0
6,-1,636381,218148,1119693,65483,6884,559899,0
6,-1,636926,218172,1303283,65466,7605,651737,2
6,-1,639501,217458,1139415,65115,7064,569790,0
6,-1,634773,218438,1283817,65701,6390,641995,0
6,-1,637192,218783,1277782,65974,7535,639016,0
6,-1,640606,219673,1407401,66237,8777,703640,0
6,-1,636423,218067,1261832,65528,7630,630962,0
6,-1,633839,217047,1122221,65230,6238,561148,0
6,-1,640417,218198,1205139,65594,7065,602625,0
6,-1,638863,219100,1272176,65799,6692,636146,0
6,-1,645792,220552,1237363,66575,9193,618640,0
6,-1,639317,218400,1174139,65611,6576,587156,0
6,-1,641151,218905,1285478,65906,7834,642769,0
6,-1,638455,217673,1256020,65602,8126,628044,0
6,-1,647043,220059,1274429,66589,7893,637147,0
6,-1,636667,218723,1190169,65874,7924,595127,0
6,-1,636890,218925,1129973,65881,6531,564974,0
6,-1,632094,218176,1273192,65704,8433,636661,0
6,-1,635985,218481,1234187,65656,6746,617172,0
6,-1,635451,218639,1183592,65755,7176,591852,0
6,-1,654413,223164,1164992,69001,7181,582390,0
6,-1,657048,223385,1204997,69068,7312,602463,0
6,-1,636815,219598,1187897,66056,6939,593902,0
6,-1,635436,217912,1267380,65476,6643,633741,0
6,-1,635425,218754,1254117,65741,8974,627594,0
6,-1,640751,219677,1273409,66015,7471,636826,0
6,-1,636761,218341,1222032,65544,7493,610978,0
6,-1,634049,218583,1170271,65675,7122,585174,0
6,-1,635657,218551,1151670,65644,6860,575872,0
6,-1,637237,218533,1251645,65639,6753,625704,0
6,-1,634568,218404,1256405,65603,7504,628365,0
6,-1,638932,218544,1176941,65739,6938,588530,0
6,-1,638289,218153,1182702,65555,6497,591389,0
6,-1,639430,220628,1352418,66665,8209,675692,0
6,-1,640212,218651,1394791,65656,8233,697392,0
6,-1,639858,218878,1164608,65643,7570,582301,0
6,-1,640090,218640,1175560,65612,7621,587866,0
6,-1,638618,218352,1333050,65577,8131,666560,0
6,-1,642026,219992,1207881,66197,6827,604093,0
6,-1,644710,220000,1209861,65989,8001,604741,0
6,-1,636967,219366,1354865,65743,8047,677473,0
6,-1,640977,219627,1273448,65881,7455,636775,0
6,-1,641009,219629,1170550,65982,7135,585327,0
6,-1,640564,219344,1333240,65845,7743,666664,0
6,-1,638468,218460,1391780,65514,8432,695961,0
6,-1,640302,219010,1457793,65765,8214,728932,0
6,-1,638928,218556,1232167,65608,6791,616163,0
6,-1,639026,217880,1210005,65394,8218,605025,0
6,-1,664631,223380,1227423,69061,8498,613614,0
6,-1,668003,227777,1202010,68257,8139,601092,0
6,-1,641824,218674,1171657,65534,7717,585816,0
6,-1,637757,218954,1261986,65524,8267,630773,0
6,-1,636586,218360,1157484,65378,7386,578826,0
6,-1,636035,217649,1113131,65284,7649,556613,0
6,-1,641798,220342,1310339,66404,7564,655209,0
6,-1,637432,217707,1180555,65247,7368,590127,0
6,-1,640972,218379,1260566,65521,7568,630089,0
6,-1,638794,218091,1279029,65435,7355,639523,0
6,-1,637068,217877,1261522,65295,7563,630760,0
6,-1,640630,217958,1172196,65336,8296,586138,0
6,-1,639111,217715,1247675,65242,7942,623834,0
6,-1,640145,218237,1272556,65350,6830,636346,0
6,-1,636090,220400,1141440,65873,7227,570409,0
6,-1,635459,218724,1505630,65245,9891,752315,0
6,-1,654949,222465,1259085,68148,8232,629563,0
6,-1,638841,220261,1496511,66039,9336,747624,0
6,-1,635970,218375,1174304,65143,7474,587003,0
6,-1,638022,218084,1246902,65847,7822,623519,0
6,-1,639191,217819,1152439,65789,7648,576195,0
6,-1,635887,218209,1247587,65972,7891,623838,0
6,-1,636878,218236,1246413,65930,7700,623354,0
6,-1,643034,219556,1165847,66582,7005,582903,0
6,-1,658777,222823,1307341,69270,8372,653786,0
6,-1,658531,222405,1294555,69135,8451,647332,0
6,-1,639383,217473,1146130,65685,7232,572892,0
6,-1,635795,218783,1240789,66140,7357,620414,0
6,-1,658582,222410,1216666,69154,8898,608257,0
6,-1,636756,218067,1271712,65871,6966,635845,0
6,-1,637650,218447,1258503,66029,7417,629220,0
6,-1,642166,219608,1165739,66631,7423,582866,0
6,-1,642736,219136,1210463,66051,6718,605185,0
6,-1,636555,218505,1238571,65858,8168,619229,0
6,-1,639027,218879,1237881,66064,7181,618941,0
6,-1,641781,219112,1166984,66353,6571,583375,0
6,-1,639648,217854,1144708,65706,6626,572377,0
6,-1,659190,222600,1232320,69059,9239,616001,0
6,-1,638490,218004,1272714,65686,8002,636347,0
6,-1,642793,218148,1294961,65793,9175,647825,0
6,-1,639852,218921,1156012,66359,7395,578089,0
6,-1,641350,220043,1386405,66643,8128,693261,0
7,-1,689481,236894,1361299,70649,7591,679649,0
7,0,724711,254044,1430614,75083,8984,715334,11
7,-1,635758,218068,1219356,65456,6745,609729,0
7,-1,637388,218326,1137090,65507,7214,568582,0
7,-1,644854,220299,1283991,66429,7643,642094,0
7,-1,633111,218280,1228454,65635,6446,614258,2
7,-1,634879,218473,1180834,65663,6524,590524,0
7,-1,634816,218122,1210527,65628,6763,605421,0
7,-1,636990,218156,1264268,65497,8133,632604,0
7,-1,639897,219549,1259703,66212,7390,629965,0
7,-1,633768,217389,1156082,65399,6322,578081,0
7,-1,645913,220414,1254716,66487,6841,627435,0
7,-1,640109,219701,1257164,66122,7370,628716,0
7,-1,639848,218262,1171190,65491,7516,585622,0
7,-1,658893,222684,1207569,68813,7812,603337,0
7,-1,639435,217966,1157373,65574,6843,578735,0
7,-1,637788,217903,1264629,65564,7886,632349,0
7,-1,640767,218222,1236445,65682,7625,618303,0
7,-1,640185,220427,1225649,66695,8031,612766,0
7,-1,638440,219935,1260438,66445,7374,630288,0
7,-1,642641,219706,1377607,66377,8400,688874,0
7,-1,635176,218567,1155028,65733,6430,577564,0
7,-1,637051,218613,1273027,65740,7120,636526,0
7,-1,638559,217839,1177249,65410,7970,588707,0
7,-1,635138,218375,1302827,65630,7090,651487,0
7,-1,640768,220588,1343244,66667,8869,671442,0
7,-1,639609,219589,1232134,65991,6723,616117,0
7,-1,636079,219543,1285967,66062,7956,643037,0
7,-1,636473,218252,1177255,65592,6673,588666,0
7,-1,635455,218218,1164874,65641,6489,582495,0
7,-1,655675,223167,1222626,68997,7662,611109,0
7,-1,637413,219211,1103901,65900,6905,551983,0
7,-1,637924,219406,1170854,65961,6714,585474,0
7,-1,640793,220730,1271425,66604,7585,635749,0
7,-1,639319,218554,1251153,65633,7327,625779,0
7,-1,642553,219954,1216578,66402,6717,608374,0
7,-1,654488,223306,1179700,69036,7026,589816,0
7,-1,638456,218385,1313159,65611,7843,656481,0
7,-1,643327,220287,1316484,66321,8602,658093,0
7,-1,639961,218573,1248489,65559,8226,624163,0
7,-1,643889,220411,1384487,66562,8461,692102,0
7,-1,640757,219292,1302477,65916,8463,651277,0
7,-1,642195,219281,1389688,65800,8421,694817,0
7,-1,637395,219825,1253268,65930,7803,626710,0
7,-1,643899,220783,1197032,66254,7518,598549,0
7,-1,638318,219035,1262848,65739,7689,631471,0
7,-1,642448,220198,1344330,66242,8326,672212,0
7,-1,639825,218842,1172142,65688,7031,586097,0
7,-1,643112,219175,1243877,65834,8198,621930,0
7,-1,636247,218005,1151245,65381,7103,575669,0
7,-1,639571,218156,1347503,65502,8243,673752,0
7,-1,639642,217726,1277691,65377,8063,638891,0
7,-1,644615,219958,1272815,66269,8776,636460,0
7,-1,640590,218546,1316242,65396,8517,658093,0
7,-1,637518,218891,1158985,65457,7731,579540,0
7,-1,638158,218798,1191132,65543,7681,595561,0
7,-1,636917,218292,1165404,65369,7894,582757,0
7,-1,658015,223402,1199721,68935,8266,599816,0
7,-1,665009,227699,1282528,68467,7749,641196,0
7,-1,640861,218596,1191056,65517,7492,595454,0
7,-1,636342,218131,1193986,65469,7401,596922,0
7,-1,640079,219830,1170419,66233,7486,585180,0
7,-1,647137,220498,1213467,66364,7558,606657,0
7,-1,640310,218251,1299788,65414,7468,649864,0
7,-1,662215,222706,1325301,68689,8271,662687,0
7,-1,632332,218384,1174299,65019,6933,587041,0
7,-1,631846,217672,1247389,64714,7382,623717,0
7,-1,638582,219107,1240485,65249,7360,620301,0
7,-1,634382,218493,1266178,65084,7848,633155,0
7,-1,632891,217833,1498324,65002,9611,749182,0
7,-1,636754,217679,1222611,65732,7711,611197,0
7,-1,637257,217738,1279649,65784,8413,639755,0
7,-1,634156,217626,1226081,65731,7758,613071,0
7,-1,636409,218283,1239973,65961,6956,620030,0
7,-1,637783,217528,1224922,65714,7122,612544,0
7,-1,636126,218065,1343569,65892,7864,671767,0
7,-1,637479,218140,1218296,65954,7756,609175,0
7,-1,640245,218118,1213853,65866,7489,606819,0
7,-1,638682,218457,1240996,66033,8601,620443,0
7,-1,636484,217907,1184333,65826,7144,592222,0
7,-1,657373,222729,1333954,69200,8858,666922,0
7,-1,635689,218081,1143666,65924,6815,571822,0
7,-1,637927,218281,1331229,65977,7337,665622,0
7,-1,640590,219017,1173850,66203,7135,586871,0
7,-1,636560,218157,1168421,65737,8480,584203,0
7,-1,641334,218756,1274125,66059,7844,637142,0
7,-1,639889,218616,1250103,65973,7780,624823,0
7,-1,645263,219180,1224687,66196,7233,612328,0
7,-1,640171,218299,1199399,65856,7753,599664,0
7,-1,667110,227322,1333595,68517,7773,666425,0
7,-1,642663,217877,1205518,65756,8424,602859,0
7,-1,636636,217970,1256580,65869,7542,628347,0
7,-1,638643,219376,1266830,66366,7898,633423,0
8,-1,688692,236898,1356028,70608,7925,678096,0
8,-1,656414,222973,1205597,68869,7554,602807,0
8,0,710169,249348,1384803,74399,8724,692488,11
8,-1,642709,219783,1187771,66153,7535,593947,0
8,-1,638010,218010,1183469,65340,7360,591773,0
8,-1,632815,218085,1189792,65527,6998,594979,0
8,-1,633426,217762,1141854,65409,6439,570967,0
8,-1,639245,218691,1322739,65740,7216,661422,0
8,-1,636564,219511,1217741,66362,7424,609056,2
8,-1,634142,217894,1172581,65432,7065,586341,0
8,-1,637406,219292,1168759,66204,6779,584492,0
8,-1,639571,218211,1172077,65543,7096,586158,0
8,-1,637508,218597,1260473,65617,8105,630267,0
8,-1,641478,219270,1128991,65805,7054,564547,0
8,-1,639276,217963,1273078,65381,7512,636557,0
8,-1,637681,218031,1153309,65594,6955,576704,0
8,-1,638763,218605,1119301,65856,7809,559698,0
8,-1,641937,218421,1127847,65674,7355,563949,0
8,-1,657298,223451,1182083,69202,8473,590808,0
8,-1,633804,217966,1196377,65581,6463,598139,0
8,-1,637286,218011,1261492,65612,7256,630843,0
8,-1,638007,218647,1253108,65789,6935,626652,0
8,-1,640707,219942,1259826,66374,6784,629963,0
8,-1,642286,219321,1208739,66159,8212,604616,0
8,-1,636909,220105,1259639,66433,7483,629983,0
8,-1,659747,222848,1172747,68865,8312,586350,0
8,-1,658351,223566,1163717,69143,7243,581862,0
8,-1,637129,218133,1273707,65480,7919,636447,0
8,-1,641676,220653,1306630,66681,7558,653358,0
8,-1,639111,218628,1188375,65767,6345,594050,0
8,-1,634559,218792,1261284,65808,7322,630734,0
8,-1,636419,219219,1196576,65844,7409,598271,0
8,-1,632188,217727,1110076,65393,6409,555081,0
8,-1,634873,218713,1256385,65745,7808,628259,0
8,-1,643597,221080,1286543,66842,6332,643296,0
8,-1,638934,218810,1251990,65826,7820,625920,0
8,-1,640809,218257,1255175,65652,7576,627562,0
8,-1,660324,223833,1231689,69199,8401,615857,0
8,-1,640976,219140,1196740,65765,7886,598392,0
8,-1,664940,224322,1264461,69754,9111,632198,0
8,-1,660647,223161,1232403,68931,8675,616179,0
8,-1,667630,224764,1260915,69525,8309,630367,0
8,-1,648344,221521,1421700,66880,8899,710768,0
8,-1,640383,221235,1314491,66574,8090,657494,0
8,-1,639069,219304,1260774,65724,7976,630391,0
8,-1,644873,221149,1285697,66747,7948,642843,0
8,-1,643369,220991,1260429,66624,7254,630269,0
8,-1,639815,218713,1264554,65728,7366,632363,0
8,-1,640698,218280,1298416,65490,9089,649254,0
8,-1,637200,218326,1247973,65505,7208,624032,0
8,-1,643060,220113,1370405,66453,7986,685194,0
8,-1,640925,218117,1171250,65520,7563,585523,0
8,-1,638992,218726,1244133,65643,8000,622119,0
8,-1,642521,219019,1250073,65528,7691,624925,0
8,-1,636104,218748,1281477,65484,8820,640837,0
8,-1,641335,220202,1173907,66123,7662,586893,0
8,-1,640185,218283,1211797,65481,8294,605932,0
8,-1,635697,218104,1258369,65411,8120,629086,0
8,-1,637436,217804,1282197,65258,7742,641070,0
8,-1,646887,220509,1252312,66371,8714,626177,0
8,-1,638459,218977,1227074,65705,7424,613493,0
8,-1,656452,222405,1276854,68605,7783,638385,0
8,-1,640904,218738,1161748,65621,7304,580772,0
8,-1,647821,221636,1171057,66823,6996,585489,0
8,-1,640818,218617,1219845,65596,7377,609903,0
8,-1,634371,219683,1162916,65620,6326,581419,0
8,-1,632167,217992,1491278,64872,9589,745643,0
8,-1,634934,218234,1271126,64916,7637,635507,0
8,-1,631636,218061,1195062,64984,7241,597492,0
8,-1,636420,218300,1153543,65139,7248,576725,0
8,-1,638706,218717,1159267,66124,7781,579510,0
8,-1,640850,218279,1267586,65971,8613,633781,0
8,-1,635327,218332,1151449,66005,7326,575732,0
8,-1,639908,220282,1171747,66883,6950,585859,0
8,-1,639188,218520,1146560,66072,6824,573281,0
8,-1,634164,217701,1249325,65762,7933,624499,0
8,-1,638960,218391,1223136,66062,7662,611560,0
8,-1,642948,219288,1153567,66508,7231,576582,0
8,-1,636459,218061,1308607,65860,8501,654276,0
8,-1,640393,218742,1245242,66127,7511,622583,0
8,-1,639258,217973,1168082,65789,7379,583930,0
8,-1,640713,219573,1149218,66601,7512,574565,0
8,-1,636863,217790,1274664,65773,7603,637400,0
8,-1,639523,218183,1188728,65777,6939,594362,0
8,-1,639197,219668,1133567,66544,8355,566726,0
8,-1,639374,218081,1176733,65775,7120,588386,0
8,-1,638418,218123,1128342,65740,7045,564088,0
8,-1,639419,217416,1273925,65675,8451,636959,0
8,-1,639364,218294,1201353,65888,7863,600481,0
8,-1,639818,218262,1211546,65772,7955,605770,0
8,-1,647486,220764,1226505,66908,8193,613821,0
8,-1,637096,218614,1294969,66096,7661,647513,0
8,-1,637596,218824,1179439,66131,7089,589746,0
9,-1,691602,236297,1305911,70469,8132,652597,0
9,-1,639843,218877,1160583,65775,6575,580337,0
9,0,705888,247363,1459719,73577,8543,729913,11
9,-1,638129,218205,1162632,65405,7547,581356,0
9,-1,639283,217454,1201332,65166,7097,600701,0
9,-1,656952,222381,1254458,68714,7466,627197,0
9,-1,638646,219855,1256664,66414,7271,628402,0
9,-1,635059,217400,1246816,65268,6801,623440,0
9,-1,631818,217323,1168224,65249,7133,584155,0
9,-1,637397,219121,1173060,65926,7242,586587,2
9,-1,636139,218010,1189044,65560,6572,594568,0
9,-1,637884,217936,1242102,65446,7378,621107,0
9,-1,637216,218008,1171175,65379,6757,585630,0
9,-1,644646,220444,1271104,66362,7659,635649,0
9,-1,644261,219968,1340189,66344,9092,670143,0
9,-1,666081,227734,1288738,68495,7825,644375,0
9,-1,637641,218449,1184046,65802,7928,592060,0
9,-1,663560,223079,1179650,69070,8865,589825,0
9,-1,633592,218345,1165059,65754,7528,582577,0
9,-1,638620,220257,1261160,66599,7453,630658,0
9,-1,636813,218208,1246555,65697,6995,623329,0
9,-1,653372,222129,1169408,68797,7630,584750,0
9,-1,636291,218251,1199530,65582,6322,599852,0
9,-1,639189,218608,1117601,65770,7331,558935,0
9,-1,637897,218899,1187795,65824,7176,594050,0
9,-1,639891,218949,1179731,65856,7706,589877,0
9,-1,635704,218550,1244471,65680,7140,622281,0
9,-1,640625,218921,1541601,65870,9265,770187,0
9,-1,634603,218209,1241416,65550,6614,620801,0
9,-1,638318,218728,1125574,65746,6441,562829,0
9,-1,637831,220631,1274484,66581,7246,637310,0
9,-1,634532,218494,1226151,65619,6659,613173,0
9,-1,660248,223169,1217770,68994,7320,608903,0
9,-1,636140,218476,1158437,65679,6905,579330,0
9,-1,659359,223581,1303061,69150,7270,651519,0
9,-1,639332,218883,1157231,65793,6976,578669,0
9,-1,641676,219122,1279548,65845,7857,639847,0
9,-1,636242,218348,1261036,65578,7198,630415,0
9,-1,639272,219306,1211687,65809,8019,605853,0
9,-1,640560,218743,1322659,65643,7029,661391,0
9,-1,640136,219037,1288834,65731,8821,644443,0
9,-1,641643,219285,1284066,65845,7412,641996,0
9,-1,665214,224678,1354814,69497,8856,677357,0
9,-1,636836,220273,1385867,66068,8085,692946,0
9,-1,642673,219543,1352925,65814,7238,676513,0
9,-1,643137,219789,1414302,66018,7599,707204,0
9,-1,660860,224457,1243459,69259,8234,621677,0
9,-1,644010,221074,1258453,66808,8402,628866,0
9,-1,643973,220299,1308876,66406,8706,654326,0
9,-1,642846,219189,1383627,65844,7601,691864,0
9,-1,640695,218693,1271313,65656,7851,635800,0
9,-1,640139,218236,1273635,65604,7684,636862,0
9,-1,639523,218397,1280557,65536,7921,640317,0
9,-1,639702,218490,1489136,65427,10150,744582,0
9,-1,635534,218246,1309205,65249,7425,654442,0
9,-1,637662,218519,1203942,65416,7859,601943,0
9,-1,640343,218532,1284197,65601,8276,642122,0
9,-1,634708,218424,1268498,65510,7790,634316,0
9,-1,638001,218418,1273629,65514,7948,636777,0
9,-1,641544,218875,1221457,65690,8123,610844,0
9,-1,637480,218183,1251985,65395,8448,626032,0
9,-1,640584,217844,1194807,65225,7945,597491,0
9,-1,638952,218224,1579252,65423,9232,789435,0
9,-1,660810,222697,1360769,68638,8868,680359,0
9,-1,641873,218047,1187899,65375,8083,593809,0
9,-1,628931,218064,1229796,64868,6556,614835,0
9,-1,655817,222946,1320110,68275,8459,660166,0
9,-1,637468,219255,1196391,65491,7225,597995,0
9,-1,638555,220510,1175415,66004,7712,587699,0
9,-1,634980,217806,1344490,64879,8380,672265,0
9,-1,640850,220073,1197352,66843,8123,598831,0
9,-1,638128,217404,1209043,65592,7974,604527,0
9,-1,632964,217581,1242682,65713,7444,621342,0
9,-1,638866,218149,1223147,65930,7143,611619,0
9,-1,659381,222813,1402255,69284,8425,701135,0
9,-1,638558,218172,1170845,65950,7711,585437,0
9,-1,641905,219737,1154491,66644,7418,577144,0
9,-1,639190,218074,1169580,65943,7730,584805,0
9,-1,638909,218972,1310455,66150,8631,655182,0
9,-1,641536,219642,1133328,66619,7263,566651,0
9,-1,637554,218002,1256460,65863,7833,628215,0
9,-1,657343,222729,1287194,69223,8934,643584,0
9,-1,637655,217180,1267363,65595,7273,633662,0
9,-1,656381,222222,1331562,68901,8032,665676,0
9,-1,644594,218480,1182581,65906,7429,591191,0
9,-1,641355,219730,1234048,66554,7637,616996,0
9,-1,661643,223141,1233697,69239,8522,616790,0
9,-1,661939,222617,1424974,69162,8678,712464,0
9,-1,640427,218848,1139205,66187,8013,569607,0
9,-1,639293,218633,1293991,65963,8279,646977,0
9,-1,661630,222677,1365028,69082,9771,682858,0
9,-1,656945,222528,1294760,69128,9364,647361,0
9,-1,643566,219416,1260938,66306,7635,630510,0
10,-1,691612,236556,1203721,70514,7714,601720,0
10,-1,656809,225548,1263101,67519,6891,631569,0
10,0,707165,247593,1400443,73490,9479,700233,11
10,-1,634857,217608,1166346,65278,6801,583205,0
10,-1,658255,222266,1263834,68569,8212,631825,0
10,-1,634334,217528,1151463,65441,6513,575766,0
10,-1,632745,217665,1258327,65447,6503,629158,0
10,-1,637181,217817,1271982,65437,7104,636077,0
10,-1,633228,217010,1239966,65124,7182,620013,0
10,-1,635279,217656,1318026,65524,7599,659100,2
10,-1,639121,218150,1258710,65597,7270,629424,0
10,-1,637611,217818,1236775,65446,6876,618412,0
10,-1,643213,220663,1264387,66553,7510,632273,0
10,-1,641925,219366,1175097,65841,7138,587608,0
10,-1,639918,218773,1148482,65750,7559,574172,0
10,-1,640253,220017,1259685,66479,7403,629847,0
10,-1,636504,217960,1239908,65580,8027,620012,0
10,-1,641356,218458,1287280,65736,8195,643654,0
10,-1,634618,218649,1170024,65854,7328,585060,0
10,-1,634540,218493,1484571,65812,9175,742243,0
10,-1,640835,219956,1298441,66535,8061,649298,0
10,-1,637110,219352,1224881,66201,6934,612514,0
10,-1,638344,219630,1220450,66090,6494,610279,0
10,-1,638031,218601,1167418,65697,7084,583750,0
10,-1,638471,219207,1239672,65943,7008,619864,0
10,-1,639168,219055,1200108,65851,7225,600039,0
10,-1,643447,219749,1348772,66253,7776,674452,0
10,-1,641823,219346,1251737,65931,7169,625918,0
10,-1,636391,218646,1419553,65701,8277,709327,0
10,-1,635909,218009,1244797,65515,7124,622495,0
10,-1,641461,219130,1279095,65921,7730,639611,0
10,-1,632836,218100,1280993,65457,6313,640535,0
10,-1,638242,218478,1217534,65689,7273,608824,0
10,-1,645952,220359,1269777,66474,8105,634959,0
10,-1,638792,219222,1475448,65973,8365,737779,0
10,-1,658866,222580,1160577,68659,7287,580268,0
10,-1,640328,218191,1289425,65589,8103,644422,0
10,-1,638497,218129,1253033,65520,7691,626333,0
10,-1,637691,218871,1196293,65705,7896,598058,0
10,-1,640827,218956,1299841,65736,7722,649948,0
10,-1,641618,218905,1279910,65616,8528,640038,0
10,-1,644072,219514,1274665,66014,8075,637364,0
10,-1,644975,218790,1163049,65755,7438,581520,0
10,-1,644262,220166,1263318,65992,7592,631629,0
10,-1,644953,221104,1393220,66571,8101,696399,0
10,-1,638636,218829,1256030,65674,7404,628066,0
10,-1,640437,218924,1142944,65650,6884,571504,0
10,-1,659655,223633,1196812,69086,8188,598385,0
10,-1,660572,223415,1241150,68969,8787,620609,0
10,-1,657592,222600,1179983,68763,7445,590037,0
10,-1,638681,218542,1295167,65631,7206,647635,0
10,-1,643018,219375,1321301,66158,8044,660659,0
10,-1,637359,218363,1181121,65520,7304,590631,0
10,-1,640586,218104,1312919,65263,8781,656435,0
10,-1,646219,218842,1372207,65455,9302,686097,0
10,-1,643360,221257,1195051,66594,8292,597561,0
10,-1,638926,218238,1259337,65421,8284,629656,0
10,-1,642749,219677,1244372,66107,7586,622177,0
10,-1,637999,218048,1174350,65355,8099,587128,0
10,-1,639167,218307,1246848,65446,8245,623402,0
10,-1,656763,223028,1243735,68816,8494,621902,0
10,-1,639841,218236,1420510,65477,8939,710163,0
10,-1,659222,222284,1276150,68573,8022,638019,0
10,-1,640007,218326,1229101,65505,7609,614315,0
10,-1,646424,220477,1324749,66482,8896,662133,0
10,-1,627660,218050,1235182,64864,6629,617550,0
10,-1,636147,219980,1187376,65724,7682,593798,0
10,-1,632934,217952,1455268,64863,7998,727928,0
10,-1,654212,223028,1356143,68359,8379,678101,0
10,-1,657021,223151,1288740,68458,8321,644439,0
10,-1,640133,218409,1335124,66021,9211,667599,0
10,-1,638658,217916,1286140,65880,9922,643176,0
10,-1,657930,222748,1351850,69189,8489,675920,0
10,-1,658515,222910,1284872,69292,8242,642384,0
10,-1,637154,218093,1331727,65932,7592,665871,0
10,-1,639817,218668,1273147,66066,8210,636562,0
10,-1,661344,222403,1276365,69148,8436,638097,0
10,-1,637970,217759,1179464,65784,7633,589802,0
10,-1,654184,222527,1286320,69169,8605,643190,0
10,-1,637690,218059,1197090,65867,8189,598472,0
10,-1,640341,218916,1254257,66135,7636,627204,0
10,-1,635413,218316,1224386,65968,8334,612199,0
10,-1,641319,218846,1264249,66123,7471,632139,0
10,-1,640073,218279,1183580,65885,7328,591667,0
10,-1,646054,219451,1129875,66422,7616,564911,0
10,-1,640162,218545,1313269,65947,8185,656589,0
10,-1,637799,217548,1158085,65566,6995,578935,0
10,-1,638379,218087,1232085,65863,6869,616237,0
10,-1,638518,218367,1238125,65870,8057,619018,0
10,-1,648856,220561,1290283,66840,8697,644695,0
10,-1,646145,219034,1193169,66061,8650,596605,0
10,-1,635874,217819,1196444,65784,8505,598270,0
10,-1,662118,223194,1299951,69365,8427,650046,0
11,-1,691682,236994,1271549,70627,7578,635942,0
11,-1,690502,236466,1241929,70394,6886,621001,0
11,-1,632602,217161,1264164,65023,7184,632127,0
11,0,728290,252332,1508585,76873,10056,754278,11
11,-1,637659,217709,1162391,65308,6711,581253,0
11,-1,635210,218036,1243759,65511,7179,621952,0
11,-1,639186,218537,1226858,65735,6846,613484,0
11,-1,635625,217999,1179518,65534,6439,589820,0
11,-1,634370,217787,1201021,65437,6868,600515,0
11,-1,641221,219296,1348342,66151,7588,674236,0
11,-1,661986,223216,1245715,69086,8283,622874,0
11,-1,646734,221397,1257056,66798,7362,628642,2
11,-1,638111,218982,1186586,65816,7461,593338,0
11,-1,640023,218419,1242239,65518,6844,621169,0
11,-1,642968,220423,1292846,66559,8018,646033,0
11,-1,638314,218045,1161234,65651,6798,580649,0
11,-1,641866,218170,1204052,65684,6546,602065,0
11,-1,644178,219783,1147316,66194,7759,573785,0
11,-1,633229,218402,1280181,65717,7685,640175,0
11,-1,638609,220195,1258124,66642,8156,629141,0
11,-1,638535,218234,1340821,65665,7241,670453,0
11,-1,633684,218505,1161438,65775,6440,580897,0
11,-1,659195,223322,1245224,69080,8226,622367,0
11,-1,641398,219191,1241452,65915,6822,620754,0
11,-1,635979,218382,1394222,65651,8272,696955,0
11,-1,639398,218950,1177708,65877,7235,588902,0
11,-1,639054,218598,1368344,65756,8303,684218,0
11,-1,638678,218592,1160769,65736,6503,580418,0
11,-1,644236,220989,1319083,66841,7732,659592,0
11,-1,639835,218481,1251749,65685,7378,625930,0
11,-1,641784,218810,1260092,65765,7893,630032,0
11,-1,639507,220883,1460886,66720,8633,730451,0
11,-1,639682,219603,1280670,66260,6902,640392,0
11,-1,638699,218097,1299808,65505,7485,649935,0
11,-1,639964,219912,1259836,66360,7547,630028,0
11,-1,640886,219437,1157902,65874,7117,579009,0
11,-1,643805,220030,1364693,66499,8038,682245,0
11,-1,638049,218487,1231099,65646,7852,615550,0
11,-1,636577,218475,1149943,65579,7580,574811,0
11,-1,640824,218613,1248588,65556,7873,624372,0
11,-1,641217,219404,1182521,65897,7568,591299,0
11,-1,639837,218128,1192212,65492,7749,596110,0
11,-1,643411,219259,1278055,65963,8224,639071,0
11,-1,646537,219399,1288960,65670,8136,644470,0
11,-1,641868,220114,1263802,66047,7693,631977,0
11,-1,645667,221526,1277123,66801,7947,638629,0
11,-1,641081,219852,1170392,65990,7460,585244,0
11,-1,635609,218056,1107724,65476,7346,553951,0
11,-1,641680,218953,1317973,65723,8236,659036,0
11,-1,636888,218635,1180564,65735,6841,590330,0
11,-1,641792,219751,1282532,66123,7575,641347,0
11,-1,640020,217962,1272703,65458,8104,636342,0
11,-1,639911,218757,1262516,65704,7774,631273,0
11,-1,640104,218605,1267212,65565,8720,633669,0
11,-1,641345,218243,1153087,65256,7837,576538,0
11,-1,640954,218919,1252827,65543,7997,626413,0
11,-1,636975,217852,1275052,65298,7809,637555,0
11,-1,644597,219360,1161662,65840,7500,580920,0
11,-1,635126,217536,1307414,65131,7994,653717,0
11,-1,639241,218546,1259210,65495,8087,629645,0
11,-1,644363,218154,1302459,65394,7529,651288,0
11,-1,638644,218155,1244392,65389,7992,622229,0
11,-1,637718,218084,1263588,65429,7669,631780,0
11,-1,638886,218636,1166379,65584,7260,583004,0
11,-1,661604,223124,1268164,68818,8227,634144,0
11,-1,645114,218235,1359880,65343,6656,679988,0
11,-1,634684,218663,1266925,65116,7483,633402,0
11,-1,637265,218838,1522379,65242,9655,760428,0
11,-1,630466,217780,1368455,64767,8514,684127,0
11,-1,633454,217936,1241307,65001,7693,620599,0
11,-1,636472,217525,1178111,65625,8306,589095,0
11,-1,639864,218413,1358247,66002,9653,679081,0
11,-1,634763,217461,1286921,65618,8441,643741,0
11,-1,637659,218252,1206116,65970,7511,603086,0
11,-1,636824,218354,1254635,66034,7630,627294,0
11,-1,657387,222392,1278707,69135,8602,639439,0
11,-1,643447,220086,1134136,66754,6926,567037,0
11,-1,642996,219025,1163226,66218,6975,581685,0
11,-1,635777,218231,1232289,65965,8064,616109,0
11,-1,636706,218716,1188536,66080,7664,594257,0
11,-1,637071,217739,1366574,65660,7947,683306,0
11,-1,635981,219057,1121777,66407,7862,560777,0
11,-1,638513,218407,1204302,66009,6641,602160,0
11,-1,639414,218733,1280665,66016,7592,640213,0
11,-1,639505,216830,1180109,65390,7829,590037,0
11,-1,635678,217968,1270665,65733,8367,635334,0
11,-1,638232,218260,1186121,65877,7719,593039,0
11,-1,643113,218973,1209821,66256,7488,604900,0
11,-1,637061,217851,1177876,65641,7537,588898,0
11,-1,640956,217704,1331163,65612,8532,665428,0
11,-1,645734,219399,1390937,66402,8624,696781,0
11,-1,635596,218171,1203420,65904,8403,601726,0
11,-1,640827,219329,1249151,66360,7350,624623,0
12,-1,695781,238853,1383975,71572,8105,691058,0
12,-1,712612,241595,1330787,73906,8353,665428,0
12,-1,636395,218275,1178830,65494,7213,589448,0
12,0,709573,247338,1496153,73380,9595,748237,11
12,-1,637927,218363,1227396,65514,6913,613790,0
12,-1,637418,218810,1140526,65806,6811,570310,0
12,-1,636961,217995,1261812,65549,6806,630965,0
12,-1,641483,220561,1271650,66566,6931,635897,0
12,-1,638656,219641,1252744,66281,7178,626440,0
12,-1,639817,218478,1319284,65702,7047,659743,0
12,-1,639123,218322,1254253,65694,7116,627177,0
12,-1,633785,218022,1124429,65523,7160,562259,0
12,-1,635238,218681,1178372,65708,7240,589243,2
12,-1,645401,220858,1355628,66585,7462,677960,0
12,-1,638054,218664,1267492,65745,7214,633638,0
12,-1,638741,218470,1177253,65749,6765,588665,0
12,-1,640344,218263,1486484,65773,9394,743628,0
12,-1,641491,218344,1380656,65766,8891,690339,0
12,-1,658517,223043,1234297,69070,8864,617204,0
12,-1,633543,218512,1302279,65809,6952,651184,0
12,-1,636834,218261,1358287,65728,7452,679111,0
12,-1,642275,220603,1263002,66826,6748,631582,0
12,-1,636138,218766,1211301,65798,6400,605686,0
12,-1,665410,224722,1248423,70017,8146,624114,0
12,-1,668019,230121,1319884,69583,7276,659982,0
12,-1,641266,220105,1252642,66408,7604,626390,0
12,-1,637310,218289,1255337,65591,7571,627705,0
12,-1,640798,219541,1275048,66201,7325,637594,0
12,-1,635721,218275,1253878,65646,7128,627011,0
12,-1,640238,218350,1165208,65640,6863,582657,0
12,-1,637689,218011,1170342,65461,7183,585222,0
12,-1,638098,219153,1151379,65919,6742,575743,0
12,-1,637315,218684,1156259,65766,6619,578234,0
12,-1,642176,219457,1297194,65983,7038,648657,0
12,-1,638996,219412,1140295,66004,6467,570187,0
12,-1,640720,219908,1245933,66255,7239,623117,0
12,-1,662661,223811,1338674,69232,8284,669506,0
12,-1,643781,220676,1281801,66643,8198,640934,0
12,-1,636508,218810,1284598,65560,8050,642295,0
12,-1,661265,224050,1210072,69130,7758,605069,0
12,-1,638431,218625,1307853,65559,8235,654094,0
12,-1,640685,218819,1276371,65714,8458,638228,0
12,-1,642641,218881,1288110,65826,7579,644032,0
12,-1,652437,222044,1342040,66917,8162,671057,0
12,-1,640263,220009,1256208,66001,7398,628150,0
12,-1,639672,219837,1250842,65967,7382,625377,0
12,-1,639398,219073,1208831,65700,7285,604378,0
12,-1,637533,217952,1293128,65371,7360,646602,0
12,-1,643362,219950,1372378,66276,8419,685658,0
12,-1,635708,218315,1292798,65574,7687,646438,0
12,-1,660034,223384,1338890,68939,8403,669462,0
12,-1,639223,218078,1134848,65522,7558,567477,0
12,-1,641764,219428,1376513,65910,7857,688294,0
12,-1,639747,218122,1172991,65293,7928,586511,0
12,-1,645020,219599,1208872,65724,8122,604446,0
12,-1,640643,219040,1422704,65646,9720,711427,0
12,-1,657549,222606,1213091,68692,7931,606564,0
12,-1,640722,217938,1285562,65309,8641,642850,0
12,-1,635996,218129,1181070,65456,7786,590240,0
12,-1,661809,223256,1315291,68898,9254,657743,0
12,-1,645199,219022,1516485,65725,9440,758113,0
12,-1,640638,218311,1161177,65480,7491,580671,0
12,-1,642283,218528,1227296,65552,7505,613611,0
12,-1,639140,218649,1299271,65584,7331,649599,0
12,-1,639594,217492,1173340,65197,6924,586729,0
12,-1,649509,220469,1431091,66375,7698,715260,0
12,-1,633150,218606,1262539,65026,7888,631210,0
12,-1,633740,218537,1227034,65062,7624,613546,0
12,-1,637286,218072,1173200,64873,7768,586546,0
12,-1,632600,217704,1178450,64885,7574,589134,0
12,-1,640081,218874,1178924,66390,7758,589651,0
12,-1,644613,220628,1210568,67048,8540,605254,0
12,-1,634577,218533,1301708,66000,8329,650831,0
12,-1,635208,217752,1131915,65784,7344,565996,0
12,-1,637968,217271,1234838,65626,7724,617433,0
12,-1,635996,218019,1120883,65815,7669,560416,0
12,-1,638692,217736,1220575,65764,7069,610312,0
12,-1,639718,218140,1277465,65881,7409,638742,0
12,-1,633791,217649,1143983,65727,7691,571987,0
12,-1,644546,220580,1146244,67013,7575,573275,0
12,-1,640250,219429,1308547,66597,7856,654458,0
12,-1,638678,217408,1162460,65623,7327,581156,0
12,-1,635727,217687,1129873,65715,7034,564904,0
12,-1,637326,217916,1186919,65709,7452,593418,0
12,-1,641923,218351,1215411,65932,7753,607616,0
12,-1,641478,218787,1298594,65978,7277,649326,0
12,-1,640983,219729,1153982,66540,7395,576882,0
12,-1,642503,219223,1230463,66278,7278,615265,0
12,-1,640236,218899,1242703,66040,8377,621377,0
12,-1,643826,218624,1291559,65900,8470,645863,0
12,-1,641134,218480,1189596,65860,8271,594791,0
12,-1,634393,217580,1255233,65676,8677,627615,0
12,-1,639735,218483,1261550,66009,6891,630943,0
13,-1,712175,241209,1433523,73845,8306,716759,0
13,-1,686517,235555,1212993,70183,7076,606590,0
13,-1,636459,218643,1269780,65823,7456,634958,0
13,-1,638637,218355,1241942,65484,6977,621071,0
13,0,730842,252170,1535207,76791,10551,767603,11
13,-1,634970,217697,1264521,65352,6758,632316,0
13,-1,655233,221833,1276113,68530,8347,638065,0
13,-1,634727,217989,1246289,65478,6328,623151,0
13,-1,634273,217877,1139928,65478,6541,570037,0
13,-1,639091,218100,1260725,65577,6733,630405,0
13,-1,642770,220191,1257631,66502,7265,628949,0
13,-1,632810,217583,1175088,65369,7296,587596,0
13,-1,640036,219127,1234101,65744,6995,617073,2
13,-1,661284,223712,1246924,69030,7939,623413,0
13,-1,638126,218694,1319117,65690,7505,659608,0
13,-1,656694,222450,1188237,68874,7636,594075,0
13,-1,640820,218869,1249327,65863,7301,624692,0
13,-1,641464,218555,1252297,65780,7996,626190,0
13,-1,636895,219076,1251738,65933,7834,625936,0
13,-1,631712,218360,1399417,65786,8970,699507,0
13,-1,655757,222596,1210738,68864,7446,605315,0
13,-1,655611,222405,1278968,68829,7184,639449,0
13,-1,640063,220291,1434660,66503,8962,717406,0
13,-1,638999,219133,1246795,65919,7025,623345,0
13,-1,636291,218789,1250634,65816,7429,625356,0
13,-1,636290,218421,1153798,65662,6694,576938,0
13,-1,643259,221157,1237343,66895,7524,618768,0
13,-1,640928,218864,1172616,65858,7212,586355,0
13,-1,639199,220002,1265520,66378,7597,632845,0
13,-1,646202,221008,1256291,66793,7636,628042,0
13,-1,640814,219283,1168844,65989,7711,584447,0
13,-1,639061,219755,1263427,66253,7059,631698,0
13,-1,638284,218636,1275081,65716,7685,637577,0
13,-1,638754,218477,1185985,65620,6610,593000,0
13,-1,634670,218151,1236311,65581,6932,618243,0
13,-1,638202,218900,1453705,65774,8227,726252,0
13,-1,640700,218845,1415585,65827,9064,706556,0
13,-1,658115,223069,1253410,68942,8299,626580,0
13,-1,663467,223340,1321173,68970,8663,660369,0
13,-1,641021,219575,1270207,65894,7636,634967,0
13,-1,639030,219487,1211397,65908,7682,605739,0
13,-1,643306,220115,1197067,66068,7901,598563,0
13,-1,648160,221244,1329251,66894,8307,664506,0
13,-1,665617,223687,1250482,68982,8411,625153,0
13,-1,642801,220745,1294169,66435,7540,647139,0
13,-1,640971,219534,1157495,65820,7386,578768,0
13,-1,636995,219001,1115633,65665,7380,557915,0
13,-1,646025,220664,1269448,66642,8157,634932,0
13,-1,638613,218775,1376121,65612,7966,688066,0
13,-1,658858,223115,1227183,68981,8498,613571,0
13,-1,640311,218985,1375495,65748,8081,687788,0
13,-1,644141,220007,1303429,66398,8468,651781,0
13,-1,638530,218330,1221275,65525,7393,610700,0
13,-1,639401,218452,1268626,65536,8647,634323,0
13,-1,642155,218418,1325225,65301,8734,662566,0
13,-1,641736,219665,1252360,66046,8070,625976,0
13,-1,636229,218236,1233365,65404,7363,616632,0
13,-1,644899,220448,1247543,66442,7931,623524,0
13,-1,645703,220195,1191258,66369,8052,595521,0
13,-1,637809,217905,1221032,65296,8169,610533,0
13,-1,646991,220185,1260647,66209,8030,629973,0
13,-1,642948,219251,1213902,65998,7848,606918,0
13,-1,639876,217925,1175153,65375,7536,587378,0
13,-1,637864,218302,1390842,65518,8532,695063,0
13,-1,641426,218872,1253221,65674,7240,626665,0
13,-1,644646,218762,1235243,65622,6640,617669,0
13,-1,652566,223007,1310122,68299,9050,655227,0
13,-1,631906,218202,1134926,64916,7310,567316,0
13,-1,636567,218119,1176185,64969,7454,588056,0
13,-1,635644,218240,1267958,65103,7368,633906,0
13,-1,636644,218153,1253535,65932,8642,626783,0
13,-1,638519,218310,1265860,65995,8585,632848,0
13,-1,637882,219646,1223367,66680,8689,611335,0
13,-1,639436,218587,1240020,66084,7525,620004,0
13,-1,639710,218284,1181827,66002,7630,590885,0
13,-1,635265,218070,1366265,65893,7499,682731,0
13,-1,642699,220075,1171045,66774,7545,585573,0
13,-1,641687,218483,1345126,66017,8001,672587,0
13,-1,636035,218821,1248867,66163,8378,624422,0
13,-1,658593,222494,1233697,69171,8724,616621,0
13,-1,637306,218556,1212208,66039,7162,606056,0
13,-1,644399,220002,1128534,66790,7082,564198,0
13,-1,639912,218892,1159035,66341,7032,579545,0
13,-1,637745,218289,1186066,65832,7301,593045,0
13,-1,647173,220231,1131106,66740,7163,565369,0
13,-1,637451,218127,1178681,65816,6615,589218,0
13,-1,664813,227679,1258710,68624,7889,629184,0
13,-1,639242,218038,1264702,65828,6991,632310,0
13,-1,640350,218130,1184532,65721,6998,592275,0
13,-1,643209,218862,1276906,65992,8398,638187,0
13,-1,641210,218935,1221075,66054,8027,610437,0
13,-1,639483,220052,1231337,66674,8661,615787,0
13,-1,642844,219888,1240676,66702,6633,620291,0
14,-1,690211,236675,1255106,70606,7010,627527,0
14,-1,689698,237189,1192897,70738,6379,596493,0
14,-1,633751,217873,1233378,65354,7782,616636,0
14,-1,636298,217500,1165402,65121,6996,582732,0
14,0,708712,249434,1439521,74456,9578,719794,11
14,-1,634919,218258,1293322,65651,6903,646711,0
14,-1,635838,217947,1235254,65477,7396,617659,0
14,-1,634295,218225,1287312,65619,6705,643725,0
14,-1,638114,219868,1289765,66427,7058,644949,0
14,-1,641448,219641,1267583,66403,6692,633861,0
14,-1,643380,218546,1188951,65766,6740,594535,0
14,-1,635565,218610,1140033,65715,7159,570075,0
14,-1,642986,218961,1248625,65635,7513,624409,0
14,-1,642261,220342,1308746,66527,8695,654277,2
14,-1,644504,219710,1279176,66260,8571,639441,0
14,-1,636168,217717,1235407,65513,7305,617725,0
14,-1,640213,218041,1135715,65594,7168,567857,0
14,-1,641550,218667,1431876,65845,9814,715464,0
14,-1,654606,223234,1246142,69099,7978,623059,0
14,-1,638474,218682,1261248,65887,9087,630283,0
14,-1,635789,218740,1263371,65904,6892,631722,0
14,-1,636311,218630,1224514,65812,6869,612238,0
14,-1,637120,219123,1460073,65964,9509,729840,0
14,-1,637750,218759,1251867,65733,6867,625976,0
14,-1,635936,218853,1198328,65769,7234,599213,0
14,-1,640075,220072,1329262,66482,7521,664708,0
14,-1,656229,222326,1193571,68701,7861,596751,0
14,-1,638855,218409,1242734,65627,7646,621471,0
14,-1,635217,218172,1191449,65563,7312,595831,0
14,-1,640817,219292,1217761,65943,7897,608926,0
14,-1,638281,218223,1127368,65614,7285,563727,0
14,-1,633666,218007,1140395,65572,6166,570262,0
14,-1,637327,218516,1379270,65768,8859,689180,0
14,-1,640906,219278,1277464,65991,7265,638840,0
14,-1,643449,220321,1219421,66524,7321,609793,0
14,-1,657139,223238,1180856,68930,7116,590473,0
14,-1,638206,218282,1187891,65562,6509,593990,0
14,-1,639657,219938,1247741,66323,7531,623711,0
14,-1,642487,219215,1378878,65839,8247,689385,0
14,-1,637196,218459,1202127,65463,6903,601067,0
14,-1,638122,218575,1113937,65576,7873,556987,0
14,-1,639934,218908,1577089,65654,9675,788404,0
14,-1,662800,223346,1188522,69116,8639,594099,0
14,-1,647609,220414,1264208,66113,8510,632099,0
14,-1,640176,220159,1171227,66104,7758,585652,0
14,-1,641010,219434,1311540,65810,7962,655700,0
14,-1,648756,220401,1273311,66389,8026,636718,0
14,-1,662329,223542,1278606,69061,7642,639265,0
14,-1,643051,218889,1243711,65765,8324,621889,0
14,-1,654418,222647,1300301,68830,7896,650189,0
14,-1,637857,218501,1172205,65560,7386,586145,0
14,-1,659777,222966,1185172,68869,8192,592479,0
14,-1,640257,218762,1185679,65690,7652,592891,0
14,-1,638998,218409,1194555,65518,8076,597321,0
14,-1,647225,220641,1275493,66387,8681,637543,0
14,-1,640654,219598,1150599,65798,7189,575305,0
14,-1,636120,218265,1140578,65434,7003,570255,0
14,-1,662820,223858,1321514,69055,8848,660640,0
14,-1,637056,217825,1281945,65286,7716,640948,0
14,-1,641597,219497,1166182,66049,7406,583126,0
14,-1,642955,218488,1215777,65530,8038,607834,0
14,-1,637323,217605,1712868,65234,9184,854995,0
14,-1,646319,220819,1239907,66561,7319,619710,0
14,-1,636223,217674,1225161,65235,7868,612557,0
14,-1,639841,218543,1292698,65568,7515,646246,0
14,-1,644606,218813,1155971,65540,6307,578126,0
14,-1,633927,217830,1140982,64795,6928,570514,0
14,-1,636291,218847,1236790,65179,7399,618456,0
14,-1,638371,219279,1321752,65335,8703,660555,0
14,-1,634283,218651,1482005,65283,9222,740462,0
14,-1,635565,218050,1239283,65843,8425,619685,0
14,-1,639801,219275,1216663,66467,8263,608335,0
14,-1,654195,222679,1323876,69191,9710,662072,0
14,-1,636367,217904,1225492,65829,7514,612782,0
14,-1,658760,222554,1268986,69181,8730,634413,0
14,-1,639854,217997,1148029,65845,7089,573991,0
14,-1,661204,223525,1375435,69478,8602,687660,0
14,-1,638454,217307,1221204,65536,7417,610666,0
14,-1,633303,218140,1244418,65914,7695,622206,0
14,-1,636358,217911,1157104,65820,7442,578518,0
14,-1,641345,219289,1188810,66453,7256,594443,0
14,-1,636674,217067,1152117,65624,7381,575941,0
14,-1,636392,217808,1253331,65793,7666,626598,0
14,-1,636782,217462,1262218,65630,7258,631091,0
14,-1,663796,223194,1217002,69229,8840,608415,0
14,-1,636735,217812,1280788,65619,6684,640360,0
14,-1,639391,219007,1219596,66026,7660,609764,0
14,-1,643611,219809,1203180,66718,8017,601601,0
14,-1,658710,222516,1223913,68980,8673,611905,0
14,-1,646172,220036,1153800,66586,7924,576430,0
14,-1,638904,217835,1272530,65664,8662,636218,0
14,-1,657038,223291,1351479,69248,9605,675447,0
14,-1,638353,218514,1363293,66056,7551,681702,0
15,-1,688962,236487,1429228,70460,7462,714539,0
15,-1,690207,237678,1324768,70899,7282,662456,0
15,-1,638943,217962,1212849,65269,7548,606464,0
15,-1,636231,217896,1254886,65406,6828,627465,0
15,0,702758,247611,1459017,73586,8907,729775,11
15,0,702064,247003,1444371,73370,8581,722185,11
15,0,708316,249240,1517599,74470,9383,758868,11
15,0,709361,249480,1493969,74578,8627,747017,11
15,0,704245,247452,1428553,73539,8310,714365,11
15,-1,638813,220097,1266119,66498,6575,633114,0
15,0,706245,247906,1358974,73725,9144,679514,11
15,0,720566,250637,1504868,76460,9210,752428,11
15,0,706219,247746,1409122,73693,8319,704623,11
15,0,704431,247443,1488860,73613,8513,744545,11
15,0,708652,248857,1532291,74180,8853,766183,11
15,0,712379,249274,1390070,74425,9455,695080,11
15,0,703727,246336,1323638,73153,8795,661873,11
15,0,705363,247428,1408340,73598,8641,704151,11
15,0,703226,247034,1410172,73380,8931,705123,11
15,0,706958,246895,1404673,73345,9131,702354,11
15,0,706423,247533,1479297,73578,9457,739790,11
15,-1,632297,217448,1172132,65302,6703,586122,0
15,0,706808,246599,1334840,73247,7961,667460,11
15,0,704180,247215,1348281,73524,8452,674169,11
15,0,704603,247553,1367605,73647,8159,683781,11
15,0,704624,247177,1332284,73514,8362,666181,11
15,0,704418,247223,1343792,73497,7967,671933,11
15,0,706637,247758,1386760,73710,8866,693455,11
15,0,708255,247645,1444976,73575,8286,722523,11
15,0,725661,251769,1396504,76789,9437,698191,11
15,-1,635345,217514,1140364,65416,7044,570240,0
15,0,704878,246400,1339445,73227,8816,669817,11
15,0,706833,247527,1327247,73661,7956,663774,11
15,0,707876,247728,1327287,73683,8120,663676,11
15,0,710799,248514,1364372,73934,8359,682169,11
15,0,707977,248240,1319947,73909,8904,660030,11
15,0,709770,247821,1342072,73810,8977,671090,11
15,-1,654685,222676,1282603,68851,8124,641263,0
15,0,708206,247269,1327612,73533,7772,663855,11
15,0,709537,250185,1334329,74691,9100,667179,11
15,0,705333,247542,1313191,73517,8561,656651,11
15,0,708202,247888,1499289,73601,9139,749719,11
15,-1,657376,222536,1275176,68860,7632,637602,0
15,0,714668,250391,1444158,74713,9238,722172,11
15,0,712675,248923,1342046,73938,8175,671084,11
15,0,703854,246666,1395594,73279,8806,697826,11
15,-1,641959,218716,1221101,65824,6655,610599,0
15,0,710806,247747,1404542,73687,9038,702307,11
15,-1,659106,222596,1160838,68721,7602,580423,0
15,0,708682,247917,1544880,73861,10038,772468,11
15,0,707038,246999,1454409,73465,8801,727244,11
15,0,709750,247750,1674585,73817,11827,836933,11
15,0,706681,247216,1478529,73609,9305,739274,11
15,0,708058,248050,1347176,73930,9618,673537,11
15,0,712856,249296,1515721,74572,9547,757920,11
15,0,710173,248335,1520601,73971,8959,760178,11
15,-1,643399,220172,1273283,66211,7864,636691,0
15,0,713414,249640,1691526,74687,11605,845874,11
15,0,708768,247581,1384972,73698,9223,692501,11
15,0,709322,247632,1379768,73745,9350,689928,11
15,0,715111,249208,1514906,74453,9899,757498,11
15,0,715137,249132,1413734,74240,9785,706926,11
15,0,711587,248593,1605094,74183,10312,802591,11
15,0,717138,249771,1496737,74719,10148,748438,11
15,-1,639735,218249,1141007,65538,7578,570481,0
15,0,711040,247966,1475834,73791,8867,738009,11
15,0,733044,252353,1472394,77053,10091,736219,11
15,0,703358,247448,1506650,73641,9272,753381,11
15,0,702464,247494,1409416,73610,9128,704762,11
15,0,705585,247627,1524240,73751,9658,762020,11
15,0,705358,249736,1530828,74757,10010,765490,11
15,0,700302,247028,1488052,73458,9790,743991,11
15,0,705614,248563,1614104,74054,10544,807072,11
15,-1,636351,218245,1186657,65645,6544,593133,0
15,0,709695,249271,1590345,74479,11029,794801,11
15,-1,636803,218258,1229209,65759,6638,614694,2
15,0,723200,252149,1469867,77015,10116,734838,11
15,0,707721,248381,1489012,73964,8465,744553,11
15,0,705827,248280,1471880,73936,9069,735989,11
15,-1,639387,218283,1179454,65718,7335,589783,0
15,0,710817,249499,1503481,74641,8965,751786,11
15,0,703232,247586,1399045,73758,8689,699528,11
15,0,707074,248023,1436376,73829,8940,718243,11
15,-1,644563,220086,1294887,66609,6901,647534,2
15,0,728082,252084,1463334,76989,9853,731616,11
15,0,707500,247540,1559948,73745,9239,780002,11
15,-1,638287,218769,1168185,65906,7386,584149,2
15,0,702067,247321,1314544,73670,8407,657311,11
15,-1,659658,223122,1199073,69093,8306,599507,0
15,-1,639519,218519,1260071,65803,7668,630069,2
15,0,705478,248035,1317994,73867,7818,659054,11
15,0,705990,247788,1349982,73782,8214,675185,11
15,0,709548,249477,1663269,74627,9304,831738,11
15,0,709203,248164,1310169,73920,8618,655121,11
15,0,707839,247591,1366503,73653,8972,683300,11
15,-1,633885,218908,1152407,65948,7512,576189,2
15,-1,636657,218953,1203720,65944,7241,602054,0
15,-1,635928,219041,1247869,66008,8369,623837,2
15,0,711401,248541,1381943,73970,9201,690876,11
15,0,707001,249941,1329915,74677,9257,665135,11
15,0,704672,248088,1416734,73749,9049,708408,11
15,-1,636463,217964,1335576,65605,8748,667815,0
15,0,704559,248226,1410976,73810,8093,705531,11
15,0,725876,252387,1396368,76992,9109,698143,11
15,-1,634606,219157,1292181,66012,7513,646143,2
15,-1,636276,218541,1160552,65838,7045,580259,2
15,0,705289,247633,1282023,73602,8263,641072,11
15,0,728294,252639,1294521,77082,9122,647297,11
15,-1,637802,219212,1132520,66026,7117,566306,0
15,-1,636405,220019,1269499,66592,7790,634612,2
15,0,707742,248738,1368780,73972,8494,684434,11
15,0,709270,248105,1470933,73787,8392,735509,11
15,0,711801,249181,1454851,74362,9028,727332,11
15,-1,667941,229259,1280467,69225,7434,640290,0
15,-1,633996,218389,1165182,65787,6818,582641,2
15,0,706209,247783,1690787,73666,10782,845492,11
15,0,710162,249064,1520351,74288,8742,760299,11
15,0,709773,248376,1336587,73936,8582,668351,11
15,0,730349,252334,1302386,76977,9177,651135,11
15,0,707203,248490,1319520,73972,8234,659830,11
15,-1,638742,219450,1259604,65951,7511,629823,0
15,0,707346,247420,1435706,73500,8802,717929,11
15,0,711126,248002,1407833,73728,9189,704040,11
15,-1,636015,218727,1168919,65747,6389,584492,2
15,0,710539,248239,1490961,73927,11175,744923,11
15,0,712570,248870,1473611,74263,10344,736854,11
15,0,710702,248062,1327640,73786,9105,663844,11
15,0,731305,252309,1360392,76913,9922,680136,11
15,-1,640385,220403,1271694,66600,7550,635930,2
15,0,703310,247983,1783819,73760,10525,891739,11
15,-1,639009,219105,1160151,65889,7221,580119,0
15,-1,641234,219434,1122633,66027,7210,561345,2
15,0,706060,248781,1236550,73996,8246,618292,11
15,0,710175,249429,1333752,74480,9013,666940,11
15,0,706331,247180,1258382,73507,7981,629248,11
15,-1,636881,219226,1512212,65980,9141,755896,0
15,0,710669,248280,1696371,73914,11102,848300,11
15,0,703690,247588,1373534,73599,8611,686816,11
15,-1,635875,219349,1329100,66011,6809,664610,2
15,0,708880,248227,1306212,73849,8435,653143,11
15,-1,657324,223354,1344379,69110,7892,672344,0
15,-1,636485,218778,1173965,65839,7418,587049,2
15,0,732161,252761,1384915,77125,9507,692397,11
15,0,705730,248436,1406254,73840,9112,703167,11
15,0,706616,248085,1331285,73721,8497,665768,11
15,0,727632,252879,1298173,77085,9824,649040,11
15,0,709133,248880,1284838,74027,8722,642314,11
15,-1,638267,219029,1253498,65851,6504,626784,0
15,0,709258,248734,1402064,73931,8605,701072,11
15,0,711285,248607,1323512,73884,8862,661788,11
15,-1,635202,218860,1217541,65858,6876,608824,2
15,0,706314,247573,1560009,73607,10740,780345,11
15,0,707288,248008,1269354,73749,8184,634625,11
15,0,705417,246910,1262388,73390,8369,631242,11
15,-1,643711,221054,1262894,66807,6717,631651,0
15,0,713853,248686,1389896,74169,8918,695082,11
15,0,709546,247471,1535472,73580,10150,767779,11
15,0,704470,247446,1463492,73521,9189,731918,11
15,0,707917,248459,1312443,73897,8434,655948,11
15,-1,638259,218558,1273892,65679,7723,636971,0
15,0,733303,257622,1468560,76599,8950,734302,11
15,0,712566,249832,1459193,74658,9444,729537,11
15,0,707199,247880,1343543,73772,8763,671781,11
15,0,713387,250114,1459983,74595,9852,729870,11
15,0,706933,248084,1292012,73665,9153,645917,11
15,-1,640951,220566,1282306,66674,7677,641211,2
15,0,708466,247720,1429085,73491,9656,714583,11
15,-1,636718,217768,1202590,65371,6465,601337,0
15,0,709309,248195,1423822,73590,9353,711983,11
15,0,732155,252226,1443923,76782,11006,721681,11
15,-1,640276,218980,1195256,65875,7388,597677,2
15,-1,646964,220726,1187388,66679,7811,593729,0
15,0,729193,252222,1506274,76880,10609,753084,11
15,0,716991,249584,1543434,74291,9652,771586,11
15,0,721077,251085,1556417,75083,10495,778087,11
15,-1,640129,221028,1290792,66870,7095,645503,2
15,-1,634816,218475,1246116,65650,6635,623051,0
15,0,713034,249000,1642925,74091,10532,821427,11
15,0,712437,248649,1454980,74024,9343,727427,11
15,0,713394,248433,1451604,73954,9726,725402,11
15,0,716154,249184,1406589,74147,9622,703140,11
15,0,718166,250680,1548233,74640,10404,774058,11
15,-1,637512,218598,1223167,65741,6796,611656,2
15,-1,639488,219886,1254093,66296,7196,627112,0
15,0,712653,250155,1330008,74463,10100,665104,11
15,0,708360,249203,1376937,73963,9716,688372,11
15,-1,637577,219807,1269889,66171,7191,634907,2
15,0,709415,249667,1360525,74114,9677,680141,11
15,0,709035,249335,1451799,73974,10049,725958,11
15,0,711466,250830,1409560,74760,9047,704858,11
15,0,708813,248956,1428337,73779,9197,714207,11
15,0,710089,249144,1312024,73881,8408,656062,11
15,-1,637237,219116,1160490,65872,6694,580271,2
15,0,708751,248164,1419214,73662,9290,709520,11
15,0,732424,254397,1360829,77457,9386,680468,11
15,0,714033,250483,1410027,74669,9331,705112,11
15,0,708911,248931,1261926,73899,8577,630964,11
15,-1,638525,219196,1159411,65924,6948,579750,0
15,0,710933,248227,1416837,73683,9397,708498,11
15,-1,636967,218990,1153636,65851,6856,576844,2
15,0,711432,249099,1343306,74048,8755,671702,11
15,-1,637490,218206,1193112,65616,7337,596570,0
15,-1,662895,228487,1244548,68720,7244,622318,2
15,0,710647,248640,1421935,73792,9106,711009,11
15,0,718633,251084,1430516,74892,9655,715566,11
15,0,708158,248388,1325892,73821,8601,663002,11
15,-1,637599,219448,1239219,65898,6861,619664,0
15,0,733958,257331,1513449,76444,9411,756784,11
15,0,708554,247298,1303130,73510,9305,651488,11
15,0,714885,249194,1313943,74277,9439,656923,11
15,0,707238,247527,1352284,73507,9495,676178,11
15,0,733906,253095,1469864,77133,10683,734756,11
15,0,705549,247058,1533304,73288,9782,766559,11
15,-1,640062,218561,1202077,65768,6348,601089,0
15,0,710998,247648,1485588,73495,9885,742841,11
15,-1,640207,219515,1175657,66084,6307,587884,2
15,0,707536,247230,1377655,73366,9408,688249,11
15,0,710241,247809,1465889,73595,9862,732825,11
15,0,707058,248274,1412659,73865,8572,706371,11
15,-1,635190,218285,1228651,65558,7077,614206,0
15,0,706688,247894,1402870,73612,9061,701398,11
15,0,709708,248744,1397715,74220,9746,698912,11
15,0,707411,247543,1417388,73570,8831,708743,11
15,0,706066,247698,1357244,73509,8231,678670,11
15,-1,641136,219986,1161086,66197,6548,580584,2
15,0,712223,249739,1415626,74489,9291,707871,11
15,0,713004,249297,1427224,74262,9303,713642,11
15,0,704679,247157,1242072,73350,8086,621088,11
15,0,707113,247287,1467533,73379,9439,733828,11
15,0,709153,247255,1412767,73365,8599,706447,11
15,-1,641300,219097,1176860,65727,7547,588409,0
15,0,706069,247623,1393503,73477,9008,696797,11
15,0,708891,248401,1439949,73779,9213,720041,11
15,-1,639266,220547,1322576,66523,7949,661201,2
15,-1,638021,218885,1242347,65712,7482,621005,2
15,0,702569,245846,1311320,72989,8753,655706,11
15,0,710644,248193,1426066,73793,8752,713058,11
15,-1,640005,219698,1252778,65951,7382,626097,0
15,-1,638770,218967,1158394,65775,6744,579198,2
15,0,711197,248202,1510959,73702,10116,755503,11
15,0,715351,249304,1519615,74315,9643,759851,11
15,0,710735,248093,1404632,73721,9659,702359,11
15,0,709487,247939,1415448,73676,9473,707766,11
15,0,729515,252376,1516097,76885,9979,758088,11
15,0,715496,250425,1512344,74712,9250,756200,11
15,-1,639158,219095,1165048,65778,8012,582579,0
15,0,733089,252509,1553215,76836,12957,776662,11
15,0,717045,250738,1461954,74756,10204,731012,11
15,0,712194,248369,1344241,73720,9888,672228,11
15,0,733128,252877,1412889,76838,11202,706290,11
15,-1,670448,230147,1357345,69456,8259,678723,2
15,0,714891,249533,1457511,74263,10004,728680,11
15,-1,643412,219404,1449542,65969,9370,724289,0
15,0,716095,249167,1461312,74017,9736,730627,11
15,-1,642369,219520,1285713,66014,7165,642644,2
15,0,738651,253724,1463012,77096,10816,731533,11
15,0,708817,248433,1397500,73580,9531,698688,11
15,0,730541,253404,1375818,77002,9474,687885,11
15,-1,641110,218929,1197488,65818,6999,598724,0
15,0,727942,253196,1435010,76990,10711,717404,11
15,0,710410,248656,1475684,73752,10815,737636,11
15,0,730184,252445,1421368,76771,9951,710531,11
15,0,736785,257562,1443492,76308,9851,721751,11
15,0,710060,248398,1326025,73632,9062,662881,11
15,0,709191,247887,1468570,73521,9421,734323,11
15,0,710685,248208,1606300,73550,10331,803138,11
15,0,707364,247709,1326246,73481,9096,663117,11
15,0,705493,247778,1405395,73484,9425,702503,11
15,-1,643220,219437,1195869,65756,7879,597869,2
15,-1,647630,220061,1321501,66023,8570,660619,0
15,0,730889,251746,1300484,76631,9766,650169,11
15,0,710335,248296,1291457,73924,9088,645665,11
15,0,707009,247323,1601707,73436,11762,800551,11
15,0,710169,247602,1345016,73490,9767,672539,11
15,0,707648,247397,1473899,73435,9774,736910,11
15,0,704142,247234,1309902,73260,9064,655050,11
15,-1,641125,220220,1284369,66085,8291,642257,2
15,0,707926,248017,1385772,73633,9371,692813,11
15,-1,637964,219492,1267414,65800,7797,633743,0
15,0,707935,247494,1456143,73465,10383,728054,11
15,-1,637341,219400,1157656,65832,7145,578860,2
15,0,728968,252200,1489098,76736,10219,744329,11
15,0,708541,247193,1454339,73349,10469,727180,11
15,0,710486,247544,1426305,73485,9954,713124,11
15,0,715679,249189,1472409,74181,10670,736036,11
15,0,709123,247628,1395306,73504,9628,697615,11
15,-1,638102,219703,1279315,65946,7207,639623,2
15,-1,643427,220551,1242911,66405,7398,621461,0
15,0,712883,249820,1632232,74460,10540,815714,11
15,0,709433,247715,1440834,73475,10140,720360,11
15,-1,641840,220308,1177408,66202,7035,588523,2
15,0,712727,248524,1456578,73703,10608,728233,11
15,-1,645626,221158,1290830,66751,8042,645484,2
15,0,710480,247218,1495805,73289,10495,747976,11
15,-1,643609,219371,1272956,65870,8126,636520,0
15,0,707967,248186,1432839,73678,9743,716306,11
15,-1,636183,219251,1192494,65915,7550,596190,2
15,0,731199,252709,1529054,76942,10912,764436,11
15,0,708314,247566,1518493,73454,9711,759171,11
15,-1,640771,219808,1172210,66010,7557,586164,2
15,0,706381,247186,1455697,73315,9403,727602,11
15,0,708351,247461,1424125,73450,9548,712241,11
15,-1,640278,219367,1263965,66051,7727,632029,0
15,0,757314,261668,1459028,79563,10237,729536,11
15,0,714718,249905,1380118,74572,8919,689757,11
15,0,710006,247608,1737207,73427,10891,868488,11
15,0,710597,248025,1449337,73628,9850,724622,11
15,0,712996,247850,1417044,73588,9862,708479,11
15,-1,642774,219606,1160286,66021,6739,580187,2
15,0,707757,247965,1327520,73651,9178,663622,11
15,0,710179,247143,1414574,73228,9668,707181,11
15,-1,645893,220562,1310054,66544,8691,654434,0
15,0,710532,247385,1901717,73437,11546,950862,11
15,-1,637818,218413,1396289,65550,8452,697380,2
15,0,713055,249486,1413879,74279,8451,706805,11
15,0,708300,247446,1449664,73369,9431,724731,11
15,0,712354,249204,1249559,74184,8592,624835,11
15,-1,639004,218276,1141410,65645,8173,570686,2
15,-1,637259,218508,1306134,65697,7441,653260,0
15,0,708387,247442,1561482,73441,9684,780773,11
15,0,710855,248111,1394710,73650,8799,697238,11
15,0,712709,248612,1370236,73998,9294,685092,11
15,0,710546,247205,1370849,73314,9341,685383,11
15,-1,635695,218881,1257763,65851,7366,628594,2
15,-1,645188,221420,1265380,66820,7438,632721,2
15,-1,642890,219880,1285264,66217,8110,642663,0
15,0,710472,247809,1419185,73554,9085,709624,11
15,0,710464,247586,1424058,73434,8409,712009,11
15,0,715718,249416,1372466,74225,8806,686028,11
15,0,711609,247080,1633572,73387,10226,816788,11
15,0,734766,251997,1544067,76688,9972,771995,11
15,-1,641570,219321,1265875,66054,7754,632988,0
15,0,699477,246917,1323180,72682,8454,661623,11
15,0,700576,247160,1376798,72859,8691,688197,11
15,0,703813,247599,1433453,72987,8761,716603,11
15,0,703177,247995,1380452,73123,9190,690375,11
15,-1,636380,218784,1149718,65732,6953,574901,2
15,0,702902,247702,1698000,72989,10354,849140,11
15,-1,637675,217822,1263469,65288,7709,631834,0
15,0,726027,252729,1503936,76445,11011,752017,11
15,-1,638303,218381,1362349,65464,9164,681379,0
15,0,704031,247516,1763302,72982,11490,881097,11
15,0,704318,247544,1340507,72929,9204,670290,11
15,0,730265,253173,1492605,77045,10562,746459,11
15,0,708071,248183,1583936,73143,10055,791893,11
15,0,705599,246901,1358381,72727,8959,679041,11
15,-1,644753,219292,1189323,65663,8384,594519,0
15,0,701777,247100,1432627,72825,9716,716284,11
15,0,702166,247250,1371196,72856,9230,685555,11
15,0,704731,247692,1404924,73045,10083,702518,11
15,-1,649816,221250,1269015,66656,8287,634454,2
15,0,726813,251905,1499076,76331,10089,749553,11
15,0,710831,249845,1321435,74166,9162,660445,11
15,-1,636377,219106,1322074,65588,7758,660950,2
15,-1,638135,218510,1238743,65416,7984,619279,0
15,-1,636667,218728,1141372,65555,7960,570620,2
15,0,706537,246711,1324772,73593,9462,662181,11
15,-1,639421,218261,1287267,65470,8649,643635,0
15,-1,639883,220171,1179026,66388,8051,589446,2
15,0,706012,247516,1416320,74001,8848,708133,11
15,0,707327,247733,1556083,73980,9544,778017,11
15,-1,641881,218505,1470086,65586,9433,734834,0
15,0,706813,247155,1443730,73877,8561,721854,11
15,0,706081,247277,1374054,73881,8881,687075,11
15,0,709778,248777,1260257,74593,8312,630095,11
15,0,709189,247541,1288268,73921,8544,644162,11
15,-1,640700,219740,1268496,66147,7386,634293,0
15,0,705335,247093,1469660,73734,8533,734878,11
15,0,710386,247231,1384775,73880,9264,692374,11
15,0,708085,249407,1302560,74898,9137,651299,11
15,-1,638130,218883,1189648,65677,7378,594692,2
15,0,706689,247677,1309470,74048,9444,654650,11
15,0,708092,248235,1388477,74222,9381,694266,11
15,-1,642352,220641,1236813,66545,7602,618421,2
15,0,708934,247705,1406585,73999,9303,703301,11
15,-1,636567,217670,1276625,65225,7643,638389,0
15,0,711405,247518,1243597,73923,9138,621825,11
15,-1,637640,217557,1178695,65210,7432,589243,2
15,-1,641069,218014,1433160,65328,9924,716596,0
15,0,710182,247909,1400359,74040,9366,700150,11
15,0,707786,247560,1428526,73983,8598,714222,11
15,0,728885,251601,1504823,77045,9851,752352,11
15,0,712697,249126,1279353,74795,9044,639686,11
15,-1,641047,220074,1236748,66341,7267,618434,2
15,-1,638565,218121,1503832,65457,9790,751740,0
15,0,706631,247476,1485783,73899,9359,742221,11
15,0,705215,247586,1510458,73872,9108,755215,11
15,0,706723,247771,1357564,74080,9556,678896,11
15,0,704445,246922,1248251,73813,8657,624081,11
15,0,716187,250452,1277642,75195,8998,638723,11
15,0,730799,256731,1350941,76742,10247,675393,11
15,-1,660684,222824,1338943,68763,8067,669554,0
15,0,727537,251678,1427382,77127,10309,713645,11
15,0,706968,247579,1395576,73944,9767,697815,11
15,-1,638102,218257,1269791,65484,7361,634802,2
15,0,708925,247946,1395312,74074,9262,697601,11
15,0,706953,247132,1464037,73810,9656,732006,11
15,0,707102,247246,1312072,73849,7990,656016,11
15,0,708834,247420,1463946,73933,8890,731921,11
15,-1,639940,218150,1301848,65467,8282,650835,2
15,0,711183,247332,1299253,73815,8972,649518,11
15,-1,637117,218365,1142472,65494,7294,571207,0
15,0,708294,247706,1419213,73975,8897,709677,11
15,-1,644307,220684,1205933,66528,7588,602919,2
15,0,707709,248028,1471056,74061,9804,735565,11
15,-1,636620,218225,1255733,65467,7472,627857,2
15,0,711060,248418,1458931,74251,9453,729397,11
15,-1,641383,218833,1328540,65679,8635,664273,2
15,-1,639019,218420,1366898,65483,7353,683577,0
15,0,707636,247152,1470802,73757,8902,735473,11
15,0,710287,248013,1421567,73976,9312,710830,11
15,0,710021,247442,1501508,73737,9428,750795,11
15,0,711589,248824,1332217,74434,8897,666144,11
15,-1,642951,218759,1250442,65655,8196,625127,2
15,-1,642025,218072,1309232,65398,7266,654588,0
15,0,707540,247994,1265748,73980,9407,632876,11
15,-1,629662,218308,1264137,65015,7153,631910,2
15,0,729387,252108,1471114,77190,9569,735526,11
15,-1,631123,218193,1136431,64980,7107,568233,2
15,0,707726,247294,1355450,73819,8560,677813,11
15,0,711481,248504,1337620,74374,9339,668974,11
15,-1,634217,218393,1560000,65070,9333,780013,0
15,0,714196,249074,1298690,74649,9356,649277,11
15,0,706660,247250,1302559,73785,8929,651213,11
15,0,706393,247510,1379459,73947,9819,689757,11
15,0,708790,247577,1500804,73880,9115,750341,11
15,0,731629,252211,1511554,77259,10843,755816,11
15,0,709218,247157,1345912,73703,8646,672885,11
15,-1,638420,219686,1204777,65638,7082,602164,0
15,0,710261,247515,1278096,73863,9031,639038,11
15,0,715325,249856,1269159,74946,9316,634555,11
15,0,714734,249557,1362576,74778,9274,681322,11
15,-1,638259,219389,1191761,65479,7343,595878,0
15,0,712907,247521,1426917,73807,9521,713473,11
15,0,709876,247499,1494497,73732,10382,746871,11
15,0,709758,247151,1371495,73760,9641,685574,11
15,0,734159,252117,1695020,77099,11813,847537,11
15,-1,633152,218866,1256571,65199,8138,628101,2
15,0,712963,248222,1324702,73983,9189,662368,11
15,0,714277,249462,1242834,74803,8816,621487,11
15,0,715726,248500,1451426,74345,9557,725795,11
15,-1,642844,220839,1188986,66237,7416,594270,0
15,0,710350,247188,1441298,73616,9990,720718,11
15,0,712204,247568,1470321,73849,10696,735194,11
15,0,706574,248794,1225931,74544,8842,612995,11
15,0,706168,247465,1398801,73861,9526,699430,11
15,-1,637203,218110,1177238,65918,8231,588566,0
15,0,708086,247877,1459490,73975,9786,729840,11
15,0,711439,249702,1347842,74945,8889,674003,11
15,-1,634677,217524,1268732,65679,8157,634436,0
15,0,714108,249258,1339666,74719,9628,669904,11
15,0,718315,251293,1406558,75508,9078,703344,11
15,0,711919,248820,1384901,74403,8851,692455,11
15,-1,632647,218208,1246054,65957,8373,622917,0
15,-1,633462,218341,1271638,66022,7967,635466,2
15,-1,641213,220086,1143872,66880,8078,571930,2
15,0,711587,248665,1387168,74419,8479,693634,11
15,-1,637404,218158,1215179,65927,7322,607555,0
15,0,709467,248164,1297483,74198,8451,648791,11
15,0,710338,248309,1263165,74285,8867,631471,11
15,-1,639094,218668,1238271,66115,7488,618922,0
15,0,715350,250087,1330268,74963,8970,665192,11
15,0,712268,248515,1393828,74286,9084,697075,11
15,0,713780,248635,1389577,74282,9148,694834,11
15,0,713460,248882,1467334,74430,9170,733681,11
15,0,715907,249061,1571407,74468,10418,785723,11
15,0,726490,251825,1511436,77107,10129,755825,11
15,-1,642619,218872,1268756,66177,7625,634440,0
15,0,711776,249058,1423980,74462,9432,711832,11
15,0,711832,249054,1462637,74459,9429,731344,11
15,0,709130,248039,1360154,74086,9057,679668,11
15,0,712741,249097,1414692,74466,9360,707340,11
15,0,715710,250207,1403742,75077,9139,701193,11
15,0,712553,249765,1386034,74802,9471,692668,11
15,-1,635323,217810,1147372,65890,7312,573640,2
15,-1,638405,218056,1316963,65920,7513,658520,0
15,0,710511,248685,1296375,74297,8684,648235,11
15,0,711351,248951,1299156,74314,9238,649624,11
15,0,709451,247952,1300704,73953,8737,650398,11
15,-1,641563,218859,1227772,66204,7186,613839,2
15,0,710598,248683,1476992,74247,8598,738511,11
15,0,711050,248461,1377972,74140,8868,689065,11
15,-1,637682,218586,1271730,66104,7896,635925,2
15,0,713281,248175,1387910,73882,9441,693846,11
15,-1,641111,218739,1173446,66096,7595,586696,0
15,-1,642899,220088,1197214,66907,7492,598570,2
15,0,711289,248528,1376388,74101,8623,688326,11
15,0,711625,248557,1400485,74120,8238,700296,11
15,0,710692,247882,1377803,73783,7923,688980,11
15,-1,642404,219183,1196590,66289,7956,598260,2
15,-1,637984,218555,1152162,66091,6875,576063,0
15,0,712078,248462,1437397,74109,8502,718775,11
15,-1,633413,217655,1142614,65768,8084,572340,2
15,0,716214,250169,1322133,74950,8809,660983,11
15,0,733725,252972,1554050,77450,8638,777106,11
15,0,714556,249423,1381415,74679,8814,690780,11
15,-1,637878,218554,1224718,66035,7012,612449,0
15,0,706910,247268,1348922,73821,9160,674507,11
15,0,716986,250287,1307982,75042,8335,654085,11
15,0,711795,247859,1306799,74000,8649,653441,11
15,-1,635431,217844,1172535,65820,7521,586222,2
15,0,707383,248366,1416738,74175,8925,708423,11
15,0,707985,248303,1484922,74137,9019,742469,11
15,0,715061,250695,1342459,75226,9402,671313,11
15,-1,639264,220062,1175000,66835,7083,587467,2
15,-1,635673,217720,1215199,65715,7146,607606,0
15,0,708571,248125,1406676,74021,8579,703375,11
15,0,706361,247919,1257862,73955,9014,628980,11
15,0,712648,249453,1263573,74699,8511,631856,11
15,-1,636995,218414,1182049,66017,6984,591139,2
15,0,708402,247966,1414059,73982,8622,707075,11
15,0,709598,248105,1355598,74094,8375,677848,11
15,-1,639959,218027,1130924,65777,6788,565338,0
15,0,710309,248409,1310059,74145,8368,655073,11
15,0,716421,250462,1338920,75078,8933,669595,11
15,0,718347,250170,1318902,74928,9088,659520,11
15,-1,634900,217632,1259581,65818,7591,629836,2
15,0,715140,249382,1435967,74390,9091,718021,11
15,0,713906,248571,1370879,74184,9100,685473,11
15,-1,635851,217614,1230548,65687,7675,615345,0
15,0,710842,248590,1370092,74218,8605,684905,11
15,0,734773,253385,1477277,77497,10252,738724,11
15,-1,637172,218935,1268534,66209,8008,634227,2
15,-1,664034,227383,1296675,68664,8007,648518,0
15,0,717802,250140,1337192,75089,8853,668675,11
15,-1,640885,219296,1209514,66205,7413,604642,2
15,0,718624,250287,1459020,75123,9664,729394,11
15,0,714327,247914,1507843,74078,9973,753961,11
15,0,715672,248510,1445684,74241,9368,723116,11
15,0,709989,247874,1553796,74042,10109,776726,11
15,0,712391,249073,1446448,74487,9074,723204,11
15,0,713251,248219,1433673,74195,10061,716747,11
15,0,713055,247827,1400391,74046,9496,700166,11
15,0,715197,248904,1621234,74405,10410,810573,11
15,0,714703,248516,1394636,74231,9353,697158,11
15,-1,641239,218419,1140237,65864,7359,570137,0
15,0,714318,248283,1371047,74188,8372,685563,11
15,0,738320,253934,1573661,77777,12141,786964,11
15,0,715019,248268,1366501,74016,9240,683142,11
15,-1,642266,218573,1210083,65956,7639,605040,2
15,0,709072,247726,1344269,73781,9832,672227,11
15,0,711904,248552,1494662,74140,10327,747354,11
15,0,709185,248210,1348606,74002,9671,674398,11
15,0,715109,249578,1377810,74703,8895,688611,11
15,0,714042,248675,1294388,74179,8756,647304,11
15,-1,639673,220167,1160995,66729,7340,580362,2
15,-1,641803,219491,1168022,66445,6831,584005,0
15,0,712049,247767,1503283,73895,9845,751720,11
15,-1,640593,218918,1278334,66097,7904,639244,2
15,-1,639210,219369,1131325,66421,7658,565471,0
15,0,711060,248106,1489924,74028,10394,744897,11
15,0,711723,248092,1420728,74019,9218,710345,11
15,0,713461,247811,1356343,73876,9242,678177,11
15,0,715325,248119,1473356,74037,9332,736632,11
15,0,728648,252484,1522554,77172,10437,761338,11
15,0,711582,248747,1410444,74345,9592,705094,11
15,0,712190,248284,1413813,74068,9211,706863,11
15,-1,638814,218002,1188850,65884,7259,594358,0
15,0,712986,248355,1464628,74375,9563,732223,11
15,0,714523,248887,1501709,74614,9426,750857,11
15,-1,643853,219863,1231321,66785,7499,615716,2
15,0,711598,247017,1324866,73741,8263,662419,11
15,0,707706,247092,1248426,73758,8687,624093,11
15,-1,639505,218715,1191443,65985,7986,595615,0
15,-1,636297,218164,1174355,65837,7744,587174,2
15,0,710677,246808,1366339,73681,9738,683219,11
15,-1,641062,218723,1151337,65988,7349,575639,2
15,-1,639286,218558,1179239,66024,8012,589401,2
15,0,716218,248879,1440056,74717,10098,720050,11
15,-1,645539,219283,1169205,66198,7608,584152,0
15,0,712657,247291,1471956,74026,9568,735840,11
15,0,703591,248037,1446753,74250,8995,723305,11
15,0,702253,247111,1461278,73956,10398,730437,11
15,0,725508,252262,1605329,77430,10824,802517,11
15,0,706292,247217,1247513,73966,8672,623723,11
15,0,706464,248468,1353127,74626,9880,676465,11
15,-1,640384,218059,1262024,65783,8559,630889,0
15,0,725524,251718,1538467,77196,10820,769291,11
15,0,706713,247534,1393986,74107,9260,696928,11
15,0,708707,248494,1411084,74633,9815,705545,11
15,0,707366,247217,1306955,74007,8603,653486,11
15,0,702542,247050,1412423,73901,8770,706188,11
15,-1,633441,218946,1183421,66051,7337,591653,2
15,0,703245,246528,1319685,73738,9062,659796,11
15,-1,636040,218878,1242716,66026,8022,620950,0
15,0,706787,247311,1259084,73979,8779,629518,11
15,0,708201,247293,1283649,74023,8655,641788,11
15,0,711359,249487,1405038,75003,9281,702679,11
15,-1,634560,218006,1145570,65865,7584,572794,2
15,0,710485,247849,1299304,74206,8382,649635,11
15,0,703126,246785,1323238,73873,9234,661627,11
15,-1,659981,222706,1292952,69195,8474,646505,0
15,0,706825,247690,1406633,74178,9472,703345,11
15,0,727234,251973,1362394,77365,9832,681052,11
15,0,705449,246919,1284314,73892,8181,642127,11
15,0,711221,248886,1409989,74564,8923,704980,11
15,0,708762,247612,1410333,73976,9374,705154,11
15,-1,636758,218758,1262499,66100,8090,631150,2
15,-1,642116,219451,1164644,66276,6972,582345,0
15,0,708052,247651,1362704,73998,9281,681234,11
