0,0,4,670236.250000,229132.000000,1328589.250000,69072.750000,7840.500000,664351.250000,31729.061453,9465.312118,58564.628375,3154.723393,618.801463,29291.342862
0,1,6,722755.833333,252918.666667,1477343.666667,75536.833333,9881.333333,738456.166667,16896.061310,6160.543690,42116.661872,1780.053690,720.667438,20844.785626
1,0,3,655405.333333,225427.000000,1317840.333333,67568.333333,7410.666667,659053.333333,24252.387021,8661.198223,55587.490831,2343.932071,323.866571,27695.865207
1,1,5,714107.200000,250007.000000,1387604.600000,74546.800000,9477.600000,693585.200000,5597.779253,1135.874113,88080.402955,551.653297,404.778754,43860.176787
2,0,3,636524.333333,219155.000000,1249827.666667,65906.000000,7269.333333,624979.666667,3086.886493,815.627775,32685.807525,258.925987,428.800135,16390.474659
2,1,5,712136.800000,249524.000000,1461884.800000,74318.400000,9934.000000,730713.200000,3847.240902,704.992199,165807.903273,450.303276,791.914894,82888.956098
3,0,3,639052.000000,220127.666667,1311034.333333,66315.333333,7652.000000,655357.666667,2232.810337,810.147449,20781.012236,367.098836,264.364647,10278.773673
3,1,5,712488.800000,250062.800000,1469434.200000,74554.200000,9759.200000,734254.800000,4428.717440,838.780162,111575.527319,322.975789,684.385681,55230.985424
4,0,3,647950.666667,222570.000000,1316214.333333,66980.000000,8093.666667,658056.000000,9651.171201,3852.635808,15524.288332,1165.226444,350.711024,7727.397018
4,1,5,714577.800000,249924.200000,1475162.400000,74741.000000,9786.400000,737531.200000,9350.932540,1745.100731,73973.619827,1373.211273,606.562973,36876.509756
5,0,3,645656.333333,221716.000000,1270475.000000,67442.666667,7905.666667,635099.333333,11769.968064,2140.198277,67807.664940,1441.461373,384.688041,33987.767352
5,1,5,716024.000000,250412.000000,1513979.200000,74972.600000,9849.000000,756862.200000,8557.670758,1492.080427,111182.514340,1061.601168,807.800223,55540.057542
6,0,3,646282.666667,221539.333333,1351369.666667,67412.666667,8133.666667,675737.333333,7107.776977,1817.689804,52321.983005,1403.602587,34.499597,26210.891697
6,1,5,713091.600000,249588.800000,1407259.600000,74381.400000,9216.200000,703598.400000,3891.004940,887.390647,46368.690003,537.881994,202.318956,23211.067064
7,0,3,635357.333333,218843.333333,1397412.333333,65814.666667,8074.666667,698742.333333,3092.018794,559.581590,63068.310978,181.477884,142.570061,31530.418967
7,1,5,716523.600000,250214.600000,1518192.000000,74857.800000,9722.200000,759114.400000,5958.510136,1471.900078,61766.755761,1205.826256,517.164345,30936.932767
8,0,3,637105.000000,219145.666667,1254925.333333,65836.000000,7785.333333,627464.666667,756.390111,206.696772,37915.010592,100.079968,294.467127,18983.040577
8,1,5,711791.800000,248868.600000,1438896.200000,74041.200000,9602.800000,719416.000000,4074.461309,653.404193,91924.194716,252.829903,402.398509,45946.704957
9,0,3,638071.333333,219681.000000,1303833.666667,66046.000000,7928.666667,651981.000000,3679.009408,468.117507,26861.176101,159.668406,393.058378,13425.519282
9,1,5,714938.000000,249755.000000,1475984.200000,74644.400000,9682.600000,738020.200000,9742.270064,1816.657700,91255.291030,1202.905250,461.696264,45641.155460
10,0,3,644463.666667,221031.333333,1254759.000000,67175.666667,7571.333333,627411.666667,11047.467050,2250.627517,45100.278876,1538.193168,763.913317,22525.810889
10,1,5,713445.800000,249750.400000,1431008.200000,74389.600000,9978.200000,715483.200000,2794.817304,950.557647,97457.090511,539.315344,338.732579,48683.161164
11,0,3,636386.666667,219581.333333,1255762.666667,66062.000000,7690.666667,627952.000000,1833.335818,436.807611,63606.713280,313.901258,263.060618,31914.875100
11,1,5,715986.000000,250044.400000,1407087.200000,74840.200000,9669.800000,703524.600000,7019.572608,1748.263664,53947.248321,1349.227838,377.277829,26962.411180
12,0,3,642066.000000,219747.333333,1283372.000000,66081.333333,7684.666667,641726.333333,2867.294660,441.878817,68278.250012,124.655080,67.371276,34151.810741
12,1,5,713792.600000,249686.600000,1335431.200000,74440.800000,9315.800000,667665.200000,3106.346317,481.925139,48725.600226,361.348807,272.109831,24323.789535
13,0,3,647286.666667,220918.000000,1211349.000000,67071.333333,7557.333333,605718.333333,9241.262877,2374.454183,26078.391515,1616.707010,414.843210,13062.530060
13,1,5,722059.000000,252271.000000,1404205.200000,75522.400000,9677.400000,701986.000000,9742.781492,3306.204289,90331.915302,1325.149893,403.432572,45072.850027
14,0,3,644818.333333,221145.333333,1322759.000000,66735.666667,8276.333333,661421.333333,5866.339082,1200.360316,65420.867104,508.468507,98.797211,32700.344640
14,1,5,711678.400000,249146.800000,1520900.600000,74201.800000,9855.800000,760492.400000,3103.226618,358.465284,179369.751854,270.150625,1044.478128,89603.800182
15,0,3,650763.666667,221321.000000,1281960.666667,67310.333333,7894.333333,641002.000000,9400.309971,1527.358722,34503.412791,1305.676410,698.175877,17272.119982
15,1,5,710696.200000,248626.200000,1512530.000000,74004.600000,10210.000000,756280.600000,3629.650308,659.061575,72637.783895,297.976241,746.629493,36337.898468
16,0,3,640825.666667,219136.333333,1320024.333333,65945.000000,7892.666667,659972.666667,3863.840950,34.451254,60438.643876,68.949257,187.618999,30159.338922
16,1,5,712594.400000,249606.000000,1449101.000000,74423.800000,9536.400000,724514.000000,2383.480279,1202.079365,82618.994961,513.143801,131.056629,41354.447746
17,0,3,644605.333333,220241.666667,1345751.666667,66412.333333,7655.333333,672857.666667,2403.012739,772.453379,29200.789320,398.270706,249.006470,14587.394429
17,1,5,710552.800000,248969.200000,1447310.800000,74138.600000,9334.400000,723679.200000,2866.440538,845.726528,60130.271702,310.931890,366.306757,30041.513147
18,0,3,642039.000000,219315.666667,1313936.666667,65929.666667,7507.666667,657009.666667,1724.417003,59.918463,52571.106293,40.827551,243.456133,26298.457716
18,1,5,712736.000000,249721.800000,1416880.400000,74550.600000,9689.600000,708430.400000,3533.086526,1335.893469,53901.499521,630.685215,483.008323,27009.452602
19,0,3,647439.000000,221143.666667,1309555.333333,67168.333333,8215.000000,654803.333333,13686.367110,2395.980013,16451.879656,1658.784763,682.876758,8189.390793
19,1,5,712921.800000,249347.600000,1466147.800000,74335.200000,9541.800000,733023.600000,4644.827377,1025.436609,67769.518887,441.892928,539.525495,33888.773625
20,0,3,639762.333333,219289.333333,1334199.666667,66015.666667,7568.000000,667104.000000,2552.814438,145.385312,36646.113103,33.169598,345.719540,18340.044275
20,1,5,712544.000000,249288.800000,1522303.000000,74334.200000,10063.400000,760807.000000,2858.693758,941.028034,128918.576981,444.055132,946.906669,64164.190577
21,0,3,640237.000000,219695.000000,1286240.000000,66192.000000,7908.000000,643027.666667,3382.384169,593.859130,69056.950859,241.132052,702.875997,34544.343148
21,1,5,715102.800000,249737.400000,1429489.400000,74779.800000,9658.800000,714726.400000,10614.017758,2204.594348,88351.766838,1290.781376,712.349746,44230.311514
22,0,3,641310.000000,220380.333333,1384610.666667,66471.333333,7961.666667,692176.666667,1594.277893,622.716807,35627.730458,344.644100,475.680799,17946.692552
22,1,5,710505.800000,248987.800000,1457019.800000,74208.200000,9630.800000,728494.400000,3947.110508,614.425716,51131.026023,152.748682,519.414825,25629.744498
23,0,3,639847.333333,219519.333333,1308492.333333,66052.666667,7928.333333,654276.666667,4250.274057,243.783146,11345.084114,56.310646,84.286548,5726.377932
23,1,5,710192.600000,248876.600000,1464188.600000,74170.200000,9587.000000,732106.800000,2093.452517,800.444027,64424.528290,384.164236,737.705632,32195.953376
24,0,3,637827.000000,219057.333333,1246478.333333,65902.666667,7660.666667,623260.666667,4602.410093,614.857346,65622.581080,186.449874,330.103351,32769.915292
24,1,5,710052.800000,249013.200000,1487051.400000,74210.800000,9914.400000,743531.800000,3137.225360,517.955751,51253.842867,103.391296,580.921888,25640.214862
25,0,3,638840.000000,219255.000000,1284238.333333,65907.666667,7565.333333,642129.333333,3253.338081,523.832670,41118.251181,213.248421,318.720707,20507.894290
25,1,5,714279.600000,250091.200000,1450550.000000,74912.600000,9919.600000,725175.800000,9859.237691,2076.568265,60945.985666,1325.634731,376.074780,30556.713897
26,0,3,642108.000000,220506.000000,1338390.000000,66537.333333,8143.000000,669239.000000,4273.657996,1056.649737,28603.722730,497.136020,540.520737,14241.801103
26,1,5,709337.200000,249096.200000,1501635.600000,74173.400000,10200.400000,750885.400000,4305.367506,587.050730,72851.877059,330.934193,564.303677,36428.467597
27,0,3,655571.666667,223962.666667,1233691.000000,68015.000000,7719.333333,616850.000000,9994.501700,3930.226485,38198.672551,1415.562079,99.800913,19065.330332
27,1,5,713093.400000,249713.600000,1448262.200000,74472.600000,9895.400000,724157.600000,5605.418329,1186.408968,75865.784471,491.965283,508.984322,37887.656167
28,0,3,639733.333333,219232.666667,1266298.666667,65925.000000,7658.000000,633045.333333,485.645504,675.643068,69006.810487,203.599280,144.342186,34592.873624
28,1,5,720198.400000,251087.400000,1529654.600000,75595.000000,10124.000000,764846.800000,10697.735379,2238.342744,118607.244977,1545.849540,1104.410612,59275.917179
29,0,3,638037.000000,219459.666667,1253109.666667,66010.000000,7369.666667,626478.333333,3813.314656,391.224857,62978.839755,123.047416,326.696937,31514.590296
29,1,5,716344.400000,249939.600000,1518299.000000,74813.000000,9958.000000,759159.800000,8578.649815,1730.770302,59804.540677,1358.593537,766.154554,29904.612623
30,0,3,639732.000000,219867.666667,1221535.333333,66155.666667,7465.333333,610831.666667,3561.568288,237.567300,51703.429063,93.496286,679.341511,25851.945669
30,1,5,711990.800000,249069.200000,1510501.000000,74193.000000,10433.800000,755287.400000,2703.029219,416.604561,35262.740585,300.378428,486.285266,17644.745242
31,0,3,639492.666667,219534.666667,1268209.333333,66038.333333,7510.666667,634325.000000,2836.575909,248.581755,82282.485971,146.581794,414.971753,41291.538528
31,1,5,711823.400000,248927.400000,1468621.400000,74129.600000,10300.200000,734285.400000,2353.872775,480.539114,94486.832206,242.386963,409.759637,47232.258543
32,0,3,641650.000000,220355.666667,1287230.000000,66483.333333,7713.333333,643465.000000,1723.342295,985.617009,46631.036281,446.450694,88.868192,23154.776714
32,1,5,711519.200000,249234.000000,1454619.200000,74324.200000,9971.000000,727334.400000,3320.776921,1155.286285,67836.055158,624.216437,333.899386,33899.361065
33,0,3,639648.333333,219641.666667,1209236.000000,66066.000000,7589.666667,604672.666667,1894.793099,480.419493,19922.841983,92.054332,511.068380,9961.310802
33,1,5,713301.600000,249522.800000,1435321.400000,74709.600000,9555.000000,717622.600000,6992.142950,1685.564879,86964.973523,1148.248336,742.334695,43531.932250
34,0,3,648535.666667,223218.666667,1324752.333333,67238.333333,7880.000000,662361.000000,12117.223013,4439.541593,119976.354421,1302.548869,713.664253,60010.148147
34,1,5,715399.800000,250206.400000,1489244.200000,74954.200000,10051.400000,744656.000000,8407.165501,1716.326379,31511.032026,1350.022429,488.950550,15556.350343
35,0,3,637316.000000,219106.000000,1277183.333333,65925.000000,7302.333333,638524.333333,1035.207226,502.554143,53487.721472,154.343772,679.416580,26890.993056
35,1,5,710523.800000,248603.200000,1462921.400000,74019.800000,9567.400000,731381.600000,3207.288662,518.819198,89127.424784,273.783418,319.874725,44580.034188
36,0,3,640780.666667,220255.666667,1325266.666667,66423.000000,7583.666667,662605.333333,1544.552650,503.137710,67182.503637,274.362291,567.706693,33534.065956
36,1,5,717849.600000,250547.600000,1484799.000000,75129.000000,9938.200000,742348.200000,7630.733716,1156.265125,52325.894351,1117.835587,399.092671,26211.211505
37,0,2,639342.000000,219044.000000,1324525.000000,65876.000000,7873.000000,662301.500000,917.000000,205.000000,11831.000000,24.000000,256.000000,5908.500000
37,1,5,715625.400000,249752.200000,1415983.000000,74758.200000,9684.200000,707981.000000,8638.776501,1795.237410,48181.909742,1322.756576,668.539423,24150.978432
38,0,2,644040.000000,220155.000000,1346960.500000,66365.000000,7710.500000,673373.000000,694.000000,981.000000,3842.500000,401.000000,178.500000,1760.000000
38,1,5,718604.600000,250269.200000,1433763.000000,75008.200000,9930.400000,716836.000000,5726.749116,1469.945768,33858.867601,1270.799182,680.486179,16892.019500
39,0,2,650443.000000,221509.500000,1332634.000000,67610.500000,7820.500000,666338.500000,8685.000000,2488.500000,23125.000000,1635.500000,296.500000,11573.500000
39,1,5,723628.600000,251654.200000,1414187.600000,75905.800000,9994.200000,707033.200000,10515.492696,2320.839107,59475.797507,1584.118354,663.280755,29670.253348
40,0,2,640914.500000,219875.000000,1347221.000000,66082.500000,7668.500000,673679.000000,2093.500000,56.000000,32689.000000,68.500000,267.500000,16430.000000
40,1,5,711777.800000,248853.400000,1486135.800000,74084.600000,10013.400000,743062.400000,2590.293142,715.339528,42847.641015,317.469117,407.191650,21459.531454
41,0,2,642216.000000,220147.500000,1277788.500000,66355.500000,7830.500000,639001.000000,839.000000,1019.500000,9823.500000,418.500000,135.500000,5093.000000
41,1,5,712505.600000,248865.400000,1425456.000000,74200.200000,9503.400000,712758.600000,2960.512294,988.970899,50810.776451,572.248687,627.694384,25408.808155
42,0,2,645472.000000,221439.000000,1320876.000000,66901.500000,8416.000000,660486.500000,622.000000,187.000000,61712.000000,13.500000,91.000000,30866.500000
42,1,5,717703.400000,250304.400000,1489269.600000,74971.400000,9988.400000,744507.800000,6218.481538,1644.846084,61490.842387,1334.828918,618.299798,30688.623725
43,0,2,640234.500000,220066.000000,1419788.000000,66284.000000,8016.000000,709641.000000,4698.500000,813.000000,56847.000000,441.000000,589.000000,28334.000000
43,1,5,712341.200000,249221.200000,1438740.000000,74297.400000,9685.200000,719353.200000,3106.889467,557.231514,88698.201474,128.594868,508.193821,44347.672563
44,0,2,653936.500000,223930.500000,1309909.000000,67313.000000,8004.500000,654977.500000,12904.500000,5108.500000,45016.000000,1531.000000,145.500000,22490.500000
44,1,5,711615.400000,248933.400000,1481583.800000,74112.800000,9901.800000,740687.000000,2174.427796,201.901560,84863.529105,177.023614,735.357165,42286.409150
45,0,2,641949.000000,220328.500000,1311812.500000,66461.500000,7701.500000,655736.500000,3052.000000,1019.500000,39270.500000,560.500000,505.500000,19866.500000
45,1,5,713000.800000,248982.000000,1386488.800000,74264.400000,9027.600000,693328.000000,3835.219284,1585.038170,45411.263120,628.616449,615.868363,22617.571258
46,0,2,649293.000000,221629.000000,1302767.500000,67638.000000,8276.500000,651355.500000,10368.000000,1947.000000,11072.500000,1572.000000,211.500000,5613.500000
46,1,5,714276.200000,249239.400000,1467177.400000,74601.200000,9472.200000,733529.200000,8245.355381,2062.280834,71550.008913,1313.847997,642.250854,35837.667108
47,0,2,638948.500000,219711.000000,1379202.500000,66192.000000,7976.000000,689877.000000,2249.500000,1048.000000,2019.500000,367.000000,46.000000,516.000000
47,1,5,713025.200000,249176.600000,1452581.600000,74274.600000,9528.000000,725995.000000,3155.097235,810.068293,49368.118711,319.542548,417.096152,24450.792748
48,0,2,639858.500000,219564.500000,1305843.000000,66045.500000,7997.000000,652926.000000,2047.500000,151.500000,49780.000000,21.500000,749.000000,24917.000000
48,1,5,712430.800000,249161.600000,1497237.600000,74248.800000,9853.400000,748314.800000,3436.247104,1129.903111,59080.897409,555.539882,505.885600,29311.326012
49,0,2,640346.000000,219799.000000,1355034.000000,66222.000000,8408.500000,677459.000000,4257.000000,680.000000,75444.000000,385.000000,585.500000,37834.000000
49,1,5,711347.200000,248845.400000,1460657.600000,74123.600000,9590.400000,730270.800000,4327.031842,1085.619012,142855.985900,396.503014,616.755900,71288.940986
50,0,2,647923.000000,221295.000000,1279347.000000,67513.000000,7979.000000,639760.500000,9321.000000,2259.000000,22366.000000,1557.000000,350.000000,10852.500000
50,1,5,719897.800000,250826.200000,1509833.800000,75539.800000,9988.600000,754351.200000,8702.255234,1618.192498,30657.219877,1435.203735,627.562459,15353.122619
51,0,2,639773.500000,220397.500000,1355409.500000,66441.500000,8306.000000,678124.000000,3473.500000,837.500000,53672.500000,401.500000,38.000000,27220.000000
51,1,5,712942.800000,249183.400000,1434620.600000,74256.800000,9675.200000,717090.200000,2649.828327,600.296793,55592.683902,209.606679,493.326018,27605.723163
52,0,2,638282.000000,218859.000000,1304674.500000,65803.000000,8091.500000,652411.500000,783.000000,362.000000,25099.500000,99.000000,288.500000,12606.500000
52,1,5,712242.800000,249143.600000,1449665.600000,74187.800000,9674.800000,724715.200000,3400.727710,545.334613,64796.553932,458.075714,513.982257,32363.790553
53,0,2,638549.500000,219356.500000,1253977.000000,65992.000000,7561.500000,626575.500000,134.500000,598.500000,64924.000000,171.000000,135.500000,31997.500000
53,1,5,712985.000000,249292.800000,1487531.600000,74261.400000,9491.400000,743487.200000,1869.742121,787.914310,83208.497034,216.275380,322.584935,41461.892665
54,0,2,640895.000000,220659.000000,1332860.000000,66531.500000,7918.500000,666410.000000,4301.000000,954.000000,10186.000000,516.500000,177.500000,5098.000000
54,1,5,714271.200000,249345.800000,1491081.400000,74621.600000,9454.200000,745258.800000,8054.811665,1769.276168,74800.743821,1433.042860,712.081568,37310.332555
55,0,2,641067.000000,221010.000000,1340023.500000,66774.000000,8142.000000,669750.500000,1245.000000,130.000000,28684.500000,41.000000,179.000000,13964.500000
55,1,5,712731.400000,249359.000000,1446768.400000,74346.000000,9364.600000,723331.800000,2581.415395,957.033333,109204.383842,441.027437,517.119174,54528.895615
56,0,2,647631.500000,221566.500000,1259320.000000,67598.000000,8089.000000,629391.000000,10099.500000,2433.500000,69756.000000,1661.000000,327.000000,34580.000000
56,1,5,711430.200000,249150.000000,1466445.200000,74266.800000,9674.400000,733232.600000,4396.928082,1067.384467,151234.689456,559.373721,619.131844,75811.718771
57,0,2,642700.000000,220479.000000,1354328.500000,66457.000000,8344.000000,677026.000000,7124.000000,1159.000000,4910.500000,523.000000,245.000000,2247.000000
57,1,5,712745.000000,249126.600000,1481055.200000,74224.600000,9524.200000,740732.400000,2586.294260,1050.931511,22418.456445,385.002649,458.999956,11197.641512
58,0,2,639222.500000,219410.500000,1338167.500000,65976.500000,7916.000000,669170.000000,2514.500000,521.500000,61834.500000,113.500000,200.000000,30937.000000
58,1,5,716153.600000,249632.200000,1513385.800000,74714.600000,9978.000000,756714.200000,6993.219304,1616.676764,72293.766355,1371.545202,525.396231,36248.252628
59,0,2,641565.000000,220687.000000,1300009.500000,66515.500000,7679.500000,649808.000000,2027.000000,745.000000,54721.500000,303.500000,340.500000,27112.000000
59,1,5,714564.200000,249538.600000,1417112.600000,74692.400000,9498.400000,708545.200000,9026.080110,1579.503416,46006.566925,1113.361505,904.061414,22978.395779
60,0,2,643195.000000,219077.000000,1264565.500000,65905.500000,7490.000000,632300.000000,1275.000000,101.000000,74679.500000,103.500000,842.000000,37327.000000
60,1,5,726631.600000,253978.400000,1548941.200000,76132.800000,10121.200000,774381.000000,9488.064768,3516.221472,95162.677603,1131.990530,838.484204,47498.044002
61,0,2,643356.000000,219474.000000,1267690.000000,65998.000000,7571.000000,633737.500000,2580.000000,786.000000,6842.000000,249.000000,634.000000,3579.500000
61,1,5,709848.000000,248654.400000,1457336.600000,74056.000000,9311.400000,728565.400000,2302.204422,329.107034,95898.058034,221.446156,638.648761,47812.819664
62,0,2,642550.000000,219478.000000,1304161.500000,66024.500000,7764.500000,652109.500000,706.000000,12.000000,7811.500000,84.500000,588.500000,3938.500000
62,1,5,722056.000000,252569.600000,1473807.600000,75256.800000,9692.600000,736872.600000,12082.816311,4731.823860,71430.649155,1370.209239,479.481637,35657.290669
63,0,2,641944.500000,219534.000000,1292686.000000,66032.000000,7708.500000,646507.500000,148.500000,76.000000,86979.000000,4.000000,897.500000,43602.500000
63,1,5,714502.400000,249634.000000,1423173.800000,74719.800000,9169.400000,711317.800000,9088.494938,1993.263354,59765.657280,1220.361815,592.347060,29906.967372
64,0,2,644339.500000,220419.500000,1325020.000000,66455.000000,8028.500000,662535.500000,97.500000,412.500000,33456.000000,334.000000,348.500000,16721.500000
64,1,5,711454.600000,248911.400000,1495083.600000,74141.800000,9724.400000,747586.600000,1138.646495,273.213909,72404.261288,218.830894,695.961666,36255.194566
65,0,2,643333.000000,219938.000000,1285907.500000,66292.500000,8050.000000,642499.500000,1967.000000,602.000000,19754.500000,300.500000,343.000000,10399.500000
65,1,5,715345.200000,250166.600000,1417379.600000,75002.200000,9292.400000,708673.800000,7351.059145,1584.489394,68309.661152,1223.537887,429.269892,34218.271513
66,0,2,641503.500000,219653.500000,1252998.000000,66099.500000,7848.500000,626428.000000,1302.500000,519.500000,1041.000000,161.500000,212.500000,447.000000
66,1,5,710709.600000,249008.800000,1451461.000000,74208.800000,9469.400000,725777.600000,4283.147936,761.879623,55846.637277,303.939073,595.094816,27868.732620
67,0,2,641474.500000,219391.500000,1269898.000000,65997.500000,7883.000000,634953.500000,316.500000,9.500000,98659.000000,21.500000,182.000000,49291.500000
67,1,5,713985.200000,249895.400000,1445205.800000,74814.600000,9651.600000,722614.200000,10329.207761,1944.346944,64901.300888,1221.258466,971.901765,32418.526379
68,0,2,641744.500000,219360.000000,1283724.500000,65948.500000,7300.000000,641758.500000,332.500000,72.000000,18653.500000,31.500000,180.000000,9468.500000
68,1,5,712033.400000,249268.600000,1413105.400000,74357.400000,9543.800000,706498.400000,3211.774749,1240.364882,76159.142287,502.705321,712.565899,38049.065427
69,0,2,651225.000000,221707.000000,1302120.500000,67633.500000,7832.500000,651045.000000,10296.000000,2216.000000,70114.500000,1651.500000,408.500000,34986.000000
69,1,5,718286.600000,250518.000000,1382412.000000,75414.000000,9745.400000,691157.000000,10951.266385,2366.760402,73026.495868,1657.915679,278.404454,36474.699511
70,0,2,641762.000000,219426.500000,1258570.000000,65997.000000,7466.000000,629348.000000,547.000000,255.500000,74611.000000,79.000000,683.000000,37316.000000
70,1,5,714728.000000,249582.600000,1505166.600000,74690.800000,9989.600000,752254.600000,9749.619480,1790.816194,71468.449992,1328.973800,994.611603,35373.533556
71,0,2,640245.500000,219156.000000,1266729.500000,65857.500000,7710.000000,633335.000000,683.500000,243.000000,7423.500000,71.500000,478.000000,3624.000000
71,1,5,715382.400000,249512.600000,1440202.000000,74671.800000,9426.200000,720119.600000,6873.640974,1642.052569,61523.747795,1390.204935,927.225409,30754.535793
72,0,2,639441.000000,219213.500000,1276919.000000,65848.500000,7581.500000,638436.500000,1983.000000,707.500000,20035.000000,311.500000,116.500000,10021.500000
72,1,5,712452.800000,249580.200000,1415064.000000,74465.600000,9353.800000,707553.200000,2547.627712,608.524576,72105.542833,310.324733,482.362270,36053.762779
73,0,2,642125.500000,220326.500000,1238622.000000,66366.000000,7460.500000,619357.500000,559.500000,563.500000,34440.000000,320.000000,130.500000,17209.500000
73,1,5,711774.200000,248961.000000,1450930.800000,74183.800000,10030.400000,725411.000000,2856.383406,555.065762,64365.909062,247.207929,531.039584,32247.018740
74,0,2,651327.000000,222236.000000,1349334.500000,67872.000000,8015.500000,674577.500000,9209.000000,1889.000000,53938.500000,1455.000000,420.500000,26918.500000
74,1,5,709879.200000,248514.800000,1450152.400000,73972.200000,9486.400000,725086.800000,1802.477673,593.337139,48121.002041,331.625331,660.589615,24084.806260
75,0,2,639638.500000,219035.500000,1315290.500000,65811.500000,7926.500000,657919.500000,211.500000,39.500000,26283.500000,61.500000,16.500000,13227.500000
75,1,5,710329.400000,248715.000000,1467057.000000,74044.200000,9693.800000,733547.400000,2965.091068,255.808522,74952.076388,175.519116,635.592448,37462.684995
76,0,2,641533.500000,219365.500000,1257727.000000,65953.000000,7630.500000,628929.000000,244.500000,283.500000,34636.000000,63.000000,130.500000,17345.000000
76,1,5,714578.400000,249749.400000,1476956.000000,74765.800000,9390.200000,738459.200000,9284.182799,1971.344069,48135.969437,1281.200905,587.904550,24043.336036
77,0,2,641943.000000,219750.500000,1251796.500000,66116.000000,7527.500000,625947.500000,2711.000000,909.500000,78914.500000,470.000000,526.500000,39459.500000
77,1,5,713384.200000,249639.800000,1503737.400000,74451.800000,9502.400000,751867.000000,2051.646890,805.622840,95171.993317,375.800692,699.435944,47576.122511
78,0,2,641238.500000,219794.500000,1265776.500000,66161.500000,7951.500000,632955.500000,2454.500000,1112.500000,33011.500000,519.500000,16.500000,16488.500000
78,1,5,712873.200000,248848.200000,1424034.200000,74100.000000,9542.400000,712014.400000,2120.038622,629.376008,51703.726285,308.570899,649.562191,25859.797761
79,0,2,649201.500000,221420.000000,1295656.500000,67460.500000,7808.000000,647681.000000,11808.500000,2568.000000,44889.500000,1806.500000,559.000000,22682.000000
79,1,5,713028.800000,249208.800000,1463031.600000,74276.200000,9735.000000,731495.000000,1680.845549,1163.811909,183423.768170,509.283183,1259.805223,91557.043777
80,0,2,643063.500000,220046.000000,1365541.500000,66298.000000,8411.500000,682535.000000,6180.500000,1969.000000,17902.500000,711.000000,352.500000,9006.000000
80,1,5,717742.800000,249970.000000,1423178.400000,74801.000000,9877.600000,711686.000000,7992.057793,1533.943284,64420.202454,1162.123401,725.967933,32343.124902
81,0,2,652681.000000,222050.500000,1297411.000000,67631.000000,8681.500000,648733.000000,12078.000000,2145.500000,23395.000000,1623.000000,672.500000,11679.000000
81,1,5,711820.800000,248982.600000,1427805.000000,74149.000000,9692.400000,713603.400000,3787.685277,1000.985235,41654.493813,572.726462,632.451927,20640.912088
82,0,2,642306.500000,219814.500000,1393372.000000,66143.500000,8794.500000,696730.000000,1458.500000,876.500000,60410.000000,448.500000,356.500000,30201.000000
82,1,5,716228.000000,249824.400000,1477639.400000,74802.000000,10139.000000,738789.000000,8736.674951,1623.931353,53791.676994,1385.851652,396.002525,26747.201252
83,0,2,641018.500000,219306.000000,1331474.500000,65893.500000,7741.000000,665785.000000,125.500000,224.000000,10122.500000,123.500000,4.000000,5070.000000
83,1,5,714112.400000,249888.800000,1441724.200000,74563.400000,9167.600000,720825.600000,2952.883445,1095.266068,43909.590139,533.340267,416.533120,21948.517914
84,0,2,651195.000000,221922.500000,1307038.500000,67625.500000,8001.500000,653527.000000,10101.000000,2292.500000,40666.500000,1617.500000,371.500000,20399.000000
84,1,5,722137.000000,251277.800000,1579498.600000,75760.000000,10292.000000,789733.000000,12726.492384,2620.583401,61348.034357,1748.636726,991.007770,30638.043423
85,0,2,641789.500000,219862.500000,1341280.000000,66175.000000,8193.000000,670530.500000,359.500000,973.500000,21598.000000,474.000000,177.000000,10711.500000
85,1,5,710073.200000,248870.800000,1435756.000000,74079.600000,9079.400000,717818.200000,3070.202104,658.363851,96329.052430,300.157026,668.049280,48177.455675
86,0,2,643514.500000,220692.000000,1284006.000000,66456.000000,7697.000000,641874.500000,48.500000,417.000000,40431.000000,261.000000,481.000000,20316.500000
86,1,5,710681.000000,249100.000000,1424957.000000,74202.000000,9334.200000,712392.200000,3023.586017,848.799387,57887.888948,553.673911,653.155540,29059.093464
87,0,2,639136.000000,219698.500000,1271978.500000,66007.500000,7751.000000,636014.500000,711.000000,70.500000,65169.500000,11.500000,39.000000,32501.500000
87,1,5,712151.400000,249038.800000,1421090.200000,74156.000000,9467.200000,710333.600000,1479.406043,236.078292,71981.818589,69.719438,509.573704,36115.610545
88,0,2,638982.500000,219640.500000,1292989.500000,65953.000000,7970.500000,646368.500000,612.500000,393.500000,5050.500000,169.000000,87.500000,2335.500000
88,1,5,712662.400000,249586.600000,1441885.200000,74420.600000,9685.800000,720869.800000,3983.520684,1338.437836,78423.826309,583.965273,606.641047,39147.967219
89,0,2,651047.500000,221500.500000,1293349.000000,67517.000000,8299.000000,646603.500000,8585.500000,1966.500000,7974.000000,1492.000000,156.000000,4059.500000
89,1,5,715660.800000,249761.800000,1456172.800000,74734.000000,9705.800000,728120.000000,9648.584630,1901.848091,95365.364235,1194.290249,829.168113,47650.488547
90,0,2,640102.000000,219138.000000,1302655.000000,65787.000000,7540.500000,651420.000000,2727.000000,352.000000,45592.000000,189.000000,295.500000,22810.000000
90,1,5,712231.000000,249021.800000,1549853.400000,74172.800000,10105.200000,774895.400000,2078.464529,945.316328,20523.559034,354.183229,477.890531,10241.281689
91,0,2,643329.500000,220499.500000,1340932.000000,66364.000000,8235.500000,669852.500000,2564.500000,595.500000,25965.000000,437.000000,428.500000,12386.500000
91,1,5,712817.600000,249518.800000,1451596.600000,74354.000000,9622.600000,725766.000000,4324.385394,1450.854148,58080.611356,644.784305,588.398708,28997.614888
92,0,2,640008.500000,219581.000000,1224673.500000,65969.500000,7168.500000,612367.500000,2047.500000,353.000000,43028.500000,161.500000,225.500000,21450.500000
92,1,5,712106.000000,249372.200000,1479150.600000,74381.800000,9690.000000,739581.800000,2596.939969,963.182724,90945.607411,508.848268,742.710442,45431.421287
93,0,2,642669.500000,220607.500000,1215006.500000,66397.000000,7790.500000,607585.000000,1954.500000,1086.500000,75814.500000,333.000000,184.500000,37853.000000
93,1,5,711668.800000,249308.800000,1409060.600000,74293.000000,9265.400000,704479.400000,1422.883045,640.603903,58594.335114,306.776140,581.280517,29271.234006
94,0,2,642890.000000,220024.500000,1222086.000000,66061.500000,7976.000000,611106.000000,2600.000000,322.500000,19816.000000,42.500000,165.000000,9923.000000
94,1,5,718770.000000,250917.200000,1510127.000000,75471.600000,9819.600000,755057.400000,9561.734006,2063.751865,77709.736381,1435.437439,759.181559,38869.346126
95,0,2,641794.000000,219774.500000,1283809.500000,66025.500000,8238.500000,641929.000000,23.000000,67.500000,60315.500000,104.500000,98.500000,30180.000000
95,1,5,715886.800000,250322.200000,1506164.400000,75035.200000,9754.600000,752943.000000,9692.134448,1784.502777,88390.391484,1363.132481,882.631656,44236.898481
96,0,2,639692.500000,219572.500000,1178992.000000,65932.000000,7750.000000,589627.000000,1020.500000,509.500000,45752.000000,120.000000,615.000000,22808.000000
96,1,5,711695.800000,249065.000000,1469271.600000,74153.400000,9763.600000,734679.200000,2985.622039,869.245880,47791.472957,434.979816,513.652256,23906.208645
97,0,2,663483.500000,226046.500000,1257350.000000,68811.500000,8157.500000,628660.000000,1813.500000,2619.500000,2123.000000,284.500000,464.500000,1079.000000
97,1,5,712358.600000,248946.200000,1458813.800000,74112.200000,9716.600000,729421.600000,2067.297618,674.361743,109128.498150,396.563942,871.300086,54524.518979
98,0,2,641786.500000,219741.000000,1212942.000000,65998.000000,7578.500000,606320.500000,1283.500000,511.000000,55159.000000,265.000000,417.500000,27581.500000
98,1,5,713346.000000,249669.800000,1480954.200000,74424.600000,9682.200000,740473.800000,2410.473232,966.281408,70521.072001,268.546905,511.489355,35248.682332
99,0,2,643626.000000,220783.000000,1264587.500000,66476.000000,8062.500000,632021.000000,5061.000000,1923.000000,31152.500000,674.000000,181.500000,15679.000000
99,1,5,719221.200000,250805.400000,1423176.200000,75469.200000,9791.000000,711554.200000,9053.409908,2022.730195,88058.468532,1341.890219,516.770742,44034.840222
100,0,2,641303.500000,220258.000000,1353685.500000,66237.000000,8003.500000,676771.000000,2005.500000,708.000000,25011.500000,437.000000,186.500000,12498.000000
100,1,5,710421.200000,248828.600000,1494584.400000,74057.400000,9691.200000,747140.400000,2996.652426,624.764788,27303.014505,252.455620,588.587937,13576.723811
101,0,2,637032.500000,219042.500000,1322863.000000,65744.000000,8058.500000,661646.500000,258.500000,40.500000,11234.000000,43.000000,340.500000,5454.500000
101,1,5,714606.000000,249833.400000,1445170.600000,74751.200000,9662.800000,722557.400000,10132.397604,2074.935045,135801.815715,1494.483643,950.027242,67860.980852
102,0,2,643973.000000,220380.500000,1337022.000000,66295.000000,8079.500000,668460.000000,3390.000000,568.500000,18782.000000,222.000000,225.500000,9391.000000
102,1,6,710205.166667,248878.666667,1399496.166667,74153.166667,9391.000000,699743.333333,2478.402605,738.403383,119031.304609,354.851808,439.036065,59524.838576
103,0,2,640739.500000,219377.000000,1274765.000000,65915.000000,7652.000000,637261.000000,1756.500000,109.000000,18866.000000,81.000000,251.000000,9314.000000
103,1,6,713168.166667,249600.833333,1496373.666667,74458.500000,10135.666667,748074.833333,2991.072128,1296.537108,127539.572577,394.501267,499.335113,63824.183842
104,0,2,638283.500000,218906.500000,1237707.000000,65748.500000,7467.000000,618891.000000,77.500000,222.500000,15743.000000,91.500000,241.000000,7851.000000
104,1,6,717217.833333,250440.166667,1435003.666667,75289.166667,9726.666667,717474.166667,9983.026268,1972.628316,72257.586674,1497.681922,370.612406,36101.081098
105,0,2,642630.500000,220215.500000,1269701.000000,66341.500000,8160.000000,634795.000000,189.500000,920.500000,69761.000000,459.500000,501.000000,34817.000000
105,1,6,711262.166667,249344.166667,1430130.500000,74365.000000,9367.666667,715086.500000,2531.848562,932.340856,66009.432414,499.866315,349.201788,32985.784073
106,0,2,639175.500000,219345.000000,1292422.500000,65888.000000,7497.500000,646204.500000,827.500000,653.000000,68228.500000,178.000000,12.500000,34114.500000
106,1,6,714500.500000,250079.166667,1444655.333333,74887.333333,9533.166667,722206.333333,7265.580104,1422.288697,64499.588708,1207.059190,722.869609,31959.105649
107,0,2,640015.000000,218957.500000,1263703.500000,65793.000000,8020.000000,631852.000000,1165.000000,275.500000,65042.500000,92.000000,108.000000,32466.000000
107,1,6,710223.666667,249060.166667,1476203.500000,74264.333333,9369.166667,737869.666667,2564.224422,704.317499,128228.287561,306.997105,795.046208,63809.204463
108,0,2,650488.000000,221242.000000,1304726.500000,67441.500000,7853.000000,652321.500000,10688.000000,2143.000000,17757.500000,1592.500000,409.000000,8833.500000
108,1,6,711907.500000,249047.833333,1382050.833333,74479.333333,9107.500000,690919.333333,8211.440348,1671.595587,72596.953775,1107.352498,638.585612,36355.625235
109,0,2,638800.500000,218967.000000,1323193.500000,65808.000000,7581.500000,661508.500000,829.500000,81.000000,79118.500000,71.000000,336.500000,39424.500000
109,1,6,709778.500000,249049.500000,1525475.500000,74243.666667,9883.166667,762473.166667,2023.268375,482.120922,90100.708443,106.205252,772.226093,44771.048210
110,0,2,641067.500000,219384.000000,1256467.500000,65840.000000,6999.000000,628081.000000,3033.500000,203.000000,54500.500000,68.000000,401.000000,27185.000000
110,1,6,721385.333333,251814.666667,1444526.500000,76085.333333,10007.333333,722237.333333,10332.589683,2043.437926,88067.072887,1382.797487,963.114335,44095.108563
111,0,2,644279.500000,220793.500000,1231482.000000,66500.000000,7760.000000,615635.000000,2068.500000,1226.500000,66965.000000,630.000000,701.000000,33556.000000
111,1,6,718825.500000,250207.333333,1443770.333333,75170.666667,9482.333333,721762.166667,10975.374158,2052.860741,51135.550913,1546.349644,425.264885,25761.824841
112,0,2,661653.000000,224027.500000,1369517.500000,69215.000000,8574.500000,684579.000000,695.000000,125.500000,22854.500000,104.000000,134.500000,11451.000000
112,1,6,711424.000000,248881.000000,1415823.833333,74164.333333,9443.000000,707828.666667,1885.351249,746.042671,59398.423976,412.764932,555.163640,29675.695222
113,0,2,639142.500000,219320.500000,1301352.500000,65917.500000,7840.000000,650652.000000,1503.500000,173.500000,10044.500000,58.500000,137.000000,4996.000000
113,1,6,715067.000000,249723.000000,1419734.833333,74749.833333,9350.666667,709838.833333,7533.394476,1954.541123,59809.346029,1151.126610,790.382537,29854.752421
114,0,2,639742.500000,219968.000000,1406771.500000,66237.000000,8162.000000,703253.500000,357.500000,593.000000,2587.500000,300.000000,104.000000,1372.500000
114,1,6,711332.166667,249184.666667,1477420.833333,74325.666667,9468.666667,738717.500000,2307.159178,1020.401827,134955.039383,417.247595,976.035291,67514.196578
115,0,2,651405.000000,221970.500000,1288766.500000,67729.500000,8351.000000,644485.500000,13476.000000,2626.500000,41894.500000,1808.500000,601.000000,20694.500000
115,1,6,716534.500000,250451.166667,1440354.833333,75087.500000,9680.333333,719989.500000,6831.806002,1602.390445,84650.890689,1250.978917,579.113882,42240.461522
116,0,2,641428.500000,219927.500000,1406332.500000,66108.000000,8866.500000,702945.000000,1026.500000,314.500000,37818.500000,141.000000,195.500000,18750.000000
116,1,6,715401.833333,249673.333333,1411587.833333,74760.333333,9329.666667,705808.000000,7513.238170,1607.161957,111847.497560,1275.879784,475.674842,55935.787718
117,0,2,641523.500000,220625.500000,1294630.500000,66462.000000,7430.000000,646834.500000,1725.500000,582.500000,45154.500000,356.000000,261.000000,23092.500000
117,1,6,715120.833333,249343.666667,1460782.166667,74630.166667,9478.500000,730265.000000,7841.823585,1975.001491,68775.560789,1261.775524,449.061150,34406.900035
118,0,2,650459.500000,222579.500000,1324019.000000,68013.500000,8476.500000,661929.500000,10372.500000,1755.500000,1230.000000,1394.500000,90.500000,527.500000
118,1,6,714114.333333,249572.833333,1483260.500000,74469.166667,9602.166667,741794.000000,2946.682692,1075.229497,66029.665136,597.019937,254.904830,33007.991840
119,0,2,640518.500000,219960.000000,1300037.500000,66161.000000,7924.500000,650079.000000,3815.500000,34.000000,2040.500000,5.000000,327.500000,1018.000000
119,1,6,714483.166667,249602.666667,1417764.166667,74679.666667,9312.833333,708896.833333,9613.171059,2076.306951,81032.562779,1419.694294,828.438374,40492.252627
120,0,2,640761.500000,219222.500000,1344461.500000,65877.000000,8713.500000,672015.000000,1807.500000,284.500000,109693.500000,163.000000,753.500000,54634.000000
120,1,6,711450.500000,249176.333333,1442617.000000,74319.666667,9298.833333,721290.166667,3012.936151,955.912246,52539.885373,580.870802,683.628899,26249.955368
121,0,2,645344.000000,220517.500000,1278516.500000,66380.000000,8224.500000,639071.500000,2348.000000,947.500000,73573.500000,513.000000,781.500000,36670.500000
121,1,6,720535.000000,250816.333333,1426016.500000,75511.333333,9245.333333,713034.666667,12400.027124,2518.090326,64643.804433,1547.193122,379.047784,32339.277387
122,0,2,643180.500000,220148.000000,1309802.000000,66328.000000,7592.000000,654879.000000,2406.500000,953.000000,22926.000000,418.000000,578.000000,11547.000000
122,1,6,712564.166667,249403.166667,1400284.833333,74442.500000,9006.333333,700023.500000,3254.072547,855.118981,74930.140719,470.035016,434.085885,37376.163860
123,0,2,651183.000000,221982.500000,1291127.000000,67781.000000,7858.500000,645542.000000,7975.000000,1333.500000,17546.000000,1235.000000,7.500000,8776.000000
123,1,6,713235.000000,249555.000000,1483727.000000,74485.833333,9697.333333,741860.000000,4590.367015,1095.218091,250806.718059,442.750274,913.546143,125390.608170
124,0,2,641178.500000,219653.000000,1243713.500000,66104.000000,7422.500000,621881.500000,1177.500000,39.000000,43960.500000,31.000000,123.500000,21958.500000
124,1,6,714882.000000,249659.500000,1410451.000000,74763.000000,9408.833333,705226.500000,10733.943280,2300.678940,81294.867632,1414.895285,699.787924,40635.786440
125,0,2,643244.500000,220646.500000,1338676.000000,66647.500000,7986.000000,669603.500000,723.500000,701.500000,15310.000000,232.500000,233.000000,7853.500000
125,1,6,714666.500000,249888.833333,1476627.833333,74832.833333,9789.833333,738242.500000,9625.106870,2050.860422,96190.983728,1092.518408,497.721949,48072.459159
126,0,2,648609.000000,221140.000000,1262966.000000,67448.500000,8116.000000,631462.500000,10611.000000,2898.000000,46891.000000,1813.500000,695.000000,23380.500000
126,1,6,710938.166667,249115.500000,1350277.166667,74281.166667,8940.500000,675192.833333,3320.788632,807.315665,23534.915561,368.964956,451.663868,11773.538868
127,0,2,639935.000000,219162.000000,1361698.000000,65905.000000,8440.000000,680879.500000,1026.000000,224.000000,67960.000000,45.000000,167.000000,33958.500000
127,1,6,709931.333333,248529.000000,1438117.333333,74054.500000,9183.166667,719083.833333,2688.906449,598.147139,57871.153248,248.185918,605.835351,28936.618833
128,0,2,642494.500000,220662.000000,1330057.500000,66645.000000,7899.500000,665018.000000,445.500000,91.000000,38611.500000,87.000000,163.500000,19223.000000
128,1,6,719886.333333,250959.666667,1418545.166667,75542.333333,9377.500000,709113.333333,10199.387215,1826.495156,79597.460829,1355.413918,596.611753,39688.660356
129,0,2,638883.500000,219076.500000,1223011.500000,65888.000000,7336.500000,611542.000000,99.500000,209.500000,7759.500000,71.000000,89.500000,3869.000000
129,1,6,716521.166667,250787.000000,1419123.833333,74821.500000,9373.500000,709723.000000,9152.174649,2931.535775,58215.536739,954.640901,542.054963,29057.136375
130,0,2,637930.500000,218876.000000,1342207.500000,65766.500000,7781.500000,671095.000000,535.500000,289.000000,20076.500000,81.500000,68.500000,9975.000000
130,1,6,711435.333333,248989.666667,1443565.666667,74248.333333,9293.166667,721803.666667,2161.869381,895.587641,65203.625458,386.201444,709.871682,32621.927470
131,0,2,640730.500000,219773.000000,1419271.000000,66063.500000,7748.000000,709271.500000,824.500000,771.000000,58360.000000,216.500000,321.000000,28853.500000
131,1,6,711411.666667,249137.500000,1391966.333333,74344.166667,9072.333333,696103.166667,3481.280831,1157.052973,61384.032746,626.683178,869.693560,30806.897498
132,0,2,640726.500000,219983.500000,1426176.500000,66313.000000,8297.500000,712450.000000,2435.500000,618.500000,56905.500000,360.000000,381.500000,27726.000000
132,1,6,711331.166667,249368.666667,1482216.000000,74398.166667,9645.000000,740712.833333,4094.499376,1143.585541,118563.783907,253.409035,1050.183476,59009.096325
133,0,2,641261.500000,219658.000000,1376658.500000,66152.500000,8341.000000,688140.500000,2991.500000,595.000000,79443.500000,252.500000,467.000000,39543.500000
133,1,6,712347.166667,249515.666667,1462567.833333,74460.000000,9729.000000,731283.666667,3772.124088,1084.889651,119271.778945,660.511670,1316.528263,59730.990375
134,0,2,640264.000000,219545.000000,1307575.500000,65992.000000,8468.500000,653602.500000,3358.000000,1071.000000,38254.500000,358.000000,118.500000,19305.500000
134,1,6,712913.500000,249324.666667,1469675.500000,74598.333333,9675.166667,734865.500000,9555.237216,2273.883511,61639.579075,1508.093572,1163.414431,30820.883271
135,0,2,647079.500000,220862.000000,1261639.500000,67308.000000,8179.500000,630865.500000,12038.500000,2662.000000,81373.500000,1764.000000,1058.500000,40645.500000
135,1,6,709689.500000,248532.500000,1417301.333333,74072.500000,9927.833333,708590.666667,2711.210292,515.980862,76688.113070,245.468090,918.695346,38327.019645
136,0,2,637352.000000,218948.500000,1327366.000000,65797.000000,7822.000000,663754.000000,2223.000000,676.500000,19599.000000,261.000000,32.000000,9734.000000
136,1,6,712108.500000,249737.833333,1454859.500000,74536.000000,9934.333333,727484.166667,3951.828680,1083.822466,65856.169369,401.703456,460.321144,32998.539035
137,0,2,640097.000000,220092.500000,1227653.500000,66278.500000,7807.000000,613688.500000,2634.000000,1150.500000,22378.500000,483.500000,503.000000,11109.500000
137,1,6,714555.000000,249914.166667,1414557.333333,74928.000000,9436.333333,707312.000000,6859.705314,1665.754025,65750.605510,1033.153425,486.701369,32875.872328
138,0,2,637381.000000,219421.500000,1240215.000000,66038.500000,7902.500000,619992.500000,3130.000000,1086.500000,62401.000000,416.500000,365.500000,31100.500000
138,1,6,710258.833333,249194.833333,1357059.500000,74343.333333,9046.666667,678475.166667,3710.060530,646.323298,68229.508979,468.425969,498.338796,34093.173503
139,0,2,637429.500000,219004.000000,1254786.000000,65789.500000,7791.000000,627117.000000,3088.500000,618.000000,20900.000000,209.500000,123.000000,10768.000000
139,1,6,708824.666667,248745.833333,1437817.833333,74200.166667,9712.833333,718851.333333,2319.146730,369.590502,81711.917365,202.203212,329.267579,40880.398986
140,0,2,638070.500000,219175.500000,1182333.500000,65862.000000,7392.500000,591088.500000,1136.500000,226.500000,12210.500000,76.000000,91.500000,5982.500000
140,1,6,710630.833333,249323.166667,1442160.000000,74425.666667,9478.500000,720777.333333,4481.478157,1125.533861,102568.274790,621.458142,245.459942,50835.115054
141,0,2,651016.000000,222712.000000,1244001.000000,68056.500000,8157.500000,621973.500000,10443.000000,1769.000000,47904.000000,1363.500000,3.500000,23961.500000
141,1,6,718010.000000,250371.000000,1474109.333333,75346.000000,9974.833333,736900.500000,9045.802194,1869.377436,69341.737142,1460.935317,749.611770,34469.693581
142,0,2,646429.000000,221282.500000,1260558.000000,67463.500000,8043.000000,630252.500000,8383.000000,1628.500000,42781.000000,1404.500000,683.000000,21319.500000
142,1,6,711010.000000,248979.666667,1459759.000000,74224.166667,9896.833333,729773.666667,2302.067477,427.642244,73072.904791,186.688168,688.330206,36440.529111
143,0,2,639653.500000,219000.500000,1160520.000000,65814.500000,7129.500000,580259.000000,2495.500000,73.500000,25068.000000,1.500000,184.500000,12485.000000
143,1,6,711013.333333,249149.666667,1479580.666667,74360.833333,9658.166667,739574.500000,2078.933273,605.823315,93592.675201,345.909148,632.748348,46776.419386
144,0,2,638297.000000,219206.500000,1214890.000000,65878.000000,7516.500000,607330.500000,1805.000000,85.500000,7557.000000,26.000000,386.500000,3934.500000
144,1,6,709241.833333,248538.333333,1438550.000000,74101.500000,9577.833333,719244.833333,2664.069720,564.085001,73599.985127,339.654604,206.803785,36762.744658
145,0,2,663810.500000,224227.500000,1255309.500000,69557.000000,8387.500000,627726.500000,2082.500000,465.500000,6271.500000,420.000000,155.500000,3048.500000
145,1,6,716239.500000,250623.666667,1435392.000000,75238.000000,9481.166667,717729.833333,8586.328586,1766.011577,85682.963701,1276.380560,342.723123,42870.469943
146,0,2,640165.500000,219356.000000,1265602.500000,65945.000000,7525.500000,632661.500000,2085.500000,652.000000,28542.500000,231.000000,313.500000,14445.500000
146,1,6,720766.166667,251762.833333,1477338.500000,75759.333333,9558.166667,738690.166667,16777.235921,4714.944235,50123.119136,2119.167420,551.045496,25046.386861
147,0,2,638364.000000,219031.500000,1274346.500000,65808.000000,7486.000000,637146.500000,1489.000000,475.500000,21016.500000,158.000000,9.000000,10580.500000
147,1,6,712805.166667,249620.666667,1440671.666667,74789.666667,9226.833333,720304.166667,8560.400719,1725.231353,41983.350389,1351.389121,462.416629,21042.481915
148,0,2,638558.500000,218867.000000,1246258.500000,65773.000000,7764.000000,623144.000000,1116.500000,343.000000,53151.500000,171.000000,256.000000,26572.000000
148,1,6,707880.333333,248121.500000,1410383.000000,73947.500000,9255.666667,705193.833333,764.095907,272.756149,75097.168036,224.193926,549.222683,37540.251000
149,0,2,640443.000000,219448.000000,1321209.000000,66032.500000,8382.000000,660610.500000,1164.000000,999.000000,34326.000000,465.500000,294.000000,17214.500000
149,1,6,710465.166667,248862.333333,1391793.666667,74193.500000,9377.000000,695857.500000,3600.473831,782.828561,53347.322197,327.563098,314.765521,26725.900083
150,0,2,638269.500000,218623.000000,1331772.000000,65625.500000,7467.500000,665709.500000,948.500000,253.000000,43745.000000,84.500000,114.500000,21820.500000
150,1,6,713827.166667,249524.166667,1428149.666667,74725.333333,9612.000000,714051.666667,11037.911010,1967.417378,51305.815631,1207.912064,504.320004,25599.538561
151,0,2,649566.500000,221557.500000,1296522.000000,67566.000000,8286.500000,648308.500000,8678.500000,1542.500000,23107.000000,1374.000000,883.500000,11554.500000
151,1,6,709850.833333,248601.666667,1444435.666667,74124.333333,9493.333333,722278.000000,4430.258473,734.655172,79840.277579,333.040872,516.985708,39971.544387
152,0,2,639996.500000,219654.500000,1340661.000000,66153.000000,8225.000000,670477.500000,1575.500000,1194.500000,150.000000,552.000000,198.000000,41.500000
152,1,6,712519.333333,249127.666667,1438985.500000,74358.666667,9718.166667,719556.000000,1485.572692,792.044331,31401.701412,499.153506,611.833697,15742.202705
153,0,2,649966.500000,222382.000000,1380202.000000,67951.000000,8455.000000,689724.000000,8568.500000,1644.000000,58213.000000,1353.000000,561.000000,29215.000000
153,1,6,713096.166667,249400.833333,1390948.500000,74504.666667,9350.000000,695385.166667,4138.012865,1396.287747,88160.265900,657.862870,454.560960,44097.857160
154,0,2,636739.500000,219097.000000,1438378.000000,65812.500000,8255.500000,719078.500000,2261.500000,1044.000000,88902.000000,402.500000,738.500000,44538.500000
154,1,6,718026.333333,250238.666667,1435106.000000,75283.000000,9803.500000,717532.166667,11647.468275,2504.276121,92607.384367,1679.237426,456.443772,46327.760481
155,0,2,637561.000000,219220.500000,1363091.000000,65826.500000,8392.000000,681331.000000,940.000000,36.500000,77034.000000,44.500000,221.000000,38521.000000
155,1,6,712214.833333,249260.333333,1465674.166667,74470.666667,9858.666667,732763.166667,3847.691967,951.917305,81792.018843,276.772871,425.302115,40872.748225
156,0,2,650762.000000,221833.000000,1336822.500000,67746.500000,8762.500000,668293.500000,8796.000000,1203.000000,26524.500000,1172.500000,290.500000,13101.500000
156,1,6,716992.666667,250164.333333,1466806.833333,75244.666667,9710.166667,733214.333333,10681.995829,2421.574258,62837.144815,1634.235465,764.859773,31457.816965
157,0,2,638834.500000,219313.000000,1376390.500000,65911.500000,8543.500000,688234.500000,834.500000,645.000000,14450.500000,226.500000,414.500000,7217.500000
157,1,6,712585.000000,249658.166667,1447578.833333,74639.166667,9788.833333,723745.500000,4764.845048,1139.544999,68696.625377,476.181134,617.923516,34340.974432
158,0,2,638113.500000,219183.000000,1242628.000000,65877.500000,8006.500000,621394.000000,1406.500000,158.000000,29240.000000,27.500000,440.500000,14545.000000
158,1,6,712296.166667,249209.500000,1393001.833333,74637.000000,9486.500000,696417.000000,11377.202547,2327.922160,56203.443401,1556.448200,913.447818,27976.186034
159,0,2,639597.000000,219841.000000,1287098.500000,66202.500000,7385.500000,643423.000000,2708.000000,1222.000000,22228.500000,521.500000,377.500000,11047.000000
159,1,6,716697.166667,250162.166667,1415236.333333,74997.500000,9591.833333,707427.833333,7177.656754,1531.165723,67267.595544,1048.742541,288.158184,33724.155277
160,0,2,650040.000000,222550.500000,1364143.500000,68015.500000,8083.000000,682104.000000,7900.000000,1299.500000,92778.500000,1186.500000,146.000000,46370.000000
160,1,6,712054.833333,248819.666667,1433369.333333,74191.000000,10071.166667,716505.666667,3704.754981,918.767230,30224.579609,268.177180,630.641318,14975.746021
161,0,2,645926.500000,221151.000000,1341483.000000,67410.500000,8162.000000,670745.000000,9756.500000,2138.000000,26378.000000,1628.500000,320.000000,13135.000000
161,1,6,712073.333333,249254.166667,1433565.333333,74277.500000,9630.333333,716745.666667,4331.317647,794.268304,62072.419384,549.223922,514.294555,31000.924420
162,0,2,637559.000000,219538.000000,1263485.000000,66000.000000,7593.000000,631710.000000,1076.000000,156.000000,70401.000000,69.000000,98.000000,35288.000000
162,1,6,712366.666667,249204.166667,1411966.500000,74276.833333,9961.000000,705940.166667,3181.520845,997.596013,49642.812967,541.974605,826.170281,24911.747673
163,0,2,639934.000000,219916.500000,1318460.500000,66213.500000,8306.500000,659045.500000,79.000000,63.500000,34699.500000,92.500000,222.500000,17369.500000
163,1,6,715960.666667,250369.000000,1428922.833333,74969.666667,10055.500000,714328.833333,7589.063440,1678.670903,87439.929810,1317.578924,1187.145982,43739.420646
164,0,2,636529.000000,218984.000000,1274807.500000,65781.500000,7734.000000,637257.000000,2876.000000,804.000000,34635.500000,313.500000,164.000000,17499.000000
164,1,6,714500.000000,249524.166667,1402238.333333,74610.333333,9663.500000,701046.500000,7813.030441,2053.099966,67638.298159,1328.514291,289.108255,33757.613343
165,0,2,640251.000000,219629.000000,1306533.000000,66107.500000,7911.000000,653314.500000,2258.000000,37.000000,5973.000000,49.500000,99.000000,2979.500000
165,1,6,712968.166667,249406.666667,1401267.833333,74556.833333,9559.500000,700635.833333,8358.873058,1928.007405,59669.800328,1206.849952,608.255086,29873.430388
166,0,2,640456.500000,220062.000000,1280895.000000,66264.000000,8098.500000,640321.000000,910.500000,558.000000,10084.000000,290.000000,423.500000,4882.000000
166,1,6,711610.500000,249032.500000,1433322.500000,74210.166667,9718.000000,716632.666667,2667.685311,887.815061,47506.119917,445.306792,280.938309,23710.228220
167,0,2,637520.500000,219387.500000,1233977.000000,65902.000000,7322.000000,616983.000000,943.500000,320.500000,42657.000000,130.000000,581.000000,21273.000000
167,1,6,709892.666667,248664.000000,1434510.833333,74046.666667,9771.000000,717298.333333,3317.947843,1161.316925,114369.412875,335.858932,625.159180,57131.629301
168,0,2,639390.500000,219451.500000,1311683.500000,65937.500000,7671.000000,655868.500000,1989.500000,746.500000,151979.500000,254.500000,679.000000,75964.500000
168,1,6,710399.666667,249016.666667,1445414.666667,74167.000000,9933.000000,722548.333333,2865.459455,926.049975,78230.843480,474.126214,584.161507,38981.328803
169,0,2,637265.000000,219474.500000,1220159.500000,66093.000000,7541.500000,610089.500000,2928.000000,1117.500000,8577.500000,490.000000,162.500000,4249.500000
169,1,6,713254.500000,249333.333333,1425338.666667,74559.833333,9474.833333,712607.833333,8544.693085,1925.355696,61421.767899,1304.634229,190.578432,30657.513464
170,0,2,637867.000000,219179.000000,1274748.500000,65867.500000,7502.000000,637370.000000,268.000000,518.000000,53266.500000,207.500000,361.000000,26573.000000
170,1,6,709971.333333,249076.666667,1442303.833333,74188.500000,9256.833333,721237.333333,2848.990328,773.597800,86214.492099,463.356145,484.366052,43097.803628
171,0,2,635787.500000,219201.500000,1250237.000000,65886.500000,7095.500000,625000.500000,499.500000,300.500000,36086.000000,72.500000,255.500000,17896.500000
171,1,6,708344.000000,248317.666667,1385265.000000,73881.666667,9459.666667,692417.500000,5040.759863,1152.535418,81905.077869,616.451314,396.812158,40969.940309
172,0,2,638036.500000,219846.000000,1366444.500000,66182.000000,7666.000000,683194.500000,1117.500000,792.000000,55902.500000,377.000000,346.000000,27863.500000
172,1,6,711311.000000,249193.666667,1342266.000000,74243.166667,9043.833333,671090.000000,3374.615287,906.523702,32412.507550,258.781386,386.973047,16200.988869
173,0,2,634221.000000,218633.000000,1341025.500000,65679.000000,7330.500000,670598.000000,636.000000,55.000000,6094.500000,55.000000,243.500000,3062.000000
173,1,6,716593.166667,250519.666667,1430332.833333,75261.666667,9567.500000,715210.833333,7877.704031,1554.012298,58802.883726,1093.688205,445.062823,29414.274423
174,0,2,634699.500000,218961.500000,1271571.500000,65787.500000,7251.500000,635848.500000,210.500000,318.500000,29170.500000,110.500000,66.500000,14562.500000
174,1,6,719913.500000,251436.666667,1393715.333333,75156.833333,9395.666667,696854.833333,11990.076713,3553.372467,50839.175943,1467.509275,746.076553,25414.754399
175,0,2,641790.500000,220023.000000,1332206.500000,66324.000000,8209.500000,666094.500000,2176.500000,446.000000,12975.500000,266.000000,564.500000,6428.500000
175,1,6,713954.000000,249659.166667,1410538.833333,74635.500000,9495.500000,705218.833333,9570.930867,1976.926522,68307.729971,1430.535069,619.958802,34055.246514
176,0,2,651051.000000,221503.000000,1316023.000000,67639.500000,8022.000000,657935.500000,6544.000000,1186.000000,20190.000000,1167.500000,126.000000,10237.500000
176,1,6,717177.333333,250308.000000,1471146.500000,75095.166667,9816.833333,735533.166667,10843.711198,2078.185346,62382.027326,1676.428487,555.879308,31164.472066
177,0,2,639026.500000,219612.500000,1291175.500000,66108.500000,7630.000000,645642.500000,421.500000,561.500000,19350.500000,289.500000,512.000000,9683.500000
177,1,6,709420.833333,248926.666667,1438228.833333,74055.833333,9342.333333,719084.166667,2632.263754,561.130605,91542.570817,412.938824,388.058701,45714.842919
178,0,2,640334.500000,219878.500000,1294921.000000,66277.500000,7546.500000,647410.000000,1862.500000,292.500000,7177.000000,222.500000,59.500000,3495.000000
178,1,6,710148.500000,249067.833333,1432142.000000,74170.000000,9356.500000,716046.666667,4023.201327,923.314937,83630.311945,525.855810,606.071159,41728.294197
179,0,2,649466.500000,222118.000000,1322200.000000,67878.500000,7806.500000,661146.500000,5635.500000,1109.000000,37535.000000,1139.500000,288.500000,18776.500000
179,1,6,710074.666667,248931.166667,1450507.166667,74058.333333,9494.333333,725214.000000,3072.252684,503.319453,85646.316713,370.150270,450.954050,42868.816382
180,0,2,636075.000000,219035.000000,1224109.500000,65823.500000,6877.000000,612080.500000,774.000000,386.000000,3104.500000,126.500000,434.000000,1549.500000
180,1,6,709679.000000,248808.500000,1449504.500000,74036.166667,9482.333333,724610.333333,2446.395648,714.547351,179595.009186,500.131788,939.907560,89263.971614
181,0,2,638094.500000,219333.500000,1289675.000000,65936.000000,7895.000000,644675.000000,3067.500000,717.500000,54188.000000,262.000000,321.000000,26731.000000
181,1,6,712087.833333,249472.000000,1417725.666667,74542.333333,9324.333333,708837.333333,7000.782038,1296.139910,75862.833245,1184.029654,607.391325,37921.236314
182,0,2,654011.000000,224725.500000,1336860.500000,67651.500000,8042.000000,668257.000000,10913.000000,4221.500000,11365.500000,1322.500000,764.000000,5524.000000
182,1,6,715843.000000,250277.166667,1417390.333333,75110.666667,9703.833333,708669.833333,9955.454753,2133.202398,58876.032879,1289.271457,764.949327,29389.998891
183,0,2,638322.000000,219739.500000,1299896.000000,66023.000000,7461.500000,649980.500000,1054.000000,153.500000,4474.000000,17.000000,335.500000,2249.500000
183,1,6,709513.833333,248737.666667,1450580.000000,73984.166667,9191.166667,725339.666667,1099.303631,389.368577,124130.668132,405.814168,393.570585,62098.768229
184,0,2,637722.500000,219626.500000,1273465.000000,66039.000000,7771.000000,636711.500000,2576.500000,419.500000,97329.000000,169.000000,1031.000000,48593.500000
184,1,6,709786.333333,249007.000000,1498373.500000,74118.666667,9744.000000,749201.500000,3910.128117,911.966922,129404.442024,582.087813,652.765655,64717.511679
185,0,2,648245.000000,222082.000000,1328773.000000,67793.500000,8024.500000,664279.000000,7331.000000,1355.000000,39562.000000,1195.500000,724.500000,19555.000000
185,1,6,707308.666667,248130.000000,1374198.166667,73789.500000,9242.000000,686993.666667,2976.105826,554.043921,51003.172795,448.507432,273.351422,25568.131848
186,0,2,637237.500000,219278.000000,1326689.000000,65891.000000,7591.000000,663388.500000,1263.500000,60.000000,39957.000000,47.000000,68.000000,19981.500000
186,1,6,713584.666667,249784.833333,1509003.666667,74771.500000,9940.166667,754534.666667,8872.389431,2267.983717,111504.310495,1235.040316,781.007558,55641.173070
187,0,2,639414.000000,218899.500000,1204552.000000,65751.000000,7025.500000,602314.000000,1046.000000,911.500000,62434.000000,392.000000,184.500000,31215.000000
187,1,6,709256.833333,248704.500000,1462760.833333,73950.666667,9752.833333,731261.333333,3560.437867,818.299202,40525.599384,421.726083,416.352181,20406.087839
188,0,2,642531.000000,220589.000000,1292043.000000,66451.000000,7997.000000,646046.000000,6957.000000,1501.000000,76737.000000,614.000000,789.000000,38304.000000
188,1,6,710404.500000,249008.833333,1405314.666667,74010.166667,9547.666667,702603.833333,4720.027922,546.236035,61049.970643,416.836265,522.925956,30456.704097
189,0,2,641353.000000,219416.000000,1305138.000000,66015.000000,8510.500000,652561.500000,373.000000,533.000000,20695.000000,417.000000,312.500000,10331.500000
189,1,6,711183.500000,249391.166667,1443218.166667,74300.000000,9664.333333,721590.333333,4591.085302,582.549974,138368.027656,360.214751,1072.850668,69132.428820
190,0,2,640918.000000,219795.000000,1331322.500000,66111.000000,8112.500000,665568.000000,3711.000000,846.000000,55426.500000,317.000000,840.500000,27580.000000
190,1,6,709069.166667,248835.666667,1470474.333333,73927.666667,9604.166667,735229.333333,4244.912304,840.088818,59945.210130,510.320052,648.769455,29952.957810
191,0,2,640628.000000,219516.000000,1273163.500000,65946.000000,7624.000000,636697.500000,563.000000,481.000000,647.500000,177.000000,569.000000,394.500000
191,1,6,709817.333333,248738.833333,1427990.666667,73941.500000,9403.000000,713943.500000,5683.751011,587.787778,100028.345335,448.059799,832.798095,49901.797228
192,0,2,638335.000000,219046.000000,1216938.000000,65782.500000,7343.000000,608537.000000,198.000000,615.000000,23149.000000,274.500000,553.000000,11522.000000
192,1,6,712054.666667,249112.833333,1449359.000000,74068.666667,9527.833333,724585.500000,3943.821863,1013.907198,92094.075908,587.795788,294.536595,46121.511903
193,0,2,640861.500000,219536.500000,1396962.500000,66044.000000,7900.000000,698606.500000,163.500000,1239.500000,302.500000,592.000000,301.000000,199.500000
193,1,6,713339.333333,249323.500000,1464236.166667,74401.166667,9392.000000,732054.833333,10311.275926,1745.506015,83675.958143,1353.549706,652.439269,41876.591753
194,0,2,640832.500000,220043.000000,1330451.000000,66247.000000,7809.500000,665228.000000,993.500000,1320.000000,25866.000000,602.000000,101.500000,12874.000000
194,1,6,709263.666667,248579.833333,1475521.166667,73901.166667,9591.333333,737698.166667,4467.938177,745.663780,114787.278243,498.535661,591.721406,57343.300801
195,0,2,641261.000000,219282.000000,1302474.000000,65831.500000,7639.000000,651321.000000,1924.000000,565.000000,30641.000000,239.500000,72.000000,15354.000000
195,1,6,710638.333333,249221.333333,1485533.166667,74143.333333,9935.333333,742720.000000,3375.461532,828.418104,74724.554192,500.450020,261.917714,37435.794729
196,0,2,639511.500000,219350.000000,1221348.500000,65952.000000,7156.500000,610456.000000,2018.500000,867.000000,66987.500000,432.000000,344.500000,33777.000000
196,1,6,713894.333333,249699.833333,1499519.333333,74554.833333,10029.000000,749416.666667,9409.602217,1521.389761,80970.573467,1250.461704,392.708968,40178.558684
197,0,2,642216.500000,220395.000000,1265253.500000,66401.000000,7811.500000,632656.500000,2042.500000,1073.000000,15705.500000,425.000000,630.500000,7823.500000
197,1,6,718181.500000,251473.833333,1531855.500000,75120.333333,10178.500000,765851.166667,13592.443179,3886.371505,110811.046848,1459.303335,1117.130662,55477.161188
198,0,2,638236.000000,218393.000000,1303892.500000,65560.000000,7996.000000,652011.500000,240.000000,436.000000,92511.500000,265.000000,803.000000,46268.500000
198,1,6,714563.166667,250296.166667,1425016.666667,74426.500000,9466.666667,712405.833333,12384.638595,4735.752014,35653.618015,1644.496351,399.253331,17699.010673
199,0,2,650266.000000,221623.000000,1294606.500000,67579.500000,7973.500000,647304.500000,11157.000000,2880.000000,51102.500000,1916.500000,561.500000,25515.500000
199,1,6,715029.166667,249517.166667,1491500.333333,74470.666667,9774.833333,745599.166667,6937.915571,1846.857549,120955.995484,1353.500359,713.543135,60388.703981
200,0,2,638280.500000,218887.000000,1307345.000000,65723.000000,7794.500000,653751.000000,1490.500000,96.000000,26551.000000,53.000000,714.500000,13328.000000
200,1,6,715352.833333,249781.666667,1497105.000000,74613.166667,9944.500000,748310.000000,8147.670084,1561.673746,59147.624156,1191.705699,569.176525,29325.341038
201,0,2,637012.500000,218609.000000,1363132.000000,65646.000000,7334.000000,681584.000000,622.500000,182.000000,47640.000000,45.000000,243.000000,23844.000000
201,1,6,718433.166667,250665.833333,1507004.333333,75147.166667,9828.000000,753328.166667,9819.755096,2408.298668,183654.464217,1622.360771,741.569731,91479.408064
202,0,2,648910.000000,221701.500000,1251226.000000,67619.000000,7912.500000,625597.000000,8305.000000,1984.500000,44284.000000,1648.000000,269.500000,22160.000000
202,1,6,716920.666667,250031.000000,1503378.166667,74911.666667,9725.833333,751560.333333,9586.481952,2168.119846,128949.532063,1353.532251,632.006703,64414.905570
203,0,2,643262.500000,220749.500000,1350778.500000,66438.000000,7855.000000,674967.000000,4108.500000,907.500000,50185.500000,272.000000,908.000000,24677.000000
203,1,6,710182.833333,248833.333333,1411972.166667,73970.833333,9157.333333,705989.333333,2269.892906,672.485605,65017.786650,241.547384,283.159358,32494.105561
204,0,2,637283.500000,218915.000000,1303849.500000,65771.500000,7280.000000,652421.000000,1699.500000,2.000000,102913.500000,122.500000,444.000000,51890.000000
204,1,6,710354.666667,249125.500000,1487514.333333,74126.666667,9615.000000,743733.833333,4815.523290,659.654897,134587.737525,450.139485,996.988131,67340.885128
205,0,2,639507.500000,219721.000000,1383591.500000,66110.000000,8356.000000,692140.500000,589.500000,445.000000,3520.500000,311.000000,556.000000,2042.500000
205,1,6,710496.166667,249059.666667,1397694.333333,74072.666667,9051.000000,698834.166667,3590.032192,1040.695547,85911.286695,561.384499,485.893335,42987.063261
206,0,2,638579.000000,219394.000000,1207599.500000,65967.000000,8007.500000,603845.000000,920.000000,230.000000,4331.500000,148.000000,277.500000,2164.000000
206,1,6,721420.500000,251269.500000,1495695.000000,75677.833333,9739.833333,747934.833333,12872.104318,2557.312962,103366.381143,1941.679978,673.953366,51656.866602
207,0,2,638268.000000,218827.000000,1270488.000000,65752.500000,8057.000000,635365.500000,30.000000,140.000000,91200.000000,43.500000,1200.000000,45492.500000
207,1,6,717981.666667,250952.833333,1448655.500000,74899.666667,9503.500000,724324.833333,10682.048285,3563.943435,75951.527166,1389.421902,605.677238,37989.171613
208,0,2,639958.000000,219957.000000,1288482.000000,66244.000000,7797.000000,644185.500000,4230.000000,1546.000000,29696.000000,837.000000,208.000000,14951.500000
208,1,6,714515.333333,249468.666667,1398247.000000,74507.166667,9651.000000,699169.333333,4300.914347,1573.451055,37434.683966,935.494418,697.304094,18680.625834
209,0,2,647480.500000,220710.000000,1248113.000000,67217.000000,7923.500000,623857.500000,8974.500000,2210.000000,5379.000000,1735.000000,166.500000,2690.500000
209,1,6,711256.166667,248915.000000,1392693.166667,74054.666667,9260.333333,696322.333333,4228.896523,761.133584,39009.336820,490.829796,445.336078,19529.086458
210,0,2,640538.000000,219353.000000,1389546.000000,65919.000000,8874.000000,695040.000000,829.000000,403.000000,60781.000000,245.000000,393.000000,30695.000000
210,1,6,716507.333333,250169.166667,1452984.333333,74775.666667,9685.500000,726481.666667,8459.294822,1800.406844,90785.246374,1277.653144,840.586055,45433.970073
211,0,2,657831.000000,225667.500000,1370999.500000,68060.000000,8522.500000,685155.000000,11143.000000,4201.500000,21897.500000,1311.000000,181.500000,10580.000000
211,1,6,710351.166667,248914.166667,1408681.500000,73987.500000,9294.166667,704308.500000,922.331722,975.128610,64183.066772,178.833955,397.688076,32001.986880
212,0,2,639476.500000,219685.500000,1296807.000000,66025.000000,7961.000000,648539.500000,790.500000,18.500000,86544.000000,133.000000,251.000000,43192.500000
212,1,6,714796.666667,249918.500000,1486273.500000,74655.833333,9641.500000,742981.333333,5101.919138,1636.701026,127708.631469,924.903313,604.158023,63810.340838
213,0,2,638542.500000,219861.000000,1240618.500000,66132.000000,7665.500000,620333.500000,277.500000,290.000000,53153.500000,326.000000,297.500000,26546.500000
213,1,6,713415.500000,249472.000000,1471570.666667,74469.666667,9706.333333,735825.500000,7423.078152,1474.542302,59906.939973,1134.315310,719.805915,29986.863050
214,0,2,640649.500000,220266.000000,1237959.500000,66389.000000,7334.000000,619018.000000,5195.500000,958.000000,63226.500000,342.000000,491.000000,31621.000000
214,1,6,709451.500000,248755.166667,1438969.500000,73935.333333,9432.500000,719363.500000,3866.522372,620.182075,34443.116878,509.613143,332.531577,17116.081899
215,0,2,647661.000000,221228.000000,1382763.000000,67425.000000,8071.000000,691376.500000,13456.000000,2337.000000,51058.000000,1550.000000,228.000000,25480.500000
215,1,6,712975.166667,250039.666667,1387733.833333,74720.166667,9421.833333,693831.833333,7399.935752,1876.908688,65304.999266,1207.445570,615.905138,32686.989085
216,0,2,636055.000000,218641.500000,1275321.000000,65666.500000,7442.500000,637649.500000,1311.000000,232.500000,6218.000000,200.500000,663.500000,3046.500000
216,1,6,713740.000000,249675.833333,1442207.166667,74565.000000,9654.666667,720956.166667,8959.747188,1760.350099,85060.370497,1338.940128,655.136033,42380.176972
217,0,2,635561.000000,218886.000000,1370450.500000,65736.000000,7986.500000,685207.500000,2657.000000,196.000000,23671.500000,188.000000,396.500000,11789.500000
217,1,6,715211.000000,249520.833333,1416267.666667,74545.000000,9270.833333,708159.333333,7468.817845,1784.074309,83364.306116,1162.276072,889.262881,41779.241587
218,0,2,640732.000000,219414.000000,1289670.000000,66000.000000,7931.000000,644746.500000,3036.000000,841.000000,109816.000000,539.000000,879.000000,54776.500000
218,1,6,712782.833333,249289.500000,1479883.333333,74211.333333,9788.833333,739894.666667,4864.851194,879.210204,93222.863955,330.073561,453.557941,46564.488686
219,0,2,638972.500000,219282.000000,1330351.000000,65842.500000,8142.000000,665157.500000,1841.500000,215.000000,126595.000000,274.500000,1079.000000,63234.500000
219,1,6,714257.500000,249639.000000,1396547.166667,74363.166667,9355.000000,698295.166667,2655.084101,1152.141195,69358.570928,706.817614,545.700773,34654.203499
220,0,2,639769.500000,218944.500000,1367383.000000,65764.000000,7960.000000,683781.000000,1074.500000,129.500000,26659.000000,175.000000,96.000000,13376.000000
220,1,6,715326.333333,250165.000000,1416808.333333,74567.000000,9100.166667,708266.666667,3543.909690,1332.662248,87157.866642,390.954814,551.978084,43218.522922
221,0,3,646445.666667,221210.333333,1305469.000000,67244.666667,8134.666667,652706.000000,11153.295188,2518.900466,73944.346518,1631.926129,233.684022,36839.405922
221,1,6,720151.333333,250375.166667,1457617.333333,75079.000000,9747.333333,728863.333333,11338.949432,1963.947166,99596.207389,1371.725070,880.433353,49805.320679
222,0,3,644790.333333,220871.333333,1340576.333333,67012.333333,7858.666667,670348.000000,9061.568420,2621.947665,199661.584730,1692.261669,876.867277,99843.289579
222,1,6,715213.833333,250019.000000,1396570.833333,74547.166667,9099.666667,698263.000000,2573.106062,889.831445,55063.989386,566.678162,373.055700,27626.302696
223,0,3,640190.000000,219317.000000,1234782.000000,65885.666667,7273.000000,617360.333333,4242.630316,575.282539,51513.143514,195.298632,273.601901,25869.718841
223,1,6,715608.000000,249704.166667,1403840.666667,74591.000000,9197.333333,701887.833333,7972.578023,1930.285248,80198.951636,1301.091209,572.758433,40139.233373
224,0,3,642700.000000,220441.666667,1252391.333333,66350.666667,7163.666667,626201.000000,4343.468737,1134.821376,71369.089127,515.662896,349.805025,35719.031799
224,1,6,713541.833333,249454.000000,1423073.333333,74281.833333,9335.333333,711495.500000,1036.369853,625.759805,82611.993023,377.097431,287.331787,41234.762304
225,0,3,640926.000000,219960.666667,1335301.333333,66205.333333,7614.333333,667644.666667,3259.889875,898.933566,69691.657436,491.941957,205.525884,34800.602077
225,1,6,713944.166667,249334.000000,1426861.500000,74461.166667,9210.333333,713536.000000,6805.072555,1534.539888,74842.214346,1100.749808,470.701486,37500.017022
226,0,3,638559.333333,219123.333333,1298052.000000,65914.000000,7673.666667,649061.666667,2611.224532,566.426420,53560.392997,189.548587,393.197434,26774.041114
226,1,6,711959.833333,249295.000000,1429230.166667,74212.166667,9076.000000,714527.166667,4882.545730,1208.363494,77022.615134,533.153329,754.439306,38466.232505
227,0,3,649046.666667,222838.000000,1276534.666667,67110.333333,7628.000000,638353.333333,10808.539535,3607.152986,31422.967103,1041.444616,606.790464,15694.140570
227,1,6,719253.500000,250700.000000,1456920.000000,75264.666667,9410.333333,728388.500000,10024.193829,2258.100898,89164.261611,1534.868688,636.848927,44524.855900
228,0,3,653797.666667,224630.333333,1333293.333333,67302.000000,7758.000000,666912.333333,22137.170511,7699.972915,14250.642122,1986.677796,217.900589,7356.361480
228,1,6,718911.000000,250692.500000,1428882.166667,75245.500000,9296.166667,714384.833333,10697.385615,1607.325600,64328.369684,1360.198607,646.027713,32140.079410
229,0,3,662903.333333,226779.666667,1276742.666667,68655.666667,7345.666667,638362.000000,20284.138012,7676.661789,19601.466345,1969.105098,327.727868,9733.626491
229,1,6,716738.833333,250056.666667,1460839.166667,74775.500000,9354.833333,730423.833333,6355.467447,1392.421592,28696.634387,1044.072914,693.377583,14403.801656
230,0,3,657705.666667,225986.333333,1300519.000000,67890.000000,7513.666667,650331.000000,24259.435695,8748.322671,31314.750167,2363.781011,320.774410,15667.250110
230,1,6,712170.166667,249259.000000,1399542.000000,74246.333333,8894.166667,699809.500000,4004.507936,862.179409,57923.260342,448.544188,536.218058,28982.534987
231,0,3,657440.666667,225707.666667,1248537.666667,67692.666667,7517.666667,624264.000000,23747.675708,8804.514006,18544.346152,2376.805746,252.503905,9243.359382
231,1,6,718468.666667,250351.000000,1435892.666667,75143.500000,9496.833333,717857.666667,11455.823638,2049.083616,94809.717476,1550.264467,954.213187,47390.379909
232,0,3,656330.000000,225559.000000,1291319.666667,67718.000000,7526.333333,645626.666667,22671.968022,8300.816145,22126.579376,2159.804158,273.896980,11120.984409
232,1,6,716634.500000,250545.166667,1421933.666667,74622.833333,9579.333333,710891.833333,5137.172269,2408.319567,43980.327760,664.111039,527.700883,22002.663834
233,0,3,664237.000000,226818.000000,1278144.333333,68687.000000,7733.000000,639125.666667,21744.544159,7574.526036,40002.381715,1975.801778,340.728631,19976.799582
233,1,6,722240.333333,251714.333333,1455871.500000,75455.000000,9555.666667,727819.166667,14438.625058,4465.689109,42465.736105,1914.026733,623.683057,21307.975279
234,0,3,658009.666667,225267.666667,1314829.000000,67524.000000,7743.666667,657467.666667,26582.832058,8314.768441,9677.476668,2164.101661,286.398712,4841.003844
234,1,6,720960.000000,252021.000000,1457857.833333,75250.500000,9436.833333,728970.333333,12525.033945,4441.126509,91858.883028,1460.476720,588.290296,45921.024577
235,0,3,662672.333333,226316.666667,1313820.333333,68458.333333,7845.000000,656928.000000,39053.543777,11589.646539,89536.933539,4079.033736,966.422613,44727.437314
235,1,6,725716.500000,253761.000000,1488205.500000,75447.000000,9481.666667,744149.666667,22990.358811,7490.227567,149377.871738,2104.806721,944.323509,74665.073322
236,0,3,658292.000000,225768.666667,1380407.000000,67774.666667,7961.000000,690102.666667,28606.430781,9060.745272,7134.540256,2498.492123,724.030846,3756.346481
236,1,6,724104.500000,252960.833333,1452673.166667,75559.666667,9601.166667,726317.000000,19708.977013,6276.374017,56787.139285,1890.746120,694.026516,28415.719130
237,0,3,659714.000000,226771.333333,1350534.000000,68276.000000,7711.000000,674988.000000,27774.267419,9520.638821,116639.498456,2670.872891,813.491651,58137.845385
237,1,6,720452.666667,252099.000000,1447540.500000,74987.333333,9464.500000,723693.166667,19337.806931,6501.779321,65026.860209,1683.045124,932.668528,32249.839697
238,0,3,671997.333333,228679.333333,1346039.333333,69908.333333,8605.333333,673059.333333,31996.876559,9531.512938,36880.166145,3131.212367,872.900274,18473.911864
238,1,6,723495.666667,252824.833333,1435434.833333,75462.000000,9523.333333,717771.000000,19256.966260,6538.504860,35823.385334,1975.139067,790.531397,17863.385308
239,0,3,657626.333333,225728.000000,1245978.666667,67723.000000,7310.000000,623016.000000,26989.612043,9122.760876,69398.791389,2522.227983,359.848116,34723.811552
239,1,6,720826.666667,252596.833333,1475253.833333,75234.000000,9572.500000,737611.500000,19362.409945,6471.936686,72584.406171,1668.796572,307.066632,36316.290072
240,0,3,658558.333333,226489.333333,1314898.666667,68108.666667,8169.666667,657538.000000,23508.991660,7645.278383,26541.132258,1853.580739,483.807354,13297.240240
240,1,6,720623.333333,251952.333333,1422847.666667,74935.833333,9445.000000,711383.833333,18840.710812,6536.169614,39694.328384,1670.630761,519.521254,19873.558559
241,0,3,662570.000000,226866.000000,1295103.666667,68621.333333,7982.000000,647408.333333,21500.516474,7657.539335,26837.976592,2007.765646,417.193800,13251.474341
241,1,6,722224.666667,252473.166667,1466252.500000,75091.000000,9412.666667,732884.000000,18645.000176,6487.249017,97869.198207,1695.045525,646.101299,48467.366072
242,0,3,654128.000000,225308.333333,1329263.000000,67503.666667,7259.000000,664503.333333,24365.565142,8287.686703,96215.871896,2173.565785,79.703618,48185.929906
242,1,6,720431.666667,252018.166667,1443962.333333,74968.333333,9312.333333,721787.000000,19773.268771,6741.908593,72334.798027,1795.139147,536.921058,35981.743950
243,0,3,661992.333333,226913.666667,1271853.333333,68675.666667,7794.000000,635901.000000,24106.923906,7513.702564,63226.426523,1914.360526,232.701526,31672.222099
243,1,6,721486.166667,252167.166667,1439362.833333,75037.833333,9413.666667,719673.666667,18242.136255,6448.473654,80314.319222,1637.731197,583.860048,40163.214972
244,0,3,658631.000000,226341.000000,1305162.333333,67989.000000,7643.000000,652559.000000,27253.887466,9362.119667,62096.179412,2648.302098,76.144599,31172.483037
244,1,6,720391.666667,252119.833333,1429691.166667,74990.000000,9340.833333,714844.833333,20344.933330,7494.708431,90482.680616,2140.209647,449.545480,45270.095900
245,0,3,666151.000000,227423.333333,1310873.333333,68921.000000,8072.333333,655335.000000,33352.256066,10178.832197,30246.770630,3580.495776,218.946467,15238.565374
245,1,6,734290.500000,255219.500000,1470431.333333,77180.166667,10071.500000,735243.000000,23864.515798,7317.048375,65312.347420,2503.412565,752.375516,32639.384502
246,0,3,657517.000000,225529.333333,1256795.333333,67641.333333,7061.333333,628446.666667,23764.351131,8386.862319,34501.667026,2167.329591,361.631796,17246.139227
246,1,6,721476.000000,252612.833333,1442976.333333,75216.500000,9426.666667,721240.833333,22198.494851,7533.247848,60323.937097,2091.983329,390.179731,30063.492065
247,0,3,658274.666667,225780.333333,1324678.333333,67696.666667,7682.333333,662386.000000,24388.372289,8285.976359,27590.354659,2197.412165,115.661383,13788.043685
247,1,6,723675.166667,252846.333333,1485033.666667,75487.833333,9618.333333,742508.500000,17842.652927,6322.423709,111363.642826,1850.499970,585.379839,55741.197442
248,0,3,654707.000000,224975.666667,1274899.333333,67473.333333,7611.000000,637429.000000,25609.508286,8522.782188,81432.674082,2266.107725,289.690640,40614.148897
248,1,6,720493.000000,252515.000000,1447869.666667,75172.833333,9325.166667,723862.500000,18114.379288,6178.844768,74951.451482,1625.919577,549.769169,37277.493843
249,0,3,658697.666667,226202.000000,1351640.666667,67940.000000,7675.666667,675721.666667,26543.191083,9219.370080,47259.084857,2614.716428,100.479959,23485.803617
249,1,6,726090.000000,253348.166667,1482509.166667,75943.166667,9569.666667,741156.166667,19557.421763,6623.926565,79566.219361,2098.332546,923.406856,39798.452547
250,0,3,670511.333333,228382.333333,1287342.333333,69727.000000,8201.333333,643673.333333,29871.449305,9474.113831,50825.576903,3196.138399,321.975499,25370.893354
250,1,6,721589.666667,252441.333333,1440521.666667,75301.166667,9652.166667,720180.833333,18281.470990,6496.942221,73452.562936,1903.633054,931.949644,36646.581439
251,0,3,655361.666667,225366.666667,1272917.333333,67584.000000,7431.000000,636485.666667,23892.665392,7987.837852,60840.342276,2078.533618,265.394047,30447.708336
251,1,6,721090.666667,252423.166667,1525981.000000,75067.666667,9578.833333,762978.333333,20648.070908,7547.994688,192956.689275,2111.480576,1141.574412,96371.831574
252,0,3,658577.333333,226380.000000,1283812.666667,68048.000000,7421.666667,641968.666667,25286.930515,8921.082782,76194.857317,2424.363559,191.292679,38100.153213
252,1,6,720287.333333,251893.333333,1479636.166667,74843.500000,9489.166667,739712.166667,19382.488142,6503.711342,71070.345915,1727.769347,589.110464,35342.032037
253,0,3,655035.666667,225247.000000,1281647.000000,67467.333333,7495.000000,640806.000000,23014.261844,8132.543800,34213.983408,2101.229217,395.538452,17003.569057
253,1,6,721139.833333,252807.666667,1394338.166667,75299.333333,9282.166667,697172.833333,17667.693930,6336.485032,50271.499929,1655.763738,530.566809,25058.320351
254,0,3,654109.333333,225012.000000,1297105.000000,67455.666667,7623.000000,648560.666667,20782.447086,7185.020575,101709.097885,1792.374651,685.294584,50882.500019
254,1,6,721540.333333,252490.833333,1431515.666667,75116.166667,9467.833333,715578.500000,17599.998643,6473.099294,55037.892176,1718.650771,960.332133,27338.398397
255,0,3,666434.000000,227276.666667,1300054.000000,68892.666667,7985.333333,650063.000000,25679.502955,8773.581949,55812.505164,2388.313538,704.642857,27934.788311
255,1,6,720084.500000,252264.833333,1483840.166667,75025.666667,9700.500000,741774.666667,17510.897062,6480.645169,83573.987798,1720.549008,739.850154,41634.837507
