0,0,36,672235.222222,232349.000000,1308246.277778,69584.750000,8327.833333,653622.055556,13646.591335,4643.654171,76063.560534,1539.818972,673.947554,37980.828919
0,1,26,716305.307692,250424.076923,1393630.346154,74580.500000,9129.076923,696310.769231,14854.864719,4989.835298,64528.932886,1408.227425,679.796854,32231.911537
1,0,35,670444.514286,231918.000000,1338439.000000,69394.657143,8494.085714,668730.600000,9289.751094,3178.140499,63888.225297,1030.441790,573.631159,31935.415749
1,1,25,710459.840000,248467.000000,1396388.680000,73994.240000,9247.520000,697724.200000,5122.959088,1135.856505,98201.017087,770.207052,1011.740169,49038.677463
2,0,35,675773.057143,232889.771429,1343809.085714,70198.685714,8557.828571,671355.742857,11299.047244,2834.406273,71006.121059,1550.179690,711.109977,35466.088325
2,1,25,712567.840000,249053.440000,1361543.440000,74433.920000,9230.080000,680320.800000,8433.058850,1646.528204,92608.835328,1180.685629,886.644502,46310.105423
3,0,35,670569.571429,231592.685714,1314689.371429,69346.771429,8468.571429,656860.171429,7281.433812,2120.817777,65082.198084,995.413714,762.864500,32489.758711
3,1,25,709212.320000,248107.960000,1354662.680000,73789.320000,8976.320000,676897.480000,3314.827497,744.467352,76211.466433,382.598768,827.539907,38036.687733
4,0,36,671694.777778,231706.777778,1325823.861111,69552.861111,8513.166667,662414.694444,8853.047122,1968.731926,79748.859275,1270.970062,853.404668,39687.939509
4,1,25,713122.360000,249041.640000,1389798.760000,74417.360000,9311.640000,694468.840000,8984.550869,1774.261940,61725.884839,1227.531242,831.828342,30856.856224
5,0,36,671906.638889,232382.472222,1340257.888889,69606.916667,8439.083333,669647.055556,11098.359999,3589.613485,55277.937291,1246.717253,755.090259,27607.998754
5,1,25,710012.920000,248079.120000,1376019.120000,73874.960000,9020.360000,687571.280000,4780.941513,1130.594262,63583.427196,696.147541,688.620934,31740.596096
6,0,36,672210.750000,232037.027778,1329601.611111,69630.138889,8457.000000,664324.027778,13355.974960,3955.591299,96390.181566,1697.904217,728.993217,48060.689548
6,1,25,710610.880000,248466.520000,1348993.880000,74072.720000,8871.280000,674062.320000,6159.259834,1462.608003,67082.284931,936.500316,750.700714,33483.886566
7,0,36,670903.388889,231929.055556,1320387.944444,69461.138889,8387.500000,659674.472222,12036.745528,3825.206218,72237.550408,1434.058405,701.010917,36135.091828
7,1,25,710706.840000,248538.160000,1379107.360000,74096.160000,8991.840000,689101.920000,6225.201424,1279.982365,77314.671591,937.300749,782.529983,38653.702478
8,0,36,672546.055556,232283.055556,1339860.805556,69647.416667,8360.500000,669454.500000,11494.811175,3519.816377,75625.475554,1307.964117,704.487304,37811.809064
8,1,25,710255.320000,248423.560000,1375409.600000,73998.720000,9015.720000,687241.640000,6387.596247,1245.928219,66713.450943,769.235284,592.207701,33241.850765
9,0,36,672432.194444,232189.583333,1336370.250000,69718.888889,8369.722222,667693.027778,11896.187722,3505.366967,82011.258548,1454.210950,784.603779,40892.959313
9,1,26,710990.807692,248758.423077,1380428.615385,74211.769231,8978.076923,689772.115385,6622.428767,1579.073978,95535.252193,1014.892238,825.577184,47689.761515
10,0,36,671088.166667,231997.138889,1324213.722222,69397.027778,8280.388889,661593.944444,11567.273511,3745.701923,68489.120950,1225.345722,923.386830,34094.784282
10,1,26,711325.538462,248518.192308,1369524.038462,74084.192308,8926.884615,684332.615385,5929.310190,1338.628719,64724.678117,892.687990,804.006809,32344.290035
11,0,36,671513.000000,232108.250000,1331351.250000,69571.805556,8458.222222,665122.555556,11596.915962,3551.528086,62705.111245,1332.886296,813.904346,31195.557357
11,1,26,713197.076923,249221.384615,1396926.038462,74349.115385,9040.153846,697998.230769,10281.687574,2767.428410,84187.453430,1321.151343,585.877691,42095.850555
12,0,36,672892.888889,232490.694444,1303426.944444,69863.694444,8386.500000,651199.111111,11462.811381,3181.781601,73104.916906,1349.691113,789.410416,36494.557008
12,1,26,713619.576923,249039.923077,1375323.384615,74395.769231,8945.461538,687230.692308,8238.828535,1726.507522,79624.823631,1279.769219,557.708721,39758.992427
13,0,36,672866.222222,232393.500000,1292569.222222,69688.916667,8266.361111,645846.000000,12097.721204,3813.635780,65181.075414,1354.596052,645.064172,32523.737799
13,1,26,712381.576923,248711.076923,1375954.346154,74222.576923,8935.846154,687535.461538,8037.246114,1594.935299,52460.637893,1166.161526,800.526639,26256.533422
14,0,36,670449.638889,231789.583333,1301296.972222,69429.527778,8098.027778,650206.444444,10491.418419,3139.966926,59142.644448,1166.470614,656.939600,29545.454555
14,1,26,710040.884615,248245.384615,1374798.346154,73874.307692,8866.538462,686975.692308,3890.984286,1093.028083,68521.583863,473.656543,752.224252,34233.021913
15,0,36,671189.000000,232132.111111,1315944.250000,69618.805556,8209.916667,657532.305556,10942.914034,3262.885105,65014.542332,1282.946756,588.302897,32440.981190
15,1,26,712294.576923,248837.769231,1365213.192308,74194.423077,8884.038462,682148.576923,8757.442721,2382.969194,78511.398554,1059.982082,796.702844,39214.960092
16,0,36,670333.055556,231876.305556,1337826.055556,69459.388889,8262.361111,668427.361111,10469.755587,3190.819825,70949.815552,1220.238872,693.286343,35424.881444
16,1,26,711555.653846,248746.961538,1374295.615385,74165.500000,9049.384615,686659.923077,5608.656887,1400.248205,81965.970324,757.977889,678.058261,40942.305607
17,0,36,670808.972222,232179.527778,1336708.750000,69556.555556,8250.750000,667854.166667,11147.452812,3385.188576,79451.622856,1253.686463,626.789942,39713.867054
17,1,26,712288.769231,248712.807692,1361010.269231,74245.000000,9103.807692,679986.769231,7666.572413,1842.664856,73502.853063,1161.530820,922.955121,36699.748998
18,0,36,671738.166667,232124.666667,1321441.611111,69615.111111,8365.666667,660324.972222,11045.720500,3230.082722,57366.620057,1290.271586,610.751995,28709.581781
18,1,26,712861.307692,249144.615385,1378375.076923,74355.423077,9034.153846,688698.653846,7669.186627,2096.158668,71765.369774,1054.429637,673.334166,35766.950832
19,0,36,672389.916667,232053.527778,1306868.111111,69598.666667,8353.416667,652963.555556,10500.350754,3216.531409,64706.073050,1369.490416,812.321515,32291.812676
19,1,26,712569.692308,248962.923077,1389938.076923,74321.615385,9204.730769,694528.769231,7137.409322,1667.908292,77280.367181,1019.025556,710.584622,38620.496607
20,0,36,671094.416667,231960.916667,1322449.861111,69444.916667,8139.472222,660785.222222,12435.209057,3701.015487,75361.106795,1428.637859,807.494117,37716.537467
20,1,26,713003.076923,249161.307692,1373019.884615,74268.730769,9142.653846,686023.038462,9896.050202,2840.273900,78469.839357,1168.670137,843.799053,39158.015228
21,0,36,672579.166667,232164.805556,1333485.638889,69687.777778,8431.111111,666308.083333,11910.497549,3398.210238,76565.554903,1474.478234,764.020680,38290.904462
21,1,26,713175.461538,249244.692308,1403515.384615,74298.000000,9320.423077,701236.653846,10741.963165,3226.398859,96683.195724,1150.028829,893.875752,48431.194791
22,0,36,671289.000000,232044.916667,1335989.277778,69532.333333,8403.861111,667518.833333,10654.171118,3204.253999,80658.939772,1287.864339,823.015160,40310.727958
22,1,26,714885.500000,249577.346154,1418607.653846,74557.884615,9423.961538,708838.807692,11724.332027,3707.178649,90968.196098,1370.095486,703.451408,45477.861480
23,0,36,673864.916667,232467.972222,1342322.694444,69854.222222,8548.416667,670657.250000,11788.097272,3539.755779,83674.150658,1535.000545,793.118787,41757.660212
23,1,26,712560.461538,249175.576923,1381057.038462,74214.076923,9221.269231,689972.961538,10694.666116,3726.867298,79022.788768,1162.378362,735.184151,39380.413989
24,0,36,674813.250000,232616.666667,1331847.583333,69984.277778,8473.694444,665476.416667,11774.852324,3375.616594,63497.345263,1489.782266,711.837677,31650.171279
24,1,26,715861.000000,250044.807692,1394056.923077,74687.500000,9565.692308,696611.692308,13274.723332,3965.053516,106932.821964,1535.584335,948.410726,53492.321295
25,0,36,671046.444444,232075.361111,1310432.305556,69455.305556,8296.222222,654733.250000,11077.317313,3387.286370,70615.587106,1212.838677,804.335409,35224.607281
25,1,26,715005.038462,249796.423077,1398517.500000,74439.961538,9243.346154,698719.307692,15608.103693,5404.100887,92833.895345,1562.451808,692.169663,46275.256143
26,0,36,670436.638889,231790.277778,1317338.972222,69365.555556,8347.472222,658189.472222,9809.824792,3046.163668,78720.686556,1091.203628,795.604399,39254.459337
26,1,26,714946.500000,249900.692308,1379404.576923,74638.038462,9192.000000,689205.884615,12150.844897,4042.803804,78145.092345,1385.126472,683.630973,38991.275420
27,0,36,670791.277778,231771.055556,1315930.194444,69425.805556,8352.472222,657414.500000,11129.574492,3627.346933,63721.635527,1341.406265,781.332391,31694.522762
27,1,26,716207.653846,249864.153846,1402922.807692,74599.000000,9306.692308,701000.230769,16285.851410,4907.171900,76821.649577,1909.701346,799.567661,38340.767488
28,0,36,672492.944444,232169.277778,1306768.055556,69696.555556,8439.777778,652907.027778,13835.436460,3958.013205,71851.436307,1718.280090,859.126854,35851.810569
28,1,26,711480.000000,248824.538462,1384596.000000,74024.461538,9076.730769,691810.115385,10644.461333,3450.851246,89403.244543,972.906993,751.229124,44600.727976
29,0,36,672347.500000,232151.694444,1325515.361111,69701.222222,8297.166667,662304.805556,11376.465538,3336.675656,86408.338486,1466.470425,785.497843,43154.996525
29,1,26,713637.961538,249314.730769,1397734.615385,74387.807692,9231.307692,698398.153846,12513.909991,3853.470839,85578.934208,1437.731841,730.812286,42719.459850
30,0,36,672816.111111,232395.111111,1324933.250000,69745.638889,8409.305556,661961.750000,11628.677843,3545.288899,61283.975749,1411.579497,732.108971,30693.791693
30,1,26,715447.884615,249859.230769,1385198.730769,74686.230769,9106.923077,692078.692308,13784.577612,3828.574914,84414.856208,1549.379908,839.186920,42140.157427
31,0,86,669594.046512,231826.674419,1300246.918605,69311.720930,8186.662791,649644.604651,8397.555003,2600.137700,65384.954692,934.995979,767.226712,32642.237270
31,1,35,713654.800000,249371.200000,1392699.057143,74381.371429,9151.971429,695896.914286,10311.282882,3356.171899,88702.864200,1139.826631,711.852091,44360.684477
