0,-1,694954,238880,1388993,71425,9219,694430,0
0,-1,689309,237536,1332373,70877,8074,666172,2
0,-1,640902,218905,1304783,65841,8340,652231,0
0,-1,641695,219833,1216993,66117,6661,608560,0
0,-1,641767,219016,1365450,65839,8493,682778,0
0,-1,655081,223913,1244851,68575,8138,622408,0
0,-1,637494,219071,1300646,66185,8056,650355,0
0,-1,665229,224756,1628306,69719,9801,814249,0
0,-1,664364,223731,1324947,69652,8921,662484,0
1,-1,697750,240255,1432597,71983,8919,716225,2
1,-1,643779,219542,1395378,66039,9272,697734,0
1,-1,657782,223207,1467293,69036,7569,733621,0
1,-1,643407,219957,1266606,66151,6958,633174,0
1,-1,634853,219353,1239140,65329,7104,619622,0
1,-1,643068,220556,1234672,66953,7770,617124,0
1,-1,642431,219871,1294643,66309,7547,647141,0
1,-1,640898,218596,1175778,66125,7149,587938,0
2,-1,636998,218569,1270562,65527,7265,635328,2
2,-1,647225,220554,1303438,66560,8766,651439,0
2,-1,641841,220842,1318110,66630,7814,659117,0
2,-1,640408,219008,1363001,65783,7695,681411,0
2,-1,638664,220840,1238347,65989,6802,619176,0
2,-1,636843,219078,1385906,66242,8737,692876,0
2,-1,644793,220656,1337648,66575,8188,668943,0
2,-1,642252,218907,1332071,66249,8297,666073,0
3,-1,643833,221792,1352288,66911,7714,676226,2
3,-1,641814,219021,1220334,65954,8623,610024,0
3,-1,661052,224118,1257505,69302,7907,628607,0
3,-1,640329,219321,1233550,65928,7246,616795,0
3,-1,633768,219078,1321283,65281,6682,660693,0
3,-1,642227,218567,1242411,65987,7516,621126,0
3,-1,642825,220282,1270345,66516,8593,635316,0
3,-1,646248,219932,1302266,66811,8121,650979,0
4,-1,633448,219027,1178793,65912,7067,589503,2
4,-1,641547,219469,1273757,66020,7818,636739,0
4,-1,639441,219109,1321349,65908,7845,660696,0
4,-1,646388,221473,1292733,66916,7934,646565,0
4,-1,637329,221021,1213056,66077,6767,606649,0
4,-1,645756,220100,1221183,66604,7564,610608,0
4,-1,646364,221634,1265215,67126,8351,632615,0
4,-1,641962,218189,1302332,66038,7873,651461,0
5,-1,635948,220030,1219159,66029,6996,609644,2
5,-1,638646,218409,1321739,65707,8499,660559,0
5,-1,641425,220101,1349374,66148,7066,674735,0
5,-1,636429,218443,1201760,65658,7091,600896,0
5,-1,654594,224145,1343316,68682,8166,671590,0
5,-1,643407,219325,1309743,66253,7824,654862,0
5,-1,644337,220047,1307027,66416,8412,653559,0
5,-1,644860,219840,1367213,66543,7619,683653,0
6,-1,639868,220880,1351537,66791,8358,675799,2
6,-1,640979,219633,1299527,66161,8636,649699,0
6,-1,638949,219287,1229272,65922,7813,614667,0
6,-1,642501,220643,1212993,66567,7622,606461,0
6,-1,636031,220445,1245611,65855,6469,622865,0
6,-1,663185,223862,1333099,69585,8680,666444,0
6,-1,643310,219806,1312348,66326,8249,656254,0
6,-1,638918,218086,1178720,65896,7284,589455,0
7,-1,647186,221712,1219777,66896,8146,609664,2
7,-1,638402,218950,1253751,65964,8445,626361,0
7,-1,637925,219016,1325742,65721,7552,663018,0
7,-1,642340,219229,1204974,65860,8765,602443,0
7,-1,630915,219028,1284734,65173,6491,642399,0
7,-1,636881,217359,1248883,65734,7534,624505,0
7,-1,645958,221689,1261366,67223,8069,630651,0
7,-1,647679,220797,1272238,67144,7684,636173,0
8,-1,642737,220797,1426528,66683,8556,713000,2
8,-1,646105,219681,1312130,66135,7804,656175,0
8,-1,640879,220326,1270499,66257,7507,635301,0
8,-1,644231,220738,1366596,66677,8274,683428,0
8,-1,643689,218916,1251357,65534,5577,625664,0
8,-1,643383,220143,1229601,66780,7913,614531,0
8,-1,662262,224680,1370054,69744,9129,685053,0
8,-1,640160,218376,1320247,66023,8107,660258,0
9,-1,644631,220668,1270122,66465,7160,635035,2
9,-1,642169,219493,1300454,66050,8103,650224,0
9,-1,638210,219418,1352525,65934,7236,675977,0
9,-1,643386,219997,1291867,66190,8056,645978,0
9,-1,645277,218500,1367975,65428,6373,683820,0
9,-1,640236,218725,1246470,66124,8308,623176,0
9,-1,644685,220647,1262225,66640,8504,631072,0
9,-1,643020,219435,1302838,66469,7487,651475,0
10,-1,636871,219426,1294808,66148,7339,647468,2
10,-1,642456,219513,1186979,66117,8218,593262,0
10,-1,658433,223907,1285921,69283,8367,643011,0
10,-1,637051,217939,1193595,65477,7117,596850,0
10,-1,652672,221730,1224081,66787,6568,612075,0
10,-1,660084,223140,1357833,69324,8579,678859,0
10,-1,641500,220097,1335380,66444,7811,667680,0
10,-1,644802,218914,1174731,66276,6134,587493,0
11,-1,640066,219465,1232205,66122,7685,616075,2
11,-1,661339,222876,1298632,68960,8903,649275,0
11,-1,639843,219249,1311460,65958,7363,655778,0
11,-1,640609,219568,1286163,65999,7345,643018,0
11,-1,665876,223252,1361154,68804,7600,680499,0
11,-1,641835,219385,1256409,66297,6784,628131,0
11,-1,643973,220991,1268000,66895,8561,634633,0
11,-1,642461,218456,1451106,66133,7629,725616,0
12,-1,642406,219372,1346702,66078,8449,673301,0
12,-1,645935,220734,1355858,66797,7701,677580,2
12,-1,640118,219773,1292846,66017,7498,646409,0
12,-1,637738,218798,1329238,65709,7744,664518,0
12,-1,651339,221343,1256504,66582,6763,627923,0
12,-1,639869,219023,1259993,66135,6864,629991,0
12,-1,643931,220860,1246180,66728,8040,623086,0
12,-1,640954,218295,1267402,66008,7336,633757,0
13,-1,641573,219242,1350930,66027,8031,674454,0
13,-1,642364,219761,1366643,66200,8137,683317,2
13,-1,642451,220754,1418139,66622,7999,709133,0
13,-1,643550,220494,1289097,66570,8342,644582,0
13,-1,640619,218148,1418648,65251,6839,709373,0
13,-1,638203,218390,1320635,65934,8087,660280,0
13,-1,644645,219996,1282430,66400,7598,641157,0
13,-1,646167,220919,1195426,66965,7333,597777,0
14,-1,643306,220273,1363016,66556,8565,681408,0
14,-1,642273,219185,1379892,65973,7762,689982,2
14,-1,637531,219314,1314049,65930,7190,656923,0
14,-1,640494,219363,1338783,65929,8556,669439,0
14,-1,667420,223493,1449674,68887,8091,724765,0
14,-1,639910,219452,1319729,66333,7715,659934,0
14,-1,662294,224088,1436704,69592,8347,718456,0
14,-1,643410,219656,1205967,66391,7065,603045,0
15,-1,640222,218551,1321720,65697,7872,660944,0
15,-1,632588,218675,1192730,65879,7231,596412,2
15,-1,636871,219633,1258700,66026,7769,629403,0
15,-1,638316,218937,1223378,65737,7621,611765,0
15,-1,642753,218502,1339934,65467,7147,669994,0
15,-1,659021,223489,1415378,69427,9447,707674,0
15,-1,648846,221986,1293944,67372,7193,646732,0
15,-1,639643,218553,1170757,65984,6745,585433,0
16,-1,641598,219642,1311446,66146,7859,655681,0
16,-1,637022,221058,1335889,66964,8153,668005,2
16,-1,637987,219368,1222059,65981,7121,611088,0
16,-1,643507,220443,1306987,66457,8256,653394,0
16,-1,647439,220642,1250535,66347,6885,625330,0
16,-1,644331,220202,1272161,66793,7447,636060,0
16,-1,643229,220386,1352588,66644,7743,676297,0
16,-1,639058,218689,1292923,66007,7214,646512,0
17,-1,637668,218391,1361090,65759,8214,680608,0
17,-1,637528,219835,1390348,66256,7936,694651,2
17,-1,642718,219855,1218016,66141,6900,609044,0
17,-1,639851,219566,1268775,65979,7528,634433,0
17,-1,641839,218796,1332711,65509,6863,666236,0
17,-1,642172,219652,1240537,66421,7714,620153,0
17,-1,639654,219262,1290738,66244,7968,645352,0
17,-1,639803,218785,1177067,66087,7065,588593,0
18,-1,660467,223881,1373280,69336,8498,686549,0
18,-1,638714,219677,1321974,66183,7898,660908,2
18,-1,640556,219557,1197003,66044,7151,598552,0
18,-1,636784,218793,1394838,65690,8690,697460,0
18,-1,643587,219166,1248093,65688,6727,624083,0
18,-1,638434,218410,1356092,65904,8287,678008,0
18,-1,640407,219425,1267876,66288,6911,633906,0
18,-1,643133,219524,1339796,66325,7628,669918,0
19,-1,641161,219133,1369516,65962,8642,684761,0
19,-1,635247,219043,1221117,65996,6864,610595,2
19,-1,637814,219205,1201361,65930,6942,600425,0
19,-1,639965,218484,1366865,65624,8242,683508,0
19,-1,642684,218864,1244969,65548,7112,622537,0
19,-1,642821,220476,1283390,66971,7664,641751,0
19,-1,639425,219356,1264266,66278,6994,632125,0
19,-1,639714,218552,1231090,65942,6946,615586,0
20,-1,641024,219027,1255873,65955,7386,628002,0
20,-1,639117,221201,1260353,66962,7691,630291,2
20,-1,642158,219871,1274521,66173,7119,637347,0
20,-1,638090,217993,1437942,65454,8300,719068,0
20,-1,649233,221784,1221604,66771,6932,610806,0
20,-1,659513,223297,1417326,69388,9355,708619,0
20,-1,644161,221258,1241920,67119,6918,620993,0
20,-1,644852,221133,1301084,67131,8086,650712,0
21,-1,639204,218790,1209908,65834,7252,604997,0
21,-1,635921,219903,1205675,66182,8159,602866,2
21,-1,644436,221232,1422924,66867,8002,711218,0
21,-1,639969,219216,1328003,65807,8702,664046,0
21,-1,641616,219149,1224390,65613,6932,611769,0
21,-1,640514,219890,1276781,66492,8012,638249,0
21,-1,640075,219908,1307320,66507,7745,653665,0
21,-1,642804,218562,1302896,65934,8281,651312,0
22,-1,645328,220661,1284967,66708,7640,642552,0
22,-1,642158,219947,1217645,66181,7511,608827,2
22,-1,660870,224061,1281529,69289,7766,640599,0
22,-1,641583,219215,1255429,65830,7626,627662,0
22,-1,641876,219199,1211898,65618,6997,605821,0
22,-1,636030,218216,1277861,65926,7501,638951,0
22,-1,647412,220327,1192798,66510,8285,596352,0
22,-1,643377,218475,1253862,65912,7632,626987,0
23,-1,638634,219017,1202690,65957,6949,601147,0
23,-1,636710,219617,1298901,66078,6974,649512,2
23,-1,638435,219320,1279848,65974,6927,639958,0
23,-1,639367,219264,1341725,65852,8030,670993,0
23,-1,649282,220709,1138687,66375,7663,569453,0
23,-1,635801,218209,1321143,65915,7368,660615,0
23,-1,649792,221767,1303942,67372,8084,652047,0
23,-1,648336,220786,1394227,66981,8303,697179,0
24,-1,639617,218674,1294480,65756,7247,647253,0
24,-1,640951,219999,1315758,66228,7667,657948,2
24,-1,641946,220578,1304573,66575,7648,652085,0
24,-1,638699,219350,1205077,65803,7271,602584,0
24,-1,644595,218949,1193540,65560,7432,596803,0
24,-1,659210,222994,1466412,69319,9119,732988,0
24,-1,667849,224798,1381706,69870,9232,690704,0
24,-1,644025,219354,1299698,66119,7709,649886,0
25,-1,658541,223264,1304893,69127,8030,652409,0
25,-1,642720,221401,1302341,66934,8105,651207,2
25,-1,638950,219348,1202888,65976,6829,601491,0
25,-1,641833,220340,1361120,66172,7973,680599,0
25,-1,642915,218939,1158274,65602,6925,579191,0
25,-1,636730,218522,1319257,66000,7693,659664,0
25,-1,647627,220854,1272157,66798,8215,636050,0
25,-1,650560,220753,1389670,66813,8281,694798,0
26,-1,638150,219038,1160886,65938,6995,580490,0
26,-1,642817,220595,1323200,66366,7828,661650,2
26,-1,641153,219841,1285041,66085,8120,642567,0
26,-1,638802,219387,1251064,65809,7035,625581,0
26,-1,642393,219164,1263446,65573,7057,631670,0
26,-1,637576,219138,1213690,66189,7090,606784,0
26,-1,645276,220204,1306033,66570,8047,653029,0
26,-1,648094,220354,1414999,66484,7874,707547,0
27,-1,639211,219361,1244411,66073,7739,622204,0
27,-1,641483,219595,1342730,66064,7633,671428,2
27,-1,636653,218493,1234364,65735,7429,617219,0
27,-1,637447,218804,1369873,65625,8452,684682,0
27,-1,643673,219888,1320608,66007,6677,660294,0
27,-1,638412,219218,1295869,66313,8396,647906,0
27,-1,649943,220898,1173493,66821,8266,586640,0
27,-1,643476,218911,1360232,66032,8395,680173,0
28,-1,645395,219036,1283466,65955,7345,641822,0
28,-1,639812,219635,1241379,66067,6770,620740,2
28,-1,639683,219147,1293321,65868,7109,646699,0
28,-1,642445,219316,1437443,65782,8284,718734,0
28,-1,643248,219008,1216037,65683,6613,607896,0
28,-1,639716,220128,1170226,66763,8143,584895,0
28,-1,664480,224267,1545364,69721,9709,772360,0
28,-1,649745,221963,1283270,67292,8286,641695,0
29,-1,663872,223714,1284223,69333,8478,641951,0
29,-1,640968,220588,1219053,66498,7395,609578,0
29,-1,637750,219442,1191310,65989,7105,595711,2
29,-1,638600,218787,1375343,65615,7420,687721,0
29,-1,643745,219603,1297894,65761,7229,648853,0
29,-1,638366,218502,1218566,66011,8073,609267,0
29,-1,645615,220789,1380198,66810,8188,690093,0
29,-1,663615,223378,1412446,69208,8924,706208,0
30,-1,642846,219130,1252268,65989,7100,626175,0
30,-1,636699,219453,1235722,65966,6549,617940,0
30,-1,644219,221430,1351214,66933,7727,675002,2
30,-1,640006,219834,1287029,65998,7292,643547,0
30,-1,663124,223785,1374958,68966,7804,687454,0
30,-1,647418,221777,1238524,67361,7580,619478,0
30,-1,644779,220126,1311874,66513,8098,655975,0
30,-1,642231,218814,1224364,65949,8179,612227,0
31,-1,643024,219805,1258699,66210,6916,629400,0
31,-1,636674,219008,1201712,65780,6847,600834,0
31,-1,637984,219523,1327496,66050,7266,663375,2
31,-1,639005,218956,1275586,65681,7146,637848,0
31,-1,643850,219882,1351230,65902,6874,675692,0
31,-1,638774,218802,1331320,66127,8153,665651,0
31,-1,643674,219942,1367769,66532,7996,683675,0
31,-1,645037,220399,1257461,66531,8303,628585,0
32,-1,641257,219281,1182103,65988,6726,591096,0
32,-1,643574,221748,1332524,66971,7736,666388,0
32,-1,663786,229018,1330615,68876,7908,665354,2
32,-1,642093,220427,1313774,66422,8060,656949,0
32,-1,645362,219798,1372632,65864,7540,686098,0
32,-1,637784,218472,1275708,66015,6987,637886,0
32,-1,647151,221392,1200083,67153,7339,600045,0
32,-1,666926,224127,1341236,69511,9240,670571,0
33,-1,643700,220651,1386988,66741,7778,693565,0
33,-1,637594,219773,1294582,66042,7165,647337,0
33,-1,646561,221606,1349698,66937,9000,674635,2
33,-1,638807,219455,1250800,65883,7252,625407,0
33,-1,666753,223986,1416712,69097,8830,708400,0
33,-1,642086,219602,1338487,66398,7680,669196,0
33,-1,642369,219817,1374331,66484,8334,687122,0
33,-1,644083,219415,1256613,66186,7611,628360,0
34,-1,660478,223477,1411584,69182,8146,706058,0
34,-1,638314,220380,1449552,66505,7674,724924,0
34,-1,641193,220095,1227194,66232,7110,613587,2
34,-1,638071,219628,1231368,65942,7004,615790,0
34,-1,643281,218828,1394828,65639,8140,697469,0
34,-1,643177,220465,1348940,66877,7620,674333,0
34,-1,643188,220403,1328792,66655,8478,663755,0
34,-1,674442,229995,1340000,69538,8540,670057,0
35,-1,642966,219206,1417244,66015,7790,709596,0
35,-1,643933,221297,1304235,66877,7332,652163,0
35,-1,638050,219663,1293353,65912,7532,646689,2
35,-1,639081,219185,1218310,65742,6736,609184,0
35,-1,644993,219840,1353054,65942,8313,676671,0
35,-1,637890,218922,1199173,66197,7502,599594,0
35,-1,643729,219790,1399402,66446,8406,699275,0
35,-1,643245,219435,1300629,66184,7750,650369,0
36,-1,642311,219256,1315999,65887,7864,657984,0
36,-1,659105,223928,1256198,69282,7835,627806,0
36,-1,642040,221694,1335066,66979,7911,667440,2
36,-1,637852,219426,1328262,65831,7272,664143,0
36,-1,644204,219106,1337523,65721,8061,668815,0
36,-1,661410,223738,1397036,69534,8943,698428,0
36,-1,645149,220394,1269602,66612,7723,634794,0
36,-1,644660,219963,1227469,66307,7886,613919,0
37,-1,645106,220393,1368649,66563,8569,684177,0
37,-1,641534,220143,1340779,66226,7720,670463,0
37,-1,639921,219739,1235122,66005,7526,617449,2
37,-1,640534,220762,1313814,66495,7748,657210,0
37,-1,642509,218846,1420173,65589,7785,710135,0
37,-1,637955,218644,1227660,66042,7300,613689,0
37,-1,642956,219824,1333791,66471,7847,666890,0
37,-1,642383,219389,1427552,66202,8740,713719,0
38,-1,640307,219112,1251679,65940,7900,625684,0
38,-1,637991,219777,1181780,66076,6331,590936,0
38,-1,639512,219419,1177131,65926,6693,588592,2
38,-1,638484,219266,1175812,65835,7456,587963,0
38,-1,643460,219002,1218272,65654,7830,609141,0
38,-1,640840,220215,1359320,66780,7642,679689,0
38,-1,645886,221230,1310468,67112,7445,655209,0
38,-1,642573,219443,1265301,66128,7831,632678,0
39,-1,638538,218780,1236748,65791,7415,618334,0
39,-1,638004,219513,1317402,66040,7442,658748,0
39,-1,642460,220800,1257830,66406,8161,628730,2
39,-1,640491,221023,1315058,66675,8259,657512,0
39,-1,644737,220032,1185161,66237,7760,592649,0
39,-1,637423,218621,1328931,66051,7387,664439,0
39,-1,670007,229282,1458520,69280,8806,729436,0
39,-1,663976,223503,1397844,69257,8738,698968,0
40,-1,641125,219273,1355864,65949,7312,678005,0
40,-1,638609,218750,1172555,65805,6365,586259,0
40,-1,644217,220411,1351429,66362,6830,675759,2
40,-1,640758,219966,1264336,66099,7418,632213,0
40,-1,643309,219789,1219602,65939,7044,609852,0
40,-1,635940,218625,1369910,65985,7492,684796,0
40,-1,641283,219746,1282109,66353,8173,641015,0
40,-1,645383,220142,1445111,66406,8724,722287,0
41,-1,645298,221407,1311009,66950,7647,655200,0
41,-1,643240,221280,1310238,66844,7540,655039,0
41,-1,644018,219913,1222409,65934,7770,611283,2
41,-1,645388,219720,1250857,66071,8283,625494,0
41,-1,642389,219323,1383684,65736,8005,691959,0
41,-1,639609,218341,1256251,65946,8427,628243,0
41,-1,664303,224987,1373899,69930,9563,686838,0
41,-1,643430,219494,1416462,66205,8534,708275,0
42,-1,661533,223946,1384213,69289,8548,692065,0
42,-1,657195,223402,1262260,69030,7401,631063,0
42,-1,641374,220302,1325879,66107,8313,662951,2
42,-1,641770,218934,1199822,65706,7929,599984,0
42,-1,644842,220589,1272736,66476,7438,636062,0
42,-1,641224,219561,1339542,66401,8478,669737,0
42,-1,642598,220062,1213209,66546,8361,606534,0
42,-1,643374,219284,1195869,66073,7557,597980,0
43,-1,638562,219047,1310450,65864,7558,654583,0
43,-1,637416,219403,1259622,65940,6857,629832,0
43,-1,639656,220402,1226724,66159,7446,613419,2
43,-1,648703,221526,1229215,66921,8035,614586,0
43,-1,663613,224427,1304351,69242,7757,652147,0
43,-1,640911,219539,1418887,66387,8528,709441,0
43,-1,643012,220434,1350445,66571,8680,675542,0
43,-1,643028,219661,1328078,66269,7700,664095,0
44,-1,641474,219802,1457164,66159,7963,728403,0
44,-1,643520,221154,1352248,66753,7873,676195,0
44,-1,638341,219877,1337425,66085,7854,668775,2
44,-1,639893,219068,1408508,65847,7711,704443,0
44,-1,640181,218829,1352458,65654,7107,676069,0
44,-1,638868,219057,1293054,66165,9035,646507,0
44,-1,645433,219745,1251189,66403,8197,625533,0
44,-1,647547,221695,1349868,67263,7825,675010,0
45,-1,648021,221189,1442247,66794,8971,720853,0
45,-1,636992,219630,1327743,66007,7363,663901,0
45,-1,643201,220889,1207963,66417,7199,604036,2
45,-1,642125,219344,1227013,65975,7696,613556,0
45,-1,638148,218435,1209946,65481,6779,604999,0
45,-1,659482,223623,1400353,69534,9608,700159,0
45,-1,665718,224871,1333521,69878,8777,666728,0
45,-1,645839,219824,1208896,66283,6535,604237,0
46,-1,639450,218602,1305324,65735,7861,652370,0
46,-1,637637,219664,1226465,66023,7180,613282,0
46,-1,641419,219983,1330877,66182,7635,665317,2
46,-1,642129,219319,1317144,65934,7425,658434,0
46,-1,646393,219803,1233237,66140,7569,616397,0
46,-1,635352,218358,1251997,65941,7902,626000,0
46,-1,645670,220158,1155381,66581,7450,577740,0
46,-1,643152,219311,1318467,66179,6725,659187,0
47,-1,643154,219821,1274382,66141,8089,637190,0
47,-1,636612,219204,1175410,65870,6788,587758,0
47,-1,644594,220572,1376664,66568,8254,688034,0
47,-1,641836,219509,1151990,66009,7322,576054,2
47,-1,646544,220290,1304575,66106,7510,652338,0
47,-1,636869,218823,1229047,66101,7670,614545,0
47,-1,645451,220179,1305779,66540,8145,652772,0
47,-1,649031,221135,1238572,66981,7518,619393,0
48,-1,640933,219435,1244613,65947,8563,621735,0
48,-1,656744,223285,1335016,68949,7719,667473,0
48,-1,642149,219692,1315040,65997,7736,657573,0
48,-1,639832,220088,1299561,66101,7247,649830,2
48,-1,645893,221126,1235947,66654,7097,618085,0
48,-1,637878,219793,1223644,66644,7690,611786,0
48,-1,648428,221864,1760809,67402,10095,880405,0
48,-1,643866,220421,1173515,66721,7544,586694,0
49,-1,638271,218816,1225798,65651,7470,612897,0
49,-1,636892,219772,1393157,66111,7629,696624,0
49,-1,645177,220622,1327918,66471,7562,663886,0
49,-1,638713,220147,1316561,66146,7716,658252,2
49,-1,640128,218589,1273315,65520,6767,636712,0
49,-1,637499,218628,1278240,66024,8797,639078,0
49,-1,642837,220074,1296459,66472,8054,648271,0
49,-1,643644,219180,1206552,66104,8048,603324,0
50,-1,642235,219996,1199789,66138,7977,600204,0
50,-1,641598,220832,1330244,66640,7805,665180,0
50,-1,642616,219900,1272068,66028,6480,636011,0
50,-1,638243,219545,1309637,65994,8082,654867,2
50,-1,641746,219421,1417022,65853,7501,708833,0
50,-1,655092,223085,1330183,69329,9020,664969,0
50,-1,642505,219996,1275533,66498,8269,637857,0
50,-1,644180,219438,1168542,66099,6998,584311,0
51,-1,644533,221198,1338467,66693,8699,668891,0
51,-1,635744,218989,1339219,65822,7462,669600,0
51,-1,641231,219656,1467388,65910,8070,733654,0
51,-1,640527,220303,1204719,66141,6687,602394,2
51,-1,638400,218530,1280337,65511,7088,640167,0
51,-1,636041,218595,1237191,66037,8366,618595,0
51,-1,643570,220417,1305248,66667,7906,652508,0
51,-1,643067,219361,1166993,66136,7420,583522,0
52,-1,638800,219324,1531632,65944,10131,765660,0
52,-1,640261,221307,1303518,66881,7550,651798,0
52,-1,664526,224277,1249735,69242,8683,624887,0
52,-1,645259,221487,1274582,66847,7632,637349,2
52,-1,641754,219117,1277806,65697,7288,638962,0
52,-1,637327,219450,1300006,66364,8879,650040,0
52,-1,645990,221332,1333807,66934,8494,666970,0
52,-1,645878,221008,1163730,66970,7359,581950,0
53,-1,640859,219330,1316279,65913,7920,658279,0
53,-1,658716,224396,1285629,69374,7642,642763,0
53,-1,641827,219523,1314825,65933,7966,657466,0
53,-1,642721,219789,1286234,65979,7878,643173,2
53,-1,662332,223558,1343454,68969,7788,671796,0
53,-1,637144,219596,1209041,66548,8203,604361,0
53,-1,645618,221110,1204877,67075,7252,602409,0
53,-1,663306,224037,1288108,69490,8454,644068,0
54,-1,644416,221149,1373929,66770,8325,686957,0
54,-1,634723,219189,1366373,65916,7701,683242,0
54,-1,639357,218999,1229205,65729,7192,614638,0
54,-1,643066,219964,1318956,65886,8307,659499,2
54,-1,639131,219135,1218634,65701,6679,609367,0
54,-1,635023,218948,1305489,66192,8453,652700,0
54,-1,644075,220533,1295820,66683,7127,647948,0
54,-1,640855,218763,1324710,65865,7181,662340,0
55,-1,661028,223950,1256450,69199,8581,628087,0
55,-1,634216,219049,1258321,65822,6754,629215,0
55,-1,640274,219214,1297405,65824,7563,648791,0
55,-1,651019,221915,1305981,66926,8455,653080,2
55,-1,641314,219268,1345190,65729,7651,672596,0
55,-1,634086,218553,1286151,66058,8198,643072,0
55,-1,641792,219680,1382496,66363,7944,691127,0
55,-1,642775,219783,1234983,66278,7401,617528,0
56,-1,638183,219013,1421401,65718,7550,710709,0
56,-1,638227,220961,1372347,66681,7656,686224,0
56,-1,640049,219783,1223101,65953,7333,611505,0
56,-1,635716,218724,1200345,65619,7189,600232,2
56,-1,639168,219105,1410268,65743,7064,705176,0
56,-1,640055,219422,1200799,66376,7225,600424,0
56,-1,663600,224862,1346498,69918,8256,673285,0
56,-1,642532,219787,1438799,66344,8200,719445,0
57,-1,637440,219229,1359454,65860,8498,679728,0
57,-1,642205,219132,1197689,65858,7224,598882,0
57,-1,640023,219310,1269435,65789,8366,634750,0
57,-1,640640,219212,1331370,65787,7744,665739,2
57,-1,638486,218660,1316924,65548,8178,658491,0
57,-1,647214,219673,1326631,66368,7607,663346,0
57,-1,639698,219653,1187349,66353,6696,593728,0
57,-1,648736,221267,1236621,67010,7561,618419,0
58,-1,637830,219574,1201905,65961,7586,600791,0
58,-1,646273,220938,1491353,66671,8273,745564,0
58,-1,640048,219363,1419582,65824,8314,709685,0
58,-1,640935,219306,1320313,65837,7050,660270,2
58,-1,637983,218852,1256739,65654,7736,628195,0
58,-1,662274,222755,1496527,69182,9088,748198,0
58,-1,644938,220908,1178604,67000,7607,589294,0
58,-1,643560,219967,1299149,66308,7037,649633,0
59,-1,648083,221533,1301610,66876,8627,650828,0
59,-1,664512,224372,1259851,69377,8210,630059,0
59,-1,645488,221892,1444890,67065,11698,722430,0
59,-1,635537,219130,1280009,65773,7265,640037,2
59,-1,637368,218651,1419756,65536,8316,709907,0
59,-1,645815,219610,1389293,66579,9073,694588,0
59,-1,642414,219734,1132417,66461,7356,566242,0
59,-1,640143,219016,1218180,66043,7319,609147,0
60,-1,662909,223540,1367244,69046,8901,683897,0
60,-1,643129,219686,1319895,66031,7349,660073,0
60,-1,636613,218898,1206558,65665,8151,603101,0
60,-1,641449,220340,1280054,66067,7224,640077,2
60,-1,645807,221183,1311394,66681,7623,655708,0
60,-1,639363,217565,1377830,65783,8735,688935,0
60,-1,643141,220607,1240954,66788,8437,620423,0
60,-1,663163,224711,1319696,69691,9078,659874,0
61,-1,641304,219064,1271912,65751,7658,635798,0
61,-1,639569,219026,1219277,65842,6909,609604,0
61,-1,637112,218884,1292231,65688,7294,645907,0
61,-1,644395,220128,1452044,66065,8665,725900,2
61,-1,666462,223666,1417811,68927,9162,708919,0
61,-1,639893,217901,1265423,65773,8184,632674,0
61,-1,644340,220912,1148109,67164,7608,574070,0
61,-1,645153,220023,1185220,66367,7114,592715,0
62,-1,643249,220280,1311709,66179,7454,655827,0
62,-1,643674,220918,1213512,66676,7619,606823,0
62,-1,646860,220758,1352421,66522,8123,676203,0
62,-1,640576,219303,1327219,65808,7565,663556,2
62,-1,645881,219565,1297480,65860,8547,648766,0
62,-1,640667,218660,1383923,66026,7993,691977,0
62,-1,663502,224767,1342452,69946,9037,671056,0
62,-1,639904,218432,1274846,65754,7528,637470,0
63,-1,639492,219226,1386251,65747,8778,692983,0
63,-1,642050,219611,1147098,66063,6709,573606,0
63,-1,640715,218436,1317047,65529,8080,658479,0
63,-1,647538,220803,1236750,66450,8618,618346,0
63,-1,639246,219359,1306745,65822,7401,653457,2
63,-1,640083,219484,1326544,66313,7371,663284,0
63,-1,640849,219897,1330783,66534,7903,665384,0
63,-1,642869,220274,1290382,66473,7496,645251,0
64,-1,659455,223488,1271301,69050,8511,635490,0
64,-1,641815,220119,1241611,66209,7223,620843,0
64,-1,638714,218674,1308389,65533,7897,654059,0
64,-1,642599,218316,1327391,65367,7723,663773,0
64,-1,642070,219305,1227841,65814,7390,613935,2
64,-1,646527,220192,1386578,66775,8105,692839,0
64,-1,647305,220281,1314171,66706,8060,657072,0
64,-1,637578,218624,1257392,65895,7315,628740,0
65,-1,642693,219980,1261833,66132,7399,630595,0
65,-1,641728,219904,1151187,66103,7020,575683,0
65,-1,663940,224394,1516921,69300,8571,758483,0
65,-1,640951,219044,1277479,65719,7684,638781,0
65,-1,639250,218834,1288399,65543,7074,644186,2
65,-1,641569,218607,1451266,66089,7976,725616,0
65,-1,644435,219547,1395867,66429,8296,697933,0
65,-1,639949,219047,1297398,65935,7955,648677,0
66,-1,640090,219238,1286435,65876,8510,643227,0
66,-1,643041,221036,1223369,66713,7486,611642,0
66,-1,643338,220727,1294787,66424,8167,647308,0
66,-1,643028,219040,1273801,65667,7845,636940,0
66,-1,643804,219143,1222480,65713,7998,611237,2
66,-1,639807,217991,1297013,65806,7856,648533,0
66,-1,645620,220093,1303356,66641,8453,651675,0
66,-1,645915,221653,1483264,67296,9887,741334,0
67,-1,645956,221869,1291753,67059,8700,645563,0
67,-1,640585,219528,1172113,66027,7575,586115,0
67,-1,641720,219940,1222813,66046,7619,611422,0
67,-1,648785,221320,1173587,66617,7435,586177,0
67,-1,633258,219759,1311233,65466,7002,655526,2
67,-1,643030,219599,1248102,66408,8148,623928,0
67,-1,645427,220499,1272674,66790,6903,636526,0
67,-1,662599,224438,1377275,69618,8906,688632,0
68,-1,638455,219347,1423474,65823,7891,711683,0
68,-1,643644,219665,1169552,66018,7651,584806,0
68,-1,641303,218945,1334111,65684,8738,666853,0
68,-1,642146,219060,1409683,65674,8821,704739,0
68,-1,631505,219170,1311264,65270,8110,655577,2
68,-1,641370,218877,1316743,66096,8550,658371,0
68,-1,641446,219503,1410522,66438,8153,705226,0
68,-1,638291,219136,1319355,66064,7656,659763,0
69,-1,637825,219305,1330939,65850,7604,665450,0
69,-1,642027,219299,1158616,65972,7295,579329,0
69,-1,641120,219408,1200808,65897,7879,600451,0
69,-1,640906,219007,1349411,65680,8260,673896,0
69,-1,640090,221216,1187977,66206,7999,593918,2
69,-1,646307,221032,1267341,67158,8126,633642,0
69,-1,643584,219523,1262267,66432,8009,631149,0
69,-1,649898,220309,1253273,66674,7493,626576,0
70,-1,643558,219646,1314527,65927,8420,657205,0
70,-1,641829,219493,1177684,66031,7608,588894,0
70,-1,639008,218841,1320360,65634,8215,660241,0
70,-1,639851,218736,1507102,65554,8292,753376,0
70,-1,636228,219713,1259035,65489,7722,629530,2
70,-1,640834,218912,1377393,66185,8333,688751,0
70,-1,649233,221667,1231791,67428,7396,615864,0
70,-1,648914,220110,1285396,66304,8177,642752,0
71,-1,641190,219149,1243422,65713,7479,621981,0
71,-1,638113,218567,1311532,65760,7648,655806,0
71,-1,646763,221762,1252295,66891,7934,626079,0
71,-1,646991,220906,1385650,66536,7974,692855,0
71,-1,636667,218576,1174837,65150,8012,587242,2
71,-1,639340,218399,1314785,65962,8043,657348,0
71,-1,644915,220375,1226331,66726,7484,613134,0
71,-1,646916,219531,1218825,66122,7443,609513,0
72,-1,642544,220072,1334600,65998,7923,667271,0
72,-1,639321,219409,1265578,65899,7476,632826,0
72,-1,641355,219192,1345781,65797,8396,672600,0
72,-1,662477,223630,1416292,68979,8410,707774,0
72,-1,639707,219456,1307213,66378,7998,653657,2
72,-1,642895,220098,1302654,66752,8193,651309,0
72,-1,642062,219282,1324582,66334,7621,662236,0
72,-1,647498,219585,1286433,66220,8692,643271,0
73,-1,640791,219751,1281724,65958,7244,640727,0
73,-1,638799,219560,1192081,66051,6777,596076,0
73,-1,643343,221015,1346647,66631,8390,673386,0
73,-1,643095,220718,1246284,66443,7216,622909,0
73,-1,636535,218962,1237591,66155,7224,618914,2
73,-1,644035,219873,1348928,66485,7649,674037,0
73,-1,646296,221407,1244977,67259,7588,622418,0
73,-1,644737,219298,1198821,66138,8424,599321,0
74,-1,641397,220091,1277609,66065,8316,638938,0
74,-1,643447,220640,1357646,66593,7775,678880,0
74,-1,639826,219794,1302578,65973,8375,650907,0
74,-1,643312,219301,1197881,65792,7491,598961,0
74,-1,640557,219110,1274615,66263,8019,637362,2
74,-1,639795,218661,1317044,66045,8521,658545,0
74,-1,645789,220359,1310180,66810,8313,655078,0
74,-1,645934,219680,1176430,66303,7210,588289,0
75,-1,641065,219493,1228519,65813,7270,614241,0
75,-1,639362,218965,1295233,65813,6758,647633,0
75,-1,640399,220109,1274529,66205,8409,636843,0
75,-1,641905,218807,1299066,65585,8421,649617,0
75,-1,635446,219276,1274931,66298,7038,637519,2
75,-1,644856,220614,1247762,66952,7449,623926,0
75,-1,644065,220191,1219925,66669,7069,609969,0
75,-1,648207,221043,1221123,66745,6918,610604,0
76,-1,646971,222130,1315054,66978,8180,657536,0
76,-1,641699,220183,1294347,66225,7324,647266,0
76,-1,662241,223712,1270166,69130,9296,635037,0
76,-1,646815,221119,1212591,66617,7432,606184,0
76,-1,635330,218554,1291679,66075,7290,645930,2
76,-1,660917,223478,1422024,69458,9099,710921,0
76,-1,642655,219582,1358191,66485,7828,679067,0
76,-1,646430,219673,1149916,66267,7470,575003,0
77,-1,638317,219263,1342310,65744,7757,671141,0
77,-1,640278,219651,1219360,66014,6733,609710,0
77,-1,642506,219994,1357168,66112,8660,678576,0
77,-1,661358,223295,1375321,68896,8215,687544,0
77,-1,640394,218617,1344089,66109,7608,672050,2
77,-1,639787,219210,1286261,66261,8370,643197,0
77,-1,646831,221844,1312760,67511,8256,656354,0
77,-1,647945,220063,1173723,66288,7632,586908,0
78,-1,661880,223743,1291815,69065,7951,645812,0
78,-1,659383,224048,1368859,69296,8021,684424,0
78,-1,642481,219862,1352601,66054,8253,675636,0
78,-1,644521,220733,1314651,66422,8345,657396,0
78,-1,640410,218993,1251682,66130,7633,625807,0
78,-1,644401,220049,1322531,66547,7955,661133,2
78,-1,662387,224537,1360236,69878,10038,680127,0
78,-1,651298,221730,1215280,67220,8683,607807,0
79,-1,643178,219211,1206748,65829,7678,603221,0
79,-1,642782,220368,1394976,66322,7538,697534,0
79,-1,643558,221439,1257158,66837,8379,628498,0
79,-1,642280,218761,1381271,65557,8810,690691,0
79,-1,640747,219305,1363390,66327,8161,681731,0
79,-1,641646,219685,1319317,66444,8085,659644,2
79,-1,646443,220520,1232126,66851,8018,616059,0
79,-1,645709,219701,1215578,66280,7292,607800,0
80,-1,642861,219401,1392929,65813,8799,696448,0
80,-1,639133,219359,1276221,65922,7410,638162,0
80,-1,637986,218938,1479135,65730,8297,739400,0
80,-1,660565,223309,1349540,68864,8679,674685,0
80,-1,675025,229876,1406543,69762,8022,702660,0
80,-1,640564,219890,1252432,66451,7329,626210,2
80,-1,647125,220433,1322793,66744,8209,661283,0
80,-1,645475,220317,1290693,66483,7383,645377,0
81,-1,662488,223340,1217635,68900,8550,608521,0
81,-1,640762,220084,1297922,66431,7529,649020,0
81,-1,644591,221896,1326491,67037,8678,663216,0
81,-1,641393,219877,1270038,65969,8151,635101,0
81,-1,664713,223812,1378518,69579,9039,689168,0
81,-1,634480,218195,1273504,65972,7674,636712,2
81,-1,641638,219258,1334641,66446,7909,667387,0
81,-1,651664,221695,1230263,67222,7586,615231,0
82,-1,640545,219105,1174191,65829,7322,586939,0
82,-1,636197,218852,1187591,65762,6911,593854,0
82,-1,650148,221198,1341250,66551,8288,670589,0
82,-1,642278,219943,1205027,66199,8008,602213,0
82,-1,640643,218656,1310445,66041,8630,655211,0
82,-1,638087,218981,1309794,66243,7840,654895,2
82,-1,645097,220607,1202543,66786,7171,601293,0
82,-1,670346,225091,1344336,69853,8059,672174,0
83,-1,643327,219445,1138392,65979,7436,569166,0
83,-1,637673,219766,1311921,66055,7502,656010,0
83,-1,646755,220411,1250215,66173,8132,624796,0
83,-1,638426,218755,1161540,65652,7335,580752,0
83,-1,644311,220589,1203788,66904,7207,601702,0
83,-1,639857,219109,1254381,66277,7775,627208,2
83,-1,643005,219749,1324781,66542,8589,662399,0
83,-1,645440,219435,1187272,66158,7158,593688,0
84,-1,647803,221214,1204497,66708,7496,602226,0
84,-1,646814,221445,1317235,66928,7523,658681,0
84,-1,646295,220439,1332486,66202,9220,666193,0
84,-1,642104,220214,1308994,66023,7656,654356,0
84,-1,639521,218203,1242201,65911,7586,620798,0
84,-1,638225,219088,1303933,66134,7613,651907,2
84,-1,645013,220158,1286062,66688,9000,642976,0
84,-1,645219,219324,1302003,66128,6954,651106,0
85,-1,640305,218843,1144569,65783,6805,572225,0
85,-1,661616,223670,1282733,69166,7618,641411,0
85,-1,648516,222028,1437996,66879,8563,719091,0
85,-1,644302,219107,1307720,65742,8216,653931,0
85,-1,641381,219295,1228136,66318,7376,614078,0
85,-1,641328,219039,1269121,66040,7194,634602,2
85,-1,649712,222581,1193032,67802,7869,596304,0
85,-1,645783,220027,1205834,66394,6937,602970,0
86,-1,639029,218370,1182314,65616,7242,591099,0
86,-1,639961,219202,1300899,65952,6772,650510,0
86,-1,648378,221496,1353897,66521,9205,676620,0
86,-1,639886,217865,1231566,65208,8024,615643,0
86,-1,639563,218552,1306246,65999,8456,653123,0
86,-1,640246,219166,1155251,66177,8091,577507,2
86,-1,663981,224592,1323876,69969,9881,662091,0
86,-1,650945,221913,1359887,67197,7210,679868,0
87,-1,638285,218474,1289321,65637,7126,644540,0
87,-1,639742,219472,1310502,65968,7362,655299,0
87,-1,645371,220931,1354305,66506,8869,677013,0
87,-1,641886,219127,1535669,65749,8394,767064,0
87,-1,644624,220951,1289689,67037,8425,644749,0
87,-1,638208,218569,1341517,65874,7783,670745,2
87,-1,644805,220610,1241999,66866,8588,621008,0
87,-1,644791,219311,1203955,66125,7126,602024,0
88,-1,640810,219225,1241242,65852,7630,620441,0
88,-1,639093,219236,1207150,65877,6904,603611,0
88,-1,642589,220194,1209201,66093,7767,604675,0
88,-1,641545,218979,1324325,65594,7876,662070,0
88,-1,660706,223533,1546288,69478,9658,773013,0
88,-1,646073,220723,1228490,67154,7586,614221,2
88,-1,647621,221089,1199124,67081,8395,599335,0
88,-1,644656,219676,1289006,66242,7583,644556,0
89,-1,640985,219531,1197455,65847,7236,598714,0
89,-1,642473,220053,1300859,66200,7165,650480,0
89,-1,643297,220466,1355798,66109,8821,678115,0
89,-1,646367,221192,1258376,66747,7826,629158,0
89,-1,639842,218845,1374721,66144,8092,687337,0
89,-1,643101,219040,1333409,66086,8547,666686,2
89,-1,642408,220093,1192687,66481,7512,596416,0
89,-1,672314,229419,1300558,69128,7764,650323,0
90,-1,643010,220648,1312870,66445,7846,656426,0
90,-1,636646,218252,1260720,65614,6700,630415,0
90,-1,664872,224507,1489749,69257,8873,744608,0
90,-1,639088,218807,1361505,65639,7871,680905,0
90,-1,640549,218432,1195098,65979,7244,597396,0
90,-1,639698,219884,1222906,66547,8235,611443,2
90,-1,642652,219987,1310470,66538,8005,655219,0
90,-1,649760,221764,1223020,67216,7362,611636,0
91,-1,644737,219493,1214935,65849,7146,607466,0
91,-1,636819,218887,1187087,65770,7078,593485,0
91,-1,643607,220494,1394731,66170,7920,697034,0
91,-1,641268,219289,1394096,65784,8775,696882,0
91,-1,640734,218868,1340869,66151,8477,670476,0
91,-1,640492,220142,1341760,66623,8479,670882,2
91,-1,671750,230968,1312047,70105,8061,656020,0
91,-1,664783,224429,1399176,69612,8381,699699,0
92,-1,643063,219416,1282603,65864,7267,641187,0
92,-1,639222,219482,1192314,66017,6991,596163,0
92,-1,647059,221580,1351781,66739,8640,675576,0
92,-1,640931,219178,1487441,65697,8049,743239,0
92,-1,641176,219147,1382745,66241,8171,691059,0
92,-1,640645,219676,1208552,66442,7452,604277,0
92,-1,638258,219303,1187171,66330,8420,593582,2
92,-1,647682,219962,1313706,66317,8136,656838,0
93,-1,659965,223113,1378496,68838,7313,689340,0
93,-1,637988,219035,1148033,65821,6995,574067,0
93,-1,647320,222074,1242462,67086,8841,621101,0
93,-1,663134,223840,1308489,69081,8762,653736,0
93,-1,640718,218664,1348774,66038,8055,674531,0
93,-1,640954,220144,1314313,66567,7819,657083,0
93,-1,646024,222316,1280552,67525,8081,640272,2
93,-1,645509,220067,1326155,66414,7918,663132,0
94,-1,642673,219952,1204819,66160,6884,602299,0
94,-1,643312,221485,1199871,66943,7787,600036,0
94,-1,645664,221220,1301730,66697,8053,650906,0
94,-1,642149,220505,1217331,66362,7159,608591,0
94,-1,636005,218089,1254995,65791,7552,627414,0
94,-1,643432,221188,1299601,67136,8069,649743,0
94,-1,644487,220642,1294272,66736,7800,647111,2
94,-1,643197,219826,1469623,66423,8794,734426,0
95,-1,639445,219110,1191486,65867,6893,595723,0
95,-1,658882,223950,1206769,69252,7589,603240,0
95,-1,641786,220085,1358954,66112,7589,679543,0
95,-1,638355,218258,1291532,65414,7421,645770,0
95,-1,640065,220074,1380409,66543,7866,689828,0
95,-1,666715,224804,1424117,69862,8791,712066,0
95,-1,644807,220264,1229112,66662,7217,614103,2
95,-1,649577,221991,1198140,67456,7611,599113,0
96,-1,638663,218759,1235943,65686,6551,617932,0
96,-1,635824,218889,1188612,65740,7365,594355,0
96,-1,639853,220011,1289438,66080,7697,644760,0
96,-1,641392,219067,1222824,65711,7518,611412,0
96,-1,643302,220052,1260521,66749,8375,630368,0
96,-1,644389,220328,1182845,66613,7347,591454,0
96,-1,644151,220604,1220193,66733,8466,610058,2
96,-1,666080,224591,1339128,69761,8830,669598,0
97,-1,639432,219361,1265849,65981,7172,632957,0
97,-1,642478,219626,1164850,66059,7209,582353,0
97,-1,643569,220458,1349092,66183,7741,674585,0
97,-1,642035,219143,1390949,65656,7979,695532,0
97,-1,641096,218712,1324734,66054,8452,662166,0
97,-1,641619,219718,1315773,66415,7793,657698,0
97,-1,641660,220255,1311062,66642,7858,655552,2
97,-1,648567,219894,1344249,66445,8359,672178,0
98,-1,641581,220164,1221454,66204,6772,610680,0
98,-1,640981,219550,1300089,65985,6985,650092,0
98,-1,645799,221499,1399417,66744,7450,699771,0
98,-1,661663,223711,1325401,69035,7633,662702,0
98,-1,642123,219609,1302922,66356,8377,651317,0
98,-1,642437,219452,1317983,66265,7519,658994,0
98,-1,639535,220214,1285514,66479,8324,642601,2
98,-1,647386,219805,1234992,66389,8276,617531,0
99,-1,663455,224159,1282265,69403,8297,640999,0
99,-1,638363,219190,1376969,65928,6905,688177,0
99,-1,641102,220348,1209482,66186,7172,604807,0
99,-1,642442,220097,1266302,66247,7239,633165,0
99,-1,636851,217940,1280221,65819,8251,639913,0
99,-1,642946,219931,1273236,66509,7553,636557,0
99,-1,645078,221160,1266889,66719,7672,633424,2
99,-1,650232,221678,1328233,67382,9577,663838,0
100,-1,641776,220053,1284377,66139,6686,642172,0
100,-1,638891,219785,1272704,66006,6346,636398,0
100,-1,647384,222324,1294663,67098,7928,647406,0
100,-1,638677,219144,1228494,65789,7092,614273,0
100,-1,642625,220069,1359271,66741,8263,679425,0
100,-1,640818,219652,1325156,66312,8593,662601,0
100,-1,646879,221916,1231041,67218,8369,615547,2
100,-1,664744,224070,1261551,69616,7979,630904,0
101,-1,644152,221257,1310963,66809,7327,655393,0
101,-1,638034,218713,1325832,65675,8067,662976,0
101,-1,664267,225621,1287183,69709,8073,643556,0
101,-1,638300,219395,1304570,65761,7897,652331,0
101,-1,637407,218750,1381099,66093,8302,690473,0
101,-1,647593,222055,1326172,67473,8843,663090,0
101,-1,640635,220049,1346541,66427,7880,673465,2
101,-1,647342,220246,1149203,66584,7367,574599,0
102,-1,641641,219710,1239299,66122,6942,619665,0
102,-1,639393,219852,1294603,66053,6615,647266,0
102,-1,643620,220134,1256671,66140,7503,628395,0
102,-1,646392,221360,1290038,66726,7710,645118,0
102,-1,636340,218600,1294753,66036,8594,647309,0
102,-1,663908,224113,1437247,69608,9762,718324,0
102,-1,643443,220628,1302789,66644,8145,651488,2
102,-1,644918,219868,1166796,66486,7012,583352,0
103,-1,640175,219509,1311895,66095,7215,656006,0
103,-1,643307,221292,1401234,66815,7758,700635,0
103,-1,643924,220797,1280001,66325,7445,640043,0
103,-1,637922,218979,1289154,65703,7087,644667,0
103,-1,640075,218902,1241020,66169,8346,620502,0
103,-1,642544,219785,1263847,66482,8198,631760,0
103,-1,643387,219843,1356618,66399,8363,678284,2
103,-1,646929,220710,1154070,66891,7042,576998,0
104,-1,660022,224162,1306120,69360,8371,652958,0
104,-1,639176,219351,1243251,65893,7604,621724,0
104,-1,640891,220177,1317250,65997,8049,658649,0
104,-1,641237,220284,1196730,66299,6898,598405,0
104,-1,659709,223424,1434606,69438,9784,717227,0
104,-1,642260,220000,1278280,66527,8329,639219,0
104,-1,649982,222530,1330730,67593,7890,665148,2
104,-1,645360,220344,1224596,66650,8093,612410,0
105,-1,645374,220761,1408175,66628,8199,704127,0
105,-1,639801,220225,1214242,66239,7065,607187,0
105,-1,664562,225594,1208395,69593,8401,604150,0
105,-1,638919,219375,1207760,65839,7085,603936,0
105,-1,638851,219228,1239810,66261,8274,619737,0
105,-1,645519,221607,1214348,67244,8548,607142,0
105,-1,641322,219633,1283296,66333,8682,641557,2
105,-1,650165,221778,1380794,67359,8182,690483,0
106,-1,640543,219004,1241805,65714,8045,620833,0
106,-1,637951,219741,1210607,66052,7429,605345,0
106,-1,642758,220625,1214396,66220,7789,607237,0
106,-1,637510,218405,1296915,65460,7663,648510,0
106,-1,637101,218781,1295512,66140,8421,647746,0
106,-1,640733,219100,1369551,66183,7926,684758,0
106,-1,646229,221261,1349787,66797,8171,674951,2
106,-1,664079,223791,1420520,69478,8763,710222,0
107,-1,644713,220830,1247017,66637,7955,623459,0
107,-1,636702,219940,1284619,66154,7665,642343,0
107,-1,641304,220348,1170884,66044,7215,585474,0
107,-1,643677,221426,1218095,66726,7572,609036,0
107,-1,636768,218578,1391384,66112,8709,695512,0
107,-1,639553,219604,1315670,66430,7930,657729,0
107,-1,641997,220922,1214674,66766,7341,607390,2
107,-1,647117,220629,1291592,66753,7943,646509,0
108,-1,639865,219030,1272038,65922,7481,636019,0
108,-1,664212,224303,1385319,69337,8392,692754,0
108,-1,643063,221201,1248825,66378,8176,624353,0
108,-1,659210,224087,1256381,69158,8041,628121,0
108,-1,637450,219256,1381637,66165,9106,690829,0
108,-1,644225,221281,1211428,67320,7873,605610,0
108,-1,643432,219695,1284341,66376,7464,642196,0
108,-1,644661,219527,1287081,66283,6970,643590,2
109,-1,639890,219622,1228338,66134,7227,613905,0
109,-1,642856,219939,1337813,66121,7557,668963,0
109,-1,645960,222090,1225730,66860,7873,612926,0
109,-1,642971,218863,1300470,65595,7957,650228,0
109,-1,664210,223048,1403107,69340,9099,701538,0
109,-1,659899,224127,1432841,69773,8923,716380,0
109,-1,648982,221135,1231237,67059,7616,615868,0
109,-1,644198,219916,1264006,66428,7124,632056,2
110,-1,641970,219804,1324144,66382,8532,662189,0
110,-1,640640,219264,1340283,65900,7675,670160,0
110,-1,641063,220334,1202524,65987,7821,601302,0
110,-1,665285,223979,1290824,69114,8545,645225,0
110,-1,640554,218387,1247762,65963,8113,623669,0
110,-1,644236,220541,1315926,66753,8464,657933,0
110,-1,642807,219643,1319270,66306,7941,659653,0
110,-1,651991,222314,1237188,67474,7958,618535,2
111,-1,638311,218870,1296779,65810,6825,648326,0
111,-1,640237,219105,1248442,65893,6644,624272,0
111,-1,643724,221360,1209290,66475,8084,604926,0
111,-1,642581,219376,1366931,65805,8383,683523,0
111,-1,644304,220009,1204546,66719,7281,602136,0
111,-1,639561,219075,1165005,66213,7715,582441,0
111,-1,645808,221410,1187528,67267,7504,593806,0
111,-1,637231,218098,1255234,65796,7579,627664,2
112,-1,641816,220708,1339520,66735,8200,669845,0
112,-1,661022,224648,1340774,69485,7874,670568,0
112,-1,641142,220620,1327199,66175,8217,663640,0
112,-1,643589,218877,1312091,65671,7697,656098,0
112,-1,640812,219003,1277669,66140,7746,638894,0
112,-1,640296,219687,1383764,66400,8901,691608,0
112,-1,642831,219535,1286304,66364,7501,643237,0
112,-1,641214,219493,1253978,66205,8084,627012,2
113,-1,657942,223335,1272102,69072,8326,635850,0
113,-1,640641,219241,1337883,65911,7611,668666,0
113,-1,660429,224920,1398514,69370,8439,699119,0
113,-1,642760,218872,1303220,65610,7937,651652,0
113,-1,639974,218317,1309512,65956,8682,654623,0
113,-1,647082,221961,1289930,67452,7729,644912,0
113,-1,643781,219667,1278932,66364,8171,639517,0
113,-1,641087,219666,1385806,66378,8165,692965,2
114,-1,638631,218696,1230239,65808,7195,615196,0
114,-1,640872,219760,1185475,66107,6624,592796,0
114,-1,645958,221127,1411077,66338,8501,705372,0
114,-1,643333,219887,1289595,65971,8205,644849,0
114,-1,640825,218694,1317366,66105,8344,658653,0
114,-1,662803,224667,1362809,69853,9632,681153,0
114,-1,644900,220804,1244708,66753,7484,622080,0
114,-1,644520,219769,1313930,66595,7310,656985,2
115,-1,636643,218347,1302092,65647,8060,651084,0
115,-1,643673,220850,1232946,66645,7363,616549,0
115,-1,641495,220247,1322397,66011,7984,661221,0
115,-1,645888,220982,1219487,66454,8022,609831,0
115,-1,641299,218951,1476807,66124,8158,738208,0
115,-1,642514,220330,1299466,66648,8360,649601,0
115,-1,645385,220100,1287117,66528,7704,643620,0
115,-1,645328,221322,1292532,67467,8605,646345,2
116,-1,640102,219768,1383471,66348,8344,691784,0
116,-1,638972,219390,1286517,65980,7308,643212,0
116,-1,661269,224864,1341385,69343,8819,670555,0
116,-1,639987,218985,1312935,65686,7901,656571,0
116,-1,639924,218854,1297383,66449,8055,648626,0
116,-1,638503,219563,1286186,66409,8290,642735,0
116,-1,644389,220245,1510226,66606,7491,755158,0
116,-1,641079,218478,1187742,66185,7688,593928,2
117,-1,635049,218437,1236451,65704,7404,618224,0
117,-1,637945,219254,1254937,65877,6640,627417,0
117,-1,639106,220148,1265386,65999,8056,632609,0
117,-1,641368,219121,1259388,65743,7978,629755,0
117,-1,660867,223327,1374123,69403,9058,686964,0
117,-1,639972,220678,1224487,66973,7757,612198,0
117,-1,641983,219282,1181853,66188,6864,591004,0
117,-1,640004,219292,1195239,66352,7402,597676,2
118,-1,637756,218229,1343576,65700,7903,671837,0
118,-1,639530,219335,1195049,65943,7034,597567,0
118,-1,640748,220633,1455986,66191,8499,728044,0
118,-1,642532,218622,1313602,65543,8143,656852,0
118,-1,638984,218793,1312756,66071,8507,656366,0
118,-1,640836,219671,1308724,66418,7910,654283,0
118,-1,642822,220007,1311410,66537,7835,655751,0
119,-1,642047,220172,1418803,66579,7989,709361,0
119,-1,644536,221709,1324997,67008,7060,662566,0
119,-1,645836,221888,1302623,66773,8527,651359,0
119,-1,643187,219371,1281286,65804,7207,640709,0
119,-1,643366,219330,1280126,66324,8406,639951,0
119,-1,638810,219055,1225785,66054,7376,612682,0
119,-1,648816,222466,1231875,67657,7306,615868,0
120,-1,659455,223305,1256944,69099,7998,628454,0
120,-1,639061,219629,1246815,66056,6940,623459,0
120,-1,639546,219840,1188214,65891,7648,594198,0
120,-1,642500,219424,1252789,65856,7792,626321,0
120,-1,645541,220603,1233934,66898,7797,616778,0
120,-1,657482,223375,1462712,69491,9192,731189,0
120,-1,641523,219687,1237453,66436,6406,618780,0
121,-1,637554,218789,1236216,65865,6904,618022,0
121,-1,645558,220718,1384901,66538,7957,692500,0
121,-1,661821,224745,1288842,69317,8702,644101,0
121,-1,640055,218669,1257515,65564,7303,628818,0
121,-1,641379,219073,1276926,66159,7640,638467,0
121,-1,638974,219831,1281205,66598,7832,640571,0
121,-1,644092,221132,1214840,67074,7367,607493,0
122,-1,640119,219536,1328281,66240,7879,663985,0
122,-1,641594,219729,1270301,66094,7117,635204,0
122,-1,638452,220393,1383148,66102,8229,691571,0
122,-1,639816,218958,1393418,65632,7733,696753,0
122,-1,639930,219091,1163349,66245,6879,581632,0
122,-1,639189,220394,1217388,66928,7616,608698,0
122,-1,648686,219877,1217811,66341,7877,608932,0
123,-1,637290,219345,1165955,65874,7059,582975,0
123,-1,638861,219069,1292725,65848,7521,646414,0
123,-1,638043,220879,1305933,66275,7234,652771,0
123,-1,637319,218379,1295282,65466,7178,647683,0
123,-1,638365,218931,1372854,66058,8115,686478,0
123,-1,635416,218853,1309154,66207,7739,654579,0
123,-1,645596,219622,1210634,66243,7804,605412,0
124,-1,638392,219088,1286304,65888,7211,643156,0
124,-1,639032,219437,1300989,66011,7224,650550,0
124,-1,647496,219938,1314088,65871,7790,657090,0
124,-1,640130,218774,1238041,65637,7226,619047,0
124,-1,644532,220644,1181149,67041,7462,590589,0
124,-1,649632,220343,1200808,66823,7734,600403,0
124,-1,651367,221833,1267773,67169,8027,633963,0
125,-1,637524,219006,1258883,65866,7766,629290,0
125,-1,640495,220401,1259774,66511,7231,629947,0
125,-1,670079,225437,1247123,69534,8161,623477,0
125,-1,638536,218570,1291344,65492,7229,645720,0
125,-1,660575,223330,1514126,69419,9298,757079,0
125,-1,665814,223377,1337100,69394,8318,668466,0
125,-1,645342,219773,1298839,66238,8186,649515,0
126,-1,636005,218767,1213290,65804,8255,606559,0
126,-1,634518,218403,1190017,65671,6952,595076,0
126,-1,650542,221736,1298190,66524,8229,649104,0
126,-1,659540,223178,1348528,68787,7892,674223,0
126,-1,639572,219133,1226322,66192,7917,613213,0
126,-1,646557,219309,1274533,66197,8053,637235,0
126,-1,649333,221464,1276629,67137,7944,638305,0
127,-1,633837,218275,1536899,65486,8297,768390,0
127,-1,637347,219408,1247378,65966,6753,623729,0
127,-1,646158,220243,1191639,66020,7370,595863,0
127,-1,636715,218375,1363779,65521,7440,681943,0
127,-1,639352,219488,1295813,66341,7654,647962,0
127,-1,643461,218848,1407883,66031,8018,703718,0
127,-1,646249,220629,1295070,66675,7685,647590,0
128,-1,645324,220546,1328936,66499,8276,664527,0
128,-1,637821,219888,1284208,66064,7106,642068,0
128,-1,649794,221546,1286319,66672,7884,643142,0
128,-1,636406,218622,1174578,65545,6667,587325,0
128,-1,642904,219216,1260148,66204,7968,630123,0
128,-1,646604,220063,1365903,66373,8011,683007,0
128,-1,642432,219216,1340351,66098,7210,670142,0
129,-1,639435,218293,1158444,65534,6775,579290,0
129,-1,637947,220213,1245799,66243,6818,622952,0
129,-1,647676,220459,1278909,66088,8482,639500,0
129,-1,642054,218944,1341167,65685,7687,670717,0
129,-1,642023,219316,1235172,66315,7564,617574,0
129,-1,643400,218915,1322128,65976,8210,660865,0
129,-1,651296,221820,1522719,67316,9871,761257,0
130,-1,666623,224944,1322199,70096,8020,660776,0
130,-1,633905,218734,1244491,65736,6935,622250,0
130,-1,645996,220373,1197429,66110,7926,598761,0
130,-1,644128,219612,1244727,65907,7547,622421,0
130,-1,645255,220802,1190258,67022,7348,595160,0
130,-1,647858,221064,1263787,66991,7849,632036,0
130,-1,669675,225724,1375175,70055,8453,687570,0
131,-1,638273,218719,1194305,65769,6845,597151,0
131,-1,640752,219478,1307529,66004,7910,653810,0
131,-1,646399,220892,1231516,66236,8143,615705,0
131,-1,640863,218445,1271229,65440,7672,635663,0
131,-1,659813,223145,1377798,69323,8786,688932,0
131,-1,648629,220172,1236693,66418,8039,618329,0
131,-1,644355,219570,1347127,66167,7796,673562,0
132,-1,642071,220424,1383557,66496,8737,691709,0
132,-1,637409,219081,1182601,65853,6831,591337,0
132,-1,651454,221955,1215284,66891,7836,607711,0
132,-1,642853,219539,1207685,65860,7572,603855,0
132,-1,641474,219718,1277913,66417,8213,638873,0
132,-1,642778,218367,1290627,65742,8424,645292,0
132,-1,647169,220918,1362854,66774,7682,681465,0
133,-1,638664,218275,1209307,65575,7593,604690,0
133,-1,642389,221121,1334429,66805,7705,667337,0
133,-1,670681,225852,1218226,69658,8697,609156,0
133,-1,648054,221693,1162060,66889,8026,581097,0
133,-1,641529,220137,1163663,66765,7032,581904,0
133,-1,642055,218637,1266785,65939,8566,633319,0
133,-1,645522,220761,1385756,66656,7662,692878,0
134,-1,635823,217881,1390315,65464,8748,695114,0
134,-1,659355,224313,1352268,69396,7853,675970,0
134,-1,646947,220644,1204740,66128,7936,602423,0
134,-1,639026,218468,1236396,65479,6821,618300,0
134,-1,637385,218969,1216907,66136,7399,608509,0
134,-1,646072,219746,1251840,66310,8653,625868,0
134,-1,646817,221176,1279485,66738,7395,639762,0
135,-1,658327,223127,1297115,69011,8524,648662,0
135,-1,637739,219706,1387328,66090,7703,693715,0
135,-1,646942,220588,1164581,66122,7775,582343,0
135,-1,642745,219741,1384855,65896,7612,692407,0
135,-1,643466,220534,1213435,66962,7079,606787,0
135,-1,663469,223615,1243688,69386,8826,621745,0
135,-1,647981,220291,1372768,66507,8161,686331,0
136,-1,638908,218656,1275883,65697,7285,637915,0
136,-1,638406,219188,1280172,65884,7657,640127,0
136,-1,649282,221868,1216470,66791,7921,608289,0
136,-1,669302,229461,1302734,68992,7442,651462,0
136,-1,659499,223049,1382410,69338,8280,691197,0
136,-1,641630,219239,1160018,66180,7545,579716,0
136,-1,648199,220803,1281527,66700,8284,640804,0
137,-1,638244,219086,1243644,65875,6799,621874,0
137,-1,638546,219282,1200226,65904,6989,600124,0
137,-1,646467,220830,1138129,66251,7376,569112,0
137,-1,640489,219053,1326297,65664,7545,663202,0
137,-1,637489,218588,1196165,66025,6807,598016,0
137,-1,640972,218798,1273506,65971,8455,636679,0
137,-1,650232,221919,1240056,67256,7646,620087,0
138,-1,637049,218754,1287264,65784,7259,643417,0
138,-1,636317,219239,1247163,65961,7094,623640,0
138,-1,646902,220619,1243603,66112,8255,621852,0
138,-1,662483,224069,1250891,69053,7509,625411,0
138,-1,637852,219034,1332820,66230,7508,666464,0
138,-1,643243,219249,1284507,66167,8607,642185,0
138,-1,645460,220302,1187575,66463,6924,593743,0
139,-1,635833,218495,1277572,65666,6564,639198,0
139,-1,636222,219256,1219637,65890,7181,609848,0
139,-1,644539,220276,1304558,65971,8124,652332,0
139,-1,638670,218891,1310766,65652,7583,655472,0
139,-1,640114,220109,1332170,66675,7974,666301,0
139,-1,648361,220191,1310072,66667,7707,655050,0
139,-1,644765,220499,1193728,66580,7103,596910,0
140,-1,635693,218882,1528441,65824,8107,764261,0
140,-1,642455,221107,1322579,66747,7311,661353,0
140,-1,667128,225697,1289409,69598,8656,644705,0
140,-1,641431,219785,1403166,66149,8053,701641,0
140,-1,636719,218334,1314830,65970,7827,657426,0
140,-1,646453,219852,1431796,66461,8149,715712,0
140,-1,669316,229253,1417617,69035,7940,708884,0
141,-1,660814,223513,1289918,69125,8043,644986,0
141,-1,639515,219637,1166811,66076,7131,583518,0
141,-1,648385,220331,1212253,66032,6914,606165,0
141,-1,637048,218484,1362306,65479,7648,681195,0
141,-1,637804,218959,1298161,66164,7231,649127,0
141,-1,641341,218675,1326231,66061,8007,663135,0
141,-1,644748,220726,1249005,66523,7959,624548,0
142,-1,637837,218571,1287409,65678,7401,643754,0
142,-1,640726,219900,1299733,66044,6932,649912,0
142,-1,646921,220769,1401678,66397,8208,700776,0
142,-1,641963,219597,1326075,65889,7409,663065,0
142,-1,666787,227846,1339338,68823,7601,669727,0
142,-1,643960,219544,1292259,66372,7901,646033,0
142,-1,661247,224049,1322075,69531,9178,660874,0
143,-1,637808,219003,1169559,65859,6503,584827,0
143,-1,670008,231045,1358888,69852,7357,679474,0
143,-1,646733,220819,1298021,66199,7784,649054,0
143,-1,639419,219084,1297348,65750,7131,648740,0
143,-1,643994,220390,1226209,66836,7153,613195,0
143,-1,643780,219869,1300890,66642,7365,650149,0
143,-1,641383,219579,1356438,66283,7841,678114,0
144,-1,637134,218610,1146766,65680,6877,573327,0
144,-1,634552,219018,1294816,65834,6756,647504,0
144,-1,644643,219974,1310076,65882,7727,654995,0
144,-1,639036,219227,1291878,65786,7585,645988,0
144,-1,640905,219377,1341117,66338,7273,670612,0
144,-1,643882,219249,1384602,66296,7819,692012,0
144,-1,646016,221545,1286856,67133,7442,643407,0
145,-1,636575,218468,1180405,65628,6667,590220,0
145,-1,639669,219750,1171670,66059,6474,585886,0
145,-1,647163,221358,1416564,66365,8048,707985,0
145,-1,639592,219118,1286421,65718,7488,643250,0
145,-1,639047,218763,1359248,66066,7622,679666,0
145,-1,640685,218147,1323918,65823,8127,661949,0
145,-1,639075,219470,1421225,66200,7972,709951,0
146,-1,643748,221815,1476279,67002,8784,738025,0
146,-1,640712,220780,1292868,66658,7055,646516,0
146,-1,645655,221157,1292285,66335,7252,646128,0
146,-1,641555,220121,1272980,66241,7154,636539,0
146,-1,640364,218990,1420031,66141,7749,710060,0
146,-1,645053,220189,1322336,66859,8172,660996,0
146,-1,639921,220232,1199020,66465,7427,599458,0
147,-1,654781,223032,1288712,68921,7600,644231,0
147,-1,657659,224078,1255909,69297,7326,627967,0
147,-1,646131,221609,1293115,66683,7477,646360,0
147,-1,642462,220780,1201572,66555,7061,600718,0
147,-1,644374,221063,1228157,67131,6642,614144,0
147,-1,664374,223994,1386435,69609,8795,693220,0
147,-1,644177,219719,1350124,66301,8355,674934,0
148,-1,639500,219804,1226284,65957,7280,613180,0
148,-1,636300,219997,1245729,66158,6778,622930,0
148,-1,647946,220914,1237533,66274,7880,618810,0
148,-1,658826,223904,1222298,69088,8081,611210,0
148,-1,638422,218767,1241303,66127,7610,620822,0
148,-1,643808,220036,1202060,66411,7094,601011,0
148,-1,646463,220829,1244175,66945,7994,622193,0
149,-1,634380,218299,1233343,65434,6487,616725,0
149,-1,637751,220089,1193739,66221,7193,596911,0
149,-1,646690,220707,1336569,66149,8194,668326,0
149,-1,636590,219203,1202506,65741,7682,601315,0
149,-1,636818,218522,1173353,66023,7283,586685,0
149,-1,640090,218772,1304569,65927,7852,652249,0
149,-1,665801,224531,1365363,69645,9348,682665,0
150,-1,638354,219249,1204444,65785,6683,602285,0
150,-1,634469,218906,1239794,65747,7617,619947,0
150,-1,644600,220079,1393714,65981,8022,696757,0
150,-1,642050,218557,1189640,65509,7944,594858,0
150,-1,639938,218955,1319252,66177,8023,659662,0
150,-1,644599,220408,1224646,66684,7138,612301,0
150,-1,644120,220184,1200883,66475,7979,600495,0
151,-1,640020,220524,1362065,66472,7935,680945,0
151,-1,634716,219204,1224568,65973,7550,612321,0
151,-1,642118,219720,1320745,65974,6956,660416,0
151,-1,642020,218934,1130062,65678,7498,565033,0
151,-1,639023,218932,1356834,66207,9550,678248,0
151,-1,644584,219578,1316503,66225,8083,658164,0
151,-1,641409,219209,1298513,66082,8073,649295,0
152,-1,654318,222780,1375312,68745,8143,687705,0
152,-1,639038,221414,1223157,66908,7739,611636,0
152,-1,644353,220893,1329107,66548,8121,664566,0
152,-1,641189,218585,1237208,65514,8288,618643,0
152,-1,637631,218623,1428405,66029,8366,714150,0
152,-1,643517,218799,1245080,65990,7753,622553,0
152,-1,643466,219977,1317137,66443,8257,658624,0
153,-1,634849,218605,1489159,65601,8475,743797,0
153,-1,641711,219175,1205632,65810,8016,602858,0
153,-1,643285,220031,1240968,66195,7335,620535,0
153,-1,645523,220809,1198396,66569,7842,599273,0
153,-1,644913,221892,1504037,67515,9780,751653,0
153,-1,645173,219869,1278928,66337,8489,639280,0
153,-1,638480,218749,1297840,65942,7472,648968,0
154,-1,639933,218997,1256373,65704,7340,628216,0
154,-1,641326,219594,1190009,66082,7438,595089,0
154,-1,650582,221887,1312348,67066,7935,655893,0
154,-1,663013,224050,1283160,69137,8701,641513,0
154,-1,658803,223340,1364839,69349,8598,682463,0
154,-1,642495,219214,1235658,66009,8657,617673,0
154,-1,666530,224592,1379371,69728,9220,689742,0
155,-1,637337,218446,1184536,65467,6792,592278,0
155,-1,638558,219018,1295726,65799,7507,647955,0
155,-1,667034,224867,1317779,69552,8292,658871,0
155,-1,638849,218763,1244364,65580,7410,622242,0
155,-1,636187,218708,1193591,66112,7910,596836,0
155,-1,644069,219892,1211740,66517,7700,605857,0
155,-1,643414,219987,1245103,66444,7307,622641,0
156,-1,638979,218941,1301003,65669,7503,650553,0
156,-1,641589,219362,1290595,65997,7709,645359,0
156,-1,646763,220420,1290765,66352,7335,645161,0
156,-1,647007,221389,1262268,66712,7549,631186,0
156,-1,642591,221092,1159076,67059,8017,579548,0
156,-1,641407,218640,1322223,65971,8487,661092,0
156,-1,641618,219523,1294081,66245,7876,647094,0
157,-1,642223,220774,1328841,66557,7983,664487,0
157,-1,643099,219986,1335108,66168,6962,667484,0
157,-1,650469,221686,1383066,66928,8063,691313,0
157,-1,639522,218913,1368478,65669,7419,684285,0
157,-1,641067,219080,1215627,66152,8015,607871,0
157,-1,643640,220046,1300534,66422,7973,650284,0
157,-1,645231,221138,1225083,66992,7704,612600,0
157,-1,641054,218872,1294477,66159,7454,647321,0
158,-1,659839,223667,1293349,68949,8703,646643,0
158,-1,639571,219217,1265856,65903,7322,632958,0
158,-1,643145,219720,1224969,66094,8166,612449,0
158,-1,639763,219126,1187313,65742,7003,593712,0
158,-1,638202,218696,1314321,66068,8318,657163,0
158,-1,645035,220434,1211758,66844,7855,605811,0
158,-1,640923,219776,1305991,66346,7968,652998,0
158,-1,645635,221022,1473151,67208,8071,736257,0
159,-1,638650,219207,1249034,65758,6747,624433,0
159,-1,641835,220059,1280838,66202,7109,640467,0
159,-1,642349,219642,1246031,66055,7300,622823,0
159,-1,638399,218915,1255169,65650,7478,627641,0
159,-1,642652,220550,1226600,66874,8055,613362,0
159,-1,639627,218736,1226753,65946,7446,613301,0
159,-1,642829,220003,1237915,66426,7858,618624,0
159,-1,662346,223742,1526110,69588,8861,763106,0
160,-1,636398,218396,1387792,65462,7964,693902,0
160,-1,638159,219089,1231543,65808,7059,615782,0
160,-1,647468,222009,1241874,67135,7581,620788,0
160,-1,638984,218924,1227360,65668,7281,613735,0
160,-1,637427,218994,1295445,66162,8215,647715,0
160,-1,645397,219497,1432992,66233,8821,716503,0
160,-1,640227,219382,1363009,66284,7530,681518,0
160,-1,639094,218541,1380877,66063,7788,690012,0
161,-1,641292,220599,1324304,66394,7727,662134,0
161,-1,636848,219062,1304451,65790,7083,652274,0
161,-1,666494,224991,1294425,69623,9259,647139,0
161,-1,642409,219306,1262667,65810,7779,631380,0
161,-1,636206,218498,1293785,65949,8108,646936,0
161,-1,641364,218347,1192632,65824,7366,596307,0
161,-1,639698,219134,1389469,66108,8528,694783,0
161,-1,639846,218436,1323332,65966,7773,661465,0
162,-1,634761,218505,1209782,65501,7021,604941,0
162,-1,640573,219323,1282706,65860,6994,641443,0
162,-1,643136,219890,1210077,66093,8115,604989,0
162,-1,638322,218225,1220416,65394,7439,610239,0
162,-1,635394,218574,1290618,65961,7584,645340,0
162,-1,642562,218808,1356019,65944,8229,678036,0
162,-1,645112,221618,1334256,67239,8292,667264,0
162,-1,639590,218715,1155248,66135,7111,577677,0
163,-1,638819,218917,1297388,65628,7887,648667,0
163,-1,639392,219848,1351508,66065,7348,675801,0
163,-1,649260,222186,1411614,67046,8816,705283,0
163,-1,645672,221259,1339923,66596,7052,669920,0
163,-1,657702,222854,1390898,69200,8609,695413,0
163,-1,642311,219028,1225299,66103,7563,612560,0
163,-1,638430,219498,1271601,66206,7960,635762,0
163,-1,637988,218632,1163327,66000,6643,581717,0
164,-1,659583,223665,1324316,69096,8662,662123,0
164,-1,641586,220486,1330050,66531,7657,664994,0
164,-1,642590,220152,1352573,66111,8537,676651,0
164,-1,638768,218415,1306647,65490,7511,653366,0
164,-1,640588,220101,1659844,66578,8753,829977,0
164,-1,643312,220051,1240296,66568,7942,620151,0
164,-1,645879,220915,1214137,66943,8258,607093,0
164,-1,640401,218234,1133502,65878,7885,566786,0
165,-1,632832,218047,1297844,65393,7201,648958,0
165,-1,639121,219476,1288176,65951,6919,644128,0
165,-1,647527,221155,1227900,66551,7144,613844,0
165,-1,641308,219439,1179722,65874,7227,589934,0
165,-1,638163,219802,1205051,66669,7117,602606,0
165,-1,643163,220123,1370709,66456,8208,685450,0
165,-1,643919,220133,1265547,66412,7592,632593,0
165,-1,643072,219995,1237318,66746,8628,618739,0
166,-1,639331,220077,1310712,66271,7572,655423,0
166,-1,637508,219438,1244032,66009,7224,622060,0
166,-1,642475,219866,1420157,66074,8458,710118,0
166,-1,638449,218601,1318425,65515,7499,659182,0
166,-1,636973,219582,1303714,66320,7884,651905,0
166,-1,660239,223237,1373893,69236,8557,686996,0
166,-1,638834,219235,1346742,66067,7911,673407,0
166,-1,639401,218973,1207512,66115,7800,603736,0
167,-1,635973,219050,1228442,65748,7283,614128,0
167,-1,637264,219408,1199500,65993,7734,599789,0
167,-1,663956,224649,1276332,69400,8020,637851,0
167,-1,635690,218321,1213210,65435,6885,606514,0
167,-1,657534,223975,1359355,69605,8989,679499,0
167,-1,643214,219997,1256112,66410,6912,628022,0
167,-1,641258,220472,1234294,66735,7819,617131,0
167,-1,641245,219786,1186097,66643,7690,593117,0
168,-1,634026,218367,1166457,65466,7049,583274,0
168,-1,637805,219336,1211228,65917,7188,605668,0
168,-1,643335,220988,1266352,66467,7644,633234,0
168,-1,640708,218976,1335741,65692,8035,667914,0
168,-1,639647,218725,1264787,66059,7489,632402,0
168,-1,640393,219191,1361868,66155,7974,680789,0
168,-1,640271,219808,1319672,66391,8541,659819,0
168,-1,638119,218697,1200658,66065,7224,600379,0
169,-1,658839,223201,1220220,68968,8113,610264,0
169,-1,641853,221407,1213837,66889,7828,607003,0
169,-1,645819,220482,1232598,66362,7488,616240,0
169,-1,637787,219082,1210878,65720,7875,605460,0
169,-1,646753,220380,1264597,66857,8380,632364,0
169,-1,639102,219069,1292231,66078,8924,646024,0
169,-1,642637,219949,1236971,66365,8269,618300,0
169,-1,639126,219014,1212170,66196,7014,606108,0
170,-1,636842,218632,1123347,65757,6504,561799,0
170,-1,655419,223513,1177586,69102,8609,588865,0
170,-1,646170,220550,1392738,66318,8494,696049,0
170,-1,639883,220386,1290674,66286,7949,645431,0
170,-1,641611,218677,1534946,66115,10247,767459,0
170,-1,643743,218475,1198014,66031,8323,598795,0
170,-1,640475,219480,1326141,66264,8478,662972,0
170,-1,636322,218393,1171347,65971,6481,585722,0
171,-1,635792,218413,1232411,65602,8115,616240,0
171,-1,643239,219853,1207311,66070,7605,603701,0
171,-1,650167,222645,1459657,67247,8561,729907,0
171,-1,642052,218919,1288174,65613,7846,644135,0
171,-1,640789,218367,1290220,65951,8667,645151,0
171,-1,642745,218620,1188555,66053,7747,594202,0
171,-1,639912,219558,1371599,66260,8236,685814,0
171,-1,642794,221153,1261572,67177,7316,630807,0
172,-1,638294,219313,1248091,65927,8320,623642,0
172,-1,640554,219504,1242907,66026,7079,621505,0
172,-1,645526,220904,1361443,66400,9156,680686,0
172,-1,641972,219289,1207829,65789,7491,603940,0
172,-1,645826,220307,1203519,66848,7492,601740,0
172,-1,646677,220179,1210375,66780,8384,605002,0
172,-1,644554,221324,1221324,67186,8287,610767,0
172,-1,642784,219935,1362033,66701,7623,681048,0
173,-1,636155,219295,1192157,65885,6544,596135,0
173,-1,636630,219353,1206110,65981,6768,603104,0
173,-1,642740,220176,1293695,66099,8005,646772,0
173,-1,639010,218502,1411362,65482,8276,705766,0
173,-1,663203,223747,1363734,69530,8835,681664,0
173,-1,646113,219613,1221419,66458,7731,610665,0
173,-1,660338,224098,1425108,69553,9817,712511,0
173,-1,638279,218866,1168143,66166,7015,584169,0
174,-1,654614,223129,1275629,68966,7818,637758,0
174,-1,640022,219389,1249109,66019,7347,624456,0
174,-1,644889,221475,1311434,66753,8231,655790,0
174,-1,640490,218673,1177651,65550,6754,588860,0
174,-1,638983,218549,1291373,66059,8094,645743,0
174,-1,642160,218538,1292995,66037,7828,646458,0
174,-1,643711,221610,1270525,67141,8180,635227,0
174,-1,638858,218600,1306036,66094,7807,653076,0
175,-1,633245,218694,1152099,65720,6874,576102,0
175,-1,637773,219016,1317744,65825,6775,658927,0
175,-1,644317,220534,1194510,66342,7927,597313,0
175,-1,641170,219506,1252138,65835,7314,626128,0
175,-1,639067,218004,1206090,65759,7877,603002,0
175,-1,640759,218382,1173318,65863,7113,586603,0
175,-1,640847,220324,1349078,66537,8572,674475,0
175,-1,644955,221539,1310863,67308,8409,655461,0
176,-1,636265,218869,1193715,65745,7256,596907,0
176,-1,638789,219736,1296793,66096,7113,648313,0
176,-1,640320,219353,1374037,65868,8066,687018,0
176,-1,643571,220898,1270378,66494,7033,635252,0
176,-1,640550,218842,1261873,66153,8395,630993,0
176,-1,642189,219262,1288729,66290,7596,644348,0
176,-1,637649,219798,1364719,66304,8358,682353,0
176,-1,658923,223360,1290976,69455,8714,645341,0
177,-1,633398,218152,1191244,65564,6875,595589,0
177,-1,637744,219475,1281654,65987,6785,640967,0
177,-1,662563,224451,1537453,69218,9135,768349,0
177,-1,639869,219252,1270273,65725,7959,635197,0
177,-1,644729,220886,1224267,67136,7969,612251,0
177,-1,645791,220757,1241677,67017,8035,620773,0
177,-1,642718,219226,1285659,66162,7460,642743,0
177,-1,633321,217531,1155642,65770,6906,577769,0
178,-1,632031,217975,1313861,65544,6928,656940,0
178,-1,636210,219278,1197765,65944,6444,598898,0
178,-1,642007,220052,1292408,66008,8516,646194,0
178,-1,667601,228748,1359110,68546,8029,679583,0
178,-1,660578,223385,1328097,69428,9146,664039,0
178,-1,639263,218304,1236996,65944,7513,618487,0
178,-1,649745,220657,1360203,66631,8928,679910,0
178,-1,635018,218289,1273086,65920,7354,636591,0
179,-1,642265,221433,1475913,66906,8118,737949,0
179,-1,639596,220578,1299931,66486,7628,650080,0
179,-1,644598,221398,1372193,66761,8106,686094,0
179,-1,640089,219455,1421171,65829,7784,710636,0
179,-1,640217,219167,1269234,66207,8318,634718,0
179,-1,641065,219254,1334616,66212,7785,667286,0
179,-1,645834,219578,1303226,66250,8691,651391,0
179,-1,644129,220751,1349613,67044,7879,674982,0
180,-1,654885,223227,1325808,68982,8078,662845,0
180,-1,635152,219241,1225733,65931,6807,612850,0
180,-1,638128,219497,1203283,66003,7749,601595,0
180,-1,637404,218586,1226817,65529,6809,613443,0
180,-1,638770,218297,1219977,65821,7732,610044,0
180,-1,643099,220300,1275946,66814,7987,637940,0
180,-1,650081,221919,1242286,67342,8330,621138,0
180,-1,636599,218261,1317810,66035,7488,658757,0
181,-1,634398,218814,1359638,65712,7479,679727,0
181,-1,638791,219991,1292971,66244,7846,646617,0
181,-1,637482,218944,1349651,65775,7849,674687,0
181,-1,637857,218890,1294844,65616,7381,647507,0
181,-1,642049,219881,1323165,66423,8079,661608,0
181,-1,644500,219009,1182212,66111,7220,591153,0
181,-1,664617,224317,1324402,69571,9242,662201,0
181,-1,636680,218526,1254359,66129,6668,627220,0
182,-1,645926,220858,1352310,66691,7892,676374,0
182,-1,638115,218700,1323892,65792,6858,662049,0
182,-1,649881,221286,1346784,66861,8833,673245,0
182,-1,638661,218591,1356533,65510,7762,678319,0
182,-1,644589,219551,1390239,66265,8178,695172,0
182,-1,644425,219559,1320829,66333,7487,660425,0
182,-1,647022,219889,1218919,66416,7578,609500,0
182,-1,636864,219113,1368166,66301,8163,684420,0
183,-1,640512,218724,1257751,65746,7217,628931,0
183,-1,657918,223431,1352624,69120,7503,676369,0
183,-1,643980,219375,1235403,65907,7765,617543,0
183,-1,641949,220149,1312308,66274,7624,656033,0
183,-1,645103,220405,1494955,66849,9964,747595,0
183,-1,640326,218365,1364942,65912,7698,682466,0
183,-1,645803,219431,1280578,66207,8097,640348,0
183,-1,639883,220523,1395977,66994,8902,698141,0
184,-1,643200,219372,1382904,65894,8192,691492,0
184,-1,638663,219377,1403672,66039,7042,701836,0
184,-1,643660,219617,1217766,66025,8073,608737,0
184,-1,638135,218736,1261922,65531,7725,631005,0
184,-1,662112,223666,1390155,69490,8737,695129,0
184,-1,641798,219423,1281572,66367,7349,640556,0
184,-1,645736,219870,1252169,66381,8052,625964,0
184,-1,633721,218381,1324733,66130,8363,662446,0
185,-1,639137,218448,1173987,65573,7009,587205,0
185,-1,637150,219255,1275523,65970,7438,637813,0
185,-1,641935,219552,1270749,65882,7760,635092,0
185,-1,639455,219347,1215994,65729,6953,608048,0
185,-1,641204,219059,1292760,66227,7640,646407,0
185,-1,640786,218909,1260786,66405,6898,630382,0
185,-1,649528,221214,1239795,67009,7904,619742,0
185,-1,642612,219038,1447122,66340,8264,723567,0
186,-1,644808,220682,1330040,66549,7939,664997,0
186,-1,667758,229455,1328284,69242,7913,664202,0
186,-1,645112,221155,1321872,66612,8680,660962,0
186,-1,638923,218903,1280797,65552,7372,640447,0
186,-1,639029,218638,1361089,66040,7891,680586,0
186,-1,640228,218845,1351467,66130,8158,675681,0
186,-1,645402,220065,1374969,66484,8383,687502,0
186,-1,639691,218098,1587291,65923,7995,792666,0
187,-1,639501,218475,1261790,65677,7909,630930,0
187,-1,637887,219436,1241287,66059,7164,620536,0
187,-1,642438,219935,1323380,66018,8445,661703,0
187,-1,644345,221459,1289505,66714,7688,644886,0
187,-1,641153,218990,1390064,66179,9048,695090,0
187,-1,638532,218345,1241763,65850,7557,620866,0
187,-1,643713,219275,1262334,66224,7169,631235,0
187,-1,636897,217859,1210842,65944,8021,605403,0
188,-1,637963,218231,1315571,65507,7677,657794,0
188,-1,636052,219344,1200862,65996,7196,600439,0
188,-1,642083,219140,1340762,65698,7420,670308,0
188,-1,640432,219975,1200656,65957,7289,600394,0
188,-1,639649,218771,1189646,66025,7736,594912,0
188,-1,646654,220732,1177849,67011,7748,588833,0
188,-1,642899,219284,1429371,66147,7728,714926,0
188,-1,636252,218270,1196134,66066,7385,597998,0
189,-1,640932,218250,1452825,65446,7348,726461,0
189,-1,639810,221144,1330513,66901,7935,665224,0
189,-1,643317,219910,1326077,66004,6854,662724,0
189,-1,639535,219866,1152523,65859,7471,576315,0
189,-1,636163,218439,1299836,66023,8415,649948,0
189,-1,638994,218719,1259364,66126,7442,629671,0
189,-1,665400,224705,1346773,69775,8367,673438,0
189,-1,645872,221067,1376919,67256,7908,688571,0
190,-1,661126,223412,1350124,68931,8333,675058,0
190,-1,638663,219759,1345170,66176,7291,672627,0
190,-1,640200,219231,1307625,65682,7713,653771,0
190,-1,641695,220098,1308287,65977,7847,654060,0
190,-1,633088,218460,1273931,65114,7242,636986,0
190,-1,641855,220269,1163121,66787,7315,581478,0
190,-1,644204,219816,1154737,66378,7189,577410,0
190,-1,660767,223115,1456190,69464,8458,728090,0
191,-1,640246,219055,1284135,65682,7452,642124,0
191,-1,635243,218494,1365484,65754,7312,682511,0
191,-1,643105,219616,1381124,65853,8722,690540,0
191,-1,639566,219570,1150169,65808,7580,575135,0
191,-1,642974,220132,1196701,65893,7101,598419,0
191,-1,639640,219262,1234958,66233,7853,617366,0
191,-1,641678,219245,1227683,66140,7708,613759,0
191,-1,642258,220361,1357152,66964,7499,678621,0
192,-1,639940,218911,1267036,65670,7393,633386,0
192,-1,638165,220155,1287129,66454,7464,643689,0
192,-1,660566,223964,1289143,69096,8637,644352,0
192,-1,636964,218677,1321666,65440,7961,660844,0
192,-1,637025,218472,1229930,65112,6993,615007,0
192,-1,657953,223096,1409886,69335,9746,704873,0
192,-1,645143,219607,1285569,66247,8060,642773,0
192,-1,638635,218565,1203818,66149,6964,601957,0
193,-1,636466,217729,1182773,65204,7131,591435,0
193,-1,633853,218836,1231198,65845,7253,615599,0
193,-1,645499,221029,1319198,66538,8678,659597,0
193,-1,639148,219708,1315456,65836,8111,657781,0
193,-1,640565,220702,1297895,66106,7183,649002,0
193,-1,642538,218495,1277757,66035,8180,638828,0
193,-1,644799,219718,1407931,66275,8337,703938,0
193,-1,636735,218350,1330984,66077,7134,665572,0
194,-1,639679,219296,1370682,65805,7468,685387,0
194,-1,655800,223397,1253775,69135,8684,626838,0
194,-1,643042,219667,1418492,65922,8798,709127,0
194,-1,637913,219258,1203908,65640,7462,602007,0
194,-1,636198,219291,1401493,65475,8403,700633,0
194,-1,644107,219446,1292104,66334,8636,646087,0
194,-1,666140,224391,1354322,69615,9332,677049,0
194,-1,643136,220911,1331519,67220,7952,665856,0
195,-1,659583,223597,1309364,68965,8492,654729,0
195,-1,631383,218528,1334267,65749,7988,667184,0
195,-1,661141,224063,1334916,69182,8436,667505,0
195,-1,647271,219460,1340592,65706,7197,670417,0
195,-1,636635,218708,1265653,65219,7379,632876,0
195,-1,645325,220298,1270543,66820,7773,634684,0
195,-1,645332,220002,1233162,66435,7822,616504,0
195,-1,641153,218601,1402583,66161,7786,701329,0
196,-1,642688,219152,1275173,65751,7721,637646,0
196,-1,638447,219009,1285655,65945,7043,642882,0
196,-1,644445,220459,1470562,66189,9739,735327,0
196,-1,644272,219486,1181694,65640,7457,590892,0
196,-1,638736,219332,1208338,65479,7120,604205,0
196,-1,639695,218337,1232703,65867,7887,616295,0
196,-1,644248,219945,1302105,66363,8659,651022,0
196,-1,639132,218474,1339546,66115,6774,669952,0
197,-1,639588,218907,1360169,65683,8278,679683,0
197,-1,643135,221024,1309261,66869,8157,654663,0
197,-1,638786,219264,1221274,65783,8078,610474,0
197,-1,649795,221315,1303053,66457,8237,651582,0
197,-1,642823,221392,1198519,66468,7475,599329,0
197,-1,643630,219170,1404347,66180,8392,702165,0
197,-1,667675,228282,1320805,68820,8111,660394,0
197,-1,665772,228023,1275650,69013,6976,637871,0
198,-1,638494,218872,1178717,65632,7357,589305,0
198,-1,659946,223588,1232050,69227,7868,616092,0
198,-1,646934,222111,1388637,67057,8166,694364,0
198,-1,645805,220105,1202832,65899,7421,601499,0
198,-1,657836,223616,1327528,68646,8118,663783,0
198,-1,641162,219125,1216690,66220,7383,608468,0
198,-1,643226,219377,1287480,66180,7904,643629,0
198,-1,658560,223136,1351497,69486,8550,675824,0
199,-1,640390,219004,1269163,65691,7534,634661,0
199,-1,639672,219522,1434342,66111,7963,717211,0
199,-1,661104,223940,1315832,69169,8606,658025,0
199,-1,643419,219135,1261898,65519,8122,630990,0
199,-1,635715,219040,1216486,65323,7309,608292,0
199,-1,638408,218397,1213505,65885,7211,606865,0
199,-1,641796,219438,1306768,66265,7349,653326,0
199,-1,636647,218497,1310163,66135,7406,655063,0
200,-1,638215,218410,1201468,65457,6553,600790,0
200,-1,638601,219454,1239828,66074,7287,619990,0
200,-1,639656,219811,1256720,66119,7869,628329,0
200,-1,643745,219522,1196848,65727,7692,598472,0
200,-1,633573,218683,1439763,65255,8600,719834,0
200,-1,644855,220477,1273404,66832,8049,636736,0
200,-1,646151,220934,1260767,66944,7472,630492,0
200,-1,638243,219555,1351742,66709,7280,675901,0
201,-1,644193,221090,1345768,66585,7823,672307,0
201,-1,641707,220648,1325322,66760,7480,662815,0
201,-1,664511,223815,1439751,69245,8691,719810,0
201,-1,671592,225330,1323662,69839,8501,661790,0
201,-1,643890,221407,1218431,66383,7430,609059,0
201,-1,642823,219424,1356801,66341,8187,678334,0
201,-1,642101,219692,1367024,66333,8422,683507,0
201,-1,640305,219111,1404500,66369,7864,702442,0
202,-1,661027,223891,1328348,69073,8208,664218,0
202,-1,656153,222992,1272980,68986,7359,636425,0
202,-1,644361,220117,1413791,66232,7771,706950,0
202,-1,646121,219960,1289498,65853,8681,644804,0
202,-1,659225,223598,1325216,68635,8100,662565,0
202,-1,640145,218888,1256582,66170,7673,628241,0
202,-1,645973,219756,1241892,66374,8368,620710,0
202,-1,641655,220666,1326298,67136,7765,663201,0
203,-1,638751,219052,1227311,65737,7724,613722,0
203,-1,638978,219800,1204089,66214,7198,601777,0
203,-1,640762,219047,1183298,65832,7139,592053,0
203,-1,642987,218721,1282085,65346,8329,641091,0
203,-1,637585,219244,1296309,65387,7360,648171,0
203,-1,640405,219010,1368910,66159,8242,684431,0
203,-1,644294,219441,1395055,66205,7975,697509,0
203,-1,657611,223762,1377720,69678,8506,688803,0
204,-1,639752,219256,1334529,65768,7009,667315,0
204,-1,641297,220832,1325719,66743,7706,662758,0
204,-1,642064,219556,1287261,66044,7683,643606,0
204,-1,644139,219689,1201813,65764,7569,600957,0
204,-1,636351,218713,1190945,65226,6632,595545,0
204,-1,642676,220357,1266523,66862,7598,633120,0
204,-1,645819,219828,1450239,66384,8719,725015,0
204,-1,635754,218270,1296010,66042,7924,648040,0
205,-1,637986,218881,1183866,65694,7028,591991,0
205,-1,635494,218910,1251856,65926,7149,625493,0
205,-1,643596,220498,1323400,66504,7718,661719,0
205,-1,639527,218306,1288291,65279,8228,644254,0
205,-1,640332,220648,1232700,66085,7471,616472,0
205,-1,640295,218765,1405745,66151,8561,702855,0
205,-1,646767,220682,1268752,66889,8052,634531,0
205,-1,636824,219029,1136323,66352,7078,568183,0
206,-1,637796,218319,1175550,65450,7378,587933,0
206,-1,635999,219368,1396592,66064,7486,698106,0
206,-1,640780,219164,1355884,65835,8558,677928,0
206,-1,648504,221637,1343364,66673,8806,671755,0
206,-1,654545,223289,1355094,68506,8620,677397,0
206,-1,635454,218234,1242143,65915,8046,621090,0
206,-1,646156,220452,1348421,66567,7849,674359,0
206,-1,638682,219881,1257412,66753,7085,628685,0
207,-1,640226,218604,1422606,65624,8710,711589,0
207,-1,646365,221711,1495108,67158,8738,747438,0
207,-1,641029,219476,1280074,65914,7943,640024,0
207,-1,664902,224794,1406032,69180,8312,702994,0
207,-1,636443,218451,1194164,65120,7465,597062,0
207,-1,641121,218916,1256500,66187,7508,628093,0
207,-1,648525,221606,1190059,67241,7754,594824,0
207,-1,635931,219195,1289710,66386,7137,644822,0
208,-1,638845,218132,1184773,65354,7414,592338,0
208,-1,638073,219579,1205914,66075,7070,602945,0
208,-1,644972,221414,1344876,66866,8245,672436,0
208,-1,649459,221256,1243212,66436,8029,621725,0
208,-1,637841,220122,1251061,65822,8032,625539,0
208,-1,662267,223757,1376611,69586,8266,688311,0
208,-1,664695,224500,1357524,69680,9251,678677,0
208,-1,637097,218824,1253209,66281,7768,626662,0
209,-1,645342,220983,1278831,66640,8451,639118,0
209,-1,639798,220543,1339440,66612,8452,669251,0
209,-1,645006,221014,1335004,66594,8334,667531,0
209,-1,643219,219660,1315458,65752,8261,657778,0
209,-1,635029,219011,1271598,65269,8235,635809,0
209,-1,638452,218631,1209046,66111,6728,604527,0
209,-1,645059,219980,1336418,66380,7736,668137,0
209,-1,646576,221316,1268425,67405,7884,634256,0
210,-1,639362,218853,1270777,65598,7274,635431,0
210,-1,638528,219991,1303360,66273,7867,651572,0
210,-1,640492,219348,1308075,65756,8302,653980,0
210,-1,649014,221466,1268122,66557,8451,634145,0
210,-1,633296,218763,1196974,65280,7178,598539,0
210,-1,641308,219811,1320137,66439,7563,660069,0
210,-1,643247,219687,1425425,66364,8426,712697,0
210,-1,662000,223861,1269674,69677,8806,634750,0
211,-1,636525,218791,1317221,65588,7148,658666,0
211,-1,639393,220730,1329447,66725,8248,664663,0
211,-1,645902,221876,1334662,66906,8211,667184,0
211,-1,641946,219031,1269973,65548,7417,635032,0
211,-1,641863,221843,1285831,66511,7655,642980,0
211,-1,643994,220434,1180707,66874,7455,590307,0
211,-1,642725,219803,1327262,66324,8275,663967,0
211,-1,637692,218382,1219113,66077,7721,609619,0
212,-1,645274,221048,1394351,66690,8204,697278,0
212,-1,656819,223801,1329021,69319,8713,664373,0
212,-1,640111,220615,1467286,66445,7665,733223,0
212,-1,641727,219428,1414154,65718,8113,706762,0
212,-1,632712,218708,1244869,65172,8255,622455,0
212,-1,635676,218187,1203172,65845,7745,601431,0
212,-1,648432,221697,1232492,67192,7543,616168,0
212,-1,643488,220021,1190132,66854,7657,595130,0
213,-1,636876,218285,1241711,65429,6399,621038,0
213,-1,635315,219001,1340879,65951,8394,670475,0
213,-1,640977,219786,1251591,65964,8100,625849,0
213,-1,646218,221747,1311302,66620,8045,655543,0
213,-1,637469,220627,1215390,66053,7597,607764,0
213,-1,662381,223477,1298056,69484,9464,648770,0
213,-1,662602,223883,1373154,69486,8697,686514,0
213,-1,640983,219667,1227392,66535,8003,613742,0
214,-1,638303,218691,1312473,65546,7525,656260,0
214,-1,632359,217549,1222368,65520,7059,611508,0
214,-1,644747,221261,1359354,66757,8464,679496,0
214,-1,643573,219323,1322192,65568,8192,661111,0
214,-1,638318,218586,1300894,65184,7872,650389,0
214,-1,642446,220559,1287088,66919,7649,643404,0
214,-1,642899,220858,1259143,66909,7555,629603,0
214,-1,636860,218439,1277014,66112,7162,638596,0
215,-1,639628,219712,1328968,66112,7796,664546,0
215,-1,636009,219020,1207760,65942,7250,603573,0
215,-1,641104,219611,1248914,65885,7168,624442,0
215,-1,642932,219393,1294716,65646,8530,647514,0
215,-1,659006,224104,1608218,68651,10288,803763,0
215,-1,635680,218343,1373238,65945,8122,686434,0
215,-1,645906,220191,1282004,66465,8214,640971,0
215,-1,635738,218168,1324136,66009,7216,662114,0
216,-1,638106,219076,1311645,65737,7679,655746,0
216,-1,633661,218515,1356240,65683,8253,678183,0
216,-1,638293,219423,1387039,65881,8233,693670,0
216,-1,647632,221746,1310321,66741,8658,654949,0
216,-1,638126,218885,1388728,65176,8786,694274,0
216,-1,636818,218270,1214343,65928,8291,607153,0
216,-1,645524,220088,1266733,66322,7595,633279,0
216,-1,637750,218417,1269406,66092,7527,634750,0
217,-1,642384,220925,1327003,66570,7863,663556,0
217,-1,633345,219145,1327433,65993,7997,663350,0
217,-1,638138,219545,1474306,65867,7890,737092,0
217,-1,640121,218551,1209968,65357,7711,604289,0
217,-1,637034,218599,1210250,65064,7102,605126,0
217,-1,639675,219435,1244893,66352,7959,622490,0
217,-1,643905,219756,1337610,66260,8449,668739,0
217,-1,635672,218093,1182712,65989,7478,591418,0
218,-1,636330,218557,1288354,65728,6855,644148,0
218,-1,638776,219042,1369002,65925,8355,684128,0
218,-1,637748,219034,1339226,65673,7181,669361,0
218,-1,641836,219579,1289639,65769,8491,644858,0
218,-1,640064,220247,1199877,65752,7301,599921,0
218,-1,635803,218014,1290727,65849,8484,645337,0
218,-1,643107,219996,1283965,66395,7585,641858,0
218,-1,636631,218588,1224839,66147,7593,612458,0
219,-1,637424,218648,1185877,65697,6477,592979,0
219,-1,636564,218494,1248265,65764,7807,624084,0
219,-1,644609,221541,1287070,66891,7783,643224,0
219,-1,644984,221141,1395690,66441,8451,698129,0
219,-1,635354,218725,1302414,65117,8004,651254,0
219,-1,641583,220581,1224701,66993,8301,612112,0
219,-1,645906,221419,1315709,67046,7894,657765,0
219,-1,658482,223518,1439904,69544,9245,719913,0
220,-1,642269,220668,1297477,66673,7475,648688,0
220,-1,641389,220859,1315572,66752,8742,657861,0
220,-1,659925,223846,1277267,69121,8758,638315,0
220,-1,640567,219217,1258843,65633,8171,629409,0
220,-1,639491,219435,1285992,65320,7818,643033,0
220,-1,658463,223560,1386160,69494,9496,693045,0
220,-1,643030,220516,1223175,66519,6956,611638,0
220,-1,636258,218516,1219323,66131,7122,609690,0
221,-1,635321,218313,1286729,65613,7484,643507,0
221,-1,657537,223735,1294450,69283,9184,647069,0
221,-1,637070,219063,1303956,65800,7637,651969,0
221,-1,641028,219598,1337377,65711,8789,668736,0
221,-1,641865,220808,1248442,66204,7979,624414,0
221,-1,646156,219212,1328965,66273,7663,664572,0
221,-1,663304,224396,1377266,69632,9183,688559,0
221,-1,660395,224051,1417212,69752,7993,708573,0
222,-1,635335,218830,1201961,65801,6254,601047,0
222,-1,639633,219593,1340634,66140,7951,670322,0
222,-1,639338,219947,1217755,66029,6718,608830,0
222,-1,646121,219382,1528883,65628,9503,764326,0
222,-1,640203,220071,1326523,65789,8097,663202,0
222,-1,640779,217414,1353967,65660,8098,676809,0
222,-1,642970,220303,1189692,66702,8297,594826,0
222,-1,638692,220060,1294599,66868,7916,647362,0
223,-1,638781,218884,1271347,65807,6967,635711,0
223,-1,639098,219762,1287492,66143,8073,643918,0
223,-1,638153,219784,1265580,66006,7282,632748,0
223,-1,646312,220233,1313087,65973,7558,656595,0
223,-1,634456,218735,1305571,65095,7887,652754,0
223,-1,640507,218433,1382401,65951,8142,691438,0
223,-1,642321,220104,1235095,66385,8519,617477,0
223,-1,637293,218353,1156362,66079,6787,578234,0
224,-1,638288,218974,1141524,65849,7061,570755,0
224,-1,635951,219201,1296698,65963,8511,648332,0
224,-1,639222,220407,1318602,66318,8000,659140,0
224,-1,643260,219281,1231473,65631,7740,615785,0
224,-1,635023,219102,1347153,65244,8955,673571,0
224,-1,642873,219131,1218809,66202,7170,609409,0
224,-1,639248,218908,1144663,66014,7549,572074,0
224,-1,639382,220062,1248650,66887,7039,624486,0
225,-1,640022,220467,1233052,66611,7596,616604,0
225,-1,634439,219053,1318447,65921,8151,659144,0
225,-1,637468,219287,1393391,65930,7644,696648,0
225,-1,649580,221716,1350378,66632,8628,675175,0
225,-1,637430,218895,1289952,65164,7544,644965,0
225,-1,643316,219631,1359037,66401,7912,679531,0
225,-1,640627,219747,1232317,66328,8282,616026,0
225,-1,633271,218151,1163906,66007,5979,582013,0
226,-1,657181,224019,1217901,69260,7734,608923,0
226,-1,639934,220054,1378542,66287,9195,689303,0
226,-1,644218,219396,1237711,65937,7595,618839,0
226,-1,641713,219159,1270532,65605,7391,635281,0
226,-1,636770,219059,1349172,65158,8149,674379,0
226,-1,643633,219675,1296400,66424,8206,648271,0
226,-1,640418,219683,1236764,66218,8323,618324,0
226,-1,655362,221764,1217207,67557,7461,608695,0
227,-1,635823,218585,1142418,65744,6533,571121,0
227,-1,636899,218872,1228518,65843,7658,614264,0
227,-1,646095,220494,1320168,66533,8600,660223,0
227,-1,647701,221951,1288681,66876,7360,644401,0
227,-1,635749,219015,1411087,65220,7950,705559,0
227,-1,644761,219631,1325020,66395,7902,662381,0
227,-1,649835,221260,1290487,66976,8722,645154,0
227,-1,668575,223578,1255408,69622,8209,627749,0
228,-1,634145,218511,1116125,65727,6255,558113,0
228,-1,641961,221269,1291509,66924,8187,645736,0
228,-1,641907,219236,1225786,65965,7346,612891,0
228,-1,661847,223810,1287337,69053,8114,643683,0
228,-1,637991,219341,1365205,65331,8200,682069,0
228,-1,641387,218664,1412475,66034,8385,706245,0
228,-1,644793,220261,1220560,66424,7152,610367,0
228,-1,647952,219311,1347213,66292,8301,673337,0
229,-1,649320,224321,1225014,67211,7600,612477,0
229,-1,657594,223696,1198499,69299,8671,599272,0
229,-1,640947,218820,1345158,65779,8782,672674,0
229,-1,647284,221038,1344372,66533,8721,672223,0
229,-1,656294,223406,1338385,68368,8620,669031,0
229,-1,645820,220421,1291968,66928,7877,645789,0
229,-1,645517,219789,1341352,66341,8614,670688,0
229,-1,645597,218942,1265962,66310,7816,632945,0
230,-1,667265,230584,1244219,68792,7806,622167,0
230,-1,635665,219215,1285039,65911,7789,642509,0
230,-1,642587,219221,1272775,65898,8251,636467,0
230,-1,641172,219251,1225291,65773,7604,612612,0
230,-1,633757,218792,1266409,65127,7960,633171,0
230,-1,641995,219152,1258789,66259,7558,629410,0
230,-1,642193,218780,1341698,65904,8834,670782,0
230,-1,650087,221102,1380095,67182,8228,690056,0
231,-1,693453,236390,1320748,70431,8475,660425,0
231,-1,635400,219149,1241586,66000,7801,620461,0
231,-1,645757,220978,1467358,66761,8218,733731,0
231,-1,645299,221167,1246425,66612,8202,623449,0
231,-1,632224,218527,1183469,64992,7445,591826,0
231,-1,644699,220653,1206050,66914,7463,602966,0
231,-1,664303,224136,1381502,69519,9612,690698,0
231,-1,645262,218541,1342766,66173,8513,671431,0
232,-1,695155,237445,1255956,70757,7599,627761,0
232,-1,638602,220026,1293681,66482,8521,646871,0
232,-1,643014,219880,1429355,66144,7963,714677,0
232,-1,642330,220297,1244471,66110,8062,622285,0
232,-1,637826,219622,1331411,65406,8028,665653,0
232,-1,649523,221591,1242107,67399,8009,620988,0
232,-1,646527,220723,1380070,66570,8405,689791,0
232,-1,647504,220603,1345933,67041,8334,672762,0
233,-1,693109,237038,1356623,70614,7898,678316,0
233,-1,636351,219509,1087818,66123,7717,544228,0
233,-1,644968,219861,1308933,66288,8293,654343,0
233,-1,640224,219500,1139618,65806,7515,569861,0
233,-1,637036,219583,1227812,65386,7722,613629,0
233,-1,642676,219249,1194102,66247,7628,596836,0
233,-1,648969,221166,1236269,66905,8455,618159,0
233,-1,664730,223342,1407183,69531,9215,703796,0
234,-1,692740,237137,1346016,70648,8456,673008,0
234,-1,638000,220250,1384291,66359,8775,691201,0
234,-1,643963,220165,1241237,66262,7189,620672,0
234,-1,640128,218994,1207238,65687,7982,603678,0
234,-1,635253,218786,1233993,65074,8022,617140,0
234,-1,642570,219862,1195642,66585,7190,597766,0
234,-1,645941,220175,1300281,66347,8057,650077,0
234,-1,648771,220616,1300566,67027,8538,649730,0
235,-1,692514,237235,1445557,70682,8259,722185,0
235,-1,638429,219501,1271847,66101,7579,635973,0
235,-1,640394,219037,1215024,65859,7158,607601,0
235,-1,641429,218892,1146065,65612,7300,573011,0
235,-1,635172,219099,1231691,65277,8488,615750,0
235,-1,642530,219057,1337543,66186,7597,668843,0
235,-1,646157,220435,1263216,66445,7972,631431,0
235,-1,642504,217886,1275971,65924,7263,637830,0
236,-1,698062,239996,1566809,71956,9599,782663,0
236,-1,637098,219319,1154363,66049,7376,577200,0
236,-1,645301,221399,1269609,66862,8021,634752,0
236,-1,641950,219213,1204238,65722,8375,602157,0
236,-1,659411,224735,1440925,68818,9572,720245,0
236,-1,638963,218059,1292657,65887,6863,646373,0
236,-1,672419,226154,1385910,70610,9329,692942,0
236,-1,647939,220644,1369382,67132,7973,684715,0
237,-1,695289,238530,1440347,71284,8366,719821,0
237,-1,638006,220044,1329626,66260,7538,664874,0
237,-1,661063,223603,1373505,69061,9188,686808,0
237,-1,642900,219321,1181941,65876,7729,591019,0
237,-1,632933,218794,1214116,65082,7919,606952,0
237,-1,642778,219791,1213948,66661,7567,606706,0
237,-1,645035,220516,1185849,66455,7268,592955,0
237,-1,668062,224463,1373649,70423,9091,686837,0
238,-1,690311,237399,1327872,70799,6958,663779,0
238,-1,660028,227581,1316910,68422,7130,658512,0
238,-1,644044,221012,1238163,66679,8343,619125,0
238,-1,642381,219835,1344709,66029,7477,672400,0
238,-1,636361,220357,1309416,65835,8500,654597,0
238,-1,638929,218742,1285362,66137,7719,642653,0
238,-1,643049,220025,1382224,66289,8160,691017,0
238,-1,642769,218672,1236312,66250,7734,618176,0
239,-1,688731,237195,1369000,70670,7596,684550,0
239,-1,655782,223820,1368092,69275,8209,684212,0
239,-1,662795,223841,1272917,69189,8255,636502,0
239,-1,640578,219323,1240959,65875,7239,620522,0
239,-1,638082,218669,1288300,65052,8246,644183,0
239,-1,638443,218486,1236389,66015,7550,617887,0
239,-1,642786,220405,1403759,66446,8469,701858,0
239,-1,641228,218408,1345702,66034,7696,672799,0
240,-1,713176,241755,1310491,73998,8768,655119,0
240,-1,633444,218999,1238535,65940,7227,619324,0
240,-1,642955,220249,1327271,66209,8214,663730,0
240,-1,643021,220638,1333183,66505,6984,666683,0
240,-1,638439,219235,1219746,65285,7599,609924,0
240,-1,643466,220668,1233834,67028,6835,616213,0
240,-1,644468,219922,1271958,66235,8128,635815,0
240,-1,648174,220317,1294648,66955,7903,647443,0
241,-1,692041,237532,1251231,70853,7362,625750,0
241,-1,633571,219454,1188053,65978,7286,594061,0
241,-1,641306,219839,1333624,65924,7808,666843,0
241,-1,640022,219027,1286500,65737,7343,643281,0
241,-1,657001,223563,1424263,68462,8517,712060,0
241,-1,636946,218465,1224083,66005,7583,612067,0
241,-1,649729,222064,1242954,67268,8070,621029,0
241,-1,645135,218712,1290479,66264,7919,645272,0
242,-1,691909,237677,1277105,70826,7567,639023,0
242,-1,638689,220792,1362708,66793,7817,681345,0
242,-1,645956,221919,1338661,66967,8300,669366,0
242,-1,642012,219618,1252942,65965,7313,626533,0
242,-1,635786,219132,1444203,65262,8093,722105,0
242,-1,642803,219416,1268265,66318,7888,634179,0
242,-1,643436,219951,1199710,66287,7617,599860,0
242,-1,645005,219021,1268117,66331,8535,634120,0
243,-1,690855,237255,1316277,70713,8600,658078,0
243,-1,655715,223970,1412220,69330,7813,706190,0
243,-1,662815,224134,1276726,69111,7886,638376,0
243,-1,644839,221223,1285235,66747,7248,642687,0
243,-1,635554,218820,1353444,65195,7787,676062,0
243,-1,639465,218337,1200794,65911,7139,600459,0
243,-1,644601,220845,1308956,66590,8213,654096,0
243,-1,642053,218053,1236395,65917,7872,618240,0
244,-1,694377,239026,1322163,71533,8576,660918,0
244,-1,633372,219207,1273484,65946,7284,636757,0
244,-1,642775,220270,1385511,66120,8467,692749,0
244,-1,642912,220688,1272343,66499,7326,636252,0
244,-1,638149,219966,1230868,65736,7660,615292,0
244,-1,641918,219483,1314774,66323,8313,657403,0
244,-1,640786,219812,1278839,66207,8568,639411,0
244,-1,645225,219535,1296270,66735,8122,648200,0
245,-1,694135,237316,1267608,70755,7578,633589,0
245,-1,633483,219594,1200857,66145,6607,600480,0
245,-1,640252,219625,1225303,65843,6841,612504,0
245,-1,638116,218677,1302454,65616,7818,651289,0
245,-1,637249,219827,1348771,65536,7862,674276,0
245,-1,637486,218353,1330125,65975,7815,665051,0
245,-1,693563,234250,1536991,72476,10183,768403,0
245,-1,639801,218033,1274018,65967,7869,637059,0
246,-1,692103,237576,1333300,70891,7920,666661,0
246,-1,645860,219384,1282244,66088,7713,641078,0
246,-1,637523,219196,1262441,65904,6830,631076,0
246,-1,637079,219301,1402167,65824,7671,701128,0
246,-1,632835,218299,1272219,64911,7400,636102,0
246,-1,661356,223267,1340081,69357,8141,670069,0
246,-1,644795,220570,1363604,66482,8579,681679,0
246,-1,664225,223514,1302378,69587,8835,651195,0
247,-1,697572,239794,1375467,71829,8354,687707,0
247,-1,664505,223684,1314657,69224,8554,657373,0
247,-1,643876,221545,1302084,66944,7810,650874,0
247,-1,649210,221492,1301966,66900,7910,651019,0
247,-1,634135,219005,1222738,65239,7818,611412,0
247,-1,640462,219001,1177893,66126,7887,588823,0
247,-1,643007,220210,1365345,66384,9021,682500,0
247,-1,643227,219448,1254026,66488,7263,627050,0
248,-1,710256,241437,1386423,73869,9068,693122,0
248,-1,644473,219509,1396438,66111,7674,698276,0
248,-1,659273,224264,1322385,69352,7861,661136,0
248,-1,643280,219144,1333778,65770,8073,666982,0
248,-1,636053,219670,1305749,65369,7954,652745,0
248,-1,643842,220458,1178508,66833,7643,589210,0
248,-1,643709,220678,1391115,66539,8743,695437,0
248,-1,642284,219012,1335240,66317,7362,667665,0
249,-1,689388,236815,1435632,70580,8277,717804,0
249,-1,642759,219148,1312485,66008,7789,656359,0
249,-1,645208,220619,1319956,66567,8213,659782,0
249,-1,641972,218639,1171095,65608,7543,585645,0
249,-1,637163,220578,1261315,65901,7299,630751,0
249,-1,640484,218783,1269744,66099,7199,634906,0
249,-1,645540,221616,1293291,67191,7487,647303,0
249,-1,640546,218633,1183043,66163,7208,591570,0
250,-1,686876,236473,1247168,70415,7573,623238,0
250,-1,641613,218776,1331344,65829,8802,665657,0
250,-1,642145,219725,1365122,66041,8400,682422,0
250,-1,643344,219514,1376437,65932,7601,688137,0
250,-1,634826,219383,1214644,65333,7180,607342,0
250,-1,641376,219287,1303150,66308,7833,651528,0
250,-1,662176,224723,1375563,69708,10163,687590,0
250,-1,641292,218774,1311637,66251,8091,655827,0
251,-1,688746,237424,1373290,70828,8450,686635,0
251,-1,641195,218745,1248155,65837,8208,624133,0
251,-1,640945,219587,1255244,66067,7770,627635,0
251,-1,646309,220650,1348050,66484,8145,674031,0
251,-1,653332,223408,1346940,68433,8640,673474,0
251,-1,639590,218327,1256376,65897,7439,628107,0
251,-1,647064,220516,1403310,66556,8842,701563,0
251,-1,647370,219645,1168761,66539,7171,584303,0
252,-1,683243,235328,1263143,70084,7874,631598,0
252,-1,660671,223669,1275472,69267,9002,637781,0
252,-1,661694,223985,1251621,69277,8959,625804,0
252,-1,643638,219753,1247598,66026,7699,623926,0
252,-1,636082,218790,1258414,65090,6428,629245,0
252,-1,637515,218627,1330735,66040,7535,665380,0
252,-1,644538,219851,1378350,66357,9146,689100,0
252,-1,642528,218177,1328516,66011,7715,664293,0
253,-1,702879,240351,1411877,72008,9213,705911,0
253,-1,642986,218872,1375393,65851,8307,687712,0
253,-1,639972,219160,1283293,65863,8500,641512,0
253,-1,641850,219121,1177314,65811,7246,588650,0
253,-1,639700,220841,1149361,65991,6962,574551,0
253,-1,641450,219602,1284658,66352,7654,642317,0
253,-1,644648,220534,1310805,66556,8267,655038,0
253,-1,647585,220261,1327242,66926,7932,663502,0
254,-1,693369,237101,1367928,70664,8717,683981,0
254,-1,645103,219964,1217485,66288,7814,608942,0
254,-1,640520,220246,1224498,66507,7670,612306,0
254,-1,642723,219618,1261773,65848,7571,630885,0
254,-1,635091,218936,1182910,65198,7042,591504,0
254,-1,641967,219975,1272938,66721,7457,636412,0
254,-1,644495,220063,1346608,66397,8346,673235,0
254,-1,644059,218805,1231792,66207,7883,615945,0
255,-1,690197,236594,1268211,70496,7660,634062,0
255,-1,642170,219236,1235646,66012,7861,617825,0
255,-1,640894,219453,1170604,66015,7542,585331,0
255,-1,647614,221365,1330024,66800,8374,665152,0
255,-1,633011,218560,1167414,64984,6992,583621,0
255,-1,637004,218756,1197625,66117,7223,598831,0
255,-1,648200,221747,1383272,67222,8577,691674,0
255,-1,642096,218285,1207005,66043,7762,603558,0
