0,0,231,642996.753247,219735.722944,1233129.714286,66325.441558,7639.259740,616572.359307,10569.677233,3305.155748,64462.915848,1262.001813,645.050353,32201.417178
0,1,0,-nan,-nan,-nan,-nan,-nan,-nan,-nan,-nan,-nan,-nan,-nan,-nan
1,0,230,643675.373913,219855.256522,1234490.852174,66439.404348,7682.256522,617253.995652,9962.462826,2825.003304,65967.506935,1271.997555,668.122736,32964.896685
1,1,0,-nan,-nan,-nan,-nan,-nan,-nan,-nan,-nan,-nan,-nan,-nan,-nan
2,0,230,643280.691304,219780.591304,1237480.795652,66387.100000,7734.052174,618746.047826,10269.055967,2894.075398,68910.056556,1284.719801,667.074076,34433.738134
2,1,0,-nan,-nan,-nan,-nan,-nan,-nan,-nan,-nan,-nan,-nan,-nan,-nan
3,0,230,644262.673913,219955.034783,1227974.647826,66516.169565,7672.782609,613991.113043,10605.662595,2966.999279,66618.408442,1323.692182,650.429661,33279.778694
3,1,0,-nan,-nan,-nan,-nan,-nan,-nan,-nan,-nan,-nan,-nan,-nan,-nan
4,0,230,642730.839130,219608.917391,1232976.186957,66275.460870,7636.182609,616501.160870,10260.183958,3010.176555,70323.242180,1212.991306,681.941909,35159.998709
4,1,0,-nan,-nan,-nan,-nan,-nan,-nan,-nan,-nan,-nan,-nan,-nan,-nan
5,0,230,642357.452174,219598.560870,1236766.139130,66258.465217,7656.365217,618400.052174,10120.556306,2990.695428,64416.374364,1218.746422,625.444779,32193.355406
5,1,0,-nan,-nan,-nan,-nan,-nan,-nan,-nan,-nan,-nan,-nan,-nan,-nan
6,0,230,643327.160870,219819.173913,1242301.321739,66430.282609,7660.795652,621156.991304,9969.126549,2869.753761,73868.549328,1270.842392,610.100353,36897.401783
6,1,0,-nan,-nan,-nan,-nan,-nan,-nan,-nan,-nan,-nan,-nan,-nan,-nan
7,0,341,642000.521994,219569.932551,1230254.307918,66293.744868,7614.668622,615134.501466,8879.713862,2535.051564,66847.813928,1097.748983,625.901840,33380.709328
7,1,0,-nan,-nan,-nan,-nan,-nan,-nan,-nan,-nan,-nan,-nan,-nan,-nan
