0,3,761620,267550,1536791,79122,10629,768040,0
0,-1,687734,236793,1288957,70505,7512,644130,0
0,3,762213,266979,1483220,78900,8457,741053,0
0,-1,712656,242245,1384440,74134,9278,691741,0
0,3,759034,266299,1460879,78710,8765,729895,0
0,-1,688601,237229,1375025,70754,7663,687112,2
0,-1,690569,237159,1417964,70671,7610,708655,0
0,3,770477,268788,1585983,79725,10360,792285,0
0,3,781166,273445,1484928,80780,9059,742046,0
0,-1,692356,237429,1315974,70760,7315,657590,0
0,-1,694072,237807,1238652,70889,7909,618952,0
0,3,714306,250082,1565132,74729,9321,781810,0
0,-1,692414,236993,1396405,70624,8231,697709,0
0,-1,692490,237687,1428651,70891,7592,713898,0
0,-1,689618,236974,1342339,70642,7352,670649,0
0,3,707464,247864,1349357,73594,8767,674320,0
0,-1,636933,219999,1347201,66209,6740,672928,0
0,-1,657227,222935,1290580,68844,8294,644829,0
0,3,709441,248759,1480184,73910,9954,739179,0
0,-1,641873,220208,1258747,66297,7288,628660,0
0,-1,639600,219579,1245987,65967,7035,622601,0
0,3,712139,250850,1521678,74883,10230,760029,0
0,3,704232,247096,1425735,73355,8381,712446,0
0,-1,637912,218321,1218357,65614,7283,608809,0
0,-1,645659,221039,1417182,66782,8296,707846,0
0,3,708664,248284,1443165,73732,8895,721252,0
0,3,708379,248177,1413229,73762,8269,706190,0
0,3,709643,249304,1462701,74370,9178,730811,0
0,-1,636578,218743,1282894,65515,7316,641024,0
0,-1,636245,218268,1224683,65476,7274,611967,0
0,3,710398,248697,1367136,73986,9536,683225,0
0,3,735617,253988,1424408,78034,9403,711775,0
0,3,707389,248348,1404668,73838,8614,701924,0
0,-1,637176,218369,1207206,65448,7054,603197,0
0,3,710553,249106,1466484,74276,8687,732765,0
0,-1,642319,218743,1343091,65617,7656,671129,0
0,3,710238,248926,1767435,74087,10322,882753,0
0,-1,641801,218809,1207877,65743,7845,603581,0
0,3,729105,252712,1392656,77067,9146,696043,0
0,3,708492,247994,1354440,73762,8261,676802,0
0,-1,633560,218201,1183502,65521,6765,591158,0
0,3,712290,249235,1273434,74224,8547,636306,0
0,-1,637281,219293,1449362,65983,8255,724243,0
0,3,709089,248247,1465823,73746,9006,732554,0
0,-1,633980,218796,1292201,65782,7165,645693,0
0,3,707405,248617,1366095,73789,9267,682631,0
0,3,729515,253190,1394868,77146,9745,697016,0
0,-1,657429,223005,1329022,68944,8112,664141,0
0,3,712612,249683,1415638,74113,9130,707456,0
0,-1,637868,218881,1197461,65810,7174,598216,0
0,3,708248,248777,1412740,73956,9591,705980,0
0,3,711834,249404,1375927,74146,8391,687541,0
0,-1,643818,220067,1332495,66316,7638,665416,0
0,3,712174,249380,1477059,74195,9374,738172,0
0,3,713543,250475,1486127,74818,10017,742396,0
0,-1,635209,218673,1299253,65682,7386,649392,0
0,3,713738,250034,1390070,74744,9044,694066,0
0,-1,654894,222962,1266105,68884,7464,632558,0
0,-1,636523,218533,1182101,65707,6656,590565,0
0,3,708789,247813,1528196,73720,9224,763706,0
0,3,732521,253490,1427714,77439,10345,713548,0
0,-1,637440,218815,1148348,65770,6699,573747,0
0,3,707496,247704,1442175,73748,8727,720652,0
0,-1,642047,220433,1400214,66495,8235,699590,0
0,3,712223,248606,1582447,74091,9369,790717,0
0,-1,638809,218141,1204564,65541,6660,601812,0
0,3,715853,250236,1479390,74849,10265,738835,0
0,-1,636369,218719,1201910,65778,7087,600626,0
0,3,712907,248537,1439592,74000,9395,719426,0
0,-1,636349,218691,1303955,65669,7368,651565,0
0,3,716241,248572,1502388,74003,9231,750916,0
0,3,709576,249602,1390219,74369,9232,694708,0
0,-1,640564,219973,1337845,66382,8070,668390,0
0,-1,636245,218160,1303649,65493,7720,651438,0
0,3,712444,250800,1495662,75042,9853,747120,0
0,-1,643234,219554,1307853,66083,7686,653641,0
0,-1,637968,219057,1261742,65784,6543,630575,0
0,3,704045,247487,1544942,73736,9243,772149,0
0,3,714927,250636,1547763,75028,10329,773526,0
0,-1,644457,220485,1213922,66600,7867,606478,0
0,3,708485,247847,1430706,73769,8686,715004,0
0,-1,647434,221296,1364974,66872,7294,681966,0
0,-1,639060,218862,1274869,65650,7094,637157,0
0,3,705208,247877,1566252,73776,9145,782722,0
0,-1,642112,218939,1446068,65819,7957,722622,0
0,3,726502,252824,1462527,77231,9816,730871,0
0,-1,642570,218605,1317548,65594,8225,658470,0
0,3,709126,249026,1341078,74134,9100,670143,0
0,3,709847,250102,1443619,74717,9604,721229,0
0,-1,639712,219727,1300401,65980,7978,649391,0
0,-1,639446,219428,1276949,65834,8065,638112,0
0,3,708273,248900,1447284,73944,8986,723368,0
0,-1,640774,219920,1331380,65927,7991,665357,0
0,-1,641327,219657,1313575,65846,7353,656585,0
0,-1,660878,224009,1265019,69189,8314,632132,0
0,3,706276,249015,1427229,74060,8752,713179,0
0,-1,643432,220216,1187405,66161,7953,593384,0
0,3,728129,253338,1375899,77315,9408,687585,0
0,-1,636921,218975,1233084,65794,7998,616106,0
0,3,708056,248682,1341446,73958,8527,670379,0
0,-1,640085,219105,1302823,65777,7963,651063,0
0,3,708357,248858,1364194,73999,8469,681393,0
0,-1,643210,220421,1341229,66276,7577,670302,0
0,3,711629,249133,1503187,74151,9331,751119,0
0,-1,645640,220638,1329461,66646,8647,663990,0
0,3,729924,253687,1366904,77368,9900,683173,0
0,3,717038,250711,1536565,74903,9597,767648,0
0,-1,641946,219524,1171722,66042,7039,585339,0
0,3,708554,248968,1349608,74013,8891,674413,0
0,-1,637462,219072,1301884,65934,7982,650668,0
0,3,713526,250958,1440793,75009,8864,719826,0
0,-1,659995,223824,1329268,69320,8028,664218,0
0,3,707308,247822,1518850,73722,8627,758884,0
0,-1,644276,220036,1462755,66476,8714,730646,0
0,3,709913,248540,1343284,73958,7946,671114,0
0,-1,639494,218273,1375016,65620,7763,687106,0
0,3,709706,248447,1390890,73895,8429,695135,0
0,-1,640839,218899,1262358,65937,7709,630290,0
0,3,734001,253536,1435715,77268,10172,717364,0
0,3,727925,253462,1472123,77320,9348,735699,0
0,-1,638381,218846,1361412,65856,8310,680368,0
0,-1,639197,218630,1291465,65778,8104,645340,0
0,3,706481,248822,1477946,73942,8995,738591,0
0,3,707536,248865,1358328,73949,8190,678832,0
0,-1,646921,220409,1394019,66530,8877,696395,0
0,-1,643042,219318,1260326,66002,7981,629735,0
0,3,728450,253386,1395273,77309,9638,697197,0
0,3,711052,250044,1483757,74555,9150,741529,0
0,-1,646088,221300,1245991,67031,8722,622176,0
0,3,731850,253406,1569175,77273,9157,784164,0
0,-1,641462,218736,1278810,65890,7554,639009,0
0,3,713459,249717,1431557,74301,9192,715440,0
0,3,714229,250849,1434068,74971,9073,716498,0
0,-1,643205,219129,1252854,65983,7762,626124,0
0,3,708867,249312,1483359,74198,8788,741165,0
0,-1,654360,223408,1398901,69179,8044,698952,0
0,-1,631560,218246,1239780,65623,8595,619456,0
0,3,710270,249241,1487858,74165,9402,742115,0
0,3,710081,249060,1450032,74080,9142,725056,0
0,-1,634917,219104,1185791,65919,7967,592383,0
0,3,711715,248282,1402982,73820,9441,701088,0
0,3,710848,248580,1407602,73972,8876,703453,0
0,-1,637475,220055,1356601,66289,9054,677850,0
0,-1,635539,219173,1290531,65905,7821,644944,0
0,3,709956,249311,1282680,74164,9012,640311,0
0,3,715454,250913,1435873,74947,9456,717295,0
0,-1,639538,219951,1347684,66210,8049,673510,0
0,-1,638739,218995,1319725,65923,8209,659390,0
0,3,711059,249752,1337688,74212,8657,668498,0
0,3,707510,248218,1315509,73667,8707,657342,0
0,-1,641509,221414,1327122,67002,8803,662890,0
0,3,714959,250205,1460165,74488,10185,729525,0
0,-1,638728,219479,1284624,66103,7868,641555,0
0,3,720063,250856,1445187,74864,9554,721897,0
0,-1,634379,218904,1273116,65921,7483,636205,0
0,-1,640013,219589,1347169,66137,7508,673086,0
0,3,712532,249291,1424547,74064,9246,711933,0
0,3,712887,250370,1322554,74406,8350,660856,0
0,-1,642024,220655,1260441,66757,8180,629554,0
0,-1,634986,218969,1229095,65913,7816,614106,0
0,3,717206,249467,1416366,74228,9564,707828,0
0,-1,637098,219151,1365206,66015,7783,682128,0
0,3,737805,254912,1539438,77703,10346,769306,0
0,3,716802,249965,1476081,74182,9309,737653,0
0,3,717168,250381,1442061,74328,9945,720620,0
0,3,738949,254511,1426393,77447,10365,712933,0
0,-1,643708,221302,1443954,67037,7946,721386,0
0,3,731797,254435,1403382,77431,10079,701053,0
0,-1,638885,219743,1279761,66140,7021,639544,0
0,3,713103,250344,1538634,74317,10705,768886,0
0,-1,639131,219073,1173520,65987,7456,586288,0
0,3,712172,250306,1478535,74297,9632,738914,0
0,3,711449,250547,1595238,74366,10484,797296,0
0,-1,656809,223950,1302946,69252,8876,651098,0
0,3,710172,249980,1453325,74235,10030,726363,0
0,-1,637607,219525,1312307,66026,8024,655628,0
0,-1,637584,219104,1269421,65841,7444,634284,0
0,3,715034,250358,1575194,74464,10173,787281,0
0,-1,638693,219394,1359303,65985,7523,679232,0
0,3,708234,249613,1438011,74138,8998,718598,0
0,-1,637471,219525,1216152,66005,7495,607700,0
0,3,709603,248239,1513426,73776,9921,756199,0
0,3,710482,248909,1439916,74003,10811,719588,0
0,-1,639427,219181,1198628,65908,7975,598800,0
0,3,734770,254072,1562519,77451,9366,780686,0
0,-1,643846,220208,1452798,66254,8586,726022,0
0,3,736133,254124,1434448,77417,9907,716975,0
0,-1,632941,218381,1366043,65576,8113,682485,0
0,3,734046,253628,1340741,77266,9614,670066,0
0,-1,641420,221046,1338625,66748,7736,668631,0
0,-1,658475,224125,1282206,69296,7803,640665,0
0,3,712475,248808,1503597,74018,9304,751475,0
0,3,727243,253242,1541819,77237,9476,770586,0
0,3,708500,248330,1337557,73792,8741,668425,0
0,-1,639647,219704,1277994,66087,7347,638473,0
0,-1,643256,221399,1371642,66892,8598,685109,0
0,3,712362,249077,1519319,73994,9447,759267,0
0,-1,661529,223717,1304572,69134,8695,651876,0
0,-1,659100,223680,1308412,69188,7900,653750,0
0,3,706740,247758,1398104,73600,9426,698672,0
0,-1,638540,219586,1233658,66055,7136,616381,0
0,3,710101,248520,1625659,73945,10954,812095,0
0,-1,644397,220338,1393378,66408,8909,695197,0
0,3,713098,248476,1454612,73762,10073,726947,0
0,-1,638554,219230,1297406,65887,7825,647431,0
0,3,714055,249194,1349944,74129,9346,674609,0
0,-1,640876,219354,1381670,65905,8524,690491,0
0,3,738943,257696,1508233,76368,10380,753741,0
0,3,714851,249071,1582188,73942,10316,790730,0
0,-1,639633,220673,1389187,66590,7615,694055,0
0,-1,636543,218812,1298963,65729,7299,649278,0
0,3,713997,248886,1569616,73710,10022,784449,0
0,-1,636660,219039,1392152,65774,8182,695211,0
0,-1,660060,224361,1252782,69387,7269,625933,0
0,3,713435,248615,1423018,73591,9662,711199,0
0,3,716060,248459,1394934,73535,8930,696730,0
0,-1,644525,220710,1299534,66611,7040,649306,0
0,3,713865,251232,1426538,74826,9931,712742,0
0,-1,662720,224019,1212668,69272,7720,606042,0
0,3,713287,250874,1346795,74744,10186,672861,0
0,-1,638888,219281,1178938,65901,7316,589171,0
0,3,707083,248266,1364032,73614,8747,681740,0
0,-1,640019,219222,1299651,65865,7134,649498,0
0,-1,641962,219169,1264134,65880,7375,631648,0
0,3,709586,248575,1447770,73787,9563,723475,0
0,3,712964,248763,1460035,73871,9507,729529,0
0,3,733156,253584,1534380,77211,11311,766805,0
0,3,707782,248432,1412771,73767,10177,705914,0
0,-1,640427,219465,1335861,65997,7913,667507,0
0,3,730263,253372,1417281,77180,9891,708181,0
0,3,709755,248263,1398281,73649,9570,698747,0
0,-1,642108,219605,1231166,66040,6832,615127,0
0,3,711388,248302,1454677,73667,9951,726952,0
0,-1,641736,219500,1512684,66067,9413,755956,0
0,3,708742,247999,1409506,73558,9351,704418,0
0,-1,644125,219611,1179014,66023,7917,589150,0
0,3,732675,253067,1574248,77075,10929,786648,0
0,3,709829,247802,1355995,73494,9012,677406,0
0,-1,636247,219149,1320943,65854,7689,660186,0
0,3,715993,250360,1502345,74580,9910,749703,0
0,-1,641850,220770,1274276,66353,7194,636803,0
0,3,709188,248844,1395541,73846,9195,697313,0
0,3,711657,248474,1459467,73763,9116,728726,0
0,-1,634788,219020,1308791,65739,6477,654086,0
0,3,758108,262098,1495844,79709,9968,747524,0
0,-1,640528,220259,1304614,66249,8007,652014,0
0,-1,637579,218807,1187049,65693,7433,593174,0
0,3,731842,253172,1500580,77056,10051,749467,0
0,-1,635730,219070,1203672,65837,7509,601611,0
0,3,713040,248360,1448226,73605,10314,722204,0
0,3,710127,248058,1425644,73617,9143,712076,0
0,3,734828,253614,1572163,77203,11648,785631,0
0,3,708840,248571,1469114,73743,10312,734299,0
0,-1,657859,223780,1289254,69204,7921,644322,0
0,-1,642790,220846,1360496,66593,7674,679497,0
0,3,710902,248497,1455151,73790,9932,727305,0
0,-1,637587,219109,1158504,65862,7235,578857,0
0,-1,643433,220068,1308627,66210,7158,653857,0
0,3,714313,248532,1492154,73772,10095,745708,0
0,-1,642374,221590,1371859,66887,7877,685181,0
0,3,712323,248054,1337894,73593,9485,668713,0
0,-1,640976,219670,1348763,66061,7650,673132,0
0,-1,636408,218430,1347682,65582,8039,673304,0
0,3,713762,248593,1475682,73751,9860,737423,0
0,-1,660192,223747,1273889,69203,8415,636643,0
0,3,716024,248932,1398469,73833,8915,698675,0
0,-1,637754,218594,1155266,65642,7213,577187,0
0,-1,639903,219057,1361821,65760,8445,680527,0
0,3,702186,248024,1479923,73064,9033,739514,0
0,3,703790,248729,1389798,73370,9164,694338,0
0,-1,641853,219910,1238276,66157,7803,618738,0
0,3,707203,249213,1503063,73510,9964,751110,0
0,-1,640628,219298,1213166,65922,7461,606140,0
0,3,707382,248300,1360288,73218,8922,679628,0
0,3,704536,248557,1445877,73301,10042,722606,0
0,-1,639904,219197,1402296,65823,7721,700722,0
0,3,708687,249092,1426135,73403,9590,712543,0
0,-1,642728,220237,1347259,66256,8389,673083,0
0,3,707233,249448,1480765,73620,9852,739752,0
0,3,707782,248152,1569383,73186,9629,784110,0
0,-1,639812,218809,1194240,65767,7340,596647,0
0,3,708102,249146,1533140,73492,10037,766135,0
0,-1,661556,223786,1356515,69140,8910,677943,0
0,3,703948,248197,1466700,73349,9242,732686,0
0,3,706776,247784,1426934,73152,9072,713026,0
0,-1,662423,223998,1419425,69085,8404,709365,0
0,3,709160,248460,1476448,74203,9844,738163,0
0,-1,643309,219366,1236091,65960,7586,617603,0
0,3,706192,248174,1446867,74180,9310,723370,0
0,-1,638007,219705,1257306,66084,7714,628264,0
0,3,709751,247560,1619298,73871,10129,809297,0
0,-1,637484,219254,1377155,65853,7096,688198,0
0,3,713176,248407,1584872,74158,10341,791739,0
0,3,711371,250360,1360968,75035,9137,679713,0
0,-1,661685,224574,1307290,69408,8202,653271,0
0,3,707473,248069,1574742,74129,10372,786852,0
0,3,706806,247950,1394425,74126,9316,696871,0
0,-1,664679,228921,1376699,68657,7269,687954,0
0,-1,640077,219726,1200017,65995,6751,599513,0
0,3,711151,250299,1382131,75119,9066,690168,0
0,-1,639699,219721,1308165,65892,7783,653622,0
0,-1,644686,220835,1359902,66523,7570,679373,0
0,3,709783,248317,1450991,74232,9495,725018,0
0,-1,638410,219264,1232664,65852,7307,615914,0
0,-1,640549,219942,1287702,66040,7385,643492,0
0,3,708118,248276,1398813,74208,9869,699064,0
0,-1,643284,219762,1406160,65899,8655,701926,0
0,3,708186,248759,1523348,74344,9297,761191,0
0,-1,646099,221515,1367022,66792,8103,682727,0
0,-1,644535,220892,1250205,66581,8603,624032,0
0,3,711783,247875,1350802,74006,9320,674926,0
0,3,710488,248440,1322410,74194,9822,660722,0
0,3,708544,247606,1473432,73937,10279,736472,0
0,-1,642684,219317,1321862,65849,8057,660302,0
0,3,710826,248300,1405489,74191,9706,701911,0
0,3,713123,248715,1359695,74290,8755,679510,0
0,3,709472,246961,1351614,73817,10141,675531,0
0,3,711763,250330,1650601,75161,12315,824389,0
0,-1,638583,219384,1274921,65825,7497,637109,0
0,3,709830,248566,1505026,74274,9923,752164,0
0,-1,647121,221968,1333652,67169,7845,666104,0
0,3,706962,248114,1547119,74148,11091,773176,0
0,3,707039,248078,1394288,74123,9195,696798,0
0,-1,646885,221524,1377295,66896,8181,688075,0
0,3,710454,250115,1363224,75046,9203,680909,0
0,-1,645697,220442,1275552,66251,8374,637347,0
0,3,711831,249481,1420027,74545,10856,709557,0
0,-1,644212,220340,1304237,66193,7353,651792,0
0,3,711448,248458,1446082,74288,8776,722662,0
0,-1,651577,222164,1362469,67179,8067,680681,0
0,3,711065,248911,1440245,74332,8811,719806,0
0,-1,642818,220174,1367637,66258,7232,683459,0
0,3,710561,248426,1287641,74149,8618,643459,0
0,-1,647715,222068,1327512,66983,8208,663234,0
0,3,709117,248140,1484556,74099,9272,742016,0
0,3,712653,248683,1473981,74269,10098,736561,0
0,-1,650896,222704,1468884,67104,9217,733829,0
0,3,709120,247931,1424214,74009,9248,711756,0
0,3,711712,248460,1346161,74181,8617,672803,0
0,-1,645035,220306,1236145,66074,8085,617632,0
0,3,712991,249437,1391949,74751,9116,695453,0
0,-1,651544,222074,1302819,66884,8390,650844,0
0,3,712456,248405,1388755,74224,8767,693964,0
0,3,715960,248518,1439972,74165,10248,719569,0
0,-1,645556,219979,1234614,65944,7570,616918,0
0,3,708298,248323,1677442,74148,11007,838057,0
0,-1,640843,220598,1167143,66172,8197,583235,0
0,3,709504,248283,1380153,74103,9680,689798,0
0,-1,642170,220414,1282726,66101,7978,641074,0
0,-1,639728,219917,1337880,65838,8095,668553,0
0,3,711749,248468,1387522,74106,9707,693388,0
0,-1,646236,222089,1228604,66879,8607,613466,0
0,-1,643288,220104,1257758,66007,8758,628458,0
0,3,731934,252712,1460975,77398,10967,730040,0
0,-1,663343,225385,1255717,69624,8167,627552,0
0,3,713120,248299,1474837,74104,9478,736968,0
0,-1,664203,225546,1302954,69638,8613,651161,0
0,3,707917,248110,1362203,73990,9216,680660,0
0,-1,646534,221665,1322880,66790,8106,660919,0
0,-1,640756,220109,1370078,66048,8466,684631,0
0,3,712377,248030,1343863,74086,9202,671500,0
0,-1,640762,219766,1198794,66023,6896,598800,0
0,3,709591,248674,1538042,74168,10119,768519,0
0,-1,645830,220894,1193429,66290,8382,596322,0
0,3,732800,252938,1518413,77436,10290,758735,0
0,3,714723,249705,1386874,75022,10230,692754,0
0,3,718363,249585,1365080,74817,9109,681994,0
0,-1,637329,219314,1268307,65752,7675,633827,0
0,-1,642114,220570,1440857,66143,8718,720147,0
0,-1,641787,219634,1247067,65857,7542,623216,0
0,3,719831,249965,1378446,74792,9992,688532,0
0,3,706025,248176,1437832,74128,10166,718470,0
0,-1,640134,219527,1367029,65942,8437,683063,0
0,3,707028,248845,1367544,74330,8745,684215,0
0,-1,641262,220292,1370248,66145,8317,684690,0
0,3,714284,249813,1482030,74808,9358,740157,0
0,-1,641811,220110,1331971,66255,8235,665436,0
0,3,730965,253380,1479584,77576,9742,739372,0
0,3,732913,253836,1553164,77814,11117,776143,0
0,-1,644644,219688,1354229,65955,8184,676751,0
0,3,715301,249583,1507292,74777,9893,753165,0
0,-1,638808,218947,1440175,65667,8236,719767,0
0,-1,638309,218817,1295483,65609,7317,647445,0
0,3,710091,248894,1439581,74465,9397,719344,0
0,-1,642000,218806,1224432,65657,7664,611890,0
0,3,730887,253283,1498066,77685,9672,748638,0
0,3,717932,251134,1366462,75305,9494,682629,0
0,3,714996,249252,1356799,74550,9331,678017,0
0,-1,645808,220260,1277156,66238,7930,638215,0
0,3,711578,248981,1416794,74307,8941,708384,0
0,-1,640490,218452,1264320,65557,7680,631857,0
0,3,714378,249494,1479096,74526,9537,739087,0
0,-1,636228,218750,1315296,65709,7776,657163,0
0,3,721786,251383,1406079,75498,9537,702526,0
0,3,715111,249607,1533847,74585,9634,766487,0
0,3,737953,254289,1429794,77923,10689,714689,0
0,-1,638874,219404,1202126,65882,7282,600840,0
0,-1,640598,219463,1216549,65837,8117,607958,0
0,3,734053,254362,1555744,77950,10712,777634,0
0,3,710938,249516,1431140,74597,9605,715172,0
0,-1,644812,221434,1372738,66785,8778,685871,0
0,3,716654,251219,1315111,75419,8920,656732,0
0,-1,661162,223590,1336206,68979,8210,667626,0
0,3,716539,249680,1435445,74539,10606,717260,0
0,-1,647432,221490,1363946,66739,7819,681462,0
0,3,761941,263210,1594713,80430,11671,797114,0
0,-1,638514,219210,1203892,65754,7466,601550,0
0,3,714233,249202,1323769,74254,10086,661452,0
0,3,716009,250170,1393672,74596,9382,696461,0
0,-1,638621,218810,1299231,65757,6993,649271,0
0,3,709847,248580,1408227,74125,9799,703773,0
0,-1,645324,221164,1428670,66776,8125,713687,0
0,3,714293,249269,1374510,74333,10025,686678,0
0,3,714487,249411,1430735,74437,9166,714806,0
0,-1,642259,220622,1303124,66518,7703,651021,0
0,-1,646849,221619,1296484,66961,7973,647649,0
0,3,717880,250964,1367718,75177,9199,683237,0
0,-1,644394,219415,1210190,65922,7985,604803,0
0,3,713750,248834,1371206,74289,8584,684987,0
0,-1,642570,219183,1348531,65830,7949,673859,0
0,3,734861,253851,1580046,77641,10765,789634,0
0,3,738792,253686,1564655,77658,10791,781911,0
0,3,712409,250553,1372418,75047,10329,685650,0
0,-1,640588,219557,1206221,65869,8213,602769,0
0,3,710925,248915,1502963,74341,9728,751104,0
0,-1,664186,225083,1263052,69502,7945,631132,0
0,-1,644335,221109,1317886,66619,7761,658409,0
0,-1,643454,219637,1225304,65906,7744,612285,0
0,3,733856,253320,1436600,77515,11134,717832,0
0,-1,646172,220630,1348533,66381,9067,673716,0
0,-1,641963,219105,1283598,65722,8597,641317,0
0,3,712384,249384,1440674,74530,9423,719923,0
0,-1,642175,219656,1361911,65787,8556,680561,0
0,-1,642760,219432,1225061,65702,8118,612122,0
0,3,719755,250702,1438019,74882,9510,718575,0
0,-1,665189,224412,1294651,69088,9055,646940,0
0,3,713281,249680,1444853,74591,9429,721940,0
0,3,711565,248340,1376113,74216,9588,687580,0
0,-1,645603,219630,1355085,65696,8515,677143,0
0,3,716091,250934,1290384,75370,9187,644479,0
0,3,711142,248814,1330407,74402,8939,664728,0
0,3,714349,249229,1477780,74464,9666,738533,0
0,-1,644172,219519,1194801,65673,8660,597027,0
0,3,714825,249970,1349400,74954,9385,674135,0
0,-1,648724,221442,1350131,66560,8882,674527,0
0,3,714435,250010,1383115,74744,8856,691130,0
0,3,716189,249458,1471595,74570,10320,735310,0
0,-1,637719,219072,1365622,65558,8296,682479,0
0,3,718222,249550,1483070,74483,9305,741162,0
0,-1,645129,221675,1304602,66752,7570,651775,0
0,3,720259,249860,1443855,74508,10025,721228,0
0,-1,642109,220288,1205535,66015,6954,602492,0
0,3,709828,248320,1388902,74029,9204,694129,0
0,3,711993,248924,1438567,74237,9768,718930,0
0,3,713179,248616,1587662,74097,9889,793505,0
0,-1,640393,219812,1290151,65883,7631,644699,0
0,-1,637228,219001,1268438,65643,8019,633707,0
0,3,712036,248372,1396399,74086,9607,697731,0
0,-1,640585,218739,1184729,65555,7241,591945,0
0,-1,642151,219341,1402378,65800,9128,701071,0
0,3,711382,248330,1521613,74013,10379,760193,0
0,3,717075,249364,1716039,74402,10704,857737,0
0,3,716375,248849,1414613,74180,9373,707037,0
0,-1,645272,221628,1309790,66781,8378,654398,0
0,3,711841,249239,1418855,74557,9320,708941,0
0,-1,641144,219087,1355279,65712,8943,677112,0
0,-1,640479,219137,1184679,65783,7891,591816,0
0,3,717301,250044,1408278,75040,9436,703093,0
0,-1,637926,218720,1330892,65578,8055,665007,0
0,-1,661693,223533,1310063,68962,8520,654553,0
0,3,708206,247418,1320359,73976,9531,659845,0
0,-1,644600,220461,1301511,66368,7712,649892,0
0,3,711116,247153,1332449,73863,9508,665898,0
0,-1,636239,218333,1321749,65389,8105,660497,0
0,-1,639933,219234,1241557,65800,7378,620521,0
0,3,715945,247907,1335795,74092,9913,667595,0
0,-1,640142,218531,1173216,65511,7576,586172,0
0,-1,638504,219257,1188553,65789,7538,593887,0
0,3,729715,253240,1519114,77714,10088,759270,0
0,-1,640781,218806,1267997,65639,8621,633557,0
0,3,706498,247804,1345980,74120,9035,672617,0
0,-1,641763,218814,1340475,65648,8167,669730,0
0,3,714771,250103,1452922,75233,9677,725878,0
0,3,710445,248572,1503585,74411,9255,751293,0
0,-1,644090,221040,1295959,66618,8009,646498,0
0,3,709555,247485,1529951,74044,9087,764565,0
0,-1,650185,221918,1252011,66905,8472,625185,0
0,3,715824,250432,1522627,75283,9477,760559,0
0,3,717303,250710,1585850,75431,9776,792347,0
0,-1,640164,219037,1344372,65715,8026,671755,0
0,-1,642767,218906,1256567,65597,8806,627822,0
0,3,706008,247133,1325783,73860,9032,662585,0
0,-1,663486,223424,1287778,68935,8841,643197,0
0,3,708079,248103,1374067,74234,8856,686696,0
0,-1,642287,218630,1309639,65547,9111,654300,0
0,-1,637813,218945,1217424,65698,7853,608297,0
0,3,713445,248888,1434463,74428,9576,716659,0
1,3,763520,266511,1453013,78685,9311,726060,0
1,-1,689676,237340,1348934,70789,8348,674028,0
1,3,763617,266632,1494609,78802,9339,746567,0
1,-1,695114,239184,1457068,71559,8346,727811,0
1,3,785180,271141,1526338,82048,10930,762787,0
1,3,764947,268631,1538293,79684,9170,768495,0
1,-1,712690,241690,1464349,73918,9243,731507,0
1,-1,691495,237249,1311318,70755,7866,655229,0
1,3,711231,249720,1440582,74423,9265,719604,0
1,-1,715009,241980,1297844,74093,9862,648497,0
1,-1,694573,237243,1273851,70700,7896,636526,0
1,-1,692130,238351,1417518,71246,7907,708104,0
1,3,708938,248103,1323507,73652,8158,661367,0
1,-1,682566,234911,1404791,69991,7228,701921,2
1,-1,672286,230901,1231859,68790,7432,615605,0
1,-1,636146,218609,1193722,65605,7239,596507,0
1,3,730096,252544,1494039,76934,10048,746660,0
1,-1,636595,218023,1255531,65520,7759,627226,0
1,-1,636906,218597,1257898,65683,7476,628485,0
1,3,723038,251965,1385269,76739,10372,692161,0
1,-1,639195,219307,1316738,65958,7510,657959,0
1,3,724739,252566,1486587,77035,9555,742677,0
1,-1,640906,219386,1242930,65997,8136,621051,0
1,3,707662,248255,1523946,73751,10109,761580,0
1,3,708529,248155,1448677,73799,8763,724043,0
1,-1,639252,219847,1315387,66201,7661,657167,0
1,3,706307,248240,1374443,73881,8565,686849,0
1,-1,637796,218492,1227213,65567,6901,613180,0
1,3,708290,248142,1420467,73769,10581,709814,0
1,3,708300,248137,1315937,73820,8083,657646,0
1,3,713107,248606,1658771,73983,10941,827666,0
1,-1,645003,221702,1340072,66852,7751,669408,0
1,3,705158,247719,1375808,73603,8560,687589,0
1,-1,639093,219027,1236334,65701,6942,617821,0
1,3,707076,248574,1353166,74007,8988,676148,0
1,-1,640781,218484,1264558,65590,7390,631942,0
1,3,708948,248949,1371320,74082,8482,685307,0
1,-1,633039,218348,1340650,65597,7232,670000,0
1,3,710659,249899,1465286,74510,8322,732125,0
1,3,717191,250540,1450745,74895,9173,724736,0
1,-1,635842,219159,1184514,65849,6412,591773,0
1,3,712346,249842,1432335,74518,9136,715493,0
1,-1,658821,223232,1304248,68948,8235,651647,0
1,3,709238,247638,1477658,73600,9033,738493,0
1,3,709547,248877,1350444,73924,9153,674940,0
1,-1,634207,218274,1181562,65574,6324,590270,0
1,3,713082,249758,1672225,74100,10233,835612,0
1,-1,638730,219196,1278937,65846,7835,639102,0
1,3,713178,250097,1407711,74248,9132,703458,0
1,3,716683,250415,1333488,74776,10128,666050,0
1,-1,640034,218978,1271718,65832,7392,635474,0
1,3,713812,250365,1566271,74665,10045,782247,0
1,3,733140,253217,1428094,77217,10447,713372,0
1,-1,640328,220665,1366871,66654,7835,682797,0
1,3,709542,248539,1441886,73941,9134,720507,0
1,-1,636280,218218,1210319,65545,7155,604829,0
1,-1,640409,220257,1397998,66384,7309,698419,0
1,3,709674,248757,1419582,74113,9215,709385,0
1,3,709787,248824,1383369,74155,9076,691048,0
1,-1,642057,220919,1301961,66682,7393,649997,0
1,3,712117,248922,1501980,74123,9485,750616,0
1,-1,647375,222148,1228932,67182,8425,613835,0
1,3,711095,248358,1501900,73949,9213,750498,0
1,-1,646456,221299,1297149,66866,7746,648014,0
1,3,711444,248241,1358428,73933,9823,678756,0
1,-1,640107,220779,1305640,66701,7559,652286,0
1,3,713414,248591,1471217,74052,9413,734945,0
1,-1,640106,220346,1322150,66416,7697,660599,0
1,3,716608,249139,1470423,74220,9864,734739,0
1,3,704065,248968,1341541,74089,9048,670358,0
1,-1,634504,218427,1182996,65637,7424,591195,0
1,-1,641606,220601,1309196,66731,8042,653847,0
1,3,705661,248560,1444035,74051,9117,721571,0
1,-1,642760,219712,1442283,66349,8105,720540,0
1,3,703736,247886,1404772,73736,9667,701932,0
1,-1,638733,219209,1226067,65818,6998,612683,0
1,3,730164,253223,1426652,77346,9814,712896,0
1,-1,639792,219005,1164338,65811,6769,581972,0
1,3,712918,250496,1489266,74935,9175,743981,0
1,-1,642189,219674,1461560,66155,7820,730452,0
1,-1,648200,221324,1336001,66628,7618,667562,0
1,3,707150,248953,1489722,74210,9023,744427,0
1,-1,639423,218256,1176948,65560,6936,588204,0
1,3,705376,248606,1373001,74034,8463,686095,0
1,-1,643840,219362,1199615,65897,7398,599421,0
1,3,710398,250036,1388541,74687,10112,693631,0
1,3,712972,249163,1442902,74098,9554,721091,0
1,-1,636737,219046,1183564,65782,7460,591415,0
1,-1,642371,219883,1194478,65913,7194,596937,0
1,3,707508,248534,1266206,73947,8240,632641,0
1,-1,642164,219479,1254898,65801,7512,627064,0
1,3,712044,249250,1555870,74178,9970,777494,0
1,-1,641640,219762,1494278,65908,9688,746181,0
1,-1,640906,218705,1321514,65630,8035,660480,0
1,-1,644391,220625,1287710,66475,7905,643284,0
1,3,710130,249080,1465029,74001,8812,732137,0
1,-1,637401,219360,1154336,65927,7864,576827,0
1,3,730475,254059,1618474,77540,9900,808862,0
1,3,711688,250566,1549654,74878,9512,774066,0
1,-1,645078,221418,1334769,66845,7847,666772,0
1,-1,641303,219013,1239934,65766,7287,619473,0
1,3,712438,249785,1443696,74292,10412,721410,0
1,-1,639832,218959,1250747,65909,7738,624868,0
1,3,711123,248829,1536423,73959,9880,767913,0
1,3,712177,249141,1436134,74087,9266,717724,0
1,-1,662228,224037,1350797,69321,8391,674653,0
1,-1,645303,219009,1374359,65948,7852,686823,0
1,3,708847,248798,1475570,74019,9142,737379,0
1,3,708376,249415,1462184,74164,7970,730753,0
1,-1,638721,218790,1287754,65832,8199,643497,0
1,3,710130,248821,1472725,74041,8582,735959,0
1,-1,645610,220791,1353360,66735,8357,676028,0
1,3,707825,249187,1358793,74105,9236,679073,0
1,-1,646070,221678,1365330,67144,7964,682028,0
1,3,714139,249913,1473456,74566,9304,736188,0
1,-1,639975,219036,1212338,65936,6953,605722,0
1,3,715388,249994,1539559,74608,9580,769304,0
1,3,707855,249824,1377006,74316,9263,688156,0
1,-1,643536,218965,1225678,65936,7099,612563,0
1,3,711080,250084,1441474,74550,9012,720251,0
1,-1,641111,219642,1230720,66154,7897,614853,0
1,-1,640041,218670,1360302,65801,8533,679679,0
1,3,708069,249095,1520319,74022,8920,759790,0
1,3,709470,250197,1419485,74653,9503,709220,0
1,-1,661646,223587,1323443,69277,9082,661323,0
1,3,708609,249196,1451914,74103,9201,725537,0
1,-1,645887,220244,1182475,66373,8147,590783,0
1,3,709615,248540,1421322,73920,9128,710376,0
1,3,709446,249004,1451595,74048,8764,725307,0
1,-1,641374,218675,1346040,65795,8506,672606,0
1,3,710668,249193,1340338,74042,8251,669849,0
1,-1,641397,219094,1319757,65989,7990,659426,0
1,3,707944,248864,1922823,74092,11361,959850,0
1,-1,633016,219063,1396100,65972,7266,697470,0
1,-1,639648,220772,1353745,66716,8396,676210,0
1,3,710379,248705,1477616,73995,9515,738448,0
1,-1,638642,220192,1245467,66336,8590,622297,0
1,3,714922,250902,1527258,75000,9880,761981,0
1,3,732743,253204,1471465,77253,10158,735358,0
1,3,711669,249038,1590627,74058,9737,795324,0
1,-1,632023,218405,1293484,65652,7544,646335,0
1,3,715028,249050,1413599,74019,9127,706405,0
1,-1,634898,218961,1237902,65957,7672,618526,0
1,-1,635170,218922,1326743,65866,7786,662861,0
1,3,707807,248917,1448380,74005,8328,723760,0
1,-1,642166,221108,1296383,66848,8463,647570,0
1,3,714220,249439,1464476,74147,10061,731730,0
1,3,710719,248672,1342782,73899,8972,670917,0
1,-1,635465,219329,1334323,66017,7451,666760,0
1,3,712337,249137,1423885,73997,9551,711508,0
1,-1,636215,219030,1299003,65905,7637,648554,0
1,3,713184,248521,1605844,73784,9567,802562,0
1,-1,636394,219518,1254209,66075,7675,626531,0
1,-1,639474,219747,1276090,66159,7563,637725,0
1,3,710188,248676,1392301,73853,9197,695687,0
1,3,714973,249742,1346372,74293,8853,672769,0
1,-1,639228,219397,1337341,66093,7640,668272,0
1,-1,639911,219197,1213452,66047,7646,606157,0
1,3,714176,249191,1377992,74158,8375,688482,0
1,-1,637412,219824,1335872,66369,7938,667326,0
1,3,718636,250472,1292640,74570,9011,645829,0
1,3,714947,249870,1333125,74152,8836,666167,0
1,-1,668379,229618,1380412,69328,8379,689731,0
1,3,735094,254381,1346652,77433,9736,672907,0
1,3,718611,250439,1446774,74340,10135,723016,0
1,3,707979,249652,1434740,74077,9445,717009,0
1,-1,634738,218562,1243626,65806,6946,621263,0
1,3,711876,249801,1566754,74092,10106,783080,0
1,-1,660189,223897,1233184,69368,8000,616222,0
1,3,713437,251572,1526398,74986,9864,762676,0
1,-1,642653,220668,1354659,66519,7481,676706,0
1,3,717514,251608,1680132,74944,10516,838717,0
1,3,714128,249797,1444755,74200,9889,721318,0
1,-1,636191,218782,1305167,65736,6996,652140,0
1,-1,639459,219747,1314989,66056,7720,657063,0
1,3,713815,250246,1360647,74403,9155,679923,0
1,-1,640937,219756,1289544,66112,6642,644295,0
1,-1,639189,219158,1298092,65863,7896,648684,0
1,3,719395,250289,1496110,74469,9829,747401,0
1,3,711666,249120,1406020,73936,9264,702462,0
1,3,712728,250206,1386146,74629,10072,692311,0
1,-1,641811,220063,1203831,66217,7724,601541,0
1,3,710714,248643,1365220,73868,8933,682339,0
1,3,706442,247996,1352190,73635,8785,675709,0
1,-1,638202,219061,1223815,65907,7667,611526,0
1,-1,644506,219822,1365201,66106,8537,682005,0
1,3,711194,248687,1417955,73870,9377,708681,0
1,-1,657285,223967,1246056,69261,7697,622597,0
1,-1,638398,219870,1408026,66095,8347,703637,0
1,3,715226,249701,1456192,74505,10155,727585,0
1,3,713405,248054,1358253,73723,8651,678671,0
1,3,709585,249171,1459353,74064,9553,729313,0
1,-1,639240,219708,1281149,66067,7027,640252,0
1,-1,643031,221045,1361622,66704,8457,680145,0
1,3,712019,249257,1678184,74079,11119,838236,0
1,-1,640606,219457,1369459,66000,8263,684299,0
1,3,712054,249627,1336037,74163,8927,667689,0
1,-1,641207,220867,1386284,66657,7721,692481,0
1,3,708389,248253,1295141,73814,8948,647027,0
1,-1,640728,220494,1282381,66529,7848,640566,0
1,3,709521,247990,1428890,73633,9508,714106,0
1,-1,638815,219175,1189695,65878,7693,594440,0
1,-1,644215,221564,1501253,66948,8428,749261,0
1,3,712255,249204,1614254,74065,10238,806824,0
1,-1,645451,221925,1391530,67042,8117,695256,0
1,3,712167,249019,1461946,73907,9683,730559,0
1,-1,637995,218639,1274017,65644,7235,636711,0
1,3,713550,248794,1423465,73805,9886,711468,0
1,-1,639819,219345,1292890,65922,7834,646154,0
1,3,712666,249225,1667586,73849,10198,833438,0
1,-1,644707,221382,1364970,66943,7630,681816,0
1,-1,641816,219374,1194901,65993,7317,597071,0
1,3,718896,250404,1439428,74403,9736,718771,0
1,3,718471,249508,1626425,73871,9700,812438,0
1,-1,641292,219697,1203531,66118,6892,601475,0
1,3,730061,253682,1421195,77060,10376,710203,0
1,-1,643550,220487,1281249,66331,7759,640262,0
1,3,711110,248757,1429774,73713,9894,714498,0
1,-1,642648,220789,1219894,66606,7634,609421,0
1,3,705277,248047,1469648,73599,9835,734495,0
1,-1,642135,220865,1253304,66667,7522,625886,0
1,3,710984,248171,1544705,73675,9931,771785,0
1,-1,646328,221569,1448449,67014,8515,723297,0
1,3,713537,249012,1571474,73834,9782,785376,0
1,3,711604,248008,1637955,73627,10395,818370,0
1,3,716778,249781,1475949,74185,9409,737572,0
1,-1,642725,219629,1248436,66047,7393,623937,0
1,3,708120,248212,1474689,73716,9730,736796,0
1,3,707650,247950,1433077,73487,9575,716378,0
1,-1,640919,219804,1374779,66117,7224,687018,0
1,3,709745,248075,1371774,73608,9216,685427,0
1,-1,640218,219074,1337172,65793,7458,668267,0
1,3,728741,252290,1587087,76751,10247,792938,0
1,3,709565,248099,1458911,73608,9584,729066,0
1,-1,641237,218844,1172482,65745,7424,585934,0
1,3,710428,248549,1547388,73823,9644,773147,0
1,-1,636674,219799,1334866,66091,7550,666993,0
1,3,714128,248480,1383364,73793,9484,691127,0
1,-1,637074,219139,1197906,65883,7240,598600,0
1,3,708726,248242,1550221,73630,9410,774595,0
1,3,734668,254199,1470868,77415,9518,734638,0
1,-1,660074,224445,1315784,69396,8531,657578,0
1,3,712594,249059,1360829,73918,8837,679407,0
1,-1,637882,219613,1256446,65973,7318,627838,0
1,-1,637295,219044,1142081,65843,7032,570587,0
1,3,709539,248231,1484962,73627,9091,742045,0
1,3,711531,248619,1637477,73782,10023,818137,0
1,-1,641910,219918,1255621,66075,7715,627638,0
1,3,711391,248969,1368459,73942,9338,684146,0
1,-1,639609,219090,1346633,65818,7691,672797,0
1,3,712363,248901,1513059,73883,10330,756060,0
1,3,733628,252116,1489784,76680,10318,744620,0
1,3,732761,253121,1516811,77059,10391,757994,0
1,-1,639146,219464,1356496,65896,7504,677946,0
1,-1,643554,220952,1613395,66721,8987,805977,0
1,-1,638974,218745,1238006,65730,6601,618706,0
1,3,711727,247870,1429928,73512,10124,714520,0
1,-1,637600,219913,1274897,66087,8005,637049,0
1,3,713234,249125,1340616,73959,9377,669824,0
1,-1,639097,219400,1305901,65880,7906,652605,0
1,3,717940,250081,1385788,74474,9430,692283,0
1,-1,639468,219758,1319283,66114,7985,659229,0
1,-1,638795,218875,1430658,65823,8482,714950,0
1,3,714088,248393,1451797,73649,9388,725500,0
1,-1,641988,220872,1243271,66651,7888,621081,0
1,3,706760,250161,1406903,73985,8705,702806,0
1,-1,639955,219321,1315461,65977,7649,657118,0
1,3,704192,247767,1387069,72988,8654,693168,0
1,-1,639814,219214,1286073,65902,7831,642599,0
1,-1,641407,219019,1267445,65863,7805,633282,0
1,3,704124,248145,1423157,73060,9067,711186,0
1,3,706090,248624,1578759,73316,9449,789012,0
1,3,701577,247670,1430799,72950,10095,714849,0
1,3,704857,248501,1459035,73285,9897,728910,0
1,-1,643850,221465,1317466,66923,7582,657790,0
1,-1,640393,219642,1297527,66001,7380,648428,0
1,3,704184,248128,1484733,73083,9659,741998,0
1,3,710330,249532,1561174,73567,9169,780050,0
1,-1,641538,219952,1316582,66073,7955,657906,0
1,3,704914,248287,1346790,73236,9889,673152,0
1,-1,642579,220003,1474108,66169,8455,736630,0
1,3,706687,248216,1466880,73176,9366,732900,0
1,-1,643036,219940,1448217,65982,8622,723606,0
1,3,708056,248478,1422709,73386,9296,710999,0
1,-1,647614,221000,1390754,66653,9028,694818,0
1,3,712118,250071,1372163,75065,9997,685418,0
1,3,714246,249504,1510765,74802,9995,754541,0
1,-1,635827,218684,1244908,65673,7950,622109,0
1,3,711897,248687,1610820,74295,10610,804975,0
1,3,710505,248523,1324800,74293,9811,661895,0
1,-1,639605,219656,1249127,65940,7458,624184,0
1,3,707520,248110,1449120,74051,9587,724346,0
1,-1,640503,219418,1235726,65931,6837,617439,0
1,3,713638,250391,1391366,75044,10024,695015,0
1,3,711433,250062,1419604,74939,10141,709487,0
1,-1,641673,219492,1314191,65802,7504,656702,0
1,-1,636747,218808,1268451,65609,6664,633844,0
1,3,715471,250301,1456313,75031,9453,727547,0
1,-1,643965,220155,1441468,66127,7894,720290,0
1,-1,641027,219278,1287523,65785,7913,643373,0
1,3,710980,248320,1312120,74239,9745,655698,0
1,-1,635058,218487,1205556,65487,7520,602377,0
1,-1,638216,219122,1240399,65688,7574,619891,0
1,3,707906,248445,1504889,74245,9415,752120,0
1,-1,644309,220439,1349189,66157,8473,674180,0
1,3,731177,253285,1428841,77616,11031,713949,0
1,-1,660662,223990,1297650,69115,8187,648390,0
1,3,730377,252737,1692137,77434,11073,845590,0
1,-1,643157,219512,1263044,65871,7414,631108,0
1,3,712649,249607,1335653,74803,9600,667270,0
1,-1,644181,220018,1376076,66034,8062,687750,0
1,3,713398,249529,1390155,74823,9306,694527,0
1,3,710617,248237,1516799,74089,9916,758511,0
1,3,708886,248153,1523108,74127,10056,761018,0
1,-1,664870,223953,1292386,69152,8789,645806,0
1,3,710105,247654,1342630,73975,9879,670984,0
1,3,705316,247808,1365693,74003,9736,682457,0
1,3,707819,248089,1623370,74078,9979,811343,0
1,-1,659459,223587,1411770,69079,7943,705524,0
1,3,708011,248213,1429291,74146,8709,714242,0
1,3,713796,249959,1350391,75014,9286,674578,0
1,3,709964,248571,1497492,74299,9894,748085,0
1,-1,644839,220971,1224456,66310,7156,611795,0
1,-1,649742,221837,1341180,66849,8287,670041,0
1,3,712438,250253,1322273,75161,9297,660391,0
1,-1,647646,222161,1312690,67145,7293,655720,0
1,3,710231,249114,1323280,74476,9313,661211,0
1,-1,646864,220440,1290662,66339,7207,644864,0
1,3,707475,248002,1835947,74056,10861,917644,0
1,-1,646359,221463,1402429,66804,8152,700544,0
1,3,711467,248772,1351954,74322,8883,675574,0
1,-1,663873,224858,1306697,69586,8251,652947,0
1,3,732510,253072,1516407,77499,9773,757857,0
1,3,714326,249898,1333746,74992,9097,666392,0
1,-1,646536,220571,1377951,66319,8169,688516,0
1,3,737211,258113,1461679,77137,9574,730444,0
1,3,728821,252673,1590193,77309,10054,794835,0
1,-1,646751,220556,1304213,66097,8636,651841,0
1,3,712908,248719,1487284,74331,8865,743276,0
1,-1,669043,225309,1278396,69478,8757,638726,0
1,3,710979,248249,1452959,74171,8963,726161,0
1,3,719181,250186,1382596,74872,10269,690900,0
1,-1,652313,222411,1343904,66951,8562,671561,0
1,3,706682,248143,1681926,74089,10507,840055,0
1,-1,636737,219844,1158052,65825,8038,578657,0
1,-1,641082,221090,1378992,66308,9079,689207,0
1,3,710901,248924,1379583,74565,9402,689177,0
1,3,711886,248518,1428661,74293,9764,713975,0
1,-1,641207,220578,1372702,66131,8546,686025,0
1,-1,641092,220205,1311165,65993,9092,655220,0
1,-1,665550,225438,1224063,69548,9259,611650,0
1,3,710849,248462,1300615,74230,10000,649766,0
1,-1,639773,219758,1160059,65929,8079,579730,0
1,3,710316,248074,1443214,73936,9994,721185,0
1,-1,645581,221352,1395396,66653,7673,697151,0
1,-1,643087,219850,1329251,65927,8313,664294,0
1,3,707975,248075,1565835,73980,10700,782414,0
1,-1,663215,223760,1320238,69055,8443,660028,0
1,3,716355,250413,1439838,75099,9959,719287,0
1,-1,641255,219230,1327846,65816,8719,663509,0
1,3,710840,247946,1341207,74055,9073,670189,0
1,-1,643032,220390,1155685,66140,7376,577426,0
1,3,740729,258219,1448364,77022,10089,723650,0
1,-1,645435,220290,1325245,66061,8167,662297,0
1,3,735002,252722,1536931,77416,10778,768045,0
1,3,712216,247672,1548701,73943,9986,773763,0
1,-1,639402,219759,1374703,65894,8062,687034,0
1,-1,642099,220225,1306402,66117,7533,652840,0
1,3,715916,248483,1379655,74126,9479,689055,0
1,-1,639732,219268,1309974,65826,7891,654697,0
1,3,707364,249305,1350512,74710,9059,674634,0
1,3,711868,249377,1716209,74438,11300,857671,0
1,-1,640104,219127,1386330,65720,8543,692655,0
1,3,710355,248773,1366839,74401,9614,683054,0
1,-1,649310,222534,1352718,67183,8021,675686,0
1,3,711627,249639,1371465,74607,9083,685308,0
1,3,714521,250013,1403668,74766,9480,701310,0
1,-1,647937,221562,1397971,66896,8686,698409,0
1,3,711851,249441,1484241,74725,9051,741628,0
1,-1,660294,224129,1247574,69189,8267,623544,0
1,-1,641119,219246,1297122,65833,7859,648200,0
1,3,722320,251698,1429790,75709,8943,714061,0
1,-1,646568,221011,1217765,66674,8323,608283,0
1,3,711602,249645,1457926,74653,9643,728522,0
1,3,713856,249966,1494388,74736,10233,746653,0
1,-1,642460,219407,1253562,65970,8144,626397,0
1,3,717825,250732,1400211,75183,9533,699431,0
1,-1,644204,219141,1298271,65821,8260,648781,0
1,3,713966,250439,1492369,74914,9298,745737,0
1,3,714869,249981,1377610,74745,9391,688435,0
1,3,716154,250650,1371177,75130,9448,684799,0
1,-1,641328,221290,1356873,66847,8334,677834,0
1,3,713703,249333,1473718,74534,9258,736359,0
1,3,716449,249792,1281761,74678,9388,640512,0
1,-1,638671,219354,1372456,65746,7940,685910,0
1,-1,644306,220891,1265202,66622,8685,631870,0
1,3,714029,250027,1374517,74762,8515,686751,0
1,3,713906,249715,1424717,74671,9023,711546,0
1,-1,661432,224035,1228223,69165,8143,613731,0
1,3,731484,253776,1424237,77816,9765,711657,0
1,-1,638628,219318,1332208,65777,7311,665723,0
1,3,714171,249336,1401549,74411,9671,700398,0
1,-1,639472,218775,1208337,65676,7768,603809,0
1,3,715877,250867,1400641,75078,10253,699671,0
1,-1,638872,219440,1494384,65829,9397,746830,0
1,3,714355,248975,1371159,74126,9840,685242,0
1,-1,637659,218760,1234737,65687,7669,617032,0
1,3,713865,249277,1518329,74285,9610,758749,0
1,3,711442,249421,1495721,74401,10231,747482,0
1,-1,661142,224098,1602082,69244,10172,800676,0
1,3,712051,249532,1387609,74436,8782,693380,0
1,-1,644262,219613,1224570,65994,7940,612039,0
1,3,716507,250305,1366392,74950,9138,682484,0
1,-1,639502,219197,1282367,65800,7158,640865,0
1,3,713256,249859,1528360,74621,10217,763680,0
1,-1,641512,218927,1319997,65786,9148,659548,0
1,3,713730,248888,1459699,74264,10167,729709,0
1,-1,644051,219996,1528663,66198,9566,763688,0
1,3,715514,248794,1420992,74279,8751,710406,0
1,-1,637173,218955,1191826,65767,7598,595710,0
1,3,718459,249731,1443687,74583,9372,721510,0
1,3,709135,249058,1369207,74373,9895,684441,0
1,3,710659,249126,1517074,74334,9518,758171,0
1,-1,637917,218925,1219518,65671,7367,609467,0
1,-1,642980,220038,1299414,66023,7828,649446,0
1,3,713810,250739,1381186,75202,9375,689934,0
1,-1,643831,219894,1315972,66006,8634,657631,0
1,-1,643334,220544,1478672,66461,8578,738019,0
1,-1,643207,219709,1395814,65929,7669,697556,0
1,3,712513,249240,1330256,74405,9090,664610,0
1,-1,641354,219370,1325493,65655,8080,662372,0
1,3,715659,249943,1440421,74598,8883,719842,0
1,-1,642155,219107,1338724,65546,8686,669079,0
1,-1,642022,219068,1258574,65530,7767,628903,0
1,3,709255,248119,1442637,74083,9100,720900,0
1,3,734345,253599,1504939,77668,10205,752079,0
1,-1,648369,220818,1342434,66339,8165,670665,0
1,3,716269,249453,1318158,74572,8826,658448,0
1,3,717901,250177,1287319,75010,9205,642716,0
1,3,713776,249062,1436110,74436,9873,717623,0
1,-1,644790,219848,1133851,65839,7805,566527,0
1,3,715056,249037,1503658,74391,8770,751353,0
1,-1,672433,225639,1259021,69919,9067,629172,0
1,3,717103,249129,1474650,74397,10053,736969,0
1,3,714430,248956,1417869,74349,10175,708693,0
1,-1,638891,219663,1281527,65799,8653,640419,0
1,3,716606,249308,1484189,74413,8775,741541,0
1,-1,663223,225270,1318913,69417,8087,659181,0
1,3,718573,249346,1516453,74404,10621,757382,0
1,-1,639973,219369,1305188,65689,7889,652320,0
1,3,712274,248599,1444978,74076,9272,722302,0
1,3,710517,248637,1342197,74188,8734,670785,0
1,3,713953,249854,1436391,74757,10188,717606,0
1,-1,642512,220892,1342635,66329,8401,670824,0
1,-1,644841,221006,1278895,66577,8117,638939,0
1,3,711075,249191,1684884,74380,11603,842803,0
1,-1,641031,219430,1344805,65811,8432,672082,0
1,3,713140,248300,1443070,74007,9837,721045,0
1,-1,639553,218702,1617616,65528,9773,808231,0
1,3,713603,248402,1310739,74045,9923,655012,0
1,3,736770,253845,1535579,77648,11073,767400,0
1,-1,658927,223448,1241848,68916,8154,620649,0
1,3,710863,248870,1490769,74271,9645,745028,0
1,-1,644421,220860,1277736,66503,7992,638135,0
1,3,711391,248663,1344010,74287,8590,672533,0
1,-1,639023,218752,1364615,65579,9143,681711,0
1,-1,641667,219241,1329735,65814,7912,664413,0
1,-1,639648,218926,1351070,65681,7818,675075,0
1,3,714699,250488,1469030,75370,10065,733799,0
1,-1,641524,218381,1356287,65477,8683,677754,0
1,3,712793,247941,1544936,74155,10383,771997,0
1,-1,638676,218617,1399779,65552,8281,699574,0
1,-1,638150,218619,1319859,65522,8028,659574,0
1,3,713351,247437,1561182,74032,9979,780362,0
1,-1,639677,218958,1335828,65638,7705,667434,0
1,-1,638139,218801,1307122,65582,8250,653257,0
1,3,705844,247869,1393232,74198,9140,695698,0
1,-1,661818,223958,1229606,69066,7834,614429,0
1,3,709220,249161,1425398,74585,9422,712431,0
1,-1,663149,223581,1285939,68990,9191,642568,0
1,3,706905,248014,1377405,74271,9517,688307,0
1,3,705323,247688,1435174,74097,9007,717140,0
1,-1,639271,219102,1288339,65669,7734,643902,0
1,3,710323,248523,1428612,74415,9046,713866,0
1,-1,661332,222961,1343588,68717,9164,671812,0
1,3,709872,248354,1502664,74289,8754,750814,0
1,3,732018,252889,1478547,77616,9546,738954,0
1,-1,638771,218587,1350865,65511,8645,674809,0
1,3,706927,248084,1478577,74197,8213,738964,0
1,-1,662090,223826,1294091,69066,8983,646591,0
1,-1,641868,218927,1306577,65624,8726,652943,0
1,3,708592,248611,1441326,74458,9555,720313,0
1,-1,643814,219444,1231563,65855,8002,615325,0
1,-1,636227,218497,1361774,65433,8331,680545,0
1,3,710492,248022,1546249,74107,9149,772734,0
2,3,760619,266384,1541303,78728,9904,770370,0
2,-1,689617,237069,1243813,70711,7652,621227,0
2,3,769327,268767,1495929,79681,9715,747304,0
2,-1,690898,236852,1422848,70607,8899,711136,0
2,3,760811,266013,1493082,78579,8492,746100,0
2,3,758423,266402,1431868,78718,8112,715502,0
2,-1,697791,239705,1386438,71807,8294,692624,0
2,-1,691140,237199,1247943,70683,7214,623580,0
2,3,708221,248142,1349795,73690,8163,674512,0
2,-1,694935,237641,1249111,70849,8695,624192,0
2,-1,692023,236678,1374595,70511,7854,686863,0
2,-1,691061,238217,1356442,71069,7799,677705,0
2,3,713174,250166,1428909,74565,8994,713756,0
2,-1,713227,243222,1352550,74398,8045,675750,0
2,3,711691,248125,1330131,73684,9035,664605,0
2,-1,635156,218299,1308198,65544,7149,653647,0
2,-1,636667,218382,1237706,65535,7289,618528,0
2,3,710412,247807,1498018,73598,9877,748365,0
2,-1,637048,218712,1315252,65639,7281,657078,0
2,3,734119,258107,1572972,76946,9918,785775,0
2,-1,638212,219366,1333390,65921,7421,666348,0
2,-1,642052,219505,1262272,66027,7178,630746,0
2,3,705162,248167,1346638,73758,8324,673094,0
2,3,709147,249088,1390884,74060,9892,695000,0
2,-1,636416,218957,1268133,65738,8008,633733,0
2,3,703411,247341,1358195,73513,7861,678659,0
2,-1,639707,219172,1347399,65794,7865,673100,0
2,3,708147,248563,1401729,73931,8926,700418,0
2,3,707360,247877,1450547,73672,9202,724936,0
2,3,710663,248686,1433974,73987,8598,716655,0
2,-1,640932,219459,1211874,65881,7341,605485,2
2,-1,660057,223711,1315037,69030,8638,657138,0
2,3,757369,262213,1567909,79850,9685,783555,0
2,-1,638080,218311,1202652,65378,7128,600929,0
2,3,712090,249609,1581472,74568,10734,789986,0
2,-1,641605,219065,1313915,65836,8645,656640,0
2,3,708876,248065,1354785,73827,9535,676783,0
2,-1,633698,219101,1194045,65846,7423,596412,0
2,3,708927,248506,1381491,73955,8596,690433,0
2,3,732225,253170,1401395,77301,9438,700259,0
2,-1,640024,220717,1338007,66620,7513,668239,0
2,3,712022,248495,1398136,73921,8367,698700,0
2,-1,639128,219599,1206705,66034,7109,602945,0
2,3,709749,248222,1503978,73643,9837,751562,0
2,-1,634129,218499,1305603,65634,7270,652498,0
2,3,705994,247953,1350568,73619,8883,674931,0
2,3,708226,248676,1388684,73813,8453,693936,0
2,3,711690,250053,1499554,74456,9532,749229,0
2,-1,634488,218452,1254838,65645,6531,627040,0
2,3,710827,248685,1364677,73920,8733,682145,0
2,-1,638232,218977,1296229,65786,7106,647786,0
2,-1,652855,222255,1322613,68735,7725,660917,0
2,3,709720,249143,1447862,74081,9183,723482,0
2,3,710382,248548,1444109,73932,9619,721713,0
2,3,715389,250895,1513985,74929,9539,756170,0
2,-1,636621,218327,1295963,65583,7956,647483,0
2,-1,638238,218564,1234746,65734,7669,617024,0
2,3,712992,250495,1482826,74861,9790,740729,0
2,-1,635476,218429,1280809,65616,6983,640033,0
2,3,711755,250134,1529183,74743,9532,764037,0
2,3,710382,248181,1533748,73881,9904,766384,0
2,-1,659257,223553,1211640,69122,8564,605387,0
2,3,710542,248121,1504449,73928,9700,751189,0
2,-1,637916,218518,1282296,65646,6966,640794,0
2,3,732039,253189,1448803,77278,10629,723965,0
2,-1,655361,223199,1299623,69010,8294,649400,0
2,3,711594,247810,1366050,73789,9509,682382,0
2,-1,636208,219074,1245584,65812,7240,622396,0
2,3,711462,248246,1425063,73924,9109,712104,0
2,-1,640836,219318,1193742,65909,6847,596507,0
2,3,701325,247863,1426584,73773,9191,712873,0
2,3,710599,250324,1436724,74824,10040,717701,0
2,-1,656839,222988,1267535,68990,7940,633012,0
2,-1,640752,218832,1181479,65767,7048,590436,0
2,-1,656616,223100,1287610,68958,8075,643378,0
2,3,705534,247978,1292409,73818,9316,645996,0
2,-1,641944,220260,1242158,66211,6900,620842,0
2,3,706427,248401,1342650,73936,8576,670727,0
2,3,706084,248484,1499780,74037,8783,749398,0
2,-1,643436,219672,1290588,66109,7424,645062,0
2,-1,641843,219177,1261718,65714,7383,630489,0
2,3,705210,248875,1467911,74151,10348,733488,0
2,-1,662766,223600,1256201,69001,8083,627767,0
2,3,709038,249293,1449585,74228,9124,724330,0
2,-1,647254,220978,1348764,66586,8053,673863,0
2,3,707677,248207,1454488,73864,8384,726764,0
2,3,710218,249365,1365590,74286,9350,682338,0
2,-1,643968,222461,1303200,67079,8058,651001,0
2,3,712632,250205,1416798,74696,8796,707816,0
2,-1,647783,222416,1338788,67065,8188,668836,0
2,-1,661231,224286,1311233,69181,8106,655366,0
2,3,736280,254649,1334150,78222,9958,666469,0
2,-1,647169,222083,1399510,66987,8279,698974,0
2,-1,645810,221263,1317085,66518,8410,658004,0
2,-1,640732,218964,1319624,65751,7341,659455,0
2,3,708617,249226,1452874,74162,10036,725923,0
2,-1,663229,223670,1274334,69110,9581,636758,0
2,3,706480,248159,1434782,73793,9173,716993,0
2,3,711315,249688,1453708,74486,9795,726370,0
2,-1,638049,219128,1331922,65795,7978,665654,0
2,-1,642974,219790,1275972,66039,8084,637540,0
2,3,728530,252733,1328460,77059,9900,663773,0
2,-1,639654,219495,1319854,65999,7088,659540,0
2,3,709557,248741,1470038,73961,9380,734770,0
2,3,709884,248658,1466287,73972,8927,732787,0
2,-1,643874,219477,1380525,66062,7592,689792,0
2,3,728941,253618,1333271,77369,9631,666282,0
2,-1,664734,224020,1351517,69421,9187,675285,0
2,-1,638110,219025,1261807,65934,7113,630449,0
2,3,706036,248356,1377028,73799,8171,688159,0
2,3,711651,249798,1469127,74529,8652,733950,0
2,-1,667285,228393,1388695,68700,8795,693985,0
2,3,709873,248622,1457824,73996,8707,728577,0
2,-1,637398,218920,1402372,65947,7309,700662,0
2,3,708190,247986,1408487,73793,8798,703918,0
2,-1,645296,220947,1369717,66859,8063,684194,0
2,3,717968,250640,1470465,74890,9563,734814,0
2,3,708129,250345,1374579,74701,9340,686665,0
2,-1,640591,218399,1225993,65708,7358,612577,0
2,-1,643575,220666,1368902,66698,8365,683874,0
2,3,706659,248746,1435854,73906,8764,717626,0
2,-1,644815,221059,1465409,66893,8919,732188,0
2,3,708261,248097,1382954,73769,8199,691154,0
2,-1,641372,219131,1356207,66001,8334,677491,0
2,3,711952,248867,1522595,74100,11092,760573,0
2,3,706107,248614,1405775,73970,8218,702668,0
2,3,706538,247836,1402152,73764,9146,700699,0
2,-1,641445,218931,1151332,65943,7892,575238,0
2,3,706771,248935,1363830,73979,8187,681644,0
2,-1,641082,218657,1299279,65809,8228,649198,0
2,3,711202,249169,1302918,74140,8839,651155,0
2,-1,650506,221779,1323691,67124,8398,661198,0
2,3,705961,248635,1428571,73974,9568,713668,0
2,-1,634609,220044,1225491,66278,7075,612224,0
2,-1,634121,218530,1261200,65759,7438,630255,0
2,3,713722,250760,1491110,74918,9143,744561,0
2,-1,660435,227648,1253054,68466,7762,626035,0
2,3,707576,248918,1488064,74078,8643,743955,0
2,3,707160,247769,1266876,73692,8754,633056,0
2,-1,640207,220121,1292647,66301,7751,645858,0
2,3,714382,250519,1484930,74730,9407,741748,0
2,3,713335,249025,1428360,73960,9846,713835,0
2,-1,638107,219818,1370112,66435,7993,684488,0
2,3,713561,250541,1363386,74939,9721,681039,0
2,-1,637911,219182,1239220,65944,7381,619261,0
2,-1,656514,223419,1269784,69204,8474,634388,0
2,3,711917,248921,1411107,73946,8998,705039,0
2,-1,635328,219851,1243914,66224,7542,621531,0
2,3,708661,247961,1450971,73613,9070,724903,0
2,3,730867,253372,1407443,77164,9822,703344,0
2,-1,639797,220871,1419515,66764,8212,708557,0
2,3,712085,248992,1512732,74005,9307,755569,0
2,-1,637938,218865,1272039,65858,7416,635621,0
2,3,708818,248477,1458671,73860,9371,728901,0
2,-1,637876,219453,1250290,66092,7686,624724,0
2,3,713744,249736,1361684,74217,9235,680534,0
2,-1,639192,219567,1361879,66077,7927,680573,0
2,-1,639050,218870,1217488,65865,7791,608464,0
2,3,716203,249936,1431196,74409,8964,715133,0
2,-1,634142,218833,1197885,65927,6834,598433,0
2,3,714772,249414,1524656,74246,9594,762097,0
2,-1,634259,218497,1332620,65752,8000,666031,0
2,3,714233,249192,1439581,73936,9885,719433,0
2,3,715808,251022,1410798,74518,10135,705002,0
2,3,718791,250119,1501377,74253,10064,750349,0
2,3,712921,251723,1492714,74937,9719,745561,0
2,-1,635173,219000,1309149,65874,7849,654220,0
2,3,715086,251158,1549199,74770,10804,774063,0
2,-1,639513,220210,1191383,66309,7624,595190,0
2,3,731964,254817,1544114,77574,10857,771760,0
2,-1,641036,219599,1280804,66046,7383,639925,0
2,3,735160,255213,1544730,77672,10539,771997,0
2,3,712572,249905,1383068,74200,9462,690885,0
2,-1,638940,220158,1260937,66221,7298,630051,0
2,-1,637417,219411,1303630,65985,7088,651308,0
2,3,717340,251649,1460104,75121,9899,729456,0
2,-1,637895,219061,1260993,65814,7333,630108,0
2,3,717992,251314,1735088,74897,10317,866920,0
2,-1,643145,220293,1270365,66287,7060,634713,0
2,3,716127,251607,1506177,75089,9723,752465,0
2,3,709570,249200,1450178,74144,9969,724624,0
2,-1,638931,219330,1223231,65883,7542,611370,0
2,3,714370,249413,1458859,74107,10046,729002,0
2,-1,640985,220043,1199253,66206,7720,598999,0
2,3,715534,249686,1455782,74393,9571,727302,0
2,-1,640552,218712,1336048,65669,8708,667310,0
2,3,715812,250247,1449038,74566,9018,723982,0
2,-1,636569,219301,1312908,65958,7928,655985,0
2,-1,640258,220809,1406764,66639,8552,702174,0
2,3,711790,248279,1439006,73772,9896,719171,0
2,3,717415,250270,1428583,74666,9514,713867,0
2,3,707413,248727,1394272,73966,9217,696778,0
2,-1,636353,218656,1257333,65719,6899,628305,0
2,-1,637109,219500,1309909,66019,7895,654525,0
2,3,711547,248647,1503676,73944,11126,751156,0
2,-1,641157,220002,1312534,66119,7579,655870,0
2,3,709913,247909,1684623,73606,11096,841953,0
2,-1,636129,219151,1354808,65871,7609,677155,0
2,3,730614,253312,1544472,77181,9909,771595,0
2,-1,634607,218362,1228453,65668,7378,613803,0
2,3,715671,250161,1428963,74712,9873,713909,0
2,-1,643980,221583,1221902,67011,8264,610208,0
2,-1,658160,223761,1194971,69182,7980,596543,0
2,3,708185,248041,1358020,73595,8676,678690,0
2,-1,640544,219630,1595670,66055,9598,795814,0
2,3,712305,248805,1496304,73836,9885,747878,0
2,-1,642398,220381,1379705,66444,8312,689231,0
2,3,712059,248441,1377032,73686,9167,688125,0
2,-1,638345,219065,1228779,65820,7678,614061,0
2,3,715040,250617,1556911,74510,9967,777859,0
2,-1,660673,224129,1290017,69298,7917,644565,0
2,-1,643664,220624,1367971,66587,7577,683400,0
2,-1,641349,220017,1300438,66097,6893,649854,0
2,3,717047,249907,1409696,74047,9575,704683,0
2,3,739429,254258,1519506,77263,10453,759042,0
2,3,709530,249549,1507501,73948,10083,752780,0
2,-1,638778,218703,1319016,65675,7110,659156,0
2,3,712852,249201,1554447,73872,10040,776841,0
2,-1,636988,219209,1160032,65862,7310,579647,0
2,3,707041,247926,1463025,73597,9868,730907,0
2,-1,659143,224036,1265591,69257,8040,632401,0
2,3,707272,248187,1408449,73645,9404,703837,0
2,-1,662031,224495,1286824,69431,8065,643112,0
2,3,718664,251434,1430773,74994,9524,714722,0
2,3,711005,248714,1575955,73882,10475,787613,0
2,-1,641835,219446,1270651,65997,7588,634969,0
2,3,712127,248388,1416351,73753,9778,707647,0
2,3,711957,249678,1454757,74345,9306,726789,0
2,3,710422,248580,1448610,73816,9850,723861,0
2,-1,639319,219081,1239084,65833,6914,619243,0
2,-1,641825,219699,1234765,66056,7636,617029,0
2,3,713154,249313,1519759,73969,9889,759342,0
2,3,712721,248529,1467948,73787,10460,733445,0
2,-1,644078,219863,1325119,66097,8293,662336,0
2,3,715238,250329,1401887,74548,8982,700062,0
2,3,716763,249961,1399344,74441,10042,699092,0
2,-1,634695,219268,1410225,65925,8826,704453,0
2,3,712998,248380,1362914,73684,10188,680968,0
2,-1,640886,220577,1297627,66530,8082,648369,0
2,3,709317,248419,1425795,73694,9405,712416,0
2,-1,638353,219198,1343477,65850,7053,671491,0
2,3,709567,248415,1446222,73745,9537,722690,0
2,3,709784,248121,1406478,73630,9519,702712,0
2,-1,643098,221039,1340683,66698,8047,669907,0
2,3,709378,248266,1446999,73641,9078,723248,0
2,-1,643470,221337,1332750,66841,7753,665645,0
2,-1,639845,219211,1171846,65839,7403,585602,0
2,3,709313,247452,1486297,73324,10288,742224,0
2,3,711846,249128,1354238,73970,9657,676744,0
2,-1,639317,219483,1637414,66031,9210,817504,0
2,3,713123,248343,1480557,73634,10712,739914,0
2,3,714324,248568,1337375,73750,9562,668241,0
2,-1,638619,219330,1254092,65955,7267,626699,0
2,3,709754,248437,1482794,73741,9437,740863,0
2,-1,639528,219802,1242110,66027,7008,620737,0
2,-1,663436,223983,1288628,69267,8486,643962,0
2,3,716185,249976,1372499,74418,9597,685696,0
2,-1,645604,220638,1193635,66317,7303,596121,0
2,3,710060,248416,1518748,73699,9076,758742,0
2,-1,641377,220544,1263962,66364,7599,631585,0
2,3,714578,249528,1501798,74015,9085,750558,0
2,-1,643893,221898,1346439,67116,8309,672578,0
2,-1,641208,219945,1334723,66107,7280,667087,0
2,3,717724,250154,1397122,74398,9353,697796,0
2,-1,637799,219471,1240064,65971,7563,619700,0
2,3,716427,248311,1588013,73580,8762,793493,0
2,-1,640125,219265,1349371,65939,7453,673536,0
2,3,708898,250348,1406477,74043,9197,702614,0
2,3,709471,250148,1544437,73997,9284,771676,0
2,-1,646520,221306,1381170,66814,9057,689667,0
2,-1,645667,220742,1332046,66615,8209,665447,0
2,3,733179,257755,1545137,75930,9640,772038,0
2,3,705898,249235,1422198,73437,10244,710718,0
2,3,708707,249311,1472597,73544,9076,735776,0
2,-1,657434,223573,1258790,69154,7327,628745,0
2,-1,640806,219634,1335337,66079,7628,667207,0
2,3,706656,249126,1421621,73408,9686,710386,0
2,3,710705,249900,1363012,73851,8644,680978,0
2,-1,639196,219434,1555231,65900,8001,777335,0
2,3,723676,252447,1734703,76365,11038,867005,0
2,-1,640637,219683,1247426,66074,7074,623324,0
2,3,711148,250422,1420535,74102,9939,709827,0
2,-1,641659,219175,1220630,65906,7393,609921,0
2,3,713416,250976,1472146,74518,9980,735074,0
2,3,707863,248182,1473084,74161,10566,736226,0
2,-1,643968,220159,1177195,66015,7716,588182,0
2,-1,654949,223653,1305795,69122,7983,652404,0
2,3,731354,252790,1587915,77441,10978,793590,0
2,-1,660408,224015,1284032,69287,8429,641493,0
2,3,714277,250118,1395680,75114,9901,696958,0
2,3,707894,247568,1355106,73952,10274,677112,0
2,-1,639035,219357,1237049,65965,6897,618068,0
2,3,707221,248462,1332285,74313,9553,665633,0
2,3,706545,248336,1345282,74231,9480,672258,0
2,3,708059,247737,1449266,73968,10204,724427,0
2,-1,642602,220267,1209135,66230,7219,604170,0
2,-1,638717,219572,1270798,65913,7026,634916,0
2,3,710371,248567,1561511,74295,9768,780294,0
2,-1,644551,220752,1332664,66563,7900,665689,0
2,3,711337,249518,1358606,74800,8686,678504,0
2,-1,641842,219838,1211867,66006,7261,605535,0
2,-1,665458,224178,1343949,69248,9487,671618,0
2,-1,640054,219883,1285190,66051,7630,642149,0
2,3,705807,247891,1489948,74035,9422,744558,0
2,-1,642458,220882,1314367,66318,7862,656816,0
2,3,711066,248388,1344073,74224,9466,671489,0
2,3,729762,252934,1596382,77507,10866,797052,0
2,-1,642968,220443,1372837,66159,8121,686010,0
2,-1,643037,219759,1323764,65995,7613,661529,0
2,3,707058,247702,1413191,73898,9036,706158,0
2,-1,642505,219736,1267458,65986,8464,632786,0
2,3,731470,253054,1519515,77522,11139,759361,0
2,3,712051,247906,1562547,74047,10567,780798,0
2,3,713386,249072,1417812,74452,9852,708556,0
2,-1,642018,219339,1684970,65798,9013,841465,0
2,3,711764,247946,1571098,74028,9999,785293,0
2,3,704061,248004,1468621,74110,10047,733854,0
2,3,712080,249945,1375977,75012,9588,687477,0
2,-1,642452,220724,1355586,66591,7582,677205,0
2,3,713098,250743,1397153,75311,8496,697903,0
2,3,708824,248427,1422918,74172,9083,711230,0
2,3,711841,248854,1716521,74386,10127,857680,0
2,-1,642993,220859,1288189,66588,7851,643387,0
2,-1,643739,219862,1344277,66066,7614,671649,0
2,3,711240,248753,1434663,74363,9244,716982,0
2,-1,644290,219788,1258601,66072,7685,628983,0
2,3,710445,248566,1333236,74200,8319,666232,0
2,-1,643946,219835,1349066,66118,7314,673989,0
2,3,709172,249286,1530896,74517,10964,765021,0
2,-1,641269,219762,1288556,66084,7534,643992,0
2,3,729299,253008,1590570,77465,10131,795023,0
2,-1,643535,219851,1362476,66183,7968,680841,0
2,3,709454,248332,1415821,74200,8701,707502,0
2,-1,647324,221045,1334886,66233,8311,667141,0
2,3,711635,248443,1402014,74240,9209,700673,0
2,3,706161,247573,1345813,73930,9184,672628,0
2,3,710017,248135,1413637,74136,10152,706482,0
2,-1,647639,220957,1201012,66355,7866,600055,0
2,3,711373,248491,1494156,74231,9407,746535,0
2,-1,647407,220859,1320263,66176,8297,659583,0
2,3,711975,248492,1466382,74261,9810,732845,0
2,3,711067,248061,1488954,74021,9770,744111,0
2,-1,646695,220755,1431059,66238,10028,715136,0
2,3,727919,252788,1556712,77447,11456,778017,0
2,-1,646619,221204,1358083,66330,7673,678668,0
2,3,716480,250724,1412924,75257,9141,705539,0
2,-1,639573,220370,1423405,66106,8905,711420,0
2,3,712021,248552,1366042,74211,9542,682751,0
2,-1,642225,220680,1282951,66217,8382,641105,0
2,-1,644227,220279,1420401,66015,8184,709908,0
2,3,731632,252703,1530098,77412,10560,764594,0
2,-1,641890,220019,1251477,66028,8866,625196,0
2,-1,647032,221541,1245550,66475,8082,622313,0
2,3,713671,248088,1345109,74059,9963,672161,0
2,-1,642104,220664,1185482,66290,7495,592342,0
2,-1,642850,220357,1215921,66157,7348,607647,0
2,3,711755,247236,1458894,73717,9910,729095,0
2,-1,642692,219965,1261037,66022,7429,630215,0
2,3,712028,248965,1505682,74453,9855,752184,0
2,-1,641071,219823,1325222,65963,8026,662270,0
2,3,709502,247487,1459281,73912,10194,729541,0
2,-1,645619,220132,1148717,66101,7479,574130,0
2,3,708473,248048,1378293,73939,9410,688631,0
2,-1,643966,219779,1571471,65903,8870,785391,0
2,3,710462,248264,1447489,74164,9768,723360,0
2,3,714346,248568,1477900,74272,9318,738176,0
2,-1,641422,220003,1444700,65983,8109,722043,0
2,3,734477,253269,1543125,77497,11018,771162,0
2,-1,645319,221385,1302358,66640,8508,650498,0
2,-1,644569,221708,1332818,66864,8439,665911,0
2,3,711626,250398,1581288,74984,10952,791424,0
2,3,707923,247847,1429325,74117,9919,714026,0
2,-1,643696,220358,1357926,66224,9154,678519,0
2,3,713750,250387,1300962,75075,9874,649938,0
2,-1,660553,223833,1406193,69121,8308,702773,0
2,3,716677,249818,1445502,74650,9430,722340,0
2,3,708440,248940,1438257,74386,9545,718649,0
2,-1,643328,220112,1559200,66138,9665,779259,0
2,3,714186,248981,1418000,74417,9342,708728,0
2,3,716187,250093,1413595,74923,9052,706329,0
2,-1,637660,219238,1322765,65745,8213,661137,0
2,-1,638958,218810,1241404,65635,6807,620332,0
2,3,711688,249350,1359599,74687,9978,679248,0
2,-1,639538,218709,1240493,65562,7301,619942,0
2,3,717007,250871,1364631,75279,9027,681775,0
2,-1,641596,219395,1263297,65845,7402,631350,0
2,3,711669,249010,1495896,74400,9437,747558,0
2,3,712977,249836,1507936,74591,10813,754253,0
2,-1,646982,220860,1337331,66712,8287,667897,0
2,3,714442,249067,1462160,74399,9694,730773,0
2,3,715211,249586,1345307,74573,8982,672388,0
2,-1,640723,219957,1469919,66141,8325,734608,0
2,3,713998,250089,1494672,74781,9922,746972,0
2,3,716531,249672,1430453,74655,10637,714923,0
2,-1,635605,218540,1343704,65540,7944,671527,0
2,3,713662,248753,1401878,74283,9810,700430,0
2,-1,640426,219963,1250362,66033,7828,624559,0
2,3,713846,250390,1398721,74835,8731,699090,0
2,-1,641419,220179,1355989,66099,8017,677681,0
2,3,712293,249119,1380292,74484,9250,689759,0
2,-1,645414,220966,1457372,66543,8422,727818,0
2,3,715302,250202,1424170,74706,9686,711681,0
2,-1,639259,218840,1337748,65619,8360,668554,0
2,3,713541,249851,1495703,74568,10381,747490,0
2,-1,646612,222822,1335924,67288,8658,667236,0
2,3,713122,249337,1379310,74331,9257,689065,0
2,-1,643485,220508,1342265,66559,8128,670186,0
2,3,721279,251283,1413725,75171,10651,706362,0
2,3,715403,251247,1451966,75234,9695,724888,0
2,-1,640646,218996,1300415,65798,7874,649966,0
2,3,734139,254212,1572771,77776,11079,785962,0
2,-1,642124,219164,1312177,65815,8560,655731,0
2,3,712201,248885,1509420,74236,8959,754434,0
2,3,717751,250711,1420672,75179,9467,709639,0
2,-1,636066,217817,1171694,65370,6954,585433,0
2,-1,642351,219776,1323561,66222,8121,661253,0
2,3,719200,251703,1428967,75535,10272,713304,0
2,3,711065,248420,1463670,74119,8759,731511,0
2,-1,643793,219535,1307197,65931,8487,653273,0
2,-1,635978,218920,1605089,65709,9302,802233,0
2,3,716396,248954,1475996,74287,9924,737684,0
2,3,709187,249372,1306680,74430,9612,653089,0
2,3,709337,248963,1440193,74342,9764,719701,0
2,-1,641550,219650,1386419,65967,8914,692880,0
2,-1,641863,219505,1196854,65913,7450,598125,0
2,3,709074,248582,1469515,74162,9487,734351,0
2,-1,641312,219346,1295335,65825,7847,647364,0
2,-1,638105,218760,1214598,65638,7468,606990,0
2,3,715332,251042,1359584,75291,9151,678902,0
2,-1,646227,221397,1369712,66693,7836,684210,0
2,-1,640537,219386,1384971,65625,8746,692104,0
2,3,714723,249151,1437739,74283,9680,718433,0
2,-1,647809,221793,1349303,66739,8653,674095,0
2,-1,644310,219644,1237737,65788,8422,618478,0
2,3,710030,249808,1482295,74647,8966,740728,0
2,3,715812,249753,1424305,74567,9439,711827,0
2,-1,646832,220493,1299961,66041,7882,649595,0
2,3,715001,248922,1465778,74375,9852,732470,0
2,3,714028,249465,1318142,74587,9227,658661,0
2,-1,647760,221373,1250738,66604,8548,624812,0
2,3,719835,251053,1469077,75367,9251,733723,0
2,3,717579,249242,1461555,74467,9524,730429,0
2,-1,645501,219817,1269346,65763,8936,634261,0
2,3,714025,248996,1460247,74382,9992,729723,0
2,3,742489,258826,1465018,77298,9334,732083,0
2,-1,641340,220978,1370533,66338,8218,684225,0
2,3,713528,249055,1546193,74309,9731,772644,0
2,-1,642777,220477,1246837,66066,7995,623095,0
2,-1,639171,219240,1192959,65672,6980,596124,0
2,3,715757,248708,1408560,74150,9314,704197,0
2,3,714817,250176,1381680,74718,9310,690413,0
2,-1,659806,224736,1176055,69246,8850,587604,0
2,3,713322,248752,1358208,74252,9345,678653,0
2,3,714450,249357,1463569,74406,9309,731635,0
2,-1,662845,224215,1333306,69107,8953,666369,0
2,3,714751,248856,1468244,74250,9507,733863,0
2,-1,643835,220950,1295021,66459,7753,646836,0
2,3,744366,259306,1551274,77531,10283,775031,0
2,-1,648510,221909,1497333,66947,8841,748812,0
2,3,734970,253214,1426312,77382,11319,712632,0
2,-1,638911,219497,1294469,65820,7942,646878,0
2,3,716054,249183,1386034,74354,9235,692685,0
2,3,717410,248716,1452843,74127,10516,726053,0
2,-1,639488,219506,1334016,65873,7665,666248,0
2,3,713461,248257,1357393,74160,9366,678159,0
2,-1,644599,221323,1272952,66716,8429,635048,0
2,-1,644973,220969,1298487,66522,7998,648714,0
2,-1,639347,218971,1339560,65695,7667,669355,0
2,3,716668,248806,1336622,74445,8803,667878,0
2,-1,643044,219229,1400371,65733,8799,699786,0
2,3,713778,248166,1403872,74286,9920,701292,0
2,-1,660150,224365,1285203,69246,8883,642017,0
2,-1,639703,219100,1379385,65733,8235,689207,0
2,3,715213,248315,1473937,74354,10161,737119,0
2,-1,640849,219879,1281493,66190,7769,640072,0
2,-1,646420,220627,1293045,66498,8681,645862,0
2,3,704869,247627,1586506,74059,9948,792415,0
2,-1,639249,219105,1341639,65719,8057,670353,0
2,3,705171,247486,1367717,74025,9437,683447,0
2,-1,642488,219575,1242528,65871,8199,620726,0
2,3,710848,249000,1510042,74549,9472,754696,0
2,-1,641952,219408,1309750,65828,8644,654269,0
2,3,729590,253849,1510162,77908,10048,754693,0
2,3,708028,248258,1436992,74312,8952,718147,0
2,-1,641690,219096,1261170,65772,8177,630255,0
2,3,708847,248431,1351183,74384,8751,675159,0
2,3,708335,247742,1457167,74125,9510,728232,0
2,-1,641450,219148,1270836,65759,8290,634935,0
2,3,727748,252160,1454770,77404,10291,727182,0
2,-1,640901,218490,1350824,65569,8854,674889,0
2,-1,641418,218637,1209372,65548,8203,603988,0
2,3,706082,247745,1327798,74110,7852,663391,0
2,-1,643109,218914,1407400,65625,8473,703099,0
2,-1,643820,221485,1283567,66741,8082,641076,0
2,3,714290,249907,1485919,75040,8758,742319,0
2,-1,638999,219352,1302309,65825,7729,650667,0
2,3,712857,249685,1503413,74821,9181,751056,0
3,3,759356,266178,1580221,78621,10281,789905,0
3,3,760413,266130,1375719,78594,8841,687451,0
3,-1,694862,239155,1361363,71569,8485,680015,0
3,-1,698868,240147,1418160,71969,8651,708119,0
3,3,769885,269950,1410531,80198,10012,704504,0
3,3,765704,266476,1390055,78696,9467,694675,0
3,-1,714451,242211,1423186,74129,8626,711101,0
3,-1,694734,237851,1353534,70979,8516,676327,0
3,3,707808,248626,1364004,73735,8445,681551,0
3,-1,693355,237086,1375823,70628,8370,687570,0
3,-1,693910,237383,1364002,70817,8311,681537,0
3,-1,687673,236997,1336944,70647,6949,668087,0
3,-1,690433,237154,1251187,70734,7173,625164,0
3,3,729517,252749,1449390,76987,9635,724182,0
3,3,710703,248681,1543567,73874,9727,771348,0
3,-1,637618,219579,1236963,66024,6366,618043,0
3,-1,641592,220424,1299949,66470,7243,649229,0
3,3,711495,248606,1424028,73865,10129,711618,0
3,-1,640871,219385,1195202,65857,7125,597125,0
3,3,703747,248059,1440322,73737,9096,719814,0
3,-1,638328,218690,1297040,65647,7167,648138,0
3,-1,641797,219844,1332452,66352,7475,665675,0
3,3,706155,248875,1343691,73990,9007,671543,0
3,3,711557,250132,1364226,74585,9244,681375,0
3,-1,641092,218854,1325749,65709,8265,662483,0
3,3,704050,248112,1452831,73759,8850,725998,0
3,-1,637989,218834,1185442,65673,6839,592334,0
3,3,707364,247856,1415739,73677,8837,707517,0
3,-1,636706,218405,1138095,65580,6883,568633,0
3,3,708420,247589,1280265,73587,8822,639889,0
3,3,705897,247288,1331298,73438,8381,665301,0
3,3,708383,248458,1717713,73895,10810,858185,0
3,-1,637781,218615,1286134,65561,7474,642715,0
3,3,706865,247918,1450346,73640,9091,724846,0
3,-1,645076,220789,1289188,66469,8146,644086,0
3,3,708570,247902,1498160,73764,9362,748780,0
3,-1,640273,217874,1160285,65354,7735,579771,0
3,3,707442,247373,1390593,73482,9246,694939,0
3,3,710346,249489,1438003,74418,8648,718510,0
3,-1,636483,218936,1245763,65744,7359,622525,0
3,3,712460,248846,1336239,74026,8221,667746,0
3,-1,634510,218949,1269729,65841,7083,634474,2
3,3,733164,253351,1422803,77169,9773,710821,0
3,-1,638323,219756,1372534,66279,7831,685845,0
3,-1,636919,219053,1254387,65798,7225,626812,0
3,3,706333,248644,1345612,73900,9366,672426,0
3,3,734627,257870,1444544,76483,8882,721912,0
3,-1,640904,220809,1301429,66727,7326,650055,2
3,3,713062,249187,1457828,73929,8923,728657,0
3,-1,635820,218870,1246637,65732,7142,622993,0
3,-1,658557,223159,1298998,68943,8779,648863,0
3,3,712371,249233,1537922,74087,10009,768538,0
3,3,730875,253245,1428239,77204,9772,713657,0
3,-1,635241,218770,1421352,65791,8327,709867,0
3,3,707706,248010,1491128,73623,8947,745115,0
3,3,711230,248679,1431628,73910,9057,715468,0
3,-1,638653,219449,1228537,65986,7192,613863,0
3,3,716205,250054,1361149,74665,9282,679756,0
3,-1,642237,221308,1492105,66859,8058,745372,0
3,-1,636782,219075,1310651,65885,7529,654944,2
3,-1,663262,224411,1285130,69398,8431,642189,0
3,3,711010,248549,1393076,74059,9101,696007,0
3,3,713129,249610,1474039,74388,9384,736342,0
3,-1,637914,218254,1213305,65567,7780,606330,0
3,-1,635717,218737,1141683,65736,7215,570454,2
3,3,713373,249734,1411782,74616,9673,705228,0
3,-1,637113,218553,1225414,65719,7064,612330,0
3,3,733308,252699,1649071,77212,9952,823946,0
3,-1,640379,219107,1239096,65905,7580,619140,2
3,3,711858,248633,1547244,74002,9858,773220,0
3,-1,645217,220471,1316658,66520,7705,657804,0
3,-1,635128,218490,1261131,65684,7198,630174,0
3,3,716282,249591,1413271,74372,9404,706227,0
3,-1,637903,220254,1353854,66532,7795,676226,2
3,-1,659682,223404,1317441,69054,8251,658400,0
3,3,704855,249647,1477274,74599,9094,737964,0
3,3,725550,253132,1345783,77327,10103,672336,0
3,-1,639311,218961,1246081,65900,7400,622789,0
3,-1,643154,220444,1311631,66589,7672,655230,0
3,-1,638542,218984,1282120,65873,8336,640741,2
3,-1,640652,218206,1316497,65639,8166,657949,0
3,3,702869,248217,1439641,73836,8619,719034,0
3,-1,639731,219269,1223774,65831,6491,611569,0
3,-1,642263,220180,1326042,66262,6847,662586,2
3,3,706607,248246,1433113,73886,9477,716278,0
3,3,710519,249872,1499650,74665,9850,749179,0
3,-1,643515,220047,1195140,66223,6824,597205,0
3,3,704830,248321,1410862,73983,8701,705045,0
3,-1,639625,219892,1230680,66079,7510,614966,2
3,-1,639948,218950,1246633,65739,7448,622971,0
3,3,727497,253053,1476665,77288,10123,737904,0
3,-1,640628,219106,1204145,65783,7032,601784,0
3,-1,646349,221534,1308718,66905,7437,653815,2
3,-1,640927,218855,1231397,65790,7950,615360,0
3,3,711469,250339,1557684,74874,9275,778187,0
3,3,708528,248877,1390003,74059,9566,694539,0
3,-1,644409,219257,1240694,65800,7503,620004,0
3,-1,646301,221794,1408847,66857,10251,703941,0
3,3,708740,249373,1469632,74240,9010,733157,0
3,-1,641679,220109,1576004,66069,9234,787187,0
3,3,708883,248695,1492554,74002,9159,745687,0
3,-1,639324,219424,1550507,65791,9079,774642,0
3,-1,642355,219835,1193094,65957,7548,596209,0
3,-1,644139,220873,1503173,66655,9089,750872,0
3,3,706388,248206,1529880,73798,9538,764548,0
3,-1,641382,219091,1233614,65768,8508,616468,0
3,3,711900,250267,1455902,74727,9344,727365,0
3,-1,637684,219321,1322912,65881,7242,661071,2
3,-1,642248,220567,1394841,66480,7668,696756,0
3,3,708791,248196,1442661,73733,8891,721029,0
3,3,706958,249028,1459477,74038,8965,729300,0
3,-1,640437,219187,1282972,65862,7828,641095,0
3,-1,638061,218876,1356239,65710,7658,677601,0
3,3,707532,249314,1368426,74196,8988,683305,0
3,-1,642529,219994,1186297,66249,7196,592624,2
3,3,710228,248524,1356903,73917,8697,678086,0
3,-1,642299,219237,1320047,65884,7702,659696,0
3,3,705244,248341,1400912,73814,9262,700128,0
3,-1,641389,219311,1206016,66041,7687,602508,0
3,3,709310,249706,1478937,74492,8855,738941,0
3,-1,639210,219314,1202754,66086,7738,600895,0
3,3,707052,248287,1736288,73850,10465,867917,0
3,3,712476,249440,1436824,74217,8767,718056,0
3,-1,640986,219499,1400213,66110,8337,699699,0
3,-1,639764,219372,1370181,66106,7613,684535,2
3,-1,642502,219253,1319442,65978,7006,658891,0
3,3,714000,250271,1431294,74720,9009,715096,0
3,-1,639491,219354,1220050,66110,7592,609636,2
3,-1,640838,218926,1231553,65952,8436,615357,0
3,3,713197,249150,1449527,74081,8888,724396,0
3,-1,646668,220872,1308390,66737,7847,653538,0
3,3,718394,250808,1371046,74967,10219,684678,0
3,-1,646952,221120,1375734,66923,7179,687158,2
3,3,707788,249543,1420592,74199,9119,709940,0
3,-1,639071,219114,1193192,66015,8169,596264,0
3,-1,640820,219138,1387086,66010,8525,693104,0
3,3,705825,248853,1357777,74080,8549,678180,0
3,3,729850,253551,1324718,77339,9471,661934,0
3,-1,638818,218579,1337685,65761,8291,668324,0
3,3,713259,251001,1496913,75004,9638,747987,0
3,-1,641621,218993,1341089,65919,7985,670180,0
3,3,704965,247771,1622415,73608,10224,810839,0
3,-1,643956,219722,1217153,66140,8071,608067,0
3,3,717177,251239,1586083,75035,9797,791531,0
3,-1,642125,219558,1304435,66147,8780,651686,2
3,-1,663577,223334,1263477,69156,8694,631217,0
3,3,714118,250464,1352446,74754,9873,675729,0
3,3,708682,248971,1401404,74093,8950,700294,0
3,-1,643506,218496,1324899,65760,8158,662104,0
3,-1,639696,221120,1364859,66899,7981,681748,0
3,3,733645,258305,1442668,76886,9254,720986,0
3,-1,633718,219059,1204797,66010,7564,602117,2
3,-1,635692,219792,1221718,66231,8691,610194,0
3,3,707458,248527,1422069,73946,8270,710638,0
3,3,714831,250411,1478513,74757,9469,738482,0
3,-1,638629,219901,1303160,66183,8017,651236,0
3,3,710623,249277,1437308,74143,9360,718240,0
3,-1,637966,221375,1370647,67068,8689,684716,2
3,3,711686,248930,1467743,74020,9715,733530,0
3,-1,634228,218771,1261739,65889,7766,630383,0
3,-1,658696,224108,1308368,69418,8715,653737,0
3,3,709394,249265,1365988,74198,9650,682612,0
3,-1,635590,219148,1311760,66025,7634,655214,2
3,3,733229,254343,1469306,77491,9989,734140,0
3,-1,640375,219873,1316371,66223,7787,657797,0
3,-1,640672,220448,1359604,66631,8454,679259,0
3,3,709244,249293,1396281,74026,9041,697797,0
3,3,711439,249719,1417319,74187,9026,708243,0
3,-1,635967,219940,1292649,66290,8570,645720,2
3,-1,635618,219047,1350219,65969,7898,673938,0
3,3,709754,248589,1530864,73710,9369,765025,0
3,-1,640767,220940,1348397,66743,8612,673578,0
3,-1,636816,218983,1320594,65960,7760,660095,2
3,3,707471,248499,1391028,73911,9072,694781,0
3,-1,634970,218759,1231950,65767,7681,615646,0
3,3,734895,254173,1431906,77437,10021,715608,0
3,-1,638475,219365,1210502,66015,7141,604862,0
3,-1,639589,219416,1212605,66065,7346,605632,0
3,3,714693,249684,1495249,74292,9496,747266,0
3,-1,639678,221397,1358248,67010,8218,678645,2
3,-1,634613,219101,1328754,65960,7724,663834,0
3,3,714035,250379,1355175,74580,8297,677071,0
3,-1,637302,219765,1260732,66135,6840,630045,0
3,3,719754,251529,1543836,75082,10668,771326,0
3,3,719364,250068,1442795,74163,8835,720901,0
3,3,718478,250531,1385737,74326,9695,692579,0
3,-1,635356,219049,1205995,65984,7365,602483,2
3,3,718620,249743,1372345,74133,8988,685886,0
3,-1,638463,219860,1370913,66209,8306,685117,0
3,3,715741,252897,1408079,75490,10625,703502,0
3,-1,638604,219790,1368466,66131,8080,683791,2
3,-1,637595,218689,1315217,65774,7627,657127,0
3,3,711298,249138,1534759,73823,11006,767072,0
3,-1,638535,219105,1273770,65834,7749,636433,0
3,3,711447,249624,1579748,74096,10156,789416,0
3,3,713606,250305,1405961,74299,10458,702543,0
3,-1,633966,218604,1209287,65616,7137,604252,0
3,-1,641263,220935,1387665,66700,7954,693175,0
3,3,710121,249521,1451379,74147,9308,725408,0
3,-1,637108,219641,1400373,66013,8117,699828,0
3,-1,636676,219186,1193345,65874,6767,596151,2
3,-1,638346,218529,1273373,65623,7087,636321,0
3,3,735918,254182,1437479,77325,10807,718377,0
3,3,712481,250275,1495592,74355,9549,747404,0
3,3,712315,249841,1595487,74414,10829,796976,0
3,-1,661157,223716,1329224,69189,8082,664225,0
3,-1,642939,221481,1370679,66962,8362,684578,2
3,3,735005,257927,1447787,76610,9996,723555,0
3,-1,639642,219149,1147343,65844,7239,573151,0
3,3,710303,248558,1460156,73759,9243,729797,0
3,-1,644777,220405,1531371,66501,9578,764985,0
3,3,710516,248684,1585700,73859,9949,792402,0
3,-1,636079,219473,1176730,66041,7157,587957,0
3,3,711776,249509,1482404,74154,11435,740281,0
3,-1,634273,219425,1314568,66003,7964,656587,2
3,-1,638113,219804,1219130,66123,7599,609089,0
3,-1,669692,230911,1328431,69827,7718,663496,0
3,3,716005,249494,1362099,74207,9577,680811,0
3,3,705889,248165,1665463,73744,11221,832461,0
3,-1,635632,219367,1201216,65972,7136,600099,0
3,-1,638470,220472,1276704,66354,7333,637717,2
3,3,729396,252838,1333710,76962,9481,666321,0
3,-1,641210,220130,1345096,66242,7920,672205,0
3,-1,638551,219716,1263325,66148,7591,631230,2
3,3,711554,249467,1479091,74118,9486,738967,0
3,-1,634876,219086,1331829,65830,7435,665532,0
3,3,710136,248608,1588800,73920,10403,794107,0
3,-1,642858,221568,1293259,66990,8026,645996,2
3,-1,641212,219856,1367080,66073,7740,683076,0
3,-1,639969,219654,1247112,66064,7968,622888,0
3,3,708684,247867,1529362,73670,9070,764364,0
3,3,738315,254202,1429464,77468,10043,714239,0
3,-1,638045,219610,1300298,65989,7662,650218,0
3,-1,643626,220818,1297745,66587,8013,647921,0
3,3,731844,253459,1542448,77249,10512,770796,0
3,-1,641754,220327,1364168,66308,7862,681606,2
3,-1,644119,220190,1263951,66250,7770,631636,0
3,3,713661,249001,1554642,73869,9760,776844,0
3,-1,638826,219854,1194670,66160,6963,596839,0
3,3,715623,250751,1644530,74555,10187,821575,0
3,-1,637977,219243,1319293,65959,7150,659294,0
3,-1,639669,219679,1377774,66059,6906,688553,0
3,-1,639482,219544,1299625,66028,7151,649435,0
3,3,713022,248371,1450941,73503,10567,725179,0
3,3,715237,248996,1507382,73739,10619,753482,0
3,3,708590,248943,1676411,73689,9721,837173,0
3,-1,641561,219725,1470267,66123,9164,734576,0
3,3,707663,248545,1330886,73660,8878,665137,0
3,-1,646127,221183,1219404,66844,7184,609126,0
3,3,709321,248542,1463511,73667,9047,731515,0
3,-1,638126,219615,1134196,66070,7224,566615,2
3,-1,643729,220723,1347545,66417,8528,673347,0
3,3,709949,248493,1622831,73712,9994,810881,0
3,-1,639069,219304,1291186,65840,7629,645260,0
3,-1,641354,220154,1316525,66247,7664,657775,2
3,3,708166,247852,1529986,73446,9059,764610,0
3,-1,640636,219320,1317768,65856,7597,658522,0
3,3,716460,250359,1527279,74571,9811,762925,0
3,3,715302,250114,1487955,74571,10041,743185,0
3,3,712094,250108,1571680,74566,9679,785393,0
3,-1,643481,221159,1314270,66749,7552,656541,0
3,3,709753,248219,1511927,73656,9375,755572,0
3,3,717196,250922,1423293,74813,9633,711049,0
3,-1,643975,221017,1321949,66688,7617,660420,0
3,3,712776,248846,1424262,73902,9270,711684,0
3,-1,642882,219613,1324718,66028,7742,661995,0
3,3,708810,248197,1419177,73685,9308,709104,0
3,-1,646080,219527,1217731,65988,7670,608505,0
3,3,711425,248547,1498438,73771,9392,747874,0
3,-1,633125,219542,1121639,66055,6199,560310,2
3,3,711832,248544,1292856,73739,9529,645668,0
3,-1,638463,220011,1204048,66177,7086,601499,0
3,-1,641689,221778,1385466,67047,7754,691940,2
3,-1,637076,219494,1222782,65952,6608,611075,0
3,3,710757,249487,1354965,74291,9176,676939,0
3,3,709534,248497,1312879,73701,8628,656016,0
3,3,732707,253138,1414358,77081,10828,706330,0
3,-1,638766,219889,1223738,66088,6989,611448,0
3,3,712509,248738,1466949,73752,9164,733123,0
3,-1,657754,223591,1256405,69040,7628,627878,0
3,-1,641337,220057,1227125,66150,7731,613069,0
3,3,711171,248452,1461322,73739,9615,730321,0
3,3,712355,248137,1363363,73656,10178,681135,0
3,-1,638954,219612,1277851,66041,6918,638442,0
3,3,718399,250565,1482705,74610,10446,740716,0
3,3,711827,248446,1509491,73769,9892,754303,0
3,3,708406,248406,1454194,73730,10049,726789,0
3,-1,638890,220480,1326017,66327,7609,662658,2
3,-1,643604,221537,1314223,67032,7457,656619,0
3,-1,641430,219870,1201966,66102,7160,600655,0
3,3,714098,248910,1446751,73910,9313,722409,0
3,-1,641339,219676,1355775,66095,7601,677550,0
3,-1,640828,219097,1350525,65835,7916,675030,0
3,3,713054,248122,1478055,73641,10552,738660,0
3,-1,636755,218953,1196490,65805,7160,598064,0
3,-1,659618,224362,1246675,69406,8410,622917,0
3,3,714309,249568,1359204,74164,8457,679008,0
3,-1,639105,219325,1188266,65974,7468,593795,0
3,3,717532,250580,1504237,74625,9638,751247,0
3,-1,646035,221429,1290357,66851,7758,644364,0
3,-1,640241,219937,1345338,66158,9180,671851,0
3,3,737150,253116,1607076,76988,9934,803201,0
3,3,704443,248399,1511392,73241,8541,755372,0
3,-1,640370,219991,1450622,66176,8272,725081,2
3,-1,662516,224231,1335156,69354,8831,667218,0
3,3,707285,249171,1537493,73479,8618,768023,0
3,-1,640743,219142,1235934,65946,7501,617502,0
3,3,704557,247927,1510930,73078,9623,754982,0
3,3,701786,248656,1448501,73333,9442,723861,0
3,3,708473,250171,1444780,74082,9505,721436,0
3,-1,638715,220016,1326310,66188,7697,662683,0
3,-1,642562,220751,1306833,66612,8451,652423,0
3,3,706955,248118,1392806,73115,8728,696085,0
3,3,705456,248140,1396506,73115,9426,697797,0
3,3,708037,247901,1450150,73042,9847,724768,0
3,-1,662026,223867,1357331,69140,8428,678561,0
3,-1,646039,221414,1436203,66924,9734,717518,2
3,-1,639605,219614,1230015,66062,7220,614482,0
3,3,705936,248496,1474483,73280,9837,736776,0
3,-1,644782,221226,1397451,66842,8092,698174,0
3,3,704061,247626,1592606,73097,9345,795466,0
3,-1,640794,219899,1229563,66054,6951,614447,2
3,-1,647821,221694,1439302,66835,8221,718253,0
3,3,707759,248127,1504179,74048,10123,751724,0
3,-1,642967,219378,1398235,65890,7737,698760,0
3,-1,638961,220498,1228806,66321,7325,613900,2
3,3,710066,248687,1510755,74311,10915,754940,0
3,-1,638441,219627,1234558,65993,7563,616890,0
3,3,708758,247684,1454554,73879,10096,726799,0
3,3,710873,249250,1292397,74724,9833,645722,0
3,-1,641679,220900,1360593,66621,6953,679670,0
3,3,704952,248262,1466560,74136,9786,732810,0
3,3,705957,248021,1511339,74033,9767,755227,0
3,3,731259,253074,1656688,77541,11204,827962,0
3,-1,640371,219561,1251768,65965,7805,625519,0
3,-1,638052,219357,1194254,65777,6730,596905,0
3,3,707798,247703,1561577,73944,9772,780419,0
3,-1,640855,219432,1274644,65854,7486,636930,0
3,-1,642317,220633,1215002,66294,6762,607062,2
3,3,707746,248375,1521076,74225,9858,760178,0
3,-1,661159,224151,1259834,69192,7911,629518,0
3,-1,642877,219861,1251172,65975,7001,625268,0
3,-1,643364,222229,1214940,67077,8170,606752,2
3,3,711231,248110,1425152,74119,9452,712101,0
3,-1,642201,220486,1314615,66401,7260,656673,0
3,-1,645076,221412,1391557,66842,7944,695057,0
3,3,712095,249573,1349220,74878,9506,673895,0
3,-1,638773,219241,1228523,65697,6912,614471,0
3,3,706265,247563,1514194,73854,10288,756817,0
3,-1,642692,219484,1319341,65819,8014,659144,0
3,3,745887,259585,1594689,77874,10452,796661,0
3,-1,641032,219155,1311874,65769,8227,655610,0
3,3,710338,248749,1352519,74350,9951,675751,0
3,3,713415,249057,1443621,74451,9368,720962,0
3,-1,644745,220748,1367499,66501,8058,683661,0
3,3,717355,250771,1385700,75263,9807,691887,0
3,3,708749,247672,1481335,73910,9576,740291,0
3,3,713959,249260,1358444,74534,9946,678716,0
3,3,705368,247917,1462668,74047,10045,730847,0
3,-1,639142,219964,1197452,66050,7873,598250,0
3,3,708862,247486,1450802,73887,9755,725035,0
3,3,708650,248293,1298470,74136,9223,649011,0
3,-1,643268,220271,1249405,66289,7514,624184,0
3,3,709447,248273,1470860,74139,9776,734989,0
3,-1,639463,219887,1267597,66151,7221,633294,2
3,-1,642434,219731,1318090,65997,7446,658656,0
3,3,728562,252379,1518667,77310,10672,758998,0
3,-1,675099,231926,1299305,70027,8242,648855,2
3,-1,646735,220621,1201108,66463,7256,600069,0
3,3,710488,248902,1326073,74350,8998,662704,0
3,-1,643882,220103,1309019,66135,8041,654148,0
3,3,713772,248795,1356919,74413,9019,678112,0
3,-1,644181,220255,1252105,66293,7488,625720,0
3,3,707951,248522,1461178,74256,9759,730201,0
3,-1,642928,219790,1225087,66107,7114,612198,0
3,3,713483,250184,1628644,75140,11384,813522,0
3,-1,642613,219799,1253796,66104,7067,626424,2
3,-1,645749,220889,1470165,66320,8075,734691,0
3,3,708809,247529,1360446,73907,8939,679858,0
3,3,713063,248352,1801822,74230,11541,900535,0
3,3,709959,248442,1373924,74186,9330,686610,0
3,-1,644044,220143,1410372,65905,8245,704827,0
3,3,712613,249235,1395189,74622,8959,696937,0
3,3,737934,254342,1557901,78467,10805,778541,0
3,-1,649577,221992,1318742,66808,8222,658779,0
3,-1,643328,219936,1301316,65911,8096,650083,0
3,3,717707,249981,1391080,75012,9268,694918,0
3,3,707513,248426,1473655,74097,9997,736320,0
3,-1,646177,220653,1219756,66133,8018,609512,2
3,-1,652556,222275,1309297,66990,8238,654031,0
3,-1,639489,219997,1220100,65943,7862,609753,0
3,3,710164,248758,1603726,74344,9483,801492,0
3,3,711958,249510,1340563,74765,10089,669407,0
3,-1,643607,221611,1301227,66438,8659,650234,0
3,-1,645564,222007,1366723,66793,8217,682902,0
3,3,710213,247999,1417989,73996,8360,708276,0
3,-1,641766,219707,1217179,65807,7780,608090,0
3,-1,643794,219956,1391619,65889,9708,695381,0
3,3,712054,248348,1380146,74116,9747,689545,0
3,-1,647456,222378,1310240,67091,8229,654533,0
3,3,716556,250428,1614270,75062,10517,806319,0
3,-1,645791,221702,1303343,66881,7818,651096,0
3,-1,643085,221018,1225366,66414,7205,612518,2
3,-1,644411,220441,1605062,66235,9609,802111,0
3,3,729123,252259,1552511,77130,10598,776153,0
3,-1,640906,220044,1207639,66141,7250,603484,0
3,3,713631,249714,1487583,74857,9881,743170,0
3,-1,647605,221949,1372004,67012,8292,685403,2
3,-1,643467,219723,1245869,65975,7907,622296,0
3,3,709556,247814,1269341,73900,8812,634336,0
3,-1,648564,221556,1271897,66502,8780,635570,0
3,3,713946,248712,1579781,74202,9501,789481,0
3,3,713414,248180,1490742,74177,9686,744190,0
3,3,712499,248941,1375064,74278,9300,687075,0
3,-1,661759,224911,1342973,69392,8450,671194,0
3,-1,641048,220154,1176889,66087,7678,588085,0
3,-1,660189,224478,1313057,69248,8410,656188,0
3,3,704739,248060,1435716,73978,9579,717354,0
3,3,729584,253058,1537276,77590,11606,768196,0
3,-1,638956,219514,1196062,65979,7988,597556,2
3,-1,639504,218912,1223953,65717,7829,611595,0
3,3,708670,249063,1354655,74483,9386,676874,0
3,-1,643050,219796,1218727,65976,8041,609091,0
3,3,712718,248722,1524673,74301,9786,761876,0
3,-1,639203,219095,1309045,65827,7415,654126,0
3,3,714102,249921,1459751,74692,9340,729477,0
3,3,712061,249013,1456301,74371,11010,727807,0
3,-1,643702,220228,1240507,66169,7257,619910,2
3,3,714894,250379,1411820,75159,9002,705295,0
3,-1,645222,219733,1348537,65961,8023,673935,0
3,-1,640867,219429,1409359,65876,7965,704324,0
3,3,711851,249727,1365987,74775,9119,682544,0
3,-1,638609,218681,1410032,65580,7472,704691,0
3,3,711521,248660,1365233,74355,9187,682285,0
3,-1,635693,218059,1204361,65426,8225,601900,0
3,-1,640485,219579,1339520,65966,7988,669330,2
3,3,715213,250273,1435472,74722,9789,717402,0
3,3,714519,248767,1354633,74332,9539,676871,0
3,-1,641784,219753,1765426,66094,9824,882314,0
3,-1,640661,219088,1191670,65887,7357,595488,2
3,3,714467,249549,1468877,74593,9467,734060,0
3,3,714798,249710,1436644,74658,9232,717845,0
3,-1,644349,219330,1378911,65959,8534,689090,0
3,3,711905,249207,1482886,74465,9940,740939,0
3,3,716161,250368,1390272,74905,9694,694730,0
3,-1,639958,220083,1312566,66190,7718,655865,2
3,-1,645848,221440,1501536,66896,8558,750111,0
3,3,719217,250997,1331916,75345,10025,665310,0
3,-1,642504,220636,1257281,66458,7981,628151,0
3,-1,637281,219630,1424752,65956,8005,712060,2
3,-1,641345,220675,1381632,66472,8151,690322,0
3,3,709602,248839,1475441,74336,9913,737350,0
3,3,711225,249330,1497593,74549,8929,748300,0
3,-1,638782,219082,1333436,65728,7675,666060,0
3,3,712637,249596,1499501,74627,10171,749337,0
3,-1,639399,218601,1346905,65557,8371,673089,0
3,3,711399,250148,1362441,74712,9462,680626,0
3,-1,642605,219238,1470165,65799,8507,734624,0
3,3,713842,249478,1437970,74326,9255,718369,0
3,-1,639414,219589,1332836,65866,8077,666144,0
3,3,713931,249715,1517239,74427,9566,758283,0
3,3,715881,249312,1448204,74225,10448,723653,0
3,-1,639372,218731,1227501,65674,7207,613292,0
3,3,713418,249559,1417759,74482,9790,708436,0
3,-1,639679,218364,1353550,65554,8492,676424,0
3,3,715180,249337,1481891,74296,9414,740070,0
3,3,713354,248691,1491876,74185,9747,745546,0
3,-1,638056,219000,1299641,65792,7680,649475,0
3,-1,642965,219747,1332068,66062,7416,665702,0
3,3,711957,248910,1396597,74328,8859,697940,0
3,3,717553,249633,1449833,74546,9321,724597,0
3,-1,638980,219060,1268068,65857,8145,633707,2
3,-1,662330,223998,1336129,69240,8245,667757,0
3,-1,649756,221621,1306814,66932,8081,652626,0
3,3,717324,249983,1487368,74792,9649,742998,0
3,3,720903,250462,1409097,75073,8942,704119,0
3,-1,638196,219546,1130465,65891,6868,564849,2
3,3,710945,249036,1475601,74341,10170,737647,0
3,-1,643039,220757,1208421,66496,7547,603747,0
3,-1,639070,218504,1293217,65494,8098,646250,0
3,3,715107,251013,1486505,75266,9987,742755,0
3,-1,663404,223711,1445033,69120,8838,722248,0
3,-1,644709,221280,1309685,66780,8013,654196,2
3,3,719245,251254,1320355,75327,9669,659535,0
3,-1,641713,219616,1392214,65946,8400,695799,0
3,-1,646466,220171,1372923,66044,9204,685987,0
3,-1,664311,223770,1304163,69009,8730,651626,0
3,3,715711,250019,1355500,74837,9096,677197,0
3,-1,662403,223838,1303699,68924,9419,651496,0
3,-1,643720,219432,1391673,65586,8422,695605,0
3,3,717202,249606,1459135,74505,9612,729313,0
3,-1,644414,219756,1296501,65844,8270,647920,0
3,3,714939,250015,1489787,74609,8967,744587,0
3,3,714054,249329,1432268,74540,9154,715497,0
3,3,712448,249080,1315860,74422,9160,657513,0
3,-1,641244,219441,1348189,65720,8466,673657,0
3,3,712536,248753,1470189,74329,9276,734535,0
3,3,717898,250432,1446326,75011,9375,722559,0
3,-1,644083,220412,1143739,66022,7282,571418,2
3,-1,643280,219334,1229446,65580,8034,614448,0
3,3,735045,253724,1573056,77754,10894,786218,0
3,3,719187,250944,1409452,75313,9719,704066,0
3,-1,644495,219076,1379215,65501,8612,689285,0
3,-1,651414,221952,1329982,66853,8412,663539,2
3,3,715917,249022,1377570,74258,9291,687959,0
3,-1,640013,219729,1197405,65832,7591,598350,0
3,-1,638458,220075,1368734,65970,7818,683886,2
3,3,718229,250431,1437227,74762,8749,718451,0
3,-1,640332,219310,1304439,65642,7654,651907,0
3,3,718037,251653,1648023,75524,11882,822820,0
3,-1,642663,220030,1465687,65920,8746,732527,0
3,3,711890,248496,1439338,74086,9813,719242,0
3,-1,638017,219441,1168821,65781,7465,583826,2
3,3,734528,253909,1559907,77662,11039,779570,0
3,-1,641802,220007,1394710,65946,8520,696982,0
3,3,718703,250461,1359978,74976,9597,679233,0
3,-1,637683,218681,1294667,65533,8309,647175,0
3,3,712396,248798,1520292,74217,10559,759619,0
3,-1,660280,223349,1289885,68878,9519,644578,0
3,3,713279,248901,1342407,74240,10052,670602,0
3,-1,641446,218671,1488137,65521,9330,743729,0
3,3,712584,248851,1414570,74198,9691,706905,0
3,3,714401,248443,1509567,74041,10733,754437,0
3,-1,636231,218669,1349177,65468,7776,674241,0
3,-1,637849,218923,1290226,65703,7499,644625,2
3,-1,660034,223736,1201419,69035,8175,600131,0
3,3,710161,248148,1306535,74053,8724,652826,0
3,-1,638614,218892,1225752,65621,7634,612456,0
3,-1,641972,219678,1285620,66151,7536,642224,0
3,3,716922,249404,1611740,74839,10769,805325,0
3,-1,637576,218462,1325405,65480,8366,662431,0
3,3,712423,248539,1300646,74413,8840,649955,0
3,-1,635928,218980,1261645,65671,7760,630283,0
3,-1,637704,219402,1251133,65855,7544,625211,2
3,-1,641124,219809,1263477,65968,7527,631427,0
3,3,712526,247493,1536261,74021,9986,767692,0
3,-1,641950,219592,1301793,65901,7633,650605,0
3,-1,662938,223870,1259690,69071,8673,629558,0
3,3,705879,248412,1343239,74348,8353,671343,0
3,-1,643824,220552,1378235,66392,8396,688287,0
3,3,704953,247977,1388742,74282,9072,693755,0
3,-1,641984,218663,1314057,65546,8499,656692,0
3,-1,635892,218083,1385702,65432,7979,692376,0
3,3,706281,247708,1431362,74094,8880,715198,0
3,-1,644514,221612,1258083,66846,7540,628242,2
3,3,706173,248206,1338358,74314,8743,668763,0
3,3,707853,248322,1478771,74274,8871,738931,0
3,3,706114,248498,1400394,74415,8501,699809,0
3,-1,640811,219061,1391936,65695,8356,695600,0
3,3,707705,248042,1406097,74250,8393,702765,0
3,-1,643662,218969,1346635,65663,8929,672901,0
3,3,705066,247543,1354958,74060,9104,676750,0
3,-1,641837,219267,1371873,65781,9040,685535,0
3,-1,641525,219003,1371568,65696,9216,685394,0
3,3,710805,249011,1447013,74563,9079,723166,0
3,-1,649850,221697,1281662,66905,8972,640110,0
3,-1,657667,223594,1302324,69006,8654,650771,0
3,3,707674,248446,1475886,74288,9536,737074,0
3,-1,638982,219416,1252987,65844,8220,626062,0
3,3,731372,253529,1481306,77693,9509,740359,0
