0,-1,693196,237696,1361011,70897,8135,680033,0
0,-1,687998,237125,1326324,70739,7441,662724,2
0,-1,637926,219250,1294690,66030,8543,646744,0
0,-1,639588,219527,1207552,66036,6685,603304,0
0,-1,637569,217989,1288954,65349,7937,643997,0
0,-1,641786,220629,1324091,65927,7507,661073,0
0,-1,643303,219256,1203390,66181,7016,601283,0
0,-1,642315,219671,1338040,66275,8657,668564,0
0,-1,639209,218589,1181245,66189,7287,590110,0
1,-1,695882,239538,1353409,71783,7227,675979,2
1,-1,639440,220520,1315134,66637,8175,656672,0
1,-1,639473,219492,1246725,65980,6596,622863,0
1,-1,645234,221338,1275755,66792,8112,636888,0
1,-1,635977,218981,1377845,65228,7285,688214,0
1,-1,641674,218234,1193180,65863,7077,596179,0
1,-1,646517,220971,1267273,66918,7808,632875,0
1,-1,637612,218338,1289178,66059,7543,644075,0
2,-1,693061,237604,1262471,70870,7412,630720,2
2,-1,634652,219023,1218852,65869,7803,608844,0
2,-1,644953,221559,1281478,67043,7416,639861,0
2,-1,640106,219666,1307292,66008,7561,653133,0
2,-1,634084,218533,1184729,65017,7200,591649,0
2,-1,643958,219401,1306682,66289,7648,652827,0
2,-1,664973,224653,1396094,69683,8691,697414,0
2,-1,643018,219849,1277553,66772,7837,638049,0
3,-1,689074,236928,1219251,70625,6824,609073,2
3,-1,635018,218802,1283668,65840,7701,641309,0
3,-1,660768,223348,1253060,69028,7650,626057,0
3,-1,637952,218871,1246537,65686,7252,622796,0
3,-1,635932,219475,1290951,65312,8276,644984,0
3,-1,640584,218410,1302695,65914,8235,650938,0
3,-1,642790,219362,1323611,66132,8257,661305,0
3,-1,638706,218842,1282851,66281,7786,641026,0
4,-1,633850,218508,1293952,65696,6521,646485,2
4,-1,637882,219977,1311653,66247,7964,655087,0
4,-1,642579,220180,1290233,66270,7653,644524,0
4,-1,643576,220914,1298876,66580,7821,648661,0
4,-1,638298,219198,1270075,65237,7579,634359,0
4,-1,643526,219194,1203583,66201,7157,601368,0
4,-1,643793,220240,1363051,66459,7777,680405,0
4,-1,635736,218116,1144784,66007,6906,571929,0
5,-1,636472,218441,1240160,65565,7151,619631,2
5,-1,656555,224013,1359059,69349,8765,678989,0
5,-1,642262,220634,1275749,66595,7870,637155,0
5,-1,639233,219708,1185293,65984,7559,592115,0
5,-1,637005,219162,1346826,65225,8047,672786,0
5,-1,642110,219723,1186368,66605,7688,592550,0
5,-1,641943,219604,1329203,66258,7391,663874,0
5,-1,637442,218768,1282218,66193,7027,640685,0
6,-1,643526,221612,1287196,66832,7326,642871,2
6,-1,634603,219442,1299139,66108,8204,648981,0
6,-1,642923,220287,1310196,66154,7297,654644,0
6,-1,649409,221463,1351691,66894,8173,674906,0
6,-1,656371,223443,1397770,68362,8184,698378,0
6,-1,639764,219238,1194129,66228,7422,596523,0
6,-1,642812,220401,1276752,66728,7581,637695,0
6,-1,641416,220237,1256440,66927,8402,627656,0
7,-1,631979,218505,1174742,65631,6904,586818,2
7,-1,633543,219023,1316698,65852,8559,657808,0
7,-1,638715,219250,1440411,65985,8186,717891,0
7,-1,645084,220330,1411997,66447,8338,705237,0
7,-1,637673,219535,1301720,65378,7767,650343,0
7,-1,648864,221278,1200914,67304,7651,599562,0
7,-1,642232,219803,1271440,66319,7822,635425,0
7,-1,638572,218972,1261609,66315,7798,630310,0
8,-1,634934,218402,1195675,65626,7053,597442,2
8,-1,638957,220491,1285421,66617,8140,641816,0
8,-1,637686,219277,1261642,65916,6279,630371,0
8,-1,642471,219435,1327654,66003,8775,663211,0
8,-1,636181,219301,1385455,65299,8082,692197,0
8,-1,642883,219263,1407224,66317,9220,702924,0
8,-1,647744,221687,1305137,67216,7632,651577,0
8,-1,656931,222987,1444323,69378,9066,721659,0
9,-1,639674,219297,1382357,65904,7261,690774,2
9,-1,633279,219307,1150559,65947,7750,574764,0
9,-1,657279,223470,1235518,69089,7186,617224,0
9,-1,640428,218295,1305462,65552,8496,652210,0
9,-1,636212,219598,1363560,65367,7385,681371,0
9,-1,642014,218954,1278246,66155,6694,638639,0
9,-1,641607,219953,1313074,66327,7985,656023,0
9,-1,636103,219007,1294889,66366,7316,646856,0
10,-1,637675,219292,1184752,65865,7035,591844,2
10,-1,632159,218734,1194297,65814,7654,596662,0
10,-1,638415,219998,1250472,66133,7302,624754,0
10,-1,639594,218340,1168915,65599,7875,584018,0
10,-1,635063,219351,1268135,65350,7601,633528,0
10,-1,642037,219325,1260277,66301,7742,629675,0
10,-1,648682,222157,1368554,67195,8142,683580,0
10,-1,632893,218303,1246762,66059,7227,622897,0
11,-1,637070,219454,1454126,66099,8531,726465,2
11,-1,633332,219618,1162895,66131,7505,581013,0
11,-1,642608,219430,1311422,65950,8163,655290,0
11,-1,643339,218993,1253882,65798,9400,626204,0
11,-1,634449,219326,1281533,65243,8034,640252,0
11,-1,640803,218761,1216807,66096,7081,607915,0
11,-1,642184,220203,1364094,66376,8351,681659,0
11,-1,637076,218234,1157539,66084,7226,578290,0
12,-1,639135,219267,1235798,66061,7768,617310,2
12,-1,637301,218987,1137810,65938,6468,568325,0
12,-1,662802,224295,1261838,69341,8199,630407,0
12,-1,641183,218791,1340611,65760,10188,669953,0
12,-1,635788,220156,1249463,65773,7798,623986,0
12,-1,644551,220372,1238847,66844,7464,618740,0
12,-1,662908,224784,1526119,69693,9001,761998,0
12,-1,641536,219865,1277456,66811,7081,638180,0
13,-1,639793,219442,1225966,66110,7855,612364,2
13,-1,645051,218751,1204544,65816,7626,601875,0
13,-1,639522,219520,1212128,66017,7008,605580,0
13,-1,642807,219858,1368520,66241,8527,683074,0
13,-1,637083,218244,1297637,64920,7179,648322,0
13,-1,641081,219508,1327643,66364,7708,663365,0
13,-1,650774,221436,1320034,66957,8578,659348,0
13,-1,636248,217945,1180202,65934,7213,589611,0
14,-1,641629,220139,1232276,66332,8117,615466,2
14,-1,645885,219413,1205880,66088,7794,602424,0
14,-1,641403,219624,1211527,66035,7181,605349,0
14,-1,644054,220157,1397242,66195,8954,697281,0
14,-1,637849,219489,1259733,65311,6766,629445,0
14,-1,638823,218602,1227121,66022,7558,613124,0
14,-1,644753,220113,1269127,66291,7715,634040,0
14,-1,636645,218647,1264871,66235,7420,631992,0
15,-1,641808,219465,1322644,66112,8350,660625,2
15,-1,649214,221044,1290750,66864,8806,644394,0
15,-1,642034,219811,1292438,66016,7534,645711,0
15,-1,641081,219304,1482135,65879,8643,739691,0
15,-1,641061,220668,1185246,65945,6681,591857,0
15,-1,639453,218622,1289196,66040,7474,644194,0
15,-1,647196,220288,1260435,66432,8110,629645,0
15,-1,636313,218778,1334455,66210,7542,666680,0
16,-1,644696,218885,1403888,65878,8701,701429,0
16,-1,637331,219766,1331670,66204,8276,665153,2
16,-1,639336,219136,1199967,65952,6740,599564,0
16,-1,638965,218490,1443064,65593,8734,721009,0
16,-1,657500,223655,1345468,68506,7601,672236,0
16,-1,641820,220116,1200977,66831,7049,599729,0
16,-1,647165,221226,1216305,66715,6987,607678,0
16,-1,637924,219813,1305524,66771,8339,652096,0
17,-1,643372,219164,1220712,65998,7958,609921,0
17,-1,637820,219331,1287984,66092,7431,643366,2
17,-1,640886,219542,1228280,66052,6659,613829,0
17,-1,638299,218783,1385683,65688,7791,692200,0
17,-1,662982,228278,1211981,67879,6809,605570,0
17,-1,645695,219599,1328432,66530,7801,663437,0
17,-1,645898,220510,1258613,66498,8049,628789,0
17,-1,637428,218916,1285928,66287,7577,642508,0
18,-1,641047,218479,1303759,65737,8289,651390,0
18,-1,636136,219372,1212937,66103,7236,605871,2
18,-1,637784,218675,1163924,65654,7033,581449,0
18,-1,640304,219871,1280834,66311,7841,639652,0
18,-1,637260,219818,1181403,65481,6724,590186,0
18,-1,642573,218834,1531437,66152,9591,765214,0
18,-1,650692,221759,1231166,67087,8576,614884,0
18,-1,640565,220467,1276093,67034,7281,637246,0
19,-1,649360,221382,1308781,66995,8547,653350,0
19,-1,638504,220983,1317503,66899,8074,657885,2
19,-1,637202,219226,1190510,65923,7041,594702,0
19,-1,642057,219177,1276174,65827,8475,637506,0
19,-1,635291,219351,1285986,65260,7282,642556,0
19,-1,641779,218840,1263110,66120,7735,631073,0
19,-1,645669,220128,1263340,66319,7978,631057,0
19,-1,656962,223575,1315151,69614,8614,657184,0
20,-1,643084,219912,1440399,66379,8589,719318,0
20,-1,638530,219744,1321959,66135,7835,660524,2
20,-1,645099,221079,1278838,66761,7668,638306,0
20,-1,644049,220679,1602249,66610,8514,800466,0
20,-1,643402,221572,1232376,66371,7089,615335,0
20,-1,643123,219107,1200909,66294,7795,599867,0
20,-1,646750,220689,1277011,66512,7807,638043,0
20,-1,635058,218931,1175466,66303,7286,587576,0
21,-1,647948,221983,1318803,67250,8708,658567,0
21,-1,635819,219861,1356477,66184,8195,677734,2
21,-1,660258,223765,1236077,69219,8049,617503,0
21,-1,640971,219112,1410978,65865,8903,704859,0
21,-1,635326,218772,1237547,65094,6742,618358,0
21,-1,644290,220460,1243189,66949,7781,620782,0
21,-1,645916,220374,1356082,66432,7866,677428,0
21,-1,634299,218423,1171703,66133,6874,585316,0
22,-1,660619,223663,1239102,69279,8710,619007,0
22,-1,641548,220975,1303060,66795,8255,650655,2
22,-1,641786,220208,1301515,66215,6760,650225,0
22,-1,640288,219441,1303913,65946,7805,651201,0
22,-1,637663,220746,1218047,65974,7254,608246,0
22,-1,661863,223277,1332303,69320,9286,665632,0
22,-1,643608,219871,1319754,66223,8217,659571,0
22,-1,637661,219768,1411636,66763,7846,705084,0
23,-1,643214,218970,1306350,65900,8248,652605,0
23,-1,636831,219678,1274591,66104,7090,636716,2
23,-1,638775,219436,1271335,66038,6999,635118,0
23,-1,638513,219046,1324411,65774,7888,661778,0
23,-1,635778,219244,1366009,65279,7331,682521,0
23,-1,639569,218388,1232562,65962,7262,615846,0
23,-1,672975,226351,1433863,70680,9412,716218,0
23,-1,636709,219653,1360085,66520,7695,679459,0
24,-1,645709,220153,1268365,66338,8422,633697,0
24,-1,640510,219846,1261763,66199,7579,630340,2
24,-1,642849,220724,1324496,66631,7608,661472,0
24,-1,639168,219107,1211740,65849,7838,605253,0
24,-1,637258,220835,1189997,66043,7323,594256,0
24,-1,642030,219643,1324377,66376,8267,661737,0
24,-1,646393,221025,1253351,66618,8036,626382,0
24,-1,635152,218804,1251914,66214,6189,625291,0
25,-1,646528,220540,1347501,66627,8750,672847,0
25,-1,634300,218738,1275385,65760,7771,637171,2
25,-1,636975,218655,1269882,65665,7049,634525,0
25,-1,640759,218958,1280340,65741,8525,639705,0
25,-1,655059,223953,1412385,68622,9467,705705,0
25,-1,641551,219592,1247731,66610,8016,623187,0
25,-1,643397,220161,1383536,66312,8097,691180,0
25,-1,667791,223247,1320590,69507,8852,659799,0
26,-1,641597,218975,1419755,65906,8466,709460,0
26,-1,642225,221204,1334101,66878,8257,666215,2
26,-1,640179,220012,1278384,66207,7321,638710,0
26,-1,639673,219012,1299004,65774,8791,648857,0
26,-1,635172,218488,1214005,64997,6662,606602,0
26,-1,640552,219384,1322772,66312,8012,660897,0
26,-1,646834,221571,1390290,67007,8149,694042,0
26,-1,649358,220883,1254923,67112,7666,627008,0
27,-1,643857,219577,1275341,66116,8207,637195,0
27,-1,638481,219731,1140817,66101,7223,569722,2
27,-1,637788,219279,1278940,65901,7024,638973,0
27,-1,638839,218969,1281086,65707,8699,639952,0
27,-1,636848,219424,1281802,65331,7347,640059,0
27,-1,638177,218753,1238799,66073,7166,619047,0
27,-1,644030,219411,1359091,66168,8176,678890,0
27,-1,647790,219467,1302983,66479,8535,650985,0
28,-1,641036,219034,1315843,65979,8463,657518,0
28,-1,632675,219399,1138775,66032,6399,568771,2
28,-1,641905,219982,1351518,66174,7977,675186,0
28,-1,644218,220540,1412312,66409,8858,704994,0
28,-1,635578,219111,1369905,65248,6999,684445,0
28,-1,639811,218842,1292548,66087,8118,645766,0
28,-1,648950,221777,1293430,67168,8029,645213,0
28,-1,648261,220815,1312451,67124,7954,655531,0
29,-1,640791,219250,1276329,66008,8194,637638,0
29,-1,641422,221682,1371929,67088,8047,684868,2
29,-1,638577,219273,1258322,65850,6991,628700,0
29,-1,641255,219955,1366530,66028,9201,682539,0
29,-1,633748,218842,1279058,65070,6912,638945,0
29,-1,637820,218904,1230064,66166,7608,614191,0
29,-1,646294,220635,1305691,66586,7455,652276,0
29,-1,663542,222869,1310623,69407,8760,654899,0
30,-1,641535,219341,1247160,66014,8545,623150,0
30,-1,644395,221414,1305809,66917,7388,652110,2
30,-1,641368,220305,1370275,66489,7833,684287,0
30,-1,638167,219086,1451313,65707,8869,725373,0
30,-1,634206,218338,1335033,64957,7061,667071,0
30,-1,640028,219601,1417677,66354,9688,708351,0
30,-1,642835,220251,1498223,66462,7826,748610,0
30,-1,643454,218626,1190053,66222,7523,594283,0
31,-1,640631,219055,1223248,65968,8631,611155,0
31,-1,636055,219144,1301152,65875,7477,650060,0
31,-1,636907,219187,1307136,65961,6903,653084,2
31,-1,640398,219839,1373885,65939,9026,686573,0
31,-1,640758,221514,1182534,66299,6942,590362,0
31,-1,661213,222871,1394395,69223,8484,696740,0
31,-1,640478,219718,1342873,66254,7755,671063,0
31,-1,641281,217779,1236524,65923,7981,617760,0
32,-1,641178,219709,1188654,66184,8472,593841,0
32,-1,640328,220146,1246973,66270,7321,622898,0
32,-1,662895,228705,1206549,68787,7332,602586,2
32,-1,644473,219922,1408294,66018,8946,702846,0
32,-1,631184,218262,1173877,64868,6800,586535,0
32,-1,641292,219001,1273444,66196,7282,636206,0
32,-1,643143,220009,1271570,66350,7910,634755,0
32,-1,649097,221032,1482289,67256,7985,740130,0
33,-1,643284,220586,1279341,66650,8388,638925,0
33,-1,637751,219270,1186908,65915,7070,593029,0
33,-1,641482,220293,1303212,66265,7610,651154,2
33,-1,642305,219176,1339782,65736,8606,668746,0
33,-1,633849,218779,1337045,65104,6867,668086,0
33,-1,641586,219384,1339081,66321,7564,668978,0
33,-1,642312,220085,1279992,66416,7442,639469,0
33,-1,642870,218715,1241033,66253,8008,619960,0
34,-1,638006,218696,1282694,65804,8594,640891,0
34,-1,639555,220522,1286209,66589,7593,642245,0
34,-1,646426,221565,1220270,66980,8423,609384,2
34,-1,643067,219663,1212617,65950,7697,605620,0
34,-1,632746,218771,1294851,65071,7662,646950,0
34,-1,641897,219909,1206067,66702,7058,602370,0
34,-1,642789,219972,1298274,66355,7672,647632,0
34,-1,639914,217911,1327189,65865,8142,663263,0
35,-1,645825,220566,1337571,66644,8092,667797,0
35,-1,636721,219598,1280974,66069,7547,639936,0
35,-1,637135,219897,1233850,66180,6976,616349,2
35,-1,641312,219297,1344591,65790,8013,671659,0
35,-1,631081,218437,1162362,64976,6299,580785,0
35,-1,639192,218839,1198561,66166,7484,598740,0
35,-1,662376,224811,1277742,69779,9432,638236,0
35,-1,645674,218889,1378443,66312,8420,688513,0
36,-1,642280,219479,1191541,66091,7748,595069,0
36,-1,636681,219562,1253405,66008,7377,626230,0
36,-1,636670,219075,1237001,65811,7651,618026,2
36,-1,661103,223507,1244203,68955,8313,621745,0
36,-1,637647,221015,1207278,66033,6854,602336,0
36,-1,640183,219535,1299575,66339,7218,649344,0
36,-1,644223,219988,1319326,66373,7924,658916,0
36,-1,644612,218455,1270682,66134,8527,634968,0
37,-1,640435,218801,1321555,65824,7853,660117,0
37,-1,640883,218974,1195136,65800,7044,597071,0
37,-1,642325,220638,1208104,66385,6660,603626,2
37,-1,640194,219619,1316530,65936,8219,657812,0
37,-1,644166,219107,1220916,65591,6228,610008,0
37,-1,637066,218846,1329475,66155,7988,664243,0
37,-1,643077,219591,1291851,66262,7702,645433,0
37,-1,644199,218759,1360514,66240,9080,679612,0
38,-1,641561,219665,1292021,66163,7370,645391,0
38,-1,642355,219736,1278529,66075,6939,638816,0
38,-1,641041,221390,1335522,66806,7733,667026,2
38,-1,640689,219132,1359866,65794,8129,679407,0
38,-1,645926,218789,1289802,65501,7159,644324,0
38,-1,638319,218899,1239262,66070,7106,619105,0
38,-1,665751,224891,1588949,69877,9485,793738,0
38,-1,648702,220938,1441547,67225,8715,719833,0
39,-1,646025,221203,1335752,66931,8281,666948,0
39,-1,640862,219364,1218050,65928,6658,608499,0
39,-1,640760,219904,1223778,66137,6401,611335,2
39,-1,667659,228765,1401027,68573,8358,700105,0
39,-1,650783,221048,1636471,66558,8921,817143,0
39,-1,642382,220356,1188646,66882,7694,593407,0
39,-1,642179,219807,1464729,66386,7652,731759,0
39,-1,689642,232051,1484527,72124,10001,741816,0
40,-1,642672,219449,1376141,66101,8536,687541,0
40,-1,639588,219406,1224883,65864,6410,612039,0
40,-1,644089,220069,1349345,66083,8027,674116,2
40,-1,637332,218589,1193534,65576,7262,596309,0
40,-1,642296,218140,1176440,65251,6237,587808,0
40,-1,637369,218512,1291938,66018,8286,645317,0
40,-1,642569,220147,1340456,66586,8778,669748,0
40,-1,646457,219543,1346165,66488,8263,672453,0
41,-1,641613,219252,1360998,66039,8514,679898,0
41,-1,660982,224096,1184061,69279,7981,591405,0
41,-1,645497,220976,1367548,66480,6512,683330,2
41,-1,637558,218992,1205438,65690,6760,602306,0
41,-1,645218,219309,1337358,65717,7161,667840,0
41,-1,637666,219343,1447864,66309,8865,723259,0
41,-1,645711,221325,1345831,67124,8399,671982,0
41,-1,641084,218853,1266404,66236,7838,632681,0
42,-1,642145,219865,1303570,66212,7787,651190,0
42,-1,638590,219340,1185188,65949,6653,591963,0
42,-1,641671,219415,1141959,65989,7020,570281,2
42,-1,641436,220736,1280514,66504,7909,639594,0
42,-1,651871,221511,1206949,66631,7158,602980,0
42,-1,637126,217451,1176313,65691,7258,587629,0
42,-1,642878,219998,1317641,66509,8384,657804,0
42,-1,641695,218016,1229729,65960,7509,614479,0
43,-1,636783,218027,1382731,65616,8028,690605,0
43,-1,639538,219861,1158493,66067,6669,578742,0
43,-1,643328,221072,1237539,66447,7206,618312,2
43,-1,644129,219827,1247099,65960,7780,623103,0
43,-1,645253,219276,1320597,65703,7687,659762,0
43,-1,640975,218629,1187013,65947,7082,592944,0
43,-1,644058,221003,1255454,66990,7481,626946,0
43,-1,647015,220499,1320864,67089,8126,659509,0
44,-1,659418,223480,1370875,69228,8967,684963,0
44,-1,643514,221129,1189759,66746,7183,594023,0
44,-1,639482,220645,1280946,66242,7618,640068,2
44,-1,641633,219368,1495226,65902,10018,747086,0
44,-1,642339,218028,1455965,65360,8129,727517,0
44,-1,639877,218511,1223023,66077,7353,610983,0
44,-1,640730,220044,1295217,66527,8062,647187,0
44,-1,662859,223063,1418764,69448,9363,708669,0
45,-1,641071,219022,1283768,65964,7638,641109,0
45,-1,638682,219236,1200787,65916,7160,599883,0
45,-1,641241,220240,1211233,66154,7596,605139,2
45,-1,660065,223684,1349546,68982,8362,674326,0
45,-1,644712,219342,1187528,65676,6505,593324,0
45,-1,643355,220201,1188759,66754,7906,593616,0
45,-1,643456,220684,1296389,66743,7791,647771,0
45,-1,642134,219179,1168105,66276,7934,583397,0
46,-1,639313,218397,1306729,65720,8296,652662,0
46,-1,638128,219745,1155793,66115,6604,577338,0
46,-1,638998,219060,1292427,65813,7577,645650,2
46,-1,641756,220020,1283004,66015,7575,640762,0
46,-1,643370,218745,1296518,65530,7373,647835,0
46,-1,641089,219061,1236757,66195,7709,617888,0
46,-1,645152,220751,1212410,66758,6716,605726,0
46,-1,641575,218854,1223425,66231,8323,611296,0
47,-1,642935,220213,1291057,66335,8066,644908,0
47,-1,645220,221126,1289142,66835,7598,643509,0
47,-1,637601,219288,1209628,65892,6655,604459,0
47,-1,646274,222008,1336060,66990,7582,667199,2
47,-1,642438,218984,1332740,65555,7017,665742,0
47,-1,643833,220086,1181741,66763,6752,590124,0
47,-1,642224,219996,1271588,66472,7196,635401,0
47,-1,667863,223250,1302320,69480,9405,650689,0
48,-1,661779,223723,1257695,69286,9319,628090,0
48,-1,661143,223692,1336171,69196,7587,667529,0
48,-1,638128,219374,1323571,65913,7872,661345,0
48,-1,638759,219551,1381652,65910,9626,690192,2
48,-1,643053,218932,1180489,65618,6578,589595,0
48,-1,661240,223533,1361875,69471,8536,680438,0
48,-1,647105,221392,1273706,67173,6871,636143,0
48,-1,646946,219464,1228516,66436,7814,613646,0
49,-1,639676,219018,1415021,65964,8488,707043,0
49,-1,640465,219598,1336869,66018,7152,667940,0
49,-1,640354,220728,1273127,66576,7539,635849,0
49,-1,640916,219132,1160520,65866,7937,579579,2
49,-1,642652,218915,1270445,65564,7091,634814,0
49,-1,640071,218731,1246784,66110,6792,622914,0
49,-1,642554,220545,1208886,66637,6759,603941,0
49,-1,643545,218588,1312569,66093,7738,655663,0
50,-1,647224,222222,1301937,67237,8177,649966,0
50,-1,643003,220968,1292369,66705,7101,645501,0
50,-1,639464,219555,1205850,66002,7285,602405,0
50,-1,638655,218936,1244957,65854,8562,621872,2
50,-1,639760,218552,1259311,65421,6903,628699,0
50,-1,639410,218848,1191183,66101,6872,595126,0
50,-1,645797,222321,1156919,67582,7890,577535,0
50,-1,646359,219803,1328405,66734,8546,663520,0
51,-1,640690,219772,1338111,66202,8110,668487,0
51,-1,637785,218878,1244957,65872,7275,621895,0
51,-1,639733,219780,1324257,66064,7801,661686,0
51,-1,639629,220011,1245430,66061,7780,622170,2
51,-1,640496,218654,1412622,65451,7399,705945,0
51,-1,639677,219180,1301737,66251,7328,650339,0
51,-1,644169,220701,1146673,66759,6838,572762,0
51,-1,642857,218827,1432458,66171,8612,715957,0
52,-1,644858,221766,1322099,67021,8118,660134,0
52,-1,635874,218645,1309937,65663,6809,654529,0
52,-1,638348,219641,1227595,66057,7374,613371,0
52,-1,640211,219947,1261037,66024,8568,629861,2
52,-1,647702,220172,1286745,66175,8179,642368,0
52,-1,642817,220015,1218178,66732,7600,608385,0
52,-1,639845,219813,1297715,66466,7842,648392,0
52,-1,644243,218997,1258358,66290,8127,628539,0
53,-1,638084,218936,1203063,65965,7934,600979,0
53,-1,644409,221800,1312030,67150,7097,655084,0
53,-1,641820,221446,1339295,66901,7985,668832,0
53,-1,642989,219883,1335666,65885,8488,667305,2
53,-1,643991,218754,1263073,65474,7626,631025,0
53,-1,638313,218472,1390284,65966,7591,694744,0
53,-1,641900,220112,1356042,66553,7648,677484,0
53,-1,644028,218930,1242947,66170,8180,621080,0
54,-1,637231,218996,1280222,65882,8137,639543,0
54,-1,639115,219447,1261523,66018,6963,630221,0
54,-1,658202,224081,1334946,69286,7812,667018,0
54,-1,643401,220150,1174072,65947,7268,586392,2
54,-1,642463,218940,1228371,65565,7118,613699,0
54,-1,638743,218639,1304779,66039,7932,651927,0
54,-1,637815,219917,1321201,66441,7598,660204,0
54,-1,641157,218595,1231989,65984,8276,615140,0
55,-1,649279,221389,1413820,66890,8660,706159,0
55,-1,637291,219207,1193234,65893,6620,596152,0
55,-1,640838,219967,1422436,66138,7935,710666,0
55,-1,650584,221676,1323754,66823,8161,660859,2
55,-1,642786,219669,1240930,65971,7034,619081,0
55,-1,638849,219040,1338197,66151,7190,668607,0
55,-1,650901,221391,1234187,67133,7720,616446,0
55,-1,645713,219266,1203605,66239,7581,601203,0
56,-1,664224,223905,1305786,69335,9255,652192,0
56,-1,641999,221144,1280461,66832,7329,639405,0
56,-1,646753,220588,1273210,66535,7897,636017,0
56,-1,638895,219786,1204223,65911,7233,601344,2
56,-1,642311,219136,1256583,65684,7069,628234,0
56,-1,644031,219533,1252899,66398,7878,625970,0
56,-1,645453,219917,1357806,66494,8492,678380,0
56,-1,646208,219872,1314971,66647,8577,656747,0
57,-1,642838,219093,1254084,65937,7713,626587,0
57,-1,659287,224159,1229854,69366,8117,614410,0
57,-1,640446,218502,1297415,65571,7835,648317,0
57,-1,643691,221757,1266735,66879,8042,632301,2
57,-1,644295,218963,1211068,65601,7243,605161,0
57,-1,640494,218676,1207833,66000,7429,603511,0
57,-1,649187,221554,1291363,67300,8131,644911,0
57,-1,641939,218217,1310920,65868,7675,654978,0
58,-1,641377,218788,1299115,65781,8040,648967,0
58,-1,637107,219614,1248422,65999,6942,623731,0
58,-1,665820,224941,1305273,69557,8416,652148,0
58,-1,641250,219404,1278808,65858,8195,638739,2
58,-1,643185,219039,1124936,65749,6430,562118,0
58,-1,640524,219116,1271426,66248,7840,635227,0
58,-1,647545,220790,1238928,66767,7765,618893,0
58,-1,642295,218991,1459648,66176,8427,729202,0
59,-1,646247,220703,1342073,66634,7946,669981,0
59,-1,635264,218955,1260321,65814,6976,629683,0
59,-1,639694,219020,1377328,65834,8610,688167,0
59,-1,637561,219336,1188906,65847,6911,593891,2
59,-1,642273,219080,1191225,65680,7100,595154,0
59,-1,639882,219644,1257661,66369,7143,628276,0
59,-1,645346,220231,1361763,66594,8173,680457,0
59,-1,648347,220977,1330594,67103,8457,664354,0
60,-1,639518,218217,1258613,65555,7737,628810,0
60,-1,637132,219900,1284764,66189,7309,641776,0
60,-1,644617,220752,1214430,66540,8564,606498,0
60,-1,639911,219696,1200670,65956,6681,599723,2
60,-1,646233,220592,1166695,66507,6752,582383,0
60,-1,637094,218506,1176956,65986,7350,588056,0
60,-1,644547,219935,1351235,66436,7746,675180,0
60,-1,640844,218986,1214914,66153,7413,606901,0
61,-1,661798,223942,1344018,69304,7785,671291,0
61,-1,643592,220080,1284541,66233,7009,641673,0
61,-1,641412,218990,1194292,65763,7848,596632,0
61,-1,643258,221110,1210228,66700,7000,604320,2
61,-1,640698,218095,1127822,65388,6769,563535,0
61,-1,638791,219084,1295494,66169,7886,647206,0
61,-1,647360,221428,1246625,67142,7885,622540,0
61,-1,642111,219617,1288091,66503,7564,643226,0
62,-1,643471,219348,1371924,66021,7655,685769,0
62,-1,644134,221405,1298209,66930,7202,648269,0
62,-1,641174,219867,1453251,66005,9273,725733,0
62,-1,634530,218775,1285369,65654,7328,642375,2
62,-1,642549,219480,1172451,65855,6877,585764,0
62,-1,643406,220173,1210713,66729,7101,604652,0
62,-1,645730,220047,1285937,66530,7988,642500,0
62,-1,643798,219700,1319840,66375,8132,659277,0
63,-1,640351,219208,1219032,65876,7881,609091,0
63,-1,637971,219333,1215662,65995,6553,607452,0
63,-1,635679,218085,1304577,65419,7994,651910,0
63,-1,644140,221316,1214419,66740,7075,606274,2
63,-1,639163,218924,1305983,65618,7732,652365,0
63,-1,637926,218534,1255665,65971,6815,627375,0
63,-1,649226,221715,1341955,67305,7796,670210,0
63,-1,644877,218924,1242692,66119,6825,620638,0
64,-1,639248,219109,1264428,65795,7794,631654,0
64,-1,639728,220254,1333155,66216,6922,666119,0
64,-1,644301,219571,1191166,65989,7416,595071,0
64,-1,639731,219435,1180197,65902,7155,589624,2
64,-1,644516,219265,1274667,65772,8205,636604,0
64,-1,637740,218612,1231202,65977,7161,615235,0
64,-1,643298,219541,1308206,66313,8093,653690,0
64,-1,642735,218561,1333328,65927,8021,666238,0
65,-1,642033,219635,1493878,65956,8890,746304,0
65,-1,643022,221189,1213704,66843,7662,606018,0
65,-1,640477,219060,1303269,65755,7693,651261,0
65,-1,640785,219427,1309390,65847,7280,654195,2
65,-1,647073,220552,1338433,66164,8857,668681,0
65,-1,641126,219703,1166296,66341,6885,582639,0
65,-1,644115,220131,1310448,66546,7443,654719,0
65,-1,645503,220650,1279377,66837,7257,639011,0
66,-1,646039,221669,1323184,66928,8175,660656,0
66,-1,637011,219251,1186111,65905,7287,592456,0
66,-1,639260,218917,1384942,65654,7895,692059,0
66,-1,642275,219160,1266473,65767,7746,632670,2
66,-1,644152,219821,1216706,66093,8292,607329,0
66,-1,636732,218512,1303884,65957,7322,651520,0
66,-1,646575,221148,1234055,67068,7302,616399,0
66,-1,643208,219595,1313995,66295,7764,656364,0
67,-1,661653,224017,1348472,69229,8094,673543,0
67,-1,644760,221619,1380642,66865,8346,689945,0
67,-1,640059,219418,1302981,65812,7450,651070,0
67,-1,638572,219104,1302323,65745,7388,650580,2
67,-1,663699,224451,1310166,69288,8020,654628,0
67,-1,638521,219520,1178784,66251,6910,588954,0
67,-1,644548,220567,1257480,66607,7751,628388,0
67,-1,638942,218603,1298104,65934,8158,648477,0
68,-1,646595,220682,1223512,66546,7839,611063,0
68,-1,636345,219293,1293502,65879,7470,646054,0
68,-1,664745,224289,1306943,69234,8330,652933,0
68,-1,643243,218920,1243663,65623,7788,621427,0
68,-1,640493,219291,1190914,65743,6627,594893,2
68,-1,663509,228537,1299684,68999,8411,649427,0
68,-1,652534,222071,1216820,67465,7904,607700,0
68,-1,663843,223765,1347609,69480,9195,673192,0
69,-1,640909,219141,1194522,65809,7114,596798,0
69,-1,640520,219941,1342595,66057,7504,670888,0
69,-1,642587,220458,1312213,66399,7696,655511,0
69,-1,642067,218925,1339048,65663,8365,668981,0
69,-1,644434,219427,1348095,65791,7878,673480,2
69,-1,646438,221275,1167296,67181,7536,582982,0
69,-1,667332,224593,1364484,69793,8776,681679,0
69,-1,641137,218746,1223063,65927,8024,610974,0
70,-1,642116,219455,1280678,65966,7507,639770,0
70,-1,640342,220203,1323956,66226,8157,661342,0
70,-1,641539,219900,1224975,66061,7410,611942,0
70,-1,640445,218646,1322860,65535,7951,660881,0
70,-1,649457,222041,1249341,66961,7602,623483,2
70,-1,641076,219541,1260156,66379,7436,629595,0
70,-1,644448,219834,1220974,66477,8204,609990,0
70,-1,640960,218888,1164665,65992,7503,581778,0
71,-1,641441,219544,1222005,65947,7527,610601,0
71,-1,640070,220309,1336880,66428,8075,666204,0
71,-1,646162,222098,1381963,67088,8823,689586,0
71,-1,641678,218895,1290315,65606,7570,644582,0
71,-1,631657,219164,1240529,65263,7384,619654,2
71,-1,636823,218222,1260593,65906,6950,629888,0
71,-1,643553,219803,1226914,66393,8195,613028,0
71,-1,640770,218752,1242135,65935,8183,620552,0
72,-1,663374,223804,1235944,69191,8402,617489,0
72,-1,635563,218934,1419812,65794,8333,709383,0
72,-1,637420,219120,1305480,65738,8068,652386,0
72,-1,641498,219306,1379631,65802,7181,689247,0
72,-1,638356,220615,1218383,66018,7649,608438,2
72,-1,643129,219943,1326975,66494,7205,663004,0
72,-1,646693,221674,1160436,67344,7507,579578,0
72,-1,646273,221502,1216930,67197,8502,607393,0
73,-1,642112,219956,1258078,66090,7176,628588,0
73,-1,640673,220252,1294158,66262,7470,646492,0
73,-1,638090,219089,1201368,65810,7264,600287,0
73,-1,644062,219339,1266969,65830,7464,632960,0
73,-1,638475,219250,1175024,65254,8042,587021,2
73,-1,637689,218853,1185750,66143,7246,592381,0
73,-1,647819,221735,1367477,67262,7538,682866,0
73,-1,647058,219193,1427699,66072,8925,713345,0
74,-1,639271,219516,1232455,65957,7226,615602,0
74,-1,656535,223339,1702606,69036,9367,850633,0
74,-1,645549,219766,1292190,66037,7706,645632,0
74,-1,641826,218857,1266709,65601,7415,632951,0
74,-1,634907,219650,1227393,65534,8185,612821,2
74,-1,644558,220817,1203196,67063,7361,600798,0
74,-1,643173,219493,1294332,66305,8541,646714,0
74,-1,646214,219673,1345490,66216,9155,672262,0
75,-1,641671,219607,1301519,65988,7136,650270,0
75,-1,635827,219443,1386958,66013,8073,693066,0
75,-1,643539,219257,1296998,65819,8257,648130,0
75,-1,646189,221259,1143322,66713,6920,570714,0
75,-1,642533,221506,1189901,66484,7395,594007,2
75,-1,661223,223649,1295775,69499,8126,647338,0
75,-1,641298,219844,1301236,66361,8464,650234,0
75,-1,649654,221104,1299213,67015,8731,648720,0
76,-1,641126,219483,1179858,65842,6864,589545,0
76,-1,640750,220522,1270873,66543,7561,634732,0
76,-1,641704,219538,1162664,65910,7657,580909,0
76,-1,642342,219338,1227727,65841,7146,613148,0
76,-1,640045,219615,1297307,66453,8294,648110,2
76,-1,638606,218879,1236712,66098,7019,617836,0
76,-1,646974,221052,1224578,67055,8024,611626,0
76,-1,644308,219457,1281473,66151,8011,640216,0
77,-1,659122,223270,1238224,68954,7870,618582,0
77,-1,637278,219602,1177037,66086,6996,587965,0
77,-1,642610,219348,1213503,65857,8325,606366,0
77,-1,641995,219854,1244682,65972,7327,621707,0
77,-1,635042,219125,1241296,66266,7156,620138,2
77,-1,639575,219610,1301380,66398,7584,650192,0
77,-1,645129,219654,1292323,66340,7686,645592,0
77,-1,647457,220127,1462884,66395,8335,730755,0
78,-1,642141,220055,1183163,66120,6825,591092,0
78,-1,637267,219908,1266665,66107,7322,632770,0
78,-1,641001,219231,1153223,65879,7524,576110,0
78,-1,638787,218394,1243132,65452,7738,621062,0
78,-1,646006,221957,1228438,67448,8083,613316,2
78,-1,636818,218687,1339971,66107,7306,669471,0
78,-1,647441,220793,1587403,66786,9676,793002,0
78,-1,644049,219104,1319060,66086,8631,659040,0
79,-1,638773,219221,1261787,65807,7125,630442,0
79,-1,634980,219079,1182390,65848,7305,590726,0
79,-1,646906,221706,1214984,66935,7965,606600,0
79,-1,638276,218987,1214701,65704,7147,606976,0
79,-1,638735,218615,1296322,66104,7375,647695,2
79,-1,637120,218824,1161735,66147,7100,580376,0
79,-1,645041,219956,1338505,66445,8908,668733,0
79,-1,643270,219044,1272940,66038,8430,635964,0
80,-1,638300,219698,1203271,66018,7131,601235,0
80,-1,639299,220950,1334644,66779,7536,666451,0
80,-1,659617,223530,1191456,69045,8455,595229,0
80,-1,646456,221358,1207031,66729,7020,602693,0
80,-1,639071,219365,1350963,66355,7972,674890,2
80,-1,641910,220927,1177084,67145,6628,587755,0
80,-1,645985,220215,1258368,66608,8152,628575,0
80,-1,650728,222317,1311594,67376,9160,655082,0
81,-1,663679,223801,1270644,69128,8628,634871,0
81,-1,658284,224132,1237885,69329,7518,618318,0
81,-1,641049,219117,1249439,65773,7469,624198,0
81,-1,665956,223461,1335659,68894,8701,667330,0
81,-1,637076,218560,1285143,66117,8135,642075,2
81,-1,639545,218286,1234459,65922,7913,616766,0
81,-1,641857,219712,1278358,66365,7939,638655,0
81,-1,644320,219417,1230108,66228,7657,614613,0
82,-1,641228,218986,1263084,65733,7232,631089,0
82,-1,635494,219328,1367005,65991,7455,682983,0
82,-1,640758,219627,1467896,66025,8613,733345,0
82,-1,646281,219675,1288586,65904,8165,643755,0
82,-1,641565,219061,1303425,66242,7260,650907,2
82,-1,638878,218900,1335391,66161,7723,667240,0
82,-1,645325,220087,1403909,66524,8488,701372,0
82,-1,642278,218809,1308105,65946,8310,653669,0
83,-1,641058,219464,1181983,65920,7016,590469,0
83,-1,636113,219801,1345308,66086,7326,672169,0
83,-1,638791,219141,1199882,65848,6747,599475,0
83,-1,646069,219779,1327136,65940,8078,662847,0
83,-1,642317,219355,1292066,66339,8124,645456,2
83,-1,636903,218339,1305564,65940,7792,652370,0
83,-1,649755,222293,1465599,67577,9901,730632,0
83,-1,643422,219560,1216895,66241,7933,607928,0
84,-1,644580,220699,1320122,66517,7469,659387,0
84,-1,642381,219192,1155918,65878,7431,577410,0
84,-1,639508,219818,1225365,66096,7453,612144,0
84,-1,646890,220587,1194584,66398,7727,596591,0
84,-1,635597,218467,1144832,65953,8172,571879,2
84,-1,641464,220316,1220891,66894,7681,609725,0
84,-1,665305,224728,1416657,69835,9840,707863,0
84,-1,648397,221405,1326858,67012,8884,662782,0
85,-1,640008,219038,1227422,65805,7237,613248,0
85,-1,648542,221442,1230139,66946,8714,613966,0
85,-1,638896,218705,1277405,65594,7920,638229,0
85,-1,641496,218695,1376582,65531,8135,687852,0
85,-1,636303,218639,1256460,66032,7668,627748,0
85,-1,642516,221344,1199038,67210,7345,598733,2
85,-1,642971,220055,1311827,66434,8627,655418,0
85,-1,641780,219056,1354228,65996,8363,676594,0
86,-1,640797,219066,1243242,65768,7086,621154,0
86,-1,663087,223773,1191157,69163,8406,594919,0
86,-1,662868,223954,1313319,69207,8891,656194,0
86,-1,650984,222302,1234712,67091,7992,616655,0
86,-1,635775,218438,1179313,65970,7377,589267,0
86,-1,639790,219012,1252557,66213,7926,625788,2
86,-1,644372,220628,1265868,66709,8408,632357,0
86,-1,667523,224286,1337029,69561,9246,667851,0
87,-1,643094,220035,1302588,66082,7843,650756,0
87,-1,642661,219789,1221582,66141,7944,610234,0
87,-1,640791,219738,1373005,66029,7944,686022,0
87,-1,662742,223444,1321497,68942,8809,660487,0
87,-1,637624,219610,1303231,66390,7109,651213,0
87,-1,640955,220015,1141537,66536,7270,570250,2
87,-1,647358,221504,1260349,67197,8634,629272,0
87,-1,643616,219248,1202734,66135,7459,600943,0
88,-1,640791,219541,1260974,65776,7414,630017,0
88,-1,643252,219551,1270870,66021,8393,634823,0
88,-1,641444,220241,1411311,66311,8642,704846,0
88,-1,646764,220562,1237026,66403,7022,617509,0
88,-1,640758,220567,1165393,66980,8528,581859,0
88,-1,637538,219345,1254094,66324,7903,626507,2
88,-1,639765,219112,1248895,66232,8122,623816,0
88,-1,642585,219191,1343962,66103,8317,671244,0
89,-1,647053,221637,1344878,66827,7489,671505,0
89,-1,642481,219430,1349372,66012,7639,674228,0
89,-1,642232,219726,1485769,66054,9645,742031,0
89,-1,640123,218251,1261348,65466,7526,630147,0
89,-1,656052,223399,1264931,69420,9234,632054,0
89,-1,644447,220907,1245013,67104,7901,621694,2
89,-1,644968,220058,1366958,66621,9561,682808,0
89,-1,674713,230039,1330764,69574,8337,664669,0
90,-1,661778,224071,1262362,69133,7963,630733,0
90,-1,641210,219300,1293835,65848,7578,646403,0
90,-1,642054,219981,1298866,65991,7909,649017,0
90,-1,641877,218972,1317718,65651,7713,658360,0
90,-1,638177,219224,1183034,66257,8550,591082,0
90,-1,640588,219214,1184424,66178,7542,591707,2
90,-1,645072,220478,1232667,66736,8506,615943,0
90,-1,643979,219640,1300208,66258,8287,649588,0
91,-1,644344,220309,1175156,66121,6996,587027,0
91,-1,641623,219480,1180030,66013,7454,589577,0
91,-1,640849,219556,1288133,65841,7579,643606,0
91,-1,639571,218335,1173367,65430,6890,586237,0
91,-1,638321,219785,1223913,66462,8810,611467,0
91,-1,640039,219776,1274833,66364,7916,636582,2
91,-1,646383,221170,1171267,67160,8053,584995,0
91,-1,644738,219956,1168997,66307,8000,583771,0
92,-1,645244,220995,1258416,66465,7806,628578,0
92,-1,647255,220994,1290450,66797,8003,644328,0
92,-1,660572,224592,1291010,69322,8244,645065,0
92,-1,640029,219096,1277567,65740,7304,638043,0
92,-1,638740,220113,1137962,66698,7932,568070,0
92,-1,642507,220049,1197084,66552,6982,598157,2
92,-1,641359,219162,1153878,66275,7663,576424,0
92,-1,647652,221236,1258269,67053,8578,628253,0
93,-1,663355,224612,1365967,69336,8038,682394,0
93,-1,663824,224137,1260279,69323,8431,629697,0
93,-1,641212,220163,1280721,66076,7566,639780,0
93,-1,641430,218357,1299117,65384,7797,648988,0
93,-1,636464,219475,1185824,66348,8294,593098,0
93,-1,647105,221155,1316900,67182,7897,657540,2
93,-1,644387,220442,1210304,66735,7874,604529,0
93,-1,644683,219820,1154590,66324,7960,576933,0
94,-1,639745,219535,1340316,65827,7108,669640,0
94,-1,641390,219344,1176492,66007,6559,587561,0
94,-1,640983,220111,1395219,66001,8049,697130,0
94,-1,640737,218382,1302289,65451,8263,650645,0
94,-1,634460,218695,1183162,66072,7891,591150,0
94,-1,637071,218583,1292258,66092,7205,645592,2
94,-1,647735,222169,1197108,67657,8027,597403,0
94,-1,641577,218922,1233477,65988,8579,616117,0
95,-1,642114,220400,1273118,66096,7212,636046,0
95,-1,640296,219167,1410339,65872,7093,704670,0
95,-1,646982,222536,1329306,67161,8286,663554,0
95,-1,661158,223237,1291227,68898,7650,645012,0
95,-1,645052,218930,1290685,66127,8199,644944,0
95,-1,640444,219133,1247662,66301,8051,623148,2
95,-1,638668,219042,1185817,66254,7322,592069,0
95,-1,642629,219168,1174491,66107,8222,586730,0
96,-1,638286,219358,1221721,65863,6697,610336,0
96,-1,641210,219921,1350062,66169,6867,674535,0
96,-1,641345,220478,1309217,66196,8265,654139,0
96,-1,645176,220904,1157462,66497,7420,577843,0
96,-1,663448,223207,1595663,69306,9603,797136,0
96,-1,647238,221568,1234591,67432,7759,616275,2
96,-1,642453,220284,1320516,66700,8588,659777,0
96,-1,645932,220867,1208096,66856,8505,603217,0
97,-1,644880,221723,1306951,66760,7370,652808,0
97,-1,642571,220825,1257398,66679,7251,627875,0
97,-1,650466,221268,1295378,66555,7949,646938,0
97,-1,660201,223225,1374235,68850,7775,686516,0
97,-1,641108,218152,1301184,65947,8515,650029,0
97,-1,643649,220033,1209393,66625,7465,604198,2
97,-1,648609,222325,1230213,67622,7972,614258,0
97,-1,642734,219062,1170918,65976,8146,585032,0
98,-1,642692,220205,1312871,66067,7343,656069,0
98,-1,643373,219801,1185032,66137,7178,591977,0
98,-1,645708,220023,1244655,66025,7963,621826,0
98,-1,638085,218305,1261812,65436,6862,630425,0
98,-1,641951,218954,1280973,66120,8216,639993,0
98,-1,642053,220408,1245527,66748,7409,622220,0
98,-1,644129,221538,1282809,67372,9001,640673,2
98,-1,643489,219815,1207562,66306,8065,603360,0
99,-1,638925,219336,1269847,65880,7826,634446,0
99,-1,643436,219964,1220216,66193,7543,609439,0
99,-1,644106,219605,1290539,65912,7862,644712,0
99,-1,640688,219672,1438421,65907,7441,718722,0
99,-1,642730,219416,1319178,66286,7983,659151,0
99,-1,639240,219254,1288402,66344,7905,643789,0
99,-1,643366,220190,1271237,66599,8048,634954,2
99,-1,661976,223864,1477148,69435,9106,737896,0
100,-1,639796,219544,1220999,65880,7114,609975,0
100,-1,640035,219107,1276986,65821,7665,637931,0
100,-1,643590,219635,1370173,65872,8227,684542,0
100,-1,637662,218506,1202130,65562,7238,600590,0
100,-1,644218,220476,1188921,66952,7447,593654,0
100,-1,642735,220735,1354226,66899,8924,676580,0
100,-1,642710,220600,1317780,66750,7546,658347,2
100,-1,641813,220011,1289645,66386,7666,644547,0
101,-1,646933,221990,1390783,66875,7940,694691,0
101,-1,640891,218861,1301948,65777,7156,650560,0
101,-1,647459,221736,1318984,66816,8645,658310,0
101,-1,642649,220961,1190813,66593,7270,594625,0
101,-1,663472,223467,1372885,69449,9004,685896,0
101,-1,647448,219967,1211552,66611,7636,605326,0
101,-1,644142,220617,1296581,66712,8126,647827,2
101,-1,643812,219345,1299793,66141,8074,649583,0
102,-1,636976,219092,1279960,65747,7511,639530,0
102,-1,647199,221862,1377354,67132,7883,687726,0
102,-1,643847,219860,1179912,65919,7600,589716,0
102,-1,641779,219084,1365718,65719,7435,681796,0
102,-1,642903,218910,1291134,66167,7727,644979,0
102,-1,646921,220024,1357715,66672,8854,678199,0
102,-1,643727,221802,1195490,67401,7869,596992,2
102,-1,645051,219367,1238433,66138,7801,618573,0
103,-1,637417,219309,1188828,65909,7524,593923,0
103,-1,636682,218008,1288058,65596,7824,643412,0
103,-1,642094,219519,1320313,65953,8220,659579,0
103,-1,642582,219353,1315077,65718,7728,657048,0
103,-1,641761,218528,1289511,65985,7254,644229,0
103,-1,646112,219554,1361502,66480,8653,680279,0
103,-1,641865,220398,1303969,66645,7792,651459,2
103,-1,648561,220642,1282658,66777,7475,640700,0
104,-1,642022,221763,1318808,66950,7552,658662,0
104,-1,638193,219296,1202698,65930,6985,600822,0
104,-1,642479,220143,1212090,66189,7341,605547,0
104,-1,647043,221470,1264337,66848,7340,631246,0
104,-1,639518,218539,1296765,65979,7636,647798,0
104,-1,643828,219702,1303384,66567,8126,651203,0
104,-1,643027,220360,1413190,66580,8094,706099,2
104,-1,645075,219619,1349709,66247,8038,674050,0
105,-1,660731,223357,1261794,68982,7670,630498,0
105,-1,645626,221350,1313049,66789,7883,655689,0
105,-1,644124,219969,1306310,66064,7526,652725,0
105,-1,640458,219280,1276559,65786,7186,637875,0
105,-1,645601,220127,1215232,66562,6927,607140,0
105,-1,644337,220001,1309674,66663,7673,653939,0
105,-1,645502,219942,1249683,66327,8290,624092,2
105,-1,644604,219822,1343265,66326,7092,671199,0
106,-1,642553,218770,1198492,65785,7014,598796,0
106,-1,640016,219169,1223070,65892,6461,610942,0
106,-1,645543,221116,1478510,66493,8590,738721,0
106,-1,644439,219969,1242648,66211,7656,620657,0
106,-1,640240,218561,1311567,66002,7636,655300,0
106,-1,642314,219526,1388893,66384,10399,693494,0
106,-1,638880,219482,1332469,66257,6976,665800,2
106,-1,642041,218986,1205232,66013,6950,602252,0
107,-1,641830,219082,1288245,65729,7173,643672,0
107,-1,641892,219866,1287146,66051,7332,643255,0
107,-1,640577,219674,1224056,66011,7285,611599,0
107,-1,642033,219425,1302747,65807,7132,650888,0
107,-1,661969,223365,1319839,69381,8205,659479,0
107,-1,660681,224042,1277919,69576,10282,638454,0
107,-1,638260,218548,1276385,65997,7611,637799,2
107,-1,665309,224073,1404770,69523,8517,701883,0
108,-1,638161,218583,1213217,65580,7590,606182,0
108,-1,638744,219123,1219482,65815,6777,609226,0
108,-1,642856,220026,1248475,66049,7245,623811,0
108,-1,639906,218796,1381413,65586,7411,690245,0
108,-1,639108,218774,1251225,66136,6947,624980,0
108,-1,647380,220991,1170592,66859,8859,584595,0
108,-1,639181,220086,1209710,66422,7793,604324,2
108,-1,642030,218813,1359648,65966,7581,679404,0
109,-1,642765,219199,1192618,65806,7944,595712,0
109,-1,646964,221455,1220574,66926,7841,609334,0
109,-1,643392,219939,1346516,65985,8161,672874,0
109,-1,664001,224104,1391983,69156,9045,695466,0
109,-1,641834,219170,1197291,66253,7614,598127,0
109,-1,646401,220791,1176958,66977,8750,587682,0
109,-1,640905,219521,1250110,66310,7582,624591,2
109,-1,643890,219282,1325433,66153,8256,662224,0
110,-1,647541,221169,1282946,66614,7842,640575,0
110,-1,663202,224144,1270438,69345,8137,634756,0
110,-1,639974,219588,1330209,65918,7633,664605,0
110,-1,637926,218604,1321148,65575,7437,660139,0
110,-1,641474,218933,1262804,66120,8270,630925,0
110,-1,640838,219118,1216095,66199,8728,607416,0
110,-1,645940,222060,1367630,67393,8627,682092,2
110,-1,645544,219934,1264896,66245,7503,632005,0
111,-1,639094,218627,1400398,65675,7817,699742,0
111,-1,642403,220028,1298317,66208,8843,648527,0
111,-1,641985,219909,1339636,66009,7661,669331,0
111,-1,638676,219498,1166046,65864,7006,582646,0
111,-1,643101,218859,1215418,66176,7830,607138,0
111,-1,647542,221872,1253477,67445,8478,625797,0
111,-1,641467,219786,1287244,66362,7842,643137,2
111,-1,647131,221379,1280271,67110,7912,638848,0
112,-1,661733,223442,1315007,69084,8788,657195,0
112,-1,637043,218125,1249322,65500,7147,624065,0
112,-1,641159,219958,1361356,66012,8087,680265,0
112,-1,639990,218833,1217977,65586,7642,608560,0
112,-1,641645,219047,1184749,66235,7340,591780,0
112,-1,645322,220916,1472767,66827,10432,735764,0
112,-1,645269,220370,1185856,66618,6863,592395,2
112,-1,644758,219121,1244379,66052,8150,621746,0
113,-1,641786,219729,1343340,66030,7970,671289,0
113,-1,645085,220845,1239110,66688,7414,618598,0
113,-1,640842,220270,1199937,66172,7086,599477,0
113,-1,644655,220760,1275315,66548,7909,636831,0
113,-1,661062,223527,1336485,69476,8476,667709,0
113,-1,640892,219675,1347854,66353,8428,673445,0
113,-1,642379,219838,1266578,66477,7543,632769,2
113,-1,641875,219141,1316399,66056,8611,657701,0
114,-1,641283,219590,1285676,65973,8023,642098,0
114,-1,641800,219887,1142675,66198,6971,570606,0
114,-1,665546,226170,1209135,69798,8517,603985,0
114,-1,663081,224201,1221362,69189,7943,610122,0
114,-1,640639,219445,1241231,66333,7806,620114,0
114,-1,648341,221426,1241184,67146,8056,619817,0
114,-1,645412,219760,1290652,66408,7344,644850,2
114,-1,647247,220988,1209513,66832,8756,603878,0
115,-1,643966,220759,1431677,66663,8655,714831,0
115,-1,640543,219765,1224612,66074,7283,611818,0
115,-1,641784,221528,1371487,66676,8968,685001,0
115,-1,639100,218796,1194782,65642,7946,596886,0
115,-1,639453,218812,1297358,66173,7900,648066,0
115,-1,644791,220465,1312597,66647,8539,655722,0
115,-1,644516,220039,1291915,66472,7703,645374,2
115,-1,643539,219741,1200346,66179,7658,599701,0
116,-1,645634,219517,1288571,66059,7702,643914,0
116,-1,639958,219301,1267277,65981,7471,633067,0
116,-1,646753,221439,1300462,66458,7504,649808,0
116,-1,641684,219280,1208197,65801,7442,603529,0
116,-1,642650,220192,1210363,66765,7790,604432,0
116,-1,643670,220483,1236837,66561,8216,617894,0
116,-1,639909,218857,1208644,66061,8118,603662,2
116,-1,642539,219655,1272898,66255,8436,635895,0
117,-1,643984,219558,1353380,66088,7624,676198,0
117,-1,637925,218819,1197878,65737,7117,598481,0
117,-1,643330,219795,1443047,65817,8901,721103,0
117,-1,643192,220383,1187494,66335,7423,593066,0
117,-1,638842,219052,1276847,66230,7607,637821,0
117,-1,642100,220007,1323640,66450,8622,661291,0
117,-1,646909,221769,1186652,67245,8218,592602,0
117,-1,643063,219786,1339986,66344,6944,669070,2
118,-1,644290,220032,1245885,66138,7567,622419,0
118,-1,642865,220241,1289235,66271,7644,644037,0
118,-1,644687,220572,1327683,66111,8265,663060,0
118,-1,638838,218603,1210014,65569,7382,604577,0
118,-1,641885,220428,1259361,66686,7009,629177,0
118,-1,672932,231262,1290940,70207,8310,644551,0
118,-1,663042,224474,1271185,69647,9730,635160,0
118,-1,642689,220045,1215777,66406,8691,607275,2
119,-1,647294,221188,1488331,66898,7748,743741,0
119,-1,643411,220977,1382918,66683,7674,689956,0
119,-1,647586,222212,1287167,66986,8250,642601,0
119,-1,640323,219721,1190809,65964,7468,594960,0
119,-1,662705,223123,1344581,69374,8794,671803,0
119,-1,663242,224571,1406527,69776,9495,702709,0
119,-1,643710,219374,1142336,66207,7714,570604,0
119,-1,642017,219270,1217933,66101,7977,608280,2
120,-1,641511,219460,1399853,66081,7138,699418,0
120,-1,637131,218941,1207112,65789,6919,603037,0
120,-1,642578,220248,1298479,66089,7759,648763,0
120,-1,643502,220392,1212374,66428,7321,605276,0
120,-1,642230,218621,1203911,66041,7817,601460,0
120,-1,638899,219473,1260399,66359,8073,629589,0
120,-1,643970,220449,1306690,66565,7745,652891,0
120,-1,641533,219750,1227464,66347,7954,613143,2
121,-1,640902,220053,1255254,66110,6901,626509,0
121,-1,642671,221231,1296157,66869,7638,647246,0
121,-1,642215,219906,1223529,65854,7481,611116,0
121,-1,662251,223992,1464472,69113,8267,731795,0
121,-1,640684,218695,1288322,66046,8260,643616,0
121,-1,641945,219402,1197819,66442,7781,598463,0
121,-1,640362,219427,1217213,66165,7918,608129,0
121,-1,646917,221870,1209602,67576,8453,603835,2
122,-1,663363,224377,1345851,69380,8689,672486,0
122,-1,658274,223756,1235115,69193,7357,617174,0
122,-1,641979,220244,1326676,66067,7577,662887,0
122,-1,638150,218716,1348314,65548,7240,673637,0
122,-1,642494,219067,1347475,66217,8138,672914,0
122,-1,643280,220228,1395047,66654,8366,697005,0
122,-1,644120,220133,1396258,66409,8683,697531,0
122,-1,642936,219111,1275525,66391,8287,637127,2
123,-1,640542,219785,1229306,65941,6602,614130,0
123,-1,638496,220002,1280316,66125,6672,639669,0
123,-1,643532,220873,1238548,66274,7851,618734,0
123,-1,641039,220131,1254613,66059,7506,626861,0
123,-1,641968,219067,1301376,66165,7826,650254,0
123,-1,643009,220129,1548163,66603,9006,773491,0
123,-1,664653,224941,1358745,69790,9307,678874,0
123,-1,643115,219213,1380541,66405,8388,689782,2
124,-1,637426,218486,1241056,65644,6645,620068,0
124,-1,642457,219655,1202246,66082,7076,600597,0
124,-1,643704,220087,1405768,65968,7977,702296,0
124,-1,638604,218782,1293812,65578,7952,646481,0
124,-1,641426,219314,1396049,66297,8077,697745,0
124,-1,642394,219886,1241265,66519,8034,620143,0
124,-1,652648,221113,1273217,66936,8327,635821,0
124,-1,640314,220674,1359613,67153,7986,678880,2
125,-1,638442,218969,1204071,65906,6648,601672,0
125,-1,640057,219804,1304209,66119,6838,651530,0
125,-1,641837,220320,1284787,66101,7884,641882,0
125,-1,645285,218622,1297390,65531,6816,648263,0
125,-1,641259,218687,1269834,66047,7837,634344,0
125,-1,642624,220529,1342343,66711,7572,670660,0
125,-1,648126,219928,1221399,66305,7376,610121,0
125,-1,638390,219149,1185835,66386,7673,592526,2
126,-1,656614,223027,1185014,69020,7770,592050,0
126,-1,662150,224555,1246083,69462,7915,622587,0
126,-1,643105,220929,1207253,66201,7012,603155,0
126,-1,646865,219761,1450232,65937,8032,724654,0
126,-1,642047,219523,1361067,66382,7833,680080,0
126,-1,639631,219253,1315015,66252,8266,657067,0
126,-1,647974,219696,1334488,66283,9161,666640,0
126,-1,634922,218122,1304663,66009,7864,651845,2
127,-1,640843,218436,1197648,65652,7737,598365,0
127,-1,638354,219435,1268645,66019,7299,633806,0
127,-1,640612,220340,1300051,66102,7580,649425,0
127,-1,647369,220522,1233762,66339,7632,615854,0
127,-1,636840,217973,1240751,65767,7415,619904,0
127,-1,644762,221317,1272378,67218,8269,635182,0
127,-1,647398,219833,1218662,66289,7757,608950,0
127,-1,640756,221078,1302431,67282,6844,650513,2
128,-1,641153,219151,1308907,65903,7222,654012,0
128,-1,638914,220051,1224934,66228,7003,611900,0
128,-1,645145,221810,1325107,66778,7704,661954,0
128,-1,641413,219003,1426386,65686,8863,712720,0
128,-1,645621,221444,1241455,67335,7508,619288,0
128,-1,662535,223889,1345409,69525,9071,672153,0
128,-1,672180,225191,1543049,69863,9095,770915,0
128,-1,639776,219115,1175047,66404,7371,587023,2
129,-1,636788,217768,1212859,65377,7417,606004,0
129,-1,639944,219399,1288228,65959,8132,643623,0
129,-1,641793,220577,1325920,66056,7848,662372,0
129,-1,643769,218909,1324132,65683,7387,661297,0
129,-1,659332,223418,1387948,69447,8554,693342,0
129,-1,642224,219832,1212595,66501,7646,605708,0
129,-1,647037,220035,1266646,66409,7490,632958,0
129,-1,638968,218895,1198244,66318,7258,599181,2
130,-1,656845,222965,1258408,68869,7676,628740,0
130,-1,643700,221415,1392469,66918,7611,695244,0
130,-1,644380,222457,1305502,67042,8095,651850,0
130,-1,642736,218826,1281978,65606,7919,640572,0
130,-1,639175,219036,1256280,66219,7784,627551,0
130,-1,641789,219785,1307342,66480,7903,653231,0
130,-1,648637,221006,1288055,66939,7783,643329,0
130,-1,636900,218738,1312574,66132,8150,656301,2
131,-1,638447,218634,1204014,65746,7093,601525,0
131,-1,659312,224258,1268930,69375,8074,633965,0
131,-1,647174,221552,1433817,66457,9487,716181,0
131,-1,660631,223241,1282366,68890,8205,640363,0
131,-1,636462,218229,1148424,65855,7310,573752,0
131,-1,640269,219388,1289461,66338,8143,644194,0
131,-1,646072,219455,1218357,66186,7380,608374,0
132,-1,638174,218855,1278423,65770,7798,638767,0
132,-1,639167,219356,1286327,65931,7706,642597,0
132,-1,645778,221484,1325346,66644,8480,661660,0
132,-1,643109,219293,1301382,65825,8455,650072,0
132,-1,637353,219044,1227514,66234,7371,613093,0
132,-1,641901,220333,1198642,66847,8727,598543,0
132,-1,647829,219987,1334515,66377,8165,666843,0
133,-1,636099,218781,1189708,65752,7166,594367,0
133,-1,637924,219684,1206970,66094,7568,602985,0
133,-1,661045,224970,1238897,69372,8182,619049,0
133,-1,641422,218798,1211434,65581,7788,604882,0
133,-1,644035,220293,1147912,66835,7755,573157,0
133,-1,641978,220280,1407046,66576,10144,702995,0
133,-1,651813,221885,1260821,67270,8597,629600,0
134,-1,642428,220318,1402499,66565,7553,700376,0
134,-1,636503,219843,1246795,66155,7576,622846,0
134,-1,642172,221444,1316522,66435,8251,657797,0
134,-1,642622,219598,1330866,65856,8856,664952,0
134,-1,640594,218659,1219232,66112,8199,609011,0
134,-1,636892,218783,1221896,66055,8336,610414,0
134,-1,669396,225167,1355869,69831,9818,677399,0
135,-1,640080,219800,1264525,66089,7860,631546,0
135,-1,638892,218650,1269409,65705,7414,634354,0
135,-1,640279,220652,1366872,66202,9503,682872,0
135,-1,639262,218747,1332747,65554,8621,665937,0
135,-1,640699,218619,1188481,66042,8167,593713,0
135,-1,657691,223449,1256868,69513,8699,627797,0
135,-1,646063,220089,1338886,66444,8761,668884,0
136,-1,642147,220290,1341569,66422,7819,669542,0
136,-1,639260,218823,1167590,65802,6624,583294,0
136,-1,644445,221571,1217871,66679,8585,608332,0
136,-1,643999,219123,1201569,65716,8235,600247,0
136,-1,640442,218996,1186024,66194,7566,592404,0
136,-1,636839,219300,1158685,66395,7485,578865,0
136,-1,646219,219783,1337053,66346,7097,667903,0
137,-1,637916,218976,1308413,65796,8228,653676,0
137,-1,659256,224030,1222885,69277,7756,610917,0
137,-1,638997,219887,1142669,65896,7644,570742,0
137,-1,648715,221373,1174331,66742,8298,586248,0
137,-1,660785,223680,1247378,69556,8525,623185,0
137,-1,638898,218821,1215949,66205,8506,607449,0
137,-1,647556,220063,1396557,66445,8488,697927,0
138,-1,636773,218703,1380539,65711,8488,689813,0
138,-1,642808,220012,1292445,66127,7403,645745,0
138,-1,641023,220779,1212555,66179,8275,605838,0
138,-1,640298,218605,1235092,65532,7029,617250,0
138,-1,640639,218937,1184116,66195,7517,591550,0
138,-1,640310,218959,1241161,66222,8417,619974,0
138,-1,647902,220694,1389963,66699,8382,694516,0
139,-1,638443,219105,1276278,65831,7980,637640,0
139,-1,639003,219426,1179524,66009,7010,589220,0
139,-1,662995,225355,1345370,69504,8797,672135,0
139,-1,647576,220893,1237549,66487,8267,617962,0
139,-1,640081,219133,1175443,66183,7161,587257,0
139,-1,639303,219071,1213167,66297,8335,606048,0
139,-1,645745,219604,1202204,66297,7718,600562,0
140,-1,636736,218720,1210337,65736,8560,604903,0
140,-1,639695,219616,1268460,66015,6992,633721,0
140,-1,640508,221165,1313298,66349,7767,656137,0
140,-1,640442,218939,1322986,65645,7894,660991,0
140,-1,635989,218463,1242137,65998,7874,620628,0
140,-1,637749,218553,1129182,66084,7526,564279,0
140,-1,645778,220037,1307481,66454,8241,653043,0
141,-1,634202,218363,1237207,65562,7572,618327,0
141,-1,642460,220937,1282683,66769,7315,640539,0
141,-1,637624,220764,1407570,66236,8376,703117,0
141,-1,638857,218618,1306660,65523,7704,652719,0
141,-1,638958,218583,1198446,66078,7423,598756,0
141,-1,639631,219617,1403315,66407,8584,700889,0
141,-1,672108,229268,1341193,69190,8069,670124,0
142,-1,635342,218431,1190073,65608,6886,594699,0
142,-1,640555,220485,1291157,66284,7413,645049,0
142,-1,646085,220976,1292622,66279,7061,645922,0
142,-1,646377,221841,1314286,66882,7681,656271,0
142,-1,641598,219527,1296324,66329,8081,647622,0
142,-1,638642,219198,1298835,66042,8473,648927,0
142,-1,665090,224468,1389399,69726,8998,694111,0
143,-1,635358,218580,1284833,65678,7715,642011,0
143,-1,643886,220131,1364505,66366,8144,681386,0
143,-1,650000,220811,1188580,66246,7038,593797,0
143,-1,661322,223312,1254739,68936,8311,627048,0
143,-1,638564,219098,1246010,66236,7810,622546,0
143,-1,637488,219316,1321823,66133,8772,660281,0
143,-1,645644,219793,1251959,66448,7706,625331,0
144,-1,635864,218627,1191621,65702,7085,595296,0
144,-1,642144,219891,1258177,66174,7178,628596,0
144,-1,647747,220029,1303563,65901,7669,651330,0
144,-1,641917,219158,1287269,65745,7872,643052,0
144,-1,636147,218274,1203866,65896,7449,601382,0
144,-1,638897,219137,1313908,66087,7898,656352,0
144,-1,644784,219787,1374449,66454,8431,686731,0
145,-1,642492,221643,1292530,66929,8211,645442,0
145,-1,641604,219975,1337346,66182,7142,668176,0
145,-1,654796,223083,1360016,67246,8286,679160,0
145,-1,644758,220766,1240484,66464,7434,619488,0
145,-1,640274,219831,1290261,66489,7748,644609,0
145,-1,635417,217927,1216555,65590,7604,607942,0
145,-1,644318,219843,1326055,66427,7858,662425,0
146,-1,635876,219394,1223522,65971,7453,611314,0
146,-1,640174,219714,1267111,66056,7131,633006,0
146,-1,649296,221233,1297847,66370,8259,648508,0
146,-1,637825,218545,1308415,65520,6952,653606,0
146,-1,641436,220155,1182375,66776,6637,590306,0
146,-1,638782,219560,1436412,66231,8547,717612,0
146,-1,642839,219201,1294253,66203,8261,646759,0
147,-1,635311,218781,1269257,65673,7503,634140,0
147,-1,643520,221464,1323849,67007,7557,661010,0
147,-1,650257,221461,1589303,66400,9569,794206,0
147,-1,641212,219182,1190436,65766,7366,594675,0
147,-1,637695,218978,1294940,66205,6727,646978,0
147,-1,637055,218794,1437125,65955,9243,717890,0
147,-1,649001,221754,1259916,67422,7960,629069,0
148,-1,641398,218651,1373709,65792,9293,686175,0
148,-1,640507,219922,1251652,66181,7026,625297,0
148,-1,647279,220811,1282557,66173,7781,640724,0
148,-1,638468,218498,1286428,65507,7304,642733,0
148,-1,636737,218794,1320471,66109,7339,659674,0
148,-1,658868,224037,1639391,69510,10746,819201,0
148,-1,664725,224130,1378542,69651,9260,688787,0
149,-1,641511,219562,1300663,66020,7722,649761,0
149,-1,634134,218229,1177530,65618,7033,588239,0
149,-1,645498,220394,1282572,66101,7927,640767,0
149,-1,638503,218997,1393387,65747,7705,696190,0
149,-1,636413,218918,1258514,66065,7988,628816,0
149,-1,635783,218864,1701559,66100,10307,850097,0
149,-1,645497,220586,1219902,66661,8236,609281,0
150,-1,637016,218243,1224669,65508,7118,611654,0
150,-1,638429,219189,1193863,65883,6838,596396,0
150,-1,647055,220738,1222468,66299,7520,610742,0
150,-1,642770,219127,1321013,65765,7655,659938,0
150,-1,666565,223864,1364812,69583,8131,681838,0
150,-1,635584,218762,1292127,66009,8318,645552,0
150,-1,643378,219867,1324814,66415,8240,661764,0
151,-1,645412,220910,1331300,66742,8759,664866,0
151,-1,660033,223989,1237372,69297,7556,618271,0
151,-1,643872,220053,1406466,65887,8000,702777,0
151,-1,648122,220874,1242659,66485,7748,620483,0
151,-1,642096,218603,1273268,66085,7720,636122,0
151,-1,637284,219815,1200441,66534,7696,599578,0
151,-1,647226,219835,1212306,66434,7477,605681,0
152,-1,637895,218567,1206222,65727,7465,602504,0
152,-1,637261,219356,1244886,65984,6885,621958,0
152,-1,647801,220679,1288778,66222,6692,643922,0
152,-1,641874,218748,1250113,65648,7803,624606,0
152,-1,640803,218573,1203596,66019,7211,601286,0
152,-1,636092,219105,1302658,66126,7984,650899,0
152,-1,647944,219969,1328235,66462,8240,663567,0
153,-1,637380,218308,1283053,65581,7896,641097,0
153,-1,642438,221272,1191363,66783,7009,594841,0
153,-1,645524,220238,1279879,66248,7745,639166,0
153,-1,640944,218466,1289936,65453,8053,644547,0
153,-1,643697,219436,1278775,66352,7447,638767,0
153,-1,633712,218573,1228699,65961,8019,613620,0
153,-1,651043,221889,1585428,67450,10079,791524,0
154,-1,636607,218252,1349700,65581,7834,674224,0
154,-1,637656,220118,1341908,66238,6812,670393,0
154,-1,666281,224818,1268053,69539,8513,633513,0
154,-1,640592,218645,1400577,65539,7821,699820,0
154,-1,644153,219996,1223829,66723,7337,611213,0
154,-1,648798,220080,1198158,66769,7496,598292,0
154,-1,666532,224647,1344619,69815,8407,671842,0
155,-1,640193,218842,1305901,65754,8037,652449,0
155,-1,635553,219295,1308673,65919,6777,653915,0
155,-1,645632,221276,1196243,66827,7593,597324,0
155,-1,647939,221689,1245124,66902,8162,621673,0
155,-1,638385,218182,1256281,65893,7229,627521,0
155,-1,666679,223693,1405736,69487,9284,702406,0
155,-1,648682,220661,1218504,66722,7989,608841,0
156,-1,640452,219348,1292737,65990,8025,645582,0
156,-1,639839,219163,1316954,65930,7824,657899,0
156,-1,648255,220939,1159404,66504,7246,579267,0
156,-1,640842,218926,1317386,65707,7542,658087,0
156,-1,641353,218869,1256504,66171,7393,627711,0
156,-1,645533,219172,1312357,66172,8661,655690,0
156,-1,644452,219225,1324393,66207,7691,661842,0
157,-1,646066,221670,1310228,67041,8219,654083,0
157,-1,641335,220042,1272076,66152,7433,635599,0
157,-1,644230,219769,1401504,66133,9726,700227,0
157,-1,639638,218693,1297411,65561,6824,648123,0
157,-1,644035,219604,1284586,66409,7897,641857,0
157,-1,644963,218835,1187044,66124,7871,593029,0
157,-1,644438,219701,1244480,66415,7224,621433,0
158,-1,658037,223036,1295943,68980,8707,647558,0
158,-1,642239,220662,1346754,66597,7706,672570,0
158,-1,644629,220193,1355129,66275,7844,677178,0
158,-1,668686,229129,1322016,68936,7438,660193,0
158,-1,639237,218293,1268449,65933,6938,633862,0
158,-1,646844,220061,1329871,66494,8593,664459,0
158,-1,645980,220298,1275042,66749,7757,636398,0
159,-1,638266,218385,1287666,65631,7207,643267,0
159,-1,640508,219354,1296865,65880,7331,647860,0
159,-1,644517,220835,1296369,66621,7705,647413,0
159,-1,641683,219079,1212875,65731,7782,605940,0
159,-1,637091,218495,1284292,65941,7421,641696,0
159,-1,644429,219196,1317363,66149,8589,658160,0
159,-1,644807,219301,1198112,66243,7471,598543,0
160,-1,646158,221392,1282062,66870,7572,640066,0
160,-1,640202,219806,1254465,66152,7230,626743,0
160,-1,641343,219768,1344354,66076,8499,671734,0
160,-1,645676,220963,1282214,66614,7784,640307,0
160,-1,639672,219186,1218403,66267,7982,608583,0
160,-1,648808,220154,1302169,66518,8608,650474,0
160,-1,649855,221658,1261695,67323,8386,630145,0
161,-1,638768,218804,1159336,65794,7534,579262,0
161,-1,637771,219175,1210469,65913,7098,604786,0
161,-1,644586,220436,1258450,66337,7858,628779,0
161,-1,639182,219044,1189638,65718,7685,594307,0
161,-1,640692,220189,1217405,66684,6776,608043,0
161,-1,644021,219137,1302255,66088,8380,650537,0
161,-1,646837,220529,1588204,66751,10171,793015,0
162,-1,637550,218790,1181067,65743,6895,590056,0
162,-1,638105,219856,1404564,66158,7939,701711,0
162,-1,644457,220140,1208306,66167,6937,603677,0
162,-1,640325,219529,1179672,65878,7752,589293,0
162,-1,642062,218950,1297542,66094,8061,648221,0
162,-1,663695,223670,1373827,69464,9114,686429,0
162,-1,648009,220746,1275157,66953,8630,636810,0
162,-1,636813,218704,1284676,66076,8267,641881,0
163,-1,641748,221150,1336732,66802,7622,667586,0
163,-1,637989,219008,1201042,65808,7263,600132,0
163,-1,668700,225652,1275554,69819,8078,637303,0
163,-1,638358,219123,1140262,65749,7347,569505,0
163,-1,640616,218810,1206633,66143,7703,602853,0
163,-1,643104,219704,1224554,66377,7728,611455,0
163,-1,644503,220210,1239652,66578,7903,619241,0
163,-1,644753,219991,1309742,66534,7920,654323,0
164,-1,636863,218439,1197520,65625,7034,598310,0
164,-1,638766,219558,1292934,66022,7625,645970,0
164,-1,647657,220903,1285924,66496,7085,642444,0
164,-1,663146,223929,1249655,69100,8180,624240,0
164,-1,641159,219282,1284798,66234,7814,641966,0
164,-1,640289,218487,1312817,65953,8503,656113,0
164,-1,642166,219365,1374942,66235,8712,686847,0
164,-1,641498,218571,1248772,65948,7597,623744,0
165,-1,637818,218683,1352624,65694,7919,675863,0
165,-1,637316,219596,1216121,65998,7505,607544,0
165,-1,643974,219644,1233344,66036,7343,616266,0
165,-1,641690,219050,1205492,65658,7395,602159,0
165,-1,661088,223584,1363488,69503,8845,681298,0
165,-1,642457,218943,1265386,66156,8523,632229,0
165,-1,646125,221545,1245245,67298,8251,621549,0
165,-1,642825,219338,1315970,66264,7346,657621,0
166,-1,639217,219754,1308196,66273,7956,653304,0
166,-1,640522,220438,1326944,66539,7406,662737,0
166,-1,643089,219811,1299696,66035,7436,649360,0
166,-1,638510,218580,1293072,65536,7267,645967,0
166,-1,642270,219963,1360947,66482,7516,679874,0
166,-1,646836,219610,1252414,66555,8125,625245,0
166,-1,646906,220176,1386282,66527,8325,692676,0
166,-1,662734,223894,1451959,69600,8834,725118,0
167,-1,639005,219491,1181510,66021,6359,590384,0
167,-1,636180,219565,1283437,66062,7070,641157,0
167,-1,648698,221864,1335952,66950,7813,667412,0
167,-1,642050,220317,1283568,66331,7186,640986,0
167,-1,640411,219598,1278635,66358,8072,638797,0
167,-1,644430,219061,1706636,66249,10468,852814,0
167,-1,643285,219342,1332498,66259,7399,665434,0
167,-1,640288,218911,1347709,66073,8309,673881,0
168,-1,640503,220696,1321093,66669,7564,659743,0
168,-1,638234,220758,1287659,66659,7633,643099,0
168,-1,642450,220061,1431723,66072,7916,715257,0
168,-1,641308,220417,1259308,66398,7082,628497,0
168,-1,639012,219586,1196173,66338,7477,597574,0
168,-1,666120,223604,1333066,69493,8891,665862,0
168,-1,644690,220373,1251005,66554,7740,624858,0
168,-1,642922,219963,1364154,66663,8390,682136,0
169,-1,651851,221905,1311308,68633,7522,655148,0
169,-1,639433,219405,1280429,65884,7163,639735,0
169,-1,643718,220321,1276655,66147,7445,637979,0
169,-1,659794,223869,1277122,69102,8133,638115,0
169,-1,645720,221327,1201618,67229,7128,599940,0
169,-1,643450,219173,1255603,66194,7891,627281,0
169,-1,664534,224443,1381409,69531,9165,690257,0
169,-1,640207,219210,1314830,66231,7655,657757,0
170,-1,639790,218928,1257650,65836,7210,628366,0
170,-1,669647,230933,1355390,69826,7529,676650,0
170,-1,663293,224376,1319614,69308,7816,659442,0
170,-1,641988,220270,1289585,66306,7633,643957,0
170,-1,639193,219168,1246775,66278,7287,622796,0
170,-1,645755,220576,1223771,66894,7643,611189,0
170,-1,640880,219643,1333715,66176,8787,666231,0
170,-1,637584,218297,1204778,65887,7650,602430,0
171,-1,637792,218747,1194391,65713,6744,596737,0
171,-1,659610,224417,1268615,69410,7917,633756,0
171,-1,647404,221018,1309558,66642,7882,654176,0
171,-1,639342,219167,1210246,65778,6722,604611,0
171,-1,637140,218781,1283703,66154,7888,641334,0
171,-1,640905,218946,1306690,66185,8180,652823,0
171,-1,645792,220410,1309253,66581,7861,654110,0
171,-1,637857,219128,1141290,66235,7783,570688,0
172,-1,657839,222941,1292724,68874,8536,646084,0
172,-1,636714,218917,1193779,65807,7198,596390,0
172,-1,643327,219668,1186574,65877,7371,592866,0
172,-1,635612,218125,1266281,65336,7396,632630,0
172,-1,636773,218568,1277973,66032,7130,638486,0
172,-1,642572,218867,1212984,66102,8030,606033,0
172,-1,647929,221398,1447702,67120,8859,723002,0
172,-1,639828,220266,1218341,66798,8626,609224,0
173,-1,637375,218684,1261005,65755,6709,629984,0
173,-1,637428,219662,1513912,66090,8287,756405,0
173,-1,644307,220512,1158549,66156,7523,578792,0
173,-1,659580,224141,1255200,69183,8185,627207,0
173,-1,641781,221041,1211881,67157,7328,605248,0
173,-1,642348,218738,1396198,66001,8198,697672,0
173,-1,639004,218634,1288895,65991,8053,644023,0
173,-1,643268,219506,1198807,66365,7694,599460,0
174,-1,636905,218552,1362498,65641,7584,680923,0
174,-1,636290,219606,1296775,66013,7578,647951,0
174,-1,663615,224295,1175358,69371,8184,587145,0
174,-1,637089,219388,1284975,65805,7477,641945,0
174,-1,655209,223087,1341659,69270,8492,670276,0
174,-1,639006,218337,1313069,65881,8482,655992,0
174,-1,642980,220347,1224790,66536,7324,612051,0
174,-1,640797,218775,1207893,66126,7319,603940,0
175,-1,637524,219141,1345663,65906,7188,672382,0
175,-1,641798,220414,1390866,66266,8378,694710,0
175,-1,641231,219529,1192223,66022,8036,595612,0
175,-1,645842,220062,1197441,66055,7162,598207,0
175,-1,638975,218515,1324215,66024,7508,661539,0
175,-1,644342,220274,1280506,66754,7377,639551,0
175,-1,643119,220622,1323304,66569,8050,661153,0
175,-1,641284,218827,1218092,66096,7395,609092,0
176,-1,634480,218435,1254923,65663,6568,626983,0
176,-1,641119,220940,1310721,66698,7813,654610,0
176,-1,640519,219364,1183497,65922,7463,591211,0
176,-1,642270,218579,1295744,65523,8325,647426,0
176,-1,645654,221510,1220199,67279,7168,609104,0
176,-1,640145,219067,1256118,66207,7886,627555,0
176,-1,641507,219859,1261468,66332,7716,629540,0
176,-1,644490,220627,1328936,67044,7655,664498,0
177,-1,635699,218761,1183576,65698,6925,591318,0
177,-1,636419,219489,1353477,65963,8022,676048,0
177,-1,640442,218592,1209763,65652,8179,604446,0
177,-1,641386,218875,1163048,65641,7714,580975,0
177,-1,645251,220578,1152598,66836,7825,575615,0
177,-1,639058,219062,1283644,66118,8478,641268,0
177,-1,645278,221588,1264298,67182,8397,631247,0
177,-1,640466,219018,1271497,66200,7640,635781,0
178,-1,657527,222966,1289082,68975,8042,644025,0
178,-1,636778,220093,1297817,66198,8044,648583,0
178,-1,639110,219045,1435882,65813,8971,717480,0
178,-1,639397,219087,1263787,65698,7872,631290,0
178,-1,641100,219444,1223430,66347,7921,611167,0
178,-1,645014,219246,1354287,66250,10276,675903,0
178,-1,649732,220187,1352548,66509,8220,675609,0
178,-1,640113,218957,1250458,66187,7693,625281,0
179,-1,635540,218720,1170451,65762,6312,584734,0
179,-1,639600,220822,1322785,66628,8212,660165,0
179,-1,645615,221491,1320468,67007,7922,659430,0
179,-1,641509,218841,1178055,65664,7486,588451,0
179,-1,637051,218350,1258598,65954,8052,628833,0
179,-1,643193,218571,1208803,66040,8078,603943,0
179,-1,669195,225160,1304809,69927,9304,651916,0
179,-1,638883,218989,1247847,66128,7385,623751,0
180,-1,633358,218230,1266919,65564,6978,633044,0
180,-1,639677,221643,1319083,66981,8404,658889,0
180,-1,659063,223303,1372482,68975,7915,685836,0
180,-1,639683,218947,1327472,65700,8522,663166,0
180,-1,637505,218402,1226209,66034,7847,612543,0
180,-1,644928,219700,1225585,66423,8421,611906,0
180,-1,649894,221250,1297514,66861,8786,648019,0
180,-1,641441,218644,1246912,66029,8630,623170,0
181,-1,635036,218386,1169026,65632,6608,584010,0
181,-1,643777,219515,1398567,66047,8483,698380,0
181,-1,640968,220383,1499930,66160,8558,749381,0
181,-1,640400,219392,1224104,65825,7672,611464,0
181,-1,639275,219207,1344084,66230,8084,671468,0
181,-1,646053,220145,1187700,66759,7967,592829,0
181,-1,647268,220789,1325932,66668,8338,662287,0
181,-1,643757,220292,1377193,66879,9364,688211,0
182,-1,633814,218732,1206154,65774,6880,602330,0
182,-1,641392,218996,1301406,65768,8679,650020,0
182,-1,639125,219204,1211922,65753,7485,605556,0
182,-1,641835,219093,1298594,65741,8092,648692,0
182,-1,644632,221824,1339447,67449,7907,668855,0
182,-1,646226,220462,1278903,66952,8438,638390,0
182,-1,645870,220710,1359035,66593,8327,679178,0
182,-1,662539,224229,1379048,69767,9127,689203,0
183,-1,634924,219025,1112672,65814,7142,555865,0
183,-1,643162,220226,1390945,66264,8562,694937,0
183,-1,639441,219478,1277189,65904,7435,638130,0
183,-1,639586,218622,1285185,65536,7827,642044,0
183,-1,659177,223436,1309297,69394,8715,654277,0
183,-1,643972,218629,1362787,66027,8616,680924,0
183,-1,669124,225436,1328576,69973,8398,663849,0
183,-1,639309,218734,1429751,66220,8307,714559,0
184,-1,658553,223102,1222741,68926,8216,610858,0
184,-1,639403,219295,1538461,65886,9092,768428,0
184,-1,643162,220960,1321443,66602,7574,659967,0
184,-1,641750,219266,1299221,65820,8219,649162,0
184,-1,637460,218750,1238473,66073,7047,618749,0
184,-1,640877,218601,1222406,66018,8168,610695,0
184,-1,645125,219853,1295601,66229,7288,647429,0
184,-1,637645,218779,1306090,66234,7235,653034,0
185,-1,635426,218076,1131482,65558,6592,565198,0
185,-1,641901,219458,1466683,66028,8573,732789,0
185,-1,639074,219645,1220740,65955,7400,609903,0
185,-1,640100,218887,1274963,65627,8316,636858,0
185,-1,636464,218778,1317139,66137,7984,658024,0
185,-1,641696,218887,1296855,66133,8387,648071,0
185,-1,646988,220953,1287389,66683,7179,643236,0
185,-1,642069,220088,1293428,66853,7730,646737,0
186,-1,638892,219503,1120780,65990,7113,559727,0
186,-1,643153,220045,1163151,66188,7375,580892,0
186,-1,637354,219022,1289583,65652,7852,644271,0
186,-1,638641,218664,1308190,65539,7951,653588,0
186,-1,635722,218869,1300860,66178,7567,649914,0
186,-1,640325,218901,1298180,66112,8088,648484,0
186,-1,644439,219953,1184135,66282,5927,591657,0
186,-1,641373,220730,1286492,67143,7368,643327,0
187,-1,634664,219225,1191790,65860,6895,595339,0
187,-1,666358,225301,1323165,70203,8386,660797,0
187,-1,665503,224116,1256279,69157,8455,627760,0
187,-1,662044,224446,1191720,69250,7863,595385,0
187,-1,635667,218553,1323611,66016,8291,661286,0
187,-1,643505,220261,1235759,66777,8731,617003,0
187,-1,643120,219914,1315258,66275,7169,657180,0
187,-1,659566,223947,1315384,69730,8537,657677,0
188,-1,634239,218348,1328004,65537,7901,663370,0
188,-1,639389,219501,1255184,66039,7622,627183,0
188,-1,643368,219238,1243553,65722,6962,621332,0
188,-1,639761,219638,1363090,65919,8030,680718,0
188,-1,640007,218714,1233679,66074,8156,616314,0
188,-1,641741,218492,1368574,65930,8441,683890,0
188,-1,643071,220513,1277368,66779,6798,637510,0
188,-1,637728,217899,1287381,65866,7567,643731,0
189,-1,633430,218189,1286823,65449,7478,643028,0
189,-1,640529,219790,1154037,66132,7545,576307,0
189,-1,645313,220968,1307701,66577,7392,653142,0
189,-1,635664,218434,1322714,65404,7858,660761,0
189,-1,640347,219084,1307273,66173,8483,653131,0
189,-1,648210,221655,1229919,67349,7728,613861,0
189,-1,663658,224781,1412578,69732,8376,705684,0
189,-1,641954,219611,1340300,66705,7912,670201,0
190,-1,633644,218542,1256929,65583,8279,627650,0
190,-1,642943,220447,1270959,66339,7479,634907,0
190,-1,644205,219974,1294379,66017,7196,646744,0
190,-1,644653,221398,1269316,66720,7772,633992,0
190,-1,660831,223417,1437954,69464,9205,718539,0
190,-1,642346,219221,1306201,66199,7134,652673,0
190,-1,641956,219501,1310741,66296,7328,654855,0
190,-1,640767,219599,1352147,66535,7335,676129,0
191,-1,640970,221014,1365275,66631,8290,681586,0
191,-1,638633,219170,1440701,65942,7813,719688,0
191,-1,643589,220112,1219264,66109,7392,609179,0
191,-1,635855,218395,1242654,65450,7430,620250,0
191,-1,637415,218674,1369197,66111,8462,684024,0
191,-1,640614,219258,1353371,66241,8204,675930,0
191,-1,645588,220586,1263063,66814,7584,630884,0
191,-1,636776,218354,1178655,66103,7331,589366,0
192,-1,634004,218625,1362127,65564,7671,680655,0
192,-1,638492,219596,1314914,65951,7554,657031,0
192,-1,641686,219336,1261981,65831,7461,630536,0
192,-1,636720,219094,1328195,65705,8311,663375,0
192,-1,638714,218890,1287522,66130,8409,643125,0
192,-1,641388,218725,1292683,66026,6791,645910,0
192,-1,642442,219398,1189995,66129,6906,594555,0
192,-1,638845,218645,1280140,66216,8006,640123,0
193,-1,635823,220471,1387008,66394,7216,692761,0
193,-1,639620,219867,1227438,66170,7214,613152,0
193,-1,667887,225571,1310222,70198,8382,654715,0
193,-1,636146,218136,1239346,65469,7888,619191,0
193,-1,643073,220771,1174595,66954,8219,586522,0
193,-1,640596,219025,1191075,66217,6613,595136,0
193,-1,647224,221497,1192937,67144,7483,595709,0
193,-1,637758,218378,1202804,66019,7944,601448,0
194,-1,641533,218336,1195748,65416,7055,597429,0
194,-1,636515,219289,1199498,65965,7512,599234,0
194,-1,644322,220574,1306841,66238,7879,652916,0
194,-1,661752,223771,1244527,69040,9076,621724,0
194,-1,635853,218386,1294680,65961,7973,646727,0
194,-1,640992,219464,1273070,66307,6838,636086,0
194,-1,667597,228768,1337890,68929,8091,668555,0
194,-1,644241,221254,1305129,67304,8542,652607,0
195,-1,648154,221670,1316388,66862,8204,657384,0
195,-1,639109,219710,1451629,66053,7648,725386,0
195,-1,642046,219094,1224848,65730,6817,611996,0
195,-1,640871,218786,1151455,65567,7462,575330,0
195,-1,635033,218480,1164465,66037,7478,581683,0
195,-1,643915,220035,1170992,66738,7148,584683,0
195,-1,641633,219311,1237828,66160,7561,618310,0
195,-1,659223,223509,1321460,69585,8641,660433,0
196,-1,661637,223182,1329215,68948,8890,664025,0
196,-1,640514,219601,1248919,66055,6533,623993,0
196,-1,645560,221058,1427145,66605,7571,712765,0
196,-1,639926,219050,1247506,65714,8065,623091,0
196,-1,641439,220956,1256435,67125,7492,627393,0
196,-1,640429,219213,1234384,66232,7616,616690,0
196,-1,643334,220330,1338069,66537,7814,668512,0
196,-1,639382,218632,1278933,65998,7423,639047,0
197,-1,639770,218154,1293096,65555,7976,646120,0
197,-1,641504,220427,1314934,66523,7768,656758,0
197,-1,640146,219243,1312414,65735,7026,655756,0
197,-1,644595,221293,1234216,66594,7392,616182,0
197,-1,636472,218568,1306485,66071,7382,652639,0
197,-1,638564,218893,1180547,66026,7651,589794,0
197,-1,643597,220378,1280535,66493,8140,639864,0
197,-1,638742,218277,1197581,65877,7139,598389,0
198,-1,637980,217967,1201324,65458,7306,600143,0
198,-1,639464,219555,1304990,66004,7121,652032,0
198,-1,640778,218772,1268020,65628,7503,633580,0
198,-1,640701,219499,1221932,65827,7972,610377,0
198,-1,635701,218557,1267100,65989,7294,633102,0
198,-1,640366,219363,1239803,66147,8041,619456,0
198,-1,643233,220189,1217109,66490,8176,607923,0
198,-1,638179,218417,1175764,65902,6429,587485,0
199,-1,640362,218806,1233384,65763,7814,616229,0
199,-1,638393,219840,1279429,66158,7194,639265,0
199,-1,644690,220973,1305837,66648,7285,651870,0
199,-1,638695,219377,1170207,65686,6944,584619,0
199,-1,636771,218894,1173920,66249,7637,586377,0
199,-1,663821,223725,1249739,69413,8342,624397,0
199,-1,639174,219080,1329142,66094,8204,664216,0
199,-1,636835,218366,1315517,65983,7314,657276,0
200,-1,639247,218657,1139538,65593,7173,569432,0
200,-1,640668,219890,1290319,66416,8629,644056,0
200,-1,661627,224293,1247598,69237,7449,623380,0
200,-1,668792,229055,1317399,68570,8398,658228,0
200,-1,635584,219409,1272686,66349,8000,635780,0
200,-1,643977,219160,1216017,66081,7429,607388,0
200,-1,644874,221249,1407296,67010,7997,702067,0
200,-1,638348,218965,1303368,66117,6726,651230,0
201,-1,646855,221213,1197146,66719,8197,597688,0
201,-1,639499,220319,1422690,66504,8010,710262,0
201,-1,641589,219952,1321461,66050,7088,660216,0
201,-1,638733,219252,1276770,65718,7470,637874,0
201,-1,639472,218724,1171074,66041,7279,584996,0
201,-1,642992,219114,1302083,66101,7365,650573,0
201,-1,639073,219954,1326772,66381,8201,663013,0
201,-1,643726,220528,1403771,66877,7313,701117,0
202,-1,639987,218774,1267332,65665,6606,633204,0
202,-1,639513,220571,1346985,66663,8061,672668,0
202,-1,639445,219741,1237251,65967,6755,618146,0
202,-1,642645,220164,1202457,66030,6857,600755,0
202,-1,644034,219288,1323333,66229,8525,660999,0
202,-1,645794,219540,1248757,66284,7386,623869,0
202,-1,643132,219040,1359086,66073,8355,678761,0
202,-1,661130,224033,1338059,69610,8035,668565,0
203,-1,638475,218431,1319601,65534,6840,659388,0
203,-1,657588,224233,1285262,69350,8510,642166,0
203,-1,644943,220358,1191241,66134,7373,595015,0
203,-1,638962,219188,1313738,65647,7669,656427,0
203,-1,645664,220024,1269202,66734,8680,633778,0
203,-1,644804,219412,1283054,66329,7480,641048,0
203,-1,647655,221263,1273491,67103,8491,635615,0
203,-1,637761,219045,1209658,66211,7546,604349,0
204,-1,638582,218838,1267495,65668,6552,633196,0
204,-1,642575,219553,1299119,66003,8182,649045,0
204,-1,644217,220117,1234922,66004,8088,616877,0
204,-1,640409,219708,1317689,65797,7840,658421,0
204,-1,642288,219507,1205433,66319,8497,602093,0
204,-1,646440,220290,1224222,66805,7342,611454,0
204,-1,666519,224779,1376996,69763,9922,688070,0
204,-1,643979,219680,1274812,66448,7262,636916,0
205,-1,639877,218951,1254572,65719,7487,626742,0
205,-1,643748,221082,1351060,66841,7677,674677,0
205,-1,645543,221424,1196531,66718,7716,597507,0
205,-1,643390,221534,1307939,66708,8029,653192,0
205,-1,639186,218088,1185913,65867,7522,592450,0
205,-1,641553,218731,1179947,65998,6973,589294,0
205,-1,644169,220218,1380568,66484,8647,689828,0
205,-1,640292,218099,1181123,65828,7052,590070,0
206,-1,658889,223274,1280962,68947,8211,640087,0
206,-1,660488,224059,1267710,69389,8013,633368,0
206,-1,638778,218794,1126006,65592,7385,562518,0
206,-1,659771,224641,1382227,69221,9462,690557,0
206,-1,642882,219262,1367839,66285,8426,683337,0
206,-1,644430,220311,1223790,66894,7887,611162,0
206,-1,642034,219779,1472775,66365,7940,735383,0
206,-1,642110,219119,1297157,66242,6853,648052,0
207,-1,641215,218589,1172365,65621,7457,585737,0
207,-1,637226,219391,1229924,66057,7149,614438,0
207,-1,640004,219672,1142179,65913,7569,570592,0
207,-1,641872,219793,1402731,65860,8345,700850,0
207,-1,640412,218389,1329121,65898,7787,664020,0
207,-1,662004,223099,1357983,69335,9182,678568,0
207,-1,638492,218721,1319979,65923,7419,659481,0
207,-1,639855,218325,1281869,65959,7190,640524,0
208,-1,637842,218656,1162664,65567,7173,580895,0
208,-1,640629,220669,1353214,66651,8233,675734,0
208,-1,640373,220176,1225044,66086,7912,612041,0
208,-1,640306,219501,1271007,65737,7772,635138,0
208,-1,640528,218791,1275733,66143,7872,637231,0
208,-1,640401,218937,1361930,65994,7345,680229,0
208,-1,666514,224581,1385505,69730,9388,692314,0
208,-1,640684,219072,1261924,66226,7405,630501,0
209,-1,646031,221780,1276673,66830,7568,637604,0
209,-1,640659,220661,1387182,66754,7753,692621,0
209,-1,662269,224373,1282758,69288,8328,640939,0
209,-1,662367,224817,1257390,69264,7834,628290,0
209,-1,640868,219394,1246259,66315,8354,622607,0
209,-1,644147,218915,1203730,66003,7209,601245,0
209,-1,644996,220516,1318575,66606,8087,658797,0
209,-1,641268,218977,1298105,66110,7560,648196,0
210,-1,638803,219188,1176140,65758,6659,587560,0
210,-1,655310,223012,1243177,69064,8243,621119,0
210,-1,637751,219024,1170600,65648,6877,584908,0
210,-1,639123,219481,1310415,65768,7439,654745,0
210,-1,641703,219740,1325743,66428,8204,662360,0
210,-1,643798,219336,1266341,66190,7295,632686,0
210,-1,643447,220110,1305261,66464,8026,652296,0
210,-1,646139,221101,1298677,67124,8438,648488,0
211,-1,637269,218662,1267962,65541,7094,633533,0
211,-1,638814,220126,1316731,66434,8116,657634,0
211,-1,639313,219621,1197863,65961,7111,598426,0
211,-1,640125,219640,1174298,65754,7286,586429,0
211,-1,639745,219126,1341435,66261,8418,670201,0
211,-1,639868,218251,1330488,65799,7246,664778,0
211,-1,639383,219011,1362490,66063,8687,680798,0
211,-1,661218,223757,1294545,69542,8567,646882,0
212,-1,639575,219325,1183704,65815,7244,591374,0
212,-1,634843,218853,1329911,65848,8063,664492,0
212,-1,639830,220094,1322568,66029,7517,660780,0
212,-1,661560,224641,1262925,69073,8706,630969,0
212,-1,636912,218468,1306222,65985,7786,652603,0
212,-1,647897,221278,1219700,67087,7584,609056,0
212,-1,661493,224393,1331655,69648,8956,665376,0
212,-1,639653,218822,1175006,66162,7388,587011,0
213,-1,641898,219761,1263226,65870,7777,631108,0
213,-1,643187,221089,1300906,66999,7609,649516,0
213,-1,640283,220048,1190721,66088,6827,594829,0
213,-1,638933,219584,1313166,65727,8100,656008,0
213,-1,639323,218692,1196623,66093,7477,597790,0
213,-1,661501,223186,1355609,69262,8118,677334,0
213,-1,643123,219813,1215653,66325,7268,607374,0
213,-1,638573,218855,1191220,66224,7375,595112,0
214,-1,638014,218873,1171850,65662,6748,585474,0
214,-1,638412,219251,1277078,66051,7228,637854,0
214,-1,638178,219595,1274499,65822,7532,636877,0
214,-1,639111,220422,1200693,65985,7392,599871,0
214,-1,642243,220013,1313577,66528,8547,656225,0
214,-1,641563,219156,1335793,66161,7757,667444,0
214,-1,637875,218858,1186166,65978,7170,592611,0
214,-1,638190,218685,1130779,66202,7089,564996,0
215,-1,635450,218310,1299257,65379,7442,649217,0
215,-1,638901,219808,1236326,66178,7656,617633,0
215,-1,646037,221357,1325793,66694,7368,661881,0
215,-1,646425,219360,1278435,65615,8293,638688,0
215,-1,643617,220225,1212249,66834,7505,605292,0
215,-1,638764,218753,1251858,66128,7446,625407,0
215,-1,645421,221176,1181359,67098,7054,589944,0
215,-1,637145,218641,1173189,66214,7389,586176,0
216,-1,638613,219350,1199432,65828,7269,599203,0
216,-1,638283,219557,1219742,66138,7285,609222,0
216,-1,640450,219072,1313042,65707,7781,656088,0
216,-1,669112,224592,1239997,69182,8359,619518,0
216,-1,640119,219033,1266629,66157,7778,632759,0
216,-1,645220,220154,1237875,66843,7944,618183,0
216,-1,638746,218995,1199374,66083,7112,599221,0
216,-1,641355,220645,1220813,67154,7275,609702,0
217,-1,633823,218124,1230533,65561,7626,614818,0
217,-1,636267,219201,1295213,65990,7942,647072,0
217,-1,641614,219721,1224387,65990,7143,611746,0
217,-1,646793,220103,1436093,65892,8854,717515,0
217,-1,639225,219083,1325397,66198,7541,662124,0
217,-1,640495,219108,1224868,66244,7421,611919,0
217,-1,639590,219735,1170761,66345,7629,584823,0
217,-1,658582,223677,1312700,69661,8505,655922,0
218,-1,637114,217979,1108953,65496,7099,554048,0
218,-1,639639,221061,1318032,66892,8112,658180,0
218,-1,645806,221747,1347545,67014,7947,672939,0
218,-1,646018,219595,1374515,65684,8460,686770,0
218,-1,640991,218938,1362402,66201,8599,680349,0
218,-1,664795,227790,1282037,68813,7637,640544,0
218,-1,642862,219951,1193717,66375,7937,596479,0
218,-1,641365,218805,1160319,66301,6928,579548,0
219,-1,640313,218657,1182871,65647,7613,591031,0
219,-1,637637,219364,1400209,66065,7468,699515,0
219,-1,638739,219377,1375162,65931,7011,687045,0
219,-1,646325,220270,1248800,65949,8300,623747,0
219,-1,638374,218995,1270341,66163,8392,634603,0
219,-1,639774,219288,1170831,66246,7509,585013,0
219,-1,661569,224462,1334470,69688,8620,666705,0
219,-1,639181,218417,1292869,66035,7554,646023,0
220,-1,641604,219863,1313433,66273,7079,656009,0
220,-1,636999,219075,1348585,65932,7663,673697,0
220,-1,638559,219321,1289183,65905,6793,644089,0
220,-1,642332,219007,1324727,65502,8279,662154,0
220,-1,655595,223305,1255869,68517,8528,627354,0
220,-1,641168,220216,1147119,66802,7724,572815,0
220,-1,637382,218129,1282354,65813,7871,640743,0
220,-1,642624,219774,1329404,66775,7772,663962,0
221,-1,638468,219036,1321751,65786,7517,660325,0
221,-1,637819,219779,1259702,66226,7053,629198,0
221,-1,644332,220700,1338697,66649,8058,668520,0
221,-1,673246,225866,1261269,70046,8749,629956,0
221,-1,635458,219382,1191820,65464,7616,595354,0
221,-1,641081,219199,1153797,66272,7709,576395,0
221,-1,641894,220929,1229268,66937,7853,613913,0
221,-1,640236,219404,1330508,66483,7051,664776,0
222,-1,639143,219683,1316472,65935,7405,657811,0
222,-1,637019,219299,1318184,66057,8096,658708,0
222,-1,639305,218903,1334368,65782,7560,666753,0
222,-1,645420,220121,1180701,65937,7950,589746,0
222,-1,632249,218154,1151275,65027,7404,575177,0
222,-1,644815,219245,1158026,66276,8114,578491,0
222,-1,639792,219928,1275766,66430,7688,637432,0
222,-1,636333,217880,1178328,65866,7419,588846,0
223,-1,660721,223430,1337982,69064,7794,668549,0
223,-1,635221,219467,1342515,66113,8620,670662,0
223,-1,639969,219691,1189321,66110,6474,594227,0
223,-1,643257,220173,1390388,65966,8377,694666,0
223,-1,642707,220007,1192620,65901,7250,595244,0
223,-1,644754,220004,1164958,66683,7906,581748,0
223,-1,669055,224333,1330604,69642,8811,664757,0
223,-1,657940,223035,1323513,69452,8562,661402,0
224,-1,637205,218348,1255226,65586,6264,627032,0
224,-1,631878,218680,1261952,65813,8181,630545,0
224,-1,643199,220904,1299393,66742,7465,648938,0
224,-1,645524,219619,1321230,65735,8470,660041,0
224,-1,638298,218758,1287522,65239,7559,643287,0
224,-1,643144,219045,1321328,66109,8018,660267,0
224,-1,645904,219404,1263969,66227,8125,631536,0
224,-1,633230,217424,1144307,65857,6644,571754,0
225,-1,638906,218894,1274976,65754,6914,637022,0
225,-1,639574,219075,1277286,65951,7593,638193,0
225,-1,636482,218721,1156525,65696,6465,577926,0
225,-1,649008,221053,1297272,66458,7839,647898,0
225,-1,637622,218675,1288506,65217,7220,643724,0
225,-1,646515,220979,1318853,67073,7569,658599,0
225,-1,647823,220025,1425726,66431,8917,713252,0
225,-1,636061,218524,1277372,66124,7312,638253,0
226,-1,636523,218481,1241098,65657,7172,620057,0
226,-1,640538,219690,1270617,66167,6827,634878,0
226,-1,664941,228983,1264328,68789,7133,631498,0
226,-1,641570,219143,1302659,65594,8037,650765,0
226,-1,663559,227855,1307127,67923,7410,653026,0
226,-1,661822,223716,1352008,69464,9089,675550,0
226,-1,646245,219689,1177163,66287,7826,588198,0
226,-1,642982,220404,1318733,66959,7464,658631,0
227,-1,637807,218958,1343053,65810,7111,671071,0
227,-1,642948,220977,1334729,66887,7935,666632,0
227,-1,638719,219446,1325614,65941,8973,662376,0
227,-1,651086,222157,1296657,66808,8329,647291,0
227,-1,659533,223300,1357338,68581,8457,678148,0
227,-1,637484,218088,1203137,65749,6959,601166,0
227,-1,646098,219806,1271709,66306,7633,635443,0
227,-1,636826,218370,1271496,66073,7218,635260,0
228,-1,643089,221124,1299136,66779,7117,648800,0
228,-1,637089,218822,1303349,65843,7774,651203,0
228,-1,641100,219284,1220318,65861,7710,609622,0
228,-1,664606,224140,1256543,69015,9309,627853,0
228,-1,634029,218520,1319947,65218,7547,659383,0
228,-1,639262,219105,1268814,66186,7633,634004,0
228,-1,646443,219667,1191704,66333,7299,595302,0
228,-1,637940,218849,1376734,66276,7400,687852,0
229,-1,641299,219590,1284697,65995,6693,641900,0
229,-1,638836,219456,1187390,66064,7249,593172,0
229,-1,640037,219351,1219006,65918,7718,609022,0
229,-1,642956,219299,1226058,65639,7677,613343,0
229,-1,636342,218587,1281148,65191,7664,640068,0
229,-1,646370,221034,1197106,66983,7797,597464,0
229,-1,642890,219309,1400714,66150,7346,699831,0
229,-1,635915,218434,1205081,66049,6747,602041,0
230,-1,637331,218277,1232081,65709,7349,615447,0
230,-1,639114,218659,1267474,65803,7482,633185,0
230,-1,644300,221089,1224270,66763,7879,611427,0
230,-1,645413,221331,1311461,66518,8013,654869,0
230,-1,641847,221099,1205118,66368,7769,601661,0
230,-1,640708,219122,1208441,66122,7295,603819,0
230,-1,645275,219763,1290621,66303,7104,644732,0
230,-1,659654,223455,1293846,69577,8451,646362,0
231,-1,636772,218768,1250521,65835,6566,624772,0
231,-1,640443,219761,1267900,66194,7607,633430,0
231,-1,641507,219703,1153629,66000,6943,576351,0
231,-1,646459,220372,1222957,66047,8655,610848,0
231,-1,636720,218841,1292185,65325,7247,645608,0
231,-1,640189,218979,1321706,66015,7871,660433,0
231,-1,648379,221535,1181382,67218,6700,590002,0
231,-1,633317,217872,1285424,65928,7317,642281,0
232,-1,661752,227635,1305806,68393,7233,652118,0
232,-1,638698,219476,1169592,66080,7472,584268,0
232,-1,639204,219418,1184801,65989,7130,591936,0
232,-1,642933,219140,1253787,65504,8758,626394,0
232,-1,639515,220466,1243383,66053,7294,620647,0
232,-1,642598,220399,1272731,66748,7526,635975,0
232,-1,643817,219744,1196178,66366,6876,597626,0
232,-1,635715,218508,1191460,66165,7682,595206,0
233,-1,676000,230094,1345918,70564,8567,672471,0
233,-1,641975,220700,1261464,66778,7679,629720,0
233,-1,640875,220648,1235415,66546,7078,617101,0
233,-1,647950,221834,1226914,66779,8937,612630,0
233,-1,635077,218606,1306256,65194,7640,652651,0
233,-1,661424,224014,1512420,69498,9254,755771,0
233,-1,647761,220287,1212421,66512,7823,605741,0
233,-1,663223,223783,1300711,69683,7482,649906,0
234,-1,684768,235355,1311527,70106,7351,655363,0
234,-1,658122,223672,1210069,69208,7923,604483,0
234,-1,643651,221196,1313947,66853,7616,656173,0
234,-1,642791,219500,1219722,65655,7936,609326,0
234,-1,634492,219041,1220877,65396,7231,609836,0
234,-1,639391,218837,1217993,65996,7272,608641,0
234,-1,643418,219236,1249872,66141,8181,624455,0
234,-1,639148,218549,1180951,66203,6501,590026,0
235,-1,692959,238714,1363795,71326,6849,681206,0
235,-1,636218,219085,1244844,66003,7067,621764,0
235,-1,638029,219427,1288019,65980,7273,643521,0
235,-1,641840,219590,1306759,65761,8568,652699,0
235,-1,658471,223288,1326842,68561,8014,662865,0
235,-1,637007,218815,1216595,65970,8144,607826,0
235,-1,649143,221697,1193491,67266,7920,596008,0
235,-1,644036,220348,1291835,66884,7156,645249,0
236,-1,689215,236277,1194579,70407,7256,596909,0
236,-1,635812,218563,1301798,65751,7843,650357,0
236,-1,637331,219463,1224778,66023,6383,611937,0
236,-1,639420,218986,1357043,65648,8798,678072,0
236,-1,635998,218678,1307552,65221,7589,653250,0
236,-1,640979,218852,1368527,65973,7928,683846,0
236,-1,645294,219950,1128597,66433,7372,563831,0
236,-1,637598,218420,1262165,66131,7546,630628,0
237,-1,710913,242307,1262452,74140,7882,630791,0
237,-1,640425,220503,1345915,66635,7605,672212,0
237,-1,636442,218953,1366378,65792,7602,682769,0
237,-1,649339,221216,1342209,66725,8417,669720,0
237,-1,637626,219551,1280547,65548,7482,639826,0
237,-1,637169,218100,1333788,65812,6554,666254,0
237,-1,643977,219846,1205110,66345,8396,602120,0
237,-1,636356,218242,1128830,66064,7237,563949,0
238,-1,690442,237220,1242048,70679,7068,620603,0
238,-1,633316,218110,1279873,65583,7406,639400,0
238,-1,643577,219489,1261008,66023,7860,630144,0
238,-1,643815,219340,1341951,65804,8465,670506,0
238,-1,640978,220893,1203151,66164,7654,600801,0
238,-1,640000,219316,1353437,66310,7903,676216,0
238,-1,644508,220420,1205601,66559,7448,602314,0
238,-1,637243,218017,1168449,65951,6838,583691,0
239,-1,690738,237778,1187702,70881,6747,593383,0
239,-1,638736,220351,1326809,66355,7300,662861,0
239,-1,646225,220539,1318129,66523,8608,658635,0
239,-1,642577,219307,1359083,65798,8610,679097,0
239,-1,636004,219060,1289763,65387,7561,644306,0
239,-1,642505,219949,1208075,66710,6995,603328,0
239,-1,666380,227780,1172746,68682,7335,585976,0
239,-1,637620,217960,1208099,65985,7634,603431,0
240,-1,691775,238218,1264565,71164,7510,631563,0
240,-1,659525,223574,1276971,69259,7945,637684,0
240,-1,642728,219464,1301318,65930,7931,650214,0
240,-1,649706,221717,1330664,66765,8461,664571,0
240,-1,635636,218460,1271578,65151,8336,635313,0
240,-1,640226,219446,1216131,66369,7054,607593,0
240,-1,647117,220413,1214329,66522,7636,606603,0
240,-1,638332,218750,1136036,66254,6926,567378,0
241,-1,687563,236962,1348747,70597,7057,673929,0
241,-1,638826,219863,1199642,66175,6754,599332,0
241,-1,642603,219222,1247558,65863,7391,623370,0
241,-1,642885,219313,1225082,65741,6966,612013,0
241,-1,635433,218819,1230459,65304,7921,614801,0
241,-1,636395,218417,1257196,65911,7158,628275,0
241,-1,643477,219423,1279596,66207,7220,639389,0
241,-1,638816,219090,1169296,66349,7040,584127,0
242,-1,692251,237609,1394698,70835,7208,696862,0
242,-1,637392,219057,1307078,65943,7342,653049,0
242,-1,648395,221856,1349108,67020,7408,673789,0
242,-1,643188,219369,1413289,65788,8125,706041,0
242,-1,655454,223605,1329709,68647,8688,664312,0
242,-1,663096,223686,1378640,69539,8805,688941,0
242,-1,641403,219683,1315190,66300,7337,656951,0
242,-1,636913,218445,1211830,66099,7403,605375,0
243,-1,693613,236862,1235287,70538,7429,617186,0
243,-1,635790,219001,1236883,65962,7091,617809,0
243,-1,664021,224494,1401515,69391,7440,700177,0
243,-1,640933,218865,1316644,65607,7880,657812,0
243,-1,638923,220587,1173358,65908,7904,585595,0
243,-1,638271,218930,1201371,66138,6823,600270,0
243,-1,646326,220992,1279533,66962,7798,638643,0
243,-1,643814,221126,1227005,67277,7981,612453,0
244,-1,697984,238297,1359478,71282,8674,679023,0
244,-1,635082,219241,1251591,66053,7978,625517,0
244,-1,642809,219833,1478026,66100,8684,738534,0
244,-1,641412,219292,1229485,65801,7764,614249,0
244,-1,633415,218516,1206177,65024,8639,602555,0
244,-1,638255,218594,1312997,66083,7840,656063,0
244,-1,643399,220128,1338819,66466,8357,668939,0
244,-1,657337,223182,1279780,69490,8293,639500,0
245,-1,691678,236929,1242009,70662,6973,620504,0
245,-1,634558,219384,1218648,65987,7248,608877,0
245,-1,642362,219929,1229993,66075,6907,614501,0
245,-1,640069,219296,1298178,65790,8370,648640,0
245,-1,634655,218948,1324082,65143,8343,661527,0
245,-1,636124,218508,1331952,65987,9771,665547,0
245,-1,639849,219178,1336657,66108,8068,667574,0
245,-1,640310,218354,1346177,66079,7342,672682,0
246,-1,691637,236747,1375554,70532,7913,687297,0
246,-1,643333,221326,1237952,66857,8448,618361,0
246,-1,647882,220874,1359141,66589,8505,678741,0
246,-1,640676,219011,1405291,65725,8037,702108,0
246,-1,636930,220545,1205930,65906,7529,602035,0
246,-1,638486,218843,1143975,66086,7904,571606,0
246,-1,647206,221310,1271439,67135,8199,635010,0
246,-1,640845,219205,1311015,66400,7651,655004,0
247,-1,698517,240111,1474079,71997,7921,736169,0
247,-1,639152,219185,1234846,65978,8420,616985,0
247,-1,640723,219126,1203945,65898,7030,601594,0
247,-1,645227,221191,1483154,66705,8295,740482,0
247,-1,644721,221737,1249789,66390,7405,623973,0
247,-1,639656,219466,1138233,66366,7526,568701,0
247,-1,665989,223642,1429799,69350,9575,714197,0
247,-1,638003,218876,1288579,66284,7322,643888,0
248,-1,714442,241728,1372767,74008,9501,685914,0
248,-1,640476,219936,1203002,66283,8128,601031,0
248,-1,642709,219997,1279065,66199,7909,638019,0
248,-1,663133,224492,1296856,69361,8857,647851,0
248,-1,658075,223760,1405307,68544,8726,702039,0
248,-1,640812,220339,1118068,66895,8253,558198,0
248,-1,644656,219607,1454075,66239,7935,726571,0
248,-1,637979,219004,1184087,66261,7069,591452,0
249,-1,691156,236740,1224131,70557,7881,611549,0
249,-1,639099,219439,1203975,66077,7679,601448,0
249,-1,640034,219067,1222420,65853,7561,610753,0
249,-1,642955,220550,1306519,66270,8131,652720,0
249,-1,639393,219905,1452234,65498,7714,725459,0
249,-1,635620,218724,1138918,66070,7796,568915,0
249,-1,645465,219706,1477306,66331,8691,738202,0
249,-1,637497,219155,1208526,66370,7027,603683,0
250,-1,695235,238507,1328686,71295,7181,663530,0
250,-1,634030,218888,1317255,65874,8714,658111,0
250,-1,640445,219614,1337913,66102,8867,668219,0
250,-1,643247,220159,1298099,66152,8316,648520,0
250,-1,641100,220595,1196343,65892,7405,597304,0
250,-1,646499,219325,1214719,66312,7461,606900,0
250,-1,647290,220904,1269069,66937,7783,633522,0
250,-1,639802,220068,1408440,66860,7415,703467,0
251,-1,690239,236679,1240368,70515,7081,619796,0
251,-1,636642,218722,1205288,65801,7452,601997,0
251,-1,639867,219679,1201433,66018,7573,600293,0
251,-1,644963,220088,1182714,66195,7826,590860,0
251,-1,635456,218787,1330617,65115,8035,664804,0
251,-1,646738,219882,1193879,66670,7480,596269,0
251,-1,643121,218716,1252688,65908,7139,625876,0
251,-1,640987,220449,1296657,67073,7518,647524,0
252,-1,693444,237151,1297123,70682,7749,648111,0
252,-1,640835,220869,1284068,66807,8324,641099,0
252,-1,642260,219338,1163449,65920,7398,581208,0
252,-1,664037,223942,1441395,69205,8955,720182,0
252,-1,638678,219152,1432377,65215,7564,715694,0
252,-1,641493,217690,1284057,65751,7713,641606,0
252,-1,642567,219439,1363051,66187,7970,680904,0
252,-1,637553,218771,1205142,66256,7674,602119,0
253,-1,690821,236837,1269262,70554,6804,634346,0
253,-1,636067,219359,1311191,65949,7697,655125,0
253,-1,639904,218909,1353779,65803,7428,676226,0
253,-1,643799,220336,1411789,66202,8002,705301,0
253,-1,643791,221545,1253059,66392,7209,625041,0
253,-1,647866,220640,1197364,66955,7383,597893,0
253,-1,648463,221584,1385495,67166,8344,691372,0
253,-1,636034,218343,1286082,66057,7907,642636,0
254,-1,696706,239342,1311619,71663,7478,655079,0
254,-1,635322,219148,1224406,65995,8344,611476,0
254,-1,644596,220882,1387864,66684,7695,693160,0
254,-1,641573,219668,1303836,65963,8036,651287,0
254,-1,661990,224509,1324100,69264,8931,661423,0
254,-1,663518,223210,1328418,69335,8593,663782,0
254,-1,647506,221026,1426848,66898,7533,711803,0
254,-1,637364,219409,1285843,66594,6904,642221,0
255,-1,693762,237185,1253123,70711,7356,626111,0
255,-1,660278,223788,1239169,69289,9055,619061,0
255,-1,640167,219395,1307978,65963,7339,653442,0
255,-1,641867,219468,1229719,65919,8321,614281,0
255,-1,635029,218591,1238725,65045,7084,618907,0
255,-1,641034,218525,1201285,66004,7209,600158,0
255,-1,644053,219925,1463962,66395,8136,731104,0
255,-1,640191,218415,1259091,66093,7689,629040,0
