0,-1,725269,251248,1487107,74898,9046,743581,0
0,-1,722334,250736,1308925,74764,8191,654526,2
0,-1,666864,231188,1254112,69138,8407,626912,0
0,-1,664166,231081,1353751,68518,8546,676845,0
0,-1,671825,230969,1387109,69225,8384,693555,0
1,-1,661811,230282,1281123,68845,7823,640329,2
1,-1,663210,230153,1347594,68780,8516,673611,0
1,-1,661600,230199,1333934,68106,7987,666949,0
1,-1,676017,233240,1288359,70201,8488,644098,0
2,-1,665597,229936,1176931,68684,7628,588522,2
2,-1,663369,230212,1502128,68824,8725,751106,0
2,-1,661747,230520,1388357,68260,8580,694048,0
2,-1,670935,231799,1353383,69460,8476,676731,0
3,-1,665337,230264,1412650,68869,8963,706306,2
3,-1,667353,232381,1503817,69826,8855,752484,0
3,-1,670917,233069,1264673,69414,7639,632075,0
3,-1,672736,233257,1494180,70231,9267,746842,0
4,-1,659804,230081,1214485,68824,7382,607295,2
4,-1,683585,235578,1302659,72394,8945,651091,0
4,-1,683977,234944,1381308,71541,8704,690582,0
4,-1,689930,236140,1531365,72745,9426,765279,0
5,-1,661770,230329,1304302,68892,7289,652078,2
5,-1,671009,231012,1383950,69084,8499,691701,0
5,-1,666959,232918,1265284,69232,8510,632327,0
5,-1,676574,231856,1449955,69530,9407,725045,0
6,-1,662980,230090,1226060,68802,7897,612930,2
6,-1,670477,230755,1261071,69059,8792,630322,0
6,-1,660854,230359,1242216,68246,8149,620938,0
6,-1,672596,230722,1393374,69080,9672,696965,0
7,-1,666667,230200,1282463,68839,8358,641133,2
7,-1,669125,230847,1255470,68997,8420,627512,0
7,-1,663830,232068,1278107,69031,9024,638907,0
7,-1,674165,231817,1364613,69544,8952,682354,0
8,-1,665006,230173,1421659,68878,9072,711264,2
8,-1,673688,232578,1400452,69834,8250,700028,0
8,-1,661837,230039,1303085,68155,7914,651511,0
8,-1,672517,231687,1336304,69442,8171,667817,0
9,-1,666519,230502,1267890,68994,8081,633819,2
9,-1,689780,235387,1500517,72313,8701,750337,0
9,-1,667196,232369,1269301,69054,8050,634321,0
9,-1,694375,236369,1416668,72796,10325,707519,0
10,-1,666855,230939,1277793,69163,8645,638910,2
10,-1,667640,230636,1335692,68902,8182,667781,0
10,-1,660943,230162,1213862,68119,7889,606866,0
10,-1,673064,232163,1282436,69645,7991,640834,0
11,-1,667598,231007,1383342,69002,8760,691793,2
11,-1,669980,230959,1266431,69064,8321,633250,0
11,-1,668265,233014,1245519,69353,8109,622654,0
11,-1,671200,230887,1368702,69195,8979,684909,0
12,-1,671183,232599,1357768,69813,9221,678778,2
12,-1,670821,231411,1307213,69235,8023,653771,0
12,-1,662697,231044,1333609,68481,8031,666778,0
12,-1,672460,231825,1359751,69487,8873,679563,0
13,-1,670531,231586,1213797,69279,7986,606929,2
13,-1,670307,231411,1349847,69183,8388,674844,0
13,-1,659610,230116,1250613,68077,8210,625306,0
13,-1,700462,237805,1485044,73761,10307,742312,0
14,-1,663617,230616,1353127,69083,8767,676583,2
14,-1,672657,232863,1339374,69809,8197,669009,0
14,-1,665078,232592,1201046,69172,7218,600752,0
14,-1,670414,231884,1498646,69612,9232,749382,0
15,-1,666607,230673,1313676,69122,8372,656816,2
15,-1,668645,230975,1475526,68933,8908,737496,0
15,-1,681969,235604,1345792,71763,8732,672936,0
15,-1,670995,230696,1399025,69265,8806,699531,0
16,-1,667920,231223,1346790,69303,9187,672846,2
16,-1,667370,230861,1428787,68970,7907,714424,0
16,-1,658245,230462,1279318,68239,7011,639652,0
16,-1,671948,231895,1236228,69621,8678,617744,0
17,-1,668219,230553,1336750,69105,8407,668427,2
17,-1,670697,231821,1390349,69264,8653,695245,0
17,-1,674928,230766,1386716,68762,7129,693392,0
17,-1,671052,231539,1294242,69471,9048,646787,0
18,-1,670921,231021,1358215,69177,8016,679165,2
18,-1,669568,231125,1286670,68990,8029,643133,0
18,-1,695114,235387,1379770,72124,8772,689854,0
18,-1,673435,231909,1343632,69634,8200,671861,0
19,-1,662987,230617,1316208,69127,8460,658150,2
19,-1,667080,230774,1457877,68915,8519,729004,0
19,-1,672413,230550,1290603,68741,7068,645359,0
19,-1,669468,230841,1419906,69245,8294,709998,0
20,-1,665528,230894,1315128,69218,7700,657531,2
20,-1,668786,231305,1328362,69075,7828,663670,0
20,-1,669598,229586,1204845,68335,6895,602479,0
20,-1,666542,230695,1421786,69234,8413,710885,0
21,-1,663202,230700,1185437,69139,7712,592716,2
21,-1,688109,234828,1282314,72121,7886,641117,0
21,-1,670528,230007,1326391,68573,7496,663357,0
21,-1,676824,233603,1309913,70531,9120,654969,0
22,-1,663932,231566,1340055,69329,8845,670041,2
22,-1,669273,231928,1244668,69604,7686,622373,0
22,-1,676935,232168,1243535,69451,7628,621823,0
22,-1,673241,232463,1373984,69790,9002,686911,0
23,-1,668365,232314,1230374,69836,8028,615264,2
23,-1,668356,230980,1271753,69026,7419,635916,0
23,-1,669777,229992,1314437,68527,7237,657237,0
23,-1,669154,231098,1288438,69355,8467,643819,0
24,-1,668087,231421,1312385,69300,7556,656233,2
24,-1,666168,230734,1216758,69056,7196,608422,0
24,-1,694742,235013,1404214,71996,8669,702185,0
24,-1,669956,231699,1371126,69588,8883,685585,0
25,-1,670143,232827,1323702,69972,8149,661989,2
25,-1,666561,231674,1226296,69317,7590,613174,0
25,-1,669462,229415,1429736,68439,8553,714900,0
25,-1,667751,231004,1524243,69222,9280,761299,0
26,-1,667333,230521,1229141,69001,7858,614646,2
26,-1,667112,230469,1172481,68880,7544,586281,0
26,-1,671699,230497,1320205,68724,7867,660151,0
26,-1,674790,233759,1462607,70501,8526,731028,0
27,-1,660772,231068,1198899,69129,6757,599503,2
27,-1,668551,230404,1178201,68882,8084,589150,0
27,-1,669369,229872,1278797,68473,7865,639442,0
27,-1,675858,231917,1334962,69625,9143,667124,0
28,-1,664476,231353,1418720,69235,9279,709579,2
28,-1,668800,230877,1176153,69080,7873,588125,0
28,-1,666355,229811,1235448,68527,7589,617680,0
28,-1,674248,232481,1253884,70048,7900,627015,0
29,-1,665053,230367,1318581,68911,7522,659373,2
29,-1,688247,235161,1289109,72241,8469,644596,0
29,-1,665889,229511,1252618,68451,7199,626346,0
29,-1,671838,231941,1318669,69726,7874,659363,0
30,-1,664082,231184,1262412,69162,7519,631221,2
30,-1,668131,231778,1309645,69581,7560,655082,0
30,-1,668933,230374,1379531,68647,8460,689843,0
30,-1,674550,232820,1403558,70276,8195,701718,0
31,-1,664759,230828,1209787,69063,7510,604933,2
31,-1,669947,231462,1332632,69179,7958,666272,0
31,-1,675593,232244,1325740,69578,8907,662759,0
31,-1,669396,231447,1321624,69634,8480,660772,0
32,-1,671643,232810,1313888,69981,7709,657021,2
32,-1,666471,230375,1253368,68931,7121,626726,0
32,-1,691962,235196,1437607,72108,9809,718652,0
32,-1,671323,231355,1245723,69589,7785,622831,0
33,-1,666721,231420,1415304,69283,8607,708404,2
33,-1,687541,235471,1375099,72391,7871,687483,0
33,-1,669964,230583,1311559,68841,8217,655814,0
33,-1,673310,233038,1260675,70376,7888,630273,0
34,-1,690632,240314,1315738,71915,7687,657910,2
34,-1,667369,231339,1424443,69239,7859,712257,0
34,-1,669732,230465,1300977,68750,8750,650431,0
34,-1,670530,231533,1227032,69673,8020,613392,0
35,-1,665221,230517,1214410,68986,7398,607204,0
35,-1,669513,231972,1317535,69432,7735,658911,2
35,-1,669499,229759,1327325,68543,8611,663583,0
35,-1,670780,231718,1301462,69660,8474,650707,0
36,-1,667976,231780,1319702,69552,8207,659918,0
36,-1,664340,230675,1220067,69053,6772,610091,2
36,-1,670644,230947,1384950,68891,8466,692242,0
36,-1,670981,232276,1177076,70002,8172,588445,0
37,-1,667480,229953,1226412,68768,7924,613248,0
37,-1,665104,231520,1303915,69284,8501,651648,2
37,-1,673590,232082,1435561,69546,8877,717858,0
37,-1,671168,232246,1239942,69899,8364,619899,0
38,-1,671229,232082,1307572,69677,7965,653904,0
38,-1,664522,230740,1360836,68842,7969,680118,2
38,-1,691685,235780,1448936,72280,9886,724109,0
38,-1,670832,231043,1253890,69444,7771,626884,0
39,-1,668067,230997,1366751,69136,7990,683312,0
39,-1,667544,231145,1233533,69068,7249,616284,2
39,-1,667341,229299,1304681,68399,8511,651768,0
39,-1,675615,233292,1195843,70430,7777,597861,0
40,-1,667521,231424,1337293,69293,7480,668696,0
40,-1,671688,231582,1397881,69189,9087,698667,2
40,-1,667465,230467,1397513,68750,8073,699491,0
40,-1,668589,231100,1250814,69483,8121,625320,0
41,-1,665171,230354,1337198,68841,7675,668641,0
41,-1,698989,242203,1397354,72685,9208,698358,2
41,-1,665781,230158,1341213,68661,8853,670471,0
41,-1,674351,232757,1460557,70204,8268,729914,0
42,-1,667125,231337,1282890,69253,7526,641481,0
42,-1,670397,231308,1289068,69208,8216,644248,2
42,-1,673290,231613,1355998,69118,8987,677975,0
42,-1,668877,231197,1359503,69497,8042,680217,0
43,-1,684637,235003,1267960,72247,8652,633914,0
43,-1,673110,231947,1351892,69177,8665,676051,2
43,-1,671815,230648,1344887,68834,8712,672493,0
43,-1,671859,232759,1293798,70189,8264,646649,0
44,-1,668454,231678,1285694,69529,8934,642543,0
44,-1,671471,234327,1388459,70283,9523,694297,2
44,-1,696378,239393,1424073,71375,8930,711947,0
44,-1,668943,231845,1468012,69712,8957,733804,0
45,-1,663156,230418,1224282,68915,7903,612190,0
45,-1,667104,231923,1226717,69260,8244,613465,2
45,-1,674440,232719,1334258,69824,9649,666302,0
45,-1,667961,231742,1468149,69664,9020,733247,0
46,-1,667670,231580,1203371,69335,7622,601727,0
46,-1,674323,233289,1372876,70016,8699,686348,2
46,-1,670772,230465,1271170,68732,9020,635539,0
46,-1,668837,231378,1509101,69577,9074,754879,0
47,-1,663105,230008,1183359,68784,7365,591719,0
47,-1,670466,232321,1225004,69412,8929,612457,2
47,-1,672101,231552,1286721,69287,8403,643176,0
47,-1,667589,231220,1294535,69501,8597,647561,0
48,-1,668804,232600,1254225,69813,8017,627182,0
48,-1,692989,240176,1423135,71725,8929,711555,2
48,-1,667420,229781,1406187,68522,8688,703136,0
48,-1,674551,231776,1300252,69690,8531,649828,0
49,-1,684283,234957,1206297,72194,8706,603137,0
49,-1,667932,231073,1500754,69029,9984,750451,2
49,-1,691090,235989,1438254,72366,9175,719310,0
49,-1,674898,231803,1335851,69723,9262,668215,0
50,-1,662783,230552,1214809,69005,8108,607452,0
50,-1,668749,230745,1218010,69047,8090,608968,2
50,-1,668276,230543,1410913,68798,8243,705267,0
50,-1,674082,231492,1268204,69522,8882,633685,0
51,-1,665011,231405,1258068,69202,7649,629081,0
51,-1,665590,230947,1245087,69132,7809,622472,2
51,-1,665914,230124,1279524,68624,8343,639605,0
51,-1,672613,231240,1428588,69540,9486,714230,0
52,-1,665712,230926,1195804,69105,7176,597952,0
52,-1,668382,230650,1169196,68987,8520,584567,2
52,-1,674012,231320,1249241,69227,8325,624658,0
52,-1,673746,231716,1463733,69645,9198,731267,0
53,-1,668019,230475,1383371,68934,8074,691722,0
53,-1,663799,230451,1211923,68911,7519,605908,2
53,-1,670703,230585,1307635,68829,8464,653839,0
53,-1,696053,236520,1488422,73043,10142,744472,0
54,-1,690094,235216,1250356,72306,8582,625127,0
54,-1,665613,230688,1215689,68900,8672,607811,2
54,-1,669494,230380,1327076,68704,8628,663398,0
54,-1,674722,232841,1358663,70204,8844,678773,0
55,-1,664998,230551,1198086,68986,7107,599078,0
55,-1,669910,231187,1371151,68933,9163,685612,2
55,-1,669007,230163,1346575,68692,8797,673084,0
55,-1,676312,231918,1310887,69771,9618,655444,0
56,-1,672281,232833,1398014,69974,8127,699077,0
56,-1,680067,233847,1314694,70040,9295,657115,2
56,-1,688498,234467,1439007,71819,10010,719580,0
56,-1,674619,232003,1377279,69781,9132,689045,0
57,-1,666064,230823,1300716,69084,7005,650358,0
57,-1,671504,233324,1312280,69959,8889,656012,2
57,-1,669209,230634,1386269,68852,8868,693119,0
57,-1,670743,230995,1414461,69418,8725,707139,0
58,-1,668276,231629,1340755,69520,7254,670431,0
58,-1,662666,230503,1309495,68815,8276,654719,2
58,-1,671953,232202,1334951,69505,8787,666413,0
58,-1,692331,235935,1396879,72863,10127,698464,0
59,-1,666866,231626,1291230,69337,6941,645734,0
59,-1,669869,232204,1245738,69616,7458,622936,2
59,-1,666045,230224,1281443,68726,7557,639827,0
59,-1,669974,230646,1300610,69318,9123,650525,0
60,-1,663132,230580,1213358,68953,6866,606717,0
60,-1,671417,231441,1431422,69114,9390,715487,2
60,-1,669385,230270,1256707,68706,8032,628283,0
60,-1,668156,230650,1387017,69322,9110,693054,0
61,-1,688786,235258,1373792,72318,7934,686867,0
61,-1,666891,230783,1237867,68970,8309,618754,2
61,-1,668153,230214,1324314,68690,8333,662381,0
61,-1,677729,232743,1314975,70267,9314,657444,0
62,-1,666609,230473,1271859,68941,7473,635899,0
62,-1,666550,230299,1330016,68739,8166,665009,0
62,-1,673613,233006,1329241,69852,8871,664590,2
62,-1,673570,232492,1312319,70108,9431,656428,0
63,-1,665714,230584,1205643,68961,7252,602863,0
63,-1,665508,230274,1270313,68687,8084,635032,0
63,-1,669883,230949,1334543,68945,8852,667158,2
63,-1,672437,231503,1365884,69608,8876,682569,0
64,-1,665695,230714,1199304,69014,7319,599691,0
64,-1,671653,232056,1318161,69419,8134,659060,0
64,-1,666898,230457,1362780,68729,8434,680793,2
64,-1,672930,231719,1318652,69653,8934,659342,0
65,-1,671904,233275,1280709,70157,7647,640425,0
65,-1,672971,232530,1249739,69688,8041,624789,0
65,-1,672134,231043,1434720,68988,9785,717355,2
65,-1,671720,231624,1377934,69647,9294,689000,0
66,-1,666579,230417,1248397,68861,7606,624240,0
66,-1,691961,234427,1383946,71824,10024,692139,0
66,-1,676105,233264,1263682,69917,7629,631806,2
66,-1,669048,230600,1450247,69293,8744,725129,0
67,-1,667901,231889,1227908,69487,7587,614009,0
67,-1,670427,230168,1253981,68689,9213,626899,0
67,-1,662584,230726,1361434,68397,8382,680612,2
67,-1,674808,233361,1314350,70454,8573,656811,0
68,-1,666313,231068,1174734,69131,7073,587396,0
68,-1,669488,230215,1485193,68715,9995,742304,0
68,-1,660060,231029,1333392,68480,8378,666686,2
68,-1,671373,231002,1372940,69407,8910,686917,0
69,-1,665896,231181,1220791,69129,7530,610444,0
69,-1,689134,234622,1357445,71932,9738,678708,0
69,-1,666246,232241,1253860,69113,8109,626978,2
69,-1,673028,232450,1466151,70081,8656,732989,0
70,-1,665034,230771,1207537,68979,7384,603809,0
70,-1,668109,230420,1330614,68773,9023,665287,0
70,-1,666100,230786,1221925,68396,8351,611010,2
70,-1,666299,230085,1354738,69078,8425,677076,0
71,-1,666766,230458,1230134,68908,7608,615101,0
71,-1,670153,230387,1327848,68707,8868,663825,0
71,-1,659655,229637,1344534,68164,8573,672306,2
71,-1,668071,231093,1375441,69380,9271,687750,0
72,-1,685957,235215,1304277,72298,8773,651885,0
72,-1,674790,232262,1251598,69527,8185,625827,0
72,-1,669633,232860,1384250,69460,9419,692419,2
72,-1,673890,232313,1301107,70068,9451,651091,0
73,-1,667291,231491,1351639,69410,7680,675779,0
73,-1,664870,228759,1321499,68241,8401,660818,0
73,-1,668917,230947,1305266,69491,8349,652674,2
73,-1,672083,230949,1458847,69440,9279,729475,0
74,-1,664661,230844,1261597,69071,6980,630648,0
74,-1,668139,230565,1455222,68766,9089,727642,0
74,-1,660448,229859,1301274,69119,7402,650688,2
74,-1,673708,232459,1204718,70116,8353,602171,0
75,-1,665870,230155,1238371,68873,7287,619232,0
75,-1,690652,235432,1413603,72186,9443,706652,0
75,-1,664391,230069,1338404,69141,8285,669242,2
75,-1,673701,231780,1228600,69698,9257,614223,0
76,-1,686177,235372,1347010,72304,8325,673485,0
76,-1,667839,229476,1311232,68369,8773,655426,0
76,-1,668620,232725,1204463,70261,8791,602148,2
76,-1,672479,231685,1284646,69648,8897,642160,0
77,-1,669689,232191,1461851,69678,9520,730806,0
77,-1,689787,235130,1444409,72099,8765,722130,0
77,-1,664474,230031,1180792,69204,7610,590452,2
77,-1,674892,232683,1217346,70168,8696,608861,0
78,-1,665655,231165,1325133,69169,8719,662392,0
78,-1,668940,230679,1447023,68865,8768,723528,0
78,-1,666326,230691,1344649,69370,8296,672363,2
78,-1,671423,231097,1471999,69490,9070,736122,0
79,-1,663607,230743,1283122,68982,8182,641452,0
79,-1,667448,229788,1251763,68472,8161,625973,0
79,-1,661272,230021,1210923,69171,8384,605496,2
79,-1,674971,232898,1450886,70383,9164,725631,0
80,-1,662052,230386,1384463,68828,8399,692135,0
80,-1,669416,230724,1334054,68888,8174,667078,0
80,-1,664434,230070,1297533,69128,8051,648855,2
80,-1,693151,236143,1433862,73010,10103,716787,0
81,-1,667100,232585,1389027,69861,9418,694420,0
81,-1,672392,232365,1238602,69560,8306,619208,0
81,-1,668879,232439,1251414,70174,7761,625796,2
81,-1,670113,231393,1377742,69657,9290,688908,0
82,-1,687460,235867,1256574,72499,8657,628279,0
82,-1,666770,230149,1327467,68650,8776,663782,0
82,-1,668352,230825,1319485,69421,8549,659763,2
82,-1,668315,230962,1291752,69472,8623,645964,0
83,-1,693021,240080,1309277,71825,7839,654691,0
83,-1,670723,230611,1389302,68792,8836,694696,0
83,-1,666672,230800,1248037,69364,8186,623706,2
83,-1,670362,231646,1366337,69730,9314,682858,0
84,-1,664203,230083,1273078,68795,7385,636562,0
84,-1,673616,232440,1235425,69599,8271,617638,0
84,-1,664337,230497,1230187,69323,8312,614918,2
84,-1,665652,230243,1334818,69199,8809,667435,0
85,-1,668189,232060,1334692,69573,7524,667386,0
85,-1,665153,229671,1318166,68481,7960,659106,0
85,-1,665353,230387,1314783,69284,8583,657429,2
85,-1,672433,232184,1232933,70115,7787,616313,0
86,-1,664472,230874,1238951,69090,7358,619521,0
86,-1,668305,231178,1477478,69015,9538,738784,0
86,-1,671635,232265,1306113,70075,9273,652837,2
86,-1,669860,231019,1173754,69511,7712,586725,0
87,-1,683752,234756,1347264,72088,8529,673652,0
87,-1,666135,230169,1255248,68654,8245,627582,0
87,-1,665258,230791,1258822,69411,8892,629261,2
87,-1,667524,230392,1343556,69341,7749,671801,0
88,-1,663817,230675,1228693,69035,7639,614367,0
88,-1,666967,230820,1287143,68839,8880,643635,0
88,-1,669968,230277,1346468,69237,8728,673184,2
88,-1,675761,233871,1224254,70787,7752,612197,0
89,-1,663561,230943,1341327,69050,9195,670724,0
89,-1,669779,232300,1238565,69612,8361,619672,0
89,-1,667182,231170,1311692,69395,8541,655898,2
89,-1,668503,231440,1225557,69647,6963,612867,0
90,-1,663961,231347,1413314,69211,8686,706219,0
90,-1,673080,231037,1311433,68972,9080,655758,0
90,-1,666844,230145,1315426,69236,8807,657538,2
90,-1,668879,231610,1368366,69711,7721,684234,0
91,-1,660760,230224,1250469,68789,7235,625263,0
91,-1,668578,229753,1259227,68462,8702,629908,0
91,-1,667911,230847,1268297,69421,7841,634171,2
91,-1,674308,232891,1250378,70344,7671,625400,0
92,-1,672415,231254,1300144,69179,8106,650236,0
92,-1,675068,232181,1473273,69496,9390,736646,0
92,-1,667279,230991,1312082,69433,8982,656077,2
92,-1,668880,230803,1244500,69472,7745,622292,0
93,-1,671984,231423,1205848,69169,7862,602965,0
93,-1,670436,231031,1507732,68956,8842,752969,0
93,-1,672221,231856,1332163,69959,8511,666104,2
93,-1,665652,230608,1317719,69347,7730,658884,0
94,-1,675436,232717,1375511,69876,9504,687815,0
94,-1,665732,229667,1348601,68495,8705,674003,0
94,-1,664727,230176,1322633,69112,7879,661311,2
94,-1,672735,232579,1235695,70350,8019,617813,0
95,-1,672372,231910,1275942,69626,8306,638028,0
95,-1,668995,230336,1314545,68739,8514,656835,0
95,-1,670204,230983,1217032,69309,7879,608550,2
95,-1,669985,231797,1254967,69813,8367,627526,0
96,-1,667120,230280,1226277,68824,7877,613196,0
96,-1,673533,232540,1262284,69771,8078,630797,0
96,-1,668016,230699,1251979,69283,8338,626014,2
96,-1,667726,231329,1254455,69722,8595,627023,0
97,-1,668293,230924,1218977,69140,8112,609539,0
97,-1,714995,244046,1421904,74703,9532,710971,0
97,-1,673911,232375,1186703,70124,8076,593411,2
97,-1,667513,231358,1206931,69861,8336,603331,0
98,-1,667663,230517,1178843,68980,7952,589479,0
98,-1,667579,230691,1364169,68852,8447,681936,0
98,-1,670698,230560,1332655,69177,8851,666412,2
98,-1,674704,231934,1354897,69849,8533,677489,0
99,-1,675316,232677,1256893,69911,8493,628529,0
99,-1,668239,230799,1268260,68842,8280,634309,0
99,-1,662323,231017,1287889,69492,7506,643994,2
99,-1,693550,236001,1370237,73049,8882,685063,0
100,-1,670965,231238,1228929,69164,7848,614494,0
100,-1,666399,229948,1353101,68635,8808,676247,0
100,-1,663853,230231,1438418,69285,9320,719203,2
100,-1,674134,232408,1297330,70237,8117,648728,0
101,-1,667713,230655,1334158,68952,7814,667120,0
101,-1,669369,230855,1485184,68859,8298,741857,0
101,-1,666450,231100,1265722,69419,9071,632793,2
101,-1,674651,232357,1400166,70039,8378,700030,0
102,-1,686784,235209,1276908,72303,8147,638502,0
102,-1,667616,230627,1306510,68832,7923,653299,0
102,-1,668000,231142,1366976,69556,7723,683530,2
102,-1,669700,231228,1387797,69519,8327,693933,0
103,-1,671342,231205,1317999,69176,8561,659030,0
103,-1,665147,230224,1209673,68646,7063,604817,0
103,-1,670265,230733,1338717,69353,8301,669320,0
103,-1,671015,231472,1218938,69719,7703,609524,2
104,-1,669098,230679,1244275,69030,7962,622172,0
104,-1,666798,231095,1276810,68980,7458,638524,0
104,-1,691827,235503,1368105,72763,8671,684041,0
104,-1,671351,231846,1275173,69745,8754,637891,2
105,-1,671947,232083,1330336,69657,8396,665217,0
105,-1,666905,230119,1319295,68644,7971,659641,0
105,-1,669759,231189,1314679,69553,8330,657377,0
105,-1,672771,231719,1325614,69738,8691,662754,2
106,-1,668089,230809,1359428,68965,8438,679765,0
106,-1,668489,230331,1308551,68750,7951,654312,0
106,-1,672116,231552,1321798,69688,8536,661117,0
106,-1,671259,232069,1308834,69767,7907,654402,2
107,-1,667978,230195,1296556,68855,7584,648294,0
107,-1,667297,229863,1349112,68543,8115,674710,0
107,-1,670421,231354,1414297,69542,8442,707187,0
107,-1,666059,231266,1258703,69474,8749,629400,2
108,-1,665817,230565,1333386,68890,8008,666736,0
108,-1,690273,235612,1298905,72251,8108,649723,0
108,-1,687886,235423,1387486,72657,10526,693696,0
108,-1,671580,232284,1363298,69785,8505,681712,2
109,-1,666530,231141,1226725,69170,7454,613396,0
109,-1,667170,230536,1341840,68837,8148,670922,0
109,-1,670028,230454,1403937,69213,9202,702204,0
109,-1,675237,233639,1313198,70368,9412,656506,2
110,-1,667162,230870,1318686,69106,7683,659383,0
110,-1,666096,230291,1200578,68705,7239,599988,0
110,-1,671131,231214,1388923,69494,9017,694412,0
110,-1,673704,231649,1327184,69486,8932,663305,2
111,-1,671242,232896,1351729,69942,7813,675974,0
111,-1,670192,231749,1252584,69371,7521,626534,0
111,-1,675172,232780,1328027,70158,9260,663702,0
111,-1,669625,231950,1516352,69597,8694,758184,2
112,-1,669852,231662,1454245,69366,8748,727041,0
112,-1,665601,229855,1344663,68598,7911,672370,0
112,-1,669128,230871,1358906,69447,8953,678944,0
112,-1,669972,231754,1282791,69587,8026,641029,2
113,-1,675052,233141,1346425,70030,7828,673277,0
113,-1,664067,230330,1311672,68698,7836,655878,0
113,-1,669347,231034,1323613,69397,8602,661656,0
113,-1,671536,231570,1340192,69533,8616,669846,2
114,-1,669933,231637,1219215,69332,7358,609639,0
114,-1,671203,231928,1260795,69514,8121,630450,0
114,-1,671132,231319,1462519,69491,9291,731008,0
114,-1,669025,231208,1310194,69452,7964,655139,2
115,-1,668364,231228,1311995,69207,7466,656020,0
115,-1,690470,235730,1350482,72300,8474,675225,0
115,-1,688728,235349,1589082,72645,10643,793800,0
115,-1,672724,231408,1250200,69528,8617,625157,2
116,-1,666387,230887,1270304,69084,7208,635183,0
116,-1,664450,229814,1313365,68526,8309,656642,0
116,-1,669660,231417,1237188,69566,8868,618403,0
116,-1,665499,231166,1239116,69400,8496,619585,2
117,-1,687807,235892,1253174,72502,7763,626595,0
117,-1,666414,230822,1260448,68917,8425,630266,0
117,-1,667466,230922,1289336,69397,9147,644297,0
117,-1,666856,231157,1343340,69457,8243,671675,2
118,-1,668784,230713,1259314,69056,7701,629698,0
118,-1,666486,230858,1274593,68900,8087,637345,0
118,-1,700262,242914,1296763,73303,8865,648210,0
118,-1,668672,231226,1323568,69473,8308,661835,2
119,-1,665101,230818,1430001,68983,8760,714820,0
119,-1,663241,229860,1358775,68475,8815,679420,0
119,-1,686872,235004,1333235,72543,9970,666258,0
119,-1,671981,230968,1376823,69405,8234,687976,2
120,-1,672498,232949,1315393,70053,8033,657819,0
120,-1,685178,235101,1356782,72107,9188,678366,0
120,-1,667631,231079,1449655,69529,8663,724875,0
120,-1,677618,233081,1327789,70290,8313,663961,2
121,-1,666517,231131,1313996,69121,7452,657047,0
121,-1,672327,230584,1480265,68820,8807,740219,0
121,-1,666996,230955,1332167,69477,9129,666203,0
121,-1,668109,230281,1256733,69036,8155,628384,2
122,-1,666542,231574,1214951,69316,7638,607514,0
122,-1,674241,231769,1317708,69306,8793,658890,0
122,-1,672175,231070,1427957,69523,8692,713977,0
122,-1,668382,230978,1387619,69335,8808,693695,2
123,-1,667335,231472,1340650,69237,7177,670346,0
123,-1,669802,230117,1416427,68624,8799,708256,0
123,-1,669945,231063,1390929,69447,8226,695222,0
123,-1,672256,231310,1346902,69556,8551,673383,2
124,-1,686143,235629,1205452,72425,8427,602761,0
124,-1,677636,233326,1334519,69983,8687,667344,0
124,-1,672619,232424,1492412,70078,8319,745479,0
124,-1,668727,230010,1270067,69293,8530,635065,2
125,-1,667854,232349,1229566,69739,7996,614863,0
125,-1,670577,230905,1323602,68877,8855,661811,0
125,-1,667935,230704,1329010,69444,8411,664090,0
125,-1,670181,230517,1343165,69466,9047,671747,2
126,-1,664624,230911,1165734,69110,8009,582931,0
126,-1,669849,230819,1369366,68899,9165,684719,0
126,-1,671394,232489,1331640,70206,9252,665068,0
126,-1,667169,231931,1286527,70168,8999,643119,2
127,-1,662448,230302,1220590,68869,8165,610343,0
127,-1,673693,232549,1384533,69643,8730,692313,0
127,-1,667248,230546,1296931,69247,8535,648718,0
127,-1,663946,229972,1207476,69294,8244,603737,2
128,-1,664433,231495,1216892,69304,7932,608488,0
128,-1,671901,230718,1369202,68868,8141,684559,0
128,-1,668407,231021,1343197,69435,8844,671251,0
128,-1,669616,233033,1295281,70519,7256,647520,2
129,-1,668123,231021,1193456,69147,6912,596762,0
129,-1,670773,230586,1326339,68781,8690,663191,0
129,-1,664916,230483,1377893,69348,8794,689034,0
129,-1,666628,230422,1317696,69424,8895,658741,2
130,-1,670545,231991,1328425,69578,7689,664271,0
130,-1,668261,230116,1287033,68615,8593,643537,0
130,-1,685919,235324,1477691,72733,9774,738556,0
130,-1,663852,230094,1157422,69228,7681,578494,2
131,-1,669026,230763,1220569,69078,7508,610313,0
131,-1,669036,230703,1386358,68868,9215,693169,0
131,-1,667218,230394,1309660,69159,8805,654562,0
131,-1,668122,232515,1343238,70333,7813,671134,2
132,-1,667119,230411,1228354,68935,7073,614219,0
132,-1,668241,230754,1396435,68899,8833,698383,0
132,-1,665306,230085,1359033,69132,8632,679510,0
132,-1,665335,229927,1192641,69293,7775,595814,2
133,-1,669586,232146,1308238,69754,7419,654174,0
133,-1,672092,230863,1288703,68865,9045,644350,0
133,-1,664202,229732,1203327,68985,7708,601521,0
134,-1,686481,235393,1259835,72346,8398,629881,0
134,-1,676354,232961,1282918,69824,8895,641527,0
134,-1,666927,231106,1298815,69489,8785,649458,0
135,-1,668560,230858,1312940,69042,8062,656511,0
135,-1,669378,230360,1363809,68749,8440,681924,0
135,-1,670737,232158,1233988,70038,8585,616912,0
136,-1,666263,230484,1515093,69016,9128,756302,0
136,-1,674167,232055,1297332,69473,8799,648612,0
136,-1,665999,230573,1253357,69277,8728,626739,0
137,-1,671074,232809,1313584,69954,7496,656909,0
137,-1,668117,230496,1355465,68777,8460,677735,0
137,-1,666831,231989,1192140,69983,8023,596136,0
138,-1,665560,230695,1320416,69032,7422,660278,0
138,-1,668831,230639,1261097,68819,8209,630580,0
138,-1,667107,231243,1310510,69540,8161,655216,0
139,-1,669277,231205,1483983,69245,9771,742026,0
139,-1,671445,232478,1339785,69677,8167,669924,0
139,-1,662830,229571,1303274,68971,8931,651363,0
140,-1,668361,231233,1298006,69223,8077,649093,0
140,-1,665657,230225,1318163,68665,7652,659185,0
140,-1,667269,231711,1279493,69941,8697,639814,0
141,-1,670756,232799,1297823,69999,8075,648961,0
141,-1,666881,230050,1244007,68670,7995,622044,0
141,-1,663192,230333,1295725,69258,8020,648080,0
142,-1,663342,230477,1284941,68922,7919,642521,0
142,-1,662766,229359,1425702,68469,8009,712791,0
142,-1,665034,230662,1322192,69260,7452,661207,0
143,-1,668435,231232,1304333,69153,8407,652170,0
143,-1,668526,230034,1340811,68644,8182,670434,0
143,-1,663813,230428,1295548,69292,8833,647765,0
144,-1,688893,236016,1320056,72543,8156,659991,0
144,-1,673759,231722,1324587,69371,8663,662357,0
144,-1,663374,230470,1283781,69306,7928,641973,0
145,-1,663422,230744,1312512,69003,7553,656144,0
145,-1,669137,230232,1309973,68715,8408,655024,0
145,-1,661347,230160,1211551,69142,7425,605851,0
146,-1,664376,230449,1189748,68913,7180,594965,0
146,-1,668487,230000,1350176,68556,8504,675111,0
146,-1,674670,231012,1218302,69659,7754,609102,0
147,-1,668734,232254,1316127,69690,7368,658128,0
147,-1,669493,230711,1263578,68870,7895,631818,0
147,-1,672586,230475,1325285,69273,8177,662669,0
148,-1,663821,230743,1228583,69050,7183,614155,0
148,-1,669199,230493,1429054,68748,8827,714531,0
148,-1,674685,231339,1277713,69718,8428,638932,0
148,-1,636842,217366,1261728,65692,7754,630796,0
149,-1,670535,233038,1458032,70029,9171,728981,0
149,-1,695231,240320,1351552,71897,7721,675843,0
149,-1,672942,231108,1328808,69452,8557,664438,0
149,-1,638253,218513,1287273,66194,7165,643841,0
150,-1,690330,235663,1275383,72393,9023,637738,0
150,-1,669468,230691,1182045,68868,8565,591072,0
150,-1,674108,230956,1234228,69306,8172,617180,0
150,-1,634856,217456,1180024,65842,7640,590037,0
151,-1,669310,231347,1326414,69239,8152,663288,0
151,-1,688139,235078,1228620,72053,7882,614414,0
151,-1,670893,230038,1309513,68927,8672,654808,0
151,-1,688241,235373,1370316,72720,8242,684651,0
152,-1,669098,231612,1319474,69273,7831,659756,0
152,-1,667645,230935,1390913,68935,8526,695471,0
152,-1,675848,232068,1308377,69820,8506,654094,0
152,-1,665999,230215,1314647,69189,7911,656888,0
153,-1,667121,230744,1203714,69074,7637,601907,0
153,-1,673590,232019,1295673,69530,8032,647900,0
153,-1,669764,230260,1378129,69078,8524,689105,0
153,-1,666338,231320,1326868,69757,8578,662753,0
154,-1,669578,232096,1313677,69638,8092,656902,0
154,-1,690996,235552,1291828,72238,9039,645953,0
154,-1,669471,230528,1261671,69129,8127,630881,0
154,-1,669510,230456,1293635,69339,7863,646273,0
155,-1,667384,231194,1309534,69218,7592,654818,0
155,-1,666132,229563,1207565,68470,7524,603778,0
155,-1,670332,230171,1332454,69038,8599,666275,0
155,-1,673580,232594,1359334,70288,7493,678873,0
156,-1,665950,230899,1206582,69088,7391,603330,0
156,-1,664683,229622,1297744,68503,7383,648938,0
156,-1,667884,229452,1318597,68712,8763,659342,0
156,-1,689769,235129,1528542,72644,9369,763816,0
157,-1,666636,231660,1566539,69349,10183,783359,0
157,-1,669264,231749,1317868,69383,7540,658990,0
157,-1,674515,232335,1228869,70001,8386,614511,0
157,-1,666397,229964,1198152,69155,7576,598545,0
158,-1,665900,230631,1322708,68966,8217,661337,0
158,-1,668348,230700,1282231,68869,7566,641104,0
158,-1,670840,231350,1222545,69417,7975,611306,0
158,-1,670830,231893,1310902,69943,7100,654738,0
159,-1,665239,230757,1207858,69055,7570,603972,0
159,-1,667230,230271,1362514,68712,7923,681305,0
159,-1,670247,229976,1260058,68977,8258,630066,0
159,-1,669011,230102,1233317,69157,8350,616269,0
160,-1,662785,230345,1227771,68869,7761,613909,0
160,-1,669061,231939,1282094,69457,7656,641103,0
160,-1,673671,231374,1226120,69436,8340,613115,0
160,-1,666223,230183,1609619,69188,9619,804271,0
161,-1,668575,232068,1297586,69636,7694,648863,0
161,-1,687967,235533,1235405,72248,8460,617652,0
161,-1,670612,230191,1292808,69108,8540,646470,0
161,-1,669313,231429,1331640,69809,7743,665193,0
162,-1,665099,231517,1351726,69304,8663,675907,0
162,-1,667998,230524,1200292,68767,7675,600184,0
162,-1,668791,229833,1272191,68937,8178,636125,0
162,-1,667221,230752,1306582,69397,7435,652833,0
163,-1,666663,232548,1312002,69835,8145,656057,0
163,-1,667551,230938,1214918,68952,7288,607503,0
163,-1,670309,230680,1219434,69268,7787,609774,0
163,-1,663862,229574,1204684,69114,7280,601934,0
164,-1,663696,230033,1421320,68819,10110,710681,0
164,-1,663175,229647,1316546,68436,7692,658398,0
164,-1,667897,230372,1244158,69172,7892,622123,0
164,-1,667629,231675,1298507,70076,7505,648494,0
165,-1,665533,231258,1317238,69157,8910,658667,0
165,-1,664424,230216,1218387,68730,7834,609279,0
165,-1,669732,230258,1242925,69061,8094,621504,0
165,-1,687757,235696,1403543,72928,8972,701345,0
166,-1,666290,231832,1450347,69559,8950,724839,0
166,-1,661536,229432,1156083,68372,7614,578178,0
166,-1,670318,230467,1395841,69142,7966,697974,0
166,-1,665505,229455,1293782,69017,7553,646437,0
167,-1,664747,231063,1402470,69185,9547,700505,0
167,-1,661993,230035,1214501,68637,8249,607268,0
167,-1,669281,230833,1210854,69263,7562,605498,0
167,-1,669564,231036,1268061,69777,8111,633174,0
168,-1,667631,231335,1193036,69206,6858,596550,0
168,-1,669493,230034,1327964,68610,8663,664054,0
168,-1,666535,229877,1311500,68906,7778,655791,0
168,-1,663923,229705,1158239,69190,7605,578677,0
169,-1,668948,232482,1299367,69791,7520,649798,0
169,-1,669195,230336,1218380,68750,8089,609061,0
169,-1,697145,239865,1336583,71923,7370,668331,0
169,-1,665147,230502,1204765,69272,8734,601770,0
170,-1,684606,235407,1244423,72344,7851,622159,0
170,-1,668874,230180,1356768,68654,8846,678432,0
170,-1,667717,230115,1216074,68976,7410,608077,0
170,-1,670695,230856,1232882,69417,8236,615802,0
171,-1,661248,230082,1354275,68743,8102,677085,0
171,-1,673294,232399,1294114,69655,8413,647162,0
171,-1,666846,230661,1394850,69159,8458,697475,0
171,-1,669470,230594,1257104,69340,8195,627931,0
172,-1,666353,232792,1309274,69963,8029,654548,0
172,-1,690546,235624,1438329,72262,9469,719139,0
172,-1,676884,232420,1339751,70013,8556,669931,0
172,-1,665323,230282,1396929,69181,8508,698474,0
173,-1,683487,235345,1285542,72336,7770,642715,0
173,-1,671289,231505,1302869,69300,8146,651363,0
173,-1,671121,230763,1309432,69272,8331,654650,0
173,-1,687031,235037,1354565,72547,8842,677293,0
174,-1,670765,230839,1326560,69088,8002,663368,0
174,-1,668457,230993,1242941,68900,8718,621333,0
174,-1,669870,230259,1294471,69084,8480,647272,0
174,-1,664546,230357,1236437,69199,8628,618236,0
175,-1,667884,230166,1299404,68773,8245,649667,0
175,-1,664733,229849,1320812,68559,8656,660462,0
175,-1,670111,230547,1325539,69161,8538,662808,0
175,-1,667751,231893,1350468,69882,9569,675114,0
176,-1,672567,231971,1326560,69602,8379,663358,0
176,-1,669993,230703,1329664,68820,8743,664873,0
176,-1,668143,230096,1318965,68992,8535,659509,0
176,-1,669642,230675,1392072,69279,8205,696205,0
177,-1,667993,230770,1212774,69073,7793,606439,0
177,-1,673929,232762,1292976,69795,8081,646522,0
177,-1,665311,229637,1213692,68836,7905,606890,0
177,-1,673102,232456,1472591,70166,8524,736314,0
178,-1,670080,231229,1334997,69219,8099,667279,0
178,-1,667019,230450,1345750,68788,8500,672908,0
178,-1,666537,230316,1313725,69121,8578,657017,0
178,-1,666114,229909,1187496,69110,8221,593619,0
179,-1,669691,231152,1301315,69165,7244,650701,0
179,-1,664713,229705,1299379,68453,7544,649382,0
179,-1,669777,230218,1291488,69057,8670,645783,0
179,-1,665420,230144,1174042,69146,7825,586928,0
180,-1,669149,231695,1215099,69357,7761,607571,0
180,-1,666097,230487,1325208,68750,8762,662614,0
180,-1,668944,230791,1304921,69243,8002,652511,0
180,-1,669475,230353,1234913,69213,8502,617491,0
181,-1,671214,231848,1338677,69571,8095,669396,0
181,-1,666178,230287,1241614,68723,8505,620922,0
181,-1,668617,230824,1203025,69367,8168,601564,0
181,-1,672893,232373,1342885,70101,9048,671282,0
182,-1,666579,230509,1301971,68954,7937,651040,0
182,-1,669718,230757,1322220,68867,9056,660872,0
182,-1,667149,230497,1315008,69110,7454,657555,0
182,-1,688346,235245,1399183,72616,9251,699634,0
183,-1,690026,235769,1245776,72482,8472,622818,0
183,-1,669782,230996,1333357,69006,8684,666672,0
183,-1,668149,230700,1391333,69227,8301,695711,0
183,-1,667819,230609,1325489,69337,8395,662792,0
184,-1,666747,230954,1297094,69123,8890,648604,0
184,-1,671972,232303,1394943,69538,8067,697310,0
184,-1,672876,232306,1218123,70006,7284,609103,0
184,-1,665406,230011,1369817,69111,8283,684936,0
185,-1,667247,231803,1230220,69554,7703,615090,0
185,-1,666542,230549,1557526,68769,10397,778510,0
185,-1,667502,230595,1321766,69216,8316,660939,0
185,-1,665791,230290,1283429,69174,7907,641834,0
186,-1,666699,230605,1219696,68971,8078,609876,0
186,-1,672182,232818,1302593,69784,8385,651277,0
186,-1,664692,229993,1204543,69004,7907,602308,0
186,-1,665418,230206,1225792,69182,7604,612897,0
187,-1,671878,232736,1315229,69987,7654,657655,0
187,-1,687294,235201,1201919,72118,8684,600889,0
187,-1,664571,229832,1408101,68971,8855,704184,0
187,-1,665033,230312,1318915,69242,8318,659475,0
188,-1,666991,231356,1462883,69188,8288,731447,0
188,-1,672044,232381,1236208,69604,8481,617910,0
188,-1,669173,231977,1289474,70021,8740,644578,0
188,-1,663838,229971,1231957,69095,7145,615923,0
189,-1,667302,230867,1599237,69117,10038,799638,0
189,-1,665406,229867,1402043,68549,8603,700682,0
189,-1,671393,230221,1206349,69164,7778,603215,0
189,-1,668349,231998,1333495,70039,8250,666563,0
190,-1,665473,231224,1340339,69209,7789,670094,0
190,-1,665995,230710,1367277,68879,9117,683682,0
190,-1,674899,231570,1310743,69651,7674,655400,0
190,-1,685914,235051,1359601,72675,9087,679738,0
191,-1,662795,230469,1303547,68901,7883,651663,0
191,-1,663877,230237,1351112,68603,8148,675492,0
191,-1,668968,229845,1353465,69015,8833,676791,0
191,-1,666959,230105,1500196,69198,9410,749300,0
192,-1,687343,235272,1379746,72316,9745,689838,0
192,-1,685962,234747,1300105,71974,9015,650016,0
192,-1,667628,230057,1329443,69134,7356,664753,0
192,-1,665924,229496,1383154,68924,8908,691024,0
193,-1,667554,231499,1304689,69226,8063,652397,0
193,-1,665516,230676,1324261,68848,8560,662101,0
193,-1,668550,230694,1292565,69286,7663,646312,0
193,-1,672348,232111,1473210,70019,10813,735786,0
194,-1,666239,231327,1316875,69219,8320,658370,0
194,-1,663591,230010,1230213,68589,7665,614909,0
194,-1,671925,231082,1230939,69622,7879,615206,0
194,-1,689674,235597,1505323,72748,10458,751988,0
195,-1,663967,230357,1371946,68865,7862,685988,0
195,-1,666455,230581,1254599,68803,8197,627318,0
195,-1,667279,229592,1182890,68876,7658,591285,0
195,-1,667107,230307,1312523,69247,9493,655788,0
196,-1,662676,230510,1294587,68850,8295,647738,0
196,-1,669033,230800,1362954,68791,8783,681576,0
196,-1,668348,230380,1236411,69236,7836,618279,0
196,-1,669320,231478,1440597,69802,9788,719259,0
197,-1,669367,232848,1396515,69957,8919,698589,0
197,-1,689771,235434,1326986,72117,9668,663295,0
197,-1,670466,231726,1221752,69861,8105,610943,0
197,-1,666947,230645,1378343,69308,8815,688376,0
198,-1,669515,230888,1317017,69035,8438,658512,0
198,-1,668369,230780,1337356,68803,8746,668714,0
198,-1,668922,230221,1381902,69092,8213,690993,0
198,-1,665117,229984,1340073,69135,9066,669617,0
199,-1,669043,231737,1364442,69467,8088,682289,0
199,-1,666255,230888,1289459,68784,8384,644619,0
199,-1,667892,229919,1314308,68932,8360,657191,0
199,-1,663445,229774,1361932,69009,8700,680852,0
200,-1,666928,230529,1260130,69008,8094,630335,0
200,-1,695622,240303,1429426,71579,9568,714694,0
200,-1,669527,230761,1333838,69267,8195,666945,0
200,-1,686968,235477,1458963,72703,10275,728946,0
201,-1,665328,230696,1361764,69038,8468,680417,0
201,-1,669558,231483,1236124,69038,8496,617900,0
201,-1,667792,230452,1221386,69072,7509,610733,0
201,-1,667751,229883,1277185,69098,8925,638179,0
202,-1,665721,230809,1315695,69072,8477,657339,0
202,-1,686066,235741,1329579,72175,10060,664663,0
202,-1,674020,232126,1231441,70058,8117,615785,0
202,-1,666979,230610,1342766,69338,8787,670858,0
203,-1,667370,231902,1303313,69652,9265,651398,0
203,-1,669740,231035,1357679,68848,8600,678689,0
203,-1,666966,230200,1361598,69220,8207,680835,0
203,-1,664569,229981,1191554,69097,8294,595366,0
204,-1,664503,230078,1225811,68851,7330,612898,0
204,-1,670085,231527,1624269,69048,10818,811865,0
204,-1,668020,230763,1303964,69325,7125,651907,0
204,-1,664308,229559,1178125,68894,8702,588589,0
205,-1,682463,234371,1276759,72156,8772,638324,0
205,-1,671471,232199,1399745,69444,8790,699895,0
205,-1,691619,239060,1428673,71834,8263,714371,0
205,-1,662654,229689,1235917,69130,7989,617668,0
206,-1,664696,230691,1304028,69064,7558,652047,0
206,-1,667244,230984,1286639,68836,8442,643307,0
206,-1,668228,231568,1219219,69828,8166,609969,0
206,-1,670251,231736,1277565,69985,8464,638073,0
207,-1,664987,231169,1346491,69370,8209,673142,0
207,-1,666694,230512,1392066,68667,8422,695953,0
207,-1,685884,234730,1371814,72489,9752,685916,0
207,-1,666201,230620,1412372,69483,8465,705457,0
208,-1,665647,230200,1296318,68931,7421,648175,0
208,-1,689286,236202,1328127,72286,9252,663867,0
208,-1,670953,230262,1254869,69220,8498,627520,0
208,-1,686816,234794,1380126,72626,9624,689717,0
209,-1,683807,234371,1327520,72068,8100,663749,0
209,-1,667474,231226,1368905,68858,8730,684415,0
209,-1,670999,230703,1348330,69375,9313,674206,0
209,-1,663944,230219,1243507,69349,8468,621206,0
210,-1,665395,230570,1395938,69093,7526,697959,0
210,-1,671470,231839,1410744,69188,9699,705326,0
210,-1,670692,230697,1328567,69312,9145,664320,0
210,-1,667917,232094,1353776,70119,9268,676133,0
211,-1,696879,241438,1384153,72513,8653,691984,0
211,-1,669107,231518,1670297,68973,12004,834939,0
211,-1,670456,230487,1297612,69222,8782,648845,0
211,-1,665618,229719,1250288,69117,7956,624828,0
212,-1,663899,230956,1228613,69186,7280,614160,0
212,-1,688221,235903,1365908,72112,9869,682856,0
212,-1,673594,232351,1255622,70147,8234,627742,0
212,-1,666676,229398,1347799,68970,8042,673339,0
213,-1,666994,232513,1335327,69960,8433,667682,0
213,-1,665565,230708,1360550,68710,9375,680244,0
213,-1,688088,234794,1317101,72493,9654,658513,0
213,-1,674934,232838,1405492,70465,8795,701610,0
214,-1,685285,235241,1269300,72401,8867,634547,0
214,-1,665299,230691,1246776,68647,9023,623272,0
214,-1,666504,230131,1186271,69061,8154,593177,0
214,-1,664745,229627,1208600,69014,7562,604301,0
215,-1,663216,230152,1343748,68965,7962,671875,0
215,-1,668769,232417,1357327,69414,9042,678664,0
215,-1,672057,231845,1184805,69920,8408,592400,0
215,-1,670370,231684,1326286,69950,8276,663059,0
216,-1,662645,230722,1230988,69133,7530,615418,0
216,-1,675814,231327,1364260,68859,10389,681949,0
216,-1,667678,230436,1190609,69296,8024,595326,0
216,-1,688624,235399,1390716,72723,8711,695368,0
217,-1,662567,230699,1330538,69085,7898,665189,0
217,-1,673377,230653,1406144,68695,10549,703102,0
217,-1,689013,235575,1417664,72575,9678,708516,0
217,-1,665196,229482,1339183,68968,8166,669590,0
218,-1,663528,230400,1386127,69033,8835,692953,0
218,-1,672916,231115,1374170,68833,9486,686852,0
218,-1,667577,230283,1340441,69077,8346,670491,0
218,-1,670984,231653,1314458,69871,8144,657217,0
219,-1,682878,234747,1295753,72203,9634,647486,0
219,-1,674218,231670,1354860,69223,9092,676975,0
219,-1,669171,231394,1231801,69622,7746,615773,0
219,-1,668019,230785,1315815,69420,7657,657896,0
220,-1,668554,231084,1210347,69258,8023,605159,0
220,-1,672309,231399,1230832,68989,8937,615270,0
220,-1,669805,230783,1251400,69233,8215,625732,0
220,-1,666720,230751,1265886,69379,7430,633007,0
221,-1,666423,230315,1219255,69045,8193,609563,0
221,-1,672388,231024,1312867,68850,9108,656389,0
221,-1,669128,230596,1352885,69132,8064,676492,0
221,-1,669794,231389,1362787,69781,8296,681336,0
222,-1,666176,230173,1242560,68941,8180,621223,0
222,-1,674707,232441,1313141,69483,8862,656552,0
222,-1,674151,232897,1253249,70193,8129,626617,0
222,-1,668364,229797,1251576,68998,8377,625770,0
223,-1,671127,232792,1336667,70057,7872,668221,0
223,-1,671637,230610,1317284,68606,9101,658555,0
223,-1,687708,234660,1391632,72322,8563,695761,0
223,-1,673540,232612,1352929,70262,8119,676498,0
224,-1,684918,234952,1295855,72252,8077,647860,0
224,-1,671456,231106,1254492,68855,8992,627084,0
224,-1,666135,230173,1255783,69051,7227,628092,0
224,-1,668846,230745,1281980,69364,8258,640982,0
225,-1,666084,231197,1237844,69301,7708,618896,0
225,-1,674824,232729,1346102,69629,8796,672935,0
225,-1,664215,229466,1305099,68756,7129,652591,0
225,-1,666975,230223,1222837,69222,7614,611216,0
226,-1,662573,230273,1220565,69000,8095,610259,0
226,-1,667830,230640,1413879,68728,9294,706980,0
226,-1,667744,230942,1443786,69317,8140,721930,0
226,-1,667967,230718,1303691,69404,7806,651814,0
227,-1,661281,229802,1320201,68759,7891,660154,0
227,-1,670871,230693,1252363,68695,8426,626263,0
227,-1,669801,231368,1267587,69655,7895,634132,0
227,-1,691156,236185,1391137,72906,9771,695595,0
228,-1,662695,230664,1305639,69133,7362,652670,0
228,-1,671063,230438,1331852,68599,9057,665969,0
228,-1,664568,230016,1285968,68956,7811,642684,0
228,-1,666406,230094,1379048,69210,8801,689474,0
229,-1,664168,231129,1301064,69238,7758,650586,0
229,-1,672774,231419,1213312,68978,8165,606699,0
229,-1,668678,231349,1254349,69472,8252,627106,0
229,-1,665334,230046,1323205,69233,8161,661631,0
230,-1,672932,232870,1389436,70132,8358,694535,0
230,-1,673836,233154,1250763,69679,8864,625444,0
230,-1,689775,235022,1520423,72452,11349,760132,0
230,-1,664088,229582,1289125,69120,8304,644518,0
231,-1,664799,230124,1301210,68932,7580,650657,0
231,-1,668806,230069,1247344,68509,8846,624009,0
231,-1,668158,230808,1331252,69268,9153,665297,0
231,-1,664594,230113,1370706,69318,8945,685209,0
232,-1,663456,230102,1336574,68904,7838,668221,0
232,-1,669506,230623,1180105,68835,8353,590070,0
232,-1,666350,230603,1207867,69185,7902,603933,0
232,-1,665841,229597,1367399,69042,8856,683684,0
233,-1,667259,231888,1325484,69510,7629,662723,0
233,-1,669268,230467,1297256,68734,9051,648754,0
233,-1,666648,230476,1296241,69163,8473,648029,0
233,-1,669263,230999,1480004,69748,9313,739995,0
234,-1,661347,229709,1210129,68784,7053,605106,0
234,-1,689239,235079,1211201,72117,9480,605541,0
234,-1,668831,231729,1324217,69760,8871,661685,0
234,-1,668840,231270,1427553,69687,8544,713840,0
235,-1,666823,232160,1308600,69786,8115,653912,0
235,-1,672316,230343,1353965,68716,8330,677023,0
235,-1,665031,230077,1270472,69006,9380,635251,0
235,-1,664177,229810,1213970,69208,8096,607057,0
236,-1,662629,230379,1486022,69025,8696,743040,0
236,-1,676995,232701,1305093,69813,8590,652507,0
236,-1,665130,230204,1352850,69045,9567,676357,0
236,-1,664193,229312,1354899,69058,8711,677455,0
237,-1,660025,229055,1233535,68619,7578,616744,0
237,-1,668396,229978,1251320,68598,8422,625666,0
237,-1,666647,231121,1355448,69348,8604,677714,0
237,-1,663471,229267,1250689,68936,9056,625300,0
238,-1,659889,229584,1379764,68693,8514,689937,0
238,-1,670227,230862,1301626,68933,8809,650804,0
238,-1,674247,231386,1247610,69704,8509,624126,0
238,-1,659605,228537,1230313,68843,7971,615049,0
239,-1,661867,230489,1326415,69050,8387,663077,0
239,-1,667754,230169,1352384,68745,8146,676208,0
239,-1,669667,229446,1240106,68924,8954,619853,0
239,-1,671907,232361,1241950,70186,8028,620841,0
240,-1,659966,230367,1388812,69019,8798,694819,0
240,-1,688694,235183,1280101,72204,8659,640008,0
240,-1,667958,229932,1291098,69049,9051,645531,0
240,-1,665048,230073,1319453,69255,8430,659730,0
241,-1,666703,231388,1393164,69515,9275,696368,0
241,-1,694755,239248,1306630,71359,8699,653260,0
241,-1,691038,234756,1313762,72481,9988,656702,0
241,-1,663197,229684,1247049,69157,8022,623198,0
242,-1,667878,231453,1345760,69373,8776,672508,0
242,-1,673414,232083,1328700,69555,9195,664352,0
242,-1,669916,230499,1223285,69310,8525,611579,0
242,-1,666315,230677,1289153,69512,8099,644511,0
243,-1,664954,230252,1300657,68957,8973,650366,0
243,-1,668018,230593,1206901,68909,8053,603443,0
243,-1,669865,230524,1251645,69250,8352,625693,0
243,-1,663487,230012,1195772,69261,7028,597864,0
244,-1,668632,232238,1340031,69805,9087,669860,0
244,-1,669277,230801,1229588,68991,8123,614780,0
244,-1,667917,230102,1234868,69177,8553,617349,0
244,-1,687045,234863,1359320,72670,9114,679613,0
245,-1,665224,230396,1309582,69039,7969,654564,0
245,-1,666841,230025,1355996,68698,8086,678052,0
245,-1,671375,231666,1211670,69758,8245,605675,0
245,-1,661282,229484,1324494,69090,8006,662253,0
246,-1,664370,230478,1336688,69025,8235,668384,0
246,-1,672071,232471,1384711,69709,8424,692459,0
246,-1,671002,230362,1219092,69217,8150,609500,0
246,-1,663670,230094,1242827,69333,8434,621508,0
247,-1,662826,230472,1208570,68994,8135,604384,0
247,-1,668466,231361,1307769,69158,8296,653898,0
247,-1,673105,231566,1274824,69589,8830,637179,0
247,-1,661592,230025,1293949,69307,8385,646990,0
248,-1,663667,230056,1201030,68867,7893,600592,0
248,-1,673959,231945,1318703,69532,8650,659386,0
248,-1,695580,236495,1423547,73498,10328,711394,0
248,-1,665473,229658,1201365,69135,7284,600658,0
249,-1,669406,232702,1328398,70024,8171,664271,0
249,-1,668036,230176,1222080,68740,8071,611085,0
249,-1,666366,230119,1268042,69088,7757,634008,0
249,-1,668241,229838,1318549,69240,8124,659281,0
250,-1,685817,235464,1280878,72472,9195,640390,0
250,-1,669741,230895,1332290,68975,8523,666144,0
250,-1,667645,230824,1260066,69298,8168,629703,0
250,-1,666649,229404,1279374,69000,7604,639619,0
251,-1,662290,230428,1224878,69037,7700,612486,0
251,-1,670839,231052,1220542,69142,8203,610357,0
251,-1,668089,229831,1418334,68975,9547,709074,0
251,-1,675438,233016,1404971,70563,8693,702743,0
252,-1,661969,230558,1390083,69020,8511,695086,0
252,-1,670072,231408,1258191,69170,8166,628959,0
252,-1,691544,235027,1506241,72512,10372,752825,0
252,-1,689614,234996,1350263,72719,8131,675106,0
253,-1,663709,230168,1317820,68973,8076,658963,0
253,-1,666896,230398,1233534,68855,8303,616702,0
253,-1,669829,230614,1515434,69305,9987,757352,0
253,-1,667171,229805,1227350,69226,7451,613580,0
254,-1,666090,231697,1342169,69626,8313,671151,0
254,-1,672396,232710,1221644,69787,7876,610752,0
254,-1,667914,230261,1315275,69184,8552,657530,0
254,-1,672004,232008,1345522,70175,8467,672764,0
255,-1,662087,230093,1379256,68883,7995,689676,0
255,-1,667919,231417,1167433,69200,7566,583517,0
255,-1,669686,231195,1278251,69575,8563,638901,0
255,-1,665425,229525,1333496,69123,8629,666231,0
256,-1,686468,238666,1204599,71412,7987,602346,0
256,-1,690102,235982,1266843,72441,8330,633350,0
256,-1,667348,229970,1288590,69058,8150,644339,0
256,-1,664506,229871,1332077,69253,8037,665661,0
257,-1,659159,229824,1328829,68744,8338,664458,0
257,-1,667470,231106,1347871,69114,7573,673949,0
257,-1,670702,231893,1283931,69940,8534,641731,0
257,-1,664528,229952,1306992,69230,7251,653510,0
258,-1,665423,231137,1245659,69260,7909,622552,0
258,-1,670332,232201,1323585,69666,8459,661716,0
258,-1,667367,229886,1275942,69066,8027,638023,0
258,-1,671065,232537,1349417,70336,8793,674678,0
259,-1,660779,230347,1307938,69019,7919,654007,0
259,-1,664347,229839,1320676,68688,8546,660415,0
259,-1,670379,230878,1353159,69350,8082,676426,0
259,-1,683762,234289,1326529,72482,8778,663264,0
260,-1,660936,230836,1220565,69083,7729,610367,0
260,-1,662735,229922,1219220,68772,8052,609565,0
260,-1,667511,230204,1393297,69220,9136,696677,0
260,-1,693297,239509,1304002,72113,7859,651778,0
261,-1,665892,232137,1365039,69822,8368,682589,0
261,-1,663352,230482,1341854,68917,7560,670903,0
261,-1,670257,231339,1254579,69746,8149,627286,0
261,-1,663918,229815,1297669,69245,8081,648645,0
262,-1,659567,230177,1355666,68971,7527,677872,0
262,-1,675835,232718,1338804,69963,8160,669290,0
262,-1,667709,230667,1357602,69343,8958,678741,0
262,-1,670957,232155,1247678,70232,9290,623292,0
263,-1,660247,230832,1199022,69169,7219,599603,0
263,-1,668347,229874,1323834,68708,8500,661936,0
263,-1,668777,231133,1356289,69438,8723,678052,0
263,-1,663595,229791,1228761,69175,7935,614267,0
264,-1,662715,231848,1316166,69666,7243,658158,0
264,-1,668343,229823,1199414,68701,8160,599697,0
264,-1,669852,231816,1294970,69955,8328,647287,0
264,-1,666337,231210,1337884,69838,7656,669012,0
265,-1,664475,230366,1216944,68996,6818,608518,0
265,-1,669473,230617,1345341,69000,7909,672598,0
265,-1,693597,239790,1325769,72080,8548,662959,0
265,-1,664604,229755,1329467,69179,9115,664585,0
266,-1,691831,235011,1258244,72307,8857,629078,0
266,-1,668785,230534,1280514,68984,8288,640283,0
266,-1,673427,231135,1254860,69633,9037,627477,0
266,-1,667458,231508,1391811,70012,8925,695866,0
267,-1,672242,231498,1321688,69567,8496,660945,0
267,-1,667749,230132,1218733,68848,7793,609363,0
267,-1,668674,230135,1295818,69173,8339,647926,0
267,-1,664255,229976,1256359,69264,8705,628141,0
268,-1,670177,230556,1284300,69038,7780,642222,0
268,-1,667123,230111,1302496,68714,7875,651219,0
268,-1,668737,229913,1236864,69178,8643,618397,0
268,-1,665233,230850,1240547,69564,8488,619970,0
269,-1,670493,231124,1304821,69250,8016,652549,0
269,-1,672983,232166,1316111,69650,9040,658011,0
269,-1,668719,230328,1309981,69194,8979,655001,0
269,-1,662096,230148,1336276,69324,8175,668048,0
270,-1,670771,230628,1200613,68998,7846,600389,0
270,-1,689443,235386,1289074,72271,8967,644454,0
270,-1,671370,231813,1229246,69962,8357,614551,0
270,-1,664683,230354,1620086,69382,9539,809728,0
271,-1,675087,232221,1320031,69867,8789,660106,0
271,-1,669224,229984,1216919,68733,8535,608421,0
271,-1,688631,234527,1404686,72343,10218,702248,0
271,-1,671876,232023,1403250,70212,9817,701375,0
272,-1,692896,235467,1245372,72462,9100,622654,0
272,-1,669917,230745,1306966,69011,8776,653508,0
272,-1,670245,231477,1241974,69754,8625,620989,0
272,-1,666097,229929,1142338,69270,7497,571143,0
273,-1,670194,231196,1398439,69392,8480,698960,0
273,-1,666385,230030,1378134,68731,8077,689107,0
273,-1,665955,230192,1336010,69150,8742,667927,0
273,-1,667302,230765,1308700,69524,8472,654289,0
274,-1,670738,230642,1315340,69106,8433,657763,0
274,-1,672267,232411,1304350,69801,8189,652182,0
274,-1,669470,230757,1453154,69291,9503,726535,0
274,-1,667035,231589,1374186,70050,8832,686831,0
275,-1,667708,229800,1311263,68814,8563,655699,0
275,-1,687982,234992,1263098,72193,8548,631264,0
275,-1,666644,230311,1354318,69225,8086,676939,0
275,-1,665077,229856,1306228,69190,7959,653142,0
276,-1,669483,230583,1333588,69040,8363,666832,0
276,-1,665460,230186,1304349,68778,7426,652182,0
276,-1,664729,229986,1269041,69055,8388,634487,0
276,-1,662921,229505,1203207,69077,8000,601595,0
277,-1,687790,235061,1224029,72340,8734,612031,0
277,-1,667096,231056,1290489,69095,7559,645213,0
277,-1,668615,231015,1230309,69606,7934,615103,0
277,-1,666894,231015,1318453,69795,8945,659060,0
278,-1,669638,230078,1221268,68880,8140,610608,0
278,-1,668922,231760,1300327,69520,7929,650135,0
278,-1,666128,230388,1331697,69215,8831,665937,0
278,-1,662429,229798,1207513,69171,7636,603659,0
279,-1,670752,230430,1211689,68986,7656,605789,0
279,-1,669422,230919,1241614,69055,8438,620799,0
279,-1,671722,232490,1599515,70227,10911,799000,0
279,-1,664360,230144,1207676,69280,8793,603775,0
280,-1,673282,231793,1306939,69624,8631,653588,0
280,-1,665938,229778,1149826,68596,7794,574876,0
280,-1,689725,234788,1387067,72402,9327,693577,0
280,-1,684758,234601,1303597,72535,10168,651651,0
281,-1,667957,230094,1355338,68895,8106,677674,0
281,-1,670642,231914,1309397,69424,7844,654580,0
281,-1,668348,230407,1300086,69228,7714,649693,0
281,-1,659901,229603,1421899,69107,9311,711019,0
282,-1,669799,230873,1373648,69108,8128,686862,0
282,-1,668940,231597,1223780,69193,7731,611925,0
282,-1,669705,231078,1307035,69452,8024,653228,0
282,-1,665634,230099,1340062,69309,9087,670054,0
283,-1,671386,231082,1243600,69208,8535,621828,0
283,-1,666045,230478,1331783,68823,7824,665878,0
283,-1,669743,231536,1248198,69756,7983,624128,0
283,-1,668423,231097,1464366,69790,9262,732696,0
284,-1,675129,232936,1311449,70088,8848,655796,0
284,-1,690152,236006,1406463,72389,8923,703122,0
284,-1,666518,230292,1246677,69234,8298,623231,0
284,-1,663126,229753,1300780,69221,7813,650430,0
285,-1,689006,235101,1247197,72385,8861,623462,0
285,-1,665812,230310,1235621,68778,7935,617782,0
285,-1,666627,230681,1257399,69314,8305,628560,0
285,-1,661155,229110,1178602,68961,7587,589387,0
286,-1,668993,230641,1324682,69100,8636,662386,0
286,-1,672952,232455,1311612,69655,8442,655798,0
286,-1,686546,235012,1369202,72487,9827,684554,0
286,-1,668952,232095,1334675,70197,8512,667402,0
287,-1,666319,230062,1290566,68868,8265,645349,0
287,-1,666956,230762,1218673,68958,7785,609270,0
287,-1,666815,230364,1267855,69193,8473,633831,0
287,-1,662761,229699,1260920,69179,8479,630503,0
288,-1,672444,231162,1329609,69378,9133,664923,0
288,-1,665456,230451,1329653,68831,8184,664829,0
288,-1,669987,231629,1250125,69830,8237,625021,0
288,-1,664368,230881,1302887,69740,8531,651529,0
289,-1,672528,232524,1515262,69940,9888,757627,0
289,-1,665708,230560,1207247,68846,7790,603610,0
289,-1,666771,230700,1280179,69362,8596,640063,0
289,-1,665946,230247,1196731,69315,7435,598407,0
290,-1,669875,231761,1422335,69626,9812,711182,0
290,-1,671019,233167,1324165,70017,8910,662008,0
290,-1,664257,229841,1213998,69061,7849,607067,0
290,-1,666799,231467,1333821,69933,7720,667010,0
291,-1,672499,230762,1399406,69098,8688,699696,0
291,-1,689570,235333,1270465,72228,8637,635183,0
291,-1,664490,230243,1211921,69212,8191,605664,0
291,-1,684170,234891,1356058,72675,9210,677999,0
292,-1,670933,230430,1295636,69009,7832,647705,0
292,-1,673325,232467,1323972,69670,8017,661948,0
292,-1,665396,230738,1258234,69328,8602,629099,0
292,-1,662848,230617,1413359,69481,8599,706720,0
293,-1,690827,234854,1547541,72245,9734,773520,0
293,-1,667469,230538,1234991,68869,8055,617476,0
293,-1,665618,231508,1236415,69796,8836,618156,0
293,-1,659644,229499,1211358,69013,7288,605718,0
294,-1,668904,230767,1414111,69089,8651,706821,0
294,-1,669266,230735,1246893,68935,8041,623399,0
294,-1,669994,230147,1301803,69123,8401,650958,0
294,-1,672424,230199,1248429,69341,8061,623923,0
295,-1,667555,230133,1434309,68881,9421,717182,0
295,-1,687572,234733,1251665,71988,8533,625721,0
295,-1,671574,231024,1258311,69521,8581,628791,0
295,-1,677023,232384,1370529,70184,8512,685310,0
296,-1,689438,234594,1278673,72127,9744,639480,0
296,-1,668255,231298,1299959,69124,7876,649963,0
296,-1,668192,229834,1329763,69041,8731,664843,0
296,-1,673826,230423,1441828,69415,9187,720945,0
297,-1,669503,230773,1338122,69130,10278,669199,0
297,-1,664499,230274,1217314,68738,7165,608871,0
297,-1,668982,230313,1232768,69144,7885,616339,0
297,-1,671628,230108,1362424,69309,9354,681162,0
298,-1,670446,231616,1392182,69570,9031,696355,0
298,-1,669070,230971,1357004,69010,8141,678467,0
298,-1,667719,230168,1334317,69208,8335,667283,0
298,-1,670482,229745,1226124,69148,8321,613109,0
299,-1,668270,230822,1376818,69160,8445,688252,0
299,-1,671781,232723,1310037,69824,8127,654994,0
299,-1,670231,231466,1366358,69790,8578,682922,0
299,-1,672915,230795,1216398,69531,8426,608228,0
300,-1,664957,229791,1415504,68818,8222,707783,0
300,-1,668348,231505,1316873,69197,7965,658519,0
300,-1,668851,230638,1586953,69359,10323,793442,0
300,-1,667598,228927,1266297,68921,8400,633196,0
301,-1,671344,232357,1356646,69937,8591,678396,0
301,-1,665021,230298,1222968,68759,8317,611414,0
301,-1,665597,229945,1309238,69090,8073,654627,0
301,-1,676523,232504,1452271,70316,8684,726193,0
302,-1,665625,230652,1330215,69094,8611,665146,0
302,-1,667877,231809,1257140,69469,8248,628390,0
302,-1,670204,230379,1324174,69176,7912,661903,0
302,-1,670583,230287,1230014,69381,8586,614732,0
303,-1,671602,231652,1311189,69392,8743,655638,0
303,-1,669717,230988,1238632,69167,7982,619239,0
303,-1,688365,234890,1363498,72544,9369,681699,0
303,-1,675138,231650,1345924,69969,9302,673023,0
304,-1,667628,230216,1361063,68930,9042,680318,0
304,-1,666810,230479,1226268,68913,8134,613071,0
304,-1,666899,230349,1224774,69212,7445,612460,0
304,-1,669933,229646,1256558,69051,8624,628313,0
305,-1,669061,231173,1335650,69275,8652,667755,0
305,-1,686917,235007,1232723,72176,8409,616269,0
305,-1,666660,230560,1312073,69316,8169,655894,0
305,-1,672173,230841,1330594,69732,9006,665026,0
306,-1,667468,230521,1239824,69020,8602,619840,0
306,-1,666498,230544,1161831,68934,7902,580874,0
306,-1,664688,229581,1316309,68943,8425,658235,0
306,-1,674586,232028,1331747,70111,8712,665932,0
307,-1,666212,230559,1218699,69085,7801,609322,0
307,-1,664381,230256,1172658,68896,7627,586154,0
307,-1,665163,229806,1358401,69022,8808,679070,0
307,-1,670708,230846,1287927,69508,8271,643976,0
308,-1,669831,232421,1341386,69847,8665,670906,0
308,-1,665859,230775,1227063,68947,8199,613522,0
308,-1,666928,230793,1433868,69372,9016,717236,0
308,-1,667365,229639,1322687,69011,8999,661312,0
309,-1,669041,231162,1419446,69261,8788,709685,0
309,-1,664563,230721,1151707,69036,7463,575707,0
309,-1,665466,230215,1374320,69134,8160,687045,0
309,-1,668705,230243,1437507,69287,10157,718722,0
310,-1,666133,230163,1262399,68910,8348,631072,0
310,-1,673794,233088,1291411,70070,8463,645880,0
310,-1,668492,230357,1199616,69125,7757,599813,0
310,-1,665795,229506,1562345,69006,10075,780873,0
311,-1,665574,230369,1330492,69023,8430,664864,0
311,-1,687124,235066,1223483,72246,8977,611640,0
311,-1,664139,229679,1309959,69003,7789,655048,0
311,-1,674767,231061,1412231,69559,9949,705898,0
312,-1,666329,230315,1319704,68952,8347,659992,0
312,-1,665343,230861,1234596,69029,8099,617413,0
312,-1,664047,229234,1267384,68794,8652,633852,0
312,-1,671332,230099,1490144,69211,9875,745203,0
313,-1,667079,230941,1275272,69172,8790,637607,0
313,-1,667187,231253,1252323,69181,8451,626168,0
313,-1,664935,230203,1180262,69160,8032,590273,0
313,-1,673838,231333,1404891,69715,9520,702367,0
314,-1,670173,230520,1229181,69015,8439,614672,0
314,-1,664657,230757,1182450,69038,8171,591167,0
314,-1,667096,230818,1231298,69367,8740,615745,0
314,-1,670024,229903,1242838,69020,8881,621324,0
315,-1,670804,231408,1212261,69295,8388,606065,0
315,-1,664984,230771,1310539,68993,8329,655227,0
315,-1,687501,234831,1406968,72516,9253,703457,0
315,-1,692175,235326,1405427,72629,9798,702714,0
316,-1,672806,231824,1264643,69607,8635,632190,0
316,-1,669050,231710,1415733,69352,7692,707790,0
316,-1,666651,230177,1291450,69169,8319,645768,0
316,-1,667336,229596,1255945,68933,8191,627905,0
317,-1,669294,230982,1260845,69013,7822,630447,0
317,-1,672775,231152,1293629,69173,8478,647038,0
317,-1,665918,229439,1329511,68858,8111,664790,0
317,-1,669353,229687,1364033,68980,8707,681584,0
318,-1,667666,230006,1328661,68665,8496,664222,0
318,-1,672714,231481,1319100,69441,8310,659545,0
318,-1,673460,232699,1243450,70263,8011,621948,0
318,-1,666972,229748,1261628,68924,8751,630728,0
319,-1,673303,232146,1363780,69614,9627,681923,0
319,-1,668199,230094,1323219,68714,8189,661625,0
319,-1,686550,234261,1366903,72329,9198,683465,0
319,-1,667783,229899,1353663,68993,8765,676820,0
320,-1,666225,230376,1309470,68843,8492,654531,0
320,-1,691358,235682,1266193,72364,9022,632997,0
320,-1,664660,229816,1266301,69056,7406,633206,0
320,-1,670368,231393,1308684,69618,8465,654334,0
321,-1,688513,235335,1301519,72273,9283,650718,0
321,-1,670330,230968,1339183,69058,7923,669599,0
321,-1,668072,230993,1247484,69638,7652,623808,0
321,-1,670186,230803,1339613,69349,8430,669946,0
322,-1,672350,231557,1347181,69429,9397,673769,0
322,-1,667234,230191,1304697,68694,7472,652445,0
322,-1,663556,229774,1252654,69071,7826,626020,0
322,-1,672464,230485,1252254,69231,7504,626088,0
323,-1,669295,230713,1215772,68905,7960,607803,0
323,-1,667313,230455,1388457,68894,8088,694239,0
323,-1,672589,232502,1214295,70193,7783,607060,0
323,-1,667820,229588,1238412,68887,7625,618996,0
324,-1,667186,230205,1312568,68756,8131,656327,0
324,-1,671147,231057,1239935,69059,8141,619966,0
324,-1,663766,229571,1271858,68956,7990,635982,0
324,-1,692243,235672,1295918,72697,9060,647898,0
325,-1,668290,230489,1302378,68888,8779,651072,0
325,-1,666842,230131,1389376,68681,9377,694594,0
325,-1,669452,232059,1298689,69959,7510,649350,0
325,-1,669871,230610,1179433,69267,8012,589493,0
326,-1,668858,231054,1243663,69027,8441,621849,0
326,-1,672022,232037,1418377,69551,9280,708213,0
326,-1,663278,229837,1399250,69086,7913,699681,0
326,-1,672138,231833,1256065,69838,8776,628102,0
327,-1,669156,231320,1303043,69143,8629,651263,0
327,-1,668490,229990,1331182,68637,8699,665482,0
327,-1,663557,230194,1416836,69109,8099,708435,0
327,-1,672370,231517,1257534,69495,8607,628615,0
328,-1,667665,231326,1375287,69161,8575,687041,0
328,-1,690530,235363,1309946,72211,9007,654744,0
328,-1,668623,231465,1169077,69735,8327,584638,0
328,-1,670030,230526,1253164,69125,8435,626418,0
329,-1,667377,230524,1296958,68799,8315,648491,0
329,-1,670324,231398,1341952,69139,8689,670897,0
329,-1,667115,230804,1319466,69346,8867,659782,0
329,-1,693831,236023,1562090,72761,9751,780953,0
330,-1,669110,231383,1217274,69151,7830,608517,0
330,-1,666826,230139,1252012,68616,8532,625994,0
330,-1,668258,231485,1225062,69875,8182,612607,0
330,-1,670274,230772,1364461,69250,8449,682288,0
331,-1,670350,232234,1330848,69602,8518,665296,0
331,-1,674319,232696,1379652,69712,8717,689832,0
331,-1,686220,234898,1384914,72559,9756,692543,0
331,-1,670933,231726,1310996,69658,8710,655380,0
332,-1,663844,229818,1283607,68637,8236,641735,0
332,-1,670792,231672,1247617,69218,8167,623786,0
332,-1,663338,230472,1303243,69310,8038,651647,0
332,-1,670920,231245,1370287,69334,8746,685101,0
333,-1,664921,230702,1263285,68951,8600,631464,0
333,-1,665516,230051,1293491,68668,8931,646905,0
333,-1,666512,230318,1312986,69236,9288,656536,0
333,-1,687446,235205,1477519,72439,9478,738616,0
334,-1,665469,231108,1197587,69082,8411,598650,0
334,-1,692399,235808,1264542,72372,9702,632284,0
334,-1,664427,229923,1321483,69073,8841,660690,0
334,-1,673719,230700,1238710,69234,8140,619440,0
335,-1,690912,235219,1274316,72214,10445,637013,0
335,-1,668090,230850,1231982,68949,8235,615967,0
335,-1,667748,231946,1302152,70008,8728,651080,0
335,-1,673880,230457,1422164,69102,9768,710954,0
336,-1,668855,230482,1255330,68791,9022,627630,0
336,-1,671564,231857,1280174,69329,8848,640146,0
336,-1,682210,234394,1339142,72382,9177,669522,0
336,-1,675704,231427,1494922,69433,9905,747314,0
337,-1,669995,231190,1214215,69005,8586,607059,0
337,-1,670966,232168,1263896,69596,8877,631807,0
337,-1,663678,229965,1288964,69139,8916,644510,0
337,-1,671942,230518,1344333,69100,9016,672208,0
338,-1,670495,231344,1299382,69067,8927,649700,0
338,-1,668854,231672,1213053,69205,8675,606375,0
338,-1,661588,229443,1218474,68923,8732,609258,0
338,-1,672520,230513,1249999,69125,8191,625031,0
339,-1,669186,231247,1329213,68943,8405,664579,0
339,-1,667958,230816,1239477,68941,9112,619764,0
339,-1,665967,231363,1311777,69586,8852,655976,0
339,-1,695005,236226,1421697,72820,9520,710751,0
340,-1,673775,232829,1445798,69775,9054,722793,0
340,-1,667673,230798,1207628,69013,8716,603768,0
340,-1,661601,230170,1286279,69188,8591,643155,0
340,-1,671676,230653,1262054,69230,7924,631064,0
341,-1,671145,230903,1366650,68880,8549,683089,0
341,-1,673628,233480,1390703,70139,9627,695014,0
341,-1,690209,234381,1401566,72316,9398,700774,0
341,-1,669984,230272,1340409,69047,8464,670166,0
342,-1,671950,231845,1292374,69240,8178,646196,0
342,-1,665429,230553,1293009,68871,9209,646311,0
342,-1,668501,230080,1317684,69126,8563,658883,0
342,-1,675693,232906,1342836,70189,9199,671480,0
343,-1,670071,231359,1266742,69061,8937,633287,0
343,-1,674423,232209,1359631,69600,9456,679388,0
343,-1,668874,230438,1328226,69262,8601,664153,0
343,-1,671433,230878,1292132,69233,8817,646098,0
344,-1,668729,231483,1326957,69096,8345,663082,0
344,-1,671233,230863,1339974,68942,9310,670026,0
344,-1,691371,235085,1351226,72588,9327,675622,0
344,-1,676019,232935,1274237,70109,9062,637177,0
345,-1,688649,235421,1453955,72198,9628,726543,0
345,-1,666839,229862,1236177,68730,8673,618080,0
345,-1,669664,230133,1308410,69149,8201,654199,0
345,-1,674053,230845,1573360,69280,10915,786707,0
346,-1,669523,231824,1315371,69181,8529,657765,0
346,-1,666782,230288,1318696,68711,8682,659398,0
346,-1,669967,230311,1190868,69148,7767,595468,0
346,-1,670290,229842,1225193,68927,8434,612625,0
347,-1,669944,230742,1304414,68873,9329,652195,0
347,-1,674446,232698,1362351,69865,9052,681115,0
347,-1,668883,230634,1257037,69318,8170,628571,0
347,-1,671484,230838,1249731,69219,7721,624851,0
348,-1,668723,230642,1378813,68815,8999,689519,0
348,-1,691920,236048,1454640,72460,9503,727273,0
348,-1,665832,229651,1311098,68950,8132,655588,0
348,-1,669724,230618,1374982,69161,8425,687526,0
349,-1,670501,232133,1359695,69614,9419,679654,0
349,-1,668255,230753,1262216,68928,8300,631111,0
349,-1,669938,230536,1224831,69272,7854,612093,0
349,-1,670736,230914,1340887,69298,8604,670489,0
350,-1,667465,230769,1420638,68912,8652,710328,0
350,-1,670009,231834,1381465,69425,8807,691119,0
350,-1,667337,229872,1372931,69018,8618,686504,0
350,-1,670282,231010,1345449,69312,9288,672777,0
351,-1,666350,230824,1346816,68937,9065,673470,0
351,-1,669420,231410,1277632,69188,8658,638670,0
351,-1,665282,229837,1338932,69053,7833,669516,0
351,-1,691616,234986,1389142,72379,9165,694465,0
352,-1,666993,230532,1239128,68792,8253,619641,0
352,-1,669000,230918,1273560,69007,8783,636592,0
352,-1,666018,230502,1198855,69277,7190,599480,0
352,-1,668260,230705,1541902,69210,10257,771025,0
353,-1,672979,233263,1323251,69943,8734,661543,0
353,-1,674299,233138,1380869,69979,8653,690510,0
353,-1,667870,229684,1339071,68937,8801,669535,0
353,-1,672927,232436,1293509,70077,8441,646696,0
354,-1,664154,230054,1272693,68668,8338,636282,0
354,-1,667886,230938,1436884,69051,8737,718337,0
354,-1,670071,230939,1200712,69443,8058,600379,0
354,-1,689126,235355,1389843,72523,9319,694918,0
355,-1,664839,230583,1287586,68836,8087,643829,0
355,-1,667741,231453,1257108,69176,8083,628718,0
355,-1,674383,232652,1303169,70244,8558,651736,0
355,-1,671954,230610,1305534,69159,8366,652803,0
356,-1,671567,230806,1211591,68970,8621,605793,0
356,-1,668139,230688,1347896,68774,9174,673917,0
356,-1,667795,230464,1201352,69245,8086,600771,0
356,-1,669463,230472,1282375,69099,7640,641227,0
357,-1,674638,232368,1348639,69545,9068,674183,0
357,-1,693542,236479,1348750,72553,10458,674050,0
357,-1,668937,229783,1376565,69080,8393,688204,0
357,-1,677049,232834,1285264,70089,8132,642656,0
358,-1,669397,230511,1269149,68837,9012,634555,0
358,-1,668673,231305,1342105,69065,8846,671085,0
358,-1,667399,230212,1344456,69169,8551,672259,0
358,-1,693070,235756,1397894,72672,9204,698684,0
359,-1,668473,230216,1357282,68699,8349,678607,0
359,-1,670989,231567,1289060,69162,8910,644473,0
359,-1,666588,230428,1300945,69272,8615,650379,0
359,-1,670650,230713,1398530,69193,8181,699345,0
360,-1,669733,230346,1409654,68770,8504,704720,0
360,-1,690290,236810,1233632,72616,9388,616888,0
360,-1,668197,230818,1329575,69402,8084,664833,0
360,-1,671386,231941,1328305,69796,8369,664219,0
361,-1,666758,230493,1301378,68905,8054,650752,0
361,-1,672245,232271,1279387,69312,8981,639744,0
361,-1,669197,231358,1228714,69704,8140,614403,0
361,-1,670631,231012,1369599,69330,8250,684856,0
362,-1,670034,230664,1296717,68998,8731,648405,0
362,-1,668168,230701,1239859,68812,8995,619958,0
362,-1,664314,229783,1309472,68925,7445,654796,0
362,-1,669027,230330,1312951,69068,8611,656500,0
363,-1,667689,230217,1250796,68840,7711,625506,0
363,-1,668356,231533,1249311,69131,8769,624681,0
363,-1,691828,235183,1356442,72601,9165,678145,0
363,-1,669643,231067,1257806,69365,7723,628953,0
364,-1,668211,230303,1276578,68841,8509,638291,0
364,-1,668396,231650,1320973,69128,8618,660538,0
364,-1,666527,229587,1234152,68920,8447,617122,0
364,-1,668547,230325,1364323,69008,8431,682210,0
365,-1,675937,233634,1507633,70315,9020,753357,0
365,-1,667127,231248,1274454,68984,8790,637021,0
365,-1,670895,231739,1201217,69834,7501,600679,0
365,-1,672058,232355,1293215,69936,8074,646936,0
366,-1,691286,235453,1323219,72435,9554,661625,0
366,-1,673712,233730,1248991,70139,8985,624220,0
366,-1,670294,230773,1223839,69383,8084,611964,0
366,-1,671940,230393,1302612,69160,8438,651349,0
367,-1,668367,230689,1338956,69033,8708,669519,0
367,-1,688512,236134,1230530,72413,9520,615118,0
367,-1,666880,230050,1235098,69192,7428,617604,0
367,-1,676441,232612,1333204,70064,8649,666430,0
368,-1,671523,231136,1310866,69191,8174,655309,0
368,-1,669432,232166,1243459,69354,9149,621675,0
368,-1,688105,235013,1441675,72572,9584,720849,0
368,-1,675516,232744,1330535,70086,8898,665171,0
369,-1,674259,232480,1378642,69895,7805,689170,0
369,-1,671694,230948,1236610,69037,8555,618325,0
369,-1,666523,229994,1366248,69159,7796,683138,0
369,-1,670457,231041,1343727,69312,7724,671930,0
370,-1,688146,234730,1440664,72137,8351,720353,0
370,-1,673626,231942,1358603,69313,9017,679324,0
370,-1,667304,229698,1221026,69001,7319,610443,0
370,-1,671086,231555,1539706,69519,9789,770128,0
371,-1,668192,230800,1394453,69079,8077,697281,0
371,-1,692254,235844,1353998,72334,10214,676998,0
371,-1,666913,229950,1319835,69141,7812,659952,0
371,-1,674702,233305,1268470,70341,8645,634291,0
372,-1,669730,231352,1348143,69389,8937,674187,0
372,-1,671308,231421,1342927,69100,8729,671152,0
372,-1,667776,230328,1301328,69255,7724,650675,0
372,-1,671258,231850,1345441,69619,8431,672757,0
373,-1,664999,229938,1274757,68601,7865,637272,0
373,-1,670233,231878,1285095,69325,8575,642627,0
373,-1,664239,229464,1268217,68877,7594,634143,0
373,-1,672210,231844,1386024,69583,9073,692976,0
374,-1,673426,232234,1362403,69680,9031,680943,0
374,-1,672327,231488,1260598,69110,8754,630136,0
374,-1,687849,235320,1348742,72674,8484,674400,0
374,-1,667254,230184,1526775,68986,10722,763339,0
375,-1,665456,230272,1244157,68913,7958,621800,0
375,-1,693305,236485,1421262,72578,9396,710883,0
375,-1,666080,230984,1375964,69457,7688,688029,0
375,-1,691992,236443,1427750,72878,9978,713729,0
376,-1,665101,230150,1201299,68819,8090,600621,0
376,-1,668475,231436,1259583,69133,8026,629761,0
376,-1,669271,230546,1297130,69320,8221,648611,0
376,-1,680578,232718,1324977,70055,8331,662584,0
377,-1,665765,231293,1259830,69414,7935,629663,0
377,-1,668978,231494,1332056,69136,8884,666032,0
377,-1,668915,230365,1285215,69224,8415,642648,0
377,-1,676348,231466,1361846,69419,9098,680990,0
378,-1,683232,234361,1285386,72025,8796,642656,0
378,-1,670781,232398,1235299,69521,7778,617654,0
378,-1,667517,230288,1200969,69240,8193,600523,0
378,-1,674790,230924,1409305,69298,9779,704710,0
379,-1,663616,229734,1278323,68715,8387,639300,0
379,-1,667172,231181,1315781,69032,8934,658086,0
379,-1,668845,231363,1201629,69782,7868,600885,0
379,-1,674233,231109,1313574,69317,8430,656816,0
380,-1,667890,230252,1353729,68893,8592,676823,0
380,-1,673822,233336,1309956,70032,9036,654775,0
380,-1,667002,229996,1305645,69150,7819,652877,0
380,-1,698067,236201,1600006,72832,10437,800017,0
381,-1,667750,230308,1348647,68904,8394,674326,0
381,-1,690277,235091,1311253,72103,9334,655550,0
381,-1,664409,229478,1196360,68939,7590,598247,0
381,-1,673703,230967,1501430,69287,10623,750294,0
382,-1,666253,230045,1283291,68701,8874,641563,0
382,-1,673247,232222,1404322,69404,9186,702167,0
382,-1,663233,229921,1321108,69087,8230,660578,0
382,-1,673351,231197,1409713,69349,8974,704899,0
383,-1,669990,231639,1319397,69580,8337,659612,0
383,-1,670935,231628,1388254,69235,8647,694192,0
383,-1,667746,230504,1212017,69327,8238,606051,0
383,-1,674445,231483,1316781,69466,7952,658433,0
384,-1,685225,234348,1290511,72006,8729,645278,0
384,-1,673244,232956,1342167,69817,8591,671220,0
384,-1,667375,230438,1308402,69245,8296,654226,0
384,-1,676051,232450,1330065,69998,7730,665133,0
385,-1,662344,229172,1320576,68399,8251,660378,0
385,-1,669813,231058,1334524,68960,8869,667161,0
385,-1,664959,230233,1275741,69221,8103,637918,0
385,-1,673526,231697,1366488,69541,8137,683286,0
386,-1,666937,231179,1252677,69127,8466,626211,0
386,-1,673434,233259,1366086,69946,8737,683000,0
386,-1,664737,230266,1193666,69234,7976,596881,0
386,-1,674267,231145,1235356,69349,8145,617713,0
387,-1,667036,230412,1271614,68885,9106,635823,0
387,-1,669222,232291,1340040,69369,9015,670001,0
387,-1,670627,230715,1394472,69356,8980,697238,0
387,-1,697779,236910,1443822,73053,10625,721775,0
388,-1,667690,231057,1361065,69064,8368,680406,0
388,-1,673073,233037,1316515,69756,8333,658021,0
388,-1,671677,231497,1249981,69795,7654,624821,0
388,-1,671397,230885,1418696,69339,9319,709385,0
389,-1,683805,234325,1299724,71963,9045,649873,0
389,-1,671064,232481,1272786,69447,8575,636273,0
389,-1,666814,230134,1222862,69452,8049,611500,0
389,-1,674837,232113,1206074,69895,7485,602848,0
390,-1,665266,230243,1344340,68792,9071,671944,0
390,-1,668622,231562,1238908,69100,8807,619442,0
390,-1,687142,234407,1356553,72400,8621,678233,0
390,-1,670335,230819,1252130,69378,8093,626123,0
391,-1,664610,229532,1344368,68672,8638,671800,0
391,-1,690557,236891,1247671,72638,9087,623820,0
391,-1,669962,231021,1201050,69641,7480,600591,0
391,-1,669388,230765,1197649,69304,7645,598855,0
392,-1,668753,230951,1322651,69039,8080,661227,0
392,-1,669139,232999,1303141,69739,9454,651587,0
392,-1,666337,230590,1352272,69235,7680,676181,0
392,-1,677697,232648,1212153,70203,8074,606142,0
393,-1,685963,234501,1309555,72012,8997,654882,0
393,-1,675278,233344,1262159,69654,8516,630907,0
393,-1,688244,234987,1381036,72592,8676,690508,0
393,-1,673353,231089,1186426,69405,7834,593253,0
394,-1,662521,229338,1300223,68461,8735,649975,0
394,-1,670914,231369,1333186,68945,9218,666622,0
394,-1,666444,230379,1212722,69221,8109,606363,0
394,-1,671859,230918,1184763,69433,7008,592425,0
395,-1,665836,230730,1213937,68982,8078,606789,0
395,-1,670977,231669,1262270,69112,8806,631259,0
395,-1,668311,230004,1287836,69109,8318,643953,0
395,-1,675620,232360,1229878,70073,7758,615008,0
396,-1,668768,231516,1345186,69403,8712,672428,0
396,-1,693350,237197,1269190,72718,9586,634619,0
396,-1,688053,234978,1383555,72546,9310,691624,0
396,-1,672417,230812,1238068,69362,7683,619075,0
397,-1,713172,243717,1346818,74782,9122,673456,0
397,-1,669958,231736,1275183,69184,9037,637468,0
397,-1,666303,229615,1279982,68973,7804,640058,0
397,-1,698923,240494,1384611,72245,8542,692641,0
398,-1,664503,230073,1259267,68826,8706,629608,0
398,-1,670875,232191,1259215,69305,8754,629581,0
398,-1,668880,231176,1353598,69490,7791,676847,0
398,-1,676566,232976,1293174,70333,8541,646729,0
399,-1,663022,230297,1220060,68865,8176,610083,0
399,-1,671880,232674,1299554,69457,8854,649545,0
399,-1,664305,229727,1301821,69029,7742,650946,0
399,-1,672255,231004,1328063,69464,8033,664076,0
400,-1,661902,229673,1198696,68658,7996,599381,0
400,-1,671333,231640,1393481,69085,8764,696774,0
400,-1,665136,230133,1298319,69099,8424,649197,0
400,-1,675317,232633,1314253,70095,8502,656724,0
401,-1,663119,230137,1249159,68843,8757,624561,0
401,-1,669365,231840,1361236,69218,8893,680609,0
401,-1,664561,230378,1217976,69172,8105,609063,0
401,-1,669771,230359,1363199,69263,8707,681654,0
402,-1,660124,229302,1366978,68432,8304,683587,0
402,-1,668984,232155,1401311,69290,8880,700553,0
402,-1,665265,229837,1299260,69016,7851,649673,0
402,-1,670868,231012,1485206,69417,8527,742390,0
403,-1,669279,230188,1325120,68779,8376,662621,0
403,-1,695905,241279,1337597,71988,8757,668759,0
403,-1,670406,231810,1242746,69936,7549,621345,0
403,-1,693598,236167,1432874,72910,9827,716497,0
404,-1,671855,231717,1350556,69485,8752,675264,0
404,-1,667702,232035,1306928,69217,9114,653275,0
404,-1,685818,234162,1321435,72296,8350,660643,0
404,-1,672536,231962,1315461,69712,9072,657693,0
405,-1,667349,229855,1244245,68645,7969,622146,0
405,-1,670194,233583,1394300,69986,8741,697092,0
405,-1,665213,230474,1242517,69282,7910,621403,0
405,-1,669143,230731,1379892,69331,9038,689439,0
406,-1,667290,230457,1344037,68892,8429,671874,0
406,-1,669387,231688,1274046,69044,9141,637000,0
406,-1,666424,230383,1299682,69213,8376,649878,0
406,-1,669737,231275,1305851,69543,8724,652947,0
407,-1,671804,232049,1350771,69658,8769,675303,0
407,-1,667198,231482,1282839,69116,8989,640994,0
407,-1,668015,232141,1213997,70036,7759,607072,0
407,-1,677177,232186,1307841,69774,8918,653860,0
408,-1,692760,235976,1324509,73027,8610,662226,0
408,-1,668383,231705,1245685,69159,8403,622713,0
408,-1,667222,230126,1280869,69200,7485,640474,0
408,-1,674906,231736,1306985,69682,8768,653537,0
409,-1,664111,229875,1220506,68727,7969,610140,0
409,-1,668537,231781,1349888,69133,9296,674808,0
409,-1,668683,230329,1215778,69208,7350,607918,0
409,-1,675757,232639,1311697,70082,8568,655327,0
410,-1,669109,231711,1367570,69475,8865,683700,0
410,-1,687696,236222,1311793,72403,9306,655413,0
410,-1,693236,239016,1349932,71819,7983,674852,0
410,-1,671787,231442,1348133,69610,8559,674101,0
411,-1,663339,229439,1342462,68528,8500,671268,0
411,-1,667521,232176,1431586,69300,9277,715817,0
411,-1,669086,231082,1353323,69505,7819,676702,0
411,-1,671989,231411,1326541,69543,8633,663392,0
412,-1,665689,230029,1361972,68771,8638,680995,0
412,-1,665726,231603,1420536,69094,9060,709951,0
412,-1,665526,229983,1192394,69077,6909,596289,0
412,-1,676397,232757,1413132,70263,9266,706205,0
413,-1,673207,233087,1389741,70030,9436,694888,0
413,-1,666266,231612,1483505,69118,9353,741647,0
413,-1,666143,230294,1283083,69256,8056,641593,0
413,-1,672673,231713,1280748,69664,8443,640402,0
414,-1,665469,229783,1353175,68643,8382,676581,0
414,-1,671665,233000,1335167,69741,9300,667538,0
414,-1,664421,230088,1220114,69139,7918,609999,0
414,-1,671675,231308,1331405,69570,9149,665366,0
415,-1,663720,229504,1261510,68503,8397,630791,0
415,-1,668549,232626,1340016,69455,8866,670052,0
415,-1,666587,230172,1304192,69203,8456,652124,0
415,-1,671113,231426,1253684,69596,9234,626591,0
416,-1,666762,230620,1321392,68913,8289,660626,0
416,-1,664612,231529,1286936,68995,8636,643199,0
416,-1,664760,229935,1449346,69098,8758,724709,0
416,-1,669700,230829,1296025,69320,9003,647785,0
417,-1,664428,230215,1223858,68831,7329,611975,0
417,-1,666904,232220,1351520,69300,8762,675714,0
417,-1,667234,230672,1375532,69345,9017,688154,0
417,-1,692350,235531,1399735,72747,10177,699625,0
418,-1,666918,231396,1348621,69295,8098,674008,0
418,-1,663703,231765,1228544,69168,8258,613912,0
418,-1,666331,230530,1444069,69262,9101,721224,0
418,-1,673230,231449,1526985,69429,9006,762967,0
419,-1,665453,230028,1263853,68775,8218,631832,0
419,-1,674703,231322,1281386,68924,8775,640597,0
419,-1,672855,233566,1390093,70565,9192,693981,0
419,-1,675031,232665,1306264,70009,8460,653044,0
420,-1,668529,232338,1270162,69745,8279,635077,0
420,-1,680045,233751,1338211,70035,8969,669009,0
420,-1,687035,235159,1439333,72542,9678,719619,0
420,-1,671205,231488,1362497,69461,8344,680950,0
421,-1,663693,229642,1156235,68623,7708,578006,0
421,-1,696483,236619,1346347,72503,9710,672971,0
421,-1,661222,229674,1308868,69054,7518,654498,0
421,-1,671245,231665,1364002,69482,8757,681654,0
422,-1,668152,231692,1278215,69521,9238,639094,0
422,-1,673295,231546,1275403,69054,8459,637444,0
422,-1,662903,229947,1271776,69105,8011,635917,0
422,-1,692101,235875,1478582,72723,9727,738979,0
423,-1,662335,230005,1329732,68762,7771,664960,0
423,-1,676974,232467,1313357,69401,8855,656855,0
423,-1,667648,230248,1217939,69164,8476,608983,0
423,-1,671140,231580,1351785,69452,8032,675738,0
424,-1,664709,230332,1235555,68922,7834,617778,0
424,-1,677774,233183,1358243,69784,8991,679086,0
424,-1,686940,234511,1399068,72438,9248,699573,0
424,-1,670214,231569,1268484,69604,8104,634272,0
425,-1,665938,231437,1377601,69502,8797,688776,0
425,-1,674308,231709,1514768,69100,9441,757465,0
425,-1,664361,229966,1369307,69143,8487,684606,0
425,-1,671131,232149,1395174,69692,9058,697291,0
426,-1,669396,230890,1379388,69193,8796,689561,0
426,-1,673619,232006,1390638,69237,9260,695306,0
426,-1,663046,229860,1194091,69070,7986,597099,0
426,-1,669678,231537,1323414,69486,8687,661326,0
427,-1,665939,230255,1353413,68862,8306,676582,0
427,-1,696992,236907,1313590,72627,9526,656731,0
427,-1,662955,229784,1216000,69082,8550,608021,0
427,-1,675344,231784,1319451,69624,8328,659778,0
428,-1,686846,234982,1347482,72142,9258,673641,0
428,-1,674240,232053,1375733,69203,9003,687888,0
428,-1,664491,230281,1208606,69192,8457,604337,0
428,-1,696789,236815,1403293,73062,9056,701440,0
429,-1,667060,231441,1361635,69412,8598,680738,0
429,-1,675148,232662,1355657,69445,9173,677921,0
429,-1,668566,232280,1218640,70130,7961,609353,0
429,-1,673993,232002,1247944,69649,7740,624022,0
430,-1,662356,230008,1275997,68772,8144,637940,0
430,-1,672743,231942,1238223,69223,8420,619146,0
430,-1,686009,234642,1428350,72411,9563,714207,0
430,-1,674135,231740,1300324,69571,8348,650175,0
431,-1,665075,230288,1351415,68838,8472,675623,0
431,-1,673488,231740,1342639,69226,9370,671253,0
431,-1,665780,230834,1344010,69437,7594,672126,0
431,-1,669827,230936,1263615,69306,8346,632037,0
432,-1,661269,229827,1322116,68708,7588,661081,0
432,-1,691785,236143,1340562,72572,10031,670095,0
432,-1,663572,229698,1301333,68959,8167,650705,0
432,-1,677868,232968,1242685,70208,8257,621201,0
433,-1,664007,230403,1255927,68888,7748,627756,0
433,-1,674166,231640,1347689,69327,8174,673759,0
433,-1,664359,230483,1190438,69359,7853,595261,0
433,-1,670979,231344,1240494,69374,7771,620297,0
434,-1,662092,230483,1324428,68950,7716,662295,0
434,-1,673331,231847,1338347,69383,8455,669068,0
434,-1,667124,231922,1227328,70010,8492,613719,0
434,-1,671088,231915,1207938,69801,7830,604019,0
435,-1,667160,231928,1330780,69663,8834,665393,0
435,-1,676473,233228,1386594,70110,8993,693144,0
435,-1,682695,234650,1358468,72472,9306,679159,0
435,-1,670340,230930,1174539,69362,7188,587295,0
436,-1,685432,234443,1261333,72004,8577,630492,0
436,-1,670196,231312,1530234,69121,9115,764763,0
436,-1,660265,229933,1311783,69139,8199,655920,0
436,-1,668298,230579,1319765,69237,7935,659927,0
437,-1,662446,229654,1244548,68636,8660,622209,0
437,-1,669375,231392,1638828,69186,9449,818728,0
437,-1,664898,229429,1202296,68921,7691,601182,0
437,-1,691068,236333,1468605,72888,8894,734286,0
438,-1,667338,232168,1338615,69665,8098,669245,0
438,-1,675178,231452,1391738,69201,9501,695533,0
438,-1,670479,230646,1385647,69353,9032,692957,0
438,-1,672769,231790,1324715,69582,8523,662393,0
439,-1,682903,234879,1349087,72131,8513,674584,0
439,-1,680046,233901,1408190,70314,9221,704103,0
439,-1,667529,229617,1302135,68982,8883,651108,0
439,-1,668639,230637,1223031,69232,7476,611561,0
440,-1,661731,229971,1329193,68713,8186,664329,0
440,-1,694618,236303,1521766,72604,10483,760685,0
440,-1,668160,230186,1220451,69205,8687,610268,0
440,-1,670219,230607,1305645,69222,8277,652786,0
441,-1,661431,230260,1461370,68829,8592,730723,0
441,-1,673742,232052,1504803,69417,9007,752486,0
441,-1,673916,232016,1222052,69983,8310,611102,0
441,-1,694867,240202,1422620,72033,8103,711342,0
442,-1,660209,229728,1466144,68680,8818,731555,0
442,-1,672352,232010,1355720,69288,9017,677202,0
442,-1,689696,234871,1351659,72523,9236,675806,0
442,-1,666860,230828,1412027,69344,8078,706042,0
443,-1,669020,232666,1479835,69862,9680,738406,0
443,-1,694918,236904,1293207,72776,9362,646628,0
443,-1,665928,229224,1345607,68809,8055,672854,0
443,-1,672909,232496,1265029,70048,7886,632314,0
444,-1,681348,234321,1325227,71907,8616,662582,0
444,-1,669211,230951,1349098,68993,8905,674480,0
444,-1,668051,230336,1283663,69261,8257,641829,0
444,-1,668465,230565,1303226,69211,7826,651603,0
445,-1,660656,229797,1373534,68667,8496,686812,0
445,-1,671945,232248,1319383,69366,8246,659633,0
445,-1,673888,232963,1230834,70376,8640,615284,0
445,-1,667786,230709,1362065,69261,8287,680956,0
446,-1,662362,230995,1252857,69057,6921,626516,0
446,-1,668474,231032,1386979,68939,8602,693495,0
446,-1,687741,234802,1377194,72497,9464,688670,0
446,-1,688382,235557,1367341,72664,9167,683635,0
447,-1,668682,230272,1300376,68771,7643,650287,0
447,-1,668065,230747,1399490,68924,8842,699652,0
447,-1,666276,230136,1322978,69214,8721,661517,0
447,-1,671670,231992,1246989,69695,7765,623428,0
448,-1,668150,229532,1234669,68538,7426,617369,0
448,-1,688845,235286,1326421,72240,9938,662843,0
448,-1,669824,231431,1338093,69614,8460,669087,0
448,-1,667747,230872,1334574,69308,8123,667320,0
449,-1,688267,234391,1419476,71992,9069,709775,0
449,-1,665961,230547,1365498,68972,8613,682851,0
449,-1,666960,230511,1319623,69321,8390,659855,0
449,-1,671740,231247,1310865,69469,8752,655475,0
450,-1,667741,229816,1359610,68679,8702,679852,0
450,-1,671694,231375,1390334,69240,9841,695152,0
450,-1,662793,229420,1327114,68920,8132,663585,0
450,-1,671345,230797,1333921,69275,8828,666993,0
451,-1,672974,232400,1316567,69693,8034,658308,0
451,-1,674510,232437,1341986,69726,9145,670957,0
451,-1,669576,231238,1223792,69720,8165,611940,0
451,-1,676086,233030,1238638,70277,8311,619106,0
452,-1,665156,229596,1219230,68588,7858,609689,0
452,-1,669286,230797,1240984,69034,8332,620603,0
452,-1,665611,230208,1212916,69182,7853,606517,0
452,-1,671755,231701,1216139,69608,8113,608232,0
453,-1,668451,229764,1294869,68641,8595,647165,0
453,-1,668874,230668,1378185,68944,8671,688985,0
453,-1,668513,231220,1304029,69450,7815,652052,0
453,-1,672959,232037,1241744,69894,8193,620818,0
454,-1,689655,235323,1311890,72278,8850,655991,0
454,-1,669738,231416,1290320,69159,8862,645250,0
454,-1,686052,234963,1528894,72531,9774,764273,0
454,-1,668702,230921,1226380,69327,7826,613189,0
455,-1,666335,229864,1188026,68732,7017,594050,0
455,-1,690775,235798,1253191,72435,8905,626224,0
455,-1,664105,229867,1364511,69069,9294,682292,0
455,-1,669631,231277,1299269,69475,8020,649565,0
456,-1,665347,229691,1317225,68646,8446,658601,0
456,-1,667841,230789,1244396,68908,8855,622247,0
456,-1,682649,234615,1415508,71570,9668,707729,0
456,-1,667914,230907,1227703,69264,7881,613894,0
457,-1,671635,232025,1251268,69596,7860,625655,0
457,-1,667731,231104,1220235,68960,7963,610128,0
457,-1,666026,231317,1430781,68755,9178,714422,0
457,-1,671769,231742,1169211,69631,8036,584640,0
458,-1,667278,230350,1204973,68893,7637,602542,0
458,-1,670320,232290,1273569,69560,8822,636756,0
458,-1,665422,230097,1337656,68297,8069,668186,0
458,-1,668649,230846,1227160,69343,8235,613629,0
459,-1,664796,229505,1154343,68497,7596,577098,0
459,-1,669319,230664,1251125,68827,8839,625591,0
459,-1,665748,230362,1344807,68375,8145,671969,0
459,-1,667074,230823,1303332,69296,8216,651701,0
460,-1,665758,230236,1165789,68676,7183,582853,0
460,-1,667588,230893,1359777,68949,8177,679931,0
460,-1,688936,238654,1438641,70765,8689,719134,0
460,-1,669956,231415,1250143,69505,7846,625125,0
461,-1,666412,229620,1220778,68418,8073,610434,0
461,-1,667231,231387,1458194,69136,8745,729784,0
461,-1,688165,235186,1469406,71769,10064,734140,0
461,-1,668002,230924,1363486,69306,8273,681821,0
462,-1,667431,230560,1412613,68860,8663,706251,0
462,-1,665749,230389,1282359,68753,8954,641222,0
462,-1,666870,231078,1426561,68634,9075,713189,0
462,-1,687743,235419,1382745,72610,8946,691332,0
463,-1,664343,229831,1226720,68608,7508,613442,0
463,-1,669397,231802,1321966,69235,8796,661051,0
463,-1,660552,229217,1354267,67960,9179,676774,0
463,-1,665674,230619,1330860,69227,9055,665464,0
464,-1,670560,232210,1337249,69590,8081,668679,0
464,-1,671298,232706,1384023,69703,8785,692110,0
464,-1,664371,230431,1375197,68443,8543,687655,0
464,-1,667736,230849,1323724,69365,7869,661896,0
465,-1,686899,234832,1347489,72041,8408,673408,0
465,-1,667097,231316,1316167,69077,8902,658125,0
465,-1,669571,232585,1301846,69251,8084,650946,0
465,-1,672868,232618,1313867,70142,7500,656988,0
466,-1,665187,229811,1306176,68587,8015,653133,0
466,-1,664281,230667,1266753,68869,9055,633088,0
466,-1,663773,230063,1365788,68286,8442,682933,0
466,-1,668958,231587,1275990,69595,7714,637962,0
467,-1,665440,230325,1216455,68890,7245,608264,0
467,-1,666406,230983,1350285,68928,8635,675136,0
467,-1,664949,230369,1225830,68437,7978,612818,0
467,-1,668400,231263,1310476,69421,8088,655267,0
468,-1,661187,229191,1321248,68418,7711,660650,0
468,-1,691987,235329,1365117,72157,10092,682226,0
468,-1,663612,229925,1332500,68193,9790,666236,0
468,-1,668591,231525,1310526,69565,8545,655214,0
469,-1,663152,229722,1187131,68676,7493,593609,0
469,-1,670987,231320,1439233,69018,8667,719533,0
469,-1,671577,233389,1251480,69669,8607,625813,0
469,-1,669383,231137,1240280,69375,8666,620321,0
470,-1,665147,230736,1357057,69211,8070,678561,0
470,-1,671672,231507,1326029,69083,8231,663058,0
470,-1,685400,235192,1300396,71771,8903,650249,0
470,-1,668733,231208,1317002,69454,8572,658345,0
471,-1,663226,230298,1293698,68858,8210,646907,0
471,-1,669002,230909,1247443,68948,8324,623477,0
471,-1,662946,230378,1321823,68420,8235,660955,0
471,-1,666194,230829,1423101,69322,8348,711626,0
472,-1,665431,229752,1237426,68640,7771,618745,0
472,-1,668311,230533,1346213,68838,8463,673188,0
472,-1,661554,229911,1258117,68243,8128,629095,0
472,-1,673431,230922,1321598,69324,8829,660831,0
473,-1,665097,229198,1254186,68408,7905,627088,0
473,-1,670777,231675,1363840,69220,9041,681735,0
473,-1,664343,230454,1349292,68456,7923,674682,0
473,-1,672330,230698,1186805,69256,8360,593443,0
474,-1,673014,232500,1486497,69666,9951,743331,0
474,-1,669127,230440,1326294,68786,7949,662733,0
474,-1,666673,231809,1280091,69079,7824,640094,0
474,-1,671968,230723,1242404,69259,8234,621236,0
475,-1,688950,235144,1356086,72068,9164,677896,0
475,-1,671423,231960,1434785,69500,8172,717261,0
475,-1,661966,230529,1469328,68488,9723,734703,0
475,-1,675939,232835,1195733,70249,8118,597817,0
476,-1,666738,230365,1236774,68711,8435,618434,0
476,-1,670592,231132,1396202,68963,8588,697904,0
476,-1,658270,229503,1374353,68122,8353,687207,0
476,-1,673191,230794,1260539,69290,8553,630320,0
477,-1,670489,231403,1242884,69046,7487,621487,0
477,-1,673888,233071,1347608,69880,8387,673428,0
477,-1,670315,232474,1278462,69342,7842,639285,0
477,-1,676398,232475,1236754,70026,7752,618482,0
478,-1,664699,229593,1214108,68487,7914,607138,0
478,-1,687821,235364,1364653,72175,9035,682302,0
478,-1,663351,230093,1317108,68262,7805,658582,0
478,-1,673932,231845,1355811,69674,8660,677846,0
479,-1,667497,231063,1369773,68995,8903,684883,0
479,-1,664773,230167,1317417,68617,7792,658361,0
479,-1,664021,230764,1348472,68439,8117,674266,0
479,-1,671447,230858,1343705,69360,8005,671894,0
480,-1,664705,229821,1296744,68592,8180,648411,0
480,-1,671183,231376,1315528,69098,9051,657520,0
480,-1,660055,229531,1379742,67960,8472,689805,0
480,-1,676013,231641,1264887,69779,8269,632491,0
481,-1,666718,231009,1208218,69003,7981,604415,0
481,-1,665902,229809,1291832,68553,8099,645718,0
481,-1,682668,235090,1384342,71631,9319,692133,0
481,-1,674170,231391,1315128,69526,8076,657525,0
482,-1,665231,230431,1336585,68828,8045,667964,0
482,-1,667360,230644,1315535,68817,8496,657260,0
482,-1,664792,230381,1264334,68284,8106,632187,0
482,-1,670275,230271,1278002,69115,7673,639078,0
483,-1,665436,230085,1319468,68669,8510,660150,0
483,-1,667049,231046,1389001,68927,8411,693921,0
483,-1,663392,230392,1298777,68288,8305,649437,0
483,-1,675061,232668,1362692,70161,8914,681371,0
484,-1,665487,230525,1396952,68845,8336,698241,0
484,-1,668119,230787,1427290,68902,8313,713199,0
484,-1,665242,231679,1250988,68810,8532,625534,0
484,-1,670056,230547,1325373,69192,8675,662726,0
485,-1,668906,232052,1372103,69604,8559,685971,0
485,-1,687612,235150,1432266,72162,9337,716097,0
485,-1,660782,229972,1309473,68092,8148,654791,0
485,-1,671971,231589,1320994,69728,8354,660582,0
486,-1,667601,230652,1662093,68967,10459,830938,0
486,-1,663639,229894,1278210,68557,8229,639478,0
486,-1,659408,229803,1247733,68141,7557,623918,0
486,-1,671407,231717,1336080,69606,8163,668075,0
487,-1,684278,237135,1390528,70680,8494,695088,0
487,-1,666740,231378,1393569,69086,9041,696796,0
487,-1,683223,235277,1419278,71641,9039,709577,0
487,-1,694454,239554,1310913,71865,8144,655512,0
488,-1,717566,248110,1320916,73570,7797,659850,0
488,-1,668205,231726,1286360,69261,8187,643068,0
488,-1,660307,230261,1313880,68200,9302,656919,0
488,-1,671168,231007,1353748,69344,7778,676894,0
489,-1,720327,249921,1349218,74155,8137,674169,0
489,-1,664780,230738,1387533,68825,8632,693729,0
489,-1,660199,230527,1353009,68346,10178,676416,0
489,-1,670092,230838,1317857,69278,8078,658976,0
490,-1,720900,250256,1585105,74464,8618,792586,0
490,-1,671707,231612,1466755,69199,8799,734539,0
490,-1,666163,232632,1296111,69187,9441,648023,0
490,-1,673072,232197,1255275,69963,7394,627730,0
491,-1,720271,248671,1426288,73755,8191,713145,0
491,-1,669683,231073,1271175,69005,8279,635482,0
491,-1,666686,230462,1314265,68263,9549,657177,0
491,-1,668450,230770,1321034,69323,7722,660607,0
492,-1,739258,254108,1378860,77371,8577,689462,0
492,-1,668156,230546,1389822,68866,8301,694647,0
492,-1,665443,229989,1279337,68136,8100,639708,0
492,-1,667829,230514,1218406,69188,7465,609254,0
493,-1,717259,248983,1249965,73918,7187,625017,0
493,-1,667827,230499,1442330,68798,9134,721429,0
493,-1,672485,233294,1222956,69493,7987,611522,0
493,-1,669622,231531,1318574,69558,8123,659187,0
494,-1,717786,249455,1373562,74083,7992,686878,0
494,-1,666593,230294,1354724,68731,8971,677415,0
494,-1,685730,235292,1293106,71676,8956,646513,0
494,-1,667693,230644,1243494,69195,8750,621776,0
495,-1,715656,248704,1264551,73788,7539,632083,0
495,-1,688221,235392,1423523,72371,8958,711728,0
495,-1,665408,230340,1268208,68259,8345,634139,0
495,-1,673790,231389,1221819,69485,8735,610960,0
496,-1,717896,248485,1330741,73765,8157,665406,0
496,-1,672093,232284,1255597,69737,8873,627948,0
496,-1,666697,231410,1231503,68718,7872,615719,0
496,-1,672283,230957,1353162,69328,8984,676891,0
497,-1,722725,248378,1234478,73701,8524,617265,0
497,-1,666734,230348,1273363,68874,8877,636819,0
497,-1,661553,229848,1340439,68076,8207,670261,0
497,-1,670482,230129,1263848,68957,8011,631965,0
498,-1,744112,253775,1334668,77246,9729,667368,0
498,-1,663951,230145,1310081,68799,7830,655079,0
498,-1,689147,235962,1504963,72322,10366,751976,0
498,-1,675221,232786,1275891,70161,8566,637276,0
499,-1,720150,248394,1279850,73684,8259,639950,0
499,-1,670990,232450,1355453,69824,8816,677397,0
499,-1,668018,231693,1453706,68857,8976,727016,0
499,-1,690701,235427,1408688,72569,9045,704268,0
500,-1,721194,248826,1280054,73867,8584,640011,0
500,-1,664333,230381,1280025,68732,7648,640410,0
500,-1,664690,230899,1540196,68438,10178,769334,0
500,-1,671375,231855,1325191,69606,8708,662616,0
501,-1,718895,248379,1214168,73740,7416,606965,0
501,-1,667089,231252,1378399,69007,8106,689203,0
501,-1,662466,230406,1378729,68261,8299,689399,0
501,-1,670656,230766,1319320,69211,8386,659695,0
502,-1,719344,248490,1301357,73719,8597,650717,0
502,-1,668323,230731,1349344,68839,8391,674718,0
502,-1,667324,232792,1267750,69280,8527,633934,0
502,-1,671289,231264,1543708,69452,8720,771398,0
503,-1,724692,251153,1469850,74933,10194,735021,0
503,-1,666947,230713,1313957,68862,8775,656697,0
503,-1,664527,230238,1337964,68225,7857,668921,0
503,-1,672592,231760,1279540,69575,8653,639482,0
504,-1,721082,248701,1304933,73790,8653,652512,0
504,-1,672585,232863,1383742,69814,8782,691923,0
504,-1,663039,229774,1221628,68047,7742,610831,0
504,-1,671058,231581,1360491,69521,9097,679851,0
505,-1,724619,250671,1280466,74569,8059,640280,0
505,-1,668637,231062,1350586,68917,8210,674898,0
505,-1,662879,230382,1371545,68301,8862,685831,0
505,-1,667806,230481,1357627,69116,8925,679365,0
506,-1,716934,248086,1222898,73614,7992,611497,0
506,-1,666111,230742,1292899,68898,8198,646508,0
506,-1,664558,231409,1304864,68598,8646,652519,0
506,-1,674699,232652,1313045,70047,8432,655605,0
507,-1,716989,248673,1444851,73851,9339,722091,0
507,-1,669139,232425,1362526,69600,8075,681434,0
507,-1,663163,230614,1260331,68341,8636,630191,0
507,-1,670057,230513,1426872,69183,8688,713736,0
508,-1,717259,248964,1359098,73872,7974,679589,0
508,-1,663365,230224,1530996,68800,8329,765537,0
508,-1,662366,230453,1264598,68281,8346,632129,0
508,-1,673676,231822,1483149,69479,8255,742458,0
509,-1,726277,250660,1441565,74636,9294,720852,0
509,-1,666520,231822,1405875,69375,7832,703026,0
509,-1,666001,232250,1315544,69122,8605,657625,0
509,-1,674423,232875,1318297,70199,8647,658809,0
510,-1,718261,248452,1421581,73686,8884,710822,0
510,-1,665120,230838,1283328,69044,7624,641729,0
510,-1,665307,230551,1240794,68313,7966,620064,0
510,-1,669272,231012,1337448,69357,8014,668736,0
511,-1,718283,248395,1324391,73679,8375,662033,0
511,-1,664377,230811,1378417,69076,7773,689098,0
511,-1,662161,230259,1377952,68223,8160,688847,0
511,-1,672153,232430,1342202,69960,8321,671144,0
