0,0,122,644897.401639,220630.442623,1276237.786885,66623.614754,7796.040984,638092.155738,10618.209499,3189.252834,72354.715130,1290.848828,649.594973,36138.550667
0,1,0,-nan,-nan,-nan,-nan,-nan,-nan,-nan,-nan,-nan,-nan,-nan,-nan
1,0,121,644068.917355,220301.487603,1262861.123967,66553.661157,7738.157025,631425.644628,9023.776470,2328.603203,81613.962887,1182.394947,685.935954,40817.981215
1,1,0,-nan,-nan,-nan,-nan,-nan,-nan,-nan,-nan,-nan,-nan,-nan,-nan
2,0,121,643877.495868,220356.966942,1274155.338843,66527.404959,7787.801653,637052.710744,8480.899759,2370.964925,73255.916476,1117.302992,638.248839,36595.418299
2,1,0,-nan,-nan,-nan,-nan,-nan,-nan,-nan,-nan,-nan,-nan,-nan,-nan
3,0,121,643767.090909,220208.363636,1263205.694215,66494.793388,7730.000000,631597.256198,9106.631074,2437.496351,67286.329458,1180.814461,629.682578,33648.084142
3,1,0,-nan,-nan,-nan,-nan,-nan,-nan,-nan,-nan,-nan,-nan,-nan,-nan
4,0,121,644897.900826,220455.611570,1278567.454545,66616.140496,7841.727273,639270.884298,9681.605435,2739.994629,69811.236364,1300.863815,654.065215,34896.147777
4,1,0,-nan,-nan,-nan,-nan,-nan,-nan,-nan,-nan,-nan,-nan,-nan,-nan
5,0,121,645065.917355,220614.942149,1268885.702479,66619.272727,7768.909091,634419.446281,9551.051643,2740.639921,76909.935548,1166.647163,649.202906,38398.850846
5,1,0,-nan,-nan,-nan,-nan,-nan,-nan,-nan,-nan,-nan,-nan,-nan,-nan
6,0,121,645684.057851,220665.884298,1275244.545455,66756.619835,7903.000000,637609.876033,10069.882770,2758.601521,69465.079341,1310.593426,727.998433,34733.110502
6,1,0,-nan,-nan,-nan,-nan,-nan,-nan,-nan,-nan,-nan,-nan,-nan,-nan
7,0,121,644965.297521,220435.355372,1268305.074380,66599.347107,7758.190083,634138.099174,9311.432369,2805.634248,83957.892907,1211.001284,686.155120,41934.561310
7,1,0,-nan,-nan,-nan,-nan,-nan,-nan,-nan,-nan,-nan,-nan,-nan,-nan
8,0,121,646148.644628,220811.214876,1274771.504132,66807.239669,7790.958678,637365.280992,11249.134349,3268.287737,82113.860079,1421.257254,646.432018,41047.456091
8,1,0,-nan,-nan,-nan,-nan,-nan,-nan,-nan,-nan,-nan,-nan,-nan,-nan
9,0,121,644854.859504,220528.900826,1279219.694215,66640.140496,7826.272727,639593.685950,9836.510489,2830.814293,75656.975561,1217.669990,640.280775,37816.183596
9,1,0,-nan,-nan,-nan,-nan,-nan,-nan,-nan,-nan,-nan,-nan,-nan,-nan
10,0,121,643834.958678,220322.561983,1263450.512397,66489.586777,7727.719008,631691.694215,10573.580821,3121.688608,78371.879707,1264.772685,699.077104,39146.486959
10,1,0,-nan,-nan,-nan,-nan,-nan,-nan,-nan,-nan,-nan,-nan,-nan,-nan
11,0,121,643459.876033,220129.677686,1273456.785124,66421.760331,7722.041322,636718.049587,8894.193247,2586.692602,76161.332954,1080.425192,642.499733,38042.192530
11,1,0,-nan,-nan,-nan,-nan,-nan,-nan,-nan,-nan,-nan,-nan,-nan,-nan
12,0,121,645178.842975,220714.322314,1274658.264463,66670.909091,7824.512397,637303.421488,9972.581350,2993.479476,71923.783810,1233.857574,628.373384,35925.375992
12,1,0,-nan,-nan,-nan,-nan,-nan,-nan,-nan,-nan,-nan,-nan,-nan,-nan
13,0,121,644865.991736,220575.545455,1270938.867769,66688.628099,7721.347107,635449.834711,10204.703482,2832.265224,82805.523386,1310.845801,678.100967,41371.909048
13,1,0,-nan,-nan,-nan,-nan,-nan,-nan,-nan,-nan,-nan,-nan,-nan,-nan
14,0,121,645308.826446,220520.157025,1274144.710744,66664.033058,7877.760331,637055.628099,11170.579185,3060.459186,73347.817520,1360.461765,614.299238,36654.465697
14,1,0,-nan,-nan,-nan,-nan,-nan,-nan,-nan,-nan,-nan,-nan,-nan,-nan
15,0,239,642795.874477,220326.334728,1266556.757322,66465.460251,7724.297071,633259.585774,8537.462494,2443.534669,68584.954082,998.239453,669.604973,34281.207957
15,1,0,-nan,-nan,-nan,-nan,-nan,-nan,-nan,-nan,-nan,-nan,-nan,-nan
