0,3,757985,266313,1362584,78581,8847,680953,0
0,-1,690073,237590,1354700,70870,8383,676907,0
0,3,760004,266263,1435711,78590,8691,717266,0
0,3,766080,269099,1752691,79838,10696,875606,0
0,3,762188,266539,1461054,78752,10229,729869,0
0,3,760463,265942,1681722,78511,10098,840381,0
0,-1,692175,237511,1264913,70865,7275,632388,0
0,3,760657,267482,1549618,79014,9708,774383,0
0,3,766580,269228,1544217,79832,10229,771429,0
0,3,725078,254515,1489224,75166,9369,744339,0
0,3,726699,252752,1504101,76956,9529,751684,0
0,-1,688212,237205,1344515,70746,7491,671278,2
0,3,704353,247349,1473449,73330,9247,736499,0
0,-1,713532,241905,1368212,74006,8723,683385,0
0,3,706838,247918,1386467,73513,8664,692860,0
0,3,713961,250763,1522279,74894,9516,760411,0
0,-1,697861,238876,1318085,71461,8572,658367,0
0,3,733089,253123,1586091,77058,10615,792453,0
0,3,705964,250005,1393224,74527,8260,696123,0
0,3,707623,248729,1255614,73901,8639,627431,0
0,3,703714,248041,1343223,73786,8452,670331,0
0,3,705140,248563,1416926,73918,8329,708028,0
0,-1,694271,237732,1404852,70907,9208,701950,0
0,3,706276,248450,1360574,73827,8443,679997,0
0,3,706692,247843,1503464,73620,9476,751307,0
0,3,705996,247231,1379404,73425,8112,689358,0
0,3,706954,248499,1290244,73967,8744,644735,0
0,3,708231,249022,1503010,74088,8881,751129,0
0,3,730285,252746,1442341,77108,9975,720529,0
0,-1,695672,237682,1367408,70817,8885,683083,0
0,3,709673,248457,1459078,73923,9324,729155,0
0,3,709492,248514,1345836,73933,8310,672565,0
0,3,709225,248013,1334707,73766,9769,666966,0
0,3,705828,248411,1396530,73799,8736,697925,0
0,-1,688437,237026,1245232,70643,7767,622182,0
0,3,708386,247858,1398850,73620,8587,699082,0
0,3,707565,248452,1282727,73941,8578,640927,0
0,3,710881,248319,1382957,73818,8702,690792,0
0,3,709671,248694,1456792,73989,9144,728034,0
0,-1,635843,218530,1342301,65556,7870,670841,0
0,3,709434,248495,1436854,73972,8457,718027,0
0,3,711667,248470,1525730,73946,9956,762436,0
0,3,712384,248893,1441742,74019,9382,720535,0
0,3,710636,248510,1509001,73748,9232,754176,0
0,3,730069,252071,1411367,76753,10101,705054,0
0,3,714155,248587,1391284,73843,9275,695131,0
0,-1,637385,218659,1213064,65602,7025,606178,0
0,3,714062,250038,1524585,74198,9080,761994,0
0,3,712353,250286,1365538,74522,9304,682204,0
0,3,710848,248674,1444267,73840,9279,721792,0
0,3,711744,249157,1384520,74036,8874,691912,0
0,-1,636933,218692,1337679,65594,8476,668307,0
0,3,713641,250281,1511271,74696,9401,754772,0
0,3,710108,248220,1418866,73760,8996,709103,0
0,3,710853,248799,1346956,74047,9091,673030,0
0,3,714239,250243,1500784,74801,9291,748977,0
0,-1,638055,218697,1223057,65517,6560,611192,0
0,-1,640038,219066,1275734,65654,8117,637857,0
0,3,709694,248092,1454915,73804,9472,726979,0
0,3,715904,251020,1517914,75153,9461,758139,0
0,3,711345,248979,1473642,74167,8697,736016,0
0,-1,640688,219362,1276475,65841,8742,637167,0
0,3,712233,249456,1344338,74311,9782,671819,0
0,3,710144,248101,1481801,73845,9580,740605,0
0,3,714989,249422,1483830,74259,10150,741309,0
0,3,711984,248735,1439812,74083,10454,719519,0
0,3,715951,249508,1465614,74313,9151,732290,0
0,3,703839,248761,1527718,74105,8603,763484,0
0,3,703573,248423,1470157,73991,8978,734778,0
0,-1,635730,218792,1248526,65656,7752,623907,0
0,3,730066,253256,1359695,77320,10049,679479,0
0,3,712564,250909,1429396,75038,9173,714157,0
0,3,707727,248671,1455048,74015,9004,727201,0
0,3,705755,248874,1516645,74102,8349,758026,0
0,3,702914,247157,1359876,73611,7607,679517,0
0,-1,638867,218995,1196382,65741,7624,597833,0
0,3,706816,249105,1524546,74194,8954,761880,0
0,3,705430,248553,1389322,74040,8412,694290,0
0,3,709845,248847,1445530,74115,8995,722354,0
0,3,702410,248347,1353246,73906,9729,676339,0
0,3,703768,248216,1426758,73878,8733,713001,0
0,3,706804,248974,1360374,74121,8161,679809,0
0,-1,658435,223040,1299543,68796,8270,649493,0
0,3,705419,248288,1320919,73923,8184,660287,0
0,-1,641249,218681,1255214,65698,7778,627192,0
0,3,710294,250130,1488314,74627,9583,743615,0
0,-1,639262,218780,1347749,65734,7710,673483,0
0,3,710091,248941,1372956,74066,8922,686155,0
0,3,707469,248638,1447131,73918,8734,723143,0
0,3,711222,249478,1438822,74515,9693,718842,0
0,-1,640813,218228,1322887,65424,7238,661539,0
0,3,710064,249212,1445707,74137,9231,722423,0
0,3,707501,248696,1314212,73868,8725,656740,0
0,3,714901,249918,1530807,74543,10010,764991,0
0,3,706318,249233,1526183,74193,9449,762733,0
0,3,707314,248982,1451335,74073,9024,725280,0
0,3,729335,253756,1316076,77412,9231,657671,0
0,-1,640807,218968,1272654,65655,7436,635992,0
0,3,707235,248983,1374232,74072,9373,686752,0
0,3,711873,249768,1612278,74344,10399,805262,0
0,3,713018,250931,1484213,74898,9116,741598,0
0,-1,631909,218472,1130825,65639,6710,565045,0
0,3,708620,249039,1261981,74105,8949,630499,0
0,3,711304,249308,1450208,74193,8588,724440,0
0,-1,637871,219776,1345792,66050,8087,671840,0
0,3,709682,248662,1333254,73863,9092,666296,0
0,3,707749,248695,1322280,73930,9012,660738,0
0,3,714779,250843,1561184,74969,10349,779912,0
0,-1,635004,217915,1301184,65392,7655,650269,0
0,3,707317,248021,1356034,73700,8954,677473,0
0,3,733234,253607,1392322,77373,9595,695679,0
0,3,713183,249970,1776052,74418,11128,887570,0
0,3,712317,249882,1432806,74324,9274,716113,0
0,-1,633001,217988,1227319,65473,6644,613207,0
0,3,712070,248874,1432761,74063,9495,715893,0
0,3,710084,248552,1534535,73883,9605,766851,0
0,3,709312,248226,1459408,73798,10024,729479,0
0,3,702385,248695,1384378,74014,8610,691718,0
0,3,706106,248947,1495504,73996,9641,747349,0
0,-1,658575,223443,1327962,69078,8213,663533,0
0,3,709291,249513,1357012,74352,9388,677836,0
0,3,727811,253131,1397544,77152,8824,698352,0
0,-1,641495,219381,1329067,66086,7624,663983,0
0,3,712879,250374,1456399,74796,9151,727597,0
0,3,727618,253070,1416934,77221,9831,708192,0
0,3,709012,248293,1367772,73836,9224,683497,0
0,3,706195,247819,1387520,73694,9635,693466,0
0,3,714547,250310,1506319,74787,9626,752669,0
0,-1,639044,219714,1287445,66258,7925,643181,0
0,3,710110,248636,1473424,73889,9821,736421,0
0,3,711190,248950,1366438,74014,8459,683042,0
0,3,710672,250338,1492600,74735,9711,745576,0
0,-1,644178,220774,1331289,66654,7959,664688,0
0,3,710031,248764,1431854,74003,9160,715576,0
0,3,708800,248433,1356701,73790,8794,678130,0
0,3,709264,248872,1329994,74053,8690,664615,0
0,3,712061,249068,1355463,74116,9436,677270,0
0,3,712012,249355,1807133,74047,10275,903183,0
0,3,712791,249700,1469130,74265,9719,734126,0
0,3,713315,249760,1570649,74230,10639,784776,0
0,3,714599,249277,1459193,74105,9896,728787,0
0,3,711304,248609,1378591,73992,8755,688263,0
0,-1,636737,217857,1281788,65428,7631,640568,0
0,3,712690,248824,1461246,73975,9812,730276,0
0,3,710566,249781,1408839,74153,8126,704456,0
0,3,712847,249728,1336532,74235,8979,667853,0
0,-1,638098,218788,1287086,65726,7638,643125,0
0,3,709765,249312,1527046,74097,9324,763150,0
0,3,714668,250288,1452934,74597,9914,725564,0
0,3,712020,248959,1388714,73887,8789,693755,0
0,3,712747,250057,1459725,74458,9363,729187,0
0,3,710657,248678,1368030,73839,9503,683523,0
0,3,711862,248994,1474166,73949,10266,736369,0
0,3,712218,249379,1467995,73988,9346,733626,0
0,3,713709,249211,1424684,73991,9329,711942,0
0,-1,635543,218624,1314783,65705,7537,656975,0
0,3,708654,248932,1418511,73805,9924,708845,0
0,-1,686473,232531,1385939,71741,8493,692562,0
0,3,717600,250541,1437516,74715,9403,718030,0
0,-1,640367,219699,1316565,66244,8217,657271,0
0,3,714114,249445,1383662,74193,9541,691528,0
0,3,716597,249273,1459276,74097,9293,729221,0
0,-1,637074,218008,1362163,65534,7931,680792,0
0,3,714913,249709,1471113,74355,9398,735139,0
0,3,714640,249803,1464811,74259,9016,731862,0
0,3,717645,249452,1380190,73979,8799,689629,0
0,3,714869,249695,1284069,74112,9221,641614,0
0,3,718342,249898,1466018,74138,9808,732618,0
0,3,710998,251067,1553603,74736,9841,774971,0
0,-1,657089,223140,1329275,69026,8326,664288,0
0,3,712680,250775,1439121,74397,9899,719162,0
0,3,713737,251208,1466726,74809,9919,732794,0
0,3,711593,249277,1312630,73866,9670,656067,0
0,-1,639075,218748,1156588,65789,8490,577854,0
0,3,711199,249924,1479725,74197,9600,739490,0
0,3,713095,249554,1387235,73925,8744,693266,0
0,3,713480,249260,1561629,73874,10193,779418,0
0,3,710234,249506,1344455,74134,8816,671845,0
0,3,715405,250697,1496961,74733,10150,746551,0
0,3,717307,251630,1440067,75109,10221,719256,0
0,3,713623,249994,1474555,74278,10168,736757,0
0,3,718060,251422,1557545,74925,9967,778036,0
0,-1,640570,220509,1352951,66450,7545,675904,0
0,3,711788,249850,1580156,74137,9496,789651,0
0,-1,641047,219271,1398167,65881,7672,698775,0
0,3,709785,248847,1536574,73956,9458,767941,0
0,3,709720,248708,1379603,73909,9182,689486,0
0,3,711104,248382,1377769,73844,9420,688415,0
0,3,708201,248803,1546550,73845,10812,772558,0
0,-1,641088,219454,1294695,66051,7809,646998,0
0,3,711472,248794,1419778,73903,9526,709576,0
0,3,711189,248697,1629479,73869,10386,814349,0
0,3,705163,247334,1393770,73422,10025,696447,0
0,3,714886,249408,1584738,74174,10516,791452,0
0,-1,648312,222295,1555113,67125,10342,776702,0
0,3,710231,250323,1602828,74743,10201,799969,0
0,3,730245,253207,1466857,77234,10068,733037,0
0,3,708640,248737,1309032,73922,8928,654009,0
0,3,707306,248990,1428323,74005,8919,713688,0
0,-1,641340,218931,1228239,65723,7566,613652,0
0,3,709772,248403,1506692,73735,9825,753036,0
0,-1,644752,219400,1347091,65821,8331,673346,0
0,3,713600,249753,1390899,74408,10157,694669,0
0,3,730466,253218,1539426,77212,9559,769393,0
0,-1,638641,219294,1349065,65812,7653,674149,0
0,3,712287,248895,1425941,74059,9151,712498,0
0,3,712456,248810,1293268,74021,9180,646126,0
0,3,709955,248219,1426356,73653,9276,712709,0
0,3,709196,248380,1403123,73714,8703,701222,0
0,3,716524,249934,1466884,74501,9868,732955,0
0,3,711688,249227,1521444,73964,11562,760030,0
0,3,713024,248454,1475925,73757,10120,737534,0
0,3,711152,248299,1390366,73498,10247,694821,0
0,3,714390,249103,1419842,73850,10095,709463,0
0,3,720343,251340,1470534,74762,11066,734275,0
0,3,712184,249248,1842567,73915,11218,920998,0
0,3,713781,248423,1601385,73507,10846,800265,0
0,3,713761,248932,1358751,73760,9485,679140,0
0,3,709287,249180,1564717,73753,8934,782040,0
0,3,710110,249090,1240948,73792,8793,620097,0
0,3,714454,250806,1456525,74716,9817,728021,0
0,-1,659313,223815,1250182,69077,8272,624731,0
0,3,709263,248815,1451956,73817,9132,725596,0
0,3,710985,248952,1427526,73814,9523,713266,0
0,3,709607,248130,1453245,73610,10277,726234,0
0,3,715920,251261,1470419,74926,9665,734359,0
0,-1,637672,219024,1215500,65702,7080,607386,0
0,3,728953,252793,1450179,76963,9781,724461,0
0,3,733278,252755,1462278,76949,10213,730555,0
0,3,707586,247654,1585971,73394,9311,792108,0
0,3,708050,248067,1359427,73589,10360,679867,0
0,3,711629,248165,1344799,73683,9505,671918,0
0,3,712606,249945,1395434,74420,8891,697057,0
0,3,712496,249916,1419425,74435,8797,709153,0
0,3,709309,248576,1341193,73810,9312,670086,0
0,-1,640773,218978,1207547,65631,7526,603469,0
0,3,734437,253438,1480251,77168,10370,739653,0
0,3,729590,252625,1508326,76850,9605,753683,0
0,3,715587,250981,1435748,74831,9064,717227,0
0,3,714294,248654,1441142,73765,9785,720200,0
0,-1,640305,219269,1297026,65715,7715,648239,0
0,3,712377,248756,1471009,73875,10227,734944,0
0,3,715605,248681,1539723,73828,10310,769454,0
0,3,709729,249104,1316955,73979,9700,658003,0
0,3,705370,247757,1460712,73470,9567,729970,0
0,3,709726,247714,1466397,73440,9659,732720,0
0,3,709857,248449,1444532,73734,9684,721862,0
0,3,713248,248889,1467632,73869,9646,732846,0
0,3,708963,248178,1414908,73630,8997,707019,0
0,3,717844,250967,1387251,74746,9416,692992,0
0,3,712652,248455,1458647,73692,9552,729021,0
0,-1,639945,218696,1276924,65648,7365,638091,0
0,3,731615,252739,1489285,76919,9562,744273,0
0,3,712966,248729,1375450,73775,9729,687311,0
0,3,708585,248303,1467088,73714,8543,733149,0
0,3,711517,248432,1431701,73693,9069,715559,0
0,-1,640882,218888,1264665,65692,7916,631929,0
0,3,712106,248281,1345530,73703,8964,672188,0
0,3,712584,248741,1358414,73761,9350,678371,0
0,3,714916,249494,1284268,74221,9495,641298,0
0,-1,639559,218983,1242207,65660,7071,620846,0
0,3,712414,249319,1392042,74209,8509,695213,0
0,3,712334,248610,1497044,73732,9063,748158,0
0,3,733673,252777,1460087,76873,9537,729800,0
0,-1,662865,223699,1284691,69121,8992,642027,0
0,3,712438,248413,1330020,73602,8288,664550,0
0,3,712814,248085,1490103,73514,8955,744205,0
0,3,713699,248309,1429010,73586,7592,714126,0
0,3,700211,248067,1443211,73164,8661,721252,0
0,3,701951,247922,1443514,73031,8458,721400,0
0,3,711198,251171,1385366,74403,8444,692087,0
0,-1,643276,220437,1255029,66252,7741,627133,0
0,3,725280,253550,1418213,76702,10142,708751,0
0,3,706891,248749,1458184,73344,8603,728693,0
0,3,705433,249478,1362700,73769,9455,679873,0
0,-1,641834,219412,1317725,65929,8177,658414,0
0,3,708190,249174,1375793,73510,8484,687566,0
0,3,708542,249129,1395581,73403,8966,697333,0
0,3,703418,247262,1269666,72904,8430,634421,0
0,-1,642262,219320,1209926,65984,6756,604616,0
0,3,703162,248313,1381365,73193,9066,690244,0
0,-1,649428,221412,1390210,66926,9372,693966,0
0,3,705435,248468,1483236,73165,9356,741218,0
0,3,701788,247795,1438966,73106,9504,719253,0
0,3,705239,247777,1323417,73145,8692,661342,0
0,3,706272,248164,1393291,73324,8856,696435,0
0,3,726056,252966,1412526,76623,9956,705866,0
0,3,728843,253041,1467249,77517,10452,733231,0
0,3,709597,248190,1453583,74129,10140,726453,0
0,3,710797,249210,1347094,74684,9935,673065,0
0,3,711602,248640,1455583,74269,10636,727473,0
0,-1,639056,219343,1185581,66035,7685,592348,0
0,3,716679,249993,1294600,74949,9456,646616,0
0,3,714374,248845,1420997,74306,10844,710112,0
0,3,708646,249417,1310976,74761,9541,654806,0
0,3,730659,252804,1522275,77456,11344,760763,0
0,3,705948,248298,1368559,74194,9461,683875,0
0,3,714770,250590,1330794,75212,9129,664804,0
0,-1,661314,223665,1292823,69239,8801,645735,0
0,3,710379,248739,1478429,74342,9319,738756,0
0,3,707724,248346,1460735,74163,9511,730025,0
0,3,711449,248048,1477138,74029,9435,738149,0
0,3,714718,250192,1382245,75128,8625,690319,0
0,3,712548,248497,1485756,74273,9435,742520,0
0,-1,645713,220530,1478348,66614,8918,738554,0
0,3,712675,248898,1335191,74599,8589,666678,0
0,3,708184,248614,1436950,74290,8344,718093,0
0,-1,659324,223539,1340682,69214,8129,669947,0
0,3,729878,252888,1463646,77490,9789,731520,0
0,3,729233,252844,1499621,77468,9533,749588,0
0,3,709532,248115,1519648,74124,8870,759388,0
0,3,710450,247986,1424423,74037,8533,711894,0
0,-1,642185,219336,1335690,66061,8386,667416,0
0,3,745297,259363,1512442,77763,9522,755665,0
0,3,711540,249005,1334739,74430,9276,666946,0
0,3,715639,249895,1481708,74680,9036,740449,0
0,3,711070,247833,1446874,73935,9213,723161,0
0,3,712977,248719,1512652,74281,9364,756013,0
0,-1,640532,218854,1336997,65837,7786,667764,0
0,3,711544,248165,1425405,74099,9474,712320,0
0,3,706989,248933,1363885,74561,9589,681404,0
0,3,706326,248190,1371321,74151,9782,685105,0
0,-1,640260,219587,1222002,66143,8208,610689,0
0,3,707141,248164,1345972,74158,8835,672582,0
0,3,706635,247950,1343872,74091,8908,671577,0
0,3,710650,248029,1337733,74160,9131,668402,0
0,-1,640801,219155,1316449,65946,7872,657891,0
0,3,712783,249380,1389858,74718,9023,694375,0
0,3,708615,247969,1447171,74089,9427,723211,0
0,3,708281,247895,1506061,74013,9007,752695,0
0,-1,661494,223559,1213338,69240,8577,606275,0
0,3,709966,249182,1367324,74414,8952,683288,0
0,3,712701,248495,1433514,74164,9153,716384,0
0,3,706813,247795,1523679,73962,10215,760936,0
0,-1,644946,219895,1230622,66244,7737,614807,0
0,3,710129,248598,1492571,74192,9486,745773,0
0,3,709033,248737,1330226,74330,9240,664775,0
0,-1,642869,219450,1296950,66006,8090,647639,0
0,3,713221,249362,1474303,74486,9945,736695,0
0,3,715445,248886,1511562,74501,9303,755135,0
0,3,708731,248076,1344324,74035,9271,671816,0
0,3,709985,248047,1349687,74110,9556,674466,0
0,-1,644083,219638,1279459,66149,8170,639432,0
0,3,715673,249743,1493071,74928,9431,745769,0
0,3,718732,250322,1390390,75086,8934,694605,0
0,3,707328,248666,1384989,74224,9547,692107,0
0,3,711590,250383,1383215,75121,9999,690975,0
0,-1,666112,224215,1245410,69395,8360,622223,0
0,3,707257,247506,1619861,73815,9516,809438,0
0,3,709299,248888,1465865,74300,10292,732472,0
0,3,712492,248790,1455586,74230,9863,727365,0
0,3,710567,249049,1457161,74223,9447,728207,0
0,3,731603,252650,1479443,77270,10032,739274,0
0,3,716867,250344,1371840,74999,9152,685158,0
0,-1,636073,220749,1405138,66672,7602,702090,0
0,3,712973,249047,1355134,74317,9671,677129,0
0,3,716196,250308,1490003,75007,9762,744304,0
0,3,712187,250210,1390976,74931,9768,694857,0
0,3,715710,250385,1421529,74998,9191,710122,0
0,-1,639634,220751,1299483,66685,7596,649219,0
0,3,713117,248748,1392626,74227,9886,695928,0
0,3,711464,247778,1336538,73877,9763,667875,0
0,3,716377,250406,1389353,75023,9720,693895,0
0,3,712394,248567,1556117,74020,10724,777815,0
0,3,714451,249850,1484106,74711,9587,741561,0
0,3,714903,249151,1506198,74291,10460,752780,0
0,-1,641661,221851,1464581,67113,8348,731639,0
0,3,733210,252955,1621652,77323,11396,810522,0
0,3,716348,248719,1518021,74179,10856,758522,0
0,3,713634,248054,1487916,73909,11489,743637,0
0,-1,632801,218332,1128798,65649,7351,563993,0
0,3,706430,248479,1534510,74083,10786,766705,0
0,3,709256,248833,1458528,74163,9735,728915,0
0,3,712142,249865,1296875,74912,10376,647889,0
0,3,712530,249969,1463494,74735,9324,731439,0
0,-1,635377,219233,1225904,65998,7503,612541,0
0,3,743214,260787,1413058,78275,9122,706044,0
0,3,719160,251034,1342735,75239,9348,670736,0
0,3,714203,249739,1269204,74623,8979,634286,0
0,3,713355,249514,1378547,74553,8726,688952,0
0,3,714647,249624,1522026,74740,8671,760576,0
0,-1,634997,218926,1309414,65848,7559,654335,0
0,3,716901,249706,1450361,74725,9836,724901,0
0,3,711670,249756,1506573,74811,10002,752888,0
0,3,707408,248248,1394210,74173,9028,696783,0
0,3,708737,248338,1528133,74172,9430,763824,0
0,3,716993,250757,1503593,75259,9739,751194,0
0,3,713960,248886,1473168,74346,10022,736224,0
0,3,711107,249499,1466650,74575,10020,732979,0
0,-1,641370,220761,1377791,66683,8083,688445,0
0,3,714539,249930,1331323,74708,9367,665313,0
0,3,715090,249592,1512638,74626,9600,755891,0
0,3,721206,251164,1391765,75391,9225,695014,0
0,3,719517,251205,1464899,75350,9401,731731,0
0,3,717016,249707,1408292,74632,8819,703765,0
0,3,715653,250278,1460098,75053,8514,729553,0
0,3,713455,249151,1366743,74451,8554,682890,0
0,-1,636818,219237,1214727,66023,7068,607093,0
0,-1,638063,219797,1354571,66199,7760,676745,0
0,3,731146,253846,1550999,77690,10826,775013,0
0,3,712863,249607,1633789,74508,9600,816510,0
0,3,713609,249476,1384305,74427,9058,691812,0
0,3,714693,250450,1615832,74695,10187,807387,0
0,-1,638987,219232,1372931,65970,7282,686087,0
0,3,716378,249390,1484498,74393,9746,741641,0
0,3,711918,249418,1472925,74288,9696,736056,0
0,3,732583,253389,1514263,77519,10126,756872,0
0,3,713436,249402,1329186,74410,8284,664195,0
0,3,710519,248492,1326016,74124,9464,662597,0
0,3,713293,249251,1457806,74451,9439,728449,0
0,3,716222,250391,1393474,75065,9415,696069,0
0,3,734969,253605,1562552,77647,9655,780853,0
0,-1,638968,219678,1333622,66072,7746,666468,0
0,3,715871,249246,1388214,74426,9468,693601,0
0,3,709795,248467,1468365,74204,9646,733491,0
0,3,714940,249239,1547206,74455,10061,773187,0
0,-1,639871,219909,1191854,66185,7056,595586,0
0,3,718661,250816,1363555,75229,9587,680992,0
0,3,722143,250946,1399204,75246,8962,699337,0
0,3,713357,249497,1356050,74449,10698,677627,0
0,-1,643042,220999,1305781,66842,8050,652302,0
0,3,713766,249429,1402346,74430,9829,701008,0
0,3,731052,253606,1619700,77632,11283,809304,0
0,-1,638393,220231,1351180,66482,7628,675073,0
0,3,711570,248749,1427274,74274,10233,713224,0
0,3,710588,248931,1525976,74261,9940,762593,0
0,3,715042,250201,1429504,74922,10041,714305,0
0,3,713264,249961,1516855,74848,9141,757433,0
0,3,713517,248691,1475136,74086,9430,737360,0
0,-1,638583,219715,1304589,66118,7257,651943,0
0,3,718444,250147,1425840,74713,9812,712444,0
0,3,735907,254722,1550011,77980,9914,774756,0
0,3,718571,251003,1460796,75189,8805,729676,0
0,-1,634080,218616,1299783,65757,8032,649560,0
0,3,712225,248802,1366722,74269,9550,682992,0
0,3,714008,249262,1425585,74508,9298,712435,0
0,3,736362,254064,1499576,77847,9886,749541,0
0,-1,642018,219868,1229722,66114,7482,614431,0
0,3,712738,249407,1416874,74530,9775,708072,0
0,3,734252,253624,1619008,77671,11120,809209,0
0,-1,638947,220176,1278202,66208,7131,638793,0
0,3,718203,250320,1572226,75012,9985,785460,0
0,3,715365,249032,1499124,74282,9843,748689,0
0,3,718414,249643,1556437,74509,9832,777840,0
0,-1,637892,219002,1307733,65799,7153,653508,0
0,3,710133,249025,1360374,74262,9816,680214,0
0,3,717564,250724,1453043,75058,9353,725754,0
0,3,715701,249956,1400319,74858,9702,699483,0
0,3,713878,248213,1413087,74003,9779,706097,0
0,3,712563,248553,1381058,74107,9104,690081,0
0,3,713564,248482,1350398,74132,9382,674759,0
0,3,714025,248898,1486080,74165,10536,742440,0
0,3,711955,248660,1521574,74164,10450,760403,0
0,-1,637680,219709,1219285,66074,7088,609247,0
0,3,717594,250536,1468894,74975,9888,733893,0
0,3,719153,249699,1511705,74699,10218,755367,0
0,-1,638599,219284,1209848,65839,7601,604529,0
0,3,712010,248663,1486967,74114,9846,743168,0
0,3,709017,248078,1426725,73997,9010,712951,0
0,3,713709,247964,1341641,74039,7893,670509,0
0,3,734111,253153,1512718,77547,10153,755904,0
0,3,714169,248361,1533631,74134,9329,766594,0
0,3,714280,248750,1403185,74384,9593,701117,0
0,-1,640317,219911,1321455,66074,6946,660174,0
0,3,733800,252812,1610293,77568,10494,804733,0
0,3,717649,249385,1425682,74665,9573,712472,0
0,3,713212,247534,1322088,74046,9356,660711,0
0,3,713731,248193,1359116,74289,9420,679074,0
0,-1,640869,219445,1251812,66014,7593,625417,0
0,3,735587,252015,1483559,77328,10128,741329,0
0,3,704898,248078,1313323,74240,8649,656273,0
0,3,705574,248047,1516398,74192,9247,757779,0
0,3,704891,248078,1525390,74308,11021,761368,0
0,-1,636804,219729,1266808,66102,7544,633041,0
0,3,710042,248714,1407471,74465,9316,703385,0
0,3,710275,247941,1655241,74184,10813,827118,0
0,-1,639908,220705,1533322,66596,9048,766197,0
0,3,708272,248435,1434857,74364,8754,717042,0
0,3,705967,247667,1377040,74086,9066,688187,0
0,3,709228,248104,1410771,74279,9385,705056,0
0,3,727127,252495,1531594,77483,9618,765443,0
0,3,707994,248057,1414876,74267,8929,707051,0
0,3,708916,248274,1479807,74315,9601,739526,0
0,3,713035,248628,1579403,74423,9647,789362,0
0,-1,637281,219027,1331225,65843,8565,665423,0
0,3,711044,249972,1459564,75145,9245,729227,0
0,3,709620,248222,1460175,74189,8945,729308,0
0,3,711660,249284,1527041,74714,8573,763086,0
0,3,713944,249056,1358850,74480,8933,679141,0
1,3,759399,266218,1514081,78585,10011,756735,0
1,3,757158,266018,1507860,78549,11471,753349,0
1,3,765227,267932,1625765,79302,10792,812391,0
1,-1,697776,239849,1384677,71834,8315,691758,0
1,3,769722,269910,1753228,80177,10955,875916,0
1,3,765493,266445,1479343,78629,11041,739248,0
1,3,782033,272205,1631479,82263,10510,815526,0
1,3,744432,261043,1396666,77034,10657,697754,0
1,3,708069,248004,1441027,73713,9955,720006,0
1,3,716510,250817,1459567,74810,10575,729082,0
1,-1,691213,237220,1233014,70716,7309,615897,0
1,3,714204,249969,1447713,74462,9263,723402,0
1,3,709300,248249,1435931,73821,8809,717959,0
1,-1,692709,237241,1418737,70727,9476,708781,0
1,3,710934,248012,1558785,73577,10243,779133,0
1,3,711096,247620,1386359,73478,8764,692843,0
1,3,703723,247748,1386770,73605,9150,693100,0
1,3,705772,248196,1554147,73839,9413,775997,0
1,-1,692384,237393,1385637,70735,9222,692617,0
1,3,709542,249879,1470228,74618,9448,734455,0
1,3,708787,248620,1396119,73855,8461,697713,0
1,3,709062,249087,1403124,74063,8965,701199,0
1,3,709193,248422,1466366,73894,9157,732801,0
1,3,705351,248156,1327774,73736,8464,663418,0
1,3,712522,250856,1560396,74932,8878,779584,0
1,-1,699918,239032,1419578,71473,9511,709128,0
1,3,706902,247705,1487318,73607,8960,743198,0
1,-1,694038,237990,1281147,71003,7797,640291,2
1,3,727917,252447,1438012,77011,10282,718623,0
1,3,707825,247824,1439949,73658,9024,719525,0
1,3,709898,247880,1271918,73656,8172,635610,0
1,-1,687626,236984,1496239,70576,8094,747851,0
1,3,706747,248288,1385113,73866,8920,691847,0
1,3,707120,248025,1509379,73770,9159,753276,0
1,3,708358,248338,1326303,73890,8249,662935,0
1,3,713399,249991,1486084,74679,9213,742406,0
1,-1,637876,219716,1234426,65956,6820,617022,0
1,3,711800,248096,1473059,73803,9824,736244,0
1,3,709165,248734,1412230,73908,8206,705788,0
1,3,714488,249800,1352403,74375,8869,675270,0
1,3,717035,250544,1687603,74890,9764,843015,0
1,3,710263,248484,1322515,73823,9264,660751,0
1,-1,636500,218706,1308144,65653,7680,653718,0
1,3,710552,248774,1442519,73861,9670,720844,0
1,3,712418,248328,1396709,73813,9292,697931,0
1,3,713379,250412,1472902,74510,9223,735923,0
1,3,713719,249112,1282948,73953,9285,641087,0
1,3,712051,249278,1416043,73964,8782,707746,0
1,3,713756,250187,1577471,74649,9531,788116,0
1,-1,640051,218602,1327529,65539,7989,663429,0
1,3,730652,253176,1436016,77154,9660,717614,0
1,3,711678,249071,1368364,74044,9685,683849,0
1,-1,638804,218856,1370270,65566,8198,684727,0
1,3,708786,248337,1437613,73858,8856,719133,0
1,3,731406,253195,1437331,77295,9292,718056,0
1,-1,638312,219018,1334217,65678,8517,666546,0
1,3,714412,250725,1526794,75020,10101,762510,0
1,3,711269,248486,1473717,73981,9455,736571,0
1,3,711303,248660,1551314,74029,10198,774392,0
1,-1,638841,218810,1386490,65584,9299,692742,0
1,3,716439,249233,1467423,74216,9466,733322,0
1,3,709740,247776,1446971,73826,9895,723041,0
1,3,716201,250379,1437444,74894,9935,718020,0
1,3,711361,248755,1464477,74106,9524,731753,0
1,3,712844,249028,1433805,74171,9338,716439,0
1,-1,642567,219357,1339950,65857,8760,669446,0
1,3,706357,248071,1339787,73847,8216,669461,0
1,3,703765,248906,1369268,74046,8851,684214,0
1,3,707128,248796,1349502,74048,9428,674414,0
1,3,705531,248551,1462526,74021,8984,730877,0
1,3,707088,249112,1485749,74228,8928,742426,0
1,-1,660672,223552,1345592,69036,8925,672359,0
1,3,708879,248405,1343986,74009,9293,671650,0
1,3,708653,249636,1457865,74559,9101,728441,0
1,3,729390,252971,1459202,77265,9663,729299,0
1,3,709436,248177,1498133,73870,8772,748731,0
1,3,730407,253153,1378977,77307,9713,689112,0
1,3,713555,249694,1568388,74602,10267,783059,0
1,-1,637647,218750,1203063,65619,6699,601193,0
1,3,705660,248221,1409982,73918,9465,704622,0
1,3,726675,252765,1358558,77195,9981,678873,0
1,3,704681,248355,1398944,73954,8115,699060,0
1,-1,637736,218235,1353329,65523,8344,676328,0
1,3,708471,248409,1439921,73934,9058,719684,0
1,-1,638836,218992,1340977,65807,7773,669808,0
1,3,729518,253128,1387749,77257,9442,693405,0
1,3,727125,253454,1467576,77313,10105,733433,0
1,-1,639470,218586,1200772,65705,6850,599960,0
1,3,706747,248240,1432948,73784,8958,716116,0
1,3,707821,248693,1450079,73950,8736,724686,0
1,3,708023,248157,1423689,73763,9403,711495,0
1,-1,645690,221025,1328816,66563,8124,663873,0
1,3,709361,248647,1448380,73919,9152,723848,0
1,3,710207,251247,1449716,75061,9436,724304,0
1,3,706033,248788,1438315,73974,9339,718830,0
1,3,705421,248830,1457925,73979,8422,728593,0
1,3,706606,249165,1334363,74111,8992,666768,0
1,3,728833,253487,1609230,77371,11234,804179,0
1,-1,641409,218961,1292752,65766,7082,646018,0
1,3,705819,248816,1527861,73982,8962,763703,0
1,3,705538,248191,1258706,73845,8616,628930,0
1,-1,633335,218482,1334567,65645,7836,666902,0
1,3,705239,248523,1367929,73957,8890,683595,0
1,3,710798,248767,1406365,73960,9545,702809,0
1,-1,634706,218825,1229184,65749,6996,614232,0
1,3,708344,248231,1449956,73786,9871,724673,0
1,3,708676,248972,1459918,74058,9189,729632,0
1,3,709296,248567,1452427,73955,8823,725989,0
1,3,712634,249518,1405727,74237,9795,702450,0
1,3,713809,250654,1455153,74788,9516,727019,0
1,3,708844,248548,1364761,73903,8517,682015,0
1,-1,634879,218993,1223963,65798,7355,611534,0
1,3,711515,248462,1367566,73833,9072,683599,0
1,3,730624,253580,1493047,77368,10347,746145,0
1,3,732564,253155,1398730,77179,10832,699025,0
1,3,714422,248373,1449922,73833,9635,724627,0
1,3,704912,248465,1390656,73851,9494,694989,0
1,-1,635177,218608,1220085,65676,6427,609579,0
1,3,707624,249096,1472559,74054,9692,735902,0
1,3,704773,248234,1414550,73778,8516,706688,0
1,-1,639278,218759,1271311,65771,7163,635349,0
1,3,710868,249353,1463350,74170,9487,731300,0
1,3,706584,249062,1362292,74125,9051,680669,0
1,3,710110,249178,1668822,74205,11738,833523,0
1,3,706974,248396,1797948,73779,11107,898696,0
1,-1,634276,218261,1163644,65545,6587,581681,0
1,3,731652,253301,1561171,77284,9261,780143,0
1,3,710183,248510,1578740,73874,8898,789024,0
1,3,709736,248543,1456172,73955,9122,727351,0
1,3,717240,250450,1388227,74755,10011,693508,0
1,-1,637964,218521,1245932,65703,7546,622635,0
1,3,711889,249947,1508280,74582,9815,753715,0
1,3,707602,248863,1482581,74000,9042,740880,0
1,3,710312,248895,1354389,74072,8271,676832,0
1,3,709075,248396,1420002,73849,9297,709515,0
1,3,710257,249238,1652327,74162,10669,825478,0
1,3,709000,248574,1334041,73852,8449,666688,0
1,3,714404,250231,1644751,74657,9803,821274,0
1,3,712447,248849,1481519,73942,10686,740398,0
1,-1,636410,218450,1173922,65668,6658,586646,0
1,3,713941,250367,1395953,74808,9929,697012,0
1,3,713380,249384,1316176,74106,9035,657722,0
1,3,707427,248944,1464439,73923,8991,731712,0
1,3,708583,248870,1485604,73964,8737,742440,0
1,-1,639141,218428,1207001,65625,7505,603147,0
1,3,707301,248502,1410218,73778,8051,704723,0
1,3,709082,248783,1375733,73897,8711,687184,0
1,3,710924,248676,1518222,73790,10380,758655,0
1,3,708122,248910,1466913,73871,9510,733163,0
1,3,711909,249903,1488130,74235,9640,743619,0
1,-1,641601,218744,1223935,65771,7225,611569,0
1,3,707561,247428,1411792,73389,8774,705565,0
1,3,710846,249266,1335632,74149,8246,667419,0
1,3,713126,249275,1428226,74026,9923,713740,0
1,3,715029,249813,1546197,74244,10035,772633,0
1,-1,638075,219217,1203400,65863,7202,601311,0
1,3,710348,248418,1477618,73802,8908,738552,0
1,3,712650,249535,1594844,74133,9832,797025,0
1,-1,636133,218631,1215582,65647,6859,607554,0
1,-1,643156,220575,1463416,66576,7983,731067,0
1,3,736809,254350,1453302,77525,9586,726173,0
1,3,714199,249938,1808309,74440,10887,903622,0
1,3,713639,249438,1496654,74155,9546,747320,0
1,3,716616,249650,1413936,74101,8445,706566,0
1,3,717961,250489,1438408,74440,9581,718825,0
1,3,722554,251838,1452512,75054,9672,725716,0
1,-1,636914,218408,1318677,65655,8242,658978,0
1,3,706352,249719,1436624,74105,9333,717942,0
1,3,708495,249550,1546556,74017,9761,773006,0
1,3,711004,250430,1481897,74333,10074,740579,0
1,3,711647,249925,1371600,74186,10102,685426,0
1,-1,636964,217978,1238834,65547,7361,619121,0
1,3,715418,251319,1522651,74825,9653,760843,0
1,3,712886,250048,1311968,74233,9032,655609,0
1,3,714001,249834,1481678,74174,9907,740377,0
1,3,710411,249479,1349421,74040,9926,674244,0
1,3,713569,249891,1390195,74273,9302,694769,0
1,3,715239,250006,1506265,74288,10554,752727,0
1,3,714362,249139,1364284,74006,9265,681572,0
1,-1,643496,219705,1344733,66128,7937,672171,0
1,3,734037,253498,1473698,77103,11042,737027,0
1,3,712600,250329,1492783,74354,10153,745928,0
1,-1,637232,218091,1195823,65569,7187,597417,0
1,3,710156,248704,1467033,73788,9417,733242,0
1,3,731624,253651,1468887,77293,10142,734207,0
1,3,735735,254352,1463722,77525,9591,731432,0
1,-1,639831,218971,1213350,65814,6818,606421,0
1,3,709246,248929,1351308,73958,8981,675253,0
1,3,709206,248366,1470359,73698,10352,734768,0
1,3,714499,249779,1495621,74399,9373,747289,0
1,3,713788,248834,1298466,73986,9659,648978,0
1,-1,662205,223641,1260564,69050,9630,629812,0
1,3,712554,248547,1500116,73860,10495,749704,0
1,3,713075,248251,1472082,73846,9863,735688,0
1,3,707253,247835,1355215,73658,8487,677209,0
1,3,707019,248233,1348078,73696,9452,673642,0
1,3,716617,251115,1562981,74901,10254,780578,0
1,-1,640013,219009,1286692,65788,7489,642909,0
1,3,710965,248691,1535345,73859,9481,767308,0
1,-1,646342,220641,1381095,66478,8552,689846,0
1,3,711179,249364,1288336,74101,9264,643720,0
1,3,709303,248498,1460534,73902,8839,729872,0
1,-1,637806,219401,1250487,65886,7808,624395,0
1,3,709782,248174,1469705,73739,9673,734477,0
1,3,708485,247592,1415363,73528,9933,707214,0
1,3,710968,248844,1535250,73953,9699,767203,0
1,3,711136,248981,1471657,74010,9403,735429,0
1,3,711776,248479,1394822,73795,9406,697004,0
1,3,710645,248283,1320678,73785,9054,659868,0
1,3,718650,250784,1475087,74688,9888,736940,0
1,3,712147,249076,1615914,73835,10498,807480,0
1,3,711758,248083,1475173,73412,10195,737227,0
1,3,734861,253631,1503218,77079,11022,751204,0
1,3,714380,248993,1418985,73741,11243,709065,0
1,3,713051,248703,1331318,73705,9570,665211,0
1,3,715953,249344,1508810,73848,10741,753997,0
1,-1,638434,219133,1251018,65776,7053,625094,0
1,3,716950,248782,1474407,73623,9033,736856,0
1,3,730647,253726,1309223,77037,10222,654182,0
1,3,707867,249317,1587646,73974,9839,793273,0
1,3,711548,248705,1516924,73725,9678,757900,0
1,3,709635,248656,1444753,73688,9622,722003,0
1,3,731872,253323,1495817,77119,10430,747337,0
1,3,727733,252401,1437839,76859,10045,718165,0
1,-1,666106,228908,1345312,68585,7503,672567,0
1,3,714193,250158,1429890,74538,9605,714433,0
1,3,711690,248468,1442542,73755,9873,720841,0
1,3,711256,248851,1394837,74109,9192,696854,0
1,3,712302,248531,1264708,73781,9240,631926,0
1,3,731665,253079,1536093,77054,10432,767642,0
1,3,707447,248137,1417291,73569,8916,708341,0
1,3,708637,248230,1451856,73658,9368,725613,0
1,-1,641863,219400,1215375,65773,7632,607069,0
1,3,706611,247583,1345070,73398,9265,672112,0
1,3,712165,248081,1466744,73590,10019,732894,0
1,3,708066,248586,1372918,73754,8740,686059,0
1,3,709778,248112,1449606,73593,9327,724381,0
1,3,712933,248630,1445524,73818,9374,722382,0
1,-1,647958,222330,1348738,67072,8158,673874,0
1,3,712550,248526,1418675,73799,10084,708850,0
1,3,713149,248321,1389326,73670,9342,694291,0
1,3,707319,248177,1269194,73699,8997,634154,0
1,3,715689,250572,1410644,74697,9167,704655,0
1,3,714038,249931,1383211,74518,9629,690974,0
1,3,707049,247868,1415116,73472,8498,707198,0
1,3,716496,250692,1395530,74811,8913,697106,0
1,3,713537,249221,1604727,74007,11155,801805,0
1,3,709836,248359,1367349,73663,9126,683371,0
1,-1,641509,219584,1363321,65960,8319,681306,0
1,3,710405,247827,1398448,73449,9099,698874,0
1,3,714799,250753,1435970,74664,8617,717480,0
1,3,719027,250981,1297903,74906,9607,648354,0
1,3,708910,248265,1405521,73637,9156,702421,0
1,3,709930,248552,1392525,73765,8580,695874,0
1,-1,639904,218555,1318334,65585,7852,658872,0
1,3,732102,252745,1398432,76885,9758,698868,0
1,-1,636844,218509,1375085,65588,7186,687274,0
1,3,711677,248280,1403441,73658,9964,701303,0
1,3,713049,248371,1452533,73663,9740,725740,0
1,3,714966,249097,1452622,73892,8902,725988,0
1,3,718427,250793,1438097,74772,9113,718261,0
1,-1,638961,219042,1236354,65698,7627,617682,0
1,3,712784,248432,1289590,73623,8428,644529,0
1,3,713672,248581,1443698,73719,8744,721431,0
1,3,714546,248561,1356609,73710,8226,677887,0
1,3,720956,250542,1481100,74616,8066,739963,0
1,3,707172,250275,1394738,74041,7842,696863,0
1,3,706804,250271,1361397,74073,8370,680018,0
1,-1,647101,220935,1373350,66599,8278,686285,0
1,3,708136,250120,1407437,73973,8504,703251,0
1,3,704191,248636,1411609,73309,8634,705487,0
1,3,703481,248166,1452378,73104,9357,725814,0
1,3,701417,248553,1715932,73300,10138,858390,0
1,3,704743,248666,1498759,73322,9960,749025,0
1,-1,642336,219760,1299576,65992,7155,649489,0
1,3,706526,248682,1413818,73328,8877,706456,0
1,-1,641754,219431,1292676,66051,7381,645750,0
1,3,731160,253725,1598285,77194,11047,798683,0
1,3,709655,248519,1446853,73221,9154,723073,0
1,-1,664260,223885,1295242,69335,8851,647020,0
1,3,706132,247898,1293435,73023,8796,646338,0
1,3,728565,252724,1503139,76563,9760,751304,0
1,3,711706,250630,1299107,74276,8826,648794,0
1,3,705596,247671,1335047,73043,9267,667207,0
1,3,733759,257370,1423714,75966,8804,711535,0
1,3,711461,249078,1280114,74648,9595,639488,0
1,-1,644475,221605,1285802,66967,8660,641634,0
1,3,711174,249042,1406584,74427,10652,702931,0
1,3,710774,248851,1408110,74391,10268,703651,0
1,3,714902,250338,1433961,75184,10482,716350,0
1,3,709289,247515,1287031,73906,9620,643230,0
1,3,717016,249863,1387278,74923,10781,692990,0
1,3,706324,248705,1361418,74259,10537,680295,0
1,-1,666718,228147,1364289,68609,8723,681626,0
1,3,708582,248528,1408103,74275,10504,703583,0
1,3,708190,248788,1363297,74331,10213,681317,0
1,3,708980,248287,1378984,74187,10935,689120,0
1,3,708424,249080,1308009,74494,8930,653707,0
1,3,711932,249722,1290096,74855,8687,644546,0
1,3,710696,248223,1385052,74190,9206,692100,0
1,-1,642910,219719,1376416,66175,7896,687748,0
1,3,731415,253140,1616318,77568,10091,807811,0
1,3,711737,248597,1467952,74220,8728,733483,0
1,3,711987,248525,1463704,74287,8888,731523,0
1,3,705254,247911,1415907,73973,9397,707713,0
1,3,711334,249071,1323705,74629,9376,661306,0
1,-1,638425,219291,1303664,66038,7314,651383,0
1,3,709333,248450,1484633,74256,9060,741995,0
1,-1,645303,220954,1339307,66764,8010,669074,0
1,3,710850,248345,1416878,74224,8372,708055,0
1,3,709216,247836,1464102,73981,9509,731779,0
1,3,733807,252927,1523292,77505,9969,761178,0
1,3,709355,248555,1430527,74252,9352,714885,0
1,3,710790,248393,1516003,74163,9914,757650,0
1,3,712500,248826,1358187,74361,9287,678612,0
1,3,709614,248016,1429299,74074,8924,714317,0
1,3,714386,249956,1418625,74992,9122,708789,0
1,-1,639127,218742,1273164,65829,7588,636314,0
1,3,703872,247943,1334835,74071,9489,667053,0
1,3,725811,252710,1482755,77430,10704,740975,0
1,-1,638895,219020,1344427,65907,8214,671625,0
1,3,704757,248338,1432170,74227,9259,715725,0
1,3,714288,250189,1377813,75100,9048,688232,0
1,3,731659,253066,1549380,77527,10573,774358,0
1,-1,644927,221049,1512103,66875,10175,755027,0
1,3,709121,248347,1411359,74146,8783,705327,0
1,3,707795,247563,1580822,73860,9761,790100,0
1,3,710427,249011,1448985,74435,9448,724137,0
1,-1,639311,218790,1273812,65822,8054,636625,0
1,3,712003,248126,1385745,74048,9134,692570,0
1,-1,646945,220676,1327823,66666,8400,663403,0
1,3,714889,249839,1350760,74928,8583,674633,0
1,3,709268,249384,1663669,74468,10682,831163,0
1,3,711704,249344,1357047,74696,8874,677913,0
1,3,731140,252332,1403848,77259,10194,701438,0
1,-1,660440,223638,1330591,69236,9119,664912,0
1,3,710535,247913,1454098,74001,8875,726671,0
1,3,714474,248923,1570520,74356,10009,784934,0
1,3,708646,248188,1372959,74073,9002,685942,0
1,3,709659,247765,1304765,73989,8870,651966,0
1,-1,641193,218644,1296306,65773,8979,647850,0
1,3,709284,248211,1358206,74115,9287,678731,0
1,3,733335,252529,1517978,77332,10551,758632,0
1,-1,642119,218696,1208700,65859,7868,604007,0
1,3,707886,248498,1352596,74196,8917,675946,0
1,3,709786,248788,1343041,74278,9465,671126,0
1,3,711478,249229,1848478,74467,10496,923848,0
1,3,711796,248523,1393665,74155,9633,696007,0
1,3,712522,249803,1477095,74744,10142,737894,0
1,3,714313,249397,1343709,74610,9700,671440,0
1,3,709267,248339,1442377,74046,9371,720880,0
1,3,713226,249202,1730108,74622,10991,864310,0
1,-1,645704,219391,1319216,66069,7833,659253,0
1,3,711120,248416,1358913,74010,9047,679053,0
1,3,712902,249337,1470114,74340,10117,734769,0
1,3,716005,248920,1384765,74235,9190,691927,0
1,-1,634564,218765,1276616,65819,7186,637991,0
1,3,730210,252663,1563188,77204,10785,781196,0
1,3,711943,248586,1437685,74139,9488,718482,0
1,3,712624,248915,1319983,74233,9435,659351,0
1,3,708807,247862,1307764,73879,9510,653436,0
1,3,714948,248453,1566832,74086,10366,783030,0
1,3,711520,248526,1454724,74041,9456,726967,0
1,-1,654740,223398,1317091,69168,8435,658359,0
1,3,712151,248385,1507326,74033,10142,753108,0
1,3,712901,248588,1548616,74117,10714,773918,0
1,-1,636140,219213,1201362,65953,7585,600382,0
1,3,713908,248150,1614118,73887,11294,806741,0
1,3,714806,248304,1415770,74055,10629,707538,0
1,3,703773,248039,1461126,73896,10276,730050,0
1,3,706696,248413,1479094,74082,10003,739110,0
1,3,712233,249219,1383692,74769,9494,691286,0
1,3,709835,248839,1438212,74323,10180,718513,0
1,-1,634422,219072,1325557,65902,7667,662460,0
1,3,711759,249996,1514625,74745,9310,756925,0
1,3,712932,249223,1457363,74482,9766,728242,0
1,3,714003,249830,1417585,74664,9616,708403,0
1,3,717135,251534,1517707,75489,9956,758202,0
1,-1,638847,219686,1265362,66156,7459,632224,0
1,3,714590,249909,1626018,74804,10134,812479,0
1,3,720889,251142,1349163,75528,8995,673992,0
1,3,709315,249079,1476069,74748,9104,737551,0
1,3,731666,253469,1577320,77767,10387,788339,0
1,3,712336,249037,1481175,74491,9421,740189,0
1,3,712260,249273,1423927,74492,8787,711532,0
1,-1,638766,219219,1154574,65996,7414,576942,0
1,3,734352,253781,1600815,77773,10573,800067,0
1,3,716858,249656,1549023,74640,9881,774068,0
1,3,712302,249866,1364004,74730,9637,681587,0
1,3,715194,249467,1446123,74571,9394,722775,0
1,3,736380,253696,1479083,77740,10485,739230,0
1,3,715541,250193,1479794,74838,9342,739666,0
1,3,717183,249908,1502096,74709,9766,750714,0
1,-1,640600,221128,1319249,66914,8265,658991,0
1,3,710031,248832,1444400,74315,9448,721921,0
1,3,712845,249548,1496933,74549,9241,748183,0
1,-1,639102,220657,1307876,66681,7755,653333,0
1,3,709766,249648,1353462,74556,9191,676280,0
1,3,713483,249507,1361259,74418,9189,680259,0
1,3,714700,249415,1404102,74443,9010,701501,0
1,3,715160,249257,1463616,74350,9604,731251,0
1,-1,637280,219312,1256436,65986,6828,627680,0
1,3,720345,251490,1415356,75315,9864,706800,0
1,3,714126,250847,1484049,75099,9765,741413,0
1,3,714070,249768,1341086,74552,8766,670122,0
1,3,714350,249072,1426631,74187,8762,712881,0
1,3,716501,250409,1309115,74978,8919,653925,0
1,3,712545,249331,1325337,74412,8880,662186,0
1,-1,635974,219057,1239524,65968,7858,619395,0
1,3,715019,248808,1352255,74320,9225,675785,0
1,3,712215,248616,1430852,74193,8945,715098,0
1,3,737460,254219,1433408,77801,10609,716185,0
1,3,720314,250228,1368412,74942,9800,683570,0
1,3,713710,248927,1583982,74281,9166,791112,0
1,-1,643384,221203,1408801,66925,8024,703522,0
1,3,733224,253194,1517864,77454,10743,758685,0
1,3,736493,252896,1514656,77438,10488,756909,0
1,3,707861,248225,1358639,74058,9858,678551,0
1,-1,639230,219394,1410424,66073,7465,704810,0
1,3,711562,249272,1453957,74411,9617,726648,0
1,3,709323,249168,1364287,74336,9916,681709,0
1,-1,635167,219266,1182781,66003,6761,590974,0
1,3,713314,249553,1471870,74480,9473,735571,0
1,3,713617,248632,1350129,74172,10634,674482,0
1,3,712640,249062,1412279,74312,9177,705795,0
1,3,715289,249639,1463331,74476,10384,730907,0
1,-1,667924,229507,1397681,69282,7943,698398,0
1,3,716649,250157,1492482,74647,9429,745801,0
1,3,715948,249707,1346225,74422,9150,672739,0
1,3,712747,250619,1589223,74892,9969,793989,0
1,-1,645892,222095,1362464,67245,7501,680680,0
1,3,710602,248376,1360370,74039,8364,679891,0
1,3,711363,248708,1321986,74289,8801,660557,0
1,3,715606,248995,1436405,74374,9019,717894,0
1,-1,640779,219628,1224536,66063,7114,611944,0
1,3,717800,249825,1391409,74702,9164,695326,0
1,3,715771,250354,1429359,75036,9461,714309,0
1,3,715299,249608,1580126,74549,9743,789725,0
1,-1,634560,218799,1198900,65676,7080,599127,0
1,3,717125,249838,1602104,74665,10380,800415,0
1,3,715014,249563,1550736,74484,9875,774873,0
1,3,720214,250714,1518273,75138,10848,758329,0
1,3,740749,254180,1753538,77767,10723,876097,0
1,-1,639515,220241,1356031,66261,6915,677627,0
1,3,714542,250081,1465396,74685,9874,732305,0
1,3,711772,248911,1404219,74225,9509,701607,0
1,3,734182,253527,1506043,77567,10169,752716,0
1,3,715027,250046,1413280,74911,9581,705912,0
1,3,711811,248728,1493422,74212,8978,746357,0
1,3,732328,253520,1468318,77558,10877,733449,0
1,3,713771,248939,1334623,74287,8970,666922,0
1,-1,645113,221576,1305320,66999,7359,651805,0
1,3,711254,248248,1466914,74012,9433,733164,0
1,3,714732,248733,1500285,74153,10099,749762,0
1,-1,663382,224533,1349291,69420,8898,673962,0
1,3,716093,250834,1477793,75207,10143,738221,0
1,3,713155,248818,1525135,74215,9258,762253,0
1,3,714827,248714,1481912,74243,9222,740205,0
1,3,710584,247933,1484799,73999,9738,742099,0
1,3,712097,248209,1578817,74119,9468,788994,0
1,3,713425,248011,1289792,74133,9548,644602,0
1,-1,645303,220907,1332796,66650,7827,665699,0
1,3,713409,248916,1425080,74538,8903,712106,0
1,3,712781,247885,1422595,74137,9646,710972,0
1,3,714124,248584,1466509,74442,10066,732902,0
1,-1,642848,219943,1298618,66121,7306,648927,0
1,3,715772,248166,1474876,74245,10596,736972,0
1,3,713095,246916,1428872,73792,9654,714087,0
1,3,708206,249442,1512685,74882,9061,755535,0
1,3,701691,247452,1416384,74136,9409,707790,0
1,3,709497,248730,1379659,74482,9459,688947,0
1,-1,634632,218969,1395527,65724,8155,697420,0
1,3,710832,249405,1454997,74907,9750,726928,0
1,3,730713,252880,1499687,77579,10192,749433,0
1,-1,637001,219482,1585753,66025,8965,792383,0
1,3,705756,248125,1371786,74280,8854,685517,0
1,3,706108,248094,1279367,74246,8734,639259,0
1,3,706643,247847,1454800,74177,8617,726998,0
1,3,705408,248127,1382758,74270,8590,691017,0
1,3,710941,249355,1479273,74852,8943,739114,0
1,3,707795,248170,1335141,74262,9008,667212,0
1,3,717847,250937,1792339,75492,11289,895536,0
1,-1,638292,219700,1209238,66093,7839,604342,0
1,3,709623,248574,1539790,74455,9407,769670,0
1,3,709246,248369,1581239,74183,10281,789571,0
1,3,710291,248556,1429990,74308,8385,714696,0
1,3,710031,247769,1500483,74033,9373,749211,0
1,3,707432,248032,1368091,74092,8661,683704,0
2,3,760061,266623,1432214,78791,8614,715741,0
2,3,762165,266402,1439366,78636,9943,718579,0
2,-1,709644,241249,1409219,73774,9307,704233,0
2,3,761921,266802,1550644,78806,10912,774822,0
2,3,785522,271582,1612297,82179,12534,805712,0
2,3,770143,268709,1558582,79691,11561,778188,0
2,3,758475,265839,1474818,78563,9171,737085,0
2,3,753715,264745,1462750,78119,10212,731003,0
2,3,712325,250129,1478704,74596,9474,738403,0
2,-1,693617,237084,1267950,70658,7655,633627,0
2,3,709940,249192,1375761,73933,8794,687146,0
2,3,708099,247838,1448202,73549,9242,723757,0
2,3,708006,247736,1422152,73472,8416,710815,0
2,-1,690725,236953,1379703,70597,8841,689349,0
2,3,717062,250803,1588152,74807,10609,793135,0
2,3,712475,248441,1435421,73859,9590,717444,0
2,3,703558,248491,1283229,73924,9036,641217,0
2,-1,713806,242167,1525049,74069,10245,762036,0
2,3,723959,252266,1432546,76929,9792,715939,0
2,3,705454,247519,1474076,73606,9180,736770,0
2,3,703317,247624,1428764,73563,8413,714009,0
2,3,709330,249338,1476426,74323,8973,737785,0
2,3,709711,248922,1398225,73969,8310,698760,0
2,3,708977,249635,1478594,74551,9219,738601,0
2,-1,695630,237994,1368520,70950,8749,683809,0
2,3,726740,253126,1443994,77214,9503,721541,0
2,3,705739,247670,1379551,73663,8172,689309,0
2,3,706469,248197,1464111,73764,8440,731398,0
2,3,707129,247981,1345875,73766,8674,672494,0
2,3,708472,247914,1392395,73729,8830,695541,0
2,-1,691354,237283,1426053,70715,8127,712738,0
2,3,710382,250303,1477664,74751,9577,738168,0
2,3,706388,247734,1535205,73568,9881,767329,0
2,3,708383,248079,1401738,73843,9217,700499,0
2,-1,637831,220256,1397711,66221,7503,698252,0
2,3,728190,252422,1406572,77000,9519,702957,0
2,3,707264,247318,1390134,73472,9447,694701,0
2,3,708772,248771,1431727,73893,8560,715377,0
2,3,716739,250695,1459087,74863,9923,728960,0
2,3,732498,253204,1720207,77240,10309,859728,0
2,-1,638582,219109,1298331,65726,7663,648888,0
2,3,711872,249269,1265644,74101,9033,632152,0
2,3,711341,248423,1398688,73720,9048,699060,0
2,3,711243,248371,1388898,73892,9431,694053,0
2,3,706583,248419,1521687,73737,10196,760490,0
2,3,716156,251081,1388897,74834,10082,693813,0
2,3,712446,249876,1450563,74141,9148,724837,0
2,3,710464,248035,1438390,73649,9394,718908,0
2,-1,641633,219755,1229974,65952,7470,614703,0
2,-1,635376,219163,1267492,65789,7164,633341,2
2,3,711609,249279,1368507,74084,8628,683551,0
2,3,709048,248851,1419379,74009,8711,709360,0
2,-1,643178,220964,1360982,66460,8325,679909,0
2,3,730096,252946,1425710,77116,9620,712464,0
2,3,713516,248799,1400997,74064,8955,700130,0
2,3,711447,248222,1438964,73836,9407,719144,0
2,-1,646090,221351,1341216,66747,7715,670016,0
2,-1,642377,219659,1368132,65876,8303,682734,0
2,3,709619,248360,1404530,73933,9193,701957,0
2,3,713018,249155,1414853,74239,9630,706919,0
2,3,713027,248201,1337014,73905,8253,667851,0
2,3,710492,248465,1495324,74011,10218,747257,0
2,3,710753,248320,1408517,73969,9154,703880,0
2,3,715260,250398,1513499,74966,10610,756096,0
2,-1,638782,218113,1200830,65338,7604,600102,0
2,3,712287,248207,1356221,73807,9033,677848,0
2,3,714970,248170,1479049,73865,8854,739166,0
2,3,710034,250660,1483722,74975,9277,741227,0
2,3,707363,248890,1419022,74112,10216,709205,0
2,3,705473,248576,1346352,74038,8933,672818,0
2,-1,637364,218867,1251472,65680,7202,625334,0
2,3,711487,250189,1545397,74758,9514,772203,0
2,3,709675,249156,1387087,74241,9353,693235,0
2,3,704541,248187,1457673,73804,8742,728325,0
2,3,709671,250006,1422832,74679,9131,710915,0
2,3,708661,249191,1327489,74225,8640,663352,0
2,3,707129,248226,1450488,73878,9355,725030,0
2,3,709846,248566,1498274,74054,9109,748770,0
2,-1,637817,218559,1295264,65549,7452,647277,0
2,3,706389,248939,1340653,74087,9205,670011,0
2,3,707331,248675,1467141,74054,8821,733280,0
2,-1,638163,218750,1186045,65583,7126,592693,0
2,3,709705,249735,1464848,74379,9962,732078,0
2,-1,635743,217883,1317015,65414,6779,658100,0
2,3,708592,249210,1411355,74185,9119,705295,0
2,3,708457,249025,1334643,74037,8853,666932,0
2,3,710951,249436,1440322,74347,8597,719683,0
2,-1,639563,218819,1298288,65738,7524,648449,0
2,3,710009,249398,1426639,74162,8877,712826,0
2,3,713219,250520,1422206,74762,8985,710833,0
2,3,712610,249541,1449179,74256,8560,724218,0
2,-1,641579,219205,1271387,65829,8265,635273,0
2,3,712030,248973,1437260,74087,9222,718363,0
2,3,712513,248503,1473234,73923,9544,736201,0
2,3,707140,249590,1386609,74274,8843,692840,0
2,3,703777,248662,1452952,73999,9105,726082,0
2,3,708315,250191,1366387,74662,9417,682671,0
2,-1,646383,221047,1394567,66584,8483,696690,0
2,3,710339,250062,1873271,74434,11549,936302,0
2,3,711835,250597,1510614,74872,9656,754731,0
2,3,706851,248662,1423453,73982,8770,711308,0
2,-1,633630,218626,1220534,65677,7176,610034,0
2,3,714696,249802,1501186,74475,9968,750085,0
2,3,710414,248607,1509247,73930,9312,754278,0
2,3,710226,249802,1268353,74323,8706,633632,0
2,-1,639700,220668,1451034,66652,8128,724873,0
2,3,709114,249086,1426096,74065,9250,712677,0
2,3,708594,248834,1659036,74016,10797,828512,0
2,3,710066,248675,1523802,74037,11222,760991,0
2,3,707721,248877,1341239,73998,8772,670209,0
2,-1,638658,219457,1276885,65972,7735,638002,0
2,3,714066,250933,1531381,74914,9189,765075,0
2,3,711533,249140,1353511,74117,8297,676406,0
2,3,710320,248832,1478523,74017,9812,738793,0
2,3,711680,249129,1349693,74128,9846,674363,0
2,-1,636683,218952,1198072,65797,6571,598531,0
2,3,732197,252867,1440933,77056,10713,720005,0
2,3,727779,253426,1397333,77316,9543,698179,0
2,3,707685,248929,1612396,74029,9754,805782,0
2,3,737056,258572,1509064,76915,9602,753640,0
2,-1,656960,222651,1302216,68728,8532,650674,0
2,3,708320,248837,1358130,74026,8563,678625,0
2,3,709244,248881,1412060,74029,8942,705536,0
2,3,710053,249755,1389709,74457,9358,694499,0
2,-1,653055,222274,1343682,68751,7679,671394,0
2,3,714846,251352,1547456,75203,9625,772881,0
2,3,711057,249221,1721293,74099,9974,860063,0
2,3,714567,250707,1546604,74906,10366,772681,0
2,3,710958,249100,1414874,74125,9165,707071,0
2,-1,636244,218339,1214540,65577,6572,606571,0
2,3,710911,248413,1325827,73846,9125,662351,0
2,3,710334,249568,1440882,74279,9336,719905,0
2,3,732797,258115,1456774,76802,9313,727994,0
2,3,731160,253819,1573395,77438,9172,786261,0
2,3,711499,249753,1369836,74347,9438,684366,0
2,3,710722,250254,1470311,74426,9055,734716,0
2,3,711496,249799,1530549,74497,9406,764607,0
2,-1,641054,220674,1336198,66561,7461,667454,0
2,3,709444,248954,1405167,74038,8978,702139,0
2,3,716074,250781,1472606,74906,11135,735535,0
2,3,708914,248770,1406467,73957,9689,702674,0
2,3,712600,248663,1439306,73885,9958,719231,0
2,3,709315,249127,1459608,73975,9093,729161,0
2,3,708306,249052,1576171,73931,9045,787690,0
2,-1,638115,218668,1295155,65685,7159,647279,0
2,3,711161,250336,1401964,74607,9069,700335,0
2,3,707690,248594,1475934,73742,8249,737624,0
2,3,714588,250710,1499396,74796,9679,749045,0
2,3,711052,249758,1352910,74176,8494,675991,0
2,3,706170,247836,1384018,73478,9178,691567,0
2,-1,645136,220496,1239245,66504,8140,619143,0
2,3,713455,249519,1364330,74108,10558,681520,0
2,3,707133,248358,1428589,73789,8754,713919,0
2,3,715449,250610,1439357,74716,9892,718906,0
2,3,714103,248902,1401559,73877,8668,700287,0
2,-1,642231,221151,1355578,66662,7823,677419,0
2,3,732312,253263,1456334,77285,9882,727741,0
2,3,716321,250110,1495469,74453,10924,746900,0
2,-1,636681,218673,1270085,65704,7762,634655,0
2,-1,660643,223774,1311369,69172,8014,655398,0
2,3,715551,249526,1424354,74229,8661,711669,0
2,3,712645,249851,1356290,74415,8317,677710,0
2,3,714356,249150,1445097,74131,9413,722171,0
2,-1,641342,220252,1351404,66422,8100,675188,0
2,3,716083,249677,1331619,74115,9102,665450,0
2,3,714021,249543,1457694,73948,9243,728450,0
2,3,716133,249654,1430442,74053,9327,714970,0
2,3,716920,250683,1435275,74377,9190,717390,0
2,3,713040,251958,1552767,75206,10819,775713,0
2,3,710186,250039,1632368,74223,10317,815837,0
2,-1,638690,218927,1361428,65877,8452,680399,0
2,3,715782,250924,1349306,74694,10081,673889,0
2,3,739139,259447,1376855,77009,8872,688059,0
2,3,718578,252032,1511504,75075,9835,754725,0
2,3,717119,251448,1510261,74931,10032,754154,0
2,3,710891,250133,1633767,74244,10968,816545,0
2,-1,643436,220050,1433899,66459,8399,716392,0
2,3,717109,251588,1478834,75085,9358,738773,0
2,3,712694,249384,1439064,74076,9561,718947,0
2,3,716290,250896,1494551,74926,9890,746870,0
2,3,716219,250633,1477795,74734,10102,738425,0
2,-1,637841,218592,1251596,65606,6997,625479,0
2,3,707752,248899,1302908,73840,9586,651019,0
2,3,712304,249714,1499452,74163,9225,749317,0
2,-1,641351,220013,1222615,66129,6915,611030,0
2,3,735134,257988,1613911,76627,10152,806631,0
2,3,711524,248944,1418223,73995,9536,709159,0
2,3,716552,250042,1489192,74509,9725,744105,0
2,3,711309,249175,1317746,74055,9024,658581,0
2,3,712238,249213,1363597,74029,8678,681463,0
2,3,712418,248409,1516139,73747,10345,757078,0
2,-1,640406,219265,1243907,65870,8812,621603,0
2,3,711232,248407,1321784,73899,9117,660448,0
2,3,709209,247963,1464130,73637,8699,731775,0
2,3,710117,250043,1484585,74595,9798,741758,0
2,3,708836,249240,1292329,74145,8949,645688,0
2,-1,643204,219351,1208009,65844,7580,603492,0
2,3,729606,252935,1410946,76973,9422,705352,0
2,3,713760,250487,1502077,74732,10237,750363,0
2,-1,639939,218543,1284609,65644,7681,641866,0
2,3,707511,248278,1264598,73725,9244,631849,0
2,3,706446,247777,1495057,73596,9501,747097,0
2,-1,641655,221650,1312860,66849,8587,655653,0
2,3,731738,253383,1456917,77214,10673,728091,0
2,3,715861,250262,1458085,74758,10172,728355,0
2,3,713375,248596,1464122,73800,10523,731523,0
2,3,712701,249873,1399345,74493,9041,699006,0
2,3,712846,248997,1544099,73964,10199,771608,0
2,3,732369,253669,1438861,77305,9948,719012,0
2,3,712750,248899,1561105,73837,9872,780090,0
2,3,715072,250597,1511574,74502,10165,755408,0
2,-1,636678,218853,1335267,65659,7320,667123,0
2,3,712612,248759,1360671,73729,9760,679883,0
2,3,712719,249246,1537943,73883,10748,768543,0
2,3,714685,249303,1363791,73942,10647,681280,0
2,3,717689,250741,1487789,74614,10659,743104,0
2,3,712872,248542,1461364,73574,9678,730246,0
2,3,739277,254166,1482521,77230,10599,740459,0
2,3,709169,249049,1419838,73776,9716,709668,0
2,3,712775,249832,1492892,74036,9995,746081,0
2,3,709847,248888,1400674,73804,8994,699765,0
2,3,707997,248509,1393683,73653,9036,696293,0
2,3,707553,248271,1445382,73655,9841,722301,0
2,-1,640942,219922,1273165,65988,8078,636175,0
2,3,706288,247942,1321160,73538,8692,660235,0
2,3,709286,248774,1486686,73896,9340,742971,0
2,3,708062,248040,1519811,73572,8993,759490,0
2,-1,643307,220290,1308085,66085,7449,653672,0
2,3,710074,248736,1409898,73864,9562,704516,0
2,3,716596,250818,1378637,74799,9101,688592,0
2,3,713411,248638,1567497,73819,9833,783401,0
2,3,710362,248592,1459475,73774,9305,729339,0
2,3,708442,248378,1416718,73767,9231,707822,0
2,3,708474,248345,1435383,73675,9518,717214,0
2,3,711575,248472,1384660,73768,9906,691866,0
2,3,711961,248262,1419617,73695,9110,709425,0
2,3,711611,248696,1360359,73841,9000,679751,0
2,3,717630,250310,1319325,74532,10454,658817,0
2,-1,661529,224062,1380627,69140,8236,689864,0
2,3,712154,248899,1471982,73862,10121,735485,0
2,3,713323,248343,1522251,73674,9651,760770,0
2,3,715004,251294,1423179,74903,9737,710936,0
2,3,709397,248524,1416234,73735,9243,707638,0
2,3,733693,253855,1481220,77277,9819,740221,0
2,3,708616,248208,1428480,73665,9303,713762,0
2,-1,660510,223917,1269041,69135,8304,634152,0
2,3,710263,248428,1430354,73743,9989,714897,0
2,3,716680,249857,1426387,74367,10261,712644,0
2,3,711239,249246,1579447,73983,9785,787745,0
2,3,710545,248191,1444298,73663,9139,721828,0
2,3,711062,247639,1469645,73384,9688,734467,0
2,-1,643462,220318,1312982,66375,7753,656039,0
2,3,710038,247595,1299870,73493,8876,649357,0
2,3,708316,248383,1450623,73678,9126,724959,0
2,3,708109,248179,1342045,73614,8406,670709,0
2,3,709631,248501,1391675,73766,8594,695412,0
2,-1,640252,220342,1261783,66211,7551,630520,0
2,3,708502,248021,1307823,73570,8228,653579,0
2,3,716055,250327,1308819,74668,8558,653834,0
2,3,712290,247964,1418051,73545,9268,708689,0
2,3,711030,247664,1396684,73452,8628,697889,0
2,-1,641694,219824,1226742,66066,7918,613054,0
2,3,713812,249464,1439433,74109,8637,719297,0
2,3,714100,248794,1491138,73745,8500,745208,0
2,3,712026,248023,1479084,73431,8332,739168,0
2,3,714506,248321,1413573,73642,8024,706681,0
2,-1,642518,219595,1307494,65979,8216,653331,0
2,3,700835,248374,1438761,73185,8222,718994,0
2,3,723462,253228,1487874,76593,9328,743545,0
2,3,704666,248492,1544953,73238,8298,771981,0
2,3,705430,248438,1577160,73260,8567,788096,0
2,3,705167,248116,1450314,73110,8512,724619,0
2,-1,644748,221255,1339273,66795,7733,669084,0
2,3,707986,247994,1497362,73051,9074,747719,0
2,3,702379,247928,1356320,73028,9356,677274,0
2,3,707018,248458,1265673,73270,8611,632433,0
2,-1,641419,219305,1166775,65947,6854,583054,0
2,3,705205,248060,1440084,73076,9412,719737,0
2,-1,642550,218991,1283584,65900,7396,641450,0
2,3,706467,248062,1312450,73089,8752,655741,0
2,3,706435,248505,1335372,73297,9632,667293,0
2,3,707050,248819,1450922,73485,9298,725057,0
2,3,703608,248077,1454604,73226,9430,726949,0
2,3,726437,252573,1416999,76514,9745,708008,0
2,3,711471,250509,1312007,74359,8900,655342,0
2,-1,639100,219290,1251847,66057,8354,625210,0
2,3,708873,248551,1362837,74278,10186,681020,0
2,3,708771,247991,1413406,74054,9708,706344,0
2,3,706531,248277,1391439,74214,9556,695333,0
2,3,709171,248162,1437296,74157,10473,718353,0
2,3,710680,248565,1338466,74267,9726,668897,0
2,3,711886,248218,1415461,74188,10629,707007,0
2,3,703835,248238,1381186,74179,10177,689902,0
2,-1,640538,219028,1230243,65969,7424,614705,0
2,3,707175,248622,1317495,74302,9941,658314,0
2,3,708864,247645,1276813,73959,9830,638161,0
2,3,706147,248052,1354758,74100,9921,677051,0
2,3,709918,248082,1357725,74125,8975,678482,0
2,3,708415,248724,1267830,74282,9097,633622,0
2,3,710004,248343,1419099,74152,9382,709213,0
2,-1,642170,219887,1323749,66217,7886,661426,0
2,3,709306,248449,1510646,74244,9374,755039,0
2,3,710886,248762,1388547,74344,8695,693922,0
2,3,730214,252547,1511212,77377,9755,755332,0
2,3,710726,250596,1318488,75235,9132,658639,0
2,3,708190,248356,1315438,74216,9249,657347,0
2,-1,642597,219732,1326385,66130,8042,663074,0
2,-1,639859,218410,1277665,65648,7661,638503,0
2,3,705302,247211,1472181,73731,8742,735777,0
2,3,714329,250033,1358929,74951,8934,678814,0
2,3,715071,250543,1359132,75114,9262,678792,0
2,3,711591,247828,1342981,74005,9106,671176,0
2,3,706352,247528,1441199,73778,8712,720406,0
2,3,729940,252536,1378149,77366,10282,688738,0
2,3,711862,249253,1382873,74684,9445,690928,0
2,-1,646010,221223,1366218,66945,8275,682524,0
2,3,732043,252882,1534046,77418,9963,766788,0
2,3,732100,252352,1482835,77316,10176,741053,0
2,3,718086,249858,1333791,74981,9495,665710,0
2,-1,642817,219184,1174759,65935,7801,586972,0
2,3,704414,247429,1368585,73868,9676,683991,0
2,3,711960,249904,1361982,74994,9292,680495,0
2,3,730190,252701,1489737,77412,9890,744489,0
2,-1,661137,223403,1307092,69106,9490,653165,0
2,3,709945,248569,1414035,74273,9545,706616,0
2,3,731234,253218,1642100,77559,10560,820791,0
2,3,713978,250333,1495246,75111,9190,746775,0
2,-1,647451,220620,1372831,66580,8906,686051,0
2,3,711354,248352,1386678,74113,8873,692848,0
2,3,730631,252718,1396225,77395,10496,697726,0
2,-1,642144,219227,1193073,66026,7750,596147,0
2,3,707539,247058,1431897,73792,9019,715625,0
2,3,707610,249258,1364799,74655,9622,682168,0
2,3,708373,248258,1448230,74204,9135,723642,0
2,3,710759,248296,1345615,74192,8525,672291,0
2,-1,644519,219417,1367105,66022,8210,683144,0
2,3,705803,247405,1362393,73852,8976,680864,0
2,3,713314,248624,1376239,74303,9558,687843,0
2,3,708863,247816,1439815,73944,9344,719525,0
2,3,713989,250115,1266853,75020,8567,632769,0
2,-1,643279,219984,1302108,66377,8660,649823,0
2,3,711464,248388,1413194,74230,9054,706230,0
2,3,712928,249205,1355906,74594,8309,676886,0
2,-1,642549,219076,1297889,65923,7731,648423,0
2,3,716096,249068,1425056,74592,9536,711954,0
2,3,706916,248166,1452830,74064,10300,725388,0
2,3,713501,249665,1352303,74798,9274,675648,0
2,3,715700,250465,1454695,75101,9764,726418,0
2,3,729712,252788,1691213,77293,11650,845347,0
2,3,709944,247885,1309115,73860,9766,654110,0
2,-1,645049,219203,1178792,66000,7079,589086,0
2,3,711975,249787,1367619,74697,9028,683228,0
2,3,708917,248261,1429995,74069,9620,714637,0
2,3,711173,248403,1389382,74066,9757,694353,0
2,3,713041,248320,1382489,74055,10228,690722,0
2,3,711029,247024,1371549,73634,9720,685409,0
2,3,709267,248600,1392690,74104,9829,695983,0
2,-1,632753,218959,1263771,65870,7780,631655,0
2,3,710529,248384,1396411,74104,9726,697749,0
2,3,717516,250806,1412131,75196,9924,705430,0
2,3,712346,249123,1351530,74303,9305,675331,0
2,3,715151,249206,1582099,74357,10321,790432,0
2,3,717183,250058,1518189,74801,10247,758464,0
2,3,734378,253541,1696833,77486,11353,847854,0
2,-1,633430,219012,1317973,65964,8246,658615,0
2,3,718171,249595,1534260,74629,10038,766392,0
2,-1,636521,219482,1255464,66093,7527,627433,0
2,3,714487,248923,1551162,74251,11236,775225,0
2,3,714849,248850,1468234,74194,10990,733666,0
2,3,704646,248986,1547022,74251,9843,772855,0
2,3,709847,249379,1710415,74365,11544,853109,0
2,3,706947,247739,1301419,74036,8881,650174,0
2,-1,636497,219678,1384747,66173,8697,692056,0
2,3,714963,250783,1382788,75266,9527,690670,0
2,3,708886,248886,1338681,74369,9033,669016,0
2,3,712331,249344,1431846,74498,9655,715500,0
2,3,710551,248995,1480111,74374,9227,739714,0
2,-1,637152,218959,1225311,65868,7461,612361,0
2,3,717120,250269,1351478,74864,9488,675303,0
2,3,715142,249773,1399475,74811,9180,699375,0
2,3,715314,250033,1414141,74839,9216,706665,0
2,3,712618,249380,1528081,74672,9299,763738,0
2,3,711775,249720,1348978,74746,8917,674081,0
2,3,715249,249675,1445687,74738,9445,722101,0
2,3,712127,249266,1503785,74504,9887,751509,0
2,-1,658727,224162,1249309,69407,8375,624331,0
2,3,717253,250112,1336401,74777,8952,667796,0
2,3,715715,249216,1450078,74453,9089,724735,0
2,3,734602,254576,1418206,77999,10870,708746,0
2,3,714478,249659,1457063,74642,9279,728218,0
2,3,715886,249846,1313378,74742,9576,656342,0
2,3,718061,251106,1404463,75287,8917,701751,0
2,-1,633802,219131,1335994,65876,6972,667725,0
2,3,719162,250947,1497777,75306,9670,748312,0
2,3,715340,251608,1379145,75580,9093,688998,0
2,3,714830,249496,1397807,74528,8968,698471,0
2,3,735447,254108,1696406,77875,11057,846839,0
2,-1,636374,219379,1261008,66060,7669,630137,0
2,3,712827,249711,1434579,74548,9496,716902,0
2,-1,638647,219445,1195179,66093,7233,597188,0
2,3,714581,250402,1545188,74796,9300,772120,0
2,3,714089,248873,1419717,74105,9617,709369,0
2,3,712579,248786,1503190,74155,9926,751207,0
2,3,716524,249702,1462439,74483,9763,730762,0
2,3,714471,250262,1378401,74876,8730,688688,0
2,3,714258,249253,1453436,74395,9379,726318,0
2,3,732687,253341,1395788,77510,9958,697404,0
2,3,713944,248968,1473813,74259,9480,736338,0
2,-1,634441,218521,1314257,65702,7489,656815,0
2,3,716567,249684,1536044,74522,9098,767635,0
2,3,710544,248485,1371894,74144,8732,685524,0
2,3,717606,249915,1479234,74603,9656,739109,0
2,-1,656875,223203,1279625,69054,7539,639492,0
2,3,716131,249066,1381912,74407,9775,690564,0
2,3,713590,249024,1394079,74374,8479,696595,0
2,3,716904,249229,1394114,74431,8851,696457,0
2,3,715395,249027,1487300,74357,9431,743359,0
2,-1,641286,220779,1339632,66719,7999,669320,0
2,3,706427,247164,1481784,73728,10578,740468,0
2,3,732332,253612,1768446,77627,11049,883585,0
2,3,714548,249324,1408618,74446,10541,703772,0
2,3,711889,249373,1520580,74483,9647,759780,0
2,-1,658052,224230,1242145,69394,9107,620721,0
2,3,736204,254118,1436787,77764,11852,717885,0
2,3,712679,249494,1534773,74442,10017,767065,0
2,-1,638708,220716,1351142,66776,8014,674997,0
2,3,714369,249139,1445417,74307,9659,722384,0
2,3,714869,249553,1425982,74356,8981,712600,0
2,3,716185,250144,1410728,74660,10153,704946,0
2,3,742137,255706,1575968,78291,11016,787681,0
2,-1,657427,223331,1321614,69078,7610,660453,0
2,3,712528,249424,1404450,74482,8854,701667,0
2,3,715339,249928,1423720,74695,8997,711513,0
2,-1,644727,221699,1255353,66958,7587,627165,0
2,3,715122,249324,1389615,74548,8642,694513,0
2,3,715118,248862,1466126,74323,8812,732714,0
2,3,715434,249234,1491780,74459,8899,745375,0
2,3,715172,249491,1431231,74523,9815,715337,0
2,-1,641266,221225,1350903,66830,8087,674815,0
2,3,714715,248663,1398577,74263,10041,698887,0
2,3,723000,251548,1509060,75500,10357,753949,0
2,3,739004,254443,1626569,77848,11772,812372,0
2,3,716460,249237,1391921,74359,8930,695740,0
2,-1,660818,224135,1278999,69290,8738,639071,0
2,3,711128,248616,1445403,74057,9554,722385,0
2,3,732664,253799,1548788,77680,10981,773968,0
2,3,714941,249350,1338873,74428,9086,668843,0
2,3,712495,249147,1401674,74325,9200,699943,0
2,-1,659604,223684,1237969,69184,7309,618609,0
2,3,712913,248395,1419052,74006,9115,709105,0
2,3,712426,249638,1346327,74513,9469,672615,0
2,3,715238,250115,1422452,74812,9658,710592,0
2,3,713009,248318,1362462,73989,9598,680799,0
2,3,712296,248142,1402436,74058,9000,700704,0
2,3,737643,254152,1580955,77762,10802,789219,0
2,-1,639315,219465,1264290,65989,8085,631775,0
2,3,712943,248779,1458792,74154,9146,729025,0
2,3,712116,248322,1351836,74164,8698,675526,0
2,-1,639801,219200,1208540,65865,7255,603919,0
2,3,709991,248091,1270051,74100,8945,634636,0
2,3,710897,248099,1435139,74022,9392,716934,0
2,3,717436,249726,1384866,74817,9813,691980,0
2,3,710636,247801,1486263,74133,10180,742647,0
2,3,711229,248313,1363780,74293,8790,681617,0
2,-1,644538,221285,1396369,66812,8691,697513,0
2,3,718399,249888,1548334,75029,10640,772739,0
2,3,712577,247486,1352151,74049,9965,675477,0
2,3,715100,248007,1459337,74221,10060,729330,0
2,3,703065,248108,1481786,74258,9042,740486,0
2,3,703160,247194,1365627,73937,8825,682269,0
2,-1,635300,219590,1243081,66008,7403,621131,0
2,3,705994,247329,1308084,73949,9305,653668,0
2,3,705067,247739,1296737,74113,8680,647816,0
2,-1,640504,219964,1261421,66105,7102,630413,0
2,3,708964,247944,1412162,74213,8737,705615,0
2,3,706039,248657,1501374,74429,8331,750435,0
2,3,709913,249537,1382731,74910,9095,690921,0
2,3,707176,247622,1361671,74056,8576,680526,0
2,3,710017,248180,1694351,74264,10294,846572,0
2,3,708585,248434,1413572,74367,8701,706423,0
2,3,730871,252604,1613203,77521,10457,806284,0
2,3,730721,252458,1514871,77485,9433,756905,0
2,-1,637740,219332,1243136,65885,7266,621213,0
2,3,728488,252685,1433824,77548,9841,716476,0
2,3,710665,248991,1465577,74623,9093,732079,0
2,3,707219,248287,1429691,74222,9161,714452,0
2,3,709244,247983,1580670,74130,10703,789835,0
2,3,712441,249470,1552234,74802,10891,775465,0
3,3,764683,268541,1551776,79555,10062,775324,0
3,3,759458,266270,1577089,78586,9258,788262,0
3,-1,690119,237528,1461111,70822,8302,730050,0
3,3,760940,266513,1418360,78670,9221,708547,0
3,3,763589,266640,1554859,78709,10939,776974,0
3,3,761162,266184,1488259,78603,9511,743512,0
3,3,761222,267469,1575391,79154,10539,787036,0
3,3,790795,276647,1452072,81689,10117,725632,0
3,3,728685,252847,1438869,77003,10000,719001,0
3,-1,691691,237193,1423750,70715,8698,711566,0
3,3,706296,248103,1382161,73547,9443,690641,0
3,3,708414,248449,1393139,73789,8975,696155,0
3,3,713582,250331,1400260,74563,9073,699545,0
3,-1,691641,237201,1391323,70666,8993,695124,0
3,3,731552,253026,1530960,77157,10402,765052,0
3,3,712045,248264,1335041,73709,9043,666795,0
3,3,704327,248145,1500635,73704,9431,749950,0
3,-1,695321,237799,1296528,70911,9171,647788,0
3,3,705399,248147,1432868,73725,9319,716073,0
3,3,705283,247629,1570718,73596,10149,784559,0
3,3,708537,249233,1449529,74321,8836,724297,0
3,3,705221,248095,1380719,73736,8093,690009,0
3,3,712639,250321,1454052,74766,9313,726435,0
3,3,703237,247887,1450915,73676,8742,724868,0
3,-1,692825,237149,1436469,70637,9306,717777,0
3,3,707583,248070,1319069,73729,8445,659132,0
3,3,710125,249604,1457646,74396,8848,728312,0
3,3,704311,247858,1568575,73710,8912,783900,0
3,3,713446,250320,1530327,74697,9640,764589,0
3,-1,717458,242575,1406283,74246,9647,702728,0
3,3,706096,247369,1338137,73449,8529,668728,0
3,3,725850,252704,1466100,77070,9992,732706,0
3,-1,692074,237799,1373271,70875,8163,686339,0
3,3,706223,247789,1299906,73663,9120,649591,0
3,3,704721,247764,1334966,73654,8667,666908,0
3,3,704511,246956,1358804,73374,9303,679079,0
3,3,707106,247863,1452128,73750,10105,725661,0
3,3,726926,252659,1409098,77043,9496,704187,0
3,-1,635658,218464,1205962,65547,7205,602602,0
3,3,709609,248739,1418641,74043,8662,708921,0
3,3,712034,248995,1496942,74147,9189,747955,0
3,3,713195,248888,1488593,74052,9076,744508,0
3,3,711916,248985,1504287,73895,9788,751754,0
3,3,715682,250701,1503365,74878,9616,751157,0
3,3,705834,248077,1472995,73611,9759,736070,0
3,3,731878,253929,1338356,77294,9753,668708,0
3,3,707320,248401,1326216,73760,8596,662737,0
3,-1,641152,219952,1357065,66203,8332,677830,0
3,3,714244,250136,1515946,74415,9865,757456,0
3,3,707365,248605,1561023,73882,9160,780293,0
3,-1,638540,219288,1301397,65741,7561,650184,0
3,3,710540,248592,1439631,73888,9212,719497,0
3,3,711285,248461,1327721,73806,8519,663485,0
3,3,715689,250007,1503006,74657,10186,750968,0
3,3,710077,247840,1391914,73664,8518,695567,0
3,-1,659889,223215,1335725,68813,8284,667503,0
3,-1,637021,218638,1326859,65528,7560,662817,2
3,-1,643938,220701,1410239,66427,8536,704555,0
3,3,709495,248734,1444755,74115,8882,722032,0
3,3,708284,247967,1476341,73833,8872,737780,0
3,3,712982,248865,1490065,74163,11227,744554,0
3,-1,661040,223475,1240011,68966,9005,619686,0
3,3,710190,248368,1456471,73922,10083,727987,0
3,3,710066,249054,1385814,74212,9038,692562,0
3,3,710650,248261,1560733,73872,9798,779970,0
3,3,718978,250651,1480603,74986,9966,739691,0
3,3,714971,248437,1517107,73950,9498,758157,0
3,3,724770,252999,1571057,77258,9710,785150,0
3,3,709271,249522,1305527,74336,8835,652361,0
3,3,702687,248041,1467150,73768,10664,733190,0
3,-1,637513,219257,1292185,66032,7791,645568,0
3,3,704553,248485,1440271,73969,9309,719807,0
3,3,710927,250045,1483877,74725,9537,741274,0
3,3,725003,252981,1460042,77262,9499,729599,0
3,-1,644321,221986,1317206,66967,7794,657959,2
3,3,706807,248664,1529498,74008,8871,764372,0
3,-1,640814,219571,1396803,65909,8249,698005,0
3,3,710784,250035,1452783,74687,9329,725894,0
3,3,709265,249002,1322936,74111,8399,661371,0
3,3,708401,248330,1454570,73945,9022,726912,0
3,3,708110,250324,1425710,74877,9300,712236,0
3,3,706699,248472,1483597,73953,8797,741397,0
3,-1,640735,219159,1326412,65725,7630,662808,0
3,3,705343,247882,1386123,73838,8528,692596,0
3,3,709839,249418,1463683,74271,8658,731571,0
3,-1,659068,223416,1329275,69058,8377,664302,0
3,3,708001,249211,1372304,74140,8314,685755,0
3,-1,637682,218501,1231401,65683,7085,615124,0
3,3,708870,248654,1567010,73898,8994,783167,0
3,3,708866,249441,1432367,74205,9254,715812,0
3,3,707194,248720,1347623,73972,8234,673429,0
3,3,709025,248204,1425328,73721,8574,712451,0
3,-1,638211,218930,1266836,65733,8080,632817,2
3,-1,637591,218093,1217964,65391,7570,608529,0
3,3,709420,248933,1489968,74071,8866,744626,0
3,3,711171,248396,1423638,73800,10039,711413,0
3,3,708921,249992,1467190,74576,8866,732945,0
3,3,727690,253555,1428512,77350,8994,713942,0
3,3,740612,260631,1417206,77954,9023,707946,0
3,3,708860,248982,1458325,74058,9685,728951,0
3,-1,641638,219125,1380208,65708,7859,689777,0
3,3,710459,249129,1509879,74089,9833,754523,0
3,3,707381,248550,1394683,73878,8728,696880,0
3,-1,641428,221219,1412865,66778,8003,705802,0
3,3,710997,248909,1389359,74084,8919,694324,0
3,3,711652,248996,1485477,74045,9277,742228,0
3,-1,633062,218698,1284006,65709,7285,641640,0
3,3,706987,249506,1407506,74274,9241,703287,0
3,3,712443,250782,1492144,74833,9279,745569,0
3,3,707917,249037,1394072,73963,8745,696661,0
3,-1,638750,219933,1370844,66305,8646,686135,0
3,3,709691,248603,1343607,73988,8718,671412,0
3,3,716748,250876,1471821,74962,9268,735270,0
3,3,730583,253890,1574668,77458,10225,787005,0
3,3,709886,248609,1442389,73907,8769,720842,0
3,3,712886,249042,1361114,74109,9463,679945,0
3,-1,636384,219261,1276187,65903,6944,637579,0
3,3,711656,248893,1381471,74044,9024,690141,0
3,3,712832,249285,1441295,74152,9649,720245,0
3,3,704800,248656,1361321,73914,8827,680262,0
3,3,726496,252819,1656816,77047,10576,827271,0
3,3,709900,249429,1316116,74219,9580,657685,0
3,-1,641496,221062,1357467,66799,7342,678062,2
3,-1,637700,218847,1277798,65766,6645,638316,0
3,3,711132,249904,1446618,74521,9025,722795,0
3,3,709865,248543,1389338,73891,8658,694299,0
3,-1,633275,219090,1231676,65890,6688,615548,2
3,3,711820,250516,1520191,74843,9990,759472,0
3,-1,633634,218292,1304391,65597,6831,651900,0
3,3,708274,249703,1595480,74315,9528,797424,0
3,3,709067,248921,1345435,74021,8764,672426,0
3,3,708980,248840,1447327,74040,8673,722959,0
3,-1,637464,218571,1329147,65649,8045,664292,0
3,3,713910,250374,1484535,74731,10138,741629,0
3,3,710563,248377,1501653,73863,9817,750099,0
3,3,707100,248495,1396372,73886,8461,697833,0
3,-1,637199,218850,1283423,65804,7414,641176,0
3,3,709299,248777,1476240,73925,8752,737456,0
3,3,711726,249922,1746389,74388,10221,872947,0
3,3,710049,248649,1333126,73920,9114,666128,0
3,3,711880,248571,1394543,73927,9557,696957,0
3,3,706977,248738,1469468,73992,8135,734110,0
3,3,708909,248755,1607566,73920,10215,803492,0
3,3,733276,253439,1499179,77269,11077,749111,0
3,3,711454,249625,1617392,74199,10365,808141,0
3,3,732037,253212,1557786,77248,9405,778568,0
3,-1,636211,218802,1213526,65751,7689,606311,2
3,3,707122,248604,1506477,73750,9765,752881,0
3,3,707904,248486,1424092,73691,8916,711730,0
3,-1,645634,221556,1361688,66993,8493,680021,0
3,3,710872,248601,1349895,73824,9373,674585,0
3,3,713683,250488,1497842,74710,9666,748430,0
3,3,732280,253921,1436005,77402,9467,717659,0
3,3,716425,250300,1580237,74385,9667,789679,0
3,-1,666499,224909,1314393,70087,7981,656712,0
3,3,710524,249446,1462428,74122,9376,730759,0
3,3,709895,248543,1271312,73736,9423,635230,0
3,3,716090,250622,1514379,74680,9987,756589,0
3,3,714126,249517,1448651,74144,8448,723954,0
3,3,713833,249122,1404100,74031,9457,701720,0
3,-1,635009,218362,1184131,65578,7164,591706,0
3,3,710155,248815,1644996,73997,11973,822095,0
3,-1,641730,221589,1364719,66933,8099,681753,2
3,3,713795,249170,1435546,74110,9901,717369,0
3,-1,635587,218733,1187080,65615,6983,593146,0
3,-1,640346,219936,1308666,66144,8037,653627,0
3,3,719369,250731,1398580,74814,9485,698517,0
3,3,709803,248681,1452899,73988,9267,726079,0
3,3,735354,254836,1455622,77807,9302,727414,0
3,-1,634213,218395,1286727,65614,7832,643028,0
3,3,716618,250185,1492305,74318,9724,745774,0
3,3,713768,250253,1450561,74302,10111,724949,0
3,3,715987,250007,1362245,74205,9815,680709,0
3,-1,638336,219635,1272155,66061,7958,635613,2
3,3,723265,251968,1448103,75104,9814,723596,0
3,3,708267,249736,1841792,74121,10833,920465,0
3,-1,641282,220513,1311273,66676,8148,655005,0
3,3,714501,251010,1544369,74717,10384,771692,0
3,3,711594,249862,1376234,74168,9838,687745,0
3,3,712932,251334,1483137,74913,9239,741008,0
3,3,712738,250042,1456280,74232,9499,727732,0
3,3,735058,254848,1438262,77564,10305,718552,0
3,3,716325,250669,1434160,74442,9466,715188,0
3,-1,641241,219753,1251370,66323,8967,624935,0
3,3,710618,249191,1533090,73992,9789,766235,0
3,3,713135,249392,1759399,74103,10350,877712,0
3,3,710722,249344,1323066,74144,8782,661086,0
3,3,712194,249430,1401630,74181,9247,700365,0
3,3,715317,249533,1367133,74106,9383,683137,0
3,-1,639915,219541,1220150,65912,7191,609726,0
3,3,716200,251134,1565899,74812,9971,782395,0
3,3,733220,253432,1398364,77259,10618,698819,0
3,-1,663148,224071,1300456,69348,8482,649680,0
3,3,710984,248680,1327010,73868,9080,663189,0
3,3,712752,249226,1372950,74091,8733,686111,0
3,3,731488,253948,1640165,77334,11271,819680,0
3,-1,642552,218704,1237491,65721,7529,618350,0
3,3,711936,249183,1379113,74031,9095,689184,0
3,3,733612,253496,1509423,77199,10736,754368,0
3,-1,639950,219938,1225487,66131,7761,612234,2
3,3,712662,248849,1469779,73918,9736,734600,0
3,3,711923,249224,1612956,74140,9264,806113,0
3,-1,642271,219457,1278286,65859,7264,638673,0
3,3,709682,249058,1345117,74082,9091,672153,0
3,3,715139,250624,1557826,74850,9893,778402,0
3,3,708511,248407,1518681,73774,9139,758734,0
3,-1,642472,219068,1578391,65886,8602,788801,0
3,3,731652,253557,1444152,77243,9815,721580,0
3,3,714046,251309,1510126,75042,10381,754321,0
3,3,709190,248548,1437990,73894,9599,718532,0
3,-1,661757,223653,1328062,69015,8454,663593,0
3,3,711604,249798,1496695,74483,9514,747295,0
3,3,712198,248594,1458255,73945,10415,728581,0
3,3,715395,249867,1414388,74550,9833,706596,0
3,-1,645201,221415,1452731,66679,8549,725698,0
3,3,712741,249261,1313503,74102,9185,656444,0
3,3,712425,248614,1390438,73962,9410,694768,0
3,3,712660,249390,1470330,74120,9847,734719,0
3,3,716490,250204,1508832,74491,10986,754065,0
3,-1,637428,219629,1294831,65959,7574,647041,2
3,3,716745,248929,1534629,73844,9959,766877,0
3,3,712419,249104,1424209,73845,10425,711668,0
3,3,712942,249266,1543880,73891,9883,771600,0
3,3,711685,248599,1401309,73617,10630,700329,0
3,3,736593,254676,1767796,77365,11447,882676,0
3,3,714219,248907,1497960,73772,10334,748662,0
3,3,719239,250532,1508508,74440,10751,753326,0
3,3,708655,249666,1383017,73983,9022,691065,0
3,3,709540,248946,1429133,73722,10165,714335,0
3,3,711360,249098,1455615,73846,9366,727321,0
3,-1,641541,219624,1233312,65828,7200,616299,0
3,3,737885,258141,1543646,76517,10294,771463,0
3,3,711129,248868,1461601,73887,9495,730453,0
3,3,710624,250046,1423401,74413,9746,711119,0
3,3,705294,247733,1492954,73407,9449,745755,0
3,3,715656,251066,1447127,74884,9616,722659,0
3,-1,641086,219922,1332154,65975,7301,665674,0
3,3,707096,247996,1504948,73505,9699,751945,0
3,3,731057,252698,1425854,76918,9783,712409,0
3,3,711802,249016,1429267,73972,9573,714288,0
3,3,713483,248488,1448019,73709,9803,723655,0
3,3,708835,248233,1419411,73674,9335,709316,0
3,3,710635,248700,1433599,73789,8988,716422,0
3,-1,642617,220317,1210689,66085,7525,604792,2
3,3,715730,250405,1431170,74664,9422,714791,0
3,3,711415,248354,1454388,73654,9700,726781,0
3,3,708556,247976,1379363,73551,8957,689299,0
3,3,709074,248074,1583027,73574,9847,791137,0
3,-1,639759,219613,1406273,65824,7253,702752,0
3,3,709055,248090,1525518,73573,10539,762357,0
3,3,710770,247823,1358095,73505,9722,678649,0
3,3,716194,248340,1336689,73680,9007,667911,0
3,-1,643980,220327,1220422,66148,7384,609857,0
3,3,708529,248132,1296664,73618,8779,647907,0
3,-1,638070,219391,1317900,65888,7557,658604,2
3,3,713985,250089,1390213,74463,8669,694474,0
3,3,709712,248142,1474181,73594,9581,736755,0
3,3,711251,248638,1407220,73826,9077,703205,0
3,3,709779,248127,1464384,73595,9921,731802,0
3,3,713807,249853,1403549,74418,9119,701117,0
3,3,712603,248313,1475607,73648,9481,737474,0
3,3,712397,248377,1395045,73735,8985,697167,0
3,-1,642352,219816,1220556,66028,7507,609956,0
3,3,710027,248226,1554643,73637,8961,776859,0
3,3,711205,248225,1369273,73701,9516,684301,0
3,3,715612,250645,1435798,74615,8567,717593,0
3,3,711514,248997,1402875,73875,8980,701161,0
3,-1,648272,221619,1385032,66900,8842,691888,0
3,3,715885,248983,1365105,74112,9052,681865,0
3,-1,637821,219397,1203777,65892,6990,601172,2
3,3,731861,253288,1393965,77116,9339,696582,0
3,3,714599,249096,1488255,73923,9855,743676,0
3,-1,640065,219058,1293474,65743,7780,646227,0
3,3,713197,249093,1478807,73950,8720,739053,0
3,3,713276,248487,1379990,73761,8394,689683,0
3,3,717705,250598,1360502,74633,8677,680054,0
3,-1,643355,220969,1285978,66741,8072,642424,2
3,3,737291,252940,1472638,76936,10310,735997,0
3,3,714046,248218,1522643,73613,9137,761010,0
3,-1,641912,219764,1237706,65991,7917,618440,0
3,3,699569,248304,1419066,73167,7936,709141,0
3,3,701583,248017,1345091,73072,7812,672016,0
3,3,703227,248361,1457275,73263,8313,728078,0
3,3,702805,248461,1310220,73262,8514,654582,0
3,3,704377,248640,1277036,73316,8610,638096,0
3,-1,638396,219000,1313979,65756,7455,656608,0
3,3,727813,253190,1684201,76576,10243,841431,0
3,3,704455,248695,1627621,73273,10588,813444,0
3,-1,642634,219990,1236121,66241,7097,617967,2
3,3,702494,248008,1347024,73069,8547,673199,0
3,-1,641193,218896,1281794,65758,7411,640552,0
3,3,728121,253191,1512104,76586,10214,755678,0
3,-1,644970,220239,1335706,66472,7457,667084,0
3,3,706706,247984,1374583,73054,8022,687017,0
3,3,707093,249066,1337457,73497,9232,668452,0
3,3,705705,248024,1463760,73130,9058,731554,0
3,3,705573,248230,1499172,73238,8696,749186,0
3,3,705927,248515,1265034,73350,8761,632132,0
3,-1,637320,219596,1403229,66155,8937,701006,2
3,3,704431,247649,1321709,73043,8391,660584,0
3,-1,637381,219079,1350251,65935,8194,674773,0
3,3,708756,248221,1290393,74233,10015,644820,0
3,3,711597,249962,1389605,74997,10086,693849,0
3,3,714434,249529,1398869,74819,9946,698790,0
3,3,708838,247684,1382347,73896,9959,690694,0
3,3,709026,247367,1394060,73811,9594,696610,0
3,3,711507,248419,1273034,74231,9738,636145,0
3,3,709879,248233,1347428,74118,10197,673233,0
3,-1,639938,219284,1237109,65997,8094,618046,0
3,3,711096,250234,1362641,75077,10784,680274,0
3,3,709416,248216,1307352,74109,10126,653290,0
3,3,710253,249712,1304475,74818,9737,651690,0
3,3,708598,248101,1266172,74085,8649,632647,0
3,3,708852,248465,1394151,74257,8653,696714,0
3,-1,646221,221059,1319297,66817,8293,658916,0
3,3,729538,252502,1638609,77361,10479,819054,0
3,3,710052,249206,1431036,74461,9204,715176,0
3,3,709407,248731,1559974,74209,9048,779576,0
3,3,707377,247642,1387661,73925,9228,693431,0
3,-1,641590,219022,1369016,65898,7362,683961,0
3,3,711214,248163,1329155,74083,8598,664241,0
3,3,707616,248355,1441368,74215,9119,720368,0
3,-1,642854,220091,1365334,66296,7851,682240,0
3,3,713331,249518,1384336,74781,9508,691662,0
3,-1,639120,219302,1177109,66080,7334,588112,2
3,3,708343,247859,1372806,73961,8437,686056,0
3,3,731152,253137,1609640,77569,10034,804570,0
3,3,712124,248419,1422148,74243,8751,710660,0
3,3,705571,247345,1551282,73814,9445,775570,0
3,3,711443,248807,1289571,74304,8723,644436,0
3,-1,662185,223239,1303750,69054,8591,651415,0
3,3,708437,248463,1472697,74258,9478,735934,0
3,3,718714,250437,1454632,75052,9294,726896,0
3,3,711571,247839,1454501,74002,9070,726910,0
3,-1,642848,219692,1253656,66153,8252,626285,0
3,3,714096,248383,1495829,74243,9772,747444,0
3,-1,646353,220952,1403363,66848,7298,700868,2
3,3,707495,248946,1422668,74425,10207,711034,0
3,3,706833,248271,1397588,74129,9261,698408,0
3,-1,644252,220928,1349008,66762,8712,673787,0
3,3,707499,247852,1370961,74023,8759,685395,0
3,3,708433,248172,1318989,74128,8634,659086,0
3,3,709307,248221,1445538,74151,9489,722232,0
3,-1,642829,219292,1213879,66048,8261,606416,0
3,3,729678,252768,1545612,77443,10639,772358,0
3,3,709513,248339,1423119,74204,9369,711206,0
3,3,709545,248262,1385316,74141,8713,692250,0
3,-1,641196,218849,1341369,65833,8042,670383,0
3,3,709893,247949,1480529,74059,8942,739845,0
3,3,714483,249138,1379261,74457,9367,688974,0
3,3,708980,249219,1493647,74499,9814,746245,0
3,-1,642564,218699,1294592,65803,7492,646963,0
3,3,708658,247389,1405033,73805,8782,701427,0
3,3,710313,248358,1482868,74165,9418,741033,0
3,3,711737,248500,1472634,74218,9294,735918,0
3,3,735554,257563,1441995,76895,9405,720562,0
3,3,710113,248609,1421662,74236,9648,710430,0
3,-1,642954,219054,1330510,65965,8366,664837,0
3,3,719135,250873,1453026,75411,9177,725723,0
3,3,711772,247658,1360781,73929,8499,680037,0
3,-1,664492,223611,1265073,69226,8916,632256,0
3,3,715545,249176,1539027,74475,9566,769192,0
3,-1,640456,218522,1360226,65741,7661,679713,2
3,3,711688,250089,1350206,74998,9940,674471,0
3,3,711886,249459,1479827,74553,9927,739212,0
3,-1,648202,220691,1331136,66759,8296,664930,0
3,3,732179,253175,1491285,77516,10164,745461,0
3,3,712921,249207,1676800,74326,11798,837956,0
3,3,710597,248528,1402158,74171,10414,700632,0
3,3,734672,257183,1685623,76683,11635,842316,0
3,3,708687,248129,1414667,73979,9828,706893,0
3,3,711153,248733,1444477,74125,9771,722035,0
3,3,710001,247594,1314955,73751,9313,656969,0
3,3,718274,250195,1383362,74869,9862,690961,0
3,-1,634954,220209,1235380,66301,7286,617308,0
3,3,711225,249196,1546822,74249,9961,772844,0
3,-1,635674,219758,1204191,66194,7474,601746,2
3,3,711722,249121,1460643,74287,9809,729969,0
3,3,731463,253011,1551836,77399,11365,775425,0
3,3,713373,249683,1338178,74717,10217,668401,0
3,3,713700,248829,1481369,74236,9879,740343,0
3,3,712768,248365,1568704,74071,10915,784104,0
3,-1,632497,218677,1281947,65725,8093,640560,0
3,3,713794,249489,1426518,74387,10078,712727,0
3,3,713962,248380,1562163,73995,10388,780689,0
3,-1,661184,227954,1363506,68524,7753,681487,0
3,3,717610,249684,1478214,74661,11062,738638,0
3,3,733747,253010,1597732,77356,11926,798603,0
3,3,715263,247429,1541208,73733,9745,770245,0
3,-1,638548,220286,1255880,66547,8351,626883,0
3,3,706672,248332,1529756,73930,9961,764451,0
3,3,706920,248042,1509879,74038,10697,754593,0
3,-1,637103,221088,1246273,66953,8081,622536,2
3,3,712525,249488,1440209,74608,10078,719722,0
3,3,717407,249973,1438958,74738,9258,719109,0
3,-1,657161,223585,1308926,69232,8374,654134,0
3,3,711086,249059,1455534,74359,9636,727406,0
3,3,708938,249067,1405169,74385,9518,702172,0
3,3,713661,248803,1436061,74319,9511,717613,0
3,3,713874,249265,1461612,74591,8732,730494,0
3,3,714895,248557,1456194,74399,9318,727733,0
3,3,716751,249408,1486420,74695,9528,742529,0
3,3,710887,249144,1445868,74576,9367,722606,0
3,3,714440,249774,1371177,74725,8999,685125,0
3,-1,638947,219371,1293147,66055,7510,646214,0
3,3,713955,249852,1436097,74776,9810,717673,0
3,3,716483,249976,1549890,74745,10029,774557,0
3,3,717981,250367,1585716,74858,9299,792435,0
3,3,712247,249580,1482367,74489,9841,740895,0
3,3,713314,249127,1492471,74402,9527,745922,0
3,3,713210,248402,1420834,74120,9120,710063,0
3,3,712837,249521,1504675,74538,9903,752057,0
3,-1,633547,219226,1283180,66028,7281,641174,0
3,3,716965,250634,1386597,75135,9086,692782,0
3,3,728081,252650,1382578,77368,9949,690870,0
3,3,710972,248919,1434327,74375,8822,716912,0
3,-1,636103,219973,1283238,66260,7734,641220,2
3,3,717329,250250,1448589,74844,9256,723886,0
3,-1,638761,219555,1254468,66082,7124,626915,0
3,-1,635739,218527,1299401,65732,7379,649302,0
3,3,713344,249714,1478921,74546,10000,738965,0
3,3,712730,249011,1528853,74277,9234,764089,0
3,3,738436,255094,1591455,77975,10488,795295,0
3,3,712570,248862,1474596,74147,9737,736909,0
3,-1,637250,219173,1387059,66015,7863,693142,2
3,3,717675,250121,1489747,74612,10078,744445,0
3,3,712354,248305,1538488,74063,9346,768910,0
3,3,716896,250776,1410544,75172,9414,704452,0
3,-1,635992,219467,1363641,66097,7312,681395,0
3,3,712984,249875,1295316,74626,8802,647211,0
3,3,715240,249747,1364147,74543,8847,681635,0
3,3,715545,249187,1509364,74406,9511,754218,0
3,3,710697,248787,1414907,74217,9303,707156,0
3,3,712329,248462,1438057,74114,9243,718620,0
3,-1,638316,219856,1289303,66225,6898,644237,0
3,3,713969,248584,1369788,74209,9082,684427,0
3,3,712077,248833,1502882,74231,9148,751028,0
3,3,715583,248718,1474139,74232,9657,736712,0
3,3,714949,248772,1487315,74246,9588,743329,0
3,-1,639128,219278,1417482,66028,7956,708370,0
3,3,708698,248693,1561067,74249,10650,779954,0
3,3,711550,249571,1489578,74534,9169,744127,0
3,3,710829,248945,1482373,74327,10277,740823,0
3,3,714388,250785,1506937,75192,10508,752832,0
3,-1,638919,218812,1297799,65851,7638,648680,0
3,3,710982,248435,1424893,74049,10363,712114,0
3,3,731408,253635,1485825,77646,11038,742548,0
3,-1,638141,219941,1241833,66258,6979,620573,0
3,3,717181,250902,1406827,75144,10114,702751,0
3,-1,635752,219207,1203419,66048,7094,601348,2
3,3,714330,249814,1520586,74445,9886,759765,0
3,3,714910,249704,1382710,74486,9647,690556,0
3,3,716929,249884,1399751,74663,8847,699393,0
3,-1,637948,219092,1345615,65962,6874,672462,0
3,3,718141,251817,1470505,75570,9325,734588,0
3,3,716099,249727,1424248,74569,9259,711865,0
3,-1,638145,219028,1273634,65875,6693,636550,0
3,3,713316,249197,1298554,74479,9263,649019,0
3,3,715853,249720,1333336,74797,8800,666151,0
3,3,719593,250823,1460485,75284,8921,729675,0
3,3,735314,253829,1499725,77771,10970,749574,0
3,-1,642400,219546,1290353,65969,7748,644717,0
3,3,714936,249138,1440972,74404,10864,719978,0
3,3,716976,249296,1578057,74421,9889,788756,0
3,3,719475,250306,1563375,74718,9338,780975,0
3,3,715987,248838,1528823,74219,10032,763396,0
3,-1,638020,219628,1361282,66043,7095,680256,0
3,-1,640041,219429,1234604,65990,6853,616956,0
3,3,716108,250896,1405991,75263,10373,702273,0
3,3,711967,248493,1444164,74059,9524,721702,0
3,3,711203,248663,1393775,74284,9117,696482,0
3,3,708566,248630,1514151,74201,9437,756704,0
3,3,712277,248637,1480711,74198,9123,739844,0
3,3,713900,248786,1383686,74220,10079,691486,0
3,3,711354,248974,1481697,74305,10210,740458,0
3,3,713011,248732,1476458,74178,9372,737753,0
3,-1,637568,219143,1177871,65909,6824,588122,0
3,3,713086,248578,1460914,74084,9654,730127,0
3,3,712035,248623,1390324,74126,9274,694752,0
3,-1,638874,219043,1374379,65821,7913,686884,0
3,3,713944,249808,1470586,74665,9756,734866,0
3,3,709170,247844,1362386,73954,8437,680444,0
3,3,712988,249354,1416157,74628,9031,707406,0
3,3,717015,249958,1472795,74985,9492,735879,0
3,3,714918,249245,1413387,74486,9721,706258,0
3,3,712337,247531,1495216,73999,9398,747025,0
3,3,713270,247972,1351628,74179,9081,675453,0
3,-1,668028,225920,1407602,70360,8604,703044,0
3,3,715467,248232,1563501,74314,10492,781043,0
3,3,712860,248489,1375761,74414,10471,687446,0
3,3,734462,252680,1485072,77572,10528,742486,0
3,3,704617,248094,1436328,74216,7815,718026,0
3,-1,642615,220127,1252556,66230,7833,625964,2
3,-1,655628,223791,1282831,69183,7334,640939,0
3,3,727401,253102,1459257,77701,10158,728621,0
3,3,710784,249814,1375484,75101,9500,686995,0
3,3,706100,247805,1375054,74112,10028,687193,0
3,-1,641233,221034,1422951,66717,7882,710984,0
3,3,706719,247512,1430271,74005,8981,714650,0
3,3,703409,247543,1391033,74038,8431,695198,0
3,-1,639510,220354,1304193,66210,7561,651706,0
3,3,707293,247727,1362752,74114,9085,681000,0
3,3,712376,249693,1441200,75077,9754,719993,0
3,3,712268,249428,1539954,74821,9342,769370,0
3,3,713876,250577,1501762,75314,9651,749694,0
3,3,708190,247708,1674051,74134,10512,836181,0
3,3,708774,248356,1439283,74361,8662,719249,0
3,3,705170,247936,1317799,74159,8979,658576,0
3,-1,639692,219587,1241050,65908,7199,620296,0
3,3,707248,248102,1467709,74280,8838,733577,0
3,3,733065,253930,1557904,77779,10262,778601,0
3,3,710304,248371,1336009,74242,8685,667700,0
3,3,710326,249848,1416403,74896,10432,707620,0
