-1,0,0.007996
-1,1,0.00749625
-1,2,0.00749625
-1,3,0.00749625
-1,4,0.00749625
-1,5,0.00749625
-1,6,0.00749625
-1,7,0.00749625
-1,8,0.00749625
-1,9,0.00749625
-1,10,0.00749625
-1,11,0.00749625
-1,12,0.00749625
-1,13,0.00749625
-1,14,0.00749625
-1,15,0.00749625
-1,16,0.00749625
-1,17,0.00749625
-1,18,0.00749625
-1,19,0.00749625
-1,20,0.00749625
-1,21,0.00749625
-1,22,0.00749625
-1,23,0.00749625
-1,24,0.00749625
-1,25,0.00749625
-1,26,0.00749625
-1,27,0.00749625
-1,28,0.00749625
-1,29,0.00749625
-1,30,0.00749625
-1,31,0.00749625
-1,32,0.00749625
-1,33,0.00749625
-1,34,0.00749625
-1,35,0.00749625
-1,36,0.00749625
-1,37,0.00749625
-1,38,0.00749625
-1,39,0.00749625
-1,40,0.007996
-1,41,0.007996
-1,42,0.007996
-1,43,0.007996
-1,44,0.007996
-1,45,0.007996
-1,46,0.007996
-1,47,0.007996
-1,48,0.007996
-1,49,0.007996
-1,50,0.007996
-1,51,0.007996
-1,52,0.007996
-1,53,0.007996
-1,54,0.007996
-1,55,0.007996
-1,56,0.007996
-1,57,0.007996
-1,58,0.007996
-1,59,0.007996
-1,60,0.007996
-1,61,0.007996
-1,62,0.007996
-1,63,0.007996
-1,64,0.007996
-1,65,0.007996
-1,66,0.007996
-1,67,0.007996
-1,68,0.007996
-1,69,0.007996
-1,70,0.007996
-1,71,0.007996
-1,72,0.007996
-1,73,0.007996
-1,74,0.007996
-1,75,0.007996
-1,76,0.007996
-1,77,0.007996
-1,78,0.007996
-1,79,0.007996
-1,80,0.007996
-1,81,0.007996
-1,82,0.007996
-1,83,0.007996
-1,84,0.007996
-1,85,0.007996
-1,86,0.007996
-1,87,0.007996
-1,88,0.007996
-1,89,0.007996
-1,90,0.007996
-1,91,0.007996
-1,92,0.007996
-1,93,0.007996
-1,94,0.007996
-1,95,0.007996
-1,96,0.007996
-1,97,0.007996
-1,98,0.007996
-1,99,0.007996
-1,100,0.007996
-1,101,0.007996
-1,102,0.007996
-1,103,0.007996
-1,104,0.007996
-1,105,0.007996
-1,106,0.007996
-1,107,0.007996
-1,108,0.007996
-1,109,0.007996
-1,110,0.007996
-1,111,0.007996
-1,112,0.007996
-1,113,0.007996
-1,114,0.007996
-1,115,0.007996
-1,116,0.007996
-1,117,0.007996
-1,118,0.007996
-1,119,0.007996
-1,120,0.00749625
-1,121,0.00749625
-1,122,0.00749625
-1,123,0.00749625
-1,124,0.00749625
-1,125,0.00749625
-1,126,0.00749625
-1,127,0.00749625
