0,0,4,693918.000000,239613.000000,1292166.500000,71364.750000,8445.750000,646064.500000,24620.273221,8793.426437,41013.758822,2315.509812,497.230517,20527.721860
0,1,7,720209.142857,251961.714286,1367649.428571,75414.000000,9377.142857,683838.857143,18425.328238,5818.555042,58235.071519,1935.190947,783.233486,29124.454832
1,0,3,685451.333333,237253.000000,1356784.333333,70883.666667,8666.000000,678245.333333,21897.199369,8203.147485,67603.111252,2126.839962,470.482731,33631.570053
1,1,6,708630.333333,248308.833333,1365864.000000,73877.500000,8999.000000,682910.500000,2547.358545,811.684959,62538.562069,238.474143,437.193702,31243.611420
2,0,3,667154.333333,230844.000000,1286919.333333,69125.000000,8591.666667,643121.666667,3928.971904,974.623346,58914.952699,381.398304,730.708484,29328.932977
2,1,6,707349.166667,247803.500000,1385242.166667,73674.500000,8951.500000,692639.166667,4148.247639,345.531836,65946.765514,358.665931,258.115446,33017.518827
3,0,3,665729.000000,230482.333333,1316053.666667,68940.333333,8686.666667,657954.333333,2898.786988,424.061578,86995.880685,110.831203,874.351696,43541.541087
3,1,6,712370.833333,249476.166667,1432984.333333,74636.500000,9263.166667,716340.333333,7364.915420,1721.047686,78107.979656,1432.771295,625.349880,38826.159573
4,0,3,669309.333333,231645.000000,1307688.666667,69359.333333,8641.333333,653614.000000,889.050930,811.137473,27518.487087,274.233882,326.980462,13564.038337
4,1,6,711132.166667,248915.500000,1360168.000000,74366.666667,9091.500000,680080.000000,8811.486583,2083.455043,51518.914627,1349.199598,985.269295,25751.448399
5,0,3,668946.666667,231422.000000,1341523.000000,69291.666667,8900.666667,670388.333333,4459.965795,1077.294141,19281.483466,567.536391,417.216437,9555.693812
5,1,6,709972.333333,248538.000000,1404787.333333,73940.000000,9452.166667,702361.500000,1790.609362,858.339482,61732.596221,255.387940,571.952625,30798.536971
6,0,3,673119.333333,232294.000000,1282713.000000,70158.333333,8370.666667,641359.666667,12534.777816,2328.163368,12537.964428,1689.790980,908.367522,6294.820216
6,1,6,708654.166667,248392.833333,1331929.666667,73940.166667,8851.833333,665905.000000,4085.547186,1135.106664,62189.575417,537.950251,428.616541,30950.112929
7,0,3,665965.666667,230959.333333,1333098.333333,69182.000000,8532.666667,666244.000000,2901.275160,534.428875,105646.126985,209.171381,919.716019,52848.596065
7,1,6,714706.666667,249373.333333,1350061.166667,74529.666667,9021.833333,675046.500000,10195.380256,2125.614473,98011.117579,1491.200598,574.490040,48987.097814
8,0,3,665404.666667,230511.333333,1292420.666667,68939.333333,8738.000000,646170.000000,2726.172205,314.521153,20524.140734,154.724127,320.157253,10273.816850
8,1,6,709069.666667,248360.833333,1365860.166667,73928.666667,9244.333333,683009.000000,3627.782687,782.872151,74594.894563,610.266244,465.598420,37227.897487
9,0,3,666778.000000,231029.333333,1336891.000000,69274.000000,8695.000000,668635.000000,840.112294,1254.972598,30013.668120,459.003994,511.861961,15010.904192
9,1,6,712783.666667,249430.833333,1365681.166667,74613.166667,9284.333333,682744.500000,8794.915987,1749.776692,87860.673636,1395.980350,828.541624,43855.631971
10,0,3,668933.666667,231175.000000,1294834.000000,69261.666667,8611.000000,647300.666667,2999.467101,659.462407,66148.509144,264.963310,637.104387,32899.907855
10,1,6,708822.833333,248312.166667,1369756.000000,73889.333333,9402.500000,684827.333333,4745.639838,1380.940672,46745.728275,745.184914,328.898541,23411.355839
11,0,3,668367.333333,230912.333333,1290813.333333,69106.333333,8382.666667,645362.000000,590.367306,203.034206,46671.159719,134.937846,838.173146,23365.525559
11,1,6,714223.666667,249911.666667,1383035.500000,75018.666667,9872.833333,691447.333333,9390.608228,2162.462305,65479.029495,1467.146172,683.758100,32708.123999
12,0,3,669646.000000,231516.333333,1347934.666667,69347.333333,8311.000000,673891.000000,1216.720455,382.958948,28787.363829,286.056327,600.793364,14240.370852
12,1,6,708138.166667,248491.666667,1358735.166667,73952.666667,9216.333333,679250.833333,4923.727058,1001.889160,61104.378543,490.326648,334.285141,30569.951038
13,0,3,673478.000000,232055.333333,1267839.000000,70066.666667,9076.333333,633953.666667,11675.285036,2189.378349,48068.389703,1548.523024,618.005574,24426.909879
13,1,6,708406.166667,248048.500000,1375852.666667,73758.000000,9460.500000,687874.000000,3815.812470,461.548751,58109.778152,414.980321,598.141218,28991.329641
14,0,3,668646.666667,230957.666667,1356616.000000,69164.333333,8798.666667,678192.333333,2932.892126,216.170200,37775.034410,90.900434,200.626242,18750.019828
14,1,6,708686.833333,248794.000000,1396961.000000,74018.166667,9375.000000,698427.666667,3743.397718,859.951743,101128.406565,212.428354,866.849083,50430.999265
15,0,3,668489.666667,230697.333333,1287363.333333,69094.666667,8095.000000,643699.333333,1723.216824,244.798330,36333.768364,90.790357,409.610384,18331.495344
15,1,6,711374.166667,249038.666667,1380344.000000,74399.166667,9322.500000,690092.333333,6381.804014,1255.152802,66081.780870,846.405422,433.408487,33049.061594
16,0,3,679057.000000,233331.333333,1403924.000000,70689.000000,9027.666667,702064.666667,9688.159199,1506.963466,34197.409931,1248.841330,410.697239,17024.683342
16,1,6,710040.500000,248937.666667,1340250.666667,74187.333333,9514.166667,670048.000000,3542.667580,1378.023665,57352.813632,532.390416,593.877489,28658.691061
17,0,3,668380.333333,231032.000000,1264306.333333,69183.666667,8534.333333,631897.000000,1575.136044,516.389388,26545.801543,191.668696,47.988425,13505.935461
17,1,6,711222.166667,248860.833333,1368767.833333,74325.666667,9362.500000,684435.333333,8496.049580,1718.745707,67649.008893,1364.025741,588.975311,33901.347386
18,0,3,669648.000000,231281.000000,1270514.000000,69253.666667,8960.000000,635146.000000,1229.186181,295.845680,20208.478815,185.781831,408.267069,10168.785277
18,1,6,707689.000000,248337.500000,1368590.333333,73845.000000,8867.666667,684214.666667,2540.769437,632.589058,51045.156625,415.933488,381.668996,25479.982115
19,0,3,666937.666667,231118.333333,1318996.333333,69291.000000,8754.666667,659269.000000,3903.991234,1152.681029,121369.795101,448.171842,806.235835,60556.754542
19,1,6,715932.666667,250499.000000,1388737.000000,74868.166667,9710.500000,694221.333333,12040.969516,3763.274239,48473.366498,1397.677528,659.119299,24302.986851
20,0,3,673816.666667,232271.333333,1372067.000000,70188.666667,9065.000000,685950.000000,10539.664585,2387.825277,89535.558110,1575.893045,672.103167,44760.965405
20,1,6,711121.833333,249150.166667,1359955.333333,74446.666667,9305.500000,679876.500000,6141.897357,1397.743827,50672.317418,1340.824705,568.171262,25417.131341
21,0,3,666016.333333,230791.333333,1300017.666667,69114.000000,8051.333333,650088.666667,2962.452850,611.082282,70765.834249,126.166557,496.903299,35330.372065
21,1,6,707885.500000,248242.500000,1386759.333333,73799.000000,9405.166667,693245.833333,3886.963286,741.681367,170262.578166,474.272425,1374.185506,85066.610591
22,0,3,667100.666667,231311.666667,1311025.666667,69376.000000,8630.666667,655281.666667,1668.593486,547.001727,33262.290404,323.817850,198.395788,16831.481819
22,1,6,712565.666667,249459.500000,1365523.000000,74555.000000,9104.333333,682574.833333,10147.315666,2229.222641,50209.004863,1343.089846,876.291935,25080.161000
23,0,3,665884.000000,230861.333333,1303005.666667,69191.333333,8405.333333,651428.333333,2851.554313,1114.797839,80605.368644,389.283387,217.963809,40368.035262
23,1,6,710796.166667,249476.333333,1360171.500000,74140.500000,8842.000000,680061.000000,9452.481357,3533.869771,77568.751339,1146.762508,413.490427,38690.069445
24,0,3,668564.333333,231637.666667,1394286.666667,69423.333333,8695.666667,696948.000000,3565.128921,1055.540725,75045.041166,533.613052,288.749411,37297.737635
24,1,6,706713.000000,248208.666667,1332483.166667,73759.166667,8682.333333,666213.333333,3719.621665,748.098850,52493.190579,451.455947,542.489836,26221.129690
25,0,3,665689.333333,230660.333333,1260096.333333,69029.666667,7995.666667,630022.333333,898.299257,96.762022,68196.856029,42.121517,227.062889,34076.827027
25,1,6,706758.166667,248186.500000,1361827.000000,73735.666667,8860.500000,680947.833333,3662.513500,729.089101,97973.291150,395.078754,848.145182,48940.150297
26,0,3,668258.000000,230984.000000,1314772.000000,69124.000000,8749.333333,657267.333333,1366.974030,307.671903,30585.576241,102.706702,322.376936,15301.481199
26,1,6,708168.166667,248360.000000,1329593.833333,73855.833333,8671.166667,664726.166667,4125.273422,1149.638059,63968.545248,512.530460,952.700970,31927.398899
27,0,3,666118.333333,230797.666667,1312760.000000,69046.666667,8451.333333,656127.000000,2336.516828,462.209428,37180.777731,244.726151,111.392200,18294.121752
27,1,6,720045.000000,251745.166667,1339947.333333,75327.333333,8996.166667,669987.500000,12176.132952,3955.399660,71420.450913,1483.309775,689.129745,35652.828073
28,0,3,672234.666667,232233.000000,1256509.333333,70132.666667,8307.333333,628155.000000,9952.041309,2313.072416,5484.553907,1564.521723,219.633533,2623.465774
28,1,6,710263.833333,248653.833333,1361795.833333,73948.666667,9046.833333,680938.166667,4009.691402,496.135202,64485.587794,577.684651,364.978272,32259.552376
29,0,3,666809.666667,231416.000000,1323137.333333,69335.000000,8343.000000,661413.333333,4872.480979,590.629043,59345.084853,319.095597,842.891452,29601.494561
29,1,6,712841.833333,249110.333333,1329440.166667,74360.500000,9266.500000,664720.333333,5556.697863,1290.353655,31900.987704,802.123588,451.635454,15930.830986
30,0,3,676420.000000,234598.666667,1315152.000000,70306.000000,8640.333333,657538.666667,12279.356416,3621.988067,44596.470204,1094.150203,274.343256,22408.435500
30,1,6,709450.000000,248734.000000,1363737.666667,73958.333333,9414.166667,681849.000000,2940.293579,1364.751748,58151.142656,582.555481,599.126981,29131.980468
31,0,3,665886.333333,230618.666667,1334061.666667,68985.666667,7895.000000,666955.666667,903.799511,425.342476,39106.875323,120.593901,361.398211,19590.960336
31,1,6,713754.000000,249516.500000,1404801.000000,74592.833333,9795.500000,702302.333333,7708.644260,1730.626741,69039.243652,1341.538099,1177.816730,34479.320603
32,0,3,665954.333333,231161.666667,1384798.333333,69161.666667,8932.333333,692194.333333,1397.934270,287.182095,33023.842754,18.408935,80.871640,16879.965587
32,1,6,709600.166667,248638.500000,1374472.166667,73963.166667,9340.333333,687215.000000,4631.214435,848.894723,81510.437899,609.074001,710.028560,40691.947275
33,0,3,671341.333333,232158.000000,1317482.666667,70116.000000,8888.666667,658812.666667,10876.386236,2030.582675,14392.989875,1547.442621,360.778171,7064.029838
33,1,6,711869.000000,249283.500000,1328063.000000,74446.333333,9482.500000,664008.166667,7686.429817,1930.842713,50305.820061,1372.652015,768.990410,25131.997072
34,0,3,666672.333333,231378.333333,1310462.000000,69399.000000,8602.333333,655287.333333,2094.824946,828.277463,77034.597712,349.818048,633.274208,38535.659333
34,1,6,708449.333333,248462.833333,1374055.333333,73942.833333,9238.833333,686979.666667,4321.564557,1401.043946,57179.308955,363.672663,526.015975,28547.546688
35,0,3,669391.666667,231723.333333,1363904.333333,69447.333333,9020.333333,682134.333333,1040.392981,406.485205,16853.206566,250.274960,355.550590,8678.985437
35,1,6,715673.166667,250591.666667,1415938.666667,74867.666667,9593.833333,707930.500000,18716.271490,4385.813101,83148.982126,2202.670324,660.290698,41624.444232
36,0,3,665931.000000,230728.333333,1344507.333333,69021.000000,8560.666667,672434.000000,2755.977262,729.674052,30379.401578,207.182689,716.414374,15176.254237
36,1,6,708128.500000,248243.333333,1441444.500000,73763.500000,9682.166667,720724.666667,3784.038264,569.364461,109674.648710,385.803815,1250.413454,54829.988412
37,0,3,671577.666667,231484.666667,1255268.666667,69349.000000,8531.333333,627419.666667,3291.157480,1423.322482,28656.759207,509.284465,375.512391,14127.980873
37,1,6,707505.166667,247749.666667,1375098.000000,73605.833333,9068.833333,687627.166667,3546.397111,1163.153711,39191.039159,403.149028,435.945492,19600.855283
38,0,3,670057.666667,231492.000000,1283766.000000,69352.000000,8338.666667,641835.333333,5039.428693,1045.978967,32305.535202,478.248889,594.605939,16242.300665
38,1,6,708647.000000,248464.166667,1438985.333333,73855.000000,9715.333333,719203.333333,3825.798043,765.133412,61268.607282,432.278845,1078.540938,30416.650137
39,0,3,665989.666667,230484.333333,1289906.666667,68966.666667,8204.666667,644936.666667,1452.846478,507.480268,13760.449952,134.306449,321.623313,6973.348184
39,1,6,711575.833333,248826.166667,1436412.333333,74040.833333,9422.333333,718101.833333,5370.598273,1202.574934,162076.536086,542.361938,817.448401,80877.780637
40,0,3,667113.333333,231185.666667,1326240.666667,69279.666667,8285.666667,662924.000000,701.283268,1339.708011,51420.364269,487.850615,729.889642,25469.697917
40,1,6,711564.166667,248726.000000,1383106.000000,74018.666667,9721.833333,691339.666667,3772.811879,1106.361002,89821.503340,309.463335,999.300325,44779.104117
41,0,2,666396.000000,230693.000000,1297668.500000,69076.500000,7975.500000,648802.500000,2266.000000,4.000000,7445.500000,75.500000,618.500000,3672.500000
41,1,6,712803.500000,248834.000000,1355738.000000,74256.166667,9360.333333,677879.000000,9204.534259,1490.078410,90820.817810,1330.032007,1060.816614,45362.696539
42,0,2,668449.000000,231286.500000,1273931.500000,69244.500000,7846.000000,636875.500000,1223.000000,226.500000,72039.500000,56.500000,644.000000,35923.500000
42,1,6,712375.500000,249069.333333,1318157.000000,74100.333333,9081.833333,658998.833333,3570.212494,885.530287,65002.802322,269.220273,613.957495,32508.859364
43,0,2,668661.000000,231144.500000,1304274.500000,69358.000000,7939.500000,651872.500000,3505.000000,1266.500000,25259.500000,562.000000,3.500000,12993.500000
43,1,6,714179.666667,248990.833333,1356081.666667,74340.333333,9222.166667,677921.666667,10476.675724,1375.664133,52325.378966,1368.061118,584.631912,26166.752993
44,0,2,680509.000000,234213.500000,1313130.000000,71230.500000,8617.000000,656707.000000,8966.000000,1244.500000,39300.000000,1237.500000,209.000000,19593.000000
44,1,6,715290.000000,249258.666667,1323061.000000,74414.666667,8848.833333,661541.666667,8760.967964,1679.788644,89036.747037,1303.727051,948.045958,44540.699091
45,0,2,669177.500000,231124.000000,1405106.500000,69221.000000,8960.000000,702412.500000,1192.500000,560.000000,42286.500000,128.000000,182.000000,21351.500000
45,1,6,708140.833333,247892.666667,1332044.000000,73578.166667,8783.666667,665943.500000,5783.290627,984.322045,28801.232069,481.694722,752.345148,14384.161576
46,0,2,666771.500000,230565.500000,1313434.000000,68969.000000,8004.500000,656760.500000,1169.500000,536.500000,8712.000000,146.000000,219.500000,3771.500000
46,1,6,709444.000000,248102.333333,1334842.000000,73641.500000,8784.833333,667419.000000,2016.998017,944.742940,75091.224283,321.159747,560.991508,37539.980159
47,0,2,671430.000000,232111.500000,1389632.000000,69711.000000,9245.500000,694890.500000,2153.000000,78.500000,2549.000000,74.000000,250.500000,1300.500000
47,1,6,714763.666667,249522.166667,1396441.500000,74740.500000,9311.666667,698268.333333,14024.417881,2586.417175,33980.262373,1769.318301,544.746016,17018.032570
48,0,2,680358.500000,235452.000000,1339627.500000,70474.500000,8431.500000,669844.000000,14085.500000,5085.000000,22762.500000,1487.500000,81.500000,11334.000000
48,1,6,708667.333333,248020.666667,1318497.666667,73803.000000,8854.500000,659214.500000,2956.957427,1013.274998,55298.844375,152.023025,523.800455,27625.823878
49,0,2,665979.000000,230552.500000,1364409.500000,69007.000000,8407.000000,682209.500000,3300.000000,271.500000,49927.500000,145.000000,364.000000,24939.500000
49,1,6,712521.666667,249103.000000,1327273.000000,74448.500000,8841.333333,663659.666667,9766.408512,1771.236762,79177.958951,1357.422895,664.319368,39628.656091
50,0,2,668349.500000,231232.000000,1390295.000000,69233.500000,7887.500000,695183.000000,771.500000,313.000000,78748.000000,72.500000,489.500000,39426.000000
50,1,6,711606.833333,248951.333333,1327250.333333,74401.833333,8578.333333,663608.000000,6714.532682,1587.521513,64411.625016,1201.665707,574.220534,32150.725591
51,0,2,668106.500000,231644.500000,1363065.000000,69455.000000,8292.500000,681234.000000,3095.500000,661.500000,61425.000000,372.000000,402.500000,30489.000000
51,1,6,708981.500000,248400.000000,1370965.666667,73899.666667,8962.666667,685443.000000,3014.193466,610.827581,73430.546443,172.133346,837.366639,36689.362318
52,0,2,676413.500000,232891.000000,1246560.500000,70662.000000,8792.000000,623110.500000,11600.500000,2193.000000,59894.500000,1634.000000,519.000000,29888.500000
52,1,6,712865.500000,249413.500000,1394491.166667,74565.666667,9459.500000,697194.500000,10341.289310,2183.186490,80161.451508,1230.882159,1488.486116,40008.928298
53,0,2,667566.500000,231553.000000,1307965.000000,69333.000000,8129.500000,654189.500000,616.500000,262.000000,98400.000000,49.000000,213.500000,49476.500000
53,1,6,711017.500000,248139.166667,1372498.500000,73857.166667,8622.666667,686259.833333,4567.430304,473.025516,50188.320928,401.633090,357.497630,25089.781874
54,0,2,663501.000000,230114.000000,1292259.500000,68831.000000,8119.500000,646375.000000,942.000000,123.000000,60837.500000,15.000000,115.500000,30733.000000
54,1,6,710645.833333,248260.500000,1375890.000000,73915.666667,9037.500000,687863.166667,2909.985190,1293.594572,47611.518165,495.814369,731.556275,23893.606337
55,0,2,666737.000000,231295.500000,1322762.500000,69213.500000,8336.000000,661243.000000,2140.000000,56.500000,92437.500000,22.500000,105.000000,46387.000000
55,1,6,709288.000000,247852.166667,1355704.333333,73753.833333,9263.833333,677867.333333,2426.600297,599.151460,124617.061500,287.674826,1318.368615,62293.988254
56,0,2,668365.000000,231794.000000,1288752.500000,69489.500000,8645.500000,644641.500000,505.000000,1360.000000,38445.500000,557.500000,215.500000,19396.500000
56,1,6,712176.500000,249037.500000,1372685.666667,74242.833333,9024.166667,686311.333333,3449.945205,1168.381609,87564.148365,471.108061,608.153878,43780.474733
57,0,2,676260.000000,232992.000000,1231418.500000,70600.000000,8704.500000,615642.000000,8518.000000,2322.000000,8774.500000,1724.000000,583.500000,4281.000000
57,1,6,709628.833333,248140.333333,1360275.333333,73915.000000,9049.333333,680126.000000,3668.675802,1114.346096,47082.055126,407.016380,638.826963,23529.017553
58,0,2,664580.500000,230944.500000,1299540.500000,69051.000000,8443.000000,649948.000000,1699.500000,99.500000,37382.500000,55.000000,191.000000,18493.000000
58,1,6,714198.500000,249038.833333,1334202.500000,74475.166667,9079.833333,667047.000000,8373.050236,1521.309241,48361.868611,981.793328,377.687003,24190.062705
59,0,2,664749.500000,230727.000000,1249742.000000,68992.500000,8110.000000,624579.500000,3393.500000,326.000000,53970.000000,109.500000,40.000000,27373.500000
59,1,6,710278.500000,248032.833333,1361908.333333,73813.833333,9136.833333,680926.833333,3518.002499,581.407034,48880.912807,281.836487,566.142331,24486.807465
60,0,2,667900.500000,232253.000000,1293373.000000,69677.000000,8511.500000,646698.500000,2757.500000,91.000000,10845.000000,8.000000,427.500000,5384.500000
60,1,6,710294.833333,248315.000000,1330428.333333,73956.833333,9101.333333,665104.500000,3100.040237,673.574792,43966.386587,332.962168,365.812186,21897.732415
61,0,2,668707.000000,230677.000000,1386100.500000,68976.000000,8496.000000,692453.500000,4404.000000,167.000000,40231.500000,56.000000,81.000000,19492.500000
61,1,6,711300.833333,248512.666667,1361715.833333,73982.000000,9136.666667,680779.833333,2166.806745,554.929625,69851.654522,304.464557,708.929866,34897.868375
62,0,2,670380.500000,231680.000000,1314569.000000,69315.000000,8784.000000,657002.000000,4053.500000,317.000000,23357.000000,125.000000,51.000000,11647.000000
62,1,6,710552.500000,248264.166667,1328457.833333,73933.500000,9458.666667,664135.666667,3676.582913,782.523571,60101.952529,449.892858,585.350797,29931.986178
63,0,2,675093.500000,232697.500000,1364405.500000,69891.500000,9826.000000,682140.500000,137.500000,60.500000,6640.500000,13.500000,6.000000,3286.500000
63,1,6,710772.500000,248166.666667,1467649.000000,73849.500000,9556.166667,733818.833333,3544.301471,559.124812,148015.527227,297.399703,375.921719,74005.275556
64,0,2,668778.000000,230652.500000,1339820.500000,68943.000000,8945.500000,669747.500000,1425.000000,593.500000,969.500000,254.000000,38.500000,416.500000
64,1,6,711448.166667,248624.166667,1415730.666667,74097.666667,9468.666667,707757.833333,2333.459479,1274.507410,102287.657710,554.240221,577.503151,51093.352596
65,0,2,671213.000000,231651.500000,1328612.000000,69375.500000,9001.500000,664017.000000,1320.000000,274.500000,51192.000000,215.500000,37.500000,25786.000000
65,1,6,714170.500000,248808.166667,1391112.666667,74406.333333,9746.500000,695436.666667,8826.669960,1989.224088,32600.521523,1241.132637,493.951668,16308.379612
66,0,2,670259.000000,231414.500000,1352303.000000,69299.000000,8446.500000,676091.500000,929.000000,364.500000,55215.000000,142.000000,532.500000,27715.500000
66,1,6,710368.333333,248621.500000,1417557.500000,74093.333333,9436.833333,708630.500000,3011.478522,819.639707,133094.181862,357.245325,727.280417,66401.283235
67,0,2,667734.000000,230585.500000,1289629.500000,68905.000000,8564.000000,644861.500000,94.000000,63.500000,38577.500000,22.000000,131.000000,19290.500000
67,1,6,711277.166667,248457.833333,1363994.500000,74023.000000,9532.000000,681847.833333,2425.786705,883.823779,70729.032589,394.838364,597.535494,35351.501215
68,0,2,667410.000000,230631.000000,1333616.500000,68908.500000,8687.500000,667059.500000,632.000000,25.000000,101968.500000,97.500000,104.500000,51328.500000
68,1,6,710758.500000,248589.166667,1393448.666667,74064.000000,9094.333333,696609.666667,4185.991908,1048.196454,83949.024181,473.882194,548.064676,41897.428197
69,0,2,681254.500000,233903.000000,1356826.500000,71037.000000,9317.500000,678329.000000,6958.500000,1570.000000,15636.500000,1238.000000,261.500000,7599.000000
69,1,6,720974.333333,250519.166667,1405886.333333,75500.666667,9447.000000,702872.833333,11527.252819,2285.301615,101354.311422,1553.434761,566.454176,50512.601772
70,0,2,669427.000000,230833.500000,1278592.000000,69011.500000,8150.000000,639163.000000,295.000000,178.500000,44813.000000,128.500000,613.000000,22159.000000
70,1,6,711783.333333,248393.500000,1404153.666667,73940.666667,9208.500000,701884.666667,1607.145261,600.734758,57406.966986,316.893603,678.305917,28609.144952
71,0,2,668004.500000,230908.000000,1359745.000000,69092.500000,8783.000000,679854.500000,1732.500000,748.000000,18369.000000,283.500000,318.000000,9244.500000
71,1,6,712916.333333,248719.166667,1360005.166667,74078.500000,9385.666667,679949.166667,3494.053838,791.806040,32223.573888,427.509746,401.870902,16144.076699
72,0,2,667725.500000,231193.500000,1300220.000000,69224.500000,8070.500000,650142.000000,2605.500000,1144.500000,38224.000000,525.500000,3.500000,19071.000000
72,1,6,715336.333333,248939.833333,1386868.166667,74474.500000,9800.666667,693365.666667,7247.848800,1718.354098,90562.457870,1297.399547,947.262840,45265.682475
73,0,2,678147.000000,233611.000000,1313431.500000,70847.000000,8717.500000,656652.500000,10414.000000,2212.000000,5572.500000,1661.000000,405.500000,2896.500000
73,1,6,715179.333333,248962.333333,1367450.166667,74456.333333,9361.000000,683630.833333,7153.847279,1573.117146,55961.863566,996.338073,532.770745,27947.950410
74,0,2,679396.500000,233171.500000,1374147.000000,70698.000000,8851.500000,687087.500000,8033.500000,1987.500000,47568.000000,1537.000000,310.500000,23744.500000
74,1,6,710202.000000,248119.000000,1332547.666667,73901.166667,9070.166667,666262.333333,4474.889347,1051.457877,43143.892846,267.638074,629.796638,21605.481154
75,0,2,667487.000000,230725.000000,1308593.500000,68981.500000,8220.000000,654177.500000,1752.000000,12.000000,76861.500000,70.500000,284.000000,38572.500000
75,1,6,712512.500000,248303.666667,1342215.500000,74226.333333,9208.166667,671190.333333,9437.478031,1920.644915,47826.468428,1347.883609,640.968386,23854.754646
76,0,2,668900.000000,231321.000000,1274605.500000,69170.000000,8182.500000,637304.000000,540.000000,345.000000,47116.500000,47.000000,54.500000,23591.000000
76,1,6,710727.500000,248316.833333,1380726.166667,73942.333333,9265.666667,690350.500000,3035.932078,784.162699,52638.612724,234.924574,698.627623,26253.469515
77,0,2,667952.500000,230590.000000,1283281.500000,68880.500000,7946.000000,641750.000000,366.500000,49.000000,14969.500000,39.500000,304.000000,7526.000000
77,1,6,709409.166667,248179.000000,1389865.500000,73903.000000,9116.666667,694825.500000,2264.710903,543.835453,50800.647744,196.542616,749.044651,25327.675454
78,0,2,678818.500000,233105.500000,1252177.500000,70621.000000,8315.000000,626040.000000,9426.500000,2441.500000,15339.500000,1620.000000,37.000000,7662.000000
78,1,6,710361.666667,248285.166667,1425000.500000,73972.500000,9532.000000,712424.833333,4011.192618,1006.085221,97789.857741,490.946620,850.149791,49067.100147
79,0,2,671249.500000,232030.500000,1340442.000000,69517.000000,8266.000000,670147.000000,2352.500000,940.500000,8034.000000,519.000000,526.000000,3934.000000
79,1,6,714579.666667,249524.000000,1366988.500000,74707.833333,9395.166667,683499.166667,6072.495853,1401.870893,61281.571272,1147.023164,1134.576781,30659.018947
80,0,2,678066.000000,233260.500000,1304833.000000,70682.500000,8566.000000,652508.500000,9365.000000,1872.500000,19706.000000,1600.500000,965.000000,9909.500000
80,1,5,715160.400000,249257.600000,1410792.400000,74547.000000,9931.600000,705317.400000,8114.838818,2129.217565,66285.957187,1333.374966,560.249444,33125.023306
81,0,2,679776.000000,233873.000000,1339631.500000,70961.000000,8682.000000,669732.500000,8847.000000,1799.000000,27011.500000,1307.000000,296.000000,13376.500000
81,1,5,712660.000000,248734.200000,1391377.200000,74068.200000,9461.400000,695501.400000,2325.845911,802.283092,79034.095233,325.183886,1002.965323,39340.846471
82,0,2,667386.500000,230792.000000,1255203.000000,68962.000000,7551.500000,627641.500000,56.500000,225.000000,1739.000000,26.000000,14.500000,872.500000
82,1,5,720038.800000,250206.800000,1402324.000000,75210.600000,9712.800000,701078.600000,10233.230954,2296.987801,40669.090312,1661.406946,844.211206,20241.873980
83,0,2,675935.500000,233006.500000,1387845.000000,70579.000000,8525.000000,693876.000000,11111.500000,2570.500000,66187.000000,1832.000000,880.000000,32980.000000
83,1,5,711812.600000,248724.200000,1381043.400000,74082.800000,9488.800000,690448.200000,1879.158067,752.293932,105008.986904,361.998564,956.022468,52555.591932
84,0,2,667393.000000,230530.000000,1301742.000000,68896.000000,8470.000000,650996.500000,965.000000,256.000000,37348.000000,33.000000,124.000000,18803.500000
84,1,5,714643.400000,248977.000000,1394430.200000,74491.400000,9578.600000,697077.200000,7189.469705,1627.556574,83325.870771,1286.918117,765.609979,41615.924387
85,0,2,667957.500000,231246.500000,1285659.500000,69108.000000,8712.500000,642818.000000,1729.500000,179.500000,73112.500000,155.000000,700.500000,36502.000000
85,1,5,709503.600000,247834.800000,1398834.400000,73670.200000,9322.400000,699357.400000,1511.634559,275.713910,27255.485309,204.980389,178.890581,13615.756470
86,0,2,678952.000000,233214.000000,1313954.500000,70635.500000,8251.500000,656958.000000,11418.000000,2170.000000,30371.500000,1526.500000,105.500000,15162.000000
86,1,5,711605.800000,248525.600000,1460457.000000,73972.200000,9962.600000,730174.400000,1314.434084,599.205007,122964.692890,393.210071,920.841919,61543.417411
87,0,2,669253.500000,230648.000000,1236206.000000,68911.500000,7899.500000,618029.000000,3780.500000,359.000000,15454.000000,69.500000,84.500000,7858.000000
87,1,5,716639.400000,249873.400000,1389401.400000,74824.000000,9511.800000,694607.000000,6868.991443,1566.940535,147649.021817,1041.202958,649.733915,73762.078515
88,0,2,680651.500000,232857.000000,1305385.000000,70521.000000,8643.500000,652561.000000,8973.500000,2276.000000,12006.000000,1745.000000,284.500000,5920.000000
88,1,5,709245.800000,248195.600000,1355549.400000,73845.400000,9148.600000,677774.800000,2883.328937,845.810995,36049.880092,491.827449,508.158873,18065.087892
89,0,2,668963.000000,230819.500000,1317272.000000,69007.500000,7847.000000,658668.500000,1100.000000,785.500000,4846.000000,316.500000,81.000000,2467.500000
89,1,5,712233.000000,248649.800000,1364187.400000,74279.000000,9428.000000,682028.000000,9158.703030,1604.813933,53714.098416,1251.947443,516.098440,26853.013179
90,0,2,666986.000000,230491.500000,1405904.000000,68884.500000,8222.500000,702733.000000,2563.000000,245.500000,20978.000000,78.500000,92.500000,10730.000000
90,1,5,716006.000000,249574.000000,1380863.200000,74964.800000,9757.400000,690439.800000,10591.474062,2006.937568,79854.988850,1641.269192,897.880749,39941.253573
91,0,2,672449.500000,232106.500000,1362869.500000,69580.500000,8360.500000,681436.000000,2677.500000,506.500000,37525.500000,101.500000,601.500000,18662.000000
91,1,5,709574.800000,247608.600000,1365125.600000,73593.600000,9108.600000,682528.800000,2821.669818,336.404281,50330.416857,174.278627,288.297485,25109.174796
92,0,2,669412.000000,231379.000000,1325238.500000,69175.500000,7554.500000,662535.500000,271.000000,483.000000,87195.500000,217.500000,303.500000,43429.500000
92,1,5,711463.400000,248498.400000,1385495.200000,74030.400000,9278.600000,692689.800000,2596.401094,679.398145,84555.745277,447.857388,613.763668,42374.304721
93,0,2,667151.500000,230631.500000,1278343.500000,68937.000000,8064.000000,639208.500000,1473.500000,180.500000,45716.500000,139.000000,504.000000,22849.500000
93,1,5,709676.400000,247782.800000,1350307.600000,73649.800000,9383.000000,675162.600000,2115.878881,580.685595,62407.181579,307.159503,601.209115,31195.374815
94,0,2,667390.000000,231176.000000,1339051.000000,69171.000000,8397.500000,669576.500000,374.000000,934.000000,9544.000000,470.000000,127.500000,4763.500000
94,1,5,711410.800000,248641.400000,1340822.800000,74039.800000,9513.200000,670364.800000,5375.525701,1349.841857,46565.554198,579.291084,503.694908,23224.242329
95,0,2,666749.000000,230559.000000,1323111.500000,68907.000000,8047.000000,661592.000000,399.000000,275.000000,41919.500000,165.000000,451.000000,20956.000000
95,1,5,713369.000000,248845.600000,1456474.400000,74380.600000,10115.000000,728132.800000,6633.622389,1583.878101,153801.203446,1311.924480,926.042332,76759.797898
96,0,2,669418.000000,231943.500000,1358103.000000,69555.000000,8280.500000,678980.000000,3341.000000,881.500000,30903.000000,457.000000,125.500000,15677.000000
96,1,5,709408.400000,248259.800000,1413039.800000,73857.800000,9079.600000,706273.200000,3961.537055,820.988526,94843.185335,427.330972,910.697008,46936.608460
97,0,2,668580.000000,231458.000000,1336459.000000,69394.000000,8282.000000,668118.000000,1374.000000,957.000000,101550.000000,428.000000,543.000000,50630.000000
97,1,5,710417.800000,248075.400000,1392557.800000,73813.800000,9011.800000,696243.200000,1880.430312,1237.606173,35497.369910,405.831196,265.885238,17678.711700
98,0,2,671554.500000,232689.000000,1315509.500000,69798.500000,8052.500000,657753.000000,3659.500000,302.000000,32509.500000,55.500000,633.500000,16140.000000
98,1,5,711040.800000,248444.200000,1390319.800000,73916.200000,9544.200000,695020.000000,2907.420534,670.563465,69351.177130,236.524333,699.838667,34564.037345
99,0,2,667395.000000,231524.500000,1264884.500000,69243.500000,8533.000000,632356.500000,2511.000000,188.500000,59188.500000,120.500000,529.000000,29551.500000
99,1,5,718154.600000,251042.000000,1387033.000000,74810.200000,9045.000000,693338.400000,10791.785702,3204.112420,81321.035704,1006.444315,452.811661,40571.524978
100,0,2,668938.000000,231187.000000,1248151.500000,69158.500000,8269.500000,624030.000000,2916.000000,905.000000,18634.500000,352.500000,239.500000,9310.000000
100,1,5,715061.400000,249873.600000,1389535.400000,74284.000000,9344.200000,694699.600000,9287.920060,3810.180080,64765.145597,1045.388732,485.801359,32314.138606
101,0,2,671169.500000,231785.500000,1264778.500000,69440.000000,8181.500000,632360.500000,3102.500000,814.500000,95036.500000,427.000000,890.500000,47427.500000
101,1,5,710664.200000,248559.600000,1349818.600000,73966.800000,8884.200000,674859.000000,3116.967077,989.140961,108675.084932,429.060089,368.150187,54240.204727
102,0,2,667449.000000,230558.500000,1268796.500000,68858.500000,7556.500000,634433.000000,2377.000000,630.500000,44499.500000,278.500000,410.500000,22268.000000
102,1,5,715685.200000,249379.800000,1364603.200000,74604.000000,9636.400000,682192.600000,8251.435933,1444.344751,109608.805636,1244.367952,698.027392,54623.496668
103,0,2,667258.500000,230932.000000,1243257.500000,69074.000000,7410.000000,621574.500000,104.500000,228.000000,9858.500000,48.000000,336.000000,4832.500000
103,1,5,712193.000000,248933.000000,1281376.600000,74184.400000,8830.200000,640683.400000,1061.504781,699.008727,30728.107293,274.944794,622.950528,15300.504562
104,0,2,681059.500000,234259.500000,1313992.500000,71202.000000,8485.000000,657101.000000,8463.500000,1084.500000,24266.500000,1130.000000,58.000000,12196.000000
104,1,5,709955.400000,248294.800000,1353054.400000,73933.800000,8934.800000,676452.800000,3545.021331,849.065463,52777.420390,478.206817,612.823107,26370.035900
105,0,2,676171.500000,232584.500000,1310170.500000,70507.500000,8162.000000,655131.500000,8537.500000,2237.500000,54969.500000,1650.500000,771.000000,27487.500000
105,1,5,713339.200000,249013.400000,1388218.800000,74259.400000,8768.600000,694061.200000,4931.142034,1044.286474,40480.843990,578.611303,597.253246,20232.482205
106,0,2,668478.500000,231071.000000,1362963.000000,69113.000000,7636.500000,681378.000000,98.500000,222.000000,15654.000000,76.000000,431.500000,7688.000000
106,1,5,714337.400000,248866.600000,1346332.200000,74451.200000,8668.800000,673158.200000,9419.458893,1574.978171,79807.981649,1309.044751,802.309516,39904.650904
107,0,2,666034.000000,230145.500000,1247944.000000,68891.500000,7516.000000,624015.000000,1739.000000,918.500000,34014.000000,249.500000,61.000000,17002.000000
107,1,5,709923.000000,248234.600000,1398501.800000,73932.400000,9056.000000,699332.000000,5208.158485,1191.211753,137106.004979,643.522059,1088.960238,68475.289718
108,0,2,666803.500000,230638.500000,1254264.000000,69034.500000,7743.500000,627174.000000,685.500000,90.500000,9588.000000,6.500000,339.500000,4809.000000
108,1,5,715092.800000,249567.000000,1350600.600000,74751.000000,8957.400000,675293.000000,6017.498563,1676.001551,61861.176379,1102.721180,497.786541,31055.190845
109,0,2,666686.500000,230839.000000,1265269.500000,69062.500000,7480.500000,632609.000000,1649.500000,296.000000,51300.500000,136.500000,154.500000,25586.000000
109,1,5,715843.600000,249082.600000,1344962.200000,74516.000000,8908.200000,672506.800000,6360.077062,1818.051440,26214.560514,1291.791934,545.026385,13146.683801
110,0,2,677117.000000,233125.500000,1298006.500000,70743.500000,8440.000000,649039.000000,11827.000000,2884.500000,3897.500000,1875.500000,136.000000,1937.000000
110,1,5,712691.400000,248883.600000,1327427.800000,74114.600000,8789.800000,663685.200000,4068.508503,856.981587,38692.023211,486.144670,455.467847,19317.659811
111,0,2,676917.000000,233100.500000,1278590.000000,70737.000000,8345.000000,639338.500000,8405.000000,2039.500000,22070.000000,1512.000000,562.000000,11011.500000
111,1,5,714946.200000,249068.000000,1329314.400000,74516.800000,9294.000000,664611.600000,8465.729819,1673.872158,64263.670286,1263.186669,802.657337,32074.088942
112,0,2,668281.500000,230818.500000,1319017.000000,69048.000000,8462.500000,659560.000000,3392.500000,7.500000,8312.000000,22.000000,347.500000,4120.000000
112,1,5,710784.400000,247974.000000,1354875.200000,73750.000000,9300.200000,677512.000000,2543.849257,465.796951,81319.810621,213.235082,447.616532,40616.642860
113,0,2,672262.000000,231874.500000,1411834.000000,69578.000000,8882.000000,705990.000000,323.000000,105.500000,9410.000000,30.000000,316.000000,4747.000000
113,1,5,710911.800000,248262.000000,1348252.200000,73891.400000,9045.400000,674072.200000,3478.588242,926.588798,56349.503013,544.699036,579.410252,28120.011603
114,0,2,671208.500000,232121.000000,1319887.000000,69642.000000,8121.500000,660029.000000,1465.500000,1343.000000,2213.000000,560.000000,320.500000,1121.000000
114,1,5,710621.000000,248149.800000,1378556.200000,73848.600000,9168.000000,689136.000000,1668.157307,564.249023,76939.008180,265.828968,400.834629,38387.614232
115,0,2,676263.500000,232307.000000,1308597.500000,70391.500000,8999.000000,654278.000000,9867.500000,2475.000000,27563.500000,1700.500000,570.000000,13669.000000
115,1,5,715360.600000,249377.600000,1389693.400000,74641.200000,9516.400000,694762.400000,6331.457987,1491.209523,26019.897491,1257.355542,245.650646,13043.023432
116,0,2,669039.500000,231660.500000,1274284.000000,69456.000000,7974.000000,637269.500000,2498.500000,415.500000,51205.000000,247.000000,56.000000,25587.500000
116,1,5,711940.200000,248326.200000,1376538.200000,73925.600000,8880.800000,688169.200000,2202.825222,877.307335,53507.310317,403.690277,251.530038,26703.049177
117,0,2,677347.000000,233335.000000,1321870.500000,70858.500000,8595.500000,660870.500000,9970.000000,1626.000000,32444.500000,1335.500000,257.500000,16088.500000
117,1,5,718028.600000,249942.800000,1374657.800000,75198.200000,9243.800000,687329.200000,9142.003907,1897.447802,61265.063919,1357.595433,585.686742,30541.240685
118,0,2,664076.000000,230127.000000,1281727.500000,68736.500000,8000.000000,640839.500000,496.000000,265.000000,3214.500000,187.500000,118.000000,1498.500000
118,1,5,714006.200000,249223.600000,1328721.000000,74609.800000,9167.400000,664335.200000,10197.651483,2330.154124,57414.503697,1587.578710,481.996515,28709.915245
119,0,2,667310.000000,231017.500000,1294731.500000,69046.500000,7751.000000,647345.000000,666.000000,63.500000,110221.500000,50.500000,367.000000,55034.000000
119,1,5,714504.800000,248620.200000,1371122.800000,74275.600000,9527.400000,685404.200000,10968.711691,2457.620508,80203.821444,1617.289411,565.573903,39991.746656
120,0,2,678733.500000,233489.500000,1317942.000000,70875.000000,9162.500000,658892.000000,8462.500000,1834.500000,17343.000000,1451.000000,208.500000,8924.000000
120,1,5,713321.400000,248691.200000,1364901.600000,74294.400000,9233.800000,682429.600000,8819.646560,1648.377311,32533.495838,1157.249429,524.477035,16279.890621
121,0,2,665859.500000,230709.500000,1320358.500000,69003.500000,7847.500000,660098.500000,1100.500000,475.500000,4628.500000,138.500000,158.500000,2268.500000
121,1,5,711306.800000,248501.000000,1405399.400000,73942.400000,9406.600000,702753.800000,2854.491086,750.930090,58117.080080,227.765318,427.761429,29084.397662
122,0,2,667742.500000,231348.500000,1383136.500000,69353.500000,8458.000000,691601.500000,1221.500000,1036.500000,7544.500000,377.500000,134.000000,3851.500000
122,1,5,710131.400000,248288.800000,1369847.000000,73846.600000,8811.200000,684846.200000,2721.073435,1000.307633,40073.221712,515.147591,356.421324,20066.222309
123,0,2,666289.500000,230979.000000,1242426.500000,69134.000000,7723.500000,621215.000000,246.500000,547.000000,53708.500000,145.000000,245.500000,26897.000000
123,1,5,711491.000000,248613.200000,1404293.600000,73997.200000,8872.800000,702176.200000,3656.666624,1010.674705,70884.852149,473.963459,389.082202,35438.673386
124,0,2,664356.500000,230397.500000,1219134.000000,68920.500000,7459.500000,609615.500000,1665.500000,290.500000,28612.000000,48.500000,148.500000,14314.500000
124,1,5,713433.400000,248957.000000,1354057.000000,74438.000000,8899.200000,677059.600000,9498.109635,1990.544147,77319.879314,1318.338348,758.616478,38645.983748
125,0,2,675918.000000,232261.500000,1305220.000000,70401.000000,8932.000000,652610.000000,12436.000000,2691.500000,28824.000000,1759.000000,606.000000,14443.000000
125,1,5,711061.000000,249008.800000,1363172.600000,74122.200000,8798.200000,681564.600000,2201.834235,782.066084,34474.509398,240.677710,355.104154,17275.257597
126,0,2,666207.000000,230718.500000,1269928.500000,69028.000000,8370.500000,635103.000000,2725.000000,485.500000,70214.500000,170.000000,647.500000,35202.000000
126,1,5,713305.200000,248845.800000,1367311.000000,74339.000000,8913.000000,683616.200000,7969.992381,1840.003848,61759.988174,1413.511089,540.699547,30875.097249
127,0,2,666760.000000,230739.000000,1234850.500000,69073.000000,7800.500000,617402.500000,1745.000000,479.000000,4359.500000,135.000000,516.500000,2237.500000
127,1,5,710276.600000,248927.600000,1373043.600000,74103.000000,8944.400000,686482.400000,5118.058444,1434.967400,25508.494966,608.482374,546.945921,12792.566022
128,0,2,665883.000000,230633.000000,1364887.500000,69067.000000,8509.000000,682386.000000,2478.000000,1035.000000,12980.500000,424.000000,359.000000,6398.000000
128,1,5,710428.800000,248529.800000,1311862.000000,73979.600000,8728.200000,655982.000000,1238.890536,626.259818,42163.246673,287.595271,306.578147,21030.566431
129,0,2,665199.500000,230500.000000,1282784.000000,68938.000000,7814.500000,641494.000000,2969.500000,913.000000,42420.000000,334.000000,591.500000,21242.000000
129,1,5,712972.600000,249026.400000,1332872.800000,74415.400000,8922.600000,666466.000000,8218.721034,1636.326202,74217.870596,1152.234976,374.997920,37125.055922
130,0,2,664984.500000,230505.000000,1310173.500000,68942.500000,8147.500000,655102.500000,710.500000,296.000000,7099.500000,103.500000,252.500000,3581.500000
130,1,5,710280.800000,248452.000000,1413682.600000,73937.000000,9669.400000,706661.200000,4484.996294,1003.575010,151434.671764,362.312020,961.900327,75543.237326
131,0,2,663819.500000,230589.000000,1289465.000000,68920.500000,8034.000000,644484.000000,2018.500000,825.000000,99521.000000,322.500000,703.000000,49435.000000
131,1,5,711718.800000,248459.800000,1338677.200000,73960.600000,9222.800000,669391.800000,2504.391535,1209.487561,29339.442329,421.371380,473.487233,14668.560862
132,0,2,690293.500000,237446.000000,1372983.000000,71957.500000,8739.500000,686475.000000,24273.500000,6752.000000,70713.000000,2974.500000,205.500000,35398.000000
132,1,5,715003.000000,249462.400000,1359857.200000,74695.000000,8982.800000,679939.600000,6623.800782,1712.895397,107846.759613,1202.421224,629.925202,53893.013958
133,0,2,672009.500000,232530.000000,1367523.500000,69785.000000,9038.500000,683599.500000,1188.500000,25.000000,11860.500000,13.000000,485.500000,5841.500000
133,1,5,713963.400000,249071.200000,1386979.200000,74492.400000,9531.000000,693620.600000,8704.823435,1683.523614,49352.790865,1422.302162,577.012305,24742.434162
134,0,2,665494.000000,230690.500000,1308614.000000,69019.500000,7976.000000,654358.000000,543.000000,387.500000,386.000000,159.500000,66.000000,19.000000
134,1,5,707580.000000,247543.600000,1361187.000000,73574.800000,9330.800000,680535.000000,1696.960459,622.398136,51632.624609,149.131351,298.746983,25727.925801
135,0,2,668931.000000,231886.500000,1414399.500000,69563.000000,8955.500000,706955.000000,313.000000,180.500000,71401.500000,94.000000,487.500000,35544.000000
135,1,5,716041.600000,249867.800000,1377798.000000,74799.000000,9197.400000,688867.400000,7595.217379,1781.756369,99519.268651,1122.091262,548.670247,49728.592840
136,0,2,665325.000000,230549.000000,1239195.500000,68931.500000,8037.000000,619603.000000,973.000000,741.000000,31845.500000,279.500000,270.000000,15914.000000
136,1,5,718080.000000,250028.600000,1392586.800000,75169.600000,9660.600000,696259.600000,8718.855613,2057.314133,88679.600456,1605.306525,957.137106,44340.279104
137,0,2,670607.000000,233039.000000,1314106.500000,69980.500000,9141.500000,656833.000000,2419.000000,54.000000,36293.500000,23.500000,262.500000,18200.000000
137,1,5,710095.000000,248227.800000,1362474.000000,73869.600000,8970.600000,681280.200000,1167.206580,460.783420,72871.289029,379.047543,445.975605,36446.998507
138,0,2,676486.500000,232830.500000,1320652.500000,70547.000000,8871.500000,660252.000000,8991.500000,1733.500000,32084.500000,1498.000000,465.500000,16107.000000
138,1,5,706269.600000,247619.000000,1378996.800000,73639.600000,8973.400000,689310.800000,789.141204,494.421682,123521.480112,234.012478,748.294487,61402.265253
139,0,2,676137.500000,232796.000000,1324939.500000,70511.500000,8872.000000,662132.500000,10648.500000,3005.000000,29835.500000,1959.500000,38.000000,14919.500000
139,1,5,713932.000000,249247.800000,1372597.000000,74648.400000,9379.800000,686232.400000,8733.981681,1503.930105,52518.652500,1129.678290,644.380447,26152.402908
140,0,2,664337.500000,230454.500000,1317108.500000,68861.000000,8457.500000,658023.500000,864.500000,700.500000,19785.500000,257.000000,321.500000,10187.500000
140,1,5,713156.800000,248805.800000,1361648.400000,74428.600000,9209.600000,680654.200000,9434.775491,2022.288051,15378.667570,1232.254941,410.524348,7621.679379
141,0,2,665663.000000,231437.000000,1357921.000000,69277.500000,8208.000000,679010.000000,3310.000000,827.000000,32951.000000,322.500000,179.000000,16479.000000
141,1,5,709768.600000,248462.600000,1336046.800000,74045.000000,9066.400000,667957.000000,3150.048609,972.622969,48891.989480,596.151659,666.694113,24385.556159
142,0,2,665007.000000,231085.500000,1377735.000000,69195.500000,8402.000000,688630.000000,2440.000000,1326.500000,37814.000000,525.500000,76.000000,18788.000000
142,1,5,709548.000000,248345.000000,1360816.200000,73958.000000,8862.800000,680419.400000,2363.831381,963.147548,82092.741410,351.874409,711.339694,41112.277770
143,0,2,662547.000000,230376.000000,1396826.000000,68866.500000,8950.000000,698457.000000,170.000000,144.000000,60311.000000,1.500000,235.000000,30042.000000
143,1,5,712521.400000,248864.200000,1379232.000000,74383.400000,9158.600000,689734.800000,7864.426275,2068.666566,63068.002588,1352.586500,1188.761137,31764.581039
144,0,2,662856.000000,230062.500000,1324616.500000,68795.500000,8259.000000,662347.500000,248.000000,754.500000,64039.500000,309.500000,469.000000,32031.500000
144,1,5,708283.000000,247650.800000,1393364.200000,73637.200000,9163.400000,696541.200000,2178.351395,461.649391,107879.292066,184.094975,829.936528,53759.443953
145,0,2,670688.000000,231523.500000,1351703.000000,69339.500000,9041.000000,675852.000000,2308.000000,1147.500000,14353.000000,510.500000,118.000000,7219.000000
145,1,5,713490.400000,249230.800000,1364855.400000,74592.400000,9496.800000,682353.000000,8380.283399,1824.430476,72229.861677,1224.553241,467.865536,36160.888656
146,0,2,670005.500000,231413.000000,1292230.000000,69325.000000,8689.500000,646088.500000,4040.500000,1129.000000,41055.000000,429.000000,621.500000,20446.500000
146,1,5,709283.000000,248302.800000,1343880.200000,73905.200000,8716.200000,672002.200000,1297.368876,612.260206,65565.884090,269.925471,445.844547,32740.238041
147,0,2,665505.500000,230162.500000,1273216.500000,68828.000000,7936.000000,636518.000000,1786.500000,354.500000,30511.500000,157.000000,260.000000,15378.000000
147,1,5,708919.400000,248126.000000,1342565.400000,73814.200000,9527.800000,671260.400000,1822.447212,824.867505,72914.304439,431.606024,705.861856,36467.122072
148,0,2,665857.500000,230394.500000,1335952.500000,68874.000000,8754.000000,667978.000000,882.500000,340.500000,16048.500000,112.000000,148.000000,7943.000000
148,1,5,714261.000000,248969.800000,1374461.200000,74446.800000,9277.400000,687149.800000,8316.715866,1647.410259,35179.188611,1397.820647,697.427444,17622.203022
149,0,2,679844.500000,233809.000000,1259557.000000,71180.000000,8452.500000,629726.500000,13570.500000,2809.000000,42573.000000,2059.000000,639.500000,21189.500000
149,1,5,710341.400000,248298.400000,1410108.400000,73969.600000,9319.200000,704851.000000,3292.978627,669.226897,52823.781029,374.387286,374.122654,26671.986128
150,0,2,664448.500000,230371.500000,1287764.500000,68896.500000,7650.500000,643881.500000,2507.500000,549.500000,25730.500000,208.500000,270.500000,12846.500000
150,1,5,714685.800000,249629.800000,1388759.000000,74756.000000,9199.800000,694128.800000,10338.670232,2168.614802,75377.213233,1474.347585,1031.955309,37443.741573
151,0,2,664059.000000,230342.500000,1305511.000000,68864.000000,7812.000000,652682.500000,1464.000000,220.500000,18123.000000,83.000000,255.000000,9005.500000
151,1,5,709530.200000,248052.400000,1367883.800000,73828.800000,8930.000000,683863.000000,3067.239110,227.145416,18781.163504,166.206378,735.728754,9439.723153
152,0,2,666357.500000,230632.500000,1251643.500000,68986.000000,7862.000000,625760.000000,1349.500000,178.500000,966.500000,29.000000,437.000000,396.000000
152,1,5,710821.000000,248719.600000,1393490.800000,74091.800000,9133.200000,696578.000000,3532.731861,893.225526,75314.194406,290.005103,626.627609,37274.917470
153,0,2,666797.500000,231374.000000,1306193.500000,69304.500000,8433.500000,653089.000000,1374.500000,849.000000,54177.500000,415.500000,29.500000,27118.000000
153,1,5,712414.400000,248711.200000,1409125.600000,74081.600000,9488.000000,704667.800000,1916.976536,767.442871,31946.758155,331.492142,376.676519,16017.695207
154,0,2,675702.500000,232792.000000,1356287.000000,70574.500000,8733.500000,678090.000000,13217.500000,2578.000000,91210.000000,1749.500000,843.500000,45494.000000
154,1,5,715529.600000,249701.200000,1352593.400000,74813.200000,9252.800000,676026.400000,7961.920663,1661.127256,82969.760478,1164.747252,555.879627,41420.105213
155,0,2,666717.000000,230638.500000,1332367.500000,68990.000000,8798.500000,666109.500000,2769.000000,282.500000,11080.500000,159.000000,223.500000,5597.500000
155,1,5,709594.400000,248178.600000,1414424.000000,73879.400000,9881.800000,707157.600000,2284.807703,754.758928,74795.879857,282.021701,484.210037,37316.130151
156,0,2,669508.500000,231791.000000,1351220.000000,69475.000000,8394.000000,675505.500000,683.500000,160.000000,28437.000000,154.000000,441.000000,14129.500000
156,1,5,717434.800000,250064.200000,1497905.800000,75252.400000,10064.800000,748677.800000,11187.140357,2093.571246,185860.906823,1488.955956,1344.782719,92596.968174
157,0,2,677133.500000,232815.000000,1364351.500000,70493.500000,8914.500000,681803.000000,9096.500000,1943.000000,10631.500000,1523.500000,640.500000,5256.000000
157,1,5,714316.400000,249771.000000,1354829.400000,74897.200000,8985.800000,677379.000000,6970.896143,1647.308107,46648.742219,1145.013258,475.714368,23433.845694
158,0,2,675746.500000,232586.500000,1245407.500000,70525.000000,8265.000000,622699.000000,11526.500000,2595.500000,15485.500000,1784.000000,537.000000,7798.000000
158,1,5,712994.200000,249118.000000,1396321.600000,74584.200000,9460.600000,698173.000000,7341.329645,1597.231229,46369.471002,1333.541210,1057.584531,23074.539155
159,0,2,667919.000000,231368.500000,1273734.500000,69203.500000,8046.000000,636764.500000,1370.000000,201.500000,33342.500000,90.500000,389.000000,16522.500000
159,1,5,712142.400000,249162.600000,1311602.800000,74604.400000,9172.200000,655657.800000,10020.053904,1940.316737,51393.824685,1238.167452,510.114262,25588.031025
160,0,2,669357.500000,232154.500000,1308369.500000,69647.000000,8325.500000,654128.000000,2469.500000,773.500000,54631.500000,278.000000,143.500000,27374.000000
160,1,5,713047.200000,248731.600000,1362023.800000,74411.400000,9700.000000,680893.400000,7349.582285,1895.879595,64598.010246,1276.722773,913.943105,32217.473412
161,0,2,665186.500000,231050.000000,1269723.500000,69114.000000,7525.500000,634871.500000,1469.500000,543.000000,45729.500000,208.000000,110.500000,22902.500000
161,1,5,708271.400000,248038.600000,1442074.000000,73857.400000,9744.600000,720702.200000,2853.470490,726.985172,166247.290331,480.547854,1720.914245,82612.326703
162,0,2,662977.000000,230390.500000,1211455.500000,68891.000000,8279.500000,605712.000000,1551.000000,674.500000,1377.500000,209.000000,215.500000,750.000000
162,1,5,713460.400000,249350.200000,1385993.200000,74682.600000,9332.200000,693049.200000,6877.520617,1998.615161,75115.613470,1144.178063,936.018675,37577.898214
163,0,2,676556.000000,232872.000000,1289822.000000,70588.000000,8961.500000,644850.000000,10572.000000,2232.000000,41792.000000,1655.000000,1138.500000,21036.000000
163,1,5,716742.800000,249878.400000,1386228.600000,75166.000000,9472.600000,693121.800000,9638.151055,2156.131963,49106.957367,1470.547925,793.846232,24551.610688
164,0,2,676769.000000,233346.500000,1314441.500000,70797.500000,8503.500000,657110.500000,10448.000000,1924.500000,43936.500000,1532.500000,697.500000,22032.500000
164,1,5,713101.800000,249579.800000,1398227.600000,74730.800000,9190.000000,699058.800000,9091.515460,1964.136390,83968.079124,1184.478518,568.554307,41965.203049
165,0,2,664926.000000,231120.000000,1449374.000000,69217.000000,8571.500000,724559.000000,3803.000000,1290.000000,41663.000000,533.000000,415.500000,20668.000000
165,1,5,715013.600000,249356.600000,1409479.200000,74616.400000,9323.200000,704582.200000,6558.496462,1794.939732,74247.672369,1207.419331,762.252032,37083.633886
166,0,2,663800.500000,230506.500000,1338878.500000,68934.500000,8463.500000,669511.500000,110.500000,196.500000,10746.500000,84.500000,291.500000,5824.500000
166,1,5,709136.200000,248028.400000,1391203.600000,73829.800000,9538.600000,695630.600000,3657.187520,486.849299,62549.988271,391.220347,302.384259,31482.696356
167,0,2,663784.000000,230480.000000,1368826.000000,68909.500000,7945.500000,684432.000000,219.000000,102.000000,42268.000000,15.500000,51.500000,21148.000000
167,1,5,712381.400000,248735.000000,1466881.200000,74359.000000,9549.200000,733250.200000,10101.142601,1596.968628,83663.745325,1371.215373,1003.537822,41803.868689
168,0,2,663912.000000,231007.500000,1409093.500000,69239.000000,8225.000000,704594.500000,4046.000000,1367.500000,78382.500000,548.000000,419.000000,39220.500000
168,1,5,706981.800000,247592.600000,1443061.200000,73624.600000,9212.600000,721429.600000,3215.804683,606.477897,101726.946856,273.356617,617.385325,50947.820757
169,0,2,675596.000000,233629.000000,1320643.000000,70985.500000,9429.000000,660263.000000,8419.000000,1679.000000,28403.000000,1324.500000,301.000000,14322.000000
169,1,5,710851.400000,248473.000000,1448149.600000,73961.400000,9812.200000,723875.800000,3300.961472,1110.433069,126896.032760,483.412288,873.855228,63475.608548
170,0,2,677210.000000,233159.000000,1383007.500000,70707.000000,8277.500000,691458.000000,8762.000000,1370.000000,35651.500000,1319.000000,210.500000,17788.000000
170,1,5,717772.000000,249853.400000,1421838.600000,75099.800000,9729.800000,710849.000000,10679.081665,2171.824173,48639.148227,1615.956361,1030.568464,24314.126001
171,0,2,666462.000000,231069.000000,1324637.000000,69234.000000,8272.000000,662406.500000,3605.000000,1300.000000,1583.000000,572.000000,28.000000,700.500000
171,1,5,709808.600000,248315.200000,1367767.000000,73875.000000,8955.600000,683857.400000,3646.533236,888.796355,69936.947388,497.701115,774.425361,34977.669165
172,0,2,675734.500000,232979.000000,1359268.000000,70682.500000,9250.000000,679570.500000,11850.500000,2559.000000,47444.000000,1736.500000,217.000000,23737.500000
172,1,5,716454.200000,249822.400000,1420620.200000,74832.400000,9417.800000,710225.400000,12730.115088,2567.155671,62486.056702,1491.724318,482.761805,31208.706007
173,0,2,665029.500000,231219.500000,1310453.500000,69240.500000,8644.000000,654959.500000,2618.500000,887.500000,39490.500000,399.500000,293.000000,19823.500000
173,1,5,717825.800000,250233.400000,1408017.400000,75268.600000,9843.800000,703887.200000,8648.553252,1581.113608,113862.911675,1388.406223,1298.159682,56806.715566
174,0,2,665736.000000,231086.000000,1336831.000000,69232.000000,8824.500000,668409.500000,1201.000000,967.000000,9627.000000,427.000000,515.500000,4706.500000
174,1,5,713140.800000,248967.000000,1354981.400000,74412.200000,9446.000000,677463.400000,7433.330032,1772.739462,67922.119477,1264.532072,728.108783,33948.335462
175,0,2,663960.500000,230697.000000,1309040.500000,68960.000000,8527.500000,654461.000000,2013.500000,66.000000,3339.500000,27.000000,463.500000,1550.000000
175,1,5,706839.000000,247534.200000,1411707.000000,73562.000000,9366.400000,705760.800000,4151.691029,669.854133,103448.524732,259.065243,767.718594,51715.874435
176,0,2,678711.000000,235820.000000,1370520.000000,70631.000000,9053.000000,684798.500000,14905.000000,5014.000000,163955.000000,1580.000000,1572.000000,81537.500000
176,1,5,710273.200000,247772.000000,1373599.400000,73643.400000,9284.800000,686868.400000,1260.642598,365.304804,56548.128972,255.478845,595.346420,28366.061317
177,0,2,662612.500000,230554.500000,1411909.500000,69027.000000,9008.000000,705600.000000,1971.500000,603.500000,74625.500000,248.000000,469.000000,36986.000000
177,1,5,715771.200000,249430.000000,1390477.000000,74603.600000,9491.000000,695129.800000,8721.020546,1846.805566,49663.453472,1298.117190,560.458027,24893.453898
178,0,2,662831.000000,230210.500000,1311648.000000,68873.500000,7979.500000,655847.000000,3024.000000,72.500000,63118.000000,52.500000,75.500000,31515.000000
178,1,5,710617.800000,247874.400000,1335887.800000,73692.000000,8927.000000,667948.400000,1588.820367,472.421253,74068.696922,245.228057,672.301420,37001.435505
179,0,2,667853.000000,230476.000000,1282953.000000,68910.000000,8065.000000,641198.000000,1070.000000,620.000000,59464.000000,309.000000,186.000000,29766.000000
179,1,5,710284.000000,248218.200000,1387594.800000,73832.000000,9036.000000,693743.000000,3948.083231,1236.155880,37466.061562,622.156893,462.291250,18808.652413
180,0,2,667963.000000,230870.500000,1292507.000000,69080.000000,8463.000000,646223.000000,2443.000000,222.500000,46723.000000,117.000000,356.000000,23389.000000
180,1,5,714016.600000,248999.600000,1344490.000000,74508.800000,8907.400000,672209.200000,10352.077136,2233.575931,51715.942412,1623.052359,786.315611,25708.602633
181,0,2,681598.500000,235377.000000,1263472.500000,70504.000000,8984.000000,631655.500000,13801.500000,5564.000000,35741.500000,1839.000000,271.000000,17812.500000
181,1,5,709771.200000,248171.600000,1363955.000000,73822.200000,9284.800000,682064.000000,2425.753689,951.203154,109880.547361,415.171001,819.777872,54921.029601
182,0,2,665708.000000,230393.500000,1298146.500000,68917.000000,8476.500000,648996.000000,3048.000000,67.500000,50878.500000,21.000000,137.500000,25353.000000
182,1,5,710354.000000,248230.800000,1369322.800000,73870.200000,9102.800000,684667.600000,4906.154217,1260.022127,48877.069852,349.753284,649.207332,24464.081668
183,0,2,667659.500000,231491.000000,1266992.000000,69375.000000,8856.000000,633459.000000,140.500000,1315.000000,714.000000,628.000000,426.000000,330.000000
183,1,5,713938.400000,248927.000000,1360818.200000,74455.000000,9182.600000,680405.600000,7980.405669,1753.808998,75250.904182,1421.086064,605.097215,37603.406732
184,0,2,666217.500000,230464.000000,1320492.000000,68960.000000,8833.000000,660194.000000,1372.500000,301.000000,1809.000000,172.000000,305.000000,939.000000
184,1,5,712521.600000,248486.600000,1415374.200000,74278.800000,9259.400000,707681.400000,9006.847098,2353.909905,64397.563378,1568.005791,659.395056,32182.519855
185,0,2,664711.500000,230164.000000,1277451.000000,68802.000000,8462.000000,638436.500000,2037.500000,52.000000,32015.000000,136.000000,430.000000,16148.500000
185,1,5,714854.000000,249030.200000,1368380.600000,74472.400000,8998.800000,684096.200000,7653.280943,1624.749753,40856.171894,1255.660878,557.114136,20401.871595
186,0,2,675192.000000,232545.500000,1255233.500000,70473.500000,8964.000000,627603.500000,12657.000000,2065.500000,31188.500000,1462.500000,597.000000,15607.500000
186,1,5,709027.800000,248027.600000,1331705.000000,73720.000000,8670.600000,665858.200000,3526.478776,933.740349,57711.526516,309.969676,370.530754,28887.604292
187,0,2,674896.000000,232407.000000,1297303.000000,70420.500000,9306.000000,648536.500000,7922.000000,2336.000000,22719.000000,1752.500000,884.000000,11317.500000
187,1,5,713361.000000,249028.200000,1417727.800000,74478.400000,9055.600000,708834.800000,8516.545309,1859.683780,45231.999586,1184.170359,414.675102,22584.670513
188,0,2,667019.500000,230437.500000,1229295.000000,68860.500000,8235.500000,614614.500000,1597.500000,686.500000,14996.000000,399.500000,60.500000,7401.500000
188,1,5,711442.400000,248764.200000,1385878.000000,74089.400000,9325.200000,692994.200000,2065.576781,585.921974,65112.971887,120.725474,858.614558,32515.080977
189,0,2,667761.500000,230753.500000,1368008.500000,69084.000000,9122.500000,683865.000000,2742.500000,767.500000,33546.500000,464.000000,323.500000,16715.000000
189,1,5,713000.400000,248919.000000,1363706.000000,74446.400000,9085.800000,681824.000000,5933.329743,1402.695548,77774.614064,1120.061534,358.997159,38870.553045
190,0,3,677677.000000,233453.333333,1404983.333333,70534.000000,9510.333333,702439.000000,7177.292154,1330.216106,84266.833437,1308.211757,483.943752,42175.883654
190,1,5,711191.800000,248834.400000,1389725.800000,74095.200000,9056.600000,694890.400000,2778.087572,879.250272,62119.960204,445.849481,364.434686,31004.693932
191,0,3,668707.333333,231068.333333,1313374.000000,69125.333333,8556.000000,656623.000000,2879.881981,663.809879,78217.198058,253.238140,486.709359,39040.864369
191,1,5,708971.200000,247872.800000,1388844.200000,73711.000000,9036.400000,694441.800000,1339.215800,115.594810,34409.599239,187.436389,388.804630,17211.977718
192,0,3,669210.666667,231625.666667,1362393.000000,69383.333333,8819.000000,681143.666667,1761.743896,865.798026,26490.609745,425.173167,72.060160,13214.543613
192,1,5,714191.000000,249320.200000,1353039.600000,74545.600000,8992.000000,676496.000000,7137.743397,1572.809893,34050.620151,1338.083196,476.285209,17004.214219
193,0,3,667398.000000,230527.666667,1328191.333333,68872.666667,8245.000000,664131.333333,920.227146,511.778815,34625.937199,167.125369,101.077528,17344.938480
193,1,5,709081.600000,247977.400000,1321675.000000,73775.400000,8929.000000,660872.600000,2781.403142,586.873274,70372.977066,383.965936,543.153385,35155.564212
194,0,3,666607.000000,230370.000000,1350737.333333,68821.000000,8584.666667,675237.666667,1300.958877,531.500392,62075.307417,263.303374,749.233089,30945.443438
194,1,5,707771.200000,247980.400000,1356522.200000,73761.000000,8683.600000,678254.600000,3749.675314,640.369456,56749.442867,277.102147,722.692078,28379.608571
195,0,3,676054.333333,233304.333333,1347391.666667,70554.000000,8703.333333,673615.333333,8905.947463,1654.199168,15410.348478,1221.442044,509.196317,7689.520546
195,1,5,712251.000000,248981.800000,1408655.600000,74200.400000,9249.600000,704202.800000,3736.075642,980.347775,110493.625171,515.522492,569.481729,55040.123355
196,0,3,671880.666667,231925.333333,1273573.666667,69924.000000,8400.666667,636668.333333,9005.429079,2025.520564,53976.981028,1594.648551,300.282460,27049.419677
196,1,5,719563.600000,251062.000000,1398740.400000,75160.600000,9062.200000,699404.000000,21376.204804,5921.652641,89634.490243,2569.829457,814.646279,44801.721204
197,0,3,669783.333333,231716.000000,1344608.333333,69364.000000,8856.333333,672186.666667,3935.552679,996.197102,15968.868470,331.940758,259.538479,8001.405474
197,1,5,713431.200000,249080.200000,1349306.000000,74475.400000,9012.200000,674726.600000,9612.349211,2005.992163,54961.555084,1329.589801,382.951903,27500.402423
198,0,3,666646.000000,230732.666667,1329328.666667,68943.666667,8657.000000,664531.000000,1124.381015,336.239333,42090.394362,208.296797,169.304459,20989.423162
198,1,5,707747.000000,247800.800000,1363975.000000,73710.400000,8397.400000,682030.400000,2434.155788,774.116632,67097.984903,263.088274,305.955291,33569.941308
199,0,3,664586.000000,230455.000000,1274297.000000,68887.666667,8275.000000,637092.666667,1637.517837,321.555594,53828.692182,166.305609,256.581371,26927.832149
199,1,5,710811.200000,248490.000000,1436984.800000,73992.800000,9382.800000,718391.400000,1955.188011,732.956752,152882.619375,335.782310,1179.437391,76202.877588
200,0,3,673757.000000,232797.666667,1275838.666667,70213.000000,8690.333333,637882.000000,12539.837399,2819.543974,39839.596888,1717.290307,669.082124,19958.092160
200,1,5,717076.000000,249822.400000,1423359.000000,75131.800000,9443.200000,711801.400000,8253.378411,2405.896307,54927.717353,1629.426574,886.280181,27556.062038
201,0,3,668789.000000,231359.333333,1286046.000000,69261.333333,8428.666667,643055.000000,4181.279948,1421.871146,55262.505812,696.947790,336.141174,27551.095961
201,1,5,714540.800000,249012.400000,1409038.200000,74477.200000,9540.800000,704541.200000,9126.570427,1830.060611,98451.560183,1461.466031,733.204855,49250.232151
202,0,3,674443.333333,232646.666667,1254722.000000,70270.000000,8650.333333,627280.666667,10241.709634,2079.797479,62236.031316,1564.478401,401.272421,31175.606066
202,1,5,709108.800000,248023.800000,1386004.800000,73816.400000,9565.800000,693009.800000,2564.646284,753.648035,48911.418558,277.311810,1188.099221,24318.906204
203,0,3,672578.333333,232233.333333,1267477.666667,70074.333333,8685.666667,633684.000000,10865.740329,2377.679588,26308.060873,1602.840049,408.111368,13222.512041
203,1,5,708647.400000,247980.200000,1393752.200000,73813.600000,9382.400000,696853.600000,2162.701884,205.194932,130242.359105,162.212946,1000.690681,65042.521746
204,0,3,666311.666667,231039.333333,1317766.333333,69101.666667,8662.666667,658887.000000,345.249990,574.916999,127234.277123,281.805291,852.993682,63552.263705
204,1,5,709640.600000,248494.200000,1417788.800000,74040.600000,9480.400000,708756.200000,3229.913163,798.708057,55153.868265,328.071699,859.908972,27385.925636
205,0,3,667661.333333,231179.666667,1405662.333333,69202.333333,9641.000000,702541.000000,1227.172993,847.895565,134195.733127,435.900855,693.037277,66782.324628
205,1,5,708083.400000,248061.000000,1396775.600000,73855.600000,9569.200000,698265.200000,3196.289324,801.327149,84335.940791,287.926796,1261.895305,41879.817356
206,0,3,672462.000000,231963.333333,1322172.333333,70021.333333,8991.333333,660951.333333,10889.441155,1950.113558,62696.862624,1412.756722,753.727773,31325.180141
206,1,5,709154.600000,248248.400000,1396533.000000,73900.800000,9296.600000,698396.600000,4142.420143,1110.860855,76289.120928,524.961865,866.614932,38194.454910
207,0,3,665127.000000,230670.666667,1252160.666667,68986.666667,8440.333333,625948.333333,486.664840,461.551971,49448.999493,230.078730,776.717166,24912.376982
207,1,5,708565.800000,247680.000000,1417656.600000,73702.400000,9143.800000,708657.800000,2027.449472,747.510267,97417.285100,329.721458,529.730271,48696.177991
208,0,3,665345.000000,230549.666667,1235188.333333,68926.333333,8059.333333,617551.666667,3286.908679,465.497822,72693.475807,82.641125,249.310159,36394.899206
208,1,5,710007.400000,248703.600000,1446879.800000,74103.800000,9434.200000,723502.200000,3428.594733,804.308050,114281.309606,277.119758,897.088268,57149.646590
209,0,3,666734.666667,231850.000000,1358926.333333,69510.666667,9274.666667,679442.666667,781.117718,726.969509,78027.829400,421.151068,529.257551,39015.596730
209,1,5,715215.400000,249529.000000,1427479.600000,74758.200000,9240.200000,713789.200000,8305.781808,2210.099726,117771.969452,1341.914662,1187.091134,58876.992757
210,0,3,672855.333333,232764.666667,1354231.333333,70360.666667,8710.666667,677066.000000,8861.250075,2195.751403,66782.217620,1455.161465,230.715313,33437.880346
210,1,5,718630.600000,250305.600000,1391389.000000,75317.000000,9450.000000,695730.000000,9745.930835,2243.095682,54655.032621,1629.128233,949.591912,27349.959415
211,0,3,673249.333333,231598.000000,1330205.666667,69897.666667,8477.000000,665013.000000,10965.585570,2202.249002,111738.727134,1462.304194,653.391664,55936.125113
211,1,5,708303.000000,248016.000000,1352704.800000,73820.400000,8820.000000,676357.800000,2373.573508,698.008882,74769.345514,382.391213,501.441123,37363.053373
212,0,3,665980.666667,230297.000000,1276123.000000,68903.333333,8207.666667,638020.333333,3504.419717,567.527973,45244.771389,205.688005,384.743493,22678.829810
212,1,5,708103.200000,248322.600000,1318966.600000,73953.800000,8480.000000,659409.600000,1093.148005,620.898897,58058.018377,457.790520,251.526539,28828.241192
213,0,3,665808.333333,230381.666667,1329380.666667,68893.666667,8605.333333,664688.000000,4008.214925,573.067962,53714.159724,180.562701,553.516235,26849.725399
213,1,5,708731.400000,247986.000000,1353541.200000,73811.400000,8961.400000,676780.800000,2693.584497,759.584360,66230.211123,326.071526,645.387821,33119.652784
214,0,3,673172.666667,232194.666667,1278176.333333,70081.666667,8492.666667,639062.666667,8507.030439,1855.547598,33877.528691,1394.560942,340.558691,16982.033297
214,1,5,710093.400000,248503.400000,1372064.200000,74042.600000,9262.400000,686028.600000,2461.800609,816.281471,81199.763116,494.934986,695.788071,40600.270037
215,0,3,668154.333333,231224.000000,1376764.666667,69255.333333,8592.333333,688254.000000,551.944643,859.812770,83854.338319,473.386617,470.108025,41846.259482
215,1,5,715531.600000,249692.200000,1336898.200000,75061.000000,9000.200000,668488.800000,9936.585079,2338.023644,26130.252019,1558.418429,643.203980,13146.574632
216,0,3,674510.333333,232609.333333,1327269.666667,70297.333333,9014.333333,663461.666667,5845.602811,1712.669910,15218.691694,1421.239443,379.492937,7688.209906
216,1,5,711722.000000,248659.600000,1367352.200000,74356.800000,9101.200000,683676.600000,8476.593372,1908.153306,31720.738550,1244.956128,697.702343,15826.302039
217,0,3,666522.000000,231151.666667,1276097.000000,69242.000000,8296.000000,638130.333333,4460.496011,646.149793,41463.441978,325.516001,92.090535,20736.995609
217,1,5,709850.200000,247958.400000,1342520.000000,73773.600000,9368.400000,671135.800000,3371.526622,613.445874,34764.782669,372.373254,506.650807,17384.754510
218,0,3,667007.333333,231032.333333,1345663.000000,69156.000000,9033.000000,672841.666667,3454.470566,1027.497067,8931.003527,425.855218,518.160850,4454.111309
218,1,5,714594.600000,248888.200000,1399714.200000,74461.400000,9390.600000,699862.000000,9111.943736,2097.141521,37798.230966,1351.092832,562.001993,18924.007387
219,0,3,666538.333333,230815.333333,1325744.666667,69097.000000,8180.666667,662795.000000,1535.081395,323.751276,62154.222175,175.734648,395.690395,31057.465587
219,1,5,710759.000000,248467.400000,1397794.400000,73978.400000,9020.600000,698880.400000,4637.275795,1199.573858,67301.357839,606.944676,311.126727,33639.670757
220,0,3,667709.333333,231111.666667,1335981.333333,69242.000000,8464.333333,667887.666667,2791.582626,1055.801854,63121.330813,405.808658,260.402680,31568.273993
220,1,5,714316.400000,249262.400000,1382311.400000,74585.000000,9115.400000,691095.400000,8145.402644,1818.226895,30748.865629,1190.428326,418.826265,15336.251140
221,0,3,672540.666667,231763.000000,1237682.333333,69937.333333,8595.333333,618627.000000,12492.505389,2775.621372,9761.126722,1650.450915,545.981888,4782.542699
221,1,5,708666.400000,247974.600000,1334900.400000,73767.800000,8862.600000,667446.600000,2265.216687,276.286518,51267.074824,249.423656,204.296451,25620.162042
222,0,3,680962.000000,234892.666667,1266726.000000,70884.666667,8799.333333,633381.333333,9718.528592,3531.037273,20087.310439,1397.552702,787.610028,10035.305819
222,1,5,713173.400000,248925.600000,1363511.600000,74466.600000,9293.200000,681713.400000,8056.681838,1616.885475,73608.315983,1412.541058,554.797765,36786.977802
223,0,3,666039.000000,231256.666667,1362718.666667,69285.000000,9285.666667,681206.666667,1949.671938,427.917697,30700.786226,264.961632,1012.383436,15126.778955
223,1,5,708550.600000,247732.800000,1330847.600000,73673.600000,9108.600000,665376.800000,4918.295258,829.375524,27249.227480,474.487766,385.951603,13581.362397
224,0,3,671992.000000,232266.000000,1290271.333333,70098.666667,8640.333333,644978.000000,8591.870111,2111.912403,41116.115286,1561.122744,432.536961,20711.782878
224,1,5,708697.200000,247793.000000,1355308.000000,73697.800000,9234.800000,677647.800000,3185.616575,651.340771,55835.703821,388.785494,549.418383,27883.451131
225,0,3,674531.333333,232784.000000,1292769.000000,70355.000000,8379.000000,646375.333333,12249.872444,2368.699784,59418.760186,1494.755052,309.820378,29649.264188
225,1,5,711404.200000,249198.200000,1360018.000000,74319.800000,9434.000000,679939.000000,3864.063840,790.694732,83099.071564,453.090455,846.852998,41426.511014
226,0,3,671854.666667,232143.333333,1328659.000000,70085.333333,8493.333333,664186.000000,10071.083898,2387.225773,101046.404393,1694.701022,849.754605,50381.307830
226,1,5,709721.000000,248626.200000,1329985.400000,74061.000000,9159.200000,664974.000000,2282.361759,828.994668,39374.232709,239.818265,214.475546,19761.208030
227,0,3,669668.333333,232702.333333,1293102.000000,69511.666667,8426.000000,646704.000000,7220.802556,2858.432010,31658.237232,759.403860,361.149092,15813.911112
227,1,5,708760.400000,248404.000000,1370910.000000,74028.400000,9220.800000,685351.400000,3827.031623,1058.748318,81422.293343,638.287271,429.478940,40656.883996
228,0,3,687295.333333,237998.333333,1278903.000000,71221.000000,9103.666667,639424.000000,28385.465416,8925.413766,61198.995291,2404.252205,579.485596,30536.924349
228,1,5,712913.400000,248787.600000,1340621.400000,74416.400000,9444.600000,670282.200000,7958.886721,1792.789625,44444.763586,1209.430544,798.528296,22213.194596
229,0,3,691934.333333,238627.000000,1356154.666667,71824.666667,9313.666667,678063.000000,37785.102270,10995.054525,19186.369299,3872.711052,730.865393,9616.004264
229,1,5,710845.000000,248502.800000,1360879.600000,74047.000000,9214.800000,680460.200000,4660.615110,1074.928351,66809.155404,574.627532,416.594959,33395.095511
230,0,3,682951.000000,236676.666667,1300885.666667,70619.000000,8560.333333,650402.333333,25375.906145,8261.535625,5457.746564,2181.071449,663.205515,2730.688110
230,1,6,708544.500000,247778.500000,1357112.500000,73763.333333,8944.500000,678525.333333,2186.466232,540.825835,58536.630283,192.424588,458.523991,29283.840872
231,0,3,682254.000000,236628.666667,1352688.333333,70645.000000,8974.000000,675937.000000,25695.654224,8147.007972,46455.916023,2121.837568,89.308454,23096.345613
231,1,6,708741.000000,248160.666667,1410456.833333,73926.000000,8935.500000,705225.500000,2621.655584,520.286993,43626.360443,367.033604,516.448368,21794.672971
232,0,3,699200.000000,239782.333333,1373485.000000,72808.666667,9563.333333,686875.000000,30919.462167,9576.159089,100589.808752,3297.073483,794.707633,50438.527681
232,1,6,713162.500000,248935.666667,1375324.666667,74489.333333,9197.500000,687619.666667,9160.480423,1760.247678,48579.485734,1336.187944,575.342724,24269.822528
233,0,3,683442.000000,236506.666667,1337920.000000,70564.666667,8893.333333,668913.000000,25532.679543,8267.985500,78302.153431,2170.842284,706.448551,39211.264887
233,1,6,712833.666667,248924.000000,1374418.500000,74532.333333,9010.666667,687157.333333,9242.200490,2170.247835,59291.367092,1398.473652,686.690048,29587.520053
234,0,3,684978.666667,237410.000000,1329312.666667,70904.666667,8892.000000,664493.000000,25453.505971,7909.145719,85578.041133,2004.766376,456.211208,42790.556817
234,1,6,713260.500000,249034.166667,1347790.000000,74544.166667,9345.000000,673862.666667,9071.505971,2146.358033,55020.636804,1378.076367,543.609541,27551.420917
235,0,3,696578.333333,239822.000000,1310396.333333,72849.000000,8872.666667,655093.666667,18904.188854,7098.266408,12602.682475,939.043485,517.565025,6335.206670
235,1,6,712449.500000,248864.666667,1333527.833333,74469.833333,9170.166667,666688.333333,9918.489481,2115.793993,37854.559366,1277.189286,663.909988,18916.344385
236,0,3,681745.333333,236375.333333,1287329.333333,70475.333333,8456.333333,643465.000000,25821.370856,8547.471998,600.502752,2279.156910,310.459158,424.512269
236,1,6,708416.666667,248032.000000,1364405.500000,73914.500000,8912.166667,682246.500000,3477.165209,1136.608405,42221.004910,497.710341,642.253693,21086.594420
237,0,3,684942.333333,236794.333333,1298613.000000,70677.000000,8833.000000,649220.000000,25543.634724,8629.211989,61376.158113,2306.033969,400.450580,30699.334238
237,1,6,712249.500000,249222.833333,1400011.833333,74211.666667,9193.166667,700049.833333,11708.689960,3856.270885,65863.211192,1267.120971,620.626946,32969.422224
238,0,3,685183.333333,237481.000000,1345593.333333,71004.000000,8427.000000,672764.000000,22504.647110,7856.094195,16002.847441,1963.215220,474.830496,7862.585622
238,1,6,712093.833333,248557.833333,1356690.333333,74372.333333,9226.000000,678454.000000,6683.282512,1747.239768,77281.361700,1113.014326,478.166638,38591.356316
239,0,3,681774.666667,236686.666667,1287724.333333,70609.666667,8613.666667,643804.666667,24224.364393,8321.064408,60330.186045,2171.077510,191.367593,30130.852365
239,1,6,718376.500000,250397.166667,1374420.000000,75568.666667,9417.333333,687261.833333,10930.612681,2529.375444,51968.978638,1797.384829,781.516617,25966.665306
240,0,3,691136.666667,238366.666667,1368514.333333,71764.666667,8770.000000,684314.000000,22393.483938,7680.108390,61558.788651,2011.735956,393.965312,30800.080076
240,1,6,714465.333333,250041.166667,1323695.000000,74428.166667,8961.666667,661820.500000,10870.356383,4462.551789,67684.422819,1123.703166,320.603944,33888.931009
241,0,3,692453.333333,239187.000000,1311307.333333,72118.333333,8586.333333,655490.333333,26600.037122,8415.441640,84337.878466,2181.340465,819.675274,42153.989881
241,1,6,715302.500000,250469.666667,1346935.333333,74540.500000,9051.000000,673410.666667,10754.296207,4375.940686,36373.489452,987.091139,413.113382,18186.053252
242,0,3,683867.333333,237191.666667,1332149.666667,70857.666667,8535.666667,665958.666667,25388.854725,8033.086262,26812.624817,2083.668293,178.288779,13637.780228
242,1,6,719028.833333,251269.666667,1365086.166667,75062.000000,9320.000000,682420.666667,16787.274669,5772.688532,38327.114529,1761.754807,330.346283,18994.261903
243,0,3,686889.666667,236893.333333,1330821.000000,70715.666667,8473.666667,665468.666667,23312.294286,8197.829035,22312.946974,2128.680708,228.841041,11303.756082
243,1,6,719966.166667,251531.333333,1304152.666667,75184.666667,9074.833333,652047.833333,21256.452537,6798.379088,71471.191851,2027.279102,623.511940,35722.580643
244,0,3,687130.333333,237338.666667,1360605.000000,71001.333333,8767.666667,679853.333333,21640.436985,7610.318843,18996.212061,1824.409737,190.790170,9346.265291
244,1,6,716550.166667,250962.666667,1356528.000000,74671.166667,8919.166667,678257.666667,19991.441681,6605.691073,81333.587519,1688.702304,476.565986,40682.780496
245,0,3,693645.000000,238465.666667,1294179.333333,71825.333333,8498.333333,647048.333333,20413.784020,7565.578820,36028.199107,1948.161070,1346.904187,18076.648331
245,1,6,718177.333333,251539.833333,1349741.166667,74921.666667,8862.666667,674800.000000,21917.574012,7744.159701,95000.600932,2165.281788,447.127747,47577.539162
246,0,3,685777.000000,236523.333333,1406146.000000,70540.333333,8612.000000,703010.000000,21170.079657,7987.295092,6346.062716,2083.103507,491.855670,3055.506832
246,1,6,718595.666667,251337.500000,1386006.000000,74839.833333,9220.333333,692967.666667,20565.770378,7163.811945,41494.241749,1890.471142,550.735468,20679.952649
247,0,3,685402.000000,236626.333333,1319087.333333,70604.333333,8230.333333,659291.666667,22849.743675,8345.246245,19691.856461,2161.741633,328.196418,9727.842047
247,1,6,716606.333333,250770.500000,1375941.333333,74607.833333,9098.333333,687962.833333,18910.973496,6522.695730,66669.076951,1648.626036,448.120396,33297.852560
248,0,3,687774.000000,237914.000000,1346496.333333,71193.666667,8318.000000,673215.000000,25323.838611,9361.222178,52102.067216,2550.138602,422.225848,26054.371815
248,1,6,721604.666667,252744.666667,1358907.000000,75232.000000,8967.500000,679405.333333,20432.764372,7232.514977,65669.708598,1954.359742,486.776044,32769.755490
249,0,3,684550.666667,236261.333333,1279012.333333,70475.333333,8412.000000,639380.333333,24693.202807,8350.934332,50523.233298,2203.847293,203.646753,25402.920794
249,1,6,720441.666667,251771.166667,1381233.333333,75076.500000,8795.166667,690538.833333,28012.049447,8540.768494,71169.609902,3053.312996,483.965363,35527.802035
250,0,3,687598.666667,237598.000000,1297401.000000,71090.666667,8901.666667,648644.333333,22228.023789,7696.558841,48695.180651,1888.040489,380.187965,24212.596258
250,1,6,721868.833333,252230.333333,1352639.333333,75287.000000,9085.833333,676275.500000,17427.804197,6233.847439,89905.345730,1695.322978,368.742646,44923.807043
251,0,3,694929.000000,239273.666667,1291700.333333,72169.000000,9387.000000,645782.666667,24040.542922,8674.055158,45272.108274,2360.681681,561.936533,22574.929196
251,1,6,717292.500000,251263.000000,1351782.333333,74650.333333,8849.166667,675890.333333,18604.158950,6530.614162,38243.108066,1709.718755,372.160546,19171.516795
252,0,3,692217.000000,238134.000000,1271121.333333,71683.666667,9181.666667,635493.000000,31407.693781,10181.584389,29234.344555,3620.137229,82.890825,14701.491557
252,1,6,723896.500000,252687.833333,1327026.000000,75714.666667,9007.833333,663452.666667,19681.304773,7088.870254,64420.135074,2196.087329,603.731567,32147.741179
253,0,3,686615.333333,237418.666667,1279531.333333,70959.666667,9105.000000,639862.333333,20933.909355,7655.375729,26748.331715,1901.066601,502.768336,13402.119045
253,1,6,714194.500000,250513.833333,1400051.833333,74371.500000,9351.166667,699888.000000,17652.951923,6298.333362,96511.595978,1672.150088,792.683084,48122.412606
254,0,3,691281.333333,238166.333333,1303863.333333,71717.000000,9341.000000,651906.000000,19470.997258,7807.944003,56174.513499,2044.863973,197.641089,28136.938580
254,1,6,721832.833333,252529.500000,1362664.166667,75417.166667,9440.666667,681227.833333,23739.616940,7480.980389,82536.993559,2439.982064,771.839074,41274.258081
255,0,3,685233.000000,237317.333333,1287442.333333,70942.000000,9352.000000,643757.666667,21637.193549,8111.995494,23106.646754,2091.428220,435.192678,11500.355135
255,1,6,719397.666667,252272.000000,1381669.000000,75065.500000,9473.333333,690877.500000,20415.362995,7046.607647,28689.998095,1889.413820,538.511735,14341.948365
