0,2,762794,266152,1441649,78584,10588,720807,0
0,-1,688718,236530,1265177,70435,7326,632275,0
0,2,760367,266087,1378445,78546,8882,689255,0
0,2,762124,267086,1316606,78935,8858,658203,0
0,-1,697558,239276,1326155,71506,7660,662911,0
0,-1,692284,237300,1279056,70785,7515,639461,2
0,2,714078,250088,1515963,74744,9885,757437,0
0,-1,700314,239259,1386042,71640,8778,693024,0
0,2,708765,248354,1358748,73726,9573,679234,0
0,-1,697166,239367,1400966,71687,8396,699854,0
0,2,733683,253733,1383932,77272,11004,691913,0
0,-1,639429,219563,1260415,65998,7256,630200,0
0,2,705336,247694,1355305,73593,10059,677447,0
0,-1,659840,223231,1324084,68880,8769,661794,0
0,2,705120,247993,1330089,73694,8322,665060,0
0,-1,640155,219096,1357863,65783,8423,678822,0
0,2,728887,252770,1438195,77104,10484,719123,0
0,2,711607,248074,1781270,73780,12343,890221,0
0,2,708307,248400,1464969,73757,10173,732579,0
0,-1,640440,219091,1168018,65670,7574,584000,0
0,2,711036,247961,1376353,73705,10144,688186,0
0,-1,634983,218627,1337313,65621,8344,668666,0
0,2,733387,253397,1402746,77292,10495,701279,0
0,-1,640881,220885,1292118,66706,9046,645499,0
0,2,709945,249106,1431291,74008,10209,715685,0
0,2,716397,251160,1411071,74932,10344,705571,0
0,2,709443,249562,1302880,74205,8641,651394,0
0,-1,638310,218987,1224453,65789,7555,612736,0
0,2,711309,248720,1411922,73902,9094,705971,0
0,-1,636185,218182,1289885,65490,7922,644886,0
0,2,717991,250344,1622835,74787,10689,810626,0
0,-1,637627,218462,1147921,65544,7565,573966,0
0,2,716106,250028,1394732,74684,10587,697242,0
0,2,717565,250747,1501352,75043,8862,750654,0
0,2,712953,248721,1289080,74055,9931,644396,0
0,-1,645509,220605,1325275,66523,8396,662669,0
0,2,720209,250781,1427717,75038,9882,713795,0
0,2,706202,248642,1472004,74010,9829,735954,0
0,-1,638479,219130,1236458,65860,7398,618111,0
0,2,710682,249452,1364237,74343,10110,681774,0
0,-1,641523,219839,1336782,66275,9311,668365,0
0,2,707171,248494,1422272,74045,8843,711163,0
0,-1,635667,217612,1204666,65407,7402,602220,0
0,2,709871,248864,1271509,74132,8685,635665,0
0,-1,643803,219382,1277702,66051,7701,638852,0
0,2,706481,248332,1443243,73891,9129,721559,0
0,-1,640426,219040,1199033,65762,8329,599513,0
0,2,726948,253277,1409991,77326,10256,704929,0
0,-1,661225,223640,1269607,69128,8463,634840,0
0,2,709746,248644,1248159,73944,8984,623977,0
0,2,710089,250023,1418919,74633,8694,709408,0
0,-1,641591,219309,1249811,65755,7575,624764,0
0,2,711294,249796,1329545,74530,9608,664735,0
0,2,710671,250044,1398750,74620,8777,699365,0
0,2,715039,251367,1461412,75184,9634,730684,0
0,-1,642964,219838,1284213,65962,8592,642051,0
0,2,714179,250394,1421956,74674,9274,711136,0
0,2,711932,250494,1261212,74580,9054,630574,0
0,-1,637973,218689,1304115,65577,7562,651916,0
0,2,714060,251184,1434383,75056,9324,717261,0
0,-1,660827,223645,1427283,69120,8743,713655,0
0,2,713579,249271,1399857,74121,8915,699971,0
0,-1,639175,218886,1170725,65873,7104,585464,0
0,2,704984,248480,1308062,73841,8962,654011,0
0,2,706903,249029,1399590,74030,9040,699826,0
0,-1,640579,218801,1171751,65914,8044,585852,0
0,2,707888,249577,1293317,74276,9178,646699,0
0,-1,639898,218991,1229137,65903,7201,614547,0
0,2,707863,248329,1456343,73827,8990,728221,0
0,-1,639368,219228,1313723,65962,8246,656863,0
0,2,727512,253011,1370047,77204,9926,684966,0
0,2,706878,248549,1445232,73910,9016,722656,0
0,2,707256,248536,1323100,73889,7901,661596,0
0,-1,643986,219567,1204543,66159,8140,602256,0
0,2,713632,249540,1479435,74141,9367,739467,0
0,-1,663862,223435,1246872,69173,8867,623272,0
0,2,709112,249541,1450575,74116,9132,725221,0
0,2,730523,253633,1452243,77221,10428,725847,0
0,-1,645590,219423,1212510,66072,7423,606270,0
0,2,713222,250238,1418180,74568,8974,709070,0
0,2,712080,249065,1479383,73991,9184,739643,0
0,-1,638124,220013,1273253,66278,8191,636475,0
0,2,712359,250133,1466904,74532,9926,733283,0
0,-1,641283,221010,1331073,66858,8703,665385,0
0,2,720487,251084,1508786,74886,9480,754286,0
0,2,718482,250429,1459283,74567,10056,729633,0
0,-1,635565,218626,1204225,65785,7606,602059,0
0,2,715339,249439,1293202,73974,8766,646593,0
0,2,706865,249910,1514092,74165,9253,757843,0
0,-1,644711,221151,1404262,66976,7806,701739,0
0,2,730638,254612,1740577,77486,11250,870366,0
0,-1,639273,219347,1357293,66048,7522,678649,0
0,2,713434,250261,1396682,74272,10236,698457,0
0,-1,635325,218865,1264419,65867,7634,632196,0
0,2,714503,250517,1405402,74459,9715,703269,0
0,-1,638300,219377,1306794,66070,7602,653440,0
0,2,709083,249911,1411525,74268,9083,705817,0
0,-1,639341,218933,1220459,65949,7628,610182,0
0,2,734273,253789,1358217,77301,10411,679084,0
0,2,709697,248542,1271406,73883,9221,635789,0
0,-1,638975,219343,1263709,65912,7127,631791,0
0,2,709693,248120,1432397,73610,8553,716248,0
0,-1,638922,219579,1195036,66073,6840,597513,0
0,2,729744,252981,1435352,77079,9914,717610,0
0,2,712123,248733,1257328,73876,9101,628714,0
0,-1,640573,219340,1229440,65975,7933,614352,0
0,2,712704,249021,1411134,73945,9668,705594,0
0,2,708722,248169,1410066,73771,9134,705071,0
0,-1,635538,219604,1163484,66026,6427,581719,0
0,2,714903,250652,1431974,74723,9356,715994,0
0,2,710841,249017,1342184,73959,10160,671025,0
0,-1,638776,220952,1339081,66703,8343,669431,0
0,2,711432,248865,1488532,73881,9667,744189,0
0,2,733843,253703,1410979,77124,10546,705453,0
0,-1,634493,218909,1317326,65782,7134,658631,0
0,2,739572,254220,1382528,77265,9960,691156,0
0,2,712120,250474,1382728,74593,9491,691362,0
0,-1,639699,219652,1292578,66014,7081,646207,0
0,2,705960,247826,1320765,73510,8770,660381,0
0,2,709748,248645,1634906,73780,10960,815889,0
0,-1,641249,219884,1350966,66167,8907,675043,0
0,2,712362,248147,1420599,73595,9937,710270,0
0,-1,636165,219267,1291395,65894,7986,645665,0
0,2,711028,249491,1389466,74094,9139,694663,0
0,-1,637058,219374,1256352,65890,7075,628393,0
0,2,709512,248129,1393520,73585,8963,696683,0
0,-1,640100,219329,1234835,65973,7592,617469,0
0,2,733759,252829,1317438,76987,10351,658655,0
0,-1,642195,219460,1278017,66000,7818,639051,0
0,2,711264,248571,1400035,73836,8868,700032,0
0,-1,640166,219184,1248294,65821,6744,624186,0
0,-1,644081,220488,1287283,66505,7670,643709,0
0,2,716236,250417,1309313,74602,9313,654688,0
0,-1,639047,218626,1257297,65623,7424,628702,0
0,2,711857,248742,1411696,73851,9602,705847,0
0,2,711594,248476,1450565,73724,9259,725220,0
0,-1,636141,219829,1200403,66050,7622,600245,0
0,2,715682,249491,1425896,74035,10027,712883,0
0,2,714451,249721,1381145,74271,9348,690569,0
0,2,715155,248751,1693498,73713,11312,846595,0
0,-1,635310,219215,1246846,65820,6445,623412,0
0,2,699266,248232,1433094,73124,8705,716336,0
0,2,705093,247906,1249643,73025,8532,624852,0
0,2,705232,248861,1328886,73383,9092,664441,0
0,2,703839,248200,1487351,73125,9356,743461,0
0,2,706832,248785,1407756,73360,9097,703848,0
0,2,707547,248382,1376342,73240,9574,688277,0
0,-1,639966,219203,1147999,65858,7084,574029,0
0,2,728056,252566,1471697,76453,10161,735871,0
0,2,710211,248950,1307342,73599,8545,653696,0
0,-1,643850,221615,1297024,67067,7382,648550,0
0,2,712199,248804,1379303,74304,10454,689553,0
0,2,712816,249052,1493902,74348,11005,746958,0
0,-1,641606,219686,1255784,66090,7590,627921,0
0,2,713602,251125,1268375,75351,9613,634121,0
0,2,715724,250939,1314595,75332,8417,657282,0
0,-1,641337,219631,1218042,65968,7044,609057,0
0,2,706806,247720,1372263,74055,8930,686115,0
0,2,709840,247869,1396212,74010,9030,698117,0
0,-1,641480,220252,1194243,66417,8053,597171,0
0,2,708727,248716,1316835,74317,9831,658297,0
0,-1,659791,223926,1357689,69258,7394,678852,0
0,2,711071,248252,1540461,74133,9655,770129,0
0,2,744305,259043,1329574,77692,9511,664667,0
0,2,712849,248263,1460223,74164,10488,729959,0
0,-1,645765,220796,1304598,66572,8097,652352,0
0,2,705733,248645,1433079,74299,10726,716478,0
0,-1,639445,219450,1141979,65948,7097,571002,0
0,2,705739,247968,1337276,74051,9551,668574,0
0,2,707104,248054,1420767,74081,9186,710340,0
0,-1,641922,220258,1264455,66404,7795,632298,0
0,2,711905,249115,1306342,74647,9252,653273,0
0,-1,639902,219085,1249450,65684,7463,624734,0
0,2,708187,248012,1377778,74078,9367,688869,0
0,-1,644881,221291,1336510,66748,8429,668244,0
0,2,712081,248583,1353569,74248,9098,676594,0
0,2,711216,248214,1389088,73915,10510,694429,0
0,-1,639038,219541,1248658,65832,7744,624278,0
0,2,713221,249525,1343473,74751,8675,671788,0
0,2,711151,248583,1277347,74192,9143,638513,0
0,-1,639755,218802,1258896,65612,7242,629332,0
0,2,715512,249347,1402317,74372,8754,701176,0
0,2,714390,248299,1342148,74157,8999,671065,0
0,-1,641900,219716,1255008,65927,8050,627628,0
0,2,713991,248456,1391621,74113,10231,695873,0
0,2,710859,248763,1250223,74286,9449,624972,0
0,-1,637669,218817,1166661,65571,6972,583332,0
0,2,741597,258464,1463145,77043,9195,731596,0
0,2,712086,248006,1370667,73930,10003,685199,0
0,-1,642633,219785,1243080,65962,7842,621629,0
0,2,716003,248791,1480893,74189,10214,740409,0
0,2,712187,250315,1398725,75056,9905,699122,0
0,-1,639658,219390,1359035,65819,8959,679014,0
0,2,712957,250449,1459774,75156,10108,729812,0
0,-1,642301,219485,1210548,65996,8124,604918,0
0,2,712542,248928,1412438,74362,8790,706178,0
0,2,711122,248703,1392538,74385,9178,696296,0
0,-1,643737,220081,1239282,66058,7510,619704,0
0,2,715758,249578,1430437,74637,9733,715267,0
0,2,713874,249008,1416365,74431,9986,708227,0
0,-1,645580,220354,1372612,66251,8428,686298,0
0,2,714056,249979,1459294,74730,10568,729576,0
0,2,711954,249313,1412297,74466,9018,706250,0
0,2,712163,248817,1383350,74315,9259,691686,0
0,-1,644722,220224,1229118,66101,7682,614615,0
0,2,713640,250083,1451316,74652,11290,725558,0
0,-1,639627,220451,1347525,66117,8247,673804,0
0,2,711275,249642,1433466,74443,9861,716777,0
0,2,710953,248661,1471066,74144,9651,735539,0
0,-1,641313,220323,1368266,66021,8955,684102,0
0,2,712550,249498,1330581,74453,9076,665287,0
0,-1,647584,222485,1307259,67044,8634,653183,0
0,2,717600,249486,1377985,74502,9669,689032,0
0,-1,645742,221407,1348230,66709,8432,673845,0
0,2,710659,248907,1412173,74305,10171,706140,0
0,-1,647212,221690,1270168,66807,7999,635159,0
0,2,735564,253807,1415508,77676,11240,707723,0
0,2,711208,248583,1336257,74160,8947,668176,0
0,-1,644353,220396,1190639,66146,7885,595341,0
0,2,719678,249666,1336494,74456,9859,668285,0
0,2,718231,250849,1344712,75141,8875,672351,0
0,2,712886,248877,1336277,74428,9901,667906,0
0,-1,641603,219508,1244883,65910,8613,622089,0
0,2,713904,249146,1456426,74413,9931,728038,0
0,2,717261,249511,1443681,74566,8958,721697,0
0,-1,640470,219291,1493361,65740,9546,746549,0
0,2,717265,250580,1367757,74994,9004,683816,0
0,-1,644673,221066,1203379,66624,8140,601757,0
0,2,712155,248375,1423765,74083,8777,711893,0
0,-1,642803,219889,1288807,66029,7779,644267,0
0,2,711137,248277,1459281,73968,9573,729590,0
0,2,715339,248783,1416386,74152,10336,708158,0
0,-1,643176,219618,1286907,65947,7599,643509,0
0,2,713592,249039,1433886,74396,9941,717021,0
0,2,713228,248729,1508698,74300,9865,754351,0
0,-1,637179,219174,1363880,65840,8226,681955,0
0,2,711692,248325,1354333,74273,10261,677043,0
0,-1,637051,218739,1288782,65586,8026,644445,0
0,2,711268,247229,1339239,73965,9571,669768,0
0,2,704480,248171,1333828,74265,9589,666790,0
0,-1,661025,223575,1220108,68943,8475,610149,0
0,2,709793,249954,1501655,75146,9868,750785,0
0,-1,661973,224354,1292585,69204,8537,646224,0
0,2,706793,248184,1444036,74251,9340,722047,0
0,2,708390,247556,1356380,74022,9103,678233,0
0,-1,644813,220952,1269103,66714,7835,634574,0
0,2,707180,247945,1325288,74205,9134,662680,0
0,2,707721,247830,1378894,74109,9679,689354,0
0,-1,641888,218993,1276652,65852,8342,638168,0
0,2,710080,249723,1418122,74808,10175,709037,0
1,2,767128,269449,1543244,79954,9228,771588,0
1,2,760655,267462,1364060,79019,9316,681908,0
1,-1,693505,237436,1339860,70778,8419,669892,0
1,2,729373,252385,1519360,76995,9881,759532,0
1,-1,693386,237090,1356741,70635,7724,678387,0
1,2,707956,248497,1329894,73779,9192,664705,0
1,-1,688938,236574,1303920,70482,8311,651785,0
1,2,709044,248134,1387832,73662,8846,693840,0
1,-1,634760,218916,1207491,65806,7554,603717,2
1,-1,635868,218303,1310312,65586,7587,655164,0
1,2,736040,258720,1471390,77143,10384,735453,0
1,-1,635541,218305,1297903,65350,8327,648791,0
1,2,704208,248142,1414580,73752,9179,707255,0
1,-1,637587,218563,1164551,65565,7499,582268,0
1,2,707936,247752,1384494,73623,9097,692197,0
1,2,710229,247986,1352412,73655,9345,676039,0
1,2,707593,248308,1343418,73866,9484,671648,0
1,-1,648227,221717,1336633,66835,9492,668526,0
1,2,711222,248452,1322332,73903,9888,661252,0
1,-1,634969,219019,1375760,65814,8529,687859,0
1,2,715264,248707,1356999,73992,9123,678419,0
1,-1,635632,218164,1208222,65569,7849,604059,0
1,2,707868,247869,1329949,73573,9169,665011,0
1,2,710176,249111,1541024,73913,9999,770586,0
1,2,710109,248087,1375710,73663,9446,687838,0
1,-1,641943,220677,1307338,66650,8484,653494,0
1,2,712550,249404,1346901,74115,9445,673446,0
1,-1,638631,219455,1225379,65959,7633,612643,0
1,2,712228,248497,1438244,73924,9624,719076,0
1,-1,646772,221662,1222150,66917,8038,611072,0
1,2,709654,248302,1306224,73930,9340,653119,0
1,2,711856,248700,1316379,74083,9178,658109,0
1,-1,646793,221461,1328818,66872,8745,664390,0
1,2,733806,253786,1316467,77573,10501,658228,0
1,2,715448,249721,1443897,74604,10105,721996,0
1,2,729087,256679,1435037,76378,9311,716152,0
1,-1,639181,219431,1157328,65994,7457,578666,0
1,2,710934,250126,1460265,74765,10189,730064,0
1,-1,637879,218332,1279105,65569,7957,639579,0
1,2,706716,248164,1300362,73943,8596,650154,0
1,-1,637317,218464,1258486,65626,7120,629250,0
1,2,713265,250461,1320108,74939,9544,659962,0
1,-1,648628,221659,1307789,67001,7818,653863,0
1,2,707202,249208,1351902,74192,8306,675948,0
1,-1,647648,221214,1249541,66634,7871,624738,0
1,2,705654,249079,1485739,74224,9738,742837,0
1,-1,641733,218833,1216281,65751,7714,608170,0
1,2,712764,249810,1302345,74364,9165,651167,0
1,2,704974,248395,1386814,73860,9149,693368,0
1,-1,647563,222100,1389352,66963,9131,694615,0
1,2,709406,249314,1259276,74191,8962,629568,0
1,2,712955,250950,1566537,74989,10415,783314,0
1,2,709469,248948,1414798,74083,8906,707328,0
1,-1,647150,221671,1410650,66821,8680,705288,0
1,2,711514,249552,1424972,74311,9227,712463,0
1,2,709854,249876,1346251,74568,9892,672930,0
1,-1,641109,219649,1253211,65992,7549,626388,0
1,2,728272,253237,1374143,77229,8870,687046,0
1,-1,644064,219577,1461779,65996,8068,730282,0
1,2,709879,248294,1349350,73869,8324,674725,0
1,-1,645879,221867,1332220,67133,8000,666228,0
1,2,709526,250457,1408611,74786,9147,704389,0
1,2,705611,248532,1371266,73890,8488,685678,0
1,-1,641129,219078,1205410,65939,8228,602991,0
1,2,708529,249914,1369317,74559,9000,684653,0
1,-1,663188,223583,1262637,69192,8317,631283,0
1,2,708551,249241,1403182,74167,8558,701654,0
1,-1,643461,218923,1201491,65922,7024,600863,0
1,2,708382,248564,1462689,73822,9235,731096,0
1,2,732185,257883,1404585,76687,9120,702332,0
1,2,708494,249459,1427341,74189,8938,713710,0
1,-1,645875,220278,1329405,66549,8571,664482,0
1,2,716808,249943,1435584,74429,9734,717796,0
1,-1,642878,219209,1303101,65964,8543,651545,0
1,2,709123,249036,1260835,73949,8895,630441,0
1,2,710022,249156,1435723,74003,9028,717778,0
1,-1,666453,224313,1242497,69440,8653,621204,0
1,2,709443,249066,1363617,73997,8611,681827,0
1,2,730690,253461,1403867,77162,9857,701850,0
1,-1,633457,218939,1242027,65835,8599,620985,0
1,2,712670,248856,1405453,73888,10371,702721,0
1,-1,657227,223582,1352635,69246,9378,676298,0
1,2,718232,251825,1506903,75203,9153,753410,0
1,2,719217,251892,1469413,75284,9568,734732,0
1,2,714132,249583,1474065,74081,9398,737084,0
1,-1,634425,219039,1239298,65959,7308,619635,0
1,2,717926,251078,1641776,74499,9929,820607,0
1,-1,661845,224440,1244924,69520,7809,622441,0
1,2,730688,254318,1451733,77383,10084,725841,0
1,2,734227,254913,1489425,77564,10199,744303,0
1,-1,638503,219492,1160142,66054,6962,580025,0
1,-1,639332,220931,1294833,66852,7980,647437,0
1,2,713863,249499,1427705,74131,10428,713885,0
1,-1,637866,219426,1316309,66052,6952,658136,0
1,2,718627,250014,1422024,74488,9423,711086,0
1,2,714419,250082,1333700,74231,9158,666886,0
1,-1,638017,218679,1173287,65853,7551,586583,0
1,2,732369,254160,1651978,77439,12674,825545,0
1,-1,641114,220821,1263723,66438,7201,631712,0
1,2,715094,249479,1318448,74144,8878,659232,0
1,-1,639992,220398,1281798,66490,7460,640862,0
1,2,710232,249297,1498560,74130,9448,749270,0
1,2,718254,252088,1352406,75237,9191,676233,0
1,-1,642488,219798,1363361,66127,9828,681610,0
1,2,712665,249733,1379404,74330,9412,689721,0
1,2,709443,248108,1418669,73693,9065,709369,0
1,-1,635930,219427,1210751,66006,7275,605435,0
1,2,711526,249632,1353290,74140,8632,676681,0
1,2,710916,249320,1436409,74106,9792,718189,0
1,-1,640613,220162,1301518,66177,7383,650821,0
1,2,710594,248821,1460661,73836,10188,730333,0
1,2,711206,248392,1417412,73565,9821,708694,0
1,2,713256,248445,1411365,73578,9992,705578,0
1,-1,641558,219727,1295087,66078,7920,647564,0
1,2,713485,249395,1341120,73953,9806,670537,0
1,-1,641936,220918,1315895,66664,7994,657700,0
1,2,706997,248608,1387906,73808,9160,693937,0
1,2,709675,248177,1461222,73623,10219,731475,0
1,-1,640659,219976,1193889,66174,7229,596847,0
1,2,712717,248622,1306185,73813,9510,653089,0
1,-1,636986,220056,1280068,66219,7879,640032,0
1,2,718943,250960,1422332,74811,9641,709663,0
1,-1,640027,219213,1333580,65868,7222,666827,0
1,2,712076,248860,1299652,73899,8990,649748,0
1,-1,637403,218620,1227340,65655,7136,613717,0
1,2,711994,248642,1416129,73806,10118,708039,0
1,-1,643305,219653,1195041,66035,7471,597608,0
1,2,708440,248552,1366738,73805,8895,683271,0
1,-1,641587,220014,1209901,66146,7531,605011,0
1,2,709172,248253,1382356,73584,8563,691300,0
1,-1,641980,219478,1192881,66007,7406,596467,0
1,-1,639593,219048,1190277,65833,6984,595205,0
1,2,710828,247618,1420070,73432,10126,709963,0
1,2,716843,251178,1327214,74916,8921,663570,0
1,-1,635389,219465,1193907,65908,7042,597009,0
1,2,712686,248288,1468506,73626,9645,734157,0
1,2,712832,248787,1408387,73835,9577,704277,0
1,2,718207,250831,1339535,74681,9261,669715,0
1,-1,640046,221250,1329422,66815,8132,664790,0
1,2,721596,250806,1537849,74684,9056,768916,0
1,2,705623,248548,1348678,73298,8822,674240,0
1,2,703297,248086,1424086,73087,9320,712066,0
1,2,726295,253117,1450598,76519,10439,725216,0
1,2,707746,248713,1386054,73348,8847,693164,0
1,2,714039,250906,1337792,74373,9014,668898,0
1,-1,643367,220813,1186488,66433,7602,593314,0
1,2,706326,248519,1403265,73342,9607,701634,0
1,2,732196,256877,1437378,75809,9580,718709,0
1,-1,658292,223904,1235848,69227,7693,617895,0
1,2,707993,248253,1353579,74141,10945,676695,0
1,-1,639406,218836,1180811,65757,7316,590554,0
1,2,709572,248386,1420904,74206,10365,710493,0
1,2,706057,248899,1307130,74447,9147,653464,0
1,-1,662382,223646,1262920,69106,8428,631399,0
1,2,706503,248434,1404456,74252,9524,702176,0
1,2,708253,248920,1371891,74528,9703,685850,0
1,-1,641427,220347,1443313,66496,8326,721645,0
1,2,707428,248001,1416417,73999,9338,708137,0
1,2,710904,249381,1281801,74698,8913,640793,0
1,-1,641119,220253,1397354,66254,7287,698725,0
1,2,729070,252732,1513099,77448,10443,756666,0
1,2,735385,253508,1400174,77656,10532,700015,0
1,-1,641471,219482,1283558,65951,7482,641706,0
1,2,716674,249593,1426294,74774,9849,712201,0
1,2,719206,250222,1321499,75083,9962,660364,0
1,-1,643835,220666,1273630,66346,8668,636619,0
1,2,706578,247643,1391924,73938,8915,695969,0
1,2,706300,247777,1452586,73949,9186,726311,0
1,-1,639851,219683,1167605,66075,7015,583853,0
1,2,709349,248221,1304125,74137,9596,652001,0
1,-1,641292,219072,1178375,65771,7287,589248,0
1,2,708234,248404,1508111,74225,10449,753439,0
1,2,708703,248001,1335298,74021,9254,667660,0
1,-1,642488,220130,1260572,66007,7236,630273,0
1,2,711404,248404,1349752,74078,9991,674765,0
1,-1,642767,219731,1439565,65980,10271,719646,0
1,2,711222,249234,1338703,74374,8620,669406,0
1,2,710959,248234,1325085,74223,9425,662450,0
1,-1,643740,220563,1298063,66394,7703,649046,0
1,2,710599,248573,1358366,74025,9088,679267,0
1,2,717241,250685,1493580,75201,10003,746672,0
1,-1,642232,219855,1443656,65921,8181,721826,0
1,2,712083,248727,1351397,74135,9433,675976,0
1,2,714415,249424,1352592,74576,9035,676281,0
1,-1,638884,219532,1186062,65889,7328,592917,0
1,2,708250,248026,1444593,73900,9049,721738,0
1,2,713676,248755,1249164,74167,8657,624488,0
1,-1,643347,219928,1246662,65969,8215,623362,0
1,2,718204,250681,1437024,75092,9609,718577,0
1,2,707423,247878,1556181,73938,9926,778139,0
1,-1,641030,219966,1444487,66047,9356,721853,0
1,2,711128,248237,1475656,74129,9585,737863,0
1,-1,640777,219303,1455105,65866,8661,727905,0
1,2,713044,249302,1488743,74438,9094,744399,0
1,2,717604,251569,1309728,75677,8840,655034,0
1,-1,643075,220001,1346732,66052,7363,673292,0
1,2,735751,254168,1457770,77968,10520,728898,0
1,2,717415,251299,1385505,75442,9922,692627,0
1,-1,665145,225407,1269906,69677,7872,634827,0
1,2,714174,249183,1491110,74425,10643,745577,0
1,2,710806,249237,1365624,74443,9331,682737,0
1,2,713645,249675,1253496,74629,9707,626762,0
1,-1,648121,221130,1227509,66534,8004,613652,0
1,2,714637,249365,1288350,74377,10015,644084,0
1,-1,641540,221007,1277258,66252,8485,638670,0
1,2,712622,249396,1454474,74308,10151,727237,0
1,2,717491,250683,1355536,75058,9347,677800,0
1,-1,643255,219952,1424978,65896,8194,712507,0
1,2,712455,248759,1307928,74192,9491,653817,0
1,-1,640948,220310,1227028,66018,8705,613541,0
1,2,719998,250720,1366092,75020,9609,683013,0
1,-1,642670,219691,1355988,65873,8809,678288,0
1,2,730277,253459,1544258,77579,10773,771988,0
1,-1,641620,219963,1212062,66067,7574,606086,0
1,2,711303,248517,1331977,74071,9958,666065,0
1,-1,640286,219283,1208806,65734,7627,604396,0
1,2,717608,251021,1390370,75234,10115,695219,0
1,2,719350,249983,1423231,74620,10661,711408,0
1,2,713289,249391,1380243,74450,9373,690179,0
1,-1,640880,219421,1303088,65859,8468,651400,0
1,2,715799,249035,1381122,74402,9299,690602,0
1,2,712616,248964,1570546,74416,10321,785250,0
1,2,716040,249173,1361524,74413,9438,680501,0
1,-1,646925,221206,1389884,66785,9405,694969,0
1,2,709203,248459,1313816,74057,9207,656944,0
1,-1,641722,220311,1166169,66142,7674,583143,0
1,2,734981,253496,1506690,77537,10414,753287,0
1,-1,641908,219580,1274319,65925,8104,637176,0
1,2,715843,248843,1345165,74174,9465,672582,0
1,-1,640860,219352,1375439,65865,7889,687773,0
1,2,719997,250659,1405846,75082,9950,702733,0
1,2,711596,247962,1465197,73954,9236,732611,0
1,2,712510,248463,1545036,74159,9990,772210,0
1,-1,640480,220985,1309429,66741,8233,654805,0
1,2,737973,252702,1388267,77454,11213,694092,0
1,-1,643200,219855,1339915,66133,7885,669968,0
1,2,713503,247697,1460120,74080,9935,729773,0
1,2,703144,248136,1344261,74261,9193,672025,0
1,-1,639982,219506,1304458,65895,8007,652272,0
1,2,711201,249189,1440777,74790,10078,720112,0
1,-1,637739,218943,1275930,65662,8226,638001,0
1,2,707306,247795,1366452,74115,9625,683177,0
1,2,716981,250846,1340321,75400,9751,670078,0
1,-1,664784,225047,1263894,69538,8427,631935,0
1,2,707387,248496,1427531,74319,9402,713722,0
1,-1,646231,220703,1328800,66564,9003,664650,0
1,2,711678,249342,1352145,74857,9911,675932,0
1,2,711519,248422,1461941,74224,9355,730842,0
2,2,760599,266888,1479285,78830,8807,739664,0
2,2,761296,266647,1483781,78770,9084,741922,0
2,-1,711009,241149,1522573,73732,8824,761244,0
2,-1,696709,238317,1346396,71068,8367,673166,0
2,2,706568,247545,1407332,73532,9364,703702,0
2,2,707477,247075,1433325,73262,10263,716302,0
2,-1,691651,237568,1381803,70787,8563,690845,0
2,2,713472,250610,1440609,74768,9587,719976,0
2,-1,637714,218973,1321995,65811,7925,661050,0
2,2,708045,249280,1351551,74124,9238,675704,0
2,-1,638766,219315,1247090,65741,7508,623357,2
2,-1,636828,219126,1255811,65745,8105,627894,0
2,2,712301,248959,1411435,74193,9579,705753,0
2,-1,640579,219011,1315888,65734,8105,658061,0
2,2,707580,248277,1331178,73834,8952,665532,0
2,2,708771,248013,1482657,73702,9664,741252,0
2,2,704810,247564,1340512,73578,9222,670184,0
2,-1,639644,218840,1246895,65602,7688,623288,0
2,2,710652,248400,1448903,73884,10333,724333,0
2,-1,634753,218914,1368541,65769,8124,684666,0
2,2,712395,249151,1630409,74245,10990,814835,0
2,-1,639454,219738,1188744,66070,8025,594351,0
2,2,708727,248654,1345671,73813,8819,672927,0
2,2,711016,249343,1430745,73989,9558,715451,0
2,2,711935,249210,1333789,74092,9042,666847,0
2,-1,638299,219050,1353356,65778,8132,676809,0
2,2,712755,250018,1488180,74522,9984,743935,0
2,-1,636476,218910,1212308,65838,7116,606184,0
2,2,712990,249175,1408741,74203,9400,704206,0
2,-1,637602,218553,1128521,65682,7672,564272,0
2,2,712284,250362,1468685,74778,9129,734010,0
2,2,715306,250360,1445421,74886,9802,722724,0
2,-1,666600,224922,1316008,70047,8295,657943,0
2,2,713120,249131,1343883,74247,9970,671835,0
2,2,711787,248617,1434996,74086,9404,717448,0
2,-1,686615,232512,1376466,71766,8601,688130,0
2,2,712428,251503,1692852,75239,10828,846385,0
2,2,707087,248492,1433912,73970,9549,716795,0
2,-1,637615,218588,1374656,65664,9127,687363,0
2,2,726529,253207,1500275,77365,9609,750008,0
2,-1,638665,219058,1179979,65925,7334,589908,0
2,2,730052,252954,1292766,77272,10013,646288,0
2,-1,643295,219793,1262159,66084,7945,631107,0
2,2,706483,248377,1514257,73933,9016,757123,0
2,-1,642314,219460,1228353,65894,7611,614053,0
2,2,710973,248843,1330472,74121,8727,665169,0
2,2,711599,249607,1441212,74559,9888,720574,0
2,-1,644003,219954,1309264,66257,8420,654625,0
2,2,709676,250202,1431071,74653,9104,715423,0
2,-1,660831,224155,1281182,69177,8918,640293,0
2,2,708759,248946,1308903,74062,9483,654412,0
2,2,730316,252690,1370720,77024,10123,685390,0
2,-1,643670,219417,1207902,65762,8243,603960,0
2,2,707555,248704,1321397,73979,8560,660732,0
2,2,711387,249466,1465027,74439,9620,732816,0
2,-1,638992,218752,1270436,65652,7882,635235,0
2,2,706896,248439,1249390,73881,9091,624473,0
2,2,708412,249467,1417105,74160,8131,708595,0
2,-1,645232,220494,1351749,66484,8930,675597,0
2,2,711784,248675,1355520,73992,8990,677816,0
2,-1,660440,223966,1281858,69328,8090,640859,0
2,2,706487,249147,1433158,74091,9279,716455,0
2,2,707491,249014,1284198,74055,8070,642147,0
2,-1,642236,219861,1206391,66234,8304,603176,0
2,2,711093,248652,1295637,73971,8865,647860,0
2,-1,643206,219711,1330541,66170,8267,665137,0
2,2,706051,248699,1372722,73942,8382,686374,0
2,-1,664392,223690,1325163,69290,7999,662470,0
2,2,708415,249133,1448592,74099,9466,724185,0
2,2,713382,249918,1434643,74565,9089,717234,0
2,-1,646739,221107,1232633,66912,9050,616060,0
2,2,711121,248987,1325747,73970,8353,662917,0
2,2,712323,249181,1421247,73972,9500,710660,0
2,-1,645664,220746,1362787,66633,8448,681422,0
2,2,707122,248629,1308106,73768,8675,654023,0
2,2,711976,250429,1501501,74598,9390,750685,0
2,-1,645457,219188,1375893,65965,8269,687910,0
2,2,736801,254131,1512724,77400,10058,756218,0
2,2,714808,250205,1443685,74520,10500,721786,0
2,-1,639741,220712,1254467,66695,8937,626949,0
2,2,714463,250164,1353384,74405,9497,676533,0
2,-1,636404,219480,1245616,66092,8353,622779,0
2,2,736953,254611,1438545,77659,10583,719191,0
2,2,714981,249889,1479049,74334,9715,739534,0
2,-1,633908,219378,1236568,66073,8282,618137,0
2,2,718511,251197,1494656,75019,10059,746902,0
2,2,715964,249546,1377196,73991,9164,688613,0
2,-1,637339,219294,1182338,65991,6575,591213,0
2,2,710310,250208,1469191,74258,10137,734660,0
2,-1,658234,223714,1220236,69199,7800,610089,0
2,2,711839,249740,1374632,74132,9902,687120,0
2,-1,658166,223884,1319578,69314,8842,659753,0
2,2,713942,249682,1623158,74183,10048,811655,0
2,-1,634847,219016,1170345,65953,6674,585186,0
2,2,715818,249643,1317177,74221,9508,658632,0
2,2,715054,250716,1461458,74678,9837,730779,0
2,-1,642923,220847,1238513,66796,8030,618934,0
2,2,708144,248765,1635541,73851,11921,817766,0
2,-1,635741,219130,1151900,65856,7160,575799,0
2,2,713836,248848,1302125,73960,8998,651242,0
2,-1,636483,219261,1221384,65943,7894,610713,0
2,2,730378,253135,1439262,77177,10308,719446,0
2,2,707466,248401,1306285,73706,8438,653185,0
2,-1,644629,221237,1401552,66856,9256,700148,0
2,2,708083,248306,1426965,73667,9331,713435,0
2,2,703099,246203,1282765,73107,8509,641319,0
2,-1,635015,219067,1347522,65771,8203,673666,0
2,2,715861,250927,1487333,74899,9963,743612,0
2,2,708773,248457,1328028,73759,9339,663962,0
2,-1,638861,219597,1376214,66013,8793,687949,0
2,2,715416,249285,1426046,74014,9701,712949,0
2,2,719874,251118,1407905,74701,10091,703936,0
2,2,741509,254742,1485467,77915,10363,742460,0
2,-1,637248,219038,1216504,65849,7165,608254,0
2,-1,634216,218299,1164488,65628,7081,582223,0
2,2,710210,248891,1330447,73774,9985,665134,0
2,2,713758,249490,1470644,73945,9915,735305,0
2,2,716456,251399,1340811,74963,9993,670311,0
2,-1,638702,219083,1205576,65860,7068,602795,0
2,2,707024,247744,1473485,73478,9963,736439,0
2,-1,646388,221035,1319988,66790,8361,659939,0
2,2,713084,250201,1372940,74500,9139,686497,0
2,-1,639679,219688,1360975,66061,7000,680532,0
2,2,713757,250769,1339771,74802,8726,669848,0
2,-1,643042,220234,1284603,66239,7241,642343,0
2,2,714248,248532,1423799,73775,9361,711832,0
2,-1,646111,221186,1307574,66826,7728,653863,0
2,2,710698,249505,1364769,74272,9001,682319,0
2,-1,638423,219004,1162061,65805,6953,581101,0
2,-1,640166,219176,1255230,65810,7467,627658,0
2,2,710280,248995,1395959,73853,8782,697963,0
2,-1,643141,220746,1264160,66600,7491,632125,0
2,2,711263,248479,1378439,73764,8859,689246,0
2,-1,645430,220053,1186396,66148,8100,593124,0
2,2,710291,248610,1413180,73808,8754,706607,0
2,2,712197,248756,1370581,73796,9233,685310,0
2,2,712412,248598,1351079,73727,9236,675530,0
2,2,733146,253006,1541257,76913,9976,770558,0
2,-1,659801,224322,1246787,69332,7933,623353,0
2,2,713694,248120,1336111,73426,8582,668014,0
2,2,702920,248494,1259345,73300,8985,629665,0
2,2,728049,253380,1518715,76640,10051,759384,0
2,2,701836,248724,1437539,73354,9704,718921,0
2,2,709067,250265,1308148,74133,9553,654070,0
2,-1,638580,219117,1169920,65840,7316,585003,0
2,2,708982,248653,1466836,73341,9289,733473,0
2,2,710463,250163,1389395,73996,9835,694670,0
2,-1,638738,219274,1303653,65943,7454,651886,0
2,2,712476,250880,1378155,74472,9740,689132,0
2,2,706416,247916,1304897,73994,10460,652494,0
2,-1,645559,221613,1266140,66964,7991,633145,0
2,2,711863,249578,1351980,74802,9752,675953,0
2,2,711357,248741,1258844,74307,9274,629243,0
2,-1,641230,219653,1289743,66046,7443,644919,0
2,2,714665,249827,1321954,74803,9152,660905,0
2,2,707824,248159,1306727,74090,9750,653338,0
2,-1,639901,219996,1238241,66201,7346,619174,0
2,2,730294,252643,1572559,77456,10234,786187,0
2,2,707278,248261,1342560,74173,9066,671020,0
2,-1,639132,219097,1209691,65791,6957,604864,0
2,2,710294,247966,1402073,74104,9785,701051,0
2,2,712058,248613,1310177,74290,9091,655105,0
2,-1,640629,219461,1201211,66008,7528,600669,0
2,2,715818,250207,1400045,75090,10705,700037,0
2,2,714177,248517,1360813,74283,10028,680182,0
2,-1,638529,218989,1201543,65746,7354,600815,0
2,2,707510,247874,1513104,73976,10268,756369,0
2,-1,644121,219733,1215168,66050,7785,607765,0
2,2,708792,249093,1334624,74333,8596,667297,0
2,2,716634,250463,1243271,75086,8538,621493,0
2,-1,643179,219906,1201967,66038,6883,600833,0
2,2,728734,252778,1610894,77381,10515,805448,0
2,2,735483,257511,1419491,76923,9292,709735,0
2,-1,637456,219281,1404438,65770,7881,702001,0
2,2,714225,248941,1385976,74243,9879,693016,0
2,-1,637755,219230,1279731,65720,7000,639850,0
2,2,731631,252810,1421643,77323,10088,710874,0
2,2,709262,247990,1248984,74114,9050,624398,0
2,-1,641958,220080,1210340,65985,7746,605163,0
2,2,709014,248217,1425614,74064,8857,712789,0
2,2,715713,249409,1368338,74709,9864,684158,0
2,-1,646460,221889,1387352,66963,8524,693775,0
2,2,712195,248121,1469368,73939,9853,734701,0
2,2,713634,248819,1444136,74234,9956,722126,0
2,-1,644007,219966,1266260,66010,7988,633129,0
2,2,710690,249092,1427948,74235,9987,713921,0
2,2,711303,248158,1338246,73981,9603,669151,0
2,-1,643672,220360,1324913,66126,8563,662261,0
2,2,732562,252655,1591803,77266,11427,795735,0
2,-1,642846,220831,1349781,66542,8707,674875,0
2,2,705892,247811,1344594,73867,10319,672204,0
2,2,734532,253644,1514132,77697,10845,756522,0
2,-1,662981,224252,1228501,69215,8475,613993,0
2,2,713413,249111,1405760,74437,9577,702929,0
2,2,709878,248941,1262876,74431,8511,631479,0
2,-1,643647,219718,1257711,66024,7445,628780,0
2,2,713227,249440,1425809,74523,9652,712938,0
2,2,714376,249078,1473551,74391,10600,736774,0
2,-1,642604,219771,1227297,66026,7240,613743,0
2,2,719667,251200,1451216,75351,9739,725620,0
2,2,710572,249306,1406657,74483,10234,703269,0
2,2,712773,249504,1390246,74543,10079,695062,0
2,-1,646186,219989,1296794,66157,7048,648182,0
2,2,714554,249921,1283609,74603,9163,641780,0
2,-1,639863,221271,1492821,66581,8732,747358,0
2,2,715257,248638,1441147,74028,10544,720560,0
2,2,711828,249447,1302530,74471,8636,651144,0
2,-1,642180,221083,1326557,66364,8585,663112,0
2,2,716630,250483,1308438,75034,9600,653992,0
2,-1,641093,220908,1386283,66256,9048,692514,0
2,2,711608,248655,1422242,74167,9386,711094,0
2,-1,640278,219735,1356435,65916,8434,678358,0
2,2,709774,249091,1342579,74355,9674,671418,0
2,-1,665832,224990,1502559,69459,8900,751306,0
2,2,715751,250050,1401904,74873,9812,700880,0
2,-1,661794,225038,1197909,69407,8396,598982,0
2,2,733339,253932,1464866,77719,10422,732382,0
2,2,715885,249880,1428792,74521,9535,714402,0
2,-1,662674,224603,1240913,69367,8283,620310,0
2,2,712957,248978,1393975,74301,9736,697116,0
2,2,734783,253444,1558978,77599,10755,779488,0
2,2,720003,251532,1372647,75569,10062,685984,0
2,-1,664945,224689,1612578,69393,9656,805989,0
2,2,713540,249026,1446375,74387,9466,723216,0
2,2,711194,249358,1446930,74347,10442,723475,0
2,-1,640007,219203,1185117,65766,8351,592506,0
2,2,733160,253428,1449021,77501,10339,724415,0
2,-1,644349,220334,1293060,66351,7788,646666,0
2,2,714172,248912,1360691,74255,9313,680434,0
2,2,720918,250322,1463311,74894,10517,731618,0
2,-1,641754,218814,1256714,65662,8350,628312,0
2,2,716670,249693,1512562,74805,9701,755651,0
2,2,710287,247953,1368027,73917,10099,683904,0
2,-1,640871,219984,1370475,66158,7535,685299,0
2,2,716731,249355,1498528,74695,10594,748957,0
2,-1,640484,219479,1304470,65928,7684,652271,0
2,2,718633,250342,1553377,75254,10188,776539,0
2,2,724732,250999,1357790,75538,9503,678712,0
2,-1,641591,219666,1269775,65944,7376,634898,0
2,2,710848,249188,1415399,74627,9451,707627,0
2,-1,638065,219079,1201205,65706,7546,600663,0
2,2,728282,253473,1445580,77789,9884,722890,0
2,2,707500,248084,1387331,74202,8556,693624,0
2,-1,638926,219056,1267880,65749,7409,633998,0
2,2,706771,247772,1448504,74101,9164,724399,0
2,-1,644084,219959,1407760,66194,10332,703497,0
2,2,708798,248368,1325201,74292,9447,662560,0
2,2,733680,253626,1581581,77747,10348,790602,0
2,2,711843,248793,1462305,74314,9640,730851,0
3,2,769177,268692,1472446,79661,9694,736032,0
3,-1,689870,237512,1436713,70748,7929,718365,0
3,2,787202,271862,1501965,82230,10600,750979,0
3,-1,691548,236919,1232140,70587,7034,616098,0
3,2,728106,253151,1462828,77198,9918,731396,0
3,2,716698,250914,1494056,74828,10536,746487,0
3,-1,692037,237144,1209455,70663,7691,604685,0
3,2,712497,248495,1341134,73809,9807,670345,0
3,-1,636420,218798,1254895,65650,7577,627415,0
3,2,704197,247866,1390198,73637,9493,695151,0
3,-1,642611,219363,1221890,65867,9182,610952,0
3,2,707162,248436,1380173,73930,10554,689813,0
3,-1,643935,221739,1318685,66867,8265,658907,2
3,-1,643751,220970,1335703,66583,8560,667897,0
3,2,730755,253028,1310843,77151,9673,655484,0
3,2,706448,247463,1395658,73429,9516,697740,0
3,2,706337,248420,1342038,73794,8671,670884,0
3,-1,639590,219139,1466406,65765,9324,732342,0
3,2,708403,248438,1394060,73916,9881,696978,0
3,-1,641146,221036,1400087,66730,8566,700039,0
3,2,709161,248331,1340275,73791,8677,670175,0
3,-1,638131,219647,1270272,66228,8564,635007,0
3,2,706368,248673,1366440,73888,9946,683359,0
3,2,713970,250845,1458403,74687,9711,729118,0
3,-1,635479,218841,1246256,65784,6831,623319,0
3,2,713753,249730,1421113,74414,9490,710550,0
3,2,711862,249083,1409975,74058,9283,705018,0
3,-1,639076,220265,1279127,66540,7563,639519,0
3,2,711423,248975,1409526,74049,9376,704165,0
3,-1,640991,220466,1205349,66396,7720,602688,0
3,2,710489,248424,1338019,74002,9180,668764,0
3,2,712071,248885,1419945,74159,9582,709929,0
3,-1,638000,218594,1216815,65688,7929,608404,0
3,2,710853,249313,1361649,74291,9241,680787,0
3,2,711961,248342,1441639,73987,9719,720793,0
3,-1,636570,218780,1228272,65714,8032,614205,0
3,2,724662,252816,1513669,77214,10347,755841,0
3,2,706507,248146,1364781,73851,9787,682358,0
3,-1,640355,219652,1311908,65987,8676,655874,0
3,2,708787,248983,1406157,74144,8594,703039,0
3,-1,656752,223078,1253507,69007,8586,626639,0
3,2,708640,248839,1280447,74077,8710,640227,0
3,-1,644590,220410,1234318,66342,7934,617488,0
3,2,708442,249437,1430399,74336,8689,714617,0
3,-1,639849,218551,1207630,65565,7589,603870,0
3,2,708801,248848,1373164,74136,9513,686595,0
3,2,708016,248685,1411413,73927,9107,705532,0
3,-1,643318,219683,1221054,66034,8076,610460,0
3,2,713280,249754,1339867,74352,9214,669945,0
3,-1,640908,220188,1350556,66294,9029,675276,0
3,2,712339,250476,1327331,74780,9496,663549,0
3,2,711611,249355,1314767,74222,8942,657329,0
3,-1,644178,220314,1226424,66112,8027,613175,0
3,2,708159,249211,1425035,74093,9320,712480,0
3,2,707191,248165,1418450,73775,8926,709206,0
3,-1,641298,220247,1295788,66387,7851,647863,0
3,2,712522,250441,1587351,74844,10214,793234,0
3,2,712281,249063,1312045,74084,8882,656079,0
3,-1,644853,220630,1293583,66260,7884,646165,0
3,2,712125,249826,1421064,74390,9132,710570,0
3,-1,642906,221038,1344035,66784,8059,672073,0
3,2,707310,250086,1313235,74579,8861,656686,0
3,2,709921,249416,1403864,74180,8758,701972,0
3,-1,645918,220907,1232485,66784,8231,616084,0
3,2,712316,250105,1325278,74717,8992,662707,0
3,-1,641092,219211,1337380,65962,8066,668667,0
3,2,732977,253803,1429536,77431,9415,714772,0
3,-1,642860,219414,1360588,66110,7999,680209,0
3,2,705807,248511,1469898,73855,9344,735032,0
3,2,730163,253130,1364989,77185,9502,682450,0
3,2,715445,250342,1521023,74738,10094,760561,0
3,-1,640565,219143,1227134,65958,8575,613534,0
3,2,717084,251186,1415214,75071,10233,707705,0
3,-1,642640,219178,1323720,65983,8821,661885,0
3,2,726144,253551,1338560,77185,8776,669212,0
3,2,709200,249161,1420287,74034,8953,709997,0
3,-1,645363,219862,1263781,66230,7622,631784,0
3,2,711216,248710,1378828,73848,8806,689389,0
3,2,712653,249296,1432818,74039,9769,716475,0
3,-1,656675,224172,1392605,69400,8507,696165,0
3,2,709877,249318,1425338,74084,9588,712564,0
3,-1,638869,220080,1328586,66507,8225,664406,0
3,2,711394,248690,1427949,73883,10003,713961,0
3,2,712460,249431,1486603,74206,9282,743272,0
3,-1,640792,220506,1281840,66628,9009,640463,0
3,2,734283,254023,1424170,77490,10582,712125,0
3,2,717841,249844,1456840,74164,10150,728448,0
3,-1,639981,220679,1288821,66666,7958,644296,0
3,2,714860,251137,1520776,74770,10390,760444,0
3,-1,640798,220429,1172889,66408,7189,586468,0
3,2,712296,250130,1365993,74149,9470,682771,0
3,-1,634908,219148,1194529,65996,6938,597227,0
3,2,708859,249192,1487628,73977,10072,743917,0
3,-1,634196,218674,1302975,65804,8231,651396,0
3,2,735121,254005,1369121,77286,10315,684587,0
3,2,712631,250160,1292499,74293,9007,646226,0
3,-1,639041,219611,1219433,66082,7865,609706,0
3,2,713025,249785,1421083,74254,10162,709428,0
3,-1,660389,223989,1260874,69271,8443,630481,0
3,2,712231,248302,1396905,73698,9475,698539,0
3,-1,645189,221561,1272478,67008,7305,636260,0
3,2,709870,249505,1477906,74216,9633,739309,0
3,-1,640956,220038,1176619,66193,7480,588196,0
3,2,712986,249365,1541824,74060,10256,770940,0
3,2,711829,249384,1308650,74080,9090,654345,0
3,2,711386,249716,1369049,74460,9124,684537,0
3,-1,635618,219551,1418970,66086,8199,709289,0
3,2,710845,248916,1752236,74020,11447,875990,0
3,-1,669729,230962,1311076,69822,7606,655504,0
3,2,716676,249949,1421117,74508,10085,710519,0
3,2,713785,248891,1365149,73821,9676,682503,0
3,2,734668,253690,1401520,77076,10462,700643,0
3,-1,643159,221383,1298960,66883,8171,649424,0
3,2,715720,249197,1438108,73876,9916,719068,0
3,-1,642316,220226,1430026,66195,8236,715052,0
3,2,710103,248729,1349114,73702,9874,674281,0
3,2,718331,251206,1452951,74886,9563,726350,0
3,2,706382,248004,1249364,73560,8749,624647,0
3,-1,659529,224243,1260733,69327,7894,630360,0
3,2,712463,248623,1511771,73744,9951,756262,0
3,-1,640748,219193,1497582,65945,9389,748684,0
3,2,709755,248578,1413019,73776,9500,706491,0
3,-1,637699,219210,1272087,65891,7729,636061,0
3,2,729313,252399,1516371,76726,9820,758152,0
3,-1,638850,219015,1300609,65847,7219,650363,0
3,2,712543,248270,1389912,73645,9314,694953,0
3,-1,663642,224316,1237146,69348,7662,618656,0
3,2,708328,248119,1373811,73602,9343,686862,0
3,-1,642498,220245,1266759,66266,7787,633434,0
3,2,715512,248931,1406600,73931,9359,703329,0
3,-1,641890,219225,1283698,65869,7403,641950,0
3,-1,643674,220781,1326738,66415,7136,663754,0
3,2,709672,248398,1328156,73753,9323,664069,0
3,2,708485,248455,1317250,73758,8521,658694,0
3,-1,646990,220884,1229891,66725,8790,614964,0
3,2,710970,248543,1490124,73763,9202,745046,0
3,2,711058,248731,1467040,73797,9182,733297,0
3,2,717483,249062,1556194,73847,10281,778043,0
3,-1,637829,219011,1260513,65738,7202,630307,0
3,2,714586,248481,1460160,73672,9665,729972,0
3,2,724823,253254,1450378,76589,9914,725164,0
3,2,704705,248544,1425723,73294,9336,712896,0
3,2,710011,249739,1321884,73856,8705,660893,0
3,2,725430,252517,1442706,76291,9863,721467,0
3,-1,637922,219392,1294489,66012,7517,647301,0
3,2,706585,248528,1388035,73313,8996,693971,0
3,2,706365,248661,1337293,73331,9427,668542,0
3,-1,640787,220549,1274977,66467,7525,637514,0
3,2,731151,253346,1454675,76775,9856,727452,0
3,2,708972,248299,1319044,74195,10484,659374,0
3,-1,659792,223629,1196758,69154,8022,598303,0
3,2,707569,248736,1463218,74338,10559,730923,0
3,2,711679,248084,1430326,74077,10955,715137,0
3,-1,640162,219581,1236566,65949,6798,618320,0
3,2,714800,251293,1431385,75517,9869,715551,0
3,2,709234,249309,1240375,74576,9117,620081,0
3,-1,636415,218846,1202824,65756,7163,601478,0
3,2,710957,249679,1320971,74763,8427,660404,0
3,2,705973,247942,1341510,74005,9580,670744,0
3,-1,639362,219650,1202909,66061,7003,601487,0
3,2,708782,248041,1339708,74066,8879,669835,0
3,-1,641141,219546,1201180,65984,7147,600638,0
3,2,711145,247718,1264085,73943,9243,631998,0
3,2,733606,253114,1493482,77532,10792,746708,0
3,2,710781,247441,1316402,73953,10671,658246,0
3,-1,641750,220017,1224013,66130,7754,611669,0
3,2,712760,250163,1344735,75088,9454,671891,0
3,-1,643345,219740,1205359,66038,7600,602733,0
3,2,711662,248363,1352325,74240,9403,676054,0
3,2,711236,248574,1290150,74252,8496,645105,0
3,-1,641935,219631,1270782,65937,7376,635437,0
3,2,708929,248211,1303052,74137,9094,651529,0
3,2,716162,249136,1332020,74564,9871,665936,0
3,-1,639790,220607,1321485,66352,7712,660707,0
3,2,708568,248250,1392678,74100,9548,696258,0
3,-1,646061,221902,1310852,66915,8352,655313,0
3,2,705613,247724,1427243,73803,9393,713686,0
3,-1,641611,219491,1295195,65816,8095,647598,0
3,2,713054,249255,1356203,74445,9800,678053,0
3,2,715684,251010,1370332,75147,8856,685099,0
3,2,714666,249889,1337016,74846,9658,668469,0
3,-1,636902,218680,1195633,65547,7249,597788,0
3,2,716351,250467,1401352,75069,10004,700395,0
3,-1,645042,220446,1384960,66100,8533,692452,0
3,2,712061,248898,1375215,74282,9589,687872,0
3,2,719576,250465,1397629,75015,9574,698371,0
3,2,710692,248401,1334313,74102,9687,667096,0
3,-1,643103,219869,1345889,65994,6822,672947,0
3,2,717502,249133,1394183,74344,10256,697142,0
3,-1,637748,219153,1313559,65684,8638,656783,0
3,2,710088,249170,1309621,74272,9318,654856,0
3,2,714461,250097,1538189,74952,9308,768717,0
3,-1,640493,219684,1185844,65891,7402,592859,0
3,2,714772,250061,1304626,74764,9600,652355,0
3,-1,641016,219440,1312151,65875,7656,656072,0
3,2,714569,249336,1330936,74672,9559,665500,0
3,2,717074,250708,1339893,75219,9565,670000,0
3,2,713072,250137,1403902,74828,9595,701808,0
3,-1,644936,220555,1165075,66366,7722,582495,0
3,2,715694,249996,1535440,74781,11836,767754,0
3,2,715285,251731,1353716,75577,9902,676543,0
3,2,714400,250406,1436852,74880,10321,718549,0
3,-1,646071,220321,1372962,66476,8433,686545,0
3,2,709641,248787,1611967,74172,10622,805983,0
3,-1,651167,221941,1342087,66577,8584,671097,0
3,2,717684,249852,1423550,74528,10220,711458,0
3,-1,642903,220543,1209825,66040,8059,604993,0
3,2,711524,249339,1421580,74398,8722,710753,0
3,2,716297,249268,1365218,74411,9911,682527,0
3,-1,646104,221265,1382974,66361,8253,691382,0
3,2,714840,248916,1496993,74310,10216,748445,0
3,-1,647740,222451,1288696,67104,8067,643744,0
3,2,718705,249884,1297822,74614,9576,648842,0
3,-1,642290,220416,1303586,66164,7455,651791,0
3,2,712123,249173,1343980,74387,9367,671915,0
3,-1,642826,220510,1304410,66155,7398,652258,0
3,2,712335,248985,1351092,74277,9348,675573,0
3,2,738807,254798,1509612,77968,10609,754619,0
3,-1,642973,219743,1258492,65958,7879,628892,0
3,2,714626,249439,1393929,74506,9455,696918,0
3,2,713360,248935,1459169,74358,9396,729486,0
3,2,734580,253490,1488439,77662,11183,744218,0
3,-1,643593,220250,1409734,66168,8578,704149,0
3,2,719093,250586,1489724,75108,9814,744574,0
3,2,714360,249481,1384256,74438,9136,692125,0
3,-1,639810,219217,1244018,65788,8174,622085,0
3,2,711201,248791,1285725,74219,9634,642675,0
3,-1,641115,219499,1174587,65873,7386,587241,0
3,2,745637,259790,1439031,77700,10198,719350,0
3,2,713145,248251,1377276,73994,10102,688585,0
3,-1,642863,219543,1172690,65951,8031,586409,0
3,2,715159,249863,1447806,74760,9295,723667,0
3,2,718293,250419,1444441,75107,10237,722093,0
3,-1,643720,218775,1172892,65716,7432,586504,0
3,2,714126,248693,1540642,74244,10488,770256,0
3,-1,639684,219309,1189995,65887,7775,595090,0
3,2,739898,254505,1502976,78654,10936,751478,0
3,2,715800,248196,1470345,74277,10077,735264,0
3,-1,668014,228783,1346432,68572,8273,673247,0
3,2,706381,247464,1356150,73988,10087,677847,0
3,-1,641583,218933,1185103,65645,7584,592563,0
3,2,707654,248958,1417486,74671,9013,708615,0
3,2,714953,251000,1414992,75449,9786,707315,0
3,-1,639382,219503,1290894,65925,7440,645503,0
3,2,704258,247327,1335634,73971,8251,667646,0
3,-1,642882,219139,1243607,65839,9042,621711,0
3,2,706798,247635,1262867,74078,9220,631348,0
3,2,710850,248279,1424573,74089,9900,712270,0
3,2,715962,250722,1448235,75244,9947,723922,0
4,2,764751,267334,1468949,79014,9430,734509,0
4,-1,694204,237416,1261077,70778,7918,630526,0
4,2,763514,266292,1379000,78585,9327,689498,0
4,-1,692785,237150,1437830,70625,8436,718953,0
4,2,710333,248668,1586059,73899,9310,792289,0
4,2,709801,248484,1337324,73754,10592,668933,0
4,-1,720313,246981,1250438,73615,7289,625127,0
4,2,715342,250040,1577210,74482,10732,788486,0
4,-1,642095,220804,1402167,66706,8390,701047,0
4,2,707611,250576,1441594,74599,9308,720747,0
4,2,707811,248953,1284038,74017,8354,642028,0
4,-1,637619,218421,1309437,65475,9132,654674,0
4,-1,638702,219064,1221201,65742,7815,610597,0
4,2,707308,248293,1257687,73811,8549,628931,0
4,-1,640601,219352,1218860,65858,7739,609264,2
4,2,709198,248728,1326145,73951,9386,663027,0
4,2,708206,248404,1485426,73923,10934,741804,0
4,-1,645382,221018,1326579,66521,8459,663208,0
4,2,729209,252758,1405432,77096,9841,702706,0
4,-1,633008,218861,1188186,65674,7077,594085,0
4,2,716089,250297,1425161,74752,9478,712294,0
4,-1,638672,219822,1362327,66098,7611,680999,0
4,2,710716,250724,1412184,74828,9866,706124,0
4,2,714185,249260,1354749,74002,9740,677508,0
4,-1,635042,218516,1207048,65605,7357,603630,0
4,2,711879,249210,1360968,73873,9132,680200,0
4,2,713546,250313,1418298,74727,9236,709185,0
4,-1,651399,221781,1284817,68582,7874,642457,0
4,2,711639,249062,1429029,74047,10019,714183,0
4,-1,636137,218339,1199541,65544,7042,599802,0
4,2,708836,248242,1412844,73877,9491,706455,0
4,2,713982,249934,1425808,74665,9407,712907,0
4,-1,638097,218556,1289566,65630,8242,644795,0
4,2,716069,249481,1477805,74482,10421,738809,0
4,2,712189,248787,1414155,74121,9547,707051,0
4,-1,641455,220820,1264744,66612,8079,632206,0
4,2,705640,248543,1415296,73980,9549,707216,0
4,2,705465,248592,1434559,73934,9524,717181,0
4,-1,637951,218491,1258077,65654,8351,629029,0
4,2,706337,249453,1397468,74350,9151,698695,0
4,-1,643221,220105,1276648,66420,9030,638225,0
4,2,710630,250018,1435500,74715,9520,717704,0
4,-1,643076,220161,1209750,66259,7482,604808,0
4,2,707428,249271,1420482,74409,9012,710247,0
4,-1,640797,219213,1520747,65820,9690,760397,0
4,2,729176,252987,1313246,77289,9391,656586,0
4,2,708587,248911,1416026,74007,8924,708039,0
4,-1,639862,218444,1235248,65555,8002,617650,0
4,2,709030,248584,1397476,73936,9148,698731,0
4,-1,659784,223859,1303887,69094,8869,651924,0
4,2,709289,249054,1485736,74102,9792,742815,0
4,2,707846,248870,1328507,74090,9265,664194,0
4,-1,640254,219186,1348266,65735,9990,673889,0
4,2,707823,248339,1328310,73842,8620,664180,0
4,2,708599,248880,1403300,74051,9078,701488,0
4,-1,639258,219884,1355508,66070,7889,677633,0
4,2,728532,253497,1415468,77363,9878,707774,0
4,2,714370,250325,1432045,74673,9115,716062,0
4,-1,661827,224136,1225258,69256,8813,612591,0
4,2,709736,248934,1396944,73968,9145,698510,0
4,-1,638476,219100,1202493,65998,7770,601302,0
4,2,705263,249759,1227020,74287,7806,613540,0
4,2,706486,248547,1412037,73916,8415,706048,0
4,-1,662710,224192,1323686,69398,9602,661641,0
4,2,729104,253366,1296479,77312,9625,648158,0
4,-1,643508,220761,1300580,66865,8102,650279,0
4,2,709333,248548,1424733,73908,9146,712411,0
4,-1,642329,219572,1328729,66099,7962,664192,0
4,2,707574,249353,1481448,74171,10045,740586,0
4,2,708972,248713,1239835,73968,9061,619890,0
4,2,711422,249744,1418590,74337,8873,709448,0
4,-1,639141,218091,1339113,65718,8488,669599,0
4,2,711202,249237,1451094,74064,9798,725536,0
4,-1,643733,219748,1313826,66126,8290,656793,0
4,2,715345,249196,1370245,73951,9090,685020,0
4,2,709430,249871,1687784,74224,11331,843784,0
4,-1,643938,219365,1211870,66069,7939,605916,0
4,2,714162,250582,1502133,74723,10481,750959,0
4,2,709689,248457,1340117,73715,9122,670033,0
4,-1,633820,219349,1441237,66065,8005,720943,0
4,2,714985,249816,1560610,74225,10242,780354,0
4,2,712556,248988,1556234,73993,10401,778658,0
4,-1,634246,218984,1520009,65882,8920,760011,0
4,2,716103,250876,1489437,74782,9583,744815,0
4,-1,658057,223965,1283224,69357,9214,641566,0
4,2,714941,250594,1412716,74585,9851,706314,0
4,2,720626,251205,1398156,74771,10033,699246,0
4,-1,638612,219473,1256430,66037,7465,628231,0
4,2,708588,249181,1315314,73882,9070,657853,0
4,-1,640048,220329,1290510,66580,7620,645281,0
4,2,709488,249358,1401277,74000,10249,700317,0
4,-1,635283,219102,1177166,65931,7758,588320,0
4,2,710422,249766,1662556,74081,10168,831312,0
4,-1,638544,219942,1284482,66247,8086,642248,0
4,2,714597,250425,1407667,74376,9318,703878,0
4,2,709237,248674,1481318,73779,9733,741404,0
4,-1,638069,219687,1150962,66155,7300,575275,0
4,2,717045,251164,1424686,74970,9451,712282,0
4,-1,641665,221018,1436628,66705,8696,718255,0
4,2,716331,250256,1423592,74639,9799,711878,0
4,-1,659790,223649,1266333,69187,7412,633007,0
4,2,706712,248451,1275094,73912,9080,637598,0
4,-1,641866,220301,1122364,66288,7577,561151,0
4,2,714223,250523,1430701,74706,9444,715439,0
4,2,711678,249576,1345314,74143,8874,672587,0
4,-1,636847,220132,1203422,66168,7584,601919,0
4,2,714115,249050,1304568,74040,9513,652334,0
4,2,708072,248842,1409222,74016,9556,704648,0
4,-1,638895,219937,1276868,66195,8099,638451,0
4,2,713466,248985,1323472,74074,9562,661706,0
4,2,719194,250942,1448467,74743,9784,724370,0
4,2,711704,248839,1495950,73776,10233,747785,0
4,-1,636415,219251,1180711,65944,7805,590281,0
4,2,712846,248510,1327574,73605,8635,663731,0
4,-1,637854,219959,1277379,66110,7797,638748,0
4,2,731354,253959,1381281,77196,9492,690625,0
4,2,712737,248783,1312234,73765,8742,656108,0
4,-1,644708,220340,1274629,66415,8765,637211,0
4,2,711421,248612,1344676,73795,10135,672172,0
4,2,712229,249181,1429899,74222,9635,715141,0
4,-1,642025,219620,1291070,66014,7866,645509,0
4,2,705751,247581,1322037,73391,9240,660954,0
4,-1,639897,219655,1305224,66038,8248,652614,0
4,2,707024,248224,1259116,73659,8650,629547,0
4,-1,640489,219560,1253518,66028,7283,626795,0
4,2,710408,248214,1388813,73673,9805,694423,0
4,-1,643453,220371,1364495,66274,8052,682301,0
4,2,715681,248767,1505993,73869,9421,753001,0
4,-1,639113,219375,1180460,65928,7508,590262,0
4,-1,648389,222294,1384367,67232,8061,692274,0
4,2,712518,248746,1465070,73839,9150,732440,0
4,-1,639356,219134,1209185,65845,7122,604651,0
4,2,710791,248250,1247333,73630,8888,623496,0
4,2,735564,252795,1412458,76898,9837,706199,0
4,-1,663322,223780,1250073,69104,8473,625046,0
4,2,710675,248771,1310844,73775,8710,655387,0
4,-1,636732,219761,1371205,66097,7783,685642,0
4,2,714653,249041,1445077,73876,9373,722391,0
4,2,713883,248169,1499616,73596,9952,749876,0
4,2,714040,248574,1466825,73622,9074,733278,0
4,2,703330,248879,1519391,73412,10269,759620,0
4,2,705842,248344,1276445,73193,8716,638244,0
4,2,706379,248778,1476362,73354,9324,738250,0
4,2,705136,248682,1386526,73330,9676,693312,0
4,-1,658317,223825,1224740,69161,7687,612338,0
4,2,731136,253642,1475065,77182,10362,737425,0
4,2,704157,248511,1340571,73355,9269,670279,0
4,-1,638169,219635,1318420,66020,7393,659277,0
4,2,704665,247696,1324150,73060,8840,662032,0
4,2,707607,248081,1390580,73981,10235,695484,0
4,-1,638833,219455,1205378,66004,7360,602733,0
4,2,731861,252993,1545119,77505,11446,772330,0
4,2,732145,252771,1461703,77455,10709,730647,0
4,-1,639414,219167,1205452,65887,7295,602783,0
4,2,706140,248080,1409577,74135,9497,704718,0
4,2,707008,248085,1322667,74103,9041,661334,0
4,-1,641663,221279,1288609,66800,7881,644436,0
4,2,710540,247839,1408132,74011,9381,704065,0
4,-1,641283,220386,1172099,66295,6844,586109,0
4,2,707032,248559,1343297,74144,10373,671550,0
4,2,711825,249205,1437194,74699,9723,718445,0
4,-1,639413,219492,1236246,66024,6822,618140,0
4,2,711163,248021,1323908,74099,9347,661894,0
4,2,710307,248200,1415533,74113,10030,707704,0
4,2,712286,248523,1443671,74194,9672,721797,0
4,-1,642562,220761,1272635,66563,8303,636035,0
4,2,706447,248126,1333996,74101,9390,666991,0
4,-1,643244,220323,1288331,66260,7979,643939,0
4,2,710030,247937,1484395,73932,9554,742144,0
4,2,709639,248836,1436296,74362,9524,718020,0
4,-1,644962,221276,1267817,66766,7487,633966,0
4,2,708464,248879,1426305,74328,9311,713136,0
4,2,710339,247758,1287664,73989,9141,643827,0
4,-1,641937,221723,1248514,66861,7697,624331,0
4,-1,662366,224750,1264662,69353,8422,632267,0
4,2,710490,247789,1441288,73969,10182,720800,0
4,2,708151,248119,1328049,73924,9660,664052,0
4,-1,640770,219451,1229101,65878,7487,614527,0
4,2,712785,249821,1307944,74921,9611,653887,0
4,2,711411,248767,1453549,74232,9480,726758,0
4,-1,639033,219449,1270081,65923,7723,635046,0
4,2,733402,253134,1494488,77393,10858,747206,0
4,2,710966,248047,1298064,73967,9588,649067,0
4,-1,637781,218081,1254752,65375,7324,627380,0
4,2,710621,247920,1430107,73924,9626,715058,0
4,2,737587,253546,1557942,77542,11067,778950,0
4,-1,645706,221171,1420259,66601,7405,710289,0
4,2,713189,248536,1315295,74109,9327,657671,0
4,2,712249,248191,1631607,73984,10275,814122,0
4,-1,664745,223946,1284559,69114,9133,642240,0
4,2,708105,249501,1224412,74619,8850,612266,0
4,2,712627,249522,1405530,74552,9494,702332,0
4,-1,640698,219606,1227308,65844,7941,613661,0
4,2,708143,248964,1298717,74380,9627,649412,0
4,-1,641650,220166,1306846,66209,7557,653446,0
4,2,716203,250485,1289370,75234,9148,644740,0
4,2,712197,249208,1410960,74570,9255,705504,0
4,2,732823,253957,1382675,77802,11516,691285,0
4,-1,652314,222356,1231168,67230,8196,615566,0
4,2,715502,249507,1475759,74529,10539,737843,0
4,2,718494,250199,1429339,74795,9599,714625,0
4,2,713780,249105,1436133,74401,9058,718090,0
4,-1,645035,219819,1197194,66153,7266,598656,0
4,2,719652,250321,1451926,74788,9959,726040,0
4,-1,648713,220857,1240716,66181,8899,620411,0
4,2,716012,250072,1491642,74528,9793,745747,0
4,-1,645518,221612,1284133,66681,8960,642118,0
4,2,715158,249370,1535887,74300,10275,768059,0
4,2,717066,250123,1402252,74654,9188,701164,0
4,-1,645571,221005,1449783,66295,8464,724397,0
4,2,714456,248964,1471365,74267,10073,735733,0
4,-1,664635,225836,1357167,69638,9089,678551,0
4,2,717768,250164,1424958,74843,9808,712435,0
4,-1,646111,221364,1335323,66713,8634,667474,0
4,2,731189,253724,1489526,77642,10769,744628,0
4,-1,641117,220181,1374629,66018,8117,687361,0
4,2,712683,249436,1280586,74484,9567,640061,0
4,2,715398,249906,1363663,74700,9234,681748,0
4,-1,641735,219895,1407924,66087,8466,703872,0
4,2,720843,251718,1466457,75433,10034,732649,0
4,2,714418,249332,1420984,74533,10344,710385,0
4,-1,640330,219089,1186625,65769,7637,593313,0
4,2,712885,249102,1333765,74427,9673,666664,0
4,2,716513,249676,1532855,74633,10014,766494,0
4,2,718295,249261,1446469,74359,10570,723209,0
4,-1,639477,219590,1383397,65926,9383,691698,0
4,2,716485,249003,1303389,74252,10315,651771,0
4,-1,637816,218694,1200323,65539,7569,600215,0
4,2,711784,248571,1316814,74093,9636,658460,0
4,2,713455,248579,1349708,74097,9988,674842,0
4,-1,645352,220937,1299790,66586,8544,649967,0
4,2,711130,248436,1336126,74045,8738,668072,0
4,-1,644421,219349,1299381,65957,8276,649747,0
4,2,736023,253847,1483447,77696,11158,741644,0
4,2,713810,248109,1392228,74062,9903,696017,0
4,-1,637608,219076,1419554,65724,8901,709632,0
4,2,710720,247981,1350417,74238,9635,675202,0
4,2,713910,248252,1353629,74304,9990,676728,0
4,-1,638151,218865,1187230,65639,7458,593659,0
4,2,730175,253415,1483066,77763,10363,741491,0
4,-1,642006,219267,1246282,65778,8429,623197,0
4,2,710055,248766,1313780,74473,10042,656818,0
4,2,713041,249782,1470581,74916,9765,735274,0
4,-1,662016,224422,1299981,69333,7999,649973,0
4,2,709728,248256,1329101,74254,8962,664523,0
4,-1,638715,218324,1250165,65467,8795,625124,0
4,2,706901,248032,1304920,74249,9525,652367,0
4,2,709369,248103,1348736,74148,9395,674242,0
4,-1,644506,221271,1326303,66744,8113,663085,0
4,2,731130,253374,1451878,77632,9897,725943,0
5,2,763208,266776,1390284,78790,9406,695143,0
5,-1,690382,236838,1346488,70560,7826,673266,0
5,2,768967,268041,1486037,79397,10444,742922,0
5,-1,691422,236894,1369863,70573,7851,684935,0
5,2,717826,252069,1444117,74541,9980,722113,0
5,2,712191,248981,1397782,73912,9312,698805,0
5,-1,689601,236966,1250543,70614,7774,625183,0
5,2,708606,247951,1346203,73574,8945,673047,0
5,-1,640514,218683,1496400,65633,8314,748170,0
5,2,716658,250488,1449126,74692,10357,724476,0
5,-1,637945,219278,1398278,65884,8007,699132,0
5,2,703929,247825,1294251,73637,8789,647171,0
5,-1,639395,218902,1281010,65608,8375,640563,0
5,2,707785,247919,1276487,73690,9188,638240,0
5,2,712463,249947,1551222,74522,11363,775665,0
5,2,711139,250507,1451666,74772,10258,725703,0
5,-1,636660,217836,1192724,65263,7670,596137,0
5,-1,637518,218566,1283346,65576,8653,641725,2
5,2,712553,250391,1453311,74782,10155,726717,0
5,-1,642058,219098,1283022,65707,7944,641593,0
5,2,710449,249568,1412778,74381,9087,706230,0
5,-1,638848,220325,1345380,66522,7835,672473,0
5,2,712521,248187,1380673,73816,9202,690441,0
5,-1,639704,220214,1257281,66424,8024,628509,0
5,2,710706,248838,1452902,73951,9401,726285,0
5,2,732272,253745,1404892,77233,10306,702528,0
5,2,731609,253561,1366977,77273,9888,683444,0
5,-1,635214,218777,1269966,65784,7989,635082,0
5,2,711124,248656,1461264,73944,10107,730534,0
5,-1,636687,218526,1307493,65648,7326,653535,0
5,2,706950,248344,1383775,73911,9324,691926,0
5,2,710175,247937,1398268,73743,9122,699107,0
5,-1,640336,218833,1172469,65730,7989,585675,0
5,2,712181,248474,1348051,74014,9995,673988,0
5,2,713307,248589,1445683,74057,9659,722740,0
5,2,704846,249523,1285865,74333,8532,642940,0
5,-1,634965,218645,1233799,65670,7661,616803,0
5,2,708672,249878,1556887,74468,10528,779125,0
5,-1,636885,219105,1186664,65799,7451,593319,0
5,2,724844,252944,1302684,77279,9721,651351,0
5,-1,641255,219024,1199003,65822,7485,599546,0
5,2,706859,249050,1322148,74227,8552,661059,0
5,-1,638220,218989,1286716,65835,7629,643190,0
5,2,706514,248521,1418062,74024,10036,709028,0
5,-1,640936,219268,1244222,65940,7871,622139,0
5,2,708699,248591,1428424,73976,8769,713696,0
5,2,706916,248687,1407424,73984,8950,703585,0
5,-1,643800,219436,1293318,65870,8657,646586,0
5,2,711391,248749,1408886,74034,9320,704432,0
5,-1,638764,219582,1290955,65869,7824,645262,0
5,2,707775,248752,1401060,73982,8925,700501,0
5,-1,663537,224704,1371183,69348,8809,685581,0
5,2,708224,247969,1408506,73644,9010,704123,0
5,2,713670,251225,1423314,75120,9779,711576,0
5,2,708140,249072,1401643,74064,9162,700800,0
5,-1,640636,218765,1320517,65660,8057,660228,0
5,2,708607,248596,1419822,73907,9464,709888,0
5,2,715467,251079,1428503,75093,9914,714230,0
5,-1,640907,219941,1307026,66133,7916,653435,0
5,2,714431,250400,1442884,74742,9162,721486,0
5,-1,644061,219512,1357669,66070,8173,678737,0
5,2,715509,248736,1331855,73917,9246,665966,0
5,2,729189,253655,1480984,77332,9244,740455,0
5,-1,666494,228083,1357032,68580,8428,678516,0
5,2,708074,248730,1251987,73993,8614,626034,0
5,-1,660114,223736,1263080,69295,8413,631520,0
5,2,705951,248136,1465351,73687,8944,732736,0
5,2,710247,248896,1383037,74036,8935,691556,0
5,-1,642002,218921,1235372,65861,7606,617620,0
5,2,706564,247909,1371950,73633,9096,685994,0
5,-1,644799,221007,1370341,66876,8606,685204,0
5,2,711552,249044,1392323,73985,9098,696194,0
5,2,716610,251598,1377934,75188,10303,688584,0
5,-1,647403,221726,1300868,67172,8613,650423,0
5,2,711631,248545,1334472,73825,8707,667269,0
5,2,716496,251593,1519260,75112,10435,759302,0
5,-1,641520,218668,1280069,65801,8134,640040,0
5,2,710345,248732,1530185,73781,9910,765110,0
5,2,715133,250598,1493224,74634,10047,745595,0
5,-1,632099,218704,1264856,65810,8097,632453,0
5,2,713206,248571,1497360,73752,9236,748687,0
5,2,711722,249162,1498025,74027,11105,748971,0
5,-1,660658,223831,1268844,69256,9244,634189,0
5,2,714294,250393,1396131,74541,8899,698027,0
5,-1,639326,219486,1373630,66093,8196,686957,0
5,2,717723,249347,1341485,74151,8740,670653,0
5,2,713191,249263,1353604,73916,9763,676617,0
5,-1,638832,220572,1323334,66677,7469,661658,0
5,2,731019,254109,1505325,77320,10955,752642,0
5,-1,635411,218889,1186849,65927,7918,593440,0
5,2,714584,251052,1355830,74745,9746,677740,0
5,-1,644204,220462,1331730,66601,8810,665696,0
5,2,733337,254908,1514442,77590,10537,757208,0
5,-1,637700,218504,1272464,65746,6750,636190,0
5,2,714556,249712,1470838,74143,9593,735466,0
5,2,729949,253651,1341610,77225,9819,670824,0
5,-1,641999,219966,1159639,66251,7938,579664,0
5,2,709931,248987,1412750,73994,9495,706242,0
5,-1,640674,220886,1296057,66771,8219,648058,0
5,2,734336,253692,1393400,77252,9827,696729,0
5,-1,639635,219687,1263422,66092,7636,631686,0
5,2,717212,250189,1405557,74620,9610,702789,0
5,-1,639180,219087,1208755,65858,8015,604409,0
5,2,707131,248277,1294009,73665,8229,647032,0
5,2,707846,248533,1446156,73749,9681,723124,0
5,-1,637644,220942,1270660,66749,7987,635349,0
5,2,711426,248379,1417976,73794,9994,709037,0
5,2,705922,248375,1796253,73846,11260,898018,0
5,-1,639351,220291,1326688,66279,8931,663216,0
5,2,734003,253370,1508151,77230,10414,754123,0
5,2,712195,248540,1412627,73728,8216,706321,0
5,2,712551,248631,1451103,73643,9403,725527,0
5,-1,657521,223737,1175912,69185,7796,587819,0
5,2,714437,248926,1413915,73790,10088,706964,0
5,-1,636739,219393,1214296,65989,6976,606991,0
5,2,715270,250232,1595399,74282,10337,797644,0
5,2,710131,248872,1444613,73764,9495,722393,0
5,-1,639435,219284,1214435,65906,8478,607151,0
5,2,714704,250410,1326147,74600,9678,662931,0
5,2,710140,248728,1434770,73823,9679,718289,0
5,-1,641596,219886,1187393,66143,6910,593674,0
5,2,709777,248377,1372578,73681,9730,686257,0
5,-1,638583,219573,1260081,65985,7234,630076,0
5,2,712442,248487,1295941,73773,9084,647921,0
5,-1,638265,219353,1320074,65919,6963,660132,0
5,2,714363,249891,1340304,74335,9548,670084,0
5,2,714134,249036,1249035,73958,9074,624410,0
5,-1,640126,219219,1344188,65790,6833,672147,0
5,-1,642421,220722,1276456,66594,8021,638434,0
5,2,710032,248246,1301030,73697,8946,650467,0
5,-1,660697,223915,1246519,69280,7984,623271,0
5,-1,661341,224469,1233953,69429,7801,616951,0
5,2,710581,248221,1492947,73688,9547,746508,0
5,-1,641928,219537,1282809,65979,8018,641378,0
5,2,714642,248514,1404898,73768,9560,702368,0
5,2,715147,249174,1379763,73986,9532,689900,0
5,-1,641828,220914,1302798,66607,7803,651356,0
5,2,720809,250772,1305688,74748,9047,652747,0
5,2,711552,248372,1510831,73569,9569,755177,0
5,2,710879,247664,1454934,73312,9015,727497,0
5,2,704148,248261,1555465,73149,9333,777460,0
5,2,703345,248080,1312899,73064,9085,656537,0
5,2,732025,257421,1382109,75850,8808,690956,0
5,-1,640391,220127,1277922,66212,7906,639004,0
5,2,709527,249674,1360762,73640,9105,680420,0
5,2,707653,248400,1327080,73213,8975,663279,0
5,2,702871,247732,1373771,73007,9715,686798,0
5,-1,636104,219211,1260005,65923,6700,630046,0
5,2,715219,251672,1363324,74765,9314,681322,0
5,2,728193,253675,1509501,76820,10650,754670,0
5,-1,640258,220131,1208976,66174,7016,604360,0
5,2,711121,249029,1513108,74411,10972,756333,0
5,2,711834,248443,1307870,74140,9425,653984,0
5,-1,645300,221482,1336700,66848,8368,668374,0
5,2,709026,247749,1313445,73990,9559,656577,0
5,2,711463,250407,1316773,75157,8952,658366,0
5,-1,646146,220644,1336403,66566,8155,668233,0
5,2,705308,247434,1435354,73906,9572,717665,0
5,-1,643459,219735,1201507,65999,7582,600801,0
5,2,714744,249247,1310555,74508,9229,655197,0
5,2,706055,247688,1483395,73971,9790,741651,0
5,-1,639831,220012,1348682,66415,7504,674394,0
5,2,709530,247921,1532823,74007,10334,766397,0
5,2,713254,249721,1466845,74847,10228,733372,0
5,2,709808,247932,1413845,74095,9752,706586,0
5,-1,640443,219379,1321448,65818,7569,660671,0
5,2,708619,249410,1407301,74547,9801,703696,0
5,2,712087,248955,1354127,74401,9416,677046,0
5,-1,639932,218901,1235901,65776,6888,617987,0
5,2,707872,248146,1470418,74094,8817,735178,0
5,-1,642781,220121,1338473,66094,7856,669290,0
5,2,728780,252840,1439179,77484,10476,719590,0
5,-1,642500,219262,1291692,65717,7674,645901,0
5,2,712295,248597,1292090,74211,9935,646073,0
5,-1,640341,220665,1322878,66436,7625,661379,0
5,2,719846,251073,1406980,75466,9138,703212,0
5,2,715218,248325,1397450,74044,9085,698772,0
5,-1,641506,219636,1274123,65850,8255,637001,0
5,2,712190,249443,1442619,74706,9862,720176,0
5,2,710401,248483,1316494,74135,9495,658069,0
5,-1,639812,220154,1300751,66038,7650,650387,0
5,2,710893,248536,1445005,74057,9193,722445,0
5,2,711392,248918,1549462,74261,9787,774440,0
5,-1,661639,224259,1210419,69199,8276,605173,0
5,2,733068,253220,1506391,77453,10422,752965,0
5,2,714984,249172,1424580,74351,9568,712322,0
5,-1,642146,219984,1327597,65929,7357,663789,0
5,2,710908,247720,1496940,73738,9583,748497,0
5,2,714765,248791,1456548,74177,10230,728326,0
5,-1,643106,219735,1366434,65882,7781,683186,0
5,2,709002,248614,1294501,74124,9496,647297,0
5,2,708639,248399,1479772,74110,10156,740064,0
5,-1,640266,219448,1648742,65843,9393,824318,0
5,2,714466,249798,1334632,74728,9819,667357,0
5,-1,639410,219782,1207915,66056,7083,603956,0
5,2,715199,249422,1388292,74595,8988,694197,0
5,2,713931,249832,1413182,74775,9719,706633,0
5,2,715302,249042,1426358,74324,9644,713215,0
5,-1,668037,225116,1223388,69628,8558,611738,0
5,2,711969,248870,1361942,74295,10111,681011,0
5,2,719863,250436,1347916,75068,9789,673874,0
5,-1,649622,221977,1360020,67101,8548,680221,0
5,2,717357,250884,1405253,75216,9138,702878,0
5,2,718208,250916,1323517,75154,9231,661738,0
5,-1,647345,220880,1192926,66253,8371,596452,0
5,2,720601,251106,1340888,75114,10169,670618,0
5,-1,640899,220272,1340805,66012,7947,670445,0
5,2,717174,250903,1497136,75176,10710,747265,0
5,2,714546,249142,1413138,74313,9354,706509,0
5,-1,642974,219987,1388304,65915,8895,694169,0
5,2,717427,250572,1500493,75112,10110,750032,0
5,-1,642200,220202,1255621,66011,8028,627775,0
5,2,718265,249597,1541051,74524,10540,770707,0
5,-1,640112,219890,1347610,65972,8622,673799,0
5,2,713388,248935,1394783,74301,10030,697298,0
5,-1,645305,219873,1189476,66059,7592,594791,0
5,2,708759,248268,1389495,74051,10098,694737,0
5,2,714890,249671,1440054,74548,9387,720017,0
5,-1,641779,220494,1293524,66482,8321,646863,0
5,2,715218,250224,1375340,74770,8892,687543,0
5,2,715260,249962,1406219,74622,10190,703023,0
5,-1,640821,219668,1320858,65998,7863,660281,0
5,2,715886,250393,1379081,75058,9989,689191,0
5,2,713524,248671,1452318,74270,9798,726136,0
5,2,720393,251085,1418478,75272,9944,709257,0
5,-1,645662,219798,1440972,66017,9718,720423,0
5,2,735803,253962,1401887,77688,10526,700838,0
5,-1,641759,219324,1195524,65893,7988,597760,0
5,2,714532,249096,1335758,74218,9303,667811,0
5,2,713203,248442,1352015,74142,9416,676089,0
5,-1,639857,218820,1171979,65637,7344,586025,0
5,2,712580,248704,1337884,74130,9467,669111,0
5,-1,644344,219554,1225247,65979,8172,612537,0
5,2,711337,248234,1398877,74128,9847,699292,0
5,2,713383,248130,1357406,74052,9960,678602,0
5,-1,636906,219147,1325598,65866,8547,662567,0
5,2,714263,248422,1418134,74304,9232,709120,0
5,2,713814,247457,1472100,74007,10630,736130,0
5,-1,637478,218636,1283178,65573,7659,641647,0
5,2,704117,247512,1407667,73998,9499,704104,0
5,-1,646428,221162,1225734,66626,8444,612875,0
5,2,706054,247686,1427757,74073,9033,713954,0
5,2,708000,248276,1426796,74312,9063,713316,0
5,-1,641350,220012,1189496,66056,7554,594800,0
5,2,730874,252483,1434407,77491,9444,717209,0
5,-1,647267,221346,1206314,66808,8797,602525,0
5,2,705698,247615,1259273,74039,8274,629516,0
5,2,712878,249698,1415699,74831,8852,707669,0
5,-1,637896,218712,1342466,65682,8662,671273,0
5,2,708091,248301,1320386,74180,8402,660176,0
6,-1,697668,239767,1331078,71787,8066,665504,0
6,2,760964,266423,1381210,78663,8864,690621,0
6,2,769060,269707,1598557,80092,10192,799222,0
6,-1,694021,237354,1274886,70737,8993,637419,0
6,2,760872,266302,1488824,78605,9647,743720,0
6,2,707843,247683,1361766,73503,9482,680687,0
6,-1,688522,237026,1168606,70679,7049,584307,0
6,2,730555,253170,1429878,77112,9807,714925,0
6,2,715256,250248,1490108,74508,10233,744895,0
6,-1,639661,219811,1382960,66057,8174,692107,0
6,-1,637764,218596,1352938,65697,7057,676481,0
6,2,707098,248544,1313998,73889,8722,656914,0
6,-1,639921,219168,1261548,65723,7439,630815,0
6,2,725421,252664,1396926,77040,9256,698337,0
6,2,706701,247662,1521886,73582,10170,760688,0
6,2,724875,252407,1474542,76930,10955,737198,0
6,-1,637821,218686,1292667,65633,8176,646653,0
6,2,706622,247803,1390630,73618,9887,695336,0
6,-1,641688,218825,1290334,65599,8683,645169,0
6,-1,632458,218668,1185397,65749,7198,592559,2
6,2,708027,248463,1415355,73976,8857,707600,0
6,-1,655768,223480,1299015,69061,8356,649425,0
6,2,711434,247814,1457210,73635,9922,728668,0
6,-1,634020,218369,1213498,65565,7571,606794,0
6,2,710113,248805,1464437,73858,10004,732228,0
6,2,714564,250207,1338740,74435,10290,669352,0
6,2,705042,247309,1404366,73496,9059,702161,0
6,-1,637974,218633,1203935,65662,7128,601850,0
6,2,715598,249786,1416137,74492,9976,708037,0
6,-1,641873,221161,1577904,66788,9326,788679,0
6,2,708111,249270,1482457,74297,9311,741230,0
6,-1,645975,221700,1289419,67047,8650,644672,0
6,2,712323,249310,1441816,74282,9211,720796,0
6,2,711326,248663,1410330,74061,9424,705060,0
6,2,730460,253035,1347279,77283,10072,673502,0
6,2,714527,248055,1412601,73823,8930,706302,0
6,-1,635505,218525,1173527,65646,7216,586773,0
6,2,701993,247842,1409946,73702,9435,704807,0
6,-1,639878,218961,1297405,65747,7652,648701,0
6,2,704123,248677,1373898,73977,9014,686768,0
6,-1,637067,218482,1345822,65555,8337,672838,0
6,2,707167,248859,1418419,74167,8655,709116,0
6,-1,660646,223359,1260332,69055,8586,629963,0
6,2,726446,253076,1400799,77243,10668,700324,0
6,-1,641374,219585,1233689,65985,7858,616918,0
6,2,706351,248557,1310540,74055,8070,655163,0
6,2,707714,248703,1419272,73965,8924,709581,0
6,-1,642926,219410,1154044,65821,7758,576872,0
6,2,736618,254768,1350359,78253,10269,674995,0
6,-1,636814,219151,1222419,65747,8172,611161,0
6,2,708237,249295,1385829,74141,9124,692930,0
6,2,708452,249393,1710300,74223,11478,855138,0
6,-1,637317,218974,1228657,65710,7755,614347,0
6,2,729701,253325,1399432,77297,9353,699599,0
6,2,710879,248838,1451688,74102,11304,725771,0
6,-1,640318,219039,1174703,65774,7155,587337,0
6,2,707425,247854,1323173,73636,8696,661548,0
6,2,730070,253250,1356113,77270,9699,678368,0
6,-1,642522,220234,1226602,66200,7618,613362,0
6,2,712208,250263,1333782,74705,9105,666969,0
6,-1,644398,220073,1413968,66424,8296,706440,0
6,2,712126,249401,1366981,74237,9145,683551,0
6,2,707259,248611,1313911,73928,8616,657006,0
6,-1,638493,219058,1192489,65947,7348,596343,0
6,2,706253,248487,1298773,73924,7904,649315,0
6,-1,637814,219037,1250747,65972,7374,625357,0
6,2,708901,248995,1424517,74068,8802,712298,0
6,-1,641224,219079,1291684,65918,7679,645808,0
6,2,713465,250516,1481558,74761,9379,740806,0
6,2,709467,249233,1373310,74152,8946,686698,0
6,-1,640607,219114,1292703,65946,8228,646281,0
6,2,709826,248733,1353008,74016,8545,676585,0
6,2,732323,253283,1355433,77173,9651,677992,0
6,-1,645141,219579,1276647,66053,8056,638287,0
6,2,712605,249095,1350624,73935,8878,675342,0
6,2,708646,249031,1480276,73984,9683,740073,0
6,-1,643637,219234,1182546,65925,7807,591252,0
6,2,707513,248624,1373613,73751,8811,686711,0
6,2,709053,248780,1407563,73812,9396,703749,0
6,-1,635373,220427,1272882,66594,7548,636520,0
6,2,738134,255096,1443817,78216,10733,721949,0
6,-1,637248,219030,1361045,65950,8216,680536,0
6,2,717769,251373,1666369,75076,10781,833107,0
6,-1,640902,220499,1466395,66645,9160,732367,0
6,2,712708,249671,1388823,74231,9972,694306,0
6,2,713917,249351,1312772,74232,8516,656050,0
6,2,723633,252205,1452977,75181,9734,726563,0
6,-1,635367,219044,1346867,65973,7412,673422,0
6,2,711765,250910,1502073,74490,10442,751066,0
6,-1,634855,218618,1281038,65704,7560,640551,0
6,2,739226,259600,1546440,77031,9757,772917,0
6,2,711863,249200,1465456,73838,9287,732776,0
6,-1,638723,219179,1218630,66033,7957,609051,0
6,-1,637775,218958,1344756,65897,7310,672362,0
6,2,714615,250365,1717045,74401,10084,858598,0
6,2,712167,250168,1399664,74317,9768,699882,0
6,-1,637723,218777,1203099,65804,7742,601559,0
6,-1,642980,219605,1294441,66066,7791,647234,0
6,2,710929,249458,1518424,74018,9939,759195,0
6,2,708589,247753,1324807,73471,9012,662432,0
6,-1,640183,220096,1397398,66158,7965,698641,0
6,2,711533,248728,1342410,74000,9122,671114,0
6,-1,638020,219008,1139300,65784,7444,569622,0
6,2,713368,249003,1587102,73990,9779,793600,0
6,2,713297,251089,1412243,74943,10000,706170,0
6,-1,656234,224007,1215767,69274,7477,607826,0
6,2,711312,248388,1455794,73763,10099,727937,0
6,2,711760,247910,1266444,73645,9421,633279,0
6,-1,658283,224359,1238943,69392,7444,619335,0
6,2,713671,249691,1584108,74207,10452,792035,0
6,2,711998,248744,1590853,73917,11079,795214,0
6,2,717133,251333,1442819,74730,9943,721376,0
6,-1,637055,219311,1264237,65902,7233,632033,0
6,2,716183,250053,1432613,74357,9498,716275,0
6,2,708754,249680,1357125,73998,8864,678464,0
6,-1,636807,219440,1280546,65966,7203,640259,0
6,2,716013,250662,1526416,74666,9524,763197,0
6,-1,638726,219190,1498937,65883,9615,749521,0
6,2,709420,248355,1495972,73650,9479,747948,0
6,2,705979,247610,1474756,73380,9722,737326,0
6,-1,658090,223698,1229143,69158,8024,614554,0
6,2,705434,248225,1335686,73673,9093,667865,0
6,-1,639380,220082,1181868,66240,7159,590834,0
6,2,719400,250732,1274126,74682,9502,636981,0
6,-1,640213,219723,1306183,66034,7331,653136,0
6,2,708929,248035,1465495,73586,9483,732784,0
6,-1,641974,219935,1265169,66142,7046,632616,0
6,2,712983,248246,1337601,73642,9804,668749,0
6,-1,638283,219630,1180533,65990,6914,590373,0
6,2,714210,250068,1442721,74565,9085,721361,0
6,-1,636005,217797,1259756,65511,7642,629925,0
6,-1,640370,219452,1259984,66001,7516,630035,0
6,2,712418,248836,1422021,73900,9030,711041,0
6,-1,641986,219236,1302316,65886,8206,651213,0
6,2,714815,248702,1399793,73824,9879,699967,0
6,2,713110,248590,1329766,73788,9215,664801,0
6,-1,637266,219474,1280235,65879,7390,640176,0
6,2,737430,253651,1458138,77190,10753,729059,0
6,2,713265,248729,1458464,73819,9786,729206,0
6,2,735977,252422,1445911,76747,10785,722946,0
6,2,706785,250138,1364593,73974,9015,682075,0
6,2,705566,248675,1305877,73328,8730,652984,0
6,2,707443,249311,1381412,73531,9300,690616,0
6,-1,637762,219540,1244458,65952,7180,622276,0
6,2,706243,248700,1401492,73326,9339,700722,0
6,2,707574,248757,1294629,73298,9096,647265,0
6,2,702970,248209,1495068,73158,9595,747389,0
6,-1,636968,219544,1276148,65978,7342,638142,0
6,2,703950,247798,1352244,73158,9647,676044,0
6,2,704290,248390,1443329,73328,9749,721726,0
6,-1,638754,219419,1164081,65988,7173,582095,0
6,2,709313,248534,1363936,74238,10127,681899,0
6,2,708513,247848,1401625,74004,10160,700852,0
6,-1,637239,218953,1213335,65844,7354,606735,0
6,2,708347,248671,1394138,74278,9802,696973,0
6,2,710157,248520,1478667,74284,9191,739332,0
6,-1,641369,219145,1171812,65785,7575,585960,0
6,2,708788,248834,1322178,74311,9387,660969,0
6,2,712434,248764,1507184,74300,9441,753587,0
6,-1,641451,219776,1281415,66052,8059,640772,0
6,2,729622,252828,1474960,77483,10340,737495,0
6,-1,642360,219994,1176392,66182,7056,588250,0
6,2,710678,248478,1508714,74239,9707,754316,0
6,2,709030,248497,1462863,74269,9361,731419,0
6,2,710491,248342,1448190,74137,10148,724091,0
6,-1,658035,223776,1281015,69168,7351,640564,0
6,2,708064,249304,1360315,74715,9677,680145,0
6,2,708726,248000,1316386,74049,9958,658124,0
6,-1,644039,220679,1377093,66602,7553,688557,0
6,2,707206,247866,1383133,74030,9124,691571,0
6,-1,641112,219493,1258682,65804,7289,629391,0
6,2,710567,247383,1284637,73865,9248,642317,0
6,-1,645985,220476,1342613,66369,8710,671360,0
6,2,730771,252295,1349755,77208,10583,674768,0
6,2,708971,247490,1393479,73875,9045,696442,0
6,-1,640897,219198,1328394,65754,7825,664205,0
6,2,717773,249702,1496496,74679,10915,749091,0
6,-1,662528,224638,1239924,69354,8148,619998,0
6,2,706007,247854,1414650,73963,10762,707092,0
6,2,712984,248008,1389562,73995,9839,694742,0
6,-1,636365,218971,1256658,65598,7695,628283,0
6,2,710014,249020,1430453,74293,10287,715191,0
6,2,714881,250027,1302558,74952,8462,651102,0
6,-1,643909,220258,1303750,66107,8837,651773,0
6,2,708784,247863,1345987,73863,9714,673024,0
6,2,714749,248678,1347550,74191,8968,673817,0
6,-1,642090,219275,1225898,65747,7480,612965,0
6,2,732688,252982,1473991,77324,10010,736944,0
6,2,716992,250322,1385814,74970,10402,693639,0
6,-1,645516,221021,1323075,66548,8171,661637,0
6,2,712534,250752,1312519,75094,9703,656254,0
6,2,730143,252404,1511901,77312,10708,755655,0
6,-1,661134,224211,1544390,69171,9456,771807,0
6,2,743321,260882,1386273,78368,9939,692898,0
6,-1,644856,220133,1278913,66213,8489,639437,0
6,2,714549,249637,1428157,74647,8566,714116,0
6,2,714938,249800,1409730,74749,9144,704819,0
6,-1,646336,220428,1169165,66318,7053,584524,0
6,2,715675,249537,1324641,74627,9406,662127,0
6,2,713806,249814,1432011,74678,10190,715958,0
6,2,717149,249852,1439083,74652,10427,719530,0
6,-1,666022,224722,1387422,69525,8700,693472,0
6,2,714181,251152,1341452,75449,9912,670513,0
6,2,715939,250879,1367659,75201,10023,683797,0
6,-1,668103,224901,1265489,69355,8658,632693,0
6,2,713902,248948,1415256,74179,9841,707532,0
6,-1,645475,222460,1270141,67003,8385,635098,0
6,2,732718,253403,1621963,77498,11063,810245,0
6,2,716568,250038,1407377,74820,8614,703590,0
6,-1,648603,222539,1308113,67071,8895,654139,0
6,2,713292,248742,1338205,74263,9511,669137,0
6,-1,645264,221346,1462402,66615,8108,730106,0
6,2,715053,248853,1420293,74236,9550,709943,0
6,2,712587,249066,1342859,74303,9469,671357,0
6,-1,647099,222133,1365463,67034,9174,682663,0
6,-1,645037,220137,1334984,66095,8268,667538,0
6,2,709590,249536,1284800,74462,9645,642312,0
6,2,733393,254237,1606940,77796,10667,803628,0
6,-1,644528,220556,1266914,66197,8257,633498,0
6,2,716736,251392,1288944,75309,9810,644252,0
6,2,712313,248851,1440805,74213,9796,720337,0
6,-1,642501,220351,1331214,66344,8379,665450,0
6,2,720186,251008,1357021,75330,9558,678413,0
6,2,713485,249684,1352531,74657,8998,676271,0
6,-1,644478,219669,1452143,65934,9863,726306,0
6,2,741166,254395,1628362,77791,10893,814191,0
6,2,712012,248611,1422122,74159,8864,711018,0
6,-1,640052,219152,1133166,65773,6975,566578,0
6,2,709821,248323,1458177,74014,9585,729030,0
6,-1,647327,221483,1334131,66760,8153,667117,0
6,2,713246,248939,1341166,74254,9779,670603,0
6,2,713310,249328,1284821,74390,9232,642421,0
6,-1,643003,218692,1327305,65688,8519,663697,0
6,2,710565,247912,1447676,73955,10251,723717,0
6,2,734634,253274,1458665,77541,10591,729073,0
6,-1,636827,218960,1535195,65754,9080,767295,0
6,2,712610,248574,1322190,74400,9355,661022,0
6,2,715533,248448,1342090,74411,10128,671090,0
6,-1,661328,224009,1247072,69148,8451,623551,0
6,2,708180,248137,1357858,74207,8626,678959,0
6,-1,641666,219611,1142577,65920,8001,571253,0
6,2,729834,253005,1452532,77639,10475,726268,0
6,2,710526,249314,1374240,74576,9499,686624,0
6,-1,641028,219011,1349020,65680,8440,674440,0
6,2,709273,247996,1359701,74252,9128,679674,0
6,-1,663077,224363,1190598,69282,8563,595318,0
6,2,708283,247550,1403934,73977,9620,701828,0
6,2,714839,250072,1350649,75109,10748,675459,0
6,-1,648214,221152,1304771,66853,8458,652326,0
6,2,707761,247769,1340836,73942,8656,670346,0
7,-1,691259,237130,1237801,70681,6591,618840,0
7,2,782817,271046,1411662,81964,10029,705735,0
7,2,785266,271430,1502729,82133,11109,751201,0
7,2,781126,271798,1400301,82236,10177,700048,0
7,-1,693810,237265,1341591,70684,8558,670812,0
7,2,708053,248323,1505180,73839,9822,752604,0
7,-1,696090,237145,1288472,70641,7946,644163,0
7,2,715248,250270,1475667,74566,10116,737200,0
7,2,712385,248183,1619052,73626,11110,808994,0
7,-1,684052,235078,1365029,70055,7795,682323,0
7,-1,637622,218457,1334666,65637,8210,667296,0
7,2,703455,247565,1332931,73626,8922,666266,0
7,-1,639697,219125,1465965,65728,9226,732978,0
7,2,709419,249297,1411753,74296,9662,705868,0
7,2,710547,248750,1481044,74004,10291,740605,0
7,2,705151,248538,1407103,73877,9860,703484,0
7,-1,660320,223859,1332937,69096,8830,666241,0
7,2,712850,249957,1572888,74628,10787,786284,0
7,-1,639179,218379,1224702,65439,8223,612355,0
7,2,710668,249828,1419105,74638,8991,709350,0
7,-1,634554,219162,1262438,65832,7771,631292,0
7,-1,634467,218912,1203872,65832,7507,601936,2
7,2,713870,249020,1280045,73969,9410,639955,0
7,-1,635666,219295,1184400,65869,7898,592148,0
7,2,732929,257358,1433082,76394,9389,716499,0
7,-1,640734,220787,1286318,66739,7629,643154,2
7,2,709773,248522,1353312,73732,9567,676702,0
7,2,712084,249520,1334650,74175,8538,667307,0
7,-1,639651,219173,1302339,65891,7702,651163,0
7,2,711006,248355,1293845,73771,8512,646978,0
7,-1,639302,219272,1185567,65821,7420,592661,0
7,-1,637268,219243,1291107,65901,7404,645404,2
7,2,713886,247947,1440269,73800,8997,720430,0
7,-1,635572,218877,1334673,65805,8683,667423,0
7,-1,635677,218690,1228565,65720,7787,614281,2
7,2,712197,248837,1423069,74107,9900,711519,0
7,2,714987,250613,1442672,74897,10110,721103,0
7,-1,639912,218955,1251871,65818,8165,625853,2
7,2,710541,248148,1398139,73869,10157,699032,0
7,-1,633025,218005,1329069,65379,7575,664406,0
7,2,715399,248677,1397582,74093,9383,698819,0
7,-1,639336,220732,1333843,66711,8275,667022,2
7,2,707802,249076,1480418,74134,9843,739744,0
7,-1,660745,223848,1275589,69137,8506,637831,0
7,-1,638338,219634,1206872,66018,8161,603319,2
7,2,709899,248859,1397210,74118,10213,698188,0
7,-1,638185,219248,1316238,65909,8829,657872,0
7,2,706814,249182,1433794,74258,8788,716883,0
7,2,709541,248832,1320712,74108,9199,660345,0
7,-1,639817,219496,1413743,65882,9896,706345,0
7,-1,643540,220654,1328660,66615,9026,664337,0
7,2,711223,250390,1416608,74750,9291,708406,0
7,-1,663063,223602,1214680,68958,9083,607195,0
7,-1,648390,222174,1257214,67035,8606,628539,2
7,2,709835,249911,1387586,74379,8398,693723,0
7,2,714765,250149,1358362,74648,9717,679152,0
7,-1,636256,218869,1271940,65642,8585,635776,0
7,2,709490,249087,1325758,74099,8273,662844,0
7,-1,641654,219906,1306067,65965,7803,653031,2
7,2,708324,248620,1309899,73917,9021,654952,0
7,-1,643199,219714,1268864,65823,7632,634343,0
7,2,709563,249372,1292872,74141,8344,646320,0
7,2,711723,249454,1327422,74234,9617,663649,0
7,-1,641442,220299,1254275,66112,8327,627117,2
7,-1,641831,219220,1263875,65783,7292,631917,0
7,2,733866,253543,1484526,77352,10259,742172,0
7,-1,636540,218919,1190265,65759,7138,595090,2
7,2,707921,248664,1430475,73995,9008,715273,0
7,-1,663105,223812,1237199,69125,8815,618556,0
7,2,729110,253394,1344391,77309,9190,672245,0
7,-1,644504,220929,1390993,66746,7953,694877,0
7,2,732961,253262,1381891,77233,9834,690995,0
7,2,707488,249015,1314155,74091,8401,657105,0
7,-1,638884,218746,1448447,65857,8607,724372,0
7,2,713547,250796,1450525,74925,9149,725143,0
7,-1,641031,218755,1197224,65833,7432,598608,0
7,2,728412,253393,1386950,77298,9963,693472,0
7,-1,641322,219987,1195430,66308,7628,597592,2
7,-1,643556,220298,1320460,66382,7371,660275,0
7,2,707884,248931,1385622,74051,9005,692811,0
7,-1,639961,219494,1211790,66119,8143,605861,0
7,2,707082,248422,1419824,73846,8703,709948,0
7,2,712210,249422,1335469,74210,8250,667879,0
7,2,708366,249202,1527719,74120,8450,764116,0
7,-1,643637,219057,1289477,65916,7352,644728,0
7,-1,641933,219513,1310531,66135,8176,655231,2
7,2,712116,248484,1372727,73756,9119,686403,0
7,2,709160,249320,1437210,73996,8974,718537,0
7,-1,647787,220830,1326144,66821,8766,663000,0
7,2,710003,248801,1465617,73891,9921,732603,0
7,-1,641116,218749,1316263,65841,7464,658189,2
7,2,711882,249882,1424883,74258,9303,712440,0
7,-1,637345,218992,1171436,65927,6591,585680,0
7,2,712666,248708,1395257,73797,8724,697510,0
7,-1,637282,219435,1261076,66104,8257,630584,0
7,2,713222,249741,1511996,74156,10115,755993,0
7,-1,636832,219575,1297760,66067,8194,648795,0
7,2,718037,249593,1394702,74277,9943,697272,0
7,-1,637283,219762,1264541,66229,8047,632109,2
7,2,714966,249848,1500648,74351,9643,750355,0
7,2,718089,250499,1443554,74291,9830,721768,0
7,-1,633825,218037,1156647,65678,6494,578323,0
7,2,706331,249201,1492130,73839,9794,745912,0
7,-1,636827,219707,1306523,66138,7367,653270,0
7,2,709720,249731,1506023,74080,10559,752384,0
7,-1,638734,219391,1222673,66016,8282,611242,0
7,2,712215,249729,1545459,74113,9995,772457,0
7,-1,638739,221071,1278212,66889,8105,638643,2
7,-1,668917,229822,1357606,69386,8398,678770,0
7,2,714203,249815,1464936,74173,10557,732512,0
7,-1,655637,223153,1241594,69089,8397,620731,0
7,2,708237,249067,1324239,73891,9115,662344,0
7,-1,641209,219957,1308799,66385,7589,654382,0
7,2,710268,248459,1488250,73652,10009,744131,0
7,2,708944,248263,1375293,73664,9747,687625,0
7,-1,637554,219472,1191476,65967,6967,595718,2
7,-1,639738,219277,1425296,66015,8960,712218,0
7,2,734515,253888,1417663,77363,10198,708585,0
7,-1,640028,220121,1273444,66106,7526,636660,0
7,-1,640771,220681,1203011,66705,7872,601372,2
7,2,716467,251072,1515749,74969,10284,757875,0
7,2,712907,248828,1465486,73891,9732,732740,0
7,-1,640852,218815,1292235,65724,8369,646154,0
7,2,714313,250230,1483395,74684,9537,741746,0
7,2,712271,249146,1441905,74213,9672,721028,0
7,-1,638283,219877,1261060,66136,7444,630504,0
7,2,710254,248653,1434835,73875,9701,717441,0
7,2,711613,248873,1279481,73961,9268,639631,0
7,-1,635725,219393,1395245,65981,8562,697357,0
7,2,713237,248711,1353860,73748,9712,676926,0
7,-1,639569,220832,1217928,66446,7292,608942,2
7,2,717915,250855,1354052,74693,10101,676908,0
7,2,721270,251264,1468040,74890,9697,734005,0
7,-1,637115,219918,1317935,66156,7438,658979,0
7,2,709008,248558,1418936,73629,9365,709455,0
7,-1,658276,223194,1251135,68977,8115,625559,0
7,2,706762,248182,1454196,73656,9593,727103,0
7,-1,638978,220436,1192381,66339,7706,596128,2
7,2,709135,247951,1435164,73524,10017,717217,0
7,-1,641459,219529,1318556,65976,7631,659253,0
7,2,713707,248706,1305369,73845,8923,652711,0
7,-1,640748,221038,1324132,66703,7858,662082,0
7,2,733918,253267,1428420,77105,10919,713311,0
7,-1,638651,219253,1203599,65868,7120,601838,0
7,2,732635,252857,1401540,76912,10417,700785,0
7,-1,644626,220743,1286818,66590,7574,643377,0
7,2,719863,251108,1293048,74939,9786,646389,0
7,-1,638165,219975,1319295,66095,8069,659691,0
7,2,708583,248191,1341185,73610,8790,670597,0
7,-1,637324,219005,1172632,65863,7113,586380,0
7,-1,645185,220184,1299806,66163,8143,649811,0
7,2,710165,248402,1396865,73703,9208,698463,0
7,-1,641826,219754,1265722,66101,7427,632883,2
7,2,732501,252833,1480343,76995,10527,740075,0
7,-1,645891,220798,1369880,66570,8269,684885,0
7,2,712088,248548,1422680,73714,9329,711440,0
7,-1,636828,219716,1267649,65937,7476,633905,0
7,2,713818,248450,1330204,73678,9418,665045,0
7,-1,641414,221706,1292644,67071,7532,646362,2
7,2,712882,248968,1471028,73913,9766,735182,0
7,2,711338,247097,1451911,73261,10256,726017,0
7,-1,637131,219273,1190214,65943,7055,595159,0
7,2,700729,248341,1421585,73168,8900,710649,0
7,2,723576,252910,1368756,76435,10801,684344,0
7,2,703312,247890,1386690,72963,8951,693407,0
7,2,704627,248022,1439386,73023,9020,719578,0
7,2,709464,249563,1250649,73807,9099,625470,0
7,2,710124,248348,1438747,73269,9152,719347,0
7,-1,639537,219607,1166076,66030,7011,583095,2
7,-1,636415,219375,1243869,65917,7187,621981,0
7,2,707560,248603,1421317,73440,9239,710465,0
7,-1,639507,220688,1345530,66398,7266,672808,2
7,2,708175,248130,1428921,73222,9422,714442,0
7,-1,636419,218445,1236238,65708,7397,618200,0
7,2,712402,250199,1397186,75061,10744,697915,0
7,2,711988,249697,1507647,74768,10676,753739,0
7,-1,639635,219065,1305683,65769,7953,652910,0
7,2,709096,248913,1387185,74308,9564,693580,0
7,-1,645880,221918,1301465,67040,7757,650756,2
7,2,708384,248039,1408800,74077,8654,704348,0
7,-1,643190,220000,1310925,66136,7265,655469,0
7,2,714107,250116,1317179,75070,8877,658529,0
7,2,709324,248228,1404093,74222,9243,701951,0
7,-1,639799,219872,1184242,66104,7214,592098,0
7,2,706590,247862,1260094,73950,9685,630042,0
7,-1,644628,221664,1336691,66994,6871,668618,0
7,2,710784,248327,1491441,74213,9727,745450,0
7,2,710271,249248,1272130,74539,8710,636007,0
7,-1,642228,219278,1218098,65873,7771,609143,0
7,2,709948,247840,1517140,73948,9943,758258,0
7,2,707996,248565,1371626,74278,9940,685776,0
7,-1,641220,219822,1275531,66110,7582,637815,0
7,2,707962,248404,1261163,74245,9269,630384,0
7,2,708648,248336,1296738,74220,8636,648353,0
7,-1,640833,219705,1264201,65959,7006,632058,0
7,2,709229,247605,1289742,74032,9140,644757,0
7,-1,640242,219712,1218681,66006,7049,609419,2
7,-1,642302,219275,1295226,65777,8121,647660,0
7,2,712168,249044,1310315,74415,9990,655007,0
7,-1,640237,220977,1186760,66341,7930,593436,2
7,-1,637199,219357,1314093,65784,7429,657050,2
7,2,712561,249580,1309691,74863,9203,654856,0
7,-1,642531,220267,1247633,66158,7313,623747,0
7,-1,642321,220609,1240340,66219,7038,620033,2
7,2,714780,249096,1617091,74288,10370,807827,0
7,-1,638034,219204,1300006,65718,7376,649974,0
7,2,731552,252928,1542870,77469,10389,772178,0
7,2,716040,250239,1301527,75005,9437,650635,0
7,-1,644506,220226,1442747,66096,8170,721318,0
7,2,711546,247464,1358068,73734,8984,678982,0
7,2,709177,248495,1502641,74171,10293,751280,0
7,-1,640516,220275,1345719,66075,8559,672724,0
7,2,709550,248449,1436143,74071,9784,718121,0
7,-1,641564,219985,1234945,66043,7778,617464,0
7,2,714265,248885,1411024,74254,9594,705459,0
7,-1,641222,220032,1212173,66107,6902,606017,2
7,2,713573,249402,1308200,74376,9076,654117,0
7,2,714524,248610,1541685,74062,10785,769935,0
7,-1,643694,219700,1205987,65929,7705,602978,0
7,2,704098,248751,1398291,74228,8621,699178,0
7,2,706202,248263,1504202,74273,10072,752123,0
7,-1,640754,220284,1682261,66149,9281,840634,0
7,-1,639537,220020,1146730,66100,7638,573257,2
7,2,712411,250052,1531559,74833,9760,765042,0
7,-1,646565,220844,1376688,66624,8648,687848,0
7,2,719301,251181,1330157,75403,8624,665156,0
7,-1,673019,231312,1363297,69794,8142,681663,2
7,2,717008,250857,1333666,75304,8735,666853,0
7,-1,646336,220686,1286359,66361,7462,643118,0
7,-1,644927,220672,1284213,66373,6991,642012,2
7,2,712366,249250,1291965,74568,8810,646038,0
7,2,715497,249800,1485975,74693,10190,743002,0
7,-1,642202,219597,1341977,66024,8266,670967,2
7,-1,644525,219812,1469328,66098,9541,734678,0
7,2,714823,249448,1355218,74496,9461,677513,0
7,2,733140,253943,1511533,77823,11117,755575,0
7,2,713747,250003,1449212,74701,9501,724604,0
7,-1,646352,220724,1299929,66187,8476,650016,0
7,2,742792,255652,1479403,78708,11189,739492,0
7,-1,645307,223410,1407170,67415,9319,703648,2
7,-1,638717,220268,1255819,66025,8334,627974,0
7,2,713666,250000,1355375,74488,9570,678281,0
7,-1,641931,220718,1286943,66226,8484,643521,2
7,2,715712,249882,1322620,74567,9299,661349,0
7,-1,641785,220002,1373085,65994,9026,686406,0
7,2,733693,253092,1562291,77468,10305,780795,0
7,-1,643806,221079,1389971,66339,8352,694809,0
7,2,719033,250973,1416096,75271,10103,708016,0
7,-1,642307,220741,1277042,66316,8338,638490,2
7,2,716547,250916,1418139,75241,9418,708976,0
7,-1,664544,224202,1274771,69173,9165,637153,0
7,-1,647111,221151,1319802,66401,8432,659944,0
7,2,715851,249756,1337476,74565,10347,668791,0
7,-1,640543,219898,1129907,66009,7658,565006,2
7,2,713154,249538,1430924,74515,9269,715465,0
7,-1,641487,219501,1186048,65827,7736,593027,0
7,2,713815,250968,1374929,74961,9768,687413,0
7,-1,664455,228379,1409156,68515,8749,704532,2
7,2,716346,249720,1337023,74495,9118,668379,0
7,-1,642810,219427,1369954,65886,9516,684942,0
7,2,720394,250719,1294776,74954,9993,647371,0
7,2,716199,250023,1328410,74893,8821,664179,0
7,-1,642207,219402,1408689,65930,9654,703862,0
7,2,716450,249324,1501595,74341,10094,750733,0
7,-1,645140,220639,1421418,66293,9285,710717,2
7,2,716430,250974,1367282,75198,9498,683429,0
7,-1,642581,219877,1218481,66058,8191,609299,0
7,-1,642873,221234,1190954,66743,7760,595486,2
7,2,712396,248251,1424875,74018,9609,712493,0
7,-1,634963,217804,1271568,65314,8319,635773,0
7,-1,641010,219793,1343563,66012,7819,671836,2
7,2,718491,250848,1422688,75056,10228,711503,0
7,-1,647656,221117,1286879,66715,8218,643369,0
7,2,716949,248901,1465042,74255,9922,732372,0
7,2,710754,248356,1336935,74163,8917,668315,0
7,2,712042,248313,1363704,74113,9793,681743,0
7,-1,645572,221373,1419957,66878,8519,709069,0
7,2,711251,248287,1277099,74221,9733,638472,0
7,-1,638048,219860,1310467,66043,7813,655255,2
7,2,712237,247436,1423970,73988,10218,711989,0
7,-1,641734,220331,1280698,66147,7849,640408,0
7,2,704198,247582,1356264,74044,9022,678100,0
7,-1,640416,218997,1211471,65672,7987,605776,0
7,2,707261,247644,1425981,74054,9775,713016,0
7,-1,638163,219408,1304603,65867,8361,652369,2
7,-1,645843,221266,1307890,66733,8344,654134,0
7,2,706960,248021,1418591,74175,9321,709291,0
7,-1,640607,219084,1186976,65836,7743,593540,2
7,2,708693,247880,1446775,74154,9909,723177,0
7,-1,639853,218885,1338563,65702,7750,669320,0
7,-1,639989,219452,1191281,65939,8406,595672,2
7,2,709083,248331,1331967,74371,9506,665922,0
7,2,731678,253403,1381838,77731,10751,690927,0
7,-1,642855,219028,1171483,65796,8222,585538,0
7,2,708798,248273,1400607,74099,9631,700289,0
