0,0,14,679167.571429,235091.000000,1307038.428571,70362.285714,8409.857143,653055.000000,22299.050677,7892.482463,75967.420930,2247.811648,576.349207,37946.311652
0,1,109,712158.036697,248943.963303,1383830.256881,74152.816514,9050.449541,691451.633028,10173.316663,3311.015562,96040.623459,1149.332652,768.595794,47981.560507
1,0,13,674123.769231,233628.846154,1325505.384615,69770.538462,8575.615385,662207.769231,18842.507355,6487.880558,73063.774752,1744.566669,349.579426,36468.308166
1,1,108,713124.870370,249143.138889,1392878.092593,74299.666667,9192.583333,695974.157407,9917.674371,3045.772977,84496.376071,1197.544130,795.481768,42203.775404
2,0,13,672137.769231,232360.923077,1305354.230769,69590.692308,8395.846154,652250.769231,15467.194466,4940.427597,77076.971210,1530.345631,712.833549,38588.894670
2,1,108,713247.620370,249095.342593,1378815.250000,74392.231481,9066.898148,688947.388889,9332.573663,2428.958202,72550.661083,1234.907701,785.133486,36226.826769
3,0,13,676701.615385,233459.461538,1305915.538462,70061.461538,8768.076923,652408.692308,13976.949213,4795.560136,57415.625773,1565.348750,691.979042,28567.347768
3,1,108,711713.351852,248636.000000,1382288.777778,74131.583333,9038.944444,690689.212963,7951.439196,2177.838357,78367.608883,1056.101515,791.335005,39122.648939
4,0,13,676602.769231,233310.769231,1323109.692308,70112.538462,8646.769231,661063.076923,20260.961452,6014.912572,98255.238042,2296.782787,848.931831,49090.880293
4,1,108,712792.509259,248998.842593,1392601.361111,74298.777778,9122.444444,695841.055556,9016.967629,2519.233103,84619.764673,1205.017683,744.075369,42291.128988
5,0,13,677816.846154,234134.153846,1350074.307692,70204.461538,8658.384615,674616.692308,19841.554804,6920.831540,65724.312161,2112.398659,662.961600,32876.265786
5,1,108,712926.212963,248933.222222,1385427.398148,74338.388889,9077.925926,692285.666667,10368.145033,2748.429057,91191.752145,1390.877653,808.762723,45603.922180
6,0,13,678773.923077,234376.230769,1326002.538462,70330.000000,8701.923077,662559.846154,22771.101732,7257.059228,77755.564151,2518.848302,635.412823,38876.792658
6,1,108,712648.981481,248947.185185,1390453.194444,74234.166667,9119.342593,694775.490741,9237.526241,2674.655267,81866.363639,1160.154575,817.467523,40896.250624
7,0,13,679528.076923,234629.692308,1327428.384615,70405.230769,8666.538462,663221.461538,23255.225284,7554.689500,65065.754440,2540.696850,775.574984,32450.073518
7,1,108,713301.296296,249223.287037,1388296.453704,74372.444444,9076.814815,693684.787037,9815.236113,2764.056262,82883.295820,1154.300657,775.772090,41381.518021
8,0,13,678251.692308,234260.769231,1314960.461538,70249.615385,8321.153846,657010.769231,18859.982610,6427.525426,52001.272749,1918.927767,504.819670,25916.550020
8,1,108,713279.435185,249226.722222,1387526.083333,74375.157407,9220.990741,693313.555556,10512.173994,3039.380273,86497.509814,1270.554379,838.763933,43191.645198
9,0,13,676661.923077,233988.923077,1324670.000000,70077.461538,8412.461538,661785.461538,19061.176929,6461.486188,67168.695074,1822.826572,613.663603,33375.083425
9,1,108,711922.018519,248857.351852,1370090.333333,74159.185185,9043.972222,684584.787037,9381.921820,2812.838073,72254.380195,1073.397385,794.788412,36075.670122
10,0,13,675026.692308,233470.307692,1315918.230769,69714.538462,8518.692308,657504.923077,19479.140268,6348.821749,47275.796530,1683.082822,612.176619,23714.850707
10,1,108,712590.268519,249103.138889,1377807.027778,74264.518519,9066.574074,688441.944444,10330.095095,3184.719990,86118.657863,1234.733256,819.503217,42998.058873
11,0,13,675010.846154,233397.000000,1329843.461538,69705.461538,8512.692308,664336.076923,21830.189780,7458.223051,77782.389842,2153.619051,710.825564,38682.570620
11,1,109,713041.715596,249231.577982,1383285.871560,74360.403670,9090.211009,691157.366972,10762.132375,3238.000984,89710.774352,1310.178412,802.391152,44832.893961
12,0,13,679673.307692,234684.538462,1335154.461538,70482.769231,8725.461538,667039.615385,22622.486823,7102.840771,78394.370267,2361.621417,590.636373,39088.992924
12,1,109,713814.000000,249311.513761,1389386.550459,74446.201835,9143.880734,694190.256881,10181.712141,3085.385761,85680.333873,1287.576044,756.905151,42720.600229
13,0,12,680738.250000,234684.916667,1288324.166667,70556.250000,8456.083333,643807.083333,19365.288263,6502.437574,58240.566850,2003.453939,560.006318,29148.019362
13,1,109,713564.477064,249273.825688,1391035.422018,74396.449541,9150.963303,695051.834862,9854.194860,2932.809371,85161.208425,1183.884560,904.089982,42530.251731
14,0,12,676503.416667,234193.833333,1296255.916667,69910.000000,8283.666667,647588.833333,20342.683298,6914.391114,68094.723499,1862.469015,536.054775,33999.987039
14,1,109,712369.009174,248920.211009,1382586.220183,74220.605505,9074.311927,690827.605505,9409.136132,2766.751920,91343.348418,1130.106377,753.763179,45655.238220
15,0,13,676164.461538,233914.307692,1275239.692308,70023.923077,8405.000000,637163.692308,19280.883333,6412.440534,69539.711459,1830.163274,666.476614,34713.775655
15,1,200,711510.880000,248952.300000,1386232.830000,74201.690000,9136.840000,692669.515000,9071.070861,2777.933446,81086.777924,1007.747381,785.583257,40541.848043
