0,0,755271,265145,1491766,78184,9190,745404,11
0,-1,690585,237463,1237823,70788,7478,618643,0
0,-1,686805,236490,1238275,70542,7359,618460,2
1,0,763731,267905,1607629,79362,10141,803070,11
1,-1,695812,239323,1324327,71715,7803,661350,2
2,0,759256,266098,1493205,78606,9094,746065,11
2,-1,641494,220723,1278590,66544,8572,638416,2
3,0,759692,265819,1511568,78573,9334,755242,11
3,-1,637461,217929,1222567,65462,7785,610505,2
4,0,760016,266010,1423279,78634,8341,711248,11
4,-1,636143,218005,1267335,65464,7658,633125,2
5,0,780738,270042,1576099,81706,10556,787474,11
5,-1,637780,217953,1220472,65571,7629,609735,2
6,0,759829,265713,1471939,78429,9031,735479,11
6,-1,638106,220099,1313701,66529,7508,656090,2
7,0,758855,265414,1586600,78330,9511,792793,11
7,-1,636641,218821,1107065,65789,7286,552918,2
8,0,759432,266293,1579963,78640,8947,789441,11
8,-1,636498,218502,1182176,65677,7120,590426,2
9,0,764482,267399,1551335,79124,9413,774982,11
9,-1,643669,220469,1376953,66599,8722,687415,2
10,0,761695,265671,1475821,78487,10618,737431,11
10,-1,634558,218344,1239202,65607,7148,619118,2
11,0,760077,265207,1451262,78246,9335,725294,11
11,-1,640135,219189,1251966,65768,7254,625435,2
12,0,767428,267433,1594721,79301,10388,796667,11
12,-1,642338,220413,1278269,66567,8047,638314,2
13,0,759412,265782,1585529,78514,9031,792343,11
13,-1,640101,218861,1162027,65916,6788,580484,2
14,0,759132,266434,1490209,78688,8494,744589,11
14,-1,638878,218881,1261080,65957,7239,629987,2
15,0,758243,265675,1594826,78423,8795,796946,11
15,-1,637415,218454,1163360,65836,6993,581216,2
16,0,763776,268029,1566106,79451,9489,782283,11
16,-1,643284,219577,1327694,66467,7115,662990,2
17,0,749039,262864,1528432,77594,8827,763716,11
17,-1,638569,218935,1178772,65958,7505,588715,2
18,0,739318,259118,1431047,76473,9115,715131,11
18,-1,638159,218004,1273340,65677,7868,636164,2
19,0,704558,247334,1502002,73559,8634,750528,11
19,-1,639630,217989,1300291,65627,7572,649651,2
20,0,704575,247178,1483581,73528,8429,741338,11
20,-1,634053,218431,1207090,65812,7394,603145,2
21,0,703856,246544,1433954,73272,8254,716571,11
21,-1,633197,218760,1183690,65907,7622,591239,2
22,0,708613,247219,1538974,73456,9626,769042,11
22,-1,635420,218282,1248211,65756,7338,623759,2
23,0,704933,247381,1318382,73502,8608,658804,11
23,-1,634731,218660,1172438,65860,7249,585523,2
24,0,706547,247688,1432720,73665,9065,715805,11
24,-1,635682,218569,1205320,65763,7716,602172,2
25,0,706675,247760,1429962,73655,8581,714521,11
25,-1,633960,219012,1281933,65915,8361,640445,2
26,0,705444,246992,1397286,73363,8340,698173,11
26,-1,635029,218335,1147430,65616,7096,573183,2
27,0,726658,251232,1575429,76578,10107,786910,11
27,-1,640839,220526,1293783,66651,7521,646039,2
28,0,713670,249700,1607685,74590,10541,802905,11
28,-1,635802,218551,1153758,65770,7048,576362,2
29,0,710865,248833,1575154,74121,10472,785850,11
29,-1,642886,221323,1292291,66939,7852,645445,2
30,0,707424,247429,1501998,73461,11177,750438,11
30,-1,634318,218577,1283687,65741,8499,640840,2
31,0,707209,246759,1492964,73127,10318,745746,11
31,-1,637102,219095,1251310,65935,7826,625011,2
32,0,705958,247053,1378961,73292,8926,689017,11
32,-1,640245,219009,1250371,65859,7265,624520,2
33,0,712871,249868,1494645,74446,9232,746517,11
33,-1,630610,218517,1134843,65733,5935,566930,2
34,0,708539,247554,1462887,73472,8764,730963,11
34,-1,635937,219363,1128837,65997,6499,563873,2
35,0,707022,247276,1539491,73376,10142,769483,11
35,-1,637327,219717,1328261,66124,6582,663677,2
36,0,706014,246323,1594015,73097,10421,795860,11
36,-1,636164,218697,1239674,65807,6649,619729,2
37,0,727370,252002,1569459,76845,10766,785023,11
37,-1,663025,228587,1190977,68754,7031,595009,2
38,0,711812,249846,1544888,74594,10112,771573,11
38,-1,636117,218858,1218364,65797,6004,608850,2
39,0,707237,247254,1358766,73518,8938,678731,11
39,-1,643543,220346,1196506,66562,8224,597451,2
40,0,713083,249433,1395206,74395,8551,696911,11
40,-1,637767,218604,1209946,65767,6584,604398,2
41,0,707816,247757,1485747,73663,8045,742375,11
41,-1,638054,220007,1200837,66167,6928,599868,2
42,0,715060,249850,1491312,74522,9485,744714,11
42,-1,640614,219885,1152712,66035,6133,575910,2
43,0,709003,246812,1410485,73230,8605,704686,11
43,-1,638692,218943,1139540,65769,6322,569259,2
44,0,709445,247689,1340229,73602,9293,669578,11
44,-1,642296,219216,1234474,65829,8039,616722,2
45,0,712938,249224,1326847,74269,9289,662726,11
45,-1,642431,219636,1387157,66086,8028,692880,2
46,0,716603,250314,1476542,74692,9351,737433,11
46,-1,643059,219370,1301519,65742,8682,650331,2
47,0,709974,247346,1359927,73482,9124,679396,11
47,-1,640336,219742,1416215,65926,9775,707390,2
48,0,708117,246358,1307760,73035,8567,653503,11
48,-1,644526,220653,1265501,66650,8047,632008,2
49,0,700569,247246,1317128,73494,8257,658083,11
49,-1,636244,219332,1260174,65840,7342,629542,2
50,0,700422,246571,1445108,73235,8506,722149,11
50,-1,637271,218787,1261664,65750,8272,629777,2
51,0,702030,247757,1283972,73699,8189,641394,11
51,-1,638309,218624,1330171,65682,7700,664615,2
52,0,710788,250170,1466807,74701,9180,732745,11
52,-1,639962,218593,1141330,65737,7675,570148,2
53,0,701522,246764,1289133,73306,8165,644068,11
54,0,702996,247402,1291585,73554,7548,645194,11
55,0,704819,247680,1469004,73713,8386,734341,11
56,0,706728,248682,1405077,74281,9356,701931,11
57,0,709466,249503,1324290,74620,8681,661109,11
58,0,705904,247762,1293325,73673,8873,646045,11
59,0,705451,247209,1382225,73511,9425,690470,11
60,0,711169,249563,1504334,74533,10711,751336,11
61,0,705633,247211,1444757,73442,10050,721917,11
62,0,706693,247071,1412996,73449,8965,705860,11
63,0,709912,247912,1523667,73859,10011,760905,11
64,0,702869,248118,1408211,73795,9207,703606,11
65,0,702287,247262,1394533,73483,9428,696827,11
66,0,708601,249209,1594018,74448,9866,795896,11
67,0,709516,249044,1554576,74191,10736,776408,11
68,0,706618,247941,1484138,73649,9749,741013,11
69,0,706006,247254,1491497,73379,9803,745187,11
70,0,723579,251770,1389877,76758,9245,694251,11
71,0,704723,247019,1585057,73425,9519,792086,11
72,0,704973,247590,1523322,73670,9670,761286,11
73,0,707647,247644,1413998,73681,9416,706468,11
74,0,709062,248942,1516969,74207,9714,757692,11
75,0,728665,251979,1444122,76897,9832,721348,11
76,0,713560,249684,1542454,74582,10296,770137,11
77,0,704094,247508,1601925,73648,9417,800088,11
78,0,706008,247386,1362917,73560,8555,680877,11
79,0,706730,247271,1421532,73478,8445,710239,11
80,0,707371,247611,1319566,73635,8139,659221,11
81,0,735344,253703,1432138,77917,9272,715579,11
82,0,708376,247131,1317686,73468,7913,658237,11
83,0,713621,249160,1412725,74367,9122,705617,11
84,0,701693,246711,1489998,73282,8260,744577,11
85,0,708056,249315,1424103,74491,9159,711241,11
86,0,702870,246759,1383047,73415,8207,691070,11
87,0,703004,247125,1360119,73364,8491,679501,11
88,0,702869,247010,1349945,73336,8574,674507,11
89,0,705069,247281,1340053,73537,8698,669471,11
90,0,704767,247143,1333575,73482,8797,666277,11
91,0,706691,247843,1372437,73775,8597,685677,11
92,0,703849,246556,1450843,73264,9105,724970,11
93,0,711716,249326,1517746,74503,8859,758089,11
94,0,703814,247252,1262761,73423,8858,630777,11
95,0,709535,249064,1319346,74472,9167,658678,11
96,0,705369,247028,1308811,73486,8132,653948,11
97,0,705447,247539,1281272,73658,8334,640093,11
98,0,711436,249044,1397722,74409,8368,698256,11
99,0,712251,248788,1497527,74319,9195,748045,11
100,0,704692,246440,1329206,73285,8320,664025,11
101,0,710071,249174,1422240,74349,8418,710488,11
102,0,706940,246964,1444832,73411,8460,721808,11
103,0,710169,248552,1441084,74021,8208,719671,11
104,0,715021,249534,1428351,74610,8633,713353,11
105,0,709390,248538,1341864,73924,8016,670463,11
106,0,707645,247885,1399344,73778,8242,699132,11
107,0,711932,248766,1358046,74046,8453,678497,11
108,0,706751,247191,1305374,73481,8855,652198,11
109,0,730483,252216,1335066,76853,9870,667069,11
110,0,707757,247020,1380478,73438,9072,689739,11
111,0,709870,247414,1487493,73599,9187,743141,11
112,0,710090,250325,1419743,74676,9309,709072,11
113,0,704886,247593,1293240,73559,8798,646186,11
114,0,713417,250001,1545638,74496,9741,772038,11
115,0,713601,250304,1445724,74682,9194,722042,11
116,0,707743,247540,1329995,73464,8470,664493,11
117,0,728677,252544,1378958,76885,9197,688905,11
118,0,713349,249875,1481553,74502,9720,739860,11
119,0,711200,248414,1341642,73695,8857,670397,11
120,0,713357,248771,1281926,73871,9417,640418,11
121,0,731897,253335,1460642,77166,10288,729785,11
122,0,708744,247147,1393523,73400,8927,696209,11
123,0,706931,248182,1391176,73783,9006,695081,11
124,0,706883,247541,1446700,73463,9208,722882,11
125,0,710191,248356,1321953,73822,8718,660425,11
126,0,705886,248059,1325159,73748,8506,662088,11
127,0,705239,247636,1468112,73607,9090,733583,11
128,0,705579,247775,1299052,73621,8674,648913,11
129,0,712902,249849,1401952,74578,9064,700216,11
130,0,708877,247887,1334408,73585,8305,666729,11
131,0,706318,247289,1392543,73421,8665,695907,11
132,0,708296,247660,1376061,73637,9411,687502,11
133,0,731679,252511,1360942,76992,10032,679898,11
134,0,708450,247225,1260921,73449,8546,629950,11
135,0,713558,248856,1326397,74223,9909,662479,11
136,0,706831,247668,1381279,73593,8883,690135,11
137,0,709868,248053,1322801,73723,8492,660925,11
138,0,710303,248106,1396253,73808,9314,697594,11
139,0,707149,247231,1345208,73609,9007,672026,11
140,0,713371,248981,1440464,74366,9844,719554,11
141,0,708376,247042,1438158,73451,8747,718628,11
142,0,710846,247610,1465073,73739,8663,731954,11
143,0,709907,247983,1290148,73783,8070,644579,11
144,0,709392,247437,1375022,73550,8555,686855,11
145,0,712143,248712,1339176,74064,8385,668931,11
146,0,708973,248470,1300928,74072,8754,649887,11
147,0,706521,247698,1323252,73768,8187,660973,11
148,0,707330,247779,1376644,73827,8883,687696,11
149,0,727825,252183,1443944,77061,9413,721191,11
150,0,709345,248164,1534872,73921,9510,766604,11
151,0,708554,247360,1302098,73686,8959,650469,11
152,0,709403,248062,1452247,73913,8691,725418,11
153,0,709301,248000,1417668,73893,8363,708339,11
154,0,712784,248721,1418019,74308,9044,708334,11
155,0,732351,252169,1460892,77050,9223,730806,11
156,0,706779,247469,1435611,73687,9195,717101,11
157,0,710989,248775,1331662,74119,9076,665237,11
158,0,729507,252053,1396792,76957,9938,697952,11
159,0,707046,246629,1465886,73497,9746,732390,11
160,0,707874,247414,1333106,73646,9486,666104,11
161,0,712293,248232,1282785,73930,9747,640802,11
162,0,708698,247304,1330313,73626,9248,664473,11
163,0,714121,248895,1356369,74367,9837,677501,11
164,0,726931,251630,1369150,76856,10083,684093,11
165,0,714025,249789,1415430,74801,9661,706783,11
166,0,710054,247845,1430962,73835,8992,714774,11
167,0,710289,247561,1405906,73695,9537,702442,11
168,0,733287,252425,1401155,77105,10065,700094,11
169,0,710791,247482,1349700,73599,8996,674338,11
170,0,710096,247857,1398981,73830,9200,698922,11
171,0,713526,248488,1432372,74020,8822,715683,11
172,0,712478,247347,1554774,73654,9509,776893,11
173,0,706021,247760,1307446,73777,7798,653158,11
174,0,703631,249020,1449967,74385,8537,724286,11
175,0,700586,247391,1387618,73640,8772,693497,11
176,0,701041,247703,1402150,73705,9099,700521,11
177,0,702671,247921,1214445,73898,8678,606602,11
178,0,706415,248757,1325909,74336,9267,662191,11
179,0,700373,247078,1373019,73485,9479,686114,11
180,0,728427,256218,1497397,76243,8695,748225,11
181,0,704455,247582,1299863,73766,8618,649456,11
182,0,703812,247435,1409748,73660,9017,704381,11
183,0,728782,252481,1335030,77131,10093,667018,11
184,0,705940,248737,1530950,74118,10267,765018,11
185,0,705614,248200,1401197,74156,8983,699792,11
186,0,703266,247703,1322531,73793,8662,660706,11
187,0,704740,248106,1409836,73817,8820,704358,11
188,0,704867,248094,1401000,73917,8919,699987,11
189,0,725843,252350,1389145,77085,10312,693976,11
190,0,705336,247267,1305297,73626,8716,652041,11
191,0,708910,249094,1330573,74412,10090,664592,11
192,0,721995,251743,1319531,76896,9693,659206,11
193,0,700339,246492,1308435,73296,8784,653707,11
194,0,723759,251997,1374861,76989,9711,686865,11
195,0,704506,247698,1327936,73725,8568,663342,11
196,0,705710,247747,1405276,73743,8920,702182,11
197,0,705048,247788,1335859,73756,8651,667439,11
198,0,705054,247923,1329595,73861,9046,664270,11
199,0,708819,249069,1457506,74419,9488,727807,11
200,0,706914,248293,1393907,73967,9204,696375,11
201,0,705364,247600,1440208,73666,9531,719674,11
202,0,710585,249482,1453086,74614,9389,725623,11
203,0,708167,248544,1316236,73996,8610,657691,11
204,0,707542,247909,1544851,73858,9102,771622,11
205,0,704686,248089,1290518,73902,8101,644795,11
206,0,706871,247591,1476907,73738,9785,737852,11
207,0,709255,248175,1393506,73928,9566,695207,11
208,0,699606,247076,1348939,73548,9955,673857,11
209,0,703096,247674,1397061,73776,8638,697562,11
210,0,708851,249950,1480218,74779,9907,739134,11
211,0,703562,247309,1494851,73611,9776,747108,11
212,0,725422,251754,1522632,76824,9409,760913,11
213,0,706856,248236,1405678,73899,8402,702376,11
214,0,727876,252403,1396323,77077,9682,697495,11
215,0,707801,248440,1488265,73935,8996,743431,11
216,0,710761,248160,1407520,73777,9506,703379,11
217,0,710497,250106,1471187,74724,9795,734790,11
218,0,707138,248617,1434084,73981,8644,716526,11
219,0,705855,247480,1395508,73562,8693,697396,11
220,0,710437,249288,1394258,74398,9042,696413,11
221,0,709255,248411,1440861,73932,8294,720114,11
222,0,707664,248419,1511289,73858,9246,755275,11
223,0,729857,252950,1357934,77175,8785,678412,11
224,0,706890,248515,1383947,74143,9596,691293,11
225,0,706967,248264,1319696,73769,8759,659452,11
226,0,708353,248359,1445726,73901,8592,722436,11
227,0,731043,252974,1496758,77178,9321,747999,11
228,0,711316,249091,1394074,74138,8338,696613,11
229,0,708166,247929,1363864,73692,8550,681450,11
230,0,708399,248358,1391491,73900,8245,695252,11
231,0,707810,247890,1403355,73696,8729,701325,11
232,0,710688,248591,1370914,73967,8736,685071,11
233,0,712308,248244,1409831,73847,8954,704459,11
234,0,706371,249732,1380634,74605,8934,689592,11
235,0,705574,248870,1365010,74065,8323,682052,11
236,0,703725,247786,1426265,73661,8682,712659,11
237,0,725585,252604,1355066,77049,8749,677073,11
238,0,738699,259778,1366414,77696,8788,682281,11
239,0,706983,248166,1297714,73784,7990,648431,11
240,0,707086,248165,1348044,73836,8320,673565,11
241,0,707283,247907,1305766,73650,8009,652537,11
242,0,707819,248296,1270774,73873,8720,634967,11
243,0,705877,249122,1315816,74354,8622,657261,11
244,0,706085,248877,1409978,74067,8168,704419,11
244,-1,638389,218223,1164945,65517,7089,582010,0
245,0,727472,252912,1376733,77169,8797,688041,11
245,-1,636173,218074,1275661,65467,7417,637423,0
246,0,704618,247880,1283004,73677,8485,641035,11
246,-1,642621,220011,1279949,66420,8073,639147,0
247,0,707006,248115,1311200,73795,8203,655087,11
247,-1,641567,219546,1278954,66121,7672,638763,0
248,0,708911,248174,1359336,73851,8741,679130,11
248,-1,637069,218389,1181965,65620,7318,590444,0
249,0,702651,247531,1279734,73586,8297,639425,11
249,-1,637693,218789,1187127,65640,7384,593028,0
250,0,707093,249146,1379793,74163,8569,689315,11
250,-1,642280,221199,1285852,66765,8201,642088,0
251,0,726244,251970,1330422,76870,9070,664872,11
251,-1,660975,223268,1249507,68909,7767,624419,0
252,0,708615,248166,1482632,73786,9234,739869,11
252,-1,641238,218671,1304555,65627,7654,651773,0
253,0,706544,248119,1341604,73836,9405,670075,11
253,-1,637964,217680,1396770,65304,7590,697905,0
254,0,707256,247900,1430404,73739,10506,714399,11
254,-1,646344,221007,1286451,66594,7534,642549,0
255,0,708979,248272,1403693,73861,10013,701337,11
255,-1,639451,218645,1188311,65645,7620,593689,0
256,0,708976,248007,1410664,73837,10481,704174,11
256,-1,642112,219456,1195359,65895,7451,597211,0
257,0,706439,247881,1524609,73713,9000,761667,11
257,-1,665824,227871,1307085,68317,8007,653112,0
258,0,710220,248285,1396682,73807,8509,697963,11
258,-1,641861,220205,1309701,66426,7853,654178,0
259,0,727366,252641,1388947,77069,9180,694079,11
259,-1,638046,218858,1236103,65708,7344,617641,0
260,0,708673,248059,1300219,73799,7835,649714,11
260,-1,637997,218810,1267219,65648,7591,633239,0
261,0,709777,248035,1463375,73801,8715,731232,11
261,-1,641168,218642,1390579,65586,7485,694946,0
262,0,705897,247416,1317333,73562,9045,658223,11
262,-1,639765,218472,1305969,65637,7286,652544,0
263,0,727309,252854,1256828,77151,9734,627965,11
263,-1,657432,222604,1218970,68658,7611,609082,0
264,0,706957,247516,1389244,73593,9591,694162,11
264,-1,638483,219104,1257557,65776,7027,628324,0
265,0,727886,252282,1537880,76967,10762,768338,11
265,-1,637891,218480,1192558,65559,7292,595884,0
266,0,705629,247889,1591668,73638,8900,795508,11
266,-1,638397,218825,1242672,65694,7074,620897,0
267,0,709437,248747,1631598,73991,8804,814985,11
267,-1,635739,218185,1189048,65492,7053,594036,0
268,0,727781,252706,1494755,77104,9549,746370,11
268,-1,635226,218422,1169800,65566,6940,584389,0
269,0,706466,247678,1412645,73635,9288,705901,11
269,-1,658627,223063,1234238,68857,8153,616691,0
270,0,711523,249574,1698908,74468,9559,848666,11
270,-1,634438,217929,1276373,65462,7145,637601,0
271,0,711194,248791,1559797,74022,9944,778686,11
271,-1,637883,219724,1248969,66254,7461,623923,0
272,0,731231,252462,1550034,77029,10596,774421,11
272,-1,637340,218782,1253299,65746,7504,626244,0
273,0,706455,247471,1442031,73560,9516,720652,11
273,-1,634348,217999,1331385,65473,7623,665341,0
274,0,709410,248596,1406293,73938,8757,702437,11
274,-1,639139,220374,1283920,66539,7533,641093,0
275,0,711736,248940,1495912,74278,9468,747332,11
275,-1,639132,219184,1224144,65894,7066,611604,0
276,0,730181,252269,1477721,76946,10759,738687,11
276,-1,643349,218863,1180859,65818,7909,590018,0
277,0,712028,248388,1395812,73867,10055,696817,11
277,-1,643084,218959,1165683,65790,8035,582371,0
278,0,712133,249441,1443160,74435,9131,721018,11
278,-1,645812,220308,1279147,66551,8034,638822,0
279,0,706384,247923,1359143,73764,8190,679082,11
279,-1,637213,217723,1180100,65335,6994,589665,0
280,0,706836,247740,1393932,73600,8991,696539,11
280,-1,641905,218752,1217000,65765,7423,608063,0
281,0,710588,249063,1456998,74117,9166,728193,11
281,-1,639931,218435,1156922,65687,7600,578018,0
282,0,709934,247994,1298943,73750,8766,648985,11
282,-1,640164,218449,1294821,65608,7842,647039,0
283,0,714005,249637,1400406,74462,9124,699634,11
283,-1,644834,220685,1251419,66603,8228,624966,0
284,0,709869,247828,1284313,73679,8675,641604,11
284,-1,639630,218222,1236454,65614,7223,617752,0
285,0,712033,248272,1389076,73775,9322,694404,11
285,-1,643152,219867,1340791,66288,8256,669662,0
286,0,706365,247330,1322432,73493,8224,660837,11
286,-1,640791,218275,1250983,65486,7220,625112,0
287,0,707912,247700,1307774,73609,8075,653368,11
287,-1,645051,220263,1270102,66438,8551,634242,0
288,0,715617,249668,1436068,74582,9390,717474,11
288,-1,637923,217959,1195296,65335,7606,597313,0
289,0,709712,248358,1316925,73898,9112,657935,11
289,-1,638758,218261,1282040,65533,8103,640542,0
290,0,706925,247138,1312414,73422,8977,655811,11
290,-1,643086,219648,1329491,66161,8401,664328,0
291,0,710323,247697,1288088,73629,8761,643650,11
291,-1,639192,218627,1209482,65641,7261,603889,0
292,0,713091,247744,1451489,73639,9190,725275,11
292,-1,664136,223860,1242612,69103,8876,620772,0
293,0,704143,247656,1385881,73609,8461,692588,11
293,-1,639321,218431,1284788,65568,7944,642209,0
294,0,704166,247719,1315517,73700,8115,657275,11
294,-1,638425,218267,1249638,65504,8421,624303,0
295,0,709025,250129,1452494,74788,8356,725438,11
295,-1,638485,219048,1231915,65702,8722,615478,0
296,0,705077,247857,1348948,73695,8057,673988,11
296,-1,639535,218841,1361622,65635,8991,680100,0
297,0,703297,247343,1390888,73545,8227,695032,11
297,-1,639011,218764,1272389,65712,8530,635573,0
298,0,707922,248549,1315138,73951,8175,657114,11
298,-1,636069,217826,1403248,65318,8696,700992,0
299,0,703636,247851,1384595,73628,7798,691817,11
299,-1,635735,218339,1272337,65491,7800,635684,0
300,0,711309,249780,1324030,74621,8696,661144,11
300,-1,639669,218372,1192773,65598,7625,595906,0
301,0,707390,249278,1456239,74377,8677,727395,11
301,-1,637996,218260,1240597,65410,7443,619850,0
302,0,706182,248782,1430885,74057,8673,714791,11
302,-1,661869,223471,1292652,69009,7977,645779,0
303,0,706359,247895,1295807,73749,8063,647487,11
303,-1,639077,218451,1345303,65638,7427,672158,0
304,0,707121,248476,1411797,74091,8277,705374,11
304,-1,641245,219716,1274023,66174,7559,636299,0
305,0,707670,248086,1386602,73817,8135,692815,11
305,-1,638938,218315,1187432,65586,7753,593266,0
306,0,727230,252765,1355307,77108,8753,677225,11
306,-1,660358,223567,1255857,69053,8295,627494,0
307,0,704772,247049,1346928,73529,8547,673071,11
307,-1,642215,220410,1281219,66470,7466,639973,0
308,0,707840,247915,1381096,73729,8969,690136,11
308,-1,636833,218610,1141586,65737,7117,570416,0
309,0,707191,248152,1306574,73819,8062,652831,11
309,-1,661887,223432,1310122,69054,9671,654630,0
310,0,707309,247985,1309437,73782,7923,654253,11
310,-1,640906,219213,1350498,65871,8663,674683,0
311,0,707794,248789,1295953,74013,8038,647526,11
311,-1,639975,218933,1263414,65726,8099,630970,0
312,0,706555,248280,1269045,73823,8295,634028,11
312,-1,657248,223314,1352524,68974,9488,675545,0
313,0,708253,248569,1287926,73886,7768,643566,11
313,-1,642024,219600,1368591,65856,8917,683462,0
314,0,706910,248022,1311769,73773,8244,655414,11
314,-1,639584,218689,1289584,65581,8155,644255,0
315,0,708971,248096,1402582,73796,8334,700832,11
315,-1,640419,219419,1254907,65861,7584,626974,0
316,0,705125,248263,1392715,73865,9034,695929,11
316,-1,639841,219529,1443126,65847,8846,720895,0
317,0,703809,247192,1323929,73477,8155,661561,11
317,-1,644121,221397,1261011,66822,8057,629773,0
318,0,709640,248965,1511856,74291,8736,755231,11
318,-1,640124,219858,1272134,66004,7772,635572,0
319,0,709574,248791,1361070,74251,8820,680015,11
319,-1,636292,218718,1187364,65588,7662,593230,0
320,0,710542,247968,1247278,73714,8943,623262,11
320,-1,647897,220180,1297656,66234,7501,648281,0
321,0,707258,248099,1263533,73817,8173,631246,11
321,-1,643698,219094,1176277,65750,7567,587623,0
322,0,705811,247160,1245918,73415,8179,622515,11
322,-1,643849,219530,1287604,65840,7755,643465,0
323,0,729789,252496,1370363,77039,9267,684716,11
323,-1,644587,219598,1176374,65901,7676,587754,0
324,0,710278,247858,1361452,73703,8857,680346,11
324,-1,642745,219123,1297661,65728,7637,648354,0
325,0,709197,248810,1429241,74187,8713,713942,11
325,-1,642665,219280,1144302,65756,7580,571742,0
326,0,708553,248137,1357535,73797,7986,678328,11
326,-1,640533,218860,1189527,65688,7770,594222,0
327,0,709614,248339,1418284,73878,8760,708658,11
327,-1,641975,219842,1291766,65943,7714,645593,0
328,0,728501,251816,1352920,76724,8744,676039,11
328,-1,640288,219414,1173521,65905,6893,586316,0
329,0,708287,248313,1330203,73846,8132,664744,11
329,-1,640890,219433,1266173,65912,7529,632722,0
330,0,710153,247896,1267686,73657,8674,633342,11
330,-1,639658,219251,1178080,65975,6788,588581,0
331,0,712046,248190,1249708,73770,8960,624354,11
331,-1,637626,218689,1262975,65689,7726,631064,0
332,0,706949,247862,1305953,73654,8809,652575,11
332,-1,643941,220685,1269781,66687,7803,634068,0
333,0,707906,248270,1236626,73831,8331,617829,11
333,-1,661262,222685,1225190,68796,8011,611992,0
334,0,731141,252946,1374448,77092,9128,686826,11
334,-1,643453,219920,1289764,66066,7250,644665,0
335,0,709378,247814,1337712,73753,8190,668244,11
335,-1,640481,218715,1239496,65600,7549,619321,0
336,0,706673,247202,1334165,73418,8090,666641,11
336,-1,641905,219750,1157114,66000,7241,577904,0
337,0,711500,248652,1540109,73964,8724,769557,11
337,-1,640296,219234,1196577,65779,7547,597892,0
338,0,709449,247686,1333749,73669,8370,666397,11
338,-1,640808,219334,1230949,65840,7337,615035,0
339,0,714604,249195,1424881,74376,9464,711720,11
339,-1,639784,219337,1194013,65823,7411,596556,0
340,0,705208,247773,1396799,73628,8688,697991,11
340,-1,639541,219707,1305697,65942,7724,652424,0
341,0,705605,248126,1325252,73779,7935,662151,11
341,-1,644053,221010,1283115,66690,7899,640742,0
342,0,726770,251958,1379755,76872,9327,689456,11
342,-1,662367,224789,1217069,69443,8166,608092,0
343,0,713527,250313,1427736,74870,8635,713049,11
343,-1,637714,218797,1157361,65657,7646,578217,0
344,0,705743,247533,1381705,73529,8364,690456,11
344,-1,643943,220181,1257918,66090,7423,627966,0
345,0,706840,247853,1292784,73773,8109,645896,11
345,-1,639853,219071,1358365,65741,8897,678770,0
346,0,709480,248217,1327156,73798,8478,663139,11
346,-1,639964,218819,1279724,65541,8052,639376,0
347,0,705087,247789,1385197,73673,8324,692101,11
347,-1,642309,220175,1284613,66053,7937,642272,0
348,0,728191,252556,1341994,77063,9086,670328,11
348,-1,638812,219238,1384807,65701,8932,691953,0
349,0,711245,248986,1362434,74108,8145,680750,11
349,-1,642792,219534,1343559,65800,8643,671148,0
350,0,708903,249324,1456233,74409,8465,727419,11
350,-1,642567,220362,1332383,66123,8316,665506,0
351,0,705551,247651,1290034,73630,7770,644595,11
351,-1,640733,219911,1193559,65880,7343,596234,0
352,0,708072,248244,1308467,73765,8128,653811,11
352,-1,642520,220732,1319365,66427,7846,658984,0
353,0,708772,247978,1393744,73607,8841,696417,11
353,-1,666848,229072,1290439,68665,8282,644784,0
354,0,713516,249670,1390278,74426,9294,694378,11
354,-1,639561,219609,1354010,65766,8134,676582,0
355,0,706495,247822,1375918,73561,8447,687629,11
355,-1,640873,220176,1194438,66100,8578,596657,0
356,0,708237,247930,1443197,73572,10078,720785,11
356,-1,639460,219807,1281269,65900,8905,639769,0
357,0,709996,250282,1437289,74630,10134,717858,11
357,-1,643966,220681,1320555,66412,8980,659554,0
358,0,708495,248681,1282711,73839,8216,640951,11
358,-1,640586,220254,1363907,66013,9059,681460,0
359,0,708965,249015,1305572,73902,8653,652456,11
359,-1,641309,219883,1255640,65952,8332,627321,0
360,0,710531,249092,1324468,74189,8560,661577,11
360,-1,660434,224365,1348579,69173,9270,673901,0
361,0,730086,252860,1317157,76993,9441,658088,11
361,-1,638747,220057,1413776,66009,9323,706349,0
362,0,713615,250190,1371262,74655,9245,684777,11
362,-1,636215,219126,1144503,65697,8049,571716,0
363,0,710210,248389,1394047,73700,8433,696613,11
363,-1,643781,221210,1308281,66558,9076,653539,0
364,0,709945,248177,1396541,73726,8262,697787,11
364,-1,640425,220397,1437808,66058,9600,718621,0
365,0,707024,247809,1338520,73548,8670,668826,11
365,-1,640529,220367,1220779,66094,8248,609555,0
366,0,712643,249419,1426404,74320,9022,712536,11
366,-1,640130,220614,1290380,66192,8296,644175,0
367,0,710481,248763,1453487,73892,8392,726201,11
367,-1,636918,220272,1488938,66063,8385,743794,0
368,0,715060,250424,1368984,74676,8476,683690,11
368,-1,644720,220283,1399242,66053,8274,699133,0
369,0,709213,248223,1464361,73590,8224,731781,11
369,-1,648259,220063,1284794,66005,8386,641636,0
370,0,710464,248133,1447609,73668,7711,723295,11
370,-1,645735,219071,1288772,65586,8689,644004,0
371,0,711017,248651,1373739,73836,8860,686392,11
371,-1,652662,222098,1285022,66939,9048,641577,0
372,0,710393,248230,1398252,73651,8858,698711,11
372,-1,647167,220294,1367656,66094,9156,683395,0
373,0,710335,247352,1391791,73378,8196,695424,11
373,-1,644739,219493,1251028,65770,8021,624957,0
374,0,706351,247910,1319245,73500,9246,659255,11
374,-1,649228,221112,1360278,66535,8513,679408,0
375,0,708952,248120,1512348,73766,9526,755716,11
375,-1,646180,219808,1375570,65874,9155,686997,0
376,0,710926,248564,1405310,74010,8844,702127,11
376,-1,650857,221580,1365395,66776,8700,681570,0
377,0,705848,247833,1416834,73726,8895,707841,11
377,-1,666564,224173,1320228,69146,9579,659553,0
378,0,709460,248199,1489210,73731,9299,744126,11
378,-1,647049,220502,1343576,66080,8597,671063,0
379,0,710990,248447,1597355,73799,10809,798116,11
379,-1,645010,219664,1255954,65837,8165,627361,0
380,0,712910,248741,1636254,73925,11067,817734,11
380,-1,647414,221011,1369595,66506,8738,684159,0
381,0,713889,248936,1610902,74009,11209,804726,11
381,-1,645708,220342,1229402,66071,8352,614044,0
382,0,710916,249095,1600913,74063,10015,799218,11
382,-1,646821,220442,1308752,66195,9239,653422,0
383,0,742925,260266,1709378,77719,10752,853272,11
383,-1,641400,219025,1322869,65574,9034,660916,0
384,0,711952,248873,1730294,74003,10662,864380,11
384,-1,663272,224120,1339218,69113,9182,669208,0
385,0,713396,248733,1623904,74020,10484,811459,11
385,-1,644794,219794,1326402,66110,8030,662455,0
386,0,713139,249040,1589140,74017,10591,793978,11
386,-1,644876,219617,1178512,65869,7794,588875,0
387,0,712507,248524,1744203,73923,10020,871979,11
387,-1,644025,219543,1287437,65794,7594,643163,0
388,0,713791,248537,1623015,73964,10276,811054,11
388,-1,641129,219008,1279012,65752,7911,638783,0
389,0,734453,253148,1637612,77209,11132,818159,11
389,-1,642033,219659,1330282,65998,7975,664505,0
390,0,714803,248313,1626105,73843,11432,812447,11
390,-1,644711,220848,1318121,66586,8023,658086,0
391,0,712291,249518,1541950,74284,9816,770200,11
391,-1,642829,219002,1384606,65807,9045,691730,0
392,0,712658,248676,1615863,74019,11314,807357,11
392,-1,648303,221799,1350777,67138,8348,674479,0
393,0,714101,248951,1676338,74052,11061,837793,11
393,-1,662474,224182,1211356,69391,7512,604882,0
394,0,710522,248208,1546373,73805,10023,772650,11
394,-1,642019,219260,1335108,65928,7649,667336,0
395,0,713182,249146,1692783,73987,10863,845524,11
395,-1,640933,219252,1433737,65964,7871,715800,0
396,0,734919,253644,1510681,77184,12076,754723,11
396,-1,640067,219089,1382584,65878,8957,690778,0
397,0,714116,249395,1450841,74019,9148,724467,11
397,-1,640752,218886,1163553,65878,7346,581279,0
398,0,714431,249184,1573398,73891,10163,786257,11
398,-1,648339,220861,1334208,66782,8441,666254,0
399,0,715331,249017,1616556,73886,9819,807763,11
399,-1,641825,218776,1295311,65806,8072,647054,0
400,0,718033,249332,1497538,73935,10094,748338,11
400,-1,648638,220895,1427585,66621,8138,713106,0
401,0,719905,251524,1805799,74956,11608,902140,11
401,-1,646471,221541,1433341,66927,7996,715704,0
402,0,716264,249563,1677234,74016,11471,837735,11
402,-1,667420,225111,1318980,69597,9840,659274,0
403,0,714719,249334,1596235,73987,11209,797601,11
403,-1,641356,218897,1377363,65807,9082,688220,0
404,0,714364,249103,1646665,73919,10770,822399,11
404,-1,646418,220775,1393953,66674,8979,695935,0
405,0,709571,250340,1694735,74522,10910,846738,11
405,-1,644323,220248,1186263,66316,7507,592528,0
406,0,730749,253764,1565361,77211,12028,782056,11
406,-1,644845,219784,1248034,66208,7171,623078,0
407,0,712585,251607,1556811,75092,11068,777289,11
407,-1,662135,223707,1193796,69096,7779,596462,0
408,0,706249,248513,1624883,73693,10954,811803,11
408,-1,640803,220025,1150391,66070,6979,574538,0
409,0,712964,250640,1595325,74621,11308,796525,11
409,-1,647319,220829,1356694,66565,8319,677584,0
410,0,713783,249533,1733478,74050,11647,866053,11
410,-1,643244,219495,1148594,66007,7341,573778,0
411,0,708719,249309,1496241,74008,10498,747255,11
411,-1,641725,219457,1238587,65917,7929,618621,0
412,0,713007,249773,1497545,74070,11024,748203,11
412,-1,646325,221204,1408069,66789,8333,703146,0
413,0,711412,248544,1604750,73742,10563,801663,11
413,-1,662340,223670,1208143,69070,7856,603681,0
414,0,711443,248382,1747273,73596,10684,873217,11
414,-1,640804,219030,1263337,65755,7798,631197,0
415,0,708698,249105,1534970,74033,9849,767033,11
415,-1,641207,219474,1199040,65826,7020,599019,0
416,0,711611,249397,1392781,74135,9386,695980,11
416,-1,639952,218222,1231231,65577,7587,615193,0
417,0,712514,249579,1491930,74384,8905,745349,11
417,-1,657132,222444,1222283,68723,7638,610688,0
418,0,714028,250230,1506406,74680,9132,752446,11
418,-1,639073,219373,1202059,65973,7162,600552,0
419,0,709182,248506,1519283,73794,9154,759164,11
419,-1,637128,218324,1118562,65573,7304,558792,0
420,0,712847,248742,1521847,73994,9540,760580,11
420,-1,637770,218627,1149426,65728,7297,574217,0
421,0,714812,249897,1502687,74548,9799,750636,11
421,-1,641155,220056,1194987,66390,7212,596767,0
422,0,710445,248135,1491350,73715,9897,745141,11
422,-1,637328,218814,1110606,65725,7259,554905,0
423,0,712514,249282,1597888,74128,9233,798343,11
423,-1,636646,218505,1146214,65515,6984,572704,0
424,0,733583,253203,1487580,77204,9713,743270,11
424,-1,648202,220613,1189065,66504,7818,593769,0
425,0,711232,248118,1533561,73717,9142,766318,11
425,-1,663328,223186,1166539,68874,8284,582914,0
426,0,712218,248161,1424907,73629,9217,711929,11
426,-1,638762,217998,1328327,65362,7042,663776,0
427,0,711103,248841,1414978,73900,9230,706941,11
427,-1,642996,219974,1265099,66224,7262,631882,0
428,0,713906,249576,1522148,74321,9572,760406,11
428,-1,641240,218791,1248362,65600,6829,623737,0
429,0,715266,250143,1525261,74557,9447,761758,11
429,-1,645250,220963,1238124,66582,7543,618338,0
430,0,729586,253309,1488150,77124,10330,743579,11
430,-1,667162,225124,1273406,70003,8457,636282,0
431,0,708843,248316,1532676,73688,9780,765654,11
431,-1,640417,218397,1160996,65469,6477,580034,0
432,0,707020,248089,1700170,73607,10543,849623,11
432,-1,642430,219785,1338765,66177,6654,668680,0
433,0,709560,248827,1509908,73884,10777,754379,11
433,-1,640141,218410,1212443,65485,7042,605771,0
434,0,707790,247747,1589689,73566,10446,794751,11
434,-1,660050,223649,1181899,68990,7218,590539,0
435,0,710353,249002,1608220,74155,10920,803151,11
435,-1,636878,218331,1146869,65424,6204,573012,0
436,0,707268,247763,1628095,73626,10855,813239,11
436,-1,637634,218915,1210995,65714,6474,604960,0
437,0,714659,249779,1498814,74561,11089,748544,11
437,-1,643137,219934,1248621,66197,7324,623575,0
438,0,708779,247846,1449575,73546,10484,724340,11
438,-1,642073,219082,1180909,65742,7530,589974,0
439,0,707946,248282,1465665,73766,9063,732369,11
439,-1,640714,218720,1378757,65583,7537,688954,0
440,0,709675,248379,1549670,73859,9302,774352,11
440,-1,640877,219056,1279768,65740,7592,639406,0
441,0,715988,250560,1514322,74806,9096,756381,11
441,-1,636471,217426,1223178,65173,6404,611140,0
442,0,708213,247712,1521454,73566,9428,760297,11
442,-1,643177,220353,1245331,66397,7440,621924,0
443,0,710730,247872,1519547,73649,9789,759290,11
443,-1,660320,223533,1182585,68983,7999,590870,0
444,0,709140,248175,1413798,73777,9355,706412,11
444,-1,642143,219433,1227228,65893,7894,612853,0
445,0,714863,249762,1520315,74521,9924,759483,11
445,-1,637791,218159,1161297,65443,7457,580216,0
446,0,711495,248617,1528369,73864,10258,763379,11
446,-1,638950,219485,1263680,65881,7352,631390,0
447,0,716934,249978,1634131,74473,11063,816551,11
447,-1,635579,218010,1121839,65306,6600,560491,0
448,0,705546,247585,1430382,73489,9383,714717,11
448,-1,637950,218942,1131465,65712,6852,565269,0
449,0,729810,253106,1472242,77094,10271,735637,11
449,-1,635322,218448,1161317,65421,7142,580244,0
450,0,709850,248735,1381053,74076,9847,690114,11
450,-1,664105,223538,1302240,69009,8854,650967,0
451,0,707203,247474,1310001,73452,8735,654484,11
451,-1,639853,218648,1306436,65589,7552,652694,0
452,0,707209,247588,1556381,73423,10011,777578,11
452,-1,639151,218464,1302409,65487,8128,650613,0
453,0,708128,247800,1594989,73531,9611,796876,11
453,-1,639717,218914,1243678,65702,7693,621778,0
454,0,711146,248465,1448901,73848,9745,723850,11
454,-1,639458,218795,1292731,65609,8278,645970,0
455,0,712110,247993,1300414,73745,8877,649744,11
455,-1,642215,220307,1358296,66431,8456,678582,0
456,0,712281,247659,1503014,73619,10107,751156,11
456,-1,637276,218730,1265511,65588,7304,632148,0
457,0,705697,247932,1422087,73732,9281,710592,11
457,-1,641766,219217,1355629,65834,7559,677371,0
458,0,706673,247767,1440694,73697,9450,719866,11
458,-1,636131,218447,1232541,65498,6147,615859,0
459,0,706766,247590,1379345,73562,8804,689247,11
459,-1,642238,220367,1271485,66597,7183,634944,0
460,0,707955,248633,1525359,73957,8937,762188,11
460,-1,660719,223920,1219882,69271,7853,609579,0
461,0,705513,247717,1557125,73516,9210,778157,11
461,-1,637880,219049,1242417,65909,6684,620715,0
462,0,706489,247929,1534595,73509,9487,766834,11
462,-1,662958,228045,1319706,68557,6727,659370,0
463,0,710675,249137,1519994,74249,9715,759416,11
463,-1,636199,218318,1255959,65594,6909,627744,0
464,0,712797,249538,1493786,74433,9923,746190,11
464,-1,643403,220551,1268484,66656,7791,633354,0
465,0,707252,247533,1494042,73449,9514,746563,11
465,-1,639331,219856,1203350,66344,6903,600992,0
466,0,706154,248475,1458479,73833,8784,728638,11
466,-1,637664,218984,1148303,65894,6431,573635,0
467,0,705613,247596,1420515,73455,8670,709826,11
467,-1,637129,218954,1252472,65846,6625,625792,0
468,0,729579,252672,1490571,76962,10047,744877,11
468,-1,635649,218486,1244667,65623,6842,621929,0
469,0,708129,248140,1530377,73655,9172,764711,11
469,-1,642109,221551,1359497,66934,7396,678945,0
470,0,707040,247728,1414575,73521,9319,706920,11
470,-1,640830,218472,1245117,65643,7181,622152,0
471,0,708719,247935,1472934,73623,8815,735957,11
471,-1,642482,218594,1189875,65678,7135,594499,0
472,0,706711,247899,1342969,73570,8529,671036,11
472,-1,642386,218822,1208409,65816,7453,603756,0
473,0,708971,248336,1405695,73778,9282,702344,11
473,-1,640098,218316,1273417,65614,7675,636162,0
474,0,711278,248258,1412291,73748,9007,705634,11
474,-1,641735,218773,1208764,65709,7198,603670,0
475,0,710097,247618,1530646,73470,9027,764778,11
475,-1,644060,220126,1284100,66478,7091,641422,0
476,0,706491,247899,1530985,73550,9640,765058,11
476,-1,639906,218742,1278626,65750,7445,638925,0
477,0,729209,252580,1520739,76964,10287,759800,11
477,-1,639489,218559,1179421,65730,6478,589300,0
478,0,708405,248049,1489461,73881,9382,744100,11
478,-1,643745,220660,1272073,66691,7010,635306,0
479,0,729651,252798,1464907,77060,9886,731925,11
479,-1,640957,219215,1344717,65928,7285,671853,0
480,0,708945,247338,1622660,73488,10140,810904,11
480,-1,637465,218026,1261653,65489,7205,630226,0
481,0,712916,248445,1353087,73853,9835,676067,11
481,-1,639912,218985,1190750,65836,7269,594893,0
482,0,701872,245614,1404377,72964,8522,701733,11
482,-1,635697,217681,1177608,65351,6892,588298,0
483,0,706293,247286,1479924,73483,8764,739535,11
483,-1,640149,218817,1232277,65741,6748,615635,0
484,0,706976,246873,1506570,73285,9020,752878,11
484,-1,643358,220275,1308865,66459,6951,653819,0
485,0,711808,248349,1609209,74059,10262,803867,11
485,-1,639644,219067,1263777,65805,6972,631551,0
486,0,711123,247931,1603655,73679,10595,801239,11
486,-1,637103,218513,1312894,65624,6494,655968,0
487,0,717081,249895,1530450,74627,9935,764331,11
487,-1,645018,221359,1259091,66944,7195,628744,0
488,0,714837,250431,1520980,74729,9855,759755,11
488,-1,638211,218680,1187335,65692,6331,593292,0
489,0,707803,247409,1402902,73450,9520,700906,11
489,-1,640755,219283,1334956,65813,6457,667041,0
490,0,711807,249471,1390069,74333,9250,694397,11
490,-1,637311,218621,1301700,65713,6315,650407,0
491,0,705665,246913,1376960,73255,8575,687965,11
491,-1,637533,219073,1187739,65828,6043,593424,0
492,0,735067,253434,1821607,77210,12343,910050,11
492,-1,642316,220732,1253026,66701,6894,625874,0
493,0,712173,248559,1578800,73787,11396,788991,11
493,-1,658313,223766,1201560,69208,7054,600406,0
494,0,706798,247520,1435575,73485,9316,717294,11
494,-1,638011,219666,1243712,66071,6890,621446,0
495,0,709734,248636,1531476,73909,9817,765273,11
495,-1,642924,219645,1257522,66278,7223,628218,0
496,0,711376,248276,1444957,73684,9529,721991,11
496,-1,641669,219387,1271076,65937,7287,635110,0
497,0,737273,256865,1497286,76109,10206,748200,11
497,-1,638564,218584,1185045,65754,7267,592154,0
498,0,712365,247894,1551687,73587,10649,775337,11
498,-1,637954,218428,1255398,65643,7002,627244,0
499,0,716183,250671,1502526,74705,9365,750557,11
499,-1,643638,220091,1352037,66462,8051,675256,0
500,0,709484,247346,1504172,73359,8490,751655,11
500,-1,637418,218055,1197684,65546,6781,598410,0
501,0,712764,248164,1527714,73650,10040,763477,11
501,-1,637452,218667,1193386,65782,6424,596204,0
502,0,708321,247862,1307254,73406,9724,653186,11
502,-1,638352,218381,1171740,65690,6817,585432,0
503,0,710874,248470,1382768,73642,9832,690943,11
503,-1,638326,218325,1231478,65551,7006,615324,0
504,0,710923,248351,1515057,73610,9988,757072,11
504,-1,638383,218610,1191104,65765,6555,595075,0
505,0,731456,252725,1478355,76813,10484,738770,11
505,-1,637762,218232,1186144,65625,6469,592614,0
506,0,715937,250326,1518049,74528,10244,758222,11
506,-1,642380,220685,1203588,66702,6173,601044,0
507,0,710755,247817,1510548,73388,9973,754918,11
507,-1,657981,223073,1211753,69000,7105,605370,0
508,0,712914,248356,1431150,73615,9936,715125,11
508,-1,640834,219992,1242477,66189,6775,620784,0
509,0,714665,250295,1500823,74417,9394,749708,11
509,-1,638132,219127,1127428,65922,6589,563231,0
510,0,733326,252935,1492280,76882,10931,745687,11
510,-1,635436,218449,1172456,65684,7044,585815,0
511,0,712039,248494,1511827,73623,9593,755603,11
511,-1,643487,220404,1178940,66547,7153,588783,0
512,0,713967,248678,1432554,73713,9421,715745,11
512,-1,659998,223451,1159316,69112,7851,579295,0
513,0,717085,250382,1501335,74471,9814,749901,11
513,-1,637887,218389,1221370,65687,7189,610146,0
514,0,715990,249763,1498128,74238,9615,748403,11
514,-1,639131,219078,1297737,65852,6756,648368,0
515,0,711794,247993,1407141,73402,8916,703164,11
515,-1,637085,218725,1254322,65827,6776,626629,0
516,0,712095,247885,1335598,73368,9570,667454,11
516,-1,637678,218621,1159684,65773,7212,579297,0
517,0,711492,247745,1414698,73314,9486,706914,11
517,-1,634802,218021,1307450,65540,6803,653288,0
518,0,715962,248387,1539251,73497,9418,769228,11
518,-1,642116,221114,1276678,66903,7578,637542,0
519,0,728539,252892,1453565,76820,10468,726283,11
519,-1,658110,223612,1192252,69181,7805,595641,0
520,0,713377,249369,1571253,74091,10053,785014,11
520,-1,641666,219655,1253417,66087,6895,626286,0
521,0,708100,247785,1559388,73409,9484,779150,11
521,-1,637570,218666,1216532,65654,6907,607835,0
522,0,708257,248052,1406742,73554,9271,702899,11
522,-1,634055,218216,1240853,65593,7199,619980,0
523,0,708949,247977,1544755,73564,9201,771868,11
523,-1,639584,219704,1211483,66124,7029,605247,0
524,0,709902,247952,1418932,73533,8713,708908,11
524,-1,639070,220168,1244238,66477,7129,621439,0
525,0,709076,247887,1482039,73479,9275,740239,11
525,-1,635700,218953,1205263,65799,6999,602340,0
526,0,710307,248795,1361771,73881,9137,680365,11
526,-1,635856,218403,1147426,65689,6502,573248,0
527,0,727831,251810,1329186,76680,8979,664120,11
527,-1,637344,217944,1169316,65470,6414,584224,0
528,0,729211,252134,1342939,76750,9621,670897,11
528,-1,662719,223560,1201890,69101,7894,600405,0
529,0,715637,250233,1430188,74680,9353,714179,11
529,-1,639483,219141,1224292,65785,6249,611709,0
530,0,710249,247501,1384441,73416,8865,691783,11
530,-1,638120,218514,1155862,65701,6713,577478,0
531,0,708843,249254,1423848,74174,9388,710557,11
531,-1,642697,220330,1261860,66488,7303,630285,0
532,0,704557,247231,1502379,73272,9285,750527,11
532,-1,639577,218845,1247010,65749,6995,623122,0
533,0,706074,247569,1367961,73448,8455,683511,11
533,-1,640757,219193,1204628,65951,6944,601869,0
534,0,728239,252294,1355720,76836,9273,677310,11
534,-1,638556,218365,1252817,65617,6633,625997,0
535,0,714309,250442,1383467,74672,9204,690952,11
535,-1,638058,218483,1118423,65679,6693,558692,0
536,0,706631,247136,1396274,73318,8685,697688,11
536,-1,641703,220312,1186509,66455,6752,592643,0
537,0,711849,249120,1441356,74184,8534,719889,11
537,-1,636608,218415,1148406,65631,6245,573821,0
538,0,710391,247767,1423572,73558,9701,711073,11
538,-1,633471,218138,1180204,65523,5970,589687,0
539,0,711398,250098,1394577,74617,9074,696594,11
539,-1,642853,220093,1293706,66458,7335,646115,0
540,0,711210,248643,1296386,74069,8979,647371,11
540,-1,641277,219688,1330425,66047,6671,664703,0
541,0,708541,247762,1397852,73561,8453,698418,11
541,-1,638422,218649,1218944,65731,6888,608994,0
542,0,706467,247317,1346250,73375,8839,672612,11
542,-1,640231,219874,1245178,66346,6872,621914,0
543,0,711281,248660,1439604,73850,9322,719217,11
543,-1,633569,217621,1252939,65335,6832,626090,0
544,0,711745,247827,1437450,73573,9191,718214,11
544,-1,642883,221075,1258862,66913,6901,628645,0
545,0,708925,247005,1496491,73267,9416,747738,11
545,-1,638485,218497,1277061,65664,6855,638120,0
546,0,712957,248304,1300171,73726,8762,649535,11
546,-1,636512,218844,1254028,65803,6731,626596,0
547,0,704295,247507,1284241,73470,8234,641483,11
547,-1,635985,218969,1196616,65869,6125,597882,0
548,0,710006,248141,1411186,73660,8554,705052,11
548,-1,634746,218171,1184407,65550,6583,591750,0
549,0,705724,247500,1246459,73489,8688,622681,11
549,-1,655717,222816,1210651,68936,7896,604855,0
550,0,706945,247603,1293824,73399,8867,646352,11
550,-1,636051,219069,1229193,65844,6663,614125,0
551,0,711127,248879,1321141,74101,9140,659639,11
551,-1,633755,218174,1237721,65580,6900,618467,0
552,0,707889,247430,1401738,73391,8568,700411,11
552,-1,639871,218899,1270633,65796,7010,634911,0
553,0,729170,252261,1346969,76777,8819,672901,11
553,-1,636981,217937,1173220,65482,6512,586181,0
554,0,713332,249407,1366087,74379,8948,682173,11
554,-1,642807,220704,1265688,66694,6840,632108,0
555,0,707388,247178,1442414,73313,8964,720981,11
555,-1,656866,222947,1196290,68979,7634,597654,0
556,0,736441,257578,1426383,76665,8782,712435,11
556,-1,641654,219987,1242101,66185,7106,620590,0
557,0,707347,247099,1408018,73284,8396,703569,11
557,-1,638743,218972,1219308,65814,6674,609171,0
558,0,708454,247110,1464918,73284,9234,732035,11
558,-1,636658,218650,1183883,65772,6319,591379,0
559,0,709264,247533,1303442,73475,8490,651141,11
559,-1,636484,218938,1210629,65841,6204,604801,0
560,0,709048,247031,1388164,73237,9155,693552,11
560,-1,636315,218932,1227913,65780,6465,613498,0
561,0,728661,252084,1483393,76696,9291,741268,11
561,-1,637511,218187,1142329,65633,6414,570731,0
562,0,711382,248203,1390646,73691,9014,694835,11
562,-1,655177,222544,1162773,68758,6973,580948,0
563,0,707627,247367,1488838,73373,9148,743923,11
563,-1,639505,219630,1169882,66073,7215,584451,0
564,0,715128,249301,1347705,74234,9387,673105,11
564,-1,634913,218270,1146969,65599,6340,573038,0
565,0,708324,247595,1380890,73468,9518,689997,11
565,-1,635518,218573,1178751,65737,6720,588877,0
566,0,710013,247533,1239391,73438,9342,619308,11
566,-1,634984,218664,1224325,65710,6554,611678,0
567,0,709120,247500,1231077,73428,8873,614786,11
567,-1,637303,220141,1362754,66502,7452,680528,0
568,0,732918,252381,1441064,76851,10104,720061,11
568,-1,638312,219541,1238566,66167,6747,618701,0
569,0,712383,247654,1316739,73534,8952,657794,11
569,-1,638208,219256,1242735,65954,6271,620938,0
570,0,713484,247257,1364519,73334,8397,681890,11
570,-1,655657,222893,1278822,68868,7491,639028,0
571,0,710407,249526,1342009,74338,9064,670055,11
571,-1,634061,218588,1316506,65736,7083,657753,0
572,0,707645,248195,1312593,73693,8631,655756,11
572,-1,639557,219917,1256920,66356,7091,627841,0
573,0,707278,247654,1479622,73470,8631,739248,11
573,-1,635062,218955,1220194,65822,7230,609670,0
574,0,711153,248987,1362073,74141,8563,680180,11
574,-1,638286,220361,1247077,66587,7044,622755,0
575,0,709059,247601,1386362,73525,8819,692678,11
575,-1,634313,218783,1264872,65787,7677,632077,0
576,0,708935,247227,1487348,73312,9103,743203,11
576,-1,632071,218152,1192208,65550,6553,595612,0
577,0,708255,247970,1403270,73595,8890,701114,11
577,-1,636959,220292,1266074,66475,7176,632387,0
578,0,704806,246931,1307547,73201,7982,653342,11
578,-1,643889,219307,1241526,65952,7573,620327,0
579,0,710973,249474,1280285,74394,8496,639209,11
579,-1,660130,222465,1250725,68697,8508,624889,0
580,0,709895,248044,1414699,73641,8955,706800,11
580,-1,639276,218371,1241927,65653,7613,620532,0
581,0,714774,249910,1305110,74607,8496,651610,11
581,-1,642037,218977,1304601,65818,8017,651921,0
582,0,709873,247568,1472353,73393,8899,735745,11
582,-1,641658,218988,1181552,65855,7778,590285,0
583,0,713903,248644,1452312,74012,9230,725430,11
583,-1,640220,218841,1152814,65834,7454,575879,0
584,0,712460,248634,1477670,73851,9561,738184,11
584,-1,637825,218071,1183668,65561,7530,591475,0
585,0,708429,246528,1295189,73037,8850,647145,11
585,-1,661486,223109,1219852,68984,8204,609476,0
586,0,727003,252031,1416849,76733,9255,707952,11
586,-1,641579,218977,1272883,65763,7283,635948,0
587,0,708885,248276,1452320,73655,8672,725760,11
587,-1,642581,220340,1270330,66438,7381,634521,0
588,0,705851,247071,1319651,73369,8588,659305,11
588,-1,640914,219035,1153517,65851,6493,576289,0
589,0,708244,247617,1401183,73435,8298,700188,11
589,-1,637852,218124,1301738,65514,6840,650415,0
590,0,728756,251898,1425795,76676,9061,712455,11
590,-1,639590,219172,1340549,65890,6743,669811,0
591,0,716190,250170,1346234,74540,8945,672266,11
591,-1,637237,217950,1241423,65401,7267,620230,0
592,0,709764,247095,1428935,73286,9122,714036,11
592,-1,640182,218371,1252556,65619,7334,625811,0
593,0,707617,247903,1294879,73660,8643,646811,11
593,-1,644401,220735,1319376,66769,7596,658799,0
594,0,709502,247548,1237426,73445,8307,618187,11
594,-1,659345,223284,1215281,69056,8131,607138,0
595,0,708001,247676,1308213,73549,8504,653602,11
595,-1,636100,217634,1238350,65460,7367,618678,0
596,0,717976,250491,1332313,74647,9267,665225,11
596,-1,638702,218566,1207839,65741,6521,603488,0
597,0,708936,247601,1372070,73462,8953,685623,11
597,-1,639724,218917,1270174,65796,6822,634616,0
598,0,710155,247880,1285753,73610,8390,642159,11
598,-1,637609,218484,1221847,65657,7261,610523,0
599,0,710729,247443,1315937,73403,9197,657498,11
599,-1,642288,220706,1381016,66625,8088,689655,0
600,0,731499,252283,1443489,76798,10044,721319,11
600,-1,658035,223407,1378345,69108,8657,688776,0
601,0,718717,250687,1327155,74833,9154,662707,11
601,-1,641874,219838,1446516,66159,8228,722500,0
602,0,711858,247871,1452407,73578,8917,725642,11
602,-1,635808,217987,1284243,65509,7429,641674,0
603,0,710385,246808,1491424,73128,9045,745257,11
603,-1,641784,220306,1293130,66485,8102,645799,0
604,0,711379,247386,1311618,73395,9144,655096,11
604,-1,636582,219152,1329847,65880,8709,664375,0
605,0,712438,247546,1374821,73490,9146,686919,11
605,-1,641353,218965,1181597,65867,7856,590277,0
606,0,708393,247836,1393802,73531,9067,696431,11
606,-1,644259,220333,1251377,66577,8586,624757,0
607,0,714143,249821,1459437,74392,8439,728682,11
607,-1,641105,219391,1348743,65990,8659,673754,0
608,0,710034,247681,1420762,73512,8818,709843,11
608,-1,636393,217656,1360699,65351,7338,679856,0
609,0,708034,247587,1364894,73468,8515,681979,11
609,-1,637009,218107,1292948,65580,7609,645885,0
610,0,713412,249560,1312109,74318,8156,655293,11
610,-1,637592,218373,1231336,65684,8034,615304,0
611,0,709291,247801,1528708,73588,8834,763791,11
611,-1,636193,218444,1293162,65631,7273,646115,0
612,0,707469,246877,1412412,73223,8095,705733,11
612,-1,638476,218765,1326338,65738,7990,662652,0
613,-1,637561,218697,1315491,65773,7266,656603,0
613,0,714328,249820,1322123,74474,8312,660271,11
614,-1,641343,220562,1388181,66662,8478,693035,0
614,0,711040,247800,1331823,73567,8769,665195,11
615,-1,637117,219316,1289635,65915,7209,644236,0
615,0,711571,247583,1302120,73442,9068,650520,11
616,-1,635017,218419,1291421,65597,7494,645285,0
616,0,714286,249502,1297827,74452,8436,647865,11
617,-1,640091,218558,1214029,65721,7795,606373,0
617,0,711193,247578,1359589,73439,8927,679254,11
618,-1,642455,219968,1394297,66365,8520,696490,0
618,0,736956,256462,1460549,76077,8983,729761,11
619,-1,643703,220865,1360569,66801,8448,678854,0
619,0,706529,247262,1336373,73319,8346,667750,11
620,-1,638065,219135,1341905,65890,8248,670542,0
620,0,710455,248059,1482459,73631,9034,740717,11
621,-1,637756,219508,1199837,66022,6773,599410,0
621,0,729818,251902,1549155,76685,9760,774175,11
622,-1,639033,219984,1293586,66382,7487,646024,0
622,0,711092,247867,1516792,73528,8959,758044,11
623,-1,637459,218698,1226061,65775,7853,612585,0
623,0,709471,247438,1539015,73430,9073,769026,11
624,-1,641458,220432,1234897,66603,7704,616717,0
624,0,709898,247210,1340762,73274,8125,669896,11
625,-1,636332,218915,1153391,65838,7293,576193,0
625,0,715180,248919,1306112,74107,8486,652367,11
626,-1,635674,218864,1243582,65782,7620,621448,0
626,0,709802,247456,1417706,73258,8130,708042,11
627,-1,636114,217801,1173516,65395,6593,586344,0
627,0,711203,247498,1388639,73409,9052,693820,11
628,-1,644284,220087,1289747,66500,7915,644118,0
628,0,716830,249136,1354820,74085,9224,676760,11
629,-1,642444,220118,1247794,66353,7121,623236,0
629,0,707393,246728,1508563,73093,9108,752895,11
630,-1,641236,218993,1159236,65892,6791,579147,0
630,0,711678,247547,1309756,73339,8418,654372,11
631,-1,638206,218256,1236985,65577,7234,618127,0
631,0,710641,247071,1246618,73200,8040,622775,11
632,-1,639967,218789,1145344,65766,6584,572225,0
632,0,712103,247534,1332349,73394,8046,665718,11
633,-1,643533,221013,1275501,66785,6933,636949,0
633,0,718402,249519,1312384,74238,8141,655508,11
634,-1,639273,218563,1267172,65696,7313,633084,0
634,0,719800,249947,1583024,74460,9342,790695,11
635,-1,638350,218689,1196957,65773,6577,597992,0
635,0,713798,247223,1500153,73253,8159,749318,11
636,-1,641749,219986,1304605,66376,7525,651693,0
636,0,701956,247581,1451230,73011,8704,724879,11
637,-1,637939,218805,1277654,65762,7891,638131,0
637,0,722251,252454,1583597,76359,10878,791303,11
638,-1,641618,219884,1227053,66112,7635,612630,0
638,0,705154,249484,1425820,73842,9020,711834,11
639,-1,644390,221420,1398351,66907,8214,698171,0
639,0,701708,248031,1495129,73162,9628,747011,11
640,-1,657134,223168,1401373,69008,9252,700112,0
640,0,722785,252335,1528311,76301,9954,763693,11
641,-1,636609,218847,1364773,65774,8056,682174,0
641,0,702436,246997,1415388,72751,8297,707274,11
642,-1,642462,219419,1360607,66149,8684,677765,0
642,0,707301,249215,1371114,73718,8012,684897,11
643,-1,642677,220970,1303684,66829,8872,651338,0
643,0,702905,247302,1331608,72907,8133,665367,11
644,-1,659525,223463,1212266,69045,9280,605500,0
644,0,705803,249558,1228082,73869,8758,613509,11
645,-1,638556,219004,1264451,65889,8682,631577,0
645,0,725310,252219,1416197,76282,9194,707601,11
646,-1,638437,219479,1350650,66226,8562,674493,0
646,0,708165,248895,1318748,73601,8274,658633,11
647,-1,633414,217743,1233949,65482,7744,616524,0
647,0,706308,248124,1378503,73123,8269,688499,11
648,-1,634350,218202,1287544,65600,7822,643373,0
648,0,705526,247532,1284357,72954,8154,641661,11
649,-1,637184,218503,1166978,65675,6765,583052,0
649,0,707642,247695,1363517,72991,8816,681338,11
650,-1,635239,218450,1258194,65715,7170,628554,0
650,0,702817,247558,1276652,73004,8881,637850,11
651,-1,639481,220024,1269249,66391,7312,634009,0
651,0,706550,248394,1299109,73234,8792,649070,11
652,-1,635923,218900,1207406,65852,6837,602762,0
652,0,702725,247259,1358415,72849,8997,678818,11
653,-1,635086,218572,1288906,65715,7402,643933,0
653,0,707620,248731,1237781,73549,8282,618131,11
654,-1,638286,218748,1248708,65746,7075,624031,0
654,0,725801,252199,1412258,76277,9222,705625,11
655,-1,639267,219431,1253613,66210,7522,626144,0
655,0,706404,249325,1280148,73833,8969,639374,11
656,-1,638439,218420,1234324,65588,6936,616685,0
656,0,706951,247749,1678209,73060,9845,838694,11
657,-1,637975,218810,1253200,65838,7255,626024,0
657,0,703836,247441,1376624,72979,8428,687818,11
658,-1,637084,219317,1306147,65970,7522,652642,0
658,0,706796,248274,1316089,73398,8423,657331,11
659,-1,637075,218523,1259364,65681,7579,629274,0
659,0,705934,247501,1413891,72959,7830,706504,11
660,-1,636973,218518,1161501,65672,7003,580412,0
660,0,706720,247589,1439637,73025,8730,719346,11
661,-1,641369,220212,1261054,66450,7385,629898,0
661,0,724816,251849,1449168,76205,9121,724171,11
662,-1,636916,218829,1150378,65813,6914,574707,0
662,0,709107,247849,1378692,73070,8694,688814,11
663,-1,640760,220299,1261177,66513,7101,629947,0
663,0,699829,247289,1400416,72888,9345,699719,11
664,-1,634528,218178,1197344,65561,6743,598262,0
664,0,702157,247288,1398744,72846,9031,698944,11
665,-1,633802,218525,1141562,65721,6538,570300,0
665,0,704106,246896,1252073,72842,8866,625531,11
666,-1,656638,223205,1157518,69028,7445,578357,0
666,0,700624,247403,1282207,73086,9303,640593,11
667,-1,635520,218528,1178275,65735,7634,588607,0
667,0,701370,246775,1355422,72763,9131,677283,11
668,-1,635202,218177,1208165,65563,7123,603667,0
668,0,707542,248925,1245837,73761,8699,621997,11
669,-1,636210,218951,1171161,65796,7118,585142,0
669,0,704671,247265,1246021,72931,8087,622589,11
670,-1,634166,218253,1248938,65655,7007,623991,0
670,0,704278,247299,1300804,72994,8314,649925,11
671,-1,633191,218355,1235792,65620,6484,617439,0
671,0,711871,249825,1343394,74100,8559,670950,11
672,-1,640234,220413,1269886,66549,6829,634145,0
672,0,703599,247463,1311419,73066,8556,655293,11
673,-1,635947,218883,1230872,65839,6970,614965,0
673,0,705562,247455,1311514,73120,8434,655362,11
674,-1,638808,220314,1247969,66483,7234,623363,0
674,0,705871,247778,1392375,73178,8377,695696,11
675,-1,634376,218662,1179871,65772,6871,589421,0
675,0,706598,247501,1245464,73100,8162,622267,11
676,-1,632375,218164,1267646,65622,7151,633383,0
676,0,705040,246998,1357559,72873,9114,678663,11
677,-1,633738,218837,1181644,65779,6932,590320,0
677,0,723705,251858,1483854,76283,10599,741517,11
678,-1,654024,223062,1182813,68982,7212,591027,0
678,0,709634,248684,1374011,74317,10383,686504,11
679,-1,639285,218142,1268902,65524,7692,634072,0
679,0,726067,251861,1462292,77176,9610,730848,11
680,-1,644735,220190,1277368,66425,8072,638015,0
680,0,710248,249273,1314167,74805,9166,656294,11
681,-1,641485,219150,1278325,65936,7377,638645,0
681,0,708017,247961,1302870,74097,8821,650947,11
682,-1,641886,219389,1315710,65982,6843,657331,0
682,0,707335,247292,1391699,73801,8887,695461,11
683,-1,642465,220334,1298626,66524,7067,648567,0
683,0,709536,248359,1402014,74184,9364,700561,11
684,-1,664271,224364,1195452,69895,7767,597301,0
684,0,712696,248805,1491982,74585,9856,745127,11
685,-1,637415,218681,1240997,65725,6240,619996,0
685,0,705531,247231,1440083,73772,8946,719692,11
686,-1,638602,218977,1155412,65862,7098,577169,0
686,0,713438,249654,1336545,74978,9279,667811,11
687,-1,644088,220327,1273576,66485,7238,636145,0
687,0,708688,247068,1310912,73708,9407,654946,11
688,-1,637866,218404,1255260,65649,7462,627145,0
688,0,708728,248285,1257805,74425,8946,628111,11
689,-1,635783,218032,1167412,65481,6635,583297,0
689,0,707488,247283,1506548,73942,10102,752531,11
690,-1,638053,219065,1116896,65904,6539,557977,0
690,0,710187,247973,1479878,74058,10896,739411,11
691,-1,636875,219231,1206293,65925,8829,602741,0
691,0,709037,247337,1350550,73937,10430,674792,11
692,-1,640945,219335,1299067,65974,7513,649069,0
692,0,711539,247838,1564118,74097,11128,781444,11
693,-1,636439,217699,1152072,65353,7065,575604,0
693,0,703442,247862,1489079,74027,10288,744023,11
694,-1,637050,218523,1347290,65724,7981,673137,0
694,0,703722,246562,1507418,73542,9966,753181,11
695,-1,634377,218443,1175247,65634,7002,586995,0
695,0,707626,248877,1389610,74553,9049,694143,11
696,-1,636556,218912,1229023,65845,7294,614074,0
696,0,703447,247171,1554495,73796,9453,776257,11
697,-1,639211,219996,1373530,66399,8120,686030,0
697,0,704103,247278,1451230,73905,9741,725169,11
698,-1,636903,219123,1274102,65908,7651,636522,0
698,0,704116,246911,1529951,73728,10019,764461,11
699,-1,636811,219229,1239277,65942,7202,619114,0
699,0,710565,249125,1448582,74685,9829,723411,11
700,-1,633749,218324,1167401,65540,7352,583352,0
700,0,704839,247351,1432879,73866,9584,715946,11
701,-1,638530,218450,1176984,65694,7429,587857,0
701,0,712073,249801,1390966,74991,9790,694606,11
702,-1,638866,218703,1189778,65792,7334,594211,0
702,0,707476,247242,1522090,73827,10388,760610,11
703,-1,636469,218186,1340551,65571,7558,669904,0
703,0,707072,246831,1442930,73710,10054,720872,11
704,-1,641746,220340,1281500,66572,7644,640021,0
704,0,703718,247013,1442966,73781,10238,720952,11
705,-1,636422,218586,1195727,65704,7474,597209,0
705,0,709892,249352,1283509,74766,9534,640858,11
706,-1,634955,218504,1166651,65713,7621,582831,0
706,0,704713,247388,1369773,73936,9586,684375,11
707,-1,638159,219737,1248108,66301,8723,623411,0
707,0,704787,246779,1399525,73686,8951,699203,11
708,-1,639260,218815,1210262,65881,8427,604448,0
708,0,706696,247031,1378764,73825,9231,688656,11
709,-1,654380,222465,1239001,68894,7941,618924,0
709,0,733867,256120,1464164,76540,9124,731645,11
710,-1,637528,218939,1301758,65931,7640,650469,0
710,0,709135,247357,1315643,73858,8499,657325,11
711,-1,635278,218574,1174379,65807,6674,586592,0
711,0,723696,251786,1466770,77089,10372,732714,11
712,-1,636200,219028,1287177,66081,7646,643063,0
712,0,706703,247301,1507054,73918,9437,753021,11
713,-1,632734,218075,1149788,65654,6644,574352,0
713,0,711408,249059,1357461,74739,8480,677810,11
714,-1,633609,218246,1305518,65650,8168,652222,0
714,0,707732,246966,1295073,73747,8556,647059,11
715,-1,636249,217800,1317098,65520,7128,658014,0
715,0,727751,251703,1385219,77107,10242,692046,11
716,-1,643317,220980,1311588,66909,7697,654930,0
716,0,714389,249711,1277827,74927,8857,637840,11
717,-1,635796,218563,1247308,65783,7066,623278,0
717,0,707735,248062,1436718,74164,9149,717789,11
718,-1,668226,229375,1330860,69268,8304,664757,0
718,0,706924,247413,1448645,73954,9208,723848,11
719,-1,634562,218016,1178180,65655,7101,588514,0
719,0,705163,247011,1510674,73685,8925,754834,11
720,-1,634004,218336,1256743,65711,7947,628077,0
720,0,707764,247540,1513347,73920,10352,755847,11
721,-1,655629,222784,1262932,68980,9165,631202,0
721,0,707824,247180,1651908,73778,11252,824950,11
722,-1,635936,218504,1352239,65791,8666,675707,0
722,0,710970,247529,1578603,73927,10902,788322,11
723,-1,636199,219027,1313037,66001,7537,655495,0
723,0,733696,252124,1661372,77226,12252,830213,11
724,-1,637114,219557,1360832,66270,8100,679734,0
724,0,706095,247608,1478772,74056,9991,738863,11
725,-1,633241,218353,1296564,65700,7966,647781,0
725,0,705481,247557,1412315,73948,8868,705664,11
726,-1,635925,218625,1285652,65802,8298,642307,0
726,0,704322,246994,1430885,73819,8951,714931,11
727,-1,636436,219241,1297554,65995,8916,648422,0
727,0,707626,248142,1426652,74183,9331,712692,11
728,-1,654379,222678,1250802,68927,9712,624859,0
728,0,726850,251625,1474899,77129,9869,737021,11
729,-1,633461,218660,1363461,65869,9622,681230,0
729,0,704466,247162,1465378,73828,9504,732193,11
730,-1,641449,219245,1330372,66234,9265,664210,0
730,0,710691,248621,1438042,74530,9326,718323,11
731,-1,640294,219140,1290021,66030,8333,644332,0
731,0,705850,246841,1310439,73707,8577,654773,11
732,-1,639410,219042,1252267,65972,7863,625650,0
732,0,708967,247603,1426355,74032,8905,712608,11
733,-1,658271,222721,1274032,68964,8814,636781,0
733,0,707612,246902,1470459,73717,9358,734780,11
734,-1,637145,218425,1369861,65805,8546,684342,0
734,0,707784,247193,1427418,73850,8886,713204,11
735,-1,634640,217694,1294549,65515,8228,646816,0
735,0,727771,251736,1616148,77110,12794,807363,11
736,-1,637489,218770,1304338,65825,8744,651345,0
736,0,713090,249573,1513722,74803,12006,755712,11
737,-1,639031,218383,1347539,65715,7321,673318,0
737,0,710194,247113,1423098,73786,9890,711137,11
738,-1,636370,218977,1291928,65968,7545,645494,0
738,0,744441,258840,2042181,77662,13492,1020147,11
739,-1,634847,218864,1268476,65924,6954,633949,0
739,0,730155,252405,1634529,77330,11800,816774,11
740,-1,634040,218532,1286692,65792,7699,643072,0
740,0,707932,247274,1583532,73814,10669,791398,11
741,-1,658453,223049,1214758,69078,7718,606916,0
741,0,708657,246562,1687653,73627,10906,843068,11
742,-1,637188,218401,1247697,65727,7105,623505,0
742,0,705492,247183,1603905,73881,10975,801351,11
743,-1,636628,219290,1240403,66244,7633,619526,0
743,0,711683,248928,1517724,74594,11013,758285,11
744,-1,637076,218577,1150779,65848,7531,574953,0
744,0,709409,247387,1507033,73867,9464,753131,11
745,-1,637316,219344,1267805,66068,7197,633450,0
745,0,709446,247051,1480927,73719,9239,740092,11
746,-1,633788,218225,1232412,65724,7595,615520,0
746,0,713992,248494,1486388,74463,9784,742547,11
747,-1,637325,218838,1185615,65880,7084,592367,0
747,0,710480,247189,1497744,73855,10021,748381,11
748,-1,630519,216679,1113437,65265,6307,556239,0
748,0,707065,247213,1461901,73874,8766,730442,11
749,-1,636701,219330,1204491,66260,7925,601514,0
749,0,711825,247691,1490516,73991,9432,744814,11
750,-1,634563,218033,1145021,65604,7829,572020,0
750,0,730994,251797,1552018,77103,10454,775587,11
751,-1,633710,218569,1273254,65828,7896,636004,0
751,0,709699,247323,1529417,73807,9505,764258,11
752,-1,632611,218492,1226167,65689,7207,612481,0
752,0,706935,245917,1482244,73462,9535,740656,11
753,-1,631315,218256,1168292,65725,7746,583439,0
753,0,712241,247529,1620788,73987,10964,809959,11
754,-1,636259,217889,1221955,65585,8039,610438,0
754,0,730654,251390,1585807,76958,10564,792384,11
755,-1,638010,218908,1284598,65962,7898,641711,0
755,0,701690,246950,1375076,73749,9976,687201,11
756,-1,640165,220183,1274831,66560,8315,636717,0
756,0,703879,247080,1410981,73767,9759,704996,11
757,-1,636135,218522,1269283,65755,7986,634169,0
757,0,703854,247149,1519660,73801,11446,759320,11
758,-1,638129,219410,1379710,66320,8728,689176,0
758,0,704166,247182,1490438,73765,9705,744690,11
759,-1,632711,217881,1232474,65547,7757,615676,0
759,0,711129,249381,1389859,74801,9678,694379,11
760,-1,631106,217632,1243880,65442,7569,621450,0
760,0,706907,247592,1547924,73911,9823,773531,11
761,-1,635340,218053,1162405,65614,7409,580895,0
761,0,706774,247560,1423522,74119,9909,711102,11
762,-1,640186,220363,1282984,66685,8439,640621,0
762,0,708793,247279,1426613,73820,9872,712890,11
763,-1,656235,223065,1204670,69099,8608,601775,0
763,0,703853,247101,1505188,73706,9678,752165,11
764,-1,632696,218037,1145538,65666,7412,572337,0
764,0,706384,247745,1606719,74029,9875,803081,11
765,-1,631763,217895,1316127,65574,7694,657581,0
765,0,709224,248820,1456885,74568,9009,727736,11
766,-1,630881,217795,1398751,65477,8690,699110,0
766,0,706891,247514,1369923,73893,9429,684593,11
767,-1,636454,218527,1265081,65825,7521,632062,0
767,0,705535,246998,1392605,73725,9406,695717,11
768,-1,635089,218630,1258907,65792,7596,628961,0
768,0,705914,247881,1532019,74018,9647,765626,11
769,-1,635346,218824,1245294,65935,7478,622140,0
769,0,709937,248482,1440774,74463,9195,719679,11
770,-1,638703,220545,1364558,66732,8225,681491,0
770,0,706749,247077,1526503,73744,10243,762846,11
771,-1,652840,222594,1187060,68942,7625,593023,0
771,0,707736,248617,1434677,74460,10148,716335,11
772,-1,630869,217891,1219096,65644,7779,609128,0
772,0,706687,248131,1436867,74028,9081,717999,11
773,-1,632083,218253,1238285,65730,7230,618728,0
773,0,706982,247824,1552798,73942,9797,775763,11
774,-1,638355,220450,1375476,66703,7948,686940,0
774,0,705193,247192,1515330,73797,9209,757205,11
775,-1,654419,223296,1301167,69146,7716,650138,0
775,0,711789,248860,1422394,74545,9129,710753,11
776,-1,632852,218784,1323148,65892,7007,661057,0
776,0,707594,247860,1491165,74029,10162,745133,11
777,-1,632404,219061,1148543,65983,6471,573692,0
777,0,704745,246825,1420412,73634,9577,709776,11
778,-1,648298,220482,1307457,66725,8364,652857,0
778,0,707698,248101,1449042,74135,9267,724115,11
779,-1,662558,222722,1203018,68965,8260,600966,0
779,0,712350,248768,1363202,74541,9416,680815,11
780,-1,643999,219577,1287583,66353,8099,643142,0
780,0,707804,247492,1447140,73977,10105,722626,11
781,-1,642184,218547,1150559,65839,7632,574774,0
781,0,710407,247432,1454205,73983,9610,726576,11
782,-1,640729,218149,1267051,65654,7498,633065,0
782,0,708377,248073,1540250,74159,9628,769613,11
783,-1,646946,220339,1342030,66689,8339,670257,0
783,0,707401,247363,1513439,73848,9678,756313,11
784,-1,642580,219481,1327287,66265,8327,662681,0
784,0,705945,247103,1491455,73832,9179,745256,11
785,-1,641433,218329,1257755,65751,7854,628344,0
785,0,709105,247908,1449762,74050,8711,724518,11
786,-1,642103,218928,1235650,65905,7608,617428,0
786,0,707575,247040,1449279,73818,8511,724094,11
787,-1,639943,217632,1244229,65505,7579,621601,0
787,0,707713,248098,1418258,74156,8973,708553,11
788,-1,640111,217652,1281930,65492,7241,640536,0
788,0,707801,246866,1422897,73753,9140,711000,11
789,-1,640731,218482,1172546,65810,7668,585736,0
789,0,711788,247941,1318104,74099,8511,658556,11
790,-1,639097,217888,1244773,65574,7897,621876,0
790,0,705837,248429,1325325,74416,9197,662011,11
791,-1,643815,219906,1205642,66542,8694,601900,0
791,0,705933,247965,1485358,74061,9690,742182,11
792,-1,639601,218298,1181611,65759,7780,590311,0
792,0,706286,248043,1373087,74115,8711,686022,11
793,-1,643467,219018,1257769,66117,8451,628192,0
793,0,705885,247534,1237578,73970,8289,618313,11
794,-1,642204,218862,1176841,65931,7867,587837,0
794,0,705917,247149,1280567,73816,8315,639733,11
795,-1,639763,218612,1276166,65793,7530,637453,0
795,0,710045,248542,1250183,74497,8074,624491,11
796,-1,640590,218903,1254601,65955,7790,626931,0
796,0,707296,247418,1251191,73898,8752,625170,11
797,-1,638920,218279,1249647,65686,7731,624386,0
797,0,710781,249004,1366274,74725,8775,682340,11
798,-1,637222,218337,1179449,65806,7913,589155,0
798,0,730464,251858,1472626,77114,9672,735840,11
799,-1,641402,218713,1377169,65902,7599,688027,0
799,0,711503,249358,1429533,74871,8897,713885,11
800,-1,639297,218329,1250534,65725,7260,624803,0
800,0,706722,247693,1522953,73982,9282,761126,11
801,-1,639373,217809,1177338,65541,7311,588152,0
801,0,707577,247512,1362825,73990,8074,680909,11
802,-1,640648,218702,1156842,65864,7040,577905,0
802,0,729373,251801,1455853,77158,9304,727438,11
803,-1,639951,218460,1290842,65803,7679,644879,0
803,0,712044,249277,1307448,74826,8616,652970,11
804,-1,642819,219869,1276880,66452,7675,637721,0
804,0,709505,247600,1439369,73958,8808,719150,11
805,-1,639135,217914,1264322,65534,7311,631679,0
805,0,709334,247197,1403930,73813,8602,701514,11
806,-1,636404,217705,1252667,65549,6904,625772,0
806,0,710993,248601,1338715,74512,9024,668630,11
807,-1,645291,221173,1289838,67013,7715,644002,0
807,0,707292,247065,1314753,73744,8790,657002,11
808,-1,636164,218181,1288715,65750,7527,643932,0
808,0,706036,246865,1236968,73674,9046,618201,11
809,-1,637896,217436,1179759,65429,7151,589453,0
809,0,708781,247553,1363781,73942,9237,681358,11
810,-1,645247,220136,1250620,66539,8360,624304,0
810,0,710703,247835,1328539,73976,8631,663864,11
811,-1,639458,218270,1174449,65699,7633,586712,0
811,0,712944,249613,1265146,74869,8641,631760,11
812,-1,640866,219216,1180856,66063,7749,589824,0
812,0,708543,247229,1331064,73794,8197,665088,11
813,-1,644866,220301,1234731,66601,8104,616501,0
813,0,711091,247897,1346546,74004,7855,672839,11
814,-1,660015,222985,1205539,69072,8307,602247,0
814,0,732635,252209,1558430,77235,10314,778729,11
815,-1,637519,218424,1163597,65804,6711,581316,0
815,0,710866,248498,1324620,74488,8711,661661,11
816,-1,640530,220111,1267343,66526,7457,632916,0
816,0,713140,248278,1338752,74177,8465,668905,11
817,-1,639657,218512,1156502,65835,6865,577579,0
817,0,736447,253564,1481212,78242,10239,740165,11
818,-1,637117,217595,1291109,65449,7078,645177,0
818,0,714388,249144,1425025,74755,8478,711917,11
819,-1,637513,218117,1170108,65644,6927,584636,0
819,0,710697,247628,1328066,73994,8484,663274,11
820,-1,642768,220516,1276715,66731,7703,637456,0
820,0,714505,248261,1366329,74392,9279,682479,11
821,-1,638487,218513,1264035,65779,7345,631477,0
821,0,713769,247551,1427773,73968,8737,713422,11
822,-1,642371,220712,1277582,66716,7660,638137,0
822,0,726233,252018,1454098,77103,10411,726624,11
823,-1,634795,217957,1262718,65617,7648,630913,0
823,0,708607,247808,1317243,73893,8846,658142,11
824,-1,643195,218014,1301465,65654,7378,650259,0
824,0,703755,246800,1390217,73475,8213,694667,11
825,-1,661357,222667,1215900,69031,8591,607499,0
825,0,707199,247548,1383045,73804,8510,691108,11
826,-1,643098,218960,1243568,65964,7347,621280,0
826,0,708529,248011,1431989,74062,8268,715543,11
827,-1,641690,218794,1161937,65850,6456,580432,0
827,0,706116,246969,1409189,73646,7791,704136,11
828,-1,641903,219783,1273052,66476,7208,635773,0
828,0,708816,248518,1421402,74308,8827,710198,11
829,-1,658406,222535,1282928,68882,7663,641006,0
829,0,728611,252233,1551175,77299,9827,775168,11
830,-1,637442,218210,1230497,65631,7123,614818,0
830,0,711301,248539,1485865,74234,8811,742544,11
831,-1,660092,223245,1192656,69024,8002,595850,0
831,0,707494,247208,1362755,73867,8605,680901,11
832,-1,637894,218644,1230118,65764,6875,614144,0
832,0,708753,247522,1325903,73929,8707,662528,11
833,-1,640286,219197,1171086,65897,7331,584967,0
833,0,707710,247789,1312542,73931,9115,655894,11
834,-1,637470,217702,1169705,65387,7327,584399,0
834,0,709840,248383,1340574,74094,8324,669511,11
835,-1,640243,218581,1200551,65704,7958,599642,0
835,0,729261,251593,1403066,77059,9336,701025,11
836,-1,640444,218987,1182821,65804,7585,591053,0
836,0,712727,248677,1364236,74581,8441,681262,11
837,-1,637738,218769,1216149,65767,7295,607561,0
837,0,709830,247715,1329410,74039,8897,664225,11
838,-1,638901,218470,1233535,65579,7639,616216,0
838,0,729522,251462,1470575,77069,10188,734941,11
839,-1,639571,218687,1246950,65707,7168,622844,0
839,0,730985,251731,1525378,77106,9792,762172,11
840,-1,658795,223021,1208765,68896,7942,603850,0
840,0,713692,248054,1378713,74065,8525,688856,11
841,-1,634077,217340,1215509,65282,7149,607118,0
841,0,710845,247263,1424372,73721,9101,711625,11
842,-1,637177,218633,1252848,65661,7735,625916,0
842,0,707753,247859,1382157,73895,9864,690610,11
843,-1,636633,218210,1294812,65513,7081,646987,0
843,0,707303,247795,1285777,73878,8638,642422,11
844,-1,645310,220312,1262750,66516,8411,630575,0
844,0,714086,249311,1241627,74565,8797,620103,11
845,-1,639513,218190,1273462,65492,7665,636277,0
845,0,707143,247418,1310818,73748,8424,654914,11
846,-1,642829,219910,1272174,66292,7876,635335,0
846,0,706575,247147,1270437,73634,8643,634846,11
847,-1,640875,219096,1160393,65832,7172,579749,0
847,0,707762,247510,1332955,73810,9326,665970,11
848,-1,638378,218279,1326014,65584,8021,662517,0
848,0,709690,247376,1308482,73754,8780,653792,11
849,-1,659104,223208,1201412,68977,8139,600174,0
849,0,730486,252505,1435363,77201,10275,717299,11
850,-1,642069,219494,1178153,65911,7115,588468,0
850,0,710133,247875,1412761,73879,8326,705889,11
851,-1,643572,220391,1297391,66303,8249,647913,0
851,0,707260,247364,1446910,73923,9367,722979,11
852,-1,639629,219354,1247576,65846,7343,623415,0
852,0,731441,252397,1472563,77349,9874,735941,11
853,-1,638833,218690,1189761,65596,7700,594443,0
853,0,706938,246424,1442868,73591,9227,720950,11
854,-1,646425,221613,1249790,66872,7975,623984,0
854,0,712725,248609,1311426,74447,8756,655077,11
855,-1,640640,219666,1185000,65896,7299,591948,0
855,0,739363,257561,1347090,76812,8303,673126,11
856,-1,635455,218138,1117208,65473,6771,558051,0
856,0,707797,247172,1294181,73739,8836,646735,11
857,-1,640184,219924,1200283,66207,7847,599349,0
857,0,709678,246994,1365327,73661,8853,682211,11
858,-1,640688,218667,1209230,65571,7451,604113,0
858,0,711739,247837,1353749,73967,9185,676429,11
859,-1,641830,219630,1345429,65876,7625,672273,0
859,0,709476,247778,1401510,74017,8955,700255,11
860,-1,640315,219412,1300274,65852,7212,649594,0
860,0,712466,248660,1320813,74468,8412,659777,11
861,-1,642534,220436,1263687,66315,7428,631098,0
861,0,710506,247578,1415424,73962,9042,707210,11
862,-1,636974,218608,1161692,65619,7022,580151,0
862,0,711024,247397,1460620,73835,9361,729926,11
863,-1,663261,227739,1272159,68242,7173,635686,0
863,0,711264,247210,1517365,73829,9282,758281,11
864,-1,638676,218903,1245279,65691,8216,622125,0
864,0,715335,248314,1369953,74343,8562,684348,11
865,-1,659295,223523,1262475,69044,8102,630853,0
865,0,712137,247571,1403027,73856,9571,701087,11
866,-1,635475,217939,1161399,65409,6726,580117,0
866,0,710996,247525,1471336,73861,9412,735046,11
867,-1,634956,218045,1246489,65449,6832,622807,0
867,0,713965,248933,1340640,74563,8934,669580,11
868,-1,636326,218281,1262561,65545,7789,630750,0
868,0,711334,247065,1378153,73659,9599,688612,11
869,-1,634272,218002,1197890,65408,7295,598520,0
869,0,717362,249246,1345298,74597,9513,672104,11
870,-1,635518,218322,1264103,65501,7785,631552,0
870,0,712964,247496,1463012,73807,9023,731070,11
871,-1,660417,222987,1237288,68827,7920,618081,0
871,0,713959,247601,1314337,73864,9215,656850,11
872,-1,642167,218280,1190944,65528,7020,594956,0
872,0,701278,246985,1214323,73627,8548,606616,11
873,-1,642119,218277,1268692,65499,7980,633858,0
873,0,703508,247407,1276098,73811,8949,637539,11
874,-1,645095,220016,1274166,66313,7986,636338,0
874,0,708018,249341,1226570,74611,8607,612611,11
875,-1,642056,218996,1193337,65806,7595,596175,0
875,0,705443,247693,1385001,73833,8332,692070,11
876,-1,640186,219023,1322327,65725,8817,660486,0
876,0,708956,249193,1305223,74751,9455,651865,11
877,-1,641440,218524,1236369,65592,8188,617774,0
877,0,705062,247238,1451262,73793,9885,724947,11
878,-1,641680,219033,1148762,65757,6653,573862,0
878,0,708013,248446,1464720,74238,9873,731964,11
879,-1,638956,217984,1182207,65380,7076,590591,0
879,0,706706,248747,1353030,74643,8857,675823,11
880,-1,638375,218202,1170592,65461,7013,584790,0
880,0,708207,248253,1490324,74080,9973,744763,11
881,-1,646986,221631,1265200,66959,7731,631558,0
881,0,712155,249052,1357754,74663,9291,677988,11
882,-1,637936,218079,1142515,65503,7293,570696,0
882,0,707938,247414,1415769,73851,9623,707354,11
883,-1,639796,219332,1190475,66162,7494,594446,0
883,0,709513,248250,1426162,74166,9911,712636,11
884,-1,641229,218033,1192564,65532,6939,595747,0
884,0,711497,249831,1360066,74959,9586,679074,11
885,-1,640842,218401,1242939,65693,6887,621052,0
885,0,710573,248293,1447406,74129,9417,723212,11
886,-1,640094,218537,1173125,65676,6572,586156,0
886,0,709513,248239,1398471,74218,9566,698506,11
887,-1,645883,220523,1309661,66687,6597,654048,0
887,0,708642,247929,1447875,74133,8936,723439,11
888,-1,661343,223150,1346691,69034,7090,672769,0
888,0,734690,253215,1515460,77604,10908,757291,11
889,-1,640622,218507,1266152,65778,7156,632647,0
889,0,715858,250283,1350816,75156,9183,674553,11
890,-1,640391,218952,1188137,65933,6726,593592,0
890,0,712925,248552,1487612,74194,9588,743229,11
891,-1,661284,223202,1232347,69103,8023,615596,0
891,0,713827,248553,1467433,74194,9774,733054,11
892,-1,636083,217991,1272154,65487,6487,635486,0
892,0,709426,248369,1486525,74160,9640,742864,11
893,-1,637699,218359,1186777,65572,6389,592914,0
893,0,712527,248934,1490247,74435,10203,744536,11
894,-1,636346,218286,1281146,65577,6618,640016,0
894,0,716383,249939,1406693,74938,10289,702442,11
895,-1,638582,219578,1257059,66197,6713,627608,0
895,0,716438,250686,1362651,75327,9432,680395,11
896,-1,656598,222889,1227067,68910,7744,613052,0
896,0,710574,248307,1434323,74157,9894,716468,11
897,-1,635359,217617,1201915,65463,6738,600427,0
897,0,711587,248626,1374838,74298,9725,686837,11
898,-1,639295,217546,1292065,65437,7843,645703,0
898,0,710335,248081,1431592,74193,9822,715129,11
899,-1,642122,219049,1249036,65946,7538,624103,0
899,0,716910,249978,1385798,74874,9996,692155,11
900,-1,638075,217739,1294604,65537,7245,646858,0
900,0,730876,253174,1512620,77681,11879,755826,11
901,-1,637235,217801,1189962,65412,7604,594557,0
901,0,715070,250436,1543606,75282,10612,771110,11
902,-1,638544,217916,1169542,65497,6781,584362,0
902,0,710713,248850,1386476,74528,9453,692704,11
903,-1,636626,217834,1177253,65540,6931,588151,0
903,0,718881,250762,1265889,75394,8540,631964,11
904,-1,634238,217281,1207653,65243,6960,603363,0
904,0,716671,249007,1384453,74486,9058,691826,11
905,-1,639880,219070,1237325,66107,7973,617852,0
905,0,707884,248045,1409205,74184,9289,704218,11
906,-1,637357,217903,1177112,65559,7733,588017,0
906,0,710199,248184,1366764,74221,8887,682779,11
907,-1,637074,217843,1186827,65522,7213,592919,0
907,0,714119,249698,1341757,74929,9024,670233,11
908,-1,636997,218055,1246015,65605,7872,622357,0
908,0,713279,248854,1488906,74450,9954,743803,11
909,-1,656701,222708,1183523,68811,8148,591287,0
909,0,710342,248234,1448689,74208,9257,723755,11
910,-1,632547,217615,1184951,65285,7086,592008,0
910,0,712150,248492,1435678,74276,8676,717032,11
911,-1,636032,217501,1252191,65322,7149,625538,0
911,0,734632,252917,1591404,77505,11048,794922,11
912,-1,638390,218244,1229090,65556,6739,614140,0
912,0,709306,248339,1362664,74183,8662,680833,11
913,-1,686528,232322,1348256,71697,8108,673632,0
913,0,714542,249793,1349537,74886,9189,673995,11
914,-1,637181,218437,1235252,65661,6910,617150,0
914,0,711658,248940,1416096,74431,10133,707422,11
915,-1,634011,217574,1140604,65310,7092,569864,0
915,0,733874,253397,1517668,77665,11170,758450,11
916,-1,633398,217577,1176639,65372,6576,587802,0
916,0,716385,250129,1377334,74971,9251,687851,11
917,-1,635186,218266,1259267,65643,7273,629118,0
917,0,715970,250083,1372691,75027,9328,685472,11
918,-1,652903,222087,1277765,68691,8195,638364,0
918,0,713603,248636,1439176,74281,9776,719120,11
919,-1,633382,218286,1228434,65662,7161,613524,0
919,0,710720,248626,1372267,74306,9727,685443,11
920,-1,636940,217763,1239066,65486,6875,619023,0
920,0,731015,253018,1525064,77551,11448,761923,11
921,-1,635214,217409,1163624,65237,6821,581402,0
921,0,708548,247824,1362225,73957,8679,680708,11
922,-1,645070,220637,1262650,66661,7671,630514,0
922,0,712594,248266,1389196,74150,9460,694235,11
923,-1,639850,219429,1217407,66187,7900,607863,0
923,0,711985,248878,1300977,74407,9976,650050,11
924,-1,638473,218005,1108350,65488,7245,553698,0
924,0,718670,250196,1364517,75086,9564,681524,11
925,-1,637365,217930,1192777,65515,7715,595868,0
925,0,711631,248769,1416508,74353,9386,707827,11
926,-1,636956,218020,1169669,65491,6759,584408,0
926,0,734573,253541,1647308,77700,11101,823216,11
927,-1,643754,220680,1187880,66718,8039,592982,0
927,0,711178,248024,1425321,74064,9756,712093,11
928,-1,657714,222745,1191742,68860,8400,595320,0
928,0,715481,249110,1438452,74476,10110,718786,11
929,-1,634437,216871,1160601,65180,7042,579912,0
929,0,712286,248315,1398022,74157,9183,698630,11
930,-1,635818,217981,1127455,65575,6612,563151,0
930,0,712966,248582,1448198,74286,10045,723451,11
931,-1,636020,218188,1171208,65638,7536,584976,0
931,0,718484,250520,1430976,75192,9911,714387,11
932,-1,632749,217248,1246476,65284,6665,622637,0
932,0,712837,250668,1365774,75236,9566,681949,11
933,-1,634517,217469,1224100,65351,7586,611489,0
933,0,709752,248537,1497791,74281,9155,748203,11
934,-1,641504,220818,1479989,66721,8118,739170,0
934,0,709830,248810,1284769,74322,8771,641837,11
935,-1,635456,217691,1159783,65293,7314,579556,0
935,0,715681,250090,1339374,74986,9304,669055,11
936,-1,635407,218369,1213994,65597,7275,606463,0
936,0,708716,247971,1455466,74083,9610,727203,11
937,-1,633520,217891,1267348,65383,7373,633187,0
937,0,717003,250703,1360182,75218,8745,679107,11
938,-1,652592,221924,1303200,68659,7666,651081,0
938,0,713028,248634,1468140,74268,9000,733609,11
939,-1,636798,217954,1307554,65509,8088,653199,0
939,0,708709,248496,1437606,74271,10028,718293,11
940,-1,634945,217626,1198595,65351,7969,598818,0
940,0,710928,248611,1509508,74273,9327,754312,11
941,-1,638759,219499,1178749,66211,7193,588585,0
941,0,713533,248743,1434439,74271,9454,716777,11
942,-1,634077,218044,1148298,65548,6532,573524,0
942,0,711805,248890,1432734,74296,9341,715728,11
943,-1,633371,217808,1101202,65454,6833,550040,0
943,0,716413,250371,1386739,75059,9735,692563,11
944,-1,634413,217100,1174590,65240,7184,586675,0
944,0,711330,248205,1338438,74072,8996,668832,11
945,-1,635864,217974,1149523,65502,7107,574171,0
945,0,713042,248474,1486012,74184,9929,742439,11
946,-1,633893,217939,1116171,65554,6210,557693,0
946,0,716354,248902,1458158,74257,9802,728721,11
947,-1,635972,218495,1110980,65685,6342,554847,0
947,0,707587,248615,1384226,74246,9974,691904,11
948,-1,636541,218921,1214483,66048,7225,606499,0
948,0,712411,249409,1372020,74458,9193,685332,11
949,-1,634055,218209,1181326,65622,6568,590043,0
949,0,762039,262978,1439064,80380,11025,718766,11
950,-1,632764,217661,1151782,65417,6607,575416,0
950,0,708474,248179,1341462,73945,8961,670297,11
951,-1,632578,218092,1225751,65596,6791,612305,0
951,0,712899,248596,1436896,74128,8913,718028,11
952,-1,633671,218483,1159902,65655,6975,579431,0
952,0,710955,248341,1449055,73994,9869,723909,11
953,-1,656706,222347,1253773,68722,7418,626289,0
953,0,711135,248461,1354152,74076,9206,676559,11
954,-1,633327,217181,1135653,65343,6490,567293,0
954,0,712204,248378,1345214,73977,8999,672293,11
955,-1,633476,217434,1269022,65332,7513,634070,0
955,0,713556,249706,1484601,74659,9511,741557,11
956,-1,637813,219408,1265251,66202,7542,631885,0
956,0,740283,254581,1573006,78353,11361,785998,11
957,-1,634189,217454,1199171,65281,6504,598909,0
957,0,711994,247748,1447483,73752,10005,723186,11
958,-1,652886,222276,1248759,68743,7542,623880,0
958,0,713950,249019,1390735,74209,9133,695027,11
959,-1,631713,217952,1135335,65491,6494,567175,0
959,0,713679,248532,1456369,74108,10118,727687,11
960,-1,633749,217963,1237758,65449,7121,618488,0
960,0,718510,249843,1424387,74703,10179,711473,11
961,-1,634324,218001,1148205,65446,6920,573676,0
961,0,715017,248387,1438667,73952,9950,718882,11
962,-1,663664,228257,1305452,68787,8254,651890,0
962,0,706894,247635,1318355,73766,9421,658517,11
963,-1,636355,219031,1240783,65869,7456,619984,0
963,0,708653,248231,1341251,74014,10030,670000,11
964,-1,633007,218204,1253336,65589,7196,625917,0
964,0,709720,248398,1320258,74056,9407,659469,11
965,-1,632009,217767,1219146,65456,7131,609059,0
965,0,710139,248820,1321491,74287,9425,660225,11
966,-1,652444,222147,1261796,68600,7971,630428,0
966,0,714712,249842,1336689,74883,9592,667388,11
967,-1,635183,220071,1246675,66342,6566,622644,0
967,0,708977,248728,1416072,74234,8969,707608,11
968,-1,637754,217220,1160088,65147,7298,579632,0
968,0,711872,248848,1415116,74266,9406,707156,11
969,-1,659735,222383,1353871,68636,8649,676596,0
969,0,711092,248101,1429225,73940,8879,714034,11
970,-1,639419,218398,1223116,65520,6487,611086,0
970,0,715512,250141,1356510,74999,9418,677166,11
971,-1,637756,217967,1337014,65455,7122,667919,0
971,0,713582,248587,1506967,74075,9360,752607,11
972,-1,635752,217320,1257471,65182,7939,627223,0
972,0,712172,248108,1464837,74040,10015,731903,11
973,-1,639617,219083,1363780,65834,8228,681383,0
973,0,711812,249712,1391366,74711,9265,694963,11
974,-1,636888,218030,1200698,65459,7678,599708,0
974,0,709185,248340,1413259,74093,8524,705961,11
975,-1,639456,217802,1166309,65441,7604,582827,0
975,0,710292,248052,1438898,73987,8846,718996,11
976,-1,635639,217696,1135071,65265,7391,567129,0
976,0,711193,249059,1381687,74347,9330,690286,11
977,-1,635783,217398,1148144,65140,6523,573652,0
977,0,712029,248418,1331846,74111,9061,665575,11
978,-1,657518,222430,1264819,68612,7873,632026,0
978,0,711980,248018,1446528,74019,9419,722799,11
979,-1,636409,218175,1162558,65445,6699,580867,0
979,0,712160,247582,1344988,73810,8345,671787,11
980,-1,644088,220289,1269493,66303,7386,634141,0
980,0,710575,248006,1432556,74071,9663,715747,11
981,-1,637194,217905,1252333,65306,7419,625677,0
981,0,713307,248090,1300862,74077,9290,649661,11
982,-1,636384,217940,1187616,65366,8435,593045,0
982,0,716961,250340,1276867,75027,8996,637598,11
983,-1,633324,217418,1329982,65096,8148,664820,0
983,0,711174,248961,1359076,74338,9901,679054,11
984,-1,636354,218314,1245730,65506,8155,622789,0
984,0,709297,247864,1321787,74007,9623,660136,11
985,-1,637050,218869,1375485,65893,8708,687325,0
985,0,709843,247634,1330410,73874,8925,664552,11
986,-1,636047,218671,1315000,65609,8078,656028,0
986,0,716980,250731,1337640,75249,9212,667778,11
987,-1,636059,217441,1272538,65164,8594,635983,0
987,0,710677,247635,1433355,73881,8901,716319,11
988,-1,640186,218360,1287443,65554,8826,643174,0
988,0,712814,247989,1365746,73988,9137,682067,11
989,-1,644218,220362,1377385,66454,8940,687464,0
989,0,718037,249218,1364820,74616,9383,681431,11
990,-1,659256,222619,1303070,68731,9179,650997,0
990,0,710040,247878,1464079,73952,8994,731593,11
991,-1,637159,218086,1298138,65393,8716,648892,0
991,0,715716,249867,1332064,74888,8381,665374,11
992,-1,636411,217564,1205174,65379,7705,602264,0
992,0,714702,248967,1530343,74363,10102,764667,11
993,-1,636011,217727,1256130,65380,6849,627635,0
993,0,712953,248041,1432625,74063,9594,715886,11
994,-1,637798,218878,1285050,65980,7602,641828,0
994,0,716909,250123,1339296,75000,9310,668673,11
995,-1,634268,217543,1174765,65412,6836,586878,0
995,0,714200,248862,1452025,74312,9929,725361,11
996,-1,639429,219632,1207117,66366,6946,602791,0
996,0,713221,247866,1368054,73953,10209,683543,11
997,-1,655551,222618,1209129,68838,7467,603986,0
997,0,716012,248607,1434744,74199,10606,717040,11
998,-1,637803,218545,1254550,65869,6920,626589,0
998,0,716821,249029,1281688,74353,9716,640065,11
999,-1,635791,217514,1237478,65455,7226,618191,0
999,0,719996,249967,1299935,74932,9709,649173,11
1000,-1,637275,218366,1188602,65606,6740,593789,0
1000,0,710428,249644,1382987,74749,9437,690640,11
1001,-1,632571,217208,1126908,65278,6967,563008,0
1001,0,707745,248785,1346833,74237,9463,672851,11
1002,-1,635305,218620,1130543,65812,6283,564815,0
1002,0,707881,248193,1418061,74097,10074,708465,11
1003,-1,660046,226609,1337181,67533,7093,668149,0
1003,0,708221,248233,1379262,73991,8876,689217,11
1004,-1,710728,242045,1346759,74025,7813,672972,0
1004,0,708496,248006,1433906,74040,9399,716477,11
1005,-1,688128,236127,1226528,70413,6850,612839,0
1005,0,710551,248603,1455997,74241,10119,727435,11
1006,-1,691020,237825,1352657,71088,7681,675687,0
1006,0,729852,253046,1413418,77457,10206,706258,11
1007,-1,686581,236439,1178995,70454,6816,589031,0
1007,0,708905,248038,1432421,74003,9869,715718,11
1008,-1,693726,236178,1217914,70376,7871,608553,0
1008,0,710560,248440,1413155,74136,10078,706251,11
1009,-1,716458,241951,1332725,74040,8945,666007,0
1009,0,712043,249257,1416274,74618,9626,706836,11
1010,-1,696583,237614,1331621,71036,8534,665103,0
1010,0,710329,248227,1405703,74122,9500,702644,11
1011,-1,694340,237322,1294679,70768,8010,646866,0
1011,0,709056,248170,1413226,73998,9430,706041,11
1012,-1,690456,236321,1194187,70421,7047,596667,0
1012,0,711049,248640,1540168,74270,9854,769372,11
1013,-1,690091,235778,1327303,70238,7712,663252,0
1013,0,711882,248948,1553538,74297,9340,776289,11
1014,-1,689983,236390,1232426,70419,6999,615789,0
1014,0,713434,249019,1439355,74557,9904,718940,11
1015,-1,691573,236586,1288546,70533,7647,643840,0
1015,0,710957,248309,1507059,74156,10240,752965,11
1016,-1,688484,235412,1216248,70123,7683,607663,0
1016,0,709825,247821,1537192,73888,9705,768107,11
1017,-1,697204,239366,1373317,71720,7770,685932,0
1017,0,716096,249860,1441918,74948,9863,719996,11
1018,-1,688677,236394,1310803,70424,7049,654864,0
1018,0,711609,247685,1567897,73911,10321,783562,11
1019,-1,692048,237996,1273915,71221,7629,636279,0
1019,0,708501,248884,1425196,74323,9180,712094,11
1020,-1,692628,236611,1211335,70510,7449,605179,0
1020,0,711390,248694,1592971,74267,10824,795932,11
1021,-1,691709,237002,1254219,70678,7965,626570,0
1021,0,711909,248980,1671811,74313,10963,834552,11
1022,-1,695852,238876,1366800,71542,8149,682542,0
1022,0,711622,248410,1657618,74171,10878,828879,11
1023,-1,708823,240690,1390610,73615,8735,694873,0
1023,0,736595,257368,1657057,76766,10532,828008,11
1023,0,710898,248340,1404990,74185,9065,701834,11
1023,0,733429,253704,1554386,77634,10303,776633,11
1023,0,711130,248842,1465379,74186,9793,732038,11
1023,0,714965,250261,1419410,74957,9293,708848,11
1023,0,713335,249084,1470028,74309,9269,734468,11
1023,0,739062,254488,1586217,77942,10669,792546,11
1023,0,715515,249702,1542974,74595,10035,771035,11
1023,0,716070,249627,1543975,74601,9741,771438,11
1023,0,737040,253870,1591386,77736,10752,795295,11
1023,0,709577,248352,1452147,74071,9513,725530,11
1023,0,706919,247157,1476713,73678,9565,737897,11
1023,0,709271,247560,1396463,73812,8719,697763,11
1023,0,708471,247858,1430355,74056,10632,714503,11
1023,0,711397,248676,1387615,74367,10061,693168,11
1023,0,732520,252689,1571753,77395,10619,785321,11
1023,0,711601,248069,1472954,74115,10086,736075,11
1023,0,712196,247982,1511105,74132,9818,754965,11
1023,0,712385,248762,1408888,74346,9217,704113,11
1023,0,713321,248150,1522730,74129,9505,760921,11
1023,0,714960,250376,1353303,75179,9114,675775,11
1023,0,710359,247938,1457948,74013,9476,728441,11
1023,0,714670,249010,1395491,74458,8082,697208,11
1023,0,713712,248066,1411473,74114,8982,705249,11
1023,0,712133,248046,1411693,74158,8685,705292,11
1023,0,712802,247836,1459578,74033,9064,729347,11
1023,0,734221,253074,1458923,77568,9745,729071,11
1023,0,713242,248177,1469091,74139,8464,734228,11
1023,0,716222,248307,1409108,74239,9633,704064,11
1023,0,713987,248755,1330132,74323,9790,664472,11
1023,0,712828,248583,1334435,74227,8970,666732,11
1023,0,715120,248238,1430769,74134,10309,714792,11
1023,0,714033,249632,1360755,74629,8626,679904,11
1023,0,715809,249158,1485864,74377,9394,742360,11
1023,0,715399,249029,1334152,74326,8136,666557,11
1023,0,713719,248005,1509296,73960,8792,754169,11
1023,0,710458,248017,1390150,73967,8783,694640,11
1023,0,713309,248081,1336873,74027,8692,667920,11
1023,0,712205,248377,1485001,74212,8731,741970,11
1023,0,713398,248362,1410676,74126,9377,704695,11
1023,0,714694,248150,1332645,74024,8608,666130,11
1023,0,714271,247984,1372982,73954,8816,685923,11
1023,0,720622,249617,1365096,74746,9031,681847,11
1023,0,709860,248749,1361673,74196,9190,680367,11
1023,0,709816,247968,1325145,73895,9766,662051,11
1023,0,715463,249795,1354806,74758,8887,676594,11
1023,0,708017,247116,1417452,73589,9143,708215,11
1023,0,713313,249910,1391278,74880,9248,694716,11
1023,0,709130,247849,1528919,73957,9070,763929,11
1023,0,710013,247867,1415554,73894,8432,707357,11
1023,0,709157,247425,1414095,73749,9310,706598,11
1023,0,711208,247857,1330407,73958,8952,664709,11
1023,0,732385,252691,1504154,77326,9728,751564,11
1023,0,729787,252031,1487839,77115,9604,743518,11
1023,0,709509,247329,1344876,73738,9085,671970,11
1023,0,711436,247726,1324699,73793,8549,661748,11
1023,0,712694,248074,1420568,74023,9672,709819,11
1023,0,709025,247765,1413602,73875,9210,706218,11
1023,0,712391,248183,1316394,73943,8955,657698,11
1023,0,731918,251923,1509298,77035,9721,754178,11
1023,0,716987,250221,1493184,75001,9393,745703,11
1023,0,711292,247998,1419228,73947,9345,709103,11
1023,0,710847,247563,1421522,73797,9487,710318,11
1023,0,733008,252410,1480509,77168,9983,739784,11
1023,0,711739,247723,1446761,73889,10190,722336,11
1023,0,713631,248164,1497682,74032,10916,748121,11
1023,0,714066,248380,1488041,74061,10007,743497,11
1023,0,718174,249144,1614928,74541,10300,806952,11
1023,0,713238,248030,1401838,74022,9481,699526,11
1023,0,729629,252823,1466697,77307,10019,732885,11
1023,0,708843,247432,1414908,73793,9110,707062,11
1023,0,709317,247590,1333897,73885,8529,666503,11
1023,0,709670,247276,1476415,73788,9426,736848,11
1023,0,713026,248936,1468620,74589,9242,733559,11
1023,0,708338,247344,1407272,73838,9466,703131,11
1023,0,734328,253006,1380431,77525,10077,689504,11
1023,0,715413,249183,1317468,74802,9326,657811,11
1023,0,706187,246317,1245493,73589,8743,622319,11
1023,0,709857,246670,1272307,73751,8670,635657,11
1023,0,711674,247049,1314243,73902,8567,656573,11
1023,0,732097,252209,1440048,77364,9818,719523,11
1023,0,709245,246466,1260833,73686,8835,629814,11
1023,0,711129,247090,1396037,73949,9779,697461,11
1023,0,711465,246939,1410132,73781,9894,704650,11
1023,0,712269,247776,1500293,74095,10152,749584,11
1023,0,716674,249098,1525604,74763,10393,762052,11
1023,0,734900,251452,1448783,77192,10407,723931,11
1023,0,712443,249496,1440580,75134,9480,719392,11
1023,0,709517,247496,1274264,74046,8777,636541,11
1023,0,757565,260464,1582237,79890,10987,790305,11
1023,0,712154,246800,1263678,73875,9757,631320,11
1023,0,706722,246013,1316143,73521,9334,657505,11
1023,0,711809,247027,1445737,73899,9823,722278,11
1023,0,713354,247483,1351961,74109,9638,675400,11
1023,0,713344,247056,1440545,73917,10032,719843,11
1023,0,712409,247244,1499589,74008,9890,749242,11
1023,0,712473,247034,1255834,73942,8553,627408,11
1023,0,712601,247141,1286787,73978,8621,642877,11
1023,0,723806,250459,1395452,75384,8793,696824,11
1023,0,701416,247357,1367585,74036,8200,683368,11
1023,0,700905,246810,1273576,73757,7559,636448,11
1023,0,701021,246716,1338235,73842,8592,668631,11
1023,0,699058,246294,1384966,73768,8790,691934,11
1023,0,705426,247519,1401795,74091,9021,700391,11
1023,0,705474,247436,1301881,74063,8686,650400,11
1023,0,703505,246273,1250528,73647,8743,624925,11
1023,0,702455,247030,1277326,73979,8620,638152,11
1023,0,727294,252383,1413657,77404,10442,706421,11
1023,0,710293,249907,1433279,75146,9344,715897,11
1023,0,704324,246919,1353484,73827,8825,676267,11
1023,0,706085,247099,1347844,73946,8870,673447,11
1023,0,729579,252705,1433286,77556,9963,716229,11
1023,0,704751,246881,1463230,73852,8978,731116,11
1023,0,706343,247631,1341441,74149,9441,670258,11
1023,0,728500,251873,1483280,77271,10086,741184,11
1023,0,714058,249707,1449537,75140,9281,723902,11
1023,0,705410,247484,1514761,74076,9131,756934,11
1023,0,703226,247000,1346652,73961,8535,672812,11
1023,0,710131,248331,1510457,74326,8879,754896,11
1023,0,703500,246995,1242195,73926,8197,620666,11
1023,0,705866,247467,1251557,74016,8412,625251,11
1023,0,706541,247507,1365801,74065,8626,682514,11
1023,0,731830,255856,1301077,76549,7804,650139,11
1023,0,707238,247006,1312243,73895,8145,655629,11
1023,0,705102,247167,1330032,73945,8105,664569,11
1023,0,705027,247000,1399174,73863,8120,699150,11
1023,0,707308,247655,1331948,74130,8239,665455,11
1023,0,705909,246555,1472663,73769,9124,735712,11
1023,0,730493,252241,1508445,77427,9878,753827,11
1023,0,713860,249558,1464037,75009,9166,731267,11
1023,0,702407,247114,1362148,73976,9426,680615,11
1023,0,703793,247026,1332180,73942,9056,665664,11
1023,0,707914,249244,1444822,74946,8460,721688,11
1023,0,711679,249133,1324526,74802,8675,661581,11
1023,0,728326,252414,1336781,77480,9832,667989,11
1023,0,710906,248404,1384998,74567,9199,691725,11
1023,0,707651,247648,1257159,74181,8889,628108,11
1023,0,726924,252357,1461829,77457,9917,730424,11
1023,0,704545,247000,1371421,73766,8011,685314,11
1023,0,707145,247824,1444283,74062,8887,721747,11
1023,0,709457,248394,1415245,74463,9158,706911,11
1023,0,711583,248710,1415753,74595,9855,707255,11
1023,0,709113,247965,1349983,74141,8400,674594,11
1023,0,707383,246761,1449987,73649,9229,724885,11
1023,0,711126,248012,1476006,74117,8724,737545,11
1023,0,708880,246804,1305165,73653,8337,652188,11
1023,0,708253,248857,1468184,74562,10244,733324,11
1023,0,705656,247506,1335412,73931,9146,667317,11
1023,0,706996,247388,1416123,73837,9142,707636,11
