0,0,765435,268560,1637239,79559,10074,818745,11
0,-1,691774,236279,1274517,70403,7706,636973,0
0,-1,688093,236884,1330190,70642,7423,665090,2
0,-1,688692,236898,1356028,70608,7925,678096,0
0,-1,688789,236150,1365619,70411,6905,682828,0
0,-1,656414,222973,1205597,68869,7554,602807,0
0,-1,638685,218406,1168253,65477,7875,584181,0
0,-1,642709,219783,1187771,66153,7535,593947,0
0,-1,637163,218193,1171170,65435,6906,585604,0
0,-1,638010,218010,1183469,65340,7360,591773,0
0,-1,632024,217321,1240260,65256,6847,620165,0
0,-1,632815,218085,1189792,65527,6998,594979,0
0,-1,635246,217411,1255824,65261,6857,627964,0
0,-1,633426,217762,1141854,65409,6439,570967,0
0,-1,636363,217910,1257074,65481,6857,628585,0
0,-1,639245,218691,1322739,65740,7216,661422,0
0,-1,641658,218520,1225386,65715,7008,612772,0
0,-1,634142,217894,1172581,65432,7065,586341,0
0,-1,636576,217693,1187452,65427,7672,593776,0
0,-1,637406,219292,1168759,66204,6779,584492,0
0,-1,638583,218417,1276433,65700,6234,638265,0
0,-1,639571,218211,1172077,65543,7096,586158,0
0,-1,641935,218186,1128646,65481,7078,564361,0
0,-1,637508,218597,1260473,65617,8105,630267,0
0,-1,640343,218906,1179424,65683,7322,589778,0
0,-1,641478,219270,1128991,65805,7054,564547,0
0,-1,640897,219142,1186596,65801,7673,593395,0
0,-1,639276,217963,1273078,65381,7512,636557,0
0,-1,640843,220167,1275893,66488,7324,638034,0
0,-1,637681,218031,1153309,65594,6955,576704,0
0,-1,637649,217957,1146626,65601,6592,573360,0
0,-1,638763,218605,1119301,65856,7809,559698,0
0,-1,641214,218024,1230008,65629,7324,614982,0
0,-1,641937,218421,1127847,65674,7355,563949,0
0,-1,631127,218331,1170176,65657,7262,585116,0
0,-1,657298,223451,1182083,69202,8473,590808,0
0,-1,638387,219029,1266542,65991,8196,633819,0
0,-1,633804,217966,1196377,65581,6463,598139,0
0,-1,634161,218249,1162260,65725,7254,581144,0
0,-1,637286,218011,1261492,65612,7256,630843,0
0,-1,635603,218371,1136238,65769,6902,568164,0
0,-1,638007,218647,1253108,65789,6935,626652,0
0,-1,638033,219611,1250531,66056,7311,625370,0
0,-1,640707,219942,1259826,66374,6784,629963,0
0,-1,637183,218021,1163492,65506,7012,581795,0
0,-1,642286,219321,1208739,66159,8212,604616,0
0,-1,638389,219718,1253049,66322,7051,626642,0
0,-1,636909,220105,1259639,66433,7483,629983,0
0,-1,637899,219528,1560839,66061,9517,780337,0
0,-1,659747,222848,1172747,68865,8312,586350,0
1,0,758073,265417,1611352,78354,9327,805717,11
1,-1,691602,236297,1305911,70469,8132,652597,0
1,-1,694719,238954,1370471,71586,8072,684714,2
1,-1,692839,236406,1218263,70419,7364,609183,0
1,-1,639843,218877,1160583,65775,6575,580337,0
1,-1,642024,219808,1289722,66281,6910,644978,0
1,-1,638129,218205,1162632,65405,7547,581356,0
1,-1,636822,217226,1226617,65090,7063,613333,0
1,-1,639283,217454,1201332,65166,7097,600701,0
1,-1,635045,218218,1178425,65528,7177,589262,0
1,-1,656952,222381,1254458,68714,7466,627197,0
1,-1,636888,218338,1252138,65562,7150,626166,0
1,-1,638646,219855,1256664,66414,7271,628402,0
1,-1,635456,218016,1155105,65550,6427,577610,0
1,-1,635059,217400,1246816,65268,6801,623440,0
1,-1,642511,219411,1261601,66190,7464,630885,0
1,-1,631818,217323,1168224,65249,7133,584155,0
1,-1,636305,217569,1255438,65408,7144,627854,0
1,-1,636139,218010,1189044,65560,6572,594568,0
1,-1,642415,219783,1236411,66289,7217,618250,0
1,-1,637884,217936,1242102,65446,7378,621107,0
1,-1,641128,217922,1193303,65340,7454,596675,0
1,-1,637216,218008,1171175,65379,6757,585630,0
1,-1,640510,219550,1284561,65878,6959,642305,0
1,-1,644646,220444,1271104,66362,7659,635649,0
1,-1,640805,219342,1217644,65905,7481,608834,0
1,-1,644261,219968,1340189,66344,9092,670143,0
1,-1,635382,218180,1238451,65608,7625,619255,0
1,-1,666081,227734,1288738,68495,7825,644375,0
1,-1,660888,222504,1187289,68851,8307,593596,0
1,-1,637641,218449,1184046,65802,7928,592060,0
1,-1,641409,218749,1197090,65887,7608,598592,0
1,-1,663560,223079,1179650,69070,8865,589825,0
1,-1,631896,218412,1472913,65793,8845,736488,0
1,-1,633592,218345,1165059,65754,7528,582577,0
1,-1,638987,219759,1377428,66419,9296,688390,0
1,-1,638620,220257,1261160,66599,7453,630658,0
1,-1,633764,218124,1247660,65591,7210,623870,0
1,-1,636813,218208,1246555,65697,6995,623329,0
1,-1,634418,218348,1228149,65716,6984,614116,0
1,-1,653372,222129,1169408,68797,7630,584750,0
1,-1,638090,218413,1197026,65692,7710,598564,0
1,-1,636291,218251,1199530,65582,6322,599852,0
1,-1,640217,219305,1226878,65969,7099,613529,0
1,-1,639189,218608,1117601,65770,7331,558935,0
1,-1,655587,223192,1181341,69014,7054,590630,0
1,-1,637897,218899,1187795,65824,7176,594050,0
1,-1,636061,218115,1145994,65542,6639,573008,0
1,-1,639891,218949,1179731,65856,7706,589877,0
2,0,760587,266074,1503054,78575,9568,750856,11
2,-1,691612,236556,1203721,70514,7714,601720,0
2,-1,690044,236177,1195997,70409,7432,597911,0
2,-1,691800,236955,1190941,70666,7200,595613,2
2,-1,656809,225548,1263101,67519,6891,631569,0
2,-1,634837,217992,1239993,65491,6755,620036,0
2,-1,634857,217608,1166346,65278,6801,583205,0
2,-1,642974,219668,1251868,66146,7812,626016,0
2,-1,658255,222266,1263834,68569,8212,631825,0
2,-1,663599,228218,1297647,68759,7836,648899,0
2,-1,634334,217528,1151463,65441,6513,575766,0
2,-1,657610,222871,1267466,68908,7836,633674,0
2,-1,632745,217665,1258327,65447,6503,629158,0
2,-1,636530,217819,1215315,65496,7199,607733,0
2,-1,637181,217817,1271982,65437,7104,636077,0
2,-1,634266,217132,1163968,65123,6715,582068,0
2,-1,633228,217010,1239966,65124,7182,620013,0
2,-1,637051,218160,1301905,65609,7684,650944,0
2,-1,639121,218150,1258710,65597,7270,629424,0
2,-1,635552,217870,1222256,65411,6446,611209,0
2,-1,637611,217818,1236775,65446,6876,618412,0
2,-1,646787,220514,1268926,66384,7695,634547,0
2,-1,643213,220663,1264387,66553,7510,632273,0
2,-1,639478,218781,1284622,65577,7366,642354,0
2,-1,641925,219366,1175097,65841,7138,587608,0
2,-1,637215,218582,1209396,65674,7430,604752,0
2,-1,639918,218773,1148482,65750,7559,574172,0
2,-1,662163,222975,1211113,69066,8336,605567,0
2,-1,640253,220017,1259685,66479,7403,629847,0
2,-1,640627,218660,1404059,65885,9140,701968,0
2,-1,636504,217960,1239908,65580,8027,620012,0
2,-1,639750,218131,1343839,65638,7404,672042,0
2,-1,641356,218458,1287280,65736,8195,643654,0
2,-1,631605,218329,1272515,65696,7386,636296,0
2,-1,634618,218649,1170024,65854,7328,585060,0
2,-1,656185,223037,1329927,69060,9929,664588,0
2,-1,634540,218493,1484571,65812,9175,742243,0
2,-1,632831,218144,1356655,65703,7342,678366,0
2,-1,640835,219956,1298441,66535,8061,649298,0
2,-1,633905,218379,1167171,65719,6360,583561,0
2,-1,637110,219352,1224881,66201,6934,612514,0
2,-1,638110,218721,1402612,65719,7663,701124,0
2,-1,638344,219630,1220450,66090,6494,610279,0
2,-1,636797,218382,1192095,65584,7026,596092,0
2,-1,638031,218601,1167418,65697,7084,583750,0
2,-1,635514,218732,1267487,65788,7263,633794,0
2,-1,638471,219207,1239672,65943,7008,619864,0
2,-1,639205,219452,1264583,66210,7503,632337,0
2,-1,639168,219055,1200108,65851,7225,600039,0
3,0,762076,266215,1462873,78660,9660,731157,11
3,-1,691682,236994,1271549,70627,7578,635942,0
3,-1,713160,241162,1328297,73814,9814,663897,0
3,-1,690502,236466,1241929,70394,6886,621001,0
3,-1,631922,217769,1154878,65442,6529,577643,2
3,-1,658507,222543,1365722,68826,7441,682971,0
3,-1,632602,217161,1264164,65023,7184,632127,0
3,-1,638891,218526,1222366,65583,8060,611230,0
3,-1,637659,217709,1162391,65308,6711,581253,0
3,-1,633248,218161,1148425,65555,7078,574229,0
3,-1,635210,218036,1243759,65511,7179,621952,0
3,-1,632190,217593,1263895,65325,6636,631982,0
3,-1,639186,218537,1226858,65735,6846,613484,0
3,-1,636476,218216,1166713,65567,6623,583400,0
3,-1,635625,217999,1179518,65534,6439,589820,0
3,-1,665010,224158,1280842,69821,8315,640381,0
3,-1,634370,217787,1201021,65437,6868,600515,0
3,-1,636706,218120,1246128,65559,6672,623117,0
3,-1,641221,219296,1348342,66151,7588,674236,0
3,-1,659157,222755,1204306,68865,7704,602168,0
3,-1,661986,223216,1245715,69086,8283,622874,0
3,-1,640789,218453,1181208,65568,7498,590729,0
3,-1,638111,218982,1186586,65816,7461,593338,0
3,-1,642810,219177,1190594,65751,7446,595238,0
3,-1,640023,218419,1242239,65518,6844,621169,0
3,-1,638022,218157,1297893,65482,8421,648992,0
3,-1,642968,220423,1292846,66559,8018,646033,0
3,-1,641144,218290,1206058,65694,6855,603030,0
3,-1,638314,218045,1161234,65651,6798,580649,0
3,-1,643558,220539,1297174,66789,7605,648663,0
3,-1,641866,218170,1204052,65684,6546,602065,0
3,-1,640955,218711,1422605,65827,8272,711388,0
3,-1,644178,219783,1147316,66194,7759,573785,0
3,-1,632519,219092,1139731,65990,6621,569869,0
3,-1,633229,218402,1280181,65717,7685,640175,0
3,-1,636871,218762,1308408,65841,8123,653675,0
3,-1,638609,220195,1258124,66642,8156,629141,0
3,-1,633008,218175,1282918,65694,7052,641317,0
3,-1,638535,218234,1340821,65665,7241,670453,0
3,-1,655050,222585,1197781,68901,8091,598868,0
3,-1,633684,218505,1161438,65775,6440,580897,0
3,-1,640385,219906,1337661,66166,7672,668311,0
3,-1,659195,223322,1245224,69080,8226,622367,0
3,-1,659407,222886,1331235,68926,8037,665612,0
3,-1,641398,219191,1241452,65915,6822,620754,0
3,-1,631404,217608,1207934,65322,7447,604041,0
3,-1,635979,218382,1394222,65651,8272,696955,0
3,-1,636628,218687,1167860,65770,6766,583973,0
3,-1,639398,218950,1177708,65877,7235,588902,0
4,0,767608,267977,1457359,79425,9481,728756,11
4,-1,695781,238853,1383975,71572,8105,691058,0
4,-1,693009,236746,1290052,70572,9203,644972,0
4,-1,712612,241595,1330787,73906,8353,665428,0
4,-1,638399,218975,1165145,65868,6382,582681,0
4,-1,634547,217565,1228078,65356,6791,614134,2
4,-1,636395,218275,1178830,65494,7213,589448,0
4,-1,637764,217886,1168757,65399,6823,584425,0
4,-1,637927,218363,1227396,65514,6913,613790,0
4,-1,652671,222274,1192052,68608,8141,595973,0
4,-1,637418,218810,1140526,65806,6811,570310,0
4,-1,635673,218451,1174959,65621,6336,587523,0
4,-1,636961,217995,1261812,65549,6806,630965,0
4,-1,654477,222668,1245537,68838,7252,622698,0
4,-1,641483,220561,1271650,66566,6931,635897,0
4,-1,638426,218549,1197807,65684,7567,598926,0
4,-1,638656,219641,1252744,66281,7178,626440,0
4,-1,640950,220193,1265219,66558,7379,632711,0
4,-1,639817,218478,1319284,65702,7047,659743,0
4,-1,638114,218670,1149716,65769,6298,574906,0
4,-1,639123,218322,1254253,65694,7116,627177,0
4,-1,641284,218301,1322984,65516,6671,661604,0
4,-1,633785,218022,1124429,65523,7160,562259,0
4,-1,641493,218988,1221936,65679,6761,611049,0
4,-1,645401,220858,1355628,66585,7462,677960,0
4,-1,637383,218681,1265621,65643,7805,632714,0
4,-1,638054,218664,1267492,65745,7214,633638,0
4,-1,640403,218675,1127755,65835,6816,563931,0
4,-1,638741,218470,1177253,65749,6765,588665,0
4,-1,658045,222817,1245394,69011,7737,622624,0
4,-1,640344,218263,1486484,65773,9394,743628,0
4,-1,640900,218343,1195561,65718,7878,597820,0
4,-1,641491,218344,1380656,65766,8891,690339,0
4,-1,645469,218759,1194940,65831,6982,597511,0
4,-1,658517,223043,1234297,69070,8864,617204,0
4,-1,638452,219398,1490461,66295,9488,745041,0
4,-1,633543,218512,1302279,65809,6952,651184,0
4,-1,657809,222821,1163986,69008,7889,581961,0
4,-1,636834,218261,1358287,65728,7452,679111,0
4,-1,635328,218274,1282324,65734,6898,641203,0
4,-1,642275,220603,1263002,66826,6748,631582,0
4,-1,638044,218560,1154455,65746,7109,577265,0
4,-1,636138,218766,1211301,65798,6400,605686,0
4,-1,635513,218325,1269239,65552,7163,634650,0
4,-1,665410,224722,1248423,70017,8146,624114,0
4,-1,633049,218479,1259847,65739,7880,630103,0
4,-1,668019,230121,1319884,69583,7276,659982,0
4,-1,636059,218420,1325802,65655,7641,662942,0
4,-1,641266,220105,1252642,66408,7604,626390,0
4,-1,640352,220353,1183689,66479,7180,591900,0
5,0,780560,270229,1611713,81700,10474,805628,11
5,-1,712175,241209,1433523,73845,8306,716759,0
5,-1,692334,236535,1354447,70461,8384,677193,0
5,-1,686517,235555,1212993,70183,7076,606590,0
5,-1,638952,219288,1259117,66157,7288,629786,0
5,-1,636459,218643,1269780,65823,7456,634958,0
5,-1,640822,220462,1263625,66479,7275,631891,2
5,-1,637769,218062,1119351,65395,6532,559705,0
5,-1,638637,218355,1241942,65484,6977,621071,0
5,-1,633264,218763,1114028,65614,6773,557066,0
5,-1,634970,217697,1264521,65352,6758,632316,0
5,-1,636642,218963,1328242,66026,6957,664234,0
5,-1,655233,221833,1276113,68530,8347,638065,0
5,-1,636298,218399,1184850,65642,7117,592469,0
5,-1,634727,217989,1246289,65478,6328,623151,0
5,-1,635677,217528,1324269,65305,8259,662024,0
5,-1,634273,217877,1139928,65478,6541,570037,0
5,-1,636695,217816,1178716,65492,7054,589505,0
5,-1,639091,218100,1260725,65577,6733,630405,0
5,-1,634795,217034,1119098,65305,6626,559598,0
5,-1,642770,220191,1257631,66502,7265,628949,0
5,-1,639579,218631,1211690,65666,6669,605902,0
5,-1,632810,217583,1175088,65369,7296,587596,0
5,-1,642818,220354,1294774,66476,7810,647515,0
5,-1,661284,223712,1246924,69030,7939,623413,0
5,-1,639624,219416,1342053,66143,8187,671035,0
5,-1,638126,218694,1319117,65690,7505,659608,0
5,-1,641564,218893,1135449,65884,6259,567768,0
5,-1,656694,222450,1188237,68874,7636,594075,0
5,-1,637685,218764,1243089,65887,6861,621566,0
5,-1,640820,218869,1249327,65863,7301,624692,0
5,-1,660734,223053,1198905,69110,8808,599487,0
5,-1,641464,218555,1252297,65780,7996,626190,0
5,-1,644174,218678,1204196,65852,6981,602075,0
5,-1,636895,219076,1251738,65933,7834,625936,0
5,-1,635369,218800,1535385,65891,9291,767385,0
5,-1,631712,218360,1399417,65786,8970,699507,0
5,-1,635989,217971,1178661,65581,7067,589368,0
5,-1,655757,222596,1210738,68864,7446,605315,0
5,-1,634498,218611,1174907,65782,7513,587490,0
5,-1,655611,222405,1278968,68829,7184,639449,0
5,-1,658635,223323,1180861,69104,7155,590435,0
5,-1,640063,220291,1434660,66503,8962,717406,0
5,-1,639003,219866,1254078,66322,7325,627164,0
5,-1,638999,219133,1246795,65919,7025,623345,0
5,-1,634027,218946,1115784,65812,7031,557932,0
5,-1,636291,218789,1250634,65816,7429,625356,0
5,-1,635008,218556,1239592,65754,7181,619857,0
5,-1,636290,218421,1153798,65662,6694,576938,0
5,-1,634078,218177,1159844,65579,6787,579965,0
6,0,763733,266736,1601852,78833,10407,800732,11
6,-1,690211,236675,1255106,70606,7010,627527,0
6,-1,691116,236818,1283229,70578,7743,641519,0
6,-1,689698,237189,1192897,70738,6379,596493,0
6,-1,634911,217723,1212339,65479,6829,606246,0
6,-1,633751,217873,1233378,65354,7782,616636,0
6,-1,636381,218148,1119693,65483,6884,559899,0
6,-1,636298,217500,1165402,65121,6996,582732,0
6,-1,636926,218172,1303283,65466,7605,651737,2
6,-1,639501,217458,1139415,65115,7064,569790,0
6,-1,634919,218258,1293322,65651,6903,646711,0
6,-1,634773,218438,1283817,65701,6390,641995,0
6,-1,635838,217947,1235254,65477,7396,617659,0
6,-1,637192,218783,1277782,65974,7535,639016,0
6,-1,634295,218225,1287312,65619,6705,643725,0
6,-1,640606,219673,1407401,66237,8777,703640,0
6,-1,638114,219868,1289765,66427,7058,644949,0
6,-1,636423,218067,1261832,65528,7630,630962,0
6,-1,641448,219641,1267583,66403,6692,633861,0
6,-1,633839,217047,1122221,65230,6238,561148,0
6,-1,643380,218546,1188951,65766,6740,594535,0
6,-1,640417,218198,1205139,65594,7065,602625,0
6,-1,635565,218610,1140033,65715,7159,570075,0
6,-1,638863,219100,1272176,65799,6692,636146,0
6,-1,642986,218961,1248625,65635,7513,624409,0
6,-1,645792,220552,1237363,66575,9193,618640,0
6,-1,644504,219710,1279176,66260,8571,639441,0
6,-1,639317,218400,1174139,65611,6576,587156,0
6,-1,636168,217717,1235407,65513,7305,617725,0
6,-1,641151,218905,1285478,65906,7834,642769,0
6,-1,640213,218041,1135715,65594,7168,567857,0
6,-1,638455,217673,1256020,65602,8126,628044,0
6,-1,641550,218667,1431876,65845,9814,715464,0
6,-1,647043,220059,1274429,66589,7893,637147,0
6,-1,654606,223234,1246142,69099,7978,623059,0
6,-1,636667,218723,1190169,65874,7924,595127,0
6,-1,638474,218682,1261248,65887,9087,630283,0
6,-1,636890,218925,1129973,65881,6531,564974,0
6,-1,635789,218740,1263371,65904,6892,631722,0
6,-1,632094,218176,1273192,65704,8433,636661,0
6,-1,636311,218630,1224514,65812,6869,612238,0
6,-1,635985,218481,1234187,65656,6746,617172,0
6,-1,637120,219123,1460073,65964,9509,729840,0
6,-1,635451,218639,1183592,65755,7176,591852,0
6,-1,637750,218759,1251867,65733,6867,625976,0
6,-1,654413,223164,1164992,69001,7181,582390,0
6,-1,635936,218853,1198328,65769,7234,599213,0
6,-1,657048,223385,1204997,69068,7312,602463,0
6,-1,640075,220072,1329262,66482,7521,664708,0
6,-1,636815,219598,1187897,66056,6939,593902,0
7,0,757868,265266,1333062,78317,8705,666191,11
7,0,757991,265241,1487475,78342,9696,742883,11
7,0,763985,267239,1465594,79117,9306,732509,11
7,0,766077,268439,1569826,79694,10753,785171,11
7,0,760667,265587,1574965,78395,10401,787561,11
7,0,764033,266642,1482004,78792,10196,741045,11
7,0,765909,266838,1490574,79026,10483,745346,11
7,0,761976,265842,1477354,78463,8966,738610,11
7,0,784394,270630,1476590,81869,10170,738317,11
7,-1,688962,236487,1429228,70460,7462,714539,0
7,0,764330,265797,1387152,78476,9246,693620,11
7,0,759301,266573,1458019,78908,8888,728857,11
7,0,757290,265756,1365543,78506,8057,682814,11
7,0,758086,265630,1473858,78420,8253,736972,11
7,0,759243,265811,1333567,78519,8351,666832,11
7,0,779025,270837,1480913,81923,9108,740648,11
7,0,762294,267382,1455909,79333,8496,728064,11
7,0,788394,275524,1396565,81387,8380,698322,11
7,0,756397,265218,1450820,78294,8392,725483,11
7,0,760354,265799,1386549,78494,8642,693319,11
7,0,760272,265482,1507704,78395,8750,753884,11
7,0,759749,266672,1501212,78983,8384,750724,11
7,0,758640,265669,1410050,78495,8612,705113,11
7,0,765095,267877,1482393,79408,8826,741260,11
7,0,740835,259543,1343770,76558,8098,671984,11
7,0,708691,247286,1344436,73446,8624,672256,11
7,0,710169,249348,1384803,74399,8724,692488,11
7,0,703469,246907,1327852,73223,8146,663956,11
7,0,704729,246704,1302892,73267,7959,651523,11
7,0,704102,246472,1418141,73246,8157,709140,11
7,0,706311,247277,1396485,73522,7602,698287,11
7,0,705888,247363,1459719,73577,8543,729913,11
7,0,705580,246669,1357459,73305,8478,678754,11
7,0,706994,247408,1386888,73374,9186,693536,11
7,0,729263,252087,1448940,76725,9800,724541,11
7,0,713964,249745,1512662,74416,9342,756324,11
7,0,709683,247573,1508377,73499,9735,754234,11
7,0,707672,247402,1404651,73389,9023,702290,11
7,0,729367,252204,1512202,76806,9946,756015,11
7,0,707165,247593,1400443,73490,9479,700233,11
7,0,706115,247183,1531401,73352,9474,765691,11
7,0,706499,247310,1314202,73344,8946,657146,11
7,0,705509,247260,1368942,73338,8806,684490,11
7,0,727927,252020,1396651,76736,9714,698234,11
7,0,711900,249481,1380414,74360,8915,690278,11
7,0,704950,246943,1330435,73271,9031,665258,11
7,0,708135,247685,1373359,73579,8521,686725,11
7,0,710182,247532,1411391,73479,9146,705749,11
7,0,712941,250321,1505232,74686,8991,752690,11
7,0,713734,249705,1520852,74326,9202,760430,11
7,0,707827,247406,1555509,73398,8661,777806,11
7,-1,689481,236894,1361299,70649,7591,679649,0
7,0,712255,249040,1507432,74126,9610,753773,11
7,0,707195,246880,1388143,73247,8833,694130,11
7,0,709474,247520,1452309,73503,9409,726146,11
7,0,730842,252170,1535207,76791,10551,767603,11
7,0,710129,247432,1516111,73411,9275,758110,11
7,0,711290,247787,1487079,73547,9387,743599,11
7,0,705208,249482,1470370,74274,8207,735226,11
7,0,702535,247350,1387724,73350,8736,693885,11
7,0,708712,249434,1439521,74456,9578,719794,11
7,0,702758,247611,1459017,73586,8907,729775,11
7,0,702064,247003,1444371,73370,8581,722185,11
7,0,705250,248056,1472004,73740,9126,736007,11
7,0,700790,247103,1394665,73442,8529,697351,11
7,0,722215,251411,1471548,76673,9227,735727,11
7,0,703017,247392,1384345,73526,7929,692293,11
7,0,706685,248369,1521202,74089,9164,760661,11
7,0,708316,249240,1517599,74470,9383,758868,11
7,0,701683,247217,1465468,73532,8194,732747,11
7,0,704727,247612,1398788,73589,8324,699447,11
7,0,709361,249480,1493969,74578,8627,747017,11
7,0,704245,247452,1428553,73539,8310,714365,11
7,0,708176,248689,1462522,74163,8656,731330,11
7,0,705204,247142,1411153,73509,8565,705599,11
7,0,709305,248955,1501960,74362,9508,750971,11
7,0,705491,247207,1410847,73476,8381,705464,11
7,0,705144,246839,1424914,73359,8416,712425,11
7,0,711939,248629,1510681,74110,9073,755170,11
7,0,700912,247505,1400098,73632,7909,699997,11
7,0,702825,247494,1490497,73573,8619,745325,11
7,0,720566,250637,1504868,76460,9210,752428,11
7,0,706219,247746,1409122,73693,8319,704623,11
7,0,702256,246830,1471874,73347,8285,736025,11
7,0,704971,246955,1486117,73347,9187,743098,11
7,0,705713,247136,1394634,73431,8798,697330,11
7,0,709314,249459,1561590,74494,8853,780942,11
7,0,705153,247111,1366724,73456,8529,683430,11
7,0,704431,247443,1488860,73613,8513,744545,11
7,0,708652,248857,1532291,74180,8853,766183,11
7,0,726975,251415,1387350,76700,9543,693702,11
7,0,705363,247428,1408340,73598,8641,704151,11
7,0,703226,247034,1410172,73380,8931,705123,11
7,0,713602,250062,1508235,74727,9751,754192,11
7,0,706958,246895,1404673,73345,9131,702354,11
7,0,714599,249884,1652791,74614,10737,826312,11
7,0,706430,246974,1399674,73418,8392,699888,11
7,0,706808,246599,1334840,73247,7961,667460,11
7,0,709892,248125,1354574,73790,8989,677434,11
7,0,701072,246537,1464476,73212,8278,732274,11
7,0,701564,247109,1423491,73495,8499,711745,11
7,0,704180,247215,1348281,73524,8452,674169,11
7,0,704603,247553,1367605,73647,8159,683781,11
7,0,702288,246931,1329065,73397,8234,664633,11
7,0,704624,247177,1332284,73514,8362,666181,11
7,0,754804,261150,1390865,79575,9546,695388,11
7,0,704216,247493,1297341,73504,8517,648716,11
7,0,705526,247430,1357001,73593,8629,678574,11
7,0,704418,247223,1343792,73497,7967,671933,11
7,0,706637,247758,1386760,73710,8866,693455,11
7,0,710460,248881,1456881,74216,8684,728496,11
7,0,706587,247766,1340921,73659,8597,670513,11
7,0,705361,247237,1339519,73503,7998,669793,11
7,0,726084,251323,1411643,76627,9248,705756,11
7,-1,690207,237678,1324768,70899,7282,662456,0
7,0,705777,246763,1442855,73373,8605,721445,11
7,0,725661,251769,1396504,76789,9437,698191,11
7,0,709221,248262,1407648,74048,9394,703882,11
7,0,706215,247767,1307182,73725,7948,653647,11
7,0,704164,246630,1394546,73288,8278,697367,11
7,0,706401,247183,1341903,73602,8356,670999,11
7,0,704878,246400,1339445,73227,8816,669817,11
7,0,708987,247064,1441784,73438,9077,720915,11
7,0,723924,251461,1324913,76720,9042,662394,11
7,0,708659,248681,1307562,74246,8118,653842,11
7,0,707783,247285,1382498,73562,8272,691343,11
7,0,706833,247527,1327247,73661,7956,663774,11
7,0,714585,249547,1403101,74473,8607,701664,11
7,0,707868,248187,1319774,73670,7890,659922,11
7,0,706314,247250,1332208,73375,7814,666117,11
7,0,707876,247728,1327287,73683,8120,663676,11
7,0,710799,248514,1364372,73934,8359,682169,11
7,0,708095,247293,1372869,73515,8293,686473,11
7,0,729902,252184,1445444,76916,8416,722669,11
7,0,710922,248153,1316465,73783,8236,658272,11
7,0,710262,248391,1352200,73857,8549,676103,11
7,0,716840,250777,1484250,75079,9259,742119,11
7,0,708206,247269,1327612,73533,7772,663855,11
7,0,730241,251844,1404155,76642,9526,701990,11
7,0,709550,247402,1328552,73405,8575,664326,11
7,0,712633,248183,1320663,73704,8663,660385,11
7,0,712196,249550,1377327,74389,9649,688760,11
7,0,704280,247182,1423498,73393,8560,711803,11
7,0,705743,247361,1290569,73431,8233,645361,11
7,0,727080,252145,1384293,76788,9415,692075,11
7,0,731367,256562,1421872,76125,8733,710954,11
7,0,705333,247542,1313191,73517,8561,656651,11
7,-1,635758,218068,1219356,65456,6745,609729,0
7,0,707108,247412,1411709,73503,8370,705909,11
7,0,709431,247880,1299403,73579,8393,649732,11
7,0,712114,249992,1426501,74434,8942,713327,11
7,0,706728,247957,1364851,73633,8227,682445,11
7,0,709973,248815,1402046,73839,8765,701110,11
7,0,707445,248018,1415906,73551,8458,708035,11
7,0,730659,252978,1419009,77036,9431,709450,11
7,0,714668,250391,1444158,74713,9238,722172,11
7,0,712675,248923,1342046,73938,8175,671084,11
7,0,708797,248563,1386334,73815,8719,693116,11
7,0,709792,248378,1436358,73657,8833,718222,11
7,0,710672,248392,1441952,73756,9293,721031,11
7,0,707926,247104,1349587,73371,9587,675100,11
7,0,732944,252725,1303541,77028,10697,651563,11
7,0,706794,248455,1278117,73838,8932,639065,11
7,0,705432,247203,1372948,73416,9337,686480,11
7,0,706172,247986,1362849,73690,9320,681128,11
7,0,709402,248292,1355478,73799,8664,677706,11
7,0,703854,246666,1395594,73279,8806,697826,11
7,0,728615,252291,1427479,76902,10516,713690,11
7,0,712759,249749,1483424,74541,9956,741842,11
7,0,707947,247546,1395548,73465,9204,697821,11
7,0,708958,247832,1453543,73666,9363,726542,11
7,0,710795,249100,1531277,74247,10158,765686,11
7,0,730139,251951,1442200,76775,10583,721032,11
7,-1,638943,217962,1212849,65269,7548,606464,0
7,0,709569,247839,1442106,73689,9819,721068,11
7,0,706862,247435,1484906,73522,9298,742421,11
7,0,710074,248366,1360722,73906,8579,680650,11
7,0,712533,248280,1545517,73825,9246,772669,11
7,0,713409,249733,1387559,74555,9341,693862,11
7,0,713607,248957,1348125,74318,8954,674035,11
7,0,710806,247747,1404542,73687,9038,702307,11
7,0,717966,250109,1611072,74744,10960,805620,11
7,0,713515,247547,1443861,73667,8781,721855,11
7,0,704742,247863,1486811,73829,8735,743404,11
7,0,708166,248148,1329110,73894,8651,664581,11
7,0,707239,247769,1374987,73800,8711,687596,11
7,0,708682,247917,1544880,73861,10038,772468,11
7,0,707038,246999,1454409,73465,8801,727244,11
7,0,706315,247483,1341207,73703,8567,670606,11
7,0,728990,252063,1372968,76973,9736,686472,11
7,0,714233,249500,1408478,74561,9198,704292,11
7,0,710031,248389,1397274,73987,8964,698757,11
7,0,709824,247758,1529190,73745,9739,764580,11
7,0,709750,247750,1674585,73817,11827,836933,11
7,0,714056,249153,1608232,74412,10271,804177,11
7,0,706681,247216,1478529,73609,9305,739274,11
7,0,711248,248731,1440562,74090,9068,720314,11
7,0,708050,246969,1419917,73443,9529,709978,11
7,0,708058,248050,1347176,73930,9618,673537,11
7,0,711732,248850,1481619,74344,9834,740704,11
7,0,709230,247458,1519317,73701,9719,759701,11
7,0,712856,249296,1515721,74572,9547,757920,11
7,0,710173,248335,1520601,73971,8959,760178,11
7,0,714317,249295,1523844,74466,9358,761971,11
7,0,732669,252301,1538769,77068,9760,769274,11
7,0,710859,248939,1508824,74382,10072,754499,11
7,0,708894,247742,1498220,73789,9836,749153,11
7,0,713414,249640,1691526,74687,11605,845874,11
7,0,708768,247581,1384972,73698,9223,692501,11
7,0,708447,247293,1491940,73595,9628,745955,11
7,0,710744,247743,1391741,73804,9726,695925,11
7,-1,637388,218326,1137090,65507,7214,568582,0
7,0,705612,246635,1426001,73393,9252,713023,11
7,0,715111,249208,1514906,74453,9899,757498,11
7,0,715137,249132,1413734,74240,9785,706926,11
7,0,711505,247520,1476369,73663,8652,738233,11
7,0,716029,250513,1519655,75023,9976,759635,11
7,0,711587,248593,1605094,74183,10312,802591,11
7,0,712196,248226,1507129,73939,9600,753585,11
7,0,717138,249771,1496737,74719,10148,748438,11
7,0,709743,247789,1503592,73785,9192,751855,11
7,0,710394,247348,1414192,73652,9471,707136,11
7,0,715171,249393,1540463,74509,9953,770285,11
7,0,713604,248363,1489833,73985,9578,744901,11
7,0,712493,247314,1535081,73631,9371,767586,11
7,0,711040,247966,1475834,73791,8867,738009,11
7,0,733044,252353,1472394,77053,10091,736219,11
7,0,705843,247648,1321159,73751,8412,660643,11
7,0,723161,252216,1561133,77022,9453,780578,11
7,0,705856,248984,1500013,74471,9421,750080,11
7,0,704063,248399,1529139,73972,9662,764621,11
7,0,702575,247228,1493444,73592,8809,746771,11
7,0,708007,249320,1483176,74476,9450,741615,11
7,0,699899,246977,1482571,73436,9371,741275,11
7,0,703323,248210,1512487,73958,10103,756338,11
7,0,728551,256281,1452118,76237,9097,726098,11
7,0,706975,248799,1487541,74111,9082,743815,11
7,0,703358,247448,1506650,73641,9272,753381,11
7,0,702464,247494,1409416,73610,9128,704762,11
7,0,708429,249355,1528156,74516,9747,764180,11
7,0,704801,247761,1381797,73793,8997,690950,11
7,0,705585,247627,1524240,73751,9658,762020,11
7,0,705358,249736,1530828,74757,10010,765490,11
7,0,707312,248718,1541409,74309,9713,770775,11
7,0,703016,247504,1449716,73595,9495,724892,11
7,-1,636231,217896,1254886,65406,6828,627465,0
7,0,704302,247106,1347423,73536,9183,673753,11
7,0,702190,247432,1447523,73652,10259,723798,11
7,0,706929,247811,1603733,73787,11076,802258,11
7,0,706012,247547,1464928,73706,10281,732276,11
7,0,709695,249271,1590345,74479,11029,794801,11
7,0,723200,252149,1469867,77015,10116,734838,11
7,0,704931,247553,1427092,73683,9263,713598,11
7,0,701337,246891,1503362,73421,8993,751722,11
7,0,704165,247500,1410439,73718,8917,705280,11
7,0,708031,249176,1562689,74457,9365,781413,11
7,0,702857,246822,1391375,73480,8408,695706,11
7,0,724444,252269,1538355,77072,9794,769144,11
7,0,705827,248280,1471880,73936,9069,735989,11
7,0,703390,246924,1497660,73478,8796,748886,11
7,0,714436,250247,1615817,74932,10047,807843,11
7,0,708273,248904,1496303,74345,9340,748041,11
7,0,704420,247315,1510952,73550,9604,755426,11
7,0,710817,249499,1503481,74641,8965,751786,11
7,0,705661,247643,1425407,73710,8557,712737,11
7,0,703232,247586,1399045,73758,8689,699528,11
7,0,708940,249166,1508833,74433,9769,754535,11
7,0,706306,247695,1498774,73727,9309,749423,11
7,0,728082,252084,1463334,76989,9853,731616,11
7,0,707500,247540,1559948,73745,9239,780002,11
7,0,708879,248089,1424609,73891,9324,712349,11
7,0,700061,247253,1489787,73592,9779,744925,11
7,0,725556,252592,1466914,77114,10811,733506,11
7,0,707018,248459,1522297,74005,9936,761178,11
7,0,701463,247117,1425623,73543,8996,712830,11
7,0,702067,247321,1314544,73670,8407,657311,11
7,0,707581,249106,1401035,74346,9438,700567,11
7,0,706230,248359,1537703,74067,10868,768097,11
7,0,707601,249530,1417791,74638,8837,709014,11
7,0,702699,247055,1339658,73538,8139,669907,11
7,0,707349,248071,1631884,73908,9861,815989,11
7,0,706392,247258,1542840,73608,9883,771359,11
7,0,702090,247182,1365366,73544,8627,682773,11
7,0,705478,248035,1317994,73867,7818,659054,11
7,0,707460,248470,1354320,73964,7991,677187,11
7,-1,644854,220299,1283991,66429,7643,642094,0
7,0,709229,248593,1444211,73982,7963,722159,11
7,0,707480,248846,1378245,74292,8861,689228,11
7,0,707662,248485,1359642,73879,8210,679856,11
7,0,709831,248843,1476896,74182,9248,738343,11
7,0,711658,248532,1315784,73881,9398,657676,11
7,0,703887,248356,1354579,73927,10074,677158,11
7,0,724266,252256,1337113,76972,10449,668507,11
7,0,709751,249866,1356625,74651,9699,678055,11
7,0,702110,247155,1360140,73390,9392,680084,11
7,0,707276,248224,1394738,73795,8272,697469,11
7,0,703550,247600,1258583,73598,8108,629319,11
7,0,708218,247911,1532289,73814,10164,765737,11
7,-1,638813,220097,1266119,66498,6575,633114,0
7,0,714127,250482,1384982,74919,8299,692617,11
7,0,710527,248588,1376320,73946,7854,688247,11
7,0,705950,247237,1369140,73492,8890,684638,11
7,0,708068,248526,1302080,73953,8338,651074,11
7,-1,633111,218280,1228454,65635,6446,614258,2
7,0,711465,249347,1666650,74484,10781,833043,11
7,0,711401,248541,1381943,73970,9201,690876,11
7,0,714488,248989,1331846,74093,9124,665987,11
7,0,704488,248157,1312651,73841,8538,656357,11
7,0,706046,248749,1318115,74205,8957,659090,11
7,0,705358,248791,1279363,74030,8199,639688,11
7,0,704672,248088,1416734,73749,9049,708408,11
7,0,708312,248461,1324647,73881,8306,662325,11
7,0,702181,247935,1394170,73781,8948,697134,11
7,0,704559,248226,1410976,73810,8093,705531,11
7,0,708464,249462,1729784,74433,10868,864975,11
7,0,704977,247599,1361899,73588,8689,680984,11
7,0,725876,252387,1396368,76992,9109,698143,11
7,0,708426,248312,1429127,73770,8282,714657,11
7,0,704553,248212,1624458,73863,10014,812283,11
7,0,710816,249741,1400036,74561,8622,700098,11
7,0,702440,247135,1331567,73464,8762,666058,11
7,0,706134,247602,1424765,73611,9240,712473,11
7,0,708921,248523,1400641,73968,8842,700419,11
7,0,706955,247324,1413714,73469,8326,706891,11
7,0,705289,247633,1282023,73602,8263,641072,11
7,0,728294,252639,1294521,77082,9122,647297,11
7,-1,634879,218473,1180834,65663,6524,590524,0
7,0,708773,248190,1454562,73790,9725,727239,11
7,0,704252,247641,1382781,73628,9174,691459,11
7,0,709005,249126,1425014,74335,8920,712632,11
7,0,706787,248129,1323904,73818,8373,661995,11
7,0,709927,248602,1423013,73967,9328,711556,11
7,0,706551,247511,1278300,73600,8103,639186,11
7,0,708334,247685,1317331,73663,8124,658818,11
7,0,710645,249100,1399993,74171,8880,699996,11
7,0,732422,252866,1624130,77126,10629,812094,11
7,0,715750,250003,1515724,74686,10527,757633,11
7,0,710750,249541,1809947,74565,10959,904620,11
7,0,707742,248738,1368780,73972,8494,684434,11
7,0,706615,247961,1411769,73704,8511,705962,11
7,0,728451,252525,1351962,77041,9422,675972,11
7,0,707899,248234,1574186,73859,8616,787091,11
7,-1,632297,217448,1172132,65302,6703,586122,0
7,0,711801,249181,1454851,74362,9028,727332,11
7,0,710111,248019,1339929,73784,8677,670017,11
7,0,705289,248081,1434372,73744,8302,717326,11
7,0,726146,252211,1394552,76942,8549,697297,11
7,0,707128,248000,1406617,73742,8131,703263,11
7,0,706209,247783,1690787,73666,10782,845492,11
7,0,710162,249064,1520351,74288,8742,760299,11
7,0,706705,247553,1329893,73568,8664,664942,11
7,0,709773,248376,1336587,73936,8582,668351,11
7,0,711077,248774,1615245,74082,11043,806664,11
7,0,730349,252334,1302386,76977,9177,651135,11
7,0,705688,248311,1412942,73816,9255,706547,11
7,0,705139,247800,1314669,73660,8519,657390,11
7,0,710448,249243,1427192,74377,9019,713713,11
7,0,711084,248948,1659968,74143,10595,830104,11
7,0,709881,248708,1366284,74017,8925,683088,11
7,0,712864,249624,1382997,74499,8996,691566,11
7,0,706042,246962,1413561,73478,8989,706832,11
7,0,710073,247747,1410411,73656,8633,705268,11
7,0,709567,248731,1424320,74058,9162,712228,11
7,0,707346,247420,1435706,73500,8802,717929,11
7,0,711073,248347,1314077,73910,8516,657094,11
7,0,709580,247719,1321406,73681,8528,660675,11
7,0,711126,248002,1407833,73728,9189,704040,11
7,0,708233,247876,1404495,73735,8734,702291,11
7,0,728957,252788,1348328,77156,8995,674245,11
7,0,709904,248697,1521409,74007,8708,760539,11
7,0,708681,247802,1498505,73676,8537,749266,11
7,0,709130,247792,1314298,73724,7951,657191,11
7,0,731590,252539,1319925,77016,9730,660015,11
7,0,710539,248239,1490961,73927,11175,744923,11
7,0,712570,248870,1473611,74263,10344,736854,11
7,0,710702,248062,1327640,73786,9105,663844,11
7,0,731305,252309,1360392,76913,9922,680136,11
7,0,715810,249678,1424563,74616,9842,712375,11
7,0,710249,247598,1315322,73612,8666,657707,11
7,0,714874,249050,1395892,74108,9095,697981,11
7,0,713043,247681,1417181,73632,8615,708672,11
7,0,701803,248315,1290751,73888,7510,645417,11
7,0,703310,247983,1783819,73760,10525,891739,11
7,0,705160,248653,1556350,73954,9380,778184,11
7,-1,634816,218122,1210527,65628,6763,605421,0
7,0,705676,248219,1302481,73853,8264,651274,11
7,0,708543,248973,1397276,74280,9033,698742,11
7,0,726079,252456,1473617,76958,9135,736789,11
7,0,705797,247997,1714410,73793,10599,857205,11
7,0,706119,247640,1400871,73591,8433,700465,11
7,0,735946,257917,1449417,76748,8632,724756,11
7,0,727043,252543,1353514,77055,9207,676775,11
7,0,709317,248987,1355038,74234,9155,677574,11
7,0,707612,248358,1319234,73861,9079,659716,11
7,0,725502,251974,1284379,76781,8748,642155,11
7,0,706331,247180,1258382,73507,7981,629248,11
7,0,707780,248574,1464454,73951,9027,732265,11
7,0,705413,247984,1457985,73702,8286,729014,11
7,0,706778,247719,1368556,73644,8445,684454,11
7,0,727528,252606,1383515,77095,9440,691720,11
7,0,708484,247918,1309190,73702,8109,654634,11
7,0,710327,248405,1395136,73846,8738,697633,11
7,0,703308,247740,1329267,73716,8997,664683,11
7,0,705526,248316,1397010,73823,8364,698543,11
7,0,727458,252856,1366514,77150,9335,683230,11
7,0,710438,249850,1412135,74662,8817,706007,11
7,0,705986,247966,1290859,73729,8152,645467,11
7,0,705763,248290,1359927,73888,7883,680039,11
7,0,706617,248017,1310324,73789,8058,655203,11
7,0,707850,247663,1503404,73634,8890,751749,11
7,0,726408,252473,1375442,77024,9027,687698,11
7,0,705382,247639,1688922,73599,10646,844395,11
7,0,707538,248051,1311656,73799,7976,655842,11
7,0,709056,248284,1572219,73830,10169,785972,11
7,0,712890,249533,1394349,74508,9397,697213,11
7,0,708880,248227,1306212,73849,8435,653143,11
7,-1,635345,217514,1140364,65416,7044,570240,0
7,0,708603,247872,1416208,73661,9014,708159,11
7,0,710927,249186,1380199,74373,9546,690196,11
7,0,706829,247405,1323757,73597,8413,661568,11
7,0,706675,247588,1411888,73571,7964,705981,11
7,0,732161,252761,1384915,77125,9507,692397,11
7,0,713358,250258,1441488,74769,8937,720821,11
7,0,709038,247571,1321616,73548,8722,660491,11
7,0,705730,248436,1406254,73840,9112,703167,11
7,0,725486,252240,1342364,76905,9615,671183,11
7,0,708579,248789,1387343,74018,8629,693739,11
7,0,706930,247846,1356095,73595,8750,678060,11
7,0,727632,252879,1298173,77085,9824,649040,11
7,0,711376,250264,1330441,74798,9335,665222,11
7,0,709133,248880,1284838,74027,8722,642314,11
7,0,707717,248011,1269751,73760,9170,634921,11
7,0,707061,248092,1419303,73796,9337,709695,11
7,0,708995,247339,1339341,73527,8967,669719,11
7,0,707330,248166,1357376,73832,8482,678736,11
7,0,704851,246791,1327340,73314,8359,663845,11
7,0,708661,247926,1386095,73756,8138,693091,11
7,0,708977,248212,1322387,73867,8114,661240,11
7,0,706984,247835,1345786,73748,8082,672926,11
7,0,709322,248128,1369156,73758,8301,684630,11
7,0,709258,248734,1402064,73931,8605,701072,11
7,0,715507,249910,1427040,74472,9174,713584,11
7,0,708952,247989,1348853,73607,8347,674470,11
7,-1,636990,218156,1264268,65497,8133,632604,0
7,0,708865,248182,1302509,73720,8163,651295,11
7,0,714204,250433,1342592,74875,8902,671316,11
7,0,706314,247573,1560009,73607,10740,780345,11
7,0,707288,248008,1269354,73749,8184,634625,11
7,0,705417,246910,1262388,73390,8369,631242,11
7,0,712688,249329,1385099,74205,9020,692601,11
7,0,713906,249900,1370754,74685,9665,685521,11
7,0,711083,247873,1346132,73713,8989,673108,11
7,0,707716,248163,1387400,73759,8737,693742,11
7,0,709738,248528,1668629,73983,10110,834274,11
7,0,709042,247950,1408801,73727,8845,704437,11
7,0,730001,252407,1359937,76961,9658,679921,11
7,0,712458,249561,1411007,74576,8412,705568,11
7,0,710895,248457,1413999,73876,8975,707090,11
7,0,709444,247569,1304282,73667,8372,652166,11
7,0,710599,248002,1263888,73790,8645,631960,11
7,0,714898,249280,1491077,74377,10326,745600,11
7,0,712869,248139,1371912,73760,8805,685998,11
7,0,709399,247340,1414913,73522,8459,707494,11
7,0,705647,248559,1321194,73952,9178,660394,11
7,0,705735,247924,1341131,73639,9655,670388,11
7,0,709078,249516,1350824,74377,9542,675401,11
7,0,727650,252295,1444814,76941,11062,722321,11
7,0,715147,250889,1360457,74985,10037,680345,11
7,0,707917,248459,1312443,73897,8434,655948,11
7,0,708775,248506,1305126,73928,8417,652367,11
7,0,708593,247930,1370333,73666,8664,684857,11
7,0,708761,249257,1496415,74332,8864,748069,11
7,-1,654685,222676,1282603,68851,8124,641263,0
7,0,706543,247962,1379364,73689,8963,689669,11
7,0,712566,249832,1459193,74658,9444,729537,11
7,0,705698,247559,1409334,73592,8742,704546,11
7,0,707199,247880,1343543,73772,8763,671781,11
7,0,715347,250274,1430279,74661,9626,715127,11
7,0,706274,247777,1471394,73539,8996,735760,11
7,0,729734,252875,1431777,77046,9795,715810,11
7,0,706933,248084,1292012,73665,9153,645917,11
7,0,707842,248547,1369091,73755,9854,684564,11
7,0,711224,249314,1331110,74248,9255,665588,11
7,0,705563,247489,1320861,73358,9051,660298,11
7,0,730535,253033,1328418,77049,10067,664025,11
7,0,714503,250409,1404826,74726,9833,702383,11
7,0,708466,247720,1429085,73491,9656,714583,11
7,-1,636564,219511,1217741,66362,7424,609056,2
7,0,712179,248815,1435734,73890,10357,717806,11
7,0,729397,252631,1422919,76923,10487,711445,11
7,0,713795,249898,1418971,74506,9309,709432,11
7,0,713296,249488,1501101,74308,8913,750506,11
7,0,711889,248280,1302122,73669,8262,650967,11
7,0,714789,250192,1408332,74548,10035,704314,11
7,0,713674,249027,1431491,73903,9151,715718,11
7,0,713459,248713,1463519,73817,9672,731719,11
7,0,713433,249564,1457485,74308,9446,728314,11
7,0,732155,252226,1443923,76782,11006,721681,11
7,0,705568,247560,1310277,73432,9025,655175,11
7,-1,639897,219549,1259703,66212,7390,629965,0
7,0,729081,252719,1484169,76877,10740,741909,11
7,0,715801,250805,1460676,74881,10792,730239,11
7,0,706897,248364,1480297,73753,10080,739970,11
7,0,710916,249350,1540148,74249,10340,770000,11
7,0,707871,247864,1514604,73516,10011,757130,11
7,0,709413,248491,1428135,73720,9544,714106,11
7,0,710676,248067,1542331,73724,10240,771272,11
7,0,714857,249352,1562353,74391,10686,781123,11
7,-1,637397,219121,1173060,65926,7242,586587,2
7,0,716172,250323,1550545,74662,10553,775170,11
7,0,736734,254314,1519107,77569,11194,759407,11
7,0,715368,250526,1549521,74804,9933,774299,11
7,0,712148,248651,1446743,73845,9721,723221,11
7,0,712613,248842,1490429,73949,10483,745118,11
7,0,718385,250112,1530357,74590,10434,765132,11
7,0,716991,249584,1543434,74291,9652,771586,11
7,0,721077,251085,1556417,75083,10495,778087,11
7,0,713058,248999,1447644,74119,10078,723909,11
7,0,712233,248812,1454671,73936,9337,727175,11
7,0,712535,248910,1471983,74055,9801,736037,11
7,-1,657376,222536,1275176,68860,7632,637602,0
7,0,712437,248649,1454980,74024,9343,727427,11
7,0,713394,248433,1451604,73954,9726,725402,11
7,0,716154,249184,1406589,74147,9622,703140,11
7,0,713227,249675,1436215,74274,11092,717852,11
7,0,715498,249401,1437603,74238,10305,718861,11
7,0,718166,250680,1548233,74640,10404,774058,11
7,0,714013,249025,1559717,73902,10466,779836,11
7,-1,635279,217656,1318026,65524,7599,659100,2
7,0,712760,248180,1462675,73579,10058,731359,11
7,0,718514,249488,1470272,74054,9959,734872,11
7,0,704208,248256,1351661,73570,9046,675857,11
7,0,708788,249571,1404948,74097,9106,702684,11
7,0,729846,253498,1386635,77149,9861,693353,11
7,0,711376,251122,1477296,74953,10271,738726,11
7,0,708659,249063,1316771,73925,9213,658345,11
7,0,712653,250155,1330008,74463,10100,665104,11
7,0,708360,249203,1376937,73963,9716,688372,11
7,0,706193,248556,1359008,73738,9626,679546,11
7,0,709415,249667,1360525,74114,9677,680141,11
7,0,729072,253506,1414307,77159,10083,707194,11
7,0,710609,249320,1344914,73960,9248,672467,11
7,0,709135,248766,1350172,73858,8707,675125,11
7,0,709334,248454,1335476,73628,9365,667795,11
7,0,713477,249620,1550680,74096,9821,775311,11
7,0,711466,250830,1409560,74760,9047,704858,11
7,0,708813,248956,1428337,73779,9197,714207,11
7,0,736600,258460,1377967,76707,8630,689030,11
7,0,710089,249144,1312024,73881,8408,656062,11
7,0,733462,254442,1377140,77452,9572,688515,11
7,0,713573,250399,1456897,74552,9154,728494,11
7,0,710393,248461,1326153,73632,8493,663236,11
7,0,734250,254353,1431145,77428,10146,715349,11
7,0,712355,248739,1490433,73694,9430,745247,11
7,0,713633,249623,1397108,74092,8435,698601,11
7,0,710546,250376,1553131,74525,10292,776627,11
7,0,707480,248839,1416089,73864,9642,708021,11
7,0,732424,254397,1360829,77457,9386,680468,11
7,0,714033,250483,1410027,74669,9331,705112,11
7,0,707365,248459,1421384,73686,9189,710776,11
7,0,708911,248931,1261926,73899,8577,630964,11
7,0,710664,248713,1319018,73916,8535,659367,11
7,0,710933,248227,1416837,73683,9397,708498,11
7,0,714974,250359,1406520,74617,9216,702945,11
7,0,710819,248549,1405081,73808,8491,702437,11
7,0,713052,248991,1469827,73992,9504,734950,11
7,0,732008,252511,1373771,76915,9518,686767,11
7,0,709824,248630,1390694,73824,9071,695447,11
7,0,710505,248324,1416006,73726,9488,708053,11
7,-1,633768,217389,1156082,65399,6322,578081,0
7,0,732569,253042,1461933,77101,9490,730951,11
7,0,710744,248111,1417795,73670,8942,708925,11
7,0,713058,248570,1322988,73821,8768,661499,11
7,0,711432,249099,1343306,74048,8755,671702,11
7,0,714561,249949,1466917,74479,9863,733826,11
7,0,711751,248739,1400413,73927,9409,700239,11
7,0,711563,248340,1337208,73743,9077,668599,11
7,0,716673,250653,1537273,74798,9742,768432,11
7,0,710126,249260,1332620,74034,9751,666362,11
7,0,714264,250805,1351617,74857,9665,675990,11
7,0,709416,248768,1373225,73810,9074,686676,11
7,0,713559,250000,1464348,74454,9629,732223,11
7,0,709317,248431,1386301,73765,8644,693162,11
7,0,711536,248851,1382713,73839,8993,691385,11
7,0,709890,248394,1419981,73695,8730,710028,11
7,0,710647,248640,1421935,73792,9106,711009,11
7,0,711205,248514,1394508,73796,9132,697281,11
7,0,712055,248886,1443007,73923,9687,721538,11
7,0,718633,251084,1430516,74892,9655,715566,11
7,0,709055,247843,1424821,73495,9382,712438,11
7,0,708158,248388,1325892,73821,8601,663002,11
7,0,707695,247930,1296664,73680,8496,648366,11
7,0,711268,249474,1407501,74387,9142,703774,11
7,0,710619,248136,1449534,73701,8925,724647,11
7,0,733958,257331,1513449,76444,9411,756784,11
7,0,729722,252696,1413450,77024,9780,706814,11
7,0,715703,250476,1439725,74771,9071,720020,11
7,0,709519,248125,1434321,73714,9364,717200,11
7,0,708878,247734,1318212,73596,8317,659115,11
7,0,708554,247298,1303130,73510,9305,651488,11
7,0,711602,247871,1422531,73612,9483,711302,11
7,0,714885,249194,1313943,74277,9439,656923,11
7,0,714007,248393,1335695,73843,9367,668005,11
7,0,706603,247934,1358502,73638,9852,679234,11
7,0,707238,247527,1352284,73507,9495,676178,11
7,-1,641959,218716,1221101,65824,6655,610599,0
7,0,709750,248279,1442399,73737,9789,721137,11
7,0,709360,248749,1306549,73881,8213,653560,11
7,0,711986,249347,1436587,74327,9262,718312,11
7,0,710149,247993,1441443,73702,9574,720888,11
7,0,733906,253095,1469864,77133,10683,734756,11
7,0,709889,249353,1519697,74414,9675,760105,11
7,0,705549,247058,1533304,73288,9782,766559,11
7,0,709344,248080,1555114,73686,9050,777594,11
7,0,710998,247648,1485588,73495,9885,742841,11
7,0,705266,247080,1489923,73328,10164,745086,11
7,0,707536,247230,1377655,73366,9408,688249,11
7,0,710241,247809,1465889,73595,9862,732825,11
7,0,710512,247934,1464715,73672,9946,732522,11
7,0,714213,249187,1457083,74247,10282,728427,11
7,0,716434,249934,1402429,74576,10223,701288,11
7,0,713364,248221,1398532,73839,10693,699183,11
7,0,711485,247217,1316962,73475,9279,658491,11
7,0,708126,249363,1456999,74469,9383,728536,11
7,0,705461,247820,1316220,73712,8715,658149,11
7,0,707683,248286,1478402,73809,9267,739254,11
7,0,708040,249099,1428280,74301,9166,714190,11
7,0,703686,247049,1411295,73398,8729,705683,11
7,0,705627,247125,1323935,73438,8357,661889,11
7,0,707058,248274,1412659,73865,8572,706371,11
7,0,714382,250165,1468323,74730,9228,734178,11
7,0,704693,247598,1347751,73633,8497,673923,11
7,0,706688,247894,1402870,73612,9061,701398,11
7,0,709708,248744,1397715,74220,9746,698912,11
7,0,707973,248028,1408566,73763,8801,704205,11
7,0,708703,248117,1304381,73759,8450,652242,11
7,0,710403,249177,1386995,74132,8420,693541,11
7,0,713065,249653,1371446,74562,9418,685784,11
7,0,707411,247543,1417388,73570,8831,708743,11
7,0,709229,247661,1415661,73707,8650,707918,11
7,0,708849,249001,1461785,74265,9452,731020,11
7,0,707632,248017,1420086,73667,9439,710085,11
7,0,706066,247698,1357244,73509,8231,678670,11
7,0,708666,248436,1403483,73817,8951,701838,11
7,0,728524,252205,1414229,76829,9525,707156,11
7,0,712223,249739,1415626,74489,9291,707871,11
7,0,733917,256606,1459816,76158,9502,729957,11
7,0,713004,249297,1427224,74262,9303,713642,11
7,0,707431,247808,1335667,73627,9087,667884,11
7,0,714279,249610,1423423,74379,9162,711790,11
7,0,707954,247117,1580209,73355,9475,790204,11
7,0,709153,247255,1412767,73365,8599,706447,11
7,-1,645913,220414,1254716,66487,6841,627435,0
7,0,705930,247631,1534298,73485,9566,767196,11
7,0,706069,247623,1393503,73477,9008,696797,11
7,0,706557,247953,1521096,73686,9824,760511,11
7,0,713814,249699,1499549,74474,9851,749839,11
7,0,709518,247601,1501649,73483,9839,750791,11
7,0,708205,247908,1398704,73628,9261,699366,11
7,0,708261,248040,1530118,73620,9355,765096,11
7,0,710491,248903,1440484,73943,9268,720221,11
7,0,708068,247408,1437832,73417,9023,718943,11
7,0,729532,252718,1493136,77018,9804,746518,11
7,0,708472,247461,1306271,73577,9058,653185,11
7,0,706128,247534,1396954,73585,9233,698700,11
7,0,702569,245846,1311320,72989,8753,655706,11
7,0,729749,252486,1384357,76952,9880,692224,11
7,0,708077,247460,1566992,73515,9444,783091,11
7,0,710644,248193,1426066,73793,8752,713058,11
7,0,710276,247792,1540146,73656,10275,770115,11
7,0,708595,248154,1499730,73763,9769,750112,11
7,-1,646734,221397,1257056,66798,7362,628642,2
7,0,711348,248271,1534830,73835,9559,767445,11
7,0,706647,247701,1420278,73535,8809,710274,11
7,0,708173,248217,1506381,73755,9103,753283,11
7,0,730935,253104,1465981,77127,9450,733025,11
7,0,708305,248487,1331025,73830,8986,665528,11
7,0,712449,249636,1385733,74420,9233,692943,11
7,0,708542,247807,1470336,73621,9764,735202,11
7,0,706099,247124,1446011,73303,8598,723017,11
7,0,731857,252405,1569877,76928,10460,785024,11
7,0,713021,249864,1491553,74572,9545,745800,11
7,0,709579,247934,1524465,73615,9544,762277,11
7,0,713649,248794,1432653,74008,9653,716396,11
7,0,710835,247891,1420728,73605,9433,710396,11
7,0,715351,249304,1519615,74315,9643,759851,11
7,0,709071,248425,1509368,73824,9797,754705,11
7,0,712645,249489,1576456,74383,9936,788283,11
7,0,710735,248093,1404632,73721,9659,702359,11
7,0,709487,247939,1415448,73676,9473,707766,11
7,0,711185,248552,1520313,73896,9777,760198,11
7,0,729515,252376,1516097,76885,9979,758088,11
7,0,715496,250425,1512344,74712,9250,756200,11
7,0,711203,247869,1576512,73551,10015,788237,11
7,0,717943,250323,1569975,74551,10832,785037,11
7,0,711266,248025,1552264,73605,11571,775688,11
7,0,733089,252509,1553215,76836,12957,776662,11
7,0,713237,247458,1644233,73381,10979,821966,11
7,0,713926,249977,1583947,74415,10790,791956,11
7,0,731296,252640,1409081,76906,10692,704668,11
7,-1,659106,222596,1160838,68721,7602,580423,0
7,0,711661,248123,1477007,73596,10447,738537,11
7,0,712194,248369,1344241,73720,9888,672228,11
7,0,713822,248684,1353266,73720,9942,676434,11
7,0,714347,250136,1448558,74366,10337,724210,11
7,0,733128,252877,1412889,76838,11202,706290,11
7,0,716772,249535,1391726,74166,9329,696136,11
7,0,712589,247824,1431223,73387,10163,715251,11
7,0,732926,253230,1462789,76964,10122,731217,11
7,0,714891,249533,1457511,74263,10004,728680,11
7,0,707175,246627,1447028,73032,9826,723576,11
7,0,712774,248435,1373059,73623,9882,686522,11
7,0,713371,248087,1405778,73404,10379,702932,11
7,0,712186,248877,1271711,73790,9455,635776,11
7,0,714585,249263,1358705,74112,10102,679208,11
7,0,710258,247454,1365079,73271,9950,682572,11
7,0,712616,248307,1347334,73591,10092,673639,11
7,0,716095,249167,1461312,74017,9736,730627,11
7,0,712904,247646,1426748,73292,9887,713231,11
7,0,714639,248539,1372616,73621,10014,686309,11
7,0,738651,253724,1463012,77096,10816,731533,11
7,0,707397,249017,1401396,73799,9155,700538,11
7,0,709528,249572,1465973,74128,9381,732854,11
7,0,729216,253076,1352829,76823,10424,676364,11
7,0,711664,250229,1402014,74439,9876,700997,11
7,0,707030,247930,1448511,73368,9939,724346,11
7,-1,635238,218681,1178372,65708,7240,589243,2
7,0,710205,248717,1701140,73683,11908,850387,11
7,0,730541,253404,1375818,77002,9474,687885,11
7,0,708485,247941,1456657,73420,9191,728295,11
7,0,709575,247967,1453385,73450,9534,726659,11
7,0,727942,253196,1435010,76990,10711,717404,11
7,0,707881,247835,1257386,73439,8768,628622,11
7,0,730184,252445,1421368,76771,9951,710531,11
7,0,715055,250010,1463510,74434,9568,731755,11
7,0,736785,257562,1443492,76308,9851,721751,11
7,0,710060,248398,1326025,73632,9062,662881,11
7,0,709191,247887,1468570,73521,9421,734323,11
7,0,706448,247556,1382332,73392,9825,691233,11
7,0,719058,251302,1496788,74932,10015,747919,11
7,0,710685,248208,1606300,73550,10331,803138,11
7,0,711478,248209,1335431,73602,9812,667716,11
7,-1,640109,219701,1257164,66122,7370,628716,0
7,0,707364,247709,1326246,73481,9096,663117,11
7,0,710986,249921,1402227,74307,9931,701238,11
7,0,705493,247778,1405395,73484,9425,702503,11
7,0,707389,247985,1343284,73498,9209,671504,11
7,0,705753,247607,1404380,73479,9729,702197,11
7,0,727982,252348,1373398,76782,10136,686718,11
7,0,704316,247278,1411048,73295,9034,705561,11
7,0,707018,247904,1453386,73589,9259,726580,11
7,0,712979,249540,1407592,74324,9627,703898,11
7,0,713556,250132,1387239,74570,9382,693639,11
7,0,707780,247401,1292107,73461,8853,645955,11
7,0,711426,248985,1456610,74123,9120,728298,11
7,0,708285,247459,1307387,73393,8858,653451,11
7,0,730889,251746,1300484,76631,9766,650169,11
7,0,710335,248296,1291457,73924,9088,645665,11
7,0,707009,247323,1601707,73436,11762,800551,11
7,0,708922,247905,1381924,73579,9644,690881,11
7,-1,640036,219127,1234101,65744,6995,617073,2
7,0,710151,247629,1374711,73448,9524,687427,11
7,0,710169,247602,1345016,73490,9767,672539,11
7,0,707464,247704,1439749,73464,9833,719546,11
7,0,707648,247397,1473899,73435,9774,736910,11
7,0,707980,246901,1338255,73223,9876,669064,11
7,0,709544,247190,1639997,73343,11818,820062,11
7,0,710096,247470,1320381,73450,9900,660088,11
7,0,704142,247234,1309902,73260,9064,655050,11
7,0,705203,247765,1333593,73504,8734,666721,11
7,0,704039,246745,1419181,73117,9420,709600,11
7,0,706772,246955,1293231,73242,8669,646447,11
7,0,728409,252574,1522350,76901,10981,761228,11
7,0,709088,248161,1626942,73686,10029,813422,11
7,0,707996,247014,1408112,73241,9622,704103,11
7,0,707935,247494,1456143,73465,10383,728054,11
7,0,731648,252548,1439638,76872,11700,719760,11
7,0,705658,247146,1510499,73299,10885,755223,11
7,0,709499,248347,1615839,73727,10537,807909,11
7,0,712503,249325,1522499,74208,10382,761198,11
7,0,708512,247686,1507030,73510,10482,753244,11
7,0,712706,249172,1469114,74267,9995,734613,11
7,0,708541,247193,1454339,73349,10469,727180,11
7,0,710003,247142,1531803,73272,10888,765920,11
7,0,708664,247496,1650485,73433,10261,825228,11
7,0,708517,247353,1541207,73396,10266,770580,11
7,0,717162,250662,1483945,74794,10766,742019,11
7,0,710486,247544,1426305,73485,9954,713124,11
7,0,715679,249189,1472409,74181,10670,736036,11
7,0,704487,247108,1432425,73231,9552,716061,11
7,0,709123,247628,1395306,73504,9628,697615,11
7,0,706623,247373,1460621,73366,9953,730343,11
7,0,708921,248084,1392299,73649,10123,696174,11
7,-1,643399,220172,1273283,66211,7864,636691,0
7,0,709437,247457,1539585,73432,10605,769772,11
7,0,712883,249820,1632232,74460,10540,815714,11
7,0,709433,247715,1440834,73475,10140,720360,11
7,0,716137,249753,1441958,74419,10525,720930,11
7,0,711830,247608,1527200,73441,10835,763390,11
7,0,708504,247314,1696952,73406,11506,847974,11
7,0,712727,248524,1456578,73703,10608,728233,11
7,0,730150,252411,1528140,76792,10971,763911,11
7,0,713449,249150,1438715,74231,10609,719232,11
7,0,709433,246910,1514315,73225,10504,757204,11
7,0,709825,247638,1546812,73482,11203,773290,11
7,0,708961,246984,1414629,73246,10555,707238,11
7,0,718265,250340,1420998,74634,11127,710162,11
7,0,710264,247377,1448554,73419,10372,724189,11
7,0,704464,248003,1521538,73636,9861,760680,11
7,0,712469,250268,1450434,74553,10160,725096,11
7,0,704709,247284,1521093,73254,10371,760550,11
7,0,707967,248186,1432839,73678,9743,716306,11
7,0,707397,248090,1445862,73651,9501,722581,11
7,0,709919,249050,1445399,74110,9865,722588,11
7,0,706399,247230,1472265,73315,9751,736129,11
7,-1,639848,218262,1171190,65491,7516,585622,0
7,0,731199,252709,1529054,76942,10912,764436,11
7,0,705308,247569,1533220,73413,10211,766664,11
7,0,708435,248429,1494331,73697,9696,746970,11
7,0,711019,248871,1496623,74080,9858,748188,11
7,0,715080,250124,1616747,74571,10523,808501,11
7,0,709809,247661,1451849,73502,10173,725944,11
7,0,710058,248955,1387793,74097,10297,693901,11
7,0,707297,247589,1479486,73471,10034,739720,11
7,0,713519,249187,1529781,73934,10117,764793,11
7,0,708351,247461,1424125,73450,9548,712241,11
7,0,708838,247822,1311893,73497,8978,655606,11
7,0,706949,247256,1395888,73379,9006,697978,11
7,-1,642261,220342,1308746,66527,8695,654277,2
7,0,714718,249905,1380118,74572,8919,689757,11
7,0,710006,247608,1737207,73427,10891,868488,11
7,0,714563,248885,1394757,74094,9487,697261,11
7,0,710597,248025,1449337,73628,9850,724622,11
7,0,707288,247706,1406427,73454,9150,702895,11
7,-1,639735,218249,1141007,65538,7578,570481,0
7,0,708817,248171,1659104,73705,10662,829583,11
7,0,709579,247855,1473165,73564,9501,736627,11
7,0,709023,246919,1440982,73209,9552,720421,11
7,0,707757,247965,1327520,73651,9178,663622,11
7,0,707198,247155,1409374,73302,9398,704821,11
7,0,709998,247932,1362640,73607,9586,681485,11
7,0,708422,246964,1250176,73178,9092,625040,11
7,0,709566,247184,1425055,73286,9838,712572,11
7,0,710179,247143,1414574,73228,9668,707181,11
7,0,714055,250305,1316082,74527,8404,658074,11
7,0,709648,247605,1320224,73426,8350,659814,11
7,0,716797,249954,1683179,74545,12347,840560,11
7,0,710749,247747,1402994,73504,9618,701424,11
7,0,706437,246187,1386473,73052,9260,693190,11
7,0,709378,246933,1396483,73234,9779,698041,11
7,0,710532,247385,1901717,73437,11546,950862,11
7,0,712189,247409,1488417,73315,9500,743932,11
7,0,714758,249064,1319753,74149,9488,659838,11
7,0,712363,247534,1414904,73469,9697,707335,11
7,0,705449,247239,1413124,73320,9506,706487,11
7,0,713055,249486,1413879,74279,8451,706805,11
7,0,704591,246801,1306030,73194,8404,653018,11
7,0,707679,246955,1330942,73249,9589,665504,11
7,0,707439,247374,1299714,73371,9217,649842,11
7,0,712354,249204,1249559,74184,8592,624835,11
7,0,709081,247600,1492488,73504,10745,745924,11
7,0,708018,247050,1270345,73260,8728,635015,11
7,0,710024,247383,1288022,73414,8736,644024,11
7,-1,658893,222684,1207569,68813,7812,603337,0
7,0,705834,246849,1301774,73205,8202,650720,11
7,0,708387,247442,1561482,73441,9684,780773,11
7,0,730397,252556,1623942,76889,9922,811789,11
7,0,709261,247273,1412748,73329,9401,706467,11
7,0,709919,247808,1331399,73512,8923,665676,11
7,0,709652,247531,1429951,73428,9389,715061,11
7,0,710855,248111,1394710,73650,8799,697238,11
7,0,712709,248612,1370236,73998,9294,685092,11
7,0,709979,247396,1439211,73413,9125,719553,11
7,0,710546,247205,1370849,73314,9341,685383,11
7,0,711732,247622,1400650,73445,9472,699916,11
7,0,730375,252649,1456742,76911,9621,728342,11
7,0,714466,249544,2011489,74482,12232,1005064,11
7,0,738758,257003,1434537,76185,9263,717321,11
7,0,714784,248942,1461986,73884,10244,730907,11
7,0,710224,247016,1337881,73249,9164,668813,11
7,0,713032,247959,1393716,73598,9809,696920,11
7,0,718248,249742,1322462,74453,9095,661215,11
7,0,707604,247485,1397998,73402,8809,698965,11
7,0,713103,248618,1320901,73744,9218,660250,11
7,0,711061,247576,1246351,73516,8432,623171,11
7,0,710472,247809,1419185,73554,9085,709624,11
7,0,710232,247407,1252390,73396,8506,626091,11
7,0,711874,248034,1376727,73617,8998,688450,11
7,0,717189,249678,1360402,74421,9237,680193,11
7,0,710680,246849,1414365,73205,8996,707193,11
7,0,716055,248887,1345481,74091,9237,672524,11
7,0,708009,247078,1414873,73263,8571,707619,11
7,0,708480,247373,1456764,73335,8492,728334,11
7,0,711390,247729,1407399,73478,8851,703774,11
7,0,710464,247586,1424058,73434,8409,712009,11
7,0,715718,249416,1372466,74225,8806,686028,11
7,0,712438,247845,1332533,73509,8105,666321,11
7,0,711609,247080,1633572,73387,10226,816788,11
7,0,734766,251997,1544067,76688,9972,771995,11
7,0,715792,250067,1362863,74636,8781,681321,11
7,0,712539,247742,1295237,73529,7850,647675,11
7,0,709732,246876,1393388,73215,8626,696647,11
7,-1,636351,218245,1186657,65645,6544,593133,0
7,0,735924,252492,1447444,76802,9511,723715,11
7,0,712848,247878,1343320,73446,7108,671574,11
7,0,721858,252383,1342224,76356,9445,671023,11
7,0,702783,247617,1452452,72981,9422,726200,11
7,0,699477,246917,1323180,72682,8454,661623,11
7,0,700576,247160,1376798,72859,8691,688197,11
7,0,722269,252164,1489075,76252,9810,744459,11
7,0,703009,247155,1482418,72802,8680,741053,11
7,0,700918,247012,1368101,72728,8583,684124,11
7,0,708889,249806,1438570,73874,8459,718719,11
7,0,703177,247995,1380452,73123,9190,690375,11
7,0,701970,247626,1303070,73013,8469,651168,11
7,0,702902,247702,1698000,72989,10354,849140,11
7,0,702330,246958,1456146,72751,8309,728041,11
7,0,712030,250311,1319573,74197,8528,659571,11
7,0,701729,247458,1303722,72952,8624,651972,11
7,0,704470,248081,1378352,73183,8878,689172,11
7,0,707415,248893,1330739,73644,8563,665214,11
7,0,704100,247534,1405223,73012,9123,702640,11
7,0,729879,256373,1394555,75551,8775,697131,11
7,0,706450,248091,1412755,73166,9015,706385,11
7,0,699096,247481,1314845,73001,9109,657360,11
7,0,704565,248935,1259551,73609,9492,629753,11
7,0,699192,246700,1226079,72654,8814,612914,11
7,0,726027,252729,1503936,76445,11011,752017,11
7,0,701517,247173,1540144,72823,9149,770185,11
7,0,703068,247521,1386163,73004,9575,692980,11
7,0,701645,246752,1382962,72639,9266,691585,11
7,0,703955,247736,1450726,73049,9136,725316,11
7,0,723697,251727,1449427,76051,9466,724574,11
7,0,707725,249645,1355895,73935,9557,677801,11
7,0,704113,247562,1408127,72965,9247,704008,11
7,0,703588,247478,1439219,72958,8884,719667,11
7,0,705746,247591,1287648,72959,7964,643808,11
7,0,706960,249548,1335816,73893,8979,667890,11
7,-1,636803,218258,1229209,65759,6638,614694,2
7,0,704031,247516,1763302,72982,11490,881097,11
7,0,704318,247544,1340507,72929,9204,670290,11
7,0,730265,253173,1492605,77045,10562,746459,11
7,0,712818,250441,1364711,74255,9202,682110,11
7,-1,639435,217966,1157373,65574,6843,578735,0
7,0,704567,247016,1399877,72796,9311,700007,11
7,0,725541,252068,1346995,76277,10242,673418,11
7,0,712853,250303,1253402,74187,8607,626548,11
7,0,705599,246901,1358381,72727,8959,679041,11
7,0,705625,247533,1240935,72941,9323,620502,11
7,0,709334,247874,1291865,73093,8993,645827,11
7,0,705345,249203,1271196,73687,8910,635571,11
7,0,701122,247726,1293903,73026,9640,646788,11
7,0,701433,247549,1279726,72963,9584,639782,11
7,0,706410,248982,1311373,73555,9118,655596,11
7,0,704731,247692,1404924,73045,10083,702518,11
7,0,704344,247076,1317475,72780,9382,658481,11
7,0,722824,251909,1443617,76250,10177,721912,11
7,0,704995,247796,1444148,73179,9167,721972,11
7,0,704324,247227,1353851,72998,8831,677011,11
7,0,700822,247210,1436731,72978,9537,718320,11
7,0,701686,246619,1646479,72808,9054,822648,11
7,0,707357,248861,1328819,73738,9026,664217,11
7,0,710831,249845,1321435,74166,9162,660445,11
7,0,703518,246774,1395522,72802,9292,697720,11
7,0,705699,247443,1308236,73084,8948,654010,11
7,0,728027,251939,1357674,76310,10186,678809,11
7,0,712343,250560,1263228,74333,9381,631610,11
7,0,707974,247958,1254067,73238,8503,627218,11
7,0,704231,246679,1300900,72796,8799,650489,11
7,0,705608,246962,1395264,72918,9403,697555,11
7,0,705826,248074,1703146,73319,10593,851098,11
7,0,702521,247455,1463307,73057,9222,731514,11
7,0,710596,249453,1394936,74827,10086,697376,11
7,0,708944,248410,1437611,74274,10084,718742,11
7,0,726315,251878,1526137,77184,10454,763045,11
7,0,707204,247592,1400780,73950,9373,700446,11
7,0,706846,248307,1300521,74211,8884,650149,11
7,-1,639387,218283,1179454,65718,7335,589783,0
7,0,709549,248175,1419714,74164,9961,709632,11
7,0,706537,246711,1324772,73593,9462,662181,11
7,0,709413,248566,1346540,74477,8886,673172,11
7,0,707234,247260,1378078,73888,9659,689077,11
7,0,709801,247880,1443277,74020,10496,721492,11
7,0,709294,247055,1467307,73770,10942,733590,11
7,0,708943,247645,1441289,73946,10797,720583,11
7,0,704872,247490,1526014,74003,10924,762740,11
7,0,706513,248421,1466945,74435,10385,733369,11
7,0,706617,247991,1770299,74132,10675,885137,11
7,0,702375,246622,1253654,73612,8674,626864,11
7,0,705648,247494,1352660,73968,9116,676350,11
7,0,707552,247726,1468221,73996,9611,734132,11
7,0,704747,247356,1321954,73874,8905,660951,11
7,0,705815,247355,1527379,73926,9707,763789,11
7,0,728159,251790,1551826,77168,10262,775821,11
7,0,706005,246780,1347577,73693,9782,673751,11
7,0,708470,247359,1250074,73889,9304,624911,11
7,0,704308,247335,1301251,73887,9347,650482,11
7,0,709984,249452,1346841,74758,9139,673592,11
7,0,707327,247733,1556083,73980,9544,778017,11
7,0,713085,249098,1337873,74587,8865,668912,11
7,0,705949,247999,1403590,74141,8905,701831,11
7,0,712593,249653,1296673,74926,8207,648354,11
7,-1,644563,220086,1294887,66609,6901,647534,2
7,0,706856,247280,1405469,73836,7996,702796,11
7,0,706238,246927,1505152,73726,9136,752674,11
7,0,706813,247155,1443730,73877,8561,721854,11
7,0,713520,249402,1301765,74763,8617,650829,11
7,0,709785,247588,1329711,73931,8537,664836,11
7,0,724473,252032,1441902,77180,9895,720941,11
7,0,707627,248500,1342852,74306,9135,671401,11
7,0,708403,247865,1519146,74066,9711,759795,11
7,0,706081,247277,1374054,73881,8881,687075,11
7,0,706314,247016,1334811,73766,9023,667381,11
7,0,709189,247541,1288268,73921,8544,644162,11
7,0,705085,247164,1357753,73828,9755,678871,11
7,0,713341,249366,1302178,74833,8612,651032,11
7,0,708680,247627,1417385,73964,9303,708670,11
7,-1,637788,217903,1264629,65564,7886,632349,0
7,0,706100,247754,1320938,74207,8396,660496,11
7,0,706394,247182,1293549,73803,9015,646715,11
7,0,705335,247093,1469660,73734,8533,734878,11
7,0,708279,247670,1395242,74036,8967,697651,11
7,0,706670,247203,1383807,73823,9020,691863,11
7,0,710919,248434,1412003,74558,9048,705951,11
7,0,710111,247695,1463792,73975,9063,731869,11
7,0,708800,247118,1349873,73805,8796,675000,11
7,-1,638287,218769,1168185,65906,7386,584149,2
7,0,733814,252100,1458984,77282,9540,729493,11
7,0,708085,249407,1302560,74898,9137,651299,11
7,0,707563,248157,1423616,74225,8782,711900,11
7,0,705927,247540,1374856,73982,8412,687475,11
7,0,709976,248878,1233727,74598,8262,616859,11
7,0,706689,247677,1309470,74048,9444,654650,11
7,0,712050,249492,1276849,74867,8654,638407,11
7,0,711005,248798,1377990,74570,9239,688930,11
7,0,707606,247377,1306319,73878,8486,653138,11
7,0,709020,247558,1377492,73974,9129,688721,11
7,0,710283,248795,1304711,74607,8559,652382,11
7,0,708934,247705,1406585,73999,9303,703301,11
7,0,710037,247668,1423949,74031,9659,712053,11
7,0,712507,249022,1335602,74650,9251,667789,11
7,0,707736,247756,1465649,74068,9208,732666,11
7,0,728067,252208,1461376,77292,9705,730717,11
7,0,714438,250233,1304980,75186,8322,652394,11
7,0,707973,246974,1457407,73762,8876,728769,11
7,0,705298,246663,1348270,73578,8738,674126,11
7,0,709565,247307,1315125,73855,8271,657582,11
7,0,706229,246561,1462926,73623,9316,731447,11
7,0,709917,247966,1320291,74139,8364,660118,11
7,0,709858,247446,1298297,73944,8995,648961,11
7,0,707795,246839,1332155,73717,9674,666006,11
7,0,711405,247518,1243597,73923,9138,621825,11
7,0,743883,258620,1482666,77587,9500,741307,11
7,0,706655,247489,1503220,73919,9144,751629,11
7,0,707302,248005,1320083,74161,8264,660036,11
7,0,704477,246662,1376712,73589,8361,688369,11
7,0,706938,247524,1383880,73974,8851,691920,11
7,0,708047,247428,1271639,73889,8666,635807,11
7,0,707895,247214,1461012,73827,9710,730550,11
7,0,709659,246832,1450717,73748,9657,725310,11
7,0,710182,247909,1400359,74040,9366,700150,11
7,0,713702,249307,1344136,74789,9395,672134,11
7,0,707696,246825,1455280,73673,9992,727645,11
7,0,715007,248941,1422268,74569,9000,711138,11
7,0,710644,247256,1479079,73882,9845,739590,11
7,0,706472,247470,1323302,73931,8228,661644,11
7,0,728885,251601,1504823,77045,9851,752352,11
7,0,710733,247334,1341533,73915,9322,670708,11
7,0,712697,249126,1279353,74795,9044,639686,11
7,0,708510,246960,1311543,73763,9743,655754,11
7,0,715766,248754,1297144,74556,9824,648554,11
7,0,731684,251763,1522970,77111,10158,761495,11
7,-1,659658,223122,1199073,69093,8306,599507,0
7,0,703370,247614,1422515,73999,9629,711251,11
7,-1,639519,218519,1260071,65803,7668,630069,2
7,0,708097,249063,1338525,74657,8969,669214,11
7,0,728448,252513,1464422,77404,10695,732124,11
7,0,705133,247478,1386180,73957,9275,693076,11
7,0,706631,247476,1485783,73899,9359,742221,11
7,0,710126,248323,1458002,74267,10200,729013,11
7,0,709661,247532,1338631,73925,9400,669301,11
7,0,705215,247586,1510458,73872,9108,755215,11
7,0,704679,247152,1446617,73848,9246,723151,11
7,0,708102,248362,1334225,74462,8968,666916,11
7,0,706723,247771,1357564,74080,9556,678896,11
7,0,704445,246922,1248251,73813,8657,624081,11
7,0,707091,247419,1340394,73934,9205,670105,11
7,0,716187,250452,1277642,75195,8998,638723,11
7,0,706278,246441,1353892,73544,9160,676917,11
7,0,707285,247280,1313130,73892,8933,656496,11
7,0,706654,247850,1301124,74109,9660,650439,11
7,-1,640767,218222,1236445,65682,7625,618303,0
7,0,708213,247878,1420834,73987,8636,710334,11
7,0,706968,247579,1395576,73944,9767,697815,11
7,0,703956,246731,1299314,73671,8724,649687,11
7,0,728713,252194,1472905,77244,10532,736407,11
7,0,706373,247352,1362403,73841,8873,681300,11
7,0,712413,248816,1332751,74559,8974,666399,11
7,0,708925,247946,1395312,74074,9262,697601,11
7,0,710616,247408,1356627,73934,9296,678215,11
7,0,711321,249686,1327459,74985,9117,663697,11
7,0,709049,248348,1445975,74257,8962,722906,11
7,0,706953,247132,1464037,73810,9656,732006,11
7,0,706748,247150,1454138,73805,8948,727045,11
7,0,712556,249240,1320847,74705,9136,660432,11
7,0,730707,252524,1479828,77363,9807,739951,11
7,0,710343,248077,1531580,74096,9346,765732,11
7,0,708834,247420,1463946,73933,8890,731921,11
7,0,731035,252223,1358306,77259,10109,679161,11
7,0,712594,248203,1266899,74210,9164,633392,11
7,0,711183,247332,1299253,73815,8972,649518,11
7,0,705987,247329,1306161,73855,9559,653027,11
7,0,705643,247848,1290800,74069,9004,645356,11
7,0,706038,247322,1347265,73860,8113,673652,11
7,0,708294,247706,1419213,73975,8897,709677,11
7,0,707672,247908,1421473,74053,8508,710666,11
7,0,707038,246659,1373390,73607,8588,686711,11
7,0,707388,247056,1320775,73763,8135,660395,11
7,0,708520,247310,1356944,73873,8050,678457,11
7,-1,633885,218908,1152407,65948,7512,576189,2
7,0,707709,248028,1471056,74061,9804,735565,11
7,0,708210,247410,1413119,73847,9150,706593,11
7,0,731378,252491,1455395,77356,9568,727660,11
7,0,713081,249676,1373814,74914,8880,686562,11
7,0,711060,248418,1458931,74251,9453,729397,11
7,0,709174,247451,1317669,73904,8430,658830,11
7,0,710638,247795,1326833,74028,9592,663391,11
7,0,708242,246814,1289407,73736,8968,644717,11
7,-1,636657,218953,1203720,65944,7241,602054,0
7,0,710347,248811,1351657,74641,8038,675811,11
7,0,713222,249257,1336766,74599,8777,668332,11
7,0,707591,246824,1405854,73625,8126,702937,11
7,0,710994,247805,1403469,73898,8508,701697,11
7,0,710287,248013,1421567,73976,9312,710830,11
7,0,731365,251796,1574809,76989,10196,787170,11
7,0,710021,247442,1501508,73737,9428,750795,11
7,0,707158,247583,1322152,73824,8685,661065,11
7,0,706672,247130,1350442,73648,8067,675229,11
7,0,710429,248188,1410356,74021,8800,705172,11
7,0,711589,248824,1332217,74434,8897,666144,11
7,0,711603,247845,1394489,73886,8463,697377,11
7,0,708065,247764,1359348,73846,8679,679642,11
7,0,711926,248030,1387701,73974,9145,693892,11
7,0,709996,247624,1379688,73879,9510,689782,11
7,0,712795,248447,1262615,74056,8440,631263,11
7,0,707801,246775,1327559,73507,9177,663777,11
7,0,707013,248060,1280594,73984,8805,640212,11
7,0,704769,247663,1270369,73833,9508,635160,11
7,0,726665,252236,1365055,77161,10514,682429,11
7,0,707540,247994,1265748,73980,9407,632876,11
7,0,706143,247345,1256985,73716,9506,628305,11
7,0,709124,248724,1311108,74407,9003,655473,11
7,0,707008,247773,1336876,73829,8651,668447,11
7,0,710185,248655,1373264,74188,8528,686629,11
7,0,708459,248065,1552882,74028,8732,776387,11
7,0,729387,252108,1471114,77190,9569,735526,11
7,0,714350,249813,1340570,74927,8947,670244,11
7,-1,640185,220427,1225649,66695,8031,612766,0
7,0,703079,246725,1378579,73548,9638,689269,11
7,0,711675,249099,1362685,74544,9030,681437,11
7,0,708518,248445,1392260,74186,9679,696130,11
7,0,707374,247327,1373039,73767,8990,686544,11
7,0,727791,251959,1596403,77080,10455,798156,11
7,0,711481,248504,1337620,74374,9339,668974,11
7,0,707860,247470,1343521,73711,8663,671798,11
7,-1,635928,219041,1247869,66008,8369,623837,2
7,0,711716,247908,1359178,73962,10167,679278,11
7,0,715307,248684,1279297,74200,9715,639603,11
7,0,708287,247780,1311899,73854,8181,655876,11
7,0,708036,247475,1341570,73832,9153,670779,11
7,0,710667,248665,1284342,74253,8772,642075,11
7,0,714196,249074,1298690,74649,9356,649277,11
7,0,705961,246976,1322414,73657,9818,661217,11
7,0,706660,247250,1302559,73785,8929,651213,11
7,0,712476,248901,1358535,74304,8981,679217,11
7,0,714254,249268,1323484,74701,8933,661623,11
7,0,708876,247080,1470122,73630,8859,735079,11
7,0,714748,248954,1412178,74264,8884,706105,11
7,0,706393,247510,1379459,73947,9819,689757,11
7,0,708790,247577,1500804,73880,9115,750341,11
7,0,731629,252211,1511554,77259,10843,755816,11
7,0,712309,248231,1422971,74119,8612,711498,11
7,0,715218,248936,1336614,74509,9116,668135,11
7,-1,636463,217964,1335576,65605,8748,667815,0
7,0,705680,247095,1441304,73630,9816,720869,11
7,0,708121,247852,1479062,73869,9357,739515,11
7,0,709448,247849,1259994,73927,8675,629918,11
7,0,710261,247515,1278096,73863,9031,639038,11
7,0,715325,249856,1269159,74946,9316,634555,11
7,0,709742,247008,1294511,73662,9322,647127,11
7,0,713910,248133,1391881,74074,9935,695923,11
7,0,711781,248901,1331155,74507,9888,665539,11
7,0,714734,249557,1362576,74778,9274,681322,11
7,0,708662,247059,1422049,73710,9503,711078,11
7,0,710715,248210,1376987,74086,9275,688535,11
7,0,708192,246931,1346125,73622,8600,673061,11
7,0,711764,247941,1449412,73988,9312,724502,11
7,0,712539,248079,1483612,74032,9850,740284,11
7,0,712907,247521,1426917,73807,9521,713473,11
7,0,730922,252301,1570838,77187,11565,785388,11
7,0,709876,247499,1494497,73732,10382,746871,11
7,0,709758,247151,1371495,73760,9641,685574,11
7,-1,634606,219157,1292181,66012,7513,646143,2
7,0,734159,252117,1695020,77099,11813,847537,11
7,0,712913,249066,1292245,74502,8440,645743,11
7,0,711881,247870,1544140,73804,9765,772065,11
7,0,710944,247482,1414762,73808,10692,707215,11
7,0,711581,247792,1329325,73847,9828,664585,11
7,0,709947,247419,1463226,73810,10400,731620,11
7,0,709544,247297,1399468,73706,9299,699652,11
7,0,712963,248222,1324702,73983,9189,662368,11
7,0,733063,251888,1574429,77026,11047,787244,11
7,0,714277,249462,1242834,74803,8816,621487,11
7,0,713178,248065,1492169,73964,9568,746124,11
7,-1,638440,219935,1260438,66445,7374,630288,0
7,0,730997,251959,1532762,77088,10959,766037,11
7,-1,636276,218541,1160552,65838,7045,580259,2
7,0,712204,247568,1470321,73849,10696,735194,11
7,0,711988,247822,1609589,73918,10695,805399,11
7,0,711661,247736,1522533,73934,10321,760801,11
7,0,712050,247274,1477923,73672,10689,739031,11
7,0,714800,248623,1517849,74170,10517,758968,11
7,0,715824,248661,1386722,74365,9835,693144,11
7,0,710974,247168,1490552,73723,9736,745304,11
7,0,717253,248805,1410753,74435,9270,705097,11
7,0,702499,247421,1242735,73721,8648,621650,11
7,0,704543,247830,1306086,73907,9613,652972,11
7,0,704746,247419,1304203,73673,8960,652131,11
7,0,705646,247182,1297474,73702,9136,649096,11
7,0,706574,248794,1225931,74544,8842,612995,11
7,0,706168,247465,1398801,73861,9526,699430,11
7,0,712383,249611,1359592,74899,9259,679826,11
7,0,705107,247243,1470556,73815,9846,735385,11
7,0,705144,246948,1274854,73732,8241,637465,11
7,0,707689,248071,1420265,74136,8956,710108,11
7,0,706269,248132,1442956,74227,9126,721535,11
7,0,709515,248684,1323113,74598,9444,661608,11
7,0,708863,248049,1380895,74226,9443,690505,11
7,0,709059,248091,1377674,74204,9032,688862,11
7,0,708705,247787,1294613,74143,8609,647342,11
7,0,712086,249591,1337656,74933,9580,668879,11
7,0,708086,247877,1459490,73975,9786,729840,11
7,0,710217,248160,1284165,74207,8734,642121,11
7,0,714541,250056,1295072,75078,8634,647629,11
7,0,714483,248772,1406324,74349,9306,703204,11
7,0,711439,249702,1347842,74945,8889,674003,11
7,0,710118,248663,1239197,74430,8675,619653,11
7,0,730439,252957,1379160,77551,9897,689520,11
7,0,739907,259457,1308430,77959,8634,654227,11
7,0,708940,248158,1381147,74201,9452,690829,11
7,0,712312,248904,1445722,74470,9694,722906,11
7,0,714108,249258,1339666,74719,9628,669904,11
7,0,731861,253147,1629184,77628,11725,814597,11
7,0,718315,251293,1406558,75508,9078,703344,11
7,0,711117,248184,1432091,74100,9621,716141,11
7,0,714899,249555,1313824,74784,8899,656906,11
7,0,712013,248396,1387788,74240,8893,693838,11
7,0,711651,247912,1410360,74033,8704,705204,11
7,-1,637802,219212,1132520,66026,7117,566306,0
7,0,712359,248524,1369879,74351,8909,684995,11
7,0,711997,249241,1332326,74682,8452,666188,11
7,0,711919,248820,1384901,74403,8851,692455,11
7,0,710864,248136,1380529,74127,8066,690345,11
7,0,714222,249337,1279415,74554,8165,639765,11
7,0,712216,248689,1385143,74355,8240,692613,11
7,0,713601,248964,1442528,74436,8931,721322,11
7,0,716533,249007,1425968,74452,8836,713016,11
7,0,713666,249204,1313175,74602,8640,656646,11
7,0,719105,250366,1274940,75293,8373,637505,11
7,0,713753,248365,1298602,74317,9225,649363,11
7,0,716253,249043,1311709,74588,9162,655914,11
7,0,707163,248131,1355590,74460,8990,677768,11
7,0,708068,247949,1401182,74199,8981,700683,11
7,0,715272,250280,1304586,75259,8817,652363,11
7,0,711458,248437,1302183,74369,8728,651119,11
7,0,714694,249774,1335117,75013,8735,667630,11
7,0,711966,248192,1475232,74331,9418,737729,11
7,0,706715,247592,1278364,74043,8171,639237,11
7,0,731336,253169,1473857,77688,9230,736970,11
7,0,711587,248665,1387168,74419,8479,693634,11
7,0,710510,248103,1302016,74199,8641,651049,11
7,0,713339,249062,1399627,74520,8769,699846,11
7,0,734786,252761,1618733,77551,10574,809477,11
7,0,708406,247953,1429086,74091,9131,714578,11
7,0,710129,248165,1393463,74139,9206,696770,11
7,0,711410,248570,1326307,74373,8686,663160,11
7,0,732972,252939,1436255,77593,10072,718099,11
7,0,714937,249118,1421801,74538,9783,710956,11
7,0,710338,248309,1263165,74285,8867,631471,11
7,-1,642641,219706,1377607,66377,8400,688874,0
7,0,712939,249204,1320993,74523,9395,660088,11
7,0,714066,249043,1461122,74420,9861,730329,11
7,-1,636405,220019,1269499,66592,7790,634612,2
7,0,711984,249108,1319759,74474,9275,659946,11
7,0,730281,252799,1405445,77458,10972,702774,11
7,0,716149,250464,1430365,75175,10092,715322,11
7,0,710889,247849,1526617,74015,10570,763344,11
7,0,711409,249345,1539946,74577,9753,769919,11
7,0,707323,247330,1419436,73826,9141,709736,11
7,0,715350,250087,1330268,74963,8970,665192,11
7,0,712268,248515,1393828,74286,9084,697075,11
7,0,713780,248635,1389577,74282,9148,694834,11
7,0,713532,249342,1333684,74555,9063,666877,11
7,0,713422,248755,1318694,74314,8537,659390,11
7,0,734681,252863,1477911,77485,10376,738922,11
7,0,715632,249803,1282517,74881,9140,641319,11
7,0,713284,248948,1275749,74456,9339,637941,11
7,0,719534,250867,1615685,75250,10228,807960,11
7,0,718199,249398,1279512,74584,9521,639793,11
7,0,714232,248956,1466412,74418,9864,733300,11
7,0,714182,248896,1408221,74417,9616,703772,11
7,0,718999,250648,1504795,75226,10331,752388,11
7,0,708767,249147,1367595,74492,9750,683849,11
7,0,726490,251825,1511436,77107,10129,755825,11
7,0,712037,249708,1396537,74857,9360,698000,11
7,0,711704,248949,1434672,74333,9051,717163,11
7,0,711776,249058,1423980,74462,9432,711832,11
7,0,710279,248940,1385048,74365,8683,692930,11
7,0,711832,249054,1462637,74459,9429,731344,11
7,0,709776,248881,1306731,74424,9466,653287,11
7,-1,667941,229259,1280467,69225,7434,640290,0
7,-1,633996,218389,1165182,65787,6818,582641,2
7,0,712193,249443,1431391,74615,9584,715606,11
7,0,708621,248443,1420243,74205,9758,710157,11
7,0,712553,249765,1386034,74802,9471,692668,11
7,0,712609,249192,1624626,74457,10038,811337,11
7,0,712108,248868,1410147,74398,9720,704468,11
7,0,731014,253458,1475373,77688,10341,737755,11
7,0,711933,249135,1431823,74447,9177,715998,11
7,0,711132,248862,1462663,74426,10130,731333,11
7,0,712992,249172,1496102,74464,9893,747775,11
7,-1,635176,218567,1155028,65733,6430,577564,0
7,0,710511,248685,1296375,74297,8684,648235,11
7,0,711351,248951,1299156,74314,9238,649624,11
7,0,713121,249734,1253999,74777,9467,627068,11
7,0,718234,250987,1333896,75336,9339,667026,11
7,0,710598,248683,1476992,74247,8598,738511,11
7,0,713287,249195,1303260,74544,7800,651670,11
7,0,711704,248635,1409466,74154,9361,704763,11
7,0,736385,254149,1417578,77787,9431,708926,11
7,0,712265,248101,1364802,73942,9065,682302,11
7,0,713790,249726,1382650,74731,8946,691382,11
7,0,711050,248461,1377972,74140,8868,689065,11
7,0,711480,248724,1396645,74194,8309,698359,11
7,0,740561,254664,1438287,78478,10215,719027,11
7,0,713319,248976,1396941,74183,9224,698558,11
7,0,713532,248890,1493271,74224,9725,746652,11
7,0,713546,249114,1302703,74285,8288,651400,11
7,0,734409,253190,1438941,77420,9935,719377,11
7,0,713458,248839,1262026,74147,8394,631069,11
7,0,714037,248595,1307272,74137,9018,653671,11
7,0,717727,249551,1260705,74628,8920,630341,11
7,0,714698,248292,1426651,73914,9625,713319,11
7,0,711791,248961,1403809,74192,8663,701993,11
7,0,732731,253364,1467971,77465,9580,734043,11
7,0,716339,250310,1376049,74944,8771,688105,11
7,0,713904,248492,1429480,74043,8523,714800,11
7,0,712340,249785,1396408,74506,8089,698275,11
7,0,711289,248528,1376388,74101,8623,688326,11
7,0,711625,248557,1400485,74120,8238,700296,11
7,0,730880,252586,1393177,77276,9197,696627,11
7,0,717196,250686,1352569,75150,8625,676370,11
7,0,712101,248309,1446639,74095,8622,723381,11
7,0,712520,248208,1401186,73940,8291,700527,11
7,0,710429,249224,1329295,74580,8294,664767,11
7,0,710392,248060,1476267,73978,9040,738176,11
7,0,710216,248168,1501640,73997,9999,750222,11
7,0,711170,248374,1390813,74119,9896,695989,11
7,0,717463,250151,1323057,74874,8374,661601,11
7,0,711317,247777,1370662,73909,8645,685379,11
7,-1,638742,219450,1259604,65951,7511,629823,0
7,0,731603,252571,1509640,77297,9335,754864,11
7,0,712078,248462,1437397,74109,8502,718775,11
7,0,715050,249263,1400912,74397,8120,700514,11
7,0,712336,248676,1356571,74236,8638,678330,11
7,0,716011,249613,1361293,74736,8859,680712,11
7,0,714617,248541,1328877,74198,8896,664488,11
7,0,716214,250169,1322133,74950,8809,660983,11
7,0,711825,249122,1420086,74367,8624,710081,11
7,0,710189,248128,1325365,73993,8474,662732,11
7,0,733725,252972,1554050,77450,8638,777106,11
7,0,713620,248346,1421436,74110,9147,710809,11
7,0,714556,249423,1381415,74679,8814,690780,11
7,0,735465,253327,1486423,77534,10200,743258,11
7,0,715841,249809,1443377,74890,9259,721761,11
7,0,715659,248722,1307062,74272,8756,653586,11
7,0,706910,247268,1348922,73821,9160,674507,11
7,0,711229,248317,1292580,74084,8301,646334,11
7,0,716986,250287,1307982,75042,8335,654085,11
7,0,711795,247859,1306799,74000,8649,653441,11
7,0,715894,249182,1263124,74611,8875,631633,11
7,0,714059,248042,1326659,74056,8390,663385,11
7,0,733502,253135,1442484,77439,9884,721330,11
7,0,713100,248376,1431906,74175,9459,716053,11
7,0,712858,247717,1372372,73916,9304,686285,11
7,0,715862,248498,1527108,74205,9443,763601,11
7,0,717260,249112,1335025,74391,8589,667596,11
7,0,721099,250306,1368406,75050,8467,684269,11
7,0,711507,248020,1371672,73985,8104,685891,11
7,0,708218,248935,1318631,74285,8551,659364,11
7,0,707383,248366,1416738,74175,8925,708423,11
7,0,707185,248542,1361479,74183,9086,680802,11
7,0,709700,248666,1435349,74216,9035,717628,11
7,0,710660,248495,1344593,74133,9392,672344,11
7,0,708624,248455,1516419,74178,9637,758310,11
7,-1,636015,218727,1168919,65747,6389,584492,2
7,0,708571,248125,1406676,74021,8579,703375,11
7,0,706421,247604,1393523,73785,8575,696854,11
7,-1,637051,218613,1273027,65740,7120,636526,0
7,0,707797,247655,1369351,73863,9581,684719,11
7,0,709812,248446,1338267,74188,8384,669171,11
7,0,708019,248015,1315743,74014,8878,657925,11
7,0,712648,249453,1263573,74699,8511,631856,11
7,0,710673,248480,1339891,74190,8552,669983,11
7,0,715680,249859,1328937,74815,8967,664539,11
7,0,710845,248343,1391333,74153,9350,695718,11
7,0,713395,248368,1406666,74081,9511,703382,11
7,-1,640385,220403,1271694,66600,7550,635930,2
7,0,705247,247443,1497823,73790,8692,748957,11
7,0,712042,249540,1447671,74696,8702,723808,11
7,0,708402,247966,1414059,73982,8622,707075,11
7,0,709598,248105,1355598,74094,8375,677848,11
7,0,728983,252582,1462967,77338,9938,731501,11
7,0,710739,248217,1350257,74052,8184,675177,11
7,0,712673,249226,1351920,74626,8855,676030,11
7,0,710309,248409,1310059,74145,8368,655073,11
7,0,716421,250462,1338920,75078,8933,669595,11
7,0,711597,247957,1427106,73975,9244,713641,11
7,0,709155,247653,1303363,73892,8154,651731,11
7,0,712261,248347,1368346,74139,8995,684214,11
7,-1,639009,219105,1160151,65889,7221,580119,0
7,0,709675,248116,1298523,74004,8489,649279,11
7,0,710903,248480,1308838,74153,8227,654469,11
7,0,711844,247866,1319218,73892,8768,659582,11
7,0,711502,248350,1267810,74206,8203,633945,11
7,0,718347,250170,1318902,74928,9088,659520,11
7,0,711847,248468,1332744,74050,9140,666408,11
7,0,711164,248026,1239975,73794,8107,620041,11
7,0,715140,249382,1435967,74390,9091,718021,11
7,0,713558,248643,1342013,74237,8197,671055,11
7,0,719574,250397,1341902,74964,9337,671032,11
7,0,714908,248611,1379174,74129,8924,689638,11
7,0,710871,248690,1371577,74226,8524,685821,11
7,0,712051,249194,1417140,74400,8426,708626,11
7,0,735343,254108,1474382,77852,9105,737148,11
7,0,717813,251356,1343427,75469,8650,671792,11
7,0,709015,247745,1375391,73927,8683,687740,11
7,0,710842,248590,1370092,74218,8605,684905,11
7,0,715703,249984,1439294,74708,8533,719781,11
7,0,714126,249044,1381397,74382,8661,690883,11
7,0,709458,248466,1393029,74116,8893,696549,11
7,0,711365,248158,1390930,74053,9295,695494,11
7,0,734773,253385,1477277,77497,10252,738724,11
7,0,710767,248125,1378628,73971,9198,689371,11
7,0,710968,248214,1268027,74094,9086,634067,11
7,0,711599,248106,1331063,74158,9321,665591,11
7,0,715693,249137,1280732,74684,8897,640452,11
7,0,712610,248526,1427277,74268,9012,713673,11
7,0,717802,250140,1337192,75089,8853,668675,11
7,0,712879,247788,1379438,74002,9086,689798,11
7,0,715124,249270,1361354,74666,8556,680752,11
7,0,713259,248463,1404437,74255,8736,702246,11
7,0,716202,249053,1392159,74435,9312,696027,11
7,0,718624,250287,1459020,75123,9664,729394,11
7,0,714327,247914,1507843,74078,9973,753961,11
7,0,712781,247995,1524234,74092,9036,762147,11
7,0,715672,248510,1445684,74241,9368,723116,11
7,0,709989,247874,1553796,74042,10109,776726,11
7,-1,641234,219434,1122633,66027,7210,561345,2
7,-1,638559,217839,1177249,65410,7970,588707,0
7,0,739390,257525,1419155,76940,9909,709599,11
7,0,713251,248219,1433673,74195,10061,716747,11
7,0,715197,248904,1621234,74405,10410,810573,11
7,0,715982,249312,1334072,74737,8962,666985,11
7,0,714325,248151,1423463,74101,8980,712013,11
7,0,711674,248392,1327398,74150,8847,663626,11
7,0,716258,249416,1378479,74678,8807,689364,11
7,0,714318,248283,1371047,74188,8372,685563,11
7,0,713575,248312,1469688,74211,10385,734824,11
7,0,718907,250039,1463498,75015,11263,731581,11
7,0,715258,249185,1428376,74367,8946,714100,11
7,0,715019,248268,1366501,74016,9240,683142,11
7,0,716427,248367,1462817,74111,10869,731450,11
7,0,718415,249059,1392965,74274,9823,696564,11
7,0,720521,249519,1406720,74687,9448,703473,11
7,0,709415,248530,1339519,74150,9343,669612,11
7,0,717927,251383,1364493,75399,10231,681951,11
7,-1,636881,219226,1512212,65980,9141,755896,0
7,0,711904,248552,1494662,74140,10327,747354,11
7,0,715109,249578,1377810,74703,8895,688611,11
7,0,707342,247156,1337588,73747,9359,668799,11
7,0,714042,248675,1294388,74179,8756,647304,11
7,0,731677,253145,1494902,77435,11435,747388,11
7,0,709964,247974,1339630,73958,9080,669733,11
7,0,711438,248455,1355137,74140,9351,677481,11
7,0,709957,248789,1469172,74261,9814,734110,11
7,0,711143,248529,1659837,74151,11901,830054,11
7,0,712127,249148,1613872,74599,11567,806020,11
7,0,732920,253044,1592842,77406,11017,796357,11
7,0,713228,248232,1532746,74055,10715,766513,11
7,0,713215,249440,1461735,74618,10154,731042,11
7,0,711628,247812,1478864,73855,10062,739477,11
7,0,711547,248522,1456668,74139,9553,728097,11
7,0,732644,252417,1542227,77216,10979,770857,11
7,0,715055,248969,1477078,74506,9932,738591,11
7,0,710788,247765,1440188,73826,9153,719945,11
7,0,712049,247767,1503283,73895,9845,751720,11
7,0,716442,250489,1538137,75098,10550,768878,11
7,0,709833,248146,1416276,73961,8990,707897,11
7,0,709480,248115,1412281,74026,10089,706123,11
7,0,712806,248989,1394566,74487,9881,697142,11
7,0,710632,247747,1426625,73846,9791,713363,11
7,0,732883,252226,1468087,77105,10264,734081,11
7,0,716902,250236,1386312,74982,9661,693281,11
7,0,711060,248106,1489924,74028,10394,744897,11
7,0,712625,248479,1327018,74065,9112,663385,11
7,0,711987,247873,1338125,73929,9169,669162,11
7,0,710559,247949,1343433,73997,9906,671742,11
7,0,710510,247749,1251250,73900,8938,625414,11
7,0,712660,247860,1280975,73884,9095,640644,11
7,0,718042,249169,1380958,74519,10178,690520,11
7,-1,635138,218375,1302827,65630,7090,651487,0
7,0,718335,249836,1402105,74842,9557,700993,11
7,-1,635875,219349,1329100,66011,6809,664610,2
7,0,713461,247811,1356343,73876,9242,678177,11
7,0,714613,247502,1512654,73772,10199,756205,11
7,0,715325,248119,1473356,74037,9332,736632,11
7,0,728648,252484,1522554,77172,10437,761338,11
7,0,709078,248067,1420461,74034,9159,710381,11
7,0,711582,248747,1410444,74345,9592,705094,11
7,0,712190,248284,1413813,74068,9211,706863,11
7,0,734435,253099,1628911,77461,10702,814506,11
7,0,712986,248355,1464628,74375,9563,732223,11
7,0,708147,247445,1434990,73754,9329,717454,11
7,0,712224,248286,1409820,74081,9124,704952,11
7,0,715487,249759,1408849,74745,9084,704327,11
7,0,732800,252657,1453307,77353,9654,726747,11
7,0,714523,248887,1501709,74614,9426,750857,11
7,0,707706,247092,1248426,73758,8687,624093,11
7,0,709014,247199,1295109,73736,9558,647535,11
7,0,710104,247574,1280223,73945,9529,640064,11
7,0,733092,252647,1392461,77338,10954,696212,11
7,0,716462,249545,1360339,74838,9690,680331,11
7,-1,657324,223354,1344379,69110,7892,672344,0
7,0,715837,248953,1373440,74558,9519,686752,11
7,0,713065,247492,1347584,73919,9041,673797,11
7,0,711204,247700,1431209,73945,9909,715656,11
7,0,709167,247107,1382900,73744,9431,691631,11
7,0,712602,247692,1398101,73984,9608,699101,11
7,0,710677,246808,1366339,73681,9738,683219,11
7,0,712319,247855,1489995,73993,9970,744874,11
7,0,715167,248600,1450106,74477,10275,724881,11
7,0,736473,252086,1449424,77204,10801,724766,11
7,0,713561,249902,1397139,75201,9967,698418,11
7,0,713423,248453,1402688,74543,9741,701381,11
7,0,711694,248082,1411743,74243,8921,705717,11
7,0,712373,247496,1412842,74037,9189,706393,11
7,0,708822,246836,1405766,73779,10165,702793,11
7,0,756785,260283,1487208,79815,11191,743682,11
7,0,717566,249765,1356342,75083,10217,678229,11
7,0,710745,246772,1277355,73751,9985,638664,11
7,0,712002,247198,1384902,73983,10488,692279,11
7,0,708430,246603,1459847,73695,9667,729920,11
7,0,717510,249707,1500962,75065,9562,750338,11
7,0,710472,246709,1351529,73822,9685,675734,11
7,0,716218,248879,1440056,74717,10098,720050,11
7,0,712305,247096,1346846,73994,9920,673393,11
7,0,712441,247452,1316631,74081,9275,658311,11
7,0,717576,249795,1417016,75052,9285,708526,11
7,0,711149,246805,1338124,73829,9136,668986,11
7,0,712657,247291,1471956,74026,9568,735840,11
7,0,713928,247308,1468996,74029,10072,734413,11
7,0,716575,249051,1416342,74756,9496,708206,11
7,0,713145,247309,1335147,74048,8607,667525,11
7,-1,636485,218778,1173965,65839,7418,587049,2
7,0,701844,246864,1401088,73825,8379,700402,11
7,0,703591,248037,1446753,74250,8995,723305,11
7,0,703778,247282,1446618,73993,9328,723261,11
7,0,702253,247111,1461278,73956,10398,730437,11
7,0,725508,252262,1605329,77430,10824,802517,11
7,0,703356,247002,1321263,73880,9346,660494,11
7,0,706292,247217,1247513,73966,8672,623723,11
7,0,700402,246789,1311924,73944,9263,655770,11
7,0,706464,248468,1353127,74626,9880,676465,11
7,0,705443,247503,1298774,74106,9307,649164,11
7,0,708525,248764,1405940,74792,9572,702988,11
7,0,704233,246988,1291850,73906,8582,645948,11
7,0,704895,246746,1298275,73795,8941,649128,11
7,0,707055,247630,1395266,74150,8812,697481,11
7,0,709445,248388,1394545,74572,9028,697300,11
7,0,704706,247779,1388835,74213,9098,694410,11
7,0,725524,251718,1538467,77196,10820,769291,11
7,0,706713,247534,1393986,74107,9260,696928,11
7,0,703058,246882,1280337,73850,8435,640140,11
7,0,708707,248494,1411084,74633,9815,705545,11
7,0,706328,247129,1293984,73997,8798,647108,11
7,0,704418,246798,1452697,73826,9306,726321,11
7,0,707366,247217,1306955,74007,8603,653486,11
7,0,707754,246806,1388247,73824,9152,693894,11
7,0,702542,247050,1412423,73901,8770,706188,11
7,0,704337,246942,1324003,73867,9450,662010,11
7,0,725798,252296,1362809,77478,10035,681255,11
7,0,709786,249139,1298814,74927,9301,649366,11
7,0,704995,247324,1299038,74008,8981,649500,11
7,0,703245,246528,1319685,73738,9062,659796,11
7,0,705961,247504,1225216,74043,8621,612561,11
7,0,728550,252246,1354608,77445,10127,677202,11
7,0,706787,247311,1259084,73979,8779,629518,11
7,-1,640768,220588,1343244,66667,8869,671442,0
7,0,706888,247066,1296566,73976,9338,648126,11
7,0,710985,248853,1317801,74681,8816,658830,11
7,0,708201,247293,1283649,74023,8655,641788,11
7,0,709144,247131,1486224,73945,8713,743221,11
7,0,703520,247417,1394098,74109,8290,697129,11
7,0,711359,249487,1405038,75003,9281,702679,11
7,0,703324,246585,1300613,73751,8030,650274,11
7,0,705527,247176,1319505,73953,8939,659762,11
7,0,707233,247385,1408088,74021,9250,704050,11
7,0,707247,247592,1362284,74142,8729,681144,11
7,0,711078,248571,1456698,74574,9022,728309,11
7,0,710485,247849,1299304,74206,8382,649635,11
7,0,705938,245961,1416996,73512,8938,708618,11
7,0,710295,247449,1480949,74091,9574,740518,11
7,0,706554,246928,1306267,73862,8207,653081,11
7,0,703126,246785,1323238,73873,9234,661627,11
7,0,703046,246954,1453809,73892,9398,726956,11
7,0,702776,246538,1280286,73741,8795,640129,11
7,0,709058,249707,1417024,75098,8679,708540,11
7,0,704295,247143,1293338,73931,7786,646670,11
7,0,706825,247690,1406633,74178,9472,703345,11
7,0,711513,248999,1315617,74763,8906,657757,11
7,0,705931,247496,1251187,74118,9092,625527,11
7,0,703372,246829,1296312,73841,8614,648076,11
7,0,727234,251973,1362394,77365,9832,681052,11
7,0,704140,246367,1244433,73630,8989,622125,11
7,0,707696,247372,1309080,74058,9603,654500,11
7,0,708755,248000,1323063,74274,9162,661521,11
7,0,704751,247027,1386697,73958,8798,693344,11
7,0,705449,246919,1284314,73892,8181,642127,11
7,0,705529,247175,1413579,73990,8871,706794,11
7,0,711221,248886,1409989,74564,8923,704980,11
7,0,708762,247612,1410333,73976,9374,705154,11
7,0,705986,247667,1346898,74035,9219,673428,11
7,0,705699,247650,1442241,74032,9111,721068,11
7,0,729965,252802,1570212,77520,9804,785113,11
7,0,706087,246981,1320726,73776,8778,660263,11
7,0,706607,246685,1360054,73688,9556,679954,11
7,0,704871,246981,1330104,73857,8484,664900,11
7,0,708052,247651,1362704,73998,9281,681234,11
