0,0,4,692671.750000,239158.500000,1293927.000000,71229.500000,8575.750000,646962.250000,25970.094545,9240.948666,43324.103130,2450.786863,292.990081,21704.498006
0,1,13,717481.692308,251012.384615,1369161.000000,74642.538462,9180.153846,684523.769231,19073.081254,6798.022445,57358.104249,1841.983280,437.440958,28653.337905
1,0,3,683631.000000,236629.000000,1286391.000000,70671.666667,8129.666667,643198.333333,23468.575173,8677.631743,33759.825266,2304.398162,786.510154,16819.583077
1,1,12,716339.083333,250118.750000,1358282.583333,74607.750000,9115.750000,679191.750000,15425.853112,5240.701227,44943.860596,1561.279183,274.220448,22450.745070
2,0,3,665276.333333,230227.000000,1273724.333333,68876.000000,8042.666667,636740.000000,3485.371748,459.047565,44424.163337,199.721473,305.402831,22330.615397
2,1,12,715518.250000,249580.500000,1335683.416667,74833.916667,9078.666667,667851.583333,9845.963607,1876.258622,77987.821225,1336.686853,769.642594,38983.085391
3,0,3,663932.000000,230043.000000,1273279.000000,68776.666667,7949.333333,636603.000000,3098.929170,197.354166,105062.803754,131.124199,767.466974,52522.124297
3,1,12,711335.833333,248399.416667,1385624.833333,74121.000000,9266.250000,692804.000000,6420.321511,1607.928142,71397.729812,1036.275864,972.830332,35695.236139
4,0,3,684803.666667,235818.000000,1357770.000000,71237.666667,8893.666667,678711.000000,21046.797766,5980.766339,65936.063961,2626.273194,74.015013,33026.318990
4,1,12,710342.833333,248570.250000,1418454.583333,74046.666667,9498.083333,709163.083333,4178.726098,775.380350,73097.441446,337.488107,729.601884,36479.317495
5,0,3,671700.333333,232056.333333,1345177.000000,69588.000000,9274.333333,672286.000000,3601.955611,961.776250,24393.788731,520.510006,285.307242,12215.479933
5,1,12,713604.583333,249234.250000,1393941.333333,74560.750000,9391.250000,696995.750000,9372.227621,1990.279550,92989.094413,1239.926418,697.807414,46565.726323
6,0,3,672938.000000,232109.333333,1287452.000000,70119.000000,8270.000000,643785.666667,12631.613278,2453.422145,17584.062045,1717.946643,936.666429,8891.489352
6,1,12,710938.333333,248306.666667,1371951.666667,74052.833333,9242.416667,685959.583333,6105.400456,1446.609907,61314.377679,1020.705135,595.545472,30584.171122
7,0,3,666315.000000,230995.333333,1347636.000000,69180.333333,8620.666667,673480.000000,3196.830409,578.091880,121472.672123,206.845084,987.481758,60721.476283
7,1,12,708781.000000,247968.916667,1343013.250000,73814.500000,9291.166667,671559.833333,2754.399935,936.106071,51929.076783,442.835090,801.302568,25993.831095
8,0,3,666263.000000,230136.000000,1255064.000000,68800.000000,8686.000000,627487.000000,2453.288813,251.777680,34569.802584,162.341204,369.470793,17224.354927
8,1,12,709842.333333,248330.000000,1379905.000000,74004.833333,9239.250000,689913.833333,3855.385699,869.312947,44752.761706,396.255354,609.589633,22341.779472
9,0,3,669127.000000,231684.333333,1317381.666667,69563.000000,8877.333333,658622.000000,2826.249930,1555.885457,41030.582678,546.388750,622.550846,20618.113897
9,1,12,710603.833333,248236.666667,1378941.083333,74064.500000,9128.166667,689464.083333,5577.466358,1475.458083,53636.890429,905.833640,468.700301,26780.714561
10,0,3,673047.666667,232046.000000,1266932.333333,70075.000000,8616.666667,633438.333333,8799.067766,1817.681123,40140.714213,1397.038534,643.429526,20030.891182
10,1,12,709419.583333,248260.833333,1399519.083333,73929.916667,9354.083333,699760.666667,3014.149755,1001.595713,33390.741068,420.563800,654.839733,16618.882977
11,0,3,667226.333333,230611.333333,1299580.333333,68973.333333,8324.000000,649726.333333,1307.427330,594.862636,54701.552600,308.066371,797.377368,27319.765913
11,1,12,714690.416667,249683.500000,1379249.833333,74681.666667,9336.083333,689599.083333,14430.268480,3775.227730,109458.423412,1729.865810,634.372585,54713.593580
12,0,3,667361.333333,230970.333333,1331413.333333,69129.666667,8648.666667,665337.000000,2967.843699,937.369487,37539.831205,464.662123,470.035696,18864.077979
12,1,12,709801.750000,248081.416667,1364244.166667,73893.333333,9121.833333,682042.250000,2438.610572,1103.375764,55619.030446,468.405155,540.942978,27778.844538
13,0,4,665461.750000,230974.750000,1300259.750000,69126.750000,8477.750000,650031.000000,2542.007610,761.689364,68154.290094,298.061550,461.558975,34254.738388
13,1,12,709826.416667,248259.666667,1366672.333333,73950.833333,9114.500000,683384.750000,3554.695333,753.024384,53986.836430,369.768358,499.339480,26984.984612
14,0,4,666832.000000,230984.500000,1358380.750000,69191.000000,8556.250000,679074.000000,3571.926231,957.495822,41178.458497,378.887186,212.624522,20460.155241
14,1,12,708442.750000,248027.750000,1364431.750000,73862.916667,9231.750000,682102.500000,2345.394747,549.567121,78605.456873,286.756999,811.124438,39128.633500
15,0,4,665894.750000,230548.500000,1334217.000000,68997.500000,8379.750000,667079.500000,3549.485905,290.221898,79726.761451,147.062062,596.965399,39898.686304
15,1,12,712716.833333,248906.666667,1439607.666667,74379.333333,9495.666667,719761.833333,8698.038829,1819.382007,115226.196825,1310.556137,866.919290,57521.283911
16,0,4,673295.750000,232071.500000,1373096.500000,70016.750000,8556.250000,686558.000000,12107.101643,2276.410387,69357.913609,1502.314444,528.527376,34682.872091
16,1,12,709430.333333,248281.250000,1409758.000000,73886.333333,9617.666667,704726.333333,4742.265428,904.206201,129689.295233,404.279057,1162.207406,64718.260734
17,0,4,670088.000000,231310.000000,1316484.500000,69282.750000,8793.250000,658197.750000,1744.658706,947.477440,37952.750773,397.982647,264.352393,19036.656736
17,1,12,710899.083333,248555.416667,1343753.500000,74111.416667,9142.000000,671811.750000,6424.486600,1506.694144,86811.636115,797.510131,911.961074,43300.586322
18,0,4,670253.750000,231451.250000,1274232.500000,69354.750000,8739.500000,637024.500000,2874.656186,799.511531,34163.119285,305.148632,526.343282,17067.272988
18,1,12,709710.583333,248336.750000,1401041.333333,74009.750000,9526.083333,700514.333333,5373.552339,1339.966550,72773.063263,970.809810,891.757671,36370.724125
19,0,4,664974.750000,230234.750000,1259082.500000,68902.250000,8086.750000,629409.750000,1995.191015,277.790726,59064.318435,141.829784,377.949319,29482.451835
19,1,12,713520.500000,248992.333333,1369908.833333,74509.416667,9472.666667,684873.583333,11153.933704,2069.063248,66263.361556,1584.311389,915.631688,33078.834249
20,0,4,666142.500000,230488.750000,1337349.750000,68974.250000,8674.500000,668622.500000,1372.716012,259.675158,66916.799148,129.808272,157.207665,33423.573855
20,1,12,709221.250000,248379.916667,1373131.000000,73893.833333,9071.666667,686551.166667,2974.832268,931.499996,73864.017363,491.160841,547.916559,36920.394824
21,0,4,672464.500000,232086.750000,1280567.000000,70102.750000,8337.750000,640185.250000,12321.658178,2630.241755,71413.272271,1811.186955,598.855732,35631.400572
21,1,12,710567.833333,248649.833333,1387991.666667,74112.916667,9293.250000,693997.083333,7218.877508,1462.325137,87970.742406,991.013072,598.131135,44087.225467
22,0,4,665716.000000,230973.000000,1310983.000000,69214.500000,8122.750000,655447.250000,2611.110013,795.967022,29903.748151,405.912860,535.926942,14910.421412
22,1,12,715258.916667,249392.166667,1377542.666667,74752.333333,9146.500000,688763.083333,10674.572634,2156.799127,55971.757185,1545.119215,610.998568,27959.614674
23,0,4,663968.000000,230256.250000,1289406.000000,68904.750000,8032.000000,644640.750000,1066.009850,496.907625,63031.427459,167.660930,285.091213,31583.845090
23,1,12,709577.500000,248541.333333,1362548.583333,73948.000000,8953.000000,681290.666667,2991.039131,979.612452,56606.578457,456.970641,436.851424,28293.758995
24,0,4,667847.000000,231363.250000,1297631.250000,69315.250000,8263.250000,648770.250000,3430.369003,1035.949414,49883.265688,499.010208,563.525676,24955.687792
24,1,12,714539.250000,249792.583333,1343624.083333,74522.416667,8937.666667,671760.833333,11504.580712,3035.804436,58973.364803,1424.414702,563.985717,29466.993591
25,0,4,665960.000000,231032.750000,1274907.000000,69177.750000,8204.750000,637434.250000,1330.145669,694.562587,74346.315231,320.988610,301.412819,37172.171213
25,1,12,709479.666667,248586.416667,1350401.833333,73952.916667,9006.333333,675218.916667,4037.452463,965.684339,50119.771807,436.653268,497.401470,25053.801420
26,0,4,672454.750000,231930.750000,1345082.000000,69875.750000,8853.000000,672449.250000,9896.948782,2030.966442,66628.001944,1422.084627,610.955399,33252.380091
26,1,12,715776.666667,249923.500000,1399988.583333,74760.916667,9377.750000,700001.083333,10936.298904,3186.973734,75847.752128,1562.423996,754.136496,37911.009600
27,0,3,667540.000000,230825.000000,1322786.666667,69084.666667,8640.666667,661348.666667,2542.878684,350.383599,16292.218640,186.487414,288.312716,8137.510198
27,1,12,712872.750000,249102.250000,1357419.416667,74416.750000,8996.916667,678638.083333,9502.271896,2058.131601,53278.030157,1327.634119,576.493923,26553.910391
28,0,3,668646.333333,231317.000000,1318012.666667,69304.333333,8347.333333,658868.000000,1340.936572,682.948510,52388.573375,272.148652,366.073156,26205.113865
28,1,12,708330.916667,248045.166667,1332010.500000,73751.083333,9009.583333,665929.000000,3463.035866,650.683594,55936.238325,268.265248,547.611246,27961.830043
29,0,3,675744.666667,232615.333333,1364280.666667,70253.000000,9063.000000,681924.333333,7682.572761,1611.386429,8681.161379,1289.592442,563.558338,4294.935105
29,1,12,710164.750000,248470.083333,1375787.250000,73927.000000,9259.333333,687855.000000,2101.567832,621.720658,78700.559767,272.892836,614.908982,39309.784600
30,0,3,681666.333333,234858.666667,1289664.333333,70901.000000,8519.333333,644865.666667,12596.123275,3849.228869,63852.969653,1550.652336,567.112766,31988.457682
30,1,12,708790.833333,248455.000000,1324412.500000,73907.250000,9207.583333,662135.750000,3014.999830,671.152367,53947.071894,312.738742,507.575193,27002.395221
31,0,3,667659.000000,230984.333333,1311911.000000,69090.333333,8166.000000,655885.000000,1177.483192,567.658544,60465.184269,176.276929,360.112020,30218.907624
31,1,12,707991.500000,247917.583333,1367848.750000,73696.750000,9209.416667,683798.166667,3439.415369,1082.791643,93714.177601,462.248513,902.042909,46874.249617
32,0,3,668857.333333,231692.000000,1341304.000000,69478.000000,8517.666667,670633.000000,2136.809200,909.219812,64491.057070,329.612904,295.946316,32316.981614
32,1,12,714605.916667,249930.833333,1394105.166667,74682.500000,9469.916667,697087.666667,9028.922291,2855.957453,96459.300549,1315.389708,767.529637,48173.563415
33,0,3,672364.666667,232373.333333,1291501.333333,70176.666667,8149.666667,645745.000000,10222.121774,1923.275389,48401.165581,1512.403238,887.303906,24210.514424
33,1,12,709094.250000,248443.833333,1354576.250000,73898.583333,9248.833333,677226.250000,4060.522465,947.019433,61069.831095,415.927569,481.716001,30524.209114
34,0,3,663544.333333,230333.333333,1208238.000000,68898.666667,8094.333333,604127.000000,1499.155837,556.629340,4687.175767,170.991878,315.489391,2323.671664
34,1,13,716182.000000,249876.846154,1394088.000000,74798.538462,9495.538462,697048.692308,10811.059772,2689.775994,74779.498722,1568.777065,956.979271,37365.977879
35,0,3,674193.333333,232679.333333,1313155.666667,70325.333333,9012.000000,656516.000000,9256.124651,1842.676556,47468.946090,1401.429350,932.320760,23815.960531
35,1,13,711388.000000,248735.153846,1395695.923077,74160.538462,9420.615385,697818.230769,6678.714305,1594.035365,82411.698361,1035.075665,656.433199,41118.659644
36,0,3,672056.333333,232130.000000,1312883.333333,70107.666667,8595.000000,656383.333333,10825.537256,2329.995279,35941.616383,1586.645588,584.022260,18018.830342
36,1,13,709470.923077,248375.769231,1359118.692308,73919.153846,9404.769231,679504.923077,3615.691985,829.150924,82146.722850,337.790524,685.819684,41082.510867
37,0,3,667356.666667,230860.333333,1382313.333333,69146.333333,8605.666667,691039.666667,4632.294632,1115.461140,100754.502332,446.520125,342.678015,50317.679765
37,1,13,710856.153846,248844.076923,1377150.230769,74199.769231,9346.846154,688523.307692,5426.985774,1613.536511,59184.781243,725.272379,581.475953,29499.017870
38,0,3,668254.666667,231323.666667,1327608.333333,69297.333333,8701.000000,663866.333333,6299.789009,1166.732284,18194.087544,517.741463,411.656005,9292.596348
38,1,13,710467.384615,248486.769231,1356698.769231,74057.384615,9349.384615,678319.230769,6334.745876,1318.252115,44693.002743,909.569597,609.415803,22279.678478
39,0,3,665050.000000,230258.666667,1346521.000000,68876.333333,7880.333333,673285.333333,1799.301531,323.902592,46755.555100,48.582118,101.299336,23380.653503
39,1,13,710025.615385,248408.692308,1386721.923077,74038.384615,9317.615385,693256.076923,6615.643727,1444.952029,100266.885703,967.690473,847.862973,50023.254742
40,0,3,664707.333333,230491.000000,1357974.333333,69039.666667,7908.000000,679031.666667,3489.773759,1334.259595,96551.623181,528.838560,563.931438,48295.085770
40,1,13,710482.692308,248431.461538,1375570.692308,74156.923077,9102.538462,687756.846154,8808.595124,1612.600318,80230.325018,1125.024065,761.540303,40051.673027
41,0,3,673284.666667,232651.666667,1310503.000000,70374.333333,8738.333333,655218.666667,7611.672892,1946.720718,27266.453247,1384.407053,1007.194895,13698.067512
41,1,13,711733.076923,248863.923077,1364327.769231,74371.846154,9112.692308,682147.692308,8302.805174,1855.527189,52714.226762,1250.213388,532.950190,26389.439349
42,0,3,674697.333333,232459.333333,1322635.666667,70200.666667,7919.000000,661289.333333,7988.037946,1493.430131,90204.597933,1293.285566,535.336032,45069.267351
42,1,13,710133.846154,248292.153846,1370187.692308,73854.384615,9100.153846,685063.000000,3266.796734,834.944480,52277.806583,438.948138,500.948922,26069.688694
43,0,3,668363.333333,231516.333333,1326269.333333,69462.666667,8160.000000,663226.333333,3986.747240,1235.670219,2645.678909,568.066506,160.033330,1292.821290
43,1,13,712517.538462,248702.769231,1350471.076923,74235.923077,9247.076923,675169.769231,6704.742829,1515.603163,59426.526648,1287.115646,712.183259,29747.644538
44,0,3,680314.666667,233805.333333,1330788.666667,71277.666667,8969.333333,665418.333333,11643.828990,2394.014945,55881.722816,1648.858662,434.672546,27860.609832
44,1,13,712583.923077,248923.384615,1389147.153846,74319.692308,9049.307692,694556.692308,7145.999725,1466.534982,110891.947720,1140.165668,761.835171,55393.308276
45,0,3,666809.666667,231001.000000,1356100.000000,69191.333333,8688.666667,677894.333333,3302.879787,787.774502,72158.660728,333.518948,247.432595,36249.054170
45,1,13,708812.923077,248209.538462,1371477.769231,73845.769231,9142.076923,685764.538462,3715.084086,972.700888,65868.277485,447.844608,596.495723,32973.372767
46,0,3,666471.000000,230733.666667,1331936.000000,69095.666667,8624.333333,665783.666667,1429.003382,933.632809,10474.165170,398.404596,507.241122,5343.915190
46,1,13,709292.692308,248354.153846,1355272.692308,73905.846154,9314.153846,677559.846154,4257.509391,1018.976624,54569.615955,565.993184,714.052233,27315.141597
47,0,3,667168.000000,231194.666667,1336754.000000,69235.000000,8850.333333,668371.000000,4824.821309,705.867000,39287.542614,389.533054,593.012835,19712.378514
47,1,13,714821.923077,249154.538462,1384210.615385,74566.846154,9279.153846,692033.615385,11752.358640,2305.885834,51911.867781,1578.731665,920.706154,25930.393668
48,0,3,674565.000000,234002.333333,1352635.000000,70083.000000,8873.000000,676035.666667,13508.687896,4834.041259,136237.199276,1504.950055,1308.532002,67718.661388
48,1,13,714907.153846,249470.153846,1386650.384615,74522.307692,9213.076923,693286.692308,9628.762856,2824.492163,84151.591523,1391.044897,737.924059,42032.694843
49,0,3,664834.666667,230644.333333,1412718.666667,69068.666667,8929.000000,706116.333333,3530.900389,508.869553,60942.210344,210.890704,398.901826,30207.769380
49,1,13,711468.384615,248650.076923,1363161.769231,74149.615385,9197.923077,681549.307692,6241.581820,1291.599334,73246.946984,864.667881,733.607992,36578.166923
50,0,3,664927.666667,230446.666667,1364113.000000,68969.333333,8112.000000,682101.000000,3858.549756,339.195453,90338.661340,142.146247,197.262938,45173.832935
50,1,13,712020.230769,248611.230769,1346889.846154,74134.538462,8913.153846,673421.769231,6528.449081,1359.235710,71929.399807,1015.488485,490.483411,35919.559474
51,0,3,668969.333333,231086.000000,1330132.000000,69215.666667,8275.000000,664706.333333,1804.346665,1000.233306,82516.832299,500.517954,333.562588,41182.034629
51,1,13,712835.000000,248960.153846,1396147.153846,74378.153846,9442.461538,698003.307692,7657.151559,1590.642001,101850.761693,1216.735282,955.810861,50806.118369
52,0,3,674646.666667,232275.000000,1297156.333333,70152.000000,8745.666667,648481.666667,9660.312256,1994.553751,38711.648810,1519.043778,494.258592,19362.335368
52,1,13,711953.384615,248462.769231,1366565.692308,74188.230769,9050.000000,683237.000000,6020.120910,1512.268452,64057.183460,1011.524451,707.774084,32043.824702
53,0,3,677126.666667,234015.000000,1311103.333333,70097.333333,8628.000000,655659.000000,12922.158807,4934.452215,73410.006922,1607.908441,549.938784,36930.467936
53,1,13,709609.769231,248082.846154,1369442.076923,73788.307692,9115.000000,684696.692308,3661.329102,628.727634,73710.331977,349.257759,600.022692,36823.495024
54,0,3,665286.333333,230259.333333,1316463.333333,68883.333333,8319.000000,658366.666667,2559.129062,197.582613,48956.721788,50.605226,249.432690,24579.161775
54,1,13,713234.538462,249020.538462,1374119.230769,74428.000000,9144.846154,686983.846154,9028.623437,1838.591878,82881.991898,1207.872255,781.229391,41433.276953
55,0,3,668065.333333,231407.000000,1316394.666667,69328.666667,8717.666667,658182.666667,585.287584,1080.244725,69868.353434,516.929611,399.069195,34965.582891
55,1,13,709709.076923,248325.846154,1389652.384615,73914.000000,9326.769231,694828.076923,5122.110765,1256.923463,87733.011657,671.350419,951.504408,43901.560635
56,0,3,666765.000000,230454.000000,1322727.333333,68950.666667,8698.666667,661475.333333,1362.112330,246.172027,3489.281333,141.056332,313.221257,1967.598593
56,1,13,709572.692308,248263.692308,1356201.000000,73867.076923,9035.384615,678059.153846,4621.450578,935.632438,88835.503463,466.933773,691.484973,44350.552441
57,0,3,665721.666667,230332.666667,1259182.000000,68826.666667,8348.333333,629411.333333,2192.824105,242.279912,36753.496958,116.393967,386.143612,18350.930082
57,1,13,708830.307692,247953.769231,1354773.846154,73715.538462,8944.230769,677368.692308,4622.517436,758.316369,53542.023063,522.315792,545.512625,26688.037125
58,0,3,672221.333333,231978.666667,1257541.666667,69981.000000,8854.000000,628887.333333,11155.693026,1867.295787,25673.662670,1382.407321,511.669815,12872.159631
58,1,13,710789.000000,248591.153846,1362364.000000,74100.846154,9161.846154,681106.384615,6341.432233,1263.301100,78562.924197,1045.565423,721.702032,39249.592559
59,0,3,672645.000000,231955.666667,1263459.333333,69981.000000,8920.666667,631426.333333,7209.211099,2011.301624,51331.174942,1560.072007,904.397160,25901.856000
59,1,13,711944.461538,248730.923077,1360652.153846,74262.076923,9225.538462,680277.538462,7404.283226,1711.658865,119794.434529,1126.528736,943.999806,59892.407092
60,0,3,668232.333333,231073.000000,1247039.333333,69130.000000,8470.000000,623514.333333,2154.824097,1059.201901,27922.083403,501.657918,335.291913,13961.931632
60,1,13,711930.153846,248790.923077,1367707.000000,74287.153846,9159.076923,683846.461538,7806.522833,1853.202279,79183.791151,1260.011834,752.019789,39582.841985
61,0,3,666608.666667,230672.333333,1387449.666667,69029.333333,8940.666667,693225.333333,2769.883311,637.087296,38809.316290,386.662069,368.639239,19012.956027
61,1,13,709198.615385,248300.076923,1418689.769231,73917.230769,9392.923077,709324.923077,3607.038707,725.699393,108772.634102,465.588652,682.984791,54393.391108
62,0,3,675523.666667,233251.000000,1327547.000000,70486.666667,9061.333333,663633.000000,9046.922767,1565.761157,27118.741134,1352.659685,354.743413,13622.996220
62,1,13,710923.615385,248633.692308,1376327.846154,74189.076923,8999.769231,688123.384615,6974.078043,1301.027841,83205.992901,866.694025,706.715061,41559.432578
63,0,3,670900.333333,231784.000000,1329444.000000,69455.666667,9050.333333,664619.666667,4057.508623,900.224787,83297.830416,353.427346,721.777590,41582.139831
63,1,13,710468.153846,248436.307692,1382041.615385,74082.384615,9402.153846,690953.538462,7392.104248,1592.038335,81637.149918,1127.213824,823.765169,40639.376916
64,0,3,667837.000000,230927.666667,1347326.333333,69103.000000,8885.000000,673586.333333,812.114934,993.909900,21088.030417,505.682377,97.717279,10588.910058
64,1,13,710516.461538,248675.000000,1369553.461538,74178.538462,9102.461538,684695.000000,5816.436665,1404.842504,64626.620689,1064.009226,948.333325,32119.058256
65,0,3,667919.333333,230605.666667,1321204.000000,68941.666667,8453.000000,660483.333333,1536.592840,608.340000,41390.538508,220.315430,369.140443,20894.595160
65,1,13,714548.769231,249949.461538,1410795.076923,74735.076923,9494.230769,705412.230769,9362.907045,2502.431360,146903.935747,1273.019213,830.832498,73405.091609
66,0,3,667632.333333,230750.666667,1357185.000000,69037.333333,8383.000000,678506.666667,2623.235449,880.671840,66477.513436,387.790608,489.514726,33191.283899
66,1,13,715267.769231,249611.000000,1364501.692308,74877.384615,9421.461538,682174.230769,10861.150925,2009.673108,74068.300735,1437.764693,1131.589326,36945.759701
67,0,3,669132.333333,231642.000000,1309808.333333,69436.666667,8483.666667,654869.666667,1242.949270,714.887870,42766.606991,366.044017,430.155269,21325.448809
67,1,13,710615.923077,248651.153846,1363418.615385,74154.692308,9185.153846,681722.538462,6002.803697,1365.378384,74319.841550,995.130095,914.276582,37143.165781
68,0,3,672534.000000,231983.000000,1308757.000000,69949.666667,8606.666667,654446.666667,8527.771729,1984.255192,96758.690524,1575.796589,285.753196,48714.202326
68,1,13,709147.692308,248502.538462,1346266.846154,73984.461538,9278.538462,673046.076923,2922.657889,942.348998,67159.776755,415.384829,577.119320,33576.100712
69,0,3,674766.000000,232632.000000,1352670.333333,70215.666667,9091.333333,676193.000000,9991.920636,2125.796008,21074.867249,1472.156091,431.408803,10484.483106
69,1,13,710724.846154,248531.846154,1384339.923077,74009.307692,9456.615385,691965.000000,3815.266920,1118.061223,105015.433282,637.690832,900.866381,52288.727381
70,0,3,667147.000000,230643.000000,1324676.666667,68941.000000,8763.666667,662120.333333,1828.217894,307.936141,41715.113283,209.003987,75.935645,20803.420109
70,1,13,716427.769231,249652.076923,1373999.538462,74898.230769,9417.538462,686884.923077,9362.200006,2121.468195,74514.904770,1548.751912,689.716510,37237.426678
71,0,3,665749.333333,230742.333333,1294382.000000,69039.000000,8558.666667,647108.333333,3041.832817,680.684133,63075.055545,289.573249,461.068566,31547.594291
71,1,13,710138.538462,248403.692308,1369271.076923,74058.846154,9289.461538,684528.846154,6908.212399,1423.185289,102084.069264,928.863809,781.293269,50938.308789
72,0,3,664982.333333,230554.333333,1252692.333333,68901.666667,8173.333333,626325.666667,917.612966,389.873769,9219.351761,203.526138,151.794452,4642.246750
72,1,13,712096.615385,249303.000000,1360862.846154,74263.153846,9187.923077,680423.000000,7955.580485,2556.124440,100917.678186,880.090279,697.565157,50507.898724
73,0,3,668644.666667,231610.000000,1284235.000000,69374.333333,8385.000000,642223.666667,4207.684108,1338.009218,54050.455952,646.246771,339.930385,26997.674052
73,1,13,714083.153846,249335.384615,1387933.692308,74634.538462,9404.461538,693927.769231,10574.838728,2119.100010,64765.059125,1482.879870,868.930786,32359.372715
74,0,3,680600.333333,233906.666667,1328262.666667,71307.333333,8993.333333,664092.666667,10638.413113,2075.147598,82473.984239,1489.990231,203.535965,41265.099090
74,1,13,708137.307692,247831.230769,1371219.461538,73695.461538,9112.769231,685608.230769,3333.607895,648.826296,85012.400921,359.129421,637.876061,42500.749389
75,0,3,665203.000000,230606.666667,1318381.000000,68932.666667,8299.000000,659200.333333,1194.099940,123.828735,48356.961629,108.456853,385.035929,24182.581477
75,1,13,714232.307692,249412.846154,1373128.846154,74723.153846,9602.000000,686552.076923,8670.572675,1864.992714,37813.159069,1303.773508,623.193759,18944.091445
76,0,3,667093.000000,231055.666667,1259833.666667,69055.000000,8122.666667,629960.666667,937.087331,591.551820,48015.218104,244.823746,372.341540,23995.645999
76,1,13,713192.000000,249476.615385,1369705.538462,74416.692308,9075.923077,684726.538462,9549.122271,2826.514149,76939.950987,1098.682735,458.874620,38322.929219
77,0,3,668435.666667,231110.000000,1300336.333333,69159.333333,8783.333333,650162.666667,355.093728,887.975600,50669.044819,462.264234,983.302372,25349.178847
77,1,13,711996.615385,248943.307692,1368578.000000,74366.307692,9022.000000,684158.692308,7912.768926,1565.725410,63815.299593,1202.273320,487.331194,31908.999756
78,0,3,679967.000000,233503.666667,1275843.333333,71060.666667,8903.000000,637823.000000,11409.761552,2313.550998,20239.700958,1512.935410,814.196946,10102.030918
78,1,13,708250.153846,248242.076923,1369997.692308,73887.384615,9094.230769,684944.076923,3819.265593,803.149135,90061.523672,430.642729,663.111216,44984.068574
79,0,3,666527.666667,230723.333333,1257321.333333,68964.333333,8426.333333,628514.666667,1717.673103,496.089598,56275.510709,224.577133,788.742600,28301.013625
79,1,13,712359.846154,249641.307692,1354339.384615,74397.000000,8990.307692,677050.000000,8376.887864,3074.661292,87386.620850,1032.934207,677.382222,43507.442608
80,0,3,666891.666667,230848.000000,1217573.000000,68992.666667,7901.000000,608748.000000,3408.267041,600.735105,47788.796093,99.402660,327.134019,23948.982317
80,1,13,711256.923077,248848.615385,1369250.846154,74234.230769,9077.230769,684616.846154,5859.278657,1191.392691,54383.843431,807.873672,783.987358,27181.349145
81,0,3,673719.000000,232891.666667,1307166.666667,70317.000000,9010.000000,653585.333333,10546.910859,2037.328370,12872.083860,1422.439454,685.799290,6459.822822
81,1,13,715121.846154,249445.076923,1349796.461538,74723.384615,9216.538462,674854.692308,7894.562207,1846.497827,51258.116592,1435.716735,797.151334,25589.319747
82,0,3,667409.000000,231244.000000,1313489.333333,69217.000000,8254.666667,656726.666667,4338.929438,941.728553,77660.464353,379.853481,515.190795,38850.390185
82,1,13,711927.769231,248712.461538,1377889.923077,74235.461538,9401.769231,688952.461538,6323.037867,1211.653645,102242.958435,875.236462,918.088412,51037.397632
83,0,3,670719.666667,231379.000000,1343077.000000,69790.666667,8158.333333,671515.000000,11716.389499,2273.106391,107716.380002,1529.307105,742.285809,53909.262735
83,1,13,710623.153846,248476.000000,1390502.692308,74093.461538,9077.923077,695221.384615,5614.791836,1232.331374,131330.788483,790.914234,764.707431,65548.784773
84,0,3,664482.333333,230251.333333,1291987.333333,68855.000000,8081.333333,646047.000000,1400.156261,518.733286,55120.232252,174.590951,221.889362,27690.962292
84,1,13,712423.615385,248871.923077,1337222.230769,74376.692308,8986.384615,668643.307692,8774.388381,2020.127889,65921.901195,1223.599003,684.400528,32990.470606
85,0,3,664177.000000,230343.333333,1273893.333333,68830.666667,8147.666667,636955.333333,2012.848893,519.602626,59459.326660,96.181541,107.902219,29700.622713
85,1,13,711254.153846,248812.076923,1363635.307692,74267.230769,9186.846154,681783.692308,5827.336004,1441.214950,82627.907098,897.436276,827.171347,41302.446144
86,0,3,679655.333333,233511.333333,1285884.333333,71063.000000,8535.000000,642916.000000,11280.020282,2215.217872,31517.980068,1475.039209,281.887684,15813.337177
86,1,13,713755.461538,249051.692308,1346413.384615,74551.307692,9216.307692,673145.230769,9113.617897,1989.372471,71776.656459,1333.740454,917.659849,35892.654878
87,0,3,669851.666667,231315.666667,1360877.666667,69257.333333,8553.666667,680311.666667,2312.081938,816.016884,99985.192191,472.209229,524.533020,49894.546832
87,1,13,710266.615385,248595.846154,1374040.307692,74136.769231,9095.000000,686954.692308,6332.514017,1506.837077,93417.207069,1011.165143,880.218155,46484.764654
88,0,3,674067.333333,232281.000000,1327173.000000,70115.666667,8749.666667,663413.000000,5991.287304,1958.051583,15280.087522,1562.261680,459.032558,7719.059701
88,1,13,712649.692308,248892.000000,1394788.230769,74372.769231,9312.692308,697263.000000,9054.256588,1607.686010,78934.300133,1091.082959,615.757992,39331.966420
89,0,3,665845.333333,230841.666667,1310481.000000,69145.000000,8162.333333,655337.666667,4031.090864,852.093240,12447.944596,418.591288,280.535599,6114.413700
89,1,13,712785.230769,248902.153846,1371114.846154,74366.230769,9189.692308,685490.846154,8507.883685,1633.252717,40450.881582,1254.484948,775.792338,20237.117881
90,0,3,666683.333333,230604.000000,1371286.000000,69048.666667,8644.000000,685643.000000,3141.092627,997.746461,40196.507087,458.698400,604.764968,20108.630585
90,1,13,712104.076923,249088.846154,1367649.538462,74363.846154,9201.230769,683768.307692,5114.496343,1387.478390,74019.358146,821.961336,782.433595,36878.573880
91,0,3,668698.000000,231413.333333,1352012.000000,69338.000000,7973.333333,675979.000000,4560.389092,907.969285,32896.918437,283.775733,399.341402,16393.322319
91,1,13,713499.307692,249150.153846,1376305.000000,74506.384615,9450.615385,688119.307692,6951.192575,1707.902711,85758.780505,1262.302630,624.890580,42869.684805
92,0,3,667089.666667,230589.333333,1328867.666667,68981.000000,8036.333333,664412.333333,1952.166887,498.687165,71939.465554,201.108594,611.299345,35879.092244
92,1,13,712655.307692,248767.615385,1395298.923077,74200.230769,9408.846154,697594.769231,4773.498046,1344.650629,83147.093794,890.186683,906.171052,41663.653695
93,0,3,665348.666667,230017.333333,1235105.000000,68779.666667,8024.333333,617407.000000,2342.260494,308.698702,9734.863361,34.003268,419.860559,4738.463323
93,1,13,710733.000000,248303.000000,1383613.769231,73919.153846,9267.538462,691731.461538,2045.523593,855.405797,79866.372479,357.916803,497.600336,39819.628205
94,0,3,680532.333333,234690.333333,1293648.000000,70808.666667,8617.000000,646861.000000,10280.836877,3766.488934,29743.971972,1503.983673,824.850289,14875.432363
94,1,13,714054.923077,249397.461538,1365670.846154,74392.769231,9093.384615,682860.923077,9387.503424,3118.121664,62990.590430,1281.898421,574.083824,31489.952284
95,0,3,665917.333333,231042.333333,1322375.333333,69191.333333,8282.333333,661231.000000,1863.371377,645.219515,31785.453825,369.909298,623.543815,15923.650147
95,1,13,715551.153846,249593.230769,1391929.384615,74764.230769,9363.230769,695932.846154,8629.646823,2053.737087,89842.889627,1348.869450,689.013917,44881.832955
96,0,3,673509.666667,232717.666667,1329939.000000,70401.666667,8358.333333,664902.666667,8181.386449,2036.940407,56829.459901,1420.333842,34.003268,28647.576050
96,1,13,710081.769231,248444.307692,1386438.000000,74045.615385,9304.692308,693194.615385,3258.914972,966.475547,76404.058477,432.131486,475.383470,38203.074628
97,0,3,666454.000000,231035.666667,1301492.000000,69230.333333,8190.333333,650723.000000,2724.782193,1169.166750,47082.911826,546.915187,441.703017,23500.745790
97,1,13,710197.230769,248376.000000,1394340.307692,73975.076923,9132.538462,697135.923077,2657.156756,1142.198891,62310.393624,363.849390,582.618178,31114.603901
98,0,3,674714.666667,232932.666667,1269451.000000,70408.666667,8240.000000,634723.666667,9376.764770,2131.863400,39934.733362,1517.971746,1004.838627,19906.439600
98,1,13,713032.769231,248785.769231,1364871.000000,74366.461538,9361.230769,682432.461538,8661.360189,2021.415808,61944.894724,1141.537129,796.144377,30924.797831
99,0,3,670989.000000,232963.333333,1264060.333333,69582.333333,8437.666667,631995.000000,6766.912491,2680.470771,52013.481011,708.369646,346.464364,26001.573850
99,1,13,710344.076923,248652.000000,1388747.230769,74128.923077,9540.692308,694313.000000,4639.614299,1020.927030,100190.095483,484.729974,795.799683,50114.947962
100,0,3,687003.666667,237674.333333,1258896.000000,71029.000000,9047.000000,629468.333333,28537.726146,9114.297060,51274.228094,2507.910020,624.783696,25635.582801
100,1,13,712898.153846,248960.769231,1404950.000000,74435.230769,9339.923077,702436.923077,7111.562761,1514.975103,72137.072337,1176.877365,716.068804,35991.703460
101,0,3,691498.666667,238478.333333,1288460.333333,71752.000000,8879.333333,644220.000000,38049.325025,11094.106584,85300.574997,3922.422466,1239.598949,42598.945081
101,1,13,713929.307692,249482.230769,1389093.000000,74469.461538,9328.153846,694518.769231,9467.242734,2483.146334,58464.350499,996.943376,696.920572,29206.189068
102,0,3,682681.333333,236499.666667,1274010.666667,70521.666667,8302.333333,636954.666667,25559.508463,8397.421205,35459.347581,2261.880388,950.463863,17677.769323
102,1,13,713665.769231,249273.538462,1381646.230769,74601.307692,9020.846154,690700.538462,10571.622568,2147.083984,70315.427838,1260.092877,703.650574,35002.518618
103,0,3,681471.333333,236313.000000,1307423.666667,70484.666667,8380.000000,653674.000000,26098.386085,8332.329126,69005.621222,2210.824029,924.030303,34446.960311
103,1,13,712214.461538,248911.000000,1378026.307692,74294.461538,9303.153846,688891.461538,7439.786697,1423.861056,89122.018647,1062.478424,836.669666,44408.470783
104,0,3,706132.666667,241197.666667,1310062.666667,73916.333333,9523.333333,655009.000000,25091.648841,8433.665092,68213.800643,2215.178598,846.207356,34016.309186
104,1,13,710139.307692,248171.923077,1303788.615385,73904.076923,8822.230769,651882.000000,3983.908834,892.459046,40719.715500,465.187053,317.179191,20324.421139
105,0,3,683608.333333,236238.666667,1313638.666667,70477.333333,8722.000000,656788.000000,25427.313324,8448.305721,49507.765568,2231.663107,946.809731,24841.302180
105,1,12,712221.083333,248940.583333,1358155.500000,74180.000000,9067.916667,678951.333333,4062.058683,1053.317810,70667.964682,480.994109,835.917007,35305.481617
106,0,3,684248.333333,236927.666667,1335133.333333,70667.666667,8522.666667,667488.000000,25878.655044,8217.351777,88102.489531,2146.540990,953.221322,44072.031070
106,1,12,714546.916667,249348.416667,1361593.833333,74581.750000,9303.500000,680748.166667,7250.143544,1793.935825,70719.143204,1256.629893,969.111406,35337.335343
107,0,3,689712.000000,237913.666667,1274070.333333,71669.333333,8634.666667,636997.666667,24741.028232,8732.469576,43462.472904,2289.337070,846.230990,21688.924998
107,1,12,713632.666667,249206.416667,1370747.833333,74260.166667,9026.000000,685353.916667,10971.870164,3472.376239,73498.865911,1264.494552,596.296487,36687.172689
108,0,3,681619.000000,236317.000000,1279654.000000,70501.000000,8173.333333,639773.000000,25889.794373,8586.356736,11185.274009,2262.216759,609.630671,5517.231431
108,1,12,714818.833333,249635.916667,1383255.583333,74295.083333,9027.250000,691628.666667,7779.841674,3256.250181,68044.374252,764.274324,681.647774,34053.516909
109,0,3,685119.666667,237144.333333,1268275.333333,70813.333333,8299.000000,634100.333333,25425.612550,8367.303402,72258.837689,2200.100957,793.229265,36111.507735
109,1,12,718100.416667,250385.083333,1398269.833333,74798.333333,9361.333333,698975.416667,12254.596229,4373.514309,67567.395579,1501.697780,866.950242,33793.768450
110,0,3,690786.333333,238861.333333,1335971.000000,72030.333333,8352.000000,667911.666667,20567.613771,7073.612577,29606.296031,1719.252809,424.987059,14720.083341
110,1,12,719373.083333,250498.000000,1358792.500000,74846.750000,9456.333333,679300.416667,15306.331993,4822.595066,59236.202725,1624.817381,661.450090,29612.806105
111,0,3,681776.666667,236801.666667,1291505.000000,70664.000000,8391.666667,645717.333333,24223.269052,8239.739653,57849.902512,2133.378072,456.400652,28879.540420
111,1,12,714696.916667,249633.083333,1400238.666667,74184.166667,9231.916667,700061.333333,14661.033061,4988.612323,77065.280896,1318.902311,439.639333,38526.268150
112,0,3,692064.333333,238329.666667,1354103.333333,71770.333333,8865.666667,677036.666667,21492.234107,7716.068184,68007.039206,2004.099188,355.321763,34015.556092
112,1,12,719072.250000,250926.500000,1398433.250000,74974.333333,9474.416667,699172.000000,15351.721093,4909.119227,64078.065292,1590.906206,816.867131,32044.013963
113,0,3,686930.666667,238038.666667,1337427.000000,71221.333333,8306.000000,668731.666667,28498.249705,9087.444831,100632.738076,2458.322237,607.388399,50385.576179
113,1,12,716233.166667,250305.333333,1369538.416667,74611.166667,9239.583333,684705.500000,16703.195716,5755.505398,77084.454329,1733.457279,704.168476,38551.112067
114,0,3,684454.000000,237181.000000,1339205.666667,70877.333333,8283.333333,669688.333333,25032.872029,8041.569789,19440.869568,2066.466442,384.525971,9719.976760
114,1,12,718421.666667,250709.583333,1353356.166667,75029.000000,9373.083333,676617.916667,17063.989141,5433.195000,77731.515777,1857.184293,841.030465,38760.586054
115,0,3,686524.666667,236432.000000,1311128.000000,70548.666667,8528.666667,655561.000000,23619.706636,8536.295684,30125.095662,2257.424245,188.028958,15090.727219
115,1,12,716220.583333,250175.750000,1363053.000000,74566.333333,9116.250000,681415.750000,15079.367562,5007.235533,75712.316647,1573.388611,705.823293,37833.282167
116,0,3,688330.666667,237474.666667,1345627.333333,71046.000000,8554.666667,672834.666667,20618.276299,7510.760518,22703.426237,1790.113404,465.706870,11352.935489
116,1,12,714323.583333,249966.583333,1427275.500000,74381.250000,9460.250000,713615.166667,13870.229062,4769.847874,120663.371385,1247.272232,874.504729,60294.403173
117,0,3,699606.666667,239687.666667,1291882.333333,72816.666667,8353.666667,645910.666667,14110.487124,6534.480971,36038.356070,771.561764,1332.976702,18076.081901
117,1,12,721111.833333,251315.583333,1378241.916667,75384.250000,9577.333333,689166.500000,19857.598289,6008.833032,83028.684520,2331.291313,690.543063,41523.285912
118,0,3,684553.666667,236197.333333,1364143.000000,70400.666667,8182.333333,682023.333333,22227.632837,8228.910512,60870.372711,2194.889266,361.637326,30331.099072
118,1,12,713759.750000,249555.416667,1356181.583333,74169.083333,9030.000000,678078.750000,14076.032846,4915.067691,35043.425072,1306.069770,727.592148,17544.007007
119,0,3,685310.000000,236769.333333,1280453.000000,70613.000000,8014.666667,640103.333333,22924.406252,8242.514881,69396.926968,2155.214297,535.458889,34530.523949
119,1,12,715448.666667,250060.000000,1332471.500000,74379.833333,8811.083333,666228.500000,15769.798251,5607.262122,64416.251916,1586.228064,692.060626,32239.977927
120,0,3,687747.333333,237630.666667,1343631.333333,71043.333333,8692.666667,671827.333333,25342.206906,9531.953432,52402.609174,2635.315204,305.532686,26193.736660
120,1,12,714670.250000,249956.666667,1344983.416667,74381.500000,8959.583333,672464.500000,13306.180382,4840.545275,52161.554357,1264.636344,674.962895,26045.281666
121,0,3,685069.333333,236288.000000,1309803.000000,70508.333333,8219.000000,654840.333333,24298.782265,8331.494584,39893.831110,2178.601590,414.190777,20000.242954
121,1,12,715402.833333,250214.916667,1346826.833333,74611.833333,9003.000000,673398.583333,14665.858299,4869.027426,61019.318760,1395.335613,679.890923,30491.262966
122,0,3,686884.333333,237036.666667,1344522.333333,70876.000000,8817.666667,672228.666667,22850.753005,8133.657657,47754.542662,2070.813045,461.916539,23859.360795
122,1,12,718462.000000,250813.500000,1363878.250000,74968.416667,9190.833333,681920.833333,14927.518286,5332.060757,62011.361364,1735.574711,664.938698,31007.862304
123,0,3,694923.333333,239062.000000,1314351.666667,72118.000000,8963.000000,657112.000000,24047.231917,8877.105046,14076.022386,2426.267504,1102.497468,6999.417166
123,1,12,716652.500000,250303.250000,1342475.583333,74791.000000,9106.333333,671183.666667,13310.801576,4588.095468,51037.559546,1455.612929,547.798371,25521.372257
124,0,3,691133.000000,237954.666667,1275645.000000,71652.333333,8691.333333,637833.666667,32226.289961,10315.766390,23691.944383,3643.852936,767.076412,11835.907861
124,1,12,714030.666667,249350.833333,1330436.000000,74147.833333,9174.416667,665178.500000,17291.622260,5807.277271,91913.549883,1642.155841,791.711380,45895.161354
125,0,3,683796.666667,236511.000000,1293756.333333,70612.000000,8764.666667,646904.666667,23170.225396,8340.101238,38170.094527,2177.640160,565.427469,19084.298159
125,1,12,715683.083333,250187.583333,1362490.916667,74642.000000,9101.333333,681190.500000,20605.787029,6145.806395,63788.547113,2146.297743,704.914455,31868.328336
126,0,3,683128.000000,236469.333333,1287735.666667,70575.333333,8795.333333,643867.000000,23801.823852,8739.020934,73990.140570,2344.335205,783.473604,37004.345943
126,1,12,715753.500000,249905.833333,1336012.916667,74475.166667,9093.416667,667993.000000,15364.383096,5161.622465,73136.762481,1562.845846,566.530149,36516.271882
127,0,3,684421.666667,237141.333333,1264889.666667,70920.000000,8567.000000,632506.333333,22323.578840,8256.194536,25980.021200,2111.945075,985.521520,12984.605304
127,1,12,716439.333333,250184.083333,1408791.500000,74620.666667,9539.583333,704358.916667,16044.275871,5561.844485,103198.654751,1698.614010,845.462640,51621.621985
