-1,0,0.119087
-1,1,0.118531
-1,2,0.118531
-1,3,0.118531
-1,4,0.118531
-1,5,0.118531
-1,6,0.118531
-1,7,0.169727
2,0,0.126374
2,1,0.120879
2,2,0.120879
2,3,0.126374
2,4,0.126374
2,5,0.126374
2,6,0.126374
2,7,0.126374
