0,3,760409,266149,1454261,78573,10272,727069,0
0,3,761311,266710,1610259,78759,10095,804147,0
0,3,764550,266926,1589638,78798,10141,794664,0
0,3,760032,267013,1455011,78915,9834,728180,0
0,3,779827,270693,1518788,81825,10669,759464,0
0,-1,688846,236797,1186472,70505,7488,593289,0
0,3,760596,266636,1567304,78698,9293,783584,0
0,3,762086,266848,1590451,78787,9844,794496,0
0,3,760621,266955,1507145,78865,9325,753335,0
0,3,763561,266870,1527029,78864,9758,763670,0
0,3,759540,265742,1397707,78435,9215,698881,0
0,3,733419,253701,1472521,77420,10673,736235,0
0,3,705514,248632,1465583,73848,9395,732738,0
0,-1,696687,239854,1432726,71841,9102,716369,0
0,3,729115,253022,1634877,76974,11314,817633,0
0,3,707549,248016,1374351,73567,9395,687161,0
0,3,704028,248041,1500810,73634,9652,750216,0
0,3,706811,248143,1486720,73644,9707,743482,0
0,3,706739,248289,1525144,73637,10194,762611,0
0,-1,693125,237573,1485619,70816,9412,742244,2
0,3,711621,248499,1509378,73758,10699,754623,0
0,3,731072,253013,1369636,77097,10197,684830,0
0,3,707891,247826,1439769,73535,9679,719876,0
0,3,708285,248427,1332746,73786,8646,666193,0
0,3,711496,249010,1566844,73946,10205,783387,0
0,3,710466,248949,1471167,74026,9557,735859,0
0,3,710621,248257,1478978,73851,10205,739494,0
0,3,733251,253183,1549726,77256,11224,774307,0
0,3,703229,248382,1388518,73880,8242,694360,0
0,3,711155,250435,1668913,74822,10311,833940,0
0,3,705069,248046,1441076,73714,9013,720551,0
0,3,707504,248815,1628664,73977,9735,814351,0
0,3,703485,247534,1369081,73513,8799,684619,0
0,3,707470,247802,1442255,73580,8772,721133,0
0,-1,690367,237439,1323695,70807,8424,661864,0
0,3,710390,248549,1471179,73893,9500,734548,0
0,3,722702,251556,1616654,76752,10035,808424,0
0,3,706006,247523,1519924,73545,9883,760052,0
0,3,708284,248511,1259739,73830,8521,629753,0
0,3,710191,248229,1402207,73747,9583,701050,0
0,3,708118,248057,1405393,73756,9552,702578,0
0,-1,692955,237337,1288057,70701,7887,644064,0
0,3,712398,248423,1748982,73943,12004,874340,0
0,3,706012,248053,1417336,73782,9158,708851,0
0,3,709737,250264,1517084,74847,10156,758702,0
0,3,710611,249181,1439325,74393,10084,719418,0
0,3,727020,252406,1457952,76979,10044,728854,0
0,3,711181,248729,1441308,73903,9515,720607,0
0,3,715315,249619,1416807,74219,9433,708253,0
0,3,729343,253158,1379944,77314,10267,689836,0
0,3,709500,248846,1687411,73992,10371,842258,0
0,3,713605,249678,1420343,74182,9541,710166,0
0,-1,693460,237135,1296725,70653,8630,648410,0
0,3,711191,248787,1443390,73917,9764,721712,0
0,3,711406,248554,1400736,73801,8810,700156,0
0,3,715271,249213,1501707,73991,9680,750836,0
0,3,713031,251332,1499247,74940,10268,749598,0
0,3,711278,249591,1714870,74234,11712,857867,0
0,3,708559,248829,1788788,73904,10923,894494,0
0,3,707721,247994,1378260,73635,9797,689069,0
0,3,710630,249009,1538945,73898,10145,769093,0
0,3,711649,248577,1518363,73839,9837,759201,0
0,3,712813,250155,1492071,74590,9643,746120,0
0,-1,644732,220521,1368277,66587,9022,684313,0
0,3,712106,249145,1465953,74167,9712,733124,0
0,3,712296,248884,1452414,74109,10273,726284,0
0,3,710626,248527,1569818,74006,10781,783887,0
0,3,709843,247851,1510865,73686,9556,755658,0
0,3,715172,249702,1500396,74581,9833,749912,0
0,3,711606,250076,1519433,74705,10151,759706,0
0,3,710110,248599,1386171,74003,9244,692978,0
0,3,715298,250112,1360311,74747,10333,679991,0
0,3,712282,248948,1499043,74121,10088,749339,0
0,3,710751,248517,1621293,73969,10109,810150,0
0,3,710729,248320,1487642,73903,9822,743793,0
0,-1,641145,220804,1375267,66582,8193,687540,0
0,3,714271,248654,1506838,74049,8939,753312,0
0,3,715797,250727,1622554,75019,11365,811353,0
0,3,713111,248852,1327162,74110,10229,663506,0
0,3,711633,248882,1429020,74146,10007,714524,0
0,3,718000,250611,1531671,74864,10990,765837,0
0,3,723689,252586,1446272,77133,10114,722927,0
0,3,702492,248019,1435534,73757,9909,717748,0
0,3,706522,248540,1401551,74011,9753,700742,0
0,3,709118,249502,1494016,74522,9899,746909,0
0,-1,637041,218972,1361852,65613,8653,680819,0
0,3,705178,248340,1941047,73921,12456,970205,0
0,3,711278,250114,1442636,74717,10363,721447,0
0,3,705920,248228,1350466,73932,8341,675004,0
0,3,708296,249292,1479731,74257,9020,739879,0
0,3,708509,248499,1481834,73969,8944,740594,0
0,3,711236,250138,1481233,74718,9964,740564,0
0,3,708399,248738,1327146,73992,9504,663443,0
0,3,709164,248300,1487053,73897,9809,743478,0
0,-1,639184,219460,1234202,65828,7353,617204,0
0,3,706597,249142,1321580,74190,8513,660824,0
0,3,727261,253035,1413378,77244,10288,706595,0
0,3,707315,248684,1488468,74019,9319,744195,0
0,3,708552,248391,1556555,73860,11063,778160,0
0,3,727693,253374,1506556,77315,10189,753079,0
0,3,710629,250246,1542178,74651,10641,770804,0
0,3,704055,248043,1357412,73656,8917,678743,0
0,-1,643012,220374,1374830,66343,8329,687275,0
0,3,710558,249260,1414577,74433,10829,706908,0
0,3,709381,249006,1522890,74098,9513,761268,0
0,3,712267,249422,1505917,74207,9567,752724,0
0,3,712975,250875,1525009,74975,10022,762386,0
0,3,707749,248382,1442848,73843,8745,721510,0
0,3,708760,248452,1315422,73866,9054,657771,0
0,3,725766,253160,1329538,77232,9021,665078,0
0,3,707218,249647,1364950,74291,8340,682535,0
0,3,707290,248970,1482627,74076,9121,741351,0
0,3,710168,249444,1582624,74205,9041,791299,0
0,3,729855,253910,1451216,77478,9629,725628,0
0,3,707538,248259,1461317,73810,9696,730664,0
0,3,710655,249019,1311938,74103,9524,656076,0
0,3,706225,248629,1349180,73968,8338,674589,0
0,-1,662140,223882,1329955,69061,9031,664927,0
0,3,711617,249446,1494830,74144,9511,747486,0
0,3,711489,249101,1476483,74142,8969,738296,0
0,3,712148,250233,1435726,74771,8806,717935,0
0,3,710192,248516,1367933,73882,9142,683919,0
0,3,706470,249316,1419478,74209,9186,709525,0
0,3,729626,253824,1428556,77456,9569,714273,0
0,3,707174,248445,1470102,73830,9142,735090,0
0,3,710286,248698,1478352,73916,9349,739186,0
0,3,727581,252921,1348725,77174,8922,674349,0
0,3,712601,250826,1470397,74972,9737,735405,0
0,3,713883,249882,1557289,74571,9430,778756,0
0,3,711314,248363,1346473,73830,8494,673183,0
0,3,712649,249734,1515874,74360,9266,757944,0
0,3,712737,250052,1501363,74471,9612,750702,0
0,3,711335,249185,1349627,74142,9562,674587,0
0,-1,640583,219506,1370009,65885,8460,685150,0
0,3,711495,249079,1467417,74108,9138,733625,0
0,3,717989,250687,1489734,74926,10353,744811,0
0,-1,639525,218373,1317394,65393,7973,658682,0
0,3,705878,248480,1324913,73919,7900,662465,0
0,3,706331,248977,1404825,73961,8025,702648,0
0,3,707981,248997,1432077,73994,8970,716049,0
0,3,709143,249454,1438665,74249,8253,719423,0
0,-1,639343,218753,1275420,65752,7384,637735,0
0,3,712633,249101,1493531,74126,8996,746760,0
0,3,706698,248765,1393199,74027,8614,696329,0
0,3,707091,248515,1451619,73793,8899,725694,0
0,3,711524,249354,1548877,74125,9081,774392,0
0,3,710030,248771,1349666,74037,8930,674765,0
0,-1,646634,221197,1359252,66789,8587,679653,0
0,3,709302,248339,1437663,73808,9448,718811,0
0,3,714111,249710,1517337,74327,9607,758690,0
0,3,707131,249157,1454898,74014,9857,727327,0
0,3,707183,248713,1447973,73855,8708,723939,0
0,3,727677,253160,1468637,77163,10056,734225,0
0,3,711669,249565,1519452,74198,9096,759823,0
0,3,734228,258596,1452836,76929,9506,726167,0
0,3,713704,250745,1412132,74937,8397,705787,0
0,3,716318,250636,1509421,74842,10087,754596,0
0,3,713858,250896,1460031,74846,8768,729972,0
0,-1,640158,217858,1206047,65389,7108,603041,0
0,3,709957,248936,1331639,73904,8319,665793,0
0,3,709858,248809,1455864,73872,8623,727736,0
0,3,713183,249726,1336546,74193,9171,668220,0
0,3,713711,249923,1465400,74223,8981,732709,0
0,3,732954,253530,1593679,77258,9141,796770,0
0,3,714853,248982,1376003,73938,8862,687920,0
0,3,708404,249292,1392245,74081,8260,695880,0
0,3,709580,249836,1487556,74233,8615,743751,0
0,3,710088,248400,1489260,73699,9423,744641,0
0,3,714512,250685,1485314,74766,9755,742692,0
0,3,711549,248824,1340969,73872,8603,670503,0
0,3,705464,248060,1445003,73593,9255,722442,0
0,3,708081,248419,1328008,73713,8766,663930,0
0,3,712270,249110,1403895,73987,10361,701877,0
0,3,714600,250130,1530869,74633,9177,765509,0
0,3,713037,249166,1418104,74117,9275,709065,0
0,3,716309,249493,1433620,74065,8599,716736,0
0,-1,664268,228715,1385091,68920,8621,692607,0
0,3,719830,252174,1517616,75428,9716,758736,0
0,3,716951,251344,1517367,75051,9527,758570,0
0,3,714035,249903,1375230,74288,9540,687626,0
0,3,713967,249229,1334099,74269,9042,666929,0
0,3,712461,249050,1517072,74063,8930,758587,0
0,3,717161,250400,1441792,74444,8733,720833,0
0,3,734681,254837,1475783,77580,9553,737898,0
0,3,715528,250758,1516173,74634,9597,758092,0
0,3,713899,249529,1303204,74081,8720,651304,0
0,3,717049,249831,1477053,74179,8755,738458,0
0,3,715869,250010,1403885,74220,9577,701948,0
0,3,721902,251579,1467714,75000,9978,733784,0
0,-1,658622,223178,1291849,68892,8026,645886,0
0,3,707462,249375,1341121,73913,9010,670456,0
0,3,710412,249585,1362667,74033,10070,681220,0
0,3,713712,251067,1563521,74787,10896,780624,0
0,3,716726,251282,1430172,74788,10247,715058,0
0,3,710566,249494,1479195,73949,9780,739643,0
0,3,733986,254654,1493764,77602,10103,746851,0
0,3,712880,249832,1631397,74239,10472,816217,0
0,3,711403,249714,1391282,74142,9663,695691,0
0,3,712571,249447,1525305,74138,9821,762700,0
0,-1,636223,218941,1176046,65824,6613,588025,0
0,3,712711,249582,1434415,74153,9014,717305,0
0,3,733456,253117,1407783,77015,9795,703828,0
0,3,712944,249852,1384892,74208,9508,692490,0
0,3,714375,249172,1332369,73985,9757,666071,0
0,3,715640,249967,1496607,74286,10081,748424,0
0,3,717216,249670,1453395,74385,9930,726453,0
0,3,709840,249024,1541746,73964,9441,770883,0
0,3,711015,248892,1368554,73939,8737,684294,0
0,3,709117,248558,1536522,73889,9735,768226,0
0,3,707931,248731,1380798,73948,8989,690411,0
0,-1,635821,218898,1258092,65790,6676,629106,0
0,3,710413,248264,1343334,73798,9435,671661,0
0,3,709793,249095,1378420,74002,8984,689129,0
0,3,711833,250307,1477415,74801,9296,738828,0
0,3,735560,254232,1384254,77539,9979,692072,0
0,3,709571,248713,1490976,74013,9368,745741,0
0,3,714606,249524,1462126,74444,10361,731041,0
0,3,715811,249538,1365025,74114,9882,682315,0
0,3,708998,249009,1654994,73982,10584,827896,0
0,-1,638823,218875,1277844,65769,8035,638920,0
0,3,710532,249131,1471018,74022,9288,735462,0
0,3,709563,248816,1476261,73872,9349,738020,0
0,3,730509,252904,1495080,77068,10211,746458,0
0,3,730357,252736,1637210,77046,11171,818584,0
0,3,705766,247756,1659047,73584,10547,829479,0
0,3,715147,250507,1470733,74794,10340,734374,0
0,3,709021,248034,1317616,73684,9323,658854,0
0,3,715115,249388,1382670,74155,9584,691344,0
0,-1,634158,218183,1250899,65534,6506,625262,0
0,3,709564,248293,1424402,73773,9117,711941,0
0,3,734960,254296,1494862,77479,10365,747069,0
0,3,714394,249443,1441393,74142,9101,720506,0
0,3,708334,249154,1491773,74001,9297,745944,0
0,3,712645,249384,1515096,74107,9628,757532,0
0,3,714756,249601,1391230,74076,10194,695542,0
0,3,717032,250373,1480735,74433,10368,740383,0
0,-1,640088,220118,1265526,66302,8680,632252,0
0,3,713769,249328,1399397,73917,8886,699613,0
0,3,712058,249050,1540642,73837,10276,770203,0
0,3,712338,249101,1458228,73795,10410,728898,0
0,3,714882,249254,1380096,73841,9010,690100,0
0,3,718165,250998,1511813,74660,9963,755994,0
0,3,713817,248728,1460701,73690,9877,730523,0
0,3,718806,250923,1610909,74711,10203,805478,0
0,3,716139,248715,1554508,73711,10072,777085,0
0,3,707300,248509,1306447,73666,9439,653250,0
0,3,709439,249102,1517476,73964,9913,758611,0
0,-1,637661,218972,1297896,65726,7804,648966,0
0,3,709343,248085,1477639,73611,9517,738814,0
0,3,707863,248099,1400948,73593,9114,700500,0
0,3,709127,248414,1362048,73719,9456,680897,0
0,3,730372,252753,1445313,76903,10101,722535,0
0,3,710281,249982,1451271,74403,9654,725664,0
0,3,706951,248171,1364144,73607,8945,682063,0
0,3,709985,248358,1391511,73784,9000,695666,0
0,-1,646708,221895,1393541,67061,9513,696575,0
0,3,709909,248648,1389113,73814,9116,694517,0
0,-1,646136,221215,1355046,66786,8871,677518,0
0,3,709489,248581,1339785,73758,9820,669764,0
0,3,715944,250437,1480818,74673,9564,740085,0
0,3,713786,249638,1439295,74343,9361,719663,0
0,3,706169,247728,1464671,73412,9432,732314,0
0,3,709566,248117,1568314,73621,9525,784064,0
0,3,711381,249281,1536434,74018,9797,768217,0
0,3,710098,248364,1501684,73662,9527,750835,0
0,3,717467,250876,1425973,74850,9914,712994,0
0,3,729781,252672,1563186,76868,9948,781651,0
0,3,711357,248394,1438769,73694,9302,719352,0
0,3,710967,248209,1327710,73611,9980,663820,0
0,3,710664,248361,1402234,73687,10725,701055,0
0,3,715479,250178,1451698,74516,9766,725862,0
0,-1,637054,219150,1318708,65889,8310,659389,0
0,3,714221,248259,1508059,73684,9849,754024,0
0,3,712791,250211,1384775,74497,9023,692347,0
0,3,709960,249144,1300679,73933,8835,650340,0
0,3,707978,247549,1572297,73403,10271,786045,0
0,3,709401,248057,1587468,73538,9777,793669,0
0,3,715631,250397,1418262,74718,9560,709058,0
0,3,715536,248942,1525386,73929,10213,762681,0
0,-1,635507,218667,1785499,65696,9746,892912,0
0,3,709263,248152,1341096,73589,9377,670174,0
0,3,711401,248586,1474350,73794,9689,737112,0
0,3,710732,247632,1454932,73371,9873,727398,0
0,3,732643,253128,1532238,77042,9922,766105,0
0,3,713285,248559,1582704,73723,11077,791453,0
0,3,718038,250362,1315824,74568,10156,657721,0
0,3,709451,248775,1397391,73867,8829,698435,0
0,3,716125,250950,1449547,74842,9565,724799,0
0,3,711945,248708,1478544,73846,9146,739348,0
0,3,712794,248535,1400855,73773,9275,700301,0
0,3,712639,248214,1366675,73608,10452,683403,0
0,3,711742,247743,1380302,73467,9332,690125,0
0,3,708950,248152,1434674,73540,8864,717374,0
0,3,711631,248326,1435051,73499,9120,717311,0
0,3,714474,248698,1318307,73673,8509,659134,0
0,3,720970,250569,1582161,74621,9787,790723,0
0,3,722552,252851,1643921,76505,10378,821950,0
0,-1,636389,218425,1297403,65692,7678,648652,0
0,3,711274,251175,1389122,74386,9012,694476,0
0,3,708194,250627,1330708,74183,9695,665291,0
0,3,705308,248701,1572188,73351,9484,786125,0
0,3,706189,248478,1532004,73247,9929,766216,0
0,-1,637304,218002,1431920,65596,8447,716005,0
0,3,703555,248084,1588766,73124,9241,794366,0
0,3,706473,248563,1492328,73284,9175,746096,0
0,3,712654,250438,1371574,74431,8907,685724,0
0,3,726958,252777,1460977,76487,10033,730267,0
0,3,703328,248722,1497103,73336,9746,748490,0
0,3,707665,248349,1288087,73305,9344,643999,0
0,3,705277,248214,1480878,73292,9444,740436,0
0,-1,641923,219677,1261034,66115,7827,630514,0
0,3,705329,247536,1503701,73021,10025,751710,0
0,-1,647423,221278,1344206,66839,9123,672154,0
0,3,706993,248729,1408685,73542,9356,704304,0
0,3,710429,248616,1387863,74489,9725,693926,0
0,3,709986,248437,1471085,74156,9531,735520,0
0,3,709077,248340,1465641,74223,10004,732807,0
0,3,711522,248562,1611947,74247,10511,805972,0
0,3,715836,249762,1289459,74870,9693,644653,0
0,3,707461,248608,1353128,74356,9146,676599,0
0,3,712769,250040,1379797,74951,9521,689897,0
0,3,709987,248118,1338501,74091,9632,669147,0
0,3,707292,248148,1390677,74108,8572,695287,0
0,3,713494,249445,1295538,74696,9221,647733,0
0,3,707810,247804,1461024,73961,8595,730501,0
0,3,723929,252072,1487007,77177,10035,743503,0
0,3,711124,249036,1596271,74439,9817,798073,0
0,3,708006,248685,1323849,74279,9067,661883,0
0,3,711303,248765,1361733,74245,9517,680850,0
0,3,708209,248065,1507176,74096,9581,753583,0
0,3,709612,247851,1444314,74031,8581,722158,0
0,3,716193,249757,1432145,74659,9577,716082,0
0,3,708078,248361,1417161,74129,9784,708697,0
0,3,708573,247976,1294524,74042,8818,647301,0
0,3,711504,248389,1494650,74230,10344,747344,0
0,-1,641050,220348,1369268,66442,7838,684499,0
0,3,711486,248603,1571622,74282,10234,785530,0
0,3,710441,248005,1456194,74048,9532,727953,0
0,3,709291,248811,1552074,74348,10521,776038,0
0,3,732444,252704,1574620,77416,11034,787066,0
0,3,712818,248630,1382521,74305,9121,691267,0
0,3,715398,250260,1341698,75102,10025,670798,0
0,3,715082,249690,1519426,74662,10701,759600,0
0,-1,639846,219176,1231380,65777,7280,615840,0
0,3,725737,252713,1461866,77417,11017,730966,0
0,3,705447,247763,1512066,73971,9792,756496,0
0,3,711820,249200,1485944,74495,9822,742938,0
0,3,706874,247693,1315791,73952,8589,657858,0
0,3,708991,248420,1423935,74190,8625,712009,0
0,3,708432,249116,1367943,74650,9546,684295,0
0,3,709602,248767,1354994,74326,8472,677506,0
0,3,707282,247861,1417725,73993,8912,708909,0
0,3,712083,249207,1351787,74679,9260,675974,0
0,-1,641977,218598,1270078,65670,7286,635049,0
0,3,712679,249372,1471196,74734,9304,735624,0
0,3,714505,249718,1363748,74941,8762,681977,0
0,3,709836,249155,1351926,74463,8678,675998,0
0,3,709092,248209,1379508,74153,9764,689643,0
0,3,711187,249089,1410287,74652,8572,705201,0
0,3,708747,248220,1392556,74075,9671,696309,0
0,3,709157,248337,1469861,74204,9331,734991,0
0,3,711653,248392,1478249,74126,9833,739171,0
0,3,709850,248474,1368310,74243,9572,684104,0
0,3,712927,248533,1490745,74275,8691,745399,0
0,3,709825,247925,1461214,74040,9134,730230,0
0,3,711663,248483,1445957,74259,8920,722972,0
0,3,715937,249007,1325009,74630,9921,662444,0
0,3,710825,249426,1437412,74726,9232,718794,0
0,3,708332,247989,1424455,74060,9313,712219,0
0,3,710331,248423,1352263,74225,9202,676175,0
0,3,709539,248220,1472620,74065,9858,736117,0
0,3,714396,248877,1590027,74310,10898,794938,0
0,-1,647784,221159,1359484,66642,8081,679823,0
0,3,709213,248565,1508089,74108,9986,753953,0
0,3,709502,247744,1459988,73871,9227,729907,0
0,3,714411,248902,1381430,74340,9761,690375,0
0,3,715331,249274,1362696,74706,9303,680920,0
0,3,712292,248224,1451132,74174,9895,725511,0
0,3,708005,248084,1646901,74076,10837,823224,0
0,3,729747,252411,1571152,77285,11172,785576,0
0,-1,644802,219591,1301551,65876,8346,650749,0
0,3,711391,248628,1485715,74164,10466,742795,0
0,3,712091,248719,1504172,74160,9791,751805,0
0,3,709444,248357,1532686,74089,10583,766289,0
0,3,712722,248267,1485521,74181,10296,742761,0
0,3,712140,247680,1498149,73940,9973,748821,0
0,3,711985,248762,1445850,74330,9925,722931,0
0,-1,638519,219610,1254613,65845,8084,627253,0
0,3,714794,249735,1399848,75037,9492,699980,0
0,3,732341,252650,1661548,77304,11262,830657,0
0,3,713467,248955,1456205,74240,10369,728003,0
0,3,716626,248785,1450705,74419,9781,725389,0
0,3,706552,248623,1475666,74317,10340,738062,0
0,3,712993,250765,1459384,75260,10906,729474,0
0,-1,646353,221893,1375733,66888,8703,687877,0
0,3,713039,250944,1497077,75346,10349,748608,0
0,3,713160,249736,1462985,74702,9674,731541,0
0,3,733271,254624,1477411,78062,10587,738396,0
0,3,713125,249629,1476684,74635,9897,738384,0
0,3,714287,249831,1408862,74898,8441,703864,0
0,3,709100,249192,1454265,74487,10000,727180,0
0,3,717458,250330,1371025,75172,9544,685533,0
0,3,716272,250088,1416673,74858,9883,708464,0
0,3,715426,249593,1538933,74648,10379,769121,0
0,3,714125,249016,1456546,74456,9507,728276,0
0,-1,643342,220942,1311953,66477,8127,656187,0
0,3,712592,249942,1475483,74711,10139,737720,0
0,3,716228,250290,1490338,74796,9351,745211,0
0,-1,642745,220717,1339012,66589,8528,669317,0
0,3,712948,249474,1459550,74475,10048,729807,0
0,3,712824,249440,1452812,74585,9549,726441,0
0,3,717825,250490,1607004,74899,9839,801985,0
0,3,713181,249103,1380509,74413,10397,690182,0
0,3,713783,249477,1487680,74586,9795,743811,0
0,3,711361,249049,1505441,74403,10009,752594,0
0,3,713513,249799,1521868,74683,10814,760182,0
0,3,720704,251468,1417977,75499,10055,708912,0
0,3,707165,249043,1658716,74377,10406,829402,0
0,-1,639574,219778,1315295,65968,8206,657681,0
0,3,711745,249228,1595849,74462,9100,797897,0
0,3,711645,249262,1587918,74366,9320,793973,0
0,3,714157,250208,1490889,74638,9294,745490,0
0,3,711176,249358,1554910,74236,9940,777489,0
0,3,720426,251874,1422752,75517,9643,711412,0
0,3,713941,248789,1431132,74204,9134,715615,0
0,3,712901,249427,1478280,74313,9080,739187,0
0,-1,641062,218722,1286991,65637,8584,643493,0
0,3,714407,249775,1352816,74552,8411,676508,0
0,3,714287,248801,1488862,74255,9979,744459,0
0,3,714172,250172,1330659,74859,8953,665412,0
0,3,713294,249465,1424118,74497,8962,711972,0
0,3,713677,250606,1360196,75038,8502,680210,0
0,3,712656,248851,1457430,74283,9069,728743,0
0,3,713172,249060,1445992,74342,9149,723076,0
0,3,713218,249024,1486968,74280,9849,743496,0
0,3,735985,253743,1766275,77616,12043,883213,0
0,-1,665002,224233,1269092,69293,9330,634618,0
0,3,735657,254234,1626326,77840,11028,813192,0
0,3,715657,249156,1524844,74391,10449,762396,0
0,3,717753,250139,1506056,74823,9595,753041,0
0,3,709825,249652,1452848,74506,10135,726473,0
0,3,733270,253957,1606706,77737,10384,803365,0
0,3,713544,250505,1405322,75114,9840,702761,0
0,3,709055,248564,1477598,74167,9783,738872,0
0,3,716228,250128,1383644,74901,9392,691799,0
0,3,715836,249549,1401671,74410,9982,700797,0
0,3,716833,250673,1612335,74832,10542,805146,0
0,3,737989,255181,1817860,78145,10904,908678,0
0,3,712499,249109,1524389,74328,9819,762179,0
0,3,715074,249889,1456800,74575,9886,728340,0
0,3,717332,248760,1943869,74308,10662,972127,0
0,3,717662,251473,1491756,75576,9274,745830,0
0,3,712660,249480,1410625,74579,9090,705370,0
0,3,713337,249247,1369650,74491,8804,684628,0
0,-1,639673,218911,1387256,65831,8597,693653,0
0,3,735459,253689,1454906,77727,10844,727343,0
0,3,712649,249321,1417242,74545,8849,708702,0
0,3,714505,249448,1493426,74552,9555,746717,0
0,3,719858,250971,1446186,75307,8962,723287,0
0,3,714576,249775,1321188,74517,9630,660488,0
0,3,717081,250341,1352705,74869,8529,676165,0
0,3,713788,248692,1338877,74219,8245,669384,0
0,3,714502,248698,1326529,74225,9131,663254,0
0,3,737621,254008,1461985,77749,11760,731030,0
0,3,718742,250638,1479072,75131,10471,739629,0
0,3,710649,248384,1311759,74082,8731,655819,0
0,3,712338,249515,1406239,74475,9226,703216,0
0,3,711207,248671,1286783,74182,9059,643401,0
0,3,712607,249172,1354908,74305,8944,677427,0
0,3,712585,248406,1376694,74048,8930,688393,0
0,3,718001,249885,1305384,74754,8956,652742,0
0,3,714868,249289,1305031,74365,9230,652397,0
0,-1,641077,219347,1278187,66020,8290,639207,0
0,3,712693,248687,1340577,74157,9325,670337,0
0,3,713002,248471,1371992,74056,9804,686059,0
0,3,714562,248590,1570778,74230,9610,785476,0
0,3,735276,253460,1534324,77590,10419,767258,0
0,3,730372,253370,1573253,77542,11192,786662,0
0,3,713896,249159,1493085,74422,9256,746423,0
0,3,708481,247876,1433939,74091,8881,717081,0
0,3,719019,250620,1745500,75324,10760,872921,0
0,3,717133,249573,1469590,74940,9105,734846,0
0,3,712694,247914,1292688,74160,9191,646348,0
0,3,710587,247802,1604174,74199,10916,802044,0
0,3,712076,248225,1410342,74318,9758,705304,0
0,3,710685,247052,1354161,73916,9049,677116,0
0,3,737329,252610,1500010,77532,10112,749930,0
0,3,703049,247717,1396081,74045,8218,698076,0
0,3,703884,247303,1670940,73997,11337,835168,0
0,-1,637763,218723,1325324,65827,8628,662617,0
0,3,709639,249858,1485948,75110,9661,743008,0
0,3,707372,247727,1418918,74087,8959,709526,0
0,3,714020,249670,1450107,74938,9752,725007,0
0,3,707300,248048,1301512,74221,8761,650867,0
0,3,706244,247786,1429046,74105,8798,714546,0
0,3,707740,248216,1431288,74296,8682,715591,0
0,-1,644749,221012,1334090,66858,7761,666987,0
0,3,729792,253432,1411906,77779,9968,705922,0
0,3,708928,248089,1403234,74187,8649,701609,0
0,3,709225,248522,1447853,74418,8732,723975,0
0,3,719847,251598,1580913,75702,10328,790488,0
0,3,710745,250538,1528542,75199,9198,764405,0
0,3,714597,250428,1373385,75068,9517,686615,0
0,3,707676,248074,1329245,74141,8947,664682,0
0,3,708563,248250,1293577,74159,8785,646816,0
0,3,711965,248220,1381095,74095,9347,690582,0
1,3,760918,266441,1450901,78632,9467,725458,0
1,3,761585,266478,1432093,78631,9172,716012,0
1,3,754545,265120,1368202,78227,9538,683595,0
1,3,760186,266524,1590379,78690,10378,795210,0
1,3,764714,268584,1544224,79557,9644,771981,0
1,3,761844,266725,1492722,78747,8659,746420,0
1,3,763801,266652,1408687,78766,9115,704215,0
1,3,760117,266113,1397685,78542,9253,698929,0
1,3,770434,270239,1632005,80287,11835,816555,0
1,3,739683,259110,1519511,76558,10337,759746,0
1,3,704731,248284,1567036,73781,9074,783077,0
1,-1,693617,237492,1419058,70714,9081,709421,0
1,3,708694,248276,1569037,73644,9209,784640,0
1,3,707484,248399,1453758,73720,9914,726967,0
1,3,708634,247478,1535454,73363,10194,767505,0
1,3,706949,248332,1427174,73616,9560,713542,0
1,3,731814,253314,1544383,77117,10181,772151,0
1,3,709662,247868,1479497,73458,9804,739650,0
1,3,705715,247870,1393052,73491,9602,696542,0
1,3,707935,248034,1606405,73638,9875,802464,0
1,3,706852,247883,1451431,73557,9075,725798,0
1,3,708981,248512,1523236,73767,10152,761684,0
1,3,714657,251048,1476652,74999,9024,738303,0
1,3,711605,247864,1481342,73652,8869,740544,0
1,3,710443,248046,1357656,73797,9298,678705,0
1,3,711976,248492,1389431,73911,8381,694822,0
1,3,724822,252577,1517261,76978,9933,758865,0
1,3,706042,248225,1341114,73760,8636,670306,0
1,3,705222,248327,1380935,73771,8232,690257,0
1,3,710500,250184,1442730,74675,9542,721468,0
1,-1,687866,236796,1268735,70506,8522,634358,0
1,3,711703,250505,1505727,74907,9106,752870,0
1,3,711778,249993,1442980,74662,9622,721558,0
1,3,704040,247754,1475775,73645,8595,737842,0
1,3,709186,249124,1609903,74317,10168,804740,0
1,3,707107,247600,1295226,73651,9097,647616,0
1,-1,689155,237490,1351856,70830,7597,676167,2
1,-1,713329,241810,1399073,73981,8671,699521,0
1,3,728827,252847,1489787,77074,10784,744808,0
1,3,707998,247928,1559526,73640,9851,780365,0
1,3,708859,247955,1431727,73733,9803,715463,0
1,3,710369,250277,1493254,74750,9754,746697,0
1,3,704802,247567,1389694,73618,9802,694857,0
1,3,708597,248427,1452538,73808,10191,726153,0
1,3,708867,248134,1389394,73800,9486,694574,0
1,3,709437,248519,1617877,73810,10906,808993,0
1,3,716562,250690,1507437,74914,9624,753654,0
1,3,710399,248708,1338972,74081,9655,669560,0
1,3,708019,248111,1345771,73737,8862,672932,0
1,3,707948,247936,1380186,73508,8814,690190,0
1,-1,690830,237069,1324917,70677,8035,662503,0
1,3,707733,248616,1388993,73920,9484,694600,0
1,3,710075,247915,1456383,73577,9731,728130,0
1,3,713058,248707,1328576,73784,9053,664170,0
1,3,733012,253391,1453543,77112,10039,726907,0
1,3,710640,248704,1407955,73779,9007,703920,0
1,3,711237,248768,1470779,73885,9564,735378,0
1,3,711281,249637,1390958,74206,9781,695429,0
1,-1,638595,218360,1251130,65607,7704,625487,0
1,3,716276,251010,1615221,74902,10825,807286,0
1,3,714210,249994,1369048,74351,9372,684449,0
1,3,707423,248629,1733278,73926,10559,866453,0
1,3,711279,248896,1372814,73933,8731,686494,0
1,3,713903,250516,1512519,74905,10295,756253,0
1,3,709004,248618,1487938,74089,9692,743354,0
1,3,716391,250245,1477338,74785,10630,738652,0
1,3,711499,248402,1427689,73999,8460,713863,0
1,3,709476,248855,1378024,74140,9410,688982,0
1,3,729040,252908,1494676,77236,10549,747450,0
1,3,710225,249054,1381611,74197,9544,690411,0
1,-1,657836,224207,1331763,69162,8295,665669,0
1,3,711239,248201,1483676,73864,9465,741876,0
1,3,712739,249006,1681501,74180,11311,840633,0
1,3,711270,248968,1510332,74141,9236,755035,0
1,3,734810,253292,1548235,77367,9840,774164,0
1,3,710276,248415,1515967,73943,9890,758059,0
1,3,712122,248800,1411182,74057,10567,705578,0
1,3,716770,250960,1503149,75130,10400,751603,0
1,3,711641,248147,1447975,73848,9495,723816,0
1,-1,640233,220664,1468798,66353,7882,734387,0
1,3,702863,248373,1531298,74007,11176,765440,0
1,3,704741,248201,1490889,73875,9533,745408,0
1,3,709660,250039,1464669,74707,10364,732295,0
1,3,708824,251114,1543832,75189,10399,771835,0
1,3,704803,248608,1487014,73981,10131,743592,0
1,3,709052,248765,1307268,74073,9785,653796,0
1,3,704925,248335,1473357,73859,9063,736685,0
1,3,706960,248634,1329708,74008,8507,664949,0
1,3,707832,248909,1369756,74083,8629,684599,0
1,3,705597,248370,1532800,73863,9746,766366,0
1,3,707925,249091,1515848,74212,9306,758143,0
1,3,713195,250498,1436743,74936,9881,718397,0
1,-1,639798,219801,1383248,66147,8562,691711,0
1,3,704373,248444,1475142,73919,8980,737566,0
1,3,706687,248463,1468050,73974,9494,733886,0
1,3,738983,259341,1513589,77420,9924,756693,0
1,3,713616,250736,1394074,75027,9508,697051,0
1,3,708634,249573,1472751,74388,9797,736155,0
1,3,709658,248711,1379960,73991,9335,689817,0
1,3,714234,249621,1427073,74236,9633,713593,0
1,-1,638363,218472,1300710,65464,8205,649939,0
1,3,706668,248184,1357748,73778,9351,678799,0
1,3,712568,250227,1487618,74662,9439,743775,0
1,3,707981,247825,1702673,73634,11213,851219,0
1,3,731153,253177,1679289,77238,10504,839591,0
1,3,714869,250206,1477068,74676,9833,738497,0
1,3,712732,249270,1759185,74162,9360,879666,0
1,3,714110,249126,1414036,74123,9746,706998,0
1,3,711284,250802,1415805,74829,9433,707950,0
1,3,709685,249183,1374213,74101,8130,687097,0
1,3,707804,248642,1456273,73921,8157,728220,0
1,3,707776,248937,1536547,74015,8908,768272,0
1,3,713210,250501,1480921,74749,9408,740541,0
1,-1,639673,219053,1232765,65693,8263,616345,0
1,3,709270,249371,1297163,74223,9212,648526,0
1,3,707921,249633,1436892,74244,8480,718509,0
1,3,707892,248435,1363322,73846,8566,681566,0
1,3,713558,250842,1493393,75004,9500,746586,0
1,3,728835,253405,1443456,77294,9546,721726,0
1,3,709926,249175,1329367,74139,8490,664712,0
1,3,733106,253276,1500749,77257,9964,750388,0
1,3,708711,249273,1384551,74209,8730,692429,0
1,3,709624,249703,1413066,74325,8868,705751,0
1,3,710480,249374,1477624,74177,8772,738771,0
1,3,707761,248922,1356637,74015,9128,678325,0
1,3,707431,247892,1411010,73756,8986,705474,0
1,3,711314,249171,1398814,74208,8859,699304,0
1,3,713432,249788,1495793,74345,10119,747874,0
1,3,707691,248903,1337902,74075,8506,668917,0
1,-1,638614,219083,1132185,65710,7453,566191,0
1,3,708351,248048,1436382,73820,9424,718109,0
1,3,713023,248835,1333562,73999,9743,666766,0
1,3,710309,248600,1492887,73908,8547,746464,0
1,3,711613,248850,1489383,74047,9683,744631,0
1,-1,645452,220671,1434846,66448,8936,717375,0
1,3,726285,252712,1464014,77047,9699,732016,0
1,3,709092,248846,1454169,73980,8841,726834,0
1,-1,637399,218089,1244645,65438,7072,622393,0
1,3,707180,249381,1377451,74182,8642,688623,0
1,3,707836,249057,1489510,74063,8941,744795,0
1,3,712115,249311,1495037,74139,9145,747615,0
1,3,707680,248710,1285743,73991,8695,642858,0
1,-1,640804,219008,1331613,65812,7465,665794,0
1,3,714440,251233,1490864,75133,9292,745402,0
1,3,709857,248692,1421234,73934,9311,710616,0
1,3,707168,248713,1367144,73961,8807,683531,0
1,3,730687,253433,1434324,77345,9808,717058,0
1,3,732153,252943,1392656,77187,9891,696312,0
1,3,709048,249160,1379932,73993,8821,689974,0
1,3,705446,248398,1490348,73699,9698,745176,0
1,3,709824,249093,1431867,73895,9370,715723,0
1,3,708106,248536,1527907,73931,8978,763925,0
1,3,713193,249045,1375097,74031,9187,687503,0
1,3,729700,253241,1401902,77247,9111,700844,0
1,3,709528,248985,1371526,74095,8287,685692,0
1,-1,647213,221344,1422792,66891,8319,711235,0
1,3,729787,253782,1402638,77327,8823,701203,0
1,3,707735,249012,1432904,73992,7838,716440,0
1,3,708692,248719,1371777,73854,8434,685881,0
1,3,706446,247546,1339647,73445,8793,669832,0
1,3,710915,249166,1521326,74012,8694,760532,0
1,3,710643,249280,1374785,74152,8272,687403,0
1,3,713177,248977,1447952,73941,9291,723953,0
1,3,706892,249167,1346267,74062,8733,673068,0
1,3,708129,248528,1454252,73730,9516,727083,0
1,3,730517,253605,1423894,77209,9608,711870,0
1,3,708401,248737,1392625,73798,8650,696260,0
1,3,715107,250410,1484607,74619,9395,742194,0
1,3,710221,250497,1410586,74764,9995,705273,0
1,3,717338,251666,1602627,75107,9871,801334,0
1,3,708409,247709,1415164,73486,8727,707483,0
1,-1,634066,218800,1339144,65795,7512,669637,0
1,3,711228,249048,1439937,73856,9225,720181,0
1,3,737599,254748,1409425,78279,10789,704545,0
1,3,711606,248532,1550512,73825,9472,775282,0
1,3,716564,251405,1493323,74988,9547,746626,0
1,3,710434,249412,1375758,74295,8581,687658,0
1,3,718384,251517,1606777,75132,9968,803320,0
1,3,711520,248833,1362877,74016,9435,681378,0
1,3,714880,249475,1446771,74290,9370,723326,0
1,3,715050,250246,1555502,74432,8559,777696,0
1,3,714860,249881,1575995,74172,10063,787959,0
1,3,718939,250726,1422542,74429,9053,711213,0
1,3,720427,251787,1502783,75068,9836,751301,0
1,3,716483,250008,1465719,74389,9954,732867,0
1,-1,635936,218307,1208697,65624,6915,604341,0
1,3,716679,249956,1532427,74142,10308,766193,0
1,3,738286,254353,1442439,77449,10924,721209,0
1,3,719370,249813,1349091,74142,9206,674559,0
1,3,710914,249954,1436690,74140,10782,718480,0
1,3,731077,254212,1366410,77363,10368,683202,0
1,3,711792,250369,1584066,74253,10910,791987,0
1,3,709373,249379,1419270,73995,10145,709648,0
1,3,713240,250053,1487979,74318,9776,744080,0
1,3,714435,250764,1487456,74765,10033,742565,0
1,3,709920,249771,1423034,74213,10134,711563,0
1,-1,637876,219390,1205267,65920,6984,602695,0
1,3,709040,248864,1431337,74039,8901,715686,0
1,3,711702,249514,1484944,74124,9037,742514,0
1,3,711653,248980,1428571,73865,8948,714312,0
1,3,712312,249621,1484256,74077,9729,742230,0
1,3,712240,248819,1460720,73851,10075,729710,0
1,3,714297,249427,1365492,74064,9410,682736,0
1,3,712658,248517,1367009,73892,9502,683540,0
1,3,715079,251469,1485614,75143,10224,742645,0
1,3,713610,250343,1441636,74655,9950,720710,0
1,3,710712,249068,1468133,73999,9738,734078,0
1,-1,634647,218447,1217504,65527,7021,608766,0
1,3,708441,247972,1433488,73559,9776,716730,0
1,3,710840,249331,1428219,74232,9514,714224,0
1,3,710916,249125,1376792,74060,9829,688393,0
1,3,734691,253691,1441358,77382,10196,720758,0
1,3,712564,249216,1355581,74170,9160,677812,0
1,3,712233,249758,1492948,74267,9270,746467,0
1,3,711389,248435,1470938,73845,10039,735557,0
1,-1,639210,219343,1198158,65841,6854,599128,0
1,3,710970,248095,1411523,73566,9597,705636,0
1,3,707545,248722,1338433,73877,9604,670408,0
1,3,730504,253363,1357911,77182,10114,678939,0
1,3,713006,249177,1408733,74088,8850,704353,0
1,3,709139,248689,1442735,73954,9592,721369,0
1,3,709526,247710,1315150,73575,9326,657499,0
1,3,706744,248090,1392242,73715,9883,696153,0
1,3,709373,248357,1697853,73856,10853,848960,0
1,-1,639730,220371,1471548,66571,8053,735788,0
1,3,709210,248430,1434658,73873,9133,717376,0
1,3,710771,248097,1461856,73719,10338,730969,0
1,3,716067,250651,1441486,74811,9764,720818,0
1,3,713003,248205,1434144,73723,10352,717089,0
1,3,714697,249476,1352159,74149,9276,676172,0
1,3,714058,248833,1472075,73891,10116,736036,0
1,3,711637,249568,1467968,74392,9365,733961,0
1,-1,642051,221242,1446893,66832,7246,723310,0
1,3,713864,249055,1312162,74034,9157,656098,0
1,3,712314,248927,1466932,73736,9891,733496,0
1,3,731877,253277,1519156,77002,10592,759545,0
1,3,711671,249010,1391641,73813,9966,695601,0
1,3,712967,248546,1483600,73531,10351,741800,0
1,3,713228,248564,1451764,73566,9978,725896,0
1,3,734426,254037,1628939,77176,10057,814527,0
1,3,717129,250388,1492314,74418,9717,746207,0
1,3,744269,255821,1484340,78258,10349,742123,0
1,-1,644489,220835,1331092,66576,8184,665598,0
1,3,716868,249596,1519850,74026,10045,759971,0
1,3,710472,250204,1541671,74436,10266,770751,0
1,3,706100,248183,1391386,73621,9281,695684,0
1,3,707212,247989,1471656,73571,9700,735877,0
1,3,706505,248013,1445689,73612,9055,722708,0
1,3,706201,248018,1338707,73560,8557,669332,0
1,3,709852,249069,1515262,73930,9970,757593,0
1,3,711078,247983,1381410,73544,9745,690541,0
1,-1,638699,218614,1389591,65643,8425,694748,0
1,3,709206,248790,1430487,73887,8972,715275,0
1,3,709431,248365,1418196,73680,9317,709111,0
1,3,705695,247517,1441110,73335,9366,720515,0
1,-1,637652,218593,1327304,65632,8318,663414,0
1,3,732218,253075,1398675,77034,9844,699215,0
1,3,732912,253478,1556680,77185,10976,778316,0
1,3,714866,249103,1371971,73987,9382,685958,0
1,3,706988,248586,1360325,73816,8823,680090,0
1,3,709577,248523,1523297,73744,9503,761620,0
1,-1,656476,223529,1301139,69086,8945,650515,0
1,3,708040,248477,1396334,73795,9222,697970,0
1,3,715502,250346,1459313,74631,9613,729638,0
1,3,709901,248145,1487528,73591,9088,743723,0
1,3,712528,248423,1496878,73770,9697,748413,0
1,3,710619,248492,1521732,73726,9558,760781,0
1,3,710122,248101,1441515,73610,9290,720714,0
1,3,709900,248348,1394107,73724,10464,697107,0
1,3,712127,248074,1491468,73573,10104,745755,0
1,3,720635,251379,1428429,75028,10163,714303,0
1,3,708187,248491,1359376,73769,8989,679785,0
1,3,705609,247860,1427870,73493,9709,713958,0
1,-1,686418,232443,1338607,71790,9035,669237,0
1,3,712815,248946,1429286,73870,9555,714613,0
1,3,710424,248326,1456993,73709,9130,728322,0
1,3,758375,262254,1553316,79730,10387,776712,0
1,3,712637,248216,1386786,73549,9865,693215,0
1,3,711684,249398,1550138,74042,11040,774852,0
1,3,710165,248423,1477015,73696,9660,738456,0
1,3,711548,248113,1440688,73585,10006,720146,0
1,3,709965,248517,1460595,73789,9107,730334,0
1,3,712252,248158,1593689,73572,10872,796819,0
1,3,713144,248878,1582499,73911,10871,791285,0
1,3,707403,248043,1462923,73575,9650,731491,0
1,3,731589,252737,1474581,76945,9971,737452,0
1,3,711162,248342,1458096,73649,8909,729078,0
1,3,709885,247741,1494108,73463,9446,746903,0
1,3,710787,248166,1488805,73585,10013,744464,0
1,3,712616,248953,1455071,73891,10192,727488,0
1,3,713502,249164,1448622,73880,9267,724202,0
1,3,712804,248888,1514758,73808,9086,757256,0
1,3,715228,248792,1379787,73763,9436,689789,0
1,3,714518,248454,1480467,73667,9176,740220,0
1,3,703636,248441,1436892,73240,8810,718376,0
1,-1,638280,219222,1237805,65927,8217,618675,0
1,3,704598,248795,1447975,73346,8814,723934,0
1,3,724834,253447,1381779,76669,10707,690811,0
1,-1,639954,218995,1332167,65811,7453,666088,0
1,3,704114,247757,1626568,73001,9202,813402,0
1,3,709171,249703,1478210,73848,9760,739121,0
1,3,703604,248464,1335310,73214,8805,667386,0
1,3,708722,249385,1456959,73564,8954,728438,0
1,3,704888,248482,1501001,73347,9822,750537,0
1,-1,639080,218572,1255318,65702,8523,627651,0
1,3,709708,248830,1598783,73416,9981,798779,0
1,3,706882,249930,1403402,73922,8957,701674,0
1,3,707718,249508,1303991,73862,9418,651851,0
1,3,704728,247620,1459539,73075,9683,729800,0
1,3,703165,247529,1353374,73084,9088,676584,0
1,-1,642450,219237,1516166,66017,9819,758119,0
1,3,708806,248313,1384445,73338,9075,692213,0
1,3,709780,248561,1385711,74293,10123,692752,0
1,3,709749,248701,1335107,74295,9159,667528,0
1,3,712689,248273,1574932,74151,10172,786707,0
1,3,710206,248551,1482156,74275,10641,741023,0
1,3,710187,247835,1305517,74038,9231,652767,0
1,3,714219,248767,1512754,74302,10370,756344,0
1,3,707715,248448,1411743,74257,9574,705874,0
1,3,730424,252781,1672723,77468,10679,836321,0
1,3,708056,248719,1449864,74346,9457,724875,0
1,3,710198,248481,1347418,74265,9355,673797,0
1,3,708822,247824,1418333,73988,8766,709137,0
1,3,713376,249585,1439497,74774,8690,719697,0
1,3,709455,248726,1469450,74318,9434,734508,0
1,3,714261,250173,1419677,75054,8921,709763,0
1,3,713923,249698,1358239,74897,9124,679126,0
1,3,708384,248817,1278240,74469,8600,639004,0
1,3,710092,248532,1377856,74282,8857,688879,0
1,3,710339,248259,1451682,74149,9155,725893,0
1,3,709393,248962,1458535,74440,10036,729099,0
1,3,707499,248153,1438790,74144,10348,718679,0
1,-1,637476,218201,1244604,65601,7660,622257,0
1,3,710566,247966,1470786,74038,10326,735388,0
1,3,715960,250612,1474111,75116,10102,737626,0
1,3,711773,248801,1486034,74367,9721,742373,0
1,3,710994,247562,1551723,73963,10075,775835,0
1,3,710761,248281,1444997,74189,9703,722202,0
1,3,715151,250553,1416422,75253,10004,708160,0
1,-1,642088,220328,1274386,66127,7615,637238,0
1,3,711814,248336,1583681,74152,9861,791668,0
1,3,718113,249837,1354493,74876,10144,677123,0
1,3,707808,248533,1495389,74257,10580,747670,0
1,3,706448,248610,1460664,74297,9932,729777,0
1,3,712064,249671,1385495,74763,9418,692798,0
1,3,710355,249306,1409613,74512,9613,704870,0
1,3,712043,248965,1541248,74391,9268,770716,0
1,3,731307,257217,1489815,76858,10259,744964,0
1,3,729390,252523,1638077,77361,10449,819069,0
1,-1,642335,219286,1309730,65910,7834,654957,0
1,3,711493,248931,1429843,74376,9239,714948,0
1,3,729040,252948,1407934,77456,10778,704007,0
1,3,709918,249046,1341849,74463,8668,670964,0
1,3,732808,253172,1574357,77566,10255,787160,0
1,3,713014,249968,1368768,74986,9699,684433,0
1,3,711786,249156,1461719,74424,9670,730572,0
1,3,708595,248594,1451118,74327,9350,725616,0
1,3,732384,252816,1582973,77369,10219,791572,0
1,3,711029,247999,1498847,74014,9276,749485,0
1,3,710201,248018,1391944,74055,8596,696010,0
1,3,710154,248725,1347198,74267,9654,673594,0
1,3,708864,247416,1423802,73907,8274,711948,0
1,3,710664,248418,1435904,74225,9014,717992,0
1,3,712874,249302,1382494,74622,8404,691234,0
1,3,713962,248738,1452447,74343,9833,726191,0
1,3,706831,248116,1476992,74045,9758,738543,0
1,3,706940,247879,1370271,73933,8703,684943,0
1,3,713098,249963,1398231,74934,9262,699145,0
1,3,710809,249072,1428683,74442,9245,714384,0
1,3,715128,249945,1444420,75007,9798,721948,0
1,-1,649001,222463,1877568,67167,10974,938702,0
1,3,728647,252745,1607645,77313,12082,803857,0
1,3,709297,248281,1525198,74082,10127,762483,0
1,3,710992,247966,1363752,73995,9433,681807,0
1,3,711292,248027,1362225,73980,8954,681260,0
1,-1,643572,219498,1222772,65872,8047,611375,0
1,3,714912,248644,1413463,74340,9067,706779,0
1,3,714545,248300,1429947,74203,10093,714943,0
1,3,709942,248164,1390631,74154,9010,695406,0
1,3,709102,248216,1389852,73957,9922,694895,0
1,3,712723,248266,1533614,73979,10462,766693,0
1,3,713688,249805,1528926,74755,10838,764264,0
1,3,711811,248270,1519828,74077,10228,759951,0
1,3,714688,248526,1516113,74238,10021,758087,0
1,3,710144,248091,1537107,74088,9749,768779,0
1,3,713313,248462,1564103,74264,9691,781995,0
1,-1,637978,219287,1330224,65723,8694,665201,0
1,3,713503,249319,1358558,74391,9154,679260,0
1,3,716248,249161,1655120,74330,10958,827474,0
1,3,715578,248775,1421543,74441,10459,710572,0
1,3,707929,249893,1552498,74689,9116,776276,0
1,-1,637707,219019,1365849,65669,7925,682677,0
1,3,728308,253216,1728596,77594,11455,864313,0
1,3,711740,249361,1592387,74556,10486,795759,0
1,3,711060,249017,1342049,74440,8765,671034,0
1,3,710334,249867,1403262,74687,8448,701632,0
1,3,714476,250587,1419743,75098,9953,709945,0
1,3,713963,250339,1475413,74854,8983,737765,0
1,3,709143,248911,1386812,74352,9101,693445,0
1,3,715257,249924,1513124,74850,10196,756532,0
1,3,713719,249381,1394160,74712,10218,697131,0
1,-1,639879,219831,1198692,65937,7319,599159,0
1,3,711804,248674,1544393,74362,9242,771985,0
1,3,715043,249662,1595651,74705,10240,797998,0
1,3,708966,249038,1428797,74330,9291,714250,0
1,3,711618,249022,1491867,74372,10001,744890,0
1,-1,658614,223618,1288074,69030,8449,643906,0
1,3,710263,249062,1507143,74350,9823,753603,0
1,3,711508,249137,1375348,74477,9042,687715,0
1,3,717692,250894,1427687,75255,9531,713886,0
1,3,716814,251149,1342816,75406,10321,671474,0
1,3,715776,250677,1421358,75152,9167,709678,0
1,3,714495,249098,1469672,74377,9227,734198,0
1,3,714189,249261,1526904,74463,10342,763264,0
1,3,715872,249660,1294321,74656,9365,647176,0
1,3,716022,249234,1495337,74387,10658,747635,0
1,-1,636468,218867,1232529,65786,7828,616264,0
1,3,710694,249193,1482457,74442,10284,741267,0
1,3,715915,250342,1559856,74960,9242,779878,0
1,3,710972,249550,1465943,74486,9578,733021,0
1,3,715847,249502,1466300,74396,9635,733184,0
1,3,712797,249697,1419056,74459,9023,709552,0
1,-1,641179,219431,1210797,65935,8096,605351,0
1,3,713914,248858,1327862,74090,9226,663896,0
1,3,713597,249458,1492159,74390,9558,746060,0
1,3,713970,249370,1571317,74423,10093,785695,0
1,3,712391,248247,1449236,73947,9838,724669,0
1,3,709579,248506,1347815,74079,8556,673820,0
1,3,712736,248914,1467082,74215,8554,733582,0
1,3,713291,248703,1440290,74163,8385,720258,0
1,3,711930,248930,1445396,74322,9780,722728,0
1,3,718790,251169,1363158,75297,8968,681502,0
1,3,712843,249788,1402074,74590,9683,701075,0
1,-1,640315,218759,1326869,65676,8504,663393,0
1,3,714764,249248,1600867,74406,10484,800057,0
1,3,714450,248747,1656271,74210,10550,828178,0
1,3,718239,250120,1481154,74904,9537,740457,0
1,3,714835,248565,1448151,74167,10084,724287,0
1,3,705713,248571,1549532,74150,9677,774810,0
1,3,710036,248861,1563621,74247,9642,781869,0
1,3,709975,249218,1460960,74356,10056,730529,0
1,3,711973,249145,1427236,74389,9494,713663,0
1,3,712853,250411,1433143,75045,9933,716612,0
1,3,735773,253853,1575200,77663,11272,787558,0
1,3,715104,249976,1357004,74661,9228,678780,0
1,3,714187,250073,1555477,74715,9408,777768,0
1,3,735804,254896,1718343,78016,11100,859077,0
1,3,713579,249323,1365138,74378,9682,682578,0
1,3,715843,249049,1424318,74407,9389,712124,0
1,-1,644519,221151,1281667,66771,8549,640821,0
1,3,736083,254700,1529946,78043,10070,764989,0
1,3,710004,248647,1424676,74263,9547,712324,0
1,3,712967,248800,1433011,74319,9645,716486,0
1,3,716110,249480,1376858,74593,9038,688418,0
1,3,715074,249875,1328760,74702,9483,664356,0
1,3,716719,250148,1354071,74693,9252,677052,0
1,3,735279,253674,1622026,77704,9846,811113,0
1,3,711778,248835,1359887,74199,9394,679897,0
1,3,716194,249712,1394486,74548,9600,697042,0
1,3,717759,250194,1389269,74901,9083,694479,0
1,3,714459,249357,1382592,74423,9123,691301,0
1,3,715172,249182,1406473,74404,10389,703178,0
1,3,715519,249097,1452702,74240,10822,726409,0
1,3,719978,249818,1355198,74719,9655,677517,0
1,3,708336,248301,1335604,74006,9332,667839,0
1,3,712482,249274,1325059,74331,8988,662567,0
1,-1,636787,218215,1335664,65558,7931,667879,0
1,3,708999,248767,1385291,74214,9410,692639,0
1,3,713091,248491,1287055,74020,8668,643506,0
1,3,713046,248698,1332316,74182,8427,666187,0
1,3,711658,248307,1372948,74007,9705,686539,0
1,3,743551,259090,1418915,77493,10196,709516,0
1,3,709348,247616,1336957,73767,9316,668504,0
1,3,713775,248663,1296694,74129,9627,648326,0
1,3,714119,248677,1367380,74262,8784,683521,0
1,3,714270,248126,1317922,74100,10055,658989,0
1,3,710752,248411,1382072,74157,8457,691075,0
1,3,735402,253817,1647943,77764,10193,823959,0
1,3,735013,253664,1508239,77807,9872,754144,0
1,3,711506,247488,1410876,74024,8834,705243,0
1,3,733440,252797,1569859,77600,10069,784901,0
1,-1,646369,220608,1289895,66660,8868,644891,0
1,3,716738,249797,1433697,74999,9549,716905,0
1,3,716750,249516,1442092,74940,9480,720973,0
1,3,713478,248718,1464745,74498,9273,732416,0
1,3,714842,247880,1486631,74214,9776,743350,0
1,3,703516,248253,1489700,74278,8690,744880,0
1,3,705035,248319,1321085,74326,9053,660591,0
1,3,706587,247527,1346591,74011,8571,673311,0
1,3,706873,248308,1285346,74329,8864,642775,0
1,3,710274,248806,1390687,74501,8895,695382,0
1,3,707544,248889,1412193,74668,8408,706171,0
1,-1,641330,219452,1299812,66104,8394,649936,0
1,3,707582,247821,1381617,74158,8939,690773,0
1,3,707950,247948,1383977,74154,8814,692202,0
1,3,710480,247806,1449199,74123,10603,724656,0
1,3,707091,247181,1541065,73968,9908,770577,0
1,3,708111,247979,1469588,74226,9275,734893,0
1,3,707996,247606,1445360,74086,9110,722824,0
1,-1,640824,218638,1266295,65681,7399,633014,0
1,3,728669,252470,1591855,77365,11097,795894,0
1,3,707006,247818,1404144,74005,9316,702019,0
1,3,707595,247710,1428213,73936,9988,714105,0
1,3,708359,247550,1576738,73868,10139,788175,0
1,3,713575,249619,1435239,74822,10327,717686,0
2,3,779945,270786,1560951,81897,10565,780479,0
2,3,765846,268513,1746014,79529,12340,873002,0
2,3,770243,268786,1499354,79709,10986,749509,0
2,3,759663,266506,1365437,78753,9065,682622,0
2,3,760580,266365,1474817,78703,9524,737555,0
2,3,766375,268657,1533269,79669,9619,766718,0
2,3,768478,268530,1550062,79601,9687,775091,0
2,3,767055,269434,1539590,79928,9451,769866,0
2,-1,695196,238955,1374539,71452,8934,687194,0
2,3,783955,271096,1478337,82021,11417,739131,0
2,3,742693,260395,1457414,76853,9337,728562,0
2,3,706309,247972,1568132,73709,9161,784100,0
2,3,705524,248098,1448809,73595,9180,724428,0
2,3,708653,248445,1416282,73711,9152,708213,0
2,3,711187,249349,1577976,74188,10277,789245,0
2,3,710837,249745,1526148,74441,9773,762799,0
2,3,708239,248137,1542004,73606,8806,770760,0
2,3,716649,250880,1632616,74806,10571,816167,0
2,3,708724,249139,1465953,74176,9968,732979,0
2,3,707141,247835,1314262,73592,9180,657106,0
2,3,708151,248248,1372701,73730,9100,686455,0
2,3,710364,248420,1490877,73771,9884,745524,0
2,3,710577,247807,1336347,73568,9109,668248,0
2,3,731021,252857,1485840,77110,10248,742942,0
2,3,710757,247988,1399285,73737,10076,699399,0
2,3,711955,248269,1444658,73851,9394,722308,0
2,3,703322,248370,1389021,73921,8644,694554,0
2,3,707031,248857,1426486,74036,9128,713272,0
2,3,725493,252803,1499201,77079,9554,749587,0
2,-1,690323,238022,1298102,70970,9025,649117,0
2,3,707983,248630,1340759,73909,8611,670263,0
2,3,703910,247795,1320550,73642,8557,660312,0
2,3,708606,248560,1449219,73899,8759,724455,0
2,3,705895,249367,1517079,74153,9283,758526,0
2,3,704995,247979,1536478,73688,8824,768288,0
2,3,705891,247600,1418170,73611,8489,709105,0
2,-1,692733,236876,1327054,70582,8130,663583,0
2,3,706491,248649,1526863,73857,9622,763353,0
2,3,707949,248253,1409382,73803,9615,703963,0
2,3,711180,248358,1460704,73766,9958,730227,0
2,3,703902,248113,1477311,73805,9389,738641,0
2,3,706172,247969,1266958,73815,8787,633457,0
2,3,705708,247896,1432731,73707,9196,716296,0
2,3,708048,248060,1506559,73801,10048,753190,0
2,3,710448,248892,1622215,73945,11022,810729,0
2,3,709877,249116,1475907,74079,9912,737851,0
2,-1,689392,236633,1274649,70496,7102,637413,0
2,3,714602,248847,1420400,74066,10681,710190,0
2,3,710263,248949,1322805,74089,9656,661316,0
2,3,708704,248671,1389568,73790,8964,694399,0
2,3,710922,248967,2041403,74017,11626,1020279,0
2,3,711395,248738,1516154,73839,9152,757848,0
2,-1,637102,218691,1265826,65846,7850,632881,2
2,3,711180,248688,1445383,73865,9498,722678,0
2,3,719132,250899,1507338,74689,10117,753671,0
2,-1,638192,218444,1333754,65663,7689,666732,0
2,3,731710,253837,1479037,77273,10171,739435,0
2,3,711796,249652,1484892,74183,9774,742246,0
2,3,710066,248816,1885522,73903,12765,942756,0
2,3,729922,253124,1498316,77151,10573,749051,0
2,3,710996,248734,1429756,73955,9814,714588,0
2,3,708960,249351,1448609,74162,9654,724312,0
2,3,707804,248448,1477605,73821,9898,738674,0
2,3,733896,253417,1405708,77376,10750,702900,0
2,3,710869,248935,1375329,74168,10582,687402,0
2,3,709433,248521,1502646,73995,9625,751086,0
2,3,730782,252991,1639615,77278,10026,819628,0
2,3,714728,248214,1523682,73918,9391,761960,0
2,3,708650,248489,1519641,74001,9234,759865,0
2,-1,636131,218747,1272161,65549,7714,636151,0
2,3,708967,248515,1385945,74028,9120,692865,0
2,3,711417,248583,1458220,74040,10950,729147,0
2,3,708983,248568,1434408,74083,9603,717129,0
2,3,710499,248590,1373266,74025,8653,686583,0
2,3,713408,248875,1383830,74049,9349,691861,0
2,3,711569,249197,1406179,74234,9706,703020,0
2,3,710118,247882,1480098,73856,10480,739977,0
2,3,711296,248289,1366989,73960,9689,683565,0
2,-1,637001,218508,1306397,65522,8340,653281,0
2,3,713211,248553,1376900,73927,9203,688401,0
2,3,704244,249287,1292886,74244,8942,646242,0
2,3,703600,248386,1472529,73970,9294,736083,0
2,3,705215,248301,1498579,73888,9925,749248,0
2,3,730936,253532,1489513,77412,11081,744622,0
2,3,708318,248794,1416438,74044,9910,708276,0
2,3,707549,249262,1491090,74291,9409,745428,0
2,3,724798,252981,1499357,77254,10144,749652,0
2,3,726381,253205,1569855,77326,9925,784906,0
2,3,708285,248712,1417961,74096,9554,708916,0
2,3,703790,248146,1430398,73892,9051,715216,0
2,3,706963,248368,1476917,73885,9600,738472,0
2,-1,640512,219290,1337394,65790,7763,668724,0
2,3,708933,248680,1796103,74080,11457,897974,0
2,3,704689,248287,1383316,73866,9215,691697,0
2,3,705767,248167,1438154,73828,9287,719698,0
2,3,705256,248200,1415136,73831,9322,707438,0
2,3,727836,252837,1467337,77140,9870,733542,0
2,3,705811,248763,1517049,73935,10188,758562,0
2,3,709194,248814,1480206,73967,9107,740155,0
2,-1,644688,220881,1458377,66611,8671,729190,0
2,3,729562,253267,1370522,77329,9062,685301,0
2,3,709943,249405,1370471,74136,9138,685252,0
2,3,709660,249707,1440433,74312,9179,720094,0
2,3,715697,251180,1550454,75108,10298,775130,0
2,3,707504,248519,1398679,73963,8804,699172,0
2,3,709316,248571,1459651,73915,9800,729770,0
2,3,736916,254858,1571506,78280,10684,785522,0
2,-1,638763,218824,1342239,65567,9037,671141,0
2,3,712325,249362,1432345,74237,9681,715527,0
2,3,704490,248608,1483470,73984,9520,741790,0
2,3,706334,248655,1494942,73975,9197,747517,0
2,3,707509,248589,1498361,73919,9254,749221,0
2,3,705575,248731,1476572,74006,8439,738334,0
2,3,709299,249234,1338043,74182,8617,669069,0
2,3,709311,248368,1343780,73775,9053,671932,0
2,3,705593,248731,1480766,73953,8537,740418,0
2,3,707633,248907,1515872,74056,9018,757753,0
2,3,710892,249990,1426121,74595,9251,712965,0
2,3,707754,248889,1470186,74003,9364,735139,0
2,3,707391,248261,1504538,73797,8685,752314,0
2,3,712734,249138,1417281,74141,9112,708626,0
2,3,708132,249170,1411158,74145,9783,705622,0
2,3,709454,249739,1509299,74511,9508,754722,0
2,3,709463,249467,1438764,74117,8295,719388,0
2,3,711711,248715,1342945,74015,9536,671571,0
2,3,709992,248841,1374164,74061,9498,687051,0
2,3,710536,249179,1458372,74111,9047,729214,0
2,3,709091,248276,1539416,73746,8699,769747,0
2,3,711191,249749,1438542,74489,9325,719236,0
2,-1,637937,219066,1271071,65735,7517,635522,0
2,3,710409,248737,1473248,73965,8650,736625,0
2,3,712401,248894,1274212,74094,8737,637045,0
2,3,709542,248560,1278402,73913,8760,639136,0
2,3,713644,249158,1499796,74097,10091,749761,0
2,-1,642808,220669,1329283,66483,8020,664633,0
2,3,710939,250990,1470700,74958,9337,735227,0
2,-1,639416,219176,1296975,65845,7226,648242,0
2,3,710427,249682,1410498,74315,8941,705432,0
2,3,708426,249236,1449872,74130,8935,724867,0
2,3,708105,247954,1374085,73782,8602,687088,0
2,3,709590,248496,1362648,73888,8494,681293,0
2,3,706258,248711,1419298,73966,8912,709619,0
2,-1,639788,218915,1466841,65753,7572,732701,0
2,3,727962,253250,1457047,77225,9357,728427,0
2,3,713220,250471,1465818,74692,9664,732857,0
2,3,707227,248163,1444766,73753,8798,722112,0
2,3,709244,248999,1447565,74097,9169,723693,0
2,3,709600,248793,1366011,73939,8338,682858,0
2,3,717048,250393,1438844,74601,9993,719652,0
2,3,711406,249994,1430417,74265,9594,715081,0
2,3,709100,249286,1547515,74085,9090,773388,0
2,3,707908,248747,1487076,73851,8999,743524,0
2,-1,645112,220851,1290140,66600,8037,645114,0
2,3,714091,250159,1463465,74662,9688,731755,0
2,3,710095,249471,1401429,74213,8572,700714,0
2,3,710786,248841,1344929,74060,8639,672369,0
2,3,710176,248753,1396489,74036,9135,698238,0
2,3,711913,249299,1465388,73965,8482,732643,0
2,3,707966,248399,1481217,73696,8539,740461,0
2,3,711421,248919,1448990,73847,8598,724566,0
2,3,710633,249385,1472971,74014,9200,736541,0
2,3,712237,249185,1438649,74098,9163,719287,0
2,3,714327,249669,1342303,74156,8961,671117,0
2,3,725875,253418,1463192,77208,9189,731514,0
2,3,730757,253615,1362135,77278,10083,680844,0
2,3,708205,249125,1436735,73936,9084,718359,0
2,3,709350,249198,1471320,74024,8841,735508,0
2,3,711042,248683,1470769,73817,9776,735350,0
2,3,735552,253635,1392925,77318,10103,696315,0
2,3,732106,253795,1388639,77295,9797,694346,0
2,-1,633901,218628,1272508,65732,7211,636302,0
2,3,713690,249549,1458168,74118,9883,729140,0
2,3,730881,253511,1422202,77214,9212,711078,0
2,3,712413,249225,1358323,74161,9627,679183,0
2,3,715448,250400,1469761,74656,9689,734885,0
2,3,708664,249065,1344182,74065,9527,672148,0
2,3,716595,250559,1372726,74659,9059,686337,0
2,3,736057,254521,1483950,77663,10056,742003,0
2,3,714989,249516,1376233,74256,9901,688123,0
2,3,712041,248864,1465920,74037,9737,732968,0
2,3,714857,249503,1488455,74289,9018,744185,0
2,-1,635810,218463,1301049,65565,7926,650576,0
2,3,713296,249814,1573775,74169,8957,787042,0
2,3,714983,249510,1494956,74006,9751,747489,0
2,3,714605,249906,1429558,74112,8958,714751,0
2,3,717760,250296,1329707,74304,9225,664733,0
2,3,717172,250230,1329824,74369,9404,664908,0
2,3,716674,250188,1457679,74287,9891,728551,0
2,3,722557,251468,1473358,74969,10306,736645,0
2,3,710333,249955,1479656,74157,10129,739939,0
2,3,711059,250262,1462388,74291,10702,731230,0
2,3,712626,249999,1509612,74233,10128,754730,0
2,3,713792,251642,1499714,75056,9771,749705,0
2,3,710653,249371,1364929,74031,8585,682504,0
2,-1,635138,219186,1297042,65844,6943,648166,0
2,3,714507,250471,1345042,74454,9186,672494,0
2,3,711319,250746,1460227,74721,10261,730045,0
2,3,709749,249233,1497368,74074,9695,748722,0
2,3,715988,251097,1460208,74964,9138,730170,0
2,-1,639952,219615,1648617,65988,9080,824347,0
2,3,714679,250357,1531313,74574,9309,765743,0
2,3,712548,249899,1334244,74263,8674,667127,0
2,3,712184,249703,1444800,74132,8809,722488,0
2,3,715142,250313,1381346,74585,10696,690541,0
2,3,713948,249296,1444931,74065,9616,722539,0
2,3,729670,253753,1438712,77348,10287,719339,0
2,3,709506,249207,1537458,74033,9649,768483,0
2,3,728449,253354,1382547,77221,9977,691300,0
2,3,733121,253453,1537696,77273,10973,768896,0
2,3,712191,249560,1337120,74177,8873,668580,0
2,3,707844,248535,1447972,73837,9163,723979,0
2,3,708390,248092,1362977,73671,8525,681529,0
2,3,711512,248983,1506579,74070,9442,752532,0
2,3,704620,247132,1445462,73433,9866,722645,0
2,-1,657830,222960,1285451,68829,8798,642724,0
2,3,715152,250315,1443997,74725,10128,721974,0
2,3,734695,254013,1411822,77467,10174,705865,0
2,3,707053,248569,1641623,73783,10365,820773,0
2,3,710434,249724,1332206,74201,9277,666110,0
2,3,711342,249177,1492920,73988,9481,746244,0
2,3,735517,257411,1504233,76426,10251,751986,0
2,3,708599,248132,1477468,73715,9915,738795,0
2,-1,634034,218665,1248291,65669,7448,624239,0
2,3,706742,248258,1717813,73737,10461,858442,0
2,3,706969,247848,1463982,73667,9964,732182,0
2,3,707421,248146,1480226,73735,10108,740136,0
2,3,709962,247864,1559239,73649,10302,779700,0
2,3,709255,248790,1462282,73931,9262,731158,0
2,3,713975,249115,1519950,74026,10577,760024,0
2,3,710508,248278,1509165,73644,9795,754273,0
2,3,712916,248351,1469830,73748,10231,734898,0
2,3,707718,247975,1493138,73629,9822,746567,0
2,3,709165,248877,1366561,73902,8438,683251,0
2,-1,637366,218957,1223191,65837,7249,611638,0
2,3,713653,249964,1503975,74392,10126,751941,0
2,3,740026,258034,1455381,76374,9942,727294,0
2,3,712255,248618,1451564,73693,10462,725803,0
2,-1,659322,223050,1291077,68866,8432,645546,0
2,3,713986,249211,1502456,73780,10521,751083,0
2,3,734417,253590,1406797,77027,10388,703430,0
2,3,712185,249214,1544004,73842,9798,772048,0
2,3,714739,248725,1466681,73578,9851,733086,0
2,3,715566,249289,1460672,73903,9922,730379,0
2,3,718100,250229,1443671,74414,9695,721898,0
2,3,707152,249245,1532477,73953,9439,766168,0
2,3,705603,248638,1538855,73843,9829,769363,0
2,3,708451,248597,1367886,73765,8902,683653,0
2,3,711348,249286,1338442,74037,8836,669191,0
2,3,714742,250387,1487071,74650,9826,743319,0
2,-1,637622,218844,1289544,65754,7549,644583,0
2,3,708619,247418,1416446,73380,9255,708169,0
2,3,710543,248492,1421812,73710,10278,710964,0
2,3,708369,248562,1443830,73805,8905,721918,0
2,3,714306,250617,1413091,74714,9627,706458,0
2,3,712056,248616,1442832,73813,9869,721405,0
2,3,710491,248823,1454125,73871,9060,727055,0
2,-1,640220,219220,1373094,65896,8846,686613,0
2,3,712260,248223,1436957,73677,10672,718381,0
2,3,711799,248316,1384401,73728,9755,691894,0
2,3,713034,250410,1497373,74667,9317,748598,0
2,3,709007,247901,1374256,73523,9109,686964,0
2,-1,645249,220546,1376775,66530,8801,688134,0
2,3,710604,248696,1498071,73850,9559,749143,0
2,3,709427,248507,1384974,73795,9866,692390,0
2,3,711685,248715,1602545,73766,9532,801305,0
2,3,717875,250194,1392914,74510,9668,696429,0
2,3,713305,249694,1381552,74338,8697,690774,0
2,3,732408,253039,1580881,77064,10365,790450,0
2,3,709172,248115,1425916,73567,11097,713022,0
2,3,730071,252552,1500337,76845,10848,749950,0
2,3,711055,248078,1423669,73553,10177,711588,0
2,3,714165,250996,1383075,74790,9607,691553,0
2,3,714562,250197,1381472,74572,9582,690574,0
2,-1,640989,220621,1213434,66603,8041,606740,0
2,3,709293,247635,1492978,73402,9822,746520,0
2,3,708837,248143,1523277,73572,9742,761565,0
2,3,711271,248732,1486168,73821,10213,743067,0
2,3,713137,249159,1509072,73976,10083,754343,0
2,3,714796,250237,1430575,74523,9806,715022,0
2,3,708812,248543,1357936,73837,9204,679064,0
2,3,716728,250532,1373007,74693,9236,686479,0
2,3,710443,248634,1434279,73805,9012,717165,0
2,3,717504,250266,1475194,74498,9690,736650,0
2,3,713385,248573,1398728,73799,9390,698791,0
2,3,715816,248915,1358520,73908,9982,678933,0
2,3,711371,248749,1431824,73782,9771,715867,0
2,3,712608,249110,1589277,73996,10843,794574,0
2,3,716525,250776,1422897,74763,9175,711345,0
2,3,715321,250167,1350520,74576,8984,675237,0
2,3,712965,248425,1507551,73665,9911,753675,0
2,3,713559,249690,1397126,74263,8545,698788,0
2,3,712962,248710,1442477,73694,9547,721222,0
2,-1,641740,220124,1315199,66391,8062,657692,0
2,3,709785,247848,1439537,73407,8647,719520,0
2,3,715825,248934,1414685,73818,8806,707320,0
2,3,702527,248441,1360170,73177,8176,680083,0
2,3,706294,249043,1636275,73396,9168,818143,0
2,-1,642821,220430,1606720,66601,9478,803647,0
2,3,705271,247971,1348700,73042,8279,674293,0
2,3,702203,247653,1689055,72960,10951,844721,0
2,3,708410,249670,1432147,73650,8905,715968,0
2,3,709144,248973,1312361,73430,8464,656080,0
2,3,704799,248054,1506304,73037,9279,753221,0
2,3,707787,249948,1346195,74149,9243,673091,0
2,-1,635633,218465,1231638,65713,7522,615714,0
2,3,708814,249112,1504870,73515,9193,752365,0
2,3,707010,247574,1481022,72996,8739,740391,0
2,3,704944,248213,1344852,73344,9366,672173,0
2,3,704917,248013,1360366,73243,9630,680140,0
2,3,711887,250060,1371118,74222,8787,685508,0
2,-1,639574,218419,1273393,65644,8508,636638,0
2,3,732747,256972,1462258,75862,9348,730888,0
2,3,708941,248531,1451971,74133,9980,725962,0
2,3,729746,253271,1619801,77575,10785,809477,0
2,3,710162,248140,1466740,74136,9558,733321,0
2,3,708352,247543,1369278,73862,9901,684666,0
2,3,710174,248460,1334422,74246,9939,667116,0
2,3,711223,247932,1350005,74068,10495,675121,0
2,3,706384,248329,1347246,74219,9183,673688,0
2,3,708734,248560,1494803,74273,10142,747442,0
2,3,710791,249867,1396001,74904,9385,697956,0
2,3,706868,247766,1348067,73982,9182,674013,0
2,3,708683,248208,1454961,74177,9284,727541,0
2,3,709623,248374,1530503,74216,9141,765173,0
2,3,708474,249041,1359579,74488,9091,679801,0
2,3,708719,248397,1418557,74239,8696,709152,0
2,3,710997,248285,1536958,74134,9589,767813,0
2,3,710888,247954,1353430,74013,9621,676724,0
2,3,707684,248056,1500646,74018,9164,750303,0
2,3,712445,248768,1572292,74304,9632,786162,0
2,3,710821,249306,1312623,74698,8885,656292,0
2,3,706148,248020,1375293,74067,10034,687539,0
2,-1,638902,219280,1221902,65944,7672,610997,0
2,3,710969,248634,1413490,74274,10009,706954,0
2,3,717095,251373,1435942,75521,9266,718292,0
2,3,710595,248429,1726463,74233,10300,862598,0
2,3,712960,248902,1444619,74396,9336,722449,0
2,3,709031,247817,1493275,73984,9991,746367,0
2,-1,663518,224328,1276566,69246,8653,638373,0
2,3,730067,252264,1579590,77225,10535,789708,0
2,3,714198,249272,1410046,74708,9585,705397,0
2,3,713809,249026,1438014,74343,10245,719176,0
2,3,707532,248569,1458992,74209,10855,729543,0
2,3,709730,248490,1554892,74265,10989,777480,0
2,3,712160,249680,1496764,74575,9935,748408,0
2,3,706580,248021,1387165,74106,9388,693631,0
2,3,712048,249434,1389381,74760,8733,694642,0
2,3,713515,249028,1361647,74470,9326,680751,0
2,3,706572,248204,1380594,74097,8759,690349,0
2,-1,640862,219186,1237896,65814,7372,618556,0
2,3,708513,248510,1409430,74249,9084,704748,0
2,3,712956,248562,1321327,74290,9632,660718,0
2,3,710447,248290,1396826,74188,8468,698460,0
2,3,708244,247274,1389018,73910,8877,694531,0
2,3,713244,248647,1449774,74324,8991,724956,0
2,3,708134,248223,1454056,74183,9989,726940,0
2,3,713190,250025,1318113,75027,9487,659039,0
2,3,711053,248416,1441353,74214,8602,720698,0
2,3,714974,250531,1406907,75180,9148,703421,0
2,3,712518,249133,1447704,74461,9943,723837,0
2,3,729518,253007,1404005,77538,10151,702043,0
2,3,712455,249609,1376791,74876,9228,688463,0
2,3,720575,251403,1528469,75569,9337,763875,0
2,3,715801,249477,1428320,74523,9402,714218,0
2,3,717438,249915,1334248,74991,8931,667194,0
2,3,709880,248945,1382529,74410,9411,691271,0
2,-1,641126,219534,1281514,65853,8176,640738,0
2,3,706698,247959,1474155,73943,9131,736988,0
2,3,710104,248093,1621848,74135,10604,810935,0
2,3,714240,249638,1292257,74821,9323,646204,0
2,3,730755,252781,1559702,77438,10776,779897,0
2,3,714172,248961,1620569,74290,10929,810260,0
2,3,711575,248961,1522767,74259,10006,761268,0
2,3,709061,247927,1391509,73931,9042,695751,0
2,-1,664659,224046,1328850,69044,8719,664427,0
2,3,712745,249559,1348839,74769,10307,674236,0
2,3,712389,249113,1500112,74395,9651,750002,0
2,3,714102,248064,1431935,74083,9901,715999,0
2,3,708761,248621,1548914,74314,9969,774621,0
2,3,711657,248287,1391332,74027,8944,695596,0
2,3,715764,250239,1466803,74999,10890,733343,0
2,3,713598,248255,1625132,74078,10777,811869,0
2,3,709950,248383,1395578,74285,9856,697774,0
2,3,712602,248296,1445436,74198,10039,722741,0
2,3,710441,248069,1377235,74061,9363,688461,0
2,3,716084,249959,1497987,74998,10030,748720,0
2,-1,647718,220301,1268770,66107,7767,634410,0
2,3,717785,249403,1441179,74636,9920,720752,0
2,3,711434,247755,1512438,73796,10375,756145,0
2,-1,645573,221425,1674271,66656,10090,836910,0
2,3,712743,248059,1361803,74012,10277,680865,0
2,3,720286,249906,1473629,74969,9864,736820,0
2,3,708019,248938,1559953,74472,9729,780142,0
2,3,711124,249207,1499680,74383,9489,749996,0
2,3,712056,249496,1502219,74609,10007,751151,0
2,3,712569,249493,1484538,74595,9618,742305,0
2,3,711984,248908,1510699,74268,9879,755402,0
2,3,733403,253474,1539425,77593,10336,769735,0
2,3,713722,248971,1505093,74369,9322,752632,0
2,3,743315,260757,1477142,78390,9718,738414,0
2,-1,667030,229241,1355264,68691,7840,677662,0
2,3,713986,249154,1436629,74575,10332,718163,0
2,3,714274,250228,1363057,75055,8577,681567,0
2,3,715113,249858,1484038,74772,8806,742131,0
2,3,711052,249692,1351981,74666,9230,675986,0
2,-1,640590,219561,1425515,65941,7752,712792,0
2,3,732356,253922,1526174,77809,10002,763071,0
2,3,714725,251355,1457980,75468,10027,729366,0
2,3,713492,248833,1531509,74350,10011,765883,0
2,-1,642128,220988,1342221,66592,8737,671144,0
2,3,733775,253508,1616990,77688,10934,808546,0
2,3,711976,249914,1328376,74728,10625,664154,0
2,3,710495,248822,1351051,74283,9316,675486,0
2,3,716130,250628,1412203,75146,9995,706093,0
2,3,718175,250733,1359375,75224,9607,678405,0
2,3,714318,249267,1502171,74490,10400,751044,0
2,3,716445,249615,1484791,74614,11221,742501,0
2,3,711186,249657,1571786,74610,10449,785897,0
2,3,712486,249540,1524507,74504,9214,762213,0
2,3,709510,248982,1347422,74263,9039,673591,0
2,3,714515,249288,1432803,74326,9864,716425,0
2,-1,640125,219272,1206592,65868,8513,602258,0
2,3,713697,249871,1455008,74509,10083,727569,0
2,3,738536,255158,1428974,78017,10624,714589,0
2,3,714551,250370,1595401,74663,10072,797715,0
2,3,740782,255076,1567587,78568,10984,783744,0
2,3,717799,250704,1415304,75123,9702,707728,0
2,3,731299,253825,1651802,77667,9927,825950,0
2,3,717756,251092,1341550,75274,9228,670812,0
2,3,713131,248871,1443512,74260,9526,721715,0
2,3,712739,249800,1341796,74613,8767,670950,0
2,3,716694,250117,1502315,74879,8570,751259,0
2,-1,644268,220645,1409959,66518,8859,705052,0
2,3,716331,249326,1303569,74471,9178,651821,0
2,3,736859,257352,1606387,76747,10376,803234,0
2,3,715271,249043,1646151,74344,10868,823086,0
2,3,716192,249681,1551687,74578,10175,775883,0
2,3,715284,248953,1527453,74254,9833,763764,0
2,3,711897,248250,1537826,74053,9364,768750,0
2,3,709380,248876,1487332,74280,11053,743722,0
2,3,713384,248919,1421262,74326,9849,710670,0
2,3,712120,249458,1509084,74497,9660,754568,0
2,3,711257,248820,1493121,74253,9161,746635,0
2,-1,660464,223695,1345656,69127,9338,672399,0
2,3,712222,248629,1483142,74144,10063,741524,0
2,3,710545,248733,1469602,74168,9523,734853,0
2,3,716874,250262,1515209,74735,9727,757655,0
2,3,711752,248903,1506520,74284,9362,753066,0
2,3,738085,254541,1396181,77859,10628,698406,0
2,3,718723,250162,1348183,75030,9745,673999,0
2,3,711406,249037,1343325,74429,8114,671717,0
2,3,714064,249078,1432289,74475,9221,716000,0
2,3,717749,251343,1390655,75466,9019,695135,0
2,3,715170,249073,1490362,74412,9437,745145,0
2,3,712098,248944,1333947,74387,9562,666944,0
2,3,715004,249505,1461513,74549,9902,730702,0
2,3,717646,249770,1335479,74641,9319,667661,0
2,3,711747,249103,1311987,74338,10026,655926,0
2,-1,642127,219907,1368474,66207,8045,684052,0
2,3,715024,249599,1336714,74457,8883,668352,0
2,3,713065,249590,1302492,74532,8687,651211,0
2,3,710667,248394,1288501,74071,8877,644210,0
2,3,715163,248842,1326165,74305,8888,663053,0
2,3,715718,249010,1424008,74268,9820,711748,0
2,3,719002,249600,1424008,74420,10918,712021,0
2,3,713492,249435,1407874,74417,10099,704013,0
2,3,714896,250615,1317689,75081,9001,658907,0
2,3,713967,248215,1317454,73989,9728,658788,0
2,3,713376,249005,1367230,74301,8580,683679,0
2,3,712401,248528,1312381,74074,8521,656182,0
2,3,712413,248842,1395759,74237,9370,697999,0
2,3,713224,248817,1410141,74233,9418,705080,0
2,3,715586,248803,1311652,74165,9376,655698,0
2,3,719287,251242,1380933,75276,10014,690463,0
2,3,712743,248445,1373295,74103,9187,686695,0
2,3,713370,248180,1431790,74033,9927,715941,0
2,3,708137,248026,1444335,74124,9225,722045,0
2,3,711546,248838,1368019,74339,8835,684031,0
2,-1,640858,218824,1237032,65802,7642,618665,0
2,3,712581,247913,1445102,74122,9145,722570,0
2,3,717057,249969,1407919,75148,9045,704021,0
2,3,711722,248202,1362162,74237,8748,681033,0
2,3,710326,248160,1592768,74241,11286,796032,0
2,3,710145,247952,1353240,74176,8994,676650,0
2,3,712157,248479,1341868,74381,9129,670974,0
2,3,712590,247528,1285687,74030,8871,642886,0
2,3,703483,247654,1569155,74079,9092,784107,0
2,3,704226,247644,1457005,74099,9066,728557,0
2,3,705715,247708,1316006,74108,8426,657968,0
2,3,707649,248056,1351358,74241,9146,675639,0
2,3,730107,253098,1468126,77677,10080,734162,0
2,3,709256,248114,1367805,74267,8405,683967,0
2,-1,644108,221040,1330044,66875,7979,664828,0
2,3,706775,248163,1463767,74233,9195,731730,0
2,3,712091,249616,1482691,75045,9838,741419,0
2,3,710294,248264,1607045,74322,10293,803028,0
2,3,707489,247872,1321650,74196,8517,660874,0
2,3,705458,247331,1348650,73995,8913,674462,0
2,-1,641926,219459,1298373,66108,7666,649132,0
2,3,711502,248361,1317893,74350,8547,658635,0
2,3,706666,248024,1354953,74047,9102,677501,0
2,3,705695,247640,1561494,73926,10265,780628,0
2,3,713123,250302,1462079,75151,10739,731089,0
2,3,709664,248551,1404217,74325,10084,701809,0
2,3,731290,253272,1483031,77553,10251,741643,0
3,3,762776,267417,1491305,79008,9980,745634,0
3,3,764529,267233,1655920,78929,10659,828006,0
3,3,784602,271137,1621360,81988,11094,810608,0
3,3,765944,269017,1530478,79729,9924,765175,0
3,3,767224,269057,1602397,79824,11121,801017,0
3,3,762445,267086,1386015,78904,8882,693024,0
3,3,762454,266561,1487147,78764,9508,743713,0
3,3,782219,270982,1626409,81905,10505,813005,0
3,3,768070,268895,1507731,79632,9228,753879,0
3,-1,691235,237307,1324689,70769,8104,662388,0
3,3,756616,264701,1545129,78088,10492,772429,0
3,3,710828,247964,1374356,73666,9288,687050,0
3,3,706877,248284,1362463,73710,8578,681262,0
3,3,713610,250555,1590917,74666,10612,795333,0
3,3,708011,247913,1437179,73669,10346,718367,0
3,3,726307,252509,1542890,76844,9904,771385,0
3,3,707609,247900,1426229,73523,9486,712808,0
3,-1,692102,237114,1508111,70623,9450,754125,0
3,3,708402,248431,1555280,73731,10601,777626,0
3,3,706213,248390,1408579,73723,9602,704140,0
3,3,713727,251192,1394924,74935,9641,697441,0
3,3,715058,250279,1464635,74549,9836,732312,0
3,3,709002,248120,1407609,73616,8511,703786,0
3,3,710579,248764,1399729,73908,9086,699866,0
3,3,708400,248111,1471759,73763,8429,735795,0
3,3,709117,247765,1327464,73661,9502,663417,0
3,3,711172,248004,1368419,73715,9206,684253,0
3,3,702414,247464,1689309,73573,9919,844674,0
3,3,703207,247515,1293490,73575,8022,646783,0
3,3,703843,248286,1422647,73783,8048,711362,0
3,3,708755,249340,1460633,74335,9421,730325,0
3,3,704671,248000,1493081,73725,8542,746556,0
3,3,706895,248321,1733678,73830,10051,866497,0
3,3,713514,249380,1437006,74243,9560,718054,0
3,3,707144,248236,1433268,73862,8722,716630,0
3,3,706799,247815,1416199,73643,8987,708137,0
3,-1,692110,237357,1405942,70766,8708,702952,0
3,3,706232,247467,1328596,73368,8612,664489,0
3,3,712228,249869,1522482,74500,10296,761293,0
3,3,710759,248731,1580648,73943,9759,790385,0
3,3,703436,247587,1927316,73525,10529,963865,0
3,3,704079,247422,1284487,73550,9028,642158,0
3,-1,688835,237163,1497002,70642,8240,748544,0
3,3,706335,247943,1660649,73787,10255,830005,0
3,3,709856,249359,1397361,74271,9524,698763,0
3,3,713869,250649,1577525,74837,10322,789034,0
3,3,712548,249514,1533420,74421,11013,766905,0
3,3,712206,249423,1534416,74253,11024,767298,0
3,3,712813,250506,1379979,74818,9707,689807,0
3,3,717282,250702,1558443,74762,9877,779470,0
3,3,710122,248255,1524125,73654,9606,762043,0
3,-1,662137,226922,1405306,67947,9389,702685,0
3,3,732857,253253,1521481,77125,10308,760487,0
3,3,709016,248272,1479177,73730,9340,739412,0
3,3,712803,248675,1422505,73779,9856,711085,0
3,3,709043,248662,1399061,73777,9032,699578,0
3,3,709253,248146,1353816,73687,9298,676857,0
3,3,716277,251382,1502519,75088,10162,751064,0
3,3,708196,248817,1445462,73956,9679,722703,0
3,3,710311,248249,1447864,73770,9358,723972,0
3,3,717628,250789,1503984,74893,10724,752105,0
3,3,712809,249684,1426786,74254,9640,713167,0
3,3,712777,249931,1669302,74636,11390,834494,0
3,3,711358,248675,1553385,73995,9877,776627,0
3,3,711421,248717,1466695,74094,10069,733188,0
3,-1,635203,218793,1242100,65629,7618,621009,0
3,3,713534,248791,1985305,74133,12029,992672,0
3,3,713515,249398,1391704,74291,9056,695772,0
3,3,707403,248223,1456247,73905,9194,728164,0
3,3,709544,248119,1542850,73792,9681,771403,0
3,3,711397,249019,1372918,74175,9722,686329,0
3,3,709305,247591,1474596,73643,9109,737361,0
3,3,712337,248765,1625911,74110,10194,813119,0
3,3,712010,248805,1460423,74116,9756,729850,0
3,3,715224,248756,1482377,74060,9695,741232,0
3,3,710078,248265,1427688,73880,9461,712920,0
3,3,716302,250404,1511494,74890,10436,755349,0
3,-1,664500,227999,1249381,68346,7216,624658,0
3,3,712080,248409,1555946,73932,10739,777881,0
3,3,716632,249203,1320555,74216,8908,660297,0
3,3,708009,249948,1521982,74742,10135,760682,0
3,3,708827,249676,1511126,74378,9310,755527,0
3,3,706629,248247,1497738,73941,9748,748895,0
3,3,727640,253179,1437339,77341,10490,718733,0
3,3,710824,249928,1670979,74681,10908,835234,0
3,3,704669,249055,1375484,74187,9117,686930,0
3,3,708622,248883,1488944,74122,9128,743779,0
3,3,706590,248186,1499164,73837,9663,749632,0
3,3,714630,250538,1605009,75018,10389,802352,0
3,3,708560,249145,1403507,74199,9553,701644,0
3,-1,636782,218850,1495032,65538,9562,747771,0
3,3,709465,249156,1370997,74157,9034,685580,0
3,3,714967,250204,1481960,74728,10333,740708,0
3,3,707566,249325,1560502,74388,10082,780123,0
3,3,709714,250467,1535599,74900,10528,767816,0
3,3,709418,249082,1634466,74180,10409,817197,0
3,3,709468,249769,1453677,74329,10046,726794,0
3,-1,637981,218579,1359612,65512,8261,679620,0
3,3,708137,248569,1444202,73908,8463,721967,0
3,3,708603,249037,1476480,74036,9465,738194,0
3,3,708802,249500,1453919,74236,8831,726921,0
3,3,706881,248891,1335835,73983,9659,667871,0
3,3,731551,253768,1461483,77425,10043,730597,0
3,3,707271,248952,1373572,74061,9299,686758,0
3,-1,644329,220342,1223647,66123,7738,611870,0
3,3,708560,248568,1427347,73857,9618,713578,0
3,3,708420,248589,1521737,73957,9424,760890,0
3,3,712555,249410,1367819,74241,9168,683936,0
3,3,706899,250063,1361588,74709,9274,680879,0
3,3,704925,248374,1508649,73832,9348,754382,0
3,3,707489,249009,1449527,74028,9038,724818,0
3,3,708405,250240,1499945,74696,9237,750071,0
3,3,711049,250044,1473557,74669,8951,736835,0
3,3,714460,251268,1463055,75090,10043,731582,0
3,3,710336,248804,1451169,74007,9558,725631,0
3,3,706708,248375,1344711,73811,8649,672361,0
3,3,706433,248589,1493547,73904,9229,746811,0
3,3,714043,249642,1591294,74423,10045,795422,0
3,3,709399,249142,1457142,74076,8846,728601,0
3,3,709155,248180,1464548,73783,9397,732317,0
3,3,707679,249178,1517659,74089,9838,758867,0
3,3,708494,248982,1356616,74013,8999,678352,0
3,3,715416,251070,1526706,75037,9976,762724,0
3,3,736603,258396,1449610,76890,9404,724554,0
3,3,714130,250683,1460901,74847,9618,730411,0
3,3,710770,248982,1416821,74101,9217,708498,0
3,3,711870,249281,1485808,74199,8753,742933,0
3,-1,638692,218436,1288689,65435,8303,644235,0
3,3,712903,249081,1453245,74077,9332,726742,0
3,3,708683,248426,1323869,73869,8479,661958,0
3,3,709297,248293,1425544,73760,9629,712704,0
3,3,731200,253812,1343643,77491,9363,671658,0
3,-1,659859,223509,1349965,68982,8573,675010,0
3,3,714689,249790,1526495,74545,10147,763209,0
3,3,716052,249646,1413931,74302,9810,707072,0
3,-1,658019,222954,1353792,68877,8531,676910,0
3,3,709214,249437,1466782,74345,9089,733374,0
3,3,708118,249429,1449722,74126,9130,724882,0
3,3,728415,253217,1413479,77166,9208,706729,0
3,3,710145,249075,1509269,74117,9276,754559,0
3,-1,644440,220652,1341225,66530,7913,670648,0
3,3,706981,249226,1482850,74195,9110,741441,0
3,3,708860,248234,1446831,73766,8911,723305,0
3,3,710120,249256,1337465,74142,8730,668655,0
3,3,715763,250725,1471447,74892,9530,735621,0
3,3,708207,248768,1405812,73962,8669,702945,0
3,3,710352,248842,1382060,74047,8764,691156,0
3,3,712290,248953,1515017,73972,9575,757479,0
3,3,711048,250493,1461022,74650,9467,730618,0
3,-1,638355,218923,1428567,65817,8436,714300,2
3,3,711671,249949,1578000,74430,9721,788986,0
3,3,713203,251127,1464924,74998,9909,732403,0
3,-1,638064,218263,1219991,65544,7654,609931,0
3,3,731018,253499,1504871,77314,10181,752321,0
3,3,707015,248593,1452413,73908,9101,726174,0
3,3,710442,248833,1411746,74010,8525,705886,0
3,3,711149,249127,1465416,74098,9150,732604,0
3,3,708652,249044,1438588,73951,8430,719334,0
3,3,713914,250136,1461170,74311,9260,730497,0
3,3,715103,250546,1543713,74651,8823,771862,0
3,3,712660,248670,1340581,73795,9044,670216,0
3,3,732443,253529,1411261,77153,9610,705644,0
3,-1,637371,221061,1351760,66698,6852,675908,0
3,3,717497,250986,1461415,74898,9050,730628,0
3,3,714520,249329,1455544,74038,9143,727808,0
3,3,707851,248768,1453702,73956,9224,726392,0
3,3,709367,249355,1557870,74035,8884,778809,0
3,3,706915,248430,1361842,73700,8258,680863,0
3,3,709840,248477,1486460,73761,9656,743229,0
3,3,714754,249703,1432850,74218,9482,716238,0
3,3,711004,249587,1335661,74012,8709,667818,0
3,3,711083,249591,1466874,74150,8987,733478,0
3,3,709728,248972,1384606,73847,8275,692343,0
3,3,711306,248591,1465925,73928,8574,732954,0
3,3,713952,249168,1402845,74096,8892,701352,0
3,3,709769,249071,1429183,74008,9312,714651,0
3,3,712805,249484,1486693,74175,9132,743443,0
3,3,714493,250188,1383748,74417,9013,691873,0
3,-1,636271,218333,1399404,65481,6995,699791,0
3,3,713957,249458,1426204,74195,9111,713092,0
3,-1,634110,218774,1271955,65749,7287,636050,2
3,3,718905,251353,1491710,75066,9858,745827,0
3,3,713244,249191,1472249,74115,9809,736174,0
3,3,711477,249440,1472212,73992,9504,736063,0
3,3,714282,249981,1365399,74162,8614,682711,0
3,3,716054,250723,1494231,74430,9409,747121,0
3,3,717296,250439,1377105,74300,9639,688486,0
3,3,735114,254418,1485496,77427,10535,742749,0
3,3,718521,251014,1480280,74761,9930,740104,0
3,3,720557,251231,1488904,74807,10000,744504,0
3,3,712414,250803,1440919,74477,9601,720478,0
3,-1,634218,218888,1302456,65693,7619,651279,0
3,3,710377,250028,1669381,74175,10808,834290,0
3,3,711477,249660,1601613,74040,10241,800731,0
3,3,712155,250040,1492106,74238,10289,746081,0
3,3,738348,259206,1456478,76966,9269,727972,0
3,3,717414,251450,1601160,74993,9846,800427,0
3,3,714006,249687,1309614,74218,9161,654859,0
3,3,734340,255109,1418750,77798,9817,709419,0
3,-1,657753,223077,1252764,69019,8012,626152,0
3,3,734213,254836,1503480,77696,9816,751685,0
3,3,711899,249933,1392352,74238,8642,696282,0
3,3,709367,248970,1457067,73851,9384,728517,0
3,3,712593,249167,1476979,73925,9855,738544,0
3,3,713966,250183,1396553,74287,10590,698216,0
3,3,715942,250721,1563234,74821,9870,781295,0
3,3,707093,249344,1456589,74156,9550,728308,0
3,3,706961,248370,1433283,73788,8976,716774,0
3,3,711842,249309,1466779,74070,9383,733612,0
3,3,709381,248310,1373318,73752,9248,686622,0
3,3,734357,257775,1429802,76547,9862,714581,0
3,-1,636800,218457,1466475,65576,8307,733225,0
3,3,713677,248607,1477005,73848,9787,738439,0
3,3,710609,248655,1466600,73899,9393,733316,0
3,3,710973,248870,1364038,74052,9122,681998,0
3,3,716877,250564,1342470,74858,9978,671140,0
3,3,711323,248404,1450092,73891,9177,724991,0
3,3,711811,249193,1548304,74129,9573,774138,0
3,3,715154,249051,1471230,74013,9919,735610,0
3,3,707683,248718,1491201,73836,9764,745376,0
3,-1,636545,218199,1295020,65496,7539,647511,0
3,3,710154,249250,1499526,74058,9159,749763,0
3,3,708630,248440,1343609,73749,9181,671767,0
3,3,711509,248636,1399165,73923,9670,699637,0
3,3,713173,251083,1462147,75022,10673,730437,0
3,3,712233,249366,1567391,74352,10432,783450,0
3,3,709113,248507,1435166,73907,9960,716413,0
3,3,715192,250461,1575993,74795,9788,788059,0
3,3,711803,249836,1450495,74513,9416,725213,0
3,3,714392,249564,1340262,74166,9142,669993,0
3,3,717152,250613,1556223,74785,10778,778050,0
3,3,716387,250081,1616276,74523,10941,808381,0
3,3,708257,248734,1358969,73892,9121,679534,0
3,-1,636184,218790,1254012,65813,7283,627111,0
3,3,715137,250650,1463833,74729,9312,731934,0
3,-1,635991,218745,1332078,65791,7700,666074,2
3,3,713183,248892,1301530,73850,9607,650721,0
3,3,712193,249047,1461930,73887,9841,730928,0
3,-1,638867,218914,1220692,65750,7828,610246,0
3,3,712800,248789,1597449,73674,9342,798703,0
3,3,712991,249347,1418317,73936,10277,709141,0
3,3,712270,249022,1512365,73799,10593,756190,0
3,3,713368,248653,1356677,73597,9218,678386,0
3,3,708909,247504,1500328,73261,9508,750088,0
3,3,713511,248757,1364807,73605,8619,682465,0
3,3,713650,248642,1498387,73676,9946,749182,0
3,3,709573,249374,1527762,73933,9142,763840,0
3,3,712007,249641,1366004,74093,9850,682787,0
3,3,713457,250674,1486201,74770,9567,742948,0
3,-1,642557,221156,1361263,66666,7897,680631,0
3,3,705905,248198,1377656,73697,9053,688824,0
3,3,730238,252837,1528940,76966,9613,764363,0
3,3,713278,250239,1454302,74509,9212,727016,0
3,3,719455,251634,1468447,75107,10189,734092,0
3,3,706974,248214,1335726,73610,8862,667871,0
3,-1,635847,218786,1215904,65690,7494,608030,2
3,3,708027,248472,1457702,73703,9225,728806,0
3,3,710177,248328,1553401,73696,10034,776702,0
3,-1,637432,218417,1641155,65625,10075,820580,0
3,3,708561,248423,1460660,73704,9463,730352,0
3,3,711828,249259,1326286,73952,9630,663012,0
3,3,711517,248117,1535480,73590,10375,767770,0
3,3,729729,253654,1404466,77251,9875,702239,0
3,3,710273,248919,1393770,73922,8767,696931,0
3,-1,636163,218018,1197240,65377,6947,598664,0
3,3,710895,248177,1365510,73628,8955,682737,0
3,3,713239,249775,1406379,74377,9879,703375,0
3,3,712466,248787,1404491,73871,9786,702216,0
3,3,710318,247607,1458606,73391,9900,729175,0
3,3,715629,251390,1403326,74996,9173,701652,0
3,3,710964,248187,1491475,73682,10104,745865,0
3,3,710913,248450,1347089,73733,10321,673355,0
3,3,712393,248472,1511131,73775,10404,755595,0
3,3,711549,248506,1499014,73750,10512,749432,0
3,3,705774,248687,1400051,73837,8855,699968,0
3,3,708056,248436,1564748,73745,9998,782462,0
3,-1,636110,219041,1185353,65813,7569,592656,0
3,3,712518,249051,1359866,73935,9439,679968,0
3,3,708910,248335,1474120,73689,9546,737113,0
3,3,715840,249945,1412122,74415,9544,705931,0
3,3,708816,247824,1458226,73497,9986,728827,0
3,3,713011,250476,1376454,74645,9451,688310,0
3,3,712311,248191,1471459,73614,9801,735875,0
3,3,715734,250514,1422933,74580,9493,711228,0
3,3,713761,248626,1488322,73824,9691,744185,0
3,3,711067,248070,1537210,73583,10379,767702,0
3,3,720238,251405,1508853,75035,11062,753378,0
3,3,714222,248542,1402316,73789,10661,701222,0
3,3,708944,248401,1441915,73751,8596,721731,0
3,3,709373,248261,1460148,73642,9323,730011,0
3,3,732729,252993,1504257,76931,10316,751994,0
3,3,707674,247698,1397509,73464,8635,698729,0
3,-1,636182,218390,1239542,65662,8204,619677,0
3,3,735141,254468,1410062,77474,10479,705039,0
3,3,713440,248256,1469476,73631,10007,734156,0
3,3,731886,252832,1542528,76877,9949,771317,0
3,3,718694,249916,1419455,74341,9475,709846,0
3,3,713769,248330,1355911,73648,8045,677848,0
3,3,714853,248776,1440948,73702,7459,720070,0
3,3,702254,248020,1455196,73068,8695,727677,0
3,-1,659338,223309,1361020,69046,8583,680253,0
3,3,704466,248485,1465956,73186,8946,732908,0
3,3,703891,248114,1311634,73077,9097,655722,0
3,3,727259,253118,1544863,76542,10384,772337,0
3,3,710094,249786,1309271,73886,8404,654540,0
3,3,706394,248946,1462014,73461,9310,730892,0
3,3,709149,249154,1478737,73516,9077,739339,0
3,-1,634054,218209,1260325,65591,7704,630219,0
3,3,707631,248852,1406227,73457,9458,702592,0
3,3,714450,251038,1376930,74414,8975,688577,0
3,3,704721,248733,1313267,73387,8392,656695,0
3,3,702559,247364,1462044,72947,9696,731040,0
3,3,705697,247950,1408252,73221,8859,704118,0
3,-1,661511,223851,1317340,69282,8563,658604,0
3,3,729848,252823,1561196,76642,9931,780570,0
3,3,703676,248149,1457327,73314,9348,728706,0
3,3,710808,249324,1472026,74516,10084,736059,0
3,3,712914,249485,1395541,74782,9361,697679,0
3,3,712176,249744,1434060,74844,9706,716926,0
3,3,710851,248022,1420069,74013,9759,710040,0
3,3,712136,248901,1368747,74301,10500,684299,0
3,3,705274,248631,1457553,74322,8687,728810,0
3,3,707025,247702,1465573,73973,9875,732787,0
3,3,705560,248194,1412838,74182,8960,706441,0
3,3,730314,253299,1527385,77567,10086,763655,0
3,3,707143,248056,1345509,74100,8997,672721,0
3,3,709040,248150,1529131,74054,9340,764573,0
3,3,710852,250243,1376385,75114,9013,687988,0
3,3,709752,249343,1470363,74670,9505,735189,0
3,3,706907,247797,1442682,74019,9691,721403,0
3,3,710626,248250,1284374,74186,9391,642073,0
3,-1,645681,220309,1222303,66283,8118,611127,0
3,3,714629,250119,1383481,75115,8776,691526,0
3,3,711127,248694,1491715,74621,9284,745781,0
3,3,706938,248096,1450565,74124,9315,725214,0
3,3,713989,250336,1379272,75106,9167,689587,0
3,3,730501,253121,1577262,77564,11121,788644,0
3,3,728600,252557,1522324,77386,10474,761057,0
3,3,710733,247950,1564493,74025,9844,782394,0
3,-1,639570,218708,1468340,65691,8822,734313,0
3,3,706416,247650,1353200,73937,9624,676639,0
3,-1,640515,219618,1296511,65955,7007,648323,2
3,3,712178,249312,1431097,74705,9925,715250,0
3,3,712469,248377,1516044,74212,9970,758048,0
3,3,710425,248168,1454603,74160,9713,727144,0
3,3,711495,248077,1301448,74075,10137,650957,0
3,3,708415,249411,1353923,74711,9962,677029,0
3,3,708320,248450,1607075,74174,11332,803530,0
3,3,711659,249809,1351634,74970,9552,675808,0
3,3,727004,253000,1434213,77502,9866,717175,0
3,3,729296,252413,1501700,77330,10085,750867,0
3,-1,644660,220561,1424582,66526,7563,712277,0
3,3,714731,250198,1389715,75092,9031,694883,0
3,3,708266,248597,1460057,74310,10202,730064,0
3,3,708109,248270,1423561,74193,9754,711810,0
3,3,711032,248907,1352684,74355,9729,676365,0
3,3,711068,248776,1341117,74305,8252,670582,0
3,3,710872,248338,1493817,74211,9112,746955,0
3,3,712595,248144,1378988,74060,8896,689509,0
3,3,706821,247729,1474979,73982,8863,737481,0
3,3,706080,247899,1445382,74090,10810,722477,0
3,3,710641,248435,1357356,74189,8368,678170,0
3,3,708615,248304,1474533,74176,9497,737371,0
3,3,714095,249908,1417400,74929,9466,708670,0
3,3,710503,247817,1439429,73971,9302,719738,0
3,3,712312,248544,1378078,74235,8942,689041,0
3,3,711086,248090,1405183,74125,8599,702365,0
3,3,715167,249551,1406102,74832,8839,703107,0
3,3,734357,252985,1551351,77542,10191,775645,0
3,-1,641265,219633,1253416,65907,7938,626508,0
3,3,711764,250114,1351212,75059,9691,675612,0
3,3,708946,248276,1484436,74139,10107,742205,0
3,3,731111,252885,1529545,77475,10083,764725,0
3,3,711503,248427,1319497,74190,9227,659729,0
3,3,710298,248280,1475612,74204,9610,737763,0
3,3,710984,248695,1360943,74258,9810,680605,0
3,3,709826,248498,1481247,74063,8895,740519,0
3,-1,642684,219136,1264761,65799,7931,632405,0
3,3,733317,253316,1618629,77562,10797,809324,0
3,3,712442,247730,1279182,73908,8816,639440,0
3,3,712987,248242,1459688,74159,9896,729391,0
3,-1,649917,222436,1277450,67045,8467,638694,2
3,3,712321,247889,1420841,74031,9495,710305,0
3,3,713662,249343,1348793,74717,9466,674416,0
3,3,715830,250401,1420012,75063,9572,709478,0
3,3,714525,249491,1458959,74384,9547,729541,0
3,3,710805,247551,1402483,73792,9799,700963,0
3,-1,645315,219447,1358612,65790,8672,679291,0
3,3,713631,249101,1417793,74578,10203,708885,0
3,3,718774,250526,1476072,75099,10508,738066,0
3,3,735490,252738,1585176,77439,11669,792372,0
3,3,732576,252826,1604296,77446,10758,802273,0
3,3,713653,248218,1556793,73990,10106,777924,0
3,-1,639020,219367,1506976,65842,10397,752527,0
3,3,717562,250449,1508769,75064,10722,754260,0
3,3,716547,249329,1590161,74707,10336,795061,0
3,3,736625,252928,1680085,77537,11250,839649,0
3,-1,639662,220229,1299624,66116,7684,649413,2
3,3,707333,248745,1539997,74347,10241,769980,0
3,3,709110,248711,1588205,74292,10682,794130,0
3,3,709925,249246,1475911,74601,10059,737971,0
3,3,714872,250190,1421109,75012,9713,710459,0
3,3,709872,249154,1391747,74388,9725,695894,0
3,3,712307,249198,1398217,74487,9178,699145,0
3,-1,642102,220313,1338392,66122,8575,669210,0
3,3,713122,249704,1443742,74640,9011,721910,0
3,3,731212,253335,1613470,77689,10493,806812,0
3,3,733311,253819,1730750,77914,11582,865404,0
3,3,731639,253739,1505337,77794,11247,752702,0
3,3,712523,249339,1626078,74570,10309,812968,0
3,3,716851,249415,1562698,74581,10623,781077,0
3,-1,640657,219701,1410091,65954,8964,705157,0
3,3,715588,250535,1303669,75105,9633,651899,0
3,3,715242,250063,1538047,74754,9460,769104,0
3,3,718510,251264,1402703,75428,9582,701657,0
3,-1,642133,219368,1273112,65898,8672,636533,0
3,3,716537,249851,1378275,74710,9000,689178,0
3,3,714879,249171,1582192,74478,10543,791085,0
3,3,712791,250271,1369770,74894,9634,684839,0
3,3,712038,248850,1502647,74346,9839,751441,0
3,3,716151,250404,1400631,74906,9408,700421,0
3,3,713578,248968,1507385,74349,10169,753657,0
3,3,715687,249431,1588931,74500,11430,794170,0
3,3,712501,249700,1645148,74646,9760,822286,0
3,3,715513,251636,1473508,75588,10070,736631,0
3,3,714270,250410,1453730,74815,9394,726877,0
3,-1,660633,223982,1510476,69187,9396,754822,0
3,3,715091,250105,1429494,74573,9311,714771,0
3,3,715092,250615,1540725,74726,9129,770416,0
3,3,712242,248825,1455713,74135,8787,727898,0
3,3,713237,248900,1391648,74150,9155,695867,0
3,3,713626,249496,1380677,74403,8904,690138,0
3,3,735713,254060,1608506,77736,10704,804191,0
3,3,712332,248802,1368538,74196,8324,684315,0
3,-1,641663,219609,1406310,65970,8622,703202,0
3,3,710116,248647,1456525,74146,9271,728304,0
3,3,733154,253577,1534015,77622,9905,767015,0
3,3,711716,249338,1455667,74458,8720,727787,0
3,3,715079,249724,1618713,74599,9538,809393,0
3,3,713705,249382,1443430,74493,9390,722077,0
3,3,712774,249094,1497032,74387,9646,748556,0
3,3,713866,248774,1587866,74205,10544,794129,0
3,-1,639873,219562,1518091,65934,8376,758941,0
3,3,715518,249225,1456763,74349,9312,728109,0
3,3,717692,250409,1408959,75097,9589,704552,0
3,3,722062,250898,1462524,75215,9642,731293,0
3,3,711887,249395,1530439,74462,10662,764904,0
3,-1,637196,219135,1228916,65843,7228,614386,2
3,3,716151,250404,1388257,75005,9757,694046,0
3,3,709553,248483,1535214,74135,10532,766875,0
3,3,713425,249970,1430303,74844,8955,715032,0
3,3,713583,249293,1497002,74465,10329,748412,0
3,3,711610,250112,1328739,74541,9723,664270,0
3,3,715620,249776,1342406,74511,8755,671320,0
3,3,715352,249037,1533859,74283,9741,766953,0
3,3,713316,248669,1721210,74078,10486,860337,0
3,3,714991,249255,1356397,74508,8844,678617,0
3,3,713558,250428,1376713,75053,8956,688367,0
3,3,714509,249648,1451002,74612,8999,725457,0
3,3,734125,253513,1595560,77649,10321,797763,0
3,3,717788,250545,1395717,75122,8648,697604,0
3,3,716218,251048,1331177,75402,9440,665557,0
3,3,734123,253210,1641358,77539,10193,820486,0
3,-1,638680,219279,1391857,66031,9421,695833,0
3,3,715900,249660,1438707,74603,8663,719172,0
3,3,718012,249186,1334902,74362,9228,667323,0
3,3,712951,249221,1413628,74376,9436,706782,0
3,3,715656,248662,1340833,74145,9643,670389,0
3,3,722454,251415,1325489,75348,9534,662589,0
3,3,714524,249455,1378759,74536,9328,689324,0
3,3,715934,248779,1402149,74142,10309,701043,0
3,3,717519,249082,1425974,74297,10971,713012,0
3,3,711297,249513,1281669,74447,9288,640855,0
3,3,714219,249104,1302097,74307,9321,651058,0
3,3,713648,248953,1268391,74286,8884,634243,0
3,3,711643,248420,1394005,73995,9049,697057,0
3,3,734518,253313,1426603,77481,9702,713315,0
3,3,711572,249358,1341887,74400,9298,670998,0
3,3,711692,248524,1327053,74076,9411,663507,0
3,3,736255,253227,1393079,77455,10675,696559,0
3,-1,641516,219543,1325227,66038,8590,662546,0
3,3,712522,248188,1300495,74079,9201,650338,0
3,3,719946,250127,1512546,74906,9748,756052,0
3,3,718987,250430,1473393,75079,9666,736671,0
3,3,716297,251084,1528934,75371,9668,764553,0
3,3,710920,248900,1429287,74501,9086,714718,0
3,3,714060,249523,1463741,74862,8925,731928,0
3,3,710538,248281,1360123,74291,8598,680010,0
3,3,714581,248233,1368266,74304,8632,684178,0
3,3,713953,247984,1429592,74229,9144,715035,0
3,3,710058,247666,1541213,74015,9386,770665,0
3,3,714949,248077,1401164,74276,9518,700582,0
3,3,714036,247536,1394712,74038,9866,697400,0
3,3,725337,251244,1479821,75605,9172,739945,0
3,3,705723,248303,1379987,74321,8743,690000,0
3,3,710877,249897,1406623,75113,8857,703388,0
3,3,706022,247822,1305530,74128,9272,652693,0
3,-1,660933,223772,1312548,69285,8441,656834,0
3,3,710013,248620,1388547,74431,8987,694357,0
3,3,706827,248065,1411265,74251,9869,705669,0
3,3,728928,253635,1542215,77831,10085,771078,0
3,3,706896,248015,1416135,74191,9005,708025,0
3,3,709878,248370,1493371,74360,9081,746804,0
3,-1,641945,219506,1216096,66054,7003,608221,0
3,3,711849,249680,1458969,74936,9038,729516,0
3,3,729627,252145,1584522,77373,10071,792308,0
3,3,713129,249466,1569912,74832,9401,785062,0
3,3,706193,248126,1519059,74143,9916,759581,0
3,3,707944,248334,1644106,74229,10470,821969,0
3,3,706761,247995,1303934,74163,9911,651932,0
3,3,712478,249226,1624122,74704,10416,811936,0
3,3,708594,248456,1753188,74212,10910,876321,0
