0,-1,715173,248122,1283654,73671,7817,641430,0
0,-1,715507,248514,1369181,73814,8368,684180,2
0,-1,719010,248830,1297992,73903,7818,648636,0
0,-1,667439,230591,1221117,69020,8178,610170,0
0,-1,665963,230515,1256818,68760,7073,628102,0
0,-1,669301,230658,1316937,68876,8449,657983,0
0,-1,669878,230574,1182151,68933,7863,590722,0
0,-1,663489,230739,1232161,68952,6685,615661,0
0,-1,670666,232546,1351570,69865,8035,675246,0
0,-1,663656,229506,1323085,68599,7873,661235,0
0,-1,670778,232194,1344231,69597,8879,670725,0
0,-1,667605,231758,1409175,69525,8504,703998,0
0,-1,690824,235443,1339001,72225,9541,669020,0
0,-1,664685,230403,1349566,68712,8275,674789,0
0,-1,671852,232726,1323444,69873,9583,660673,0
0,-1,662146,229242,1254573,68603,7267,626908,0
0,-1,673268,231986,1322456,69708,7566,660759,0
0,-1,666448,230875,1211429,69182,7524,605288,0
0,-1,667990,230633,1322507,69054,7692,660883,0
0,-1,672352,230250,1308548,68937,7305,654023,0
0,-1,666015,230696,1377779,69129,8525,688523,0
0,-1,662536,230626,1306054,69108,7241,652616,0
0,-1,664826,230874,1321023,69134,8862,660114,0
0,-1,665378,230839,1387903,69024,8260,694067,0
0,-1,665512,230900,1401836,69002,9007,700242,0
0,-1,664669,230990,1532740,69153,10491,765887,0
0,-1,662927,230544,1328367,68945,8029,663893,0
0,-1,666025,230381,1401887,68955,7706,700401,0
0,-1,665159,230660,1340125,69020,7975,669590,0
0,-1,669283,231463,1327687,69269,8535,663350,0
0,-1,667735,231031,1404025,69144,7520,701552,0
0,-1,662569,230660,1309482,68931,8139,654354,0
0,-1,666740,231243,1263546,69180,7645,631319,0
0,-1,665779,230704,1352840,69056,8418,675884,0
0,-1,667118,231364,1266677,69201,7664,633001,0
0,-1,669253,232227,1361359,69690,8421,680250,0
0,-1,688995,235086,1310631,72204,8141,654852,0
0,-1,674226,232837,1406906,69793,7888,702849,0
0,-1,668553,230802,1347954,68892,7975,673618,0
0,-1,670609,231196,1462934,69038,8212,731210,0
0,-1,694929,236150,1455708,72422,10627,727337,0
0,-1,669986,231476,1453117,69243,8217,726232,0
0,-1,670967,231914,1317127,69213,7764,658235,0
0,-1,677400,232996,1338597,69751,8726,668773,0
0,-1,670056,231217,1315741,69062,8225,657587,0
0,-1,671332,231432,1337002,69141,8318,668082,0
0,-1,669971,231451,1302899,69204,8171,651099,0
0,-1,667479,230194,1190944,68791,7807,595065,0
0,-1,669642,230800,1239394,69031,7587,619380,0
0,-1,672294,232294,1267853,69638,8066,633352,0
0,-1,664309,229937,1326119,68700,8350,662646,0
0,-1,671599,230676,1264339,68898,8942,631629,0
0,-1,690610,235018,1513166,72089,10282,755908,0
0,-1,668459,231042,1347776,68796,9901,673594,0
0,-1,673255,230522,1310051,68672,7440,654713,0
0,-1,667546,230937,1386165,68951,7795,692778,0
0,-1,687340,235160,1261463,72113,8265,630353,0
0,-1,668264,229626,1269403,68495,8332,634386,0
0,-1,674448,232301,1285916,69634,7948,642431,0
0,-1,690095,235212,1264097,72161,8707,631706,0
0,-1,676787,233027,1353208,69894,9710,676405,0
0,-1,662963,229453,1191164,68407,7023,595023,0
0,-1,668743,230629,1223651,68877,8141,611430,0
0,-1,667454,230527,1375696,68795,7782,687497,0
0,-1,692094,236262,1291465,72500,8329,645348,0
0,-1,671057,230073,1350770,68556,8171,675040,0
0,-1,692721,234515,1371264,71853,8423,685170,0
0,-1,662411,230426,1317134,68307,7705,658092,0
0,-1,658880,229695,1322427,68018,8973,660575,0
0,-1,660736,230304,1188840,68385,8458,593962,0
0,-1,684855,234930,1378003,71688,9270,688755,0
0,-1,666236,230523,1401516,69193,9466,700248,0
0,-1,691387,235451,1374998,72704,9940,687136,0
0,-1,665930,229954,1358923,69044,9207,678862,0
0,-1,686766,234520,1404519,72431,9503,701737,0
0,-1,667368,230156,1315701,69128,8442,657181,0
0,-1,686612,234771,1363173,72518,8606,681089,0
0,-1,666559,229894,1296672,69066,8186,647967,0
0,-1,664682,229909,1208431,69171,7401,603803,0
0,-1,665720,230527,1212608,69280,7643,605882,0
0,-1,685937,234744,1358861,72514,9201,679038,0
0,-1,664923,230361,1226536,69269,8166,612892,0
0,-1,669629,230464,1286745,69290,7684,642962,0
0,-1,670840,231428,1209232,69674,6968,604139,0
0,-1,666706,230538,1375446,69279,7508,687439,0
0,-1,667398,230601,1293722,69273,8160,646502,0
0,-1,669556,230244,1307940,69116,7564,653643,0
0,-1,669722,230162,1343691,69119,8259,671555,0
0,-1,675732,232055,1230482,69918,8450,614713,0
0,-1,691048,235021,1340668,72463,10814,670130,0
0,-1,690312,235977,1404950,72949,11344,701882,0
0,-1,669160,230696,1318132,69310,8084,658711,0
0,-1,670140,231016,1265251,69528,8086,632237,0
0,-1,671367,231957,1343095,69775,9186,671260,0
0,-1,675352,233750,1316602,70568,9230,657773,0
0,-1,667214,231120,1351046,69488,8314,675086,0
0,-1,671769,231244,1343381,69454,8359,671232,0
0,-1,721341,245844,1446167,75642,9648,722636,0
0,-1,675125,231934,1256856,69814,8759,627778,0
0,-1,676297,233187,1272685,70329,8204,635628,0
0,-1,674928,231630,1327645,69607,8556,663424,0
0,-1,670282,232049,1309327,69742,8145,654265,0
0,-1,670242,231492,1540070,69484,9881,769333,0
0,-1,672261,231463,1339929,69518,8811,669380,0
0,-1,665691,229660,1356941,69021,8753,678088,0
0,-1,673540,231184,1363571,69481,8785,681291,0
0,-1,699274,237107,1378835,73141,8958,688939,0
0,-1,667499,230361,1369836,69129,8669,684514,0
0,-1,693070,235689,1399619,72667,9094,699435,0
0,-1,669827,230150,1433871,69038,7945,716338,0
0,-1,671793,229828,1413625,68983,9178,706312,0
0,-1,674145,231874,1340265,70104,8278,669333,0
0,-1,672142,230407,1329375,69406,8644,664320,0
0,-1,659546,229460,1308344,69003,8189,653428,0
0,-1,667580,231274,1322825,69883,8843,660666,0
0,-1,685402,234850,1428019,72646,9378,713516,0
0,-1,664191,230072,1266482,69193,8784,632841,0
1,-1,717724,248982,1262611,73924,7902,630860,0
1,-1,716777,249044,1341845,73952,7710,670524,2
1,-1,688949,239359,1432708,71601,9546,715512,0
1,-1,685466,234693,1368732,71966,8635,684024,0
1,-1,688632,235029,1329191,72069,8963,664289,0
1,-1,667057,229873,1227239,68618,7458,613312,0
1,-1,665711,231560,1304820,69502,7396,651819,0
1,-1,685339,234389,1324766,71937,8826,662008,0
1,-1,666759,229977,1205177,68772,7734,602298,0
1,-1,663247,230114,1201802,68786,7874,600492,0
1,-1,670014,230368,1268360,68858,9475,633880,0
1,-1,670112,231341,1374590,69098,8765,686997,0
1,-1,673657,233135,1507852,69776,9614,753152,0
1,-1,686858,235025,1550581,72162,9876,774369,0
1,-1,667272,230753,1186402,69099,7199,592810,0
1,-1,667424,229897,1280390,68777,7221,639855,0
1,-1,673395,232048,1363731,69723,8368,681375,0
1,-1,669987,230677,1189475,69122,8294,594333,0
1,-1,672367,230519,1272292,69100,7638,635867,0
1,-1,660667,230084,1302131,68881,7852,650668,0
1,-1,671394,232353,1289771,69931,8224,644211,0
1,-1,663340,230794,1197925,69093,7846,598670,0
1,-1,666497,230577,1251535,69002,8211,625048,0
1,-1,666660,231124,1342922,69175,9143,671025,0
1,-1,666923,231108,1305980,69110,8104,652748,0
1,-1,662234,230528,1214377,68937,7603,606809,0
1,-1,669908,231865,1356361,69597,8271,677630,0
1,-1,664340,230363,1343615,68898,7823,671535,0
1,-1,665487,230345,1267290,68871,8505,633231,0
1,-1,670736,232555,1339711,69823,8129,669107,0
1,-1,667603,232687,1337807,69881,8339,668209,0
1,-1,664561,230834,1405321,69044,7796,702334,0
1,-1,667715,231059,1457818,69091,9758,727908,0
1,-1,675150,232659,1352380,69799,8618,675797,0
1,-1,668227,231719,1240121,69358,7489,619735,0
1,-1,670910,231957,1347669,69439,8300,673505,0
1,-1,689785,235409,1434350,72202,8217,716768,0
1,-1,669965,231688,1337742,69235,7455,668430,0
1,-1,672314,232420,1373410,69601,7976,686169,0
1,-1,671842,230842,1368797,68894,8725,684392,0
1,-1,690972,235907,1282346,72489,8744,640774,0
1,-1,674079,233199,1258881,69782,7925,628812,0
1,-1,680084,233849,1340353,70090,8227,669665,0
1,-1,668023,230935,1339254,69035,8149,669301,0
1,-1,670701,231126,1238595,68995,7902,618993,0
1,-1,667381,230577,1228441,68871,7390,613845,0
1,-1,690797,235689,1284644,72332,8464,641952,0
1,-1,667373,230598,1317956,68984,7942,658606,0
1,-1,692882,239495,1287467,71488,8047,643396,0
1,-1,672288,232404,1442066,69774,9011,720013,0
1,-1,669883,230671,1254687,68931,9388,626583,0
1,-1,671297,231771,1480116,69193,8472,739784,0
1,-1,693234,235721,1356775,72158,9829,677891,0
1,-1,696717,236232,1285452,72381,8775,642384,0
1,-1,667705,231620,1291071,69278,7783,644967,0
1,-1,662823,229627,1278357,68466,7237,638875,0
1,-1,670660,230685,1381101,68861,8224,690028,0
1,-1,666063,230054,1287230,68636,7282,643250,0
1,-1,673886,232807,1255139,69703,7368,627044,0
1,-1,667485,229810,1362525,68529,9218,680724,0
1,-1,668457,230337,1194555,68771,7906,596818,0
1,-1,667575,230444,1281688,68768,8386,640390,0
1,-1,665419,230269,1201914,68696,7599,600517,0
1,-1,669856,230163,1321391,68655,8364,660334,0
1,-1,669271,230201,1258233,68625,7427,628723,0
1,-1,674121,231175,1339913,68968,7184,669532,0
1,-1,659296,229473,1325638,67956,7597,662454,0
1,-1,663581,230752,1393110,68395,8581,695217,0
1,-1,660676,230676,1237662,68522,8529,618437,0
1,-1,662291,230179,1288853,68311,8450,644058,0
1,-1,683345,234915,1406102,71643,9494,702752,0
1,-1,667191,229758,1241784,69010,8655,620673,0
1,-1,688600,235099,1468299,72596,10053,733666,0
1,-1,667352,230893,1238489,69361,7848,618812,0
1,-1,668336,230583,1391243,69572,8825,694945,0
1,-1,663722,229660,1186117,68928,7664,592780,0
1,-1,671110,231667,1228313,69863,7785,613477,0
1,-1,675056,231727,1287017,69940,8313,642891,0
1,-1,665258,230812,1336564,69318,7610,667908,0
1,-1,672032,231762,1242817,69903,7682,620986,0
1,-1,665923,230046,1224648,69137,7943,612048,0
1,-1,667862,230130,1240206,69141,7467,619847,0
1,-1,670270,230838,1315040,69385,8114,657167,0
1,-1,667683,230842,1300200,69365,7720,649772,0
1,-1,674402,232231,1244652,70108,7880,621748,0
1,-1,674368,231444,1278079,69516,7787,638704,0
1,-1,669652,230437,1205087,69242,7928,602267,0
1,-1,694051,235147,1340294,72482,9510,669751,0
1,-1,674231,230927,1302196,69320,9708,650247,0
1,-1,669245,231586,1414343,69615,10043,706544,0
1,-1,673234,232477,1351503,70078,7596,675056,0
1,-1,671413,232164,1246552,70074,7855,622654,0
1,-1,669663,231386,1337541,69622,8635,668314,0
1,-1,670366,230875,1408166,69374,9686,703159,0
1,-1,674272,231677,1322296,69690,8302,660717,0
1,-1,670924,231248,1270733,69423,7772,634966,0
1,-1,669748,231545,1334164,69454,7841,666602,0
1,-1,670066,230974,1262357,69303,7805,630783,0
1,-1,691297,235653,1349957,72707,8759,674443,0
1,-1,673242,231299,1329680,69485,8349,664386,0
1,-1,668254,231741,1263682,69744,8578,631222,0
1,-1,669009,231023,1603085,69400,9418,800798,0
1,-1,673677,231426,1374559,69505,9248,686849,0
1,-1,693450,236584,1450344,73082,10231,724582,0
1,-1,672942,231504,1357909,69648,8069,677967,0
1,-1,675351,231723,1324430,69528,7982,661764,0
1,-1,667431,231112,1277637,69369,8576,638253,0
1,-1,671547,232044,1267229,69849,8623,632995,0
1,-1,701551,241296,1449995,72583,8803,724186,0
1,-1,674644,231624,1335513,69611,9199,667313,0
1,-1,666745,229493,1321393,69051,8399,660334,0
1,-1,674331,231572,1316159,69971,8520,657380,0
1,-1,661318,229836,1457781,69171,8121,728457,0
1,-1,665337,230225,1357569,69367,8271,678355,0
1,-1,668543,230049,1561414,69255,9417,780092,0
1,-1,663503,229537,1470488,68968,8807,734458,0
2,-1,717468,248656,1231952,73840,7432,615571,0
2,-1,723165,250975,1372054,74823,8045,685405,2
2,-1,716792,247737,1250584,73492,8160,624940,0
2,-1,663128,229927,1230796,68595,7528,615037,0
2,-1,666109,230152,1232027,68688,8534,615650,0
2,-1,673512,232348,1356278,69677,8292,677491,0
2,-1,693415,240774,1356373,72167,8375,677622,0
2,-1,664251,230004,1257187,68774,7132,628177,0
2,-1,665572,229954,1337267,68775,7657,668246,0
2,-1,665486,229654,1354991,68770,8557,676626,0
2,-1,670433,230946,1235470,69097,8762,617385,0
2,-1,670822,231803,1355705,69168,8583,676590,0
2,-1,666334,230809,1386791,68904,8811,693481,0
2,-1,663779,230341,1269883,68868,8544,634134,0
2,-1,668585,231617,1314083,69528,7791,656515,0
2,-1,673207,232793,1310872,70037,7355,654948,0
2,-1,668439,230486,1280299,69054,7889,639669,0
2,-1,668986,230612,1305718,69054,8085,652483,0
2,-1,671588,230381,1210331,69017,7325,604781,0
2,-1,664175,230253,1195409,68917,7660,597344,0
2,-1,686585,234896,1206842,72289,8105,603133,0
2,-1,671437,231860,1415042,69641,8912,706984,0
2,-1,666745,230897,1342981,69040,8344,671155,0
2,-1,668730,232334,1409288,69713,9292,703607,0
2,-1,669774,232830,1365235,69884,8356,681978,0
2,-1,668126,230912,1362443,69092,9338,680727,0
2,-1,665750,230601,1271243,69016,7792,635212,0
2,-1,667723,231975,1266682,69459,7959,632900,0
2,-1,663524,230604,1327996,68971,8379,663580,0
2,-1,688056,235703,1317475,72433,8499,658422,0
2,-1,684070,235110,1296931,72229,8383,648013,0
2,-1,670633,232670,1345038,69918,8341,671737,0
2,-1,663542,229780,1375087,68775,8785,687267,0
2,-1,667842,230706,1209115,68958,7080,604217,0
2,-1,664500,230675,1324201,69004,7769,661853,0
2,-1,668961,231377,1277895,69238,7584,638544,0
2,-1,670819,231502,1433077,69144,8062,716248,0
2,-1,666286,230457,1260081,68817,8196,629617,0
2,-1,668690,231144,1267717,69024,7727,633473,0
2,-1,671864,231461,1512505,69202,9236,755921,0
2,-1,672738,231660,1313548,69323,8769,656378,0
2,-1,676105,232685,1216878,69452,7875,608058,0
2,-1,672515,231378,1257535,69017,8082,628357,0
2,-1,669312,231120,1222461,68956,7772,610870,0
2,-1,671124,231041,1227468,68968,7878,613402,0
2,-1,667974,231143,1312506,69087,7805,655894,0
2,-1,668114,230795,1242073,68951,7671,620688,0
2,-1,669188,230666,1236627,69000,8169,617938,0
2,-1,664564,230001,1199655,68632,7583,599484,0
2,-1,667082,230542,1434331,68935,8937,716194,0
2,-1,671295,231639,1239346,69352,8635,619423,0
2,-1,667827,230647,1338811,68853,8971,668738,0
2,-1,670358,230923,1361536,68796,9701,680144,0
2,-1,672718,231104,1307932,68907,8392,653620,0
2,-1,664982,230309,1322342,68697,7778,660877,0
2,-1,662680,229619,1241817,68482,7149,620542,0
2,-1,666789,230405,1219417,68723,7824,609396,0
2,-1,668739,231514,1284846,69313,7443,641935,0
2,-1,663900,229761,1247834,68602,7705,623529,0
2,-1,669744,230491,1343026,68742,9493,671171,0
2,-1,666866,229685,1269967,68486,8126,634491,0
2,-1,669445,230156,1284974,68657,8421,642079,0
2,-1,665548,230043,1239776,68633,8368,619567,0
2,-1,672662,231700,1293120,69369,7931,646052,0
2,-1,671163,231234,1335967,68990,7650,667521,0
2,-1,677765,232442,1285480,69551,7522,642029,0
2,-1,660652,230252,1354118,68208,8425,676733,0
2,-1,663369,230830,1329200,68445,9725,663998,0
2,-1,663753,231720,1219254,69007,8216,609162,0
2,-1,663979,230270,1353941,68388,8296,676402,0
2,-1,661122,230172,1377861,68355,8605,688099,0
2,-1,668749,230171,1405024,69174,9580,702126,0
2,-1,661841,229465,1287765,68910,9084,643472,0
2,-1,664523,229958,1372303,69067,8992,685522,0
2,-1,688032,234725,1405097,72472,9723,702072,0
2,-1,670037,231312,1317638,69726,9094,658307,0
2,-1,666809,230536,1286694,69308,8044,642990,0
2,-1,670275,230297,1240566,69206,8035,619965,0
2,-1,663800,229527,1287150,68867,7537,643102,0
2,-1,667697,230581,1348548,69323,8247,673927,0
2,-1,668819,231265,1256657,69725,7381,627715,0
2,-1,669804,231344,1221603,69781,7991,610248,0
2,-1,670818,230325,1259095,69170,7421,629253,0
2,-1,664831,230057,1235476,69048,7415,617312,0
2,-1,667642,230422,1242578,69293,7759,620840,0
2,-1,669334,230007,1346736,68983,8639,673050,0
2,-1,668975,230449,1306205,69241,7546,652748,0
2,-1,672377,230685,1210555,69195,7834,604974,0
2,-1,675283,231807,1318539,69774,9837,658594,0
2,-1,667517,230910,1405621,69427,9252,702344,0
2,-1,668960,231112,1446515,69501,8208,722816,0
2,-1,674363,233319,1378596,70600,8870,688436,0
2,-1,671033,232009,1371013,69786,9024,685115,0
2,-1,669905,231106,1362398,69505,9049,680135,0
2,-1,672920,231134,1244759,69410,8801,621974,0
2,-1,669940,230991,1329218,69305,8001,664205,0
2,-1,669067,230999,1259579,69231,7854,629341,0
2,-1,671205,230650,1304259,69261,8518,651750,0
2,-1,671286,231816,1251419,69660,8297,625318,0
2,-1,671191,230743,1366773,69268,8843,683060,0
2,-1,667710,231239,1329047,69478,8875,664086,0
2,-1,693083,235760,1452141,72743,10106,725550,0
2,-1,672551,232023,1341959,69652,9612,670254,0
2,-1,669645,231308,1290795,69566,8427,644906,0
2,-1,676370,232532,1405862,70114,10222,702162,0
2,-1,675327,232189,1481639,69743,8410,740218,0
2,-1,669071,230781,1319498,69266,7904,659402,0
2,-1,668055,230031,1269316,68972,7940,634300,0
2,-1,670611,230891,1370251,69298,8347,684615,0
2,-1,669334,229738,1348500,68946,8971,673744,0
2,-1,667892,230509,1334277,69516,7980,666533,0
2,-1,668392,230309,1286910,69329,8292,642990,0
2,-1,671489,229337,1418911,68949,9710,708758,0
2,-1,663067,229690,1237512,69153,8335,618309,0
2,-1,666419,229834,1455890,69189,8681,727132,0
2,-1,663996,230049,1460302,69133,8575,729085,0
3,-1,722047,250514,1324461,74566,8240,661765,0
3,-1,724996,250817,1439723,74538,7890,719391,0
3,-1,662249,229847,1281796,68599,7495,640441,2
3,-1,666230,231620,1358062,69334,7365,678577,0
3,-1,666075,230256,1334867,68675,8648,667144,0
3,-1,666013,230038,1376777,68767,8307,688012,0
3,-1,662716,230300,1246549,68838,7023,622770,0
3,-1,662725,229437,1407835,68537,7962,703486,0
3,-1,672795,232921,1312781,69989,8360,655704,0
3,-1,667890,230414,1461074,68955,8417,730169,0
3,-1,670953,231055,1498299,69232,10496,747596,0
3,-1,671256,230591,1297336,68835,8500,648078,0
3,-1,666234,231127,1278274,69027,8870,639398,0
3,-1,668775,232205,1364269,69587,8920,681889,0
3,-1,664089,230423,1361436,68888,7766,680483,0
3,-1,689631,235560,1334086,72494,8069,666663,0
3,-1,669634,230900,1328775,69151,7961,664033,0
3,-1,671768,232253,1390177,69852,8510,694617,0
3,-1,675212,231948,1290946,69771,8169,644961,0
3,-1,684742,235079,1260676,72358,8664,629784,0
3,-1,665386,230378,1291431,68957,7777,645405,0
3,-1,666492,230402,1300339,69020,7901,649745,0
3,-1,665248,230499,1292021,68906,7893,645541,0
3,-1,665866,230321,1351801,68872,9119,675239,0
3,-1,684744,235451,1288528,72349,8667,643679,0
3,-1,669528,232032,1391533,69615,9168,695137,0
3,-1,667252,231084,1333308,69114,8008,666279,0
3,-1,666985,230690,1344864,68954,8575,672138,0
3,-1,668593,230538,1343661,68998,8424,671349,0
3,-1,667623,230862,1320534,69054,8602,659881,0
3,-1,662458,230653,1343515,68980,8444,671429,0
3,-1,666429,231097,1328461,69162,8281,663754,0
3,-1,664476,230476,1445106,68873,8997,721684,0
3,-1,668355,230971,1322214,69126,7420,660760,0
3,-1,669459,230690,1259958,68991,8000,629653,0
3,-1,668539,231718,1325725,69538,7964,662383,0
3,-1,667530,230708,1295694,68807,7191,647283,0
3,-1,686249,235048,1305066,72129,8504,652120,0
3,-1,668776,231051,1335464,68962,8457,667364,0
3,-1,693448,236324,1361837,73129,10387,680449,0
3,-1,676199,232984,1364955,69900,8435,682037,0
3,-1,672662,231654,1247091,69081,8628,623278,0
3,-1,674057,232240,1313505,69322,8517,656347,0
3,-1,670150,231811,1250814,69284,8171,625035,0
3,-1,669504,231041,1243792,68924,8782,621489,0
3,-1,669585,231867,1352350,69432,8516,675678,0
3,-1,667923,230675,1185364,68847,7528,592355,0
3,-1,669750,230864,1289024,69064,7616,644129,0
3,-1,665365,230258,1328036,68741,7727,663681,0
3,-1,663980,229773,1294763,68648,8609,647408,0
3,-1,670932,231317,1279949,69119,8729,639537,0
3,-1,670794,232118,1343561,69489,8556,671222,0
3,-1,676312,232924,1339629,69620,8973,669273,0
3,-1,672857,231465,1215914,69030,8178,607516,0
3,-1,667277,230347,1336459,68738,8052,667860,0
3,-1,668799,230622,1295493,68846,8416,647478,0
3,-1,666400,230477,1307662,68769,8123,653457,0
3,-1,667183,230645,1283486,68890,7564,641121,0
3,-1,664396,230357,1157078,68713,7101,578187,0
3,-1,670711,231138,1410299,68988,9945,704624,0
3,-1,672351,232296,1248549,69647,8057,623372,0
3,-1,667337,230397,1338683,68732,7813,668781,0
3,-1,665029,230217,1195940,68736,7858,597450,0
3,-1,667350,229907,1356137,68580,8130,677691,0
3,-1,669033,230404,1481116,68724,7819,740082,0
3,-1,672473,230633,1318549,68787,7420,658850,0
3,-1,666714,233016,1277816,69329,8306,638325,0
3,-1,661447,230288,1513211,68225,9189,756143,0
3,-1,665109,229796,1325925,68189,7728,662556,0
3,-1,667066,231940,1274787,69112,8178,636857,0
3,-1,661207,230141,1394047,68295,8679,696534,0
3,-1,667954,229953,1468533,69014,9173,733882,0
3,-1,664753,230340,1347956,69189,8739,673460,0
3,-1,664531,230161,1339405,69140,8398,669299,0
3,-1,666942,230417,1318424,69215,8754,658703,0
3,-1,667756,230059,1361776,69158,9479,680342,0
3,-1,669548,231217,1302512,69555,8441,650887,0
3,-1,674169,231299,1246740,69740,8675,622923,0
3,-1,664132,230152,1374009,69189,7675,686642,0
3,-1,664387,229772,1332968,69040,7456,666068,0
3,-1,666943,231405,1403310,69589,8791,701140,0
3,-1,667120,230555,1368464,69319,8265,683880,0
3,-1,671317,230854,1341453,69420,7925,670374,0
3,-1,668254,231133,1272024,69486,7509,635612,0
3,-1,666698,230602,1210908,69305,7595,605186,0
3,-1,690601,234750,1492435,72310,8867,745749,0
3,-1,668146,230524,1317966,69164,8002,658734,0
3,-1,673154,231568,1193892,69681,7843,596397,0
3,-1,669551,230535,1348088,69155,9871,673768,0
3,-1,664961,230008,1320378,69091,8988,660223,0
3,-1,670623,232139,1342816,69812,8105,670912,0
3,-1,689052,235714,1393444,72882,10479,696338,0
3,-1,671442,231713,1339828,69684,8455,669494,0
3,-1,688690,235629,1474713,72763,10651,736986,0
3,-1,677278,233200,1539961,70400,10392,769810,0
3,-1,689402,236105,1382427,72822,8705,690706,0
3,-1,671357,232216,1336715,69675,8002,667888,0
3,-1,670318,231109,1400169,69361,8350,699716,0
3,-1,672541,231737,1277626,69623,7994,638436,0
3,-1,694350,236147,1366684,72823,9460,682887,0
3,-1,666495,230690,1364122,69263,8133,681624,0
3,-1,670670,231360,1299575,69499,8872,649345,0
3,-1,698734,241296,1466836,72317,9678,733184,0
3,-1,668255,230897,1357429,69384,8501,678041,0
3,-1,672115,231451,1379450,69624,9581,688995,0
3,-1,672417,230832,1260959,69260,8005,630020,0
3,-1,674785,231068,1384418,69297,8991,691862,0
3,-1,673328,232335,1245130,69973,8142,621834,0
3,-1,671046,230990,1284979,69279,8401,641989,0
3,-1,670441,229809,1263199,68982,8265,631192,0
3,-1,670809,229874,1245556,69229,6938,622312,0
3,-1,671037,230206,1313264,69337,7838,656189,0
3,-1,675917,232008,1393961,70083,8769,696265,0
3,-1,687527,235569,1439497,72774,9603,719456,0
3,-1,692929,239333,1363155,72056,8856,681258,0
3,-1,665529,230359,1493821,69251,8858,746238,0
4,-1,713749,247774,1290733,73457,7243,645072,0
4,-1,720103,249165,1390920,73882,8277,695068,0
4,-1,666953,230596,1378714,68796,7445,688904,0
4,-1,664011,229956,1269679,68582,7428,634438,2
4,-1,670757,231462,1195707,69109,7540,597462,0
4,-1,664466,229855,1216262,68686,7592,607684,0
4,-1,668621,232494,1454521,69832,9201,726739,0
4,-1,665971,230981,1359625,69081,9041,679087,0
4,-1,662288,230000,1371742,68781,7528,685450,0
4,-1,670731,231878,1432885,69715,8676,715451,0
4,-1,667137,229905,1333575,68751,9018,666065,0
4,-1,669947,230774,1325858,68906,8031,662528,0
4,-1,670280,233353,1347060,69960,8962,672943,0
4,-1,669485,230801,1289683,68969,9003,644450,0
4,-1,665967,231214,1209461,69167,7578,604484,0
4,-1,670670,230785,1324814,69150,7564,662002,0
4,-1,688523,235058,1301845,72328,8560,650503,0
4,-1,688222,234779,1280404,72184,8882,639802,0
4,-1,692252,235219,1270929,72356,8746,635074,0
4,-1,662323,230381,1289061,69020,7572,644171,0
4,-1,666863,231496,1215576,69303,7566,607571,0
4,-1,665742,230420,1316322,68992,7628,657759,0
4,-1,684230,235122,1403301,72277,9207,701213,0
4,-1,666171,230822,1361251,69056,8724,681344,0
4,-1,663578,231378,1289104,69192,8425,644211,0
4,-1,685928,235433,1296829,72390,8927,648007,0
4,-1,666261,230582,1259940,68976,7658,629495,0
4,-1,670543,232635,1538746,69865,8697,768719,0
4,-1,671769,232013,1362496,69630,8107,680708,0
4,-1,671539,231251,1340465,69131,8759,669924,0
4,-1,663899,231768,1371336,69510,8141,685009,0
4,-1,664124,230930,1280147,69080,8277,639406,0
4,-1,673644,233881,1425147,70363,9199,711740,0
4,-1,666892,230801,1280923,68978,6918,640144,0
4,-1,671369,232139,1364989,69696,8259,681803,0
4,-1,668134,230938,1419501,69012,7499,709285,0
4,-1,675340,232416,1350785,69614,8539,674917,0
4,-1,668818,231178,1280148,69015,7830,639695,0
4,-1,664090,230196,1363543,68685,7587,681415,0
4,-1,668520,230714,1336817,68973,7900,668009,0
4,-1,673218,232152,1228122,69445,7778,613752,0
4,-1,676618,233953,1350131,70163,8334,674310,0
4,-1,673348,231807,1227811,69281,8533,613483,0
4,-1,670056,231067,1443395,68998,8109,721383,0
4,-1,670277,231865,1210237,69259,8288,604791,0
4,-1,669099,231015,1279877,69060,7751,639620,0
4,-1,666618,230645,1230433,68900,7495,614831,0
4,-1,666281,230616,1324616,68929,7849,661908,0
4,-1,667003,231062,1310052,69026,7790,654641,0
4,-1,666710,230836,1232314,68979,8191,615857,0
4,-1,668619,230714,1337826,68894,8571,668583,0
4,-1,669688,231158,1357890,68957,8518,678185,0
4,-1,670052,230700,1527252,68696,9006,762926,0
4,-1,671767,231309,1214365,68992,8058,606750,0
4,-1,669441,231610,1297369,69366,8027,648178,0
4,-1,671599,232673,1211189,69747,7737,604986,0
4,-1,673481,232586,1283267,69731,7680,641046,0
4,-1,665271,230000,1307416,68610,7859,653334,0
4,-1,675684,232386,1204871,69568,8160,601878,0
4,-1,672835,232211,1333117,69510,9703,665685,0
4,-1,668168,230446,1229961,68827,7993,614597,0
4,-1,668472,231211,1436400,69037,8149,717807,0
4,-1,673904,232897,1222901,69817,8076,610731,0
4,-1,668106,230264,1255710,68709,7602,627375,0
4,-1,670497,230008,1332925,68566,8269,666100,0
4,-1,671689,230664,1339539,68740,7292,669411,0
4,-1,662453,230279,1364077,68239,7590,681566,0
4,-1,666765,232522,1489479,69191,9521,743820,0
4,-1,671704,232998,1257216,69499,7961,627923,0
4,-1,671026,232759,1308598,69420,8391,653507,0
4,-1,665061,230955,1575727,68643,9735,787235,0
4,-1,667554,230156,1334069,69183,9041,666534,0
4,-1,663241,230199,1300124,69201,8941,649453,0
4,-1,668541,230575,1318140,69307,8374,658761,0
4,-1,689183,235236,1438185,72654,9584,718510,0
4,-1,667626,229880,1357197,69044,9379,678073,0
4,-1,666937,231004,1490415,69483,8699,743983,0
4,-1,669346,230056,1326100,69108,7935,662571,0
4,-1,663754,229965,1226059,69140,7512,612679,0
4,-1,669768,231185,1195628,69528,8369,597447,0
4,-1,672210,231823,1220255,69977,7211,609569,0
4,-1,667510,230582,1372055,69293,8220,685789,0
4,-1,668065,229905,1383595,69072,8274,691496,0
4,-1,662761,229533,1282220,68850,7255,640781,0
4,-1,668710,231755,1164585,69900,7869,581661,0
4,-1,668174,230617,1274876,69173,7497,637126,0
4,-1,670296,231370,1264620,69534,7959,631810,0
4,-1,670751,230176,1169104,69054,7776,584237,0
4,-1,672431,230842,1345675,69296,9369,672101,0
4,-1,664727,230216,1373872,69211,9440,686318,0
4,-1,690075,235285,1396098,72569,9469,697591,0
4,-1,671879,230960,1366388,69554,8378,683043,0
4,-1,675122,233773,1225645,70682,8266,611999,0
4,-1,669095,231648,1420462,69571,10229,709588,0
4,-1,693979,235719,1494016,72794,10763,746598,0
4,-1,671343,231938,1420020,69632,8337,709586,0
4,-1,667022,230774,1433927,69110,8817,716492,0
4,-1,676656,232781,1295386,70100,8794,647171,0
4,-1,670914,231521,1352300,69573,8828,675760,0
4,-1,671153,230865,1351991,69300,8626,675677,0
4,-1,664415,229433,1360677,68878,8906,679895,0
4,-1,672364,232094,1407746,69738,8937,703281,0
4,-1,671998,232031,1343421,69655,9809,671437,0
4,-1,671427,232500,1329747,70115,9567,664085,0
4,-1,668527,230639,1364045,69304,8545,681439,0
4,-1,672598,231279,1325326,69400,8466,662215,0
4,-1,670916,229963,1260104,68959,8175,629640,0
4,-1,689063,234882,1264108,72407,9085,631563,0
4,-1,669012,230553,1338601,69197,9062,668895,0
4,-1,677874,232973,1362524,70282,8858,680666,0
4,-1,669215,229706,1383119,69162,7824,691169,0
4,-1,669858,229757,1248913,69159,8219,624065,0
4,-1,673341,230422,1243788,69388,8426,621262,0
4,-1,662498,230152,1269840,69362,8066,634515,0
4,-1,664773,230096,1425889,69305,8947,712697,0
4,-1,662576,229667,1254773,69139,7134,626967,0
5,-1,713152,247589,1281025,73442,7783,640246,0
5,-1,717105,247963,1232057,73551,7348,615728,0
5,-1,664637,230034,1217433,68630,7323,608392,0
5,-1,669681,231554,1312704,69311,7525,655843,0
5,-1,670247,232089,1313220,69612,7621,655998,0
5,-1,668121,230090,1268638,68812,7182,634012,0
5,-1,661258,230605,1211000,69013,7346,605013,2
5,-1,663139,230292,1223399,68815,7229,611423,0
5,-1,687363,234643,1303326,72080,8397,651234,0
5,-1,687191,234683,1298059,72168,8304,648607,0
5,-1,674935,233049,1358954,70071,8404,678937,0
5,-1,668415,230640,1275235,68902,7896,637069,0
5,-1,692761,236216,1347293,72426,9200,673291,0
5,-1,667745,230499,1261544,68844,8725,630016,0
5,-1,690298,234949,1284495,72157,9351,641933,0
5,-1,666943,229735,1269300,68722,7494,634295,0
5,-1,670423,232628,1328019,69903,7850,663525,0
5,-1,670648,231989,1310863,69721,8052,654925,0
5,-1,668649,230520,1284236,69079,7743,641806,0
5,-1,665476,231229,1363390,69477,7744,681208,0
5,-1,662891,230239,1190409,68928,7737,594612,0
5,-1,669949,232264,1343364,69854,8014,671179,0
5,-1,667308,231696,1313696,69305,7504,655923,0
5,-1,672068,232987,1321404,69927,8135,659571,0
5,-1,665248,232441,1341381,69803,8737,670080,0
5,-1,664781,230277,1327255,68869,8439,663231,0
5,-1,670338,232547,1344685,69874,8126,671572,0
5,-1,666428,230728,1319683,68976,8381,659555,0
5,-1,669889,231602,1251996,69359,7653,625546,0
5,-1,671295,231881,1353863,69531,8672,676438,0
5,-1,673553,231079,1327296,69100,8442,663265,0
5,-1,661123,230060,1363132,68746,7278,681222,0
5,-1,686863,235697,1322728,72463,9541,660638,0
5,-1,667579,230833,1218042,69085,7221,608693,0
5,-1,688043,235356,1313828,72334,8954,656587,0
5,-1,667759,231303,1369122,69227,7355,684257,0
5,-1,669200,230698,1229127,68984,7878,614228,0
5,-1,668797,232269,1280135,69586,7386,639531,0
5,-1,665484,230629,1365483,68852,7461,682407,0
5,-1,673783,233025,1358463,69859,8176,678721,0
5,-1,670242,231486,1256138,69189,8544,627660,0
5,-1,673917,232486,1391493,69404,8220,695424,0
5,-1,678195,234063,1424920,70143,9118,711848,0
5,-1,673751,233116,1414413,69894,8812,706587,0
5,-1,667593,230919,1260557,68902,8137,629951,0
5,-1,669281,231494,1334361,69171,7819,666850,0
5,-1,667231,230751,1163797,68940,7603,581609,0
5,-1,662153,229248,1297791,68507,7982,648587,0
5,-1,664859,230264,1285340,68712,7877,642365,0
5,-1,664109,230153,1316021,68726,8575,657677,0
5,-1,667787,230719,1281262,68932,8561,640241,0
5,-1,667525,230278,1348326,68614,9181,673849,0
5,-1,695670,239483,1335599,71229,9182,667062,0
5,-1,670669,230520,1300571,68725,8324,649853,0
5,-1,666435,230842,1219566,68919,6973,609343,0
5,-1,686571,234966,1219009,72035,8750,609165,0
5,-1,689300,234998,1247484,72044,8573,623370,0
5,-1,686604,235131,1238410,72115,8333,618902,0
5,-1,668567,229999,1260538,68540,9051,629812,0
5,-1,687899,234746,1398525,71954,10287,698539,0
5,-1,666412,230169,1241791,68701,7559,620634,0
5,-1,667501,230952,1319637,68893,7553,659381,0
5,-1,671635,230426,1267838,68799,8503,633507,0
5,-1,669389,230472,1350472,68747,8030,674840,0
5,-1,674868,232416,1321013,69627,7381,659895,0
5,-1,670951,230356,1279278,68662,7296,639186,0
5,-1,666434,232062,1398982,68981,7521,698799,0
5,-1,659838,230106,1330795,68136,9123,664796,0
5,-1,663876,229866,1388970,68195,7382,694127,0
5,-1,685434,234605,1396430,71587,9332,697813,0
5,-1,665096,229980,1336391,68245,8404,667687,0
5,-1,689088,235241,1390625,72634,10317,694819,0
5,-1,669893,232703,1260751,70252,8882,629803,0
5,-1,670562,231053,1286210,69398,8339,642715,0
5,-1,666063,230282,1460600,69228,8735,729810,0
5,-1,665379,229810,1208202,69034,8237,603801,0
5,-1,665805,230311,1419575,69175,8684,708605,0
5,-1,669320,230294,1216438,69198,7541,607769,0
5,-1,663781,230262,1339914,69132,7432,669652,0
5,-1,670094,231875,1222926,69995,8155,610782,0
5,-1,665107,229100,1265439,68893,7501,632368,0
5,-1,667395,230021,1283463,69141,7646,641401,0
5,-1,694857,236196,1366042,73455,9369,682646,0
5,-1,668329,230815,1218939,69370,7947,609124,0
5,-1,666878,230134,1184771,69193,8061,592041,0
5,-1,669592,230038,1288148,69026,7898,643809,0
5,-1,665903,230040,1295740,68968,7704,647555,0
5,-1,670428,229794,1339020,69037,8116,669261,0
5,-1,690301,234815,1357557,72423,9302,678360,0
5,-1,669527,232497,1373495,70207,9898,685919,0
5,-1,670006,231355,1244353,69545,8430,621745,0
5,-1,674139,232103,1358945,69955,8767,679052,0
5,-1,670167,231037,1418410,69480,8510,708666,0
5,-1,674031,232376,1397630,70103,9547,698111,0
5,-1,675436,232488,1334800,69941,9651,666532,0
5,-1,668450,231349,1416366,69492,8143,707783,0
5,-1,672775,232968,1385223,70168,8178,691910,0
5,-1,671292,230927,1336966,69226,8238,668041,0
5,-1,674173,232442,1242420,70044,8011,620503,0
5,-1,671357,231689,1330700,69619,7993,664839,0
5,-1,667329,231424,1359640,69535,8712,679430,0
5,-1,671849,232322,1288661,69992,8090,643619,0
5,-1,670188,231389,1443922,69406,9092,721726,0
5,-1,675357,231909,1347214,69971,9866,672664,0
5,-1,674020,233152,1319795,70407,9389,658939,0
5,-1,698083,240253,1364930,72063,8489,682062,0
5,-1,673597,230745,1369657,69247,9339,684376,0
5,-1,670723,231429,1210383,69508,8015,604654,0
5,-1,691298,234861,1408850,72336,9061,704134,0
5,-1,670569,230384,1273466,69225,7907,636362,0
5,-1,667885,229612,1375354,69069,7527,687276,0
5,-1,690766,234668,1378810,72609,9488,688941,0
5,-1,672077,230245,1310152,69363,8571,654584,0
5,-1,664905,229744,1247414,69214,8138,623331,0
5,-1,664547,229671,1295094,69134,9000,647104,0
5,-1,660823,229747,1330401,69209,8621,664754,0
6,-1,741479,252938,1412238,76991,9190,705796,0
6,-1,738200,252529,1450071,76837,9361,724685,0
6,-1,691429,239276,1254628,71524,7335,626987,0
6,-1,666755,230340,1229800,68698,7481,614606,0
6,-1,685470,234304,1315987,71958,8307,657655,0
6,-1,667164,229205,1257990,68448,7425,628663,0
6,-1,666671,230865,1397817,69025,9268,698489,0
6,-1,661153,230709,1215751,68927,6790,607477,2
6,-1,665262,230077,1210641,68735,7715,605003,0
6,-1,665374,230518,1193319,68979,7297,596230,0
6,-1,687929,235010,1355320,72287,9125,676757,0
6,-1,685945,234222,1451673,71883,8273,725419,0
6,-1,672844,230991,1314710,68951,8463,657358,0
6,-1,672160,232856,1398250,69880,9375,698518,0
6,-1,668802,230566,1263614,68878,8178,631443,0
6,-1,668245,230663,1176478,69071,7360,587965,0
6,-1,667208,230211,1302418,68874,7695,650933,0
6,-1,666919,230734,1219299,69154,8432,609325,0
6,-1,675621,232406,1317117,69935,8407,657901,0
6,-1,665560,231788,1240569,69473,8570,619924,0
6,-1,666144,231939,1256033,69709,8530,627276,0
6,-1,688480,235433,1254425,72446,8319,626874,0
6,-1,665730,231405,1309849,69242,8943,654987,0
6,-1,664170,230052,1404615,68772,8234,701987,0
6,-1,671035,230970,1356286,69104,9055,677704,0
6,-1,670176,232373,1367230,69738,8400,683067,0
6,-1,664921,230872,1340410,69052,8086,669761,0
6,-1,664852,230969,1292894,69082,8810,646028,0
6,-1,667280,230993,1349684,69087,8010,674449,0
6,-1,667020,230423,1338712,68814,8578,668985,0
6,-1,689593,234893,1297488,72132,9239,648311,0
6,-1,668064,232953,1458916,70006,8618,728756,0
6,-1,665876,230170,1275585,68841,7821,637539,0
6,-1,665855,230843,1206225,69088,7278,602741,0
6,-1,667848,230865,1393453,69087,8434,696293,0
6,-1,668110,230866,1273242,69042,7748,636287,0
6,-1,667289,230365,1289496,68826,7558,644380,0
6,-1,665822,230904,1228241,69000,7302,613714,0
6,-1,668933,230812,1398092,68948,7975,698720,0
6,-1,667156,230776,1331012,68902,7797,665134,0
6,-1,670711,231529,1393714,69194,7697,696596,0
6,-1,669994,231622,1393176,69128,7628,696188,0
6,-1,675563,231711,1266294,69120,7501,632823,0
6,-1,667647,231464,1335232,68989,8241,667280,0
6,-1,691273,235343,1273922,72118,8836,636659,0
6,-1,685893,235446,1263136,72289,8338,631161,0
6,-1,669181,230654,1227087,68872,8291,613160,0
6,-1,671334,230962,1213819,69145,7725,606563,0
6,-1,668647,230686,1315856,68955,7716,657554,0
6,-1,664030,230280,1347269,68808,8067,673309,0
6,-1,668317,230462,1284744,68824,8699,642035,0
6,-1,673881,233174,1350800,69876,8705,675259,0
6,-1,672570,231718,1331072,69232,9577,664761,0
6,-1,673820,232379,1302112,69489,8302,650546,0
6,-1,665911,230468,1326256,68767,8064,662861,0
6,-1,665379,230589,1169195,68753,7158,584257,0
6,-1,666928,230366,1349338,68788,7397,674289,0
6,-1,666301,230669,1310161,68882,7833,654767,0
6,-1,669041,230597,1192964,68822,8316,596301,0
6,-1,669023,230700,1409882,68860,9586,705000,0
6,-1,671511,232029,1236756,69550,7923,617721,0
6,-1,669381,232146,1231385,69577,7514,614885,0
6,-1,670246,230053,1338715,68677,8882,668963,0
6,-1,673614,232544,1275415,69713,8017,637090,0
6,-1,669868,230829,1336015,68839,7638,667578,0
6,-1,671348,230408,1376218,68703,8187,687670,0
6,-1,663028,230565,1439722,68352,7622,719330,0
6,-1,663177,231249,1407916,68497,9743,703218,0
6,-1,666776,231273,1432922,68685,8187,716072,0
6,-1,663962,230598,1376055,68455,8614,687591,0
6,-1,663559,229663,1373764,68157,8047,686516,0
6,-1,667386,230520,1367378,69255,9673,682951,0
6,-1,663597,229894,1344375,69101,8343,671642,0
6,-1,693424,239013,1370993,71787,8756,684972,0
6,-1,664745,229765,1280430,69020,8930,639627,0
6,-1,670851,231869,1409780,69888,9205,703958,0
6,-1,702885,241390,1307368,72775,8302,653260,0
6,-1,668761,230403,1371219,69185,7755,685261,0
6,-1,669731,232539,1228800,70254,7218,613816,0
6,-1,666277,230499,1292823,69237,8358,646216,0
6,-1,668435,230436,1381815,69289,7844,690550,0
6,-1,690191,235210,1344086,72632,8072,671650,0
6,-1,670370,230457,1252272,69280,7512,625667,0
6,-1,666812,230447,1321237,69244,8174,660205,0
6,-1,668924,230033,1312803,69151,8402,656012,0
6,-1,667294,229690,1237834,68784,7536,618614,0
6,-1,669975,231390,1363894,69438,8359,681631,0
6,-1,667411,229738,1231169,69023,7464,615227,0
6,-1,669744,230397,1248299,69160,9102,623737,0
6,-1,685718,235238,1457359,72674,10222,728215,0
6,-1,669192,231173,1345289,69520,8814,672309,0
6,-1,674132,232319,1292162,70196,8455,645696,0
6,-1,666694,230829,1319468,69452,8363,659372,0
6,-1,671481,230744,1309114,69355,9123,654355,0
6,-1,674385,232686,1389031,70165,9559,693257,0
6,-1,668154,231426,1356307,69427,8640,677767,0
6,-1,689199,236033,1369231,72696,9559,684213,0
6,-1,673294,231780,1353751,69548,8381,676353,0
6,-1,690102,235409,1367441,72616,8660,683250,0
6,-1,693129,239088,1303988,71751,7973,651592,0
6,-1,666026,231337,1279953,69459,8205,639670,0
6,-1,667311,230839,1325105,69308,8199,662104,0
6,-1,674947,233736,1344542,70449,9653,671320,0
6,-1,695737,236321,1426913,73007,10006,712753,0
6,-1,675369,232077,1431770,69798,9693,715165,0
6,-1,692160,235825,1373929,72700,9219,686487,0
6,-1,671974,230521,1299723,69131,8297,649420,0
6,-1,668419,230210,1248480,68990,8048,623818,0
6,-1,672573,231459,1241037,69473,8250,620077,0
6,-1,669208,230135,1352338,69096,8236,675744,0
6,-1,674737,232056,1435106,70153,8021,716871,0
6,-1,668084,229855,1331752,69239,8123,665438,0
6,-1,670693,229800,1208142,69183,7743,603602,0
6,-1,664201,229599,1388814,69082,9863,693904,0
6,-1,687049,234886,1467189,72665,9937,732760,0
6,-1,669023,230127,1385521,69322,8031,692298,0
6,-1,666582,230357,1548643,69252,9531,773336,0
7,-1,718063,248210,1252673,73608,7616,626047,0
7,-1,719150,249325,1439395,74044,9423,718710,0
7,-1,668750,232344,1302714,69777,7763,650736,0
7,-1,665799,230841,1317832,68883,9766,658563,0
7,-1,663692,229764,1291884,68628,7150,645587,0
7,-1,669631,230433,1231344,68863,7869,615310,0
7,-1,661958,229823,1202474,68688,6614,600834,0
7,-1,665573,230085,1195743,68794,7946,597519,0
7,-1,662147,229779,1196239,68655,7560,597800,2
7,-1,713883,243938,1335964,74877,8601,667642,0
7,-1,669392,231067,1322214,69205,8320,661178,0
7,-1,665921,230212,1479727,68829,7540,739610,0
7,-1,676590,232939,1382764,69710,8967,690631,0
7,-1,685720,234936,1306599,72106,9453,652313,0
7,-1,668048,230264,1297911,68799,7940,648614,0
7,-1,665743,230407,1336141,68985,7371,667693,0
7,-1,666450,230251,1338084,68985,8023,668711,0
7,-1,672983,230937,1284476,69155,7592,641915,0
7,-1,668950,230209,1249405,68920,8282,624397,0
7,-1,658921,229731,1188688,68706,7689,593990,0
7,-1,684391,235337,1331459,72416,9362,665441,0
7,-1,665271,230518,1308247,69018,8232,653735,0
7,-1,671455,233023,1351820,70073,8136,675412,0
7,-1,667314,231899,1344427,69576,9133,671457,0
7,-1,667336,230001,1352692,68712,9042,675995,0
7,-1,665271,230769,1254490,69069,7892,626908,0
7,-1,671410,231621,1372499,69437,8872,685720,0
7,-1,662930,230455,1348237,68901,8657,673807,0
7,-1,663872,229750,1244549,68681,7877,621937,0
7,-1,673404,232926,1443507,70009,8467,721102,0
7,-1,669829,230849,1262235,69097,8725,630628,0
7,-1,693063,240067,1375281,71833,7874,687108,0
7,-1,669362,232334,1339681,69692,8005,669280,0
7,-1,667461,230682,1291299,68912,8019,645338,0
7,-1,668678,231528,1385102,69241,7808,692217,0
7,-1,669541,231144,1262195,69193,8046,630719,0
7,-1,672219,232665,1326619,69871,7964,662744,0
7,-1,666255,231733,1347372,69202,7386,673363,0
7,-1,667688,230715,1348742,68864,8211,674037,0
7,-1,664799,230219,1313285,68629,7216,656346,0
7,-1,676626,233808,1425390,70231,8684,712087,0
7,-1,669782,231732,1317639,69113,8319,658499,0
7,-1,675372,232207,1322612,69296,7500,660913,0
7,-1,673030,232356,1407810,69360,9020,703496,0
7,-1,672098,231908,1380684,69264,7831,689926,0
7,-1,666745,230353,1218733,68814,7441,608870,0
7,-1,665705,230058,1198937,68665,7920,599147,0
7,-1,675344,232984,1308800,69978,8238,653818,0
7,-1,669604,231980,1300055,69531,7986,649666,0
7,-1,669980,232943,1304847,69987,8541,651818,0
7,-1,674061,232907,1238467,69896,8516,618213,0
7,-1,668907,231134,1527906,69075,8975,763393,0
7,-1,668604,231153,1326297,68852,8969,662413,0
7,-1,671774,230712,1298644,68641,8674,648813,0
7,-1,664433,230131,1198971,68668,7307,599058,0
7,-1,663881,229801,1197791,68629,7416,598523,0
7,-1,670071,231388,1279100,69295,7454,638929,0
7,-1,667280,230265,1244176,68682,7497,621859,0
7,-1,676116,233429,1252902,70008,9108,625474,0
7,-1,668127,230731,1364951,68857,9628,681723,0
7,-1,690079,235563,1364902,72262,8516,682111,0
7,-1,668239,229637,1231730,68433,7825,615518,0
7,-1,677326,233414,1289162,70049,8925,643936,0
7,-1,667067,230499,1261953,68764,7368,630639,0
7,-1,666965,230204,1531342,68620,8821,765311,0
7,-1,676360,232646,1290792,69583,7707,644901,0
7,-1,668280,233046,1271414,69382,7586,635071,0
7,-1,663257,231720,1360016,68861,10280,679182,0
7,-1,662659,230038,1356894,68339,8469,677660,0
7,-1,668067,232223,1248908,69140,8504,623958,0
7,-1,665905,230410,1271115,68431,8129,635163,0
7,-1,666490,229861,1257130,68942,8645,628232,0
7,-1,663784,229717,1370725,68949,9439,684880,0
7,-1,666397,230129,1330009,69127,9008,664576,0
7,-1,668739,231831,1287879,69819,8036,643503,0
7,-1,664440,230078,1392205,69109,9287,695688,0
7,-1,667666,229949,1302652,69077,7986,651021,0
7,-1,666257,230559,1224148,69260,6960,611759,0
7,-1,668575,231388,1237554,69697,8286,618192,0
7,-1,665579,230247,1283016,69143,7676,641180,0
7,-1,665924,229984,1281173,69100,7587,640284,0
7,-1,668774,230819,1327898,69344,7764,663633,0
7,-1,670053,230874,1284990,69424,7521,642085,0
7,-1,669348,231897,1209234,69888,7990,604140,0
7,-1,671719,230924,1389174,69380,8321,694269,0
7,-1,668324,230416,1203420,69128,7793,601292,0
7,-1,668992,230327,1273040,69057,7023,636127,0
7,-1,668732,230640,1281800,69355,8041,640447,0
7,-1,671776,230537,1269325,69094,8526,634168,0
7,-1,667041,231269,1428017,69381,9726,713333,0
7,-1,673303,232930,1328198,70270,9149,663680,0
7,-1,674617,233072,1263245,70577,8597,630905,0
7,-1,667799,231505,1362639,69728,8964,680830,0
7,-1,672932,231562,1362612,69601,9278,680571,0
7,-1,675916,231796,1400512,69738,9999,699741,0
7,-1,675758,233360,1288125,70338,8256,643174,0
7,-1,675663,231839,1347627,69506,9075,673472,0
7,-1,699561,237441,1322437,73692,10028,660661,0
7,-1,668032,231100,1331253,69439,7598,665325,0
7,-1,673633,231538,1357802,69532,8550,678456,0
7,-1,666668,231818,1319333,69596,8138,659157,0
7,-1,669346,231139,1224429,69438,8305,611856,0
7,-1,690333,236047,1444451,72759,10429,721853,0
7,-1,674018,231502,1372419,69527,9669,685597,0
7,-1,671170,230533,1500280,69270,9400,749910,0
7,-1,674144,231670,1324959,69564,8161,662154,0
7,-1,698461,236416,1416912,72936,9493,707843,0
7,-1,671158,232007,1359273,69845,8230,679095,0
7,-1,670112,230786,1328807,69207,8508,664035,0
7,-1,674600,231122,1357072,69608,8997,677954,0
7,-1,690948,235186,1380806,72725,8309,689803,0
7,-1,668648,230070,1256427,69322,8420,627618,0
7,-1,691919,234679,1395651,72611,9497,697546,0
7,-1,664029,230067,1418795,69298,9229,708879,0
7,-1,665344,230386,1325707,69343,9210,661931,0
7,-1,665346,228906,1351580,68846,7818,675365,0
7,-1,664575,229995,1407800,69163,9124,702113,0
8,-1,719284,248490,1273384,73648,7870,636333,0
8,-1,715053,248196,1368693,73648,7971,684027,0
8,-1,662871,230355,1195425,68918,6955,597396,0
8,-1,687651,234753,1329291,71989,9043,664314,0
8,-1,664565,229932,1191509,68773,7579,595384,0
8,-1,673589,232446,1363241,69770,8142,681086,0
8,-1,667173,231742,1307605,69503,7883,653189,0
8,-1,663606,229770,1203018,68638,7238,601185,0
8,-1,663605,229915,1190808,68800,7594,594985,0
8,-1,667201,231482,1320866,69170,8916,660230,2
8,-1,671066,232356,1333801,69537,8844,666675,0
8,-1,669130,231211,1287223,69125,8304,643288,0
8,-1,669090,230356,1318964,68721,8402,658794,0
8,-1,666307,230456,1396977,68877,8779,698099,0
8,-1,666947,230313,1205462,68856,7657,602446,0
8,-1,667491,230275,1289695,68954,7490,644607,0
8,-1,665336,229885,1193692,68836,7297,596534,0
8,-1,670847,230347,1211979,69003,6824,605640,0
8,-1,669713,230649,1197241,69053,8113,598315,0
8,-1,687685,235201,1245152,72374,8775,622217,0
8,-1,662164,230206,1522970,68973,8515,761370,0
8,-1,667163,231642,1327200,69620,8110,663061,0
8,-1,685300,235023,1460859,72185,9088,729977,0
8,-1,661433,230045,1189251,68716,8287,594282,0
8,-1,671202,231534,1393418,69444,9622,696052,0
8,-1,661987,230416,1267577,68952,7600,633454,0
8,-1,667589,230690,1310791,69057,8061,655096,0
8,-1,665423,231855,1319806,69417,8337,659531,0
8,-1,669502,231368,1333416,69258,8058,666366,0
8,-1,688391,235476,1325413,72355,9145,662309,0
8,-1,672679,231992,1349860,69649,8997,674223,0
8,-1,665601,230576,1323993,68945,7388,661654,0
8,-1,665646,231122,1333169,69149,7854,666129,0
8,-1,671076,231761,1296553,69332,7633,647886,0
8,-1,666570,230775,1257171,69053,8131,628235,0
8,-1,668498,230812,1355917,69022,8260,677668,0
8,-1,666557,230604,1255101,69024,7623,627189,0
8,-1,664032,230076,1354871,68626,7774,677103,0
8,-1,668495,231582,1254387,69203,7471,626768,0
8,-1,667095,231272,1338164,69079,7716,668715,0
8,-1,693124,236319,1318600,72659,8870,658964,0
8,-1,678087,233495,1334778,70006,8261,666747,0
8,-1,673970,232065,1328662,69423,7924,663869,0
8,-1,668044,232098,1376780,69278,8720,688161,0
8,-1,669175,231269,1224936,69052,7911,612044,0
8,-1,667322,231090,1278809,69107,7426,639070,0
8,-1,673140,232842,1216661,69857,7623,607776,0
8,-1,668903,230959,1297833,69111,7628,648472,0
8,-1,665157,230542,1224894,68863,7477,612115,0
8,-1,688443,234999,1309712,72163,8472,654556,0
8,-1,668248,231036,1324003,68989,8108,661547,0
8,-1,664510,230454,1267915,68850,8824,633135,0
8,-1,690664,235956,1269919,72241,9741,634697,0
8,-1,676254,232453,1291235,69456,7876,645156,0
8,-1,664648,229855,1312484,68564,7538,655906,0
8,-1,667681,230194,1217577,68698,8087,608425,0
8,-1,666892,230515,1245785,68806,7665,622496,0
8,-1,669852,231938,1290923,69438,7518,644960,0
8,-1,668764,230697,1525136,68826,8659,762740,0
8,-1,666257,230022,1467767,68604,9568,733430,0
8,-1,665594,230108,1252391,68659,7600,625767,0
8,-1,668206,230192,1364603,68725,8000,681873,0
8,-1,690338,235002,1337882,72068,9289,668509,0
8,-1,672940,230952,1289049,69121,8216,643973,0
8,-1,672682,231174,1481335,68902,8998,740341,0
8,-1,670619,230731,1329276,68754,7294,664210,0
8,-1,662601,231026,1322079,68478,7549,660560,0
8,-1,664722,230350,1356023,68285,9265,677084,0
8,-1,671313,232964,1338248,69541,9101,668072,0
8,-1,668172,232603,1613608,69371,11249,805833,0
8,-1,688792,238600,1377171,70767,8376,688105,0
8,-1,669069,231188,1365772,69455,9062,682494,0
8,-1,664574,230571,1293690,69363,8898,646348,0
8,-1,665437,229941,1273119,69055,7948,636044,0
8,-1,667084,230669,1357687,69372,9452,678396,0
8,-1,668807,231446,1229752,69840,8390,614162,0
8,-1,672343,232290,1233124,70047,7394,615994,0
8,-1,671130,230593,1273272,69284,8341,636320,0
8,-1,664842,230035,1339098,69123,8325,669261,0
8,-1,667115,230765,1200295,69348,7087,599744,0
8,-1,668384,229780,1303554,69038,6841,651424,0
8,-1,666353,230445,1286862,69291,7899,643028,0
8,-1,675965,232687,1340276,70354,7938,669336,0
8,-1,665418,230247,1231073,69132,8972,615241,0
8,-1,672375,231878,1292222,69989,7861,645580,0
8,-1,667662,230483,1336081,69108,7978,667787,0
8,-1,672113,232023,1187841,69931,7275,593268,0
8,-1,667201,229672,1301511,69020,7994,650440,0
8,-1,672095,230860,1190824,69208,7646,595008,0
8,-1,666800,231425,1354275,69547,9491,676326,0
8,-1,666439,231036,1366484,69421,8781,682976,0
8,-1,668560,231107,1330368,69609,8362,664708,0
8,-1,666843,231311,1267704,69792,8224,633191,0
8,-1,691673,235758,1425107,72822,10388,711975,0
8,-1,673838,231718,1474652,69708,9836,737075,0
8,-1,690984,235990,1379341,72713,8813,689230,0
8,-1,673588,231646,1314197,69479,8639,656629,0
8,-1,674169,232573,1225325,69746,8130,612171,0
8,-1,670093,232254,1231916,69958,7568,615323,0
8,-1,669837,230486,1409722,69184,8190,704427,0
8,-1,672364,230865,1317012,69347,8510,658077,0
8,-1,668239,231063,1449680,69377,8817,724463,0
8,-1,673372,232459,1368641,69696,9225,683984,0
8,-1,676184,232928,1412877,69913,8922,705852,0
8,-1,670068,230547,1428703,69257,8354,713469,0
8,-1,676051,232962,1286591,70092,7786,642593,0
8,-1,672320,230826,1256411,69282,9046,627753,0
8,-1,670000,231230,1426735,69431,8492,713016,0
8,-1,670650,230700,1277087,69154,8054,638080,0
8,-1,676745,233264,1325685,70309,8911,662157,0
8,-1,670605,231000,1301188,69469,8088,650208,0
8,-1,669577,230519,1253307,69446,8606,626190,0
8,-1,671683,230323,1268613,69360,8375,633892,0
8,-1,666279,230834,1253078,69500,8462,626198,0
8,-1,663881,229880,1426450,69178,9280,712802,0
8,-1,674995,232833,1461253,70499,8901,729835,0
8,-1,665812,230233,1340446,69186,8624,669750,0
9,-1,718035,248440,1480654,73745,9175,739896,0
9,-1,719819,248597,1350799,73780,8248,675029,0
9,-1,664518,230988,1306890,69235,7627,652940,0
9,-1,665229,230098,1334007,68640,7920,666469,0
9,-1,671572,231948,1314426,69542,7880,656623,0
9,-1,666990,229543,1355214,68585,8391,677274,0
9,-1,661901,230043,1230986,68795,7286,615195,0
9,-1,665727,230756,1191434,68886,7716,595343,0
9,-1,661740,229903,1267152,68746,7548,633247,0
9,-1,672288,232197,1354164,69699,9152,676551,0
9,-1,667453,230848,1311379,68943,8241,655355,2
9,-1,670542,231833,1339161,69466,8523,668521,0
9,-1,671180,230729,1310504,68868,8143,654901,0
9,-1,668415,231249,1521156,69070,8856,759573,0
9,-1,668236,230465,1261589,68873,7521,630432,0
9,-1,669898,230971,1300570,69170,7775,649944,0
9,-1,673068,233224,1346757,70175,7801,672706,0
9,-1,668849,230776,1315983,69106,7601,657655,0
9,-1,673659,232806,1243666,70122,8273,621255,0
9,-1,665567,230779,1214764,69149,7784,606985,0
9,-1,661835,229661,1255815,68826,7437,627368,0
9,-1,666496,230129,1353235,68884,7677,676253,0
9,-1,666910,231230,1459746,69194,7801,729956,0
9,-1,669281,232847,1269203,69936,9158,634408,0
9,-1,670436,231295,1384633,69223,8850,691872,0
9,-1,666901,231138,1208383,69185,8018,603635,0
9,-1,665745,230532,1387083,68953,7671,692844,0
9,-1,665860,230227,1249737,68808,8120,624562,0
9,-1,665140,230611,1375817,68961,7891,687540,0
9,-1,665673,230007,1342134,68803,8340,670613,0
9,-1,668475,230820,1336762,68997,8170,668028,0
9,-1,667292,231697,1354500,69456,8177,676756,0
9,-1,686445,235577,1321809,72421,9233,660505,0
9,-1,687908,235379,1252203,72316,8209,625720,0
9,-1,663273,229732,1325661,68625,7746,662510,0
9,-1,667338,230653,1275548,69038,8230,637375,0
9,-1,670706,232205,1265587,69682,8173,632273,0
9,-1,665811,231029,1335681,69023,7682,667530,0
9,-1,665336,230710,1321305,68855,7202,660351,0
9,-1,672598,231907,1405327,69206,8655,702367,0
9,-1,672404,232074,1351204,69475,8571,675190,0
9,-1,673193,231631,1333607,69262,7548,666473,0
9,-1,674841,232225,1274602,69311,7866,636859,0
9,-1,668511,232201,1402901,69318,8744,701061,0
9,-1,673887,233256,1334997,70024,8162,666863,0
9,-1,669750,231939,1341126,69536,8080,669930,0
9,-1,686481,234853,1211354,72061,8487,605275,0
9,-1,668014,230611,1280888,68978,7934,640083,0
9,-1,665813,231150,1208322,69044,7223,603804,0
9,-1,666322,229752,1369705,68650,8217,684464,0
9,-1,664023,229413,1273705,68475,8166,636946,0
9,-1,663519,230408,1464265,68807,8252,731764,0
9,-1,669761,231800,1274387,69093,9180,636519,0
9,-1,671285,231091,1225128,68882,7797,612104,0
9,-1,688007,235839,1256983,72274,8089,628053,0
9,-1,674648,232946,1378698,69882,8401,688532,0
9,-1,664724,230015,1317474,68635,7788,658424,0
9,-1,662273,229307,1319077,68325,7597,659223,0
9,-1,669840,230320,1388121,68683,9355,693733,0
9,-1,667000,230006,1442234,68640,9315,720146,0
9,-1,668454,231636,1244428,69349,7724,621634,0
9,-1,666743,229995,1312340,68608,8279,655866,0
9,-1,668383,229797,1244062,68541,8584,621648,0
9,-1,671884,231030,1370860,68975,8219,685014,0
9,-1,675173,231695,1443580,69363,9650,721061,0
9,-1,670119,230110,1342986,68571,8005,671095,0
9,-1,657991,229531,1255694,67909,7704,627424,0
9,-1,666349,231286,1409921,68531,8877,704242,0
9,-1,689897,236071,1484226,72500,11029,741583,0
9,-1,663018,229657,1245135,68123,8464,622130,0
9,-1,686904,234792,1390969,71646,9274,694866,0
9,-1,667686,231052,1326745,69604,9390,662721,0
9,-1,662918,230539,1376511,69243,9310,687900,0
9,-1,685317,234387,1403652,72346,9504,701305,0
9,-1,671196,231709,1284858,69933,8452,641860,0
9,-1,666514,230735,1331677,69375,8889,665474,0
9,-1,667538,229875,1301881,69051,7350,650591,0
9,-1,673010,231318,1233430,69741,8149,616138,0
9,-1,663411,229947,1213161,69101,8129,606181,0
9,-1,687513,234830,1403132,72477,8980,701137,0
9,-1,671542,231618,1227703,69849,7254,613225,0
9,-1,663477,229765,1299327,69072,7486,649231,0
9,-1,668498,230461,1297332,69268,7599,648255,0
9,-1,667875,231664,1214443,69880,8696,606560,0
9,-1,667242,229889,1242916,69091,7809,621037,0
9,-1,667561,229815,1334888,68892,7568,667080,0
9,-1,687144,234493,1334276,72246,8585,666655,0
9,-1,674289,232481,1237775,70177,8019,618421,0
9,-1,670383,231105,1213842,69504,7663,606467,0
9,-1,663507,230473,1401181,69331,9413,700028,0
9,-1,688019,235931,1463777,72913,10468,731064,0
9,-1,672520,232346,1272191,69946,8511,635708,0
9,-1,676082,232053,1287773,69838,8094,643447,0
9,-1,673069,231918,1373966,69735,9247,686411,0
9,-1,676186,232984,1376227,70288,9963,687149,0
9,-1,672274,232145,1242398,69737,7327,620776,0
9,-1,675107,232747,1293177,69948,8254,646057,0
9,-1,668871,230890,1262991,69206,8294,631184,0
9,-1,674208,232756,1281854,70230,8365,640220,0
9,-1,670389,230988,1317839,69322,8283,658527,0
9,-1,676825,232009,1414168,69730,9149,706663,0
9,-1,671585,232735,1393359,70217,8969,695991,0
9,-1,669785,231469,1392932,69339,9159,696114,0
9,-1,670342,230889,1326750,69164,8982,662910,0
9,-1,675166,232517,1322556,70132,8854,660720,0
9,-1,671648,231055,1350829,69372,8546,674958,0
9,-1,674417,232040,1326607,69685,7768,662897,0
9,-1,665989,229965,1238669,68983,7778,618863,0
9,-1,671979,231632,1327486,69535,8221,663249,0
9,-1,692475,235333,1382035,72470,9352,690526,0
9,-1,668545,230025,1197288,69100,7999,598231,0
9,-1,694924,234566,1358716,72603,9455,678937,0
9,-1,670066,229563,1335259,69088,8845,667268,0
9,-1,661711,229631,1544336,69121,9463,771521,0
9,-1,664405,230393,1334657,69402,8919,666846,0
9,-1,671483,231849,1341360,69997,7938,670033,0
9,-1,685911,235120,1404020,72627,10116,701817,0
10,-1,723654,251173,1370001,74834,8631,684343,0
10,-1,716597,247768,1265204,73461,7479,632234,0
10,-1,664491,231206,1298521,69196,7629,648858,0
10,-1,666824,231087,1345536,69189,8180,672204,0
10,-1,666180,230319,1415234,68840,8339,707087,0
10,-1,666956,229988,1224819,68719,7463,611981,0
10,-1,662641,230624,1191211,68929,7390,595226,0
10,-1,667404,231488,1322055,69311,8046,660451,0
10,-1,662515,229942,1291003,68797,7343,645083,0
10,-1,669219,230799,1239911,69102,8327,619434,0
10,-1,664819,229951,1301466,68716,7900,649774,0
10,-1,669611,230484,1226816,68735,8328,612836,0
10,-1,667131,231389,1348671,69295,8636,673856,0
10,-1,666311,231059,1315102,69108,8465,657048,2
10,-1,686545,234847,1297475,72137,8757,648817,0
10,-1,668154,230715,1252206,69102,7790,625721,0
10,-1,670067,232424,1326547,69840,7700,662709,0
10,-1,667169,230037,1316902,68857,7656,658109,0
10,-1,671572,230727,1305379,69077,7961,652254,0
10,-1,683259,235250,1243664,72386,8088,621530,0
10,-1,664518,230819,1280446,69155,7989,639834,0
10,-1,664857,230180,1357026,68958,7416,678082,0
10,-1,669013,232339,1222722,69535,8239,610822,0
10,-1,669758,230961,1334366,69057,8670,666808,0
10,-1,669466,231101,1275385,69122,8396,637185,0
10,-1,666097,230659,1275217,68932,7744,637098,0
10,-1,672610,233444,1347858,70215,8478,673197,0
10,-1,669286,231075,1473890,69173,8284,736552,0
10,-1,667457,231093,1352663,69093,8245,675991,0
10,-1,667148,230997,1327695,68990,8432,663371,0
10,-1,667546,230503,1267774,68963,8288,633446,0
10,-1,665326,231207,1239367,69200,7090,619212,0
10,-1,665118,231231,1401363,69143,9095,700258,0
10,-1,668748,231747,1309132,69329,7113,654156,0
10,-1,668240,231673,1303862,69337,7921,651605,0
10,-1,667192,230708,1343381,68974,8034,671219,0
10,-1,669701,231938,1318389,69398,8104,658858,0
10,-1,665626,231065,1277064,68961,7067,638106,0
10,-1,671213,232577,1355589,69765,8095,677192,0
10,-1,665990,229823,1290512,68568,7526,644901,0
10,-1,671682,232004,1488313,69372,9403,743799,0
10,-1,674410,232370,1260235,69454,7233,629815,0
10,-1,674055,232252,1330113,69280,8280,664744,0
10,-1,666458,231554,1405663,69063,8290,702459,0
10,-1,668836,231186,1289793,69077,7988,644583,0
10,-1,664722,230596,1321293,68860,7397,660289,0
10,-1,667158,230192,1191141,68702,7748,595260,0
10,-1,671186,231605,1312817,69463,7909,655797,0
10,-1,664907,230081,1199067,68677,7036,599228,0
10,-1,673288,232490,1306782,69740,8210,652843,0
10,-1,670081,230723,1354068,68913,9418,676680,0
10,-1,694032,235601,1318927,72321,9952,659187,0
10,-1,666410,230507,1216397,68744,8976,607836,0
10,-1,669481,231100,1507081,68831,9531,753157,0
10,-1,665948,230774,1311846,68825,7580,655507,0
10,-1,688478,235011,1338646,72064,8809,668919,0
10,-1,666167,229829,1193965,68547,7595,596649,0
10,-1,666396,230174,1361565,68683,7891,680417,0
10,-1,668302,230744,1400349,68823,8431,699780,0
10,-1,670338,230216,1433494,68664,10008,716198,0
10,-1,665122,229930,1298808,68595,8301,648989,0
10,-1,668784,230428,1364033,68709,7567,681605,0
10,-1,667853,230640,1314764,68871,7962,656932,0
10,-1,688557,234474,1352775,71831,8633,675925,0
10,-1,693128,234975,1456991,71985,10021,727781,0
10,-1,671752,230882,1248694,68863,7276,623983,0
10,-1,658772,230232,1364189,68285,8131,681572,0
10,-1,668587,232247,1357784,69011,9116,678048,0
10,-1,666756,231177,1454725,68844,9109,726432,0
10,-1,664991,231526,1283786,68859,8873,641347,0
10,-1,665719,230670,1353560,68514,8373,676370,0
10,-1,664976,230201,1367327,69134,9050,683163,0
10,-1,667819,232258,1291936,70082,9608,645203,0
10,-1,665975,230239,1322305,69206,8718,660758,0
10,-1,686994,234577,1391971,72418,9935,695565,0
10,-1,662998,229571,1292805,68924,8865,646141,0
10,-1,666693,229890,1292711,69074,8191,645866,0
10,-1,667113,229405,1214342,68857,8162,606836,0
10,-1,663846,230700,1331456,69342,7853,665376,0
10,-1,664229,230189,1326432,69221,8275,662842,0
10,-1,666633,229948,1264950,69121,6931,632150,0
10,-1,671421,232416,1294116,70209,8054,646474,0
10,-1,668668,230101,1313957,69143,7128,656603,0
10,-1,685634,234937,1371754,72523,9733,685500,0
10,-1,666854,230150,1234895,69204,7712,617096,0
10,-1,670080,231302,1202833,69421,7453,601055,0
10,-1,668142,230532,1202140,69206,7124,600673,0
10,-1,665968,229776,1218918,68986,7753,609079,0
10,-1,670210,230422,1323389,69125,7799,661422,0
10,-1,661137,229833,1361372,69144,9539,680282,0
10,-1,665673,231299,1287906,69612,8439,643335,0
10,-1,699149,242363,1347980,73166,8155,673345,0
10,-1,673593,231417,1330434,69670,8763,664837,0
10,-1,676027,233106,1304634,70298,9272,651277,0
10,-1,693244,236153,1506913,72937,10549,752979,0
10,-1,667473,230720,1317933,69249,7679,658586,0
10,-1,670483,231037,1253008,69364,8440,626219,0
10,-1,671128,231099,1227640,69262,8177,613455,0
10,-1,690100,235436,1359383,72639,8765,679326,0
10,-1,668073,230581,1204800,69223,8148,602012,0
10,-1,672359,230817,1273751,69288,8465,636481,0
10,-1,688229,235571,1321052,72688,9278,660147,0
10,-1,672310,231189,1428700,69477,9945,714198,0
10,-1,679763,233617,1639411,70483,10217,818161,0
10,-1,667343,230653,1389958,69312,10022,694590,0
10,-1,671117,231506,1394192,69458,9948,696073,0
10,-1,673710,231007,1277313,69338,8370,638257,0
10,-1,671737,230413,1289737,69110,8785,644502,0
10,-1,667525,230468,1386610,69120,8179,692831,0
10,-1,670365,230518,1368950,69127,8661,684143,0
10,-1,669423,230579,1374100,69312,8042,686611,0
10,-1,669722,229562,1348210,69103,7941,673750,0
10,-1,669712,229667,1267954,69154,8399,633497,0
10,-1,663702,230184,1431495,69288,9115,715681,0
10,-1,665986,231091,1396439,69797,8388,697592,0
10,-1,666135,229634,1195735,69139,7895,597512,0
10,-1,669728,230606,1284817,69358,8922,641793,0
11,-1,718877,248183,1367014,73620,8558,683202,0
11,-1,725381,251250,1369782,74861,7974,684248,0
11,-1,660074,229603,1219278,68664,7184,609363,0
11,-1,664441,230355,1218075,68718,7187,608526,0
11,-1,665534,230172,1234922,68819,7779,617144,0
11,-1,666789,229884,1283086,68754,8040,641194,0
11,-1,666099,231608,1219461,69549,8026,609187,0
11,-1,664505,230279,1201584,68796,7105,600440,0
11,-1,662498,229787,1238812,68766,7351,619098,0
11,-1,666885,230131,1285946,68867,7781,642660,0
11,-1,663970,229600,1270525,68510,8025,634798,0
11,-1,690989,235135,1266968,72011,9457,633014,0
11,-1,665121,230774,1295931,68953,8266,647514,0
11,-1,670420,230914,1261964,68997,8980,630684,0
11,-1,667685,230606,1287089,69061,8243,643162,0
11,-1,672624,230467,1305740,69032,7611,652560,0
11,-1,663338,230548,1327847,69119,7774,663536,2
11,-1,669334,231212,1278961,69275,7081,639118,0
11,-1,674409,232157,1325680,69761,8326,662387,0
11,-1,665743,231669,1304634,69605,7888,651806,0
11,-1,662849,230845,1332147,69182,8103,665760,0
11,-1,669035,232015,1307360,69782,7710,653138,0
11,-1,664377,230929,1230232,69016,8179,614758,0
11,-1,669005,231188,1290750,69180,8171,644942,0
11,-1,671172,232395,1464770,69782,10339,731592,0
11,-1,666529,231084,1254821,69163,7763,626870,0
11,-1,687351,235198,1277944,72261,8845,638713,0
11,-1,668901,230914,1343315,69067,8124,671263,0
11,-1,667780,231399,1340460,69223,7396,669862,0
11,-1,670231,231879,1357955,69562,8622,678321,0
11,-1,690658,235459,1302657,72369,8950,650703,0
11,-1,662727,231160,1332578,69123,7641,665885,0
11,-1,662902,230447,1355373,68923,8507,676693,0
11,-1,669742,232144,1309861,69630,7569,654432,0
11,-1,685883,235351,1325233,72367,9241,662339,0
11,-1,668701,231135,1219839,68975,7809,609595,0
11,-1,670004,230650,1282762,68962,8379,641065,0
11,-1,665664,231322,1241267,69079,7462,620251,0
11,-1,690001,236240,1324740,72503,8646,661959,0
11,-1,671425,232335,1353988,69639,8584,676384,0
11,-1,677677,234382,1461208,70473,9486,729806,0
11,-1,673088,231783,1322651,69394,7959,660937,0
11,-1,670922,231059,1330829,68896,7764,665079,0
11,-1,665293,232076,1348145,69268,7756,673643,0
11,-1,668660,230954,1382669,69008,8221,691032,0
11,-1,668038,231824,1301740,69341,8187,650475,0
11,-1,666749,230803,1215781,68986,7577,607513,0
11,-1,692218,235820,1259698,72449,8752,629490,0
11,-1,662855,229996,1290475,68629,7388,644883,0
11,-1,667272,230535,1226150,68924,7986,612396,0
11,-1,668885,230319,1470774,68764,9551,734643,0
11,-1,670927,230680,1354510,68860,8933,677171,0
11,-1,668601,230802,1271586,68885,8870,635475,0
11,-1,673039,232882,1322382,69578,8821,660750,0
11,-1,670309,231515,1239989,69178,8572,619411,0
11,-1,667406,229992,1215466,68600,7147,607432,0
11,-1,669912,230987,1302293,68996,7775,650791,0
11,-1,670489,232453,1251507,69685,7787,625210,0
11,-1,672697,232333,1337294,69619,8393,668314,0
11,-1,676219,232906,1355388,69799,9933,676890,0
11,-1,665293,230486,1195087,68798,7772,597117,0
11,-1,715992,244291,1370882,74821,8636,685082,0
11,-1,669729,230187,1339278,68712,8223,669150,0
11,-1,668777,230511,1402268,68848,7808,700768,0
11,-1,669068,229759,1289266,68530,8040,644155,0
11,-1,669098,229966,1355004,68540,7690,676835,0
11,-1,664330,232364,1241940,69107,7708,620208,0
11,-1,685177,235237,1463196,71633,9775,731016,0
11,-1,663260,230291,1537877,68413,8881,768536,0
11,-1,663527,230648,1347044,68474,8919,673116,0
11,-1,661223,229400,1271372,68016,7925,635306,0
11,-1,670815,231326,1356197,69690,8981,677180,0
11,-1,670209,230335,1360572,69186,9579,679774,0
11,-1,664321,230094,1237915,69126,8573,618788,0
11,-1,667784,230772,1414469,69375,8524,706576,0
11,-1,668615,231427,1264034,69772,8403,631480,0
11,-1,671547,232252,1231423,70047,8073,615075,0
11,-1,672553,232032,1192090,70045,8367,595454,0
11,-1,664032,229772,1319894,69024,8942,659587,0
11,-1,689859,239629,1326538,72035,8802,662924,0
11,-1,666198,230063,1242023,69149,7177,620654,0
11,-1,689878,234749,1346882,72453,8241,673049,0
11,-1,671326,231664,1207653,69812,8359,603229,0
11,-1,673624,231526,1223841,69876,7795,611234,0
11,-1,666897,230005,1356516,69139,8264,677874,0
11,-1,669037,230438,1306260,69079,7573,652759,0
11,-1,666448,230198,1322034,69083,8607,660564,0
11,-1,668964,230877,1262308,69350,7518,630855,0
11,-1,696578,239735,1312270,71948,7302,655771,0
11,-1,671933,229022,1390758,68918,9011,694897,0
11,-1,670936,231472,1404054,69637,9275,701284,0
11,-1,668149,231550,1402472,69664,8522,700790,0
11,-1,676422,232752,1280737,70345,8036,639731,0
11,-1,668547,230991,1276549,69507,8560,637792,0
11,-1,673477,232364,1327765,69935,8488,663385,0
11,-1,674658,232857,1289489,70232,7950,644098,0
11,-1,676716,233593,1257876,70445,8000,628239,0
11,-1,670945,230740,1345788,69105,8509,672546,0
11,-1,671029,231624,1273631,69579,8099,636429,0
11,-1,670973,232021,1259816,69735,8325,629295,0
11,-1,676467,232989,1235236,70284,8585,616830,0
11,-1,665696,230654,1266559,69257,9198,632821,0
11,-1,677302,233396,1408569,70381,10403,703669,0
11,-1,697527,237269,1474741,73215,10218,736744,0
11,-1,672711,231564,1355003,69657,8854,676795,0
11,-1,669382,230852,1398939,69287,9450,698854,0
11,-1,676071,231782,1344572,69617,8101,671886,0
11,-1,671492,231563,1321170,69448,7934,660053,0
11,-1,667698,231004,1304515,69326,8376,652084,0
11,-1,675742,232881,1314452,70083,8818,656658,0
11,-1,667069,229798,1330904,69026,7899,665109,0
11,-1,669586,229565,1267583,69101,8471,633479,0
11,-1,672856,230363,1373972,69349,8229,686630,0
11,-1,664251,229644,1326530,69118,8767,662489,0
11,-1,662808,229611,1404364,69097,9583,701869,0
11,-1,665843,230080,1257883,69318,8437,628431,0
11,-1,670238,231369,1505435,69765,9548,752134,0
12,-1,720523,249129,1268323,73959,8539,633772,0
12,-1,742106,253715,1398554,77241,8497,699102,0
12,-1,664910,230370,1261236,68930,7871,630177,0
12,-1,667960,230159,1454654,68661,8855,726973,0
12,-1,686340,234380,1316307,71995,8594,657845,0
12,-1,665897,229854,1233535,68661,7660,616442,0
12,-1,662653,229431,1176933,68657,7161,588057,0
12,-1,668275,232253,1345994,69640,7886,672511,0
12,-1,682497,234463,1350150,71999,8981,674573,0
12,-1,667580,230707,1442115,69045,9427,720694,0
12,-1,665204,230419,1296201,68835,7737,647507,0
12,-1,669236,231204,1280351,68986,8613,639774,0
12,-1,667428,231299,1310958,69120,8994,655382,0
12,-1,669304,231174,1200885,69142,8653,600062,0
12,-1,669893,231894,1361416,69643,8288,680031,0
12,-1,691111,235166,1265429,72420,8972,632286,0
12,-1,666792,230726,1283350,69150,7419,641294,2
12,-1,666670,230232,1238862,68938,7047,619094,0
12,-1,669035,230463,1212127,69054,7871,605707,0
12,-1,661018,229901,1288363,68838,7586,643865,0
12,-1,661649,230762,1356656,69032,7665,678162,0
12,-1,663246,230443,1310625,69051,7320,654934,0
12,-1,669133,233364,1275372,70098,9181,636691,0
12,-1,668043,231181,1279571,69178,8770,639775,0
12,-1,669742,231930,1332419,69413,9242,665756,0
12,-1,699509,243168,1347119,73105,9420,672868,0
12,-1,666538,231277,1226750,69213,7696,612983,0
12,-1,670425,232002,1373513,69589,8081,686179,0
12,-1,685649,235172,1351320,72253,8257,675188,0
12,-1,667178,230553,1252322,68951,7153,625766,0
12,-1,669825,230886,1328244,69055,8080,663738,0
12,-1,665024,230731,1288688,69005,8085,643947,0
12,-1,664462,231292,1332524,69225,9336,666051,0
12,-1,665136,230398,1285049,68867,6895,642208,0
12,-1,667041,231097,1316295,69055,8041,657865,0
12,-1,667971,230791,1325640,68805,8170,662555,0
12,-1,669378,230707,1272559,68989,8029,635903,0
12,-1,672528,231192,1283743,68992,8112,641494,0
12,-1,664932,230594,1310907,68895,7558,655129,0
12,-1,668390,230919,1240823,68936,8185,620072,0
12,-1,688992,235488,1583778,72283,9692,790853,0
12,-1,671144,231391,1335957,69201,8329,667644,0
12,-1,678757,234144,1396663,70171,8386,697796,0
12,-1,672980,232049,1331594,69246,7733,665464,0
12,-1,673052,232740,1437952,69775,7965,718508,0
12,-1,675739,232101,1309139,69513,8178,654024,0
12,-1,666386,230955,1310535,69014,7643,654844,0
12,-1,669645,231143,1286879,69149,7790,643097,0
12,-1,664830,230362,1214267,68790,7745,606786,0
12,-1,666853,230416,1341934,68827,8205,670572,0
12,-1,672045,232312,1441282,69725,8613,719638,0
12,-1,669795,230206,1247128,68735,8978,623314,0
12,-1,669117,230442,1268172,68717,8786,633290,0
12,-1,670097,230854,1292467,68786,9134,645824,0
12,-1,669160,231610,1206278,69088,8306,602697,0
12,-1,667597,230876,1225408,68888,7920,612335,0
12,-1,671887,232279,1362316,69532,7497,680586,0
12,-1,685042,235021,1210947,72068,8313,605115,0
12,-1,667732,230912,1328607,68920,8365,663792,0
12,-1,667343,229946,1330294,68556,9017,665042,0
12,-1,670451,232693,1270509,69720,8210,634574,0
12,-1,666250,229888,1364658,68574,7775,681955,0
12,-1,668200,229561,1342574,68418,8795,670969,0
12,-1,668288,230290,1383635,68705,7557,691397,0
12,-1,673196,231583,1321517,69130,8736,660383,0
12,-1,676064,233027,1252474,69777,7779,625473,0
12,-1,656552,229840,1221787,68072,7381,610356,0
12,-1,659948,229636,1288373,67945,7731,643800,0
12,-1,662846,230686,1402204,68463,9641,700757,0
12,-1,662791,230635,1322809,68405,8789,661173,0
12,-1,666117,230984,1355068,68610,8412,677041,0
12,-1,667005,229968,1273337,69079,8922,636253,0
12,-1,669870,230479,1493873,69275,10140,746302,0
12,-1,666451,230407,1396434,69257,10084,697889,0
12,-1,665461,230122,1345814,69184,8555,672480,0
12,-1,662345,229663,1438361,69010,8538,718665,0
12,-1,686131,234306,1416232,72351,9025,707754,0
12,-1,689301,234502,1270806,72398,9104,635042,0
12,-1,682998,234683,1328305,72484,8857,663727,0
12,-1,665834,229402,1340783,68840,7722,670031,0
12,-1,666248,230282,1300609,69253,7222,649933,0
12,-1,667171,229975,1254725,69133,7029,627034,0
12,-1,665954,229955,1293529,69082,8947,646691,0
12,-1,691516,234903,1372271,72545,8936,685828,0
12,-1,663400,229690,1303828,68996,8449,651463,0
12,-1,669383,230871,1281089,69471,7084,640064,0
12,-1,665262,230123,1202511,69033,7672,600852,0
12,-1,665670,229953,1325832,69102,8187,662548,0
12,-1,671413,231651,1197151,69721,7274,598028,0
12,-1,693804,235064,1468883,72644,9981,733931,0
12,-1,672382,232107,1358947,70075,9787,678339,0
12,-1,667525,231584,1260657,69683,9211,629895,0
12,-1,674261,232548,1299698,70227,8196,649197,0
12,-1,671973,231334,1396415,69550,8778,697765,0
12,-1,674754,232889,1226649,70256,8401,612589,0
12,-1,670357,232175,1339673,69794,8446,669405,0
12,-1,691794,235846,1475064,72738,9655,737003,0
12,-1,676815,233397,1263008,70291,8507,630838,0
12,-1,671254,232122,1226277,69892,7945,612385,0
12,-1,673367,231280,1229077,69490,8582,614069,0
12,-1,672854,230820,1212580,69331,8108,605791,0
12,-1,674955,232927,1288996,70203,8817,644007,0
12,-1,693209,235884,1398891,72740,10562,698725,0
12,-1,671536,231352,1312871,69470,8235,655815,0
12,-1,674100,232270,1432456,70032,9290,715835,0
12,-1,675467,231175,1376483,69491,9510,687793,0
12,-1,672452,230526,1320914,69108,8394,660042,0
12,-1,667269,230389,1282997,69113,8425,641084,0
12,-1,671006,230244,1293929,69049,8419,646449,0
12,-1,667740,229924,1242766,68952,8722,620988,0
12,-1,668875,231102,1331418,69593,8436,665035,0
12,-1,670406,230018,1350616,69309,8289,674858,0
12,-1,676210,232366,1462757,70281,8766,730641,0
12,-1,661338,229498,1334751,69065,8738,666955,0
12,-1,663420,230640,1334882,69471,8078,666712,0
12,-1,667079,230361,1335311,69328,7837,667232,0
12,-1,666220,230505,1282789,69311,9222,641113,0
13,-1,721855,250182,1380114,74488,8514,689461,0
13,-1,718932,248901,1365451,73822,8565,682178,0
13,-1,672283,232032,1239062,69680,8449,618909,0
13,-1,667291,230876,1304752,69201,7647,651949,0
13,-1,663735,229769,1185729,68698,6957,592592,0
13,-1,667404,230251,1218993,68885,6752,609138,0
13,-1,662515,229657,1215650,68626,7772,607513,0
13,-1,666344,230127,1268769,68827,7222,633987,0
13,-1,669731,230425,1279210,68951,7652,639244,0
13,-1,668077,231011,1443665,69104,9404,721278,0
13,-1,666570,230849,1282744,68874,7874,641066,0
13,-1,672128,231584,1286031,69090,8395,642426,0
13,-1,666719,230524,1286983,68843,8208,642890,0
13,-1,669723,231688,1316430,69385,9548,657659,0
13,-1,666816,230259,1285629,68947,7504,642439,0
13,-1,669446,230289,1253063,69004,7382,626147,0
13,-1,665912,230450,1165752,69100,7609,582485,2
13,-1,669316,230981,1237389,69172,7879,618297,0
13,-1,666831,229841,1338275,68791,7959,668816,0
13,-1,660192,230589,1192552,69006,7729,595927,0
13,-1,667002,230701,1267283,69143,8627,632963,0
13,-1,666879,231458,1200994,69356,7266,600024,0
13,-1,665164,230972,1352059,69114,8991,675410,0
13,-1,671065,232701,1337565,69900,8283,668253,0
13,-1,668320,231016,1279229,69083,8467,639026,0
13,-1,666205,231334,1413353,69209,10309,706166,0
13,-1,667166,230781,1444808,69012,8253,722009,0
13,-1,667267,230463,1325553,68915,8341,662375,0
13,-1,664817,230928,1320537,69018,7806,659912,0
13,-1,666480,230316,1324093,68826,7770,661727,0
13,-1,667102,230558,1220526,68956,7481,609935,0
13,-1,669764,232510,1351473,69734,8239,675158,0
13,-1,667549,230317,1329714,68932,7963,664359,0
13,-1,666999,231635,1268128,69337,6931,633712,0
13,-1,664192,230440,1228594,68864,7525,613710,0
13,-1,670700,232615,1363682,69785,7312,681257,0
13,-1,667667,230980,1363379,69104,7578,681305,0
13,-1,671527,231177,1270925,69024,8020,635145,0
13,-1,665533,230827,1223986,68901,7204,611672,0
13,-1,669793,231360,1221743,69102,7830,610467,0
13,-1,670429,232328,1441363,69457,8870,720123,0
13,-1,669819,230968,1279685,69044,7942,639401,0
13,-1,694042,236530,1355735,72509,9030,677538,0
13,-1,676231,231666,1330827,69037,8157,665050,0
13,-1,667663,231114,1378454,69008,8390,688886,0
13,-1,671298,230991,1236011,69077,8006,617607,0
13,-1,665745,230831,1200028,69050,7388,599658,0
13,-1,665736,230651,1211893,68883,7322,605553,0
13,-1,672401,231053,1371398,69030,8882,684799,0
13,-1,668663,230586,1210059,68936,7721,604627,0
13,-1,667133,230126,1344610,68821,8756,672036,0
13,-1,670735,230889,1420236,68978,8848,709474,0
13,-1,669743,230828,1368950,68859,9328,683871,0
13,-1,670041,231282,1331294,68916,9146,665108,0
13,-1,665425,230644,1278606,68740,7955,638963,0
13,-1,664497,229927,1326071,68579,7768,662684,0
13,-1,666926,230243,1199039,68781,7606,599164,0
13,-1,664064,230081,1208496,68651,7712,603842,0
13,-1,666131,229984,1269537,68587,8347,634508,0
13,-1,667735,230395,1423077,68717,9138,711091,0
13,-1,684853,235004,1236799,72097,8578,617904,0
13,-1,666433,230236,1321211,68675,8008,660222,0
13,-1,669867,230497,1254157,68794,8033,626701,0
13,-1,667982,230447,1454674,68782,8020,726858,0
13,-1,671225,230423,1357881,68800,8302,678507,0
13,-1,690987,235194,1349440,72037,8234,674269,0
13,-1,657519,230553,1283785,68297,7141,641429,0
13,-1,661041,229697,1343749,68044,7689,671494,0
13,-1,664037,230401,1421345,68384,9037,710178,0
13,-1,661372,230448,1220760,68455,8015,609795,0
13,-1,668074,232109,1340867,69132,8571,669754,0
13,-1,668423,231090,1289985,69438,9871,644693,0
13,-1,669409,230601,1300649,69330,9628,650137,0
13,-1,665421,230211,1513717,69147,9560,755748,0
13,-1,665999,230451,1350259,69237,8982,674676,0
13,-1,665313,230475,1332963,69326,8363,666267,0
13,-1,669068,230275,1240121,69186,7448,619747,0
13,-1,668467,230438,1224580,69276,8124,611852,0
13,-1,664629,230319,1291781,69235,8516,645532,0
13,-1,665319,230052,1275241,69122,7328,637249,0
13,-1,668629,230967,1254525,69636,8265,626714,0
13,-1,668043,230458,1304012,69279,7229,651556,0
13,-1,667239,230619,1299282,69284,8808,648818,0
13,-1,669573,230347,1238987,69258,7422,619124,0
13,-1,663027,229746,1243973,69023,8489,621737,0
13,-1,667512,230306,1360031,69198,8006,679651,0
13,-1,666487,230407,1297723,69108,8134,648465,0
13,-1,670333,231523,1299320,69768,8501,649251,0
13,-1,665790,229392,1183176,68800,7269,591301,0
13,-1,673108,230616,1498240,69299,9791,748637,0
13,-1,669598,231278,1432911,69648,9949,715622,0
13,-1,666140,230793,1203934,69382,8297,601409,0
13,-1,671646,231398,1342974,69690,8438,671077,0
13,-1,675346,233128,1336278,70417,8592,667480,0
13,-1,695193,236433,1453653,73026,10511,726190,0
13,-1,666325,230681,1392136,69318,8955,695471,0
13,-1,669624,231327,1348264,69402,8036,673761,0
13,-1,673573,232452,1268669,69849,7480,633825,0
13,-1,671070,230850,1378401,69264,7990,688850,0
13,-1,673121,231242,1416371,69470,8704,707552,0
13,-1,673379,230917,1285490,69345,8468,642255,0
13,-1,669650,230923,1275474,69321,8394,637278,0
13,-1,669547,230827,1426022,69207,9750,712621,0
13,-1,670804,231420,1366159,69501,8505,682386,0
13,-1,672164,231802,1582956,69718,8925,790414,0
13,-1,676926,232839,1540037,70266,9302,768694,0
13,-1,694777,235947,1419763,72750,10036,709336,0
13,-1,671881,232432,1286545,70022,8262,642696,0
13,-1,675204,231835,1318797,69786,8355,658748,0
13,-1,693576,235284,1337520,72536,9771,668301,0
13,-1,671308,232243,1321307,70145,8783,660088,0
13,-1,670171,229972,1246625,69223,8531,622869,0
13,-1,669722,230581,1265422,69459,8179,632242,0
13,-1,684642,235088,1460506,72732,10035,729626,0
13,-1,688656,235061,1399118,72695,10100,699001,0
13,-1,666284,230520,1334657,69459,7912,666907,0
13,-1,672376,232914,1435746,70322,10732,717103,0
14,-1,724339,251282,1620037,74927,11021,809484,0
14,-1,722640,250767,1383860,74680,7985,690988,0
14,-1,667210,230156,1165417,68807,7566,582254,0
14,-1,665386,229936,1285485,68831,8025,642373,0
14,-1,663147,229856,1295864,68607,7583,647489,0
14,-1,665542,229771,1338985,68725,8492,669136,0
14,-1,664967,230483,1181623,68956,7518,590482,0
14,-1,666308,230380,1299286,68918,7424,649310,0
14,-1,673033,232462,1324029,69840,8095,661523,0
14,-1,671151,232687,1322826,69902,8385,660771,0
14,-1,668087,230591,1463460,68803,8080,731878,0
14,-1,668820,230712,1394001,68805,8826,696655,0
14,-1,688479,235670,1336032,72240,9497,667619,0
14,-1,668203,231497,1265054,69194,8763,632133,0
14,-1,671988,232647,1321162,69948,7634,659987,0
14,-1,670084,230697,1306064,69069,7645,652698,0
14,-1,667797,230018,1213498,68803,7693,606444,0
14,-1,673655,232309,1319978,69904,6909,659483,2
14,-1,670066,230640,1214751,69072,8111,606963,0
14,-1,666084,232246,1359715,69855,7874,679335,0
14,-1,663679,229826,1281972,68824,8803,640716,0
14,-1,662952,230408,1210943,69038,7476,604990,0
14,-1,664613,230730,1284795,69040,7959,641837,0
14,-1,686645,235152,1306656,72304,8966,652875,0
14,-1,670031,231804,1397193,69373,8793,698092,0
14,-1,664348,230483,1436050,68896,9109,717504,0
14,-1,665768,230562,1280427,68947,7713,639808,0
14,-1,667242,230446,1232830,68959,7727,616048,0
14,-1,665593,231011,1382437,69054,7191,690759,0
14,-1,669741,231814,1355224,69347,8440,677145,0
14,-1,668052,230604,1261232,69000,7595,630010,0
14,-1,664834,231028,1248368,69124,7743,623643,0
14,-1,666899,230404,1276094,68897,7777,637656,0
14,-1,669355,231590,1371580,69261,8074,685447,0
14,-1,686137,235620,1249388,72374,9182,624273,0
14,-1,686865,235203,1404769,72152,8119,702114,0
14,-1,668437,231144,1347027,69150,7989,673191,0
14,-1,669386,230807,1254878,68911,7770,627130,0
14,-1,667140,231861,1470632,69469,7568,734788,0
14,-1,671092,232464,1280267,69613,7953,639538,0
14,-1,670400,231874,1307589,69272,8858,653151,0
14,-1,669457,231017,1315043,69128,7613,657163,0
14,-1,673894,232607,1430990,69389,8316,715017,0
14,-1,680271,233579,1362812,70001,8776,680745,0
14,-1,666089,231037,1347782,68994,8401,673518,0
14,-1,670483,231077,1338532,69037,8056,668910,0
14,-1,667531,230558,1299021,68834,8090,649161,0
14,-1,665628,230142,1301577,68727,8128,650519,0
14,-1,668422,230154,1354148,68641,8971,676647,0
14,-1,686194,234295,1246895,71892,8404,623087,0
14,-1,666973,230243,1262622,68793,8407,630996,0
14,-1,673050,231903,1453642,69477,8747,725152,0
14,-1,670820,230929,1290301,69013,8853,644791,0
14,-1,669522,230689,1284016,68643,9289,641513,0
14,-1,665119,231071,1306972,68929,8375,653039,0
14,-1,692597,239393,1314415,71392,8040,656910,0
14,-1,666724,230340,1284482,68715,7385,641957,0
14,-1,661947,229567,1160711,68403,7622,579954,0
14,-1,669867,231590,1399150,69303,8746,698915,0
14,-1,668215,230419,1382317,68727,9803,690779,0
14,-1,672877,230192,1301278,68640,8714,648993,0
14,-1,690339,235265,1294933,72147,8788,647076,0
14,-1,670026,230471,1337767,68761,8775,668540,0
14,-1,672324,232306,1294188,69544,7893,646493,0
14,-1,696506,239430,1427053,71405,8465,713261,0
14,-1,667744,230077,1308981,68562,7313,654083,0
14,-1,670842,230295,1243715,68616,6631,621484,0
14,-1,661040,230244,1451149,68181,7934,725207,0
14,-1,667597,231827,1340843,69059,8992,669604,0
14,-1,682471,234993,1390055,71689,9285,694467,0
14,-1,664849,230415,1264997,68388,8656,632069,0
14,-1,685891,234884,1408647,72444,9887,703804,0
14,-1,667975,230404,1353382,69210,9304,676307,0
14,-1,665964,230610,1337928,69315,8541,668531,0
14,-1,666082,230908,1281285,69341,9132,640240,0
14,-1,669953,230207,1338534,69215,8912,668752,0
14,-1,671190,231836,1226179,69912,7753,612592,0
14,-1,669125,230908,1178394,69400,8083,588836,0
14,-1,664078,230633,1342865,69334,8660,671088,0
14,-1,669335,231001,1365901,69457,7682,682592,0
14,-1,665723,229829,1357721,69029,8176,678449,0
14,-1,665799,230352,1245365,69224,7277,622390,0
14,-1,667659,230347,1377206,69193,8697,688119,0
14,-1,669988,230507,1226845,69273,7349,613130,0
14,-1,666817,230392,1219366,69273,6928,609359,0
14,-1,666395,229963,1278675,69003,7292,638953,0
14,-1,665239,230105,1259424,69015,8643,629398,0
14,-1,671329,230372,1381453,69262,8581,690317,0
14,-1,667046,230399,1261077,69165,7742,630123,0
14,-1,671624,230510,1549382,69275,9356,774320,0
14,-1,667920,230753,1235223,69447,8659,616915,0
14,-1,673218,231493,1289611,69576,8633,644303,0
14,-1,669196,231035,1478708,69543,8875,738816,0
14,-1,670967,231736,1273274,69710,8223,636186,0
14,-1,671243,231427,1496689,69606,9270,747899,0
14,-1,672500,233478,1240089,70571,8459,619351,0
14,-1,669764,231560,1347060,69559,8889,673147,0
14,-1,671848,231672,1349596,69451,8086,674524,0
14,-1,676091,231778,1374764,69571,8592,686957,0
14,-1,670449,230107,1226292,69009,7515,612823,0
14,-1,672490,231368,1350620,69537,8449,674860,0
14,-1,668472,231100,1314582,69423,8211,656958,0
14,-1,670508,231318,1383173,69469,9539,690944,0
14,-1,692891,236734,1446076,73057,9825,722564,0
14,-1,668184,230326,1328745,69152,8870,663862,0
14,-1,692117,235487,1414107,72688,9924,706514,0
14,-1,673061,231387,1249672,69501,8762,624403,0
14,-1,690127,235995,1377938,72754,9820,688596,0
14,-1,669928,230567,1321131,69201,7408,660075,0
14,-1,670565,230588,1209387,69193,7725,604140,0
14,-1,686475,234933,1385591,72476,9215,692471,0
14,-1,672151,230331,1275124,69395,8123,637068,0
14,-1,670903,229960,1332042,69263,9052,665536,0
14,-1,660954,229820,1251394,69215,9053,624980,0
14,-1,668503,231185,1342544,69668,8954,670906,0
14,-1,665196,230162,1399039,69249,8693,698888,0
14,-1,687049,235075,1403853,72613,10171,701555,0
15,-1,736377,252884,1409353,76989,8898,704210,0
15,-1,720008,248273,1287330,73695,7940,643314,0
15,-1,664895,229663,1224410,68647,7749,611830,0
15,-1,662922,229417,1225577,68576,7022,612419,0
15,-1,664485,230742,1289945,68870,8164,644571,0
15,-1,665048,229620,1163356,68583,7287,581336,0
15,-1,666671,231534,1241793,69451,7662,620432,0
15,-1,665691,230496,1194275,68902,7085,596781,0
15,-1,691657,235584,1338567,72947,8167,668778,0
15,-1,667678,230634,1349355,68924,8683,674294,0
15,-1,665925,230669,1336359,68971,8129,667495,0
15,-1,669178,230886,1385468,68872,8293,693187,0
15,-1,667281,230987,1273233,68923,8083,636120,0
15,-1,666001,230366,1244660,68792,8742,621497,0
15,-1,687139,234881,1252627,72242,8308,625890,0
15,-1,671587,231642,1202164,69423,7332,600710,0
15,-1,686908,234926,1216423,72309,8084,607915,0
15,-1,667901,231186,1223452,69286,7747,611306,2
15,-1,673632,232387,1306118,69906,8534,652559,0
15,-1,668167,230616,1231866,69099,7804,615618,2
15,-1,670169,230799,1318280,69123,7672,658681,2
15,-1,660472,230537,1275759,69022,7565,637594,0
15,-1,660927,230433,1228471,69054,7541,613889,2
15,-1,667065,231689,1357872,69603,9325,677927,0
15,-1,662786,231156,1342773,69276,8388,670415,2
15,-1,661063,229711,1295938,68705,7584,647602,0
15,-1,662808,230544,1208769,69088,7624,604049,2
15,-1,666162,232523,1308858,69918,8294,653549,2
15,-1,665687,231500,1278359,69362,7525,638794,0
15,-1,664019,231082,1284221,69166,8448,641887,2
15,-1,663941,230328,1322336,68838,7940,660812,0
15,-1,665836,231277,1212973,69169,7369,606108,2
15,-1,669066,232470,1369597,69835,9290,683903,2
15,-1,666721,230875,1342574,69013,9590,670948,0
15,-1,667274,231920,1352002,69322,9613,675362,0
15,-1,664959,231640,1312196,69346,7610,655699,2
15,-1,687925,235622,1259346,72433,8300,629379,0
15,-1,670948,233137,1368498,70071,8362,683482,2
15,-1,673430,233506,1281991,70181,8248,640175,0
15,-1,661680,230163,1348885,68795,8513,673982,2
15,-1,687399,235284,1320079,72347,8709,659658,0
15,-1,694405,240553,1248676,71971,7961,623753,2
15,-1,665283,230972,1243570,69145,7911,621504,2
15,-1,669112,232101,1326977,69645,8684,662833,0
15,-1,667851,230698,1388701,69009,7848,693975,0
15,-1,669466,231230,1336862,69217,8195,668086,2
15,-1,663359,230531,1321781,68900,8114,660471,0
15,-1,669119,233238,1346164,70147,8020,672479,2
15,-1,671417,232766,1354310,69892,7991,676466,0
15,-1,666599,232042,1313301,69483,8733,656203,2
15,-1,666203,230614,1321495,68990,8809,660284,0
15,-1,664665,231289,1291850,69132,8031,645589,0
15,-1,664011,230488,1224078,68981,7441,611737,2
15,-1,691178,240504,1355634,71967,7852,677381,2
15,-1,665230,230551,1281856,68983,7567,640586,0
15,-1,665848,230564,1276498,68970,7323,637824,0
15,-1,672713,232541,1340221,69871,9478,669514,2
15,-1,669135,231717,1267373,69228,7547,633231,2
15,-1,669480,230713,1354392,68842,8603,676927,0
15,-1,665897,230858,1331906,68908,7533,665602,0
15,-1,662308,229940,1303523,68547,7868,651434,0
15,-1,673965,232179,1490422,69386,10025,744789,2
15,-1,672952,233122,1424719,69909,9056,711534,0
15,-1,701221,242817,1413635,72969,8631,706138,2
15,-1,674427,233285,1330973,70147,7825,664798,0
15,-1,671892,232082,1337228,69423,7336,668129,2
15,-1,671871,231999,1197720,69189,7929,598454,2
15,-1,671348,231645,1261433,69077,7766,630398,0
15,-1,672591,232801,1338064,69518,8564,668709,2
15,-1,672312,231172,1229440,68930,8275,614402,0
15,-1,672516,234519,1357632,70378,8921,678162,2
15,-1,668903,231787,1319077,69216,8879,659107,2
15,-1,668208,232072,1324479,69365,8779,661871,0
15,-1,666366,231525,1335335,69241,7963,667230,2
15,-1,669693,232101,1213406,69341,7735,606327,2
15,-1,674272,233224,1276110,69967,8188,637463,2
15,-1,674640,233270,1380138,69990,8102,689328,0
15,-1,664133,231252,1273846,69154,7388,636538,2
15,-1,674048,232686,1314542,69838,8299,656680,0
15,-1,690295,239373,1259833,71452,7997,629495,2
15,-1,671309,231778,1218910,69277,7406,609047,2
15,-1,671386,232816,1399533,69938,8646,699068,0
15,-1,670481,232814,1279095,69941,7662,638925,2
15,-1,669916,230078,1332129,68661,9303,666228,0
15,-1,669121,230935,1259124,69007,8636,629037,2
15,-1,665765,230479,1287388,68919,7842,643362,0
15,-1,672486,233100,1289593,69990,7718,644130,2
15,-1,667730,230846,1344793,69052,8070,672052,0
15,-1,668475,230566,1282555,68900,8807,640827,2
15,-1,668120,230358,1351556,68717,8810,675205,0
15,-1,665010,230740,1274775,68928,7654,636608,2
15,-1,669010,230867,1363469,68875,8723,681518,0
15,-1,665841,230767,1271696,68785,9367,635712,2
15,-1,669196,231010,1356975,68832,9014,678091,0
15,-1,664879,230637,1366635,68710,7221,682947,0
15,-1,664902,230882,1209701,68937,7413,604537,2
15,-1,672085,232356,1309813,69643,8051,654331,0
15,-1,672069,232766,1280950,69768,8097,639906,0
15,-1,663687,230593,1216495,68821,7552,607865,0
15,-1,663938,230478,1205019,68814,7209,602128,2
15,-1,666998,230360,1304736,68775,7878,652004,2
15,-1,664943,230150,1275690,68652,7807,637516,0
15,-1,665015,229631,1479501,68473,9550,738855,0
15,-1,668866,231053,1353678,69007,8525,675939,2
15,-1,670207,230064,1250641,68670,8370,625021,0
15,-1,665756,230632,1175663,68830,7199,587525,2
15,-1,667279,230470,1310543,68811,7693,654800,0
15,-1,670173,232347,1251567,69662,7437,625075,2
15,-1,669915,230886,1317266,68956,8237,658189,2
15,-1,667531,231071,1230946,69072,8084,615047,2
15,-1,690110,235239,1432991,72139,8677,716034,0
15,-1,667817,230835,1322719,68932,7504,661006,0
15,-1,666036,230599,1349221,68844,7956,674202,2
15,-1,673827,232504,1282938,69758,7931,640629,0
15,-1,669035,230612,1270651,68873,7875,634851,2
15,-1,674561,231392,1290505,69189,8563,644692,0
15,-1,677148,233635,1283363,70052,7389,641020,2
15,-1,672792,230026,1362179,68529,7208,680711,0
15,-1,660936,231325,1240560,68604,7622,619685,2
15,-1,664091,231834,1291684,68927,8126,645185,0
15,-1,660632,231251,1385867,68554,9567,692618,2
15,-1,684191,235015,1450187,71545,9941,724049,0
15,-1,666336,232281,1346742,69180,9513,671895,2
15,-1,665138,231644,1407306,68864,9338,702883,2
15,-1,664768,230172,1291243,68275,8240,645245,2
15,-1,659199,229866,1331903,68216,8573,665339,0
15,-1,661262,230722,1340825,68489,8704,669850,2
15,-1,660201,229814,1345449,68200,9115,672077,2
15,-1,662064,229325,1458045,68016,10503,728650,0
15,-1,666063,229917,1243305,68971,9097,621229,0
15,-1,665094,230799,1278680,69354,8830,639000,2
15,-1,673873,231988,1278974,69959,9242,638760,0
15,-1,661642,230294,1250200,69242,8320,624607,2
15,-1,671358,232683,1293457,70252,9332,645758,2
15,-1,663324,230063,1330750,69115,8950,664993,0
15,-1,664933,230840,1338027,69409,8459,668504,2
15,-1,666003,231125,1276662,69538,8626,637838,2
15,-1,671667,232282,1281074,70102,8102,639952,0
15,-1,665315,230366,1336722,69210,8900,668047,2
15,-1,666874,230312,1323009,69240,8781,661084,2
15,-1,670794,230781,1374090,69367,8759,686552,0
15,-1,667854,232464,1285297,70200,9174,642107,2
15,-1,666954,230995,1355742,69466,9203,677508,2
15,-1,664328,229974,1231129,69188,7603,615274,2
15,-1,665822,229947,1320538,69032,7490,659974,0
15,-1,667534,230024,1294099,69170,7445,646716,2
15,-1,670120,230906,1307767,69426,7920,653451,0
15,-1,664663,230138,1238673,69208,8194,618941,2
15,-1,672649,232623,1229060,70245,7860,613747,2
15,-1,670883,231187,1317668,69545,8165,658393,2
15,-1,665799,231441,1269305,69748,8323,634129,0
15,-1,662365,230457,1276153,69305,7839,637712,2
15,-1,667200,230442,1300246,69205,8118,649742,0
15,-1,665477,230453,1290757,69243,7498,645109,2
15,-1,668921,232495,1222325,70151,7739,610728,2
15,-1,666322,230093,1275694,69183,8051,637377,2
15,-1,667678,231021,1300872,69472,8169,650073,0
15,-1,669435,231696,1216798,69931,8123,607754,0
15,-1,667074,230951,1294868,69488,7609,647104,2
15,-1,672140,232459,1208732,70195,7857,603696,2
15,-1,687195,235121,1396718,72566,9390,698100,0
15,-1,667161,230516,1243184,69301,7787,621196,2
15,-1,667225,229859,1275262,69104,7694,637312,0
15,-1,670333,230391,1348170,69282,7789,673728,2
15,-1,667911,232049,1208062,70021,7946,603461,2
15,-1,665519,229926,1304170,69003,7068,651775,0
15,-1,666076,230685,1301537,69412,8303,650415,2
15,-1,669244,231228,1216543,69545,7418,607858,2
15,-1,665998,230234,1274004,69180,7657,636563,0
15,-1,666234,230669,1317590,69217,8286,658341,2
15,-1,669201,229325,1275555,68794,8388,637437,0
15,-1,665405,230465,1302258,69200,7834,650781,2
15,-1,669911,230136,1216539,69124,7572,607952,0
15,-1,666054,230389,1246973,69118,8307,623159,0
15,-1,665714,230051,1281549,69006,7317,640430,2
15,-1,670405,230466,1506893,69220,10047,752796,2
15,-1,675552,231679,1345299,69799,10017,671820,0
15,-1,662281,230870,1387595,69539,8829,693271,2
15,-1,674448,233205,1360241,70513,9831,678890,0
15,-1,669050,231889,1340759,69784,8702,669983,2
15,-1,672649,231551,1355970,69601,8332,677557,0
15,-1,669280,230362,1347232,69336,8342,673214,0
15,-1,669526,231735,1359166,69740,8792,679241,2
15,-1,672623,233565,1259578,70537,8807,629245,2
15,-1,669041,231014,1342895,69375,9107,671004,0
15,-1,669413,231184,1382405,69560,9072,690643,2
15,-1,669669,232118,1417951,69851,9580,708544,2
15,-1,670264,231327,1439212,69581,9643,719072,0
15,-1,669714,231392,1434804,69603,9680,716714,2
15,-1,671575,233392,1236205,70487,8818,617349,2
15,-1,669789,231722,1402787,69700,8122,700984,0
15,-1,671127,232064,1338703,69657,7869,668737,2
15,-1,672805,232748,1277452,70083,8426,638171,0
15,-1,670981,231909,1430630,69573,8182,714751,0
15,-1,671012,232089,1394510,69654,7746,696814,2
15,-1,672800,231430,1339575,69490,8757,669330,2
15,-1,670667,230108,1348617,68978,8700,673911,0
15,-1,668374,231664,1279475,69587,8257,639241,2
15,-1,668513,231278,1228063,69511,7671,613485,2
15,-1,668635,230421,1328193,69178,7961,663689,0
15,-1,670455,231223,1322466,69482,8290,660825,2
15,-1,676281,233574,1253827,70542,8220,626063,2
15,-1,666724,230396,1305282,69216,8231,652172,2
15,-1,675494,232868,1238273,70222,7450,618498,0
15,-1,671864,231126,1346423,69460,8645,672804,2
15,-1,666626,231515,1271473,69513,8767,635237,2
15,-1,665096,230219,1319007,69044,7853,659171,0
15,-1,669073,231276,1351068,69498,8654,675096,2
15,-1,673189,232142,1370435,69879,9095,684726,0
15,-1,674468,231578,1422557,69496,9596,711090,0
15,-1,672547,231831,1289984,69716,8475,644402,2
15,-1,671315,231850,1406082,69744,9067,702244,0
15,-1,669535,231227,1368944,69547,8159,683919,2
15,-1,672162,230825,1379312,69315,8925,689013,0
15,-1,671456,230704,1366838,69294,8804,682401,2
15,-1,671140,231869,1257637,69649,7832,628375,2
15,-1,679195,233210,1307315,70292,8547,652855,0
15,-1,665206,229768,1274685,68951,8287,636871,2
15,-1,670852,230846,1230068,69291,8084,614600,0
15,-1,675721,232364,1288728,69950,8254,643487,0
15,-1,670438,230838,1345967,69238,8514,672597,0
15,-1,671940,230166,1347528,69126,8635,673335,0
15,-1,666992,230569,1328776,69332,8147,664077,2
15,-1,666632,229864,1216743,69160,7886,608023,2
15,-1,667381,229806,1287558,69112,8146,643423,0
15,-1,671721,232414,1285094,70410,8855,641733,2
15,-1,669109,230098,1261683,69326,8881,630340,2
15,-1,677410,232864,1411721,70445,9142,705365,0
15,-1,672124,230067,1313727,69309,8601,656168,2
15,-1,662577,230528,1523724,69449,9021,761390,0
15,-1,663647,229401,1308894,69060,8000,654052,0
15,-1,666291,230819,1257906,69550,8881,628072,2
15,-1,663764,230084,1379976,69260,8793,689329,2
15,-1,663901,230627,1485227,69499,9316,741913,2
15,-1,663489,229753,1305452,69146,8856,652337,0
15,-1,661373,229160,1273045,68932,7948,635433,0
