-1,0,0.0316901
-1,1,0.0299296
-1,2,0.0299296
-1,3,0.0299296
-1,4,0.0299296
-1,5,0.0299296
-1,6,0.0299296
-1,7,0.0299296
-1,8,0.0299296
-1,9,0.0299296
-1,10,0.0299296
-1,11,0.0299296
-1,12,0.0299296
-1,13,0.0299296
-1,14,0.0299296
-1,15,0.0299296
-1,16,0.0316901
-1,17,0.0316901
-1,18,0.0316901
-1,19,0.0316901
-1,20,0.0316901
-1,21,0.0316901
-1,22,0.0316901
-1,23,0.0316901
-1,24,0.0316901
-1,25,0.0316901
-1,26,0.0316901
-1,27,0.0316901
-1,28,0.0316901
-1,29,0.0316901
-1,30,0.0316901
-1,31,0.0440141
1,0,0.0304748
1,1,0.0297661
1,2,0.0297661
1,3,0.0297661
1,4,0.0297661
1,5,0.0297661
1,6,0.0297661
1,7,0.0297661
1,8,0.0297661
1,9,0.0297661
1,10,0.0297661
1,11,0.0297661
1,12,0.0297661
1,13,0.0297661
1,14,0.0297661
1,15,0.0297661
1,16,0.0297661
1,17,0.0297661
1,18,0.0297661
1,19,0.0304748
1,20,0.0304748
1,21,0.0304748
1,22,0.0304748
1,23,0.0304748
1,24,0.0304748
1,25,0.0304748
1,26,0.0304748
1,27,0.0304748
1,28,0.0304748
1,29,0.0304748
1,30,0.0304748
1,31,0.0680369
