0,0,147,645089.693878,220811.741497,1320656.054422,66594.061224,8024.081633,659872.993197,11642.437318,3592.028495,99351.408574,1383.053234,664.119790,49639.764391
0,1,103,714212.407767,249812.233010,1454718.019417,74555.708738,9526.786408,726920.640777,9677.768256,2877.575990,85850.916984,1110.776284,529.677126,42958.288278
1,0,146,645231.431507,220825.369863,1306872.486301,66620.184932,7959.616438,652956.520548,11593.714839,3542.072841,76227.311770,1439.967989,622.451662,38098.883223
1,1,102,715094.039216,249932.019608,1458037.245098,74707.774510,9506.784314,728559.215686,11218.851127,3138.743591,95714.202630,1428.351579,661.113405,47823.742465
2,0,146,644730.883562,220696.150685,1324570.753425,66560.602740,7992.746575,661818.150685,11920.315163,3489.878789,94460.064007,1432.622146,654.531159,47204.119139
2,1,103,714621.728155,249935.699029,1452563.126214,74649.815534,9540.815534,725810.135922,10152.707948,2966.018045,86063.349219,1211.998035,677.849351,43010.442841
3,0,146,643881.513699,220513.986301,1308438.897260,66414.828767,7971.239726,653768.767123,10329.904890,3151.853069,95087.861520,1217.779263,602.280191,47499.164882
3,1,103,715326.242718,250123.912621,1460277.233010,74717.951456,9556.825243,729668.708738,10728.699650,3289.481885,81981.070141,1306.777556,663.341811,40975.544384
4,0,146,644293.602740,220603.773973,1316749.143836,66519.410959,8022.363014,657903.260274,11273.178018,3215.202929,84808.068079,1348.731086,658.131070,42365.015178
4,1,103,713358.815534,249572.689320,1452756.475728,74427.029126,9464.766990,725943.388350,9054.863067,2725.902459,78910.053336,1029.084978,649.020565,39433.003883
5,0,146,644517.130137,220664.157534,1314879.226027,66502.821918,7915.294521,656951.424658,10956.886463,3286.109730,93105.851066,1292.677813,697.743223,46524.458214
5,1,103,714159.650485,249772.932039,1446476.864078,74581.427184,9534.300971,722768.611650,10198.517951,3012.402519,81378.980181,1245.962969,555.876546,40673.129178
6,0,146,645502.390411,220821.821918,1306694.315068,66619.767123,8004.952055,652914.534247,10836.618601,3198.193792,76023.180160,1304.759921,677.646009,37996.464905
6,1,103,713848.796117,249743.699029,1446827.650485,74461.970874,9450.407767,722955.135922,9006.227238,2952.319509,84285.534683,996.610318,517.966008,42124.397330
7,0,213,642978.370892,220463.511737,1303023.107981,66384.338028,7932.948357,651056.122066,9583.794991,2946.259630,78844.093922,1098.189081,661.821020,39391.923366
7,1,103,716314.524272,250213.271845,1429118.116505,74821.883495,9443.640777,714098.563107,10998.226564,3102.405600,81145.460392,1374.889279,635.901422,40575.758735
