-1,0,0.00482315
-1,1,0.00321543
-1,2,0.00321543
-1,3,0.00321543
-1,4,0.00321543
-1,5,0.00321543
-1,6,0.00321543
-1,7,0.00321543
-1,8,0.00321543
-1,9,0.00321543
-1,10,0.00321543
-1,11,0.00321543
-1,12,0.00321543
-1,13,0.00321543
-1,14,0.00321543
-1,15,0.00321543
-1,16,0.00321543
-1,17,0.00321543
-1,18,0.00321543
-1,19,0.00321543
-1,20,0.00321543
-1,21,0.00321543
-1,22,0.00321543
-1,23,0.00321543
-1,24,0.00321543
-1,25,0.00321543
-1,26,0.00321543
-1,27,0.00321543
-1,28,0.00321543
-1,29,0.00321543
-1,30,0.00321543
-1,31,0.00321543
-1,32,0.00321543
-1,33,0.00321543
-1,34,0.00321543
-1,35,0.00321543
-1,36,0.00321543
-1,37,0.00321543
-1,38,0.00321543
-1,39,0.00160772
-1,40,0.00160772
-1,41,0.00160772
-1,42,0.00160772
-1,43,0.00160772
-1,44,0.00160772
-1,45,0.00160772
-1,46,0.00160772
-1,47,0.00160772
-1,48,0.00160772
-1,49,0.00160772
-1,50,0.00160772
-1,51,0.00160772
-1,52,0.00160772
-1,53,0.00160772
-1,54,0.00160772
-1,55,0.00160772
-1,56,0.00160772
-1,57,0.00160772
-1,58,0.00160772
-1,59,0.00160772
-1,60,0.00160772
-1,61,0.00160772
-1,62,0.00160772
-1,63,0.00160772
-1,64,0.00160772
-1,65,0.00160772
-1,66,0.00160772
-1,67,0.00160772
-1,68,0.00160772
-1,69,0.00160772
-1,70,0.00160772
-1,71,0.00160772
-1,72,0.00160772
-1,73,0.00160772
-1,74,0.00160772
-1,75,0.00160772
-1,76,0.00160772
-1,77,0.00160772
-1,78,0.00160772
-1,79,0.00160772
-1,80,0.00160772
-1,81,0.00160772
-1,82,0.00160772
-1,83,0.00160772
-1,84,0.00160772
-1,85,0.00160772
-1,86,0.00160772
-1,87,0.00160772
-1,88,0.00160772
-1,89,0.00160772
-1,90,0.00160772
-1,91,0.00160772
-1,92,0.00160772
-1,93,0.00160772
-1,94,0.00160772
-1,95,0.00160772
-1,96,0.00160772
-1,97,0.00160772
-1,98,0.00160772
-1,99,0.00160772
-1,100,0.00160772
-1,101,0.00160772
-1,102,0.00160772
-1,103,0.00160772
-1,104,0.00160772
-1,105,0.00160772
-1,106,0.00160772
-1,107,0.00160772
-1,108,0.00160772
-1,109,0.00160772
-1,110,0.00160772
-1,111,0.00160772
-1,112,0.00160772
-1,113,0.00160772
-1,114,0.00160772
-1,115,0.00160772
-1,116,0.00160772
-1,117,0.00160772
-1,118,0.00160772
-1,119,0.00160772
-1,120,0.00160772
-1,121,0.00160772
-1,122,0.00160772
-1,123,0.00160772
-1,124,0.00160772
-1,125,0.00160772
-1,126,0.00160772
-1,127,0.00160772
-1,128,0.00160772
-1,129,0.00160772
-1,130,0.00160772
-1,131,0.00160772
-1,132,0.00160772
-1,133,0.00160772
-1,134,0.00160772
-1,135,0.00160772
-1,136,0.00160772
-1,137,0.00160772
-1,138,0.00160772
-1,139,0.00160772
-1,140,0.00160772
-1,141,0.00160772
-1,142,0.00160772
-1,143,0.00160772
-1,144,0.00160772
-1,145,0.00160772
-1,146,0.00160772
-1,147,0.00160772
-1,148,0.00160772
-1,149,0.00160772
-1,150,0.00160772
-1,151,0.00160772
-1,152,0.00160772
-1,153,0.00160772
-1,154,0.00160772
-1,155,0.00160772
-1,156,0.00160772
-1,157,0.00160772
-1,158,0.00160772
-1,159,0.00160772
-1,160,0.00160772
-1,161,0.00160772
-1,162,0.00160772
-1,163,0.00160772
-1,164,0.00160772
-1,165,0.00160772
-1,166,0.00160772
-1,167,0.00160772
-1,168,0.00160772
-1,169,0.00160772
-1,170,0.00160772
-1,171,0.00160772
-1,172,0.00160772
-1,173,0.00160772
-1,174,0.00160772
-1,175,0.00160772
-1,176,0.00160772
-1,177,0.00160772
-1,178,0.00160772
-1,179,0.00160772
-1,180,0.00160772
-1,181,0.00160772
-1,182,0.00160772
-1,183,0.00160772
-1,184,0.00160772
-1,185,0.00160772
-1,186,0.00160772
-1,187,0.00160772
-1,188,0.00160772
-1,189,0.00160772
-1,190,0.00160772
-1,191,0.00160772
-1,192,0.00160772
-1,193,0.00160772
-1,194,0.00160772
-1,195,0.00160772
-1,196,0.00160772
-1,197,0.00160772
-1,198,0.00160772
-1,199,0.00160772
-1,200,0.00160772
-1,201,0.00160772
-1,202,0.00160772
-1,203,0.00160772
-1,204,0.00160772
-1,205,0.00160772
-1,206,0.00160772
-1,207,0.00160772
-1,208,0.00160772
-1,209,0.00160772
-1,210,0.00160772
-1,211,0.00160772
-1,212,0.00160772
-1,213,0.00160772
-1,214,0.00160772
-1,215,0.00160772
-1,216,0.00160772
-1,217,0.00160772
-1,218,0.00160772
-1,219,0.00160772
-1,220,0.00160772
-1,221,0.00160772
-1,222,0.00160772
-1,223,0.00160772
-1,224,0.00160772
-1,225,0.00160772
-1,226,0.00160772
-1,227,0.00160772
-1,228,0.00160772
-1,229,0.00160772
-1,230,0.00160772
-1,231,0.00160772
-1,232,0.00160772
-1,233,0.00160772
-1,234,0.00160772
-1,235,0.00160772
-1,236,0.00160772
-1,237,0.00160772
-1,238,0.00160772
-1,239,0.00160772
-1,240,0.00160772
-1,241,0.00160772
-1,242,0.00160772
-1,243,0.00160772
-1,244,0.00160772
-1,245,0.00160772
-1,246,0.00160772
-1,247,0.00160772
-1,248,0.00160772
-1,249,0.00160772
-1,250,0.00160772
-1,251,0.00160772
-1,252,0.00160772
-1,253,0.00160772
-1,254,0.00160772
-1,255,0.00160772
-1,256,0.00160772
-1,257,0.00160772
-1,258,0.00160772
-1,259,0.00160772
-1,260,0.00160772
-1,261,0.00160772
-1,262,0.00160772
-1,263,0.00160772
-1,264,0.00160772
-1,265,0.00160772
-1,266,0.00160772
-1,267,0.00160772
-1,268,0.00160772
-1,269,0.00160772
-1,270,0.00160772
-1,271,0.00160772
-1,272,0.00160772
-1,273,0.00160772
-1,274,0.00160772
-1,275,0.00160772
-1,276,0.00160772
-1,277,0.00160772
-1,278,0.00160772
-1,279,0.00160772
-1,280,0.00160772
-1,281,0.00160772
-1,282,0.00160772
-1,283,0.00160772
-1,284,0.00160772
-1,285,0.00160772
-1,286,0.00160772
-1,287,0.00160772
-1,288,0.00160772
-1,289,0.00160772
-1,290,0.00160772
-1,291,0.00160772
-1,292,0.00160772
-1,293,0.00160772
-1,294,0.00160772
-1,295,0.00160772
-1,296,0.00160772
-1,297,0.00160772
-1,298,0.00160772
-1,299,0.00160772
-1,300,0.00160772
-1,301,0.00160772
-1,302,0.00160772
-1,303,0.00160772
-1,304,0.00160772
-1,305,0.00160772
-1,306,0.00160772
-1,307,0.00160772
-1,308,0.00160772
-1,309,0.00160772
-1,310,0.00160772
-1,311,0.00160772
-1,312,0.00160772
-1,313,0.00160772
-1,314,0.00160772
-1,315,0.00160772
-1,316,0.00160772
-1,317,0.00160772
-1,318,0.00160772
-1,319,0.00160772
-1,320,0.00160772
-1,321,0.00160772
-1,322,0.00160772
-1,323,0.00160772
-1,324,0.00160772
-1,325,0.00160772
-1,326,0.00160772
-1,327,0.00160772
-1,328,0.00160772
-1,329,0.00160772
-1,330,0.00160772
-1,331,0.00160772
-1,332,0.00160772
-1,333,0.00160772
-1,334,0.00160772
-1,335,0.00160772
-1,336,0.00160772
-1,337,0.00160772
-1,338,0.00160772
-1,339,0.00160772
-1,340,0.00160772
-1,341,0.00160772
-1,342,0.00160772
-1,343,0.00160772
-1,344,0.00160772
-1,345,0.00160772
-1,346,0.00160772
-1,347,0.00160772
-1,348,0.00160772
-1,349,0.00160772
-1,350,0.00160772
-1,351,0.00160772
-1,352,0.00160772
-1,353,0.00160772
-1,354,0.00160772
-1,355,0.00160772
-1,356,0.00160772
-1,357,0.00160772
-1,358,0.00160772
-1,359,0.00160772
-1,360,0.00160772
-1,361,0.00160772
-1,362,0.00160772
-1,363,0.00160772
-1,364,0.00160772
-1,365,0.00160772
-1,366,0.00160772
-1,367,0.00160772
-1,368,0.00160772
-1,369,0.00160772
-1,370,0.00160772
-1,371,0.00160772
-1,372,0.00160772
-1,373,0.00160772
-1,374,0.00160772
-1,375,0.00160772
-1,376,0.00160772
-1,377,0.00160772
-1,378,0.00160772
-1,379,0.00160772
-1,380,0.00160772
-1,381,0.00160772
-1,382,0.00160772
-1,383,0.00160772
-1,384,0.00160772
-1,385,0.00160772
-1,386,0.00160772
-1,387,0.00160772
-1,388,0.00160772
-1,389,0.00160772
-1,390,0.00160772
-1,391,0.00160772
-1,392,0.00160772
-1,393,0.00160772
-1,394,0.00160772
-1,395,0.00160772
-1,396,0.00160772
-1,397,0.00160772
-1,398,0.00160772
-1,399,0.00160772
-1,400,0.00160772
-1,401,0.00160772
-1,402,0.00160772
-1,403,0.00160772
-1,404,0.00160772
-1,405,0.00160772
-1,406,0.00160772
-1,407,0.00160772
-1,408,0.00160772
-1,409,0.00160772
-1,410,0.00160772
-1,411,0.00160772
-1,412,0.00160772
-1,413,0.00160772
-1,414,0.00160772
-1,415,0.00160772
-1,416,0.00160772
-1,417,0.00160772
-1,418,0.00160772
-1,419,0.00160772
-1,420,0.00160772
-1,421,0.00160772
-1,422,0.00160772
-1,423,0.00160772
-1,424,0.00160772
-1,425,0.00160772
-1,426,0.00160772
-1,427,0.00160772
-1,428,0.00160772
-1,429,0.00160772
-1,430,0.00160772
-1,431,0.00160772
-1,432,0.00160772
-1,433,0.00160772
-1,434,0.00160772
-1,435,0.00160772
-1,436,0.00160772
-1,437,0.00160772
-1,438,0.00160772
-1,439,0.00160772
-1,440,0.00160772
-1,441,0.00160772
-1,442,0.00321543
-1,443,0.00321543
-1,444,0.00321543
-1,445,0.00321543
-1,446,0.00321543
-1,447,0.00321543
-1,448,0.00321543
-1,449,0.00321543
-1,450,0.00321543
-1,451,0.00321543
-1,452,0.00321543
-1,453,0.00321543
-1,454,0.00321543
-1,455,0.00321543
-1,456,0.00321543
-1,457,0.00321543
-1,458,0.00321543
-1,459,0.00321543
-1,460,0.00321543
-1,461,0.00321543
-1,462,0.00321543
-1,463,0.00321543
-1,464,0.00321543
-1,465,0.00321543
-1,466,0.00321543
-1,467,0.00321543
-1,468,0.00321543
-1,469,0.00321543
-1,470,0.00321543
-1,471,0.00321543
-1,472,0.00321543
-1,473,0.00321543
-1,474,0.00321543
-1,475,0.00321543
-1,476,0.00321543
-1,477,0.00321543
-1,478,0.00321543
-1,479,0.00321543
-1,480,0.00321543
-1,481,0.00321543
-1,482,0.00321543
-1,483,0.00321543
-1,484,0.00321543
-1,485,0.00321543
-1,486,0.00321543
-1,487,0.00321543
-1,488,0.00321543
-1,489,0.00321543
-1,490,0.00321543
-1,491,0.00321543
-1,492,0.00321543
-1,493,0.00321543
-1,494,0.00321543
-1,495,0.00321543
-1,496,0.00321543
-1,497,0.00321543
-1,498,0.00321543
-1,499,0.00321543
-1,500,0.00321543
-1,501,0.00321543
-1,502,0.00321543
-1,503,0.00321543
-1,504,0.00321543
-1,505,0.00321543
-1,506,0.00321543
-1,507,0.00321543
-1,508,0.00321543
-1,509,0.00321543
-1,510,0.00321543
-1,511,0.00321543
0,0,0.000719424
0,1,0.000719424
0,2,0.000719424
0,3,0.000719424
0,4,0.000719424
0,5,0.000719424
0,6,0.000719424
0,7,0.000719424
0,8,0.000719424
0,9,0.000719424
0,10,0.000719424
0,11,0.000719424
0,12,0.000719424
0,13,0.000719424
0,14,0.000719424
0,15,0.000719424
0,16,0.000719424
0,17,0.000719424
0,18,0.000719424
0,19,0.000719424
0,20,0.000719424
0,21,0.000719424
0,22,0.000719424
0,23,0.000719424
0,24,0.000719424
0,25,0.000719424
0,26,0.000719424
0,27,0.000719424
0,28,0.000719424
0,29,0.000719424
0,30,0.000719424
0,31,0.000719424
0,32,0.000719424
0,33,0.000719424
0,34,0.000719424
0,35,0.000719424
0,36,0.000719424
0,37,0.000719424
0,38,0.000719424
0,39,0.000719424
0,40,0.000719424
0,41,0.000719424
0,42,0.000719424
0,43,0.000719424
0,44,0.000719424
0,45,0.000719424
0,46,0.000719424
0,47,0.000719424
0,48,0.000719424
0,49,0.000719424
0,50,0.000719424
0,51,0.000719424
0,52,0.000719424
0,53,0.000719424
0,54,0.000719424
0,55,0.000719424
0,56,0.000719424
0,57,0.000719424
0,58,0.000719424
0,59,0.000719424
0,60,0.000719424
0,61,0.000719424
0,62,0.000719424
0,63,0.000719424
0,64,0.000719424
0,65,0.000719424
0,66,0.000719424
0,67,0.000719424
0,68,0.000719424
0,69,0.000719424
0,70,0.000719424
0,71,0.000719424
0,72,0.000719424
0,73,0.000719424
0,74,0.000719424
0,75,0.000719424
0,76,0.000719424
0,77,0.000719424
0,78,0.000719424
0,79,0.000719424
0,80,0.000719424
0,81,0.000719424
0,82,0.000719424
0,83,0.000719424
0,84,0.000719424
0,85,0.000719424
0,86,0.000719424
0,87,0.000719424
0,88,0.000719424
0,89,0.000719424
0,90,0.000719424
0,91,0.000719424
0,92,0.000719424
0,93,0.000719424
0,94,0.000719424
0,95,0.000719424
0,96,0.000719424
0,97,0.000719424
0,98,0.000719424
0,99,0.000719424
0,100,0.000719424
0,101,0.000719424
0,102,0.000719424
0,103,0.000719424
0,104,0.000719424
0,105,0.000719424
0,106,0.000719424
0,107,0.000719424
0,108,0.000719424
0,109,0.000719424
0,110,0.000719424
0,111,0.000719424
0,112,0.000719424
0,113,0.000719424
0,114,0.000719424
0,115,0.000719424
0,116,0.000719424
0,117,0.000719424
0,118,0.000719424
0,119,0.000719424
0,120,0.000719424
0,121,0.000719424
0,122,0.000719424
0,123,0.000719424
0,124,0.000719424
0,125,0.000719424
0,126,0.000719424
0,127,0.000719424
0,128,0.000719424
0,129,0.000719424
0,130,0.000719424
0,131,0.000719424
0,132,0.000719424
0,133,0.000719424
0,134,0.000719424
0,135,0.000719424
0,136,0.000719424
0,137,0.000719424
0,138,0.000719424
0,139,0.000719424
0,140,0.000719424
0,141,0.000719424
0,142,0.000719424
0,143,0.000719424
0,144,0.000719424
0,145,0.000719424
0,146,0.000719424
0,147,0.000719424
0,148,0.000719424
0,149,0.000719424
0,150,0.000719424
0,151,0.000719424
0,152,0.000719424
0,153,0.000719424
0,154,0.000719424
0,155,0.000719424
0,156,0.000719424
0,157,0.000719424
0,158,0.000719424
0,159,0.000719424
0,160,0.000719424
0,161,0.000719424
0,162,0.000719424
0,163,0.000719424
0,164,0.000719424
0,165,0.000719424
0,166,0.000719424
0,167,0.000719424
0,168,0.000719424
0,169,0.000719424
0,170,0.000719424
0,171,0.000719424
0,172,0.000719424
0,173,0.000719424
0,174,0.000719424
0,175,0.000719424
0,176,0.000719424
0,177,0.000719424
0,178,0.000719424
0,179,0.000719424
0,180,0.000719424
0,181,0.000719424
0,182,0.000719424
0,183,0.000719424
0,184,0.000719424
0,185,0.000719424
0,186,0.000719424
0,187,0.000719424
0,188,0.000719424
0,189,0.000719424
0,190,0.000719424
0,191,0.000719424
0,192,0.000719424
0,193,0.000719424
0,194,0.000719424
0,195,0.000719424
0,196,0.000719424
0,197,0.000719424
0,198,0.000719424
0,199,0.000719424
0,200,0.000719424
0,201,0.000719424
0,202,0.000719424
0,203,0.000719424
0,204,0.000719424
0,205,0.000719424
0,206,0.000719424
0,207,0.000719424
0,208,0.000719424
0,209,0.000719424
0,210,0.000719424
0,211,0.000719424
0,212,0.000719424
0,213,0.000719424
0,214,0.000719424
0,215,0.000719424
0,216,0.000719424
0,217,0.000719424
0,218,0.000719424
0,219,0.000719424
0,220,0.000719424
0,221,0.000719424
0,222,0.000719424
0,223,0.000719424
0,224,0.000719424
0,225,0.000719424
0,226,0.000719424
0,227,0.000719424
0,228,0.000719424
0,229,0.000719424
0,230,0.000719424
0,231,0.000719424
0,232,0.000719424
0,233,0.000719424
0,234,0.000719424
0,235,0.000719424
0,236,0.000719424
0,237,0.000719424
0,238,0.000719424
0,239,0.000719424
0,240,0.000719424
0,241,0.000719424
0,242,0.000719424
0,243,0.000719424
0,244,0.000719424
0,245,0.000719424
0,246,0.000719424
0,247,0.000719424
0,248,0.000719424
0,249,0.000719424
0,250,0.000719424
0,251,0.000719424
0,252,0.000719424
0,253,0.000719424
0,254,0.000719424
0,255,0.000719424
0,256,0.000719424
0,257,0.000719424
0,258,0.000719424
0,259,0.000719424
0,260,0.000719424
0,261,0.000719424
0,262,0.000719424
0,263,0.000719424
0,264,0.000719424
0,265,0.000719424
0,266,0.000719424
0,267,0.000719424
0,268,0.000719424
0,269,0.000719424
0,270,0.000719424
0,271,0.000719424
0,272,0.000719424
0,273,0.000719424
0,274,0.000719424
0,275,0.000719424
0,276,0.000719424
0,277,0.000719424
0,278,0.000719424
0,279,0.000719424
0,280,0.000719424
0,281,0.000719424
0,282,0.000719424
0,283,0.000719424
0,284,0.000719424
0,285,0.000719424
0,286,0.000719424
0,287,0.000719424
0,288,0.000719424
0,289,0.000719424
0,290,0.000719424
0,291,0.000719424
0,292,0.000719424
0,293,0.000719424
0,294,0.000719424
0,295,0.000719424
0,296,0.000719424
0,297,0.000719424
0,298,0.000719424
0,299,0.000719424
0,300,0.000719424
0,301,0.000719424
0,302,0.000719424
0,303,0.000719424
0,304,0.000719424
0,305,0.000719424
0,306,0.000719424
0,307,0.000719424
0,308,0.000719424
0,309,0.000719424
0,310,0.000719424
0,311,0.000719424
0,312,0.000719424
0,313,0.000719424
0,314,0.000719424
0,315,0.000719424
0,316,0.000719424
0,317,0.000719424
0,318,0.000719424
0,319,0.000719424
0,320,0.000719424
0,321,0.000719424
0,322,0.000719424
0,323,0.000719424
0,324,0.000719424
0,325,0.000719424
0,326,0.000719424
0,327,0.000719424
0,328,0.000719424
0,329,0.000719424
0,330,0.000719424
0,331,0.000719424
0,332,0.000719424
0,333,0.000719424
0,334,0.000719424
0,335,0.000719424
0,336,0.000719424
0,337,0.000719424
0,338,0.000719424
0,339,0.000719424
0,340,0.000719424
0,341,0.000719424
0,342,0.000719424
0,343,0.000719424
0,344,0.000719424
0,345,0.000719424
0,346,0.000719424
0,347,0.000719424
0,348,0.000719424
0,349,0.000719424
0,350,0.000719424
0,351,0.000719424
0,352,0.000719424
0,353,0.000719424
0,354,0.000719424
0,355,0.000719424
0,356,0.000719424
0,357,0.000719424
0,358,0.000719424
0,359,0.000719424
0,360,0.000719424
0,361,0.000719424
0,362,0.000719424
0,363,0.000719424
0,364,0.000719424
0,365,0.000719424
0,366,0.000719424
0,367,0.000719424
0,368,0.000719424
0,369,0.000719424
0,370,0.000719424
0,371,0.000719424
0,372,0.000719424
0,373,0.000719424
0,374,0.000719424
0,375,0.000719424
0,376,0.000719424
0,377,0.000719424
0,378,0.000719424
0,379,0.000719424
0,380,0.000719424
0,381,0.000719424
0,382,0.000719424
0,383,0.000719424
0,384,0.000719424
0,385,0.000719424
0,386,0.000719424
0,387,0.000719424
0,388,0.000719424
0,389,0.000719424
0,390,0.000719424
0,391,0.000719424
0,392,0.000719424
0,393,0.000719424
0,394,0.000719424
0,395,0.000719424
0,396,0.000719424
0,397,0.000719424
0,398,0.000719424
0,399,0.000719424
0,400,0.000719424
0,401,0.000719424
0,402,0.000719424
0,403,0.000719424
0,404,0.000719424
0,405,0.000719424
0,406,0.000719424
0,407,0.000719424
0,408,0.000719424
0,409,0.000719424
0,410,0.000719424
0,411,0.000719424
0,412,0.000719424
0,413,0.000719424
0,414,0.000719424
0,415,0.000719424
0,416,0.000719424
0,417,0.000719424
0,418,0.000719424
0,419,0.000719424
0,420,0.000719424
0,421,0.000719424
0,422,0.000719424
0,423,0.000719424
0,424,0.000719424
0,425,0.000719424
0,426,0.000719424
0,427,0.000719424
0,428,0.000719424
0,429,0.000719424
0,430,0.000719424
0,431,0.000719424
0,432,0.000719424
0,433,0.000719424
0,434,0.000719424
0,435,0.000719424
0,436,0.000719424
0,437,0.000719424
0,438,0.000719424
0,439,0.000719424
0,440,0.000719424
0,441,0.000719424
0,442,0.000719424
0,443,0.000719424
0,444,0.000719424
0,445,0.000719424
0,446,0.000719424
0,447,0.000719424
0,448,0.000719424
0,449,0.000719424
0,450,0.000719424
0,451,0.000719424
0,452,0.000719424
0,453,0.000719424
0,454,0.000719424
0,455,0.000719424
0,456,0.000719424
0,457,0.000719424
0,458,0.000719424
0,459,0.000719424
0,460,0.000719424
0,461,0.000719424
0,462,0.000719424
0,463,0.000719424
0,464,0.000719424
0,465,0.000719424
0,466,0.000719424
0,467,0.000719424
0,468,0.000719424
0,469,0.000719424
0,470,0.000719424
0,471,0.000719424
0,472,0.000719424
0,473,0.000719424
0,474,0.000719424
0,475,0.000719424
0,476,0.000719424
0,477,0.000719424
0,478,0.000719424
0,479,0.000719424
0,480,0.000719424
0,481,0.000719424
0,482,0.000719424
0,483,0.000719424
0,484,0.000719424
0,485,0.000719424
0,486,0.000719424
0,487,0.000719424
0,488,0.000719424
0,489,0.000719424
0,490,0.000719424
0,491,0.000719424
0,492,0.000719424
0,493,0.000719424
0,494,0.000719424
0,495,0.000719424
0,496,0.000719424
0,497,0.000719424
0,498,0.000719424
0,499,0.000719424
0,500,0.000719424
0,501,0.000719424
0,502,0.000719424
0,503,0.000719424
0,504,0.000719424
0,505,0.000719424
0,506,0.000719424
0,507,0.000719424
0,508,0.000719424
0,509,0.000719424
0,510,0.000719424
0,511,0.632374
