0,0,32,646294.156250,221500.000000,1274568.156250,66719.781250,7740.468750,637218.812500,14359.202772,4617.048293,65488.166705,1504.888051,731.777202,32657.928785
0,1,32,716165.812500,250342.687500,1435378.000000,74766.562500,9630.156250,717619.312500,11340.258919,3538.079674,63233.319487,1330.600591,687.201531,31589.683946
1,0,31,645133.451613,221072.000000,1306118.580645,66711.096774,8015.032258,653022.290323,11221.511855,3643.233737,61602.715641,1391.692828,631.361329,30740.301390
1,1,31,714805.064516,249789.741935,1426300.806452,74620.193548,9628.064516,713136.709677,9477.632462,2585.591665,107901.312675,1330.701135,885.523790,53926.659178
2,0,31,645877.322581,220996.548387,1278992.032258,66713.516129,7913.677419,639412.677419,11896.983482,3712.533635,52681.281379,1538.043224,647.017594,26352.470423
2,1,31,714607.161290,249713.677419,1467003.258065,74686.225806,9699.548387,733471.096774,8217.299149,1865.179234,116938.773575,1293.973219,855.941618,58433.028914
3,0,31,643009.483871,220474.161290,1275621.838710,66238.096774,7834.516129,637797.580645,8354.605285,3076.450459,72480.770488,862.659442,654.864373,36186.648511
3,1,31,712440.064516,249362.161290,1406063.967742,74359.322581,9406.967742,703004.258065,5698.655608,1438.931886,69713.562297,781.780696,614.482446,34800.483961
4,0,31,645467.322581,220875.935484,1307083.322581,66656.483871,8024.129032,653527.870968,13521.805223,4088.837834,76910.673422,1746.513797,607.147787,38370.520471
4,1,31,713100.516129,249488.677419,1407300.612903,74513.774194,9497.258065,703625.741935,6692.734331,1548.338618,97452.966635,1036.365445,718.264484,48687.744348
5,0,31,644088.451613,220630.612903,1318231.709677,66383.677419,7924.322581,659097.838710,9956.880713,3220.826749,77709.649498,1026.464379,620.421573,38816.570674
5,1,31,713880.741935,249685.451613,1394209.903226,74621.064516,9353.903226,697082.258065,7801.424787,1645.603485,83684.396358,1025.561874,746.628005,41854.844922
6,0,31,648372.064516,221553.322581,1280258.838710,67043.161290,7971.741935,640087.354839,12982.009189,3947.945782,71737.720181,1598.535784,588.516120,35779.215074
6,1,31,714239.354839,249769.580645,1401698.870968,74583.806452,9475.806452,700833.967742,9076.458765,2572.127609,83195.919821,1148.676838,743.663010,41596.662967
7,0,31,645268.096774,220840.419355,1281168.741935,66603.193548,8028.000000,640625.000000,14020.416340,4175.039353,75341.085141,1698.900184,579.100248,37697.493409
7,1,31,713986.838710,249698.870968,1428828.806452,74599.903226,9678.612903,714411.064516,11721.412659,2890.161729,91108.718107,1456.733318,880.400960,45578.973384
8,0,31,643221.354839,220408.548387,1282777.064516,66266.483871,7992.322581,641381.741935,9643.971229,3353.912774,65200.860127,959.236150,679.068070,32571.334624
8,1,31,712295.612903,249419.000000,1411773.580645,74442.677419,9446.225806,705825.193548,5948.908649,1427.625527,96102.639774,976.771125,720.327556,47940.302597
9,0,31,644874.193548,220837.806452,1280933.451613,66534.741935,7862.225806,640406.387097,10772.084048,3531.373108,60311.363074,1267.111039,542.104603,29996.395639
9,1,31,714734.419355,249940.290323,1411509.290323,74658.774194,9494.645161,705750.354839,7779.954780,2097.758961,92917.858821,1043.003130,761.268955,46437.179735
10,0,31,644357.838710,220766.806452,1303909.096774,66485.774194,7994.000000,651950.451613,10322.798092,3456.538315,65658.114949,1193.998614,638.149138,32825.008866
10,1,31,712243.580645,249212.161290,1388261.516129,74329.677419,9443.161290,694113.129032,5834.747521,1359.433827,95242.134453,981.434480,719.975183,47543.800924
11,0,31,645258.225806,220993.000000,1279099.677419,66608.677419,7836.709677,639462.096774,12116.172399,3813.909822,75749.361175,1377.143125,539.276827,37765.226117
11,1,31,713736.451613,249794.000000,1423082.516129,74592.838710,9643.225806,711514.000000,8413.933041,2047.773582,113083.675637,1048.615127,726.981950,56520.198597
12,0,31,649257.096774,221969.903226,1285581.806452,67254.032258,8094.516129,642769.451613,14147.115074,3959.477168,51777.667019,1745.851220,617.956250,25850.881095
12,1,31,715319.258065,250127.129032,1419613.387097,74772.483871,9439.419355,709826.645161,7603.664490,1977.750526,82800.804695,1057.829179,626.658099,41424.781473
13,0,31,642735.258065,220327.258065,1277468.870968,66256.935484,7881.322581,638717.612903,9698.796267,3276.203398,71915.800232,1053.783779,661.988373,35948.645746
13,1,31,713821.451613,249721.580645,1431655.774194,74514.419355,9462.677419,715789.096774,7396.886223,1971.262127,59184.005954,926.420297,555.204838,29620.409721
14,0,31,645745.870968,221086.258065,1268593.290323,66613.387097,7883.516129,634286.064516,11629.868689,3748.893514,64822.962947,1306.229977,609.072742,32391.685028
14,1,31,715037.064516,249779.709677,1436126.161290,74739.451613,9647.935484,717959.354839,8647.921566,1925.200286,77298.425455,1420.845542,638.178352,38645.327858
15,0,31,645484.419355,220921.322581,1298378.838710,66659.935484,8011.161290,649195.580645,11784.455020,3531.319843,79228.864013,1418.713978,659.899802,39542.998534
15,1,31,714700.387097,250010.290323,1425137.322581,74736.000000,9570.193548,712539.677419,8885.242134,2253.025481,74473.292082,1145.189039,678.942699,37202.581724
16,0,31,643957.516129,220828.677419,1290817.806452,66397.838710,7932.870968,645418.806452,13797.868433,4838.836873,61708.314226,1424.350448,559.281148,30848.904951
16,1,31,712745.290323,249329.000000,1426187.870968,74440.096774,9515.419355,713038.967742,6386.086298,1607.707344,87331.575786,1009.610316,719.979559,43604.591420
17,0,31,645877.096774,221111.548387,1293332.290323,66672.935484,7933.096774,646629.645161,10039.311563,3301.888666,70153.711767,1220.012716,597.705039,35080.607762
17,1,31,713794.516129,249797.225806,1415864.774194,74638.935484,9519.516129,707865.548387,6748.485168,1467.488698,76662.243988,960.743292,626.867732,38237.068331
18,0,31,645321.129032,220823.000000,1281783.064516,66583.483871,7942.903226,640888.483871,11568.157739,3503.106345,81412.146707,1417.917393,753.318908,40699.668823
18,1,31,714028.258065,249745.096774,1406108.032258,74685.645161,9533.258065,703002.935484,9070.178741,1839.578640,78805.387067,1282.491968,774.050343,39291.826813
19,0,31,644003.161290,220660.516129,1287476.419355,66366.774194,7743.612903,643727.322581,10272.546077,3539.123118,63543.660151,1119.298015,574.387959,31760.568318
19,1,31,711613.193548,249046.064516,1411609.290323,74243.806452,9598.838710,705748.580645,4971.868412,1252.170037,68532.791735,712.177009,688.180073,34193.314887
20,0,31,643697.225806,220562.645161,1291235.774194,66404.709677,7817.322581,645577.967742,11270.029564,3532.181685,88602.515452,1201.358967,596.805333,44228.449300
20,1,31,713409.612903,249483.870968,1434600.064516,74502.451613,9616.935484,717205.645161,6375.708192,1628.158662,87275.103231,1069.714368,688.089967,43617.242994
21,0,32,641972.218750,220215.156250,1278419.875000,66167.968750,7659.156250,639192.375000,10020.088709,3334.027989,69318.447676,937.672600,564.700369,34583.157321
21,1,31,714044.483871,249539.806452,1419952.516129,74579.774194,9587.774194,709947.193548,6690.548528,1635.452358,95104.055678,1131.385497,796.717731,47585.473339
22,0,32,645335.375000,221052.875000,1296721.031250,66715.156250,7846.843750,648332.812500,14724.276351,4245.294916,71553.846267,1749.124462,586.156235,35741.230431
22,1,31,713479.193548,249754.580645,1411516.193548,74475.064516,9508.580645,705659.193548,8617.047805,2800.496175,86294.874191,1104.442231,702.335219,43158.266600
23,0,32,646621.437500,221254.281250,1298053.750000,66901.406250,7814.656250,649028.156250,12371.647872,3366.963360,63732.728416,1467.163481,588.042335,31870.130748
23,1,31,715549.419355,250291.838710,1420169.806452,74766.903226,9593.096774,710027.354839,10555.604061,3226.248606,63611.376583,1209.979241,656.207498,31813.469712
24,0,32,643871.218750,220568.906250,1297339.343750,66426.281250,7911.156250,648672.375000,12196.627809,3617.682203,49630.843782,1362.651809,662.882489,24793.289997
24,1,31,717059.903226,250338.870968,1415280.548387,74831.838710,9484.870968,707629.935484,11350.634043,3437.772954,82712.231488,1390.696045,482.580078,41352.766357
25,0,32,642978.343750,220637.031250,1283171.125000,66419.937500,7814.812500,641595.062500,10759.496540,3251.577026,82839.827051,1136.078781,689.023287,41402.617862
25,1,31,714771.612903,249898.741935,1445604.096774,74569.096774,9555.935484,722721.032258,11461.890270,3702.907942,79073.227282,1386.252394,660.848376,39525.311571
26,0,32,644015.375000,220610.375000,1262721.937500,66457.718750,7759.031250,631339.156250,9825.809117,3165.506187,52065.936069,1212.087359,602.387774,26046.080065
26,1,31,716013.225806,250460.548387,1443656.387097,74758.096774,9561.870968,721761.709677,14145.666421,4384.392148,86392.419765,1666.636663,773.283353,43129.611683
27,0,32,643731.156250,220494.125000,1293751.281250,66320.625000,8015.250000,646859.093750,13195.158682,3988.840470,85491.735785,1447.741641,622.869569,42691.108764
27,1,31,716040.225806,250495.354839,1423092.516129,74925.193548,9635.032258,711477.870968,11120.944877,3592.393043,64167.934656,1388.861275,729.311893,32043.772566
28,0,32,644707.468750,220669.500000,1285225.562500,66503.625000,7865.375000,642591.187500,11101.648692,3496.714485,66005.743926,1409.772361,526.460572,33004.735640
28,1,32,715007.593750,249896.531250,1423732.750000,74564.875000,9616.781250,711772.562500,14512.942034,4129.769023,73882.679136,1655.821525,801.271518,36866.329720
29,0,32,645056.875000,220773.750000,1283487.937500,66538.750000,7986.000000,641677.843750,10639.972629,3293.515343,61702.669862,1252.666730,670.435353,30795.193793
29,1,32,714011.031250,249771.656250,1402517.843750,74457.218750,9422.218750,701254.906250,10592.931371,3208.181471,74656.456469,1117.863244,689.313142,37323.559768
30,0,32,646521.937500,221277.125000,1305231.781250,66850.062500,7908.468750,652589.187500,12113.336398,3434.324358,62259.658965,1434.632356,623.035512,31091.838008
30,1,32,715805.000000,250221.343750,1411263.625000,74668.906250,9423.156250,705622.343750,11973.950403,3935.378243,68877.827848,1326.250362,707.053176,34430.984314
31,0,67,642886.283582,220651.000000,1287802.208955,66348.059701,7861.268657,643862.552239,8490.033808,2886.683223,66340.660252,929.463734,657.391625,33155.187348
31,1,32,714166.906250,249844.500000,1423805.125000,74548.687500,9508.656250,711911.187500,10891.383361,3322.949800,82647.136409,1293.137136,787.446253,41298.729414
