-1,0,0.0156139
-1,1,0.0149042
-1,2,0.0149042
-1,3,0.0149042
-1,4,0.0149042
-1,5,0.0149042
-1,6,0.0149042
-1,7,0.0149042
-1,8,0.0149042
-1,9,0.0149042
-1,10,0.0149042
-1,11,0.0149042
-1,12,0.0149042
-1,13,0.0149042
-1,14,0.0149042
-1,15,0.0149042
-1,16,0.0149042
-1,17,0.0149042
-1,18,0.0149042
-1,19,0.0149042
-1,20,0.0149042
-1,21,0.0149042
-1,22,0.0149042
-1,23,0.0156139
-1,24,0.0156139
-1,25,0.0156139
-1,26,0.0156139
-1,27,0.0156139
-1,28,0.0156139
-1,29,0.0156139
-1,30,0.0156139
-1,31,0.0156139
-1,32,0.0156139
-1,33,0.0156139
-1,34,0.0156139
-1,35,0.0156139
-1,36,0.0156139
-1,37,0.0156139
-1,38,0.0156139
-1,39,0.0156139
-1,40,0.0156139
-1,41,0.0156139
-1,42,0.0156139
-1,43,0.0156139
-1,44,0.0156139
-1,45,0.0156139
-1,46,0.0156139
-1,47,0.0156139
-1,48,0.0156139
-1,49,0.0156139
-1,50,0.0156139
-1,51,0.0156139
-1,52,0.0156139
-1,53,0.0156139
-1,54,0.0156139
-1,55,0.0156139
-1,56,0.0156139
-1,57,0.0156139
-1,58,0.0156139
-1,59,0.0156139
-1,60,0.0156139
-1,61,0.0156139
-1,62,0.0156139
-1,63,0.0319375
3,0,0.015625
3,1,0.015625
3,2,0.015625
3,3,0.015625
3,4,0.015625
3,5,0.015625
3,6,0.015625
3,7,0.015625
3,8,0.015625
3,9,0.015625
3,10,0.015625
3,11,0.015625
3,12,0.015625
3,13,0.015625
3,14,0.015625
3,15,0.015625
3,16,0.015625
3,17,0.015625
3,18,0.015625
3,19,0.015625
3,20,0.015625
3,21,0.015625
3,22,0.015625
3,23,0.015625
3,24,0.015625
3,25,0.015625
3,26,0.015625
3,27,0.015625
3,28,0.015625
3,29,0.015625
3,30,0.015625
3,31,0.015625
3,32,0.015625
3,33,0.015625
3,34,0.015625
3,35,0.015625
3,36,0.015625
3,37,0.015625
3,38,0.015625
3,39,0.015625
3,40,0.015625
3,41,0.015625
3,42,0.015625
3,43,0.015625
3,44,0.015625
3,45,0.015625
3,46,0.015625
3,47,0.015625
3,48,0.015625
3,49,0.015625
3,50,0.015625
3,51,0.015625
3,52,0.015625
3,53,0.015625
3,54,0.015625
3,55,0.015625
3,56,0.015625
3,57,0.015625
3,58,0.015625
3,59,0.015625
3,60,0.015625
3,61,0.015625
3,62,0.015625
3,63,0.015625
