0,2,764821,268369,1441291,79519,9830,720444,0
0,2,781802,271387,1497470,82069,10637,748508,0
0,2,759684,267048,1423833,78931,8702,711905,0
0,2,760432,266785,1590063,78812,9306,794217,0
0,2,766684,268372,1539473,79446,9667,769211,0
0,2,762708,266530,1544049,78662,10618,771701,0
0,2,766346,266701,1434805,78726,9804,716806,0
0,2,781135,271796,1590207,82154,10417,795067,0
0,2,742115,260011,1585856,76740,9095,792963,0
0,2,707261,247964,1334135,73693,8019,667195,0
0,2,728508,253222,1337516,77205,9031,668803,0
0,2,707294,247781,1399916,73612,8546,700000,0
0,2,711476,249174,1414349,74245,8614,707250,0
0,2,711436,248377,1391260,73800,9463,695676,0
0,2,707059,247982,1294670,73614,8244,647367,0
0,2,709205,248228,1308003,73674,9269,654043,0
0,2,712961,250067,1304825,74609,8916,652957,0
0,2,715007,249925,1443475,74582,9181,721792,0
0,2,710422,248584,1391000,73837,8733,695527,0
0,2,707508,247502,1293690,73434,8754,646890,0
0,2,710953,247996,1427069,73570,9598,713564,0
0,2,710528,247440,1335154,73419,8640,667626,0
0,2,723401,252114,1440482,76779,9750,720301,0
0,2,706376,248440,1511319,73913,8827,755717,0
0,2,709404,249828,1389994,74612,9043,695066,0
0,2,709180,249432,1433732,74381,8729,716914,0
0,2,710027,249579,1416406,74423,8761,708117,0
0,2,709299,248171,1279989,73807,8820,640028,0
0,2,704412,247668,1310276,73622,7588,655171,0
0,2,711728,250108,1412713,74578,8711,706413,0
0,2,705323,247091,1297082,73391,8396,648592,0
0,2,706832,247630,1383309,73589,8553,691707,0
0,2,715864,250508,1451850,74823,9477,725858,0
0,2,705627,248045,1403824,73776,8842,701935,0
0,2,707498,248317,1294411,73898,8645,647249,0
0,2,709643,249042,1371727,74259,9829,685931,0
0,2,711197,249924,1481815,74732,9808,740962,0
0,2,707795,247707,1417405,73677,10081,708739,0
0,2,712223,248624,1376413,73964,9018,688255,0
0,2,708171,248345,1364421,73845,8950,682256,0
0,2,734384,253879,1408573,77507,10169,704322,0
0,2,729954,252459,1431231,76953,8518,715572,0
0,2,708154,248131,1371670,73771,8696,685811,0
0,2,710937,248208,1427470,73699,9122,713334,0
0,2,715129,250804,1592970,74724,11159,796480,0
0,2,709659,248368,1339795,73672,8581,669864,0
0,2,711869,249162,1430769,73977,8781,715443,0
0,2,713249,250679,1433752,74640,9561,716944,0
0,2,710006,248717,1380591,73822,9439,690307,0
0,2,711335,248570,1316711,73881,9033,658095,0
0,2,708752,249053,1405408,74060,10050,702455,0
0,2,713864,249771,1404303,74267,9151,702114,0
0,2,732729,252965,1327035,77157,10119,663481,0
0,2,709472,248072,1393983,73710,9165,696965,0
0,2,712532,249147,1565328,74153,10479,781663,0
0,2,730427,252821,1517665,77212,9351,758538,0
0,2,706839,248788,1343571,74169,9322,671883,0
0,2,709394,248028,1384802,73798,8810,692379,0
0,2,709797,248009,1512769,73788,10004,756653,0
0,2,709264,247634,1449189,73634,9618,724529,0
0,2,712593,248784,1442516,74130,9742,721314,0
0,2,711078,248619,1429075,74070,10094,714368,0
0,2,733342,253612,1348156,77508,10084,674250,0
0,2,714894,249319,1343651,74309,9218,671868,0
0,2,711974,248349,1434436,73920,9893,717377,0
0,2,710574,248170,1325567,73927,9706,662838,0
0,2,705945,249969,1490528,74684,9472,745370,0
0,2,708183,249616,1582178,74566,9750,790902,0
0,2,707060,248736,1409835,74094,9725,705115,0
0,2,707526,249387,1598203,74304,10475,798369,0
0,2,707523,249307,1471509,74140,9561,735599,0
0,2,727088,253036,1473948,77268,10435,736605,0
0,2,705159,249005,1457557,74069,8392,728828,0
0,2,708121,249228,1382122,74252,8397,691062,0
0,2,706849,247891,1315508,73782,8710,657763,0
0,2,706454,248678,1365831,74057,9070,682964,0
0,2,711162,250155,1432174,74746,9715,715974,0
0,2,709334,248612,1369991,74061,9008,684973,0
0,2,701659,248097,1473756,73810,10015,736865,0
0,2,707456,249102,1248777,74221,8274,624334,0
0,2,737799,258879,1506273,77316,9589,753153,0
0,2,708806,248321,1415339,73895,8041,707704,0
0,2,726705,252904,1373440,77260,9248,686673,0
0,2,706579,248340,1383382,73820,8139,691767,0
0,2,711951,249264,1329942,74153,8397,664942,0
0,2,711601,250546,1371397,74778,9010,685719,0
0,2,712109,249784,1410389,74623,9574,705256,0
0,2,710058,248894,1410956,74050,7711,705599,0
0,2,712161,249363,1394234,74195,8493,697150,0
0,2,709623,249003,1502076,74081,8796,751088,0
0,2,711227,249505,1309704,74260,8794,654909,0
0,2,711174,248676,1395799,74000,9162,697955,0
0,2,713061,249683,1275873,74322,9044,637962,0
0,2,709143,250028,1494834,74618,9215,747299,0
0,2,704912,248582,1432281,73911,8324,716162,0
0,2,728240,253345,1378266,77288,9071,689110,0
0,2,708084,249095,1480212,74068,8650,740147,0
0,2,706560,247994,1300708,73706,8595,650375,0
0,2,711866,250322,1398706,74805,9540,699394,0
0,2,730895,252827,1324641,77081,10443,662326,0
0,2,706105,248616,1396349,73977,8510,698179,0
0,2,712252,250686,1424514,74917,9388,712311,0
0,2,711362,250163,1396749,74641,9289,698408,0
0,2,729928,253180,1371723,77194,9274,685641,0
0,2,705744,248664,1411728,74005,8541,705898,0
0,2,708178,248730,1390500,73959,8517,695201,0
0,2,711645,249049,1411723,74046,9199,705715,0
0,2,705532,248614,1501967,73919,9805,750930,0
0,2,706270,248159,1394252,73774,9539,697075,0
0,2,709163,249359,1617731,74103,9672,808891,0
0,2,708015,249312,1484472,74131,8996,742208,0
0,2,712426,250089,1630941,74625,10179,815103,0
0,2,714668,250141,1399423,74685,8693,699719,0
0,2,711737,248425,1306915,73858,8714,653487,0
0,2,729690,253498,1482943,77372,9313,741414,0
0,2,708791,248603,1391692,73872,9084,695874,0
0,2,711963,249722,1353475,74405,9775,676185,0
0,2,712753,250288,1402112,74715,8777,700982,0
0,2,712232,249345,1267822,74170,8484,633900,0
0,2,708861,247962,1389029,73695,8969,694470,0
0,2,709766,250497,1430120,74846,9352,714834,0
0,2,707478,249433,1444556,74237,10501,722194,0
0,2,709223,248858,1372784,73965,8223,686401,0
0,2,711269,249796,1451126,74533,9296,725537,0
0,2,713055,250575,1409680,74886,9121,704712,0
0,2,709850,248592,1323478,73930,8031,661712,0
0,2,706003,248586,1373936,73925,8811,686991,0
0,2,711246,250092,1325390,74605,8954,662620,0
0,2,705628,247942,1391598,73658,9188,695700,0
0,2,712805,250318,1398076,74721,8819,699011,0
0,2,709728,248534,1441338,73862,9166,720714,0
0,2,714417,250885,1466289,74983,9544,733500,0
0,2,716166,250135,1346935,74618,9568,673431,0
0,2,709964,249118,1442060,74006,9883,721098,0
0,2,713792,250446,1450745,74694,9678,725447,0
0,2,707428,247985,1402794,73629,8829,701375,0
0,2,712253,249171,1310849,74031,9226,655477,0
0,2,713821,250929,1376089,74838,8141,688116,0
0,2,713889,250109,1380444,74290,8822,690267,0
0,2,710339,248871,1389716,73858,8188,694896,0
0,2,712291,248766,1319843,73937,8862,659972,0
0,2,732161,253410,1355714,77276,9322,677832,0
0,2,709980,248555,1263587,73902,7938,631865,0
0,2,717386,250377,1407438,74611,9343,703862,0
0,2,708229,249257,1594686,74040,9698,796779,0
0,2,712277,250581,1515995,74614,8602,758031,0
0,2,711839,249457,1335643,74059,8868,667884,0
0,2,706520,248113,1411092,73708,8197,705589,0
0,2,711487,249293,1384169,74004,9189,692071,0
0,2,708946,249019,1365057,73981,8409,682534,0
0,2,708877,249077,1373593,73968,8964,686860,0
0,2,712917,249091,1500033,73912,9102,750063,0
0,2,730996,253544,1386592,77195,8986,693240,0
0,2,737973,254927,1406832,78303,10005,703460,0
0,2,711690,248368,1313208,73870,8568,656657,0
0,2,721390,251361,1388415,75010,9214,694282,0
0,2,709179,248529,1348804,73858,8859,674429,0
0,2,717107,251085,1512953,74980,9185,756542,0
0,2,743966,261024,1430621,77942,8680,715366,0
0,2,713379,249315,1372453,74089,8943,686280,0
0,2,714060,249407,1319212,74170,8243,659697,0
0,2,738865,255012,1351484,77730,9258,675728,0
0,2,718488,250410,1355434,74541,8551,677770,0
0,2,737349,254647,1492278,77693,9601,746115,0
0,2,733616,253878,1454641,77244,10758,727312,0
0,2,715306,249867,1450730,74150,9858,725397,0
0,2,714781,249454,1399386,74049,9933,699718,0
0,2,720121,250946,1396020,74516,9758,698066,0
0,2,732929,254723,1532097,77537,10526,766111,0
0,2,711206,250058,1372454,74169,9517,686274,0
0,2,711953,250172,1323379,74283,9239,661979,0
0,2,713060,251383,1483958,74943,9023,742045,0
0,2,717801,251669,1367459,74974,9515,684516,0
0,2,713271,250147,1273876,74259,8678,637087,0
0,2,718172,251792,1420649,75066,10036,710389,0
0,2,712328,251120,1454157,74783,10341,727142,0
0,2,715849,250915,1475519,74785,8903,737834,0
0,2,713168,249256,1514923,73977,10200,757163,0
0,2,710351,248990,1420642,73919,10901,710243,0
0,2,735864,254175,1498911,77510,10191,749218,0
0,2,715092,249739,1503416,74177,10670,751569,0
0,2,716219,249959,1446638,74184,9977,723226,0
0,2,731622,254155,1420511,77396,10614,710137,0
0,2,711989,249257,1418091,73968,9614,708990,0
0,2,716864,250760,1421617,74856,9971,710517,0
0,2,710995,248478,1413995,73802,9307,706946,0
0,2,712172,249375,1409016,74151,9728,704414,0
0,2,714747,248805,1457390,73957,10237,728681,0
0,2,709986,248736,1400637,73925,9609,700306,0
0,2,710421,248789,1289386,73854,9215,644710,0
0,2,715913,250246,1446918,74559,9497,723289,0
0,2,711824,249479,1425785,74084,9531,712750,0
0,2,714948,250252,1432488,74616,10315,716132,0
0,2,708454,247696,1447387,73539,9340,723684,0
0,2,709839,247640,1428674,73530,9606,714356,0
0,2,708131,248191,1338507,73770,8864,668946,0
0,2,710165,249330,1426558,74049,9624,713164,0
0,2,729344,252854,1378739,76981,10174,689477,0
0,2,713921,250561,1466544,74756,10192,733126,0
0,2,730354,252658,1356933,76921,10356,678387,0
0,2,709420,247794,1483516,73558,9914,741807,0
0,2,711242,248975,1512464,73967,10019,755938,0
0,2,706053,247715,1357028,73565,9439,678530,0
0,2,713480,249925,1547228,74603,9552,773822,0
0,2,732308,253467,1411760,77272,9738,705928,0
0,2,713057,249436,1487170,74331,9677,743297,0
0,2,714471,249820,1406112,74582,9867,703301,0
0,2,717149,250468,1515815,74715,9641,757864,0
0,2,709782,248719,1410048,73845,9585,705067,0
0,2,710131,248416,1404955,73765,9054,702527,0
0,2,712148,248509,1258206,73747,8760,629147,0
0,2,711947,248754,1315396,73920,9257,657655,0
0,2,714413,249284,1491799,73963,9333,745943,0
0,2,715177,250569,1540661,74504,9992,770344,0
0,2,714241,249286,1429823,73839,9745,714905,0
0,2,711843,248660,1316030,73658,9413,658038,0
0,2,715182,248965,1332917,73714,10116,666503,0
0,2,714950,250110,1343081,74169,8783,671599,0
0,2,712433,248465,1638376,73559,10725,818797,0
0,2,709113,249096,1587832,73740,9219,794205,0
0,2,710696,249242,1286808,73868,8925,643380,0
0,2,709720,248840,1248533,73766,8884,624300,0
0,2,730636,254253,1406027,77326,10166,702770,0
0,2,733485,253771,1410955,77205,9207,705445,0
0,2,706693,248561,1425503,73783,8958,712788,0
0,2,708029,248335,1379414,73714,8757,689770,0
0,2,715258,250976,1309480,74818,9663,654687,0
0,2,711261,248286,1431000,73701,9309,715553,0
0,2,708734,248235,1287189,73682,8458,643950,0
0,2,712312,248550,1434427,73790,9865,717263,0
0,2,711879,247917,1493047,73525,10090,746219,0
0,2,707580,248807,1246393,73885,8648,623105,0
0,2,713735,250364,1376274,74576,8696,688153,0
0,2,711203,249239,1598230,74060,10914,799272,0
0,2,739692,258967,1452977,77101,9149,726434,0
0,2,710980,248366,1242247,73755,8812,620867,0
0,2,710982,248231,1300591,73654,8986,650305,0
0,2,710780,248694,1445444,73867,9132,722612,0
0,2,711065,248405,1750094,73808,11598,875126,0
0,2,712514,248270,1454640,73651,9962,727238,0
0,2,715017,247958,1293023,73560,8570,646484,0
0,2,710588,249408,1350193,74060,9065,675102,0
0,2,708737,248709,1352439,73809,8123,676155,0
0,2,712356,248715,1382007,73864,8529,690925,0
0,2,709656,248087,1361325,73654,8642,680574,0
0,2,712252,248524,1293022,73764,9188,646577,0
0,2,728459,252736,1466323,76909,10024,732553,0
0,2,709147,247919,1487850,73578,8753,743982,0
0,2,711959,248787,1425823,73847,9309,712954,0
0,2,712310,248388,1355327,73733,8977,677981,0
0,2,711206,248904,1434741,73898,9007,718027,0
0,2,718178,250479,1327178,74580,9345,663623,0
0,2,718564,250853,1386300,74852,10047,692896,0
0,2,713141,248204,1383389,73643,9530,691257,0
0,2,706882,247938,1465372,73524,9240,732730,0
0,2,714249,250112,1585207,74467,8859,792290,0
0,2,708919,248087,1436593,73591,9183,718142,0
0,2,715452,250421,1299831,74654,9066,649755,0
0,2,709135,248260,1352776,73645,8463,676366,0
0,2,712970,248263,1294378,73643,8646,647240,0
0,2,710056,248011,1358865,73631,8333,679480,0
0,2,711470,248725,1421716,73826,8488,710888,0
0,2,712498,248593,1411910,73737,8780,705994,0
0,2,712178,248363,1408062,73716,9128,704074,0
0,2,710908,248209,1541131,73544,8696,769386,0
0,2,712508,248021,1452809,73511,8666,726395,0
0,2,717553,250763,1278822,74782,8135,639444,0
0,2,736946,253062,1480237,76980,9172,739989,0
0,2,703309,248644,1275580,73276,8174,637811,0
0,2,710148,250719,1310146,74260,8602,654818,0
0,2,709915,250317,1394069,74056,8437,697036,0
0,2,723547,252820,1503199,76492,10971,751556,0
0,2,704130,248326,1484846,73173,9492,742305,0
0,2,705078,248088,1391532,73142,9195,695770,0
0,2,709018,248373,1357881,73170,9382,678698,0
0,2,704816,248388,1264247,73272,9163,631927,0
0,2,704262,248290,1367245,73203,9154,683628,0
0,2,709986,249718,1329611,73854,8656,664857,0
0,2,705193,248647,1429839,73286,9573,714891,0
0,2,714393,251202,1329194,74497,8373,664678,0
0,2,709956,248620,1339178,73271,8514,669633,0
0,2,703528,247930,1440725,73161,9526,720394,0
0,2,724334,252578,1433125,76518,9724,716630,0
0,2,708974,249627,1308489,73934,8668,654313,0
0,2,704317,248374,1374303,73387,8480,687131,0
0,2,726421,252538,1430751,76558,9352,715358,0
0,2,706573,248108,1380337,73259,9065,690209,0
0,2,730765,253181,1328707,76698,9595,664265,0
0,2,704912,248503,1335215,73381,8830,667615,0
0,2,708975,248460,1328952,74215,8810,664511,0
0,2,714342,249521,1408071,74800,9286,703787,0
0,2,711436,248529,1539886,74267,11227,770200,0
0,2,711339,248182,1268340,74136,9020,634252,0
0,2,713986,248719,1407133,74277,9482,703607,0
0,2,709885,249981,1313517,75016,9153,656844,0
0,2,704089,247404,1339058,73848,8423,669566,0
0,2,708372,248737,1376330,74338,9052,688225,0
0,2,730706,252876,1704662,77439,11199,852349,0
0,2,706919,247984,1409665,74138,8774,704873,0
0,2,714088,249576,1242636,74757,8992,621381,0
0,2,708700,247970,1495857,74046,9140,747731,0
0,2,709769,248057,1431158,74120,8796,715751,0
0,2,709649,248510,1502131,74275,10045,751109,0
0,2,708190,247917,1462267,74038,9325,730687,0
0,2,707153,247675,1392402,73951,9885,696240,0
0,2,710122,248505,1507529,74287,9770,752882,0
0,2,708229,248000,1409878,74045,9129,706078,0
0,2,714779,249277,1463389,74505,9471,731720,0
0,2,705708,247856,1476589,74030,9069,738933,0
0,2,711289,249385,1341927,74843,9543,671192,0
0,2,729654,252691,1540277,77453,10451,770125,0
0,2,710326,249551,1605512,74563,9373,802819,0
0,2,709477,247983,1427140,74124,9111,713552,0
0,2,709018,247485,1417684,73904,9896,708755,0
0,2,710503,248521,1320484,74215,8853,660296,0
0,2,712571,248897,1340926,74378,9317,670442,0
0,2,713740,248966,1308760,74429,8584,654433,0
0,2,713725,249691,1251944,74922,9221,626029,0
0,2,732397,252219,1398266,77228,10316,699191,0
0,2,707648,248552,1327861,74234,9476,663929,0
0,2,710230,248659,1404277,74303,10132,702188,0
0,2,707376,247945,1488317,74030,9629,744198,0
0,2,707015,247867,1368843,74028,8547,684457,0
0,2,712614,249612,1275680,74812,9113,637861,0
0,2,715533,250450,1340347,75170,8730,670220,0
0,2,707206,248095,1430218,74079,8983,715130,0
0,2,709858,248817,1306076,74359,8329,652969,0
0,2,708303,248159,1418816,74096,9385,709441,0
0,2,712491,249363,1403628,74738,9769,701784,0
0,2,712682,249362,1329511,74768,9683,664747,0
0,2,711860,247809,1373373,74005,8885,686679,0
0,2,712033,249631,1337330,74902,9420,668599,0
0,2,712778,249692,1315667,74859,8416,657714,0
0,2,710946,248570,1406020,74299,8773,702991,0
0,2,707784,248362,1461730,74223,8780,730876,0
0,2,710189,248657,1287239,74346,8651,643579,0
0,2,714631,250081,1339072,74942,9349,669562,0
0,2,714450,249883,1318842,74966,8959,659499,0
0,2,715456,248910,1417047,74511,9322,708507,0
0,2,708760,248017,1360149,74080,9136,680081,0
0,2,727577,252206,1489285,77178,10055,744618,0
0,2,735003,253167,1438180,77570,10489,718977,0
0,2,713053,248483,1372125,74252,8989,685993,0
0,2,713325,248726,1365392,74342,9060,682556,0
0,2,708803,248780,1338983,74349,8664,669490,0
0,2,711688,249673,1398853,74805,9223,698836,0
0,2,712173,250561,1227778,75214,9352,613724,0
0,2,715953,250564,1355504,75273,8835,677707,0
0,2,730076,252931,1649287,77496,11125,824572,0
0,2,713711,249480,1419727,74779,9884,709954,0
0,2,715330,249752,1422775,74680,11230,711309,0
0,2,731002,253574,1483721,77545,10434,741764,0
0,2,716399,250124,1315979,74941,8922,657915,0
0,2,711140,248647,1459618,74198,9234,729839,0
0,2,709719,248940,1397894,74288,9801,698997,0
0,2,712959,249095,1408146,74330,8914,704127,0
0,2,711485,248460,1309287,74095,8544,654653,0
0,2,711922,248227,1312010,74002,8591,656053,0
0,2,708480,248266,1419588,74132,9566,709885,0
0,2,710579,248413,1378687,74189,8745,689328,0
0,2,731896,253123,1559362,77404,11414,779633,0
0,2,715800,249083,1605612,74302,10683,803482,0
0,2,715635,250089,1413137,74905,10156,706230,0
0,2,714418,248910,1570677,74242,9785,785024,0
0,2,714088,248829,1469990,74251,9888,734809,0
0,2,709734,247895,1373776,73857,9129,686931,0
0,2,709171,247899,1536079,73857,9692,767421,0
0,2,715360,248887,1803014,74248,10311,901466,0
0,2,717630,250535,1374542,75080,9711,686874,0
0,2,712208,247535,1514690,73756,10417,757710,0
0,2,713649,248081,1405233,73928,9522,702664,0
0,2,706484,248691,1310416,74214,9229,655248,0
0,2,729253,253538,1483545,77580,10486,741661,0
0,2,713949,250310,1491712,75093,9822,745920,0
0,2,712477,250290,1387665,75127,9659,693911,0
0,2,712370,249973,1410472,74932,9941,705259,0
0,2,734176,253235,1518697,77691,10426,759375,0
0,2,710829,248988,1547831,74326,10928,773623,0
0,2,713869,249319,1503089,74470,10590,751547,0
0,2,714079,249304,1444730,74522,10272,722349,0
0,2,711933,249579,1500553,74623,9632,750245,0
0,2,713965,249259,1492120,74594,9892,745610,0
0,2,715323,249567,1535391,74728,10853,767528,0
0,2,712295,249963,1480509,74881,10880,740245,0
0,2,718307,251645,1443239,75614,10569,721578,0
0,2,717326,251390,1317797,75651,9087,658810,0
0,2,716296,250622,1358997,75202,9353,679418,0
0,2,713989,249837,1443270,74597,10228,721641,0
0,2,715204,250197,1427052,74831,9679,713518,0
0,2,718149,250862,1354837,75239,9644,677114,0
0,2,715400,249628,1315646,74568,10467,657965,0
0,2,715597,250301,1328970,74851,9623,664519,0
0,2,714257,248774,1440913,74240,9253,720431,0
0,2,716543,250526,1501891,75107,10755,749994,0
0,2,716280,249595,1502129,74614,10697,750777,0
0,2,716503,249500,1454674,74592,9903,726540,0
0,2,710350,249374,1395086,74538,9641,697623,0
0,2,713201,249742,1431123,74652,9289,715603,0
0,2,713989,249172,1391601,74435,8587,695820,0
0,2,715203,249450,1414178,74589,9155,707125,0
0,2,716029,250206,1341738,74868,8653,670904,0
0,2,712373,249236,1323222,74362,8463,661985,0
0,2,715444,250192,1349747,74825,8096,674951,0
0,2,714866,250469,1476865,74693,10136,738466,0
0,2,715522,249605,1362235,74451,9452,681011,0
0,2,716466,249718,1427499,74510,9633,713770,0
0,2,716428,251672,1388972,75368,9009,694426,0
0,2,713464,249473,1308796,74442,8524,654390,0
0,2,711199,248732,1390192,74227,8834,694928,0
0,2,711887,248959,1350966,74305,10386,675318,0
0,2,714291,249419,1408485,74416,8942,704287,0
0,2,716961,250198,1411883,74943,9387,705990,0
0,2,710458,248503,1305669,74137,8711,652767,0
0,2,713214,248760,1406828,74216,9033,703459,0
0,2,713813,248598,1307123,74162,8403,653611,0
0,2,713485,248620,1298612,74258,8945,649282,0
0,2,717880,250602,1313312,75140,8882,656738,0
0,2,716394,249637,1417868,74682,9032,709004,0
0,2,708659,249240,1301391,74386,8594,650662,0
0,2,729311,253091,1420364,77477,10528,710087,0
0,2,709681,249097,1365477,74386,8830,682784,0
0,2,715105,251026,1352949,75290,10698,676582,0
0,2,711191,248791,1380546,74290,9184,690332,0
0,2,712326,249318,1674859,74447,10548,837478,0
0,2,714417,249252,1474948,74412,9999,737389,0
0,2,709557,248547,1389438,74163,9098,694662,0
0,2,734716,254470,1437679,77899,10306,718654,0
0,2,734089,254310,1425969,77846,9927,712730,0
0,2,717236,250455,1398814,74758,8865,699424,0
0,2,715616,249672,1335340,74422,8561,667675,0
0,2,720965,250961,1328701,75207,9390,664066,0
0,2,718671,252037,1338002,75679,8799,669047,0
0,2,733691,253532,1391971,77489,10309,695916,0
0,2,719037,250902,1283340,75284,8477,641519,0
0,2,714209,249474,1326753,74519,9274,663251,0
0,2,714390,248613,1297586,74280,9274,648738,0
0,2,717928,249482,1317233,74540,8658,658628,0
0,2,734799,253577,1471042,77722,10250,735514,0
0,2,715547,249397,1364858,74582,9479,682372,0
0,2,715175,249236,1415762,74438,9416,707882,0
0,2,715274,248750,1301886,74264,8798,650919,0
0,2,713756,249166,1407977,74432,8843,703950,0
0,2,715666,248684,1280136,74111,9252,639853,0
0,2,715824,248740,1337008,74167,9674,668311,0
0,2,710539,248946,1318979,74256,9007,659323,0
0,2,710880,248117,1409879,73938,9424,704989,0
0,2,713263,249319,1553716,74442,9275,776761,0
0,2,710276,248629,1291440,74164,8500,645653,0
0,2,733486,253422,1363466,77554,10265,681585,0
0,2,712468,249321,1274842,74622,9309,637566,0
0,2,714577,249292,1429331,74383,9007,714651,0
0,2,711036,248701,1555973,74111,9238,778020,0
0,2,717144,250462,1462712,75064,9586,731816,0
0,2,713256,247992,1329530,73918,8734,664764,0
0,2,735844,253504,1365510,77484,10365,682711,0
0,2,718635,250236,1392504,74963,9532,696292,0
0,2,717292,248672,1618905,74126,10204,809408,0
0,2,712168,249352,1430087,74438,9057,715086,0
0,2,709216,247808,1321915,73916,8691,661007,0
0,2,713976,249766,1329023,74762,8935,664560,0
0,2,711555,247488,1288829,73874,8869,644457,0
0,2,717053,248893,1299774,74508,8477,650012,0
0,2,716870,249915,1351581,75110,8860,675865,0
0,2,711646,248180,1340119,74300,9158,670093,0
0,2,715430,248162,1271776,74277,9614,634849,0
0,2,708882,246943,1316789,73791,9764,658289,0
0,2,720276,250460,1435429,75164,10215,717736,0
0,2,716076,248536,1336214,74431,8401,668072,0
0,2,707729,249188,1462095,74835,9185,730861,0
0,2,707402,247792,1342626,74132,9057,671308,0
0,2,706566,248569,1408665,74466,9137,704266,0
0,2,731769,253190,1454967,77687,10281,727477,0
0,2,707509,248860,1360380,74658,9224,680125,0
0,2,708520,248186,1266574,74261,9126,633296,0
0,2,708677,248584,1325937,74378,9416,662902,0
0,2,709606,248183,1394269,74306,9400,697126,0
0,2,708273,247768,1417108,74076,8767,708491,0
0,2,709653,248706,1368939,74462,8393,684508,0
0,2,728341,252346,1431168,77467,10387,715702,0
0,2,706333,248082,1496746,74198,9833,748301,0
0,2,707529,247711,1399240,74021,10232,699496,0
0,2,709931,247732,1337523,74165,9467,668858,0
0,2,706847,247607,1478819,74066,9964,738975,0
0,2,709243,248065,1435578,74151,10340,717201,0
0,2,711641,249071,1474653,74463,9166,737697,0
0,2,714288,249168,1384378,74525,9185,692432,0
0,2,712615,249569,1780424,74834,10258,889734,0
1,2,760341,267003,1315823,78935,9153,657842,0
1,2,762198,266764,1470382,78821,9945,735181,0
1,2,761497,266572,1475920,78706,9363,737326,0
1,2,759416,265923,1517671,78496,9781,757855,0
1,2,761530,266258,1450006,78608,10339,725238,0
1,2,769729,268479,1592196,79640,10734,795112,0
1,2,759149,266588,1453616,78738,9303,726458,0
1,2,755573,265309,1521536,78283,9516,760476,0
1,2,728073,252584,1410026,77068,9530,704987,0
1,2,704220,248061,1288794,73788,8148,644447,0
1,2,710255,249300,1321017,74123,8127,660579,0
1,2,707793,248187,1415237,73723,9130,707651,0
1,2,709884,248444,1319444,73779,9431,659751,0
1,2,705706,247775,1424582,73445,8855,712286,0
1,2,706518,247438,1352146,73414,8337,676102,0
1,2,729316,252652,1326455,77012,9512,663166,0
1,2,709920,248459,1346736,73904,9534,673389,0
1,2,707650,247571,1322677,73406,8537,661473,0
1,2,716547,250638,1423389,74770,9485,711682,0
1,2,710168,248180,1339956,73646,8743,670012,0
1,2,711032,247899,1336260,73545,9011,668117,0
1,2,703221,248424,1309475,73889,8489,654796,0
1,2,706988,248936,1327869,74034,7723,663973,0
1,2,727757,252295,1405258,76888,9291,702621,0
1,2,704578,248009,1410144,73726,8421,705128,0
1,2,709217,248441,1413172,73811,8571,706517,0
1,2,706810,247638,1274646,73589,8485,637370,0
1,2,707379,248337,1298355,73874,7946,649223,0
1,2,708527,248136,1344695,73814,9116,672435,0
1,2,729172,252323,1396903,76994,9732,698345,0
1,2,714592,250542,1441520,74841,9732,720837,0
1,2,711695,249746,1341334,74478,9607,670750,0
1,2,703961,248147,1409367,73769,8582,704706,0
1,2,706002,247950,1335739,73707,8741,667912,0
1,2,704199,247784,1265114,73616,8986,632605,0
1,2,727303,252561,1462368,77095,9682,731057,0
1,2,706382,247237,1425049,73524,9237,712557,0
1,2,715694,250615,1482450,74906,9279,741154,0
1,2,712182,250470,1455196,74739,8931,727650,0
1,2,710393,248750,1361475,74091,8690,680735,0
1,2,712682,249297,1349810,74214,8279,674944,0
1,2,710041,247873,1324396,73653,8930,662255,0
1,2,711902,248200,1482209,73736,8650,741144,0
1,2,706712,248449,1253341,73793,8984,626726,0
1,2,732602,254274,1430654,77469,10067,715182,0
1,2,709247,248987,1306523,73928,8533,653321,0
1,2,711877,248714,1410826,73791,9018,705533,0
1,2,712088,249397,1472213,74004,9214,735524,0
1,2,709952,248818,1343589,73843,9075,671804,0
1,2,717897,250864,1326080,74912,10281,662588,0
1,2,709992,248495,1331311,73756,9017,665645,0
1,2,710959,248871,1433021,74006,9775,716327,0
1,2,712890,249131,1408564,74086,9679,704283,0
1,2,709989,249032,1510767,74096,9258,755380,0
1,2,714439,249667,1520923,74574,10443,760457,0
1,2,715515,249808,1326707,74665,9203,663242,0
1,2,710590,248749,1498578,74112,10251,749260,0
1,2,709239,248305,1411876,73918,9395,705363,0
1,2,711603,249066,1431781,74206,9219,715905,0
1,2,715588,249912,1417695,74651,9700,708622,0
1,2,712158,249406,1351135,74307,9944,675483,0
1,2,717727,250094,1466055,74666,10121,732973,0
1,2,710452,248114,1486517,73858,9338,743306,0
1,2,712976,248491,1453945,74006,9686,727016,0
1,2,717929,250288,1350918,74883,9903,675533,0
1,2,716149,249076,1410283,74164,9233,704698,0
1,2,705202,249003,1417035,74151,9190,708509,0
1,2,711386,250625,1517315,74889,9865,758605,0
1,2,703190,248186,1548519,73828,9712,773998,0
1,2,708517,249421,1365725,74524,9671,682501,0
1,2,709033,248791,1533785,74110,9948,766939,0
1,2,710086,249677,1434442,74589,9844,717292,0
1,2,725839,252936,1451609,77301,9106,725874,0
1,2,706435,248430,1246481,73941,8276,623292,0
1,2,703266,247571,1494295,73608,9371,747229,0
1,2,705655,248636,1341218,74079,9152,670628,0
1,2,712600,250210,1462186,74838,9783,731079,0
1,2,714224,249914,1596574,74645,10670,798295,0
1,2,704681,248448,1325567,73961,8573,662832,0
1,2,707688,248736,1281550,74099,8440,640822,0
1,2,714855,251082,1478174,75188,8579,739174,0
1,2,707997,248754,1424863,74082,8630,712474,0
1,2,706748,248732,1322807,74000,8155,661451,0
1,2,710203,248812,1311601,74040,8419,655853,0
1,2,707040,248814,1276437,74032,8875,638273,0
1,2,707237,248384,1290966,73839,8738,645527,0
1,2,706647,248540,1292215,73910,7927,646145,0
1,2,708003,247839,1392021,73615,8554,696069,0
1,2,708217,248737,1281065,74035,8029,640578,0
1,2,709504,248618,1399431,73937,8874,699762,0
1,2,711457,248811,1398327,74006,8401,698828,0
1,2,715507,250083,1464864,74625,9642,732447,0
1,2,702987,247733,1364666,73587,9567,682314,0
1,2,703149,248455,1384362,73934,8962,692342,0
1,2,707995,248966,1417742,74085,9154,708927,0
1,2,708027,248578,1283145,73953,8512,641647,0
1,2,712190,250094,1453805,74625,9338,726960,0
1,2,728973,253526,1472098,77372,9659,736084,0
1,2,710405,248970,1259247,74092,9123,629554,0
1,2,707745,249147,1442100,74096,8335,721093,0
1,2,729639,253223,1354443,77281,8963,677197,0
1,2,703722,247533,1287466,73610,8368,643778,0
1,2,708223,248539,1436477,73954,8843,718275,0
1,2,710426,248753,1390683,74041,8734,695897,0
1,2,708883,248551,1352326,73921,8575,676217,0
1,2,709227,248583,1404844,73951,8467,702578,0
1,2,707281,247824,1420234,73603,9160,710139,0
1,2,710495,249022,1507765,74025,10079,753883,0
1,2,715226,251023,1535025,75059,10143,767401,0
1,2,736269,258243,1377905,76851,9291,688929,0
1,2,707990,248519,1354295,73966,8917,677072,0
1,2,710706,248907,1322785,74115,8376,661375,0
1,2,731646,252984,1322015,77221,9115,660903,0
1,2,712408,250131,1411333,74617,9237,705628,0
1,2,708139,248639,1319211,74018,8409,659613,0
1,2,715950,250856,1390221,75033,9745,695146,0
1,2,714672,250130,1386655,74668,9314,693304,0
1,2,712406,249826,1424013,74538,9203,712000,0
1,2,711440,248900,1319113,74061,9003,659539,0
1,2,706429,249097,1482554,74135,9124,741274,0
1,2,709631,249399,1266387,74232,8809,633143,0
1,2,707818,249164,1315916,74110,7707,657905,0
1,2,707582,248903,1303575,74024,8396,651799,0
1,2,727172,252821,1372459,77048,8979,686203,0
1,2,708319,249246,1468937,74110,8772,734393,0
1,2,706057,248906,1362332,74107,8694,681058,0
1,2,709477,249210,1252111,74178,8291,625906,0
1,2,728624,253360,1367324,77318,8921,683604,0
1,2,706857,248604,1306791,73975,8394,653161,0
1,2,712539,249430,1399566,74243,9004,698617,0
1,2,710678,249021,1353026,74103,8421,676514,0
1,2,710233,248224,1321405,73757,8623,660775,0
1,2,711444,250631,1331308,74785,9269,665244,0
1,2,707818,248421,1428746,73786,8967,714396,0
1,2,708295,249134,1480357,74059,9080,740221,0
1,2,711610,248947,1373535,73887,9499,686783,0
1,2,731408,254334,1373737,77470,8754,686929,0
1,2,709096,248661,1308634,73780,7655,654346,0
1,2,711035,249467,1322429,74073,8377,661461,0
1,2,714874,250390,1403421,74801,9860,701787,0
1,2,712348,249310,1449803,74166,8486,724928,0
1,2,717355,250164,1316228,74633,9043,658179,0
1,2,715696,250411,1359659,74693,8686,679877,0
1,2,708801,249269,1584555,73985,10886,791825,0
1,2,706913,248102,1627787,73561,9859,813967,0
1,2,711069,249233,1423858,73968,9294,711978,0
1,2,714552,250733,1452203,74876,9277,726152,0
1,2,710894,248894,1403437,73872,9629,701766,0
1,2,706115,248259,1427311,73626,9039,713697,0
1,2,710833,248747,1358992,73815,8548,679537,0
1,2,713024,249423,1390214,74073,9072,695303,0
1,2,708950,248692,1284823,73738,7884,642465,0
1,2,713288,249574,1404834,74242,8781,702470,0
1,2,712406,249106,1321481,74099,8682,660795,0
1,2,735200,253394,1371049,77206,9853,685548,0
1,2,716293,251189,1354245,75130,9033,677212,0
1,2,711414,249082,1397139,74087,9192,698620,0
1,2,717555,250456,1405697,74679,9085,702873,0
1,2,716422,250475,1482838,74725,9043,741485,0
1,2,719203,251886,1399293,75346,8440,699746,0
1,2,713706,249786,1450104,74330,8172,725142,0
1,2,711533,248737,1372693,73984,8212,686375,0
1,2,713511,249371,1479847,74172,8785,739978,0
1,2,716652,249874,1280012,74295,8320,640073,0
1,2,716376,249843,1505792,74094,10744,753118,0
1,2,713560,249354,1374672,73957,9982,687370,0
1,2,715278,249319,1271448,73962,8851,635753,0
1,2,709205,250064,1488180,74238,9293,744138,0
1,2,710771,250177,1438126,74196,10222,718974,0
1,2,711771,250754,1531803,74433,10571,765960,0
1,2,710651,248913,1313777,73777,9572,656933,0
1,2,716162,251594,1308461,74940,9596,654288,0
1,2,709775,249195,1444166,73909,9815,722126,0
1,2,711815,249118,1329026,73843,8564,664160,0
1,2,715519,250414,1362169,74367,8509,681132,0
1,2,710311,249603,1479812,74131,9692,739941,0
1,2,717255,251693,1406325,75111,9314,703282,0
1,2,732083,252760,1299704,76959,10117,649811,0
1,2,710661,249285,1349735,74046,9009,674718,0
1,2,713258,249005,1342154,73904,9390,671231,0
1,2,714630,249408,1532440,74020,10091,766212,0
1,2,712891,250463,1440470,74405,10118,720036,0
1,2,711402,249388,1448870,74086,9599,724436,0
1,2,710299,248969,1548550,74009,9884,774243,0
1,2,713043,250339,1460919,74642,9961,730378,0
1,2,712507,248718,1479958,73896,10685,739945,0
1,2,711327,248499,1350683,73908,9771,675283,0
1,2,714737,251035,1546405,74959,10472,772661,0
1,2,710003,248480,1363513,73806,9864,681608,0
1,2,709374,248398,1503999,73731,9680,752163,0
1,2,714035,248884,1374276,74010,10056,687116,0
1,2,733459,253919,1424106,77380,10731,711926,0
1,2,710028,248523,1558968,73918,9618,779432,0
1,2,718191,250700,1437102,74891,10184,718371,0
1,2,711853,250907,1358123,74951,9793,678781,0
1,2,707101,248463,1492582,73853,9977,746294,0
1,2,711229,249678,1459580,74160,9417,729648,0
1,2,731454,253400,1423380,77198,10339,711674,0
1,2,709649,248798,1375182,73940,9512,687561,0
1,2,709961,248416,1261616,73781,9875,630979,0
1,2,709271,248896,1406304,73890,9721,703103,0
1,2,710217,248204,1443658,73717,9954,721837,0
1,2,731263,253590,1452579,77292,9594,725893,0
1,2,710826,249469,1373585,74408,9402,686563,0
1,2,712553,249017,1290668,74075,8442,645377,0
1,2,733275,253736,1399930,77376,9852,700040,0
1,2,711239,248046,1429101,73706,9452,714626,0
1,2,709167,249141,1296889,74041,8581,648495,0
1,2,710785,248572,1321905,73875,9160,660997,0
1,2,709855,248308,1439875,73737,9118,719970,0
1,2,714960,250497,1381255,74699,9747,690687,0
1,2,716325,249519,1417539,74083,10264,708632,0
1,2,708501,248730,1313803,73870,9614,656945,0
1,2,718930,251661,1433135,74931,10123,716637,0
1,2,719780,251103,1317255,74685,9678,658741,0
1,2,718516,250299,1333029,74419,9423,666528,0
1,2,709685,247705,1413859,73365,9918,706917,0
1,2,718047,250578,1558362,74584,10132,779169,0
1,2,716955,248954,1606844,73702,10029,802246,0
1,2,708569,248836,1298246,73665,8542,649173,0
1,2,708319,248797,1251511,73730,8979,625724,0
1,2,711060,248735,1335135,73700,9093,667617,0
1,2,710253,248877,1311814,73781,8462,655950,0
1,2,730909,252921,1376788,76991,9632,688380,0
1,2,728861,252866,1340173,76959,9237,669742,0
1,2,728974,252729,1290089,76956,9156,645047,0
1,2,707115,247697,1343695,73452,8441,671851,0
1,2,707880,248160,1400143,73625,9273,700073,0
1,2,731523,252830,1419818,76957,10476,709743,0
1,2,712632,248518,1410670,73786,9905,704887,0
1,2,709171,248234,1406089,73644,9908,703026,0
1,2,709157,247983,1606064,73566,10502,803034,0
1,2,707469,247958,1420977,73493,9309,710416,0
1,2,716100,250538,1399645,74718,9421,699823,0
1,2,711562,248413,1570666,73714,11216,785074,0
1,2,709023,248364,1326159,73722,8214,663128,0
1,2,718871,250731,1375251,74682,9966,687612,0
1,2,715269,248969,1482774,73884,10223,741373,0
1,2,713539,248909,1435476,73914,10132,717696,0
1,2,713907,248335,1279566,73741,9205,639658,0
1,2,707990,247967,1430482,73567,9483,715255,0
1,2,706502,248171,1451798,73632,9314,725880,0
1,2,733123,253548,1387838,77233,8858,693896,0
1,2,734297,253599,1413304,77235,9932,706639,0
1,2,711784,248495,1345265,73654,9239,672055,0
1,2,713172,249126,1390822,73970,10005,695465,0
1,2,714700,250134,1363509,74487,9056,681292,0
1,2,710068,248369,1440100,73689,9307,720108,0
1,2,712177,248306,1464167,73642,9686,732075,0
1,2,712940,250126,1475755,74445,9353,738523,0
1,2,711873,248415,1339112,73703,9542,669601,0
1,2,733927,253285,1522327,77108,10837,761144,0
1,2,714388,248573,1412618,73781,9803,706349,0
1,2,715798,250594,1388845,74703,8869,694048,0
1,2,710356,248780,1551069,73840,8520,774578,0
1,2,716056,250870,1351501,74829,8961,675956,0
1,2,712061,248708,1489886,73833,8885,744635,0
1,2,709176,248739,1473488,73850,9127,736727,0
1,2,711107,248442,1321648,73687,8247,660873,0
1,2,713652,248660,1472565,73740,9055,736323,0
1,2,709785,248329,1457997,73681,8376,729028,0
1,2,716111,250010,1434566,74551,8482,717090,0
1,2,712290,248333,1311484,73676,8257,655785,0
1,2,717105,249409,1397644,74171,9590,698867,0
1,2,712359,248175,1374771,73568,8581,687392,0
1,2,737465,252952,1549653,76952,9661,774796,0
1,2,716515,249166,1388299,73899,8366,694158,0
1,2,714777,248703,1333775,73715,7885,666850,0
1,2,703116,248789,1472862,73406,10708,736172,0
1,2,702990,247921,1404948,73035,8745,702382,0
1,2,704075,248520,1371168,73288,8885,685608,0
1,2,712362,250597,1320738,74286,8684,660330,0
1,2,709498,249860,1325954,73910,8957,662942,0
1,2,707149,248614,1471510,73266,9719,735497,0
1,2,704553,248408,1329485,73207,9055,664781,0
1,2,703157,248270,1284468,73155,8729,642387,0
1,2,705797,248447,1485397,73263,8813,742716,0
1,2,708459,250278,1401468,74124,9396,700800,0
1,2,733458,254458,1465417,77451,9934,732718,0
1,2,728349,253272,1424145,76595,9419,712067,0
1,2,704207,248466,1286990,73408,8515,643540,0
1,2,703644,248625,1387447,73449,9195,693763,0
1,2,704402,247856,1423376,73217,8835,711745,0
1,2,727565,252331,1498063,76491,9638,749071,0
1,2,703660,247700,1311180,73131,8652,655635,0
1,2,707185,248233,1295517,73355,8574,647799,0
1,2,705321,247914,1315572,73119,8397,657836,0
1,2,707305,248815,1353713,73515,9142,676907,0
1,2,708110,248341,1390899,74221,9448,695492,0
1,2,712651,249008,1392458,74402,9173,696276,0
1,2,712282,248893,1605489,74342,11054,802558,0
1,2,708014,247628,1425399,73985,10023,712706,0
1,2,711854,248216,1464867,74204,11585,732492,0
1,2,727288,253341,1419130,77652,10196,709521,0
1,2,708962,249028,1459494,74462,8939,729783,0
1,2,704879,247870,1362091,74012,8581,681088,0
1,2,705428,247755,1334536,73935,9576,667323,0
1,2,706573,248565,1428166,74290,9005,714167,0
1,2,710198,248497,1330207,74268,8950,665129,0
1,2,714896,250642,1311802,75224,8220,655984,0
1,2,711630,248381,1307261,74180,8503,653664,0
1,2,708158,248971,1312084,74454,8955,655931,0
1,2,709403,248650,1353398,74275,8478,676290,0
1,2,708472,248796,1381207,74489,9002,690504,0
1,2,710777,248772,1375597,74350,9270,688440,0
1,2,708440,248142,1440787,74087,8783,720440,0
1,2,714970,249690,1381096,74841,9605,689845,0
1,2,705057,247819,1436434,73951,9903,718254,0
1,2,729058,252556,1394579,77373,10497,697060,0
1,2,709388,248924,1534422,74396,10193,767211,0
1,2,711791,248522,1484387,74258,9888,742185,0
1,2,706851,247399,1388990,73821,9030,694164,0
1,2,711913,248335,1447430,74229,9327,723674,0
1,2,709321,248208,1381553,74207,9113,690816,0
1,2,710367,247990,1378221,74046,9600,689161,0
1,2,709707,247788,1495156,73980,9028,747584,0
1,2,732850,252616,1377889,77415,10012,688952,0
1,2,710131,247724,1290740,73959,9455,645410,0
1,2,703954,247990,1383828,74101,9698,691874,0
1,2,710096,249884,1411537,74970,9876,705839,0
1,2,707898,248548,1415096,74291,9205,707412,0
1,2,707958,248456,1289086,74272,8475,644377,0
1,2,708910,248072,1298559,74079,9381,649327,0
1,2,708605,248206,1320886,74175,8998,660532,0
1,2,706303,247941,1378435,74114,9711,689263,0
1,2,706757,247919,1404665,74048,8423,702351,0
1,2,713359,250112,1347537,75059,9168,673878,0
1,2,728204,252619,1450441,77403,10284,725121,0
1,2,710842,248424,1369476,74244,9606,684522,0
1,2,711234,247940,1374895,74042,9209,687439,0
1,2,728478,252660,1453695,77453,10221,726814,0
1,2,707361,247985,1363076,74079,8570,681543,0
1,2,709291,247653,1378427,73873,8676,689105,0
1,2,709512,248824,1434072,74343,9802,717024,0
1,2,707047,247703,1244579,73933,8741,622208,0
1,2,711615,248567,1303289,74257,9291,651669,0
1,2,711245,248382,1400605,74218,9056,700298,0
1,2,713468,248535,1516953,74244,10057,758425,0
1,2,711174,249020,1339885,74391,8928,669922,0
1,2,710493,248016,1336037,74099,8812,668040,0
1,2,711565,248563,1441826,74234,9931,720914,0
1,2,713795,249728,1325892,74868,8942,662776,0
1,2,711996,248878,1313920,74532,8222,656941,0
1,2,715168,248221,1383316,74175,8941,691762,0
1,2,713868,250851,1298399,75293,9883,649178,0
1,2,734268,253503,1387394,77679,10587,693635,0
1,2,708182,247881,1427668,73950,8103,713752,0
1,2,710573,248337,1487979,74205,9950,743875,0
1,2,710288,247988,1439397,74063,9432,719849,0
1,2,713477,248591,1470322,74106,10175,735141,0
1,2,710488,248518,1327387,74112,9155,663596,0
1,2,711208,249077,1322018,74329,8475,661050,0
1,2,709913,248302,1366168,73968,8687,683049,0
1,2,710971,247988,1443057,73939,8776,721481,0
1,2,709340,247715,1418133,73814,8804,709113,0
1,2,713296,248406,1298688,74076,9277,649362,0
1,2,714850,248643,1392221,74197,9013,696058,0
1,2,711474,249868,1598007,74944,10549,799031,0
1,2,709951,248552,1553068,74183,9792,776632,0
1,2,713402,249527,1390375,74604,9481,695011,0
1,2,713999,248680,1390234,74108,9957,694901,0
1,2,709156,248028,1465679,73907,9890,732840,0
1,2,715529,249839,1445500,74678,9371,722377,0
1,2,713075,248538,1450499,74131,9839,725363,0
1,2,734808,252476,1688456,77216,11510,843309,0
1,2,738391,257454,1467879,76751,8937,733756,0
1,2,711455,247796,1559031,73834,9805,779559,0
1,2,733515,253071,1507482,77405,10872,753787,0
1,2,714627,249002,1542814,74301,10325,771637,0
1,2,712435,247918,1449342,73911,9808,724484,0
1,2,704328,248820,1305028,74262,8433,652556,0
1,2,706321,248471,1333571,74168,9109,666849,0
1,2,709715,248847,1445691,74199,10068,722888,0
1,2,713848,249824,1445170,74951,9974,722747,0
1,2,710029,248376,1422975,74038,9478,711506,0
1,2,712902,249548,1338898,74616,9320,669385,0
1,2,712151,250094,1563690,74747,9909,781882,0
1,2,718250,251618,1633568,75562,11291,816126,0
1,2,713592,249374,1540438,74582,11010,770131,0
1,2,715541,250918,1577077,75330,10812,788323,0
1,2,713370,249537,1483554,74680,10517,741549,0
1,2,714990,249524,1454681,74724,9738,727209,0
1,2,709201,249070,1472563,74736,10350,736181,0
1,2,732146,253578,1578414,77831,11107,788678,0
1,2,731529,253348,1407878,77761,9625,703979,0
1,2,712688,249464,1470669,74599,9591,735209,0
1,2,713377,249699,1426095,74654,10387,713023,0
1,2,713667,249708,1393830,74594,9266,696953,0
1,2,717623,250297,1509953,74821,9604,755026,0
1,2,732801,253835,1421569,77798,11292,710844,0
1,2,714269,249025,1418297,74402,9775,709111,0
1,2,717083,250767,1327145,75175,9498,663471,0
1,2,713821,249725,1535573,74657,10454,767732,0
1,2,713843,249133,1460873,74412,10010,730358,0
1,2,720442,251359,1575799,75446,10550,784357,0
1,2,710677,249738,1370910,74611,8872,685329,0
1,2,712953,250081,1465476,74703,9913,732725,0
1,2,715635,250365,1299775,74860,8252,649957,0
1,2,713750,250000,1416840,74700,8758,708456,0
1,2,714999,249440,1428913,74481,9331,714502,0
1,2,714437,250391,1500080,74771,9136,750096,0
1,2,713847,250168,1462697,74721,8887,731399,0
1,2,738616,255192,1463233,78071,10110,731620,0
1,2,717161,251361,1328361,75303,9310,664144,0
1,2,717332,249751,1428662,74501,9676,714371,0
1,2,732764,254144,1580875,77751,9992,790469,0
1,2,711502,249365,1408639,74377,9232,704342,0
1,2,710790,248729,1376066,74231,8932,688012,0
1,2,711037,248622,1364964,74153,9735,682174,0
1,2,718001,250854,1345714,75169,9161,672927,0
1,2,714766,249733,1395723,74605,9068,697926,0
1,2,716434,250425,1322752,75090,9451,661449,0
1,2,735655,253760,1513922,77696,9441,756854,0
1,2,713324,248552,1460609,74166,9801,730340,0
1,2,714772,249020,1314280,74295,8840,657174,0
1,2,714517,248377,1410044,74115,9153,705062,0
1,2,720201,250192,1664780,74741,11132,832315,0
1,2,705937,248630,1417504,74178,9023,708806,0
1,2,710704,249949,1282345,74618,9375,641005,0
1,2,712040,250128,1351835,74834,9073,675987,0
1,2,715854,250317,1278261,74970,9682,639184,0
1,2,714900,250437,1318778,74996,8719,659430,0
1,2,709061,248383,1385217,74052,8613,692647,0
1,2,709825,248074,1425659,73939,9572,712748,0
1,2,710453,249506,1393325,74518,9086,696673,0
1,2,711752,249083,1323069,74380,8406,661535,0
1,2,711929,248886,1314222,74341,9070,657065,0
1,2,712582,248793,1293280,74130,7634,646612,0
1,2,716675,250370,1493007,74743,9493,746499,0
1,2,716878,249831,1332469,74674,8483,666229,0
1,2,714286,250685,1333020,75110,9109,666567,0
1,2,710350,248918,1401048,74213,9517,700488,0
1,2,715136,249994,1257230,74662,8985,628547,0
1,2,717224,251382,1265135,75494,9136,632476,0
1,2,718450,250343,1267635,75067,9327,633548,0
1,2,719897,250986,1339272,75353,9072,669517,0
1,2,712123,248820,1421732,74333,9307,710638,0
1,2,714062,249505,1520253,74585,9486,760119,0
1,2,741657,258488,1415403,77170,9655,707664,0
1,2,719716,250824,1407417,75176,9061,703738,0
1,2,713069,248840,1406489,74332,9114,703228,0
1,2,722731,251633,1317892,75441,9709,658854,0
1,2,716950,249420,1294557,74444,9031,647160,0
1,2,733947,254114,1485824,77770,10595,742760,0
1,2,709599,248226,1359662,74120,9101,679769,0
1,2,712021,248941,1324800,74277,9034,662182,0
1,2,709580,248960,1438521,74316,9402,719268,0
1,2,712082,248964,1304467,74273,9258,652196,0
1,2,714095,248817,1322469,74259,9720,661200,0
1,2,735266,253510,1493797,77585,10027,746787,0
1,2,712461,248252,1444771,74051,9630,722947,0
1,2,735077,253292,1444446,77418,9706,722212,0
1,2,713421,248636,1337158,74182,8587,668626,0
1,2,714351,248981,1335344,74224,9580,667710,0
1,2,720430,250142,1381484,74855,9738,690586,0
1,2,717280,249473,1425364,74445,9812,712741,0
1,2,710650,248196,1391210,73972,9005,695647,0
1,2,708149,247805,1401682,73925,8632,700880,0
1,2,718215,250355,1499577,75055,8948,749626,0
1,2,711399,248089,1360837,74098,9358,680445,0
1,2,714346,248741,1441293,74391,9443,720686,0
1,2,732745,252394,1435635,77465,10286,717912,0
1,2,711714,248098,1416075,74185,10210,708071,0
1,2,710526,246915,1320844,73790,9261,660454,0
1,2,713300,248785,1269596,74491,9591,634081,0
1,2,712454,247483,1431596,74010,9715,715873,0
1,2,712735,247531,1330440,74055,8744,665223,0
1,2,701158,247058,1337526,73845,8341,668856,0
1,2,707206,248239,1393608,74308,9113,696729,0
1,2,706420,247459,1296052,73994,8997,647881,0
1,2,706701,247737,1446999,74118,9074,723494,0
1,2,705138,248268,1429175,74334,8224,714537,0
1,2,706791,247528,1265764,74025,9435,632776,0
1,2,705726,247659,1409104,74057,9562,704516,0
1,2,735153,257174,1386101,76964,8810,692919,0
1,2,707310,247916,1416220,74154,8966,707918,0
1,2,710160,248135,1315117,74222,8924,657548,0
1,2,705571,247750,1305109,74111,8809,652546,0
1,2,705995,247746,1387262,74154,9589,692799,0
1,2,713031,250174,1525097,75224,11031,761666,0
1,2,708728,248178,1416462,74328,9577,707673,0
1,2,706477,247827,1504671,74182,9986,751552,0
1,2,707539,247742,1557688,73976,11019,779214,0
1,2,711553,248082,1462055,74079,10744,729979,0
1,2,712527,248759,1468732,74339,9374,733982,0
1,2,730178,253112,1475279,77583,10160,737602,0
2,2,759461,266267,1379939,78606,9858,689966,0
2,2,760845,266445,1352446,78748,8659,676243,0
2,2,783019,271048,1488801,81990,9976,744411,0
2,2,763675,266865,1559522,78875,10149,779717,0
2,2,768309,269514,1479392,80040,10237,738924,0
2,2,763258,266480,1581550,78659,10293,790138,0
2,2,760900,267554,1531366,79034,9919,765654,0
2,2,789993,276371,1487269,81602,8905,744059,0
2,2,704559,247464,1308168,73572,8486,654015,0
2,2,707987,247927,1269085,73763,8684,634594,0
2,2,706982,247649,1298053,73623,8256,649134,0
2,2,706861,248298,1445335,73781,8789,722726,0
2,2,708754,248251,1402054,73676,9360,701074,0
2,2,706573,248020,1313913,73614,8597,656955,0
2,2,712914,250880,1392740,74823,9274,697103,0
2,2,708932,248579,1227341,73916,8843,613717,0
2,2,707205,247913,1233586,73657,8846,616843,0
2,2,710870,247874,1298494,73736,8889,649301,0
2,2,710857,248505,1365298,73793,8166,682699,0
2,2,715454,250336,1413399,74575,9508,706753,0
2,2,731408,252549,1552328,76869,10374,776168,0
2,2,702359,248081,1329981,73734,8314,665038,0
2,2,725111,252569,1404864,77055,9083,702456,0
2,2,705110,247570,1440146,73572,9269,720121,0
2,2,703990,247762,1310784,73655,8062,655438,0
2,2,727842,252499,1390896,77027,9562,695465,0
2,2,727597,252266,1325048,76836,9803,662517,0
2,2,702406,247526,1365293,73584,8142,682688,0
2,2,726010,252819,1399442,77115,8729,699704,0
2,2,707782,247917,1325139,73766,9091,662624,0
2,2,707955,247714,1399966,73517,8820,700014,0
2,2,708991,247766,1239384,73607,8874,619702,0
2,2,710349,247678,1380201,73657,8666,690117,0
2,2,706557,248045,1447589,73782,9253,723852,0
2,2,709721,248252,1340410,73763,8211,670249,0
2,2,708730,248197,1402233,73838,9176,701153,0
2,2,707487,247921,1614214,73776,10227,807113,0
2,2,705748,247351,1458729,73462,9385,729469,0
2,2,711991,248221,1512691,73653,10481,756383,0
2,2,710714,248311,1383452,73859,9003,691860,0
2,2,710121,248448,1413358,73982,8853,706736,0
2,2,714665,249685,1496180,74445,8746,748100,0
2,2,709881,247749,1317297,73580,8496,658662,0
2,2,707059,248526,1294111,73785,9583,647109,0
2,2,709036,248732,1363199,73876,8980,681497,0
2,2,736844,258604,1483015,76734,9317,741618,0
2,2,711846,249445,1406146,74043,9295,703128,0
2,2,715682,251016,1494634,74891,10195,747276,0
2,2,713585,250042,1439341,74483,10080,719659,0
2,2,711896,248716,1293710,73893,9212,646728,0
2,2,714728,250665,1468483,74846,9465,734191,0
2,2,707722,248021,1392080,73636,8942,696048,0
2,2,711589,249010,1349552,74031,9182,674733,0
2,2,708628,248514,1487720,73826,9268,744794,0
2,2,709642,248340,1329001,73926,9170,664494,0
2,2,712607,248751,1253799,74087,8107,626676,0
2,2,710533,249233,1254579,74277,9381,627204,0
2,2,708369,248391,1426339,73991,9383,713121,0
2,2,707157,247604,1635112,73740,11187,817697,0
2,2,712735,248999,1322810,74177,9752,661236,0
2,2,712392,249699,1461158,74591,10118,730587,0
2,2,709818,247945,1401290,73793,9571,700644,0
2,2,712414,248523,1327741,73991,9162,663921,0
2,2,712108,247970,1400721,73808,9208,700416,0
2,2,735201,253312,1372898,77375,9926,686509,0
2,2,713981,249152,1522860,74166,10175,761114,0
2,2,703627,248839,1405697,74029,9497,702889,0
2,2,701650,247738,1482611,73681,10172,742429,0
2,2,730738,253410,1520423,77384,10741,759669,0
2,2,706140,248910,1273055,74155,9456,636798,0
2,2,705042,248614,1519282,74004,10289,759686,0
2,2,708978,248482,1309722,74013,9172,654902,0
2,2,707412,248458,1406603,74008,8454,703338,0
2,2,708972,249688,1292630,74592,9000,646335,0
2,2,705775,248794,1527598,74104,9218,763851,0
2,2,708593,248898,1364228,74101,8775,682130,0
2,2,709103,248709,1485989,74095,9929,742899,0
2,2,710404,248773,1397118,74116,8932,698583,0
2,2,705163,248028,1369014,73863,9455,684559,0
2,2,705451,248353,1379840,73935,8786,689957,0
2,2,707729,248850,1385079,74075,8570,692580,0
2,2,704332,248106,1396615,73826,8955,698350,0
2,2,710376,248812,1291739,74125,8676,645962,0
2,2,713355,250581,1404071,74863,8824,702112,0
2,2,706165,248775,1270356,73912,8606,636017,0
2,2,707682,248602,1317839,73913,8653,658968,0
2,2,709837,249787,1359293,74353,8131,679688,0
2,2,730570,253377,1372142,77341,8744,686070,0
2,2,711279,250326,1408807,74693,8870,704477,0
2,2,712424,249655,1389763,74304,8744,694940,0
2,2,708999,248771,1386445,74016,8671,693273,0
2,2,711068,248857,1311248,74066,8804,655637,0
2,2,705252,248829,1343737,74068,9262,671914,0
2,2,707051,248917,1386131,74074,8890,693063,0
2,2,708288,249288,1368932,74134,8562,684075,0
2,2,709615,248837,1400407,73920,8525,700213,0
2,2,704757,248124,1292252,73765,8847,646115,0
2,2,708903,249535,1480051,74253,9616,740017,0
2,2,711124,249695,1354804,74495,9372,677327,0
2,2,703399,248016,1291210,73720,8387,645639,0
2,2,707733,249371,1414332,74128,8803,707203,0
2,2,707100,248875,1455765,73978,9100,727899,0
2,2,710900,249573,1397130,74234,8472,698614,0
2,2,711833,249511,1400416,74254,9144,700132,0
2,2,708030,248647,1426559,73981,8804,713324,0
2,2,713884,250344,1519309,74731,9303,759658,0
2,2,712548,249226,1386615,74121,9857,693045,0
2,2,707587,248390,1487289,73903,9800,743647,0
2,2,731017,253599,1556046,77374,10386,778028,0
2,2,710774,248904,1561028,74024,8974,780431,0
2,2,707578,248342,1317442,73815,9061,658681,0
2,2,710859,249344,1383736,74160,8542,691854,0
2,2,712124,249376,1461991,74219,9679,731013,0
2,2,706637,248460,1312251,73847,8517,656148,0
2,2,710557,248825,1402519,73998,8483,701162,0
2,2,730955,253403,1345252,77345,9413,672351,0
2,2,711955,248841,1285132,74073,8772,642575,0
2,2,712149,249638,1520315,74270,8866,760175,0
2,2,716946,250298,1433264,74797,9563,716612,0
2,2,710253,247834,1294566,73688,8684,647255,0
2,2,711073,250062,1332146,74649,9604,666010,0
2,2,711095,249803,1454219,74318,8670,727137,0
2,2,704772,248170,1380381,73745,8520,690034,0
2,2,711558,249957,1439969,74371,9291,719979,0
2,2,709033,249149,1431581,74186,9200,715765,0
2,2,709658,250170,1563472,74649,9917,781287,0
2,2,708540,249173,1302113,74142,8928,651016,0
2,2,707901,249546,1421138,74288,8800,710574,0
2,2,706199,248718,1311385,73982,7936,655746,0
2,2,729235,252834,1352513,77158,9246,676169,0
2,2,712592,249910,1426236,74595,9662,713238,0
2,2,711087,248576,1514793,73877,9690,757441,0
2,2,708248,249510,1330199,74230,9557,665146,0
2,2,710912,249742,1432847,74309,9190,716519,0
2,2,711423,248426,1434910,73824,9425,717504,0
2,2,708783,248328,1467048,73765,9576,733572,0
2,2,709620,248454,1368737,73758,8502,684350,0
2,2,711972,250029,1418916,74482,8650,709492,0
2,2,714089,250695,1474770,74822,8882,737465,0
2,2,733033,253306,1380051,77249,9095,689986,0
2,2,709644,248691,1401132,73957,8333,700692,0
2,2,712079,248889,1239266,74081,7835,619684,0
2,2,732914,253439,1353568,77229,8934,676722,0
2,2,708778,249919,1553346,74260,10553,776729,0
2,2,730637,253573,1569969,77236,11016,785015,0
2,2,730551,253646,1440875,77213,9684,720521,0
2,2,731487,253882,1462473,77432,9885,731145,0
2,2,714909,250839,1474530,74875,9402,737333,0
2,2,714111,249516,1544337,74128,9299,772144,0
2,2,712491,250080,1393932,74312,8770,697019,0
2,2,730694,253272,1366799,77129,9466,683348,0
2,2,713746,249827,1412460,74412,9146,706298,0
2,2,714380,250076,1420966,74496,8383,710465,0
2,2,711685,248752,1353659,73954,8821,676872,0
2,2,717949,250795,1462172,74586,9310,731146,0
2,2,708368,248369,1249560,73701,8864,624830,0
2,2,711891,249404,1384444,74139,8844,692318,0
2,2,714649,250057,1315400,74248,8878,657741,0
2,2,714720,250166,1396317,74421,8584,698298,0
2,2,716246,249863,1406451,74385,8799,703286,0
2,2,721309,251511,1444579,75027,9174,722355,0
2,2,714155,249646,1337364,74313,9521,668285,0
2,2,713500,249336,1343220,74162,8245,671551,0
2,2,714227,249658,1293770,74210,7943,646917,0
2,2,713551,249366,1573395,73885,10477,786361,0
2,2,715310,249788,1472052,74132,9917,735902,0
2,2,713681,249203,1262278,73923,9006,631095,0
2,2,717844,249469,1442872,73927,9260,721482,0
2,2,707700,249237,1531282,73903,9989,765578,0
2,2,710692,250350,1513807,74288,10148,756907,0
2,2,711518,249837,1422178,74165,9900,711136,0
2,2,738882,259391,1289087,77007,8705,644589,0
2,2,709801,249895,1329447,74180,9213,664778,0
2,2,712596,249891,1413531,74180,9045,706897,0
2,2,713890,249786,1335374,74185,8860,667773,0
2,2,708940,249613,1393335,74161,8993,696681,0
2,2,708763,249077,1414593,73989,9315,707328,0
2,2,713462,249687,1553403,74131,9782,776184,0
2,2,712381,249130,1449430,73976,10494,724726,0
2,2,713118,249726,1320874,74275,9141,660499,0
2,2,718955,251681,1517178,75028,10170,758710,0
2,2,720374,250648,1414043,74583,9723,707012,0
2,2,714679,250601,1482482,74669,10085,741162,0
2,2,713798,249970,1341783,74211,9920,670916,0
2,2,709804,248913,1331428,73984,8714,665537,0
2,2,711640,248833,1433708,73960,9758,716876,0
2,2,719056,251341,1472594,75063,10069,735639,0
2,2,708294,248750,1425663,73870,10291,712873,0
2,2,710311,249320,1312860,74023,9913,656279,0
2,2,710621,248700,1474886,73872,9355,737375,0
2,2,712210,248369,1440752,73738,9495,720292,0
2,2,712955,249000,1457955,73987,9903,728902,0
2,2,715180,249507,1322637,74234,9242,661306,0
2,2,733586,253520,1400453,77343,10893,700188,0
2,2,726638,252976,1380351,77163,9858,690170,0
2,2,715081,250591,1539036,74863,10451,769394,0
2,2,708989,248474,1322240,73754,8936,661274,0
2,2,708008,248472,1346158,73761,9086,672800,0
2,2,736799,257781,1477167,76515,9915,738616,0
2,2,710391,248620,1340746,73786,10341,670312,0
2,2,708145,248467,1338895,73755,9534,669481,0
2,2,714707,250379,1439186,74758,9877,719414,0
2,2,711037,248581,1467460,73880,9896,733710,0
2,2,713720,248915,1426811,73995,10503,713452,0
2,2,708346,248020,1253152,73750,8506,626620,0
2,2,709115,248544,1411438,73939,9408,705161,0
2,2,713724,249265,1291455,74152,8627,645780,0
2,2,720958,251468,1441942,75117,9821,721066,0
2,2,710389,248673,1546717,73888,9424,773411,0
2,2,735171,253779,1497625,77365,9981,748788,0
2,2,714052,250364,1328902,74427,9670,664487,0
2,2,717160,250429,1423946,74562,10381,712039,0
2,2,714265,248863,1411996,73885,9309,706062,0
2,2,732969,253462,1363081,77045,9981,681522,0
2,2,712290,248374,1424816,73488,9588,712413,0
2,2,712838,248512,1350930,73590,9902,675503,0
2,2,718629,251119,1373078,74729,9681,686535,0
2,2,714269,248746,1410188,73724,9417,705191,0
2,2,718818,250364,1466123,74391,10012,732857,0
2,2,710502,250068,1457337,74294,9621,728721,0
2,2,712073,249598,1369179,74028,9543,684645,0
2,2,711702,248783,1262866,73745,8953,631453,0
2,2,711017,249708,1422639,74234,8976,711333,0
2,2,709533,248368,1416565,73697,8945,708192,0
2,2,707250,248440,1455823,73714,9416,727773,0
2,2,706352,248017,1259333,73546,8708,629704,0
2,2,709646,248283,1307045,73746,8601,653566,0
2,2,707551,248157,1387318,73546,9132,693698,0
2,2,708790,248198,1459963,73661,9250,730035,0
2,2,714535,249850,1423852,74473,9591,711837,0
2,2,712761,250313,1356790,74621,8984,677591,0
2,2,708860,248537,1403735,73806,9111,701834,0
2,2,709596,249007,1315611,73954,8741,657728,0
2,2,731380,253154,1350337,77058,9280,675256,0
2,2,711801,248754,1423725,73857,8958,711926,0
2,2,711095,247966,1306557,73646,9434,653229,0
2,2,712352,248852,1391250,73886,9044,695700,0
2,2,718141,250594,1364470,74737,9492,682213,0
2,2,711491,248230,1318775,73639,9371,659411,0
2,2,716244,250414,1465933,74608,9708,732617,0
2,2,713202,250661,1343894,74712,9200,672002,0
2,2,716171,250720,1335140,74766,9116,667532,0
2,2,708808,248237,1348879,73652,8290,674434,0
2,2,711053,248854,1348349,73866,9143,674211,0
2,2,711862,248923,1335599,73899,9303,667812,0
2,2,716622,249772,1348833,74359,9925,673416,0
2,2,707220,247564,1468838,73425,8909,734432,0
2,2,717079,250644,1354587,74678,9315,677716,0
2,2,713025,249145,1544856,73968,9276,771743,0
2,2,714684,248933,1481853,73897,9243,741160,0
2,2,709567,248063,1569261,73560,9540,784353,0
2,2,711448,248650,1393887,73798,9691,696999,0
2,2,717286,250097,1402956,74465,10209,700780,0
2,2,735528,252752,1523837,76872,10548,762398,0
2,2,709324,248380,1372376,73688,9356,685665,0
2,2,710946,248882,1429936,73891,8865,715054,0
2,2,711240,248700,1621046,73845,9663,811121,0
2,2,717570,249646,1355964,74303,9507,677648,0
2,2,733802,253877,1500294,77293,9455,750127,0
2,2,733288,253717,1403396,77269,8907,701566,0
2,2,708074,247994,1424111,73555,8175,712026,0
2,2,708252,247955,1390556,73557,8337,695296,0
2,2,714134,249592,1309887,74246,8171,654980,0
2,2,717024,249796,1517994,74461,9477,758540,0
2,2,733457,253092,1611107,76962,9692,804408,0
2,2,712761,248088,1304066,73535,7797,652024,0
2,2,714809,248552,1430649,73715,8569,715324,0
2,2,718203,248943,1484549,73782,8558,742284,0
2,2,707792,249931,1400113,73911,10014,699866,0
2,2,703877,248791,1315550,73378,8706,657794,0
2,2,706088,248199,1311164,73122,8564,655659,0
2,2,704392,247776,1429103,73025,8692,714564,0
2,2,706402,248904,1396221,73414,9119,698116,0
2,2,706010,248647,1688184,73300,9976,842189,0
2,2,704988,248719,1333748,73371,9830,666828,0
2,2,707699,248938,1426170,73441,8850,713132,0
2,2,709890,249475,1411442,73585,8770,705725,0
2,2,729928,253680,1474419,76780,9975,737023,0
2,2,707587,248594,1351251,73305,8356,675640,0
2,2,710115,249569,1432312,73617,8568,716194,0
2,2,725422,253043,1340642,76569,9603,670173,0
2,2,708840,248745,1313198,73432,8773,656627,0
2,2,706763,248696,1390825,73445,9070,695610,0
2,2,706623,248345,1382105,73314,8241,691071,0
2,2,703890,248161,1431847,73295,9151,715942,0
2,2,705719,247634,1466491,73051,9122,733296,0
2,2,706168,248133,1381066,73278,8571,690536,0
2,2,706731,247818,1290917,73136,8681,645272,0
2,2,707128,247712,1301627,74056,9555,650835,0
2,2,709224,248086,1288386,74083,8932,644226,0
2,2,710620,249158,1420801,74652,10591,710539,0
2,2,710565,249142,1330269,74662,9051,665194,0
2,2,710309,247938,1247806,74090,9670,623955,0
2,2,703543,248093,1334956,74159,8962,667528,0
2,2,705614,247454,1352300,73863,9032,676192,0
2,2,713288,250978,1291233,75343,8871,645704,0
2,2,708133,248143,1432632,74089,10074,715487,0
2,2,709176,247841,1303963,73982,9508,652061,0
2,2,707611,247802,1284658,74056,9123,642376,0
2,2,706453,247852,1317522,74016,9022,658804,0
2,2,737499,257629,1411399,76950,9164,705739,0
2,2,711814,250533,1283893,75172,8726,642029,0
2,2,708731,248722,1419328,74358,9465,709725,0
2,2,711949,248688,1301298,74336,9880,650703,0
2,2,730347,252669,1706276,77446,10787,852620,0
2,2,714061,249036,1441442,74438,9915,720760,0
2,2,710799,248046,1459098,74069,9438,729557,0
2,2,709373,250059,1413806,75064,9595,706646,0
2,2,708510,248469,1334481,74257,9732,667160,0
2,2,706281,247795,1587231,73999,9684,793654,0
2,2,711191,248650,1416997,74313,9883,708121,0
2,2,710733,248115,1632996,74089,9768,816532,0
2,2,710987,248185,1411900,74117,8763,705948,0
2,2,712878,249714,1370204,74853,9035,685169,0
2,2,710881,248457,1484412,74211,9453,742241,0
2,2,712750,248145,1445776,74172,9944,722929,0
2,2,712247,248112,1397846,74099,8643,699233,0
2,2,712359,248314,1231798,74158,9045,615954,0
2,2,703785,247965,1373307,74060,9624,686684,0
2,2,726521,252867,1422200,77488,10491,711146,0
2,2,705505,247778,1307002,73999,8733,653541,0
2,2,706955,248400,1524156,74107,9317,761987,0
2,2,707764,248701,1356471,74286,9209,678196,0
2,2,707799,247931,1246573,74058,8448,623281,0
2,2,708821,249207,1320446,74694,9171,660318,0
2,2,709412,249727,1308676,74974,8563,654369,0
2,2,707877,248344,1347656,74233,8740,673881,0
2,2,711622,248450,1267543,74119,8908,633608,0
2,2,709784,249024,1243640,74465,8715,621805,0
2,2,732966,253161,1492092,77600,10170,745983,0
2,2,709055,249763,1326086,74879,9446,662886,0
2,2,707225,248249,1284777,74185,8483,642390,0
2,2,728515,252645,1561173,77408,10132,780497,0
2,2,731702,252435,1484180,77333,9976,742097,0
2,2,713293,249693,1277007,74846,8730,638310,0
2,2,715054,250556,1233969,75223,9109,616807,0
2,2,709507,247726,1325633,73955,8585,662745,0
2,2,710747,247871,1387749,74014,8988,693809,0
2,2,707974,247477,1379012,73907,9110,689523,0
2,2,711221,248555,1479748,74272,9594,739903,0
2,2,710964,247928,1436907,74050,9332,718663,0
2,2,710594,248362,1422767,74245,8909,711366,0
2,2,710961,247925,1472480,74040,9757,736066,0
2,2,712921,248282,1431342,74232,9279,715705,0
2,2,727234,252435,1481953,77371,10603,740991,0
2,2,709905,248359,1262088,74202,8895,631035,0
2,2,709837,248614,1419642,74283,8896,709765,0
2,2,706274,247692,1488539,73941,10282,744319,0
2,2,709794,248215,1417333,74191,9216,708596,0
2,2,730516,252733,1543885,77328,10854,771854,0
2,2,713644,248308,1298009,74052,9434,649045,0
2,2,712359,249771,1306197,74705,8693,653011,0
2,2,709406,248477,1366584,74143,8819,683323,0
2,2,715993,250087,1339987,74930,9028,670064,0
2,2,715649,250216,1335228,74940,9329,667621,0
2,2,715732,249489,1258386,74616,8888,629162,0
2,2,712183,248102,1357442,73919,9920,678917,0
2,2,714068,248596,1438440,74193,9369,719269,0
2,2,709817,249014,1460343,74398,9288,730226,0
2,2,710773,248750,1593359,74220,10076,797631,0
2,2,713528,248581,1484699,74074,9907,742201,0
2,2,712370,249115,1336122,74238,9658,667939,0
2,2,712753,248527,1500508,74132,10067,750246,0
2,2,710452,248584,1399495,74198,9672,699788,0
2,2,713928,248350,1634105,74049,10186,817137,0
2,2,715659,250251,1401243,74860,8931,700351,0
2,2,715760,250027,1317773,74794,9585,658489,0
2,2,712143,248613,1444451,74132,10058,722273,0
2,2,718249,249922,1570331,74777,9702,784203,0
2,2,716682,250110,1487921,74927,9297,743308,0
2,2,736312,252986,1450570,77366,9553,725241,0
2,2,705824,248221,1301016,74073,9944,650502,0
2,2,710523,249598,1594073,74433,9978,797067,0
2,2,708212,248140,1408278,74140,9407,704196,0
2,2,710863,249354,1561730,74463,9861,780907,0
2,2,713384,250263,1389162,74826,9242,694610,0
2,2,709715,249451,1595161,74574,11162,797639,0
2,2,710128,248784,1467294,74299,10134,733024,0
2,2,713399,249477,1391521,74538,9603,695732,0
2,2,715734,249809,1357871,74716,10623,678984,0
2,2,714359,250165,1426902,74954,9899,713381,0
2,2,712949,249311,1572380,74636,10660,786067,0
2,2,720223,250923,1456893,75449,9974,728212,0
2,2,712339,249869,1411977,74778,9978,706039,0
2,2,716580,250708,1286931,75276,9384,643386,0
2,2,714884,250015,1435301,74845,9416,717655,0
2,2,717454,250983,1349705,75230,9446,674909,0
2,2,715130,249474,1578689,74550,10021,789384,0
2,2,714551,249172,1386995,74430,9918,693488,0
2,2,712505,249417,1324216,74565,10015,662024,0
2,2,716528,250700,1334044,75159,8722,667154,0
2,2,715855,250153,1455269,74795,9937,727791,0
2,2,713493,249581,1417433,74517,10241,708828,0
2,2,714566,249842,1566452,74716,10283,783381,0
2,2,717960,251025,1425844,75238,9971,711883,0
2,2,727539,252308,1473185,77271,10556,736518,0
2,2,715974,250735,1311728,74998,8403,655811,0
2,2,712364,249484,1383395,74517,8723,691687,0
2,2,712960,249491,1333552,74574,8851,666724,0
2,2,713132,249006,1430425,74354,9028,715113,0
2,2,709581,248789,1515368,74170,9512,757659,0
2,2,712170,248853,1443265,74233,8536,721283,0
2,2,714779,249943,1332241,74629,8744,666150,0
2,2,711487,248921,1446360,74181,9145,723161,0
2,2,738000,254678,1471411,77872,10994,735520,0
2,2,716383,249660,1456329,74484,10231,728150,0
2,2,710881,248810,1317272,74122,8837,658637,0
2,2,709845,249268,1597221,74408,9628,797809,0
2,2,711809,248797,1486212,74199,8877,743094,0
2,2,733809,253565,1466696,77572,9784,733311,0
2,2,715562,248970,1289658,74181,8143,644898,0
2,2,716091,249494,1430668,74450,8992,715371,0
2,2,712643,249131,1413890,74432,10015,706763,0
2,2,712497,248382,1386792,74099,9856,693439,0
2,2,709875,248567,1316721,74211,9318,658371,0
2,2,717608,249946,1301777,74856,8791,651055,0
2,2,715426,248842,1418311,74257,10037,709193,0
2,2,738411,253477,1464255,77630,10526,732163,0
2,2,711652,250172,1329622,74886,9709,664558,0
2,2,711335,249181,1396922,74406,9713,698509,0
2,2,707328,248099,1375937,73955,8877,688059,0
2,2,711813,249044,1342257,74349,9090,671178,0
2,2,712741,249189,1287011,74428,8533,643556,0
2,2,712971,249236,1392276,74439,9613,696176,0
2,2,707631,248459,1587220,74119,10531,793546,0
2,2,716891,250895,1409900,75155,9792,704850,0
2,2,713882,248861,1293465,74342,9524,646615,0
2,2,712583,249118,1409083,74268,8746,704578,0
2,2,716020,250176,1380433,74684,8821,690169,0
2,2,718359,250052,1393041,74718,9504,696436,0
2,2,720883,250529,1525337,74854,9950,762504,0
2,2,716430,250291,1422271,74999,9040,711065,0
2,2,715553,249610,1311303,74473,9270,655662,0
2,2,717314,249876,1274478,74730,8714,637202,0
2,2,715898,249809,1303811,74713,9555,651837,0
2,2,717750,249786,1260842,74700,9069,630391,0
2,2,713023,249434,1380857,74594,9684,690470,0
2,2,714424,249208,1431974,74464,9771,715838,0
2,2,718226,250643,1350862,75216,9052,675417,0
2,2,715555,249295,1519513,74520,9651,759767,0
2,2,711922,248645,1370181,74248,8752,684931,0
2,2,716784,249402,1449849,74463,8912,724906,0
2,2,716223,249726,1343683,74539,9266,671844,0
2,2,721426,251474,1380326,75408,9445,690038,0
2,2,715217,249820,1328899,74784,8042,664216,0
2,2,715467,250695,1349411,75141,8972,674689,0
2,2,714708,248491,1347066,74091,9532,673520,0
2,2,716175,250826,1384781,75098,8778,692250,0
2,2,713568,248641,1251788,74081,8863,625828,0
2,2,711960,248203,1336363,73991,8949,668164,0
2,2,719479,250406,1397635,74927,8957,698791,0
2,2,715209,250032,1369350,74821,9293,684526,0
2,2,712161,248445,1469862,74081,9785,734972,0
2,2,718190,250789,1333351,75053,9456,666586,0
2,2,714234,248685,1253514,74138,9175,626787,0
2,2,714388,248428,1305253,74044,8985,652661,0
2,2,716921,251205,1387971,75314,9523,693964,0
2,2,713450,248795,1452417,74573,8883,726264,0
2,2,709173,247851,1289385,73962,8483,644728,0
2,2,735199,253489,1347067,77647,10192,673562,0
2,2,714546,248303,1329588,74243,8818,664823,0
2,2,712069,248440,1491748,74335,9341,745908,0
2,2,710822,248219,1306596,74254,8837,653337,0
2,2,716859,249133,1481193,74607,9451,740796,0
2,2,719875,250360,1379685,75179,10539,689864,0
2,2,712702,248457,1431324,74411,9505,715588,0
2,2,715874,248163,1444262,74241,10436,722080,0
2,2,724093,250765,1456534,75482,9711,728355,0
2,2,704514,248095,1339361,74263,9250,669616,0
2,2,707136,248244,1293588,74280,8524,646873,0
2,2,732125,253699,1451915,77887,10113,726004,0
2,2,709215,247503,1443611,74044,9469,721989,0
2,2,726735,252877,1339557,77622,9900,669672,0
2,2,705603,247873,1329732,74194,8772,664882,0
2,2,708403,248399,1427845,74361,9021,713862,0
2,2,709092,247295,1413360,73986,9151,706750,0
2,2,706520,247758,1340172,74131,9400,670058,0
2,2,708535,247770,1418572,74137,9595,709162,0
2,2,708959,248649,1545377,74449,9447,771751,0
2,2,729560,253029,1530876,77674,10879,764952,0
2,2,712725,249249,1596207,74822,10175,796753,0
2,2,705936,247681,1394254,74082,8597,696451,0
2,2,707857,248179,1414757,74180,9671,707489,0
2,2,714291,249809,1590187,74916,11299,794719,0
2,2,709446,247775,1489387,73979,9486,744529,0
2,2,706847,248188,1401848,74196,9360,700416,0
3,2,758805,266251,1290084,78658,8566,645085,0
3,2,767622,269161,1450789,79885,9653,725366,0
3,2,765154,268679,1479953,79608,9645,739955,0
3,2,766447,269196,1554899,79865,9675,777345,0
3,2,763865,266701,1559579,78735,10488,779775,0
3,2,768875,268090,1579213,79411,10972,788962,0
3,2,762043,266911,1682820,78831,10028,840929,0
3,2,764761,268601,1552337,79630,10081,776156,0
3,2,707598,249012,1308216,74022,7671,654164,0
3,2,708041,248624,1287784,73936,8341,643914,0
3,2,708173,248738,1357166,73918,8186,678626,0
3,2,707987,248093,1355687,73724,7895,677895,0
3,2,711574,248836,1315029,73909,8643,657557,0
3,2,708203,248861,1416631,74097,9222,708380,0
3,2,731065,253096,1432453,77065,9852,716172,0
3,2,713373,249617,1306254,74431,9146,653192,0
3,2,708948,247834,1301356,73705,8774,650610,0
3,2,709298,247645,1419244,73559,8748,709662,0
3,2,707933,247955,1388491,73640,7993,694282,0
3,2,710350,248168,1390436,73732,9696,695255,0
3,2,710864,248197,1377930,73664,9033,689015,0
3,2,712343,248580,1399348,73912,8371,699454,0
3,2,706919,248850,1381840,74017,9013,690790,0
3,2,704661,248355,1364100,73896,8007,681971,0
3,2,704821,248468,1386162,73919,8287,693110,0
3,2,702600,247360,1426787,73493,8129,713433,0
3,2,707607,248617,1480284,73923,8693,740290,0
3,2,711905,248836,1286154,74153,8720,643067,0
3,2,710341,249520,1435753,74442,9492,717913,0
3,2,706571,247985,1281775,73759,7921,640951,0
3,2,704541,247492,1425018,73574,8211,712543,0
3,2,708667,248102,1344200,73800,9168,672135,0
3,2,708927,248024,1373659,73735,9322,686885,0
3,2,704662,247963,1357785,73713,8651,678937,0
3,2,713498,250196,1441633,74745,8898,720881,0
3,2,707638,248088,1480782,73706,10141,740412,0
3,2,708187,248258,1399302,73869,8923,699547,0
3,2,711616,249288,1453836,74354,10317,727015,0
3,2,707736,247977,1521036,73831,9852,760549,0
3,2,709508,248622,1472844,73931,8983,736367,0
3,2,709966,248937,1442838,74050,8751,721500,0
3,2,708724,248153,1414123,73658,9037,707101,0
3,2,730212,252117,1380382,76811,9864,690148,0
3,2,713167,248240,1256711,73719,8610,628406,0
3,2,707110,248970,1384455,73986,9649,692033,0
3,2,710845,249285,1435974,74016,9956,718044,0
3,2,715144,250649,1447545,74746,9599,723838,0
3,2,710459,249221,1584003,73927,9293,792010,0
3,2,710140,248693,1304667,73922,9079,651999,0
3,2,712836,249506,1345790,74394,9442,672783,0
3,2,711315,249663,1461891,74427,9475,730883,0
3,2,710077,248502,1379305,73853,9299,689669,0
3,2,713813,250514,1407049,74832,9869,703482,0
3,2,711106,248383,1351244,73805,8646,675582,0
3,2,708905,248309,1411838,73884,8862,705459,0
3,2,715466,250660,1479473,74956,9224,739304,0
3,2,706478,248166,1303969,73887,9600,651917,0
3,2,709815,248201,1258582,73930,8809,629280,0
3,2,711650,248643,1746055,74116,11726,871842,0
3,2,732751,252840,1470035,77157,10508,735007,0
3,2,707943,248059,1453078,73849,10253,726527,0
3,2,708890,247452,1388306,73745,10000,693697,0
3,2,715738,250200,1456054,74855,10044,728138,0
3,2,714058,248635,1445780,73997,8682,722931,0
3,2,713290,248821,1414462,74122,9348,706918,0
3,2,712865,248422,1239426,73986,9024,619717,0
3,2,704111,249267,1409934,74243,8883,705555,0
3,2,708780,249349,1411217,74295,9438,705648,0
3,2,708662,248971,1482345,74160,9845,741232,0
3,2,704824,248604,1534669,73986,10200,767382,0
3,2,727687,253150,1468175,77333,10746,733896,0
3,2,708058,248433,1403844,73984,9580,701825,0
3,2,703880,248020,1385959,73752,8537,693030,0
3,2,706474,248227,1403162,73870,8612,701623,0
3,2,714964,250694,1508167,75038,9654,754124,0
3,2,706309,248562,1394700,74050,8698,697241,0
3,2,707404,248353,1333755,73930,8789,665990,0
3,2,708450,248356,1422554,73975,8881,711320,0
3,2,708471,250344,1392452,74902,9134,696294,0
3,2,727439,252966,1483293,77277,9716,741562,0
3,2,705147,248443,1305158,74017,8457,652631,0
3,2,709248,249567,1386198,74333,9490,693143,0
3,2,707403,248048,1394467,73808,8687,697273,0
3,2,729961,253389,1369639,77351,8714,684826,0
3,2,704973,248958,1309528,74126,9364,654814,0
3,2,707689,248910,1268420,74051,8177,634251,0
3,2,706383,248773,1300875,73981,8100,650487,0
3,2,708092,248527,1476016,73931,8772,738049,0
3,2,707704,249049,1328833,74072,8783,664456,0
3,2,711865,250531,1480217,74866,9349,740194,0
3,2,706309,247877,1397365,73695,8363,698732,0
3,2,710177,248938,1434116,74013,8749,716921,0
3,2,725766,253144,1268472,77239,8769,634266,0
3,2,704635,248312,1429248,73812,9041,714667,0
3,2,710619,250357,1528192,74675,9480,764156,0
3,2,707880,248651,1436464,73928,8065,718269,0
3,2,726931,252921,1356413,77164,9210,678224,0
3,2,708084,248517,1406807,73877,9457,703409,0
3,2,711346,249613,1302716,74307,8961,651414,0
3,2,710810,250194,1365477,74750,9347,682573,0
3,2,710422,249954,1482763,74578,8997,741278,0
3,2,708551,248630,1346469,73910,8702,673258,0
3,2,707822,248742,1292829,74017,8435,646459,0
3,2,713388,250829,1400018,75004,9293,700083,0
3,2,708744,249278,1431240,74116,8721,715667,0
3,2,708535,248651,1420142,73913,8658,710328,0
3,2,711682,249510,1352282,74423,9285,675098,0
3,2,728218,253336,1462275,77316,10238,731068,0
3,2,707695,248629,1498464,73910,9370,749201,0
3,2,710430,249377,1587349,74206,9056,793650,0
3,2,728581,253243,1409174,77253,9328,704548,0
3,2,733461,253497,1385671,77344,9522,692779,0
3,2,709573,248406,1463332,73812,8670,731641,0
3,2,712501,248963,1383009,74089,9129,691464,0
3,2,713142,250072,1417491,74450,9004,708722,0
3,2,705673,247157,1383373,73537,9223,691701,0
3,2,709138,248208,1504946,73766,10718,752416,0
3,2,710782,249016,1293176,74020,8116,646577,0
3,2,712195,249250,1415005,74194,9103,707488,0
3,2,713174,249359,1441806,74237,9336,720881,0
3,2,706708,249153,1308097,74099,9055,654047,0
3,2,727468,253051,1319479,77135,9188,659781,0
3,2,705270,248571,1387200,73832,7973,693615,0
3,2,707071,248697,1378482,73902,8570,689233,0
3,2,707382,247680,1313683,73708,8050,656985,0
3,2,712554,249104,1636100,74165,10822,817374,0
3,2,711523,250453,1316247,74849,9044,658057,0
3,2,709444,248409,1334038,73879,8833,666895,0
3,2,712168,250073,1430129,74639,8863,715218,0
3,2,708544,248928,1373325,74018,8360,686683,0
3,2,708816,248900,1383973,74057,8368,692012,0
3,2,710954,248836,1317121,73978,8020,658693,0
3,2,707791,248623,1249074,73890,8716,624497,0
3,2,728462,253296,1430623,77303,10154,715247,0
3,2,710203,249080,1469165,74021,8757,734596,0
3,2,731937,253430,1440267,77321,9849,720063,0
3,2,711060,248351,1425801,73730,9665,713045,0
3,2,708352,248909,1313222,73878,7886,656550,0
3,2,732941,253541,1369710,77148,8860,684897,0
3,2,716256,250894,1469726,74841,8042,734941,0
3,2,708435,248576,1403207,73869,8809,701646,0
3,2,715060,250673,1410246,74915,8211,705186,0
3,2,713512,249461,1325595,74138,8754,662833,0
3,2,726906,253685,1358241,77305,8621,679092,0
3,2,709565,249436,1536847,74070,9400,768284,0
3,2,710035,249291,1419853,74026,8683,709976,0
3,2,709235,249159,1387063,74042,8217,693571,0
3,2,710722,248811,1458003,73960,9251,729056,0
3,2,714613,250302,1449626,74572,9067,724865,0
3,2,708866,249190,1479571,73973,9149,739791,0
3,2,709501,248943,1310266,73903,8785,655176,0
3,2,711459,248458,1383267,73769,9261,691682,0
3,2,712014,248614,1347064,73778,8545,673581,0
3,2,713373,249781,1416967,74546,9039,708566,0
3,2,712867,248452,1378056,73757,8410,689147,0
3,2,709640,249553,1373345,74171,9087,686716,0
3,2,707824,248810,1283143,74035,7961,641613,0
3,2,712278,249159,1415732,74024,8510,707913,0
3,2,716202,250095,1386943,74402,8462,693547,0
3,2,716235,249849,1294813,74333,8659,647455,0
3,2,716754,250075,1399616,74445,8680,699903,0
3,2,717679,249685,1428655,74208,10429,714362,0
3,2,712349,249286,1441462,74221,8385,720785,0
3,2,713737,249042,1412952,73987,8475,706303,0
3,2,718400,251178,1556116,74862,10171,777587,0
3,2,719011,251221,1482176,74793,10331,741141,0
3,2,717808,249941,1428209,74140,10469,714150,0
3,2,722478,251665,1443965,75034,9527,722046,0
3,2,713536,252127,1541035,75256,10552,770596,0
3,2,714809,251123,1491371,74759,10530,745770,0
3,2,716756,251273,1467953,74821,9624,734044,0
3,2,709562,249453,1415663,74023,9598,707881,0
3,2,714429,249777,1431845,74077,9869,715951,0
3,2,714006,250776,1401484,74650,9516,700658,0
3,2,712854,249350,1420061,73968,9335,710075,0
3,2,709441,249119,1334624,73916,9713,667342,0
3,2,711508,249215,1331504,74008,8974,666271,0
3,2,713307,249493,1665317,74154,9775,832614,0
3,2,716595,250921,1436461,74827,9825,718236,0
3,2,713822,249251,1449699,74053,9358,724742,0
3,2,736395,254239,1435446,77350,11166,717786,0
3,2,716270,249604,1332960,74121,9711,666539,0
3,2,711175,249508,1433954,74101,9237,716799,0
3,2,713767,250799,1416503,74817,9390,708173,0
3,2,710182,248551,1405306,73775,9900,702625,0
3,2,737449,258820,1550962,76893,10392,775174,0
3,2,736644,254643,1546341,77649,9913,772556,0
3,2,708472,248632,1348249,73867,9645,673986,0
3,2,709364,248436,1369106,73743,10806,684504,0
3,2,735131,253841,1333352,77311,10102,666680,0
3,2,734015,253643,1371233,77241,9999,685580,0
3,2,710328,248397,1318372,73757,9042,659207,0
3,2,711251,248419,1317010,73920,9626,658441,0
3,2,713763,249229,1469546,74136,9770,734631,0
3,2,715487,249150,1492362,74119,10419,746197,0
3,2,709462,249346,1409262,74200,9498,704543,0
3,2,708303,248594,1397513,73940,9878,698741,0
3,2,708094,248432,1426363,73740,9601,713142,0
3,2,708058,248241,1310773,73663,9204,655300,0
3,2,712482,248929,1288706,73934,9498,644376,0
3,2,709402,249026,1505232,73921,9920,752574,0
3,2,729693,252988,1539848,77089,10583,769956,0
3,2,709774,248678,1480409,73917,9347,740300,0
3,2,710759,248543,1297769,73925,9278,648924,0
3,2,711148,248621,1406441,73840,9661,703196,0
3,2,712810,248220,1337468,73778,9450,668767,0
3,2,709180,247820,1416602,73585,9345,708348,0
3,2,712101,248511,1476615,73881,9200,738307,0
3,2,707835,248808,1290180,73899,8387,644888,0
3,2,710872,248875,1427921,73947,9240,713990,0
3,2,709437,248653,1255469,73835,9075,627765,0
3,2,712094,248947,1330461,73917,8891,665268,0
3,2,713998,249228,1430792,73980,9798,715450,0
3,2,711099,248695,1417760,73710,9637,708796,0
3,2,712047,248586,1292417,73659,9439,646257,0
3,2,713534,248883,1250109,73822,9238,625105,0
3,2,712800,249398,1391698,73945,9760,695845,0
3,2,716204,249992,1426910,74336,9747,713517,0
3,2,717127,249925,1408169,74086,10004,703983,0
3,2,709191,249824,1424826,74027,9553,712221,0
3,2,708035,248487,1403166,73654,9861,701627,0
3,2,711483,249052,1362958,73841,9322,681471,0
3,2,709053,249162,1323650,73917,8644,661882,0
3,2,716262,250807,1439069,74699,9110,719583,0
3,2,706766,248141,1274532,73588,8349,637292,0
3,2,714617,250348,1396600,74574,9346,698362,0
3,2,708366,247987,1379566,73562,8992,689819,0
3,2,712526,250733,1389944,74779,9272,695053,0
3,2,712426,249240,1379056,74211,8890,689544,0
3,2,711111,248985,1405563,73865,9506,702834,0
3,2,707045,248801,1429826,73832,9532,714965,0
3,2,711479,249352,1283464,74052,8604,641750,0
3,2,711673,248580,1319253,73744,8848,659645,0
3,2,712150,249482,1459130,74283,9601,729459,0
3,2,711526,248725,1558516,73829,10362,779268,0
3,2,716899,249883,1284266,74429,9321,642136,0
3,2,716917,251457,1645122,75016,10660,821375,0
3,2,730858,252160,1387092,76720,9968,693468,0
3,2,710096,248476,1497805,73704,9806,748771,0
3,2,710786,248282,1280266,73674,8655,640071,0
3,2,729421,253614,1337150,77259,10080,668476,0
3,2,710540,249423,1344158,74266,8702,672032,0
3,2,713002,249708,1341775,74377,8602,670861,0
3,2,706762,247783,1302028,73457,8227,650970,0
3,2,714048,249275,1343344,74205,9299,671719,0
3,2,711445,248356,1458290,73715,9838,728631,0
3,2,709647,248735,1514256,73778,9527,757165,0
3,2,732120,253285,1520060,77088,9914,759662,0
3,2,710772,248328,1436269,73718,9491,718405,0
3,2,712156,248062,1402565,73517,9569,701318,0
3,2,732638,253025,1491960,77013,9972,745961,0
3,2,712222,248169,1375293,73595,10012,687635,0
3,2,710439,247823,1557673,73502,9795,778284,0
3,2,714243,248408,1366833,73729,9534,683306,0
3,2,707480,248057,1320510,73629,8963,659712,0
3,2,709949,248215,1411862,73620,9069,705832,0
3,2,709458,248380,1408643,73729,8854,703677,0
3,2,711795,248155,1274967,73651,9514,637531,0
3,2,711119,248622,1496771,73778,9029,748517,0
3,2,712516,248136,1364725,73586,9133,682395,0
3,2,713924,248475,1396780,73765,9284,698429,0
3,2,710152,247284,1303448,73372,8044,651764,0
3,2,713073,248044,1320093,73585,9032,660079,0
3,2,734402,253012,1580899,77025,9979,789910,0
3,2,710336,248137,1534643,73497,8859,767359,0
3,2,717227,250024,1321132,74377,8191,660470,0
3,2,712819,248059,1398106,73534,8206,699051,0
3,2,722449,251069,1540539,74838,10168,770144,0
3,2,709572,251191,1243998,74368,8074,622044,0
3,2,706127,248399,1372647,73203,8654,686358,0
3,2,704521,247954,1474913,73132,9054,737499,0
3,2,703571,248148,1495692,73107,8984,747892,0
3,2,703689,247922,1427710,72994,8891,713858,0
3,2,731865,257341,1518565,75805,9695,759172,0
3,2,704658,248762,1343398,73288,10657,671749,0
3,2,706277,248575,1361813,73211,9222,680947,0
3,2,706424,248579,1417875,73282,9001,708960,0
3,2,706821,248119,1319832,73107,8312,659950,0
3,2,710160,249515,1320835,73782,8890,660489,0
3,2,707032,248712,1372815,73375,8221,686464,0
3,2,701760,247815,1324145,73019,9283,662049,0
3,2,707819,249510,1290693,73865,8816,645375,0
3,2,710221,250356,1398686,74260,8723,699418,0
3,2,707464,248869,1385156,73516,8746,692627,0
3,2,705680,248241,1438219,73295,8531,719158,0
3,2,713162,250887,1314778,74544,8918,657460,0
3,2,704573,248141,1480882,73286,8964,740485,0
3,2,712386,250829,1240508,74433,8692,620342,0
3,2,708345,248375,1381609,74085,9543,690829,0
3,2,710110,248681,1401263,74297,9982,700662,0
3,2,707375,248140,1554849,74094,10132,777530,0
3,2,709875,247662,1529053,73882,10041,764595,0
3,2,732117,252767,1339781,77451,10094,669870,0
3,2,708665,247764,1287476,73979,8829,643793,0
3,2,706701,248379,1325824,74293,8886,662946,0
3,2,728790,252572,1407703,77365,9456,703829,0
3,2,712849,250072,1294113,74965,9026,647123,0
3,2,715877,251335,1416039,75405,9647,708098,0
3,2,713682,250961,1457029,75392,9048,728648,0
3,2,705575,248077,1374343,74153,9024,687229,0
3,2,709568,248311,1399556,74220,8757,699820,0
3,2,724489,252240,1431136,77223,10036,715550,0
3,2,709543,249350,1271606,74665,9203,635869,0
3,2,709727,249223,1402887,74434,9621,701482,0
3,2,708855,248334,1518873,74208,9373,758761,0
3,2,713738,249382,1454591,74736,9176,727504,0
3,2,711060,248705,1506403,74606,9768,753728,0
3,2,736641,253330,1522793,77627,10135,761153,0
3,2,711505,249589,1393899,74801,9047,696734,0
3,2,709823,248336,1380709,74152,9902,690389,0
3,2,711274,249278,1388508,74730,9311,694576,0
3,2,729137,252765,1539586,77467,10120,769755,0
3,2,715301,250618,1323721,75184,9106,661919,0
3,2,708309,248239,1433742,74187,9156,716872,0
3,2,713204,249467,1341478,74796,8551,670628,0
3,2,716107,249521,1445213,74780,9185,722526,0
3,2,713015,248821,1493402,74293,8944,746743,0
3,2,711743,248518,1341471,74226,10005,670780,0
3,2,714669,248221,1305439,74116,9092,652804,0
3,2,707017,248212,1384797,74170,10178,692443,0
3,2,707528,249058,1299884,74641,8836,650004,0
3,2,711780,249554,1340652,74752,9195,669896,0
3,2,707242,247821,1372528,73990,8760,686324,0
3,2,712595,249218,1338904,74470,8976,669466,0
3,2,709041,247586,1461456,73867,9147,730766,0
3,2,730332,252838,1546069,77468,10143,773001,0
3,2,706972,247881,1319197,74054,8931,659645,0
3,2,710062,248513,1451795,74232,10010,725946,0
3,2,712471,248277,1337635,74157,8849,668713,0
3,2,710693,248252,1478141,74202,9292,739066,0
3,2,712051,248217,1384655,74207,9161,692327,0
3,2,708341,248785,1449798,74313,9435,724705,0
3,2,706470,247981,1418807,74130,9293,709395,0
3,2,711065,248390,1371593,74247,8591,685795,0
3,2,707384,247791,1357982,74073,9287,678839,0
3,2,731323,252663,1373459,77426,9666,686712,0
3,2,712537,249194,1436459,74448,9996,718160,0
3,2,713127,248918,1426732,74357,9777,713373,0
3,2,729548,252896,1447311,77532,9804,723662,0
3,2,713271,249408,1336467,74754,8794,668145,0
3,2,712452,249591,1339351,74862,8766,669692,0
3,2,709137,248140,1341349,74080,8293,670653,0
3,2,738543,254495,1477938,78515,10787,739167,0
3,2,734208,252938,1559002,77523,10329,779485,0
3,2,705341,247933,1319633,74073,9333,659732,0
3,2,709882,248874,1372225,74305,8610,686073,0
3,2,711079,249184,1297422,74490,8936,648588,0
3,2,711856,248494,1513100,74210,9429,756526,0
3,2,712993,249930,1362377,74931,9866,681180,0
3,2,708437,247845,1412406,73937,9067,706223,0
3,2,715303,249387,1310428,74376,10158,655241,0
3,2,734768,257286,1465109,76695,9128,732575,0
3,2,710091,248678,1415407,74164,9622,707499,0
3,2,713583,249279,1389649,74383,9232,694868,0
3,2,711068,248488,1340408,74111,8839,670280,0
3,2,712222,248457,1351516,74087,8621,675838,0
3,2,714905,249889,1306595,74842,9244,653222,0
3,2,716300,249552,1463918,74713,9955,732103,0
3,2,714619,249686,1405464,74779,9687,702410,0
3,2,714862,250029,1373396,75017,9037,686183,0
3,2,715708,250213,1400323,75003,9819,699564,0
3,2,713465,249727,1420145,74673,10418,710513,0
3,2,712052,248568,1390261,74060,9339,695073,0
3,2,714966,248481,1605245,74042,9926,802673,0
3,2,713824,248220,1479769,74044,9499,739921,0
3,2,709994,248581,1536588,74099,9257,769035,0
3,2,714836,249081,1311776,74220,9737,655936,0
3,2,718226,249557,1414770,74673,9409,707058,0
3,2,712069,247971,1456187,73869,9776,728130,0
3,2,734971,253472,1536643,77551,11079,768347,0
3,2,718980,250009,1340801,74789,9573,670474,0
3,2,709599,250103,1268811,74870,9032,634496,0
3,2,712948,250648,1389607,75054,10427,694877,0
3,2,710506,249393,1559155,74562,9914,779744,0
3,2,707083,248317,1432465,74098,10016,716215,0
3,2,713457,249731,1378835,74679,9497,689463,0
3,2,713283,248835,1466576,74382,9593,733349,0
3,2,709278,249145,1511563,74391,10931,755612,0
3,2,712067,248968,1495417,74362,11101,747581,0
3,2,714794,249130,1474473,74425,10951,737337,0
3,2,713626,249577,1419211,74556,9732,709600,0
3,2,714344,249071,1514123,74533,10268,756797,0
3,2,736464,253925,1554345,77964,10871,777189,0
3,2,710065,248975,1467742,74451,10131,733971,0
3,2,712435,249614,1348956,74727,9740,674470,0
3,2,711151,248692,1453661,74367,9312,726869,0
3,2,714157,251007,1416458,75428,9769,708121,0
3,2,712767,249411,1328516,74559,9271,664149,0
3,2,735575,254084,1484999,77839,10978,742490,0
3,2,710836,249126,1411736,74357,10057,705836,0
3,2,740105,258501,1481508,77259,10009,740853,0
3,2,715923,250761,1349454,75280,9019,674657,0
3,2,722368,251460,1346434,75494,9542,673175,0
3,2,714751,249755,1424430,74677,9357,711745,0
3,2,718504,249710,1492256,74649,11064,746138,0
3,2,708528,249564,1462322,74534,9574,731364,0
3,2,711516,249123,1402170,74434,8651,701255,0
3,2,717285,250814,1338258,75213,8352,669154,0
3,2,714928,250776,1341080,75132,8790,670593,0
3,2,713904,249776,1315675,74646,9054,657881,0
3,2,709007,249398,1351491,74512,9148,675792,0
3,2,712007,249314,1415762,74450,9895,707918,0
3,2,712915,249258,1431549,74347,9361,715830,0
3,2,715151,250473,1528474,74905,10075,764303,0
3,2,714311,249050,1335684,74233,9343,667757,0
3,2,720766,250856,1377038,75024,9659,688526,0
3,2,712332,249593,1422205,74417,9175,711055,0
3,2,717652,251081,1406083,75276,10871,702493,0
3,2,734411,253999,1521578,77710,10081,760234,0
3,2,713004,249474,1331024,74470,8800,665292,0
3,2,715418,249593,1399735,74482,8650,699916,0
3,2,716569,249496,1567522,74500,9793,783368,0
3,2,716325,250449,1324217,75018,8297,661768,0
3,2,713609,249064,1394109,74341,10119,697109,0
3,2,719485,249944,1346288,74831,9441,672985,0
3,2,716248,249770,1338215,74614,9395,669154,0
3,2,715220,248902,1359171,74251,9086,679622,0
3,2,717175,249325,1324369,74460,8795,662232,0
3,2,711499,249936,1413514,74654,9397,706798,0
3,2,708950,248611,1394945,74197,9080,697459,0
3,2,731204,253253,1652847,77528,11011,826393,0
3,2,710852,248950,1337775,74283,9288,668934,0
3,2,712265,249140,1429557,74368,8918,714817,0
3,2,716196,250179,1313978,74930,9217,657067,0
3,2,710135,249797,1441645,74560,9465,721012,0
3,2,709333,248326,1405570,74113,9305,702792,0
3,2,714270,249113,1305700,74294,9751,652658,0
3,2,713531,249439,1340665,74351,8681,670342,0
3,2,716119,250663,1344177,75026,8741,672070,0
3,2,717684,250353,1441940,74777,9229,720958,0
3,2,718617,250093,1374512,74642,9414,687319,0
3,2,709207,248130,1398599,74073,8858,699334,0
3,2,716656,251082,1268918,75261,9087,634195,0
3,2,714850,248886,1374467,74380,9591,687234,0
3,2,712363,248930,1249141,74405,9257,624543,0
3,2,717280,249670,1328609,74596,9134,664265,0
3,2,717597,248984,1425917,74432,9384,712926,0
3,2,719298,251339,1351040,75509,9102,675550,0
3,2,716992,250331,1249441,75014,8520,624783,0
3,2,715699,249045,1304803,74351,8963,652419,0
3,2,722738,251454,1387817,75476,9356,693877,0
3,2,717296,250032,1337812,74787,8529,668908,0
3,2,717069,249207,1278689,74350,9195,639320,0
3,2,740768,254116,1443048,77795,10319,721431,0
3,2,713153,249591,1391090,74534,9194,695509,0
3,2,715367,249392,1327410,74454,8716,663660,0
3,2,713455,248801,1306264,74274,8952,653139,0
3,2,713218,249436,1469389,74462,9193,734677,0
3,2,713561,249020,1312733,74327,8689,656260,0
3,2,711977,248812,1323840,74261,9144,661878,0
3,2,714657,248870,1395298,74262,9246,697683,0
3,2,711717,248629,1400766,74162,9434,700427,0
3,2,713959,249372,1481905,74391,9910,740994,0
3,2,713205,248959,1399961,74197,9115,700017,0
3,2,715998,249263,1332501,74364,9768,666280,0
3,2,714896,248410,1295620,74037,8637,647848,0
3,2,716632,248820,1406326,74221,9231,703198,0
3,2,713867,249025,1397447,74310,8977,698771,0
3,2,711399,248183,1317466,74113,8663,658773,0
3,2,710567,248274,1241372,74169,9057,620734,0
3,2,712327,247757,1318064,74066,8860,659086,0
3,2,714632,250458,1386783,75378,9475,693460,0
3,2,711674,247463,1285868,74022,8878,642980,0
3,2,711487,247496,1422642,74035,9642,711369,0
3,2,716134,248456,1344009,74412,10116,671992,0
3,2,712324,247930,1263217,74251,9666,631533,0
3,2,715457,248417,1342548,74382,10063,670984,0
3,2,736739,252298,1495515,77456,10348,747733,0
3,2,705510,248117,1391333,74240,8976,695640,0
3,2,705341,247776,1310159,74118,9205,655057,0
3,2,706284,247900,1365262,74140,9549,682703,0
3,2,714384,249983,1441373,75214,9904,720723,0
3,2,704869,247760,1258051,74212,9018,628945,0
3,2,710057,248439,1484616,74375,9137,742201,0
3,2,728355,252371,1441803,77472,10213,720929,0
3,2,711942,249338,1440936,74805,9496,720318,0
3,2,715063,250130,1420815,75194,9523,710488,0
3,2,712432,249198,1384890,74756,8949,692496,0
3,2,711607,250772,1441192,75416,8872,720615,0
3,2,704076,247116,1476920,73998,9908,737616,0
3,2,708859,247992,1529433,74234,10313,763786,0
3,2,728586,252967,1546603,77654,10876,773161,0
3,2,709258,248496,1493125,74338,9705,746167,0
3,2,732637,253662,1534739,77729,10768,766959,0
3,2,709349,248105,1404874,74155,9620,701937,0
3,2,706648,248139,1380320,74145,9867,689571,0
