0,-1,690103,236534,1283421,70499,6962,641830,0
0,0,755665,265516,1368506,78457,8811,684049,11
0,-1,687658,236209,1201329,70476,6562,600698,2
0,-1,634480,218222,1153311,65649,7563,576667,0
0,-1,637643,217820,1112589,65438,6564,556300,0
0,-1,639088,219645,1255208,66258,7288,627549,0
0,-1,640416,219046,1205666,65896,7571,602864,0
0,-1,640765,218953,1388237,65888,8526,694154,0
0,-1,641204,220540,1193747,66502,8686,596874,0
0,-1,637224,218042,1379771,65599,8981,689873,0
0,-1,644024,220135,1297030,66587,6822,648593,0
0,-1,637935,217870,1227645,65555,7038,613831,0
0,-1,659928,223015,1227981,69025,9586,613963,0
0,-1,640282,218007,1221509,65468,8471,610685,0
0,-1,637971,219903,1305920,66349,8724,652803,0
0,-1,641499,220322,1223258,66580,6753,611743,0
0,-1,635476,218330,1181733,65586,6742,590795,0
0,-1,638508,218264,1175219,65649,6779,587277,0
0,-1,660076,222811,1166693,68920,7732,583205,0
0,-1,633159,218252,1156579,65417,7441,578342,0
0,-1,640144,218660,1211908,65573,8086,606021,0
0,-1,638695,219193,1181694,65936,6240,590860,0
0,-1,647482,221672,1270034,66818,7458,635065,0
0,-1,645527,219594,1179152,65886,7334,589624,0
0,-1,664013,223503,1232951,68936,7604,616451,0
0,-1,636995,219159,1233161,65742,7857,616550,0
0,-1,637321,217819,1275934,65417,7781,637756,0
0,-1,644334,219230,1242492,65652,7513,621284,0
0,-1,642042,218998,1217329,65581,7317,608724,0
0,-1,660708,223366,1249157,68916,8738,624249,0
0,-1,637654,218230,1161812,65444,7541,580961,0
1,0,756365,265789,1354432,78493,8247,677243,11
1,-1,648661,224348,1276956,67325,7686,638490,0
1,-1,631986,217760,1212451,65348,6763,606234,2
1,-1,636829,217890,1169188,65516,6888,584511,0
1,-1,632955,217530,1150642,65294,6884,575321,0
1,-1,637484,218140,1244709,65552,7608,622356,0
1,-1,639342,218614,1230988,65785,8205,615435,0
1,-1,662002,223820,1219507,69022,8067,609692,0
1,-1,645292,221181,1278710,66939,8144,639568,0
1,-1,638602,218583,1278288,65819,6409,639227,0
1,-1,640315,218936,1202918,65939,7245,601503,0
1,-1,641336,220362,1231270,66578,8145,615668,0
1,-1,640485,218336,1297554,65672,8588,648756,0
1,-1,636702,219240,1275479,65954,7779,637488,0
1,-1,658831,223373,1197732,69159,7155,598874,0
1,-1,635631,218716,1132828,65723,7438,566334,0
1,-1,656740,222949,1190975,68950,7697,595475,0
1,-1,637633,218079,1341800,65485,7204,671175,0
1,-1,634488,219018,1276670,65826,6955,638354,0
1,-1,643084,219765,1252480,65983,7307,626041,0
1,-1,643272,220907,1239180,66795,6679,619709,0
1,-1,644912,220385,1184701,66064,6847,592377,0
1,-1,644067,219545,1174903,65887,7705,587467,0
1,-1,643257,218936,1216032,65735,6735,608073,0
1,-1,635231,218011,1226114,65371,7515,613086,0
1,-1,635312,217954,1245100,65446,8012,622811,0
1,-1,639995,218453,1166154,65561,7287,583094,0
1,-1,640646,218832,1171560,65618,7207,585816,0
1,-1,642489,218585,1203729,65533,8302,601942,0
1,-1,635544,217698,1143274,65235,7881,571684,0
2,0,753383,265164,1334302,78288,8374,667201,11
2,-1,691532,238594,1357802,71505,7998,679036,0
2,-1,633891,217848,1156335,65438,7110,578082,2
2,-1,634938,217360,1153383,65299,7205,576476,0
2,-1,633432,217106,1210012,65219,7349,604941,0
2,-1,635203,217548,1255037,65352,7219,627533,0
2,-1,660669,223019,1288467,69041,8622,644250,0
2,-1,641005,219734,1199874,65949,7846,599612,0
2,-1,638602,218289,1233799,65622,7019,616961,0
2,-1,638879,218260,1266557,65680,7651,633325,0
2,-1,642872,220231,1255643,66471,8174,627870,0
2,-1,639257,218367,1182193,65751,7941,591285,0
2,-1,641166,218983,1221739,65854,8426,610891,0
2,-1,635566,218766,1261540,65743,8277,630518,0
2,-1,637476,219000,1228892,65834,6875,614392,0
2,-1,632947,218248,1133693,65600,6607,566791,0
2,-1,638844,218385,1279430,65655,7529,639702,0
2,-1,640812,219246,1329342,65964,7942,663972,0
2,-1,635401,219318,1243545,65894,6486,621825,0
2,-1,639354,218738,1162966,65584,6536,581506,0
2,-1,659648,223933,1174299,69315,6976,587196,0
2,-1,643039,220848,1218340,66452,6364,609241,0
2,-1,670460,225709,1232232,70175,8491,616159,0
2,-1,647546,220306,1272465,66399,7222,636298,0
2,-1,635334,218641,1322612,65646,7839,661344,0
2,-1,657738,221941,1228801,68522,8427,614621,0
2,-1,636973,217860,1235120,65233,7048,617648,0
2,-1,659285,223314,1153532,68754,7740,576847,0
2,-1,639505,218135,1298574,65434,8882,649255,0
2,-1,643223,218346,1198504,65443,7501,599291,0
3,0,759699,266023,1353866,78609,8519,676901,11
3,-1,690244,235770,1192670,70247,7094,596345,0
3,-1,642232,220223,1221210,66564,7330,610404,0
3,-1,637427,218620,1279027,65785,7696,639495,2
3,-1,640510,220382,1326538,66594,7627,663265,0
3,-1,659206,222849,1271997,68954,8863,636007,0
3,-1,637159,218462,1208987,65691,8213,604358,0
3,-1,642178,220622,1324503,66413,8720,662586,0
3,-1,636424,218182,1189279,65646,6765,594727,0
3,-1,638669,218725,1221030,65869,6958,610557,0
3,-1,638430,218450,1148200,65800,7766,574151,0
3,-1,638720,218225,1286678,65631,7846,643240,0
3,-1,642954,219747,1473935,66232,8900,736476,0
3,-1,637936,220120,1304999,66455,8507,652595,0
3,-1,636092,218217,1235853,65597,6764,617945,0
3,-1,640118,220415,1172529,66570,6828,586142,0
3,-1,642156,219590,1303354,66015,7206,651656,0
3,-1,638870,218642,1181399,65806,7735,590691,0
3,-1,636304,220037,1227849,66391,7137,614000,0
3,-1,638968,219019,1141766,65610,6358,570920,0
3,-1,643203,219232,1176256,65947,7571,588179,0
3,-1,640745,219698,1124550,65913,6297,562315,0
3,-1,644236,219802,1244639,65968,7661,622369,0
3,-1,643065,219074,1220979,65829,7133,610529,0
3,-1,640065,219690,1248863,66163,8293,624358,0
3,-1,636862,218105,1296741,65474,7990,648155,0
3,-1,639236,218593,1278911,65568,7077,639484,0
3,-1,640209,219749,1158955,65844,6926,579525,0
3,-1,642259,219637,1242550,66031,8160,621238,0
3,-1,642060,218701,1215048,65614,7429,607590,0
3,-1,666917,223893,1186297,69102,8910,593178,0
4,0,756572,265654,1480886,78477,9130,740495,11
4,-1,696210,238053,1283863,71196,7665,641916,0
4,-1,635070,217722,1149517,65471,6673,574710,0
4,-1,654134,222514,1251411,68808,7902,625575,0
4,-1,637174,218416,1167898,65649,6783,584061,2
4,-1,636725,217648,1156554,65444,8009,578254,0
4,-1,638386,219228,1250268,66155,8189,625126,0
4,-1,639235,219465,1358209,65886,7947,678694,0
4,-1,637958,218850,1215709,65860,7040,607902,0
4,-1,637672,218682,1237652,65859,6797,618879,0
4,-1,637557,218304,1226365,65699,7409,613210,0
4,-1,635944,217584,1229748,65464,8182,614546,0
4,-1,641212,218625,1298008,65728,8875,648888,0
4,-1,655939,223528,1253366,69152,8425,626676,0
4,-1,640766,220634,1360627,66661,7224,680121,0
4,-1,635214,218609,1165840,65785,7358,582895,0
4,-1,638996,218888,1232807,65849,6510,616449,0
4,-1,638089,218684,1261960,65738,7609,630953,0
4,-1,647412,220785,1241178,66741,8242,620607,0
4,-1,640050,219073,1224811,65654,7270,612423,0
4,-1,647995,221139,1262627,66770,7526,631483,0
4,-1,646026,221711,1258362,66878,7178,629262,0
4,-1,645429,219884,1191677,65986,6485,595874,0
4,-1,641943,218998,1162530,65743,7080,581356,0
4,-1,634215,217860,1123332,65398,7461,561718,0
4,-1,637313,218106,1452668,65526,8264,726348,0
4,-1,639385,218558,1159373,65511,6946,579726,0
4,-1,641505,220052,1231858,66168,7573,615964,0
4,-1,641725,219250,1180430,65775,7585,589971,0
4,-1,639654,218142,1132957,65379,7485,566525,0
4,-1,641463,218250,1161104,65451,8529,580365,0
5,0,764440,267644,1391845,79345,8826,696011,11
5,-1,693043,237101,1281231,70691,7505,640686,0
5,-1,633291,217907,1204748,65481,6693,602398,0
5,-1,634550,218303,1142283,65647,7081,571077,0
5,-1,640642,220497,1277971,66604,7170,639001,2
5,-1,636229,217512,1215994,65363,7403,608009,0
5,-1,635633,218401,1229302,65662,8111,614821,0
5,-1,665859,228733,1373148,68814,9376,686418,0
5,-1,635752,217621,1180568,65324,7166,590323,0
5,-1,637776,218798,1155794,65853,6697,577977,0
5,-1,637300,218232,1270346,65653,7388,635257,0
5,-1,644278,221082,1329064,66918,8649,664068,0
5,-1,641445,218851,1358755,65765,8644,679448,0
5,-1,638127,219251,1272155,65926,6976,636113,0
5,-1,653500,222292,1160142,68786,7794,579967,0
5,-1,633830,218375,1139915,65645,7352,569947,0
5,-1,636912,218422,1140501,65698,6667,570374,0
5,-1,639790,218983,1230890,65901,7636,615435,0
5,-1,662284,223149,1205741,68934,8317,602909,0
5,-1,640537,219163,1210752,65801,6860,605450,0
5,-1,642518,219387,1115305,66046,7182,557712,0
5,-1,661246,223987,1189287,69071,7747,594547,0
5,-1,648364,221250,1286176,66729,7100,643135,0
5,-1,639930,218459,1231751,65567,6734,615957,0
5,-1,634143,218263,1294031,65554,8757,647013,0
5,-1,636761,217763,1263307,65326,8214,631624,0
5,-1,640549,219521,1231944,66021,7295,616027,0
5,-1,636577,218903,1134468,65583,6800,567285,0
5,-1,637000,217760,1416626,65266,8879,708328,0
5,-1,640116,218523,1205140,65546,7834,602652,0
5,-1,641000,218388,1147546,65451,7957,573599,0
6,0,761103,267345,1427453,79190,9010,713632,11
6,-1,690804,236446,1198044,70446,6624,599015,0
6,-1,643164,220767,1252153,66564,7559,626101,0
6,-1,631977,217859,1146642,65532,7382,573290,0
6,-1,640726,219789,1214451,66252,6666,607184,0
6,-1,634738,218687,1172733,65754,7817,586337,2
6,-1,642125,218889,1259839,65732,9076,629809,0
6,-1,635395,218728,1265641,65657,8124,632562,0
6,-1,645049,220809,1253546,66641,7683,626889,0
6,-1,660819,223311,1229708,69167,8185,614943,0
6,-1,637579,218771,1250678,65848,7354,625456,0
6,-1,638368,218762,1240479,65905,7903,620110,0
6,-1,659522,223197,1290047,69038,8944,644897,0
6,-1,635123,218607,1168822,65741,7072,584281,0
6,-1,635300,219087,1162016,65897,6767,581034,0
6,-1,635673,219482,1118983,66023,6706,559483,0
6,-1,636007,218111,1179146,65552,6766,589587,0
6,-1,661476,223143,1183775,69011,7709,591821,0
6,-1,640882,218936,1221580,65869,7462,610831,0
6,-1,644414,221112,1330224,66661,7496,665312,0
6,-1,643416,219762,1146392,66092,7271,573263,0
6,-1,640207,219839,1233019,65961,6673,616541,0
6,-1,642490,219262,1249581,65793,7185,624835,0
6,-1,644082,220468,1256081,66560,7003,628098,0
6,-1,634862,218803,1301333,65773,8555,650869,0
6,-1,636547,218218,1187269,65563,7895,593654,0
6,-1,640504,219363,1152611,65815,7061,576309,0
6,-1,638663,218829,1119255,65509,6824,559673,0
6,-1,638114,218357,1453321,65570,9907,726347,0
6,-1,645754,220436,1230559,66341,7860,615314,0
6,-1,643049,219153,1139420,65734,7376,569753,0
7,0,757850,265468,1365568,78381,8780,682755,11
7,-1,692552,237402,1282183,70781,6825,641126,0
7,-1,656561,222547,1335117,68673,7585,667515,0
7,-1,636958,218633,1247766,65749,7472,623868,0
7,-1,635854,218077,1206487,65570,7109,603321,0
7,-1,636224,217939,1234040,65573,7542,617033,2
7,-1,638716,217726,1264764,65261,8982,632255,0
7,-1,634391,218358,1240431,65535,8124,620205,0
7,-1,659802,222950,1263112,68904,8096,631538,0
7,-1,634566,217031,1166776,65362,6875,583435,0
7,-1,638250,218077,1215452,65613,7312,607782,0
7,-1,636855,218332,1202432,65716,8098,601363,0
7,-1,641225,218142,1277589,65546,7655,638822,0
7,-1,633178,218270,1221667,65509,6962,610838,0
7,-1,633168,218174,1225714,65567,7622,612876,0
7,-1,638896,220364,1170433,66501,7173,585167,0
7,-1,638537,219188,1224093,65887,6804,612069,0
7,-1,639481,219012,1281688,65850,7940,640569,0
7,-1,641266,218674,1222121,65725,7837,611057,0
7,-1,637799,219401,1214141,65883,6658,607120,0
7,-1,642992,219895,1159259,66179,7450,579644,0
7,-1,640427,220486,1243717,66291,6990,621919,0
7,-1,639311,218565,1143456,65583,6701,571781,0
7,-1,665083,224156,1195828,69237,8374,597971,0
7,-1,636775,219847,1396512,66304,8462,697967,0
7,-1,633335,217398,1232337,65250,7835,616184,0
7,-1,639930,218306,1228689,65445,7497,614412,0
7,-1,636145,218666,1158566,65442,7253,579341,0
7,-1,644032,220536,1256154,66484,8035,628004,0
7,-1,638850,217999,1214650,65322,6278,607362,0
7,-1,640751,218224,1255980,65391,7577,628036,0
8,0,758203,265021,1312163,78184,8468,656017,11
8,-1,690584,236729,1284663,70537,7237,642308,0
8,-1,634734,217897,1252669,65316,7326,626387,0
8,-1,635530,218660,1256521,66020,7082,628242,0
8,-1,634200,217633,1135486,65390,6533,567724,0
8,-1,638067,218055,1210153,65592,8834,604925,0
8,-1,636275,218012,1181666,65587,8202,590359,2
8,-1,641851,220873,1508065,66644,9026,754465,0
8,-1,639270,218872,1152190,65792,7262,576141,0
8,-1,656639,222935,1239751,69019,8337,619925,0
8,-1,638560,218235,1180482,65671,7325,590284,0
8,-1,637292,218466,1242834,65802,8994,621284,0
8,-1,640892,218680,1235283,65783,8729,617556,0
8,-1,653979,223165,1192148,68992,8116,595979,0
8,-1,642782,220889,1253842,66841,7267,627033,0
8,-1,638383,218349,1137046,65656,7153,568527,0
8,-1,656793,223016,1184603,68986,7550,592372,0
8,-1,639975,219356,1306984,65943,7914,653547,0
8,-1,640338,218430,1231992,65695,7754,616064,0
8,-1,643401,220355,1268422,66466,7315,634243,0
8,-1,641418,219333,1135374,65856,6901,567730,0
8,-1,639287,219622,1185245,65836,6755,592709,0
8,-1,641108,219605,1203836,65968,6821,602009,0
8,-1,639137,217670,1131343,65330,7517,565774,0
8,-1,643138,219591,1332112,65989,7834,665961,0
8,-1,641837,220467,1268110,66542,8014,634128,0
8,-1,646383,221397,1186507,66736,7172,593330,0
8,-1,639324,220369,1237850,66262,7616,618990,0
8,-1,659869,223156,1242399,68857,9038,621253,0
8,-1,637257,217627,1216556,65216,7149,608324,0
8,-1,640949,218582,1132657,65581,7292,566407,0
9,0,760895,266001,1339331,78620,9094,669552,11
9,-1,695950,238382,1254828,71472,7386,627326,0
9,-1,634359,218145,1134774,65458,6795,567410,0
9,-1,633279,217587,1197876,65368,7588,598900,0
9,-1,638205,218466,1221083,65709,7286,610603,0
9,-1,637633,217998,1261358,65552,8470,630710,0
9,-1,632791,218395,1190492,65585,7469,595278,0
9,-1,634461,218940,1192652,65794,7917,596325,2
9,-1,638601,218929,1161769,65753,6913,580977,0
9,-1,641268,218846,1211143,65905,7619,605734,0
9,-1,638225,218519,1291228,65806,7268,645665,0
9,-1,635314,218105,1333890,65630,8710,666866,0
9,-1,644169,219645,1209087,66046,8488,604540,0
9,-1,633603,218958,1312245,65771,6953,656223,0
9,-1,635948,219033,1264992,65847,7362,632529,0
9,-1,637884,218570,1238130,65650,7068,619103,0
9,-1,637243,218715,1228910,65803,7068,614284,0
9,-1,635280,218457,1227578,65641,6643,613820,0
9,-1,643409,219752,1301244,66295,7695,650556,0
9,-1,639568,219110,1317846,65721,6882,658963,0
9,-1,643569,220025,1111137,66190,6962,555623,0
9,-1,647524,220226,1152175,66009,7305,576118,0
9,-1,647672,221471,1261929,66793,7534,631120,0
9,-1,645772,220473,1240368,66481,7449,620254,0
9,-1,643848,218362,1203478,65619,8131,601775,0
9,-1,658352,223634,1231202,69093,8824,615624,0
9,-1,639898,218564,1143822,65497,7230,571956,0
9,-1,644236,219094,1229467,65584,7534,614785,0
9,-1,632818,216644,1167464,64892,7423,583671,0
9,-1,644370,220795,1220497,66522,7013,610437,0
9,-1,638356,217667,1278489,65222,7311,639287,0
10,0,761309,266220,1389693,78620,8937,694814,11
10,-1,711353,241131,1277473,73768,8291,638619,0
10,-1,636202,218349,1215934,65518,6914,608008,0
10,-1,638846,219678,1170596,66249,7777,585255,0
10,-1,632847,217753,1217736,65389,7090,608857,0
10,-1,641444,219361,1287812,66268,8184,643763,0
10,-1,637016,220497,1346310,66424,8093,672475,0
10,-1,642154,221018,1255564,66792,6904,627848,2
10,-1,655687,223056,1244558,68940,7382,622211,0
10,-1,643063,219834,1385207,66432,8089,692537,0
10,-1,637830,218479,1354225,65748,7580,677151,0
10,-1,663138,223272,1282472,69187,9721,641103,0
10,-1,644976,220476,1351542,66604,9590,675615,0
10,-1,636952,218280,1174077,65667,8084,587063,0
10,-1,634599,218228,1227738,65638,7383,613709,0
10,-1,640563,218832,1255528,65800,7362,627805,0
10,-1,643589,219762,1325830,66263,7708,662981,0
10,-1,640517,218752,1156786,65797,6778,578493,0
10,-1,639342,218483,1231081,65722,7287,615527,0
10,-1,639380,218884,1196854,65679,7111,598405,0
10,-1,642572,219513,1161253,65933,7077,580633,0
10,-1,647671,220573,1144632,66173,7602,572335,0
10,-1,662076,223709,1217961,69091,8377,608994,0
10,-1,641990,219408,1220300,65925,7324,610281,0
10,-1,645699,219785,1258963,66273,7923,629530,0
10,-1,633530,217949,1233452,65476,7947,616411,0
10,-1,638168,218580,1197306,65588,7213,598535,0
10,-1,645998,220151,1248056,66097,7625,624019,0
10,-1,636694,218392,1238155,65500,7759,619091,0
10,-1,659861,223192,1189753,68855,7950,594929,0
10,-1,645472,220356,1307790,66399,7948,654015,0
11,0,777589,270914,1573787,82016,10753,786974,11
11,-1,689512,236814,1205499,70633,7104,602666,0
11,-1,638102,220227,1249742,66390,7120,624894,0
11,-1,631392,217785,1106037,65430,7337,553043,0
11,-1,635445,217481,1143873,65293,7044,571954,0
11,-1,658390,222410,1335477,68798,8191,667670,0
11,-1,642256,218528,1252857,65599,8184,626209,0
11,-1,635070,219521,1197122,65965,7190,597486,2
11,-1,638056,218589,1161993,65636,7300,581039,0
11,-1,635871,217214,1175276,65297,7919,587657,0
11,-1,635900,218129,1243586,65687,6761,621660,0
11,-1,641952,218749,1303336,65835,8280,651856,0
11,-1,639409,218710,1291619,65733,8098,645773,0
11,-1,638052,218751,1271724,65764,7844,635845,0
11,-1,634396,218907,1161369,65838,6734,580655,0
11,-1,638579,219027,1230132,65878,6862,615109,0
11,-1,637035,218214,1226106,65590,7500,613116,0
11,-1,639810,219060,1267624,66111,7601,633817,0
11,-1,640399,219051,1218265,65875,7494,609199,0
11,-1,638231,218910,1170074,65677,6571,585087,0
11,-1,641444,219373,1131335,66011,6662,565692,0
11,-1,645121,220229,1120288,66003,6937,560175,0
11,-1,645659,220203,1249613,66163,8226,624872,0
11,-1,639920,218763,1349916,65650,7606,675020,0
11,-1,642821,219050,1269766,65854,7772,635083,0
11,-1,634331,217442,1194781,65266,7259,597440,0
11,-1,637159,218462,1110629,65578,6842,555368,0
11,-1,646548,220138,1157143,65866,7932,578615,0
11,-1,639222,219370,1251433,66028,7933,625788,0
11,-1,642835,218939,1246668,65683,8051,623370,0
11,-1,668503,224297,1190912,69663,8010,595385,0
12,0,751151,264402,1360325,78042,8906,680014,11
12,-1,690104,236750,1211929,70606,7466,605989,0
12,-1,634798,216752,1284320,64952,7281,642263,0
12,-1,636804,218627,1123410,65725,7570,561572,0
12,-1,642127,220606,1232800,66616,6919,616369,0
12,-1,635501,217489,1277581,65395,7930,638764,0
12,-1,640810,218020,1195081,65397,8235,597407,0
12,-1,639858,219778,1281342,66265,7517,640598,0
12,-1,635280,218322,1170207,65661,7309,585147,2
12,-1,642534,219195,1197238,65969,7200,598716,0
12,-1,636641,218756,1177179,65874,7081,588632,0
12,-1,642960,219560,1276865,66130,8613,638408,0
12,-1,645265,219781,1297755,66244,8856,648655,0
12,-1,636092,218260,1260298,65649,7367,630205,0
12,-1,636421,218952,1313627,65874,8698,656072,0
12,-1,640023,219466,1151096,66017,7374,575524,0
12,-1,640699,219402,1242424,66013,7390,621212,0
12,-1,637283,218583,1187658,65715,6589,593870,0
12,-1,638613,218326,1168986,65643,7267,584524,0
12,-1,641467,220309,1247172,66314,6831,623671,0
12,-1,641237,219817,1181718,66094,6833,590936,0
12,-1,648979,221808,1187110,66854,6960,593600,0
12,-1,646339,220846,1290009,66557,7874,645063,0
12,-1,641298,218487,1241024,65685,7159,620543,0
12,-1,642675,218799,1237206,65720,7619,618696,0
12,-1,638097,219099,1315701,65830,8125,658104,0
12,-1,636374,217768,1157194,65272,7374,578645,0
12,-1,641125,218473,1219966,65256,7499,610050,0
12,-1,660974,223953,1204098,69074,7868,602070,0
12,-1,642123,219250,1241632,65970,8245,620877,0
12,-1,641649,218482,1228554,65531,7650,614306,0
13,0,781696,274688,1476649,81115,9099,738192,11
13,-1,688581,236128,1182550,70350,7398,591254,0
13,-1,640574,219531,1238249,66138,6922,619122,0
13,-1,636880,219378,1167743,66236,7515,583747,0
13,-1,657257,222542,1249650,68787,7555,624769,0
13,-1,637849,218787,1222783,65848,7615,611439,0
13,-1,647210,220898,1382271,66636,8879,691140,0
13,-1,634435,218204,1171536,65473,6930,585811,0
13,-1,636885,218864,1162631,65945,7644,581378,2
13,-1,643782,220394,1232010,66673,7468,616077,0
13,-1,662648,227749,1252225,68490,7507,626171,0
13,-1,642783,219238,1313381,66236,8368,656362,0
13,-1,639819,218726,1336847,65739,8446,668460,0
13,-1,639714,220370,1325353,66597,9021,662110,0
13,-1,655081,223097,1244687,68968,9743,622291,0
13,-1,637898,218419,1249620,65657,7324,624822,0
13,-1,641675,220572,1256115,66714,7709,628044,0
13,-1,636540,218777,1153303,65687,6296,576556,0
13,-1,637359,218039,1147654,65528,6475,573880,0
13,-1,639358,219077,1254044,65679,7908,627068,0
13,-1,641750,220197,1149813,66196,6673,574946,0
13,-1,644327,220087,1217625,66015,7095,608866,0
13,-1,640458,219183,1201026,65772,7334,600553,0
13,-1,640185,218625,1247550,65630,7343,623818,0
13,-1,641713,218408,1157701,65617,7348,578882,0
13,-1,634073,217634,1252034,65331,8016,626024,0
13,-1,661587,223454,1166359,69034,8475,583208,0
13,-1,643287,218602,1232086,65368,7987,616147,0
13,-1,639228,218402,1164158,65509,7496,582132,0
13,-1,637735,218003,1323287,65326,7475,661689,0
13,-1,639318,217953,1119145,65331,6658,559626,0
14,0,737516,259235,1354890,76429,8352,677470,11
14,-1,694089,238701,1237011,71529,7533,618410,0
14,-1,635673,217946,1161122,65362,6772,580493,0
14,-1,633233,218165,1142753,65580,6865,571337,0
14,-1,634602,217764,1165570,65459,5829,582812,0
14,-1,638449,219035,1331110,66133,8452,665797,0
14,-1,640082,218171,1315217,65477,7686,657465,0
14,-1,641002,220599,1368230,66599,9159,683863,0
14,-1,642252,219831,1258709,66394,8361,629416,0
14,-1,637234,218335,1176767,65773,6771,588418,2
14,-1,644699,221378,1210672,66971,7911,605472,0
14,-1,638584,217681,1262920,65460,7885,631526,0
14,-1,641997,219976,1476335,66455,9360,737608,0
14,-1,636439,219485,1239421,66034,8883,619626,0
14,-1,630688,218210,1295352,65575,8587,647522,0
14,-1,636864,218469,1175532,65621,7108,587755,0
14,-1,637829,218738,1208287,65806,7170,604171,0
14,-1,644073,220946,1197522,66801,7803,598715,0
14,-1,641803,220071,1235727,66391,7188,617920,0
14,-1,634265,217914,1221034,65257,6989,610468,0
14,-1,639242,219580,1253010,65971,6811,626633,0
14,-1,642258,219658,1134698,65791,6570,567388,0
14,-1,640967,219679,1246692,65962,7508,623332,0
14,-1,662131,223602,1187462,69024,7974,593719,0
14,-1,641344,218598,1236775,65732,7821,618447,0
14,-1,634651,218251,1176709,65561,7734,588290,0
14,-1,640682,219257,1166536,65859,7819,583324,0
14,-1,647604,220931,1239202,66421,7638,619667,0
14,-1,638458,218632,1161376,65598,6679,580725,0
14,-1,642486,220265,1286236,66323,7663,643143,0
14,-1,642263,218810,1242185,65629,7767,621188,0
15,0,701402,246601,1283872,73341,8036,641927,11
15,-1,687486,236331,1159707,70442,6695,579797,0
15,-1,634797,217734,1278153,65307,7197,638890,0
15,-1,630948,217553,1141878,65316,7223,570929,0
15,-1,634771,217991,1334445,65407,6410,667304,0
15,-1,636436,218278,1252320,65680,7614,626165,0
15,-1,640063,218364,1241670,65639,8273,620794,0
15,-1,652831,221922,1358587,68598,7917,680283,0
15,-1,639501,219030,1386664,65975,8854,693272,0
15,-1,658012,223166,1246074,69105,8285,623072,0
15,-1,638493,218838,1242944,65881,7477,621502,2
15,-1,641614,218478,1441732,65808,8209,720543,0
15,-1,659857,222889,1250349,68874,8717,624933,0
15,-1,636226,219544,1441364,66053,9378,719773,0
15,-1,638743,218809,1137946,65799,7670,568741,0
15,-1,640522,220365,1275829,66504,7216,637897,0
15,-1,637759,218825,1213270,65805,6391,606698,0
15,-1,636923,218684,1157195,65705,7059,578580,0
15,-1,638932,218313,1130140,65654,6452,565078,0
15,-1,642249,220904,1262606,66677,7097,631385,0
15,-1,642096,218933,1161759,65711,7370,580912,0
15,-1,647563,220501,1168820,66292,7540,584454,0
15,-1,644308,219850,1179224,66036,7254,589663,0
15,-1,640752,218747,1204220,65649,7330,602158,0
15,-1,642672,218744,1255196,65708,7953,627632,0
15,-1,632586,217609,1369409,65320,8427,684684,0
15,-1,639997,219560,1324119,66085,7811,662122,0
15,-1,641891,218999,1245276,65540,7218,622643,0
15,-1,639772,219209,1219072,65893,7159,609594,0
15,-1,658473,222941,1191137,68779,8018,595489,0
15,-1,639540,217556,1218231,65130,7467,609155,0
16,-1,690253,237470,1287123,70836,7469,643644,0
16,0,709277,249414,1415882,74399,9008,707889,11
16,-1,657319,223086,1249685,68873,7396,624721,0
16,-1,629575,217440,1143478,65301,7282,571731,0
16,-1,634203,217674,1229735,65345,6452,614898,0
16,-1,636857,218609,1405504,65717,7904,702974,0
16,-1,636036,217300,1134166,65293,8176,566781,0
16,-1,637313,219231,1229212,65871,7222,614624,0
16,-1,639600,219384,1281341,66260,8019,640745,0
16,-1,635929,218455,1247195,65731,7361,623693,0
16,-1,636552,218504,1221770,65780,7563,610969,2
16,-1,643333,220517,1298719,66724,8232,649130,0
16,-1,638790,218443,1306903,65645,8375,653546,0
16,-1,631388,218140,1350108,65505,8536,675613,0
16,-1,640270,219167,1410098,65941,8886,704861,0
16,-1,639783,218947,1245244,65866,6596,622690,0
16,-1,635743,218369,1138721,65682,6833,569341,0
16,-1,637691,219391,1126329,65991,7180,563106,0
16,-1,638246,218241,1255913,65576,6638,628070,0
16,-1,636550,218773,1161859,65584,6659,580977,0
16,-1,661798,223956,1196706,69228,7981,598329,0
16,-1,644229,219825,1104235,65936,6989,552153,0
16,-1,642353,219187,1288415,65771,7287,644244,0
16,-1,640719,218870,1263341,65763,7711,631764,0
16,-1,645143,220246,1232103,66453,7912,616179,0
16,-1,640465,220113,1306297,66438,8695,653000,0
16,-1,638484,218785,1210223,65652,7178,605162,0
16,-1,638392,218115,1199958,65158,6847,600088,0
16,-1,638525,219017,1131955,65699,7148,566020,0
16,-1,635489,217886,1119257,65290,6900,559743,0
16,-1,639348,218864,1310467,65670,7532,655241,0
17,-1,685001,235849,1175301,70283,7317,587645,0
17,0,702512,247103,1388701,73428,8416,694348,11
17,-1,633445,217749,1273507,65304,6700,636785,0
17,-1,663649,223292,1282145,69023,7930,640986,0
17,-1,634297,217451,1146588,65400,7388,573274,0
17,-1,640383,219992,1302258,66482,7864,650831,0
17,-1,640186,217813,1318492,65428,8743,658883,0
17,-1,642534,219380,1300625,66073,8226,650163,0
17,-1,637907,218019,1309447,65675,7538,654775,0
17,-1,633846,218000,1186256,65589,7490,593145,0
17,-1,638105,218710,1211118,65889,6808,605577,0
17,-1,640100,218927,1153719,65954,7047,576982,2
17,-1,642657,220318,1286650,66492,8875,643419,0
17,-1,659085,223354,1238005,69084,8965,618964,0
17,-1,638022,218382,1308566,65649,8661,654257,0
17,-1,644932,221300,1224208,66940,7003,612095,0
17,-1,658420,223245,1173475,69063,7465,586655,0
17,-1,638452,219738,1185846,66287,7553,592817,0
17,-1,641337,219759,1335057,66105,6685,667653,0
17,-1,641821,220979,1229474,66624,7282,614845,0
17,-1,642081,219592,1276536,66040,7611,638321,0
17,-1,644801,220371,1178545,66042,7596,589315,0
17,-1,645146,220828,1254573,66540,7162,627225,0
17,-1,640118,218942,1165811,65732,7402,582990,0
17,-1,645236,218807,1201996,65648,7686,601023,0
17,-1,637992,220175,1262190,66301,8916,631535,0
17,-1,641314,220610,1247052,66559,7152,623588,0
17,-1,646580,220600,1242734,66243,8119,621428,0
17,-1,641692,219752,1269027,66212,7806,634655,0
17,-1,639890,218972,1232450,65684,7501,616271,0
17,-1,640323,217915,1211138,65309,7490,605610,0
18,-1,689911,236562,1210661,70554,7165,605480,0
18,0,704878,247634,1322027,73633,8106,661010,11
18,-1,634579,217745,1170971,65372,7540,585404,0
18,-1,638376,218008,1141339,65510,7093,570683,0
18,-1,634049,218076,1092748,65589,7318,546365,0
18,-1,639970,218866,1347802,65817,7333,673358,0
18,-1,640419,218611,1279509,65609,7365,640035,0
18,-1,638403,218192,1238236,65539,7568,619337,0
18,-1,639428,218527,1257632,65765,6721,628882,0
18,-1,634403,218083,1231726,65614,7460,615913,0
18,-1,639261,218213,1239398,65717,7779,619783,0
18,-1,638509,218823,1286091,65914,8195,642992,2
18,-1,638430,218878,1265550,65852,8705,633062,0
18,-1,638132,220048,1282571,66415,8663,641507,0
18,-1,641117,220218,1280907,66536,8376,640188,0
18,-1,659536,223395,1172442,69135,7201,586285,0
18,-1,636541,219232,1219792,65866,7045,609890,0
18,-1,637943,218422,1177053,65623,8171,588473,0
18,-1,658825,223373,1196605,68953,7500,598191,0
18,-1,657868,223563,1173997,68986,7987,586983,0
18,-1,639871,219208,1266537,65824,6735,633315,0
18,-1,643216,219762,1130563,65889,6700,565338,0
18,-1,640214,219275,1163498,65871,7048,581785,0
18,-1,641755,218417,1228343,65514,7652,614221,0
18,-1,641650,218511,1306704,65787,8364,653135,0
18,-1,640663,219257,1052038,65828,7231,526066,0
18,-1,637004,218106,1169176,65435,6772,584632,0
18,-1,640915,218408,1204235,65300,7581,602208,0
18,-1,638261,218443,1318293,65532,7693,659268,0
18,-1,660371,222714,1288433,68736,8119,644211,0
18,-1,643792,219280,1240960,65993,7346,620528,0
19,-1,689134,236579,1288647,70489,6672,644323,0
19,0,705495,247271,1347779,73479,8563,673876,11
19,-1,634665,218060,1119405,65408,7181,559667,0
19,-1,640953,219240,1266337,66089,7221,633108,0
19,-1,633890,217649,1152343,65393,7289,576133,0
19,-1,636003,217844,1187432,65456,7156,593886,0
19,-1,639606,218424,1380389,65514,7972,690020,0
19,-1,639950,218978,1246176,65803,6944,623084,0
19,-1,643310,220409,1507565,66698,9216,753831,0
19,-1,634900,218283,1150572,65769,7596,575336,0
19,-1,660524,222656,1176792,68947,8345,588399,0
19,-1,638087,218833,1272369,65862,8051,636383,2
19,-1,641167,219084,1263116,65861,7939,631575,0
19,-1,641073,221556,1492193,66968,9005,745676,0
19,-1,638660,219104,1408593,65924,8921,704511,0
19,-1,636717,218443,1276013,65726,7071,638057,0
19,-1,660761,223195,1207513,68939,8486,603737,0
19,-1,635873,218126,1175166,65575,7354,587503,0
19,-1,640520,219298,1203269,65807,7404,601718,0
19,-1,636727,219339,1243541,65763,7068,621808,0
19,-1,637792,218790,1238719,65765,6721,619302,0
19,-1,646292,221484,1196922,66731,7141,598547,0
19,-1,640709,219711,1239729,65953,7176,619896,0
19,-1,646108,220613,1120869,66281,7430,560470,0
19,-1,640977,218097,1236344,65501,8146,618347,0
19,-1,638407,217995,1211745,65307,8050,605902,0
19,-1,636564,218385,1229053,65589,6953,614575,0
19,-1,642811,219371,1134036,65657,7528,567067,0
19,-1,641880,219767,1227884,66123,7451,614013,0
19,-1,639640,218880,1295342,65665,7181,647843,0
19,-1,641341,218629,1161013,65581,7252,580550,0
20,-1,688516,236842,1199243,70636,6338,599633,0
20,0,705408,246878,1452281,73361,8875,726114,11
20,-1,634972,218302,1104121,65475,6860,552041,0
20,-1,642118,220139,1261162,66557,6946,630540,0
20,-1,632847,218094,1208679,65549,7301,604329,0
20,-1,635758,217807,1246272,65443,7316,623137,0
20,-1,639758,218805,1346214,65679,7721,672454,0
20,-1,641342,220195,1265308,66480,7749,632591,0
20,-1,635997,217909,1248050,65545,7797,624054,0
20,-1,641467,218454,1149709,65772,7759,574759,0
20,-1,638728,218356,1227989,65749,7793,614040,0
20,-1,640604,218373,1213746,65626,7786,606933,0
20,-1,645650,220613,1439735,66679,7849,719755,2
20,-1,653956,223111,1206058,69008,8737,602921,0
20,-1,637504,218844,1331175,65774,8333,665565,0
20,-1,637073,218755,1316431,65755,7106,658222,0
20,-1,638285,218737,1259151,65718,7341,629611,0
20,-1,637260,218857,1177680,65772,6865,588826,0
20,-1,642720,219162,1235409,65702,7596,617837,0
20,-1,639946,218600,1212535,65633,7265,606306,0
20,-1,642079,220176,1245501,66383,7219,622818,0
20,-1,641912,219470,1269145,65752,7109,634611,0
20,-1,639586,219137,1172508,65814,6877,586377,0
20,-1,641723,219266,1213212,65775,7431,606641,0
20,-1,642223,218832,1304832,65692,8117,652222,0
20,-1,639111,218538,1265413,65575,8173,633188,0
20,-1,636603,218643,1226829,65659,7253,613459,0
20,-1,642920,219375,1284000,65602,7738,642086,0
20,-1,635032,218040,1294213,65344,7568,647154,0
20,-1,640684,219784,1232402,66156,7256,616384,0
20,-1,640691,218335,1219117,65440,7620,609652,0
21,-1,693427,238219,1278082,71298,7971,639009,0
21,0,723345,251231,1332454,76404,9507,666213,11
21,-1,633899,217926,1141708,65411,6423,570884,0
21,-1,638022,218855,1133655,65705,6728,566810,0
21,-1,628619,216353,1128500,64921,6848,564232,0
21,-1,640683,219885,1355769,66419,8545,677837,0
21,-1,644596,220357,1280386,66355,7983,639931,0
21,-1,637753,218563,1216991,65662,6604,608467,0
21,-1,638347,218886,1173356,65925,7481,586777,0
21,-1,640033,218283,1256969,65746,8641,628474,0
21,-1,641051,219397,1346061,66077,8341,673092,0
21,-1,639611,218479,1182249,65705,8348,591117,0
21,-1,632134,218487,1190527,65609,8391,595260,0
21,-1,635546,219740,1243531,66074,7700,621790,2
21,-1,637997,219088,1129545,65864,7363,564527,0
21,-1,641677,220304,1217266,66507,6790,608679,0
21,-1,641043,220047,1255744,66366,7770,627901,0
21,-1,641829,220556,1218305,66631,7464,609110,0
21,-1,644959,220609,1224773,66415,7297,612440,0
21,-1,640717,219235,1196710,65794,7027,598405,0
21,-1,637431,218442,1243629,65481,7184,621852,0
21,-1,641460,219904,1215867,65908,7065,607974,0
21,-1,638646,219064,1227681,65689,7272,613871,0
21,-1,647418,221507,1225876,66902,7879,613015,0
21,-1,640081,218002,1318879,65394,8506,659447,0
21,-1,636428,217986,1258280,65460,8490,629107,0
21,-1,638014,219197,1301384,65789,7145,651000,0
21,-1,644640,220536,1228513,66243,7832,614388,0
21,-1,640125,218354,1233791,65484,7465,616995,0
21,-1,638175,218256,1126973,65463,7148,563536,0
21,-1,641576,218863,1130052,65716,7176,565074,0
22,-1,690322,237147,1278817,70705,7915,639370,0
22,0,710941,250212,1301347,74602,9037,650604,11
22,-1,633817,218166,1113152,65541,6655,556510,0
22,-1,635551,217909,1218439,65303,7053,609283,0
22,-1,644813,220434,1228451,66556,8026,614119,0
22,-1,634521,217812,1205423,65390,7989,602490,0
22,-1,641313,219046,1256144,65753,7685,628165,0
22,-1,637192,218336,1329681,65559,7523,664792,0
22,-1,687977,232770,1344687,71951,8355,672272,0
22,-1,639216,218031,1353542,65606,8185,676824,0
22,-1,638407,219011,1143644,65973,7132,571867,0
22,-1,641004,218891,1236889,65780,8250,618817,0
22,-1,636894,219725,1248317,66300,7518,624041,0
22,-1,639194,218568,1264757,65705,7732,631593,0
22,-1,637082,220404,1307812,66623,8635,653835,2
22,-1,635599,217949,1245817,65526,6788,622912,0
22,-1,638895,219131,1238469,65940,7430,619306,0
22,-1,657732,223524,1143039,69118,7932,571452,0
22,-1,640531,218761,1142141,65640,7189,571152,0
22,-1,657867,223336,1221335,68973,7642,610662,0
22,-1,640163,219657,1213974,65950,7110,607039,0
22,-1,643944,219328,1174906,65738,7443,587513,0
22,-1,643890,219633,1166362,65837,6958,583208,0
22,-1,661539,223555,1216091,68947,7932,608036,0
22,-1,646153,220528,1347357,66514,8194,673359,0
22,-1,639629,219294,1187626,65854,7887,593761,0
22,-1,634959,218274,1206248,65480,6861,603210,0
22,-1,660897,223524,1175730,68791,8239,587965,0
22,-1,638590,217835,1195070,65275,6898,597570,0
22,-1,636961,217822,1181616,65215,7047,590869,0
22,-1,638861,218258,1231063,65407,7410,615623,0
23,-1,686752,235852,1244388,70263,7212,622206,0
23,0,704691,247269,1239090,73387,8827,619447,11
23,-1,637241,219512,1196417,66127,7283,598118,0
23,-1,639580,218458,1143024,65568,7012,571465,0
23,-1,658328,222429,1292535,68731,8483,646182,0
23,-1,636296,218930,1196806,65814,7058,597767,0
23,-1,643906,221031,1290128,66697,7981,645076,0
23,-1,639629,219650,1168444,66001,7346,584317,0
23,-1,637216,218676,1181694,65848,7270,590898,0
23,-1,640907,218270,1453844,65723,8347,726818,0
23,-1,637825,218059,1202360,65607,7612,601218,0
23,-1,640138,219031,1265402,65883,7624,632690,0
23,-1,630534,218262,1161071,65568,7173,580561,0
23,-1,637150,218889,1185807,65800,7878,593293,0
23,-1,633633,218871,1159469,65900,7794,579659,2
23,-1,634569,218497,1148550,65671,6727,574314,0
23,-1,643807,221389,1290368,66897,7393,645096,0
23,-1,637354,219135,1135490,65927,7551,567705,0
23,-1,636998,217915,1294337,65281,7396,647211,0
23,-1,640819,220220,1242863,66265,6940,621516,0
23,-1,636721,218621,1222657,65630,6990,611397,0
23,-1,663888,223932,1213080,69045,7622,606587,0
23,-1,643462,219533,1226112,65865,7207,613076,0
23,-1,640979,219642,1224267,65925,7214,612187,0
23,-1,661580,222934,1358835,68820,8861,679724,0
23,-1,639383,219265,1196104,65844,7641,597334,0
23,-1,636517,218380,1294327,65533,7041,647188,0
23,-1,644804,220518,1193260,66230,7648,596684,0
23,-1,643718,220192,1260875,66287,7370,630505,0
23,-1,643864,220841,1160199,66569,7308,580173,0
23,-1,640876,219831,1233014,66155,7796,616587,0
24,-1,686691,236101,1229098,70411,7075,614575,0
24,0,707667,247914,1347066,73653,9627,673505,11
24,-1,632692,218035,1174326,65493,6816,587129,0
24,-1,639884,219013,1229465,66037,7358,614693,0
24,-1,641507,220454,1245179,66512,7778,622581,0
24,-1,638368,218478,1229514,65651,7325,614733,0
24,-1,659661,223246,1311240,68955,8453,655503,0
24,-1,635544,218478,1199963,65645,6532,599975,0
24,-1,636135,218524,1186721,65775,7362,593393,0
24,-1,639802,218138,1169565,65638,7767,584975,0
24,-1,639381,218672,1145695,65741,6694,572891,0
24,-1,642979,220036,1295107,66458,8536,647386,0
24,-1,631519,218457,1223150,65660,7111,611656,0
24,-1,655102,222554,1283256,68768,8519,641572,0
24,-1,639875,220285,1216401,66486,7745,608111,0
24,-1,634526,218183,1133527,65591,6435,566743,2
24,-1,657482,223414,1311911,69135,7917,655886,0
24,-1,638612,220042,1234238,66366,7664,617064,0
24,-1,661149,223812,1151067,69077,8017,575451,0
24,-1,637521,218108,1154168,65476,6494,577120,0
24,-1,640644,219858,1297334,66311,7299,648715,0
24,-1,643521,220145,1268365,66049,7067,634084,0
24,-1,646623,221004,1273237,66524,7196,636676,0
24,-1,641151,219173,1140337,65736,7736,570229,0
24,-1,641692,219079,1368857,65717,8528,684077,0
24,-1,642791,220481,1456401,66421,8587,727766,0
24,-1,634318,218388,1143533,65520,7489,571781,0
24,-1,633781,217156,1161500,64909,7795,580790,0
24,-1,638232,218229,1224178,65401,7294,612136,0
24,-1,635719,217867,1190121,65292,8032,595091,0
24,-1,641313,218660,1148766,65602,7892,574589,0
25,-1,706967,241119,1322453,73823,8278,661214,0
25,0,705995,247247,1373089,73371,8529,686528,11
25,-1,656295,222396,1264490,68747,7951,632359,0
25,-1,637182,217829,1313098,65449,7686,656393,0
25,-1,636616,217975,1226024,65535,7382,613021,0
25,-1,663395,227373,1201477,68301,8257,600510,0
25,-1,638067,217428,1322725,65246,8081,661076,0
25,-1,659442,223356,1252442,69056,7980,626453,0
25,-1,640949,220785,1184683,66809,7875,592419,0
25,-1,660991,222735,1301244,68903,9369,650383,0
25,-1,640184,219652,1251950,66344,7192,626046,0
25,-1,661713,222936,1192168,68840,8509,596122,0
25,-1,635521,218272,1265272,65643,6427,632028,0
25,-1,636351,219095,1333630,65939,8318,666723,0
25,-1,636040,218560,1143256,65698,6372,571572,0
25,-1,640588,220467,1265849,66632,7594,632960,2
25,-1,637587,218704,1265794,65753,7659,632897,0
25,-1,634933,218577,1246556,65652,7913,623258,0
25,-1,638496,218421,1095244,65665,6065,547616,0
25,-1,642273,220699,1245310,66568,7395,622718,0
25,-1,636983,218921,1263197,65820,7231,631680,0
25,-1,643081,219682,1174359,65834,6586,587262,0
25,-1,642599,219253,1239143,65729,7832,619620,0
25,-1,643468,220331,1205016,66374,7608,602581,0
25,-1,642692,218903,1354964,65655,8905,677191,0
25,-1,635405,218455,1238784,65575,7338,619447,0
25,-1,645128,219538,1264191,66073,7561,632212,0
25,-1,645705,220530,1226367,66318,7642,613243,0
25,-1,658572,222675,1177754,68627,7797,588939,0
25,-1,634708,218139,1120804,65418,7299,560588,0
25,-1,640860,218852,1148243,65638,7869,574157,0
26,-1,687586,236111,1324623,70310,7651,662313,0
26,0,706439,247639,1376900,73558,8188,688460,11
26,-1,633069,217348,1132355,65284,6569,566212,0
26,-1,635876,218044,1334840,65567,7487,667482,0
26,-1,634872,217539,1224880,65360,7022,612251,0
26,-1,655308,223066,1183977,68950,7490,591891,0
26,-1,638484,218178,1303653,65593,8154,651521,0
26,-1,635808,218591,1132047,65670,6312,566004,0
26,-1,655301,222866,1203110,68982,8519,601648,0
26,-1,645551,220345,1332109,66558,8444,665908,0
26,-1,635990,218696,1106744,65856,7032,553425,0
26,-1,639765,218722,1388548,65750,8130,694266,0
26,-1,644773,218567,1374165,65695,8378,686674,0
26,-1,637046,218922,1262642,65761,8310,631343,0
26,-1,636059,218910,1146566,65872,6689,573217,0
26,-1,632519,218617,1146638,65805,7205,573248,2
26,-1,640628,219962,1241861,66368,7124,620918,0
26,-1,646135,220731,1317848,66683,8287,659018,0
26,-1,638211,218402,1170444,65572,6771,585283,0
26,-1,655822,222707,1184626,68702,7216,592285,0
26,-1,638841,219439,1205167,66000,7112,602636,0
26,-1,641549,219647,1241687,65930,6836,620927,0
26,-1,639030,219001,1197119,65622,7030,598612,0
26,-1,640809,219613,1157277,65941,7797,578714,0
26,-1,661887,223837,1354659,69116,9237,677684,0
26,-1,663095,227872,1164516,68362,7166,582147,0
26,-1,639936,218467,1266610,65571,7286,633292,0
26,-1,663850,223951,1194944,68944,7860,597520,0
26,-1,643367,220184,1289942,66258,7513,645018,0
26,-1,646610,220547,1257705,66520,8159,628974,0
26,-1,640187,218496,1217151,65474,7791,608648,0
27,-1,690902,237462,1284063,71029,8101,642162,0
27,0,704658,247600,1261223,73447,7599,630576,11
27,-1,634430,218336,1217950,65679,7354,608965,0
27,-1,641309,219874,1230098,66428,7406,615059,0
27,-1,635615,218107,1292564,65588,7018,646258,0
27,-1,631548,217358,1103903,65305,6354,551915,0
27,-1,637917,218309,1215208,65629,7923,607355,0
27,-1,641128,220183,1272776,66287,8191,636326,0
27,-1,632816,217620,1261362,65406,7259,630721,0
27,-1,638942,218430,1292512,65725,8372,646083,0
27,-1,646298,220670,1186914,66771,8065,593521,0
27,-1,638430,218072,1370681,65594,8771,684634,0
27,-1,647870,220483,1335906,66614,9309,667904,0
27,-1,638474,219678,1337654,66247,8878,668202,0
27,-1,634287,218528,1110072,65613,6877,555043,0
27,-1,635390,218132,1215884,65589,7212,607992,0
27,-1,641767,220928,1186090,66806,7351,592945,2
27,-1,662930,223621,1363674,69177,8475,681828,0
27,-1,639171,219039,1261609,65845,7653,630847,0
27,-1,634328,218685,1221076,65520,6313,610550,0
27,-1,637121,218906,1154619,65743,6985,577361,0
27,-1,639934,219408,1176735,65940,6632,588413,0
27,-1,642651,219523,1235697,65792,7492,617890,0
27,-1,641114,219620,1292079,65802,7766,646061,0
27,-1,639110,218004,1280016,65442,8384,638993,0
27,-1,634309,218124,1246462,65440,8076,623254,0
27,-1,642996,220310,1309824,66448,7627,654993,0
27,-1,641229,219113,1209204,65611,7283,604637,0
27,-1,638466,218457,1221907,65452,7010,611003,0
27,-1,664153,223247,1232111,68892,8719,616055,0
27,-1,645103,220896,1217435,66584,7916,608898,0
28,-1,688315,237127,1299000,70739,7672,649458,0
28,0,705152,247109,1282225,73320,8472,641146,11
28,-1,633171,218358,1218024,65683,6378,609043,0
28,-1,658088,222869,1271041,68925,8187,635640,0
28,-1,655092,222403,1245018,68780,7808,622428,0
28,-1,635316,218915,1153161,65835,6885,576564,0
28,-1,661117,223309,1296058,69125,8530,647871,0
28,-1,638156,219319,1192383,65828,7062,595974,0
28,-1,639838,218729,1257105,65870,7261,628549,0
28,-1,639399,218588,1420319,65758,8595,710195,0
28,-1,662678,223215,1190665,69118,8801,595345,0
28,-1,642164,219775,1292379,66330,8440,646170,0
28,-1,643925,218614,1377802,65709,8472,688904,0
28,-1,634841,218615,1258986,65737,8887,629451,0
28,-1,639590,220429,1165571,66610,7574,582838,0
28,-1,655485,222781,1190232,68894,7543,595018,0
28,-1,634569,218614,1204896,65791,7018,602516,2
28,-1,639859,218665,1308528,65783,7273,654287,0
28,-1,640075,219904,1417680,66355,8665,708946,0
28,-1,664678,228103,1265926,68426,6972,633062,0
28,-1,656629,223306,1182455,68974,8267,591216,0
28,-1,661886,223310,1167897,69012,7203,583931,0
28,-1,645399,221111,1256940,66631,7430,628541,0
28,-1,639578,219355,1162036,65821,7709,581050,0
28,-1,641312,219447,1247921,66042,7505,624025,0
28,-1,639322,220603,1291420,66526,7381,645831,0
28,-1,643090,219737,1327760,66005,8902,663480,0
28,-1,644752,220276,1280371,66186,7351,640225,0
28,-1,665460,227778,1284689,68172,7824,642385,0
28,-1,639461,218132,1269035,65421,8188,634647,0
28,-1,659097,222771,1163688,68717,8725,581836,0
29,-1,686521,236174,1279148,70431,7128,639643,0
29,0,703523,247068,1243328,73431,7942,621641,11
29,-1,639849,220694,1308435,66730,7451,654177,0
29,-1,635512,218066,1164498,65584,7045,582391,0
29,-1,634900,218033,1140764,65539,7059,570422,0
29,-1,635243,217930,1199071,65513,6843,599551,0
29,-1,640756,219175,1230906,65972,7873,615494,0
29,-1,636268,218614,1141828,65545,7654,570832,0
29,-1,665826,224363,1281352,70036,8189,640571,0
29,-1,661069,223089,1216370,69089,8379,608115,0
29,-1,639134,218069,1209428,65605,7664,604781,0
29,-1,634944,217267,1375337,65382,7853,687410,0
29,-1,644231,219824,1391607,66330,8709,695728,0
29,-1,634177,218359,1279241,65570,9146,639457,0
29,-1,655119,223186,1148517,69055,8193,574037,0
29,-1,634425,218178,1265991,65554,6670,633041,0
29,-1,643380,219889,1232336,66107,7494,616181,0
29,-1,634972,218766,1177610,65741,7996,588757,2
29,-1,656966,223005,1285485,68988,8231,642302,0
29,-1,635287,218537,1262840,65517,6749,631457,0
29,-1,635800,219080,1249105,65740,8015,624588,0
29,-1,643659,220136,1248369,66231,7318,624234,0
29,-1,642608,220891,1348365,66475,7107,674300,0
29,-1,667373,224101,1226716,69128,8702,613445,0
29,-1,641563,219794,1159690,66026,6476,579882,0
29,-1,655204,222990,1236773,68837,8208,618458,0
29,-1,637595,217863,1170308,65414,7951,584914,0
29,-1,642228,220182,1225080,66133,7444,612610,0
29,-1,657699,222575,1157107,68586,7917,578489,0
29,-1,642058,219243,1442012,65819,9790,720952,0
29,-1,637719,218164,1140877,65430,7657,570521,0
30,-1,690386,238475,1319096,71389,7227,659551,0
30,0,705716,247615,1310827,73626,7618,655423,11
30,-1,655184,222324,1269522,68716,8193,634698,0
30,-1,634416,218037,1128577,65536,6963,564298,0
30,-1,635738,217634,1223078,65383,7560,611545,0
30,-1,638056,217371,1102946,65313,7363,551462,0
30,-1,640261,218603,1258620,65752,7763,629264,0
30,-1,636279,219084,1190753,65735,7465,595066,0
30,-1,636940,217969,1153457,65656,6918,576785,0
30,-1,637832,218257,1173775,65666,7462,586958,0
30,-1,640232,218905,1156798,65926,6968,578464,0
30,-1,643534,219546,1421442,66314,8800,710035,0
30,-1,644009,219373,1179706,65974,8587,589756,0
30,-1,643642,220728,1465584,66763,8554,732126,0
30,-1,640359,219586,1206322,66204,6816,603097,0
30,-1,634000,218564,1235188,65707,6654,617728,0
30,-1,640734,219529,1229815,66212,7208,614965,0
30,-1,664195,227896,1221428,68544,7451,610611,2
30,-1,636705,218246,1239988,65590,7584,619964,0
30,-1,635327,219040,1327855,65726,7315,663960,0
30,-1,645966,220397,1294420,66391,8845,647176,0
30,-1,641596,219321,1310920,65916,6406,655586,0
30,-1,643492,219612,1236365,65819,7134,618231,0
30,-1,641815,218505,1300013,65507,7272,650055,0
30,-1,636728,217917,1236950,65366,7463,618560,0
30,-1,641054,219756,1245266,66190,7878,622702,0
30,-1,636954,218461,1185697,65677,8128,592847,0
30,-1,638631,219176,1159845,65574,6931,579972,0
30,-1,635703,218214,1118816,65330,6646,559418,0
30,-1,640910,218437,1242415,65478,8455,621200,0
30,-1,636938,217516,1103739,65135,7592,551906,0
31,-1,706964,241138,1318097,73847,8105,659055,0
31,0,709605,249295,1387451,74353,8650,693710,11
31,0,705427,247523,1372283,73563,8654,686130,11
31,0,705011,247193,1367771,73481,8927,683885,11
31,0,703685,246913,1371863,73288,7742,685892,11
31,0,707641,247519,1384502,73587,8362,692202,11
31,0,707568,247629,1449549,73555,9122,724651,11
31,-1,632218,217632,1245145,65446,7049,622441,0
31,0,709118,247372,1292102,73552,8433,646079,11
31,0,701610,247185,1368152,73495,8924,684064,11
31,0,706985,248806,1394346,74226,9109,697169,11
31,0,702215,247249,1381018,73502,8615,690470,11
31,0,728492,256275,1397839,76087,9423,698868,11
31,0,724701,252023,1416186,76929,9859,707999,11
31,0,705859,247765,1280811,73634,8354,640384,11
31,0,706930,247690,1341607,73671,8730,670749,11
31,0,700787,246533,1354966,73188,9065,677504,11
31,0,702849,247370,1413064,73590,8643,706574,11
31,0,703939,246948,1369222,73438,8644,684643,11
31,0,710661,249935,1388882,74685,9188,694435,11
31,0,705432,247203,1280406,73419,8154,640260,11
31,0,707134,247324,1347201,73473,8733,673671,11
31,0,704775,247175,1229360,73534,8453,614579,11
31,0,706777,247101,1249818,73454,8383,624919,11
31,0,708015,249020,1391158,74297,8266,695578,11
31,0,704136,246867,1342868,73339,8382,671201,11
31,0,707976,247587,1269046,73600,8476,634501,11
31,0,727679,252286,1487446,76855,9458,743686,11
31,0,703530,246623,1266661,73278,8110,633312,11
31,0,706754,247109,1358108,73456,8413,679025,11
31,0,704169,247273,1284630,73460,8232,642275,11
31,0,705606,247163,1294313,73452,9331,647198,11
31,-1,636675,218976,1255116,66029,7190,627539,0
31,0,704901,247277,1418898,73558,9028,709250,11
31,0,705489,246791,1371457,73449,9430,685626,11
31,0,709517,247510,1557963,73553,9740,778586,11
31,0,703079,246493,1481139,73369,9410,740478,11
31,0,705190,246887,1386384,73418,7888,693150,11
31,0,706453,247902,1550978,73700,9683,775506,11
31,0,706006,247292,1437613,73594,9676,718694,11
31,0,710759,248056,1405961,73865,9823,702962,11
31,0,715514,250141,1561522,74646,10598,780640,11
31,0,708096,247402,1318522,73476,9679,659195,11
31,0,712852,250277,1446428,74854,9565,723181,11
31,0,717247,250406,1438674,74785,9537,718893,11
31,0,709119,247526,1431989,73636,9387,715610,11
31,0,714576,249433,1496105,74405,10029,748087,11
31,0,709329,247913,1337315,73783,9001,668852,11
31,0,707433,247536,1350977,73468,8645,675490,11
31,0,708090,247819,1432681,73594,9031,716397,11
31,0,729234,251917,1420738,76810,10479,710336,11
31,0,714769,249729,1334379,74582,10141,667013,11
31,0,705694,247843,1354819,73538,8904,677671,11
31,0,709442,249157,1379405,74011,9293,689707,11
31,0,709684,248904,1365555,73852,9345,682566,11
31,0,705111,248257,1329824,73685,8692,664870,11
31,0,707657,247715,1539640,73436,9120,769856,11
31,0,706228,247441,1477999,73405,9840,738319,11
31,0,708273,248006,1389564,73656,9293,694256,11
31,0,707381,248282,1329359,73731,9043,664687,11
31,0,708406,248237,1330780,73717,8546,665309,11
31,0,707750,247613,1389828,73536,9134,694894,11
31,0,708536,248797,1379046,74163,8571,689475,11
31,0,728187,252174,1406570,76794,9792,703298,11
31,-1,637005,218434,1169957,65672,7398,584950,0
31,0,703275,247572,1426958,73532,9382,713100,11
31,0,704393,247465,1142614,73476,7590,571359,11
31,0,706281,248054,1325718,73753,8518,662950,11
31,0,707060,247643,1472092,73569,9065,736071,11
31,0,706166,248050,1502828,73768,8984,751464,11
31,0,706827,247734,1373766,73586,8692,686924,11
31,0,708005,247736,1340001,73642,9489,670049,11
31,0,710102,249267,1393585,74273,9159,696859,11
31,0,705808,247054,1501114,73383,9126,750590,11
31,0,711792,249446,1523541,74529,9934,761813,11
31,0,707619,247857,1412992,73819,9054,706544,11
31,0,714067,249620,1503978,74671,9726,752094,11
31,0,703701,247807,1406420,73801,9194,703230,11
31,0,705420,247544,1339172,73727,9101,669641,11
31,0,703719,247209,1416530,73506,8872,708250,11
31,0,706730,247853,1519263,73818,9440,759685,11
31,0,707310,247882,1407354,73841,9322,703626,11
31,0,710543,248833,1503353,74346,9416,751674,11
31,0,729583,252456,1452258,77116,10022,726088,11
31,0,706535,247016,1451502,73525,9215,725764,11
31,0,709921,248163,1418501,73902,9884,709289,11
31,0,705830,247148,1434232,73502,9197,717148,11
31,0,708631,247802,1330420,73835,9246,665266,11
31,-1,662345,223653,1233061,69179,8499,616594,0
31,0,710890,247641,1491105,73700,10150,745662,11
31,0,707377,247854,1422217,73815,9057,711155,11
31,0,709538,249422,1506922,74543,9029,753526,11
31,0,707385,247948,1412814,73831,8808,706501,11
31,0,706398,247767,1487227,73829,8370,743492,11
31,0,709045,248950,1507797,74354,8835,754005,11
31,0,713810,249396,1508394,74567,9679,754259,11
31,0,706433,247278,1421275,73533,8698,710780,11
31,0,711574,249000,1502393,74340,9861,751249,11
31,0,711172,248740,1403428,74106,8966,701803,11
31,0,728821,251986,1493463,76905,9033,746724,11
31,0,709363,247433,1471367,73698,8602,735718,11
31,0,705391,247619,1401651,73722,9382,700855,11
31,0,709968,248854,1401788,74329,9768,700898,11
31,0,714519,250265,1609024,74924,10454,803617,11
31,0,710391,247981,1526258,73814,10547,762842,11
31,0,710533,247741,1469928,73760,10721,735010,11
31,0,706536,247260,1568410,73587,10400,783844,11
31,0,709442,248031,1487536,73879,10246,743895,11
31,0,710148,250382,1489817,74893,9779,744922,11
31,0,705467,247601,1496456,73731,9910,748282,11
31,0,711238,249342,1596914,74480,10247,798520,11
31,0,706028,247545,1427980,73678,9205,714000,11
31,0,706291,247715,1364740,73785,9719,682399,11
31,0,727818,252488,1466409,77098,9907,733207,11
31,0,712729,249870,1502586,74740,9889,751267,11
31,0,703553,247159,1387288,73620,8845,693664,11
31,0,729676,252778,1536609,77246,10232,768297,11
31,0,713312,250133,1495427,74900,9822,747742,11
31,0,708576,247050,1508959,73527,9427,754454,11
31,0,728614,252448,1376162,77107,10005,688031,11
31,0,708625,247695,1524110,73772,9984,762095,11
31,0,712054,249021,1391570,74373,8978,695827,11
31,0,709012,247460,1370552,73636,8830,685350,11
31,0,710288,248631,1317537,74078,8302,658869,11
31,0,704694,247097,1367392,73541,8737,683750,11
31,0,703414,246526,1334881,73414,8459,667517,11
31,0,728122,252109,1313336,77007,9493,656682,11
31,0,712496,249720,1391786,74682,8911,696015,11
31,0,708281,247602,1357167,73731,8766,678641,11
31,0,710454,248971,1464223,74366,9853,730034,11
31,0,712671,249943,1407221,74771,9529,703674,11
31,0,709286,248236,1337449,73944,8715,668699,11
31,0,705460,247149,1393911,73550,8858,697023,11
31,0,729005,252255,1536635,77050,10620,768711,11
31,0,708904,247544,1524069,73711,10780,762192,11
31,0,706935,247457,1526922,73655,10579,763268,11
31,0,708599,247127,1556812,73484,10509,778389,11
31,0,728386,251915,1633389,76935,11292,816069,11
31,0,713145,249652,1579219,74675,10525,790097,11
31,0,710273,248167,1453693,73870,9828,726837,11
31,0,710807,248283,1539379,73977,9965,769582,11
31,0,709981,247665,1427240,73776,9342,713593,11
31,0,711591,247876,1516639,73825,10511,757675,11
31,-1,639575,218517,1284835,65751,7972,642402,0
31,0,712700,247254,1484105,73627,10173,742002,11
31,0,705006,247944,1550311,73891,10694,775047,11
31,0,728878,252623,1556020,77162,11172,777764,11
31,0,706077,247329,1401092,73636,10061,700790,11
31,0,735879,257100,1494331,76518,10131,747149,11
31,0,708392,247780,1350936,73734,9491,675045,11
31,0,710864,248193,1452920,73882,9966,726493,11
31,0,714055,249226,1635282,74192,9815,816792,11
31,0,732915,252513,1648363,77054,10350,824217,11
31,0,711928,247745,1349289,73703,8902,674628,11
31,0,709106,248343,1388418,73892,10211,693859,11
31,0,708600,247305,1477944,73624,10336,739217,11
31,0,711477,248180,1346879,73843,10251,673838,11
31,0,710611,249153,1406671,74157,9964,703172,11
31,0,709230,247747,1428869,73705,9964,714578,11
31,0,709494,247724,1373419,73647,9775,686450,11
31,0,708738,247340,1424577,73546,9918,712081,11
31,0,711973,247900,1423557,73707,9632,711513,11
31,0,716388,250751,1470353,75010,10463,735248,11
31,0,733135,252516,1396560,77039,10853,697749,11
31,0,716542,249817,1471166,74657,10697,735385,11
31,0,714440,248881,1660401,74070,10308,829530,11
31,0,734640,253070,1461182,77188,10939,730178,11
31,0,713144,247814,1389740,73765,9639,695735,11
31,0,703286,249047,1459132,74305,9205,729492,11
31,0,702013,248031,1477214,73793,8180,738558,11
31,0,705212,248937,1300490,74103,8585,650146,11
31,-1,636542,219123,1145045,65699,7938,572299,0
31,0,702731,247637,1494117,73578,10713,746883,11
31,0,705762,248257,1583470,73798,11126,791688,11
31,0,709488,249143,1574772,74147,10975,787296,11
31,0,703639,248111,1611224,73751,11438,805734,11
31,0,707779,249027,1617531,74326,11151,808187,11
31,0,704257,248112,1483588,73813,10559,741479,11
31,0,702929,247613,1541713,73553,10497,770792,11
31,0,706245,248675,1535248,74007,11103,767644,11
31,0,705490,247644,1473764,73613,10739,736590,11
31,0,704991,248519,1612134,73908,11158,806367,11
31,0,709401,249362,1689374,74439,11300,844584,11
31,0,704634,248207,1492907,73874,10478,746446,11
31,0,706269,247681,1421750,73676,9217,710812,11
31,0,708667,248670,1476005,74037,9535,737921,11
31,0,708966,249228,1495921,74364,9875,747938,11
31,0,701586,247904,1490783,73755,9592,745338,11
31,0,709822,250215,1490511,74748,10003,745250,11
31,0,703877,247375,1415327,73509,9478,707641,11
31,0,702551,246966,1359484,73490,8310,679744,11
31,0,706595,248158,1545417,73790,10268,772594,11
31,0,706529,248320,1497982,73833,9892,748765,11
31,0,706506,248229,1541230,73871,10280,770554,11
31,0,705539,248555,1507185,73927,11691,753488,11
31,0,709097,249221,1461670,74164,10342,730438,11
31,0,705847,248575,1454492,73962,10605,726927,11
31,0,709614,249489,1584730,74457,11264,791985,11
31,0,709290,248573,1492927,73932,10048,746402,11
31,0,708039,248164,1546628,73838,9936,773217,11
31,0,714062,249771,1651196,74534,11289,824982,11
31,0,704349,248119,1522051,73771,10646,760975,11
31,0,703177,247868,1547417,73681,10516,773671,11
31,0,708806,249738,1445803,74478,9238,722849,11
31,0,725439,252313,1449039,76973,10242,724475,11
31,0,736081,258204,1531787,77019,9642,765892,11
31,0,706093,248723,1405803,74025,9175,702860,11
31,0,706760,248023,1539162,73798,8442,769480,11
31,0,725895,252055,1481498,76866,9577,740735,11
31,0,706562,248534,1399461,73951,8520,699694,11
31,0,707068,248427,1488603,73893,8518,744248,11
31,0,706400,248060,1483740,73820,8690,741992,11
31,-1,640455,218663,1172538,65755,7544,586336,0
31,0,707515,248937,1442103,74292,9240,720941,11
31,0,704441,247385,1362679,73535,8105,681288,11
31,0,708309,247799,1246392,73750,8517,623153,11
31,0,710583,248143,1309656,73798,8890,654732,11
31,0,704833,247855,1297472,73759,8675,648635,11
31,0,705960,248086,1280640,73822,8530,640239,11
31,0,705038,247424,1297173,73575,8437,648552,11
31,0,728674,252572,1324898,77092,10285,662406,11
31,0,707146,247386,1365728,73485,8411,682863,11
31,0,707939,247849,1381283,73661,9176,690669,11
31,0,708071,248205,1472882,73871,8770,736389,11
31,0,712715,249250,1415308,74372,8772,707648,11
31,0,713504,250121,1452752,74696,8912,726420,11
31,0,709739,248035,1358095,73747,8392,679035,11
31,0,714062,249381,1411873,74361,9525,705997,11
31,0,703250,248035,1317181,73760,8481,658591,11
31,0,708450,248480,1256626,73910,8406,628273,11
31,0,705686,248217,1270987,73873,8420,635455,11
31,0,708690,249547,1334892,74460,8828,667435,11
31,0,706925,248147,1411152,73730,8436,705669,11
31,0,704817,248397,1438698,73932,8301,719359,11
31,0,703945,247594,1309220,73612,8801,654603,11
31,-1,641080,218085,1188169,65629,7221,594143,0
31,0,705708,247491,1308064,73575,8494,654014,11
31,0,706663,248575,1474052,73976,9114,736992,11
31,0,707816,247674,1376747,73572,8398,688384,11
31,0,706878,248306,1293685,73881,9149,646853,11
31,0,708360,247992,1316321,73756,8710,658064,11
31,0,709657,249624,1526147,74544,9055,762956,11
31,0,704190,247656,1398533,73617,8372,699174,11
31,0,705756,248243,1287411,73820,8433,643691,11
31,0,707153,248279,1278653,73782,8191,639247,11
31,0,705056,247796,1413320,73696,8477,706677,11
31,0,708679,248195,1345605,73800,8905,672685,11
31,0,702881,246968,1280889,73492,8490,640424,11
31,0,709785,249327,1392927,74416,9075,696485,11
31,0,712057,250032,1380281,74708,8255,690220,11
31,0,707794,247991,1292969,73766,8186,646501,11
31,0,712824,249739,1408797,74533,9050,704358,11
31,0,706418,247547,1311357,73561,9411,655580,11
31,0,708103,248481,1303605,73916,8951,651611,11
31,0,706167,248413,1395308,73857,8314,697623,11
31,0,728102,252849,1335417,77157,8465,667749,11
31,0,711310,249960,1419732,74715,8914,709864,11
31,0,707197,247966,1317987,73730,8264,659115,11
31,0,707144,248116,1295665,73757,8489,647959,11
31,0,710553,248569,1375335,73925,9133,687620,11
31,0,710904,249965,1358075,74717,9241,679092,11
31,0,711657,248837,1495666,74257,9571,747516,11
31,0,710860,248675,1580946,74001,10503,790731,11
31,0,714195,249713,1480890,74608,10386,740462,11
31,0,710648,247846,1395370,73723,10028,697467,11
31,0,705137,247643,1384668,73625,9996,692307,11
31,0,710153,248619,1736616,74013,10316,868029,11
31,0,711139,249103,1315003,74298,8942,657557,11
31,0,707495,247985,1298339,73579,8883,649184,11
31,0,705635,246913,1291398,73320,8822,645734,11
31,0,709151,247463,1268023,73403,8682,634047,11
31,0,710526,248132,1290916,73632,8561,645479,11
31,0,711220,248242,1374486,73794,8479,687179,11
31,0,709564,248158,1358033,73832,8625,679051,11
31,0,732363,252839,1356718,77120,9623,678347,11
31,-1,638702,218349,1156099,65757,7407,578113,0
31,0,707729,247362,1418920,73481,9139,709547,11
31,0,712609,247525,1428694,73576,8635,714417,11
31,0,725843,252621,1323812,77027,8985,661935,11
31,0,705788,248635,1291078,73760,8847,645597,11
31,0,704653,247816,1276859,73516,8834,638486,11
31,0,706564,248572,1208508,73805,7952,604289,11
31,0,708537,248802,1281035,73839,8666,640531,11
31,0,705064,248847,1374574,73847,7931,687320,11
31,0,709313,249057,1419706,73912,8217,709943,11
31,0,704012,247647,1384431,73473,8508,692285,11
31,0,705445,248114,1267717,73674,7475,633905,11
31,0,710284,249592,1369740,74269,8416,684905,11
31,0,704423,247865,1366471,73528,8456,683277,11
31,0,706034,248497,1387341,73734,8696,693698,11
31,0,711235,249635,1454993,74346,9018,727566,11
31,0,706348,248032,1437498,73710,9022,718871,11
31,0,707392,248724,1431610,73824,8277,715836,11
31,0,706084,248249,1290422,73730,8121,645244,11
31,0,708331,248190,1342939,73638,8460,671533,11
31,0,707961,249493,1363261,74311,9135,681698,11
31,0,706599,248584,1344964,73823,7973,672481,11
31,0,708749,249123,1386535,73936,8687,693302,11
31,0,709107,249219,1385326,74148,8514,692738,11
31,0,706626,247801,1389266,73570,8672,694676,11
31,0,708269,247879,1399108,73530,8660,699490,11
31,0,706989,249050,1428208,73976,8671,714140,11
31,0,705666,247441,1355071,73482,8665,677638,11
31,0,708958,248728,1317783,73856,8244,659029,11
31,0,729688,252442,1438906,76899,8864,719435,11
31,0,704591,247680,1287652,73539,8329,643872,11
31,0,709600,249000,1404650,74166,8621,702412,11
31,0,708470,248690,1331230,73798,7958,665662,11
31,0,706887,247993,1364123,73619,8270,682103,11
31,0,707192,247328,1366972,73350,8328,683526,11
31,0,708070,247876,1301803,73582,8486,650952,11
31,0,710516,248606,1295903,73826,8362,647998,11
31,0,706527,248092,1597030,73631,11635,798485,11
31,0,706524,248764,1359698,73814,9025,679952,11
31,0,708922,249540,1421382,74466,8947,710748,11
31,0,708338,248268,1366506,73736,8702,683297,11
31,0,726937,252481,1354635,77048,9667,677311,11
31,0,711472,250215,1371128,74752,8938,685731,11
31,0,716246,250614,1415146,74738,9045,707630,11
31,0,712827,250125,1427715,74617,8775,713882,11
31,0,709643,248204,1321285,73770,8488,660660,11
31,0,711977,249391,1504020,74253,8378,752062,11
31,0,731865,253499,1495960,77382,8753,747948,11
31,0,716161,251077,1464674,75090,7829,732380,11
31,0,711987,248765,1326776,74040,8063,663429,11
31,0,711660,249712,1314192,74543,8317,657169,11
31,-1,644320,220178,1302137,66534,8612,651470,0
31,0,709799,249422,1415533,74274,8674,707808,11
31,0,712668,249796,1417369,74578,8575,708718,11
31,0,710005,248503,1326454,73879,7845,663270,11
31,0,715873,250471,1425747,74575,8267,712920,11
31,0,707469,247593,1340441,73402,8442,670261,11
31,0,714484,250363,1444073,74511,8758,721912,11
31,0,711739,249154,1429739,73944,8035,714907,11
31,0,733013,253288,1332449,77058,9004,666263,11
31,0,714560,249014,1268882,73856,8700,634481,11
31,0,714369,249110,1312351,73902,9198,656228,11
31,0,717738,250153,1324287,74468,9508,662207,11
31,0,710716,249258,1308886,73982,8241,654483,11
31,0,711035,249642,1342119,74066,7768,671050,11
31,0,731439,253374,1370887,77098,9415,685518,11
31,0,735559,258075,1498191,76569,8705,749036,11
31,0,710366,248987,1469206,73913,8656,734615,11
31,0,735114,254597,1450349,77475,10087,725163,11
31,0,708805,248445,1489283,73651,8532,744650,11
31,0,711307,249059,1401664,73950,8496,700842,11
31,0,712787,249693,1395380,74117,8209,697733,11
31,0,713092,248773,1421184,73847,9189,710603,11
31,0,710557,248916,1345821,73828,8670,672959,11
31,0,733267,253759,1370320,77240,9317,685198,11
31,0,715593,250522,1459952,74661,9253,730041,11
31,0,711679,248563,1462304,73725,9450,731189,11
31,0,737601,253843,1474145,77307,10316,737030,11
31,0,712788,249580,1482474,74182,9078,741286,11
31,0,709904,248480,1418797,73714,8768,709413,11
31,0,712435,249333,1510859,74128,9088,755457,11
31,0,717944,251106,1565550,75012,9695,782858,11
31,0,710691,248096,1429624,73659,9485,714818,11
31,0,711223,248021,1403374,73631,8881,701718,11
31,-1,640713,218382,1279011,65629,8280,639453,0
31,0,716398,250051,1506923,74519,9735,753520,11
31,0,730704,252652,1443162,76982,9336,721608,11
31,0,717667,250662,1498294,74824,9444,749205,11
31,0,713009,249228,1375226,74174,8444,687662,11
31,0,712865,248023,1393213,73577,8590,696604,11
31,0,713030,248531,1448806,73764,9377,724451,11
31,0,714622,248773,1512773,73826,9180,756441,11
31,0,714092,248059,1461854,73595,9061,731002,11
31,0,716434,249517,1514308,74137,9727,757180,11
31,0,721447,250616,1490776,74719,9833,745463,11
31,0,709090,248256,1445477,73640,8903,722739,11
31,0,712686,249649,1499028,74422,9403,749556,11
31,0,709983,248111,1454046,73701,9376,727051,11
31,0,733450,253202,1477375,77183,9985,738745,11
31,0,711497,248507,1411839,73816,9660,705893,11
31,0,710873,247864,1490712,73616,9033,745346,11
31,0,713607,248936,1385376,73997,9010,692697,11
31,0,715949,249490,1495537,74360,9752,747839,11
31,0,708749,248457,1405634,73802,8551,702869,11
31,0,707269,247587,1493114,73589,8846,746574,11
31,0,709296,247524,1480212,73507,9690,740152,11
31,0,711591,248569,1395882,73905,8362,697974,11
31,0,711383,247871,1323384,73629,8375,661732,11
31,0,711631,247271,1483056,73379,9652,741594,11
31,0,709778,247926,1397389,73635,8800,698742,11
31,0,710001,248276,1534614,73721,8684,767278,11
31,0,708557,247453,1380367,73450,8694,690222,11
31,0,713046,248248,1456360,73725,10074,728057,11
31,0,710802,248045,1464770,73688,9677,732277,11
31,0,708531,247256,1438688,73414,9419,719393,11
31,0,712704,248317,1410650,73915,9864,705350,11
31,0,733747,252452,1453182,77019,10491,726754,11
31,0,713844,248298,1559766,73777,10184,779851,11
31,0,709626,247452,1390235,73543,9238,695233,11
31,0,714121,248123,1478648,73817,9537,739344,11
31,0,714245,248576,1493067,73926,9659,746550,11
31,0,702823,248173,1626484,73789,10305,812444,11
31,0,707126,248890,1582448,74008,11112,791049,11
31,0,710834,250857,1483758,75010,11441,741708,11
31,0,704782,247700,1428593,73630,9554,714336,11
31,-1,658333,223057,1272428,68987,9310,635961,0
31,0,707112,248005,1398045,73657,9265,699069,11
31,0,707556,247759,1416605,73481,9788,708305,11
31,0,711050,248655,1536070,73858,9946,768051,11
31,0,707962,248715,1413250,73924,9607,706623,11
31,0,703985,247241,1495218,73309,9303,747734,11
31,0,710193,249385,1491211,74295,9154,745668,11
31,0,707978,248303,1478203,73760,9294,739144,11
31,0,705253,248257,1276799,73762,8605,638307,11
31,0,705270,247550,1432246,73467,10045,716108,11
31,0,706925,247313,1353439,73367,9518,676708,11
31,0,731497,253471,1491259,77210,10609,745541,11
31,0,708789,247938,1399919,73645,9086,699971,11
31,0,705377,247643,1355153,73487,9657,677606,11
31,0,726328,252448,1395334,76996,9980,697151,11
31,0,706419,247501,1436800,73526,9636,718101,11
31,0,708225,247635,1481129,73605,9691,740286,11
31,0,711389,249683,1421790,74513,10173,710765,11
31,0,705193,247531,1359729,73647,9307,679909,11
31,0,712714,249691,1328282,74497,10182,664371,11
31,0,708822,248391,1489930,73854,9637,744606,11
31,0,710579,249141,1427285,74400,9833,713601,11
31,0,730317,252328,1344226,76802,10173,672211,11
31,0,711341,248348,1388983,73733,9105,694585,11
31,0,708569,249061,1361645,74026,9162,680885,11
31,0,727232,252822,1361131,77042,9504,680661,11
31,0,707346,247797,1392751,73578,8850,696417,11
31,0,707870,247580,1370321,73555,8863,685237,11
31,0,714617,249908,1306742,74572,9555,653443,11
31,0,706596,248080,1220047,73768,8634,609974,11
31,0,712264,249928,1306333,74436,8776,653209,11
31,0,731738,256676,1376719,76106,9231,688503,11
31,0,728543,252375,1310577,76818,9440,655318,11
31,0,732202,253035,1452531,77026,9250,726360,11
31,0,714531,249662,1430599,74437,9299,715380,11
31,0,717504,250241,1368771,74385,9092,684386,11
31,-1,637791,218554,1142404,65764,6824,571194,0
31,0,705969,247818,1366676,73384,9080,683507,11
31,0,714336,250689,1469864,74695,9806,734888,11
31,0,710183,248389,1402671,73607,8825,701313,11
31,0,708848,248054,1331691,73456,7990,665886,11
31,0,734913,253546,1348140,77048,9814,674107,11
31,0,712833,250488,1398833,74586,8471,699493,11
31,0,708238,247832,1469405,73370,8844,734741,11
31,0,710723,248401,1418483,73624,8451,709328,11
31,0,712058,248064,1338159,73431,8917,669082,11
31,0,713857,248700,1260890,73715,8598,630518,11
31,0,709263,247858,1294566,73350,8898,647320,11
31,0,710043,247789,1355707,73382,8502,677937,11
31,0,709617,248166,1479797,73502,8788,739980,11
31,0,726394,252689,1411982,76770,9185,706061,11
31,0,708556,248616,1356187,73685,9108,678091,11
31,0,705885,247568,1281158,73389,8903,640624,11
31,0,709262,249128,1338090,73902,8404,669096,11
31,0,706121,248004,1437629,73481,9100,718852,11
31,0,707068,248091,1352031,73442,8730,676084,11
31,0,706935,248013,1326126,73523,8492,663068,11
31,0,708667,248238,1377425,73590,8898,688813,11
31,0,708795,248567,1351600,73737,8805,675850,11
31,0,712788,250016,1365365,74448,9094,682751,11
31,0,729330,252241,1327570,76780,9369,663848,11
31,0,711779,250526,1381095,74737,9523,690620,11
31,0,705205,247437,1315418,73385,8666,657746,11
31,0,702717,246597,1354606,73124,8815,677379,11
31,0,707500,248036,1304990,73611,8625,652565,11
31,0,728379,252366,1430159,76788,9490,715054,11
31,0,707834,247970,1288989,73596,8684,644546,11
31,0,704006,246832,1385582,73187,8589,692868,11
31,0,707658,247439,1233977,73375,8432,617034,11
31,0,708215,247120,1552304,73284,11098,776320,11
31,0,708505,247215,1551805,73334,11071,775917,11
31,0,711865,248109,1443251,73635,10525,721638,11
31,-1,638486,219114,1152113,65878,7093,576030,0
31,0,707357,247069,1500964,73194,10296,750501,11
31,0,713056,248927,1554652,74093,10480,777287,11
31,0,703777,247485,1573387,73420,10524,786582,11
31,0,706682,247358,1419401,73397,10387,709705,11
31,0,704498,247138,1247434,73271,8523,623017,11
31,0,708206,248401,1315555,73749,8996,657832,11
31,0,729857,252943,1290948,76997,9090,645536,11
31,0,707981,247861,1364981,73561,8984,682430,11
31,0,705043,246936,1289135,73177,8041,644621,11
31,0,711481,249621,1426209,74408,8729,713201,11
31,0,711293,248233,1292196,73768,8954,646137,11
31,0,713598,248894,1372987,74107,9181,686566,11
31,0,709188,248677,1401762,73815,9593,700916,11
31,0,708711,247680,1290923,73487,8854,645490,11
31,0,708153,247665,1300763,73515,8829,650401,11
31,0,730667,251913,1329078,76692,9863,664490,11
31,0,708298,246958,1389559,73160,9288,694844,11
31,0,708061,247626,1509143,73485,9068,754308,11
31,0,708532,247261,1412521,73331,8787,706261,11
31,0,710214,247582,1286008,73431,8967,643041,11
31,0,732294,253299,1476404,77096,9885,738240,11
31,0,714609,249721,1422213,74447,9114,711064,11
31,0,710043,247725,1269884,73516,8871,635005,11
31,0,714463,248883,1400539,74090,9615,700605,11
31,0,706850,248891,1395004,74079,9535,697435,11
31,0,704498,247472,1279881,73395,8661,639963,11
31,0,706546,247759,1299827,73527,8584,649842,11
31,0,707202,247962,1301993,73607,8454,650970,11
31,0,709371,248426,1379732,73975,9343,689882,11
31,0,707673,247471,1404725,73399,8964,702302,11
31,0,725983,252723,1373908,76938,10395,686843,11
31,-1,641595,219062,1177508,65918,7199,588745,0
31,0,708771,248770,1387222,74003,8906,693627,11
31,0,706817,247572,1292452,73439,8441,646157,11
31,0,703814,247007,1210365,73254,8165,605050,11
31,0,708820,247870,1300070,73585,9000,649905,11
31,0,716990,250653,1330197,74795,9571,665055,11
31,0,704792,246957,1238644,73319,8741,619261,11
31,0,711726,249629,1365150,74415,9080,682531,11
31,0,707320,248304,1390056,73591,8705,695076,11
31,0,707699,248107,1345120,73662,8879,672544,11
31,0,708193,247250,1418732,73394,9628,709258,11
31,0,707779,248260,1325941,73661,8500,662972,11
31,0,709509,247705,1454139,73559,9252,727079,11
31,0,731509,252001,1335121,76720,9501,667515,11
31,0,712455,250501,1367046,74718,9099,683445,11
31,0,707462,247611,1301154,73495,8958,650638,11
31,0,712040,248902,1357808,74138,8642,678882,11
31,0,731632,252671,1335376,76868,9594,667694,11
31,0,709169,247248,1297216,73328,9476,648558,11
31,0,710958,247466,1390378,73390,9306,695279,11
31,0,704515,247710,1396249,73471,8564,698176,11
31,0,706829,247687,1380508,73529,8651,690308,11
31,0,710547,249380,1357173,74265,8637,678776,11
31,0,710742,248399,1334338,73733,8739,667221,11
31,0,731334,252519,1343578,76861,9715,671781,11
31,0,705818,247259,1415134,73324,9136,707599,11
31,0,705686,247160,1416993,73242,8644,708491,11
31,0,707091,247130,1327201,73272,8791,663642,11
31,0,709337,247524,1245736,73446,9103,622904,11
31,0,737366,257915,1339123,76751,9256,669412,11
31,0,709833,247848,1345969,73562,9408,672939,11
31,0,710486,247562,1447250,73483,9715,723590,11
31,0,708204,247656,1425267,73444,9367,712536,11
31,0,707040,247402,1320548,73426,8739,660273,11
31,0,712523,249714,1649332,74490,11571,824328,11
31,0,710630,247901,1348602,73526,9311,674158,11
31,0,711110,247769,1414995,73463,9134,707409,11
31,0,710153,247822,1795963,73510,12491,897780,11
31,0,713638,249370,1278591,74097,9786,639310,11
31,0,709301,247286,1239332,73258,9203,619620,11
31,0,711129,247738,1292916,73476,10056,646449,11
31,0,709876,247698,1320910,73396,10381,659843,11
31,0,711861,247986,1440090,73464,10978,719616,11
31,0,718789,250514,1400659,74654,10288,700384,11
31,-1,634301,218325,1247357,65612,8078,623515,0
31,0,711762,247538,1509656,73344,10576,755204,11
31,-1,636270,218736,1212801,65812,7831,606245,2
31,0,712155,249091,1330274,74140,8918,665200,11
31,0,708145,248120,1309797,73609,8349,654949,11
31,0,707560,247308,1407894,73296,8643,704291,11
31,0,710167,247751,1382068,73463,8572,691170,11
31,0,709184,247687,1406034,73388,8568,703104,11
31,0,732546,252799,1356345,76892,9580,678159,11
31,0,707388,247371,1386803,73298,8579,693470,11
31,0,709909,247879,1373880,73493,8390,686978,11
31,0,707559,247088,1445746,73197,8494,722915,11
31,0,708444,247690,1308118,73368,8424,654130,11
31,0,708704,247488,1385705,73334,8978,692901,11
31,0,709972,247735,1447556,73475,9165,723819,11
31,0,709196,247669,1325553,73423,8557,662821,11
31,0,729496,252137,1307270,76644,9110,653640,11
31,0,708655,247601,1390708,73382,8439,695463,11
31,0,709962,247264,1358935,73255,9235,679324,11
31,0,731225,252326,1508514,76772,9607,754301,11
31,0,708795,247003,1414053,73227,9435,706681,11
31,-1,631766,218907,1122691,65855,6001,561255,2
31,0,709595,247677,1436356,73466,9883,718159,11
31,0,733746,251854,1304531,76528,9493,652312,11
31,0,705882,247306,1387304,73281,9230,693637,11
31,-1,639852,220049,1169011,66229,7508,584564,0
31,0,712182,249118,1459631,74141,8624,729900,11
31,0,708825,247508,1476211,73455,9164,738116,11
31,0,710127,247182,1377866,73424,8584,688957,11
31,-1,640317,221113,1287435,66745,7064,643808,2
31,0,708013,246918,1413543,73299,8263,706848,11
31,0,730298,251824,1505933,76658,9835,752905,11
31,0,711248,247716,1390709,73593,8743,695263,11
31,0,714496,248675,1496716,73903,9411,748393,11
31,0,707999,247458,1397232,73478,8458,698693,11
31,0,730195,252304,1580691,76864,9660,790391,11
31,0,711199,247341,1364557,73420,9169,682322,11
31,0,733039,253297,1434326,77229,9076,717128,11
31,0,709964,246985,1600586,73306,10081,800328,11
31,0,717634,249340,1459270,74378,9687,729751,11
31,0,706774,246981,1553308,73311,8755,776511,11
31,0,709062,247574,1445063,73512,8631,722655,11
31,-1,637622,218682,1207993,65652,6464,604189,2
31,0,710376,247557,1487190,73458,8811,743612,11
31,0,716179,248339,1429216,73792,9587,714636,11
31,0,711012,247415,1484993,73453,8498,742534,11
31,0,711893,247480,1510681,73451,9712,755327,11
31,0,709882,246342,1604788,73203,10036,801825,11
31,0,709639,246941,1644116,73220,10120,821852,11
31,0,710526,247034,1547545,73314,9814,773288,11
31,0,710993,246847,1475866,73157,9443,738023,11
31,0,711954,247447,1519560,73388,9191,759854,11
31,0,696635,247096,1511674,72859,9205,755875,11
31,0,698483,247273,1371887,73050,8264,685968,11
31,0,705756,249687,1324964,74040,8534,662536,11
31,0,706514,249316,1404927,73864,8669,702566,11
31,0,703851,247193,1389943,72967,8409,695033,11
31,0,705703,249201,1402756,73847,9021,701372,11
31,0,703513,247833,1486902,73238,9136,743531,11
31,0,723516,251431,1523069,76205,9399,761368,11
31,0,710160,249585,1407616,73919,8906,703884,11
31,0,704808,247207,1318619,73007,8889,659361,11
31,0,703294,248059,1498733,73233,10194,749329,11
31,0,707241,249491,1579594,73995,10806,789048,11
31,0,701717,247145,1647834,72976,10123,823839,11
31,-1,643430,220962,1177739,66640,7062,588931,2
31,0,724927,252068,1568201,76311,11031,784108,11
31,0,704874,247873,1509690,73228,9850,754413,11
31,-1,638897,218177,1103905,65414,7135,551914,0
31,0,727860,252779,1628347,76596,11875,813566,11
31,0,702211,247151,1482647,72962,8796,741375,11
31,0,704848,248431,1394063,73441,9021,697049,11
31,0,703532,247266,1308620,72986,8706,654343,11
31,0,705650,247662,1469680,73173,8844,734879,11
31,0,708641,248828,1562047,73529,8988,781114,11
31,0,712039,250000,1414220,74193,8750,707091,11
31,0,705918,246900,1481078,72884,8835,740555,11
31,0,705963,246954,1469193,72897,9359,734774,11
31,0,708605,247568,1445468,73138,8841,722790,11
31,0,699637,246792,1382885,72884,9133,691480,11
31,0,708233,249778,1403084,74110,9518,701575,11
31,0,701521,247361,1387126,73099,8621,693588,11
31,0,704294,247815,1527488,73234,9674,763708,11
31,0,705007,247232,1486942,72915,10771,743488,11
31,0,709853,250045,1401915,74211,9555,700802,11
31,0,709084,249502,1451133,73927,9082,725563,11
31,0,703925,247038,1481921,72981,8937,741024,11
31,0,702131,246592,1370084,72738,8663,685010,11
31,0,706135,247637,1458773,73159,8804,729312,11
31,0,729541,255639,1509047,75443,8996,754575,11
31,0,705707,246991,1467170,72924,9051,733609,11
31,0,701087,246906,1467371,72886,9327,733752,11
31,0,722949,251592,1515927,76243,10129,757821,11
31,0,707075,247426,1329238,73998,10151,664534,11
31,0,705612,247198,1481225,73863,9996,740586,11
31,0,705808,246683,1400274,73601,9725,700135,11
31,0,709758,247749,1551341,74044,10313,775622,11
31,0,706021,246844,1434034,73712,9115,716968,11
31,0,711073,248648,1386205,74546,9731,693084,11
31,0,709923,248507,1488992,74289,10017,744469,11
31,0,708839,247444,1491510,73943,9415,745792,11
31,0,728835,251782,1526655,77154,10673,763246,11
31,0,708467,247878,1472013,74035,9713,736048,11
31,0,729885,252290,1518157,77294,10764,759112,11
31,0,707969,246795,1570690,73577,9743,785293,11
31,0,711128,249199,1399546,74633,9386,699738,11
31,-1,641904,220149,1144077,66209,6779,572089,2
31,0,714583,249115,1326017,74702,9837,662913,11
31,0,709137,247399,1326382,73955,10289,663155,11
31,0,708483,246747,1487767,73695,10239,743826,11
31,0,711188,247529,1512270,73914,10059,756164,11
31,0,707547,247205,1410100,73820,9295,705040,11
31,0,709209,249560,1399126,74897,9919,699646,11
31,0,703453,247554,1474431,73935,9585,737300,11
31,0,704380,246790,1456900,73651,9524,728388,11
31,0,707160,248149,1525360,74189,9174,762662,11
31,0,706287,247769,1366935,74071,9522,683473,11
31,-1,638586,218821,1264398,65863,6411,632244,0
31,0,705223,247015,1498446,73734,10783,749243,11
31,0,708621,247738,1475016,74037,9710,737547,11
31,0,705751,247341,1443150,73891,9486,721545,11
31,0,707092,247366,1457757,73819,8743,728873,11
31,0,713939,249515,1428136,74751,9227,713998,11
31,0,705783,247536,1516183,73986,9598,758080,11
31,0,705245,246684,1483909,73645,9297,741936,11
31,0,705345,247513,1411674,73924,9370,705787,11
31,0,707969,247880,1493487,74074,9183,746726,11
31,0,728325,251887,1472718,77172,10568,736313,11
31,0,708374,247166,1323483,73890,9832,661667,11
31,-1,646867,221414,1226812,66749,7878,613522,2
31,0,728586,251831,1593651,77204,9975,796855,11
31,0,712133,248686,1438871,74501,9130,719336,11
31,0,711830,248031,1477486,74110,9681,738788,11
31,0,712252,248160,1482972,74175,9478,741477,11
31,0,707926,249358,1401559,74862,9638,700768,11
31,0,708064,248311,1410820,74244,8907,705417,11
31,0,706463,247608,1373040,74016,9042,686546,11
31,0,707810,248119,1355358,74181,9139,677570,11
31,0,708579,247439,1283481,73959,8885,641737,11
31,0,706593,247340,1500552,73936,9765,749923,11
31,0,706732,247706,1399770,74082,9611,699045,11
31,0,706054,246871,1357621,73635,9171,679306,11
31,-1,639855,220548,1158007,66187,6878,579060,2
31,0,710357,247850,1427605,74091,9137,713787,11
31,0,708593,247921,1375156,74097,9234,687587,11
31,0,712068,248897,1250047,74634,8782,624927,11
31,-1,639991,219754,1193909,65889,6583,596975,2
31,0,712035,248039,1461039,74085,9180,730496,11
31,0,712723,248045,1469411,74147,9470,734624,11
31,0,706565,247551,1281082,73951,7859,640497,11
31,0,709507,247451,1429305,73861,9407,714634,11
31,-1,642225,219674,1249488,65863,7474,624828,0
31,0,732535,252344,1550604,77318,10709,775348,11
31,0,710643,247854,1490494,73998,9644,745290,11
31,0,711011,247422,1323227,73885,9485,661638,11
31,0,707735,247841,1389997,74088,9090,695074,11
31,0,704987,247495,1340325,73844,9829,670203,11
31,0,724173,251990,1463238,77170,10559,731581,11
31,0,709268,247407,1423274,73852,10157,711669,11
31,-1,642278,221180,1260869,66773,7494,630504,2
31,0,705052,246853,1382402,73684,8954,691281,11
31,0,729907,252353,1545282,77289,10225,772700,11
31,0,713894,249733,1430314,74900,9623,715196,11
31,0,704941,247488,1411665,73866,8954,705873,11
31,0,726972,251524,1600887,77040,10622,800433,11
31,0,706010,247107,1455976,73758,8761,728025,11
31,0,727864,251925,1548413,77172,10735,774248,11
31,0,707554,247406,1505443,73852,9788,752762,11
31,0,710093,247446,1446322,73868,9474,723205,11
31,-1,640812,219410,1213098,65916,7226,606592,2
31,0,706940,247663,1543670,73838,9007,771870,11
31,0,708304,248180,1482915,74056,9757,741441,11
31,0,712502,249260,1335578,74578,9867,667849,11
31,0,710815,248579,1263884,74133,8485,631954,11
31,0,707913,248219,1410415,74049,8941,705264,11
31,0,706307,246449,1422244,73524,9212,711226,11
31,0,729263,251733,1528794,77001,10250,764365,11
31,0,711533,247838,1481584,73827,9055,740839,11
31,-1,645836,220404,1270761,66355,7294,635438,0
31,0,707330,246909,1418018,73788,8601,709060,11
31,0,712792,249772,1465806,75014,9325,732990,11
31,0,706923,247814,1541108,73906,9904,770643,11
31,0,707633,247624,1410669,73843,8094,705342,11
31,0,711359,249100,1333229,74634,8972,666472,11
31,0,709874,247804,1488403,73895,9127,744270,11
31,0,707410,247588,1423860,73864,9295,711946,11
31,0,711696,248912,1414361,74478,9523,707244,11
31,0,710020,248115,1471465,74034,9601,735769,11
31,0,728690,251451,1537896,76853,10500,768916,11
31,0,711238,247627,1561246,73826,10051,780615,11
31,0,706744,247266,1369681,73753,9565,684878,11
31,0,708476,247162,1483352,73739,8876,741689,11
31,0,709393,248205,1320577,74069,8916,660383,11
31,0,708199,247208,1335015,73667,8286,667547,11
31,0,710920,247776,1432886,73890,8166,716523,11
31,0,732563,252253,1519296,77141,9980,759701,11
31,-1,637809,218744,1169946,65711,7017,585006,2
31,0,708509,248022,1318002,74053,8566,659033,11
31,0,707081,247278,1312458,73827,8751,656299,11
31,0,714253,249076,1387854,74719,8927,694048,11
31,0,709832,246812,1299011,73680,7989,649534,11
31,0,709183,247294,1380821,73871,8679,690509,11
31,0,731936,251892,1422776,77191,9919,711482,11
31,0,713069,248111,1397487,74149,8844,698849,11
31,0,726981,252300,1310713,77147,10157,655362,11
31,0,710396,249509,1209855,74700,9398,604999,11
31,-1,671536,230299,1296234,69469,7469,648199,2
31,0,706523,247486,1246187,73777,9496,623135,11
31,0,709353,248791,1266960,74438,8878,633555,11
31,0,708176,248159,1313645,73987,8231,656821,11
31,0,703541,246660,1361790,73526,8422,680981,11
31,0,712702,249137,1296234,74746,8550,648191,11
31,0,706264,247726,1314558,73902,9456,657327,11
31,0,708962,247787,1321061,74047,8902,660592,11
31,0,712345,249470,1367965,74801,9034,684044,11
31,0,713406,249524,1398745,74697,8918,699409,11
31,0,712956,248799,1339786,74445,8725,669941,11
31,-1,647989,220673,1243306,66554,7440,621664,0
31,0,717182,250188,1400396,75197,8973,700270,11
31,0,712487,248632,1269253,74340,9388,634667,11
31,0,713289,249896,1270834,74947,9312,635491,11
31,0,710749,248631,1333324,74230,9102,666699,11
31,0,733046,252796,1348020,77448,9386,674040,11
31,0,717127,249926,1268734,74971,8843,634403,11
31,-1,640919,218915,1216971,65677,7599,608506,2
31,0,716325,249193,1373517,74502,8700,686809,11
31,0,714117,247857,1331665,74023,8430,665869,11
31,0,711003,248823,1422800,74395,9673,711493,11
31,0,714629,249114,1313663,74592,8936,656888,11
31,0,718694,250678,1344251,75376,9657,672188,11
31,0,715325,249234,1403125,74643,8342,701512,11
31,0,715003,248308,1387255,74314,8957,693681,11
31,0,717034,248770,1311583,74458,8777,655846,11
31,0,713620,250202,1379380,75168,9538,689775,11
31,0,708899,247966,1302054,74176,8888,650971,11
31,0,711031,248106,1226853,74241,7987,613557,11
31,0,733363,253221,1335934,77651,9646,667900,11
31,0,711861,247846,1301427,74115,8798,650978,11
31,0,712062,248660,1428130,74416,10154,714111,11
31,0,734213,253450,1546421,77744,11377,773187,11
31,0,714371,248339,1392819,74235,9546,695089,11
31,0,713170,249061,1455101,74408,9880,727467,11
31,0,710283,248098,1361937,74081,9475,680499,11
31,0,716747,249460,1585728,74580,10216,792636,11
31,0,715686,248569,1412677,74302,9988,706863,11
31,0,716775,249467,1420722,74592,9035,710400,11
31,0,714236,248144,1372395,74112,9376,686219,11
31,0,720225,250373,1385006,75159,9432,692536,11
31,0,710333,248378,1297515,74200,8706,648795,11
31,0,740700,257880,1329962,77071,8503,665051,11
31,0,713207,248217,1318634,74066,8802,659348,11
31,0,715971,249154,1300040,74429,9286,650062,11
31,0,719498,251109,1335182,75484,8890,667732,11
31,0,714756,248737,1388408,74301,9089,694242,11
31,-1,636073,218380,1180496,65563,7797,590538,0
31,0,713780,249254,1299848,74521,8654,649969,11
31,0,714697,248561,1388646,74304,9876,694553,11
31,0,714544,249277,1319236,74466,9020,659642,11
31,-1,637549,218897,1252238,65731,8312,626163,2
31,0,734518,253174,1448934,77592,10339,724459,11
31,0,716342,248848,1388480,74342,9649,694363,11
31,0,715046,248768,1490641,74338,9041,745355,11
31,0,722817,250830,1296113,75230,8866,648124,11
31,0,709172,249834,1240632,74888,8974,620373,11
31,0,711405,250175,1293896,75091,9548,647032,11
31,0,706406,247586,1286575,73869,8483,643291,11
31,0,708257,248152,1304675,74115,8469,652342,11
31,0,709733,248276,1376159,74124,9329,688124,11
31,0,710602,248765,1311985,74290,8481,656028,11
31,0,710013,248187,1437219,74038,8588,718717,11
31,0,710084,248808,1382238,74243,8541,691163,11
31,0,709824,248357,1292505,74133,8381,646305,11
31,-1,633908,218476,1300317,65680,8190,649770,2
31,0,715262,250511,1263071,75117,8557,631524,11
31,0,713638,248810,1307106,74221,8748,653594,11
31,0,711041,249973,1338533,74814,9285,669353,11
31,0,707190,248071,1457049,74003,8783,728528,11
31,0,709869,248800,1335158,74163,8764,667539,11
31,0,712140,249361,1474533,74448,10444,737218,11
31,0,714440,250337,1368925,75030,8742,684367,11
31,0,711742,249076,1330457,74236,8545,665270,11
31,0,714775,249893,1336591,74724,8923,668304,11
31,0,712646,248957,1408206,74227,9226,704176,11
31,0,711610,248203,1385218,73951,8945,692628,11
31,0,711191,248928,1304196,74186,8243,652134,11
31,0,712445,248879,1386811,74244,8844,693267,11
31,0,715015,250003,1295613,74568,8156,647768,11
31,0,710382,248678,1516473,74134,10808,758132,11
31,0,711515,248749,1281836,74180,8077,640879,11
31,0,713786,248539,1302189,74097,8646,651071,11
31,0,711780,249027,1229363,74244,8476,614672,11
31,0,732871,253100,1333587,77403,9404,666820,11
31,0,711718,248145,1340776,73946,9182,670233,11
31,0,713825,248641,1366196,74148,8718,683106,11
31,0,709842,248665,1675880,74171,10325,837951,11
31,0,708409,248620,1369998,74081,8954,685022,11
31,0,703553,247247,1353017,73650,8286,676540,11
31,0,709653,249016,1395704,74346,8938,697831,11
31,0,711488,249247,1282850,74601,8493,641396,11
31,-1,636512,218872,1182707,65784,7789,591384,2
31,0,708253,247981,1337358,73990,9393,668689,11
31,0,708042,247860,1389464,73864,9226,694702,11
31,0,731438,252869,1357407,77378,10299,678672,11
31,-1,637200,218530,1318881,65632,8864,659330,0
31,0,711404,248458,1381093,74162,8816,690638,11
31,0,708239,248584,1357596,74229,9853,678816,11
31,0,707243,247948,1396217,73924,9393,698064,11
31,0,709603,248552,1284103,74216,9274,642053,11
31,0,710357,247816,1375583,73928,8912,687867,11
31,0,710914,247678,1640111,73809,11855,819850,11
31,0,709389,248069,1297326,73972,9053,648757,11
31,0,710813,248581,1374094,74224,8747,687094,11
31,0,713020,249269,1310335,74631,8665,655217,11
31,0,712534,249014,1407534,74388,9027,703818,11
31,0,715256,248512,1262579,74201,9395,631325,11
31,0,713233,248150,1384762,74106,9080,692461,11
31,0,708454,248348,1365419,74095,8534,682719,11
31,0,710986,248944,1263404,74356,7964,631673,11
31,0,712969,250692,1240232,75207,8673,620185,11
31,0,710904,248911,1321811,74323,8715,660883,11
31,0,710434,247854,1420737,73937,8862,710419,11
31,0,707526,248231,1393811,74101,8823,696945,11
31,0,710033,248465,1424630,74112,8809,712397,11
31,0,729811,253165,1432046,77495,9038,716058,11
31,0,711928,248265,1391088,74143,9027,695419,11
31,-1,642228,219578,1143740,65838,6936,571906,2
31,0,710809,248504,1373955,74205,9106,687025,11
31,-1,660659,224005,1193774,68993,7918,596979,0
31,0,713002,250117,1382998,74987,8333,691624,11
31,0,707246,247852,1448352,73886,9551,724220,11
31,0,711235,248997,1299348,74344,8558,649732,11
31,0,712157,249331,1427633,74490,8500,713852,11
31,0,712522,248986,1290135,74472,7937,645120,11
31,0,736704,254217,1460735,77791,9593,730404,11
31,0,717585,250577,1318200,75074,8760,659164,11
31,0,713754,248458,1427815,74073,8932,713951,11
31,-1,639269,219011,1236960,65557,7259,618581,2
31,0,714345,249854,1500476,74761,9797,750414,11
31,0,741532,254839,1481753,78554,10320,740904,11
31,0,713017,248522,1428274,74199,8979,714218,11
31,0,715090,248775,1389377,74154,9694,694712,11
31,-1,642764,219601,1137017,65745,7338,568539,2
31,0,710603,248765,1414120,74299,9666,706945,11
31,0,734443,253842,1485330,77648,10587,742872,11
31,0,709585,248626,1581247,74252,9951,790655,11
31,0,713261,249462,1388503,74479,9260,694285,11
31,0,713514,249443,1373056,74768,9119,685797,11
31,0,713035,248281,1410628,74155,9686,705338,11
31,0,713203,248086,1512898,74036,9306,757185,11
31,0,710643,248439,1490727,74262,9244,745153,11
31,0,713829,248683,1405768,74324,9538,702908,11
31,0,713396,248576,1523401,74332,9901,761321,11
31,0,716391,249481,1389911,74773,9420,694683,11
31,0,718724,250538,1438975,75187,10090,719407,11
31,0,711939,248125,1405723,74105,9502,702951,11
31,0,715566,249111,1449878,74464,9457,725018,11
31,0,713408,247700,1272576,73907,8181,635854,11
31,0,714862,248522,1443703,74219,9455,722079,11
31,0,714500,248121,1381722,74163,9723,691256,11
31,0,713198,249215,1401530,74440,8446,700847,11
31,-1,639767,220027,1218638,66162,7577,609390,0
31,0,717592,250106,1360708,75019,9662,680384,11
31,0,714030,248260,1467940,74115,10085,733570,11
31,0,713962,248106,1283590,73956,8404,641848,11
31,0,716850,248888,1303245,74269,8896,651676,11
31,0,719604,249479,1239694,74656,9083,619889,11
31,0,709961,248157,1314504,74025,8868,657301,11
31,0,712978,248356,1231634,74093,8068,615824,11
31,0,713446,248059,1382946,74028,9205,691516,11
31,0,717641,249468,1408378,74657,9294,704250,11
31,-1,643337,220947,1226753,66609,7131,613446,2
31,0,718157,250212,1423943,74969,9370,712064,11
31,0,714887,248743,1492788,74232,9705,746474,11
31,0,714717,250341,1412476,75079,9717,706283,11
31,0,708645,248069,1481169,74000,9332,740641,11
31,0,710083,248315,1478297,74015,10063,739211,11
31,0,709444,248450,1484604,74037,9937,742408,11
31,0,706737,247827,1462841,73893,9266,731462,11
31,0,708570,248186,1376085,74055,9310,688080,11
31,0,709589,248301,1477756,74046,9268,738960,11
31,0,711849,248504,1406752,74075,9385,703427,11
31,-1,635911,218538,1233743,65559,7751,616929,2
31,0,706658,247993,1388165,73905,9173,694124,11
31,0,728558,252480,1549629,77227,9968,774859,11
31,0,711972,249666,1500652,74773,9954,750385,11
31,0,706665,247360,1507498,73751,9125,753759,11
31,0,709655,247860,1487395,73950,9401,743756,11
31,0,711991,248881,1457771,74198,9323,728892,11
31,0,717512,250378,1432892,75004,9809,716402,11
31,0,711740,247993,1449010,73964,9831,724599,11
31,0,705014,247664,1335566,73841,9106,667697,11
31,0,708131,247232,1415133,73674,8812,707592,11
31,0,713699,249423,1412273,74665,9415,706192,11
31,0,709074,247455,1410503,73729,8754,705262,11
31,-1,637527,217822,1207369,65336,8204,603673,2
31,0,729896,252668,1582308,77306,9724,791094,11
31,0,710018,247743,1404191,73857,8092,702097,11
31,0,733693,252897,1554935,77350,10078,777443,11
31,0,717863,249889,1374334,74847,9450,687226,11
31,0,708520,247424,1376496,73793,9449,688351,11
31,0,712185,248449,1503405,74132,9303,751694,11
31,0,711368,248035,1409525,73980,8940,704818,11
31,0,734673,253068,1544960,77427,9984,772582,11
31,0,716271,249349,1454022,74617,9759,727128,11
31,0,707461,248794,1499232,74228,9028,749698,11
31,0,711269,249515,1407712,74643,9345,703912,11
31,0,731133,252958,1545961,77461,9927,773044,11
31,0,706707,247411,1483160,73861,9035,741594,11
31,0,709160,247460,1439385,73890,9072,719761,11
31,0,730546,252119,1411814,77195,10457,705812,11
31,-1,637630,218480,1237290,65550,8267,618685,2
31,0,709194,247652,1506436,73983,9860,753272,11
31,0,713153,248606,1435300,74457,9653,717698,11
31,0,727899,251152,1593745,76856,10357,796964,11
31,0,714989,249469,1419145,74820,9335,709614,11
31,-1,639358,218263,1166966,65452,7973,583488,0
31,0,709584,247518,1423160,74038,8505,711683,11
31,0,729606,251803,1514574,77230,9274,757209,11
31,0,710757,246957,1478724,73836,9452,739388,11
31,0,710142,247504,1463830,73993,7964,732101,11
31,0,713011,249272,1400075,74972,9562,700103,11
31,-1,634539,218240,1121826,65416,7569,560901,2
31,0,708075,247919,1395084,74229,8576,697652,11
31,0,734856,256265,1473571,76645,9297,736790,11
31,0,712444,248430,1506971,74567,8968,753605,11
31,0,709976,247006,1414500,73872,9413,707295,11
31,0,733089,252414,1527211,77486,10670,763670,11
31,0,710499,246990,1403822,73889,9140,701925,11
31,0,710171,247677,1478304,74151,8663,739245,11
31,0,713253,248622,1411653,74649,8585,705917,11
31,0,710373,246884,1460112,73834,9738,729980,11
31,0,707088,247015,1389932,73929,8745,695008,11
31,-1,640634,219109,1223615,65769,7471,611899,2
31,0,710502,247664,1461689,74134,10480,730834,11
31,0,710307,248898,1519764,74782,10914,760016,11
31,0,707388,247051,1490977,73866,9888,745150,11
31,0,732685,252936,1647337,77620,11170,823571,11
31,0,704552,247123,1552285,73966,10346,775906,11
31,0,707272,246775,1498671,73715,10343,749025,11
31,0,710322,247805,1533045,74207,9595,766627,11
31,0,710167,246966,1387555,73868,9069,693824,11
31,0,706831,247618,1460031,74098,9354,730156,11
31,0,714175,249823,1464103,75148,9445,732129,11
31,-1,635867,218521,1097899,65552,7920,548989,2
31,0,711441,248043,1418202,74247,9284,709123,11
31,0,707701,247044,1462592,73837,9449,731278,11
31,0,710008,247623,1412308,74077,9094,706203,11
31,-1,641987,220160,1215876,66257,8113,607982,0
31,0,710338,247828,1394809,74185,9163,697533,11
31,0,708118,246537,1407655,73817,9273,703813,11
31,0,730634,251620,1519056,77154,10054,759593,11
31,-1,638098,218273,1260598,65484,7754,630350,2
31,0,710775,247560,1497128,74022,9187,748584,11
31,0,711220,247233,1416977,73923,9428,708585,11
31,0,712380,247621,1484133,74124,9752,742111,11
31,0,716432,248722,1485165,74700,9963,742621,11
31,0,712792,247043,1561918,73871,9691,780995,11
31,0,712318,249460,1467465,75029,9601,733794,11
31,0,707237,247061,1378500,73937,8813,689307,11
31,0,709561,247531,1485244,74045,8738,742697,11
31,0,732876,252610,1635337,77552,10151,817616,11
31,-1,640243,219074,1129991,65735,7012,565022,2
31,0,711328,247303,1494773,74035,8735,747492,11
31,0,709569,247399,1394756,73960,9323,697311,11
31,0,714931,248700,1458094,74535,9852,729125,11
31,0,709228,247176,1393857,73796,9389,696994,11
31,0,711854,247033,1446848,73821,9660,723450,11
31,0,712582,247432,1535770,73882,8844,767928,11
31,0,707378,246920,1423014,73722,9752,711545,11
