0,1,759210,265395,1315705,78286,9340,657896,0
0,-1,718375,248326,1265747,73620,8742,632865,0
0,-1,718684,248467,1240895,73736,8481,620371,2
0,1,764439,268247,1506795,79449,9577,753329,1
0,1,711070,248591,1543342,73610,10559,771712,0
0,-1,668390,231416,1344865,69184,7630,672397,0
0,1,712487,248810,1340577,74166,9349,670132,0
1,-1,716301,248854,1298417,73887,8025,649245,2
1,1,706068,247503,1263733,73395,8612,631833,1
1,1,711419,247770,1352731,73273,9096,676379,0
1,-1,667691,231459,1451544,69240,8832,725393,0
1,1,708659,248012,1382079,73997,9292,691178,0
2,1,708936,247956,1260947,73589,8652,630456,1
2,-1,661598,229674,1291166,68652,7765,645436,2
2,1,710528,247494,1469973,73194,9752,735006,0
2,-1,669908,232060,1356858,69586,9542,677829,0
2,1,708104,247960,1386671,73928,9161,693285,0
3,1,701985,247738,1328385,73595,9093,664002,1
3,-1,661681,230176,1208416,68823,7486,604062,2
3,1,712565,248351,1398323,73567,9148,699207,0
3,-1,667192,231082,1318268,69089,9543,659103,0
3,1,710126,249240,1287026,74466,9320,643608,0
4,1,709387,249459,1462491,74465,9196,731327,1
4,-1,669678,232621,1346174,69722,8947,672586,2
4,1,732915,252760,1401012,76725,10434,700883,0
4,-1,668084,231679,1293452,69297,8188,646582,0
4,1,708551,247925,1363799,73960,9815,681709,0
5,1,705226,247534,1306717,73483,8594,653459,1
5,-1,666735,230720,1324201,68872,8875,661946,2
5,1,711707,248193,1447419,73431,9834,723747,0
5,-1,664937,230602,1368422,68909,8403,683748,0
5,1,714514,250429,1288037,75060,9416,643744,0
6,1,706582,248343,1367541,73683,8454,684121,1
6,-1,662119,230447,1288899,68949,7346,644430,2
6,1,716579,250591,1428918,74484,9965,714626,0
6,-1,666581,230857,1294011,68978,8212,647061,0
6,1,707342,248337,1369977,74112,9756,685027,0
7,1,707639,248370,1352253,73778,9308,676103,1
7,-1,661868,230990,1190144,69077,7232,594722,2
7,1,711992,248942,1544503,73722,10709,772120,0
7,-1,668196,231598,1442188,69474,9179,720791,0
7,1,711407,247919,1356330,73911,8434,678011,0
8,1,713016,250023,1413764,74667,9590,706323,1
8,-1,663241,230180,1288148,68722,8564,643887,2
8,1,715323,248324,1698738,73469,11708,849409,0
8,-1,663723,230934,1319420,69070,8463,659738,0
8,1,717433,249163,1360851,74342,9677,680063,0
9,1,709585,247423,1393903,73579,9046,696948,1
9,-1,667939,232571,1373922,69892,8003,687001,2
9,1,734627,253029,1422085,76837,10375,711072,0
9,-1,665979,231020,1336341,69137,8857,668672,0
9,1,713568,248183,1329478,74039,9756,664434,0
10,1,703395,248162,1311630,73866,9370,655694,1
10,-1,666332,231235,1210663,69220,7775,605372,2
10,1,712978,248271,1431282,73504,9758,715687,0
10,-1,673136,231951,1372273,69605,9320,685732,0
10,1,714926,248890,1356123,74370,10007,676894,0
11,1,703768,248357,1396121,73929,9113,698019,1
11,-1,667547,230860,1318925,69088,7198,659718,2
11,1,712356,248487,1437917,73572,10177,719005,0
11,-1,668912,230694,1328474,68951,9010,663959,0
11,1,714841,248250,1364208,74054,9645,681939,0
12,1,702742,248014,1437386,73745,10291,718438,1
12,-1,667937,231122,1313213,69051,8019,656650,2
12,1,710909,247879,1337349,73326,8675,668687,0
12,-1,670327,231392,1346887,69257,7766,673498,0
12,1,714449,248593,1469125,74147,9943,734290,0
13,1,711380,250092,1390440,74642,9463,695215,1
13,-1,663887,230291,1203170,68808,8249,601161,2
13,1,729982,252353,1397938,76769,9765,698928,0
13,-1,689913,235141,1318320,72248,9734,659757,0
13,1,712783,248050,1455369,73960,9108,727673,0
14,1,704134,248550,1329847,73913,9305,664932,1
14,-1,665065,231115,1373844,69291,8903,686885,2
14,1,714936,249410,1447077,74161,10538,723453,0
14,-1,668626,231106,1391795,69120,8975,695541,0
14,1,712605,247904,1417066,73886,9768,708671,0
15,1,705296,248637,1447343,73931,8845,723512,1
15,-1,667583,231018,1306758,69223,7894,653371,2
15,1,709107,248121,1437811,73538,9734,718948,0
15,-1,666984,230650,1318874,69027,8666,659694,0
15,1,712271,248147,1354194,74006,10186,676801,0
16,1,709341,248666,1293510,73985,8902,646864,1
16,-1,675068,232768,1392952,70040,8451,696364,2
16,1,710579,248917,1436989,73822,9662,718536,0
16,-1,669700,231833,1368619,69591,9376,684657,0
16,1,714949,249534,1364382,74643,9889,681769,0
17,1,703492,247663,1378247,73569,9447,689138,1
17,-1,669286,231719,1295199,69449,8601,647567,2
17,1,716593,249673,1444505,74256,9751,722305,0
17,-1,666165,230903,1230387,69099,8512,614604,0
17,1,715509,249915,1314683,74845,8610,657216,0
18,1,735850,257951,1456096,76665,9896,727960,1
18,-1,670782,231519,1257186,69405,9193,628421,2
18,1,709395,247433,1324923,73292,9165,662501,0
18,-1,667940,230864,1299072,68992,9301,649517,0
18,1,715692,248823,1281951,74260,8667,640994,0
19,1,709586,248694,1349236,73983,9332,674586,1
19,-1,662393,230442,1320093,69044,8653,659730,2
19,1,708505,247841,1407928,73553,9303,703986,0
19,-1,671925,232741,1467092,69920,9789,733204,0
19,1,711634,247363,1259232,73680,7720,629652,0
20,1,703973,248048,1398092,73704,10250,698981,1
20,-1,664746,230617,1245504,69107,8473,622680,2
20,1,713285,249918,1422683,74401,9292,711401,0
20,-1,688595,235648,1438707,72417,10005,719316,0
20,1,711044,248122,1359357,73994,8468,679724,0
21,1,705719,247991,1352329,73717,9219,675143,1
21,1,708220,247644,1448203,73464,8985,724130,0
21,-1,661835,230248,1214949,69006,7692,607384,2
21,-1,667880,231645,1296899,69291,7708,648978,0
21,1,711722,247968,1493411,73904,9213,746412,0
22,1,705603,248488,1338949,73851,8800,669366,1
22,1,710647,248329,1327450,73710,8978,663751,0
22,-1,664950,232066,1327258,69822,8830,663538,2
22,-1,667335,230786,1264674,69063,8702,631819,0
22,1,711827,248283,1635806,74094,9800,817911,0
23,1,709176,248777,1311644,73815,8226,655793,1
23,1,707162,247896,1412703,73531,8738,706383,0
23,-1,663541,230826,1189047,69160,8279,594354,2
23,-1,669898,232244,1362415,69683,8712,681087,0
23,1,711985,248350,1360566,74087,9437,679554,0
24,1,708043,248549,1312320,73866,9011,655911,1
24,1,712698,248474,1412478,73759,9187,706241,0
24,-1,665180,231071,1316306,69115,8315,658125,2
24,-1,667020,230725,1495622,68981,8758,747283,0
24,1,717044,250316,1355599,74894,9147,678442,0
25,1,711372,248592,1350170,73981,9023,675177,1
25,1,713221,248767,1501365,74048,9743,750665,0
25,-1,664626,230797,1165123,69015,7700,582562,2
25,-1,666823,230598,1293048,68987,8035,646508,0
25,1,731242,252569,1457902,77261,10180,728983,0
26,1,712089,248873,1303677,73763,9161,651954,1
26,1,710833,247578,1430008,73437,9812,715027,0
26,-1,669525,231416,1316321,69263,9053,657971,2
26,-1,666360,230813,1276562,69018,8303,638185,0
26,1,709544,247817,1424819,73885,8670,712259,0
27,1,708259,248035,1376084,73719,9637,688188,1
27,1,712675,247973,1274750,73563,9613,637344,0
27,-1,665648,231045,1272483,69159,8596,636183,2
27,-1,663521,230150,1362172,68707,8433,680371,0
27,1,712568,249933,1342171,74756,9018,670829,0
28,1,707077,248340,1287638,73716,8960,643755,1
28,1,710111,248168,1342066,73843,9781,671156,0
28,-1,663604,230837,1253766,69091,8069,627112,2
28,-1,686178,235493,1264164,72344,8599,631760,0
28,1,714219,249683,1292310,74732,9565,645980,0
29,1,708266,247815,1600161,73645,10757,799789,0
29,1,707269,248408,1328690,73702,8362,664395,1
29,-1,661052,231224,1239218,69214,7296,619551,2
29,-1,666410,230808,1366055,69019,8373,682522,0
29,1,711979,248779,1284221,74181,9346,642142,0
30,1,732264,253345,1387198,77188,9908,693386,0
30,1,713187,249862,1411536,74388,9457,705812,1
30,-1,670565,233735,1285654,70292,8433,642902,2
30,-1,665189,230658,1281624,68973,8460,640515,0
30,1,709894,248047,1388569,73960,8801,693913,0
31,1,706541,247393,1423944,73425,8943,711983,0
31,1,711409,248572,1427136,73739,9646,713552,1
31,-1,665480,230433,1297442,68943,7631,648676,2
31,-1,665040,231207,1316479,69150,7648,658065,0
31,1,710708,248426,1462606,74055,9690,731614,0
32,1,703172,246079,1285198,73016,8585,642576,0
32,1,711242,248461,1498990,73562,10502,749582,1
32,-1,665468,231442,1338109,69160,9043,668329,0
32,-1,664538,231276,1409113,69185,8852,704611,2
32,1,709662,248516,1405522,74058,8675,702459,0
33,1,709572,248807,1429256,74142,9168,714702,0
33,1,712019,248903,1357066,73693,8915,678611,1
33,-1,663444,230931,1299802,69112,8660,650189,0
33,-1,663859,230523,1317589,68934,8608,658757,2
33,1,711948,247972,1440968,73867,9381,720439,0
34,1,712677,249347,1548587,74370,9510,774416,0
34,1,706308,248136,1343910,73605,8771,672053,1
34,-1,665771,231813,1357979,69557,8890,678757,0
34,-1,669567,232103,1371604,69726,9193,686148,2
34,1,731175,252809,1428086,77310,9684,714045,0
35,1,707260,247218,1360606,73386,8729,680301,0
35,1,706973,247878,1415373,73480,9634,707722,1
35,-1,670626,231378,1386281,69245,9402,693721,0
35,-1,668081,231498,1345609,69297,8546,672834,2
35,1,710563,248315,1282596,74054,8341,641318,0
36,1,709927,248621,1416823,73965,9285,708443,0
36,1,705583,247926,1251206,73533,8196,625645,1
36,-1,669377,231274,1383768,69167,9309,691941,0
36,-1,665785,231214,1339987,69168,7595,670432,2
36,1,713258,249614,1285812,74622,8438,642961,0
37,1,707735,247880,1298704,73630,8859,649417,0
37,1,710756,249416,1386240,74246,9083,692557,1
37,-1,667265,230622,1293365,68973,8017,646177,0
37,-1,675250,233491,1224249,70069,8903,612081,2
37,1,707869,247700,1377690,73789,8592,688888,0
38,1,708348,247328,1426978,73391,9789,713514,0
38,1,707788,247568,1359352,73443,8115,679670,1
38,-1,666026,230588,1308117,68943,7987,654049,0
38,-1,666984,230930,1238113,69090,7853,618881,2
38,1,706456,247163,1256842,73634,8022,628461,0
39,1,728911,252527,1313690,76888,9675,656780,0
39,1,715344,250470,1320196,74599,8319,659812,1
39,-1,666318,231045,1270640,69138,8443,635168,0
39,-1,664069,230592,1297169,68952,8421,648650,2
39,1,716356,249232,1351268,74515,8919,675392,0
40,1,704473,247161,1279535,73339,9063,639777,0
40,1,709887,247774,1290312,73533,8432,645119,1
40,-1,667032,231376,1376917,69373,8614,687738,0
40,1,714573,249352,1285600,74306,8405,642876,0
40,-1,668010,232723,1346069,69825,8969,673128,2
41,1,713245,249355,1368250,74273,9198,683971,0
41,1,707530,247445,1375229,73355,8709,687296,1
41,-1,664130,230689,1305114,69001,8594,652475,0
41,1,711816,247799,1364808,73772,9205,682409,0
41,-1,667974,231243,1220533,69177,7502,610378,2
42,1,707950,247617,1320361,73521,9763,660109,0
42,1,716856,250272,1228127,74557,7891,614019,1
42,-1,667226,231513,1345971,69301,8490,672799,0
42,1,718248,250038,1311477,74705,9015,655812,0
42,-1,673169,231960,1317520,69449,9012,658644,2
43,1,706981,247250,1394029,73308,9773,697077,0
43,1,702266,248040,1254571,73112,8062,627355,1
43,-1,665156,229878,1279015,68796,7943,638879,0
43,1,715503,249100,1385517,74164,8924,692787,0
43,-1,671854,232524,1352197,69413,9307,675877,2
44,1,710467,248286,1394781,73695,9110,697424,0
44,1,706073,247584,1265970,73010,8530,633025,1
44,-1,671543,232969,1352430,69993,8826,676300,0
44,1,710486,247935,1386867,73826,9006,693377,0
44,-1,673182,231882,1266003,69135,9316,633018,2
45,1,712237,249727,1403287,74400,9479,701525,0
45,1,701678,247153,1389002,72893,8957,694552,1
45,-1,667985,231684,1362820,69349,9142,681061,0
45,1,742050,255198,1444841,78515,10255,722370,0
45,-1,669389,231958,1343537,69254,9725,671597,2
46,1,706236,247594,1369657,73401,9426,684908,0
46,1,709244,247865,1366631,74042,9418,683391,1
46,-1,665602,231102,1304722,69115,7785,652989,0
46,1,713627,249858,1343812,74461,9497,671961,0
46,-1,666928,231842,1261886,69241,8493,630672,2
47,1,710385,248057,1388587,73674,8900,694231,0
47,1,703822,247879,1257946,74027,8274,628997,1
47,-1,669277,232033,1387083,69637,8995,693590,0
47,1,736055,253976,1356350,77593,9571,678099,0
47,-1,668938,231786,1237761,69333,8515,618875,2
48,1,728529,252361,1340592,76752,9382,670252,0
48,1,706866,248260,1213213,74192,8717,606671,1
48,-1,694444,240537,1362390,71962,8350,681178,0
48,1,714026,248906,1356346,74174,8054,678229,0
48,-1,676392,233932,1394325,70159,9166,696950,2
49,1,706993,247571,1331073,73418,9327,665466,0
49,1,706073,247483,1356043,73861,8722,678128,1
49,-1,662679,230281,1314482,68862,8043,657270,0
49,1,710776,248120,1365438,73876,8116,682713,0
50,1,708056,248048,1368237,73611,9018,683905,0
50,1,707237,247887,1354211,74018,8615,677152,1
50,-1,667578,231545,1311547,69306,7398,655757,0
50,1,713405,249247,1418501,74245,9083,709290,0
51,1,706834,247972,1380350,73469,9681,690240,0
51,1,706090,247494,1512354,73839,10701,756088,1
51,-1,665011,230983,1301640,69083,7890,650745,0
51,1,711160,248860,1334962,74140,8389,667530,0
52,1,703905,247181,1393504,73286,9499,696629,0
52,1,714296,250069,1470668,74962,12167,735030,1
52,-1,664813,230698,1186666,69028,8273,593222,0
52,1,713364,249725,1421121,74428,8385,710643,0
53,1,706248,247365,1250753,73357,8855,625388,0
53,-1,666950,231815,1209565,69382,8343,604713,0
53,1,713854,249857,1237688,74872,8535,618967,1
53,1,729473,252972,1447051,77367,10173,723514,0
54,1,706142,247906,1298421,73516,9311,649142,0
54,-1,662559,230237,1231422,68846,8235,615642,0
54,1,711169,248751,1294856,74201,8708,647493,1
54,1,714520,248810,1356706,74197,8989,678397,0
55,1,705647,247920,1471261,73514,9491,735502,0
55,-1,664597,231352,1230325,69191,8231,614856,0
55,1,712997,248159,1401218,73998,9098,700658,1
55,1,715392,249762,1300379,74606,8514,650255,0
56,1,713442,248219,1408972,73773,10066,704174,0
56,-1,668870,233154,1250307,70047,8861,625245,0
56,1,709468,249469,1297570,74626,9490,648364,1
56,1,715026,249244,1395208,74340,9157,697637,0
57,1,714916,249093,1409974,74208,9660,704817,0
57,-1,684778,235314,1240193,72324,9288,619923,0
57,1,709669,247987,1415330,73978,10362,707052,1
57,1,713178,249666,1325543,74671,8738,662843,0
58,1,708932,247133,1397828,73313,9872,698749,0
58,-1,662881,231044,1336923,69106,8252,668441,0
58,1,703559,248262,1421622,74141,9237,710562,1
58,1,711442,248394,1361478,74050,8772,680785,0
59,1,716259,249880,1395067,74520,9804,697458,0
59,-1,661356,230401,1303712,68883,8070,651953,0
59,1,708062,248577,1384330,74289,10200,692252,1
59,1,711124,248557,1297217,74157,8877,648618,0
60,1,733144,253155,1382626,77172,10538,691134,0
60,-1,665143,232162,1304218,69685,8084,652083,0
60,1,712289,248888,1360941,74369,9483,680526,1
60,1,710589,248632,1368302,74210,8349,684189,0
61,1,712809,248490,1288755,73835,9299,644380,0
61,-1,673111,230844,1345869,69032,8415,672961,0
61,1,713196,248869,1266048,74390,8458,633073,1
61,1,731817,253332,1423937,77595,9789,711954,0
62,1,708250,247202,1399102,73400,10000,699509,0
62,-1,674434,231997,1337926,69440,8835,668649,0
62,1,709026,248402,1375641,74147,8293,687835,0
62,1,709974,248891,1361318,74374,8837,680669,1
63,1,730489,252758,1354420,77040,10077,677084,0
63,-1,675231,232637,1357765,69905,9820,678854,0
63,1,708978,248635,1427180,74274,8839,713645,0
63,1,712549,249433,1461213,74379,8218,730650,1
64,1,703853,246694,1490927,73237,10223,745537,0
64,-1,670203,231246,1338851,69197,8907,669331,0
64,1,708390,248711,1358310,74262,8467,679169,0
64,1,713153,248414,1365167,74093,9417,682631,1
65,1,710973,247715,1393859,73549,9156,696956,0
65,-1,672533,231926,1379804,69591,9039,689803,0
65,1,709206,248300,1447230,74158,8587,723663,0
65,1,709288,248809,1736935,74209,9242,868143,1
66,1,708690,247698,1384968,73601,9607,692450,0
66,-1,669330,231050,1297088,69157,7914,648376,0
66,1,709582,248739,1330671,74274,8822,665369,0
66,1,713780,248623,1456744,74193,10633,728392,1
67,1,707756,247236,1255447,73332,8984,627669,0
67,-1,667640,230522,1328207,68883,8695,664152,0
67,1,714203,248479,1365144,74228,8673,682619,0
67,1,712089,249963,1255943,74871,9348,628071,1
68,1,714526,249609,1364436,74286,9505,681837,0
68,-1,668042,230656,1231648,69006,8583,615731,0
68,1,715663,248888,1387066,74364,9300,693580,0
68,1,708847,248441,1360694,74170,9365,680377,1
69,1,708044,247955,1296378,73541,9303,648220,0
69,-1,674296,232333,1341190,69799,9056,670730,0
69,1,711942,247967,1443091,74007,9196,721588,0
69,1,713076,248905,1311891,74309,8855,655628,1
70,1,707892,248243,1279965,73633,8803,639858,0
70,-1,669132,231012,1233779,69140,7537,617004,0
70,1,719376,250733,1420763,75184,9351,710453,0
70,1,709666,249269,1379207,74478,8983,689331,1
71,1,716179,249733,1417212,74316,9587,708442,0
71,-1,666272,230160,1378114,68809,8465,689099,0
71,1,713643,248814,1391430,74319,8843,695614,0
71,1,715961,250453,1266600,75088,9385,633312,1
72,1,732592,253105,1462298,77066,9719,731085,0
72,-1,670331,232338,1338444,69750,8074,669213,0
72,1,715182,249827,1281288,74794,8432,640712,0
72,1,711913,248868,1385007,74349,8643,692417,1
73,1,708115,248039,1380607,73612,9122,690132,0
73,-1,688561,235823,1307859,72508,9123,653756,0
73,1,711692,248198,1356326,74088,9146,678138,0
73,1,712845,249277,1265795,74349,9416,633030,1
74,1,709574,248385,1606604,73787,11084,802845,0
74,-1,671363,231184,1326579,69161,8541,663343,0
74,1,710965,248498,1367885,74226,8450,684048,0
74,1,720678,251192,1420277,75163,10081,710361,1
75,1,708084,248095,1300369,73683,8924,649970,0
75,-1,669239,230737,1231732,69052,8504,615605,0
75,1,719517,250482,1316870,75078,9129,658536,0
75,1,713729,249884,1369618,75149,9391,684701,1
76,1,707635,248355,1281508,73813,8861,640547,0
76,-1,669440,230976,1227489,69123,8237,613713,0
76,1,711978,247996,1427996,73948,8609,714031,0
76,1,710640,247526,1389248,74061,8790,694780,1
77,1,715638,250116,1410353,74566,9982,705285,0
77,-1,667586,230639,1298251,68920,8250,649276,0
77,1,714463,249844,1304934,74805,8917,652366,0
77,1,701021,247013,1375403,73924,9186,687368,1
78,1,707935,247636,1245181,73477,9225,622309,0
78,-1,669392,230664,1236838,69001,8352,618378,0
78,1,732251,253289,1460248,77608,9963,730136,0
78,1,709015,249440,1480193,74891,10366,740023,1
79,1,709517,248436,1382107,73744,9632,690829,0
79,-1,673602,232971,1348476,70036,8792,674081,0
79,1,715237,249392,1381334,74464,9043,690673,0
79,1,705436,247458,1350045,73964,8552,675050,1
80,1,711868,250056,1417686,74540,9368,708675,0
80,-1,687431,235133,1324539,72283,9531,662418,0
80,1,738147,257769,1474311,77000,9292,737258,0
80,1,705245,247898,1338581,74200,8198,669334,1
81,1,726810,252608,1372847,76919,10461,686438,0
81,-1,670929,232074,1366643,69654,8978,683109,0
81,1,708865,248067,1273448,73999,8203,636735,0
81,1,708720,249539,1360175,74930,8096,680151,1
82,1,712292,249253,1411174,73969,9753,705285,0
82,-1,667330,230567,1256942,68988,7537,628514,0
82,1,709469,248664,1384227,74300,9882,692117,0
83,1,709381,248145,1292205,73645,8888,646118,0
83,-1,687047,235577,1454032,72411,9405,726856,0
83,1,714970,249548,1307725,74746,8985,653930,0
84,1,706255,247944,1530967,73574,10307,765176,0
84,-1,668358,230274,1264394,68863,8594,632193,0
84,1,714996,248731,1446672,74308,9318,723343,0
85,1,729436,253335,1391568,77127,10555,695590,0
85,-1,669687,231426,1358772,69263,9413,679320,0
85,1,714941,249403,1377349,74480,8566,688719,0
86,1,710081,249261,1439438,73984,10528,719704,0
86,-1,667534,231044,1344326,69109,8357,672120,0
86,1,732346,252948,1325054,77468,9923,662532,0
87,1,713371,248811,1406633,73766,9978,703232,0
87,-1,665473,230289,1220752,68842,7984,610171,0
87,1,710280,248459,1272632,74223,8610,636354,0
88,1,716883,250706,1537882,74664,10129,768821,0
88,-1,689625,235133,1293379,72266,8928,646641,0
88,1,707225,247756,1386797,73897,8897,693443,0
89,1,732883,252811,1354926,76851,10494,677396,0
89,-1,670063,231605,1312426,69324,7928,656201,0
89,1,710227,248539,1400818,74182,8857,700307,0
90,1,712054,248790,1400407,73792,9871,700083,0
90,-1,664423,230737,1384926,68963,8315,692003,0
90,1,712428,248933,1288768,74314,8634,644426,0
91,1,711870,249156,1345079,73930,9594,672340,0
91,-1,669772,231600,1400395,69479,8962,700098,0
91,1,712674,249178,1416076,74444,8416,708076,0
92,1,713001,248556,1287864,73665,9078,643998,0
92,-1,669141,231862,1412434,69393,7858,705965,0
92,1,709658,248133,1449994,74058,8866,725032,0
93,1,734194,253513,1507302,77128,10195,753593,0
93,-1,665678,230812,1324060,69076,8568,662058,0
93,1,711921,249413,1445629,74567,9504,722852,0
94,1,711508,248591,1308649,73690,10371,654323,0
94,-1,667764,232110,1348595,69641,8525,674340,0
94,1,706221,247682,1410239,73915,9067,705166,0
95,1,710080,248809,1259135,73921,9366,629463,0
95,-1,666350,230834,1365031,69072,8498,682548,0
95,1,708613,248297,1425788,74132,9391,712850,0
96,1,709736,248834,1299674,73847,9870,649764,0
96,-1,666077,231062,1327200,69098,8155,663303,0
96,1,707125,248283,1430754,74349,9203,715439,0
97,1,715843,250768,1346308,74798,10155,673017,0
97,-1,669954,232415,1438009,69822,8825,718748,0
97,1,714202,248414,1512527,74279,9638,756046,0
98,1,730803,251970,1365863,76702,9955,682974,0
98,-1,667895,232387,1348019,69743,8686,673893,0
98,1,712068,247531,1459354,73957,9253,729693,0
99,1,711244,248794,1327627,73929,9477,663837,0
99,-1,664884,231713,1324073,69364,9062,661908,0
99,1,713126,248447,1424999,74292,9483,712546,0
100,1,710104,248730,1407536,73873,9132,703593,0
100,-1,666022,230282,1229517,68806,8030,614720,0
100,1,734690,253341,1496667,77671,10002,748302,0
101,1,708072,248597,1399565,73804,9487,699690,0
101,-1,674272,232600,1359815,69867,9072,679788,0
101,1,716983,251099,1429119,75418,9758,714553,0
102,1,714013,250072,1454609,74452,8882,726939,0
102,-1,669826,231189,1313296,69137,7967,656701,0
102,1,713824,248452,1453411,74279,9494,726636,0
103,1,709361,248529,1381898,73751,9694,690801,0
103,-1,667154,230704,1253116,69026,7746,626407,0
103,1,713451,248760,1456886,74430,9803,728502,0
104,1,708445,248967,1412488,73949,10179,706096,0
104,-1,672596,233175,1338259,70072,8543,669297,0
104,1,732675,253343,1440953,77730,10912,720181,0
105,1,713789,249461,1749174,74097,12170,874269,0
105,-1,684709,234822,1255201,72158,8933,627644,0
105,1,711568,248724,1404306,74322,9784,701996,0
106,1,713380,249194,1414262,73951,9893,707135,0
106,-1,668380,230849,1347309,69037,8068,673690,0
106,1,729589,252558,1484524,77287,10424,742323,0
107,1,709342,248005,1314688,73502,9163,657449,0
107,-1,667773,231064,1281958,69141,7577,641017,0
107,1,711079,249080,1311298,74402,8885,655620,0
108,1,710765,248944,1376022,73911,8965,688007,0
108,-1,666118,230729,1244676,69041,8083,622365,0
108,1,711035,249305,1421634,74508,10047,710902,0
109,1,713106,249037,1459610,73823,9677,729832,0
109,-1,665037,230543,1316570,68926,7635,658195,0
109,1,710983,248747,1420514,74245,9898,710311,0
110,1,715323,250568,1407930,74565,10035,703734,0
110,-1,665290,230241,1301904,68868,8304,650976,0
110,1,711098,248571,1365907,74233,9726,682620,0
111,1,708660,248883,1320212,73790,9760,660025,0
111,-1,685322,235140,1300660,72249,8907,650350,0
111,1,714547,250204,1353396,74993,10488,676717,0
112,1,713096,250301,1313257,74434,9342,656460,0
112,-1,664889,230826,1327329,69026,8115,663680,0
112,1,710549,248295,1222853,74179,8545,611466,0
113,1,736929,258490,1301986,76646,9006,651133,0
113,-1,672585,231980,1402424,69548,9198,701243,0
113,1,713704,250152,1317134,74928,9797,658504,0
114,1,709424,248324,1298729,73540,9380,649198,0
114,-1,672674,233464,1317674,70202,8442,658908,0
114,1,712286,249123,1393219,74457,9821,696543,0
115,1,711244,249489,1321256,74004,9632,660660,0
115,-1,686131,234782,1336161,72092,9569,667947,0
115,1,711814,248958,1406444,74415,9839,703249,0
116,1,710254,249793,1405137,74085,10046,702491,0
116,-1,666541,231245,1223079,69209,8030,611682,0
116,1,710920,249183,1427774,74465,9675,713949,0
117,1,709807,249358,1410754,73907,10191,705344,0
117,-1,667377,231709,1354315,69523,8853,676959,0
117,1,709121,248406,1473477,74204,10533,736609,0
118,1,709305,249113,1305160,73876,9751,652491,0
118,-1,663580,230392,1284942,68924,8118,642338,0
118,1,705050,247638,1389371,74067,9428,694649,0
119,1,708825,249242,1656494,73896,11886,828226,0
119,-1,667976,231081,1404953,69097,8118,702379,0
119,1,703621,247448,1422418,73926,10057,711107,0
120,1,710019,249937,1428020,74142,9860,713988,0
120,-1,687196,235324,1300599,72326,9371,649968,0
120,1,702807,247448,1352379,73878,9282,676198,0
121,1,717873,249298,1284510,73936,8726,642301,0
121,-1,664759,231185,1315730,69142,8006,657830,0
121,1,719470,249521,1379077,74667,9805,689280,0
122,1,718292,250132,1444976,74176,10312,722498,0
122,-1,668964,232385,1375592,69731,8592,687750,0
122,1,715139,248200,1529303,74016,11481,763729,0
123,1,718220,249776,1394576,74096,9777,697122,0
123,-1,666043,231526,1188718,69279,7969,594318,0
123,1,713684,248101,1774232,74011,10946,886672,0
124,1,716871,249358,1397994,73909,10444,698828,0
124,-1,662691,230688,1190522,68969,7311,595301,0
124,1,717255,249128,1530737,74500,12393,765025,0
125,1,721902,251328,1329714,74833,9835,664810,0
125,-1,688354,234953,1276396,72160,9538,638167,0
125,1,712244,247152,1492125,73742,11591,745366,0
126,1,714485,248912,1258354,73762,9309,628924,0
126,-1,668932,231204,1340143,69198,9018,670305,0
126,1,711955,247556,1564433,73807,11151,782131,0
127,1,716653,249750,1399805,74021,10091,699932,0
127,-1,668505,231218,1230491,69208,8317,615165,0
127,1,717092,248796,1391573,74242,10268,695669,0
128,1,717075,250003,1320199,74229,9805,659799,0
128,-1,668361,231668,1377868,69491,8868,688784,0
128,1,711366,247801,1287552,73902,9545,643699,0
129,1,710521,248132,1430476,73446,9785,715272,0
129,-1,668169,231413,1325204,69272,8406,662736,0
129,1,716565,248784,1300862,74369,8702,650396,0
130,1,718394,250936,1585538,74708,10769,792471,0
130,-1,665695,230801,1303074,69046,8400,651521,0
130,1,711236,247488,1394142,73765,9030,697075,0
131,1,734725,254030,1369896,77251,10162,685107,0
131,-1,665838,231414,1388986,69243,8737,693919,0
131,1,733532,251985,1423721,77071,9862,711967,0
132,1,715282,249557,1414311,73937,9835,707419,0
132,-1,666020,230694,1302270,68983,8534,651077,0
132,1,712035,247922,1271322,73880,8187,635643,0
133,1,715056,249786,1306095,74059,8706,653025,0
133,-1,670821,232555,1355663,69772,8553,677758,0
133,1,709515,247305,1325357,73681,8427,662660,0
134,1,713483,248816,1377017,73715,8988,688534,0
134,-1,664951,231078,1309000,69179,8042,654377,0
134,1,732638,252621,1410047,77256,9282,704928,0
135,1,734984,253728,1500681,77150,10306,750329,0
135,-1,668618,232067,1342998,69657,8468,671411,0
135,1,711877,248595,1291733,74122,8728,645843,0
136,1,715468,250486,1401561,74488,8976,700678,0
136,-1,664352,231290,1271041,69211,7767,635517,0
136,1,711343,248498,1270963,74291,8305,635529,0
137,1,716987,249798,1317705,74090,9404,658950,0
137,-1,668188,233093,1350400,69957,8879,675033,0
137,1,710489,248424,1340306,74100,8857,670189,0
138,1,717766,251141,1392137,74849,9525,695901,0
138,-1,667495,231097,1352737,69049,8406,676359,0
138,1,707893,247872,1346022,73868,9318,672960,0
139,1,714957,249829,1326411,74283,9636,663119,0
139,-1,686786,235801,1295104,72471,8910,647213,0
139,1,710363,247251,1348200,73726,9221,674108,0
140,1,715110,248513,1385388,73865,9606,692491,0
140,-1,665202,231155,1336894,69118,8136,668211,0
140,1,712530,247661,1271344,73845,8553,635681,0
141,1,716508,249464,1407034,74386,9728,703165,0
141,-1,662353,230610,1324970,68955,8029,662531,0
141,1,715991,249652,1346871,74663,9615,673503,0
142,1,715910,249611,1563465,74303,11806,781644,0
142,-1,667447,232412,1339921,69721,8478,669842,0
142,1,712651,247466,1388125,73691,10058,694048,0
143,1,711237,248387,1401101,73771,9861,700447,0
143,-1,662377,230520,1336515,68868,9185,668415,0
143,1,711815,248018,1441566,73899,10044,720741,0
144,1,713343,249585,1374675,74172,9110,687221,0
144,-1,662608,230817,1388656,69105,8728,694379,0
144,1,709145,247299,1337721,73633,8901,668803,0
145,1,731807,253098,1352646,77091,9409,676337,0
145,-1,668380,230376,1337350,68829,9159,668633,0
145,1,714202,249406,1352605,74594,9584,676221,0
146,1,710477,249146,1304560,74049,8637,652221,0
146,-1,674046,232542,1333285,69754,9311,666535,0
146,1,707482,247233,1335498,73623,9010,667885,0
147,1,714370,249561,1369430,74181,10106,684752,0
147,-1,667292,230517,1242705,68985,8196,621140,0
147,1,710489,248251,1416892,74008,9540,708457,0
148,1,733410,253354,1395557,77195,10176,697692,0
148,-1,666740,230735,1352001,68986,8902,675921,0
148,1,710213,247536,1327376,73778,9306,663690,0
149,1,712307,248956,1433343,73960,9979,716548,0
149,-1,693415,236618,1302130,73239,9092,650916,0
149,1,710189,248214,1356422,74091,9254,678186,0
150,1,711522,249099,1297709,73945,8696,648913,0
150,-1,666956,230921,1313495,69105,7921,656728,0
150,1,710092,248234,1383621,73985,9433,691586,0
151,1,716544,250930,1455054,74915,10010,727312,0
151,-1,665523,230563,1287388,68947,7557,643677,0
151,1,708161,247940,1373435,74004,9672,686644,0
152,1,729498,252636,1487014,76817,9763,742970,0
152,-1,667707,230811,1252610,69015,8299,626156,0
152,1,732336,252353,1452727,77262,11279,726331,0
153,1,710343,248681,1295561,73745,9104,647632,0
153,-1,665423,230525,1252016,68889,8404,625971,0
153,1,714317,248595,1412553,74365,10260,706287,0
154,1,707360,248009,1352154,73653,9607,675983,0
154,-1,688920,235370,1447497,72324,9577,723584,0
154,1,715295,248520,1401306,74253,9822,700321,0
155,1,710592,248020,1460946,73627,11441,730511,0
155,-1,663948,230356,1343448,68831,8575,671707,0
155,1,709812,247650,1586447,73916,9810,792795,0
156,1,713520,249474,1347619,74328,9031,673596,0
156,-1,670192,231631,1322783,69321,7953,661376,0
156,1,709202,247771,1460831,73930,9692,730504,0
157,1,709699,247891,1381938,73514,9430,691034,0
157,-1,668037,230872,1353720,68970,8274,676547,0
157,1,715919,250016,1342219,74784,10492,671051,0
158,1,713253,249667,1400153,74285,9636,699923,0
158,-1,687273,235182,1229922,72309,8802,614901,0
158,1,712082,249214,1420013,74460,10372,709210,0
159,1,710964,248230,1627382,73721,10421,814049,0
159,-1,669289,231570,1240392,69294,7657,620242,0
159,1,713895,248534,1393473,74055,9843,696794,0
160,1,713216,249401,1394874,74226,9623,697456,0
160,-1,671827,232928,1253738,69925,8469,626754,0
160,1,731300,252328,1541443,77100,10748,770548,0
161,1,713311,248958,1367439,73891,9413,683516,0
161,-1,666656,231593,1223994,69322,7636,611969,0
161,1,711617,248635,1412303,74090,10032,705865,0
162,1,710628,248385,1574060,73716,10988,787081,0
162,-1,664528,231065,1210078,69100,8495,604962,0
162,1,709755,247516,1403573,73685,9973,702107,0
163,1,706682,246934,1348165,73216,8830,674031,0
163,-1,687128,235104,1248030,72243,10100,623814,0
163,1,708614,247284,1361278,73673,9610,680618,0
164,1,712316,249470,1377892,74319,9444,688651,0
164,-1,666321,231422,1270505,69265,7806,635078,0
164,1,708328,247688,1405565,73787,9417,702620,0
165,1,713215,249553,1436028,74336,9982,718003,0
165,-1,668729,232410,1491037,69750,8987,745227,0
165,1,707920,247892,1434325,73856,9836,716878,0
166,1,710908,248566,1621515,73710,11443,810842,0
166,-1,663911,230703,1328132,69019,8172,663687,0
166,1,727379,252110,1479010,77074,11665,739520,0
167,1,704918,247186,1319474,73204,9219,659518,0
167,-1,664003,230378,1326558,68894,7997,663284,0
167,1,709340,247866,1375459,73885,10117,687747,0
168,1,706820,248245,1476923,73598,10018,738421,0
168,-1,667958,232375,1330711,69787,8644,665374,0
168,1,713964,249071,1442495,74424,10816,721227,0
169,1,709656,248255,1313945,73663,9078,656885,0
169,-1,684015,235308,1292240,72310,9730,645941,0
169,1,728829,251932,1425116,77005,10721,712532,0
170,1,708965,247970,1445759,73497,10503,722929,0
170,-1,668448,231789,1418659,69388,8067,709246,0
170,1,709550,247981,1434510,73832,9493,717237,0
171,1,713614,250199,1465570,74507,10219,732853,0
171,-1,670067,232369,1323054,69806,8244,661706,0
171,1,711651,249078,1272693,74412,9502,636164,0
172,1,710660,248224,1725579,73655,11780,862335,0
172,-1,687585,235538,1311824,72419,9033,655833,0
172,1,705131,247408,1265985,73653,10266,632980,0
173,1,708680,248753,1461078,73821,9303,730385,0
173,-1,667648,232107,1349944,69640,8937,674783,0
173,1,708520,247260,1263314,73667,9216,631704,0
174,1,707350,248296,1306080,73608,8492,653071,0
174,-1,664535,230119,1327204,68805,8309,663703,0
174,1,716054,250417,1259164,74956,9006,629413,0
175,1,707164,248155,1571323,73604,10810,785139,0
175,-1,665974,230763,1312380,68987,8064,656011,0
175,1,709077,248235,1408107,74002,8817,703665,0
176,1,709740,248298,1349881,73782,8735,674556,0
176,-1,663806,230806,1206565,69051,7481,603261,0
176,1,708596,248022,1403531,73944,9166,701722,0
177,1,705518,247788,1500611,73606,8656,750157,0
177,-1,664584,231158,1337284,69275,8539,668614,0
177,1,709863,248964,1413669,74366,9603,706911,0
178,1,728039,252384,1344838,76947,9536,672290,0
178,-1,665855,230283,1374766,68926,8055,687362,0
178,1,705067,247383,1487531,73673,10656,743637,0
179,1,707650,248485,1339217,73797,8054,669653,0
179,-1,666783,231096,1342417,69219,8251,670964,0
179,1,705374,247060,1280448,73594,9041,640151,0
180,1,706878,248060,1318569,73707,9155,659125,0
180,-1,665520,231093,1245784,69197,8107,622834,0
180,1,709724,248755,1296160,74151,8804,648154,0
181,1,704915,247638,1388866,73520,9420,694579,0
181,-1,695400,240941,1299214,72343,9255,649468,0
181,1,705547,247148,1359608,73593,9744,679848,0
182,1,711120,247923,1408552,73608,9345,704343,0
182,-1,662660,230326,1247268,68938,8614,623643,0
182,1,725959,251953,1392702,76990,10255,696376,0
183,1,708814,247388,1280239,73525,8719,639833,0
183,-1,667800,232806,1266278,70003,9282,633129,0
183,1,714698,248755,1479569,74202,10920,739337,0
184,1,730061,252305,1482664,76902,9426,741113,0
184,-1,664845,230765,1322301,69132,8528,661133,0
184,1,716665,249490,1297412,74615,8583,648781,0
185,1,713090,249104,1560447,74079,10723,779508,0
185,-1,662674,230112,1309466,68938,8892,654585,0
185,1,712276,248144,1297424,73953,8292,648734,0
186,1,711859,248623,1323183,73813,8770,661509,0
186,-1,662535,230480,1224045,69011,8367,611996,0
186,1,709050,247388,1327557,73711,8635,663844,0
187,1,711375,248778,1421320,73861,10486,710586,0
187,-1,682818,234743,1320022,72173,10190,659854,0
187,1,709997,248060,1255906,74034,7702,627998,0
188,1,711991,249528,1316693,74251,9540,658348,0
188,-1,668617,231124,1244291,69260,8296,622016,0
188,1,711346,248039,1351051,73932,8830,675537,0
189,1,711833,248106,1324095,73596,10368,662066,0
189,-1,670504,231521,1401555,69548,9446,700580,0
189,1,711357,247359,1303572,73646,8344,651924,0
190,1,710647,248612,1298134,73799,8822,649069,0
190,-1,687825,235197,1335086,72353,9554,667498,0
190,1,716105,249769,1294253,74709,9580,647152,0
191,1,704330,246580,1231955,73114,8481,616020,0
191,-1,665357,230587,1213198,69013,8091,606583,0
191,1,706684,247114,1227015,73585,7672,613559,0
192,1,709338,247901,1354942,73515,9234,677527,0
192,-1,668981,232319,1325395,69815,8919,662672,0
192,1,710747,247682,1429510,73812,9699,714790,0
193,1,712270,249281,1467415,74196,9243,733849,0
193,-1,667720,230550,1376741,69025,8290,688447,0
193,1,717477,250120,1317756,74952,8830,658790,0
194,1,709332,248335,1416128,73668,9175,707863,0
194,-1,666771,230845,1400785,69157,8390,700097,0
194,1,710425,247867,1312158,73858,8588,656107,0
195,1,730994,252645,1423099,76936,9883,711613,0
195,-1,668764,231974,1326767,69770,7984,663326,0
195,1,712584,248533,1347374,74013,8491,673732,0
196,1,710861,248893,1355244,73964,9454,677035,0
196,-1,684590,234789,1289833,72178,8825,644685,0
196,1,713185,249212,1286612,74464,8583,643364,0
197,1,706508,248024,1354978,73670,8658,677227,0
197,-1,664282,230360,1323476,68921,8530,661640,0
197,1,707769,247564,1378317,73760,8905,688887,0
198,1,707318,248800,1401609,73941,8774,700609,0
198,-1,665658,231014,1274234,69221,8671,637050,0
198,1,706520,247108,1297888,73582,8657,649170,0
199,1,708731,248018,1282746,73737,8607,641411,0
199,-1,662358,230548,1336546,69072,7974,668200,0
199,1,708894,247690,1384470,73744,8715,692257,0
200,1,708083,247839,1422690,73638,9243,711426,0
200,-1,663796,230998,1240130,69180,8388,620024,0
200,1,727178,251988,1398955,77021,9375,699598,0
201,1,714194,249692,1526079,74454,10369,762127,0
201,-1,674193,233344,1325804,70243,8833,663026,0
201,1,713531,248059,1344990,74036,8745,672333,0
202,1,707774,247741,1355060,73660,8848,677612,0
202,-1,688795,235579,1221097,72482,9111,610461,0
202,1,710247,247770,1347097,73780,9200,673583,0
203,1,727612,252356,1410048,76934,9476,704823,0
203,-1,666325,230674,1273294,69075,8129,636680,0
203,1,710186,248430,1267562,74337,8322,633796,0
204,1,708552,248585,1441802,73896,9444,721367,0
204,-1,666123,231246,1204691,69239,7664,602411,0
204,1,706574,247265,1357196,73707,9291,678643,0
205,1,705658,247965,1342464,73681,9519,671303,0
205,-1,668071,232364,1260834,69813,8666,630323,0
205,1,705298,247290,1313842,73679,8326,656830,0
206,1,705940,247492,1414858,73425,9769,707052,0
206,-1,663833,230269,1256290,68925,8378,628037,0
206,1,708754,247393,1331092,73727,8175,665583,0
207,1,726458,252474,1536100,76934,11239,768072,0
207,-1,664879,231058,1242623,69221,8008,621308,0
207,1,710944,248382,1372550,74029,8477,686308,0
208,1,706817,248360,1611387,73817,10164,804763,0
208,-1,662118,230010,1182065,68854,7746,590867,0
208,1,728187,252383,1477752,77108,9821,738899,0
209,1,709162,248948,1371051,74061,8933,684698,0
209,-1,666776,232156,1319481,69766,8679,659739,0
209,1,705074,247433,1381472,73735,9098,690775,0
210,1,705961,248510,1407647,73887,9606,703782,0
210,-1,662078,230221,1423154,68961,8393,711592,0
210,1,706589,247216,1269226,73627,8582,634657,0
211,1,708653,247526,1587022,73518,10367,792978,0
211,-1,660257,229189,1223172,68672,7622,611443,0
211,1,708105,248038,1348860,73894,9030,674395,0
212,1,707358,247867,1351853,73550,8119,675907,0
212,-1,663191,230419,1214646,69022,7803,607207,0
212,1,704884,246947,1419527,73532,9089,709805,0
213,1,711057,248681,1291222,73959,8972,645496,0
213,-1,661442,230092,1354372,68821,8276,677157,0
213,1,705146,247333,1456764,73711,10430,728431,0
214,1,707039,248047,1415863,73726,9018,708012,0
214,-1,664063,230400,1248485,68978,8805,624133,0
214,1,727929,252397,1559112,77145,11517,779578,0
215,1,706493,247744,1424836,73582,9208,712508,0
215,-1,667610,232433,1337710,69922,8864,668631,0
215,1,706258,248055,1586096,74065,11249,793074,0
216,1,706167,248225,1364759,73808,8330,682052,0
216,-1,682302,235024,1315377,72307,9394,657445,0
216,1,711540,247831,1309424,74033,9573,654746,0
217,1,714221,249997,1412532,74596,9421,707016,0
217,-1,660219,230471,1293223,69043,8345,646883,0
217,1,713666,249195,1166790,74680,8140,583501,0
218,1,730143,252518,1509436,76982,10153,754541,0
218,-1,668190,231965,1353757,69691,9493,676839,0
218,1,730448,252108,1343368,77193,9886,671749,0
219,1,707729,248266,1413600,73742,9852,706421,0
219,-1,665927,230417,1332332,68987,8533,666079,0
219,1,709457,247625,1512963,73918,9321,756463,0
220,1,709101,249114,1457832,74162,9303,728751,0
220,-1,666613,230986,1334580,69238,8742,667280,0
220,1,712445,248775,1256340,74471,8209,628208,0
221,1,706405,248198,1410262,73706,9893,705121,0
221,-1,663288,229757,1248072,68809,8577,623663,0
221,1,729715,252210,1431155,77234,9609,715457,0
222,1,705110,247637,1344786,73527,9199,672403,0
222,-1,682651,234377,1294762,72110,9755,647383,0
222,1,706920,247480,1357850,73854,8458,678955,0
223,1,726200,252280,1391033,76889,10739,695069,0
223,-1,663284,230982,1358569,69184,9105,679417,0
223,1,711850,248900,1270488,74485,8926,635259,0
224,1,709517,248651,1446099,73917,10123,723110,0
224,-1,663886,230171,1253207,68890,8340,626213,0
224,1,706618,247056,1364754,73774,9223,682405,0
225,1,727917,252821,1431973,77020,10067,715571,0
225,-1,669351,232658,1335262,69992,8790,667401,0
225,1,710374,248250,1309086,74167,9207,654473,0
226,1,703946,247666,1367697,73564,8399,683197,0
226,-1,685941,235514,1310158,72482,9655,654918,0
226,1,711352,249178,1393906,74711,10000,696627,0
227,1,703505,247758,1338780,73556,8498,669097,0
227,-1,663296,230812,1332015,69041,8457,665957,0
227,1,705988,247212,1347942,73722,8763,673997,0
228,1,726913,252523,1406780,76961,10588,703357,0
228,-1,662183,230404,1192526,69012,8709,596315,0
228,1,704998,247107,1334759,73724,8659,667347,0
229,1,706675,247796,1341047,73611,8203,670564,0
229,-1,661264,230301,1329279,68944,9031,664601,0
229,1,704466,246921,1326454,73655,9026,663167,0
230,1,709805,249462,1434464,74289,8964,717089,0
230,-1,664148,231219,1304565,69291,9474,652153,0
230,1,705035,247553,1282808,73811,8224,641388,0
231,1,726185,252401,1343633,76892,9292,671671,0
231,-1,658989,229712,1289364,68729,9072,644628,0
231,1,710154,247647,1264350,73945,9070,632153,0
232,1,704848,248260,1326561,73793,9174,663185,0
232,-1,687281,235125,1238564,72368,9656,619329,0
232,1,708331,247163,1447436,73654,9790,723724,0
233,1,703426,247791,1403329,73660,9162,701633,0
233,-1,663695,230183,1246812,68942,9261,623252,0
233,1,729263,252098,1441727,77171,10114,720838,0
234,1,732996,252930,1334987,77050,10003,667219,0
234,-1,663442,230943,1212273,69111,8935,606060,0
234,1,708435,247881,1379025,74000,9128,689471,0
235,1,733185,253157,1368189,77155,10572,684096,0
235,-1,681596,234655,1293148,72189,9399,646395,0
235,1,707033,247837,1293394,73989,8552,646952,0
236,1,708554,247868,1309787,73619,8818,654983,0
236,-1,659432,229948,1288178,68778,8895,644051,0
236,1,713683,249691,1281271,74839,8817,640277,0
237,1,711465,249351,1383425,74297,9277,691593,0
237,-1,665972,231321,1220461,69317,8302,610140,0
237,1,707263,247645,1342658,73873,8959,671310,0
238,1,707886,247795,1277943,73621,8518,639050,0
238,-1,666568,231983,1357594,69693,8723,678806,0
238,1,707011,247977,1475815,74057,10061,737858,0
239,1,709064,248219,1413792,73772,9496,706986,0
239,-1,661056,230890,1244951,69087,8882,622409,0
239,1,704470,247308,1428210,73745,9431,714067,0
240,1,712621,249194,1377866,74264,9325,688804,0
240,-1,682739,235240,1450132,72375,9326,725061,0
240,1,710060,247651,1288446,73914,9758,644214,0
241,1,705095,246673,1425829,73340,9445,712796,0
241,-1,662028,231458,1195912,69361,7467,597882,0
241,1,704738,246772,1380988,73635,9690,690513,0
242,1,706668,247563,1312545,73525,8625,656031,0
242,-1,663923,232243,1329118,69778,8307,664628,0
242,1,711153,249459,1301169,74734,9374,650248,0
243,1,711117,249702,1432328,74468,9174,716061,0
243,-1,673503,230978,1352291,69229,8792,676225,0
243,1,705748,248180,1345784,74128,9769,673082,0
244,1,710771,248836,1721776,74008,11331,860491,0
244,-1,676083,232252,1334040,69859,9019,666930,0
244,1,708012,247678,1397789,73967,10820,698667,0
245,1,706770,247659,1351543,73597,8851,675807,0
245,-1,692136,235174,1337197,72352,9994,668592,0
245,1,706045,247253,1417082,73793,10186,708519,0
246,1,712012,248520,1406029,73892,9274,702945,0
246,-1,673529,230911,1414602,69169,8691,707056,0
246,1,709141,249255,1681576,74732,12899,839494,0
247,1,714200,249710,1412698,74498,9651,706376,0
247,-1,671687,230928,1346316,69184,8693,672686,0
247,1,704469,247229,1347075,73789,9987,673518,0
248,1,731590,252847,1367448,77097,9424,683676,0
248,-1,669388,230154,1284033,68946,8860,641941,0
248,1,703089,247470,1414389,73899,10439,706799,0
249,1,708566,247835,1468965,73569,8379,734649,0
249,-1,668832,230561,1349268,69073,8700,674689,0
249,1,703077,247427,1392125,73851,9630,696002,0
250,1,709915,248403,1732232,73894,11646,865489,0
250,-1,675335,232317,1364137,69896,9435,681815,0
250,1,713595,247631,1404323,73893,9093,701714,0
251,1,709541,248310,1356701,73853,8858,678407,0
251,-1,692899,235481,1316509,72463,10117,658043,0
251,1,732047,251877,1614949,77089,11026,807337,0
252,1,709219,248332,1318398,73774,8788,659120,0
252,-1,670751,231228,1273526,69285,9184,636714,0
252,1,708997,247084,1453911,73710,9972,726955,0
253,1,707281,248230,1434050,73738,9909,717070,0
253,-1,671688,231723,1304727,69547,9563,652382,0
253,1,712443,248182,1380857,74050,9616,690386,0
254,1,709080,248627,1299288,73912,8628,649315,0
254,-1,669280,230347,1282747,68978,9573,641269,0
254,1,731913,252069,1490843,77155,11216,745275,0
255,1,708341,248326,1310292,73767,9301,654693,0
255,-1,672560,232413,1254973,69976,9680,627593,0
255,1,713136,248190,1490188,74090,9956,745095,0
256,1,707368,248788,1452491,73904,9217,726079,0
256,-1,670223,230243,1317159,68919,8930,658625,0
256,1,712840,248682,1422016,74424,10018,711059,0
257,1,710988,248353,1434120,73803,10569,717560,0
257,-1,672362,231446,1320392,69524,9141,660098,0
257,1,708246,247033,1342720,73715,9437,671223,0
258,1,708133,247704,1606843,73598,9581,803191,0
258,-1,669957,230798,1212734,69137,8468,606100,0
258,1,729506,251759,1589290,77002,12107,794090,0
259,1,713979,250279,1389585,74755,9457,694927,0
259,-1,668314,230189,1421477,68909,9031,710698,0
259,1,709635,247129,1465712,73669,9847,732731,0
260,1,707356,248689,1281892,73944,8563,641010,0
260,-1,670166,230635,1283440,69059,8789,641674,0
260,1,731933,252242,1524302,77186,10886,762077,0
261,1,707998,247886,1409675,73627,9862,704804,0
261,-1,675168,232944,1331946,70094,9424,665471,0
261,1,707870,247303,1404964,73741,10184,702488,0
262,1,707596,248670,1268984,73971,8300,634511,0
262,-1,690658,235578,1265229,72548,9554,632588,0
262,1,711960,249039,1339769,74491,10048,669839,0
263,1,704813,247923,1411005,73646,9871,705630,0
263,-1,667833,230290,1366963,68995,9187,683219,0
263,1,710154,248523,1320220,74355,8911,660211,0
264,1,732275,252763,1418462,77059,10402,709311,0
264,-1,669250,230420,1269694,69026,9187,634885,0
264,1,705718,247089,1341214,73605,7825,670656,0
265,1,710163,248154,1506099,73766,9284,752923,0
265,-1,666416,229497,1300410,68793,9225,650232,0
265,1,708723,248515,1348969,74235,8249,674521,0
266,1,710851,248949,1338274,74147,9269,669116,0
266,-1,667333,230339,1301566,68960,8738,650798,0
266,1,708718,247148,1271698,73727,9313,635900,0
267,1,710584,248126,1241346,73780,9041,620693,0
267,-1,668643,231183,1225041,69280,8940,612409,0
267,1,713652,249592,1221770,74732,8041,610950,0
268,1,709172,247942,1428132,73671,9490,714045,0
268,-1,670674,232035,1383704,69734,9148,691525,0
268,1,710503,247639,1269139,73943,8450,634572,0
269,1,712035,249479,1428359,74359,9668,714203,0
269,-1,666634,230734,1282027,69144,9246,640943,0
269,1,708395,247038,1284795,73710,8139,642456,0
270,1,706333,247706,1379868,73578,8828,689973,0
270,-1,672249,230652,1304209,69082,8518,652151,0
270,1,710133,247992,1260528,74087,8048,630313,0
271,1,710964,249552,1392808,74458,8951,696544,0
271,-1,670902,230424,1236458,69034,7725,618033,0
271,1,708498,246895,1328813,73655,8154,664439,0
272,1,706547,247947,1373776,73688,8913,686834,0
272,-1,692403,235393,1450201,72436,9256,725173,0
272,1,704957,246467,1339331,73485,8500,669704,0
273,1,707998,248105,1398522,73716,8748,699216,0
273,-1,669690,230474,1267333,69003,8490,633520,0
273,1,708933,247276,1438368,73801,8369,719323,0
274,1,707616,248214,1358569,73755,8262,679206,0
274,-1,670222,231460,1255284,69364,8386,627500,0
274,1,726981,251731,1416351,77101,9358,708169,0
275,1,705158,247917,1436567,73666,8959,718311,0
275,-1,666495,230172,1169804,68909,7822,584873,0
275,1,706200,247338,1397470,73749,8532,698722,0
276,1,704863,247956,1330126,73670,9374,665028,0
276,-1,668109,230549,1431990,69042,8717,715854,0
276,1,710001,247683,1358223,73935,8805,679147,0
277,1,706156,248742,1302141,73953,8456,651128,0
277,-1,668334,230481,1388205,69045,8754,693904,0
277,1,709464,247394,1349713,73789,9054,674890,0
278,1,709057,248461,1383344,73810,8934,691700,0
278,-1,669017,231083,1341145,69243,8360,670488,0
278,1,709132,247767,1280935,73948,9034,640550,0
279,1,711284,249911,1437027,74576,9511,718477,0
279,-1,664213,229514,1357555,68731,8225,678844,0
279,1,711935,249298,1270873,74628,8547,635570,0
280,1,726539,252494,1402407,77004,9614,701225,0
280,-1,673493,233117,1370932,70174,9014,685436,0
280,1,710183,248002,1352697,74015,8425,676393,0
281,1,706102,247541,1274947,73523,8728,637320,0
281,-1,665619,230586,1322118,69087,8252,660997,0
281,1,704164,247059,1354631,73700,9110,677362,0
282,1,708519,248793,1313137,73967,9131,656436,0
282,-1,668889,230723,1351433,69091,8892,675646,0
282,1,708999,247773,1257817,73953,8675,629007,0
283,1,706865,248050,1372710,73713,8900,686274,0
283,-1,669186,231198,1303625,69274,8325,651827,0
283,1,727183,251780,1382539,77063,9310,691262,0
284,1,704359,247769,1309038,73595,8910,654433,0
284,-1,666922,230369,1251598,68963,8254,625593,0
284,1,707421,248060,1342379,74049,8729,671232,0
285,1,725726,252263,1376576,76901,9762,688057,0
285,-1,672967,232216,1364139,69772,9360,682167,0
285,1,709850,248822,1244956,74475,7903,622542,0
286,1,704808,247744,1415320,73609,8712,707685,0
286,-1,693506,239403,1378178,71653,9028,689199,0
286,1,705797,247516,1267064,73902,8220,633566,0
287,1,707665,248230,1290362,73777,8761,644954,0
287,-1,667139,230216,1388264,68864,8406,694126,0
287,1,711312,248213,1223006,74311,8156,611562,0
288,1,707151,248132,1413871,73761,8503,706878,0
288,-1,667857,230767,1407173,69140,8902,703643,0
288,1,707588,247118,1255881,73716,8310,627988,0
289,1,707122,248173,1379638,73720,8647,689815,0
289,-1,686721,235020,1335057,72302,9398,667492,0
289,1,710762,247810,1290373,73975,8287,645229,0
290,1,738238,259631,1460910,77529,9178,730308,0
290,-1,664679,230219,1201803,68914,7724,600957,0
290,1,707690,247531,1357128,73866,8732,678573,0
291,1,707436,248544,1376769,73896,9513,688277,0
291,-1,669468,232294,1359823,69800,9113,679848,0
291,1,706536,247180,1294509,73760,8005,647295,0
292,1,705518,247719,1411477,73586,8682,705547,0
292,-1,662631,229697,1309767,68728,8778,654929,0
292,1,712133,248111,1351799,74124,8524,675975,0
293,1,708312,249346,1461693,74306,9608,730644,0
293,-1,672218,230341,1248192,69005,8674,624001,0
293,1,707064,246726,1340578,73603,7930,670372,0
294,1,704991,248022,1399490,73715,9075,699774,0
294,-1,677163,232958,1305068,70023,9176,652576,0
294,1,713737,249564,1284260,74858,8413,642210,0
295,1,725936,252649,1261573,77020,9345,630776,0
295,-1,667582,229816,1301911,68810,7750,650992,0
295,1,730373,252437,1505390,77333,9528,752724,0
296,1,704739,248588,1270006,73896,8588,634938,0
296,-1,666298,229458,1255736,68641,7274,627906,0
296,1,708589,247984,1435168,74062,8712,717677,0
297,1,705499,248848,1385682,73934,9230,693004,0
297,-1,668662,230697,1290223,69152,7357,645130,0
297,1,707503,247627,1353674,73929,8675,676905,0
298,1,707063,249900,1436345,74565,9818,718218,0
298,-1,669672,231060,1201892,69188,7202,600952,0
298,1,708669,246955,1383000,73650,8761,691544,0
299,1,724193,252438,1360841,76950,9913,680308,0
299,-1,672166,232411,1329534,69920,7936,664866,0
299,1,710045,247796,1271721,74003,8763,635959,0
300,1,713134,248560,1430363,73878,9800,714837,0
300,-1,689475,235458,1273830,72468,8408,637114,0
300,1,707814,246999,1349761,73691,8148,674956,0
301,1,710704,248370,1418629,73805,9180,709532,0
301,-1,670370,230564,1447393,69093,8778,723764,0
301,1,709404,248165,1386112,74111,8148,693096,0
302,1,709707,248584,1383638,73895,8778,691769,0
302,-1,667941,230029,1322146,68823,8224,660532,0
302,1,707080,247554,1348893,73943,8332,674483,0
303,1,706692,247739,1484571,73636,8853,742278,0
303,-1,673583,232190,1392181,69785,9496,696191,0
303,1,706309,247412,1251286,73857,8794,625642,0
304,1,707021,248185,1311842,73784,8539,656025,0
304,-1,666273,230367,1316865,68987,8513,658510,0
304,1,706095,247530,1295780,73873,8328,647931,0
305,1,708975,249260,1386125,74277,9037,692977,0
305,-1,669279,230824,1414337,69152,8771,707149,0
305,1,708772,249231,1243121,74695,8331,621643,0
306,1,707863,247867,1391900,73621,9298,695870,0
306,-1,669121,230919,1469043,69161,8377,734609,0
306,1,723226,251577,1322730,76957,9710,661391,0
307,1,713428,250185,1333952,74715,9177,667004,0
307,-1,671202,232306,1424490,69827,8695,711723,0
307,1,709043,247593,1261648,73941,8171,630880,0
308,1,706802,248096,1380486,73693,9458,690230,0
308,-1,688014,235084,1306455,72296,9311,652999,0
308,1,707311,247339,1305762,73854,8449,652938,0
309,1,707277,248026,1288458,73663,8792,644144,0
309,-1,668183,231291,1406365,69284,7916,703666,0
309,1,706716,247266,1354723,73720,7613,677353,0
310,1,708166,249058,1384871,74044,8820,692090,0
310,-1,664443,229991,1353097,68816,8004,677108,0
310,1,707374,247094,1338564,73696,8062,669326,0
311,1,710997,248249,1375662,73761,9406,687587,0
311,-1,668877,231239,1415200,69236,8441,707630,0
311,1,707620,247664,1352642,73921,8787,676227,0
312,1,709594,248358,1314855,73852,9019,657299,0
312,-1,667860,230434,1327198,68932,8430,664038,0
312,1,707494,247351,1342848,73821,8700,671484,0
313,1,708149,248135,1445243,73707,8708,722383,0
313,-1,667742,230670,1222644,68876,8121,611361,0
313,1,705678,247156,1366494,73698,8500,683283,0
314,1,708608,248232,1304969,73794,8856,652360,0
314,-1,666280,230845,1262158,68996,8634,631455,0
314,1,707448,247593,1357206,73887,8682,678650,0
315,1,709974,248556,1282050,73908,8937,640943,0
315,-1,668143,231053,1195772,69102,8150,597206,0
315,1,706138,246831,1387014,73637,9282,693528,0
316,1,724987,252210,1366370,76923,9940,683027,0
316,-1,670658,232344,1282528,69669,8939,641314,0
316,1,728073,251704,1490558,77098,9919,745312,0
317,1,706069,248089,1339506,73722,8198,669789,0
317,-1,664303,230510,1426332,68920,8577,711946,0
317,1,703762,246973,1296174,73692,8952,648114,0
318,1,704907,248389,1305797,73849,8605,652897,0
318,-1,666327,231363,1291212,69190,8733,645355,0
318,1,706758,247485,1357041,73831,9435,678512,0
319,1,711622,249749,1368219,74660,9167,683980,0
319,-1,674956,232758,1371046,69878,9832,685427,0
319,1,704572,247101,1404194,73742,8825,702121,0
320,1,725757,251855,1361462,76791,9152,680686,0
320,-1,667353,230059,1340790,68689,8984,670164,0
320,1,705149,247675,1267326,73957,8737,633759,0
321,1,703541,247357,1292153,73535,9002,646055,0
321,-1,669893,231377,1277420,69160,8964,638231,0
321,1,707063,248629,1219346,74446,8167,609805,0
322,1,703664,247706,1248544,73645,8515,624151,0
322,-1,671188,231779,1407518,69441,8979,703807,0
322,1,705560,247222,1282736,73716,9350,641287,0
323,1,704379,247405,1435613,73578,8936,717721,0
323,-1,667828,230649,1251052,68927,8433,625571,0
323,1,708233,249160,1237942,74678,9163,618875,0
324,1,705480,248153,1385629,73880,8852,692485,0
324,-1,666778,230606,1435585,68811,8792,718388,0
324,1,711776,247713,1305761,73898,9844,652878,0
325,1,702455,247511,1320975,73666,8628,660433,0
325,-1,688213,235473,1372463,72275,9579,685928,0
325,1,714972,248990,1261212,74549,9640,630608,0
326,1,701699,247212,1380908,73524,8976,690617,0
326,-1,669722,230655,1323405,68883,8763,661322,0
326,1,709702,247588,1271100,73930,9287,635511,0
327,1,704677,248479,1443069,73942,10546,721454,0
327,-1,669737,231656,1341376,69376,9101,670610,0
327,1,708896,247531,1389853,73860,9562,694973,0
328,1,699983,247252,1372394,73527,9636,686334,0
328,-1,665120,230049,1261996,68699,8067,631071,0
328,1,731925,252462,1408311,77312,9883,704144,0
329,1,709451,248240,1427001,73878,9437,713328,0
329,-1,667733,231399,1319004,69186,8312,659549,0
329,1,705889,246705,1378789,73645,9618,689438,0
330,1,706847,247635,1402750,73667,8907,701488,0
330,-1,687430,235159,1421715,72235,9162,710832,0
330,1,709545,247276,1424606,73825,9612,712353,0
331,1,710184,248778,1346121,74033,8975,673091,0
331,-1,665735,230713,1385455,68911,7936,692750,0
331,1,709028,247474,1351971,73856,9165,676329,0
332,1,706020,247605,1378637,73637,9184,689140,0
332,-1,668360,231666,1321722,69217,8128,660895,0
332,1,708850,247416,1397680,73854,9687,698891,0
333,1,707512,248256,1308828,73848,8802,654316,0
333,-1,668319,230541,1268312,68841,7642,634224,0
333,1,709127,248000,1375661,74061,9527,687879,0
334,1,704121,247623,1292217,73684,9228,645958,0
334,-1,688245,235547,1267517,72241,8278,633702,0
334,1,707757,247601,1382483,73960,9408,691275,0
335,1,702511,247087,1375816,73411,8692,687917,0
335,-1,668897,231090,1332408,68998,7740,666213,0
335,1,705109,247028,1384500,73709,8927,692293,0
335,-1,670778,231104,1431936,68989,9239,715854,0
336,1,706433,247876,1243135,73776,8759,621422,0
336,-1,668701,231388,1285127,69082,7601,642599,0
336,1,709334,247633,1386546,73945,8832,693314,0
336,-1,671896,231612,1341771,69161,9290,670774,0
337,1,724202,252091,1431475,76962,9716,715638,0
337,-1,688623,235672,1312620,72268,8386,656356,0
337,1,709567,248332,1357583,74131,9434,678829,0
337,-1,670745,231161,1280728,68975,9012,640232,0
338,1,707488,248277,1376182,73868,8419,687877,0
338,-1,667443,231017,1253464,68936,7566,626769,0
338,1,706963,247212,1372591,73745,8844,686328,0
338,-1,673364,232606,1349184,69636,9135,674482,0
339,1,707194,248875,1410102,74260,9401,704897,0
339,-1,664824,230436,1321658,68747,7645,660896,0
339,1,709741,248194,1242394,74297,9085,621273,0
339,-1,669294,230704,1335886,68839,8961,667989,0
340,1,705182,248430,1437875,73945,9215,718869,0
340,-1,666428,230786,1339090,68929,8346,669800,0
340,1,705949,247540,1283224,73920,9764,641633,0
340,-1,673293,232653,1269041,69679,9421,634393,0
341,1,705698,247409,1411825,73623,9435,705897,0
341,-1,666228,231067,1212547,68953,8012,606316,0
341,1,706523,248354,1446930,73362,8566,723510,0
341,-1,671587,232333,1210028,69394,8964,604978,0
342,1,706028,247917,1377937,73745,9137,688926,0
342,-1,690370,235384,1283583,72162,8146,641796,0
342,1,711404,248845,1299102,73659,8329,649522,0
342,-1,668802,231314,1233881,69020,8733,616985,0
343,1,706584,248115,1370028,73845,9291,685004,0
343,-1,673034,231007,1251660,68981,7815,625887,0
343,1,728544,252125,1421172,76380,9210,710544,0
343,-1,670881,231247,1387869,69136,9021,693967,0
344,1,703628,247726,1319815,73732,9193,659687,0
344,-1,671678,230581,1317391,68776,8359,658481,0
344,1,706494,247734,1361405,73142,8424,680758,0
344,-1,670240,231219,1525327,69146,10521,762654,0
345,1,706143,248349,1394310,74104,9359,696961,0
345,-1,667863,230034,1322118,68691,7766,661136,0
345,1,703375,247041,1272742,72837,8194,636463,0
345,-1,674374,233155,1318727,69905,8540,659253,0
346,1,705110,247923,1307513,73725,9653,653566,0
346,-1,669549,230246,1426882,68806,8130,713463,0
346,1,703357,246674,1396944,72652,8754,698480,0
346,-1,671211,231372,1323268,69115,8646,661614,0
347,1,707000,248459,1283157,73955,9312,641435,0
347,-1,675127,232613,1325344,69682,7759,662774,0
347,1,726308,252375,1440950,76383,9477,720548,0
347,-1,673973,233473,1343654,70057,8393,671713,0
348,1,707142,248918,1333380,74285,9993,666579,0
348,-1,669683,230896,1238043,68958,7251,619106,0
348,1,701402,247381,1348564,72965,8802,674320,0
348,-1,692963,237453,1318591,72890,9761,659271,0
349,1,704410,247881,1344107,73775,9366,672005,0
349,-1,668625,230451,1232627,68798,7560,616359,0
349,1,704406,247323,1351817,72966,8174,675997,0
349,-1,669830,231605,1225150,69169,8208,612544,0
350,1,727303,255768,1394958,76049,9003,697467,0
350,-1,667016,230242,1329507,68701,8270,664813,0
350,1,708403,249232,1292129,73674,8655,646101,0
350,-1,669756,231485,1390485,69140,8848,695254,0
351,1,704860,248033,1427917,73769,9431,713977,0
351,-1,667148,230284,1281192,68742,7596,640636,0
351,1,708113,249434,1269151,73909,8530,634639,0
351,-1,669727,231936,1589178,69343,10778,794483,0
351,1,710679,248673,1365267,74462,8284,682696,0
352,1,704260,248454,1403945,73927,9134,702035,0
352,-1,672759,232825,1389006,70012,8406,694657,0
352,1,701370,247283,1249473,73037,8098,624778,0
352,-1,667922,231621,1218357,69227,7964,609225,0
352,1,709173,247847,1374705,73987,8467,687427,0
353,1,702770,248152,1535229,73848,9328,767403,0
353,-1,667206,230501,1234909,68966,7739,617488,0
353,1,702425,247310,1381437,72956,9025,690781,0
353,-1,665926,231015,1535782,69003,10799,767791,0
353,1,706350,246909,1321717,73705,8577,660904,0
354,1,714120,249050,1446045,74314,10088,723054,0
354,-1,675214,232991,1283000,69854,7419,641613,0
354,1,708063,249728,1294332,74028,8283,647192,0
354,-1,673533,233376,1329330,70027,8594,664683,0
354,1,704656,246990,1268014,73758,8805,634035,0
355,1,710392,247501,1372807,73603,9250,686273,0
355,-1,669906,231336,1205696,69123,8004,602805,0
355,1,722642,251881,1442651,76272,9280,721147,0
355,-1,691240,236953,1339365,72752,9692,669460,0
355,1,727472,252487,1393700,77323,9899,696926,0
356,1,710598,247409,1308656,73522,9065,654236,0
356,-1,671854,232092,1266786,69511,8509,633340,0
356,1,700372,247067,1415018,72856,8819,707549,0
356,-1,669189,232895,1340939,69811,9479,670430,0
356,1,711518,248599,1462210,74435,9511,731162,0
357,1,710809,247702,1413831,73710,10053,707058,0
357,-1,668067,230971,1169742,69013,7291,584933,0
357,1,702550,247805,1266802,73098,8612,633417,0
357,-1,671164,231303,1434611,69016,9174,716980,0
357,1,707696,247341,1361268,73855,9276,680702,0
358,1,710417,247562,1422286,73629,10075,711012,0
358,-1,665072,229928,1224297,68580,7146,612165,0
358,1,706411,248086,1257839,73341,8439,628990,0
358,-1,674589,233384,1337396,70024,9054,668665,0
358,1,726649,251817,1390439,77234,9847,695283,0
359,1,710903,247525,1328625,73668,9718,664290,0
359,-1,667363,231160,1233399,69122,7074,616742,0
359,1,704844,247720,1343034,73077,8568,671392,0
359,-1,667669,230803,1327993,68990,9023,663851,0
359,1,703979,247032,1348323,73851,8445,674108,0
360,1,730290,252696,1293092,77118,10181,646529,0
360,-1,689523,235344,1289726,72332,8427,644905,0
360,1,707481,247857,1437070,73100,8201,718545,0
360,-1,673872,233593,1331919,69988,8712,666005,0
360,1,711651,249112,1355766,74699,8390,677943,0
361,1,711285,247458,1391083,73594,8801,695572,0
361,-1,667634,230347,1365140,68857,7391,682619,0
361,1,705105,247499,1361274,72937,8253,680654,0
361,-1,669515,232052,1354823,69219,9125,677552,0
361,1,704917,246872,1366988,73768,8498,683538,0
362,1,714740,249036,1281247,74142,9299,640765,0
362,-1,668577,231293,1378617,69189,7205,689066,0
362,1,703461,247265,1266960,72797,7868,633239,0
362,-1,691959,237059,1250887,72683,9740,625015,0
362,1,705256,247125,1462867,73924,8624,731478,0
363,1,709748,247633,1510191,73630,9514,755002,0
363,-1,664295,229227,1213930,68642,7455,607013,0
363,1,704100,247511,1453748,72926,8355,726923,0
363,-1,667028,231332,1245512,68926,8949,622624,0
363,1,704483,247438,1371078,73979,8678,685575,0
364,1,711000,248155,1372751,73817,9782,686423,0
364,-1,667489,230548,1263852,69028,7404,631983,0
364,1,702171,247125,1345640,72758,8626,672865,0
364,-1,670329,232595,1240980,69483,8620,620357,0
364,1,702206,246977,1366269,73861,9312,682879,0
365,1,710790,247877,1511283,73794,9302,755277,0
365,-1,668336,231135,1213969,69199,7326,607023,0
365,1,703314,247491,1274606,72855,8328,637339,0
365,-1,668540,232145,1336029,69270,9286,667938,0
365,1,706650,246974,1268723,73817,8121,634343,0
366,1,713426,249467,1308409,74516,9870,654271,0
366,-1,688944,236010,1294109,72619,8576,647102,0
366,1,702750,247511,1347432,72877,8891,673756,0
366,-1,671447,233786,1341226,70067,8513,670479,0
366,1,730411,251954,1401608,77284,8924,700847,0
367,1,711005,248064,1420654,73793,9764,710249,0
367,-1,668512,231061,1256520,69225,7783,628327,0
367,1,705546,247469,1213001,72868,7713,606545,0
367,-1,687506,236235,1408050,72424,9716,704014,0
367,1,707991,247355,1289915,74012,7803,645010,0
368,1,711645,248890,1424079,74260,9629,711848,0
368,-1,671674,230811,1310705,69070,8810,655440,0
368,1,709071,249227,1239841,73636,8153,619989,0
368,-1,674207,232876,1697994,69537,11307,848966,0
368,1,706665,246900,1368454,73840,8872,684267,0
369,1,708943,247281,1400094,73502,9153,699887,0
369,-1,671939,231769,1421244,69608,8566,710737,0
369,1,704594,247805,1330586,73016,8630,665454,0
369,-1,667563,231777,1317550,69134,9292,658758,0
369,1,710030,247630,1268883,74067,8268,634487,0
370,1,709263,247306,1432465,73538,9163,716095,0
370,-1,669743,230778,1322100,69082,7801,661150,0
370,1,722814,251397,1398071,75932,8865,699005,0
370,-1,669764,231907,1257116,69212,8580,628300,0
370,1,707120,247404,1313763,73993,8976,656922,0
371,1,712429,248569,1539301,74143,10279,769739,0
371,-1,666396,229832,1281034,68691,8429,640609,0
371,1,704795,248295,1350069,73164,8726,675076,0
371,-1,668133,231455,1325938,69039,9387,662838,0
371,1,706763,247505,1252380,74046,8284,626111,0
372,1,708978,247524,1389845,73652,9143,694842,0
372,-1,671538,232076,1325489,69703,7918,662857,0
372,1,700811,247238,1296255,72784,8759,648163,0
372,-1,672597,233578,1329014,69946,9165,664522,0
372,1,704159,246676,1267810,73703,8110,633931,0
373,1,708716,247415,1395181,73586,9542,697509,0
373,-1,687317,234961,1289426,72194,8338,644782,0
373,1,704430,247887,1348333,73030,8249,674161,0
373,-1,688503,236221,1313328,72397,9980,656588,0
373,1,711971,249686,1307266,74968,9446,653700,0
374,1,706566,247478,1326151,73631,9186,663175,0
374,-1,664572,229862,1278513,68549,7882,639341,0
374,1,706658,249293,1334395,73724,8798,667301,0
374,-1,665478,231221,1336114,68965,9169,668014,0
374,1,708760,247683,1351420,74114,8799,675757,0
375,1,710769,249556,1445948,74461,9649,722924,0
375,-1,666644,230954,1184510,68996,7384,592311,0
375,1,724334,252145,1399546,76215,9758,699735,0
375,-1,667387,231777,1602628,69196,10724,801354,0
375,1,706471,247623,1296113,74010,8852,648097,0
376,1,707054,247351,1306567,73543,8961,653077,0
376,-1,670271,231655,1335285,69424,8954,667816,0
376,1,701486,247532,1250072,72877,8341,625043,0
376,-1,667595,231551,1265566,69039,9017,632641,0
376,1,704338,246852,1365848,73779,8523,682953,0
377,1,713207,250119,1400618,74732,9268,699699,0
377,-1,666960,230234,1324987,68865,7689,662367,0
377,1,703353,248144,1340562,73052,9021,670321,0
377,-1,690952,236868,1295137,72645,9806,647529,0
377,1,708026,248674,1475836,74570,8685,737940,0
378,1,707614,247918,1395840,73779,9634,697776,0
378,-1,666521,230312,1390681,68976,8324,695453,0
378,1,704003,248763,1283584,73483,8884,641807,0
378,-1,665025,231696,1243385,69032,8840,621651,0
378,1,708555,247656,1464316,74080,8493,732170,0
379,1,707790,247704,1375572,73680,9232,687642,0
379,-1,666536,230432,1296135,68989,7478,648112,0
379,1,705738,247884,1339223,73011,7855,669655,0
379,-1,673563,232469,1387709,69368,8634,693774,0
379,1,708955,248851,1371970,74716,8842,686139,0
380,1,711565,247865,1277851,73772,8198,638972,0
380,-1,666022,230107,1247746,68872,7608,623930,0
380,1,703816,247443,1371828,72888,8677,686182,0
380,-1,674979,231398,1363188,68946,9243,681603,0
380,1,705361,247250,1274683,73929,8385,637385,0
381,1,712296,248743,1264024,74060,8173,632050,0
381,-1,663482,229570,1334044,68642,8326,667053,0
381,1,704457,248048,1365501,73110,8480,682347,0
381,-1,696127,236374,1344563,72453,10008,672246,0
381,1,706864,248354,1371041,74425,8034,685589,0
382,1,715609,249587,1368041,74510,8341,684081,0
382,-1,663482,230233,1199714,68858,7723,599901,0
382,1,702488,247703,1251768,72995,8527,625832,0
382,-1,677473,232982,1322346,69742,9309,661140,0
382,1,706215,246809,1272137,73816,8534,636123,0
383,1,710259,247807,1276996,73759,7604,638577,0
383,-1,665015,230260,1239210,68938,7284,619640,0
383,1,707002,249700,1207216,73832,8482,603560,0
383,-1,674378,232305,1382124,69380,11191,690419,0
383,1,708124,247718,1364775,74057,8810,682424,0
384,1,708805,247792,1319013,73748,9281,659961,0
384,-1,663405,229598,1351907,68643,8150,675988,0
384,1,704906,248147,1253622,73131,7997,626764,0
384,-1,672650,231975,1268285,69197,9651,634049,0
384,1,704930,247085,1230763,73850,8522,615419,0
385,1,714740,249216,1461961,74297,10448,730878,0
385,-1,662230,229587,1240364,68604,7223,620252,0
385,1,702803,247497,1258478,72897,8218,629252,0
385,-1,696823,236783,1261366,72599,9758,630520,0
385,1,710273,249562,1300273,74937,9317,650350,0
386,1,711596,248480,1385689,73901,9443,692967,0
386,-1,664274,230209,1317273,68839,7895,658684,0
386,1,702155,247677,1214065,72988,8401,606987,0
386,-1,674354,232100,1276620,69222,9566,638304,0
386,1,706047,247030,1304610,73811,9236,652342,0
387,1,709882,248221,1412872,73785,9847,706542,0
387,-1,661801,229764,1189944,68598,7331,595049,0
387,1,703342,248046,1259279,73060,8893,629638,0
387,-1,674358,232352,1297982,69359,8862,648884,0
387,1,703488,246999,1313263,73818,9221,656159,0
388,1,706204,247266,1393448,73336,9093,696501,0
388,-1,714567,244198,1443696,74932,8945,721873,0
388,1,706668,249809,1210767,73884,8634,605462,0
388,-1,675862,233026,1344933,69748,9283,672712,0
388,1,699972,246440,1391761,73665,9363,695903,0
389,1,710627,248678,1414811,73883,9007,707415,0
389,-1,673198,232505,1379384,69798,9524,689441,0
389,1,701986,247634,1319332,72955,8254,659644,0
389,-1,673300,231712,1244308,69139,8397,622034,0
389,1,705446,246907,1302681,73759,9182,651341,0
390,1,710567,248996,1504743,74143,9684,751901,0
390,-1,666037,230303,1308228,68860,7910,654339,0
390,1,704792,247635,1238769,72912,7596,619374,0
390,-1,677192,233571,1423635,69987,9349,711865,0
390,1,705815,247515,1435306,74045,9620,718024,0
391,1,708743,247791,1394042,73557,9656,696610,0
391,-1,669244,231706,1485801,69469,9443,742499,0
391,1,699068,246737,1232215,72577,8084,616098,0
391,-1,675249,233097,1628293,69542,10292,814074,0
391,1,703078,246911,1261744,73816,8043,630877,0
392,1,713525,249997,1319746,74551,9302,659784,0
392,-1,666298,229808,1207350,68652,8307,603689,0
392,1,703099,248048,1364580,73123,7887,682159,0
392,-1,672013,232182,1369056,69302,8524,684335,0
392,1,708316,248821,1359057,74663,8145,679567,0
393,1,708903,247341,1449702,73393,10032,724443,0
393,-1,673026,232985,1277813,70004,9404,638633,0
393,1,705002,249421,1265717,73719,8047,632822,0
393,-1,672122,231450,1365894,69018,8950,682977,0
393,1,703336,247479,1261865,74032,8595,631029,0
394,1,709674,248099,1396839,73671,9855,698460,0
394,-1,685478,234564,1288568,72045,9337,644145,0
394,1,705510,249460,1278190,73713,7603,639129,0
394,-1,693053,237064,1277616,72806,8551,638616,0
394,1,703688,247264,1354908,73931,8253,677531,0
395,1,711545,248731,1399849,73881,9327,700143,0
395,-1,665489,229791,1354775,68552,8834,677052,0
395,1,696659,247069,1313303,72736,7274,656677,0
395,-1,671914,231772,1427871,69269,8888,713931,0
395,1,705197,248103,1401464,74400,8433,700768,0
396,1,707684,247641,1273588,73519,8904,636880,0
396,-1,663473,229754,1297323,68604,8779,647836,0
396,1,712746,247774,1285746,73370,7069,642834,0
396,-1,671573,232101,1652311,69405,10892,826189,0
396,1,704749,248189,1417445,74233,8405,708393,0
397,1,713507,250230,1412388,74647,9183,706304,0
397,-1,668973,232264,1390872,69600,8387,695489,0
397,1,717913,249297,1290952,74104,8123,645226,0
397,-1,670006,231928,1237395,69425,7719,618847,0
397,1,701260,246916,1248788,73730,7665,624407,0
398,1,709743,249240,1386487,74185,8897,693505,0
398,-1,662567,229759,1415549,68670,8326,707418,0
398,1,711107,247320,1349857,73225,7808,674922,0
398,-1,668459,231149,1361547,69127,9031,680865,0
398,1,701826,247398,1389403,73995,7868,694716,0
399,1,712618,248634,1287834,73818,9249,643951,0
399,-1,662717,230232,1457137,68865,8715,728499,0
399,1,711754,247430,1204404,73321,7747,602126,0
399,-1,678562,233531,1318207,70220,8741,659144,0
399,1,701816,246880,1366608,73780,7180,683406,0
400,1,708939,247690,1291570,73480,8402,645857,0
400,-1,663104,229308,1260577,68486,7790,630316,0
400,1,719093,250424,1246371,74442,8224,623048,0
400,-1,695031,236521,1287725,72711,9169,643860,0
400,1,736295,251934,1412116,77292,9366,706120,0
401,1,713788,249990,1375766,74432,9139,688007,0
401,-1,672996,232671,1366056,69850,8923,683071,0
401,1,710887,247421,1277267,73303,8136,638580,0
401,-1,672675,231305,1316230,69268,8306,658107,0
401,1,713743,247490,1241589,74033,8257,620838,0
402,1,710307,248477,1423045,73674,8825,711645,0
402,-1,665965,230284,1251175,68896,8068,625642,0
402,1,731136,251986,1336125,76604,8772,667969,0
402,-1,671464,231204,1215110,69194,8118,607515,0
402,1,716917,249110,1325986,74713,8686,663053,0
403,1,734412,257571,1315374,76340,8662,657739,0
403,-1,663719,229808,1303728,68671,7676,651896,0
403,1,708232,247181,1354299,73200,7797,677182,0
403,-1,670875,231490,1243655,69258,7706,621753,0
403,1,713741,247232,1328800,73945,9337,664456,0
404,1,707603,247924,1299181,73530,9738,649636,0
404,-1,664975,230054,1319904,68762,8606,660035,0
404,1,714367,248079,1415528,73462,9018,707763,0
404,-1,675235,233594,1243499,70230,8073,621953,0
404,1,713805,247215,1299806,73894,9583,649949,0
405,1,708681,247804,1227842,73450,8313,613953,0
405,-1,666274,231000,1216984,69121,7813,608537,0
405,1,711948,248187,1422675,73440,8398,711150,0
405,-1,694882,236791,1325194,72814,9386,662449,0
405,1,713057,247366,1270768,73996,9131,635418,0
406,1,714230,250106,1494845,74404,9354,747527,0
406,-1,661941,229822,1262034,68688,7380,631035,0
406,1,710940,247575,1386573,73315,9051,693236,0
406,-1,672645,231695,1345261,69367,8876,672534,0
406,1,718713,250090,1478554,75057,9011,739111,0
407,1,714191,248623,1300099,73732,8714,650005,0
407,-1,662595,230122,1323634,68781,8067,661688,0
407,1,711389,248000,1568636,73504,9334,784333,0
407,-1,674821,232979,1358160,69895,8910,678992,0
407,1,711629,247494,1263212,74049,8783,631649,0
408,1,710117,247633,1299229,73527,8874,649660,0
408,-1,665008,230454,1250677,68957,7425,625364,0
408,1,715483,249567,1492407,74310,9492,746167,0
408,-1,669520,231395,1490258,69144,9514,745143,0
408,1,708883,246754,1344030,73687,8597,671858,0
409,1,710716,247786,1292845,73498,8466,646470,0
409,-1,668172,232223,1360371,69720,8463,680207,0
409,1,710329,247154,1382116,73293,9051,690728,0
409,-1,672730,231798,1498985,69440,10118,749141,0
409,1,716344,248881,1363648,74649,9134,681820,0
410,1,731432,252189,1341129,76694,9511,670649,0
410,-1,662485,230214,1265077,68825,7890,632596,0
410,1,710244,247871,1432957,73518,9135,716288,0
410,-1,669945,231393,1355409,69143,8928,677300,0
410,1,717224,249590,1441673,74951,9586,720871,0
411,1,710208,248157,1315557,73650,8264,657865,0
411,-1,669486,230921,1321287,69149,9022,660512,0
411,1,711754,248858,1351592,74008,8856,675515,0
411,-1,671559,232385,1343495,69552,8660,671637,0
411,1,756902,260213,1565957,79757,10679,783098,0
412,1,711287,247844,1260104,73550,8667,630102,0
412,-1,668825,231951,1379657,69629,8835,689635,0
412,1,712703,247771,1402932,73482,8877,701412,0
412,-1,674117,232015,1296599,69474,9080,648289,0
412,1,714208,247951,1379273,74170,9149,689686,0
413,1,710666,247343,1302362,73394,8203,651201,0
413,-1,686230,234758,1374983,72017,9555,687059,0
413,1,738152,256856,1398853,76147,9342,699385,0
413,-1,677123,233099,1327602,69977,9044,663698,0
413,1,710493,247434,1362379,73951,9138,681277,0
414,1,713170,248695,1350293,73824,8164,675196,0
414,-1,664220,229991,1260893,68741,7728,630497,0
414,1,731788,252996,1316508,77014,8809,658129,0
414,-1,670997,231174,1230359,69209,7800,615281,0
414,1,711639,247918,1396013,74164,8761,698112,0
415,1,711268,248311,1271927,73641,8109,636002,0
415,-1,666549,231167,1307077,69113,8435,653287,0
415,1,713451,248836,1225985,74008,8669,612988,0
415,-1,671703,231363,1362492,69210,8685,681251,0
415,1,710500,247547,1360967,74060,8846,680449,0
416,1,729397,252056,1476237,76660,9918,738115,0
416,-1,666888,231381,1363001,69369,8182,681502,0
416,1,730946,252657,1486703,76888,9146,743271,0
416,-1,674692,233055,1457608,69967,9357,728681,0
416,1,711915,248261,1274375,74225,8823,637267,0
417,1,709657,248219,1346680,73653,8544,673734,0
417,-1,663717,230507,1315453,68906,7415,657774,0
417,1,708972,247615,1436479,73452,8373,718231,0
417,-1,669769,231463,1290509,69144,8385,645237,0
417,1,711335,246903,1315176,73812,8177,657664,0
418,1,709670,247847,1404548,73475,10454,702260,0
418,-1,661426,229716,1212833,68682,8064,606462,0
418,1,710344,247693,1376956,73400,8373,688513,0
418,-1,671639,232644,1331355,69741,8655,665704,0
418,1,713862,248097,1310806,74415,9323,655485,0
419,1,707796,248057,1350525,73703,8027,675362,0
419,-1,665984,230640,1331614,68933,7823,665886,0
419,1,730893,252151,1378817,76636,9428,689336,0
419,-1,668436,231019,1554256,69059,10919,776773,0
419,1,711656,247122,1221311,73875,8638,610693,0
420,1,713692,249245,1391060,74357,9021,695598,0
420,-1,687217,235271,1358378,72330,9201,679143,0
420,1,715518,250257,1308136,74462,8169,653993,0
420,-1,670707,232422,1662792,69455,10489,831378,0
420,1,709659,247253,1273786,73903,8428,636949,0
421,1,712578,249887,1374557,74547,8307,687368,0
421,-1,661123,229830,1407711,68684,8156,703891,0
421,1,711177,248112,1396492,73570,8419,698201,0
421,-1,667775,231151,1310682,69092,8220,655030,0
421,1,709587,247276,1441308,73907,8902,720695,0
422,1,711484,249753,1389748,74474,8538,694931,0
422,-1,663690,230310,1349625,68850,8755,675336,0
422,1,712263,249185,1377303,74123,8084,688526,0
422,-1,671131,232476,1341693,69706,8879,670937,0
422,1,707482,246694,1259503,73643,8615,629789,0
423,1,709614,248027,1308596,73693,9265,654395,0
423,-1,663565,230582,1411094,68925,7894,705580,0
423,1,710209,246702,1313353,73057,8898,656638,0
423,-1,664461,230242,1317815,68837,8402,658943,0
423,1,732098,252242,1419980,77337,9684,709992,0
424,1,710078,249045,1421897,74391,8911,711023,0
424,-1,659866,229640,1487476,68691,7806,743815,0
424,1,710109,247534,1321256,73388,9246,660564,0
424,-1,677821,232931,1311840,69983,8995,655726,0
424,1,710061,247525,1276764,74006,8546,638460,0
425,1,726276,251785,1368209,76834,9084,684171,0
425,-1,667177,231950,1349046,69661,9128,674585,0
425,1,709139,247557,1348461,73436,8154,674208,0
425,-1,691971,235125,1222612,72253,9386,611237,0
425,1,708704,247398,1236178,73958,8241,618145,0
426,1,708984,248593,1371478,74082,8648,685844,0
426,-1,685972,234529,1347356,72026,8488,673670,0
426,1,708025,247305,1422348,73316,8685,711089,0
426,-1,671503,230916,1274157,69010,8544,636826,0
426,1,711337,247968,1354218,74157,8764,677148,0
427,1,702878,247080,1240977,73382,8631,620567,0
427,-1,662857,229769,1326220,68662,8300,663107,0
427,1,712559,249717,1272686,74286,7981,636280,0
427,-1,670862,231224,1337832,68996,8222,668762,0
427,1,712808,247753,1361804,74072,8087,680928,0
428,1,705819,246761,1291522,73369,8871,645821,0
428,-1,663884,230420,1406712,68946,9467,703308,0
428,1,708385,246975,1278760,73157,8649,639303,0
428,-1,669587,231110,1292918,69020,8686,646486,0
428,1,709328,246922,1333511,73756,8148,666850,0
429,1,713022,249710,1394256,74543,8879,697213,0
429,-1,662411,230332,1270963,68841,8351,635136,0
429,1,708719,247679,1359688,73443,8672,679792,0
429,-1,694873,236880,1331708,73180,10034,665934,0
429,1,714950,248942,1422302,74601,8456,711199,0
430,1,708031,248289,1377265,73852,8568,688667,0
430,-1,666937,232053,1346458,69659,9340,673116,0
430,1,729827,252274,1371721,76737,8993,685775,0
430,-1,670021,230746,1469769,68881,9441,734928,0
430,1,710319,246861,1352961,73633,8472,676577,0
431,1,710154,248737,1404501,74129,8557,702296,0
431,-1,661947,230631,1305701,68933,8991,652911,0
431,1,708124,247478,1368099,73375,8276,684048,0
431,-1,671672,232059,1457599,69538,8148,728810,0
431,1,709761,247281,1260276,73753,8413,630210,0
432,1,705197,247247,1298260,73459,9044,649211,0
432,-1,693616,240834,1534475,72211,10625,766336,0
432,1,709282,248316,1447433,73672,8580,723685,0
432,-1,670900,231540,1597910,69225,10950,798290,0
432,1,709583,247443,1323695,73853,8817,661977,0
433,1,705873,247422,1373007,73547,7975,686555,0
433,-1,660641,229951,1486535,68779,9477,742586,0
433,1,712563,249206,1311392,74135,8556,655676,0
433,-1,670400,231037,1297456,68972,8647,648706,0
433,1,712061,248287,1429440,74064,9114,714744,0
434,1,703115,246735,1362030,73277,8646,681060,0
434,-1,659807,230138,1248530,68821,7904,624332,0
434,1,707230,247381,1351244,73322,8452,675630,0
434,-1,669304,231514,1363808,69171,8523,681894,0
434,1,707703,247053,1288779,73645,8088,644416,0
435,1,708446,248909,1431707,74185,8900,715909,0
435,-1,668923,229856,1223489,68601,7879,611432,0
435,1,708284,247748,1352483,73432,8553,676297,0
435,-1,665987,230620,1242442,68793,7805,621162,0
435,1,709188,247545,1331269,73794,8719,665685,0
436,1,702976,247136,1342330,73400,8631,671075,0
436,-1,670406,230648,1339230,68963,8819,669612,0
436,1,705996,247147,1318040,73324,8543,659034,0
436,-1,670260,231060,1425460,68983,9264,712906,0
436,1,717123,248990,1289079,74510,9643,644596,0
437,1,704232,247293,1279599,73472,7970,639837,0
437,-1,667797,229813,1227731,68665,8713,613843,0
437,1,713074,247845,1367888,73549,9001,683978,0
437,-1,687560,235132,1339740,72274,9467,669783,0
437,1,713440,247773,1225780,73847,8524,612689,0
438,1,704562,247494,1353298,73537,8652,676580,0
438,-1,668756,230461,1349025,68896,8339,674349,0
438,1,710361,247730,1379083,73377,9141,689946,0
438,-1,669704,231124,1352605,69179,9611,676310,0
438,1,717363,249569,1286093,74730,9370,643129,0
439,1,702989,247573,1340353,73546,8626,670210,0
439,-1,667519,230176,1267706,68747,8430,633789,0
439,1,715593,250121,1256297,74539,8784,628275,0
439,-1,668123,231750,1391911,69304,8970,695775,0
439,1,717715,248992,1557163,74394,10975,778194,0
440,1,702190,246848,1429261,73213,8388,714564,0
440,-1,667590,230163,1318683,68788,9138,659255,0
440,1,756422,261293,1397496,79401,10181,698782,0
440,-1,669677,231230,1274755,69151,8609,637227,0
440,1,710311,247070,1352061,73569,10147,675886,0
441,1,711091,247718,1352974,73591,8461,676477,0
441,-1,666749,230216,1245436,68666,8032,622288,0
441,1,710573,248234,1314107,73633,9324,656856,0
441,-1,689160,235654,1300702,72284,9433,650369,0
441,1,713218,248226,1421990,73947,11107,711367,0
442,1,713710,249171,1402134,74225,8977,701126,0
442,-1,687849,234611,1286422,71936,9561,643211,0
442,1,710105,247950,1402413,73506,8574,701463,0
442,-1,668353,231560,1296799,69150,9029,648285,0
442,1,716359,249936,1418576,74782,10801,708874,0
443,1,708018,246974,1252182,73308,7778,626159,0
443,-1,666974,230071,1274584,68668,8422,637219,0
443,1,711007,249293,1376212,74136,9215,688137,0
443,-1,669894,232044,1377041,69479,8664,688551,0
443,1,713818,247658,1602858,73789,10836,801146,0
444,1,704984,246687,1357177,73157,9177,678302,0
444,-1,665422,229751,1214299,68461,8175,607213,0
444,1,710037,248048,1440084,73525,9098,719894,0
444,-1,666969,231298,1273900,69062,8151,636860,0
444,1,711209,247836,1378737,73866,9142,689395,0
445,1,707002,247359,1439819,73419,9446,720289,0
445,-1,665019,229986,1334462,68620,8799,667150,0
445,1,709287,247471,1459603,73379,9295,729874,0
445,-1,664456,230673,1324097,68772,8766,661821,0
445,1,710733,248023,1437191,73935,10126,718618,0
446,1,706780,247353,1367355,73420,9066,683700,0
446,-1,672419,233193,1356343,69917,8897,678046,0
446,1,714729,249985,1520176,74433,9708,759999,0
446,-1,672787,231970,1523521,69332,10080,761773,0
446,1,711476,248275,1484696,73989,9800,742170,0
447,1,705707,247488,1320109,73529,8177,660061,0
447,-1,672388,232007,1404088,69476,9228,701849,0
447,1,709958,247915,1374682,73536,8724,687434,0
447,-1,668377,230611,1322836,68887,8349,661437,0
447,1,712218,247560,1272608,73744,9232,636251,0
448,1,708652,248862,1436870,74037,9146,718423,0
448,-1,667177,230405,1375794,68805,8752,687923,0
448,1,705980,247361,1270577,73398,8095,635338,0
448,-1,671474,232153,1385990,69530,8786,692836,0
448,1,711568,247968,1292672,73882,8572,646331,0
449,1,707993,247751,1408896,73582,9647,704495,0
449,-1,666145,229890,1309451,68640,8105,654772,0
449,1,704528,247267,1349086,73281,8347,674575,0
449,-1,668329,231143,1298382,68953,8340,649175,0
449,1,733154,252566,1343175,77219,10228,671768,0
450,1,705091,246987,1353209,73325,8846,676619,0
450,-1,664938,229628,1263252,68514,7780,631616,0
450,1,705911,247050,1415562,73202,8116,707825,0
450,-1,668112,230637,1388175,68792,9584,694000,0
450,1,729316,251852,1439102,76979,9965,719420,0
451,1,709619,249069,1440979,74188,10011,720500,0
451,-1,670805,232303,1351606,69613,9034,675712,0
451,1,707586,248122,1295535,73617,8301,647882,0
451,-1,688594,235636,1363802,72279,9092,681808,0
451,1,712738,248376,1303615,74036,9316,651684,0
452,1,704048,247292,1386639,73511,8746,693363,0
452,-1,666234,230554,1200853,68860,8203,600267,0
452,1,705354,247272,1267082,73332,8391,633568,0
452,-1,664818,230433,1330035,68734,8174,665053,0
452,1,709607,247851,1315723,73852,9483,657621,0
453,1,721847,251106,1475762,76516,9021,737779,0
453,-1,671803,232063,1362072,69451,9165,681011,0
453,1,712226,250080,1330378,74440,8752,665288,0
453,-1,673265,232725,1348277,69720,8874,673909,0
453,1,710216,247910,1407478,73824,9185,703655,0
454,1,703098,247598,1353595,73497,9524,676844,0
454,-1,666061,230260,1376391,68719,8857,687989,0
454,1,726870,252493,1330874,76820,9308,665394,0
454,-1,668219,230924,1337361,68891,8443,668554,0
454,1,710442,248318,1564493,74029,10565,782130,0
455,1,706825,247155,1422922,73394,8976,711498,0
455,-1,665153,230023,1205224,68669,8601,602515,0
455,1,715744,249145,1256750,74021,8972,628430,0
455,-1,666247,230794,1281121,68922,8250,640563,0
455,1,712896,249641,1320601,74697,9066,660115,0
456,1,708376,247896,1440226,73631,9498,720195,0
456,-1,666031,230616,1255951,68826,8065,627882,0
456,1,712462,247656,1238749,73454,8560,619423,0
456,-1,691444,236779,1331435,72633,9618,665740,0
456,1,708918,247327,1379195,73605,9298,689636,0
457,1,707033,247833,1349966,73544,8465,674826,0
457,-1,664008,230087,1207897,68694,8010,604096,0
457,1,709204,247194,1334262,73257,8802,667180,0
457,-1,668166,230647,1324437,68847,8443,662043,0
457,1,707033,247839,1257427,73858,9440,628705,0
458,1,705288,247224,1517537,73371,9580,758821,0
458,-1,665576,230982,1341976,69205,8707,670985,0
458,1,714350,249587,1430438,74248,9219,715211,0
458,-1,668959,231379,1201093,69123,8133,600396,0
458,1,706432,247627,1316239,73768,9671,658045,0
459,1,705616,246979,1447630,73318,9246,723768,0
459,-1,663549,230433,1296394,68812,8832,648171,0
459,1,711156,247611,1365292,73390,8807,682723,0
459,-1,687861,235593,1232745,72336,9096,616201,0
459,1,720674,249660,1308929,74561,9902,654438,0
460,1,703207,247099,1338284,73422,8072,669015,0
460,-1,666796,230255,1253088,68709,8576,626576,0
460,1,708911,247159,1251453,73250,8712,625758,0
460,-1,666016,231617,1495520,69357,9748,747674,0
460,1,717363,248684,1377346,73994,10053,688583,0
461,1,708178,248880,1606217,74124,10219,802546,0
461,-1,668917,230425,1371863,68824,10042,685941,0
461,1,715181,249969,1312908,74279,9055,656505,0
461,-1,665996,230750,1584290,68970,10215,791359,0
461,1,714580,247948,1324984,73785,9252,662373,0
462,1,702482,246976,1441849,73313,8243,721007,0
462,-1,687823,234695,1303723,72016,10053,651730,0
462,1,709444,247670,1346369,73454,8952,673337,0
462,-1,665730,230926,1406504,69123,8543,703087,0
462,1,713786,247891,1343366,73852,9672,671697,0
463,1,704176,246759,1236137,73207,8175,617978,0
463,-1,665807,230022,1196933,68674,9531,598023,0
463,1,710923,247749,1347316,73486,8289,673701,0
463,-1,664695,230932,1316926,69065,7782,658514,0
463,1,714026,248265,1340578,74015,8734,670615,0
464,1,704715,247866,1493164,73642,10390,746737,0
464,-1,669856,231146,1185527,69042,8356,592778,0
464,1,716040,249517,1309354,74224,9073,654730,0
464,-1,664061,230493,1337973,68883,8076,669010,0
464,1,713556,247674,1345939,73735,9472,672969,0
465,1,721755,251296,1461146,76490,9887,730483,0
465,-1,665758,230847,1289399,68917,9965,644661,0
465,1,709076,247685,1410504,73435,9118,705293,0
465,-1,667670,232547,1467899,69849,9180,733928,0
465,1,712798,248140,1331451,74009,9790,665641,0
466,1,701572,246964,1439786,73290,9032,719929,0
466,-1,672706,232494,1263850,69754,8805,631819,0
466,1,709147,247538,1366160,73384,8511,683124,0
466,-1,683782,235579,1375690,72367,8934,687787,0
466,1,713087,248339,1523833,73994,10030,761922,0
467,1,705089,249439,1411889,74288,8971,705866,0
467,-1,687078,234512,1484401,71953,9208,742206,0
467,1,707173,247237,1423557,73283,8534,711795,0
467,-1,672413,231093,1283044,69068,8601,641390,0
467,1,715778,248851,1568225,74237,10596,782723,0
468,1,708852,247071,1478379,73321,9831,739260,0
468,-1,663828,229549,1322226,68614,8095,661134,0
468,1,714439,250365,1401434,74558,8556,700774,0
468,-1,670923,230923,1291497,69074,8725,645720,0
468,1,719556,250180,1386801,74844,9961,693254,0
469,1,714489,249772,1461787,74387,9436,730971,0
469,-1,664861,229871,1254761,68718,8155,627393,0
469,1,706601,247369,1381206,73320,8022,690636,0
469,-1,671122,231182,1379009,69142,9385,689514,0
469,1,740209,254252,1477084,77746,10439,738299,0
470,1,714722,249727,1416593,74341,10464,708532,0
470,-1,684533,234750,1325585,72049,8654,662819,0
470,1,716808,249634,1248343,74237,8692,624206,0
470,-1,670922,231434,1260459,69218,8019,630236,0
470,1,713765,248069,1328173,73879,9322,664164,0
471,1,707479,247287,1358412,73322,9233,679048,0
471,-1,668911,230507,1493263,68869,8982,746417,0
471,1,711332,247853,1301390,73500,9044,650754,0
471,-1,667942,230732,1299321,68975,7931,649714,0
471,1,738822,257320,1410879,76663,9174,705142,0
472,1,711365,247924,1328388,73508,10231,664097,0
472,-1,668222,231238,1348751,69264,8496,674313,0
472,1,708552,247345,1356462,73366,8304,678265,0
472,-1,673007,231566,1317681,69321,9153,658627,0
472,1,716430,249947,1268964,74647,9110,634482,0
473,1,730104,252768,1424013,76922,9860,711982,0
473,-1,669454,232020,1316102,69701,8376,657994,0
473,1,710300,247254,1401294,73283,9128,700674,0
473,-1,669893,230964,1218966,68982,8167,609514,0
473,1,714256,249118,1319335,74232,9216,659585,0
474,1,706751,247672,1390259,73483,9090,694755,0
474,-1,662311,229601,1333219,68649,8309,666627,0
474,1,708480,247681,1361595,73464,8589,680840,0
474,-1,670521,231531,1350013,69128,9297,675059,0
474,1,713325,249096,1302797,74317,9248,651256,0
475,1,707343,247408,1400992,73314,9656,700308,0
475,-1,665040,231210,1398360,69345,7628,699084,0
475,1,705197,246906,1348667,73118,8426,674350,0
475,-1,668648,230819,1246542,68959,8381,623222,0
475,1,714613,249685,1362514,74746,9541,680909,0
476,1,707604,247683,1375795,73427,8907,687495,0
476,-1,664973,229886,1413980,68747,8116,706851,0
476,1,731720,252642,1336872,76860,9610,668363,0
476,-1,671542,232463,1259384,69741,8535,629532,0
476,1,715784,248599,1292587,74158,8814,646133,0
477,1,729400,252250,1471378,76754,10409,735368,0
477,-1,664133,229844,1224616,68732,7936,612199,0
477,1,708477,247571,1417619,73412,8500,708850,0
477,-1,690201,235688,1240359,72271,9273,620019,0
477,1,713642,248208,1410198,74067,9073,705099,0
478,1,702833,246668,1365198,73032,9393,682438,0
478,-1,691930,239452,1256675,71615,7826,628387,0
478,1,704655,247031,1350080,73139,8408,674975,0
478,-1,668305,230849,1248741,68929,8817,624374,0
478,1,711682,248238,1404321,74157,9231,701960,0
479,1,707222,246816,1333231,73099,10031,666729,0
479,-1,667320,231861,1327365,69648,8146,663640,0
479,1,707272,247297,1316229,73266,8656,658151,0
479,-1,667513,230927,1402222,69023,10606,700563,0
479,1,718526,250393,1322456,75053,9145,661032,0
480,1,715198,250146,1450449,74504,10709,724778,0
480,-1,683884,235157,1347604,72303,8329,673838,0
480,1,710961,249418,1298465,74266,8479,649308,0
480,-1,668206,231470,1270003,69103,9252,634883,0
480,1,717398,249749,1368218,74790,9193,684145,0
481,1,704731,246649,1329049,73110,10170,664565,0
481,-1,662805,229948,1334305,68733,8042,667280,0
481,1,728412,252995,1276218,76972,8892,638130,0
481,-1,691438,235746,1208740,72340,8305,604445,0
481,1,715452,249470,1284072,74703,8648,641963,0
482,1,711389,248999,1309386,74081,9448,654517,0
482,-1,662989,230293,1215195,68890,7646,607640,0
482,1,705710,247507,1249915,73397,8485,624983,0
482,-1,666634,230623,1460624,68884,8179,730000,0
482,1,713176,249004,1689970,74378,10043,844983,0
483,1,706941,247250,1264080,73291,9783,632071,0
483,-1,679765,236742,1254470,70583,8852,627223,0
483,1,705064,247878,1280491,73508,8342,640287,0
483,-1,665944,230553,1292821,68911,7969,646932,0
483,1,709789,247761,1308763,73879,8529,654379,0
484,1,705555,247246,1294504,73343,9325,647277,0
484,-1,726974,250527,1317376,74564,9923,658750,0
484,1,707615,247429,1508471,73395,9422,754280,0
484,-1,672729,233064,1326807,70087,8679,663207,0
484,1,710532,248421,1383942,74180,8811,692089,0
485,1,706463,247369,1451619,73471,9701,725800,0
485,-1,745165,254163,1366360,77299,10316,683126,0
485,1,706231,247359,1355123,73333,8496,677597,0
485,-1,669374,231417,1372825,69231,8594,686462,0
485,1,733807,253556,1429782,77679,9623,714792,0
486,1,708925,248674,1424139,74076,9451,712299,0
486,-1,718824,248352,1293170,73694,8287,646546,0
486,1,732943,252490,1374214,76789,9734,687065,0
486,-1,665881,230459,1304922,68872,7920,652508,0
486,1,708730,247998,1371520,74006,8813,685640,0
487,1,710237,249244,1401437,74293,9094,700497,0
487,-1,718062,248067,1399508,73603,8994,699652,0
487,1,710770,247965,1401090,73540,9813,700619,0
487,-1,669711,232107,1369193,69603,8856,683531,0
487,1,711337,249347,1322109,74656,9301,660942,0
488,1,710421,248454,1490166,73824,10384,744799,0
488,-1,741594,253124,1401898,77049,10487,700793,0
488,1,704022,246902,1440098,73139,9008,720089,0
488,-1,668725,231098,1479993,69009,8547,740503,0
488,1,714417,248501,1368973,74016,9130,684506,0
489,1,705827,246950,1366417,73414,9126,683089,0
489,-1,719496,248186,1328964,73633,9514,664493,0
489,1,710495,248069,1426629,73570,10160,713265,0
489,-1,667135,231151,1437984,69119,7905,718994,0
489,1,736241,253529,1445297,77500,10312,722283,0
490,1,705155,246989,1307068,73347,8715,653195,0
490,-1,720726,248547,1414510,73703,9428,707338,0
490,1,706927,247859,1530091,73546,10758,764989,0
490,-1,670768,232740,1361155,69900,8313,680081,0
490,1,710691,247826,1332427,73813,9081,666139,0
491,1,705432,247436,1369923,73526,8505,684990,0
491,-1,723245,249859,1315133,74177,9050,657585,0
491,1,727305,252054,1375136,76652,9598,687644,0
491,-1,684894,234952,1322908,72181,8169,661301,0
491,1,712056,248600,1409493,74183,9619,704660,0
492,1,703308,246792,1325915,73274,8724,662920,0
492,-1,717936,248455,1286932,73697,8221,643285,0
492,1,704855,246951,1355744,73242,8852,677954,0
492,-1,667868,230723,1286878,68951,8253,643059,0
492,1,720111,250602,1627698,75075,11461,812662,0
493,1,704008,247074,1270992,73424,8346,635500,0
493,-1,721051,248977,1370396,73924,9269,685138,0
493,1,709513,248116,1447824,73572,9403,723916,0
493,-1,667804,230085,1304982,68790,8928,652382,0
493,1,711076,247653,1389031,73750,8895,694488,0
494,1,738376,260071,1282939,76695,8420,641495,0
494,-1,716847,248591,1356210,73779,7757,677827,0
494,1,708309,248107,1589822,73568,10123,794326,0
494,-1,672135,231869,1322976,69540,8801,661659,0
494,1,735625,254388,1523790,77899,11034,761757,0
495,1,762319,265207,1291704,78195,9851,645896,0
495,-1,715762,248454,1373044,73680,8510,686416,0
495,1,708734,247720,1318239,73422,8941,659152,0
495,-1,668506,230716,1245178,69062,8449,622589,0
495,1,714691,248973,1404006,74235,9741,701976,0
496,1,760150,264937,1369299,78130,9523,684659,0
496,-1,721780,248938,1301473,73866,8461,650609,0
496,1,711974,249299,1401269,74127,9250,700669,0
496,-1,668891,230922,1353938,69053,8523,677272,0
496,1,714907,248837,1375302,74147,9230,687578,0
497,1,762742,266088,1454558,78487,9591,727333,0
497,-1,726825,250889,1395125,74695,8885,697576,0
497,1,729780,253304,1421806,76979,9555,710870,0
497,-1,688507,235214,1342885,72299,9407,671013,0
497,1,718602,251046,1325165,75087,9689,662385,0
498,1,767545,267392,1501737,79113,10734,750997,0
498,-1,719696,248522,1366399,73772,8742,683287,0
498,1,712407,249041,1519338,73879,10366,759651,0
498,-1,667983,230810,1300932,69023,8558,649961,0
498,1,737612,257840,1511389,76779,9373,755590,0
499,1,760518,265576,1483955,78323,9945,742000,0
499,-1,719675,248486,1300059,73726,8365,649849,0
499,1,707291,248033,1469502,73449,9875,735367,0
499,-1,667491,231216,1340113,69192,8264,670332,0
499,1,715354,249975,1319826,74725,9142,659724,0
500,1,763910,267221,1441094,79034,9470,720441,0
500,-1,717371,248096,1377353,73576,8727,688717,0
500,1,711516,250179,1435959,74417,10069,718041,0
500,-1,667937,231668,1370422,69569,8557,683913,0
500,1,712961,249250,1397857,74225,9322,698841,0
501,1,760647,266189,1404666,78578,9190,702381,0
501,-1,719367,248928,1249024,73904,6729,624358,0
501,1,707024,248195,1395862,73478,9246,698025,0
501,-1,669432,231295,1296317,69220,8772,648195,0
501,1,712044,248735,1285880,74232,8876,642926,0
502,1,758645,265333,1374201,78259,9462,687154,0
502,-1,715560,247819,1399314,73484,7974,699673,0
502,1,714583,248022,1611061,73425,11085,805573,0
502,-1,668242,230840,1404522,68968,9171,702301,0
502,1,706575,247797,1609385,73833,10543,804589,0
503,1,780365,270102,1568966,81585,10043,784516,0
503,-1,717599,248426,1310533,73659,7967,655313,0
503,1,713561,248224,1438611,73530,9701,719328,0
503,-1,666920,230525,1300413,68970,8031,649876,0
503,1,712324,248001,1380060,73891,9959,690057,0
504,1,759484,265646,1363061,78367,8931,681504,0
504,-1,723583,251083,1411576,74760,8264,705725,0
504,1,717514,249722,1444421,74098,9544,722279,0
504,-1,670351,232505,1343880,69875,7830,671979,0
504,1,711830,248546,1291136,74145,9453,645572,0
505,1,766735,268554,1457923,79555,9374,728953,0
505,-1,719416,248069,1255154,73587,8268,627465,0
505,1,712432,248364,1385830,73446,9631,692962,0
505,-1,665404,230154,1232615,68766,8268,615987,0
505,1,710955,248310,1371141,74091,9640,685582,0
506,1,759678,265799,1319639,78477,8943,659768,0
506,-1,718797,248481,1278749,73756,8694,639418,0
506,1,741755,254570,1425135,77765,10287,712458,0
506,-1,668664,231996,1249317,69620,8576,624700,0
506,1,710718,248469,1571482,74054,10142,785418,0
507,1,757741,265854,1294535,78477,9611,647274,0
507,-1,725335,251273,1330411,74902,9294,665181,0
507,1,714778,248736,1439850,73609,9735,719604,0
507,-1,666553,231067,1228181,69142,8750,614124,0
507,1,708499,247932,1324878,73861,9250,662449,0
508,1,758622,265742,1351015,78355,9505,675512,0
508,-1,736626,252529,1305663,76800,9282,652857,0
508,1,712559,248284,1319301,73431,8585,659693,0
508,-1,669274,230645,1234175,68966,9079,616908,0
508,1,711121,248614,1342235,74148,9825,670979,0
509,1,755688,265322,1326664,78202,8712,663375,0
509,-1,716220,248240,1242498,73647,8405,621279,0
509,1,715457,249609,1471480,74080,9829,735859,0
509,-1,671938,232293,1291369,69685,9347,645926,0
509,1,709241,248205,1439329,74060,9154,719738,0
510,-1,716622,248828,1380746,73890,9090,690431,0
510,1,753470,264567,1356333,78017,9091,677688,0
510,1,707338,246736,1427825,72965,9246,713952,0
510,-1,687942,235324,1248097,72283,9360,624018,0
510,1,711325,247980,1353723,73973,9687,676872,0
511,-1,715690,248751,1300486,73846,8737,650286,0
511,1,782925,270377,1379698,81694,10482,689766,0
511,1,715970,249968,1435456,74270,9854,717808,0
511,-1,667449,230788,1306868,69004,9639,653394,0
511,1,714632,249669,1324867,74685,9606,662364,0
