0,0,5,654805.200000,223599.000000,1235885.200000,67493.400000,7396.600000,618028.000000,20003.594651,7013.842228,73186.797507,2041.781046,887.665387,36618.520997
0,1,1,759214.000000,265550.000000,1355588.000000,78374.000000,8623.000000,677827.000000,0.000000,0.000000,0.000000,0.000000,0.000000,0.000000
1,0,4,639433.000000,219203.500000,1240727.500000,65988.250000,8001.250000,620375.250000,4760.496718,497.597478,94874.847904,352.548844,773.795637,47482.056318
1,1,1,756063.000000,265363.000000,1367483.000000,78330.000000,8440.000000,683775.000000,0.000000,0.000000,0.000000,0.000000,0.000000,0.000000
2,0,4,642976.250000,219586.250000,1216823.000000,66523.750000,7530.500000,608403.750000,11319.870502,1803.430256,37705.375121,1385.202580,645.230385,18853.306771
2,1,1,759833.000000,266403.000000,1345626.000000,78704.000000,8439.000000,672863.000000,0.000000,0.000000,0.000000,0.000000,0.000000,0.000000
3,0,4,639166.000000,219567.500000,1196554.250000,66171.500000,7388.750000,598322.000000,4320.971361,792.216037,51450.296298,392.811978,525.896081,25758.776786
3,1,1,758381.000000,265421.000000,1331622.000000,78322.000000,8639.000000,665860.000000,0.000000,0.000000,0.000000,0.000000,0.000000,0.000000
4,0,4,637607.750000,218400.500000,1262595.750000,65654.500000,7642.750000,631300.500000,2756.711481,353.932550,16868.127984,192.091775,284.717733,8444.469211
4,1,1,759581.000000,265401.000000,1370097.000000,78383.000000,9193.000000,685086.000000,0.000000,0.000000,0.000000,0.000000,0.000000,0.000000
5,0,4,646059.500000,220412.000000,1251075.500000,66923.750000,7659.250000,625567.250000,9167.999577,1930.644970,56669.635178,1256.614375,33.484138,28357.683724
5,1,1,760314.000000,265269.000000,1476784.000000,78285.000000,9206.000000,738433.000000,0.000000,0.000000,0.000000,0.000000,0.000000,0.000000
6,0,4,638559.250000,218341.500000,1262251.000000,65644.500000,7734.000000,631171.500000,2978.750860,306.873345,41734.450883,91.193476,355.416657,20870.720310
6,1,1,761090.000000,266084.000000,1367632.000000,78636.000000,8566.000000,683849.000000,0.000000,0.000000,0.000000,0.000000,0.000000,0.000000
7,0,4,639051.000000,218431.000000,1210061.000000,65639.000000,7085.250000,605081.250000,834.198118,669.222310,28588.859290,236.716075,260.837473,14296.355818
7,1,1,762329.000000,265630.000000,1348831.000000,78388.000000,8924.000000,674461.000000,0.000000,0.000000,0.000000,0.000000,0.000000,0.000000
8,0,4,643915.000000,219800.500000,1190485.750000,66611.000000,7462.750000,595233.750000,8056.585040,2053.721074,30865.731754,1444.095392,418.510678,15491.364972
8,1,1,759152.000000,266725.000000,1434695.000000,78798.000000,9042.000000,717448.000000,0.000000,0.000000,0.000000,0.000000,0.000000,0.000000
9,0,4,639068.500000,218896.750000,1195169.000000,65840.750000,7579.000000,597622.250000,2415.726133,333.676771,38256.151669,63.633226,422.191899,19133.019787
9,1,1,760470.000000,266968.000000,1452060.000000,79005.000000,8628.000000,726107.000000,0.000000,0.000000,0.000000,0.000000,0.000000,0.000000
10,0,4,642406.500000,219641.750000,1206072.250000,66565.250000,7809.750000,603027.000000,10784.743031,1965.665457,19301.026182,1477.496595,461.443049,9689.811195
10,1,1,760537.000000,265569.000000,1504429.000000,78410.000000,8711.000000,752254.000000,0.000000,0.000000,0.000000,0.000000,0.000000,0.000000
11,0,4,644737.750000,220499.250000,1209652.750000,66279.250000,7345.750000,604830.000000,11655.258070,4045.481639,37511.894756,1126.903362,420.233492,18736.140838
11,1,1,782895.000000,271004.000000,1396508.000000,81974.000000,10279.000000,698337.000000,0.000000,0.000000,0.000000,0.000000,0.000000,0.000000
12,0,4,639138.750000,218545.750000,1173952.250000,65720.750000,7572.250000,586950.750000,1167.672980,271.906579,69902.483852,130.689278,212.716214,34898.065744
12,1,1,758789.000000,265570.000000,1439423.000000,78445.000000,9762.000000,719707.000000,0.000000,0.000000,0.000000,0.000000,0.000000,0.000000
13,0,4,646145.500000,220242.250000,1225424.250000,66795.500000,7411.500000,612722.500000,7764.275385,1712.405819,49571.116481,1241.405957,531.942431,24808.240823
13,1,1,763286.000000,266365.000000,1484126.000000,78667.000000,10060.000000,741901.000000,0.000000,0.000000,0.000000,0.000000,0.000000,0.000000
14,0,4,645209.500000,219784.250000,1236659.250000,66570.250000,7480.500000,618345.750000,9429.679488,1934.764504,16966.251389,1384.903494,437.135277,8481.526731
14,1,1,722100.000000,253795.000000,1517303.000000,75463.000000,10194.000000,758495.000000,0.000000,0.000000,0.000000,0.000000,0.000000,0.000000
15,0,4,636735.500000,218634.500000,1172626.500000,65729.500000,7192.250000,586274.250000,2840.328546,301.975578,10441.084103,172.523187,596.455101,5184.232845
15,1,1,706958.000000,247981.000000,1400700.000000,73587.000000,9407.000000,700390.000000,0.000000,0.000000,0.000000,0.000000,0.000000,0.000000
16,0,4,637478.000000,218674.500000,1199128.250000,65783.500000,7431.000000,599619.500000,2386.892017,560.279618,55772.334062,240.323220,383.126611,27879.030511
16,1,1,728193.000000,251785.000000,1485151.000000,76653.000000,9850.000000,742589.000000,0.000000,0.000000,0.000000,0.000000,0.000000,0.000000
17,0,4,638425.750000,218620.250000,1247971.750000,65724.250000,7431.000000,624038.000000,2059.699781,450.025763,51066.245443,197.252852,278.368461,25518.596131
17,1,1,706403.000000,247647.000000,1420759.000000,73502.000000,9357.000000,710614.000000,0.000000,0.000000,0.000000,0.000000,0.000000,0.000000
18,0,4,639638.250000,218994.250000,1234767.000000,65959.750000,7337.000000,617345.500000,3775.939974,1152.615802,68868.680171,466.578705,728.799698,34497.041891
18,1,1,708530.000000,247497.000000,1412392.000000,73614.000000,9167.000000,706222.000000,0.000000,0.000000,0.000000,0.000000,0.000000,0.000000
19,0,4,648633.250000,221015.750000,1222271.000000,67442.500000,7770.250000,611109.000000,12833.852352,2024.559752,21307.162141,1556.467555,646.055483,10620.688914
19,1,1,706188.000000,246970.000000,1402913.000000,73446.000000,9929.000000,701133.000000,0.000000,0.000000,0.000000,0.000000,0.000000,0.000000
20,0,4,637351.500000,218395.250000,1178304.500000,65652.000000,7166.000000,589185.250000,1766.122377,342.161055,35970.443273,91.194846,549.781775,17980.607656
20,1,1,705449.000000,247230.000000,1282164.000000,73509.000000,8045.000000,641094.000000,0.000000,0.000000,0.000000,0.000000,0.000000,0.000000
21,0,4,639870.750000,219511.500000,1210644.750000,66163.500000,7281.750000,605361.500000,2913.600983,627.547807,41894.664883,353.302632,614.802966,20890.372920
21,1,1,728726.000000,252132.000000,1437260.000000,76812.000000,9384.000000,718577.000000,0.000000,0.000000,0.000000,0.000000,0.000000,0.000000
22,0,4,639179.750000,219194.000000,1201119.500000,66018.250000,7207.000000,600472.000000,3417.867345,1070.490308,31051.078166,441.615996,316.435617,15581.136095
22,1,1,706411.000000,247080.000000,1317734.000000,73383.000000,8410.000000,658922.000000,0.000000,0.000000,0.000000,0.000000,0.000000,0.000000
23,0,4,644309.750000,220282.250000,1288432.000000,66822.000000,7709.000000,644282.500000,9155.945346,1849.404820,28480.680882,1301.263809,521.232674,14294.153079
23,1,1,706819.000000,246611.000000,1401461.000000,73105.000000,8424.000000,700810.000000,0.000000,0.000000,0.000000,0.000000,0.000000,0.000000
24,0,4,638123.250000,218873.500000,1192248.250000,65906.000000,7022.000000,596117.750000,3380.293432,883.902285,67918.977383,393.652766,598.673951,33826.850928
24,1,1,711899.000000,249950.000000,1459137.000000,74574.000000,8564.000000,729772.000000,0.000000,0.000000,0.000000,0.000000,0.000000,0.000000
25,0,4,651571.750000,222556.500000,1243628.250000,67493.000000,7775.500000,621872.250000,10577.442824,3504.510558,28040.654498,1324.239216,536.643504,14045.520894
25,1,1,705635.000000,247086.000000,1367479.000000,73369.000000,8202.000000,683833.000000,0.000000,0.000000,0.000000,0.000000,0.000000,0.000000
26,0,4,640361.750000,219700.250000,1290750.500000,66254.500000,7644.500000,645414.500000,3198.106344,1098.308330,44472.511063,522.250180,414.419172,22220.241003
26,1,1,707025.000000,247210.000000,1358181.000000,73407.000000,8270.000000,679143.000000,0.000000,0.000000,0.000000,0.000000,0.000000,0.000000
27,0,4,638353.750000,218714.000000,1235224.250000,65812.500000,7508.000000,617598.750000,2002.870737,614.909343,51954.957961,255.965330,558.371740,25963.641514
27,1,1,716255.000000,250285.000000,1399763.000000,74619.000000,9136.000000,699849.000000,0.000000,0.000000,0.000000,0.000000,0.000000,0.000000
28,0,4,635319.000000,218464.750000,1221996.250000,65717.750000,7053.500000,611035.000000,2915.442762,330.395502,61319.939499,126.246535,564.082662,30652.613469
28,1,1,716305.000000,250157.000000,1372074.000000,74603.000000,9535.000000,685892.000000,0.000000,0.000000,0.000000,0.000000,0.000000,0.000000
29,0,4,637476.750000,219375.250000,1226411.750000,66078.250000,7281.250000,613250.750000,1396.600225,795.446848,50107.449558,329.357234,465.024932,25027.063825
29,1,1,709084.000000,246970.000000,1273061.000000,73296.000000,9307.000000,636565.000000,0.000000,0.000000,0.000000,0.000000,0.000000,0.000000
30,0,4,639621.250000,219268.250000,1217313.000000,66031.500000,7128.250000,608705.500000,2442.453620,947.888278,38231.370921,412.691471,309.865596,19097.310511
30,1,1,723249.000000,251705.000000,1335049.000000,76598.000000,9859.000000,667485.000000,0.000000,0.000000,0.000000,0.000000,0.000000,0.000000
31,0,4,638491.500000,218672.250000,1223477.250000,65752.250000,7076.000000,611778.000000,3284.326757,412.153112,41424.636506,147.872200,177.893226,20741.565985
31,1,1,701095.000000,246836.000000,1308544.000000,73282.000000,8775.000000,654243.000000,0.000000,0.000000,0.000000,0.000000,0.000000,0.000000
32,0,4,638414.000000,218774.500000,1201768.000000,65817.250000,7278.000000,600930.500000,4971.953741,1001.191915,34822.447222,398.614083,464.522873,17421.308181
32,1,1,701605.000000,246741.000000,1342951.000000,73245.000000,8490.000000,671453.000000,0.000000,0.000000,0.000000,0.000000,0.000000,0.000000
33,0,4,647051.750000,221657.500000,1248295.000000,66777.250000,7571.000000,624182.250000,10385.531411,3190.607348,58532.267063,925.839180,279.140646,29294.799234
33,1,1,705397.000000,248116.000000,1382119.000000,73712.000000,8928.000000,691031.000000,0.000000,0.000000,0.000000,0.000000,0.000000,0.000000
34,0,4,645834.000000,221260.250000,1229566.250000,66612.750000,7463.000000,614821.000000,9616.532899,4136.047411,47420.047572,1235.950318,498.790036,23714.694590
34,1,1,733101.000000,257516.000000,1457696.000000,76695.000000,9729.000000,728854.000000,0.000000,0.000000,0.000000,0.000000,0.000000,0.000000
35,0,4,645278.500000,220174.000000,1262929.750000,66770.250000,7831.500000,631426.750000,7659.469907,1893.675131,75229.593012,1346.147907,295.351062,37580.876888
35,1,1,707163.000000,248564.000000,1431484.000000,74161.000000,9082.000000,715663.000000,0.000000,0.000000,0.000000,0.000000,0.000000,0.000000
36,0,4,643602.000000,219766.250000,1233849.250000,66580.250000,7366.750000,616770.250000,10714.387267,2050.241251,83911.606609,1407.689663,974.289581,41725.440353
36,1,1,702844.000000,247547.000000,1326504.000000,73555.000000,8835.000000,663219.000000,0.000000,0.000000,0.000000,0.000000,0.000000,0.000000
37,0,4,643577.000000,219913.000000,1222322.500000,66621.250000,7249.000000,611148.000000,8410.398861,1677.382187,12828.046880,1380.844194,308.472851,6463.140374
37,1,1,704189.000000,247483.000000,1291427.000000,73589.000000,7434.000000,645714.000000,0.000000,0.000000,0.000000,0.000000,0.000000,0.000000
38,0,4,637681.250000,218508.750000,1192740.250000,65673.500000,7324.500000,596396.500000,678.139873,471.912267,60197.535512,231.362810,179.603034,30114.646175
38,1,1,727163.000000,252035.000000,1425201.000000,76922.000000,9723.000000,712543.000000,0.000000,0.000000,0.000000,0.000000,0.000000,0.000000
39,0,4,639463.750000,219453.250000,1280185.000000,66134.750000,7738.500000,640086.000000,1651.482270,1117.552096,38688.080238,469.018856,281.810663,19335.352634
39,1,1,704926.000000,247050.000000,1399931.000000,73466.000000,8312.000000,699893.000000,0.000000,0.000000,0.000000,0.000000,0.000000,0.000000
40,0,4,639927.500000,219170.750000,1196464.250000,65904.250000,7807.500000,598220.250000,2435.038244,311.343359,83876.586013,50.741379,567.583694,41957.186669
40,1,1,711023.000000,248348.000000,1310197.000000,74018.000000,9384.000000,655124.000000,0.000000,0.000000,0.000000,0.000000,0.000000,0.000000
41,0,4,649023.000000,222251.750000,1232390.250000,67008.000000,7850.000000,616097.000000,12818.278804,4476.599735,38467.187266,1422.983485,600.877275,19172.685858
41,1,1,704640.000000,246811.000000,1512337.000000,73359.000000,9616.000000,756114.000000,0.000000,0.000000,0.000000,0.000000,0.000000,0.000000
42,0,4,642259.000000,219841.750000,1284792.250000,66246.750000,7692.750000,642411.000000,1727.418739,629.899347,84444.656585,287.171007,659.626173,42029.662977
42,1,1,707850.000000,248616.000000,1495774.000000,74108.000000,9163.000000,747708.000000,0.000000,0.000000,0.000000,0.000000,0.000000,0.000000
43,0,4,639326.250000,218628.750000,1189661.750000,65692.750000,7213.000000,594858.000000,1233.750051,328.918968,24773.788279,84.502589,444.713953,12360.476103
43,1,1,705215.000000,246809.000000,1349454.000000,73362.000000,9140.000000,674618.000000,0.000000,0.000000,0.000000,0.000000,0.000000,0.000000
44,0,4,641010.500000,219238.500000,1215010.750000,65961.250000,7380.750000,607492.750000,3193.860712,671.349946,48647.204346,349.094095,648.212687,24267.114449
44,1,1,705343.000000,246329.000000,1324094.000000,73234.000000,9373.000000,661987.000000,0.000000,0.000000,0.000000,0.000000,0.000000,0.000000
45,0,4,645584.500000,220440.250000,1190682.250000,66687.750000,7312.500000,595367.750000,10436.950668,1978.392577,57689.141692,1399.001318,442.459885,28836.907700
45,1,1,707034.000000,247496.000000,1577410.000000,73584.000000,10376.000000,788506.000000,0.000000,0.000000,0.000000,0.000000,0.000000,0.000000
46,0,4,639026.500000,219016.500000,1204865.750000,65760.000000,7234.500000,602529.750000,1234.586672,663.024321,29562.617927,227.379638,371.044809,14797.437504
46,1,1,734348.000000,253361.000000,1543201.000000,77780.000000,10805.000000,771583.000000,0.000000,0.000000,0.000000,0.000000,0.000000,0.000000
47,0,4,640076.500000,219296.500000,1187684.000000,65912.750000,7248.000000,593869.000000,1057.826663,932.717937,41781.811336,394.727358,300.535356,20895.258972
47,1,1,712973.000000,249263.000000,1498146.000000,74495.000000,9717.000000,749040.000000,0.000000,0.000000,0.000000,0.000000,0.000000,0.000000
48,0,4,641169.750000,219743.750000,1261120.750000,66185.250000,7333.750000,630557.750000,2993.511097,813.352130,55163.032986,386.020320,475.762217,27571.303219
48,1,1,712217.000000,248119.000000,1495473.000000,73825.000000,10452.000000,747764.000000,0.000000,0.000000,0.000000,0.000000,0.000000,0.000000
49,0,4,644007.000000,220270.000000,1282084.750000,66695.000000,7750.250000,641009.000000,9649.035029,1733.843274,53641.640208,1304.843286,675.000509,26643.932321
49,1,1,701436.000000,246662.000000,1536155.000000,73237.000000,9468.000000,768095.000000,0.000000,0.000000,0.000000,0.000000,0.000000,0.000000
50,0,4,639537.250000,218873.750000,1228427.250000,65748.000000,7557.500000,614265.500000,3856.743858,645.708284,96326.977468,234.329896,505.478733,48202.652845
50,1,1,709343.000000,249227.000000,1631975.000000,74321.000000,11088.000000,815976.000000,0.000000,0.000000,0.000000,0.000000,0.000000,0.000000
51,0,4,643509.250000,219894.750000,1221265.750000,66595.750000,7326.000000,610627.750000,6389.497256,1868.199718,5079.687066,1385.339376,177.904469,2533.153309
51,1,1,705171.000000,247340.000000,1518999.000000,73538.000000,10571.000000,759036.000000,0.000000,0.000000,0.000000,0.000000,0.000000,0.000000
52,0,4,643628.750000,219843.000000,1211300.500000,66524.000000,7563.500000,605659.250000,13018.616312,2632.047492,43598.150818,1601.242174,526.884475,21792.653331
52,1,1,704796.000000,247022.000000,1261459.000000,73440.000000,8139.000000,630734.000000,0.000000,0.000000,0.000000,0.000000,0.000000,0.000000
53,0,4,640452.000000,218503.750000,1199105.750000,65641.250000,7306.250000,599581.750000,1747.472890,78.244409,59319.958827,41.154435,589.597055,29659.101237
53,1,1,709299.000000,248528.000000,1340834.000000,74116.000000,9244.000000,670325.000000,0.000000,0.000000,0.000000,0.000000,0.000000,0.000000
54,0,4,640050.000000,219026.250000,1226572.500000,65886.500000,7451.500000,613279.500000,1693.678393,716.175389,26538.493453,348.155497,265.109883,13236.655365
54,1,1,705400.000000,247849.000000,1323591.000000,73690.000000,9035.000000,661847.000000,0.000000,0.000000,0.000000,0.000000,0.000000,0.000000
55,0,4,646830.500000,220470.000000,1239046.500000,66885.000000,7997.250000,619551.750000,8057.181905,1854.162479,25775.672275,1264.553874,421.756669,12884.238518
55,1,1,706503.000000,247214.000000,1323576.000000,73493.000000,8405.000000,661841.000000,0.000000,0.000000,0.000000,0.000000,0.000000,0.000000
56,0,4,644500.750000,219737.750000,1267122.750000,66498.750000,8323.750000,633458.750000,9420.044384,1680.260155,33193.582673,1327.152285,346.088410,16543.392599
56,1,1,726590.000000,252102.000000,1390607.000000,76876.000000,9773.000000,695293.000000,0.000000,0.000000,0.000000,0.000000,0.000000,0.000000
57,0,4,639373.250000,218712.250000,1220927.750000,65693.750000,7412.500000,610472.250000,2416.198499,233.927740,52969.998199,93.427445,469.166548,26466.790298
57,1,1,709337.000000,249022.000000,1402809.000000,74382.000000,9103.000000,701487.000000,0.000000,0.000000,0.000000,0.000000,0.000000,0.000000
58,0,4,645375.000000,220250.000000,1252499.000000,66726.250000,7968.000000,626300.250000,8774.737688,2206.526569,38306.951882,1451.457780,633.641460,19143.790800
58,1,1,708075.000000,248052.000000,1511705.000000,73743.000000,9494.000000,755617.000000,0.000000,0.000000,0.000000,0.000000,0.000000,0.000000
59,0,4,652422.500000,221253.500000,1253389.750000,67490.500000,8644.500000,626674.000000,8818.725914,1604.762366,47114.445595,1376.439882,490.804187,23542.976267
59,1,1,709289.000000,247994.000000,1318361.000000,73741.000000,9480.000000,659222.000000,0.000000,0.000000,0.000000,0.000000,0.000000,0.000000
60,0,4,642063.000000,219421.500000,1248660.000000,65941.000000,8109.250000,624360.000000,1077.189630,591.576495,50253.230001,252.660840,279.167848,25198.473436
60,1,1,709690.000000,248424.000000,1408097.000000,74076.000000,9635.000000,704149.000000,0.000000,0.000000,0.000000,0.000000,0.000000,0.000000
61,0,4,637085.500000,218362.500000,1310300.250000,65527.750000,7994.500000,654961.250000,1186.958403,243.095146,51259.807171,111.151642,344.508708,25449.614912
61,1,1,709757.000000,247713.000000,1614467.000000,73669.000000,9875.000000,806088.000000,0.000000,0.000000,0.000000,0.000000,0.000000,0.000000
62,0,4,644984.500000,219877.500000,1267812.750000,66516.500000,7518.750000,633835.000000,10287.512953,2200.494774,75968.636441,1507.587725,502.560631,37870.571669
62,1,1,708955.000000,247606.000000,1470066.000000,73672.000000,9877.000000,735076.000000,0.000000,0.000000,0.000000,0.000000,0.000000,0.000000
63,0,4,637755.500000,218607.500000,1251970.250000,65654.000000,7720.750000,626036.500000,1445.421824,39.220530,50539.496868,41.188591,429.188988,25244.899302
63,1,1,710691.000000,248444.000000,1493927.000000,74142.000000,9754.000000,747036.000000,0.000000,0.000000,0.000000,0.000000,0.000000,0.000000
64,0,4,644109.750000,220079.500000,1222533.500000,66645.500000,7610.000000,611213.250000,9050.660373,2107.102928,84672.010465,1484.165169,927.943694,42323.658374
64,1,1,725149.000000,251824.000000,1359732.000000,76842.000000,9174.000000,679882.000000,0.000000,0.000000,0.000000,0.000000,0.000000,0.000000
65,0,4,637627.000000,218161.500000,1202132.250000,65512.250000,7711.750000,601185.750000,1220.889020,223.244821,77074.577837,137.348780,627.491185,38433.667821
65,1,1,704936.000000,247104.000000,1320140.000000,73502.000000,8410.000000,660105.000000,0.000000,0.000000,0.000000,0.000000,0.000000,0.000000
66,0,3,642979.333333,219661.000000,1240614.666667,66173.000000,8148.666667,620266.333333,1970.989656,568.204189,35645.814157,284.256926,339.868929,17778.170460
66,1,1,705089.000000,246535.000000,1293495.000000,73389.000000,8239.000000,646831.000000,0.000000,0.000000,0.000000,0.000000,0.000000,0.000000
67,0,3,641015.666667,218799.666667,1194121.666667,65722.000000,7527.000000,597087.666667,845.754233,146.584068,30711.085103,52.637123,738.558506,15378.207315
67,1,1,706612.000000,247402.000000,1373539.000000,73636.000000,8041.000000,686802.000000,0.000000,0.000000,0.000000,0.000000,0.000000,0.000000
68,0,3,640207.333333,218793.333333,1240049.333333,65673.000000,7195.333333,620061.000000,576.342684,136.433948,4756.002546,61.226356,235.997646,2329.704416
68,1,1,711653.000000,248906.000000,1299876.000000,74255.000000,8906.000000,649973.000000,0.000000,0.000000,0.000000,0.000000,0.000000,0.000000
69,0,3,645552.666667,220981.000000,1328685.666667,66732.000000,7898.333333,664360.333333,247.763776,69.842680,66445.652862,105.416634,632.167875,33293.313887
69,1,1,710629.000000,248447.000000,1239378.000000,73918.000000,8386.000000,619730.000000,0.000000,0.000000,0.000000,0.000000,0.000000,0.000000
70,0,3,639163.000000,218456.333333,1219567.333333,65617.000000,7323.333333,609740.000000,2643.997479,719.158922,15682.355527,175.181810,192.889145,7956.765339
70,1,1,730314.000000,252246.000000,1389760.000000,76973.000000,8515.000000,694868.000000,0.000000,0.000000,0.000000,0.000000,0.000000,0.000000
71,0,3,640021.666667,219140.000000,1231179.000000,65783.333333,7285.000000,615543.000000,657.350405,412.204642,84215.213891,60.802047,877.563673,41962.135511
71,1,1,715731.000000,249845.000000,1434738.000000,74704.000000,8250.000000,717438.000000,0.000000,0.000000,0.000000,0.000000,0.000000,0.000000
72,0,3,640234.000000,219127.666667,1254767.333333,65811.333333,7230.000000,627445.000000,2045.018500,659.262888,11109.231187,169.812315,650.760068,5560.319655
72,1,1,713453.000000,248596.000000,1382108.000000,73979.000000,8481.000000,691144.000000,0.000000,0.000000,0.000000,0.000000,0.000000,0.000000
73,0,3,639765.000000,219104.333333,1283994.666667,65825.000000,8135.000000,642041.666667,1900.384347,680.461771,100554.951349,259.778110,1072.224790,50324.300653
73,1,1,707929.000000,248173.000000,1320576.000000,73890.000000,8953.000000,660333.000000,0.000000,0.000000,0.000000,0.000000,0.000000,0.000000
74,0,3,646145.000000,220617.666667,1249514.333333,66868.333333,7724.000000,624760.333333,9564.390763,2318.613427,50143.205976,1703.820283,156.117477,25101.216974
74,1,1,713750.000000,249935.000000,1403653.000000,74605.000000,9071.000000,701877.000000,0.000000,0.000000,0.000000,0.000000,0.000000,0.000000
75,0,3,639880.333333,219684.666667,1235637.000000,66151.000000,7571.666667,617810.333333,3208.945967,1141.245032,47283.748441,494.704626,208.999734,23511.804586
75,1,1,711089.000000,248222.000000,1339580.000000,73943.000000,8940.000000,669855.000000,0.000000,0.000000,0.000000,0.000000,0.000000,0.000000
76,0,3,640532.000000,219893.666667,1272445.333333,66172.000000,8052.666667,636233.333333,3179.634256,889.216259,75325.395170,326.197282,648.821667,37605.976266
76,1,1,708811.000000,247595.000000,1379318.000000,73620.000000,8473.000000,689699.000000,0.000000,0.000000,0.000000,0.000000,0.000000,0.000000
77,0,3,639521.666667,218609.333333,1260062.666667,65639.333333,7547.333333,629908.333333,1496.042854,593.184251,84076.817044,204.274869,487.019051,41882.972788
77,1,1,715188.000000,250268.000000,1418827.000000,74681.000000,8952.000000,709671.000000,0.000000,0.000000,0.000000,0.000000,0.000000,0.000000
78,0,3,646471.333333,220275.000000,1219803.333333,66764.333333,7504.333333,609901.333333,9710.212230,1882.137615,86816.788612,1531.055700,386.381792,43391.753943
78,1,1,711661.000000,248167.000000,1354927.000000,73740.000000,9045.000000,677452.000000,0.000000,0.000000,0.000000,0.000000,0.000000,0.000000
79,0,3,644085.333333,219883.000000,1252053.000000,66615.666667,7101.333333,626053.000000,9746.941207,2226.962655,66946.700028,1579.134855,501.587701,33452.272937
79,1,1,714799.000000,249293.000000,1430503.000000,74249.000000,9298.000000,715360.000000,0.000000,0.000000,0.000000,0.000000,0.000000,0.000000
80,0,3,639042.333333,218804.333333,1269051.666667,65690.666667,7567.333333,634476.666667,875.176681,260.313059,16332.320948,164.284983,283.438804,8312.338232
80,1,1,710065.000000,247030.000000,1379397.000000,73331.000000,8990.000000,689691.000000,0.000000,0.000000,0.000000,0.000000,0.000000,0.000000
81,0,3,641314.000000,219901.000000,1248141.000000,66257.000000,7482.000000,624162.000000,2997.639182,1177.747285,6087.987024,495.959676,596.333799,3053.669268
81,1,1,728541.000000,251853.000000,1356393.000000,76774.000000,9034.000000,678213.000000,0.000000,0.000000,0.000000,0.000000,0.000000,0.000000
82,0,3,638995.666667,219207.333333,1188876.666667,65829.333333,6983.000000,594518.333333,1772.353301,786.262184,52211.437715,234.494255,594.723465,26127.592482
82,1,1,702884.000000,247051.000000,1318172.000000,73487.000000,9201.000000,659124.000000,0.000000,0.000000,0.000000,0.000000,0.000000,0.000000
83,0,3,639963.666667,219015.666667,1208652.333333,65792.666667,7082.000000,604368.333333,3091.032657,395.294265,25507.395024,125.698935,86.096845,12772.355730
83,1,1,703387.000000,247287.000000,1326023.000000,73501.000000,8808.000000,663038.000000,0.000000,0.000000,0.000000,0.000000,0.000000,0.000000
84,0,3,655192.333333,222647.333333,1209107.333333,68265.666667,7823.333333,604578.666667,11468.459831,1446.184021,30954.501152,1177.024591,312.394338,15503.063984
84,1,1,708509.000000,247904.000000,1249842.000000,73590.000000,8458.000000,624951.000000,0.000000,0.000000,0.000000,0.000000,0.000000,0.000000
85,0,3,641383.000000,219183.000000,1197383.666667,65843.000000,7044.333333,598758.666667,428.778109,542.161108,24708.548566,195.320250,218.717982,12330.344827
85,1,1,732622.000000,257025.000000,1467227.000000,76267.000000,9051.000000,733668.000000,0.000000,0.000000,0.000000,0.000000,0.000000,0.000000
86,0,3,640489.666667,218681.000000,1215447.333333,65653.333333,7141.666667,607785.666667,2364.636735,409.229357,51359.968700,112.671598,282.282758,25666.474506
86,1,1,706080.000000,247838.000000,1309061.000000,73602.000000,8277.000000,654522.000000,0.000000,0.000000,0.000000,0.000000,0.000000,0.000000
87,0,3,640884.000000,218845.333333,1272390.000000,65723.666667,7229.666667,636263.000000,1077.864865,312.021723,65997.411379,105.641953,332.090684,33017.625909
87,1,1,709448.000000,248854.000000,1412091.000000,74097.000000,8573.000000,706146.000000,0.000000,0.000000,0.000000,0.000000,0.000000,0.000000
88,0,3,655293.666667,222224.333333,1288765.333333,68074.333333,7548.666667,644464.333333,10763.992516,1866.824815,26817.265139,1308.410826,517.358247,13402.855674
88,1,1,707676.000000,248041.000000,1491405.000000,73702.000000,10157.000000,745746.000000,0.000000,0.000000,0.000000,0.000000,0.000000,0.000000
89,0,3,639020.000000,218888.333333,1183546.666667,65750.000000,6694.333333,591819.000000,797.997911,366.253403,30836.728667,101.024749,285.378501,15424.026863
89,1,1,712920.000000,248654.000000,1431633.000000,73852.000000,10346.000000,715861.000000,0.000000,0.000000,0.000000,0.000000,0.000000,0.000000
90,0,3,639139.666667,218442.000000,1172572.666667,65620.333333,7152.666667,586329.333333,1816.517792,413.211810,41824.078721,73.676470,508.585839,20899.428738
90,1,1,708519.000000,248295.000000,1470309.000000,73690.000000,9321.000000,735192.000000,0.000000,0.000000,0.000000,0.000000,0.000000,0.000000
91,0,4,641996.750000,219812.750000,1223391.500000,66221.250000,7103.500000,611704.500000,3617.263633,1006.033890,40667.615325,482.705591,284.478910,20365.033986
91,1,1,713141.000000,249127.000000,1321386.000000,74002.000000,8172.000000,660736.000000,0.000000,0.000000,0.000000,0.000000,0.000000,0.000000
92,0,4,643132.000000,219736.500000,1180512.250000,66464.250000,7174.250000,590256.250000,8960.575233,2269.011955,28419.578897,1542.162341,371.015077,14228.393011
92,1,1,730462.000000,252824.000000,1333135.000000,76977.000000,9341.000000,666536.000000,0.000000,0.000000,0.000000,0.000000,0.000000,0.000000
93,0,4,639893.500000,218622.000000,1221769.250000,65636.000000,6794.000000,610903.750000,2020.108104,836.638213,30795.020566,296.911603,441.332641,15382.174300
93,1,1,710394.000000,248140.000000,1433785.000000,73667.000000,9477.000000,716885.000000,0.000000,0.000000,0.000000,0.000000,0.000000,0.000000
94,0,4,639913.250000,218549.000000,1295413.000000,65659.000000,7487.250000,647730.250000,1400.149523,521.885045,111674.460328,193.681439,1011.339304,55775.089374
94,1,1,710963.000000,248375.000000,1296119.000000,73739.000000,8539.000000,648071.000000,0.000000,0.000000,0.000000,0.000000,0.000000,0.000000
95,0,4,642707.750000,219845.500000,1234222.250000,66174.000000,7220.000000,617165.750000,3194.878587,1032.363914,65326.666628,422.875277,230.870093,32650.324817
95,1,1,709782.000000,247660.000000,1413642.000000,73539.000000,8960.000000,706875.000000,0.000000,0.000000,0.000000,0.000000,0.000000,0.000000
96,0,4,645850.500000,219575.250000,1197175.000000,66426.000000,7128.500000,598643.750000,10095.551657,2090.925199,16562.573094,1433.001396,537.970956,8320.314458
96,1,1,708734.000000,247425.000000,1347228.000000,73457.000000,9018.000000,673665.000000,0.000000,0.000000,0.000000,0.000000,0.000000,0.000000
97,0,4,645156.000000,219626.000000,1216116.500000,66448.000000,7554.500000,608100.250000,8442.549348,2306.689619,28894.201750,1558.859679,261.328816,14438.067883
97,1,1,732110.000000,252394.000000,1419229.000000,76941.000000,10351.000000,709657.000000,0.000000,0.000000,0.000000,0.000000,0.000000,0.000000
98,0,4,639839.750000,218767.750000,1184688.000000,65774.000000,7210.250000,592395.250000,2782.079202,920.312006,59303.587455,363.335245,403.752012,29701.897224
98,1,1,706852.000000,248367.000000,1259857.000000,73804.000000,8709.000000,629964.000000,0.000000,0.000000,0.000000,0.000000,0.000000,0.000000
99,0,4,640730.750000,219302.500000,1210799.500000,65923.000000,7202.750000,605439.500000,4821.823378,1215.954049,59635.347943,518.081557,613.302281,29820.382715
99,1,1,706021.000000,247872.000000,1432422.000000,73698.000000,11077.000000,716115.000000,0.000000,0.000000,0.000000,0.000000,0.000000,0.000000
100,0,4,644639.000000,220230.500000,1194956.500000,66565.250000,7096.000000,597488.500000,9830.590115,2469.345004,37914.020372,1556.377425,619.108633,18921.392371
100,1,1,710566.000000,248766.000000,1314338.000000,73932.000000,8192.000000,657223.000000,0.000000,0.000000,0.000000,0.000000,0.000000,0.000000
101,0,4,641327.250000,219661.500000,1278330.250000,66118.250000,7703.000000,639221.250000,2247.629237,778.494862,73539.746146,418.725671,541.290126,36758.772989
101,1,1,703620.000000,246624.000000,1370698.000000,73278.000000,8581.000000,685448.000000,0.000000,0.000000,0.000000,0.000000,0.000000,0.000000
102,0,4,653770.250000,221960.750000,1222867.750000,68112.000000,7800.250000,611457.000000,7296.492252,1226.202751,20197.951138,1231.982143,413.052282,10070.765363
102,1,1,713614.000000,250078.000000,1384592.000000,74650.000000,8836.000000,692371.000000,0.000000,0.000000,0.000000,0.000000,0.000000,0.000000
103,0,4,638728.000000,218479.250000,1281443.500000,65599.500000,7837.000000,640609.750000,2508.305304,507.567422,66897.236073,117.757165,496.056448,33248.748912
103,1,1,709919.000000,248197.000000,1346801.000000,73760.000000,8651.000000,673457.000000,0.000000,0.000000,0.000000,0.000000,0.000000,0.000000
104,0,4,642529.500000,219510.500000,1208033.500000,66361.750000,7509.750000,604011.000000,10673.064005,1825.138008,62679.767870,1310.402109,774.466066,31312.665544
104,1,1,708082.000000,247601.000000,1378201.000000,73522.000000,9143.000000,689145.000000,0.000000,0.000000,0.000000,0.000000,0.000000,0.000000
105,0,4,639910.750000,219068.250000,1233407.500000,65886.750000,7310.250000,616738.750000,3819.229266,1133.241010,40303.090145,498.136214,530.391070,20152.898853
105,1,1,712087.000000,249522.000000,1526721.000000,74374.000000,9892.000000,763327.000000,0.000000,0.000000,0.000000,0.000000,0.000000,0.000000
106,0,4,641369.000000,219429.500000,1237075.000000,66015.750000,7319.000000,618606.750000,3218.087087,623.763777,15896.195976,190.540514,537.232259,7913.344311
106,1,1,708790.000000,247469.000000,1357340.000000,73544.000000,8802.000000,678760.000000,0.000000,0.000000,0.000000,0.000000,0.000000,0.000000
107,0,4,639428.500000,218609.500000,1200278.750000,65652.500000,7107.500000,600174.750000,2741.519880,770.000812,47108.038095,194.593808,542.582021,23544.235392
107,1,1,716076.000000,249744.000000,1407593.000000,74443.000000,9287.000000,703889.000000,0.000000,0.000000,0.000000,0.000000,0.000000,0.000000
108,0,4,645850.250000,220236.500000,1243728.000000,66677.250000,7571.750000,621932.500000,11868.565064,3278.116265,24130.156371,1753.466477,505.256556,12073.123322
108,1,1,713646.000000,249105.000000,1420135.000000,74296.000000,9649.000000,710109.000000,0.000000,0.000000,0.000000,0.000000,0.000000,0.000000
109,0,4,645475.500000,220201.000000,1184803.750000,66649.000000,7317.750000,592437.500000,6946.487512,1736.415129,25667.400505,1369.776442,357.478234,12818.716092
109,1,1,710746.000000,248291.000000,1420090.000000,73849.000000,9325.000000,710153.000000,0.000000,0.000000,0.000000,0.000000,0.000000,0.000000
110,0,4,638122.000000,218355.000000,1238858.500000,65537.250000,7300.750000,619478.250000,2036.771097,890.586043,37346.465030,271.187550,188.471981,18679.351653
110,1,1,732446.000000,252379.000000,1334735.000000,77107.000000,10777.000000,667352.000000,0.000000,0.000000,0.000000,0.000000,0.000000,0.000000
111,0,4,644631.250000,220001.750000,1251896.500000,66529.250000,7443.000000,625945.750000,7042.186783,1517.593551,71034.048714,1282.571319,210.359217,35517.734876
111,1,1,713647.000000,247628.000000,1266988.000000,73725.000000,8780.000000,633514.000000,0.000000,0.000000,0.000000,0.000000,0.000000,0.000000
112,0,4,639108.000000,219082.500000,1207016.500000,65805.500000,7417.750000,603368.250000,2074.064006,746.270226,63301.463058,235.074988,649.865900,31421.006511
112,1,1,712268.000000,250058.000000,1335915.000000,74678.000000,9258.000000,667968.000000,0.000000,0.000000,0.000000,0.000000,0.000000,0.000000
113,0,4,640464.250000,219054.750000,1221147.250000,65829.500000,7279.250000,610646.000000,2518.577612,600.947741,46853.190704,280.815331,319.995605,23450.856893
113,1,1,712580.000000,249871.000000,1422259.000000,74769.000000,9133.000000,711059.000000,0.000000,0.000000,0.000000,0.000000,0.000000,0.000000
114,0,4,645945.000000,220362.750000,1219689.750000,66700.000000,7321.250000,609884.750000,10814.166496,2762.751018,19968.034347,1581.133612,623.167062,9991.875434
114,1,1,706029.000000,246971.000000,1335351.000000,73535.000000,8517.000000,667651.000000,0.000000,0.000000,0.000000,0.000000,0.000000,0.000000
115,0,4,644764.500000,220217.000000,1217683.250000,66665.500000,7472.500000,608873.250000,7361.391258,1807.193266,44002.357342,1371.790891,303.714093,22055.689146
115,1,1,709362.000000,247762.000000,1409275.000000,73812.000000,9491.000000,704842.000000,0.000000,0.000000,0.000000,0.000000,0.000000,0.000000
116,0,4,638520.250000,218506.000000,1195604.750000,65604.250000,7291.500000,597805.750000,3574.666794,1064.991784,35885.712759,429.864732,575.568632,17947.540241
116,1,1,731063.000000,252675.000000,1392170.000000,77181.000000,10068.000000,695974.000000,0.000000,0.000000,0.000000,0.000000,0.000000,0.000000
117,0,4,637091.750000,218392.000000,1176762.500000,65569.000000,7157.750000,588417.250000,3211.885690,817.839838,39218.713833,222.361193,189.299201,19607.917003
117,1,1,713533.000000,249218.000000,1400488.000000,74479.000000,8952.000000,700337.000000,0.000000,0.000000,0.000000,0.000000,0.000000,0.000000
118,0,4,642229.000000,220112.750000,1219463.000000,66370.250000,7816.250000,609671.250000,4062.628152,1522.945070,25394.497248,556.955283,508.596291,12696.304765
118,1,1,710153.000000,248423.000000,1384663.000000,74000.000000,8751.000000,692130.000000,0.000000,0.000000,0.000000,0.000000,0.000000,0.000000
119,0,4,651489.750000,222356.250000,1230240.500000,67278.000000,7846.000000,615164.500000,11153.712978,3757.308902,70043.536092,1459.393367,648.420003,35024.704599
119,1,1,712633.000000,249211.000000,1411469.000000,74246.000000,8894.000000,706294.000000,0.000000,0.000000,0.000000,0.000000,0.000000,0.000000
120,0,4,644703.250000,220116.500000,1199895.750000,66642.750000,7889.750000,599971.500000,8267.622372,1600.680715,32607.592117,1317.858561,338.316697,16301.896600
120,1,1,709437.000000,247763.000000,1334343.000000,73784.000000,9379.000000,667237.000000,0.000000,0.000000,0.000000,0.000000,0.000000,0.000000
121,0,4,638905.500000,219150.500000,1173229.000000,65867.750000,7568.250000,586627.250000,1176.241578,810.517890,37022.911096,353.441915,414.656108,18519.593683
121,1,1,711242.000000,248210.000000,1388469.000000,73934.000000,9181.000000,694291.000000,0.000000,0.000000,0.000000,0.000000,0.000000,0.000000
122,0,4,637425.000000,218527.000000,1203367.000000,65589.000000,7716.500000,601674.250000,2605.339037,936.503337,33725.210844,266.000940,320.706642,16805.867166
122,1,1,708605.000000,247352.000000,1244301.000000,73668.000000,9063.000000,622190.000000,0.000000,0.000000,0.000000,0.000000,0.000000,0.000000
123,0,4,639228.000000,219580.250000,1290719.750000,66020.250000,8382.250000,645323.750000,1402.870807,635.362643,93411.877343,221.556285,745.918687,46572.781533
123,1,1,710155.000000,247439.000000,1175812.000000,73641.000000,8582.000000,587824.000000,0.000000,0.000000,0.000000,0.000000,0.000000,0.000000
124,0,4,637352.000000,218992.750000,1221313.500000,65736.250000,7894.750000,610575.500000,1514.913199,935.977664,23425.294977,309.727602,610.022284,11789.871023
124,1,1,712738.000000,248630.000000,1490190.000000,74057.000000,10145.000000,745135.000000,0.000000,0.000000,0.000000,0.000000,0.000000,0.000000
125,0,4,639400.500000,219405.000000,1254514.000000,66028.500000,8033.500000,627233.500000,4273.688366,1332.206440,127148.059334,523.236323,626.763711,63596.202813
125,1,1,713253.000000,249612.000000,1421497.000000,74654.000000,9453.000000,710670.000000,0.000000,0.000000,0.000000,0.000000,0.000000,0.000000
126,0,4,649338.750000,221165.000000,1249656.000000,67349.500000,8743.250000,624843.750000,13002.947558,2425.331627,27745.438463,1695.972509,503.903451,13932.469655
126,1,1,709046.000000,247497.000000,1396301.000000,73678.000000,9064.000000,698173.000000,0.000000,0.000000,0.000000,0.000000,0.000000,0.000000
127,0,4,643025.750000,219695.500000,1223430.000000,66404.250000,8187.000000,611664.000000,9953.017868,2518.117203,55983.889142,1560.672671,695.345238,28008.380183
127,1,1,711952.000000,248106.000000,1295421.000000,73863.000000,9418.000000,647766.000000,0.000000,0.000000,0.000000,0.000000,0.000000,0.000000
128,0,4,636956.750000,218645.250000,1217364.500000,65642.000000,7970.000000,608640.750000,3273.581019,707.869117,41704.301652,255.218534,302.956267,20732.475303
128,1,1,708942.000000,247220.000000,1531680.000000,73560.000000,9752.000000,765911.000000,0.000000,0.000000,0.000000,0.000000,0.000000,0.000000
129,0,4,636276.750000,218520.750000,1265542.750000,65604.250000,7818.750000,632756.750000,858.639149,699.517825,94313.225887,196.285984,653.465904,47141.104667
129,1,1,709083.000000,247735.000000,1419782.000000,73817.000000,8893.000000,710032.000000,0.000000,0.000000,0.000000,0.000000,0.000000,0.000000
130,0,4,637885.500000,219368.750000,1259987.000000,66005.750000,7678.250000,629899.000000,2716.301760,1163.073810,89375.405949,379.087968,560.209949,44467.513361
130,1,1,710192.000000,247595.000000,1387859.000000,73734.000000,9196.000000,694011.000000,0.000000,0.000000,0.000000,0.000000,0.000000,0.000000
131,0,4,644555.750000,220478.000000,1269535.750000,66779.000000,7807.500000,634760.500000,8610.310749,1690.431158,57914.925189,1252.821416,589.101222,28915.874278
131,1,1,711555.000000,247772.000000,1330972.000000,73789.000000,9337.000000,665565.000000,0.000000,0.000000,0.000000,0.000000,0.000000,0.000000
132,0,4,639148.000000,219182.000000,1243577.250000,65922.500000,7782.750000,621762.000000,6952.706344,1364.161647,25968.878474,487.231208,516.100463,12918.720893
132,1,1,711854.000000,248435.000000,1299221.000000,74003.000000,9146.000000,649718.000000,0.000000,0.000000,0.000000,0.000000,0.000000,0.000000
133,0,4,639878.500000,218839.250000,1212898.500000,65762.500000,7753.500000,606498.750000,3896.876730,676.580880,55453.666702,347.656799,416.223798,27727.005422
133,1,1,709971.000000,247431.000000,1354387.000000,73640.000000,9450.000000,677232.000000,0.000000,0.000000,0.000000,0.000000,0.000000,0.000000
134,0,4,639656.250000,218868.000000,1198350.250000,65760.250000,7054.500000,599204.250000,3250.279709,713.064864,27640.773473,205.537557,373.084776,13824.031944
134,1,1,709175.000000,247523.000000,1377567.000000,73715.000000,8819.000000,688834.000000,0.000000,0.000000,0.000000,0.000000,0.000000,0.000000
135,0,4,641108.000000,219527.250000,1225701.250000,66072.750000,7338.500000,612874.250000,4933.231497,1182.923788,32788.454648,492.658287,303.442334,16380.860774
135,1,1,710749.000000,247601.000000,1393140.000000,73693.000000,8974.000000,696618.000000,0.000000,0.000000,0.000000,0.000000,0.000000,0.000000
136,0,4,637544.500000,218409.750000,1183493.000000,65561.750000,7102.000000,591760.750000,3622.647823,851.859547,43071.255490,279.362108,427.812459,21534.572684
136,1,1,712882.000000,247478.000000,1463474.000000,73687.000000,8854.000000,731748.000000,0.000000,0.000000,0.000000,0.000000,0.000000,0.000000
137,0,4,639818.250000,218618.250000,1230497.500000,65662.750000,7656.250000,615302.000000,3485.781790,810.971447,84696.823519,268.731627,675.612084,42349.407534
137,1,1,733463.000000,252473.000000,1334589.000000,77096.000000,9754.000000,667326.000000,0.000000,0.000000,0.000000,0.000000,0.000000,0.000000
138,0,4,639316.250000,218540.750000,1239158.000000,65668.750000,7904.500000,619614.000000,4060.757342,744.122428,104334.751262,255.952510,1197.222724,52141.664271
138,1,1,704563.000000,247203.000000,1383945.000000,73621.000000,8970.000000,691819.000000,0.000000,0.000000,0.000000,0.000000,0.000000,0.000000
139,0,4,649221.000000,222488.250000,1298720.750000,67072.000000,7897.000000,649403.000000,11638.001439,4711.129980,57704.336628,1567.964445,780.838332,28824.635722
139,1,1,701045.000000,247521.000000,1466075.000000,73717.000000,9168.000000,732741.000000,0.000000,0.000000,0.000000,0.000000,0.000000,0.000000
140,0,4,644057.250000,219911.750000,1214562.750000,66560.250000,7889.250000,607277.250000,11737.281060,2541.521137,20959.425199,1621.013167,335.673483,10380.534196
140,1,1,724443.000000,252459.000000,1460096.000000,77111.000000,10443.000000,729932.000000,0.000000,0.000000,0.000000,0.000000,0.000000,0.000000
141,0,4,638645.000000,218245.750000,1207252.250000,65566.500000,7316.250000,603676.000000,4316.640302,487.794719,41523.737737,182.899563,588.407756,20782.862712
141,1,1,728378.000000,256153.000000,1591067.000000,76215.000000,9832.000000,795666.000000,0.000000,0.000000,0.000000,0.000000,0.000000,0.000000
142,0,4,639656.500000,218809.250000,1219515.250000,65908.500000,7540.500000,609755.250000,3261.723662,872.022756,30021.064058,485.032215,453.214353,15056.858294
142,1,1,706290.000000,248621.000000,1392073.000000,74279.000000,9975.000000,696384.000000,0.000000,0.000000,0.000000,0.000000,0.000000,0.000000
143,0,4,646164.500000,220517.250000,1209863.750000,66925.500000,7461.500000,604941.250000,6310.924556,1103.349304,30339.804526,1069.056009,704.884565,15182.350483
143,1,1,707212.000000,248227.000000,1422162.000000,73940.000000,10336.000000,711075.000000,0.000000,0.000000,0.000000,0.000000,0.000000,0.000000
144,0,4,643493.250000,219589.500000,1213538.000000,66463.000000,7227.750000,606781.750000,8026.770315,2335.301533,32505.516047,1548.852963,105.210206,16275.016457
144,1,1,727286.000000,251949.000000,1311001.000000,76946.000000,10277.000000,655474.000000,0.000000,0.000000,0.000000,0.000000,0.000000,0.000000
145,0,4,637118.250000,218284.000000,1175035.000000,65584.000000,6910.000000,587621.750000,3504.043049,632.644055,20575.807943,286.465530,235.941730,10263.834186
145,1,1,703042.000000,247478.000000,1440304.000000,73617.000000,9570.000000,720080.000000,0.000000,0.000000,0.000000,0.000000,0.000000,0.000000
146,0,4,638136.000000,218793.500000,1240881.750000,65759.750000,7307.750000,620470.000000,3568.974573,723.226970,66571.527421,245.681069,1020.384088,33258.591905
146,1,1,726379.000000,252485.000000,1428328.000000,77131.000000,10355.000000,714279.000000,0.000000,0.000000,0.000000,0.000000,0.000000,0.000000
147,0,4,643250.500000,219969.250000,1253207.500000,66659.000000,7511.750000,626616.500000,12477.261328,2427.676294,79383.960063,1573.912164,519.895362,39677.323401
147,1,1,702872.000000,247324.000000,1486784.000000,73598.000000,9852.000000,742683.000000,0.000000,0.000000,0.000000,0.000000,0.000000,0.000000
148,0,4,637644.500000,218569.500000,1192778.250000,65648.750000,7342.250000,596417.000000,4647.788802,1201.663534,41716.861767,440.989441,320.465579,20849.505833
148,1,1,707366.000000,248652.000000,1387197.000000,74305.000000,9006.000000,693711.000000,0.000000,0.000000,0.000000,0.000000,0.000000,0.000000
149,0,4,640835.000000,219369.750000,1224999.750000,66020.250000,7350.500000,612537.750000,4596.844951,993.704779,52683.009948,465.439241,283.150578,26354.928072
149,1,1,701600.000000,247799.000000,1351143.000000,73802.000000,8727.000000,675647.000000,0.000000,0.000000,0.000000,0.000000,0.000000,0.000000
150,0,4,639043.000000,219176.000000,1193869.500000,65965.000000,7232.000000,596972.750000,4902.868701,1301.515079,60549.155446,556.404080,514.731969,30283.198521
150,1,1,702346.000000,247788.000000,1486799.000000,73682.000000,8842.000000,742593.000000,0.000000,0.000000,0.000000,0.000000,0.000000,0.000000
151,0,4,646554.000000,220529.000000,1251317.000000,66867.000000,7517.000000,625687.500000,10422.969467,2560.578938,37702.402463,1544.540708,148.531142,18835.558878
151,1,1,705080.000000,248822.000000,1393227.000000,74137.000000,8684.000000,696641.000000,0.000000,0.000000,0.000000,0.000000,0.000000,0.000000
152,0,4,638587.000000,218540.250000,1224985.250000,65652.250000,7450.000000,612415.250000,3119.998157,802.490615,85526.781587,247.029730,997.315647,42602.360224
152,1,1,701968.000000,247124.000000,1370217.000000,73485.000000,8109.000000,685168.000000,0.000000,0.000000,0.000000,0.000000,0.000000,0.000000
153,0,4,640056.250000,219020.750000,1202826.250000,65863.500000,7136.000000,601452.000000,3473.993119,1136.212431,42127.705613,432.251374,244.275459,21096.106122
153,1,1,706908.000000,248835.000000,1427599.000000,74325.000000,9313.000000,713863.000000,0.000000,0.000000,0.000000,0.000000,0.000000,0.000000
154,0,4,644673.250000,220005.500000,1217555.750000,66716.250000,7521.250000,608794.500000,11137.682420,2428.430821,34838.725518,1819.823395,321.850412,17445.784670
154,1,1,702214.000000,246694.000000,1304443.000000,73481.000000,8271.000000,651875.000000,0.000000,0.000000,0.000000,0.000000,0.000000,0.000000
155,0,4,650498.250000,221362.000000,1228323.000000,67544.250000,7536.750000,614194.000000,11911.783585,2167.086985,23633.162854,1516.986713,363.505416,11866.364039
155,1,1,707518.000000,249297.000000,1348746.000000,74489.000000,9167.000000,674481.000000,0.000000,0.000000,0.000000,0.000000,0.000000,0.000000
156,0,4,639028.000000,218779.250000,1205221.750000,65771.500000,6943.250000,602656.000000,4402.759760,844.259254,27684.140075,340.075359,282.976479,13840.657625
156,1,1,707044.000000,248669.000000,1383649.000000,74088.000000,8960.000000,691656.000000,0.000000,0.000000,0.000000,0.000000,0.000000,0.000000
157,0,4,643775.250000,219793.500000,1180633.750000,66508.000000,7199.750000,590327.500000,10962.034514,2297.724581,29803.667613,1542.632166,554.712707,14911.180579
157,1,1,707542.000000,248421.000000,1440940.000000,74012.000000,9488.000000,720507.000000,0.000000,0.000000,0.000000,0.000000,0.000000,0.000000
158,0,4,638936.750000,218862.500000,1222573.750000,65780.500000,7226.500000,611276.750000,4023.684715,820.322650,25584.402625,300.062077,504.193663,12795.758133
158,1,1,704227.000000,248039.000000,1461153.000000,73886.000000,9066.000000,730297.000000,0.000000,0.000000,0.000000,0.000000,0.000000,0.000000
159,0,4,639683.750000,219612.250000,1248309.250000,66079.000000,7450.750000,624192.750000,3070.273145,686.809062,18373.413773,302.038905,357.682384,9150.880405
159,1,1,705140.000000,247540.000000,1416210.000000,73651.000000,9576.000000,708147.000000,0.000000,0.000000,0.000000,0.000000,0.000000,0.000000
160,0,4,641511.750000,219205.750000,1221487.500000,66378.500000,7140.000000,610757.250000,6016.512419,1310.642281,68666.624391,1215.737122,503.583657,34347.018913
160,1,1,711690.000000,249767.000000,1450040.000000,74701.000000,9351.000000,725309.000000,0.000000,0.000000,0.000000,0.000000,0.000000,0.000000
161,0,4,638864.250000,218756.500000,1236368.750000,65767.500000,7573.000000,618179.000000,2871.781710,710.690333,74807.549239,353.842126,688.314972,37374.463160
161,1,1,707445.000000,248276.000000,1347106.000000,73900.000000,8858.000000,673696.000000,0.000000,0.000000,0.000000,0.000000,0.000000,0.000000
162,0,4,645013.250000,219885.500000,1188080.500000,66517.500000,7301.000000,594042.500000,9292.011848,1946.424992,59016.406590,1314.220967,777.266685,29569.386809
162,1,1,710397.000000,248931.000000,1521874.000000,74157.000000,9397.000000,760745.000000,0.000000,0.000000,0.000000,0.000000,0.000000,0.000000
163,0,4,645731.000000,220310.750000,1206117.250000,66720.500000,7591.750000,603024.000000,9930.118151,2458.523070,40508.986511,1586.256363,282.332583,20334.877354
163,1,1,707024.000000,247114.000000,1621630.000000,73513.000000,9628.000000,811049.000000,0.000000,0.000000,0.000000,0.000000,0.000000,0.000000
164,0,4,640873.250000,219312.250000,1223664.750000,65946.500000,7353.750000,611854.750000,3359.418281,803.062381,67069.246285,291.603755,465.866062,33562.669414
164,1,1,728199.000000,252089.000000,1407053.000000,76992.000000,10090.000000,704257.000000,0.000000,0.000000,0.000000,0.000000,0.000000,0.000000
165,0,4,648107.250000,220608.250000,1230377.000000,67186.500000,7716.250000,615179.000000,10304.416295,2034.689949,28425.921383,1517.109835,710.692400,14216.335006
165,1,1,707629.000000,247903.000000,1381786.000000,73825.000000,8890.000000,690757.000000,0.000000,0.000000,0.000000,0.000000,0.000000,0.000000
166,0,4,644251.500000,220063.500000,1217287.000000,66611.000000,7288.250000,608664.500000,9266.730856,1860.650088,46139.404184,1385.409506,261.452075,23070.660226
166,1,1,704489.000000,248002.000000,1423225.000000,73821.000000,9577.000000,711425.000000,0.000000,0.000000,0.000000,0.000000,0.000000,0.000000
167,0,4,637894.000000,218816.000000,1243723.750000,65776.250000,7005.750000,621901.000000,1159.767002,445.869936,23807.051879,206.868769,534.730481,11878.826857
167,1,1,725940.000000,252273.000000,1445076.000000,77056.000000,10345.000000,722713.000000,0.000000,0.000000,0.000000,0.000000,0.000000,0.000000
168,0,4,638448.750000,218828.750000,1206749.000000,65760.250000,6969.000000,603377.750000,3781.044788,792.854140,25322.995034,215.803585,667.756318,12709.185583
168,1,1,707039.000000,249327.000000,1454415.000000,74576.000000,9804.000000,727562.000000,0.000000,0.000000,0.000000,0.000000,0.000000,0.000000
169,0,4,637032.000000,218529.250000,1182846.750000,65612.000000,7087.500000,591455.000000,2489.495832,236.669997,53094.816637,46.518813,655.372222,26510.932849
169,1,1,703996.000000,247634.000000,1493072.000000,73720.000000,9760.000000,746272.000000,0.000000,0.000000,0.000000,0.000000,0.000000,0.000000
170,0,4,644742.500000,220417.250000,1253137.500000,66812.750000,7981.250000,626582.500000,8228.517531,1593.913482,42393.765158,1303.310664,448.699997,21180.721122
170,1,1,706105.000000,247992.000000,1344568.000000,73857.000000,8921.000000,672328.000000,0.000000,0.000000,0.000000,0.000000,0.000000,0.000000
171,0,4,644017.500000,220139.500000,1227073.500000,66617.250000,7503.000000,613605.000000,10463.388015,1998.073635,47317.184175,1388.345126,618.240649,23720.147059
171,1,1,707601.000000,248199.000000,1555539.000000,73925.000000,8803.000000,777431.000000,0.000000,0.000000,0.000000,0.000000,0.000000,0.000000
172,0,4,638201.250000,219129.250000,1181979.250000,65813.500000,7255.750000,591003.500000,2885.925534,750.731768,34090.733846,293.787764,296.347241,17058.864272
172,1,1,706476.000000,248044.000000,1422735.000000,73848.000000,8847.000000,711440.000000,0.000000,0.000000,0.000000,0.000000,0.000000,0.000000
173,0,4,637292.750000,218623.750000,1232557.250000,65604.250000,7532.000000,616320.750000,2815.076054,348.034750,46564.793752,181.414408,651.274520,23297.413294
173,1,1,704430.000000,246874.000000,1388642.000000,73464.000000,8741.000000,694570.000000,0.000000,0.000000,0.000000,0.000000,0.000000,0.000000
174,0,4,639521.500000,219526.000000,1223762.250000,66082.500000,7719.250000,611903.500000,1787.553985,630.018651,61348.255005,466.322045,415.693021,30648.361967
174,1,1,706685.000000,248293.000000,1407993.000000,73933.000000,9376.000000,703713.000000,0.000000,0.000000,0.000000,0.000000,0.000000,0.000000
175,0,4,647021.500000,220621.000000,1210902.500000,67183.250000,7781.000000,605380.750000,9147.323611,2017.377629,16109.374375,1698.834361,511.151152,8017.220977
175,1,1,706439.000000,248308.000000,1331035.000000,73944.000000,9626.000000,665151.000000,0.000000,0.000000,0.000000,0.000000,0.000000,0.000000
176,0,4,638657.500000,218881.000000,1208885.000000,65726.250000,7303.750000,604429.500000,2613.217222,789.548922,57480.299473,205.862059,544.050721,28789.808930
176,1,1,705655.000000,247662.000000,1357532.000000,73678.000000,9983.000000,678765.000000,0.000000,0.000000,0.000000,0.000000,0.000000,0.000000
177,0,4,636849.250000,218209.250000,1204871.000000,65497.750000,7623.500000,602444.000000,1748.913288,380.772488,45932.005508,165.780540,531.831975,22950.291534
177,1,1,728226.000000,252336.000000,1325793.000000,77097.000000,9573.000000,662674.000000,0.000000,0.000000,0.000000,0.000000,0.000000,0.000000
178,0,4,643628.000000,220187.000000,1215108.750000,66604.250000,7737.750000,607578.750000,9148.685780,2022.221551,64337.180772,1275.163592,674.764542,32171.189505
178,1,1,709007.000000,248030.000000,1312399.000000,73907.000000,8568.000000,656244.000000,0.000000,0.000000,0.000000,0.000000,0.000000,0.000000
179,0,4,637561.000000,219121.750000,1237227.750000,65857.750000,7592.250000,618624.750000,1036.623123,494.826422,59023.788562,334.894293,652.023916,29480.561421
179,1,1,702323.000000,247109.000000,1298442.000000,73461.000000,8476.000000,649263.000000,0.000000,0.000000,0.000000,0.000000,0.000000,0.000000
180,0,4,644885.750000,220341.750000,1247426.250000,66707.500000,7901.000000,623728.250000,7601.897539,1767.676777,36569.953721,1288.208155,553.717437,18308.498469
180,1,1,706916.000000,248567.000000,1367347.000000,73998.000000,8378.000000,683694.000000,0.000000,0.000000,0.000000,0.000000,0.000000,0.000000
181,0,4,637662.000000,218857.750000,1203796.500000,65711.250000,7395.000000,601904.500000,3822.990126,930.036659,47863.426938,308.396154,671.710875,23985.942888
181,1,1,705444.000000,247917.000000,1230372.000000,73749.000000,8183.000000,615276.000000,0.000000,0.000000,0.000000,0.000000,0.000000,0.000000
182,0,4,639634.250000,218725.500000,1231504.750000,65665.250000,7633.750000,615733.000000,4524.161048,718.192349,22526.456394,432.979431,466.387379,11294.895263
182,1,1,708891.000000,248256.000000,1360411.000000,73870.000000,7729.000000,679972.000000,0.000000,0.000000,0.000000,0.000000,0.000000,0.000000
183,0,4,639738.750000,218581.500000,1194590.500000,65586.500000,7721.500000,597367.500000,3328.337226,306.552198,57554.370436,163.239854,811.231625,28763.784491
183,1,1,712847.000000,249953.000000,1403296.000000,74759.000000,8599.000000,701610.000000,0.000000,0.000000,0.000000,0.000000,0.000000,0.000000
184,0,4,637442.500000,218178.500000,1226412.000000,65437.750000,7843.250000,613214.500000,3558.795688,181.232585,40868.607971,104.413541,333.154150,20477.853458
184,1,1,706627.000000,247483.000000,1389954.000000,73579.000000,8911.000000,695037.000000,0.000000,0.000000,0.000000,0.000000,0.000000,0.000000
185,0,4,646152.500000,220678.750000,1263089.000000,66941.250000,8115.750000,631519.000000,12200.041486,2454.923866,78101.501813,1756.779635,308.505571,39138.060089
185,1,1,707175.000000,247884.000000,1239876.000000,73664.000000,8603.000000,619980.000000,0.000000,0.000000,0.000000,0.000000,0.000000,0.000000
186,0,4,643957.250000,220293.750000,1239237.500000,66696.250000,7965.500000,619661.500000,6949.499204,1332.246294,42117.722437,1318.479688,803.185377,21099.250869
186,1,1,712198.000000,249032.000000,1405879.000000,74313.000000,8698.000000,703029.000000,0.000000,0.000000,0.000000,0.000000,0.000000,0.000000
187,0,4,639672.000000,218502.250000,1167349.500000,65610.500000,7402.250000,583658.500000,2992.146972,364.937923,22591.461590,100.290827,508.295866,11309.731794
187,1,1,710186.000000,248876.000000,1304844.000000,74053.000000,8852.000000,652465.000000,0.000000,0.000000,0.000000,0.000000,0.000000,0.000000
188,0,4,645771.500000,220131.750000,1238027.000000,66672.000000,7857.000000,618944.750000,8577.024003,2206.533183,104319.408542,1351.211863,680.918497,52074.581224
188,1,1,711121.000000,249253.000000,1443924.000000,74427.000000,8696.000000,721940.000000,0.000000,0.000000,0.000000,0.000000,0.000000,0.000000
189,0,4,639459.500000,218492.500000,1206393.750000,65588.000000,7725.000000,603195.500000,3107.793631,527.138739,71647.634728,201.961630,507.198679,35830.196975
189,1,1,711124.000000,248445.000000,1389902.000000,73933.000000,8775.000000,695047.000000,0.000000,0.000000,0.000000,0.000000,0.000000,0.000000
190,0,4,646230.000000,220124.500000,1275548.500000,66554.250000,8495.250000,637738.750000,8720.755099,1475.043135,53240.565613,1256.279900,247.732088,26629.337688
190,1,1,709752.000000,248353.000000,1320611.000000,73906.000000,8822.000000,660346.000000,0.000000,0.000000,0.000000,0.000000,0.000000,0.000000
191,0,4,640626.000000,219051.250000,1271053.000000,65848.500000,8174.750000,635487.000000,4389.391814,1445.127222,59895.380920,539.690884,268.536194,30163.893623
191,1,1,711620.000000,247970.000000,1400148.000000,73785.000000,8885.000000,700158.000000,0.000000,0.000000,0.000000,0.000000,0.000000,0.000000
192,0,4,639628.500000,218664.250000,1207050.500000,65603.750000,7576.750000,603536.250000,3194.331112,398.235091,40118.141598,140.586939,477.591025,20078.613453
192,1,1,703671.000000,247842.000000,1428112.000000,73620.000000,9071.000000,714071.000000,0.000000,0.000000,0.000000,0.000000,0.000000,0.000000
193,0,4,652072.250000,222385.750000,1256421.500000,67275.750000,7689.750000,628247.250000,13056.722643,4335.211377,86305.579143,1750.314025,1004.065330,43174.559768
193,1,1,707165.000000,248005.000000,1298341.000000,73745.000000,8158.000000,649218.000000,0.000000,0.000000,0.000000,0.000000,0.000000,0.000000
194,0,4,638125.250000,218438.500000,1315309.250000,65547.750000,7671.000000,657680.500000,2153.603651,580.437981,50897.275086,214.485868,829.533303,25393.365418
194,1,1,702215.000000,247389.000000,1398421.000000,73544.000000,8157.000000,699246.000000,0.000000,0.000000,0.000000,0.000000,0.000000,0.000000
195,0,4,639893.250000,218961.000000,1320790.000000,65794.750000,7747.500000,660400.500000,3954.834217,1039.317805,61426.025685,482.215914,914.534171,30620.421899
195,1,1,708578.000000,249479.000000,1480887.000000,74440.000000,9157.000000,740430.000000,0.000000,0.000000,0.000000,0.000000,0.000000,0.000000
196,0,4,645428.000000,220266.500000,1231565.000000,66668.000000,7727.750000,615636.250000,8690.966201,1629.098600,32289.483791,1256.064290,439.953620,15942.809827
196,1,1,704587.000000,248225.000000,1284320.000000,73853.000000,8262.000000,642200.000000,0.000000,0.000000,0.000000,0.000000,0.000000,0.000000
197,0,4,643885.500000,220111.000000,1258662.750000,66597.250000,7771.500000,629272.750000,9720.185505,1961.422570,17656.654997,1386.275834,306.457583,8743.003900
197,1,1,727057.000000,252746.000000,1326512.000000,77114.000000,9169.000000,663210.000000,0.000000,0.000000,0.000000,0.000000,0.000000,0.000000
198,0,4,640681.000000,219180.000000,1208626.500000,65867.750000,7637.750000,604262.750000,5584.105479,1445.578431,66319.687154,473.540587,549.292898,33117.026145
198,1,1,711333.000000,249567.000000,1419066.000000,74474.000000,8793.000000,709687.000000,0.000000,0.000000,0.000000,0.000000,0.000000,0.000000
199,0,4,643514.750000,220015.750000,1237538.000000,66561.000000,8185.000000,618818.000000,12150.039987,1994.979245,60979.652750,1291.097789,680.094846,30504.904450
199,1,1,710789.000000,249749.000000,1371312.000000,74614.000000,9083.000000,685686.000000,0.000000,0.000000,0.000000,0.000000,0.000000,0.000000
200,0,4,638728.000000,218495.250000,1241285.250000,65591.000000,7701.750000,620602.250000,469.733435,455.794567,86296.507816,244.226329,551.782283,43146.030671
200,1,1,709974.000000,249071.000000,1457093.000000,74313.000000,9982.000000,728664.000000,0.000000,0.000000,0.000000,0.000000,0.000000,0.000000
201,0,4,638141.500000,218696.500000,1229759.000000,65700.250000,7548.750000,614874.250000,3736.636355,1194.802180,62483.100111,446.477533,474.951774,31191.091039
201,1,1,707873.000000,247826.000000,1313462.000000,73740.000000,9284.000000,656641.000000,0.000000,0.000000,0.000000,0.000000,0.000000,0.000000
202,0,4,646743.750000,220186.750000,1280411.000000,66712.000000,8295.000000,640201.250000,10089.112061,1999.557748,57496.114530,1413.866330,883.879800,28760.308494
202,1,1,704686.000000,247898.000000,1375912.000000,73739.000000,9078.000000,687874.000000,0.000000,0.000000,0.000000,0.000000,0.000000,0.000000
203,0,4,640198.250000,218936.250000,1256287.750000,65806.750000,7769.750000,628144.250000,3050.681266,1008.912131,77690.966149,414.824285,801.535207,38805.559108
203,1,1,705584.000000,248368.000000,1427984.000000,73855.000000,9096.000000,713973.000000,0.000000,0.000000,0.000000,0.000000,0.000000,0.000000
204,0,4,640806.500000,219466.750000,1246161.500000,66037.750000,7966.250000,623094.000000,3784.188255,1168.327089,23312.176019,456.736453,520.485531,11629.348756
204,1,1,705715.000000,247989.000000,1436723.000000,73770.000000,9546.000000,718526.000000,0.000000,0.000000,0.000000,0.000000,0.000000,0.000000
205,0,4,644678.750000,220353.000000,1273428.250000,66773.000000,7961.250000,636712.000000,10064.923357,1965.526011,38885.805600,1317.381494,1042.304988,19468.063746
205,1,1,704823.000000,247770.000000,1604158.000000,73649.000000,10227.000000,801904.000000,0.000000,0.000000,0.000000,0.000000,0.000000,0.000000
206,0,4,649904.000000,221214.750000,1242391.000000,67434.250000,8129.500000,621256.250000,8127.568486,1837.261464,19177.196393,1504.019178,581.805165,9543.734578
206,1,1,702555.000000,246871.000000,1349676.000000,73418.000000,9357.000000,674881.000000,0.000000,0.000000,0.000000,0.000000,0.000000,0.000000
207,0,4,639255.500000,219111.750000,1247815.750000,65837.250000,7929.500000,623817.250000,3383.898528,997.804183,73328.799010,401.466920,748.675664,36505.900334
207,1,1,707827.000000,248269.000000,1325651.000000,73835.000000,8549.000000,662915.000000,0.000000,0.000000,0.000000,0.000000,0.000000,0.000000
208,0,4,639688.500000,219298.000000,1216212.750000,65928.500000,7880.500000,608101.750000,2627.737858,1022.079498,33230.003486,459.956791,543.620042,16553.876183
208,1,1,703058.000000,247533.000000,1271057.000000,73651.000000,8280.000000,635550.000000,0.000000,0.000000,0.000000,0.000000,0.000000,0.000000
209,0,4,645504.500000,221252.750000,1263893.500000,66472.500000,7756.250000,631979.000000,10379.938957,4038.755029,80563.259820,1190.634600,609.816929,40286.605684
209,1,1,706123.000000,248131.000000,1360962.000000,73776.000000,8332.000000,680527.000000,0.000000,0.000000,0.000000,0.000000,0.000000,0.000000
210,0,4,643864.750000,220050.500000,1256491.000000,66636.750000,7702.500000,628257.250000,8992.700662,1694.035050,35525.853325,1259.570239,519.754509,17694.959231
210,1,1,705499.000000,247375.000000,1372137.000000,73525.000000,7899.000000,686059.000000,0.000000,0.000000,0.000000,0.000000,0.000000,0.000000
211,0,4,637362.000000,218549.000000,1260508.500000,65624.250000,7498.000000,630346.250000,3408.461310,641.425366,62694.753307,218.242268,602.555807,31395.127953
211,1,1,710207.000000,249022.000000,1365100.000000,74135.000000,8292.000000,682620.000000,0.000000,0.000000,0.000000,0.000000,0.000000,0.000000
212,0,4,646280.000000,220860.250000,1238869.000000,67001.000000,7558.500000,619429.000000,8178.383489,1734.253784,61717.239832,1303.882280,456.971279,30825.097413
212,1,1,707577.000000,247415.000000,1375355.000000,73550.000000,8743.000000,687729.000000,0.000000,0.000000,0.000000,0.000000,0.000000,0.000000
213,0,4,647336.750000,220628.250000,1234394.500000,67244.000000,7819.750000,617180.250000,12501.892604,2691.027441,41270.818471,1701.684900,660.265998,20583.801488
213,1,1,711617.000000,249274.000000,1395097.000000,74348.000000,8717.000000,697670.000000,0.000000,0.000000,0.000000,0.000000,0.000000,0.000000
214,0,4,640081.250000,219091.750000,1206908.500000,65853.750000,7651.750000,603435.000000,3330.293484,752.009433,65655.976965,323.446576,853.477995,32786.271471
214,1,1,732751.000000,252886.000000,1421003.000000,77169.000000,9676.000000,710453.000000,0.000000,0.000000,0.000000,0.000000,0.000000,0.000000
215,0,4,638263.750000,218645.750000,1231919.750000,65721.750000,7848.250000,615905.750000,1110.800472,1029.548293,59997.551777,492.292786,588.904226,29919.287720
215,1,1,704604.000000,248441.000000,1374343.000000,73958.000000,8582.000000,687255.000000,0.000000,0.000000,0.000000,0.000000,0.000000,0.000000
216,0,4,639768.000000,219492.000000,1284507.750000,66071.500000,7763.250000,642121.000000,4052.782933,1050.771383,96572.791607,434.072287,867.138217,48114.289265
216,1,1,703875.000000,247626.000000,1366991.000000,73609.000000,8866.000000,683543.000000,0.000000,0.000000,0.000000,0.000000,0.000000,0.000000
217,0,4,647439.500000,220648.000000,1295500.250000,67256.500000,8262.000000,647634.500000,9188.175186,1987.231114,47402.986870,1623.544348,764.400746,23657.039338
217,1,1,709894.000000,249950.000000,1383638.000000,74593.000000,8680.000000,691931.000000,0.000000,0.000000,0.000000,0.000000,0.000000,0.000000
218,0,4,636763.250000,218533.000000,1247494.750000,65628.500000,7571.250000,623698.500000,1630.249272,416.102752,45215.114361,171.827675,759.709607,22555.176396
218,1,1,708253.000000,248911.000000,1286256.000000,74102.000000,8234.000000,643153.000000,0.000000,0.000000,0.000000,0.000000,0.000000,0.000000
219,0,4,637098.500000,218648.500000,1243020.500000,65667.000000,7604.750000,621465.500000,1138.377464,278.264712,40436.267499,175.232702,539.006204,20169.689369
219,1,1,707690.000000,248830.000000,1235616.000000,74053.000000,8261.000000,617874.000000,0.000000,0.000000,0.000000,0.000000,0.000000,0.000000
220,0,4,636852.250000,218711.750000,1240876.750000,65718.500000,7599.500000,620439.750000,1506.316098,549.396658,60810.453840,267.412135,740.066720,30379.507051
220,1,1,705206.000000,247489.000000,1279325.000000,73578.000000,8446.000000,639697.000000,0.000000,0.000000,0.000000,0.000000,0.000000,0.000000
221,0,4,638172.000000,218667.500000,1239089.000000,65732.750000,7811.750000,619464.000000,3336.760854,860.664133,65543.022790,386.265695,373.340578,32837.261480
221,1,1,705415.000000,247565.000000,1342211.000000,73644.000000,8398.000000,671181.000000,0.000000,0.000000,0.000000,0.000000,0.000000,0.000000
222,0,4,641519.500000,219517.500000,1237550.500000,66382.750000,7879.750000,618700.000000,6787.881463,1796.084700,79873.970649,1481.039901,548.761048,39915.745321
222,1,1,706681.000000,247989.000000,1468173.000000,73675.000000,9577.000000,734179.000000,0.000000,0.000000,0.000000,0.000000,0.000000,0.000000
223,0,4,644291.000000,220210.500000,1266110.000000,66735.250000,8208.250000,633012.750000,10391.297296,2025.855066,86490.621414,1350.986006,736.526434,43244.442420
223,1,1,707925.000000,247737.000000,1284758.000000,73749.000000,8261.000000,642426.000000,0.000000,0.000000,0.000000,0.000000,0.000000,0.000000
224,0,4,641190.000000,219406.750000,1244174.000000,66378.750000,7851.250000,621967.250000,8577.850925,2543.344390,67757.225316,1563.587601,677.988339,33870.182642
224,1,1,713878.000000,249604.000000,1364625.000000,74584.000000,8643.000000,682387.000000,0.000000,0.000000,0.000000,0.000000,0.000000,0.000000
225,0,4,649163.250000,221745.000000,1274119.750000,66973.250000,7987.750000,637133.750000,16252.814624,5075.639221,38707.476645,2137.662084,587.055949,19348.316831
225,1,1,705387.000000,248091.000000,1389020.000000,73764.000000,9218.000000,694582.000000,0.000000,0.000000,0.000000,0.000000,0.000000,0.000000
226,0,4,651630.250000,222871.250000,1224118.500000,66868.500000,7822.250000,612090.750000,19985.922150,6382.152512,61788.420171,1607.401863,572.655819,30887.343916
226,1,1,706238.000000,248195.000000,1228125.000000,73853.000000,8594.000000,614108.000000,0.000000,0.000000,0.000000,0.000000,0.000000,0.000000
227,0,4,657185.750000,224277.250000,1242077.750000,67746.000000,7974.750000,621114.000000,21337.002453,7594.499403,32468.751473,2289.797153,356.030459,16270.277425
227,1,1,705271.000000,247144.000000,1296054.000000,73477.000000,8477.000000,648066.000000,0.000000,0.000000,0.000000,0.000000,0.000000,0.000000
228,0,4,653788.000000,223817.750000,1267688.750000,67312.250000,7634.750000,633777.000000,21761.548049,7236.686375,38804.287382,1875.171376,708.731393,19341.035081
228,1,1,710979.000000,248934.000000,1413986.000000,74097.000000,10151.000000,707034.000000,0.000000,0.000000,0.000000,0.000000,0.000000,0.000000
229,0,4,662117.750000,225470.000000,1244884.000000,68564.000000,7769.750000,622455.250000,18876.592627,6517.311447,32234.883923,1670.067065,621.748492,16016.724780
229,1,1,708909.000000,248339.000000,1351623.000000,73896.000000,8555.000000,675808.000000,0.000000,0.000000,0.000000,0.000000,0.000000,0.000000
230,0,4,652567.000000,223626.000000,1314153.000000,67118.250000,8044.500000,657085.500000,22824.426860,7683.444117,94629.473258,2025.695729,673.063704,47384.916216
230,1,1,713056.000000,249692.000000,1399057.000000,74543.000000,9011.000000,699608.000000,0.000000,0.000000,0.000000,0.000000,0.000000,0.000000
231,0,4,650840.000000,223255.000000,1296920.000000,67011.000000,8007.750000,648591.250000,25516.228434,8678.417050,97746.363546,2495.329537,938.218891,48858.034664
231,1,1,706822.000000,248023.000000,1298218.000000,73802.000000,8303.000000,649161.000000,0.000000,0.000000,0.000000,0.000000,0.000000,0.000000
232,0,4,652863.250000,223909.750000,1236440.250000,67228.750000,7477.000000,618133.000000,21987.305853,7918.906313,37258.491659,2118.013972,455.817946,18554.406539
232,1,1,706769.000000,247211.000000,1457212.000000,73446.000000,9452.000000,728554.000000,0.000000,0.000000,0.000000,0.000000,0.000000,0.000000
233,0,4,659198.750000,225629.000000,1263740.000000,67706.750000,7926.000000,631848.500000,33871.641726,11738.477052,25754.132940,3239.380371,766.551694,12674.223260
233,1,1,711146.000000,248383.000000,1427736.000000,73886.000000,10207.000000,713771.000000,0.000000,0.000000,0.000000,0.000000,0.000000,0.000000
234,0,4,656517.500000,224405.250000,1264025.500000,67794.250000,7861.000000,632012.250000,30517.396485,9806.646149,54722.886065,3515.773128,700.915473,27332.133866
234,1,1,713274.000000,249435.000000,1609524.000000,74421.000000,10622.000000,804541.000000,0.000000,0.000000,0.000000,0.000000,0.000000,0.000000
235,0,4,651636.500000,223067.750000,1287975.750000,66992.000000,7975.000000,643785.250000,20722.411690,7436.260935,81885.469481,1910.606710,1104.619165,40486.362342
235,1,1,711289.000000,249553.000000,1524833.000000,74500.000000,10135.000000,762413.000000,0.000000,0.000000,0.000000,0.000000,0.000000,0.000000
236,0,4,650022.750000,222858.750000,1191628.250000,66848.750000,7585.750000,595814.500000,21335.124752,7810.960420,17825.004521,2067.595751,642.921992,8932.883367
236,1,1,710590.000000,248270.000000,1453915.000000,73859.000000,9568.000000,726941.000000,0.000000,0.000000,0.000000,0.000000,0.000000,0.000000
237,0,4,655588.000000,223941.000000,1286370.750000,67631.250000,7874.250000,643099.250000,23446.614350,7837.070467,70568.461572,2266.986257,550.117431,35229.705657
237,1,1,715598.000000,249603.000000,1568288.000000,74576.000000,10704.000000,784238.000000,0.000000,0.000000,0.000000,0.000000,0.000000,0.000000
238,0,4,653820.500000,223645.000000,1262427.500000,67224.500000,7952.250000,631185.000000,23163.152036,7192.289448,49174.669137,1810.133766,717.116927,24534.712297
238,1,1,710563.000000,247919.000000,1405778.000000,73753.000000,9591.000000,702933.000000,0.000000,0.000000,0.000000,0.000000,0.000000,0.000000
239,0,4,656827.250000,224388.500000,1240351.000000,67847.500000,7901.500000,620208.250000,26243.143098,8309.187220,39676.909185,2471.211899,798.912542,19829.241115
239,1,1,704740.000000,248505.000000,1517139.000000,73901.000000,9239.000000,758599.000000,0.000000,0.000000,0.000000,0.000000,0.000000,0.000000
240,0,4,658341.000000,224558.500000,1287420.250000,67849.500000,8347.500000,643780.000000,33406.898786,9945.878556,31247.349371,3543.673059,604.646384,15651.876134
240,1,1,704952.000000,248296.000000,1481685.000000,73791.000000,9425.000000,740901.000000,0.000000,0.000000,0.000000,0.000000,0.000000,0.000000
241,0,4,652372.250000,223558.750000,1248146.250000,67077.250000,7916.000000,624025.750000,23286.034735,7519.572507,37597.581647,1968.540243,487.337152,18772.032101
241,1,1,706605.000000,248127.000000,1393619.000000,73783.000000,9017.000000,696904.000000,0.000000,0.000000,0.000000,0.000000,0.000000,0.000000
242,0,4,652304.750000,223395.500000,1286982.500000,67106.000000,8428.500000,643491.750000,26663.966906,8508.191303,70129.988024,2388.475246,169.594369,35064.935907
242,1,1,705169.000000,248377.000000,1539947.000000,73864.000000,9217.000000,770001.000000,0.000000,0.000000,0.000000,0.000000,0.000000,0.000000
243,0,4,655536.750000,223966.000000,1209760.250000,67664.500000,7778.250000,604871.750000,23031.967625,7603.440570,11332.706746,2180.401167,615.100144,5617.014749
243,1,1,725980.000000,252330.000000,1497287.000000,76908.000000,9581.000000,748606.000000,0.000000,0.000000,0.000000,0.000000,0.000000,0.000000
244,0,4,651123.250000,223441.500000,1246062.500000,67148.750000,7662.500000,623074.250000,22901.108154,7387.044554,43219.026392,1859.891983,443.912435,21664.533325
244,1,1,709251.000000,248977.000000,1331638.000000,74053.000000,9053.000000,665884.000000,0.000000,0.000000,0.000000,0.000000,0.000000,0.000000
245,0,4,650850.500000,223040.750000,1246700.750000,66964.250000,7668.500000,623400.250000,22966.511147,7644.927906,27520.633045,1977.493284,413.524788,13623.616891
245,1,1,726656.000000,252403.000000,1469936.000000,77017.000000,9719.000000,734941.000000,0.000000,0.000000,0.000000,0.000000,0.000000,0.000000
246,0,4,656109.250000,224053.000000,1258407.250000,67713.000000,8208.250000,629116.750000,33282.337947,9913.132678,61194.686184,3551.181142,910.674029,30531.525505
246,1,1,703333.000000,247610.000000,1429933.000000,73583.000000,8829.000000,714456.000000,0.000000,0.000000,0.000000,0.000000,0.000000,0.000000
247,0,4,650822.750000,223160.000000,1288547.750000,66945.500000,8001.750000,644306.000000,24875.047350,8371.236587,57907.078818,2354.571564,925.215482,28965.305082
247,1,1,706649.000000,248636.000000,1560279.000000,73926.000000,10352.000000,780006.000000,0.000000,0.000000,0.000000,0.000000,0.000000,0.000000
248,0,4,652315.750000,223864.250000,1300720.250000,67336.500000,7764.750000,650261.500000,21979.353441,7352.403565,75916.858248,1861.622209,561.479463,37741.285541
248,1,1,726233.000000,252140.000000,1513553.000000,76877.000000,10708.000000,756684.000000,0.000000,0.000000,0.000000,0.000000,0.000000,0.000000
249,0,4,661628.000000,225574.500000,1304549.250000,68654.250000,8018.500000,652335.500000,19740.206496,6904.199682,89356.718014,1801.485828,968.594988,44674.667858
249,1,1,706106.000000,248218.000000,1538109.000000,73793.000000,8685.000000,769102.000000,0.000000,0.000000,0.000000,0.000000,0.000000,0.000000
250,0,4,653983.000000,223722.000000,1278600.750000,67578.000000,7795.750000,639285.000000,22204.434433,7270.274720,62159.174622,2064.197544,757.282106,31019.954650
250,1,1,705773.000000,248102.000000,1393860.000000,73806.000000,8254.000000,697015.000000,0.000000,0.000000,0.000000,0.000000,0.000000,0.000000
251,0,4,656942.250000,223691.250000,1261781.000000,67534.250000,7559.000000,630907.750000,30970.690510,9762.015119,33678.461478,3505.532797,473.247821,16821.877665
251,1,1,706817.000000,248076.000000,1392864.000000,73806.000000,8742.000000,696518.000000,0.000000,0.000000,0.000000,0.000000,0.000000,0.000000
252,0,4,655187.750000,224031.500000,1231137.500000,67386.250000,7741.500000,615562.250000,21756.515316,7279.392299,47827.003965,1828.285450,227.708695,23815.928760
252,1,1,710084.000000,248871.000000,1489115.000000,74059.000000,9132.000000,744595.000000,0.000000,0.000000,0.000000,0.000000,0.000000,0.000000
253,0,4,652895.000000,223164.500000,1212861.750000,66942.250000,7436.000000,606461.000000,21972.836492,7558.171753,68755.293750,1970.339739,191.343931,34394.404516
253,1,1,710427.000000,248221.000000,1464823.000000,73797.000000,9176.000000,732408.000000,0.000000,0.000000,0.000000,0.000000,0.000000,0.000000
254,0,4,652402.250000,223233.000000,1221984.250000,67009.750000,7349.750000,611022.750000,21492.472245,7489.171783,55660.950407,1952.923114,686.979394,27840.754402
254,1,1,725976.000000,252182.000000,1407187.000000,76922.000000,10072.000000,703677.000000,0.000000,0.000000,0.000000,0.000000,0.000000,0.000000
255,0,4,653793.250000,223622.250000,1239748.500000,67165.250000,7576.250000,619934.750000,23779.049070,8567.593780,46104.769197,2464.467932,460.673624,23015.468074
255,1,752,712731.010638,248860.077128,1427143.110372,74374.566489,9590.809840,713535.476064,8067.858932,1981.935257,97509.224735,1117.633596,888.978208,48739.261724
