0,0,14,648262.428571,222262.714286,1307400.000000,66848.214286,7832.642857,653706.928571,17802.535745,6291.656328,77223.733114,1705.458681,472.084679,38634.431186
0,1,2,737154.500000,258563.500000,1513230.000000,76990.500000,9512.500000,756794.000000,27855.500000,10176.500000,43250.000000,2780.500000,17.500000,21805.000000
1,0,13,648535.846154,221781.153846,1276898.000000,67010.153846,7895.153846,638409.692308,15210.850898,4860.758928,69567.526380,1667.745131,536.782702,34774.046353
1,1,1,710790.000000,250169.000000,1427055.000000,74144.000000,8975.000000,713489.000000,0.000000,0.000000,0.000000,0.000000,0.000000,0.000000
2,0,13,643164.692308,220303.230769,1276848.692308,66549.769231,7946.307692,638425.461538,6520.252501,1501.499310,67837.368303,996.710833,704.418624,33910.445932
2,1,1,705799.000000,247723.000000,1460030.000000,73070.000000,9207.000000,730050.000000,0.000000,0.000000,0.000000,0.000000,0.000000,0.000000
3,0,13,641109.692308,219579.923077,1242876.000000,66169.615385,7720.846154,621432.538462,6926.654064,1359.542087,57947.324621,1051.581559,620.878267,28984.885623
3,1,1,705379.000000,247415.000000,1544017.000000,73053.000000,8980.000000,771609.000000,0.000000,0.000000,0.000000,0.000000,0.000000,0.000000
4,0,13,639818.615385,219402.461538,1264647.230769,65992.461538,7831.153846,632308.153846,4813.587460,876.039832,86751.032514,454.549247,931.677548,43372.738070
4,1,1,704048.000000,247370.000000,1267216.000000,73132.000000,8543.000000,633595.000000,0.000000,0.000000,0.000000,0.000000,0.000000,0.000000
5,0,13,642394.384615,220202.692308,1266613.384615,66363.461538,7734.923077,633313.076923,5190.338458,915.078171,54390.832034,541.480963,676.540119,27206.537595
5,1,1,706247.000000,248612.000000,1506170.000000,73329.000000,8817.000000,753086.000000,0.000000,0.000000,0.000000,0.000000,0.000000,0.000000
6,0,13,644221.076923,220001.692308,1260966.230769,66381.846154,7805.692308,630499.230769,7075.527123,1609.034464,96857.867818,1074.935407,737.281846,48436.579637
6,1,1,709209.000000,248467.000000,1407587.000000,73218.000000,8718.000000,703744.000000,0.000000,0.000000,0.000000,0.000000,0.000000,0.000000
7,0,13,644032.846154,220033.846154,1244571.769231,66386.923077,7734.076923,622238.846154,6345.475321,1422.295536,63890.807873,930.745810,676.183573,31966.796629
7,1,1,706791.000000,248116.000000,1287852.000000,73166.000000,8245.000000,643910.000000,0.000000,0.000000,0.000000,0.000000,0.000000,0.000000
8,0,13,644688.769231,220227.153846,1265919.692308,66604.000000,7769.307692,632954.307692,9498.518469,1665.681974,71981.885523,1183.693502,597.731273,36001.453155
8,1,1,707874.000000,248882.000000,1422075.000000,73372.000000,8476.000000,710921.000000,0.000000,0.000000,0.000000,0.000000,0.000000,0.000000
9,0,13,641316.923077,219791.615385,1277962.692308,66200.692308,7629.461538,638977.615385,3449.160443,1006.821544,68563.289952,506.434806,498.639937,34244.646008
9,1,1,703851.000000,248346.000000,1395355.000000,73233.000000,9177.000000,697855.000000,0.000000,0.000000,0.000000,0.000000,0.000000,0.000000
10,0,13,642841.000000,219905.538462,1290075.000000,66324.230769,7873.923077,644979.384615,6715.801241,1712.518865,61988.763633,946.199943,722.529899,30895.366124
10,1,1,705364.000000,247979.000000,1388793.000000,73076.000000,8819.000000,694198.000000,0.000000,0.000000,0.000000,0.000000,0.000000,0.000000
11,0,13,644387.923077,220563.461538,1259391.769231,66726.461538,7656.461538,629664.923077,6346.512094,1515.626990,64161.101521,1150.924619,676.127049,32056.785816
11,1,1,709429.000000,251123.000000,1310598.000000,74301.000000,7724.000000,655235.000000,0.000000,0.000000,0.000000,0.000000,0.000000,0.000000
12,0,13,644080.538462,220282.615385,1271993.076923,66608.769231,7632.923077,635923.307692,8340.124917,1547.756517,48902.872627,1143.551967,497.839403,24434.210738
12,1,1,714196.000000,248488.000000,1378251.000000,73638.000000,7109.000000,689094.000000,0.000000,0.000000,0.000000,0.000000,0.000000,0.000000
13,0,13,644568.307692,220320.615385,1267788.769231,66670.000000,7633.307692,633857.538462,8511.823418,1945.266544,83271.745596,1207.277994,649.518447,41668.865674
13,1,1,736775.000000,252967.000000,1438049.000000,76965.000000,9243.000000,718917.000000,0.000000,0.000000,0.000000,0.000000,0.000000,0.000000
14,0,13,641440.461538,219711.153846,1301938.538462,66188.000000,8040.000000,650994.153846,2633.176661,721.487976,130305.381843,392.944310,788.395742,65166.783305
14,1,1,714132.000000,248317.000000,1364935.000000,73651.000000,7983.000000,682440.000000,0.000000,0.000000,0.000000,0.000000,0.000000,0.000000
15,0,13,643096.538462,219915.923077,1257432.000000,66384.846154,7750.923077,628744.461538,5758.821148,1406.808579,39584.189328,1018.004069,754.665740,19781.798587
15,1,1,711933.000000,247343.000000,1470241.000000,73390.000000,8752.000000,735117.000000,0.000000,0.000000,0.000000,0.000000,0.000000,0.000000
16,0,13,648084.000000,221051.769231,1283564.000000,67163.230769,7862.923077,641764.307692,9277.358386,1853.391077,77911.114519,1446.296658,520.431546,39004.619980
16,1,1,714288.000000,248908.000000,1280781.000000,73962.000000,7898.000000,640404.000000,0.000000,0.000000,0.000000,0.000000,0.000000,0.000000
17,0,14,642114.071429,219853.357143,1250399.428571,66337.428571,7615.571429,625198.214286,6523.425409,1343.239826,72980.953928,851.904900,405.288383,36510.705335
17,1,1,711425.000000,248693.000000,1462520.000000,73851.000000,8476.000000,731087.000000,0.000000,0.000000,0.000000,0.000000,0.000000,0.000000
18,0,14,642221.714286,219844.500000,1270650.714286,66340.642857,7621.428571,635336.571429,6925.582724,1451.013624,57704.093065,887.030810,400.655305,28884.176664
18,1,1,711585.000000,247993.000000,1334860.000000,73590.000000,8966.000000,667376.000000,0.000000,0.000000,0.000000,0.000000,0.000000,0.000000
19,0,14,642997.357143,219981.785714,1307582.071429,66400.071429,7768.642857,653783.357143,5609.381423,1402.201543,132530.808279,949.277655,791.353236,66238.601875
19,1,1,713341.000000,250281.000000,1241075.000000,74527.000000,8561.000000,620427.000000,0.000000,0.000000,0.000000,0.000000,0.000000,0.000000
20,0,14,641820.714286,219969.500000,1260373.285714,66297.142857,7645.071429,630168.357143,4830.190050,1065.723413,39543.671450,450.227222,660.458008,19766.441181
20,1,1,710949.000000,247897.000000,1339525.000000,73521.000000,9648.000000,669750.000000,0.000000,0.000000,0.000000,0.000000,0.000000,0.000000
21,0,14,648666.142857,221259.214286,1272304.928571,67321.000000,7852.214286,636109.928571,9703.280240,2032.470003,91026.945138,1461.929742,553.319616,45525.538278
21,1,1,713045.000000,249212.000000,1389300.000000,73999.000000,8825.000000,694630.000000,0.000000,0.000000,0.000000,0.000000,0.000000,0.000000
22,0,14,640961.071429,219552.000000,1262129.357143,66103.928571,7785.857143,631039.285714,2923.211479,588.575035,52346.528729,336.538358,572.083143,26157.077192
22,1,1,709939.000000,248483.000000,1325072.000000,73722.000000,9131.000000,662456.000000,0.000000,0.000000,0.000000,0.000000,0.000000,0.000000
23,0,14,643872.071429,220322.142857,1318097.785714,66543.500000,7918.000000,658933.428571,7236.310795,1623.716982,104810.077830,880.017837,666.753863,52372.537237
23,1,1,707903.000000,247938.000000,1374622.000000,73539.000000,8919.000000,687274.000000,0.000000,0.000000,0.000000,0.000000,0.000000,0.000000
24,0,14,643490.357143,220438.928571,1278212.500000,66618.642857,7709.928571,639101.500000,7017.564551,1667.569552,61683.115870,1015.764217,682.388501,30815.955118
24,1,1,715173.000000,250383.000000,1341848.000000,74663.000000,9067.000000,670746.000000,0.000000,0.000000,0.000000,0.000000,0.000000,0.000000
25,0,14,644057.142857,220210.071429,1274030.000000,66587.214286,7863.785714,636954.642857,6557.298386,1752.263820,71612.985472,1218.334881,856.213940,35771.386479
25,1,1,714199.000000,250471.000000,1410163.000000,74679.000000,8903.000000,705047.000000,0.000000,0.000000,0.000000,0.000000,0.000000,0.000000
26,0,14,648619.500000,221022.714286,1303158.285714,67134.428571,8234.285714,651553.571429,9788.906927,2020.358717,79038.111834,1403.923416,740.019636,39535.509129
26,1,1,731096.000000,252622.000000,1377021.000000,76933.000000,9922.000000,688528.000000,0.000000,0.000000,0.000000,0.000000,0.000000,0.000000
27,0,14,643557.928571,219977.285714,1248187.000000,66375.857143,7816.785714,624125.714286,5753.189581,1299.306597,43191.682660,819.926726,557.010410,21605.907834
27,1,1,706567.000000,247765.000000,1594097.000000,73570.000000,9426.000000,796726.000000,0.000000,0.000000,0.000000,0.000000,0.000000,0.000000
28,0,14,641667.000000,219726.428571,1247703.357143,66179.571429,7756.214286,623845.357143,3520.603317,767.312258,85314.280252,384.142777,625.748487,42620.423621
28,1,1,713107.000000,248687.000000,1530671.000000,73818.000000,9745.000000,764652.000000,0.000000,0.000000,0.000000,0.000000,0.000000,0.000000
29,0,14,641916.071429,219851.357143,1278810.285714,66265.714286,7833.857143,639384.785714,2880.934334,1074.170152,103680.033750,534.438214,497.156753,51866.546615
29,1,1,708912.000000,248072.000000,1436669.000000,73624.000000,9301.000000,718368.000000,0.000000,0.000000,0.000000,0.000000,0.000000,0.000000
30,0,14,644906.000000,220332.928571,1274232.500000,66638.357143,8067.785714,637053.857143,7981.525642,1457.999582,97338.636907,1094.807459,707.659036,48570.883693
30,1,1,717335.000000,250412.000000,1388984.000000,74648.000000,9555.000000,694564.000000,0.000000,0.000000,0.000000,0.000000,0.000000,0.000000
31,0,14,646877.357143,221027.928571,1285889.714286,66872.785714,8035.785714,642867.214286,9141.585988,2568.672933,64284.178155,1227.080285,664.215453,32193.620424
31,1,1,733527.000000,253516.000000,1439901.000000,77190.000000,10044.000000,719999.000000,0.000000,0.000000,0.000000,0.000000,0.000000,0.000000
32,0,14,642234.857143,219734.928571,1258350.785714,66305.000000,7632.785714,629174.071429,5422.035475,1139.239500,90286.401125,893.539111,710.057159,45147.123522
32,1,1,710394.000000,248442.000000,1458302.000000,73717.000000,9247.000000,729073.000000,0.000000,0.000000,0.000000,0.000000,0.000000,0.000000
33,0,14,642750.357143,219989.071429,1257338.714286,66423.785714,7402.642857,628672.428571,6391.918576,1397.233004,37859.451031,913.655310,500.695032,18942.156284
33,1,1,708497.000000,248208.000000,1397463.000000,73619.000000,9312.000000,698790.000000,0.000000,0.000000,0.000000,0.000000,0.000000,0.000000
34,0,14,643155.285714,220023.285714,1244625.857143,66504.428571,7483.785714,622298.428571,7679.403478,1616.279698,55743.133673,1063.163992,447.523212,27859.792848
34,1,1,710571.000000,249551.000000,1393242.000000,74318.000000,9096.000000,696699.000000,0.000000,0.000000,0.000000,0.000000,0.000000,0.000000
35,0,14,642744.928571,220176.785714,1272902.071429,66507.642857,7560.142857,636427.285714,7094.644383,1376.081195,67963.790984,918.722219,477.489096,33979.639135
35,1,1,710674.000000,248094.000000,1263491.000000,73614.000000,9319.000000,631794.000000,0.000000,0.000000,0.000000,0.000000,0.000000,0.000000
36,0,14,643104.500000,220532.285714,1253850.285714,66524.857143,7458.642857,626930.571429,8255.094183,2741.018722,69775.788316,1136.279069,482.840051,34880.760879
36,1,1,711807.000000,249239.000000,1260171.000000,73943.000000,8929.000000,629913.000000,0.000000,0.000000,0.000000,0.000000,0.000000,0.000000
37,0,14,643737.928571,220271.214286,1277298.642857,66612.857143,7677.928571,638609.928571,6918.746423,1617.256150,79672.490722,1155.640197,744.581519,39814.105832
37,1,1,715311.000000,250557.000000,1416036.000000,74657.000000,9256.000000,707999.000000,0.000000,0.000000,0.000000,0.000000,0.000000,0.000000
38,0,14,641747.428571,219742.571429,1262006.500000,66310.785714,7549.214286,631012.214286,5212.819551,1294.628282,56231.063220,890.204726,600.101798,28114.646577
38,1,1,731010.000000,253628.000000,1468367.000000,77202.000000,9959.000000,734171.000000,0.000000,0.000000,0.000000,0.000000,0.000000,0.000000
39,0,14,642675.071429,220214.857143,1252053.214286,66475.928571,7627.785714,626045.642857,6308.184553,1373.998017,71188.050136,930.148564,509.576320,35576.177548
39,1,1,705832.000000,248194.000000,1397240.000000,73679.000000,8959.000000,698682.000000,0.000000,0.000000,0.000000,0.000000,0.000000,0.000000
40,0,14,642365.142857,220167.857143,1255236.857143,66471.428571,7609.857143,627613.071429,6420.842333,1535.153685,60159.841248,1004.703276,574.234504,30051.158743
40,1,2,709424.500000,248333.500000,1381874.500000,73886.500000,9349.000000,690978.000000,123.500000,520.500000,58511.500000,81.500000,195.000000,29296.000000
41,0,14,644802.000000,220395.714286,1256075.285714,66768.785714,7634.071429,628035.500000,7616.309033,1654.047392,51285.957658,1183.893889,637.079437,25588.597770
41,1,2,714145.000000,249553.500000,1456030.000000,74503.000000,9748.500000,728101.500000,7182.000000,1738.500000,32927.000000,384.000000,824.500000,16461.500000
42,0,14,643754.785714,220542.214286,1287462.071429,66428.071429,7774.000000,643805.142857,9026.149030,3189.165972,68458.196480,1052.528891,521.913512,34348.738332
42,1,2,710804.500000,248467.500000,1326317.000000,74008.500000,8871.000000,663216.000000,2531.500000,298.500000,38357.000000,289.500000,70.000000,19193.000000
43,0,14,646454.857143,220748.000000,1266258.928571,66950.357143,7810.214286,633156.214286,8368.751015,1754.292816,43341.756099,1302.314292,627.877852,21640.404846
43,1,2,722459.500000,251789.000000,1485092.500000,76112.500000,9856.500000,742538.500000,12220.500000,2262.000000,48604.500000,1099.500000,381.500000,24312.500000
44,0,14,645023.214286,220683.071429,1269893.785714,66755.285714,7949.071429,634905.000000,9327.559267,1643.118832,73091.763377,1087.154637,754.613663,36567.298273
44,1,2,712352.500000,248100.000000,1336819.000000,73822.500000,9879.000000,668263.000000,150.500000,219.000000,4306.000000,346.500000,181.000000,2331.000000
45,0,14,640930.071429,219767.785714,1230121.428571,66196.142857,7492.214286,615055.785714,3408.499198,1434.746726,57467.101258,627.020375,641.924136,28728.145147
45,1,2,713782.000000,248084.000000,1406039.000000,73923.500000,9658.500000,703035.000000,64.000000,127.000000,63414.000000,374.500000,114.500000,31726.000000
46,0,14,642666.357143,219865.357143,1238452.785714,66345.285714,7756.142857,619217.357143,6611.006543,1606.114104,59047.761054,1059.824408,623.980867,29543.102179
46,1,2,711331.500000,248387.500000,1482263.500000,73996.000000,10236.000000,741147.500000,2104.500000,628.500000,26331.500000,64.000000,573.000000,13162.500000
47,0,14,641663.785714,219786.000000,1242393.214286,66231.357143,7534.000000,621173.071429,3001.173061,956.823465,54323.811319,352.904804,464.260549,27186.447604
47,1,2,728437.500000,253953.500000,1410316.500000,75763.000000,9865.500000,705180.000000,11068.500000,3838.500000,17839.500000,616.000000,104.500000,8909.000000
48,0,14,643602.214286,220183.928571,1250192.285714,66587.142857,7669.571429,625073.785714,9112.603910,1946.061754,62618.178483,1268.030580,328.304022,31273.854261
48,1,2,713739.500000,249085.000000,1426383.500000,74260.500000,9847.000000,713220.000000,2191.500000,872.000000,16382.500000,167.500000,308.000000,8231.000000
49,0,14,642761.785714,220119.357143,1256010.642857,66455.071429,7681.785714,628003.214286,7138.753594,1555.762037,56315.165805,1012.887207,605.857265,28146.497415
49,1,2,712048.000000,249087.500000,1378048.000000,74138.000000,9268.000000,689044.000000,2312.000000,466.500000,11539.000000,360.000000,407.000000,5754.000000
50,0,14,647243.928571,221878.785714,1256759.285714,66914.714286,7679.428571,628389.857143,11810.639105,3823.445364,85770.626359,1300.280872,643.732388,42890.658958
50,1,2,723456.000000,251415.500000,1418099.500000,75805.000000,9491.500000,708963.000000,9478.000000,2611.500000,56838.500000,1602.000000,398.500000,28386.000000
51,0,14,641881.785714,219978.928571,1256371.000000,66280.000000,7579.714286,628203.000000,3363.194807,954.637812,71564.094041,460.505623,535.843718,35794.412768
51,1,2,715763.000000,249675.500000,1415426.500000,74499.000000,9148.500000,707785.500000,2918.000000,801.500000,40977.500000,495.000000,92.500000,20467.500000
52,0,14,647348.000000,221188.642857,1256999.071429,67239.857143,7743.714286,628497.785714,8222.250083,1772.997164,101256.881581,1354.827235,561.846373,50662.777416
52,1,2,714568.000000,249569.500000,1436874.000000,74554.500000,9458.000000,718398.500000,32.000000,6.500000,59407.000000,114.500000,112.000000,29766.500000
53,0,14,644097.785714,220310.928571,1267889.571429,66705.357143,7833.500000,633918.571429,7732.410021,2078.166928,38140.143064,1342.157251,461.063174,19090.714806
53,1,2,711086.000000,248764.500000,1461889.500000,74111.500000,10319.500000,730803.000000,1507.000000,158.500000,108183.500000,30.500000,443.500000,53953.000000
54,0,14,642240.714286,220166.714286,1247785.142857,66480.142857,7618.714286,623894.214286,7149.579722,1488.494994,54157.037257,893.719743,610.363759,27134.705379
54,1,2,711766.500000,248233.500000,1434144.500000,73844.000000,9631.000000,717145.000000,2506.500000,312.500000,19805.500000,241.000000,664.000000,9922.000000
55,0,14,643968.071429,220160.071429,1257321.357143,66526.642857,7904.714286,628662.571429,8077.000517,1766.201107,68362.571330,1226.640977,731.238717,34186.923521
55,1,2,713138.500000,249067.000000,1436698.500000,74114.500000,9357.500000,718374.500000,1191.500000,247.000000,44982.500000,58.500000,8.500000,22272.500000
56,0,14,645796.428571,220950.357143,1295715.000000,66705.928571,8169.285714,647834.785714,8033.919722,2561.308444,105945.312488,1132.136127,501.707147,52985.486389
56,1,2,716052.500000,249793.000000,1389114.000000,74507.000000,9496.000000,694442.500000,6349.500000,1601.000000,60358.000000,840.000000,391.000000,30028.500000
57,0,14,643770.214286,220213.571429,1248734.071429,66537.642857,7835.500000,624304.785714,7388.375147,1493.254964,76190.445538,1100.325511,594.816628,38088.595178
57,1,2,712605.500000,248874.500000,1364029.500000,74096.500000,9415.000000,682321.000000,2948.500000,35.500000,8962.500000,171.500000,139.000000,4735.000000
58,0,14,643325.428571,220178.285714,1283720.142857,66476.428571,8055.571429,641857.714286,7801.363853,1687.539224,67068.109332,1080.792019,520.336940,33545.534036
58,1,2,714006.000000,250246.000000,1479523.000000,74859.000000,9559.000000,738814.000000,4205.000000,40.000000,109680.000000,134.000000,207.000000,53847.000000
59,0,14,640394.428571,219717.857143,1273996.500000,66085.714286,7679.785714,636978.428571,3175.882885,752.176637,71252.205704,448.187051,462.990617,35612.862257
59,1,2,727295.500000,252757.500000,1434912.500000,76523.000000,10036.000000,717460.000000,8337.500000,1542.500000,50493.500000,1054.000000,75.000000,25208.000000
60,0,14,645217.500000,220549.285714,1254719.142857,66603.285714,7658.642857,627302.642857,7240.516544,1733.122097,107907.461069,1124.483718,673.122214,53911.838772
60,1,2,725351.000000,251304.000000,1354622.500000,75820.000000,9624.500000,677260.000000,8229.000000,2078.000000,37143.500000,1371.000000,153.500000,18576.000000
61,0,14,642184.071429,220080.500000,1263459.785714,66173.428571,7479.428571,631709.928571,5848.360851,2157.058637,72637.502926,644.232291,509.464525,36343.268804
61,1,2,726848.500000,251949.000000,1347013.000000,76060.000000,9577.000000,673498.500000,8302.500000,1909.000000,23553.000000,1283.000000,451.000000,11797.500000
62,0,14,646397.071429,221071.357143,1318897.928571,66942.785714,7860.642857,659414.571429,7514.537154,1602.965939,59877.080792,1228.833197,362.545092,29932.285280
62,1,2,714087.500000,249558.500000,1431188.000000,74559.000000,9936.500000,715575.500000,1335.500000,827.500000,2133.000000,165.000000,427.500000,1100.500000
63,0,14,642701.714286,219924.642857,1297881.928571,66271.571429,7671.214286,648920.000000,5941.766061,1411.533240,76971.879543,1010.554000,543.201249,38460.307446
63,1,2,715346.000000,250015.500000,1375160.000000,74557.500000,9757.000000,687608.000000,1052.000000,1099.500000,61774.000000,298.500000,238.000000,30851.000000
64,0,14,641974.142857,220035.142857,1268259.571429,66239.214286,7809.285714,634108.285714,3629.076916,783.999623,57951.626220,435.042884,402.327235,29003.984491
64,1,2,714450.500000,249926.500000,1317389.000000,74540.000000,9033.500000,658730.000000,3371.500000,874.500000,26924.000000,588.000000,103.500000,13464.000000
65,0,14,646001.785714,220547.857143,1249463.142857,66825.714286,7904.214286,624736.428571,10648.484320,2037.887101,58224.610276,1508.496055,694.489759,29197.884732
65,1,2,715407.500000,250390.000000,1553606.000000,74671.500000,10880.500000,776816.000000,3207.500000,717.000000,122126.000000,102.500000,134.500000,61207.000000
66,0,14,644178.285714,220072.000000,1262719.928571,66418.285714,7920.785714,631351.000000,6467.924755,1465.815229,71229.247009,996.248996,513.517725,35609.445535
66,1,2,717211.500000,249724.500000,1367307.000000,74296.000000,9766.000000,683505.000000,912.500000,66.500000,91260.000000,292.000000,257.000000,45726.000000
67,0,14,643648.785714,219863.785714,1283303.142857,66252.857143,7944.857143,641668.642857,7038.925975,1482.642871,81646.721992,955.491860,517.616082,40835.397228
67,1,2,717512.000000,250497.500000,1503498.000000,74763.000000,9991.000000,751798.500000,2623.000000,1161.500000,65038.000000,377.000000,90.000000,32428.500000
68,0,14,643673.357143,220083.928571,1288385.000000,66370.142857,7651.214286,644159.571429,5966.413730,1363.677720,84748.241355,856.569975,584.997336,42393.803351
68,1,2,715800.500000,249616.000000,1421049.500000,74354.000000,9704.000000,710560.000000,296.500000,375.000000,1016.500000,76.000000,405.000000,524.000000
69,0,14,643542.571429,220059.214286,1279922.500000,66334.928571,7773.428571,639921.142857,6998.418880,1562.976884,95777.801793,967.697153,568.860103,47900.937442
69,1,2,713182.000000,249424.500000,1470040.000000,74256.500000,9372.500000,734929.500000,123.000000,78.500000,26474.000000,113.500000,407.500000,13092.500000
70,0,14,644708.642857,220671.857143,1243441.214286,66599.571429,7759.928571,621667.785714,6288.588152,1527.435098,53080.915758,1038.317988,685.935905,26523.355431
70,1,2,713332.500000,249480.000000,1456269.500000,74324.500000,9619.000000,728211.500000,940.500000,316.000000,84588.500000,46.500000,924.000000,42270.500000
71,0,14,641902.000000,219587.785714,1264582.000000,66157.642857,7701.142857,632252.928571,5841.930992,1480.383936,60695.628368,942.321344,405.498081,30334.095907
71,1,2,713353.000000,249956.000000,1365897.500000,74518.500000,8724.500000,683015.000000,1346.000000,355.000000,28659.500000,69.500000,275.500000,14326.000000
72,0,14,645342.142857,220573.214286,1275815.500000,66761.428571,7932.142857,637921.285714,7743.658040,1740.733145,70340.797163,1377.761005,729.285253,35148.026351
72,1,2,713079.000000,249433.500000,1387914.500000,74199.500000,9037.500000,693954.500000,2185.000000,577.500000,27074.500000,327.500000,108.500000,13577.500000
73,0,14,642149.071429,219822.571429,1265744.071429,66229.785714,7712.142857,632831.928571,6054.753156,1234.318824,77744.592116,955.615896,802.290191,38791.562314
73,1,2,713389.000000,250029.500000,1567765.000000,74619.000000,10085.000000,783755.000000,3756.000000,1582.500000,135254.000000,865.000000,1208.000000,67260.000000
74,0,14,645547.142857,220492.785714,1280758.071429,66614.500000,7892.142857,640287.642857,7553.992878,1759.062420,84942.091366,1242.377487,686.709635,42274.098204
74,1,2,722043.000000,251937.500000,1400426.500000,76084.500000,9765.000000,700079.000000,8521.000000,1696.500000,40047.500000,1127.500000,347.000000,19939.000000
75,0,14,643064.285714,220024.142857,1290872.000000,66321.642857,7511.214286,645469.857143,6788.979109,1184.383375,92921.622798,924.073019,639.929145,46490.837430
75,1,2,712926.000000,248974.500000,1492754.000000,74149.000000,9626.500000,746433.500000,378.000000,64.500000,62492.000000,210.000000,387.500000,31263.500000
76,0,14,644778.714286,220538.928571,1298842.000000,66607.142857,7810.928571,649381.857143,7882.408655,1647.648648,61303.058994,1155.544575,481.475777,30616.664470
76,1,2,713164.000000,249296.500000,1396904.500000,74244.000000,9786.000000,698479.500000,780.000000,138.500000,44518.500000,312.000000,452.000000,22239.500000
77,0,14,644446.214286,220246.214286,1299761.214286,66476.571429,7933.285714,649885.357143,7528.266934,1725.807686,102165.870004,1156.458678,609.419212,51040.054626
77,1,2,714241.000000,250266.000000,1352566.500000,74889.500000,9099.500000,676201.500000,3467.000000,511.000000,45301.500000,311.500000,382.500000,22629.500000
78,0,14,645942.571429,220689.428571,1314915.000000,66832.571429,7879.214286,657401.642857,7632.049544,1669.422728,112198.294408,1221.343915,737.225317,56003.784475
78,1,2,710413.500000,249251.500000,1398213.500000,74341.500000,9257.500000,699128.000000,2008.500000,141.500000,68239.500000,226.500000,774.500000,34098.000000
79,0,14,645511.642857,220832.785714,1303996.500000,66710.642857,7824.000000,651985.071429,9891.516666,2961.100065,43389.926194,1354.205967,479.947021,21693.747834
79,1,2,713700.500000,249833.000000,1529243.500000,74645.000000,9934.500000,764263.500000,2264.500000,27.000000,171926.500000,140.000000,554.500000,85933.500000
80,0,14,643053.000000,220232.000000,1298792.214286,66453.500000,7815.000000,649349.142857,4983.445538,1337.042686,79057.285055,725.819119,571.251758,39496.644801
80,1,2,709765.000000,248737.000000,1418238.000000,74169.000000,9129.500000,709092.000000,352.000000,90.000000,93901.000000,218.000000,924.500000,46896.000000
81,0,14,645647.357143,220807.428571,1297110.785714,66697.642857,8039.928571,648500.642857,10210.546457,2729.841799,81029.091463,1205.751017,717.414252,40455.957106
81,1,2,708142.000000,248493.500000,1418226.000000,74117.500000,9362.500000,709179.500000,508.000000,313.500000,29266.000000,343.500000,890.500000,14671.500000
82,0,14,643440.000000,220396.500000,1283148.142857,66524.571429,7914.857143,641539.000000,7251.860806,1537.082615,59812.170824,1008.747718,666.015858,29981.667461
82,1,2,710863.000000,249356.500000,1537501.000000,74427.500000,9586.500000,768742.000000,1266.000000,24.500000,92870.000000,190.500000,566.500000,46384.000000
83,0,14,643047.428571,220044.000000,1299744.428571,66373.357143,7971.214286,649852.571429,7183.232775,1649.527725,75975.999083,1063.053124,647.599874,37974.195417
83,1,2,711507.000000,249488.000000,1272958.000000,74485.500000,8715.000000,636485.500000,4994.000000,760.000000,24725.000000,462.500000,336.000000,12345.500000
84,0,14,641879.642857,219522.785714,1303428.428571,66117.285714,7976.000000,651684.857143,5912.405198,1154.976387,78516.747102,826.962379,726.339452,39250.003428
84,1,2,708246.500000,248965.000000,1337272.000000,74241.500000,8810.000000,668641.000000,3423.500000,606.000000,39443.000000,51.500000,1007.000000,19692.000000
85,0,14,641303.285714,219807.642857,1253376.285714,66188.000000,7715.071429,626653.214286,4294.357484,1147.229433,42991.697425,526.503968,534.314977,21481.918637
85,1,2,713643.000000,249688.000000,1523246.000000,74594.000000,10083.000000,761642.500000,1665.000000,340.000000,73542.000000,33.000000,246.000000,36801.500000
86,0,14,645780.285714,221146.000000,1283163.071429,66862.142857,8059.500000,641578.571429,13003.090998,3547.057936,52221.875898,1529.973663,696.909479,26079.257512
86,1,2,707169.500000,248409.000000,1370656.000000,73944.000000,8762.000000,685329.500000,3285.500000,304.000000,41246.000000,12.000000,363.000000,20622.500000
87,0,14,642892.857143,220053.428571,1312997.571429,66489.142857,8043.785714,656372.142857,8353.772517,2025.379637,95560.345908,1214.647207,474.956265,47788.769937
87,1,2,714377.000000,249311.500000,1462262.000000,74368.000000,9352.500000,731194.500000,711.000000,1007.500000,30739.000000,326.000000,570.500000,15356.500000
88,0,14,641652.928571,219736.285714,1257120.428571,66156.214286,7657.857143,628567.928571,2711.282866,725.966787,65860.171301,438.184433,679.853015,32946.549023
88,1,2,711646.000000,248959.500000,1428883.000000,74150.000000,9614.500000,714380.500000,2887.000000,0.500000,87134.000000,96.000000,445.500000,43444.500000
89,0,14,646909.785714,220704.857143,1274485.142857,66909.642857,7989.928571,637171.357143,9015.352716,2000.801049,81941.278279,1384.882595,903.539901,40915.756790
89,1,2,710252.500000,248403.000000,1392324.000000,73976.000000,8615.500000,696156.500000,66.500000,152.000000,37961.000000,11.000000,570.500000,19001.500000
90,0,14,644358.714286,220199.071429,1246196.142857,66581.071429,7662.857143,623035.357143,8306.490005,1729.932594,61243.308558,1180.938335,613.370182,30549.862592
90,1,2,711129.000000,248321.000000,1413518.000000,73940.500000,9237.500000,706740.000000,1591.000000,10.000000,30055.000000,114.500000,86.500000,15085.000000
91,0,14,642395.500000,219881.500000,1262252.857143,66283.285714,7806.214286,631083.357143,6834.826100,1334.591310,58707.883627,888.909880,584.324051,29362.610529
91,1,2,710054.500000,248727.000000,1316426.000000,74235.000000,8643.500000,658240.500000,4130.500000,234.000000,13920.000000,358.000000,59.500000,6940.500000
92,0,14,645091.000000,220467.928571,1267502.571429,66725.071429,7817.214286,633726.500000,9135.757628,1967.304482,79068.926331,1402.966065,602.270487,39553.695099
92,1,2,707596.500000,248556.500000,1418881.500000,74061.000000,8798.000000,709017.000000,1770.500000,593.500000,104793.500000,76.000000,350.000000,51896.000000
93,0,14,642887.428571,220162.571429,1314760.285714,66394.285714,7847.928571,657414.142857,6040.045869,1526.587638,93519.837813,808.976287,914.926029,46817.509867
93,1,2,720155.500000,250896.000000,1310613.500000,75788.000000,9009.000000,655347.500000,9094.500000,2284.000000,12040.500000,1500.000000,329.000000,6015.500000
94,0,14,646072.142857,220687.928571,1269563.785714,66839.071429,7760.071429,634676.000000,9963.639459,2276.026910,75712.575606,1477.326179,557.494967,37816.096518
94,1,2,718970.500000,250911.500000,1346572.000000,75734.000000,9375.500000,673580.500000,13476.500000,2205.500000,41349.000000,1624.000000,966.500000,20876.500000
95,0,14,640955.214286,219529.428571,1261509.857143,66083.785714,7687.714286,630723.285714,3261.786850,957.339148,63327.923485,541.431460,565.282916,31650.579702
95,1,2,731075.000000,255361.000000,1556105.000000,77075.500000,10041.000000,777143.500000,4947.000000,2344.000000,102940.000000,215.500000,151.000000,51530.500000
96,0,14,643747.714286,220450.000000,1270171.571429,66500.071429,7600.928571,635112.857143,5996.987677,1599.564718,81156.192968,984.264952,512.679162,40627.549110
96,1,2,708950.000000,248713.000000,1360157.000000,74152.000000,9453.000000,679951.000000,1873.000000,77.000000,83520.000000,27.000000,553.000000,41595.000000
97,0,14,648859.285714,221979.142857,1335903.000000,66982.357143,7783.357143,667907.428571,15038.633512,5102.187680,95470.617026,1682.628242,441.321814,47678.908065
97,1,2,709305.500000,249305.500000,1405200.000000,74381.500000,9592.000000,702607.500000,2560.500000,283.500000,48118.000000,11.500000,140.000000,24092.500000
98,0,14,647140.500000,221489.071429,1308699.642857,66812.714286,7978.428571,654304.642857,13936.423505,4841.560927,83615.860535,1556.482317,724.864196,41808.209031
98,1,2,709065.000000,248779.000000,1373663.500000,74245.500000,9422.500000,686731.000000,1459.000000,1200.000000,14862.500000,481.500000,545.500000,7330.000000
99,0,14,648963.714286,221824.000000,1314522.285714,67144.500000,7938.071429,657256.142857,13949.971830,4390.107011,90639.640078,1564.631438,539.223047,45309.141127
99,1,2,710520.000000,249181.000000,1365539.500000,74457.000000,9170.000000,682778.000000,468.000000,957.000000,36202.500000,295.000000,207.000000,18146.000000
100,0,14,648590.642857,222166.357143,1306844.000000,66999.928571,8066.071429,653318.857143,21858.883316,7341.142842,77769.814592,2121.864964,720.922273,38689.771980
100,1,2,717419.500000,250961.500000,1359908.000000,75846.000000,9408.000000,679906.500000,13802.500000,1898.500000,52057.000000,1629.000000,1206.000000,25978.500000
101,0,14,650379.785714,222355.428571,1279501.000000,67436.571429,7927.642857,639718.142857,19155.503943,5877.170720,53143.879334,2308.548298,526.532675,26557.092259
101,1,2,722193.500000,250671.000000,1491848.500000,75726.500000,10210.500000,745867.500000,9281.500000,1903.000000,29879.500000,1647.500000,102.500000,14891.500000
102,0,14,648104.142857,221674.857143,1283222.285714,67080.214286,7689.285714,641504.500000,14845.938785,4801.501013,78158.026696,1665.850713,474.873882,39005.746882
102,1,2,713318.000000,248746.500000,1390048.000000,74247.000000,8896.500000,695011.500000,1585.000000,576.500000,45578.000000,61.000000,174.500000,22770.500000
103,0,14,644578.857143,220961.857143,1272052.428571,66469.571429,7653.285714,636014.071429,13055.648749,4686.005165,46182.997342,1289.623960,460.854087,23044.597633
103,1,2,712748.000000,249432.500000,1363199.500000,74565.000000,8687.000000,681573.500000,294.000000,346.500000,75931.500000,389.000000,370.000000,37939.500000
104,0,14,646303.285714,221346.642857,1268599.500000,66860.785714,7771.000000,634219.214286,14619.800245,4942.646379,54974.701947,1652.452860,496.661713,27517.266133
104,1,2,711801.500000,248871.500000,1386170.000000,74379.000000,9155.500000,693094.500000,2105.500000,735.500000,17514.000000,426.000000,375.500000,8762.500000
105,0,14,644380.214286,221188.785714,1289670.571429,66588.285714,7892.642857,644798.428571,12773.037384,4590.613034,56439.257715,1216.024226,463.072134,28247.622420
105,1,2,710188.000000,247855.500000,1382436.000000,73946.000000,9254.500000,691164.500000,448.000000,327.500000,85542.000000,7.000000,226.500000,42795.500000
106,0,14,646758.571429,221672.571429,1287057.928571,66882.000000,7726.285714,643476.642857,15725.602104,4968.992794,56726.828351,1609.828163,698.860136,28337.395398
106,1,2,710817.500000,249135.000000,1378499.500000,74438.500000,8925.000000,689267.000000,1175.500000,999.000000,57939.500000,324.500000,709.000000,28985.000000
107,0,14,650212.000000,222201.928571,1257999.785714,67294.857143,7814.000000,628986.285714,20406.931648,5894.509351,79190.791550,2341.041186,794.100210,39591.107411
107,1,2,718055.000000,250957.500000,1484942.500000,75830.500000,9681.000000,742467.000000,10939.000000,2022.500000,48297.500000,1669.500000,473.000000,24143.000000
108,0,14,645948.714286,221136.214286,1296223.000000,66560.714286,7927.357143,648092.642857,13871.208879,4541.506314,55174.737907,1208.363263,476.952619,27586.815538
108,1,2,709403.500000,248467.000000,1408685.000000,74043.000000,9171.500000,704317.000000,1937.500000,460.000000,27099.000000,33.000000,443.500000,13553.000000
109,0,14,649904.571429,222341.928571,1329113.428571,67175.071429,8229.571429,664516.642857,15043.721385,4846.928062,104575.856364,1483.467967,601.696496,52346.813719
109,1,2,708948.000000,248632.000000,1445544.000000,74025.000000,9390.500000,722626.500000,1378.000000,675.000000,7881.000000,27.000000,56.500000,3798.500000
110,0,14,647874.142857,221900.857143,1307461.142857,67042.214286,7922.000000,653645.785714,13907.797576,4439.684108,84314.136978,1485.429720,461.681554,42119.362599
110,1,2,721998.000000,251625.000000,1520454.000000,76030.500000,10588.500000,759960.500000,8502.000000,1362.000000,48814.000000,1484.500000,329.500000,24137.500000
111,0,14,645966.000000,221446.714286,1287323.500000,66790.928571,8110.214286,643658.785714,14674.711815,4546.727558,70026.895572,1379.533693,750.248071,35017.500046
111,1,2,721277.000000,250695.000000,1512031.500000,75679.000000,10199.500000,756019.500000,8671.000000,2138.000000,184102.500000,1754.000000,488.500000,92014.500000
112,0,14,646859.357143,221384.214286,1267273.857143,66761.857143,7975.500000,633637.714286,14692.553331,4672.060821,85120.088304,1411.768489,780.263211,42591.925148
112,1,2,720501.500000,250387.000000,1435010.500000,75510.000000,9838.000000,717531.500000,9578.500000,2173.000000,39426.500000,1835.000000,658.000000,19660.500000
113,0,14,649316.285714,221836.500000,1288039.642857,67054.857143,8180.214286,643847.928571,15630.343879,5412.686061,147839.514969,1822.795806,686.382773,73675.119411
113,1,2,710750.000000,248907.500000,1474302.000000,74224.500000,9005.500000,737060.500000,1817.000000,249.500000,23362.000000,265.500000,1.500000,11728.500000
114,0,14,646015.785714,221089.428571,1275506.928571,66653.500000,7955.642857,637704.428571,14383.820897,4755.356705,56418.875119,1421.584315,523.370206,28187.631056
114,1,2,708899.500000,248643.500000,1340362.500000,74227.000000,8701.000000,670246.000000,3515.500000,893.500000,7008.500000,584.000000,202.000000,3538.000000
115,0,14,650560.214286,222498.071429,1324771.071429,67416.285714,8035.071429,662334.214286,15473.978398,5011.307207,75158.982351,1670.554930,399.556444,37605.241681
115,1,2,706155.000000,247667.000000,1303505.000000,73816.500000,8483.000000,651783.500000,663.000000,20.000000,9168.000000,142.500000,101.000000,4620.500000
116,0,14,648857.428571,221904.071429,1291689.285714,67195.714286,8039.428571,645717.214286,14856.761201,4659.042367,87617.932605,1715.603702,691.876714,43731.990320
116,1,2,708091.000000,248861.000000,1364967.500000,74299.500000,9156.000000,682415.000000,1703.000000,802.000000,60498.500000,205.500000,56.000000,30263.000000
117,0,14,645952.285714,221334.714286,1300080.785714,66748.142857,8041.785714,650023.071429,18766.686253,5729.717775,59821.706563,2031.914012,630.218803,29890.551430
117,1,2,708729.000000,248613.500000,1363401.000000,74107.500000,9159.500000,681675.500000,589.000000,266.500000,68044.000000,107.500000,1173.500000,34037.500000
118,0,14,646513.142857,221446.500000,1277931.571429,66801.571429,7832.142857,638741.142857,12675.548717,4547.512848,77451.924953,1292.209167,886.802753,38450.306972
118,1,2,710043.500000,248375.000000,1470655.000000,73970.500000,9413.000000,735314.500000,1697.500000,14.000000,79521.000000,237.500000,808.000000,39780.500000
119,0,14,646324.000000,221277.785714,1308330.357143,66714.500000,7948.285714,654136.642857,12512.118794,4461.138311,99908.029772,1389.782601,893.396123,49942.575132
119,1,2,713542.000000,248963.500000,1424127.500000,74368.000000,9827.000000,711843.000000,2768.000000,1499.500000,15520.500000,388.000000,49.000000,7960.000000
120,0,14,648290.357143,221519.714286,1307257.714286,66902.071429,8065.214286,653556.000000,15774.804625,5108.859594,103664.378219,1736.357290,621.785813,51766.853388
120,1,2,710726.000000,247796.000000,1449662.500000,73742.500000,9242.500000,724867.500000,1017.000000,25.000000,56342.500000,289.500000,207.500000,28172.500000
121,0,13,647495.615385,221678.769231,1306833.153846,66864.615385,7984.153846,653362.769231,14604.022220,4705.305159,73362.436137,1483.940572,698.920029,36662.855777
121,1,2,709289.000000,248070.000000,1413310.500000,73886.500000,9601.500000,706770.500000,80.000000,111.000000,23940.500000,128.500000,125.500000,11836.500000
122,0,13,646782.615385,221339.153846,1284138.461538,66821.076923,7996.076923,642078.615385,15047.401153,4823.283160,67214.708297,1617.163350,799.986390,33614.408336
122,1,2,719732.500000,250216.500000,1415547.500000,75426.500000,9707.500000,707748.500000,10059.500000,2429.500000,20738.500000,1984.500000,737.500000,10343.500000
123,0,13,646859.153846,221624.000000,1253176.307692,66850.692308,7771.000000,626542.846154,16317.521997,5573.546364,72445.159153,1763.351590,438.425154,36214.170624
123,1,2,712630.000000,249527.000000,1503942.000000,74492.000000,9917.000000,751994.000000,3522.000000,1080.000000,21837.000000,250.000000,164.000000,10886.000000
124,0,13,648533.692308,222226.307692,1297693.923077,67011.461538,8119.692308,648806.307692,21240.269763,6606.693790,65529.839514,2379.663991,507.254508,32657.947306
124,1,2,712933.000000,250287.000000,1377767.000000,74963.500000,9021.500000,688929.000000,2314.000000,180.000000,29499.000000,109.500000,390.500000,14821.000000
125,0,13,648289.923077,221760.307692,1309886.307692,67022.615385,7964.769231,654912.769231,14315.898572,4749.266848,142321.882441,1597.933884,900.305517,71175.302739
125,1,2,734951.000000,257351.000000,1522892.500000,76439.000000,9134.000000,761462.000000,28316.000000,9470.000000,125721.500000,2308.000000,219.000000,62862.000000
126,0,13,649185.846154,221736.538462,1280032.384615,67070.769231,7661.230769,639946.076923,14556.760290,4792.773978,72635.241933,1720.398843,742.682990,36284.603051
126,1,2,732670.500000,257110.000000,1406267.500000,76364.500000,9631.000000,702740.000000,28832.500000,9613.000000,71669.500000,2443.500000,273.000000,35818.000000
127,0,13,644902.615385,220770.846154,1271256.230769,66376.538462,7596.076923,635666.000000,13764.800312,4541.939332,51407.306883,1240.324872,654.875028,25716.218543
127,1,2,738312.500000,257905.500000,1502026.000000,76719.500000,10317.500000,751109.000000,29324.500000,9758.500000,114974.000000,2598.500000,609.500000,57548.000000
