0,0,31,646387.451613,220733.193548,1238265.677419,66754.064516,7798.322581,618554.709677,13634.540720,4418.471663,75107.447682,1563.306503,773.937331,37513.750094
0,1,0,-nan,-nan,-nan,-nan,-nan,-nan,-nan,-nan,-nan,-nan,-nan,-nan
1,0,30,644230.533333,220098.533333,1247966.766667,66448.633333,7805.166667,623377.100000,11491.118303,3808.569257,59793.049764,1312.005729,710.903654,29830.031155
1,1,0,-nan,-nan,-nan,-nan,-nan,-nan,-nan,-nan,-nan,-nan,-nan,-nan
2,0,30,643215.300000,219578.933333,1253583.866667,66225.733333,7963.466667,626189.366667,9218.485194,3056.579853,66036.969834,1119.756073,854.482679,32898.176923
2,1,0,-nan,-nan,-nan,-nan,-nan,-nan,-nan,-nan,-nan,-nan,-nan,-nan
3,0,30,642032.600000,219206.566667,1233455.166667,66218.266667,7820.566667,616163.466667,6933.030817,1639.201039,65365.438936,1121.116465,786.336471,32649.586780
3,1,0,-nan,-nan,-nan,-nan,-nan,-nan,-nan,-nan,-nan,-nan,-nan,-nan
4,0,30,643120.766667,219458.066667,1240651.333333,66382.466667,7915.866667,619765.833333,8077.192069,1664.898454,56144.261017,1078.474655,769.988084,28083.941652
4,1,0,-nan,-nan,-nan,-nan,-nan,-nan,-nan,-nan,-nan,-nan,-nan,-nan
5,0,30,641007.300000,219194.000000,1262407.900000,66039.766667,7704.600000,630626.500000,5277.771418,1895.554396,111364.500242,679.674269,737.325871,55672.777404
5,1,0,-nan,-nan,-nan,-nan,-nan,-nan,-nan,-nan,-nan,-nan,-nan,-nan
6,0,30,642473.400000,219426.400000,1235962.433333,66337.966667,7831.000000,617421.900000,7546.559965,1674.172524,54382.082590,1152.441683,777.567275,27179.509861
6,1,0,-nan,-nan,-nan,-nan,-nan,-nan,-nan,-nan,-nan,-nan,-nan,-nan
7,0,30,642990.333333,219697.733333,1261440.133333,66417.566667,7872.233333,630076.900000,10638.132061,2695.626445,67695.053096,1323.598093,698.765563,33817.217723
7,1,0,-nan,-nan,-nan,-nan,-nan,-nan,-nan,-nan,-nan,-nan,-nan,-nan
8,0,30,644081.500000,219794.533333,1269915.733333,66585.333333,7944.233333,634411.400000,9337.829104,2025.651397,73618.095841,1356.193726,708.249659,36748.934826
8,1,0,-nan,-nan,-nan,-nan,-nan,-nan,-nan,-nan,-nan,-nan,-nan,-nan
9,0,30,641893.100000,219239.366667,1236400.433333,66221.800000,7661.266667,617715.266667,6982.798447,1518.781935,42915.446081,1172.562419,682.327142,21446.304312
9,1,0,-nan,-nan,-nan,-nan,-nan,-nan,-nan,-nan,-nan,-nan,-nan,-nan
10,0,30,642368.666667,219306.566667,1260922.900000,66266.866667,7899.733333,629881.566667,6315.070226,1600.653693,93465.972001,966.656083,777.603495,46678.742231
10,1,0,-nan,-nan,-nan,-nan,-nan,-nan,-nan,-nan,-nan,-nan,-nan,-nan
11,0,30,642118.100000,219205.900000,1264656.933333,66212.900000,7838.800000,631752.833333,7545.808542,1800.772137,59969.529264,1145.243478,683.842155,29976.830562
11,1,0,-nan,-nan,-nan,-nan,-nan,-nan,-nan,-nan,-nan,-nan,-nan,-nan
12,0,30,641286.800000,219092.200000,1238205.300000,66116.233333,7750.366667,618570.666667,5962.349304,1413.743739,65314.794264,844.488038,695.875539,32629.971215
12,1,0,-nan,-nan,-nan,-nan,-nan,-nan,-nan,-nan,-nan,-nan,-nan,-nan
13,0,30,643915.533333,219754.333333,1250702.866667,66483.666667,7841.100000,624841.466667,9407.178269,2323.627542,56985.734753,1248.959896,588.335412,28464.321575
13,1,0,-nan,-nan,-nan,-nan,-nan,-nan,-nan,-nan,-nan,-nan,-nan,-nan
14,0,30,642871.233333,219539.000000,1231207.866667,66397.166667,7895.700000,615043.066667,8320.291524,1723.896091,45310.546104,1218.911757,772.465755,22641.207749
14,1,0,-nan,-nan,-nan,-nan,-nan,-nan,-nan,-nan,-nan,-nan,-nan,-nan
15,0,30,642320.300000,219434.000000,1242059.866667,66307.100000,7617.200000,620418.433333,6444.280830,1379.513948,75888.470410,912.819345,639.258393,37865.001823
15,1,0,-nan,-nan,-nan,-nan,-nan,-nan,-nan,-nan,-nan,-nan,-nan,-nan
16,0,30,642990.166667,219465.200000,1252246.100000,66366.500000,7785.700000,625617.466667,8318.876210,1751.809910,74776.175291,1211.095035,811.488720,37400.436339
16,1,0,-nan,-nan,-nan,-nan,-nan,-nan,-nan,-nan,-nan,-nan,-nan,-nan
17,0,30,640294.366667,218982.600000,1242318.266667,66040.333333,7707.700000,620570.900000,5231.609526,1300.500945,62331.778579,707.901233,753.473209,31161.432397
17,1,0,-nan,-nan,-nan,-nan,-nan,-nan,-nan,-nan,-nan,-nan,-nan,-nan
18,0,30,640886.800000,219066.533333,1248125.700000,66055.233333,7733.700000,623484.266667,5162.939340,1135.077552,75187.699044,668.056219,637.819888,37620.644893
18,1,0,-nan,-nan,-nan,-nan,-nan,-nan,-nan,-nan,-nan,-nan,-nan,-nan
19,0,30,643633.200000,219637.433333,1262657.200000,66510.566667,8006.866667,630803.500000,9090.034761,2062.127812,51565.232147,1485.707725,674.921266,25752.075511
19,1,0,-nan,-nan,-nan,-nan,-nan,-nan,-nan,-nan,-nan,-nan,-nan,-nan
20,0,30,643180.366667,219637.866667,1228281.166667,66477.333333,7694.766667,613606.700000,8081.581910,1817.320385,76923.175954,1158.588519,587.480648,38421.649882
20,1,0,-nan,-nan,-nan,-nan,-nan,-nan,-nan,-nan,-nan,-nan,-nan,-nan
21,0,30,642960.300000,219666.933333,1243745.200000,66436.500000,7817.400000,621317.866667,7629.632172,1651.764429,52595.988788,1202.987053,629.877480,26313.916875
21,1,0,-nan,-nan,-nan,-nan,-nan,-nan,-nan,-nan,-nan,-nan,-nan,-nan
22,0,30,641432.766667,219404.766667,1231414.566667,66203.866667,7627.666667,615186.900000,7493.738340,1996.731340,62338.907297,1009.486131,630.671142,31173.241754
22,1,0,-nan,-nan,-nan,-nan,-nan,-nan,-nan,-nan,-nan,-nan,-nan,-nan
23,0,30,641300.833333,219352.600000,1243522.100000,66219.200000,7702.866667,621242.433333,5853.873516,1288.924270,84994.551205,810.188390,563.943776,42525.512796
23,1,0,-nan,-nan,-nan,-nan,-nan,-nan,-nan,-nan,-nan,-nan,-nan,-nan
24,0,30,640917.200000,219132.900000,1246412.333333,66138.533333,7835.633333,622706.633333,6155.791828,1283.145000,60983.326201,983.260180,520.535396,30450.406319
24,1,0,-nan,-nan,-nan,-nan,-nan,-nan,-nan,-nan,-nan,-nan,-nan,-nan
25,0,30,643418.000000,219854.400000,1241802.633333,66524.666667,7784.133333,620387.566667,9894.093127,2381.366143,53912.804271,1334.928745,558.429031,26923.929047
25,1,0,-nan,-nan,-nan,-nan,-nan,-nan,-nan,-nan,-nan,-nan,-nan,-nan
26,0,30,641903.433333,219342.366667,1250518.233333,66288.066667,7819.566667,624688.533333,6532.747807,1384.447001,64923.266273,978.730502,647.741547,32357.192777
26,1,0,-nan,-nan,-nan,-nan,-nan,-nan,-nan,-nan,-nan,-nan,-nan,-nan
27,0,30,645591.566667,220197.600000,1244780.066667,66780.200000,7898.633333,621827.866667,10179.311800,2369.783022,60026.271641,1325.342557,552.185505,29971.911583
27,1,0,-nan,-nan,-nan,-nan,-nan,-nan,-nan,-nan,-nan,-nan,-nan,-nan
28,0,30,641338.966667,219147.500000,1262097.000000,66166.300000,7835.100000,630505.100000,5923.576507,1408.353406,86341.760720,916.583044,838.537908,43149.513404
28,1,0,-nan,-nan,-nan,-nan,-nan,-nan,-nan,-nan,-nan,-nan,-nan,-nan
29,0,30,641701.066667,219240.933333,1237982.300000,66220.533333,7583.966667,618476.233333,6987.175509,1686.398726,52646.680761,1068.167925,636.579897,26311.119672
29,1,0,-nan,-nan,-nan,-nan,-nan,-nan,-nan,-nan,-nan,-nan,-nan,-nan
30,0,30,641331.866667,219170.233333,1220145.766667,66205.866667,7571.566667,609530.366667,7247.648767,1612.629730,53993.034949,1073.536080,501.200870,26968.473256
30,1,0,-nan,-nan,-nan,-nan,-nan,-nan,-nan,-nan,-nan,-nan,-nan,-nan
31,0,30,641278.533333,219216.500000,1241568.500000,66214.066667,7560.300000,620253.700000,8287.575012,1804.855853,61055.525011,1129.023293,689.707047,30574.071637
31,1,0,-nan,-nan,-nan,-nan,-nan,-nan,-nan,-nan,-nan,-nan,-nan,-nan
32,0,30,642822.800000,219631.800000,1239658.666667,66429.533333,7746.000000,619286.700000,7544.706778,1668.556090,69485.025396,1116.980326,654.187588,34691.135105
32,1,0,-nan,-nan,-nan,-nan,-nan,-nan,-nan,-nan,-nan,-nan,-nan,-nan
33,0,30,643388.966667,219708.033333,1251567.566667,66522.833333,7765.266667,625205.366667,6339.337854,1544.321264,68744.170089,1107.382622,749.328630,34365.020854
33,1,0,-nan,-nan,-nan,-nan,-nan,-nan,-nan,-nan,-nan,-nan,-nan,-nan
34,0,30,640346.666667,219118.300000,1220515.366667,66080.566667,7613.500000,609693.466667,5277.432212,1292.307011,51500.565002,743.241849,575.271400,25748.566784
34,1,0,-nan,-nan,-nan,-nan,-nan,-nan,-nan,-nan,-nan,-nan,-nan,-nan
35,0,30,643450.700000,219747.933333,1226103.733333,66441.500000,7671.733333,612491.133333,7649.202007,1923.865985,53897.970431,1158.258283,525.853778,26909.511572
35,1,0,-nan,-nan,-nan,-nan,-nan,-nan,-nan,-nan,-nan,-nan,-nan,-nan
36,0,30,639174.133333,218786.633333,1217806.833333,65890.133333,7457.433333,608354.866667,3311.257442,858.506396,40945.462619,366.817187,488.103178,20486.619298
36,1,0,-nan,-nan,-nan,-nan,-nan,-nan,-nan,-nan,-nan,-nan,-nan,-nan
37,0,30,640331.966667,218992.433333,1211661.133333,66023.233333,7414.400000,605281.366667,5221.234206,1277.717775,51827.932272,652.623918,464.707478,25896.914016
37,1,0,-nan,-nan,-nan,-nan,-nan,-nan,-nan,-nan,-nan,-nan,-nan,-nan
38,0,30,646327.000000,220554.066667,1243936.066667,66894.266667,7784.533333,621368.033333,9163.917674,2298.343852,72150.487180,1322.184857,803.991697,35989.801127
38,1,0,-nan,-nan,-nan,-nan,-nan,-nan,-nan,-nan,-nan,-nan,-nan,-nan
39,0,30,642175.733333,219527.600000,1222273.533333,66238.400000,7566.566667,610626.266667,8841.287263,2585.159796,51807.576531,1096.725447,559.713360,25886.670767
39,1,0,-nan,-nan,-nan,-nan,-nan,-nan,-nan,-nan,-nan,-nan,-nan,-nan
40,0,30,643652.133333,220270.033333,1226126.566667,66384.700000,7582.333333,612489.400000,14827.878339,5093.074026,61621.630454,1474.528968,587.067988,30747.478020
40,1,0,-nan,-nan,-nan,-nan,-nan,-nan,-nan,-nan,-nan,-nan,-nan,-nan
41,0,30,643521.700000,220170.100000,1215703.033333,66428.566667,7620.300000,607302.233333,11193.018244,3655.107498,70355.077343,1264.691680,722.762854,35204.350933
41,1,0,-nan,-nan,-nan,-nan,-nan,-nan,-nan,-nan,-nan,-nan,-nan,-nan
42,0,30,646722.500000,220771.766667,1242090.900000,66877.533333,7884.400000,620485.633333,13026.489621,4055.618117,76830.701968,1598.808968,644.155085,38376.933566
42,1,0,-nan,-nan,-nan,-nan,-nan,-nan,-nan,-nan,-nan,-nan,-nan,-nan
43,0,30,643500.133333,220042.833333,1227548.366667,66381.000000,7751.733333,613215.200000,11740.378613,3865.644044,62514.071184,1298.035464,651.294810,31220.928795
43,1,0,-nan,-nan,-nan,-nan,-nan,-nan,-nan,-nan,-nan,-nan,-nan,-nan
44,0,30,644381.200000,220121.766667,1222288.433333,66567.533333,7655.133333,610635.966667,11799.568301,3473.694274,66511.355001,1336.562924,666.265549,33251.657463
44,1,0,-nan,-nan,-nan,-nan,-nan,-nan,-nan,-nan,-nan,-nan,-nan,-nan
45,0,30,642949.666667,219967.966667,1247634.366667,66369.300000,7685.000000,623235.966667,14759.790959,4284.319226,71537.803017,1637.242909,726.132678,35844.206125
45,1,0,-nan,-nan,-nan,-nan,-nan,-nan,-nan,-nan,-nan,-nan,-nan,-nan
46,0,30,644787.633333,220501.033333,1249191.766667,66613.633333,7825.600000,624018.800000,12260.139644,3667.326115,80561.468592,1297.564577,759.849968,40277.088704
46,1,0,-nan,-nan,-nan,-nan,-nan,-nan,-nan,-nan,-nan,-nan,-nan,-nan
47,0,30,643859.733333,220293.400000,1229258.000000,66584.266667,7772.666667,614039.166667,11655.634523,3567.092043,53894.247950,1275.720004,601.919614,26949.532230
47,1,0,-nan,-nan,-nan,-nan,-nan,-nan,-nan,-nan,-nan,-nan,-nan,-nan
48,0,30,643236.533333,219901.800000,1243205.600000,66400.133333,7838.100000,621078.700000,11609.070559,3411.126934,62579.435249,1253.353627,707.625153,31294.448830
48,1,0,-nan,-nan,-nan,-nan,-nan,-nan,-nan,-nan,-nan,-nan,-nan,-nan
49,0,30,645524.200000,220481.233333,1239025.200000,66643.400000,7946.633333,618967.533333,15096.277778,4512.437107,77930.755760,1777.655752,706.844560,38999.534540
49,1,0,-nan,-nan,-nan,-nan,-nan,-nan,-nan,-nan,-nan,-nan,-nan,-nan
50,0,30,642905.466667,219617.666667,1236857.100000,66267.233333,7736.900000,617908.366667,11135.562260,3373.451994,63130.217458,1268.153452,740.717326,31482.034279
50,1,0,-nan,-nan,-nan,-nan,-nan,-nan,-nan,-nan,-nan,-nan,-nan,-nan
51,0,30,644133.033333,220239.933333,1239489.333333,66511.733333,7716.266667,619229.200000,11358.179700,3678.322271,49605.522747,1344.571231,553.868272,24767.682040
51,1,0,-nan,-nan,-nan,-nan,-nan,-nan,-nan,-nan,-nan,-nan,-nan,-nan
52,0,30,642270.500000,219816.366667,1257798.700000,66327.600000,7725.433333,628312.600000,10655.336884,3307.852299,72230.797783,1139.122984,661.838988,36052.251720
52,1,0,-nan,-nan,-nan,-nan,-nan,-nan,-nan,-nan,-nan,-nan,-nan,-nan
53,0,30,642685.433333,219825.833333,1217630.200000,66365.566667,7543.766667,608260.000000,11200.314956,3434.491559,52526.385299,1229.839059,572.279342,26270.659308
53,1,0,-nan,-nan,-nan,-nan,-nan,-nan,-nan,-nan,-nan,-nan,-nan,-nan
54,0,30,643542.833333,220144.700000,1245869.200000,66418.800000,7682.466667,622343.400000,14345.272309,4340.793254,75234.186873,1621.120917,723.247894,37561.617554
54,1,0,-nan,-nan,-nan,-nan,-nan,-nan,-nan,-nan,-nan,-nan,-nan,-nan
55,0,30,644284.433333,220027.300000,1251416.333333,66434.966667,7663.566667,625143.333333,11283.431410,3480.361352,61220.643095,1285.905089,566.642844,30534.877264
55,1,0,-nan,-nan,-nan,-nan,-nan,-nan,-nan,-nan,-nan,-nan,-nan,-nan
56,0,30,643627.800000,220028.466667,1236113.700000,66367.966667,7526.700000,617477.833333,11682.508088,3890.176917,67717.711894,1333.391327,655.204810,33776.293169
56,1,0,-nan,-nan,-nan,-nan,-nan,-nan,-nan,-nan,-nan,-nan,-nan,-nan
57,0,31,642732.645161,219948.096774,1234638.516129,66289.709677,7687.225806,616748.612903,13719.784324,4171.446731,68882.154070,1485.179932,595.762602,34441.130695
57,1,0,-nan,-nan,-nan,-nan,-nan,-nan,-nan,-nan,-nan,-nan,-nan,-nan
58,0,31,643319.935484,219896.258065,1247025.935484,66419.387097,7731.806452,622999.774194,11097.732404,3348.543718,69936.558770,1311.428811,665.202876,34970.672501
58,1,0,-nan,-nan,-nan,-nan,-nan,-nan,-nan,-nan,-nan,-nan,-nan,-nan
59,0,31,644329.903226,220469.258065,1252066.967742,66501.870968,7729.193548,625447.322581,12365.306430,3821.038273,68089.860639,1303.865116,723.993202,34032.215585
59,1,0,-nan,-nan,-nan,-nan,-nan,-nan,-nan,-nan,-nan,-nan,-nan,-nan
60,0,31,645928.838710,220301.032258,1242336.096774,66689.225806,7940.709677,620616.000000,11580.006541,3430.740957,63695.627464,1453.798910,797.528772,31812.973761
60,1,0,-nan,-nan,-nan,-nan,-nan,-nan,-nan,-nan,-nan,-nan,-nan,-nan
61,0,31,644850.129032,220037.612903,1230208.967742,66537.741935,7755.225806,614584.806452,11576.258083,3475.327802,57817.561947,1393.450231,615.826102,28912.268644
61,1,0,-nan,-nan,-nan,-nan,-nan,-nan,-nan,-nan,-nan,-nan,-nan,-nan
62,0,31,643566.741935,219823.225806,1262577.387097,66331.709677,7797.419355,630769.258065,11098.877493,3396.466643,77387.938105,1240.350164,843.624507,38691.801122
62,1,0,-nan,-nan,-nan,-nan,-nan,-nan,-nan,-nan,-nan,-nan,-nan,-nan
63,0,91,640884.032967,219311.109890,1234205.791209,66241.263736,7709.384615,616560.439560,8385.328707,2400.330565,62415.572412,991.541223,703.520063,31183.258588
63,1,0,-nan,-nan,-nan,-nan,-nan,-nan,-nan,-nan,-nan,-nan,-nan,-nan
