0,-1,690788,237298,1340796,70769,6829,669905,0
0,3,763408,266257,1393651,78599,8700,696346,0
0,-1,689162,236840,1296137,70522,7719,647535,2
0,-1,713251,241970,1412001,74047,9064,705577,0
0,3,707180,249240,1531432,74217,9198,764563,0
0,-1,695901,238183,1369259,71208,7773,683938,0
0,3,701836,247052,1394113,73254,9284,696522,0
0,3,711009,249431,1487720,74247,9211,743131,0
0,-1,685048,236612,1299975,70476,8067,649335,0
0,3,709767,248874,1451627,74183,9056,725068,0
0,-1,694429,238932,1421886,71357,8788,710169,0
0,3,708023,248493,1399301,73939,8635,699171,0
0,-1,641995,221149,1307802,66812,8633,652675,0
0,3,708739,247823,1537150,73636,8696,768038,0
0,-1,637244,218783,1274535,65691,7321,636788,0
0,3,711766,250509,1372670,74986,8784,685419,0
0,-1,637168,219188,1177579,65798,7100,588283,0
0,3,711364,248777,1351548,74150,9044,675128,0
0,-1,642889,221102,1248171,66647,7805,623281,0
0,3,736118,254156,1460558,78025,9449,729732,0
0,-1,657257,222901,1433802,68836,8022,716515,0
0,3,733929,254046,1439175,77343,9197,719213,0
0,-1,643421,219934,1358898,66221,8358,678792,0
0,3,709271,248825,1362975,73963,8250,681080,0
0,3,711017,248305,1405888,73822,8442,702461,0
0,-1,663254,227573,1256741,68384,7089,627938,0
0,3,705371,247973,1334290,73817,9653,666369,0
0,-1,640680,220297,1366484,66555,7751,682473,0
0,3,711695,249431,1506852,74458,9913,752844,0
0,-1,659730,223025,1241230,68932,8882,619894,0
0,3,709135,248471,1469620,73895,9402,734073,0
0,-1,638172,218495,1336835,65628,7563,667824,0
0,3,707916,249169,1506263,74259,9741,752649,0
0,-1,638304,218741,1247268,65691,6830,623220,0
0,-1,638278,218323,1150428,65597,7105,574702,0
0,3,712006,248998,1598835,74121,9312,798991,0
0,-1,640710,218006,1139812,65433,6938,569431,0
0,3,713615,249300,1475628,74275,9279,737360,0
0,-1,637407,219238,1218947,65836,7417,609059,0
0,-1,659433,223462,1316049,69063,7701,657464,0
0,3,705445,248744,1341278,74001,9081,670305,0
0,-1,634644,218403,1184223,65742,6612,591557,0
0,-1,642472,221174,1387747,66761,7187,692930,0
0,3,705478,248608,1640393,73952,9170,819600,0
0,-1,635954,218792,1374286,65808,8230,686567,0
0,3,710667,248969,1484618,74104,8769,741751,0
0,-1,646758,220919,1369058,66613,8170,683708,0
0,3,708004,249325,1384670,74192,8191,691778,0
0,-1,688394,233016,1403150,71839,8236,700873,0
0,-1,643458,220688,1315870,66425,8032,657447,0
0,3,708777,249000,1479552,74015,8942,739107,0
0,3,712655,249155,1406484,74166,9171,702749,0
0,-1,642161,219495,1288102,65938,7396,643459,0
0,-1,646378,221146,1443763,66761,7286,721116,0
0,3,708390,249358,1449526,74224,9172,724229,0
0,-1,641894,219084,1328952,65883,7935,663408,0
0,3,707615,249009,1511680,74074,9199,755326,0
0,3,713906,250299,1497220,74680,8980,747950,0
0,-1,638951,219387,1277732,66036,7311,638670,0
0,-1,640686,219222,1230246,65955,7347,614738,0
0,3,715712,251162,1506716,75135,9554,752335,0
0,-1,644688,221046,1401040,66876,8012,699691,0
0,3,709764,249216,1430846,74182,8485,714781,0
0,-1,636587,218359,1340779,65697,7316,669938,0
0,3,727000,253208,1399581,77255,8920,699310,0
0,-1,641711,219156,1259985,65952,6915,629549,0
0,3,712918,250314,1411611,74733,9497,705111,0
0,3,705989,248619,1290203,73927,7891,644664,0
0,-1,659826,223246,1391321,69114,7868,695330,0
0,-1,646263,221994,1365433,67164,7885,681902,0
0,3,708810,248538,1321891,73817,8325,660369,0
0,-1,645522,221502,1309939,67075,7626,654155,0
0,-1,665040,223954,1383437,69346,8222,691498,0
0,3,711415,249021,1370503,73884,9263,684832,0
0,3,711584,249131,1430709,74032,8796,714849,0
0,-1,640903,219177,1202039,65957,7678,600548,0
0,-1,643788,219112,1290554,65943,7267,644915,0
0,3,710970,250848,1468640,74821,9144,733512,0
0,3,709220,249091,1443403,74120,8118,721082,0
0,-1,644461,218867,1402090,65870,7738,700655,0
0,3,713265,249294,1434729,74067,8822,716893,0
0,3,716490,250349,1487153,74510,10197,743056,0
0,-1,635684,219864,1332623,66226,8038,665900,0
0,3,718996,251083,1683458,74594,9986,841222,0
0,-1,658120,224017,1317440,69350,8356,657963,0
0,3,716505,249873,1487298,74217,9952,743135,0
0,-1,639546,219388,1261631,65992,8320,630389,0
0,-1,636145,219177,1215597,65872,6444,607415,0
0,3,720971,251638,1512751,75093,9865,755616,0
0,3,719623,249920,1456814,74356,9498,727637,0
0,-1,640052,220097,1191114,66172,6791,595107,0
0,3,710829,249519,1408643,74196,9354,703191,0
0,-1,636198,219132,1336120,65914,8194,667516,0
0,3,711763,248927,1552920,73931,9689,776004,0
0,-1,638055,219820,1290135,66110,8415,644503,0
0,3,708637,248747,1345051,73888,8241,672156,0
0,-1,639399,218953,1241870,65838,6982,620450,0
0,3,707889,248656,1489295,73979,9158,744146,0
0,3,712121,249808,1443821,74358,9080,721184,0
0,-1,659262,223521,1354012,69158,8090,676422,0
0,3,711175,248885,1494141,74004,9894,746506,0
0,-1,639322,219474,1203265,65922,7168,601156,0
0,3,713597,248800,1434096,73980,9931,716380,0
0,-1,641069,218906,1317995,65764,8398,658416,0
0,3,709344,248710,1492558,73859,9095,745792,0
0,-1,658296,224343,1233940,69384,7787,616505,0
0,3,716691,250871,1453587,74670,10144,726101,0
0,-1,638438,219193,1221723,65878,6939,610390,0
0,-1,639724,220303,1311938,66485,7138,655135,0
0,3,720422,251252,1444044,74815,9758,720981,0
0,3,711562,248698,1471484,73777,10096,735447,0
0,-1,639525,219334,1309135,65943,7853,654104,0
0,3,709724,248424,1383575,73743,10841,691130,0
0,-1,640617,219238,1276044,65924,8000,637380,0
0,3,711406,249022,1378378,73961,9325,688510,0
0,3,709848,249479,1492552,74082,10153,745775,0
0,-1,638925,219257,1346219,65896,7708,672664,0
0,3,727585,253494,1400237,77170,10501,699665,0
0,-1,659641,224224,1231812,69311,7455,615156,0
0,3,714933,250429,1436503,74601,9346,717569,0
0,-1,641184,219724,1228355,66140,7192,613711,0
0,3,709252,248364,1443247,73741,9118,721009,0
0,-1,658937,223929,1435618,69251,7823,717306,0
0,3,709363,248022,1420290,73572,8413,709670,0
0,-1,659554,223815,1287583,69249,7605,643157,0
0,-1,643998,220584,1285344,66387,7756,642117,0
0,3,708671,247919,1650310,73544,10305,824792,0
0,-1,635515,219485,1234987,65922,6858,617033,0
0,3,710337,248803,1423386,73840,9056,711290,0
0,3,708666,247973,1280016,73590,8691,639508,0
0,-1,656345,223263,1230894,68986,7658,615067,0
0,3,714915,250271,1376795,74522,8686,688013,0
0,-1,641533,220609,1239299,66522,7168,618952,0
0,3,720797,251557,1369150,75027,9869,683599,0
0,-1,638755,220517,1230098,66511,7412,614270,0
0,3,708694,248526,1446332,73714,9112,722567,0
0,-1,636158,218316,1165663,65679,7154,582285,0
0,3,712840,248186,1390118,73567,8309,694202,0
0,-1,638532,219276,1210482,65977,6993,604597,0
0,3,712587,247578,1536884,73440,8899,767886,0
0,-1,639313,219829,1185992,66128,7117,592429,0
0,3,703970,248787,1295331,73509,8463,647337,0
0,-1,638197,219099,1267574,65680,7900,633385,0
0,3,704158,248048,1450016,73327,9878,724415,0
0,-1,640105,219242,1205415,65824,7551,602154,0
0,3,706700,248255,1430811,73360,8863,714874,0
0,-1,657767,223743,1234407,69049,7432,616720,0
0,3,703223,247656,1544846,73087,9953,772472,0
0,-1,638370,219135,1211023,65763,6577,605050,0
0,3,733102,257147,1473286,75906,8728,736224,0
0,3,712628,249597,1446145,74580,10196,722653,0
0,-1,663128,224197,1473189,69179,7627,736003,0
0,3,725819,252810,1656022,77461,11528,827370,0
0,3,729612,252506,1670432,77392,10931,834896,0
0,-1,641735,219720,1170318,66038,7001,584695,0
0,3,709217,248197,1549059,74099,9075,774050,0
0,-1,645190,220327,1453996,66253,7427,726504,0
0,3,711983,248515,1338995,74267,9323,668995,0
0,-1,640552,219926,1181845,66182,6906,590448,0
0,-1,663724,224690,1317888,69484,8341,658544,0
0,-1,648182,221907,1504397,66779,7453,751504,0
0,3,709326,247875,1468949,74018,9323,733970,0
0,-1,647273,222302,1401852,66916,8684,700166,0
0,-1,643513,220996,1320251,66281,7640,659615,0
0,3,712774,248323,1456795,74158,9078,727983,0
0,3,704924,247597,1370549,73917,9537,684878,0
0,-1,645955,220640,1246580,66144,7618,621405,0
0,3,706887,248155,1481138,74106,9447,740085,0
0,-1,649349,222252,1313669,67075,7993,655765,0
0,3,708771,248847,1488366,74373,11368,743596,0
0,3,710771,248812,1438343,74224,9828,718507,0
0,-1,650445,222113,1415079,67016,8607,706826,0
0,3,708329,248633,1502657,74154,9522,750252,0
0,-1,649824,221034,1314228,66348,8445,656508,0
0,3,709623,248563,1534208,74143,9255,766321,0
0,-1,646172,221775,1390405,66790,9269,694224,0
0,-1,642744,220867,1228820,66584,7948,613661,0
0,3,717346,249869,1386786,74859,9055,692456,0
0,-1,640151,219366,1313285,65916,8021,656089,0
0,-1,640242,219511,1399635,65853,7740,699179,0
0,3,711954,248200,1479589,74028,10268,739202,0
0,-1,638479,218555,1311448,65570,8257,655183,0
0,3,710512,249210,1504303,74343,9961,751587,0
0,-1,641014,219035,1351323,65836,7889,675214,0
0,3,715829,250478,1314226,75024,8330,656424,0
0,-1,640933,220144,1321629,66260,8212,660064,0
0,-1,639877,219007,1181626,65743,7261,590302,0
0,3,712662,248766,1469944,74290,9140,734521,0
0,-1,646119,220602,1324884,66440,8414,661580,0
0,3,719531,249292,1624832,74648,10718,811246,0
0,-1,638939,218876,1188448,65647,7475,593646,0
0,3,709830,248252,1425355,74092,9000,712204,0
0,-1,662648,224433,1322481,69352,9150,660733,0
0,3,713230,249986,1455890,74685,9324,727516,0
0,-1,641479,221332,1450750,66777,8999,724430,0
0,-1,639849,219338,1296086,65832,7902,647405,0
0,3,717014,249683,1399373,74600,9019,699170,0
0,-1,641486,220096,1302326,66046,7616,650688,0
0,3,715034,249600,1424590,74474,9918,711807,0
0,3,714122,249824,1449542,74528,9193,724279,0
0,-1,662800,223965,1390873,69073,8938,695093,0
0,-1,645363,219886,1205736,65856,8460,602302,0
0,3,711326,249290,1433476,74419,9524,716272,0
0,-1,646321,221034,1310162,66309,8103,654436,0
0,3,708597,248523,1448098,74093,9548,723577,0
0,3,714244,249727,1327421,74551,8541,663279,0
0,3,731809,253980,1558818,77771,10720,778474,0
0,-1,638274,219370,1249866,65666,7459,623809,0
0,3,713539,249105,1422381,74377,9804,710657,0
0,3,714361,249861,1515138,74642,10313,757107,0
0,-1,641035,219561,1285321,65769,8524,642126,0
0,3,718627,250900,1466506,75177,8617,732279,0
0,-1,668701,228279,1319475,68252,8625,659198,0
0,-1,640636,219488,1309057,65840,7794,654091,0
0,-1,647378,220918,1217694,66296,7516,608366,0
0,3,714734,249518,1530106,74586,10111,764445,0
0,-1,644901,220401,1306531,66331,8067,652683,0
0,3,716898,249858,1612396,74624,11068,805659,0
0,-1,645670,219242,1439267,65738,8988,719070,0
0,3,708237,247682,1426820,73879,9079,712909,0
0,-1,639079,218764,1387652,65546,8183,693242,0
0,-1,637497,218598,1435046,65512,7915,717053,0
0,3,713011,249439,1461627,74383,9965,730375,0
0,-1,640600,220626,1279337,66377,7692,639005,0
0,3,721580,250308,1442321,74897,9707,720452,0
0,-1,660072,223779,1255446,69028,7836,627271,0
0,3,709646,248193,1380987,74111,9327,690062,0
0,3,711262,248695,1447790,74425,7813,723314,0
0,-1,639837,219395,1380360,65740,8429,689679,0
0,-1,641908,219094,1207631,65697,7599,603420,0
0,3,712457,247800,1357936,74128,8963,678654,0
0,-1,639390,218849,1357468,65625,7734,678140,0
0,3,710996,247834,1436034,74160,9148,717576,0
0,3,710092,247710,1388032,74030,9307,693571,0
0,-1,637695,218697,1286621,65561,7702,643018,0
0,3,715731,248103,1420380,74223,9633,709751,0
0,-1,648283,221830,1249565,66933,8089,623921,0
0,3,728453,252795,1504820,77562,10048,751959,0
0,3,730335,253158,1343921,77588,9984,671583,0
0,-1,645432,221011,1166072,66530,7119,582163,0
1,-1,694347,237416,1358120,70745,7919,678668,0
1,3,788306,276885,1762816,81652,10588,880906,0
1,-1,692885,237644,1539620,70833,8185,769194,0
1,-1,694059,238093,1375184,71022,7527,687121,2
1,3,729836,252616,1495559,76894,10423,747112,0
1,3,707406,248295,1434967,73738,9116,717013,0
1,-1,720288,242535,1501342,74215,8982,750160,0
1,-1,688426,237273,1405701,70621,8444,702370,0
1,3,707667,247781,1507009,73753,9186,752780,0
1,3,709103,249151,1467547,74312,9193,733093,0
1,-1,655215,223126,1268825,68958,8846,633910,0
1,3,728305,252496,1493185,77026,9829,746137,0
1,-1,641366,220981,1340296,66721,8333,669153,0
1,3,707054,248546,1394064,73792,8524,696471,0
1,-1,640120,220472,1532797,66367,8808,765616,0
1,3,713975,250576,1469722,74769,8547,734068,0
1,-1,659721,223602,1262694,69000,8315,630742,0
1,3,709720,248796,1347726,73931,8559,673253,0
1,-1,636578,218992,1505783,65805,7874,752344,0
1,3,706589,248034,1391233,73655,8302,695141,0
1,-1,640706,219404,1300850,65861,7882,649919,0
1,3,728323,253116,1425565,77141,9285,712247,0
1,3,710727,248618,1456768,73853,9072,728033,0
1,-1,640522,220652,1326051,66680,7521,662298,0
1,3,716539,250183,1479869,74677,9611,739125,0
1,-1,656804,223318,1361293,69029,7758,680239,0
1,3,710155,248680,1361165,74078,9254,679602,0
1,-1,637558,218237,1188668,65563,8111,593708,0
1,3,712108,249357,1473779,74302,9756,736606,0
1,-1,639779,219179,1491221,65907,8540,745121,0
1,3,718656,250574,1646685,74895,10183,822253,0
1,-1,640681,218693,1302856,65655,7263,650614,0
1,-1,647520,221454,1251190,66912,7988,624713,0
1,3,711955,249182,1505472,74243,8819,752295,0
1,-1,642217,218914,1224197,65822,7592,611564,0
1,3,712175,248455,1464601,73991,9612,731844,0
1,-1,664770,228875,1403312,68973,8825,700745,0
1,-1,635356,218255,1304046,65578,7925,651607,0
1,3,731025,257324,1508968,76574,8814,753978,0
1,-1,633553,217984,1159532,65573,7106,579193,0
1,3,705449,248890,1594545,74064,9420,796474,0
1,-1,636897,218194,1193417,65586,6790,596220,0
1,-1,648852,222076,1340190,67134,7824,669093,0
1,3,708723,248595,1373434,73945,8126,686236,0
1,-1,638000,218324,1310422,65642,7305,654665,0
1,3,709385,248679,1372988,73919,8516,685878,0
1,-1,639906,219428,1323072,65907,7128,661018,0
1,-1,639211,219592,1203293,65847,7060,601160,0
1,3,709501,249198,1468417,74099,8803,733737,0
1,3,708910,248752,1478403,74037,8967,738732,0
1,-1,643388,219727,1216047,65923,7234,607535,0
1,-1,661189,223684,1452848,69079,7175,726096,0
1,3,728632,253549,1440516,77348,9186,719527,0
1,-1,642131,219096,1181048,65936,7328,590100,0
1,3,708009,248815,1348223,73988,8340,673576,0
1,3,709055,248829,1437160,73953,8480,717898,0
1,-1,636759,218930,1354788,65878,7945,676951,0
1,-1,660648,224291,1364276,69437,8773,681727,0
1,3,730625,253480,1500623,77358,9500,749819,0
1,-1,659674,223517,1307694,69224,8370,653418,0
1,3,712007,249652,1453594,74319,8839,726300,0
1,-1,646848,221083,1350281,66909,8485,674440,0
1,3,714697,249110,1428039,74103,9864,713590,0
1,-1,640884,219376,1193017,66022,7509,595709,0
1,3,708571,249203,1344481,74138,9015,671646,0
1,3,708734,248648,1291584,73976,8119,645281,0
1,-1,645411,220502,1248770,66637,8131,623721,0
1,-1,639104,218983,1342126,65899,7713,670614,0
1,3,710179,248804,1334141,74007,9456,666476,0
1,-1,660239,223819,1315125,69297,7840,657123,0
1,-1,641952,219153,1469577,66013,7654,734273,0
1,3,712713,250432,1432775,74717,8428,715456,0
1,-1,644600,220932,1251602,66849,8479,624752,0
1,3,706474,247524,1374007,73471,8582,686568,0
1,-1,645630,220166,1256154,66333,7605,627660,0
1,3,725259,253290,1455091,77124,8791,727054,0
1,3,709012,249671,1471915,74267,8253,735025,0
1,-1,644437,219935,1381959,66445,8294,690193,0
1,3,717388,251129,1538140,74935,9758,768285,0
1,-1,631567,218322,1342067,65624,7843,670571,0
1,3,711904,249073,1380085,74057,9121,689289,0
1,3,716920,249742,1458976,74079,8615,729069,0
1,-1,636245,219496,1355008,65962,7587,676807,0
1,3,714747,250099,1419723,74210,9568,709358,0
1,-1,639513,219315,1254740,66002,7936,626951,0
1,3,714038,249830,1725679,74174,9931,862360,0
1,-1,640670,221387,1429876,66828,8148,714091,0
1,3,714832,249304,1381229,74102,9781,690044,0
1,-1,644625,221798,1335609,66992,7484,666842,0
1,3,710672,249719,1571619,74140,10555,785407,0
1,-1,637462,220012,1277228,66122,7478,638202,0
1,3,716032,250989,1480712,74926,10082,739451,0
1,-1,657268,223349,1295201,69012,7840,647099,0
1,3,712575,249717,1423237,74436,9441,710975,0
1,3,711986,250480,1431624,74885,9606,715048,0
1,-1,642760,220696,1358209,66522,7243,678453,0
1,3,711763,250005,1472274,74514,9199,734925,0
1,-1,640514,219979,1388450,66180,8169,693523,0
1,3,707015,247391,1424891,73399,9833,711714,0
1,-1,663404,224545,1412745,69442,8197,705918,0
1,3,709787,247726,1462075,73568,9909,730404,0
1,-1,641759,219769,1205110,66135,7154,602130,0
1,3,731122,253327,1373340,77194,9475,686069,0
1,-1,637899,220485,1166100,66351,7093,582393,0
1,3,711253,248932,1566168,73786,10506,782514,0
1,-1,637826,219279,1239428,65977,7245,618990,0
1,3,713883,249223,1468400,73850,9488,733748,0
1,-1,636699,219403,1199136,66030,6718,599014,0
1,-1,638173,219009,1460310,65862,9008,729103,0
1,3,711260,248679,1536435,73705,9626,767728,0
1,3,710718,248305,1358936,73579,10385,678800,0
1,-1,640544,219670,1622428,66092,9066,810278,0
1,3,712997,248880,1368096,73893,9557,683463,0
1,3,705428,248727,1637741,73844,9689,817998,0
1,-1,639444,220616,1336469,66586,7643,667573,0
1,3,708930,248780,1444462,73845,9470,721572,0
1,-1,635426,218679,1249419,65623,6858,624148,0
1,3,708329,248520,1412029,73805,8549,705505,0
1,-1,641329,219766,1282716,66142,7462,640848,0
1,3,712471,249698,1427394,74154,8508,713091,0
1,-1,639184,219341,1293701,65944,7298,646466,0
1,3,738487,258513,1511170,76966,8869,754713,0
1,-1,639380,219012,1335617,65895,7519,667204,0
1,-1,647704,221121,1313362,66818,7835,655693,0
1,3,711135,248443,1801710,73790,11592,900212,0
1,-1,638551,221068,1424006,66665,8007,711261,0
1,3,708155,248475,1463812,73781,9109,731411,0
1,3,710069,248220,1575556,73698,9726,787241,0
1,-1,638211,220257,1367848,66243,7955,683429,0
1,3,710254,248420,1466264,73714,9365,732670,0
1,-1,639197,220096,1204328,66212,6503,601711,0
1,3,710486,248153,1411880,73594,9416,705494,0
1,-1,642110,219556,1167356,66002,7128,583120,0
1,3,717196,249430,1291406,74166,9055,645018,0
1,-1,636322,218778,1147920,65694,6788,573552,0
1,3,714971,249060,1498413,73803,8741,748589,0
1,-1,639294,219759,1208479,66081,7619,603755,0
1,3,712678,248025,1412556,73502,7965,705809,0
1,-1,643091,219745,1180311,66076,7142,589582,0
1,3,705362,248906,1503106,73526,9182,751051,0
1,-1,639008,219642,1390614,65873,9411,694857,0
1,3,704448,248507,1493453,73438,10864,745927,0
1,-1,640919,219770,1169848,66005,7133,584459,0
1,3,708482,248826,1452952,73732,8716,725848,0
1,-1,639769,220483,1248185,66183,7074,623544,0
1,3,705860,247703,1282706,73142,9049,640790,0
1,-1,638525,219169,1263219,65714,6741,631242,0
1,3,709870,249823,1497006,74049,8851,747446,0
1,3,708680,248332,1434374,74149,9113,716686,0
1,-1,644910,220386,1250260,66152,7067,624643,0
1,3,703574,248170,1463480,74151,9633,731314,0
1,-1,640021,219640,1213956,66050,7005,606523,0
1,3,707702,248190,1503113,74157,9820,750955,0
1,3,707989,247854,1459307,73995,7931,729127,0
1,-1,648933,222125,1367626,67028,7919,682997,0
1,3,707546,247800,1371842,74002,9048,685520,0
1,-1,638284,219456,1366407,65885,7737,682759,0
1,-1,646950,221523,1241763,66871,8461,619945,0
1,3,715427,250817,1414361,75343,8936,706285,0
1,-1,645213,220641,1315040,66208,7031,656988,0
1,-1,642123,220899,1235079,66254,7899,617011,0
1,3,710138,248540,1336198,74276,8616,667572,0
1,-1,643898,220288,1288322,66046,7473,643723,0
1,3,703646,247894,1421344,74071,9775,710225,0
1,-1,647314,220824,1333885,66250,8080,666279,0
1,3,708730,248470,1452572,74179,9074,725868,0
1,-1,667047,225799,1337028,69664,8282,667816,0
1,3,709642,249466,1402035,74782,10625,699986,0
1,3,707015,247819,1382715,73865,9067,691040,0
1,-1,648566,220596,1339741,66274,7286,669207,0
1,3,712472,248430,1601295,74091,10262,799133,0
1,-1,645612,219536,1240456,65835,7539,619773,0
1,3,732016,253007,1556575,77381,9980,777785,0
1,-1,641488,220499,1331271,66137,8432,665140,0
1,-1,667463,229396,1242707,68895,7665,620881,0
1,3,710969,247953,1552317,73906,9811,775748,0
1,-1,640555,219267,1228386,65747,7121,613838,0
1,-1,641854,220286,1410458,66328,7514,704567,0
1,3,717192,250707,1473098,75111,9292,735039,0
1,-1,641478,220212,1249242,66133,7603,624161,0
1,3,708053,247911,1479819,73915,9643,739368,0
1,-1,661720,223603,1273412,69049,8836,636376,0
1,3,730978,252902,1482810,77285,10212,740958,0
1,-1,641035,220676,1242711,66653,7496,620710,0
1,-1,639357,219041,1304925,65705,7582,651956,0
1,3,712543,249100,1487801,74441,9083,743292,0
1,-1,639796,218681,1209150,65669,7582,604064,0
1,3,720188,250306,1476079,74980,9746,737505,0
1,-1,641707,219702,1292161,65963,8655,645560,0
1,3,715852,250418,1355568,75141,9240,677149,0
1,-1,641338,219167,1374731,65853,8182,686501,0
1,3,732095,253905,1588864,77745,10146,793906,0
1,-1,645750,220353,1406188,66434,8372,702116,0
1,-1,642917,220701,1402944,66520,8466,700749,0
1,3,736041,254408,1556608,78000,10156,777933,0
1,3,734937,254241,1582389,77913,10803,790717,0
1,-1,644432,221213,1293810,66749,8086,646144,0
1,3,713534,249590,1408986,74340,9070,704041,0
1,-1,643088,219356,1267515,65751,7018,633249,0
1,-1,641237,219584,1403455,65775,8041,700896,0
1,-1,644747,220231,1281007,65939,7802,639918,0
1,3,712828,248765,1479572,74254,9306,739350,0
1,3,716198,249238,1460292,74371,9445,729720,0
1,3,718138,250967,1393640,75268,9707,696074,0
1,3,714970,248665,1499369,74144,10437,749183,0
1,-1,637629,219519,1326737,65654,7794,662939,0
1,3,709498,248143,1481914,74020,9661,740516,0
1,3,713436,249880,1509315,74633,9574,754216,0
1,-1,642560,219872,1284516,65845,8073,641894,0
1,3,737598,254794,1623499,77934,10286,811070,0
1,-1,639313,219112,1367567,65624,8887,683299,0
1,-1,637094,218470,1302896,65483,8783,650723,0
1,-1,641242,218672,1308502,65533,8412,653758,0
1,3,717065,251623,1379693,75545,9539,688993,0
1,-1,641623,218443,1330187,65404,8598,664520,0
1,3,713761,249105,1475030,74382,9814,736920,0
1,-1,667675,224360,1269413,69236,9301,634387,0
1,3,734210,253971,1528449,77718,10265,763589,0
1,-1,641862,220161,1317322,66255,7574,657980,0
1,3,714201,249413,1452846,74369,9578,725767,0
1,-1,666002,228196,1367114,68374,8420,683068,0
1,-1,636301,218231,1201859,65496,7065,600483,0
1,3,713231,248032,1406918,73937,9267,702746,0
1,-1,637067,218773,1263665,65560,7118,631376,0
1,3,709063,248146,1462320,74059,9422,730561,0
1,3,709537,247673,1351156,73939,8608,674856,0
1,-1,639965,219252,1192718,65776,7700,595660,0
1,-1,645488,220634,1291753,66415,7899,645063,0
1,3,712691,248109,1484050,74282,9768,741388,0
1,3,710522,247914,1340308,74232,8669,669749,0
1,-1,638382,219301,1328175,65790,7983,663663,0
1,3,712296,248417,1462423,74384,9355,730746,0
1,-1,646877,220837,1288966,66569,8019,643569,0
1,3,719421,250227,1440904,75139,9615,719779,0
1,-1,641583,219373,1647925,65803,9414,823229,0
1,3,704725,247713,1539932,74087,9502,769504,0
1,3,707139,247687,1361987,73996,8966,680478,0
1,-1,638183,218689,1229812,65569,7302,614335,0
2,-1,692435,237470,1316146,70779,7783,657498,0
2,3,759172,268286,1608371,79516,10188,803338,0
2,-1,715293,242520,1408754,74216,9098,704157,0
2,3,710550,248919,1511857,74014,10071,755280,0
2,3,711690,250531,1490455,74753,9203,744227,0
2,-1,695132,237314,1287850,70763,8022,643412,0
2,3,707712,248113,1369275,73759,8223,684237,0
2,-1,694357,239144,1499297,71589,8518,749059,0
2,3,711184,248341,1405916,73889,9945,702058,0
2,-1,632911,218085,1393892,65444,8819,696213,0
2,3,713070,248653,1366956,73966,8857,682939,0
2,-1,635799,219173,1284393,65886,8145,641662,2
2,-1,657452,223501,1329738,69060,8735,664360,0
2,3,704684,247206,1328009,73565,8064,663492,0
2,-1,635492,219206,1320899,65776,8476,659957,0
2,3,708968,248945,1431836,74141,8467,715347,0
2,-1,638653,219410,1206596,65869,6548,602110,0
2,3,710597,248667,1485938,73900,9300,742324,0
2,-1,633359,218166,1287961,65522,7165,643589,0
2,3,707387,248306,1449170,73729,8643,724043,0
2,-1,636339,218172,1269207,65467,6835,634144,0
2,3,714448,249976,1581426,74525,9386,790132,0
2,3,710027,249244,1317633,74037,8141,658326,0
2,-1,636328,218690,1169281,65630,6888,584223,0
2,3,709748,247838,1475304,73723,9022,737313,0
2,-1,638404,217932,1474666,65463,7658,736777,0
2,3,716202,251403,1508269,75258,9821,753253,0
2,-1,642015,219504,1159579,65963,7369,579327,0
2,3,711652,248956,1480629,74177,9078,739804,0
2,-1,638058,218746,1185233,65771,7323,592155,0
2,3,713421,249310,1448887,74262,8996,723753,0
2,-1,639515,218850,1380991,65810,8451,689981,0
2,-1,659660,222905,1339726,68914,8495,669385,0
2,3,708910,248856,1531707,74124,9182,765386,0
2,-1,661054,222951,1328057,68926,8829,663626,0
2,3,712731,248726,1448011,74033,9292,723231,0
2,-1,636055,219029,1218828,65804,6790,608959,0
2,-1,638668,219894,1373520,66336,7796,686121,0
2,3,725165,253015,1466704,77268,9745,732872,0
2,-1,638931,219196,1620193,65969,10082,809453,0
2,3,707760,248774,1460659,74036,9047,729840,0
2,-1,638516,218681,1277559,65806,7455,638285,0
2,-1,642368,219699,1268274,66173,7709,633448,0
2,3,727949,253092,1373678,77102,8940,686321,0
2,-1,645967,221169,1332015,66775,7987,664905,0
2,3,708577,248894,1449053,74064,8574,723810,0
2,-1,639149,219408,1233347,65904,7031,616207,0
2,-1,638056,219385,1250774,65778,7373,624999,0
2,3,712474,251044,1559520,75004,9388,779002,0
2,3,710206,249462,1368823,74275,8148,683828,0
2,-1,646908,221456,1314590,66759,7326,656512,0
2,-1,640656,219508,1363725,65968,6734,681277,0
2,3,706742,249144,1656419,74152,9284,827661,0
2,-1,647313,221139,1339306,66676,7700,668661,0
2,3,708426,249764,1478628,74343,8964,738854,0
2,3,709105,248628,1358463,73914,8631,678726,0
2,-1,639639,219812,1277962,66217,8409,638421,0
2,-1,639253,219118,1410639,65993,7599,704841,0
2,3,708257,248803,1445157,73975,9007,722092,0
2,-1,638537,218856,1394833,65852,7689,696991,0
2,3,732968,253495,1416597,77345,9201,707780,0
2,-1,663766,223806,1302882,69306,8999,650922,0
2,3,712229,248696,1362722,73973,9260,680768,0
2,-1,663504,223902,1282372,69344,8925,640886,0
2,3,737491,258718,1535090,76984,8709,767075,0
2,3,711450,249525,1334144,74257,8527,666567,0
2,-1,639268,218760,1149060,65879,7346,573973,0
2,-1,641938,220771,1411401,66702,7946,704981,0
2,3,708639,248817,1322563,74025,9051,660570,0
2,-1,641215,218822,1248355,65834,7190,623791,0
2,3,711307,250035,1377055,74490,9428,687845,0
2,-1,640810,219083,1297782,65914,7534,648460,0
2,-1,660852,223321,1205138,69084,8437,602022,0
2,3,711601,248896,1429364,73882,8357,714013,0
2,-1,646698,220582,1351720,66620,8482,675215,0
2,3,713403,249104,1490175,73941,9380,744666,0
2,-1,641868,218793,1380654,65836,7910,689894,0
2,3,715268,251135,1507992,75068,9101,753076,0
2,3,714818,249965,1498265,74413,9255,748508,0
2,-1,635585,219104,1328111,65921,7384,663649,0
2,3,713013,249995,1389701,74430,8964,694319,0
2,3,718691,251403,1525399,74847,9212,762045,0
2,-1,638536,220421,1454649,66417,8762,726790,0
2,3,713896,250197,1406190,74224,8802,702718,0
2,-1,640894,220764,1365415,66715,8482,681901,0
2,3,715446,250388,1589063,74504,10815,793796,0
2,-1,640051,220165,1261038,66207,6964,630081,0
2,3,714605,248804,1358642,73896,8783,678894,0
2,-1,637713,219800,1336274,66127,7264,667540,0
2,3,710933,249125,1334107,74012,9338,666649,0
2,-1,655496,223491,1295328,69072,8925,647197,0
2,3,732938,254017,1433869,77428,10152,716414,0
2,3,710891,248825,1407478,73912,9343,703236,0
2,-1,638771,219902,1203067,66103,7519,601039,0
2,-1,639504,219816,1358935,66123,7301,679170,0
2,3,708559,249239,1462288,74150,9320,730567,0
2,3,708209,248875,1397191,73989,8619,698139,0
2,-1,640853,219752,1202386,66098,6605,600755,0
2,-1,640418,219867,1596575,66145,9061,797711,0
2,3,710211,248566,1512140,73905,9820,755574,0
2,3,716915,250457,1484330,74789,9897,741281,0
2,-1,639654,219369,1323713,65936,7631,661185,0
2,3,710326,248768,1503339,73885,9399,751200,0
2,-1,641568,221485,1230193,66839,7838,614140,0
2,3,709100,248448,1422732,73581,9479,710968,0
2,-1,638891,220964,1366921,66706,7923,682536,0
2,3,714689,249114,1467903,73749,9786,733448,0
2,-1,635628,218993,1327816,65855,7434,663383,0
2,-1,645024,221996,1312917,67175,7848,655632,0
2,3,708631,248431,1399240,73614,9134,699137,0
2,3,712028,248370,1517862,73720,9986,758334,0
2,-1,637649,218959,1245103,65821,7306,622032,0
2,3,711322,248292,1364017,73765,9283,681451,0
2,3,715209,248292,1484645,73646,9388,742113,0
2,-1,637293,219471,1247334,66030,7575,623080,0
2,3,707456,248201,1383617,73648,9055,691343,0
2,-1,641364,219239,1271696,65917,7570,635358,0
2,3,708994,248774,1445181,73870,8945,722087,0
2,-1,639797,219358,1278916,66003,7292,638761,0
2,3,728060,253090,1420841,77069,9536,710054,0
2,-1,641785,220527,1325997,66543,7363,662344,0
2,3,708565,248207,1451010,73693,8945,724922,0
2,-1,641245,218973,1347749,65818,7372,673406,0
2,-1,644802,220271,1267447,66214,7001,633342,0
2,3,712482,247991,1513905,73589,10043,756531,0
2,-1,643171,219397,1334400,65902,8023,666696,0
2,3,727534,252940,1369016,77041,9883,683845,0
2,3,712855,250268,1403286,74621,8468,700771,0
2,-1,636581,220121,1281048,66180,6940,640148,0
2,3,710902,248572,1607428,73799,9811,803302,0
2,-1,639369,219871,1247819,66173,7322,623450,0
2,3,712220,248068,1455040,73487,9957,726836,0
2,-1,641816,219766,1220535,66068,7040,609780,0
2,3,712143,248331,1381436,73579,9750,690204,0
2,-1,645203,222115,1251315,67214,6882,624704,0
2,3,714735,248611,1412369,73730,8892,705698,0
2,-1,640865,219664,1159698,66099,7165,579368,0
2,3,712511,248198,1367138,73612,7818,683140,0
2,-1,662636,223758,1228723,69177,8234,613931,0
2,3,705546,248798,1660292,73488,9243,829731,0
2,-1,642419,220759,1280874,66482,8418,639319,0
2,3,701357,248444,1538467,73407,9644,768766,0
2,-1,637645,218598,1171699,65523,7144,585436,0
2,3,704355,248020,1365464,73195,8716,682097,0
2,-1,639876,219096,1147138,65688,6780,573141,0
2,3,702487,248071,1570597,73256,9702,784927,0
2,-1,661849,223803,1280215,68992,7443,639643,0
2,3,705494,248465,1623374,73435,10018,811374,0
2,3,728573,252867,1516203,77502,10336,757408,0
2,-1,640481,219095,1279248,65790,6950,639197,0
2,3,710725,247786,1389264,74017,10343,693814,0
2,-1,637212,219194,1423534,65840,7397,711201,0
2,3,707014,247719,1448410,73984,9820,723254,0
2,3,714266,250453,1283256,75168,8263,640851,0
2,-1,641249,220262,1333571,66107,6500,666352,0
2,3,712550,248580,1485615,74226,9862,742414,0
2,-1,644467,220259,1423574,66222,7738,711252,0
2,-1,640638,219683,1214697,66059,7459,606867,0
2,3,708411,248883,1523675,74370,8475,761380,0
2,-1,645753,221150,1310936,66237,7362,655022,0
2,-1,653090,222428,1356871,67037,8265,677665,0
2,3,712282,248256,1432608,74089,8918,715893,0
2,-1,648671,222246,1432464,66966,8582,714273,0
2,3,710063,248836,1355276,74422,8549,677136,0
2,-1,645313,220501,1326584,66111,8262,662727,0
2,3,728861,253590,1498652,77667,9753,748429,0
2,-1,644796,220301,1287839,66050,7453,643467,0
2,3,711605,248339,1412748,74245,10000,705919,0
2,3,708126,247735,1543597,73773,9719,771099,0
2,-1,645843,220030,1345581,66275,8019,672078,0
2,3,711494,248269,1337175,73975,8784,668136,0
2,-1,649899,221067,1390206,66660,8313,694376,0
2,3,712206,249328,1401860,74612,8963,699931,0
2,-1,661167,224277,1297765,69207,8516,648439,0
2,-1,658019,223937,1509451,69182,8439,754257,0
2,3,717237,250342,1529221,74990,9420,763585,0
2,-1,639967,219488,1330800,65952,7589,664886,0
2,-1,641340,220277,1320497,66133,7547,659745,0
2,3,709664,249041,1456042,74372,9709,727435,0
2,-1,639960,219886,1206946,66094,7046,602757,0
2,3,711525,249128,1409408,74376,9020,704124,0
2,-1,640173,218870,1226374,65752,7691,612728,0
2,-1,657793,223806,1223900,69188,8112,611577,0
2,3,707870,248088,1492910,73937,10170,746412,0
2,-1,646194,221633,1290842,66849,7427,644692,0
2,3,718002,249522,1438758,74624,9497,718955,0
2,-1,637643,218353,1371485,65432,7597,685358,0
2,3,721761,251541,1408918,75633,9199,703301,0
2,-1,639976,219820,1304981,65985,7756,651477,0
2,3,710804,248838,1350526,74388,8704,674793,0
2,-1,639091,219277,1303093,65862,7727,650754,0
2,3,710494,249180,1514878,74470,8500,756957,0
2,-1,643154,218850,1474420,65732,9508,736733,0
2,-1,638737,219429,1345153,65784,8360,672008,0
2,3,712200,248985,1532636,74442,9361,765808,0
2,-1,641049,220051,1289638,66098,7705,644116,0
2,3,710938,249051,1456292,74449,10146,727368,0
2,3,713460,249898,1454208,74537,9762,726591,0
2,-1,640227,218591,1377087,65540,8362,688048,0
2,-1,643111,220560,1251598,66077,7899,625477,0
2,3,711300,248989,1385533,74309,8928,692298,0
2,-1,641993,219483,1344555,65619,7821,671846,0
2,3,715444,249488,1480819,74494,9565,739793,0
2,3,735167,254084,1550402,77788,10334,774753,0
2,3,713694,248854,1471086,74309,10025,734969,0
2,-1,668540,224798,1342019,69189,9222,670265,0
2,3,714781,249285,1538127,74427,9836,768512,0
2,-1,640827,219214,1188985,65683,7622,594039,0
2,3,736724,253393,1613350,77499,11667,806297,0
2,3,714239,249157,1398590,74250,8734,698854,0
2,-1,644187,220886,1459445,66426,8340,728888,0
2,-1,644437,218985,1389782,65634,8230,694393,0
2,-1,640335,218915,1373549,65637,8308,686265,0
2,3,713042,249062,1456010,74450,9636,727421,0
2,-1,636642,217438,1334379,65178,8497,666716,0
2,3,713258,249783,1529810,74666,9668,764385,0
2,-1,642070,218414,1359350,65462,8368,679286,0
2,3,710658,248866,1325816,74197,9073,661980,0
2,-1,637490,218532,1396345,65489,8437,697629,0
2,3,716973,250225,1422236,74970,9256,710366,0
2,-1,643683,220576,1280050,66474,8024,639090,0
2,-1,642157,218931,1253958,65632,7884,626547,0
2,3,716753,249504,1336029,74441,9320,667819,0
2,-1,635927,218371,1228417,65448,6992,613681,0
2,3,715131,250757,1478659,75200,9858,738401,0
2,3,709209,247675,1363607,73867,8943,681278,0
2,-1,665678,224240,1254711,69174,8455,626847,0
2,-1,641435,218795,1336786,65556,8014,667971,0
2,3,731646,252228,1518809,77341,10060,759058,0
2,3,708772,247717,1272761,74105,8475,635824,0
2,-1,636713,218875,1238008,65568,7295,618288,0
2,3,711090,248249,1363693,74266,9066,681440,0
2,-1,642694,220607,1285315,66464,7005,641744,0
2,3,713127,247722,1395534,74101,9537,697282,0
2,-1,642278,218764,1322835,65577,8635,660904,0
2,3,708302,249299,1501909,74853,10453,750190,0
2,-1,639678,218978,1240116,65627,7606,619428,0
2,3,707017,248384,1353250,74374,9363,676154,0
2,-1,641681,219107,1320029,65766,8070,659376,0
2,3,704606,247246,1458743,73793,9343,729030,0
3,-1,694646,238780,1432640,71400,8110,715389,0
3,3,766363,266847,1535397,78841,10076,766779,0
3,-1,691044,237123,1261459,70701,7894,630269,0
3,3,706517,248015,1382495,73742,9499,690672,0
3,3,709858,248636,1317731,73780,8898,658418,0
3,-1,694176,237267,1325055,70667,7551,662107,0
3,3,707727,247875,1562568,73685,8869,780684,0
3,-1,690057,237777,1337025,70882,7572,667829,0
3,3,709432,249004,1332474,74087,8343,665800,0
3,-1,635366,219299,1488362,65953,8866,742614,0
3,3,709522,248313,1377173,73888,8305,688182,0
3,-1,636724,218862,1246293,65788,7966,622764,0
3,3,707552,248444,1373660,73923,8671,686259,0
3,-1,638644,218584,1349108,65671,8364,673733,0
3,-1,637607,218761,1267113,65750,7725,633039,2
3,3,709882,249110,1351245,74133,8430,675135,0
3,-1,635934,218628,1207590,65521,7323,603375,0
3,3,718656,251930,1512848,75253,9791,755540,0
3,-1,638519,218541,1246020,65676,7263,622480,0
3,3,712572,250478,1432120,74649,9242,715479,0
3,-1,645833,222214,1587207,67063,9619,792166,0
3,3,710128,248318,1417687,73698,9303,708510,0
3,3,731818,253300,1364645,77204,9356,681784,0
3,-1,635567,218974,1257970,65727,6873,628432,0
3,3,714136,249054,1525982,74142,8835,762568,0
3,-1,643953,221236,1363531,66840,7542,681032,0
3,3,711027,250057,1459730,74692,9366,729133,0
3,-1,643253,220452,1299661,66482,7662,649035,0
3,3,708281,248620,1455644,74029,9593,727362,0
3,-1,661650,223843,1348730,69228,8686,673982,0
3,3,714284,249347,1541854,74489,9246,770180,0
3,-1,636982,218328,1217787,65608,7238,608507,0
3,3,710882,248400,1578391,73932,9797,788602,0
3,-1,640792,219015,1318724,65844,6543,658918,0
3,-1,640460,218671,1322743,65746,8603,660876,0
3,3,710973,248340,1572691,73910,9226,785710,0
3,-1,633878,218699,1327574,65732,7647,663256,0
3,3,706462,248108,1286024,73871,7931,642337,0
3,-1,636527,218436,1321295,65572,7035,660117,0
3,-1,635824,218810,1188889,65822,6331,593904,0
3,3,711481,250194,1391760,74754,9888,695233,0
3,-1,637031,218498,1225621,65665,6959,612389,0
3,-1,639376,219165,1317941,65885,6738,658421,0
3,3,706553,248384,1374314,73798,9371,686858,0
3,-1,639442,218917,1330716,65669,7500,664628,0
3,3,705414,248460,1494456,73883,9147,746704,0
3,-1,636892,219170,1284693,65737,7517,641634,0
3,-1,647372,221770,1417081,66870,7449,707671,0
3,3,705560,249233,1469485,74195,9634,734179,0
3,3,714316,250110,1443100,74436,8834,720261,0
3,-1,641329,219473,1271395,65871,7192,635273,0
3,3,707816,248620,1685280,73900,10524,842076,0
3,-1,643594,220536,1330281,66446,7948,664537,0
3,-1,640062,218660,1349909,65655,7808,674582,0
3,3,704489,248385,1391331,73830,8617,695165,0
3,-1,636251,218979,1173915,65899,7917,586488,0
3,3,709251,249056,1447277,74156,8801,723150,0
3,3,705768,248515,1459221,73901,9429,729018,0
3,-1,637733,218950,1348554,65929,7059,673043,0
3,-1,638265,218754,1343547,65822,7513,671381,0
3,3,712815,249560,1473489,74285,9176,736212,0
3,-1,641441,219023,1288402,65906,7763,643746,0
3,3,712221,250151,1463766,74690,8634,730929,0
3,-1,642788,220475,1568877,66607,8807,783523,0
3,3,707431,248227,1431538,73814,8352,715376,0
3,3,707826,249021,1380978,74051,8185,690030,0
3,-1,638771,218907,1199504,65873,7195,599307,0
3,-1,636601,218788,1337961,65836,8024,668500,0
3,3,710782,248858,1394222,73956,9533,696353,0
3,-1,641025,219046,1318579,65963,7927,658785,0
3,3,713940,250570,1400407,74671,9858,699569,0
3,-1,643495,219494,1236042,66035,7068,617667,0
3,-1,641506,219435,1249838,66080,8098,624335,0
3,3,710586,249024,1447639,73896,8307,723383,0
3,-1,640864,218723,1374349,65799,7596,686630,0
3,3,717379,250962,1504813,74825,8637,751670,0
3,-1,641841,219268,1378522,66041,7832,688396,0
3,3,731116,253653,1491742,77349,9669,745360,0
3,3,713026,249937,1531610,74360,9188,765684,0
3,-1,639801,221151,1363811,66894,7849,680908,0
3,3,714226,249656,1327510,74331,8739,663059,0
3,3,713990,249472,1409822,74007,8943,704468,0
3,-1,631602,218234,1319064,65607,7529,659048,0
3,3,720014,252372,1490502,75339,9700,743955,0
3,-1,657937,223929,1268056,69322,8163,633530,0
3,3,738007,254536,1519709,77413,11028,759237,0
3,-1,633785,218207,1257418,65619,6824,628226,0
3,3,716160,249674,1458264,74216,9486,728667,0
3,-1,635716,219507,1353989,66027,7189,676591,0
3,3,706235,248722,1443780,73734,9485,721456,0
3,-1,632743,219161,1281868,65861,7858,640471,0
3,3,732186,254116,1549252,77454,10019,773921,0
3,3,708822,248468,1336628,73828,8797,667837,0
3,-1,670668,230605,1364180,69532,8250,681267,0
3,-1,643890,221363,1360574,66878,7557,679474,0
3,3,705636,248430,1426807,73829,8987,712967,0
3,-1,638224,219778,1200730,66131,6995,599842,0
3,3,709581,248485,1476425,73708,9139,737778,0
3,3,710564,250051,1332702,74663,9135,665322,0
3,-1,637707,219330,1339934,65877,7443,669427,0
3,3,733265,253517,1442559,77334,10212,720859,0
3,-1,643102,220011,1440284,66171,7722,719652,0
3,3,708977,248509,1473027,73825,9337,736057,0
3,-1,638357,220279,1178306,66297,7215,588580,0
3,3,708175,248372,1557987,73663,10186,778594,0
3,-1,670979,231416,1409517,69949,7671,703807,0
3,-1,660796,223414,1267387,69036,8521,633175,0
3,3,718378,251005,1492556,74676,10186,745357,0
3,3,712981,249097,1489916,73818,10298,744441,0
3,-1,660386,223994,1316322,69219,8046,657644,0
3,3,711485,248441,1498874,73659,8683,748915,0
3,-1,640324,220066,1295731,66121,7146,647311,0
3,3,717820,250614,1444291,74662,10080,721055,0
3,3,714671,248997,1408197,73911,10492,703542,0
3,-1,638605,218827,1195474,65703,7090,597289,0
3,3,712810,250452,1496632,74670,9383,747215,0
3,-1,640491,219969,1397161,66143,7018,698005,0
3,3,714311,250697,1419055,74732,8925,708676,0
3,-1,644309,221346,1296804,66811,7317,647650,0
3,3,706228,248519,1455472,73767,9095,727188,0
3,-1,637540,219386,1238505,65931,7439,618600,0
3,3,708969,248816,1356612,73888,8918,677770,0
3,-1,639179,219340,1260997,65881,7572,630525,0
3,-1,641053,219563,1201233,66017,6704,600024,0
3,3,717266,250303,1386221,74630,9396,692262,0
3,3,734218,253005,1490511,77050,10260,744777,0
3,-1,642705,219747,1509469,66067,8994,754499,0
3,-1,638035,219790,1166053,66127,7048,582533,0
3,3,734316,253723,1471356,77269,10006,734938,0
3,3,709897,248322,1582421,73681,9938,790818,0
3,-1,657703,223548,1213715,69081,7250,606412,0
3,3,716464,250058,1377593,74414,9713,686821,0
3,-1,640639,219409,1158563,65939,6718,578836,0
3,3,711772,248506,1501837,73662,9232,750518,0
3,-1,637882,219194,1145465,65913,6562,572282,0
3,3,712527,248052,1457197,73492,9558,728183,0
3,-1,639593,220290,1196271,66259,6957,597874,0
3,3,714915,249001,1422526,73885,8976,710771,0
3,-1,641969,219908,1238506,66136,7452,618573,0
3,3,704662,248804,1382642,73392,8026,690620,0
3,-1,635581,218962,1208439,65704,7812,603772,0
3,3,708350,248952,1652739,73511,9458,826005,0
3,-1,645464,221287,1305363,66681,8628,651859,0
3,3,708193,250094,1356010,74191,9452,677273,0
3,-1,642128,219280,1189181,65778,7529,594071,0
3,3,702427,248330,1428838,73374,9432,713921,0
3,-1,643182,220452,1331715,66177,7533,665356,0
3,3,704345,247223,1584068,72931,10051,791623,0
3,3,710237,248539,1368777,74528,9577,683648,0
3,-1,661585,223798,1332579,69043,7862,665868,0
3,3,711453,248599,1403776,74254,10895,701281,0
3,-1,636457,218525,1262849,65598,7259,631048,0
3,3,712285,249895,1477467,74915,9951,738031,0
3,3,708320,248078,1343796,74131,9749,671440,0
3,-1,664786,225360,1293721,69673,8037,646436,0
3,3,710693,248224,1340243,74197,9140,669661,0
3,-1,645626,221140,1248152,66452,7387,623557,0
3,-1,643078,219932,1303090,66151,7775,651129,0
3,3,713725,250198,1398248,74983,8935,698386,0
3,-1,646234,220570,1308182,66110,7417,653571,0
3,-1,644952,220258,1499087,66016,8044,749040,0
3,3,713326,249093,1361957,74420,9139,680505,0
3,-1,645988,221890,1334926,66774,7888,666735,0
3,3,717956,249860,1383689,74978,9327,690924,0
3,-1,647944,221535,1401177,66691,8604,699832,0
3,3,709782,248779,1364899,74277,9829,681995,0
3,-1,643110,220256,1375206,66034,8554,687143,0
3,3,717027,250944,1531367,75316,10429,764718,0
3,3,713067,249522,1434360,74649,9810,716621,0
3,-1,644913,219708,1353303,65929,7500,676233,0
3,3,708507,248210,1457984,74135,9220,728466,0
3,-1,644701,219515,1216259,65969,8353,607701,0
3,3,709711,248558,1455606,74139,10048,727126,0
3,-1,640685,220591,1320935,66213,8104,659979,0
3,-1,644600,221099,1335519,66640,8775,666857,0
3,3,737579,254256,1604865,78298,10878,801961,0
3,-1,643267,221012,1349729,66640,8062,673719,0
3,3,707089,247575,1484659,73768,8250,741857,0
3,-1,637464,219394,1341211,65801,8067,669979,0
3,-1,660558,222968,1455137,68795,8232,727170,0
3,3,710699,248217,1468116,73977,8821,733632,0
3,-1,642833,220292,1372364,66440,8288,685430,0
3,3,711420,247798,1477705,73855,9948,738349,0
3,-1,641668,219981,1224468,66105,7666,611753,0
3,-1,660104,223863,1264636,69100,8007,631780,0
3,3,717319,249750,1491737,74747,9543,745430,0
3,-1,663532,224325,1367444,69252,7935,683166,0
3,-1,639690,219306,1482370,65787,8424,740651,0
3,3,738972,254462,1503895,78133,10703,751355,0
3,-1,641572,218798,1238740,65808,7598,618836,0
3,3,709968,248940,1517497,74424,10233,757678,0
3,3,715000,251302,1417751,75348,9050,708142,0
3,-1,640071,218653,1380534,65726,8198,689725,0
3,-1,638502,219720,1231579,65984,7108,615282,0
3,3,714725,249673,1351618,74586,9305,675527,0
3,3,710083,249174,1416292,74376,9422,707669,0
3,-1,639330,219591,1203811,65894,6924,601343,0
3,3,712681,249227,1359487,74417,9346,679287,0
3,-1,647564,221480,1409586,66687,8262,704038,0
3,-1,642556,220178,1304041,65946,8058,651538,0
3,3,709151,248436,1444636,74077,8895,721793,0
3,-1,640327,219174,1287128,65607,7547,643048,0
3,3,713696,249036,1473376,74361,9612,736151,0
3,3,712116,249687,1541420,74589,9323,770161,0
3,-1,643003,218968,1301154,65487,8187,649881,0
3,3,712546,248875,1370029,74262,8788,684327,0
3,3,711872,248471,1443996,74137,9864,721473,0
3,-1,640497,219069,1354111,65525,8552,676578,0
3,3,716143,249559,1423133,74475,9165,711123,0
3,3,712883,248963,1493602,74135,9335,746284,0
3,-1,661393,223895,1392228,69002,9047,695631,0
3,-1,649515,221575,1309710,66843,8539,653772,0
3,3,709882,248797,1382885,74326,10659,690558,0
3,-1,661897,223515,1397263,68923,9830,698047,0
3,-1,645874,220948,1336115,66595,8351,667179,0
3,3,714933,249940,1694510,74703,10720,846746,0
3,-1,645931,220143,1336838,66255,8336,667234,0
3,3,715726,249297,1435264,74384,9708,717179,0
3,-1,639203,219629,1307711,65890,7749,653274,0
3,3,710153,248517,1401434,74091,8879,700298,0
3,-1,661042,223683,1322037,69021,8689,660379,0
3,-1,640353,218949,1416283,65645,8404,707731,0
3,3,715046,248603,1396747,74180,9655,697848,0
3,-1,641017,219055,1321119,65702,8311,660042,0
3,3,712174,248469,1396750,74186,9294,697772,0
3,3,709062,248010,1301695,74060,8961,650392,0
3,-1,641910,219117,1313867,65726,8573,656801,0
3,-1,662181,223645,1297023,68999,8281,647959,0
3,3,710187,247943,1380900,74236,8892,689989,0
3,3,712593,248555,1299613,74435,8542,649266,0
3,-1,643083,220007,1265317,66229,7290,631677,0
3,3,716762,248850,1361179,74520,8597,680170,0
3,-1,643333,220070,1315160,66051,7648,657011,0
3,3,712438,248010,1398902,74269,9046,698971,0
3,-1,639582,218788,1290465,65575,7540,644739,0
3,3,729248,253751,1513726,77899,10456,756174,0
3,-1,660102,223401,1411159,68871,8028,705046,0
3,3,711032,250377,1567765,75273,10687,783343,0
3,-1,640810,218931,1261131,65664,7241,630035,0
3,3,706315,248126,1388311,74149,8894,693594,0
4,-1,692610,237745,1352465,70887,6992,675756,0
4,3,764705,267150,1731583,78849,11019,864533,0
4,-1,691346,237215,1398895,70652,8373,698930,0
4,3,705213,247838,1298191,73607,9238,648620,0
4,3,713553,250774,1495679,74815,9441,747227,0
4,-1,693894,237340,1368439,70742,7679,683753,0
4,3,706386,248217,1344645,73680,8668,671891,0
4,-1,689407,237595,1419655,70816,7794,709394,0
4,3,707610,248312,1443033,73877,8863,721041,0
4,-1,637067,218861,1317653,65827,8132,658234,0
4,3,714282,249641,1525405,74469,9417,762063,0
4,-1,638822,218880,1334461,65728,8469,666819,0
4,3,704960,248468,1412287,73956,8647,705594,0
4,-1,636402,218302,1314804,65578,7756,657456,0
4,3,704368,247694,1393634,73535,8276,696273,0
4,-1,634189,218698,1285807,65661,6924,642398,2
4,-1,640037,220484,1310599,66403,7190,654629,0
4,3,730304,253210,1458998,77159,10369,729056,0
4,-1,644693,220843,1351898,66598,7664,675267,0
4,3,707672,248542,1393683,73799,8390,696266,0
4,-1,660268,223449,1347333,68951,9437,673111,0
4,3,710515,248829,1431423,73769,8816,715113,0
4,3,710120,248458,1383376,73805,8470,691253,0
4,-1,637104,219778,1302035,65967,7506,650547,0
4,3,708812,248291,1427238,73870,8950,713139,0
4,-1,657371,222959,1351570,68938,8308,675357,0
4,3,709404,248107,1428104,73849,8917,713622,0
4,-1,660626,223486,1398172,69085,8097,698592,0
4,3,711940,249443,1336356,74331,8408,667616,0
4,-1,635018,218170,1343135,65466,7478,671111,0
4,3,711947,248914,1474732,74153,8893,736842,0
4,-1,637615,218730,1187508,65769,6559,593251,0
4,3,711184,249399,1491448,74313,9147,745207,0
4,-1,639122,218973,1537744,65834,8569,768061,0
4,-1,640623,218423,1209462,65622,8151,604322,0
4,3,712929,249142,1455156,74220,9126,727042,0
4,-1,634241,218704,1337953,65731,7452,668351,0
4,-1,636526,219424,1242637,65922,6861,620867,0
4,3,715449,248423,1382140,73911,8780,690582,0
4,-1,634615,218622,1330999,65616,7205,665120,0
4,3,703299,248046,1367174,73805,9397,683124,0
4,-1,658353,223087,1325168,68933,8762,661991,0
4,-1,643715,221525,1599459,66990,8996,798793,0
4,3,705865,248530,1328243,73964,9268,663616,0
4,-1,644943,221330,1394379,66676,8315,696495,0
4,3,705436,248322,1459879,73825,8960,729476,0
4,-1,636464,218702,1316116,65657,7196,657605,0
4,-1,641030,219722,1217296,65935,6744,608193,0
4,3,713207,249267,1427758,74140,9247,713354,0
4,3,713517,250589,1378306,74784,9230,688377,0
4,-1,642682,219730,1217523,65922,8044,608241,0
4,3,709612,249825,1387591,74590,9139,692882,0
4,-1,646265,221077,1227383,66718,7841,612926,0
4,-1,662801,223921,1301537,69199,8415,650323,0
4,3,711662,250559,1458426,74856,10385,728170,0
4,3,711847,249419,1439754,74234,9196,719345,0
4,-1,636786,219061,1165391,65966,7596,582154,0
4,3,710890,248695,1696560,74023,10574,847534,0
4,-1,664199,228499,1358650,68722,7734,678648,0
4,3,713808,249968,1479125,74402,9151,739052,0
4,-1,661084,224130,1466738,69427,8413,732920,0
4,-1,640724,219318,1215514,66066,7481,607227,0
4,3,711208,248444,1297698,73935,9164,648308,0
4,-1,637885,218980,1354718,65965,7892,676293,0
4,3,710722,249708,1347134,74305,8519,673135,0
4,-1,641693,219350,1233456,66059,7982,616217,0
4,3,708720,248190,1280053,73853,8160,639581,0
4,-1,645028,218928,1291188,65918,7518,645209,0
4,3,714684,250703,1388659,74897,9610,693017,0
4,-1,640837,219422,1339199,66076,7910,669122,0
4,3,709331,248888,1286631,73932,9141,642843,0
4,-1,646272,220788,1370328,66701,7427,684588,0
4,-1,639766,218823,1234892,65843,8264,617035,0
4,3,714713,250919,1492328,74895,8846,745377,0
4,-1,661982,223741,1296650,69309,8614,647834,0
4,3,711911,249092,1540770,73927,9352,769995,0
4,-1,644815,220504,1499280,66544,8447,748917,0
4,3,708561,248959,1481877,74104,8690,740513,0
4,-1,655227,223736,1364440,69263,8129,681865,0
4,3,711970,249021,1517401,73994,9118,758177,0
4,3,718485,251793,1587233,75332,9664,792654,0
4,3,717542,251017,1457634,74532,9237,728319,0
4,-1,637481,219479,1273800,66098,7615,636373,0
4,3,712634,249849,1360526,74175,8972,679408,0
4,-1,639135,219483,1288898,66077,7593,643817,0
4,3,715841,250198,1484566,74232,8813,741798,0
4,-1,637032,219230,1238335,65887,7751,618901,0
4,-1,636259,219628,1357352,66029,7041,677765,0
4,3,714510,249157,1347903,74071,9054,673461,0
4,3,708867,249529,1607153,74105,9639,802594,0
4,-1,641299,219856,1325504,66126,7551,662150,0
4,3,709504,248847,1457020,73990,9187,727984,0
4,-1,639720,221228,1346062,66847,7933,671811,0
4,3,712502,250122,1508172,74605,9923,753269,0
4,-1,639716,219984,1315327,66108,7405,657226,0
4,3,715935,249314,1423141,74257,9074,710922,0
4,-1,635959,219231,1191652,65877,6888,595244,0
4,3,712036,249380,1485708,74080,9592,742315,0
4,3,709626,248522,1494299,73772,10276,746636,0
4,-1,640101,220455,1326909,66520,7818,662737,0
4,3,709976,248459,1354507,73809,9389,676747,0
4,-1,666266,225225,1424075,70185,8458,711353,0
4,3,715286,250687,1521487,74816,9891,760142,0
4,-1,636207,219762,1433259,66154,8027,716059,0
4,3,715041,251600,1503179,75088,10573,750468,0
4,-1,638101,219831,1411769,66076,7873,705291,0
4,-1,637353,219016,1221330,65866,6984,610194,0
4,3,710397,248900,1437974,73741,9543,718477,0
4,3,714712,250695,1387787,74574,9390,692726,0
4,-1,640395,219598,1428912,65996,7950,714078,0
4,3,714440,249064,1484809,73862,11037,741941,0
4,-1,641862,220733,1308026,66669,7426,653211,0
4,3,713698,250374,1455365,74555,9461,727145,0
4,3,712956,248854,1359839,73892,9625,679252,0
4,-1,646820,221196,1394931,66840,8448,696443,0
4,3,710386,249218,1510000,73993,9733,754597,0
4,-1,637602,219345,1502695,65894,7382,750793,0
4,3,711130,248292,1350777,73683,9094,673731,0
4,-1,641687,220203,1237188,66161,7359,618124,0
4,3,712481,248509,1339359,73791,8987,669395,0
4,-1,641873,219328,1275067,65961,7499,637030,0
4,3,710727,248774,1448105,73862,9338,723406,0
4,-1,643663,220700,1320259,66618,7728,659341,0
4,-1,643913,220990,1286286,66693,7301,642455,0
4,3,710267,248038,1396390,73583,8429,697666,0
4,-1,643498,219655,1359002,65996,8709,678742,0
4,3,710895,247925,1404259,73531,9472,701615,0
4,-1,636332,219128,1217640,65852,7639,608377,0
4,3,709597,248345,1483840,73727,9181,741367,0
4,3,707521,247880,1335245,73620,8567,666981,0
4,-1,639907,219962,1260526,66173,7701,629812,0
4,3,731919,252811,1467614,76890,9987,733255,0
4,-1,644005,221353,1201817,66888,6971,600105,0
4,3,715896,250754,1470874,74704,8939,734432,0
4,-1,640095,220286,1245270,66198,7265,622210,0
4,3,713104,248245,1401621,73568,9237,700549,0
4,-1,636360,219324,1203434,65906,7155,601244,0
4,3,712477,248164,1341282,73595,8118,669401,0
4,-1,642916,220647,1261956,66559,8485,630189,0
4,3,707183,250266,1259870,74061,8008,629181,0
4,-1,640866,220335,1194339,66243,7451,596642,0
4,3,704149,248284,1594045,73298,11367,796492,0
4,-1,661128,224098,1338082,69192,9177,668214,0
4,3,705549,247617,1509690,73063,8814,754334,0
4,-1,646827,221216,1287832,66586,8397,643232,0
4,3,706239,247805,1345504,73183,8755,672334,0
4,-1,640707,219685,1266171,65947,6591,632600,0
4,3,712446,250320,1326478,74252,8323,662407,0
4,3,707395,248012,1481324,74007,10371,740175,0
4,-1,644016,221052,1325055,66587,7633,661870,0
4,3,709465,248282,1518412,74212,10206,758739,0
4,-1,638066,219545,1332557,65823,7464,665816,0
4,3,706373,247993,1459803,74070,9263,729128,0
4,3,706885,247977,1279548,74074,9257,639193,0
4,-1,643323,220887,1339139,66454,7447,669070,0
4,3,709082,247607,1415255,73953,8293,707235,0
4,-1,643603,219908,1441929,66087,8272,720530,0
4,-1,662986,224444,1285538,69454,7960,642336,0
4,3,729529,252748,1508769,77426,10027,753911,0
4,-1,648457,222201,1330262,66951,7697,664694,0
4,-1,644456,220321,1266157,66090,7475,632654,0
4,3,710417,248416,1382171,74165,8750,690662,0
4,-1,644827,220119,1309577,65971,8190,654405,0
4,3,718188,249828,1397696,74873,9739,698241,0
4,-1,645791,221006,1245395,66317,7640,622215,0
4,3,712933,250273,1302046,75067,9533,650319,0
4,-1,652678,222535,1285184,67068,8374,641386,0
4,3,711862,249359,1523269,74682,10385,760769,0
4,3,706944,247786,1471056,73884,9800,735032,0
4,-1,666243,224598,1395155,69356,8545,697067,0
4,3,708295,247945,1441755,73941,9266,720292,0
4,-1,668499,224524,1302721,69382,8614,650800,0
4,3,711235,249473,1428898,74386,10613,713571,0
4,-1,641753,221490,1485356,66681,8346,741793,0
4,-1,639793,219450,1331651,65825,8082,665407,0
4,3,714404,250031,1408835,74798,9250,703630,0
4,-1,641322,219995,1206130,66109,7408,602455,0
4,-1,661797,224965,1297335,69465,8203,648106,0
4,3,709975,248767,1575636,74246,8992,787362,0
4,-1,637168,218807,1306309,65642,7665,652807,0
4,3,710328,248445,1562799,74169,9808,780793,0
4,-1,641057,218818,1187091,65687,7446,593053,0
4,3,709599,247495,1340147,73737,8491,669622,0
4,-1,640015,219793,1217132,66090,7259,608099,0
4,-1,641157,219860,1453270,66036,7434,726120,0
4,3,714488,249830,1330405,74764,9420,664593,0
4,-1,640691,219429,1337836,65861,7551,668397,0
4,3,722494,250852,1483049,75218,8888,740831,0
4,-1,642928,221074,1410885,66756,8636,704358,0
4,-1,641642,218883,1378769,65714,8218,688725,0
4,3,710792,250216,1294710,75117,8674,646665,0
4,3,713277,248937,1407258,74371,9078,703100,0
4,-1,645642,220548,1334379,66514,9085,666712,0
4,-1,661522,224184,1327461,69236,9051,663124,0
4,3,714076,250529,1381592,75056,8598,690141,0
4,3,712470,249757,1455798,74600,9218,727297,0
4,-1,638940,219318,1294995,65801,8011,646497,0
4,-1,639936,219023,1427806,65643,8473,713317,0
4,3,736042,254906,1399867,78053,10302,699370,0
4,-1,662223,224291,1266338,69032,8598,632801,0
4,3,711215,249922,1447934,74471,8713,723500,0
4,-1,664639,224821,1292584,69249,8632,645772,0
4,3,714005,249883,1503922,74627,9445,751677,0
4,3,712235,249015,1306264,74286,8458,652652,0
4,-1,644198,219900,1232401,65816,7550,615597,0
4,3,734612,253650,1601080,77648,11564,799895,0
4,3,711516,248802,1451482,74295,8937,725271,0
4,-1,662271,224398,1370522,69145,8700,684686,0
4,3,714078,248637,1491178,74251,10557,744300,0
4,-1,643378,220256,1302337,65998,8104,650759,0
4,3,710998,248748,1448558,74155,9203,723676,0
4,3,720313,250696,1530896,75029,9676,764589,0
4,-1,642195,219191,1444656,65658,8197,722038,0
4,-1,639680,218401,1375549,65468,7852,686970,0
4,-1,663497,224460,1479760,69254,9289,739312,0
4,3,712030,248872,1573877,74325,10294,786202,0
4,-1,643478,219450,1349872,65851,8584,674525,0
4,3,719368,250767,1526614,75063,10507,762499,0
4,-1,635523,218545,1243850,65499,7764,621589,0
4,3,713036,248542,1492836,74091,9386,745847,0
4,-1,639934,219438,1289937,65861,8904,644292,0
4,-1,646824,221356,1343453,66769,8091,670876,0
4,3,713459,248680,1525087,74227,10124,762099,0
4,-1,638396,218578,1419782,65515,7549,709473,0
4,3,705841,247111,1405714,73773,9337,702008,0
4,3,709132,248302,1389231,74163,8757,694198,0
4,-1,639576,218635,1177837,65534,7724,588465,0
4,-1,637544,218244,1224364,65361,6868,611446,0
4,3,709773,248014,1482195,74280,9342,740636,0
4,-1,644644,219623,1227108,65924,7343,612874,0
4,3,712085,248874,1330418,74720,8492,664403,0
4,3,717333,249505,1464188,74886,9565,731374,0
4,-1,638128,218238,1304910,65417,7595,651966,0
4,3,712922,248760,1366579,74485,8776,682836,0
4,-1,645470,220923,1286472,66605,7860,642342,0
4,3,703929,247957,1341625,74215,8946,670244,0
4,-1,638126,218912,1472400,65697,8288,735464,0
4,3,708520,248113,1378358,74275,9303,688481,0
4,-1,639390,218806,1484435,65581,8387,741732,0
4,3,707169,248329,1551494,74198,9421,775015,0
5,-1,690156,237101,1251045,70673,6813,625242,0
5,3,761391,266540,1533784,78720,9360,766356,0
5,-1,693131,238375,1410047,71285,7931,704399,0
5,3,710883,249855,1780375,74503,11450,889209,0
5,3,706362,248513,1371072,73821,8961,685071,0
5,-1,691853,236612,1457927,70474,8201,728498,0
5,3,708410,249468,1487295,74243,9043,742820,0
5,-1,693133,238777,1458910,71417,8938,728757,0
5,3,707791,247918,1342398,73694,8139,670722,0
5,-1,673770,230056,1439547,70526,8890,719240,0
5,3,708842,247859,1405308,73731,8459,702166,0
5,-1,638454,219097,1248870,65851,8130,623737,0
5,3,707508,248786,1608809,74022,9570,803777,0
5,-1,640558,220273,1314455,66410,8491,656132,0
5,3,705979,248270,1871617,73910,10326,935409,0
5,-1,639549,218821,1232295,65640,7056,615744,0
5,-1,637504,218489,1288822,65547,7570,643953,0
5,3,705383,247860,1366498,73598,8486,682674,0
5,3,709075,249158,1440657,74018,9207,719684,0
5,-1,639088,218640,1230354,65584,8263,614721,0
5,3,714484,250827,1494085,74832,9552,746108,0
5,-1,639333,219378,1264592,65885,7401,631803,2
5,3,710625,249721,1439378,74436,8445,719020,0
5,-1,634083,218668,1277820,65606,6457,638460,0
5,3,717381,251507,1629274,75189,9967,813634,0
5,-1,634774,218134,1287692,65525,7159,643415,0
5,3,713376,250322,1464433,74861,9725,731432,0
5,-1,637944,218696,1466477,65750,8149,732759,0
5,3,712641,250142,1460518,74712,9099,729561,0
5,-1,638174,218374,1184022,65598,7467,591523,0
5,3,711285,248012,1496289,73868,9275,747673,0
5,-1,636666,218418,1284691,65624,6917,641952,0
5,3,713054,250550,1471893,74865,9378,735245,0
5,-1,644578,220706,1353490,66547,7474,676120,0
5,-1,639035,218306,1163161,65578,7353,581099,0
5,3,710315,247972,1399039,73889,10173,699032,0
5,-1,655013,223206,1345830,68925,8351,672180,0
5,-1,639773,220662,1344476,66637,7489,671400,0
5,3,715327,248615,1409724,74086,9544,704337,0
5,-1,639652,220175,1401014,66319,7492,699773,0
5,3,706807,248241,1369811,73874,9350,684462,0
5,-1,637278,218645,1260635,65782,6520,629796,0
5,-1,657231,223582,1271979,69187,7545,635513,0
5,3,704923,248283,1357337,73775,8750,677902,0
5,-1,639826,219203,1325793,65776,7683,662273,0
5,3,728607,253650,1501162,77357,10197,750037,0
5,-1,658838,224264,1318284,69225,8514,658697,0
5,-1,640723,219865,1176106,66029,7501,587490,0
5,3,709463,248533,1384784,73954,8595,691805,0
5,3,707213,248773,1300959,73989,8280,649875,0
5,-1,640813,219058,1396774,65690,7410,698180,0
5,3,705633,248617,1358742,73946,9619,678812,0
5,-1,639302,219436,1255390,65863,6766,627272,0
5,-1,641759,219892,1265719,66036,7410,632333,0
5,3,710258,249091,1369083,74063,9080,684051,0
5,3,709496,249125,1461465,74111,8363,730211,0
5,-1,661297,223562,1267685,69169,8209,633312,0
5,3,712249,249727,1432775,74481,8858,715534,0
5,-1,638157,219156,1297719,65991,8652,648329,0
5,3,707289,247856,1426397,73734,8474,712631,0
5,-1,639812,219777,1303897,66134,7837,651371,0
5,-1,642973,220109,1237047,66496,7950,617765,0
5,3,713634,249724,1450540,74537,10000,724447,0
5,-1,639279,218772,1322833,65864,7799,661244,0
5,3,710439,249899,1483850,74504,8759,740983,0
5,-1,644534,221182,1326274,66932,7629,662208,0
5,3,714813,251181,1334732,75056,8700,666591,0
5,-1,640896,218639,1374952,65766,7623,687101,0
5,3,712888,250279,1345321,74681,8508,671952,0
5,-1,641755,219405,1222053,66078,7444,610528,0
5,3,708852,248774,1302661,73786,9286,650918,0
5,-1,640876,219052,1250412,65987,7613,624658,0
5,-1,641522,219829,1169813,66209,7833,584415,0
5,3,709828,248897,1325397,73856,7832,662237,0
5,-1,638664,218571,1361527,65771,7784,680391,0
5,3,713312,249356,1361478,74118,8169,680270,0
5,-1,645610,221156,1304906,66990,8018,651661,0
5,3,709750,249508,1379616,74147,7845,689404,0
5,-1,633815,219336,1382772,66043,7293,690984,0
5,3,713318,250115,1375336,74416,8153,687143,0
5,3,716091,250965,1466654,74937,9349,732562,0
5,-1,640405,220891,1331648,66735,8131,665092,0
5,3,715020,250414,1472792,74347,8872,735914,0
5,3,712458,250168,1410912,74269,9048,704896,0
5,-1,634424,218752,1225624,65789,7625,612409,0
5,3,718648,251701,1485685,75059,9117,742021,0
5,-1,655633,223955,1292287,69253,7980,645478,0
5,-1,645720,221628,1436371,67029,7959,717308,0
5,3,716292,249570,1379075,74253,9331,689052,0
5,3,706442,249310,1448198,74020,9012,723651,0
5,-1,660109,223749,1296915,69174,7779,647868,0
5,3,708984,249102,1450897,74078,9545,725032,0
5,3,713549,250562,1545601,74749,9639,771676,0
5,-1,638196,220094,1344984,66222,7130,671970,0
5,-1,638056,219787,1236220,66109,6621,617624,0
5,3,712911,248730,1335258,73981,9067,667166,0
5,-1,638224,219693,1468138,66061,7509,733766,0
5,3,709401,248506,1338414,73760,8609,668826,0
5,3,709035,248498,1474514,73835,9802,736549,0
5,-1,636798,219359,1263501,65989,7662,631230,0
5,3,714115,249941,1596336,74550,10070,797385,0
5,-1,637403,218855,1284407,65786,6946,641731,0
5,3,709933,249127,1415550,74035,9768,707357,0
5,-1,635603,219632,1232705,66037,7393,615908,0
5,3,711831,248935,1418411,73901,9960,708761,0
5,-1,640359,220952,1501748,66664,8467,750086,0
5,-1,659182,224238,1458394,69371,8113,728666,0
5,3,712023,248810,1462730,73692,9541,730761,0
5,3,710700,249521,1348785,74011,8982,673891,0
5,-1,638641,219283,1215964,65909,7079,607564,0
5,3,713512,249628,1501365,74083,10142,750035,0
5,-1,658152,223715,1286096,69172,7660,642514,0
5,3,711858,248680,1439698,73814,10532,719314,0
5,3,741287,254834,1677296,78059,11309,837966,0
5,-1,642880,219754,1227375,66144,7035,613137,0
5,3,707924,248481,1397031,73758,9599,697871,0
5,-1,639243,219167,1314390,65862,8131,656723,0
5,3,709947,248376,1513667,73740,9418,756391,0
5,-1,640565,219984,1206683,66138,7220,602778,0
5,3,710555,247936,1345568,73615,9010,672687,0
5,-1,642976,219513,1238196,66004,7274,618566,0
5,3,710514,248179,1327578,73650,8892,663299,0
5,-1,640719,219371,1240374,65998,6588,619213,0
5,-1,641662,219431,1215689,66019,6639,607309,0
5,3,718867,250779,1381406,74695,9846,689945,0
5,3,710901,248227,1326852,73661,9198,662822,0
5,-1,647438,221292,1512397,66771,9577,755373,0
5,3,732407,253414,1509710,77181,9091,754112,0
5,-1,638114,220224,1240391,66184,7901,620123,0
5,3,710966,247594,1400174,73386,9172,699560,0
5,-1,636160,219280,1213057,65889,6839,605974,0
5,3,713689,250232,1394257,74380,8574,696256,0
5,-1,658283,223651,1224994,69179,7617,611999,0
5,3,709935,248171,1457194,73554,9354,728099,0
5,-1,638346,219540,1150181,65945,6689,574673,0
5,3,714565,249554,1428230,74025,8468,713569,0
5,-1,646061,221407,1281274,66912,8273,640062,0
5,3,711598,248036,1326717,73505,8207,662931,0
5,-1,642817,220095,1226779,66208,7392,612824,0
5,3,699329,248184,1309137,73165,7755,654159,0
5,-1,638009,219377,1187206,65923,7146,593135,0
5,3,726254,253910,1591281,76938,10833,795417,0
5,-1,640690,219566,1359056,65910,8572,679034,0
5,3,708912,249317,1362552,73833,9174,680579,0
5,-1,646284,221277,1334073,66686,9225,665593,0
5,3,727579,252947,1518945,76667,9499,758970,0
5,-1,642786,220896,1354837,66504,7261,676673,0
5,3,705572,247977,1448377,73211,8458,723842,0
5,3,712008,250168,1368305,75024,10686,683075,0
5,-1,640391,219850,1211783,65962,7492,605437,0
5,3,708847,247668,1367067,73910,9011,683133,0
5,-1,646797,220324,1242204,66076,7297,620729,0
5,3,711731,250425,1434442,75150,9370,716227,0
5,3,728327,252551,1547300,77315,10393,773224,0
5,-1,639858,219701,1335344,65877,6863,666625,0
5,3,714141,250515,1357639,75117,8356,678176,0
5,-1,644516,220369,1339980,66253,7726,669598,0
5,-1,642837,220539,1380403,66371,8303,689652,0
5,3,707999,248343,1413600,74179,9154,706298,0
5,-1,663405,224843,1480478,69318,8375,739765,0
5,-1,647458,221856,1369852,66801,8411,683957,0
5,3,731730,253136,1566179,77567,9927,782664,0
5,-1,645660,221043,1252214,66376,7251,625620,0
5,3,709411,246954,1454833,73817,9444,726886,0
5,-1,647461,220963,1429096,66396,9024,713706,0
5,3,708838,248167,1426980,74173,10022,712991,0
5,-1,647871,220727,1406557,66207,7764,702715,0
5,3,707344,248162,1602917,74063,10286,800695,0
5,-1,645261,220376,1431456,66150,7831,715191,0
5,3,708032,248382,1533712,74176,9787,766362,0
5,3,707646,248092,1492234,73945,8851,745623,0
5,-1,648415,220828,1367236,66267,8613,683201,0
5,-1,648764,219954,1199511,66007,7267,599298,0
5,3,714686,250718,1318894,75156,9230,658545,0
5,-1,640993,220670,1375331,66248,8200,687234,0
5,3,719058,250902,1508289,75273,9125,752777,0
5,-1,638487,219262,1287747,65825,7947,643453,0
5,-1,637518,219586,1310330,65994,8292,654697,0
5,3,706644,247805,1357720,73826,8436,678384,0
5,-1,660078,224279,1320925,69240,7888,660047,0
5,3,734520,257157,1467570,76742,9927,732950,0
5,-1,640282,218913,1302668,65704,7502,650872,0
5,3,710554,248192,1465686,74011,8791,732417,0
5,-1,638062,219125,1354615,65826,7292,676923,0
5,-1,639058,219416,1189220,65865,6865,594139,0
5,3,715938,248614,1402206,74288,9480,700647,0
5,-1,639751,219009,1224661,65707,7086,611947,0
5,3,720291,251448,1397262,75589,9646,697805,0
5,-1,661520,224610,1299418,69350,8498,649201,0
5,3,711961,249751,1446497,74757,9226,722758,0
5,-1,645764,220850,1418188,66668,8775,708047,0
5,3,736495,254286,1420194,77940,9766,709513,0
5,-1,641704,219249,1251271,65934,8308,625292,0
5,-1,638629,218952,1263879,65695,7495,631214,0
5,3,712382,249498,1389138,74539,8305,694025,0
5,3,710573,249365,1529137,74555,9644,763945,0
5,-1,641669,220814,1298896,66543,7994,648328,0
5,-1,639613,219511,1291804,65811,7530,645719,0
5,3,714368,249330,1361238,74404,9363,680154,0
5,-1,645578,220958,1372998,66379,8478,685682,0
5,3,713245,251010,1376561,75201,9615,687378,0
5,-1,640209,219305,1288421,65628,7378,643497,0
5,3,716306,250602,1374534,75135,8837,686496,0
5,3,711301,249168,1524317,74394,10139,761662,0
5,-1,639623,218531,1347766,65281,8173,673456,0
5,3,713840,249650,1353445,74552,8787,676154,0
5,3,713249,248563,1574796,74167,9500,786768,0
5,-1,638819,219213,1428830,65542,7583,713863,0
5,3,718138,250629,1435667,75098,10651,717076,0
5,3,716796,250792,1536640,75275,9456,767099,0
5,-1,645440,220311,1338238,66092,8184,668411,0
5,3,718826,249613,1464897,74525,9938,731715,0
5,-1,640906,218985,1331828,65582,7886,665178,0
5,-1,642560,219291,1218438,65813,8515,608607,0
5,-1,639793,219198,1452588,65777,8602,725709,0
5,3,732710,253751,1699803,77757,11828,849481,0
5,-1,642114,219149,1444068,65687,8856,721650,0
5,3,713643,248945,1416100,74173,9018,707561,0
5,-1,636501,218897,1242089,65620,8095,620531,0
5,3,712526,248582,1459635,74168,9804,729313,0
5,-1,639040,219141,1172781,65722,7112,585894,0
5,-1,660771,223467,1293879,68937,8469,646381,0
5,3,714156,248787,1405067,74215,9050,702035,0
5,-1,635735,218534,1310910,65457,7460,655061,0
5,3,712427,249109,1518427,74298,9943,758699,0
5,3,734416,253728,1559376,77659,10348,779285,0
5,-1,644729,220888,1319815,66478,7488,658071,0
5,3,732877,252581,1532291,77484,9538,765633,0
5,-1,639954,219197,1389946,65778,7832,694431,0
5,-1,641628,218757,1463648,65581,9176,731379,0
5,3,709306,247630,1478067,74067,8617,738684,0
5,3,712251,247553,1427863,74057,8923,713528,0
5,-1,662522,224775,1336987,69380,8188,667951,0
5,3,714949,248122,1462622,74278,9729,730762,0
5,-1,640195,219135,1387102,65745,7963,693101,0
5,3,705863,248718,1582331,74475,9868,790466,0
5,-1,647605,220726,1242586,66446,7841,620568,0
5,3,711652,249339,1452343,74863,9388,725441,0
5,3,708028,249058,1442630,74580,8404,720503,0
5,-1,644478,221173,1518622,66722,9662,757839,0
6,-1,689745,237389,1396213,70752,8194,697606,0
6,3,759829,266274,1448626,78547,8490,724040,0
6,-1,694377,237603,1419468,70840,8141,708727,0
6,3,708003,248253,1566872,73814,10268,782659,0
6,3,706389,248111,1498862,73639,9447,748774,0
6,-1,698498,239481,1423493,71745,7624,711033,0
6,3,732491,253394,1470883,77160,10357,735122,0
6,-1,689920,237913,1395196,70903,9116,696736,0
6,3,706959,248320,1366183,73788,8321,682742,0
6,-1,672696,231306,1436503,68947,8720,717670,0
6,3,710194,248495,1346783,73864,8114,673065,0
6,-1,641738,220756,1321083,66572,8334,659833,0
6,3,702954,248219,1367415,73844,8962,683044,0
6,-1,637419,218601,1410137,65631,8234,704118,0
6,3,714142,249324,1562095,74375,9567,780269,0
6,-1,638107,219137,1248733,65811,6995,623290,0
6,3,705345,247678,1333538,73623,8399,666142,0
6,-1,639384,219488,1285870,65801,7339,642489,0
6,3,710713,248162,1356848,73753,8021,677964,0
6,-1,638635,219010,1231317,65722,7469,615079,0
6,3,710545,248840,1459107,73827,9381,729079,0
6,-1,641465,218798,1518677,65615,9067,758905,0
6,3,706352,247299,1315562,73494,8197,657309,0
6,3,708570,248147,1463238,73721,9278,731208,0
6,-1,635940,218840,1309886,65773,7175,654309,2
6,-1,636650,219287,1228950,65941,6472,613919,0
6,3,710830,249098,1566952,74173,9669,782948,0
6,-1,636563,218148,1323285,65548,7561,661135,0
6,3,706804,248388,1309483,73963,8454,654224,0
6,-1,637949,217814,1224544,65353,7660,611850,0
6,3,710963,248591,1331966,74011,8640,665579,0
6,-1,638519,218916,1188620,65839,6995,593875,0
6,3,708609,248116,1419131,73866,8765,709139,0
6,-1,637870,218210,1191636,65462,6972,595321,0
6,-1,643666,220268,1205773,66440,7736,602188,0
6,3,709303,248616,1327682,74090,9434,663339,0
6,-1,634693,218830,1364537,65718,8161,681743,0
6,-1,654651,223085,1309985,68957,7652,654597,0
6,3,712353,248554,1488075,74016,8810,743515,0
6,-1,635615,218893,1328159,65812,7046,663670,0
6,3,706074,248833,1433185,74092,9087,716142,0
6,-1,635484,218002,1362712,65515,7570,680804,0
6,3,709974,249529,1356902,74279,8435,677884,0
6,-1,640041,219320,1315680,65936,7743,657446,0
6,-1,641178,219038,1301989,65727,7670,650574,0
6,3,707175,248750,1552686,74016,9077,775811,0
6,-1,635352,219112,1271190,65793,7579,635103,0
6,-1,642905,220369,1254314,66385,7615,626420,0
6,3,706818,248428,1412292,73859,8499,705740,0
6,3,707908,248435,1345283,73859,8926,672214,0
6,-1,642681,220113,1348388,66034,7242,673845,0
6,3,713748,248954,1473471,74095,9138,736014,0
6,-1,639141,219124,1233317,65776,6672,616197,0
6,-1,643850,219252,1260396,65859,7130,629770,0
6,3,710741,249352,1408359,74228,8893,703723,0
6,3,710671,249909,1491369,74589,9314,744943,0
6,-1,643324,218993,1314078,65840,8072,656542,0
6,3,710802,248716,1294194,74015,8366,646628,0
6,-1,643848,221276,1362630,66950,7989,680413,0
6,3,708586,249451,1370069,74156,8163,684417,0
6,-1,636232,218850,1258964,65928,7327,629024,0
6,-1,640123,219073,1283119,65973,8240,640937,0
6,3,715617,250770,1733788,74997,10388,865609,0
6,-1,644950,221324,1337561,66966,7794,667947,0
6,3,706023,248791,1307180,73974,8953,653162,0
6,-1,640288,219375,1329171,66063,7309,664150,0
6,3,706885,248610,1371531,73916,8651,685380,0
6,3,710219,248737,1355628,73923,8301,677358,0
6,-1,642073,219224,1234592,66012,6764,616815,0
6,-1,639311,218563,1376918,65728,7641,688097,0
6,3,707371,249204,1332300,74152,9361,665519,0
6,-1,641520,219613,1268428,66141,6810,633694,0
6,-1,644437,221001,1299121,66787,8247,648880,0
6,3,710166,249884,1490855,74231,7615,744936,0
6,-1,646909,220446,1338203,66527,8333,668296,0
6,3,714933,250687,1414860,74796,8514,706695,0
6,-1,660584,223718,1260275,69270,8304,629677,0
6,3,707961,249118,1415702,74014,8303,707283,0
6,-1,633757,219747,1183159,66178,6814,591127,0
6,3,737193,259066,1497538,77033,8517,748240,0
6,3,710993,249644,1457607,74273,8907,728307,0
6,-1,639398,220473,1393976,66419,7728,696491,0
6,3,711682,249526,1428160,73979,8552,713644,0
6,3,711160,249642,1453520,74009,9408,726314,0
6,-1,639648,220008,1225814,66246,8003,612420,0
6,3,740918,255852,1473123,77906,10481,735979,0
6,-1,634768,219606,1357280,65944,7073,678274,0
6,-1,637696,219632,1266919,66013,6574,632941,0
6,3,714584,249356,1536887,74009,9946,767940,0
6,3,716639,250186,1465803,74284,9005,732258,0
6,-1,639117,219525,1480381,66030,7566,739817,0
6,3,710272,249518,1305363,74235,9437,652197,0
6,-1,638287,220357,1313191,66439,7385,655829,0
6,3,706364,248731,1416329,73935,8777,707892,0
6,-1,640563,220897,1363207,66592,7863,680780,0
6,3,712022,248562,1356831,73931,8889,678032,0
6,-1,636595,219184,1333589,65909,7604,666307,0
6,3,710605,249302,1431058,74063,9060,714983,0
6,3,710806,247900,1449899,73573,9777,724382,0
6,-1,640080,219457,1358728,65974,7965,678886,0
6,3,703518,246749,1452352,73263,9651,725606,0
6,-1,640351,219438,1239066,65959,7149,619023,0
6,3,708722,248837,1546849,73910,9954,772882,0
6,-1,638904,221407,1303831,66901,7825,651136,0
6,3,710738,248460,1430444,73753,9511,714518,0
6,-1,634423,218994,1347077,65830,6950,673258,0
6,-1,638858,220131,1609898,66214,9686,804456,0
6,3,714597,250690,1329218,74543,9410,663779,0
6,3,711262,249573,1509560,74031,9271,754026,0
6,-1,658574,223537,1331877,69173,7929,665452,0
6,3,717181,250594,1503882,74552,11141,751224,0
6,-1,639469,220143,1310487,66204,7355,654827,0
6,3,710940,248335,1431694,73655,10085,715297,0
6,3,712153,248198,1527171,73671,10410,762736,0
6,-1,640415,219193,1313103,65893,7776,656052,0
6,3,710218,250107,1475701,74549,9947,737152,0
6,-1,638656,219323,1326602,65970,7942,662685,0
6,3,705497,247771,1443456,73476,8957,721215,0
6,-1,639291,219509,1172471,65956,6973,585658,0
6,3,713301,250984,1340796,74843,9528,669665,0
6,-1,646679,221388,1340472,66900,7452,669473,0
6,3,708373,247975,1476853,73580,8917,737972,0
6,-1,639404,218993,1333880,65829,7133,666470,0
6,3,710679,247817,1447863,73467,9432,723371,0
6,-1,639998,219063,1333274,65842,6677,666142,0
6,3,712724,248368,1429468,73683,9560,714072,0
6,-1,643793,220193,1524765,66267,9524,761907,0
6,-1,636566,219729,1317898,66074,7746,658432,0
6,3,708664,248108,1449907,73658,8916,724371,0
6,3,710588,248429,1379485,73715,9553,689161,0
6,-1,658223,223722,1326927,69192,7839,662892,0
6,-1,639383,219375,1179676,65934,6800,589403,0
6,3,713530,248477,1434569,73672,8926,716909,0
6,3,709565,248584,1506104,73722,8858,752509,0
6,-1,642606,221362,1232602,66849,7427,615389,0
6,3,710294,247781,1597158,73419,10181,796393,0
6,-1,661940,223981,1271996,69272,7811,635475,0
6,3,711479,248303,1400654,73632,8658,699829,0
6,-1,639332,218777,1208167,65719,7277,603569,0
6,3,711018,247671,1455801,73331,8207,727474,0
6,-1,658317,224056,1219376,69251,8454,609110,0
6,3,706856,248780,1594845,73476,10046,797299,0
6,-1,640374,219761,1239817,65934,7442,619068,0
6,3,708138,249051,1524002,73629,9370,761433,0
6,-1,639725,219064,1195667,65733,7506,597416,0
6,3,705525,247481,1427795,73066,7951,713382,0
6,-1,639716,219709,1314862,65941,6630,656918,0
6,3,707151,248840,1462431,73508,8796,730720,0
6,-1,642475,219399,1207042,65830,7656,603107,0
6,3,713158,249635,1385555,73979,8918,692066,0
6,3,711289,248480,1456820,74236,9402,727850,0
6,-1,643049,219292,1272766,65809,7784,635940,0
6,3,706632,248029,1459921,74108,8731,729437,0
6,3,709401,247965,1381739,74041,10223,690385,0
6,-1,644501,220359,1241564,66096,7166,620204,0
6,3,707036,247844,1458905,74034,9331,729003,0
6,-1,648018,222189,1466031,67165,8167,731999,0
6,-1,642238,220380,1319970,66329,7554,659464,0
6,3,705877,247900,1501461,74050,9189,750320,0
6,-1,648262,221875,1419878,66761,8562,709088,0
6,-1,646736,220626,1216761,66133,6672,607928,0
6,3,711982,247905,1343769,74033,8898,671427,0
6,-1,645391,221741,1319845,66527,8113,659447,0
6,3,710267,247609,1312333,73930,9066,656106,0
6,-1,644172,220287,1305087,66059,7740,651851,0
6,3,724896,252404,1521420,77346,10348,760278,0
6,-1,651105,221813,1367597,66752,8258,683002,0
6,3,708218,248182,1526860,74050,9897,762782,0
6,-1,644817,220482,1374110,66215,7587,686523,0
6,3,729953,252750,1642431,77433,11369,820791,0
6,3,729204,253043,1541732,77392,10877,770326,0
6,-1,648941,221439,1338988,66747,8073,668873,0
6,3,708399,247481,1397363,73688,8660,698278,0
6,-1,647624,219496,1348499,65720,8159,673764,0
6,3,710652,248130,1374982,73983,8578,686885,0
6,-1,637660,219411,1298633,65828,8114,648431,0
6,-1,646257,221709,1415935,66854,8101,707113,0
6,3,707886,248578,1385721,74166,8773,692371,0
6,-1,638922,220522,1364844,66468,8650,681730,0
6,-1,637299,219337,1292707,65843,7816,645702,0
6,3,729184,252985,1423677,77387,11241,711145,0
6,-1,661570,223629,1353873,69061,7746,676790,0
6,3,715647,250251,1366540,74960,9257,682401,0
6,-1,657539,223722,1279414,69150,8169,639194,0
6,-1,638287,219465,1317418,65823,7188,658266,0
6,3,711067,248757,1550826,74292,11037,774757,0
6,-1,641645,219986,1213483,66069,7573,606275,0
6,3,739122,253880,1504890,77795,10241,752060,0
6,-1,637269,219173,1320659,65727,8770,659781,0
6,-1,644082,220342,1376230,66385,8098,687381,0
6,3,709664,248753,1369032,74384,9721,684135,0
6,3,713297,249462,1340734,74597,8906,669862,0
6,-1,640489,218822,1306639,65683,8379,652789,0
6,-1,637963,219551,1211327,65952,7484,605095,0
6,3,710325,249383,1500232,74557,8723,749527,0
6,3,711329,249063,1361013,74422,9026,680038,0
6,-1,644723,221020,1332996,66676,8561,665629,0
6,-1,646149,221085,1259975,66537,8538,628992,0
6,3,714490,249581,1549748,74478,10797,774447,0
6,3,716740,250583,1546741,74809,10860,772514,0
6,-1,639588,219521,1215569,65815,7349,607343,0
6,-1,636410,217843,1138873,65162,7198,568989,0
6,3,732103,253111,1581879,77427,10468,790372,0
6,-1,663986,224499,1329158,69093,8594,664220,0
6,3,708204,248461,1380993,74126,9624,690113,0
6,3,713205,248977,1448955,74344,9254,723597,0
6,3,713204,249480,1388386,74512,9308,693559,0
6,-1,643558,220880,1315513,66334,7669,657053,0
6,3,714293,249905,1413199,74651,9533,706027,0
6,3,712348,249415,1519409,74437,8984,759190,0
6,-1,665941,224632,1352211,69253,9482,675612,0
6,3,721681,250649,1371587,74830,9497,685228,0
6,-1,645936,221496,1282911,66642,7804,640592,0
6,-1,641998,219090,1380064,65613,8698,689567,0
6,-1,644487,219482,1338849,65798,8648,668808,0
6,3,710622,249551,1382306,74558,9170,690721,0
6,-1,646229,220695,1464998,66513,9037,731651,0
6,3,714874,249408,1374069,74416,8041,686791,0
6,-1,635434,218919,1336241,65691,8350,667390,0
6,3,732977,253169,1588567,77419,11217,793780,0
6,-1,637098,218786,1338780,65627,7408,668856,0
6,-1,643667,220957,1299208,66500,7189,648933,0
6,3,716072,249694,1681758,74511,10231,840522,0
6,-1,637098,218756,1231945,65579,6573,615580,0
6,3,715716,251044,1676716,75301,12089,836944,0
6,3,711485,248242,1396223,74138,9584,697146,0
6,-1,639025,218980,1285716,65628,6954,642427,0
6,3,713225,248185,1397461,74221,8748,698197,0
6,-1,641583,219531,1285428,66109,7524,641989,0
6,-1,645305,220810,1304024,66558,7900,651076,0
6,3,728558,252689,1609900,77520,10050,804353,0
6,3,712882,247957,1402251,74175,9121,700719,0
6,-1,639822,218795,1222690,65588,7776,610860,0
6,3,711458,247224,1405487,73898,9124,702309,0
6,-1,643526,220540,1415716,66376,7906,706621,0
6,3,713414,247812,1368228,74143,8570,683675,0
6,-1,640373,218686,1187175,65613,7061,593057,0
6,3,708732,248416,1469711,74384,9480,734421,0
6,3,708164,248608,1644362,74291,9996,821678,0
6,-1,661032,223168,1276404,68898,9065,637792,0
7,-1,697430,239413,1325443,71725,8184,661895,0
7,3,762054,266972,1467855,78813,9403,733401,0
7,-1,692500,237076,1389776,70621,7761,694446,0
7,3,706785,247903,1305270,73695,8138,652110,0
7,-1,716497,242854,1447404,74338,9252,723183,0
7,3,704766,248142,1472131,73657,9290,735499,0
7,3,709710,248337,1447740,73699,9477,723511,0
7,-1,685920,236656,1334907,70461,8362,667019,0
7,3,710217,248628,1666418,73994,10057,831312,0
7,-1,684066,235336,1379651,70063,8250,689408,0
7,3,706935,247636,1425516,73614,8251,712363,0
7,-1,637437,218740,1216244,65694,7510,607574,0
7,3,711415,247885,1507550,73705,10418,753021,0
7,-1,637187,218858,1331287,65762,7755,665958,0
7,3,711885,248931,1486821,74141,9270,742848,0
7,-1,655446,222782,1339341,68722,8289,669210,0
7,3,709434,248278,1362068,73800,8612,680432,0
7,-1,635697,218179,1189807,65402,6775,594485,0
7,3,706099,247335,1350873,73428,8615,674970,0
7,-1,635688,218301,1246682,65453,7044,622892,0
7,3,714479,249680,1448698,74093,8003,723926,0
7,-1,639405,218595,1229658,65558,7227,614402,0
7,3,709330,249003,1410680,74039,8158,704869,0
7,3,711153,249546,1472043,74401,9499,735004,0
7,-1,637529,219722,1430307,66260,6998,714484,0
7,-1,634896,218899,1312858,65855,6655,655660,2
7,-1,638015,219095,1334721,65893,7740,666887,0
7,3,711014,249771,1498632,74564,9422,748652,0
7,-1,636206,218328,1356059,65591,7380,677543,2
7,3,707597,248663,1627093,74084,9700,813095,0
7,-1,645187,220962,1434706,66754,9474,716404,0
7,3,710670,248654,1619887,74076,10376,808965,0
7,-1,642542,221356,1308051,66871,7275,653222,2
7,-1,645186,220881,1324388,66635,7475,661536,0
7,3,711318,249631,1414262,74339,8644,706615,0
7,-1,638333,218745,1260117,65742,7256,629571,0
7,-1,637600,218678,1233108,65775,8017,616025,2
7,-1,640371,218740,1194609,65791,8002,596829,0
7,3,716049,250665,1458059,74977,9452,728282,0
7,-1,631834,218425,1319970,65652,6807,659553,0
7,3,712671,248390,1389094,73895,8716,694076,0
7,-1,634407,218380,1319673,65562,7591,659337,0
7,-1,634423,218754,1218237,65750,7273,608558,0
7,3,708554,248923,1447078,74156,9387,723088,0
7,-1,637066,218926,1638632,65885,9207,818835,0
7,-1,636950,220174,1252063,66321,6859,625522,2
7,-1,642280,220610,1305532,66555,7866,652082,0
7,3,707078,249029,1438841,74104,8368,718864,0
7,-1,639519,218706,1348355,65689,7448,673700,0
7,-1,641506,219351,1280718,65919,7886,639739,2
7,3,706356,248534,1502212,73892,8822,750689,0
7,-1,634886,218541,1310686,65525,7519,654903,0
7,-1,640475,220964,1433166,66713,7767,715776,2
7,-1,639629,220001,1238694,65971,7081,618980,0
7,3,710541,250258,1548043,74667,9461,773204,0
7,-1,641805,220595,1233688,66222,7307,616438,2
7,-1,661031,224178,1288137,69150,8112,643635,0
7,3,710012,249074,1384068,74386,10253,690929,0
7,3,714530,249707,1503254,74525,10203,750858,0
7,-1,640598,219720,1299808,66025,8523,649422,2
7,-1,642752,219152,1352978,65786,8118,676038,0
7,-1,640191,219552,1215314,65974,6860,607213,2
7,-1,641709,219416,1189225,65892,6970,594213,0
7,3,707247,248464,1481568,73928,9027,740295,0
7,-1,646416,221559,1317594,67021,8308,657955,2
7,-1,644375,220044,1245054,66254,7852,622050,0
7,3,704020,247643,1342074,73690,8491,670637,0
7,3,711074,248828,1379490,73985,8925,689193,0
7,-1,637995,219902,1231695,66249,7756,615279,2
7,-1,658403,223491,1290377,69208,8183,644625,0
7,-1,640669,219810,1284430,66167,7459,641614,2
7,3,710386,248688,1497285,73931,8551,748115,0
7,-1,640816,218924,1256812,65927,7929,627902,0
7,-1,638102,219313,1291314,66063,7717,645193,2
7,-1,638787,218929,1289786,65830,7430,644447,0
7,3,707604,247752,1476507,73746,9060,737773,0
7,-1,635320,217963,1310644,65624,7356,654984,0
7,3,709258,250356,1381773,74812,9229,690458,0
7,-1,643625,221052,1348123,66894,8614,673307,2
7,-1,647204,220867,1331534,66745,8415,665079,0
7,3,706370,249044,1349914,74106,8672,674452,0
7,3,708364,248575,1310630,73948,8487,654851,0
7,-1,641628,219391,1260019,66023,6915,629756,0
7,-1,641057,219455,1433444,66094,8257,716188,0
7,3,710703,248435,1350304,73846,9455,674633,0
7,-1,640477,219746,1254845,66219,7304,626882,2
7,-1,638094,218365,1201240,65723,6609,600184,0
7,-1,646422,221000,1356634,66863,6872,677253,2
7,3,731746,253430,1392134,77211,10006,695574,0
7,-1,639639,219299,1325143,65987,7996,662165,0
7,-1,640365,218757,1349698,65821,8354,674486,0
7,3,710328,248630,1472591,73810,9164,735829,0
7,-1,643305,218958,1320446,65882,7691,659776,0
7,-1,641851,219521,1300195,66131,8058,649583,2
7,3,707923,249640,1483455,74145,8747,741253,0
7,-1,645496,219361,1198848,66060,7290,598968,0
7,3,714770,250227,1323876,74358,8688,661339,0
7,3,737857,254303,1703514,77583,10489,850726,0
7,-1,634087,219203,1251340,66030,7335,625150,2
7,-1,640365,221380,1468498,66977,8266,733569,0
7,3,715758,249976,1550912,74273,9401,775013,0
7,-1,638584,221591,1418815,67117,8271,708549,2
7,3,740162,255105,1505894,77631,10123,752441,0
7,-1,640809,220869,1300799,66790,7864,649563,0
7,3,712876,249518,1662025,74014,10928,830504,0
7,-1,641150,220810,1355988,66634,8497,677097,0
7,-1,635805,220022,1308593,66195,7989,653307,2
7,-1,637613,219369,1360173,65929,7540,679713,0
7,3,714249,249264,1336981,74085,8118,667941,0
7,-1,639181,219970,1334805,66190,7231,666732,2
7,3,722994,251313,1482787,74918,9829,740447,0
7,-1,635609,219328,1261177,65978,6830,630057,2
7,-1,637318,218988,1358436,65813,7629,678697,0
7,3,709512,248451,1350540,73735,9448,675083,0
7,-1,635347,219441,1277400,66008,6613,638201,0
7,3,708017,248564,1353607,73824,9234,676262,0
7,-1,636018,219457,1174898,66032,7300,586845,2
7,-1,635000,219073,1287582,65859,7777,643336,0
7,-1,639437,220209,1380882,66204,7774,689859,2
7,3,712284,249087,1424020,74109,9656,711419,0
7,-1,635092,218994,1278557,65746,6995,638765,0
7,3,711165,249014,1353929,74071,8875,676473,0
7,3,709699,248821,1447505,73930,8715,723291,0
7,-1,639236,218912,1321235,65746,9372,660000,0
7,3,731990,253090,1457776,77140,10270,728556,0
7,-1,643745,221746,1398638,67018,8104,697718,2
7,-1,642497,220283,1317994,66269,7598,658497,0
7,3,728786,253733,1437528,77317,10160,718087,0
7,-1,643182,220288,1288411,66308,7951,643571,2
7,-1,655752,223771,1261364,69218,7640,630190,0
7,3,736879,257803,1515799,76561,9771,757255,0
7,-1,640474,219977,1167086,66145,7030,582919,0
7,-1,634984,219696,1275279,66104,7610,636795,2
7,-1,640037,219753,1296078,66059,8023,647708,0
7,3,713230,248751,1417717,73667,10745,708428,0
7,-1,637069,219651,1323210,66039,7257,661223,0
7,3,711223,248926,1545113,73738,9605,772013,0
7,-1,642487,221439,1329886,66941,7815,663681,2
7,3,711017,248707,1479422,73796,9806,739009,0
7,-1,645090,220557,1441564,66500,8486,720025,0
7,3,731428,253129,1416292,77057,11360,707738,0
7,-1,659868,224276,1212719,69367,8115,605852,0
7,3,712513,248477,1550193,73782,10227,774621,0
7,-1,640124,219718,1284069,66134,7653,641501,2
7,3,728880,253330,1482800,77074,11068,740657,0
7,-1,641184,220437,1321686,66240,6759,660319,0
7,3,707624,248828,1472158,73904,8886,735646,0
7,-1,666076,228807,1253305,68765,7136,626128,2
7,-1,642917,221365,1224861,66876,7861,611468,0
7,3,710379,248426,1443034,73708,9774,720498,0
7,-1,638428,218611,1376110,65640,7133,687615,0
7,-1,640364,220378,1255966,66322,7110,627426,2
7,3,708707,248190,1403778,73662,9700,701296,0
7,-1,642125,220852,1308666,66679,7400,653447,0
7,-1,642665,220503,1241765,66390,7907,620346,2
7,3,710909,248409,1509588,73749,9084,754293,0
7,-1,640035,219309,1227707,65935,6775,613523,0
7,-1,641430,219572,1316262,66074,7393,657573,2
7,3,710626,248260,1521231,73677,9793,760139,0
7,-1,641123,219300,1287996,65872,7462,643538,0
7,-1,637259,220194,1306789,66179,7914,652897,0
7,3,713785,250026,1378233,74438,8615,688410,0
7,3,712164,248457,1316942,73773,8945,657808,0
7,-1,640537,221349,1302148,66962,7576,650244,2
7,-1,637139,219483,1315416,65967,7032,657292,0
7,3,711146,248052,1368741,73444,8792,684007,0
7,-1,637594,219135,1140861,65890,6764,569921,0
7,3,717019,250923,1367189,74756,8755,682276,0
7,-1,636717,219461,1246692,65904,7110,622877,0
7,3,711282,248588,1468056,73712,8997,733328,0
7,-1,637192,219922,1260468,66140,6923,629662,2
7,-1,639907,219289,1219040,65937,7106,608942,0
7,3,733627,253386,1542505,77051,9644,770621,0
7,-1,661195,224125,1278980,69330,8740,639015,0
7,3,718881,251293,1389747,74939,8097,694012,0
7,-1,643139,220991,1233132,66776,7914,615667,2
7,-1,637124,219703,1192668,65972,7678,595872,0
7,3,704553,248096,1664108,73275,9545,830336,0
7,-1,638977,219594,1163439,65935,7339,581127,0
7,3,705201,248015,1612490,73144,10396,805798,0
7,-1,663333,228973,1246070,68708,7691,622498,2
7,-1,640332,220209,1247417,66364,7676,623108,0
7,3,705125,247943,1436287,73208,9170,717696,0
7,-1,641486,220330,1226853,66176,7302,612949,2
7,-1,637314,219154,1285355,65734,6339,642323,0
7,3,706805,248346,1416444,73308,9144,707796,0
7,-1,641014,219835,1236868,65981,7054,618046,0
7,3,707204,247966,1412045,73215,8418,705599,0
7,3,709349,248079,1399185,74096,9383,699370,0
7,-1,641434,220157,1241304,66117,6893,620139,2
7,-1,643832,219967,1203568,66016,7177,601301,0
7,3,710310,250150,1349449,75037,9308,673982,0
7,3,713584,250556,1392981,75216,9512,695606,0
7,-1,639329,220016,1214538,66123,7149,606762,2
7,-1,661054,224273,1215925,69322,8240,607489,0
7,3,709681,248031,1442374,74113,9049,720702,0
7,-1,643137,220702,1266818,66363,6625,633021,2
7,-1,641070,219904,1359613,66117,7240,679342,0
7,-1,643128,222024,1371322,67069,7725,684914,2
7,3,709907,247635,1369395,73933,8635,684231,0
7,-1,641664,220174,1322796,66252,7244,660917,0
7,-1,647273,221849,1349443,66956,8089,673818,0
7,-1,644240,220943,1219188,66367,6535,608974,2
7,-1,644337,220121,1331905,66035,6834,665119,0
7,3,715243,250294,1378475,75033,8356,688540,0
7,-1,641417,219866,1215386,65894,7906,607243,0
7,-1,640373,220211,1225298,66060,7528,612092,2
7,-1,642712,220372,1311489,66118,7645,655156,0
7,3,714986,250158,1358389,75075,8959,678437,0
7,-1,674571,231601,1398804,69763,8065,698477,2
7,3,708062,248529,1435564,74285,9675,717349,0
7,-1,647119,220740,1283516,66243,7373,641316,0
7,-1,645124,220669,1408425,66215,7132,703866,2
7,3,710214,249233,1574553,74457,10979,786814,0
7,-1,644345,220098,1265272,66047,7561,632150,2
7,-1,645531,219975,1345570,65997,8694,672401,0
7,3,708631,248979,1500813,74337,9310,750002,0
7,3,712613,248855,1380181,74121,9534,689641,0
7,-1,644663,220790,1391066,66348,9115,695015,2
7,-1,648740,220844,1359015,66301,8496,679089,0
7,-1,645065,219770,1309962,66002,7942,654421,2
7,3,707317,247992,1429186,73887,8729,714141,0
7,-1,669570,224863,1253069,69365,8258,625998,0
7,-1,644202,222551,1320371,67199,8810,659242,2
7,3,712880,248355,1683552,74079,10319,841151,0
7,-1,640757,220401,1414148,66166,8242,706744,0
7,-1,639289,219568,1226508,65872,7283,612913,0
7,-1,638532,219999,1287152,66118,7503,643242,2
7,3,711244,248193,1465808,73940,9596,732252,0
7,-1,643644,220318,1356569,66216,7398,677782,0
7,-1,639251,219214,1194775,65757,7272,596952,0
7,-1,640627,220341,1258412,66185,7280,628659,2
7,3,712153,249059,1318536,74290,9701,658543,0
7,-1,642836,220490,1398775,66233,7695,698936,0
7,-1,645199,221402,1353767,66820,8043,675895,2
7,3,712463,249107,1535292,74246,9555,767101,0
7,-1,641707,219244,1306375,65861,7768,652751,0
7,-1,637300,219147,1176667,65906,7652,587846,2
7,3,731635,252976,1514450,77572,10898,756848,0
7,-1,646345,221384,1385810,66779,8336,692252,0
7,-1,666337,229130,1417484,68704,7949,708312,2
7,-1,642659,219543,1311213,65897,7817,655152,0
7,3,717549,249798,1343617,74610,9108,671430,0
7,-1,643628,220268,1163988,66155,7286,581540,2
7,-1,637714,219124,1343852,65750,8636,672105,0
7,-1,637458,218696,1210632,65625,7835,604898,0
7,3,714054,250949,1326623,75408,9540,662608,0
7,3,712900,249527,1355127,74635,8345,677109,0
7,-1,642771,220193,1309929,66399,8811,654025,0
7,3,712834,249457,1451605,74604,9373,725309,0
7,-1,636878,219069,1365833,65740,8194,682396,0
7,3,709404,249142,1446068,74435,8826,722568,0
7,-1,659301,223372,1349584,68920,8598,674282,0
7,-1,637623,219719,1619306,66013,9265,809238,2
7,-1,641668,219667,1273834,65927,6980,636428,0
7,3,732287,253979,1629223,77749,11432,813730,0
7,-1,646039,221820,1370687,66900,8632,684594,2
7,3,717813,251009,1376038,75083,8925,687155,0
7,-1,637856,219020,1401907,65654,8359,699900,0
7,-1,640394,220106,1338429,65937,8230,668688,2
7,-1,641306,220010,1219306,65884,7896,609106,0
7,3,710647,248774,1349915,74194,8622,674456,0
7,-1,644943,220050,1314122,65862,8636,656433,0
7,3,710197,248526,1264024,74147,8861,631330,0
7,3,712304,248891,1487237,74260,9764,743078,0
7,3,715207,250563,1491013,75043,9865,744836,0
7,-1,639461,219151,1290709,65535,8279,644758,0
7,3,712469,248516,1469287,74144,9289,734757,0
7,3,712509,248773,1504587,74212,9627,751576,0
7,-1,643862,220357,1287835,66036,8140,643381,0
7,3,719422,250295,1355937,74701,10306,677429,0
7,-1,661110,223689,1394393,68947,9318,696602,0
7,-1,636772,218944,1235603,65694,8797,617198,2
7,-1,644257,221108,1423764,66546,8468,710834,0
7,3,718329,250656,1389663,75125,9836,694138,0
7,-1,647226,220636,1297233,66407,8128,647834,0
7,-1,640871,218599,1254536,65525,7697,626412,0
7,3,714689,249013,1508878,74399,10391,753871,0
7,-1,638902,220320,1364777,66324,8395,681279,0
7,-1,634941,218981,1419089,65709,8231,709107,2
7,3,712817,249523,1436421,74486,9590,717612,0
7,-1,638108,219030,1337508,65664,7829,668265,0
7,-1,640983,219652,1276223,65870,8500,637663,0
7,3,715632,250243,1412210,75025,9496,705138,0
7,-1,638556,219209,1419807,65724,8843,709373,2
7,-1,637881,219482,1325414,65849,7421,662196,0
7,3,711630,248715,1382618,74218,8814,690762,0
7,3,710731,248204,1470227,74040,9829,734696,0
7,-1,637983,218474,1546387,65452,8353,772820,0
7,3,709656,247559,1377502,73986,8120,688461,0
7,-1,638038,218546,1290763,65553,7644,643873,0
7,-1,664220,224426,1436708,69225,8713,717578,0
7,3,715100,247971,1478671,74156,9937,738925,0
7,-1,642983,220617,1301843,66408,7528,650236,0
7,3,717854,250281,1416861,75266,9014,707716,0
7,3,711085,247204,1393185,73940,8852,696092,0
7,-1,637484,218526,1279906,65444,7702,639540,0
7,3,714173,248263,1323212,74330,8830,661134,0
7,-1,641125,218807,1416664,65594,9584,707867,0
7,3,711286,250038,1514726,75150,9928,756000,0
7,-1,644051,221434,1245618,66792,7133,621913,2
7,-1,641478,219354,1246468,65769,8087,622648,0
7,3,716805,250889,1508329,75317,9489,753052,0
