0,0,237,643517.616034,219884.746835,1243203.856540,66445.987342,7742.827004,621059.852321,10955.610490,3299.215224,68794.744124,1317.280120,692.773628,34358.501480
0,1,0,-nan,-nan,-nan,-nan,-nan,-nan,-nan,-nan,-nan,-nan,-nan,-nan
1,0,236,643300.186441,219833.478814,1239199.495763,66412.466102,7742.190678,619048.716102,10770.302556,3195.364958,65121.811248,1342.557461,698.233056,32556.316836
1,1,0,-nan,-nan,-nan,-nan,-nan,-nan,-nan,-nan,-nan,-nan,-nan,-nan
2,0,236,642647.576271,219534.461864,1243563.216102,66301.355932,7794.529661,621224.580508,8960.947570,2619.506456,72120.278102,1134.734271,708.472972,36014.788875
2,1,0,-nan,-nan,-nan,-nan,-nan,-nan,-nan,-nan,-nan,-nan,-nan,-nan
3,0,237,643710.548523,219858.101266,1244652.037975,66461.350211,7809.358650,621773.877637,9923.358354,2857.110728,60726.884706,1296.622760,648.869203,30334.802034
3,1,0,-nan,-nan,-nan,-nan,-nan,-nan,-nan,-nan,-nan,-nan,-nan,-nan
4,0,237,642643.329114,219530.413502,1239255.696203,66332.185654,7750.493671,619086.189873,8933.379699,2465.990052,69158.200322,1120.242733,715.799548,34552.692309
4,1,0,-nan,-nan,-nan,-nan,-nan,-nan,-nan,-nan,-nan,-nan,-nan,-nan
5,0,237,642627.447257,219583.864979,1237949.261603,66320.497890,7663.075949,618431.265823,9719.806098,2754.660966,68100.050930,1205.263186,645.976207,34047.961471
5,1,0,-nan,-nan,-nan,-nan,-nan,-nan,-nan,-nan,-nan,-nan,-nan,-nan
6,0,237,643490.928270,219841.945148,1241584.396624,66449.021097,7773.143460,620238.742616,10201.324858,2845.688780,67470.113246,1293.585513,734.443637,33711.710939
6,1,0,-nan,-nan,-nan,-nan,-nan,-nan,-nan,-nan,-nan,-nan,-nan,-nan
7,0,355,641650.890141,219517.335211,1238443.467606,66271.653521,7670.121127,618657.250704,8716.130501,2436.513972,65658.702443,1043.742616,662.359738,32800.178066
7,1,0,-nan,-nan,-nan,-nan,-nan,-nan,-nan,-nan,-nan,-nan,-nan,-nan
