-1,0,0.118926
-1,1,0.118926
-1,2,0.118926
-1,3,0.118926
-1,4,0.118926
-1,5,0.118926
-1,6,0.118926
-1,7,0.167519
2,0,0.125738
2,1,0.124895
2,2,0.124895
2,3,0.124895
2,4,0.124895
2,5,0.124895
2,6,0.124895
2,7,0.124895
