0,-1,695129,237614,1280441,70809,7745,639731,0
0,-1,696237,239733,1338814,71787,7533,668803,2
0,-1,643167,218866,1264940,65599,6830,632070,0
1,-1,688318,236618,1333648,70481,6988,666384,2
1,-1,643331,218812,1164512,65617,6446,581846,0
2,-1,634571,218827,1268789,65823,6704,634038,2
2,-1,642704,218934,1312099,65557,7169,655773,0
3,-1,635925,218252,1282593,65532,7223,640907,2
3,-1,641808,218393,1196521,65465,6734,597846,0
4,-1,642874,221398,1203188,66793,7471,600836,2
4,-1,642306,218580,1196698,65515,7620,598261,0
5,-1,639113,219212,1331741,65947,8275,665400,2
5,-1,643244,219097,1209061,65724,7459,604073,0
6,-1,635208,219616,1342884,65926,7759,670955,2
6,-1,641986,218710,1324302,65570,7882,661558,0
7,-1,634596,218984,1265665,65854,6662,632317,2
7,-1,640143,218593,1269264,65526,6750,634226,0
8,-1,635472,218637,1275872,65697,6818,637570,2
8,-1,647356,219661,1372941,65901,8008,686083,0
9,-1,639976,220973,1355315,66793,8284,677075,2
9,-1,648065,220352,1348357,66314,8324,673554,0
10,-1,636807,218972,1246874,65763,7154,623093,2
10,-1,647794,220632,1233375,66500,7485,616015,0
11,-1,644570,221454,1352664,66857,7908,675729,2
11,-1,665211,223902,1394881,69082,8933,696986,0
12,-1,643623,220366,1150516,66255,7196,574890,2
12,-1,642729,219684,1327667,66046,6869,663255,0
13,-1,636717,219398,1363133,66052,7789,681118,2
13,-1,644376,219124,1320780,65706,8448,660060,0
14,-1,639286,219333,1300513,66097,7487,649914,2
14,-1,648027,221322,1509744,66717,8543,753964,0
15,-1,642166,220352,1223967,66399,7520,611645,2
15,-1,662271,223496,1387932,68945,8248,693676,0
16,-1,642708,219780,1288186,66210,8046,643617,2
16,-1,641596,218397,1189277,65479,7062,594344,0
17,-1,641281,218818,1353351,65848,7503,676374,2
17,-1,643898,219976,1306930,65990,7348,653115,0
18,-1,635714,219617,1224537,66125,7714,611795,2
18,-1,638237,218432,1398191,65446,7431,698732,0
19,-1,634846,218872,1336745,65945,7603,667966,2
19,-1,649165,220809,1243370,66545,8002,621091,0
20,-1,636055,219956,1246498,66265,7869,622879,2
20,-1,663857,222961,1391017,68754,8973,695130,0
21,-1,637069,219660,1194817,66200,7338,596870,2
21,-1,644465,219910,1274521,66102,8075,636712,0
22,-1,639419,220106,1325169,66225,8443,661982,2
22,-1,669897,228218,1322284,68381,9594,660901,0
23,-1,635791,219840,1344975,66164,8930,672012,2
23,-1,641599,218529,1276646,65480,7775,638124,0
24,-1,637780,219539,1246955,66007,7026,623190,2
24,-1,648922,221970,1505605,67012,9984,751685,0
25,-1,643360,220383,1339519,66309,8723,669754,2
25,-1,641717,218814,1445861,65609,8933,722474,0
26,-1,634466,219467,1285758,66022,8624,642533,2
26,-1,642251,219354,1314300,65808,7942,656644,0
27,-1,643347,221696,1289310,67015,8303,643971,2
27,-1,641564,219018,1362298,65632,8224,680646,0
28,-1,640691,219925,1317468,66190,7943,658265,2
28,-1,641089,218952,1142526,65631,7435,570625,0
29,-1,666285,228809,1182076,68805,7682,590564,2
29,-1,645618,220873,1271428,66547,8210,634875,0
30,-1,641573,220173,1312459,66273,7819,655783,2
30,-1,663216,224255,1499560,69170,8798,749194,0
31,-1,642159,219831,1291226,66176,7624,645164,2
31,-1,640750,219027,1419990,65706,7935,709522,0
32,-1,631562,219024,1177512,65886,6620,588296,2
32,-1,640370,219291,1262583,65716,7536,630922,0
33,-1,639797,220821,1432930,66421,8317,715969,2
33,-1,648230,220385,1235370,66324,7905,616933,0
34,-1,643971,221279,1306635,66840,7969,652550,2
34,-1,641067,218730,1250772,65550,7588,625036,0
35,-1,663290,228874,1296995,68757,8062,648049,2
35,-1,646957,221529,1278853,66762,7936,638668,0
36,-1,638446,219772,1238958,66123,6251,619210,2
36,-1,640800,219484,1244275,65839,7647,621707,0
37,-1,641193,220030,1212191,66081,6849,605771,2
37,-1,643112,219127,1235422,65692,7981,617306,0
38,-1,641955,220463,1263552,66178,7302,631388,2
38,-1,663402,223853,1346347,69073,8449,672845,0
39,-1,642014,220299,1194344,66207,6543,596758,2
39,-1,641557,219387,1427515,65770,8254,713431,0
40,-1,637691,219380,1280441,65976,7772,639318,2
40,-1,645535,221152,1334220,66562,7752,666247,0
41,-1,644408,221052,1342700,66425,8653,670572,2
41,-1,638861,218932,1328726,65688,7304,664087,0
42,-1,643923,219853,1304569,65895,7744,651856,2
42,-1,639121,218980,1239368,65632,8183,619259,0
43,-1,645398,223410,1318454,67427,9040,658487,2
43,-1,637039,218575,1166476,65549,7928,582813,0
44,-1,639748,220450,1212109,66158,7746,605711,2
44,-1,646138,221373,1163072,66715,7644,580888,0
45,-1,642745,220912,1176147,66386,7756,587596,2
45,-1,643439,218877,1216688,65602,8078,608070,0
46,-1,639622,219246,1393310,65858,7901,696204,2
46,-1,644575,219226,1336691,65742,9064,667783,0
47,-1,641840,219466,1132886,66008,7727,566061,2
47,-1,647527,220849,1252780,66448,8525,625659,0
48,-1,637649,219718,1200273,66008,7636,599699,2
48,-1,641662,218024,1368784,65268,8042,683811,0
49,-1,637929,218731,1287979,65775,8303,643564,2
49,-1,641485,218809,1371909,65575,8430,685707,0
50,-1,638643,220073,1252452,65870,7913,625854,2
50,-1,643676,219230,1337855,65702,8923,668497,0
51,-1,640010,220058,1265699,65951,7381,632374,2
51,-1,638689,217708,1289297,65287,8097,644264,0
52,-1,639181,219364,1171513,65824,7414,585435,2
52,-1,643244,219431,1343364,65789,8525,671051,0
53,-1,642555,221321,1309068,66733,8335,653903,2
53,-1,641038,219022,1313414,65696,8043,656303,0
54,-1,638566,219751,1207659,65939,7141,603585,2
54,-1,640765,219092,1443827,65650,8362,721256,0
55,-1,640962,220050,1171280,66036,7720,585178,2
55,-1,648102,221271,1336826,66635,8276,667313,0
56,-1,635768,219166,1335238,65768,7937,667161,2
56,-1,663463,223907,1396876,69092,8740,697974,0
57,-1,639881,219688,1154363,65865,7331,576759,2
57,-1,640004,219091,1287289,65723,7901,643353,0
58,-1,641299,219961,1217999,66055,7611,608570,2
58,-1,642879,220667,1200492,66398,7530,599646,0
59,-1,643616,219145,1292102,65741,8245,645484,0
59,-1,639835,219107,1312461,65723,7880,655809,2
60,-1,642697,218757,1308246,65507,8568,653695,0
60,-1,647321,221910,1259398,66918,7854,628893,2
61,-1,643272,219291,1228897,65788,7913,613669,0
61,-1,639005,219240,1289276,65782,8093,644357,2
62,-1,662408,223594,1414715,68981,8819,706941,0
62,-1,640868,218841,1209720,65664,7750,604622,2
63,-1,642161,219481,1319652,65829,8375,659471,0
63,-1,647915,221612,1296453,66882,7052,647651,2
64,-1,641859,218586,1306359,65514,8478,652752,0
64,-1,634755,219741,1229394,65472,7102,614297,2
65,-1,639102,218640,1301151,65522,7748,649969,0
65,-1,631612,219186,1339637,65290,8257,669312,2
66,-1,641146,219805,1473205,65944,8322,735831,0
66,-1,638991,220842,1168111,66092,7866,583381,2
67,-1,644368,220625,1277438,66418,7952,638178,0
67,-1,636297,219768,1390545,65476,8167,694863,2
68,-1,637573,218474,1249039,65547,7777,623721,0
68,-1,633673,219229,1278926,65274,8204,639081,2
69,-1,642934,218892,1234485,65527,8241,616781,0
69,-1,642127,221307,1193634,66335,7148,596182,2
70,-1,647501,220647,1416628,66401,8723,707250,0
70,-1,639059,219317,1322971,66276,8412,661152,2
71,-1,642065,219180,1420177,65662,8263,709737,0
71,-1,640315,219000,1226126,66191,8151,612680,2
72,-1,646495,221262,1276407,66752,8175,637436,0
72,-1,636435,219002,1277246,66192,7876,638219,2
73,-1,638939,218748,1282003,65616,8174,640583,0
73,-1,637712,218836,1282040,66098,8828,640469,2
74,-1,639068,218707,1259044,65543,8071,629282,0
74,-1,638460,220324,1221628,66936,7809,610195,2
75,-1,645849,220549,1233653,66346,8025,616086,0
75,-1,638866,219297,1341754,66298,8378,670564,2
76,-1,640165,218841,1303993,65640,7608,651750,0
76,-1,638531,219064,1200015,66265,7493,599651,2
77,-1,638845,218649,1331503,65532,8288,665248,0
77,-1,640799,218779,1290613,66141,7189,644925,2
78,-1,664792,224431,1355522,69236,9531,677093,0
78,-1,634565,218888,1266010,66130,8117,632610,2
79,-1,639133,219215,1243791,65648,7857,621413,0
79,-1,641344,220980,1238303,67090,7565,618483,2
80,-1,641232,220169,1247510,66251,7859,623225,0
80,-1,638803,219722,1364216,66454,8498,681825,2
81,-1,639990,219910,1255412,65979,7674,627387,0
81,-1,642970,220231,1281515,66566,8424,640192,2
82,-1,640389,219242,1219347,65771,7986,609114,0
82,-1,639682,218950,1266236,66096,7691,632619,2
83,-1,638715,218764,1169345,65572,7329,584362,0
83,-1,642443,218791,1372814,66126,8021,686035,2
84,-1,641540,219286,1215990,65786,7511,607656,0
84,-1,640777,220664,1262813,66980,8056,630770,2
85,-1,641831,219939,1161934,66200,7276,580180,0
85,-1,640441,219832,1296735,66477,8417,647739,2
86,-1,636848,218450,1237099,65555,8044,618041,0
86,-1,643312,220350,1212363,66487,7355,605583,2
87,-1,637591,219148,1253518,65679,8118,626418,0
87,-1,640887,219855,1383155,66340,8862,691166,2
88,-1,639624,219159,1197256,65682,7366,598255,0
88,-1,645203,220519,1227166,66932,8182,612564,2
89,-1,640323,219815,1299053,65941,8051,649153,0
89,-1,643639,219781,1238835,66208,7525,619076,2
90,-1,637018,218642,1210046,65590,7851,604787,0
90,-1,639902,219120,1305379,66083,7598,652296,2
91,-1,636953,218806,1304064,65524,8464,651614,0
91,-1,645758,220701,1271573,66964,7989,635200,2
92,-1,644116,221595,1231363,66759,8119,615030,0
92,-1,644033,219336,1298178,66156,9291,648470,2
93,-1,658476,223846,1306698,69079,8942,652962,0
93,-1,634702,219508,1273386,66362,6787,636375,2
94,-1,647085,219300,1282136,65738,7690,640736,0
94,-1,638874,219633,1270150,66329,9030,634644,2
95,-1,646202,219515,1524222,65838,8709,761758,0
95,-1,642519,220363,1491079,66662,8520,745199,2
96,-1,646295,219752,1294169,65929,8529,646380,0
96,-1,644272,220513,1307314,66697,7633,653280,2
97,-1,642598,218984,1206006,65708,8206,602496,0
97,-1,644489,219960,1206746,66553,7472,602845,2
98,-1,642004,218463,1304340,65460,8598,651835,0
98,-1,644442,222061,1242331,67471,8264,620484,2
99,-1,649876,221753,1253348,66894,8538,626017,0
99,-1,639805,220216,1300139,66511,7798,649616,2
100,-1,641575,218868,1301876,65579,8676,650505,0
100,-1,645268,221251,1353120,66833,7362,676221,2
101,-1,641583,219098,1288194,65717,8680,643710,0
101,-1,646646,221816,1303701,67194,8500,651259,2
102,-1,647507,221497,1355830,66685,8510,677253,0
102,-1,639609,219741,1250378,66343,7669,624673,2
103,-1,643801,219246,1319572,65722,8662,659343,0
103,-1,643359,220604,1176084,66602,7075,587751,2
104,-1,643981,220084,1237604,66322,8423,618131,0
104,-1,643789,220022,1281610,66414,8278,640386,2
105,-1,662715,223979,1290356,69095,8858,644663,0
105,-1,649400,222371,1480956,67534,8275,739657,2
106,-1,644217,219664,1311535,65908,9217,655457,0
106,-1,639517,219756,1312669,66364,7580,656008,2
107,-1,640922,219014,1239752,65697,9167,619397,0
107,-1,644726,221974,1381966,67090,7656,690567,2
108,-1,639844,218584,1248923,65555,8304,623953,0
108,-1,644319,219886,1282181,66519,7636,640648,2
109,-1,643928,219071,1327739,65682,8748,663424,0
109,-1,652481,222451,1366870,67464,8052,682841,2
110,-1,648542,221317,1241740,66711,8621,620436,0
110,-1,640334,219869,1358106,66339,8290,678686,2
111,-1,663059,223517,1290749,68888,9417,644988,0
111,-1,643912,220108,1380030,66419,7919,689594,2
112,-1,643735,219474,1369756,65841,8109,684417,0
112,-1,640878,219419,1304405,66202,8719,651736,2
113,-1,647237,220774,1244063,66455,8831,621644,0
113,-1,651298,222231,1350815,67385,8553,674315,2
114,-1,642240,219290,1308606,65808,8457,653911,0
114,-1,642731,219536,1209207,66167,8331,604252,2
115,-1,640569,218829,1356721,65614,8463,677896,0
115,-1,645450,221348,1426557,67411,9293,712024,2
116,-1,647208,222193,1341336,66990,8342,669917,0
116,-1,637066,218691,1215037,66244,8015,606974,2
117,-1,662621,223672,1369843,69033,9772,684609,0
117,-1,636652,218696,1295244,66181,7893,647185,2
118,-1,640802,218806,1287502,65579,8533,643295,0
118,-1,640298,219363,1291386,66463,8101,644879,2
119,-1,645071,220806,1237589,66439,7712,618388,0
120,-1,639630,219128,1333788,65723,8149,666453,0
121,-1,640596,218913,1207189,65658,8060,603086,0
122,-1,641036,219423,1377214,65760,8248,688283,0
123,-1,660995,223684,1430122,68946,8742,714810,0
124,-1,637206,218579,1365462,65575,8256,682295,0
125,-1,636401,218641,1241235,65518,7870,620215,0
126,-1,642848,219573,1279785,65851,8848,639984,0
127,-1,663649,223652,1320623,69003,9294,659887,0
128,-1,642172,219382,1334764,65806,8339,667058,0
129,-1,642160,219577,1272633,65815,8293,635645,0
130,-1,669267,229348,1239246,68970,8058,619054,0
131,-1,641918,218638,1228589,65519,8868,613908,0
132,-1,640792,218703,1260628,65596,8703,629944,0
133,-1,640360,219018,1336770,65640,8109,667973,0
134,-1,645250,220815,1313534,66545,9041,656098,0
135,-1,639228,219028,1276786,65690,8473,637995,0
136,-1,640226,219016,1262548,65641,8487,630067,0
137,-1,644976,220994,1368634,66501,8465,683756,0
138,-1,639913,219332,1250740,65805,7920,625094,0
139,-1,636322,218127,1331202,65301,8459,664896,0
140,-1,637182,218523,1328552,65490,8620,663659,0
141,-1,646198,220544,1279486,66456,8205,639013,0
142,-1,664323,224277,1331430,69187,9247,665112,0
143,-1,643400,219749,1267913,65858,8421,633633,0
144,-1,640602,219484,1257829,65872,7745,628425,0
145,-1,642418,220745,1278697,66468,8014,638070,0
146,-1,662660,224778,1309504,69344,9031,654852,0
147,-1,639789,219400,1343792,65841,8416,671332,0
148,-1,639228,218525,1200686,65495,7436,599935,0
149,-1,639992,219260,1324977,65771,7936,662085,0
150,-1,641347,219928,1201794,65999,6958,600511,0
151,-1,636578,218466,1268631,65407,7761,633984,0
152,-1,639594,218945,1347699,65634,7978,673511,0
153,-1,658534,223791,1366088,69035,8450,682575,0
154,-1,635494,218406,1148774,65386,7719,574025,0
155,-1,645255,219808,1152132,65975,7554,575631,0
156,-1,642275,218975,1350228,65610,8560,674822,0
157,-1,645895,220956,1284536,66600,8051,641736,0
158,-1,664203,224501,1352017,69251,9074,675677,0
159,-1,640786,218697,1244503,65547,7962,621881,0
160,-1,644534,220257,1264634,66297,8075,631889,0
161,-1,639870,219024,1192840,65630,7678,595994,0
162,-1,638373,218811,1288245,65584,8114,643833,0
163,-1,642193,219092,1221943,65722,7831,610639,0
164,-1,648282,221942,1267443,66919,7574,633246,0
165,-1,639418,218885,1299246,65666,7593,649156,0
166,-1,637484,218235,1278950,65359,7121,639185,0
167,-1,642049,219707,1279601,66133,7688,638985,0
168,-1,640847,219096,1227017,65668,7609,612675,0
169,-1,645416,221137,1325782,66562,7421,662241,0
170,-1,640286,218981,1282542,65638,8063,640854,0
171,-1,640826,219222,1186292,65806,7412,592803,0
172,-1,637403,218235,1310910,65411,7429,655138,0
173,-1,659336,223433,1262147,68922,7995,630758,0
174,-1,637798,219095,1176794,65651,7510,588103,0
175,-1,645198,221162,1220735,66599,8128,609885,0
176,-1,639521,218921,1247742,65613,7987,623566,0
177,-1,646592,222028,1184033,66922,7697,591525,0
177,-1,640970,219111,1407865,66237,7800,703593,0
178,-1,662271,224614,1219729,69270,8165,609538,0
178,-1,644698,220882,1320345,67071,8084,659276,0
179,-1,639280,219635,1231850,65884,7821,615525,0
179,-1,638519,218342,1345770,65951,7813,672564,0
180,-1,639577,220283,1185863,66253,8073,592127,0
180,-1,643138,220046,1331224,66729,7759,665054,0
181,-1,636081,218132,1257397,65459,7197,628554,0
181,-1,637289,218182,1186885,65925,6605,593031,0
182,-1,641040,218914,1256171,65664,7724,627756,0
182,-1,638686,218984,1353062,66214,7942,676138,0
183,-1,647640,221640,1369317,66859,8584,684132,0
183,-1,635169,218193,1205520,65955,7889,602366,0
184,-1,640762,218774,1197835,65565,7271,598642,0
184,-1,640376,218132,1221473,65855,7293,610407,0
185,-1,640955,219426,1343535,65823,7995,671431,0
185,-1,640280,218529,1317393,66064,7364,658300,0
186,-1,640448,219336,1216819,65709,7719,608071,0
186,-1,645606,221023,1368338,67191,7417,683388,0
187,-1,636917,218725,1226912,65498,6923,613098,0
187,-1,663227,224000,1471152,69645,8697,734956,0
188,-1,641765,219939,1359023,65925,7690,679139,0
188,-1,638864,218106,1330761,65829,8035,664910,0
189,-1,638777,218953,1245510,65567,7002,622463,0
189,-1,639230,218593,1244693,66091,7165,621907,0
190,-1,641567,220459,1270189,66238,7474,634604,0
190,-1,642652,220262,1319696,66805,6995,659133,0
191,-1,643579,220549,1270165,66150,6870,634758,0
191,-1,637191,218376,1208104,65962,6997,603855,0
192,-1,645717,221310,1289255,66556,7925,644222,0
192,-1,644890,220640,1279446,66977,9047,628620,0
193,-1,640392,219545,1332786,65757,8127,666158,0
193,-1,637262,218598,1221878,66224,7517,610491,0
194,-1,638633,219075,1213586,65622,7104,606350,0
194,-1,638579,218825,1214396,66221,7688,606675,0
195,-1,644225,221293,1308185,66585,7765,653423,0
195,-1,636748,218505,1349438,66169,8398,674375,0
196,-1,639366,219715,1143595,65714,7869,571534,0
196,-1,658911,223714,1292124,69655,9062,645602,0
197,-1,644958,220674,1274008,66211,8923,636510,0
197,-1,641796,219527,1348488,66693,8179,673358,0
198,-1,639568,219546,1308535,65667,8419,653850,0
198,-1,637975,218771,1184827,66243,7393,592097,0
199,-1,637151,218842,1303142,65430,8067,651203,0
199,-1,638127,218417,1278651,66134,8010,638917,0
200,-1,641980,221112,1325389,66477,8431,662282,0
200,-1,636894,218102,1188321,65940,7784,593609,0
201,-1,638290,219387,1194786,65607,7371,597018,0
201,-1,643206,220845,1322012,67193,8745,660240,0
202,-1,638747,219901,1292487,65830,8003,645820,0
202,-1,658317,223106,1355744,69477,8540,677463,0
203,-1,640816,220767,1362254,66280,8120,680515,0
203,-1,638120,219104,1174996,66354,7578,587111,0
204,-1,646881,219313,1457090,65604,9175,727890,0
204,-1,643298,220502,1315850,66975,7530,657467,0
205,-1,646684,219454,1587304,65644,9540,793345,0
205,-1,636991,218431,1351150,66089,7260,675017,0
206,-1,670626,225118,1306081,69333,8625,652576,0
206,-1,635832,218386,1190756,66071,7362,594839,0
207,-1,645699,219667,1316904,65743,8570,658090,0
207,-1,636500,218791,1190254,66252,7779,594810,0
208,-1,647355,220577,1251986,66074,7843,625588,0
208,-1,635791,219039,1273759,66320,8397,636489,0
209,-1,643981,219583,1232849,65770,8015,615808,0
209,-1,639425,218764,1173516,66176,6763,586432,0
210,-1,647780,221077,1386071,66521,8700,692189,0
210,-1,640159,218200,1330673,66052,8338,664946,0
211,-1,673364,225857,1267307,70033,8699,633264,0
211,-1,639359,218501,1143681,66099,7564,571372,0
212,-1,646594,220117,1383788,65919,8563,691492,0
212,-1,647242,221510,1414475,67387,7948,706647,0
213,-1,646172,220551,1355097,66280,8322,676964,0
213,-1,661336,223278,1487057,69516,9091,743150,0
214,-1,644495,219767,1237374,65827,8202,618366,0
214,-1,637548,217933,1318844,65969,8038,658893,0
215,-1,643084,220131,1416870,65946,9050,708008,0
215,-1,642550,220480,1340532,66976,7727,669522,0
216,-1,647530,220762,1183839,66143,7738,591482,0
216,-1,638402,218926,1291263,66305,7660,645241,0
217,-1,644744,219923,1146402,65917,7844,572887,0
217,-1,637262,218108,1186836,65983,7096,592940,0
218,-1,642709,219542,1213864,65713,7764,606607,0
218,-1,635215,217873,1260911,65883,7119,630092,0
219,-1,664613,224154,1299560,69033,8819,649382,0
219,-1,637002,218645,1205588,66152,7246,602492,0
220,-1,646008,221597,1274223,66592,8027,636615,0
220,-1,645010,221566,1365457,67406,8561,682164,0
221,-1,644750,219800,1214973,65842,8241,607089,0
221,-1,640716,218482,1382010,66118,7877,690680,0
222,-1,641006,218469,1284465,65302,8018,641952,0
222,-1,642073,220010,1291623,66789,7772,644943,0
223,-1,643900,219869,1272141,65860,8295,635528,0
223,-1,637823,218470,1223980,66110,7368,611591,0
224,-1,644687,220999,1420644,66500,8641,709743,0
224,-1,636068,218678,1247456,66217,7859,623560,0
225,-1,638969,218885,1335718,65597,8703,667535,0
225,-1,642135,219791,1465577,66586,8301,732286,0
226,-1,646751,219558,1557573,65807,9463,778458,0
226,-1,637950,218571,1190711,66144,7781,595372,0
227,-1,644864,219663,1291692,65906,8100,645526,0
227,-1,641042,220419,1340911,67058,8676,669888,0
228,-1,643531,219393,1198848,65770,7844,599031,0
228,-1,635174,218087,1286731,65965,8023,642980,0
229,-1,643618,219668,1342935,65906,8602,671112,0
229,-1,636194,218803,1209614,66284,7580,604345,0
230,-1,643782,219630,1261923,65833,6800,630679,0
230,-1,639235,220067,1333368,66830,7802,666075,0
231,-1,641542,218832,1546415,65601,8887,772872,0
231,-1,635280,218915,1237770,66318,7051,618364,0
232,-1,642587,219515,1344347,65871,8608,671653,0
232,-1,633569,218208,1210906,66035,7461,604971,0
233,-1,642659,219450,1319831,65779,7901,659558,0
233,-1,638055,219182,1307376,66393,8804,653304,0
234,-1,648532,222278,1309503,67033,7828,654090,0
234,-1,640082,218454,1323920,66131,10424,661564,0
235,-1,663184,224313,1247888,69289,7985,623506,0
235,-1,644138,220282,1305095,66925,8158,652007,0
236,-1,646026,220076,1326662,66095,8712,663044,0
236,-1,640114,219330,1322005,66430,8488,660646,0
237,-1,645532,220494,1360137,66421,8867,679507,0
237,-1,637865,218857,1205995,66228,7322,602602,0
238,-1,641232,219695,1334656,65920,8218,666971,0
238,-1,638385,218916,1387906,66266,8415,693432,0
239,-1,643778,220739,1282874,66529,8771,640599,0
239,-1,639864,220256,1610099,67026,9988,804338,0
240,-1,663119,224450,1233980,69328,8640,616552,0
240,-1,659953,223494,1329170,69602,9142,664340,0
241,-1,638971,219086,1172504,65742,7558,585915,0
241,-1,639549,219062,1221617,66350,7579,610344,0
242,-1,646985,220635,1206501,66505,8265,602646,0
242,-1,637106,218624,1216770,66158,7604,607961,0
243,-1,642067,219172,1162206,65767,7749,580691,0
243,-1,638150,219305,1299281,66437,8097,649051,0
244,-1,644048,220016,1269075,66046,8453,634134,0
244,-1,633955,217961,1193365,65958,7184,596204,0
245,-1,643525,219685,1160322,66052,7683,579759,0
245,-1,638411,218873,1303706,66279,8359,651264,0
246,-1,641277,219378,1232260,65811,7993,615719,0
246,-1,657735,223283,1377396,69448,9491,687970,0
247,-1,641348,219631,1308586,65966,7911,654126,0
247,-1,639174,218905,1210532,66297,7785,604923,0
248,-1,640501,219133,1297108,65758,7878,648245,0
248,-1,643482,220571,1341989,67025,7731,670324,0
249,-1,640298,218943,1294056,65629,7982,646664,0
249,-1,636736,218132,1180579,66001,7585,589806,0
250,-1,647195,222024,1309641,66998,7835,654224,0
250,-1,637044,218772,1311128,66263,7733,654533,0
251,-1,664238,225073,1242887,69500,7580,621171,0
251,-1,637369,218983,1248432,66332,7928,623534,0
252,-1,640602,219822,1356127,66048,7234,677755,0
252,-1,634083,218065,1397257,65987,8840,698217,0
253,-1,639896,219196,1444973,65871,8081,721934,0
253,-1,637788,219314,1424140,66390,9759,711990,0
254,-1,641619,220282,1333207,66428,7902,666010,0
254,-1,637197,218330,1181223,66071,7164,590135,0
255,-1,637223,219113,1222468,65855,7637,610668,0
255,-1,635614,218240,1296993,66108,7953,648116,0
256,-1,650551,221996,1371459,67113,8027,685033,0
256,-1,633865,218066,1218197,65971,7133,608682,0
257,-1,641534,218575,1227006,65643,7946,613185,0
257,-1,657859,223874,1345950,69707,8960,672511,0
258,-1,642716,218858,1201772,65762,8029,600335,0
258,-1,638202,219607,1243091,66488,7757,621087,0
259,-1,642081,219172,1314135,65858,8610,656694,0
259,-1,638106,220018,1280560,66828,8062,639666,0
260,-1,642265,219549,1279718,65979,7197,639677,0
260,-1,632390,218113,1179997,65940,6599,589733,0
261,-1,640702,219176,1326941,65807,7801,662968,0
261,-1,634682,219276,1270171,66400,7244,634650,0
262,-1,640505,219383,1202395,65931,7536,600798,0
262,-1,634889,218692,1442779,66217,8463,721000,0
263,-1,641681,219422,1208475,65865,7837,603925,0
263,-1,656315,222049,1351360,67653,7865,674963,0
264,-1,638448,218863,1274561,65717,7040,636916,0
264,-1,668139,223371,1343937,69543,8831,671344,0
265,-1,635543,217702,1192027,65332,7181,595695,0
265,-1,647857,220318,1298828,66938,7793,648828,0
266,-1,638618,219181,1319030,65859,7530,659208,0
266,-1,646821,219152,1312576,66368,8544,656184,0
267,-1,641162,220184,1283732,66388,7906,641555,0
267,-1,645833,218925,1325870,66285,7783,662549,0
268,-1,639136,218194,1410986,65489,8802,705200,0
268,-1,644900,218885,1546300,66296,9765,772451,0
269,-1,638394,218977,1302242,65696,7780,650771,0
269,-1,643166,218278,1229745,66056,7562,614546,0
270,-1,644896,220938,1347073,66630,8353,672748,0
270,-1,646341,220178,1317438,66919,7959,657865,0
271,-1,640132,219167,1360228,65782,8661,679714,0
271,-1,644908,218822,1236152,66305,8380,617688,0
272,-1,638468,218872,1258193,65640,7914,628648,0
272,-1,644278,218736,1284522,66189,8663,641879,0
273,-1,641729,220110,1261742,66088,8003,630473,0
273,-1,643738,218360,1334828,66074,8010,666853,0
274,-1,638922,219330,1292433,65792,8028,645889,0
274,-1,650134,221395,1614206,67403,10021,805780,0
275,-1,639591,219562,1217760,65883,7604,608457,0
275,-1,669327,224834,1371794,70580,9317,685360,0
276,-1,643685,221784,1352852,66962,8796,675763,0
276,-1,640632,218193,1280988,65966,8230,640133,0
277,-1,644175,219793,1378874,65991,8064,689065,0
277,-1,641907,218991,1214669,66333,7831,606979,0
278,-1,641500,218871,1262249,65646,7204,630766,0
278,-1,649394,220800,1341002,67096,8546,669725,0
279,-1,640604,218779,1440483,65650,8308,719777,0
279,-1,645581,218855,1293171,66307,8570,646263,0
280,-1,641173,219252,1254345,65760,8152,626810,0
280,-1,644370,218821,1351431,66244,8998,675335,0
281,-1,640959,219793,1272391,66001,8133,635829,0
281,-1,649768,221277,1339037,67335,8670,668803,0
282,-1,639955,218879,1406473,65699,8257,702826,0
282,-1,689715,232031,1550731,72148,10025,774945,0
283,-1,640466,219246,1241466,65814,7547,620412,0
283,-1,641336,218537,1245317,66104,8736,622271,0
284,-1,637928,218757,1238028,65606,7579,618635,0
284,-1,640276,218648,1171535,66160,7526,585449,0
285,-1,659272,223186,1331542,68907,8535,665363,0
285,-1,663470,223301,1384699,69506,9068,692019,0
286,-1,637969,219111,1225665,65710,7180,612318,0
286,-1,639688,218051,1406387,65866,8643,702950,0
287,-1,642754,219717,1287559,66011,7835,643455,0
287,-1,641369,218771,1333724,66183,8295,666513,0
288,-1,645141,221154,1276704,66708,8228,637750,0
288,-1,639578,218494,1353436,66049,8423,676264,0
289,-1,660255,223644,1235433,68992,8148,617418,0
289,-1,647085,219558,1184854,66451,7689,591535,0
290,-1,640571,220037,1347243,66145,7488,673238,0
290,-1,643700,218454,1302055,66109,8360,650629,0
291,-1,639203,219214,1274730,65909,7630,637028,0
291,-1,647654,220259,1298549,66874,8552,648885,0
292,-1,642471,220547,1303936,66543,7897,651449,0
292,-1,643958,218908,1213035,66091,7768,606139,0
293,-1,639151,219482,1344327,65868,8132,671881,0
293,-1,647007,220612,1275867,66956,7609,637367,0
294,-1,639352,219182,1207542,65850,7574,603311,0
294,-1,641291,218656,1182640,65990,7312,591011,0
295,-1,638220,219407,1293516,65910,7805,646403,0
295,-1,643330,219205,1359727,66185,8311,679461,0
296,-1,637037,219078,1325563,65832,8195,662465,0
296,-1,641767,218736,1400795,66071,8115,699977,0
297,-1,643104,220692,1239806,66373,7765,619511,0
297,-1,639890,218407,1225386,65870,7783,612298,0
298,-1,643594,219051,1195937,65866,8430,597598,0
298,-1,647640,220758,1294983,67021,7800,646764,0
299,-1,647343,220734,1216063,66584,8666,607387,0
299,-1,641367,218780,1218020,66105,7843,608658,0
300,-1,644470,219537,1148414,65989,8022,573903,0
300,-1,642710,219844,1289031,66528,7661,644105,0
301,-1,642375,219069,1236044,65763,8285,617680,0
301,-1,644013,219821,1272322,66404,7849,635862,0
302,-1,645229,219502,1235191,65949,8671,617175,0
302,-1,643353,218380,1179237,65942,6808,589332,0
303,-1,646383,220705,1213163,66654,8392,605858,0
303,-1,646871,220444,1259053,66883,7581,628619,0
304,-1,638421,218281,1314290,65454,7610,656598,0
304,-1,641966,218963,1203643,66115,7074,601413,0
305,-1,644251,219711,1221114,65984,7902,610208,0
305,-1,644774,220404,1305543,66753,7202,652288,0
306,-1,643729,219845,1204938,66051,7876,602170,0
306,-1,639506,218731,1307315,65918,7759,653297,0
307,-1,661423,223753,1342706,69120,8708,670778,0
307,-1,643212,219227,1194877,66084,7344,597160,0
308,-1,645999,221032,1408422,66610,8740,703567,0
308,-1,644532,219716,1287242,66559,7761,642982,0
309,-1,636664,218381,1292452,65516,8602,645820,0
309,-1,666442,224624,1494144,69682,9064,746810,0
310,-1,645081,219845,1174571,66053,8118,586986,0
310,-1,643524,220250,1380884,66582,8107,689918,0
311,-1,646794,221073,1324888,66675,8306,661784,0
311,-1,646607,221646,1351952,67227,8300,675331,0
312,-1,641963,219609,1342248,65941,8241,670818,0
312,-1,646762,219446,1328750,66203,7922,663847,0
313,-1,643654,220018,1347607,66274,7909,673279,0
313,-1,647260,219289,1443770,66088,9270,721542,0
314,-1,643412,220202,1322935,66133,7282,660962,0
314,-1,650260,220804,1405451,66840,9161,702232,0
315,-1,639671,219079,1205629,65724,7036,602440,0
315,-1,645716,219492,1370114,66143,8925,684706,0
316,-1,640935,219355,1410683,65849,8645,704863,0
316,-1,668304,224922,1408933,69786,9268,704135,0
317,-1,640349,219816,1187479,65962,7413,593370,0
317,-1,646520,219936,1249874,66379,7424,624489,0
318,-1,640284,219344,1200253,65929,7955,599684,0
318,-1,644622,219577,1329969,66198,8291,664591,0
319,-1,639096,219462,1178128,65900,8138,588756,0
319,-1,645656,219629,1313946,66255,9141,656668,0
320,-1,643351,219263,1308363,65804,8524,653849,0
320,-1,643115,218962,1238354,66023,8579,617983,0
321,-1,642343,219421,1219901,65950,7840,609583,0
321,-1,650108,222066,1349490,67306,8838,673912,0
322,-1,647371,221396,1366639,66830,8569,682775,0
322,-1,663900,223420,1467382,69224,9462,733497,0
323,-1,642062,219712,1353711,66009,8159,676352,0
323,-1,642731,218965,1321589,65965,9115,660473,0
324,-1,643776,219792,1286702,65997,8287,643058,0
324,-1,643149,219504,1238676,66200,8080,618825,0
325,-1,642116,219653,1214700,65992,7561,606987,0
325,-1,644094,220033,1370791,66401,8600,684960,0
326,-1,640964,219074,1261396,65738,7641,630277,0
326,-1,646701,219435,1417307,66170,9061,708175,0
327,-1,640722,219589,1384433,65978,7962,691819,0
327,-1,644880,219120,1353926,66029,8478,676543,0
328,-1,642488,220727,1322465,66554,8047,660672,0
328,-1,643329,219512,1367562,66170,8531,683389,0
329,-1,639398,218898,1296270,65632,8367,647777,0
329,-1,674890,230081,1342097,69573,8941,670573,0
330,-1,646515,221213,1335747,66732,8386,667207,0
330,-1,644061,219688,1343386,66252,8290,671340,0
331,-1,644177,220424,1338012,66164,8457,668456,0
331,-1,643857,219945,1347257,66338,9054,672976,0
332,-1,642546,219759,1291600,65968,7845,645360,0
332,-1,641802,219138,1420304,66036,8594,709684,0
333,-1,644125,220712,1371228,66211,8156,685417,0
333,-1,643181,219362,1309166,66114,8700,654246,0
334,-1,644960,221809,1292568,66873,7956,645555,0
334,-1,643836,219592,1288825,66220,8500,643951,0
335,-1,660850,224660,1251235,69293,8590,625158,0
335,-1,643540,219277,1220762,66059,7894,609819,0
336,-1,642339,220261,1302291,66128,8646,650628,0
336,-1,644623,220267,1438288,66436,9099,718771,0
337,-1,645607,221482,1350902,66696,9213,674700,0
337,-1,641205,219784,1279218,66293,8636,639330,0
338,-1,641888,220360,1422594,66145,8485,710291,0
338,-1,642843,219013,1254631,66029,8732,626956,0
339,-1,641166,220190,1455643,66037,8694,727272,0
339,-1,643247,218941,1225295,66048,7969,612225,0
340,-1,642219,220264,1408263,66046,7694,703745,0
340,-1,646406,220020,1182210,66326,7856,590369,0
341,-1,645644,222115,1315883,67024,8761,657205,0
341,-1,642966,219255,1228141,66132,7965,613686,0
342,-1,662299,225064,1293669,69468,8565,646355,0
342,-1,642027,218897,1178532,65983,7691,588863,0
343,-1,639108,219930,1282670,65952,7836,640946,0
343,-1,648218,220837,1255020,66871,8327,626702,0
344,-1,649633,220988,1321452,66469,8269,660187,0
344,-1,665121,224050,1299514,69497,8908,649276,0
345,-1,649037,222243,1389155,67080,8365,693854,0
345,-1,643427,219886,1302839,66363,7708,650888,0
346,-1,664831,224271,1335019,69240,9079,666856,0
346,-1,644271,219461,1250736,66081,7856,624711,0
347,-1,644411,220364,1294959,66247,8368,647047,0
347,-1,642709,219351,1300186,66178,7939,649923,0
348,-1,643517,220512,1260821,66296,7694,629893,0
348,-1,641877,218899,1237217,65991,7943,618040,0
349,-1,664407,224263,1423017,69323,8326,710728,0
349,-1,646463,221165,1326919,67008,8378,662664,0
350,-1,645047,220696,1308221,66238,8480,653665,0
350,-1,641643,219374,1233547,66140,7820,615618,0
351,-1,644440,221029,1316797,66398,7949,658055,0
351,-1,645048,219211,1304377,66092,8115,651410,0
352,-1,639646,219684,1325075,65932,8737,662096,0
352,-1,647440,220780,1249793,66858,7835,624267,0
353,-1,646924,222070,1312101,67039,8402,655369,0
353,-1,665644,224593,1404684,69643,8771,701990,0
354,-1,662833,223545,1312260,69019,8655,655529,0
354,-1,647382,220988,1291986,66910,7986,645538,0
355,-1,641474,219572,1236154,65902,7633,617705,0
355,-1,644185,219989,1338908,66353,7558,669097,0
356,-1,646132,221565,1219265,66779,8163,608979,0
356,-1,643085,219923,1394077,66363,8049,696535,0
357,-1,642569,220208,1145965,66144,7770,572595,0
357,-1,645720,221316,1235173,67112,7721,616834,0
358,-1,640027,219642,1245017,65921,7853,621829,0
358,-1,662780,224394,1362264,69620,9542,680821,0
359,-1,648381,222570,1313345,67174,8624,655921,0
359,-1,642099,219220,1299821,66035,8081,649514,0
360,-1,639501,219930,1323421,66047,8104,661201,0
360,-1,646514,220876,1209060,66887,7654,603629,0
361,-1,645808,221563,1457103,66730,7893,727935,0
361,-1,642782,219698,1278294,66281,8561,638664,0
362,-1,642489,220524,1326889,66123,8201,663162,0
362,-1,642278,219620,1249880,66147,8361,624366,0
363,-1,641182,220563,1407794,66130,8456,703579,0
363,-1,664675,224904,1287043,69773,9390,643177,0
364,-1,646815,222247,1336655,67007,8662,667654,0
364,-1,640503,219628,1177846,66271,7673,588650,0
365,-1,645576,221043,1271355,66338,7638,635317,0
365,-1,647159,219625,1225699,66206,7573,612591,0
366,-1,643537,219902,1395872,65844,8368,697616,0
366,-1,649150,220126,1346155,66404,9034,672753,0
367,-1,643377,220039,1319410,65941,8247,659264,0
367,-1,645597,219565,1336343,66191,8229,667855,0
368,-1,642283,220320,1318090,66116,7746,658648,0
368,-1,646750,220471,1344383,66524,7646,671562,0
369,-1,644873,221674,1381758,66720,8063,690172,0
369,-1,646876,219744,1333029,66264,8298,666142,0
370,-1,640653,220077,1317396,65963,8320,658306,0
370,-1,651585,221843,1295567,67240,8586,647200,0
371,-1,665720,225958,1278598,69712,8250,638928,0
371,-1,645339,219780,1357619,66330,8835,678529,0
372,-1,641145,220502,1321406,66148,7973,660470,0
372,-1,644526,219669,1465754,66225,8613,732552,0
373,-1,668194,229728,1233142,68886,7969,615930,0
373,-1,646581,219911,1314429,66358,7116,656744,0
374,-1,642975,221128,1183880,66410,8464,591512,0
374,-1,648217,220909,1278239,66835,7400,638242,0
375,-1,646289,221401,1452953,66416,8810,726045,0
375,-1,644350,219204,1252937,66221,7342,626120,0
376,-1,643295,221249,1224444,66411,7989,611820,0
376,-1,642304,219419,1299298,66232,8563,649335,0
377,-1,640554,220127,1356021,65995,8398,677581,0
377,-1,646144,219612,1343257,66292,8260,671355,0
378,-1,660746,224882,1261722,69347,8648,630456,0
378,-1,648505,221004,1377636,67004,7605,687976,0
379,-1,640832,220993,1380331,66303,8664,689709,0
379,-1,646777,220045,1197076,66433,7323,598285,0
380,-1,640620,220445,1202373,66071,7778,600916,0
380,-1,644267,219472,1349897,66304,8337,674480,0
381,-1,641511,221010,1333553,66255,8556,666120,0
381,-1,645715,220358,1420386,66593,8432,709853,0
382,-1,640348,220526,1197224,66164,7679,598063,0
382,-1,643162,219772,1566968,66437,8996,783173,0
383,-1,637635,219795,1399916,65889,8248,699598,0
383,-1,649802,222071,1203845,67502,8050,601360,0
384,-1,637805,220206,1213655,65952,7948,606475,0
384,-1,666456,224741,1486056,69833,10142,742616,0
385,-1,638573,220412,1460710,66114,9112,729890,0
385,-1,641972,219692,1244657,66418,7985,621894,0
386,-1,650110,220901,1275949,66255,7820,637549,0
386,-1,645495,220898,1257037,66974,7767,627952,0
387,-1,669621,225267,1299832,69460,8331,649095,0
387,-1,648202,220089,1317496,66448,7602,658419,0
388,-1,647817,220396,1382410,66118,8349,690819,0
388,-1,647983,219943,1332165,66469,8529,665669,0
389,-1,646532,220652,1197454,66187,8398,598319,0
389,-1,665102,224122,1386598,69678,8465,692911,0
390,-1,644232,220210,1218801,65995,8327,609062,0
390,-1,648943,220791,1336066,66765,8004,667676,0
391,-1,647396,220728,1194684,66156,7654,596961,0
391,-1,643173,219597,1320438,66417,8260,659672,0
392,-1,646341,220804,1212453,66234,7592,605766,0
392,-1,644970,220068,1281665,66498,8129,640428,0
393,-1,646211,220440,1207331,66207,7999,603332,0
393,-1,649815,221634,1307098,67315,7824,652832,0
394,-1,642925,219754,1351266,65794,8045,675255,0
394,-1,664731,223917,1424889,69557,10218,712054,0
395,-1,664367,224643,1267102,69347,8629,633098,0
395,-1,647195,220667,1437720,66784,8673,717185,0
396,-1,644896,220336,1228440,66273,6774,613907,0
396,-1,650752,221721,1289761,67271,8568,644229,0
397,-1,665759,224639,1402247,69507,8572,700821,0
397,-1,644918,220079,1387168,66566,8597,693165,0
398,-1,643013,219720,1248593,66077,6852,623972,0
398,-1,644228,220138,1205210,66552,7584,602199,0
399,-1,643442,220252,1316976,66281,7264,658104,0
399,-1,642703,219552,1336188,66293,8113,667632,0
400,-1,644200,219783,1382764,66101,8459,691022,0
400,-1,645474,221331,1291705,67252,8059,645077,0
401,-1,664371,225006,1288120,69619,7943,643706,0
401,-1,666003,224363,1400441,69748,10029,699833,0
402,-1,642996,220284,1402658,66234,7236,700923,0
402,-1,643261,218906,1302799,66118,8416,650712,0
403,-1,646391,221569,1321080,66778,8185,660011,0
403,-1,644358,220331,1159594,66557,7509,579450,0
404,-1,640848,219726,1303852,65989,7741,651735,0
404,-1,646184,220381,1216308,66483,8065,607712,0
405,-1,643120,220088,1219258,66150,7511,609256,0
405,-1,643870,219822,1184944,66258,8203,592159,0
406,-1,646969,220059,1304107,66094,8070,651784,0
406,-1,643516,220426,1157469,66497,7502,578351,0
407,-1,651256,222168,1294306,67101,8169,646596,0
407,-1,641551,219930,1329104,66294,8863,664212,0
408,-1,666709,224740,1314441,69433,8383,656866,0
408,-1,647366,221230,1417792,67032,8210,707903,0
409,-1,645430,220200,1306470,66207,6772,652922,0
409,-1,645514,220789,1348251,66705,7754,673734,0
410,-1,651872,222083,1272247,67037,7945,635520,0
410,-1,642358,219562,1197482,66215,6735,598406,0
411,-1,646533,220483,1172712,66386,7255,585924,0
411,-1,643261,220294,1321991,66531,7456,660596,0
412,-1,645209,220355,1227442,66256,8339,613352,0
412,-1,641002,219361,1289598,66183,7486,644312,0
413,-1,643283,219895,1221603,66058,7239,610493,0
413,-1,647945,222238,1185778,67471,7562,592271,0
414,-1,648390,222370,1226199,67170,7527,612436,0
414,-1,640719,219791,1324506,66313,7626,661972,0
415,-1,667012,225125,1227230,69566,8664,613234,0
415,-1,644888,221485,1209256,67128,7594,604015,0
416,-1,644828,220187,1201699,66086,7609,600518,0
416,-1,650787,221122,1400503,66798,8558,699778,0
417,-1,648442,221888,1289444,66893,8447,644137,0
417,-1,650645,221725,1351876,67207,8014,675322,0
418,-1,642695,219952,1385175,66027,7480,692304,0
418,-1,643926,219724,1267075,66186,7230,633050,0
419,-1,661721,223880,1295641,69035,7919,647488,0
419,-1,653563,222591,1322882,67470,8320,660592,0
420,-1,640584,220171,1226494,66035,7102,612942,0
420,-1,644033,219440,1307395,66101,7131,653424,0
421,-1,643754,219772,1336453,66035,8407,667819,0
421,-1,644425,220195,1278458,66441,7166,638936,0
422,-1,640898,219437,1384196,65930,8564,691682,0
422,-1,643049,219916,1295976,66399,7421,647604,0
423,-1,647502,221862,1430434,67012,8467,715695,0
423,-1,645495,219617,1329086,66273,8072,664257,0
424,-1,640342,219282,1325103,65925,7993,662120,0
424,-1,646344,220804,1201024,66867,7536,599917,0
425,-1,640609,219701,1186820,65979,6985,593128,0
425,-1,645194,220178,1303208,66424,8215,651245,0
426,-1,640233,219447,1350533,65887,7971,674868,0
426,-1,642378,219556,1244126,66204,7314,621790,0
427,-1,643547,219749,1282162,65923,8987,640675,0
427,-1,644750,219889,1261029,66292,8125,630225,0
428,-1,639506,219247,1400325,65751,7619,699960,0
428,-1,646841,221450,1239048,67090,7747,618846,0
429,-1,646276,221778,1390683,66959,8870,694601,0
429,-1,640517,219235,1211341,66178,7449,605283,0
430,-1,641863,220693,1504023,66232,8971,751495,0
430,-1,667648,228844,1426227,68932,8375,712834,0
431,-1,638201,218897,1326374,65633,8187,662668,0
431,-1,641553,220187,1366199,66462,7531,682674,0
432,-1,640746,219942,1360862,66008,7778,680103,0
432,-1,642624,219686,1244733,66275,7016,622014,0
433,-1,639748,219881,1340969,65880,8714,669781,0
433,-1,642884,220000,1181354,66449,7204,590298,0
434,-1,667799,224917,1396798,69407,10175,697892,0
434,-1,638778,218895,1271253,66040,7290,635340,0
435,-1,644504,220658,1414382,66455,8467,706438,0
435,-1,643691,220838,1337417,66887,7569,668219,0
436,-1,641610,219401,1259444,65875,8144,629243,0
436,-1,638184,219641,1211680,66302,7464,605501,0
437,-1,641257,219214,1312908,65786,8030,655941,0
437,-1,644581,219916,1332306,66398,8064,665895,0
438,-1,645168,221162,1307999,66641,8704,653779,0
438,-1,648991,221723,1225578,67245,8040,612156,0
439,-1,643834,219711,1190186,65915,6854,594732,0
439,-1,664753,224123,1343938,69558,9061,671665,0
440,-1,644185,220550,1364717,66428,7335,681875,0
440,-1,644083,220089,1245735,66464,8115,622487,0
441,-1,642342,219689,1291304,65987,7261,645242,0
441,-1,645962,220749,1297445,66853,7739,648174,0
442,-1,641732,219779,1295079,65885,7184,647175,0
442,-1,644293,220550,1244270,66615,7438,621707,0
443,-1,662064,224457,1264677,69262,7723,631958,0
443,-1,639566,219141,1183014,66058,7216,591176,0
444,-1,637790,218891,1175736,65600,6398,587509,0
444,-1,664971,224005,1238756,69554,8464,618925,0
445,-1,638758,219475,1215744,65866,6892,607816,0
445,-1,643346,219969,1142356,66427,7378,570728,0
446,-1,642357,219420,1208332,65846,7573,603803,0
446,-1,640940,219342,1240268,66192,7762,619755,0
447,-1,642663,219830,1280684,66002,8215,639938,0
447,-1,644818,221080,1204919,66959,7897,601954,0
448,-1,643625,220725,1292296,66525,7941,645531,0
448,-1,639502,219328,1320001,66168,7917,659656,0
449,-1,641252,219631,1205088,65850,7681,602158,0
449,-1,640097,219259,1377657,66158,8448,688520,0
450,-1,638688,219257,1207087,65760,7515,603162,0
450,-1,639856,219999,1202995,66355,7681,601080,0
451,-1,641059,220438,1287189,66172,7930,643596,0
451,-1,639748,219706,1309333,66297,8798,654314,0
452,-1,641794,219653,1197573,65937,7437,598426,0
452,-1,643598,219626,1262894,66293,8332,631051,0
453,-1,640586,219354,1358827,65777,7591,679120,0
453,-1,645860,220878,1277006,66924,8411,637872,0
454,-1,647126,222167,1367222,67076,8147,683030,0
454,-1,643016,219830,1185398,66328,7461,592472,0
455,-1,638212,219230,1246494,65822,7239,622873,0
455,-1,641049,219671,1275289,66328,7928,637365,0
456,-1,664780,223865,1408284,69144,8533,703621,0
456,-1,638811,219247,1257087,66077,7864,628226,0
457,-1,645950,220693,1388528,66268,7692,693943,0
457,-1,645807,221309,1358880,67114,7736,678829,0
458,-1,641304,219328,1232072,65795,7053,615821,0
458,-1,640972,219774,1324398,66322,7927,661967,0
459,-1,642237,219634,1319344,65949,7400,659225,0
459,-1,640648,220183,1233210,66641,8072,616074,0
460,-1,642338,219996,1255932,66056,7624,627554,0
460,-1,641086,220019,1373033,66372,7889,686169,0
461,-1,661095,224002,1329603,69199,8050,664457,0
461,-1,660052,223922,1390471,69500,9215,695014,0
462,-1,640813,219877,1265454,66076,6923,632409,0
462,-1,637739,218191,1370292,65833,8531,684782,0
463,-1,640776,220230,1327008,66260,7417,663103,0
463,-1,639812,219743,1367271,66354,8048,683335,0
464,-1,640844,220819,1396807,66621,7561,697176,0
464,-1,642848,219169,1284806,66064,7436,642085,0
465,-1,641584,219946,1240087,66077,7022,619583,0
465,-1,651554,221276,1213228,67117,7442,605973,0
466,-1,640372,220156,1310642,66088,7245,654419,0
466,-1,669306,224363,1376154,69660,9192,687761,0
467,-1,637181,219242,1335296,65721,7456,667273,0
467,-1,648033,220209,1184256,66501,7835,591671,0
468,-1,637555,219817,1293974,65965,7045,646909,0
468,-1,646116,219834,1267820,66380,7897,633511,0
469,-1,637094,218785,1385647,65546,7797,692532,0
469,-1,646099,219818,1313496,66307,8152,656235,0
470,-1,646722,222241,1322599,67049,8354,660929,0
470,-1,645797,219817,1272448,66380,8574,635395,0
471,-1,659938,223887,1253646,69095,8268,626420,0
471,-1,645079,219870,1316938,66411,8352,658054,0
472,-1,638579,219562,1291725,65949,7384,645488,0
472,-1,643677,219252,1276744,66208,7244,637967,0
473,-1,640372,220320,1231200,66139,6463,614815,0
473,-1,643223,219388,1425661,66185,7753,712479,0
474,-1,637953,219216,1241617,65809,7869,620512,0
474,-1,644599,219550,1283421,66237,7498,641453,0
475,-1,638179,219592,1323876,65864,7848,661633,0
475,-1,647031,221055,1267103,67060,6802,633007,0
476,-1,636460,218932,1346937,65682,7659,673167,0
476,-1,641212,219124,1334601,66106,7395,667132,0
477,-1,640951,221362,1434788,66790,8136,716738,0
477,-1,651052,221089,1290862,66957,8252,644896,0
478,-1,643780,219946,1274989,66044,7426,637138,0
478,-1,643215,219001,1268160,66057,7152,633932,0
479,-1,643151,219814,1232146,65944,7511,615487,0
479,-1,644172,219393,1371077,66187,8302,685225,0
480,-1,643410,219565,1335434,65867,7828,667396,0
480,-1,645431,220022,1207165,66431,7882,603280,0
481,-1,639192,218857,1202971,65588,6910,601207,0
481,-1,644259,219589,1298085,66259,8307,648867,0
482,-1,646861,220577,1313394,66359,8172,656078,0
482,-1,643366,219540,1318966,66266,8842,659089,0
483,-1,643558,220203,1308471,66035,8118,653855,0
483,-1,665682,227558,1239278,68597,7152,618948,0
484,-1,641458,219321,1224792,65829,7158,611944,0
484,-1,664656,224011,1396230,69561,8767,697669,0
485,-1,642728,219921,1308453,65997,7457,653818,0
485,-1,642405,219593,1371005,66345,10322,685004,0
486,-1,662818,224201,1375574,69153,8124,687303,0
486,-1,642064,219204,1192280,66145,8113,595341,0
487,-1,639191,218774,1200181,65603,7688,599767,0
487,-1,645704,220802,1193336,66922,7419,595949,0
488,-1,641615,220051,1228827,66052,7275,614036,0
488,-1,639963,218872,1139167,66039,7499,569110,0
489,-1,640183,219768,1344206,66056,8416,671721,0
489,-1,642862,220362,1252183,66569,8518,625447,0
490,-1,643371,219457,1266351,65970,8127,632746,0
490,-1,648290,221709,1271385,67250,7865,635167,0
491,-1,641233,218949,1272833,65804,7622,636036,0
491,-1,645603,219971,1455471,66376,7955,727304,0
492,-1,662617,223744,1330535,69186,8485,664820,0
492,-1,644750,219460,1406386,66266,8754,702442,0
493,-1,636462,218072,1301616,65533,7495,650486,0
493,-1,645655,220279,1268472,66487,7380,633818,0
494,-1,640407,219574,1390754,66044,7430,695140,0
494,-1,643480,219789,1251155,66299,7693,625120,0
495,-1,639919,219639,1357290,65992,6855,678291,0
495,-1,647765,221343,1218224,67100,7488,608417,0
496,-1,645514,221710,1371218,67029,8424,685242,0
496,-1,644182,219689,1307943,66243,7574,653485,0
497,-1,661347,223518,1340631,69031,8313,669983,0
497,-1,648150,221217,1302627,66971,7158,650664,0
498,-1,642526,220718,1409266,66612,8001,704055,0
498,-1,641919,219525,1307624,66195,8335,653458,0
499,-1,639021,218898,1391938,65707,7381,695709,0
499,-1,663587,224151,1342615,69532,8709,670871,0
500,-1,642671,221076,1333122,66778,7466,665672,0
500,-1,641421,219224,1281517,66113,7232,640307,0
501,-1,658460,223897,1307978,69217,7578,653701,0
501,-1,645523,220107,1319870,66434,7867,659488,0
502,-1,640771,219372,1217646,65896,7078,608573,0
502,-1,644972,219944,1328505,66274,7247,663824,0
503,-1,642107,219267,1270802,65890,7627,635048,0
503,-1,642415,219231,1316669,66127,8104,657931,0
504,-1,642902,219979,1305309,66097,7907,652401,0
504,-1,643795,220250,1228372,66486,7543,613665,0
505,-1,641734,219897,1233998,66125,7572,616588,0
505,-1,642687,219493,1311643,66116,7311,655243,0
506,-1,645450,220927,1288900,66704,9214,643833,0
506,-1,644442,220896,1213827,66880,7293,606294,0
507,-1,662911,224343,1217634,69400,8141,608433,0
507,-1,641684,219977,1193082,66377,7281,596121,0
508,-1,639670,219599,1194810,66052,7100,597020,0
508,-1,644939,219841,1240708,66304,8034,619876,0
509,-1,640429,219312,1176113,65944,7630,587675,0
509,-1,645615,220771,1201777,66572,7365,600476,0
510,-1,639392,219148,1206449,65922,6962,602835,0
510,-1,643079,220142,1297712,66312,7860,648582,0
511,-1,644200,221545,1384642,66952,7734,691141,0
511,-1,642269,220179,1257548,66397,7944,628072,0
512,-1,641724,220491,1926097,66296,10381,962817,0
512,-1,645750,221166,1212273,66897,7516,605518,0
513,-1,639907,219822,1231262,66088,7482,615266,0
513,-1,642296,219950,1296185,66269,7810,647446,0
514,-1,640824,220425,1301404,66455,8417,650157,0
514,-1,639746,218990,1252629,65971,7666,625953,0
515,-1,637422,219342,1302793,65897,7848,651019,0
515,-1,641480,219902,1317364,66256,8034,658254,0
516,-1,643742,220627,1353003,66541,8585,675733,0
516,-1,644748,221638,1373485,67146,8470,685961,0
517,-1,640696,219857,1320566,66069,7449,659731,0
517,-1,650124,220690,1383013,66591,9642,690387,0
518,-1,639091,219558,1591279,66045,8943,795025,0
518,-1,650895,221418,1222379,66981,7832,610626,0
519,-1,636744,218552,1323800,65609,7893,661539,0
519,-1,646429,220241,1294759,66403,8226,646933,0
520,-1,640996,220362,1246804,66295,7556,622987,0
520,-1,646609,220753,1234604,66529,7213,616873,0
521,-1,638410,219509,1526794,65959,9521,763177,0
521,-1,647913,220507,1320653,66520,8405,659872,0
522,-1,643342,221702,1351949,67047,8623,675112,0
522,-1,666121,224555,1385518,69619,9369,692389,0
523,-1,638590,219281,1274542,65833,7918,636819,0
523,-1,646273,220300,1365257,66388,8050,682243,0
524,-1,638331,219634,1734130,66105,10860,865967,0
524,-1,645791,220778,1202694,66537,7242,600749,0
525,-1,640527,220202,1289282,66258,7881,644132,0
525,-1,642705,219945,1286675,66262,7744,643019,0
526,-1,640612,220844,1325131,66626,8368,662128,0
526,-1,643273,220052,1343708,66323,8157,671424,0
527,-1,657498,223743,1342160,69135,9235,670316,0
527,-1,645375,221302,1426575,66721,8684,712817,0
528,-1,638211,219403,1177932,65946,7932,588313,0
528,-1,643689,219247,1325864,66131,8118,662564,0
529,-1,646448,220750,1229439,66582,8909,614270,0
529,-1,643433,220051,1269915,66385,8194,634416,0
530,-1,641026,219071,1218160,65785,8165,608326,0
530,-1,646036,220475,1282873,66539,7414,640947,0
531,-1,639708,219037,1211304,65784,7417,605099,0
531,-1,645241,220544,1317724,66506,7293,658529,0
532,-1,664376,224266,1272260,69307,8897,635860,0
532,-1,642328,220030,1496660,66446,9041,747646,0
533,-1,641970,219890,1295160,66114,7922,647145,0
533,-1,640370,219677,1392739,66258,8047,695966,0
534,-1,640211,219562,1281974,65847,7279,640179,0
534,-1,694124,234488,1416393,72655,9456,707643,0
535,-1,643409,220814,1369326,66591,8867,684089,0
535,-1,642570,219818,1194464,66286,7660,596735,0
536,-1,639908,219863,1245365,66099,7638,622221,0
536,-1,643732,220216,1372345,66486,8208,685820,0
537,-1,641048,219577,1311299,65914,8145,655316,0
537,-1,643550,220253,1238258,66452,7229,618728,0
538,-1,645945,221189,1286550,66548,7694,643017,0
538,-1,662586,224693,1390846,69732,9586,694993,0
539,-1,661526,224225,1291872,69342,8843,645437,0
539,-1,647402,221306,1273214,66966,7527,635603,0
540,-1,638518,219276,1390577,65966,7841,694867,0
540,-1,644773,220612,1363730,66659,8179,681470,0
541,-1,639773,219268,1225978,65953,7628,612321,0
541,-1,643786,220291,1367336,66606,7974,683261,0
542,-1,642042,220625,1339047,66571,8110,668892,0
542,-1,646363,221569,1252288,67220,8097,625513,0
543,-1,637879,218985,1314312,65752,7985,656651,0
543,-1,644859,219944,1295584,66523,8085,647485,0
544,-1,641199,220723,1276713,66402,7180,637845,0
544,-1,644187,220025,1269649,66525,7225,633975,0
545,-1,645972,221453,1395835,66900,8663,697235,0
545,-1,646596,220957,1302946,66756,7995,650954,0
546,-1,641300,219964,1303324,66064,8427,651136,0
546,-1,647464,222052,1251650,67460,7573,625160,0
547,-1,638037,218991,1249877,65849,7686,624392,0
547,-1,641489,220007,1296051,66542,8279,647565,0
548,-1,645460,222179,1351970,67217,8423,675217,0
548,-1,642331,220395,1173530,66789,8254,586176,0
549,-1,658513,223941,1239059,69250,8057,618930,0
549,-1,643073,220836,1257986,66779,8418,628495,0
550,-1,638248,219083,1416573,65940,10424,707546,0
550,-1,644303,219865,1266269,66427,7895,632753,0
551,-1,641289,220728,1278118,66524,8440,638433,0
551,-1,644458,220479,1248910,66688,7097,624065,0
552,-1,638869,219895,1250824,66101,8236,624974,0
552,-1,643521,220466,1424937,66662,8496,711903,0
553,-1,635531,219045,1265205,65861,7308,632603,0
553,-1,641090,220009,1382538,66476,8471,690851,0
554,-1,636891,219102,1252166,65824,7883,625762,0
554,-1,664089,224930,1348961,69915,8900,674087,0
555,-1,657856,223687,1333202,69190,9459,666155,0
555,-1,645278,221084,1253164,66864,7245,626048,0
556,-1,636012,219255,1285393,65890,7556,642403,0
556,-1,644152,221199,1232455,67105,7302,615589,0
557,-1,643494,220024,1587194,66182,10211,793092,0
557,-1,639905,219816,1350797,66455,8181,675002,0
558,-1,641671,219741,1388555,66026,8669,693806,0
558,-1,640402,220241,1353131,66557,7848,676143,0
559,-1,643703,221209,1305225,66829,7849,651934,0
559,-1,641631,219971,1426350,66518,8487,712689,0
560,-1,659668,224059,1261287,69314,8232,630199,0
560,-1,647822,220453,1378506,66697,8998,688910,0
561,-1,641116,220024,1320569,66176,8250,659820,0
561,-1,644276,219538,1458383,66341,9245,729048,0
562,-1,639273,219426,1264627,65938,7317,632030,0
562,-1,667645,224641,1435312,69816,9625,717253,0
563,-1,638040,219276,1280409,65955,7737,639575,0
563,-1,648192,221697,1246143,67236,7938,622508,0
564,-1,638036,219696,1212200,66064,7193,605754,0
564,-1,650136,220851,1250928,66815,8316,624927,0
565,-1,637300,219432,1326642,65920,7578,662925,0
565,-1,644246,219801,1283481,66407,8701,641238,0
566,-1,637702,219296,1329482,65992,8054,664333,0
566,-1,650286,222073,1284224,67416,8856,641322,0
567,-1,638770,218798,1190407,65804,6914,594985,0
567,-1,645183,220188,1224276,66518,8211,611710,0
568,-1,643596,221354,1279866,66877,7958,639349,0
568,-1,642524,219552,1235148,66380,7650,617227,0
569,-1,657923,223549,1341260,69084,8670,670071,0
569,-1,642697,219942,1222552,66519,8067,610924,0
570,-1,637066,219243,1267033,65845,7252,633083,0
570,-1,643083,220023,1208716,66433,7948,603851,0
571,-1,637107,219238,1217070,65922,7391,608163,0
571,-1,652705,222105,1225043,67463,8111,612026,0
572,-1,640232,220707,1353318,66329,8112,676334,0
572,-1,668251,224904,1364881,69896,8961,682252,0
573,-1,637014,219569,1269920,65981,7305,634637,0
573,-1,643670,219148,1380413,66145,7576,689894,0
574,-1,636351,219533,1385923,65927,7397,692579,0
574,-1,646320,220470,1310148,66658,8089,654611,0
575,-1,641198,221690,1611051,66973,9455,804708,0
575,-1,645465,220185,1241700,66527,7568,620399,0
576,-1,640774,220366,1199059,66268,8246,599059,0
576,-1,643496,219900,1297494,66476,7786,648376,0
577,-1,639555,219909,1238714,66139,7426,618903,0
577,-1,642593,219471,1297728,66319,7827,648722,0
578,-1,641393,220762,1307577,66589,8335,653049,0
578,-1,648525,222306,1244477,67532,7676,621561,0
579,-1,637880,219754,1269598,66131,7938,634343,0
579,-1,644321,219636,1329217,66365,8151,664304,0
580,-1,636584,219943,1349115,66126,7936,673963,0
580,-1,646117,221145,1366470,67073,7733,682747,0
581,-1,635762,219619,1584582,66006,9264,791775,0
581,-1,639534,218953,1278861,66091,7645,639036,0
582,-1,639982,221534,1326168,66859,7980,662389,0
582,-1,649589,222537,1279109,67582,8160,638674,0
583,-1,645992,219483,1335217,65972,8108,667117,0
583,-1,642891,220138,1185020,66573,7906,592163,0
584,-1,646142,220260,1287163,66242,8244,643165,0
584,-1,642855,220336,1290822,66511,8530,645076,0
585,-1,662922,223602,1260675,69102,8967,629947,0
585,-1,640871,219969,1309923,66493,8651,654583,0
586,-1,641881,219524,1310014,66020,8297,654487,0
586,-1,647121,220303,1310225,66610,8324,654759,0
587,-1,643531,219699,1292896,66051,8534,646186,0
587,-1,645427,219715,1303540,66372,7482,651401,0
588,-1,644552,220031,1196937,66152,8119,598119,0
588,-1,647226,220721,1382067,66744,7706,690683,0
589,-1,642333,219707,1393271,66105,8308,696224,0
589,-1,645224,219980,1298561,66455,8358,648953,0
590,-1,640454,219117,1296066,65820,7979,647594,0
590,-1,645568,220140,1202937,66584,7433,601162,0
591,-1,641055,219402,1161964,65986,7558,580375,0
591,-1,644853,220097,1296217,66524,7743,647727,0
592,-1,643803,219896,1270116,66124,7480,634699,0
592,-1,645974,220404,1270262,66646,8468,634735,0
593,-1,642353,220415,1310759,66518,7785,654859,0
593,-1,645557,220180,1273808,66534,8316,636590,0
594,-1,642533,219791,1222011,66135,7310,610613,0
594,-1,665043,224535,1286693,69794,9110,643003,0
595,-1,640135,219134,1267191,65868,7586,633167,0
595,-1,643123,220053,1221482,66548,7420,610423,0
596,-1,662447,224791,1222733,69564,8034,610996,0
596,-1,643380,220175,1303234,66463,8286,651208,0
597,-1,640305,219384,1211186,65993,8270,605152,0
597,-1,646951,221249,1244826,67156,7991,621892,0
598,-1,644801,220012,1225231,66147,8358,612270,0
598,-1,644210,220460,1306367,66751,7903,652773,0
599,-1,643340,219918,1233679,66173,7636,616417,0
599,-1,643762,219924,1318374,66511,8061,658858,0
600,-1,646673,221742,1412493,67046,8168,705238,0
600,-1,640447,219701,1259040,66468,7471,628892,0
601,-1,644985,221180,1363282,66753,8167,680936,0
601,-1,646503,221279,1242824,67213,8066,620719,0
602,-1,642053,220271,1292222,66266,7749,645684,0
602,-1,643774,220781,1363506,66843,9133,680785,0
603,-1,643347,221259,1376614,66766,8106,687685,0
603,-1,646275,221530,1223821,67370,8258,611194,0
604,-1,641032,219744,1404914,66098,7867,702005,0
604,-1,662364,224273,1375619,69820,9287,687368,0
605,-1,637997,218960,1279910,65821,7073,639496,0
605,-1,643621,220994,1217806,66917,7649,608453,0
606,-1,643250,221031,1327947,66707,7918,663352,0
606,-1,639802,219474,1360052,66393,8440,679589,0
607,-1,643365,219830,1298221,66140,7630,648769,0
607,-1,639875,219833,1412075,66759,8821,705620,0
608,-1,642547,219383,1235001,65954,7343,617100,0
608,-1,649713,221322,1358085,67357,8148,678633,0
609,-1,640802,219574,1264581,66083,7330,631900,0
609,-1,647959,220207,1367056,66698,8475,683163,0
610,-1,662691,223699,1261363,69215,8237,630302,0
610,-1,647390,220637,1374299,66851,8352,686522,0
611,-1,642542,220096,1357249,66223,7368,678210,0
611,-1,645385,220236,1454618,66731,9229,726932,0
612,-1,643431,221017,1291422,66689,7575,645072,0
612,-1,647592,221170,1284614,67013,7630,642014,0
613,-1,639947,219928,1190786,66099,7365,594960,0
613,-1,645447,220111,1385712,66626,8536,692425,0
614,-1,641725,220180,1203406,66166,7575,601299,0
614,-1,649113,221543,1243456,67423,7597,621126,0
615,-1,638855,219357,1176931,65975,7133,587960,0
615,-1,645533,220419,1356847,66774,8410,677886,0
616,-1,638265,219115,1172981,65861,7327,586086,0
616,-1,646065,221718,1253479,67351,8527,626100,0
617,-1,637543,219723,1200432,66035,6806,599778,0
617,-1,645771,220414,1215773,66681,7967,607498,0
618,-1,636945,219302,1185097,65897,7167,592225,0
618,-1,644578,220098,1312285,66560,8251,655983,0
619,-1,642635,219744,1161378,66101,7628,580204,0
619,-1,642695,219809,1274613,66374,8863,636779,0
620,-1,639503,219009,1257350,65838,7128,628317,0
620,-1,648032,222136,1189484,67488,7876,594138,0
621,-1,639250,219518,1315286,66019,7151,657238,0
621,-1,663496,224497,1386620,69748,10581,693048,0
622,-1,637023,219183,1219284,65798,6442,609256,0
622,-1,643819,220347,1323254,66606,9440,661229,0
623,-1,645088,221591,1330705,67005,7914,664624,0
623,-1,639692,219298,1228401,66229,8124,613732,0
624,-1,659675,223690,1269903,69191,8007,634337,0
624,-1,647946,221362,1195843,67097,7954,597227,0
625,-1,636649,218786,1254417,65746,7402,626824,0
625,-1,642846,219879,1307617,66447,8096,653161,0
626,-1,637270,219094,1209862,65851,7787,604324,0
626,-1,641380,219705,1280088,66311,7531,639618,0
627,-1,657718,223733,1355125,69201,9096,677125,0
627,-1,673221,231393,1279614,70244,7759,639211,0
628,-1,638367,219113,1247113,65828,8110,623085,0
628,-1,638592,219049,1375258,66238,7645,687345,0
629,-1,640875,220619,1275177,66387,7818,637058,0
629,-1,642534,220866,1400342,66784,7919,699883,0
630,-1,637657,220265,1323176,66293,7997,661121,0
630,-1,643734,221429,1260667,67149,8017,629730,0
631,-1,639247,219089,1297462,65781,7731,648300,0
631,-1,639235,219933,1396664,66508,8720,697940,0
632,-1,646864,221166,1471691,66818,8685,735537,0
632,-1,643094,219353,1334709,66349,7750,667024,0
633,-1,664253,224200,1486562,69339,8987,742959,0
633,-1,667181,224879,1385477,69986,8874,692221,0
634,-1,642695,219883,1329005,66117,7773,664104,0
634,-1,642921,219629,1405119,66426,7844,702164,0
635,-1,642310,220320,1401286,66426,8530,700047,0
635,-1,644173,220397,1303731,66903,7218,651483,0
636,-1,640791,219338,1305750,65936,7776,652380,0
636,-1,642872,220086,1429339,66602,7681,714292,0
637,-1,642290,219814,1261190,66074,8356,630238,0
637,-1,664611,224598,1342604,69736,9090,670999,0
638,-1,639173,219127,1218217,65919,7248,608634,0
638,-1,640770,219541,1285094,66398,8010,642152,0
639,-1,638802,219058,1157898,65866,7301,578503,0
639,-1,641654,220253,1197425,66823,8445,598168,0
640,-1,641408,219727,1356672,66092,7641,677979,0
640,-1,637241,219458,1139770,66424,7111,569444,0
641,-1,642550,220340,1329283,66258,8194,664156,0
641,-1,644918,220845,1236004,67047,8173,617445,0
642,-1,660143,223862,1260870,69176,8477,630182,0
642,-1,641351,220333,1324584,66614,8174,661955,0
643,-1,639482,219616,1354165,66040,8233,676519,0
643,-1,644090,221022,1246625,67083,7958,622926,0
644,-1,639521,219698,1289048,66039,7131,644119,0
644,-1,639081,219348,1349626,66113,8269,674507,0
645,-1,639024,219819,1220213,66083,7403,609424,0
645,-1,638887,220449,1281748,66740,8192,640372,0
646,-1,642112,221028,1350437,66663,8485,674384,0
646,-1,639932,219905,1342715,66359,7859,670877,0
647,-1,660344,224100,1324126,69290,8750,661682,0
647,-1,637024,218708,1372074,65931,8960,685671,0
648,-1,637034,219553,1339653,65947,8630,669436,0
648,-1,656889,223267,1518298,69408,9454,758859,0
649,-1,635974,219096,1355865,65828,8403,677394,0
649,-1,635974,218592,1297288,65961,7040,648289,0
650,-1,635071,219146,1321753,65846,7649,660522,0
650,-1,637044,219276,1284931,66269,8332,641802,0
651,-1,641071,220955,1386214,66743,8111,692688,0
651,-1,634684,218583,1301688,66074,8172,650428,0
652,-1,662023,223812,1258787,69162,9010,628706,0
652,-1,633523,218565,1171236,65995,7053,585264,0
653,-1,641025,219605,1351308,66041,8782,675182,0
653,-1,643718,217460,1246256,65681,7355,622697,0
654,-1,640426,219532,1294674,66023,8880,646908,0
654,-1,648886,220088,1298155,66770,7648,648014,0
655,-1,638558,218686,1298064,65668,8631,648582,0
655,-1,643018,218685,1374586,66082,8114,687242,0
656,-1,640012,219708,1216175,66108,8509,607447,0
656,-1,645709,219412,1343100,66137,9189,671313,0
657,-1,638206,219310,1244508,65942,8276,621894,0
657,-1,644260,218684,1200874,65969,7834,600094,0
658,-1,639005,220218,1463984,66235,8710,731683,0
658,-1,647066,220229,1334167,66463,8462,666612,0
659,-1,637814,218944,1308372,65786,8239,653673,0
659,-1,663768,223568,1356781,69347,10032,678139,0
660,-1,637914,219385,1297099,65965,8134,648077,0
660,-1,647080,219606,1182260,66222,8379,590778,0
661,-1,637545,219654,1330503,66065,7988,664343,0
661,-1,643630,219230,1256815,66099,8511,627963,0
662,-1,641214,220670,1328158,66604,7971,663349,0
662,-1,642262,219163,1214862,66028,8440,607120,0
663,-1,656953,223536,1214704,69101,7953,606861,0
663,-1,641464,218356,1225562,65723,8980,612397,0
664,-1,639947,219801,1194932,66099,7578,597063,0
664,-1,643087,219759,1182320,66272,7780,590646,0
665,-1,638755,219214,1285239,65808,7445,642253,0
665,-1,640630,218673,1224609,65872,8305,611957,0
666,-1,637719,219127,1335618,65891,7930,667472,0
666,-1,641821,218787,1240613,65973,8747,619965,0
667,-1,657252,223586,1274243,69128,8235,636778,0
667,-1,648194,220202,1292923,66612,7787,645980,0
668,-1,638606,219793,1349100,66115,9075,674175,0
668,-1,645534,219670,1328098,66216,7771,663345,0
669,-1,635665,219376,1324391,65926,7586,661560,0
669,-1,642795,218867,1387118,65925,8835,693241,0
670,-1,640227,219895,1358950,66082,8272,679059,0
670,-1,643049,219089,1203035,66029,7634,601104,0
671,-1,637428,219621,1320786,66058,8027,659930,0
671,-1,641224,218688,1320646,65917,7959,659944,0
672,-1,635481,219137,1351372,65827,8821,675386,0
672,-1,642694,219140,1303125,66131,8083,651157,0
673,-1,637232,219875,1381894,66170,8719,690729,0
673,-1,643171,219705,1246401,66499,7785,622559,0
674,-1,634910,219023,1401382,65775,9119,700257,0
674,-1,641101,219095,1299593,66106,8134,649481,0
675,-1,634771,219238,1277094,65997,8693,637783,0
675,-1,643931,219303,1421780,66178,8205,710612,0
676,-1,635032,219459,1129898,65970,7530,564469,0
676,-1,646706,220853,1353366,66941,8120,675972,0
677,-1,656283,223925,1187512,69275,8170,593350,0
677,-1,639961,218528,1197065,65871,7355,598231,0
678,-1,644688,219791,1347113,66092,9247,672858,0
678,-1,641035,219411,1324970,66210,8428,662092,0
679,-1,645428,220640,1375666,66564,8891,686887,0
679,-1,642925,218650,1362160,65895,8901,680704,0
680,-1,641253,219554,1249074,66056,8085,623941,0
680,-1,646635,220419,1225926,66748,7529,612402,0
681,-1,638386,218934,1475136,65800,8515,736909,0
681,-1,644416,219486,1290440,66222,8371,644838,0
682,-1,643297,220066,1623101,66179,8705,811231,0
682,-1,642784,218509,1228114,65909,7401,613752,0
683,-1,667199,225478,1304082,70268,8938,651628,0
683,-1,641154,218705,1292743,65875,8735,646070,0
684,-1,644653,220717,1367657,66595,8122,683163,0
684,-1,644865,218981,1225996,66005,8174,612634,0
685,-1,640110,219458,1296462,65970,7879,647749,0
685,-1,643695,219806,1206804,66427,7572,602724,0
686,-1,642288,220189,1284979,66256,7632,642149,0
686,-1,643244,219314,1294548,66146,8188,647010,0
687,-1,637588,218854,1248883,65736,7659,624062,0
687,-1,642453,219665,1264295,66270,7635,631798,0
688,-1,641715,220285,1335558,66266,7797,666985,0
688,-1,641948,218983,1283499,65993,8407,641393,0
689,-1,639832,220058,1332807,66087,7874,665998,0
689,-1,645656,220714,1235848,66863,7794,617274,0
690,-1,642707,221343,1332418,66798,7767,665549,0
690,-1,640205,219008,1187875,65971,7139,593480,0
691,-1,635713,219008,1209647,65868,7452,604359,0
691,-1,641151,219348,1276394,66092,7457,637915,0
692,-1,641818,219835,1289987,66128,7242,644566,0
692,-1,646172,219724,1394156,66284,8586,696837,0
693,-1,639692,219050,1273450,65758,7268,636396,0
693,-1,641158,218253,1198082,65754,7607,598625,0
694,-1,639900,219756,1348789,66103,7944,673991,0
694,-1,646291,221009,1162701,67020,8222,580663,0
695,-1,639289,219169,1347915,65943,6825,673082,0
695,-1,642543,219379,1384577,66130,8517,692196,0
696,-1,642445,220790,1318401,66628,7875,658555,0
696,-1,641574,219302,1299741,66128,8512,649253,0
697,-1,638362,219160,1325864,65869,7427,662571,0
697,-1,643062,219981,1170411,66502,7842,584628,0
698,-1,638256,219812,1251838,66131,7509,625382,0
698,-1,642842,219278,1294649,66121,7247,646843,0
699,-1,660545,223971,1330845,69314,8845,665028,0
699,-1,660991,223447,1323686,69287,8426,661450,0
700,-1,640828,220773,1333929,66627,8326,666467,0
700,-1,640493,218948,1217315,66068,7124,608200,0
701,-1,637984,219670,1299730,66078,7754,649552,0
701,-1,641787,219848,1291782,66305,7554,645517,0
702,-1,639960,220477,1318164,66316,7316,658623,0
702,-1,637939,218665,1202654,66046,7746,601009,0
703,-1,633628,218469,1277176,65589,7395,638226,0
703,-1,639620,219248,1338661,66175,8692,669023,0
704,-1,656610,223822,1272734,69211,9028,635975,0
704,-1,643175,221054,1389371,67129,10358,693621,0
705,-1,642703,220825,1434186,66763,8698,716473,0
705,-1,642952,218692,1195751,66020,7833,597430,0
706,-1,659689,223690,1298499,69272,8641,648936,0
706,-1,645936,219897,1169226,66643,8153,584004,0
707,-1,638326,219443,1342995,65989,8113,671057,0
707,-1,645855,219533,1203778,66388,7734,601447,0
708,-1,637902,219267,1270160,65943,7771,634509,0
708,-1,643384,218997,1222035,66098,9037,610605,0
709,-1,638993,219250,1382563,65921,8491,690800,0
709,-1,642725,219187,1275133,66101,7659,636908,0
710,-1,638323,219418,1271545,66069,8393,635339,0
710,-1,642986,219653,1327628,66270,7839,663358,0
711,-1,634841,218578,1134780,65834,7115,566905,0
711,-1,662924,223527,1341395,69296,9376,670424,0
712,-1,639241,220271,1376783,66483,9023,687397,0
712,-1,642113,219363,1203982,66167,7763,601419,0
713,-1,636011,219412,1286562,66078,7597,642918,0
713,-1,640739,219196,1344632,66054,8081,671789,0
714,-1,635160,218946,1322446,65882,8093,660812,0
714,-1,643330,220447,1216352,66754,7853,607577,0
715,-1,639561,220219,1405076,66330,8935,701960,0
715,-1,646379,220684,1205410,66911,7598,601825,0
716,-1,643653,221260,1341298,67026,7649,669849,0
716,-1,664263,224124,1367044,69547,8837,683047,0
717,-1,659091,223846,1471478,69273,8151,735281,0
717,-1,640382,218449,1231826,65817,7277,615291,0
718,-1,639262,219530,1458789,66132,7714,728784,0
718,-1,642240,219310,1329555,66175,8451,664290,0
719,-1,637174,219229,1282372,65977,7555,640968,0
719,-1,647507,221085,1250019,66971,8458,624375,0
720,-1,639861,221161,1281242,66909,8128,639935,0
720,-1,638556,218040,1264779,65646,7082,631900,0
721,-1,656522,223297,1291398,69134,8491,645202,0
721,-1,639693,219076,1346739,66071,7944,673008,0
722,-1,637240,219171,1393166,65939,7742,696252,0
722,-1,641480,219422,1352566,66202,8229,675571,0
723,-1,638598,220039,1330246,66310,7352,664730,0
723,-1,640073,219145,1215092,66047,7562,607120,0
724,-1,634427,218901,1254178,65930,7556,626611,0
724,-1,665167,227966,1363296,68722,8842,681082,0
725,-1,633948,218890,1352671,65868,7885,675928,0
725,-1,641362,219885,1213011,66280,8240,606256,0
726,-1,635773,219702,1324260,66183,8560,661657,0
726,-1,660127,223886,1278070,69425,10148,638393,0
727,-1,641576,219782,1317651,66202,7593,658366,0
727,-1,644401,219192,1168041,66124,8396,583469,0
728,-1,644987,220759,1355941,66699,8745,677059,0
728,-1,644296,219570,1235039,66262,8988,616916,0
729,-1,639651,219104,1358639,66008,7772,679114,0
729,-1,644843,220130,1257489,66630,8235,627795,0
730,-1,642776,220917,1238355,66854,8233,618367,0
730,-1,640456,218648,1268163,65872,8039,633715,0
731,-1,637045,218761,1210073,65838,7934,604598,0
731,-1,645186,219778,1359648,66265,8881,679451,0
732,-1,639522,219713,1210188,66116,7038,604709,0
732,-1,646355,221038,1287219,66994,8084,642904,0
733,-1,640219,220404,1326878,66627,8262,662859,0
733,-1,641632,219121,1340615,66258,8246,670013,0
734,-1,639274,219389,1393972,66078,7245,696608,0
734,-1,641231,219256,1326175,66231,8324,662769,0
735,-1,639668,219833,1225646,66182,7176,612423,0
735,-1,640614,219078,1379415,66161,8701,689305,0
736,-1,642487,220889,1328646,66837,7546,663134,0
736,-1,642088,220158,1332743,66782,7829,666210,0
737,-1,656606,223134,1273817,69037,7605,636263,0
737,-1,638317,218411,1256449,65970,7980,628007,0
738,-1,635586,218434,1279392,65696,7776,639361,0
738,-1,638549,219210,1323262,66140,8376,661255,0
739,-1,637507,219318,1252274,66058,7276,625797,0
739,-1,642085,219113,1404024,66143,8276,701631,0
740,-1,637836,219671,1164135,66174,7324,581700,0
740,-1,661224,223432,1441856,69409,8545,720628,0
741,-1,634561,218599,1268764,65727,7399,634060,0
741,-1,639568,219012,1213025,66153,6954,606155,0
742,-1,636096,219529,1295438,66120,7164,647281,0
742,-1,637371,218157,1305414,65790,7010,652542,0
743,-1,635944,219409,1294544,66053,7216,646871,0
743,-1,640264,219453,1420722,66286,8266,709998,0
744,-1,646038,221647,1398493,67127,7921,698478,0
744,-1,643819,220362,1239283,66799,7469,619544,0
745,-1,636608,218416,1284107,65712,7264,641674,0
745,-1,642499,220265,1267113,66575,7406,633239,0
746,-1,636910,219192,1205694,65957,6985,602474,0
746,-1,639594,218921,1151823,66077,7608,575614,0
747,-1,639185,220429,1329828,66601,7878,664202,0
747,-1,640287,219370,1251800,66191,7939,625420,0
748,-1,636284,218703,1323564,65818,7810,661435,0
748,-1,637132,218535,1207428,65897,8847,603377,0
749,-1,635626,218848,1239296,65855,6919,619257,0
749,-1,657133,223073,1288320,69210,9417,643729,0
750,-1,639795,220874,1378446,66732,8190,688575,0
750,-1,635523,218657,1160891,66037,8090,580140,0
751,-1,655043,223140,1207464,69060,8170,603303,0
751,-1,645109,218802,1260098,66133,8075,629606,0
752,-1,638933,220337,1350456,66546,7868,674814,0
752,-1,647620,220162,1240946,66756,7821,619899,0
753,-1,637114,219368,1215622,66060,7217,607340,0
753,-1,640687,217454,1356381,65661,7837,677962,0
754,-1,635155,219614,1392715,66016,7941,696031,0
754,-1,643236,219351,1220233,66284,7306,609751,0
755,-1,637237,218767,1274268,65831,7711,636746,0
755,-1,640541,218711,1275258,66096,7700,637236,0
756,-1,637598,219252,1335130,65977,8053,667147,0
756,-1,641159,218803,1304711,66145,8211,651901,0
757,-1,640308,220317,1439591,66582,8505,719363,0
757,-1,647487,220961,1467618,67067,9183,733224,0
758,-1,634904,218854,1381994,65853,8061,690644,0
758,-1,641651,219011,1275607,66150,7622,637484,0
759,-1,636500,218678,1238645,65800,7344,619038,0
759,-1,643505,220197,1261897,66738,8139,630478,0
760,-1,638572,219960,1341714,66470,7805,670144,0
760,-1,641335,218637,1360957,66008,8452,679918,0
761,-1,638188,220330,1387413,66379,8509,693312,0
761,-1,642468,219132,1400836,66206,7804,699972,0
762,-1,633298,218872,1371551,65793,7648,685452,0
762,-1,641472,219181,1276551,66222,8068,637736,0
763,-1,635928,219454,1273812,65987,7658,636260,0
763,-1,642647,219821,1208822,66563,7541,603815,0
764,-1,661306,227969,1242721,68554,7512,621102,0
764,-1,644578,219811,1280898,66402,7623,640036,0
765,-1,642361,222022,1329553,67181,8742,664144,0
765,-1,640465,218736,1196554,66038,7274,597853,0
766,-1,634533,219424,1203741,66095,8505,601465,0
766,-1,639067,218056,1296839,65844,7791,648043,0
767,-1,631876,218430,1202603,65661,8148,600935,0
767,-1,642854,220292,1239212,66837,7565,618530,0
768,-1,639061,220044,1190821,66266,7781,595068,0
768,-1,658953,223244,1366069,69282,9008,682609,0
769,-1,654545,223461,1404807,69191,7926,702133,0
769,-1,642711,219316,1239314,66248,7836,619188,0
770,-1,634092,219430,1384892,66079,7307,692168,0
770,-1,643622,220133,1163979,66753,7626,581408,0
771,-1,632281,218742,1267669,65814,7447,633390,0
771,-1,639752,218990,1205193,66197,8071,602069,0
772,-1,633930,219787,1219517,66197,7011,609382,0
772,-1,638391,218470,1180301,66001,7940,589740,0
773,-1,637896,219143,1227333,65987,6598,613397,0
773,-1,641524,219303,1241237,66273,7964,619950,0
774,-1,645541,218969,1311074,65882,7360,655168,0
774,-1,647117,220063,1368579,66674,8292,683630,0
775,-1,644599,219041,1210540,65948,7027,604975,0
775,-1,642332,218742,1418357,66100,8596,708648,0
776,-1,649780,221167,1340630,66924,8424,669717,0
776,-1,641452,218791,1245469,66076,7545,622344,0
777,-1,664806,223700,1322089,69254,8411,660655,0
777,-1,644399,219527,1226082,66391,8309,612492,0
778,-1,644237,219459,1233863,66093,7685,616555,0
778,-1,642474,219295,1288441,66195,8582,643720,0
779,-1,643202,219740,1289929,66176,7866,644689,0
779,-1,645056,220742,1241773,66983,7827,620349,0
780,-1,644675,219677,1236201,66050,7663,617761,0
780,-1,641868,219511,1271112,66352,8740,635072,0
781,-1,664830,223788,1365431,69279,9148,682372,0
781,-1,643285,220178,1343654,66765,8676,671098,0
782,-1,640949,218553,1309565,65752,8249,654497,0
782,-1,639161,218811,1291112,66072,8043,644877,0
783,-1,642996,219681,1344885,66145,8098,671803,0
783,-1,642055,219299,1338434,66211,8071,668894,0
784,-1,643760,219321,1334966,66054,8119,667092,0
784,-1,661005,223141,1343732,69307,8295,671513,0
785,-1,643735,219666,1349581,66091,8027,674379,0
785,-1,638660,218682,1241633,66123,6943,620174,0
786,-1,645816,221180,1284246,67012,8276,641344,0
786,-1,637457,218528,1214800,65999,7503,606977,0
787,-1,660671,223635,1268377,69269,8336,633801,0
787,-1,637443,218413,1283880,65971,8209,641584,0
788,-1,642929,219399,1204105,66075,8121,601645,0
788,-1,638920,219275,1415225,66251,8774,706923,0
789,-1,642465,219329,1373434,65964,8174,686322,0
789,-1,642992,220658,1328780,67065,7963,663705,0
790,-1,661489,223507,1278177,69257,8523,638631,0
790,-1,641873,219242,1259663,66287,7093,629392,0
791,-1,642638,219227,1247936,66025,8125,623599,0
791,-1,643014,220548,1215024,66976,7969,606856,0
792,-1,639041,218049,1348128,65706,8539,673470,0
792,-1,660217,223870,1392222,69533,9306,695606,0
793,-1,647530,222004,1427149,67163,8263,713073,0
793,-1,637697,218293,1191983,65944,7615,595638,0
794,-1,661836,223627,1282613,69198,8723,640899,0
794,-1,639493,218941,1308532,66114,7832,653796,0
795,-1,640507,219402,1234735,66094,7861,616936,0
795,-1,641915,219980,1276547,66694,8071,637619,0
796,-1,643292,219584,1422464,66144,7629,710813,0
796,-1,638760,218981,1354442,66193,8158,676836,0
797,-1,640357,218333,1216282,65677,7195,607702,0
797,-1,638236,218831,1241341,66096,7204,620457,0
798,-1,641511,219168,1222605,65993,7756,610961,0
798,-1,637468,219108,1368936,66168,8522,684227,0
799,-1,641221,219023,1344353,65898,7543,671884,0
799,-1,660574,224001,1316723,69621,9278,657908,0
800,-1,639850,218958,1232915,65907,6857,616035,0
800,-1,638582,219010,1241597,66149,8761,621343,0
801,-1,645866,221108,1320584,66910,7929,659791,0
801,-1,641924,218398,1247831,65942,7791,623432,0
802,-1,643421,220291,1224724,66563,8049,611832,0
802,-1,643315,219269,1264437,66337,8027,631834,0
803,-1,646006,221650,1210684,67107,7680,604665,0
803,-1,663218,223816,1359115,69531,8879,679100,0
804,-1,659125,223359,1204297,69155,7926,601761,0
804,-1,640681,218525,1191818,65896,7100,595651,0
805,-1,638095,219145,1222443,65995,7089,610872,0
805,-1,640753,218845,1353807,66131,7775,676432,0
806,-1,642814,219757,1309933,66158,7909,654591,0
806,-1,643929,220368,1323877,66776,8186,661359,0
807,-1,642897,219488,1269220,66032,7206,634229,0
807,-1,641527,219254,1406356,66238,8387,702775,0
808,-1,645170,220361,1414573,66565,8184,706810,0
808,-1,642319,218843,1281736,66054,7769,640450,0
809,-1,641964,219352,1302855,66059,7799,651058,0
809,-1,644082,220211,1275523,66744,7291,637138,0
810,-1,642107,220880,1359507,66730,7531,679331,0
810,-1,637158,218502,1230975,65984,7390,615163,0
811,-1,639387,218949,1358243,65932,7921,678764,0
811,-1,642895,221040,1144497,67165,7714,571625,0
812,-1,639851,219137,1181572,65933,7095,590441,0
812,-1,659439,223681,1274222,69522,9613,636740,0
813,-1,644002,221228,1318961,66924,7696,658835,0
813,-1,641596,218734,1185844,66127,8159,592508,0
814,-1,636821,218862,1328224,65816,7988,663847,0
814,-1,640533,218685,1159761,65985,8053,579576,0
815,-1,665395,224217,1318804,69443,8581,658914,0
815,-1,639078,218737,1284367,66115,8263,641935,0
816,-1,641557,218843,1355569,65805,8320,677474,0
816,-1,636760,218228,1273570,65901,7363,636434,0
817,-1,644481,220036,1348571,66422,7582,673763,0
817,-1,642570,220364,1337369,66917,7770,668011,0
818,-1,640715,218601,1246873,65684,7282,623098,0
818,-1,659643,223261,1414040,69335,9545,706667,0
819,-1,641496,219322,1266503,66016,7474,632744,0
819,-1,636966,218561,1159858,65992,7914,579549,0
820,-1,645833,221428,1273117,66883,7851,635935,0
820,-1,639946,219419,1201546,66292,6933,600381,0
821,-1,638150,218682,1241089,65660,8044,620220,0
821,-1,635926,218231,1261143,65881,7219,630272,0
822,-1,643141,219868,1329136,66077,8243,664196,0
822,-1,638017,219116,1316961,66243,8361,658107,0
823,-1,639149,219270,1406360,65842,7551,702832,0
823,-1,641283,220712,1215432,66922,7840,607189,0
824,-1,644962,220146,1325139,66361,8103,662054,0
824,-1,664335,228814,1346427,69131,8808,672825,0
825,-1,640459,218960,1293240,65751,7445,646081,0
825,-1,639331,218311,1328413,65860,7631,663845,0
826,-1,640519,219297,1202718,65816,7674,600991,0
826,-1,645021,220916,1223525,67080,7690,611209,0
827,-1,638447,218828,1265363,65629,7238,632371,0
827,-1,636435,218425,1210706,66011,7516,604886,0
828,-1,641431,219766,1281374,66022,7345,640332,0
828,-1,637521,219233,1284031,66203,7626,641717,0
829,-1,643458,220800,1382859,66528,8075,690949,0
829,-1,660444,223378,1330578,69427,8615,664994,0
830,-1,640246,219172,1258685,65778,7822,628905,0
830,-1,637213,218299,1155433,65879,7253,577360,0
831,-1,640152,219058,1299736,65807,7532,649469,0
831,-1,640699,220095,1220410,66735,7638,609637,0
832,-1,636725,218647,1277025,65633,7872,638152,0
832,-1,641925,220987,1261101,67107,7278,630406,0
833,-1,643317,220921,1325289,66579,7461,661890,0
833,-1,641091,218860,1184584,66052,7998,591900,0
834,-1,637837,219395,1362993,65909,7828,681119,0
834,-1,641151,219537,1341114,66346,8527,670174,0
835,-1,636919,219269,1196866,65855,7199,598138,0
835,-1,638920,218868,1370876,66101,8256,685063,0
836,-1,641327,219043,1275192,65743,8027,637103,0
836,-1,636889,218905,1285787,66110,8648,642376,0
837,-1,642301,219846,1182404,66049,7405,590816,0
837,-1,635308,218300,1259141,65903,7813,629031,0
838,-1,645358,220862,1291330,66544,7859,645337,0
838,-1,641810,220986,1370504,67104,9207,684482,0
839,-1,642430,219780,1236792,65982,7576,617955,0
839,-1,655974,223268,1379493,69397,9247,689333,0
840,-1,641001,219520,1175886,65737,7553,587487,0
840,-1,638507,219327,1301944,66298,8743,650563,0
841,-1,649036,222346,1315360,67027,8125,657013,0
841,-1,635506,218387,1222335,65957,8216,610780,0
842,-1,642118,219940,1283636,65948,7533,641482,0
842,-1,637136,219572,1198969,66527,8002,598916,0
843,-1,640377,219764,1329030,65882,7464,664147,0
843,-1,634828,218866,1259143,66126,8229,629297,0
844,-1,640851,219930,1360842,65966,7922,679203,0
844,-1,647551,220256,1254430,66882,8383,626719,0
845,-1,642096,220791,1329127,66450,8229,663784,0
845,-1,664325,223407,1437481,69380,8832,718287,0
846,-1,642835,219385,1185914,65832,7962,592769,0
846,-1,641377,218203,1210256,65973,8459,604740,0
847,-1,642530,219561,1274154,65828,7588,636494,0
847,-1,640258,218263,1297925,65920,8029,648703,0
848,-1,660577,224121,1255072,69220,8300,627233,0
848,-1,644623,220607,1236732,66982,7766,617863,0
849,-1,641944,220572,1350121,66408,7652,674609,0
849,-1,644867,219568,1302969,66328,8446,651126,0
850,-1,664713,228561,1335536,68557,7388,667421,0
850,-1,642176,218592,1317564,65917,7688,658463,0
851,-1,638023,218525,1255883,65560,7169,627617,0
851,-1,642891,219218,1387053,66134,7996,693065,0
852,-1,659699,223792,1283860,69079,8121,641633,0
852,-1,639038,218408,1271970,65913,7770,635683,0
853,-1,644603,221246,1343746,66674,8004,671387,0
853,-1,640647,218677,1413510,66015,8003,706412,0
854,-1,661719,223634,1173779,69055,8023,586453,0
854,-1,661066,223096,1376687,69268,8832,687819,0
855,-1,643595,219363,1147437,65940,7730,573187,0
855,-1,643621,219104,1365875,66218,8994,682471,0
856,-1,646709,220818,1228164,66521,8468,613374,0
856,-1,641793,218726,1347145,66056,8032,673284,0
857,-1,641276,218868,1141588,65722,7951,570126,0
857,-1,640051,218441,1271249,65952,8514,635351,0
858,-1,642868,219141,1353445,65796,7610,676274,0
858,-1,645586,220743,1233268,67030,7998,615720,0
859,-1,664549,224112,1296516,69129,8420,647848,0
859,-1,640382,218993,1274657,66145,7717,636957,0
860,-1,640491,219404,1339988,65843,7481,669544,0
860,-1,642934,220209,1220639,66754,7912,609692,0
861,-1,647354,221089,1348722,66597,7709,673638,0
861,-1,640233,219378,1278806,66293,7971,639049,0
862,-1,639530,218769,1377995,65672,8062,688518,0
862,-1,641032,219410,1295055,66348,8174,647193,0
863,-1,664030,224265,1255350,69332,8537,627171,0
863,-1,640041,219728,1212476,66460,6953,605907,0
864,-1,640539,219116,1269983,65904,7747,634678,0
864,-1,636937,218429,1352907,65937,8081,676155,0
865,-1,644309,220931,1472893,66716,9194,735119,0
865,-1,675367,229944,1359032,69741,8212,678899,0
866,-1,642925,219521,1328403,66038,7964,663721,0
866,-1,663377,223274,1358630,69403,8478,678885,0
867,-1,663220,223958,1535201,69266,8438,767239,0
867,-1,643713,220374,1220501,66826,7008,609767,0
868,-1,643092,219653,1298197,66052,7550,648764,0
868,-1,642814,219245,1300125,66258,7702,649485,0
869,-1,641818,219759,1222733,66160,6943,610975,0
869,-1,639075,218404,1317237,65937,8208,658277,0
870,-1,646258,220948,1280160,66755,7681,639460,0
870,-1,639765,218751,1383980,66075,7803,691877,0
871,-1,641106,219988,1256902,66019,7015,628020,0
871,-1,640227,218786,1281162,66091,7211,640247,0
872,-1,637505,218476,1213861,65668,7693,606439,0
872,-1,645149,220862,1241797,66951,7840,620059,0
873,-1,640098,220209,1220056,66542,7369,609347,0
873,-1,641610,219317,1302077,66300,7265,650689,0
874,-1,656619,222932,1220238,69005,8797,609771,0
874,-1,641381,218939,1395665,66124,7721,697556,0
875,-1,640910,218442,1354497,65657,8676,676782,0
875,-1,646085,221636,1259437,67386,7105,628797,0
876,-1,643511,220234,1399154,66462,9011,698937,0
876,-1,635655,217974,1227176,65742,7355,613229,0
877,-1,637568,218100,1264014,65502,7967,631557,0
877,-1,639629,219904,1307648,66464,7266,653537,0
878,-1,659127,223416,1252875,69086,7759,625992,0
878,-1,642793,219898,1261086,66665,8077,630067,0
879,-1,641033,219620,1222110,66091,7369,610614,0
879,-1,641848,219125,1318699,66227,8306,658924,0
880,-1,636450,218249,1296618,65555,7528,647988,0
880,-1,640178,218803,1304413,66131,7828,651900,0
881,-1,637734,219009,1289695,65928,7205,644367,0
881,-1,639799,218807,1155854,66130,8142,577657,0
882,-1,642786,220274,1309423,66502,8760,654107,0
882,-1,640897,219315,1241930,66222,8303,620641,0
883,-1,639668,218947,1299507,65855,7623,649337,0
883,-1,660785,223722,1263393,69474,8914,631367,0
884,-1,640693,220021,1293697,66319,8027,646318,0
884,-1,639689,219501,1179484,66304,8047,589276,0
885,-1,636589,218987,1193424,65788,7330,596259,0
885,-1,635790,218187,1161095,65814,7695,580203,0
886,-1,634976,218624,1284467,65641,7647,642065,0
886,-1,637721,218978,1238759,66191,7387,618988,0
887,-1,643241,220620,1421123,66617,7819,709942,0
887,-1,636403,218922,1300652,66037,8107,650043,0
888,-1,659022,223127,1319205,68971,8158,659158,0
888,-1,642977,218944,1281901,66178,8164,640509,0
889,-1,635265,217921,1304732,65401,8086,651998,0
889,-1,644784,219855,1333896,66445,7834,666536,0
890,-1,639458,219614,1214923,66038,7406,607121,0
890,-1,639737,218706,1282699,66042,7685,641009,0
891,-1,641049,219918,1368964,66305,7783,684018,0
891,-1,641015,218781,1227045,66134,7314,613028,0
892,-1,635623,218475,1205634,65626,6994,602562,0
892,-1,641431,219029,1325016,66135,7796,662239,0
893,-1,636802,218708,1284461,65763,7733,641813,0
893,-1,641874,219623,1309398,66663,7666,653935,0
894,-1,686651,232459,1303817,71753,8597,651553,0
894,-1,638736,218829,1256579,66081,7340,627926,0
895,-1,636797,218901,1218066,65742,7828,608734,0
895,-1,645393,220084,1325401,66546,8087,662303,0
896,-1,641845,220982,1464796,66649,8573,731588,0
896,-1,640248,219578,1353706,66245,7546,676578,0
897,-1,636298,218742,1264344,65718,7627,631789,0
897,-1,662269,223953,1490956,69620,8706,745182,0
898,-1,640602,220995,1356627,66724,8322,678178,0
898,-1,638632,218805,1427739,66133,7835,713628,0
899,-1,657128,223717,1284501,69150,8743,641506,0
899,-1,641410,218748,1295718,66054,8805,647556,0
900,-1,633520,218585,1333736,65706,7917,666742,0
900,-1,640876,218914,1203372,66179,7579,601314,0
901,-1,633534,218191,1410841,65470,7689,704775,0
901,-1,640771,219155,1291377,66181,8602,645295,0
902,-1,642843,219172,1405367,65929,7828,702268,0
902,-1,644615,220557,1239856,66956,8275,619340,0
903,-1,644544,220304,1287168,66458,8470,643755,0
903,-1,640965,219477,1239798,66339,8289,619150,0
904,-1,636309,218078,1208046,65438,6985,603690,0
904,-1,641540,220196,1226165,66775,8251,612476,0
905,-1,665904,224702,1337497,70020,8117,668281,0
905,-1,636606,218261,1317069,65910,8928,658202,0
906,-1,638783,218835,1244012,65805,7016,621508,0
906,-1,637935,219184,1237990,66188,7778,618700,0
907,-1,637985,218494,1344719,65645,7618,672106,0
907,-1,659066,222792,1364351,69268,8329,681823,0
908,-1,636748,218309,1327913,65562,8294,663479,0
908,-1,639691,219320,1325203,66298,7681,662038,0
909,-1,639410,218539,1228181,65616,7443,613664,0
909,-1,640178,219286,1395716,66277,8407,697435,0
910,-1,639927,219125,1305682,65862,7753,652354,0
910,-1,640338,220581,1269779,66981,7573,634329,0
911,-1,636869,218281,1305996,65523,6974,652607,0
911,-1,666005,227639,1374841,68749,8126,687033,0
912,-1,645458,221431,1342999,66936,8313,670809,0
912,-1,638765,218745,1202326,66053,6839,600850,0
913,-1,658132,223095,1307391,68953,8927,653400,0
913,-1,640369,218995,1281680,66147,7649,640618,0
914,-1,638508,218547,1374353,65607,7212,686880,0
914,-1,659209,223390,1325142,69398,8614,662142,0
915,-1,641529,220741,1327602,66573,7378,663229,0
915,-1,636519,218391,1176679,65953,7696,587925,0
916,-1,645356,221144,1235367,66769,7661,617085,0
916,-1,645943,220775,1298664,66897,7947,648733,0
917,-1,660021,223239,1291661,69031,7917,645392,0
917,-1,638517,218694,1237923,66100,8175,618522,0
918,-1,637522,218939,1163085,65850,6442,581322,0
918,-1,637846,218669,1272439,66037,8601,635810,0
919,-1,641091,220548,1317230,66447,7157,658143,0
919,-1,644030,221639,1256947,67372,8138,627829,0
920,-1,639560,219536,1364650,65821,7056,681931,0
920,-1,638065,218937,1297895,66197,7711,648558,0
921,-1,637032,218465,1274937,65510,7348,636875,0
921,-1,638548,219208,1198083,66193,7157,598763,0
922,-1,638664,219437,1221222,65868,7421,610146,0
922,-1,637129,218978,1307592,66178,8034,653145,0
923,-1,633638,218075,1212832,65369,6250,606047,0
923,-1,640760,220410,1215808,66840,8199,607290,0
924,-1,653456,222454,1307264,68691,7577,653224,0
924,-1,636957,219323,1317272,66284,8156,658246,0
925,-1,642671,219748,1297614,66096,7819,648129,0
925,-1,642335,220517,1166843,66830,7948,583008,0
926,-1,639967,219086,1265812,65749,7379,632468,0
926,-1,635257,218128,1242553,65828,7928,620951,0
927,-1,638520,218873,1242664,65623,6866,620992,0
927,-1,635553,218643,1203622,66038,7763,601496,0
928,-1,643742,221333,1305916,66784,8215,652269,0
928,-1,657892,222910,1348250,69180,8820,673800,0
929,-1,636530,218405,1259548,65654,6921,629404,0
929,-1,639913,219883,1401529,66468,7949,700396,0
930,-1,638560,219073,1354232,65814,8290,676762,0
930,-1,635702,217999,1222574,65759,8428,611008,0
931,-1,638111,219415,1341015,65955,7525,670105,0
931,-1,636595,218890,1318440,66162,8970,658785,0
932,-1,636075,219041,1225312,65850,6448,612250,0
932,-1,633831,218787,1309060,66090,8707,653962,0
933,-1,633832,218212,1158555,65547,7308,578920,0
933,-1,643105,218957,1296182,66124,8979,647724,0
934,-1,636303,218961,1113572,65830,6299,556481,0
934,-1,641146,218846,1148910,66145,8582,574184,0
935,-1,633843,218373,1211303,65589,7158,605197,0
935,-1,641592,219236,1245173,66146,9080,622197,0
936,-1,638609,219812,1273803,66305,7424,636356,0
936,-1,646056,220386,1174665,66812,8489,586758,0
937,-1,633888,218303,1223091,65587,6994,611196,0
937,-1,663868,223968,1262387,69552,9043,630821,0
938,-1,639113,220238,1328391,66524,8018,663625,0
938,-1,640503,218537,1149173,65954,7635,574286,0
939,-1,635614,218331,1301622,65595,7841,650477,0
939,-1,641781,220148,1228239,66754,7499,613540,0
940,-1,638828,219965,1303308,66357,7733,651016,0
940,-1,641964,219340,1383360,66273,8432,691326,0
941,-1,636003,218831,1325512,65816,7383,662317,0
941,-1,643555,220445,1229365,66995,8056,614135,0
942,-1,635974,219241,1197724,65881,6505,598560,0
942,-1,662112,223846,1341446,69580,9214,670276,0
943,-1,655820,223419,1281452,69093,7764,640230,0
943,-1,641132,219477,1288548,66347,8484,643812,0
944,-1,632619,218479,1160440,65645,6586,579902,0
944,-1,644225,220100,1512908,66791,9766,755522,0
945,-1,634907,218577,1326008,65644,7985,662674,0
945,-1,640398,218783,1303641,66122,7920,651548,0
946,-1,665541,229116,1412489,69053,8984,705255,0
946,-1,638660,218894,1198494,66123,7712,598946,0
947,-1,636962,219457,1305325,65948,7672,652406,0
947,-1,640790,219657,1317205,66297,8008,658152,0
948,-1,635001,218738,1272124,65685,7382,635764,0
948,-1,643320,221154,1233595,67136,8770,616177,0
949,-1,635553,219298,1324007,65784,8094,661570,0
949,-1,659613,223828,1482969,69528,8845,741251,0
950,-1,642026,221384,1407749,66725,8529,702968,0
950,-1,638801,218514,1221631,65885,8000,610465,0
951,-1,633666,219077,1280531,65708,7629,639771,0
951,-1,636399,218551,1289310,66036,8617,644281,0
952,-1,636010,220561,1355233,66405,7374,676615,0
952,-1,637887,218736,1375372,65995,8328,687386,0
953,-1,640668,218607,1326913,65605,7439,662843,0
953,-1,634254,218903,1224051,65324,7654,611523,0
954,-1,640941,218154,1306566,65347,7735,652556,0
954,-1,632786,218436,1193229,65108,7297,596046,0
955,-1,643953,219514,1321179,65897,8207,660031,0
955,-1,638734,219955,1305220,65667,8345,652244,0
956,-1,642394,219000,1308081,65720,8701,653361,0
956,-1,638653,218868,1310713,65251,7217,654908,0
957,-1,661649,223202,1252946,68896,9061,626183,0
957,-1,641008,219812,1268138,65613,7022,633713,0
958,-1,640503,218712,1260081,65642,7697,629774,0
958,-1,661895,224150,1393231,68793,8342,696201,0
959,-1,640755,218507,1339753,65548,8584,669421,0
959,-1,635250,218500,1234707,65070,6886,616992,0
960,-1,644259,220504,1357867,66400,8180,678240,0
960,-1,636595,219437,1529097,65449,8846,764332,0
961,-1,640197,219018,1202039,65740,7406,600612,0
961,-1,636509,218634,1250785,65159,7590,625047,0
962,-1,646351,221086,1311343,66807,8409,655023,0
962,-1,638993,219490,1219714,65474,7374,609422,0
963,-1,639779,218862,1380360,65758,7674,689638,0
963,-1,636234,219113,1265368,65353,7817,632216,0
964,-1,639829,219252,1358998,65899,7043,679027,0
964,-1,635321,218935,1256490,65248,7364,627766,0
965,-1,644915,220838,1329129,66614,7871,664049,0
965,-1,633468,218995,1285164,65157,7893,642267,0
966,-1,642876,220983,1335220,66744,7706,666915,0
966,-1,637102,219435,1282453,65331,7432,640824,0
967,-1,640920,218498,1208844,65680,7451,603985,0
967,-1,640984,220923,1282604,66006,7582,640686,0
968,-1,638293,217906,1329005,65309,7735,664076,0
968,-1,636210,218846,1336567,65090,7750,667948,0
969,-1,639894,219010,1349958,65709,8333,674678,0
969,-1,634647,218827,1386780,65053,8171,692927,0
970,-1,640895,219148,1296804,65733,7691,647856,0
970,-1,637700,219885,1235899,65511,7929,617659,0
971,-1,642575,220585,1361218,66434,8305,679687,0
971,-1,634607,219169,1117031,65310,7194,558146,0
972,-1,637789,218795,1212361,65683,6971,605832,0
972,-1,634166,218835,1209522,65113,8057,604335,0
973,-1,644240,220507,1321160,66393,8292,659943,0
973,-1,641284,221643,1151489,66361,7764,574855,0
974,-1,638028,218595,1292512,65569,8015,645396,0
974,-1,655617,223686,1414644,68564,8757,706738,0
975,-1,661091,223553,1242433,69041,8551,620787,0
975,-1,639547,218744,1309635,65155,7677,654444,0
976,-1,637646,218790,1144261,65666,6918,571696,0
976,-1,640117,219229,1364137,65268,8061,681725,0
977,-1,639495,219606,1121212,65933,7238,560282,0
977,-1,638004,218580,1330056,65019,7737,664749,0
978,-1,636264,218990,1213113,65733,7956,606173,0
978,-1,642422,220929,1207672,66119,6965,603110,0
979,-1,639433,218738,1174759,65717,7496,587081,0
979,-1,638840,219153,1309455,65242,7580,654361,0
980,-1,639040,218182,1159480,65436,7368,579394,0
980,-1,636552,218550,1266867,65013,6658,633179,0
981,-1,644360,220636,1358802,66580,8717,678748,0
981,-1,637458,219278,1371402,65295,8593,685292,0
982,-1,639889,219073,1261567,65802,8106,630407,0
982,-1,638535,219738,1247750,65579,7471,623335,0
983,-1,641821,219421,1188478,65906,7320,593989,0
983,-1,634874,218613,1316664,65051,7942,658007,0
984,-1,642375,220160,1292990,66345,7468,645923,0
984,-1,662291,224689,1406139,69278,9181,702759,0
985,-1,637750,218269,1219448,65521,7113,609380,0
985,-1,636596,218876,1300941,65152,7617,650220,0
986,-1,659936,223194,1327914,68980,7945,663500,0
986,-1,638056,219083,1295469,65219,7589,647407,0
987,-1,638544,218806,1198132,65718,6360,598635,0
987,-1,636580,218993,1256521,65137,7716,627929,0
988,-1,636967,218247,1308136,65534,7234,653675,0
988,-1,639112,220051,1248164,65726,7304,623634,0
989,-1,637361,218447,1234754,65572,6982,617051,0
989,-1,637304,219084,1471598,65300,9881,734697,0
990,-1,635523,218382,1164393,65531,7122,581911,0
990,-1,631688,218344,1256062,64950,7306,627649,0
991,-1,642650,221001,1287201,66710,7763,642954,0
991,-1,633945,218325,1312918,64905,7940,656138,0
992,-1,669250,229534,1311280,68470,7810,655217,0
992,-1,639465,221076,1384831,66134,8625,691071,0
993,-1,691445,237044,1261218,70600,6981,630336,0
993,-1,634977,219344,1335498,65331,8457,667320,0
994,-1,697014,239334,1361058,71682,7289,679853,0
994,-1,634210,219206,1296036,65208,8862,647546,0
995,-1,690028,236930,1227908,70615,7397,613604,0
995,-1,638984,218945,1312291,65144,7739,655486,0
996,-1,691245,237992,1196658,70936,6539,597960,0
996,-1,636177,218468,1207089,65031,6875,603143,0
997,-1,691295,236985,1237180,70589,7517,618295,0
997,-1,638545,219744,1245502,65396,6987,622357,0
998,-1,721001,247216,1332135,73650,7146,665699,0
998,-1,636290,219302,1375879,65300,7713,687519,0
999,-1,694624,238979,1348398,71579,7527,673662,0
999,-1,663295,228409,1223154,67920,6964,611249,0
1000,-1,711061,242278,1380884,74143,8063,690131,0
1000,-1,637080,219384,1387880,65316,8248,693811,0
1001,-1,691554,237484,1248851,70782,6931,624116,0
1001,-1,638868,220216,1358484,65778,8110,678500,0
1002,-1,690418,237260,1326848,70673,7154,663168,0
1002,-1,633519,218446,1379555,64919,8096,689230,0
1003,-1,687540,236904,1327853,70572,7074,663667,0
1003,-1,656980,223546,1386083,68489,8257,692650,0
1004,-1,690670,237102,1402417,70639,7353,700827,0
1004,-1,633010,218515,1295343,64986,7355,647199,0
1005,-1,700051,239154,1394817,71603,8652,696533,0
1005,-1,633768,219032,1196440,65146,7946,597929,0
1006,-1,694359,237135,1265223,70628,7713,632215,0
1006,-1,652504,223106,1269008,68340,8946,634029,0
1007,-1,698109,238370,1362966,71246,8534,680841,0
1007,-1,633304,218639,1274891,65009,6957,637142,0
1008,-1,695887,238075,1343656,70968,8174,671471,0
1008,-1,640642,221526,1194256,66284,6973,596566,0
1009,-1,692540,237057,1394592,70597,8015,696960,0
1009,-1,654230,223563,1379174,68491,8177,689221,0
1010,-1,698634,240159,1463444,72009,8321,730951,0
1010,-1,630663,218065,1179003,64816,6996,589193,0
1011,-1,691989,236576,1239463,70501,8755,619331,0
1011,-1,633724,219569,1265494,65416,7723,632225,0
1012,-1,693012,236971,1326912,70575,8108,663109,0
1012,-1,639873,221280,1227197,66113,7150,613052,0
1013,-1,691730,236972,1253700,70636,7778,626477,0
1013,-1,634418,219334,1240013,65353,6796,619626,0
1014,-1,690128,236829,1245964,70534,7218,622664,0
1014,-1,632814,218849,1277642,65126,7069,638555,0
1015,-1,690972,236905,1243046,70566,7147,621201,0
1015,-1,638285,221383,1183893,66183,6941,591397,0
1016,-1,690426,237392,1235611,70788,7204,617471,0
1016,-1,653101,223515,1371778,68480,8499,685505,0
1017,-1,687986,236837,1254821,70552,7548,627125,0
1017,-1,633204,218930,1284335,65174,6771,641723,0
1018,-1,698830,239185,1266581,71522,7865,632799,0
1018,-1,629183,218720,1280261,65047,6469,639795,0
1019,-1,689908,236595,1182827,70443,7421,591025,0
1019,-1,644990,218462,1303158,65391,6744,651308,0
1020,-1,713924,241986,1338046,74038,9044,668765,0
1020,-1,650990,221116,1261600,66581,6691,630180,0
1021,-1,691153,237191,1353317,70716,7116,675086,0
1021,-1,644545,219001,1273946,65686,7017,636589,0
1022,-1,690532,237238,1369678,70648,7526,684532,0
1022,-1,642251,218237,1222657,65358,6404,611019,0
1023,-1,695701,239434,1408787,71584,8237,703861,0
1023,-1,650191,220997,1258195,66534,7371,628673,0
