0,1,760187,265879,1331108,78386,9653,665675,0
0,1,758353,266381,1430241,78634,9967,715142,1
0,1,759388,265865,1489105,78454,9142,744373,0
0,1,780485,270826,1541213,81846,10199,770266,0
0,1,760124,265807,1392382,78385,9227,696174,0
0,1,755472,265180,1384075,78133,9394,691987,0
0,1,760648,265988,1480766,78483,9835,740456,0
0,1,758188,265273,1495825,78177,9650,748011,0
0,1,756798,265680,1476701,78347,9428,738247,0
0,1,754517,263798,1467854,77820,9934,733908,0
0,1,728614,252190,1431062,76788,10806,715526,0
0,1,714228,249507,1384866,74389,9744,692274,0
0,1,704331,247734,1329446,73525,8320,664371,0
0,1,707322,248858,1481091,74014,8729,740620,0
0,1,707610,247948,1345491,73470,8464,672612,0
0,1,706309,247765,1418994,73513,9081,709303,0
0,1,707069,248016,1341455,73549,8784,670809,0
0,1,706433,247258,1387850,73251,9857,693958,0
0,1,705982,247118,1367369,73394,8434,683597,0
0,1,705486,247283,1377928,73413,8661,689087,0
0,1,706790,246610,1300319,73101,9001,649908,0
0,1,707280,247588,1304110,73533,8424,652221,0
0,1,708699,247454,1420545,73545,9451,710169,0
0,1,730604,252054,1504177,76805,10262,751802,0
0,1,722801,251720,1416069,76631,9695,708091,0
0,1,704396,247619,1396227,73533,8816,698019,0
0,1,708330,249226,1337448,74325,9858,668626,0
0,1,707248,247922,1392508,73584,8850,696288,0
0,1,707107,247233,1355377,73466,8490,677640,0
0,1,703665,247298,1314402,73382,8148,657163,0
0,1,706137,247575,1289841,73509,8672,644737,0
0,1,704348,246569,1333870,73154,8640,666969,0
0,1,727071,252030,1412842,76761,9891,706510,0
0,1,706985,247586,1436673,73486,9249,718173,0
0,1,701839,246835,1471349,73266,8642,735653,0
0,1,707125,247776,1281943,73670,8474,640866,0
0,1,711526,249113,1455359,74146,9337,727653,0
0,1,709158,247833,1382104,73568,8735,690939,0
0,1,710458,248496,1396765,73896,8733,698489,0
0,1,710513,248553,1336836,73873,9029,668308,0
0,1,711987,248535,1363328,73758,9294,681744,0
0,1,706764,247107,1313343,73368,8884,656735,0
0,1,714879,249759,1472417,74376,8999,736009,0
0,1,709827,248108,1345619,73628,9187,672877,0
0,1,713869,248719,1295829,73755,8955,647959,0
0,1,713026,248582,1401957,73717,9805,700965,0
0,1,712191,250894,1333980,74696,9858,667056,0
0,1,727076,252312,1384811,76815,10002,692108,0
0,1,714123,250400,1421096,74630,10068,710547,0
0,1,706729,247454,1474931,73427,9284,737473,0
0,1,710808,248588,1252691,73835,8983,626311,0
0,1,710045,248563,1297423,73935,8221,648729,0
0,1,708214,247676,1311993,73547,8797,655935,0
0,1,709470,248249,1398373,73883,9377,699321,0
0,1,707900,247314,1379184,73550,9029,689542,0
0,1,709265,247886,1390622,73730,8483,695075,0
0,1,710645,248301,1295669,73873,8442,647735,0
0,1,709103,247164,1287396,73506,8986,643362,0
0,1,708103,248072,1291519,73825,9494,645672,0
0,1,707376,247791,1418691,73709,9372,709123,0
0,1,714524,249349,1499897,74415,9694,749853,0
0,1,705420,246850,1406285,73428,8771,702592,0
0,1,710903,248336,1495339,73860,9703,747679,0
0,1,714978,249520,1359113,74434,9525,679527,0
0,1,706464,247398,1459248,73563,10170,729995,0
0,1,707741,247309,1453176,73523,9737,726635,0
0,1,709425,247695,1492852,73630,10731,746440,0
0,1,731873,252932,1506053,77191,11404,752205,0
0,1,731541,253288,1419012,77299,10921,709279,0
0,1,711455,248353,1416604,73905,10228,707980,0
0,1,711079,247579,1263565,73575,9332,631600,0
0,1,719465,250317,1411059,74790,9655,705529,0
0,1,702344,248582,1372687,74140,8660,686363,0
0,1,707289,249130,1386067,74332,9326,693044,0
0,1,723022,252094,1478846,76899,11761,739314,0
0,1,728248,252414,1326180,76999,10621,662862,0
0,1,702988,247571,1396036,73655,10097,697891,0
0,1,702385,247557,1445013,73616,9993,722271,0
0,1,709119,249308,1471853,74383,10372,735625,0
0,1,703392,247887,1462697,73750,9796,731068,0
0,1,724420,252232,1392792,76987,9897,696002,0
0,1,704914,247473,1387079,73599,8879,693612,0
0,1,705681,248534,1424145,73929,8807,711949,0
0,1,704565,247372,1410013,73526,9034,705044,0
0,1,706847,247992,1330890,73737,9103,665336,0
0,1,708073,247740,1410329,73711,9216,705210,0
0,1,704292,248481,1402906,73919,10163,701463,0
0,1,706951,248947,1315707,74203,9324,657778,0
0,1,704387,248149,1288788,73716,8098,644138,0
0,1,714150,250812,1465363,74903,8974,732582,0
0,1,706572,248133,1400727,73740,8585,700203,0
0,1,708249,248129,1312299,73739,8958,656108,0
0,1,710599,248129,1341037,73709,9402,670553,0
0,1,704550,247638,1319780,73584,8828,659856,0
0,1,708658,248343,1393811,73768,8475,697028,0
0,1,708222,247771,1458328,73534,9523,729185,0
0,1,708655,249152,1406894,74242,9544,703525,0
0,1,705355,247336,1408375,73461,8479,704444,0
0,1,710635,248242,1465996,73798,9799,732750,0
0,1,706050,249589,1382360,74458,8881,691068,0
0,1,705671,248216,1507242,73765,9849,752906,0
0,1,706553,248029,1458339,73661,8897,728755,0
0,1,709144,249145,1408157,74257,9237,703495,0
0,1,707792,248963,1464583,73999,10548,732206,0
0,1,709775,248766,1364610,73873,9054,682300,0
0,1,705192,248207,1376066,73721,8725,688069,0
0,1,704629,247434,1282054,73545,8583,640965,0
0,1,710016,248281,1343695,73737,8918,671724,0
0,1,708942,247913,1355781,73659,8683,677813,0
0,1,733120,253127,1460862,77154,9829,730412,0
0,1,706906,247778,1365674,73589,9015,682666,0
0,1,705329,247794,1390575,73561,7928,694831,0
0,1,707917,248248,1258662,73699,9020,629231,0
0,1,710106,248447,1324604,73859,9484,662295,0
0,1,731332,252723,1307572,77027,9557,653676,0
0,1,710582,249515,1375037,74370,9218,687440,0
0,1,710074,247800,1436979,73595,8832,718510,0
0,1,710111,248795,1496719,73949,8672,748613,0
0,1,708633,247733,1290760,73624,9145,645242,0
0,1,731455,252380,1299366,76869,10644,649603,0
0,1,705839,248301,1288529,73810,8423,644220,0
0,1,705542,248067,1396714,73702,9083,698182,0
0,1,729047,253273,1345169,77199,9530,672469,0
0,1,711368,249663,1415629,74388,9208,707894,0
0,1,708925,248887,1339653,74121,9239,669619,0
0,1,710644,248568,1311132,73859,8914,655598,0
0,1,705330,248206,1432740,73720,9302,716232,0
0,1,706101,248462,1367554,73817,8205,683741,0
0,1,708051,247762,1432655,73547,8548,716522,0
0,1,710152,249176,1405552,74206,8983,702718,0
0,1,710477,248484,1422907,73867,8705,711424,0
0,1,709430,248212,1419968,73762,9413,709929,0
0,1,714192,249184,1453590,74284,9855,726596,0
0,1,704016,247690,1424366,73532,9483,712115,0
0,1,709255,248346,1419469,73667,9410,709714,0
0,1,712314,249821,1427838,74337,9784,713757,0
0,1,713401,249732,1442011,74291,9501,720669,0
0,1,710070,249208,1381939,73930,9104,691083,0
0,1,708851,247916,1394388,73544,9758,697106,0
0,1,708519,247920,1344625,73492,8603,672273,0
0,1,708978,248003,1328224,73516,8649,664093,0
0,1,708264,248439,1471005,73683,8735,735154,0
0,1,709445,248535,1423239,73719,8663,711448,0
0,1,708149,248391,1274896,73672,8943,637488,0
0,1,731446,253037,1317326,76914,10286,658837,0
0,1,710203,247685,1361967,73416,9252,680994,0
0,1,724197,252692,1376974,76899,9735,688428,0
0,1,705871,247539,1426248,73329,9172,713283,0
0,1,707874,248240,1368839,73654,8848,684487,0
0,1,711251,249065,1337524,73882,8247,668677,0
0,1,707653,248461,1326059,73714,9272,662971,0
0,1,712508,249833,1393046,74396,9214,696450,0
0,1,710955,248442,1406933,73698,9049,703462,0
0,1,709578,248922,1400335,73844,9272,700066,0
0,1,707021,248235,1413206,73642,9650,706517,0
0,1,714927,250415,1427375,74564,9510,713748,0
0,1,709912,248463,1303908,73842,8775,651872,0
0,1,713565,249475,1457199,74312,8719,727998,0
0,1,715569,249362,1342299,74109,8852,671036,0
0,1,722513,251240,1437955,74939,9717,718752,0
0,1,710454,248684,1436319,73835,8918,718030,0
0,1,710954,248042,1325410,73716,9056,662639,0
0,1,711301,248874,1393981,73906,9674,696777,0
0,1,712355,249003,1413668,73769,8557,706736,0
0,1,719920,250982,1430571,74707,9464,715242,0
0,1,734675,254477,1435885,77375,10093,717684,0
0,1,712262,249209,1464127,73870,9639,732340,0
0,1,717234,250580,1374590,74572,10087,687289,0
0,1,720963,250843,1406415,74674,9589,703142,0
0,1,705345,248982,1434953,73821,8762,717390,0
0,1,707217,248732,1476647,73687,9766,738233,0
0,1,709359,249344,1557827,73937,10090,778894,0
0,1,710929,249385,1251231,73991,9401,625594,0
0,1,736289,258174,1365013,76634,8994,682541,0
0,1,710495,249176,1419455,73924,9553,709765,0
0,1,710465,247763,1475166,73475,9541,737617,0
0,1,709035,248855,1499867,73866,9648,749783,0
0,1,710432,248513,1353669,73679,8937,676741,0
0,1,710213,248504,1328712,73710,9087,664268,0
0,1,731083,252101,1418963,76630,10203,709364,0
0,1,710003,248115,1434944,73561,10217,717328,0
0,1,710206,248805,1369529,73905,9358,684817,0
0,1,712703,248343,1335399,73735,9287,667626,0
0,1,711521,249479,1382792,74291,9676,691399,0
0,1,711015,248815,1394714,73820,9802,697169,0
0,1,709611,248539,1528747,73765,9558,764446,0
0,1,709110,247934,1341791,73559,9323,670857,0
0,1,732862,253328,1483178,77128,9969,741629,0
0,1,712333,247993,1331254,73605,9647,665552,0
0,1,707003,247492,1305636,73474,8174,652508,0
0,1,713994,249438,1423086,74324,9526,711679,0
0,1,712745,248338,1363573,73817,10278,681653,0
0,1,713012,249458,1437913,74239,10337,718722,0
0,1,716121,249885,1361361,74425,10295,680182,0
0,1,710865,250408,1479070,74572,9856,739740,0
0,1,713960,250055,1485464,74484,9746,741647,0
0,1,729602,252759,1460492,76878,10240,730176,0
0,1,728399,252366,1500532,76875,10603,749889,0
0,1,713843,249739,1439062,74369,10201,718465,0
0,1,709753,247857,1424361,73605,9644,711922,0
0,1,711324,250284,1389832,74686,9781,694907,0
0,1,708868,247525,1400078,73481,9828,700034,0
0,1,714677,249973,1494480,74478,9389,747182,0
0,1,733053,253560,1314815,77190,9773,657368,0
0,1,732423,253285,1390933,77104,9858,695458,0
0,1,711455,247736,1408499,73487,9785,704237,0
0,1,709950,248298,1435453,73656,9042,717867,0
0,1,708761,247720,1374010,73425,8799,687008,0
0,1,717226,249973,1396311,74246,9285,697975,0
0,1,713566,249743,1378961,74191,9531,689334,0
0,1,714452,249262,1420963,74013,10102,710472,0
0,1,712244,248340,1447067,73529,9071,723563,0
0,1,733524,252790,1365085,76785,9863,682411,0
0,1,713706,249903,1486010,74173,9449,742781,0
0,1,712203,248452,1314121,73547,9169,657037,0
0,1,710250,247907,1326287,73345,9572,663116,0
0,1,712898,248317,1357985,73576,9141,678985,0
0,1,711491,247772,1378044,73383,9086,688963,0
0,1,737280,253387,1362415,77046,9748,681059,0
0,1,708760,249440,1348217,74129,8847,674106,0
0,1,703867,247219,1277791,73288,8659,638893,0
0,1,704850,247085,1231094,73263,8325,615526,0
0,1,710300,249788,1374111,74363,8802,687008,0
0,1,707456,247688,1280588,73419,8772,640313,0
0,1,705026,247082,1310045,73291,8327,655021,0
0,1,713966,250321,1365431,74540,8704,682689,0
0,1,708775,247656,1372551,73437,9326,686299,0
0,1,732340,252254,1375789,76734,9459,687850,0
0,1,706258,247033,1363099,73157,8176,681538,0
0,1,713249,249127,1398157,74088,9013,698857,0
0,1,710243,247183,1306953,73257,9439,653407,0
0,1,728646,253113,1287335,77018,9563,643476,0
0,1,708774,247682,1304749,73423,8324,652311,0
0,1,732188,252820,1335981,76923,9598,667872,0
0,1,706412,247418,1412872,73275,8867,706314,0
0,1,706927,247467,1373998,73392,8783,686974,0
0,1,736694,257715,1412746,76620,8475,706337,0
0,1,715566,250005,1285089,74473,9456,642358,0
0,1,710691,247694,1371902,73463,9036,685709,0
0,1,706637,247148,1368092,73238,8758,683788,0
0,1,709932,247698,1386534,73461,9340,693273,0
0,1,714758,249185,1377768,74099,9554,688879,0
0,1,712333,247697,1408812,73409,9512,704405,0
0,1,729137,252039,1333604,76678,9853,666686,0
0,1,711296,247909,1245032,73475,9284,622427,0
0,1,706377,247699,1296485,73469,8419,648152,0
0,1,730433,252550,1477789,76869,9762,738861,0
0,1,706520,247310,1291711,73290,7919,645912,0
0,1,709896,248981,1333261,74010,8382,666534,0
0,1,715152,250007,1270760,74518,8449,635275,0
0,1,710410,247851,1408168,73509,9357,704336,0
0,1,709305,248462,1436374,73643,9261,718105,0
0,1,712973,249354,1388064,74173,9080,693778,0
0,1,713179,249487,1377963,74176,9157,689344,0
0,1,731345,252546,1439872,76846,9264,719930,0
0,1,709495,246908,1393229,73122,8836,696620,0
0,1,730176,252079,1334127,76694,9172,666955,0
0,1,715837,249499,1313304,74204,8406,656637,0
0,1,718556,250670,1304467,74733,9133,652281,0
0,1,713179,247846,1398506,73538,8954,699230,0
0,1,707409,247527,1377582,73375,8597,688610,0
0,1,729444,251840,1378694,76618,8847,689251,0
0,1,707071,246732,1338582,73117,7974,669297,0
0,1,709355,247369,1275403,73337,8457,637629,0
0,1,709144,247753,1312567,73483,8094,656250,0
0,1,712019,248567,1344031,73748,7997,672015,0
0,1,711805,247481,1407079,73395,9070,703524,0
0,1,718026,249622,1305591,74285,8946,652827,0
0,1,730252,252025,1410969,76597,8818,705431,0
0,1,733666,252568,1312895,76762,9103,656426,0
0,1,709952,246929,1360191,73103,8028,680056,0
0,1,719612,249932,1303840,74285,8175,651895,0
0,1,735372,252342,1422586,76688,8678,711326,0
0,1,722602,252645,1421609,76391,9341,710674,0
0,1,699644,246976,1276774,72657,7963,638347,0
0,1,709149,249881,1259841,73839,8033,629875,0
0,1,704430,248064,1372379,73098,8301,686159,0
0,1,702164,247523,1431866,72868,8613,715927,0
0,1,702543,247838,1384623,72968,9277,692269,0
0,1,708776,249250,1222489,73655,8047,611164,0
0,1,705493,247969,1376230,73111,8427,688119,0
0,1,706168,249147,1294276,73799,8875,647209,0
0,1,703252,246898,1262633,72920,8273,631288,0
0,1,704684,247021,1372710,72833,7744,686326,0
0,1,702462,247867,1310044,73138,8733,654964,0
0,1,705291,247313,1289307,72955,8614,644664,0
0,1,704558,247751,1333027,73140,8730,666478,0
0,1,712521,250142,1317245,74149,8477,658572,0
0,1,707992,248977,1331094,73706,8438,665452,0
0,1,702396,247407,1249669,73010,8755,624718,0
0,1,710685,248067,1504821,74062,10293,752372,0
0,1,707490,247266,1280519,73763,8903,640198,0
0,1,710496,248912,1308947,74484,9177,654417,0
0,1,709054,247167,1459135,73675,9043,729564,0
0,1,709530,247210,1331519,73811,9792,665671,0
0,1,723607,251858,1419514,77134,10237,709709,0
0,1,704930,247224,1392514,73816,8278,696239,0
0,1,728103,251760,1481184,77062,10264,740646,0
0,1,726490,251765,1444798,77032,10003,722303,0
0,1,705746,247395,1235249,73835,8880,617497,0
0,1,713251,249332,1340838,74619,8234,670422,0
0,1,706963,247603,1285534,73895,8011,642739,0
0,1,705448,247085,1391405,73721,9176,695676,0
0,1,729930,252426,1426639,77264,9739,713191,0
0,1,707144,247910,1276703,74045,8698,638239,0
0,1,707731,246982,1352959,73697,8166,676500,0
0,1,710626,247943,1478084,73989,9013,739008,0
0,1,708695,247029,1293145,73704,8856,646665,0
0,1,727492,251850,1409073,77108,9872,704507,0
0,1,710912,248715,1538057,74436,10340,768323,0
0,1,711740,248721,1377205,74428,10314,688085,0
0,1,709193,247746,1282202,73975,8025,641145,0
0,1,710000,247622,1397745,73866,9674,698914,0
0,1,707110,247594,1367275,73784,7986,683445,0
0,1,710078,247048,1319820,73721,9448,659918,0
0,1,711257,247777,1531061,73917,9499,765563,0
0,1,711936,248100,1348973,74059,8545,674443,0
0,1,712127,247789,1450753,73976,9677,725388,0
0,1,707812,246210,1396053,73502,10082,697997,0
0,1,703217,247580,1441341,73871,9912,720578,0
0,1,723624,251758,1463468,77045,10477,731688,0
0,1,708109,247723,1414745,73940,10296,707363,0
0,1,710604,249234,1365985,74701,9683,683011,0
0,1,710328,249585,1314533,74815,8472,657340,0
0,1,705337,246927,1280932,73665,8728,640655,0
0,1,711680,248666,1486695,74245,9097,743349,0
0,1,708999,247430,1461034,73745,9622,730579,0
0,1,706711,247774,1407063,73951,8881,703533,0
0,1,706199,247464,1225146,73856,8950,612252,0
0,1,706427,247353,1435746,73754,9271,717926,0
0,1,706756,247516,1442514,73824,9270,721289,0
0,1,706680,247118,1354173,73740,8619,677090,0
0,1,706631,248740,1353506,74461,9368,676789,0
0,1,709979,248324,1455018,74045,9351,727597,0
0,1,710094,248152,1396283,74052,8393,698185,0
0,1,708107,247742,1348762,73985,8188,674428,0
0,1,709126,247390,1274624,73860,8769,637332,0
0,1,709802,247373,1371888,73825,8907,685979,0
0,1,707808,247248,1429284,73759,9204,714675,0
0,1,711740,248176,1352456,74059,8283,676303,0
0,1,706601,246443,1384484,73549,8073,692552,0
0,1,709672,247398,1492371,73889,10565,745848,0
0,1,710850,248505,1299251,74379,8637,649636,0
0,1,711695,247861,1289080,74006,8637,644622,0
0,1,732794,252198,1410485,77190,9737,705194,0
0,1,715921,248800,1266891,74438,8973,633499,0
0,1,707710,247690,1378947,73918,8602,689408,0
0,1,709447,248412,1305360,74170,8488,652720,0
0,1,709468,247574,1277630,73811,8443,638851,0
0,1,727466,251836,1492748,76997,9683,746348,0
0,1,712636,248943,1285189,74409,8808,642663,0
0,1,710092,247344,1390977,73722,9399,695377,0
0,1,733679,256694,1526496,76507,10241,763292,0
0,1,707113,246803,1329023,73416,7610,664554,0
0,1,709268,247778,1507256,73943,9857,753668,0
0,1,709753,247363,1321818,73805,9155,660952,0
0,1,710681,248039,1390315,74091,8802,695203,0
0,1,715075,248857,1310779,74501,9179,655308,0
0,1,712081,248675,1349540,74294,10178,674659,0
0,1,708885,247062,1426734,73587,8807,713065,0
0,1,711016,247811,1286034,73863,9687,642607,0
0,1,708334,246983,1363289,73568,9789,681608,0
0,1,730894,252325,1436951,77113,10676,718700,0
0,1,712462,248052,1382415,73904,9750,691233,0
0,1,731602,252285,1535086,77169,11363,767316,0
0,1,707912,246727,1381912,73566,8450,691046,0
0,1,717134,248955,1303944,74494,8405,651992,0
0,1,712702,247729,1365352,73965,9443,682723,0
0,1,716442,249654,1275645,74848,8555,637940,0
0,1,718947,249294,1293057,74651,8651,646444,0
0,1,707648,248414,1270141,74286,8945,635105,0
0,1,707465,247746,1258671,73934,8470,629375,0
0,1,715728,250482,1386692,75134,10134,692868,0
0,1,728334,252860,1462755,77411,9511,731484,0
0,1,711262,248801,1376831,74273,8781,688457,0
0,1,711166,248735,1351437,74277,9491,675765,0
0,1,713418,249147,1303330,74534,8679,651714,0
0,1,710473,249085,1436145,74523,9310,718071,0
0,1,711155,248711,1297879,74347,8631,648969,0
0,1,716458,250696,1364746,75277,9108,682402,0
0,1,711261,248544,1236330,74262,8326,618197,0
0,1,711274,248307,1342386,74241,7962,671238,0
0,1,718909,250592,1309160,75135,8212,654656,0
0,1,707690,248478,1374058,74224,9159,687072,0
0,1,713911,249784,1296154,74792,8229,648136,0
0,1,713617,249592,1300298,74565,8367,650192,0
0,1,734883,253038,1489273,77499,10404,744576,0
0,1,710283,248350,1376284,74067,9186,688025,0
0,1,714541,249641,1309914,74749,8682,654921,0
0,1,711442,248089,1389416,74056,9049,694726,0
0,1,732156,253705,1439377,77688,10297,719626,0
0,1,712489,249212,1242167,74430,9130,621013,0
0,1,712374,248707,1465748,74299,9409,732958,0
0,1,712766,249055,1448617,74430,10684,723478,0
0,1,715092,248988,1407257,74377,9608,703685,0
0,1,710993,248972,1470237,74293,10380,734929,0
0,1,733512,253992,1432924,77677,9891,716438,0
0,1,731005,252883,1514416,77248,10468,757143,0
0,1,709361,248496,1461747,74041,9049,730918,0
0,1,713233,248895,1327504,74115,9081,663696,0
0,1,714397,249687,1546948,74370,10440,772677,0
0,1,707261,247744,1474954,73670,9947,737381,0
0,1,761146,262699,1639078,80140,11836,819280,0
0,1,712849,248911,1326592,74116,8396,663327,0
0,1,711386,247797,1394441,73894,8670,697081,0
0,1,716846,249709,1370089,74652,9735,685124,0
0,1,714796,249043,1494167,74241,10111,747124,0
0,1,706725,247585,1440788,73749,9501,720505,0
0,1,711266,247762,1469322,73843,9030,734657,0
0,1,712184,248121,1223244,73914,8122,611669,0
0,1,711119,248105,1445391,74039,8661,722647,0
0,1,715364,249474,1302341,74671,8550,651134,0
0,1,710937,248850,1378310,74244,8802,689221,0
0,1,732419,252515,1505045,77243,8966,752510,0
0,1,716909,250134,1306712,74898,9406,653456,0
0,1,734099,253464,1460682,77551,9331,730232,0
0,1,714064,248441,1376800,74105,9205,688410,0
0,1,713448,248175,1378095,74026,8764,689079,0
0,1,706419,247934,1400505,73972,9380,700285,0
0,1,709432,248278,1387599,74062,9651,693843,0
0,1,710243,248987,1294523,74301,8624,647304,0
0,1,708264,248438,1409917,74069,9645,704998,0
0,1,712811,249414,1320610,74603,8687,660366,0
0,1,709685,248282,1381189,73807,8781,690651,0
0,1,735491,253426,1482589,77501,10813,740974,0
0,1,713130,248816,1306714,74250,9642,653390,0
0,1,712274,248030,1368794,73944,8761,684428,0
0,1,714381,250065,1361272,74762,8410,680729,0
0,1,712356,248503,1349526,74208,8205,674808,0
0,1,712922,248355,1294828,74166,8081,647453,0
0,1,707967,247608,1292804,73927,7877,646296,0
0,1,711759,248878,1356226,74329,8605,678170,0
0,1,715056,250385,1333992,75052,9437,667353,0
0,1,714781,249036,1581073,74346,9169,789717,0
0,1,716781,249890,1303631,74646,8183,651858,0
0,1,714930,248196,1419536,73970,9096,709808,0
0,1,717725,250618,1271005,75048,8915,635835,0
0,1,733859,253287,1433522,77427,9674,716801,0
0,1,712691,248187,1338679,73992,7921,669438,0
0,1,713301,248162,1286961,73994,8134,643520,0
0,1,717723,249838,1341182,74747,9847,670644,0
0,1,715148,248083,1464243,73932,9930,732161,0
0,1,707303,247921,1291840,73901,8721,645492,0
0,1,711867,249137,1511186,74276,9573,755584,0
0,1,713308,249027,1374768,74395,9948,687398,0
0,1,711461,248992,1480424,74409,9524,740751,0
0,1,712805,248171,1299526,73949,9510,649808,0
0,1,714817,248752,1359107,74076,8931,679081,0
0,1,731531,253047,1692875,77331,10735,846105,0
0,1,710445,247695,1402225,73809,9902,700810,0
0,1,712472,248395,1295268,73988,8710,647670,0
0,1,711601,247285,1251739,73688,8739,625911,0
0,1,730758,251693,1468782,76907,10346,734811,0
0,1,717312,249592,1446543,74762,10040,722906,0
0,1,712139,246782,1580431,73585,10348,790264,0
0,1,711413,248071,1418874,74175,9214,709640,0
0,1,711697,248213,1445688,74193,9160,722536,0
0,1,712318,247616,1465509,74066,9035,732801,0
0,1,709785,247491,1334109,74037,8814,667104,0
0,1,716267,249097,1420402,74687,9339,710221,0
0,1,712467,247878,1435731,74088,9557,717850,0
0,1,707441,246947,1398891,73776,9173,699480,0
0,1,712449,247503,1377776,74029,8173,688931,0
0,1,711695,246755,1407594,73810,9073,703851,0
0,1,718050,249880,1498694,75036,8993,749381,0
0,1,712454,247258,1349190,73945,8969,674620,0
0,1,735960,251935,1493968,77231,10764,746938,0
0,1,707050,247511,1449028,73959,9985,724065,0
0,1,704466,246611,1361791,73670,8700,680939,0
0,1,705170,247336,1363290,73901,9101,681696,0
0,1,729600,252714,1453215,77502,9995,726502,0
0,1,707218,247484,1476272,73963,9028,738178,0
0,1,704006,246980,1547061,73846,8956,773573,0
0,1,706623,247675,1464148,74035,10270,731655,0
0,1,704604,247390,1316696,73982,8511,658370,0
0,1,709417,247182,1539137,73861,8795,769608,0
0,1,707323,247781,1381538,74116,8366,690895,0
0,1,704852,246926,1299307,73815,8508,649698,0
0,1,710403,247758,1225803,74099,7939,612913,0
0,1,707655,247324,1308916,73809,8091,654489,0
0,1,704446,247160,1257352,73718,8127,628664,0
0,1,704873,247183,1258900,73766,8645,629472,0
0,1,710050,247574,1285464,73916,8305,642790,0
1,1,758667,266205,1334395,78542,9253,667141,0
1,1,761119,265846,1481674,78396,10425,740730,0
1,1,764196,267826,1491193,79230,10137,745304,0
1,1,759940,265785,1373976,78461,8888,686491,1
1,1,756819,265997,1460060,78468,9827,729956,0
1,1,759441,265815,1380990,78449,9058,690469,0
1,1,759059,265569,1379630,78309,8947,689429,0
1,1,764141,266629,1419793,78679,9439,709525,0
1,1,758626,265392,1384040,78208,9115,691782,0
1,1,728202,255538,1443438,75662,9163,721450,0
1,1,711216,248438,1479548,73904,10322,739712,0
1,1,704264,247830,1386792,73676,8945,693349,0
1,1,708089,247745,1449173,73506,8622,724455,0
1,1,726018,251759,1460170,76606,9722,730097,0
1,1,711046,249686,1411871,74353,9160,705838,0
1,1,707809,248352,1410768,73836,9555,705314,0
1,1,708480,247713,1329355,73394,8842,664606,0
1,1,709753,247622,1390378,73427,10081,695165,0
1,1,707620,247925,1356521,73668,9255,677998,0
1,1,707650,247504,1327631,73444,8611,663587,0
1,1,707135,247661,1306613,73542,9059,653241,0
1,1,715882,250142,1355200,74591,10076,677137,0
1,1,709233,247523,1424148,73537,8917,712058,0
1,1,711365,247536,1328869,73435,8956,664347,0
1,1,731544,256918,1457054,76510,10076,728502,0
1,1,726975,251807,1310203,76683,9279,654926,0
1,1,705113,247821,1289367,73577,8094,644732,0
1,1,726912,251822,1397133,76697,9940,698525,0
1,1,705128,247912,1356059,73567,8542,678087,0
1,1,723173,251655,1386581,76697,8964,693303,0
1,1,728597,252022,1381670,76810,9457,690802,0
1,1,705142,247181,1261968,73408,7988,630935,0
1,1,707277,247458,1415595,73512,9087,707783,0
1,1,713378,249075,1432997,74203,9647,716546,0
1,1,703484,246961,1299984,73428,8800,649953,0
1,1,703040,246647,1324099,73239,8843,661631,0
1,1,728472,252103,1373486,76795,9620,686636,0
1,1,709560,247985,1374826,73787,9147,687408,0
1,1,707832,248146,1278215,73750,8710,638809,0
1,1,707739,247243,1341772,73264,9359,670765,0
1,1,705962,247536,1282897,73471,8224,641444,0
1,1,728881,251968,1432096,76606,8646,716114,0
1,1,709386,248227,1322034,73605,9306,661044,0
1,1,710676,248250,1419596,73580,9726,709883,0
1,1,711688,248128,1464685,73523,9718,732108,0
1,1,714887,248504,1306895,73721,8805,653421,0
1,1,705554,247825,1367984,73525,9007,683904,0
1,1,727596,252486,1352962,76870,9686,676354,0
1,1,713856,250347,1450960,74669,9758,725100,0
1,1,708866,247872,1405077,73631,9830,702441,0
1,1,706006,248134,1253401,73823,8831,626618,0
1,1,729060,252460,1375449,76999,10064,687643,0
1,1,711113,249186,1493836,74340,9855,746920,0
1,1,710870,248560,1338779,73937,9517,669329,0
1,1,731041,253046,1353104,77221,9690,676337,0
1,1,712106,248128,1468358,73840,8877,734260,0
1,1,710819,248217,1263374,73877,8607,631527,0
1,1,706370,247263,1328584,73526,9240,664371,0
1,1,711340,249793,1486500,74516,10145,743391,0
1,1,710028,248310,1476330,73895,9966,738101,0
1,1,713915,250172,1487566,74768,10122,743888,0
1,1,709251,247694,1416497,73685,9694,708198,0
1,1,710659,248534,1388546,73960,8584,694275,0
1,1,711354,247450,1288200,73626,8750,644051,0
1,1,710628,248734,1422809,74015,10077,711386,0
1,1,707681,246835,1414220,73465,9919,706723,0
1,1,710489,248072,1520263,73796,10324,760009,0
1,1,711817,247662,1415864,73625,9206,707977,0
1,1,712045,248696,1672798,74128,11038,836032,0
1,1,732851,252331,1425368,76977,11746,712687,0
1,1,713007,247570,1602840,73626,9684,801473,0
1,1,706106,247819,1314093,73702,8211,657006,0
1,1,702511,247852,1395028,73736,8907,697368,0
1,1,702556,247958,1439407,73791,10481,719757,0
1,1,705760,248070,1374067,73813,9544,686808,0
1,1,707165,248687,1450855,74205,9849,725279,0
1,1,704823,247312,1361925,73548,9395,680916,0
1,1,726028,252450,1451727,77040,10823,725448,0
1,1,702973,248058,1586019,73704,9042,792215,0
1,1,703681,247173,1334390,73554,8729,667509,0
1,1,705822,248226,1394781,73858,8811,697429,0
1,1,706933,247771,1391549,73678,8700,695818,0
1,1,707510,248634,1422795,74173,9153,711396,0
1,1,708578,249021,1411332,74310,9532,705433,0
1,1,707428,247535,1402431,73589,9199,701178,0
1,1,702122,248031,1420991,73724,9793,710543,0
1,1,701813,247378,1295146,73542,8952,647521,0
1,1,707769,248636,1381091,73985,8654,690549,0
1,1,707952,248498,1500050,73865,8336,749631,0
1,1,707360,248584,1376196,73884,8696,688099,0
1,1,709107,249488,1418075,74344,9495,709009,0
1,1,709598,248296,1270752,73791,8812,635153,0
1,1,707434,248880,1283614,73993,8511,641864,0
1,1,704804,248018,1282103,73660,8802,641043,0
1,1,707884,248333,1522894,73795,11510,761677,0
1,1,704473,247731,1458866,73618,10051,729172,0
1,1,711478,249192,1416999,74064,9226,708585,0
1,1,711088,248554,1497232,73862,9832,748263,0
1,1,709297,247533,1391770,73469,9674,695700,0
1,1,707747,248250,1395173,73745,9078,697237,0
1,1,726633,252661,1436866,76997,10391,718242,0
1,1,726376,252546,1435374,76950,10687,717472,0
1,1,708233,248359,1348777,73762,9981,674535,0
1,1,706034,247803,1342915,73626,8577,671515,0
1,1,704209,247727,1331983,73624,8306,665918,0
1,1,703155,247157,1324474,73441,8882,662221,0
1,1,712799,248952,1501395,74060,9811,750534,0
1,1,711970,249886,1442834,74545,9427,721373,0
1,1,710549,248358,1383220,73790,8967,691608,0
1,1,706924,248399,1288156,73858,8308,644162,0
1,1,705736,247691,1410929,73628,9225,705413,0
1,1,711630,250092,1331036,74599,9498,665352,0
1,1,706452,247347,1303629,73505,8763,651770,0
1,1,712660,249234,1324175,74283,9333,661955,0
1,1,706849,247728,1282724,73589,8726,641395,0
1,1,705769,247677,1327883,73614,9196,663880,0
1,1,711079,249435,1406188,74335,8798,702958,0
1,1,733609,253357,1391774,77204,10102,695663,0
1,1,708789,247655,1338265,73599,9833,669135,0
1,1,707957,249721,1385014,74489,9397,692388,0
1,1,725873,252299,1486483,76804,9027,742917,0
1,1,706840,247864,1416381,73624,8464,708209,0
1,1,706425,248316,1302610,73770,8574,651320,0
1,1,705682,248027,1405391,73677,8685,702718,0
1,1,707050,247375,1260114,73461,8524,629929,0
1,1,704351,247797,1369369,73604,8571,684545,0
1,1,706519,248164,1325205,73671,8701,662426,0
1,1,710541,249644,1440128,74308,9035,720025,0
1,1,709326,248386,1530167,73738,8828,765002,0
1,1,707673,247500,1406651,73473,8517,703296,0
1,1,706840,247653,1277644,73474,8078,638889,0
1,1,709488,247850,1501689,73639,9639,750627,0
1,1,709472,249086,1382909,74035,8784,691163,0
1,1,708708,248456,1382456,73699,9284,691265,0
1,1,709091,248934,1383106,73884,8708,691203,0
1,1,708899,248134,1472304,73626,10152,735991,0
1,1,706682,248002,1280094,73571,8784,639656,0
1,1,707742,247816,1283858,73637,8923,641768,0
1,1,707778,248256,1356685,73651,8503,678302,0
1,1,711232,248725,1426418,73729,9983,713083,0
1,1,705306,247742,1365428,73456,8344,682731,0
1,1,713389,250205,1438573,74543,9252,719122,0
1,1,710668,248060,1265625,73535,9140,632863,0
1,1,711785,249010,1395304,73871,9678,697635,0
1,1,715107,249994,1423787,74427,9161,711540,0
1,1,710968,247920,1412504,73508,9227,706109,0
1,1,712712,250095,1409621,74550,9488,704819,0
1,1,710831,249785,1399982,74304,8363,700258,0
1,1,713413,250034,1430608,74452,9452,715155,0
1,1,732730,257475,1346305,76362,8541,672993,0
1,1,713510,249661,1315035,74284,9579,657366,0
1,1,713805,249776,1423407,74298,8955,711488,0
1,1,707475,248328,1298457,73661,8410,649230,0
1,1,710943,248577,1334173,73775,9505,667242,0
1,1,712838,249110,1405265,73934,10067,702602,0
1,1,714122,249725,1428685,74384,9629,714217,0
1,1,709686,248205,1309368,73678,8659,654566,0
1,1,713139,248966,1393393,73926,9373,696677,0
1,1,737338,253857,1412123,77331,10749,706012,0
1,1,711577,249037,1336078,73997,9253,667968,0
1,1,714737,249938,1560132,74599,9931,780155,0
1,1,710502,248876,1316092,74023,9164,657919,0
1,1,714171,249182,1406476,73993,9386,702918,0
1,1,734749,253491,1353785,77027,9494,676674,0
1,1,713253,249150,1527581,73871,9843,763754,0
1,1,716114,250739,1411737,74557,8990,705884,0
1,1,734770,254108,1335210,77271,10033,667467,0
1,1,737984,254025,1390767,77259,10154,695151,0
1,1,715877,248394,1382532,73536,9230,691081,0
1,1,729721,253360,1375257,77020,9905,687594,0
1,1,714930,250745,1435260,74556,10216,717567,0
1,1,708866,249078,1328175,73833,9756,663869,0
1,1,711050,249536,1321550,74162,9422,660786,0
1,1,715933,250736,1463424,74662,9831,731821,0
1,1,709412,248106,1408517,73722,9835,704273,0
1,1,714527,250402,1384164,74646,9430,692129,0
1,1,710720,249034,1450015,73880,9687,724907,0
1,1,714623,250429,1302053,74571,8976,650882,0
1,1,711698,248472,1481125,73700,9688,740430,0
1,1,715183,250202,1423859,74447,9546,711898,0
1,1,710803,249013,1409019,73916,9991,704583,0
1,1,710862,247917,1336379,73592,9588,667923,0
1,1,707691,248378,1331763,73775,9471,665827,0
1,1,707846,247961,1417252,73538,9268,708377,0
1,1,709417,248954,1403197,74081,9186,701531,0
1,1,708875,248106,1377933,73557,9021,688976,0
1,1,708836,247919,1491476,73590,9119,745548,0
1,1,710633,247574,1313962,73426,10097,656986,0
1,1,708424,248091,1298900,73735,9107,649464,0
1,1,707786,247672,1481729,73518,9492,740904,0
1,1,717094,250472,1380142,74705,9737,690144,0
1,1,709891,247793,1490572,73603,9816,745030,0
1,1,732758,253170,1347711,77048,10542,673554,0
1,1,713151,247845,1379063,73467,9787,689501,0
1,1,706904,248771,1421322,73997,9505,710413,0
1,1,709076,248742,1499205,73812,9537,749557,0
1,1,707682,248269,1432928,73745,9575,716409,0
1,1,732834,256371,1431562,76085,10340,715817,0
1,1,706456,247608,1457255,73526,9961,728488,0
1,1,713606,249501,1410750,74315,9572,705374,0
1,1,729752,252778,1473240,76995,10146,736588,0
1,1,708206,247463,1316953,73395,8678,658382,0
1,1,705359,246732,1228851,73161,8585,614408,0
1,1,712582,248408,1317216,73748,10284,658628,0
1,1,711780,248200,1413636,73686,9220,706787,0
1,1,707424,248261,1303507,73606,9259,651772,0
1,1,731085,253149,1356567,77012,9027,678195,0
1,1,707881,247523,1392466,73415,9035,696248,0
1,1,731374,253066,1284745,76904,9849,642400,0
1,1,709693,248325,1408629,73497,9397,704336,0
1,1,712000,248467,1414344,73539,8886,707183,0
1,1,710509,247592,1306817,73266,9257,653400,0
1,1,709275,248015,1419423,73408,9179,709709,0
1,1,709840,247573,1356195,73217,9859,678076,0
1,1,718305,250379,1395949,74342,9417,697937,0
1,1,711322,248809,1345442,73774,9442,672686,0
1,1,711412,248032,1334820,73490,8977,667515,0
1,1,713304,248226,1415085,73572,9298,707298,0
1,1,706842,248943,1365398,73801,8443,682625,0
1,1,711075,249272,1385224,73950,9061,692573,0
1,1,711454,249723,1283552,74379,8803,641670,0
1,1,725484,252573,1339577,76838,9770,669703,0
1,1,733735,256673,1413138,76085,9430,706514,0
1,1,716402,250426,1432636,74632,8960,716289,0
1,1,705281,247477,1385825,73399,8919,692887,0
1,1,709252,247952,1284902,73587,8415,642406,0
1,1,707573,247216,1297486,73271,8629,648746,0
1,1,708782,248062,1479757,73571,9208,739931,0
1,1,708513,247867,1311033,73463,8652,655544,0
1,1,713768,249417,1390388,74256,9091,695150,0
1,1,704945,247459,1224233,73303,8522,612076,0
1,1,708643,248226,1301020,73638,8281,650499,0
1,1,709458,247555,1324323,73370,8769,662401,0
1,1,706763,247860,1300347,73538,8441,650119,0
1,1,706123,246859,1296283,73150,8438,648165,0
1,1,709183,247819,1398798,73444,8679,699373,0
1,1,731036,252092,1320232,76692,10127,660005,0
1,1,711115,247765,1404282,73392,9608,702102,0
1,1,729171,252361,1481313,76717,9509,740606,0
1,1,707482,247192,1427022,73261,8993,713512,0
1,1,707296,247089,1408860,73250,9242,704237,0
1,1,717078,250034,1354356,74455,9591,677321,0
1,1,711282,247898,1297782,73553,9599,648884,0
1,1,715678,250040,1345030,74403,9672,672486,0
1,1,712760,247068,1286176,73222,8170,643132,0
1,1,710475,249266,1370879,74133,8348,685415,0
1,1,708241,247644,1372588,73445,8332,686244,0
1,1,707583,247221,1404701,73259,8722,702351,0
1,1,706897,247180,1261893,73266,8782,630857,0
1,1,708539,247537,1325932,73375,9293,662596,0
1,1,710855,249561,1370283,74271,9467,685440,0
1,1,706348,247093,1426759,73222,8823,713362,0
1,1,711301,247687,1481141,73414,9291,740193,0
1,1,708802,247522,1448908,73418,8867,724471,0
1,1,710841,247709,1289589,73486,8428,644790,0
1,1,708670,247265,1289277,73237,8179,644624,0
1,1,707865,246705,1338986,73157,8474,669451,0
1,1,730990,252177,1382155,76714,9781,691027,0
1,1,712345,247721,1310706,73444,8603,655347,0
1,1,705648,247288,1380359,73298,8529,690210,0
1,1,708265,247425,1390581,73337,8478,695247,0
1,1,708946,247721,1446989,73514,8393,723432,0
1,1,714796,250007,1251367,74436,8092,625586,0
1,1,706854,247226,1231016,73283,7682,615495,0
1,1,708198,247073,1360777,73225,8289,680391,0
1,1,715170,249808,1406179,74428,8134,703052,0
1,1,733553,252112,1435234,76677,9910,717639,0
1,1,710727,248436,1278183,73814,7806,639055,0
1,1,710319,247412,1275283,73320,8041,637600,0
1,1,708534,247171,1285601,73172,7939,642751,0
1,1,712691,247604,1352276,73356,7893,676140,0
1,1,714276,248081,1373322,73518,7743,686642,0
1,1,697333,247298,1335400,72808,7521,667616,0
1,1,702449,247504,1419651,72884,7812,709825,0
1,1,704445,247937,1347183,73062,8156,673406,0
1,1,702358,247732,1345089,72938,8659,672554,0
1,1,712489,250478,1317715,74164,8165,658841,0
1,1,703260,248541,1291165,73417,8959,645577,0
1,1,704041,247781,1313764,73009,8279,656836,0
1,1,724823,252122,1389588,76137,8595,694752,0
1,1,705501,247782,1348990,73076,8440,674500,0
1,1,705470,247189,1376147,72935,8040,688060,0
1,1,707291,248399,1311487,73440,8415,655703,0
1,1,700697,247169,1237916,72950,8711,618925,0
1,1,703732,247612,1371026,73136,8775,685503,0
1,1,702466,247132,1478317,72882,9023,739173,0
1,1,726643,251929,1417999,76307,9150,708887,0
1,1,724425,251710,1434750,76214,9168,717307,0
1,1,706499,248356,1350883,73365,8661,675388,0
1,1,707454,247225,1303013,73702,9366,651537,0
1,1,712099,248943,1316416,74531,8831,658191,0
1,1,705703,247299,1379065,73772,9070,689525,0
1,1,708469,247309,1387837,73841,9314,693923,0
1,1,709570,247160,1300076,73761,9940,649963,0
1,1,707349,247166,1230428,73767,8803,615149,0
1,1,707286,248725,1325776,74478,8451,662768,0
1,1,711404,249398,1306638,74635,9066,653330,0
1,1,705666,247342,1352228,73884,8670,676108,0
1,1,714095,249417,1263824,74639,9172,631894,0
1,1,706382,247085,1411541,73709,8194,705851,0
1,1,705589,247392,1389058,73824,8605,694385,0
1,1,706465,247866,1266985,73931,8718,633484,0
1,1,707489,246838,1278320,73657,8594,639291,0
1,1,709121,247134,1431778,73747,9131,715908,0
1,1,707017,247287,1274968,73828,8100,637523,0
1,1,728134,251590,1415494,77045,9514,707633,0
1,1,713267,248884,1296603,74511,8332,648399,0
1,1,704399,246852,1284366,73613,8924,642156,0
1,1,708523,247605,1288117,73926,8805,644084,0
1,1,709820,247569,1460919,73845,10002,730898,0
1,1,708586,247419,1444178,73806,9347,722125,0
1,1,712128,249061,1305398,74563,8073,652764,0
1,1,707005,247859,1324143,74043,8240,661969,0
1,1,711134,248077,1346823,74086,11011,673647,0
1,1,710610,247981,1373436,74005,9471,686767,0
1,1,707447,247431,1434821,73829,8988,717390,0
1,1,710277,247225,1404055,73746,9271,702038,0
1,1,710003,247447,1467937,73833,9349,734005,0
1,1,713836,247717,1433296,73865,9263,716629,0
1,1,703018,246743,1354697,73566,9683,677388,0
1,1,704316,246752,1408925,73589,10074,704502,0
1,1,727407,252159,1518041,77229,11034,759052,0
1,1,711178,248761,1430688,74239,10143,715071,0
1,1,709135,248702,1434273,74240,9576,716650,0
1,1,704793,247109,1312016,73773,9204,655993,0
1,1,728117,251666,1423002,77032,10291,711587,0
1,1,707555,248581,1295856,74401,9237,648043,0
1,1,707086,247679,1374807,73942,10047,687059,0
1,1,705330,246524,1492251,73464,9999,746210,0
1,1,709919,249217,1278075,74721,8617,638685,0
1,1,729139,252001,1475798,77175,10049,737865,0
1,1,709943,247277,1382383,73777,8793,691285,0
1,1,710977,248911,1371729,74463,9292,685924,0
1,1,707151,246595,1429044,73439,8995,714554,0
1,1,711232,248808,1313020,74480,8304,656574,0
1,1,707971,247078,1264816,73702,8740,632176,0
1,1,710410,247381,1334930,73905,9370,667624,0
1,1,712810,249675,1321270,74819,8489,660729,0
1,1,710018,247956,1534600,74056,9746,767253,0
1,1,713519,249734,1288782,74862,8333,644449,0
1,1,710523,247687,1301221,73892,7893,650633,0
1,1,707695,247712,1289472,73947,8415,644776,0
1,1,715279,249435,1355081,74766,10872,677559,0
1,1,711396,247872,1330109,73937,8082,665088,0
1,1,712347,247888,1474640,74066,11239,736945,0
1,1,704582,247201,1564190,73729,10842,782092,0
1,1,703090,246485,1342197,73440,8259,671055,0
1,1,710737,247915,1398949,73970,9277,699506,0
1,1,709099,247597,1489142,73825,10517,744606,0
1,1,709532,247574,1362359,73838,8189,681267,0
1,1,712583,248133,1414900,73920,9245,707485,0
1,1,710872,249386,1296015,74562,8842,648051,0
1,1,707507,247483,1366200,73746,8128,683137,0
1,1,709015,247780,1280412,73840,8064,640236,0
1,1,714546,249279,1243968,74698,8258,622066,0
1,1,713767,249316,1313834,74731,9051,656938,0
1,1,708361,247512,1377687,73857,8387,688882,0
1,1,706324,247327,1310895,73753,9083,655448,0
1,1,729642,252276,1507941,77073,10641,753593,0
1,1,709521,247837,1334444,73901,9986,666727,0
1,1,716073,250116,1411530,74819,10460,705804,0
1,1,711710,247168,1347837,73622,9229,673962,0
1,1,712086,247478,1354235,73733,9162,677107,0
1,1,712982,249015,1334802,74537,8842,667412,0
1,1,711698,247740,1211941,73887,8704,605986,0
1,1,714148,248373,1365326,74106,8681,682739,0
1,1,715410,249442,1267625,74739,9061,633922,0
1,1,732800,252380,1415136,77318,10096,707550,0
1,1,717394,248847,1424669,74368,8734,712376,0
1,1,708448,249176,1225567,74699,8487,612758,0
1,1,730371,253534,1479791,77733,10064,739945,0
1,1,731215,253155,1438335,77537,10402,719179,0
1,1,707467,248694,1274133,74261,7845,637116,0
1,1,713252,249888,1347318,74848,9175,673715,0
1,1,709712,248636,1371174,74271,8293,685623,0
1,1,712841,249358,1393692,74518,8886,696860,0
1,1,707657,248059,1300109,74164,8590,650022,0
1,1,711977,248856,1384661,74467,9217,692381,0
1,1,731507,253108,1652089,77606,11280,825976,0
1,1,729409,252788,1461521,77448,10878,730698,0
1,1,711968,248220,1422016,74161,8924,711128,0
1,1,713749,248906,1368491,74343,8791,684260,0
1,1,706046,248036,1351841,74207,8654,675988,0
1,1,710669,248472,1288046,74175,8352,643946,0
1,1,710430,248457,1395787,74167,9069,697833,0
1,1,712463,248576,1434453,74270,10290,717201,0
1,1,714655,249797,1308279,74798,8759,654184,0
1,1,716667,250478,1407978,75123,9671,703892,0
1,1,714242,249697,1299784,74787,8335,649730,0
1,1,708749,248395,1399270,74078,9275,699667,0
1,1,712101,248314,1326071,74109,9078,663070,0
1,1,713501,249519,1293148,74719,9166,646638,0
1,1,714766,249726,1316192,74780,8481,658158,0
1,1,717105,249073,1297903,74416,8995,649003,0
1,1,725961,251733,1448045,77000,9744,724071,0
1,1,712065,249203,1280049,74373,7831,640066,0
1,1,713517,249472,1314338,74402,8258,657148,0
1,1,711762,249560,1334585,74527,9254,667073,0
1,1,712234,248711,1441707,74086,9131,720885,0
1,1,713294,248828,1440896,74094,9689,720145,0
1,1,714606,248888,1435673,74134,9794,717900,0
1,1,711558,248667,1401396,73996,9905,699926,0
1,1,712196,249189,1591019,74213,9795,795520,0
1,1,711050,247798,1357944,73757,9160,679048,0
1,1,712508,248360,1462647,73987,9758,731219,0
1,1,713132,248837,1414753,74151,9294,707363,0
1,1,712382,250140,1334733,74842,9375,667523,0
1,1,716274,250403,1487716,74973,9459,743846,0
1,1,710224,247658,1322062,73876,9003,661080,0
1,1,715301,249686,1281354,74714,8245,640717,0
1,1,713732,248770,1379257,74226,8309,689657,0
1,1,714693,249663,1304325,74744,8769,652242,0
1,1,710651,248225,1364838,74055,8428,682406,0
1,1,735501,253340,1339704,77447,10321,669654,0
1,1,711166,248301,1368873,74030,8754,684457,0
1,1,717585,249734,1320094,74696,8627,659735,0
1,1,713567,247981,1314705,73907,9083,657387,0
1,1,707417,248664,1268821,74127,8447,634457,0
1,1,714117,250363,1304633,75025,8997,652211,0
1,1,708058,248051,1301515,73945,9046,650803,0
1,1,713354,249222,1293534,74546,9079,646829,0
1,1,709762,248546,1385198,74104,9120,692555,0
1,1,734627,253094,1460665,77365,10180,730304,0
1,1,715522,249576,1314956,74460,9253,657568,0
1,1,734339,254213,1441867,77785,10109,720914,0
1,1,733291,253649,1379651,77599,9584,689869,0
1,1,713422,248117,1420053,73908,9343,710055,0
1,1,711889,248140,1297481,74057,7644,648786,0
1,1,710585,247656,1316440,73843,7813,658244,0
1,1,713119,247921,1408192,73974,9184,704016,0
1,1,712603,248353,1322524,74197,9129,661281,0
1,1,715033,248900,1415723,74327,9210,707665,0
1,1,716760,249597,1405312,74688,9993,702471,0
1,1,714676,249244,1390224,74290,9923,695151,0
1,1,717547,249979,1378997,74802,8217,689576,0
1,1,713231,249069,1264245,74208,9018,632111,0
1,1,714128,248809,1386243,74183,9081,693159,0
1,1,714597,248826,1485197,74201,9233,742554,0
1,1,712600,248589,1429115,74123,8721,714586,0
1,1,735305,253172,1517268,77386,10654,758641,0
1,1,737110,252939,1407823,77314,9995,703524,0
1,1,706628,247772,1385289,73797,9088,692690,0
1,1,707363,247785,1318730,73787,9331,659478,0
1,1,712650,249660,1424735,74669,9358,712287,0
1,1,713054,247789,1379529,73803,9661,689803,0
1,1,711500,248165,1340981,73956,9374,670358,0
1,1,733931,252942,1484599,77307,10176,742102,0
1,1,712642,247764,1391844,73781,9625,695404,0
1,1,713722,249384,1416620,74505,10007,708408,0
1,1,717011,250281,1406370,74892,9106,703299,0
1,1,735264,252709,1431859,77249,10063,715918,0
1,1,710415,247846,1238943,73929,8560,619506,0
1,1,717318,248964,1534872,74478,10293,767252,0
1,1,712671,247336,1569263,73803,10465,784092,0
1,1,706179,246567,1382809,73626,8535,691438,0
1,1,708357,246835,1313393,73722,9673,656730,0
1,1,732075,252434,1444268,77419,9317,722132,0
1,1,708420,246977,1432349,73814,9283,716186,0
1,1,711653,247288,1441042,73899,8957,720535,0
1,1,711951,247240,1369328,73876,9135,684719,0
1,1,714464,247822,1381766,74117,8892,690911,0
1,1,732496,252146,1414582,77324,9640,707227,0
1,1,713119,247056,1295527,73868,9368,647806,0
1,1,737698,253534,1446241,78329,9748,723140,0
1,1,732510,251817,1323025,77252,9657,661520,0
1,1,712275,247037,1228598,73867,8368,614349,0
1,1,704955,247619,1474715,73976,10291,737695,0
1,1,709502,249145,1432222,74783,9539,716014,0
1,1,726402,252046,1562857,77232,10503,781499,0
1,1,706532,247227,1341399,73920,9067,670728,0
1,1,704258,246784,1362000,73747,8545,681007,0
1,1,712538,249154,1431566,74828,9223,715857,0
1,1,703536,246729,1513100,73694,9820,756560,0
1,1,707653,247410,1510515,73978,8671,755304,0
1,1,708925,247616,1430299,74020,8357,715161,0
1,1,705282,246569,1348961,73681,8283,674498,0
1,1,714817,249842,1462181,75015,8632,731144,0
1,1,714213,249648,1292247,74828,8081,646193,0
1,1,707270,246472,1378249,73479,8461,689175,0
1,1,702683,246943,1358274,73706,8356,679179,0
1,1,706147,247394,1376804,73775,8142,688446,0
1,1,708127,247610,1372833,73941,8994,686443,0
2,1,764494,267867,1426459,79239,11034,713049,0
2,1,760858,266047,1380190,78479,10057,690222,0
2,1,762144,266369,1398424,78563,9070,699156,0
2,1,753971,264713,1375772,78038,8970,687804,0
2,1,757829,265912,1376347,78443,9376,688089,0
2,1,758704,266583,1467302,78683,8666,733582,1
2,1,757346,265344,1414961,78246,8840,707448,0
2,1,766782,267688,1463866,79206,9390,731603,0
2,1,779902,270075,1655349,81501,10141,827884,0
2,1,721973,253703,1425725,74841,9037,712791,0
2,1,710065,248484,1420552,73756,9362,710059,0
2,1,705661,247528,1348628,73511,8944,674072,0
2,1,733409,256920,1368982,76261,9162,684400,0
2,1,705486,247614,1389318,73426,9077,694536,0
2,1,705473,246835,1403337,73277,9290,701684,0
2,1,705937,247596,1367483,73459,8759,683695,0
2,1,705493,247678,1357109,73379,9009,678679,0
2,1,730269,252476,1430238,76801,10191,714994,0
2,1,713453,249495,1449877,74334,9440,724967,0
2,1,711807,249509,1428927,74319,9044,714434,0
2,1,705666,247132,1255678,73329,8482,627722,0
2,1,729213,252086,1354044,76821,10011,676914,0
2,1,706776,246771,1354757,73259,8913,677359,0
2,1,710231,247424,1411568,73502,9445,705852,0
2,1,702758,247494,1368236,73508,9149,683901,0
2,1,705073,248086,1322926,73669,8313,661511,0
2,1,707203,248539,1319951,74036,8627,659838,0
2,1,704248,246821,1453919,73284,9147,726976,0
2,1,709145,249466,1448406,74368,9165,724198,0
2,1,704010,246600,1382828,73174,9294,691362,0
2,1,706064,247200,1353018,73410,9036,676531,0
2,1,703055,246809,1354038,73260,8356,677104,0
2,1,705951,247135,1349063,73338,8723,674454,0
2,1,705514,247202,1355031,73434,9117,677430,0
2,1,709030,249622,1418514,74500,9333,709331,0
2,1,705568,247343,1374591,73547,9314,687327,0
2,1,706385,247523,1337408,73478,8509,668834,0
2,1,709281,248209,1436274,73749,10047,718195,0
2,1,709748,247871,1447878,73707,9505,723809,0
2,1,713652,249688,1420599,74461,9364,710093,0
2,1,707948,248642,1306870,74028,8812,653556,0
2,1,709627,248218,1392833,73648,8125,696449,0
2,1,711637,249421,1402993,74219,9302,701367,0
2,1,710424,248140,1429717,73541,8901,714742,0
2,1,713547,248422,1510785,73669,8883,755366,0
2,1,712458,247683,1398281,73395,9541,699123,0
2,1,704115,247372,1290191,73363,9550,645066,0
2,1,706759,247836,1352846,73585,9033,676181,0
2,1,709564,249345,1441754,74230,9900,720836,0
2,1,709735,247515,1407644,73462,9132,703798,0
2,1,731517,252203,1294921,76891,10334,647421,0
2,1,704019,246730,1368287,73359,8755,684139,0
2,1,706539,247784,1389496,73751,9251,694750,0
2,1,708692,247791,1377035,73748,9579,688542,0
2,1,709035,248490,1409178,73958,8490,704593,0
2,1,714432,249426,1412294,74436,10044,706075,0
2,1,709801,247561,1272620,73569,8753,636350,0
2,1,710643,249508,1332962,74448,9419,666373,0
2,1,710059,248348,1512201,73894,10159,755758,0
2,1,714678,249660,1496857,74494,10339,748350,0
2,1,728573,252523,1354632,77066,9237,677308,0
2,1,712997,249357,1437625,74412,9870,718818,0
2,1,708278,247634,1308647,73640,8261,654291,0
2,1,710074,248042,1308255,73780,9518,654022,0
2,1,713933,250053,1503450,74622,10578,751744,0
2,1,711985,249211,1581162,74433,10513,790921,0
2,1,708272,247660,1412898,73646,9524,706085,0
2,1,709612,247535,1606502,73597,10118,803028,0
2,1,710979,247828,1452176,73728,10319,725694,0
2,1,711221,247923,1377010,73762,10248,688553,0
2,1,712692,248508,1500037,74128,10802,749881,0
2,1,714250,248035,1403613,73822,9412,701771,0
2,1,701429,247853,1330789,73671,8950,665447,0
2,1,700697,247241,1357070,73465,9331,678557,0
2,1,706603,248716,1519094,73999,10639,759337,0
2,1,701080,247133,1648657,73464,10259,824080,0
2,1,708970,249421,1438575,74482,10123,719135,0
2,1,707433,248421,1415695,73879,9362,707355,0
2,1,702375,248072,1484184,73815,9799,741671,0
2,1,706225,248253,1370945,73872,9615,685293,0
2,1,703546,247302,1294633,73529,9113,647300,0
2,1,706346,248189,1343607,73805,8529,671609,0
2,1,704129,247586,1288112,73663,8838,644125,0
2,1,707305,247171,1446756,73493,8802,723406,0
2,1,706688,247575,1416419,73611,8702,708191,0
2,1,710060,248521,1421672,73948,9314,710834,0
2,1,706713,248459,1302024,73906,9492,651029,0
2,1,705303,247809,1411828,73653,8601,705837,0
2,1,703383,247566,1394390,73538,9150,697154,0
2,1,706693,248598,1390953,73893,9399,695336,0
2,1,710972,250101,1516854,74610,9097,758463,0
2,1,709844,248474,1305119,73861,8572,652585,0
2,1,703275,247599,1240102,73452,8858,620138,0
2,1,728946,252682,1305737,77021,10339,652872,0
2,1,707217,248242,1610369,73707,10360,805195,0
2,1,709053,248293,1472537,73749,10238,736364,0
2,1,706922,247899,1375370,73591,9725,687431,0
2,1,712613,249767,1576232,74462,10032,787161,0
2,1,713667,249250,1366287,74248,10373,683098,0
2,1,704901,248627,1373534,73899,9283,686715,0
2,1,705975,247935,1385273,73623,8960,692459,0
2,1,705423,247989,1573165,73648,9067,786807,0
2,1,705789,247522,1300125,73505,9297,649941,0
2,1,711325,249908,1444796,74556,9662,722520,0
2,1,705119,248489,1402758,73855,8774,701467,0
2,1,706403,247694,1324723,73555,8755,662116,0
2,1,727909,252372,1387381,76824,10339,693518,0
2,1,728626,253032,1310365,77121,9768,655145,0
2,1,710652,248220,1309535,73793,8999,654781,0
2,1,706752,248454,1335972,73845,9384,667849,0
2,1,706664,248110,1339163,73690,9387,669512,0
2,1,703968,247493,1307181,73475,8536,653760,0
2,1,708558,248165,1323603,73729,8728,661790,0
2,1,708490,248258,1323417,73758,9439,661566,0
2,1,705265,247772,1256625,73592,9301,628478,0
2,1,712383,249496,1419708,74380,9656,709799,0
2,1,712308,249079,1420849,74218,9662,710261,0
2,1,712224,248583,1412947,73852,8868,706508,0
2,1,710298,248205,1358752,73799,8973,679075,0
2,1,702142,247617,1308611,73505,8633,654030,0
2,1,702783,248049,1371794,73696,8197,685870,0
2,1,707901,248794,1438390,74070,9277,719013,0
2,1,705258,248167,1364575,73713,8179,682400,0
2,1,725951,252173,1413701,76811,9605,706529,0
2,1,728047,252795,1293305,77071,9422,646560,0
2,1,704408,248168,1269510,73776,9047,634531,0
2,1,710337,249799,1434516,74470,9543,717036,0
2,1,706004,247785,1353057,73606,8967,676400,0
2,1,708722,248253,1416175,73717,9580,708043,0
2,1,728643,252512,1392606,76919,9802,696185,0
2,1,709897,248475,1266946,73821,8902,633371,0
2,1,711927,248826,1436907,73976,8180,718263,0
2,1,705974,247929,1322748,73613,8616,661199,0
2,1,710756,249321,1495926,74276,9695,747811,0
2,1,711346,250222,1440531,74559,9970,720136,0
2,1,709245,248572,1408497,73735,8483,704142,0
2,1,710022,249476,1360483,74186,9602,680388,0
2,1,713189,250405,1385031,74596,9051,692205,0
2,1,709181,249021,1428753,74109,9196,714296,0
2,1,709558,248422,1341879,73680,9037,670766,0
2,1,728171,253151,1417761,77010,9301,708453,0
2,1,710077,248531,1454668,73741,10114,727346,0
2,1,733731,253417,1322629,77132,9610,661077,0
2,1,708721,248264,1328665,73643,8761,664454,0
2,1,715361,249272,1310653,74108,9676,655204,0
2,1,710926,247776,1338250,73526,9152,669084,0
2,1,707400,248203,1297159,73655,8739,648081,0
2,1,707640,248378,1344590,73738,8086,672195,0
2,1,730108,253287,1374541,77078,9567,687306,0
2,1,706090,247855,1442962,73443,8632,721163,0
2,1,711048,248777,1324957,73731,9416,662619,0
2,1,709386,248212,1329069,73629,8990,664516,0
2,1,714650,249473,1531613,74014,9379,765749,0
2,1,708829,247887,1473016,73521,8778,736386,0
2,1,713607,249792,1418617,74332,9637,709318,0
2,1,712260,248667,1506392,73719,9771,752981,0
2,1,711779,248284,1301952,73736,9471,651061,0
2,1,716571,250709,1414748,74686,9419,707259,0
2,1,715012,248904,1423872,73864,8463,711638,0
2,1,712257,249276,1362778,74099,9051,681295,0
2,1,733645,253419,1372465,77292,9759,686273,0
2,1,715400,249432,1346250,74220,10286,673010,0
2,1,717073,250618,1424493,74693,9432,712232,0
2,1,712610,248902,1433185,73764,9587,716471,0
2,1,714369,250016,1398473,74218,9379,699076,0
2,1,716702,249733,1338732,74056,9207,669343,0
2,1,714113,248967,1321704,73996,9399,660748,0
2,1,716466,249670,1435384,74005,10123,717685,0
2,1,715910,249102,1312246,73822,9077,656154,0
2,1,707845,249340,1326174,73832,9083,663123,0
2,1,709378,249112,1335676,73812,9377,667863,0
2,1,711507,249396,1281936,73972,9486,640931,0
2,1,711841,250694,1390507,74692,9506,695151,0
2,1,710311,249319,1408839,74019,9412,704381,0
2,1,708923,247773,1316489,73479,8844,658162,0
2,1,708203,248270,1302474,73676,9471,651104,0
2,1,710869,249009,1408042,73833,9564,704085,0
2,1,732395,254054,1303453,77278,9902,651784,0
2,1,709996,248176,1441148,73559,8894,720519,0
2,1,711130,249034,1335506,73907,9405,667638,0
2,1,709395,247750,1400016,73510,9110,700103,0
2,1,710280,247993,1332198,73583,9537,666094,0
2,1,708646,248681,1369110,73827,9430,684357,0
2,1,707486,247848,1417097,73490,9172,708548,0
2,1,706417,247685,1329234,73474,8742,664570,0
2,1,714144,250060,1384001,74492,9122,691851,0
2,1,706967,247651,1365652,73491,8624,682752,0
2,1,706208,247093,1382101,73226,9488,691079,0
2,1,729127,252973,1323768,77076,10501,661719,0
2,1,706638,247487,1437627,73443,9498,718720,0
2,1,733253,253260,1368079,77157,10033,684077,0
2,1,709582,248039,1341212,73640,9887,670479,0
2,1,713055,248856,1459393,74031,10368,729622,0
2,1,713713,248784,1394615,74004,10302,697215,0
2,1,707531,248231,1361509,73643,9974,680086,0
2,1,710477,249111,1395748,74138,9331,697843,0
2,1,711365,248507,1489835,73792,9721,744868,0
2,1,706224,247578,1303179,73455,9508,651740,0
2,1,704274,247162,1364544,73332,8528,682210,0
2,1,708700,247948,1310617,73615,9548,655183,0
2,1,705733,247531,1411777,73475,9529,705873,0
2,1,710433,248808,1397484,74036,9319,698386,0
2,1,708678,248338,1304333,73714,9085,652245,0
2,1,712483,248927,1326735,74023,9770,663169,0
2,1,711697,247928,1415823,73542,9984,707693,0
2,1,706059,248121,1462363,73545,9321,731219,0
2,1,709324,248568,1410556,73747,8498,705196,0
2,1,712767,249639,1440196,74251,9096,720124,0
2,1,710548,248905,1341953,73721,9415,670529,0
2,1,711332,248299,1304968,73536,9013,652522,0
2,1,717026,250920,1382630,74584,8797,691422,0
2,1,712171,248430,1375950,73582,9879,687925,0
2,1,708805,248072,1423966,73392,9950,711946,0
2,1,709337,247556,1298396,73181,9006,649211,0
2,1,710318,247718,1377398,73252,8597,688701,0
2,1,712376,247784,1298938,73312,9572,649438,0
2,1,710832,247818,1430540,73364,9353,715297,0
2,1,711859,247997,1335255,73439,9060,667564,0
2,1,706037,247939,1496862,73391,8534,748430,0
2,1,706168,247700,1282038,73474,8609,641032,0
2,1,727952,252794,1278574,76912,9288,639150,0
2,1,708749,248051,1465140,73562,9344,732558,0
2,1,707863,247942,1506417,73523,8873,753223,0
2,1,729316,252229,1335170,76721,9385,667446,0
2,1,705078,247387,1263171,73315,8174,631568,0
2,1,705235,247387,1257643,73332,8064,628798,0
2,1,710149,247931,1453293,73571,9257,726663,0
2,1,710931,248515,1359462,73920,8618,679714,0
2,1,729677,252049,1374258,76689,9889,687102,0
2,1,731724,252853,1479639,76928,10227,739765,0
2,1,704649,247816,1297485,73481,8676,648751,0
2,1,704693,246984,1388203,73132,8876,694061,0
2,1,710508,249318,1375717,74171,8801,687857,0
2,1,705797,247291,1397362,73306,8956,698676,0
2,1,708272,247660,1397160,73452,9216,698584,0
2,1,713506,249468,1384224,74268,8947,692132,0
2,1,707927,247363,1331242,73322,8530,665682,0
2,1,709865,247711,1302006,73474,8625,651004,0
2,1,704714,246908,1482709,73239,9010,741291,0
2,1,713525,249591,1334323,74237,8365,667162,0
2,1,708742,247441,1336659,73374,8616,668326,0
2,1,711567,247992,1385013,73546,8689,692515,0
2,1,708343,247657,1414041,73468,9116,706743,0
2,1,711768,247792,1297262,73454,9346,648585,0
2,1,712439,247654,1241304,73472,8821,620538,0
2,1,709281,248824,1320085,73819,8556,660064,0
2,1,705867,247400,1274768,73414,8100,637132,0
2,1,712569,249254,1460316,74215,8701,730130,0
2,1,708235,247753,1410054,73433,8599,704997,0
2,1,710153,247621,1215016,73430,8565,607391,0
2,1,712768,247785,1450324,73507,9538,724783,0
2,1,707508,247500,1453719,73357,8970,726166,0
2,1,729471,252170,1482397,76676,9551,741114,0
2,1,708978,247176,1360908,73197,9151,680413,0
2,1,709014,247017,1382641,73212,9144,691279,0
2,1,708017,247598,1366908,73426,8355,683421,0
2,1,709505,247727,1289208,73482,8457,644476,0
2,1,708182,247296,1386977,73341,8674,693460,0
2,1,710734,246893,1443878,73125,8641,721956,0
2,1,714228,249858,1336009,74404,8268,667945,0
2,1,713582,249623,1353409,74250,8062,676605,0
2,1,713268,249526,1314252,74239,8513,657224,0
2,1,731333,252369,1433193,76709,9192,716436,0
2,1,715264,248592,1263308,73937,8760,631550,0
2,1,708622,247341,1273504,73301,8034,636807,0
2,1,712272,247845,1317386,73473,8467,658726,0
2,1,711265,247403,1292443,73323,8471,646221,0
2,1,707378,247515,1360826,73289,8287,680309,0
2,1,712953,248727,1325001,73750,8100,662427,0
2,1,712297,247361,1289312,73245,8542,644514,0
2,1,711877,247579,1363661,73305,7541,681801,0
2,1,710562,246758,1303905,73001,7322,651937,0
2,1,714759,247571,1434648,73313,7616,717309,0
2,1,701892,247677,1349492,72987,7691,674712,0
2,1,704530,247736,1328044,72938,8456,664007,0
2,1,703350,248138,1348803,73110,8263,674369,0
2,1,724481,251991,1400788,76157,9047,700404,0
2,1,729902,256427,1338913,75475,8011,669407,0
2,1,704312,248023,1388803,73116,8822,694348,0
2,1,700060,246980,1220199,72702,8607,610100,0
2,1,708942,249133,1269564,73725,8184,634751,0
2,1,704533,247663,1434041,73119,8255,716981,0
2,1,704222,247533,1360018,73058,8455,680017,0
2,1,699842,247218,1284530,72972,9177,642223,0
2,1,701981,247529,1220259,73125,8454,610049,0
2,1,710462,250282,1395203,74179,8652,697661,0
2,1,710667,250009,1310309,74034,8601,655112,0
2,1,703781,247502,1312575,73047,8532,656303,0
2,1,706576,247557,1305187,73046,8585,652545,0
2,1,709190,247974,1298885,74259,9145,649384,0
2,1,706218,247273,1414711,73788,8894,707378,0
2,1,711592,247746,1443429,73899,9187,721720,0
2,1,710144,247919,1431203,73999,9320,715613,0
2,1,709117,247350,1241319,73869,9595,620558,0
2,1,711664,247672,1307739,73900,9454,653859,0
2,1,704154,246757,1343921,73567,9179,671980,0
2,1,704126,247349,1281316,73813,8632,640590,0
2,1,705011,247470,1355475,73881,9116,677755,0
2,1,709486,248037,1374867,74080,9228,687425,0
2,1,728584,252426,1417213,77305,9836,708582,0
2,1,708172,247312,1378652,73853,8638,689317,0
2,1,707793,247605,1395197,73888,8914,697585,0
2,1,710125,248390,1425756,74176,9257,712909,0
2,1,709932,247788,1294057,74006,8859,647028,0
2,1,707315,247790,1408599,73880,8384,704296,0
2,1,706363,247191,1298210,73762,8296,649128,0
2,1,710186,247656,1382616,73877,8495,691301,0
2,1,709004,248502,1282259,74386,7943,641146,0
2,1,708988,247801,1401212,73940,9316,700646,0
2,1,710827,248957,1296137,74529,9578,647986,0
2,1,715438,250576,1378399,75173,9136,688901,0
2,1,709618,247343,1409653,73824,9314,704831,0
2,1,744586,258958,1568294,77616,11446,783648,0
2,1,708678,247519,1320370,73859,9380,660225,0
2,1,713885,249381,1366740,74704,9428,683425,0
2,1,712565,247965,1488424,73971,10236,744238,0
2,1,711533,248052,1543582,74003,9195,771826,0
2,1,713878,249566,1346847,74779,9208,673473,0
2,1,731520,251692,1566819,76986,10373,783515,0
2,1,706397,248365,1446652,74137,10128,723355,0
2,1,707378,247910,1538646,73924,10423,769204,0
2,1,704215,247623,1414821,73942,9269,707449,0
2,1,708067,247798,1450429,73980,9684,725254,0
2,1,708822,248642,1394134,74378,9174,697125,0
2,1,706206,248003,1428350,73978,9530,714013,0
2,1,708132,247648,1389470,73885,9420,694715,0
2,1,731254,256930,1461778,76710,10603,730900,0
2,1,712022,248938,1310350,74520,8999,654975,0
2,1,711192,249133,1414021,74637,9835,706825,0
2,1,725764,251634,1531629,76998,10778,765766,0
2,1,709317,247603,1351217,73912,7948,675693,0
2,1,709446,247344,1300525,73735,8152,649898,0
2,1,707630,247904,1455815,73954,9237,727891,0
2,1,708430,248175,1460210,74021,8814,730031,0
2,1,707444,247549,1377766,73872,9055,688927,0
2,1,710604,248249,1303674,74126,9554,651915,0
2,1,709794,247543,1444297,73863,9932,721980,0
2,1,727906,252256,1486968,77220,10157,743345,0
2,1,707234,247382,1400336,73842,9263,699808,0
2,1,726477,251644,1400583,76988,9288,700331,0
2,1,710906,248482,1275006,74294,8338,637877,0
2,1,709199,247125,1421326,73736,9487,710678,0
2,1,735867,253392,1364513,78119,10037,682152,0
2,1,711769,248603,1278308,74349,7913,639094,0
2,1,708771,247078,1373018,73617,8619,686507,0
2,1,705214,247059,1348350,73686,9339,674202,0
2,1,731934,252597,1406385,77325,9947,703189,0
2,1,711223,248674,1278044,74404,8437,639093,0
2,1,711072,248858,1247730,74391,8595,623921,0
2,1,710916,248458,1406302,74036,9061,703169,0
2,1,729905,252321,1401362,77139,9719,700675,0
2,1,711954,247959,1366753,73917,9251,683428,0
2,1,710474,249004,1300793,74381,8113,650465,0
2,1,706024,247004,1369596,73666,8966,684839,0
2,1,732409,252738,1331003,77400,9287,665477,0
2,1,707800,247037,1247071,73742,8701,623581,0
2,1,710529,247180,1399809,73796,9229,699946,0
2,1,705763,247078,1477632,73672,10339,738077,0
2,1,707897,247329,1396622,73703,9625,697797,0
2,1,711273,248540,1319362,74313,10107,658703,0
2,1,707670,247310,1401254,73636,9812,701020,0
2,1,712934,248247,1611573,74015,10127,805836,0
2,1,712675,248221,1389215,74015,9959,694646,0
2,1,708320,247127,1278584,73687,8485,639236,0
2,1,711751,247748,1305726,73935,8541,652909,0
2,1,711383,247326,1480133,73807,10427,740115,0
2,1,731324,251985,1429898,77099,9686,714855,0
2,1,713238,247536,1370732,73949,9341,685409,0
2,1,713607,248026,1469285,74081,9346,734656,0
2,1,708130,248789,1298443,74364,8497,649177,0
2,1,708155,248674,1406626,74386,10570,703272,0
2,1,710097,248677,1400446,74293,9117,700280,0
2,1,709869,248004,1366572,73969,8891,683325,0
2,1,708210,247371,1356303,73761,8749,678203,0
2,1,730014,252063,1444487,77141,9790,722255,0
2,1,711644,248442,1309621,74129,8738,654841,0
2,1,715177,248898,1383449,74421,8674,691727,0
2,1,741346,259892,1374181,78032,8829,687147,0
2,1,713304,249384,1390340,74592,9995,695062,0
2,1,712319,248916,1305862,74382,8521,652964,0
2,1,734400,253297,1432822,77656,9168,716405,0
2,1,715116,249827,1312879,74830,8878,656394,0
2,1,710833,248873,1527278,74338,9938,763679,0
2,1,715419,250639,1335547,75135,9021,667863,0
2,1,715425,250790,1315714,75265,8257,657991,0
2,1,713400,249278,1378359,74440,8939,689207,0
2,1,713164,249529,1382982,74542,8809,691536,0
2,1,732368,252910,1442450,77451,10127,721199,0
2,1,735591,254207,1465439,77851,9892,732658,0
2,1,715777,250009,1313905,74882,9128,657069,0
2,1,708872,248124,1225670,74001,8234,612891,0
2,1,713470,248846,1383885,74305,9064,691983,0
2,1,710650,248438,1305801,74099,8667,652944,0
2,1,711581,248128,1427953,74041,9160,714013,0
2,1,714886,248770,1281811,74296,8758,640990,0
2,1,710210,248560,1392596,74092,8221,696340,0
2,1,709097,248297,1384249,73994,9466,692168,0
2,1,708955,248654,1399183,74128,9809,699549,0
2,1,730896,253444,1462640,77482,10233,731448,0
2,1,717308,250603,1379750,74916,9504,689866,0
2,1,713363,248632,1525497,74051,10475,762215,0
2,1,712704,249065,1458623,74150,10271,728819,0
2,1,708714,248327,1477274,73926,9257,738522,0
2,1,734274,253513,1448569,77487,9620,723711,0
2,1,710789,248180,1378856,73944,9647,689461,0
2,1,714785,249724,1321459,74458,8599,660775,0
2,1,729491,253009,1624174,77361,10540,812542,0
2,1,730770,252760,1543652,77309,10521,771805,0
2,1,712021,248272,1280495,74021,8871,640303,0
2,1,710217,248050,1326109,73977,7643,663096,0
2,1,711761,248364,1354040,74066,8268,676979,0
2,1,713973,248293,1272871,74091,8743,636258,0
2,1,711155,248059,1349631,73936,8477,674825,0
2,1,712221,248142,1241182,74009,8328,620634,0
2,1,711843,247692,1293300,73822,8333,646688,0
2,1,712714,248174,1330835,74067,8058,665640,0
2,1,732788,252927,1437481,77300,10428,718744,0
2,1,737662,253115,1473481,77420,10815,736767,0
2,1,729280,252981,1441497,77379,10313,720718,0
2,1,708625,248394,1342314,74112,9719,671199,0
2,1,712276,248759,1270437,74162,8679,635237,0
2,1,709624,248322,1470240,74067,8546,735169,0
2,1,710448,248118,1371062,74016,8898,685524,0
2,1,712280,248713,1393863,74096,9391,696971,0
2,1,712186,248962,1424454,74249,9338,712272,0
2,1,710536,248855,1337991,74240,8700,669076,0
2,1,714462,248937,1358809,74304,8816,679456,0
2,1,711071,248394,1391760,74024,8493,695499,0
2,1,736418,253587,1448215,77661,9708,724089,0
2,1,718139,249770,1312786,74786,9123,656452,0
2,1,709125,247504,1223301,73798,7902,611696,0
2,1,712672,247976,1611372,73990,10248,805602,0
2,1,712877,248929,1352160,74298,9657,675954,0
2,1,714852,248585,1403421,74164,9114,701154,0
2,1,713367,248154,1436844,73916,8601,718439,0
2,1,714332,249729,1252458,74637,8833,626248,0
2,1,713898,249013,1343103,74191,8297,671576,0
2,1,714490,248475,1296540,74032,8487,648304,0
2,1,738156,253590,1451268,77569,9755,725669,0
2,1,710588,247574,1347944,73823,8984,674025,0
2,1,712777,248036,1361703,73884,9498,680836,0
2,1,719432,249383,1345603,74535,8435,672860,0
2,1,709921,248076,1414007,73912,9460,707051,0
2,1,732116,253538,1512822,77486,10899,756405,0
2,1,734059,253291,1525694,77405,10130,762510,0
2,1,730779,252399,1379480,77130,10156,689796,0
2,1,709404,247748,1461214,73819,9388,730612,0
2,1,718308,249760,1378677,74644,9017,689311,0
2,1,709912,247765,1440544,73816,9471,720343,0
2,1,713897,248817,1397287,74155,9370,698493,0
2,1,711270,247991,1369608,73881,8733,684835,0
2,1,709874,247910,1378890,73979,8796,689496,0
2,1,709297,246844,1386391,73565,9737,693314,0
2,1,717323,249099,1419469,74540,10437,709260,0
2,1,709182,247557,1517582,73876,9616,758811,0
2,1,710877,247719,1425976,74288,9365,712753,0
2,1,710327,246894,1365240,73795,8841,682656,0
2,1,709022,247597,1347773,74071,8612,673922,0
2,1,706199,246292,1346954,73531,8932,673518,0
2,1,711867,247415,1454511,73996,9170,727290,0
2,1,711798,247040,1330319,73863,9299,665242,0
2,1,715715,249204,1470189,74731,9910,735165,0
2,1,710666,246795,1290390,73706,8773,645232,0
2,1,708166,246559,1403650,73638,8382,701878,0
2,1,716854,249120,1308432,74700,9312,654283,0
2,1,715088,247691,1320325,74070,9082,660113,0
2,1,701792,246977,1393409,73837,10034,696177,0
2,1,727955,252449,1480733,77403,9908,740348,0
2,1,706161,247117,1290838,73902,8811,645449,0
2,1,707199,247491,1477866,73968,9448,738975,0
2,1,706130,247390,1430312,73938,8835,715194,0
2,1,730526,252663,1467045,77453,10358,733458,0
2,1,705861,248091,1421787,74322,8658,710961,0
2,1,705846,246988,1338654,73828,8660,669318,0
2,1,706571,247162,1340641,73887,8913,670357,0
2,1,712153,249757,1409776,75000,9190,704963,0
2,1,704952,246265,1416582,73615,8800,708328,0
2,1,706324,246575,1285365,73677,8272,642638,0
2,1,716364,250195,1463852,75058,9362,732142,0
2,1,705532,247668,1259454,73962,8934,629755,0
2,1,707459,247926,1494956,74019,9447,747509,0
2,1,729239,252764,1407954,77417,9628,704007,0
3,1,761046,266160,1365279,78528,9683,682555,0
3,1,764659,268007,1516606,79291,10426,758098,0
3,1,765955,268771,1519859,79616,10368,759791,0
3,1,783822,270694,1520656,81837,10863,760261,0
3,1,757806,266008,1567701,78502,9533,783911,0
3,1,762601,266034,1386275,78460,9662,693018,0
3,1,760090,265479,1384617,78267,9872,692352,0
3,1,756325,265294,1492077,78273,8985,746019,0
3,1,744356,261071,1396339,76932,9212,698145,0
3,1,706590,247340,1430576,73339,9415,715337,0
3,1,706434,247670,1356778,73495,9040,678309,1
3,1,709414,247277,1268038,73392,9385,633917,0
3,1,708719,249185,1402952,74257,8877,701325,0
3,1,706126,248335,1334214,73700,8556,667064,0
3,1,707031,247712,1303471,73427,8561,651546,0
3,1,704078,247939,1349643,73575,8352,674409,1
3,1,705034,246859,1325671,73150,8982,662878,0
3,1,730141,252615,1406652,76823,9893,703365,0
3,1,706158,247546,1378328,73343,9051,689277,1
3,1,707823,247631,1338520,73417,10124,668866,0
3,1,705329,246687,1397473,73222,9082,698695,0
3,1,706619,247623,1308507,73571,8543,654178,0
3,1,708493,247856,1260657,73618,8712,630181,1
3,1,726833,251823,1344072,76707,9694,671894,0
3,1,708361,247500,1293127,73528,8286,646546,0
3,1,706605,247570,1381353,73586,9503,690406,1
3,1,713465,249457,1438629,74306,9743,719337,0
3,1,708580,246894,1344671,73303,9158,672319,0
3,1,701941,247692,1385706,73618,8517,692851,1
3,1,709331,249655,1534575,74447,9614,766982,0
3,1,723275,251863,1408002,76751,9097,703811,0
3,1,703013,247266,1297654,73475,8290,648915,0
3,1,702222,246861,1330707,73296,8410,665299,0
3,1,711612,248488,1410291,73964,9516,704794,0
3,1,708545,248743,1395943,74059,9081,697661,0
3,1,704620,247113,1242677,73420,8259,621271,0
3,1,702069,246851,1446654,73310,8984,723424,0
3,1,703402,247098,1300566,73332,8840,650203,1
3,1,713611,250052,1402301,74620,9865,701055,0
3,1,709377,248712,1450199,74047,9916,725050,0
3,1,701874,247229,1399186,73505,9225,699693,0
3,1,709670,249876,1363912,74637,9618,682027,1
3,1,703889,247150,1288399,73393,8821,644408,0
3,1,709665,248742,1305896,73821,9109,653037,0
3,1,710395,248857,1415041,74196,9786,707518,0
3,1,710599,248413,1477338,73903,9971,738696,0
3,1,728580,252350,1426133,76875,9570,713112,0
3,1,706063,247618,1313583,73460,8523,656736,0
3,1,714916,249692,1346482,74413,9273,673253,0
3,1,712038,248667,1350398,73767,8463,675032,0
3,1,732313,252764,1391824,76889,9692,695914,0
3,1,717759,251034,1440079,74758,9460,719889,1
3,1,710658,247654,1336495,73406,9030,668262,0
3,1,713193,248228,1290492,73618,9060,645275,0
3,1,706747,248320,1253233,73701,9338,626381,0
3,1,704732,248017,1291374,73643,9118,645709,1
3,1,707559,247669,1287870,73471,8858,643977,0
3,1,709151,247506,1307811,73473,9424,653793,0
3,1,710048,248649,1403791,73967,10072,701508,0
3,1,707688,248403,1395112,73802,9597,697575,1
3,1,710426,247900,1294432,73576,9222,647201,0
3,1,707068,247990,1405474,73725,9062,702550,0
3,1,707222,247222,1387703,73553,9249,693724,0
3,1,706171,247230,1376295,73448,8955,688165,0
3,1,712335,249804,1419451,74640,9665,709802,1
3,1,706717,247635,1421660,73640,8826,710839,0
3,1,707665,247809,1384579,73676,8856,692028,0
3,1,709491,247827,1320366,73754,8891,660038,0
3,1,732748,252596,1307421,77129,10335,653436,0
3,1,707782,247608,1260649,73659,8360,630340,0
3,1,730258,252482,1426341,77031,10765,713097,0
3,1,713561,249185,1434547,74140,9945,717305,0
3,1,709912,248258,1389778,73895,8924,694892,0
3,1,707949,248069,1303430,73866,8919,651462,1
3,1,730155,251772,1369281,76758,9519,684910,0
3,1,709876,247412,1266611,73555,9316,633272,0
3,1,715413,249798,1409316,74628,9267,704446,1
3,1,707490,247852,1433923,73754,10633,716811,0
3,1,729055,251927,1422968,76815,11143,711453,0
3,1,710286,247644,1478367,73671,11014,738876,0
3,1,714693,249684,1505611,74566,10756,752528,0
3,1,711437,248124,1439209,73784,9884,719518,0
3,1,710624,247586,1325148,73580,10137,662258,0
3,1,709684,247258,1354834,73514,9770,677001,0
3,1,710323,247681,1427323,73655,9258,713507,1
3,1,713833,248036,1342535,73792,9240,671071,0
3,1,707595,249599,1417966,74528,9381,708991,0
3,1,707190,248571,1323666,73981,9072,661876,0
3,1,708423,249883,1803005,74604,11590,900974,0
3,1,706801,250160,1370062,74796,10218,684911,1
3,1,700183,246995,1360029,73370,9802,679809,0
3,1,703418,247625,1416716,73581,9080,708236,0
3,1,703202,247496,1614393,73581,10082,806337,0
3,1,706246,247605,1338102,73656,9151,668754,0
3,1,724950,252745,1544032,77132,10991,772111,0
3,1,703056,248154,1414906,73858,9297,707301,1
3,1,707398,249179,1426362,74351,9919,712574,0
3,1,708767,249484,1432022,74438,9161,715746,0
3,1,707000,248232,1397256,73898,9244,698511,1
3,1,702279,246990,1382308,73382,8816,691166,0
3,1,724357,251582,1369646,76720,8969,684659,0
3,1,711554,249698,1406724,74578,9151,703131,0
3,1,712832,249236,1478262,74344,10027,739115,0
3,1,703743,247828,1291926,73680,9129,645892,0
3,1,707347,248868,1284630,74064,8864,642002,0
3,1,704498,247860,1361791,73592,8509,680940,0
3,1,706473,247430,1434519,73482,8480,717040,0
3,1,725097,252304,1366184,76924,9743,683102,0
3,1,707130,248591,1451590,73866,8925,725816,1
3,1,711092,249554,1472362,74209,8823,736153,0
3,1,702975,248078,1310413,73779,9603,655211,1
3,1,710016,250000,1311295,74584,9477,655415,0
3,1,708681,248719,1327601,73873,9591,663867,0
3,1,706293,248276,1346197,73757,8586,673157,1
3,1,709505,248486,1309050,73861,8051,654550,0
3,1,711161,248825,1428148,73966,9078,713915,0
3,1,729553,252372,1627233,76910,10540,813795,0
3,1,711195,250129,1501697,74631,10079,749401,1
3,1,709347,248694,1520273,73919,9827,759935,0
3,1,707962,248032,1407224,73658,10063,703735,0
3,1,705575,248534,1339699,73885,9468,669851,0
3,1,703145,248281,1444283,73791,9164,721740,1
3,1,707155,249015,1576292,74203,10106,788127,0
3,1,708188,248537,1420230,73862,8937,709662,0
3,1,706664,249069,1472613,74051,9420,735835,1
3,1,706061,247929,1299190,73686,9281,649446,0
3,1,727532,252861,1387597,77102,9939,693662,0
3,1,728472,251912,1383004,76702,10469,691449,0
3,1,707359,248659,1420130,73916,9179,709951,0
3,1,707062,247959,1394983,73693,8735,697192,0
3,1,708945,247945,1342152,73636,9602,671060,0
3,1,708279,247697,1435620,73563,9490,717536,0
3,1,705098,248074,1416190,73676,9780,707947,0
3,1,705736,248534,1426769,73853,9814,713108,1
3,1,707840,247870,1397756,73626,9637,698911,0
3,1,708906,248585,1468030,73909,8294,733914,0
3,1,735571,257830,1322446,76648,8838,661131,1
3,1,706699,247846,1300122,73630,8224,650057,0
3,1,708347,247927,1301785,73713,9065,650982,0
3,1,713770,249593,1326371,74454,9572,662979,0
3,1,709148,248072,1312992,73729,7933,656466,0
3,1,707831,247553,1373570,73462,9090,686754,0
3,1,710120,248189,1283263,73758,8276,641474,0
3,1,710525,248459,1399434,73855,9088,699689,1
3,1,708789,247760,1427421,73550,9186,713689,0
3,1,701005,248040,1237616,73745,7865,618731,1
3,1,707572,249937,1329539,74476,9099,664711,0
3,1,709642,249345,1438110,74295,9502,719002,0
3,1,710717,250599,1476955,74821,9344,738267,1
3,1,705325,248093,1410655,73677,8838,705288,0
3,1,708624,250016,1518664,74583,9916,759005,0
3,1,709116,248976,1434941,74007,9563,717459,0
3,1,706144,247507,1276156,73524,8384,638036,0
3,1,707270,249247,1391811,74282,9211,696006,0
3,1,725949,252323,1385486,76898,10394,692629,0
3,1,707299,248533,1419571,73820,9212,709818,0
3,1,706305,248779,1470186,73927,9223,734920,1
3,1,713218,250618,1431153,74823,9106,715377,0
3,1,706430,247830,1398745,73630,8679,699349,0
3,1,707042,247398,1376192,73402,9508,687869,0
3,1,732977,253125,1381214,77139,9957,690266,0
3,1,708463,249363,1371445,74326,9160,685501,0
3,1,706424,248226,1446365,73743,9187,723247,0
3,1,705930,248059,1336315,73708,8680,668092,1
3,1,726617,252624,1368162,76861,10122,683923,0
3,1,708618,248714,1435791,73827,8794,717553,0
3,1,732469,257814,1416201,76487,9048,708164,1
3,1,706666,248393,1446402,73653,9402,723157,0
3,1,728529,252803,1409551,76892,10020,704329,0
3,1,709099,248105,1334841,73613,9107,667191,0
3,1,729286,252424,1372970,76794,9827,686425,0
3,1,708876,249405,1435514,73985,9358,717631,0
3,1,707859,247983,1320172,73553,8279,660117,0
3,1,714264,250065,1570783,74407,9212,785156,0
3,1,711738,249493,1324697,74195,9647,662383,0
3,1,711145,248318,1273297,73657,8928,636568,0
3,1,710881,248077,1404932,73542,9439,702263,0
3,1,705585,247868,1472063,73501,8962,736045,0
3,1,706552,248916,1345876,73904,8409,672791,1
3,1,706639,248697,1442858,73825,8414,721506,0
3,1,710663,248673,1345892,73759,8777,673036,0
3,1,709551,248010,1424302,73513,9232,712179,0
3,1,731448,253705,1336467,77176,10542,668176,0
3,1,708858,248686,1243897,73780,8341,622065,1
3,1,709494,248195,1399437,73566,9753,699707,0
3,1,710376,248265,1349073,73580,8816,674689,0
3,1,709020,249925,1473104,74430,9183,736405,1
3,1,730041,252915,1398362,76955,10075,698974,0
3,1,707134,247880,1349860,73495,9226,674798,0
3,1,707736,247273,1370087,73333,8801,684901,0
3,1,713685,249741,1309704,74494,8998,654896,0
3,1,709555,248537,1255242,73946,8483,627305,1
3,1,713945,249487,1419373,74043,9863,709903,0
3,1,716835,250567,1408384,74601,9165,704250,0
3,1,716155,249716,1464268,74243,9564,732032,1
3,1,710966,249184,1392192,74001,9897,696046,0
3,1,715670,250242,1341557,74423,9171,670829,0
3,1,712662,248693,1273629,73956,9153,636745,0
3,1,713413,249548,1325287,74180,9338,662431,0
3,1,711599,248564,1328873,73628,9185,664264,0
3,1,712876,249330,1439626,73951,8348,719812,1
3,1,715174,248649,1418935,73670,9733,709331,0
3,1,712593,249081,1301544,73808,8534,650790,1
3,1,712584,248512,1406095,73598,9934,703019,0
3,1,714634,249047,1294138,73829,9405,647018,0
3,1,716692,249885,1355741,74172,9563,677725,0
3,1,717319,249416,1476829,73921,9803,738394,0
3,1,710670,250543,1446927,74485,9380,723548,0
3,1,711929,251190,1462336,74857,10189,731252,1
3,1,709083,249194,1431748,73849,10054,715919,0
3,1,707999,249019,1440476,73816,10024,720104,0
3,1,710909,249249,1344483,74023,10435,672266,1
3,1,709579,248239,1260128,73580,9777,630088,0
3,1,713267,250241,1389256,74499,9151,694603,0
3,1,710811,248868,1383902,73895,9264,691964,0
3,1,707094,248455,1399273,73803,10097,699615,0
3,1,708454,248541,1330831,73739,8857,665221,0
3,1,710203,248552,1267970,73682,9354,634007,0
3,1,713753,249794,1392777,74300,9033,696297,0
3,1,709390,248488,1408151,73686,9538,704097,0
3,1,712734,249463,1484576,74031,9120,742365,0
3,1,714077,250085,1407992,74563,9491,703916,1
3,1,709516,248075,1393284,73661,9551,696563,0
3,1,706127,247965,1288377,73582,8619,644267,0
3,1,708629,247915,1310092,73562,8602,654973,0
3,1,729851,252223,1422195,76785,10843,710989,0
3,1,709330,247839,1411131,73496,9160,705425,0
3,1,710811,248100,1411874,73578,9871,705967,0
3,1,714964,249848,1428496,74461,9824,714466,0
3,1,711619,248751,1251290,73855,8823,625650,1
3,1,705020,247538,1314141,73453,9887,657012,0
3,1,733098,253023,1374470,77094,10307,687342,0
3,1,710871,249830,1397709,74518,9049,698582,1
3,1,706891,247088,1334166,73296,8721,667172,0
3,1,703626,246577,1449571,73171,10173,724553,0
3,1,711138,248330,1334015,73688,9865,667311,0
3,1,710718,248363,1287188,73706,10051,643590,1
3,1,714216,248826,1287394,73817,10384,643447,0
3,1,705178,247748,1578359,73457,10317,788825,0
3,1,708667,248922,1496384,73890,9826,748031,1
3,1,705848,247890,1540542,73497,10225,770178,0
3,1,713549,249852,1456869,74414,10276,727644,0
3,1,703419,247648,1348337,73570,9616,673356,1
3,1,705965,247443,1344693,73449,9576,672035,0
3,1,707839,247501,1357598,73479,9464,678909,0
3,1,705971,247086,1409710,73294,9830,704581,0
3,1,706256,247801,1318843,73570,9026,659454,0
3,1,705474,247723,1380999,73603,9538,690495,1
3,1,708745,248459,1305158,73816,8976,652762,0
3,1,710141,247683,1509060,73463,10394,754341,0
3,1,709182,247695,1322702,73528,9711,661263,1
3,1,713681,249143,1360468,73980,9368,680073,0
3,1,715244,249762,1409233,74428,9993,704660,0
3,1,718344,250253,1412593,74559,9961,706219,0
3,1,706772,247636,1357752,73409,8056,678885,0
3,1,708481,248473,1332913,73716,8318,666416,0
3,1,707254,247724,1255492,73307,8848,627737,0
3,1,709212,247666,1408914,73301,9216,704476,0
3,1,710554,248266,1407345,73571,9510,703600,1
3,1,713278,248276,1388496,73523,9737,694224,0
3,1,711389,248107,1417909,73412,8265,708933,0
3,1,715935,248525,1461185,73529,9286,730551,0
3,1,710673,248440,1436364,73537,9350,718124,0
3,1,713213,248531,1343462,73600,9503,671647,0
3,1,712983,249137,1446772,73765,9811,723278,1
3,1,712521,248406,1260228,73569,8845,630001,0
3,1,712018,248989,1334560,73802,8592,667258,1
3,1,710184,247514,1275230,73283,8189,637628,0
3,1,712648,248348,1337318,73618,9027,668658,0
3,1,718491,250234,1382512,74577,9254,691254,1
3,1,714408,247816,1378878,73387,8370,689394,0
3,1,708330,249256,1372535,74197,9434,686267,0
3,1,704426,248068,1386108,73592,8577,693042,1
3,1,706767,248036,1293791,73571,8782,646871,0
3,1,706066,247401,1360506,73332,8937,680286,0
3,1,704762,247099,1374153,73227,8804,687061,0
3,1,706401,248243,1308137,73646,8338,654079,1
3,1,711276,249347,1357810,74164,8125,678862,0
3,1,709273,249433,1384601,74142,8795,692177,0
3,1,708209,248242,1263557,73644,8644,631703,1
3,1,710283,248003,1379291,73567,9370,689650,0
3,1,712338,249309,1430676,74149,8291,715123,0
3,1,707025,247553,1284681,73417,8435,642205,0
3,1,708394,247759,1421425,73486,8653,710717,0
3,1,710995,248568,1416440,73751,9617,708222,1
3,1,709098,247239,1301366,73285,8840,650503,0
3,1,711920,248821,1273737,73986,8514,636835,0
3,1,709869,249120,1342089,74182,8693,670348,0
3,1,726384,251895,1325169,76654,9726,662585,0
3,1,715524,249557,1403384,74294,8958,701674,0
3,1,707931,247912,1372274,73540,8751,686171,0
3,1,729863,252538,1375467,76806,8882,687700,0
3,1,708933,248508,1301094,73744,7940,650552,1
3,1,709817,247964,1527471,73500,8904,763565,0
3,1,708444,247141,1421557,73253,9535,710774,0
3,1,705369,247524,1269301,73366,8122,634625,0
3,1,705769,247123,1368637,73231,8280,684299,0
3,1,729125,251771,1409802,76613,9587,704896,0
3,1,709169,247987,1400618,73579,8670,700243,1
3,1,709913,247772,1292252,73442,8208,646182,0
3,1,707029,247161,1499960,73247,9683,750020,0
3,1,713357,249110,1275563,74155,9474,637698,0
3,1,708657,247331,1244406,73315,8523,622102,1
3,1,710296,247139,1322681,73254,9430,661291,0
3,1,703287,247584,1382165,73450,8314,691029,1
3,1,706437,247276,1405532,73280,9171,702747,0
3,1,705928,247796,1397102,73452,8901,698558,0
3,1,732395,253202,1385395,77047,8958,692699,0
3,1,709392,248079,1386917,73603,8593,693447,0
3,1,712241,249899,1329507,74421,8363,664744,1
3,1,710476,247825,1321507,73425,9056,660731,0
3,1,714743,248958,1381740,74040,9817,689835,0
3,1,712581,248742,1545224,73806,9985,772052,1
3,1,706024,247179,1316027,73320,8773,657914,0
3,1,709152,247752,1529367,73469,9550,764665,0
3,1,710517,248038,1510313,73584,9525,755121,0
3,1,715308,249867,1281290,74400,8325,640547,0
3,1,711665,249424,1280400,74191,8136,640165,0
3,1,714862,249391,1299870,74203,8806,649889,0
3,1,710150,247301,1285078,73278,9155,642510,0
3,1,708652,247078,1452664,73219,8861,726299,0
3,1,734501,252228,1389349,76664,9488,694626,0
3,1,708048,247908,1395349,73550,8052,697626,0
3,1,707076,247426,1353140,73380,7812,676549,0
3,1,710027,247818,1405464,73531,7916,702743,0
3,1,712409,248221,1237368,73646,8432,618644,0
3,1,713890,249455,1299915,74266,8252,649892,0
3,1,711308,247852,1382878,73517,8293,691396,0
3,1,712788,248517,1323008,73839,8757,661492,0
3,1,713626,248361,1362106,73558,8077,681043,0
3,1,715478,249521,1369836,74223,8156,684861,0
3,1,711128,247919,1273568,73371,7864,636685,0
3,1,735956,252282,1465863,76680,9267,732926,0
3,1,718055,250775,1324212,74698,7914,662094,1
3,1,712327,247504,1372643,73321,8019,686284,0
3,1,718692,249551,1387671,74230,7615,693801,0
3,1,700049,247087,1374314,72732,7848,687108,0
3,1,701977,247675,1285021,72971,8018,642524,0
3,1,704909,247650,1329281,72914,7738,664634,0
3,1,702205,247459,1409300,72847,8131,704659,0
3,1,702971,247729,1349836,73007,8427,674890,1
3,1,701415,246975,1343517,72647,7923,671716,0
3,1,699705,247740,1397079,73012,8618,698425,1
3,1,725426,252595,1451148,76344,9689,725449,0
3,1,706233,248238,1282362,73170,8403,641093,0
3,1,707733,249608,1278645,73853,8496,639316,1
3,1,702685,247123,1404217,72914,8028,702115,0
3,1,702312,247164,1338106,72926,8206,669045,0
3,1,704862,248401,1416591,73394,8330,708288,1
3,1,702395,246890,1366634,72839,8395,683289,0
3,1,725867,252175,1386564,76326,9220,693183,0
3,1,702531,247388,1289992,73031,8890,645025,0
3,1,723356,252068,1410447,76301,9527,705188,0
3,1,704309,247674,1383195,73139,8363,691640,0
3,1,705533,247641,1342870,73078,8008,671465,0
3,1,727415,251778,1329910,76279,9486,664867,0
3,1,710166,249841,1231426,74084,8646,615637,1
3,1,702033,247339,1290263,73051,8796,645127,0
3,1,711603,249789,1300853,74875,9356,650396,0
3,1,713834,249163,1400436,74595,9239,700127,0
3,1,712979,249439,1307644,74821,9382,653836,0
3,1,710823,247772,1414127,73956,9580,707080,0
3,1,714661,248831,1289278,74525,9792,644650,0
3,1,708074,249108,1325422,74675,9159,662651,0
3,1,703992,247947,1356027,74077,8366,678018,1
3,1,726842,251793,1402606,77083,9552,701368,0
3,1,714221,250568,1288786,75093,9175,644210,1
3,1,708480,247679,1391737,73867,9636,695908,0
3,1,707475,247599,1516288,73926,9489,758108,0
3,1,707295,248499,1315523,74236,9231,657573,1
3,1,707699,247632,1285875,73974,9232,642868,0
3,1,711219,248075,1312389,74030,8624,656154,0
3,1,708114,248714,1301971,74355,8994,650944,1
3,1,727258,251488,1420326,77040,9261,709945,0
3,1,706458,247353,1387037,73844,9010,693538,0
3,1,713282,249323,1296192,74729,8650,648110,0
3,1,707810,247695,1235585,73937,9103,617703,0
3,1,707843,247529,1362949,73931,8463,681411,1
3,1,711699,247965,1357655,74071,9110,678781,0
3,1,709085,247307,1317265,73825,8648,658616,0
3,1,706211,247656,1361628,73990,8480,680791,0
3,1,711600,249314,1323359,74710,8733,661725,0
3,1,709467,247763,1362159,73966,9185,680711,0
3,1,708443,247986,1428563,74045,9363,714326,0
3,1,708062,246915,1378810,73660,8549,689206,0
3,1,709980,247051,1308232,73710,8502,654147,0
3,1,711726,248340,1410429,74165,8595,705043,1
3,1,728694,251947,1334564,77141,9848,667231,0
3,1,712277,249148,1226370,74542,8938,613174,0
3,1,715006,248927,1382173,74473,9399,691187,0
3,1,709034,247492,1443994,73892,9358,722041,0
3,1,731325,251926,1512212,77129,10817,755929,0
3,1,711081,248084,1359473,74090,9437,679772,1
3,1,709431,246887,1287304,73639,9231,643744,0
3,1,705545,248241,1376664,74197,9467,688383,0
3,1,709869,249561,1459204,74740,10299,729565,0
3,1,703331,247035,1340530,73682,9860,670311,1
3,1,706675,248683,1353563,74418,9312,676840,0
3,1,705791,247189,1508942,73746,9680,754615,0
3,1,704877,248207,1338821,74087,9395,669391,1
3,1,704942,247273,1340332,73795,8689,670176,0
3,1,728408,251939,1433413,77114,10230,716726,0
3,1,704437,247003,1382690,73687,9239,691411,1
3,1,706826,247400,1357907,73829,8421,678891,0
3,1,711604,248206,1308715,74155,9631,654442,0
3,1,707787,248996,1299989,74609,8667,650022,1
3,1,705593,246975,1409885,73649,8957,704817,0
3,1,728304,252138,1422017,77177,11773,710983,0
3,1,707834,247533,1444600,73868,9826,722334,1
3,1,711880,248372,1372990,74016,9384,686479,0
3,1,706936,247451,1364439,73872,8490,682263,0
3,1,711218,248653,1385129,74448,8807,692253,0
3,1,706151,247629,1374924,73918,9200,687494,0
3,1,727362,252165,1638680,77121,10658,819345,0
3,1,707426,247991,1405809,74036,9050,702000,1
3,1,707563,248022,1438614,73984,9336,719232,0
3,1,712675,249474,1293047,74777,8574,646576,1
3,1,711820,248928,1299285,74535,8886,649605,0
3,1,730348,252002,1367959,77073,10736,683818,0
3,1,705986,247958,1429312,74002,9792,714311,1
3,1,735642,257364,1420893,76829,9319,710491,0
3,1,709251,248190,1393220,74051,9225,696174,0
3,1,709408,247457,1316681,73875,8438,658358,0
3,1,708160,247687,1314469,73975,8736,657315,1
3,1,709502,247570,1315084,73878,8190,657570,0
3,1,731996,252041,1718866,77180,11938,859396,0
3,1,711578,247716,1288054,73942,8446,644071,0
3,1,710418,247743,1370954,73997,8674,685523,0
3,1,715920,249083,1290326,74555,8650,645214,0
3,1,711072,247541,1394960,73882,8634,697535,1
3,1,710532,249451,1271097,74734,9249,635573,0
3,1,707950,247535,1310460,73869,8958,655235,0
3,1,710365,249772,1281160,74840,8598,640661,1
3,1,708176,247840,1356013,73968,8029,678045,0
3,1,704939,247157,1262834,73623,8843,631437,0
3,1,710576,248908,1334707,74408,8904,667379,0
3,1,709674,247903,1327287,73908,8407,663696,0
3,1,712860,248649,1285712,74318,8890,642922,0
3,1,708371,247666,1365964,73809,8464,683035,0
3,1,708708,247985,1300299,73896,8152,650191,1
3,1,730890,252312,1406870,77103,9083,703430,0
3,1,709649,247399,1274511,73783,8634,637299,0
3,1,714007,248607,1297224,74232,8636,648578,0
3,1,711664,247961,1453587,74027,9047,726822,0
3,1,709923,249115,1306723,74603,9549,653434,0
3,1,706138,247550,1402216,73783,9349,701056,1
3,1,709485,248287,1441602,73948,9831,720842,0
3,1,709042,248011,1522221,73866,10082,760865,0
3,1,709827,247771,1330632,73817,9620,665346,1
3,1,709217,247808,1450718,73814,10357,725419,0
3,1,712050,248388,1382464,74183,9982,691262,0
3,1,709856,247414,1412829,73635,9807,706552,0
3,1,707702,247791,1363210,73872,9491,681640,0
3,1,709212,246875,1387172,73558,8639,693617,0
3,1,714015,249152,1288674,74722,8624,644337,1
3,1,709925,247025,1404107,73664,9201,702068,0
3,1,707632,246816,1347665,73599,8791,673885,0
3,1,710733,247300,1466197,73885,9980,733139,0
3,1,716781,248886,1305026,74523,9302,652572,0
3,1,705383,248277,1212761,74116,7864,606405,0
3,1,709451,248788,1351045,74322,8284,675557,0
3,1,710666,248814,1364155,74324,8988,682132,0
3,1,710290,249129,1306558,74451,9015,653297,1
3,1,707024,247722,1448758,73876,9879,724415,0
3,1,713108,250223,1312524,74979,8715,656361,0
3,1,712047,248919,1304606,74359,8638,652183,0
3,1,713655,249398,1259538,74686,8020,629940,0
3,1,735402,253460,1453506,77755,9776,726735,0
3,1,717270,250666,1318814,75316,8329,659463,1
3,1,709896,248484,1312751,74347,8120,656425,0
3,1,706840,248095,1376281,74150,9147,688188,1
3,1,709577,248396,1391348,74240,8759,695714,0
3,1,709732,248008,1390463,74080,9481,695164,0
3,1,708790,248295,1332576,74254,8425,666193,1
3,1,711628,248319,1313411,74260,9256,656463,0
3,1,712395,248533,1440508,74296,9033,720307,0
3,1,712926,249255,1279713,74418,8206,639899,1
3,1,716287,249062,1290932,74359,8550,645514,0
3,1,708653,248532,1384584,74187,8984,692354,0
3,1,710187,248831,1388408,74329,9057,694244,1
3,1,709235,248713,1278760,74234,7813,639278,0
3,1,711820,248764,1263880,74249,8639,631968,0
3,1,712946,249556,1369740,74529,9136,684900,0
3,1,712051,248985,1288901,74376,8137,644501,0
3,1,713282,248688,1284854,74291,8342,642487,0
3,1,713140,248378,1356944,74124,8533,678505,0
3,1,714667,250193,1301309,74993,9243,650721,0
3,1,711925,249771,1301811,74645,8815,650942,1
3,1,711503,248509,1414337,74160,9122,707214,0
3,1,709651,248258,1364809,74093,9121,682255,0
3,1,733332,253072,1582084,77504,11007,790878,0
3,1,716738,249272,1324148,74459,9457,662110,0
3,1,711485,250199,1282787,75009,9015,641636,1
3,1,708747,248643,1384641,74150,8956,692361,0
3,1,708936,248498,1442823,74072,9391,721463,0
3,1,710708,249144,1383205,74331,9665,691466,1
3,1,713015,248659,1379826,74102,8806,689897,0
3,1,712148,249011,1303153,74238,9261,651379,0
3,1,711537,249047,1400787,74136,9159,700354,1
3,1,712233,249283,1337764,74277,9985,668675,0
3,1,712232,248490,1455901,73955,10286,727649,0
3,1,711352,248941,1431524,74147,9103,715757,0
3,1,718198,250927,1466485,75112,10860,732287,0
3,1,712979,248618,1366052,74059,8282,683120,0
3,1,710911,248018,1278744,73900,8559,639445,0
3,1,712435,248767,1577313,74112,10082,788629,0
3,1,713041,247825,1477596,73753,10151,738826,0
3,1,712308,249350,1407071,74539,9286,703571,0
3,1,710824,248394,1243148,74111,8294,621593,0
3,1,712266,248164,1349968,74028,9458,675018,0
3,1,711723,248003,1376179,73934,8467,688224,0
3,1,713980,248548,1397773,74112,8485,698929,0
3,1,710863,248450,1374040,74128,8869,687037,0
3,1,716725,250594,1379496,75127,8360,689808,1
3,1,713431,249049,1320652,74477,8633,660424,0
3,1,712023,247923,1350263,73893,9624,675170,0
3,1,716723,250168,1311966,74917,7990,656296,0
3,1,713727,247854,1384051,73892,9213,692066,0
3,1,714664,248267,1309131,74059,8493,654684,0
3,1,709207,249249,1333137,74544,9090,666645,0
3,1,709969,248180,1320727,73993,9324,660396,0
3,1,714836,250142,1315787,74914,8495,657968,0
3,1,707961,248562,1288614,74098,8774,644166,0
3,1,712631,248904,1383935,74260,8866,692000,0
3,1,712363,248926,1438438,74120,8854,719258,0
3,1,718892,250755,1300467,75020,9123,650234,0
3,1,714699,249713,1261188,74714,8961,630407,0
3,1,711632,248974,1419329,74315,8832,709827,1
3,1,711020,248145,1313948,74005,8104,657009,0
3,1,711739,248631,1370273,74073,8520,685222,0
3,1,711612,247649,1393818,73844,8555,697299,0
3,1,712600,248577,1296487,74285,7787,648296,1
3,1,735270,253066,1466189,77488,9702,733054,0
3,1,709245,249166,1410432,74432,8570,705249,1
3,1,707133,247042,1305371,73740,8605,652484,0
3,1,714889,250119,1308024,74983,8596,654015,1
3,1,712044,248330,1347997,74110,9134,674034,0
3,1,710840,248392,1361150,74106,8904,680609,0
3,1,717690,250131,1352200,74937,9883,675855,0
3,1,712988,248425,1352346,74063,8105,676222,0
3,1,716705,248958,1255471,74171,8415,627746,0
3,1,710608,248145,1466039,73964,9021,733025,0
3,1,713683,248575,1427249,74055,9239,713407,0
3,1,712675,247727,1380378,73830,8521,690252,0
3,1,711439,248171,1394270,74065,8704,697173,1
3,1,716232,249498,1363574,74532,8710,681835,0
3,1,713107,248685,1406964,74116,8252,703530,0
3,1,717411,250014,1305319,74843,8919,652389,1
3,1,715689,248185,1391004,73887,9368,695526,0
3,1,730978,253132,1430212,77373,10372,714978,0
3,1,705877,246913,1393585,73567,9573,696478,1
3,1,710375,247943,1422547,73779,9721,711093,0
3,1,711131,248131,1408156,73900,9225,703896,0
3,1,710193,247690,1362181,73696,9287,681124,0
3,1,712861,249320,1295140,74498,9490,647728,0
3,1,711796,248595,1352603,74110,9103,676765,1
3,1,714150,248519,1384869,74079,8991,692171,0
3,1,714350,249795,1377863,74783,9562,688352,0
3,1,709509,247400,1481904,73666,9737,740979,0
3,1,742630,258548,1392672,77231,8961,696395,0
3,1,712800,247402,1340788,73796,9558,670442,0
3,1,710441,247381,1403949,73733,9926,701984,0
3,1,709114,247616,1386490,73851,9044,693039,1
3,1,711718,247168,1398990,73693,9051,699332,0
3,1,726945,252037,1489559,77078,10267,744294,0
3,1,708459,247908,1458113,74128,9250,728921,1
3,1,709669,248257,1467913,74323,9374,734007,0
3,1,711199,248366,1431544,74429,8710,715960,0
3,1,707595,247081,1326707,73855,8092,663524,1
3,1,714332,247996,1358378,74182,7713,679326,0
3,1,715255,249153,1436273,74802,9285,718128,0
3,1,714845,249072,1421439,74769,9138,710821,0
3,1,715340,248686,1366595,74585,9762,683159,0
3,1,712644,249577,1436388,75030,9726,718226,1
3,1,710589,247707,1425304,74084,9449,712673,0
3,1,710630,247500,1252519,74048,9122,626275,1
3,1,715617,249124,1419267,74780,9304,709700,0
3,1,716972,249154,1405270,74717,9063,702699,0
3,1,712557,247087,1400069,73830,8728,700073,0
3,1,710450,247466,1315816,74030,8861,657948,1
3,1,711983,246765,1290906,73748,8924,645483,0
3,1,713459,247407,1436117,73988,10364,717593,1
3,1,702701,246953,1539213,73802,10092,769372,0
3,1,702479,246773,1486293,73731,9245,743193,0
3,1,707452,247834,1424364,74134,9000,712217,0
3,1,704784,247036,1338883,73804,8893,669487,0
3,1,703208,246613,1402311,73697,8605,701163,0
3,1,705309,247297,1371273,73967,9315,685646,1
3,1,707099,247106,1335214,73906,8839,667565,0
3,1,702736,247132,1400570,73847,8654,700301,0
3,1,726380,252595,1504838,77435,11284,752444,0
3,1,710580,248979,1425807,74749,9290,712973,0
3,1,726044,251923,1427049,77260,9326,713472,0
3,1,707168,247565,1302389,74030,8557,651227,0
3,1,708060,247752,1354020,74097,8423,677043,0
3,1,706773,247431,1350170,74014,7785,675105,1
3,1,730047,252034,1337036,77185,8820,668455,0
3,1,703407,247539,1346526,73924,9007,673294,0
3,1,729719,252725,1385753,77368,9679,692921,0
3,1,703401,246869,1378979,73615,8572,689532,0
3,1,728078,252730,1403825,77366,9777,701940,0
