0,0,0,-nan,-nan,-nan,-nan,-nan,-nan,-nan,-nan,-nan,-nan,-nan,-nan
0,1,1,760437.000000,265581.000000,1349490.000000,78403.000000,8890.000000,674780.000000,0.000000,0.000000,0.000000,0.000000,0.000000,0.000000
1,0,0,-nan,-nan,-nan,-nan,-nan,-nan,-nan,-nan,-nan,-nan,-nan,-nan
1,1,1,760100.000000,265564.000000,1432101.000000,78457.000000,8822.000000,716134.000000,0.000000,0.000000,0.000000,0.000000,0.000000,0.000000
2,0,0,-nan,-nan,-nan,-nan,-nan,-nan,-nan,-nan,-nan,-nan,-nan,-nan
2,1,1,757183.000000,265526.000000,1584182.000000,78455.000000,9838.000000,791669.000000,0.000000,0.000000,0.000000,0.000000,0.000000,0.000000
3,0,0,-nan,-nan,-nan,-nan,-nan,-nan,-nan,-nan,-nan,-nan,-nan,-nan
3,1,1,763960.000000,267305.000000,1349018.000000,79136.000000,8688.000000,674551.000000,0.000000,0.000000,0.000000,0.000000,0.000000,0.000000
4,0,0,-nan,-nan,-nan,-nan,-nan,-nan,-nan,-nan,-nan,-nan,-nan,-nan
4,1,1,761125.000000,265554.000000,1284502.000000,78436.000000,9900.000000,642304.000000,0.000000,0.000000,0.000000,0.000000,0.000000,0.000000
5,0,0,-nan,-nan,-nan,-nan,-nan,-nan,-nan,-nan,-nan,-nan,-nan,-nan
5,1,1,766382.000000,268619.000000,1445686.000000,79781.000000,10988.000000,722913.000000,0.000000,0.000000,0.000000,0.000000,0.000000,0.000000
6,0,0,-nan,-nan,-nan,-nan,-nan,-nan,-nan,-nan,-nan,-nan,-nan,-nan
6,1,1,759141.000000,265304.000000,1321125.000000,78321.000000,8710.000000,660633.000000,0.000000,0.000000,0.000000,0.000000,0.000000,0.000000
7,0,0,-nan,-nan,-nan,-nan,-nan,-nan,-nan,-nan,-nan,-nan,-nan,-nan
7,1,1950,712577.775385,249007.963590,1427443.591282,74364.151282,9383.976410,713689.142051,9451.073551,2696.077728,88432.953074,1198.438982,713.402240,44205.133316
