0,-1,722781,250774,1327215,74663,8222,663591,0
0,-1,717926,248249,1398672,73613,8289,699236,0
0,-1,720881,248733,1402374,73804,9129,701228,0
0,-1,718659,248461,1308889,73756,8571,654490,2
0,-1,719151,248600,1409053,73741,8830,704717,0
0,-1,664405,230223,1402161,68823,8245,701056,0
0,-1,665859,229406,1370624,68486,8981,685169,0
0,-1,662801,229463,1382391,68442,8064,691511,0
0,-1,665194,230127,1229416,68708,8112,614757,0
0,-1,666515,229867,1304006,68558,8893,651686,0
0,-1,660259,229499,1207312,68589,7194,603709,0
0,-1,663221,229942,1245813,68691,7948,622930,0
0,-1,664140,229616,1303730,68632,7426,651867,0
0,-1,662548,230224,1335371,68826,7384,667693,0
0,-1,664198,230141,1172753,68830,6906,586430,0
0,-1,663910,229553,1314379,68574,7438,657224,0
0,-1,682552,234574,1335064,72069,9089,667497,0
0,-1,668305,231352,1315615,69238,8266,657875,0
0,-1,665446,229846,1330779,68699,7887,665327,0
0,-1,685676,235071,1283951,72297,8309,641941,0
0,-1,671515,231874,1333188,69458,6867,666638,0
0,-1,688932,234932,1311399,72170,8700,655678,0
0,-1,667133,229911,1263798,68738,8024,631936,0
0,-1,666312,231103,1221534,69061,7377,610807,0
0,-1,667174,230958,1531404,68853,9687,765531,0
0,-1,671114,231864,1295925,69487,8159,648026,0
0,-1,665401,229804,1318644,68625,8250,659251,0
0,-1,687844,235000,1266571,72118,8495,633252,0
0,-1,672522,232621,1364596,69906,8828,682367,0
0,-1,667442,231037,1315084,69235,7636,657646,0
0,-1,689425,235391,1349945,72413,9579,674783,0
0,-1,668577,230315,1388834,68892,8811,694420,0
0,-1,666121,230510,1292298,69054,8883,646336,0
0,-1,666197,230010,1346661,68853,8551,673109,0
0,-1,669361,229923,1227179,68823,7328,613630,0
0,-1,671890,231028,1281840,69222,7773,640954,0
0,-1,666708,232061,1324354,69704,8141,662237,0
0,-1,662972,230640,1296208,68991,7484,648137,0
0,-1,665992,230407,1219123,69035,8332,609605,0
0,-1,665940,231904,1288754,69680,8197,643742,0
0,-1,668002,231944,1309800,69696,7840,654966,0
0,-1,664115,230156,1278488,68921,7596,639250,0
0,-1,662140,229835,1379681,68802,7540,689888,0
0,-1,666425,231658,1309097,69526,7847,654624,0
0,-1,666995,231288,1319287,69220,7683,659676,0
0,-1,667136,231300,1345340,69185,8414,672690,0
0,-1,667065,231035,1486368,69127,8425,743131,0
0,-1,661300,230510,1219761,68952,7577,609855,0
0,-1,698743,242948,1293142,73064,8311,646425,0
0,-1,665045,230727,1223070,69059,7620,611564,0
0,-1,665521,230874,1212283,69057,7178,606102,0
0,-1,669055,231488,1245157,69296,8211,622612,0
0,-1,672268,233100,1323753,70048,7815,661712,0
0,-1,670022,232502,1423435,69875,9015,711703,0
0,-1,672383,232477,1373107,69760,8667,686565,0
0,-1,663597,230359,1213211,68882,7694,606562,0
0,-1,687374,235428,1244291,72388,8191,622060,0
0,-1,671572,231480,1265188,69281,8105,632621,0
0,-1,665302,230864,1174664,69078,7921,587327,0
0,-1,663120,230816,1288667,68990,6860,644325,0
0,-1,666730,231585,1361771,69265,7389,680883,0
0,-1,664871,231206,1238342,69143,7620,619151,0
0,-1,664381,230469,1400231,68888,9760,699775,0
0,-1,688891,235335,1346287,72352,7856,673121,0
0,-1,665263,230599,1220419,68977,7481,610237,0
0,-1,665284,230963,1220822,69151,7560,610372,0
0,-1,668875,230516,1261325,68894,7987,630679,0
0,-1,671675,232011,1454740,69535,9290,727394,0
0,-1,667992,231104,1299968,69025,7738,650028,0
0,-1,667639,231282,1385125,69043,8295,692551,0
0,-1,672961,231346,1338027,69086,8265,668991,0
0,-1,669492,232429,1336941,69710,7495,668322,0
0,-1,666855,230966,1245483,69027,7262,622693,0
0,-1,662954,230159,1314269,68627,8090,657110,0
0,-1,666237,230748,1257269,68849,7926,628593,0
0,-1,688639,235638,1257887,72309,8704,628905,0
0,-1,670994,231271,1331905,69022,7911,665954,0
0,-1,667094,230885,1297176,68912,8388,648541,0
0,-1,669372,231182,1339681,69129,8331,669809,0
0,-1,673627,232035,1351263,69404,8131,675612,0
0,-1,671566,231899,1236272,69379,7928,618102,0
0,-1,673687,231704,1196077,69413,7651,597971,0
0,-1,669134,230797,1327012,68794,8343,663519,0
0,-1,669427,233477,1385156,69892,8335,692452,0
0,-1,669469,232889,1271344,69540,8790,635634,0
0,-1,670427,232638,1266738,69526,8159,633363,0
0,-1,669278,231261,1247803,68929,7623,623908,0
0,-1,674497,233763,1266018,70079,8293,632940,0
0,-1,690944,235298,1304779,72186,8896,652401,0
0,-1,673537,232624,1333884,69749,8786,666977,0
0,-1,672975,232992,1281416,69800,8734,640506,0
0,-1,666508,230260,1331939,68717,8332,665960,0
0,-1,666762,230593,1300311,68931,7917,650157,0
0,-1,666594,230375,1312874,68809,8884,656399,0
0,-1,668413,230827,1287406,68968,7448,643732,0
0,-1,669790,230776,1310549,68921,8544,655241,0
0,-1,673322,231588,1196172,69283,8663,598035,0
0,-1,665170,230565,1323061,68869,8210,661482,0
0,-1,666171,230594,1241756,68908,8365,620696,0
0,-1,666031,230366,1268246,68740,9099,634050,0
0,-1,688854,235705,1490739,72392,9094,745342,0
0,-1,667055,230232,1323055,68790,8678,661342,0
0,-1,663017,230347,1500856,68853,8627,750170,0
0,-1,667498,230377,1251845,68806,9201,626313,0
0,-1,670901,230607,1356976,68907,9201,678469,0
0,-1,669159,230971,1303006,68923,9318,651446,0
0,-1,669931,230678,1274582,68695,8526,637293,0
0,-1,670643,230291,1361429,68517,9073,680668,0
0,-1,666415,231843,1302477,69076,8071,651217,0
0,-1,689136,236179,1306955,72347,8820,653410,0
0,-1,666081,230583,1358740,68695,8377,679368,0
0,-1,668474,230041,1366632,68595,8696,683296,0
0,-1,664183,230114,1336908,68610,8638,668545,0
0,-1,666262,230374,1272173,68765,7687,635945,0
0,-1,666955,230481,1269262,68735,8452,634631,0
0,-1,667094,230467,1358109,68762,9111,679056,0
0,-1,666990,230235,1464493,68694,8414,732318,0
0,-1,665629,230128,1319125,68698,8453,659544,0
0,-1,666975,229505,1364741,68407,8966,682410,0
0,-1,667506,230559,1409311,68801,9013,704664,0
0,-1,667386,230151,1352308,68696,8615,676132,0
0,-1,671560,231618,1305986,69413,8878,652998,0
0,-1,673173,231412,1267549,69215,8030,633752,0
0,-1,687969,234878,1290984,72051,8132,645394,0
0,-1,715471,244151,1369588,74771,8549,684707,0
0,-1,668711,231912,1216990,69516,7496,608346,0
0,-1,668182,229619,1340185,68435,8314,670108,0
0,-1,674458,232166,1226470,69516,7423,613404,0
0,-1,689841,235157,1314676,72133,8271,657272,0
0,-1,667764,229862,1319299,68536,7507,659650,0
0,-1,669899,230279,1389866,68697,7761,694963,0
0,-1,669810,231109,1291748,69009,7492,645873,0
0,-1,692318,235335,1333761,72174,8096,666812,0
0,-1,672413,230836,1218658,68823,6918,609308,0
0,-1,661435,230642,1266915,68372,6740,633451,0
0,-1,661642,229973,1349610,68173,7236,674783,0
0,-1,660809,229923,1206798,68059,7177,603408,0
0,-1,660981,229995,1280637,68202,8088,640293,0
0,-1,665182,232055,1219427,69074,8066,609669,0
0,-1,670700,232839,1191880,69399,7561,595907,0
0,-1,671555,233036,1233639,69373,7349,616771,0
0,-1,666755,232249,1236956,69004,8056,618465,0
0,-1,661703,230645,1348830,68441,8653,674406,0
0,-1,664244,230365,1369909,68449,8015,684956,0
0,-1,661827,230449,1333082,68409,8376,666467,0
0,-1,690954,235658,1520960,72710,11109,760202,0
0,-1,673143,231726,1381527,69874,9948,690473,0
0,-1,662666,229908,1298075,69031,8992,649388,0
0,-1,684275,234100,1356344,72237,9244,678134,0
0,-1,671053,232231,1287692,70108,7564,643860,0
0,-1,666489,230592,1205113,69294,7506,602512,0
0,-1,666633,231093,1234048,69615,7757,616969,0
0,-1,666233,229737,1326425,69023,7926,663212,0
0,-1,663186,229884,1358306,69082,8806,679165,0
0,-1,667465,229938,1533776,69076,9315,766954,0
0,-1,664086,229686,1304722,68941,8424,652326,0
0,-1,669725,230363,1460254,69213,9122,730118,0
0,-1,666848,228909,1385544,68788,10485,692673,0
0,-1,665328,230369,1479599,69204,9909,739818,0
0,-1,686393,234342,1412390,72317,10167,705883,0
0,-1,673341,232599,1297931,70219,8698,649078,0
0,-1,666230,230344,1260298,69141,7987,630133,0
0,-1,669927,231423,1269071,69755,8612,634557,0
0,-1,664253,229820,1369268,69058,9403,684569,0
0,-1,668391,230947,1277571,69435,8202,638698,0
0,-1,670260,231466,1257899,69798,8650,628958,0
0,-1,686865,235062,1386195,72549,9663,692994,0
0,-1,692359,235297,1530536,72623,10314,765264,0
0,-1,668931,230469,1374855,69237,9027,687118,0
0,-1,666181,230575,1247750,69101,9772,623916,0
0,-1,666011,230250,1375678,69171,8951,687886,0
0,-1,670080,231674,1389237,69829,9370,694278,0
0,-1,689760,235137,1485329,72418,9343,742598,0
0,-1,690162,234976,1425364,72382,10278,712714,0
0,-1,672145,231841,1325264,69730,8301,662690,0
0,-1,666956,230491,1437349,69134,9272,718452,0
0,-1,670146,230779,1446613,69110,10017,723209,0
0,-1,674755,232505,1416850,70021,8941,708674,0
0,-1,673575,231415,1375148,69401,8848,687598,0
0,-1,673482,230616,1278202,69204,8908,638998,0
0,-1,667970,231354,1544639,69388,10376,772350,0
0,-1,668755,231175,1231161,69461,8505,615627,0
0,-1,667290,231448,1333641,69696,8644,666872,0
0,-1,671049,231315,1425309,69506,8956,712587,0
0,-1,676338,233050,1181182,70473,7382,590566,0
0,-1,667151,230997,1300928,69497,7661,650510,0
0,-1,668767,231121,1337632,69519,8274,669124,0
0,-1,673195,231657,1249017,69690,7679,624556,0
0,-1,674260,233190,1254070,70397,7910,627074,0
0,-1,676342,233358,1208815,70373,7858,604459,0
0,-1,673743,231680,1500793,69663,9938,750064,0
0,-1,690637,236046,1428433,72884,9975,714150,0
0,-1,671470,231271,1257260,69497,8302,628652,0
0,-1,669409,231062,1382890,69414,9946,691189,0
0,-1,720860,245714,1432374,75659,10303,716073,0
0,-1,675815,233069,1217971,70239,8599,608984,0
0,-1,676332,233051,1344966,70153,9756,672242,0
0,-1,669878,231493,1363871,69350,8954,681617,0
0,-1,674795,232712,1246588,70075,8117,623249,0
0,-1,670747,230257,1227169,69002,7304,613633,0
0,-1,673182,232297,1186045,70005,7571,592959,0
0,-1,670512,230662,1318576,69234,8559,659363,0
0,-1,673050,231582,1367447,69597,8838,683741,0
0,-1,667610,231541,1229178,69581,8636,614538,0
0,-1,666990,230580,1370012,69253,8781,684691,0
0,-1,667408,230424,1380858,69190,9020,690059,0
0,-1,674641,232540,1309598,70134,9106,654532,0
0,-1,673339,232586,1284243,70069,8652,641715,0
0,-1,670280,231198,1227723,69503,7816,613806,0
0,-1,674037,232028,1245512,69676,7724,622718,0
0,-1,674873,232634,1213563,69999,8281,606774,0
0,-1,671656,231089,1285226,69493,7095,642654,0
0,-1,672906,230594,1279545,69297,8717,639810,0
0,-1,670957,230805,1422203,69234,8281,711139,0
0,-1,674733,233420,1393575,70415,8542,696831,0
0,-1,670579,230567,1232805,69071,7486,616450,0
0,-1,675438,233294,1337714,70361,8216,668937,0
0,-1,668121,230166,1446055,68978,8821,721725,0
0,-1,673487,230841,1263931,69215,7679,632022,0
0,-1,669633,230650,1230845,69157,7438,615474,0
0,-1,691084,235272,1351773,72575,8141,675923,0
0,-1,692641,235623,1380459,72730,9348,690273,0
0,-1,669654,229643,1243010,68974,8470,621541,0
0,-1,672711,231347,1234838,69861,8268,617386,0
0,-1,716923,243421,1507932,75196,9768,753941,0
0,-1,676975,232673,1302623,70321,7798,651359,0
0,-1,661006,230352,1255677,69377,7002,627889,0
0,-1,665935,231465,1294688,69924,8057,647407,0
0,-1,667004,231591,1371235,70029,8365,685688,0
0,-1,662883,230509,1235898,69432,6948,617987,0
0,-1,664476,230036,1297998,69295,7135,649047,0
0,-1,674630,232946,1358016,70441,8725,677920,0
0,-1,662142,230207,1226928,69351,8764,613450,0
0,-1,662874,229042,1196080,68878,8006,597927,0
0,-1,688819,235390,1403254,72803,9235,701616,0
0,-1,663889,229755,1313982,69052,7766,657010,0
1,-1,716858,248580,1491445,73806,8018,745425,0
1,-1,717764,248013,1377681,73575,8213,688889,0
1,-1,716680,248309,1413015,73634,8614,706550,0
1,-1,661860,230303,1303952,68926,7802,651800,2
1,-1,683271,234436,1435188,72033,8959,716977,0
1,-1,672008,232203,1571321,69688,9362,784699,0
1,-1,666043,230185,1317986,68686,8586,659049,0
1,-1,672442,233228,1286888,69956,8977,643588,0
1,-1,672940,232424,1367127,69598,9059,683634,0
1,-1,662192,230503,1310915,68917,7649,655502,0
1,-1,664951,230542,1164253,68939,7371,582171,0
1,-1,664979,230282,1280229,68830,7497,640159,0
1,-1,662238,230489,1309982,68888,7507,655029,0
1,-1,667002,231443,1236273,69372,7381,618212,0
1,-1,664845,229590,1290474,68591,7743,645277,0
1,-1,660031,229764,1282420,68711,7485,641254,0
1,-1,713790,243938,1475620,74812,9014,737797,0
1,-1,666639,230712,1371393,68951,7762,685591,0
1,-1,664670,230108,1247519,68853,7364,623818,0
1,-1,669909,231004,1338825,69104,7937,669459,0
1,-1,668496,230817,1248534,69040,7841,624350,0
1,-1,671979,231134,1375650,69018,7459,687871,0
1,-1,665134,230388,1306555,68822,8659,653354,0
1,-1,668519,231438,1334420,69026,8019,667285,0
1,-1,669278,230730,1299622,68888,7792,649796,0
1,-1,667190,230422,1316173,68858,8200,658109,0
1,-1,667319,231076,1326625,69113,7276,663285,0
1,-1,688534,235134,1576390,72312,9305,788306,0
1,-1,667491,231175,1191612,69231,7061,595835,0
1,-1,694559,239790,1399076,71758,9202,699571,0
1,-1,669886,231475,1368879,69351,8256,684859,0
1,-1,691551,235107,1490201,72328,9306,745059,0
1,-1,674669,231968,1419267,69615,9424,709254,0
1,-1,672462,231365,1193636,69310,8185,596849,0
1,-1,672375,231575,1337071,69564,8827,668474,0
1,-1,666268,232277,1336683,69857,8351,668419,0
1,-1,661693,230218,1180719,68970,7692,590444,0
1,-1,666875,231086,1305951,69252,7931,653059,0
1,-1,663203,230626,1453267,69081,8619,726585,0
1,-1,664174,230800,1209285,69160,7535,604696,0
1,-1,665820,230774,1184584,69078,7195,592343,0
1,-1,665993,231719,1321873,69561,7641,660992,0
1,-1,664377,231206,1221359,69276,6848,610718,0
1,-1,663339,230383,1263533,68985,7423,631849,0
1,-1,667872,232142,1372170,69666,8823,685954,0
1,-1,664262,230455,1377400,68870,8458,688693,0
1,-1,685544,236045,1271802,72550,8244,636101,0
1,-1,664683,230781,1248113,69085,8391,624070,0
1,-1,664582,230924,1317735,69136,8111,658888,0
1,-1,662622,230313,1201933,68921,7238,600972,0
1,-1,665976,230603,1303679,69001,9933,651657,0
1,-1,667215,230453,1351486,68926,7947,675721,0
1,-1,686995,235865,1273460,72509,8617,636615,0
1,-1,668212,230853,1370622,69036,8608,685296,0
1,-1,669991,231030,1316717,69134,8178,658350,0
1,-1,672672,231687,1286997,69303,8277,643493,0
1,-1,673607,232375,1494575,69727,9571,747268,0
1,-1,664983,231144,1177412,69193,7449,588628,0
1,-1,686264,235488,1292414,72393,8312,646252,0
1,-1,666316,231144,1359140,69211,7990,679568,0
1,-1,666335,231991,1492522,69578,8899,746214,0
1,-1,673853,233950,1263998,70416,7763,632091,0
1,-1,667356,230852,1379968,69039,7462,689916,0
1,-1,671336,232468,1363688,69851,8301,681969,0
1,-1,665135,230786,1185053,69027,7560,592463,0
1,-1,687526,235162,1285752,72267,8654,642845,0
1,-1,688413,235249,1322504,72214,8891,661235,0
1,-1,670675,232495,1405219,69637,8354,702511,0
1,-1,671791,231321,1299475,69041,8256,649750,0
1,-1,675347,232606,1342454,69678,9059,671273,0
1,-1,663837,230430,1442029,68882,7690,721043,0
1,-1,664259,230336,1308843,68731,7279,654359,0
1,-1,671936,231659,1447080,69192,8278,723532,0
1,-1,666721,231280,1325523,69042,8300,662772,0
1,-1,666682,231126,1303998,69064,7590,651937,0
1,-1,671926,232346,1345529,69628,8538,672733,0
1,-1,665221,230674,1322793,68824,8508,661404,0
1,-1,688973,235073,1215095,72254,8932,607412,0
1,-1,669854,231171,1312118,69051,8200,656016,0
1,-1,678828,233653,1351943,70208,8380,676030,0
1,-1,671642,231167,1257119,69185,8812,628480,0
1,-1,675012,232042,1294464,69403,7190,647295,0
1,-1,672675,232196,1335939,69294,7843,667881,0
1,-1,665457,231522,1228142,69074,8866,614001,0
1,-1,668446,232061,1306893,69249,8588,653447,0
1,-1,669895,231859,1311412,69231,8052,655665,0
1,-1,690856,236915,1299900,72689,8762,649951,0
1,-1,669317,230878,1334956,68913,8316,667466,0
1,-1,670742,231928,1369130,69346,8796,684553,0
1,-1,668396,231575,1282612,69121,8110,641253,0
1,-1,674628,232947,1331977,69925,8813,665936,0
1,-1,669953,231857,1333280,69445,8213,666293,0
1,-1,666958,230625,1311151,68914,8328,655458,0
1,-1,666476,230380,1447159,68782,7991,723572,0
1,-1,671288,231886,1304780,69508,8709,652262,0
1,-1,669267,230443,1252649,68839,8671,626131,0
1,-1,664694,230757,1228153,69047,7441,614054,0
1,-1,674830,233113,1387963,69842,8529,694023,0
1,-1,668524,231396,1290542,69135,8464,645406,0
1,-1,665702,229845,1277204,68661,8694,638558,0
1,-1,673207,232723,1322385,69870,8669,661159,0
1,-1,675198,232519,1320130,69865,8650,660103,0
1,-1,668320,230938,1369480,68998,8991,684845,0
1,-1,669849,231262,1212551,69128,7923,606277,0
1,-1,669218,230959,1319095,68951,9478,659524,0
1,-1,673867,233177,1366931,69713,8816,683793,0
1,-1,671157,231031,1280516,68868,8359,640261,0
1,-1,666208,231065,1449344,68770,7985,724615,0
1,-1,668732,231331,1362495,68910,9158,681256,0
1,-1,686463,235907,1335888,72268,9370,667932,0
1,-1,667612,230405,1423617,68716,9049,711812,0
1,-1,663135,229783,1221293,68526,7797,610730,0
1,-1,663975,229774,1352270,68540,8370,676148,0
1,-1,665049,230022,1381419,68621,8771,690717,0
1,-1,685932,235323,1314453,72169,8669,657246,0
1,-1,666630,230501,1353756,68847,8026,676904,0
1,-1,667311,230379,1218914,68720,8281,609439,0
1,-1,669424,230728,1256860,68882,8283,628436,0
1,-1,672493,232855,1412381,69804,8591,706023,0
1,-1,669908,230052,1339918,68638,9009,669927,0
1,-1,687737,234704,1337640,71957,9112,668847,0
1,-1,671140,230377,1240259,68791,8012,620173,0
1,-1,664502,230519,1321370,68786,7935,660682,0
1,-1,666423,230315,1315866,68754,7492,657992,0
1,-1,686685,235086,1349230,72104,8272,674621,0
1,-1,690188,235290,1411177,72181,8160,705626,0
1,-1,665875,229202,1264958,68413,7621,632442,0
1,-1,664560,229950,1203294,68610,7107,601538,0
1,-1,668972,230837,1367179,68910,7391,683545,0
1,-1,689764,235455,1318146,72236,7865,659060,0
1,-1,665732,230120,1225606,68645,7524,612804,0
1,-1,668572,230087,1295164,68675,7425,647603,0
1,-1,668840,229882,1368175,68424,7103,684103,0
1,-1,660871,230762,1216510,68364,6675,608222,0
1,-1,662314,230385,1391501,68288,7077,695737,0
1,-1,660658,230093,1334033,68123,7888,667004,0
1,-1,664829,231867,1294805,68998,7852,647408,0
1,-1,686115,235429,1373490,71720,8483,686695,0
1,-1,689346,235996,1312674,72364,8799,656303,0
1,-1,685308,235181,1321906,71620,8158,660860,0
1,-1,662388,230390,1299152,68319,7949,649634,0
1,-1,686032,234870,1384490,71642,8723,692245,0
1,-1,669384,232623,1310479,69322,8033,655017,0
1,-1,660700,229974,1346713,68236,8149,673361,0
1,-1,665873,229891,1328908,69010,9264,664699,0
1,-1,690764,235248,1449560,72633,10503,724233,0
1,-1,668648,232349,1404846,70054,9523,702435,0
1,-1,666053,229678,1259755,68998,9031,629851,0
1,-1,685953,234600,1371586,72444,8972,685799,0
1,-1,663835,229945,1281788,69167,8244,640858,0
1,-1,669050,230259,1338885,69181,8239,669543,0
1,-1,667092,229688,1324782,69018,8260,662359,0
1,-1,668503,230843,1266465,69411,8441,633234,0
1,-1,674483,233383,1351631,70533,8918,675678,0
1,-1,667220,231126,1340618,69539,9420,670239,0
1,-1,670428,231100,1299600,69456,9213,649605,0
1,-1,668611,230009,1253001,69073,9147,626478,0
1,-1,668579,232245,1351136,70089,9878,675316,0
1,-1,668273,231592,1362029,69816,8552,681009,0
1,-1,688827,235057,1388697,72515,9937,694233,0
1,-1,664743,229973,1218706,69073,8278,609395,0
1,-1,666792,230303,1403906,69167,8414,702013,0
1,-1,667603,229297,1278552,68864,7939,639181,0
1,-1,686282,234891,1439669,72499,10161,719724,0
1,-1,667464,229715,1343470,68986,8180,671552,0
1,-1,663938,229782,1245383,69039,8364,622566,0
1,-1,669610,230598,1267623,69257,7552,633838,0
1,-1,668368,230184,1368255,69157,9857,683969,0
1,-1,669287,232209,1258258,70017,9926,628976,0
1,-1,662337,229421,1370496,68810,8577,684900,0
1,-1,663238,229841,1297911,69052,9659,649071,0
1,-1,667299,230016,1405309,68910,8116,702694,0
1,-1,668451,230653,1406794,69116,8204,702711,0
1,-1,667332,230740,1507848,69154,9260,753664,0
1,-1,670370,231618,1478559,69656,9468,739720,0
1,-1,674445,232261,1393432,69908,10748,696665,0
1,-1,668867,230818,1357890,69176,9235,678959,0
1,-1,671962,230670,1493658,69227,9409,746483,0
1,-1,674217,231624,1378699,69498,9567,689357,0
1,-1,665511,231593,1275074,69705,8781,637490,0
1,-1,664939,229449,1389034,68985,8109,694560,0
1,-1,672593,231201,1370130,69569,7899,685100,0
1,-1,674043,233104,1324546,70415,7893,662295,0
1,-1,693077,235981,1279776,72923,8497,639825,0
1,-1,667584,230974,1320742,69541,8012,660416,0
1,-1,693849,235620,1668627,72804,10256,834034,0
1,-1,673103,231924,1307651,69724,7608,653843,0
1,-1,672080,231734,1343243,69693,7890,671618,0
1,-1,671158,231545,1251960,69640,8100,626013,0
1,-1,677372,233202,1382827,70446,10533,691464,0
1,-1,671455,232111,1233483,69832,7881,616735,0
1,-1,675683,233361,1237288,70413,7969,618603,0
1,-1,668881,231311,1333981,69555,8677,666954,0
1,-1,666406,230634,1342260,69141,8730,671127,0
1,-1,696432,237375,1310425,73171,9679,655257,0
1,-1,671254,231354,1564818,69323,9781,782448,0
1,-1,668696,231023,1281303,69216,9177,640750,0
1,-1,668230,231132,1288614,69377,7586,644220,0
1,-1,669616,230797,1315931,69245,8196,657992,0
1,-1,667778,230558,1189610,69210,7750,594555,0
1,-1,669938,230765,1312466,69290,8901,656237,0
1,-1,693747,236539,1398177,72995,8545,698933,0
1,-1,666137,231344,1183996,69470,8098,591853,0
1,-1,674235,233078,1294692,70310,8768,646883,0
1,-1,669890,231236,1377647,69466,8672,688918,0
1,-1,672096,231867,1303635,69658,9094,651753,0
1,-1,669504,230966,1295360,69323,8063,648057,0
1,-1,671303,232106,1233386,69914,7528,616446,0
1,-1,675152,232078,1295663,69692,8214,647861,0
1,-1,672219,231392,1277726,69492,8999,638766,0
1,-1,673323,231777,1271278,69820,7524,635703,0
1,-1,670853,231332,1416832,69559,7927,708505,0
1,-1,673888,231405,1238805,69553,7488,619352,0
1,-1,680002,232504,1274785,69980,7977,637424,0
1,-1,670287,231304,1225773,69451,7347,612927,0
1,-1,669046,230075,1289011,69023,7848,644536,0
1,-1,671659,230402,1311008,69069,8581,655343,0
1,-1,671469,230807,1325735,69212,7869,662910,0
1,-1,669369,230919,1168279,69301,7799,584158,0
1,-1,669036,229603,1303138,68905,7621,651600,0
1,-1,668792,230288,1235730,69201,7882,617919,0
1,-1,670193,229963,1215833,69048,8159,607944,0
1,-1,668131,229916,1211354,69205,7768,605723,0
1,-1,672139,230425,1320023,69410,8036,660085,0
1,-1,670270,229941,1221320,69243,7872,610714,0
1,-1,661622,229954,1210160,69213,6410,605113,0
1,-1,665188,229973,1231507,69232,7185,615791,0
1,-1,664887,229840,1328398,69179,7874,664240,0
1,-1,673127,232489,1240031,70380,7720,620096,0
1,-1,664759,229747,1191249,69147,7458,595669,0
1,-1,666404,229888,1372516,69218,8710,686449,0
1,-1,665443,229761,1202780,69157,7425,601276,0
1,-1,672348,232891,1330047,70466,8761,665008,0
1,-1,664181,229547,1368511,69106,8080,684407,0
1,-1,686875,234908,1345845,72567,8706,672986,0
2,-1,725830,250502,1531635,74549,9460,765526,0
2,-1,727513,252154,1598895,75188,9857,799240,0
2,-1,716200,248608,1307914,73765,7714,654206,0
2,-1,669186,231246,1483148,69238,8781,742100,0
2,-1,666352,230164,1291437,68749,8965,645542,0
2,-1,669453,232644,1366941,69766,8624,682997,2
2,-1,667079,230701,1399293,68855,8273,699347,0
2,-1,669209,230312,1213705,68762,8934,606900,0
2,-1,668192,230443,1316269,68819,8751,657962,0
2,-1,680424,234083,1362458,71693,8599,681169,0
2,-1,662715,229447,1209725,68485,7020,605022,0
2,-1,685982,234868,1337485,72191,8652,668734,0
2,-1,669888,231084,1328406,69218,7821,664270,0
2,-1,682384,234564,1307773,72086,7689,653829,0
2,-1,665128,230381,1191047,68875,7116,595560,0
2,-1,667080,229865,1213557,68696,7003,606821,0
2,-1,663535,230082,1329264,68736,8113,664736,0
2,-1,669036,232079,1339760,69692,8328,669959,0
2,-1,668109,229863,1389081,68736,8339,694584,0
2,-1,671851,231981,1368671,69654,8008,684385,0
2,-1,666350,230219,1326234,68816,7884,663125,0
2,-1,668566,230173,1211732,68684,7634,605916,0
2,-1,672215,232937,1321174,69835,8146,660685,0
2,-1,670030,232403,1342903,69566,8383,671553,0
2,-1,688558,235386,1256352,72170,8467,628145,0
2,-1,686571,234762,1272039,72068,8543,636065,0
2,-1,666750,230832,1405483,68978,8661,702779,0
2,-1,666822,229738,1298813,68578,7813,649430,0
2,-1,668901,232031,1311105,69722,7796,655622,0
2,-1,665701,230354,1292507,68997,8613,645807,0
2,-1,664231,229563,1440788,68733,8437,720408,0
2,-1,668591,230320,1419714,69007,8266,709216,0
2,-1,668111,230347,1383845,68954,9143,691962,0
2,-1,673015,231690,1241647,69599,8182,620875,0
2,-1,668756,230110,1295809,68893,8092,647945,0
2,-1,660828,231035,1185352,69216,6760,592734,0
2,-1,665719,231317,1350125,69512,7706,675149,0
2,-1,667908,231993,1297782,69730,8101,648964,0
2,-1,666927,231265,1334539,69271,8090,667312,0
2,-1,661539,229867,1364099,68778,7613,682033,0
2,-1,667768,231829,1321191,69676,8117,660652,0
2,-1,665068,231005,1306147,69203,8183,653118,0
2,-1,668063,231023,1328501,69187,8236,663762,0
2,-1,667582,231930,1346632,69653,8440,673261,0
2,-1,665145,231081,1238736,69146,7926,619342,0
2,-1,665612,230831,1291269,69097,8098,645606,0
2,-1,669854,230523,1336021,68985,8650,668002,0
2,-1,667029,231131,1215052,69135,7205,607490,0
2,-1,688204,236323,1267136,72650,8108,633610,0
2,-1,670049,232933,1466442,70020,9312,733394,0
2,-1,666915,231058,1234015,69176,7758,616967,0
2,-1,667699,230599,1346124,68962,7684,673059,0
2,-1,667259,231731,1225739,69410,7451,612857,0
2,-1,673808,233448,1292411,70220,8824,646190,0
2,-1,668529,230377,1255630,68911,7924,627794,0
2,-1,667428,230128,1201808,68883,7621,600944,0
2,-1,670605,231835,1322725,69422,8270,661369,0
2,-1,664318,230815,1234807,69025,7887,617333,0
2,-1,667319,231477,1206441,69289,7445,602916,0
2,-1,665338,229993,1206688,68855,6835,603332,0
2,-1,669368,230946,1509371,69123,9736,754496,0
2,-1,685960,235484,1219140,72393,8041,609489,0
2,-1,668379,231117,1292609,69155,7754,646265,0
2,-1,686938,235088,1267121,72267,8416,633524,0
2,-1,685550,235458,1228125,72375,8787,613964,0
2,-1,668844,231554,1363213,69221,7495,681630,0
2,-1,668322,231000,1296631,68981,7830,648367,0
2,-1,670720,232817,1359553,69816,7905,679707,0
2,-1,691134,235689,1283047,72285,8766,641380,0
2,-1,670174,230912,1381547,68915,8566,690767,0
2,-1,664142,230088,1280758,68724,8033,640374,0
2,-1,687814,235513,1331899,72294,8726,665931,0
2,-1,668964,230919,1263447,68899,7790,631719,0
2,-1,668425,230848,1231335,68936,7888,615685,0
2,-1,671567,231966,1386628,69502,8835,693253,0
2,-1,694442,236763,1339549,73159,9349,669752,0
2,-1,665841,231211,1270372,69103,8708,635171,0
2,-1,669488,231361,1253093,69240,8142,626458,0
2,-1,674803,232979,1402065,69864,8295,700989,0
2,-1,673190,231507,1319850,69321,7440,659950,0
2,-1,670425,230914,1308726,69118,8101,654242,0
2,-1,673183,231542,1243245,69307,7885,621620,0
2,-1,676221,232529,1333454,69412,8814,666751,0
2,-1,665993,231521,1316728,69127,8911,658357,0
2,-1,671237,233734,1364476,70061,7847,682191,0
2,-1,671990,233000,1324369,69778,8074,662031,0
2,-1,668008,231571,1245740,69095,8238,622878,0
2,-1,668484,231424,1329267,69126,7694,664622,0
2,-1,669689,230971,1322259,68987,7879,661154,0
2,-1,667584,231426,1229384,69067,7786,614651,0
2,-1,672090,232093,1342288,69344,8592,671187,0
2,-1,686995,234960,1278666,72132,8505,639313,0
2,-1,688823,235895,1220466,72443,8736,610127,0
2,-1,667657,230695,1347195,68923,7722,673498,0
2,-1,666921,230189,1212010,68744,7815,606008,0
2,-1,669567,230733,1364479,69032,7949,682276,0
2,-1,672641,232699,1450337,69919,8426,725028,0
2,-1,667639,230711,1339742,68917,7679,669843,0
2,-1,664965,230330,1262791,68753,8802,631127,0
2,-1,666276,230370,1339985,68847,8694,669756,0
2,-1,688231,235089,1315101,72199,9115,657527,0
2,-1,692275,235026,1353544,72180,9634,676738,0
2,-1,668535,231702,1255049,69258,7903,627354,0
2,-1,667716,230364,1343073,68797,8318,671493,0
2,-1,674397,233272,1374220,69843,9238,687099,0
2,-1,671767,231130,1274108,68901,9089,636918,0
2,-1,666947,229744,1334152,68435,8888,667061,0
2,-1,674418,230852,1395436,68691,7955,697674,0
2,-1,667025,230966,1266333,68793,8528,633121,0
2,-1,668614,230840,1364099,68780,8514,681988,0
2,-1,666460,230506,1354044,68698,8588,677000,0
2,-1,665528,230509,1248246,68844,8087,624109,0
2,-1,667456,230752,1280069,68881,8155,640007,0
2,-1,670613,230921,1257620,68929,8540,628760,0
2,-1,664346,230197,1406964,68715,8797,703457,0
2,-1,664489,229780,1381757,68518,8366,690886,0
2,-1,668919,231064,1353765,68998,8915,676767,0
2,-1,668643,230311,1401960,68701,9057,700825,0
2,-1,668853,230404,1337130,68775,8460,668591,0
2,-1,690264,234988,1336505,72008,9504,667943,0
2,-1,671076,230963,1349062,68960,9196,674524,0
2,-1,670424,230409,1293234,68734,8455,646636,0
2,-1,664879,229930,1267197,68576,7594,633565,0
2,-1,672847,231831,1254954,69397,7991,627469,0
2,-1,669582,230120,1247852,68571,8047,623852,0
2,-1,667649,229876,1254290,68519,7836,627113,0
2,-1,668364,230427,1302403,68797,7625,651121,0
2,-1,666072,230602,1173352,68848,7619,586611,0
2,-1,664940,229754,1226656,68540,7032,613281,0
2,-1,669506,230053,1305390,68617,7842,652698,0
2,-1,670446,230512,1232065,68789,7527,616097,0
2,-1,669051,230181,1235400,68675,7017,617690,0
2,-1,669697,229456,1390946,68444,7715,695457,0
2,-1,664068,232098,1244444,69018,6792,622197,0
2,-1,660696,230086,1310515,68111,7319,655199,0
2,-1,670944,233021,1213947,69374,7260,606986,0
2,-1,683677,235106,1347910,71601,8714,673983,0
2,-1,666750,231622,1253174,68849,7368,626559,0
2,-1,661521,229769,1196339,68054,7148,598164,0
2,-1,666329,230632,1283285,68360,7951,641351,0
2,-1,659851,229656,1317808,68001,8118,658939,0
2,-1,662940,230231,1328088,68379,8308,663992,0
2,-1,664017,230118,1362337,68315,8245,681015,0
2,-1,671330,231915,1306326,69070,8126,653168,0
2,-1,666892,230549,1364201,69267,9766,682003,0
2,-1,666408,229476,1354678,68944,9422,677591,0
2,-1,664007,230384,1346967,69319,9991,673130,0
2,-1,665006,230018,1265044,69138,9181,632469,0
2,-1,663503,229773,1258928,69044,8463,629402,0
2,-1,664986,230080,1245335,69155,8403,622608,0
2,-1,667897,230245,1252905,69241,8258,626446,0
2,-1,688721,234983,1331536,72581,9245,665694,0
2,-1,664190,230004,1259575,69063,8369,629791,0
2,-1,686868,234906,1444096,72520,10195,721888,0
2,-1,663600,229602,1357892,68972,9147,678890,0
2,-1,667013,229753,1380097,68985,9111,689822,0
2,-1,669184,230513,1281905,69261,9551,640914,0
2,-1,663099,229895,1294656,68994,9092,647415,0
2,-1,663383,230186,1415836,69071,8590,707834,0
2,-1,668157,230572,1456480,69310,8642,728332,0
2,-1,668281,231197,1191199,69503,8088,595559,0
2,-1,664460,229495,1377419,68950,8716,688750,0
2,-1,668390,229857,1322361,69012,8572,661144,0
2,-1,668576,231227,1192833,69665,8121,596446,0
2,-1,669035,230634,1329047,69292,8425,664446,0
2,-1,667174,229643,1302559,69002,8117,651214,0
2,-1,667948,230284,1291092,69220,8396,645509,0
2,-1,670470,230232,1315440,69106,8677,657807,0
2,-1,685682,234936,1356229,72486,11135,678145,0
2,-1,689602,234955,1462210,72498,10722,730697,0
2,-1,669466,230682,1370828,69333,9685,685395,0
2,-1,668608,231474,1272431,69644,8774,636240,0
2,-1,670252,231741,1294059,69719,9072,646918,0
2,-1,669468,229937,1357777,68918,8530,678921,0
2,-1,669505,230068,1280013,69006,8722,640092,0
2,-1,689306,234921,1467641,72341,11028,733705,0
2,-1,670993,231557,1304949,69644,8311,652317,0
2,-1,671747,230989,1222721,69287,8575,611263,0
2,-1,669607,229985,1373608,68912,9228,686678,0
2,-1,664090,229884,1271307,68864,8366,635589,0
2,-1,667513,231106,1560457,69598,10097,780334,0
2,-1,670850,230906,1339083,69498,7565,669589,0
2,-1,675929,232844,1238080,70240,8365,619047,0
2,-1,672454,231911,1192521,69758,7458,596305,0
2,-1,671871,232063,1464983,69951,9228,732521,0
2,-1,672378,231572,1646597,69728,9840,824532,0
2,-1,674668,232610,1245241,70143,7906,622668,0
2,-1,699149,241091,1481270,72498,9306,740678,0
2,-1,670745,231383,1234463,69497,8044,617280,0
2,-1,671465,230862,1308562,69420,8255,654329,0
2,-1,669508,231427,1341769,69547,8079,670826,0
2,-1,689569,235465,1397167,72638,9344,698509,0
2,-1,672381,231452,1353680,69611,8984,676804,0
2,-1,676931,232362,1353389,69739,8952,676734,0
2,-1,669221,230989,1257405,69298,8582,628688,0
2,-1,672234,231616,1467836,69459,9057,733186,0
2,-1,669394,231595,1383066,69426,9845,691588,0
2,-1,670626,232435,1255249,69969,7513,627609,0
2,-1,673770,232330,1234188,70015,7863,617063,0
2,-1,669281,231451,1266535,69557,8419,633218,0
2,-1,671183,231680,1315779,69606,7916,657847,0
2,-1,672953,231774,1241274,69643,7435,620606,0
2,-1,664376,231060,1235692,69351,7903,617759,0
2,-1,690023,235763,1559667,72735,9773,779762,0
2,-1,667709,230984,1379214,69326,8899,689431,0
2,-1,670262,231266,1365015,69493,8896,682185,0
2,-1,673153,233234,1284089,70366,8834,641924,0
2,-1,691526,236472,1371299,72945,8975,685583,0
2,-1,675866,232673,1322302,69918,8094,660881,0
2,-1,670653,231135,1250543,69412,8403,625346,0
2,-1,672368,231613,1280613,69598,7872,640357,0
2,-1,670357,230720,1312815,69340,8428,656464,0
2,-1,670630,230904,1333115,69397,7478,666601,0
2,-1,675537,231185,1328292,69351,8351,664199,0
2,-1,667387,230269,1243743,69066,7804,621906,0
2,-1,670140,229974,1238719,68951,7798,619406,0
2,-1,672144,231135,1300718,69369,8309,650317,0
2,-1,675775,231474,1347553,69646,8392,673834,0
2,-1,667878,230165,1240047,69014,8147,620062,0
2,-1,669812,230513,1227813,69258,7353,613956,0
2,-1,667842,230306,1184146,69155,7705,592121,0
2,-1,673219,231638,1302502,69885,8005,650729,0
2,-1,667681,229965,1159643,69171,8000,579863,0
2,-1,670282,230039,1307380,69242,8283,653727,0
2,-1,676620,232198,1311121,70131,8580,655622,0
2,-1,694766,234659,1259650,72594,8627,629843,0
2,-1,666988,231540,1313036,69963,7426,656586,0
2,-1,668266,231504,1310741,69947,8482,655412,0
2,-1,688653,235150,1254283,72714,8836,627092,0
2,-1,670225,231900,1301668,70143,8346,651087,0
2,-1,669620,231773,1406013,70001,8307,702775,0
2,-1,668926,230123,1273921,69324,8279,636867,0
2,-1,686070,234812,1360871,72649,8995,680354,0
2,-1,665098,230214,1257016,69358,7668,628526,0
2,-1,663612,229935,1202046,69152,8148,601026,0
3,-1,719608,248448,1315363,73685,9089,657626,0
3,-1,742623,253513,1424182,77172,10539,712140,0
3,-1,718071,249559,1423425,74078,8699,712020,0
3,-1,683889,237029,1463652,70617,8621,731467,0
3,-1,665414,229840,1261563,68703,8121,630823,0
3,-1,666801,230566,1454997,68831,8745,726813,0
3,-1,668465,230984,1199008,68947,8014,599466,2
3,-1,667768,230147,1288706,68565,8559,644178,0
3,-1,687615,234574,1392759,71903,9381,696146,0
3,-1,668834,230376,1290876,68759,7230,645488,0
3,-1,662405,229930,1366892,68759,7406,683476,0
3,-1,661374,229915,1305341,68711,7050,652737,0
3,-1,665912,230315,1219695,68851,7038,609869,0
3,-1,664813,230066,1343517,68760,7793,671786,0
3,-1,668882,232243,1330211,69641,7587,665183,0
3,-1,674347,232964,1332085,69986,8523,666081,0
3,-1,664549,230335,1221029,68861,7897,610550,0
3,-1,684578,234612,1308766,72046,8541,654231,0
3,-1,669414,231165,1396840,69361,8257,698488,0
3,-1,668451,230967,1230641,69161,7301,615368,0
3,-1,670573,231991,1327280,69661,7967,663461,0
3,-1,667670,230456,1229049,68830,7279,614574,0
3,-1,685737,234852,1303970,72015,8603,651910,0
3,-1,669661,230959,1296070,68899,7738,648077,0
3,-1,671183,230975,1327091,68901,8223,663594,0
3,-1,665548,230972,1311804,69029,9144,655860,0
3,-1,670628,231862,1344467,69366,9166,672080,0
3,-1,671270,231457,1360491,69408,9107,680301,0
3,-1,666297,230744,1223540,69159,7828,611816,0
3,-1,669656,232376,1358995,69807,8330,679822,0
3,-1,672935,232929,1349419,70100,8428,674895,0
3,-1,669106,230298,1366057,68911,8371,682574,0
3,-1,668352,230675,1468206,69052,9344,733924,0
3,-1,668659,230339,1246973,68989,8916,623534,0
3,-1,668747,230158,1287093,68896,8591,643566,0
3,-1,662528,231803,1310180,69640,7484,655147,0
3,-1,662621,230585,1295157,69067,7795,647620,0
3,-1,666955,231538,1422336,69586,8370,711225,0
3,-1,661339,229546,1300624,68766,7667,650262,0
3,-1,661792,230346,1325186,69021,7252,662691,0
3,-1,667872,231217,1364927,69277,7513,682505,0
3,-1,662586,230480,1213047,69004,7731,606462,0
3,-1,670515,232535,1313197,69999,7959,656684,0
3,-1,664349,230011,1248609,68838,7280,624440,0
3,-1,661806,230221,1384279,68748,8878,692280,0
3,-1,668862,232346,1363995,69722,8704,681944,0
3,-1,672845,232041,1340472,69634,9094,670252,0
3,-1,684208,235263,1253910,72312,8017,626811,0
3,-1,664979,230928,1374734,69049,7639,687369,0
3,-1,669120,231244,1318767,69224,8029,659295,0
3,-1,666384,230922,1232108,69089,7395,615964,0
3,-1,668049,231124,1422433,69186,8748,711230,0
3,-1,664009,230622,1196094,69025,7766,598017,0
3,-1,664711,230463,1260289,68931,8113,630137,0
3,-1,668904,231214,1425050,69216,8980,711973,0
3,-1,668225,230530,1170903,69002,8124,585396,0
3,-1,675620,232759,1321223,69958,8415,660525,0
3,-1,663684,231030,1275174,69072,8215,637496,0
3,-1,667716,231874,1332849,69514,7721,666458,0
3,-1,669418,232279,1324661,69790,7901,662344,0
3,-1,669406,231293,1348729,69141,7932,674336,0
3,-1,667510,231197,1374942,69250,10145,686775,0
3,-1,666394,230834,1196034,69089,7202,597998,0
3,-1,665391,230573,1292183,69011,7204,646068,0
3,-1,664739,231313,1235415,69196,7864,617611,0
3,-1,669215,231839,1329556,69541,8180,664795,0
3,-1,668270,231809,1354404,69502,7860,677117,0
3,-1,687091,235886,1316044,72368,8142,657996,0
3,-1,668912,230927,1275979,68890,7982,638016,0
3,-1,670031,231081,1302671,68937,8062,651355,0
3,-1,665392,230823,1338250,69073,7636,669110,0
3,-1,666303,231082,1233308,69002,7339,616681,0
3,-1,668861,231318,1206811,69019,8130,603356,0
3,-1,673484,233252,1435641,70010,8602,717833,0
3,-1,669242,230657,1339228,68917,8615,669585,0
3,-1,670558,231632,1364605,69188,8433,682260,0
3,-1,666169,230931,1343417,68948,8155,671771,0
3,-1,668663,231351,1223744,69166,7630,611844,0
3,-1,671351,232006,1357668,69416,8094,678558,0
3,-1,672648,231481,1326131,69340,7676,663085,0
3,-1,676426,233764,1338170,70352,8054,669101,0
3,-1,672217,231761,1223621,69413,7266,611815,0
3,-1,675857,232078,1325625,69292,8361,662695,0
3,-1,672886,233496,1283038,69909,9259,641436,0
3,-1,672145,232348,1398715,69381,9017,699361,0
3,-1,667573,231391,1329286,69031,8311,664616,0
3,-1,669191,233044,1331793,69763,8844,665875,0
3,-1,673504,233283,1301832,70005,7823,650877,0
3,-1,693361,236490,1400049,72600,8458,699941,0
3,-1,688037,235973,1244203,72385,8938,621994,0
3,-1,670585,231439,1341988,69138,8216,670918,0
3,-1,667332,230755,1377747,69000,8197,688867,0
3,-1,664333,230362,1242088,68817,8747,621011,0
3,-1,664897,230018,1326993,68636,8149,663461,0
3,-1,672745,232269,1391005,69623,8609,695448,0
3,-1,665558,229672,1298164,68579,7546,649117,0
3,-1,687187,235106,1275487,72233,8937,637657,0
3,-1,673002,233147,1328371,69936,8550,664149,0
3,-1,665145,230562,1558553,68817,9564,779112,0
3,-1,670131,231822,1356971,69389,8533,678231,0
3,-1,665281,230342,1347104,68832,8737,673572,0
3,-1,669473,230610,1357602,68964,8805,678905,0
3,-1,667390,230314,1393054,68716,9224,696533,0
3,-1,670673,231981,1405771,69544,8553,702710,0
3,-1,678141,233107,1366202,69904,9205,683146,0
3,-1,670718,230765,1365006,68647,9078,682291,0
3,-1,692755,236350,1370314,72357,9702,685180,0
3,-1,670643,230598,1276612,68637,8192,638298,0
3,-1,667005,231038,1382493,68761,8705,691250,0
3,-1,669243,230913,1280684,68824,8668,640464,0
3,-1,665329,230583,1261471,68708,7539,630742,0
3,-1,673116,233195,1262253,69927,8382,631054,0
3,-1,664011,229860,1371140,68500,8625,685528,0
3,-1,669191,230416,1387615,68731,9139,693815,0
3,-1,671937,231968,1356075,69442,8373,677977,0
3,-1,665896,230477,1361698,68810,8428,680805,0
3,-1,672872,232606,1317505,69644,8787,658687,0
3,-1,668925,230672,1355922,68844,8514,677955,0
3,-1,668943,230510,1277782,68785,8188,638892,0
3,-1,669818,230512,1384336,68814,8148,692126,0
3,-1,670170,230751,1290373,68837,8846,645093,0
3,-1,692259,235291,1305703,72163,8985,652876,0
3,-1,665539,230121,1178193,68660,7584,589017,0
3,-1,666442,229961,1426671,68601,7691,713336,0
3,-1,674780,232081,1306909,69480,8257,653384,0
3,-1,671281,231913,1215886,69433,7620,607894,0
3,-1,667638,230376,1397786,68729,7869,698902,0
3,-1,664791,230184,1235968,68674,8083,617902,0
3,-1,673739,231227,1246202,69211,7765,623038,0
3,-1,671359,230682,1211330,68810,7800,605677,0
3,-1,676687,232274,1191104,69639,7963,595345,0
3,-1,670137,230970,1342980,68967,7357,671469,0
3,-1,670344,230172,1248088,68586,6826,623971,0
3,-1,656885,230315,1219879,68238,6586,609976,0
3,-1,660610,230317,1264591,68249,7134,632305,0
3,-1,683285,234685,1331596,71463,8013,665795,0
3,-1,662645,231042,1323988,68436,8356,662001,0
3,-1,660808,230397,1225624,68238,7507,612792,0
3,-1,668601,231899,1316698,68937,7663,658311,0
3,-1,664219,230038,1216958,68147,7046,608444,0
3,-1,661706,230328,1312417,68200,8178,656199,0
3,-1,662341,230206,1341485,68263,8232,670706,0
3,-1,662344,229450,1423144,68043,8468,711539,0
3,-1,664989,229970,1343653,68205,8016,671830,0
3,-1,669792,232229,1309577,70087,9852,654924,0
3,-1,667457,230401,1420707,69275,10333,710276,0
3,-1,663312,230643,1381406,69291,9463,690545,0
3,-1,669495,231839,1308628,69917,10428,654170,0
3,-1,671636,231719,1269446,69806,8431,634707,0
3,-1,667303,231922,1218213,70000,8256,608989,0
3,-1,668337,230703,1349513,69320,8348,674744,0
3,-1,663802,229332,1368415,68880,8255,684197,0
3,-1,663474,229909,1367779,69139,7727,683848,0
3,-1,662893,229364,1305426,68829,9165,652935,0
3,-1,692028,235228,1488582,72650,10545,743993,0
3,-1,690725,235074,1456341,72547,9972,727897,0
3,-1,669579,230452,1254335,69273,8097,627185,0
3,-1,665020,230953,1390555,69421,9987,695403,0
3,-1,668983,232280,1273613,70171,7801,636723,0
3,-1,670541,231846,1316573,69888,8613,658220,0
3,-1,686656,234544,1384463,72419,9522,692348,0
3,-1,664008,229732,1387072,69025,8121,693562,0
3,-1,688668,234580,1407074,72436,9634,703194,0
3,-1,665364,230184,1244207,69176,8638,622074,0
3,-1,689522,234992,1392601,72536,9253,696319,0
3,-1,670110,230479,1236458,69313,8632,618118,0
3,-1,670031,231274,1270312,69657,8509,635025,0
3,-1,672088,231175,1303115,69455,9216,651399,0
3,-1,666618,231103,1360904,69395,9165,680412,0
3,-1,667190,230939,1314315,69276,8581,657137,0
3,-1,688302,234761,1405162,72448,9839,702565,0
3,-1,668383,230741,1419196,69250,8774,709318,0
3,-1,671471,230355,1282099,69048,8106,641448,0
3,-1,674606,231891,1298263,69741,9277,648908,0
3,-1,670099,230355,1370079,69086,8845,685073,0
3,-1,673236,231536,1413109,69448,9580,706300,0
3,-1,667807,230688,1346457,69198,9198,673119,0
3,-1,670704,230793,1301889,69211,8726,650945,0
3,-1,671253,230165,1369037,68933,9724,684392,0
3,-1,666611,231173,1351450,69380,9055,675681,0
3,-1,664590,230357,1315347,69309,8422,657719,0
3,-1,693964,236234,1383280,72995,8801,691554,0
3,-1,672607,231990,1342066,69797,8464,671076,0
3,-1,671563,232284,1258423,70013,7530,629274,0
3,-1,673750,231566,1334668,69726,8330,667380,0
3,-1,670533,231107,1364646,69544,8579,681951,0
3,-1,676355,233475,1484035,70527,10933,741498,0
3,-1,675912,233583,1229971,70527,8379,615065,0
3,-1,679303,233337,1242121,70462,8308,621118,0
3,-1,670216,230791,1262549,69356,8469,631319,0
3,-1,672034,232834,1258452,70223,7924,628840,0
3,-1,672673,232268,1257620,69852,8265,628742,0
3,-1,671633,231580,1327921,69595,8205,664164,0
3,-1,673887,231946,1334186,69758,8953,667203,0
3,-1,672663,231697,1253111,69545,7930,626501,0
3,-1,677750,233136,1380520,70115,9651,690105,0
3,-1,667642,230960,1377563,69209,8757,688741,0
3,-1,675332,233195,1253247,70307,8016,626565,0
3,-1,670572,230634,1368334,69153,8599,684146,0
3,-1,667710,230733,1229590,69264,8466,614709,0
3,-1,693048,239036,1297867,71709,8288,648928,0
3,-1,670117,231103,1323935,69388,7821,662039,0
3,-1,695618,235520,1337618,72676,9878,668750,0
3,-1,666642,230611,1365561,69228,9234,682720,0
3,-1,669520,231500,1386602,69529,8627,693613,0
3,-1,674778,232665,1345121,70070,9454,672143,0
3,-1,670702,232070,1422080,69902,9181,711500,0
3,-1,673428,231999,1340770,69628,8506,670391,0
3,-1,671389,231142,1227661,69325,7438,613838,0
3,-1,671130,231683,1427221,69594,7920,713646,0
3,-1,677846,233279,1345139,70431,7952,672636,0
3,-1,669698,230934,1258801,69400,8229,629448,0
3,-1,696371,235986,1372202,72876,8612,686049,0
3,-1,674865,230982,1330335,69329,8718,665219,0
3,-1,671962,232338,1312921,69933,7812,656572,0
3,-1,673029,231313,1337873,69417,7832,668988,0
3,-1,700406,240912,1368637,72467,8404,684395,0
3,-1,674404,231427,1381105,69445,8121,690514,0
3,-1,673542,232915,1235151,70234,8158,617645,0
3,-1,668704,230586,1206460,69209,7210,603271,0
3,-1,669826,231229,1323012,69565,7933,661533,0
3,-1,670264,230669,1295378,69257,8102,647718,0
3,-1,666166,229669,1209226,69059,8049,604655,0
3,-1,667881,229723,1295216,69131,8286,647645,0
3,-1,670648,229589,1298344,69113,7798,649206,0
3,-1,672045,229514,1312254,69015,8001,656185,0
3,-1,683074,234590,1363953,72575,8841,681905,0
3,-1,662763,229599,1201931,69094,8002,601001,0
3,-1,664791,229765,1221155,69162,7638,610564,0
3,-1,686960,234872,1357250,72662,8745,678588,0
3,-1,664330,229891,1300846,69166,7565,650448,0
3,-1,666066,229248,1220945,68942,7664,610449,0
3,-1,661136,229076,1201570,69020,7431,600792,0
3,-1,669855,231675,1355104,69999,8084,677518,0
3,-1,668504,230348,1336428,69270,8031,668197,0
4,-1,719083,248725,1413886,73739,8624,706967,0
4,-1,720597,248537,1298383,73754,9304,649238,0
4,-1,714385,248198,1370399,73620,8328,685022,0
4,-1,707281,244786,1350858,72527,8586,675481,0
4,-1,686742,234556,1338876,72026,8970,669883,0
4,-1,664318,230061,1271316,68683,8104,635798,0
4,-1,666033,230076,1320392,68649,8799,659934,0
4,-1,667304,230239,1301114,68727,7850,650677,0
4,-1,666394,230655,1360703,68885,8876,680016,2
4,-1,673137,232300,1331863,69664,8317,666058,0
4,-1,663774,230849,1200505,68995,6859,600292,0
4,-1,667942,231906,1349764,69560,7540,674941,0
4,-1,684651,234205,1339975,71886,8888,669916,0
4,-1,666557,231111,1235435,69097,7541,617757,0
4,-1,665085,230504,1343559,68907,7535,671832,0
4,-1,664449,229662,1374147,68603,7682,687114,0
4,-1,667721,231897,1361802,69525,8204,680964,0
4,-1,666104,230245,1256294,68860,7860,627982,0
4,-1,664296,229373,1246490,68498,8188,623328,0
4,-1,675359,232934,1296302,69969,7792,648216,0
4,-1,670993,230856,1301350,69163,7292,650692,0
4,-1,666959,230531,1315374,68804,7433,657746,0
4,-1,666064,230662,1259269,68849,7634,629719,0
4,-1,687400,235328,1273322,72144,8276,636341,0
4,-1,669477,231199,1238818,69020,8132,619460,0
4,-1,666008,231309,1210538,69148,8173,605305,0
4,-1,673116,231809,1335431,69504,8687,667795,0
4,-1,667194,230702,1312881,68943,7818,656568,0
4,-1,676128,232604,1564499,69887,10209,782324,0
4,-1,668756,230757,1333774,69124,8420,667025,0
4,-1,665722,230564,1367078,69031,8470,683378,0
4,-1,669424,231278,1327849,69293,7844,664182,0
4,-1,670747,231946,1412510,69755,9054,706093,0
4,-1,668913,230608,1412396,69010,8438,705462,0
4,-1,670551,231200,1206944,69253,8398,603512,0
4,-1,671931,230458,1207434,69032,7534,603766,0
4,-1,685426,234532,1245136,72181,9349,622537,0
4,-1,662525,230411,1308814,68957,7824,654442,0
4,-1,663576,230237,1292139,68912,9094,646091,0
4,-1,672765,232846,1253166,70101,7757,626652,0
4,-1,668218,231774,1305716,69721,7636,652947,0
4,-1,667833,230910,1270554,69194,7638,635308,0
4,-1,684407,234511,1389258,72101,8790,694674,0
4,-1,668337,232211,1406487,69823,8747,703309,0
4,-1,669847,232998,1434568,69980,9910,716758,0
4,-1,666959,230735,1405966,68983,8911,702978,0
4,-1,694033,236840,1287271,73320,8847,643452,0
4,-1,663619,231348,1201056,69251,7430,600444,0
4,-1,662116,230488,1345286,68993,9611,672559,0
4,-1,667483,231108,1295648,69116,7737,647837,0
4,-1,664649,230589,1160545,69007,7547,580244,0
4,-1,667424,231426,1310382,69225,6927,655178,0
4,-1,662507,230292,1340979,68867,8603,670296,0
4,-1,666180,231405,1203416,69289,7508,601636,0
4,-1,667511,230767,1216281,69106,7536,608088,0
4,-1,688912,235675,1222397,72461,8793,611121,0
4,-1,691458,235649,1266546,72426,8960,633275,0
4,-1,663812,231150,1385303,69187,7900,692622,0
4,-1,664210,230845,1307439,69038,7441,653724,0
4,-1,667452,231519,1307149,69303,7906,653620,0
4,-1,666892,230491,1213541,68902,7275,606754,0
4,-1,668218,232004,1248682,69587,7688,624075,0
4,-1,670378,232426,1317212,69767,7233,658597,0
4,-1,666435,230503,1181025,68980,7061,590474,0
4,-1,667232,231499,1230532,69244,7334,615285,0
4,-1,666603,230866,1227534,69058,7766,613836,0
4,-1,669676,231378,1345502,69014,8368,672740,0
4,-1,666299,231671,1317375,69223,7938,658675,0
4,-1,667127,230840,1304559,68939,7721,652254,0
4,-1,689906,235492,1301890,72211,8281,650853,0
4,-1,664381,230564,1297030,68930,7020,648521,0
4,-1,667959,232193,1444254,69569,7945,722115,0
4,-1,667820,230730,1331220,68875,8601,665605,0
4,-1,687958,235282,1320944,72163,8931,660484,0
4,-1,670886,231276,1430459,69064,8650,715248,0
4,-1,669716,230651,1270545,68821,7548,635223,0
4,-1,691722,235241,1247395,72163,9126,623622,0
4,-1,669620,232066,1314380,69608,8072,657165,0
4,-1,672167,231644,1323469,69328,7689,661698,0
4,-1,671914,231569,1326433,69299,8295,663233,0
4,-1,692766,236846,1305509,72842,8316,652699,0
4,-1,675765,232979,1299624,70055,8368,649423,0
4,-1,675992,232347,1443750,69313,8932,721705,0
4,-1,669049,232473,1238181,69389,8641,619050,0
4,-1,672706,233008,1315659,69739,8683,657825,0
4,-1,667982,231557,1219496,69043,7424,609721,0
4,-1,671305,231477,1363800,68996,8197,681894,0
4,-1,689852,236428,1283401,72596,8478,641642,0
4,-1,671348,232133,1415047,69394,7895,707550,0
4,-1,666163,231319,1188230,69026,8038,594046,0
4,-1,669758,231571,1322867,69132,8353,661389,0
4,-1,669645,232071,1337025,69589,8113,668509,0
4,-1,665639,230622,1177098,68919,7939,588471,0
4,-1,692720,236003,1262764,72417,9056,631326,0
4,-1,660462,228581,1317425,68220,8768,658751,0
4,-1,667703,230619,1393427,68930,8381,696674,0
4,-1,664645,230607,1313136,68929,8026,656581,0
4,-1,664792,230409,1235295,68775,7535,617630,0
4,-1,673948,234278,1443353,70326,9484,721476,0
4,-1,667949,231302,1313576,69131,8528,656722,0
4,-1,668019,231474,1307583,69399,8306,653777,0
4,-1,689377,235439,1345850,72323,9908,672718,0
4,-1,671568,232459,1350835,69762,8570,675372,0
4,-1,689246,235612,1332159,72349,8875,666102,0
4,-1,692648,235512,1301764,72221,9566,650844,0
4,-1,670447,230967,1287833,68830,9048,643959,0
4,-1,670948,230734,1278677,68709,8649,639297,0
4,-1,672555,230760,1363982,68676,8949,681995,0
4,-1,669096,232468,1379103,69522,9174,689410,0
4,-1,669911,231445,1331148,69026,8977,665543,0
4,-1,695304,240243,1436991,71601,8934,718484,0
4,-1,685716,234764,1335233,71987,8590,667577,0
4,-1,692001,235326,1351746,72162,9404,675877,0
4,-1,673550,232643,1339244,69739,8204,669554,0
4,-1,670629,230882,1250231,68919,8826,625131,0
4,-1,665378,229606,1248152,68509,8028,624084,0
4,-1,665285,230082,1352483,68580,8326,676220,0
4,-1,695163,240332,1382106,71890,8353,691041,0
4,-1,667226,230276,1384940,68681,8364,692440,0
4,-1,667624,230062,1243482,68629,7793,621755,0
4,-1,668411,230456,1375161,68792,9177,687581,0
4,-1,668863,230266,1312410,68699,8505,656197,0
4,-1,665839,230601,1216523,68862,7643,608267,0
4,-1,665487,230740,1243473,68899,7523,621616,0
4,-1,669355,230604,1387265,68846,7976,693451,0
4,-1,668212,230440,1284854,68800,7786,642415,0
4,-1,674988,232561,1321713,69650,7941,660834,0
4,-1,674905,232217,1274558,69540,8434,637236,0
4,-1,668100,229954,1340285,68595,7890,670097,0
4,-1,669783,230496,1337600,68811,7665,668672,0
4,-1,692312,234802,1299336,72011,9037,649595,0
4,-1,670845,230204,1298520,68702,7821,649267,0
4,-1,671715,230522,1303154,68724,7655,651588,0
4,-1,694103,235037,1262190,72002,8130,631046,0
4,-1,658112,229618,1230503,67929,7191,615255,0
4,-1,662896,230334,1331864,68242,7377,665830,0
4,-1,666030,230804,1211452,68409,7377,605707,0
4,-1,665623,231207,1292399,68589,7415,646250,0
4,-1,663149,230390,1397300,68286,7445,698603,0
4,-1,666987,231454,1287102,68635,7693,643426,0
4,-1,682151,234923,1422239,71555,8696,711034,0
4,-1,662469,230338,1444000,68190,8694,721992,0
4,-1,672320,233547,1302456,69731,8206,651210,0
4,-1,665201,230258,1327042,68294,8009,663511,0
4,-1,664845,229558,1204283,68892,9038,602140,0
4,-1,670774,231335,1643020,69524,10336,821453,0
4,-1,683754,235080,1495461,72579,11374,747672,0
4,-1,665241,230532,1415040,69287,10400,707289,0
4,-1,665119,230062,1327496,69120,8403,663756,0
4,-1,668242,230438,1266790,69298,8049,633385,0
4,-1,670570,231509,1239103,69867,8219,619507,0
4,-1,667935,230171,1325847,69171,7682,662923,0
4,-1,666601,230923,1322614,69484,8036,661299,0
4,-1,671332,232268,1369659,70022,9246,684623,0
4,-1,667868,229480,1269994,68938,8971,634879,0
4,-1,667372,230066,1313305,69125,8478,656406,0
4,-1,668080,230103,1460113,69128,9027,730041,0
4,-1,666230,231602,1291219,69760,9495,645649,0
4,-1,664175,229756,1438373,68992,9296,718920,0
4,-1,666047,230094,1369273,69120,8982,684747,0
4,-1,663739,230202,1322605,69129,8359,661254,0
4,-1,669594,232242,1266516,70130,8781,633042,0
4,-1,666792,229756,1293696,69084,8106,646878,0
4,-1,663689,229963,1202572,69131,8255,601202,0
4,-1,664662,229902,1259383,69063,8297,629733,0
4,-1,670570,230978,1325088,69365,8915,662446,0
4,-1,671563,232187,1256176,70081,8344,627735,0
4,-1,668770,230121,1409392,69099,9216,704287,0
4,-1,668061,228888,1458921,68713,9334,729617,0
4,-1,669095,231347,1363311,69404,9507,681613,0
4,-1,666825,230408,1294432,69219,8129,646784,0
4,-1,691626,239168,1491107,71692,8647,745611,0
4,-1,672876,231951,1297423,69839,8518,648608,0
4,-1,670188,230516,1350288,69150,8532,675201,0
4,-1,670094,231278,1255884,69534,8945,627835,0
4,-1,670126,230866,1207823,69388,8535,603740,0
4,-1,693976,235220,1547493,72447,11215,773688,0
4,-1,670564,230800,1351267,69285,8591,675627,0
4,-1,675267,231864,1350812,69718,9292,675283,0
4,-1,685022,235101,1447750,72479,10310,723765,0
4,-1,668732,231916,1225834,70088,8078,613059,0
4,-1,669656,231129,1227706,69526,7665,613905,0
4,-1,669187,231247,1350100,69531,8703,675029,0
4,-1,670864,231584,1228196,69627,7291,614138,0
4,-1,693986,236183,1380627,73100,8793,690330,0
4,-1,672713,232282,1287919,70117,8478,642799,0
4,-1,670372,231444,1232018,69632,8795,616054,0
4,-1,690342,236020,1362348,72887,9353,681103,0
4,-1,671966,230938,1354081,69347,7626,677118,0
4,-1,676632,233141,1225816,70347,8343,612905,0
4,-1,668456,231547,1370264,69591,8840,685132,0
4,-1,669709,231493,1527525,69632,9703,763809,0
4,-1,670961,231717,1249807,69680,8340,624888,0
4,-1,670898,231108,1255106,69462,8304,627637,0
4,-1,672919,232258,1266218,69845,7929,633136,0
4,-1,672176,231474,1367746,69407,8433,683867,0
4,-1,672927,233320,1320877,70235,9887,660295,0
4,-1,691766,235998,1565631,72748,9010,782808,0
4,-1,671014,230825,1309316,69192,8014,654683,0
4,-1,676651,233470,1205288,70427,8565,602539,0
4,-1,692073,235531,1318228,72660,8649,659051,0
4,-1,677743,232270,1244167,69977,8492,621949,0
4,-1,673588,231320,1333559,69493,8446,666864,0
4,-1,666354,230859,1338373,69370,8815,668992,0
4,-1,688992,235870,1410158,72767,9675,704602,0
4,-1,670807,231434,1397645,69522,9461,698271,0
4,-1,666717,231091,1581954,69348,9322,790377,0
4,-1,674209,232813,1232000,70197,8042,615835,0
4,-1,670980,231382,1385104,69477,8086,692536,0
4,-1,668958,231162,1326926,69434,7496,663509,0
4,-1,673274,231664,1326755,69704,6928,663425,0
4,-1,670088,231085,1324621,69445,7823,662362,0
4,-1,672374,230721,1222505,69293,7689,611303,0
4,-1,676130,232523,1288922,70033,7082,644524,0
4,-1,670093,231285,1373130,69450,7998,686597,0
4,-1,669906,230561,1312896,69200,7094,656496,0
4,-1,672095,231438,1219244,69414,7775,609678,0
4,-1,671238,230556,1227662,69144,8026,613879,0
4,-1,687630,235275,1325207,72460,8645,662607,0
4,-1,666432,230153,1299920,69070,7390,650011,0
4,-1,671492,230158,1229444,69125,6814,614768,0
4,-1,671972,230306,1219425,69198,7528,609753,0
4,-1,673375,230629,1221275,69423,7771,610678,0
4,-1,668543,230365,1232341,69351,7741,616212,0
4,-1,696772,236349,1354881,73655,8929,677362,0
4,-1,673405,230514,1217726,69431,7689,608912,0
4,-1,663080,230233,1289474,69309,7398,644774,0
4,-1,666477,230577,1308367,69476,7749,654229,0
4,-1,668368,231110,1218438,69628,7823,609270,0
4,-1,662661,229469,1334218,69058,7332,667151,0
4,-1,670199,232194,1297209,70229,7978,648676,0
4,-1,676244,233300,1309309,70618,9042,654205,0
4,-1,664198,230079,1191622,69314,7829,595795,0
4,-1,666554,230546,1292958,69393,7761,646509,0
4,-1,666371,229529,1282204,68970,7699,641042,0
4,-1,665421,229923,1192158,69061,7543,596075,0
5,-1,741252,253473,1357038,77179,9025,678639,0
5,-1,719602,248178,1439807,73580,9483,719716,0
5,-1,721902,248703,1375059,73726,8936,687367,0
5,-1,715257,247774,1294905,73447,8145,647451,0
5,-1,665207,230114,1299627,68737,7713,649342,0
5,-1,662998,229895,1336874,68518,8172,668487,0
5,-1,666992,230804,1274225,68833,8118,637305,0
5,-1,665986,230291,1268786,68756,7530,634437,0
5,-1,690898,235384,1429767,72180,9604,714549,0
5,-1,661958,230925,1221569,68956,7233,610847,2
5,-1,666595,231912,1306622,69626,7398,653369,0
5,-1,662248,230508,1181217,68899,7710,590637,0
5,-1,663852,229869,1275553,68763,7178,637828,0
5,-1,665041,230502,1206860,68930,7131,603296,0
5,-1,663659,229543,1170047,68552,7486,585043,0
5,-1,665922,230513,1230523,68913,7587,615306,0
5,-1,661353,229747,1329587,68640,7767,664853,0
5,-1,664487,229994,1337416,68709,8664,668746,0
5,-1,686270,234739,1290287,72135,8287,645107,0
5,-1,666809,230884,1215258,68903,7049,607686,0
5,-1,671119,231273,1214585,69185,7359,607328,0
5,-1,670601,230872,1229419,68973,7899,614771,0
5,-1,665306,231120,1200765,69022,7989,600437,0
5,-1,666328,230282,1334642,68772,7722,667400,0
5,-1,668078,230841,1310875,68866,7683,655410,0
5,-1,674072,232475,1249166,69767,9003,624626,0
5,-1,668133,230329,1225159,68803,7571,612614,0
5,-1,669037,230760,1387259,69004,9324,693671,0
5,-1,691986,235482,1252307,72452,9721,625826,0
5,-1,666803,230395,1368501,69016,9189,683747,0
5,-1,669051,230715,1382289,69053,8629,690876,0
5,-1,668114,230714,1277601,69094,7984,638465,0
5,-1,688157,234775,1263698,72185,8927,631826,0
5,-1,670825,230913,1290775,69151,9085,644960,0
5,-1,671554,230887,1217395,69175,8518,608745,0
5,-1,676069,232260,1320299,69863,8532,660258,0
5,-1,663707,230541,1191039,69068,7675,595566,0
5,-1,660482,230022,1311010,68864,7843,655544,0
5,-1,667384,232305,1385502,69878,9546,692582,0
5,-1,666291,231696,1286629,69571,8885,642913,0
5,-1,684930,234872,1278663,72223,7886,639238,0
5,-1,666187,230242,1289605,68941,7415,644882,0
5,-1,665546,231031,1367642,69190,8259,683564,0
5,-1,684153,234948,1292120,72315,8181,646003,0
5,-1,671384,232440,1377438,69740,8365,688435,0
5,-1,671478,232645,1392873,69965,8261,696442,0
5,-1,672036,232157,1352104,69654,8453,676102,0
5,-1,665884,231879,1331098,69567,8028,665549,0
5,-1,665849,232342,1249576,69742,8034,624858,0
5,-1,665622,230014,1320087,68726,7706,659999,0
5,-1,668145,231962,1251600,69620,8208,625751,0
5,-1,666984,230777,1215448,69044,7377,607718,0
5,-1,669346,231089,1353489,69092,7912,676833,0
5,-1,668922,232485,1346230,69776,8180,673010,0
5,-1,665635,230370,1222574,68877,7610,611228,0
5,-1,666029,230163,1229062,68899,8311,614549,0
5,-1,668804,230871,1229613,69104,7147,614635,0
5,-1,664100,231477,1368542,69237,7914,684257,0
5,-1,667645,231594,1302851,69301,7390,651462,0
5,-1,663248,230280,1307538,68866,7312,653776,0
5,-1,670775,232564,1318916,69861,7878,659672,0
5,-1,664462,230716,1234892,69028,7816,617442,0
5,-1,665186,230558,1215902,68997,7254,607947,0
5,-1,670253,232332,1319110,69738,7666,659552,0
5,-1,668765,230650,1238185,68977,7697,618998,0
5,-1,664147,230021,1321895,68701,7536,660940,0
5,-1,670407,231914,1303670,69333,7661,651845,0
5,-1,674542,232741,1275866,69737,8601,637811,0
5,-1,667009,231061,1298622,69015,7762,649281,0
5,-1,666727,230360,1322365,68722,7649,661189,0
5,-1,664893,230977,1249507,69135,7047,624805,0
5,-1,667701,230435,1395141,68778,8098,697604,0
5,-1,666633,231024,1328746,68975,7913,664347,0
5,-1,669081,231848,1345317,69260,8215,672566,0
5,-1,670108,231322,1370004,69120,8820,684990,0
5,-1,669993,231138,1276972,69017,7276,638394,0
5,-1,670754,230690,1320414,68839,7468,660155,0
5,-1,668758,230475,1332670,68745,8290,666345,0
5,-1,669046,231545,1323676,69178,8147,661811,0
5,-1,671736,231506,1239820,69259,7641,619769,0
5,-1,672148,231734,1370962,69393,8243,685459,0
5,-1,693469,236243,1273336,72665,8898,636721,0
5,-1,673039,232173,1314858,69262,8612,657417,0
5,-1,667645,231898,1194332,69256,7953,597109,0
5,-1,668715,232444,1336514,69344,8418,668286,0
5,-1,669585,232367,1311350,69375,8007,655634,0
5,-1,673620,232667,1347990,69478,7854,674045,0
5,-1,668237,231834,1330943,69297,8002,665497,0
5,-1,670373,231427,1310130,69115,8547,655060,0
5,-1,676818,232334,1251888,69539,8327,625914,0
5,-1,673090,233526,1321055,70034,8012,660344,0
5,-1,665359,230333,1237706,68866,7445,618859,0
5,-1,670071,230490,1363803,68845,8589,681889,0
5,-1,668445,230690,1335376,68913,8113,667679,0
5,-1,669603,230380,1346549,68779,8332,673275,0
5,-1,674003,232272,1317041,69621,9077,658493,0
5,-1,666243,230973,1317282,69066,8174,658631,0
5,-1,666658,230478,1329266,68802,8184,664641,0
5,-1,671067,231168,1394522,69063,9149,697285,0
5,-1,664892,230105,1374277,68682,9174,686876,0
5,-1,670148,230641,1248127,68942,8841,624052,0
5,-1,671209,231721,1295129,69403,8785,647481,0
5,-1,688996,235652,1332822,72342,8980,666383,0
5,-1,666035,230487,1269426,68826,8428,634462,0
5,-1,671776,231189,1321738,68950,9840,660890,0
5,-1,670098,230813,1380729,68735,9686,690347,0
5,-1,670849,230344,1351761,68583,9122,675916,0
5,-1,672969,231283,1362759,68928,9194,681376,0
5,-1,687742,235720,1338812,72069,9557,669364,0
5,-1,667054,230929,1271043,68829,8034,635500,0
5,-1,668488,231782,1359474,69231,8288,679731,0
5,-1,666181,230937,1327802,68943,8247,663907,0
5,-1,668656,230366,1363727,68769,9214,681859,0
5,-1,666121,230109,1349775,68676,8281,674459,0
5,-1,670991,230930,1309153,68887,9257,654515,0
5,-1,669410,231762,1339629,69379,8007,669799,0
5,-1,692011,235927,1336367,72361,9275,668085,0
5,-1,667622,230470,1379605,68776,8543,689721,0
5,-1,665124,230013,1331557,68595,7954,665789,0
5,-1,676460,232921,1318010,69736,9085,658956,0
5,-1,672003,232009,1316268,69397,8974,658081,0
5,-1,668858,230509,1346911,68805,8962,673413,0
5,-1,667007,231102,1190741,69186,7633,595243,0
5,-1,666614,230028,1316589,68625,7921,658245,0
5,-1,666355,229887,1329448,68582,8197,664698,0
5,-1,687830,234776,1411391,71991,7962,705739,0
5,-1,689531,235023,1362138,72070,8515,680922,0
5,-1,676859,233194,1244821,69983,8391,622291,0
5,-1,669030,230571,1329753,68871,7205,664883,0
5,-1,672118,231536,1276130,69319,7675,637961,0
5,-1,671317,230552,1311677,68823,8380,655805,0
5,-1,670555,230598,1224706,68877,7124,612386,0
5,-1,670393,230228,1318990,68608,7537,659435,0
5,-1,672354,230546,1234036,68772,6950,616960,0
5,-1,660436,230358,1279180,68233,7145,639607,0
5,-1,665016,232205,1222785,69036,7655,611375,0
5,-1,665723,231099,1317025,68477,7211,658526,0
5,-1,668050,232164,1213003,69046,7166,606492,0
5,-1,662014,230281,1279263,68221,7504,639643,0
5,-1,664581,230831,1223693,68443,7832,611808,0
5,-1,659877,230112,1259495,68202,7897,629717,0
5,-1,683263,235254,1370967,71660,9437,685410,0
5,-1,663003,230380,1357158,68390,8819,678559,0
5,-1,689647,238914,1374331,70846,8221,687108,0
5,-1,663638,229985,1360529,69090,9155,680254,0
5,-1,668302,231288,1304065,69691,9398,651799,0
5,-1,662442,230760,1379469,69376,9316,689543,0
5,-1,662861,229658,1412957,68986,9229,706231,0
5,-1,666292,230327,1325890,69257,8257,662896,0
5,-1,672083,232047,1285611,69977,7818,642814,0
5,-1,668572,230434,1318394,69241,7794,659185,0
5,-1,666957,230374,1211211,69249,7796,605602,0
5,-1,670451,230380,1315382,69268,8466,657633,0
5,-1,687433,234929,1471490,72540,10542,735731,0
5,-1,672824,232422,1241314,70073,8154,620835,0
5,-1,687463,234596,1462601,72441,10351,731170,0
5,-1,687166,234121,1405157,72238,9703,702161,0
5,-1,665087,230092,1288539,69191,8416,644266,0
5,-1,664276,230275,1344918,69230,9091,672330,0
5,-1,664810,230208,1285073,69200,8596,642514,0
5,-1,664348,230224,1366463,69208,9478,683267,0
5,-1,665277,229774,1356527,69062,9080,678233,0
5,-1,670742,231646,1380609,69824,9050,690154,0
5,-1,665224,230667,1241867,69315,8635,620882,0
5,-1,665777,230485,1404815,69257,9277,702175,0
5,-1,672183,232079,1257304,70034,8583,628388,0
5,-1,669281,230545,1262319,69318,8211,631279,0
5,-1,671893,231032,1302132,69414,9088,650435,0
5,-1,671784,230840,1500810,69395,9781,749435,0
5,-1,668352,231515,1458748,69637,9728,729057,0
5,-1,663691,229305,1496624,68761,8651,748329,0
5,-1,666871,230758,1321328,69174,8201,660548,0
5,-1,668523,230406,1378929,69110,8710,689442,0
5,-1,668120,229957,1339587,68929,8116,669842,0
5,-1,666369,230163,1436647,69069,8920,718367,0
5,-1,669404,230986,1278081,69288,9744,638601,0
5,-1,672707,231433,1378265,69598,10314,688749,0
5,-1,670835,231253,1311443,69594,8782,655603,0
5,-1,671566,230599,1360780,69146,9526,680394,0
5,-1,665505,230888,1489610,69142,9748,744336,0
5,-1,665286,230071,1313146,69097,8505,656612,0
5,-1,668372,231410,1228421,69659,7449,614244,0
5,-1,667975,231112,1341736,69462,8483,670857,0
5,-1,687810,235445,1365061,72665,9799,682558,0
5,-1,671867,231128,1383782,69642,7919,691936,0
5,-1,668417,230930,1335361,69464,8462,667726,0
5,-1,669476,231039,1258021,69439,9390,629019,0
5,-1,668859,231376,1320307,69479,8597,660193,0
5,-1,672457,231695,1411209,69707,8553,705559,0
5,-1,675031,232981,1289501,70139,9344,644617,0
5,-1,685465,234706,1407676,72411,9436,703877,0
5,-1,668929,231654,1249205,69636,7657,624427,0
5,-1,671587,232035,1311881,69734,8830,655982,0
5,-1,671299,231712,1340149,69676,8607,670043,0
5,-1,669241,230799,1284140,69228,7663,642164,0
5,-1,700768,237888,1409570,73794,10454,704582,0
5,-1,692172,237009,1576448,73004,9981,787869,0
5,-1,668245,230305,1367231,69013,7200,683656,0
5,-1,673656,232037,1298022,69847,7391,648614,0
5,-1,673193,231191,1243245,69439,8107,621463,0
5,-1,669632,231001,1228353,69403,7897,614097,0
5,-1,675100,231724,1321035,69626,8636,660528,0
5,-1,672846,231002,1329053,69354,8127,664390,0
5,-1,668470,231131,1334494,69448,9259,667455,0
5,-1,665836,230939,1298720,69300,9108,649326,0
5,-1,670130,231465,1286800,69514,8669,642821,0
5,-1,666079,231262,1313843,69446,8985,656967,0
5,-1,667537,230512,1225955,69236,7613,613009,0
5,-1,670797,230723,1328630,69058,7778,664385,0
5,-1,665634,229829,1331140,69004,7640,665602,0
5,-1,671292,231249,1350594,69521,7420,675344,0
5,-1,676692,231639,1312282,69659,8108,656184,0
5,-1,672009,231023,1360378,69438,6927,680207,0
5,-1,673938,230983,1345572,69330,7633,672840,0
5,-1,667673,230619,1230244,69210,7557,615157,0
5,-1,673968,231719,1261868,69748,7579,631055,0
5,-1,672806,231583,1163896,69500,7924,582011,0
5,-1,690966,234827,1408243,72289,9382,704097,0
5,-1,673586,230752,1301480,69231,8841,650849,0
5,-1,667709,229817,1174787,68961,7496,587436,0
5,-1,670745,230256,1329405,69157,7588,664742,0
5,-1,670812,230208,1253993,69116,7868,627040,0
5,-1,672300,230493,1333187,69321,7756,666623,0
5,-1,669289,229554,1223927,69103,7876,612005,0
5,-1,666989,229289,1305223,68950,7617,652715,0
5,-1,675305,231796,1339861,70015,7982,670011,0
5,-1,661633,229864,1195761,69239,7040,597921,0
5,-1,666837,231361,1298909,69967,8110,649396,0
5,-1,663424,229650,1203640,69111,7575,601867,0
5,-1,663009,229982,1238445,69262,7299,619264,0
5,-1,669167,230304,1378974,69352,7215,689527,0
5,-1,664841,229438,1239313,69099,8366,619642,0
5,-1,670678,231907,1312176,70065,7804,656078,0
5,-1,667773,231792,1316011,70109,7894,658014,0
5,-1,671848,231996,1340185,70107,8036,670028,0
5,-1,672306,232397,1319620,70134,8113,659712,0
6,-1,715747,247930,1406369,73552,8189,703135,0
6,-1,724485,250549,1434230,74497,8778,717166,0
6,-1,719850,248233,1372998,73591,8621,686326,0
6,-1,716204,248003,1406372,73559,8361,702762,0
6,-1,665308,230033,1285246,68729,8620,642671,0
6,-1,664080,230076,1299738,68653,8314,649925,0
6,-1,670836,232330,1362198,69570,8492,680872,0
6,-1,666949,230362,1242412,68777,8118,621234,0
6,-1,669068,230572,1368585,68849,8413,684289,0
6,-1,660060,230013,1200636,68730,6919,600354,0
6,-1,667680,232175,1246929,69739,8294,623512,0
6,-1,666037,231127,1359494,69327,7782,679727,0
6,-1,666596,231692,1364986,69538,7912,682563,0
6,-1,672806,232624,1263655,69836,8296,631836,0
6,-1,664717,229986,1337989,68700,8086,669039,0
6,-1,662616,229957,1311043,68743,7937,655572,0
6,-1,670716,232083,1424610,69532,8496,712373,0
6,-1,663411,229582,1364543,68536,7975,682314,0
6,-1,662900,229095,1164706,68512,7125,582388,0
6,-1,666916,230739,1205510,68979,7188,602749,2
6,-1,675970,233091,1354235,70053,7285,677153,0
6,-1,667123,229985,1278645,68651,7464,639416,0
6,-1,664307,230629,1185767,68955,7726,592958,0
6,-1,666495,230818,1363517,68985,9974,681168,0
6,-1,670114,231984,1316273,69264,7833,658194,0
6,-1,669624,230884,1220511,68959,8574,610200,0
6,-1,668276,230828,1299265,68982,8467,649681,0
6,-1,668452,230681,1316397,68961,8698,657513,0
6,-1,669351,230274,1231709,68942,8714,615892,0
6,-1,672757,233111,1322557,70140,7965,661344,0
6,-1,668347,230443,1420106,69026,8570,709812,0
6,-1,669676,230819,1306608,69158,8827,653362,0
6,-1,667906,230923,1190040,69188,8066,594960,0
6,-1,673550,232395,1354658,69890,9508,677335,0
6,-1,673490,232770,1238829,70101,8099,619481,0
6,-1,692208,235211,1268377,72360,8682,634214,0
6,-1,664493,231168,1308828,69445,8755,654477,0
6,-1,664571,230390,1192411,68977,7727,596251,0
6,-1,683129,235306,1315035,72392,9365,657191,0
6,-1,665469,230679,1228817,69114,8631,614637,0
6,-1,663169,230437,1295031,69047,7042,647531,0
6,-1,670854,232589,1308197,69970,7813,654157,0
6,-1,663052,230346,1208101,68962,7251,604099,0
6,-1,664886,230562,1324427,69085,7431,662251,0
6,-1,665390,230222,1308507,68883,8096,654294,0
6,-1,666956,231345,1420556,69190,8914,710310,0
6,-1,666526,230412,1190272,68885,7603,595123,0
6,-1,663366,230892,1204428,69122,7844,602250,0
6,-1,666538,230985,1156768,69123,7566,578350,0
6,-1,668408,231541,1299540,69328,7992,649822,0
6,-1,667832,231028,1401096,69098,8346,700777,0
6,-1,669833,231492,1291497,69323,9368,645596,0
6,-1,667170,230710,1230306,69014,6959,615136,0
6,-1,664013,230359,1219740,68870,7950,609805,0
6,-1,667599,230982,1300925,69104,8419,650472,0
6,-1,668744,231503,1245229,69314,8101,622540,0
6,-1,666106,230090,1321572,68810,7453,660794,0
6,-1,668826,230816,1297100,69086,8216,648614,0
6,-1,664060,230617,1388118,68996,10022,694139,0
6,-1,664036,230953,1335857,69075,7827,667910,0
6,-1,665091,230234,1302355,68850,7472,651182,0
6,-1,664530,231011,1197968,69140,6922,599016,0
6,-1,667154,230821,1327448,69051,8246,663602,0
6,-1,664025,230899,1193021,69067,6851,596531,0
6,-1,667221,230917,1314343,69022,6970,657179,0
6,-1,668681,231878,1309870,69378,7819,654925,0
6,-1,666574,231043,1267847,69157,7421,633959,0
6,-1,668177,230666,1226362,68941,8256,613209,0
6,-1,667093,231074,1378013,68952,7509,688873,0
6,-1,670847,231625,1332275,69134,8498,666095,0
6,-1,665668,230725,1260287,69052,8076,630109,0
6,-1,688729,235968,1319840,72371,8465,659902,0
6,-1,668452,230592,1431457,68891,8112,715492,0
6,-1,664120,230155,1275678,68625,7949,637842,0
6,-1,672488,232705,1375547,69778,8726,687736,0
6,-1,670627,231147,1228652,69023,8096,614342,0
6,-1,668934,230636,1490719,68814,8391,744658,0
6,-1,673803,233284,1346313,70033,8300,673145,0
6,-1,674613,232461,1332887,69707,8345,666765,0
6,-1,675096,233545,1320466,70157,7886,660150,0
6,-1,668895,230788,1309262,69036,7385,654568,0
6,-1,670680,231343,1191943,69250,7238,595993,0
6,-1,679625,233717,1329380,70047,8322,664668,0
6,-1,665937,231580,1285102,69089,8387,642560,0
6,-1,668159,231573,1240039,69137,7911,620020,0
6,-1,672291,233208,1341286,69843,8009,670599,0
6,-1,671548,231884,1333988,69181,8534,666976,0
6,-1,669919,231537,1358293,69165,8112,679149,0
6,-1,672452,232414,1320800,69674,8163,660246,0
6,-1,672426,231522,1276668,69105,8244,638382,0
6,-1,687105,235756,1290143,72319,8641,645089,0
6,-1,667169,231226,1332021,69081,8027,666009,0
6,-1,692044,236074,1396785,72501,8566,698315,0
6,-1,665024,229883,1223743,68613,7122,611886,0
6,-1,669040,230935,1342616,69038,8264,671279,0
6,-1,671997,231343,1226399,69147,7982,613156,0
6,-1,665091,230908,1203170,69085,7774,601529,0
6,-1,686709,234887,1268226,72118,8206,634013,0
6,-1,667880,230795,1247499,68895,8786,623702,0
6,-1,669444,230783,1381825,68888,8999,690915,0
6,-1,667315,229898,1385366,68687,9431,692665,0
6,-1,669490,230942,1289250,69075,8541,644314,0
6,-1,666028,230618,1360538,68868,8705,680431,0
6,-1,674854,232275,1325385,69621,8783,662515,0
6,-1,671486,231180,1434564,68995,8409,717286,0
6,-1,676511,233727,1368339,69954,9255,684214,0
6,-1,673425,231730,1278493,69064,8482,639226,0
6,-1,670360,230611,1276980,68681,8221,638453,0
6,-1,666581,231124,1369820,68837,8866,684941,0
6,-1,666781,230513,1345694,68680,8321,672839,0
6,-1,669003,231273,1286775,68991,7655,643373,0
6,-1,664167,230600,1365561,68831,8328,682743,0
6,-1,667772,230233,1334426,68756,8535,667124,0
6,-1,666408,230229,1307134,68621,7746,653555,0
6,-1,690131,235415,1300961,72201,9561,650468,0
6,-1,667502,230963,1282839,68941,7799,641557,0
6,-1,667345,230526,1336931,68770,8536,668438,0
6,-1,672628,232305,1338417,69634,8525,669170,0
6,-1,668396,230562,1248075,68811,8115,624057,0
6,-1,669489,230742,1277210,68908,8752,638564,0
6,-1,666812,230317,1367750,68762,8345,683900,0
6,-1,672240,232032,1331184,69483,8469,665502,0
6,-1,666338,230921,1193478,68951,7930,596605,0
6,-1,669414,230733,1251733,68875,7756,625897,0
6,-1,670223,230898,1304245,68853,7598,652091,0
6,-1,669267,230823,1343159,68894,7653,671476,0
6,-1,669037,230640,1231797,68805,7461,615893,0
6,-1,668964,230717,1300585,68877,7880,650270,0
6,-1,666845,230115,1378953,68729,7830,689421,0
6,-1,667098,229845,1313024,68559,7586,656534,0
6,-1,670963,231035,1239487,69107,7855,619697,0
6,-1,670564,230917,1343517,68900,7480,671739,0
6,-1,668029,230254,1325987,68611,7018,663028,0
6,-1,670165,229786,1166052,68436,6702,582995,0
6,-1,665030,232587,1205644,69186,7386,602807,0
6,-1,662498,230456,1291772,68324,7164,645879,0
6,-1,690407,239754,1224912,71005,7439,612899,0
6,-1,661975,230182,1290408,68214,7388,645202,0
6,-1,660315,229600,1230005,67976,7499,614990,0
6,-1,661672,229624,1184573,68080,7752,592278,0
6,-1,664540,232062,1268300,69002,7687,634219,0
6,-1,664449,230264,1203380,68193,7579,601630,0
6,-1,668991,232634,1222752,69295,8161,611312,0
6,-1,687523,234963,1380990,71707,9329,690396,0
6,-1,664931,229862,1250855,69113,8718,625418,0
6,-1,664317,229946,1415334,69044,9595,707491,0
6,-1,666736,230088,1314383,69113,9254,657413,0
6,-1,663339,230252,1328679,69214,9402,664119,0
6,-1,665194,230164,1490126,69153,8545,745049,0
6,-1,664737,229697,1350038,68998,7385,674969,0
6,-1,667765,230683,1348760,69328,8208,674348,0
6,-1,667923,230906,1376887,69437,8371,688459,0
6,-1,667638,229781,1240976,69033,8103,620486,0
6,-1,665699,229895,1232255,69075,8146,615865,0
6,-1,671472,232219,1300728,70036,9514,650407,0
6,-1,667017,230564,1353056,69302,9238,676308,0
6,-1,667990,231061,1268584,69394,8043,633937,0
6,-1,672535,230443,1404313,69207,8992,701987,0
6,-1,685748,234695,1419047,72472,10561,709532,0
6,-1,664836,230660,1376826,69297,8952,688473,0
6,-1,666697,230236,1333180,69194,8818,666595,0
6,-1,665654,230257,1323955,69176,8073,662005,0
6,-1,687644,234644,1361462,72474,9382,680605,0
6,-1,669212,231620,1193401,69869,8814,596426,0
6,-1,666218,229892,1293657,69051,8148,646859,0
6,-1,667196,229908,1310135,69108,8188,655067,0
6,-1,670573,230961,1275787,69377,8706,637973,0
6,-1,668223,230268,1368958,69216,8516,684390,0
6,-1,675819,232338,1357985,70052,9765,678605,0
6,-1,664816,230031,1293481,68946,9540,646326,0
6,-1,666602,230501,1408177,69249,8222,704675,0
6,-1,668182,230669,1288118,69187,9028,643882,0
6,-1,667776,230499,1472860,69132,8585,736419,0
6,-1,670326,230344,1245506,69101,8506,622862,0
6,-1,668751,230945,1432501,69333,8903,716896,0
6,-1,668927,230329,1263690,69045,9180,631676,0
6,-1,670969,230719,1403435,69185,10248,701630,0
6,-1,670997,230707,1275260,69187,8608,637595,0
6,-1,674760,232381,1279554,69986,8827,639728,0
6,-1,666373,231921,1273236,69762,8793,636539,0
6,-1,667648,230556,1317048,69216,8872,658577,0
6,-1,666834,230702,1237018,69335,9026,618550,0
6,-1,687707,235267,1387072,72600,8829,693458,0
6,-1,672727,231789,1241649,69742,8057,620858,0
6,-1,675020,232714,1200012,70315,7879,599971,0
6,-1,669082,230854,1190743,69508,7703,595403,0
6,-1,669770,231178,1267556,69575,9299,633282,0
6,-1,672171,230923,1271884,69388,7709,635976,0
6,-1,671656,231220,1318305,69535,8110,659198,0
6,-1,669889,230760,1255325,69348,8265,627675,0
6,-1,677425,232546,1308843,70099,9360,654288,0
6,-1,667056,230953,1408753,69413,9007,704402,0
6,-1,668178,231476,1221603,69560,8846,610844,0
6,-1,674678,232888,1227416,70294,8049,613681,0
6,-1,667998,231211,1362859,69362,8669,681455,0
6,-1,670029,231745,1324955,69526,9975,662416,0
6,-1,673788,231189,1391353,69196,10132,695447,0
6,-1,676392,233493,1313167,70286,8809,656372,0
6,-1,670790,231130,1380683,69401,8276,690295,0
6,-1,671964,230816,1382186,69292,8552,691060,0
6,-1,668983,231237,1262132,69427,7792,631032,0
6,-1,671735,230827,1219793,69284,7459,609930,0
6,-1,672499,230607,1381631,69245,8354,690845,0
6,-1,672617,232939,1231713,70320,8464,615710,0
6,-1,666316,230861,1381758,69304,9950,691083,0
6,-1,692073,235433,1479887,72636,9875,739469,0
6,-1,672709,231553,1362237,69564,9170,680789,0
6,-1,692420,239312,1432538,71766,8375,716118,0
6,-1,672355,231832,1310634,69526,7781,655325,0
6,-1,668534,231386,1330168,69418,7914,665131,0
6,-1,673391,231465,1305083,69593,8549,652101,0
6,-1,675870,231771,1250941,69668,7613,625376,0
6,-1,674541,231892,1294812,69706,8227,647433,0
6,-1,678313,233027,1272985,70214,8888,636605,0
6,-1,671735,230396,1260948,69094,8473,630511,0
6,-1,669686,230351,1417959,69080,7477,708978,0
6,-1,672923,232187,1200583,69886,8128,600362,0
6,-1,669677,230285,1375942,69053,9218,688027,0
6,-1,676147,231724,1323119,69740,8578,661608,0
6,-1,670619,230681,1251717,69508,7853,625927,0
6,-1,668801,229937,1264829,69005,7333,632451,0
6,-1,669580,230404,1498663,69221,9125,749360,0
6,-1,672174,230323,1196202,69320,8002,598132,0
6,-1,673019,231404,1226009,69995,7736,613052,0
6,-1,671026,229978,1325470,69229,8831,662776,0
6,-1,672000,229802,1335716,69209,8245,667904,0
6,-1,665567,231463,1269292,69920,7737,634692,0
6,-1,661559,229511,1354890,69050,7719,677524,0
6,-1,664652,229967,1322679,69233,7578,661442,0
6,-1,668527,231901,1314877,70152,7851,657486,0
6,-1,666966,230004,1316117,69247,7229,657997,0
6,-1,670597,231532,1249318,69886,8074,624557,0
6,-1,663488,229757,1269404,69113,7077,634728,0
6,-1,667791,229842,1229562,69260,7773,614881,0
6,-1,670266,231755,1235110,69897,7482,617497,0
6,-1,669977,231323,1307515,69712,8006,653789,0
7,-1,716732,248201,1331670,73608,8168,665625,0
7,-1,717015,248164,1379306,73592,8401,689157,0
7,-1,726031,250079,1442914,74416,10169,721510,0
7,-1,718437,249360,1317298,73990,7682,658816,0
7,-1,667225,231224,1185961,69130,7640,592720,0
7,-1,669262,230653,1357533,68984,9081,678809,0
7,-1,685368,234305,1376846,71817,8877,687980,0
7,-1,664812,229599,1224549,68432,8718,612311,0
7,-1,668285,230111,1367369,68652,9297,683727,0
7,-1,661559,229759,1304210,68624,7683,652147,0
7,-1,685041,234286,1242065,71951,8152,620969,0
7,-1,661473,229702,1219475,68663,7232,609778,0
7,-1,679125,233349,1358582,71676,7852,679288,0
7,-1,687263,234747,1232221,72142,8648,616137,0
7,-1,666874,230447,1369002,68917,8055,684554,0
7,-1,668026,232412,1318560,69800,8171,659123,0
7,-1,667236,231114,1270066,68998,7345,635066,0
7,-1,667671,230686,1276207,68961,8677,638148,0
7,-1,666240,231225,1299395,69441,7164,649636,0
7,-1,688865,234932,1400185,72203,7229,700122,0
7,-1,666344,230053,1326671,68758,7532,663382,0
7,-1,673960,232984,1335098,69871,8054,667627,2
7,-1,668940,230247,1258982,68823,7696,629535,0
7,-1,664330,230914,1272915,68964,8527,636496,2
7,-1,669069,231931,1324486,69447,7936,662298,0
7,-1,673385,233087,1375780,69911,8374,687963,0
7,-1,667725,231322,1331922,69081,7973,665812,2
7,-1,671389,231900,1208928,69320,8119,604411,0
7,-1,663564,230247,1171873,68790,7478,585977,2
7,-1,663845,229625,1341994,68507,7812,671420,0
7,-1,671164,232592,1342698,69817,8319,671146,2
7,-1,672844,232841,1323047,69868,8045,661542,0
7,-1,668902,231082,1211437,69111,7277,605677,2
7,-1,667680,229866,1251493,68763,8350,625392,0
7,-1,687542,235321,1282119,72416,8169,641055,0
7,-1,667860,230297,1348760,68932,8786,674420,0
7,-1,665764,230418,1260792,69058,8355,630340,2
7,-1,670485,231663,1257059,69590,8682,628525,0
7,-1,674843,232725,1407540,70009,7912,703420,2
7,-1,670008,231833,1364651,69659,8711,682394,0
7,-1,667091,230920,1278024,69199,9080,638520,2
7,-1,689034,235029,1362508,72344,9759,681091,0
7,-1,688867,235441,1193004,72453,8700,596463,0
7,-1,673890,231013,1379530,69175,8354,689739,0
7,-1,661757,230741,1235595,69136,7540,617925,2
7,-1,688492,239424,1344801,71645,7731,672336,0
7,-1,664851,232655,1256714,70055,8432,628394,2
7,-1,684935,235136,1278596,72371,8669,639310,0
7,-1,663924,230920,1302481,69221,7546,651325,2
7,-1,661991,230494,1530533,69042,8572,765096,0
7,-1,664006,230302,1270045,68941,8536,635037,0
7,-1,662796,229870,1270849,68779,7638,635458,0
7,-1,663547,230839,1234395,69169,7465,617251,2
7,-1,665113,230296,1352997,68984,7615,676542,0
7,-1,662560,230470,1175285,69011,6942,587688,0
7,-1,664492,231142,1271659,69274,7760,635603,2
7,-1,666190,231160,1307773,69261,7275,653943,0
7,-1,671516,232777,1352746,69991,8097,676897,0
7,-1,662283,230987,1306562,69153,9746,653250,2
7,-1,665977,230939,1380301,69035,8376,690073,0
7,-1,669810,231758,1254493,69368,7994,627257,0
7,-1,669797,231526,1210235,69327,8260,604963,2
7,-1,661971,230310,1457813,68777,9264,728894,0
7,-1,665757,230906,1329980,69104,9754,664885,0
7,-1,664779,231010,1546426,69166,10278,773183,0
7,-1,686720,235263,1264795,72318,7969,632319,0
7,-1,667391,230908,1227338,69066,8130,613661,0
7,-1,667054,230396,1229047,68940,7313,614583,0
7,-1,662765,230629,1314761,69001,8351,657323,2
7,-1,666111,230808,1349401,69068,8187,674692,0
7,-1,664159,230712,1331911,68961,7920,665312,0
7,-1,665162,230933,1242592,69128,7764,621287,2
7,-1,670048,232501,1336021,69791,7843,667959,0
7,-1,667755,231261,1243699,69268,8135,621779,2
7,-1,670329,232363,1289028,69763,7550,644491,0
7,-1,670914,231149,1336510,69150,8599,668267,0
7,-1,660918,231179,1196752,69201,6657,598362,2
7,-1,683169,234542,1282558,72036,8785,641158,0
7,-1,669814,233453,1291522,70252,8134,645647,2
7,-1,663710,230820,1290802,69015,7421,645443,0
7,-1,663674,231077,1238142,69170,7280,619054,2
7,-1,668477,231924,1327598,69549,7553,663790,0
7,-1,685570,235305,1218894,72342,8656,609379,0
7,-1,662081,229323,1263756,68631,7596,631777,0
7,-1,672123,232389,1337715,69835,7972,668891,0
7,-1,665875,230222,1263958,68903,7388,631922,0
7,-1,664038,230483,1216912,68939,7496,608313,2
7,-1,687462,235964,1249684,72532,8957,624855,0
7,-1,667563,231489,1224266,69243,7255,612096,0
7,-1,668997,231833,1356387,69302,8171,678196,2
7,-1,669065,231014,1286704,68975,8421,643341,0
7,-1,665838,230461,1287158,68757,7331,643546,0
7,-1,671899,232532,1334414,69685,7790,667145,0
7,-1,666821,230952,1245005,69001,7339,622470,2
7,-1,663957,230446,1276314,68901,7682,638130,0
7,-1,666892,231015,1274041,69098,7729,637022,0
7,-1,664235,230658,1329019,68824,7692,664518,2
7,-1,669792,232132,1254777,69403,7426,627360,2
7,-1,672647,232487,1377490,69692,8560,688745,0
7,-1,668545,232928,1343258,69868,8366,671592,2
7,-1,670871,232381,1343933,69588,8164,671907,0
7,-1,672860,232623,1371588,69671,8957,685770,0
7,-1,666272,230751,1368107,68925,8177,684061,2
7,-1,672738,232625,1277669,69788,8199,638666,0
7,-1,671976,232140,1350128,69514,8269,675039,0
7,-1,687155,235225,1346091,72095,8321,672946,0
7,-1,666498,231332,1242827,69162,7333,621395,2
7,-1,668785,230592,1342800,68946,7568,671460,0
7,-1,700443,242644,1356269,72841,8220,678088,2
7,-1,694839,236847,1277756,72743,8848,638872,0
7,-1,673679,232516,1410547,69649,7348,705280,2
7,-1,670367,231642,1439593,69324,7854,719780,0
7,-1,670463,231492,1252122,69298,7904,626034,0
7,-1,674305,232142,1336826,69237,8257,668406,0
7,-1,664399,231503,1221469,68985,7930,610686,0
7,-1,670712,234069,1312854,70245,9298,656376,2
7,-1,672462,233690,1345434,69974,8940,672741,0
7,-1,667026,231324,1317034,68936,7994,658542,0
7,-1,693073,237124,1316453,72715,9180,658247,0
7,-1,671514,232599,1234910,69490,8321,617313,0
7,-1,668779,231661,1224703,69308,7664,612360,0
7,-1,675331,233629,1354504,70143,8356,677136,2
7,-1,671028,230908,1249136,68987,8192,624516,0
7,-1,666222,231883,1229464,69301,8008,614660,2
7,-1,668146,231202,1296108,69048,8010,648096,0
7,-1,667583,231313,1228229,69122,8047,614107,2
7,-1,665986,230939,1223081,69097,7605,611500,0
7,-1,667041,230280,1254296,68793,7914,627183,0
7,-1,670953,231544,1220120,69246,7509,610064,2
7,-1,665952,230726,1236760,68882,7657,618372,0
7,-1,671265,233080,1325284,69932,7846,662610,2
7,-1,665765,229790,1260783,68528,8202,630373,0
7,-1,666884,230710,1314473,68958,8073,657188,2
7,-1,670247,231016,1237690,69055,8364,618836,0
7,-1,668551,230730,1168004,69067,8168,583941,2
7,-1,673590,231859,1244573,69555,8423,622112,0
7,-1,666237,230554,1305612,68982,7941,652819,0
7,-1,665020,231228,1301649,69112,7881,650720,2
7,-1,666955,230168,1255702,68723,8772,627763,0
7,-1,665416,230767,1370986,68941,9307,685269,2
7,-1,689282,235715,1364415,72294,9506,681781,0
7,-1,671185,232051,1520802,69634,8748,760091,0
7,-1,666516,230394,1317318,68889,8688,658253,0
7,-1,667811,231134,1363449,69139,9035,681105,2
7,-1,667011,231464,1263435,69136,7899,631721,2
7,-1,668700,231015,1532525,69046,9278,765701,0
7,-1,672619,232849,1251779,69876,8446,625659,2
7,-1,670466,231025,1268621,68974,8581,634316,0
7,-1,669570,231127,1335486,69127,8596,667717,2
7,-1,689451,235390,1271639,72188,8688,635753,0
7,-1,667272,231315,1310040,69074,9072,655032,2
7,-1,691363,235858,1255950,72204,9851,627759,0
7,-1,668595,230751,1388080,68774,9354,693969,2
7,-1,671122,230824,1385233,68756,9263,692593,0
7,-1,670885,231615,1268351,69060,8127,634195,2
7,-1,671990,231047,1364713,68868,9140,682362,0
7,-1,665737,231176,1351965,68870,9172,675959,0
7,-1,664620,231134,1375075,68900,8709,687578,2
7,-1,672532,233153,1359238,69833,8446,679645,0
7,-1,665849,231018,1254613,68910,7780,627311,2
7,-1,666947,230814,1348104,68791,8605,674056,0
7,-1,667598,231147,1344788,68926,8872,672485,2
7,-1,667282,231831,1326024,69373,8433,662996,0
7,-1,667353,231106,1245430,69021,8176,622668,2
7,-1,668450,230835,1270564,68950,8183,635181,0
7,-1,669168,232533,1357952,69719,8847,678951,2
7,-1,670087,231306,1347762,69223,8199,673831,0
7,-1,669922,230423,1431080,68786,9174,715522,0
7,-1,664467,230732,1251146,68901,7773,625576,2
7,-1,665281,230420,1334223,68676,8615,667094,0
7,-1,672725,232234,1353553,69353,8171,676627,0
7,-1,689759,235602,1304863,72225,8457,652368,0
7,-1,669721,230476,1337249,68799,8472,668619,0
7,-1,667242,230218,1276992,68700,8907,638419,0
7,-1,665433,229800,1451838,68548,8815,725926,0
7,-1,668426,230384,1251821,68720,7880,625843,2
7,-1,669791,230250,1323207,68699,8494,661503,0
7,-1,672046,230469,1354291,68787,8240,677117,0
7,-1,666832,231017,1235217,68931,7156,617594,2
7,-1,671728,232088,1348600,69582,7861,674214,0
7,-1,674262,232875,1218737,69882,7528,609468,0
7,-1,671995,232193,1198441,69537,7712,599234,0
7,-1,666009,230548,1215905,68892,7690,607934,2
7,-1,670178,232051,1236617,69443,7347,618297,0
7,-1,668748,229973,1273961,68602,8348,636972,0
7,-1,665689,229936,1312580,68602,7266,656266,0
7,-1,666498,229719,1209576,68534,7212,604839,0
7,-1,669314,230719,1318369,68885,7564,659182,2
7,-1,696326,239306,1373749,71365,8022,686856,0
7,-1,666568,230299,1313320,68713,7299,656628,2
7,-1,689780,235096,1370665,72095,8382,685280,0
7,-1,674570,230992,1421354,68892,7971,710694,0
7,-1,675029,232845,1236861,69810,7053,618429,2
7,-1,672374,230661,1260177,68787,7197,630060,0
7,-1,681511,235412,1347581,71721,8332,673729,0
7,-1,661185,230090,1286507,68137,7198,643243,0
7,-1,662373,230680,1347420,68391,7507,673704,2
7,-1,663348,230439,1240866,68312,8081,620377,0
7,-1,660247,229447,1309800,67903,7561,654882,0
7,-1,662420,230580,1286365,68301,7897,643163,0
7,-1,664236,231389,1305392,68641,7758,652688,2
7,-1,666384,230721,1277269,68325,7567,638622,0
7,-1,665323,229940,1339827,68103,8210,670396,0
7,-1,663091,230344,1323296,68282,8336,661659,0
7,-1,662833,230231,1367336,68305,8606,683603,0
7,-1,662640,230677,1334218,68475,8982,667068,2
7,-1,661002,229335,1315529,68017,7829,657772,0
7,-1,669328,232648,1291431,69406,8297,645671,2
7,-1,665659,230355,1337179,69134,8931,668585,0
7,-1,670375,230478,1362319,69193,9514,681146,0
7,-1,663925,230388,1356316,69228,9491,677907,2
7,-1,667665,230550,1381778,69337,9148,690262,2
7,-1,668935,230134,1360143,69138,9814,679690,0
7,-1,662563,230590,1392397,69344,8933,696037,2
7,-1,662720,230099,1366218,69123,8969,682663,0
7,-1,671398,233059,1385015,70443,8389,692459,0
7,-1,667029,230203,1343966,69173,7834,671995,0
7,-1,666934,231444,1202011,69663,8517,600998,2
7,-1,684687,233742,1397236,72210,8493,698603,0
7,-1,666264,230758,1355068,69389,8132,677515,0
7,-1,670946,231266,1270270,69720,7988,635083,0
7,-1,667815,232455,1269438,70218,8518,634736,2
7,-1,669439,231333,1312001,69735,9749,655758,0
7,-1,669419,230827,1380711,69412,8718,690008,0
7,-1,669043,230596,1425186,69343,8658,712401,2
7,-1,665813,229909,1399188,69147,9128,699272,0
7,-1,674321,231842,1434958,69841,9494,717258,0
7,-1,675914,232052,1290821,70019,9161,645402,0
7,-1,665242,231255,1289280,69697,8728,644493,0
7,-1,671790,232172,1303341,70088,8886,651517,0
7,-1,664931,230283,1375621,69179,8804,687847,2
7,-1,667055,229862,1440047,68986,8806,720018,0
7,-1,668446,232329,1224327,70129,8377,611936,2
7,-1,672045,232133,1193264,69927,8329,596529,0
7,-1,666894,230375,1341926,69256,8857,670897,2
7,-1,668030,230449,1286775,69283,7507,643233,0
7,-1,667849,231322,1290797,69574,8552,645490,2
7,-1,664418,230590,1305768,69348,8494,652921,2
7,-1,685982,234791,1298849,72494,9650,649408,0
7,-1,666686,229710,1315383,68949,7806,657467,0
7,-1,667133,231012,1327145,69475,8589,663558,2
7,-1,672664,232693,1240026,70247,8134,619921,2
7,-1,667233,229971,1265751,69080,8385,632785,0
7,-1,665741,231002,1387195,69477,9008,693454,2
7,-1,666025,230207,1211654,69111,8620,605778,0
7,-1,670777,231692,1375442,69834,9909,687428,0
7,-1,666688,230286,1308417,69134,8938,654252,2
7,-1,670574,230762,1332890,69299,8863,666578,0
7,-1,671201,230751,1457785,69335,9258,728934,2
7,-1,667611,231184,1266606,69353,9473,633307,0
7,-1,671445,231899,1320449,69859,8971,660303,0
7,-1,667346,230384,1251417,69129,7701,625642,0
7,-1,675164,232582,1300725,70044,9139,650341,0
7,-1,664749,230156,1359909,69048,9420,679988,2
7,-1,670733,231249,1412774,69405,8663,706433,0
7,-1,664368,230110,1349714,69030,8640,674901,2
7,-1,668358,230596,1306858,69210,8006,653248,0
7,-1,669119,230654,1308512,69189,8641,654153,2
7,-1,666749,230161,1340053,68975,8392,669650,0
7,-1,667832,230695,1361124,69241,10522,680251,2
7,-1,671931,231184,1424061,69338,10104,711839,0
7,-1,669593,230216,1456366,68975,8957,728003,0
7,-1,676072,231806,1337784,69745,8809,668841,0
7,-1,671252,230753,1378619,69235,9680,689277,2
7,-1,694626,235400,1449444,72559,9798,724683,0
7,-1,663805,231628,1275487,69546,8419,637744,2
7,-1,665245,230899,1393727,69281,10718,696837,2
7,-1,667465,231347,1313252,69458,8924,656516,0
7,-1,665362,230829,1383036,69479,8198,691521,2
7,-1,668258,230998,1255387,69374,8362,627734,0
7,-1,670109,232220,1476549,69930,8516,738200,0
7,-1,670640,230726,1333300,69337,7860,666801,0
7,-1,668040,231192,1359829,69553,7793,679955,2
7,-1,671507,231461,1230623,69772,7196,615301,0
7,-1,671896,231815,1240758,69820,7644,620418,2
7,-1,670924,232008,1317166,69933,8285,658612,0
7,-1,674306,232655,1238431,70217,9164,618861,0
7,-1,670281,231476,1315799,69644,7826,657942,2
7,-1,674793,232823,1231762,70231,7712,615939,0
7,-1,672977,231791,1236992,69661,7717,618535,0
7,-1,670808,231314,1228428,69553,7683,614313,0
7,-1,670614,231718,1326729,69706,8102,663398,2
7,-1,674694,231748,1372441,69710,9564,686064,0
7,-1,671291,233289,1320210,70433,9320,660154,2
7,-1,671271,233138,1263642,70431,8352,631500,0
7,-1,669217,231827,1354549,69730,8438,677312,2
7,-1,670226,231950,1268798,69772,8959,634341,0
7,-1,671550,232227,1348077,69801,8281,674085,2
7,-1,692793,236098,1736598,72901,11545,868122,0
7,-1,678125,234093,1263726,70650,8718,631780,0
7,-1,671808,231122,1239928,69291,8452,620095,0
7,-1,678336,232924,1306460,70046,9679,653255,0
7,-1,673658,232764,1310670,70003,9178,655523,0
7,-1,668432,231602,1383705,69479,8438,691832,2
7,-1,670680,231093,1214373,69375,7604,607166,0
7,-1,675790,232729,1250514,70121,8063,625225,0
7,-1,669361,230619,1236112,69217,8487,617948,0
7,-1,675540,232807,1343472,70230,8842,671683,0
7,-1,666641,230379,1283656,69200,8214,641807,2
7,-1,672605,231106,1326359,69437,8582,663298,0
7,-1,666131,231389,1277552,69483,8582,638819,2
7,-1,689130,236031,1387622,72825,9645,693661,0
7,-1,668338,230987,1374204,69414,9211,687082,2
7,-1,674012,232611,1313718,70079,9609,656693,0
7,-1,671634,231680,1284230,69617,8692,641847,0
7,-1,670668,232572,1308305,70152,9287,654214,2
7,-1,672359,231147,1355399,69393,9134,677419,0
7,-1,668365,231661,1359001,69603,8434,679255,2
7,-1,666962,230877,1426129,69354,8017,712544,0
7,-1,667879,231006,1326194,69417,8375,663064,2
7,-1,670650,231819,1236258,69775,7557,618134,0
7,-1,673422,232246,1195472,69693,7570,597736,2
7,-1,674044,231326,1303738,69481,8014,651888,0
7,-1,670104,232642,1294100,69931,7887,647103,2
7,-1,674732,233348,1193782,70414,7955,596974,2
7,-1,671111,230642,1319619,69211,8943,659861,0
7,-1,668872,230907,1285009,69456,7576,642550,2
7,-1,674233,231062,1362750,69445,8355,681403,0
7,-1,671602,230799,1389717,69348,7258,694906,2
7,-1,672530,231246,1231215,69499,8071,615647,0
7,-1,672795,231265,1337535,69432,8117,668641,0
7,-1,677752,233178,1377357,70302,8193,688298,2
7,-1,665841,229833,1198534,68975,8121,599314,2
7,-1,668968,230830,1186241,69272,8214,593162,0
7,-1,672814,231328,1304963,69433,8036,652535,0
7,-1,670850,230744,1223258,69156,7617,611666,0
7,-1,669395,230505,1272252,69150,8686,635552,0
7,-1,671803,230501,1325832,69101,8446,662967,0
7,-1,668223,230916,1262652,69329,7726,631401,2
7,-1,693424,235929,1356400,72737,8617,678186,0
7,-1,666443,229810,1225638,68977,7398,612875,2
7,-1,675008,232144,1363377,70011,7901,681757,0
7,-1,666182,229490,1370325,68848,8569,685208,0
7,-1,673874,231276,1297417,69804,8587,648772,0
7,-1,673420,233012,1291938,70556,9011,646047,2
7,-1,666616,229379,1271583,68928,7734,635834,0
7,-1,670300,230621,1234752,69482,8051,617400,2
7,-1,668965,229349,1206037,68951,8285,603048,0
7,-1,671602,230110,1198614,69260,7573,599362,0
7,-1,672470,230224,1198692,69360,7208,599409,2
7,-1,661638,230233,1266895,69344,7723,633480,0
7,-1,660518,230011,1278469,69337,7644,639297,2
7,-1,662082,229567,1291123,69036,7732,645609,0
7,-1,663823,229870,1303140,69176,7700,651621,0
7,-1,664403,230106,1164552,69330,8072,582191,2
7,-1,662678,229398,1204582,69096,7794,602373,0
7,-1,663434,229937,1327749,69215,7437,663958,2
7,-1,668810,230876,1289327,69578,7753,644706,0
7,-1,662106,230044,1363396,69319,7699,681747,2
7,-1,663445,229639,1223979,69142,7872,611955,0
7,-1,662984,230162,1338329,69285,8259,669171,0
7,-1,669758,231153,1372424,69828,8337,686193,0
7,-1,667899,230729,1211684,69390,7638,605818,0
7,-1,665064,229831,1196281,69052,7057,598123,0
