0,0,9,650135.444444,222881.777778,1250997.888889,67001.555556,7395.555556,625473.777778,19575.574850,7100.155707,31932.379918,1831.301305,397.801210,15961.054698
0,1,0,-nan,-nan,-nan,-nan,-nan,-nan,-nan,-nan,-nan,-nan,-nan,-nan
1,0,8,647943.000000,221627.250000,1256762.250000,66874.375000,7605.625000,628417.750000,20147.910766,6863.227061,89610.574758,2162.619357,663.269164,44806.573462
1,1,0,-nan,-nan,-nan,-nan,-nan,-nan,-nan,-nan,-nan,-nan,-nan,-nan
2,0,8,640776.375000,219155.750000,1226155.875000,66222.875000,7289.250000,613134.250000,7787.844165,1463.607166,41467.364723,1246.869323,570.020997,20744.064137
2,1,0,-nan,-nan,-nan,-nan,-nan,-nan,-nan,-nan,-nan,-nan,-nan,-nan
3,0,8,642279.000000,219529.375000,1221186.500000,66536.125000,7579.750000,610653.125000,9261.473479,2079.406462,46573.971376,1545.659684,670.821837,23287.650764
3,1,0,-nan,-nan,-nan,-nan,-nan,-nan,-nan,-nan,-nan,-nan,-nan,-nan
4,0,8,641152.625000,219252.000000,1250713.500000,66258.125000,7622.625000,625345.500000,8940.101145,1891.872815,71467.808620,1282.652080,591.148445,35827.706670
4,1,0,-nan,-nan,-nan,-nan,-nan,-nan,-nan,-nan,-nan,-nan,-nan,-nan
5,0,8,640007.750000,219038.500000,1228863.500000,66137.750000,7511.625000,614408.875000,8049.091078,1567.574560,84927.679247,1117.521784,572.394081,42370.566961
5,1,0,-nan,-nan,-nan,-nan,-nan,-nan,-nan,-nan,-nan,-nan,-nan,-nan
6,0,8,638386.125000,218869.875000,1271559.250000,65907.500000,7578.125000,635633.500000,2896.032089,633.954146,79596.890837,284.887697,656.823309,39744.371598
6,1,0,-nan,-nan,-nan,-nan,-nan,-nan,-nan,-nan,-nan,-nan,-nan,-nan
7,0,8,640793.375000,219103.875000,1230113.500000,66214.000000,7855.625000,615005.125000,7755.334615,1716.305148,36759.491319,1204.402445,561.655575,18223.946770
7,1,0,-nan,-nan,-nan,-nan,-nan,-nan,-nan,-nan,-nan,-nan,-nan,-nan
8,0,8,638665.625000,218829.000000,1218149.375000,65889.000000,6896.250000,609159.125000,3643.541338,976.559778,66892.347602,610.613012,211.744392,33454.999034
8,1,0,-nan,-nan,-nan,-nan,-nan,-nan,-nan,-nan,-nan,-nan,-nan,-nan
9,0,8,644277.875000,220634.625000,1227866.625000,66691.250000,7349.000000,613994.500000,10383.332033,3039.537709,42865.841450,1383.026821,508.832487,21474.132672
9,1,0,-nan,-nan,-nan,-nan,-nan,-nan,-nan,-nan,-nan,-nan,-nan,-nan
10,0,8,637387.875000,218734.750000,1224181.000000,65836.250000,7118.000000,612151.375000,3422.851313,744.603712,38278.046704,384.762833,439.711837,19139.546448
10,1,0,-nan,-nan,-nan,-nan,-nan,-nan,-nan,-nan,-nan,-nan,-nan,-nan
11,0,8,637238.375000,218676.250000,1212485.125000,65836.875000,7189.500000,606227.500000,3884.810901,1105.907631,70050.131136,623.005104,575.658319,34954.005286
11,1,0,-nan,-nan,-nan,-nan,-nan,-nan,-nan,-nan,-nan,-nan,-nan,-nan
12,0,8,640980.500000,219346.500000,1234602.750000,66310.125000,7480.625000,617340.125000,6695.458965,1917.172267,71535.332050,1242.805137,463.672820,35762.923648
12,1,0,-nan,-nan,-nan,-nan,-nan,-nan,-nan,-nan,-nan,-nan,-nan,-nan
13,0,8,641121.125000,219441.000000,1223503.625000,66338.625000,7345.750000,611777.875000,6615.503579,1393.802084,35526.588687,1220.360903,531.186820,17728.935814
13,1,0,-nan,-nan,-nan,-nan,-nan,-nan,-nan,-nan,-nan,-nan,-nan,-nan
14,0,8,640005.625000,218982.250000,1227297.625000,66112.250000,7508.375000,613650.250000,7808.375790,1283.423133,35646.166568,1115.453131,678.768174,17840.448703
14,1,0,-nan,-nan,-nan,-nan,-nan,-nan,-nan,-nan,-nan,-nan,-nan,-nan
15,0,8,637776.625000,218711.125000,1208394.125000,65844.875000,7180.875000,604248.375000,5362.754235,936.979514,74091.045809,555.257471,560.868175,37051.691301
15,1,0,-nan,-nan,-nan,-nan,-nan,-nan,-nan,-nan,-nan,-nan,-nan,-nan
16,0,8,638826.625000,219004.875000,1212610.500000,66154.625000,7140.375000,606319.125000,8660.709958,1804.277864,54391.704908,1154.461881,559.551145,27206.388131
16,1,0,-nan,-nan,-nan,-nan,-nan,-nan,-nan,-nan,-nan,-nan,-nan,-nan
17,0,8,636390.875000,218323.000000,1221345.500000,65692.000000,7043.000000,610702.250000,6057.498936,828.458207,61173.678149,461.768340,564.888485,30614.661037
17,1,0,-nan,-nan,-nan,-nan,-nan,-nan,-nan,-nan,-nan,-nan,-nan,-nan
18,0,8,640251.125000,218620.125000,1273537.875000,65884.250000,7498.875000,636784.375000,3783.529286,824.424108,35366.436039,322.649868,709.965041,17717.198896
18,1,0,-nan,-nan,-nan,-nan,-nan,-nan,-nan,-nan,-nan,-nan,-nan,-nan
19,0,8,643298.750000,219677.750000,1257801.875000,66512.375000,7566.750000,628875.500000,7974.909964,1282.712726,35853.552273,1050.226397,805.672196,17949.489457
19,1,0,-nan,-nan,-nan,-nan,-nan,-nan,-nan,-nan,-nan,-nan,-nan,-nan
20,0,8,642329.625000,219263.375000,1196966.875000,66308.125000,7397.375000,598511.125000,7662.430912,1802.738607,68118.316904,1297.536650,798.335603,34037.744371
20,1,0,-nan,-nan,-nan,-nan,-nan,-nan,-nan,-nan,-nan,-nan,-nan,-nan
21,0,8,639057.500000,218444.000000,1207997.875000,65804.125000,7168.000000,604051.750000,3008.987870,839.208258,64475.489772,426.494853,665.549397,32245.047851
21,1,0,-nan,-nan,-nan,-nan,-nan,-nan,-nan,-nan,-nan,-nan,-nan,-nan
22,0,8,640399.750000,219141.875000,1193082.250000,66070.000000,7379.750000,596589.125000,4191.905168,884.206203,35710.537292,324.302328,392.302100,17847.509661
22,1,0,-nan,-nan,-nan,-nan,-nan,-nan,-nan,-nan,-nan,-nan,-nan,-nan
23,0,8,639069.375000,218624.375000,1193476.125000,65869.125000,7342.875000,596769.250000,3574.327732,836.879313,59808.632789,440.265953,530.184505,29907.592459
23,1,0,-nan,-nan,-nan,-nan,-nan,-nan,-nan,-nan,-nan,-nan,-nan,-nan
24,0,8,642133.750000,219635.000000,1221513.625000,66445.250000,7512.375000,610795.250000,8302.391775,1692.772209,47154.007428,1159.101133,659.643073,23580.987483
24,1,0,-nan,-nan,-nan,-nan,-nan,-nan,-nan,-nan,-nan,-nan,-nan,-nan
25,0,8,644431.000000,219732.375000,1250229.500000,66682.875000,7580.750000,625220.500000,8630.149709,2207.376154,67538.516874,1397.825135,415.815389,33913.592574
25,1,0,-nan,-nan,-nan,-nan,-nan,-nan,-nan,-nan,-nan,-nan,-nan,-nan
26,0,8,640306.000000,218659.625000,1201695.125000,65840.750000,7395.875000,600843.750000,2269.579532,667.521711,37019.663462,267.619483,679.287023,18482.956580
26,1,0,-nan,-nan,-nan,-nan,-nan,-nan,-nan,-nan,-nan,-nan,-nan,-nan
27,0,8,639754.375000,218952.125000,1190906.875000,65983.375000,7312.500000,595415.625000,3143.665136,729.949559,58970.751365,320.555743,371.821866,29490.114462
27,1,0,-nan,-nan,-nan,-nan,-nan,-nan,-nan,-nan,-nan,-nan,-nan,-nan
28,0,8,642274.250000,219277.125000,1250439.875000,66315.625000,7566.250000,625169.125000,7398.992292,1510.160541,61466.372986,916.921880,385.645157,30590.953285
28,1,0,-nan,-nan,-nan,-nan,-nan,-nan,-nan,-nan,-nan,-nan,-nan,-nan
29,0,8,638450.125000,218731.500000,1233475.250000,65878.250000,7791.375000,616761.375000,2493.177613,519.813669,68626.840549,374.401439,717.586047,34301.453045
29,1,0,-nan,-nan,-nan,-nan,-nan,-nan,-nan,-nan,-nan,-nan,-nan,-nan
30,0,8,641770.250000,219413.875000,1223548.500000,66377.375000,7404.625000,611830.000000,7097.411143,1516.949689,46754.923302,1070.732686,569.456306,23387.219512
30,1,0,-nan,-nan,-nan,-nan,-nan,-nan,-nan,-nan,-nan,-nan,-nan,-nan
31,0,8,643070.250000,219807.500000,1215046.375000,66528.250000,7543.000000,607567.750000,6409.367573,1492.256848,62182.188635,967.831952,296.728832,31137.769853
31,1,0,-nan,-nan,-nan,-nan,-nan,-nan,-nan,-nan,-nan,-nan,-nan,-nan
32,0,8,639654.000000,219044.000000,1215477.000000,66061.875000,7501.000000,607746.000000,3394.374022,926.282489,54203.620744,480.515722,690.428671,27049.397701
32,1,0,-nan,-nan,-nan,-nan,-nan,-nan,-nan,-nan,-nan,-nan,-nan,-nan
33,0,8,647166.250000,220786.000000,1233419.000000,66940.500000,7657.875000,616748.375000,11956.532626,3368.675222,44033.580481,1558.826963,784.775515,21992.009679
33,1,0,-nan,-nan,-nan,-nan,-nan,-nan,-nan,-nan,-nan,-nan,-nan,-nan
34,0,8,639691.375000,218819.875000,1206235.125000,65946.000000,7356.750000,603187.375000,5325.538938,864.628885,49971.991751,303.211972,667.931462,24993.560450
34,1,0,-nan,-nan,-nan,-nan,-nan,-nan,-nan,-nan,-nan,-nan,-nan,-nan
35,0,8,640410.625000,219364.875000,1234906.750000,66198.125000,7248.500000,617506.250000,3480.533937,1285.131942,40338.767661,520.972273,400.854400,20150.109123
35,1,0,-nan,-nan,-nan,-nan,-nan,-nan,-nan,-nan,-nan,-nan,-nan,-nan
36,0,8,643115.000000,219629.875000,1190514.000000,66647.500000,7286.250000,595262.250000,9521.126102,2058.388899,45864.812239,1306.504497,681.666111,22921.237814
36,1,0,-nan,-nan,-nan,-nan,-nan,-nan,-nan,-nan,-nan,-nan,-nan,-nan
37,0,8,638006.500000,218546.500000,1201167.125000,65802.625000,7044.625000,600616.625000,2952.208580,345.935326,41838.545952,154.799820,404.526247,20911.362862
37,1,0,-nan,-nan,-nan,-nan,-nan,-nan,-nan,-nan,-nan,-nan,-nan,-nan
38,0,8,643443.375000,219258.625000,1221393.875000,66282.625000,7283.250000,610744.000000,9151.514928,1409.916836,53226.083442,1198.587287,590.156706,26611.618675
38,1,0,-nan,-nan,-nan,-nan,-nan,-nan,-nan,-nan,-nan,-nan,-nan,-nan
39,0,8,646662.625000,220420.375000,1239164.000000,66644.125000,7273.375000,619665.625000,9487.835435,3354.321315,30869.474915,1338.844785,365.777917,15464.157154
39,1,0,-nan,-nan,-nan,-nan,-nan,-nan,-nan,-nan,-nan,-nan,-nan,-nan
40,0,8,645502.625000,219773.375000,1211643.625000,66692.250000,7301.625000,605869.000000,9838.895872,2130.106625,52912.050201,1457.097436,661.810762,26438.100840
40,1,0,-nan,-nan,-nan,-nan,-nan,-nan,-nan,-nan,-nan,-nan,-nan,-nan
41,0,8,643243.500000,219530.750000,1214895.500000,66438.500000,7211.500000,607470.500000,5950.499139,1489.301325,58998.390641,947.660672,367.893667,29445.015533
41,1,0,-nan,-nan,-nan,-nan,-nan,-nan,-nan,-nan,-nan,-nan,-nan,-nan
42,0,8,640359.500000,219078.750000,1233683.500000,66043.125000,7232.000000,616898.000000,2413.771686,866.831551,57326.842792,437.799737,653.709033,28656.898484
42,1,0,-nan,-nan,-nan,-nan,-nan,-nan,-nan,-nan,-nan,-nan,-nan,-nan
43,0,8,640214.750000,218641.625000,1227646.875000,65892.500000,7286.250000,613874.125000,1800.323079,479.969254,63828.719847,339.424513,758.490236,31852.283166
43,1,0,-nan,-nan,-nan,-nan,-nan,-nan,-nan,-nan,-nan,-nan,-nan,-nan
44,0,8,641336.375000,219150.250000,1239044.750000,66157.875000,7617.875000,619601.000000,3569.979795,848.063935,83273.100365,333.124765,801.330212,41669.905039
44,1,0,-nan,-nan,-nan,-nan,-nan,-nan,-nan,-nan,-nan,-nan,-nan,-nan
45,0,8,642811.625000,219297.250000,1236354.625000,66355.375000,7693.750000,618232.500000,6004.885614,1525.829016,67900.831464,1020.575443,561.402875,33930.513366
45,1,0,-nan,-nan,-nan,-nan,-nan,-nan,-nan,-nan,-nan,-nan,-nan,-nan
46,0,8,639755.125000,218633.250000,1244487.250000,65871.375000,7550.875000,622274.750000,3250.729243,1042.948914,40704.566242,383.736869,403.694327,20346.886714
46,1,0,-nan,-nan,-nan,-nan,-nan,-nan,-nan,-nan,-nan,-nan,-nan,-nan
47,0,8,644040.750000,219779.250000,1212722.000000,66616.375000,7474.875000,606387.500000,9369.459159,1903.848389,54350.014775,1459.738242,606.932541,27190.374616
47,1,0,-nan,-nan,-nan,-nan,-nan,-nan,-nan,-nan,-nan,-nan,-nan,-nan
48,0,8,640468.000000,218895.375000,1224459.750000,65971.125000,7615.125000,612234.875000,3188.908630,1310.898732,35171.554667,510.373990,381.259242,17570.859750
48,1,0,-nan,-nan,-nan,-nan,-nan,-nan,-nan,-nan,-nan,-nan,-nan,-nan
49,0,8,641011.500000,219270.875000,1248196.625000,66274.625000,7514.500000,624161.875000,7841.936958,1640.143853,85568.111844,1029.816602,460.291484,42798.591687
49,1,0,-nan,-nan,-nan,-nan,-nan,-nan,-nan,-nan,-nan,-nan,-nan,-nan
50,0,8,639716.375000,219041.375000,1228263.750000,66019.375000,7500.750000,614198.250000,2028.417298,672.433256,72425.927327,243.195877,565.308710,36203.087361
50,1,0,-nan,-nan,-nan,-nan,-nan,-nan,-nan,-nan,-nan,-nan,-nan,-nan
51,0,8,639512.500000,218548.000000,1256119.625000,65815.750000,7407.250000,628116.625000,1664.238114,805.216896,62959.435413,272.066972,651.447955,31476.511008
51,1,0,-nan,-nan,-nan,-nan,-nan,-nan,-nan,-nan,-nan,-nan,-nan,-nan
52,0,8,642157.750000,219537.500000,1224415.125000,66257.750000,7514.375000,612231.500000,2737.935890,1064.699371,44250.691434,676.275600,462.396999,22156.099527
52,1,0,-nan,-nan,-nan,-nan,-nan,-nan,-nan,-nan,-nan,-nan,-nan,-nan
53,0,8,653172.500000,222344.125000,1260069.875000,67661.125000,7738.125000,630075.375000,16616.160545,4601.676391,87773.214421,2248.624493,950.993354,43873.526348
53,1,0,-nan,-nan,-nan,-nan,-nan,-nan,-nan,-nan,-nan,-nan,-nan,-nan
54,0,8,641049.000000,219057.375000,1218022.375000,66108.000000,7312.250000,609070.625000,3130.876275,747.785052,65039.029813,353.508840,418.888335,32535.500868
54,1,0,-nan,-nan,-nan,-nan,-nan,-nan,-nan,-nan,-nan,-nan,-nan,-nan
55,0,8,642354.375000,219398.625000,1201590.750000,66364.750000,7306.625000,600826.000000,8760.694877,1952.125632,47084.518004,1152.819343,586.242471,23611.359766
55,1,0,-nan,-nan,-nan,-nan,-nan,-nan,-nan,-nan,-nan,-nan,-nan,-nan
56,0,8,641431.875000,219192.000000,1170882.750000,66280.250000,7231.250000,585502.250000,7240.996503,1594.723173,40722.735897,1134.051999,465.448104,20415.720663
56,1,0,-nan,-nan,-nan,-nan,-nan,-nan,-nan,-nan,-nan,-nan,-nan,-nan
57,0,8,643363.250000,219828.500000,1233465.500000,66239.250000,7536.125000,616788.000000,8678.999579,2932.679662,98900.634064,858.539567,802.520473,49461.459011
57,1,0,-nan,-nan,-nan,-nan,-nan,-nan,-nan,-nan,-nan,-nan,-nan,-nan
58,0,8,641792.000000,219286.875000,1227621.625000,66307.125000,7759.375000,613853.125000,7635.298603,1580.949038,48439.175837,943.285142,546.388126,24289.490487
58,1,0,-nan,-nan,-nan,-nan,-nan,-nan,-nan,-nan,-nan,-nan,-nan,-nan
59,0,8,642534.625000,219338.250000,1223918.000000,66297.500000,7466.500000,611975.125000,5737.656271,1520.218878,49443.524965,1048.160651,654.211930,24684.887601
59,1,0,-nan,-nan,-nan,-nan,-nan,-nan,-nan,-nan,-nan,-nan,-nan,-nan
60,0,8,640868.500000,218912.750000,1224241.750000,65992.625000,7680.750000,612152.875000,4344.357893,1005.559888,72797.230344,480.247836,525.948607,36410.789354
60,1,0,-nan,-nan,-nan,-nan,-nan,-nan,-nan,-nan,-nan,-nan,-nan,-nan
61,0,8,644293.625000,220196.375000,1193421.125000,66532.875000,7596.375000,596728.125000,9950.660254,3196.456199,40568.427993,1382.492716,642.082732,20296.999812
61,1,0,-nan,-nan,-nan,-nan,-nan,-nan,-nan,-nan,-nan,-nan,-nan,-nan
62,0,8,642500.375000,219516.750000,1197462.000000,66408.375000,7341.625000,598661.000000,7072.032769,1518.566409,56774.461666,959.321888,243.605694,28421.556533
62,1,0,-nan,-nan,-nan,-nan,-nan,-nan,-nan,-nan,-nan,-nan,-nan,-nan
63,0,8,642129.875000,219207.375000,1217424.125000,66276.625000,7486.500000,608762.500000,7224.126270,1776.079315,35148.652433,1132.839236,478.451147,17600.981002
63,1,0,-nan,-nan,-nan,-nan,-nan,-nan,-nan,-nan,-nan,-nan,-nan,-nan
64,0,8,646860.500000,220641.250000,1221067.500000,66711.375000,7565.125000,610568.125000,10587.195427,3399.863701,47630.554141,1345.807001,418.911816,23816.381801
64,1,0,-nan,-nan,-nan,-nan,-nan,-nan,-nan,-nan,-nan,-nan,-nan,-nan
65,0,8,638767.250000,218444.750000,1208040.375000,65787.875000,7332.875000,604033.875000,3883.450906,988.781415,48093.920471,530.516125,452.563652,24013.910476
65,1,0,-nan,-nan,-nan,-nan,-nan,-nan,-nan,-nan,-nan,-nan,-nan,-nan
66,0,8,643861.625000,219667.500000,1220076.625000,66483.375000,7520.375000,610034.250000,7954.098612,1682.378004,69851.665678,1223.747619,705.867894,34926.373913
66,1,0,-nan,-nan,-nan,-nan,-nan,-nan,-nan,-nan,-nan,-nan,-nan,-nan
67,0,8,643161.250000,219280.875000,1235429.750000,66282.375000,7796.875000,617674.500000,8274.744025,1423.516020,82745.971699,951.578680,762.420395,41243.733448
67,1,0,-nan,-nan,-nan,-nan,-nan,-nan,-nan,-nan,-nan,-nan,-nan,-nan
68,0,8,640327.500000,218820.250000,1192697.375000,65951.500000,7325.250000,596367.125000,3520.155181,694.599120,48828.428236,473.255217,441.440752,24403.826173
68,1,0,-nan,-nan,-nan,-nan,-nan,-nan,-nan,-nan,-nan,-nan,-nan,-nan
69,0,8,639894.250000,218846.000000,1231754.000000,65942.375000,7346.500000,615936.000000,2806.208062,663.506217,26931.950607,386.066036,261.493308,13465.288541
69,1,0,-nan,-nan,-nan,-nan,-nan,-nan,-nan,-nan,-nan,-nan,-nan,-nan
70,0,8,642564.750000,219433.125000,1229035.125000,66376.625000,7430.000000,614537.375000,6814.370234,1607.948105,51604.019026,1078.856911,382.283599,25839.347447
70,1,0,-nan,-nan,-nan,-nan,-nan,-nan,-nan,-nan,-nan,-nan,-nan,-nan
71,0,8,643417.250000,219887.625000,1250506.875000,66572.125000,7647.375000,625261.375000,5942.621134,1519.864463,68700.726545,979.004142,291.638448,34336.509640
71,1,0,-nan,-nan,-nan,-nan,-nan,-nan,-nan,-nan,-nan,-nan,-nan,-nan
72,0,8,644070.875000,219844.250000,1249407.000000,66685.125000,7784.625000,624711.125000,8996.563836,1868.765284,73010.683011,1381.292550,820.527108,36455.386239
72,1,0,-nan,-nan,-nan,-nan,-nan,-nan,-nan,-nan,-nan,-nan,-nan,-nan
73,0,8,640449.750000,218570.375000,1244955.125000,65800.625000,7784.500000,622511.000000,2373.642862,426.848901,67611.909163,259.715680,512.131575,33814.531762
73,1,0,-nan,-nan,-nan,-nan,-nan,-nan,-nan,-nan,-nan,-nan,-nan,-nan
74,0,8,641455.250000,219013.500000,1235949.000000,66033.750000,7497.875000,617842.750000,3981.254694,1190.824924,59480.433211,530.664383,350.486247,29344.355436
74,1,0,-nan,-nan,-nan,-nan,-nan,-nan,-nan,-nan,-nan,-nan,-nan,-nan
75,0,8,642061.625000,219513.500000,1258684.750000,66328.750000,7735.625000,629305.625000,8227.069465,1499.918998,42141.051552,1124.126077,590.597142,20950.682429
75,1,0,-nan,-nan,-nan,-nan,-nan,-nan,-nan,-nan,-nan,-nan,-nan,-nan
76,0,8,641096.375000,219328.625000,1199183.625000,66234.750000,7565.750000,599622.875000,9123.584410,1783.091903,78681.698692,1210.260380,159.013954,39336.449034
76,1,0,-nan,-nan,-nan,-nan,-nan,-nan,-nan,-nan,-nan,-nan,-nan,-nan
77,0,8,640672.500000,219359.000000,1216212.750000,66288.750000,7351.250000,608119.750000,6883.428797,1585.597994,92551.770450,1184.976239,830.472418,46283.819594
77,1,0,-nan,-nan,-nan,-nan,-nan,-nan,-nan,-nan,-nan,-nan,-nan,-nan
78,0,8,639845.875000,218681.875000,1182518.000000,65779.875000,7331.125000,591303.375000,3854.128612,742.464046,48118.957101,483.906612,351.760017,24079.971189
78,1,0,-nan,-nan,-nan,-nan,-nan,-nan,-nan,-nan,-nan,-nan,-nan,-nan
79,0,8,641791.750000,218989.125000,1185163.125000,66090.250000,7644.500000,592620.250000,8031.339828,1664.666891,54407.997602,1183.412412,615.916796,27147.618288
79,1,0,-nan,-nan,-nan,-nan,-nan,-nan,-nan,-nan,-nan,-nan,-nan,-nan
80,0,8,639590.125000,218692.500000,1217638.750000,65798.500000,7523.125000,608881.375000,4010.814831,924.832417,55438.892158,538.461234,539.345074,27733.036666
80,1,0,-nan,-nan,-nan,-nan,-nan,-nan,-nan,-nan,-nan,-nan,-nan,-nan
81,0,8,640472.125000,219120.750000,1238648.625000,65992.125000,7838.625000,619377.125000,3908.846775,893.287153,65422.137184,423.565059,742.429616,32683.646620
81,1,0,-nan,-nan,-nan,-nan,-nan,-nan,-nan,-nan,-nan,-nan,-nan,-nan
82,0,8,642596.500000,219446.250000,1227737.375000,66376.125000,7450.625000,613906.625000,7397.090239,1583.423960,60899.758021,1032.395447,615.419153,30466.703903
82,1,0,-nan,-nan,-nan,-nan,-nan,-nan,-nan,-nan,-nan,-nan,-nan,-nan
83,0,8,646257.625000,220216.875000,1254321.125000,67090.750000,7894.125000,627238.625000,9923.599951,2460.693827,43839.154587,1714.554151,756.563024,21936.658474
83,1,0,-nan,-nan,-nan,-nan,-nan,-nan,-nan,-nan,-nan,-nan,-nan,-nan
84,0,8,639499.625000,218973.000000,1195289.375000,66029.125000,7354.375000,597660.375000,4441.205972,1147.890348,28291.713102,498.955017,530.738622,14186.890110
84,1,0,-nan,-nan,-nan,-nan,-nan,-nan,-nan,-nan,-nan,-nan,-nan,-nan
85,0,8,639627.375000,219008.875000,1223183.875000,66045.500000,7688.375000,611651.375000,3422.446272,956.304010,77731.307480,522.026340,610.084817,38871.197422
85,1,0,-nan,-nan,-nan,-nan,-nan,-nan,-nan,-nan,-nan,-nan,-nan,-nan
86,0,8,643882.750000,219730.500000,1230746.500000,66518.750000,7791.250000,615383.875000,8748.678668,1811.863681,56030.399211,1253.396062,544.958198,28018.889568
86,1,0,-nan,-nan,-nan,-nan,-nan,-nan,-nan,-nan,-nan,-nan,-nan,-nan
87,0,8,644120.000000,219799.125000,1229281.000000,66569.000000,7919.125000,614709.625000,6752.969865,1582.067274,84743.071394,982.604702,561.147583,42495.228532
87,1,0,-nan,-nan,-nan,-nan,-nan,-nan,-nan,-nan,-nan,-nan,-nan,-nan
88,0,8,644352.875000,219646.875000,1248420.250000,66455.875000,7943.625000,624181.125000,6444.217067,1525.745509,44758.848479,1136.668205,413.765615,22370.504406
88,1,0,-nan,-nan,-nan,-nan,-nan,-nan,-nan,-nan,-nan,-nan,-nan,-nan
89,0,8,642770.875000,219174.625000,1274697.625000,66256.000000,7655.625000,637395.750000,7314.139772,1317.062350,46982.203612,1116.589898,580.248209,23495.675564
89,1,0,-nan,-nan,-nan,-nan,-nan,-nan,-nan,-nan,-nan,-nan,-nan,-nan
90,0,8,644282.500000,219792.750000,1220889.250000,66516.250000,7649.000000,610363.125000,6997.919923,1920.632367,49341.327495,1145.336495,622.120768,24556.187781
90,1,0,-nan,-nan,-nan,-nan,-nan,-nan,-nan,-nan,-nan,-nan,-nan,-nan
91,0,8,643699.250000,219472.000000,1286599.500000,66343.000000,7835.750000,643350.500000,5663.090052,1516.892300,68326.654711,1003.705510,452.381407,34158.969518
91,1,0,-nan,-nan,-nan,-nan,-nan,-nan,-nan,-nan,-nan,-nan,-nan,-nan
92,0,8,645964.375000,220010.500000,1260138.000000,66773.375000,7834.250000,630021.875000,11050.226875,2319.964978,49800.867257,1613.763918,392.183551,24705.498110
92,1,0,-nan,-nan,-nan,-nan,-nan,-nan,-nan,-nan,-nan,-nan,-nan,-nan
93,0,8,645531.125000,220417.500000,1223780.625000,66614.875000,7404.000000,611924.125000,16329.501802,4591.607289,52410.218982,1903.159967,401.273286,26275.539792
93,1,0,-nan,-nan,-nan,-nan,-nan,-nan,-nan,-nan,-nan,-nan,-nan,-nan
94,0,8,641169.750000,218944.875000,1206803.125000,65986.625000,7375.500000,603381.875000,3876.859836,597.149780,57770.623314,294.986414,459.073251,28834.083003
94,1,0,-nan,-nan,-nan,-nan,-nan,-nan,-nan,-nan,-nan,-nan,-nan,-nan
95,0,8,641262.500000,219221.000000,1182520.375000,66066.625000,7165.625000,591294.750000,3483.022789,905.788469,62581.525421,401.711942,480.909539,31276.073202
95,1,0,-nan,-nan,-nan,-nan,-nan,-nan,-nan,-nan,-nan,-nan,-nan,-nan
96,0,8,645482.250000,219987.875000,1247126.125000,66731.875000,7550.000000,623569.125000,8803.726693,2194.841306,66209.254867,1408.895173,468.206151,33124.327704
96,1,0,-nan,-nan,-nan,-nan,-nan,-nan,-nan,-nan,-nan,-nan,-nan,-nan
97,0,8,641286.750000,219328.125000,1254334.500000,66123.125000,7607.750000,627202.125000,3538.668915,1342.099888,51762.256783,505.033771,268.978043,25880.100480
97,1,0,-nan,-nan,-nan,-nan,-nan,-nan,-nan,-nan,-nan,-nan,-nan,-nan
98,0,8,648687.875000,220482.125000,1221011.875000,67126.250000,7847.375000,610532.250000,11415.537651,2094.590559,62339.158421,1602.076914,565.837860,31170.508685
98,1,0,-nan,-nan,-nan,-nan,-nan,-nan,-nan,-nan,-nan,-nan,-nan,-nan
99,0,8,640540.250000,218989.625000,1192765.750000,65971.125000,7337.750000,596428.875000,1507.301873,700.880506,42429.885351,393.024629,294.843073,21205.769259
99,1,0,-nan,-nan,-nan,-nan,-nan,-nan,-nan,-nan,-nan,-nan,-nan,-nan
100,0,8,640652.000000,218971.375000,1212025.750000,66038.375000,7570.000000,606053.000000,2276.929347,968.566717,39455.915760,376.478066,319.171976,19755.564950
100,1,0,-nan,-nan,-nan,-nan,-nan,-nan,-nan,-nan,-nan,-nan,-nan,-nan
101,0,8,648352.375000,220667.875000,1213576.000000,67232.250000,7619.250000,606784.750000,11136.988585,2373.235473,53714.380875,1550.885130,545.480923,26857.298714
101,1,0,-nan,-nan,-nan,-nan,-nan,-nan,-nan,-nan,-nan,-nan,-nan,-nan
102,0,8,644184.500000,220309.875000,1226446.000000,66406.875000,7598.250000,613252.625000,7881.456766,3037.212556,39193.122649,826.749877,412.781646,19600.797930
102,1,0,-nan,-nan,-nan,-nan,-nan,-nan,-nan,-nan,-nan,-nan,-nan,-nan
103,0,8,641040.375000,218983.500000,1240372.500000,65978.125000,7626.875000,620203.000000,2324.306452,663.138560,54854.975647,438.822412,549.553782,27400.997058
103,1,0,-nan,-nan,-nan,-nan,-nan,-nan,-nan,-nan,-nan,-nan,-nan,-nan
104,0,8,648137.375000,220539.875000,1218684.375000,67167.625000,7634.625000,609355.375000,11433.605085,2255.628872,37587.299075,1514.991331,518.469126,18797.590876
104,1,0,-nan,-nan,-nan,-nan,-nan,-nan,-nan,-nan,-nan,-nan,-nan,-nan
105,0,8,639128.250000,218875.625000,1183843.625000,65998.750000,7472.250000,591949.875000,2812.150856,801.143392,32232.850149,493.164716,250.095857,16081.753981
105,1,0,-nan,-nan,-nan,-nan,-nan,-nan,-nan,-nan,-nan,-nan,-nan,-nan
106,0,8,639558.375000,218918.625000,1186660.000000,66000.250000,7126.500000,593390.625000,3759.900495,1150.548341,45994.654776,621.647559,444.827495,23012.099382
106,1,0,-nan,-nan,-nan,-nan,-nan,-nan,-nan,-nan,-nan,-nan,-nan,-nan
107,0,8,637752.000000,218706.875000,1222978.375000,65883.375000,7290.500000,611478.500000,1584.815447,546.203588,19700.524117,294.150020,319.828079,9868.088645
107,1,0,-nan,-nan,-nan,-nan,-nan,-nan,-nan,-nan,-nan,-nan,-nan,-nan
108,0,8,638858.625000,218589.625000,1240712.250000,65840.750000,7453.500000,620376.250000,2486.677499,429.289802,33027.725061,309.003135,295.088122,16501.022572
108,1,0,-nan,-nan,-nan,-nan,-nan,-nan,-nan,-nan,-nan,-nan,-nan,-nan
109,0,8,642230.375000,218968.125000,1196081.125000,66011.625000,7454.875000,598049.875000,2029.846604,725.359469,56139.433506,332.308944,475.381015,28013.451521
109,1,0,-nan,-nan,-nan,-nan,-nan,-nan,-nan,-nan,-nan,-nan,-nan,-nan
110,0,8,644724.375000,220066.250000,1229310.000000,66641.625000,7692.500000,614691.750000,8120.039408,1657.408350,70224.998517,1258.808160,632.131118,35119.482847
110,1,0,-nan,-nan,-nan,-nan,-nan,-nan,-nan,-nan,-nan,-nan,-nan,-nan
111,0,8,640740.250000,218914.250000,1191279.375000,65980.875000,7044.000000,595621.250000,3208.712699,999.035629,44481.181850,453.083722,429.897953,22233.157529
111,1,0,-nan,-nan,-nan,-nan,-nan,-nan,-nan,-nan,-nan,-nan,-nan,-nan
112,0,8,646358.750000,220586.000000,1221341.125000,67054.375000,7726.375000,610618.500000,8596.987041,2207.369872,35598.864629,1327.996606,644.019009,17668.737886
112,1,0,-nan,-nan,-nan,-nan,-nan,-nan,-nan,-nan,-nan,-nan,-nan,-nan
113,0,8,644148.625000,219925.125000,1238659.375000,66575.625000,7692.375000,619285.375000,7152.390264,1586.131177,81425.798358,1124.026794,546.628516,40688.110345
113,1,0,-nan,-nan,-nan,-nan,-nan,-nan,-nan,-nan,-nan,-nan,-nan,-nan
114,0,8,640132.500000,218724.875000,1265251.375000,65894.375000,7611.375000,632568.625000,2643.367786,840.918462,83998.579376,393.691166,628.621098,41827.732576
114,1,0,-nan,-nan,-nan,-nan,-nan,-nan,-nan,-nan,-nan,-nan,-nan,-nan
115,0,8,641495.000000,219261.000000,1280727.125000,66109.375000,7540.000000,640267.625000,1904.622535,991.560639,88349.871462,421.643492,552.406779,43828.384741
115,1,0,-nan,-nan,-nan,-nan,-nan,-nan,-nan,-nan,-nan,-nan,-nan,-nan
116,0,8,644122.375000,219885.875000,1255462.375000,66549.750000,7657.750000,627751.375000,5993.014036,1774.359986,74358.713126,1167.570314,723.780310,37170.906462
116,1,0,-nan,-nan,-nan,-nan,-nan,-nan,-nan,-nan,-nan,-nan,-nan,-nan
117,0,8,641397.500000,219632.750000,1233786.250000,66296.500000,7617.625000,616881.750000,3537.712361,712.608544,51774.665199,338.917025,618.302907,25869.431825
117,1,0,-nan,-nan,-nan,-nan,-nan,-nan,-nan,-nan,-nan,-nan,-nan,-nan
118,0,8,644001.875000,219975.250000,1243586.875000,66611.750000,7641.625000,621774.125000,7905.714617,1703.096573,47856.577901,954.110810,701.605291,23858.897808
118,1,0,-nan,-nan,-nan,-nan,-nan,-nan,-nan,-nan,-nan,-nan,-nan,-nan
119,0,8,643076.000000,219635.875000,1204928.500000,66410.875000,7528.375000,602413.375000,8213.266220,1808.679728,46569.391259,1272.702286,496.651019,23454.445660
119,1,0,-nan,-nan,-nan,-nan,-nan,-nan,-nan,-nan,-nan,-nan,-nan,-nan
120,0,8,643795.250000,219781.250000,1261826.500000,66497.000000,7907.250000,630940.750000,6068.255860,1452.703665,70257.069968,1093.216699,726.676639,35224.313868
120,1,0,-nan,-nan,-nan,-nan,-nan,-nan,-nan,-nan,-nan,-nan,-nan,-nan
121,0,8,639811.625000,218821.500000,1268451.750000,65905.625000,7586.375000,634244.375000,1954.264691,697.558958,88368.572203,391.317307,754.821989,44170.577079
121,1,0,-nan,-nan,-nan,-nan,-nan,-nan,-nan,-nan,-nan,-nan,-nan,-nan
122,0,8,642314.625000,219275.250000,1172736.000000,66098.750000,7466.875000,586292.250000,1843.946579,689.334598,36595.047151,482.289008,606.955401,18334.088631
122,1,0,-nan,-nan,-nan,-nan,-nan,-nan,-nan,-nan,-nan,-nan,-nan,-nan
123,0,8,643623.250000,219785.375000,1215245.625000,66523.375000,7624.625000,607612.125000,5552.625409,1535.760800,41768.539428,975.352236,729.492964,20894.029269
123,1,0,-nan,-nan,-nan,-nan,-nan,-nan,-nan,-nan,-nan,-nan,-nan,-nan
124,0,8,643798.250000,219692.875000,1247462.875000,66466.625000,7678.000000,623730.500000,7180.233575,1757.171195,74791.426209,1223.397823,691.230606,37432.795304
124,1,0,-nan,-nan,-nan,-nan,-nan,-nan,-nan,-nan,-nan,-nan,-nan,-nan
125,0,8,642372.125000,219590.000000,1198762.625000,66370.000000,7373.625000,599360.000000,8436.459276,2207.139665,40672.050471,1175.204131,642.868948,20470.532724
125,1,0,-nan,-nan,-nan,-nan,-nan,-nan,-nan,-nan,-nan,-nan,-nan,-nan
126,0,8,642313.625000,219403.000000,1209417.875000,66324.500000,7523.875000,604699.875000,7972.770142,1673.727278,57348.451408,1127.786992,636.708614,28599.805967
126,1,0,-nan,-nan,-nan,-nan,-nan,-nan,-nan,-nan,-nan,-nan,-nan,-nan
127,0,8,641159.625000,219478.125000,1258255.500000,66212.250000,7430.000000,629153.125000,2002.124368,891.080726,70265.689783,349.882748,498.408216,35171.252997
127,1,0,-nan,-nan,-nan,-nan,-nan,-nan,-nan,-nan,-nan,-nan,-nan,-nan
128,0,8,643773.625000,219582.125000,1237376.000000,66457.250000,7601.875000,618702.375000,6997.031620,1460.652546,53191.543943,1064.395574,596.681749,26583.593422
128,1,0,-nan,-nan,-nan,-nan,-nan,-nan,-nan,-nan,-nan,-nan,-nan,-nan
129,0,8,643773.625000,219402.125000,1231317.000000,66346.125000,7671.500000,615606.500000,7283.626740,1373.352780,59348.153069,892.155037,755.285873,29600.220037
129,1,0,-nan,-nan,-nan,-nan,-nan,-nan,-nan,-nan,-nan,-nan,-nan,-nan
130,0,8,640972.000000,219116.875000,1205889.750000,66075.000000,7755.000000,602983.500000,3641.301690,1104.712003,47733.629374,467.222645,494.656194,23895.107193
130,1,0,-nan,-nan,-nan,-nan,-nan,-nan,-nan,-nan,-nan,-nan,-nan,-nan
131,0,8,645691.875000,220170.375000,1247570.875000,66851.625000,7649.875000,623769.875000,12128.153306,2329.361068,71597.470125,1583.959591,483.153298,35811.304669
131,1,0,-nan,-nan,-nan,-nan,-nan,-nan,-nan,-nan,-nan,-nan,-nan,-nan
132,0,7,638853.571429,218687.428571,1255669.857143,65802.000000,7822.142857,627860.000000,3603.624559,897.527852,41781.369705,380.745509,463.891745,20881.326244
132,1,0,-nan,-nan,-nan,-nan,-nan,-nan,-nan,-nan,-nan,-nan,-nan,-nan
133,0,7,646913.428571,220606.285714,1234445.142857,67041.714286,7680.428571,617225.142857,10646.567668,1712.333889,62754.171368,1359.847756,926.771332,31423.926623
133,1,0,-nan,-nan,-nan,-nan,-nan,-nan,-nan,-nan,-nan,-nan,-nan,-nan
134,0,7,642070.000000,219322.142857,1252622.714286,66319.000000,7837.428571,626292.714286,6886.906002,1631.146348,111801.008444,1087.963235,764.974483,55900.513381
134,1,0,-nan,-nan,-nan,-nan,-nan,-nan,-nan,-nan,-nan,-nan,-nan,-nan
135,0,7,644523.142857,219932.857143,1256824.714286,66583.857143,7938.714286,628493.000000,8485.884068,1702.644114,62443.271669,1281.171275,568.687138,31274.707467
135,1,0,-nan,-nan,-nan,-nan,-nan,-nan,-nan,-nan,-nan,-nan,-nan,-nan
136,0,7,638658.285714,218615.000000,1223396.857143,65843.571429,7607.714286,611686.714286,4597.883479,1106.794341,30317.572313,442.366964,623.444742,15111.197898
136,1,0,-nan,-nan,-nan,-nan,-nan,-nan,-nan,-nan,-nan,-nan,-nan,-nan
137,0,7,640244.571429,218988.142857,1261309.285714,66216.000000,7999.714286,630644.142857,8780.572010,1710.361902,118238.639700,1267.763948,551.428201,59107.132435
137,1,0,-nan,-nan,-nan,-nan,-nan,-nan,-nan,-nan,-nan,-nan,-nan,-nan
138,0,7,639648.428571,218603.428571,1250672.857143,65822.714286,8038.571429,625317.000000,2260.321397,1037.096201,75064.567423,352.470754,343.114665,37375.577897
138,1,0,-nan,-nan,-nan,-nan,-nan,-nan,-nan,-nan,-nan,-nan,-nan,-nan
139,0,7,643390.000000,219768.571429,1206638.000000,66513.142857,7848.714286,603316.285714,6877.256949,1358.845293,34956.030058,992.992077,722.287381,17470.796610
139,1,0,-nan,-nan,-nan,-nan,-nan,-nan,-nan,-nan,-nan,-nan,-nan,-nan
140,0,7,638327.857143,218815.142857,1230801.714286,65926.857143,7526.857143,615328.857143,2918.844949,520.962688,84051.002443,342.208971,638.962648,42010.217901
140,1,0,-nan,-nan,-nan,-nan,-nan,-nan,-nan,-nan,-nan,-nan,-nan,-nan
141,0,7,641098.571429,219188.142857,1243111.000000,66099.857143,7619.428571,621557.285714,5601.253683,1409.332307,53771.934578,570.734722,582.973378,26819.068359
141,1,0,-nan,-nan,-nan,-nan,-nan,-nan,-nan,-nan,-nan,-nan,-nan,-nan
142,0,7,649830.142857,221629.428571,1258675.285714,67269.142857,7903.714286,629264.428571,13982.879863,3436.754776,74982.302601,1466.769768,491.927031,37391.922469
142,1,0,-nan,-nan,-nan,-nan,-nan,-nan,-nan,-nan,-nan,-nan,-nan,-nan
143,0,7,646469.857143,220855.142857,1245765.571429,66798.428571,7816.428571,622760.142857,16283.597913,4488.955221,48091.976247,1947.760388,650.109190,23930.066954
143,1,0,-nan,-nan,-nan,-nan,-nan,-nan,-nan,-nan,-nan,-nan,-nan,-nan
144,0,7,639750.571429,219083.000000,1259528.142857,66043.857143,7759.714286,629754.428571,5428.329495,1168.809773,46177.068803,439.600932,707.086924,23070.947469
144,1,0,-nan,-nan,-nan,-nan,-nan,-nan,-nan,-nan,-nan,-nan,-nan,-nan
145,0,7,638775.857143,218656.571429,1251046.714286,65865.857143,7783.714286,625495.285714,3971.009243,666.508141,39527.401269,268.598175,475.908069,19743.108669
145,1,0,-nan,-nan,-nan,-nan,-nan,-nan,-nan,-nan,-nan,-nan,-nan,-nan
146,0,7,644382.285714,220124.714286,1301223.857143,66681.000000,8008.428571,650691.428571,8319.069414,1530.359688,69741.584949,1178.271494,619.544731,34886.186459
146,1,0,-nan,-nan,-nan,-nan,-nan,-nan,-nan,-nan,-nan,-nan,-nan,-nan
147,0,7,643808.857143,219602.714286,1253551.142857,66530.571429,7825.000000,626733.142857,8934.205000,1897.373125,35421.142187,1315.644965,443.814311,17688.513888
147,1,0,-nan,-nan,-nan,-nan,-nan,-nan,-nan,-nan,-nan,-nan,-nan,-nan
148,0,7,649127.000000,220601.714286,1239678.857143,67228.285714,8030.285714,619879.714286,9761.065091,2038.070496,52978.627379,1518.179428,505.848570,26461.072868
148,1,0,-nan,-nan,-nan,-nan,-nan,-nan,-nan,-nan,-nan,-nan,-nan,-nan
149,0,7,640472.000000,218809.857143,1231748.428571,65873.142857,7508.571429,615877.428571,3798.796050,822.109209,85219.538866,369.878524,384.108191,42607.075093
149,1,0,-nan,-nan,-nan,-nan,-nan,-nan,-nan,-nan,-nan,-nan,-nan,-nan
150,0,7,645906.857143,220476.285714,1257776.000000,67027.285714,7843.857143,628855.714286,9447.911416,1876.511864,84096.175181,1465.721442,805.852420,42064.576447
150,1,0,-nan,-nan,-nan,-nan,-nan,-nan,-nan,-nan,-nan,-nan,-nan,-nan
151,0,7,642336.714286,219570.000000,1287407.428571,66417.000000,7897.428571,643647.857143,7003.992264,1774.651837,41354.880827,1157.200933,402.215954,20650.409456
151,1,0,-nan,-nan,-nan,-nan,-nan,-nan,-nan,-nan,-nan,-nan,-nan,-nan
152,0,7,638488.571429,218542.285714,1271475.714286,65781.857143,7618.285714,635708.142857,3464.019831,680.516131,61263.683425,254.380159,504.405651,30648.645318
152,1,0,-nan,-nan,-nan,-nan,-nan,-nan,-nan,-nan,-nan,-nan,-nan,-nan
153,0,7,639077.285714,219140.142857,1199677.285714,66096.571429,7478.714286,599714.571429,3692.330921,764.920057,39975.145749,459.340788,361.276987,19999.024247
153,1,0,-nan,-nan,-nan,-nan,-nan,-nan,-nan,-nan,-nan,-nan,-nan,-nan
154,0,7,642689.142857,219875.000000,1267352.285714,66608.285714,8196.142857,633574.285714,6714.509565,1548.910677,56559.625683,1133.868815,547.463353,28308.007745
154,1,0,-nan,-nan,-nan,-nan,-nan,-nan,-nan,-nan,-nan,-nan,-nan,-nan
155,0,7,643332.285714,219145.000000,1261239.142857,66276.428571,7882.428571,630643.000000,9200.552619,2212.043916,71066.448205,1283.793025,643.463587,35610.011337
155,1,0,-nan,-nan,-nan,-nan,-nan,-nan,-nan,-nan,-nan,-nan,-nan,-nan
156,0,7,647113.571429,220770.142857,1296848.571429,66794.857143,7977.714286,648357.857143,11931.469552,2945.752314,88217.462881,1380.147552,546.531587,44106.898778
156,1,0,-nan,-nan,-nan,-nan,-nan,-nan,-nan,-nan,-nan,-nan,-nan,-nan
157,0,7,639696.285714,218665.285714,1282674.714286,65816.857143,7825.714286,641293.285714,2904.415098,382.078419,61203.190446,227.326969,509.547058,30665.739616
157,1,0,-nan,-nan,-nan,-nan,-nan,-nan,-nan,-nan,-nan,-nan,-nan,-nan
158,0,7,642809.571429,219639.428571,1239473.285714,66502.857143,7890.428571,619689.000000,5869.484058,1688.133869,31138.356217,1101.275420,849.283708,15657.619359
158,1,0,-nan,-nan,-nan,-nan,-nan,-nan,-nan,-nan,-nan,-nan,-nan,-nan
159,0,7,644400.000000,219580.857143,1294059.142857,66661.000000,7955.142857,646961.000000,11097.273475,2424.356847,95222.460685,1606.496543,966.829491,47682.296802
159,1,0,-nan,-nan,-nan,-nan,-nan,-nan,-nan,-nan,-nan,-nan,-nan,-nan
160,0,7,642939.428571,219911.285714,1252854.285714,66614.285714,7922.428571,626312.142857,7814.297736,1801.267388,62810.811259,1245.754128,445.792667,31285.887122
160,1,0,-nan,-nan,-nan,-nan,-nan,-nan,-nan,-nan,-nan,-nan,-nan,-nan
161,0,7,643391.285714,219724.000000,1215004.428571,66546.285714,7680.571429,607422.714286,4968.990174,1080.928701,46836.292643,881.530441,515.872315,23265.705833
161,1,0,-nan,-nan,-nan,-nan,-nan,-nan,-nan,-nan,-nan,-nan,-nan,-nan
162,0,7,642002.285714,219289.714286,1267796.000000,66329.285714,8156.571429,633876.000000,9176.125649,1752.428496,61014.053098,1216.455591,855.934386,30481.298566
162,1,0,-nan,-nan,-nan,-nan,-nan,-nan,-nan,-nan,-nan,-nan,-nan,-nan
163,0,7,648379.571429,221247.285714,1296545.285714,66984.857143,8322.142857,648167.428571,9778.458042,3912.953934,31708.132119,1528.689301,500.379407,15689.228843
163,1,0,-nan,-nan,-nan,-nan,-nan,-nan,-nan,-nan,-nan,-nan,-nan,-nan
164,0,7,642365.714286,219496.571429,1268387.571429,66387.142857,8070.571429,634235.000000,6552.639331,1668.603510,89170.100184,1128.924574,718.794399,44609.565797
164,1,0,-nan,-nan,-nan,-nan,-nan,-nan,-nan,-nan,-nan,-nan,-nan,-nan
165,0,7,640062.285714,218821.285714,1238424.285714,65924.714286,7803.000000,619223.000000,4162.775815,1017.881233,67026.842680,444.499627,687.588955,33507.285860
165,1,0,-nan,-nan,-nan,-nan,-nan,-nan,-nan,-nan,-nan,-nan,-nan,-nan
166,0,7,640729.428571,219233.428571,1203606.857143,66060.285714,7696.142857,601693.142857,3771.478219,643.824479,45124.076926,430.811763,719.311065,22451.481487
166,1,0,-nan,-nan,-nan,-nan,-nan,-nan,-nan,-nan,-nan,-nan,-nan,-nan
167,0,7,642702.571429,219657.714286,1247616.285714,66434.142857,7792.714286,623865.285714,9527.215646,1957.622152,80794.328045,1190.115412,664.652587,40336.112518
167,1,0,-nan,-nan,-nan,-nan,-nan,-nan,-nan,-nan,-nan,-nan,-nan,-nan
168,0,7,639303.571429,218477.571429,1262519.428571,65760.428571,8057.857143,631207.000000,3173.421041,604.837843,65738.362768,214.535283,614.586604,32825.102829
168,1,0,-nan,-nan,-nan,-nan,-nan,-nan,-nan,-nan,-nan,-nan,-nan,-nan
169,0,7,642553.142857,219650.142857,1230713.857143,66492.571429,7800.714286,615291.428571,8788.140197,1925.406260,40226.291912,1118.983704,697.428074,20075.808917
169,1,0,-nan,-nan,-nan,-nan,-nan,-nan,-nan,-nan,-nan,-nan,-nan,-nan
170,0,7,639499.285714,218692.000000,1258196.142857,65835.571429,7715.857143,629108.142857,2888.302997,638.346525,62361.857329,221.526430,634.973662,31154.125429
170,1,0,-nan,-nan,-nan,-nan,-nan,-nan,-nan,-nan,-nan,-nan,-nan,-nan
171,0,7,642845.000000,219710.571429,1259012.000000,66527.714286,7784.428571,629428.714286,5719.043551,1347.685514,75475.365580,1014.860823,481.567339,37556.929046
171,1,0,-nan,-nan,-nan,-nan,-nan,-nan,-nan,-nan,-nan,-nan,-nan,-nan
172,0,7,638878.857143,218642.428571,1236142.714286,65829.857143,7629.000000,618027.142857,4626.970883,780.116632,75552.283758,276.100100,634.348259,37646.424313
172,1,0,-nan,-nan,-nan,-nan,-nan,-nan,-nan,-nan,-nan,-nan,-nan,-nan
173,0,7,638339.285714,218551.714286,1276060.142857,65767.571429,7596.714286,638023.285714,4529.192666,823.239023,102583.818383,323.514565,653.465425,51224.978122
173,1,0,-nan,-nan,-nan,-nan,-nan,-nan,-nan,-nan,-nan,-nan,-nan,-nan
174,0,7,644928.000000,219893.428571,1250821.571429,66743.428571,7890.142857,625406.000000,9963.540765,1763.631793,94291.611629,1492.125029,614.638205,47136.693472
174,1,0,-nan,-nan,-nan,-nan,-nan,-nan,-nan,-nan,-nan,-nan,-nan,-nan
175,0,7,642344.714286,219636.285714,1255830.142857,66462.428571,7664.142857,627909.285714,7012.655513,1378.968115,49701.675877,1004.685005,328.633286,24838.682423
175,1,0,-nan,-nan,-nan,-nan,-nan,-nan,-nan,-nan,-nan,-nan,-nan,-nan
176,0,7,646672.571429,220580.428571,1233951.285714,66662.571429,7780.285714,616975.857143,14409.571579,3902.435608,59461.090213,1706.722997,634.319143,29721.704827
176,1,0,-nan,-nan,-nan,-nan,-nan,-nan,-nan,-nan,-nan,-nan,-nan,-nan
177,0,7,639716.714286,219090.857143,1188025.714286,66024.857143,7487.857143,593986.285714,3160.734215,769.526093,43340.016266,458.062824,388.976470,21601.152547
177,1,0,-nan,-nan,-nan,-nan,-nan,-nan,-nan,-nan,-nan,-nan,-nan,-nan
178,0,7,640702.285714,218928.285714,1250316.285714,65939.285714,7815.142857,625204.285714,3464.464985,673.029126,64958.610378,294.815058,740.310828,32480.048090
178,1,0,-nan,-nan,-nan,-nan,-nan,-nan,-nan,-nan,-nan,-nan,-nan,-nan
179,0,7,645144.714286,219951.285714,1259154.000000,66579.142857,7946.571429,629458.714286,7320.695531,1544.492031,60258.934956,1002.030428,466.282826,30076.107004
179,1,0,-nan,-nan,-nan,-nan,-nan,-nan,-nan,-nan,-nan,-nan,-nan,-nan
180,0,7,640624.428571,218967.714286,1229510.571429,65977.142857,7574.571429,614651.000000,4805.694921,1153.608960,42962.105076,557.474260,723.164841,21578.067052
180,1,0,-nan,-nan,-nan,-nan,-nan,-nan,-nan,-nan,-nan,-nan,-nan,-nan
181,0,7,643444.571429,219654.000000,1227157.285714,66412.285714,7907.714286,613567.000000,5291.077904,1595.968761,54507.829487,1067.097092,443.448407,27249.627290
181,1,0,-nan,-nan,-nan,-nan,-nan,-nan,-nan,-nan,-nan,-nan,-nan,-nan
182,0,7,640022.857143,219068.000000,1233237.857143,66006.714286,7738.000000,616638.857143,4695.740910,1037.941369,42996.681319,433.275470,694.414862,21499.318364
182,1,0,-nan,-nan,-nan,-nan,-nan,-nan,-nan,-nan,-nan,-nan,-nan,-nan
183,0,7,642492.142857,219229.142857,1255676.571429,66241.857143,7695.142857,627881.714286,11316.182060,2462.188598,66429.383361,1516.250208,460.864228,33219.000237
183,1,0,-nan,-nan,-nan,-nan,-nan,-nan,-nan,-nan,-nan,-nan,-nan,-nan
184,0,7,645445.285714,220096.571429,1257281.000000,66870.000000,7896.000000,628513.000000,9428.336904,2022.115431,63355.533097,1431.289129,714.221254,31390.092964
184,1,0,-nan,-nan,-nan,-nan,-nan,-nan,-nan,-nan,-nan,-nan,-nan,-nan
185,0,7,645080.714286,219893.142857,1219119.000000,66735.571429,7622.714286,609556.142857,9055.373854,1992.464549,87946.045050,1420.485315,887.093925,43895.085740
185,1,0,-nan,-nan,-nan,-nan,-nan,-nan,-nan,-nan,-nan,-nan,-nan,-nan
186,0,7,639297.714286,218752.000000,1224628.714286,65938.714286,7559.428571,612256.000000,2338.029800,751.901399,74963.388709,493.094518,903.180073,37341.915882
186,1,0,-nan,-nan,-nan,-nan,-nan,-nan,-nan,-nan,-nan,-nan,-nan,-nan
187,0,7,648358.000000,220575.000000,1244350.000000,67215.285714,8170.571429,622200.285714,11314.231847,2603.229972,71494.145041,1710.699415,517.855153,35752.986551
187,1,0,-nan,-nan,-nan,-nan,-nan,-nan,-nan,-nan,-nan,-nan,-nan,-nan
188,0,7,640737.000000,218815.571429,1258114.142857,65897.285714,7980.428571,628992.142857,3150.896471,1219.720092,58600.322560,440.048930,539.888310,29264.966142
188,1,0,-nan,-nan,-nan,-nan,-nan,-nan,-nan,-nan,-nan,-nan,-nan,-nan
189,0,7,645615.285714,220572.000000,1220578.857143,66914.428571,7891.571429,610120.000000,5810.934489,1110.031274,49695.284811,766.835586,678.442935,24728.462883
189,1,0,-nan,-nan,-nan,-nan,-nan,-nan,-nan,-nan,-nan,-nan,-nan,-nan
190,0,7,645123.714286,219711.571429,1233554.428571,66680.285714,7687.000000,616780.142857,10809.937699,2394.592710,63663.020863,1536.635073,372.099065,31826.700073
190,1,0,-nan,-nan,-nan,-nan,-nan,-nan,-nan,-nan,-nan,-nan,-nan,-nan
191,0,7,640568.714286,219093.571429,1308491.142857,66023.857143,7920.142857,654142.571429,2094.280969,1125.180348,77778.937904,489.512127,520.679619,38911.980376
191,1,0,-nan,-nan,-nan,-nan,-nan,-nan,-nan,-nan,-nan,-nan,-nan,-nan
192,0,7,640954.857143,219097.428571,1263431.857143,65995.285714,7663.714286,631752.857143,2605.029664,886.105904,46180.370698,356.754703,439.819026,23060.699292
192,1,0,-nan,-nan,-nan,-nan,-nan,-nan,-nan,-nan,-nan,-nan,-nan,-nan
193,0,7,640014.714286,218813.714286,1229014.285714,65878.142857,7280.857143,614500.142857,2575.727787,815.964585,38845.331636,423.354775,630.838768,19360.513050
193,1,0,-nan,-nan,-nan,-nan,-nan,-nan,-nan,-nan,-nan,-nan,-nan,-nan
194,0,7,641983.857143,219467.571429,1214307.714286,66434.142857,7676.857143,607114.571429,7458.362735,1568.986375,45689.145218,1170.728885,546.846395,22763.734673
194,1,0,-nan,-nan,-nan,-nan,-nan,-nan,-nan,-nan,-nan,-nan,-nan,-nan
195,0,7,644024.285714,219638.142857,1239835.000000,66622.428571,7577.428571,619940.000000,10453.678747,2363.274872,68858.646564,1581.074034,586.063345,34414.050378
195,1,0,-nan,-nan,-nan,-nan,-nan,-nan,-nan,-nan,-nan,-nan,-nan,-nan
196,0,7,643450.285714,220011.428571,1221483.428571,66567.571429,7580.285714,610760.428571,8843.789858,1816.784354,67158.191363,1384.409194,694.244237,33560.459378
196,1,0,-nan,-nan,-nan,-nan,-nan,-nan,-nan,-nan,-nan,-nan,-nan,-nan
197,0,7,639786.142857,219041.428571,1248880.714286,66017.285714,7538.857143,624435.428571,6620.736632,1712.012505,84504.954355,1010.941953,671.293938,42131.602499
197,1,0,-nan,-nan,-nan,-nan,-nan,-nan,-nan,-nan,-nan,-nan,-nan,-nan
198,0,7,645284.571429,220619.285714,1247692.428571,66892.714286,7766.428571,623853.428571,10434.057447,1835.458348,59927.509674,1495.962730,798.777433,29944.903420
198,1,0,-nan,-nan,-nan,-nan,-nan,-nan,-nan,-nan,-nan,-nan,-nan,-nan
199,0,7,645361.142857,220099.285714,1225950.571429,66670.285714,7846.714286,612896.571429,8011.300865,2011.394734,53976.394761,1436.211854,796.092011,26878.286860
199,1,0,-nan,-nan,-nan,-nan,-nan,-nan,-nan,-nan,-nan,-nan,-nan,-nan
200,0,7,642859.714286,219892.428571,1218659.000000,66069.428571,7514.000000,609216.714286,8671.583028,3054.517771,46827.890270,773.685218,631.912743,23392.002368
200,1,0,-nan,-nan,-nan,-nan,-nan,-nan,-nan,-nan,-nan,-nan,-nan,-nan
201,0,7,642852.428571,219542.857143,1210414.428571,66319.428571,7526.857143,605187.714286,7105.271943,1533.112467,48638.070582,935.138623,691.446192,24353.083898
201,1,0,-nan,-nan,-nan,-nan,-nan,-nan,-nan,-nan,-nan,-nan,-nan,-nan
202,0,7,642017.000000,219463.428571,1218615.857143,66243.714286,7329.714286,609297.285714,8089.584927,2074.288233,60958.898447,1235.536403,643.925176,30513.585095
202,1,0,-nan,-nan,-nan,-nan,-nan,-nan,-nan,-nan,-nan,-nan,-nan,-nan
203,0,7,640245.428571,218941.857143,1242873.285714,66018.857143,7474.000000,621481.714286,7968.858582,1507.451343,68003.324099,1121.039751,388.162705,34033.040894
203,1,0,-nan,-nan,-nan,-nan,-nan,-nan,-nan,-nan,-nan,-nan,-nan,-nan
204,0,7,644938.428571,220045.857143,1251583.285714,66673.142857,7645.428571,625740.714286,9539.677576,2056.505596,83963.019899,1584.522049,740.383464,41915.061210
204,1,0,-nan,-nan,-nan,-nan,-nan,-nan,-nan,-nan,-nan,-nan,-nan,-nan
205,0,7,637651.142857,218292.857143,1215537.142857,65536.000000,7377.285714,607829.285714,1515.246838,604.413631,50889.016094,292.959773,748.485846,25486.926569
205,1,0,-nan,-nan,-nan,-nan,-nan,-nan,-nan,-nan,-nan,-nan,-nan,-nan
206,0,7,640522.285714,219277.714286,1213701.285714,65952.571429,7424.142857,606827.857143,3209.012697,861.874819,57526.002661,470.203864,431.441911,28664.805740
206,1,0,-nan,-nan,-nan,-nan,-nan,-nan,-nan,-nan,-nan,-nan,-nan,-nan
207,0,7,638759.428571,218677.000000,1223045.714286,65680.714286,7327.571429,611545.428571,1814.788682,282.386766,58906.180408,294.950705,615.033764,29443.240427
207,1,0,-nan,-nan,-nan,-nan,-nan,-nan,-nan,-nan,-nan,-nan,-nan,-nan
208,0,7,642312.571429,219821.000000,1238935.285714,66395.428571,7597.428571,619339.571429,9259.787885,1812.988062,67575.516620,1314.781226,701.650067,33522.584306
208,1,0,-nan,-nan,-nan,-nan,-nan,-nan,-nan,-nan,-nan,-nan,-nan,-nan
209,0,7,643627.857143,219902.571429,1175395.142857,66615.714286,7444.428571,587727.000000,9764.030541,2200.596144,38968.006424,1499.478835,548.982919,19450.804816
209,1,0,-nan,-nan,-nan,-nan,-nan,-nan,-nan,-nan,-nan,-nan,-nan,-nan
210,0,7,638590.142857,218737.857143,1221338.285714,65707.857143,7587.714286,610693.714286,1941.394597,861.104180,72528.823050,185.908909,563.600597,36288.912387
210,1,0,-nan,-nan,-nan,-nan,-nan,-nan,-nan,-nan,-nan,-nan,-nan,-nan
211,0,7,641367.714286,219482.714286,1253093.571429,66230.571429,7609.857143,626630.714286,7692.161237,1446.342551,81143.238028,1180.830925,465.392132,40652.117431
211,1,0,-nan,-nan,-nan,-nan,-nan,-nan,-nan,-nan,-nan,-nan,-nan,-nan
212,0,7,645385.571429,220037.285714,1268387.000000,66701.285714,7564.285714,634248.857143,7885.590020,2164.114911,66688.107198,1482.967075,413.905688,33322.691301
212,1,0,-nan,-nan,-nan,-nan,-nan,-nan,-nan,-nan,-nan,-nan,-nan,-nan
213,0,7,638619.000000,218549.714286,1245734.857143,65692.857143,7251.285714,622873.571429,4013.067263,488.429470,78132.153995,409.090430,616.470533,39055.765859
213,1,0,-nan,-nan,-nan,-nan,-nan,-nan,-nan,-nan,-nan,-nan,-nan,-nan
214,0,7,640429.571429,219397.714286,1252573.428571,66010.714286,7520.714286,626330.000000,2719.580265,753.129227,57539.551825,490.619933,528.628337,28763.798646
214,1,0,-nan,-nan,-nan,-nan,-nan,-nan,-nan,-nan,-nan,-nan,-nan,-nan
215,0,7,641458.571429,219106.000000,1234004.285714,66065.000000,7560.857143,617040.857143,10320.968460,1938.478859,51098.360686,1359.765526,610.491939,25559.000290
215,1,0,-nan,-nan,-nan,-nan,-nan,-nan,-nan,-nan,-nan,-nan,-nan,-nan
216,0,7,642093.285714,219547.428571,1215337.428571,66239.857143,7228.571429,607657.571429,9146.593960,1619.910743,73477.719004,1283.540575,611.167234,36696.030170
216,1,0,-nan,-nan,-nan,-nan,-nan,-nan,-nan,-nan,-nan,-nan,-nan,-nan
217,0,7,640359.857143,219200.714286,1243375.571429,66121.000000,7494.142857,621757.142857,5231.252607,1361.754511,71861.593354,859.730190,566.101563,35976.292584
217,1,0,-nan,-nan,-nan,-nan,-nan,-nan,-nan,-nan,-nan,-nan,-nan,-nan
218,0,7,638264.857143,218860.714286,1208206.285714,65812.571429,7245.428571,604147.285714,4790.699455,945.449359,57729.546972,600.068057,510.644651,28873.736617
218,1,0,-nan,-nan,-nan,-nan,-nan,-nan,-nan,-nan,-nan,-nan,-nan,-nan
219,0,7,644088.000000,220121.857143,1190575.571429,66712.571429,7445.571429,595339.142857,9301.450624,2022.163652,81096.168389,1535.502882,696.852281,40564.342087
219,1,0,-nan,-nan,-nan,-nan,-nan,-nan,-nan,-nan,-nan,-nan,-nan,-nan
220,0,7,638735.857143,218477.857143,1218578.571429,65648.000000,7505.000000,609348.000000,1690.457878,921.606428,33546.571777,551.718873,684.157041,16780.834663
220,1,0,-nan,-nan,-nan,-nan,-nan,-nan,-nan,-nan,-nan,-nan,-nan,-nan
221,0,7,642287.714286,219558.000000,1228399.285714,66298.285714,7491.571429,614206.000000,8873.337071,1996.645473,89438.771059,1251.044445,709.452476,44726.534253
221,1,0,-nan,-nan,-nan,-nan,-nan,-nan,-nan,-nan,-nan,-nan,-nan,-nan
222,0,7,645557.285714,220388.428571,1257823.142857,66837.857143,7815.285714,628879.428571,7320.887333,1608.311880,74945.638221,1382.390417,731.654429,37403.815974
222,1,0,-nan,-nan,-nan,-nan,-nan,-nan,-nan,-nan,-nan,-nan,-nan,-nan
223,0,7,639773.428571,218776.857143,1214499.857143,65812.428571,7460.285714,607286.571429,3853.594643,1204.108494,68373.456967,685.635025,626.200724,34215.264350
223,1,0,-nan,-nan,-nan,-nan,-nan,-nan,-nan,-nan,-nan,-nan,-nan,-nan
224,0,7,641062.000000,218948.857143,1260440.142857,66046.285714,7618.714286,630243.428571,6407.121484,1341.061352,52756.331239,1150.441370,765.841034,26367.971762
224,1,0,-nan,-nan,-nan,-nan,-nan,-nan,-nan,-nan,-nan,-nan,-nan,-nan
225,0,7,637318.428571,218603.714286,1198736.857143,65710.000000,7082.142857,599381.857143,3492.037917,444.602138,34002.764692,347.178834,790.661464,16974.071962
225,1,0,-nan,-nan,-nan,-nan,-nan,-nan,-nan,-nan,-nan,-nan,-nan,-nan
226,0,7,642026.285714,219823.714286,1210511.142857,66084.571429,7039.857143,605202.428571,5836.270084,1734.891081,73902.682370,689.688720,648.090256,36909.480845
226,1,0,-nan,-nan,-nan,-nan,-nan,-nan,-nan,-nan,-nan,-nan,-nan,-nan
227,0,7,651848.142857,222769.571429,1247504.428571,67274.142857,7765.571429,623776.857143,19763.397528,6724.678598,72215.017407,2140.428891,692.039812,36123.597347
227,1,0,-nan,-nan,-nan,-nan,-nan,-nan,-nan,-nan,-nan,-nan,-nan,-nan
228,0,7,651586.857143,222703.714286,1203076.857143,67234.285714,7689.428571,601548.857143,16708.527091,5878.339870,63144.976467,1762.953829,800.566560,31529.247757
228,1,0,-nan,-nan,-nan,-nan,-nan,-nan,-nan,-nan,-nan,-nan,-nan,-nan
229,0,7,648810.571429,221869.571429,1253896.285714,66855.285714,7489.000000,626980.571429,17888.542861,6026.598516,37465.343669,1909.843278,677.917188,18727.584444
229,1,0,-nan,-nan,-nan,-nan,-nan,-nan,-nan,-nan,-nan,-nan,-nan,-nan
230,0,7,645840.857143,221501.428571,1204892.428571,66572.428571,7205.714286,602377.285714,17997.329107,6232.419156,50507.003056,1725.545533,625.987383,25136.991238
230,1,0,-nan,-nan,-nan,-nan,-nan,-nan,-nan,-nan,-nan,-nan,-nan,-nan
231,0,8,644602.500000,220881.125000,1227157.625000,66346.750000,7312.500000,613571.500000,16508.981495,5917.396903,61857.381162,1592.495899,685.896494,30863.815691
231,1,0,-nan,-nan,-nan,-nan,-nan,-nan,-nan,-nan,-nan,-nan,-nan,-nan
232,0,8,647056.000000,221241.750000,1254802.875000,66681.750000,7801.875000,627474.625000,17768.478185,6014.615465,84440.491517,1833.412648,512.873629,42278.267709
232,1,0,-nan,-nan,-nan,-nan,-nan,-nan,-nan,-nan,-nan,-nan,-nan,-nan
233,0,8,648299.125000,221963.000000,1221896.375000,67007.500000,7662.500000,610948.875000,19260.513126,5713.156330,75365.513196,1683.902981,534.683785,37657.362114
233,1,0,-nan,-nan,-nan,-nan,-nan,-nan,-nan,-nan,-nan,-nan,-nan,-nan
234,0,8,651830.875000,222652.250000,1188460.125000,67132.000000,7597.375000,594224.500000,18339.984334,5948.624268,37404.974119,1732.853860,716.469458,18664.085546
234,1,0,-nan,-nan,-nan,-nan,-nan,-nan,-nan,-nan,-nan,-nan,-nan,-nan
235,0,8,645799.125000,221092.500000,1232868.000000,66455.375000,7582.125000,616439.000000,19851.403977,6298.771964,50769.193602,1785.639657,550.560496,25366.181591
235,1,0,-nan,-nan,-nan,-nan,-nan,-nan,-nan,-nan,-nan,-nan,-nan,-nan
236,0,8,649907.750000,222045.125000,1256867.625000,67037.375000,7618.750000,628452.250000,17210.554449,5869.849645,76340.428878,1710.399949,662.696339,38141.391397
236,1,0,-nan,-nan,-nan,-nan,-nan,-nan,-nan,-nan,-nan,-nan,-nan,-nan
237,0,8,646438.375000,221088.875000,1229458.875000,66429.625000,7365.500000,614768.375000,17875.609744,6015.351329,43213.189874,1622.815219,630.599913,21578.297505
237,1,0,-nan,-nan,-nan,-nan,-nan,-nan,-nan,-nan,-nan,-nan,-nan,-nan
238,0,8,654655.500000,222885.000000,1243067.250000,67684.750000,7842.125000,621563.500000,24988.141538,7360.240978,75368.506498,2877.487131,895.102848,37689.398188
238,1,0,-nan,-nan,-nan,-nan,-nan,-nan,-nan,-nan,-nan,-nan,-nan,-nan
239,0,8,645705.500000,220951.750000,1224319.500000,66430.000000,7497.875000,612121.500000,17222.335904,5915.999002,60842.809922,1593.366876,458.134925,30363.423951
239,1,0,-nan,-nan,-nan,-nan,-nan,-nan,-nan,-nan,-nan,-nan,-nan,-nan
240,0,8,647964.750000,221500.375000,1246919.250000,66835.750000,7667.500000,623466.875000,17288.326435,5712.063789,63810.697116,1711.636114,762.722918,31878.030344
240,1,0,-nan,-nan,-nan,-nan,-nan,-nan,-nan,-nan,-nan,-nan,-nan,-nan
241,0,8,647595.250000,221471.125000,1214892.750000,66820.625000,7496.625000,607439.500000,17189.520432,5734.419989,58579.998969,1545.311533,332.104629,29175.169323
241,1,0,-nan,-nan,-nan,-nan,-nan,-nan,-nan,-nan,-nan,-nan,-nan,-nan
242,0,8,649421.750000,222424.250000,1215613.000000,67081.875000,7460.000000,607856.250000,18680.288647,6236.765082,45541.186872,1992.322792,682.305100,22738.380779
242,1,0,-nan,-nan,-nan,-nan,-nan,-nan,-nan,-nan,-nan,-nan,-nan,-nan
243,0,8,647664.500000,221763.375000,1218279.125000,66947.875000,7503.250000,609180.125000,16936.052661,5524.537536,83119.731163,1751.021162,299.698494,41550.462387
243,1,0,-nan,-nan,-nan,-nan,-nan,-nan,-nan,-nan,-nan,-nan,-nan,-nan
244,0,8,647133.750000,221522.375000,1277390.875000,66643.125000,7754.875000,638650.500000,19952.698957,6651.704931,86327.161141,1908.849682,465.357776,43139.171715
244,1,0,-nan,-nan,-nan,-nan,-nan,-nan,-nan,-nan,-nan,-nan,-nan,-nan
245,0,8,644980.750000,221041.875000,1255551.125000,66440.000000,7622.000000,627827.750000,17539.820515,5798.046879,53017.985310,1571.458876,453.742769,26520.553971
245,1,0,-nan,-nan,-nan,-nan,-nan,-nan,-nan,-nan,-nan,-nan,-nan,-nan
246,0,8,645718.000000,221248.750000,1253175.625000,66549.000000,7611.000000,626465.250000,18967.020984,6563.223555,99444.913862,1892.891241,451.078707,49665.183853
246,1,0,-nan,-nan,-nan,-nan,-nan,-nan,-nan,-nan,-nan,-nan,-nan,-nan
247,0,8,645900.875000,221127.375000,1272599.000000,66686.125000,7863.750000,636314.000000,18004.816921,6138.412843,65649.491761,1699.242878,628.218065,32873.177006
247,1,0,-nan,-nan,-nan,-nan,-nan,-nan,-nan,-nan,-nan,-nan,-nan,-nan
248,0,8,652072.125000,222357.625000,1306054.750000,67525.375000,8192.375000,653002.500000,18517.620854,5603.747205,88952.573841,1890.751566,677.473051,44501.473706
248,1,0,-nan,-nan,-nan,-nan,-nan,-nan,-nan,-nan,-nan,-nan,-nan,-nan
249,0,8,646318.000000,221132.625000,1289259.750000,66449.125000,7846.500000,644503.625000,16618.616068,5821.347759,92010.713255,1591.670933,700.744782,45817.098326
249,1,0,-nan,-nan,-nan,-nan,-nan,-nan,-nan,-nan,-nan,-nan,-nan,-nan
250,0,8,644678.375000,220714.875000,1270656.375000,66292.375000,7583.250000,635309.500000,17801.645296,5811.035524,80127.401855,1556.601983,437.591062,40069.689664
250,1,0,-nan,-nan,-nan,-nan,-nan,-nan,-nan,-nan,-nan,-nan,-nan,-nan
251,0,8,649421.250000,221958.875000,1276024.875000,67054.000000,8215.250000,637945.875000,16395.965805,5518.228779,42803.250710,1711.615246,684.672869,21282.365273
251,1,0,-nan,-nan,-nan,-nan,-nan,-nan,-nan,-nan,-nan,-nan,-nan,-nan
252,0,8,648018.375000,221498.250000,1240713.250000,66829.000000,7775.250000,620284.375000,20921.129265,7000.960215,92311.677848,2158.174634,754.679361,46045.738646
252,1,0,-nan,-nan,-nan,-nan,-nan,-nan,-nan,-nan,-nan,-nan,-nan,-nan
253,0,8,645368.625000,220704.625000,1252488.500000,66354.250000,7789.625000,626329.375000,16047.290542,5816.647809,76276.188590,1610.581397,404.236607,38165.848163
253,1,0,-nan,-nan,-nan,-nan,-nan,-nan,-nan,-nan,-nan,-nan,-nan,-nan
254,0,8,651239.500000,222115.125000,1251010.250000,67251.250000,7911.750000,625503.875000,16152.461136,5812.230713,69640.264535,1851.524220,830.041979,34881.482722
254,1,0,-nan,-nan,-nan,-nan,-nan,-nan,-nan,-nan,-nan,-nan,-nan,-nan
255,0,8,648035.125000,221451.250000,1268125.625000,66832.250000,7723.750000,634166.500000,18665.602692,6461.221590,73181.684565,2059.511092,647.586819,36584.207047
255,1,0,-nan,-nan,-nan,-nan,-nan,-nan,-nan,-nan,-nan,-nan,-nan,-nan
