-1,0,0.00891089
-1,1,0.00792079
-1,2,0.00792079
-1,3,0.00792079
-1,4,0.00792079
-1,5,0.00792079
-1,6,0.00792079
-1,7,0.00792079
-1,8,0.00792079
-1,9,0.00792079
-1,10,0.00792079
-1,11,0.00792079
-1,12,0.00792079
-1,13,0.00792079
-1,14,0.00792079
-1,15,0.00792079
-1,16,0.00792079
-1,17,0.00792079
-1,18,0.00792079
-1,19,0.00792079
-1,20,0.00792079
-1,21,0.00792079
-1,22,0.00792079
-1,23,0.00792079
-1,24,0.00792079
-1,25,0.00792079
-1,26,0.00792079
-1,27,0.00792079
-1,28,0.00792079
-1,29,0.00792079
-1,30,0.00792079
-1,31,0.00792079
-1,32,0.00792079
-1,33,0.00792079
-1,34,0.00792079
-1,35,0.00792079
-1,36,0.00792079
-1,37,0.00792079
-1,38,0.00792079
-1,39,0.00792079
-1,40,0.00792079
-1,41,0.00792079
-1,42,0.00792079
-1,43,0.00792079
-1,44,0.00792079
-1,45,0.00792079
-1,46,0.00792079
-1,47,0.00792079
-1,48,0.00792079
-1,49,0.00792079
-1,50,0.00792079
-1,51,0.00792079
-1,52,0.00792079
-1,53,0.00792079
-1,54,0.00792079
-1,55,0.00792079
-1,56,0.00792079
-1,57,0.00693069
-1,58,0.00693069
-1,59,0.00693069
-1,60,0.00693069
-1,61,0.00693069
-1,62,0.00693069
-1,63,0.00693069
-1,64,0.00693069
-1,65,0.00693069
-1,66,0.00693069
-1,67,0.00693069
-1,68,0.00693069
-1,69,0.00693069
-1,70,0.00693069
-1,71,0.00693069
-1,72,0.00792079
-1,73,0.00792079
-1,74,0.00792079
-1,75,0.00792079
-1,76,0.00792079
-1,77,0.00792079
-1,78,0.00792079
-1,79,0.00792079
-1,80,0.00792079
-1,81,0.00792079
-1,82,0.00792079
-1,83,0.00792079
-1,84,0.00792079
-1,85,0.00792079
-1,86,0.00792079
-1,87,0.00792079
-1,88,0.00792079
-1,89,0.00792079
-1,90,0.00792079
-1,91,0.00792079
-1,92,0.00792079
-1,93,0.00792079
-1,94,0.00792079
-1,95,0.00792079
-1,96,0.00792079
-1,97,0.00792079
-1,98,0.00792079
-1,99,0.00792079
-1,100,0.00792079
-1,101,0.00792079
-1,102,0.00792079
-1,103,0.00792079
-1,104,0.00792079
-1,105,0.00792079
-1,106,0.00792079
-1,107,0.00792079
-1,108,0.00792079
-1,109,0.00792079
-1,110,0.00792079
-1,111,0.00792079
-1,112,0.00792079
-1,113,0.00792079
-1,114,0.00792079
-1,115,0.00792079
-1,116,0.00792079
-1,117,0.00792079
-1,118,0.00792079
-1,119,0.00792079
-1,120,0.00792079
-1,121,0.00792079
-1,122,0.00792079
-1,123,0.00792079
-1,124,0.00792079
-1,125,0.00792079
-1,126,0.00792079
-1,127,0.00792079
3,0,0.00805639
3,1,0.00704935
3,2,0.00704935
3,3,0.00704935
3,4,0.00704935
3,5,0.00704935
3,6,0.00704935
3,7,0.00704935
3,8,0.00704935
3,9,0.00704935
3,10,0.00704935
3,11,0.00704935
3,12,0.00704935
3,13,0.00704935
3,14,0.00704935
3,15,0.00704935
3,16,0.00704935
3,17,0.00704935
3,18,0.00704935
3,19,0.00704935
3,20,0.00704935
3,21,0.00704935
3,22,0.00704935
3,23,0.00704935
3,24,0.00704935
3,25,0.00704935
3,26,0.00704935
3,27,0.00704935
3,28,0.00704935
3,29,0.00704935
3,30,0.00704935
3,31,0.00704935
3,32,0.00805639
3,33,0.00805639
3,34,0.00805639
3,35,0.00805639
3,36,0.00805639
3,37,0.00805639
3,38,0.00805639
3,39,0.00805639
3,40,0.00805639
3,41,0.00805639
3,42,0.00805639
3,43,0.00805639
3,44,0.00805639
3,45,0.00805639
3,46,0.00805639
3,47,0.00805639
3,48,0.00805639
3,49,0.00805639
3,50,0.00805639
3,51,0.00805639
3,52,0.00805639
3,53,0.00805639
3,54,0.00805639
3,55,0.00805639
3,56,0.00805639
3,57,0.00805639
3,58,0.00805639
3,59,0.00805639
3,60,0.00805639
3,61,0.00805639
3,62,0.00805639
3,63,0.00805639
3,64,0.00805639
3,65,0.00805639
3,66,0.00805639
3,67,0.00805639
3,68,0.00805639
3,69,0.00805639
3,70,0.00805639
3,71,0.00805639
3,72,0.00805639
3,73,0.00805639
3,74,0.00805639
3,75,0.00805639
3,76,0.00805639
3,77,0.00805639
3,78,0.00805639
3,79,0.00805639
3,80,0.00805639
3,81,0.00805639
3,82,0.00805639
3,83,0.00805639
3,84,0.00805639
3,85,0.00805639
3,86,0.00805639
3,87,0.00805639
3,88,0.00805639
3,89,0.00805639
3,90,0.00805639
3,91,0.00805639
3,92,0.00805639
3,93,0.00805639
3,94,0.00805639
3,95,0.00805639
3,96,0.00805639
3,97,0.00805639
3,98,0.00805639
3,99,0.00805639
3,100,0.00805639
3,101,0.00805639
3,102,0.00805639
3,103,0.00805639
3,104,0.00805639
3,105,0.00805639
3,106,0.00805639
3,107,0.00805639
3,108,0.00805639
3,109,0.00805639
3,110,0.00805639
3,111,0.00805639
3,112,0.00805639
3,113,0.00805639
3,114,0.00805639
3,115,0.00805639
3,116,0.00805639
3,117,0.00805639
3,118,0.00805639
3,119,0.00805639
3,120,0.00805639
3,121,0.00805639
3,122,0.00805639
3,123,0.00805639
3,124,0.00805639
3,125,0.00805639
3,126,0.00805639
3,127,0.00805639
