-1,0,0.117794
-1,1,0.116541
-1,2,0.116541
-1,3,0.116541
-1,4,0.116541
-1,5,0.117794
-1,6,0.117794
-1,7,0.180451
2,0,0.125714
2,1,0.124898
2,2,0.124898
2,3,0.124898
2,4,0.124898
2,5,0.124898
2,6,0.124898
2,7,0.124898
