-1,0,0.00447761
-1,1,0.0039801
-1,2,0.0039801
-1,3,0.0039801
-1,4,0.0039801
-1,5,0.0039801
-1,6,0.0039801
-1,7,0.0039801
-1,8,0.0039801
-1,9,0.0039801
-1,10,0.0039801
-1,11,0.0039801
-1,12,0.0039801
-1,13,0.0039801
-1,14,0.0039801
-1,15,0.0039801
-1,16,0.0039801
-1,17,0.0039801
-1,18,0.0039801
-1,19,0.0039801
-1,20,0.0039801
-1,21,0.0039801
-1,22,0.0039801
-1,23,0.0039801
-1,24,0.0039801
-1,25,0.0039801
-1,26,0.0039801
-1,27,0.0039801
-1,28,0.0039801
-1,29,0.0039801
-1,30,0.0039801
-1,31,0.0039801
-1,32,0.0039801
-1,33,0.0039801
-1,34,0.0039801
-1,35,0.0039801
-1,36,0.0039801
-1,37,0.0039801
-1,38,0.0039801
-1,39,0.0039801
-1,40,0.0039801
-1,41,0.0039801
-1,42,0.0039801
-1,43,0.0039801
-1,44,0.0039801
-1,45,0.0039801
-1,46,0.0039801
-1,47,0.0039801
-1,48,0.0039801
-1,49,0.0039801
-1,50,0.0039801
-1,51,0.0039801
-1,52,0.0039801
-1,53,0.0039801
-1,54,0.0039801
-1,55,0.0039801
-1,56,0.0039801
-1,57,0.0039801
-1,58,0.0039801
-1,59,0.0039801
-1,60,0.0039801
-1,61,0.0039801
-1,62,0.0039801
-1,63,0.0039801
-1,64,0.0039801
-1,65,0.0039801
-1,66,0.0039801
-1,67,0.0039801
-1,68,0.0039801
-1,69,0.0039801
-1,70,0.0039801
-1,71,0.0039801
-1,72,0.0039801
-1,73,0.0039801
-1,74,0.0039801
-1,75,0.0039801
-1,76,0.0039801
-1,77,0.0039801
-1,78,0.0039801
-1,79,0.0039801
-1,80,0.0039801
-1,81,0.0039801
-1,82,0.0039801
-1,83,0.0039801
-1,84,0.0039801
-1,85,0.0039801
-1,86,0.0039801
-1,87,0.0039801
-1,88,0.0039801
-1,89,0.0039801
-1,90,0.0039801
-1,91,0.0039801
-1,92,0.0039801
-1,93,0.0039801
-1,94,0.0039801
-1,95,0.0039801
-1,96,0.0039801
-1,97,0.0039801
-1,98,0.0039801
-1,99,0.0039801
-1,100,0.0039801
-1,101,0.0039801
-1,102,0.0039801
-1,103,0.0039801
-1,104,0.0039801
-1,105,0.0039801
-1,106,0.0039801
-1,107,0.0039801
-1,108,0.0039801
-1,109,0.0039801
-1,110,0.0039801
-1,111,0.0039801
-1,112,0.0039801
-1,113,0.0039801
-1,114,0.0039801
-1,115,0.0039801
-1,116,0.0039801
-1,117,0.0039801
-1,118,0.00348259
-1,119,0.00348259
-1,120,0.00348259
-1,121,0.00348259
-1,122,0.00348259
-1,123,0.00348259
-1,124,0.00348259
-1,125,0.00348259
-1,126,0.00348259
-1,127,0.00348259
-1,128,0.00348259
-1,129,0.00348259
-1,130,0.00348259
-1,131,0.00348259
-1,132,0.00348259
-1,133,0.00348259
-1,134,0.00348259
-1,135,0.00348259
-1,136,0.00348259
-1,137,0.00348259
-1,138,0.00348259
-1,139,0.00348259
-1,140,0.00348259
-1,141,0.00348259
-1,142,0.00348259
-1,143,0.00348259
-1,144,0.00348259
-1,145,0.00348259
-1,146,0.00348259
-1,147,0.00348259
-1,148,0.00348259
-1,149,0.00348259
-1,150,0.00348259
-1,151,0.00348259
-1,152,0.00348259
-1,153,0.00348259
-1,154,0.00348259
-1,155,0.00348259
-1,156,0.00348259
-1,157,0.0039801
-1,158,0.0039801
-1,159,0.0039801
-1,160,0.0039801
-1,161,0.0039801
-1,162,0.0039801
-1,163,0.0039801
-1,164,0.0039801
-1,165,0.0039801
-1,166,0.0039801
-1,167,0.0039801
-1,168,0.0039801
-1,169,0.0039801
-1,170,0.0039801
-1,171,0.0039801
-1,172,0.0039801
-1,173,0.0039801
-1,174,0.0039801
-1,175,0.0039801
-1,176,0.0039801
-1,177,0.0039801
-1,178,0.0039801
-1,179,0.0039801
-1,180,0.0039801
-1,181,0.0039801
-1,182,0.0039801
-1,183,0.0039801
-1,184,0.0039801
-1,185,0.0039801
-1,186,0.0039801
-1,187,0.0039801
-1,188,0.0039801
-1,189,0.0039801
-1,190,0.0039801
-1,191,0.0039801
-1,192,0.0039801
-1,193,0.0039801
-1,194,0.0039801
-1,195,0.0039801
-1,196,0.0039801
-1,197,0.0039801
-1,198,0.0039801
-1,199,0.0039801
-1,200,0.0039801
-1,201,0.0039801
-1,202,0.0039801
-1,203,0.0039801
-1,204,0.0039801
-1,205,0.0039801
-1,206,0.0039801
-1,207,0.0039801
-1,208,0.0039801
-1,209,0.0039801
-1,210,0.0039801
-1,211,0.0039801
-1,212,0.0039801
-1,213,0.0039801
-1,214,0.0039801
-1,215,0.0039801
-1,216,0.0039801
-1,217,0.0039801
-1,218,0.0039801
-1,219,0.0039801
-1,220,0.0039801
-1,221,0.0039801
-1,222,0.0039801
-1,223,0.0039801
-1,224,0.0039801
-1,225,0.0039801
-1,226,0.0039801
-1,227,0.0039801
-1,228,0.0039801
-1,229,0.0039801
-1,230,0.0039801
-1,231,0.0039801
-1,232,0.0039801
-1,233,0.0039801
-1,234,0.0039801
-1,235,0.0039801
-1,236,0.0039801
-1,237,0.0039801
-1,238,0.0039801
-1,239,0.0039801
-1,240,0.0039801
-1,241,0.0039801
-1,242,0.0039801
-1,243,0.0039801
-1,244,0.0039801
-1,245,0.0039801
-1,246,0.0039801
-1,247,0.0039801
-1,248,0.0039801
-1,249,0.0039801
-1,250,0.0039801
-1,251,0.0039801
-1,252,0.0039801
-1,253,0.0039801
-1,254,0.0039801
-1,255,0.0039801
