0,0,0,-nan,-nan,-nan,-nan,-nan,-nan,-nan,-nan,-nan,-nan,-nan,-nan
0,1,60,713979.183333,249412.733333,1386552.000000,74319.333333,9121.933333,692777.750000,12956.159950,4217.862736,71771.157422,1341.686385,677.282508,35883.389124
1,0,0,-nan,-nan,-nan,-nan,-nan,-nan,-nan,-nan,-nan,-nan,-nan,-nan
1,1,59,713448.593220,249299.169492,1393772.728814,74340.440678,9110.745763,696355.220339,11527.853970,3483.168289,98529.658812,1287.967500,777.560932,49203.524778
2,0,0,-nan,-nan,-nan,-nan,-nan,-nan,-nan,-nan,-nan,-nan,-nan,-nan
2,1,59,713820.983051,249281.813559,1405260.254237,74462.338983,9292.322034,702129.508475,10419.848822,2896.891270,100343.490724,1324.578777,828.866521,50082.843003
3,0,0,-nan,-nan,-nan,-nan,-nan,-nan,-nan,-nan,-nan,-nan,-nan,-nan
3,1,59,712899.796610,249086.457627,1376510.864407,74275.677966,9154.372881,687771.847458,9113.420177,2813.063553,73764.438065,1100.324828,657.390705,36854.568567
4,0,0,-nan,-nan,-nan,-nan,-nan,-nan,-nan,-nan,-nan,-nan,-nan,-nan
4,1,59,712505.440678,248976.711864,1379117.796610,74308.576271,9055.542373,689062.796610,10599.285056,2764.516760,82841.578030,1232.424456,821.148314,41411.816837
5,0,0,-nan,-nan,-nan,-nan,-nan,-nan,-nan,-nan,-nan,-nan,-nan,-nan
5,1,59,713335.610169,249261.254237,1404838.050847,74447.627119,9270.525424,701894.762712,10696.036686,3064.021593,64602.090055,1377.184107,722.920052,32282.831839
6,0,0,-nan,-nan,-nan,-nan,-nan,-nan,-nan,-nan,-nan,-nan,-nan,-nan
6,1,59,710622.033898,248722.508475,1379423.694915,74096.898305,9109.186441,689235.576271,10318.235805,3054.781239,94818.747467,1190.780953,748.945891,47391.421554
7,0,0,-nan,-nan,-nan,-nan,-nan,-nan,-nan,-nan,-nan,-nan,-nan,-nan
7,1,59,714187.440678,249528.966102,1405930.355932,74629.084746,9391.067797,702439.084746,10696.694692,2877.017105,87158.105775,1405.791825,792.719111,43560.101449
8,0,0,-nan,-nan,-nan,-nan,-nan,-nan,-nan,-nan,-nan,-nan,-nan,-nan
8,1,59,713417.271186,249224.949153,1408014.084746,74429.000000,9255.559322,703483.525424,10318.732204,2982.964101,95825.307597,1270.370011,680.527992,47864.214406
9,0,0,-nan,-nan,-nan,-nan,-nan,-nan,-nan,-nan,-nan,-nan,-nan,-nan
9,1,59,711902.576271,248936.627119,1393141.220339,74146.457627,9159.711864,696004.762712,8804.836637,2930.607595,80111.162606,926.184872,709.604212,39937.741752
10,0,0,-nan,-nan,-nan,-nan,-nan,-nan,-nan,-nan,-nan,-nan,-nan,-nan
10,1,59,712505.372881,249048.288136,1386001.118644,74293.677966,9304.457627,692480.254237,11316.584521,3149.074591,72132.225888,1368.493932,675.075823,36061.248272
11,0,0,-nan,-nan,-nan,-nan,-nan,-nan,-nan,-nan,-nan,-nan,-nan,-nan
11,1,59,714503.186441,249396.525424,1414472.881356,74528.186441,9299.457627,706693.694915,10777.140532,2987.248268,87736.351088,1351.878611,794.809951,43801.470636
12,0,0,-nan,-nan,-nan,-nan,-nan,-nan,-nan,-nan,-nan,-nan,-nan,-nan
12,1,59,713158.372881,249091.016949,1403201.864407,74273.898305,9312.186441,701118.813559,9289.014056,2857.899469,82529.640912,1192.276027,751.304323,41255.847841
13,0,0,-nan,-nan,-nan,-nan,-nan,-nan,-nan,-nan,-nan,-nan,-nan,-nan
13,1,60,712638.566667,248920.333333,1386723.850000,74272.683333,9223.083333,692878.316667,9274.116016,2666.128327,76859.928076,1224.868680,825.440676,38442.385564
14,0,0,-nan,-nan,-nan,-nan,-nan,-nan,-nan,-nan,-nan,-nan,-nan,-nan
14,1,60,713399.133333,249211.833333,1389262.333333,74389.033333,9119.566667,694127.283333,10006.595761,2872.089304,75197.673948,1145.845132,716.122158,37549.424264
15,0,0,-nan,-nan,-nan,-nan,-nan,-nan,-nan,-nan,-nan,-nan,-nan,-nan
15,1,60,714341.366667,249194.883333,1397059.833333,74408.266667,9187.100000,698074.016667,11473.701430,3247.117928,90911.663417,1438.258830,721.807100,45384.927057
16,0,0,-nan,-nan,-nan,-nan,-nan,-nan,-nan,-nan,-nan,-nan,-nan,-nan
16,1,60,713966.616667,249394.616667,1394929.250000,74438.666667,9197.500000,696986.533333,10018.948438,3085.069773,81532.575398,1249.096135,724.473867,40793.354710
17,0,0,-nan,-nan,-nan,-nan,-nan,-nan,-nan,-nan,-nan,-nan,-nan,-nan
17,1,60,711847.633333,248757.900000,1390023.066667,74148.116667,9132.750000,694571.000000,8664.333550,2557.160800,75173.425086,1028.354237,783.845172,37541.455729
18,0,0,-nan,-nan,-nan,-nan,-nan,-nan,-nan,-nan,-nan,-nan,-nan,-nan
18,1,60,712142.250000,248863.966667,1382777.533333,74148.133333,9112.066667,690925.200000,10343.690941,3193.348331,77654.871634,1201.768412,721.632129,38819.915279
19,0,0,-nan,-nan,-nan,-nan,-nan,-nan,-nan,-nan,-nan,-nan,-nan,-nan
19,1,60,712796.316667,248959.116667,1371925.566667,74277.666667,9138.116667,685463.433333,9418.196536,2743.200686,72815.463819,1185.771601,646.819606,36346.765177
20,0,0,-nan,-nan,-nan,-nan,-nan,-nan,-nan,-nan,-nan,-nan,-nan,-nan
20,1,60,713858.883333,249402.866667,1377428.666667,74422.416667,9189.066667,688230.000000,9880.586607,3013.297250,71371.906113,1223.971123,677.305295,35637.826548
21,0,0,-nan,-nan,-nan,-nan,-nan,-nan,-nan,-nan,-nan,-nan,-nan,-nan
21,1,60,713007.283333,249033.433333,1389845.666667,74318.783333,9178.133333,694480.933333,10022.531686,2984.172372,81662.546349,1306.759237,911.965377,40832.954218
22,0,0,-nan,-nan,-nan,-nan,-nan,-nan,-nan,-nan,-nan,-nan,-nan,-nan
22,1,60,712468.366667,249024.800000,1391084.283333,74213.016667,9163.783333,695026.600000,8383.953554,2713.339608,105968.597319,1003.018037,779.816284,52896.095056
23,0,0,-nan,-nan,-nan,-nan,-nan,-nan,-nan,-nan,-nan,-nan,-nan,-nan
23,1,60,713491.650000,249124.483333,1390358.750000,74390.683333,9271.033333,694659.700000,9176.387630,2815.259363,97756.896914,1234.705059,778.685195,48834.297845
24,0,0,-nan,-nan,-nan,-nan,-nan,-nan,-nan,-nan,-nan,-nan,-nan,-nan
24,1,60,713494.300000,249131.566667,1412898.816667,74411.666667,9264.883333,705966.966667,10124.833021,2790.951244,102927.627171,1325.080635,859.159184,51408.528070
25,0,0,-nan,-nan,-nan,-nan,-nan,-nan,-nan,-nan,-nan,-nan,-nan,-nan
25,1,60,713539.116667,249303.633333,1404163.216667,74443.216667,9191.616667,701587.900000,11072.179010,3186.882316,86311.492705,1417.457396,806.865088,43145.710093
26,0,0,-nan,-nan,-nan,-nan,-nan,-nan,-nan,-nan,-nan,-nan,-nan,-nan
26,1,60,711619.666667,248884.133333,1377203.950000,74199.216667,9089.000000,688109.366667,8903.236649,2700.427031,82401.696528,1051.518063,774.595701,41157.838413
27,0,0,-nan,-nan,-nan,-nan,-nan,-nan,-nan,-nan,-nan,-nan,-nan,-nan
27,1,60,711225.516667,248790.083333,1389495.316667,74157.566667,9137.650000,694271.016667,8407.919094,2594.428873,88176.964100,1058.068576,724.666379,44117.411803
28,0,0,-nan,-nan,-nan,-nan,-nan,-nan,-nan,-nan,-nan,-nan,-nan,-nan
28,1,60,714155.283333,249436.100000,1390866.416667,74592.116667,9231.016667,694949.000000,10688.413521,2870.895033,93465.293631,1386.431319,812.576242,46694.236418
29,0,0,-nan,-nan,-nan,-nan,-nan,-nan,-nan,-nan,-nan,-nan,-nan,-nan
29,1,60,712793.500000,249039.650000,1389728.183333,74308.450000,9139.300000,694354.983333,9364.155521,2655.972300,85772.589532,1197.251428,789.633529,42783.018947
30,0,0,-nan,-nan,-nan,-nan,-nan,-nan,-nan,-nan,-nan,-nan,-nan,-nan
30,1,60,714485.133333,249601.650000,1387151.950000,74610.733333,9217.333333,693042.616667,10524.816086,3123.342093,79742.521737,1347.163166,774.074666,39883.935124
31,0,0,-nan,-nan,-nan,-nan,-nan,-nan,-nan,-nan,-nan,-nan,-nan,-nan
31,1,162,711150.543210,248907.907407,1377464.493827,74243.870370,9189.962963,688221.858025,8422.626553,2309.626160,74042.998646,987.951179,742.206852,37011.364686
