0,0,161,642509.099379,219808.086957,1240443.223602,66214.223602,7620.813665,620211.869565,11430.511748,3589.495213,58369.281312,1278.261256,576.132524,29192.589106
0,1,1,760437.000000,265581.000000,1349490.000000,78403.000000,8890.000000,674780.000000,0.000000,0.000000,0.000000,0.000000,0.000000,0.000000
1,0,160,642144.000000,219700.506250,1228694.931250,66156.193750,7519.268750,614335.737500,10597.359413,3278.066652,58269.845692,1224.141436,577.783034,29116.724188
1,1,1,760100.000000,265564.000000,1432101.000000,78457.000000,8822.000000,716134.000000,0.000000,0.000000,0.000000,0.000000,0.000000,0.000000
2,0,161,641687.198758,219620.776398,1242184.621118,66188.043478,7638.664596,621063.720497,9564.671110,2790.061014,71677.093140,1146.660988,646.006912,35762.570852
2,1,1,757183.000000,265526.000000,1584182.000000,78455.000000,9838.000000,791669.000000,0.000000,0.000000,0.000000,0.000000,0.000000,0.000000
3,0,161,643648.316770,219977.782609,1248448.496894,66449.708075,7659.167702,624206.652174,10483.114009,2945.375950,70906.901745,1379.357131,633.442161,35421.446998
3,1,1,759141.000000,265304.000000,1321125.000000,78321.000000,8710.000000,660633.000000,0.000000,0.000000,0.000000,0.000000,0.000000,0.000000
4,0,161,642256.975155,219685.000000,1235953.757764,66215.751553,7576.285714,617960.000000,9619.962843,2834.703887,68137.097639,1165.578016,601.538374,34061.645293
4,1,1,761856.000000,265583.000000,1347627.000000,78400.000000,8723.000000,673888.000000,0.000000,0.000000,0.000000,0.000000,0.000000,0.000000
5,0,161,644535.198758,220317.521739,1242126.534161,66558.180124,7672.844720,621055.291925,12488.436809,3622.803986,69130.739404,1549.436691,621.781318,34540.911046
5,1,1,759496.000000,265814.000000,1555399.000000,78544.000000,9670.000000,777728.000000,0.000000,0.000000,0.000000,0.000000,0.000000,0.000000
6,0,161,642296.217391,219689.658385,1230425.826087,66199.378882,7581.291925,615222.608696,11006.882243,3401.551069,63279.707431,1319.490947,589.455035,31605.480144
6,1,1,758189.000000,266137.000000,1376795.000000,78618.000000,7986.000000,688434.000000,0.000000,0.000000,0.000000,0.000000,0.000000,0.000000
7,0,245,642013.942857,219829.195918,1232518.734694,66291.457143,7595.400000,616262.906122,9814.541229,2806.686150,63524.443253,1193.847720,596.962040,31761.637571
7,1,579,712445.003454,249000.804836,1425480.492228,74363.072539,9400.533679,712703.048359,9683.913574,2849.550988,90969.471661,1220.139234,716.951347,45476.325101
