0,0,13,648788.230769,222432.923077,1311754.692308,66880.923077,7828.000000,655874.538462,18369.512238,6498.025871,78464.955714,1765.601552,489.597323,39263.936167
0,1,3,727565.000000,254602.666667,1442852.333333,75614.333333,9162.000000,721415.666667,24677.086632,8421.095350,15897.039731,2181.191163,432.354793,7988.476047
1,0,12,648768.583333,221819.500000,1284649.500000,67012.000000,7915.000000,642297.416667,15809.701180,5057.348770,66796.926136,1735.831405,554.099871,33369.396395
1,1,2,722064.000000,251145.500000,1399996.500000,75732.000000,9722.500000,699975.500000,9465.000000,3052.500000,35510.500000,1670.000000,363.500000,17764.500000
2,0,12,643228.666667,220328.750000,1272560.916667,66573.083333,7935.166667,636285.000000,6782.572893,1560.099095,68894.090146,1033.998264,732.080919,34441.027702
2,1,2,710028.000000,249343.000000,1371420.000000,74282.000000,9256.000000,685650.500000,655.000000,34.000000,72692.000000,259.000000,21.000000,36346.500000
3,0,12,641171.916667,219609.500000,1241992.000000,66179.083333,7720.916667,620990.833333,7205.998444,1411.032217,60229.211119,1093.988304,646.230539,30126.359714
3,1,2,712380.000000,248937.000000,1415872.000000,74182.500000,10028.000000,707954.500000,14.000000,569.000000,15050.000000,21.500000,307.000000,7471.500000
4,0,12,638881.916667,219264.500000,1258369.000000,65935.000000,7647.583333,629180.166667,3700.709559,764.176409,87409.818775,425.334182,708.718969,43712.294140
4,1,3,709063.333333,248217.666667,1330451.333333,73952.666667,9026.333333,665232.000000,1479.390490,603.642462,76621.349863,36.745370,222.561352,38306.436674
5,0,12,642023.416667,220236.750000,1271106.250000,66380.333333,7670.500000,635563.083333,5234.076542,944.494408,54244.602635,560.298631,664.751395,27130.532374
5,1,3,716476.666667,250174.333333,1413807.666667,75239.666667,9836.666667,706932.333333,10060.378003,2020.177605,76948.736790,1610.262366,765.935739,38461.848710
6,0,12,643739.583333,219909.416667,1270036.833333,66341.416667,7783.666667,635042.583333,7156.894490,1641.355814,95360.620646,1109.291475,763.267028,47678.759262
6,1,3,720798.666667,251564.000000,1427379.666667,75801.666667,10085.666667,713657.000000,10878.113082,2917.619920,34360.462718,1468.376957,318.066380,17231.248378
7,0,12,643807.500000,220001.916667,1247104.250000,66380.500000,7660.083333,623492.500000,6554.412782,1475.888967,65869.795631,968.474100,651.268437,32963.631532
7,1,3,718714.666667,250824.000000,1406006.000000,75545.333333,9672.333333,702973.333333,8889.988989,2675.558384,66888.470342,1379.667673,642.633298,33407.897533
8,0,12,644316.500000,220110.250000,1273676.500000,66559.000000,7691.666667,636843.166667,9794.832511,1681.677690,69505.320980,1221.296920,555.599276,34749.265241
8,1,3,713809.000000,250209.333333,1377183.000000,74876.333333,9696.666667,688578.333333,2048.094887,80.192823,52061.424497,456.464919,608.961046,26026.027041
9,0,12,640805.500000,219661.500000,1288299.916667,66154.916667,7658.083333,644141.500000,3080.244106,937.055806,60856.484943,500.608539,508.637634,30393.523527
9,1,3,716388.333333,250435.000000,1390830.000000,75416.333333,9311.000000,695383.000000,10895.037596,2100.516127,80499.862397,1551.185640,661.045132,40258.907842
10,0,12,642617.000000,219894.000000,1282218.583333,66325.166667,7824.416667,641056.833333,6943.212309,1781.960578,57969.141572,984.830344,730.542317,28879.819493
10,1,3,713179.000000,249361.666667,1402151.666667,74478.666667,9356.000000,700800.000000,7350.251742,1826.714598,70017.299645,448.661218,880.218533,34822.165393
11,0,12,644308.833333,220590.416667,1266093.500000,66755.250000,7675.416667,633010.666667,6599.501216,1574.517940,62256.158906,1193.414857,700.408864,31108.712194
11,1,3,719129.000000,250166.000000,1390007.666667,75251.000000,9551.000000,694991.666667,14378.946160,3100.059462,31160.478487,1572.753212,451.803054,15626.016795
12,0,12,644111.083333,220314.000000,1269849.166667,66639.666667,7601.500000,634850.416667,8679.978595,1606.976820,50309.336095,1185.021753,505.629723,25136.009467
12,1,3,712512.000000,249196.333333,1341314.666667,74409.666667,9299.333333,670633.000000,4745.161184,473.361267,60062.669806,267.402734,355.567465,30090.028658
13,0,12,644767.750000,220368.750000,1267207.333333,66710.250000,7637.666667,633561.000000,8830.154511,2017.245693,86646.623529,1248.166397,675.857521,43357.149445
13,1,3,712529.666667,249526.333333,1375987.666667,74564.333333,8874.333333,688022.333333,6571.563859,1497.186324,61752.445211,634.756821,135.946885,30837.073535
14,0,12,641199.666667,219611.750000,1274191.750000,66152.250000,7883.166667,637119.000000,2599.548561,659.900766,91574.858665,388.146262,594.649593,45802.221469
14,1,3,713609.333333,249294.000000,1506249.333333,74494.666667,9886.666667,753112.666667,1634.213436,1048.414358,41014.211897,416.654400,551.053133,20485.147161
15,0,12,643124.166667,219990.250000,1257763.250000,66423.333333,7755.833333,628903.250000,5993.143274,1439.520008,41183.215876,1050.446043,785.281461,20581.587383
15,1,3,718921.000000,250727.666667,1355561.000000,75524.333333,9230.333333,677746.333333,6622.657926,1816.364929,24374.189258,1554.240293,891.082238,12094.159288
16,0,12,647929.166667,220962.583333,1285749.166667,67152.666667,7826.000000,642850.166667,9640.029727,1902.080372,80708.813143,1504.871331,525.068250,40408.071535
16,1,3,711239.333333,249243.000000,1371128.666667,74520.333333,9601.666667,685560.333333,4961.847125,984.524589,110910.907165,405.702956,340.217904,55452.685552
17,0,12,641748.333333,219766.000000,1246571.583333,66312.500000,7619.750000,623282.666667,6860.801026,1412.800587,77827.996234,915.290255,416.434694,38936.906685
17,1,3,715136.000000,249136.666667,1494423.666667,74415.000000,10112.666667,746975.666667,2606.395595,1462.817905,48095.781945,377.511148,306.868412,23853.930107
18,0,12,641752.166667,219881.666667,1265151.166667,66357.250000,7600.083333,632589.500000,7286.729717,1563.359968,60491.019293,956.791611,429.056029,30281.874583
18,1,3,712257.666667,248922.000000,1465160.666667,74332.666667,10093.333333,732464.000000,2249.149370,626.854050,33959.968221,89.077993,181.769696,16838.551561
19,0,12,642320.666667,219812.666667,1282196.833333,66321.916667,7608.666667,641087.333333,5528.153600,1413.334788,96857.331316,991.238994,714.985703,48371.816764
19,1,3,711986.333333,248854.666667,1353238.000000,74232.000000,9761.333333,676641.000000,3301.681625,503.714425,28457.651847,128.189963,580.959169,14282.025720
20,0,12,640912.000000,219760.416667,1257868.166667,66192.916667,7641.000000,628911.750000,4460.101755,993.147392,40263.910459,385.151801,704.175049,20122.535336
20,1,3,711256.666667,248278.000000,1406905.666667,74060.666667,9423.000000,703344.000000,1442.326901,380.807038,91150.919784,108.595068,259.847391,45749.346975
21,0,12,649307.250000,221393.833333,1277950.166667,67434.250000,7874.916667,638933.166667,10341.495460,2156.652570,96881.573694,1546.291053,565.801417,48452.806224
21,1,3,715436.666667,249543.333333,1368009.666667,74586.333333,9147.666667,683929.000000,2376.478113,834.512765,46801.706168,597.892038,499.955554,23472.359191
22,0,12,640380.333333,219415.250000,1251853.833333,66030.500000,7673.083333,625904.666667,2726.593367,522.733221,49375.945422,306.910003,529.891256,24668.170552
22,1,3,717663.000000,249833.666667,1385404.666667,75093.333333,9142.666667,692603.333333,11301.333137,2389.342076,55577.041173,1706.293514,811.533665,27701.038011
23,0,12,642918.750000,220062.000000,1291888.416667,66436.500000,7729.666667,645826.416667,7177.589476,1589.263351,76411.511445,893.131709,393.697078,38174.757501
23,1,3,713250.000000,249118.333333,1426937.666667,74328.000000,9658.333333,713473.000000,2384.174630,494.306473,26346.315838,34.418987,375.039850,13148.179190
24,0,12,641545.666667,219996.500000,1272817.250000,66338.333333,7577.916667,636409.583333,4495.133690,1091.307282,64088.857137,493.653443,474.414281,32023.033597
24,1,3,713436.333333,249094.333333,1419875.666667,74346.000000,9118.666667,709859.000000,3828.121413,1184.801906,124372.292564,731.746313,713.961873,62070.998483
25,0,12,643480.416667,220091.250000,1285179.333333,66555.833333,7806.416667,642529.000000,6916.349163,1839.004311,71324.218961,1305.331939,873.200670,35621.278161
25,1,3,713901.000000,249498.333333,1408387.333333,74442.333333,9522.000000,704178.666667,1531.334277,1163.699942,75106.885909,335.082411,332.917407,37442.282982
26,0,12,649026.166667,221040.500000,1308219.083333,67194.583333,8325.916667,654068.250000,10495.053937,2171.966640,79573.789350,1504.888892,749.540910,39823.958796
26,1,3,717300.000000,250208.000000,1436722.000000,75202.666667,9923.333333,718298.000000,9008.503094,1716.276396,29721.615165,1579.890784,729.674052,14780.242420
27,0,12,643369.500000,219915.166667,1249502.250000,66359.333333,7831.833333,624764.416667,6162.654359,1384.155268,43069.004282,882.613764,594.770801,21559.288912
27,1,3,711166.000000,248743.333333,1375138.666667,74180.333333,8513.333333,687607.000000,2895.768062,1117.522955,30662.891952,288.474532,407.804964,15352.270538
28,0,12,641101.083333,219537.750000,1250806.166667,66079.000000,7746.416667,625392.916667,3487.411587,644.730063,91704.789330,307.058626,634.333306,45813.390451
28,1,3,714169.000000,250159.333333,1429540.333333,74785.666667,9098.000000,714664.333333,1698.923385,1024.878638,66897.410265,430.782492,558.086612,33495.278238
29,0,12,641491.833333,219880.750000,1286172.000000,66271.666667,7772.000000,643076.166667,2846.953396,1156.935689,109921.539025,576.867451,503.855799,54982.657332
29,1,3,711308.666667,248735.000000,1450742.333333,74168.333333,9653.333333,725336.666667,571.714575,125.134594,120405.607871,200.586363,728.465205,60274.356030
30,0,12,644899.166667,220338.166667,1268975.083333,66669.333333,7957.083333,634418.083333,8590.090520,1573.461939,94278.064169,1179.656965,665.416468,47007.344537
30,1,3,710365.666667,248591.333333,1431438.666667,74072.333333,9138.666667,715729.333333,3571.571487,842.703718,53905.130284,325.226417,296.338020,27021.255095
31,0,12,647035.583333,221049.916667,1288321.333333,66879.250000,7947.166667,644072.416667,9861.691771,2770.718392,68782.428299,1320.242284,678.011164,34443.009817
31,1,3,710862.333333,248845.000000,1466298.000000,74138.333333,9267.333333,733135.000000,6049.069478,517.347723,28635.947060,307.228833,1022.264262,14371.674525
32,0,12,641763.500000,219666.916667,1261690.000000,66269.166667,7600.500000,630860.750000,5657.186985,1196.250145,90889.036212,955.823801,733.936475,45462.035017
32,1,3,711180.000000,248744.333333,1447657.333333,74120.666667,9652.666667,723696.000000,4252.705570,832.756600,96067.248961,155.637042,190.246040,48089.241375
33,0,12,642331.500000,219901.500000,1259878.583333,66366.000000,7334.916667,629950.500000,6786.730736,1463.775398,37802.886736,965.959281,488.763825,18911.104831
33,1,3,715992.666667,250110.000000,1404099.000000,74771.333333,10123.333333,702104.000000,3694.643901,1295.423740,54264.628387,459.656635,833.240395,27142.786752
34,0,12,643226.333333,220062.666667,1243265.333333,66525.666667,7426.833333,621613.833333,8279.226557,1740.289982,53469.618374,1146.447726,417.762459,26717.406498
34,1,3,717506.666667,250195.333333,1415913.666667,75204.333333,9339.333333,708087.666667,11177.174071,2063.507909,33462.704855,1678.817110,797.939987,16716.786181
35,0,12,642701.333333,220217.916667,1272256.333333,66518.833333,7464.333333,636098.250000,7653.825485,1473.506388,70539.495605,989.089466,435.929722,35277.020885
35,1,3,712494.666667,248826.333333,1380151.333333,74197.000000,9157.666667,690001.000000,2206.229413,1002.134167,82209.231685,396.863537,303.729412,41036.537971
36,0,12,643205.833333,220655.833333,1245507.666667,66551.333333,7408.416667,622765.666667,8902.438363,2934.268700,59454.446979,1222.202475,450.958324,29725.141632
36,1,3,712743.333333,248908.666667,1423427.000000,74286.000000,9818.666667,711661.666667,4006.013175,1162.205470,21142.098871,251.797538,212.441887,10458.992633
37,0,12,643943.750000,220281.250000,1266560.916667,66624.750000,7626.250000,633257.166667,7433.903698,1743.127033,78541.476138,1247.693013,768.852188,39279.203382
37,1,3,713434.666667,250093.333333,1415565.666667,74854.333333,9343.666667,707629.000000,1919.069450,373.732822,68182.254105,176.352551,511.344850,33929.415831
38,0,12,641798.583333,219701.750000,1254849.416667,66288.750000,7434.416667,627436.000000,5622.860711,1393.940226,56417.577548,959.163535,554.188515,28206.614948
38,1,3,712627.000000,249153.333333,1361891.333333,74363.666667,9093.666667,680940.666667,4243.657463,849.485073,45464.597343,298.785691,121.782137,22716.282858
39,0,12,642271.916667,220016.333333,1251193.500000,66374.166667,7575.916667,625625.666667,6700.560032,1358.638187,75594.414268,958.246126,506.863469,37777.982724
39,1,3,710487.666667,248841.000000,1438812.333333,73922.666667,9234.333333,719434.333333,2899.780490,441.509532,118685.354079,497.507342,651.263558,59356.699652
40,0,12,640320.666667,219703.750000,1251570.083333,66141.666667,7449.250000,625792.083333,3435.390039,1005.104234,54437.582339,452.108824,418.768258,27214.712490
40,1,3,711313.000000,249112.333333,1427602.000000,73996.333333,8996.666667,713754.333333,5474.184018,1130.555714,50147.215616,707.496211,472.119571,25002.800714
41,0,12,644732.000000,220327.500000,1250449.333333,66756.500000,7646.000000,625230.250000,8212.620187,1772.598587,39232.024517,1274.338881,682.509463,19560.386466
41,1,3,711280.000000,249103.000000,1453741.333333,73943.000000,9296.333333,726862.333333,4591.605456,976.300500,61557.282382,619.546608,149.535577,30718.983016
42,0,13,643706.076923,220503.307692,1288810.615385,66385.076923,7812.846154,644485.307692,9365.104316,3306.350728,70863.012718,1080.349193,521.747780,35554.404622
42,1,3,710235.666667,249352.333333,1444929.333333,74071.666667,9155.000000,722470.333333,6427.544390,1303.944358,65366.963345,754.374060,298.207981,32655.298604
43,0,13,646987.076923,220827.153846,1260821.000000,67002.538462,7801.230769,630437.538462,8453.269613,1796.263551,40112.510310,1337.297770,650.712054,20021.337900
43,1,3,711219.333333,249513.000000,1390688.333333,74230.333333,9292.333333,695368.333333,4452.427977,928.267562,30931.207761,699.566691,350.584591,15509.679179
44,0,13,645429.307692,220722.076923,1273884.000000,66777.230769,7990.000000,636896.153846,9559.663290,1698.887711,74367.027848,1125.201668,767.979767,37209.146931
44,1,3,723228.333333,251833.666667,1439391.333333,76081.333333,9755.333333,719715.000000,12055.560607,2790.867289,64773.707945,2097.274793,544.304653,32343.216950
45,0,13,640664.615385,219764.538462,1224031.923077,66182.384615,7443.230769,612008.230769,3394.850819,1488.857467,55112.200334,648.650260,640.447218,27545.692030
45,1,3,717587.333333,251926.000000,1474273.333333,74846.666667,9464.000000,737102.666667,13069.755859,4076.470042,111045.814837,1361.662056,704.560856,55372.290726
46,0,13,642522.692308,219830.461538,1238992.230769,66329.461538,7727.000000,619489.923077,6839.474231,1661.621387,61243.505791,1098.236882,638.288336,30641.358715
46,1,3,708937.666667,248885.666667,1433750.666667,73956.333333,8957.000000,716899.333333,1533.271955,427.040461,97491.732769,418.191609,720.111565,48730.340626
47,0,13,641596.846154,219792.461538,1236730.769231,66221.769231,7509.230769,618340.076923,3104.376956,992.648254,52241.711141,364.465289,472.787992,26145.649638
47,1,3,711878.666667,249808.000000,1399900.666667,74351.333333,8962.666667,699993.000000,2702.613838,454.766607,40655.643153,477.602578,184.147284,20339.662550
48,0,13,643620.076923,220182.923077,1242659.307692,66597.230769,7659.307692,621311.769231,9456.359801,2019.520220,58550.950815,1315.356059,338.525851,29242.950057
48,1,3,710749.000000,249458.666667,1392403.666667,74196.333333,8790.000000,696236.000000,4859.013549,807.135814,80549.278210,726.074529,392.790869,40251.936632
49,0,13,640960.461538,219782.230769,1247073.384615,66203.846154,7602.384615,623536.769231,3074.927407,1007.681051,47928.148263,470.383942,554.107534,23955.748490
49,1,3,708070.000000,249198.000000,1422212.333333,74100.000000,9477.333333,711121.666667,3040.043859,721.457321,122533.091850,617.357811,580.866211,61296.883142
50,0,13,647436.076923,221990.153846,1259135.692308,66940.076923,7687.615385,629584.153846,12235.374707,3945.834821,88563.143374,1346.024086,667.329989,44284.852456
50,1,3,709891.000000,249200.333333,1378795.333333,74076.666667,8857.333333,689484.000000,5858.277392,1132.700706,24389.040248,787.443261,424.107167,12227.922991
51,0,13,641767.461538,219967.692308,1252557.384615,66264.692308,7557.923077,626299.076923,3463.839213,989.781979,72881.847082,474.444515,550.061180,36456.110383
51,1,3,708064.333333,248438.666667,1504250.333333,73773.666667,9722.666667,751785.666667,3014.161722,220.200414,105628.101268,386.281705,737.529359,52397.949364
52,0,13,647641.076923,221239.000000,1261659.307692,67272.769231,7759.769231,630828.000000,8461.872983,1830.253072,103622.370979,1400.567256,579.952671,51847.258416
52,1,3,708895.666667,248445.000000,1395702.333333,73756.000000,9050.000000,697870.333333,2593.623763,434.521192,62446.213167,487.668603,348.112051,31199.930986
53,0,13,644352.000000,220351.384615,1267598.230769,66734.692308,7844.615385,633773.307692,7967.726121,2151.296766,39564.882578,1388.490735,476.656874,19803.913760
53,1,3,708105.333333,247979.333333,1379195.666667,73598.000000,9050.333333,689548.666667,2661.136391,424.170039,60745.492175,369.132316,578.029603,30331.909769
54,0,13,642156.000000,220100.846154,1250269.000000,66434.769231,7554.384615,625137.153846,7412.695648,1524.896357,55427.657741,911.785835,585.888088,27772.315673
54,1,3,710229.666667,249946.000000,1437105.666667,74379.333333,9137.333333,718503.666667,3609.170757,744.435804,122753.489353,713.818060,683.247312,61374.673497
55,0,13,642606.769231,219828.000000,1258749.153846,66284.000000,7815.230769,629385.461538,6656.743107,1347.451383,70741.757008,892.262552,680.984147,35374.189414
55,1,3,716065.333333,250323.000000,1464238.666667,74987.000000,9896.333333,732038.000000,16353.794510,2473.792231,53380.240116,1940.846379,816.170053,26627.974626
56,0,13,646264.000000,221027.000000,1308123.769231,66731.923077,8220.461538,654042.846154,8151.567721,2642.480216,99660.120309,1170.840294,484.155826,49838.340297
56,1,3,720899.000000,251780.666667,1484739.333333,74886.333333,9241.000000,742297.666667,10896.048948,4609.357608,164113.432847,1429.447523,1549.360513,81903.864318
57,0,13,644153.846154,220277.000000,1252645.846154,66562.230769,7774.846154,626254.076923,7531.715821,1531.342448,77700.022397,1138.149521,574.036832,38847.654285
57,1,3,713054.333333,249333.666667,1400968.666667,74241.333333,8784.000000,700511.000000,2058.179508,732.736575,65091.030730,394.157611,792.099741,32529.696832
58,0,13,643275.384615,220210.692308,1289781.615385,66484.307692,8013.000000,644893.461538,8093.692183,1747.039403,65800.920205,1121.203363,515.950504,32906.594360
58,1,3,720354.666667,250920.000000,1445018.000000,75341.666667,9291.666667,722538.333333,11083.320692,2467.328245,93503.790971,1822.499078,949.973450,46803.804349
59,0,13,639985.230769,219633.230769,1281655.769231,66020.076923,7633.461538,640807.769231,2918.543529,713.461783,68162.336606,394.977986,448.114445,34066.724950
59,1,3,713286.333333,248749.333333,1365287.666667,74032.000000,9058.333333,682652.333333,2006.398819,380.205500,52493.463532,320.569285,753.094210,26275.637161
60,0,13,645200.230769,220544.384615,1260252.307692,66603.076923,7627.846154,630067.230769,7513.561279,1798.452306,110050.403130,1166.931641,688.962078,54982.369766
60,1,3,712254.333333,248837.000000,1401212.333333,73991.000000,8547.000000,700262.666667,3054.997254,301.265110,49849.305474,173.299356,145.714332,25443.456282
61,0,13,642491.153846,220162.384615,1269618.153846,66184.615385,7494.461538,634797.615385,5959.375391,2217.418823,71771.247186,667.239841,525.695673,35902.122531
61,1,3,720195.000000,251886.000000,1392820.666667,74879.000000,9430.000000,696389.000000,13733.131544,4029.383658,83863.123534,1088.825973,232.950639,41948.992336
62,0,13,646530.000000,221089.076923,1328055.692308,66938.000000,7887.076923,663984.000000,7782.326229,1662.154555,51835.793535,1275.094748,362.997237,25933.468916
62,1,3,720956.000000,251601.666667,1384125.666667,75647.666667,9059.333333,691901.333333,10209.672571,2487.050775,59429.113799,1665.797373,723.366820,29898.540893
63,0,13,641208.538462,219598.307692,1296566.153846,66016.153846,7586.153846,648268.461538,2608.885692,809.175305,79725.632147,431.787848,465.264663,39837.626255
63,1,3,718122.666667,250024.000000,1340465.666667,74988.000000,9405.666667,670158.666667,12249.010037,2670.521422,18232.846483,1826.465439,974.772566,9126.687984
64,0,13,641944.153846,220003.846154,1272863.000000,66211.000000,7831.076923,636421.153846,3764.399121,805.123483,57619.848878,438.949095,409.475924,28827.940896
64,1,3,713179.666667,248679.333333,1362019.333333,73949.666667,9213.333333,681027.666667,1232.051496,484.504099,48385.347206,287.153076,154.026693,24252.610435
65,0,13,646451.769231,220627.692308,1252290.307692,66869.538462,7911.769231,626152.461538,10921.435367,2093.612424,59489.347904,1556.828710,720.151496,29833.246085
65,1,3,713258.333333,249113.333333,1365027.666667,74178.666667,9329.000000,682516.666667,1491.322083,534.251085,70036.346918,307.248361,309.103003,35040.205482
66,0,13,644469.692308,220081.692308,1269663.153846,66417.230769,7899.076923,634823.538462,6622.930265,1520.715995,69202.353317,1033.848907,526.675708,34594.136125
66,1,3,710737.333333,248498.000000,1377615.333333,73901.333333,9334.333333,688783.000000,1238.313997,470.571992,29890.763572,306.670652,350.567476,14966.354689
67,0,13,643973.000000,219892.923077,1281723.846154,66249.461538,7934.307692,640888.538462,7203.203305,1534.743850,84522.496121,991.479362,535.703331,42276.249828
67,1,3,719463.000000,251222.333333,1460577.000000,75516.666667,9459.666667,730068.666667,10108.904721,2042.358495,175154.120119,1352.315627,1365.139635,87389.494915
68,0,13,643779.692308,220111.230769,1297061.076923,66374.000000,7597.076923,648512.769231,6178.843524,1411.463297,81736.808965,888.787506,572.288989,40867.820343
68,1,3,711401.000000,249224.666667,1387372.000000,74212.666667,9378.000000,693492.000000,1090.400844,428.657854,111882.037727,354.951953,865.013680,55686.816196
69,0,13,643706.384615,220078.230769,1279776.923077,66331.000000,7724.307692,639845.307692,7236.691813,1620.416336,99391.829632,1004.119208,560.993951,49708.342151
69,1,3,708466.000000,248886.666667,1379632.666667,74063.333333,9087.000000,689824.000000,1841.870969,487.378247,58133.248458,354.589277,935.521601,29068.058483
70,0,13,644642.538462,220599.230769,1245547.846154,66544.923077,7723.384615,622718.384615,6521.287457,1561.627265,54517.797548,1057.934378,698.573220,27242.434943
70,1,3,711740.666667,249216.000000,1425674.666667,74224.666667,8966.000000,712796.333333,2803.945950,837.187355,60283.039098,493.780878,672.699537,30147.442460
71,0,13,642040.769231,219568.153846,1256755.230769,66140.000000,7675.307692,628338.076923,6040.182450,1534.509886,55764.902542,975.662379,409.551797,27863.485478
71,1,3,713325.333333,249712.000000,1418967.666667,74440.000000,9765.333333,709480.666667,3964.561710,788.123510,62298.336336,231.418812,283.371762,31194.817351
72,0,13,645818.846154,220639.230769,1275001.923077,66790.846154,7917.615385,637518.076923,7835.523544,1789.476466,72932.593373,1425.526993,754.860511,36443.616635
72,1,3,718435.000000,250368.666667,1436749.666667,75193.666667,9893.333333,718392.000000,13454.302212,2662.387692,66670.219365,1902.774524,634.152628,33306.566750
73,0,13,642298.461538,219778.384615,1272649.615385,66207.307692,7729.153846,636278.846154,6258.401942,1270.198382,76430.034698,988.116576,830.139362,38133.982892
73,1,3,717871.666667,250224.333333,1398973.666667,75138.000000,9344.666667,699472.666667,10172.443998,1700.988797,11394.840041,1222.942626,404.181752,5726.310641
74,0,13,646199.692308,220560.153846,1281058.846154,66641.538462,7928.153846,640433.000000,7449.212322,1807.978210,88141.389775,1285.300600,699.778300,43866.533487
74,1,3,710547.333333,248809.333333,1447563.000000,74074.000000,9051.333333,723785.666667,3945.832006,141.765848,24305.166543,208.595302,165.056219,12127.066953
75,0,13,642996.846154,220052.769231,1292788.692308,66325.384615,7536.615385,646435.846154,7040.736247,1224.416731,96162.273370,958.853686,657.249577,48110.242778
75,1,3,711509.333333,248912.666667,1421449.666667,74135.333333,9778.333333,710474.000000,3174.557852,249.872412,106718.869139,263.421504,731.144461,53097.725023
76,0,13,644532.384615,220567.769231,1305943.000000,66616.153846,7836.769231,652932.000000,8127.870736,1706.437141,57803.184638,1198.691199,490.206888,28862.382227
76,1,3,711873.000000,249099.333333,1462424.333333,74264.666667,9647.000000,731148.333333,2000.402126,646.872648,62089.134124,416.722396,299.600846,31163.503027
77,0,13,644304.461538,220298.076923,1300175.384615,66492.461538,7900.461538,650093.153846,7794.426822,1780.411338,106011.207741,1198.640231,620.384076,52961.061025
77,1,3,711033.666667,248880.000000,1430456.666667,74133.000000,9361.666667,715126.333333,2822.329574,324.149143,86099.322260,236.889566,982.915504,43094.363447
78,0,13,645787.461538,220682.384615,1290365.384615,66834.461538,7747.000000,645162.153846,7898.859563,1732.241347,71548.791167,1267.428749,583.592587,35782.900568
78,1,3,718408.333333,250756.666667,1408510.666667,75380.333333,9357.666667,704206.333333,10144.418312,2414.733158,27171.384768,1647.077681,337.925370,13551.766043
79,0,13,645426.923077,220908.692308,1306516.769231,66740.000000,7774.230769,653239.230769,10260.016243,3059.725236,44029.343326,1401.026492,461.942246,22018.158734
79,1,3,712695.333333,249319.666667,1374928.333333,74338.000000,9253.666667,687429.333333,4327.647655,1043.221400,51319.052734,635.320916,387.551574,25687.159858
80,0,13,642921.846154,220303.769231,1294615.384615,66475.769231,7818.615385,647252.538462,5148.230239,1361.280910,80539.338489,748.595110,592.661603,40229.880599
80,1,3,710046.333333,249019.666667,1392457.333333,74251.000000,9583.333333,696235.333333,514.816688,845.507474,101722.205876,474.435103,333.652847,50810.268682
81,0,13,645509.230769,220794.923077,1301077.000000,66671.769231,8037.076923,650477.000000,10583.373267,2832.504259,82767.968320,1247.516250,744.419491,41326.740068
81,1,3,719923.000000,252645.666667,1351752.666667,75454.666667,9248.666667,675818.000000,6998.289267,2985.858038,35968.184917,737.212015,429.811070,18085.238843
82,0,13,641841.923077,220103.076923,1276390.307692,66293.307692,7811.076923,638156.615385,4569.565868,1157.153302,56686.251032,589.139971,571.763730,28423.215994
82,1,3,710849.666667,248374.333333,1367183.000000,73947.000000,9108.666667,683602.666667,646.664433,547.124199,10362.899626,335.249161,367.918771,5178.732170
83,0,13,642872.692308,220105.846154,1305460.923077,66386.692308,8007.230769,652710.307692,7425.665993,1696.082447,75887.306021,1102.053425,658.396088,37929.308490
83,1,3,712599.000000,249385.333333,1332517.333333,74314.333333,9195.333333,666271.000000,659.187379,521.143188,30849.861484,315.257919,233.589859,15434.677602
84,0,13,641605.384615,219545.307692,1301088.230769,66114.307692,7959.846154,650512.692308,6049.169638,1195.609557,81008.824956,858.107075,751.330804,40494.839324
84,1,3,711169.666667,248706.000000,1418284.000000,74032.666667,9544.666667,709062.666667,929.871078,221.947441,24127.294350,328.365988,297.485387,12080.116510
85,0,13,640879.076923,219776.615385,1252644.076923,66164.076923,7684.923077,626280.461538,4164.221443,1184.862312,44530.395027,538.996855,542.889061,22249.168830
85,1,3,710950.333333,249083.000000,1453042.333333,74244.000000,9756.333333,726462.333333,2192.100413,1600.081456,38537.640408,440.610939,31.961783,19226.189297
86,0,13,645780.461538,221219.230769,1284602.307692,66889.076923,8039.307692,642294.692308,13493.945227,3670.743588,53924.980316,1584.527130,719.259917,26930.755245
86,1,3,711601.333333,249454.666667,1411166.000000,74346.000000,9630.000000,705584.333333,3623.305152,633.508923,24736.455378,433.235117,405.396103,12339.610592
87,0,13,642895.461538,220133.461538,1316322.615385,66516.692308,8052.615385,658030.923077,8669.113961,2080.394142,98384.152488,1256.277063,491.776925,49202.836862
87,1,3,711226.666667,249408.333333,1382475.333333,74306.333333,9698.000000,691237.666667,1957.876798,853.793235,31944.731275,540.805161,623.994124,15938.317965
88,0,13,641379.153846,219701.615385,1264452.538462,66131.076923,7689.769231,632231.923077,2620.531269,742.118541,62598.587010,444.891942,695.339226,31321.321751
88,1,3,712236.666667,249976.333333,1379272.666667,74578.333333,9526.666667,689534.333333,1677.400038,644.596687,106728.456516,500.397398,900.243794,53369.720006
89,0,13,646665.692308,220704.230769,1280239.615385,66914.153846,7932.846154,640040.846154,9310.987450,2076.328052,82263.405998,1437.061470,912.998091,41080.414689
89,1,3,711683.000000,248525.333333,1376902.000000,73881.333333,9515.000000,688471.000000,1685.106723,195.661840,51063.021904,184.770729,464.835455,25563.030741
90,0,13,644354.769231,220267.076923,1248343.153846,66612.384615,7683.846154,624106.692308,8620.039418,1777.111548,63045.430736,1219.904192,631.661039,31448.645950
90,1,3,712836.666667,249137.000000,1322636.000000,74185.333333,9221.666667,661206.666667,627.957713,352.029355,35053.113338,469.602906,446.602234,17521.146468
91,0,13,642173.692308,219902.230769,1253365.923077,66280.923077,7770.230769,626643.461538,7044.112188,1382.797007,51049.520249,922.423018,591.245641,25544.191086
91,1,3,712539.666667,249324.333333,1428022.333333,74246.666667,9735.666667,713975.333333,4122.467896,982.652985,64704.074124,286.171666,583.187982,32405.809153
92,0,13,645226.615385,220569.076923,1258316.846154,66772.538462,7769.000000,629139.307692,9467.034647,2006.182309,74508.552772,1445.053239,598.404031,37286.027996
92,1,3,712166.333333,249916.333333,1501740.000000,74423.666667,9758.333333,750803.000000,2701.675571,546.348078,45584.358597,265.752182,312.074065,22728.097163
93,0,13,642480.923077,220066.230769,1298761.307692,66334.384615,7632.538462,649407.846154,6080.708808,1542.658552,76388.376439,809.042885,501.976649,38250.154354
93,1,3,712645.333333,248848.000000,1486717.333333,73974.000000,10160.333333,743248.666667,1240.762221,216.753316,107283.260904,115.516233,394.158457,53677.712230
94,0,13,644513.846154,220399.153846,1261183.692308,66624.692308,7652.307692,630473.692308,8539.001156,2100.312169,72042.931510,1306.506403,414.880777,35955.946564
94,1,3,719323.333333,250724.333333,1395199.000000,75155.666667,9854.666667,697475.333333,9005.540862,1743.682757,49571.556145,1279.132605,387.105785,24919.155207
95,0,13,640718.615385,219524.538462,1266625.230769,66067.461538,7694.846154,633288.461538,3267.101316,993.309280,62869.559643,558.540215,586.014550,31411.714646
95,1,3,721474.000000,251356.000000,1403857.666667,75539.666667,9639.333333,701773.333333,7298.857308,1765.008782,70393.066469,1208.198199,880.950371,34936.291440
96,0,13,643610.846154,220455.384615,1265121.461538,66498.692308,7527.461538,632588.000000,6202.261819,1659.824483,82072.636777,1021.406977,455.515872,41089.148858
96,1,3,712976.000000,248762.000000,1488124.333333,73974.666667,9862.666667,744013.666667,2528.285717,289.255366,163521.407091,203.752028,1016.553108,81757.673794
97,0,13,647417.307692,221500.538462,1341342.076923,66842.538462,7788.692308,670624.923077,14644.017573,4982.763778,96961.822185,1665.933862,457.546027,48422.711246
97,1,3,726570.000000,253115.000000,1377347.333333,75854.666667,9561.000000,688463.333333,11637.766567,3753.979844,55188.343578,1241.785363,612.590129,27330.228080
98,0,13,647069.769231,221546.230769,1306426.076923,66827.076923,7942.923077,653161.615385,14460.088531,5019.771235,86354.276224,1614.343804,740.403057,43175.120725
98,1,3,711647.000000,248964.666667,1433473.333333,74082.333333,9592.666667,716741.666667,3079.854217,723.809521,6677.874129,252.481462,410.620939,3388.982771
99,0,13,647760.153846,221657.230769,1298288.461538,66961.153846,7911.461538,649135.538462,13758.316337,4512.894128,71819.152324,1471.653275,550.649213,35883.367166
99,1,3,725130.666667,251725.333333,1533876.333333,76228.333333,10293.000000,766470.333333,9267.483669,1974.704929,111381.680039,1468.561730,439.218245,55088.379442
100,0,13,648991.692308,222335.307692,1290173.076923,67041.692308,7940.923077,645051.615385,22634.347481,7591.990895,51210.452500,2196.411527,583.471107,25596.532633
100,1,3,711314.333333,248755.333333,1379903.333333,74039.000000,9177.000000,689912.666667,1832.032993,80.441835,53479.007771,111.022520,393.067424,26667.868823
101,0,13,651047.538462,222552.384615,1276253.076923,67522.538462,7962.153846,638100.538462,19720.964985,6054.342454,53794.400599,2374.001705,530.931670,26886.769531
101,1,3,710783.333333,249291.333333,1347482.000000,74313.333333,8584.666667,673784.333333,3403.372478,744.775731,51485.701627,469.287640,403.482617,25717.755401
102,0,13,648469.615385,221830.307692,1284347.384615,67142.692308,7681.769231,642061.307692,15345.550112,4948.688721,80999.095753,1712.855977,491.996741,40424.525803
102,1,3,711259.666667,248851.000000,1505324.666667,74168.666667,9843.666667,752813.000000,2507.636647,548.682665,31027.170570,225.879516,389.858379,15676.488914
103,0,13,644788.000000,221067.846154,1268466.153846,66482.769231,7620.846154,634219.000000,13525.868907,4846.699858,46009.531390,1337.394663,462.592003,22951.945619
103,1,3,708561.000000,248115.333333,1422925.666667,73776.666667,9815.666667,711474.333333,1006.976001,262.203907,19819.713794,185.634647,604.287643,9877.074646
104,0,13,646740.307692,221520.153846,1272871.076923,66918.307692,7789.692308,636361.923077,15083.307061,5087.974069,54765.381208,1701.271216,510.642790,27407.467428
104,1,3,709998.333333,248124.666667,1299487.000000,73839.000000,8857.666667,649742.000000,3753.033647,331.789425,28857.067014,182.893412,193.532656,14392.038795
105,0,13,644542.153846,221269.769231,1285626.153846,66596.230769,7881.923077,642769.692308,13241.351115,4754.257819,56581.069332,1261.577776,478.875841,28314.068429
105,1,3,709901.333333,248210.333333,1329071.333333,73821.666667,8462.000000,664557.000000,2209.292094,371.271988,35003.089905,271.814070,257.131614,17503.490242
106,0,13,647286.000000,221869.307692,1288367.384615,66941.384615,7691.076923,644125.615385,16199.465656,5103.755124,58663.966068,1655.755117,713.175937,29306.680256
106,1,3,709224.000000,248299.333333,1381455.333333,73875.000000,8930.333333,690894.333333,2941.674466,672.389933,69097.503213,459.922457,380.443017,34703.947147
107,0,13,650496.846154,222286.769231,1261586.153846,67312.230769,7820.538462,630784.692308,21150.437413,6108.778943,81077.194891,2428.543380,823.713507,40530.847267
107,1,3,720060.666667,250377.000000,1432758.333333,75333.000000,9417.000000,716364.333333,11859.796466,2858.017495,83397.005687,1885.146855,322.022774,41661.848593
108,0,13,645940.076923,221212.615385,1289379.384615,66570.846154,7915.153846,644673.846154,14394.797465,4704.266125,51212.634277,1253.404646,492.846496,25611.305163
108,1,3,709941.333333,248234.333333,1448472.000000,73880.333333,9695.666667,724293.666667,202.791080,181.529306,29770.324116,182.695253,117.774738,14822.194852
109,0,13,650327.846154,222515.923077,1336755.615385,67232.461538,8251.307692,668336.538462,15531.066514,4987.585194,104688.617693,1524.417700,619.090696,52408.875532
109,1,3,715852.000000,249762.000000,1446593.000000,74995.333333,9594.000000,723241.666667,11331.194583,2089.042524,32177.964510,1694.347531,80.812540,16120.395246
110,0,12,648670.083333,222150.916667,1303317.583333,67117.000000,7890.666667,651555.333333,14871.623928,4749.245948,74318.488015,1591.465048,461.924477,37106.313594
110,1,3,710145.666667,248476.000000,1408262.000000,73853.333333,8830.666667,704163.333333,1784.033881,122.852215,23313.638626,128.603611,183.292723,11666.134388
111,0,12,646317.083333,221680.833333,1279382.250000,66854.083333,8101.916667,639692.750000,15823.097403,4864.663603,72641.724170,1476.249440,808.580388,36329.013188
111,1,3,709168.000000,248489.000000,1427424.666667,73949.666667,9575.666667,713757.666667,3229.071177,635.674969,127846.663031,310.694205,1085.642462,63920.481080
112,0,12,647348.333333,221498.916667,1272657.916667,66766.500000,8031.000000,636311.333333,15718.982311,5031.947907,84867.338782,1521.276958,808.881326,42458.269629
112,1,3,719946.666667,252062.333333,1524511.000000,75076.333333,9222.000000,761736.000000,12108.237894,4215.736735,117011.725600,1350.548613,650.626365,58155.392825
113,0,12,649839.333333,222074.166667,1267915.916667,67143.166667,8064.500000,633762.083333,16819.049782,5812.147363,123153.523675,1954.925737,647.798258,61204.972715
113,1,3,709135.000000,248483.666667,1457928.666667,73935.333333,9902.000000,729176.333333,4052.860800,329.421041,117998.950866,206.769329,841.534709,59044.450387
114,0,12,646826.666667,221309.666667,1268395.583333,66708.000000,7913.083333,634146.416667,15371.066393,5103.069066,57950.752773,1528.680422,524.045077,28948.436243
114,1,3,711067.666667,249528.000000,1390062.666667,74354.333333,9573.000000,694970.000000,2692.846367,885.565356,65231.282283,306.050468,226.896452,32600.775983
115,0,12,651388.583333,222804.916667,1335838.500000,67527.833333,8047.500000,667855.750000,16560.266375,5347.708722,73544.498252,1777.201678,421.140812,36814.976731
115,1,3,725116.333333,251563.000000,1401089.000000,76132.000000,9493.666667,700517.666667,9461.603012,2314.836639,46183.806866,1696.704060,699.009458,23104.874267
116,0,12,648293.166667,221906.166667,1290144.500000,67073.500000,8008.416667,644942.000000,15176.713554,4909.630262,86944.596853,1681.026596,717.747455,43391.736823
116,1,3,711814.000000,248593.666667,1430957.000000,73947.000000,9436.666667,715366.666667,2845.569656,1019.463366,97729.175217,367.039507,675.665762,48951.704923
117,0,12,646399.000000,221534.666667,1289724.750000,66780.666667,7958.250000,644850.666667,20228.412366,6163.976792,58448.529386,2191.771366,638.996104,29207.716498
117,1,3,710833.666667,248453.000000,1366003.000000,73978.666667,8932.666667,682960.666667,1814.472253,737.200109,93026.638350,561.108625,92.672662,46501.431622
118,0,12,646851.666667,221578.500000,1278830.833333,66806.416667,7767.916667,639161.666667,13659.685003,4890.777401,81637.467021,1385.687162,918.495460,40521.043974
118,1,3,711556.666667,249017.000000,1375199.666667,74220.333333,8989.666667,687609.333333,2932.085757,1253.097762,81671.100692,591.063072,372.037035,40853.654772
119,0,12,646406.666667,221308.416667,1322427.500000,66677.500000,7936.916667,661172.166667,13487.123701,4811.330766,101185.226693,1493.239292,962.390726,50593.483223
119,1,3,718127.000000,250511.666667,1422425.333333,75318.333333,9499.333333,711152.666667,11304.862317,1807.592567,117863.991517,1581.036018,567.162724,59034.390352
120,0,12,647140.833333,221338.416667,1310080.583333,66693.000000,8075.000000,654964.750000,16544.197557,5480.075174,111253.926825,1720.678064,650.575258,55557.154640
120,1,3,709683.333333,248425.000000,1357237.666667,73955.333333,8872.000000,678615.333333,1506.223165,406.527572,29336.557959,328.878228,527.162846,14659.547886
121,0,12,647796.583333,221798.416667,1314879.166667,66897.333333,8050.666667,657391.833333,15161.564065,4878.399985,70632.519179,1540.022799,686.793435,35286.613540
121,1,3,709935.333333,248595.666667,1396656.000000,73970.666667,8892.000000,698298.333333,1787.182761,618.498361,6174.543600,275.682587,381.439379,3134.625585
122,0,12,647317.166667,221560.083333,1284203.333333,66899.750000,8050.333333,642107.000000,15542.788863,4956.632349,69958.895459,1659.123018,809.345964,34986.835779
122,1,3,712993.666667,249698.000000,1418310.333333,74540.000000,8881.333333,709181.333333,664.195420,702.283419,40754.191902,364.211477,94.256152,20394.848800
123,0,12,646984.250000,221658.416667,1258175.666667,66841.083333,7814.166667,629040.166667,16977.825151,5799.803624,73217.093881,1835.027496,428.965001,36601.626651
123,1,3,709986.333333,248753.333333,1357946.333333,74152.333333,9018.000000,678866.666667,1900.230922,1279.450490,95117.900118,452.888753,398.513070,47465.959103
124,0,12,649057.583333,222430.000000,1298736.833333,67069.750000,8107.833333,649321.250000,22026.729468,6837.133354,68101.886309,2467.900461,526.232970,33940.725241
124,1,3,708678.333333,248262.666667,1428315.666667,73877.000000,9396.000000,714142.333333,1629.190460,327.530491,17462.725681,230.726389,538.609939,8746.397214
125,0,12,648265.250000,221742.583333,1273114.083333,66998.500000,7765.750000,636524.416667,14900.194093,4942.780551,66067.569786,1660.907960,602.646956,33051.087724
125,1,3,709861.333333,249003.333333,1332547.333333,74274.333333,8633.666667,666243.666667,3348.154550,1208.203441,47094.760079,687.624575,515.209558,23534.596397
126,0,12,649728.083333,221893.750000,1286515.583333,67131.500000,7710.500000,643182.083333,15024.488929,4956.168364,71896.596919,1777.209306,752.320355,35918.716561
126,1,3,709522.000000,248256.333333,1354481.666667,73935.000000,8592.000000,677237.000000,1634.308009,298.956333,29097.087888,135.242991,381.497925,14546.876778
127,0,12,645249.000000,220881.250000,1270339.416667,66394.333333,7585.083333,635211.250000,14272.319421,4710.611091,53404.213402,1289.375710,680.462032,26716.022393
127,1,3,727983.000000,255423.333333,1589175.333333,76008.333333,10067.333333,794459.333333,25790.184851,9181.855888,80197.175313,2564.994650,303.585609,40130.965512
