-1,0,0.0630841
-1,1,0.0607477
-1,2,0.0607477
-1,3,0.0607477
-1,4,0.0607477
-1,5,0.0607477
-1,6,0.0607477
-1,7,0.0607477
-1,8,0.0607477
-1,9,0.0607477
-1,10,0.0607477
-1,11,0.0607477
-1,12,0.0607477
-1,13,0.0607477
-1,14,0.0630841
-1,15,0.0841121
0,0,0.000643915
0,1,0.000643915
0,2,0.000643915
0,3,0.000643915
0,4,0.000643915
0,5,0.000643915
0,6,0.000643915
0,7,0.000643915
0,8,0.000643915
0,9,0.000643915
0,10,0.000643915
0,11,0.000643915
0,12,0.000643915
0,13,0.000643915
0,14,0.000643915
0,15,0.990341
