0,0,28,647641.214286,221445.321429,1265606.785714,66815.500000,8009.500000,632777.142857,17165.448151,5250.471836,68548.315937,1844.691815,552.644067,34251.842498
0,1,3,732093.000000,256026.000000,1408346.666667,76134.000000,9440.000000,704153.333333,19478.710276,7438.665785,54725.689460,1825.849939,579.454916,27404.909905
1,0,27,642017.962963,219847.333333,1280533.259259,66238.111111,8125.555556,640208.111111,5651.654471,1250.829266,58127.307937,800.580083,833.576024,29053.621206
1,1,2,725657.500000,252182.000000,1470275.500000,76164.000000,9811.500000,735177.000000,7346.500000,1537.000000,22562.500000,1521.000000,44.500000,11246.000000
2,0,27,643623.222222,220170.555556,1270401.481481,66424.148148,7909.740741,635159.925926,5766.894037,1450.942588,62502.358342,929.532208,641.927225,31217.457615
2,1,2,711638.000000,249075.000000,1428450.500000,74200.000000,9697.500000,714300.500000,1291.000000,543.000000,6383.500000,435.000000,83.500000,3125.500000
3,0,27,647117.148148,221155.555556,1284415.629630,66963.444444,8127.296296,642156.777778,11316.629038,2781.832521,75944.165204,1433.827288,785.153998,37885.904497
3,1,2,711297.000000,249398.000000,1410942.500000,74349.500000,9359.500000,705474.500000,3995.000000,698.000000,32257.500000,451.500000,252.500000,16092.500000
4,0,27,645231.185185,220762.851852,1271348.851852,66696.703704,7969.111111,635629.111111,8031.924404,2127.917669,72362.526843,1096.898281,616.702481,36196.211346
4,1,2,709174.500000,248063.000000,1442437.500000,73911.000000,9490.500000,721212.000000,978.500000,488.000000,18848.500000,424.000000,210.500000,9476.000000
5,0,27,641971.888889,219642.000000,1273470.962963,66176.333333,7840.777778,636699.222222,4525.407666,1097.073008,95153.664880,696.993225,545.087579,47560.665923
5,1,2,716246.500000,250696.500000,1299924.500000,75065.000000,9817.500000,649836.500000,1605.500000,668.500000,37789.500000,557.000000,281.500000,18875.500000
6,0,27,644485.407407,220129.259259,1273888.407407,66476.962963,7933.000000,636942.777778,6649.767193,1429.423909,78554.736065,1078.669602,670.830055,39274.886399
6,1,2,712025.000000,249253.000000,1463509.500000,74370.500000,9431.500000,731670.000000,2486.000000,1055.000000,119903.500000,639.500000,442.500000,59919.000000
7,0,27,645265.814815,220553.703704,1299334.592593,66625.962963,8026.111111,649645.074074,8364.537321,2434.515585,73722.635753,1216.792306,544.277798,36853.961388
7,1,2,711952.000000,249499.000000,1502238.500000,74539.500000,9671.000000,750991.500000,2563.000000,1056.000000,59475.500000,676.500000,52.000000,29761.500000
8,0,27,644776.000000,220351.592593,1310816.592593,66674.518519,8103.703704,655353.296296,9356.332647,1953.746188,104635.640620,1345.298848,996.754764,52211.687667
8,1,2,712953.500000,249495.500000,1348273.000000,74500.000000,9533.000000,674145.000000,4972.500000,1074.500000,62502.000000,653.000000,341.000000,31273.000000
9,0,27,642875.407407,220025.592593,1277511.518519,66376.370370,7886.444444,638751.296296,5511.876183,1276.863265,78106.759648,760.930529,483.677145,39045.335410
9,1,2,712286.500000,249400.500000,1461095.000000,74410.500000,9463.000000,730557.500000,935.500000,217.500000,53577.000000,63.500000,254.000000,26790.500000
10,0,27,641694.185185,219767.925926,1268083.074074,66230.592593,7840.888889,634051.666667,5450.500575,1172.227475,51728.780812,765.867712,529.964662,25831.272097
10,1,2,718542.500000,250779.000000,1306431.000000,75630.000000,9702.000000,653202.000000,12121.500000,2440.000000,70699.000000,1504.000000,35.000000,35416.000000
11,0,27,643959.148148,220503.259259,1282322.740741,66598.888889,7960.444444,641165.666667,5055.182165,1346.908328,77715.387895,924.352920,563.379113,38840.809651
11,1,2,716693.000000,249972.500000,1331469.000000,74694.500000,10221.000000,665634.000000,32.000000,451.500000,31236.000000,441.500000,156.000000,15653.000000
12,0,27,643747.518519,220133.000000,1269371.444444,66538.000000,7864.814815,634661.888889,7428.330536,1674.684802,55777.337851,1226.580281,573.400580,27884.016969
12,1,2,708040.500000,247909.500000,1348440.500000,73829.000000,9014.000000,674336.000000,635.500000,270.500000,78362.500000,147.000000,45.000000,39312.000000
13,0,27,644896.592593,220420.259259,1292403.851852,66641.185185,8145.333333,646204.814815,8786.501382,1925.677901,103471.105112,1261.567251,840.502275,51714.490830
13,1,2,712730.500000,248916.000000,1360821.000000,74165.500000,9607.500000,680385.500000,1870.500000,107.000000,37282.000000,234.500000,213.500000,18741.500000
14,0,27,645718.444444,220550.777778,1275613.481481,66779.592593,8003.666667,637816.333333,7671.850800,1816.641597,75976.662242,1227.350904,807.447831,37977.481454
14,1,2,721586.000000,250795.000000,1399395.500000,75701.000000,9488.000000,699676.000000,9719.000000,2753.000000,10069.500000,1562.000000,391.000000,5053.000000
15,0,27,644835.888889,220351.148148,1288894.000000,66638.925926,7963.925926,644446.962963,8080.423061,1834.489993,64241.066035,1252.922034,586.088536,32125.751998
15,1,2,709517.500000,248689.500000,1380506.000000,74106.000000,8997.000000,690283.000000,994.500000,190.500000,33737.000000,59.000000,108.000000,16913.000000
16,0,27,641483.259259,219641.555556,1266986.407407,66115.481481,7795.740741,633443.407407,3029.781249,792.422181,77718.221244,386.769945,558.923078,38852.014401
16,1,2,712782.500000,248943.500000,1386591.500000,74140.500000,9527.000000,693307.500000,842.500000,646.500000,38895.500000,21.500000,232.000000,19443.500000
17,0,27,643708.296296,220122.296296,1297502.481481,66425.518519,8004.407407,648691.444444,6804.154912,1551.660922,67555.317434,934.878062,601.294361,33750.403594
17,1,2,712616.000000,248988.000000,1450392.000000,74274.000000,9815.000000,725208.500000,2993.000000,1399.000000,27574.000000,382.000000,265.000000,13721.500000
18,0,27,645440.333333,220515.629630,1271376.444444,66705.814815,8001.555556,635665.037037,7548.803108,1761.420053,85303.963126,1222.829961,447.093936,42609.832950
18,1,2,712022.000000,248750.500000,1419012.000000,74022.000000,9465.500000,709519.500000,588.000000,1216.500000,45479.000000,164.000000,536.500000,22711.500000
19,0,27,644041.703704,220357.481481,1277587.888889,66579.703704,8019.148148,638743.074074,7340.955588,1931.216684,71860.198850,1090.698615,636.433739,35906.742195
19,1,3,712658.000000,249623.000000,1318329.333333,74561.666667,9920.666667,659004.333333,2257.612456,1070.486805,29974.329699,225.384610,392.531386,14999.832940
20,0,27,644086.296296,220327.444444,1280543.222222,66468.407407,8053.703704,640232.481481,7347.933838,2087.667320,83886.935664,964.223973,673.861004,41938.195202
20,1,3,709284.666667,248653.666667,1433708.666667,74136.666667,9811.333333,716284.000000,1654.182846,561.228019,89033.339959,21.139747,244.213477,43871.996361
21,0,27,643340.333333,220094.111111,1301539.518519,66415.037037,8089.296296,650730.000000,6407.975274,1398.430770,81888.960308,966.223173,471.499877,40883.125067
21,1,3,712044.666667,249245.000000,1412778.000000,74461.333333,10100.333333,706383.666667,2755.182309,858.427632,50524.959040,435.695102,280.125369,25185.381280
22,0,28,644472.071429,220298.500000,1289736.285714,66636.535714,7998.821429,644833.464286,8529.197902,1881.206423,88841.131104,1260.413296,641.282980,44367.339621
22,1,3,710375.000000,248135.666667,1348289.333333,74004.000000,9272.333333,674139.000000,2071.881753,538.338390,59964.291009,266.271791,419.095322,29970.730466
23,0,28,644480.678571,220293.821429,1300320.107143,66537.785714,8014.571429,650114.464286,7110.851803,1517.039129,61686.399990,1092.642516,635.145339,30767.407642
23,1,3,711416.666667,249233.000000,1371555.666667,74403.666667,9394.333333,685585.333333,3461.847901,919.959782,18143.925564,163.728094,200.476654,9047.211885
24,0,28,645269.607143,220522.392857,1254071.571429,66734.964286,7772.928571,626949.535714,8651.861176,1833.466844,62027.828357,1230.117401,504.500030,30927.119689
24,1,3,711910.666667,249243.000000,1468090.000000,74431.000000,10076.000000,733951.000000,805.022705,727.201485,109360.997975,534.462970,702.185635,54751.907553
25,0,28,642881.821429,219855.071429,1300074.678571,66343.321429,8015.928571,650031.607143,5453.279138,1304.467487,65490.557246,929.479657,559.910256,32763.900658
25,1,3,711511.000000,248761.666667,1335881.333333,74274.000000,9037.333333,667912.666667,963.653811,832.608084,54224.884326,461.339354,500.016889,27219.022482
26,0,28,645064.892857,220552.321429,1288831.250000,66621.571429,7973.500000,644398.250000,9161.950437,2623.572892,90326.898197,1252.700353,524.238529,45193.151746
26,1,3,717643.666667,250782.000000,1405975.666667,75566.000000,9206.666667,702989.333333,9347.238071,2042.062356,17443.461475,1196.528590,442.211362,8790.076273
27,0,28,645435.500000,220573.214286,1267896.821429,66758.785714,8161.321429,633934.392857,8936.499181,1872.218916,84583.498199,1331.402519,862.726287,42298.381286
27,1,3,717772.000000,251661.333333,1337386.333333,75098.666667,8665.666667,668639.000000,13318.398202,4248.155234,19350.898245,1429.615644,333.460976,9714.060874
28,0,28,642273.321429,219980.321429,1262140.535714,66254.392857,7935.535714,631086.750000,5487.164243,1911.216947,84885.252439,655.334448,605.618484,42446.510493
28,1,3,709126.333333,248955.333333,1388843.666667,74364.000000,8994.666667,694465.666667,2120.451891,912.133153,77549.625292,252.453296,399.054160,38777.188864
29,0,28,643191.357143,220106.250000,1263963.607143,66473.571429,8022.107143,631948.000000,6662.919572,1413.912041,68639.618891,918.311122,686.389849,34295.119170
29,1,3,716892.666667,250684.000000,1373648.333333,75515.000000,9571.333333,686861.000000,11754.622930,2439.870488,119285.705895,1782.366030,959.477057,59626.896263
30,0,28,644595.285714,220524.607143,1275241.571429,66665.142857,7911.678571,637573.714286,8072.102416,2193.670153,70123.492104,1249.333671,584.494046,35046.294515
30,1,3,709785.333333,248710.333333,1460784.000000,74287.333333,9588.666667,730329.000000,1983.704671,991.758483,87674.881401,239.947679,641.220884,43963.905400
31,0,28,645119.785714,220661.857143,1294255.250000,66682.571429,8097.321429,647077.750000,8509.224093,2069.684667,89393.716436,1135.985772,619.256700,44671.923665
31,1,3,710162.666667,249011.000000,1394588.333333,74406.000000,9407.000000,697413.333333,3135.468528,657.285833,94824.092066,294.802759,478.121324,47554.598532
32,0,28,644087.535714,220287.750000,1276757.142857,66482.142857,7941.857143,638338.214286,7579.530995,2422.515231,66077.544030,1095.532575,406.397300,33099.000456
32,1,3,707099.666667,248977.666667,1352405.666667,74417.666667,9212.000000,676218.333333,3792.003370,1095.373402,81032.289919,447.282411,297.698953,40492.610168
33,0,28,645231.107143,221164.607143,1287144.821429,66680.714286,7956.107143,643527.071429,11554.870016,4024.585510,60962.003089,1255.690358,474.547931,30497.416620
33,1,3,712028.333333,248187.333333,1350308.333333,74081.000000,9129.000000,675035.333333,2455.455197,394.160994,48795.779779,189.337441,367.227450,24405.418938
34,0,28,647152.821429,221257.285714,1301887.107143,66956.607143,8105.535714,650917.214286,14670.382569,4453.163024,73054.459761,1831.730707,531.323380,36486.764510
34,1,3,719276.000000,250153.333333,1480171.333333,75389.666667,10166.333333,740171.666667,11136.991694,2058.497888,51601.047672,1550.329284,509.915244,25918.569229
35,0,28,646440.642857,221171.821429,1273882.357143,66673.321429,7899.500000,636925.321429,11710.266537,4055.140741,53650.792017,1267.864995,481.666119,26826.731001
35,1,3,714250.666667,249787.333333,1409145.666667,74735.333333,9709.000000,704546.666667,3715.583788,812.317809,27341.937536,344.331559,247.543935,13745.711145
36,0,28,644397.107143,220609.892857,1282416.250000,66534.428571,8146.892857,641163.214286,10622.924064,3420.287846,72611.485328,1182.879852,892.537808,36223.839738
36,1,3,707892.333333,247706.666667,1426291.333333,73606.666667,9448.000000,713019.000000,1353.407880,350.293528,53402.394012,297.978001,743.277875,26523.149185
37,0,28,642661.035714,220352.321429,1250743.535714,66325.892857,7825.000000,625318.892857,10176.033958,3594.496955,80637.994061,1054.239446,584.482188,40279.611583
37,1,3,710341.666667,248991.666667,1404313.333333,74138.333333,9192.333333,702084.666667,2999.804586,1038.785295,110285.907955,647.663150,374.865606,55029.786506
38,0,28,649742.214286,221927.964286,1281452.071429,67208.642857,7999.250000,640710.857143,12961.050697,3748.365963,62203.383529,1439.115383,613.320216,31137.817127
38,1,3,711238.000000,249553.333333,1464410.000000,74250.000000,9906.000000,731967.333333,1097.288780,945.846123,58531.463083,155.835383,322.705232,29346.389560
39,0,28,648907.035714,221479.000000,1292914.750000,67157.571429,8143.928571,646392.857143,14107.475289,4070.402727,67135.203129,1817.357686,756.429627,33538.651753
39,1,3,709820.333333,248740.000000,1378352.333333,73898.000000,9624.333333,689123.666667,5825.807545,339.988235,41394.861133,576.504987,441.966313,20622.830170
40,0,28,646032.035714,220974.321429,1262351.428571,66724.535714,7995.928571,631132.785714,15155.546280,4400.875311,70665.118674,1663.372789,626.015343,35336.296728
40,1,3,709662.000000,249281.333333,1448817.333333,74149.000000,9449.333333,724141.000000,4058.515081,916.426514,30917.969924,673.789779,384.716635,15222.903818
41,0,28,645678.821429,220867.464286,1277874.250000,66668.250000,7994.678571,638900.464286,11609.667643,3454.741602,85077.176850,1355.665694,644.338479,42547.903732
41,1,3,709557.333333,249580.000000,1350634.000000,74221.666667,9402.666667,675319.666667,7883.942387,1272.278533,55298.131542,829.969611,417.358625,27701.150233
42,0,28,645361.428571,220801.607143,1270737.107143,66640.678571,8069.642857,635359.142857,12316.604499,3694.502405,67708.970744,1398.861145,693.294321,33836.017301
42,1,3,708977.000000,248595.333333,1425490.333333,73743.666667,9244.000000,712470.666667,5313.189061,424.864161,152888.658412,499.984222,291.585322,75960.369563
43,0,28,646583.214286,221285.928571,1290447.607143,66815.250000,8014.142857,645148.357143,12974.875935,4192.361412,83170.220600,1448.663020,791.099042,41535.693628
43,1,3,709807.666667,249160.000000,1422958.666667,74050.000000,9277.666667,711302.333333,3742.029069,1024.203430,58242.956268,680.744201,233.401419,29037.360467
44,0,28,645105.107143,220848.035714,1281537.750000,66666.357143,8033.214286,640720.642857,11646.469785,3567.047063,69065.205803,1312.924305,663.382423,34537.040541
44,1,3,710270.000000,249386.666667,1473234.666667,74150.333333,9589.333333,736433.000000,5450.924876,638.086898,145165.470858,695.695974,439.966918,72558.370971
45,0,28,648856.250000,221484.642857,1291616.178571,67133.464286,8189.428571,645751.857143,12677.790416,3623.767093,73698.207880,1579.553293,766.310942,36897.539517
45,1,3,709745.666667,249352.666667,1327239.000000,74174.333333,9168.333333,663592.666667,5384.549770,284.389795,67425.764665,506.902577,84.555045,33678.412832
46,0,28,644735.178571,220852.214286,1284168.357143,66635.178571,8052.000000,641984.964286,11334.720329,3515.792477,77137.039835,1207.844658,691.796110,38467.775294
46,1,3,717885.666667,250166.666667,1428183.666667,75084.333333,9251.000000,714019.666667,13075.024980,2748.507635,34050.654681,1964.346598,701.002615,16990.280228
47,0,28,645170.464286,220794.428571,1286473.642857,66669.642857,8021.750000,643207.678571,11156.979291,3516.438889,99523.432118,1299.569770,634.223013,49788.983832
47,1,3,714620.000000,248917.333333,1377127.000000,74086.000000,9125.333333,688527.333333,3382.340708,654.975487,55643.976428,387.944154,331.713062,27815.657489
48,0,28,647996.142857,221535.785714,1319004.964286,67038.250000,8206.821429,659471.392857,12062.535781,3799.777506,66223.029968,1497.341206,682.054096,33093.589290
48,1,3,716441.333333,249739.333333,1504118.000000,74451.333333,10305.000000,751992.000000,2656.636010,677.989348,164612.807600,290.760306,1112.911796,82388.667392
49,0,28,645357.464286,220890.928571,1273675.750000,66689.642857,8005.535714,636784.321429,11300.054644,3478.601227,73436.450769,1308.058791,613.961113,36713.812789
49,1,3,720503.000000,250776.666667,1428653.666667,75293.333333,9511.000000,714408.666667,6476.044678,1712.423688,20161.530784,1437.814391,98.020406,10004.338270
50,0,28,644944.857143,220846.571429,1258603.928571,66599.428571,7906.464286,629318.642857,11595.949908,3765.284958,66906.955494,1234.678513,539.724896,33420.477539
50,1,3,727655.666667,252040.000000,1433770.000000,76309.000000,9847.333333,716830.666667,8325.407271,1342.160447,27172.073176,1143.306608,836.649004,13543.763493
51,0,28,646266.035714,221281.071429,1289106.607143,66829.714286,8102.535714,644478.321429,15153.852743,4496.243265,110873.333793,1723.983486,665.664356,55334.948106
51,1,3,712093.666667,248420.000000,1411521.333333,73923.000000,9063.666667,705758.333333,1496.364557,561.271770,52608.129773,363.485901,707.134279,26271.573742
52,0,28,645366.178571,221060.750000,1272155.571429,66710.250000,8019.357143,636036.964286,11740.033275,3817.993093,76800.277835,1396.411463,644.561823,38248.358995
52,1,3,714468.000000,249945.000000,1350747.000000,74544.666667,8841.333333,675289.000000,2431.715855,631.794798,39187.322193,162.095308,132.514989,19621.937944
53,0,28,646897.035714,221533.928571,1292818.714286,66897.214286,8073.857143,646399.571429,12159.172142,4078.232074,81591.427500,1461.732274,663.480687,40803.184298
53,1,3,717897.666667,250402.333333,1446285.000000,75143.666667,9587.000000,723151.333333,11056.454113,2069.438786,23865.056142,1410.497391,456.006579,11937.551992
54,0,28,645381.928571,221051.178571,1249914.178571,66736.392857,7770.428571,624918.428571,11766.639671,3516.569910,60513.478195,1312.953169,473.832658,30230.289597
54,1,3,711001.333333,249057.333333,1383101.666667,74130.000000,9107.000000,691437.000000,380.471053,335.203752,31004.771292,252.998024,287.006388,15357.598706
55,0,28,645928.285714,220823.714286,1256810.928571,66655.928571,7948.321429,628418.000000,12612.570028,3629.852642,77087.171430,1440.449308,652.093116,38585.138383
55,1,3,712171.666667,248425.666667,1361424.666667,73889.333333,9323.000000,680731.666667,1855.177320,471.395328,32190.997855,334.570703,610.797839,16114.574239
56,0,28,646483.142857,220858.000000,1260026.321429,66696.214286,7972.321429,630012.000000,11996.920678,3600.058055,46991.567907,1419.226207,705.655372,23506.000986
56,1,3,711923.000000,248879.000000,1464055.333333,74060.666667,9499.333333,731564.333333,2578.204931,695.040047,94858.635654,381.724450,724.291531,47351.148563
57,0,28,645863.071429,220937.964286,1252122.107143,66686.285714,7927.857143,626052.392857,11790.827134,3572.942180,70719.241808,1374.919033,576.605381,35345.255175
57,1,3,713436.666667,249326.333333,1359573.333333,74320.666667,9341.666667,679824.000000,3288.897012,1103.048604,54708.388475,531.132333,704.167278,27317.052952
58,0,28,647171.142857,221057.214286,1276493.035714,66830.500000,7962.750000,638220.285714,15174.912941,4416.196710,117711.447660,1864.468298,918.104010,58838.253263
58,1,3,714502.666667,249562.333333,1347819.666667,74371.000000,8935.666667,673795.333333,1692.839889,671.357001,49591.909974,473.998594,388.652658,24704.055394
59,0,28,648101.285714,221378.928571,1267470.464286,66961.571429,7848.071429,633732.214286,11688.416699,3603.885472,69574.027763,1401.928147,500.111697,34789.645180
59,1,3,709269.333333,249200.333333,1351800.333333,74309.666667,9277.000000,675741.000000,4266.185363,868.696469,46869.356594,464.228631,77.476878,23276.675078
60,0,28,645151.642857,220651.428571,1282651.750000,66554.142857,7832.392857,641344.642857,11692.236515,3551.558063,72664.248777,1369.608930,467.444369,36312.020600
60,1,3,721399.333333,251683.333333,1409317.666667,75664.000000,9739.666667,704654.333333,6220.809022,823.995280,59328.259508,1037.483815,492.031390,29660.028347
61,0,28,644348.928571,220488.571429,1275286.357143,66416.035714,7792.642857,637608.785714,11317.997598,3915.426718,60186.050937,1296.884329,465.930269,30061.578930
61,1,3,713739.333333,250371.000000,1461365.000000,74657.000000,9057.666667,730701.666667,1881.653410,258.628434,38632.677990,144.784898,286.128565,19323.115766
62,0,28,648080.535714,221288.607143,1285689.142857,66985.464286,8087.892857,642825.107143,12444.391658,3635.342147,79235.005458,1500.398149,703.547355,39617.528693
62,1,3,708838.666667,248848.000000,1475799.333333,74011.000000,9166.000000,737900.333333,1830.214802,508.600695,41722.318347,286.622865,108.225074,20842.890240
63,0,89,642444.460674,220134.348315,1258659.258427,66456.606742,7938.269663,629301.707865,7280.026068,2190.341249,63460.235863,902.334271,518.851579,31706.127247
63,1,3,719104.333333,251015.666667,1524636.333333,75372.333333,10278.000000,762233.666667,8688.530575,2040.275526,72416.046354,1673.338845,900.080367,36155.205862
