0,0,116,645987.551724,221201.422414,1273679.318966,66726.146552,7686.344828,636276.043103,13693.818870,4416.736420,80980.075309,1528.870359,615.321840,40412.990376
0,1,122,714416.852459,249793.155738,1391100.204918,74551.852459,9162.221311,694988.975410,9737.457360,2719.504541,81469.243018,1083.077050,612.994444,40724.693559
1,0,116,644966.948276,220837.465517,1274362.646552,66587.560345,7717.370690,636599.146552,12444.879465,3824.408357,70176.890005,1421.975782,633.098137,35041.393782
1,1,121,714869.933884,249962.090909,1408316.462810,74706.421488,9351.867769,703509.685950,9538.599090,2648.986873,83826.735729,1228.487491,713.306524,41838.844731
2,0,116,644400.525862,220645.387931,1265654.301724,66450.586207,7653.525862,632268.086207,12092.944273,3827.511134,70352.272321,1355.923347,593.327401,35132.640621
2,1,122,714710.459016,249946.344262,1404281.409836,74679.852459,9316.713115,701567.713115,9567.762415,2703.201832,79069.260183,1201.811124,693.951851,39511.179959
3,0,116,644553.655172,220756.620690,1277977.887931,66503.836207,7658.732759,638415.551724,11412.506686,3567.668551,79794.252184,1256.447599,595.324301,39807.619633
3,1,122,714424.024590,249856.811475,1400008.377049,74591.663934,9308.139344,699415.729508,9611.569716,2955.824027,85450.107802,1132.959346,680.497206,42709.199313
4,0,116,646183.370690,221126.284483,1274415.974138,66784.060345,7738.198276,636640.310345,12056.754365,3659.600305,65139.556666,1454.756552,617.614560,32527.592028
4,1,122,713792.418033,249670.147541,1396441.680328,74529.377049,9205.377049,697668.778689,8813.667579,2596.415037,91356.691895,1069.270153,638.201524,45645.952170
5,0,116,646210.448276,221194.879310,1273135.405172,66778.198276,7728.681034,635962.534483,12193.977012,3694.704426,64757.383615,1413.329440,626.178002,32317.883086
5,1,122,714627.475410,249896.377049,1403849.245902,74647.188525,9214.557377,701318.663934,9827.400399,2903.727210,83539.202552,1242.423962,688.003587,41681.029089
6,0,116,645283.060345,220897.275862,1276334.379310,66638.862069,7678.853448,637601.008621,14143.543819,4113.995146,62432.361990,1650.058394,569.722910,31177.289232
6,1,122,713945.959016,249751.713115,1401101.573770,74577.901639,9244.245902,699975.106557,9372.469423,2736.718897,72512.892281,1153.198954,591.904267,36236.996442
7,0,167,644103.886228,220887.305389,1274247.652695,66574.538922,7712.281437,636501.167665,10518.523501,3335.604341,58822.281917,1191.026326,540.515156,29362.701111
7,1,122,714522.319672,249975.393443,1399208.360656,74598.344262,9204.663934,699011.909836,10208.145155,3177.645454,75325.203946,1155.717950,582.149460,37631.532347
