0,0,8,686797.000000,237480.000000,1318879.500000,71181.750000,8380.125000,659431.750000,23091.977649,8278.433170,83029.349395,2446.768724,299.463452,41528.824182
0,1,2,733975.000000,257473.500000,1347191.500000,76298.500000,8830.000000,673638.500000,27852.000000,8609.500000,4326.500000,2290.500000,460.000000,2172.500000
1,0,7,665709.857143,230956.714286,1315948.714286,69104.285714,8179.857143,657875.000000,5548.639664,1138.337097,28053.483189,676.130316,356.808644,14091.360666
1,1,1,710261.000000,248943.000000,1406947.000000,74059.000000,8976.000000,703529.000000,0.000000,0.000000,0.000000,0.000000,0.000000,0.000000
2,0,7,666395.714286,230813.000000,1323712.142857,69031.428571,8257.714286,661814.000000,3148.662243,851.823590,97695.251472,446.994681,374.501465,48864.027233
2,1,1,708349.000000,248256.000000,1384235.000000,73801.000000,8705.000000,691808.000000,0.000000,0.000000,0.000000,0.000000,0.000000,0.000000
3,0,7,667406.857143,231433.571429,1379584.714286,69342.428571,8467.285714,689793.571429,3912.122640,1325.410541,86326.260020,505.059786,557.662651,43278.463700
3,1,1,706634.000000,248810.000000,1308741.000000,73862.000000,9678.000000,654318.000000,0.000000,0.000000,0.000000,0.000000,0.000000,0.000000
4,0,7,672639.714286,232529.285714,1323271.285714,70368.428571,8482.000000,661550.857143,11792.412036,2651.925808,110330.301664,1648.853009,711.579129,55047.517148
4,1,1,708767.000000,248250.000000,1365734.000000,73786.000000,8813.000000,682651.000000,0.000000,0.000000,0.000000,0.000000,0.000000,0.000000
5,0,7,667973.285714,231439.000000,1337851.857143,69317.571429,8254.571429,668847.000000,4684.331930,860.963912,64113.032817,355.883551,642.745197,32106.556300
5,1,1,703711.000000,247106.000000,1303013.000000,73742.000000,9360.000000,651542.000000,0.000000,0.000000,0.000000,0.000000,0.000000,0.000000
6,0,7,667145.428571,230784.000000,1310684.714286,69066.285714,8450.714286,655294.000000,5744.560281,827.167283,61136.367145,482.952738,676.202361,30683.946864
6,1,1,707478.000000,247475.000000,1358953.000000,73699.000000,8228.000000,679523.000000,0.000000,0.000000,0.000000,0.000000,0.000000,0.000000
7,0,7,667308.285714,230967.285714,1294256.857143,69103.714286,8456.571429,647071.000000,4069.441966,734.634936,54309.683718,281.120063,558.432975,27159.205017
7,1,1,713473.000000,250875.000000,1413574.000000,75220.000000,9983.000000,706647.000000,0.000000,0.000000,0.000000,0.000000,0.000000,0.000000
8,0,7,667708.285714,231137.714286,1324578.571429,69233.000000,8162.571429,662251.714286,4319.165518,1014.680487,68027.783047,619.306986,502.784776,34078.440423
8,1,1,706237.000000,247626.000000,1658785.000000,73814.000000,10775.000000,829270.000000,0.000000,0.000000,0.000000,0.000000,0.000000,0.000000
9,0,7,677916.428571,233628.571429,1334632.857143,70461.857143,8347.428571,667153.000000,12841.348815,3373.025893,90248.920401,1686.745338,983.205379,45076.741671
9,1,1,709360.000000,248132.000000,1439697.000000,73966.000000,10054.000000,719896.000000,0.000000,0.000000,0.000000,0.000000,0.000000,0.000000
10,0,7,671792.142857,231511.428571,1271914.428571,69536.142857,8412.714286,635889.857143,9057.030835,1543.817981,34089.401218,1227.855788,407.427720,17027.173051
10,1,0,-nan,-nan,-nan,-nan,-nan,-nan,-nan,-nan,-nan,-nan,-nan,-nan
11,0,7,669386.857143,231090.285714,1300033.285714,69171.714286,8399.571429,650120.000000,1666.495933,907.373559,57137.786961,218.715545,365.893762,28707.935230
11,1,0,-nan,-nan,-nan,-nan,-nan,-nan,-nan,-nan,-nan,-nan,-nan,-nan
12,0,7,669028.285714,231065.571429,1311714.428571,69135.142857,8349.428571,655818.285714,3041.450909,890.201559,40297.457789,415.727049,517.857084,20077.107402
12,1,0,-nan,-nan,-nan,-nan,-nan,-nan,-nan,-nan,-nan,-nan,-nan,-nan
13,0,7,673300.714286,232076.571429,1318602.000000,69770.571429,8703.714286,659278.857143,11776.374954,2429.440609,79782.046153,1690.162871,764.468950,39814.996369
13,1,0,-nan,-nan,-nan,-nan,-nan,-nan,-nan,-nan,-nan,-nan,-nan,-nan
14,0,7,671907.142857,232254.571429,1301589.428571,69843.857143,8369.142857,650731.428571,7812.453893,1509.628512,99002.536198,1049.198528,642.410067,49447.001240
14,1,0,-nan,-nan,-nan,-nan,-nan,-nan,-nan,-nan,-nan,-nan,-nan,-nan
15,0,7,674451.142857,232097.142857,1353665.000000,70003.714286,8908.571429,676793.428571,7488.092041,1997.625550,76534.393841,1345.378196,560.365151,38204.283993
15,1,0,-nan,-nan,-nan,-nan,-nan,-nan,-nan,-nan,-nan,-nan,-nan,-nan
16,0,7,671220.142857,231732.857143,1297919.285714,69622.857143,8469.142857,648831.000000,9762.102517,1587.747949,65070.800111,1247.620298,708.878275,32540.313692
16,1,0,-nan,-nan,-nan,-nan,-nan,-nan,-nan,-nan,-nan,-nan,-nan,-nan
17,0,7,669632.857143,230871.000000,1360091.428571,69125.000000,8362.285714,679977.857143,2867.900846,625.050855,35619.705188,266.821503,575.343305,17876.426348
17,1,0,-nan,-nan,-nan,-nan,-nan,-nan,-nan,-nan,-nan,-nan,-nan,-nan
18,0,7,674501.857143,231893.142857,1348733.000000,69731.857143,8448.857143,674356.142857,8515.908599,1543.757978,51988.636453,1012.844288,494.106821,26005.705981
18,1,0,-nan,-nan,-nan,-nan,-nan,-nan,-nan,-nan,-nan,-nan,-nan,-nan
19,0,7,670611.714286,231126.428571,1344753.285714,69465.714286,8219.714286,672344.714286,7569.328385,1610.875614,65544.598404,1128.380725,496.094667,32827.635621
19,1,0,-nan,-nan,-nan,-nan,-nan,-nan,-nan,-nan,-nan,-nan,-nan,-nan
20,0,7,667160.857143,230462.142857,1311014.142857,68962.142857,7859.000000,655438.000000,1920.905771,539.355549,61150.763428,291.304175,532.353266,30543.975642
20,1,0,-nan,-nan,-nan,-nan,-nan,-nan,-nan,-nan,-nan,-nan,-nan,-nan
21,0,7,674594.857143,232324.285714,1264126.000000,70200.714286,8063.000000,632072.285714,9258.517321,1953.904349,47723.172458,1400.311671,574.974037,23892.632210
21,1,0,-nan,-nan,-nan,-nan,-nan,-nan,-nan,-nan,-nan,-nan,-nan,-nan
22,0,7,669724.142857,231478.714286,1293647.714286,69398.428571,8294.428571,646832.571429,3994.644466,835.309133,53784.006592,272.649884,542.927740,26877.408707
22,1,0,-nan,-nan,-nan,-nan,-nan,-nan,-nan,-nan,-nan,-nan,-nan,-nan
23,0,7,669649.714286,231174.714286,1308260.000000,69287.428571,8308.000000,653974.857143,1143.139626,852.772740,123304.025795,531.812227,1150.071799,61404.097326
23,1,0,-nan,-nan,-nan,-nan,-nan,-nan,-nan,-nan,-nan,-nan,-nan,-nan
24,0,7,675414.000000,232175.142857,1306902.142857,70080.285714,8293.714286,653495.142857,10965.396964,1837.899378,86890.448197,1382.129383,723.922986,43469.330250
24,1,0,-nan,-nan,-nan,-nan,-nan,-nan,-nan,-nan,-nan,-nan,-nan,-nan
25,0,7,668694.857143,231047.857143,1352685.428571,69213.857143,8176.571429,676187.000000,1340.892392,1088.662013,90103.703529,436.204221,538.998504,44858.469403
25,1,0,-nan,-nan,-nan,-nan,-nan,-nan,-nan,-nan,-nan,-nan,-nan,-nan
26,0,7,669911.142857,231256.285714,1298413.857143,69265.571429,7954.000000,649160.142857,2463.443898,1088.599193,92115.430925,548.126382,292.030820,45969.851914
26,1,0,-nan,-nan,-nan,-nan,-nan,-nan,-nan,-nan,-nan,-nan,-nan,-nan
27,0,7,668817.714286,230908.142857,1259205.714286,69128.000000,8027.285714,629579.000000,4306.380373,652.528364,56002.126643,419.244218,674.966394,27911.555247
27,1,0,-nan,-nan,-nan,-nan,-nan,-nan,-nan,-nan,-nan,-nan,-nan,-nan
28,0,7,672239.714286,231965.142857,1292684.857143,69800.142857,8387.142857,646364.000000,8217.628555,1947.001756,84227.902624,1172.657474,590.589398,42140.313037
28,1,0,-nan,-nan,-nan,-nan,-nan,-nan,-nan,-nan,-nan,-nan,-nan,-nan
29,0,7,673210.285714,231867.428571,1274170.571429,69972.285714,8023.571429,637068.857143,9969.291073,2169.471552,31926.242935,1527.332288,526.525500,16016.380940
29,1,0,-nan,-nan,-nan,-nan,-nan,-nan,-nan,-nan,-nan,-nan,-nan,-nan
30,0,7,672026.714286,232037.714286,1337234.571429,69844.000000,8377.000000,668657.428571,6709.293634,1471.030223,45329.565249,1178.887611,718.875312,22630.589184
30,1,0,-nan,-nan,-nan,-nan,-nan,-nan,-nan,-nan,-nan,-nan,-nan,-nan
31,0,7,668540.714286,231024.142857,1280982.428571,69210.428571,8196.857143,640455.142857,3320.298468,689.438369,47113.971112,272.167415,441.397595,23539.971219
31,1,0,-nan,-nan,-nan,-nan,-nan,-nan,-nan,-nan,-nan,-nan,-nan,-nan
32,0,7,672755.142857,231854.000000,1308567.571429,69806.857143,8282.571429,654286.142857,8217.738817,1559.177439,63221.588876,1019.588352,844.377684,31577.961684
32,1,0,-nan,-nan,-nan,-nan,-nan,-nan,-nan,-nan,-nan,-nan,-nan,-nan
33,0,7,671791.857143,232042.285714,1337903.571429,69862.714286,8408.142857,669039.142857,6991.414560,1668.841918,97021.273755,1154.250247,680.600455,48603.180529
33,1,0,-nan,-nan,-nan,-nan,-nan,-nan,-nan,-nan,-nan,-nan,-nan,-nan
34,0,7,671916.285714,232631.428571,1318384.000000,69754.428571,8412.428571,659178.142857,7939.820864,3282.490512,77126.400620,964.774120,719.554794,38581.707558
34,1,0,-nan,-nan,-nan,-nan,-nan,-nan,-nan,-nan,-nan,-nan,-nan,-nan
35,0,7,671653.142857,231472.000000,1291789.142857,69594.142857,8247.714286,645849.714286,7786.391452,1735.296269,61437.272855,1123.436110,465.477240,30776.252384
35,1,0,-nan,-nan,-nan,-nan,-nan,-nan,-nan,-nan,-nan,-nan,-nan,-nan
36,0,7,669085.000000,231330.428571,1282805.285714,69357.857143,8009.714286,641349.714286,3041.889169,767.776168,64777.375029,374.839176,559.059086,32349.831140
36,1,0,-nan,-nan,-nan,-nan,-nan,-nan,-nan,-nan,-nan,-nan,-nan,-nan
37,0,7,671608.000000,231814.428571,1317825.285714,69772.428571,8613.000000,658829.285714,8331.058122,1452.663353,116334.402457,1085.296386,565.268078,58122.470552
37,1,0,-nan,-nan,-nan,-nan,-nan,-nan,-nan,-nan,-nan,-nan,-nan,-nan
38,0,7,672347.428571,231613.428571,1333434.428571,69627.142857,8383.428571,666599.000000,8155.781785,1785.122393,71799.637641,1115.664239,672.817500,35771.692472
38,1,0,-nan,-nan,-nan,-nan,-nan,-nan,-nan,-nan,-nan,-nan,-nan,-nan
39,0,7,672181.142857,231517.571429,1292156.142857,69631.857143,8294.571429,645845.571429,6889.909048,1731.229609,76929.114183,1124.294246,644.585771,38544.884511
39,1,0,-nan,-nan,-nan,-nan,-nan,-nan,-nan,-nan,-nan,-nan,-nan,-nan
40,0,7,671592.571429,231471.285714,1327413.714286,69572.428571,8444.571429,663780.000000,7404.705818,1395.042930,52070.834224,1063.607320,725.032582,26126.741648
40,1,0,-nan,-nan,-nan,-nan,-nan,-nan,-nan,-nan,-nan,-nan,-nan,-nan
41,0,7,672468.000000,232404.571429,1332075.142857,69629.000000,8476.000000,665970.428571,11271.453766,4087.635812,79234.961545,1336.618120,976.730991,39459.145823
41,1,0,-nan,-nan,-nan,-nan,-nan,-nan,-nan,-nan,-nan,-nan,-nan,-nan
42,0,7,669560.571429,231172.857143,1338708.857143,69266.285714,8325.428571,669432.285714,1905.764103,460.802849,36887.179377,185.207771,492.951130,18577.592822
42,1,0,-nan,-nan,-nan,-nan,-nan,-nan,-nan,-nan,-nan,-nan,-nan,-nan
43,0,7,673100.428571,232195.428571,1330250.000000,69888.714286,8491.857143,665039.285714,4922.159742,1381.149920,37363.737183,1056.652357,206.585457,18682.807480
43,1,0,-nan,-nan,-nan,-nan,-nan,-nan,-nan,-nan,-nan,-nan,-nan,-nan
44,0,7,672486.000000,232739.571429,1412224.000000,69753.285714,8979.142857,706047.857143,9911.680498,3008.323589,92164.535255,783.967695,727.856624,46099.104523
44,1,0,-nan,-nan,-nan,-nan,-nan,-nan,-nan,-nan,-nan,-nan,-nan,-nan
45,0,7,667803.285714,231343.142857,1306036.857143,69349.857143,8542.428571,652805.857143,3611.540697,1022.547719,84112.377086,427.959754,563.667039,41784.706770
45,1,0,-nan,-nan,-nan,-nan,-nan,-nan,-nan,-nan,-nan,-nan,-nan,-nan
46,0,7,669329.714286,231364.571429,1324006.714286,69342.714286,8455.142857,661990.285714,2580.425530,943.842429,91419.382052,375.468361,509.599963,45813.115651
46,1,0,-nan,-nan,-nan,-nan,-nan,-nan,-nan,-nan,-nan,-nan,-nan,-nan
47,0,7,671849.285714,231804.428571,1271848.285714,69726.714286,8484.000000,635927.000000,7309.152945,1419.749461,55820.258728,1170.742343,606.138362,27916.137090
47,1,0,-nan,-nan,-nan,-nan,-nan,-nan,-nan,-nan,-nan,-nan,-nan,-nan
48,0,7,672157.285714,232196.714286,1313700.571429,69543.571429,8398.000000,656792.857143,8865.132756,3383.407738,77499.705612,984.182163,523.934565,38734.124189
48,1,0,-nan,-nan,-nan,-nan,-nan,-nan,-nan,-nan,-nan,-nan,-nan,-nan
49,0,7,677263.000000,232937.428571,1337371.714286,70582.714286,8908.142857,668718.714286,9304.555290,2111.271780,96841.728609,1453.209622,567.682363,48487.456795
49,1,0,-nan,-nan,-nan,-nan,-nan,-nan,-nan,-nan,-nan,-nan,-nan,-nan
50,0,7,667506.285714,230568.285714,1261414.285714,69038.428571,8321.714286,630617.285714,3309.015508,515.881967,75449.464029,211.521601,312.791448,37684.015655
50,1,0,-nan,-nan,-nan,-nan,-nan,-nan,-nan,-nan,-nan,-nan,-nan,-nan
51,0,7,666412.000000,230619.571429,1280146.428571,69071.571429,8217.571429,639990.571429,2592.953418,554.511589,80361.002260,260.184471,653.098080,40184.751813
51,1,0,-nan,-nan,-nan,-nan,-nan,-nan,-nan,-nan,-nan,-nan,-nan,-nan
52,0,7,669210.000000,231228.714286,1297184.428571,69304.285714,8442.714286,648586.857143,3237.689961,596.367028,108396.903286,313.783690,613.225131,54131.348526
52,1,0,-nan,-nan,-nan,-nan,-nan,-nan,-nan,-nan,-nan,-nan,-nan,-nan
53,0,7,671092.000000,231447.000000,1333832.000000,69592.571429,8372.857143,666911.142857,10449.335850,2088.789738,109569.820190,1415.059500,845.327735,54872.189525
53,1,0,-nan,-nan,-nan,-nan,-nan,-nan,-nan,-nan,-nan,-nan,-nan,-nan
54,0,7,672620.285714,231819.000000,1272172.857143,69745.571429,8470.571429,635982.000000,7829.694698,1789.817070,53306.972504,1180.457279,325.464002,26523.353774
54,1,1,706626.000000,248265.000000,1302319.000000,74334.000000,9636.000000,651178.000000,0.000000,0.000000,0.000000,0.000000,0.000000,0.000000
55,0,7,671009.142857,231276.142857,1298661.857143,69522.000000,8554.428571,649252.857143,7614.826561,1686.993812,59290.984910,1154.101753,796.004641,29611.232576
55,1,1,708818.000000,248322.000000,1321527.000000,74269.000000,9065.000000,660820.000000,0.000000,0.000000,0.000000,0.000000,0.000000,0.000000
56,0,7,673026.285714,231937.142857,1335811.142857,69769.857143,8808.857143,668010.571429,8250.990221,1770.836802,67475.197920,962.423938,653.588212,33757.346997
56,1,1,711544.000000,249047.000000,1418482.000000,74685.000000,9339.000000,708941.000000,0.000000,0.000000,0.000000,0.000000,0.000000,0.000000
57,0,7,668103.000000,231167.571429,1303083.285714,69260.857143,8394.285714,651525.142857,2262.773709,931.390950,73533.456272,324.033697,632.420681,36709.221432
57,1,1,705385.000000,246876.000000,1231266.000000,73781.000000,8322.000000,615667.000000,0.000000,0.000000,0.000000,0.000000,0.000000,0.000000
58,0,7,671021.714286,231766.285714,1289287.000000,69731.857143,8542.000000,644515.857143,9172.559975,1798.963806,70819.849492,1302.167032,800.839203,35315.120851
58,1,1,707121.000000,248806.000000,1481343.000000,74599.000000,9230.000000,740608.000000,0.000000,0.000000,0.000000,0.000000,0.000000,0.000000
59,0,7,670863.285714,231672.857143,1292684.142857,69685.857143,8149.857143,646253.000000,7094.833688,1429.050277,56369.590585,1184.769710,805.713247,28211.955282
59,1,1,701715.000000,246828.000000,1578133.000000,73778.000000,9669.000000,789155.000000,0.000000,0.000000,0.000000,0.000000,0.000000,0.000000
60,0,7,668656.714286,230950.285714,1322904.285714,69174.714286,8292.000000,661327.000000,2935.421494,640.243863,80418.480015,270.598128,797.691491,40113.987201
60,1,1,710644.000000,247445.000000,1411663.000000,73825.000000,9976.000000,705888.000000,0.000000,0.000000,0.000000,0.000000,0.000000,0.000000
61,0,7,672792.285714,231510.142857,1304990.428571,69612.714286,8328.714286,652531.571429,7521.514812,1791.724104,42073.850582,1203.194761,455.668963,21075.259286
61,1,1,716209.000000,249470.000000,1373225.000000,74729.000000,9428.000000,686781.000000,0.000000,0.000000,0.000000,0.000000,0.000000,0.000000
62,0,7,670597.428571,231493.714286,1304949.428571,69429.857143,8394.000000,652520.142857,3195.679130,1159.984694,31424.188813,613.375305,581.533932,15648.481163
62,1,1,733560.000000,252821.000000,1438821.000000,77341.000000,10609.000000,719298.000000,0.000000,0.000000,0.000000,0.000000,0.000000,0.000000
63,0,7,671656.285714,231401.571429,1318612.142857,69551.142857,8582.571429,659233.571429,6690.648606,1341.385090,56031.394849,1188.450543,736.998519,27975.467334
63,1,1,710057.000000,247786.000000,1298873.000000,73804.000000,8390.000000,649491.000000,0.000000,0.000000,0.000000,0.000000,0.000000,0.000000
64,0,7,671345.571429,231545.714286,1291551.571429,69582.571429,8248.714286,645660.000000,8666.266206,1837.563193,48737.367556,1173.770586,626.646566,24226.261135
64,1,1,716080.000000,248760.000000,1483769.000000,74133.000000,10075.000000,741909.000000,0.000000,0.000000,0.000000,0.000000,0.000000,0.000000
65,0,7,673663.428571,232252.571429,1318755.428571,69921.285714,8517.857143,659384.857143,6240.154574,1498.499331,64314.717220,1029.029462,835.193806,32158.312755
65,1,1,711386.000000,248115.000000,1295207.000000,73932.000000,9054.000000,647643.000000,0.000000,0.000000,0.000000,0.000000,0.000000,0.000000
66,0,7,672404.714286,231461.428571,1321543.428571,69584.142857,8385.428571,660792.571429,8834.881578,1618.963765,70552.792535,986.711194,938.370298,35345.817691
66,1,1,710324.000000,247891.000000,1441615.000000,73820.000000,9539.000000,720638.000000,0.000000,0.000000,0.000000,0.000000,0.000000,0.000000
67,0,7,669273.857143,231402.000000,1282313.857143,69288.428571,8226.571429,641061.857143,3653.393351,1110.734120,66943.270221,724.350716,508.959964,33455.256458
67,1,1,711613.000000,247835.000000,1467322.000000,73827.000000,9463.000000,733676.000000,0.000000,0.000000,0.000000,0.000000,0.000000,0.000000
68,0,7,667047.571429,230592.428571,1312945.714286,68929.142857,8374.000000,656511.142857,3810.211125,552.424231,92433.665522,283.912174,833.953407,46171.092157
68,1,1,713039.000000,248092.000000,1320661.000000,73887.000000,8363.000000,660328.000000,0.000000,0.000000,0.000000,0.000000,0.000000,0.000000
69,0,7,671269.714286,231881.857143,1326955.714286,69683.285714,8528.428571,663447.857143,7635.688943,1388.127457,77660.632939,1039.259725,799.300919,38785.666522
69,1,1,716179.000000,250291.000000,1384571.000000,74869.000000,9025.000000,692424.000000,0.000000,0.000000,0.000000,0.000000,0.000000,0.000000
70,0,7,667100.000000,230712.857143,1310872.000000,68984.285714,8402.428571,655275.000000,2641.762669,668.212846,79989.918243,323.566604,589.990280,39776.671702
70,1,1,713972.000000,248659.000000,1335504.000000,74160.000000,9263.000000,667798.000000,0.000000,0.000000,0.000000,0.000000,0.000000,0.000000
71,0,7,666549.714286,230439.857143,1332716.857143,68864.000000,8535.285714,666308.857143,3430.860272,549.254931,54077.813482,372.680637,498.452667,27060.186703
71,1,1,714121.000000,248585.000000,1345520.000000,74212.000000,9754.000000,672889.000000,0.000000,0.000000,0.000000,0.000000,0.000000,0.000000
72,0,7,675869.714286,232972.000000,1299363.142857,70351.428571,8819.571429,649663.571429,8285.022385,1543.614497,67997.250351,1230.499882,462.977586,33920.893199
72,1,1,716150.000000,249815.000000,1385241.000000,74554.000000,9209.000000,692448.000000,0.000000,0.000000,0.000000,0.000000,0.000000,0.000000
73,0,7,668282.428571,230696.000000,1342232.428571,69123.714286,8511.428571,671130.857143,2198.224209,848.953642,50782.444309,422.773737,465.305386,25394.232233
73,1,1,711362.000000,248021.000000,1254396.000000,73885.000000,8556.000000,627286.000000,0.000000,0.000000,0.000000,0.000000,0.000000,0.000000
74,0,7,667307.142857,230962.000000,1273879.857143,69244.857143,8052.571429,636895.285714,3781.511279,824.382886,79852.768372,512.084097,658.378497,39971.589324
74,1,1,732156.000000,252498.000000,1417914.000000,77234.000000,10403.000000,708946.000000,0.000000,0.000000,0.000000,0.000000,0.000000,0.000000
75,0,7,675071.857143,232466.285714,1330627.428571,70253.000000,8751.857143,665288.571429,9184.760693,1941.112694,66779.759983,1374.231006,770.974972,33382.302830
75,1,1,733147.000000,252639.000000,1330363.000000,77290.000000,9770.000000,665177.000000,0.000000,0.000000,0.000000,0.000000,0.000000,0.000000
76,0,7,670441.285714,231602.857143,1283116.857143,69678.142857,8461.000000,641483.857143,7130.996759,1869.501265,42639.860973,1217.776126,323.115636,21323.327303
76,1,1,713125.000000,248090.000000,1366520.000000,74007.000000,9143.000000,683169.000000,0.000000,0.000000,0.000000,0.000000,0.000000,0.000000
77,0,7,670827.285714,231586.571429,1310594.285714,69714.857143,8772.857143,655307.714286,8446.201677,1744.087879,99186.158838,1073.079737,565.267175,49525.472467
77,1,1,711067.000000,247810.000000,1465276.000000,73866.000000,8971.000000,732656.000000,0.000000,0.000000,0.000000,0.000000,0.000000,0.000000
78,0,7,670662.714286,231495.857143,1338916.571429,69631.571429,8829.571429,669432.714286,9147.638176,1804.854282,88986.623649,1134.777871,430.113891,44559.067805
78,1,1,717065.000000,250272.000000,1278833.000000,74946.000000,7943.000000,639493.000000,0.000000,0.000000,0.000000,0.000000,0.000000,0.000000
79,0,7,670578.285714,231637.857143,1286449.142857,69739.857143,8757.000000,643230.285714,9195.980686,1771.407143,73015.007417,1179.453800,766.558916,36563.622920
79,1,1,736158.000000,253537.000000,1450623.000000,77512.000000,10223.000000,725294.000000,0.000000,0.000000,0.000000,0.000000,0.000000,0.000000
80,0,7,673097.428571,232008.000000,1332079.714286,70050.857143,8824.857143,666021.857143,10114.654798,2177.091179,57240.861126,1690.238904,654.749555,28562.107913
80,1,1,710455.000000,248560.000000,1422923.000000,74105.000000,8483.000000,711505.000000,0.000000,0.000000,0.000000,0.000000,0.000000,0.000000
81,0,7,669017.571429,231729.285714,1289122.857143,69570.285714,8736.285714,644529.714286,2660.445122,874.166168,63308.893274,370.872991,532.158063,31660.106474
81,1,1,716456.000000,250268.000000,1302409.000000,74900.000000,9300.000000,651018.000000,0.000000,0.000000,0.000000,0.000000,0.000000,0.000000
82,0,7,670262.000000,231466.000000,1275169.571429,69605.285714,8705.571429,637588.714286,7489.795019,1924.208037,43059.341813,1210.275850,112.957460,21574.495284
82,1,1,710604.000000,248120.000000,1463470.000000,73940.000000,8982.000000,731366.000000,0.000000,0.000000,0.000000,0.000000,0.000000,0.000000
83,0,7,671984.142857,232366.142857,1313345.714286,69597.285714,8649.142857,656610.000000,8744.267403,3167.180965,51505.942611,966.744125,487.380294,25766.510130
83,1,1,710944.000000,248895.000000,1475514.000000,74107.000000,9902.000000,737625.000000,0.000000,0.000000,0.000000,0.000000,0.000000,0.000000
84,0,7,667265.285714,231008.571429,1287601.857143,69270.285714,8448.285714,643752.714286,4399.893788,1056.610329,75482.054827,309.264895,502.795532,37744.398796
84,1,1,717768.000000,249871.000000,1387243.000000,74644.000000,10115.000000,693256.000000,0.000000,0.000000,0.000000,0.000000,0.000000,0.000000
85,0,7,672301.428571,231866.571429,1337070.428571,69826.857143,8489.714286,668444.428571,7929.045193,1558.470574,52935.878114,1161.482972,740.427235,26438.496871
85,1,1,714165.000000,248953.000000,1452244.000000,74161.000000,9262.000000,725794.000000,0.000000,0.000000,0.000000,0.000000,0.000000,0.000000
86,0,7,668593.142857,231116.285714,1299909.000000,69275.428571,8547.285714,649893.857143,2651.507573,688.032747,85874.108867,374.959372,774.113634,42978.815800
86,1,1,713381.000000,250667.000000,1385363.000000,75195.000000,9434.000000,692519.000000,0.000000,0.000000,0.000000,0.000000,0.000000,0.000000
87,0,7,670862.428571,231444.857143,1308498.428571,69631.000000,8629.857143,654160.571429,5955.816289,1499.169430,42732.514893,1041.009126,504.352039,21345.750295
87,1,1,709114.000000,248416.000000,1407580.000000,74138.000000,9118.000000,703594.000000,0.000000,0.000000,0.000000,0.000000,0.000000,0.000000
88,0,7,672549.428571,231867.714286,1300673.571429,69789.142857,8568.714286,650301.857143,8408.983221,1714.317083,50839.031616,1298.558699,635.633703,25368.194482
88,1,1,712767.000000,248522.000000,1433302.000000,74171.000000,9244.000000,716687.000000,0.000000,0.000000,0.000000,0.000000,0.000000,0.000000
89,0,7,670596.714286,231609.857143,1302240.428571,69683.000000,8508.857143,651140.428571,7625.982255,1728.097338,74614.966021,1069.616754,779.886517,37127.507441
89,1,1,715339.000000,249749.000000,1430778.000000,74768.000000,9335.000000,715149.000000,0.000000,0.000000,0.000000,0.000000,0.000000,0.000000
90,0,7,668433.714286,230937.428571,1319067.714286,69167.142857,8467.428571,659482.857143,2688.182695,638.987784,63056.895965,280.089490,483.427305,31431.111341
90,1,1,712070.000000,248710.000000,1420388.000000,74282.000000,9447.000000,709713.000000,0.000000,0.000000,0.000000,0.000000,0.000000,0.000000
91,0,7,669261.428571,231112.714286,1278881.857143,69296.000000,8285.714286,639517.571429,4268.184554,1118.114959,38199.287287,605.888722,711.333499,19027.495157
91,1,1,713283.000000,249164.000000,1375245.000000,74327.000000,9744.000000,687667.000000,0.000000,0.000000,0.000000,0.000000,0.000000,0.000000
92,0,7,672873.857143,231652.857143,1353507.142857,69686.428571,8693.857143,676804.428571,8296.738248,1925.204214,78791.643688,1158.716390,641.098929,39364.596316
92,1,1,712359.000000,247883.000000,1592890.000000,73922.000000,9750.000000,796076.000000,0.000000,0.000000,0.000000,0.000000,0.000000,0.000000
93,0,8,669965.375000,231156.750000,1318886.375000,69317.875000,8390.250000,659283.625000,1993.623331,551.941516,88618.065444,317.647382,540.064985,44097.305360
93,1,1,732003.000000,253142.000000,1582347.000000,77522.000000,11123.000000,790847.000000,0.000000,0.000000,0.000000,0.000000,0.000000,0.000000
94,0,8,669215.375000,231078.000000,1350365.375000,69312.500000,8684.000000,675208.750000,3386.055631,1110.738718,51225.728003,543.395804,518.220030,25660.730703
94,1,1,713192.000000,249449.000000,1375020.000000,74500.000000,10135.000000,687555.000000,0.000000,0.000000,0.000000,0.000000,0.000000,0.000000
95,0,8,671778.000000,231510.375000,1301876.000000,69630.500000,8473.375000,650882.500000,7782.655861,1468.863246,52234.939889,1089.493460,456.452883,26086.919653
95,1,1,735091.000000,253803.000000,1386285.000000,77720.000000,10727.000000,692977.000000,0.000000,0.000000,0.000000,0.000000,0.000000,0.000000
96,0,8,668333.250000,230938.125000,1281055.000000,69235.750000,8421.375000,640471.000000,2138.496829,672.587436,100944.291111,343.930862,828.875283,50498.650962
96,1,1,711366.000000,248590.000000,1364453.000000,74318.000000,9178.000000,682365.000000,0.000000,0.000000,0.000000,0.000000,0.000000,0.000000
97,0,8,676598.375000,233403.000000,1296401.875000,70345.500000,8585.625000,648192.000000,14752.527808,4176.026431,80209.778839,1698.423239,438.154350,40117.870896
97,1,1,714453.000000,249557.000000,1434192.000000,74789.000000,9887.000000,717108.000000,0.000000,0.000000,0.000000,0.000000,0.000000,0.000000
98,0,8,671485.125000,231373.500000,1316337.000000,69567.875000,8529.375000,658154.000000,7252.124593,1586.947305,85260.117867,1168.074317,413.678298,42593.714519
98,1,1,710278.000000,248295.000000,1494253.000000,74232.000000,9822.000000,746852.000000,0.000000,0.000000,0.000000,0.000000,0.000000,0.000000
99,0,8,672293.125000,231974.000000,1292084.500000,69838.625000,8281.875000,646122.625000,9066.423184,1715.149921,34421.670489,1298.831392,382.027302,17154.810921
99,1,1,708493.000000,247773.000000,1349324.000000,74027.000000,8800.000000,674691.000000,0.000000,0.000000,0.000000,0.000000,0.000000,0.000000
100,0,8,669039.375000,230781.875000,1295124.000000,69176.125000,8451.750000,647547.500000,3009.584520,712.180180,76648.155950,453.480550,580.984671,38273.486084
100,1,1,708014.000000,248544.000000,1458404.000000,74304.000000,10469.000000,729017.000000,0.000000,0.000000,0.000000,0.000000,0.000000,0.000000
101,0,8,674043.625000,232053.875000,1355556.000000,69817.000000,8701.500000,677611.625000,8182.380337,1931.378681,64029.292431,1120.854027,777.075286,31834.277630
101,1,1,705827.000000,247168.000000,1464907.000000,73786.000000,9764.000000,732055.000000,0.000000,0.000000,0.000000,0.000000,0.000000,0.000000
102,0,8,673829.875000,231998.750000,1336474.375000,69994.125000,8466.625000,668230.875000,9455.469389,2046.935866,45291.920491,1464.291334,495.272889,22603.259043
102,1,1,710523.000000,248649.000000,1441937.000000,74176.000000,9903.000000,720740.000000,0.000000,0.000000,0.000000,0.000000,0.000000,0.000000
103,0,8,669308.625000,230819.750000,1303893.000000,69152.500000,8210.375000,651936.875000,2179.538996,502.997453,60767.699397,324.015818,545.243739,30390.340428
103,1,1,710437.000000,249076.000000,1384249.000000,74577.000000,10560.000000,691736.000000,0.000000,0.000000,0.000000,0.000000,0.000000,0.000000
104,0,8,674835.000000,232379.750000,1308191.125000,70137.750000,8398.750000,654161.000000,9481.685847,2263.225892,57516.879304,1511.798164,543.797929,28692.078933
104,1,1,708830.000000,248334.000000,1578516.000000,74263.000000,9616.000000,789167.000000,0.000000,0.000000,0.000000,0.000000,0.000000,0.000000
105,0,8,670026.625000,231280.500000,1308625.250000,69355.375000,8351.625000,654343.000000,2170.663605,695.798821,38602.897734,372.389560,316.680808,19295.516344
105,1,1,734918.000000,252243.000000,1404253.000000,77253.000000,9671.000000,702045.000000,0.000000,0.000000,0.000000,0.000000,0.000000,0.000000
106,0,8,668937.000000,230779.875000,1307201.250000,69121.625000,8326.750000,653656.875000,2224.649748,677.878388,30879.403102,362.735075,479.817348,15454.972456
106,1,1,712571.000000,247717.000000,1372334.000000,73885.000000,9258.000000,686208.000000,0.000000,0.000000,0.000000,0.000000,0.000000,0.000000
107,0,8,671158.875000,231334.750000,1304127.875000,69543.875000,8282.250000,652109.500000,7913.532515,1566.826470,58108.973725,1200.265641,549.336133,29044.647988
107,1,1,711728.000000,247433.000000,1413712.000000,73636.000000,9339.000000,706905.000000,0.000000,0.000000,0.000000,0.000000,0.000000,0.000000
108,0,8,673404.625000,231968.625000,1322387.625000,69935.000000,8644.000000,661253.500000,9206.736106,2194.481199,47734.263430,1484.305562,737.912258,23844.886234
108,1,1,713971.000000,248661.000000,1334802.000000,74340.000000,8889.000000,667478.000000,0.000000,0.000000,0.000000,0.000000,0.000000,0.000000
109,0,8,670622.750000,231843.250000,1320277.375000,69582.125000,8450.125000,660127.625000,3407.944753,1182.722257,92449.784357,565.954821,712.095927,46121.702150
109,1,1,709860.000000,247466.000000,1372683.000000,73681.000000,9472.000000,686774.000000,0.000000,0.000000,0.000000,0.000000,0.000000,0.000000
110,0,8,673165.625000,231796.625000,1291754.000000,69738.500000,8491.500000,645780.750000,7321.608087,1717.984789,58400.084379,1088.822185,727.494502,29250.169144
110,1,1,714778.000000,249222.000000,1287497.000000,74575.000000,9194.000000,643802.000000,0.000000,0.000000,0.000000,0.000000,0.000000,0.000000
111,0,8,673303.875000,232357.500000,1323310.000000,69971.250000,8449.125000,661633.125000,6497.370919,1711.723839,86479.364870,999.648907,731.435991,43231.034447
111,1,1,709351.000000,247911.000000,1367150.000000,73829.000000,8705.000000,683621.000000,0.000000,0.000000,0.000000,0.000000,0.000000,0.000000
112,0,8,672391.125000,231900.125000,1345892.500000,69775.125000,8680.375000,672798.500000,6473.541118,1430.750803,68028.067873,1125.486832,552.151007,34051.477369
112,1,1,712224.000000,249101.000000,1262455.000000,74438.000000,9333.000000,631286.000000,0.000000,0.000000,0.000000,0.000000,0.000000,0.000000
113,0,8,670366.875000,231317.250000,1330891.125000,69382.625000,8095.250000,665402.500000,3459.393279,984.916081,40826.000154,410.427502,385.616633,20386.411173
113,1,1,708327.000000,247763.000000,1347997.000000,73840.000000,8293.000000,674027.000000,0.000000,0.000000,0.000000,0.000000,0.000000,0.000000
114,0,8,672681.875000,231752.125000,1351590.250000,69719.875000,8401.250000,675810.500000,6093.204441,1308.144434,111917.208073,927.506393,838.789418,55985.932543
114,1,1,711709.000000,248377.000000,1274212.000000,74152.000000,8669.000000,637220.000000,0.000000,0.000000,0.000000,0.000000,0.000000,0.000000
115,0,8,677793.375000,232951.750000,1354814.375000,70571.875000,8743.500000,677340.500000,10149.567465,2262.476119,98696.853267,1486.240596,1049.566935,49115.084371
115,1,1,710462.000000,248199.000000,1309383.000000,74022.000000,8602.000000,654413.000000,0.000000,0.000000,0.000000,0.000000,0.000000,0.000000
116,0,8,668258.500000,231029.375000,1299726.500000,69242.375000,8337.750000,649823.000000,2456.643951,621.403238,43213.438110,326.272485,556.880990,21614.828249
116,1,1,729206.000000,251655.000000,1436844.000000,77047.000000,9484.000000,718405.000000,0.000000,0.000000,0.000000,0.000000,0.000000,0.000000
117,0,8,670028.000000,231489.625000,1295048.875000,69582.375000,8335.625000,647481.375000,7153.546114,1838.701304,43044.538133,1148.036905,544.898371,21516.130513
117,1,1,709380.000000,247512.000000,1357832.000000,73797.000000,8346.000000,678925.000000,0.000000,0.000000,0.000000,0.000000,0.000000,0.000000
118,0,8,675632.500000,233117.125000,1331594.500000,70147.750000,8744.000000,665738.250000,11296.339850,3989.492682,82257.545853,1665.345516,850.498971,41120.536407
118,1,1,711474.000000,249187.000000,1295398.000000,74560.000000,9145.000000,647790.000000,0.000000,0.000000,0.000000,0.000000,0.000000,0.000000
119,0,8,675503.500000,232604.250000,1370995.875000,70404.000000,8849.875000,685364.375000,12138.525209,2669.703483,58042.323064,1777.654564,818.503885,29107.829183
119,1,1,709421.000000,247163.000000,1754451.000000,73704.000000,12289.000000,877232.000000,0.000000,0.000000,0.000000,0.000000,0.000000,0.000000
120,0,8,673293.750000,232132.500000,1316576.000000,69913.250000,8358.125000,658324.750000,6635.310953,1531.477636,67490.171534,955.240120,369.310316,33765.217498
120,1,1,707362.000000,246769.000000,1355881.000000,73563.000000,8429.000000,677880.000000,0.000000,0.000000,0.000000,0.000000,0.000000,0.000000
121,0,7,669406.571429,231041.142857,1337910.714286,69230.142857,8531.428571,668971.714286,3475.612376,401.898860,65846.421210,213.621447,587.098156,32987.517932
121,1,1,730063.000000,251945.000000,1445353.000000,77134.000000,10782.000000,722650.000000,0.000000,0.000000,0.000000,0.000000,0.000000,0.000000
122,0,7,672754.000000,231769.142857,1298796.428571,69747.000000,8524.142857,649417.714286,5160.122258,1227.547896,84569.725930,935.752409,676.193850,42284.970497
122,1,1,705881.000000,247614.000000,1385074.000000,73959.000000,9204.000000,692638.000000,0.000000,0.000000,0.000000,0.000000,0.000000,0.000000
123,0,7,668706.857143,230862.714286,1322473.285714,69164.857143,8260.142857,661273.000000,3010.559484,615.708353,66030.784251,378.223452,550.004527,32954.083445
123,1,1,708812.000000,247125.000000,1287085.000000,73824.000000,8652.000000,643534.000000,0.000000,0.000000,0.000000,0.000000,0.000000,0.000000
124,0,7,677597.000000,233023.428571,1371674.142857,70484.714286,8759.571429,685725.142857,10264.832613,2212.970457,122015.442563,1424.858862,766.523480,60910.036054
124,1,1,708102.000000,247742.000000,1361899.000000,73976.000000,8842.000000,681023.000000,0.000000,0.000000,0.000000,0.000000,0.000000,0.000000
125,0,7,671786.428571,231400.285714,1319981.142857,69613.285714,8743.285714,659883.000000,8000.481233,1704.094206,90532.800282,1058.939188,927.028080,45116.891021
125,1,1,710283.000000,247743.000000,1211937.000000,73935.000000,9219.000000,606017.000000,0.000000,0.000000,0.000000,0.000000,0.000000,0.000000
126,0,7,668850.142857,231086.285714,1326453.428571,69250.857143,8812.857143,663132.142857,3839.953885,911.360477,77998.501385,450.114090,458.522605,38990.667852
126,1,1,706436.000000,247393.000000,1266851.000000,73910.000000,8328.000000,633469.000000,0.000000,0.000000,0.000000,0.000000,0.000000,0.000000
127,0,7,669500.714286,231235.857143,1305500.428571,69338.142857,8372.000000,652808.857143,3821.224924,754.541569,64848.212139,241.111965,258.785074,32420.092736
127,1,1,711853.000000,247414.000000,1415722.000000,73895.000000,9066.000000,707907.000000,0.000000,0.000000,0.000000,0.000000,0.000000,0.000000
128,0,7,672376.571429,231918.000000,1314348.000000,69810.428571,8323.285714,657165.000000,6363.239109,1302.706304,46234.458992,960.733181,386.649237,23081.431931
128,1,1,712044.000000,248242.000000,1350708.000000,74027.000000,9006.000000,675417.000000,0.000000,0.000000,0.000000,0.000000,0.000000,0.000000
129,0,7,667779.142857,230607.142857,1313573.857143,69056.714286,8250.857143,656818.571429,3624.045310,734.634492,57875.939608,353.044196,620.750106,28939.901253
129,1,1,711890.000000,248290.000000,1300145.000000,74293.000000,9109.000000,649954.000000,0.000000,0.000000,0.000000,0.000000,0.000000,0.000000
130,0,7,672014.285714,231897.142857,1305847.714286,69797.428571,8482.857143,652881.285714,6496.318314,1712.198205,88158.491103,1256.636879,626.249021,43994.284280
130,1,1,712406.000000,249095.000000,1287154.000000,74597.000000,8610.000000,643626.000000,0.000000,0.000000,0.000000,0.000000,0.000000,0.000000
131,0,7,672849.142857,231741.142857,1338076.428571,69681.142857,9036.285714,668983.000000,10241.726562,2193.767629,71444.579620,1388.937459,841.222192,35699.257595
131,1,1,710923.000000,248747.000000,1305649.000000,74464.000000,9257.000000,652882.000000,0.000000,0.000000,0.000000,0.000000,0.000000,0.000000
132,0,7,669214.714286,231103.714286,1332868.428571,69274.285714,8316.000000,666392.142857,2636.407985,893.005953,66491.394373,343.885244,692.762586,33296.374451
132,1,1,726572.000000,251532.000000,1373573.000000,77025.000000,9470.000000,686787.000000,0.000000,0.000000,0.000000,0.000000,0.000000,0.000000
133,0,7,671771.428571,231684.857143,1257387.714286,69765.857143,8189.428571,628648.428571,5873.137829,1458.688984,41992.431320,961.079219,649.609082,21052.108010
133,1,1,708411.000000,248433.000000,1335491.000000,74186.000000,8722.000000,667884.000000,0.000000,0.000000,0.000000,0.000000,0.000000,0.000000
134,0,7,674446.714286,232355.857143,1290499.857143,70189.857143,8667.142857,645229.714286,8462.498444,1805.391483,42194.623806,1412.173647,305.351520,21044.558820
134,1,1,710579.000000,247843.000000,1364396.000000,73995.000000,9298.000000,682208.000000,0.000000,0.000000,0.000000,0.000000,0.000000,0.000000
135,0,7,671884.571429,231655.000000,1271639.285714,69726.285714,8276.714286,635773.285714,7839.102752,2257.752485,63177.729787,1270.303531,533.011850,31526.060765
135,1,1,707730.000000,247674.000000,1405411.000000,73970.000000,9152.000000,702882.000000,0.000000,0.000000,0.000000,0.000000,0.000000,0.000000
136,0,7,669765.000000,231471.428571,1322285.571429,69426.000000,8563.285714,660970.000000,4173.182958,991.989467,89397.627437,392.875480,591.381606,44301.342437
136,1,1,707372.000000,247758.000000,1360060.000000,73915.000000,8819.000000,680035.000000,0.000000,0.000000,0.000000,0.000000,0.000000,0.000000
137,0,7,675551.428571,232745.000000,1285766.428571,70339.571429,8286.000000,642904.285714,7799.029333,1551.260778,70168.811824,1305.555258,483.790096,35082.245244
137,1,1,706240.000000,247535.000000,1375859.000000,73945.000000,8874.000000,687927.000000,0.000000,0.000000,0.000000,0.000000,0.000000,0.000000
138,0,7,667605.142857,230654.428571,1274702.428571,69064.428571,8123.142857,637351.285714,2980.270334,625.325940,52860.088241,343.553638,688.396777,26418.095615
138,1,1,715182.000000,249091.000000,1349090.000000,74582.000000,9569.000000,674613.000000,0.000000,0.000000,0.000000,0.000000,0.000000,0.000000
139,0,7,669185.142857,231145.285714,1302994.714286,69309.857143,8547.000000,651474.571429,3819.166978,1033.915680,83901.287274,382.322388,627.015151,41972.456223
139,1,1,709902.000000,247905.000000,1359096.000000,73977.000000,9403.000000,679616.000000,0.000000,0.000000,0.000000,0.000000,0.000000,0.000000
140,0,7,674839.285714,232524.571429,1304523.000000,70265.428571,8531.000000,652262.571429,10306.506609,2373.036082,45386.036707,1536.664371,704.885401,22619.871825
140,1,1,708213.000000,246935.000000,1257358.000000,73672.000000,8618.000000,628709.000000,0.000000,0.000000,0.000000,0.000000,0.000000,0.000000
141,0,7,678455.000000,234106.285714,1303449.857143,70444.428571,8370.714286,651815.428571,18009.007556,5228.476416,43821.831905,2089.599473,494.321964,21998.592798
141,1,1,709884.000000,247818.000000,1378455.000000,73972.000000,9244.000000,689274.000000,0.000000,0.000000,0.000000,0.000000,0.000000,0.000000
142,0,7,667423.714286,230987.714286,1314012.714286,69229.285714,8167.428571,657040.571429,4632.332480,1152.200344,55275.532447,551.353067,465.070458,27623.707529
142,1,1,710930.000000,249512.000000,1355986.000000,74688.000000,10726.000000,677545.000000,0.000000,0.000000,0.000000,0.000000,0.000000,0.000000
143,0,7,667462.285714,230770.857143,1298598.571429,69129.142857,8318.142857,649288.428571,3536.863975,915.239926,35600.632871,283.315790,380.244819,17793.701734
143,1,1,703911.000000,248057.000000,1407477.000000,73084.000000,8253.000000,703635.000000,0.000000,0.000000,0.000000,0.000000,0.000000,0.000000
144,0,7,671387.714286,231755.285714,1304739.000000,69736.714286,8347.571429,652342.428571,8625.399597,1984.156943,53877.883570,1214.078453,302.121006,26924.462270
144,1,1,701754.000000,247547.000000,1342582.000000,72928.000000,7545.000000,671092.000000,0.000000,0.000000,0.000000,0.000000,0.000000,0.000000
145,0,7,665817.428571,230550.000000,1289372.285714,69050.857143,8264.000000,644700.857143,3247.383204,559.539862,58973.727142,190.570143,546.468925,29465.292888
145,1,1,697938.000000,247506.000000,1386784.000000,72871.000000,7934.000000,693194.000000,0.000000,0.000000,0.000000,0.000000,0.000000,0.000000
146,0,7,667539.142857,230538.142857,1330140.142857,69040.428571,8142.857143,665054.428571,4392.818829,876.723027,95648.524329,415.488304,535.966531,47757.304033
146,1,1,719795.000000,249931.000000,1514985.000000,74364.000000,9511.000000,757545.000000,0.000000,0.000000,0.000000,0.000000,0.000000,0.000000
147,0,7,677143.000000,233269.142857,1320475.285714,70206.571429,8278.428571,660262.428571,11212.297866,3771.316005,56403.370420,1488.911765,770.424346,28218.739325
147,1,1,716071.000000,249352.000000,1266535.000000,74083.000000,7980.000000,633195.000000,0.000000,0.000000,0.000000,0.000000,0.000000,0.000000
148,0,7,672230.857143,231778.714286,1318532.857143,69746.571429,8532.285714,659213.285714,6450.869829,1114.979143,57507.979177,1091.055826,612.895870,28782.120426
148,1,1,712908.000000,248577.000000,1324372.000000,73848.000000,9151.000000,661910.000000,0.000000,0.000000,0.000000,0.000000,0.000000,0.000000
149,0,7,672943.857143,232729.857143,1342763.714286,69803.142857,8443.857143,671334.571429,9377.755906,3346.909424,73044.617239,958.256665,536.636730,36439.562875
149,1,1,710650.000000,247633.000000,1389937.000000,73433.000000,8910.000000,694967.000000,0.000000,0.000000,0.000000,0.000000,0.000000,0.000000
150,0,7,672392.000000,231587.571429,1273610.285714,69608.428571,8632.857143,636812.714286,7662.457215,1717.506985,48723.151387,1157.955693,325.851600,24315.950865
150,1,1,711000.000000,248185.000000,1376657.000000,73610.000000,8681.000000,688391.000000,0.000000,0.000000,0.000000,0.000000,0.000000,0.000000
151,0,7,673219.428571,232045.857143,1288570.714286,69829.000000,8448.714286,644248.428571,6806.499013,1417.261890,46750.236995,977.706062,470.484162,23340.797562
151,1,1,713246.000000,249255.000000,1313037.000000,74196.000000,8425.000000,656252.000000,0.000000,0.000000,0.000000,0.000000,0.000000,0.000000
152,0,7,673694.571429,232022.571429,1310973.142857,69870.857143,8304.142857,655467.285714,8429.778303,1722.249348,41122.310623,1319.607239,431.494224,20589.956676
152,1,1,709958.000000,247575.000000,1478251.000000,73363.000000,9880.000000,738629.000000,0.000000,0.000000,0.000000,0.000000,0.000000,0.000000
153,0,7,669651.857143,231092.428571,1282197.857143,69261.714286,8196.571429,641015.000000,3626.927879,971.291020,64601.765795,399.858087,605.048725,32260.024391
153,1,1,715580.000000,249316.000000,1289196.000000,74144.000000,10102.000000,644510.000000,0.000000,0.000000,0.000000,0.000000,0.000000,0.000000
154,0,7,678839.000000,233795.285714,1320657.714286,70616.000000,8567.285714,660257.428571,10360.928364,2919.779185,34331.443521,1349.763577,480.781125,17140.256548
154,1,1,711314.000000,247794.000000,1394367.000000,73437.000000,9605.000000,697258.000000,0.000000,0.000000,0.000000,0.000000,0.000000,0.000000
155,0,7,667969.000000,230719.428571,1329066.428571,69086.000000,8277.714286,664578.571429,2628.042618,943.711950,61458.524293,403.689060,600.730915,30737.056741
155,1,1,708416.000000,247942.000000,1374283.000000,73535.000000,8492.000000,687048.000000,0.000000,0.000000,0.000000,0.000000,0.000000,0.000000
156,0,7,667407.857143,230620.714286,1315851.000000,69072.571429,8201.428571,657864.285714,3777.869673,1116.510727,84571.557193,529.582816,876.144616,42143.033234
156,1,1,707875.000000,247519.000000,1524841.000000,73320.000000,10917.000000,762443.000000,0.000000,0.000000,0.000000,0.000000,0.000000,0.000000
157,0,7,669814.857143,231778.571429,1364336.142857,69543.000000,8771.000000,682198.571429,3343.489513,781.256288,113283.654514,335.474930,849.965377,56624.805889
157,1,1,707585.000000,247445.000000,1437548.000000,73317.000000,8845.000000,718760.000000,0.000000,0.000000,0.000000,0.000000,0.000000,0.000000
158,0,7,668331.142857,230980.000000,1295335.000000,69192.142857,8358.142857,647604.428571,2878.049112,982.239278,50864.915792,369.270489,597.740371,25396.978577
158,1,1,708326.000000,247556.000000,1401699.000000,73365.000000,8908.000000,700877.000000,0.000000,0.000000,0.000000,0.000000,0.000000,0.000000
159,0,7,667526.428571,230676.000000,1284261.714286,69071.571429,8386.285714,642128.714286,2449.556220,974.912890,50007.372798,358.787584,514.244721,25030.853063
159,1,1,707146.000000,247732.000000,1405696.000000,73422.000000,9466.000000,702908.000000,0.000000,0.000000,0.000000,0.000000,0.000000,0.000000
160,0,7,667335.857143,230938.714286,1298526.285714,69155.428571,8349.000000,649206.571429,3459.838453,655.965747,69620.418743,228.847333,463.995074,34812.394746
160,1,1,706939.000000,247686.000000,1368030.000000,73483.000000,8638.000000,684060.000000,0.000000,0.000000,0.000000,0.000000,0.000000,0.000000
161,0,7,674010.000000,232347.142857,1310920.571429,70173.571429,8568.428571,655493.285714,10422.936343,2150.807385,62677.544322,1492.953435,856.868194,31337.773235
161,1,1,712920.000000,249116.000000,1333751.000000,74087.000000,8432.000000,666922.000000,0.000000,0.000000,0.000000,0.000000,0.000000,0.000000
162,0,7,667438.571429,231002.000000,1338918.285714,69166.000000,8425.571429,669189.571429,2843.751690,656.861368,108585.846646,215.710123,479.509528,54090.893928
162,1,1,708225.000000,247994.000000,1483512.000000,73417.000000,9912.000000,741616.000000,0.000000,0.000000,0.000000,0.000000,0.000000,0.000000
163,0,7,670366.428571,231678.142857,1283992.857143,69475.428571,8266.428571,641826.857143,3636.013628,1176.462789,55920.029221,622.533271,580.278469,27659.404019
163,1,1,714366.000000,249905.000000,1452300.000000,74301.000000,9633.000000,726213.000000,0.000000,0.000000,0.000000,0.000000,0.000000,0.000000
164,0,7,671654.571429,231826.857143,1341746.714286,69744.285714,8709.142857,670836.714286,8161.665794,1899.921158,67168.307862,1247.125119,844.246482,33550.393503
164,1,1,707110.000000,247554.000000,1384798.000000,73261.000000,9313.000000,692510.000000,0.000000,0.000000,0.000000,0.000000,0.000000,0.000000
165,0,7,670333.142857,231333.142857,1279143.142857,69515.714286,8361.571429,639511.285714,11148.809333,2270.076174,69858.677415,1247.163606,733.298976,34863.524638
165,1,1,713003.000000,250670.000000,1461289.000000,74484.000000,10250.000000,730629.000000,0.000000,0.000000,0.000000,0.000000,0.000000,0.000000
166,0,7,670656.428571,231541.571429,1329463.857143,69639.428571,8566.428571,664632.142857,9528.768244,1965.170066,107033.180415,1309.910450,710.406093,53391.104597
166,1,1,706339.000000,248238.000000,1463698.000000,73473.000000,10196.000000,731842.000000,0.000000,0.000000,0.000000,0.000000,0.000000,0.000000
167,0,7,667731.142857,230890.142857,1291519.714286,69123.428571,8356.000000,645686.714286,4933.984696,838.589024,71446.161264,287.144989,629.168158,35541.941774
167,1,1,710573.000000,247530.000000,1340840.000000,73241.000000,9223.000000,670185.000000,0.000000,0.000000,0.000000,0.000000,0.000000,0.000000
168,0,7,671899.428571,231548.714286,1299121.428571,69638.571429,8210.857143,649586.285714,7251.204685,1606.304251,66228.243146,1204.417922,761.553755,33114.217864
168,1,1,709149.000000,247530.000000,1411029.000000,73249.000000,9169.000000,705545.000000,0.000000,0.000000,0.000000,0.000000,0.000000,0.000000
169,0,7,673003.714286,232563.428571,1358740.000000,69700.142857,8394.571429,679332.571429,10306.626491,3098.347249,84394.132606,968.210932,718.494230,42216.429059
169,1,1,704373.000000,247297.000000,1311191.000000,73456.000000,8862.000000,655571.000000,0.000000,0.000000,0.000000,0.000000,0.000000,0.000000
170,0,7,670990.857143,231427.857143,1300685.142857,69565.714286,8405.142857,650280.000000,6266.308926,1781.169233,75246.575194,1158.626861,613.003479,37578.469269
170,1,1,707385.000000,248036.000000,1253157.000000,73723.000000,8788.000000,626443.000000,0.000000,0.000000,0.000000,0.000000,0.000000,0.000000
171,0,7,671802.571429,231696.000000,1320813.285714,69678.857143,8526.142857,660404.857143,11325.703735,2301.084217,52666.838517,1245.832989,428.510519,26315.271337
171,1,1,710854.000000,247604.000000,1293285.000000,73517.000000,9219.000000,646781.000000,0.000000,0.000000,0.000000,0.000000,0.000000,0.000000
172,0,7,679449.857143,233566.714286,1346066.857143,70833.857143,8832.571429,672989.142857,11386.047219,2131.036080,68617.270553,1488.193481,467.251800,34276.618759
172,1,1,710066.000000,248164.000000,1527482.000000,73699.000000,9743.000000,763774.000000,0.000000,0.000000,0.000000,0.000000,0.000000,0.000000
173,0,7,672952.000000,232285.428571,1297388.428571,69934.857143,8245.571429,648680.285714,5027.966246,1374.412171,48527.366391,1017.071767,472.726698,24248.127914
173,1,1,707733.000000,248879.000000,1307517.000000,73800.000000,9871.000000,653910.000000,0.000000,0.000000,0.000000,0.000000,0.000000,0.000000
174,0,7,672047.857143,231489.000000,1300980.857143,69578.428571,8525.000000,650491.571429,6686.532657,1443.428260,59583.515902,1179.916324,474.757382,29823.847576
174,1,1,712658.000000,249213.000000,1324819.000000,73909.000000,9400.000000,662352.000000,0.000000,0.000000,0.000000,0.000000,0.000000,0.000000
175,0,7,668128.285714,230622.857143,1321062.000000,69042.857143,8460.142857,660568.000000,2975.326235,575.214849,28542.737490,297.849161,490.177935,14204.064871
175,1,1,728422.000000,253605.000000,1513299.000000,77130.000000,10761.000000,756646.000000,0.000000,0.000000,0.000000,0.000000,0.000000,0.000000
176,0,7,672171.000000,231629.428571,1311697.857143,69694.428571,8528.571429,655831.714286,9495.009923,2153.721355,30256.895561,1271.930126,698.451728,15158.581471
176,1,1,712894.000000,248916.000000,1532103.000000,73987.000000,9458.000000,766074.000000,0.000000,0.000000,0.000000,0.000000,0.000000,0.000000
177,0,7,668677.714286,231005.571429,1250570.000000,69236.000000,7903.571429,625274.857143,4057.861179,938.595433,50377.112357,307.665867,151.740245,25147.315752
177,1,1,711318.000000,248393.000000,1345107.000000,73801.000000,9092.000000,672210.000000,0.000000,0.000000,0.000000,0.000000,0.000000,0.000000
178,0,7,668181.571429,231166.000000,1298930.428571,69324.571429,8238.571429,649472.142857,3398.014078,686.805441,52538.518215,410.750135,328.223729,26229.610130
178,1,1,711710.000000,248576.000000,1386852.000000,73900.000000,9916.000000,693213.000000,0.000000,0.000000,0.000000,0.000000,0.000000,0.000000
179,0,7,671549.857143,231687.285714,1306080.428571,69754.571429,8254.142857,652979.571429,5638.225821,1610.576180,62587.842852,1207.212475,830.046200,31252.485578
179,1,1,712213.000000,248440.000000,1324195.000000,73754.000000,8887.000000,662099.000000,0.000000,0.000000,0.000000,0.000000,0.000000,0.000000
180,0,7,669768.714286,231320.000000,1324049.000000,69550.142857,8335.857143,661971.142857,7096.783612,1380.496702,91691.785314,1017.317541,457.968941,45743.352821
180,1,1,711671.000000,249036.000000,1425375.000000,74145.000000,9689.000000,712156.000000,0.000000,0.000000,0.000000,0.000000,0.000000,0.000000
181,0,7,670542.285714,231395.285714,1333941.857143,69613.142857,8494.571429,666898.142857,8809.736671,2172.523333,152173.629128,1372.990836,535.855220,75873.724943
181,1,1,711057.000000,248441.000000,1509701.000000,73752.000000,9145.000000,755155.000000,0.000000,0.000000,0.000000,0.000000,0.000000,0.000000
182,0,7,669887.142857,231117.000000,1339987.714286,69247.428571,8514.428571,669942.142857,2966.877600,629.655234,32476.257155,280.132039,672.513591,16191.051271
182,1,1,711618.000000,249204.000000,1433383.000000,73931.000000,9033.000000,716492.000000,0.000000,0.000000,0.000000,0.000000,0.000000,0.000000
183,0,7,675296.285714,232357.000000,1321844.142857,70196.285714,8507.142857,660936.714286,8311.159378,2250.401044,64473.557513,1401.126966,505.563174,32247.529791
183,1,1,708328.000000,248546.000000,1416695.000000,73751.000000,8597.000000,708399.000000,0.000000,0.000000,0.000000,0.000000,0.000000,0.000000
184,0,7,672331.857143,231804.285714,1326745.000000,69773.000000,8553.428571,663297.857143,9728.713840,2031.014083,97915.193240,1212.812552,919.149119,48869.800167
184,1,1,712788.000000,249093.000000,1435582.000000,73920.000000,10140.000000,717845.000000,0.000000,0.000000,0.000000,0.000000,0.000000,0.000000
185,0,7,672178.142857,232496.714286,1388622.428571,69685.857143,8632.571429,694313.142857,10097.380869,3222.566046,122929.250688,1033.899750,810.984385,61415.546897
185,1,1,707729.000000,248448.000000,1461924.000000,73703.000000,9642.000000,730582.000000,0.000000,0.000000,0.000000,0.000000,0.000000,0.000000
186,0,7,670384.285714,231550.428571,1330340.285714,69656.285714,8502.714286,664866.571429,8799.240726,1690.591854,88681.623559,1213.951366,482.715448,43975.334930
186,1,1,734846.000000,253117.000000,1598193.000000,77022.000000,10750.000000,799131.000000,0.000000,0.000000,0.000000,0.000000,0.000000,0.000000
187,0,7,675216.857143,232722.714286,1329846.714286,70367.285714,8596.571429,664704.285714,10613.231370,2515.014156,85349.356087,1401.358903,709.202743,42350.534160
187,1,1,707060.000000,247956.000000,1429304.000000,73648.000000,9066.000000,714578.000000,0.000000,0.000000,0.000000,0.000000,0.000000,0.000000
188,0,7,670754.714286,231698.142857,1321397.000000,69740.714286,8444.714286,660632.714286,4558.872690,1267.064372,66365.423596,938.489472,332.160768,33227.161169
188,1,1,711345.000000,248127.000000,1325461.000000,73687.000000,9753.000000,662769.000000,0.000000,0.000000,0.000000,0.000000,0.000000,0.000000
189,0,7,668339.428571,230953.142857,1356206.428571,69214.285714,8584.000000,678031.428571,4177.041121,1123.490280,120137.348276,551.478458,652.188185,60071.502756
189,1,1,712639.000000,249724.000000,1466402.000000,74317.000000,9672.000000,733031.000000,0.000000,0.000000,0.000000,0.000000,0.000000,0.000000
190,0,7,673332.285714,232270.000000,1343247.142857,70128.000000,8390.571429,671641.714286,9972.202676,1866.676879,43847.409027,1569.181315,875.254552,21905.168292
190,1,1,711565.000000,248019.000000,1366742.000000,73565.000000,10164.000000,683085.000000,0.000000,0.000000,0.000000,0.000000,0.000000,0.000000
191,0,7,667190.428571,230528.285714,1325422.428571,69017.571429,8262.142857,662690.000000,2862.335752,650.835444,45033.290762,327.874478,486.962723,22511.040339
191,1,1,707170.000000,247559.000000,1390227.000000,73495.000000,8548.000000,695163.000000,0.000000,0.000000,0.000000,0.000000,0.000000,0.000000
192,0,7,676499.857143,232456.714286,1320435.857143,70446.285714,8580.428571,660175.142857,9480.189772,2361.963210,41258.077853,1530.601909,959.445801,20612.075389
192,1,1,708357.000000,247783.000000,1306230.000000,73598.000000,8317.000000,653154.000000,0.000000,0.000000,0.000000,0.000000,0.000000,0.000000
193,0,7,670649.714286,231366.428571,1333853.857143,69587.714286,8444.285714,666966.571429,7440.264794,1282.405313,40902.129698,1000.997319,428.542951,20459.244532
193,1,1,707632.000000,247996.000000,1287195.000000,73741.000000,8646.000000,643575.000000,0.000000,0.000000,0.000000,0.000000,0.000000,0.000000
194,0,7,667904.000000,230546.714286,1312715.142857,69077.714286,8481.000000,656295.285714,3583.615612,730.515222,56558.535547,338.938559,675.577214,28379.576518
194,1,1,708994.000000,248169.000000,1385369.000000,73773.000000,9020.000000,692718.000000,0.000000,0.000000,0.000000,0.000000,0.000000,0.000000
195,0,7,670121.000000,231376.428571,1275774.000000,69422.857143,8196.000000,637843.142857,4186.191860,1182.134735,63756.434160,531.467894,437.857120,31923.475045
195,1,1,709773.000000,248290.000000,1344842.000000,73839.000000,8058.000000,672461.000000,0.000000,0.000000,0.000000,0.000000,0.000000,0.000000
196,0,7,667409.285714,230570.285714,1254745.857143,69041.285714,8152.857143,627519.142857,2844.544740,597.973892,51162.873005,312.509069,322.538781,25621.300120
196,1,1,728034.000000,253070.000000,1443981.000000,77146.000000,10013.000000,721903.000000,0.000000,0.000000,0.000000,0.000000,0.000000,0.000000
197,0,7,672628.714286,231956.714286,1309154.285714,69837.714286,8566.571429,654549.571429,7149.160205,1688.495079,59915.116217,1041.582274,569.025196,30004.462220
197,1,1,706834.000000,248116.000000,1329972.000000,73742.000000,8527.000000,665029.000000,0.000000,0.000000,0.000000,0.000000,0.000000,0.000000
198,0,7,674421.857143,232073.142857,1341965.571429,70032.142857,8672.714286,670988.857143,8560.097653,1970.472418,87922.583210,1508.865272,569.312045,43901.174652
198,1,1,706232.000000,247963.000000,1436852.000000,73733.000000,9114.000000,718453.000000,0.000000,0.000000,0.000000,0.000000,0.000000,0.000000
199,0,7,670576.571429,231335.714286,1296172.285714,69556.285714,8295.428571,648032.857143,8425.959307,1949.617671,57641.138300,1207.395510,669.114950,28871.193678
199,1,1,704631.000000,247852.000000,1454682.000000,73631.000000,8496.000000,727392.000000,0.000000,0.000000,0.000000,0.000000,0.000000,0.000000
200,0,7,673689.714286,232513.571429,1318318.000000,69748.857143,8672.428571,659206.428571,10430.108501,3497.414509,74732.219544,1171.413118,661.890120,37313.991025
200,1,1,708842.000000,248850.000000,1429616.000000,73991.000000,8088.000000,714889.000000,0.000000,0.000000,0.000000,0.000000,0.000000,0.000000
201,0,7,668548.428571,231259.857143,1270109.857143,69155.714286,8215.714286,634842.142857,2357.129541,516.281050,85161.902212,305.507874,505.730226,42247.156859
201,1,1,703638.000000,247478.000000,1496151.000000,73484.000000,10311.000000,747876.000000,0.000000,0.000000,0.000000,0.000000,0.000000,0.000000
202,0,7,671068.000000,231751.285714,1274296.142857,69628.285714,8488.142857,636985.714286,6707.109213,1803.019350,50212.601248,1157.514543,725.482387,24885.953650
202,1,1,709345.000000,248244.000000,1404329.000000,73805.000000,9174.000000,702146.000000,0.000000,0.000000,0.000000,0.000000,0.000000,0.000000
203,0,7,667287.571429,230641.571429,1296599.571429,68959.285714,8409.714286,648183.000000,1642.086291,690.944045,68321.417850,421.931516,501.829713,34118.974976
203,1,1,706341.000000,248121.000000,1294493.000000,73690.000000,8281.000000,647345.000000,0.000000,0.000000,0.000000,0.000000,0.000000,0.000000
204,0,7,670692.285714,231938.000000,1338342.000000,69302.714286,8166.857143,669101.857143,7682.783698,2787.117302,143264.127805,650.988855,1204.634791,71543.360084
204,1,1,709387.000000,248537.000000,1377996.000000,73816.000000,8139.000000,689028.000000,0.000000,0.000000,0.000000,0.000000,0.000000,0.000000
205,0,7,676480.428571,233249.571429,1373863.000000,70294.714286,8711.428571,686967.000000,9895.164936,2974.255770,86920.392646,1442.876563,614.272824,43468.580890
205,1,1,705773.000000,248067.000000,1367114.000000,73675.000000,7997.000000,683640.000000,0.000000,0.000000,0.000000,0.000000,0.000000,0.000000
206,0,7,669708.714286,231527.000000,1330594.857143,69512.142857,8543.428571,665331.000000,7440.772957,1628.970928,71738.919978,1316.228859,500.186781,35754.325856
206,1,1,706964.000000,248123.000000,1386911.000000,73756.000000,8429.000000,693549.000000,0.000000,0.000000,0.000000,0.000000,0.000000,0.000000
207,0,7,668218.714286,231125.714286,1334883.428571,69365.142857,8703.000000,667391.714286,7620.411007,1664.889161,49319.001490,1353.810646,677.237245,24595.242529
207,1,1,706846.000000,247879.000000,1377511.000000,73687.000000,8572.000000,688790.000000,0.000000,0.000000,0.000000,0.000000,0.000000,0.000000
208,0,7,671407.285714,231837.142857,1328501.000000,69648.285714,8349.857143,664271.714286,7715.968446,2002.173421,41092.427043,1146.100184,564.262459,20552.277925
208,1,1,709898.000000,248193.000000,1513034.000000,73746.000000,9024.000000,756290.000000,0.000000,0.000000,0.000000,0.000000,0.000000,0.000000
209,0,7,674102.142857,232521.571429,1332017.714286,70116.000000,8433.857143,665976.714286,7393.355790,1474.104945,21965.487681,1280.401500,558.872444,10929.952395
209,1,1,707085.000000,247876.000000,1299697.000000,73689.000000,8285.000000,649909.000000,0.000000,0.000000,0.000000,0.000000,0.000000,0.000000
210,0,7,667108.000000,230747.714286,1335708.000000,68990.000000,8513.714286,667817.285714,2952.804091,684.756623,52653.890170,412.689437,752.652019,26374.316596
210,1,1,707637.000000,247994.000000,1459355.000000,73698.000000,10157.000000,729560.000000,0.000000,0.000000,0.000000,0.000000,0.000000,0.000000
211,0,7,671662.428571,232340.428571,1350729.714286,69483.428571,8769.285714,675321.857143,10460.288044,3738.398047,142082.498423,1268.674996,1409.600928,70974.848123
211,1,1,704246.000000,248120.000000,1356963.000000,73719.000000,7837.000000,678511.000000,0.000000,0.000000,0.000000,0.000000,0.000000,0.000000
212,0,7,673013.000000,232168.571429,1311362.000000,69968.285714,8788.714286,655583.428571,11479.706679,2383.023401,48350.591189,1499.883587,1046.964007,24154.116022
212,1,1,704357.000000,248418.000000,1257177.000000,73820.000000,8342.000000,628612.000000,0.000000,0.000000,0.000000,0.000000,0.000000,0.000000
213,0,7,670820.857143,231940.428571,1304443.142857,69700.142857,8699.285714,652245.000000,7577.233295,1605.339382,78480.626591,1222.925933,644.179370,39179.405366
213,1,1,709618.000000,248459.000000,1388265.000000,73870.000000,8306.000000,694171.000000,0.000000,0.000000,0.000000,0.000000,0.000000,0.000000
214,0,7,672577.142857,232100.857143,1286118.714286,69946.857143,8545.714286,643029.857143,8337.295441,2010.557522,52892.038120,1381.269026,366.091212,26451.835996
214,1,1,708351.000000,248491.000000,1570528.000000,73958.000000,9278.000000,785295.000000,0.000000,0.000000,0.000000,0.000000,0.000000,0.000000
215,0,7,666487.142857,230975.428571,1310277.857143,69121.000000,8361.285714,655129.142857,3306.179082,788.669921,71875.659509,443.925026,308.310008,35985.226840
215,1,1,706076.000000,247408.000000,1317424.000000,73560.000000,8980.000000,658798.000000,0.000000,0.000000,0.000000,0.000000,0.000000,0.000000
216,0,7,667837.714286,230514.714286,1278458.714286,68904.714286,8447.714286,639221.714286,4890.181233,510.096830,60806.498515,357.670924,886.090565,30382.296197
216,1,1,711297.000000,250051.000000,1459236.000000,74689.000000,8799.000000,729661.000000,0.000000,0.000000,0.000000,0.000000,0.000000,0.000000
217,0,7,671072.000000,231278.857143,1329781.285714,69385.000000,8764.857143,664822.142857,8299.545478,1878.048184,76767.494711,1341.834352,960.407567,38315.875656
217,1,1,708374.000000,248670.000000,1394903.000000,74012.000000,8690.000000,697340.000000,0.000000,0.000000,0.000000,0.000000,0.000000,0.000000
218,0,7,669257.571429,231038.571429,1348003.428571,69104.714286,8660.714286,673955.714286,3320.728098,771.983504,73300.158224,272.770293,742.973507,36652.964892
218,1,1,713673.000000,250458.000000,1428343.000000,74918.000000,8751.000000,714127.000000,0.000000,0.000000,0.000000,0.000000,0.000000,0.000000
219,0,7,674935.000000,232611.285714,1334049.428571,70193.285714,8807.000000,666844.428571,8235.692182,1610.406135,92905.043383,1320.880411,730.491615,46474.582251
219,1,1,705743.000000,247895.000000,1277883.000000,73797.000000,8373.000000,638864.000000,0.000000,0.000000,0.000000,0.000000,0.000000,0.000000
220,0,7,668494.142857,230722.857143,1280063.857143,68938.000000,8443.428571,640003.714286,4634.554546,583.068589,68389.196201,384.325011,270.900012,34161.826501
220,1,1,707051.000000,247143.000000,1416485.000000,73524.000000,8638.000000,708069.000000,0.000000,0.000000,0.000000,0.000000,0.000000,0.000000
221,0,7,671289.857143,231622.571429,1284387.857143,69331.571429,8119.000000,642160.857143,3023.740136,979.766861,50382.346663,417.223427,488.333610,25121.672860
221,1,1,708016.000000,248085.000000,1466373.000000,73826.000000,8649.000000,733138.000000,0.000000,0.000000,0.000000,0.000000,0.000000,0.000000
222,0,7,672119.571429,231772.285714,1294375.714286,69602.142857,8369.285714,647180.000000,7818.659108,1880.154303,53985.798148,1222.684450,445.569848,26970.256130
222,1,1,725516.000000,252664.000000,1659227.000000,77122.000000,11095.000000,829504.000000,0.000000,0.000000,0.000000,0.000000,0.000000,0.000000
223,0,7,671172.857143,231559.142857,1346421.428571,69485.142857,8336.142857,673134.428571,7361.315807,1480.549939,25032.182091,1267.824845,482.107999,12579.833588
223,1,1,705798.000000,247185.000000,1459842.000000,73513.000000,9988.000000,729709.000000,0.000000,0.000000,0.000000,0.000000,0.000000,0.000000
224,0,7,670637.857143,231228.571429,1294718.714286,69369.571429,8324.000000,647323.285714,7571.115797,1692.336243,40868.234223,1282.160995,571.318775,20387.699203
224,1,1,701903.000000,247811.000000,1368070.000000,73721.000000,8330.000000,684079.000000,0.000000,0.000000,0.000000,0.000000,0.000000,0.000000
225,0,7,670654.428571,231527.285714,1298366.428571,69485.571429,8158.285714,649173.285714,6262.206043,1762.090375,55843.101310,948.229607,660.934342,27835.088825
225,1,1,714262.000000,248653.000000,1332260.000000,74029.000000,8601.000000,666111.000000,0.000000,0.000000,0.000000,0.000000,0.000000,0.000000
226,0,7,666543.571429,230511.714286,1324669.428571,68869.857143,8264.142857,662236.857143,2337.346655,226.031423,74669.240875,303.519088,475.224286,37347.429862
226,1,1,710695.000000,247647.000000,1358879.000000,73640.000000,9630.000000,679487.000000,0.000000,0.000000,0.000000,0.000000,0.000000,0.000000
227,0,7,667555.857143,230864.857143,1315727.000000,69022.000000,8336.000000,657918.285714,4372.319503,888.679667,45084.936753,603.146275,331.996558,22347.837605
227,1,1,729326.000000,251965.000000,1554104.000000,76828.000000,11557.000000,776193.000000,0.000000,0.000000,0.000000,0.000000,0.000000,0.000000
228,0,7,666747.142857,230665.142857,1332008.857143,68919.571429,8298.000000,665860.428571,2840.500229,470.460998,56970.764905,185.833149,519.326487,28376.633420
228,1,1,709890.000000,248078.000000,1429982.000000,73777.000000,9863.000000,715016.000000,0.000000,0.000000,0.000000,0.000000,0.000000,0.000000
229,0,7,670698.714286,231808.571429,1314794.428571,69610.571429,8367.571429,657404.571429,7930.711709,1486.625984,66859.610436,1158.067215,455.255300,33409.408730
229,1,1,713661.000000,249039.000000,1506269.000000,74285.000000,10412.000000,753523.000000,0.000000,0.000000,0.000000,0.000000,0.000000,0.000000
230,0,7,671228.285714,231873.142857,1383534.000000,69647.714286,8997.000000,691788.571429,8977.662593,1783.563402,144312.966223,1310.642559,1279.192714,72059.178604
230,1,1,708301.000000,247578.000000,1378197.000000,73647.000000,8809.000000,689083.000000,0.000000,0.000000,0.000000,0.000000,0.000000,0.000000
231,0,7,675779.714286,233477.857143,1342013.428571,69997.285714,8613.857143,670990.857143,10592.234685,3544.358150,56935.703179,1274.383853,536.090991,28355.507872
231,1,1,714574.000000,250139.000000,1437720.000000,74581.000000,9130.000000,718745.000000,0.000000,0.000000,0.000000,0.000000,0.000000,0.000000
232,0,7,673794.000000,233204.571429,1285635.714286,69614.142857,8165.285714,642707.857143,18192.205058,6105.156389,61483.632922,1653.646311,505.666099,30682.209175
232,1,1,710077.000000,248270.000000,1303959.000000,73743.000000,9168.000000,651717.000000,0.000000,0.000000,0.000000,0.000000,0.000000,0.000000
233,0,7,674081.857143,233550.714286,1332371.142857,69715.857143,8596.857143,666113.714286,19119.090306,6698.902505,30587.396533,1847.002005,769.068347,15233.840166
233,1,1,707593.000000,248023.000000,1432573.000000,73684.000000,8698.000000,716186.000000,0.000000,0.000000,0.000000,0.000000,0.000000,0.000000
234,0,7,678751.285714,234744.857143,1335541.857143,70496.285714,8522.285714,667887.142857,19004.393031,6502.010578,130281.836177,1909.565524,878.343850,65319.473503
234,1,1,709508.000000,248287.000000,1355056.000000,73764.000000,9092.000000,677425.000000,0.000000,0.000000,0.000000,0.000000,0.000000,0.000000
235,0,7,675608.571429,233365.142857,1323685.571429,69693.428571,8509.428571,661799.571429,18363.841248,6280.170458,49794.576443,1715.064918,632.558265,24930.048420
235,1,1,707623.000000,247365.000000,1400509.000000,73431.000000,9099.000000,700219.000000,0.000000,0.000000,0.000000,0.000000,0.000000,0.000000
236,0,7,677920.000000,234063.000000,1344341.428571,70206.285714,8470.857143,672139.285714,25392.474014,8226.116702,80206.466882,2960.482090,592.309627,40076.976161
236,1,1,711678.000000,249827.000000,1452303.000000,74296.000000,9995.000000,725982.000000,0.000000,0.000000,0.000000,0.000000,0.000000,0.000000
237,0,7,674608.714286,233494.428571,1296304.000000,69761.714286,8147.857143,648182.714286,17764.681805,6441.723590,74458.327707,1738.157868,601.210072,37290.870157
237,1,1,732757.000000,257098.000000,1437620.000000,76224.000000,9219.000000,718837.000000,0.000000,0.000000,0.000000,0.000000,0.000000,0.000000
238,0,7,677452.142857,233931.000000,1313412.285714,70145.000000,8643.000000,656778.428571,18045.357222,6564.745997,52775.758920,1871.799363,316.894755,26359.511858
238,1,1,727642.000000,252388.000000,1392718.000000,76797.000000,10010.000000,696190.000000,0.000000,0.000000,0.000000,0.000000,0.000000,0.000000
239,0,7,677480.428571,233704.142857,1299572.285714,70088.857143,8437.714286,649721.142857,17450.047702,6386.236080,66187.406544,1958.385737,467.451973,33108.527747
239,1,1,712367.000000,248065.000000,1251685.000000,73578.000000,9387.000000,625646.000000,0.000000,0.000000,0.000000,0.000000,0.000000,0.000000
240,0,7,677941.000000,234088.285714,1304430.571429,70260.000000,8627.714286,652331.714286,18234.306568,6092.384842,51630.625117,1796.452059,412.124709,25946.221656
240,1,1,708520.000000,247596.000000,1441162.000000,73520.000000,9683.000000,720260.000000,0.000000,0.000000,0.000000,0.000000,0.000000,0.000000
241,0,7,681998.571429,234870.714286,1303669.142857,70423.285714,8797.285714,651805.714286,20426.503014,6346.160970,48936.670815,1954.415273,621.449162,24389.107438
241,1,1,707935.000000,247341.000000,1340161.000000,73520.000000,8812.000000,670034.000000,0.000000,0.000000,0.000000,0.000000,0.000000,0.000000
242,0,7,683377.000000,235243.285714,1331906.857143,70966.571429,8998.142857,665734.000000,25874.979166,7772.053171,80685.543165,2774.680257,780.883644,40256.854490
242,1,1,706612.000000,247082.000000,1460510.000000,73362.000000,9563.000000,730413.000000,0.000000,0.000000,0.000000,0.000000,0.000000,0.000000
243,0,7,678956.571429,234190.428571,1322414.285714,70292.857143,8639.142857,661161.857143,18579.288729,6028.885252,81423.876399,1841.944425,376.346128,40733.431792
243,1,1,704710.000000,247553.000000,1317747.000000,73521.000000,8996.000000,658834.000000,0.000000,0.000000,0.000000,0.000000,0.000000,0.000000
244,0,7,675345.428571,233586.000000,1318564.714286,69802.285714,8697.285714,659194.285714,18859.423737,6261.646748,98209.336370,1716.158144,737.656853,48844.837138
244,1,1,709969.000000,249932.000000,1336477.000000,74523.000000,9705.000000,668247.000000,0.000000,0.000000,0.000000,0.000000,0.000000,0.000000
245,0,7,674649.428571,233270.000000,1309694.857143,69673.428571,8072.428571,654793.285714,18282.490522,6189.731520,65961.760698,1713.435885,298.172940,33051.436038
245,1,1,707395.000000,247023.000000,1304715.000000,73326.000000,9072.000000,652300.000000,0.000000,0.000000,0.000000,0.000000,0.000000,0.000000
246,0,7,676246.142857,233798.285714,1343235.714286,69891.571429,8434.857143,671587.142857,17769.777725,6062.578063,96253.461496,1584.013154,184.860896,47997.082282
246,1,1,706753.000000,248043.000000,1235989.000000,73666.000000,9071.000000,617947.000000,0.000000,0.000000,0.000000,0.000000,0.000000,0.000000
247,0,7,676165.000000,233894.714286,1313210.571429,69905.142857,8677.142857,656511.714286,20123.255019,7065.589526,74388.647463,2097.199454,701.651405,37235.980594
247,1,1,703618.000000,247621.000000,1288991.000000,73508.000000,8172.000000,644686.000000,0.000000,0.000000,0.000000,0.000000,0.000000,0.000000
248,0,7,680138.571429,234487.857143,1316296.285714,70438.428571,8735.000000,658069.857143,19479.697819,6158.153258,75958.757926,2098.827078,791.008759,37856.407970
248,1,1,702898.000000,247082.000000,1381877.000000,73336.000000,9074.000000,690979.000000,0.000000,0.000000,0.000000,0.000000,0.000000,0.000000
249,0,7,675392.714286,233656.142857,1311249.142857,69822.142857,8293.571429,655676.857143,20193.569427,6995.607263,51260.626451,1996.968948,402.898731,25659.162582
249,1,1,704038.000000,249092.000000,1386287.000000,74092.000000,8133.000000,693327.000000,0.000000,0.000000,0.000000,0.000000,0.000000,0.000000
250,0,7,677929.285714,234296.000000,1286705.714286,70271.714286,8450.571429,643195.142857,17259.764249,5840.967752,33710.588073,1827.591132,368.759254,16789.635148
250,1,1,706873.000000,247457.000000,1290215.000000,73506.000000,8771.000000,644903.000000,0.000000,0.000000,0.000000,0.000000,0.000000,0.000000
251,0,7,674366.571429,233362.285714,1336904.857143,69732.714286,8598.285714,668481.285714,17670.744910,6294.957295,91797.519155,1716.476350,620.504798,45853.154563
251,1,1,705359.000000,247159.000000,1278948.000000,73329.000000,7996.000000,639571.000000,0.000000,0.000000,0.000000,0.000000,0.000000,0.000000
252,0,7,677178.714286,234065.142857,1398908.000000,70162.000000,8564.714286,699511.857143,18962.880084,6268.916708,103900.588221,1979.701348,753.695982,52072.264914
252,1,1,705304.000000,247587.000000,1397407.000000,73384.000000,9197.000000,697973.000000,0.000000,0.000000,0.000000,0.000000,0.000000,0.000000
253,0,7,676236.428571,234112.428571,1364009.857143,70066.428571,8677.714286,681904.142857,20673.501009,6820.793332,88068.819054,1909.057199,688.473615,44006.372011
253,1,1,712635.000000,249313.000000,1411734.000000,74324.000000,8953.000000,705956.000000,0.000000,0.000000,0.000000,0.000000,0.000000,0.000000
254,0,7,674908.571429,233645.857143,1308891.285714,69856.714286,8175.571429,654397.714286,17857.429633,6091.591428,62752.833147,1624.250835,401.151150,31450.684493
254,1,1,704415.000000,247311.000000,1380679.000000,73275.000000,8885.000000,690350.000000,0.000000,0.000000,0.000000,0.000000,0.000000,0.000000
255,0,7,673809.428571,233514.285714,1321128.857143,69799.428571,8107.571429,660459.428571,18494.841179,6117.876165,71519.439590,1661.963456,326.265386,35819.327149
255,1,1,759123.000000,266012.000000,1426263.000000,78486.000000,8200.000000,713145.000000,0.000000,0.000000,0.000000,0.000000,0.000000,0.000000
