-1,0,0.0638298
-1,1,0.0638298
-1,2,0.0638298
-1,3,0.0638298
-1,4,0.0638298
-1,5,0.0638298
-1,6,0.0638298
-1,7,0.0638298
-1,8,0.0638298
-1,9,0.0638298
-1,10,0.0638298
-1,11,0.0638298
-1,12,0.0585106
-1,13,0.0585106
-1,14,0.0585106
-1,15,0.0585106
1,0,0.0596774
1,1,0.0591398
1,2,0.0591398
1,3,0.0591398
1,4,0.0591398
1,5,0.0591398
1,6,0.0591398
1,7,0.0591398
1,8,0.0591398
1,9,0.0591398
1,10,0.0591398
1,11,0.0591398
1,12,0.0591398
1,13,0.0591398
1,14,0.0596774
1,15,0.111828
