0,3,763954,267090,1472761,78932,9591,735853,0
0,-1,692238,237216,1284321,70692,7570,641847,0
0,3,734006,258006,1482672,76966,9928,740643,0
0,-1,689488,237630,1310882,70878,7233,654967,2
0,3,714611,249515,1306467,74238,8930,652767,0
0,3,713120,249781,1473941,74387,8902,736493,0
0,3,703077,247613,1399181,73699,8611,698831,0
0,3,705717,249240,1481155,74227,9227,739973,0
0,3,709518,248685,1335753,74005,8160,667413,0
0,3,710217,249544,1435859,74263,9182,717273,0
0,3,711396,248798,1353711,73912,8713,676211,0
0,3,714766,249877,1399678,74347,8565,699417,0
0,-1,637048,218543,1280922,65543,7542,640087,0
0,3,713119,249308,1344308,74005,9706,671657,0
0,3,708935,248835,1346244,73872,8611,672574,0
0,3,710520,247917,1429042,73439,8902,713935,0
0,3,709518,248192,1445099,73699,9237,722082,0
0,3,711329,249620,1379574,74306,8684,689028,0
0,3,714190,248619,1552318,73695,9483,775702,0
0,3,706036,248499,1405961,73408,9307,702513,0
0,3,707841,247811,1427097,74006,8875,713110,0
0,3,713533,248583,1598544,74185,9678,798824,0
0,3,712552,249599,1354508,74805,8494,676658,0
0,3,712765,249911,1572244,74867,10480,785461,0
0,3,713979,248102,1445870,74064,9835,722409,0
0,-1,641573,220763,1343585,66586,7284,670938,0
0,3,712128,249467,1325428,74539,8749,662185,0
0,3,711306,248710,1373252,74204,8918,686014,0
0,3,716538,249128,1347598,74398,8730,673207,0
0,3,713143,248715,1353460,74285,8724,676191,0
0,3,712058,248484,1457747,74094,9010,728283,0
0,3,709946,249652,1466409,75002,8859,732283,0
0,3,732191,253079,1596473,77599,9828,797778,0
1,3,702306,247454,1313834,73587,8538,656472,0
1,3,708710,247800,1315453,73550,9263,657218,0
1,3,714341,250737,1518021,74903,9725,758311,0
1,-1,695914,239638,1414382,71798,7770,706448,2
1,3,724752,252944,1558637,77261,9200,778858,0
1,3,730460,253573,1473448,77427,9279,736163,0
1,3,713324,250190,1479746,74641,9602,738348,0
1,3,704608,248356,1432115,73833,7856,715667,0
1,3,732324,253469,1454857,77232,10318,726804,0
1,3,734784,254186,1402015,77546,9440,700581,0
1,-1,638968,218705,1296250,65589,8100,647679,0
1,3,713300,249134,1357197,74071,9386,678109,0
1,3,711885,248939,1412972,73986,9484,706011,0
1,3,714132,248942,1486045,73845,10066,742426,0
1,3,710585,248747,1411029,73805,8768,705033,0
1,3,708152,248688,1420962,73842,8571,710006,0
1,3,713900,248680,1478519,73761,8624,738753,0
1,3,704886,248141,1367464,73231,8988,683311,0
1,3,728900,252246,1476527,77315,9327,737816,0
1,3,711656,248589,1604915,74303,10399,801467,0
1,3,710379,249008,1489322,74402,9071,744342,0
1,3,735169,257345,1465261,76854,9362,731963,0
1,3,712384,247888,1495825,73985,9963,747404,0
1,-1,636408,218069,1206744,65466,6928,602917,0
1,3,712994,249724,1459005,74676,9710,728587,0
1,3,714253,249824,1459792,74571,9494,729374,0
1,3,715828,248806,1455245,74288,9108,727158,0
1,3,713202,249222,1406949,74482,9118,703124,0
1,3,713466,248913,1459497,74268,8961,729295,0
1,3,717705,249628,1424992,74952,8854,711496,0
1,3,709957,247960,1490959,74003,9083,744682,0
2,3,703986,248547,1348771,73963,8302,673901,0
2,3,709082,248490,1341905,73847,9493,670460,0
2,3,733012,253092,1413164,77193,9942,706173,0
2,3,703880,248720,1592094,74095,9114,795570,0
2,-1,692958,237618,1321760,70911,7524,660301,2
2,3,708011,248769,1493822,73985,8909,746410,0
2,3,709426,248971,1270563,74091,8573,634658,0
2,3,710763,250874,1497568,74967,9611,747980,0
2,3,712852,249474,1559636,74260,9660,779319,0
2,3,714102,250260,1420971,74530,8399,710020,0
2,-1,639553,219091,1386750,65771,7890,692292,0
2,3,712654,249253,1547725,74089,8975,773363,0
2,3,716244,250650,1420200,74709,9862,709257,0
2,3,713163,248589,1455884,73575,9922,727521,0
2,3,707658,247876,1420790,73548,9039,710054,0
2,3,713066,248985,1486847,73920,8720,743036,0
2,3,711574,247882,1480981,73473,9161,740102,0
2,3,707626,248621,1420541,73442,8380,709856,0
2,3,707142,247844,1433535,74090,8571,716342,0
2,3,709463,247940,1440249,74033,9450,719770,0
2,3,707739,248052,1386400,74046,8357,692754,0
2,3,708958,248408,1465763,74161,9254,732560,0
2,-1,645573,221236,1346694,66827,7900,672521,0
2,3,717463,249638,1557170,74665,10998,777700,0
2,3,737159,254007,1606315,77852,10571,802708,0
2,3,716115,250978,1385538,75151,9508,692014,0
2,3,714599,248820,1441022,74293,9325,719893,0
2,3,715061,249286,1442406,74525,9357,720744,0
2,3,714983,249405,1357451,74397,8826,678235,0
2,3,716416,248800,1555268,74514,10254,777132,0
2,3,709804,248219,1357894,74211,8673,678470,0
3,3,703009,247711,1526035,73593,9281,762522,0
3,3,710510,248731,1355660,74030,8653,677238,0
3,3,712925,250015,1551380,74555,9651,774812,0
3,3,703252,248505,1457057,73979,8870,728114,0
3,3,706431,248645,1421627,73993,8683,710182,0
3,-1,636313,218948,1385305,65777,7261,692285,2
3,3,709233,248881,1423592,74031,9532,711278,0
3,3,707326,248954,1310388,74049,8367,654668,0
3,3,709078,248465,1347938,73939,8800,673202,0
3,3,714912,249719,1327824,74259,8421,663469,0
3,-1,638908,219015,1294630,65750,8200,646689,0
3,3,711062,249675,1380235,74248,8932,689630,0
3,3,710591,248740,1353118,73920,8959,675790,0
3,3,712288,248580,1523187,73641,10038,761057,0
3,3,712441,248594,1349991,73803,9008,674558,0
3,3,710493,248013,1520444,73550,9290,759672,0
3,3,733523,253032,1610345,76963,9699,804642,0
3,3,704553,248400,1473012,73329,9195,735973,0
3,3,709636,248779,1301165,74299,8334,650150,0
3,3,709164,247554,1626234,73924,9523,812701,0
3,3,706995,248493,1437363,74254,9305,718223,0
3,3,710381,248447,1491781,74209,10126,744371,0
3,-1,637105,218716,1208624,65765,6690,603804,0
3,3,711950,248412,1313686,74049,10110,656088,0
3,3,713818,249241,1435713,74533,9168,717253,0
3,3,712942,249614,1426752,74523,9772,712863,0
3,3,718543,250310,1407726,74992,9107,703117,0
3,3,715477,250471,1374365,75206,8923,686418,0
3,3,712101,248450,1442305,74070,9371,720709,0
3,3,717870,250083,1470273,75141,9213,734333,0
3,3,710007,248472,1411385,74282,8565,705291,0
4,3,711648,248346,1423677,73859,8359,711365,0
4,3,706097,247275,1402277,73522,8592,700687,0
4,3,708764,248027,1467432,73698,9254,733270,0
4,3,703842,249175,1328113,74238,8109,663589,0
4,3,710986,249092,1570203,74134,10454,783467,0
4,3,708552,248882,1326444,74033,8745,662731,0
4,3,705224,248053,1371588,73783,8381,685271,0
4,-1,636001,219340,1271754,65810,6948,635389,2
4,3,712077,249743,1374663,74526,9809,686464,0
4,-1,640041,219743,1249850,65981,8058,624881,0
4,3,714988,250169,1526489,74322,10027,762870,0
4,3,711576,249573,1541995,74116,9859,770735,0
4,3,711068,249479,1353535,74158,9381,676280,0
4,3,719083,251617,1469683,74928,9995,733896,0
4,3,710490,247946,1421465,73545,9046,710360,0
4,3,715496,250474,1490969,74695,8817,744708,0
4,3,717626,249082,1638254,73910,11001,818601,0
4,3,703902,248293,1448241,73328,8761,723631,0
4,3,707969,248448,1393965,74285,8872,696615,0
4,3,730787,252401,1561303,77282,10409,779973,0
4,3,706069,247520,1486052,73902,10082,742510,0
4,3,715162,249628,1330052,74775,9262,664336,0
4,-1,640010,220073,1388606,66301,7695,693601,0
4,3,710660,248092,1513891,73944,10202,756489,0
4,3,715507,250185,1504583,74785,9457,751765,0
4,3,712783,249358,1314444,74382,8568,656742,0
4,3,716125,249645,1491671,74588,9466,745267,0
4,3,733617,253327,1526598,77585,10002,762923,0
4,3,708963,248146,1427788,74046,9843,713471,0
4,3,714742,247801,1437971,74123,9955,718487,0
4,3,710931,248695,1388301,74307,9109,693405,0
5,3,711085,247941,1389628,73693,8767,694400,0
5,3,710395,248350,1375109,73955,9368,687112,0
5,3,711112,248813,1406962,73975,9131,703029,0
5,3,704881,249712,1395008,74599,8331,696893,0
5,3,708996,249499,1617684,74192,10255,808338,0
5,3,709009,248531,1301583,73948,8421,650349,0
5,3,727055,252928,1468229,77155,9800,733651,0
5,3,709466,248899,1328487,74015,9475,663766,0
5,-1,638664,218615,1278695,65553,8159,638957,0
5,3,712745,249728,1347639,74214,8440,673337,0
5,-1,644192,221877,1434191,66945,7965,716249,2
5,3,712215,249442,1502341,74078,9864,750526,0
5,3,708870,248707,1381406,73835,9426,689916,0
5,3,710575,248073,1435921,73462,9681,717493,0
5,3,716316,250638,1400042,74748,8676,699335,0
5,3,708929,248111,1409526,73663,8859,704246,0
5,3,719083,250066,1500167,74403,10277,749103,0
5,3,702105,247857,1444252,73139,9298,721644,0
5,3,710822,249722,1332826,74813,9449,665698,0
5,3,709614,248347,1356735,74223,8959,677716,0
5,3,708138,248939,1634514,74371,10898,816722,0
5,-1,635946,218186,1199035,65525,6626,598725,0
5,3,711903,248083,1415439,74094,9792,707257,0
5,3,712055,248262,1444645,74027,10403,721805,0
5,3,715194,250382,1390774,75086,8564,694263,0
5,3,718652,249947,1473330,74568,9530,736200,0
5,3,713162,248798,1543245,74247,8899,771123,0
5,3,710682,248879,1444359,74359,9247,721699,0
5,3,712515,248384,1363442,73999,8780,681119,0
5,3,719553,250267,1445786,75151,9580,722182,0
5,3,706269,247751,1477168,74061,9001,738099,0
6,3,731164,252416,1501715,76970,9893,750423,0
6,3,708070,247735,1484752,73689,8551,741933,0
6,3,714346,250541,1455707,74811,9102,727050,0
6,3,715676,248426,1406392,73947,8607,702753,0
6,3,711315,250417,1611792,74808,9706,805621,0
6,3,714764,251161,1361144,75069,9463,679570,0
6,3,705855,248803,1518233,74035,9505,758440,0
6,3,716836,251067,1346573,75049,10515,672454,0
6,-1,641566,218996,1323294,65725,8688,660697,0
6,3,714906,250854,1487252,74803,9211,742923,0
6,3,715264,250714,1507935,74721,9326,753629,0
6,-1,639631,218952,1268171,65707,7492,633601,2
6,3,711794,250193,1381673,74596,9445,689978,0
6,3,712947,249359,1511187,73938,10006,754973,0
6,3,732493,253089,1403905,77070,9402,701565,0
6,3,707541,248129,1262644,73699,8330,630803,0
6,3,714850,248391,1579275,73610,10138,789176,0
6,3,712874,250429,1353309,74305,8604,675909,0
6,3,709869,248611,1378858,74259,9847,688870,0
6,3,712596,248848,1393186,74393,9216,696075,0
6,3,706549,248836,1415417,74554,9437,707494,0
6,-1,636483,218416,1274146,65603,6979,636662,0
6,3,706877,247311,1419550,73731,9355,709228,0
6,3,718906,249849,1389756,74730,9202,693892,0
6,3,712513,249460,1504658,74578,9267,751726,0
6,3,716826,249847,1447041,74594,9519,722771,0
6,3,713604,248557,1464024,74172,8799,731496,0
6,3,717866,250610,1395780,75145,8886,696958,0
6,3,718380,251405,1484570,75411,9384,741477,0
6,3,711213,247156,1361290,73964,8984,680200,0
6,3,706575,247900,1387768,74054,8124,693432,0
7,3,707909,247606,1326051,73551,8603,662587,0
7,3,707319,247943,1458172,73750,9304,728656,0
7,3,704456,247125,1424898,73451,8568,711953,0
7,3,715161,248680,1363901,74059,8863,681582,0
7,3,708687,249167,1547734,74123,9188,773282,0
7,3,728935,253425,1312681,77348,9090,655786,0
7,3,704878,248951,1471260,74046,9083,735128,0
7,3,706392,247495,1376070,73584,8954,687473,0
7,-1,641297,218994,1367509,65585,8056,683360,0
7,3,710130,249510,1348308,74134,8376,673797,0
7,3,709264,249173,1497261,74009,9363,748248,0
7,3,711654,248742,1339675,73969,8917,669170,0
7,3,715386,250658,1546975,74544,10119,772042,0
7,3,708029,247804,1424152,73453,8285,711703,0
7,3,706269,248082,1323468,73610,9065,661270,0
7,3,713233,248421,1406463,73697,8959,702531,0
7,3,704897,247613,1357273,73082,8254,678195,0
7,3,707696,248122,1322842,74075,9047,661046,0
7,3,710939,248128,1448292,74102,9374,723719,0
7,3,713195,248595,1479105,74272,9039,739044,0
7,-1,641491,220998,1427140,66747,7258,712701,0
7,-1,636027,218755,1357959,65776,7634,678406,2
7,3,710817,249072,1532672,74392,10111,765826,0
7,3,714361,248706,1476497,74188,9366,737662,0
7,3,712899,249290,1564522,74546,10026,781754,0
7,3,715026,249460,1431261,74501,9393,715082,0
7,3,717788,250719,1350793,75191,8202,674524,0
7,3,715291,249981,1448706,74744,8851,723776,0
7,3,715890,249287,1305889,74337,7877,652478,0
7,3,711040,247871,1452589,74231,9409,725729,0
7,3,711460,250123,1462832,75094,8959,730466,0
8,3,708015,248234,1435014,73833,9055,717010,0
8,3,709936,249093,1491659,74361,9390,745083,0
8,3,707025,248487,1354778,73867,8441,676988,0
8,3,734135,252903,1335774,77243,9993,667429,0
8,3,707373,249041,1571852,74096,9319,785403,0
8,3,714881,249881,1553354,74526,9948,775646,0
8,3,707122,248899,1421944,74014,9440,710557,0
8,3,711173,248736,1530117,73956,9289,764675,0
8,-1,646088,221221,1393588,66676,8599,695888,0
8,3,708960,248342,1382871,73779,9227,691015,0
8,3,732448,254385,1470152,77558,9706,734575,0
8,3,715599,250731,1346504,74855,9985,672587,0
8,3,715972,248723,1516240,73687,10163,757652,0
8,3,708613,248123,1457950,73664,8639,728354,0
8,3,733628,253841,1433520,77316,9686,716365,0
8,3,720281,250856,1483846,74738,10078,740667,0
8,3,705349,247836,1424003,73145,9116,711666,0
8,3,706149,247773,1419389,73994,8590,709317,0
8,3,708770,248572,1444726,74306,9326,721803,0
8,3,716030,250184,1369498,75079,8845,683986,0
8,-1,657212,223780,1300813,69188,7747,649912,0
8,3,710973,248616,1466955,74216,9669,732983,0
8,3,737096,253434,1541677,77555,10594,770401,0
8,3,718915,252057,1372321,75825,9394,685291,0
8,-1,635824,218715,1201473,65696,7348,600243,2
8,3,713871,249240,1408799,74422,9328,703969,0
8,3,735584,254122,1498305,77841,9338,748654,0
8,3,712413,249335,1417313,74463,8765,708187,0
8,3,715185,249527,1344522,74466,8267,671745,0
8,3,718720,250307,1662108,75265,10257,830183,0
8,3,711563,248326,1326691,74257,8701,662853,0
9,3,730749,252653,1475763,77050,9837,737386,0
9,3,705118,247828,1378165,73729,8557,688680,0
9,3,707108,248484,1525034,73863,9109,761909,0
9,3,710929,248014,1448314,73844,8835,723501,0
9,3,705509,248784,1422447,74025,8435,710763,0
9,3,715132,251424,1595109,75193,10519,796556,0
9,3,708849,249928,1436000,74338,9502,717540,0
9,3,712489,249602,1446210,74254,9125,722698,0
9,-1,661640,223666,1316296,69004,8688,657756,0
9,3,716358,251129,1422018,75079,9785,710086,0
9,3,709870,249762,1470471,74281,9064,734707,0
9,3,713424,250312,1350118,74645,9714,674145,0
9,3,720329,250930,1496284,74760,9916,746766,0
9,3,707296,247934,1321072,73581,8930,660102,0
9,3,707628,247883,1349867,73538,8573,674423,0
9,3,713435,249104,1544497,73908,9273,771701,0
9,3,704440,248034,1551666,73183,9539,775370,0
9,3,710416,250074,1326219,75015,9039,662312,0
9,3,710852,247477,1431109,73960,9107,715116,0
9,3,731025,252502,1550559,77394,9955,774838,0
9,-1,636935,218428,1347576,65593,7890,673285,0
9,3,712870,249866,1339729,74881,9159,668849,0
9,3,712992,248621,1504538,74222,9880,751627,0
9,3,732517,253731,1493778,77859,9752,746473,0
9,3,718133,251109,1335208,75314,9052,666668,0
9,3,710180,248671,1428879,74278,8874,713881,0
9,3,708024,247729,1454436,73863,8913,726745,0
9,-1,638146,219511,1214185,66095,7379,606539,2
9,3,717558,250062,1368274,74861,9185,683378,0
9,3,739537,254322,1517454,78623,10494,758271,0
9,3,714469,249856,1490911,74914,9390,744993,0
10,3,708901,247984,1428805,73705,8404,713918,0
10,3,706750,248598,1389759,73976,9072,694436,0
10,3,711570,248567,1465016,73835,9555,732021,0
10,3,714573,249000,1498201,74173,8742,748566,0
10,3,708345,248155,1399748,73844,9472,699126,0
10,3,709434,248956,1422704,74090,9273,710561,0
10,3,705484,248595,1479221,73904,9930,740204,0
10,3,731577,253035,1435601,77160,9748,717140,0
10,-1,639187,218743,1261403,65638,8166,630217,0
10,3,730017,253039,1354268,77150,9351,676667,0
10,3,712419,251090,1452216,74853,10056,725377,0
10,3,715041,250631,1414026,74802,9454,706102,0
10,3,735609,253581,1464593,77098,10021,731784,0
10,3,710322,248764,1279457,73867,8763,639232,0
10,3,711903,249876,1287030,74408,8368,642791,0
10,3,713570,249307,1615248,74099,10488,806904,0
10,3,724742,252704,1529339,76553,9867,764503,0
10,3,725030,252390,1528070,77293,9984,763628,0
10,3,707750,247364,1432733,73860,9287,715949,0
10,3,711999,248360,1435722,74126,8438,717358,0
10,-1,633330,217890,1210189,65461,6297,604706,0
10,3,710478,248283,1448061,74175,10077,723355,0
10,3,713955,249392,1430412,74623,9718,714470,0
10,3,716117,250858,1299172,75379,9475,648588,0
10,3,735666,254214,1400826,77834,10777,699859,0
10,3,718296,249892,1400407,74661,9003,699643,0
10,3,717842,251699,1471667,75491,9536,735021,0
10,3,734190,253067,1562183,77441,9962,780657,0
10,3,712315,247932,1361102,74250,9181,679964,0
10,3,707644,247687,1400751,74047,9005,699933,0
11,3,713007,249586,1437075,74437,9395,716926,0
11,3,728395,252292,1426127,76979,9463,712625,0
11,3,710474,248139,1471316,73686,9343,735175,0
11,3,714371,249471,1418049,74322,9109,708520,0
11,3,714046,250856,1599330,75079,10228,798599,0
11,3,710657,249462,1433928,74215,8444,716187,0
11,3,704503,248389,1471729,73904,9057,735367,0
11,3,712879,249725,1500413,74343,9931,749550,0
11,-1,661608,223691,1266907,69025,8122,633027,0
11,3,709258,248523,1285791,73905,9183,642490,0
11,3,713161,249074,1533008,73905,9409,766115,0
11,3,730969,253514,1328467,77257,10150,663687,0
11,3,714678,248991,1466581,73819,9489,732733,0
11,3,706386,247707,1360734,73435,8687,679935,0
11,3,708731,248704,1295699,73850,8617,647356,0
11,3,712952,248887,1482379,73871,9307,740800,0
11,3,702631,248271,1434930,73342,9459,716971,0
11,3,711060,248454,1428824,74259,8656,713875,0
11,3,710254,248503,1427892,74305,8845,713392,0
11,3,709561,247986,1477650,74114,9972,738267,0
11,-1,639514,219665,1185530,66072,6717,592078,0
11,3,711989,248640,1443519,74274,11286,720887,0
11,3,711927,248807,1513149,74238,10062,756024,0
11,3,731137,253241,1439106,77732,10557,719098,0
11,3,712151,249476,1448749,74518,9935,723763,0
11,3,715484,249087,1619450,74389,10222,809240,0
11,3,734816,254292,1574606,77814,9742,786866,0
11,3,712518,248355,1651861,74048,9615,825438,0
11,3,709667,247586,1283157,74115,9006,641028,0
11,3,713695,250401,1478541,75302,9930,738762,0
12,3,707795,247621,1482412,73620,9086,740047,0
12,3,704803,247096,1420269,73380,9194,709708,0
12,3,711521,248987,1337812,74022,8688,668248,0
12,3,734047,252907,1430244,77238,9929,714680,0
12,3,728413,253006,1572054,77200,9574,785476,0
12,3,707975,248777,1350345,74033,8734,674563,0
12,3,706153,249601,1427900,74488,8685,713341,0
12,3,707982,248205,1369128,73806,8144,683942,0
12,-1,639723,219297,1163854,65745,6578,581385,0
12,3,711850,249773,1326822,74549,9200,662667,0
12,3,711754,248816,1500772,73887,9495,749780,0
12,3,708559,248690,1356502,73979,9497,677666,0
12,3,712457,248682,1472310,73728,9884,735574,0
12,3,732913,252581,1388221,76896,9345,693656,0
12,3,706883,248022,1263200,73631,8780,631093,0
12,3,714243,249212,1631062,73940,9793,814211,0
12,3,708453,249735,1358400,73935,9130,678527,0
12,3,711551,248369,1363108,74183,8447,681136,0
12,3,707777,248025,1424129,74125,8873,711653,0
12,3,710616,249332,1268374,74548,8658,633655,0
12,-1,639734,220402,1272708,66573,8123,635539,0
12,3,712588,248661,1515949,74221,10573,757463,0
12,3,712563,248260,1547120,74076,9929,773156,0
12,3,715666,249135,1462306,74565,9887,730605,0
12,3,714574,250434,1366212,74992,9334,682366,0
12,3,736251,253819,1556967,77693,10345,777941,0
12,3,712560,249568,1368911,74462,8306,683880,0
12,3,715273,250299,1387226,74919,9001,692903,0
12,3,714675,247940,1393272,74268,9734,696162,0
12,3,729964,253123,1462369,77715,9859,730669,0
13,3,708069,247672,1427544,73448,9303,713424,0
13,3,711384,249407,1468480,74388,9121,733398,0
13,3,715175,250337,1518979,74650,9288,758889,0
13,3,713566,249410,1567013,74448,9682,782827,0
13,3,709440,249490,1455326,74251,9162,727230,0
13,3,710848,249931,1483548,74589,9511,740978,0
13,3,704027,249278,1281286,74184,7719,640167,0
13,3,708317,248918,1408956,74001,8409,704068,0
13,-1,638301,218704,1204430,65578,7049,601801,0
13,3,713270,248534,1346596,73720,8462,672878,0
13,3,717219,251388,1433349,75012,9766,715943,0
13,3,707243,248671,1325839,73994,9740,662382,0
13,3,713804,249069,1509069,73818,8277,754006,0
13,3,711231,248263,1426478,73697,9222,712743,0
13,3,705657,247776,1344575,73433,9178,671694,0
13,3,716960,250287,1509401,74626,9202,753538,0
13,3,705479,248463,1449991,73401,8829,724429,0
13,3,734824,256530,1437363,76647,8868,718103,0
13,3,706578,247513,1410884,73840,8398,704953,0
13,-1,635455,218833,1208000,65806,6863,603516,0
13,3,714447,249700,1343239,74874,8968,670534,0
13,3,715178,250156,1469072,75105,9903,733716,0
13,3,711283,247851,1548976,73836,9497,773764,0
13,3,720502,251212,1408499,75501,9340,703551,0
13,3,716661,249993,1493692,74701,9467,746183,0
13,3,712660,248522,1351665,74177,8877,675265,0
13,3,713575,250482,1442930,75033,9511,720716,0
13,3,712733,248739,1431937,74231,8786,715482,0
13,3,714604,247832,1384199,74194,9468,691671,0
13,3,712664,249648,1443489,74970,8693,721114,0
14,3,710048,248824,1704353,73849,9866,852269,0
14,3,705616,247832,1401483,73638,8487,700338,0
14,3,711236,248561,1470445,73850,8911,735129,0
14,3,715270,249239,1385722,74264,9590,692278,0
14,3,706844,249075,1319173,74212,8627,659072,0
14,3,705192,248046,1346381,73796,8446,672671,0
14,3,714728,248453,1375782,73879,8487,687447,0
14,3,729032,253437,1389110,77313,9147,694023,0
14,-1,639082,219416,1154872,65839,6959,576880,0
14,3,713125,249095,1465179,73933,8782,732066,0
14,3,734602,254568,1399303,77523,9699,699132,0
14,3,726881,253117,1390078,77229,9729,694479,0
14,3,713263,248827,1462149,73850,10153,730595,0
14,3,710171,248220,1408461,73652,8792,703843,0
14,3,704830,248280,1421137,73715,8566,710086,0
14,3,711708,247853,1454790,73526,9282,727257,0
14,3,725174,252990,1606850,76579,9732,802942,0
14,3,715567,250297,1326131,75019,8276,662409,0
14,3,706099,247543,1498213,73918,9143,748675,0
14,-1,634470,218860,1220235,65782,7235,609673,0
14,3,731013,252845,1424563,77508,10337,712239,0
14,3,709726,248436,1382468,74246,8473,690373,0
14,3,716837,250258,1509340,74989,9498,753851,0
14,3,735199,253691,1523488,77847,10649,761436,0
14,3,733044,254291,1508558,77965,9630,753801,0
14,3,735757,253849,1613285,77742,9538,806023,0
14,3,711309,250213,1459095,74781,8902,728956,0
14,3,712367,248504,1341145,74090,8644,670152,0
14,3,715130,248490,1468969,74382,10262,733927,0
14,3,707053,248088,1393138,74239,8183,696039,0
15,3,710160,247955,1493187,73494,9223,746603,0
15,3,707690,248410,1442240,73875,9481,720628,0
15,3,731632,253657,1335559,77320,9677,667404,0
15,3,712195,249055,1452690,74208,9417,725896,0
15,3,706153,248253,1326179,73938,8456,662553,0
15,3,712488,249735,1493079,74249,9340,745977,0
15,3,713507,249087,1409003,74084,9084,704081,0
15,3,710699,248776,1361554,73946,8736,680286,0
15,-1,641306,220318,1216060,66329,7615,607364,0
15,3,715604,250492,1489830,74615,9276,744203,0
15,3,711072,248827,1324959,73765,8537,662088,0
15,3,710494,249258,1387535,74167,8903,693167,0
15,3,712756,248914,1350728,73934,9373,674788,0
15,3,711107,248438,1492118,73798,8973,745454,0
15,3,713690,247548,1383169,73431,8374,691172,0
15,3,714930,250201,1469602,74484,9370,733981,0
15,3,703380,248320,1341130,73247,9061,670112,0
15,3,709535,248266,1466007,74226,8738,732471,0
15,3,745039,259229,1435642,77777,9544,717043,0
15,-1,639376,218799,1176275,65785,7258,587625,0
15,3,710119,248498,1243941,74221,8064,621606,0
15,3,708352,247915,1486993,74002,8983,743088,0
15,3,710057,248151,1451400,73982,9408,725219,0
15,3,715352,248818,1466048,74459,9590,732542,0
15,3,712783,249348,1345748,74551,8945,672217,0
15,3,712581,249094,1428858,74392,8565,713846,0
15,3,715877,249212,1431832,74401,9364,715432,0
15,3,710815,248110,1418198,73878,8528,708620,0
15,3,711629,247278,1390176,73916,9636,694644,0
15,3,707717,248209,1508477,74324,9067,753753,0
16,3,709847,248429,1425380,73738,9830,712261,0
16,3,709907,250298,1514995,74820,9485,756616,0
16,3,711676,249397,1379903,74267,10014,689156,0
16,3,715085,249590,1443259,74305,9507,720966,0
16,3,704508,248047,1435484,73831,8520,717360,0
16,3,708438,248533,1395254,73933,8972,697182,0
16,3,708994,248017,1440977,73705,8743,720006,0
16,3,712122,249077,1446439,74087,10126,722655,0
16,-1,638741,219264,1177850,65788,7233,588438,0
16,3,711974,248865,1480467,73923,8879,739881,0
16,3,710057,249230,1474220,73945,9256,736700,0
16,3,713948,248635,1352572,73994,9827,675725,0
16,3,711868,248550,1360888,73764,9635,680023,0
16,3,708714,248248,1422923,73653,8235,710979,0
16,3,717253,249824,1391101,74328,9608,694895,0
16,3,709407,248192,1540957,73632,8961,769723,0
16,3,707831,250216,1348100,74065,8755,673190,0
16,3,708786,248021,1468819,74069,8948,734017,0
16,3,711930,247973,1376984,74054,8850,688145,0
16,-1,637046,218299,1160958,65580,6861,579995,0
16,3,709289,248453,1405662,74255,8611,702397,0
16,3,711799,249345,1471746,74527,9350,734878,0
16,3,715059,249991,1403681,74804,9245,701101,0
16,3,714205,249242,1545195,74628,9781,772068,0
16,3,711442,249430,1556958,74582,8994,777747,0
16,3,712385,248705,1436768,74218,9197,717862,0
16,3,737936,254365,1543385,77892,9904,771383,0
16,3,711174,248888,1379961,74262,8963,689636,0
16,3,718813,250402,1575570,75287,9958,786827,0
16,3,705887,247893,1357975,74158,8349,678751,0
17,3,731172,253314,1518786,77126,9774,758416,0
17,3,705932,247957,1470050,73671,9036,734561,0
17,3,709964,248789,1394130,73898,9175,696569,0
17,3,716852,250991,1508112,75155,9899,753311,0
17,3,706673,248416,1429616,74001,8624,714326,0
17,3,707851,248999,1632289,74097,10161,816247,0
17,3,710818,248941,1389637,74103,9201,694383,0
17,3,711288,249132,1439853,74085,9866,719234,0
17,-1,637733,218480,1155182,65510,6801,577223,0
17,3,711578,248404,1343653,73683,8020,671397,0
17,3,739720,259670,1339420,77081,8852,669252,0
17,3,710407,248416,1290140,73905,9143,644463,0
17,3,716903,251060,1374270,74850,9114,686168,0
17,3,710480,248413,1496440,73726,9227,747792,0
17,3,713567,248235,1451936,73689,9469,725572,0
17,3,708401,248136,1369727,73609,8490,684269,0
17,3,707875,247826,1424001,73079,9024,711626,0
17,3,714174,250389,1374985,75159,8509,686736,0
17,3,711508,248362,1475788,74201,9185,737393,0
17,-1,637116,218527,1163802,65664,7048,581472,0
17,3,708067,247743,1478634,73984,9651,738919,0
17,3,708929,248262,1437445,74197,9549,718180,0
17,3,708445,248056,1480011,73969,9369,739484,0
17,3,715633,249894,1478359,74860,8482,738677,0
17,3,713487,250094,1493619,74822,9284,746236,0
17,3,711973,249038,1452914,74409,9265,725870,0
17,3,715112,249508,1388406,74503,9028,693961,0
17,3,710055,249129,1541803,74364,9905,770207,0
17,3,759369,261349,1863367,80161,11757,931275,0
17,3,728973,252620,1485242,77536,10432,742250,0
18,3,709418,248695,1458984,73878,9495,728959,0
18,3,704923,247686,1366180,73608,8259,682787,0
18,3,710586,249441,1482274,74151,9105,740708,0
18,3,729455,252683,1414396,77189,9683,706769,0
18,3,708111,249277,1401783,74282,8481,700244,0
18,3,706636,248923,1480542,74031,9351,739842,0
18,3,716740,250261,1467522,74784,8966,732989,0
18,3,708600,248234,1514431,73777,9235,756753,0
18,-1,638487,219208,1208602,65790,7284,603870,0
18,3,711678,248741,1471989,73875,8040,735575,0
18,3,709018,248956,1387773,73799,9182,693454,0
18,3,713526,248325,1403043,73814,9956,701006,0
18,3,737970,257285,1385173,76254,9835,692164,0
18,3,710801,248689,1364992,73872,8728,682026,0
18,3,712073,247928,1616076,73531,9818,807508,0
18,3,714393,248881,1421015,73845,8938,709911,0
18,3,728271,253186,1465815,76632,9760,732470,0
18,3,728608,252592,1507560,77412,9438,753242,0
18,3,714058,249898,1373409,74937,8239,686040,0
18,-1,637170,218619,1235451,65736,6625,617007,0
18,3,709353,248570,1598086,74315,9774,799201,0
18,3,709753,248642,1383035,74310,9256,691228,0
18,3,711446,248474,1335550,74093,8837,666932,0
18,3,715111,249328,1470869,74643,9748,734844,0
18,3,713805,249078,1402814,74431,8662,700969,0
18,3,712863,249693,1444800,74586,8974,721793,0
18,3,719464,250873,1367949,75196,8993,683168,0
18,3,713838,248209,1393081,73987,9304,696114,0
18,3,714868,248392,1666583,74425,11132,832351,0
18,3,705473,248000,1410058,74192,9029,704589,0
19,3,708511,248155,1523764,73657,9239,761438,0
19,3,705911,248192,1437100,73803,9279,718034,0
19,3,715931,251286,1574806,75055,9943,786362,0
19,3,711751,247856,1439273,73765,9243,719110,0
19,3,705955,248878,1302527,74156,7749,650815,0
19,3,707432,248619,1488115,73899,9224,743701,0
19,3,712888,249005,1396580,74032,8697,697882,0
19,-1,641696,220637,1209948,66513,7151,604109,0
19,3,732341,253478,1667894,77285,11180,833460,0
19,3,711797,248573,1431836,73801,8881,715547,0
19,3,713145,250589,1364953,74457,9115,681914,0
19,3,717585,250532,1437625,74866,9522,717962,0
19,3,713775,249561,1478449,74140,9628,738722,0
19,3,729757,253077,1410944,77043,9197,705026,0
19,3,711703,248289,1438092,73652,9840,718763,0
19,3,734832,252588,1518368,76875,10386,758800,0
19,3,704973,247908,1311284,73198,8757,655211,0
19,3,713726,250898,1427465,75384,9823,712810,0
19,-1,636229,218295,1409829,65546,7960,704475,0
19,3,712694,248593,1394379,74308,8649,696749,0
19,3,715535,250064,1347406,74989,8944,672992,0
19,3,706840,247962,1488833,73962,9509,743971,0
19,3,713655,248222,1426446,74008,9717,712474,0
19,3,721110,251658,1371092,75684,9047,684821,0
19,3,714995,250127,1373666,74820,8529,686333,0
19,3,737294,253452,1548644,77573,11028,773879,0
19,3,714241,249156,1376468,74345,8916,687863,0
19,3,716349,249827,1440154,74787,9228,719299,0
19,3,710741,247761,1414917,74099,9691,707016,0
19,3,709769,249840,1504604,75040,9873,751597,0
20,3,729559,252528,1509581,76944,10116,754185,0
20,3,706879,248306,1291594,73834,8569,645200,0
20,3,729628,252943,1430056,77118,9887,714503,0
20,3,712519,248111,1424050,73831,8642,711526,0
20,3,709645,250774,1415709,75040,9002,707046,0
20,3,711077,250171,1520919,74671,9158,759906,0
20,3,708283,247960,1311485,73754,8077,655296,0
20,-1,657195,223340,1245680,68905,7856,622397,0
20,3,710883,249507,1572946,74219,10413,785646,0
20,3,712327,249628,1439131,74187,8975,719123,0
20,3,729796,254034,1563982,77345,9892,781397,0
20,3,709820,248155,1341011,73729,8236,670089,0
20,3,717092,250393,1433312,74561,10462,715825,0
20,3,706432,247874,1395579,73535,8177,697285,0
20,3,714190,248507,1459271,73781,8947,729157,0
20,3,711441,247627,1379339,73444,9049,689282,0
20,3,713142,250620,1284623,74377,8928,641414,0
20,3,704679,247881,1540914,74074,9292,769958,0
20,-1,639188,219823,1343946,66283,7507,671221,0
20,3,710179,247823,1365269,74016,8326,682136,0
20,3,707320,247876,1361624,74026,8651,680328,0
20,3,711162,250219,1348623,75119,9565,673509,0
20,3,713738,248729,1482359,74223,9676,740767,0
20,3,713279,249047,1442406,74537,8810,720836,0
20,3,710490,248774,1437379,74334,8675,718224,0
20,3,715918,249191,1416041,74444,9264,707568,0
20,3,714482,249643,1453615,74500,9390,726456,0
20,3,734611,253681,1520210,77595,9477,759691,0
20,3,711975,248298,1713700,74318,10142,856338,0
20,3,708383,247801,1308693,74126,8120,653946,0
21,3,708670,248503,1308446,73821,8627,654106,0
21,3,712757,251068,1399709,74975,9460,699102,0
21,3,708074,248622,1474464,73840,8599,736792,0
21,3,716145,249815,1498592,74630,9979,748530,0
21,3,704666,248687,1402245,74111,9743,700676,0
21,3,711040,248967,1459541,74095,9696,728899,0
21,3,711288,249319,1387506,74218,8676,693183,0
21,-1,640841,219415,1311992,65925,6889,655433,0
21,3,710322,248652,1454547,73910,9589,726860,0
21,3,710921,249524,1407620,74138,8524,703099,0
21,3,710621,248904,1380149,73763,9571,689630,0
21,3,715418,249799,1495376,74510,10384,746602,0
21,3,711864,248663,1365052,73836,9027,681863,0
21,3,708275,248544,1410454,73801,8351,704663,0
21,3,709757,247839,1306943,73539,8361,653009,0
21,3,715885,249400,1607671,73987,9455,803265,0
21,3,707539,248843,1573354,73518,8622,786197,0
21,3,705932,248053,1507356,74093,9992,753203,0
21,-1,636552,219143,1255418,65881,6798,627264,0
21,3,710504,248334,1347108,74244,8496,673032,0
21,3,708508,247809,1445127,73946,9265,722135,0
21,3,709253,248596,1369246,74257,8944,684157,0
21,3,711908,248390,1363486,74020,10618,681239,0
21,3,715113,249914,1391945,74814,9181,695463,0
21,3,711911,249770,1475958,74716,9337,737179,0
21,3,715126,248986,1556075,74380,9823,777456,0
21,3,716149,249984,1360898,74703,9350,679933,0
21,3,711862,248685,1403462,74147,8249,701297,0
21,3,716535,249719,1488455,74986,9924,743646,0
21,3,712103,248265,1515690,74312,9346,757384,0
22,3,705166,247637,1430785,73429,9735,714179,0
22,3,724527,252262,1414660,76909,10463,706800,0
22,3,708622,248993,1400111,73993,8718,699184,0
22,3,711463,248363,1324890,73989,8935,661664,0
22,3,701593,248009,1421302,73831,9341,710249,0
22,3,712670,249942,1489789,74338,9232,744938,0
22,3,708954,248366,1277000,73861,8098,638071,0
22,-1,636679,218338,1235683,65571,6530,617429,0
22,3,710359,248631,1474672,73822,10594,736696,0
22,3,713966,249395,1377070,74106,9083,688033,0
22,3,712080,249994,1501808,74232,9819,750381,0
22,3,711690,248275,1455679,73789,10499,726567,0
22,3,709780,248728,1351108,73802,8994,675212,0
22,3,713371,250259,1389896,74611,8694,694125,0
22,3,713369,248773,1443110,73887,9425,721015,0
22,3,712849,248249,1398109,73632,9464,698319,0
22,3,704020,248028,1426754,73088,8677,712948,0
22,3,708141,247654,1542288,73960,10075,770759,0
22,-1,634082,218214,1248269,65523,7067,623632,0
22,3,708976,247740,1452199,73983,9197,725689,0
22,3,713031,249982,1360100,75024,9104,679315,0
22,3,709182,248342,1400024,74209,9734,699553,0
22,3,730796,252502,1450228,77230,11151,724152,0
22,3,712330,249580,1555397,74767,9297,777152,0
22,3,717962,251072,1442833,75301,8508,720476,0
22,3,716099,249879,1365270,74894,9192,681877,0
22,3,717510,250363,1375732,74783,9639,687132,0
22,3,710897,248656,1368478,74158,9007,683803,0
22,3,710578,247890,1435629,74195,9516,717234,0
22,3,717772,250901,1518424,75504,9655,758412,0
23,3,707348,248615,1551322,74068,9720,774559,0
23,3,705167,248556,1301916,73839,8793,650087,0
23,3,713014,250533,1438490,74611,9435,718614,0
23,3,710813,248086,1444283,73844,8944,721727,0
23,3,707118,247992,1387099,73848,8472,692959,0
23,3,707981,248947,1316702,74120,8969,658092,0
23,3,715346,250289,1353783,74714,9219,676218,0
23,-1,638936,219096,1275823,65849,6858,637494,0
23,3,710277,248858,1447099,74028,10377,722666,0
23,3,707001,247199,1427121,73367,8551,713112,0
23,3,716992,251368,1431752,74844,9753,715179,0
23,3,712603,248878,1322307,74055,9162,660706,0
23,3,713644,249244,1454849,73965,9697,726879,0
23,3,707209,248242,1347948,73644,8151,673561,0
23,3,712987,248765,1329549,73828,8964,664274,0
23,3,711919,248286,1431518,73702,9036,715332,0
23,3,727942,253025,1468961,76562,9491,733944,0
23,3,713660,250498,1424986,75214,9892,711632,0
23,-1,638844,219249,1414543,65851,7479,706880,0
23,3,731342,253172,1667429,77585,10408,833232,0
23,3,707797,248318,1384478,74242,8729,691682,0
23,3,709579,248829,1383889,74387,9110,691497,0
23,3,709789,248334,1316997,74164,9977,657933,0
23,3,731320,253532,1551101,77781,11853,775033,0
23,3,712872,249643,1538338,74656,9192,768570,0
23,3,713903,248395,1362686,74078,8499,680868,0
23,3,714957,249840,1440366,74537,9016,719419,0
23,3,707418,247594,1371798,73861,9121,685383,0
23,3,737812,252633,1495798,77565,10359,747492,0
23,3,731719,252763,1475829,77600,9179,737455,0
24,3,706279,248372,1495701,73779,9655,747015,0
24,3,709486,248152,1313086,73717,9312,655995,0
24,3,712271,249556,1451190,74075,8978,725084,0
24,3,710626,248174,1473902,73862,9495,736465,0
24,3,729853,252905,1415324,77258,9441,707234,0
24,3,708457,247998,1451306,73692,9280,724965,0
24,-1,635761,218459,1187481,65645,6958,593273,0
24,3,711169,248543,1367807,73978,8773,683205,0
24,3,708120,249025,1448416,74072,9289,722791,0
24,3,714602,250467,1470172,74691,9459,734404,0
24,3,711528,249557,1329580,74078,8880,664294,0
24,3,713449,249150,1427094,74113,8782,713065,0
24,3,714036,249141,1382743,74132,9108,690770,0
24,3,711914,248323,1493631,73646,9466,746385,0
24,3,710054,248390,1394969,73748,9077,697028,0
24,3,710917,248217,1399473,73628,9122,699273,0
24,3,707264,248274,1363092,73157,8123,681186,0
24,-1,658671,223356,1336687,69113,8275,667892,0
24,3,704177,247575,1491701,73937,9492,745403,0
24,3,711509,248162,1459878,74101,9417,729553,0
24,3,707265,247993,1365795,74089,8855,682557,0
24,3,707273,248250,1371119,74200,8797,685074,0
24,3,715296,249773,1416802,74664,9536,707463,0
24,3,714679,249019,1454777,74526,9422,726739,0
24,3,711259,249498,1340583,74569,8384,669878,0
24,3,716779,250068,1499027,74712,8946,749011,0
24,3,735917,254820,1669258,78008,10395,833990,0
24,3,716714,250471,1366902,74920,9055,682786,0
24,3,715753,248472,1368590,74401,8920,683795,0
24,3,707873,248062,1385814,74296,8932,692281,0
25,3,708013,247937,1452029,73548,9449,725555,0
25,3,709883,247871,1270636,73567,8252,634852,0
25,3,711895,248768,1351269,73816,8738,675244,0
25,3,716123,250338,1548362,74873,10497,773466,0
25,3,708452,248489,1520720,74043,9074,759957,0
25,3,710501,249285,1345297,74222,8863,672114,0
25,-1,635322,218327,1286920,65614,7237,643034,0
25,3,711589,248452,1408636,73895,8636,703815,0
25,3,732166,257896,1427351,76735,8937,712787,0
25,3,714329,250184,1443999,74557,9609,721379,0
25,3,731681,254398,1382247,77437,9639,690669,0
25,3,708767,247795,1311114,73599,8825,655152,0
25,3,709319,248090,1453107,73683,9111,726011,0
25,3,710637,248257,1340894,73702,8973,670074,0
25,3,709905,248335,1469035,73676,9393,734029,0
25,3,709359,248292,1283444,73661,8179,641212,0
25,3,705858,248429,1492087,73259,8560,745580,0
25,-1,634627,218371,1238197,65652,6409,618632,0
25,3,712267,250656,1420823,75212,9691,709670,0
25,3,710311,248182,1455462,74158,9864,726875,0
25,3,707663,247999,1454429,74121,9544,726418,0
25,3,716848,249330,1388926,74729,9646,694059,0
25,3,713790,248916,1506842,74233,9974,752934,0
25,3,717456,250573,1370235,75134,9602,684404,0
25,3,714314,250668,1332277,75188,8532,665305,0
25,3,713274,249112,1486919,74376,9053,742996,0
25,3,714372,249660,1480288,74553,9480,739478,0
25,3,714304,250069,1354800,74580,8971,676884,0
25,3,712846,247712,1386312,74079,8437,692734,0
25,3,708890,247724,1339567,74108,8676,669399,0
26,3,711256,248636,1336644,73821,8572,667876,0
26,3,707071,247695,1250248,73461,8578,624679,0
26,3,713119,249605,1453104,74144,8547,726073,0
26,3,731965,253009,1508615,77320,10248,753802,0
26,3,708855,248855,1366261,74089,8606,682619,0
26,3,729379,253646,1514737,77443,10803,757065,0
26,-1,636089,219121,1208001,65886,6091,603518,0
26,3,716248,250937,1715031,75060,10265,856951,0
26,3,715592,250705,1463492,74865,9533,731055,0
26,3,707811,248371,1371125,73705,8942,685022,0
26,3,710121,249911,1465113,74148,9626,731817,0
26,3,710202,248927,1467413,74072,9082,733229,0
26,3,717108,251453,1471596,75062,9368,734927,0
26,3,731057,252920,1460314,77012,9670,729765,0
26,3,719336,250979,1392175,74834,9334,694974,0
26,3,713417,248610,1443057,73804,9184,721026,0
26,3,706052,248093,1411164,73167,8566,705103,0
26,-1,634421,218542,1345493,65608,7000,672298,0
26,3,706763,248050,1536884,74124,9468,767990,0
26,3,715242,250331,1402146,75060,9749,700023,0
26,3,713435,249600,1332126,74815,8477,665398,0
26,3,709958,246499,1483113,73626,9407,741038,0
26,3,710643,247969,1372168,73917,9074,685749,0
26,3,713217,249446,1418908,74526,9589,708900,0
26,3,715269,251672,1321809,75607,9935,660099,0
26,3,717568,250699,1379576,75194,8974,688867,0
26,3,716401,249334,1464107,74362,9907,731653,0
26,3,710892,248578,1345501,74077,9174,672236,0
26,3,716187,249149,1484675,74762,9427,741649,0
26,3,707337,247705,1487428,74158,9634,743274,0
27,3,712810,249582,1469591,74310,8962,734071,0
27,3,714854,250183,1355974,74628,9797,677158,0
27,3,713434,250358,1501475,74509,9272,750185,0
27,3,715732,249405,1573047,74448,10975,785595,0
27,3,711138,250111,1514373,74751,9158,756436,0
27,3,707932,248793,1249433,74048,8415,624188,0
27,-1,639673,220497,1345923,66488,6529,672174,0
27,3,732834,254063,1422030,77552,9646,710686,0
27,3,730623,253328,1460968,77320,9409,730000,0
27,3,711751,249050,1286963,74003,8565,642832,0
27,3,711315,250255,1374152,74291,9217,686680,0
27,3,710774,249154,1430798,74057,8790,715071,0
27,3,710035,248529,1471337,73869,9567,735071,0
27,3,706947,248039,1451775,73608,9106,725359,0
27,3,718017,250436,1387116,74574,9356,692875,0
27,3,711779,248135,1333824,73667,8701,666363,0
27,3,705697,248233,1449422,73185,9090,724300,0
27,-1,639405,220109,1354063,66351,7317,676329,0
27,3,705739,248683,1422985,74357,8392,711099,0
27,3,708195,248358,1436181,74270,9675,717221,0
27,3,710623,249072,1388254,74394,8545,693721,0
27,3,715353,249122,1498910,74526,9796,748857,0
27,3,732411,253021,1551840,77370,10796,775593,0
27,3,712390,249145,1513197,74431,10356,756054,0
27,3,728018,252534,1438017,77351,10050,718633,0
27,3,734046,253584,1494292,77653,9633,746653,0
27,3,718672,250972,1409945,75131,8884,704251,0
27,3,717780,251603,1430218,75520,11221,713962,0
27,3,716168,249730,1388312,75024,9095,693398,0
27,3,708662,247936,1448139,74167,8568,723539,0
28,3,707243,248089,1418635,73611,8776,708846,0
28,3,734820,253730,1382048,77833,10031,690632,0
28,3,735707,258206,1494548,76596,8869,746828,0
28,3,712032,248423,1427126,73987,10022,713034,0
28,3,710584,248564,1455804,74000,8665,727474,0
28,3,706769,248794,1382872,74060,8680,690928,0
28,-1,638302,218646,1299368,65694,6903,649246,0
28,3,714864,250531,1466268,74784,9179,732474,0
28,3,714244,250664,1450891,74814,9541,724758,0
28,3,711165,249608,1378624,74130,9269,688508,0
28,3,708282,249467,1541936,73992,9390,770500,0
28,3,709265,247994,1399860,73582,8948,699509,0
28,3,712570,249814,1430647,74485,9137,714515,0
28,3,710523,248644,1470065,73820,8935,734392,0
28,3,710466,248067,1432182,73664,9247,715552,0
28,3,730959,252262,1516951,76736,10159,758091,0
28,-1,635696,218930,1361771,65797,7152,680392,0
28,3,710063,250612,1351767,74268,9075,675056,0
28,3,705788,247971,1302079,74175,8897,650513,0
28,3,716543,251144,1514667,75465,9296,756286,0
28,3,707158,248059,1418430,74061,8235,708893,0
28,3,710938,248003,1479148,74040,9479,739043,0
28,3,708696,248088,1482183,73981,10215,740473,0
28,3,712600,248853,1450288,74368,9960,724564,0
28,3,711210,250215,1272550,74825,8864,635673,0
28,3,712300,249201,1348334,74440,8842,673967,0
28,3,713028,249059,1378376,74197,8385,688725,0
28,3,709445,248799,1349178,74233,8984,674134,0
28,3,712341,248293,1404667,74266,9070,701905,0
28,3,706759,247091,1461095,73930,9472,730187,0
29,3,709776,248920,1424775,73903,9035,711938,0
29,3,707126,247712,1378884,73580,8159,688901,0
29,3,711378,249468,1437382,74086,9394,718154,0
29,3,709618,247858,1481100,73767,10849,740147,0
29,3,706167,248524,1325250,74061,8288,662097,0
29,-1,637831,218792,1228163,65735,7069,613682,0
29,3,711779,250272,1474208,74730,8540,736239,0
29,3,711695,249570,1420816,74280,9098,709922,0
29,3,710027,249416,1411281,74223,9020,705224,0
29,3,707519,248333,1273968,73624,8379,636694,0
29,3,715789,250346,1449437,74298,8699,724102,0
29,3,715184,250002,1481041,74516,9087,739787,0
29,3,711284,248758,1325110,73939,8575,662047,0
29,3,709384,248445,1373668,73719,8823,686168,0
29,3,709027,247834,1408223,73538,8912,703693,0
29,3,713170,249053,1495504,73957,9003,747131,0
29,-1,634872,219033,1386619,65820,7496,692791,0
29,3,704865,248487,1408006,73277,9176,703545,0
29,3,706520,248798,1436180,74302,9363,717626,0
29,3,729140,252744,1569795,77447,10145,784523,0
29,3,710746,250229,1373099,75069,8520,685640,0
29,3,733958,252829,1507660,77510,10515,753412,0
29,3,713207,249594,1494217,74673,10251,746136,0
29,3,712876,249248,1362884,74548,10002,680960,0
29,3,715195,249028,1329450,74456,9333,664124,0
29,3,713181,248706,1453524,74210,8741,726172,0
29,3,713408,249807,1479008,74501,9247,738971,0
29,3,721874,250264,1411904,74915,9152,705247,0
29,3,714738,249241,1421991,74598,9072,709760,0
29,3,707423,247545,1358637,74055,8575,678535,0
29,-1,642749,220730,1264005,66676,6878,631435,0
30,3,707643,248547,1446587,73745,8573,722861,0
30,3,707067,247919,1353599,73643,8607,676311,0
30,3,710041,248493,1334588,73730,8423,666837,0
30,3,712286,249640,1518852,74584,10093,758508,0
30,3,706954,248345,1376231,73903,9159,687611,0
30,-1,635703,218432,1191215,65726,6385,595150,0
30,3,706336,248408,1516372,73858,8349,757678,0
30,3,707907,248191,1321586,73806,8110,660354,0
30,3,710250,248814,1452845,74031,8869,725918,0
30,3,712688,250037,1363296,74466,8981,680845,0
30,3,718953,249809,1332634,74174,8645,665779,0
30,3,710315,248589,1337390,73862,8686,668217,0
30,3,714960,250604,1430680,74806,9324,714480,0
30,3,709183,248573,1439657,73745,9173,719419,0
30,3,732539,253122,1332296,77102,10035,665733,0
30,3,709902,247906,1490221,73533,8936,744475,0
30,-1,657345,222629,1319924,68791,7771,659549,0
30,3,706752,248925,1455576,73412,8842,727252,0
30,3,709594,249828,1366258,74995,9393,682350,0
30,3,713609,249592,1491509,74825,9989,745221,0
30,3,707883,248508,1402702,74291,9184,700830,0
30,3,710768,247825,1369350,74097,8827,684207,0
30,3,713621,248520,1494839,74093,9409,746783,0
30,3,712334,249283,1363749,74481,9837,681289,0
30,3,721300,250933,1358599,75272,9728,678605,0
30,3,713766,249208,1510119,74479,9297,754521,0
30,3,717498,250915,1395522,75193,9092,696919,0
30,3,720868,250173,1448100,74645,9584,723620,0
30,3,711746,247558,1357271,74016,8918,678023,0
30,3,708311,248546,1369070,74359,8359,684026,0
30,-1,639868,218809,1179210,65892,6883,589147,0
31,3,715390,250475,1471328,74736,9006,734977,0
31,3,706078,247463,1451732,73518,9145,725329,0
31,3,707727,248467,1503980,73725,8550,751579,0
31,3,708680,248405,1395569,74029,9915,697159,0
31,3,705691,248823,1459407,74131,8298,729205,0
31,-1,634598,218175,1302573,65581,6886,650856,0
31,3,710517,250916,1424828,74948,8819,711658,0
31,3,712419,250379,1432484,74764,9050,715620,0
31,3,713093,250388,1498759,74736,9400,748670,0
31,3,709688,249480,1499761,74042,9231,749434,0
31,3,722851,251784,1432838,75069,9540,715631,0
31,3,711262,248711,1331996,73885,9295,665590,0
31,3,732396,253827,1403547,77375,9158,701284,0
31,3,710657,249057,1396979,73951,9291,697924,0
31,3,710032,248651,1386952,73834,8447,693026,0
31,3,715343,250423,1361043,74583,8850,679861,0
31,-1,638022,219210,1209381,65923,7203,604196,0
31,3,704025,247797,1458610,72979,8960,728854,0
31,3,709477,248050,1332879,74110,8776,665976,0
31,3,712162,248594,1528235,74300,10232,763407,0
31,3,734422,258254,1415443,77187,9753,707198,0
31,3,712884,248529,1410404,74245,8764,704733,0
31,3,712544,248219,1517054,74019,10019,758039,0
31,3,709998,248716,1480516,74260,9863,739852,0
31,3,716095,249232,1346111,74549,9847,672512,0
31,3,717631,250708,1359079,75070,8781,678619,0
31,3,738420,258208,1523956,77033,9554,761441,0
31,3,719534,249686,1420231,74535,9959,709652,0
31,3,711831,248218,1496150,74268,10517,747495,0
31,3,712837,250145,1440692,75233,9247,719547,0
31,-1,640163,219175,1203457,65958,6359,601399,0
32,3,708978,247493,1501785,73434,8784,750413,0
32,3,707178,247706,1469357,73623,8399,734352,0
32,3,709011,249424,1470015,74100,8499,734474,0
32,3,709049,248484,1441229,73983,9792,720121,0
32,3,705355,248593,1469024,74040,8562,734168,0
32,-1,646856,223331,1346031,66999,7609,672106,0
32,3,708088,248386,1426412,73803,8087,712525,0
32,3,709974,249025,1473146,74062,8977,736102,0
32,3,727690,253165,1530114,77231,10102,764714,0
32,3,705694,248133,1445205,73558,9009,722138,0
32,3,718807,250477,1462282,74369,9657,730588,0
32,3,709418,248955,1343876,73932,8365,671515,0
32,3,710327,249116,1496178,74077,8982,747426,0
32,3,708086,248241,1246436,73646,8199,622878,0
32,3,708150,247842,1428023,73522,8938,713787,0
32,3,711247,248308,1438255,73677,9431,718623,0
32,-1,638624,219811,1355873,66317,7824,677180,0
32,3,705047,249384,1397057,73754,9002,697854,0
32,3,713741,248743,1493514,74573,10648,746580,0
32,3,711604,249397,1466923,74788,9653,732734,0
32,3,712948,248846,1385054,74409,8895,692054,0
32,3,710662,248087,1430973,74169,9215,714899,0
32,3,716496,250462,1401453,75129,9864,699879,0
32,3,741744,260357,1455894,78103,9689,727168,0
32,3,715169,249264,1562782,74488,9531,781016,0
32,3,713240,249949,1345555,74636,8426,672286,0
32,3,712048,249456,1514705,74542,9105,756813,0
32,3,742048,254571,1657547,77908,10004,828351,0
32,3,709345,247643,1298286,73969,9098,648723,0
32,3,705795,248327,1449798,74404,8353,724219,0
32,-1,640664,219720,1257773,66143,6542,628279,0
33,3,711322,249419,1498942,74279,9083,748681,0
33,3,715455,250910,1506746,74978,9785,752451,0
33,3,710800,249366,1351457,74066,9092,675261,0
33,3,711349,248060,1391233,73835,9471,694961,0
33,3,714530,250514,1564927,75006,9219,781495,0
33,-1,671961,231972,1281980,69132,6793,640634,0
33,3,740890,260756,1587834,78016,9585,793079,0
33,3,708031,248924,1363572,74048,8634,681238,0
33,3,708018,249424,1539212,74229,10344,769157,0
33,3,711606,251017,1515491,74881,9333,757041,0
33,3,715697,249429,1370730,73977,8801,684928,0
33,3,709391,248430,1468349,73729,9433,733757,0
33,3,707267,248074,1485214,73668,8914,742021,0
33,3,708053,248546,1303071,73785,8609,651070,0
33,3,714699,251048,1394982,74894,8786,696804,0
33,3,715444,250675,1408942,74766,9217,703520,0
33,-1,635437,218631,1398820,65752,7296,698855,0
33,3,707812,248890,1465920,73357,8538,732578,0
33,3,710969,248512,1444068,74221,9784,721637,0
33,3,708309,247896,1429787,74021,9148,714466,0
33,3,708788,247437,1450551,73857,8850,724836,0
33,3,709009,247238,1400262,73835,9904,699639,0
33,3,713308,249017,1492470,74303,9524,745736,0
33,3,731661,253547,1525294,77598,10477,762208,0
33,3,720780,251499,1429286,75527,9649,713794,0
33,3,712169,250028,1348875,74854,8454,673389,0
33,3,715519,251147,1344589,75308,8931,671320,0
33,3,716049,248865,1371240,74231,8957,685128,0
33,3,717619,250187,1374579,75081,9568,686279,0
33,3,710271,247695,1484172,74123,9049,742013,0
33,-1,641341,219876,1238659,66171,6975,618878,0
34,3,709041,248302,1434900,73863,8990,716865,0
34,3,707273,248040,1318238,73711,7915,658670,0
34,3,711046,250800,1456447,74843,9221,727319,0
34,3,715309,249851,1510896,74639,9632,754627,0
34,3,730494,253276,1486027,77375,9449,742561,0
34,-1,686810,235849,1400420,70290,7558,699746,0
34,3,728539,253405,1359110,77332,9195,678487,0
34,3,712882,250261,1461530,74680,9502,730015,0
34,3,709484,249224,1437640,74195,8941,718287,0
34,3,715121,249865,1494297,74209,9054,746693,0
34,3,717637,249691,1515167,74165,9325,757109,0
34,3,708895,248386,1478544,73740,8958,738802,0
34,3,709117,248209,1578446,73770,9571,788758,0
34,3,707662,248830,1402360,73903,8453,700581,0
34,3,729387,252558,1666845,76827,9910,832989,0
34,3,732177,252899,1503198,77001,9486,751133,0
34,-1,635218,218954,1276809,65799,6421,637949,0
34,3,709733,249623,1398960,73840,8275,698538,0
34,3,710624,248040,1337410,74070,8696,668265,0
34,3,711787,249210,1556476,74688,9838,776622,0
34,3,712161,248962,1405931,74419,8768,702424,0
34,3,710622,248011,1309898,74152,8946,654369,0
34,3,710542,248394,1462772,74127,9546,731176,0
34,3,712786,250189,1543616,74766,9540,771166,0
34,3,736565,253719,1529574,77768,10594,764343,0
34,3,713777,248846,1432540,74294,9403,715673,0
34,3,709551,249127,1498503,74427,9301,748737,0
34,3,714746,248395,1347839,73985,9107,673459,0
34,3,712032,248993,1297954,74545,8774,648196,0
34,3,709013,247999,1432597,74259,9182,715599,0
34,-1,645864,220958,1288548,66663,7824,643615,0
35,3,706858,248127,1416324,73790,8325,707698,0
35,3,706314,247914,1425827,73741,8636,711979,0
35,3,715629,249068,1366847,74026,8767,682965,0
35,3,710858,248370,1340108,73990,9185,669622,0
35,3,707536,248148,1431070,73868,8394,715180,0
35,-1,695328,237045,1308385,70599,8064,653741,0
35,3,707572,248812,1541972,74056,10108,770183,0
35,3,707483,248780,1336039,73960,8672,667512,0
35,3,710456,248285,1494933,73776,9436,746828,0
35,3,711516,248809,1406964,73836,8488,702947,0
35,3,714568,249717,1386174,74082,9493,692637,0
35,3,713726,248616,1505806,73872,9400,752350,0
35,3,712864,249993,1484643,74544,9088,741708,0
35,3,707953,248271,1470808,73598,8933,734724,0
35,3,707324,248006,1613609,73642,9038,806310,0
35,-1,633635,218804,1279962,65754,6955,639470,0
35,3,708652,248356,1398877,73666,8740,699040,0
35,3,726734,252800,1482194,76475,9525,740503,0
35,3,707682,247513,1431324,73947,9716,715219,0
35,3,707977,248343,1685794,74183,9791,841960,0
35,3,707847,248308,1572348,74200,10440,785193,0
35,3,709372,248512,1292127,74265,8880,645519,0
35,3,711659,248836,1420889,74411,10081,709648,0
35,3,712762,250334,1465688,75026,9906,732134,0
35,3,714381,249297,1435176,74475,8948,717068,0
35,3,713112,248899,1422659,74292,9521,710733,0
35,3,714010,250333,1483162,74982,9141,740584,0
35,3,721571,251222,1387840,75281,10233,694116,0
35,3,711618,247988,1458839,74012,8330,728665,0
35,-1,644017,219874,1158939,65984,6905,579083,0
35,3,735797,257432,1427587,77043,8492,712672,0
36,3,712701,250241,1452398,74782,8817,725449,0
36,3,704965,247674,1446592,73608,8150,722730,0
36,3,714306,248938,1371208,73982,9027,685144,0
36,3,711535,248998,1422217,74188,8769,710670,0
36,-1,699756,239155,1400617,71592,8953,699520,0
36,3,705733,247928,1431274,73796,8802,715180,0
36,3,709838,249746,1597526,74286,9774,797505,0
36,3,713331,249258,1411681,74187,9270,705457,0
36,3,712554,249148,1411877,74115,8913,705434,0
36,3,710239,248383,1425884,73753,8581,712448,0
36,3,722158,251549,1454519,74953,9358,726451,0
36,3,711307,247993,1451039,73612,9907,725145,0
36,3,708858,248351,1358302,73755,9713,678548,0
36,3,728027,253452,1394792,77092,9939,696712,0
36,3,716338,249626,1390662,74340,8849,694651,0
36,-1,637071,219138,1274490,65846,7428,636844,0
36,3,709662,248069,1504618,73564,9605,751781,0
36,3,706060,248776,1400208,73385,9456,699548,0
36,3,710427,249126,1388893,74671,8883,693772,0
36,3,711491,248879,1600519,74331,10313,799834,0
36,3,707331,248580,1672369,74207,10980,835779,0
36,3,717910,250388,1417222,75284,9315,707515,0
36,3,710323,248584,1538101,74195,9862,768626,0
36,3,710861,249768,1503322,74635,10478,751196,0
36,3,717340,249367,1381955,74576,9612,690463,0
36,3,734267,253936,1392924,77704,9988,696033,0
36,3,709783,249656,1424799,74548,9351,711806,0
36,3,740093,254783,1456038,77926,10882,727632,0
36,3,717077,249920,1721732,74995,10852,860176,0
36,-1,645948,221257,1230206,66780,7144,614281,0
36,3,708341,248382,1455170,74376,8673,727017,0
37,3,729325,253092,1423484,77210,9799,711395,0
37,3,705503,248207,1491646,73830,8772,745310,0
37,3,717075,250281,1471480,74576,9532,735060,0
37,3,731823,252465,1439980,77071,9817,719495,0
37,-1,718699,243059,1377600,74363,8966,688379,0
37,3,706870,248757,1436695,74104,8663,717889,0
37,3,710248,250290,1642137,74711,10208,819641,0
37,3,717273,251030,1465488,75001,9140,731923,0
37,3,710283,248594,1461589,73882,9128,730217,0
37,3,711588,249337,1402166,73987,9196,700551,0
37,3,739804,254841,1433601,77591,9908,716329,0
37,3,709368,247880,1293820,73674,8786,646406,0
37,3,707254,248766,1422040,73894,9450,710374,0
37,3,710940,248496,1470830,73690,8991,734944,0
37,3,710765,248092,1536150,73577,9891,767665,0
37,-1,636332,219208,1257549,65916,7643,628267,0
37,3,708199,248332,1338403,73734,8912,668504,0
37,3,715088,251560,1514263,74581,10402,756198,0
37,3,713821,249016,1475346,74433,10046,737189,0
37,3,713787,250294,1487431,75110,9667,743651,0
37,3,716040,250745,1450544,75271,9801,724271,0
37,3,710280,248576,1405030,74344,9599,702044,0
37,3,707304,247509,1428943,73799,8943,713667,0
37,3,715175,249201,1459755,74416,9341,729302,0
37,3,715427,249341,1452465,74579,9537,725642,0
37,3,713189,248620,1549098,74141,9257,773882,0
37,3,714606,249257,1526014,74450,9782,762520,0
37,3,716406,250056,1486547,74710,8603,742781,0
37,3,734119,253407,1470883,77613,9283,734969,0
37,-1,657549,222812,1195672,68870,7659,597383,0
37,3,728994,252637,1487748,77575,9970,743392,0
38,3,726329,253026,1458083,77197,9600,728725,0
38,3,729228,252353,1433593,77004,9550,716526,0
38,3,713386,248961,1323325,73978,9227,661378,0
38,3,712368,249070,1583106,74154,9531,791037,0
38,-1,690775,235996,1281070,70331,7486,640067,0
38,3,725933,252932,1563327,77287,9548,781291,0
38,3,706499,248940,1449896,74037,9205,724325,0
38,3,732558,253161,1395500,77270,9281,697308,0
38,3,714887,251003,1520532,74991,10111,759477,0
38,3,711405,249135,1416534,74001,9025,707763,0
38,3,719141,251202,1545093,74788,10264,771859,0
38,3,707352,247559,1440714,73404,9274,719917,0
38,3,737851,253991,1336429,77418,10052,667682,0
38,3,710004,248527,1568346,73723,9514,783673,0
38,3,717782,251019,1388890,74921,9452,693724,0
38,-1,633733,218247,1174163,65580,6776,586565,0
38,3,715134,250323,1412247,74649,9452,704969,0
38,3,704373,248604,1373915,73318,9146,686283,0
38,3,710529,248200,1654628,74165,10372,826801,0
38,3,707225,248055,1460972,74036,9513,729530,0
38,3,730945,252997,1719017,77502,11245,858861,0
38,3,707863,247055,1468913,73826,8929,733991,0
38,3,715319,250156,1359904,75097,8816,679243,0
38,3,713109,249209,1429895,74508,9794,714118,0
38,3,719547,251293,1444014,75398,9220,720959,0
38,3,717548,251040,1449479,75262,9230,723967,0
38,3,718082,250824,1380150,75213,9587,689202,0
38,3,714549,248671,1353239,74193,8638,676157,0
38,3,711642,247556,1444103,73894,9140,721789,0
38,-1,640173,219670,1206911,66151,6738,602935,0
38,3,706707,247897,1325419,74184,8041,662155,0
39,3,704050,247797,1327471,73752,7680,663270,0
39,3,709191,248460,1350364,73936,8835,674494,0
39,3,711351,248284,1345024,73702,9037,672080,0
39,3,709600,247698,1472949,73675,9250,736001,0
39,-1,692905,237199,1309654,70700,8243,654356,0
39,3,706197,248711,1573064,74108,8847,785967,0
39,3,706890,249496,1322003,74273,8272,660452,0
39,3,709349,248575,1316779,73981,8627,657898,0
39,3,732756,253126,1434416,77185,9813,716834,0
39,3,711842,249207,1440956,73952,8978,720011,0
39,3,717530,250212,1490266,74229,10138,744348,0
39,3,732220,253788,1398422,77357,9750,698873,0
39,3,714575,249471,1340235,74186,9726,669682,0
39,3,716354,250953,1477042,74694,9165,737764,0
39,3,711685,248661,1482923,73817,8869,740983,0
39,-1,634997,219128,1252474,65861,7656,625776,0
39,3,735168,252639,1470397,76847,10249,734705,0
39,3,704325,248592,1426892,73257,9342,712920,0
39,3,708765,247713,1304887,73906,8875,652079,0
39,3,709090,248851,1464676,74395,9696,731780,0
39,3,707220,247809,1537017,73978,9845,767835,0
39,3,712190,249473,1370874,74892,8824,684295,0
39,3,711769,249161,1447959,74427,9138,723425,0
39,3,712127,249313,1443301,74576,9366,721058,0
39,3,735943,254237,1560113,77927,10701,779547,0
39,3,709578,248424,1441760,74090,9231,720375,0
39,3,733925,253249,1519473,77538,11036,759257,0
39,3,713415,249228,1426619,74332,8745,712987,0
39,3,711808,248302,1359536,74210,8637,679288,0
39,-1,641966,219761,1321944,66380,8053,660353,0
39,3,710474,249732,1485698,75004,8696,742070,0
40,3,738241,260340,1491760,76892,9279,745373,0
40,3,706141,247415,1430699,73541,8951,714904,0
40,3,712712,248404,1382068,73793,8383,690492,0
40,3,730176,253120,1421435,77334,9867,710085,0
40,-1,691331,236884,1286656,70556,7889,642921,0
40,3,711264,250477,1494483,74868,9361,746400,0
40,3,709135,250054,1414269,74624,9047,706191,0
40,3,710913,249588,1393164,74486,9023,695958,0
40,3,710997,248966,1523467,74049,9450,761072,0
40,3,731036,253498,1426298,77210,9277,712759,0
40,3,713652,249405,1736071,73903,10417,867352,0
40,3,710984,248541,1444748,73830,9313,721842,0
40,3,712136,248193,1369430,73726,10016,684205,0
40,3,711452,249481,1383758,74025,8392,691408,0
40,3,712218,248958,1537253,73876,9135,768004,0
40,-1,641080,221026,1347826,66750,8170,672647,0
40,3,712059,247772,1328995,73516,9270,664108,0
40,3,707329,250300,1440181,74118,9528,719043,0
40,3,711735,249135,1455907,74462,9566,727538,0
40,3,706902,248083,1504263,74141,9028,751718,0
40,3,709011,248401,1533005,74162,10336,765657,0
40,3,710947,248153,1343348,74175,9024,671144,0
40,3,708596,248538,1468168,74296,9473,733381,0
40,3,718141,251280,1460201,75360,8998,729426,0
40,3,716182,250454,1370920,75116,9099,684641,0
40,3,710765,248963,1433596,74262,9556,716314,0
40,3,715282,249959,1402514,74692,9543,700790,0
40,3,740081,254448,1580818,77867,9869,789941,0
40,3,713509,249382,1427792,74718,9091,713250,0
40,-1,638720,218851,1353189,65831,7909,676130,0
40,3,707787,247921,1427313,74197,9548,713220,0
41,3,763015,266430,1509543,78660,9457,754314,0
41,3,708161,247994,1384102,73747,9083,691515,0
41,3,711486,248247,1281842,73679,8616,640440,0
41,3,707146,248210,1454700,73922,9240,726686,0
41,-1,697996,239985,1355550,71982,8272,676898,0
41,3,705570,248277,1395011,73937,8532,697066,0
41,3,704509,248556,1511451,73999,9440,755441,0
41,3,713418,250883,1329713,74997,9265,664091,0
41,3,709162,248657,1477338,73848,8766,738207,0
41,3,715192,250419,1513505,74685,10031,756091,0
41,3,722152,252503,1627131,75272,10330,812353,0
41,3,713376,250375,1438397,74698,9423,718657,0
41,3,713248,249045,1313534,74023,9200,656178,0
41,3,710502,248966,1442662,73834,9169,720838,0
41,3,738791,258598,1454772,76986,8619,726608,0
41,-1,653648,222740,1351793,68755,8340,675506,0
41,3,717370,250127,1334778,74480,9462,666774,0
41,3,724877,253331,1492697,76638,10435,745919,0
41,3,710334,249036,1359292,74630,9373,678994,0
41,3,707816,248422,1317338,74296,8764,658318,0
41,3,711427,249733,1582315,74833,10118,790635,0
41,3,713583,249511,1284607,74763,8680,641572,0
41,3,713673,249352,1458642,74720,9487,728503,0
41,3,710882,248976,1427938,74447,10074,713441,0
41,3,713872,249820,1438023,74698,9188,718435,0
41,3,708598,248452,1439649,74088,9355,719353,0
41,3,717322,250578,1412700,75071,10452,704683,0
41,3,716764,249795,1546020,74560,9408,772185,0
41,3,711868,248517,1422189,74208,8706,710682,0
41,-1,638754,218988,1294365,65838,6918,646750,0
41,3,704731,247473,1548840,74067,9085,773821,0
42,3,768151,267793,1549460,79347,10395,773985,0
42,3,708027,248251,1378854,73756,8718,688906,0
42,3,716305,250785,1339436,74843,8728,668884,0
42,-1,692917,237391,1250567,70817,7908,624798,0
42,3,712958,249255,1451689,74208,9562,725449,0
42,3,704538,248202,1473194,73821,8440,736206,0
42,3,706691,249484,1356729,74201,8915,677900,0
42,3,713771,250061,1361148,74632,9260,679755,0
42,3,709604,248593,1397894,73931,8829,698580,0
42,3,710862,249535,1454021,74175,8735,726557,0
42,3,735165,254414,1400841,77432,10317,699691,0
42,3,708922,248113,1433912,73646,9280,716641,0
42,3,710854,248374,1362659,73717,9457,680829,0
42,3,709011,248633,1366623,73731,8480,682791,0
42,-1,635229,220263,1326339,66420,7018,662439,0
42,3,710556,248105,1396629,73648,9210,697890,0
42,3,712052,247537,1512887,73348,9199,756088,0
42,3,705714,248082,1346573,73091,8362,672843,0
42,3,706765,247814,1372315,74003,9443,685825,0
42,3,713641,248543,1314016,74292,9268,656475,0
42,3,707170,247845,1577390,74028,9682,788025,0
42,3,708644,248010,1425385,74092,9452,712189,0
42,3,708561,247883,1474833,74057,10129,736653,0
42,3,731899,252896,1645164,77510,11544,821956,0
42,3,714141,249873,1356021,74637,8962,677527,0
42,3,715868,248898,1499386,74132,9845,749218,0
42,3,710551,248919,1445273,74220,9296,722203,0
42,3,716584,249356,1435369,74359,8681,717155,0
42,3,710878,247940,1333533,73975,8598,666299,0
42,-1,643420,221247,1308728,66897,7633,653530,0
42,3,708618,248189,1410477,74273,8978,704715,0
43,3,762009,266507,1345678,78721,8258,672238,0
43,3,709274,249037,1404252,74090,8932,701706,0
43,3,713276,248782,1286309,73933,8907,642701,0
43,-1,696469,238929,1379691,71419,7675,689229,0
43,3,710426,248232,1374055,73909,10073,686485,0
43,3,704740,248977,1440263,74190,8830,719685,0
43,3,728240,254043,1425617,77516,9207,712345,0
43,3,706874,248531,1667489,73859,9706,832951,0
43,3,708583,248783,1403704,74000,8825,701286,0
43,3,709928,248499,1509319,73791,9842,753864,0
43,3,715592,250857,1550410,74487,10128,775145,0
43,3,716837,250780,1419891,74858,9740,709242,0
43,3,713801,248531,1281351,73868,9592,640182,0
43,3,714797,250108,1478949,74331,10042,738664,0
43,-1,641745,218376,1213719,65533,7050,606400,0
43,3,717206,250924,1401085,74818,9113,699810,0
43,3,709934,247633,1417484,73458,9818,708116,0
43,3,709766,250218,1418445,74021,8749,708576,0
43,3,715490,249939,1331656,74948,9134,665039,0
43,3,711259,248075,1263482,74087,8917,631271,0
43,3,708244,248609,1652589,74289,10887,825248,0
43,3,714621,250495,1328286,75185,8637,663101,0
43,3,712407,250173,1298386,75046,10154,648188,0
43,3,712110,249040,1389117,74538,9917,694127,0
43,3,715451,249902,1381865,74787,8937,690488,0
43,3,715576,249423,1462699,74421,9729,730765,0
43,3,735550,253645,1570625,77669,10984,785743,0
43,3,714596,249005,1499732,74297,9965,749396,0
43,3,708797,247863,1306130,74013,8453,652399,0
43,-1,657188,223042,1275059,68993,8066,637200,0
43,3,712472,250339,1424039,75276,9109,711196,0
44,3,785938,271776,1596860,82250,11333,797958,0
44,3,709231,249118,1466900,74323,9442,732600,0
44,3,717381,250467,1378271,74684,8418,688354,0
44,-1,711914,241396,1474078,73853,8303,736588,0
44,3,712843,249546,1340494,74340,9388,669653,0
44,3,705777,247997,1341732,73818,8867,670454,0
44,3,712686,248585,1448705,73977,9213,723817,0
44,3,730297,253299,1370673,77290,9280,684831,0
44,3,708777,248013,1462993,73697,8816,731128,0
44,3,707291,248365,1522794,73711,8544,761041,0
44,3,716247,249952,1487669,74359,9880,743033,0
44,3,712063,249198,1370103,74076,10026,684514,0
44,3,712732,248734,1347387,74004,10376,673333,0
44,3,708650,248711,1458146,73726,10163,728580,0
44,-1,642740,219094,1331396,65847,7827,665292,0
44,3,709596,248337,1471750,73719,9201,735435,0
44,3,720946,251671,1319499,75137,10222,658876,0
44,3,704264,248039,1533882,73144,8819,766318,0
44,3,709463,248081,1351548,74109,9607,675287,0
44,3,713554,249167,1260583,74701,8832,629634,0
44,3,712361,250491,1326471,75259,8015,662348,0
44,3,708976,249194,1465455,74465,10039,732016,0
44,3,714684,248429,1341984,74201,9637,670340,0
44,3,712981,249512,1491974,74645,9855,745492,0
44,3,713145,248575,1553888,74204,9411,776427,0
44,3,715385,249706,1430759,74424,8962,713697,0
44,3,730334,253363,1519156,77576,10397,759082,0
44,3,741774,258554,1467344,77196,9373,733247,0
44,-1,639718,219066,1242743,65944,7292,620923,0
44,3,711580,249090,1443408,74524,9324,721073,0
44,3,706703,247932,1479282,74156,9315,739182,0
45,3,762791,266334,1459134,78697,9947,729033,0
45,3,706193,248176,1388865,73879,8442,693954,0
45,3,709445,248257,1381406,73747,8194,690257,0
45,-1,690116,237346,1375372,70782,7106,687281,0
45,3,731773,253082,1414545,77322,10337,706817,0
45,3,726052,253321,1465569,77387,9699,731880,0
45,3,711385,249035,1284441,74147,8968,641553,0
45,3,706307,248075,1451596,73766,8615,725174,0
45,3,706433,248411,1420886,73863,9063,709930,0
45,3,711416,250375,1604652,74619,9281,801480,0
45,3,716680,249873,1293736,74167,9047,646333,0
45,3,711180,248927,1275425,73953,8852,637228,0
45,3,716544,250834,1362515,74979,9343,680291,0
45,-1,648147,221654,1381586,66949,8141,689888,0
45,3,712169,249884,1410488,74104,9782,704720,0
45,3,712336,249462,1453390,74271,9195,725926,0
45,3,710790,247881,1489146,73586,9697,744145,0
45,3,701788,247543,1414631,72898,8584,706828,0
45,3,707560,247508,1532082,73921,9671,765657,0
45,3,709520,248010,1394680,74050,9217,696844,0
45,3,710823,248159,1336936,74105,9262,667917,0
45,3,711383,248275,1523708,74096,10355,761326,0
45,3,713463,247851,1383504,73987,10422,691425,0
45,3,711170,248845,1499904,74506,10049,749349,0
45,3,714002,249471,1572851,74613,9331,785890,0
45,3,714807,248846,1475964,74066,10132,737448,0
45,3,710352,249529,1341057,74479,9082,669933,0
45,3,720109,251293,1318777,75391,9080,658676,0
45,-1,638490,218489,1346913,65776,7637,673009,0
45,3,713394,249055,1438425,74378,9083,718690,0
45,3,708040,249053,1332113,74737,8784,665401,0
46,3,763306,266542,1475071,78706,9674,737074,0
46,3,704349,247844,1446717,73655,8845,722769,0
46,3,717687,251533,1531066,75193,9324,764707,0
46,-1,694535,237527,1352712,70843,7816,675930,0
46,3,736514,257508,1536866,76665,10258,768082,0
46,3,704005,248268,1513798,73956,8898,756386,0
46,3,708569,248315,1389069,73855,9263,693993,0
46,3,708570,249325,1357089,74226,8291,678007,0
46,3,711584,249884,1514204,74559,9270,756439,0
46,3,707767,248504,1435602,73783,9163,716551,0
46,3,716275,249946,1502488,74143,8735,750844,0
46,3,711378,249578,1500673,74331,10246,749510,0
46,3,732306,253483,1344395,77331,9672,671630,0
46,-1,640666,218718,1254127,65726,7126,626590,0
46,3,711633,250463,1580617,74590,10690,789476,0
46,3,708376,248578,1335902,73819,8839,667393,0
46,3,711253,248120,1464019,73632,9154,731366,0
46,3,705769,248314,1473971,73173,8743,736617,0
46,3,707808,248020,1463887,74104,9375,731415,0
46,3,711115,248180,1424131,74126,9975,711401,0
46,3,711235,249050,1473351,74444,9414,736181,0
46,3,714459,249959,1423665,74970,8971,710935,0
46,3,711750,248168,1259802,74052,8294,629535,0
46,3,710173,248281,1444260,74131,9207,721714,0
46,3,715420,249751,1446415,74685,9475,722767,0
46,3,735474,253810,1500377,77594,10485,749688,0
46,3,714153,249191,1401624,74416,9773,700290,0
46,3,735529,254016,1423887,77808,10112,711458,0
46,-1,639067,218652,1297981,65759,6665,648565,0
46,3,709177,247788,1305606,73919,8129,652290,0
46,3,707720,248371,1564043,74352,9667,781537,0
47,3,761444,266682,1497046,78807,9436,747996,0
47,3,722222,251485,1370547,76716,9175,684817,0
47,3,708965,247981,1383135,73669,8652,690970,0
47,-1,693785,237492,1378070,70803,7946,688522,0
47,3,711981,248920,1405849,74173,9494,702262,0
47,3,709125,248489,1343091,74036,9178,671030,0
47,3,710869,248506,1404189,73961,9319,701587,0
47,3,712267,250680,1460953,74813,9248,729774,0
47,3,706074,247693,1445086,73729,9202,722004,0
47,3,712493,249597,1373397,74288,8235,686297,0
47,3,721004,252005,1556492,75134,9647,777376,0
47,3,711797,249431,1583951,74110,10306,791793,0
47,3,707062,247743,1333719,73640,9049,666327,0
47,-1,641691,218812,1274348,65717,7921,636709,0
47,3,710202,250037,1508165,74372,9834,753342,0
47,3,712458,249300,1372954,74037,9660,685975,0
47,3,732806,253073,1518927,77056,9895,758961,0
47,3,709271,250417,1342815,74179,8759,670650,0
47,3,711137,249824,1477370,74955,9940,737917,0
47,3,712281,249123,1854883,74706,10321,925349,0
47,3,704951,247567,1307751,73929,8832,653396,0
47,3,731349,252513,1485137,77311,10374,742194,0
47,3,716494,249202,1390284,74383,9074,694612,0
47,3,709976,249311,1438963,74483,9415,719051,0
47,3,715094,249744,1353172,74640,8716,676139,0
47,3,716232,250295,1373555,74685,8469,686209,0
47,3,712210,249397,1443957,74501,9784,721327,0
47,3,716706,248961,1386071,74341,10141,692091,0
47,-1,642351,220308,1412875,66620,8003,705667,0
47,3,715445,250609,1435074,75169,9400,716904,0
47,3,710810,248649,1440655,74440,9171,719064,0
48,3,761765,266845,1431677,78782,8859,715462,0
48,3,703272,248467,1273088,73950,7770,635960,0
48,-1,690762,236839,1245630,70547,7012,622411,0
48,3,710593,248714,1428735,73812,8865,713970,0
48,3,711150,248678,1521407,73986,9483,760169,0
48,3,709300,248979,1480531,74190,9432,739772,0
48,3,716734,251375,1573217,75105,9305,785630,0
48,3,708746,248404,1418224,73848,9533,708669,0
48,3,713241,250760,1562812,75027,9376,780544,0
48,3,710589,248977,1424043,74050,9024,711674,0
48,3,716069,250396,1547926,74289,9057,773421,0
48,3,709088,249021,1572163,74052,10081,784693,0
48,3,707032,248044,1354493,73775,9199,676612,0
48,-1,638790,218176,1176164,65526,7116,587594,0
48,3,708208,249558,1412600,74051,8926,705673,0
48,3,710112,247965,1300072,73562,8879,649586,0
48,3,732807,253205,1589962,77098,9351,794467,0
48,3,703424,248281,1451638,73211,8697,725311,0
48,3,728648,252825,1640946,77445,10509,820108,0
48,3,732923,253466,1521980,77659,10380,760536,0
48,3,706445,248584,1451375,74272,8902,725156,0
48,3,711343,248416,1409675,74225,8897,704388,0
48,3,711624,248881,1441010,74193,9414,720046,0
48,3,708598,249343,1442248,74574,9246,720599,0
48,3,712407,248874,1473287,74368,9382,736188,0
48,3,719633,250718,1407173,75030,9533,702825,0
48,3,711870,249384,1425093,74493,9338,711955,0
48,3,715604,249202,1331159,74460,8991,664822,0
48,-1,636979,218603,1265079,65746,7006,631902,0
48,3,717100,249009,1474024,74286,9308,736503,0
48,3,709704,248618,1486856,74430,9746,742922,0
49,3,764360,267168,1504354,78978,9709,751514,0
49,3,712181,248921,1358866,74199,9482,678806,0
49,-1,697129,239552,1376093,71762,7741,687320,0
49,3,713410,249782,1364597,74151,8751,681768,0
49,3,708795,248134,1582562,73913,9887,790722,0
49,3,706486,247873,1382203,73809,8910,690817,0
49,3,709272,248900,1414814,74009,8291,706913,0
49,3,708961,249103,1423383,74092,8569,711240,0
49,3,730524,253989,1496154,77513,9449,747855,0
49,3,716350,251241,1545126,75076,10102,771612,0
49,3,714433,249808,1368802,74110,8268,684009,0
49,3,709522,248614,1489853,73856,9333,744393,0
49,3,713962,248914,1288517,74067,9368,643595,0
49,-1,644945,220690,1311743,66572,7472,655175,0
49,3,718744,249457,1452072,73943,8869,725507,0
49,3,709730,248438,1371297,73728,8770,685061,0
49,3,710482,247878,1381534,73472,9211,690389,0
49,3,703088,248821,1410603,73401,9717,704752,0
49,3,707938,247615,1450228,73850,10174,724654,0
49,3,708309,247952,1481424,73992,9860,740194,0
49,3,709345,249723,1334888,74854,9601,666790,0
49,3,712682,249166,1432338,74498,9578,715705,0
49,3,714175,248693,1486762,74167,9982,742825,0
49,3,711085,249004,1438012,74463,10157,718530,0
49,3,717599,251372,1430402,75487,9107,714429,0
49,3,716162,249663,1454711,74432,9150,726822,0
49,3,707082,247973,1415313,73930,8753,707116,0
49,3,713558,248921,1453957,74343,9861,726538,0
49,-1,638920,219375,1192461,65947,7166,595786,0
49,3,716260,248287,1675378,74042,11075,837255,0
49,3,712268,250468,1810443,75311,11979,902571,0
50,3,761150,266418,1373786,78666,8453,686417,0
50,3,707525,247798,1326383,73717,8775,662629,0
50,-1,689705,236960,1395557,70601,6924,697304,0
50,3,714492,248731,1353316,73848,8298,676261,0
50,3,714884,250877,1525352,75062,10026,761959,0
50,3,710689,250030,1487348,74729,9632,742867,0
50,3,715241,250326,1451596,74710,9172,725052,0
50,3,727639,253082,1382167,77233,9480,690646,0
50,3,707793,249492,1539454,74263,9589,769086,0
50,3,730455,253507,1425044,77339,10019,712032,0
50,3,715139,249555,1437400,74131,9262,718303,0
50,3,713549,250834,1409699,74870,8996,703955,0
50,-1,640644,218830,1273169,65798,7829,636045,0
50,3,709872,248201,1328883,73829,9276,663707,0
50,3,716663,248874,1497331,73768,9510,748229,0
50,3,711568,249621,1372027,74342,8355,685132,0
50,3,710633,248573,1437355,73745,9525,718126,0
50,3,709184,250475,1328295,74095,8695,663270,0
50,3,709499,248789,1456173,74373,9912,727538,0
50,3,715548,250084,1431189,74910,9523,715505,0
50,3,708801,248148,1400802,74162,11103,699943,0
50,3,707614,247744,1481504,74033,9104,740293,0
50,3,711237,248036,1371599,73881,8546,685051,0
50,3,713293,249690,1328365,74849,9514,663399,0
50,3,735365,254436,1486985,78047,10526,743050,0
50,3,713739,248989,1517655,74251,9308,758306,0
50,3,716584,250944,1483495,75274,8924,740869,0
50,-1,635839,218808,1210954,65707,6841,605045,0
50,3,734216,253362,1565772,77654,10729,782477,0
50,3,720204,250223,1456739,74889,9875,727481,0
50,3,731467,253473,1526057,77827,10507,762549,0
51,3,758199,266335,1533631,78647,9237,766378,0
51,3,711606,249973,1377238,74684,9558,687835,0
51,-1,689745,236836,1372619,70569,7102,685791,0
51,3,715579,250148,1466320,74626,8214,732421,0
51,3,729755,253083,1420585,77307,10017,709838,0
51,3,705345,248483,1357970,73971,8998,678460,0
51,3,710734,248937,1336836,74026,8685,667687,0
51,3,706006,248791,1412933,74000,9416,705954,0
51,3,709006,248752,1438693,74023,9852,718823,0
51,3,706967,248484,1494855,73893,9394,746735,0
51,3,718811,251710,1508857,75227,9526,753623,0
51,3,710034,249098,1409447,74059,8687,704232,0
51,-1,642464,218764,1267540,65698,7011,633338,0
51,3,715816,250685,1408444,74850,9641,703137,0
51,3,720016,250916,1455170,74813,9668,726600,0
51,3,709040,247907,1534567,73559,8992,766747,0
51,3,716613,250557,1373114,74628,9253,685648,0
51,3,701187,248441,1457718,73266,9386,728348,0
51,3,708622,248494,1528157,74255,10180,763579,0
51,3,709723,248421,1448016,74216,9230,723583,0
51,3,728729,253677,1492396,77732,11177,745760,0
51,3,708824,248131,1433460,74105,9240,716444,0
51,3,712113,248804,1396283,74247,8991,697655,0
51,3,710523,249362,1420504,74509,10137,709798,0
51,3,740898,258759,1440460,77371,10217,720080,0
51,3,718098,251704,1305280,75429,9567,651706,0
51,3,733046,253874,1629870,77739,10147,814041,0
51,-1,638003,218970,1376163,65866,7285,687563,0
51,3,715288,249195,1468549,74436,8928,733790,0
51,3,715176,248629,1363770,74126,9134,681445,0
51,3,706883,247560,1510077,74042,9555,754680,0
52,3,767365,268077,1544214,79426,9502,771341,0
52,3,707951,248001,1417761,73678,8860,708407,0
52,-1,697563,240116,1386467,71862,7501,692490,0
52,3,710485,248354,1451532,73822,8733,725361,0
52,3,710058,248976,1473315,74186,10950,736137,0
52,3,708309,248917,1329266,74170,9245,664175,0
52,3,707682,248262,1354129,73796,8544,676528,0
52,3,708091,248999,1324999,74140,8316,661909,0
52,3,709048,248991,1508213,74111,9294,753512,0
52,3,706642,247992,1471718,73694,8906,735480,0
52,3,714217,249515,1465541,74239,9194,732283,0
52,3,714144,250555,1454099,74717,9543,726359,0
52,-1,645691,220804,1306830,66678,8168,652657,0
52,3,709548,248524,1350991,73944,8842,674834,0
52,3,716167,249038,1501419,73749,9693,750188,0
52,3,712061,249711,1416248,74357,8773,707466,0
52,3,710484,248372,1519675,73735,9003,759363,0
52,3,707172,250242,1425807,74032,8738,712283,0
52,3,708274,248599,1581074,74271,10261,790076,0
52,3,730701,252798,1531377,77495,10234,765298,0
52,3,707643,248376,1444494,74243,10060,721106,0
52,3,711543,248123,1413206,74109,10498,706049,0
52,3,715700,250236,1372109,74959,9344,685307,0
52,3,708178,248425,1400763,74126,10544,699982,0
52,3,713601,250322,1332065,74907,9379,665397,0
52,3,741795,255296,1464945,78613,11047,732089,0
52,3,710566,249211,1424032,74445,8736,711318,0
52,-1,641481,220805,1313465,66593,7743,656031,0
52,3,717286,249182,1499414,74467,9656,748949,0
52,3,715918,248762,1381320,74163,8608,690061,0
52,3,706152,247807,1484996,74133,10117,742042,0
53,3,761945,266239,1414451,78595,9561,706743,0
53,3,711990,250609,1466887,74922,8746,732651,0
53,-1,691400,237038,1379417,70680,8216,688991,0
53,3,711817,249054,1335861,74099,8363,667401,0
53,3,706932,248272,1514776,73888,10799,756875,0
53,3,710427,250105,1367518,74804,9251,682882,0
53,3,712811,250824,1524891,74974,9843,761620,0
53,3,709518,250015,1447697,74611,9192,723067,0
53,3,709279,249449,1691436,74204,10678,845155,0
53,3,715182,251155,1478307,75113,9502,738343,0
53,3,713427,249740,1540319,74345,8498,769691,0
53,3,709518,249102,1418942,74057,8827,708871,0
53,-1,640270,218885,1251139,65775,6461,625101,0
53,3,712594,249761,1344383,74435,9386,671232,0
53,3,713522,248546,1365798,73618,10279,682459,0
53,3,710413,248625,1473190,73781,9344,736115,0
53,3,709820,248317,1591098,73660,9469,795147,0
53,3,699778,247992,1403873,73075,8583,701253,0
53,3,708626,248187,1476938,74213,10100,737959,0
53,3,708521,248186,1451117,74159,9445,725057,0
53,3,707773,249207,1340578,74647,9728,669554,0
53,3,710831,248260,1374585,74151,9286,686647,0
53,3,709946,248145,1511528,73991,9039,755192,0
53,3,715910,250878,1346706,75348,9918,672515,0
53,3,711035,248924,1302250,74428,9710,650565,0
53,3,714199,249578,1310217,74401,9215,654470,0
53,3,708497,248437,1455648,74166,9120,727415,0
53,-1,633597,218108,1246418,65500,7478,622694,0
53,3,719091,250662,1470542,75252,8926,734481,0
53,3,736361,253693,1478402,77635,10148,738873,0
53,3,728151,252829,1544941,77542,10931,772035,0
54,3,760810,266281,1461087,78609,9020,730013,0
54,3,706640,248380,1361598,73804,8021,680215,0
54,-1,698168,239918,1373150,71884,8090,685849,0
54,3,714741,250218,1457293,74626,8923,727918,0
54,3,706063,248473,1541736,74064,10217,770246,0
54,3,705739,248619,1450752,74056,9249,724904,0
54,3,707739,248567,1408920,74010,9176,703912,0
54,3,705139,248275,1487276,73814,9620,743181,0
54,3,713214,250485,1509846,74852,9133,753994,0
54,3,731569,253793,1395395,77453,9822,697276,0
54,3,713798,250212,1292560,74538,8298,645759,0
54,3,711304,249795,1417236,74167,8551,708202,0
54,-1,637885,218516,1423509,65681,7105,711312,0
54,3,714334,250127,1379042,74718,9794,688596,0
54,3,713653,248907,1480479,73716,10605,739759,0
54,3,711889,250027,1476860,74532,8579,737537,0
54,3,709806,248718,1555070,73845,9088,776925,0
54,3,714701,247652,1414786,73387,8811,706814,0
54,3,709664,248738,1549061,74246,10015,774051,0
54,3,709513,248500,1340133,74237,8897,669624,0
54,3,705599,248527,1476030,74272,10242,737459,0
54,3,714680,250367,1288463,75159,9227,643411,0
54,3,712630,249566,1302476,74738,9315,650461,0
54,3,707465,248476,1357207,74392,9900,678068,0
54,3,713309,249919,1383583,74638,10247,691149,0
54,3,712281,249149,1399131,74258,9378,699108,0
54,3,714645,250749,1357950,75250,9374,678089,0
54,-1,634755,218597,1246893,65467,7872,622981,0
54,3,736232,253961,1509724,77855,9848,754480,0
54,3,713443,248519,1362059,74093,9219,680620,0
54,3,704042,248024,1487168,74209,9064,743145,0
55,3,782852,271072,1510614,82003,9877,755044,0
55,-1,710033,241400,1407840,73843,9081,703562,0
55,3,704100,247736,1372470,73598,8429,685922,0
55,3,710190,248772,1343872,73994,8267,671448,0
55,3,733613,253058,1585443,77347,11538,792391,0
55,3,705512,248593,1413439,73936,9029,706331,0
55,3,705733,248372,1442960,73913,9535,721243,0
55,3,709298,250222,1429913,74512,8872,714435,0
55,3,730373,253721,1387315,77464,9601,693182,0
55,3,708495,248751,1340242,73978,8946,669273,0
55,3,719329,250844,1430901,75014,9369,714642,0
55,3,707795,249472,1418945,74125,8924,708978,0
55,-1,639084,219046,1323697,65745,7679,661432,0
55,3,710615,248846,1400840,74011,9945,699739,0
55,3,716158,249363,1336519,73883,9930,667778,0
55,3,729183,253470,1384554,77164,9191,691835,0
55,3,713447,250616,1320309,74715,9563,659153,0
55,3,721561,250728,1353603,74690,8378,675493,0
55,3,711929,250106,1395511,75014,10049,696893,0
55,3,709115,249033,1363836,74572,8153,681059,0
55,3,703581,247832,1383347,74019,9622,691008,0
55,3,730785,252469,1396187,77361,9652,697594,0
55,3,707749,248198,1387317,74097,9901,693111,0
55,3,709193,249789,1386335,74997,9533,691276,0
55,3,711519,249573,1323417,74643,10304,661141,0
55,3,716046,250737,1398290,74994,9526,698388,0
55,3,705466,246847,1357455,73678,9611,678232,0
55,-1,642152,218903,1178266,65699,7180,588633,0
55,3,713332,248225,1503180,74142,9136,751085,0
55,3,710477,248094,1305337,73968,8704,652065,0
55,3,709228,248328,1358925,74348,8665,679000,0
56,3,761266,266660,1431653,78797,7476,715325,0
56,-1,694474,238944,1320967,71462,7977,659793,0
56,3,704600,248317,1416013,73812,9092,707536,0
56,3,707133,247675,1345083,73574,7754,672138,0
56,3,711946,248139,1574212,73909,9858,786473,0
56,3,708504,249371,1436317,74519,9181,717825,0
56,3,712528,250194,1461326,74697,9247,730003,0
56,3,733519,253408,1512348,77302,11128,755715,0
56,3,710510,249145,1441562,74146,9317,720263,0
56,3,711673,248358,1491187,73686,9639,744888,0
56,3,736323,253942,1422644,77518,9125,710747,0
56,3,714386,249103,1355801,73986,9246,677398,0
56,-1,660573,223830,1289975,69093,8781,644593,0
56,3,708155,248278,1278076,73773,9189,638502,0
56,3,709102,247472,1388373,73326,9820,693696,0
56,3,715720,250301,1414984,74541,8618,706836,0
56,3,710602,248061,1480244,73637,9286,739653,0
56,3,737255,253147,1433358,77002,9582,716156,0
56,3,712158,249239,1519358,73883,9464,759068,0
56,3,709390,248465,1413754,74261,9213,706358,0
56,3,711016,249146,1440420,74512,9231,719797,0
56,3,709528,248392,1299870,74283,8160,649620,0
56,3,713110,247871,1361044,74028,8525,679934,0
56,3,704904,247077,1454694,73786,9532,726646,0
56,3,715747,249242,1625112,74513,10796,812086,0
56,3,714696,249339,1377797,74311,9294,688440,0
56,-1,645916,220745,1232218,66467,8436,615473,0
56,3,709250,249132,1334496,74466,9524,666711,0
56,3,715868,249764,1346086,74813,8570,672390,0
56,3,719838,249970,1407775,74774,9903,703144,0
56,3,711593,249237,1460366,74837,8706,729418,0
57,3,763829,266631,1390674,78751,8736,694872,0
57,-1,690742,237814,1308521,70949,7836,653727,0
57,3,709873,249973,1475819,74687,9458,737092,0
57,3,709849,248791,1384422,74055,7983,691779,0
57,3,710872,248096,1498182,73790,9528,748668,0
57,3,707289,249374,1548735,74308,10123,773960,0
57,3,710027,249756,1488937,74372,8748,743959,0
57,3,710303,248409,1571074,73913,9509,784315,0
57,3,707298,248025,1390287,73757,8809,694796,0
57,3,715375,249203,1434081,73959,9399,716540,0
57,3,712978,248804,1363885,74026,8259,681434,0
57,3,734493,253617,1398610,77181,10011,698850,0
57,-1,642319,218970,1346708,65694,8160,672927,0
57,3,729936,252516,1405804,77005,9730,702327,0
57,3,718134,250933,1469020,74698,9788,733444,0
57,3,714953,249092,1395055,74001,8669,697040,0
57,3,711545,248724,1484019,73795,9668,741625,0
57,3,715615,248675,1347655,73739,8362,673307,0
57,3,710573,249063,1437039,73598,8918,718024,0
57,3,709287,248032,1468563,74067,9404,733776,0
57,3,715954,248644,1449160,74253,9362,724141,0
57,3,707617,247765,1428369,74000,9392,713886,0
57,3,714610,249001,1410554,74397,8750,704613,0
57,3,706505,247886,1669201,73969,11333,834035,0
57,3,714277,249031,1484513,74397,9858,741824,0
57,3,713936,248765,1427888,74081,9384,713404,0
57,-1,638279,218434,1207734,65561,7390,603397,0
57,3,715250,248558,1439706,74183,9328,719161,0
57,3,714401,249234,1370221,74465,9390,684681,0
57,3,712828,248197,1296065,73970,9150,647626,0
57,3,706797,248115,1439756,74280,8862,719286,0
58,3,761077,266579,1376236,78801,8555,687749,0
58,-1,688660,237023,1195720,70559,7544,597391,0
58,3,706116,247704,1398829,73703,8233,699001,0
58,3,717092,250436,1388698,74898,8836,693529,0
58,3,711581,248430,1384043,73895,9183,691589,0
58,3,702549,248028,1496356,73773,9050,747650,0
58,3,707223,248365,1490431,73855,9667,744621,0
58,3,710236,248811,1399400,74070,8253,699125,0
58,3,710923,249763,1460773,74512,8703,729744,0
58,3,714272,249184,1434499,73994,9635,716513,0
58,3,718940,250504,1564316,74800,9349,781384,0
58,3,714587,249486,1398854,74030,9223,699032,0
58,-1,648308,221632,1423897,66717,8843,710739,0
58,3,712583,248667,1369079,73833,9022,683972,0
58,3,714404,248943,1405237,73762,9168,702119,0
58,3,711170,247654,1445625,73469,9469,722405,0
58,3,711432,248638,1435003,73772,8173,717278,0
58,3,712944,247842,1334052,73371,8155,666337,0
58,3,732914,257069,1621709,75880,9503,810453,0
58,3,716073,250531,1446029,75176,8949,722120,0
58,3,717235,249581,1498159,74898,10148,746910,0
58,3,707359,248160,1445678,74177,8580,722426,0
58,3,713126,249300,1427440,74511,9554,713142,0
58,3,726785,252644,1713832,77376,11637,856004,0
58,3,734591,253798,1491842,77790,10333,745415,0
58,3,719646,251413,1330009,75307,9088,664154,0
58,-1,637317,218312,1316549,65474,7589,657859,0
58,3,717682,250094,1467308,74858,9200,732787,0
58,3,714555,249276,1427288,74508,9494,713070,0
58,3,716389,249373,1346894,74401,9746,673005,0
58,3,704864,247404,1328232,74025,8587,663694,0
59,3,757937,266114,1376722,78633,9194,687633,0
59,-1,687391,236917,1271775,70623,8099,635355,0
59,3,705316,247641,1451615,73614,9250,725375,0
59,3,711796,249133,1380235,74235,8468,689634,0
59,3,712180,249205,1287720,74280,8549,643328,0
59,3,730236,253213,1445543,77334,9830,722329,0
59,3,709324,249535,1660125,74276,11911,829371,0
59,3,712725,249830,1459974,74530,9103,729316,0
59,3,706410,248507,1338315,73967,8007,668672,0
59,3,713318,249418,1353655,74003,9011,676330,0
59,3,714961,249489,1483734,74304,8754,741128,0
59,-1,638858,218927,1200782,65636,7750,599931,0
59,3,714395,249805,1458285,74194,9603,728638,0
59,3,710277,248126,1387742,73707,9510,693298,0
59,3,715284,248977,1515836,73748,10049,757447,0
59,3,712999,248684,1388835,73837,9033,693885,0
59,3,712299,248982,1395426,73920,8460,697254,0
59,3,720651,250471,1549144,74562,9684,773289,0
59,3,710175,250045,1455870,74185,9474,727164,0
59,3,731101,252953,1500982,77545,10122,750008,0
59,3,734958,253090,1684016,77499,10686,841828,0
59,3,730808,252164,1494869,77216,9692,747045,0
59,3,711195,248306,1495199,74179,9725,746982,0
59,3,706817,248561,1438732,74282,10449,718181,0
59,3,717478,250678,1351330,75150,9074,674887,0
59,3,716608,250588,1368432,74890,8391,683389,0
59,-1,642686,220628,1395448,66458,8409,697009,0
59,3,718724,249720,1549373,74590,9555,774183,0
59,3,715762,249051,1441061,74394,8985,719886,0
59,3,712033,248008,1379106,74021,8735,689111,0
59,3,709789,249432,1386974,74981,9740,692660,0
60,3,759865,266330,1511766,78624,9514,755407,0
60,-1,685630,236033,1271179,70296,7371,635148,0
60,3,705783,248736,1452199,74016,8672,725604,0
60,3,713049,249812,1340147,74310,8202,669674,0
60,3,707827,247931,1349308,73760,9098,673964,0
60,3,709791,250020,1471386,74680,9958,735140,0
60,3,707687,248693,1527308,73958,9106,763148,0
60,3,711660,248727,1336730,74055,8601,667876,0
60,3,707594,248925,1517488,74034,8708,758292,0
60,3,718815,251526,1552295,75021,9645,775399,0
60,3,712052,248734,1359258,74001,8397,679249,0
60,-1,640307,218935,1253704,65690,7535,626339,0
60,3,713418,249931,1305457,74256,8911,652214,0
60,3,711681,248873,1364536,73909,9578,681845,0
60,3,715077,249268,1400894,73913,9098,699842,0
60,3,711737,248147,1523815,73607,9647,761383,0
60,3,733920,253487,1516894,77204,9996,758048,0
60,3,714446,248401,1450032,73681,8976,724483,0
60,3,705797,247960,1479634,73231,8637,739262,0
60,3,709746,247869,1438883,74022,8492,719120,0
60,3,718142,249750,1426550,74851,10230,712279,0
60,3,710887,248308,1441814,74218,8709,720634,0
60,3,710704,248484,1586524,74219,9760,792729,0
60,3,706569,248960,1363480,74601,9594,681612,0
60,3,712323,249274,1459327,74467,8998,729127,0
60,3,713839,250132,1487404,74640,8856,743161,0
60,-1,639311,218461,1213568,65645,7653,606362,0
60,3,715935,248970,1366474,74318,9537,682714,0
60,3,719450,250939,1423292,75331,9284,710966,0
60,3,716847,250285,1471899,74885,9631,735228,0
60,3,705761,247815,1275393,74195,9155,637205,0
61,3,760873,266900,1486165,78885,9080,742502,0
61,-1,716201,242282,1371075,74165,8909,685054,0
61,3,705707,247518,1399462,73519,7935,699346,0
61,3,711952,250202,1479153,74736,8331,738907,0
61,3,711113,248531,1351459,73987,9831,675045,0
61,3,707303,249148,1494513,74235,9359,746681,0
61,3,705573,248522,1418940,73845,8852,709198,0
61,3,711094,249470,1454990,74278,9043,726954,0
61,3,708091,248876,1464303,74082,9205,731548,0
61,3,713025,249374,1532194,74046,9352,765002,0
61,3,716953,251351,1435067,75094,8020,716820,0
61,-1,637192,218028,1321001,65347,7208,659977,0
61,3,711407,249232,1443733,73962,9482,721476,0
61,3,715915,251222,1365229,75024,9752,681705,0
61,3,713154,248572,1472643,73643,9841,735795,0
61,3,715591,250265,1462954,74626,9308,730688,0
61,3,710657,248760,1450634,73852,8996,724852,0
61,3,712886,248135,1377066,73552,8117,688108,0
61,3,704334,247982,1477283,73245,8766,738123,0
61,3,711373,249110,1522825,74459,8949,761072,0
61,3,712576,248505,1452524,74203,9344,725846,0
61,3,709156,247928,1385080,74060,8270,692117,0
61,3,709383,248028,1451248,74019,9225,725190,0
61,3,735629,252692,1513233,77391,10102,755894,0
61,3,713082,249622,1409761,74630,10066,704458,0
61,-1,639804,219105,1335620,65903,7795,667290,0
61,3,712547,248966,1510049,74180,9140,754491,0
61,3,714644,248648,1426999,74206,8977,713080,0
61,3,719492,250711,1390017,75158,9240,694444,0
61,3,712652,248964,1474921,74314,9530,736989,0
61,3,704982,247840,1495365,74158,10696,747247,0
62,3,771984,269407,1535584,79948,10051,767010,0
62,-1,691400,236456,1389070,70468,8068,693965,0
62,3,709047,249786,1519050,74615,8602,758781,0
62,3,709905,248701,1361089,74039,8686,680014,0
62,3,713206,250140,1385420,74780,8825,691822,0
62,3,724468,252699,1436936,77198,9597,717967,0
62,3,713056,251285,1456049,75109,9614,727190,0
62,3,710153,248493,1388975,73926,8219,693946,0
62,3,707337,247708,1358733,73733,8077,678842,0
62,3,717439,250216,1482194,74476,9864,740470,0
62,3,714483,249490,1411617,74208,8802,705248,0
62,-1,644533,221227,1415865,66621,8443,707072,0
62,3,735236,253996,1405323,77329,9513,702254,0
62,3,730978,252853,1343311,77011,9577,671211,0
62,3,712373,248832,1476970,73723,9390,737912,0
62,3,712108,248258,1522733,73700,9680,760869,0
62,3,706886,247761,1401729,73453,8230,700409,0
62,3,711484,247856,1614793,73414,9668,806963,0
62,3,707182,248213,1280882,73340,8736,639938,0
62,3,711886,249698,1387501,74869,8543,693118,0
62,3,714774,250128,1483024,75048,9826,740423,0
62,3,711506,248813,1442346,74358,8813,720584,0
62,3,715970,249880,1609516,74977,11035,803939,0
62,3,715815,248624,1500107,74246,9360,749622,0
62,3,717782,251082,1236240,75282,9337,617485,0
62,-1,658744,223293,1291230,69021,8660,645159,0
62,3,712516,249517,1554665,74421,9296,776245,0
62,3,718471,250738,1395239,75228,9184,696793,0
62,3,714101,249480,1384811,74593,9045,691943,0
62,3,711124,248161,1367581,73968,9096,683331,0
62,3,708840,249525,1401951,74938,9696,700075,0
63,3,761179,266366,1357597,78737,8566,678303,0
63,-1,695758,239132,1430278,71541,8422,714296,0
63,3,703838,247641,1434595,73600,8779,716936,0
63,3,712929,248462,1374653,73860,9537,686940,0
63,3,708891,248611,1456578,74034,8412,727827,0
63,3,704170,248629,1357531,74078,8716,678325,0
63,3,726718,253314,1417042,77299,9909,708055,0
63,3,709966,248470,1401220,73893,9238,699752,0
63,3,728502,253270,1432480,77248,8884,715878,0
63,3,712094,248832,1359127,73906,8371,678924,0
63,3,714517,250052,1421012,74430,8616,710041,0
63,-1,636944,218512,1233321,65559,7094,615737,0
63,3,715509,250557,1399994,74430,9394,699450,0
63,3,711124,249314,1420475,74125,9884,709620,0
63,3,712604,249104,1524371,73890,10100,761679,0
63,3,711776,248410,1380681,73708,9088,689891,0
63,3,709404,248479,1487469,73769,8850,743303,0
63,3,714514,248519,1423949,73714,8908,711225,0
63,3,728005,253097,1414472,76678,9701,706848,0
63,3,707454,248000,1411868,74074,9489,705385,0
63,3,733671,252931,1560529,77491,11004,779915,0
63,3,707267,248285,1466850,74206,9440,732488,0
63,3,733443,253213,1700361,77594,12366,849467,0
63,3,717383,249375,1446056,74700,10430,722323,0
63,-1,639466,218769,1301349,65692,7272,650254,0
63,3,714053,249913,1486894,74753,9929,741242,0
63,3,721244,252235,1393929,75646,9530,695774,0
63,3,734635,253701,1561563,77609,10167,780229,0
63,3,714575,248792,1392350,74305,9439,695764,0
63,3,713671,248725,1371201,74200,8907,685121,0
63,3,701585,247390,1418282,74126,8990,708751,0
63,3,710253,247870,1438293,74040,8600,718718,0
