0,2,756474,266819,1628113,78789,10725,813590,0
0,-1,685663,236853,1309996,70474,8425,654976,0
0,-1,687578,237002,1230084,70679,7253,614642,2
0,2,704224,248145,1482968,73690,9645,740855,0
0,2,705881,248094,1381908,73730,10595,690518,0
0,2,711232,248282,1436149,74306,10996,717651,0
1,-1,691957,239480,1248894,71805,7781,623849,2
1,2,707555,250052,1495155,74409,9371,747215,0
1,2,708990,248006,1437961,73656,10405,718813,0
1,2,711079,247908,1355691,74195,9914,677399,0
2,-1,634790,219003,1245938,65709,7380,622540,2
2,2,706147,248341,1344743,73794,9527,672095,0
2,2,712848,250214,1513239,74657,10066,755752,0
2,2,709889,247731,1333624,74108,9871,666583,0
3,-1,637466,219312,1354954,65795,8634,677351,2
3,2,710768,250736,1548949,74900,10428,773677,0
3,2,706078,248349,1518214,73744,10366,758645,0
3,2,715390,249806,1380311,75069,10068,689616,0
4,-1,635225,219237,1255901,65763,7528,627298,2
4,2,725558,253340,1426872,77211,10185,712949,0
4,2,711577,247685,1380926,73549,10155,689951,0
4,2,711239,248747,1507253,74531,11111,753289,0
5,-1,638653,219131,1141456,65797,7215,570250,2
5,2,704594,248639,1474188,73822,9292,736641,0
5,2,733174,253368,1359510,77199,10292,679357,0
5,2,709881,248132,1391142,74274,9138,695378,0
6,-1,636450,219527,1348357,66015,7099,673740,2
6,2,710833,250058,1437181,74462,9902,718090,0
6,2,713781,249327,1411373,74257,9594,704889,0
6,2,708819,248072,1399063,74262,9109,699146,0
7,-1,641975,221731,1300599,66983,7558,649644,2
7,2,708649,248519,1299590,73801,9776,649471,0
7,2,717674,250983,1398930,74886,9298,699304,0
7,2,708218,248045,1422460,74188,9677,710905,0
8,2,708823,248877,1421899,73906,9097,710645,0
8,-1,634751,218902,1342117,65771,7508,670571,2
8,2,731598,252668,1425544,76944,10648,712572,0
8,2,710227,247693,1367025,74008,8981,683138,0
9,2,710119,249675,1487185,74103,9059,743463,0
9,-1,639248,220085,1266093,66441,7312,632444,2
9,2,711071,248599,1413968,74102,9372,705927,0
9,2,709556,248224,1429672,74292,9418,713410,0
10,2,707931,249566,1296083,74144,8670,647613,0
10,-1,638909,219102,1312819,65793,8891,656065,2
10,2,707974,248037,1525289,73657,10540,762206,0
10,2,711311,249459,1322098,74987,8746,659583,0
11,2,709255,249446,1290712,74074,9136,645008,0
11,-1,644258,219906,1321302,66078,7544,660088,2
11,2,709999,248542,1393631,73851,9865,696577,0
11,2,710525,248889,1405388,74700,8987,702215,0
12,2,708148,249391,1475894,74326,9475,737362,0
12,-1,632128,219140,1195683,65885,7255,597312,2
12,2,711984,248593,1453365,73902,10859,726311,0
12,2,736354,257462,1566684,77057,10081,783017,0
13,2,705439,248704,1360462,73898,8951,679818,0
13,-1,634692,219458,1266618,65936,7474,632810,2
13,2,709918,248085,1612673,73667,11572,805856,0
13,2,706254,248135,1430567,74261,10172,714968,0
14,2,709245,251305,1426202,75048,9961,712485,0
14,2,709097,248134,1590431,73662,11133,794473,0
14,-1,634530,219212,1211496,66068,8177,605281,2
14,2,710119,247871,1552884,74153,10091,775990,0
15,2,731703,253901,1375175,77342,10158,687342,0
15,2,716051,251100,1523774,74929,10893,761076,0
15,-1,636357,219501,1249204,66104,7399,623895,2
15,2,712300,248596,1330520,74447,8744,664923,0
16,2,708209,248939,1407600,73959,9168,703387,0
16,2,731136,253383,1531885,77204,11098,765171,0
16,-1,635065,218983,1289651,65965,7765,644428,2
16,2,710810,248423,1460169,74337,9042,729616,0
17,2,708458,249355,1282379,74079,8711,640768,0
17,2,710993,248320,1608926,73758,11793,804103,0
17,-1,636574,219378,1186220,66067,7578,592608,2
17,2,712379,249159,1312706,74801,8753,655856,0
18,2,705962,248703,1384277,73821,9239,691788,0
18,2,709224,248738,1583430,73912,11688,791387,0
18,-1,639301,219496,1221714,66035,7830,610405,2
18,2,714162,250099,1379007,75192,9476,689121,0
19,2,708728,249468,1279142,74069,8778,639191,0
19,2,708102,248347,1949693,73794,11855,973066,0
19,-1,637303,219393,1204919,65939,7604,602180,2
19,2,708797,248412,1439468,74356,9747,718535,0
20,2,708807,249994,1378838,74449,9360,688910,0
20,2,706841,248049,1525661,73612,10865,762603,0
20,2,704853,247227,1319130,73955,8372,659233,0
21,2,705271,249124,1266934,73996,8784,633066,0
21,2,707159,247858,1590758,73599,11448,794091,0
21,2,703859,247116,1433904,73844,9484,716607,0
22,2,707805,249482,1366485,74027,8678,683016,0
22,2,711697,248476,1520147,73797,12267,759290,0
22,2,708447,247869,1412914,74156,8775,706076,0
23,2,704405,249284,1296652,73929,9133,648004,0
23,2,731853,253065,1375147,77116,10184,687215,0
23,2,711630,249460,1318732,74885,8303,658879,0
24,2,705776,250125,1398385,74479,8862,698678,0
24,2,709054,248405,1352639,73753,9335,675834,0
24,2,709770,248552,1342351,74340,8950,670786,0
25,2,714574,248511,1295922,73801,9094,647623,0
25,2,707297,248127,1460609,73720,9154,729922,0
25,2,727808,252577,1532164,77511,9391,765734,0
26,2,715687,249040,1263450,73929,8594,631374,0
26,2,710177,249837,1452602,74557,9499,725624,0
26,2,704321,247532,1295519,74010,7939,647337,0
27,2,716506,250281,1562480,74534,10647,780730,0
27,2,709637,248193,1459943,73686,9815,729558,0
27,2,706527,248058,1454753,74274,9151,726889,0
28,2,736511,253898,1435636,77347,10859,717379,0
28,2,708243,247549,1409055,73518,9425,704064,0
28,2,708042,248037,1329934,74206,8789,664667,0
29,2,714303,249833,1505830,74380,10210,752429,0
29,2,712281,249468,1423470,74374,9596,711062,0
29,2,707194,248385,1455243,74355,9075,727195,0
30,2,732354,253854,1358383,77310,10039,678900,0
30,2,705230,248386,1460686,73829,9861,729911,0
30,2,711850,249902,1377343,75123,9009,687944,0
31,2,713973,248829,1402403,73827,9024,700877,0
31,2,710162,248957,1374130,73994,10640,686572,0
31,2,705211,247769,1494237,74104,9377,746720,0
32,2,714910,249442,1288275,74106,9145,643836,0
32,2,706906,248078,1302354,73678,10234,650809,0
32,2,707010,248713,1392703,74473,9528,695880,0
33,2,711414,248499,1410135,73713,9316,704761,0
33,2,707622,248221,1342348,73745,10348,670869,0
33,2,707694,248265,1484754,74271,8828,742064,0
34,2,711425,248690,1457002,73776,9609,728102,0
34,2,711610,250452,1280556,74739,9600,639665,0
34,2,713046,248421,1319297,74276,8600,659326,0
35,2,713845,249183,1329782,73953,9261,664712,0
35,2,728176,252966,1293516,77026,10086,646363,0
35,2,715123,249805,1332905,75053,8414,665847,0
36,2,734531,254152,1373651,77421,10239,686351,0
36,2,706969,248331,1282666,73810,9576,641022,0
36,2,710478,247659,1470232,74045,9043,734791,0
37,2,712667,249158,1405100,73987,9474,702220,0
37,2,705367,247767,1233081,73563,8865,616150,0
37,2,710144,248163,1397114,74237,9005,698237,0
38,2,711964,249862,1256470,74228,9118,627818,0
38,2,709440,249761,1304682,74450,9339,651858,0
38,2,710826,248897,1364832,74666,8957,681987,0
39,2,717210,250044,1395268,74402,10086,697198,0
39,2,706055,248815,1372932,73957,8514,686139,0
39,2,709059,247868,1429567,73997,9238,714339,0
40,2,713025,249299,1304142,73986,9700,651702,0
40,2,712587,247512,1459477,73474,9364,729400,0
40,2,714474,249846,1331032,74915,8673,664888,0
41,2,711366,248497,1354803,73819,9792,677046,0
41,2,736420,253176,1384882,77179,9878,691993,0
41,2,710392,248625,1364832,74276,8892,681913,0
42,2,715082,250712,1403095,74761,10286,701163,0
42,2,712174,248196,1330997,73698,8948,665175,0
42,2,709741,248768,1391710,74316,9136,695445,0
43,2,732205,253368,1370910,77134,10565,685020,0
43,2,716035,249477,1410052,74367,9263,704443,0
43,2,706283,248073,1434494,74116,8782,716932,0
44,2,714118,248707,1350077,73943,9015,674567,0
44,2,713552,248713,1318911,73922,9190,659029,0
44,2,707159,247696,1460285,73924,9118,729868,0
45,2,718258,251164,1495337,75034,9096,747091,0
45,2,711928,248337,1266939,73817,9105,633104,0
45,2,712048,250146,1395394,75027,9313,697082,0
46,2,712203,249398,1483955,74160,9178,741620,0
46,2,711442,248228,1443981,73708,9571,721778,0
46,2,726595,252533,1489069,77268,10955,744195,0
47,2,712164,249407,1422026,74227,8384,710683,0
47,2,717854,250589,1528846,74795,9825,763787,0
47,2,715005,250256,1398125,74979,9533,698587,0
48,2,707429,247867,1378226,73701,8655,688805,0
48,2,739657,254107,1388470,77932,9697,693748,0
48,2,709547,248609,1450719,74172,8686,725000,0
49,2,729861,253201,1551056,77257,10491,775187,0
49,2,710598,248603,1290479,73927,8580,644876,0
49,2,708442,248230,1404670,74041,9561,701943,0
50,2,708536,248866,1461944,74055,9606,730422,0
50,2,711369,247629,1383085,73452,9517,691248,0
50,2,714117,250538,1390073,75174,9114,694498,0
51,2,710593,248129,1344243,73768,8400,671711,0
51,2,711398,248232,1271527,73756,8922,635477,0
51,2,704992,248110,1400159,74030,9377,699908,0
52,2,712454,249518,1389053,74230,9321,694050,0
52,2,706723,246755,1414427,73272,9546,706855,0
52,2,712893,249274,1350140,74631,9390,674509,0
53,2,710405,248791,1297557,73947,8889,648327,0
53,2,712603,248427,1304715,73762,9089,651970,0
53,2,709780,248600,1431980,74239,9584,715585,0
54,2,715739,250387,1387058,74734,9903,692860,0
54,2,710539,247767,1442353,73573,9752,720875,0
54,2,707036,247924,1440100,74021,9382,719729,0
55,2,711849,249695,1301513,74294,8873,650257,0
55,2,711401,248234,1286971,73815,9028,643062,0
55,2,738350,259623,1406771,77824,8699,702676,0
56,2,714883,251064,1456642,75006,9067,727681,0
56,2,712247,248791,1392931,73903,9306,696163,0
56,2,710748,250050,1368858,74817,9206,683901,0
57,2,708696,248790,1300244,73955,8671,649687,0
57,2,731559,252638,1310414,76967,10380,654923,0
57,2,707114,248552,1316500,74091,8923,657785,0
58,2,713844,250964,1448025,74859,9807,723374,0
58,2,711748,248536,1273462,73836,9883,636379,0
58,2,712208,248745,1470659,74160,8976,734991,0
59,2,708004,248444,1326507,73904,9007,662787,0
59,2,715373,250474,1385740,74755,9600,692280,0
59,2,710185,249014,1417260,74271,8714,708303,0
60,2,720194,251192,1490236,74993,10208,744673,0
60,2,713536,250158,1486922,74560,9710,742958,0
60,2,712782,249666,1389154,74705,8490,694084,0
61,2,716317,250220,1464624,74635,9298,731524,0
61,2,709907,248692,1395979,73868,10090,697586,0
61,2,710510,249058,1553218,74294,9110,776125,0
62,2,715607,250798,1434109,74908,9169,716647,0
62,2,733096,252742,1375453,77031,9890,687308,0
62,2,711575,249813,1399080,74547,8784,699169,0
63,2,731438,253381,1432613,77266,9436,715929,0
63,2,715501,250683,1382162,74791,8998,690443,0
63,2,708627,248515,1382806,74089,9606,691164,0
64,2,711100,248943,1301719,74042,9176,650373,0
64,2,735520,256588,1352844,76106,9537,676048,0
64,2,731099,252997,1495362,77312,10167,747367,0
65,2,710305,248976,1362386,74012,8832,680811,0
65,2,711401,248890,1407553,74009,9633,703325,0
65,2,707756,248922,1438094,74279,9190,718676,0
66,2,714131,250499,1406592,74834,9343,702601,0
66,2,713447,249206,1434276,74263,10381,716526,0
66,2,708281,247949,1352355,73844,9025,675824,0
67,2,733731,254312,1367832,77597,9614,683577,0
67,2,709681,248635,1451118,73834,9744,725200,0
67,2,712581,250523,1359641,75047,9282,679205,0
68,2,709071,248764,1366630,74036,8530,682859,0
68,2,710023,248044,1326422,73671,9270,662823,0
68,2,728182,253298,1493217,77484,10124,745992,0
69,2,716808,250285,1339251,74684,10252,669067,0
69,2,708890,248554,1426605,73861,9588,712918,0
69,2,706802,248958,1337697,74287,8380,668539,0
70,2,710140,248105,1229299,73755,8742,614169,0
70,2,710416,248604,1408039,73872,9530,703620,0
70,2,711510,249007,1427320,74217,9370,713287,0
71,2,711282,248749,1306303,73991,9065,652791,0
71,2,714155,249117,1364824,74259,9589,681985,0
71,2,715502,250612,1364044,74989,9710,681276,0
72,2,711058,248908,1270605,74060,9533,634681,0
72,2,709588,247742,1245036,73566,9579,622081,0
72,2,707735,248484,1401993,74074,9729,700525,0
73,2,733774,253456,1295219,77371,10312,647121,0
73,2,711209,248497,1312192,73780,10056,655819,0
73,2,711936,250556,1385353,75066,9975,692057,0
74,2,710556,248676,1377380,74013,9790,688376,0
74,2,712049,248506,1233329,73942,9165,616359,0
74,2,728939,253557,1543782,77563,10424,771458,0
75,2,707819,248143,1479602,73715,9171,739377,0
75,2,710714,249255,1406488,74312,9142,702676,0
75,2,709440,249633,1403578,74502,9206,701122,0
76,2,713251,249856,1373411,74380,9132,686265,0
76,2,709853,248239,1304106,73770,9354,651708,0
76,2,708380,248995,1420484,74175,8892,709917,0
77,2,709864,248527,1367933,73928,9251,683615,0
77,2,729963,253044,1339990,77081,9312,669719,0
77,2,708327,249193,1402708,74347,9598,700954,0
78,2,710696,248841,1351653,73934,8375,675494,0
78,2,706474,247870,1401525,73556,8571,700508,0
78,2,714638,247253,1318244,73712,8866,658753,0
79,2,712799,250253,1447634,74680,9340,723268,0
79,2,709235,248320,1499421,73769,9718,749310,0
79,2,737352,253445,1475569,77516,10074,737403,0
80,2,710379,249276,1408278,74092,8604,703782,0
80,2,718438,250663,1459173,74837,9425,728726,0
80,2,715801,248539,1365124,74148,9367,682252,0
81,2,716348,250478,1413329,74811,9849,705917,0
81,2,735631,253261,1382577,77160,9771,690845,0
81,2,718701,249948,1332862,74789,9531,665908,0
82,2,711968,248808,1434253,73947,9266,716786,0
82,2,711534,248270,1419247,73745,9292,709232,0
82,2,733306,252953,1486533,77373,10832,742915,0
83,2,712058,249335,1303259,74208,8748,651334,0
83,2,712059,247880,1309431,73633,9380,654334,0
83,2,719082,249778,1296334,74529,9389,647799,0
84,2,710045,248529,1315836,73953,8909,657446,0
84,2,712110,248531,1416452,73851,9942,707796,0
84,2,714291,248315,1426462,73979,9884,712901,0
85,2,711807,248853,1403386,74015,9071,701342,0
85,2,709373,248292,1268970,73788,8839,634137,0
85,2,719449,250465,1467874,74931,10505,733090,0
86,2,715217,250797,1498532,74896,9673,748669,0
86,2,711792,249746,1428352,74446,9004,713601,0
86,2,713873,248699,1478867,74063,10252,739137,0
87,2,707912,248757,1406560,74013,9056,702925,0
87,2,713965,249953,1430494,74585,9313,714504,0
87,2,717713,250619,1582187,75098,10108,790724,0
88,2,712122,248651,1429738,73887,9457,714489,0
88,2,730934,253377,1398999,77209,9382,699083,0
88,2,713640,248878,1478412,74247,10333,738544,0
89,2,711932,249260,1330282,74144,9018,664783,0
89,2,708661,247876,1291898,73603,8560,645665,0
89,2,714736,248965,1504589,74228,9735,751960,0
90,2,711790,249577,1402043,74375,9990,700539,0
90,2,711274,249251,1392582,74222,9370,695768,0
90,2,714419,248639,1478451,74157,9638,738872,0
91,2,711593,249891,1437515,74327,9238,718627,0
91,2,707876,248220,1448045,73657,9600,723725,0
91,2,712695,248381,1443455,74039,9511,721378,0
92,2,708603,248403,1474179,73809,9494,736593,0
92,2,731659,253603,1426045,77206,9751,712417,0
92,2,718015,250958,1342499,75296,9268,670499,0
93,2,730750,253502,1330953,77375,9902,665023,0
93,2,708677,248138,1472171,73699,9981,735646,0
93,2,711433,248197,1404282,73987,9028,701858,0
94,2,707404,248488,1378271,73877,9201,688690,0
94,2,709486,248767,1284125,73908,8908,641699,0
94,2,716572,250361,1321688,74890,8945,660287,0
95,2,710095,248459,1399506,73858,8990,699441,0
95,2,705907,247709,1412327,73529,9643,705774,0
95,2,718662,250870,1518880,75220,12023,758322,0
96,2,711348,249353,1441498,74203,9102,720364,0
96,2,705777,247702,1302765,73543,9055,650975,0
96,2,715325,250075,1413883,74836,9011,705745,0
97,2,709106,249054,1432836,74102,9768,715967,0
97,2,711878,250623,1391389,74865,9816,695021,0
97,2,712452,249382,1500010,74401,9541,749620,0
98,2,714723,251096,1458990,75039,9773,728888,0
98,2,710414,247959,1471865,73637,9659,735501,0
98,2,712518,248786,1389937,74186,9088,694690,0
99,2,708960,248946,1349557,74061,8710,674460,0
99,2,707985,247320,1498646,73409,9837,748681,0
99,2,713319,249532,1528191,74474,9971,763661,0
100,2,707918,249445,1371842,74260,9036,685547,0
100,2,730507,252858,1314548,76856,9384,656979,0
100,2,720638,250744,1419624,75120,10353,708838,0
101,2,706999,248746,1330963,74031,9229,665153,0
101,2,711721,249021,1361838,73847,9614,680508,0
101,2,717492,249993,1461516,74603,9732,730675,0
102,2,715634,249342,1308606,74201,8944,654095,0
102,2,709268,248359,1380904,73640,8682,690085,0
102,2,716236,249016,1290115,74302,8697,644713,0
103,2,712230,248183,1421442,73778,9774,710252,0
103,2,710755,248201,1459259,73537,9381,729292,0
103,2,719274,250910,1445290,75186,9718,721977,0
104,2,713651,248920,1326389,74069,9156,662785,0
104,2,708432,248247,1420367,73547,9076,709843,0
104,2,733729,253333,1466239,77494,9834,732846,0
105,2,712454,248926,1406923,74013,9291,703179,0
105,2,713663,250131,1404076,74490,9743,701382,0
105,2,714587,249078,1434889,74332,9474,717120,0
106,2,713809,249048,1489005,74108,9276,744090,0
106,2,729610,253033,1356014,76890,9409,677706,0
106,2,715923,250207,1395219,74687,9439,697187,0
107,2,712050,248743,1295005,73948,8852,647151,0
107,2,707971,248185,1293741,73555,8893,646195,0
107,2,713937,249046,1398515,74270,9707,698975,0
108,2,718781,251873,1430528,75292,9688,714678,0
108,2,708202,248767,1338600,73777,8644,668947,0
108,2,718322,250927,1334695,75201,9169,666735,0
109,2,709159,248577,1324265,73931,9353,661725,0
109,2,706435,248508,1355620,73705,8627,677510,0
109,2,714896,249932,1406151,74541,9213,702727,0
110,2,712421,249153,1341864,74149,9028,670485,0
110,2,705168,247934,1456803,73470,9315,728021,0
110,2,716260,250568,1400055,74986,9510,699524,0
111,2,709627,248410,1508797,73837,10309,754000,0
111,2,729590,253126,1332055,77016,9785,665710,0
111,2,716990,249286,1611406,74419,11239,805337,0
112,2,716352,251261,1622443,75157,10402,810486,0
112,2,708289,249520,1396163,74209,9025,697511,0
112,2,719925,251581,1347670,75543,9407,673281,0
113,2,710260,248677,1398049,73997,9727,698538,0
113,2,706081,248327,1316895,73672,9672,658032,0
113,2,713603,249306,1322493,74488,9311,660815,0
114,2,709138,248410,1497142,73867,10131,748294,0
114,2,708942,248873,1471364,73790,9183,735357,0
114,2,715486,250126,1278655,74895,9275,638546,0
115,2,710509,248981,1343279,74028,9668,671113,0
115,2,714557,248964,1319437,73843,9699,659324,0
115,2,712003,249082,1345604,74402,9609,672427,0
116,2,712047,249923,1506330,74576,10279,752597,0
116,2,714538,249163,1254596,73874,9794,626635,0
116,2,713650,249368,1241589,74548,8111,620559,0
117,2,712671,249321,1409829,74132,9159,704475,0
117,2,709968,247806,1326134,73360,9514,662730,0
117,2,711108,249346,1297251,74563,8923,648183,0
118,2,716322,250665,1467490,74899,9404,733183,0
118,2,716097,250121,1413562,74490,9716,706059,0
118,2,711042,249060,1294334,74407,8939,646955,0
119,2,731200,253141,1550325,77182,9524,774715,0
119,2,713375,248976,1296192,73844,8846,647572,0
119,2,712819,249523,1487582,74547,9336,743354,0
120,2,710920,249103,1472560,74135,8888,735739,0
120,2,710475,248286,1299207,73643,9223,649315,0
120,2,735702,253632,1484560,77717,9924,741955,0
121,2,709900,249186,1444061,74195,9251,721642,0
121,2,731404,253420,1314451,77072,10019,656954,0
121,2,717494,249319,1304615,74511,8718,651738,0
122,2,708941,248970,1407351,74041,8788,703283,0
122,2,711191,248486,1368897,73690,8809,683893,0
122,2,714415,248074,1355828,74095,9465,677632,0
123,2,709705,248488,1573966,73894,9465,786577,0
123,2,708474,247916,1283744,73451,8803,641559,0
123,2,720554,250916,1346880,75204,9264,672922,0
124,2,709097,248926,1472220,74010,9293,735700,0
124,2,714283,249957,1503072,74327,9587,751055,0
124,2,715881,249375,1424542,74539,8979,712054,0
125,2,706192,247396,1392947,73619,9258,696004,0
125,2,708296,248421,1336509,73611,8948,667903,0
125,2,713583,248683,1330492,74310,8682,664961,0
126,2,708508,248475,1400883,73860,8967,700060,0
126,2,704127,247071,1408882,73191,9781,704077,0
126,2,714855,248831,1446148,74319,10058,722747,0
127,2,712319,250734,1355874,74870,9123,676995,0
127,2,716546,250486,1375760,74605,9422,687327,0
127,2,712742,248789,1327820,74359,9046,663547,0
128,2,730126,253884,1400814,77472,10487,699965,0
128,2,710097,248462,1367541,73706,8872,683324,0
128,2,711486,248624,1474273,74238,9518,736745,0
129,2,709329,248889,1323162,74068,8849,661255,0
129,2,708752,247978,1376738,73539,9129,687986,0
129,2,715480,248580,1382739,74236,8788,691075,0
130,2,714056,249142,1441980,74078,9977,720620,0
130,2,709708,248540,1329621,73692,8863,664442,0
130,2,713102,249191,1334388,74535,8945,666850,0
131,2,715218,250327,1480245,74682,10109,739463,0
131,2,707699,248163,1357085,73486,8864,678171,0
131,2,715093,249374,1471538,74512,10013,735359,0
132,2,712581,249168,1431675,74089,9269,715264,0
132,2,712149,250562,1377507,74647,8842,688133,0
132,2,716817,250318,1418449,75061,9266,708098,0
133,2,715014,250561,1410498,74869,9097,704579,0
133,2,708639,247927,1380287,73522,9209,689793,0
133,2,713696,249814,1314375,74530,9801,656776,0
134,2,731164,253614,1374798,77369,9552,686998,0
134,2,708530,248323,1296230,73574,8215,647764,0
134,2,720132,251364,1289708,75315,9635,644127,0
135,2,710537,248906,1324742,74104,9068,661898,0
135,2,709968,248603,1373240,73721,9070,686290,0
135,2,713857,249984,1260342,74596,9114,629669,0
136,2,708043,248352,1443075,73754,9144,721176,0
136,2,710897,249363,1351914,74141,8991,675430,0
136,2,714684,250608,1325318,75067,8948,661927,0
137,2,710414,249576,1308353,74253,8800,653740,0
137,2,708117,248672,1231409,73702,8851,615334,0
137,2,714554,250806,1346212,75141,10019,672360,0
138,2,713637,250099,1434598,74620,9940,716813,0
138,2,709237,248563,1313204,73674,9502,656243,0
138,2,713707,249664,1347445,74552,9525,673290,0
139,2,710481,248640,1329988,73982,9885,664574,0
139,2,708388,248319,1274055,73675,8870,636690,0
139,2,719339,251056,1338569,75219,9915,668580,0
140,2,709625,248359,1368379,73889,9178,683698,0
140,2,707334,248033,1332312,73483,9349,665771,0
140,2,713552,248966,1336651,74301,9560,668044,0
140,-1,662466,224079,1301996,69291,9492,650711,0
141,2,708913,248511,1492939,73931,10084,745948,0
141,2,706498,248224,1247196,73576,8700,622818,0
141,2,720009,250818,1524343,74855,10357,761571,0
141,-1,643261,220035,1247561,66190,7722,623260,0
142,2,709379,249511,1296685,74270,9102,647784,0
142,2,715006,249695,1332072,74261,9269,665519,0
142,2,715648,249949,1423777,74673,9722,711560,0
142,-1,643319,220522,1369464,66538,8462,684063,0
143,2,713245,250447,1437307,74754,9828,718165,0
143,2,710742,248002,1391755,73481,9211,695549,0
143,2,719280,251242,1412940,75269,9928,705953,0
143,-1,639008,219331,1307689,65956,8279,653330,0
144,2,709527,248349,1446606,73906,9371,722609,0
144,2,709471,248033,1326335,73582,9007,662869,0
144,2,714735,249936,1433247,74592,9566,716186,0
144,-1,638803,219652,1374920,65997,8115,686952,0
145,2,716117,251102,1456572,75057,9526,727559,0
145,2,708590,248063,1297904,73515,8587,648697,0
145,2,714559,249816,1492793,74510,9878,746080,0
145,-1,662159,223989,1400437,69278,8769,699695,0
146,2,733147,254029,1426231,77551,9810,712698,0
146,2,732935,257504,1446569,76315,9164,722866,0
146,2,714724,249499,1473132,74328,9421,736231,0
146,-1,639284,219216,1316648,65907,8413,657496,0
147,2,709120,248848,1335739,74065,8451,667399,0
147,2,707728,248409,1296106,73676,8477,647734,0
147,2,717645,251295,1341127,75343,9635,669875,0
147,-1,640063,219433,1288618,65935,7652,643852,0
148,2,711227,249719,1348681,74334,9131,673991,0
148,2,707683,248629,1382727,73654,8605,691008,0
148,2,710423,248604,1469329,74143,8913,734321,0
148,-1,639956,219859,1179870,66129,6967,589582,0
149,2,706749,248293,1349325,73840,8621,674208,0
149,2,708489,249049,1300886,73920,8512,650140,0
149,2,716059,250599,1445009,75055,9460,721823,0
149,-1,642754,220858,1299098,66629,7938,648976,0
150,2,710353,250573,1369164,74924,9932,683642,0
150,2,713859,249918,1462000,74436,9497,730436,0
150,2,712656,249770,1483052,74564,9399,741115,0
150,-1,639500,219652,1270055,66059,7522,634715,0
151,2,708152,248808,1365082,74019,9212,682095,0
151,2,711057,249159,1383096,73893,9480,691259,0
151,2,712369,249814,1416448,74604,9188,707800,0
151,-1,658945,224052,1310649,69284,8345,654850,0
152,2,706524,248660,1365615,73960,8972,682404,0
152,2,709704,248507,1381585,73695,8983,690547,0
152,2,707185,248310,1462156,73979,9321,730726,0
152,-1,642963,220230,1431526,66304,9053,714366,0
153,2,706708,248469,1300996,73901,8388,650069,0
153,2,708757,248649,1463406,73701,9047,731389,0
153,2,709618,248532,1449096,74221,9914,724181,0
153,-1,639397,219064,1266904,65916,8026,633024,0
154,2,707201,248693,1400111,74021,9265,699699,0
154,2,707311,248180,1403278,73575,9040,701229,0
154,2,713198,250468,1404960,75017,9685,701782,0
154,-1,639553,219399,1178928,65940,7101,589146,0
155,2,707291,248603,1349823,73967,8602,674467,0
155,2,725711,252718,1315397,76928,9641,657410,0
155,2,708951,248685,1568215,74177,11424,783208,0
155,-1,643759,221273,1277912,66839,7699,638117,0
156,2,712946,251284,1432814,75094,9618,715758,0
156,2,707384,247976,1280759,73556,8503,640027,0
156,2,710621,249435,1582820,74477,10875,791589,0
156,-1,637084,219009,1202472,65797,7506,600997,0
157,2,727604,253435,1462269,77333,10311,730797,0
157,2,712003,250128,1352282,74472,9980,675620,0
157,2,709653,248910,1613474,74235,11524,806085,0
157,-1,637401,219110,1282330,65854,7659,640852,0
158,2,710901,248769,1381323,74051,9723,690207,0
158,2,707752,248917,1359099,73842,9144,679170,0
158,2,718981,250644,1408740,75161,9387,703775,0
158,-1,638116,219886,1171361,66145,6460,585233,0
159,2,710924,248305,1308944,73845,8465,653815,0
159,2,707018,248319,1357740,73654,8850,678607,0
159,2,712775,248743,1413971,74201,9871,706702,0
159,-1,640439,220819,1307385,66637,7234,653177,0
160,2,707126,247817,1293392,73626,8683,646307,0
160,2,708761,249494,1286828,74082,9563,643078,0
160,2,714112,249394,1389972,74507,10411,694172,0
160,-1,641767,219967,1328871,66126,7771,663958,0
161,2,717720,251258,1434936,75088,10097,716802,0
161,2,703923,247972,1254143,73542,9252,626744,0
161,2,715256,249543,1455103,74533,10060,727125,0
161,-1,666300,228668,1215604,68736,7654,607441,0
162,2,709299,248501,1423319,73890,9570,711369,0
162,2,704012,248614,1286846,73813,8830,643064,0
162,2,739726,255125,1548317,78656,11064,773466,0
162,-1,639666,219860,1162628,66132,7567,580916,0
163,2,709852,248824,1422587,73990,9760,710774,0
163,2,712564,248959,1237532,73910,9309,618328,0
163,2,715221,249428,1517050,74467,9823,758258,0
163,-1,636417,218891,1266296,65771,7597,632970,0
164,2,707521,248749,1333048,73986,8861,665794,0
164,2,713360,250180,1545972,74537,10045,772349,0
164,2,713466,249343,1444763,74459,9818,721870,0
164,-1,636137,219180,1192425,65910,6993,595622,0
165,2,710724,248749,1419320,73975,9323,709310,0
165,2,731855,253160,1487493,77005,10474,743185,0
165,2,711138,249087,1324197,74332,8300,661713,0
165,-1,639234,220423,1273056,66439,7892,635999,0
166,2,707108,247773,1285355,73613,9285,642316,0
166,2,709995,248762,1408741,73832,9877,703996,0
166,2,711178,248284,1456701,74063,9662,727729,0
166,-1,637606,220067,1383157,66184,8450,691221,0
167,2,716244,250929,1400945,74920,10146,699865,0
167,2,711570,249474,1471440,74271,9940,735163,0
167,2,720380,251503,1369569,75549,9209,683868,0
167,-1,640123,219174,1292553,65849,8129,645978,0
168,2,709842,248775,1255487,74057,9326,627299,0
168,2,709735,248052,1431719,73574,9340,715415,0
168,2,737023,254111,1559437,77814,10495,779185,0
168,-1,641939,219926,1278332,66144,8334,638788,0
169,2,708933,248472,1318005,73901,9867,658641,0
169,2,710841,249372,1538740,74032,9231,768594,0
169,2,711615,248664,1345090,74236,8393,672198,0
169,-1,640466,219684,1175570,66059,7139,587424,0
170,2,711966,250298,1326376,74655,9359,662650,0
170,2,708752,248935,1366807,73880,8949,683045,0
170,2,716280,251174,1332526,75324,8909,665446,0
170,-1,640958,219664,1434818,66008,8747,717055,0
171,2,708220,248497,1291134,73845,9117,645015,0
171,2,711233,249742,1387483,74134,9670,693383,0
171,2,716350,250731,1327317,75112,9217,663128,0
171,-1,644932,221821,1457690,67167,8671,727965,0
172,2,707556,248245,1412659,73790,8747,705678,0
172,2,712420,250333,1479577,74626,10354,739119,0
172,2,711729,249334,1410535,74451,9318,704848,0
172,-1,637996,219016,1290148,65948,7948,644703,0
173,2,715045,251779,1540859,75210,9206,769816,0
173,2,709861,248710,1605004,73817,9362,802029,0
173,2,710185,248495,1417009,74149,9279,708075,0
173,-1,637640,218922,1181756,65841,7471,590515,0
174,2,710828,249733,1318799,74279,9117,659112,0
174,2,711779,250106,1467710,74544,9420,733306,0
174,2,736969,258247,1413070,77118,9356,706098,0
174,-1,640745,219504,1291713,66091,8336,645466,0
175,2,708090,248950,1355824,74091,9126,677489,0
175,2,728738,253437,1392340,77147,10398,695710,0
175,2,715513,249592,1261751,74619,9529,630458,0
175,-1,638179,218933,1205848,65850,7975,602683,0
176,2,710898,249644,1410532,74276,9546,704728,0
176,2,707625,249023,1449220,73914,9669,724283,0
176,2,712317,248951,1285176,74367,9385,642181,0
176,-1,659738,223647,1437779,69191,8987,718441,0
177,2,712611,250915,1561905,74919,10260,780112,0
177,2,707526,248268,1309488,73625,9290,654361,0
177,2,711103,248555,1272037,74177,8705,635622,0
177,-1,637770,219385,1400547,66049,7892,699486,0
178,2,705298,248679,1511884,73952,9275,755578,0
178,2,708728,248582,1416328,73741,9813,707878,0
178,2,715428,250602,1285126,75081,9399,641799,0
178,-1,645662,221112,1333907,66821,8608,666291,0
179,2,705858,249473,1399869,74259,9093,699418,0
179,2,708396,248871,1470737,73883,9365,734913,0
179,2,713017,248862,1413560,74263,9214,706282,0
179,-1,636991,218583,1263223,65766,7846,631187,0
180,2,711648,249073,1478026,74130,10036,738407,0
180,2,711466,250041,1470291,74538,9910,734454,0
180,2,733986,253807,1455785,77686,9599,727557,0
180,-1,637953,218855,1129218,65838,7276,564236,0
181,2,708550,248298,1357060,73825,9196,678137,0
181,2,730323,254049,1450942,77351,10290,725013,0
181,2,712134,249297,1393527,74406,9098,696276,0
181,-1,644701,221645,1243699,67078,8583,621149,0
182,2,710122,248833,1478080,74030,9535,738590,0
182,2,705542,248042,1405449,73562,10173,702369,0
182,2,708092,248660,1370976,74259,8918,685081,0
182,-1,637732,219058,1192372,65899,7145,595587,0
183,2,714827,251142,1541567,75084,10701,770144,0
183,2,708319,247733,1648905,73401,10523,824151,0
183,2,709636,249088,1469550,74354,10024,734213,0
183,-1,643549,221595,1235390,66988,7945,617067,0
184,2,708116,248437,1473517,73852,9925,735192,0
184,2,709920,248639,1436209,73818,9527,717714,0
184,2,712861,249246,1371616,74436,8389,685373,0
184,-1,639150,219210,1205846,66016,8476,602377,0
185,2,707632,249017,1307097,74058,9079,653320,0
185,2,708737,248189,1453591,73602,10241,726517,0
185,2,711063,248797,1306514,74252,8376,652887,0
185,-1,643726,221336,1222141,66977,8410,610387,0
186,2,710932,249461,1346939,74165,8885,673180,0
186,2,731751,253849,1504888,77270,11202,752093,0
186,2,709640,249154,1419848,74435,9162,709456,0
186,-1,658276,223637,1240264,69198,8742,619643,0
187,2,714336,251458,1422975,75216,10059,710826,0
187,2,705503,247480,1492539,73456,10416,745816,0
187,2,711040,248514,1367336,74101,8575,683330,0
187,-1,636963,219228,1162890,66034,7681,580963,0
188,2,729747,253262,1352540,77310,10465,675666,0
188,2,709881,249116,1472286,73945,9813,735819,0
188,2,710865,249094,1296876,74403,8577,648033,0
188,-1,636614,218776,1310688,65820,8348,655041,0
189,2,708421,249180,1244451,74145,8730,621847,0
189,2,710075,249324,1363079,74003,9910,680983,0
189,2,715851,251165,1363750,75334,9620,681150,0
189,-1,637308,219508,1347297,66126,8008,673159,0
190,2,710768,250012,1421263,74589,9469,709578,0
190,2,709256,248251,1605962,73636,9937,802680,0
190,2,731579,253941,1588000,77741,10244,793607,0
190,-1,635822,218973,1211670,65831,7916,605539,0
191,2,705717,248401,1334695,73845,9288,666902,0
191,2,708277,249226,1511199,73969,10060,755244,0
191,2,709686,249365,1424260,74469,9593,711727,0
191,-1,631432,217463,1197699,65400,7563,598419,0
192,2,712343,250918,1442850,74978,10114,720727,0
192,2,709389,249428,1453627,74232,9649,726003,0
192,2,710659,248968,1378963,74321,9040,689037,0
192,-1,647823,221593,1326180,67052,9227,662384,0
193,2,707117,248129,1350217,73830,9544,674714,0
193,2,706176,248546,1463899,73729,10369,731589,0
193,2,715307,250796,1307577,75126,8621,653210,0
193,-1,637176,218498,1223406,65717,7729,611304,0
194,2,707264,248438,1411363,73829,10172,705114,0
194,2,705691,247502,1299836,73332,9989,649153,0
194,2,709824,249065,1354975,74309,8402,677053,0
194,-1,643674,221329,1310484,66870,8573,654745,0
195,2,707826,249577,1408281,74276,9357,703711,0
195,2,707147,248538,1363360,73807,10520,681153,0
195,2,708144,248757,1362096,74279,8756,680637,0
195,-1,641565,219799,1362374,66180,8908,680714,0
196,2,708379,248564,1441002,73849,9203,720166,0
196,2,709504,249395,1299189,74044,10250,649267,0
196,2,714010,249195,1309706,74428,9183,654402,0
196,-1,638447,219215,1378904,66010,8105,689016,0
197,2,708683,249257,1542125,74178,9856,770061,0
197,2,708169,248695,1299911,73798,9885,649505,0
197,2,713857,248767,1294390,74241,9328,646701,0
197,-1,643346,221562,1324878,67053,8671,661753,0
198,2,706003,248701,1326359,73933,8304,662748,0
198,2,710418,250192,1461764,74507,10180,730271,0
198,2,716405,250500,1286013,75113,8568,642309,0
198,-1,658282,223661,1296240,69256,8462,647753,0
199,2,727787,253718,1455430,77379,10098,727003,0
199,2,726067,252703,1388576,76899,10869,693908,0
199,2,714453,250207,1406834,74931,9306,702744,0
199,-1,637762,219152,1223346,66007,8717,611153,0
200,2,707352,249017,1429687,74086,9602,714379,0
200,2,706298,248884,1545114,73836,10320,771393,0
200,2,712791,249323,1513941,74430,9561,756376,0
200,-1,642585,220987,1328370,66774,8817,663743,0
201,2,705794,248505,1305306,73896,8615,652125,0
201,2,706925,248620,1388825,73728,9916,693936,0
201,2,712444,249556,1365669,74435,9002,682483,0
201,-1,635937,218654,1231129,65759,7968,615122,0
202,2,711738,250721,1536237,74899,10021,768019,0
202,2,706379,248647,1437891,73745,10415,718501,0
202,2,712618,248555,1410574,74124,8618,704828,0
202,-1,633848,218327,1259890,65606,8228,629562,0
203,2,719181,251467,1503074,75145,10363,750699,0
203,2,704539,248198,1591614,73611,9994,795355,0
203,2,717080,250819,1307836,75123,8278,653269,0
203,-1,634861,218954,1220895,65947,8369,609990,0
204,2,733056,253172,1428017,77226,10926,713349,0
204,2,703168,248629,1588795,73798,9371,793363,0
204,2,710843,249243,1462629,74398,9150,731001,0
204,-1,639683,219421,1263491,66078,7943,631303,0
205,2,711407,248246,1343314,73799,10684,671247,0
205,2,713338,249451,1464369,74030,9263,731830,0
205,2,714083,250117,1331992,74869,9718,665465,0
205,-1,639079,219557,1144374,66062,7622,571776,0
206,2,712518,249003,1286348,74057,9467,642680,0
206,2,718041,250197,1438116,74578,10226,717792,0
206,2,710209,248737,1447941,74171,9237,723701,0
206,-1,658321,224048,1264070,69386,9329,631686,0
207,2,709668,248310,1255698,73819,9546,627616,0
207,2,736609,253631,1458819,77194,10798,729207,0
207,2,710692,249368,1441086,74445,9461,720080,0
207,-1,639712,220139,1221959,66497,9030,610574,0
208,2,712128,248976,1407644,74075,8454,703186,0
208,2,717117,250037,1461003,74433,10409,729751,0
208,-1,634517,218695,1198225,65802,8144,598583,0
208,2,715400,251514,1358413,75450,9064,678600,0
209,2,710633,248998,1449121,74075,8906,724113,0
209,2,711406,248458,1508678,73699,9911,753894,0
209,-1,633902,218769,1138633,65839,7759,569003,0
209,2,730197,253544,1460067,77583,10493,729592,0
210,2,709574,248454,1325060,73784,9063,662202,0
210,2,711758,248466,1522101,73740,10105,760759,0
210,-1,639442,219868,1213770,66230,8224,606433,0
210,2,713489,249357,1329668,74319,9027,664424,0
211,2,715175,251293,1440869,75112,9352,719583,0
211,2,710645,248414,1436614,73676,10234,718487,0
211,-1,640778,220791,1246586,66801,8898,622645,0
211,2,711562,249215,1413395,74404,9398,706238,0
212,2,708648,248038,1345220,73729,8624,672151,0
212,2,712086,248401,1484032,73654,10374,741382,0
212,-1,636024,219268,1252624,66012,7770,625735,0
212,2,709983,248569,1414653,74079,9231,706900,0
213,2,730565,253147,1434111,77223,9985,716348,0
213,2,712203,248714,1499755,73827,10133,749071,0
213,-1,637048,219613,1312126,66150,7965,655679,0
213,2,732281,253836,1462972,77677,10472,731181,0
214,2,718144,251380,1458309,75021,10311,728631,0
214,2,712016,248754,1395743,73818,9893,697529,0
214,-1,639306,220308,1313020,66587,8435,655837,0
214,2,715906,250710,1334917,75033,8877,666870,0
215,2,708799,248170,1455672,73758,9806,727602,0
215,2,712938,248802,1348770,73915,9958,673992,0
215,-1,637178,219807,1281071,66201,8447,639999,0
215,2,709044,248746,1378413,74166,8846,688822,0
216,2,708951,248383,1398303,73852,9254,698958,0
216,2,729845,252566,1401985,76875,10619,700538,0
216,-1,634282,218877,1189849,65867,8055,594519,0
216,2,710788,249323,1329181,74427,8350,664025,0
217,2,715502,251813,1477587,75268,9962,738031,0
217,2,712384,248773,1485718,73779,9936,742605,0
217,-1,635233,219165,1299833,66006,8648,649344,0
217,2,708595,248748,1306896,74119,9201,652929,0
218,2,708125,248626,1347233,73974,9330,673191,0
218,2,708280,248039,1434483,73598,9297,716382,0
218,-1,665441,224021,1340550,69381,8530,669964,0
218,2,711351,250047,1260395,74502,8788,629773,0
219,2,711685,248545,1370417,73962,10645,684820,0
219,2,708823,248133,1276421,73586,8562,637907,0
219,-1,640475,218891,1279244,65860,8136,639272,0
219,2,736542,259052,1352622,77276,10373,675920,0
220,2,711253,249036,1371958,74086,10614,685547,0
220,2,709106,248048,1371930,73559,8479,685649,0
220,-1,641569,219181,1213883,65992,8155,606586,0
220,2,714635,249536,1266921,74467,9484,632950,0
221,2,709401,248640,1491227,73914,10586,745230,0
221,2,711650,249378,1408877,74187,9182,704022,0
221,-1,644586,220625,1369374,66656,8450,684120,0
221,2,721076,252475,1290157,75647,9242,644325,0
222,2,706894,248045,1436064,73742,9535,717473,0
222,2,708033,248245,1359864,73628,8983,679551,0
222,-1,639770,218776,1244411,65821,7967,621753,0
222,2,714983,250572,1349588,74940,8812,674216,0
223,2,710681,248748,1316229,73952,9431,657666,0
223,2,711998,248307,1401541,73709,8478,700394,0
223,-1,645273,221356,1299536,67031,7668,648979,0
223,2,734203,254191,1506389,77715,10784,752832,0
224,2,716205,250838,1541196,75012,10568,769762,0
224,2,710732,248777,1464867,73862,8237,731998,0
224,-1,661419,224006,1389026,69387,9314,694145,0
224,2,711476,249362,1410612,74306,9223,704863,0
225,2,708525,248294,1284541,73809,8559,641948,0
225,2,710947,248226,1400588,73701,8688,699846,0
225,-1,637739,218869,1226556,65898,7772,612736,0
225,2,712707,250198,1404102,74639,9348,701623,0
226,2,708302,248625,1409250,73968,9014,704245,0
226,2,709965,248321,1392214,73656,8478,695780,0
226,-1,641506,219237,1223028,66033,7946,611097,0
226,2,711018,249317,1422979,74326,8719,711118,0
227,2,709330,249219,1307553,74078,8393,653210,0
227,2,712062,249380,1281478,74034,9042,640368,0
227,-1,644376,220707,1317324,66671,8775,657914,0
227,2,709872,249499,1486580,74306,9027,742757,0
228,2,712269,250355,1435693,74786,9155,717224,0
228,2,711709,248523,1409820,73824,8723,704490,0
228,-1,639304,218724,1319645,65808,7659,659524,0
228,2,715565,251742,1331606,75458,8505,665111,0
229,2,712227,248768,1537674,73948,9450,768471,0
229,2,730391,252939,1381830,76930,10165,690513,0
229,-1,639753,219513,1389052,66096,8015,694139,0
229,2,707567,249399,1399021,74400,9172,699028,0
230,2,712030,249708,1415676,74458,9328,706967,0
230,2,707560,248590,1295122,73743,8395,647175,0
230,-1,663859,224936,1344719,69675,9369,672024,0
230,2,713774,250366,1323751,74819,9474,661446,0
231,2,730523,253604,1433495,77358,9980,716341,0
231,2,710405,248891,1362891,73834,9658,681146,0
231,-1,638581,219195,1240621,66014,8523,619690,0
231,2,710232,249443,1400530,74403,9466,699806,0
232,2,709364,248820,1339368,73980,9652,669243,0
232,2,708490,249020,1309746,73939,8701,654288,0
232,-1,637161,219080,1213249,65963,7807,606058,0
232,2,709371,249316,1405899,74338,9673,702320,0
233,2,705756,248685,1406798,73942,9297,702759,0
233,2,710607,248721,1310605,73882,8862,654597,0
233,-1,638933,219414,1282786,66019,8084,641012,0
233,2,708989,249182,1326340,74313,9139,662832,0
234,2,717123,250783,1492113,74917,10802,745345,0
234,2,715633,250872,1466735,74890,9875,732800,0
234,-1,641506,219661,1326844,66180,8399,662959,0
234,2,711764,250763,1353065,75051,9146,675858,0
235,2,733869,253920,1453012,77456,10945,726030,0
235,2,710216,249378,1659438,74043,10051,829384,0
235,-1,640394,219132,1229822,65935,8500,614617,0
235,2,710838,249414,1390630,74420,10481,694769,0
236,2,711326,248739,1338908,73949,9333,668956,0
236,2,707471,248710,1280626,73832,9297,639924,0
236,-1,642096,220899,1222839,66727,8382,610973,0
236,2,710588,249586,1310262,74517,10030,654668,0
237,2,714397,249754,1434062,74512,10370,716578,0
237,2,718553,250233,1425839,74577,9963,712515,0
237,-1,637521,219149,1240352,65974,7951,620033,0
237,2,710656,249781,1262118,74514,10085,630584,0
238,2,708633,248447,1476782,73854,9516,737832,0
238,2,714449,249489,1487371,74119,9751,743177,0
238,-1,636771,218300,1207196,65676,7700,603256,0
238,2,708191,249579,1400367,74511,9621,699717,0
239,2,731711,253279,1455591,77348,11338,727338,0
239,2,712298,248720,1530306,73775,9768,764776,0
239,-1,640669,220803,1308335,66659,8255,653426,0
239,2,711769,249615,1307285,74565,8908,653102,0
240,2,709641,248268,1347813,73926,10630,673423,0
240,2,712300,249167,1413820,74182,9383,706431,0
240,-1,640214,219900,1315755,66235,8046,657377,0
240,2,720098,250240,1458095,74696,9429,728628,0
241,2,709414,248214,1437376,73851,10441,718354,0
241,2,713157,248944,1428929,73856,9064,714170,0
241,-1,635750,218675,1219082,65802,7585,609084,0
241,2,722482,251544,1337417,75436,9581,667996,0
242,2,707828,248009,1366874,73856,9562,683001,0
242,2,712113,248887,1321044,73902,9316,660073,0
242,-1,640830,221229,1305585,66930,8173,652009,0
242,2,717981,250880,1430191,74934,9778,714642,0
243,2,712221,249841,1422312,74549,9348,710644,0
243,2,735131,253948,1296628,77835,10241,647861,0
243,-1,640046,219224,1312440,66013,7351,655675,0
243,2,721059,250925,1359507,75158,10130,679214,0
244,2,714061,251277,1508584,75158,9846,753692,0
244,2,712237,249205,1330259,73972,9836,664667,0
244,-1,639257,219277,1273801,66021,7894,636613,0
244,2,714515,249193,1334265,74413,9490,666656,0
245,2,706177,248504,1424551,73963,9726,712000,0
245,2,710672,247950,1244453,73546,8409,621735,0
245,-1,638293,218929,1216532,65876,7634,607632,0
245,2,714154,249370,1422145,74526,9617,710653,0
246,2,707195,247653,1326763,73695,9260,662924,0
246,2,711693,248616,1344952,73794,8982,672098,0
246,-1,637930,218970,1298236,65888,8555,648693,0
246,2,718117,251313,1349420,75451,9162,674030,0
247,2,729848,252967,1357093,77266,10358,677986,0
247,2,711702,248818,1435009,73886,8818,717047,0
247,-1,646047,222091,1353764,67252,8757,676257,0
247,2,717277,249894,1432959,74720,9483,715761,0
248,2,708161,248524,1287133,74046,8403,642954,0
248,2,708859,248500,1292536,73823,8259,646253,0
248,-1,658749,223738,1305145,69278,8013,652201,0
248,2,715446,249304,1412481,74479,9212,705495,0
249,2,706669,248192,1355134,73864,8765,676994,0
249,2,711314,248358,1374783,73657,9202,687065,0
249,-1,643970,220689,1484004,66630,9192,741105,0
249,2,714612,249393,1472977,74507,9244,736098,0
250,2,708357,248571,1255422,74051,9156,627187,0
250,2,715648,250732,1422513,74733,9206,711012,0
250,-1,640609,219725,1339351,66156,9168,669102,0
250,2,719815,252277,1353125,75834,9410,675751,0
251,2,707662,248736,1418537,74095,9288,708768,0
251,2,730065,253122,1328699,77041,9083,664064,0
251,-1,641893,221246,1318168,66940,7949,658486,0
251,2,718998,250599,1472523,75148,9298,735553,0
252,2,704209,248080,1399637,73888,9561,699216,0
252,2,706071,247604,1276191,73380,8130,637762,0
252,-1,657607,223365,1288863,69105,8462,644069,0
252,2,714056,249006,1420560,74334,9160,709856,0
253,2,731345,253010,1461001,77274,10397,730158,0
253,2,708833,248852,1369670,73867,8512,684438,0
253,-1,635475,218648,1380403,65759,7928,689848,0
253,2,715277,249920,1336540,74722,9407,667728,0
254,2,708995,248571,1347576,74063,9701,673320,0
254,2,712611,249304,1492072,74219,9672,745438,0
254,-1,640011,220654,1257281,66665,7665,627759,0
254,2,736583,254224,1542748,77934,10898,770943,0
255,2,709211,248148,1427950,73867,9774,713534,0
255,2,713179,249929,1453453,74454,9493,726058,0
255,-1,638875,218863,1287657,65853,9107,644296,0
255,2,712297,249019,1307368,74385,9442,653238,0
256,2,708003,248122,1406237,73849,9179,702776,0
256,2,730186,252950,1349215,76954,9903,674268,0
256,-1,638737,219766,1133462,66179,6702,566471,0
256,2,716997,251094,1296587,75293,9850,647308,0
257,2,707986,248383,1431431,73931,9311,715326,0
257,2,707966,248310,1279239,73637,9094,639268,0
257,-1,634826,218643,1194605,65786,7087,596952,0
257,2,710312,249286,1339555,74543,9895,669227,0
258,2,709327,248407,1437718,73934,10344,718509,0
258,2,710596,248622,1411741,73784,9900,705072,0
258,-1,636528,219200,1239529,66042,7363,619417,0
258,2,714005,248687,1345049,74349,9764,672022,0
259,2,705931,248555,1486226,74058,10026,742498,0
259,2,709521,248223,1562309,73609,9704,780747,0
259,-1,642016,221550,1549137,67062,8948,773948,0
259,2,713193,249360,1317727,74509,10110,658380,0
260,2,708499,248444,1448794,73959,9857,724017,0
260,2,729192,252580,1290481,76905,9723,644762,0
260,-1,637033,219272,1151248,66042,7987,575185,0
260,2,711163,249302,1382328,74552,9616,690703,0
261,2,714092,251212,1534845,75141,10197,766681,0
261,2,710330,249222,1372129,73996,8998,685727,0
261,-1,635160,218465,1173499,65693,6757,586355,0
261,2,747579,260288,1466358,78131,9586,732268,0
262,2,727764,253201,1465025,77357,10353,731930,0
262,2,706524,247869,1311492,73469,8768,655389,0
262,-1,662540,228453,1324281,68765,7912,661765,0
262,2,715012,249730,1395260,74707,8924,697111,0
263,2,706627,248618,1350416,74038,9379,674616,0
263,2,706345,248224,1385679,73623,8805,692460,0
263,-1,640475,221228,1343968,66953,7958,671465,0
263,2,713753,248697,1352259,74302,9352,675981,0
264,2,713505,250648,1443591,74892,10074,721209,0
264,2,705143,247847,1359789,73447,8810,679657,0
264,-1,657366,224450,1380466,69498,8908,689743,0
264,2,713583,249134,1404717,74422,8723,701827,0
265,2,708284,248293,1371623,73892,9394,685445,0
265,2,729949,253055,1268750,77056,9169,633963,0
265,-1,635307,219789,1376135,66242,9289,687039,0
265,2,713519,249597,1485397,74631,9157,742221,0
266,2,708575,249272,1394032,74501,9700,696307,0
266,2,706024,247781,1334647,73489,8753,667013,0
266,-1,636780,218630,1256785,65797,7343,628008,0
266,2,716960,251025,1342101,75296,9132,670451,0
267,2,707888,248433,1327192,73995,9816,662918,0
267,2,705358,247571,1301797,73424,8603,650553,0
267,-1,639746,218866,1212665,65847,7218,605955,0
267,2,720006,252471,1307950,75896,8586,653123,0
268,2,707080,249111,1291948,74231,9451,645412,0
268,2,711691,248709,1372115,73849,9066,685650,0
268,-1,644906,220948,1280835,66752,7722,639860,0
268,2,732164,253873,1475338,77819,10139,737289,0
269,2,708664,248752,1269918,74099,9192,634652,0
269,2,711602,249714,1388827,74154,8742,694115,0
269,-1,638784,218998,1238488,65907,6697,618867,0
269,2,712874,249003,1414529,74436,9660,706866,0
270,2,725748,252563,1429100,77115,10620,714137,0
270,2,708887,248701,1376814,73832,8566,688074,0
270,-1,638499,219164,1317496,66012,7059,658333,0
270,2,713758,249688,1322692,74660,9561,660825,0
271,2,730421,257051,1546946,76434,10000,773162,0
271,2,705471,247715,1457843,73445,8624,728602,0
271,-1,637382,218719,1279935,65767,7582,639483,0
271,2,714349,249841,1419109,74679,9444,709164,0
272,2,703004,248111,1349967,73856,9571,674471,0
272,2,708227,248640,1458466,73833,9365,728897,0
272,-1,644973,221253,1295823,66983,7826,647101,0
272,2,714278,249597,1419906,74638,8997,709440,0
273,2,705337,249702,1414543,74651,9329,706305,0
273,2,709106,249528,1607189,74269,9512,802934,0
273,-1,638418,218940,1375140,65883,7859,687237,0
273,2,713771,249609,1254442,74627,9475,626771,0
274,2,712569,248717,1365410,74114,9447,682319,0
274,2,707764,248438,1542735,73688,9111,770960,0
274,-1,640499,220780,1279438,66717,8147,639196,0
274,2,716404,251141,1267559,75313,8596,633053,0
275,2,710856,248730,1470384,74099,9621,734714,0
275,2,708861,248354,1346269,73677,9448,672652,0
275,-1,641709,220050,1251212,66285,7715,625169,0
275,2,711696,249686,1558340,74679,9840,778767,0
276,2,710471,248572,1413395,74000,8660,706174,0
276,2,713401,250105,1491828,74546,9883,745327,0
276,-1,639673,219699,1203149,66119,7317,600962,0
276,2,710585,249701,1530549,74552,10423,764885,0
277,2,706708,247831,1404312,73685,9368,701814,0
277,2,729168,253080,1449199,77034,10008,724187,0
277,-1,637057,218882,1282225,65873,7362,640852,0
277,2,718665,250944,1411157,75260,9654,705353,0
278,2,711489,249580,1435515,74375,9590,717021,0
278,2,710537,248762,1405986,73778,8985,702668,0
278,-1,635165,218585,1182038,65783,6519,590603,0
278,2,715434,249720,1560574,74620,10178,779822,0
279,2,706226,248016,1326092,73752,8700,662880,0
279,2,705821,248104,1544202,73573,9133,771720,0
279,-1,640685,220869,1237904,66755,7545,618229,0
279,2,714922,249885,1569236,75009,10098,783409,0
280,2,714711,250531,1440824,74944,9886,719622,0
280,2,705911,247710,1479315,73411,9203,739233,0
280,-1,639096,220159,1223824,66333,7545,611344,0
280,2,718661,251002,1438962,75253,9821,717867,0
281,2,708691,248646,1427421,74037,10108,713343,0
281,2,728999,252878,1456140,76968,9915,727737,0
281,-1,660092,224219,1317269,69441,8075,658176,0
281,2,713378,249552,1486418,74632,9921,742639,0
282,2,710738,249838,1431311,74630,10029,714875,0
282,2,706331,248148,1436594,73676,9025,717940,0
282,-1,637948,219029,1155287,65968,7253,577305,0
282,2,713655,249104,1466495,74407,9323,733164,0
283,2,710573,248379,1350530,73919,9266,674910,0
283,2,708772,249078,1394028,73895,8689,696605,0
283,-1,639946,220167,1292948,66554,8005,645825,0
283,2,712281,249255,1392997,74523,9695,695943,0
284,2,708818,248251,1338839,73898,9779,669209,0
284,2,709241,249731,1463468,74299,9325,731104,0
284,-1,636762,219350,1328758,66073,7668,664010,0
284,2,718555,251338,1469404,75511,9863,733975,0
285,2,716216,251139,1430221,75164,9909,714408,0
285,2,706008,248150,1484086,73611,9617,741781,0
285,-1,659383,224951,1300925,69665,8459,650043,0
285,2,734814,254167,1647886,77939,10697,823108,0
286,2,707984,248800,1267038,74034,9558,632889,0
286,2,726429,253515,1329551,77163,9501,664431,0
286,-1,641362,220746,1299492,66717,8169,649154,0
286,2,714189,250465,1455894,74901,10030,727383,0
287,2,708161,248377,1300931,73988,9763,650023,0
287,2,714234,248710,1337721,73775,9557,668544,0
287,-1,635987,218984,1280354,65945,7138,639764,0
287,2,714654,249006,1455162,74455,10103,726556,0
288,2,707960,248494,1341202,74004,9124,670318,0
288,2,712300,248389,1400496,73742,9951,699906,0
288,-1,635036,218931,1258440,65900,6985,628825,0
288,2,714842,249811,1474653,74702,9821,736469,0
289,2,714629,250777,1537841,75026,10692,768242,0
289,2,710094,247978,1406615,73599,9371,702863,0
289,-1,632252,218433,1262858,65749,8133,631143,0
289,2,716960,250599,1442243,75279,9862,720094,0
290,2,731897,253884,1530758,77568,9922,764931,0
290,2,710999,248178,1497696,73627,9966,748531,0
290,-1,635372,219027,1181332,65984,7175,590143,0
290,2,714011,250234,1270993,75122,8275,635064,0
291,2,705918,247911,1430335,73780,10012,714619,0
291,2,712197,248945,1476926,73799,9966,738037,0
291,-1,638676,219197,1228410,65995,7011,613813,0
291,2,712167,249771,1254138,74736,9238,626567,0
292,2,708877,249284,1384955,74271,10007,692003,0
292,2,712675,248940,1385160,73850,8924,692181,0
292,-1,633827,217579,1134715,65500,7189,566972,0
292,2,718708,251540,1352895,75642,8714,675600,0
293,2,708350,248978,1351761,74107,8642,675482,0
293,2,715101,250549,1503904,74636,9468,750988,0
293,-1,658787,223409,1376135,69189,8142,687707,0
293,2,711790,249223,1328653,74539,8436,663932,0
294,2,725303,253089,1445131,77311,10290,721970,0
294,2,732265,253217,1444787,76974,10074,721997,0
294,-1,637247,219189,1269973,65999,7030,634604,0
294,2,711912,249998,1315392,74885,9106,657168,0
295,2,709085,248239,1383712,73884,9307,691530,0
295,2,714837,250010,1531170,74176,9594,765066,0
295,-1,635681,218990,1258344,65811,7117,628679,0
295,2,711096,249234,1399179,74568,8732,699263,0
296,2,707365,247239,1493772,73555,9694,746597,0
296,2,710995,248623,1492756,73694,9513,746025,0
296,-1,637291,219437,1169853,66053,6612,584550,0
296,2,729851,253865,1459374,77836,10051,729276,0
297,2,714954,250581,1494218,74869,10451,746441,0
297,2,713248,249961,1507669,74357,9924,753260,0
297,-1,640013,220889,1257254,66726,7220,628014,0
297,2,714637,249684,1460879,74822,8942,730070,0
298,2,709031,248389,1587776,73951,11559,793306,0
298,2,710029,248939,1452136,73777,9632,725734,0
298,-1,636754,219811,1250336,66169,7259,624735,0
298,2,712876,249193,1439165,74585,8238,718698,0
299,2,708594,248756,1413789,74088,8991,706539,0
299,2,720439,252112,1504345,75114,10655,751659,0
299,-1,637350,219193,1246948,65951,7509,623099,0
299,2,713424,249129,1422867,74559,8818,711024,0
300,2,705989,248130,1444662,73829,9121,722000,0
300,2,714522,249985,1483011,74144,9852,741149,0
300,-1,644120,222197,1260721,67233,7663,629731,0
300,2,710432,248851,1321498,74484,9298,660319,0
301,2,706957,248083,1374630,73901,9026,687049,0
301,2,708244,247921,1398478,73453,9114,698890,0
301,-1,636803,219181,1182697,65973,7317,590861,0
301,2,711790,249827,1414531,74839,9367,706833,0
302,2,707064,248363,1310187,73930,8960,654706,0
302,2,712242,248884,1467618,73747,9290,733232,0
302,-1,641278,221354,1286345,66828,8097,642493,0
302,2,712907,249520,1467627,74664,9653,733491,0
303,2,707758,249016,1303358,74216,8321,651299,0
303,2,714554,250071,1551592,74387,9421,775254,0
303,-1,635224,219153,1174644,65820,7071,586709,0
303,2,718785,252313,1423421,75971,9579,711114,0
304,2,703482,247793,1444619,73736,9811,721866,0
304,2,732781,253256,1406336,76933,9969,702715,0
304,-1,631967,218826,1184630,65718,6998,591979,0
304,2,733232,253907,1443628,77915,10094,721382,0
305,2,708204,248283,1254565,73929,8551,626835,0
305,2,708338,248627,1442158,73615,8760,720628,0
305,-1,644538,222026,1269248,67081,7910,633950,0
305,2,714449,250848,1315252,75278,9695,656983,0
306,2,713511,251122,1320732,75161,9476,659711,0
306,2,731111,253957,1460177,77146,9583,729724,0
306,-1,658558,223751,1302686,69138,8410,650927,0
306,2,712980,249193,1459172,74463,9929,729219,0
307,2,729595,253137,1345535,77312,9937,672370,0
307,2,712122,248351,1388076,73543,9804,693687,0
307,-1,636570,219546,1195622,65996,7498,597394,0
307,2,733583,253602,1434317,77775,10597,716764,0
308,2,704711,247469,1266516,73663,8452,632893,0
308,2,716618,250424,1622360,74429,10917,810567,0
308,-1,641496,221417,1347178,66778,7930,672922,0
308,2,717308,251402,1274996,75426,9514,636741,0
309,2,711871,250339,1403869,74801,9020,701399,0
309,2,733146,253607,1443961,77057,10308,721538,0
309,-1,634999,219077,1380350,65866,7895,689865,0
309,2,710747,249266,1314280,74470,9487,656628,0
310,2,706060,248317,1273340,73936,8049,636320,0
310,2,712136,249104,1422350,73751,9084,710939,0
310,-1,635588,219153,1307068,65886,8372,653059,0
310,2,710083,249386,1339506,74569,9352,669140,0
311,2,705151,248547,1408859,74017,8259,704010,0
311,2,710898,249183,1369574,73834,8878,684401,0
311,-1,643415,222338,1290055,67164,8826,644495,0
311,2,708461,248726,1577722,74221,9662,787026,0
312,2,705422,248358,1405926,73978,8233,702651,0
312,2,711369,249689,1467596,74218,9540,733011,0
312,-1,636800,219008,1306641,65753,7461,652963,0
312,2,712526,249987,1625246,74725,9794,811377,0
313,2,728297,252925,1410212,77176,9652,704669,0
313,2,716285,251388,1534983,74806,9008,767032,0
313,-1,635692,219125,1191765,65816,7635,595500,0
313,2,708454,249471,1508270,74579,9794,753832,0
314,2,707712,248880,1311254,74155,8647,655229,0
314,2,711896,249662,1602114,73974,9567,800580,0
314,-1,635667,220010,1373499,66126,8121,686313,0
314,2,713953,251093,1409556,75386,10394,703740,0
315,2,704859,248101,1383307,73881,8729,691273,0
315,2,713741,250646,1526243,74464,10213,762611,0
315,-1,633477,218894,1170646,65675,7225,584940,0
315,2,708302,249487,1413161,74594,10145,706120,0
316,2,709981,250325,1401909,74808,9299,700516,0
316,2,712005,249821,1389534,74006,8799,694435,0
316,-1,655523,223976,1331440,69195,8435,665381,0
316,2,712090,248883,1385383,74367,10054,691918,0
317,2,704831,248823,1389483,74168,9012,694381,0
317,2,713517,250147,1406715,74327,10271,702920,0
317,-1,631948,218810,1252266,65676,7147,625771,0
317,2,719211,250454,1558699,75106,11050,779127,0
318,2,703457,248077,1295292,73845,8897,647262,0
318,2,707639,248352,1388681,73538,9318,694046,0
318,-1,647615,220208,1270710,66169,7521,634991,0
318,2,735568,253667,1522700,77829,11322,760515,0
319,2,712713,249632,1370876,74369,9208,685056,0
319,2,709262,249138,1500788,73852,9268,750004,0
319,-1,642319,218705,1229040,65635,7631,614138,0
319,2,714780,250347,1398057,75137,10186,698033,0
320,2,730873,253582,1476152,77401,9710,737564,0
320,2,710672,249395,1444353,73947,9717,721816,0
320,-1,647682,221315,1352237,66876,7940,675387,0
320,2,713049,248641,1626784,74222,10507,812715,0
321,2,707492,248690,1388066,74124,8264,693678,0
321,2,711610,250402,1482487,74454,10175,740683,0
321,-1,645204,219975,1159390,66111,8358,579166,0
321,2,714050,249338,1663901,74525,11037,830950,0
322,2,707959,248728,1332562,74114,9006,665946,0
322,2,730004,253673,1445884,77104,10276,722559,0
322,-1,642635,219202,1216856,65799,8196,608082,0
322,2,733012,253590,1536484,77709,11423,767054,0
323,2,708179,248606,1417409,74068,8939,708366,0
323,2,708731,249390,1441347,73871,9450,720349,0
323,-1,643776,219932,1171107,66084,8361,584998,0
323,2,711618,248540,1451913,74225,10402,725603,0
324,2,712317,250567,1413218,74969,9374,705947,0
324,2,711968,248582,1528768,73734,9989,763995,0
324,-1,644781,220500,1236609,66405,8173,617574,0
324,2,712787,249455,1457854,74613,10851,728927,0
325,2,707630,248849,1339074,74130,8627,669009,0
325,2,715349,250851,1492849,74787,10111,745862,0
325,-1,643355,219373,1232365,65863,8210,615677,0
325,2,710849,248818,1376806,74421,11077,688224,0
326,2,705802,248622,1279616,74053,8824,639427,0
326,2,734689,253520,1443509,77172,10517,721456,0
326,-1,647554,221220,1295665,66760,8628,646955,0
326,2,709056,248593,1394301,74179,10170,696524,0
327,2,711715,249780,1415335,74674,9100,706895,0
327,2,710811,248576,1469652,73693,9687,734492,0
327,-1,666312,224922,1412995,69438,9174,706119,0
327,2,715282,249021,1518150,74336,10482,757669,0
328,2,709117,249251,1423113,74235,9656,711156,0
328,2,710046,248138,1442147,73595,8954,720704,0
328,-1,644755,220587,1267859,66226,7658,633585,0
328,2,715423,249894,1471865,74975,11554,735379,0
329,2,706986,248459,1377384,73931,8385,688322,0
329,2,715774,250804,1581809,74771,10083,790426,0
329,-1,640776,219193,1301705,65728,8083,650555,0
329,2,711611,248495,1417910,74387,9569,708517,0
330,2,711508,251013,1411432,75100,8857,704919,0
330,2,731028,253148,1426595,77058,10020,712787,0
330,-1,639852,219052,1217932,65679,7362,608611,0
330,2,709806,248079,1310077,74211,9400,654643,0
331,2,708162,248572,1313848,74082,8740,656380,0
331,2,709336,248728,1488553,73816,9262,743820,0
331,-1,645011,221439,1303477,66768,8157,650993,0
331,2,710448,248724,1396287,74435,10283,697661,0
332,2,704329,247478,1401638,73628,9202,700471,0
332,2,710656,249321,1450432,73965,9216,724961,0
332,-1,665856,224790,1344073,69352,9178,671662,0
332,2,714997,250045,1346682,75060,9398,672904,0
333,2,706147,248741,1289169,74136,8863,644136,0
333,2,708853,248962,1309016,73915,9291,654115,0
333,-1,643828,219458,1298362,65855,7083,648105,0
333,2,710105,248758,1331437,74370,9547,665248,0
334,2,708027,249430,1423135,74351,9459,711130,0
334,2,710506,249650,1340776,74189,8886,669979,0
334,-1,643499,219672,1210749,65934,8019,604853,0
334,2,708608,248256,1441569,74126,9431,720424,0
335,2,703790,248282,1268891,73929,8463,634096,0
335,2,705458,248157,1342364,73685,8700,670830,0
335,-1,641354,219269,1184793,65758,7358,592064,0
335,2,709657,248957,1400309,74288,9735,699729,0
336,2,709818,250598,1451313,74922,8938,725019,0
336,2,716332,250704,1532148,74789,10097,765482,0
336,-1,643671,219701,1297599,65930,7553,648397,0
336,2,712987,250514,1330915,75007,10030,664726,0
337,2,726567,253418,1406040,77426,9518,702652,0
337,2,732474,253298,1551937,77179,9558,775577,0
337,-1,642291,219339,1174603,65822,7320,586960,0
337,2,707752,247993,1393289,73077,8759,696252,0
338,2,704262,248634,1328543,74101,8455,663816,0
338,2,709240,248191,1422209,73714,9479,710742,0
338,-1,641511,219839,1228241,65976,7542,613776,0
338,2,708918,248624,1378505,73261,8763,688847,0
339,2,708238,248563,1388009,74063,8641,693575,0
339,2,713544,250347,1485813,74611,9108,742395,0
339,-1,639248,218809,1169173,65684,7022,584238,0
339,2,732554,256964,1426958,75691,8945,713140,0
340,2,705205,247816,1400034,73759,8401,699514,0
340,2,710693,248878,1492353,73919,9812,745879,0
340,-1,639851,219450,1254482,65856,7112,626845,0
340,2,711787,250665,1283485,74277,8860,640932,0
341,2,712972,251436,1458222,75357,9240,728283,0
341,2,706389,247594,1434399,73559,9430,716859,0
341,-1,642913,220737,1208423,66620,7499,603374,0
341,2,730894,253271,1431564,76624,9732,715335,0
342,2,706198,248245,1288278,73794,8231,643776,0
342,2,714947,251146,1484586,75045,9266,741692,0
342,-1,641082,219939,1184333,66073,6679,591782,0
342,2,707284,248496,1408162,73281,8550,703657,0
343,2,726395,252799,1390313,77192,9929,694759,0
343,2,710065,248454,1499673,73754,9243,749452,0
343,-1,639328,219498,1252523,65897,7350,625932,0
343,2,713762,251157,1346028,74478,9865,672249,0
344,2,704846,248403,1276854,73972,8368,637920,0
344,2,708137,248637,1367821,73830,8873,683601,0
344,-1,640171,220151,1305659,66335,7917,652236,0
344,2,703396,248088,1452581,73096,10132,725655,0
345,2,703959,248639,1392467,73963,8691,695886,0
345,2,707020,248767,1438326,73842,9025,718832,0
345,-1,642977,218673,1286810,65607,7908,643054,0
345,2,705904,248376,1538536,73178,9615,768884,0
346,2,706169,248411,1301371,73796,8834,650285,0
346,2,710951,248726,1314851,73868,8600,657094,0
346,-1,642839,219240,1374155,65831,8494,686518,0
346,2,704637,247574,1355740,72935,8777,677576,0
347,2,707648,248810,1401012,73931,9434,700117,0
347,2,713959,250500,1461031,74739,9085,729886,0
347,-1,642852,219651,1268535,65944,7634,634015,0
347,2,704334,248241,1470409,73132,10050,734787,0
348,2,705253,248146,1388953,73745,9080,694229,0
348,2,730787,253719,1430477,77309,9922,714822,0
348,-1,641732,219634,1191439,65903,7038,595254,0
348,2,703717,248371,1362365,73266,9091,680694,0
349,2,703857,248091,1393201,73692,9276,696297,0
349,2,707623,248802,1380454,73951,8793,689850,0
349,-1,641787,219337,1313649,65788,8046,656410,0
349,2,725117,253020,1556410,76535,10323,777883,0
350,2,725216,253202,1498116,77209,10639,748563,0
350,2,707415,248449,1453214,73916,9321,726170,0
350,-1,639181,218941,1287090,65648,8628,643513,0
350,2,703213,248321,1562101,73169,10043,780727,0
351,2,708882,250246,1465475,74555,9480,732226,0
351,-1,638489,219096,1296863,65892,8776,647864,0
351,2,712543,250227,1462008,74718,9258,730515,0
351,2,727720,253068,1541372,76520,10847,770188,0
352,2,705303,248709,1465977,73925,9343,732573,0
352,-1,646706,221280,1641844,66815,9589,820366,0
352,2,726851,252447,1426476,76914,9192,712803,0
352,2,708850,249095,1597827,73447,9913,797246,0
353,2,704052,248424,1455895,73768,9342,727587,0
353,-1,662312,223999,1442169,69179,9201,720472,0
353,2,711521,249727,1434910,74490,9470,716842,0
353,2,707545,248966,1474901,73392,10028,737085,0
354,2,710561,251096,1484638,74943,9379,741674,0
354,-1,638567,218401,1361513,65499,9028,680272,0
354,2,706015,248537,1483192,73845,9216,741269,0
354,2,713596,250834,1478843,74379,10028,737510,0
355,2,701943,248629,1363524,73894,8746,681307,0
355,-1,640373,219341,1413231,65852,8659,706082,0
355,2,704821,248047,1435075,73649,8701,717075,0
355,2,731372,253741,1508712,77224,10934,753620,0
356,2,706904,249742,1479965,74456,8896,739327,0
356,-1,638640,218847,1264258,65631,8597,631872,0
356,2,703908,247980,1452099,73602,8454,725735,0
356,2,707079,249101,1452104,73409,9585,725211,0
357,2,711944,247955,1467536,73568,9791,733159,0
357,-1,637949,218976,1243502,65680,8468,620996,0
357,2,709525,250346,1584377,74736,9539,791502,0
357,2,705609,248754,1452826,73300,10143,725523,0
358,2,739395,255217,1408405,78364,10583,703613,0
358,-1,640971,218977,1224696,65767,8129,611772,0
358,2,736164,258092,1518274,76734,9085,758758,0
358,2,708860,249333,1377855,73762,9482,688046,0
359,2,712612,249463,1469036,74180,9598,733952,0
359,-1,639553,218873,1223679,65827,8197,611264,0
359,2,705782,248238,1391157,73785,8381,695297,0
359,2,707575,248584,1338010,73348,8705,668577,0
360,2,710717,248613,1404401,73834,9559,701787,0
360,-1,643701,220881,1232894,66639,7351,615840,0
360,2,706001,248251,1465153,73771,8643,732130,0
360,2,707882,248996,1392181,73462,9408,695775,0
361,2,712811,248817,1389142,73824,9526,694223,0
361,-1,639231,219143,1175066,65786,6664,587210,0
361,2,704178,248059,1453228,73663,9399,726157,0
361,2,724977,252348,1453041,76298,9809,726299,0
362,2,712100,248770,1497841,73819,10063,748585,0
362,-1,637917,218898,1379737,65793,7836,689577,0
362,2,706206,248791,1433782,73914,9554,716557,0
362,2,702747,248055,1297801,73131,9098,648407,0
363,2,711271,249228,1327657,74013,9381,663447,0
363,-1,638803,219572,1182889,66059,6977,591112,0
363,2,704384,248264,1356843,73681,8840,678046,0
363,2,706668,248598,1429777,73353,9800,714436,0
364,2,710527,248738,1427371,73820,8933,713243,0
364,-1,642584,220104,1284313,66279,7663,641356,0
364,2,718891,250685,1477764,74794,10300,738349,0
364,2,708586,249325,1253873,73768,9135,626335,0
365,2,714981,249237,1637735,73937,11076,818240,0
365,-1,640425,219675,1282060,66071,8288,640680,0
365,2,713744,248896,1454303,73881,9840,726878,0
365,2,705603,248441,1296266,73258,9093,647778,0
366,2,716535,250400,1476060,74530,9441,737439,0
366,-1,638778,219102,1284279,65912,7831,641781,0
366,2,711242,248458,1496426,73823,9463,747793,0
366,2,725884,252903,1372031,76481,10952,685456,0
367,2,734243,253883,1495582,77220,10113,747491,0
367,-1,641655,220738,1436022,66583,8671,716876,0
367,2,712786,249361,1490509,74108,9295,744892,0
367,2,702402,248038,1298812,73074,9349,649040,0
368,2,710236,249136,1464747,73922,8888,732040,0
368,-1,660806,227655,1495031,68370,8929,746465,0
368,2,714240,249193,1433638,73986,9023,716537,0
368,2,704599,248745,1424767,73298,10057,712126,0
369,2,712566,249034,1367259,74001,8748,683096,0
369,-1,634874,219095,1322081,65661,7977,660931,0
369,2,714057,250178,1445838,74546,9024,722399,0
369,2,707664,247926,1402232,73038,9475,700779,0
370,2,715885,250434,1529986,74645,9140,764466,0
370,-1,642052,218954,1450761,65681,8554,725347,0
370,2,711997,248662,1355751,73810,8736,677530,0
370,2,707909,248505,1306547,73256,8810,652976,0
371,2,707604,248090,1308207,73681,8784,653751,0
371,-1,640069,218879,1229746,65887,7484,614400,0
371,2,709685,248137,1509310,73631,8705,754330,0
371,2,708793,249329,1421428,73736,9956,709963,0
372,2,708481,248602,1369258,73826,8769,684073,0
372,-1,644457,220334,1377865,66536,8028,688378,0
372,2,709105,248185,1344126,73665,8789,671826,0
372,2,726340,252703,1492412,76463,10448,745962,0
373,2,709540,249762,1502502,74216,9402,750814,0
373,-1,639564,219201,1212217,65906,7081,605721,0
373,2,714174,250550,1440530,74692,8860,719812,0
373,2,705103,248328,1655661,73238,10511,826785,0
374,2,717205,250699,1466863,74874,9721,732748,0
374,-1,636026,218176,1204247,65562,6989,601964,0
374,2,710659,248736,1476326,73874,9268,737816,0
374,2,734510,258233,1604221,76089,10860,801613,0
375,2,710957,248660,1345382,73908,9370,672240,0
375,-1,638665,218930,1187414,65780,7201,593369,0
375,2,714737,249193,1478911,73967,9927,739140,0
375,2,704262,248107,1590433,73057,10598,794747,0
376,2,713924,249872,1458972,74498,9879,728835,0
376,-1,640503,219867,1190711,66345,7361,594747,0
376,2,712271,248621,1374642,73849,9269,686758,0
376,2,705615,248576,1408941,73442,9220,704083,0
377,2,711224,249127,1528823,74053,10189,764129,0
377,-1,637323,218711,1296255,65743,7221,647735,0
377,2,733518,254057,1350901,77405,10220,675133,0
377,2,705293,248237,1520064,73305,9476,759556,0
378,2,707358,248134,1518455,73725,10683,758892,0
378,-1,634823,217772,1293559,65388,7571,646420,0
378,2,714313,250069,1446852,74527,9542,722967,0
378,2,704987,248285,1476423,73339,10613,737934,0
379,2,714379,250910,1715497,74770,11998,856914,0
379,-1,660933,224630,1334868,69429,8518,667064,0
379,2,710797,248567,1394837,73915,8563,697028,0
379,2,703762,248685,1355898,73500,8872,677544,0
380,2,709215,248796,1618310,73900,11127,807795,0
380,-1,638863,218312,1184275,65599,7090,591797,0
380,2,711639,249308,1406794,74168,9206,703008,0
380,2,723749,252771,1497222,76553,10023,748283,0
381,2,714267,251223,1568933,74896,11299,782788,0
381,-1,641900,219876,1260467,66270,7217,629641,0
381,2,728370,252819,1563036,77097,10286,781171,0
381,2,704094,248652,1571236,73373,10279,785217,0
382,2,729771,253686,1613896,77275,11383,806443,0
382,-1,658835,223391,1381075,69047,8449,690140,0
382,2,712027,249210,1602767,74150,9860,800933,0
382,2,723658,253228,1517416,76608,10177,758032,0
383,2,709127,248846,1356244,73932,9565,677667,0
383,-1,637323,218884,1277107,65721,7417,638266,0
383,2,708897,248425,1454362,73823,9104,726930,0
383,2,706826,250165,1364569,73983,8188,681748,0
384,2,711521,249135,1407253,74108,9471,703186,0
384,-1,639578,220179,1259079,66374,7075,628926,0
384,2,713491,250238,1453527,74635,9463,726223,0
384,2,700464,248249,1429187,73133,8634,714223,0
385,2,708774,249016,1396646,74079,9453,698017,0
385,-1,636650,218178,1138492,65505,6871,568966,0
385,2,707815,248900,1447010,73974,9249,723153,0
385,2,699946,248455,1436138,73187,8350,717777,0
386,2,711194,248529,1288108,73950,8764,643732,0
386,-1,635517,218664,1236004,65738,6422,617710,0
386,2,713200,248940,1470049,74027,9494,734657,0
386,2,715244,248893,1339710,73753,7813,669539,0
387,2,730827,253560,1435820,77400,10141,717493,0
387,-1,637233,219473,1273468,65990,7230,636474,0
387,2,712212,248369,1361594,73825,9117,680547,0
387,2,722298,251006,1391851,74806,8146,695406,0
388,2,707771,248010,1475215,73870,9099,736477,0
388,-1,632727,218107,1154303,65491,6475,576631,0
388,2,716280,250377,1450472,74783,9791,724657,0
388,2,736774,252947,1577728,76974,10550,788435,0
389,2,715812,251019,1492502,74945,10074,745791,0
389,-1,634267,219006,1294993,65792,7325,647195,0
389,2,713291,249456,1528722,74214,10075,764060,0
389,2,715065,248448,1381387,73736,8367,690265,0
390,2,709756,248531,1396102,73937,9432,697534,0
390,-1,635575,218000,1276873,65380,6766,637983,0
390,2,710383,248514,1480556,73914,9183,739888,0
390,2,713515,248010,1394618,73598,8678,696792,0
391,2,709668,248960,1329497,74040,8564,664316,0
391,-1,644917,220998,1249173,66819,7574,623966,0
391,2,708147,247991,1363970,73687,9181,681665,0
391,2,715610,248928,1295973,73877,8272,647473,0
392,2,728220,253117,1526837,77258,10916,762943,0
392,-1,661345,223729,1347618,69195,8457,673517,0
392,2,711715,250193,1497091,74730,9834,748058,0
392,2,710710,247615,1407053,73334,8709,703199,0
393,2,707348,248523,1470161,73843,9493,734746,0
393,-1,638265,218761,1277189,65727,7493,638322,0
393,2,712409,249144,1463650,74106,8899,731398,0
393,2,718233,251049,1442150,74883,9467,719861,0
394,2,707766,249200,1386631,74140,9225,692892,0
394,-1,637816,218981,1156005,65864,6817,577702,0
394,2,710167,248603,1483295,73928,9321,741232,0
394,2,712461,247861,1258161,73575,8155,628675,0
395,2,712467,248842,1475735,73913,9294,737255,0
395,-1,641434,219892,1225444,66119,7733,612335,0
395,2,707408,248128,1363497,73734,9098,681377,0
395,2,716104,249043,1312422,74009,9112,655884,0
396,2,718304,251224,1538049,75053,10050,768878,0
396,-1,658477,224275,1247825,69307,8462,623639,0
396,2,709932,248665,1364527,73920,8982,681946,0
396,2,713325,248360,1297049,73803,8094,648105,0
397,2,731646,252805,1505648,77093,10338,752218,0
397,-1,636835,218421,1139317,65578,7062,569279,0
397,2,708895,248421,1389508,73752,9042,694444,0
397,2,734572,253365,1436645,77201,8980,717904,0
398,2,712536,249293,1470663,74176,9693,734778,0
398,-1,637957,218788,1202043,65709,7825,600569,0
398,2,714673,251013,1490684,74927,9657,744778,0
398,2,710677,248115,1380971,73638,8596,690134,0
399,2,707738,247496,1462216,73535,9096,730803,0
399,-1,637290,218891,1155098,65768,7691,577094,0
399,2,728933,253093,1413062,77105,9555,706156,0
399,2,709542,247677,1348773,73497,8531,673761,0
400,2,710087,248355,1432481,73917,10164,716100,0
400,-1,639368,219783,1219420,66267,8371,609164,0
400,2,711025,249277,1525386,74058,8923,762306,0
400,2,717448,249008,1524700,73984,10469,761919,0
401,2,732009,252722,1438423,77109,9673,718623,0
401,-1,634341,218363,1389703,65619,8979,694458,0
401,2,715090,250646,1518732,74839,9545,758766,0
401,2,712426,248473,1401655,73698,8136,700302,0
402,2,708557,248184,1243127,73893,8810,621095,0
402,-1,640196,220619,1254563,66667,7426,626618,0
402,2,707851,248355,1443115,73764,9130,721201,0
402,2,717597,249851,1356878,74513,9038,677866,0
403,2,707397,248411,1342036,73852,8796,670585,0
403,-1,633023,218324,1255249,65590,7410,627197,0
403,2,710215,249675,1484524,74357,9701,741794,0
403,2,712508,248278,1299369,73733,8292,649376,0
404,2,706982,247825,1335391,73668,8709,667359,0
404,-1,640354,219376,1258419,66105,8052,628730,0
404,2,709673,248390,1491024,73712,10219,745217,0
404,2,712785,249013,1358143,74145,8025,678504,0
405,2,711515,250095,1511796,74667,9613,755268,0
405,-1,638185,218923,1299577,65848,8000,649453,0
405,2,708454,248357,1507682,73766,9865,753514,0
405,2,713175,247930,1414059,73643,8856,706711,0
406,2,706474,248388,1294339,73866,8547,646703,0
406,-1,637660,218998,1323350,65855,8013,661280,0
406,2,708159,248883,1375634,73956,9554,687187,0
406,2,713025,248619,1387969,73830,8389,693614,0
407,2,703657,247227,1480117,73370,9480,739772,0
407,-1,634334,217994,1269065,65509,7415,634134,0
407,2,706069,248334,1457483,73693,9963,728361,0
407,2,716300,249901,1507944,74602,10360,753346,0
408,2,709436,248877,1386775,74007,8671,692977,0
408,-1,658551,223790,1303295,69147,8226,651325,0
408,2,708167,249534,1439823,74154,9502,719530,0
408,2,710660,247420,1324635,73323,8364,662014,0
409,2,707846,247625,1326561,73566,8396,662430,0
409,-1,635694,218666,1181010,65750,6670,590077,0
409,2,718283,250790,1524727,74818,10060,761755,0
409,2,712372,248736,1344752,73773,8098,671897,0
410,2,708082,248459,1387459,73892,8601,693365,0
410,-1,633763,218703,1263181,65767,7652,631211,0
410,2,712018,248766,1369887,73905,9333,684519,0
410,2,711221,248468,1437280,73690,8589,718243,0
411,2,712860,249986,1420765,74660,8817,709741,0
411,-1,636957,218675,1272288,65700,7928,635841,0
411,2,712185,248700,1286281,73872,9152,642801,0
411,2,737397,253550,1444290,77119,9844,721821,0
412,2,707070,248275,1354801,73829,7892,676925,0
412,-1,633269,218657,1287143,65657,8249,643219,0
412,2,713376,249689,1326828,74381,8987,662820,0
412,2,716658,249743,1365132,74062,9159,682193,0
413,2,706323,248340,1306062,73828,8867,652712,0
413,-1,639728,220663,1297942,66581,7555,648280,0
413,2,710486,248277,1308721,73728,9529,654110,0
413,2,713726,248230,1596380,73622,10505,797748,0
414,2,706874,248386,1385044,73821,9050,692200,0
414,-1,632820,218381,1255671,65659,8076,627389,0
414,2,730911,253645,1363520,77294,9523,681387,0
414,2,738974,257242,1446804,76226,9373,722259,0
415,2,707621,248294,1382777,73810,8811,691036,0
415,-1,632650,218706,1439303,65714,9884,719237,0
415,2,711175,248469,1410498,73823,8956,704895,0
415,2,713071,248295,1428693,73573,10225,714047,0
416,2,705693,247908,1280536,73632,8408,639901,0
416,-1,669471,230704,1362097,69720,7764,680451,0
416,2,713647,249309,1465850,74064,8941,732588,0
416,2,716567,250440,1418044,74693,10463,708310,0
417,2,710200,249512,1391640,74486,9113,695060,0
417,-1,660701,222675,1325265,68789,8460,662345,0
417,2,711334,248978,1283804,73972,8460,641565,0
417,2,714637,249223,1301687,74192,8630,650366,0
418,2,727753,253184,1448485,77192,9617,723516,0
418,-1,638889,218616,1188092,65681,7832,593599,0
418,2,715243,250925,1432374,74901,9005,715674,0
418,2,710890,248059,1410091,73612,9211,704700,0
419,2,706735,247811,1431419,73615,8996,715269,0
419,-1,642487,220381,1149709,66594,6894,574095,0
419,2,709277,248689,1383629,73915,8800,691449,0
419,2,710805,248130,1301436,73665,8329,650235,0
420,2,708579,248275,1329938,73865,8540,664591,0
420,-1,637538,218233,1267324,65571,7619,633355,0
420,2,709740,249208,1420252,74054,8796,709793,0
420,2,733168,253437,1494035,77257,9213,746711,0
421,2,705895,247942,1268959,73889,8539,634004,0
421,-1,642819,220175,1301982,66440,7777,650237,0
421,2,708022,249076,1376959,74054,8869,688046,0
421,2,707724,248040,1358851,73717,8484,679145,0
422,2,704728,247761,1358233,73657,9703,678610,0
422,-1,637402,218785,1267881,65823,7978,633526,0
422,2,714880,249476,1471672,74297,9534,735217,0
422,2,717199,249299,1303096,74307,8908,651084,0
423,2,708612,248655,1277963,73890,8311,638652,0
423,-1,644124,220975,1210215,66765,7019,604562,0
423,2,712534,249003,1408710,74038,9126,703917,0
423,2,714355,248748,1348686,73933,8779,674050,0
424,2,710262,249914,1303973,74622,9190,651197,0
424,-1,657726,223170,1300950,68958,7704,650086,0
424,2,710685,248742,1384167,73892,8867,691794,0
424,2,712031,248095,1310939,73718,8527,655135,0
425,2,704456,247693,1295496,73626,8425,648720,0
425,-1,636372,218350,1281512,65600,7031,640379,0
425,2,709602,248495,1393152,73793,8706,696199,0
425,2,732321,252685,1427243,76938,9516,713315,0
426,2,705028,247574,1318511,73599,8574,658807,0
426,-1,639362,219114,1574874,65912,9729,786919,0
426,2,716285,251405,1400465,75106,9321,699683,0
426,2,711105,248174,1353865,73682,8590,676586,0
427,2,726508,253107,1439916,77225,9764,719552,0
427,-1,658378,223298,1306281,69064,8185,652626,0
427,2,730385,253005,1373227,77051,9562,686221,0
427,2,715410,250305,1323303,74600,8437,661192,0
428,2,703699,247595,1291852,73658,8531,645434,0
428,-1,639058,219477,1170748,66022,7024,585022,0
428,2,711252,249294,1441308,74065,8550,720261,0
428,2,711261,248274,1407764,73689,8368,703552,0
429,2,710688,250177,1636766,74786,10766,817737,0
429,-1,637551,218562,1275004,65673,7442,637144,0
429,2,708722,248667,1315508,73918,8669,657398,0
429,2,708566,248222,1301984,73674,8356,650592,0
430,2,704236,247602,1399766,73586,8945,699535,0
430,-1,636545,218618,1195983,65648,7031,597576,0
430,2,706225,248011,1295385,73695,8745,647080,0
430,2,716756,250802,1389716,74734,8576,694362,0
431,2,705645,248364,1321755,73895,8942,660246,0
431,-1,639349,219863,1191035,66310,7404,594926,0
431,2,731991,253543,1398611,77228,9502,698943,0
431,2,713775,248255,1239473,73731,8760,619399,0
432,2,708075,249445,1373521,74432,9045,686200,0
432,-1,638718,218608,1296167,65623,7123,647678,0
432,2,710198,249502,1301645,74079,8497,650435,0
432,2,714096,248307,1288265,73804,9420,643689,0
433,2,701736,247198,1283288,73487,9127,641250,0
433,-1,641288,220370,1422835,66522,9367,710554,0
433,2,709481,249244,1405111,73968,8855,702214,0
433,2,718557,250395,1283717,74630,9436,641354,0
434,2,727696,253031,1559647,77168,9866,779550,0
434,-1,634327,218098,1256892,65487,6978,628040,0
434,2,709969,249752,1384770,74163,8616,692025,0
434,2,711315,248040,1476048,73604,10559,737770,0
435,2,703043,247774,1289913,73650,8837,644530,0
435,-1,636942,219212,1276271,65897,7622,637669,0
435,2,709106,249398,1307933,73997,9012,653636,0
435,2,718966,250814,1329027,74904,10030,663929,0
436,2,703113,248256,1397821,73855,9269,698391,0
436,-1,634692,218655,1301026,65705,9248,649836,0
436,2,715558,250023,1303864,74245,9249,651476,0
436,2,712281,247975,1389651,73587,9671,694483,0
437,2,711198,248425,1352805,73913,9118,676024,0
437,-1,639263,220765,1185940,66742,7579,592022,0
437,2,712798,249412,1309233,74009,9072,654344,0
437,2,709487,247258,1373792,73425,8907,686469,0
438,2,709582,248048,1568740,73751,10636,784015,0
438,-1,655558,223376,1284947,69058,8064,642091,0
438,2,714064,249627,1237259,74139,9193,618138,0
438,2,712012,248611,1336896,73858,8845,668009,0
439,2,710939,248411,1420894,73964,11636,709730,0
439,-1,642709,220098,1158525,66258,7927,578740,0
439,2,714584,250342,1330521,74549,9468,664921,0
439,2,709392,247867,1463871,73598,8906,731646,0
440,2,712157,249386,1277747,74455,8943,638307,0
440,-1,638581,219184,1212115,65770,7544,605656,0
440,2,711156,249470,1254592,74116,9081,626890,0
440,2,717859,250502,1505652,74710,11032,751919,0
441,2,710900,248177,1236261,73793,8580,617713,0
441,-1,635211,218313,1187338,65431,6952,593336,0
441,2,713081,249105,1328325,73835,9318,663800,0
441,2,713263,250066,1292982,74528,8552,645969,0
442,2,707108,247756,1261029,73656,8684,630011,0
442,-1,638177,218775,1256830,65649,7695,628025,0
442,2,715734,250578,1375266,74376,9179,687278,0
442,2,710676,247375,1396529,73379,9559,697940,0
443,2,708294,248776,1321710,74031,7955,660512,0
443,-1,634426,217474,1387234,65190,8952,693268,0
443,2,711309,249243,1344007,73974,8591,671659,0
443,2,712989,248518,1312044,73828,8822,655626,0
444,2,709831,248347,1367016,73824,8446,682955,0
444,-1,639557,219994,1239648,66300,7425,619130,0
444,2,731014,253782,1381181,77345,9341,690291,0
444,2,732149,252843,1520679,77037,9486,759956,0
445,2,709106,248376,1522140,73872,10125,760612,0
445,-1,640874,219926,1281497,66237,7484,640009,0
445,2,711754,250550,1414872,74488,8737,707053,0
445,2,711652,248444,1390605,73856,8913,694886,0
446,2,708992,248486,1605173,73908,11401,802221,0
446,-1,635632,218457,1188593,65518,6907,593822,0
446,2,712224,250057,1474705,74256,8864,736951,0
446,2,711391,248339,1387797,73771,9191,693563,0
447,2,705201,247486,1330921,73590,8444,665069,0
447,-1,635480,218682,1173250,65650,7302,586217,0
447,2,709747,249764,1359097,74232,8444,679035,0
447,2,709940,248752,1289078,73986,8813,644155,0
448,2,707612,248883,1287504,74079,8049,643315,0
448,-1,637690,220015,1335643,66295,7948,667181,0
448,2,712761,249789,1345245,74228,8898,672197,0
448,2,715397,249918,1381245,74531,9406,690122,0
449,2,705698,248070,1318298,73808,8288,658709,0
449,-1,637257,220062,1437122,66101,8579,718049,0
449,2,713225,250001,1384883,74295,9045,692100,0
449,2,710600,248224,1497174,73770,9366,748259,0
450,2,707547,249175,1331207,74356,8599,664992,0
450,-1,635669,218352,1208717,65499,7625,603934,0
450,2,743519,261201,1455684,78029,9007,727130,0
450,2,708547,247711,1449104,73534,9243,724219,0
451,2,710654,248680,1482577,74038,9437,740905,0
451,-1,639087,219303,1277083,65836,7875,638153,0
451,2,711250,249486,1450372,74092,8880,724839,0
451,2,710522,248804,1433184,73937,9500,716217,0
452,2,709774,248234,1409834,73753,8678,704488,0
452,-1,641765,220662,1251796,66607,7787,625319,0
452,2,711535,249963,1406742,74220,8994,702947,0
452,2,712678,250173,1422711,74620,9609,710813,0
453,2,708152,247982,1318992,73762,8162,659115,0
453,-1,658488,223792,1349407,69063,8707,674149,0
453,2,708948,250046,1404316,74328,9496,701723,0
453,2,714120,248279,1458748,73749,9848,728983,0
453,2,706517,247349,1283827,73877,9042,641483,0
454,2,713387,250341,1321830,74854,8445,660243,0
454,-1,637657,219589,1115853,65941,6894,557586,0
454,2,710263,249540,1406181,74177,8752,702711,0
454,2,710992,247474,1381954,73363,9660,690677,0
454,2,710220,249037,1398552,74461,9714,698921,0
455,2,703933,247512,1268469,73549,7854,633827,0
455,-1,635675,218911,1254631,65624,8149,626930,0
455,2,709812,249750,1371671,74263,9255,685332,0
455,2,711955,248559,1518205,73830,10124,758717,0
455,2,707073,247881,1327228,74054,9715,663105,0
456,2,728468,253176,1456398,77200,9971,727741,0
456,-1,634641,218374,1138495,65455,7164,568661,0
456,2,707777,249006,1364446,73906,9691,681773,0
456,2,717186,249882,1449792,74426,9722,724518,0
456,2,712204,250264,1272438,75130,9425,635361,0
457,2,708238,248693,1304981,73946,8024,652095,0
457,-1,634057,219035,1244852,65684,7578,622154,0
457,2,718388,250206,1324132,74327,9595,661733,0
457,2,712011,248476,1553841,73800,9369,776406,0
457,2,716491,249504,1349970,74797,9611,674455,0
458,2,707394,249006,1304836,74060,8279,651935,0
458,-1,657464,223422,1256193,68944,8648,627461,0
458,2,716474,250228,1466646,74321,9407,732894,0
458,2,713171,248688,1370325,73866,9491,684554,0
458,2,710027,247423,1412456,73836,10044,705908,0
459,2,709262,249352,1321328,74353,8255,659862,0
459,-1,634154,218433,1146903,65487,7238,572989,0
459,2,712441,249686,1400237,74090,8233,699725,0
459,2,716898,250705,1382396,74857,9523,690573,0
459,2,711718,248886,1312830,74421,8549,655871,0
460,2,703721,247306,1236211,73384,8370,617717,0
460,-1,634043,218741,1222113,65637,6751,610646,0
460,2,714049,249763,1303122,74095,8868,651099,0
460,2,758765,262191,1580878,79803,10305,790191,0
460,2,708692,247593,1426639,73982,9348,713116,0
461,2,705851,248423,1356991,73852,8812,678084,0
461,-1,637963,220197,1237703,66283,7878,618189,0
461,2,713647,249767,1425925,74133,8992,712612,0
461,2,708510,247775,1357658,73567,9129,678546,0
461,2,710430,248095,1417835,74164,9800,708486,0
462,2,706194,247107,1286628,73366,8986,642872,0
462,-1,634551,219029,1273840,65755,7656,636587,0
462,2,713003,249513,1412572,74015,9062,705860,0
462,2,711401,248619,1452951,73875,9667,726094,0
462,2,711176,248054,1401336,74112,9322,700219,0
463,2,730034,253545,1428511,77261,9949,713765,0
463,-1,656512,224305,1400820,69239,9401,700064,0
463,2,713500,249730,1381804,74142,8228,690451,0
463,2,715977,249871,1441362,74447,9586,720090,0
463,2,710808,248112,1429474,74184,9533,714291,0
464,2,706418,248423,1366393,73790,8230,682681,0
464,-1,641454,219042,1313530,65669,8389,656491,0
464,2,712313,249814,1387775,74104,8512,693579,0
464,2,709439,247909,1375009,73599,9308,687044,0
464,2,708237,247435,1382293,73908,9633,690733,0
465,2,704719,247683,1589270,73518,10652,794295,0
465,-1,640339,219697,1240124,66182,8556,619490,0
465,2,712745,250638,1389166,74440,8236,694182,0
465,2,709824,248030,1381501,73706,8860,690365,0
465,2,713223,250075,1339995,75090,9342,669369,0
466,2,708028,248758,1612182,73949,11023,805775,0
466,-1,637404,218333,1293345,65556,8696,646298,0
466,2,715105,250727,1435228,74743,9626,716897,0
466,2,712786,250098,1332768,74673,8692,665681,0
466,2,710342,248313,1306562,74283,9091,652743,0
467,2,708491,248687,1400642,73832,8754,699900,0
467,-1,638474,218973,1209078,65761,7340,604109,0
467,2,734673,254701,1361212,77546,9995,680202,0
467,2,733418,253170,1426692,77188,10422,712919,0
467,2,707974,247762,1473045,74124,9495,736256,0
468,2,705974,248219,1327954,73660,8328,663559,0
468,-1,636975,218803,1314660,65763,7815,656914,0
468,2,714714,251466,1405979,74902,9990,702379,0
468,2,711095,249382,1371079,74345,9050,684824,0
468,2,710755,248971,1375626,74745,9247,687148,0
469,2,709427,250207,1340113,74675,8651,669370,0
469,-1,636657,218789,1382966,65697,7916,691018,0
469,2,710716,249571,1303820,74066,8335,651490,0
469,2,711589,248251,1425436,73686,9595,712328,0
469,2,709356,247335,1482418,73941,9666,740539,0
470,2,731330,253866,1457344,77334,10118,728372,0
470,-1,636457,218753,1328439,65693,7993,663801,0
470,2,708150,249328,1233838,73914,8799,616563,0
470,2,733096,253459,1309010,77280,9403,654091,0
470,2,714378,249700,1412810,75047,10015,705035,0
471,2,702379,247374,1377138,73344,9289,688179,0
471,-1,636075,218939,1265328,65692,7792,632097,0
471,2,715029,251844,1313998,75093,9176,656300,0
471,2,706865,247434,1227952,73471,8723,613298,0
471,2,708424,247777,1462946,74129,9934,732125,0
472,2,705926,248396,1430044,73777,9078,714507,0
472,-1,638942,220087,1247095,66190,8185,622729,0
472,2,730525,254511,1311360,77482,10202,655195,0
472,2,710509,248180,1298764,73771,9291,648881,0
472,2,708997,247802,1383222,74143,9484,691165,0
473,2,708104,248279,1436008,73651,9466,717581,0
473,-1,639205,219090,1331258,65716,8303,665338,0
473,2,715994,250085,1317525,74195,9455,658323,0
473,2,710648,249310,1416335,74295,9149,707633,0
473,2,709089,248402,1440373,74376,9909,719106,0
474,2,708842,249394,1452689,74267,9077,725698,0
474,-1,638669,219296,1255447,65743,7366,627385,0
474,2,716903,251669,1433826,75024,9009,716423,0
474,2,709529,248918,1398814,73972,9507,698986,0
474,2,707627,248209,1393451,74267,9966,696275,0
475,2,703952,247657,1403964,73462,9552,701629,0
475,-1,657148,223889,1409165,69068,9254,704065,0
475,2,732923,254274,1384751,77424,9446,691963,0
475,2,709538,248415,1462679,73768,10119,731044,0
475,2,714644,249928,1466316,75252,10164,732395,0
476,2,706131,249040,1499578,74004,9800,749349,0
476,-1,638365,219507,1248191,65886,8130,623726,0
476,2,711630,249942,1430237,74158,9008,714804,0
476,2,705937,247742,1539556,73490,10199,769378,0
476,2,760080,262501,1660120,80512,11949,829913,0
477,2,703402,247655,1404225,73485,8609,701869,0
477,-1,636345,219240,1269652,65810,7624,634319,0
477,2,709830,249700,1314098,74129,8430,656538,0
477,2,705383,248335,1383595,73821,8412,691401,0
477,2,708165,248041,1497616,74241,10508,748121,0
478,2,708945,250195,1608139,74735,11409,803176,0
478,-1,634477,218686,1194597,65588,8529,597019,0
478,2,712192,249764,1434655,74113,9114,717023,0
478,2,712484,247916,1426464,73594,9767,712895,0
478,2,708619,248434,1380637,74388,9215,689922,0
479,2,702443,248677,1328637,73846,8809,663787,0
479,-1,636297,219071,1178037,65724,8403,588579,0
479,2,711768,249717,1301605,74070,8301,650469,0
479,2,717804,250260,1359697,74757,9481,679197,0
479,2,711746,249798,1309328,75100,8812,653931,0
480,2,708118,248205,1388412,73750,9432,693748,0
480,-1,643196,220978,1140503,66636,7603,569532,0
480,2,728235,253445,1535150,77161,10655,766793,0
480,2,712590,248086,1446981,73678,9677,723146,0
480,2,705596,248226,1307854,74320,9533,653442,0
481,2,711660,249823,1345597,74608,9361,671478,0
481,-1,659028,223882,1227594,69093,8167,613462,0
481,2,712849,250588,1480723,74344,9171,739867,0
481,2,712609,248325,1411385,73806,10061,705267,0
481,2,711561,248621,1332210,74574,8887,665490,0
482,2,707452,248166,1408089,73556,8740,704094,0
482,-1,636682,218820,1120436,65599,7086,559836,0
482,2,707883,249550,1468936,74067,9129,733622,0
482,2,710965,248276,1354689,73772,10018,676961,0
482,2,710505,247925,1410087,74212,10284,704750,0
483,2,710032,249885,1420721,74473,9477,709879,0
483,-1,634857,218438,1221214,65484,7264,610279,0
483,2,712035,249463,1530163,73994,9065,764048,0
483,2,715326,250084,1371630,74474,9823,685252,0
483,2,710186,247995,1300568,74198,9286,649872,0
484,2,705596,247918,1582873,73571,9630,791017,0
484,-1,635817,220213,1167468,66303,7597,583199,0
484,2,713055,250355,1663213,74323,9394,830358,0
484,2,709154,247997,1504754,73612,9854,751939,0
484,2,710689,248669,1490568,74428,10565,744872,0
485,2,707595,249159,1302988,74114,9808,650706,0
485,-1,677054,231109,1349665,70787,9173,674518,0
485,2,743260,260809,1445430,77633,9370,722080,0
485,2,709968,247876,1441554,73654,9746,720384,0
485,2,708729,248040,1417747,74219,9540,708524,0
486,2,706009,248679,1234811,73810,9140,617063,0
486,-1,678374,233628,1314903,69495,7515,657147,0
486,2,709935,249523,1285666,74166,8513,642420,0
486,2,713632,248233,1499048,73730,10150,749243,0
486,2,708651,248361,1367393,74367,9924,683408,0
487,2,709526,248552,1286910,73757,9091,643059,0
487,-1,690383,238080,1249005,71080,7272,624047,0
487,2,709001,249604,1522445,74174,9631,760754,0
487,2,731013,252176,1466812,76759,10900,732944,0
487,2,711134,249238,1354906,74823,9582,676954,0
488,2,711249,249652,1412528,74322,9097,705755,0
488,-1,689502,237272,1407832,70744,7571,703523,0
488,2,708238,249252,1397415,74042,9218,698301,0
488,2,716165,249672,1427826,74397,10232,713377,0
488,2,709084,247692,1331322,74127,9136,665332,0
489,2,704878,248234,1356052,73672,9323,677696,0
489,-1,686994,236713,1297891,70506,7968,648619,0
489,2,709816,250125,1405392,74325,9227,702282,0
489,2,712505,248696,1412792,73923,9638,705972,0
489,2,726751,252217,1467361,77414,10192,733384,0
490,2,702919,247549,1378803,73502,8624,689085,0
490,-1,685008,237073,1307821,70627,7976,653627,0
490,2,709916,249475,1450583,74249,10186,724942,0
490,2,710152,248117,1488901,73697,9777,744077,0
490,2,709842,248412,1349417,74365,9134,674287,0
491,2,740522,260501,1332027,76915,8734,665642,0
491,-1,694025,238042,1247168,71171,7484,623019,0
491,2,709454,249341,1425339,74167,9602,712229,0
491,2,714660,250501,1520386,74760,9578,759576,0
491,2,705731,247727,1326965,74095,9393,663202,0
492,2,759211,267232,1468796,78886,9106,733840,0
492,-1,691527,237318,1243647,70680,7186,621486,0
492,2,707329,249264,1240941,74234,8600,619978,0
492,2,731785,252702,1464854,77028,10268,732140,0
492,2,710992,248256,1454712,74264,9197,727122,0
493,2,777790,270719,1523410,81852,10263,761295,0
493,-1,690039,237171,1364241,70617,7718,681724,0
493,2,728614,253751,1586026,77402,12693,792374,0
493,2,708963,247764,1456459,73561,9679,727905,0
493,2,714614,250133,1323157,75168,8890,660855,0
494,2,763877,267487,1428740,79032,8868,714000,0
494,-1,689843,237196,1367773,70669,7400,683589,0
494,2,707556,249599,1531396,74299,11344,765712,0
494,2,709290,248267,1400849,73769,8870,700005,0
494,2,711905,249116,1327331,74584,8494,663419,0
495,2,765188,268775,1532711,79717,9586,765747,0
495,-1,711998,241955,1370508,74030,8213,684804,0
495,2,704309,248898,1516598,74014,10852,757947,0
495,2,710240,248099,1326249,73707,9234,662695,0
495,2,712195,249128,1387328,74804,9419,692945,0
496,2,755684,265331,1420918,78337,9173,710124,0
496,-1,688769,236913,1225003,70643,6591,612127,0
496,2,717245,250829,1573569,74870,11064,785620,0
496,2,709279,248092,1475983,73668,9131,737658,0
496,2,710486,248890,1482001,74513,9695,740683,0
497,2,759640,267700,1470908,79141,10477,735112,0
497,-1,687352,236747,1325043,70524,7837,662281,0
497,2,712851,249521,1492265,74202,9919,745774,0
497,2,707053,247808,1636908,73630,10604,818141,0
497,2,706623,247667,1400971,74069,9971,700035,0
498,2,779069,271199,1481395,81973,10915,740312,0
498,-1,691294,237629,1345414,70835,8887,672383,0
498,2,711171,249295,1485108,74198,9445,742189,0
498,2,710904,248025,1333351,73637,9939,666360,0
498,2,711232,250229,1325849,75294,9197,662122,0
499,2,757563,266675,1338865,78793,9174,669067,0
499,-1,687966,236884,1251173,70570,7678,625490,0
499,2,712274,249661,1330363,74247,8231,664817,0
499,2,718276,251067,1337639,74984,10600,668096,0
499,2,707375,247753,1391598,74122,8920,695426,0
500,2,759476,267032,1338754,78910,9621,668962,0
500,-1,694608,239248,1274133,71637,8566,636471,0
500,2,733493,254265,1424724,77528,9932,712073,0
500,2,733768,252982,1321640,77108,10393,660403,0
500,2,711601,249850,1383210,75020,9051,690709,0
501,2,758181,267084,1386578,78901,9060,692906,0
501,-1,688611,237131,1258369,70665,8382,628550,0
501,2,712747,250061,1714949,74389,11353,857046,0
501,2,712459,248895,1614131,73914,10058,806742,0
501,2,707939,248579,1444443,74413,9870,721811,0
502,2,764912,268081,1381174,79570,8918,689977,0
502,-1,691280,238517,1202103,71311,7589,600328,0
502,2,710439,249396,1510006,74113,9530,754748,0
502,2,709277,248774,1306474,73929,8917,652850,0
502,2,708111,248216,1498152,74313,9699,748666,0
503,2,783128,272033,1527994,82276,9920,763502,0
503,-1,685213,236572,1218706,70398,6586,608946,0
503,2,714142,250253,1592286,74490,9653,795812,0
503,2,710109,248232,1444984,73704,9969,722117,0
503,2,706884,248081,1398189,74236,9560,698723,0
504,2,757341,266312,1491560,78634,8981,745471,0
504,-1,686504,237397,1337316,70751,7660,668328,0
504,2,715793,251338,1494261,75139,9170,746595,0
504,2,730811,252814,1341320,76989,9543,670385,0
504,2,710385,250099,1349115,75208,10252,673666,0
505,2,760445,267217,1528038,78938,10332,763699,0
505,-1,686695,237282,1288630,70700,7952,643961,0
505,2,712759,250472,1382401,74517,8889,690888,0
505,2,709469,248131,1485431,73686,10131,742328,0
505,2,723216,250914,1440173,76952,10350,719436,0
506,2,758884,266702,1428716,78736,10003,713814,0
506,-1,690199,238380,1250136,71277,7572,624325,0
506,2,708078,249599,1432988,74203,9986,716048,0
506,2,711936,249223,1471273,74221,9839,735004,0
506,2,712416,248153,1396811,74278,9438,697977,0
507,2,759184,267847,1450366,79366,9700,724179,0
507,-1,687103,237027,1385972,70663,8717,692448,0
507,2,709376,249417,1375828,74108,8634,687502,0
507,2,709872,248577,1389781,73832,9419,694491,0
507,2,716985,249491,1367471,74894,10001,683243,0
508,2,755663,266237,1402489,78624,9969,700829,0
508,-1,687110,236947,1322264,70574,8234,660743,0
508,2,711243,249716,1404434,74179,9211,701617,0
508,2,706732,247530,1405059,73397,9618,702160,0
508,2,712243,248003,1443298,74249,10146,721185,0
509,2,758376,267091,1549573,79127,10457,773963,0
509,-1,709153,242544,1413267,74201,9121,706222,0
509,2,709385,249194,1497047,73961,9326,748344,0
509,2,713884,250269,1467380,74598,9568,733041,0
509,2,711427,247690,1374701,74033,10215,686986,0
510,-1,687879,236724,1375421,70498,8144,687382,0
510,2,759593,267356,1590115,78969,10483,794148,0
510,2,706270,248230,1311192,73831,8306,654982,0
510,2,712557,249060,1463397,74005,9931,731175,0
510,2,711912,248137,1431902,74279,10143,715600,0
511,2,779400,272288,1621208,82368,12407,810211,0
511,-1,688540,237515,1297544,70811,7645,648294,0
511,2,708280,249577,1521187,74469,9638,760126,0
511,2,709389,248459,1344600,73809,10246,671912,0
511,2,710753,247806,1436411,74119,9671,717913,0
