0,3,757985,266313,1362584,78581,8847,680953,0
0,3,765216,268744,1569202,79662,9582,784032,0
0,3,762165,266402,1439366,78636,9943,718579,0
0,3,760940,266513,1418360,78670,9221,708547,0
0,3,763589,266640,1554859,78709,10939,776974,0
0,3,760463,265942,1681722,78511,10098,840381,0
0,3,765493,266445,1479343,78629,11041,739248,0
0,3,782033,272205,1631479,82263,10510,815526,0
0,3,744432,261043,1396666,77034,10657,697754,0
0,3,708069,248004,1441027,73713,9955,720006,0
0,3,708714,248329,1361108,73649,8606,679961,0
0,3,709592,248267,1335258,73673,8831,667208,0
0,3,714204,249969,1447713,74462,9263,723402,0
0,3,708006,247736,1422152,73472,8416,710815,0
0,3,713961,250763,1522279,74894,9516,760411,0
0,3,717062,250803,1588152,74807,10609,793135,0
0,3,712475,248441,1435421,73859,9590,717444,0
0,3,703558,248491,1283229,73924,9036,641217,0
0,3,707623,248729,1255614,73901,8639,627431,0
0,3,703714,248041,1343223,73786,8452,670331,0
0,3,709542,249879,1470228,74618,9448,734455,0
0,3,708787,248620,1396119,73855,8461,697713,0
0,3,709330,249338,1476426,74323,8973,737785,0
0,3,709711,248922,1398225,73969,8310,698760,0
0,3,708977,249635,1478594,74551,9219,738601,0
0,3,708039,248647,1326127,73967,8616,662695,0
0,3,706123,247781,1456335,73672,8477,727851,0
0,3,706902,247705,1487318,73607,8960,743198,0
0,3,704311,247858,1568575,73710,8912,783900,0
0,3,713446,250320,1530327,74697,9640,764589,0
0,3,715878,250527,1490376,74851,9814,744562,0
0,3,709225,248013,1334707,73766,9769,666966,0
0,3,710382,250303,1477664,74751,9577,738168,0
0,3,708113,248384,1475501,73846,8558,737341,0
0,3,708386,247858,1398850,73620,8587,699082,0
0,3,707565,248452,1282727,73941,8578,640927,0
0,3,713399,249991,1486084,74679,9213,742406,0
0,3,709880,247947,1495993,73803,9139,747564,0
0,3,708772,248771,1431727,73893,8560,715377,0
0,3,717061,250489,1450980,74877,9299,724810,0
0,3,711667,248470,1525730,73946,9956,762436,0
0,3,712384,248893,1441742,74019,9382,720535,0
0,3,710263,248484,1322515,73823,9264,660751,0
0,3,718768,250929,1482511,74759,9199,740676,0
0,3,711243,248371,1388898,73892,9431,694053,0
0,3,706583,248419,1521687,73737,10196,760490,0
0,3,731878,253929,1338356,77294,9753,668708,0
0,3,707320,248401,1326216,73760,8596,662737,0
0,3,710848,248674,1444267,73840,9279,721792,0
0,3,709831,248730,1480182,73802,9137,739263,0
0,3,712837,250143,1478040,74559,9278,738365,0
0,3,730652,253176,1436016,77154,9660,717614,0
0,3,712836,250013,1491905,74553,10129,745750,0
0,3,709492,248852,1489529,74015,8469,744421,0
0,3,715689,250007,1503006,74657,10186,750968,0
0,3,710077,247840,1391914,73664,8518,695567,0
0,3,708849,248514,1355335,74054,9424,677170,0
0,3,709215,248248,1598345,73959,9801,798745,0
0,3,709495,248734,1444755,74115,8882,722032,0
0,3,708284,247967,1476341,73833,8872,737780,0
0,3,715286,249794,1417976,74622,9957,708173,0
0,3,713027,248201,1337014,73905,8253,667851,0
0,3,710492,248465,1495324,74011,10218,747257,0
0,3,710753,248320,1408517,73969,9154,703880,0
0,3,715260,250398,1513499,74966,10610,756096,0
0,3,718978,250651,1480603,74986,9966,739691,0
0,3,715951,249508,1465614,74313,9151,732290,0
0,3,703839,248761,1527718,74105,8603,763484,0
0,3,703573,248423,1470157,73991,8978,734778,0
0,3,706910,248392,1357145,73967,9207,678218,0
0,3,708763,249472,1451330,74530,9025,725100,0
0,3,704553,248485,1440271,73969,9309,719807,0
0,3,710927,250045,1483877,74725,9537,741274,0
0,3,705755,248874,1516645,74102,8349,758026,0
0,3,708653,249636,1457865,74559,9101,728441,0
0,3,709671,250006,1422832,74679,9131,710915,0
0,3,710784,250035,1452783,74687,9329,725894,0
0,3,709265,249002,1322936,74111,8399,661371,0
0,3,708401,248330,1454570,73945,9022,726912,0
0,3,702410,248347,1353246,73906,9729,676339,0
0,3,705660,248221,1409982,73918,9465,704622,0
0,3,726675,252765,1358558,77195,9981,678873,0
0,3,705343,247882,1386123,73838,8528,692596,0
0,3,710459,250146,1473700,74653,9092,736300,0
0,3,727237,253106,1555567,77298,9958,777570,0
0,3,710424,248852,1367583,74107,9081,683257,0
0,3,707537,248615,1364831,73917,9250,681890,0
0,3,708870,248654,1567010,73898,8994,783167,0
0,3,707469,248638,1447131,73918,8734,723143,0
0,3,706747,248240,1432948,73784,8958,716116,0
0,3,713219,250520,1422206,74762,8985,710833,0
0,3,712610,249541,1449179,74256,8560,724218,0
0,3,712373,250702,1488904,74910,10461,743645,0
0,3,712030,248973,1437260,74087,9222,718363,0
0,3,712513,248503,1473234,73923,9544,736201,0
0,3,707140,249590,1386609,74274,8843,692840,0
0,3,703777,248662,1452952,73999,9105,726082,0
0,3,708751,248989,1322701,74049,8610,661002,0
0,3,708860,248982,1458325,74058,9685,728951,0
0,3,728833,253487,1609230,77371,11234,804179,0
0,3,711835,250597,1510614,74872,9656,754731,0
0,3,706851,248662,1423453,73982,8770,711308,0
0,3,711886,250337,1374406,74717,9364,686569,0
0,3,714696,249802,1501186,74475,9968,750085,0
0,3,710414,248607,1509247,73930,9312,754278,0
0,3,709682,248662,1333254,73863,9092,666296,0
0,3,709153,249171,1427298,74087,8410,713369,0
0,3,709114,249086,1426096,74065,9250,712677,0
0,3,707917,249037,1394072,73963,8745,696661,0
0,3,707317,248021,1356034,73700,8954,677473,0
0,3,733234,253607,1392322,77373,9595,695679,0
0,3,707452,248848,1369089,74059,8798,684114,0
0,3,708844,248548,1364761,73903,8517,682015,0
0,3,712563,249808,1469532,74541,9316,734284,0
0,3,712886,249042,1361114,74109,9463,679945,0
0,3,710084,248552,1534535,73883,9605,766851,0
0,3,709312,248226,1459408,73798,10024,729479,0
0,3,714422,248373,1449922,73833,9635,724627,0
0,3,704912,248465,1390656,73851,9494,694989,0
0,3,714395,252164,1731868,75407,10774,865223,0
0,3,709900,249429,1316116,74219,9580,657685,0
0,3,704773,248234,1414550,73778,8516,706688,0
0,3,711132,249904,1446618,74521,9025,722795,0
0,3,712879,250374,1456399,74796,9151,727597,0
0,3,706584,249062,1362292,74125,9051,680669,0
0,3,710053,249755,1389709,74457,9358,694499,0
0,3,729484,253774,1476044,77421,9773,737781,0
0,3,709067,248921,1345435,74021,8764,672426,0
0,3,714547,250310,1506319,74787,9626,752669,0
0,3,710183,248510,1578740,73874,8898,789024,0
0,3,710958,249100,1414874,74125,9165,707071,0
0,3,710563,248377,1501653,73863,9817,750099,0
0,3,710672,250338,1492600,74735,9711,745576,0
0,3,707273,248739,1341094,74028,8488,670114,0
0,3,732797,258115,1456774,76802,9313,727994,0
0,3,731160,253819,1573395,77438,9172,786261,0
0,3,711499,249753,1369836,74347,9438,684366,0
0,3,710722,250254,1470311,74426,9055,734716,0
0,3,711496,249799,1530549,74497,9406,764607,0
0,3,708909,248755,1607566,73920,10215,803492,0
0,3,733276,253439,1499179,77269,11077,749111,0
0,3,711454,249625,1617392,74199,10365,808141,0
0,3,711304,248609,1378591,73992,8755,688263,0
0,3,713380,249384,1316176,74106,9035,657722,0
0,3,709315,249127,1459608,73975,9093,729161,0
0,3,708306,249052,1576171,73931,9045,787690,0
0,3,710572,248998,1310464,73953,8946,654784,0
0,3,711161,250336,1401964,74607,9069,700335,0
0,3,707690,248594,1475934,73742,8249,737624,0
0,3,714588,250710,1499396,74796,9679,749045,0
0,3,735344,253569,1662715,77299,10809,830985,0
0,3,710524,249446,1462428,74122,9376,730759,0
0,3,709812,249447,1412238,74023,9618,705755,0
0,3,707561,247428,1411792,73389,8774,705565,0
0,3,710846,249266,1335632,74149,8246,667419,0
0,3,713126,249275,1428226,74026,9923,713740,0
0,3,714103,248902,1401559,73877,8668,700287,0
0,3,710155,248815,1644996,73997,11973,822095,0
0,3,732312,253263,1456334,77285,9882,727741,0
0,3,713795,249170,1435546,74110,9901,717369,0
0,3,738623,255032,1412201,77856,9807,705692,0
0,3,716020,249877,1537047,74405,10699,768468,0
0,3,715551,249526,1424354,74229,8661,711669,0
0,3,712645,249851,1356290,74415,8317,677710,0
0,3,735354,254836,1455622,77807,9302,727414,0
0,3,713639,249438,1496654,74155,9546,747320,0
0,3,716616,249650,1413936,74101,8445,706566,0
0,3,717961,250489,1438408,74440,9581,718825,0
0,3,722554,251838,1452512,75054,9672,725716,0
0,3,723265,251968,1448103,75104,9814,723596,0
0,3,708267,249736,1841792,74121,10833,920465,0
0,3,712680,250775,1439121,74397,9899,719162,0
0,3,711004,250430,1481897,74333,10074,740579,0
0,3,715782,250924,1349306,74694,10081,673889,0
0,3,712932,251334,1483137,74913,9239,741008,0
0,3,711199,249924,1479725,74197,9600,739490,0
0,3,713095,249554,1387235,73925,8744,693266,0
0,3,713480,249260,1561629,73874,10193,779418,0
0,3,710411,249479,1349421,74040,9926,674244,0
0,3,717109,251588,1478834,75085,9358,738773,0
0,3,712694,249384,1439064,74076,9561,718947,0
0,3,716290,250896,1494551,74926,9890,746870,0
0,3,716219,250633,1477795,74734,10102,738425,0
0,3,715317,249533,1367133,74106,9383,683137,0
0,3,707752,248899,1302908,73840,9586,651019,0
0,3,716200,251134,1565899,74812,9971,782395,0
0,3,709785,248847,1536574,73956,9458,767941,0
0,3,735134,257988,1613911,76627,10152,806631,0
0,3,711524,248944,1418223,73995,9536,709159,0
0,3,712752,249226,1372950,74091,8733,686111,0
0,3,731488,253948,1640165,77334,11271,819680,0
0,3,709947,248647,1315627,73801,8338,657450,0
0,3,714499,249779,1495621,74399,9373,747289,0
0,3,713788,248834,1298466,73986,9659,648978,0
0,3,731486,253294,1389918,77170,10001,694643,0
0,3,714886,249408,1584738,74174,10516,791452,0
0,3,713075,248251,1472082,73846,9863,735688,0
0,3,710117,250043,1484585,74595,9798,741758,0
0,3,708836,249240,1292329,74145,8949,645688,0
0,3,710320,249320,1449505,74065,9187,724273,0
0,3,707306,248990,1428323,74005,8919,713688,0
0,3,713760,250487,1502077,74732,10237,750363,0
0,3,709772,248403,1506692,73735,9825,753036,0
0,3,711179,249364,1288336,74101,9264,643720,0
0,3,709303,248498,1460534,73902,8839,729872,0
0,3,711460,248342,1488964,73792,10312,744159,0
0,3,709782,248174,1469705,73739,9673,734477,0
0,3,708485,247592,1415363,73528,9933,707214,0
0,3,710968,248844,1535250,73953,9699,767203,0
0,3,712701,249873,1399345,74493,9041,699006,0
0,3,712846,248997,1544099,73964,10199,771608,0
0,3,732369,253669,1438861,77305,9948,719012,0
0,3,712750,248899,1561105,73837,9872,780090,0
0,3,716745,248929,1534629,73844,9959,766877,0
0,3,712419,249104,1424209,73845,10425,711668,0
0,3,714390,249103,1419842,73850,10095,709463,0
0,3,720343,251340,1470534,74762,11066,734275,0
0,3,712184,249248,1842567,73915,11218,920998,0
0,3,713781,248423,1601385,73507,10846,800265,0
0,3,713761,248932,1358751,73760,9485,679140,0
0,3,716950,248782,1474407,73623,9033,736856,0
0,3,730647,253726,1309223,77037,10222,654182,0
0,3,707867,249317,1587646,73974,9839,793273,0
0,3,711548,248705,1516924,73725,9678,757900,0
0,3,737885,258141,1543646,76517,10294,771463,0
0,3,711129,248868,1461601,73887,9495,730453,0
0,3,707273,247959,1349719,73636,9429,674418,0
0,3,715920,251261,1470419,74926,9665,734359,0
0,3,714193,250158,1429890,74538,9605,714433,0
0,3,708062,248040,1519811,73572,8993,759490,0
0,3,713915,251232,1439995,74930,9829,719275,0
0,3,707586,247654,1585971,73394,9311,792108,0
0,3,708050,248067,1359427,73589,10360,679867,0
0,3,711629,248165,1344799,73683,9505,671918,0
0,3,712606,249945,1395434,74420,8891,697057,0
0,3,712496,249916,1419425,74435,8797,709153,0
0,3,707660,248311,1298664,73756,9157,648879,0
0,3,711575,248472,1384660,73768,9906,691866,0
0,3,711415,248354,1454388,73654,9700,726781,0
0,3,708556,247976,1379363,73551,8957,689299,0
0,3,709074,248074,1583027,73574,9847,791137,0
0,3,712933,248630,1445524,73818,9374,722382,0
0,3,714789,249925,1371916,74363,9956,685257,0
0,3,710770,247823,1358095,73505,9722,678649,0
0,3,716194,248340,1336689,73680,9007,667911,0
0,3,709729,249104,1316955,73979,9700,658003,0
0,3,705370,247757,1460712,73470,9567,729970,0
0,3,714038,249931,1383211,74518,9629,690974,0
0,3,707049,247868,1415116,73472,8498,707198,0
0,3,710263,248428,1430354,73743,9989,714897,0
0,3,716680,249857,1426387,74367,10261,712644,0
0,3,711239,249246,1579447,73983,9785,787745,0
0,3,712603,248313,1475607,73648,9481,737474,0
0,3,712397,248377,1395045,73735,8985,697167,0
0,3,709766,247871,1352286,73512,8752,675887,0
0,3,710038,247595,1299870,73493,8876,649357,0
0,3,708316,248383,1450623,73678,9126,724959,0
0,3,708109,248179,1342045,73614,8406,670709,0
0,3,709631,248501,1391675,73766,8594,695412,0
0,3,718022,251329,1381006,74925,8771,690269,0
0,3,708502,248021,1307823,73570,8228,653579,0
0,3,711961,248261,1366442,73679,9106,682698,0
0,3,714916,249494,1284268,74221,9495,641298,0
0,3,714966,249097,1452622,73892,8902,725988,0
0,3,711030,247664,1396684,73452,8628,697889,0
0,3,711994,248451,1498919,73683,8669,749138,0
0,3,733673,252777,1460087,76873,9537,729800,0
0,3,713672,248581,1443698,73719,8744,721431,0
0,3,712026,248023,1479084,73431,8332,739168,0
0,3,714032,248194,1305529,73484,7600,652447,0
0,3,713699,248309,1429010,73586,7592,714126,0
0,3,700211,248067,1443211,73164,8661,721252,0
0,3,701951,247922,1443514,73031,8458,721400,0
0,3,708136,250120,1407437,73973,8504,703251,0
0,3,708937,250001,1455433,73938,8441,727201,0
0,3,705167,248116,1450314,73110,8512,724619,0
0,3,731962,257373,1447934,75820,8633,723439,0
0,3,705433,249478,1362700,73769,9455,679873,0
0,3,703784,248016,1504369,73145,9764,751797,0
0,3,702494,248008,1347024,73069,8547,673199,0
0,3,708542,249129,1395581,73403,8966,697333,0
0,3,705205,248060,1440084,73076,9412,719737,0
0,3,710008,249601,1370977,73756,8533,684920,0
0,3,709655,248519,1446853,73221,9154,723073,0
0,3,707093,249066,1337457,73497,9232,668452,0
0,3,705705,248024,1463760,73130,9058,731554,0
0,3,705573,248230,1499172,73238,8696,749186,0
0,3,705927,248515,1265034,73350,8761,632132,0
0,3,706272,248164,1393291,73324,8856,696435,0
0,3,733759,257370,1423714,75966,8804,711535,0
0,3,708873,248551,1362837,74278,10186,681020,0
0,3,711597,249962,1389605,74997,10086,693849,0
0,3,714434,249529,1398869,74819,9946,698790,0
0,3,708838,247684,1382347,73896,9959,690694,0
0,3,709026,247367,1394060,73811,9594,696610,0
0,3,716679,249993,1294600,74949,9456,646616,0
0,3,714374,248845,1420997,74306,10844,710112,0
0,3,706324,248705,1361418,74259,10537,680295,0
0,3,707175,248622,1317495,74302,9941,658314,0
0,3,709416,248216,1307352,74109,10126,653290,0
0,3,710253,249712,1304475,74818,9737,651690,0
0,3,708598,248101,1266172,74085,8649,632647,0
0,3,710379,248739,1478429,74342,9319,738756,0
0,3,710074,247986,1348408,74058,8591,673753,0
0,3,710696,248223,1385052,74190,9206,692100,0
0,3,710052,249206,1431036,74461,9204,715176,0
0,3,709407,248731,1559974,74209,9048,779576,0
0,3,707377,247642,1387661,73925,9228,693431,0
0,3,709361,247947,1411994,74030,8447,705604,0
0,3,705254,247911,1415907,73973,9397,707713,0
0,3,711375,248893,1338645,74337,9619,668973,0
0,3,729878,252888,1463646,77490,9789,731520,0
0,3,708494,248872,1517565,74352,8664,758356,0
0,3,710411,248028,1550490,74048,8810,774979,0
0,3,709532,248115,1519648,74124,8870,759388,0
0,3,710450,247986,1424423,74037,8533,711894,0
0,3,733807,252927,1523292,77505,9969,761178,0
0,3,709355,248555,1430527,74252,9352,714885,0
0,3,714476,249947,1355349,74943,9142,677119,0
0,3,711862,249253,1382873,74684,9445,690928,0
0,3,718714,250437,1454632,75052,9294,726896,0
0,3,711571,247839,1454501,74002,9070,726910,0
0,3,711544,248055,1361780,74061,9354,680493,0
0,3,718086,249858,1333791,74981,9495,665710,0
0,3,706989,248933,1363885,74561,9589,681404,0
0,3,710588,249963,1410905,75008,9925,704807,0
0,3,711960,249904,1361982,74994,9292,680495,0
0,3,707499,247852,1370961,74023,8759,685395,0
0,3,707151,248057,1335360,74083,9009,667245,0
0,3,716508,250740,1414924,75230,9131,706894,0
0,3,731234,253218,1642100,77559,10560,820791,0
0,3,729678,252768,1545612,77443,10639,772358,0
0,3,708615,247969,1447171,74089,9427,723211,0
0,3,708981,248136,1496487,74066,9653,747883,0
0,3,730631,252718,1396225,77395,10496,697726,0
0,3,710956,248409,1581705,74183,9388,790577,0
0,3,714889,249839,1350760,74928,8583,674633,0
0,3,709268,249384,1663669,74468,10682,831163,0
0,3,708373,248258,1448230,74204,9135,723642,0
0,3,708658,247389,1405033,73805,8782,701427,0
0,3,708796,248306,1423847,74134,9329,711636,0
0,3,710535,247913,1454098,74001,8875,726671,0
0,3,713314,248624,1376239,74303,9558,687843,0
0,3,708863,247816,1439815,73944,9344,719525,0
0,3,715000,250030,1385519,74896,8842,692278,0
0,3,709985,248047,1349687,74110,9556,674466,0
0,3,711464,248388,1413194,74230,9054,706230,0
0,3,712928,249205,1355906,74594,8309,676886,0
0,3,718732,250322,1390390,75086,8934,694605,0
0,3,716096,249068,1425056,74592,9536,711954,0
0,3,706916,248166,1452830,74064,10300,725388,0
0,3,711886,249459,1479827,74553,9927,739212,0
0,3,707257,247506,1619861,73815,9516,809438,0
0,3,709299,248888,1465865,74300,10292,732472,0
0,3,712492,248790,1455586,74230,9863,727365,0
0,3,711754,248870,1361076,74260,9745,680156,0
0,3,709267,248339,1442377,74046,9371,720880,0
0,3,713226,249202,1730108,74622,10991,864310,0
0,3,711153,248733,1444477,74125,9771,722035,0
0,3,710001,247594,1314955,73751,9313,656969,0
0,3,718274,250195,1383362,74869,9862,690961,0
0,3,708578,248336,1489165,73987,10368,743993,0
0,3,706673,248009,1444668,73964,9490,721898,0
0,3,713278,248881,1462315,74182,8820,730770,0
0,3,713117,248748,1392626,74227,9886,695928,0
0,3,711464,247778,1336538,73877,9763,667875,0
0,3,716377,250406,1389353,75023,9720,693895,0
0,3,712394,248567,1556117,74020,10724,777815,0
0,3,711520,248526,1454724,74041,9456,726967,0
0,3,716237,250125,1535262,74894,10663,766912,0
0,3,715756,250058,1467541,75005,10437,732873,0
0,3,711071,248258,1591486,73962,10880,795150,0
0,3,717610,249684,1478214,74661,11062,738638,0
0,3,733747,253010,1597732,77356,11926,798603,0
0,3,716461,248957,1563615,74214,10290,781312,0
0,3,708423,249681,1436426,74660,10253,717516,0
0,3,706696,248413,1479094,74082,10003,739110,0
0,3,712233,249219,1383692,74769,9494,691286,0
0,3,712525,249488,1440209,74608,10078,719722,0
0,3,712001,249185,1501969,74540,9466,750589,0
0,3,711759,249996,1514625,74745,9310,756925,0
0,3,712331,249344,1431846,74498,9655,715500,0
0,3,710551,248995,1480111,74374,9227,739714,0
0,3,713661,248803,1436061,74319,9511,717613,0
0,3,713874,249265,1461612,74591,8732,730494,0
0,3,714647,249624,1522026,74740,8671,760576,0
0,3,720889,251142,1349163,75528,8995,673992,0
0,3,709315,249079,1476069,74748,9104,737551,0
0,3,731666,253469,1577320,77767,10387,788339,0
0,3,712336,249037,1481175,74491,9421,740189,0
0,3,712127,249266,1503785,74504,9887,751509,0
0,3,716483,249976,1549890,74745,10029,774557,0
0,3,713960,248886,1473168,74346,10022,736224,0
0,3,711107,249499,1466650,74575,10020,732979,0
0,3,716129,250576,1333248,75118,8900,666021,0
0,3,715194,249467,1446123,74571,9394,722775,0
0,3,736380,253696,1479083,77740,10485,739230,0
0,3,715541,250193,1479794,74838,9342,739666,0
0,3,715483,249644,1467446,74616,8930,733330,0
0,3,728081,252650,1382578,77368,9949,690870,0
0,3,715653,250278,1460098,75053,8514,729553,0
0,3,712454,249577,1461344,74569,9154,730339,0
0,3,735447,254108,1696406,77875,11057,846839,0
0,3,716705,250406,1306610,74927,9361,652687,0
0,3,713344,249714,1478921,74546,10000,738965,0
0,3,712863,249607,1633789,74508,9600,816510,0
0,3,713609,249476,1384305,74427,9058,691812,0
0,3,714693,250450,1615832,74695,10187,807387,0
0,3,736504,254209,1638753,77719,11031,819000,0
0,3,717675,250121,1489747,74612,10078,744445,0
0,3,712354,248305,1538488,74063,9346,768910,0
0,3,716896,250776,1410544,75172,9414,704452,0
0,3,713436,249402,1329186,74410,8284,664195,0
0,3,710519,248492,1326016,74124,9464,662597,0
0,3,714747,249604,1403149,74455,8787,701191,0
0,3,716567,249684,1536044,74522,9098,767635,0
0,3,710544,248485,1371894,74144,8732,685524,0
0,3,717606,249915,1479234,74603,9656,739109,0
0,3,737460,254219,1433408,77801,10609,716185,0
0,3,720314,250228,1368412,74942,9800,683570,0
0,3,713710,248927,1583982,74281,9166,791112,0
0,3,715583,248718,1474139,74232,9657,736712,0
0,3,714949,248772,1487315,74246,9588,743329,0
0,3,722143,250946,1399204,75246,8962,699337,0
0,3,707861,248225,1358639,74058,9858,678551,0
0,3,732332,253612,1768446,77627,11049,883585,0
0,3,710829,248945,1482373,74327,10277,740823,0
0,3,714388,250785,1506937,75192,10508,752832,0
0,3,708719,248264,1520630,73994,9356,760099,0
0,3,710982,248435,1424893,74049,10363,712114,0
0,3,731408,253635,1485825,77646,11038,742548,0
0,3,715042,250201,1429504,74922,10041,714305,0
0,3,715289,249639,1463331,74476,10384,730907,0
0,3,714330,249814,1520586,74445,9886,759765,0
0,3,722905,251787,1474337,75439,9786,736289,0
0,3,718444,250147,1425840,74713,9812,712444,0
0,3,712747,250619,1589223,74892,9969,793989,0
0,3,718141,251817,1470505,75570,9325,734588,0
0,3,712202,249496,1473964,74384,9823,736584,0
0,3,716104,250964,1365431,75349,8950,682045,0
0,3,715122,249324,1389615,74548,8642,694513,0
0,3,715853,249720,1333336,74797,8800,666151,0
0,3,719593,250823,1460485,75284,8921,729675,0
0,3,712738,249407,1416874,74530,9775,708072,0
0,3,717011,250334,1407572,74983,9433,703142,0
0,3,740163,257964,1505056,77003,10534,752233,0
0,3,718203,250320,1572226,75012,9985,785460,0
0,3,715365,249032,1499124,74282,9843,748689,0
0,3,718414,249643,1556437,74509,9832,777840,0
0,3,740749,254180,1753538,77767,10723,876097,0
0,3,710133,249025,1360374,74262,9816,680214,0
0,3,714542,250081,1465396,74685,9874,732305,0
0,3,711772,248911,1404219,74225,9509,701607,0
0,3,734182,253527,1506043,77567,10169,752716,0
0,3,710339,247953,1503588,73841,9167,751437,0
0,3,712913,248395,1419052,74006,9115,709105,0
0,3,712426,249638,1346327,74513,9469,672615,0
0,3,715238,250115,1422452,74812,9658,710592,0
0,3,713253,248821,1433080,74163,9196,715921,0
0,3,717892,249204,1634600,74354,10523,816863,0
0,3,714732,248733,1500285,74153,10099,749762,0
0,3,714560,248227,1353008,73981,9330,676124,0
0,3,712010,248663,1486967,74114,9846,743168,0
0,3,713155,248818,1525135,74215,9258,762253,0
0,3,712066,247733,1466329,73893,9429,732840,0
0,3,709991,248091,1270051,74100,8945,634636,0
0,3,710897,248099,1435139,74022,9392,716934,0
0,3,717436,249726,1384866,74817,9813,691980,0
0,3,739930,253454,1452377,77761,10672,725530,0
0,3,733800,252812,1610293,77568,10494,804733,0
0,3,717649,249385,1425682,74665,9573,712472,0
0,3,718399,249888,1548334,75029,10640,772739,0
0,3,712577,247486,1352151,74049,9965,675477,0
0,3,734462,252680,1485072,77572,10528,742486,0
0,3,735587,252015,1483559,77328,10128,741329,0
0,3,708206,249442,1512685,74882,9061,755535,0
0,3,703160,247194,1365627,73937,8825,682269,0
0,3,710784,249814,1375484,75101,9500,686995,0
0,3,704891,248078,1525390,74308,11021,761368,0
0,3,731714,253652,1473390,77845,9906,736343,0
0,3,706719,247512,1430271,74005,8981,714650,0
0,3,710275,247941,1655241,74184,10813,827118,0
0,3,705756,248125,1371786,74280,8854,685517,0
0,3,709913,249537,1382731,74910,9095,690921,0
0,3,707176,247622,1361671,74056,8576,680526,0
0,3,710017,248180,1694351,74264,10294,846572,0
0,3,708585,248434,1413572,74367,8701,706423,0
0,3,730871,252604,1613203,77521,10457,806284,0
0,3,730721,252458,1514871,77485,9433,756905,0
0,3,705170,247936,1317799,74159,8979,658576,0
0,3,709623,248574,1539790,74455,9407,769670,0
0,3,710665,248991,1465577,74623,9093,732079,0
0,3,707219,248287,1429691,74222,9161,714452,0
0,3,709244,247983,1580670,74130,10703,789835,0
0,3,712441,249470,1552234,74802,10891,775465,0
1,3,759399,266218,1514081,78585,10011,756735,0
1,3,767505,269022,1526642,79790,9845,762780,0
1,3,766080,269099,1752691,79838,10696,875606,0
1,3,762188,266539,1461054,78752,10229,729869,0
1,3,769722,269910,1753228,80177,10955,875916,0
1,3,770143,268709,1558582,79691,11561,778188,0
1,3,758475,265839,1474818,78563,9171,737085,0
1,3,753715,264745,1462750,78119,10212,731003,0
1,3,712325,250129,1478704,74596,9474,738403,0
1,3,706296,248103,1382161,73547,9443,690641,0
1,3,716510,250817,1459567,74810,10575,729082,0
1,3,708099,247838,1448202,73549,9242,723757,0
1,3,713582,250331,1400260,74563,9073,699545,0
1,3,708707,247451,1590720,73445,9799,794986,0
1,3,731552,253026,1530960,77157,10402,765052,0
1,3,712045,248264,1335041,73709,9043,666795,0
1,3,704327,248145,1500635,73704,9431,749950,0
1,3,734182,258086,1434021,76928,9704,716473,0
1,3,705772,248196,1554147,73839,9413,775997,0
1,3,728081,252394,1459691,76935,9475,729381,0
1,3,703317,247624,1428764,73563,8413,714009,0
1,3,705221,248095,1380719,73736,8093,690009,0
1,3,712639,250321,1454052,74766,9313,726435,0
1,3,703237,247887,1450915,73676,8742,724868,0
1,3,706954,248499,1290244,73967,8744,644735,0
1,3,712522,250856,1560396,74932,8878,779584,0
1,3,705739,247670,1379551,73663,8172,689309,0
1,3,707098,247734,1340639,73563,8585,670831,0
1,3,709673,248457,1459078,73923,9324,729155,0
1,3,709492,248514,1345836,73933,8310,672565,0
1,3,709898,247880,1271918,73656,8172,635610,0
1,3,725850,252704,1466100,77070,9992,732706,0
1,3,705322,247757,1434349,73603,9140,717042,0
1,3,707120,248025,1509379,73770,9159,753276,0
1,3,708358,248338,1326303,73890,8249,662935,0
1,3,728190,252422,1406572,77000,9519,702957,0
1,3,707264,247318,1390134,73472,9447,694701,0
1,3,726926,252659,1409098,77043,9496,704187,0
1,3,709434,248495,1436854,73972,8457,718027,0
1,3,714488,249800,1352403,74375,8869,675270,0
1,3,717035,250544,1687603,74890,9764,843015,0
1,3,711872,249269,1265644,74101,9033,632152,0
1,3,711341,248423,1398688,73720,9048,699060,0
1,3,715682,250701,1503365,74878,9616,751157,0
1,3,705834,248077,1472995,73611,9759,736070,0
1,3,714062,250038,1524585,74198,9080,761994,0
1,3,712353,250286,1365538,74522,9304,682204,0
1,3,711515,249505,1479427,74080,8922,739397,0
1,3,713756,250187,1577471,74649,9531,788116,0
1,3,707365,248605,1561023,73882,9160,780293,0
1,3,704936,247259,1430820,73470,8996,714999,0
1,3,709048,248851,1419379,74009,8711,709360,0
1,3,711285,248461,1327721,73806,8519,663485,0
1,3,710853,248799,1346956,74047,9091,673030,0
1,3,714239,250243,1500784,74801,9291,748977,0
1,3,714978,248255,1644535,73904,10380,821782,0
1,3,708981,248240,1431996,73893,8794,715848,0
1,3,710634,249142,1374572,74227,8765,686776,0
1,3,715904,251020,1517914,75153,9461,758139,0
1,3,711345,248979,1473642,74167,8697,736016,0
1,3,734600,253063,1441422,77259,9689,720230,0
1,3,710190,248368,1456471,73922,10083,727987,0
1,3,710066,249054,1385814,74212,9038,692562,0
1,3,710650,248261,1560733,73872,9798,779970,0
1,3,711984,248735,1439812,74083,10454,719519,0
1,3,715647,249774,1484170,74615,10043,741399,0
1,3,706357,248071,1339787,73847,8216,669461,0
1,3,703765,248906,1369268,74046,8851,684214,0
1,3,707128,248796,1349502,74048,9428,674414,0
1,3,705473,248576,1346352,74038,8933,672818,0
1,3,712564,250909,1429396,75038,9173,714157,0
1,3,707727,248671,1455048,74015,9004,727201,0
1,3,708879,248405,1343986,74009,9293,671650,0
1,3,704541,248187,1457673,73804,8742,728325,0
1,3,706807,248664,1529498,74008,8871,764372,0
1,3,706816,249105,1524546,74194,8954,761880,0
1,3,705430,248553,1389322,74040,8412,694290,0
1,3,709845,248847,1445530,74115,8995,722354,0
1,3,709950,248677,1403757,74077,9194,701451,0
1,3,706389,248939,1340653,74087,9205,670011,0
1,3,707331,248675,1467141,74054,8821,733280,0
1,3,704857,248155,1430260,73870,8965,714737,0
1,3,704681,248355,1398944,73954,8115,699060,0
1,3,709839,249418,1463683,74271,8658,731571,0
1,3,708471,248409,1439921,73934,9058,719684,0
1,3,708457,249025,1334643,74037,8853,666932,0
1,3,710048,249406,1508603,74222,8943,753763,0
1,3,727125,253454,1467576,77313,10105,733433,0
1,3,710009,249398,1426639,74162,8877,712826,0
1,3,707194,248720,1347623,73972,8234,673429,0
1,3,709025,248204,1425328,73721,8574,712451,0
1,3,707501,248696,1314212,73868,8725,656740,0
1,3,709420,248933,1489968,74071,8866,744626,0
1,3,711171,248396,1423638,73800,10039,711413,0
1,3,708921,249992,1467190,74576,8866,732945,0
1,3,727690,253555,1428512,77350,8994,713942,0
1,3,740612,260631,1417206,77954,9023,707946,0
1,3,707235,248983,1374232,74072,9373,686752,0
1,3,710339,250062,1873271,74434,11549,936302,0
1,3,710459,249129,1509879,74089,9833,754523,0
1,3,707381,248550,1394683,73878,8728,696880,0
1,3,705538,248191,1258706,73845,8616,628930,0
1,3,710997,248909,1389359,74084,8919,694324,0
1,3,711652,248996,1485477,74045,9277,742228,0
1,3,710798,248767,1406365,73960,9545,702809,0
1,3,708584,248574,1350084,73867,10076,674714,0
1,3,712443,250782,1492144,74833,9279,745569,0
1,3,714135,250240,1446218,74632,9918,722639,0
1,3,709296,248567,1452427,73955,8823,725989,0
1,3,712634,249518,1405727,74237,9795,702450,0
1,3,713809,250654,1455153,74788,9516,727019,0
1,3,714066,250933,1531381,74914,9189,765075,0
1,3,711533,249140,1353511,74117,8297,676406,0
1,3,712070,248874,1432761,74063,9495,715893,0
1,3,713841,250302,1491196,74481,8705,745110,0
1,3,732564,253155,1398730,77179,10832,699025,0
1,3,732197,252867,1440933,77056,10713,720005,0
1,3,727779,253426,1397333,77316,9543,698179,0
1,3,726496,252819,1656816,77047,10576,827271,0
1,3,709291,249513,1357012,74352,9388,677836,0
1,3,727921,252981,1451158,77130,9751,725155,0
1,3,706986,248711,1357294,73998,8397,678217,0
1,3,710868,249353,1463350,74170,9487,731300,0
1,3,711578,249117,1498589,74077,9327,748930,0
1,3,708517,248859,1331595,74048,8853,665482,0
1,3,708274,249703,1595480,74315,9528,797424,0
1,3,706195,247819,1387520,73694,9635,693466,0
1,3,731652,253301,1561171,77284,9261,780143,0
1,3,714567,250707,1546604,74906,10366,772681,0
1,3,713910,250374,1484535,74731,10138,741629,0
1,3,711190,248950,1366438,74014,8459,683042,0
1,3,706509,248947,1378933,73998,9615,689288,0
1,3,711889,249947,1508280,74582,9815,753715,0
1,3,709299,248777,1476240,73925,8752,737456,0
1,3,711726,249922,1746389,74388,10221,872947,0
1,3,710049,248649,1333126,73920,9114,666128,0
1,3,711880,248571,1394543,73927,9557,696957,0
1,3,706977,248738,1469468,73992,8135,734110,0
1,3,712791,249700,1469130,74265,9719,734126,0
1,3,713315,249760,1570649,74230,10639,784776,0
1,3,714599,249277,1459193,74105,9896,728787,0
1,3,713941,250367,1395953,74808,9929,697012,0
1,3,712600,248663,1439306,73885,9958,719231,0
1,3,707122,248604,1506477,73750,9765,752881,0
1,3,707904,248486,1424092,73691,8916,711730,0
1,3,730717,253663,1359494,77261,10018,679243,0
1,3,708216,248639,1335337,73820,9166,667218,0
1,3,713683,250488,1497842,74710,9666,748430,0
1,3,732280,253921,1436005,77402,9467,717659,0
1,3,716425,250300,1580237,74385,9667,789679,0
1,3,712747,250057,1459725,74458,9363,729187,0
1,3,710657,248678,1368030,73839,9503,683523,0
1,3,715159,250707,1356654,74719,10063,677448,0
1,3,707133,248358,1428589,73789,8754,713919,0
1,3,715449,250610,1439357,74716,9892,718906,0
1,3,712300,248846,1707884,73908,11148,853327,0
1,3,713091,250345,1504567,74584,9718,751676,0
1,3,709958,248513,1406158,73931,9369,702619,0
1,3,717600,250541,1437516,74715,9403,718030,0
1,3,714488,249210,1365756,74151,9085,682492,0
1,3,714114,249445,1383662,74193,9541,691528,0
1,3,714004,249260,1343372,74109,8359,671266,0
1,3,709803,248681,1452899,73988,9267,726079,0
1,3,714913,249709,1471113,74355,9398,735139,0
1,3,714132,249875,1467277,74386,9479,733154,0
1,3,716083,249677,1331619,74115,9102,665450,0
1,3,714021,249543,1457694,73948,9243,728450,0
1,3,716133,249654,1430442,74053,9327,714970,0
1,3,718342,249898,1466018,74138,9808,732618,0
1,3,710998,251067,1553603,74736,9841,774971,0
1,3,708495,249550,1546556,74017,9761,773006,0
1,3,710186,250039,1632368,74223,10317,815837,0
1,3,711594,249862,1376234,74168,9838,687745,0
1,3,715794,250414,1538411,74330,10547,768817,0
1,3,715418,251319,1522651,74825,9653,760843,0
1,3,712886,250048,1311968,74233,9032,655609,0
1,3,714001,249834,1481678,74174,9907,740377,0
1,3,710891,250133,1633767,74244,10968,816545,0
1,3,711170,249112,1342634,73960,9321,670941,0
1,3,713135,249392,1759399,74103,10350,877712,0
1,3,710722,249344,1323066,74144,8782,661086,0
1,3,712194,249430,1401630,74181,9247,700365,0
1,3,718060,251422,1557545,74925,9967,778036,0
1,3,707895,249477,1339777,74102,9723,669494,0
1,3,711788,249850,1580156,74137,9496,789651,0
1,3,710156,248704,1467033,73788,9417,733242,0
1,3,710789,248444,1415712,73786,9078,707612,0
1,3,710984,248680,1327010,73868,9080,663189,0
1,3,712118,248244,1478205,73714,9804,738764,0
1,3,708201,248803,1546550,73845,10812,772558,0
1,3,709206,248366,1470359,73698,10352,734768,0
1,3,712238,249213,1363597,74029,8678,681463,0
1,3,712418,248409,1516139,73747,10345,757078,0
1,3,714619,249527,1446162,74145,9214,722712,0
1,3,712554,248547,1500116,73860,10495,749704,0
1,3,711421,248204,1443843,73726,9487,721580,0
1,3,709682,249058,1345117,74082,9091,672153,0
1,3,715139,250624,1557826,74850,9893,778402,0
1,3,708511,248407,1518681,73774,9139,758734,0
1,3,712055,248884,1441239,73977,9062,719536,0
1,3,731652,253557,1444152,77243,9815,721580,0
1,3,714481,250808,1428990,74827,9227,714344,0
1,3,707511,248278,1264598,73725,9244,631849,0
1,3,706446,247777,1495057,73596,9501,747097,0
1,3,710618,248068,1477275,73700,10292,738474,0
1,3,710881,248548,1600642,73841,10395,799526,0
1,3,715861,250262,1458085,74758,10172,728355,0
1,3,713375,248596,1464122,73800,10523,731523,0
1,3,712741,249261,1313503,74102,9185,656444,0
1,3,712425,248614,1390438,73962,9410,694768,0
1,3,712660,249390,1470330,74120,9847,734719,0
1,3,716490,250204,1508832,74491,10986,754065,0
1,3,735346,253499,1468449,77173,10502,733847,0
1,3,711152,248299,1390366,73498,10247,694821,0
1,3,711758,248083,1475173,73412,10195,737227,0
1,3,734861,253631,1503218,77079,11022,751204,0
1,3,714380,248993,1418985,73741,11243,709065,0
1,3,713051,248703,1331318,73705,9570,665211,0
1,3,715953,249344,1508810,73848,10741,753997,0
1,3,721932,251575,1490142,74951,10006,744311,0
1,3,709169,249049,1419838,73776,9716,709668,0
1,3,712775,249832,1492892,74036,9995,746081,0
1,3,709847,248888,1400674,73804,8994,699765,0
1,3,709263,248815,1451956,73817,9132,725596,0
1,3,710985,248952,1427526,73814,9523,713266,0
1,3,709607,248130,1453245,73610,10277,726234,0
1,3,727733,252401,1437839,76859,10045,718165,0
1,3,709286,248774,1486686,73896,9340,742971,0
1,3,715656,251066,1447127,74884,9616,722659,0
1,3,733278,252755,1462278,76949,10213,730555,0
1,3,711256,248851,1394837,74109,9192,696854,0
1,3,712302,248531,1264708,73781,9240,631926,0
1,3,731665,253079,1536093,77054,10432,767642,0
1,3,707447,248137,1417291,73569,8916,708341,0
1,3,708637,248230,1451856,73658,9368,725613,0
1,3,708474,248345,1435383,73675,9518,717214,0
1,3,715730,250405,1431170,74664,9422,714791,0
1,3,734437,253438,1480251,77168,10370,739653,0
1,3,729590,252625,1508326,76850,9605,753683,0
1,3,715587,250981,1435748,74831,9064,717227,0
1,3,711105,248839,1439394,73912,9471,719296,0
1,3,709055,248090,1525518,73573,10539,762357,0
1,3,712377,248756,1471009,73875,10227,734944,0
1,3,715605,248681,1539723,73828,10310,769454,0
1,3,707968,248019,1348907,73589,9919,674159,0
1,3,715689,250572,1410644,74697,9167,704655,0
1,3,733693,253855,1481220,77277,9819,740221,0
1,3,708616,248208,1428480,73665,9303,713762,0
1,3,711251,248638,1407220,73826,9077,703205,0
1,3,709779,248127,1464384,73595,9921,731802,0
1,3,713807,249853,1403549,74418,9119,701117,0
1,3,717844,250967,1387251,74746,9416,692992,0
1,3,712652,248455,1458647,73692,9552,729021,0
1,3,714799,250753,1435970,74664,8617,717480,0
1,3,710027,248226,1554643,73637,8961,776859,0
1,3,711205,248225,1369273,73701,9516,684301,0
1,3,715612,250645,1435798,74615,8567,717593,0
1,3,711514,248997,1402875,73875,8980,701161,0
1,3,732102,252745,1398432,76885,9758,698868,0
1,3,715885,248983,1365105,74112,9052,681865,0
1,3,712584,248741,1358414,73761,9350,678371,0
1,3,713049,248371,1452533,73663,9740,725740,0
1,3,715337,248978,1450276,73904,9754,724787,0
1,3,713197,249093,1478807,73950,8720,739053,0
1,3,713276,248487,1379990,73761,8394,689683,0
1,3,712784,248432,1289590,73623,8428,644529,0
1,3,714100,248794,1491138,73745,8500,745208,0
1,3,737291,252940,1472638,76936,10310,735997,0
1,3,714046,248218,1522643,73613,9137,761010,0
1,3,720956,250542,1481100,74616,8066,739963,0
1,3,707172,250275,1394738,74041,7842,696863,0
1,3,706804,250271,1361397,74073,8370,680018,0
1,3,704245,248422,1481939,73240,8353,740553,0
1,3,705430,248438,1577160,73260,8567,788096,0
1,3,704377,248640,1277036,73316,8610,638096,0
1,3,706891,248749,1458184,73344,8603,728693,0
1,3,701417,248553,1715932,73300,10138,858390,0
1,3,704743,248666,1498759,73322,9960,749025,0
1,3,708190,249174,1375793,73510,8484,687566,0
1,3,706526,248682,1413818,73328,8877,706456,0
1,3,704139,248025,1362362,73054,8977,679750,0
1,3,706746,248620,1436295,73309,8565,717769,0
1,3,706467,248062,1312450,73089,8752,655741,0
1,3,703416,248403,1517847,73207,9239,758423,0
1,3,705435,248468,1483236,73165,9356,741218,0
1,3,701788,247795,1438966,73106,9504,719253,0
1,3,705239,247777,1323417,73145,8692,661342,0
1,3,707995,248578,1270925,73432,8803,635101,0
1,3,711471,250509,1312007,74359,8900,655342,0
1,3,708756,248221,1290393,74233,10015,644820,0
1,3,728843,253041,1467249,77517,10452,733231,0
1,3,709597,248190,1453583,74129,10140,726453,0
1,3,710797,249210,1347094,74684,9935,673065,0
1,3,711602,248640,1455583,74269,10636,727473,0
1,3,709289,247515,1287031,73906,9620,643230,0
1,3,717016,249863,1387278,74923,10781,692990,0
1,3,725062,252555,1421404,77380,11840,710124,0
1,3,711096,250234,1362641,75077,10784,680274,0
1,3,730659,252804,1522275,77456,11344,760763,0
1,3,705948,248298,1368559,74194,9461,683875,0
1,3,714770,250590,1330794,75212,9129,664804,0
1,3,708424,249080,1308009,74494,8930,653707,0
1,3,711932,249722,1290096,74855,8687,644546,0
1,3,710004,248343,1419099,74152,9382,709213,0
1,3,709233,249061,1394020,74570,8191,696533,0
1,3,714718,250192,1382245,75128,8625,690319,0
1,3,712548,248497,1485756,74273,9435,742520,0
1,3,711987,248525,1463704,74287,8888,731523,0
1,3,710726,250596,1318488,75235,9132,658639,0
1,3,708190,248356,1315438,74216,9249,657347,0
1,3,708598,247992,1359239,74047,8555,679325,0
1,3,713331,249518,1384336,74781,9508,691662,0
1,3,729233,252844,1499621,77468,9533,749588,0
1,3,710850,248345,1416878,74224,8372,708055,0
1,3,709216,247836,1464102,73981,9509,731779,0
1,3,711591,247828,1342981,74005,9106,671176,0
1,3,706352,247528,1441199,73778,8712,720406,0
1,3,729940,252536,1378149,77366,10282,688738,0
1,3,708437,248463,1472697,74258,9478,735934,0
1,3,711070,247833,1446874,73935,9213,723161,0
1,3,712977,248719,1512652,74281,9364,756013,0
1,3,712821,248830,1459615,74323,9779,729391,0
1,3,714096,248383,1495829,74243,9772,747444,0
1,3,703872,247943,1334835,74071,9489,667053,0
1,3,725811,252710,1482755,77430,10704,740975,0
1,3,706833,248271,1397588,74129,9261,698408,0
1,3,707141,248164,1345972,74158,8835,672582,0
1,3,706635,247950,1343872,74091,8908,671577,0
1,3,731659,253066,1549380,77527,10573,774358,0
1,3,707053,248061,1442648,74065,8946,720958,0
1,3,707056,248124,1378918,74137,8979,688939,0
1,3,712190,249074,1455255,74446,9549,727187,0
1,3,710427,249011,1448985,74435,9448,724137,0
1,3,709609,248014,1307131,74106,8547,653196,0
1,3,710206,248587,1399980,74177,9409,699709,0
1,3,707539,247058,1431897,73792,9019,715625,0
1,3,707610,249258,1364799,74655,9622,682168,0
1,3,713223,250072,1390008,74983,9786,694356,0
1,3,708960,248271,1378764,74093,9249,689050,0
1,3,709033,248737,1330226,74330,9240,664775,0
1,3,705803,247405,1362393,73852,8976,680864,0
1,3,711737,248500,1472634,74218,9294,735918,0
1,3,735554,257563,1441995,76895,9405,720562,0
1,3,710113,248609,1421662,74236,9648,710430,0
1,3,710487,247734,1380272,74007,9164,689556,0
1,3,710303,248237,1450788,74176,9094,725062,0
1,3,711772,247658,1360781,73929,8499,680037,0
1,3,733335,252529,1517978,77332,10551,758632,0
1,3,713905,248703,1710585,74307,10609,854987,0
1,3,711688,250089,1350206,74998,9940,674471,0
1,3,705399,247500,1426049,73790,9481,712692,0
1,3,711478,249229,1848478,74467,10496,923848,0
1,3,711796,248523,1393665,74155,9633,696007,0
1,3,712522,249803,1477095,74744,10142,737894,0
1,3,714313,249397,1343709,74610,9700,671440,0
1,3,711975,249787,1367619,74697,9028,683228,0
1,3,708917,248261,1429995,74069,9620,714637,0
1,3,709073,247899,1535874,73868,9950,767574,0
1,3,712973,249047,1355134,74317,9671,677129,0
1,3,716196,250308,1490003,75007,9762,744304,0
1,3,712187,250210,1390976,74931,9768,694857,0
1,3,714341,249694,1342712,74673,9079,670798,0
1,3,715710,250385,1421529,74998,9191,710122,0
1,3,711943,248586,1437685,74139,9488,718482,0
1,3,712624,248915,1319983,74233,9435,659351,0
1,3,708807,247862,1307764,73879,9510,653436,0
1,3,714948,248453,1566832,74086,10366,783030,0
1,3,717183,250058,1518189,74801,10247,758464,0
1,3,734378,253541,1696833,77486,11353,847854,0
1,3,714903,249151,1506198,74291,10460,752780,0
1,3,712901,248588,1548616,74117,10714,773918,0
1,3,713978,248738,1590361,74171,11034,794647,0
1,3,716348,248719,1518021,74179,10856,758522,0
1,3,713634,248054,1487916,73909,11489,743637,0
1,3,703773,248039,1461126,73896,10276,730050,0
1,3,709847,249379,1710415,74365,11544,853109,0
1,3,706947,247739,1301419,74036,8881,650174,0
1,3,712142,249865,1296875,74912,10376,647889,0
1,3,712530,249969,1463494,74735,9324,731439,0
1,3,708886,248886,1338681,74369,9033,669016,0
1,3,711086,249059,1455534,74359,9636,727406,0
1,3,708938,249067,1405169,74385,9518,702172,0
1,3,713735,249180,1343930,74489,9805,671589,0
1,3,713355,249514,1378547,74553,8726,688952,0
1,3,714590,249909,1626018,74804,10134,812479,0
1,3,715314,250033,1414141,74839,9216,706665,0
1,3,712618,249380,1528081,74672,9299,763738,0
1,3,711775,249720,1348978,74746,8917,674081,0
1,3,715249,249675,1445687,74738,9445,722101,0
1,3,713955,249852,1436097,74776,9810,717673,0
1,3,716993,250757,1503593,75259,9739,751194,0
1,3,734352,253781,1600815,77773,10573,800067,0
1,3,716858,249656,1549023,74640,9881,774068,0
1,3,712302,249866,1364004,74730,9637,681587,0
1,3,714478,249659,1457063,74642,9279,728218,0
1,3,715886,249846,1313378,74742,9576,656342,0
1,3,718061,251106,1404463,75287,8917,701751,0
1,3,716965,250634,1386597,75135,9086,692782,0
1,3,717016,249707,1408292,74632,8819,703765,0
1,3,710031,248832,1444400,74315,9448,721921,0
1,3,712845,249548,1496933,74549,9241,748183,0
1,3,712587,249564,1387992,74628,9631,693600,0
1,3,714245,249844,1532545,74604,10125,765698,0
1,3,716818,251499,1492106,75423,8905,745545,0
1,3,709244,248700,1507039,74167,9483,753146,0
1,3,714700,249415,1404102,74443,9010,701501,0
1,3,715160,249257,1463616,74350,9604,731251,0
1,3,715879,250149,1466995,74620,9198,733117,0
1,3,715359,249725,1395103,74418,8675,697217,0
1,3,711918,249418,1472925,74288,9696,736056,0
1,3,732583,253389,1514263,77519,10126,756872,0
1,3,713890,250637,1281866,75013,8657,640209,0
1,3,716501,250409,1309115,74978,8919,653925,0
1,3,712545,249331,1325337,74412,8880,662186,0
1,3,715545,249187,1509364,74406,9511,754218,0
1,3,710697,248787,1414907,74217,9303,707156,0
1,3,712329,248462,1438057,74114,9243,718620,0
1,3,713423,248735,1383975,74220,9687,691648,0
1,3,716131,249066,1381912,74407,9775,690564,0
1,3,713590,249024,1394079,74374,8479,696595,0
1,3,718450,250295,1395122,74964,9080,696870,0
1,3,718661,250816,1363555,75229,9587,680992,0
1,3,736493,252896,1514656,77438,10488,756909,0
1,3,706427,247164,1481784,73728,10578,740468,0
1,3,711550,249571,1489578,74534,9169,744127,0
1,3,713766,249429,1402346,74430,9829,701008,0
1,3,731052,253606,1619700,77632,11283,809304,0
1,3,714349,250889,1374272,75234,9830,686594,0
1,3,711570,248749,1427274,74274,10233,713224,0
1,3,710588,248931,1525976,74261,9940,762593,0
1,3,712640,249062,1412279,74312,9177,705795,0
1,3,714369,249139,1445417,74307,9659,722384,0
1,3,713264,249961,1516855,74848,9141,757433,0
1,3,713517,248691,1475136,74086,9430,737360,0
1,3,715948,249707,1346225,74422,9150,672739,0
1,3,721963,251289,1403024,75292,10661,700645,0
1,3,735907,254722,1550011,77980,9914,774756,0
1,3,718571,251003,1460796,75189,8805,729676,0
1,3,712945,248891,1443649,74411,8904,721426,0
1,3,713316,249197,1298554,74479,9263,649019,0
1,3,714008,249262,1425585,74508,9298,712435,0
1,3,736362,254064,1499576,77847,9886,749541,0
1,3,715771,250354,1429359,75036,9461,714309,0
1,3,715299,249608,1580126,74549,9743,789725,0
1,3,718230,250616,1504280,75196,10190,750940,0
1,3,717125,249838,1602104,74665,10380,800415,0
1,3,715014,249563,1550736,74484,9875,774873,0
1,3,720214,250714,1518273,75138,10848,758329,0
1,3,716460,249237,1391921,74359,8930,695740,0
1,3,713396,249084,1419748,74319,9180,709457,0
1,3,711128,248616,1445403,74057,9554,722385,0
1,3,732664,253799,1548788,77680,10981,773968,0
1,3,714941,249350,1338873,74428,9086,668843,0
1,3,712495,249147,1401674,74325,9200,699943,0
1,3,712277,248637,1480711,74198,9123,739844,0
1,3,713900,248786,1383686,74220,10079,691486,0
1,3,711354,248974,1481697,74305,10210,740458,0
1,3,711955,248660,1521574,74164,10450,760403,0
1,3,711254,248248,1466914,74012,9433,733164,0
1,3,712296,248142,1402436,74058,9000,700704,0
1,3,737643,254152,1580955,77762,10802,789219,0
1,3,716093,250834,1477793,75207,10143,738221,0
1,3,712943,248779,1458792,74154,9146,729025,0
1,3,712116,248322,1351836,74164,8698,675526,0
1,3,712988,249354,1416157,74628,9031,707406,0
1,3,717015,249958,1472795,74985,9492,735879,0
1,3,714918,249245,1413387,74486,9721,706258,0
1,3,712337,247531,1495216,73999,9398,747025,0
1,3,713409,248916,1425080,74538,8903,712106,0
1,3,712781,247885,1422595,74137,9646,710972,0
1,3,715467,248232,1563501,74314,10492,781043,0
1,3,712860,248489,1375761,74414,10471,687446,0
1,3,713731,248193,1359116,74289,9420,679074,0
1,3,713095,246916,1428872,73792,9654,714087,0
1,3,701243,247145,1344989,73857,8252,672194,0
1,3,727401,253102,1459257,77701,10158,728621,0
1,3,705298,247664,1465345,74149,9398,732194,0
1,3,702554,247644,1346730,74065,9066,673003,0
1,3,710832,249405,1454997,74907,9750,726928,0
1,3,713015,249292,1478928,74836,9230,738918,0
1,3,715981,250538,1493663,75369,9539,746123,0
1,3,707843,249032,1466042,74697,8654,732477,0
1,3,707293,247727,1362752,74114,9085,681000,0
1,3,712376,249693,1441200,75077,9754,719993,0
1,3,712268,249428,1539954,74821,9342,769370,0
1,3,713876,250577,1501762,75314,9651,749694,0
1,3,708190,247708,1674051,74134,10512,836181,0
1,3,708774,248356,1439283,74361,8662,719249,0
1,3,713035,248628,1579403,74423,9647,789362,0
1,3,707710,247744,1317041,74044,9020,658276,0
1,3,707248,248102,1467709,74280,8838,733577,0
1,3,733065,253930,1557904,77779,10262,778601,0
1,3,710304,248371,1336009,74242,8685,667700,0
1,3,710326,249848,1416403,74896,10432,707620,0
2,3,760061,266623,1432214,78791,8614,715741,0
2,3,759458,266270,1577089,78586,9258,788262,0
2,3,758835,266287,1580933,78679,10571,789950,0
2,3,765227,267932,1625765,79302,10792,812391,0
2,3,785522,271582,1612297,82179,12534,805712,0
2,3,762974,266442,1534840,78636,10033,767045,0
2,3,761222,267469,1575391,79154,10539,787036,0
2,3,790795,276647,1452072,81689,10117,725632,0
2,3,728685,252847,1438869,77003,10000,719001,0
2,3,711362,250003,1514181,74549,9652,756476,0
2,3,707110,248347,1454808,73683,9120,726674,0
2,3,708414,248449,1393139,73789,8975,696155,0
2,3,706838,247918,1386467,73513,8664,692860,0
2,3,709300,248249,1435931,73821,8809,717959,0
2,3,714664,250209,1483670,74626,10020,741246,0
2,3,733089,253123,1586091,77058,10615,792453,0
2,3,705964,250005,1393224,74527,8260,696123,0
2,3,703723,247748,1386770,73605,9150,693100,0
2,3,723959,252266,1432546,76929,9792,715939,0
2,3,705454,247519,1474076,73606,9180,736770,0
2,3,708537,249233,1449529,74321,8836,724297,0
2,3,706276,248450,1360574,73827,8443,679997,0
2,3,706692,247843,1503464,73620,9476,751307,0
2,3,705996,247231,1379404,73425,8112,689358,0
2,3,705351,248156,1327774,73736,8464,663418,0
2,3,726740,253126,1443994,77214,9503,721541,0
2,3,710125,249604,1457646,74396,8848,728312,0
2,3,730285,252746,1442341,77108,9975,720529,0
2,3,727917,252447,1438012,77011,10282,718623,0
2,3,707825,247824,1439949,73658,9024,719525,0
2,3,708472,247914,1392395,73729,8830,695541,0
2,3,704701,248396,1441218,73882,8841,720290,0
2,3,705828,248411,1396530,73799,8736,697925,0
2,3,706388,247734,1535205,73568,9881,767329,0
2,3,708383,248079,1401738,73843,9217,700499,0
2,3,708455,248175,1341700,73847,9204,670406,0
2,3,707106,247863,1452128,73750,10105,725661,0
2,3,709671,248694,1456792,73989,9144,728034,0
2,3,709165,248734,1412230,73908,8206,705788,0
2,3,716739,250695,1459087,74863,9923,728960,0
2,3,732498,253204,1720207,77240,10309,859728,0
2,3,712690,249916,1457109,74567,10055,727856,0
2,3,711916,248985,1504287,73895,9788,751754,0
2,3,730069,252071,1411367,76753,10101,705054,0
2,3,714155,248587,1391284,73843,9275,695131,0
2,3,713379,250412,1472902,74510,9223,735923,0
2,3,713719,249112,1282948,73953,9285,641087,0
2,3,712051,249278,1416043,73964,8782,707746,0
2,3,710464,248035,1438390,73649,9394,718908,0
2,3,733075,252908,1440692,77028,10379,720025,0
2,3,708073,248514,1479177,73813,9471,739183,0
2,3,710540,248592,1439631,73888,9212,719497,0
2,3,710108,248220,1418866,73760,8996,709103,0
2,3,708786,248337,1437613,73858,8856,719133,0
2,3,731406,253195,1437331,77295,9292,718056,0
2,3,711447,248222,1438964,73836,9407,719144,0
2,3,714412,250725,1526794,75020,10101,762510,0
2,3,712009,250250,1540757,74780,9456,769225,0
2,3,711269,248486,1473717,73981,9455,736571,0
2,3,711303,248660,1551314,74029,10198,774392,0
2,3,712982,248865,1490065,74163,11227,744554,0
2,3,712233,249456,1344338,74311,9782,671819,0
2,3,710144,248101,1481801,73845,9580,740605,0
2,3,714989,249422,1483830,74259,10150,741309,0
2,3,713788,249041,1527085,74150,9986,763185,0
2,3,712844,249028,1433805,74171,9338,716439,0
2,3,714970,248170,1479049,73865,8854,739166,0
2,3,710034,250660,1483722,74975,9277,741227,0
2,3,707363,248890,1419022,74112,10216,709205,0
2,3,702687,248041,1467150,73768,10664,733190,0
2,3,705531,248551,1462526,74021,8984,730877,0
2,3,707088,249112,1485749,74228,8928,742426,0
2,3,708008,248171,1444717,73883,9167,722079,0
2,3,705919,248079,1348211,73831,9288,673938,0
2,3,725080,252685,1372707,77187,9500,685964,0
2,3,714496,250473,1574021,74984,9526,786453,0
2,3,709436,248177,1498133,73870,8772,748731,0
2,3,730407,253153,1378977,77307,9713,689112,0
2,3,713555,249694,1568388,74602,10267,783059,0
2,3,708110,250324,1425710,74877,9300,712236,0
2,3,706699,248472,1483597,73953,8797,741397,0
2,3,705126,248107,1400894,73850,9030,700080,0
2,3,709705,249735,1464848,74379,9962,732078,0
2,3,708642,249082,1418411,74134,8426,708943,0
2,3,708592,249210,1411355,74185,9119,705295,0
2,3,708001,249211,1372304,74140,8314,685755,0
2,3,710091,248941,1372956,74066,8922,686155,0
2,3,705951,249343,1457852,74231,9489,728444,0
2,3,710237,249984,1621865,74598,9994,810369,0
2,3,705826,248608,1356392,73919,8627,677792,0
2,3,710064,249212,1445707,74137,9231,722423,0
2,3,710508,250071,1406978,74593,8719,703098,0
2,3,710583,249249,1359910,74175,8837,679363,0
2,3,714901,249918,1530807,74543,10010,764991,0
2,3,706318,249233,1526183,74193,9449,762733,0
2,3,707314,248982,1451335,74073,9024,725280,0
2,3,729335,253756,1316076,77412,9231,657671,0
2,3,706606,249165,1334363,74111,8992,666768,0
2,3,708289,248624,1523688,73903,9960,761456,0
2,3,707226,248659,1469460,74005,10044,734256,0
2,3,713018,250931,1484213,74898,9116,741598,0
2,3,706654,248699,1348723,73943,9261,673916,0
2,3,707458,248125,1397719,73777,8605,698454,0
2,3,711304,249308,1450208,74193,8588,724440,0
2,3,710441,248600,1365812,73964,8842,682598,0
2,3,710226,249802,1268353,74323,8706,633632,0
2,3,707749,248695,1322280,73930,9012,660738,0
2,3,714779,250843,1561184,74969,10349,779912,0
2,3,708594,248834,1659036,74016,10797,828512,0
2,3,710066,248675,1523802,74037,11222,760991,0
2,3,707721,248877,1341239,73998,8772,670209,0
2,3,730583,253890,1574668,77458,10225,787005,0
2,3,709886,248609,1442389,73907,8769,720842,0
2,3,711515,248462,1367566,73833,9072,683599,0
2,3,730624,253580,1493047,77368,10347,746145,0
2,3,711680,249129,1349693,74128,9846,674363,0
2,3,712832,249285,1441295,74152,9649,720245,0
2,3,704800,248656,1361321,73914,8827,680262,0
2,3,707264,248936,1372005,74074,8643,685520,0
2,3,707624,249096,1472559,74054,9692,735902,0
2,3,737056,258572,1509064,76915,9602,753640,0
2,3,727811,253131,1397544,77152,8824,698352,0
2,3,708821,248665,1446097,73901,8791,722795,0
2,3,709244,248881,1412060,74029,8942,705536,0
2,3,711820,250516,1520191,74843,9990,759472,0
2,3,709012,248293,1367772,73836,9224,683497,0
2,3,706974,248396,1797948,73779,11107,898696,0
2,3,711057,249221,1721293,74099,9974,860063,0
2,3,708980,248840,1447327,74040,8673,722959,0
2,3,710110,248636,1473424,73889,9821,736421,0
2,3,713880,250660,1459558,74905,9357,729141,0
2,3,717240,250450,1388227,74755,10011,693508,0
2,3,710334,249568,1440882,74279,9336,719905,0
2,3,709588,249191,1370053,74147,9296,684674,0
2,3,708800,248433,1356701,73790,8794,678130,0
2,3,709264,248872,1329994,74053,8690,664615,0
2,3,712061,249068,1355463,74116,9436,677270,0
2,3,712012,249355,1807133,74047,10275,903183,0
2,3,709000,248574,1334041,73852,8449,666688,0
2,3,714404,250231,1644751,74657,9803,821274,0
2,3,712447,248849,1481519,73942,10686,740398,0
2,3,710295,248541,1508121,73858,10856,754149,0
2,3,732037,253212,1557786,77248,9405,778568,0
2,3,706648,249122,1396984,74001,9002,698070,0
2,3,710566,249781,1408839,74153,8126,704456,0
2,3,707043,248660,1425152,73815,9354,712080,0
2,3,710872,248601,1349895,73824,9373,674585,0
2,3,709765,249312,1527046,74097,9324,763150,0
2,3,714668,250288,1452934,74597,9914,725564,0
2,3,712020,248959,1388714,73887,8789,693755,0
2,3,708122,248910,1466913,73871,9510,733163,0
2,3,711909,249903,1488130,74235,9640,743619,0
2,3,713455,249519,1364330,74108,10558,681520,0
2,3,716090,250622,1514379,74680,9987,756589,0
2,3,714126,249517,1448651,74144,8448,723954,0
2,3,713833,249122,1404100,74031,9457,701720,0
2,3,708654,248932,1418511,73805,9924,708845,0
2,3,709610,248490,1400591,73870,9455,699800,0
2,3,714820,249652,1459785,74100,8943,729640,0
2,3,712650,249535,1594844,74133,9832,797025,0
2,3,715012,249739,1293191,74284,8878,646254,0
2,3,715153,250223,1430236,74477,8921,714482,0
2,3,716597,249273,1459276,74097,9293,729221,0
2,3,714199,249938,1808309,74440,10887,903622,0
2,3,717160,249924,1368455,74431,8925,683786,0
2,3,716618,250185,1492305,74318,9724,745774,0
2,3,713768,250253,1450561,74302,10111,724949,0
2,3,715987,250007,1362245,74205,9815,680709,0
2,3,721012,251399,1463897,74821,9870,731454,0
2,3,706352,249719,1436624,74105,9333,717942,0
2,3,713040,251958,1552767,75206,10819,775713,0
2,3,714501,251010,1544369,74717,10384,771692,0
2,3,710473,250061,1459216,74180,10052,729288,0
2,3,711593,249277,1312630,73866,9670,656067,0
2,3,739139,259447,1376855,77009,8872,688059,0
2,3,718578,252032,1511504,75075,9835,754725,0
2,3,717119,251448,1510261,74931,10032,754154,0
2,3,711981,251045,1711677,74749,11603,854718,0
2,3,710618,249191,1533090,73992,9789,766235,0
2,3,715405,250697,1496961,74733,10150,746551,0
2,3,717307,251630,1440067,75109,10221,719256,0
2,3,713623,249994,1474555,74278,10168,736757,0
2,3,734037,253498,1473698,77103,11042,737027,0
2,3,715693,249443,1288762,74054,9403,644012,0
2,3,715943,251606,1476274,75067,9848,737493,0
2,3,715302,251366,1449063,74965,9523,723887,0
2,3,710987,249565,1450988,74133,9370,725122,0
2,3,709720,248708,1379603,73909,9182,689486,0
2,3,711104,248382,1377769,73844,9420,688415,0
2,3,709246,248929,1351308,73958,8981,675253,0
2,3,711309,249175,1317746,74055,9024,658581,0
2,3,711936,249183,1379113,74031,9095,689184,0
2,3,733612,253496,1509423,77199,10736,754368,0
2,3,709117,248505,1466696,73870,9699,733055,0
2,3,711232,248407,1321784,73899,9117,660448,0
2,3,709209,247963,1464130,73637,8699,731775,0
2,3,707994,248876,1396886,74017,9197,697757,0
2,3,730245,253207,1466857,77234,10068,733037,0
2,3,708640,248737,1309032,73922,8928,654009,0
2,3,716617,251115,1562981,74901,10254,780578,0
2,3,711021,249440,1468910,74115,9637,734103,0
2,3,710965,248691,1535345,73859,9481,767308,0
2,3,714046,251309,1510126,75042,10381,754321,0
2,3,709190,248548,1437990,73894,9599,718532,0
2,3,730466,253218,1539426,77212,9559,769393,0
2,3,731738,253383,1456917,77214,10673,728091,0
2,3,712198,248594,1458255,73945,10415,728581,0
2,3,715395,249867,1414388,74550,9833,706596,0
2,3,709955,248219,1426356,73653,9276,712709,0
2,3,709196,248380,1403123,73714,8703,701222,0
2,3,716524,249934,1466884,74501,9868,732955,0
2,3,711688,249227,1521444,73964,11562,760030,0
2,3,713024,248454,1475925,73757,10120,737534,0
2,3,712147,249076,1615914,73835,10498,807480,0
2,3,712612,248759,1360671,73729,9760,679883,0
2,3,712719,249246,1537943,73883,10748,768543,0
2,3,714685,249303,1363791,73942,10647,681280,0
2,3,717689,250741,1487789,74614,10659,743104,0
2,3,712872,248542,1461364,73574,9678,730246,0
2,3,739277,254166,1482521,77230,10599,740459,0
2,3,708655,249666,1383017,73983,9022,691065,0
2,3,709540,248946,1429133,73722,10165,714335,0
2,3,711360,249098,1455615,73846,9366,727321,0
2,3,708403,248951,1380244,73869,8896,689703,0
2,3,709635,248656,1444753,73688,9622,722003,0
2,3,731872,253323,1495817,77119,10430,747337,0
2,3,706288,247942,1321160,73538,8692,660235,0
2,3,709040,248169,1547402,73603,9791,773336,0
2,3,728953,252793,1450179,76963,9781,724461,0
2,3,711690,248468,1442542,73755,9873,720841,0
2,3,710074,248736,1409898,73864,9562,704516,0
2,3,716596,250818,1378637,74799,9101,688592,0
2,3,713411,248638,1567497,73819,9833,783401,0
2,3,710362,248592,1459475,73774,9305,729339,0
2,3,708442,248378,1416718,73767,9231,707822,0
2,3,716544,249992,1395632,74486,9294,697261,0
2,3,709309,248576,1341193,73810,9312,670086,0
2,3,710886,248375,1413001,73740,8952,706081,0
2,3,708066,248586,1372918,73754,8740,686059,0
2,3,709778,248112,1449606,73593,9327,724381,0
2,3,717630,250310,1319325,74532,10454,658817,0
2,3,709592,247941,1445772,73602,9893,722387,0
2,3,712550,248526,1418675,73799,10084,708850,0
2,3,713149,248321,1389326,73670,9342,694291,0
2,3,707319,248177,1269194,73699,8997,634154,0
2,3,709397,248524,1416234,73735,9243,707638,0
2,3,713985,250089,1390213,74463,8669,694474,0
2,3,709712,248142,1474181,73594,9581,736755,0
2,3,734267,253763,1572254,77242,10900,785855,0
2,3,713248,248889,1467632,73869,9646,732846,0
2,3,708963,248178,1414908,73630,8997,707019,0
2,3,731109,252952,1390699,76968,9481,695108,0
2,3,710405,247827,1398448,73449,9099,698874,0
2,3,713366,248507,1449165,73764,9150,724213,0
2,3,718072,250732,1502108,74675,9262,750481,0
2,3,712966,248729,1375450,73775,9729,687311,0
2,3,708585,248303,1467088,73714,8543,733149,0
2,3,711517,248432,1431701,73693,9069,715559,0
2,3,711907,248668,1392393,73815,9094,695696,0
2,3,712106,248281,1345530,73703,8964,672188,0
2,3,711677,248280,1403441,73658,9964,701303,0
2,3,716055,250327,1308819,74668,8558,653834,0
2,3,712290,247964,1418051,73545,9268,708689,0
2,3,712414,249319,1392042,74209,8509,695213,0
2,3,712334,248610,1497044,73732,9063,748158,0
2,3,713731,249262,1529729,73933,9010,763852,0
2,3,717705,250598,1360502,74633,8677,680054,0
2,3,714378,248427,1344228,73661,9031,671555,0
2,3,712814,248085,1490103,73514,8955,744205,0
2,3,737029,253102,1517349,76968,9244,758375,0
2,3,700835,248374,1438761,73185,8222,718994,0
2,3,723462,253228,1487874,76593,9328,743545,0
2,3,704666,248492,1544953,73238,8298,771981,0
2,3,702805,248461,1310220,73262,8514,654582,0
2,3,725280,253550,1418213,76702,10142,708751,0
2,3,703481,248166,1452378,73104,9357,725814,0
2,3,707986,247994,1497362,73051,9074,747719,0
2,3,702379,247928,1356320,73028,9356,677274,0
2,3,705467,248445,1402599,73242,8557,700996,0
2,3,707018,248458,1265673,73270,8611,632433,0
2,3,728121,253191,1512104,76586,10214,755678,0
2,3,703418,247262,1269666,72904,8430,634421,0
2,3,715058,251375,1351537,74450,8478,675262,0
2,3,703162,248313,1381365,73193,9066,690244,0
2,3,706132,247898,1293435,73023,8796,646338,0
2,3,728565,252724,1503139,76563,9760,751304,0
2,3,711706,250630,1299107,74276,8826,648794,0
2,3,705596,247671,1335047,73043,9267,667207,0
2,3,730000,252843,1406097,76646,9867,702742,0
2,3,726056,252966,1412526,76623,9956,705866,0
2,3,709614,247836,1365652,74061,10390,682472,0
2,3,711174,249042,1406584,74427,10652,702931,0
2,3,710774,248851,1408110,74391,10268,703651,0
2,3,714902,250338,1433961,75184,10482,716350,0
2,3,710680,248565,1338466,74267,9726,668897,0
2,3,711886,248218,1415461,74188,10629,707007,0
2,3,703835,248238,1381186,74179,10177,689902,0
2,3,729259,252778,1409469,77386,10846,704268,0
2,3,708582,248528,1408103,74275,10504,703583,0
2,3,708190,248788,1363297,74331,10213,681317,0
2,3,708980,248287,1378984,74187,10935,689120,0
2,3,725325,252575,1507975,77334,10349,753618,0
2,3,708415,248724,1267830,74282,9097,633622,0
2,3,729538,252502,1638609,77361,10479,819054,0
2,3,709748,248612,1465015,74276,9506,732074,0
2,3,731415,253140,1616318,77568,10091,807811,0
2,3,711737,248597,1467952,74220,8728,733483,0
2,3,713936,249322,1488678,74479,9124,743992,0
2,3,711214,248163,1329155,74083,8598,664241,0
2,3,707616,248355,1441368,74215,9119,720368,0
2,3,708728,248684,1468572,74326,9124,733348,0
2,3,711436,248472,1420962,74220,9247,710067,0
2,3,709333,248450,1484633,74256,9060,741995,0
2,3,714329,250033,1358929,74951,8934,678814,0
2,3,715071,250543,1359132,75114,9262,678792,0
2,3,709863,247759,1420401,73981,9519,709814,0
2,3,705571,247345,1551282,73814,9445,775570,0
2,3,711443,248807,1289571,74304,8723,644436,0
2,3,715639,249895,1481708,74680,9036,740449,0
2,3,712500,248826,1358187,74361,9287,678612,0
2,3,709614,248016,1429299,74074,8924,714317,0
2,3,714386,249956,1418625,74992,9122,708789,0
2,3,712692,248915,1460878,74415,9447,730053,0
2,3,709848,248696,1283867,74342,8918,641645,0
2,3,704414,247429,1368585,73868,9676,683991,0
2,3,709944,248543,1404969,74272,9891,701979,0
2,3,704757,248338,1432170,74227,9259,715725,0
2,3,714288,250189,1377813,75100,9048,688232,0
2,3,709945,248569,1414035,74273,9545,706616,0
2,3,709307,248221,1445538,74151,9489,722232,0
2,3,712783,249380,1389858,74718,9023,694375,0
2,3,707795,247563,1580822,73860,9761,790100,0
2,3,711354,248352,1386678,74113,8873,692848,0
2,3,709545,248262,1385316,74141,8713,692250,0
2,3,709966,249182,1367324,74414,8952,683288,0
2,3,711459,248236,1351942,74040,8093,675697,0
2,3,714483,249138,1379261,74457,9367,688974,0
2,3,708980,249219,1493647,74499,9814,746245,0
2,3,710129,248598,1492571,74192,9486,745773,0
2,3,731140,252332,1403848,77259,10194,701438,0
2,3,710313,248358,1482868,74165,9418,741033,0
2,3,713221,249362,1474303,74486,9945,736695,0
2,3,715445,248886,1511562,74501,9303,755135,0
2,3,708731,248076,1344324,74035,9271,671816,0
2,3,709659,247765,1304765,73989,8870,651966,0
2,3,719135,250873,1453026,75411,9177,725723,0
2,3,715673,249743,1493071,74928,9431,745769,0
2,3,712914,248569,1373983,74245,9240,686594,0
2,3,712166,247341,1743524,73817,10748,870893,0
2,3,707328,248666,1384989,74224,9547,692107,0
2,3,711590,250383,1383215,75121,9999,690975,0
2,3,713501,249665,1352303,74798,9274,675648,0
2,3,715700,250465,1454695,75101,9764,726418,0
2,3,729712,252788,1691213,77293,11650,845347,0
2,3,709944,247885,1309115,73860,9766,654110,0
2,3,734672,257183,1685623,76683,11635,842316,0
2,3,708687,248129,1414667,73979,9828,706893,0
2,3,710553,247833,1712134,73902,10068,855673,0
2,3,711120,248416,1358913,74010,9047,679053,0
2,3,712902,249337,1470114,74340,10117,734769,0
2,3,716005,248920,1384765,74235,9190,691927,0
2,3,709267,248600,1392690,74104,9829,695983,0
2,3,730210,252663,1563188,77204,10785,781196,0
2,3,710529,248384,1396411,74104,9726,697749,0
2,3,717516,250806,1412131,75196,9924,705430,0
2,3,712346,249123,1351530,74303,9305,675331,0
2,3,715151,249206,1582099,74357,10321,790432,0
2,3,712665,248302,1489150,74032,10709,744214,0
2,3,713794,249489,1426518,74387,10078,712727,0
2,3,712151,248385,1507326,74033,10142,753108,0
2,3,718171,249595,1534260,74629,10038,766392,0
2,3,713019,248798,1458666,74139,10092,728863,0
2,3,713908,248150,1614118,73887,11294,806741,0
2,3,714806,248304,1415770,74055,10629,707538,0
2,3,704646,248986,1547022,74251,9843,772855,0
2,3,706672,248332,1529756,73930,9961,764451,0
2,3,706920,248042,1509879,74038,10697,754593,0
2,3,709533,248203,1315727,73996,9181,657227,0
2,3,709835,248839,1438212,74323,10180,718513,0
2,3,717407,249973,1438958,74738,9258,719109,0
2,3,743214,260787,1413058,78275,9122,706044,0
2,3,719160,251034,1342735,75239,9348,670736,0
2,3,714203,249739,1269204,74623,8979,634286,0
2,3,717135,251534,1517707,75489,9956,758202,0
2,3,714396,249150,1509865,74558,9592,754583,0
2,3,714895,248557,1456194,74399,9318,727733,0
2,3,716751,249408,1486420,74695,9528,742529,0
2,3,710887,249144,1445868,74576,9367,722606,0
2,3,714440,249774,1371177,74725,8999,685125,0
2,3,708737,248338,1528133,74172,9430,763824,0
2,3,712260,249273,1423927,74492,8787,711532,0
2,3,717253,250112,1336401,74777,8952,667796,0
2,3,715715,249216,1450078,74453,9089,724735,0
2,3,734602,254576,1418206,77999,10870,708746,0
2,3,713314,249127,1492471,74402,9527,745922,0
2,3,713210,248402,1420834,74120,9120,710063,0
2,3,712837,249521,1504675,74538,9903,752057,0
2,3,715204,249517,1500013,74526,9414,749628,0
2,3,717183,249908,1502096,74709,9766,750714,0
2,3,709960,249045,1495607,74388,9587,747603,0
2,3,714830,249496,1397807,74528,8968,698471,0
2,3,717329,250250,1448589,74844,9256,723886,0
2,3,713928,249288,1504791,74415,9796,752028,0
2,3,731146,253846,1550999,77690,10826,775013,0
2,3,713483,249507,1361259,74418,9189,680259,0
2,3,714581,250402,1545188,74796,9300,772120,0
2,3,714089,248873,1419717,74105,9617,709369,0
2,3,712579,248786,1503190,74155,9926,751207,0
2,3,716378,249390,1484498,74393,9746,741641,0
2,3,714126,250847,1484049,75099,9765,741413,0
2,3,714070,249768,1341086,74552,8766,670122,0
2,3,714350,249072,1426631,74187,8762,712881,0
2,3,732687,253341,1395788,77510,9958,697404,0
2,3,713944,248968,1473813,74259,9480,736338,0
2,3,713293,249251,1457806,74451,9439,728449,0
2,3,716222,250391,1393474,75065,9415,696069,0
2,3,734969,253605,1562552,77647,9655,780853,0
2,3,713807,249183,1423135,74375,10179,711139,0
2,3,713969,248584,1369788,74209,9082,684427,0
2,3,712077,248833,1502882,74231,9148,751028,0
2,3,714940,249239,1547206,74455,10061,773187,0
2,3,733224,253194,1517864,77454,10743,758685,0
2,3,715395,249027,1487300,74357,9431,743359,0
2,3,708698,248693,1561067,74249,10650,779954,0
2,3,709009,248886,1438932,74317,9703,719086,0
2,3,711562,249272,1453957,74411,9617,726648,0
2,3,709323,249168,1364287,74336,9916,681709,0
2,3,713481,249413,1367875,74489,9281,683637,0
2,3,714874,249935,1558495,74639,10417,778725,0
2,3,713617,248632,1350129,74172,10634,674482,0
2,3,712679,249494,1534773,74442,10017,767065,0
2,3,717181,250902,1406827,75144,10114,702751,0
2,3,733606,254171,1599676,77762,10376,799305,0
2,3,716649,250157,1492482,74647,9429,745801,0
2,3,716185,250144,1410728,74660,10153,704946,0
2,3,742137,255706,1575968,78291,11016,787681,0
2,3,711433,249178,1335408,74378,8015,667346,0
2,3,710602,248376,1360370,74039,8364,679891,0
2,3,715339,249928,1423720,74695,8997,711513,0
2,3,712225,248802,1366722,74269,9550,682992,0
2,3,714132,249086,1470211,74433,10173,734877,0
2,3,717800,249825,1391409,74702,9164,695326,0
2,3,715434,249234,1491780,74459,8899,745375,0
2,3,715172,249491,1431231,74523,9815,715337,0
2,3,734252,253624,1619008,77671,11120,809209,0
2,3,714715,248663,1398577,74263,10041,698887,0
2,3,723000,251548,1509060,75500,10357,753949,0
2,3,739004,254443,1626569,77848,11772,812372,0
2,3,718253,250292,1401217,74960,8721,699773,0
2,3,721751,250186,1453045,74869,9705,726035,0
2,3,716108,250896,1405991,75263,10373,702273,0
2,3,711967,248493,1444164,74059,9524,721702,0
2,3,711203,248663,1393775,74284,9117,696482,0
2,3,708566,248630,1514151,74201,9437,756704,0
2,3,712563,248553,1381058,74107,9104,690081,0
2,3,713564,248482,1350398,74132,9382,674759,0
2,3,714025,248898,1486080,74165,10536,742440,0
2,3,734704,253192,1564272,77359,10700,781699,0
2,3,713009,248318,1362462,73989,9598,680799,0
2,3,713086,248578,1460914,74084,9654,730127,0
2,3,712035,248623,1390324,74126,9274,694752,0
2,3,714315,248350,1310416,74035,9626,654978,0
2,3,713944,249808,1470586,74665,9756,734866,0
2,3,709170,247844,1362386,73954,8437,680444,0
2,3,713709,247964,1341641,74039,7893,670509,0
2,3,734111,253153,1512718,77547,10153,755904,0
2,3,714169,248361,1533631,74134,9329,766594,0
2,3,714280,248750,1403185,74384,9593,701117,0
2,3,710807,247888,1561048,74079,9462,780340,0
2,3,711229,248313,1363780,74293,8790,681617,0
2,3,714212,247701,1517490,74109,10880,758718,0
2,3,713212,247534,1322088,74046,9356,660711,0
2,3,715772,248166,1474876,74245,10596,736972,0
2,3,715100,248007,1459337,74221,10060,729330,0
2,3,703065,248108,1481786,74258,9042,740486,0
2,3,706674,248548,1434171,74371,9101,716689,0
2,3,705574,248047,1516398,74192,9247,757779,0
2,3,709497,248730,1379659,74482,9459,688947,0
2,3,705067,247739,1296737,74113,8680,647816,0
2,3,710042,248714,1407471,74465,9316,703385,0
2,3,730713,252880,1499687,77579,10192,749433,0
2,3,706039,248657,1501374,74429,8331,750435,0
2,3,706266,247441,1366700,73993,9034,683035,0
2,3,705967,247667,1377040,74086,9066,688187,0
2,3,709228,248104,1410771,74279,9385,705056,0
2,3,727127,252495,1531594,77483,9618,765443,0
2,3,707994,248057,1414876,74267,8929,707051,0
2,3,708916,248274,1479807,74315,9601,739526,0
2,3,709430,247425,1500757,73932,8747,749963,0
2,3,728488,252685,1433824,77548,9841,716476,0
2,3,711044,249972,1459564,75145,9245,729227,0
2,3,709620,248222,1460175,74189,8945,729308,0
2,3,711660,249284,1527041,74714,8573,763086,0
2,3,713944,249056,1358850,74480,8933,679141,0
3,3,764683,268541,1551776,79555,10062,775324,0
3,3,760004,266263,1435711,78590,8691,717266,0
3,3,757158,266018,1507860,78549,11471,753349,0
3,3,761921,266802,1550644,78806,10912,774822,0
3,3,763351,266536,1492733,78730,11043,745810,0
3,3,761162,266184,1488259,78603,9511,743512,0
3,3,760657,267482,1549618,79014,9708,774383,0
3,3,766580,269228,1544217,79832,10229,771429,0
3,3,725078,254515,1489224,75166,9369,744339,0
3,3,726699,252752,1504101,76956,9529,751684,0
3,3,709940,249192,1375761,73933,8794,687146,0
3,3,704353,247349,1473449,73330,9247,736499,0
3,3,708373,248337,1356923,73775,8832,678047,0
3,3,714712,249813,1577494,74486,10235,788248,0
3,3,706353,247168,1479394,73334,9242,739231,0
3,3,710934,248012,1558785,73577,10243,779133,0
3,3,711096,247620,1386359,73478,8764,692843,0
3,3,723672,252239,1461209,76817,10010,730337,0
3,3,705399,248147,1432868,73725,9319,716073,0
3,3,705283,247629,1570718,73596,10149,784559,0
3,3,705140,248563,1416926,73918,8329,708028,0
3,3,706631,247538,1456519,73511,8824,727868,0
3,3,709062,249087,1403124,74063,8965,701199,0
3,3,709193,248422,1466366,73894,9157,732801,0
3,3,708256,248692,1323627,73983,8220,661200,0
3,3,707583,248070,1319069,73729,8445,659132,0
3,3,708231,249022,1503010,74088,8881,751129,0
3,3,710850,249079,1337573,74122,9044,668348,0
3,3,706469,248197,1464111,73764,8440,731398,0
3,3,707129,247981,1345875,73766,8674,672494,0
3,3,706096,247369,1338137,73449,8529,668728,0
3,3,704491,247959,1448307,73635,8668,723775,0
3,3,706747,248288,1385113,73866,8920,691847,0
3,3,706223,247789,1299906,73663,9120,649591,0
3,3,704721,247764,1334966,73654,8667,666908,0
3,3,704511,246956,1358804,73374,9303,679079,0
3,3,710881,248319,1382957,73818,8702,690792,0
3,3,711800,248096,1473059,73803,9824,736244,0
3,3,711079,249787,1473289,74504,8829,735703,0
3,3,709609,248739,1418641,74043,8662,708921,0
3,3,712034,248995,1496942,74147,9189,747955,0
3,3,713195,248888,1488593,74052,9076,744508,0
3,3,710636,248510,1509001,73748,9232,754176,0
3,3,710552,248774,1442519,73861,9670,720844,0
3,3,712418,248328,1396709,73813,9292,697931,0
3,3,716264,251385,1496638,74976,9435,747849,0
3,3,716156,251081,1388897,74834,10082,693813,0
3,3,712446,249876,1450563,74141,9148,724837,0
3,3,714244,250136,1515946,74415,9865,757456,0
3,3,711744,249157,1384520,74036,8874,691912,0
3,3,711609,249279,1368507,74084,8628,683551,0
3,3,713641,250281,1511271,74696,9401,754772,0
3,3,711678,249071,1368364,74044,9685,683849,0
3,3,730096,252946,1425710,77116,9620,712464,0
3,3,713516,248799,1400997,74064,8955,700130,0
3,3,712062,248814,1316816,74080,8771,658066,0
3,3,729169,252908,1395325,77251,10345,697556,0
3,3,709694,248092,1454915,73804,9472,726979,0
3,3,709619,248360,1404530,73933,9193,701957,0
3,3,713018,249155,1414853,74239,9630,706919,0
3,3,712313,248953,1369875,74131,9849,684558,0
3,3,716439,249233,1467423,74216,9466,733322,0
3,3,709740,247776,1446971,73826,9895,723041,0
3,3,716201,250379,1437444,74894,9935,718020,0
3,3,711361,248755,1464477,74106,9524,731753,0
3,3,712287,248207,1356221,73807,9033,677848,0
3,3,714971,248437,1517107,73950,9498,758157,0
3,3,724770,252999,1571057,77258,9710,785150,0
3,3,709271,249522,1305527,74336,8835,652361,0
3,3,730066,253256,1359695,77320,10049,679479,0
3,3,705957,248751,1373264,73969,8733,686324,0
3,3,711487,250189,1545397,74758,9514,772203,0
3,3,709675,249156,1387087,74241,9353,693235,0
3,3,725003,252981,1460042,77262,9499,729599,0
3,3,702914,247157,1359876,73611,7607,679517,0
3,3,729390,252971,1459202,77265,9663,729299,0
3,3,708661,249191,1327489,74225,8640,663352,0
3,3,707129,248226,1450488,73878,9355,725030,0
3,3,709846,248566,1498274,74054,9109,748770,0
3,3,703838,248446,1381017,73989,10076,690027,0
3,3,703768,248216,1426758,73878,8733,713001,0
3,3,706804,248974,1360374,74121,8161,679809,0
3,3,707411,247898,1400719,73770,8212,700095,0
3,3,705419,248288,1320919,73923,8184,660287,0
3,3,711427,250368,1517918,74856,9345,758264,0
3,3,710294,250130,1488314,74627,9583,743615,0
3,3,729518,253128,1387749,77257,9442,693405,0
3,3,710951,249436,1440322,74347,8597,719683,0
3,3,708866,249441,1432367,74205,9254,715812,0
3,3,711222,249478,1438822,74515,9693,718842,0
3,3,707821,248693,1450079,73950,8736,724686,0
3,3,708023,248157,1423689,73763,9403,711495,0
3,3,711630,249444,1493026,74217,9929,746436,0
3,3,709361,248647,1448380,73919,9152,723848,0
3,3,710207,251247,1449716,75061,9436,724304,0
3,3,706033,248788,1438315,73974,9339,718830,0
3,3,705421,248830,1457925,73979,8422,728593,0
3,3,708315,250191,1366387,74662,9417,682671,0
3,3,707628,248724,1382986,73973,9308,691054,0
3,3,711873,249768,1612278,74344,10399,805262,0
3,3,705819,248816,1527861,73982,8962,763703,0
3,3,730763,253699,1427374,77423,9397,713168,0
3,3,708620,249039,1261981,74105,8949,630499,0
3,3,705239,248523,1367929,73957,8890,683595,0
3,3,729766,253685,1458817,77387,9703,729059,0
3,3,706987,249506,1407506,74274,9241,703287,0
3,3,708344,248231,1449956,73786,9871,724673,0
3,3,708676,248972,1459918,74058,9189,729632,0
3,3,710161,249051,1481739,74044,9273,740569,0
3,3,709691,248603,1343607,73988,8718,671412,0
3,3,716748,250876,1471821,74962,9268,735270,0
3,3,713183,249970,1776052,74418,11128,887570,0
3,3,712317,249882,1432806,74324,9274,716113,0
3,3,716275,250977,1515533,75019,10240,757059,0
3,3,710320,248832,1478523,74017,9812,738793,0
3,3,711656,248893,1381471,74044,9024,690141,0
3,3,715455,250050,1467705,74602,10230,733261,0
3,3,702385,248695,1384378,74014,8610,691718,0
3,3,706106,248947,1495504,73996,9641,747349,0
3,3,707685,248929,1612396,74029,9754,805782,0
3,3,708341,248571,1365871,73900,8751,682392,0
3,3,707406,249198,1489659,74085,9157,744365,0
3,3,708320,248837,1358130,74026,8563,678625,0
3,3,709865,248543,1389338,73891,8658,694299,0
3,3,727618,253070,1416934,77221,9831,708192,0
3,3,710110,249178,1668822,74205,11738,833523,0
3,3,714846,251352,1547456,75203,9625,772881,0
3,3,710046,248688,1465610,73928,9299,732048,0
3,3,712803,250340,1500762,74697,9178,749662,0
3,3,713252,249631,1442652,74318,9738,720490,0
3,3,709736,248543,1456172,73955,9122,727351,0
3,3,710911,248413,1325827,73846,9125,662351,0
3,3,707100,248495,1396372,73886,8461,697833,0
3,3,710031,248764,1431854,74003,9160,715576,0
3,3,707602,248863,1482581,74000,9042,740880,0
3,3,710312,248895,1354389,74072,8271,676832,0
3,3,709075,248396,1420002,73849,9297,709515,0
3,3,710257,249238,1652327,74162,10669,825478,0
3,3,710486,248960,1377446,74038,8763,688379,0
3,3,709444,248954,1405167,74038,8978,702139,0
3,3,716074,250781,1472606,74906,11135,735535,0
3,3,708914,248770,1406467,73957,9689,702674,0
3,3,711192,248766,1494788,73951,10365,746959,0
3,3,712690,248824,1461246,73975,9812,730276,0
3,3,707427,248944,1464439,73923,8991,731712,0
3,3,708583,248870,1485604,73964,8737,742440,0
3,3,712847,249728,1336532,74235,8979,667853,0
3,3,707301,248502,1410218,73778,8051,704723,0
3,3,709082,248783,1375733,73897,8711,687184,0
3,3,710924,248676,1518222,73790,10380,758655,0
3,3,711052,249758,1352910,74176,8494,675991,0
3,3,706170,247836,1384018,73478,9178,691567,0
3,3,709895,248543,1271312,73736,9423,635230,0
3,3,711862,248994,1474166,73949,10266,736369,0
3,3,712218,249379,1467995,73988,9346,733626,0
3,3,713709,249211,1424684,73991,9329,711942,0
3,3,715029,249813,1546197,74244,10035,772633,0
3,3,712968,249569,1363812,74298,9008,681375,0
3,3,710348,248418,1477618,73802,8908,738552,0
3,3,716321,250110,1495469,74453,10924,746900,0
3,3,718689,251731,1449612,75285,8874,724113,0
3,3,719369,250731,1398580,74814,9485,698517,0
3,3,736809,254350,1453302,77525,9586,726173,0
3,3,716006,250775,1451580,74835,9414,725158,0
3,3,714356,249150,1445097,74131,9413,722171,0
3,3,714640,249803,1464811,74259,9016,731862,0
3,3,717645,249452,1380190,73979,8799,689629,0
3,3,714869,249695,1284069,74112,9221,641614,0
3,3,719205,250505,1541366,74293,10272,770332,0
3,3,716920,250683,1435275,74377,9190,717390,0
3,3,711209,250622,1411665,74398,9584,705447,0
3,3,709097,249352,1436848,73940,9391,718046,0
3,3,713737,251208,1466726,74809,9919,732794,0
3,3,711647,249925,1371600,74186,10102,685426,0
3,3,709711,249577,1463978,74052,10056,731729,0
3,3,712738,250042,1456280,74232,9499,727732,0
3,3,735058,254848,1438262,77564,10305,718552,0
3,3,716325,250669,1434160,74442,9466,715188,0
3,3,710234,249506,1344455,74134,8816,671845,0
3,3,713569,249891,1390195,74273,9302,694769,0
3,3,715239,250006,1506265,74288,10554,752727,0
3,3,714362,249139,1364284,74006,9265,681572,0
3,3,713594,249193,1479292,73940,10284,739360,0
3,3,715540,249739,1446743,74098,9842,723065,0
3,3,712600,250329,1492783,74354,10153,745928,0
3,3,712304,249714,1499452,74163,9225,749317,0
3,3,733220,253432,1398364,77259,10618,698819,0
3,3,731624,253651,1468887,77293,10142,734207,0
3,3,735735,254352,1463722,77525,9591,731432,0
3,3,716552,250042,1489192,74509,9725,744105,0
3,3,714169,250816,1712389,74883,11068,855543,0
3,3,711472,248794,1419778,73903,9526,709576,0
3,3,711189,248697,1629479,73869,10386,814349,0
3,3,705163,247334,1393770,73422,10025,696447,0
3,3,712662,248849,1469779,73918,9736,734600,0
3,3,711923,249224,1612956,74140,9264,806113,0
3,3,710231,250323,1602828,74743,10201,799969,0
3,3,707253,247835,1355215,73658,8487,677209,0
3,3,707019,248233,1348078,73696,9452,673642,0
3,3,729606,252935,1410946,76973,9422,705352,0
3,3,707330,248268,1313894,73697,8525,656693,0
3,3,715717,250478,1511232,74625,10110,754659,0
3,3,709981,247995,1553671,73618,9813,776366,0
3,3,713600,249753,1390899,74408,10157,694669,0
3,3,709985,248360,1351307,73782,8927,675279,0
3,3,711604,249798,1496695,74483,9514,747295,0
3,3,712287,248895,1425941,74059,9151,712498,0
3,3,712456,248810,1293268,74021,9180,646126,0
3,3,732355,253845,1425876,77357,9476,712566,0
3,3,711136,248981,1471657,74010,9403,735429,0
3,3,711776,248479,1394822,73795,9406,697004,0
3,3,710645,248283,1320678,73785,9054,659868,0
3,3,718650,250784,1475087,74688,9888,736940,0
3,3,715072,250597,1511574,74502,10165,755408,0
3,3,733099,253447,1413472,77045,10486,706378,0
3,3,712942,249266,1543880,73891,9883,771600,0
3,3,711685,248599,1401309,73617,10630,700329,0
3,3,736593,254676,1767796,77365,11447,882676,0
3,3,714219,248907,1497960,73772,10334,748662,0
3,3,719239,250532,1508508,74440,10751,753326,0
3,3,709287,249180,1564717,73753,8934,782040,0
3,3,710110,249090,1240948,73792,8793,620097,0
3,3,714454,250806,1456525,74716,9817,728021,0
3,3,710329,248486,1547059,73647,9643,773121,0
3,3,707997,248509,1393683,73653,9036,696293,0
3,3,707553,248271,1445382,73655,9841,722301,0
3,3,710624,250046,1423401,74413,9746,711119,0
3,3,705294,247733,1492954,73407,9449,745755,0
3,3,706156,247872,1331104,73543,8516,665206,0
3,3,710711,248299,1515776,73750,9958,757463,0
3,3,707096,247996,1504948,73505,9699,751945,0
3,3,731057,252698,1425854,76918,9783,712409,0
3,3,711802,249016,1429267,73972,9573,714288,0
3,3,713483,248488,1448019,73709,9803,723655,0
3,3,708835,248233,1419411,73674,9335,709316,0
3,3,710635,248700,1433599,73789,8988,716422,0
3,3,706611,247583,1345070,73398,9265,672112,0
3,3,712165,248081,1466744,73590,10019,732894,0
3,3,711961,248262,1419617,73695,9110,709425,0
3,3,711611,248696,1360359,73841,9000,679751,0
3,3,710870,248332,1404498,73695,9231,701712,0
3,3,714294,248654,1441142,73765,9785,720200,0
3,3,712154,248899,1471982,73862,10121,735485,0
3,3,713323,248343,1522251,73674,9651,760770,0
3,3,715004,251294,1423179,74903,9737,710936,0
3,3,708529,248132,1296664,73618,8779,647907,0
3,3,708542,248608,1380488,73777,8479,689789,0
3,3,709726,247714,1466397,73440,9659,732720,0
3,3,709857,248449,1444532,73734,9684,721862,0
3,3,716496,250692,1395530,74811,8913,697106,0
3,3,713537,249221,1604727,74007,11155,801805,0
3,3,709836,248359,1367349,73663,9126,683371,0
3,3,710545,248191,1444298,73663,9139,721828,0
3,3,711062,247639,1469645,73384,9688,734467,0
3,3,731615,252739,1489285,76919,9562,744273,0
3,3,719027,250981,1297903,74906,9607,648354,0
3,3,708910,248265,1405521,73637,9156,702421,0
3,3,709930,248552,1392525,73765,8580,695874,0
3,3,710601,248484,1577262,73774,9872,788177,0
3,3,712250,248605,1454128,73749,9003,726662,0
3,3,715044,250064,1503295,74544,9783,750097,0
3,3,731861,253288,1393965,77116,9339,696582,0
3,3,714599,249096,1488255,73923,9855,743676,0
3,3,707117,247665,1438110,73447,8722,717993,0
3,3,718427,250793,1438097,74772,9113,718261,0
3,3,713812,249464,1439433,74109,8637,719297,0
3,3,711076,248283,1403383,73565,8230,701291,0
3,3,712438,248413,1330020,73602,8288,664550,0
3,3,714546,248561,1356609,73710,8226,677887,0
3,3,714506,248321,1413573,73642,8024,706681,0
3,3,699569,248304,1419066,73167,7936,709141,0
3,3,701583,248017,1345091,73072,7812,672016,0
3,3,703227,248361,1457275,73263,8313,728078,0
3,3,711198,251171,1385366,74403,8444,692087,0
3,3,704191,248636,1411609,73309,8634,705487,0
3,3,713547,251058,1380634,74416,8351,690057,0
3,3,727813,253190,1684201,76576,10243,841431,0
3,3,704455,248695,1627621,73273,10588,813444,0
3,3,703925,247767,1435983,72950,9304,717680,0
3,3,708646,250138,1278106,74081,8989,638478,0
3,3,706608,248049,1356851,73075,8416,678084,0
3,3,731160,253725,1598285,77194,11047,798683,0
3,3,706706,247984,1374583,73054,8022,687017,0
3,3,702981,248640,1475975,73313,9446,737623,0
3,3,706435,248505,1335372,73297,9632,667293,0
3,3,707050,248819,1450922,73485,9298,725057,0
3,3,703608,248077,1454604,73226,9430,726949,0
3,3,726437,252573,1416999,76514,9745,708008,0
3,3,704431,247649,1321709,73043,8391,660584,0
3,3,709451,248596,1293969,73475,8342,646595,0
3,3,711461,249078,1280114,74648,9595,639488,0
3,3,708771,247991,1413406,74054,9708,706344,0
3,3,706531,248277,1391439,74214,9556,695333,0
3,3,709171,248162,1437296,74157,10473,718353,0
3,3,711186,249404,1298547,74734,8831,648624,0
3,3,711507,248419,1273034,74231,9738,636145,0
3,3,709879,248233,1347428,74118,10197,673233,0
3,3,708646,249417,1310976,74761,9541,654806,0
3,3,706615,248007,1348677,74051,9809,673975,0
3,3,708864,247645,1276813,73959,9830,638161,0
3,3,706147,248052,1354758,74100,9921,677051,0
3,3,709918,248082,1357725,74125,8975,678482,0
3,3,708852,248465,1394151,74257,8653,696714,0
3,3,707724,248346,1460735,74163,9511,730025,0
3,3,711449,248048,1477138,74029,9435,738149,0
3,3,709306,248449,1510646,74244,9374,755039,0
3,3,710886,248762,1388547,74344,8695,693922,0
3,3,730214,252547,1511212,77377,9755,755332,0
3,3,712675,248898,1335191,74599,8589,666678,0
3,3,708184,248614,1436950,74290,8344,718093,0
3,3,711334,249071,1323705,74629,9376,661306,0
3,3,710991,249170,1346681,74694,8976,672700,0
3,3,705302,247211,1472181,73731,8742,735777,0
3,3,708343,247859,1372806,73961,8437,686056,0
3,3,731152,253137,1609640,77569,10034,804570,0
3,3,712124,248419,1422148,74243,8751,710660,0
3,3,745297,259363,1512442,77763,9522,755665,0
3,3,711540,249005,1334739,74430,9276,666946,0
3,3,710790,248393,1516003,74163,9914,757650,0
3,3,733901,253207,1536811,77576,10093,768051,0
3,3,732043,252882,1534046,77418,9963,766788,0
3,3,732100,252352,1482835,77316,10176,741053,0
3,3,711544,248165,1425405,74099,9474,712320,0
3,3,716440,248851,1375644,74305,9679,687520,0
3,3,707495,248946,1422668,74425,10207,711034,0
3,3,706326,248190,1371321,74151,9782,685105,0
3,3,710814,248153,1338088,74106,9607,668699,0
3,3,730190,252701,1489737,77412,9890,744489,0
3,3,708433,248172,1318989,74128,8634,659086,0
3,3,710650,248029,1337733,74160,9131,668402,0
3,3,709121,248347,1411359,74146,8783,705327,0
3,3,713978,250333,1495246,75111,9190,746775,0
3,3,709513,248339,1423119,74204,9369,711206,0
3,3,708281,247895,1506061,74013,9007,752695,0
3,3,712003,248126,1385745,74048,9134,692570,0
3,3,709893,247949,1480529,74059,8942,739845,0
3,3,712701,248495,1433514,74164,9153,716384,0
3,3,706813,247795,1523679,73962,10215,760936,0
3,3,711704,249344,1357047,74696,8874,677913,0
3,3,710759,248296,1345615,74192,8525,672291,0
3,3,711028,248893,1367209,74599,8810,682968,0
3,3,708602,248135,1464782,74159,9163,732042,0
3,3,714474,248923,1570520,74356,10009,784934,0
3,3,708646,248188,1372959,74073,9002,685942,0
3,3,713989,250115,1266853,75020,8567,632769,0
3,3,711389,248211,1471896,74177,8998,735623,0
3,3,709284,248211,1358206,74115,9287,678731,0
3,3,711633,248440,1459622,74202,9147,729517,0
3,3,715545,249176,1539027,74475,9566,769192,0
3,3,707886,248498,1352596,74196,8917,675946,0
3,3,709786,248788,1343041,74278,9465,671126,0
3,3,707281,247974,1400116,73986,9144,699496,0
3,3,732179,253175,1491285,77516,10164,745461,0
3,3,712921,249207,1676800,74326,11798,837956,0
3,3,710597,248528,1402158,74171,10414,700632,0
3,3,710567,249049,1457161,74223,9447,728207,0
3,3,731603,252650,1479443,77270,10032,739274,0
3,3,716867,250344,1371840,74999,9152,685158,0
3,3,711173,248403,1389382,74066,9757,694353,0
3,3,713041,248320,1382489,74055,10228,690722,0
3,3,711029,247024,1371549,73634,9720,685409,0
3,3,711225,249196,1546822,74249,9961,772844,0
3,3,710155,248323,1348560,74053,8757,673748,0
3,3,711722,249121,1460643,74287,9809,729969,0
3,3,731463,253011,1551836,77399,11365,775425,0
3,3,713373,249683,1338178,74717,10217,668401,0
3,3,713700,248829,1481369,74236,9879,740343,0
3,3,712768,248365,1568704,74071,10915,784104,0
3,3,714451,249850,1484106,74711,9587,741561,0
3,3,711246,247812,1448671,73748,10706,724019,0
3,3,713962,248380,1562163,73995,10388,780689,0
3,3,733210,252955,1621652,77323,11396,810522,0
3,3,714487,248923,1551162,74251,11236,775225,0
3,3,714849,248850,1468234,74194,10990,733666,0
3,3,715263,247429,1541208,73733,9745,770245,0
3,3,706430,248479,1534510,74083,10786,766705,0
3,3,709256,248833,1458528,74163,9735,728915,0
3,3,710701,248484,1456593,74285,10135,727956,0
3,3,714963,250783,1382788,75266,9527,690670,0
3,3,713706,249479,1368495,74665,9053,683790,0
3,3,713720,250045,1345797,74770,8878,672549,0
3,3,712932,249223,1457363,74482,9766,728242,0
3,3,714003,249830,1417585,74664,9616,708403,0
3,3,717120,250269,1351478,74864,9488,675303,0
3,3,715142,249773,1399475,74811,9180,699375,0
3,3,718456,250949,1394886,75378,9686,696966,0
3,3,716901,249706,1450361,74725,9836,724901,0
3,3,711670,249756,1506573,74811,10002,752888,0
3,3,707408,248248,1394210,74173,9028,696783,0
3,3,716196,250606,1376471,75184,8890,687713,0
3,3,712674,249358,1489271,74444,9948,744323,0
3,3,711167,248942,1375624,74422,9276,687509,0
3,3,717981,250367,1585716,74858,9299,792435,0
3,3,712247,249580,1482367,74489,9841,740895,0
3,3,714539,249930,1331323,74708,9367,665313,0
3,3,715090,249592,1512638,74626,9600,755891,0
3,3,721206,251164,1391765,75391,9225,695014,0
3,3,719517,251205,1464899,75350,9401,731731,0
3,3,719162,250947,1497777,75306,9670,748312,0
3,3,715340,251608,1379145,75580,9093,688998,0
3,3,710972,248919,1434327,74375,8822,716912,0
3,3,713455,249151,1366743,74451,8554,682890,0
3,3,718181,251130,1397469,75373,9110,697982,0
3,3,709766,249648,1353462,74556,9191,676280,0
3,3,712827,249711,1434579,74548,9496,716902,0
3,3,712730,249011,1528853,74277,9234,764089,0
3,3,738436,255094,1591455,77975,10488,795295,0
3,3,712570,248862,1474596,74147,9737,736909,0
3,3,720345,251490,1415356,75315,9864,706800,0
3,3,716524,249702,1462439,74483,9763,730762,0
3,3,714471,250262,1378401,74876,8730,688688,0
3,3,714258,249253,1453436,74395,9379,726318,0
3,3,712984,249875,1295316,74626,8802,647211,0
3,3,715240,249747,1364147,74543,8847,681635,0
3,3,714251,248498,1365258,74085,8096,682320,0
3,3,715019,248808,1352255,74320,9225,675785,0
3,3,712215,248616,1430852,74193,8945,715098,0
3,3,713437,249478,1413497,74514,9340,706273,0
3,3,715871,249246,1388214,74426,9468,693601,0
3,3,709795,248467,1468365,74204,9646,733491,0
3,3,713796,248701,1488267,74271,8929,743668,0
3,3,716904,249229,1394114,74431,8851,696457,0
3,3,714260,248999,1528300,74381,9955,763682,0
3,3,708991,249006,1484171,74369,10330,741554,0
3,3,713357,249497,1356050,74449,10698,677627,0
3,3,715748,250605,1491559,75145,9702,744775,0
3,3,714548,249324,1408618,74446,10541,703772,0
3,3,711889,249373,1520580,74483,9647,759780,0
3,3,713314,249553,1471870,74480,9473,735571,0
3,3,736204,254118,1436787,77764,11852,717885,0
3,3,715837,251263,1446795,75350,10303,722816,0
3,3,734820,254475,1514554,77856,10753,756846,0
3,3,714223,249014,1409964,74360,9669,704284,0
3,3,714869,249553,1425982,74356,8981,712600,0
3,3,714910,249704,1382710,74486,9647,690556,0
3,3,716929,249884,1399751,74663,8847,699393,0
3,3,711966,249417,1410697,74411,9090,704953,0
3,3,712528,249424,1404450,74482,8854,701667,0
3,3,716099,249727,1424248,74569,9259,711865,0
3,3,711363,248708,1321986,74289,8801,660557,0
3,3,715606,248995,1436405,74374,9019,717894,0
3,3,715118,248862,1466126,74323,8812,732714,0
3,3,715661,248583,1505861,74262,9840,752587,0
3,3,735314,253829,1499725,77771,10970,749574,0
3,3,716248,250588,1352834,74948,9119,676041,0
3,3,714936,249138,1440972,74404,10864,719978,0
3,3,716976,249296,1578057,74421,9889,788756,0
3,3,719475,250306,1563375,74718,9338,780975,0
3,3,715987,248838,1528823,74219,10032,763396,0
3,3,720891,251323,1524655,75349,9418,761749,0
3,3,711482,249364,1339797,74447,10068,669073,0
3,3,717564,250724,1453043,75058,9353,725754,0
3,3,715701,249956,1400319,74858,9702,699483,0
3,3,713878,248213,1413087,74003,9779,706097,0
3,3,715027,250046,1413280,74911,9581,705912,0
3,3,711811,248728,1493422,74212,8978,746357,0
3,3,732328,253520,1468318,77558,10877,733449,0
3,3,713771,248939,1334623,74287,8970,666922,0
3,3,713011,248732,1476458,74178,9372,737753,0
3,3,717594,250536,1468894,74975,9888,733893,0
3,3,719153,249699,1511705,74699,10218,755367,0
3,3,713695,248185,1361241,73970,10041,680047,0
3,3,710798,248291,1327920,74009,8521,663774,0
3,3,709017,248078,1426725,73997,9010,712951,0
3,3,714827,248714,1481912,74243,9222,740205,0
3,3,710584,247933,1484799,73999,9738,742099,0
3,3,712097,248209,1578817,74119,9468,788994,0
3,3,713425,248011,1289792,74133,9548,644602,0
3,3,710636,247801,1486263,74133,10180,742647,0
3,3,713270,247972,1351628,74179,9081,675453,0
3,3,713865,248066,1582667,74237,10965,791039,0
3,3,714124,248584,1466509,74442,10066,732902,0
3,3,720260,250495,1476696,75237,9890,737547,0
3,3,712463,247437,1443653,74007,9447,720657,0
3,3,704617,248094,1436328,74216,7815,718026,0
3,3,704898,248078,1313323,74240,8649,656273,0
3,3,701691,247452,1416384,74136,9409,707790,0
3,3,705994,247329,1308084,73949,9305,653668,0
3,3,706100,247805,1375054,74112,10028,687193,0
3,3,706718,247967,1465828,74156,8703,732565,0
3,3,708964,247944,1412162,74213,8737,705615,0
3,3,703409,247543,1391033,74038,8431,695198,0
3,3,708272,248435,1434857,74364,8754,717042,0
3,3,706108,248094,1279367,74246,8734,639259,0
3,3,706643,247847,1454800,74177,8617,726998,0
3,3,705408,248127,1382758,74270,8590,691017,0
3,3,710941,249355,1479273,74852,8943,739114,0
3,3,707795,248170,1335141,74262,9008,667212,0
3,3,717847,250937,1792339,75492,11289,895536,0
3,3,706444,247890,1337120,74165,8283,668239,0
3,3,728371,252998,1464683,77653,9666,731752,0
3,3,709246,248369,1581239,74183,10281,789571,0
3,3,710291,248556,1429990,74308,8385,714696,0
3,3,710031,247769,1500483,74033,9373,749211,0
3,3,707432,248032,1368091,74092,8661,683704,0
